%!PS-Adobe-3.0 EPSF-3.0
%%BoundingBox: 0 0 514 550
%%Creator: BioKin Ltd.
%%DocumentFonts: Symbol Helvetica
%%EndComments
%
/bkdict 256 dict def
bkdict begin
/M {moveto} def 
/R {rmoveto} def
/L {lineto} def
/rL {rlineto} def
/GSN {gsave newpath} def
/SGR {stroke grestore} def
/COSGR {gsave setrgbcolor stroke grestore grestore} def
/SL {setlinewidth} def
/LWMB {12} def             % line width - model curves, black & white
/LWMC {10} def             % line width - model curves, color
/L2 {2.5 setlinewidth} def
/L5 {5 setlinewidth} def
/L10 {10 setlinewidth} def
/G50 {0.5 setgray} def
/SDA {[10  20] 0 setdash} def % axes
/helvT {/Helvetica findfont 100 scalefont setfont} def % tiny
/helvS {/Helvetica findfont 125 scalefont setfont} def % small
/helvM {/Helvetica findfont 150 scalefont setfont} def % medium
/helvL {/Helvetica findfont 175 scalefont setfont} def % large
/xlabel {gsave M dup
   stringwidth exch -0.5 mul exch rmoveto show grestore} def 
/ylabel {gsave M 90 rotate dup
   stringwidth exch -0.5 mul exch rmoveto show grestore} def
/ylabelresid {gsave M dup
   stringwidth exch -1 mul exch rmoveto show grestore} def
% ======
% Shapes
% ======
% Circle:
/Circ {0 360 arc closepath} def
%
% Square:
/Squa {dup dup -0.5 mul dup dup R -2 mul 0 exch rL 1 mul 0 rL dup 0 exch -1 mul rL closepath} def
%
% Triangle Up:
/TriU {dup dup dup -0.4 mul exch -0.5 mul exch R dup 0.5 mul exch rL dup -1 mul exch 0.5 mul exch rL closepath} def 
%
% Triangle Down:
/TriD {dup dup dup 0.4 mul exch -0.5 mul exch R dup 0.5 mul exch -1 mul rL dup 0.5 mul exch rL closepath} def 
%
% Diamond:
/Diam {45 rotate Squa} def
% ======
% Fills
% ======
/GRF {gsave setgray fill grestore} def                    % gray-level Fill
/COF {gsave setrgbcolor fill grestore} def                % color fill
% ======
% Colors
% ======
/C01 {1.00	0.00	0.00} def      % Red
/C02 {0.00	0.00	1.00} def      % Blue
/C03 {0.00	0.39	0.00} def      % Dark Green
/C04 {0.78	0.08	0.52} def      % Medium Violet Red
/C05 {0.55	0.27	0.07} def      % Saddle Brown
/C06 {0.10	0.70	0.70} def      % (cyan)
/C07 {1.00	0.55	0.00} def      % Dark Orange
/C08 {0.63	0.13	0.94} def      % Purple
/C09 {0.00	0.75	1.00} def      % Deep Sky Blue
/C10 {0.20	0.80	0.20} def      % Lime Green
/C11 {0.47	0.53	0.60} def      % Light Slate Gray
/C12 {0.00	0.00	0.00} def      % Black            % or: {0.19	0.31	0.31} def      % Dark Slate Gray
%
/LGR {0.75} def % light gray
/DGR {0.33} def % dark gray
%
% =============
% Dash patterns
% =============
/dash01 { [80  20] 0 setdash } def
/dash02 { [40  20] 0 setdash } def
/dash03 { [80  20  10  20] 0 setdash } def
/dash04 { [40  20  10  20] 0 setdash } def
/dash05 { [80  20  10  10  10  20] 0 setdash } def
/dash06 { [40  20  10  10  10  20] 0 setdash } def
/dash07 { [10  10] 0 setdash } def
%
/MFshow {
   { dup 5 get 3 ge
     { 5 get 3 eq {gsave} {grestore} ifelse }
     {dup dup 0 get findfont exch 1 get scalefont setfont
     [ currentpoint ] exch dup 2 get 0 exch R dup 5 get 2 ne {dup dup 6
     get exch 4 get {show} {stringwidth pop 0 R} ifelse }if dup 5 get 0 eq
     {dup 3 get {2 get neg 0 exch R pop} {pop aload pop M} ifelse} {dup 5
     get 1 eq {dup 2 get exch dup 3 get exch 6 get stringwidth pop -2 div
     dup 0 R} {dup 6 get stringwidth pop -2 div 0 R 6 get
     show 2 index {aload pop M neg 3 -1 roll neg R pop pop} {pop pop pop
     pop aload pop M} ifelse }ifelse }ifelse }
     ifelse }
   forall} bind def
/MFwidth {0 exch {dup 3 get{dup dup 0 get findfont exch 1 get scalefont
     setfont 6 get stringwidth pop add} {pop} ifelse} forall} bind def
/MCshow { currentpoint stroke M
  exch dup MFwidth -2 div 3 -1 roll R MFshow } def
%
end
%%EndProlog
bkdict begin
0.1 0.1 scale
%
% Residuals:
%
GSN 620 4554 M
620 4367 L
620 4791 L
620 4573 L
620 4863 L
620 4635 L
620 4694 L
620 4675 L
620 4523 L
620 4395 L
620 4551 L
620 4461 L
620 4667 L
620 4405 L
620 4472 L
620 4434 L
620 4437 L
620 4354 L
620 4279 L
620 4284 L
620 4126 L
620 4159 L
620 4329 L
620 4177 L
620 4084 L
620 4335 L
620 4186 L
620 4204 L
620 4134 L
620 4214 L
620 4126 L
620 3915 L
620 4153 L
620 3890 L
620 4196 L
620 4187 L
620 3856 L
620 4169 L
620 3693 L
620 4176 L
620 3976 L
620 4088 L
620 3834 L
620 4051 L
620 4010 L
620 3842 L
620 3813 L
620 3850 L
620 3978 L
620 3877 L
620 3832 L
620 3954 L
620 3793 L
620 3772 L
620 3783 L
620 3801 L
620 3695 L
620 3872 L
620 3797 L
620 3636 L
620 3614 L
620 3911 L
620 3534 L
620 3834 L
620 3539 L
620 3751 L
620 3411 L
620 3601 L
620 3374 L
620 3593 L
620 3612 L
620 3472 L
620 3446 L
620 3641 L
620 3311 L
620 3288 L
620 3628 L
620 3311 L
620 3311 L
620 3432 L
620 3631 L
620 3221 L
620 3191 L
620 3327 L
620 3301 L
620 3245 L
620 3319 L
620 3244 L
620 3043 L
620 2976 L
620 2893 L
620 2993 L
620 3025 L
620 3054 L
620 2725 L
620 2812 L
620 3040 L
620 2938 L
620 2662 L
620 3065 L
620 2983 L
620 2876 L
620 2884 L
620 2805 L
620 2844 L
620 2673 L
620 2483 L
620 2646 L
620 2568 L
620 2778 L
620 2766 L
620 2790 L
620 2713 L
620 2549 L
620 2538 L
620 2755 L
620 2423 L
620 2648 L
620 2301 L
620 2696 L
620 2408 L
620 2431 L
620 2503 L
620 2734 L
620 2530 L
620 2787 L
620 2741 L
620 2305 L
620 2549 L
620 2318 L
620 2576 L
620 2490 L
620 2383 L
620 2136 L
620 2594 L
620 2358 L
620 2417 L
620 2586 L
620 2672 L
620 2449 L
620 2455 L
620 2265 L
620 2300 L
620 2272 L
620 2433 L
620 2471 L
620 2567 L
620 2388 L
620 2587 L
620 2452 L
620 2403 L
620 2401 L
620 2330 L
620 2236 L
620 2331 L
620 2363 L
620 2317 L
620 2274 L
620 2400 L
620 2368 L
620 2421 L
620 2555 L
620 2598 L
620 2627 L
620 2397 L
620 2565 L
620 2759 L
620 2442 L
620 2486 L
620 2418 L
620 2673 L
620 2365 L
620 2404 L
620 2555 L
620 2570 L
620 2501 L
620 2340 L
620 2576 L
620 2598 L
620 2465 L
620 2389 L
620 2579 L
620 2559 L
620 2519 L
620 2299 L
620 2578 L
620 2439 L
620 2504 L
620 2364 L
620 2853 L
620 2650 L
620 2355 L
620 2776 L
620 2375 L
620 2583 L
620 2754 L
620 2591 L
620 2647 L
620 2671 L
620 2749 L
620 2653 L
620 2756 L
620 2288 L
620 2427 L
620 2623 L
620 2534 L
620 2548 L
620 2497 L
620 2590 L
620 2507 L
620 2555 L
620 2587 L
620 2741 L
620 2670 L
620 2609 L
620 2708 L
620 2515 L
620 2588 L
620 2475 L
620 2558 L
620 2541 L
620 2756 L
620 2630 L
620 2555 L
620 2560 L
620 2720 L
620 2911 L
620 2606 L
620 2740 L
620 2431 L
620 2584 L
620 2611 L
620 2629 L
620 2576 L
620 2723 L
620 2779 L
620 2653 L
620 2824 L
620 2546 L
620 2337 L
620 2750 L
620 2492 L
620 2833 L
620 2856 L
620 2691 L
620 2305 L
620 2672 L
620 2872 L
620 2712 L
620 2535 L
620 2739 L
620 2786 L
620 2891 L
620 2656 L
620 2665 L
620 2740 L
620 2796 L
620 2711 L
620 2749 L
620 2716 L
620 2741 L
620 2588 L
620 2670 L
620 2823 L
620 2721 L
620 2630 L
620 2722 L
620 2679 L
620 2660 L
620 2616 L
620 2408 L
620 2544 L
620 2737 L
620 2853 L
620 2716 L
620 2759 L
620 2846 L
620 2635 L
620 2802 L
620 2721 L
620 2637 L
620 2861 L
620 2800 L
620 3144 L
620 2902 L
620 2779 L
620 2767 L
620 2676 L
620 2915 L
620 2782 L
620 2991 L
620 2847 L
620 3061 L
620 3044 L
620 3007 L
620 3167 L
620 3027 L
620 2975 L
620 3024 L
620 3149 L
620 3109 L
620 2918 L
620 3144 L
620 2975 L
620 2956 L
620 3176 L
620 2762 L
620 3069 L
620 2955 L
620 3083 L
620 3152 L
620 2821 L
620 2862 L
620 3118 L
620 3176 L
620 3105 L
620 2899 L
620 2687 L
620 3068 L
620 2839 L
620 2795 L
620 2981 L
620 3141 L
620 2789 L
620 2896 L
620 3018 L
620 2910 L
620 3049 L
620 3063 L
620 3240 L
620 3089 L
620 3207 L
620 2863 L
620 3091 L
620 2996 L
620 3201 L
620 2855 L
620 2747 L
620 2712 L
620 3138 L
620 2926 L
620 3176 L
620 2991 L
620 2990 L
620 3016 L
620 3036 L
620 3026 L
620 2833 L
620 2906 L
620 3036 L
620 3043 L
620 2889 L
620 2778 L
620 2904 L
620 2922 L
620 2822 L
620 2827 L
620 2842 L
620 2881 L
620 3049 L
620 3060 L
620 2863 L
620 2978 L
620 2710 L
620 2847 L
620 2828 L
620 2992 L
620 3094 L
620 2707 L
620 2993 L
620 2746 L
620 2748 L
620 2789 L
620 2846 L
620 2789 L
620 2777 L
620 2902 L
620 2828 L
620 2985 L
620 2766 L
620 2770 L
620 3030 L
620 2709 L
620 3013 L
620 2824 L
620 2968 L
620 2885 L
620 2992 L
620 2762 L
620 2895 L
620 2813 L
620 2776 L
620 2853 L
620 2880 L
620 3014 L
620 2556 L
620 3037 L
620 2809 L
620 2764 L
620 2994 L
620 2734 L
620 2829 L
620 2797 L
620 2788 L
620 2792 L
620 2709 L
620 3034 L
620 2702 L
620 2757 L
620 2792 L
620 2696 L
620 2660 L
620 2842 L
620 2976 L
620 2843 L
620 2890 L
620 2945 L
620 3121 L
620 2912 L
620 3018 L
620 3158 L
620 3012 L
620 2822 L
620 2869 L
620 3106 L
620 2885 L
620 2878 L
620 2594 L
620 3083 L
620 2686 L
620 2845 L
620 2942 L
620 2867 L
620 2745 L
620 2847 L
620 3012 L
620 2975 L
620 3066 L
620 3163 L
620 2843 L
620 3226 L
620 2891 L
620 2930 L
620 2772 L
620 2935 L
620 2798 L
620 3010 L
620 2827 L
620 2962 L
620 2865 L
620 2937 L
620 2961 L
620 2805 L
620 3066 L
620 2763 L
620 3039 L
620 2957 L
620 3060 L
620 2866 L
620 2709 L
620 2781 L
620 2767 L
620 2903 L
620 2989 L
620 2905 L
620 2836 L
620 3139 L
620 2791 L
620 3171 L
620 3115 L
620 2580 L
620 2781 L
620 2889 L
620 3160 L
620 2812 L
620 3024 L
620 3006 L
620 2768 L
620 2655 L
620 2862 L
620 2929 L
620 2994 L
620 3012 L
620 2896 L
620 2923 L
620 3060 L
620 2810 L
620 2811 L
620 3040 L
620 3009 L
620 2918 L
620 2815 L
620 2912 L
620 3126 L
620 2756 L
620 2647 L
620 2694 L
620 3027 L
620 2943 L
620 2816 L
620 3143 L
620 3014 L
620 2845 L
620 2775 L
620 2815 L
620 2877 L
620 2916 L
620 2836 L
620 2752 L
620 3077 L
620 2837 L
620 2904 L
620 3177 L
620 2884 L
620 2670 L
620 2995 L
620 2729 L
620 3075 L
620 3016 L
620 2945 L
620 2822 L
620 3138 L
620 2781 L
620 2982 L
620 2900 L
620 3148 L
620 2989 L
620 2915 L
620 2984 L
620 3017 L
620 3120 L
620 2950 L
620 2995 L
L2 C02 COSGR

%
%================
% Legend - Begin
%================
%
GSN 4240 5180 M
4480 5180 L
LWMC SL  C02 COSGR
GSN 4540 5141 M helvM (1.0 uM) show grestore
%
%================
% Legend - End
%================
%

%
% Main frame
%
L10
GSN 
620 1700 M
4220 1700 L
4220 5300 L
620 5300 L
closepath SGR

%
% X axis: large tics
%
L10
%
% X axis: small tics
%
L5
%
% Y axis: large tics
%
L10
GSN 620 2138 M 54 0 rL SGR
GSN 4220 2138 M -54 0 rL SGR
helvS (-0.02) 560 2138 ylabel
GSN 620 2975 M 54 0 rL SGR
GSN 4220 2975 M -54 0 rL SGR
helvS (0) 560 2975 ylabel
GSN 620 3812 M 54 0 rL SGR
GSN 4220 3812 M -54 0 rL SGR
helvS (0.02) 560 3812 ylabel
GSN 620 4649 M 54 0 rL SGR
GSN 4220 4649 M -54 0 rL SGR
helvS (0.04) 560 4649 ylabel
%
% Y axis: small tics
%
L5
GSN 620 1720 M 36 0 rL SGR
GSN 4220 1720 M -36 0 rL SGR
GSN 620 1929 M 36 0 rL SGR
GSN 4220 1929 M -36 0 rL SGR
GSN 620 2138 M 36 0 rL SGR
GSN 4220 2138 M -36 0 rL SGR
GSN 620 2347 M 36 0 rL SGR
GSN 4220 2347 M -36 0 rL SGR
GSN 620 2557 M 36 0 rL SGR
GSN 4220 2557 M -36 0 rL SGR
GSN 620 2766 M 36 0 rL SGR
GSN 4220 2766 M -36 0 rL SGR
GSN 620 2975 M 36 0 rL SGR
GSN 4220 2975 M -36 0 rL SGR
GSN 620 3184 M 36 0 rL SGR
GSN 4220 3184 M -36 0 rL SGR
GSN 620 3394 M 36 0 rL SGR
GSN 4220 3394 M -36 0 rL SGR
GSN 620 3603 M 36 0 rL SGR
GSN 4220 3603 M -36 0 rL SGR
GSN 620 3812 M 36 0 rL SGR
GSN 4220 3812 M -36 0 rL SGR
GSN 620 4021 M 36 0 rL SGR
GSN 4220 4021 M -36 0 rL SGR
GSN 620 4230 M 36 0 rL SGR
GSN 4220 4230 M -36 0 rL SGR
GSN 620 4440 M 36 0 rL SGR
GSN 4220 4440 M -36 0 rL SGR
GSN 620 4649 M 36 0 rL SGR
GSN 4220 4649 M -36 0 rL SGR
GSN 620 4858 M 36 0 rL SGR
GSN 4220 4858 M -36 0 rL SGR
GSN 620 5067 M 36 0 rL SGR
GSN 4220 5067 M -36 0 rL SGR
GSN 620 5276 M 36 0 rL SGR
GSN 4220 5276 M -36 0 rL SGR

%
% X axis - residual panel
%
GSN L5 620 2975 M 4220 2975 L SDA G50 SGR

%
% X-Axis label:
%
gsave 620 1370 M 
[
[(Helvetica) 180 0 true true 0 (t)]
[(Helvetica) 180 0 true true 0 (i)]
[(Helvetica) 180 0 true true 0 (m)]
[(Helvetica) 180 0 true true 0 (e)]
] 0 MCshow grestore

%
% Y-Axis label:
%
gsave 234 3500 M 
currentpoint gsave translate 90 rotate 0 0 moveto
[
[(Helvetica) 180 0 true true 0 (r)]
[(Helvetica) 180 0 true true 0 (e)]
[(Helvetica) 180 0 true true 0 (s)]
[(Helvetica) 180 0 true true 0 (i)]
[(Helvetica) 180 0 true true 0 (d)]
[(Helvetica) 180 0 true true 0 (u)]
[(Helvetica) 180 0 true true 0 (a)]
[(Helvetica) 180 0 true true 0 (l)]
[(Helvetica) 180 0 true true 0 (s)]
] 0 MCshow grestore

end
showpage
%%Trailer
%%EOF
