%!PS-Adobe-3.0 EPSF-3.0
%%BoundingBox: 0 0 514 550
%%Creator: BioKin Ltd.
%%DocumentFonts: Symbol Helvetica
%%EndComments
%
/bkdict 256 dict def
bkdict begin
/M {moveto} def 
/R {rmoveto} def
/L {lineto} def
/rL {rlineto} def
/GSN {gsave newpath} def
/SGR {stroke grestore} def
/COSGR {gsave setrgbcolor stroke grestore grestore} def
/SL {setlinewidth} def
/LWMB {12} def             % line width - model curves, black & white
/LWMC {10} def             % line width - model curves, color
/L2 {2.5 setlinewidth} def
/L5 {5 setlinewidth} def
/L10 {10 setlinewidth} def
/G50 {0.5 setgray} def
/SDA {[10  20] 0 setdash} def % axes
/helvT {/Helvetica findfont 100 scalefont setfont} def % tiny
/helvS {/Helvetica findfont 125 scalefont setfont} def % small
/helvM {/Helvetica findfont 150 scalefont setfont} def % medium
/helvL {/Helvetica findfont 175 scalefont setfont} def % large
/xlabel {gsave M dup
   stringwidth exch -0.5 mul exch rmoveto show grestore} def 
/ylabel {gsave M 90 rotate dup
   stringwidth exch -0.5 mul exch rmoveto show grestore} def
/ylabelresid {gsave M dup
   stringwidth exch -1 mul exch rmoveto show grestore} def
% ======
% Shapes
% ======
% Circle:
/Circ {0 360 arc closepath} def
%
% Square:
/Squa {dup dup -0.5 mul dup dup R -2 mul 0 exch rL 1 mul 0 rL dup 0 exch -1 mul rL closepath} def
%
% Triangle Up:
/TriU {dup dup dup -0.4 mul exch -0.5 mul exch R dup 0.5 mul exch rL dup -1 mul exch 0.5 mul exch rL closepath} def 
%
% Triangle Down:
/TriD {dup dup dup 0.4 mul exch -0.5 mul exch R dup 0.5 mul exch -1 mul rL dup 0.5 mul exch rL closepath} def 
%
% Diamond:
/Diam {45 rotate Squa} def
% ======
% Fills
% ======
/GRF {gsave setgray fill grestore} def                    % gray-level Fill
/COF {gsave setrgbcolor fill grestore} def                % color fill
% ======
% Colors
% ======
/C01 {1.00	0.00	0.00} def      % Red
/C02 {0.00	0.00	1.00} def      % Blue
/C03 {0.00	0.39	0.00} def      % Dark Green
/C04 {0.78	0.08	0.52} def      % Medium Violet Red
/C05 {0.55	0.27	0.07} def      % Saddle Brown
/C06 {0.10	0.70	0.70} def      % (cyan)
/C07 {1.00	0.55	0.00} def      % Dark Orange
/C08 {0.63	0.13	0.94} def      % Purple
/C09 {0.00	0.75	1.00} def      % Deep Sky Blue
/C10 {0.20	0.80	0.20} def      % Lime Green
/C11 {0.47	0.53	0.60} def      % Light Slate Gray
/C12 {0.00	0.00	0.00} def      % Black            % or: {0.19	0.31	0.31} def      % Dark Slate Gray
%
/LGR {0.75} def % light gray
/DGR {0.33} def % dark gray
%
% =============
% Dash patterns
% =============
/dash01 { [80  20] 0 setdash } def
/dash02 { [40  20] 0 setdash } def
/dash03 { [80  20  10  20] 0 setdash } def
/dash04 { [40  20  10  20] 0 setdash } def
/dash05 { [80  20  10  10  10  20] 0 setdash } def
/dash06 { [40  20  10  10  10  20] 0 setdash } def
/dash07 { [10  10] 0 setdash } def
%
/MFshow {
   { dup 5 get 3 ge
     { 5 get 3 eq {gsave} {grestore} ifelse }
     {dup dup 0 get findfont exch 1 get scalefont setfont
     [ currentpoint ] exch dup 2 get 0 exch R dup 5 get 2 ne {dup dup 6
     get exch 4 get {show} {stringwidth pop 0 R} ifelse }if dup 5 get 0 eq
     {dup 3 get {2 get neg 0 exch R pop} {pop aload pop M} ifelse} {dup 5
     get 1 eq {dup 2 get exch dup 3 get exch 6 get stringwidth pop -2 div
     dup 0 R} {dup 6 get stringwidth pop -2 div 0 R 6 get
     show 2 index {aload pop M neg 3 -1 roll neg R pop pop} {pop pop pop
     pop aload pop M} ifelse }ifelse }ifelse }
     ifelse }
   forall} bind def
/MFwidth {0 exch {dup 3 get{dup dup 0 get findfont exch 1 get scalefont
     setfont 6 get stringwidth pop add} {pop} ifelse} forall} bind def
/MCshow { currentpoint stroke M
  exch dup MFwidth -2 div 3 -1 roll R MFshow } def
%
end
%%EndProlog
bkdict begin
0.1 0.1 scale
%
% Residuals:
%
GSN 620 3604 M
620 2653 L
620 2292 L
620 3187 L
620 3216 L
620 2799 L
620 2848 L
620 2908 L
620 3136 L
620 3135 L
620 2787 L
620 3393 L
620 2810 L
620 2980 L
620 3891 L
620 3259 L
620 3446 L
620 3018 L
620 3225 L
620 3331 L
620 3382 L
620 3132 L
620 2946 L
620 3168 L
620 3868 L
620 3370 L
620 3642 L
620 3450 L
620 3729 L
620 3741 L
620 3825 L
620 3600 L
620 3381 L
620 3132 L
620 3509 L
620 3534 L
620 3321 L
620 3790 L
620 4131 L
620 3915 L
620 3855 L
620 3541 L
620 4002 L
620 3325 L
620 3464 L
620 3693 L
620 3868 L
620 3731 L
620 3791 L
620 3803 L
620 3480 L
620 3571 L
620 3622 L
620 3401 L
620 2849 L
620 4041 L
620 3528 L
620 3650 L
620 3511 L
620 4167 L
620 3631 L
620 3380 L
620 4547 L
620 3326 L
620 3931 L
620 3825 L
620 3516 L
620 3704 L
620 3610 L
620 4127 L
620 3780 L
620 3290 L
620 4077 L
620 4484 L
620 3838 L
620 3763 L
620 4038 L
620 3382 L
620 3767 L
620 3849 L
620 3771 L
620 3368 L
620 3577 L
620 4181 L
620 3321 L
620 3533 L
620 3852 L
620 3721 L
620 3445 L
620 3255 L
620 3288 L
620 3410 L
620 2565 L
620 3330 L
620 3010 L
620 3828 L
620 3010 L
620 3317 L
620 2545 L
620 2908 L
620 2985 L
620 2697 L
620 3216 L
620 2805 L
620 3288 L
620 3339 L
620 2967 L
620 2636 L
620 2650 L
620 3302 L
620 2869 L
620 2734 L
620 2802 L
620 3108 L
620 2777 L
620 2927 L
620 2665 L
620 3073 L
620 3111 L
620 2958 L
620 3029 L
620 3062 L
620 2580 L
620 3474 L
620 3232 L
620 2212 L
620 3093 L
620 2938 L
620 3215 L
620 2857 L
620 2979 L
620 2636 L
620 3025 L
620 3038 L
620 3534 L
620 2445 L
620 2959 L
620 3243 L
620 3305 L
620 3227 L
620 3171 L
620 2629 L
620 2702 L
620 3071 L
620 2859 L
620 3048 L
620 3148 L
620 3056 L
620 3154 L
620 3207 L
620 2761 L
620 3196 L
620 2965 L
620 2749 L
620 3366 L
620 3425 L
620 2812 L
620 2864 L
620 3480 L
620 3339 L
620 3297 L
620 3295 L
620 2761 L
620 3278 L
620 3444 L
620 3329 L
620 2950 L
620 3005 L
620 3024 L
620 3337 L
620 3355 L
620 3345 L
620 3004 L
620 3634 L
620 3441 L
620 2758 L
620 3665 L
620 2984 L
620 3057 L
620 3264 L
620 3165 L
620 3534 L
620 3229 L
620 3519 L
620 3507 L
620 3372 L
620 3246 L
620 3488 L
620 3024 L
620 3331 L
620 3814 L
620 2924 L
620 3852 L
620 3200 L
620 2787 L
620 3286 L
620 3829 L
620 2803 L
620 3060 L
620 3536 L
620 3673 L
620 3201 L
620 3091 L
620 3146 L
620 3846 L
620 3404 L
620 3568 L
620 3716 L
620 3716 L
620 3677 L
620 4045 L
620 3613 L
620 3922 L
620 3649 L
620 3696 L
620 2997 L
620 3346 L
620 3823 L
620 2913 L
620 3418 L
620 3481 L
620 3363 L
620 3894 L
620 3477 L
620 3672 L
620 3590 L
620 3609 L
620 3491 L
620 3562 L
620 3976 L
620 3285 L
620 3540 L
620 3284 L
620 3281 L
620 3644 L
620 3295 L
620 3717 L
620 3523 L
620 3819 L
620 3722 L
620 4099 L
620 4023 L
620 3791 L
620 3849 L
620 3502 L
620 3594 L
620 3250 L
620 3834 L
620 3673 L
620 3368 L
620 3831 L
620 3704 L
620 3909 L
620 3309 L
620 3369 L
620 4407 L
620 4308 L
620 3382 L
620 3810 L
620 4096 L
620 3771 L
620 3732 L
620 3887 L
620 3713 L
620 4281 L
620 3366 L
620 3740 L
620 3815 L
620 3574 L
620 3858 L
620 3902 L
620 3909 L
620 3736 L
620 4060 L
620 3909 L
620 3525 L
620 3563 L
620 4021 L
620 3902 L
620 3959 L
620 3621 L
620 4414 L
620 3750 L
620 3870 L
620 4487 L
620 3984 L
620 4437 L
620 4396 L
620 4644 L
620 3849 L
620 4437 L
620 4277 L
620 4435 L
620 3885 L
620 4048 L
620 3709 L
620 3892 L
620 4623 L
620 4109 L
620 4365 L
620 3930 L
620 3665 L
620 3711 L
620 3459 L
620 3909 L
620 4095 L
620 4322 L
620 3680 L
620 3946 L
620 4863 L
620 3752 L
620 4038 L
620 3784 L
620 4575 L
620 3403 L
620 4273 L
620 4096 L
620 4503 L
620 3954 L
620 3918 L
620 3970 L
620 3824 L
620 4581 L
620 4316 L
620 3776 L
620 3590 L
620 3640 L
620 3852 L
620 4537 L
620 3809 L
620 3935 L
620 3900 L
620 4415 L
620 4191 L
620 3668 L
620 4164 L
620 3809 L
620 4090 L
620 3730 L
620 4069 L
620 4143 L
620 3990 L
620 3768 L
620 4520 L
620 3747 L
620 4446 L
620 3849 L
620 3933 L
620 4121 L
620 2959 L
620 3625 L
620 3880 L
620 3906 L
620 4205 L
620 4131 L
620 4157 L
620 3806 L
620 3422 L
620 3923 L
620 3871 L
620 4088 L
620 3618 L
620 3670 L
620 3262 L
620 3935 L
620 3809 L
620 3508 L
620 3816 L
620 3541 L
620 4209 L
620 3470 L
620 4560 L
620 3945 L
620 3257 L
620 3890 L
620 3601 L
620 3720 L
620 4408 L
620 3307 L
620 3341 L
620 3868 L
620 3665 L
620 3410 L
620 3661 L
620 3897 L
620 3720 L
620 3148 L
620 3580 L
620 2711 L
620 3248 L
620 3692 L
620 3708 L
620 3401 L
620 3019 L
620 3847 L
620 3291 L
620 2740 L
620 4121 L
620 3090 L
620 3038 L
620 4198 L
620 3365 L
620 3074 L
620 3563 L
620 3307 L
620 3162 L
620 3818 L
620 3747 L
620 3432 L
620 3279 L
620 3389 L
620 3012 L
620 3026 L
620 3331 L
620 3148 L
620 3401 L
620 3472 L
620 3021 L
620 3181 L
620 3591 L
620 2644 L
620 4073 L
620 3274 L
620 3854 L
620 3723 L
620 3071 L
620 3315 L
620 3138 L
620 3444 L
620 3386 L
620 2895 L
620 2852 L
620 3694 L
620 2921 L
620 3279 L
620 3482 L
620 3055 L
620 3107 L
620 3176 L
620 3093 L
620 2935 L
620 2928 L
620 3422 L
620 3057 L
620 3260 L
620 2582 L
620 3214 L
620 3202 L
620 2890 L
620 3035 L
620 3093 L
620 3527 L
620 3458 L
620 3167 L
620 2916 L
620 2728 L
620 3286 L
620 3410 L
620 3045 L
620 2897 L
620 2950 L
620 3816 L
620 3441 L
620 3064 L
620 2711 L
620 2649 L
620 3391 L
620 3319 L
620 3319 L
620 3455 L
620 3279 L
620 3004 L
620 2783 L
620 3107 L
620 2761 L
620 2840 L
620 3284 L
620 3537 L
620 2923 L
620 2857 L
620 2990 L
620 3563 L
620 2938 L
620 2890 L
620 3506 L
620 3551 L
620 3105 L
620 3620 L
620 2241 L
620 2320 L
620 3472 L
620 3167 L
620 2515 L
620 3217 L
620 3088 L
620 3749 L
620 3188 L
620 3673 L
620 2627 L
620 3661 L
620 3124 L
620 3210 L
620 3164 L
620 3107 L
620 2852 L
620 3000 L
620 2976 L
620 2997 L
620 3121 L
620 2763 L
620 2284 L
620 3370 L
620 2773 L
620 2601 L
620 2868 L
620 2981 L
620 3226 L
620 3284 L
620 2472 L
620 3243 L
620 3179 L
620 2771 L
620 3191 L
620 2649 L
620 2711 L
620 3343 L
620 2978 L
620 3031 L
620 2527 L
620 3117 L
620 2136 L
620 2792 L
620 3124 L
L2 C05 COSGR

%
%================
% Legend - Begin
%================
%
GSN 4240 5180 M
4480 5180 L
LWMC SL  C05 COSGR
GSN 4540 5141 M helvM (2.5 uM) show grestore
%
%================
% Legend - End
%================
%

%
% Main frame
%
L10
GSN 
620 1700 M
4220 1700 L
4220 5300 L
620 5300 L
closepath SGR

%
% X axis: large tics
%
L10
%
% X axis: small tics
%
L5
%
% Y axis: large tics
%
L10
GSN 620 2191 M 54 0 rL SGR
GSN 4220 2191 M -54 0 rL SGR
helvS (-0.01) 560 2191 ylabel
GSN 620 3442 M 54 0 rL SGR
GSN 4220 3442 M -54 0 rL SGR
helvS (0) 560 3442 ylabel
GSN 620 4693 M 54 0 rL SGR
GSN 4220 4693 M -54 0 rL SGR
helvS (0.01) 560 4693 ylabel
%
% Y axis: small tics
%
L5
GSN 620 1878 M 36 0 rL SGR
GSN 4220 1878 M -36 0 rL SGR
GSN 620 2191 M 36 0 rL SGR
GSN 4220 2191 M -36 0 rL SGR
GSN 620 2504 M 36 0 rL SGR
GSN 4220 2504 M -36 0 rL SGR
GSN 620 2816 M 36 0 rL SGR
GSN 4220 2816 M -36 0 rL SGR
GSN 620 3129 M 36 0 rL SGR
GSN 4220 3129 M -36 0 rL SGR
GSN 620 3442 M 36 0 rL SGR
GSN 4220 3442 M -36 0 rL SGR
GSN 620 3755 M 36 0 rL SGR
GSN 4220 3755 M -36 0 rL SGR
GSN 620 4068 M 36 0 rL SGR
GSN 4220 4068 M -36 0 rL SGR
GSN 620 4380 M 36 0 rL SGR
GSN 4220 4380 M -36 0 rL SGR
GSN 620 4693 M 36 0 rL SGR
GSN 4220 4693 M -36 0 rL SGR
GSN 620 5006 M 36 0 rL SGR
GSN 4220 5006 M -36 0 rL SGR

%
% X axis - residual panel
%
GSN L5 620 3442 M 4220 3442 L SDA G50 SGR

%
% X-Axis label:
%
gsave 620 1370 M 
[
[(Helvetica) 180 0 true true 0 (t)]
[(Helvetica) 180 0 true true 0 (i)]
[(Helvetica) 180 0 true true 0 (m)]
[(Helvetica) 180 0 true true 0 (e)]
] 0 MCshow grestore

%
% Y-Axis label:
%
gsave 234 3499 M 
currentpoint gsave translate 90 rotate 0 0 moveto
[
[(Helvetica) 180 0 true true 0 (r)]
[(Helvetica) 180 0 true true 0 (e)]
[(Helvetica) 180 0 true true 0 (s)]
[(Helvetica) 180 0 true true 0 (i)]
[(Helvetica) 180 0 true true 0 (d)]
[(Helvetica) 180 0 true true 0 (u)]
[(Helvetica) 180 0 true true 0 (a)]
[(Helvetica) 180 0 true true 0 (l)]
[(Helvetica) 180 0 true true 0 (s)]
] 0 MCshow grestore

end
showpage
%%Trailer
%%EOF
