%!PS-Adobe-3.0 EPSF-3.0
%%BoundingBox: 0 0 514 442
%%Creator: BioKin Ltd.
%%DocumentFonts: Symbol Helvetica
%%EndComments
%
/bkdict 256 dict def
bkdict begin
/M {moveto} def 
/R {rmoveto} def
/L {lineto} def
/rL {rlineto} def
/GSN {gsave newpath} def
/SGR {stroke grestore} def
/COSGR {gsave setrgbcolor stroke grestore grestore} def
/SL {setlinewidth} def
/LWMB {12} def             % line width - model curves, black & white
/LWMC {10} def             % line width - model curves, color
/L2 {2.5 setlinewidth} def
/L5 {5 setlinewidth} def
/L10 {10 setlinewidth} def
/G50 {0.5 setgray} def
/SDA {[10  20] 0 setdash} def % axes
/helvT {/Helvetica findfont 100 scalefont setfont} def % tiny
/helvS {/Helvetica findfont 125 scalefont setfont} def % small
/helvM {/Helvetica findfont 150 scalefont setfont} def % medium
/helvL {/Helvetica findfont 175 scalefont setfont} def % large
/xlabel {gsave M dup
   stringwidth exch -0.5 mul exch rmoveto show grestore} def 
/ylabel {gsave M 90 rotate dup
   stringwidth exch -0.5 mul exch rmoveto show grestore} def
/ylabelresid {gsave M dup
   stringwidth exch -1 mul exch rmoveto show grestore} def
% ======
% Shapes
% ======
% Circle:
/Circ {0 360 arc closepath} def
%
% Square:
/Squa {dup dup -0.5 mul dup dup R -2 mul 0 exch rL 1 mul 0 rL dup 0 exch -1 mul rL closepath} def
%
% Triangle Up:
/TriU {dup dup dup -0.4 mul exch -0.5 mul exch R dup 0.5 mul exch rL dup -1 mul exch 0.5 mul exch rL closepath} def 
%
% Triangle Down:
/TriD {dup dup dup 0.4 mul exch -0.5 mul exch R dup 0.5 mul exch -1 mul rL dup 0.5 mul exch rL closepath} def 
%
% Diamond:
/Diam {45 rotate Squa} def
% ======
% Fills
% ======
/GRF {gsave setgray fill grestore} def                    % gray-level Fill
/COF {gsave setrgbcolor fill grestore} def                % color fill
% ======
% Colors
% ======
/C01 {1.00	0.00	0.00} def      % Red
/C02 {0.00	0.00	1.00} def      % Blue
/C03 {0.00	0.39	0.00} def      % Dark Green
/C04 {0.78	0.08	0.52} def      % Medium Violet Red
/C05 {0.55	0.27	0.07} def      % Saddle Brown
/C06 {0.10	0.70	0.70} def      % (cyan)
/C07 {1.00	0.55	0.00} def      % Dark Orange
/C08 {0.63	0.13	0.94} def      % Purple
/C09 {0.00	0.75	1.00} def      % Deep Sky Blue
/C10 {0.20	0.80	0.20} def      % Lime Green
/C11 {0.47	0.53	0.60} def      % Light Slate Gray
/C12 {0.00	0.00	0.00} def      % Black            % or: {0.19	0.31	0.31} def      % Dark Slate Gray
%
/LGR {0.75} def % light gray
/DGR {0.33} def % dark gray
%
% =============
% Dash patterns
% =============
/dash01 { [80  20] 0 setdash } def
/dash02 { [40  20] 0 setdash } def
/dash03 { [80  20  10  20] 0 setdash } def
/dash04 { [40  20  10  20] 0 setdash } def
/dash05 { [80  20  10  10  10  20] 0 setdash } def
/dash06 { [40  20  10  10  10  20] 0 setdash } def
/dash07 { [10  10] 0 setdash } def
%
/MFshow {
   { dup 5 get 3 ge
     { 5 get 3 eq {gsave} {grestore} ifelse }
     {dup dup 0 get findfont exch 1 get scalefont setfont
     [ currentpoint ] exch dup 2 get 0 exch R dup 5 get 2 ne {dup dup 6
     get exch 4 get {show} {stringwidth pop 0 R} ifelse }if dup 5 get 0 eq
     {dup 3 get {2 get neg 0 exch R pop} {pop aload pop M} ifelse} {dup 5
     get 1 eq {dup 2 get exch dup 3 get exch 6 get stringwidth pop -2 div
     dup 0 R} {dup 6 get stringwidth pop -2 div 0 R 6 get
     show 2 index {aload pop M neg 3 -1 roll neg R pop pop} {pop pop pop
     pop aload pop M} ifelse }ifelse }ifelse }
     ifelse }
   forall} bind def
/MFwidth {0 exch {dup 3 get{dup dup 0 get findfont exch 1 get scalefont
     setfont 6 get stringwidth pop add} {pop} ifelse} forall} bind def
/MCshow { currentpoint stroke M
  exch dup MFwidth -2 div 3 -1 roll R MFshow } def
%
end
%%EndProlog
bkdict begin
0.1 0.1 scale
%
% Model curves:
%

GSN 753 3658 M
770 3658 L
803 3658 L
837 3658 L
870 3657 L
895 3657 L
911 3657 L
937 3657 L
970 3657 L
1003 3656 L
1037 3656 L
1053 3655 L
1070 3655 L
1103 3655 L
1137 3654 L
1170 3653 L
1195 3653 L
1211 3652 L
1237 3651 L
1270 3650 L
1303 3649 L
1337 3647 L
1353 3645 L
1370 3645 L
1403 3643 L
1437 3640 L
1470 3637 L
1495 3634 L
1512 3632 L
1537 3630 L
1570 3625 L
1603 3620 L
1637 3614 L
1653 3607 L
1670 3607 L
1703 3599 L
1737 3589 L
1770 3579 L
1795 3567 L
1812 3560 L
1837 3554 L
1870 3539 L
1903 3522 L
1937 3504 L
1953 3484 L
1971 3484 L
2003 3463 L
2037 3441 L
2070 3417 L
2095 3394 L
2112 3382 L
2137 3372 L
2170 3351 L
2203 3333 L
2237 3320 L
2253 3314 L
2271 3314 L
2303 3316 L
2337 3329 L
2370 3352 L
2395 3389 L
2412 3414 L
2437 3438 L
2470 3499 L
2503 3569 L
2537 3646 L
2553 3725 L
2571 3728 L
2603 3802 L
2637 3872 L
2670 3932 L
2695 3982 L
2712 4003 L
2737 4019 L
2770 4045 L
2803 4063 L
2837 4074 L
2854 4080 L
2871 4080 L
2903 4084 L
2937 4085 L
2970 4086 L
2995 4086 L
3012 4086 L
3037 4086 L
3061 4086 L
3077 4086 L
3103 4086 L
3137 4086 L
3154 4086 L
3171 4086 L
3203 4086 L
3237 4086 L
3270 4086 L
3296 4086 L
3312 4086 L
3337 4086 L
3370 4086 L
3403 4086 L
3437 4086 L
3454 4086 L
3471 4086 L
3503 4086 L
3537 4086 L
3570 4086 L
3596 4086 L
3612 4086 L
3637 4086 L
3670 4086 L
3703 4086 L
3737 4086 L
3754 4086 L
3771 4086 L
3803 4086 L
3837 4086 L
3870 4086 L
3896 4086 L
3912 4086 L
3937 4086 L
3970 4086 L
4003 4086 L
4037 4086 L
4070 4086 L
LWMC SL dash01 C01 COSGR

GSN 753 3258 M
770 3258 L
803 3258 L
837 3258 L
870 3258 L
895 3257 L
911 3257 L
937 3257 L
970 3256 L
1003 3256 L
1037 3255 L
1053 3254 L
1070 3254 L
1103 3253 L
1137 3252 L
1170 3251 L
1195 3250 L
1211 3249 L
1237 3248 L
1270 3246 L
1303 3244 L
1337 3242 L
1353 3239 L
1370 3239 L
1403 3235 L
1437 3231 L
1470 3226 L
1495 3221 L
1512 3218 L
1537 3215 L
1570 3208 L
1603 3200 L
1637 3190 L
1653 3179 L
1670 3179 L
1703 3167 L
1737 3153 L
1770 3137 L
1795 3119 L
1812 3109 L
1837 3099 L
1870 3077 L
1903 3052 L
1937 3026 L
1953 2997 L
1971 2996 L
2003 2967 L
2037 2935 L
2070 2904 L
2095 2873 L
2112 2858 L
2137 2845 L
2170 2822 L
2203 2805 L
2237 2797 L
2253 2801 L
2271 2801 L
2303 2819 L
2337 2854 L
2370 2908 L
2395 2981 L
2412 3027 L
2437 3071 L
2470 3178 L
2503 3296 L
2537 3419 L
2553 3543 L
2571 3547 L
2603 3659 L
2637 3762 L
2670 3850 L
2695 3919 L
2712 3949 L
2737 3971 L
2770 4009 L
2803 4035 L
2837 4053 L
2854 4065 L
2871 4065 L
2903 4073 L
2937 4078 L
2970 4082 L
2995 4084 L
3012 4085 L
3037 4085 L
3061 4086 L
3077 4086 L
3103 4086 L
3137 4086 L
3154 4086 L
3171 4086 L
3203 4086 L
3237 4086 L
3270 4086 L
3296 4086 L
3312 4086 L
3337 4086 L
3370 4086 L
3403 4086 L
3437 4086 L
3454 4086 L
3471 4086 L
3503 4086 L
3537 4086 L
3570 4086 L
3596 4086 L
3612 4086 L
3637 4086 L
3670 4086 L
3703 4086 L
3737 4086 L
3754 4086 L
3771 4086 L
3803 4086 L
3837 4086 L
3870 4086 L
3896 4086 L
3912 4086 L
3937 4086 L
3970 4086 L
4003 4086 L
4037 4086 L
4070 4086 L
LWMC SL dash02 C02 COSGR

GSN 753 2928 M
770 2928 L
803 2928 L
837 2927 L
870 2927 L
895 2927 L
911 2926 L
937 2926 L
970 2926 L
1003 2925 L
1037 2924 L
1053 2923 L
1070 2923 L
1103 2922 L
1137 2921 L
1170 2920 L
1195 2918 L
1211 2917 L
1237 2917 L
1270 2914 L
1303 2912 L
1337 2909 L
1353 2906 L
1370 2906 L
1403 2902 L
1437 2897 L
1470 2892 L
1495 2886 L
1512 2883 L
1537 2879 L
1570 2871 L
1603 2862 L
1637 2852 L
1653 2839 L
1670 2839 L
1703 2826 L
1737 2810 L
1770 2792 L
1795 2773 L
1812 2761 L
1837 2751 L
1870 2726 L
1903 2700 L
1937 2671 L
1953 2640 L
1971 2639 L
2003 2608 L
2037 2576 L
2070 2545 L
2095 2516 L
2112 2503 L
2137 2492 L
2170 2475 L
2203 2467 L
2237 2473 L
2253 2494 L
2271 2495 L
2303 2535 L
2337 2597 L
2370 2681 L
2395 2789 L
2412 2855 L
2437 2917 L
2470 3062 L
2503 3217 L
2537 3376 L
2553 3530 L
2571 3535 L
2603 3671 L
2637 3792 L
2670 3890 L
2695 3964 L
2712 3995 L
2737 4016 L
2770 4049 L
2803 4068 L
2837 4078 L
2854 4083 L
2871 4083 L
2903 4085 L
2937 4086 L
2970 4086 L
2995 4086 L
3012 4086 L
3037 4086 L
3061 4086 L
3077 4086 L
3103 4086 L
3137 4086 L
3154 4086 L
3171 4086 L
3203 4086 L
3237 4086 L
3270 4086 L
3296 4086 L
3312 4086 L
3337 4086 L
3370 4086 L
3403 4086 L
3437 4086 L
3454 4086 L
3471 4086 L
3503 4086 L
3537 4086 L
3570 4086 L
3596 4086 L
3612 4086 L
3637 4086 L
3670 4086 L
3703 4086 L
3737 4086 L
3754 4086 L
3771 4086 L
3803 4086 L
3837 4086 L
3870 4086 L
3896 4086 L
3912 4086 L
3937 4086 L
3970 4086 L
4003 4086 L
4037 4086 L
4070 4086 L
LWMC SL dash03 C03 COSGR

GSN 753 2512 M
770 2512 L
803 2512 L
837 2511 L
870 2511 L
895 2511 L
911 2511 L
937 2510 L
970 2510 L
1003 2509 L
1037 2509 L
1053 2508 L
1070 2508 L
1103 2507 L
1137 2506 L
1170 2504 L
1195 2503 L
1211 2502 L
1237 2501 L
1270 2499 L
1303 2497 L
1337 2494 L
1353 2491 L
1370 2491 L
1403 2488 L
1437 2483 L
1470 2478 L
1495 2473 L
1512 2470 L
1537 2466 L
1570 2459 L
1603 2450 L
1637 2440 L
1653 2429 L
1670 2429 L
1703 2416 L
1737 2402 L
1770 2385 L
1795 2367 L
1812 2357 L
1837 2347 L
1870 2324 L
1903 2300 L
1937 2275 L
1953 2248 L
1971 2248 L
2003 2222 L
2037 2197 L
2070 2174 L
2095 2156 L
2112 2149 L
2137 2146 L
2170 2146 L
2203 2159 L
2237 2191 L
2253 2243 L
2271 2245 L
2303 2319 L
2337 2421 L
2370 2549 L
2395 2701 L
2412 2792 L
2437 2874 L
2470 3061 L
2503 3253 L
2537 3440 L
2553 3612 L
2571 3618 L
2603 3759 L
2637 3877 L
2670 3964 L
2695 4022 L
2712 4043 L
2737 4056 L
2770 4074 L
2803 4082 L
2837 4085 L
2854 4086 L
2871 4086 L
2903 4086 L
2937 4086 L
2970 4086 L
2995 4086 L
3012 4086 L
3037 4086 L
3061 4086 L
3077 4086 L
3103 4086 L
3137 4086 L
3154 4086 L
3171 4086 L
3203 4086 L
3237 4086 L
3270 4086 L
3296 4086 L
3312 4086 L
3337 4086 L
3370 4086 L
3403 4086 L
3437 4086 L
3454 4086 L
3471 4086 L
3503 4086 L
3537 4086 L
3570 4086 L
3596 4086 L
3612 4086 L
3637 4086 L
3670 4086 L
3703 4086 L
3737 4086 L
3754 4086 L
3771 4086 L
3803 4086 L
3837 4086 L
3870 4086 L
3896 4086 L
3912 4086 L
3937 4086 L
3970 4086 L
4003 4086 L
4037 4086 L
4070 4086 L
LWMC SL dash04 C04 COSGR

GSN 753 2019 M
770 2019 L
803 2019 L
837 2019 L
870 2019 L
895 2019 L
911 2018 L
937 2018 L
970 2018 L
1003 2018 L
1037 2017 L
1053 2017 L
1070 2017 L
1103 2017 L
1137 2016 L
1170 2015 L
1195 2014 L
1211 2014 L
1237 2014 L
1270 2013 L
1303 2011 L
1337 2010 L
1353 2008 L
1370 2008 L
1403 2006 L
1437 2004 L
1470 2001 L
1495 1998 L
1512 1996 L
1537 1995 L
1570 1991 L
1603 1986 L
1637 1980 L
1653 1974 L
1670 1974 L
1703 1967 L
1737 1959 L
1770 1950 L
1795 1940 L
1812 1934 L
1837 1929 L
1870 1917 L
1903 1904 L
1937 1892 L
1953 1881 L
1971 1880 L
2003 1871 L
2037 1865 L
2070 1865 L
2095 1872 L
2112 1880 L
2137 1891 L
2170 1924 L
2203 1974 L
2237 2046 L
2253 2143 L
2271 2146 L
2303 2265 L
2337 2413 L
2370 2586 L
2395 2777 L
2412 2886 L
2437 2981 L
2470 3188 L
2503 3388 L
2537 3570 L
2553 3726 L
2571 3731 L
2603 3851 L
2637 3944 L
2670 4007 L
2695 4047 L
2712 4060 L
2737 4069 L
2770 4079 L
2803 4084 L
2837 4086 L
2854 4086 L
2871 4086 L
2903 4086 L
2937 4086 L
2970 4086 L
2995 4086 L
3012 4086 L
3037 4086 L
3061 4086 L
3077 4086 L
3103 4086 L
3137 4086 L
3154 4086 L
3171 4086 L
3203 4086 L
3237 4086 L
3270 4086 L
3296 4086 L
3312 4086 L
3337 4086 L
3370 4086 L
3403 4086 L
3437 4086 L
3454 4086 L
3471 4086 L
3503 4086 L
3537 4086 L
3570 4086 L
3596 4086 L
3612 4086 L
3637 4086 L
3670 4086 L
3703 4086 L
3737 4086 L
3754 4086 L
3771 4086 L
3803 4086 L
3837 4086 L
3870 4086 L
3896 4086 L
3912 4086 L
3937 4086 L
3970 4086 L
4003 4086 L
4037 4086 L
4070 4086 L
LWMC SL dash05 C05 COSGR

GSN 753 1607 M
770 1607 L
803 1607 L
837 1607 L
870 1607 L
895 1607 L
911 1607 L
937 1607 L
970 1607 L
1003 1607 L
1037 1607 L
1053 1607 L
1070 1607 L
1103 1607 L
1137 1608 L
1170 1608 L
1195 1608 L
1211 1608 L
1237 1608 L
1270 1608 L
1303 1608 L
1337 1609 L
1353 1609 L
1370 1609 L
1403 1609 L
1437 1609 L
1470 1610 L
1495 1610 L
1512 1610 L
1537 1610 L
1570 1610 L
1603 1611 L
1637 1611 L
1653 1611 L
1670 1611 L
1703 1611 L
1737 1610 L
1770 1610 L
1795 1610 L
1812 1610 L
1837 1610 L
1870 1610 L
1903 1611 L
1937 1613 L
1953 1617 L
1971 1617 L
2003 1625 L
2037 1638 L
2070 1658 L
2095 1688 L
2112 1709 L
2137 1732 L
2170 1791 L
2203 1870 L
2237 1972 L
2253 2098 L
2271 2103 L
2303 2250 L
2337 2424 L
2370 2619 L
2395 2827 L
2412 2941 L
2437 3040 L
2470 3250 L
2503 3445 L
2537 3618 L
2553 3763 L
2571 3768 L
2603 3877 L
2637 3960 L
2670 4017 L
2695 4051 L
2712 4063 L
2737 4071 L
2770 4080 L
2803 4084 L
2837 4086 L
2854 4086 L
2871 4086 L
2903 4086 L
2937 4086 L
2970 4086 L
2995 4086 L
3012 4086 L
3037 4086 L
3061 4086 L
3077 4086 L
3103 4086 L
3137 4086 L
3154 4086 L
3171 4086 L
3203 4086 L
3237 4086 L
3270 4086 L
3296 4086 L
3312 4086 L
3337 4086 L
3370 4086 L
3403 4086 L
3437 4086 L
3454 4086 L
3471 4086 L
3503 4086 L
3537 4086 L
3570 4086 L
3596 4086 L
3612 4086 L
3637 4086 L
3670 4086 L
3703 4086 L
3737 4086 L
3754 4086 L
3771 4086 L
3803 4086 L
3837 4086 L
3870 4086 L
3896 4086 L
3912 4086 L
3937 4086 L
3970 4086 L
4003 4086 L
4037 4086 L
4070 4086 L
LWMC SL dash06 C06 COSGR

GSN 753 753 M
770 753 L
803 753 L
837 754 L
870 755 L
895 755 L
911 756 L
937 756 L
970 757 L
1003 759 L
1037 760 L
1053 762 L
1070 762 L
1103 764 L
1137 766 L
1170 769 L
1195 772 L
1211 774 L
1237 775 L
1270 779 L
1303 784 L
1337 790 L
1353 796 L
1370 796 L
1403 803 L
1437 811 L
1470 821 L
1495 832 L
1512 838 L
1537 844 L
1570 857 L
1603 873 L
1637 890 L
1653 909 L
1670 910 L
1703 930 L
1737 954 L
1770 979 L
1795 1007 L
1812 1023 L
1837 1038 L
1870 1071 L
1903 1107 L
1937 1147 L
1953 1191 L
1971 1192 L
2003 1241 L
2037 1298 L
2070 1365 L
2095 1443 L
2112 1490 L
2137 1535 L
2170 1644 L
2203 1772 L
2237 1921 L
2253 2089 L
2271 2095 L
2303 2277 L
2337 2479 L
2370 2692 L
2395 2909 L
2412 3023 L
2437 3121 L
2470 3323 L
2503 3506 L
2537 3665 L
2553 3797 L
2571 3801 L
2603 3899 L
2637 3974 L
2670 4024 L
2695 4055 L
2712 4066 L
2737 4072 L
2770 4081 L
2803 4084 L
2837 4086 L
2854 4086 L
2871 4086 L
2903 4086 L
2937 4086 L
2970 4086 L
2995 4086 L
3012 4086 L
3037 4086 L
3061 4086 L
3077 4086 L
3103 4086 L
3137 4086 L
3154 4086 L
3171 4086 L
3203 4086 L
3237 4086 L
3270 4086 L
3296 4086 L
3312 4086 L
3337 4086 L
3370 4086 L
3403 4086 L
3437 4086 L
3454 4086 L
3471 4086 L
3503 4086 L
3537 4086 L
3570 4086 L
3596 4086 L
3612 4086 L
3637 4086 L
3670 4086 L
3703 4086 L
3737 4086 L
3754 4086 L
3771 4086 L
3803 4086 L
3837 4086 L
3870 4086 L
3896 4086 L
3912 4086 L
3937 4086 L
3970 4086 L
4003 4086 L
4037 4086 L
4070 4086 L
LWMC SL dash07 C07 COSGR

%
%================
% Legend - Begin
%================
%
GSN 4240 4040 M
4480 4040 L
LWMC SL dash01 C01 COSGR
GSN 4540 4001 M helvM (0.5 uM) show grestore
GSN 4240 3860 M
4480 3860 L
LWMC SL dash02 C02 COSGR
GSN 4540 3821 M helvM (1.0 uM) show grestore
GSN 4240 3680 M
4480 3680 L
LWMC SL dash03 C03 COSGR
GSN 4540 3641 M helvM (1.5 uM) show grestore
GSN 4240 3500 M
4480 3500 L
LWMC SL dash04 C04 COSGR
GSN 4540 3461 M helvM (2.0 uM) show grestore
GSN 4240 3320 M
4480 3320 L
LWMC SL dash05 C05 COSGR
GSN 4540 3281 M helvM (2.5 uM) show grestore
GSN 4240 3140 M
4480 3140 L
LWMC SL dash06 C06 COSGR
GSN 4540 3101 M helvM (3.0 uM) show grestore
GSN 4240 2960 M
4480 2960 L
LWMC SL dash07 C07 COSGR
GSN 4540 2921 M helvM (4.0 uM) show grestore
%
%================
% Legend - End
%================
%

%
% Main frame
%
L10
GSN 
620 620 M
4220 620 L
4220 4220 L
620 4220 L
closepath SGR

%
% X axis: large tics
%
L10
GSN 1074 620 M 0  54 rL SGR
GSN 1074 4220 M 0 -54 rL SGR
helvS (0.0001) 1074 470 xlabel
GSN 1572 620 M 0  54 rL SGR
GSN 1572 4220 M 0 -54 rL SGR
helvS (0.001) 1572 470 xlabel
GSN 2071 620 M 0  54 rL SGR
GSN 2071 4220 M 0 -54 rL SGR
helvS (0.01) 2071 470 xlabel
GSN 2570 620 M 0  54 rL SGR
GSN 2570 4220 M 0 -54 rL SGR
helvS (0.1) 2570 470 xlabel
GSN 3068 620 M 0  54 rL SGR
GSN 3068 4220 M 0 -54 rL SGR
helvS (1) 3068 470 xlabel
GSN 3567 620 M 0  54 rL SGR
GSN 3567 4220 M 0 -54 rL SGR
helvS (10) 3567 470 xlabel
GSN 4066 620 M 0  54 rL SGR
GSN 4066 4220 M 0 -54 rL SGR
helvS (100) 4066 470 xlabel
%
% X axis: small tics
%
L5
GSN 725 620 M 0  36 rL SGR
GSN 725 4220 M 0 -36 rL SGR
GSN 813 620 M 0  36 rL SGR
GSN 813 4220 M 0 -36 rL SGR
GSN 875 620 M 0  36 rL SGR
GSN 875 4220 M 0 -36 rL SGR
GSN 924 620 M 0  36 rL SGR
GSN 924 4220 M 0 -36 rL SGR
GSN 963 620 M 0  36 rL SGR
GSN 963 4220 M 0 -36 rL SGR
GSN 996 620 M 0  36 rL SGR
GSN 996 4220 M 0 -36 rL SGR
GSN 1025 620 M 0  36 rL SGR
GSN 1025 4220 M 0 -36 rL SGR
GSN 1051 620 M 0  36 rL SGR
GSN 1051 4220 M 0 -36 rL SGR
GSN 1224 620 M 0  36 rL SGR
GSN 1224 4220 M 0 -36 rL SGR
GSN 1312 620 M 0  36 rL SGR
GSN 1312 4220 M 0 -36 rL SGR
GSN 1374 620 M 0  36 rL SGR
GSN 1374 4220 M 0 -36 rL SGR
GSN 1422 620 M 0  36 rL SGR
GSN 1422 4220 M 0 -36 rL SGR
GSN 1462 620 M 0  36 rL SGR
GSN 1462 4220 M 0 -36 rL SGR
GSN 1495 620 M 0  36 rL SGR
GSN 1495 4220 M 0 -36 rL SGR
GSN 1524 620 M 0  36 rL SGR
GSN 1524 4220 M 0 -36 rL SGR
GSN 1550 620 M 0  36 rL SGR
GSN 1550 4220 M 0 -36 rL SGR
GSN 1722 620 M 0  36 rL SGR
GSN 1722 4220 M 0 -36 rL SGR
GSN 1810 620 M 0  36 rL SGR
GSN 1810 4220 M 0 -36 rL SGR
GSN 1873 620 M 0  36 rL SGR
GSN 1873 4220 M 0 -36 rL SGR
GSN 1921 620 M 0  36 rL SGR
GSN 1921 4220 M 0 -36 rL SGR
GSN 1960 620 M 0  36 rL SGR
GSN 1960 4220 M 0 -36 rL SGR
GSN 1994 620 M 0  36 rL SGR
GSN 1994 4220 M 0 -36 rL SGR
GSN 2023 620 M 0  36 rL SGR
GSN 2023 4220 M 0 -36 rL SGR
GSN 2048 620 M 0  36 rL SGR
GSN 2048 4220 M 0 -36 rL SGR
GSN 2221 620 M 0  36 rL SGR
GSN 2221 4220 M 0 -36 rL SGR
GSN 2309 620 M 0  36 rL SGR
GSN 2309 4220 M 0 -36 rL SGR
GSN 2371 620 M 0  36 rL SGR
GSN 2371 4220 M 0 -36 rL SGR
GSN 2420 620 M 0  36 rL SGR
GSN 2420 4220 M 0 -36 rL SGR
GSN 2459 620 M 0  36 rL SGR
GSN 2459 4220 M 0 -36 rL SGR
GSN 2492 620 M 0  36 rL SGR
GSN 2492 4220 M 0 -36 rL SGR
GSN 2521 620 M 0  36 rL SGR
GSN 2521 4220 M 0 -36 rL SGR
GSN 2547 620 M 0  36 rL SGR
GSN 2547 4220 M 0 -36 rL SGR
GSN 2720 620 M 0  36 rL SGR
GSN 2720 4220 M 0 -36 rL SGR
GSN 2808 620 M 0  36 rL SGR
GSN 2808 4220 M 0 -36 rL SGR
GSN 2870 620 M 0  36 rL SGR
GSN 2870 4220 M 0 -36 rL SGR
GSN 2918 620 M 0  36 rL SGR
GSN 2918 4220 M 0 -36 rL SGR
GSN 2958 620 M 0  36 rL SGR
GSN 2958 4220 M 0 -36 rL SGR
GSN 2991 620 M 0  36 rL SGR
GSN 2991 4220 M 0 -36 rL SGR
GSN 3020 620 M 0  36 rL SGR
GSN 3020 4220 M 0 -36 rL SGR
GSN 3045 620 M 0  36 rL SGR
GSN 3045 4220 M 0 -36 rL SGR
GSN 3218 620 M 0  36 rL SGR
GSN 3218 4220 M 0 -36 rL SGR
GSN 3306 620 M 0  36 rL SGR
GSN 3306 4220 M 0 -36 rL SGR
GSN 3368 620 M 0  36 rL SGR
GSN 3368 4220 M 0 -36 rL SGR
GSN 3417 620 M 0  36 rL SGR
GSN 3417 4220 M 0 -36 rL SGR
GSN 3456 620 M 0  36 rL SGR
GSN 3456 4220 M 0 -36 rL SGR
GSN 3490 620 M 0  36 rL SGR
GSN 3490 4220 M 0 -36 rL SGR
GSN 3519 620 M 0  36 rL SGR
GSN 3519 4220 M 0 -36 rL SGR
GSN 3544 620 M 0  36 rL SGR
GSN 3544 4220 M 0 -36 rL SGR
GSN 3717 620 M 0  36 rL SGR
GSN 3717 4220 M 0 -36 rL SGR
GSN 3805 620 M 0  36 rL SGR
GSN 3805 4220 M 0 -36 rL SGR
GSN 3867 620 M 0  36 rL SGR
GSN 3867 4220 M 0 -36 rL SGR
GSN 3915 620 M 0  36 rL SGR
GSN 3915 4220 M 0 -36 rL SGR
GSN 3955 620 M 0  36 rL SGR
GSN 3955 4220 M 0 -36 rL SGR
GSN 3988 620 M 0  36 rL SGR
GSN 3988 4220 M 0 -36 rL SGR
GSN 4017 620 M 0  36 rL SGR
GSN 4017 4220 M 0 -36 rL SGR
GSN 4043 620 M 0  36 rL SGR
GSN 4043 4220 M 0 -36 rL SGR
GSN 4216 620 M 0  36 rL SGR
GSN 4216 4220 M 0 -36 rL SGR
%
% Y axis: large tics
%
L10
GSN 620 1641 M 54 0 rL SGR
GSN 4220 1641 M -54 0 rL SGR
helvS (-1) 560 1641 ylabel
GSN 620 2864 M 54 0 rL SGR
GSN 4220 2864 M -54 0 rL SGR
helvS (-0.5) 560 2864 ylabel
GSN 620 4086 M 54 0 rL SGR
GSN 4220 4086 M -54 0 rL SGR
helvS (0) 560 4086 ylabel
%
% Y axis: small tics
%
L5
GSN 620 663 M 36 0 rL SGR
GSN 4220 663 M -36 0 rL SGR
GSN 620 908 M 36 0 rL SGR
GSN 4220 908 M -36 0 rL SGR
GSN 620 1152 M 36 0 rL SGR
GSN 4220 1152 M -36 0 rL SGR
GSN 620 1397 M 36 0 rL SGR
GSN 4220 1397 M -36 0 rL SGR
GSN 620 1641 M 36 0 rL SGR
GSN 4220 1641 M -36 0 rL SGR
GSN 620 1886 M 36 0 rL SGR
GSN 4220 1886 M -36 0 rL SGR
GSN 620 2130 M 36 0 rL SGR
GSN 4220 2130 M -36 0 rL SGR
GSN 620 2375 M 36 0 rL SGR
GSN 4220 2375 M -36 0 rL SGR
GSN 620 2619 M 36 0 rL SGR
GSN 4220 2619 M -36 0 rL SGR
GSN 620 2864 M 36 0 rL SGR
GSN 4220 2864 M -36 0 rL SGR
GSN 620 3108 M 36 0 rL SGR
GSN 4220 3108 M -36 0 rL SGR
GSN 620 3353 M 36 0 rL SGR
GSN 4220 3353 M -36 0 rL SGR
GSN 620 3597 M 36 0 rL SGR
GSN 4220 3597 M -36 0 rL SGR
GSN 620 3842 M 36 0 rL SGR
GSN 4220 3842 M -36 0 rL SGR
GSN 620 4086 M 36 0 rL SGR
GSN 4220 4086 M -36 0 rL SGR

%
% X axis
%
GSN L5 620 4086 M 4220 4086 L SDA G50 SGR

%
% X-Axis label:
%
gsave 2420 290 M 
[
[(Helvetica) 180 0 true true 0 (t)]
[(Helvetica) 180 0 true true 0 (i)]
[(Helvetica) 180 0 true true 0 (m)]
[(Helvetica) 180 0 true true 0 (e)]
] 0 MCshow grestore

%
% Y-Axis label:
%
gsave 234 2420 M 
currentpoint gsave translate 90 rotate 0 0 moveto
[
[(Helvetica) 180 0 true true 0 (d)]
[(Helvetica) 180 0 true true 0 (\()]
[(Helvetica) 180 0 true true 0 (s)]
[(Helvetica) 180 0 true true 0 (i)]
[(Helvetica) 180 0 true true 0 (g)]
[(Helvetica) 180 0 true true 0 (n)]
[(Helvetica) 180 0 true true 0 (a)]
[(Helvetica) 180 0 true true 0 (l)]
[(Helvetica) 180 0 true true 0 (\))]
[(Helvetica) 180 0 true true 0 ( )]
[(Helvetica) 180 0 true true 0 (/)]
[(Helvetica) 180 0 true true 0 ( )]
[(Helvetica) 180 0 true true 0 (d)]
[(Helvetica) 180 0 true true 0 (t)]
] 0 MCshow grestore

end
showpage
%%Trailer
%%EOF
