%!PS-Adobe-3.0 EPSF-3.0
%%BoundingBox: 0 0 514 550
%%Creator: BioKin Ltd.
%%DocumentFonts: Symbol Helvetica
%%EndComments
%
/bkdict 256 dict def
bkdict begin
/M {moveto} def 
/R {rmoveto} def
/L {lineto} def
/rL {rlineto} def
/GSN {gsave newpath} def
/SGR {stroke grestore} def
/COSGR {gsave setrgbcolor stroke grestore grestore} def
/SL {setlinewidth} def
/LWMB {12} def             % line width - model curves, black & white
/LWMC {10} def             % line width - model curves, color
/L2 {2.5 setlinewidth} def
/L5 {5 setlinewidth} def
/L10 {10 setlinewidth} def
/G50 {0.5 setgray} def
/SDA {[10  20] 0 setdash} def % axes
/helvT {/Helvetica findfont 100 scalefont setfont} def % tiny
/helvS {/Helvetica findfont 125 scalefont setfont} def % small
/helvM {/Helvetica findfont 150 scalefont setfont} def % medium
/helvL {/Helvetica findfont 175 scalefont setfont} def % large
/xlabel {gsave M dup
   stringwidth exch -0.5 mul exch rmoveto show grestore} def 
/ylabel {gsave M 90 rotate dup
   stringwidth exch -0.5 mul exch rmoveto show grestore} def
/ylabelresid {gsave M dup
   stringwidth exch -1 mul exch rmoveto show grestore} def
% ======
% Shapes
% ======
% Circle:
/Circ {0 360 arc closepath} def
%
% Square:
/Squa {dup dup -0.5 mul dup dup R -2 mul 0 exch rL 1 mul 0 rL dup 0 exch -1 mul rL closepath} def
%
% Triangle Up:
/TriU {dup dup dup -0.4 mul exch -0.5 mul exch R dup 0.5 mul exch rL dup -1 mul exch 0.5 mul exch rL closepath} def 
%
% Triangle Down:
/TriD {dup dup dup 0.4 mul exch -0.5 mul exch R dup 0.5 mul exch -1 mul rL dup 0.5 mul exch rL closepath} def 
%
% Diamond:
/Diam {45 rotate Squa} def
% ======
% Fills
% ======
/GRF {gsave setgray fill grestore} def                    % gray-level Fill
/COF {gsave setrgbcolor fill grestore} def                % color fill
% ======
% Colors
% ======
/C01 {1.00	0.00	0.00} def      % Red
/C02 {0.00	0.00	1.00} def      % Blue
/C03 {0.00	0.39	0.00} def      % Dark Green
/C04 {0.78	0.08	0.52} def      % Medium Violet Red
/C05 {0.55	0.27	0.07} def      % Saddle Brown
/C06 {0.10	0.70	0.70} def      % (cyan)
/C07 {1.00	0.55	0.00} def      % Dark Orange
/C08 {0.63	0.13	0.94} def      % Purple
/C09 {0.00	0.75	1.00} def      % Deep Sky Blue
/C10 {0.20	0.80	0.20} def      % Lime Green
/C11 {0.47	0.53	0.60} def      % Light Slate Gray
/C12 {0.00	0.00	0.00} def      % Black            % or: {0.19	0.31	0.31} def      % Dark Slate Gray
%
/LGR {0.75} def % light gray
/DGR {0.33} def % dark gray
%
% =============
% Dash patterns
% =============
/dash01 { [80  20] 0 setdash } def
/dash02 { [40  20] 0 setdash } def
/dash03 { [80  20  10  20] 0 setdash } def
/dash04 { [40  20  10  20] 0 setdash } def
/dash05 { [80  20  10  10  10  20] 0 setdash } def
/dash06 { [40  20  10  10  10  20] 0 setdash } def
/dash07 { [10  10] 0 setdash } def
%
/MFshow {
   { dup 5 get 3 ge
     { 5 get 3 eq {gsave} {grestore} ifelse }
     {dup dup 0 get findfont exch 1 get scalefont setfont
     [ currentpoint ] exch dup 2 get 0 exch R dup 5 get 2 ne {dup dup 6
     get exch 4 get {show} {stringwidth pop 0 R} ifelse }if dup 5 get 0 eq
     {dup 3 get {2 get neg 0 exch R pop} {pop aload pop M} ifelse} {dup 5
     get 1 eq {dup 2 get exch dup 3 get exch 6 get stringwidth pop -2 div
     dup 0 R} {dup 6 get stringwidth pop -2 div 0 R 6 get
     show 2 index {aload pop M neg 3 -1 roll neg R pop pop} {pop pop pop
     pop aload pop M} ifelse }ifelse }ifelse }
     ifelse }
   forall} bind def
/MFwidth {0 exch {dup 3 get{dup dup 0 get findfont exch 1 get scalefont
     setfont 6 get stringwidth pop add} {pop} ifelse} forall} bind def
/MCshow { currentpoint stroke M
  exch dup MFwidth -2 div 3 -1 roll R MFshow } def
%
end
%%EndProlog
bkdict begin
0.1 0.1 scale
%
% Residuals:
%
GSN 620 4312 M
620 3888 L
620 3399 L
620 3419 L
620 3811 L
620 3610 L
620 3366 L
620 3163 L
620 3578 L
620 3417 L
620 3293 L
620 3243 L
620 3411 L
620 3417 L
620 3326 L
620 3770 L
620 3422 L
620 3362 L
620 3554 L
620 3660 L
620 3715 L
620 3469 L
620 3394 L
620 3728 L
620 3732 L
620 3391 L
620 3405 L
620 3527 L
620 3296 L
620 3264 L
620 3365 L
620 3250 L
620 3317 L
620 3725 L
620 3257 L
620 3352 L
620 3433 L
620 3570 L
620 3497 L
620 3434 L
620 3450 L
620 3412 L
620 3454 L
620 3232 L
620 3080 L
620 3410 L
620 3551 L
620 3430 L
620 3285 L
620 2941 L
620 3158 L
620 3277 L
620 3199 L
620 3340 L
620 3457 L
620 3506 L
620 3270 L
620 3139 L
620 3256 L
620 3116 L
620 3116 L
620 3092 L
620 3155 L
620 3216 L
620 3251 L
620 3199 L
620 3232 L
620 2886 L
620 3142 L
620 3034 L
620 3747 L
620 3441 L
620 3097 L
620 3055 L
620 3394 L
620 3336 L
620 3376 L
620 3334 L
620 3382 L
620 3229 L
620 3438 L
620 3424 L
620 3414 L
620 2943 L
620 3887 L
620 3158 L
620 3479 L
620 3089 L
620 3208 L
620 3496 L
620 3276 L
620 3105 L
620 3435 L
620 3684 L
620 2993 L
620 3334 L
620 3333 L
620 3343 L
620 3254 L
620 3543 L
620 3358 L
620 3260 L
620 3175 L
620 3250 L
620 3231 L
620 3196 L
620 3500 L
620 3216 L
620 3193 L
620 2969 L
620 3075 L
620 3733 L
620 3324 L
620 2853 L
620 3611 L
620 3210 L
620 3241 L
620 3816 L
620 3388 L
620 3491 L
620 3643 L
620 3539 L
620 3457 L
620 3677 L
620 3444 L
620 3330 L
620 3256 L
620 3212 L
620 3064 L
620 3319 L
620 3498 L
620 3416 L
620 3108 L
620 3672 L
620 3407 L
620 3377 L
620 3671 L
620 3832 L
620 3554 L
620 3669 L
620 3550 L
620 3307 L
620 3319 L
620 3566 L
620 3883 L
620 3558 L
620 3396 L
620 3535 L
620 3131 L
620 3615 L
620 3610 L
620 3422 L
620 3385 L
620 3385 L
620 3434 L
620 3471 L
620 3531 L
620 3590 L
620 3722 L
620 3463 L
620 3334 L
620 3688 L
620 3611 L
620 3414 L
620 3439 L
620 3180 L
620 3637 L
620 3324 L
620 3190 L
620 3360 L
620 3416 L
620 3527 L
620 3302 L
620 3408 L
620 3323 L
620 3433 L
620 3161 L
620 3275 L
620 3729 L
620 3338 L
620 3300 L
620 3584 L
620 3691 L
620 3430 L
620 3236 L
620 3594 L
620 3581 L
620 3333 L
620 3447 L
620 3471 L
620 3807 L
620 3458 L
620 3520 L
620 3389 L
620 3027 L
620 3673 L
620 3643 L
620 3620 L
620 3160 L
620 3490 L
620 3637 L
620 3579 L
620 3529 L
620 3484 L
620 3442 L
620 3442 L
620 3507 L
620 3811 L
620 3708 L
620 3505 L
620 3730 L
620 3740 L
620 3426 L
620 3732 L
620 3525 L
620 3308 L
620 3514 L
620 3904 L
620 3639 L
620 3600 L
620 3395 L
620 3576 L
620 3894 L
620 3556 L
620 3750 L
620 3538 L
620 3769 L
620 3448 L
620 3057 L
620 3554 L
620 3647 L
620 3928 L
620 3707 L
620 3388 L
620 3884 L
620 3561 L
620 3880 L
620 3538 L
620 3455 L
620 3388 L
620 3598 L
620 3986 L
620 3560 L
620 3427 L
620 3804 L
620 3606 L
620 3258 L
620 3430 L
620 3523 L
620 3488 L
620 3403 L
620 3496 L
620 3514 L
620 3536 L
620 3374 L
620 3460 L
620 3776 L
620 3488 L
620 3665 L
620 3444 L
620 3490 L
620 3208 L
620 3577 L
620 3717 L
620 3704 L
620 3351 L
620 3598 L
620 3424 L
620 4043 L
620 3627 L
620 3006 L
620 3661 L
620 3665 L
620 3268 L
620 3157 L
620 3747 L
620 3521 L
620 3656 L
620 3801 L
620 3406 L
620 3426 L
620 3562 L
620 3864 L
620 3691 L
620 3606 L
620 3500 L
620 3514 L
620 3215 L
620 3799 L
620 3805 L
620 3412 L
620 3529 L
620 3668 L
620 3344 L
620 3823 L
620 3819 L
620 3103 L
620 3687 L
620 3843 L
620 3734 L
620 3482 L
620 3537 L
620 3562 L
620 3604 L
620 3581 L
620 3323 L
620 3721 L
620 3593 L
620 3602 L
620 3437 L
620 4048 L
620 3399 L
620 3707 L
620 3624 L
620 3596 L
620 3284 L
620 3710 L
620 3472 L
620 3655 L
620 3400 L
620 3658 L
620 3752 L
620 3644 L
620 3846 L
620 3550 L
620 3589 L
620 3375 L
620 3557 L
620 3782 L
620 3439 L
620 3393 L
620 3336 L
620 3547 L
620 3524 L
620 3582 L
620 3507 L
620 3695 L
620 3249 L
620 3428 L
620 3643 L
620 3446 L
620 3651 L
620 3655 L
620 3467 L
620 3475 L
620 3764 L
620 3428 L
620 3198 L
620 3778 L
620 3304 L
620 3544 L
620 3843 L
620 3465 L
620 3459 L
620 3491 L
620 3236 L
620 3324 L
620 3596 L
620 3730 L
620 3625 L
620 3723 L
620 3800 L
620 3457 L
620 3427 L
620 3469 L
620 3972 L
620 3166 L
620 3010 L
620 3594 L
620 3276 L
620 3565 L
620 3463 L
620 3289 L
620 3553 L
620 3542 L
620 3515 L
620 3436 L
620 3714 L
620 3482 L
620 3498 L
620 3682 L
620 3082 L
620 3339 L
620 3500 L
620 3486 L
620 3269 L
620 3252 L
620 3527 L
620 3505 L
620 3383 L
620 3505 L
620 3351 L
620 3525 L
620 3443 L
620 3359 L
620 3552 L
620 3485 L
620 3162 L
620 3471 L
620 3718 L
620 3498 L
620 3658 L
620 3054 L
620 3482 L
620 3253 L
620 3229 L
620 3393 L
620 3411 L
620 3333 L
620 3114 L
620 3342 L
620 3322 L
620 3226 L
620 3296 L
620 3446 L
620 3700 L
620 3122 L
620 3223 L
620 3209 L
620 2930 L
620 3145 L
620 3613 L
620 3152 L
620 3310 L
620 3175 L
620 3258 L
620 3158 L
620 3013 L
620 3196 L
620 2814 L
620 3439 L
620 2717 L
620 3063 L
620 3311 L
620 3114 L
620 3340 L
620 3065 L
620 3208 L
620 3129 L
620 3032 L
620 3150 L
620 3244 L
620 3257 L
620 3057 L
620 3161 L
620 3015 L
620 3364 L
620 3088 L
620 2934 L
620 3128 L
620 3020 L
620 2820 L
620 3104 L
620 2767 L
620 2972 L
620 3081 L
620 2857 L
620 3282 L
620 2800 L
620 3208 L
620 2539 L
620 3057 L
620 3241 L
620 3457 L
620 2865 L
620 3003 L
620 2784 L
620 2866 L
620 3130 L
620 2840 L
620 2790 L
620 2888 L
620 2724 L
620 2869 L
620 3181 L
620 3288 L
620 3147 L
620 2623 L
620 2616 L
620 2928 L
620 2766 L
620 2931 L
620 2652 L
620 2756 L
620 2864 L
620 2947 L
620 2897 L
620 2839 L
620 2809 L
620 3333 L
620 2456 L
620 3005 L
620 2663 L
620 2808 L
620 2695 L
620 2674 L
620 2758 L
620 2659 L
620 2281 L
620 2371 L
620 2713 L
620 2408 L
620 2892 L
620 2759 L
620 2436 L
620 2526 L
620 2427 L
620 2757 L
620 2676 L
620 2669 L
620 2843 L
620 2873 L
620 2583 L
620 2999 L
620 2757 L
620 2581 L
620 2743 L
620 2733 L
620 2813 L
620 2359 L
620 2877 L
620 2286 L
620 2759 L
620 2855 L
620 2655 L
620 2904 L
620 2383 L
620 2647 L
620 2699 L
620 2303 L
620 2667 L
620 2715 L
620 2380 L
620 2764 L
620 2673 L
620 2457 L
620 2429 L
620 2789 L
620 2800 L
620 2345 L
620 2463 L
620 2460 L
620 2847 L
620 2917 L
620 2520 L
620 2867 L
620 2136 L
620 2798 L
620 2919 L
620 2765 L
620 2595 L
620 2793 L
620 2701 L
620 2454 L
620 2368 L
620 2509 L
620 2433 L
620 2584 L
620 2508 L
620 2366 L
620 2550 L
620 2894 L
620 2559 L
620 2509 L
620 2851 L
620 2740 L
620 2484 L
620 2601 L
620 2882 L
620 2247 L
620 2534 L
620 2488 L
620 2635 L
620 2220 L
620 2794 L
620 2627 L
620 2647 L
620 2583 L
620 2812 L
620 2530 L
620 2464 L
620 2637 L
620 2379 L
620 2836 L
620 2487 L
620 2719 L
620 2327 L
620 2490 L
620 2791 L
620 2452 L
620 2744 L
620 2509 L
620 2451 L
620 2421 L
620 3042 L
620 2650 L
620 2320 L
620 2514 L
620 2981 L
620 2596 L
620 2695 L
620 2731 L
620 2612 L
620 2462 L
620 2713 L
620 2718 L
620 2585 L
620 2639 L
620 2428 L
620 2780 L
620 2420 L
620 2846 L
620 2671 L
620 2923 L
620 2927 L
620 2979 L
620 2676 L
620 2659 L
620 2215 L
620 2416 L
620 2831 L
620 2463 L
620 2769 L
620 2446 L
620 2566 L
620 2197 L
620 3120 L
620 2433 L
620 2534 L
620 2595 L
620 2750 L
620 2575 L
620 2322 L
620 3119 L
620 2525 L
620 2656 L
620 2789 L
620 2349 L
620 2362 L
620 3011 L
620 2832 L
620 2794 L
620 2751 L
620 2491 L
620 2574 L
620 2612 L
620 2797 L
620 2775 L
620 2773 L
620 2405 L
620 2692 L
620 2607 L
620 2790 L
620 2513 L
620 2618 L
620 2481 L
620 2686 L
620 2532 L
620 2526 L
620 2312 L
620 2728 L
620 2596 L
620 2512 L
620 2624 L
620 2613 L
620 2740 L
620 2518 L
620 2643 L
620 2484 L
620 2490 L
620 3053 L
620 2531 L
620 2905 L
620 2363 L
620 2655 L
620 2378 L
620 2634 L
620 2616 L
620 2439 L
620 2502 L
620 2703 L
620 3084 L
620 2736 L
620 2358 L
620 2699 L
620 2884 L
620 2678 L
620 2306 L
620 2656 L
620 2780 L
620 2927 L
620 2604 L
620 2889 L
620 2589 L
620 2773 L
620 2883 L
620 2643 L
620 2798 L
620 2585 L
620 2454 L
620 2852 L
620 2456 L
620 2479 L
620 2695 L
620 2643 L
620 2518 L
620 2766 L
620 2555 L
620 2729 L
620 2745 L
620 2568 L
620 2698 L
620 2658 L
620 2565 L
620 3017 L
620 2803 L
620 2484 L
620 3011 L
620 2562 L
620 2637 L
620 2676 L
620 2149 L
620 2665 L
620 2717 L
620 2630 L
620 2798 L
620 2652 L
620 2610 L
620 2823 L
620 2902 L
620 2865 L
620 2749 L
620 2861 L
620 2695 L
620 2598 L
620 2813 L
620 2902 L
620 2592 L
620 2690 L
620 2579 L
620 2878 L
620 2620 L
620 2696 L
620 2886 L
620 2807 L
620 2916 L
620 2651 L
620 2276 L
620 2618 L
620 2615 L
620 2642 L
620 2807 L
620 2811 L
620 2855 L
620 2922 L
620 2919 L
620 2832 L
620 2526 L
620 2440 L
620 2649 L
620 2779 L
620 2549 L
620 2916 L
620 2655 L
620 3059 L
620 2649 L
620 2939 L
620 2730 L
620 2783 L
620 2840 L
620 3039 L
620 2676 L
620 2851 L
620 2724 L
620 2732 L
620 3080 L
620 3326 L
620 2676 L
620 2778 L
620 2941 L
620 2703 L
620 2677 L
620 2770 L
620 2811 L
620 2409 L
620 2740 L
620 3078 L
620 2967 L
620 2516 L
620 2643 L
620 3129 L
620 2744 L
620 2897 L
620 2802 L
620 2871 L
620 3046 L
620 2536 L
620 2948 L
620 2953 L
620 3003 L
620 3025 L
620 2560 L
620 2572 L
620 2978 L
620 2878 L
620 3028 L
620 2741 L
620 3119 L
620 2832 L
620 2929 L
620 2699 L
620 2736 L
620 3132 L
620 3095 L
620 2944 L
620 3027 L
620 3083 L
620 2811 L
620 3046 L
620 3164 L
620 3135 L
620 3071 L
620 2870 L
620 2760 L
620 2797 L
620 3069 L
620 2753 L
620 3139 L
620 2798 L
620 2959 L
620 2836 L
620 3014 L
620 3120 L
620 2817 L
620 2773 L
620 2876 L
620 2689 L
620 3028 L
620 3008 L
620 2709 L
620 2892 L
620 3002 L
620 2848 L
620 3200 L
620 3052 L
620 3092 L
620 2972 L
620 2617 L
620 2744 L
620 3195 L
620 3108 L
620 2964 L
620 2930 L
620 3260 L
620 2803 L
620 3107 L
620 2919 L
620 2827 L
620 2979 L
620 2710 L
620 2898 L
620 3169 L
620 3144 L
620 2678 L
620 2841 L
620 3296 L
620 3053 L
620 2861 L
620 3210 L
620 3017 L
620 3180 L
620 2857 L
620 3416 L
620 2872 L
620 2965 L
620 2759 L
620 2916 L
620 3265 L
620 2866 L
620 2623 L
620 3329 L
620 3173 L
620 3304 L
620 2823 L
620 3121 L
620 2909 L
620 3384 L
620 3075 L
620 3275 L
620 3289 L
620 2959 L
620 3195 L
620 2678 L
620 3140 L
620 3222 L
620 3092 L
620 2847 L
620 3239 L
620 2908 L
620 2946 L
620 3035 L
620 2916 L
620 3011 L
620 3021 L
620 2932 L
620 3270 L
620 2690 L
620 3239 L
620 3129 L
620 3345 L
620 3084 L
620 3403 L
620 2819 L
620 2698 L
620 2879 L
620 3270 L
620 3166 L
620 3215 L
620 2817 L
620 3240 L
620 3266 L
620 3047 L
620 3110 L
620 2924 L
620 3428 L
620 3186 L
620 3226 L
620 2948 L
620 3205 L
620 2972 L
620 3113 L
620 3354 L
620 3197 L
620 2905 L
620 2930 L
620 3267 L
620 3030 L
620 3348 L
620 3138 L
620 3223 L
620 2983 L
620 2998 L
620 3335 L
620 2975 L
620 3097 L
620 3178 L
620 3163 L
620 3782 L
620 3213 L
620 3179 L
620 3484 L
620 3429 L
620 3035 L
620 3169 L
620 3236 L
620 2933 L
620 3130 L
620 3000 L
620 3116 L
620 3320 L
620 3516 L
620 3290 L
620 3138 L
620 3101 L
620 3130 L
620 3114 L
620 3340 L
620 3230 L
620 3195 L
620 3040 L
620 2860 L
620 3229 L
620 3296 L
620 2924 L
620 3077 L
620 3176 L
620 2927 L
620 3188 L
620 3100 L
620 3292 L
620 3519 L
620 2927 L
620 3083 L
620 3286 L
620 3069 L
620 2883 L
620 3398 L
620 3369 L
620 3121 L
620 3698 L
620 3047 L
620 3164 L
620 3342 L
620 3664 L
620 3589 L
620 3348 L
620 3264 L
620 3259 L
620 3363 L
620 2770 L
620 3438 L
620 3239 L
620 3108 L
620 2896 L
620 2933 L
620 3147 L
620 3531 L
620 3148 L
620 3470 L
620 3279 L
620 3083 L
620 3421 L
620 3025 L
620 3553 L
620 3413 L
620 3121 L
620 3236 L
620 3440 L
620 3245 L
620 3244 L
620 3562 L
620 3302 L
620 3295 L
620 3470 L
620 3267 L
620 3290 L
620 3459 L
620 3401 L
620 2994 L
620 3379 L
620 3396 L
620 3217 L
620 3088 L
620 3239 L
620 3159 L
620 3492 L
620 3582 L
620 3495 L
620 3533 L
620 3207 L
620 3496 L
620 3369 L
620 3504 L
620 2941 L
620 3313 L
620 3476 L
620 3598 L
620 3180 L
620 3150 L
620 3233 L
620 3709 L
620 2958 L
620 3432 L
620 3753 L
620 3122 L
620 3444 L
620 3025 L
620 3229 L
620 3435 L
620 3119 L
620 3640 L
620 3363 L
620 3452 L
620 3278 L
620 3329 L
620 3473 L
620 3369 L
620 3441 L
620 3285 L
620 3157 L
620 3507 L
620 3538 L
620 3458 L
620 3406 L
620 3370 L
620 3075 L
620 3359 L
620 3677 L
620 3320 L
620 3521 L
620 3296 L
620 3359 L
620 3769 L
620 3027 L
620 3134 L
620 3597 L
620 3670 L
620 3275 L
620 3682 L
620 3363 L
620 3033 L
620 3435 L
620 3548 L
620 3177 L
620 3336 L
620 3352 L
620 3371 L
620 3361 L
620 3320 L
620 3285 L
620 3395 L
620 3610 L
620 3413 L
620 3728 L
620 3492 L
620 3325 L
620 3509 L
620 3411 L
620 3411 L
620 3382 L
620 3659 L
620 3645 L
620 3295 L
620 3406 L
620 3213 L
620 3403 L
620 3109 L
620 3250 L
620 3922 L
620 3750 L
620 3528 L
620 3779 L
620 3494 L
620 3247 L
620 3567 L
620 3481 L
620 3290 L
620 3787 L
620 3535 L
620 3773 L
620 3496 L
620 3431 L
620 3346 L
620 3578 L
620 3431 L
620 3426 L
620 3095 L
620 3629 L
620 3227 L
620 3454 L
620 3473 L
620 3670 L
620 3376 L
620 3196 L
620 3666 L
620 3735 L
620 3534 L
620 3298 L
620 3494 L
620 3309 L
620 3308 L
620 3663 L
620 3614 L
620 3527 L
620 3340 L
620 3470 L
620 3607 L
620 3584 L
620 3576 L
620 3619 L
620 3314 L
620 3320 L
620 3461 L
620 3819 L
620 3943 L
620 3315 L
620 3935 L
620 3612 L
620 3295 L
620 3592 L
620 3545 L
620 3795 L
620 3988 L
620 3569 L
620 3622 L
620 3331 L
620 3533 L
620 3502 L
620 3423 L
620 3679 L
620 3597 L
620 3645 L
620 3677 L
620 3639 L
620 3364 L
620 3479 L
620 3731 L
620 3541 L
620 3583 L
620 3670 L
620 3667 L
620 3422 L
620 3662 L
620 3723 L
620 3154 L
620 3610 L
620 3652 L
620 3447 L
620 3671 L
620 3876 L
620 3848 L
620 3264 L
620 3348 L
620 3481 L
620 3506 L
620 3804 L
620 3611 L
620 3514 L
620 3491 L
620 3928 L
620 3663 L
620 3344 L
620 3595 L
620 3759 L
620 3839 L
620 3702 L
620 3937 L
620 3426 L
620 3439 L
620 3537 L
620 3489 L
620 3503 L
620 3325 L
620 3771 L
620 3440 L
620 3550 L
620 3835 L
620 3363 L
620 3617 L
620 3341 L
620 3338 L
620 3411 L
620 3670 L
620 3723 L
620 3585 L
620 3706 L
620 3620 L
620 3615 L
620 3881 L
620 3489 L
620 3608 L
620 3752 L
620 3209 L
620 3409 L
620 3602 L
620 3421 L
620 3922 L
620 3700 L
620 3466 L
620 3812 L
620 3713 L
620 3481 L
620 3576 L
620 3550 L
620 3683 L
620 3637 L
620 3613 L
620 3456 L
620 3510 L
620 3591 L
620 3767 L
620 3822 L
620 3571 L
620 3740 L
620 3767 L
620 3396 L
620 3326 L
620 3876 L
620 3922 L
620 3346 L
620 3436 L
620 3944 L
620 3744 L
620 3766 L
620 3411 L
620 4087 L
620 3846 L
620 3576 L
620 3838 L
620 3687 L
620 4028 L
620 3864 L
620 3701 L
620 3825 L
620 3563 L
620 3453 L
620 3728 L
620 3360 L
620 3697 L
620 3464 L
620 3723 L
620 3638 L
620 3490 L
620 3978 L
620 3996 L
620 3904 L
620 3653 L
620 3698 L
620 3567 L
620 3694 L
620 3704 L
620 3308 L
620 3745 L
620 3222 L
620 3532 L
620 3683 L
620 3342 L
620 3744 L
620 3392 L
620 3778 L
620 3783 L
620 3659 L
620 3598 L
620 3847 L
620 3598 L
620 3677 L
620 3662 L
620 3670 L
620 3745 L
620 3775 L
620 4034 L
620 3790 L
620 3600 L
620 3296 L
620 3594 L
620 3466 L
620 4147 L
620 3495 L
620 3882 L
620 3547 L
620 3702 L
620 3506 L
620 3634 L
620 3947 L
620 3819 L
620 3752 L
620 3829 L
620 3706 L
620 3885 L
620 3352 L
620 3604 L
620 3778 L
620 3592 L
620 3912 L
620 4059 L
620 3784 L
620 3228 L
620 3820 L
620 3814 L
620 4039 L
620 3814 L
620 3566 L
620 3696 L
620 4322 L
620 3475 L
620 3821 L
620 3428 L
620 3966 L
620 3325 L
620 3722 L
620 3716 L
620 3719 L
620 3512 L
620 3795 L
620 3191 L
620 3921 L
620 3717 L
620 3945 L
620 3691 L
620 3746 L
620 3829 L
620 3939 L
620 3783 L
620 4032 L
620 3464 L
620 3592 L
620 3531 L
620 3887 L
620 3720 L
620 3713 L
620 3619 L
620 3759 L
620 3561 L
620 3395 L
620 3571 L
620 3907 L
620 3620 L
620 3572 L
620 3851 L
620 3595 L
620 3835 L
620 3309 L
620 4016 L
620 3442 L
620 3842 L
620 3873 L
620 3952 L
620 3592 L
620 4156 L
620 3716 L
620 3665 L
620 3940 L
620 3906 L
620 4135 L
620 3906 L
620 4219 L
620 4106 L
620 4112 L
620 3839 L
620 4177 L
620 3856 L
620 3964 L
620 4107 L
620 3888 L
620 4138 L
620 3975 L
620 4037 L
620 4071 L
620 4039 L
620 4388 L
620 4397 L
620 3844 L
620 4237 L
620 4378 L
620 4061 L
620 4116 L
620 4196 L
620 4058 L
620 4184 L
620 4187 L
620 4427 L
620 4053 L
620 3933 L
620 4272 L
620 3917 L
620 4426 L
620 4109 L
620 4335 L
620 4408 L
620 4360 L
620 4601 L
620 4290 L
620 4551 L
620 4302 L
620 4281 L
620 4123 L
620 4089 L
620 4132 L
620 3851 L
620 4232 L
620 4506 L
620 4533 L
620 4049 L
620 4509 L
620 4384 L
620 4420 L
620 4225 L
620 4068 L
620 4551 L
620 3976 L
620 4530 L
620 4414 L
620 4490 L
620 4473 L
620 4088 L
620 4196 L
620 4519 L
620 4245 L
620 4436 L
620 4525 L
620 4307 L
620 4583 L
620 4400 L
620 4457 L
620 4251 L
620 4103 L
620 3774 L
620 4311 L
620 4391 L
620 4339 L
620 4223 L
620 3921 L
620 4083 L
620 4141 L
620 4656 L
620 4685 L
620 4076 L
620 4126 L
620 4330 L
620 4436 L
620 4369 L
620 4443 L
620 4388 L
620 4289 L
620 4412 L
620 4533 L
620 4418 L
620 4184 L
620 3845 L
620 4400 L
620 4265 L
620 4198 L
620 4132 L
620 4484 L
620 4365 L
620 4103 L
620 3797 L
620 4551 L
620 3687 L
620 4604 L
620 4134 L
620 4225 L
620 4100 L
620 4436 L
620 4192 L
620 3979 L
620 4326 L
620 4366 L
620 4293 L
620 4494 L
620 4262 L
620 4458 L
620 4546 L
620 4147 L
620 4222 L
620 4379 L
620 4192 L
620 4778 L
620 4342 L
620 4283 L
620 4522 L
620 4542 L
620 4583 L
620 4131 L
620 4369 L
620 4123 L
620 4501 L
620 4458 L
620 4436 L
620 4476 L
620 4290 L
620 4554 L
620 4086 L
620 4607 L
620 4449 L
620 4863 L
620 4464 L
620 4248 L
620 4314 L
620 4311 L
620 4171 L
620 4045 L
620 4466 L
620 4591 L
620 4427 L
620 4350 L
620 4464 L
620 4387 L
620 4213 L
620 4181 L
620 4192 L
620 4152 L
620 4372 L
620 3857 L
620 4205 L
620 4686 L
620 4448 L
620 4245 L
620 4122 L
620 4402 L
620 3955 L
620 4653 L
620 4790 L
620 4272 L
620 4257 L
620 4499 L
620 4275 L
620 4357 L
620 4112 L
620 4482 L
620 4388 L
620 4638 L
620 4504 L
620 4446 L
620 4658 L
620 4643 L
620 4592 L
620 4251 L
620 4118 L
620 4772 L
620 4301 L
620 4161 L
620 4277 L
620 4615 L
620 4673 L
620 4278 L
620 4458 L
620 4472 L
620 4390 L
620 4003 L
620 4311 L
620 4600 L
620 4338 L
620 4384 L
620 4634 L
620 4220 L
620 4232 L
620 4449 L
620 4711 L
620 3921 L
620 4692 L
620 4229 L
620 4104 L
620 4432 L
620 4357 L
620 4527 L
620 4176 L
620 4152 L
620 4143 L
620 4598 L
620 4190 L
620 4562 L
620 4106 L
620 4369 L
620 4265 L
620 4074 L
620 4365 L
620 4147 L
620 4493 L
620 4043 L
620 4106 L
620 4070 L
620 4289 L
620 4360 L
620 3902 L
620 4238 L
620 4251 L
620 4518 L
620 4415 L
620 4161 L
620 4665 L
620 4287 L
620 4122 L
620 3914 L
620 4434 L
620 4211 L
620 4019 L
620 4094 L
620 4638 L
620 4186 L
620 4290 L
620 4350 L
620 4409 L
620 4490 L
620 4409 L
620 4268 L
620 4173 L
620 4299 L
620 4414 L
620 4181 L
620 4589 L
620 4499 L
620 4213 L
620 4564 L
620 4612 L
620 4449 L
620 4158 L
620 4183 L
620 4183 L
620 4525 L
620 4123 L
620 4381 L
620 4555 L
620 4426 L
620 4396 L
620 4433 L
620 4123 L
620 4214 L
620 4621 L
620 4311 L
620 4211 L
620 4183 L
620 4408 L
620 4339 L
620 4458 L
620 4387 L
620 4427 L
620 4445 L
620 4104 L
620 4348 L
620 4162 L
620 4551 L
620 4409 L
620 4652 L
620 4542 L
620 4373 L
620 4268 L
620 4399 L
620 4496 L
620 4256 L
620 4420 L
620 4216 L
620 4134 L
620 4171 L
620 4530 L
620 4324 L
620 3961 L
620 4434 L
620 4690 L
620 4548 L
620 4186 L
620 4518 L
620 4056 L
620 4150 L
620 4540 L
620 4655 L
620 4344 L
620 4521 L
620 3989 L
620 4426 L
620 4173 L
620 3958 L
620 4051 L
620 4164 L
620 4356 L
620 4609 L
620 4089 L
620 4222 L
620 3966 L
620 4061 L
620 4237 L
620 4295 L
620 4196 L
620 4545 L
620 4128 L
620 4289 L
620 4021 L
620 4028 L
620 4461 L
620 4836 L
620 4406 L
620 4338 L
620 3951 L
620 3967 L
620 4344 L
620 3681 L
620 4451 L
620 4259 L
620 4295 L
620 4260 L
620 4097 L
620 4164 L
620 4266 L
620 3873 L
620 4018 L
620 4256 L
620 4690 L
L2 C05 COSGR

%
%================
% Legend - Begin
%================
%
GSN 4240 5180 M
4480 5180 L
LWMC SL  C05 COSGR
GSN 4540 5141 M helvM (2.5 uM) show grestore
%
%================
% Legend - End
%================
%

%
% Main frame
%
L10
GSN 
620 1700 M
4220 1700 L
4220 5300 L
620 5300 L
closepath SGR

%
% X axis: large tics
%
L10
%
% X axis: small tics
%
L5
%
% Y axis: large tics
%
L10
GSN 620 1888 M 54 0 rL SGR
GSN 4220 1888 M -54 0 rL SGR
helvS (-0.02) 560 1888 ylabel
GSN 620 2669 M 54 0 rL SGR
GSN 4220 2669 M -54 0 rL SGR
helvS (-0.01) 560 2669 ylabel
GSN 620 3449 M 54 0 rL SGR
GSN 4220 3449 M -54 0 rL SGR
helvS (0) 560 3449 ylabel
GSN 620 4229 M 54 0 rL SGR
GSN 4220 4229 M -54 0 rL SGR
helvS (0.01) 560 4229 ylabel
GSN 620 5009 M 54 0 rL SGR
GSN 4220 5009 M -54 0 rL SGR
helvS (0.02) 560 5009 ylabel
%
% Y axis: small tics
%
L5
GSN 620 1888 M 36 0 rL SGR
GSN 4220 1888 M -36 0 rL SGR
GSN 620 2083 M 36 0 rL SGR
GSN 4220 2083 M -36 0 rL SGR
GSN 620 2278 M 36 0 rL SGR
GSN 4220 2278 M -36 0 rL SGR
GSN 620 2473 M 36 0 rL SGR
GSN 4220 2473 M -36 0 rL SGR
GSN 620 2669 M 36 0 rL SGR
GSN 4220 2669 M -36 0 rL SGR
GSN 620 2864 M 36 0 rL SGR
GSN 4220 2864 M -36 0 rL SGR
GSN 620 3059 M 36 0 rL SGR
GSN 4220 3059 M -36 0 rL SGR
GSN 620 3254 M 36 0 rL SGR
GSN 4220 3254 M -36 0 rL SGR
GSN 620 3449 M 36 0 rL SGR
GSN 4220 3449 M -36 0 rL SGR
GSN 620 3644 M 36 0 rL SGR
GSN 4220 3644 M -36 0 rL SGR
GSN 620 3839 M 36 0 rL SGR
GSN 4220 3839 M -36 0 rL SGR
GSN 620 4034 M 36 0 rL SGR
GSN 4220 4034 M -36 0 rL SGR
GSN 620 4229 M 36 0 rL SGR
GSN 4220 4229 M -36 0 rL SGR
GSN 620 4424 M 36 0 rL SGR
GSN 4220 4424 M -36 0 rL SGR
GSN 620 4619 M 36 0 rL SGR
GSN 4220 4619 M -36 0 rL SGR
GSN 620 4814 M 36 0 rL SGR
GSN 4220 4814 M -36 0 rL SGR
GSN 620 5009 M 36 0 rL SGR
GSN 4220 5009 M -36 0 rL SGR
GSN 620 5205 M 36 0 rL SGR
GSN 4220 5205 M -36 0 rL SGR

%
% X axis - residual panel
%
GSN L5 620 3449 M 4220 3449 L SDA G50 SGR

%
% X-Axis label:
%
gsave 620 1370 M 
[
[(Helvetica) 180 0 true true 0 (t)]
[(Helvetica) 180 0 true true 0 (i)]
[(Helvetica) 180 0 true true 0 (m)]
[(Helvetica) 180 0 true true 0 (e)]
] 0 MCshow grestore

%
% Y-Axis label:
%
gsave 234 3500 M 
currentpoint gsave translate 90 rotate 0 0 moveto
[
[(Helvetica) 180 0 true true 0 (r)]
[(Helvetica) 180 0 true true 0 (e)]
[(Helvetica) 180 0 true true 0 (s)]
[(Helvetica) 180 0 true true 0 (i)]
[(Helvetica) 180 0 true true 0 (d)]
[(Helvetica) 180 0 true true 0 (u)]
[(Helvetica) 180 0 true true 0 (a)]
[(Helvetica) 180 0 true true 0 (l)]
[(Helvetica) 180 0 true true 0 (s)]
] 0 MCshow grestore

end
showpage
%%Trailer
%%EOF
