%!PS-Adobe-3.0 EPSF-3.0
%%BoundingBox: 0 0 514 550
%%Creator: BioKin Ltd.
%%DocumentFonts: Symbol Helvetica
%%EndComments
%
/bkdict 256 dict def
bkdict begin
/M {moveto} def 
/R {rmoveto} def
/L {lineto} def
/rL {rlineto} def
/GSN {gsave newpath} def
/SGR {stroke grestore} def
/COSGR {gsave setrgbcolor stroke grestore grestore} def
/SL {setlinewidth} def
/LWMB {12} def             % line width - model curves, black & white
/LWMC {10} def             % line width - model curves, color
/L2 {2.5 setlinewidth} def
/L5 {5 setlinewidth} def
/L10 {10 setlinewidth} def
/G50 {0.5 setgray} def
/SDA {[10  20] 0 setdash} def % axes
/helvT {/Helvetica findfont 100 scalefont setfont} def % tiny
/helvS {/Helvetica findfont 125 scalefont setfont} def % small
/helvM {/Helvetica findfont 150 scalefont setfont} def % medium
/helvL {/Helvetica findfont 175 scalefont setfont} def % large
/xlabel {gsave M dup
   stringwidth exch -0.5 mul exch rmoveto show grestore} def 
/ylabel {gsave M 90 rotate dup
   stringwidth exch -0.5 mul exch rmoveto show grestore} def
/ylabelresid {gsave M dup
   stringwidth exch -1 mul exch rmoveto show grestore} def
% ======
% Shapes
% ======
% Circle:
/Circ {0 360 arc closepath} def
%
% Square:
/Squa {dup dup -0.5 mul dup dup R -2 mul 0 exch rL 1 mul 0 rL dup 0 exch -1 mul rL closepath} def
%
% Triangle Up:
/TriU {dup dup dup -0.4 mul exch -0.5 mul exch R dup 0.5 mul exch rL dup -1 mul exch 0.5 mul exch rL closepath} def 
%
% Triangle Down:
/TriD {dup dup dup 0.4 mul exch -0.5 mul exch R dup 0.5 mul exch -1 mul rL dup 0.5 mul exch rL closepath} def 
%
% Diamond:
/Diam {45 rotate Squa} def
% ======
% Fills
% ======
/GRF {gsave setgray fill grestore} def                    % gray-level Fill
/COF {gsave setrgbcolor fill grestore} def                % color fill
% ======
% Colors
% ======
/C01 {1.00	0.00	0.00} def      % Red
/C02 {0.00	0.00	1.00} def      % Blue
/C03 {0.00	0.39	0.00} def      % Dark Green
/C04 {0.78	0.08	0.52} def      % Medium Violet Red
/C05 {0.55	0.27	0.07} def      % Saddle Brown
/C06 {0.10	0.70	0.70} def      % (cyan)
/C07 {1.00	0.55	0.00} def      % Dark Orange
/C08 {0.63	0.13	0.94} def      % Purple
/C09 {0.00	0.75	1.00} def      % Deep Sky Blue
/C10 {0.20	0.80	0.20} def      % Lime Green
/C11 {0.47	0.53	0.60} def      % Light Slate Gray
/C12 {0.00	0.00	0.00} def      % Black            % or: {0.19	0.31	0.31} def      % Dark Slate Gray
%
/LGR {0.75} def % light gray
/DGR {0.33} def % dark gray
%
% =============
% Dash patterns
% =============
/dash01 { [80  20] 0 setdash } def
/dash02 { [40  20] 0 setdash } def
/dash03 { [80  20  10  20] 0 setdash } def
/dash04 { [40  20  10  20] 0 setdash } def
/dash05 { [80  20  10  10  10  20] 0 setdash } def
/dash06 { [40  20  10  10  10  20] 0 setdash } def
/dash07 { [10  10] 0 setdash } def
%
/MFshow {
   { dup 5 get 3 ge
     { 5 get 3 eq {gsave} {grestore} ifelse }
     {dup dup 0 get findfont exch 1 get scalefont setfont
     [ currentpoint ] exch dup 2 get 0 exch R dup 5 get 2 ne {dup dup 6
     get exch 4 get {show} {stringwidth pop 0 R} ifelse }if dup 5 get 0 eq
     {dup 3 get {2 get neg 0 exch R pop} {pop aload pop M} ifelse} {dup 5
     get 1 eq {dup 2 get exch dup 3 get exch 6 get stringwidth pop -2 div
     dup 0 R} {dup 6 get stringwidth pop -2 div 0 R 6 get
     show 2 index {aload pop M neg 3 -1 roll neg R pop pop} {pop pop pop
     pop aload pop M} ifelse }ifelse }ifelse }
     ifelse }
   forall} bind def
/MFwidth {0 exch {dup 3 get{dup dup 0 get findfont exch 1 get scalefont
     setfont 6 get stringwidth pop add} {pop} ifelse} forall} bind def
/MCshow { currentpoint stroke M
  exch dup MFwidth -2 div 3 -1 roll R MFshow } def
%
end
%%EndProlog
bkdict begin
0.1 0.1 scale
%
% Model curves:
%

GSN 753 4625 M
753 4625 L
786 4640 L
820 4655 L
853 4672 L
886 4689 L
920 4707 L
929 4712 L
953 4725 L
986 4743 L
1020 4760 L
1053 4777 L
1086 4793 L
1106 4802 L
1120 4808 L
1153 4821 L
1186 4832 L
1220 4840 L
1253 4847 L
1282 4851 L
1286 4851 L
1319 4854 L
1353 4855 L
1386 4854 L
1419 4853 L
1453 4850 L
1459 4850 L
1486 4847 L
1519 4843 L
1553 4839 L
1586 4834 L
1619 4828 L
1635 4825 L
1653 4822 L
1686 4815 L
1719 4806 L
1753 4797 L
1786 4786 L
1812 4777 L
1819 4774 L
1853 4760 L
1886 4745 L
1919 4727 L
1953 4707 L
1986 4685 L
1988 4683 L
2019 4659 L
2053 4630 L
2086 4598 L
2119 4562 L
2153 4521 L
2165 4505 L
2186 4476 L
2219 4425 L
2253 4368 L
2286 4306 L
2319 4236 L
2341 4187 L
2353 4160 L
2386 4076 L
2419 3985 L
2453 3886 L
2486 3779 L
2518 3670 L
2519 3665 L
2553 3543 L
2586 3416 L
2619 3282 L
2653 3145 L
2686 3005 L
2694 2970 L
2719 2864 L
2753 2725 L
2786 2589 L
2819 2460 L
2853 2340 L
2871 2280 L
2886 2232 L
2919 2138 L
2953 2060 L
2986 2000 L
3019 1959 L
3047 1939 L
3053 1937 L
3086 1933 L
3119 1947 L
3153 1977 L
3186 2019 L
3219 2073 L
3224 2081 L
3253 2135 L
3286 2202 L
3319 2274 L
3353 2348 L
3386 2422 L
3400 2454 L
3419 2496 L
3453 2567 L
3476 2613 L
3486 2633 L
3519 2695 L
3553 2749 L
3577 2784 L
3586 2796 L
3619 2835 L
3653 2866 L
3686 2889 L
3719 2905 L
3753 2916 L
3754 2916 L
3786 2923 L
3819 2927 L
3853 2928 L
3886 2929 L
3919 2930 L
3930 2930 L
3953 2930 L
3986 2930 L
4019 2930 L
4053 2930 L
4086 2930 L
4086 2930 L
LWMC SL  C07 COSGR

%
% Experimental data:
%
GSN 777 4979 M
1388 5166 L
1552 4816 L
1652 4802 L
1723 4763 L
1778 4555 L
1824 4087 L
1863 4553 L
1896 4315 L
1926 4231 L
1952 4393 L
1976 4271 L
1998 4491 L
2019 4426 L
2037 4588 L
2055 4350 L
2071 4306 L
2086 4277 L
2101 4383 L
2115 4316 L
2128 4345 L
2140 4222 L
2152 4261 L
2163 4251 L
2174 4163 L
2184 4019 L
2194 4318 L
2204 4236 L
2213 4291 L
2222 4347 L
2230 4353 L
2239 4163 L
2247 4307 L
2255 4277 L
2262 4284 L
2270 4141 L
2277 4163 L
2284 4159 L
2290 4245 L
2297 4141 L
2303 4129 L
2310 4071 L
2316 3901 L
2322 4157 L
2328 4129 L
2333 4025 L
2339 3891 L
2344 4036 L
2350 3930 L
2355 3916 L
2360 3770 L
2365 3920 L
2370 3949 L
2375 3887 L
2380 3780 L
2384 3983 L
2389 3932 L
2393 3987 L
2398 3983 L
2402 3716 L
2407 3776 L
2411 4081 L
2415 3886 L
2419 3786 L
2423 3844 L
2427 3696 L
2431 3755 L
2435 3927 L
2438 3686 L
2442 3791 L
2446 3773 L
2449 3888 L
2453 3920 L
2456 3826 L
2460 3947 L
2463 3633 L
2467 3792 L
2470 3770 L
2473 3866 L
2476 3640 L
2480 3576 L
2483 3648 L
2486 3651 L
2489 3938 L
2492 3707 L
2495 3688 L
2498 3535 L
2501 3681 L
2504 3743 L
2507 3627 L
2510 3431 L
2512 3510 L
2515 3671 L
2518 3650 L
2521 3648 L
2523 3591 L
2526 3671 L
2529 3611 L
2531 3733 L
2534 3489 L
2536 3632 L
2539 3740 L
2541 3603 L
2544 3695 L
2546 3605 L
2549 3505 L
2551 3529 L
2554 3505 L
2556 3519 L
2558 3427 L
2561 3630 L
2563 3463 L
2565 3552 L
2568 3536 L
2570 3450 L
2572 3400 L
2574 3396 L
2576 3351 L
2579 3605 L
2581 3430 L
2583 3532 L
2585 3474 L
2587 3378 L
2589 3422 L
2591 3414 L
2593 3578 L
2595 3146 L
2597 3400 L
2599 3351 L
2601 3358 L
2603 3302 L
2605 3486 L
2607 3381 L
2609 3606 L
2611 3478 L
2613 3400 L
2615 3336 L
2617 3339 L
2618 3485 L
2620 3340 L
2622 3368 L
2624 3340 L
2626 3292 L
2627 3341 L
2629 3348 L
2631 3466 L
2633 3387 L
2634 3370 L
2636 3457 L
2638 3223 L
2640 3230 L
2641 3366 L
2643 3292 L
2645 3259 L
2646 3257 L
2648 3088 L
2650 3158 L
2651 3200 L
2653 3244 L
2654 3302 L
2656 3453 L
2658 3371 L
2659 3275 L
2661 3197 L
2662 3228 L
2664 3150 L
2665 3187 L
2667 3236 L
2668 3227 L
2670 3126 L
2671 3312 L
2673 3076 L
2674 3133 L
2676 3082 L
2677 3127 L
2679 3211 L
2680 3141 L
2682 3123 L
2683 3230 L
2685 3042 L
2686 3151 L
2687 3112 L
2689 3062 L
2690 3130 L
2692 3050 L
2693 3162 L
2694 3178 L
2696 3035 L
2697 3079 L
2698 3246 L
2700 3119 L
2701 3021 L
2702 3047 L
2704 2978 L
2705 2907 L
2706 3071 L
2708 3014 L
2709 2883 L
2710 2994 L
2712 3057 L
2713 2910 L
2714 2754 L
2715 3010 L
2717 3120 L
2718 3075 L
2719 3121 L
2720 3133 L
2722 2947 L
2723 2876 L
2724 2942 L
2725 3015 L
2726 3012 L
2728 2932 L
2729 2989 L
2730 3013 L
2731 3004 L
2732 2927 L
2734 2928 L
2735 3004 L
2736 2836 L
2737 3001 L
2738 2937 L
2739 2944 L
2741 3046 L
2742 2709 L
2743 2886 L
2744 2993 L
2745 2784 L
2746 2787 L
2747 2863 L
2748 3002 L
2749 2958 L
2751 2867 L
2752 2931 L
2753 2818 L
2754 2797 L
2755 2833 L
2756 2992 L
2757 2838 L
2758 2834 L
2759 2801 L
2760 2790 L
2761 2887 L
2762 2889 L
2763 3100 L
2764 2869 L
2765 2901 L
2767 2988 L
2768 2845 L
2769 2792 L
2770 2867 L
2771 2762 L
2772 2761 L
2773 2806 L
2774 2895 L
2775 2715 L
2776 2499 L
2777 2857 L
2778 2731 L
2779 2806 L
2780 2652 L
2781 2817 L
2782 2946 L
2783 2924 L
2783 2820 L
2784 2616 L
2785 2630 L
2786 2868 L
2787 2922 L
2788 2886 L
2789 2859 L
2790 2639 L
2791 2725 L
2792 2757 L
2793 2716 L
2794 2726 L
2795 2757 L
2796 2897 L
2797 2849 L
2798 2882 L
2798 2833 L
2799 2859 L
2800 2692 L
2801 2631 L
2802 2597 L
2803 2699 L
2804 2750 L
2805 2693 L
2806 2799 L
2807 2519 L
2807 2785 L
2808 2655 L
2809 2780 L
2810 2726 L
2811 2801 L
2812 2801 L
2813 2630 L
2813 2759 L
2814 2600 L
2815 2679 L
2816 2654 L
2817 2572 L
2818 2591 L
2819 2689 L
2819 2630 L
2820 2788 L
2821 2726 L
2822 2729 L
2823 2576 L
2824 2675 L
2824 2778 L
2825 2603 L
2826 2591 L
2827 2882 L
2828 2575 L
2828 2854 L
2829 2548 L
2830 2587 L
2831 2634 L
2832 2624 L
2832 2660 L
2833 2554 L
2834 2609 L
2835 2492 L
2836 2675 L
2836 2557 L
2837 2608 L
2838 2711 L
2839 2730 L
2840 2610 L
2840 2557 L
2841 2573 L
2842 2619 L
2843 2639 L
2843 2469 L
2844 2594 L
2845 2683 L
2846 2610 L
2846 2699 L
2847 2326 L
2848 2370 L
2849 2423 L
2849 2654 L
2850 2843 L
2851 2506 L
2852 2626 L
2852 2512 L
2853 2464 L
2854 2620 L
2855 2521 L
2855 2578 L
2856 2492 L
2857 2638 L
2857 2372 L
2858 2541 L
2859 2498 L
2860 2395 L
2860 2560 L
2861 2605 L
2862 2548 L
2862 2782 L
2863 2523 L
2864 2406 L
2865 2642 L
2865 2519 L
2866 2405 L
2867 2484 L
2867 2613 L
2868 2426 L
2869 2452 L
2869 2534 L
2870 2522 L
2871 2511 L
2871 2626 L
2872 2388 L
2873 2675 L
2873 2379 L
2874 2601 L
2875 2577 L
2876 2485 L
2876 2361 L
2877 2387 L
2878 2391 L
2878 2383 L
2879 2457 L
2880 2341 L
2880 2649 L
2881 2469 L
2881 2548 L
2882 2578 L
2883 2549 L
2883 2576 L
2884 2541 L
2885 2467 L
2885 2480 L
2886 2470 L
2887 2439 L
2887 2361 L
2888 2303 L
2889 2436 L
2889 2463 L
2892 2515 L
2894 2489 L
2897 2575 L
2899 2411 L
2902 2407 L
2904 2292 L
2907 2232 L
2909 2507 L
2911 2468 L
2914 2432 L
2916 2524 L
2918 2420 L
2921 2340 L
2923 2336 L
2925 2519 L
2927 2294 L
2929 2320 L
2932 2330 L
2934 2293 L
2936 2335 L
2938 2361 L
2940 2364 L
2942 2055 L
2944 2278 L
2946 2220 L
2948 2296 L
2950 2182 L
2952 2268 L
2954 2273 L
2956 2357 L
2958 2265 L
2960 2348 L
2962 2125 L
2964 2250 L
2966 2145 L
2968 2147 L
2970 2210 L
2971 2210 L
2973 2324 L
2975 2198 L
2977 2212 L
2979 2204 L
2980 2332 L
2982 2190 L
2984 2207 L
2986 2204 L
2987 2018 L
2989 2272 L
2991 2244 L
2993 2347 L
2994 2000 L
2996 2377 L
2998 2130 L
2999 1962 L
3001 2096 L
3003 2196 L
3004 2110 L
3006 2104 L
3007 2082 L
3009 2291 L
3011 2135 L
3012 2145 L
3014 2092 L
3015 2018 L
3017 2177 L
3018 2223 L
3020 2176 L
3021 2112 L
3023 2111 L
3024 2082 L
3026 2208 L
3027 1938 L
3029 2033 L
3030 1993 L
3032 2105 L
3033 2231 L
3035 2125 L
3036 2075 L
3038 2072 L
3039 2043 L
3040 2230 L
3042 2061 L
3043 1990 L
3045 2029 L
3046 2029 L
3047 2037 L
3049 2117 L
3050 2115 L
3051 2125 L
3053 2144 L
3054 2005 L
3055 2082 L
3057 2123 L
3058 1949 L
3059 2038 L
3061 1942 L
3062 2019 L
3063 1935 L
3065 2062 L
3066 2222 L
3067 2042 L
3068 1999 L
3070 2022 L
3071 2224 L
3072 2063 L
3073 2052 L
3075 1977 L
3076 2050 L
3077 1995 L
3078 2141 L
3079 2096 L
3081 1876 L
3082 2029 L
3083 2151 L
3084 1973 L
3085 2098 L
3087 1972 L
3088 1949 L
3089 2077 L
3090 2118 L
3091 2143 L
3092 1911 L
3094 2035 L
3095 1912 L
3096 1967 L
3097 1905 L
3098 2063 L
3099 2150 L
3100 1930 L
3101 2072 L
3103 2054 L
3104 1855 L
3105 1977 L
3106 2059 L
3107 2020 L
3108 1943 L
3109 2066 L
3110 1848 L
3111 2156 L
3112 2161 L
3113 2085 L
3114 2262 L
3115 1915 L
3116 2026 L
3117 2115 L
3119 2106 L
3120 1833 L
3121 2010 L
3122 1976 L
3123 2131 L
3124 2074 L
3125 1959 L
3126 2026 L
3127 2065 L
3128 2015 L
3129 1992 L
3130 2067 L
3131 1962 L
3132 1934 L
3133 1914 L
3134 1979 L
3135 2161 L
3136 1912 L
3136 1980 L
3137 1881 L
3138 1994 L
3139 1945 L
3140 1945 L
3141 1904 L
3142 2035 L
3143 2123 L
3144 1946 L
3145 2006 L
3146 1947 L
3147 2010 L
3148 2115 L
3149 2261 L
3150 1978 L
3151 1933 L
3151 2066 L
3152 2024 L
3153 1981 L
3154 1894 L
3155 1878 L
3156 2210 L
3157 2046 L
3158 2298 L
3159 2089 L
3160 2058 L
3160 2128 L
3161 2089 L
3162 2037 L
3163 1977 L
3164 1990 L
3165 2045 L
3166 1949 L
3166 1984 L
3167 2216 L
3168 1955 L
3169 2045 L
3170 1933 L
3171 1866 L
3172 2075 L
3172 1960 L
3173 2010 L
3174 1987 L
3175 2027 L
3176 2049 L
3177 2046 L
3177 2068 L
3178 2183 L
3179 1964 L
3180 1843 L
3181 2077 L
3181 1956 L
3182 2111 L
3183 2106 L
3184 2019 L
3185 2112 L
3185 2119 L
3186 1946 L
3187 1846 L
3188 1921 L
3189 2132 L
3189 2069 L
3190 1864 L
3191 2057 L
3192 2028 L
3193 1997 L
3193 1941 L
3194 1993 L
3195 1918 L
3196 1954 L
3196 2029 L
3197 1991 L
3198 2140 L
3199 2090 L
3199 2125 L
3200 2137 L
3201 2053 L
3202 2072 L
3202 2094 L
3203 2319 L
3204 2024 L
3205 2058 L
3205 2277 L
3206 2168 L
3207 1987 L
3208 2141 L
3208 2027 L
3209 1963 L
3210 2107 L
3210 2066 L
3211 2084 L
3212 2130 L
3213 1980 L
3213 2164 L
3214 2201 L
3215 2257 L
3215 2043 L
3216 2107 L
3217 1987 L
3218 2117 L
3218 2079 L
3219 2162 L
3220 2065 L
3220 2154 L
3221 2269 L
3222 2122 L
3222 1910 L
3223 2230 L
3224 2099 L
3224 2128 L
3225 2105 L
3226 2181 L
3227 2304 L
3227 1986 L
3228 2061 L
3229 2206 L
3229 1976 L
3230 2141 L
3231 2052 L
3231 2175 L
3232 2008 L
3233 2311 L
3233 2027 L
3234 2047 L
3235 2057 L
3235 2110 L
3236 2155 L
3236 2078 L
3237 2032 L
3238 2055 L
3238 2138 L
3239 2226 L
3240 2045 L
3240 2189 L
3241 2233 L
3242 2273 L
3242 2163 L
3243 2108 L
3244 2074 L
3244 2184 L
3245 2015 L
3245 1961 L
3246 2234 L
3247 2127 L
3247 2147 L
3248 2049 L
3249 2213 L
3249 2218 L
3250 2248 L
3250 2123 L
3251 2229 L
3252 2216 L
3252 2345 L
3253 1945 L
3253 2125 L
3254 2129 L
3255 2197 L
3255 1918 L
3256 2169 L
3257 2180 L
3257 1980 L
3258 2139 L
3258 2190 L
3259 2104 L
3259 1958 L
3260 2291 L
3261 2263 L
3261 2057 L
3262 2299 L
3262 2010 L
3263 2111 L
3264 2019 L
3264 2229 L
3265 2241 L
3265 2151 L
3266 2257 L
3267 2133 L
3267 2143 L
3268 2106 L
3268 2302 L
3269 2135 L
3269 2085 L
3270 2084 L
3271 2204 L
3271 2317 L
3272 2269 L
3272 2226 L
3273 2143 L
3273 2183 L
3274 2225 L
3275 2327 L
3275 2145 L
3276 2196 L
3276 2107 L
3277 2146 L
3277 2181 L
3278 2199 L
3278 2235 L
3279 2239 L
3280 2149 L
3280 2189 L
3281 2157 L
3281 2146 L
3282 2177 L
3282 2180 L
3283 2069 L
3283 2052 L
3284 2217 L
3284 2388 L
3285 2150 L
3285 2134 L
3286 2384 L
3287 2260 L
3287 2212 L
3288 2273 L
3288 2128 L
3289 2197 L
3289 2059 L
3290 2190 L
3290 2176 L
3291 2237 L
3291 2164 L
3292 2210 L
3292 2207 L
3293 2202 L
3293 2295 L
3294 2289 L
3294 2173 L
3295 2320 L
3295 2427 L
3296 2320 L
3297 2004 L
3297 2151 L
3298 2154 L
3298 2069 L
3299 2128 L
3299 2290 L
3300 2255 L
3300 2232 L
3301 2020 L
3301 2342 L
3302 2338 L
3302 2166 L
3303 2264 L
3303 2275 L
3304 2232 L
3304 2263 L
3305 2228 L
3305 2318 L
3306 2282 L
3306 2217 L
3307 2217 L
3307 2237 L
3308 2203 L
3308 2166 L
3309 2330 L
3309 2279 L
3310 2371 L
3310 2409 L
3311 2179 L
3311 2234 L
3312 2217 L
3312 2249 L
3312 2381 L
3313 2160 L
3313 2298 L
3314 2238 L
3314 2224 L
3315 2071 L
3315 2129 L
3316 2402 L
3316 2221 L
3317 2266 L
3317 2214 L
3318 2305 L
3318 2281 L
3319 2281 L
3319 2274 L
3320 2267 L
3320 2349 L
3321 2150 L
3321 2325 L
3321 2587 L
3322 2387 L
3322 2252 L
3323 2240 L
3323 2306 L
3324 2266 L
3324 2160 L
3325 2312 L
3325 2423 L
3326 2207 L
3326 2273 L
3327 2283 L
3327 2243 L
3327 2249 L
3328 2304 L
3328 2263 L
3329 2149 L
3329 2168 L
3330 2271 L
3330 2399 L
3331 2333 L
3331 2364 L
3332 2355 L
3332 2210 L
3332 2334 L
3333 2407 L
3333 2291 L
3334 2230 L
3334 2004 L
3335 2244 L
3335 2225 L
3336 2218 L
3336 2408 L
3336 2243 L
3337 2338 L
3337 2318 L
3338 2408 L
3338 2315 L
3339 2242 L
3339 2201 L
3339 2331 L
3340 2388 L
3340 2447 L
3341 2339 L
3341 2379 L
3342 2272 L
3342 2321 L
3343 2314 L
3343 2194 L
3343 2354 L
3344 2341 L
3344 2287 L
3345 2423 L
3345 2213 L
3346 2267 L
3346 2223 L
3346 2339 L
3347 2340 L
3347 2374 L
3348 2449 L
3348 2286 L
3348 2278 L
3349 2318 L
3349 2442 L
3350 2317 L
3350 2308 L
3351 2250 L
3351 2344 L
3351 2350 L
3352 2357 L
3352 2296 L
3353 2468 L
3353 2238 L
3353 2314 L
3354 2292 L
3354 2416 L
3355 2285 L
3355 2305 L
3355 2288 L
3356 2241 L
3356 2194 L
3357 2460 L
3357 2386 L
3358 2295 L
3358 2279 L
3358 2415 L
3359 2464 L
3359 2262 L
3360 2275 L
3360 2327 L
3360 2250 L
3361 2211 L
3361 2279 L
3362 2436 L
3362 2271 L
3362 2364 L
3363 2250 L
3363 2356 L
3364 2275 L
3364 2623 L
3364 2418 L
3365 2260 L
3365 2464 L
3365 2393 L
3366 2450 L
3366 2402 L
3367 2335 L
3367 2410 L
3367 2673 L
3368 2314 L
3368 2446 L
3369 2306 L
3369 2354 L
3369 2437 L
3370 2463 L
3370 2497 L
3371 2573 L
3371 2359 L
3371 2250 L
3372 2252 L
3372 2335 L
3372 2455 L
3373 2268 L
3373 2476 L
3374 2485 L
3374 2360 L
3374 2468 L
3375 2315 L
3375 2224 L
3375 2515 L
3376 2257 L
3376 2521 L
3377 2423 L
3377 2374 L
3377 2537 L
3378 2318 L
3378 2416 L
3378 2361 L
3379 2413 L
3379 2442 L
3380 2506 L
3380 2470 L
3380 2239 L
3381 2403 L
3381 2399 L
3381 2445 L
3382 2326 L
3382 2370 L
3383 2491 L
3383 2434 L
3383 2398 L
3384 2345 L
3384 2365 L
3384 2299 L
3385 2360 L
3385 2302 L
3385 2624 L
3386 2450 L
3386 2619 L
3387 2376 L
3387 2400 L
3387 2382 L
3388 2531 L
3388 2457 L
3388 2516 L
3389 2509 L
3389 2434 L
3389 2571 L
3390 2368 L
3390 2442 L
3391 2482 L
3391 2427 L
3391 2420 L
3392 2329 L
3392 2452 L
3392 2434 L
3393 2499 L
3393 2250 L
3393 2489 L
3394 2434 L
3394 2498 L
3394 2548 L
3395 2601 L
3395 2353 L
3395 2552 L
3396 2304 L
3396 2534 L
3396 2411 L
3397 2370 L
3397 2478 L
3398 2399 L
3398 2330 L
3398 2413 L
3399 2484 L
3399 2383 L
3399 2452 L
3400 2616 L
3400 2374 L
3400 2481 L
3401 2459 L
3401 2481 L
3401 2422 L
3402 2240 L
3402 2537 L
3402 2344 L
3403 2473 L
3403 2355 L
3403 2478 L
3404 2436 L
3404 2590 L
3404 2445 L
3405 2532 L
3405 2583 L
3405 2411 L
3406 2216 L
3406 2410 L
3406 2489 L
3407 2536 L
3407 2434 L
3407 2509 L
3408 2599 L
3408 2453 L
3408 2475 L
3409 2390 L
3409 2415 L
3409 2409 L
3410 2471 L
3410 2440 L
3410 2275 L
3411 2547 L
3411 2278 L
3411 2369 L
3412 2490 L
3412 2390 L
3412 2456 L
3413 2499 L
3413 2358 L
3413 2448 L
3414 2504 L
3414 2443 L
3414 2396 L
3415 2468 L
3415 2269 L
3415 2501 L
3416 2485 L
3416 2545 L
3416 2432 L
3417 2586 L
3417 2535 L
3417 2491 L
3417 2439 L
3418 2547 L
3418 2488 L
3418 2493 L
3419 2541 L
3419 2517 L
3419 2511 L
3420 2578 L
3420 2244 L
3420 2598 L
3421 2465 L
3421 2565 L
3421 2544 L
3422 2464 L
3422 2374 L
3422 2505 L
3423 2611 L
3423 2347 L
3423 2470 L
3423 2468 L
3424 2429 L
3424 2655 L
3424 2533 L
3425 2552 L
3425 2450 L
3425 2459 L
3426 2581 L
3426 2552 L
3426 2547 L
3427 2523 L
3427 2443 L
3427 2570 L
3428 2335 L
3428 2571 L
3428 2361 L
3428 2552 L
3429 2447 L
3429 2603 L
3429 2620 L
3430 2562 L
3430 2481 L
3430 2551 L
3431 2580 L
3431 2553 L
3431 2527 L
3431 2701 L
3432 2613 L
3432 2555 L
3432 2401 L
3433 2421 L
3433 2472 L
3433 2370 L
3434 2508 L
3434 2542 L
3434 2567 L
3434 2499 L
3435 2509 L
3435 2422 L
3435 2468 L
3436 2447 L
3436 2440 L
3436 2356 L
3437 2534 L
3437 2447 L
3437 2538 L
3437 2522 L
3438 2418 L
3438 2516 L
3438 2600 L
3439 2462 L
3439 2391 L
3439 2557 L
3440 2516 L
3440 2473 L
3440 2455 L
3440 2419 L
3441 2515 L
3441 2492 L
3441 2556 L
3442 2555 L
3442 2548 L
3442 2405 L
3442 2504 L
3443 2445 L
3443 2594 L
3443 2442 L
3444 2613 L
3444 2516 L
3444 2306 L
3444 2633 L
3445 2584 L
3445 2555 L
3445 2537 L
3446 2484 L
3446 2453 L
3446 2441 L
3446 2568 L
3447 2593 L
3447 2502 L
3447 2555 L
3448 2423 L
3448 2754 L
3448 2515 L
3448 2459 L
3449 2628 L
3449 2453 L
3449 2439 L
3450 2709 L
3450 2550 L
3450 2500 L
3450 2423 L
3451 2605 L
3451 2655 L
3451 2582 L
3452 2627 L
3452 2458 L
3452 2475 L
3452 2318 L
3453 2450 L
3453 2495 L
3453 2485 L
3454 2471 L
3454 2575 L
3454 2452 L
3454 2335 L
3455 2634 L
3455 2448 L
3455 2437 L
3455 2535 L
3456 2566 L
3456 2465 L
3456 2617 L
3457 2675 L
3457 2450 L
3457 2628 L
3457 2464 L
3458 2666 L
3458 2540 L
3458 2553 L
3458 2573 L
3459 2529 L
3459 2547 L
3459 2509 L
3460 2709 L
3460 2454 L
3460 2406 L
3460 2563 L
3461 2455 L
3461 2610 L
3461 2482 L
3461 2528 L
3462 2614 L
3462 2679 L
3462 2561 L
3463 2720 L
3463 2575 L
3463 2622 L
3463 2606 L
3464 2603 L
3464 2522 L
3464 2548 L
3464 2542 L
3465 2632 L
3465 2447 L
3465 2547 L
3465 2690 L
3466 2569 L
3466 2629 L
3466 2577 L
3466 2614 L
3467 2515 L
3467 2721 L
3467 2462 L
3468 2460 L
3468 2742 L
3468 2593 L
3468 2386 L
3469 2447 L
3469 2698 L
3469 2429 L
3469 2532 L
3470 2669 L
3470 2609 L
3470 2472 L
3470 2411 L
3471 2545 L
3471 2594 L
3471 2383 L
3471 2504 L
3472 2560 L
3472 2505 L
3472 2787 L
3472 2690 L
3473 2384 L
3473 2676 L
3473 2664 L
3474 2574 L
3474 2481 L
3474 2700 L
3474 2789 L
3475 2492 L
3475 2502 L
3475 2714 L
3475 2653 L
3476 2590 L
3476 2662 L
3476 2491 L
3476 2524 L
3477 2532 L
3477 2532 L
3477 2416 L
3477 2565 L
3478 2548 L
3478 2552 L
3478 2710 L
3478 2500 L
3479 2710 L
3479 2472 L
3479 2505 L
3479 2571 L
3480 2449 L
3480 2473 L
3480 2416 L
3480 2666 L
3481 2632 L
3481 2603 L
3481 2705 L
3481 2718 L
3482 2582 L
3482 2486 L
3482 2587 L
3482 2524 L
3483 2617 L
3483 2570 L
3483 2561 L
3483 2575 L
3484 2739 L
3484 2440 L
3484 2593 L
3484 2371 L
3485 2580 L
3485 2655 L
3485 2503 L
3485 2575 L
3486 2545 L
3486 2745 L
3486 2565 L
3486 2671 L
3487 2575 L
3487 2479 L
3487 2621 L
3487 2644 L
3488 2534 L
3488 2538 L
3488 2748 L
3488 2585 L
3488 2636 L
3489 2613 L
3489 2721 L
3489 2680 L
3489 2653 L
3490 2706 L
3490 2634 L
3490 2597 L
3490 2818 L
3491 2553 L
3491 2719 L
3491 2712 L
3491 2627 L
3492 2527 L
3492 2564 L
3492 2662 L
3492 2693 L
3493 2677 L
3493 2556 L
3493 2547 L
3493 2534 L
3494 2564 L
3494 2518 L
3494 2735 L
3494 2656 L
3494 2731 L
3495 2613 L
3495 2564 L
3495 2676 L
3495 2524 L
3496 2647 L
3496 2692 L
3496 2486 L
3496 2686 L
3497 2571 L
3497 2699 L
3497 2626 L
3497 2734 L
3498 2531 L
3498 2576 L
3498 2663 L
3498 2764 L
3498 2761 L
3499 2432 L
3499 2659 L
3499 2311 L
3499 2563 L
3500 2503 L
3500 2600 L
3506 2623 L
3511 2661 L
3517 2738 L
3522 2472 L
3527 2738 L
3532 2770 L
3537 2729 L
3542 2682 L
3547 2741 L
3552 2406 L
3557 2646 L
3561 2815 L
3566 2729 L
3570 2829 L
3575 2890 L
3579 2754 L
3583 2650 L
3587 2682 L
3591 2690 L
3595 2745 L
3599 2797 L
3603 2723 L
3607 2796 L
3611 2793 L
3614 2796 L
3618 2694 L
3622 2892 L
3625 2863 L
3629 2627 L
3632 2711 L
3636 2808 L
3639 2873 L
3642 2568 L
3646 2814 L
3649 2837 L
3652 2763 L
3655 2883 L
3658 2639 L
3661 2827 L
3664 2749 L
3667 2755 L
3670 2560 L
3673 2818 L
3676 2492 L
3679 2584 L
3682 2658 L
3685 2771 L
3688 2572 L
3690 2760 L
3693 2561 L
3696 2769 L
3698 2780 L
3701 2871 L
3704 2695 L
3706 2765 L
3709 2860 L
3711 2678 L
3714 2660 L
3716 2867 L
3719 2756 L
3721 3013 L
3724 2841 L
3726 2679 L
3728 2707 L
3731 2727 L
3733 2826 L
3735 2659 L
3738 2763 L
3740 2656 L
3742 2763 L
3744 2875 L
3747 2907 L
3749 2840 L
3751 2842 L
3753 2724 L
3755 2831 L
3757 2870 L
3760 3032 L
3762 2620 L
3764 2894 L
3766 2825 L
3768 2856 L
3770 2775 L
3772 2831 L
3774 2753 L
3776 2690 L
3778 2865 L
3780 2729 L
3781 2693 L
3783 2639 L
3785 2923 L
3787 2917 L
3789 2726 L
3791 2669 L
3793 2844 L
3795 2849 L
3796 2757 L
3798 2701 L
3800 2702 L
3802 2762 L
3803 2860 L
3805 2707 L
3807 2850 L
3809 2718 L
3810 2884 L
3812 2729 L
3814 2643 L
3816 2568 L
3817 2735 L
3819 2955 L
3820 2768 L
3822 2700 L
3824 2759 L
3825 2900 L
3827 2774 L
3829 2770 L
3830 2769 L
3832 2716 L
3833 2765 L
3835 2686 L
3836 2709 L
3838 2906 L
3839 2706 L
3841 2958 L
3842 2722 L
3844 2843 L
3845 2678 L
3847 2588 L
3848 2809 L
3850 2765 L
3851 2611 L
3853 2909 L
3854 2822 L
3856 2771 L
3857 2827 L
3859 2712 L
3860 2690 L
3861 2759 L
3863 2642 L
3864 2633 L
3866 2918 L
3867 2696 L
3868 2677 L
3870 2866 L
3871 2570 L
3872 2985 L
3874 2914 L
3875 2802 L
3876 2690 L
3878 2787 L
3879 2720 L
3880 2837 L
3882 2810 L
3883 2775 L
3884 2751 L
3885 2722 L
3887 2860 L
3888 2774 L
3889 2704 L
3890 2976 L
3892 2869 L
3893 2906 L
3894 2879 L
3895 2869 L
3897 2855 L
3898 2978 L
3899 2799 L
3900 3024 L
3901 2794 L
3903 2792 L
3904 2872 L
3905 2691 L
3906 2943 L
3907 2874 L
3908 2743 L
3910 2795 L
3911 2676 L
3912 2807 L
3913 2788 L
3914 2763 L
3915 2708 L
3917 2723 L
3918 2813 L
3919 2746 L
3920 2825 L
3921 2834 L
3922 2700 L
3923 2834 L
3924 2983 L
3925 3004 L
3926 2936 L
3928 2720 L
3929 2963 L
3930 2822 L
3931 2880 L
3932 2728 L
3933 2590 L
3934 2738 L
3935 2846 L
3936 2910 L
3937 2751 L
3938 2945 L
3939 2674 L
3940 2704 L
3941 2836 L
3942 2982 L
3943 2869 L
3944 2857 L
3945 2747 L
3946 2665 L
3947 2714 L
3948 2859 L
3949 2607 L
3950 2752 L
3951 2850 L
3952 2750 L
3953 3001 L
3954 2612 L
3955 2765 L
3956 2834 L
3957 2559 L
3958 2836 L
3959 2849 L
3960 2845 L
3961 2690 L
3962 2693 L
3963 2743 L
3964 2733 L
3965 2802 L
3966 2782 L
3966 2740 L
3967 2839 L
3968 2709 L
3969 2821 L
3970 2911 L
3971 2723 L
3972 2708 L
3973 2637 L
3974 2742 L
3975 2840 L
3976 2794 L
3976 2894 L
3977 2707 L
3978 2660 L
3979 2738 L
3980 2819 L
3981 2843 L
3982 2713 L
3983 2826 L
3983 2964 L
3984 2539 L
3985 2895 L
3986 2660 L
3987 2794 L
3988 2718 L
3989 2930 L
3989 2937 L
3990 2808 L
3991 2927 L
3992 2782 L
3993 2695 L
3994 2825 L
3995 2576 L
3995 2821 L
3996 2801 L
3997 2650 L
3998 2839 L
3999 2726 L
3999 2709 L
4000 2996 L
4001 2842 L
4002 2819 L
4003 2675 L
4003 2976 L
4004 2634 L
4005 2767 L
4006 2687 L
4007 3083 L
4007 2679 L
4008 2811 L
4009 2908 L
4010 2651 L
4011 2882 L
4011 2713 L
4012 2782 L
4013 2810 L
4014 2774 L
4014 2671 L
4015 2878 L
4016 2754 L
4017 2917 L
4017 3077 L
4018 2837 L
4019 2923 L
4020 2762 L
4021 2770 L
4021 2757 L
4022 2836 L
4023 2906 L
4023 2748 L
4024 2981 L
4025 2808 L
4026 2660 L
4026 2829 L
4027 2701 L
4028 2971 L
4029 2735 L
4029 2763 L
4030 2704 L
4031 2673 L
4032 2926 L
4032 2771 L
4033 2767 L
4034 2755 L
4034 2796 L
4035 2643 L
4036 2912 L
4036 2810 L
4037 2892 L
4038 2816 L
4039 2947 L
4039 2903 L
4040 2809 L
4041 2857 L
4041 2956 L
4042 2848 L
4043 2834 L
4043 2648 L
4044 2722 L
4045 2559 L
4045 2729 L
4046 2582 L
4047 2776 L
4047 2728 L
4048 2830 L
4049 2709 L
4050 2666 L
4050 2857 L
4051 2866 L
4052 2834 L
4052 2782 L
4053 2912 L
4053 2859 L
4054 2628 L
4055 2777 L
4055 2764 L
4056 2859 L
4057 3000 L
4057 2771 L
4058 2808 L
4059 2729 L
4059 2729 L
4060 2788 L
4061 2661 L
4061 2791 L
4062 2830 L
L2 C07 COSGR

%
%================
% Legend - Begin
%================
%
GSN 4240 5180 M
4480 5180 L
LWMC SL  C07 COSGR
GSN 4540 5141 M helvM (4.0 uM) show grestore
%
%================
% Legend - End
%================
%

%
% Residuals:
%
GSN 777 1465 M
1388 1443 L
1552 1211 L
1652 1212 L
1723 1197 L
1778 1064 L
1824 750 L
1863 1086 L
1896 932 L
1926 884 L
1952 1008 L
1976 935 L
1998 1098 L
2019 1064 L
2037 1187 L
2055 1033 L
2071 1013 L
2086 1003 L
2101 1088 L
2115 1052 L
2128 1082 L
2140 1008 L
2152 1045 L
2163 1048 L
2174 997 L
2184 907 L
2194 1125 L
2204 1078 L
2213 1126 L
2222 1175 L
2230 1189 L
2239 1067 L
2247 1177 L
2255 1165 L
2262 1180 L
2270 1090 L
2277 1115 L
2284 1121 L
2290 1190 L
2297 1127 L
2303 1128 L
2310 1097 L
2316 988 L
2322 1175 L
2328 1164 L
2333 1101 L
2339 1017 L
2344 1126 L
2350 1062 L
2355 1060 L
2360 968 L
2365 1081 L
2370 1110 L
2375 1075 L
2380 1009 L
2384 1159 L
2389 1131 L
2393 1178 L
2398 1184 L
2402 1006 L
2407 1056 L
2411 1276 L
2415 1148 L
2419 1087 L
2423 1136 L
2427 1040 L
2431 1089 L
2435 1216 L
2438 1057 L
2442 1138 L
2446 1133 L
2449 1220 L
2453 1250 L
2456 1192 L
2460 1284 L
2463 1073 L
2467 1191 L
2470 1183 L
2473 1257 L
2476 1107 L
2480 1071 L
2483 1128 L
2486 1137 L
2489 1343 L
2492 1190 L
2495 1184 L
2498 1085 L
2501 1193 L
2504 1243 L
2507 1169 L
2510 1040 L
2512 1101 L
2515 1220 L
2518 1212 L
2521 1217 L
2523 1185 L
2526 1247 L
2529 1212 L
2531 1303 L
2534 1140 L
2536 1246 L
2539 1327 L
2541 1238 L
2544 1309 L
2546 1252 L
2549 1189 L
2551 1212 L
2554 1202 L
2556 1218 L
2558 1160 L
2561 1307 L
2563 1197 L
2565 1265 L
2568 1260 L
2570 1206 L
2572 1177 L
2574 1180 L
2576 1155 L
2579 1337 L
2581 1222 L
2583 1298 L
2585 1264 L
2587 1203 L
2589 1239 L
2591 1239 L
2593 1358 L
2595 1064 L
2597 1246 L
2599 1217 L
2601 1228 L
2603 1194 L
2605 1328 L
2607 1260 L
2609 1421 L
2611 1338 L
2613 1289 L
2615 1250 L
2617 1257 L
2618 1364 L
2620 1268 L
2622 1293 L
2624 1279 L
2626 1251 L
2627 1289 L
2629 1299 L
2631 1386 L
2633 1337 L
2634 1330 L
2636 1395 L
2638 1238 L
2640 1247 L
2641 1347 L
2643 1300 L
2645 1282 L
2646 1285 L
2648 1173 L
2650 1226 L
2651 1260 L
2653 1295 L
2654 1340 L
2656 1449 L
2658 1397 L
2659 1335 L
2661 1286 L
2662 1311 L
2664 1262 L
2665 1292 L
2667 1330 L
2668 1328 L
2670 1263 L
2671 1396 L
2673 1237 L
2674 1281 L
2676 1250 L
2677 1285 L
2679 1348 L
2680 1304 L
2682 1296 L
2683 1374 L
2685 1247 L
2686 1327 L
2687 1305 L
2689 1273 L
2690 1325 L
2692 1274 L
2693 1356 L
2694 1370 L
2696 1275 L
2697 1310 L
2698 1429 L
2700 1345 L
2701 1281 L
2702 1304 L
2704 1259 L
2705 1214 L
2706 1331 L
2708 1296 L
2709 1209 L
2710 1290 L
2712 1337 L
2713 1239 L
2714 1134 L
2715 1316 L
2717 1395 L
2718 1368 L
2719 1403 L
2720 1416 L
2722 1290 L
2723 1244 L
2724 1294 L
2725 1348 L
2726 1349 L
2728 1297 L
2729 1340 L
2730 1361 L
2731 1358 L
2732 1308 L
2734 1312 L
2735 1368 L
2736 1255 L
2737 1373 L
2738 1332 L
2739 1339 L
2741 1414 L
2742 1183 L
2743 1310 L
2744 1387 L
2745 1245 L
2746 1250 L
2747 1306 L
2748 1406 L
2749 1379 L
2751 1319 L
2752 1366 L
2753 1291 L
2754 1279 L
2755 1308 L
2756 1421 L
2757 1317 L
2758 1317 L
2759 1298 L
2760 1293 L
2761 1363 L
2762 1367 L
2763 1517 L
2764 1360 L
2765 1385 L
2767 1448 L
2768 1352 L
2769 1318 L
2770 1373 L
2771 1303 L
2772 1305 L
2773 1339 L
2774 1403 L
2775 1282 L
2776 1134 L
2777 1386 L
2778 1301 L
2779 1356 L
2780 1251 L
2781 1369 L
2782 1461 L
2783 1449 L
2783 1379 L
2784 1240 L
2785 1253 L
2786 1420 L
2787 1461 L
2788 1438 L
2789 1422 L
2790 1272 L
2791 1334 L
2792 1359 L
2793 1333 L
2794 1343 L
2795 1367 L
2796 1466 L
2797 1435 L
2798 1461 L
2798 1429 L
2799 1449 L
2800 1336 L
2801 1296 L
2802 1275 L
2803 1348 L
2804 1386 L
2805 1349 L
2806 1425 L
2807 1233 L
2807 1420 L
2808 1332 L
2809 1421 L
2810 1386 L
2811 1441 L
2812 1443 L
2813 1326 L
2813 1418 L
2814 1310 L
2815 1367 L
2816 1352 L
2817 1297 L
2818 1313 L
2819 1383 L
2819 1344 L
2820 1456 L
2821 1415 L
2822 1419 L
2823 1315 L
2824 1386 L
2824 1459 L
2825 1340 L
2826 1334 L
2827 1538 L
2828 1327 L
2828 1523 L
2829 1313 L
2830 1342 L
2831 1376 L
2832 1372 L
2832 1399 L
2833 1326 L
2834 1367 L
2835 1287 L
2836 1416 L
2836 1337 L
2837 1374 L
2838 1448 L
2839 1463 L
2840 1381 L
2840 1346 L
2841 1359 L
2842 1393 L
2843 1409 L
2843 1293 L
2844 1382 L
2845 1445 L
2846 1396 L
2846 1460 L
2847 1203 L
2848 1235 L
2849 1274 L
2849 1436 L
2850 1569 L
2851 1337 L
2852 1421 L
2852 1345 L
2853 1313 L
2854 1423 L
2855 1356 L
2855 1397 L
2856 1339 L
2857 1442 L
2857 1259 L
2858 1378 L
2859 1350 L
2860 1280 L
2860 1397 L
2861 1429 L
2862 1391 L
2862 1555 L
2863 1377 L
2864 1298 L
2865 1463 L
2865 1380 L
2866 1302 L
2867 1358 L
2867 1450 L
2868 1321 L
2869 1341 L
2869 1399 L
2870 1393 L
2871 1386 L
2871 1468 L
2872 1304 L
2873 1505 L
2873 1301 L
2874 1457 L
2875 1442 L
2876 1379 L
2876 1294 L
2877 1314 L
2878 1318 L
2878 1314 L
2879 1367 L
2880 1288 L
2880 1503 L
2881 1380 L
2881 1436 L
2882 1458 L
2883 1439 L
2883 1459 L
2884 1436 L
2885 1386 L
2885 1397 L
2886 1392 L
2887 1371 L
2887 1319 L
2888 1279 L
2889 1373 L
2889 1394 L
2892 1435 L
2894 1422 L
2897 1487 L
2899 1378 L
2902 1380 L
2904 1305 L
2907 1267 L
2909 1463 L
2911 1440 L
2914 1420 L
2916 1488 L
2918 1420 L
2921 1369 L
2923 1370 L
2925 1501 L
2927 1348 L
2929 1370 L
2932 1380 L
2934 1358 L
2936 1391 L
2938 1412 L
2940 1418 L
2942 1207 L
2944 1364 L
2946 1327 L
2948 1384 L
2950 1307 L
2952 1370 L
2954 1376 L
2956 1437 L
2958 1376 L
2960 1436 L
2962 1284 L
2964 1374 L
2966 1303 L
2968 1307 L
2970 1353 L
2971 1355 L
2973 1436 L
2975 1351 L
2977 1363 L
2979 1360 L
2980 1451 L
2982 1354 L
2984 1368 L
2986 1368 L
2987 1240 L
2989 1418 L
2991 1401 L
2993 1474 L
2994 1235 L
2996 1498 L
2998 1328 L
2999 1213 L
3001 1307 L
3003 1378 L
3004 1320 L
3006 1317 L
3007 1303 L
3009 1449 L
3011 1343 L
3012 1351 L
3014 1315 L
3015 1265 L
3017 1376 L
3018 1409 L
3020 1377 L
3021 1334 L
3023 1334 L
3024 1315 L
3026 1403 L
3027 1217 L
3029 1283 L
3030 1256 L
3032 1335 L
3033 1423 L
3035 1350 L
3036 1317 L
3038 1315 L
3039 1296 L
3040 1426 L
3042 1309 L
3043 1260 L
3045 1288 L
3046 1289 L
3047 1294 L
3049 1350 L
3050 1349 L
3051 1357 L
3053 1370 L
3054 1274 L
3055 1328 L
3057 1357 L
3058 1236 L
3059 1298 L
3061 1232 L
3062 1286 L
3063 1227 L
3065 1315 L
3066 1427 L
3067 1302 L
3068 1272 L
3070 1288 L
3071 1429 L
3072 1317 L
3073 1309 L
3075 1258 L
3076 1308 L
3077 1270 L
3078 1371 L
3079 1340 L
3081 1187 L
3082 1293 L
3083 1378 L
3084 1254 L
3085 1341 L
3087 1253 L
3088 1237 L
3089 1326 L
3090 1354 L
3091 1371 L
3092 1210 L
3094 1296 L
3095 1210 L
3096 1248 L
3097 1205 L
3098 1315 L
3099 1374 L
3100 1222 L
3101 1320 L
3103 1307 L
3104 1169 L
3105 1253 L
3106 1309 L
3107 1282 L
3108 1228 L
3109 1313 L
3110 1162 L
3111 1375 L
3112 1378 L
3113 1325 L
3114 1447 L
3115 1206 L
3116 1282 L
3117 1344 L
3119 1337 L
3120 1147 L
3121 1270 L
3122 1245 L
3123 1353 L
3124 1312 L
3125 1232 L
3126 1278 L
3127 1305 L
3128 1269 L
3129 1253 L
3130 1304 L
3131 1231 L
3132 1211 L
3133 1197 L
3134 1241 L
3135 1367 L
3136 1194 L
3136 1240 L
3137 1171 L
3138 1248 L
3139 1214 L
3140 1213 L
3141 1184 L
3142 1274 L
3143 1335 L
3144 1211 L
3145 1253 L
3146 1211 L
3147 1254 L
3148 1326 L
3149 1427 L
3150 1230 L
3151 1198 L
3151 1290 L
3152 1260 L
3153 1229 L
3154 1168 L
3155 1156 L
3156 1386 L
3157 1271 L
3158 1446 L
3159 1300 L
3160 1277 L
3160 1325 L
3161 1298 L
3162 1261 L
3163 1219 L
3164 1227 L
3165 1264 L
3166 1197 L
3166 1221 L
3167 1380 L
3168 1199 L
3169 1261 L
3170 1182 L
3171 1135 L
3172 1279 L
3172 1199 L
3173 1232 L
3174 1216 L
3175 1243 L
3176 1257 L
3177 1254 L
3177 1269 L
3178 1347 L
3179 1195 L
3180 1110 L
3181 1272 L
3181 1187 L
3182 1294 L
3183 1289 L
3184 1229 L
3185 1292 L
3185 1296 L
3186 1175 L
3187 1105 L
3188 1156 L
3189 1302 L
3189 1258 L
3190 1114 L
3191 1247 L
3192 1227 L
3193 1204 L
3193 1165 L
3194 1200 L
3195 1147 L
3196 1171 L
3196 1223 L
3197 1195 L
3198 1297 L
3199 1262 L
3199 1286 L
3200 1293 L
3201 1234 L
3202 1246 L
3202 1261 L
3203 1417 L
3204 1211 L
3205 1233 L
3205 1385 L
3206 1308 L
3207 1182 L
3208 1288 L
3208 1208 L
3209 1162 L
3210 1262 L
3210 1233 L
3211 1244 L
3212 1275 L
3213 1170 L
3213 1297 L
3214 1322 L
3215 1360 L
3215 1211 L
3216 1254 L
3217 1170 L
3218 1259 L
3218 1232 L
3219 1289 L
3220 1220 L
3220 1281 L
3221 1361 L
3222 1258 L
3222 1109 L
3223 1331 L
3224 1239 L
3224 1258 L
3225 1241 L
3226 1294 L
3227 1378 L
3227 1157 L
3228 1207 L
3229 1307 L
3229 1147 L
3230 1261 L
3231 1198 L
3231 1283 L
3232 1166 L
3233 1376 L
3233 1178 L
3234 1190 L
3235 1197 L
3235 1233 L
3236 1263 L
3236 1208 L
3237 1176 L
3238 1191 L
3238 1248 L
3239 1308 L
3240 1182 L
3240 1280 L
3241 1310 L
3242 1337 L
3242 1260 L
3243 1221 L
3244 1197 L
3244 1272 L
3245 1154 L
3245 1116 L
3246 1304 L
3247 1229 L
3247 1242 L
3248 1174 L
3249 1286 L
3249 1289 L
3250 1309 L
3250 1222 L
3251 1294 L
3252 1284 L
3252 1373 L
3253 1095 L
3253 1219 L
3254 1221 L
3255 1267 L
3255 1073 L
3256 1246 L
3257 1253 L
3257 1113 L
3258 1223 L
3258 1257 L
3259 1197 L
3259 1095 L
3260 1325 L
3261 1305 L
3261 1161 L
3262 1328 L
3262 1126 L
3263 1196 L
3264 1131 L
3264 1276 L
3265 1284 L
3265 1221 L
3266 1293 L
3267 1206 L
3267 1212 L
3268 1186 L
3268 1321 L
3269 1204 L
3269 1169 L
3270 1167 L
3271 1250 L
3271 1327 L
3272 1294 L
3272 1262 L
3273 1204 L
3273 1231 L
3274 1260 L
3275 1329 L
3275 1203 L
3276 1237 L
3276 1174 L
3277 1201 L
3277 1225 L
3278 1236 L
3278 1260 L
3279 1262 L
3280 1199 L
3280 1226 L
3281 1203 L
3281 1194 L
3282 1215 L
3282 1217 L
3283 1138 L
3283 1126 L
3284 1240 L
3284 1358 L
3285 1191 L
3285 1180 L
3286 1353 L
3287 1266 L
3287 1231 L
3288 1273 L
3288 1172 L
3289 1219 L
3289 1123 L
3290 1212 L
3290 1202 L
3291 1244 L
3291 1192 L
3292 1223 L
3292 1221 L
3293 1216 L
3293 1280 L
3294 1275 L
3294 1194 L
3295 1295 L
3295 1368 L
3296 1294 L
3297 1074 L
3297 1175 L
3298 1176 L
3298 1116 L
3299 1157 L
3299 1268 L
3300 1243 L
3300 1226 L
3301 1078 L
3301 1301 L
3302 1297 L
3302 1177 L
3303 1245 L
3303 1251 L
3304 1221 L
3304 1242 L
3305 1217 L
3305 1279 L
3306 1253 L
3306 1207 L
3307 1206 L
3307 1220 L
3308 1195 L
3308 1168 L
3309 1282 L
3309 1246 L
3310 1309 L
3310 1334 L
3311 1174 L
3311 1211 L
3312 1199 L
3312 1220 L
3312 1311 L
3313 1157 L
3313 1252 L
3314 1210 L
3314 1200 L
3315 1092 L
3315 1132 L
3316 1321 L
3316 1194 L
3317 1225 L
3317 1188 L
3318 1251 L
3318 1233 L
3319 1232 L
3319 1227 L
3320 1221 L
3320 1277 L
3321 1138 L
3321 1259 L
3321 1440 L
3322 1301 L
3322 1206 L
3323 1197 L
3323 1243 L
3324 1214 L
3324 1140 L
3325 1245 L
3325 1321 L
3326 1170 L
3326 1216 L
3327 1222 L
3327 1193 L
3327 1196 L
3328 1234 L
3328 1205 L
3329 1125 L
3329 1138 L
3330 1208 L
3330 1297 L
3331 1250 L
3331 1271 L
3332 1264 L
3332 1163 L
3332 1248 L
3333 1298 L
3333 1217 L
3334 1174 L
3334 1016 L
3335 1182 L
3335 1168 L
3336 1163 L
3336 1294 L
3336 1179 L
3337 1244 L
3337 1230 L
3338 1291 L
3338 1226 L
3339 1174 L
3339 1146 L
3339 1235 L
3340 1274 L
3340 1315 L
3341 1239 L
3341 1266 L
3342 1191 L
3342 1224 L
3343 1219 L
3343 1135 L
3343 1245 L
3344 1236 L
3344 1197 L
3345 1291 L
3345 1144 L
3346 1181 L
3346 1151 L
3346 1230 L
3347 1230 L
3347 1253 L
3348 1304 L
3348 1191 L
3348 1184 L
3349 1212 L
3349 1297 L
3350 1209 L
3350 1203 L
3351 1162 L
3351 1227 L
3351 1230 L
3352 1234 L
3352 1192 L
3353 1310 L
3353 1150 L
3353 1202 L
3354 1186 L
3354 1271 L
3355 1180 L
3355 1193 L
3355 1180 L
3356 1147 L
3356 1114 L
3357 1298 L
3357 1246 L
3358 1183 L
3358 1171 L
3358 1264 L
3359 1298 L
3359 1157 L
3360 1165 L
3360 1201 L
3360 1147 L
3361 1119 L
3361 1165 L
3362 1274 L
3362 1158 L
3362 1223 L
3363 1143 L
3363 1216 L
3364 1159 L
3364 1400 L
3364 1257 L
3365 1147 L
3365 1288 L
3365 1238 L
3366 1277 L
3366 1243 L
3367 1196 L
3367 1247 L
3367 1430 L
3368 1179 L
3368 1270 L
3369 1173 L
3369 1206 L
3369 1262 L
3370 1280 L
3370 1303 L
3371 1355 L
3371 1206 L
3371 1130 L
3372 1131 L
3372 1188 L
3372 1270 L
3373 1140 L
3373 1283 L
3374 1289 L
3374 1202 L
3374 1276 L
3375 1170 L
3375 1106 L
3375 1307 L
3376 1127 L
3376 1310 L
3377 1241 L
3377 1207 L
3377 1320 L
3378 1167 L
3378 1234 L
3378 1195 L
3379 1231 L
3379 1250 L
3380 1294 L
3380 1269 L
3380 1108 L
3381 1221 L
3381 1218 L
3381 1249 L
3382 1166 L
3382 1196 L
3383 1279 L
3383 1239 L
3383 1214 L
3384 1177 L
3384 1190 L
3384 1144 L
3385 1185 L
3385 1144 L
3385 1368 L
3386 1246 L
3386 1363 L
3387 1194 L
3387 1210 L
3387 1197 L
3388 1300 L
3388 1247 L
3388 1288 L
3389 1283 L
3389 1230 L
3389 1324 L
3390 1183 L
3390 1234 L
3391 1261 L
3391 1222 L
3391 1217 L
3392 1154 L
3392 1238 L
3392 1225 L
3393 1270 L
3393 1097 L
3393 1261 L
3394 1223 L
3394 1266 L
3394 1301 L
3395 1337 L
3395 1164 L
3395 1302 L
3396 1129 L
3396 1288 L
3396 1203 L
3397 1174 L
3397 1248 L
3398 1193 L
3398 1144 L
3398 1201 L
3399 1250 L
3399 1180 L
3399 1227 L
3400 1340 L
3400 1172 L
3400 1245 L
3401 1229 L
3401 1244 L
3401 1203 L
3402 1076 L
3402 1282 L
3402 1147 L
3403 1236 L
3403 1154 L
3403 1239 L
3404 1209 L
3404 1315 L
3404 1214 L
3405 1274 L
3405 1309 L
3405 1189 L
3406 1053 L
3406 1187 L
3406 1241 L
3407 1274 L
3407 1203 L
3407 1254 L
3408 1316 L
3408 1214 L
3408 1229 L
3409 1170 L
3409 1186 L
3409 1182 L
3410 1224 L
3410 1202 L
3410 1087 L
3411 1275 L
3411 1088 L
3411 1151 L
3412 1234 L
3412 1165 L
3412 1209 L
3413 1239 L
3413 1141 L
3413 1203 L
3414 1241 L
3414 1198 L
3414 1165 L
3415 1214 L
3415 1076 L
3415 1236 L
3416 1225 L
3416 1266 L
3416 1187 L
3417 1294 L
3417 1257 L
3417 1226 L
3417 1190 L
3418 1265 L
3418 1223 L
3418 1226 L
3419 1259 L
3419 1242 L
3419 1237 L
3420 1283 L
3420 1051 L
3420 1296 L
3421 1203 L
3421 1272 L
3421 1257 L
3422 1201 L
3422 1138 L
3422 1229 L
3423 1302 L
3423 1118 L
3423 1203 L
3423 1201 L
3424 1174 L
3424 1330 L
3424 1245 L
3425 1258 L
3425 1186 L
3425 1192 L
3426 1277 L
3426 1256 L
3426 1251 L
3427 1235 L
3427 1178 L
3427 1266 L
3428 1103 L
3428 1266 L
3428 1120 L
3428 1252 L
3429 1179 L
3429 1286 L
3429 1298 L
3430 1257 L
3430 1201 L
3430 1248 L
3431 1268 L
3431 1249 L
3431 1230 L
3431 1351 L
3432 1289 L
3432 1249 L
3432 1141 L
3433 1155 L
3433 1190 L
3433 1118 L
3434 1214 L
3434 1237 L
3434 1254 L
3434 1206 L
3435 1213 L
3435 1152 L
3435 1183 L
3436 1168 L
3436 1163 L
3436 1104 L
3437 1227 L
3437 1167 L
3437 1230 L
3437 1218 L
3438 1145 L
3438 1213 L
3438 1271 L
3439 1174 L
3439 1125 L
3439 1239 L
3440 1211 L
3440 1181 L
3440 1167 L
3440 1142 L
3441 1208 L
3441 1192 L
3441 1236 L
3442 1235 L
3442 1229 L
3442 1130 L
3442 1198 L
3443 1156 L
3443 1260 L
3443 1154 L
3444 1272 L
3444 1205 L
3444 1058 L
3444 1284 L
3445 1250 L
3445 1230 L
3445 1216 L
3446 1180 L
3446 1157 L
3446 1149 L
3446 1237 L
3447 1254 L
3447 1190 L
3447 1226 L
3448 1134 L
3448 1363 L
3448 1197 L
3448 1158 L
3449 1275 L
3449 1153 L
3449 1143 L
3450 1330 L
3450 1219 L
3450 1184 L
3450 1130 L
3451 1256 L
3451 1290 L
3451 1239 L
3452 1270 L
3452 1153 L
3452 1164 L
3452 1054 L
3453 1146 L
3453 1177 L
3453 1169 L
3454 1159 L
3454 1231 L
3454 1145 L
3454 1064 L
3455 1271 L
3455 1141 L
3455 1133 L
3455 1201 L
3456 1222 L
3456 1151 L
3456 1256 L
3457 1296 L
3457 1140 L
3457 1263 L
3457 1149 L
3458 1288 L
3458 1201 L
3458 1209 L
3458 1222 L
3459 1192 L
3459 1204 L
3459 1177 L
3460 1316 L
3460 1138 L
3460 1104 L
3460 1213 L
3461 1137 L
3461 1245 L
3461 1156 L
3461 1187 L
3462 1247 L
3462 1291 L
3462 1209 L
3463 1319 L
3463 1218 L
3463 1250 L
3463 1239 L
3464 1237 L
3464 1180 L
3464 1197 L
3464 1193 L
3465 1255 L
3465 1127 L
3465 1195 L
3465 1294 L
3466 1210 L
3466 1251 L
3466 1214 L
3466 1240 L
3467 1171 L
3467 1313 L
3467 1133 L
3468 1131 L
3468 1327 L
3468 1223 L
3468 1079 L
3469 1121 L
3469 1295 L
3469 1108 L
3469 1179 L
3470 1273 L
3470 1232 L
3470 1136 L
3470 1093 L
3471 1186 L
3471 1220 L
3471 1073 L
3471 1157 L
3472 1195 L
3472 1156 L
3472 1352 L
3472 1284 L
3473 1072 L
3473 1274 L
3473 1265 L
3474 1203 L
3474 1138 L
3474 1289 L
3474 1351 L
3475 1144 L
3475 1151 L
3475 1298 L
3475 1255 L
3476 1211 L
3476 1260 L
3476 1141 L
3476 1164 L
3477 1169 L
3477 1169 L
3477 1088 L
3477 1191 L
3478 1179 L
3478 1182 L
3478 1290 L
3478 1144 L
3479 1290 L
3479 1124 L
3479 1147 L
3479 1192 L
3480 1107 L
3480 1124 L
3480 1083 L
3480 1257 L
3481 1233 L
3481 1212 L
3481 1283 L
3481 1292 L
3482 1197 L
3482 1130 L
3482 1200 L
3482 1156 L
3483 1220 L
3483 1187 L
3483 1181 L
3483 1190 L
3484 1303 L
3484 1096 L
3484 1201 L
3484 1047 L
3485 1191 L
3485 1243 L
3485 1137 L
3485 1187 L
3486 1166 L
3486 1304 L
3486 1179 L
3486 1252 L
3487 1186 L
3487 1118 L
3487 1217 L
3487 1233 L
3488 1155 L
3488 1158 L
3488 1303 L
3488 1190 L
3488 1225 L
3489 1209 L
3489 1283 L
3489 1255 L
3489 1236 L
3490 1272 L
3490 1222 L
3490 1196 L
3490 1349 L
3491 1165 L
3491 1280 L
3491 1275 L
3491 1215 L
3492 1145 L
3492 1171 L
3492 1239 L
3492 1260 L
3493 1248 L
3493 1164 L
3493 1157 L
3493 1148 L
3494 1168 L
3494 1136 L
3494 1286 L
3494 1231 L
3494 1283 L
3495 1201 L
3495 1167 L
3495 1244 L
3495 1138 L
3496 1224 L
3496 1254 L
3496 1111 L
3496 1249 L
3497 1169 L
3497 1258 L
3497 1207 L
3497 1282 L
3498 1141 L
3498 1171 L
3498 1232 L
3498 1301 L
3498 1299 L
3499 1070 L
3499 1228 L
3499 986 L
3499 1160 L
3500 1119 L
3500 1185 L
3506 1194 L
3511 1213 L
3517 1260 L
3522 1069 L
3527 1247 L
3532 1263 L
3537 1230 L
3542 1191 L
3547 1227 L
3552 989 L
3557 1151 L
3561 1263 L
3566 1199 L
3570 1264 L
3575 1302 L
3579 1204 L
3583 1128 L
3587 1146 L
3591 1149 L
3595 1183 L
3599 1216 L
3603 1161 L
3607 1209 L
3611 1204 L
3614 1203 L
3618 1130 L
3622 1264 L
3625 1242 L
3629 1076 L
3632 1132 L
3636 1197 L
3639 1240 L
3642 1026 L
3646 1195 L
3649 1209 L
3652 1155 L
3655 1237 L
3658 1066 L
3661 1195 L
3664 1139 L
3667 1142 L
3670 1005 L
3673 1183 L
3676 955 L
3679 1018 L
3682 1068 L
3685 1145 L
3688 1006 L
3690 1136 L
3693 996 L
3696 1140 L
3698 1146 L
3701 1208 L
3704 1086 L
3706 1133 L
3709 1198 L
3711 1071 L
3714 1058 L
3716 1200 L
3719 1123 L
3721 1301 L
3724 1181 L
3726 1067 L
3728 1087 L
3731 1100 L
3733 1168 L
3735 1051 L
3738 1123 L
3740 1049 L
3742 1122 L
3744 1199 L
3747 1221 L
3749 1174 L
3751 1175 L
3753 1093 L
3755 1167 L
3757 1194 L
3760 1306 L
3762 1020 L
3764 1209 L
3766 1161 L
3768 1182 L
3770 1126 L
3772 1165 L
3774 1110 L
3776 1066 L
3778 1187 L
3780 1092 L
3781 1068 L
3783 1030 L
3785 1226 L
3787 1222 L
3789 1090 L
3791 1050 L
3793 1171 L
3795 1174 L
3796 1111 L
3798 1071 L
3800 1072 L
3802 1113 L
3803 1181 L
3805 1075 L
3807 1174 L
3809 1082 L
3810 1198 L
3812 1089 L
3814 1030 L
3816 978 L
3817 1094 L
3819 1246 L
3820 1117 L
3822 1069 L
3824 1110 L
3825 1207 L
3827 1120 L
3829 1117 L
3830 1117 L
3832 1080 L
3833 1113 L
3835 1059 L
3836 1074 L
3838 1211 L
3839 1072 L
3841 1247 L
3842 1083 L
3844 1167 L
3845 1053 L
3847 990 L
3848 1144 L
3850 1113 L
3851 1006 L
3853 1213 L
3854 1153 L
3856 1117 L
3857 1156 L
3859 1076 L
3860 1060 L
3861 1108 L
3863 1027 L
3864 1021 L
3866 1219 L
3867 1065 L
3868 1051 L
3870 1182 L
3871 977 L
3872 1265 L
3874 1216 L
3875 1138 L
3876 1060 L
3878 1128 L
3879 1081 L
3880 1162 L
3882 1143 L
3883 1119 L
3884 1102 L
3885 1082 L
3887 1178 L
3888 1118 L
3889 1070 L
3890 1259 L
3892 1184 L
3893 1210 L
3894 1191 L
3895 1184 L
3897 1175 L
3898 1260 L
3899 1136 L
3900 1292 L
3901 1132 L
3903 1131 L
3904 1186 L
3905 1061 L
3906 1236 L
3907 1188 L
3908 1097 L
3910 1133 L
3911 1050 L
3912 1141 L
3913 1128 L
3914 1110 L
3915 1072 L
3917 1083 L
3918 1145 L
3919 1099 L
3920 1154 L
3921 1160 L
3922 1067 L
3923 1160 L
3924 1263 L
3925 1278 L
3926 1231 L
3928 1081 L
3929 1249 L
3930 1152 L
3931 1192 L
3932 1086 L
3933 991 L
3934 1093 L
3935 1168 L
3936 1213 L
3937 1102 L
3938 1237 L
3939 1049 L
3940 1069 L
3941 1161 L
3942 1263 L
3943 1184 L
3944 1176 L
3945 1100 L
3946 1042 L
3947 1076 L
3948 1177 L
3949 1002 L
3950 1103 L
3951 1171 L
3952 1102 L
3953 1276 L
3954 1006 L
3955 1112 L
3956 1160 L
3957 969 L
3958 1161 L
3959 1170 L
3960 1168 L
3961 1060 L
3962 1062 L
3963 1096 L
3964 1090 L
3965 1137 L
3966 1124 L
3966 1094 L
3967 1163 L
3968 1073 L
3969 1151 L
3970 1213 L
3971 1083 L
3972 1072 L
3973 1023 L
3974 1096 L
3975 1164 L
3976 1132 L
3976 1201 L
3977 1072 L
3978 1039 L
3979 1093 L
3980 1150 L
3981 1166 L
3982 1076 L
3983 1154 L
3983 1250 L
3984 955 L
3985 1202 L
3986 1039 L
3987 1132 L
3988 1080 L
3989 1226 L
3989 1232 L
3990 1142 L
3991 1224 L
3992 1124 L
3993 1063 L
3994 1154 L
3995 981 L
3995 1151 L
3996 1137 L
3997 1032 L
3998 1163 L
3999 1085 L
3999 1073 L
4000 1272 L
4001 1165 L
4002 1150 L
4003 1049 L
4003 1258 L
4004 1021 L
4005 1113 L
4006 1058 L
4007 1333 L
4007 1052 L
4008 1144 L
4009 1211 L
4010 1033 L
4011 1193 L
4011 1076 L
4012 1124 L
4013 1143 L
4014 1118 L
4014 1047 L
4015 1191 L
4016 1105 L
4017 1217 L
4017 1329 L
4018 1162 L
4019 1222 L
4020 1110 L
4021 1115 L
4021 1107 L
4022 1161 L
4023 1210 L
4023 1100 L
4024 1262 L
4025 1142 L
4026 1039 L
4026 1156 L
4027 1068 L
4028 1255 L
4029 1091 L
4029 1111 L
4030 1069 L
4031 1048 L
4032 1223 L
4032 1116 L
4033 1113 L
4034 1105 L
4034 1134 L
4035 1027 L
4036 1214 L
4036 1143 L
4037 1200 L
4038 1147 L
4039 1238 L
4039 1207 L
4040 1142 L
4041 1176 L
4041 1244 L
4042 1170 L
4043 1160 L
4043 1031 L
4044 1082 L
4045 969 L
4045 1087 L
4046 985 L
4047 1119 L
4047 1086 L
4048 1157 L
4049 1073 L
4050 1043 L
4050 1176 L
4051 1182 L
4052 1160 L
4052 1124 L
4053 1214 L
4053 1177 L
4054 1017 L
4055 1120 L
4055 1111 L
4056 1177 L
4057 1275 L
4057 1116 L
4058 1142 L
4059 1087 L
4059 1087 L
4060 1128 L
4061 1040 L
4061 1130 L
4062 1157 L
L2 C07 COSGR

%
% Main frame
%
L10
GSN 
620 1700 M
4220 1700 L
4220 5300 L
620 5300 L
closepath SGR

%
% X axis: large tics
%
L10
GSN 1130 1700 M 0  54 rL SGR
GSN 1130 5300 M 0 -54 rL SGR
helvS (0.0001) 1130 470 xlabel
GSN 1716 1700 M 0  54 rL SGR
GSN 1716 5300 M 0 -54 rL SGR
helvS (0.001) 1716 470 xlabel
GSN 2303 1700 M 0  54 rL SGR
GSN 2303 5300 M 0 -54 rL SGR
helvS (0.01) 2303 470 xlabel
GSN 2889 1700 M 0  54 rL SGR
GSN 2889 5300 M 0 -54 rL SGR
helvS (0.1) 2889 470 xlabel
GSN 3476 1700 M 0  54 rL SGR
GSN 3476 5300 M 0 -54 rL SGR
helvS (1) 3476 470 xlabel
GSN 4062 1700 M 0  54 rL SGR
GSN 4062 5300 M 0 -54 rL SGR
helvS (10) 4062 470 xlabel
%
% X axis: small tics
%
L5
GSN 720 1700 M 0  36 rL SGR
GSN 720 5300 M 0 -36 rL SGR
GSN 824 1700 M 0  36 rL SGR
GSN 824 5300 M 0 -36 rL SGR
GSN 897 1700 M 0  36 rL SGR
GSN 897 5300 M 0 -36 rL SGR
GSN 954 1700 M 0  36 rL SGR
GSN 954 5300 M 0 -36 rL SGR
GSN 1000 1700 M 0  36 rL SGR
GSN 1000 5300 M 0 -36 rL SGR
GSN 1039 1700 M 0  36 rL SGR
GSN 1039 5300 M 0 -36 rL SGR
GSN 1073 1700 M 0  36 rL SGR
GSN 1073 5300 M 0 -36 rL SGR
GSN 1103 1700 M 0  36 rL SGR
GSN 1103 5300 M 0 -36 rL SGR
GSN 1307 1700 M 0  36 rL SGR
GSN 1307 5300 M 0 -36 rL SGR
GSN 1410 1700 M 0  36 rL SGR
GSN 1410 5300 M 0 -36 rL SGR
GSN 1483 1700 M 0  36 rL SGR
GSN 1483 5300 M 0 -36 rL SGR
GSN 1540 1700 M 0  36 rL SGR
GSN 1540 5300 M 0 -36 rL SGR
GSN 1586 1700 M 0  36 rL SGR
GSN 1586 5300 M 0 -36 rL SGR
GSN 1626 1700 M 0  36 rL SGR
GSN 1626 5300 M 0 -36 rL SGR
GSN 1660 1700 M 0  36 rL SGR
GSN 1660 5300 M 0 -36 rL SGR
GSN 1690 1700 M 0  36 rL SGR
GSN 1690 5300 M 0 -36 rL SGR
GSN 1893 1700 M 0  36 rL SGR
GSN 1893 5300 M 0 -36 rL SGR
GSN 1996 1700 M 0  36 rL SGR
GSN 1996 5300 M 0 -36 rL SGR
GSN 2069 1700 M 0  36 rL SGR
GSN 2069 5300 M 0 -36 rL SGR
GSN 2126 1700 M 0  36 rL SGR
GSN 2126 5300 M 0 -36 rL SGR
GSN 2173 1700 M 0  36 rL SGR
GSN 2173 5300 M 0 -36 rL SGR
GSN 2212 1700 M 0  36 rL SGR
GSN 2212 5300 M 0 -36 rL SGR
GSN 2246 1700 M 0  36 rL SGR
GSN 2246 5300 M 0 -36 rL SGR
GSN 2276 1700 M 0  36 rL SGR
GSN 2276 5300 M 0 -36 rL SGR
GSN 2479 1700 M 0  36 rL SGR
GSN 2479 5300 M 0 -36 rL SGR
GSN 2583 1700 M 0  36 rL SGR
GSN 2583 5300 M 0 -36 rL SGR
GSN 2656 1700 M 0  36 rL SGR
GSN 2656 5300 M 0 -36 rL SGR
GSN 2713 1700 M 0  36 rL SGR
GSN 2713 5300 M 0 -36 rL SGR
GSN 2759 1700 M 0  36 rL SGR
GSN 2759 5300 M 0 -36 rL SGR
GSN 2798 1700 M 0  36 rL SGR
GSN 2798 5300 M 0 -36 rL SGR
GSN 2832 1700 M 0  36 rL SGR
GSN 2832 5300 M 0 -36 rL SGR
GSN 2862 1700 M 0  36 rL SGR
GSN 2862 5300 M 0 -36 rL SGR
GSN 3066 1700 M 0  36 rL SGR
GSN 3066 5300 M 0 -36 rL SGR
GSN 3169 1700 M 0  36 rL SGR
GSN 3169 5300 M 0 -36 rL SGR
GSN 3242 1700 M 0  36 rL SGR
GSN 3242 5300 M 0 -36 rL SGR
GSN 3299 1700 M 0  36 rL SGR
GSN 3299 5300 M 0 -36 rL SGR
GSN 3345 1700 M 0  36 rL SGR
GSN 3345 5300 M 0 -36 rL SGR
GSN 3385 1700 M 0  36 rL SGR
GSN 3385 5300 M 0 -36 rL SGR
GSN 3419 1700 M 0  36 rL SGR
GSN 3419 5300 M 0 -36 rL SGR
GSN 3449 1700 M 0  36 rL SGR
GSN 3449 5300 M 0 -36 rL SGR
GSN 3652 1700 M 0  36 rL SGR
GSN 3652 5300 M 0 -36 rL SGR
GSN 3755 1700 M 0  36 rL SGR
GSN 3755 5300 M 0 -36 rL SGR
GSN 3829 1700 M 0  36 rL SGR
GSN 3829 5300 M 0 -36 rL SGR
GSN 3885 1700 M 0  36 rL SGR
GSN 3885 5300 M 0 -36 rL SGR
GSN 3932 1700 M 0  36 rL SGR
GSN 3932 5300 M 0 -36 rL SGR
GSN 3971 1700 M 0  36 rL SGR
GSN 3971 5300 M 0 -36 rL SGR
GSN 4005 1700 M 0  36 rL SGR
GSN 4005 5300 M 0 -36 rL SGR
GSN 4035 1700 M 0  36 rL SGR
GSN 4035 5300 M 0 -36 rL SGR
%
% Y axis: large tics
%
L10
GSN 620 1967 M 54 0 rL SGR
GSN 4220 1967 M -54 0 rL SGR
helvS (0.88) 560 1967 ylabel
GSN 620 2741 M 54 0 rL SGR
GSN 4220 2741 M -54 0 rL SGR
helvS (0.9) 560 2741 ylabel
GSN 620 3514 M 54 0 rL SGR
GSN 4220 3514 M -54 0 rL SGR
helvS (0.92) 560 3514 ylabel
GSN 620 4287 M 54 0 rL SGR
GSN 4220 4287 M -54 0 rL SGR
helvS (0.94) 560 4287 ylabel
GSN 620 5060 M 54 0 rL SGR
GSN 4220 5060 M -54 0 rL SGR
helvS (0.96) 560 5060 ylabel
%
% Y axis: small tics
%
L5
GSN 620 1774 M 36 0 rL SGR
GSN 4220 1774 M -36 0 rL SGR
GSN 620 1967 M 36 0 rL SGR
GSN 4220 1967 M -36 0 rL SGR
GSN 620 2161 M 36 0 rL SGR
GSN 4220 2161 M -36 0 rL SGR
GSN 620 2354 M 36 0 rL SGR
GSN 4220 2354 M -36 0 rL SGR
GSN 620 2547 M 36 0 rL SGR
GSN 4220 2547 M -36 0 rL SGR
GSN 620 2741 M 36 0 rL SGR
GSN 4220 2741 M -36 0 rL SGR
GSN 620 2934 M 36 0 rL SGR
GSN 4220 2934 M -36 0 rL SGR
GSN 620 3127 M 36 0 rL SGR
GSN 4220 3127 M -36 0 rL SGR
GSN 620 3320 M 36 0 rL SGR
GSN 4220 3320 M -36 0 rL SGR
GSN 620 3514 M 36 0 rL SGR
GSN 4220 3514 M -36 0 rL SGR
GSN 620 3707 M 36 0 rL SGR
GSN 4220 3707 M -36 0 rL SGR
GSN 620 3900 M 36 0 rL SGR
GSN 4220 3900 M -36 0 rL SGR
GSN 620 4094 M 36 0 rL SGR
GSN 4220 4094 M -36 0 rL SGR
GSN 620 4287 M 36 0 rL SGR
GSN 4220 4287 M -36 0 rL SGR
GSN 620 4480 M 36 0 rL SGR
GSN 4220 4480 M -36 0 rL SGR
GSN 620 4673 M 36 0 rL SGR
GSN 4220 4673 M -36 0 rL SGR
GSN 620 4867 M 36 0 rL SGR
GSN 4220 4867 M -36 0 rL SGR
GSN 620 5060 M 36 0 rL SGR
GSN 4220 5060 M -36 0 rL SGR
GSN 620 5253 M 36 0 rL SGR
GSN 4220 5253 M -36 0 rL SGR

%
% X-Axis label:
%
gsave 2420 290 M 
[
[(Helvetica) 180 0 true true 0 (t)]
[(Helvetica) 180 0 true true 0 (i)]
[(Helvetica) 180 0 true true 0 (m)]
[(Helvetica) 180 0 true true 0 (e)]
] 0 MCshow grestore

%
% Y-Axis label:
%
gsave 234 3500 M 
currentpoint gsave translate 90 rotate 0 0 moveto
[
[(Helvetica) 180 0 true true 0 (s)]
[(Helvetica) 180 0 true true 0 (i)]
[(Helvetica) 180 0 true true 0 (g)]
[(Helvetica) 180 0 true true 0 (n)]
[(Helvetica) 180 0 true true 0 (a)]
[(Helvetica) 180 0 true true 0 (l)]
] 0 MCshow grestore

%
% Residuals:
%
gsave 129 1160 M 
currentpoint gsave translate 90 rotate 0 0 moveto
[
[(Helvetica) 150 0 true true 0 (r)]
[(Helvetica) 150 0 true true 0 (e)]
[(Helvetica) 150 0 true true 0 (s)]
[(Helvetica) 150 0 true true 0 (i)]
[(Helvetica) 150 0 true true 0 (d)]
[(Helvetica) 150 0 true true 0 (u)]
[(Helvetica) 150 0 true true 0 (a)]
[(Helvetica) 150 0 true true 0 (l)]
[(Helvetica) 150 0 true true 0 (s)]
] 0 MCshow grestore

%
% Residual frame
%
L10
GSN 
620 620 M
4220 620 L
4220 1700 L
620 1700 L
closepath SGR
%
% X axis: large tics - residual frame
%
L10
GSN 1130 620 M 0  54 rL SGR
GSN 1130 1700 M 0 -54 rL SGR
GSN 1716 620 M 0  54 rL SGR
GSN 1716 1700 M 0 -54 rL SGR
GSN 2303 620 M 0  54 rL SGR
GSN 2303 1700 M 0 -54 rL SGR
GSN 2889 620 M 0  54 rL SGR
GSN 2889 1700 M 0 -54 rL SGR
GSN 3476 620 M 0  54 rL SGR
GSN 3476 1700 M 0 -54 rL SGR
GSN 4062 620 M 0  54 rL SGR
GSN 4062 1700 M 0 -54 rL SGR
%
% X axis: small tics - residual frame
%
L5
GSN 720 620 M 0  36 rL SGR
GSN 720 1700 M 0 -36 rL SGR
GSN 824 620 M 0  36 rL SGR
GSN 824 1700 M 0 -36 rL SGR
GSN 897 620 M 0  36 rL SGR
GSN 897 1700 M 0 -36 rL SGR
GSN 954 620 M 0  36 rL SGR
GSN 954 1700 M 0 -36 rL SGR
GSN 1000 620 M 0  36 rL SGR
GSN 1000 1700 M 0 -36 rL SGR
GSN 1039 620 M 0  36 rL SGR
GSN 1039 1700 M 0 -36 rL SGR
GSN 1073 620 M 0  36 rL SGR
GSN 1073 1700 M 0 -36 rL SGR
GSN 1103 620 M 0  36 rL SGR
GSN 1103 1700 M 0 -36 rL SGR
GSN 1307 620 M 0  36 rL SGR
GSN 1307 1700 M 0 -36 rL SGR
GSN 1410 620 M 0  36 rL SGR
GSN 1410 1700 M 0 -36 rL SGR
GSN 1483 620 M 0  36 rL SGR
GSN 1483 1700 M 0 -36 rL SGR
GSN 1540 620 M 0  36 rL SGR
GSN 1540 1700 M 0 -36 rL SGR
GSN 1586 620 M 0  36 rL SGR
GSN 1586 1700 M 0 -36 rL SGR
GSN 1626 620 M 0  36 rL SGR
GSN 1626 1700 M 0 -36 rL SGR
GSN 1660 620 M 0  36 rL SGR
GSN 1660 1700 M 0 -36 rL SGR
GSN 1690 620 M 0  36 rL SGR
GSN 1690 1700 M 0 -36 rL SGR
GSN 1893 620 M 0  36 rL SGR
GSN 1893 1700 M 0 -36 rL SGR
GSN 1996 620 M 0  36 rL SGR
GSN 1996 1700 M 0 -36 rL SGR
GSN 2069 620 M 0  36 rL SGR
GSN 2069 1700 M 0 -36 rL SGR
GSN 2126 620 M 0  36 rL SGR
GSN 2126 1700 M 0 -36 rL SGR
GSN 2173 620 M 0  36 rL SGR
GSN 2173 1700 M 0 -36 rL SGR
GSN 2212 620 M 0  36 rL SGR
GSN 2212 1700 M 0 -36 rL SGR
GSN 2246 620 M 0  36 rL SGR
GSN 2246 1700 M 0 -36 rL SGR
GSN 2276 620 M 0  36 rL SGR
GSN 2276 1700 M 0 -36 rL SGR
GSN 2479 620 M 0  36 rL SGR
GSN 2479 1700 M 0 -36 rL SGR
GSN 2583 620 M 0  36 rL SGR
GSN 2583 1700 M 0 -36 rL SGR
GSN 2656 620 M 0  36 rL SGR
GSN 2656 1700 M 0 -36 rL SGR
GSN 2713 620 M 0  36 rL SGR
GSN 2713 1700 M 0 -36 rL SGR
GSN 2759 620 M 0  36 rL SGR
GSN 2759 1700 M 0 -36 rL SGR
GSN 2798 620 M 0  36 rL SGR
GSN 2798 1700 M 0 -36 rL SGR
GSN 2832 620 M 0  36 rL SGR
GSN 2832 1700 M 0 -36 rL SGR
GSN 2862 620 M 0  36 rL SGR
GSN 2862 1700 M 0 -36 rL SGR
GSN 3066 620 M 0  36 rL SGR
GSN 3066 1700 M 0 -36 rL SGR
GSN 3169 620 M 0  36 rL SGR
GSN 3169 1700 M 0 -36 rL SGR
GSN 3242 620 M 0  36 rL SGR
GSN 3242 1700 M 0 -36 rL SGR
GSN 3299 620 M 0  36 rL SGR
GSN 3299 1700 M 0 -36 rL SGR
GSN 3345 620 M 0  36 rL SGR
GSN 3345 1700 M 0 -36 rL SGR
GSN 3385 620 M 0  36 rL SGR
GSN 3385 1700 M 0 -36 rL SGR
GSN 3419 620 M 0  36 rL SGR
GSN 3419 1700 M 0 -36 rL SGR
GSN 3449 620 M 0  36 rL SGR
GSN 3449 1700 M 0 -36 rL SGR
GSN 3652 620 M 0  36 rL SGR
GSN 3652 1700 M 0 -36 rL SGR
GSN 3755 620 M 0  36 rL SGR
GSN 3755 1700 M 0 -36 rL SGR
GSN 3829 620 M 0  36 rL SGR
GSN 3829 1700 M 0 -36 rL SGR
GSN 3885 620 M 0  36 rL SGR
GSN 3885 1700 M 0 -36 rL SGR
GSN 3932 620 M 0  36 rL SGR
GSN 3932 1700 M 0 -36 rL SGR
GSN 3971 620 M 0  36 rL SGR
GSN 3971 1700 M 0 -36 rL SGR
GSN 4005 620 M 0  36 rL SGR
GSN 4005 1700 M 0 -36 rL SGR
GSN 4035 620 M 0  36 rL SGR
GSN 4035 1700 M 0 -36 rL SGR
%
% Y axis: large tics - residual frame
%
L10
GSN 620 690 M 54 0 rL SGR
GSN 4220 690 M -54 0 rL SGR
helvS (-0.02) 560 690 ylabelresid
GSN 620 958 M 54 0 rL SGR
GSN 4220 958 M -54 0 rL SGR
helvS (-0.01) 560 958 ylabelresid
GSN 620 1226 M 54 0 rL SGR
GSN 4220 1226 M -54 0 rL SGR
helvS (0) 560 1226 ylabelresid
GSN 620 1495 M 54 0 rL SGR
GSN 4220 1495 M -54 0 rL SGR
helvS (0.01) 560 1495 ylabelresid

%
% X axis - residual panel
%
GSN L5 620 1226 M 4220 1226 L SDA G50 SGR

end
showpage
%%Trailer
%%EOF
