%!PS-Adobe-3.0 EPSF-3.0
%%BoundingBox: 0 0 514 550
%%Creator: BioKin Ltd.
%%DocumentFonts: Symbol Helvetica
%%EndComments
%
/bkdict 256 dict def
bkdict begin
/M {moveto} def 
/R {rmoveto} def
/L {lineto} def
/rL {rlineto} def
/GSN {gsave newpath} def
/SGR {stroke grestore} def
/COSGR {gsave setrgbcolor stroke grestore grestore} def
/SL {setlinewidth} def
/LWMB {12} def             % line width - model curves, black & white
/LWMC {10} def             % line width - model curves, color
/L2 {2.5 setlinewidth} def
/L5 {5 setlinewidth} def
/L10 {10 setlinewidth} def
/G50 {0.5 setgray} def
/SDA {[10  20] 0 setdash} def % axes
/helvT {/Helvetica findfont 100 scalefont setfont} def % tiny
/helvS {/Helvetica findfont 125 scalefont setfont} def % small
/helvM {/Helvetica findfont 150 scalefont setfont} def % medium
/helvL {/Helvetica findfont 175 scalefont setfont} def % large
/xlabel {gsave M dup
   stringwidth exch -0.5 mul exch rmoveto show grestore} def 
/ylabel {gsave M 90 rotate dup
   stringwidth exch -0.5 mul exch rmoveto show grestore} def
/ylabelresid {gsave M dup
   stringwidth exch -1 mul exch rmoveto show grestore} def
% ======
% Shapes
% ======
% Circle:
/Circ {0 360 arc closepath} def
%
% Square:
/Squa {dup dup -0.5 mul dup dup R -2 mul 0 exch rL 1 mul 0 rL dup 0 exch -1 mul rL closepath} def
%
% Triangle Up:
/TriU {dup dup dup -0.4 mul exch -0.5 mul exch R dup 0.5 mul exch rL dup -1 mul exch 0.5 mul exch rL closepath} def 
%
% Triangle Down:
/TriD {dup dup dup 0.4 mul exch -0.5 mul exch R dup 0.5 mul exch -1 mul rL dup 0.5 mul exch rL closepath} def 
%
% Diamond:
/Diam {45 rotate Squa} def
% ======
% Fills
% ======
/GRF {gsave setgray fill grestore} def                    % gray-level Fill
/COF {gsave setrgbcolor fill grestore} def                % color fill
% ======
% Colors
% ======
/C01 {1.00	0.00	0.00} def      % Red
/C02 {0.00	0.00	1.00} def      % Blue
/C03 {0.00	0.39	0.00} def      % Dark Green
/C04 {0.78	0.08	0.52} def      % Medium Violet Red
/C05 {0.55	0.27	0.07} def      % Saddle Brown
/C06 {0.10	0.70	0.70} def      % (cyan)
/C07 {1.00	0.55	0.00} def      % Dark Orange
/C08 {0.63	0.13	0.94} def      % Purple
/C09 {0.00	0.75	1.00} def      % Deep Sky Blue
/C10 {0.20	0.80	0.20} def      % Lime Green
/C11 {0.47	0.53	0.60} def      % Light Slate Gray
/C12 {0.00	0.00	0.00} def      % Black            % or: {0.19	0.31	0.31} def      % Dark Slate Gray
%
/LGR {0.75} def % light gray
/DGR {0.33} def % dark gray
%
% =============
% Dash patterns
% =============
/dash01 { [80  20] 0 setdash } def
/dash02 { [40  20] 0 setdash } def
/dash03 { [80  20  10  20] 0 setdash } def
/dash04 { [40  20  10  20] 0 setdash } def
/dash05 { [80  20  10  10  10  20] 0 setdash } def
/dash06 { [40  20  10  10  10  20] 0 setdash } def
/dash07 { [10  10] 0 setdash } def
%
/MFshow {
   { dup 5 get 3 ge
     { 5 get 3 eq {gsave} {grestore} ifelse }
     {dup dup 0 get findfont exch 1 get scalefont setfont
     [ currentpoint ] exch dup 2 get 0 exch R dup 5 get 2 ne {dup dup 6
     get exch 4 get {show} {stringwidth pop 0 R} ifelse }if dup 5 get 0 eq
     {dup 3 get {2 get neg 0 exch R pop} {pop aload pop M} ifelse} {dup 5
     get 1 eq {dup 2 get exch dup 3 get exch 6 get stringwidth pop -2 div
     dup 0 R} {dup 6 get stringwidth pop -2 div 0 R 6 get
     show 2 index {aload pop M neg 3 -1 roll neg R pop pop} {pop pop pop
     pop aload pop M} ifelse }ifelse }ifelse }
     ifelse }
   forall} bind def
/MFwidth {0 exch {dup 3 get{dup dup 0 get findfont exch 1 get scalefont
     setfont 6 get stringwidth pop add} {pop} ifelse} forall} bind def
/MCshow { currentpoint stroke M
  exch dup MFwidth -2 div 3 -1 roll R MFshow } def
%
end
%%EndProlog
bkdict begin
0.1 0.1 scale
%
% Model curves:
%

GSN 753 5166 M
753 5166 L
786 5150 L
820 5133 L
853 5115 L
886 5098 L
903 5090 L
919 5081 L
953 5065 L
986 5050 L
1020 5037 L
1053 5026 L
1053 5026 L
1086 5016 L
1120 5008 L
1153 5002 L
1186 4998 L
1203 4996 L
1220 4994 L
1253 4992 L
1286 4989 L
1320 4987 L
1353 4985 L
1353 4985 L
1386 4983 L
1420 4980 L
1453 4976 L
1486 4972 L
1503 4970 L
1520 4968 L
1553 4962 L
1586 4956 L
1620 4949 L
1653 4941 L
1653 4941 L
1686 4931 L
1720 4920 L
1753 4907 L
1786 4892 L
1804 4883 L
1820 4874 L
1853 4854 L
1886 4831 L
1920 4804 L
1953 4773 L
1954 4772 L
1986 4738 L
2020 4697 L
2053 4651 L
2086 4599 L
2104 4569 L
2120 4540 L
2153 4474 L
2186 4400 L
2220 4317 L
2253 4227 L
2254 4224 L
2286 4128 L
2320 4020 L
2353 3906 L
2386 3785 L
2404 3718 L
2420 3658 L
2453 3529 L
2486 3398 L
2520 3269 L
2553 3143 L
2554 3138 L
2586 3023 L
2620 2912 L
2653 2811 L
2686 2721 L
2704 2677 L
2720 2643 L
2753 2578 L
2786 2525 L
2820 2483 L
2853 2452 L
2854 2451 L
2886 2429 L
2920 2414 L
2953 2404 L
2986 2399 L
3004 2397 L
3020 2396 L
3053 2395 L
3068 2394 L
3086 2394 L
3120 2394 L
3153 2394 L
3155 2394 L
3186 2394 L
3220 2394 L
3253 2394 L
3286 2394 L
3305 2394 L
3320 2394 L
3353 2394 L
3386 2394 L
3420 2394 L
3453 2394 L
3455 2394 L
3486 2394 L
3520 2394 L
3553 2394 L
3586 2394 L
3605 2394 L
3620 2394 L
3653 2394 L
3686 2394 L
3720 2394 L
3753 2394 L
3755 2394 L
3786 2394 L
3820 2394 L
3853 2394 L
3886 2394 L
3905 2394 L
3920 2394 L
3953 2394 L
3986 2394 L
4020 2394 L
4053 2394 L
4086 2394 L
LWMC SL  C02 COSGR

%
% Experimental data:
%
GSN 773 4449 M
1625 4174 L
1773 4619 L
1860 4390 L
1922 4694 L
1970 4455 L
2009 4517 L
2043 4497 L
2072 4338 L
2097 4204 L
2120 4367 L
2140 4273 L
2159 4489 L
2176 4214 L
2192 4285 L
2207 4244 L
2221 4248 L
2234 4161 L
2247 4082 L
2259 4087 L
2270 3921 L
2280 3956 L
2290 4134 L
2300 3975 L
2309 3878 L
2318 4140 L
2326 3985 L
2335 4003 L
2342 3930 L
2350 4013 L
2357 3921 L
2364 3700 L
2371 3950 L
2378 3674 L
2384 3995 L
2391 3985 L
2397 3639 L
2403 3967 L
2409 3468 L
2414 3973 L
2420 3764 L
2425 3881 L
2430 3615 L
2435 3843 L
2440 3799 L
2445 3624 L
2450 3593 L
2455 3632 L
2459 3766 L
2464 3660 L
2468 3614 L
2472 3741 L
2476 3572 L
2481 3550 L
2485 3562 L
2489 3580 L
2492 3470 L
2496 3655 L
2500 3577 L
2504 3408 L
2507 3384 L
2511 3695 L
2514 3300 L
2518 3615 L
2521 3306 L
2525 3528 L
2528 3172 L
2531 3371 L
2534 3133 L
2538 3362 L
2541 3383 L
2544 3235 L
2547 3208 L
2550 3413 L
2553 3066 L
2556 3043 L
2559 3399 L
2561 3066 L
2564 3066 L
2567 3193 L
2570 3402 L
2580 2973 L
2590 2941 L
2600 3083 L
2609 3056 L
2618 2998 L
2627 3075 L
2635 2996 L
2643 2785 L
2650 2715 L
2658 2628 L
2665 2733 L
2672 2767 L
2678 2797 L
2685 2452 L
2691 2542 L
2697 2782 L
2703 2675 L
2709 2385 L
2714 2808 L
2720 2722 L
2725 2609 L
2730 2618 L
2735 2536 L
2740 2576 L
2745 2397 L
2750 2198 L
2755 2368 L
2759 2286 L
2764 2507 L
2768 2494 L
2772 2519 L
2777 2439 L
2781 2266 L
2785 2255 L
2789 2482 L
2793 2134 L
2796 2370 L
2800 2007 L
2804 2420 L
2808 2119 L
2811 2142 L
2815 2218 L
2818 2460 L
2822 2246 L
2825 2516 L
2828 2467 L
2831 2010 L
2835 2266 L
2838 2024 L
2841 2295 L
2844 2204 L
2847 2092 L
2850 1833 L
2853 2313 L
2856 2065 L
2859 2127 L
2862 2305 L
2864 2395 L
2867 2161 L
2870 2168 L
2873 1968 L
2875 2005 L
2878 1975 L
2880 2144 L
2883 2184 L
2886 2285 L
2888 2097 L
2891 2305 L
2893 2164 L
2895 2112 L
2898 2111 L
2900 2035 L
2902 1937 L
2905 2037 L
2907 2071 L
2909 2022 L
2912 1977 L
2914 2109 L
2916 2076 L
2918 2131 L
2920 2271 L
2922 2316 L
2925 2347 L
2927 2106 L
2929 2281 L
2931 2486 L
2933 2153 L
2935 2199 L
2937 2128 L
2939 2395 L
2941 2072 L
2943 2112 L
2945 2271 L
2947 2286 L
2948 2214 L
2950 2045 L
2952 2293 L
2954 2316 L
2956 2176 L
2958 2097 L
2959 2296 L
2961 2275 L
2963 2233 L
2965 2002 L
2966 2295 L
2968 2149 L
2970 2218 L
2972 2070 L
2973 2583 L
2975 2370 L
2977 2060 L
2978 2502 L
2980 2082 L
2982 2300 L
2983 2479 L
2985 2308 L
2986 2367 L
2988 2392 L
2989 2474 L
2991 2373 L
2993 2480 L
2994 1990 L
2996 2136 L
2997 2342 L
2999 2248 L
3000 2263 L
3002 2209 L
3003 2307 L
3005 2219 L
3006 2270 L
3007 2303 L
3009 2465 L
3010 2390 L
3012 2327 L
3013 2430 L
3014 2228 L
3016 2305 L
3017 2186 L
3019 2273 L
3020 2255 L
3021 2480 L
3023 2348 L
3024 2270 L
3025 2275 L
3027 2442 L
3028 2643 L
3029 2323 L
3031 2464 L
3032 2139 L
3033 2300 L
3034 2328 L
3036 2347 L
3037 2291 L
3038 2445 L
3039 2504 L
3041 2372 L
3042 2551 L
3043 2260 L
3044 2040 L
3045 2474 L
3047 2203 L
3048 2561 L
3049 2584 L
3050 2412 L
3051 2007 L
3053 2392 L
3054 2601 L
3055 2434 L
3056 2248 L
3057 2462 L
3058 2511 L
3059 2621 L
3061 2375 L
3062 2384 L
3063 2462 L
3064 2521 L
3065 2432 L
3066 2472 L
3067 2437 L
3068 2464 L
3069 2303 L
3070 2388 L
3071 2549 L
3073 2442 L
3074 2347 L
3075 2444 L
3076 2399 L
3077 2378 L
3078 2332 L
3079 2114 L
3080 2256 L
3081 2459 L
3082 2581 L
3083 2437 L
3084 2482 L
3085 2573 L
3086 2352 L
3087 2527 L
3088 2442 L
3089 2354 L
3112 2588 L
3133 2523 L
3152 2883 L
3170 2628 L
3186 2499 L
3201 2486 L
3216 2390 L
3229 2640 L
3241 2499 L
3253 2718 L
3264 2566 L
3275 2789 L
3285 2771 L
3295 2731 L
3304 2898 L
3313 2751 L
3322 2695 L
3330 2746 L
3338 2876 L
3346 2834 L
3353 2633 L
3360 2869 L
3367 2691 L
3374 2671 L
3380 2901 L
3387 2465 L
3393 2787 L
3399 2666 L
3405 2800 L
3410 2872 L
3416 2523 L
3421 2566 L
3426 2834 L
3431 2894 L
3436 2818 L
3441 2601 L
3446 2378 L
3451 2778 L
3455 2537 L
3460 2490 L
3464 2684 L
3469 2851 L
3473 2481 L
3477 2593 L
3481 2720 L
3485 2606 L
3489 2751 L
3493 2764 L
3496 2950 L
3500 2791 L
3504 2914 L
3507 2552 L
3511 2791 L
3514 2691 L
3518 2905 L
3521 2541 L
3525 2428 L
3528 2390 L
3531 2836 L
3534 2613 L
3537 2874 L
3540 2680 L
3543 2677 L
3546 2704 L
3549 2724 L
3552 2713 L
3555 2510 L
3558 2586 L
3561 2722 L
3564 2729 L
3566 2566 L
3575 2448 L
3586 2577 L
3595 2593 L
3605 2486 L
3613 2488 L
3622 2501 L
3630 2539 L
3638 2713 L
3646 2722 L
3653 2512 L
3660 2631 L
3667 2347 L
3674 2488 L
3681 2466 L
3687 2635 L
3693 2740 L
3699 2332 L
3705 2628 L
3710 2367 L
3716 2367 L
3721 2407 L
3727 2465 L
3732 2403 L
3737 2387 L
3742 2517 L
3746 2436 L
3751 2599 L
3756 2367 L
3760 2370 L
3764 2639 L
3769 2300 L
3773 2617 L
3777 2416 L
3781 2566 L
3785 2477 L
3789 2586 L
3793 2343 L
3797 2481 L
3800 2392 L
3804 2352 L
3808 2430 L
3811 2457 L
3815 2595 L
3818 2113 L
3821 2615 L
3825 2374 L
3828 2325 L
3831 2564 L
3834 2289 L
3838 2387 L
3841 2352 L
3844 2341 L
3847 2343 L
3850 2254 L
3853 2593 L
3855 2242 L
3858 2298 L
3861 2334 L
3864 2231 L
3867 2191 L
3869 2381 L
3872 2519 L
3875 2378 L
3877 2425 L
3880 2481 L
3882 2664 L
3885 2443 L
3887 2552 L
3890 2698 L
3892 2544 L
3895 2343 L
3897 2390 L
3899 2637 L
3902 2403 L
3904 2394 L
3906 2095 L
3908 2606 L
3911 2189 L
3913 2354 L
3915 2454 L
3917 2374 L
3919 2245 L
3921 2349 L
3923 2521 L
3926 2481 L
3928 2575 L
3930 2675 L
3932 2338 L
3934 2738 L
3936 2385 L
3938 2425 L
3940 2258 L
3942 2428 L
3943 2282 L
3945 2503 L
3947 2309 L
3949 2450 L
3951 2347 L
3953 2421 L
3955 2445 L
3956 2280 L
3958 2552 L
3960 2233 L
3962 2521 L
3963 2434 L
3965 2541 L
3967 2336 L
3969 2171 L
3970 2245 L
3972 2229 L
3974 2370 L
3975 2459 L
3977 2370 L
3978 2296 L
3980 2613 L
3982 2247 L
3983 2644 L
3985 2584 L
3986 2021 L
3988 2231 L
3990 2343 L
3991 2626 L
3993 2260 L
3994 2481 L
3996 2461 L
3997 2211 L
3999 2091 L
4000 2307 L
4001 2376 L
4003 2443 L
4004 2461 L
4006 2338 L
4007 2365 L
4009 2508 L
4010 2244 L
4011 2244 L
4013 2483 L
4014 2450 L
4016 2354 L
4017 2244 L
4018 2345 L
4020 2568 L
4021 2180 L
4022 2064 L
4024 2113 L
4025 2461 L
4026 2372 L
4028 2238 L
4029 2579 L
4030 2443 L
4031 2265 L
4033 2191 L
4034 2231 L
4035 2296 L
4036 2336 L
4038 2251 L
4039 2162 L
4040 2501 L
4041 2249 L
4042 2318 L
4044 2604 L
4045 2296 L
4046 2071 L
4047 2410 L
4048 2131 L
4050 2492 L
4051 2430 L
4052 2354 L
4053 2224 L
4054 2555 L
4055 2180 L
4056 2390 L
4058 2303 L
4059 2561 L
4060 2394 L
4061 2316 L
4062 2387 L
4063 2421 L
4064 2528 L
4065 2349 L
4066 2396 L
L2 C02 COSGR

%
%================
% Legend - Begin
%================
%
GSN 4240 5180 M
4480 5180 L
LWMC SL  C02 COSGR
GSN 4540 5141 M helvM (1.0 uM) show grestore
%
%================
% Legend - End
%================
%

%
% Residuals:
%
GSN 773 791 M
1625 750 L
1773 1055 L
1860 944 L
1922 1161 L
1970 1042 L
2009 1108 L
2043 1123 L
2072 1051 L
2097 995 L
2120 1120 L
2140 1087 L
2159 1244 L
2176 1099 L
2192 1165 L
2207 1163 L
2221 1187 L
2234 1155 L
2247 1127 L
2259 1151 L
2270 1069 L
2280 1110 L
2290 1238 L
2300 1159 L
2309 1118 L
2318 1297 L
2326 1219 L
2335 1247 L
2342 1219 L
2350 1287 L
2357 1246 L
2364 1126 L
2371 1295 L
2378 1140 L
2384 1352 L
2391 1360 L
2397 1161 L
2403 1377 L
2409 1083 L
2414 1408 L
2420 1292 L
2425 1377 L
2430 1225 L
2435 1377 L
2440 1363 L
2445 1266 L
2450 1259 L
2455 1294 L
2459 1387 L
2464 1333 L
2468 1315 L
2472 1404 L
2476 1310 L
2481 1306 L
2485 1323 L
2489 1344 L
2492 1286 L
2496 1409 L
2500 1370 L
2504 1275 L
2507 1269 L
2511 1469 L
2514 1234 L
2518 1436 L
2521 1254 L
2525 1399 L
2528 1187 L
2531 1317 L
2534 1178 L
2538 1327 L
2541 1346 L
2544 1263 L
2547 1253 L
2550 1386 L
2553 1179 L
2556 1172 L
2559 1397 L
2561 1199 L
2564 1205 L
2567 1289 L
2570 1424 L
2580 1183 L
2590 1185 L
2600 1293 L
2609 1295 L
2618 1277 L
2627 1341 L
2635 1308 L
2643 1193 L
2650 1163 L
2658 1122 L
2665 1199 L
2672 1231 L
2678 1261 L
2685 1059 L
2691 1124 L
2697 1280 L
2703 1223 L
2709 1053 L
2714 1321 L
2720 1275 L
2725 1213 L
2730 1225 L
2735 1180 L
2740 1211 L
2745 1107 L
2750 989 L
2755 1099 L
2759 1054 L
2764 1194 L
2768 1191 L
2772 1210 L
2777 1165 L
2781 1062 L
2785 1059 L
2789 1202 L
2793 991 L
2796 1140 L
2800 919 L
2804 1176 L
2808 994 L
2811 1011 L
2815 1060 L
2818 1212 L
2822 1082 L
2825 1250 L
2828 1222 L
2831 943 L
2835 1103 L
2838 955 L
2841 1124 L
2844 1070 L
2847 1002 L
2850 844 L
2853 1141 L
2856 990 L
2859 1030 L
2862 1140 L
2864 1197 L
2867 1054 L
2870 1059 L
2873 938 L
2875 962 L
2878 944 L
2880 1049 L
2883 1075 L
2886 1137 L
2888 1023 L
2891 1152 L
2893 1066 L
2895 1035 L
2898 1034 L
2900 989 L
2902 929 L
2905 991 L
2907 1012 L
2909 983 L
2912 956 L
2914 1038 L
2916 1018 L
2918 1052 L
2920 1139 L
2922 1167 L
2925 1186 L
2927 1038 L
2929 1147 L
2931 1273 L
2933 1068 L
2935 1098 L
2937 1054 L
2939 1219 L
2941 1020 L
2943 1045 L
2945 1144 L
2947 1153 L
2948 1109 L
2950 1005 L
2952 1158 L
2954 1173 L
2956 1087 L
2958 1038 L
2959 1161 L
2961 1148 L
2963 1122 L
2965 980 L
2966 1161 L
2968 1071 L
2970 1114 L
2972 1023 L
2973 1339 L
2975 1208 L
2977 1018 L
2978 1290 L
2980 1031 L
2982 1165 L
2983 1276 L
2985 1171 L
2986 1207 L
2988 1222 L
2989 1273 L
2991 1211 L
2993 1277 L
2994 976 L
2996 1065 L
2997 1192 L
2999 1135 L
3000 1144 L
3002 1111 L
3003 1171 L
3005 1117 L
3006 1148 L
3007 1169 L
3009 1269 L
3010 1223 L
3012 1184 L
3013 1247 L
3014 1123 L
3016 1170 L
3017 1097 L
3019 1151 L
3020 1140 L
3021 1279 L
3023 1197 L
3024 1149 L
3025 1152 L
3027 1255 L
3028 1379 L
3029 1182 L
3031 1269 L
3032 1069 L
3033 1168 L
3034 1185 L
3036 1197 L
3037 1163 L
3038 1258 L
3039 1294 L
3041 1212 L
3042 1322 L
3043 1143 L
3044 1008 L
3045 1275 L
3047 1108 L
3048 1329 L
3049 1343 L
3050 1237 L
3051 988 L
3053 1225 L
3054 1354 L
3055 1251 L
3056 1136 L
3057 1268 L
3058 1298 L
3059 1366 L
3061 1215 L
3062 1220 L
3063 1268 L
3064 1304 L
3065 1250 L
3066 1274 L
3067 1253 L
3068 1269 L
3069 1171 L
3070 1223 L
3071 1322 L
3073 1256 L
3074 1197 L
3075 1257 L
3076 1229 L
3077 1217 L
3078 1188 L
3079 1054 L
3080 1142 L
3081 1266 L
3082 1342 L
3083 1253 L
3084 1281 L
3085 1336 L
3086 1200 L
3087 1309 L
3088 1256 L
3089 1202 L
3112 1346 L
3133 1306 L
3152 1527 L
3170 1371 L
3186 1291 L
3201 1283 L
3216 1224 L
3229 1378 L
3241 1291 L
3253 1426 L
3264 1332 L
3275 1470 L
3285 1459 L
3295 1434 L
3304 1537 L
3313 1446 L
3322 1412 L
3330 1444 L
3338 1523 L
3346 1497 L
3353 1374 L
3360 1519 L
3367 1409 L
3374 1397 L
3380 1538 L
3387 1271 L
3393 1468 L
3399 1394 L
3405 1477 L
3410 1521 L
3416 1306 L
3421 1332 L
3426 1497 L
3431 1534 L
3436 1488 L
3441 1354 L
3446 1217 L
3451 1463 L
3455 1315 L
3460 1286 L
3464 1405 L
3469 1508 L
3473 1280 L
3477 1349 L
3481 1427 L
3485 1357 L
3489 1446 L
3493 1455 L
3496 1569 L
3500 1471 L
3504 1547 L
3507 1324 L
3511 1471 L
3514 1409 L
3518 1541 L
3521 1317 L
3525 1247 L
3528 1224 L
3531 1499 L
3534 1361 L
3537 1522 L
3540 1402 L
3543 1401 L
3546 1418 L
3549 1430 L
3552 1423 L
3555 1298 L
3558 1345 L
3561 1429 L
3564 1433 L
3566 1332 L
3575 1260 L
3586 1339 L
3595 1349 L
3605 1283 L
3613 1284 L
3622 1293 L
3630 1316 L
3638 1423 L
3646 1429 L
3653 1299 L
3660 1372 L
3667 1198 L
3674 1284 L
3681 1271 L
3687 1375 L
3693 1440 L
3699 1188 L
3705 1371 L
3710 1210 L
3716 1210 L
3721 1235 L
3727 1271 L
3732 1232 L
3737 1223 L
3742 1302 L
3746 1253 L
3751 1353 L
3756 1210 L
3760 1212 L
3764 1378 L
3769 1169 L
3773 1364 L
3777 1240 L
3781 1332 L
3785 1278 L
3789 1345 L
3793 1195 L
3797 1280 L
3800 1225 L
3804 1201 L
3808 1249 L
3811 1265 L
3815 1350 L
3818 1054 L
3821 1363 L
3825 1214 L
3828 1184 L
3831 1331 L
3834 1162 L
3838 1223 L
3841 1201 L
3844 1194 L
3847 1195 L
3850 1140 L
3853 1349 L
3855 1133 L
3858 1168 L
3861 1190 L
3864 1126 L
3867 1102 L
3869 1218 L
3872 1304 L
3875 1217 L
3877 1246 L
3880 1280 L
3882 1393 L
3885 1257 L
3887 1324 L
3890 1413 L
3892 1319 L
3895 1195 L
3897 1224 L
3899 1376 L
3902 1232 L
3904 1227 L
3906 1043 L
3908 1357 L
3911 1100 L
3913 1202 L
3915 1264 L
3917 1214 L
3919 1135 L
3921 1199 L
3923 1305 L
3926 1280 L
3928 1338 L
3930 1400 L
3932 1192 L
3934 1438 L
3936 1221 L
3938 1246 L
3940 1143 L
3942 1247 L
3943 1158 L
3945 1294 L
3947 1175 L
3949 1261 L
3951 1198 L
3953 1243 L
3955 1258 L
3956 1157 L
3958 1324 L
3960 1128 L
3962 1305 L
3963 1251 L
3965 1317 L
3967 1191 L
3969 1089 L
3970 1135 L
3972 1125 L
3974 1212 L
3975 1267 L
3977 1212 L
3978 1166 L
3980 1361 L
3982 1136 L
3983 1380 L
3985 1343 L
3986 997 L
3988 1126 L
3990 1195 L
3991 1370 L
3993 1144 L
3994 1280 L
3996 1268 L
3997 1114 L
3999 1040 L
4000 1173 L
4001 1216 L
4003 1257 L
4004 1268 L
4006 1192 L
4007 1209 L
4009 1297 L
4010 1135 L
4011 1135 L
4013 1282 L
4014 1261 L
4016 1202 L
4017 1135 L
4018 1196 L
4020 1334 L
4021 1095 L
4022 1024 L
4024 1054 L
4025 1268 L
4026 1213 L
4028 1131 L
4029 1341 L
4030 1257 L
4031 1147 L
4033 1102 L
4034 1126 L
4035 1166 L
4036 1191 L
4038 1139 L
4039 1084 L
4040 1293 L
4041 1137 L
4042 1180 L
4044 1356 L
4045 1166 L
4046 1028 L
4047 1236 L
4048 1065 L
4050 1287 L
4051 1249 L
4052 1202 L
4053 1122 L
4054 1326 L
4055 1095 L
4056 1224 L
4058 1170 L
4059 1330 L
4060 1227 L
4061 1179 L
4062 1223 L
4063 1243 L
4064 1309 L
4065 1199 L
4066 1228 L
L2 C02 COSGR

%
% Main frame
%
L10
GSN 
620 1700 M
4220 1700 L
4220 5300 L
620 5300 L
closepath SGR

%
% X axis: large tics
%
L10
GSN 1074 1700 M 0  54 rL SGR
GSN 1074 5300 M 0 -54 rL SGR
helvS (0.0001) 1074 470 xlabel
GSN 1572 1700 M 0  54 rL SGR
GSN 1572 5300 M 0 -54 rL SGR
helvS (0.001) 1572 470 xlabel
GSN 2071 1700 M 0  54 rL SGR
GSN 2071 5300 M 0 -54 rL SGR
helvS (0.01) 2071 470 xlabel
GSN 2570 1700 M 0  54 rL SGR
GSN 2570 5300 M 0 -54 rL SGR
helvS (0.1) 2570 470 xlabel
GSN 3068 1700 M 0  54 rL SGR
GSN 3068 5300 M 0 -54 rL SGR
helvS (1) 3068 470 xlabel
GSN 3567 1700 M 0  54 rL SGR
GSN 3567 5300 M 0 -54 rL SGR
helvS (10) 3567 470 xlabel
GSN 4066 1700 M 0  54 rL SGR
GSN 4066 5300 M 0 -54 rL SGR
helvS (100) 4066 470 xlabel
%
% X axis: small tics
%
L5
GSN 725 1700 M 0  36 rL SGR
GSN 725 5300 M 0 -36 rL SGR
GSN 813 1700 M 0  36 rL SGR
GSN 813 5300 M 0 -36 rL SGR
GSN 875 1700 M 0  36 rL SGR
GSN 875 5300 M 0 -36 rL SGR
GSN 924 1700 M 0  36 rL SGR
GSN 924 5300 M 0 -36 rL SGR
GSN 963 1700 M 0  36 rL SGR
GSN 963 5300 M 0 -36 rL SGR
GSN 996 1700 M 0  36 rL SGR
GSN 996 5300 M 0 -36 rL SGR
GSN 1025 1700 M 0  36 rL SGR
GSN 1025 5300 M 0 -36 rL SGR
GSN 1051 1700 M 0  36 rL SGR
GSN 1051 5300 M 0 -36 rL SGR
GSN 1224 1700 M 0  36 rL SGR
GSN 1224 5300 M 0 -36 rL SGR
GSN 1312 1700 M 0  36 rL SGR
GSN 1312 5300 M 0 -36 rL SGR
GSN 1374 1700 M 0  36 rL SGR
GSN 1374 5300 M 0 -36 rL SGR
GSN 1422 1700 M 0  36 rL SGR
GSN 1422 5300 M 0 -36 rL SGR
GSN 1462 1700 M 0  36 rL SGR
GSN 1462 5300 M 0 -36 rL SGR
GSN 1495 1700 M 0  36 rL SGR
GSN 1495 5300 M 0 -36 rL SGR
GSN 1524 1700 M 0  36 rL SGR
GSN 1524 5300 M 0 -36 rL SGR
GSN 1550 1700 M 0  36 rL SGR
GSN 1550 5300 M 0 -36 rL SGR
GSN 1722 1700 M 0  36 rL SGR
GSN 1722 5300 M 0 -36 rL SGR
GSN 1810 1700 M 0  36 rL SGR
GSN 1810 5300 M 0 -36 rL SGR
GSN 1873 1700 M 0  36 rL SGR
GSN 1873 5300 M 0 -36 rL SGR
GSN 1921 1700 M 0  36 rL SGR
GSN 1921 5300 M 0 -36 rL SGR
GSN 1960 1700 M 0  36 rL SGR
GSN 1960 5300 M 0 -36 rL SGR
GSN 1994 1700 M 0  36 rL SGR
GSN 1994 5300 M 0 -36 rL SGR
GSN 2023 1700 M 0  36 rL SGR
GSN 2023 5300 M 0 -36 rL SGR
GSN 2048 1700 M 0  36 rL SGR
GSN 2048 5300 M 0 -36 rL SGR
GSN 2221 1700 M 0  36 rL SGR
GSN 2221 5300 M 0 -36 rL SGR
GSN 2309 1700 M 0  36 rL SGR
GSN 2309 5300 M 0 -36 rL SGR
GSN 2371 1700 M 0  36 rL SGR
GSN 2371 5300 M 0 -36 rL SGR
GSN 2420 1700 M 0  36 rL SGR
GSN 2420 5300 M 0 -36 rL SGR
GSN 2459 1700 M 0  36 rL SGR
GSN 2459 5300 M 0 -36 rL SGR
GSN 2492 1700 M 0  36 rL SGR
GSN 2492 5300 M 0 -36 rL SGR
GSN 2521 1700 M 0  36 rL SGR
GSN 2521 5300 M 0 -36 rL SGR
GSN 2547 1700 M 0  36 rL SGR
GSN 2547 5300 M 0 -36 rL SGR
GSN 2720 1700 M 0  36 rL SGR
GSN 2720 5300 M 0 -36 rL SGR
GSN 2808 1700 M 0  36 rL SGR
GSN 2808 5300 M 0 -36 rL SGR
GSN 2870 1700 M 0  36 rL SGR
GSN 2870 5300 M 0 -36 rL SGR
GSN 2918 1700 M 0  36 rL SGR
GSN 2918 5300 M 0 -36 rL SGR
GSN 2958 1700 M 0  36 rL SGR
GSN 2958 5300 M 0 -36 rL SGR
GSN 2991 1700 M 0  36 rL SGR
GSN 2991 5300 M 0 -36 rL SGR
GSN 3020 1700 M 0  36 rL SGR
GSN 3020 5300 M 0 -36 rL SGR
GSN 3045 1700 M 0  36 rL SGR
GSN 3045 5300 M 0 -36 rL SGR
GSN 3218 1700 M 0  36 rL SGR
GSN 3218 5300 M 0 -36 rL SGR
GSN 3306 1700 M 0  36 rL SGR
GSN 3306 5300 M 0 -36 rL SGR
GSN 3368 1700 M 0  36 rL SGR
GSN 3368 5300 M 0 -36 rL SGR
GSN 3417 1700 M 0  36 rL SGR
GSN 3417 5300 M 0 -36 rL SGR
GSN 3456 1700 M 0  36 rL SGR
GSN 3456 5300 M 0 -36 rL SGR
GSN 3490 1700 M 0  36 rL SGR
GSN 3490 5300 M 0 -36 rL SGR
GSN 3519 1700 M 0  36 rL SGR
GSN 3519 5300 M 0 -36 rL SGR
GSN 3544 1700 M 0  36 rL SGR
GSN 3544 5300 M 0 -36 rL SGR
GSN 3717 1700 M 0  36 rL SGR
GSN 3717 5300 M 0 -36 rL SGR
GSN 3805 1700 M 0  36 rL SGR
GSN 3805 5300 M 0 -36 rL SGR
GSN 3867 1700 M 0  36 rL SGR
GSN 3867 5300 M 0 -36 rL SGR
GSN 3915 1700 M 0  36 rL SGR
GSN 3915 5300 M 0 -36 rL SGR
GSN 3955 1700 M 0  36 rL SGR
GSN 3955 5300 M 0 -36 rL SGR
GSN 3988 1700 M 0  36 rL SGR
GSN 3988 5300 M 0 -36 rL SGR
GSN 4017 1700 M 0  36 rL SGR
GSN 4017 5300 M 0 -36 rL SGR
GSN 4043 1700 M 0  36 rL SGR
GSN 4043 5300 M 0 -36 rL SGR
GSN 4216 1700 M 0  36 rL SGR
GSN 4216 5300 M 0 -36 rL SGR
%
% Y axis: large tics
%
L10
GSN 620 2551 M 54 0 rL SGR
GSN 4220 2551 M -54 0 rL SGR
helvS (1.1) 560 2551 ylabel
GSN 620 3428 M 54 0 rL SGR
GSN 4220 3428 M -54 0 rL SGR
helvS (1.12) 560 3428 ylabel
GSN 620 4306 M 54 0 rL SGR
GSN 4220 4306 M -54 0 rL SGR
helvS (1.14) 560 4306 ylabel
GSN 620 5183 M 54 0 rL SGR
GSN 4220 5183 M -54 0 rL SGR
helvS (1.16) 560 5183 ylabel
%
% Y axis: small tics
%
L5
GSN 620 1893 M 36 0 rL SGR
GSN 4220 1893 M -36 0 rL SGR
GSN 620 2112 M 36 0 rL SGR
GSN 4220 2112 M -36 0 rL SGR
GSN 620 2332 M 36 0 rL SGR
GSN 4220 2332 M -36 0 rL SGR
GSN 620 2551 M 36 0 rL SGR
GSN 4220 2551 M -36 0 rL SGR
GSN 620 2770 M 36 0 rL SGR
GSN 4220 2770 M -36 0 rL SGR
GSN 620 2990 M 36 0 rL SGR
GSN 4220 2990 M -36 0 rL SGR
GSN 620 3209 M 36 0 rL SGR
GSN 4220 3209 M -36 0 rL SGR
GSN 620 3428 M 36 0 rL SGR
GSN 4220 3428 M -36 0 rL SGR
GSN 620 3648 M 36 0 rL SGR
GSN 4220 3648 M -36 0 rL SGR
GSN 620 3867 M 36 0 rL SGR
GSN 4220 3867 M -36 0 rL SGR
GSN 620 4086 M 36 0 rL SGR
GSN 4220 4086 M -36 0 rL SGR
GSN 620 4306 M 36 0 rL SGR
GSN 4220 4306 M -36 0 rL SGR
GSN 620 4525 M 36 0 rL SGR
GSN 4220 4525 M -36 0 rL SGR
GSN 620 4744 M 36 0 rL SGR
GSN 4220 4744 M -36 0 rL SGR
GSN 620 4964 M 36 0 rL SGR
GSN 4220 4964 M -36 0 rL SGR
GSN 620 5183 M 36 0 rL SGR
GSN 4220 5183 M -36 0 rL SGR

%
% X-Axis label:
%
gsave 2420 290 M 
[
[(Helvetica) 180 0 true true 0 (t)]
[(Helvetica) 180 0 true true 0 (i)]
[(Helvetica) 180 0 true true 0 (m)]
[(Helvetica) 180 0 true true 0 (e)]
] 0 MCshow grestore

%
% Y-Axis label:
%
gsave 234 3500 M 
currentpoint gsave translate 90 rotate 0 0 moveto
[
[(Helvetica) 180 0 true true 0 (s)]
[(Helvetica) 180 0 true true 0 (i)]
[(Helvetica) 180 0 true true 0 (g)]
[(Helvetica) 180 0 true true 0 (n)]
[(Helvetica) 180 0 true true 0 (a)]
[(Helvetica) 180 0 true true 0 (l)]
] 0 MCshow grestore

%
% Residuals:
%
gsave 129 1160 M 
currentpoint gsave translate 90 rotate 0 0 moveto
[
[(Helvetica) 150 0 true true 0 (r)]
[(Helvetica) 150 0 true true 0 (e)]
[(Helvetica) 150 0 true true 0 (s)]
[(Helvetica) 150 0 true true 0 (i)]
[(Helvetica) 150 0 true true 0 (d)]
[(Helvetica) 150 0 true true 0 (u)]
[(Helvetica) 150 0 true true 0 (a)]
[(Helvetica) 150 0 true true 0 (l)]
[(Helvetica) 150 0 true true 0 (s)]
] 0 MCshow grestore

%
% Residual frame
%
L10
GSN 
620 620 M
4220 620 L
4220 1700 L
620 1700 L
closepath SGR
%
% X axis: large tics - residual frame
%
L10
GSN 1074 620 M 0  54 rL SGR
GSN 1074 1700 M 0 -54 rL SGR
GSN 1572 620 M 0  54 rL SGR
GSN 1572 1700 M 0 -54 rL SGR
GSN 2071 620 M 0  54 rL SGR
GSN 2071 1700 M 0 -54 rL SGR
GSN 2570 620 M 0  54 rL SGR
GSN 2570 1700 M 0 -54 rL SGR
GSN 3068 620 M 0  54 rL SGR
GSN 3068 1700 M 0 -54 rL SGR
GSN 3567 620 M 0  54 rL SGR
GSN 3567 1700 M 0 -54 rL SGR
GSN 4066 620 M 0  54 rL SGR
GSN 4066 1700 M 0 -54 rL SGR
%
% X axis: small tics - residual frame
%
L5
GSN 725 620 M 0  36 rL SGR
GSN 725 1700 M 0 -36 rL SGR
GSN 813 620 M 0  36 rL SGR
GSN 813 1700 M 0 -36 rL SGR
GSN 875 620 M 0  36 rL SGR
GSN 875 1700 M 0 -36 rL SGR
GSN 924 620 M 0  36 rL SGR
GSN 924 1700 M 0 -36 rL SGR
GSN 963 620 M 0  36 rL SGR
GSN 963 1700 M 0 -36 rL SGR
GSN 996 620 M 0  36 rL SGR
GSN 996 1700 M 0 -36 rL SGR
GSN 1025 620 M 0  36 rL SGR
GSN 1025 1700 M 0 -36 rL SGR
GSN 1051 620 M 0  36 rL SGR
GSN 1051 1700 M 0 -36 rL SGR
GSN 1224 620 M 0  36 rL SGR
GSN 1224 1700 M 0 -36 rL SGR
GSN 1312 620 M 0  36 rL SGR
GSN 1312 1700 M 0 -36 rL SGR
GSN 1374 620 M 0  36 rL SGR
GSN 1374 1700 M 0 -36 rL SGR
GSN 1422 620 M 0  36 rL SGR
GSN 1422 1700 M 0 -36 rL SGR
GSN 1462 620 M 0  36 rL SGR
GSN 1462 1700 M 0 -36 rL SGR
GSN 1495 620 M 0  36 rL SGR
GSN 1495 1700 M 0 -36 rL SGR
GSN 1524 620 M 0  36 rL SGR
GSN 1524 1700 M 0 -36 rL SGR
GSN 1550 620 M 0  36 rL SGR
GSN 1550 1700 M 0 -36 rL SGR
GSN 1722 620 M 0  36 rL SGR
GSN 1722 1700 M 0 -36 rL SGR
GSN 1810 620 M 0  36 rL SGR
GSN 1810 1700 M 0 -36 rL SGR
GSN 1873 620 M 0  36 rL SGR
GSN 1873 1700 M 0 -36 rL SGR
GSN 1921 620 M 0  36 rL SGR
GSN 1921 1700 M 0 -36 rL SGR
GSN 1960 620 M 0  36 rL SGR
GSN 1960 1700 M 0 -36 rL SGR
GSN 1994 620 M 0  36 rL SGR
GSN 1994 1700 M 0 -36 rL SGR
GSN 2023 620 M 0  36 rL SGR
GSN 2023 1700 M 0 -36 rL SGR
GSN 2048 620 M 0  36 rL SGR
GSN 2048 1700 M 0 -36 rL SGR
GSN 2221 620 M 0  36 rL SGR
GSN 2221 1700 M 0 -36 rL SGR
GSN 2309 620 M 0  36 rL SGR
GSN 2309 1700 M 0 -36 rL SGR
GSN 2371 620 M 0  36 rL SGR
GSN 2371 1700 M 0 -36 rL SGR
GSN 2420 620 M 0  36 rL SGR
GSN 2420 1700 M 0 -36 rL SGR
GSN 2459 620 M 0  36 rL SGR
GSN 2459 1700 M 0 -36 rL SGR
GSN 2492 620 M 0  36 rL SGR
GSN 2492 1700 M 0 -36 rL SGR
GSN 2521 620 M 0  36 rL SGR
GSN 2521 1700 M 0 -36 rL SGR
GSN 2547 620 M 0  36 rL SGR
GSN 2547 1700 M 0 -36 rL SGR
GSN 2720 620 M 0  36 rL SGR
GSN 2720 1700 M 0 -36 rL SGR
GSN 2808 620 M 0  36 rL SGR
GSN 2808 1700 M 0 -36 rL SGR
GSN 2870 620 M 0  36 rL SGR
GSN 2870 1700 M 0 -36 rL SGR
GSN 2918 620 M 0  36 rL SGR
GSN 2918 1700 M 0 -36 rL SGR
GSN 2958 620 M 0  36 rL SGR
GSN 2958 1700 M 0 -36 rL SGR
GSN 2991 620 M 0  36 rL SGR
GSN 2991 1700 M 0 -36 rL SGR
GSN 3020 620 M 0  36 rL SGR
GSN 3020 1700 M 0 -36 rL SGR
GSN 3045 620 M 0  36 rL SGR
GSN 3045 1700 M 0 -36 rL SGR
GSN 3218 620 M 0  36 rL SGR
GSN 3218 1700 M 0 -36 rL SGR
GSN 3306 620 M 0  36 rL SGR
GSN 3306 1700 M 0 -36 rL SGR
GSN 3368 620 M 0  36 rL SGR
GSN 3368 1700 M 0 -36 rL SGR
GSN 3417 620 M 0  36 rL SGR
GSN 3417 1700 M 0 -36 rL SGR
GSN 3456 620 M 0  36 rL SGR
GSN 3456 1700 M 0 -36 rL SGR
GSN 3490 620 M 0  36 rL SGR
GSN 3490 1700 M 0 -36 rL SGR
GSN 3519 620 M 0  36 rL SGR
GSN 3519 1700 M 0 -36 rL SGR
GSN 3544 620 M 0  36 rL SGR
GSN 3544 1700 M 0 -36 rL SGR
GSN 3717 620 M 0  36 rL SGR
GSN 3717 1700 M 0 -36 rL SGR
GSN 3805 620 M 0  36 rL SGR
GSN 3805 1700 M 0 -36 rL SGR
GSN 3867 620 M 0  36 rL SGR
GSN 3867 1700 M 0 -36 rL SGR
GSN 3915 620 M 0  36 rL SGR
GSN 3915 1700 M 0 -36 rL SGR
GSN 3955 620 M 0  36 rL SGR
GSN 3955 1700 M 0 -36 rL SGR
GSN 3988 620 M 0  36 rL SGR
GSN 3988 1700 M 0 -36 rL SGR
GSN 4017 620 M 0  36 rL SGR
GSN 4017 1700 M 0 -36 rL SGR
GSN 4043 620 M 0  36 rL SGR
GSN 4043 1700 M 0 -36 rL SGR
GSN 4216 620 M 0  36 rL SGR
GSN 4216 1700 M 0 -36 rL SGR
%
% Y axis: large tics - residual frame
%
L10
GSN 620 687 M 54 0 rL SGR
GSN 4220 687 M -54 0 rL SGR
helvS (-0.02) 560 687 ylabelresid
GSN 620 957 M 54 0 rL SGR
GSN 4220 957 M -54 0 rL SGR
helvS (-0.01) 560 957 ylabelresid
GSN 620 1227 M 54 0 rL SGR
GSN 4220 1227 M -54 0 rL SGR
helvS (0) 560 1227 ylabelresid
GSN 620 1497 M 54 0 rL SGR
GSN 4220 1497 M -54 0 rL SGR
helvS (0.01) 560 1497 ylabelresid

%
% X axis - residual panel
%
GSN L5 620 1227 M 4220 1227 L SDA G50 SGR

end
showpage
%%Trailer
%%EOF
