%!PS-Adobe-3.0 EPSF-3.0
%%BoundingBox: 0 0 514 550
%%Creator: BioKin Ltd.
%%DocumentFonts: Symbol Helvetica
%%EndComments
%
/bkdict 256 dict def
bkdict begin
/M {moveto} def 
/R {rmoveto} def
/L {lineto} def
/rL {rlineto} def
/GSN {gsave newpath} def
/SGR {stroke grestore} def
/COSGR {gsave setrgbcolor stroke grestore grestore} def
/SL {setlinewidth} def
/LWMB {12} def             % line width - model curves, black & white
/LWMC {10} def             % line width - model curves, color
/L2 {2.5 setlinewidth} def
/L5 {5 setlinewidth} def
/L10 {10 setlinewidth} def
/G50 {0.5 setgray} def
/SDA {[10  20] 0 setdash} def % axes
/helvT {/Helvetica findfont 100 scalefont setfont} def % tiny
/helvS {/Helvetica findfont 125 scalefont setfont} def % small
/helvM {/Helvetica findfont 150 scalefont setfont} def % medium
/helvL {/Helvetica findfont 175 scalefont setfont} def % large
/xlabel {gsave M dup
   stringwidth exch -0.5 mul exch rmoveto show grestore} def 
/ylabel {gsave M 90 rotate dup
   stringwidth exch -0.5 mul exch rmoveto show grestore} def
/ylabelresid {gsave M dup
   stringwidth exch -1 mul exch rmoveto show grestore} def
% ======
% Shapes
% ======
% Circle:
/Circ {0 360 arc closepath} def
%
% Square:
/Squa {dup dup -0.5 mul dup dup R -2 mul 0 exch rL 1 mul 0 rL dup 0 exch -1 mul rL closepath} def
%
% Triangle Up:
/TriU {dup dup dup -0.4 mul exch -0.5 mul exch R dup 0.5 mul exch rL dup -1 mul exch 0.5 mul exch rL closepath} def 
%
% Triangle Down:
/TriD {dup dup dup 0.4 mul exch -0.5 mul exch R dup 0.5 mul exch -1 mul rL dup 0.5 mul exch rL closepath} def 
%
% Diamond:
/Diam {45 rotate Squa} def
% ======
% Fills
% ======
/GRF {gsave setgray fill grestore} def                    % gray-level Fill
/COF {gsave setrgbcolor fill grestore} def                % color fill
% ======
% Colors
% ======
/C01 {1.00	0.00	0.00} def      % Red
/C02 {0.00	0.00	1.00} def      % Blue
/C03 {0.00	0.39	0.00} def      % Dark Green
/C04 {0.78	0.08	0.52} def      % Medium Violet Red
/C05 {0.55	0.27	0.07} def      % Saddle Brown
/C06 {0.10	0.70	0.70} def      % (cyan)
/C07 {1.00	0.55	0.00} def      % Dark Orange
/C08 {0.63	0.13	0.94} def      % Purple
/C09 {0.00	0.75	1.00} def      % Deep Sky Blue
/C10 {0.20	0.80	0.20} def      % Lime Green
/C11 {0.47	0.53	0.60} def      % Light Slate Gray
/C12 {0.00	0.00	0.00} def      % Black            % or: {0.19	0.31	0.31} def      % Dark Slate Gray
%
/LGR {0.75} def % light gray
/DGR {0.33} def % dark gray
%
% =============
% Dash patterns
% =============
/dash01 { [80  20] 0 setdash } def
/dash02 { [40  20] 0 setdash } def
/dash03 { [80  20  10  20] 0 setdash } def
/dash04 { [40  20  10  20] 0 setdash } def
/dash05 { [80  20  10  10  10  20] 0 setdash } def
/dash06 { [40  20  10  10  10  20] 0 setdash } def
/dash07 { [10  10] 0 setdash } def
%
/MFshow {
   { dup 5 get 3 ge
     { 5 get 3 eq {gsave} {grestore} ifelse }
     {dup dup 0 get findfont exch 1 get scalefont setfont
     [ currentpoint ] exch dup 2 get 0 exch R dup 5 get 2 ne {dup dup 6
     get exch 4 get {show} {stringwidth pop 0 R} ifelse }if dup 5 get 0 eq
     {dup 3 get {2 get neg 0 exch R pop} {pop aload pop M} ifelse} {dup 5
     get 1 eq {dup 2 get exch dup 3 get exch 6 get stringwidth pop -2 div
     dup 0 R} {dup 6 get stringwidth pop -2 div 0 R 6 get
     show 2 index {aload pop M neg 3 -1 roll neg R pop pop} {pop pop pop
     pop aload pop M} ifelse }ifelse }ifelse }
     ifelse }
   forall} bind def
/MFwidth {0 exch {dup 3 get{dup dup 0 get findfont exch 1 get scalefont
     setfont 6 get stringwidth pop add} {pop} ifelse} forall} bind def
/MCshow { currentpoint stroke M
  exch dup MFwidth -2 div 3 -1 roll R MFshow } def
%
end
%%EndProlog
bkdict begin
0.1 0.1 scale
%
% Residuals:
%
GSN 620 2136 M
620 2712 L
620 2807 L
620 2726 L
620 2772 L
620 2954 L
620 3315 L
620 3305 L
620 3446 L
620 3528 L
620 3695 L
620 3714 L
620 3869 L
620 3765 L
620 3761 L
620 3862 L
620 3998 L
620 3936 L
620 4050 L
620 4185 L
620 4232 L
620 4174 L
620 4121 L
620 4203 L
620 4272 L
620 4239 L
620 4319 L
620 4300 L
620 4196 L
620 4431 L
620 4380 L
620 4423 L
620 4468 L
620 4345 L
620 4273 L
620 4452 L
620 4417 L
620 4309 L
620 4498 L
620 4454 L
620 4428 L
620 4494 L
620 4530 L
620 4526 L
620 4451 L
620 4407 L
620 4483 L
620 4636 L
620 4561 L
620 4602 L
620 4544 L
620 4608 L
620 4497 L
620 4567 L
620 4627 L
620 4530 L
620 4511 L
620 4552 L
620 4583 L
620 4604 L
620 4684 L
620 4558 L
620 4566 L
620 4439 L
620 4640 L
620 4558 L
620 4596 L
620 4547 L
620 4612 L
620 4611 L
620 4623 L
620 4483 L
620 4636 L
620 4652 L
620 4731 L
620 4622 L
620 4623 L
620 4597 L
620 4497 L
620 4548 L
620 4643 L
620 4651 L
620 4737 L
620 4721 L
620 4593 L
620 4612 L
620 4647 L
620 4646 L
620 4597 L
620 4692 L
620 4583 L
620 4525 L
620 4580 L
620 4553 L
620 4594 L
620 4600 L
620 4725 L
620 4627 L
620 4563 L
620 4682 L
620 4520 L
620 4584 L
620 4604 L
620 4662 L
620 4637 L
620 4552 L
620 4569 L
620 4583 L
620 4641 L
620 4734 L
620 4663 L
620 4602 L
620 4484 L
620 4603 L
620 4595 L
620 4583 L
620 4553 L
620 4863 L
620 4641 L
620 4686 L
620 4538 L
620 4693 L
620 4599 L
620 4589 L
620 4706 L
620 4694 L
620 4666 L
620 4573 L
620 4651 L
620 4709 L
620 4614 L
620 4517 L
620 4526 L
620 4575 L
620 4633 L
620 4632 L
620 4704 L
620 4617 L
620 4628 L
620 4602 L
620 4598 L
620 4578 L
620 4569 L
620 4593 L
620 4475 L
620 4651 L
620 4705 L
620 4562 L
620 4644 L
620 4513 L
620 4605 L
620 4650 L
620 4503 L
620 4627 L
620 4515 L
620 4486 L
620 4585 L
620 4604 L
620 4634 L
620 4603 L
620 4632 L
620 4512 L
620 4620 L
620 4552 L
620 4465 L
620 4482 L
620 4660 L
620 4555 L
620 4622 L
620 4691 L
620 4668 L
620 4506 L
620 4706 L
620 4607 L
620 4576 L
620 4666 L
620 4562 L
620 4474 L
620 4507 L
620 4545 L
620 4476 L
620 4487 L
620 4432 L
620 4657 L
620 4591 L
620 4664 L
620 4596 L
620 4550 L
620 4573 L
620 4622 L
620 4387 L
620 4494 L
620 4599 L
620 4519 L
620 4598 L
620 4676 L
620 4546 L
620 4529 L
620 4568 L
620 4507 L
620 4561 L
620 4590 L
620 4586 L
620 4492 L
620 4608 L
620 4631 L
620 4438 L
620 4536 L
620 4576 L
620 4600 L
620 4484 L
620 4623 L
620 4539 L
620 4528 L
620 4611 L
620 4615 L
620 4410 L
620 4464 L
620 4648 L
620 4616 L
620 4593 L
620 4443 L
620 4511 L
620 4536 L
620 4566 L
620 4497 L
620 4605 L
620 4624 L
620 4445 L
620 4424 L
620 4483 L
620 4465 L
620 4413 L
620 4542 L
620 4502 L
620 4507 L
620 4475 L
620 4543 L
620 4505 L
620 4492 L
620 4585 L
620 4579 L
620 4397 L
620 4404 L
620 4411 L
620 4528 L
620 4519 L
620 4584 L
620 4464 L
620 4549 L
620 4504 L
620 4525 L
620 4633 L
620 4296 L
620 4466 L
620 4578 L
620 4503 L
620 4355 L
620 4413 L
620 4527 L
620 4485 L
620 4405 L
620 4547 L
620 4445 L
620 4456 L
620 4474 L
620 4522 L
620 4445 L
620 4558 L
620 4575 L
620 4483 L
620 4494 L
620 4488 L
620 4445 L
620 4441 L
620 4495 L
620 4508 L
620 4475 L
620 4420 L
620 4536 L
620 4435 L
620 4425 L
620 4341 L
620 4497 L
620 4501 L
620 4541 L
620 4353 L
620 4450 L
620 4618 L
620 4449 L
620 4498 L
620 4313 L
620 4296 L
620 4318 L
620 4442 L
620 4405 L
620 4420 L
620 4432 L
620 4525 L
620 4389 L
620 4393 L
620 4407 L
620 4493 L
620 4308 L
620 4417 L
620 4570 L
620 4442 L
620 4323 L
620 4448 L
620 4478 L
620 4349 L
620 4400 L
620 4362 L
620 4405 L
620 4347 L
620 4528 L
620 4446 L
620 4300 L
620 4374 L
620 4397 L
620 4355 L
620 4312 L
620 4378 L
620 4339 L
620 4350 L
620 4481 L
620 4490 L
620 4398 L
620 4306 L
620 4434 L
620 4282 L
620 4355 L
620 4498 L
620 4307 L
620 4521 L
620 4395 L
620 4536 L
620 4526 L
620 4328 L
620 4373 L
620 4263 L
620 4376 L
620 4413 L
620 4553 L
620 4245 L
620 4393 L
620 4353 L
620 4326 L
620 4339 L
620 4275 L
620 4406 L
620 4225 L
620 4515 L
620 4308 L
620 4404 L
620 4324 L
620 4359 L
620 4436 L
620 4543 L
620 4327 L
620 4310 L
620 4538 L
620 4336 L
620 4368 L
620 4385 L
620 4426 L
620 4364 L
620 4371 L
620 4358 L
620 4393 L
620 4232 L
620 4383 L
620 4370 L
620 4266 L
620 4377 L
620 4219 L
620 4251 L
620 4413 L
620 4316 L
620 4332 L
620 4421 L
620 4288 L
620 4355 L
620 4294 L
620 4414 L
620 4235 L
620 4290 L
620 4425 L
620 4217 L
620 4399 L
620 4236 L
620 4273 L
620 4352 L
620 4321 L
620 4443 L
620 4308 L
620 4317 L
620 4268 L
620 4226 L
620 4375 L
620 4427 L
620 4251 L
620 4313 L
620 4302 L
620 4286 L
620 4188 L
620 4256 L
620 4446 L
620 4247 L
620 4287 L
620 4173 L
620 4317 L
620 4260 L
620 4232 L
620 4179 L
620 4256 L
620 4312 L
620 4344 L
620 4194 L
620 4228 L
620 4243 L
620 4128 L
620 4252 L
620 4297 L
620 4128 L
620 4213 L
620 4320 L
620 4135 L
620 4125 L
620 4237 L
620 4258 L
620 4094 L
620 4097 L
620 4289 L
620 4112 L
620 4216 L
620 4132 L
620 4154 L
620 4214 L
620 4041 L
620 4099 L
620 4268 L
620 4073 L
620 4158 L
620 4139 L
620 4061 L
620 4214 L
620 4095 L
620 4065 L
620 4046 L
620 4014 L
620 4138 L
620 4047 L
620 3952 L
620 4136 L
620 4075 L
620 4013 L
620 3916 L
620 4212 L
620 4179 L
620 4095 L
620 4160 L
620 4144 L
620 3981 L
620 4112 L
620 4113 L
620 4031 L
620 4150 L
620 4033 L
620 4164 L
620 3920 L
620 4111 L
620 4110 L
620 3953 L
620 3930 L
620 3972 L
620 4060 L
620 4058 L
620 4013 L
620 4181 L
620 4108 L
620 4089 L
620 3995 L
620 4044 L
620 4026 L
620 4049 L
620 4051 L
620 4081 L
620 4000 L
620 4078 L
620 3887 L
620 3967 L
620 4130 L
620 3907 L
620 4048 L
620 4126 L
620 4028 L
620 4032 L
620 3940 L
620 3861 L
620 4078 L
620 3969 L
620 3994 L
620 3915 L
620 4024 L
620 4016 L
620 3939 L
620 3966 L
620 3982 L
620 4027 L
620 4021 L
620 3938 L
620 3975 L
620 3855 L
620 3954 L
620 3976 L
620 3923 L
620 3923 L
620 3974 L
620 3949 L
620 3999 L
620 3893 L
620 3892 L
620 3946 L
620 3885 L
620 3899 L
620 3988 L
620 3873 L
620 4114 L
620 3831 L
620 3787 L
620 4076 L
620 3796 L
620 3921 L
620 3963 L
620 3884 L
620 3936 L
620 3950 L
620 4031 L
620 3903 L
620 3839 L
620 3883 L
620 3989 L
620 3964 L
620 3907 L
620 3964 L
620 3831 L
620 3870 L
620 3946 L
620 3893 L
620 3957 L
620 3899 L
620 3982 L
620 3909 L
620 3786 L
620 3971 L
620 3820 L
620 3815 L
620 4023 L
620 3731 L
620 3927 L
620 3895 L
620 3777 L
620 3897 L
620 3884 L
620 3830 L
620 3832 L
620 3882 L
620 3905 L
620 3744 L
620 3824 L
620 3787 L
620 3906 L
620 3978 L
620 3920 L
620 3952 L
620 3801 L
620 3744 L
620 3886 L
620 3855 L
620 3757 L
620 3794 L
620 3766 L
620 3871 L
620 3720 L
620 3890 L
620 3966 L
620 3916 L
620 3817 L
620 3857 L
620 3686 L
620 3807 L
620 3784 L
620 3859 L
620 3841 L
620 3919 L
620 3819 L
620 3775 L
620 3886 L
620 3871 L
620 3750 L
620 3860 L
620 3839 L
620 3943 L
620 3809 L
620 3763 L
620 3756 L
620 3745 L
620 3824 L
620 3863 L
620 3806 L
620 3836 L
620 3803 L
620 3800 L
620 3855 L
620 3943 L
620 3876 L
620 3696 L
620 3903 L
620 3857 L
620 3823 L
620 3927 L
620 3732 L
620 3856 L
620 3845 L
620 3975 L
620 3890 L
620 3797 L
620 3719 L
620 3822 L
620 3948 L
620 3742 L
620 3802 L
620 3824 L
620 3746 L
620 3691 L
620 3874 L
620 3704 L
620 3677 L
620 3881 L
620 3835 L
620 3757 L
620 3813 L
620 3823 L
620 3821 L
620 3699 L
620 3939 L
620 3788 L
620 3764 L
620 3743 L
620 3852 L
620 3813 L
620 3762 L
620 3856 L
620 3733 L
620 3801 L
620 3809 L
620 3821 L
620 3832 L
620 3871 L
620 3738 L
620 3763 L
620 3824 L
620 3781 L
620 3654 L
620 3592 L
620 3873 L
620 3791 L
620 3776 L
620 3768 L
620 3863 L
620 3721 L
620 3887 L
620 3712 L
620 3810 L
620 3724 L
620 3721 L
620 3720 L
620 3725 L
620 3819 L
620 3759 L
620 3693 L
620 3796 L
620 3813 L
620 3754 L
620 3859 L
620 3761 L
620 3729 L
620 3888 L
620 3715 L
620 3910 L
620 3818 L
620 3755 L
620 3805 L
620 3734 L
620 3778 L
620 3846 L
620 3758 L
620 3788 L
620 3766 L
620 3782 L
620 3771 L
620 3730 L
620 3758 L
620 3815 L
620 3670 L
620 3743 L
620 3692 L
620 3619 L
620 3812 L
620 3691 L
620 3821 L
620 3831 L
620 3705 L
620 3753 L
620 3674 L
620 3854 L
620 3686 L
620 3877 L
620 3802 L
620 3769 L
620 3759 L
620 3833 L
620 3786 L
620 3837 L
620 3792 L
620 3792 L
620 3742 L
620 3670 L
620 3734 L
620 3849 L
620 3816 L
620 3747 L
620 3707 L
620 3800 L
620 3743 L
620 3790 L
620 3848 L
620 3833 L
620 3776 L
620 3861 L
620 3757 L
620 3805 L
620 3803 L
620 3838 L
620 3781 L
620 3824 L
620 3754 L
620 3819 L
620 3696 L
620 3752 L
620 3697 L
620 3898 L
620 3919 L
620 3880 L
620 3752 L
620 3850 L
620 3811 L
620 3830 L
620 3740 L
620 3709 L
620 3762 L
620 3726 L
620 3885 L
620 3735 L
620 3654 L
620 3880 L
620 3903 L
620 3809 L
620 3783 L
620 3710 L
620 3733 L
620 3643 L
620 3763 L
620 3611 L
620 3729 L
620 3793 L
620 3707 L
620 3863 L
620 3748 L
620 3702 L
620 3551 L
620 3822 L
620 3809 L
620 3693 L
620 3677 L
620 3814 L
620 3834 L
620 3718 L
620 3737 L
620 3751 L
620 3742 L
620 3738 L
620 3698 L
620 3845 L
620 3733 L
620 3791 L
620 3737 L
620 3851 L
620 3768 L
620 3764 L
620 3715 L
620 3791 L
620 3785 L
620 3790 L
620 3843 L
620 3733 L
620 3769 L
620 3990 L
620 3839 L
620 3869 L
620 3891 L
620 3800 L
620 3708 L
620 3741 L
620 3886 L
620 3879 L
620 3875 L
620 3730 L
620 3825 L
620 3750 L
620 3783 L
620 3782 L
620 3853 L
620 3820 L
620 3849 L
620 3760 L
620 3825 L
620 3761 L
620 3855 L
620 3964 L
620 3798 L
620 3772 L
620 3780 L
620 3859 L
620 3777 L
620 3825 L
620 3838 L
620 3621 L
620 3770 L
620 3803 L
620 3756 L
620 3835 L
620 3807 L
620 3837 L
620 3763 L
620 3861 L
620 3797 L
620 3840 L
620 3792 L
620 3914 L
620 3805 L
620 3820 L
620 3781 L
620 3792 L
620 3732 L
620 3722 L
620 3838 L
620 3980 L
620 3772 L
620 3754 L
620 3675 L
620 3783 L
620 3891 L
620 3911 L
620 3844 L
620 3875 L
620 3803 L
620 3809 L
620 3832 L
620 3852 L
620 3715 L
620 3861 L
620 3860 L
620 3889 L
620 3812 L
620 3854 L
620 3859 L
620 3888 L
620 3904 L
620 3717 L
620 3837 L
620 3788 L
620 3895 L
620 3820 L
620 3856 L
620 3765 L
620 3593 L
620 3724 L
620 3845 L
620 3870 L
620 3809 L
620 3915 L
620 3920 L
620 3800 L
620 3790 L
620 3788 L
620 4059 L
620 3796 L
620 3865 L
620 3746 L
620 3823 L
620 3703 L
620 3899 L
620 3704 L
620 3858 L
620 3735 L
620 3822 L
620 3928 L
620 3798 L
620 3846 L
620 3873 L
620 3823 L
620 3812 L
620 3694 L
620 3823 L
620 3907 L
620 3890 L
620 3879 L
620 3784 L
620 3693 L
620 3735 L
620 3699 L
620 3757 L
620 4069 L
620 3858 L
620 3829 L
620 3795 L
620 3847 L
620 3993 L
620 3776 L
620 3927 L
620 3722 L
620 3834 L
620 3720 L
620 3814 L
620 3768 L
620 3818 L
620 3862 L
620 3816 L
620 3731 L
620 3902 L
620 3762 L
620 3908 L
620 3868 L
620 4020 L
620 3621 L
620 3805 L
620 3849 L
620 3874 L
620 3900 L
620 3689 L
620 3885 L
620 3938 L
620 3897 L
620 3726 L
620 3699 L
620 3766 L
620 3794 L
620 3855 L
620 3975 L
620 3928 L
620 3936 L
620 3843 L
620 3691 L
620 3738 L
620 3730 L
620 3771 L
620 3790 L
620 3793 L
620 3861 L
620 3773 L
620 3864 L
620 3806 L
620 3828 L
620 3962 L
620 3767 L
620 3765 L
620 3821 L
620 3820 L
620 3865 L
620 3773 L
620 3788 L
620 3926 L
620 3748 L
620 3898 L
620 3792 L
620 3949 L
620 3897 L
620 3965 L
620 3913 L
620 3761 L
620 3724 L
620 3843 L
620 3874 L
620 3959 L
620 3829 L
620 3862 L
620 3795 L
620 3799 L
620 3902 L
620 3834 L
620 3739 L
620 3695 L
620 3745 L
620 3963 L
620 3779 L
620 3898 L
620 3859 L
620 3914 L
620 3686 L
620 3814 L
620 3713 L
620 3918 L
620 3931 L
620 3768 L
620 3829 L
620 3796 L
620 3922 L
620 3808 L
620 3884 L
620 3882 L
620 3771 L
620 3862 L
620 3815 L
620 3832 L
620 3972 L
620 3798 L
620 3728 L
620 3893 L
620 3840 L
620 3887 L
620 3846 L
620 3803 L
620 3918 L
620 3810 L
620 3981 L
620 3792 L
620 3903 L
620 3845 L
620 3865 L
620 3943 L
620 3907 L
620 3925 L
620 3895 L
620 3816 L
620 3890 L
620 3762 L
620 3833 L
620 3855 L
620 3844 L
620 3776 L
620 3940 L
620 3768 L
620 3874 L
620 3863 L
620 3866 L
620 3993 L
620 3832 L
620 3801 L
620 3954 L
620 3819 L
620 3819 L
620 3884 L
620 3915 L
620 3912 L
620 4018 L
620 3886 L
620 3948 L
620 3824 L
620 3876 L
620 3782 L
620 3921 L
620 3833 L
620 3834 L
620 3934 L
620 3848 L
620 3953 L
620 3854 L
620 3955 L
620 3820 L
620 3962 L
620 3821 L
620 3832 L
620 3876 L
620 3864 L
620 3818 L
620 3958 L
620 3879 L
620 3916 L
620 3797 L
620 3869 L
620 3846 L
620 3912 L
620 3786 L
620 3846 L
620 3928 L
620 3851 L
620 3868 L
620 3934 L
620 3835 L
620 3874 L
620 4000 L
620 3857 L
620 3888 L
620 3963 L
620 3939 L
620 3959 L
620 3855 L
620 3853 L
620 3888 L
620 3827 L
620 3884 L
620 3866 L
620 3842 L
620 3844 L
620 3935 L
620 3826 L
620 3835 L
620 3949 L
620 3847 L
620 3954 L
620 3963 L
620 3935 L
620 3827 L
620 3941 L
620 3862 L
620 3853 L
620 4007 L
620 3865 L
620 4054 L
620 4059 L
620 3756 L
620 3917 L
620 3919 L
620 3874 L
620 3867 L
620 3869 L
620 3888 L
620 3880 L
620 3953 L
620 3958 L
620 3909 L
620 3840 L
620 3808 L
620 3770 L
620 3975 L
620 3954 L
620 3935 L
620 3970 L
620 3861 L
620 3794 L
620 3927 L
620 3788 L
620 4020 L
620 3877 L
620 3974 L
620 3850 L
620 3880 L
620 3897 L
620 3887 L
620 3915 L
620 3904 L
620 3799 L
620 3897 L
620 3856 L
620 3971 L
620 3894 L
620 3990 L
620 3984 L
620 3943 L
620 3866 L
620 3818 L
620 3891 L
620 3914 L
620 3976 L
620 3999 L
620 3834 L
620 3894 L
620 3913 L
620 3901 L
620 3921 L
620 3866 L
620 3968 L
620 4022 L
620 4002 L
620 3961 L
620 3895 L
620 3865 L
620 3978 L
620 3838 L
620 3905 L
620 3862 L
620 3948 L
620 3913 L
620 3715 L
620 3950 L
620 3950 L
620 3915 L
620 3806 L
620 3959 L
620 3946 L
620 3898 L
620 3955 L
620 3868 L
620 3806 L
620 3900 L
620 3879 L
620 3843 L
620 3914 L
620 4008 L
620 3904 L
620 3970 L
620 3918 L
620 3885 L
620 4021 L
620 3937 L
620 3945 L
620 3848 L
620 3870 L
620 3924 L
620 3897 L
620 4021 L
620 4003 L
620 3983 L
620 3696 L
620 3977 L
620 3969 L
620 3966 L
620 4028 L
620 3912 L
620 3927 L
620 3872 L
620 4009 L
620 3938 L
620 4030 L
620 3943 L
620 3928 L
620 4064 L
620 3945 L
620 3936 L
620 3965 L
620 4004 L
620 3871 L
620 3882 L
620 3831 L
620 3937 L
620 3938 L
620 3815 L
620 3930 L
620 3952 L
620 3985 L
620 4003 L
620 4026 L
620 3765 L
620 3979 L
620 3976 L
620 3873 L
620 4009 L
620 3903 L
620 4041 L
620 3778 L
620 3956 L
620 3912 L
620 4034 L
620 3903 L
620 3935 L
620 3958 L
620 3978 L
620 3957 L
620 3908 L
620 3963 L
620 4071 L
620 4085 L
620 3928 L
620 3952 L
620 3859 L
620 3925 L
620 3924 L
620 3862 L
620 3985 L
620 4007 L
620 4050 L
620 4070 L
620 3773 L
620 3935 L
620 4085 L
620 3853 L
620 3898 L
620 3883 L
620 3957 L
620 3911 L
620 3911 L
620 3892 L
620 3983 L
620 3938 L
620 3834 L
620 3965 L
620 3769 L
620 3823 L
620 3953 L
620 3911 L
620 3970 L
620 3849 L
620 3870 L
620 3862 L
620 4027 L
620 3911 L
620 3961 L
620 4046 L
620 3910 L
620 3955 L
620 3863 L
620 4005 L
620 4025 L
620 4001 L
620 3827 L
620 3861 L
620 3890 L
620 3941 L
620 3940 L
620 3882 L
620 3950 L
620 3878 L
620 3913 L
620 3887 L
620 3982 L
620 4028 L
620 3959 L
620 3923 L
620 3941 L
620 3954 L
620 4070 L
620 3909 L
620 3984 L
620 3916 L
620 3910 L
620 3984 L
620 3860 L
620 4061 L
620 3904 L
620 4111 L
620 4066 L
620 3898 L
620 3969 L
620 3878 L
620 3967 L
620 3906 L
620 4069 L
620 3970 L
620 3755 L
620 4042 L
620 3991 L
620 3819 L
620 3972 L
620 3836 L
620 3963 L
620 4050 L
620 3968 L
620 3949 L
620 3950 L
620 3971 L
620 3983 L
620 3999 L
620 3963 L
620 4018 L
620 3986 L
620 3934 L
620 3992 L
620 3923 L
620 3937 L
620 3982 L
620 3865 L
620 3909 L
620 4010 L
620 3963 L
620 3828 L
620 3870 L
620 3885 L
620 4063 L
620 4014 L
620 3923 L
620 3751 L
620 3974 L
620 4016 L
620 3889 L
620 3983 L
620 3786 L
620 3952 L
620 3913 L
620 3988 L
620 4096 L
620 3938 L
620 3973 L
620 4053 L
620 3940 L
620 4007 L
620 3835 L
620 4112 L
620 3878 L
620 3890 L
620 3978 L
620 3947 L
620 4038 L
620 3959 L
620 4021 L
620 3888 L
620 4164 L
620 3928 L
620 4034 L
620 3984 L
620 3976 L
620 4089 L
620 3839 L
620 4090 L
620 4185 L
620 4047 L
620 3810 L
620 3967 L
620 4003 L
620 4041 L
620 4049 L
620 4053 L
620 4200 L
620 3990 L
620 3967 L
620 4017 L
620 3941 L
620 3887 L
620 4055 L
620 3958 L
620 4100 L
620 3838 L
620 4229 L
620 4118 L
620 3903 L
620 3972 L
620 4094 L
620 4126 L
620 3998 L
620 4042 L
620 3953 L
620 4034 L
620 4168 L
620 4103 L
620 3962 L
620 4063 L
620 4045 L
620 4114 L
620 3998 L
620 4083 L
620 4113 L
620 4055 L
620 4022 L
620 4126 L
620 3997 L
620 4009 L
620 4095 L
620 4050 L
620 4102 L
620 4121 L
620 4118 L
620 4117 L
620 4069 L
620 4036 L
620 4109 L
620 4074 L
620 4034 L
620 4053 L
620 4043 L
620 4085 L
620 4105 L
620 4008 L
620 4140 L
620 4089 L
620 4178 L
620 4173 L
620 4017 L
620 4062 L
620 4074 L
620 4094 L
620 3996 L
620 4087 L
620 3953 L
620 4196 L
620 4061 L
620 4129 L
620 4120 L
620 4131 L
620 4133 L
620 4088 L
620 4064 L
620 4260 L
620 4000 L
620 3960 L
620 4160 L
620 4048 L
620 4045 L
620 4076 L
620 4173 L
620 4135 L
620 4075 L
620 4045 L
620 4037 L
620 4110 L
620 4020 L
620 4118 L
620 4004 L
620 4039 L
620 4104 L
620 4152 L
620 4094 L
620 4136 L
620 4185 L
620 4044 L
620 4050 L
620 4043 L
620 4071 L
620 4087 L
620 4067 L
620 4037 L
620 4057 L
620 3931 L
620 3869 L
620 4168 L
620 4165 L
620 3999 L
620 4219 L
620 3974 L
620 4148 L
620 3918 L
620 4224 L
620 4027 L
620 4116 L
620 4164 L
620 4098 L
620 3966 L
620 4036 L
620 4113 L
620 4133 L
620 4029 L
620 4082 L
620 4146 L
620 4073 L
620 4102 L
620 4103 L
620 3979 L
620 4019 L
620 4064 L
620 3846 L
620 4141 L
620 3940 L
620 3921 L
620 4029 L
620 4066 L
620 3944 L
620 3925 L
620 3985 L
620 4110 L
620 4029 L
620 3966 L
620 4007 L
620 4032 L
620 3911 L
620 4105 L
620 4116 L
620 4047 L
620 4119 L
620 4101 L
620 4163 L
620 4148 L
620 3970 L
620 4048 L
620 4005 L
620 3985 L
620 4104 L
620 4179 L
620 3936 L
620 3975 L
620 4032 L
620 3980 L
620 4154 L
620 3813 L
620 4052 L
620 4027 L
620 3853 L
620 4106 L
620 4154 L
620 4214 L
620 4186 L
620 4077 L
620 4227 L
620 4042 L
620 4076 L
620 4062 L
620 3939 L
620 3982 L
620 3973 L
620 4161 L
620 3930 L
620 3912 L
620 4013 L
620 4080 L
620 3969 L
620 4055 L
620 4020 L
620 3919 L
620 3863 L
620 4075 L
620 3953 L
620 4112 L
620 3884 L
620 4079 L
620 4147 L
620 4003 L
620 3902 L
620 4007 L
620 3961 L
620 4047 L
620 4071 L
620 3964 L
620 4002 L
620 3936 L
620 4184 L
620 4004 L
620 4034 L
620 4023 L
620 4138 L
620 3926 L
620 4017 L
620 3968 L
620 4056 L
620 3966 L
620 3981 L
620 3894 L
620 4048 L
620 3969 L
620 4009 L
620 4035 L
620 4003 L
620 4054 L
620 3996 L
620 4021 L
620 4013 L
620 4043 L
620 4157 L
620 4001 L
620 3959 L
620 4110 L
620 4009 L
620 4067 L
620 4078 L
620 3941 L
620 4056 L
620 3912 L
620 4134 L
620 3885 L
620 3920 L
620 3881 L
620 4069 L
620 3929 L
620 4096 L
620 4035 L
620 3769 L
620 3982 L
620 4062 L
620 3934 L
620 4102 L
620 3986 L
620 4057 L
620 4004 L
620 3958 L
620 3760 L
620 4059 L
620 3900 L
620 4123 L
620 3996 L
620 4037 L
620 4091 L
620 3776 L
620 3917 L
620 3908 L
620 3970 L
620 4076 L
620 3957 L
620 3851 L
620 4055 L
620 3937 L
620 3878 L
620 3926 L
620 3828 L
620 3985 L
620 4039 L
620 4063 L
620 3974 L
620 4078 L
620 4069 L
620 3893 L
620 4046 L
620 3920 L
620 3951 L
620 4064 L
620 3856 L
620 3913 L
620 3997 L
620 4097 L
620 3920 L
620 3884 L
620 3873 L
620 3945 L
620 3986 L
620 3992 L
620 3877 L
620 3966 L
620 4011 L
620 3983 L
620 4058 L
620 4035 L
620 4015 L
620 3791 L
620 3997 L
620 3886 L
620 4155 L
620 4007 L
620 3983 L
620 4007 L
620 3966 L
620 3840 L
620 3996 L
620 4034 L
620 3999 L
620 3999 L
620 3869 L
620 3884 L
620 3963 L
620 3883 L
620 3952 L
620 3871 L
620 3907 L
620 3952 L
620 3924 L
620 3949 L
620 3963 L
620 3960 L
620 3913 L
620 4000 L
620 4028 L
620 3964 L
620 4004 L
620 4027 L
620 4002 L
620 3917 L
620 3992 L
620 3943 L
620 3884 L
620 3909 L
620 4042 L
L2 C02 COSGR

%
%================
% Legend - Begin
%================
%
GSN 4240 5180 M
4480 5180 L
LWMC SL  C02 COSGR
GSN 4540 5141 M helvM (1.0 uM) show grestore
%
%================
% Legend - End
%================
%

%
% Main frame
%
L10
GSN 
620 1700 M
4220 1700 L
4220 5300 L
620 5300 L
closepath SGR

%
% X axis: large tics
%
L10
%
% X axis: small tics
%
L5
%
% Y axis: large tics
%
L10
GSN 620 2805 M 54 0 rL SGR
GSN 4220 2805 M -54 0 rL SGR
helvS (-0.05) 560 2805 ylabel
GSN 620 4041 M 54 0 rL SGR
GSN 4220 4041 M -54 0 rL SGR
helvS (0) 560 4041 ylabel
GSN 620 5277 M 54 0 rL SGR
GSN 4220 5277 M -54 0 rL SGR
helvS (0.05) 560 5277 ylabel
%
% Y axis: small tics
%
L5
GSN 620 1816 M 36 0 rL SGR
GSN 4220 1816 M -36 0 rL SGR
GSN 620 2063 M 36 0 rL SGR
GSN 4220 2063 M -36 0 rL SGR
GSN 620 2310 M 36 0 rL SGR
GSN 4220 2310 M -36 0 rL SGR
GSN 620 2557 M 36 0 rL SGR
GSN 4220 2557 M -36 0 rL SGR
GSN 620 2805 M 36 0 rL SGR
GSN 4220 2805 M -36 0 rL SGR
GSN 620 3052 M 36 0 rL SGR
GSN 4220 3052 M -36 0 rL SGR
GSN 620 3299 M 36 0 rL SGR
GSN 4220 3299 M -36 0 rL SGR
GSN 620 3546 M 36 0 rL SGR
GSN 4220 3546 M -36 0 rL SGR
GSN 620 3793 M 36 0 rL SGR
GSN 4220 3793 M -36 0 rL SGR
GSN 620 4041 M 36 0 rL SGR
GSN 4220 4041 M -36 0 rL SGR
GSN 620 4288 M 36 0 rL SGR
GSN 4220 4288 M -36 0 rL SGR
GSN 620 4535 M 36 0 rL SGR
GSN 4220 4535 M -36 0 rL SGR
GSN 620 4782 M 36 0 rL SGR
GSN 4220 4782 M -36 0 rL SGR
GSN 620 5029 M 36 0 rL SGR
GSN 4220 5029 M -36 0 rL SGR
GSN 620 5277 M 36 0 rL SGR
GSN 4220 5277 M -36 0 rL SGR

%
% X axis - residual panel
%
GSN L5 620 4041 M 4220 4041 L SDA G50 SGR

%
% X-Axis label:
%
gsave 620 1370 M 
[
[(Helvetica) 180 0 true true 0 (t)]
[(Helvetica) 180 0 true true 0 (i)]
[(Helvetica) 180 0 true true 0 (m)]
[(Helvetica) 180 0 true true 0 (e)]
] 0 MCshow grestore

%
% Y-Axis label:
%
gsave 234 3500 M 
currentpoint gsave translate 90 rotate 0 0 moveto
[
[(Helvetica) 180 0 true true 0 (r)]
[(Helvetica) 180 0 true true 0 (e)]
[(Helvetica) 180 0 true true 0 (s)]
[(Helvetica) 180 0 true true 0 (i)]
[(Helvetica) 180 0 true true 0 (d)]
[(Helvetica) 180 0 true true 0 (u)]
[(Helvetica) 180 0 true true 0 (a)]
[(Helvetica) 180 0 true true 0 (l)]
[(Helvetica) 180 0 true true 0 (s)]
] 0 MCshow grestore

end
showpage
%%Trailer
%%EOF
