%!PS-Adobe-3.0 EPSF-3.0
%%BoundingBox: 0 0 514 550
%%Creator: BioKin Ltd.
%%DocumentFonts: Symbol Helvetica
%%EndComments
%
/bkdict 256 dict def
bkdict begin
/M {moveto} def 
/R {rmoveto} def
/L {lineto} def
/rL {rlineto} def
/GSN {gsave newpath} def
/SGR {stroke grestore} def
/COSGR {gsave setrgbcolor stroke grestore grestore} def
/SL {setlinewidth} def
/LWMB {12} def             % line width - model curves, black & white
/LWMC {10} def             % line width - model curves, color
/L2 {2.5 setlinewidth} def
/L5 {5 setlinewidth} def
/L10 {10 setlinewidth} def
/G50 {0.5 setgray} def
/SDA {[10  20] 0 setdash} def % axes
/helvT {/Helvetica findfont 100 scalefont setfont} def % tiny
/helvS {/Helvetica findfont 125 scalefont setfont} def % small
/helvM {/Helvetica findfont 150 scalefont setfont} def % medium
/helvL {/Helvetica findfont 175 scalefont setfont} def % large
/xlabel {gsave M dup
   stringwidth exch -0.5 mul exch rmoveto show grestore} def 
/ylabel {gsave M 90 rotate dup
   stringwidth exch -0.5 mul exch rmoveto show grestore} def
/ylabelresid {gsave M dup
   stringwidth exch -1 mul exch rmoveto show grestore} def
% ======
% Shapes
% ======
% Circle:
/Circ {0 360 arc closepath} def
%
% Square:
/Squa {dup dup -0.5 mul dup dup R -2 mul 0 exch rL 1 mul 0 rL dup 0 exch -1 mul rL closepath} def
%
% Triangle Up:
/TriU {dup dup dup -0.4 mul exch -0.5 mul exch R dup 0.5 mul exch rL dup -1 mul exch 0.5 mul exch rL closepath} def 
%
% Triangle Down:
/TriD {dup dup dup 0.4 mul exch -0.5 mul exch R dup 0.5 mul exch -1 mul rL dup 0.5 mul exch rL closepath} def 
%
% Diamond:
/Diam {45 rotate Squa} def
% ======
% Fills
% ======
/GRF {gsave setgray fill grestore} def                    % gray-level Fill
/COF {gsave setrgbcolor fill grestore} def                % color fill
% ======
% Colors
% ======
/C01 {1.00	0.00	0.00} def      % Red
/C02 {0.00	0.00	1.00} def      % Blue
/C03 {0.00	0.39	0.00} def      % Dark Green
/C04 {0.78	0.08	0.52} def      % Medium Violet Red
/C05 {0.55	0.27	0.07} def      % Saddle Brown
/C06 {0.10	0.70	0.70} def      % (cyan)
/C07 {1.00	0.55	0.00} def      % Dark Orange
/C08 {0.63	0.13	0.94} def      % Purple
/C09 {0.00	0.75	1.00} def      % Deep Sky Blue
/C10 {0.20	0.80	0.20} def      % Lime Green
/C11 {0.47	0.53	0.60} def      % Light Slate Gray
/C12 {0.00	0.00	0.00} def      % Black            % or: {0.19	0.31	0.31} def      % Dark Slate Gray
%
/LGR {0.75} def % light gray
/DGR {0.33} def % dark gray
%
% =============
% Dash patterns
% =============
/dash01 { [80  20] 0 setdash } def
/dash02 { [40  20] 0 setdash } def
/dash03 { [80  20  10  20] 0 setdash } def
/dash04 { [40  20  10  20] 0 setdash } def
/dash05 { [80  20  10  10  10  20] 0 setdash } def
/dash06 { [40  20  10  10  10  20] 0 setdash } def
/dash07 { [10  10] 0 setdash } def
%
/MFshow {
   { dup 5 get 3 ge
     { 5 get 3 eq {gsave} {grestore} ifelse }
     {dup dup 0 get findfont exch 1 get scalefont setfont
     [ currentpoint ] exch dup 2 get 0 exch R dup 5 get 2 ne {dup dup 6
     get exch 4 get {show} {stringwidth pop 0 R} ifelse }if dup 5 get 0 eq
     {dup 3 get {2 get neg 0 exch R pop} {pop aload pop M} ifelse} {dup 5
     get 1 eq {dup 2 get exch dup 3 get exch 6 get stringwidth pop -2 div
     dup 0 R} {dup 6 get stringwidth pop -2 div 0 R 6 get
     show 2 index {aload pop M neg 3 -1 roll neg R pop pop} {pop pop pop
     pop aload pop M} ifelse }ifelse }ifelse }
     ifelse }
   forall} bind def
/MFwidth {0 exch {dup 3 get{dup dup 0 get findfont exch 1 get scalefont
     setfont 6 get stringwidth pop add} {pop} ifelse} forall} bind def
/MCshow { currentpoint stroke M
  exch dup MFwidth -2 div 3 -1 roll R MFshow } def
%
end
%%EndProlog
bkdict begin
0.1 0.1 scale
%
% Model curves:
%

GSN 753 5166 M
753 5166 L
786 5030 L
820 4923 L
853 4841 L
886 4784 L
920 4745 L
929 4737 L
953 4721 L
986 4706 L
1020 4698 L
1053 4693 L
1086 4691 L
1106 4690 L
1120 4689 L
1153 4689 L
1186 4688 L
1220 4688 L
1253 4687 L
1282 4687 L
1286 4686 L
1319 4686 L
1353 4685 L
1386 4684 L
1419 4683 L
1453 4681 L
1459 4681 L
1486 4680 L
1519 4678 L
1553 4676 L
1586 4673 L
1619 4671 L
1635 4669 L
1653 4668 L
1686 4664 L
1719 4660 L
1753 4656 L
1786 4651 L
1812 4647 L
1819 4645 L
1853 4639 L
1886 4631 L
1919 4623 L
1953 4613 L
1986 4602 L
1988 4601 L
2019 4590 L
2053 4576 L
2086 4560 L
2119 4542 L
2153 4522 L
2165 4514 L
2186 4499 L
2219 4473 L
2253 4443 L
2286 4411 L
2319 4374 L
2341 4347 L
2353 4332 L
2386 4286 L
2419 4235 L
2453 4177 L
2486 4114 L
2518 4047 L
2519 4044 L
2553 3967 L
2586 3883 L
2619 3792 L
2653 3694 L
2686 3589 L
2694 3562 L
2719 3478 L
2753 3361 L
2786 3240 L
2819 3116 L
2853 2990 L
2871 2922 L
2886 2863 L
2919 2702 L
2953 2547 L
2986 2406 L
3019 2284 L
3047 2201 L
3053 2187 L
3086 2119 L
3119 2082 L
3153 2078 L
3186 2106 L
3219 2162 L
3224 2171 L
3253 2240 L
3286 2332 L
3319 2431 L
3353 2527 L
3386 2614 L
3400 2647 L
3419 2687 L
3453 2744 L
3476 2773 L
3486 2784 L
3519 2811 L
3553 2828 L
3577 2835 L
3586 2837 L
3619 2842 L
3653 2844 L
3686 2844 L
3719 2845 L
3753 2845 L
3754 2845 L
3786 2845 L
3819 2845 L
3853 2845 L
3886 2845 L
3919 2845 L
3930 2845 L
3953 2845 L
3986 2845 L
4019 2845 L
4053 2845 L
4086 2845 L
4086 2845 L
LWMC SL  C02 COSGR

%
% Experimental data:
%
GSN 777 4489 M
1388 5035 L
1552 4815 L
1652 4345 L
1723 4144 L
1778 4218 L
1824 4635 L
1863 4429 L
1896 4508 L
1926 4500 L
1952 4657 L
1976 4566 L
1998 4726 L
2019 4441 L
2037 4340 L
2055 4431 L
2071 4589 L
2086 4406 L
2101 4536 L
2115 4710 L
2128 4731 L
2140 4574 L
2152 4429 L
2163 4523 L
2174 4598 L
2184 4495 L
2194 4594 L
2204 4522 L
2213 4302 L
2222 4678 L
2230 4556 L
2239 4599 L
2247 4649 L
2255 4405 L
2262 4251 L
2270 4536 L
2277 4451 L
2284 4238 L
2290 4545 L
2297 4446 L
2303 4380 L
2310 4474 L
2316 4517 L
2322 4492 L
2328 4342 L
2333 4248 L
2339 4363 L
2344 4614 L
2350 4467 L
2355 4525 L
2360 4408 L
2365 4505 L
2370 4297 L
2375 4406 L
2380 4498 L
2384 4315 L
2389 4271 L
2393 4330 L
2398 4373 L
2402 4399 L
2407 4528 L
2411 4297 L
2415 4301 L
2419 4068 L
2423 4411 L
2427 4258 L
2431 4315 L
2435 4220 L
2438 4325 L
2442 4315 L
2446 4327 L
2449 4075 L
2453 4334 L
2456 4355 L
2460 4485 L
2463 4287 L
2467 4282 L
2470 4230 L
2473 4048 L
2476 4131 L
2480 4291 L
2483 4297 L
2486 4442 L
2489 4408 L
2492 4177 L
2495 4205 L
2498 4261 L
2501 4253 L
2504 4162 L
2507 4322 L
2510 4127 L
2512 4020 L
2515 4111 L
2518 4060 L
2521 4126 L
2523 4132 L
2526 4345 L
2529 4169 L
2531 4053 L
2534 4256 L
2536 3969 L
2539 4076 L
2541 4108 L
2544 4205 L
2546 4157 L
2549 4004 L
2551 4030 L
2554 4050 L
2556 4149 L
2558 4307 L
2561 4178 L
2563 4069 L
2565 3858 L
2568 4063 L
2570 4046 L
2572 4022 L
2574 3966 L
2576 4505 L
2579 4114 L
2581 4188 L
2583 3926 L
2585 4195 L
2587 4027 L
2589 4007 L
2591 4208 L
2593 4185 L
2595 4134 L
2597 3967 L
2599 4101 L
2601 4200 L
2603 4032 L
2605 3858 L
2607 3872 L
2609 3954 L
2611 4053 L
2613 4050 L
2615 4174 L
2617 4018 L
2618 4035 L
2620 3987 L
2622 3977 L
2624 3941 L
2626 3923 L
2627 3962 L
2629 3755 L
2631 4060 L
2633 4152 L
2634 3900 L
2636 4041 L
2638 3809 L
2640 3969 L
2641 4045 L
2643 3786 L
2645 4000 L
2646 3802 L
2648 3751 L
2650 3921 L
2651 3952 L
2653 4004 L
2654 3948 L
2656 3997 L
2658 3784 L
2659 3972 L
2661 3852 L
2662 3697 L
2664 3725 L
2665 4035 L
2667 3849 L
2668 3966 L
2670 4085 L
2671 4041 L
2673 3758 L
2674 4106 L
2676 3931 L
2677 3875 L
2679 4032 L
2680 3847 L
2682 3692 L
2683 3748 L
2685 3812 L
2686 3690 L
2687 3708 L
2689 3611 L
2690 4004 L
2692 3887 L
2693 4014 L
2694 3893 L
2696 3811 L
2697 3850 L
2698 3934 L
2700 3522 L
2701 3707 L
2702 3890 L
2704 3748 L
2705 3885 L
2706 4020 L
2708 3793 L
2709 3761 L
2710 3829 L
2712 3720 L
2713 3814 L
2714 3863 L
2715 3855 L
2717 3689 L
2718 3892 L
2719 3929 L
2720 3591 L
2722 3761 L
2723 3830 L
2724 3872 L
2725 3667 L
2726 3910 L
2728 3761 L
2729 3741 L
2730 3885 L
2731 3891 L
2732 3532 L
2734 3626 L
2735 3946 L
2736 3890 L
2737 3849 L
2738 3585 L
2739 3702 L
2741 3745 L
2742 3797 L
2743 3675 L
2744 3863 L
2745 3895 L
2746 3581 L
2747 3543 L
2748 3646 L
2749 3614 L
2751 3522 L
2752 3746 L
2753 3675 L
2754 3684 L
2755 3626 L
2756 3745 L
2757 3677 L
2758 3654 L
2759 3816 L
2760 3804 L
2761 3486 L
2762 3497 L
2763 3509 L
2764 3712 L
2765 3695 L
2767 3809 L
2768 3598 L
2769 3745 L
2770 3665 L
2771 3702 L
2772 3890 L
2773 3299 L
2774 3596 L
2775 3791 L
2776 3659 L
2777 3400 L
2778 3501 L
2779 3700 L
2780 3624 L
2781 3484 L
2782 3731 L
2783 3553 L
2783 3571 L
2784 3603 L
2785 3685 L
2786 3550 L
2787 3748 L
2788 3776 L
2789 3614 L
2790 3634 L
2791 3622 L
2792 3547 L
2793 3538 L
2794 3632 L
2795 3654 L
2796 3596 L
2797 3499 L
2798 3702 L
2798 3524 L
2799 3505 L
2800 3359 L
2801 3631 L
2802 3637 L
2803 3707 L
2804 3377 L
2805 3547 L
2806 3840 L
2807 3543 L
2807 3629 L
2808 3304 L
2809 3274 L
2810 3312 L
2811 3528 L
2812 3463 L
2813 3489 L
2813 3509 L
2814 3672 L
2815 3433 L
2816 3439 L
2817 3463 L
2818 3613 L
2819 3289 L
2819 3479 L
2820 3746 L
2821 3522 L
2822 3312 L
2823 3532 L
2824 3583 L
2824 3357 L
2825 3446 L
2826 3378 L
2827 3454 L
2828 3352 L
2828 3667 L
2829 3524 L
2830 3268 L
2831 3397 L
2832 3436 L
2832 3362 L
2833 3288 L
2834 3402 L
2835 3334 L
2836 3352 L
2836 3581 L
2837 3596 L
2838 3434 L
2839 3273 L
2840 3497 L
2840 3230 L
2841 3357 L
2842 3608 L
2843 3273 L
2843 3646 L
2844 3426 L
2845 3672 L
2846 3654 L
2846 3307 L
2847 3385 L
2848 3192 L
2849 3390 L
2849 3454 L
2850 3698 L
2851 3159 L
2852 3418 L
2852 3347 L
2853 3299 L
2854 3322 L
2855 3210 L
2855 3438 L
2856 3121 L
2857 3629 L
2857 3266 L
2858 3433 L
2859 3293 L
2860 3354 L
2860 3489 L
2861 3675 L
2862 3298 L
2862 3266 L
2863 3665 L
2864 3311 L
2865 3367 L
2865 3397 L
2866 3467 L
2867 3358 L
2867 3372 L
2868 3347 L
2869 3408 L
2869 3126 L
2870 3390 L
2871 3367 L
2871 3185 L
2872 3378 L
2873 3103 L
2873 3157 L
2874 3441 L
2875 3271 L
2876 3299 L
2876 3454 L
2877 3222 L
2878 3337 L
2878 3230 L
2879 3439 L
2880 3126 L
2880 3223 L
2881 3459 L
2881 3095 L
2882 3413 L
2883 3126 L
2883 3192 L
2884 3329 L
2885 3275 L
2885 3487 L
2886 3251 L
2887 3266 L
2887 3181 L
2888 3106 L
2889 3367 L
2889 3457 L
2892 3149 L
2894 3256 L
2897 3235 L
2899 3207 L
2902 3034 L
2904 3151 L
2907 3482 L
2909 3134 L
2911 3204 L
2914 3002 L
2916 3253 L
2918 3152 L
2921 3103 L
2923 3009 L
2925 3143 L
2927 3240 L
2929 3294 L
2932 3032 L
2934 3090 L
2936 3116 L
2938 2913 L
2940 3129 L
2942 3207 L
2944 2912 L
2946 3058 L
2948 3245 L
2950 2921 L
2952 2903 L
2954 3098 L
2956 3134 L
2958 2845 L
2960 2850 L
2962 3185 L
2964 2875 L
2966 3057 L
2968 2908 L
2970 2946 L
2971 3052 L
2973 2748 L
2975 2849 L
2977 3144 L
2979 2803 L
2980 2949 L
2982 2916 L
2984 2780 L
2986 3047 L
2987 2837 L
2989 2785 L
2991 2752 L
2993 2694 L
2994 2910 L
2996 2752 L
2998 2585 L
2999 2905 L
3001 2798 L
3003 2689 L
3004 2519 L
3006 3037 L
3007 2979 L
3009 2831 L
3011 2945 L
3012 2915 L
3014 2629 L
3015 2859 L
3017 2860 L
3018 2717 L
3020 2923 L
3021 2719 L
3023 2948 L
3024 2521 L
3026 2854 L
3027 2852 L
3029 2577 L
3030 2535 L
3032 2610 L
3033 2763 L
3035 2758 L
3036 2679 L
3038 2973 L
3039 2846 L
3040 2811 L
3042 2646 L
3043 2732 L
3045 2700 L
3046 2740 L
3047 2743 L
3049 2796 L
3050 2654 L
3051 2789 L
3053 2455 L
3054 2595 L
3055 2880 L
3057 2489 L
3058 2735 L
3059 2872 L
3061 2700 L
3062 2707 L
3063 2545 L
3065 2407 L
3066 2786 L
3067 2595 L
3068 2638 L
3070 2501 L
3071 2691 L
3072 2676 L
3073 2540 L
3075 2588 L
3076 2616 L
3077 2694 L
3078 2684 L
3079 2539 L
3081 2603 L
3082 2392 L
3083 2565 L
3084 2603 L
3085 2511 L
3087 2511 L
3088 2600 L
3089 2555 L
3090 2643 L
3091 2456 L
3092 2455 L
3094 2549 L
3095 2441 L
3096 2466 L
3097 2621 L
3098 2420 L
3099 2842 L
3100 2346 L
3101 2270 L
3103 2775 L
3104 2285 L
3105 2502 L
3106 2577 L
3107 2438 L
3108 2529 L
3109 2552 L
3110 2694 L
3111 2469 L
3112 2357 L
3113 2435 L
3114 2620 L
3115 2577 L
3116 2476 L
3117 2575 L
3119 2342 L
3120 2410 L
3121 2544 L
3122 2451 L
3123 2562 L
3124 2461 L
3125 2606 L
3126 2478 L
3127 2263 L
3128 2587 L
3129 2321 L
3130 2313 L
3131 2677 L
3132 2166 L
3133 2507 L
3134 2451 L
3135 2245 L
3136 2455 L
3136 2432 L
3137 2337 L
3138 2341 L
3139 2428 L
3140 2468 L
3141 2186 L
3142 2326 L
3143 2262 L
3144 2469 L
3145 2595 L
3146 2494 L
3147 2550 L
3148 2285 L
3149 2186 L
3150 2433 L
3151 2379 L
3151 2207 L
3152 2273 L
3153 2224 L
3154 2407 L
3155 2143 L
3156 2440 L
3157 2573 L
3158 2484 L
3159 2311 L
3160 2382 L
3160 2082 L
3161 2293 L
3162 2253 L
3163 2385 L
3164 2352 L
3165 2489 L
3166 2314 L
3166 2237 L
3167 2432 L
3168 2405 L
3169 2192 L
3170 2385 L
3171 2349 L
3172 2530 L
3172 2296 L
3173 2215 L
3174 2202 L
3175 2184 L
3176 2321 L
3177 2390 L
3177 2290 L
3178 2342 L
3179 2285 L
3180 2278 L
3181 2375 L
3181 2529 L
3182 2412 L
3183 2097 L
3184 2458 L
3185 2379 L
3185 2318 L
3186 2501 L
3187 2159 L
3188 2375 L
3189 2356 L
3189 2583 L
3190 2435 L
3191 2272 L
3192 2136 L
3193 2316 L
3193 2536 L
3194 2176 L
3195 2280 L
3196 2319 L
3196 2182 L
3197 2085 L
3198 2407 L
3199 2108 L
3199 2060 L
3200 2418 L
3201 2337 L
3202 2201 L
3202 2298 L
3203 2316 L
3204 2313 L
3205 2098 L
3205 2519 L
3206 2255 L
3207 2212 L
3208 2176 L
3208 2366 L
3209 2298 L
3210 2209 L
3210 2372 L
3211 2158 L
3212 2276 L
3213 2291 L
3213 2311 L
3214 2331 L
3215 2398 L
3215 2166 L
3216 2209 L
3217 2316 L
3218 2242 L
3218 2019 L
3219 1910 L
3220 2402 L
3220 2258 L
3221 2232 L
3222 2217 L
3222 2384 L
3223 2135 L
3224 2425 L
3224 2120 L
3225 2291 L
3226 2140 L
3227 2135 L
3227 2133 L
3228 2141 L
3229 2306 L
3229 2201 L
3230 2085 L
3231 2267 L
3231 2296 L
3232 2192 L
3233 2375 L
3233 2204 L
3234 2148 L
3235 2427 L
3235 2123 L
3236 2465 L
3236 2305 L
3237 2194 L
3238 2281 L
3238 2156 L
3239 2234 L
3240 2352 L
3240 2199 L
3241 2250 L
3242 2212 L
3242 2240 L
3243 2220 L
3244 2149 L
3244 2197 L
3245 2298 L
3245 2044 L
3246 2171 L
3247 2082 L
3247 1955 L
3248 2293 L
3249 2080 L
3249 2308 L
3250 2326 L
3250 2105 L
3251 2189 L
3252 2050 L
3252 2366 L
3253 2072 L
3253 2405 L
3254 2275 L
3255 2217 L
3255 2199 L
3256 2328 L
3257 2245 L
3257 2336 L
3258 2257 L
3258 2257 L
3259 2169 L
3259 2042 L
3260 2154 L
3261 2356 L
3261 2298 L
3262 2177 L
3262 2107 L
3263 2270 L
3264 2171 L
3264 2252 L
3265 2354 L
3265 2328 L
3266 2227 L
3267 2376 L
3267 2194 L
3268 2278 L
3268 2275 L
3269 2336 L
3269 2237 L
3270 2311 L
3271 2189 L
3271 2303 L
3272 2087 L
3272 2186 L
3273 2088 L
3273 2440 L
3274 2478 L
3275 2409 L
3275 2184 L
3276 2356 L
3276 2288 L
3277 2321 L
3277 2164 L
3278 2110 L
3278 2202 L
3279 2140 L
3280 2417 L
3280 2154 L
3281 2013 L
3281 2408 L
3282 2448 L
3282 2285 L
3283 2238 L
3283 2111 L
3284 2151 L
3284 1994 L
3285 2204 L
3285 1937 L
3286 2145 L
3287 2255 L
3287 2105 L
3288 2379 L
3288 2178 L
3289 2097 L
3289 1833 L
3290 2306 L
3290 2283 L
3291 2080 L
3291 2052 L
3292 2293 L
3292 2328 L
3293 2125 L
3293 2158 L
3294 2182 L
3294 2166 L
3295 2159 L
3295 2088 L
3296 2346 L
3297 2149 L
3297 2252 L
3298 2158 L
3298 2357 L
3299 2212 L
3299 2204 L
3300 2118 L
3300 2252 L
3301 2240 L
3301 2250 L
3302 2342 L
3302 2149 L
3303 2212 L
3303 2600 L
3304 2336 L
3304 2387 L
3305 2427 L
3305 2267 L
3306 2107 L
3306 2164 L
3307 2417 L
3307 2405 L
3308 2399 L
3308 2145 L
3309 2311 L
3309 2179 L
3310 2237 L
3310 2235 L
3311 2359 L
3311 2301 L
3312 2352 L
3312 2197 L
3312 2310 L
3313 2199 L
3313 2362 L
3314 2554 L
3314 2263 L
3315 2217 L
3315 2232 L
3316 2370 L
3316 2225 L
3317 2309 L
3317 2333 L
3318 1953 L
3318 2214 L
3319 2271 L
3319 2189 L
3320 2328 L
3320 2278 L
3321 2331 L
3321 2201 L
3321 2372 L
3322 2260 L
3322 2336 L
3323 2252 L
3323 2465 L
3324 2275 L
3324 2301 L
3325 2234 L
3325 2252 L
3326 2146 L
3326 2130 L
3327 2333 L
3327 2580 L
3327 2217 L
3328 2186 L
3328 2047 L
3329 2237 L
3329 2425 L
3330 2460 L
3330 2342 L
3331 2397 L
3331 2271 L
3332 2281 L
3332 2321 L
3332 2357 L
3333 2116 L
3333 2372 L
3334 2370 L
3334 2422 L
3335 2286 L
3335 2361 L
3336 2369 L
3336 2420 L
3336 2448 L
3337 2120 L
3337 2331 L
3338 2245 L
3338 2431 L
3339 2300 L
3339 2364 L
3339 2204 L
3340 1904 L
3340 2133 L
3341 2344 L
3341 2387 L
3342 2281 L
3342 2466 L
3343 2474 L
3343 2265 L
3343 2249 L
3344 2243 L
3344 2719 L
3345 2258 L
3345 2379 L
3346 2171 L
3346 2305 L
3346 2095 L
3347 2438 L
3347 2097 L
3348 2367 L
3348 2151 L
3348 2303 L
3349 2489 L
3349 2262 L
3350 2346 L
3350 2392 L
3351 2305 L
3351 2286 L
3351 2080 L
3352 2305 L
3352 2451 L
3353 2422 L
3353 2403 L
3353 2237 L
3354 2077 L
3354 2151 L
3355 2088 L
3355 2189 L
3355 2735 L
3356 2365 L
3356 2316 L
3357 2257 L
3357 2347 L
3358 2603 L
3358 2222 L
3358 2486 L
3359 2128 L
3359 2324 L
3360 2125 L
3360 2289 L
3360 2209 L
3361 2296 L
3361 2374 L
3362 2293 L
3362 2144 L
3362 2443 L
3363 2199 L
3363 2453 L
3364 2384 L
3364 2649 L
3364 1951 L
3365 2273 L
3365 2351 L
3365 2394 L
3366 2440 L
3366 2070 L
3367 2413 L
3367 2506 L
3367 2435 L
3368 2135 L
3368 2089 L
3369 2206 L
3369 2253 L
3369 2361 L
3370 2570 L
3370 2488 L
3371 2502 L
3371 2339 L
3371 2074 L
3372 2156 L
3372 2141 L
3372 2214 L
3373 2247 L
3373 2252 L
3374 2371 L
3374 2217 L
3374 2375 L
3375 2275 L
3375 2313 L
3375 2547 L
3376 2207 L
3376 2202 L
3377 2301 L
3377 2300 L
3377 2379 L
3378 2217 L
3378 2243 L
3378 2484 L
3379 2173 L
3379 2437 L
3380 2250 L
3380 2526 L
3380 2433 L
3381 2554 L
3381 2461 L
3381 2196 L
3382 2131 L
3382 2339 L
3383 2394 L
3383 2542 L
3383 2314 L
3384 2372 L
3384 2255 L
3384 2262 L
3385 2443 L
3385 2324 L
3385 2158 L
3386 2080 L
3386 2168 L
3387 2549 L
3387 2227 L
3387 2435 L
3388 2367 L
3388 2464 L
3388 2065 L
3389 2288 L
3389 2111 L
3389 2471 L
3390 2493 L
3390 2209 L
3391 2314 L
3391 2257 L
3391 2478 L
3392 2278 L
3392 2412 L
3392 2407 L
3393 2214 L
3393 2372 L
3393 2290 L
3394 2319 L
3394 2565 L
3394 2260 L
3395 2138 L
3395 2427 L
3395 2334 L
3396 2417 L
3396 2344 L
3396 2270 L
3397 2471 L
3397 2281 L
3398 2580 L
3398 2250 L
3398 2445 L
3399 2342 L
3399 2377 L
3399 2514 L
3400 2451 L
3400 2483 L
3400 2430 L
3401 2291 L
3401 2422 L
3401 2197 L
3402 2321 L
3402 2361 L
3402 2341 L
3403 2222 L
3403 2509 L
3403 2207 L
3404 2394 L
3404 2374 L
3404 2379 L
3405 2601 L
3405 2319 L
3405 2265 L
3406 2534 L
3406 2298 L
3406 2296 L
3407 2410 L
3407 2465 L
3407 2460 L
3408 2646 L
3408 2415 L
3408 2522 L
3409 2306 L
3409 2397 L
3409 2232 L
3410 2476 L
3410 2321 L
3410 2324 L
3411 2499 L
3411 2347 L
3411 2532 L
3412 2359 L
3412 2535 L
3412 2300 L
3413 2547 L
3413 2301 L
3413 2319 L
3414 2397 L
3414 2375 L
3414 2296 L
3415 2540 L
3415 2402 L
3415 2468 L
3416 2258 L
3416 2385 L
3416 2344 L
3417 2460 L
3417 2240 L
3417 2344 L
3417 2488 L
3418 2354 L
3418 2384 L
3418 2498 L
3419 2326 L
3419 2394 L
3419 2615 L
3420 2364 L
3420 2418 L
3420 2549 L
3421 2507 L
3421 2542 L
3421 2361 L
3422 2357 L
3422 2418 L
3422 2311 L
3423 2412 L
3423 2379 L
3423 2337 L
3423 2341 L
3424 2501 L
3424 2310 L
3424 2326 L
3425 2525 L
3425 2346 L
3425 2534 L
3426 2549 L
3426 2501 L
3426 2311 L
3427 2511 L
3427 2372 L
3427 2357 L
3428 2626 L
3428 2377 L
3428 2709 L
3428 2717 L
3429 2187 L
3429 2469 L
3429 2473 L
3430 2394 L
3430 2382 L
3430 2385 L
3431 2418 L
3431 2403 L
3431 2532 L
3431 2540 L
3432 2455 L
3432 2334 L
3432 2278 L
3433 2212 L
3433 2570 L
3433 2534 L
3434 2501 L
3434 2562 L
3434 2370 L
3434 2253 L
3435 2486 L
3435 2243 L
3435 2649 L
3436 2399 L
3436 2569 L
3436 2351 L
3437 2404 L
3437 2433 L
3437 2417 L
3437 2465 L
3438 2446 L
3438 2262 L
3438 2433 L
3439 2362 L
3439 2564 L
3439 2428 L
3440 2597 L
3440 2587 L
3440 2514 L
3440 2380 L
3441 2296 L
3441 2423 L
3441 2463 L
3442 2572 L
3442 2613 L
3442 2324 L
3442 2428 L
3443 2461 L
3443 2441 L
3443 2476 L
3444 2380 L
3444 2559 L
3444 2653 L
3444 2618 L
3445 2545 L
3445 2430 L
3445 2379 L
3446 2575 L
3446 2331 L
3446 2448 L
3446 2372 L
3447 2524 L
3447 2461 L
3447 2115 L
3448 2527 L
3448 2527 L
3448 2465 L
3448 2275 L
3449 2542 L
3449 2519 L
3449 2436 L
3450 2536 L
3450 2384 L
3450 2275 L
3450 2440 L
3451 2402 L
3451 2339 L
3451 2465 L
3452 2628 L
3452 2446 L
3452 2562 L
3452 2471 L
3453 2413 L
3453 2651 L
3453 2504 L
3454 2519 L
3454 2349 L
3454 2387 L
3454 2481 L
3455 2435 L
3455 2651 L
3455 2620 L
3455 2585 L
3456 2082 L
3456 2573 L
3456 2560 L
3457 2555 L
3457 2663 L
3457 2461 L
3457 2486 L
3458 2390 L
3458 2629 L
3458 2506 L
3458 2667 L
3459 2514 L
3459 2488 L
3459 2727 L
3460 2519 L
3460 2503 L
3460 2554 L
3460 2621 L
3461 2389 L
3461 2409 L
3461 2319 L
3461 2504 L
3462 2506 L
3462 2291 L
3462 2493 L
3463 2530 L
3463 2588 L
3463 2620 L
3463 2661 L
3464 2204 L
3464 2578 L
3464 2572 L
3464 2392 L
3465 2631 L
3465 2445 L
3465 2687 L
3465 2227 L
3466 2537 L
3466 2461 L
3466 2674 L
3466 2445 L
3467 2501 L
3467 2540 L
3467 2577 L
3468 2539 L
3468 2453 L
3468 2550 L
3468 2738 L
3469 2763 L
3469 2489 L
3469 2530 L
3469 2367 L
3470 2483 L
3470 2483 L
3470 2374 L
3470 2588 L
3471 2626 L
3471 2702 L
3471 2737 L
3471 2217 L
3472 2501 L
3472 2763 L
3472 2357 L
3472 2437 L
3473 2410 L
3473 2540 L
3473 2460 L
3474 2459 L
3474 2427 L
3474 2585 L
3474 2506 L
3475 2324 L
3475 2554 L
3475 2211 L
3475 2305 L
3476 2532 L
3476 2460 L
3476 2562 L
3476 2351 L
3477 2387 L
3477 2374 L
3477 2663 L
3477 2460 L
3478 2547 L
3478 2695 L
3478 2458 L
3478 2536 L
3479 2375 L
3479 2625 L
3479 2659 L
3479 2616 L
3480 2313 L
3480 2372 L
3480 2423 L
3480 2512 L
3481 2511 L
3481 2408 L
3481 2527 L
3481 2402 L
3482 2463 L
3482 2417 L
3482 2583 L
3482 2664 L
3483 2544 L
3483 2481 L
3483 2512 L
3483 2535 L
3484 2737 L
3484 2456 L
3484 2587 L
3484 2468 L
3485 2458 L
3485 2587 L
3485 2370 L
3485 2722 L
3486 2448 L
3486 2809 L
3486 2730 L
3486 2436 L
3487 2562 L
3487 2402 L
3487 2557 L
3487 2451 L
3488 2737 L
3488 2563 L
3488 2187 L
3488 2689 L
3488 2600 L
3489 2300 L
3489 2567 L
3489 2328 L
3489 2550 L
3490 2704 L
3490 2560 L
3490 2526 L
3490 2527 L
3491 2565 L
3491 2585 L
3491 2613 L
3491 2550 L
3492 2648 L
3492 2592 L
3492 2501 L
3492 2601 L
3493 2481 L
3493 2506 L
3493 2585 L
3493 2379 L
3494 2456 L
3494 2633 L
3494 2550 L
3494 2314 L
3494 2389 L
3495 2415 L
3495 2725 L
3495 2639 L
3495 2481 L
3496 2181 L
3496 2570 L
3496 2644 L
3496 2422 L
3497 2587 L
3497 2242 L
3497 2532 L
3497 2463 L
3498 2595 L
3498 2785 L
3498 2507 L
3498 2568 L
3498 2709 L
3499 2511 L
3499 2628 L
3499 2328 L
3499 2813 L
3500 2402 L
3500 2424 L
3506 2578 L
3511 2523 L
3517 2683 L
3522 2545 L
3527 2655 L
3532 2422 L
3537 2906 L
3542 2492 L
3547 2679 L
3552 2591 L
3557 2578 L
3561 2776 L
3566 2338 L
3570 2778 L
3575 2945 L
3579 2703 L
3583 2290 L
3587 2565 L
3591 2628 L
3595 2694 L
3599 2710 L
3603 2716 L
3607 2974 L
3611 2606 L
3614 2567 L
3618 2655 L
3622 2523 L
3625 2428 L
3629 2723 L
3632 2554 L
3636 2802 L
3639 2345 L
3642 3029 L
3646 2835 L
3649 2459 L
3652 2580 L
3655 2796 L
3658 2850 L
3661 2628 L
3664 2705 L
3667 2549 L
3670 2692 L
3673 2927 L
3676 2813 L
3679 2567 L
3682 2745 L
3685 2714 L
3688 2835 L
3690 2633 L
3693 2782 L
3696 2835 L
3698 2734 L
3701 2677 L
3704 2859 L
3706 2633 L
3709 2655 L
3711 2807 L
3714 2727 L
3716 2820 L
3719 2853 L
3721 2848 L
3724 2846 L
3726 2763 L
3728 2705 L
3731 2835 L
3733 2774 L
3735 2703 L
3738 2738 L
3740 2721 L
3742 2796 L
3744 2831 L
3747 2661 L
3749 2892 L
3751 2804 L
3753 2961 L
3755 2952 L
3757 2679 L
3760 2758 L
3762 2780 L
3764 2815 L
3766 2644 L
3768 2805 L
3770 2571 L
3772 2996 L
3774 2760 L
3776 2879 L
3778 2864 L
3780 2884 L
3781 2888 L
3783 2811 L
3785 2769 L
3787 3112 L
3789 2657 L
3791 2589 L
3793 2939 L
3795 2743 L
3796 2738 L
3798 2793 L
3800 2963 L
3802 2897 L
3803 2793 L
3805 2741 L
3807 2727 L
3809 2855 L
3810 2699 L
3812 2870 L
3814 2672 L
3816 2734 L
3817 2848 L
3819 2932 L
3820 2831 L
3822 2905 L
3824 2991 L
3825 2745 L
3827 2756 L
3829 2745 L
3830 2793 L
3832 2822 L
3833 2789 L
3835 2736 L
3836 2771 L
3838 2551 L
3839 2444 L
3841 2967 L
3842 2963 L
3844 2672 L
3845 3057 L
3847 2631 L
3848 2934 L
3850 2534 L
3851 3068 L
3853 2725 L
3854 2881 L
3856 2965 L
3857 2851 L
3859 2620 L
3860 2743 L
3861 2879 L
3863 2914 L
3864 2732 L
3866 2826 L
3867 2938 L
3868 2811 L
3870 2862 L
3871 2864 L
3872 2648 L
3874 2719 L
3875 2798 L
3876 2417 L
3878 2934 L
3879 2582 L
3880 2549 L
3882 2738 L
3883 2804 L
3884 2591 L
3885 2558 L
3887 2664 L
3888 2884 L
3889 2743 L
3890 2633 L
3892 2705 L
3893 2749 L
3894 2538 L
3895 2877 L
3897 2897 L
3898 2778 L
3899 2903 L
3900 2873 L
3901 2983 L
3903 2956 L
3904 2646 L
3905 2782 L
3906 2708 L
3907 2672 L
3908 2881 L
3910 3013 L
3911 2589 L
3912 2657 L
3913 2758 L
3914 2668 L
3915 2972 L
3917 2376 L
3918 2796 L
3919 2752 L
3920 2448 L
3921 2890 L
3922 2976 L
3923 3082 L
3924 3033 L
3925 2842 L
3926 3106 L
3928 2782 L
3929 2842 L
3930 2818 L
3931 2604 L
3932 2679 L
3933 2664 L
3934 2993 L
3935 2589 L
3936 2558 L
3937 2736 L
3938 2853 L
3939 2659 L
3940 2811 L
3941 2749 L
3942 2574 L
3943 2477 L
3944 2848 L
3945 2635 L
3946 2914 L
3947 2516 L
3948 2857 L
3949 2976 L
3950 2725 L
3951 2549 L
3952 2734 L
3953 2653 L
3954 2804 L
3955 2846 L
3956 2659 L
3957 2727 L
3958 2613 L
3959 3046 L
3960 2732 L
3961 2784 L
3962 2767 L
3963 2967 L
3964 2598 L
3965 2758 L
3966 2672 L
3966 2826 L
3967 2670 L
3968 2697 L
3969 2545 L
3970 2815 L
3971 2677 L
3972 2747 L
3973 2793 L
3974 2738 L
3975 2829 L
3976 2727 L
3976 2771 L
3977 2758 L
3978 2811 L
3979 3011 L
3980 2738 L
3981 2666 L
3982 2930 L
3983 2754 L
3983 2855 L
3984 2875 L
3985 2637 L
3986 2837 L
3987 2587 L
3988 2976 L
3989 2540 L
3989 2602 L
3990 2534 L
3991 2864 L
3992 2620 L
3993 2912 L
3994 2807 L
3995 2340 L
3995 2714 L
3996 2855 L
3997 2631 L
3998 2925 L
3999 2723 L
3999 2848 L
4000 2756 L
4001 2677 L
4002 2329 L
4003 2853 L
4003 2576 L
4004 2967 L
4005 2745 L
4006 2818 L
4007 2912 L
4007 2362 L
4008 2609 L
4009 2593 L
4010 2703 L
4011 2888 L
4011 2681 L
4012 2496 L
4013 2853 L
4014 2648 L
4014 2545 L
4015 2629 L
4016 2459 L
4017 2734 L
4017 2828 L
4018 2870 L
4019 2716 L
4020 2899 L
4021 2884 L
4021 2576 L
4022 2844 L
4023 2624 L
4023 2679 L
4024 2877 L
4025 2514 L
4026 2613 L
4026 2760 L
4027 2936 L
4028 2628 L
4029 2565 L
4029 2547 L
4030 2672 L
4031 2745 L
4032 2756 L
4032 2556 L
4033 2712 L
4034 2791 L
4034 2743 L
4035 2875 L
4036 2835 L
4036 2800 L
4037 2408 L
4038 2769 L
4039 2576 L
4039 3046 L
4040 2789 L
4041 2747 L
4041 2789 L
4042 2718 L
4043 2499 L
4043 2771 L
4044 2840 L
4045 2778 L
4045 2778 L
4046 2552 L
4047 2578 L
4047 2716 L
4048 2578 L
4049 2699 L
4050 2558 L
4050 2622 L
4051 2701 L
4052 2653 L
4052 2697 L
4053 2721 L
4053 2716 L
4054 2635 L
4055 2787 L
4055 2837 L
4056 2725 L
4057 2795 L
4057 2837 L
4058 2793 L
4059 2646 L
4059 2778 L
4060 2692 L
4061 2589 L
4061 2633 L
4062 2866 L
L2 C02 COSGR

%
%================
% Legend - Begin
%================
%
GSN 4240 5180 M
4480 5180 L
LWMC SL  C02 COSGR
GSN 4540 5141 M helvM (1.0 uM) show grestore
%
%================
% Legend - End
%================
%

%
% Residuals:
%
GSN 777 803 M
1388 1340 L
1552 1218 L
1652 949 L
1723 837 L
1778 885 L
1824 1132 L
1863 1016 L
1896 1067 L
1926 1067 L
1952 1162 L
1976 1114 L
1998 1211 L
2019 1050 L
2037 996 L
2055 1053 L
2071 1149 L
2086 1048 L
2101 1128 L
2115 1232 L
2128 1249 L
2140 1163 L
2152 1083 L
2163 1142 L
2174 1189 L
2184 1134 L
2194 1196 L
2204 1158 L
2213 1035 L
2222 1257 L
2230 1191 L
2239 1220 L
2247 1253 L
2255 1115 L
2262 1030 L
2270 1200 L
2277 1154 L
2284 1035 L
2290 1217 L
2297 1164 L
2303 1130 L
2310 1188 L
2316 1217 L
2322 1207 L
2328 1124 L
2333 1073 L
2339 1144 L
2344 1294 L
2350 1213 L
2355 1250 L
2360 1186 L
2365 1247 L
2370 1130 L
2375 1197 L
2380 1254 L
2384 1152 L
2389 1130 L
2393 1169 L
2398 1197 L
2402 1216 L
2407 1295 L
2411 1165 L
2415 1171 L
2419 1039 L
2423 1242 L
2427 1157 L
2431 1194 L
2435 1143 L
2438 1208 L
2442 1206 L
2446 1216 L
2449 1073 L
2453 1227 L
2456 1244 L
2460 1323 L
2463 1212 L
2467 1212 L
2470 1185 L
2473 1084 L
2476 1135 L
2480 1232 L
2483 1239 L
2486 1327 L
2489 1310 L
2492 1180 L
2495 1200 L
2498 1236 L
2501 1235 L
2504 1186 L
2507 1282 L
2510 1173 L
2512 1114 L
2515 1170 L
2518 1144 L
2521 1186 L
2523 1193 L
2526 1320 L
2529 1221 L
2531 1157 L
2534 1278 L
2536 1115 L
2539 1181 L
2541 1203 L
2544 1262 L
2546 1238 L
2549 1152 L
2551 1171 L
2554 1186 L
2556 1247 L
2558 1342 L
2561 1270 L
2563 1210 L
2565 1091 L
2568 1213 L
2570 1207 L
2572 1196 L
2574 1167 L
2576 1483 L
2579 1259 L
2581 1305 L
2583 1156 L
2585 1316 L
2587 1221 L
2589 1213 L
2591 1333 L
2593 1322 L
2595 1296 L
2597 1202 L
2599 1283 L
2601 1344 L
2603 1249 L
2605 1152 L
2607 1163 L
2609 1213 L
2611 1274 L
2613 1275 L
2615 1350 L
2617 1263 L
2618 1276 L
2620 1251 L
2622 1248 L
2624 1230 L
2626 1223 L
2627 1249 L
2629 1131 L
2631 1311 L
2633 1367 L
2634 1224 L
2636 1309 L
2638 1177 L
2640 1273 L
2641 1320 L
2643 1173 L
2645 1300 L
2646 1188 L
2648 1161 L
2650 1263 L
2651 1284 L
2653 1316 L
2654 1286 L
2656 1318 L
2658 1197 L
2659 1309 L
2661 1242 L
2662 1155 L
2664 1174 L
2665 1357 L
2667 1252 L
2668 1322 L
2670 1394 L
2671 1372 L
2673 1210 L
2674 1415 L
2676 1316 L
2677 1286 L
2679 1380 L
2680 1275 L
2682 1188 L
2683 1223 L
2685 1263 L
2686 1195 L
2687 1208 L
2689 1154 L
2690 1385 L
2692 1319 L
2693 1396 L
2694 1328 L
2696 1283 L
2697 1309 L
2698 1360 L
2700 1123 L
2701 1233 L
2702 1342 L
2704 1262 L
2705 1344 L
2706 1425 L
2708 1296 L
2709 1280 L
2710 1322 L
2712 1261 L
2713 1318 L
2714 1350 L
2715 1347 L
2717 1253 L
2718 1373 L
2719 1398 L
2720 1204 L
2722 1305 L
2723 1348 L
2724 1374 L
2725 1258 L
2726 1401 L
2728 1317 L
2729 1308 L
2730 1394 L
2731 1400 L
2732 1194 L
2734 1251 L
2735 1439 L
2736 1409 L
2737 1387 L
2738 1236 L
2739 1307 L
2741 1334 L
2742 1367 L
2743 1298 L
2744 1410 L
2745 1430 L
2746 1251 L
2747 1231 L
2748 1293 L
2749 1277 L
2751 1225 L
2752 1358 L
2753 1319 L
2754 1326 L
2755 1295 L
2756 1366 L
2757 1329 L
2758 1318 L
2759 1414 L
2760 1409 L
2761 1227 L
2762 1236 L
2763 1244 L
2764 1364 L
2765 1357 L
2767 1425 L
2768 1305 L
2769 1392 L
2770 1348 L
2771 1372 L
2772 1483 L
2773 1142 L
2774 1317 L
2775 1432 L
2776 1357 L
2777 1209 L
2778 1270 L
2779 1388 L
2780 1346 L
2781 1266 L
2782 1412 L
2783 1311 L
2783 1323 L
2784 1344 L
2785 1393 L
2786 1317 L
2787 1434 L
2788 1452 L
2789 1360 L
2790 1374 L
2791 1369 L
2792 1327 L
2793 1324 L
2794 1381 L
2795 1395 L
2796 1364 L
2797 1309 L
2798 1429 L
2798 1328 L
2799 1319 L
2800 1236 L
2801 1396 L
2802 1402 L
2803 1444 L
2804 1254 L
2805 1355 L
2806 1527 L
2807 1357 L
2807 1408 L
2808 1222 L
2809 1206 L
2810 1230 L
2811 1357 L
2812 1321 L
2813 1338 L
2813 1352 L
2814 1448 L
2815 1311 L
2816 1317 L
2817 1332 L
2818 1421 L
2819 1235 L
2819 1347 L
2820 1504 L
2821 1376 L
2822 1256 L
2823 1385 L
2824 1417 L
2824 1287 L
2825 1341 L
2826 1303 L
2827 1349 L
2828 1292 L
2828 1476 L
2829 1395 L
2830 1248 L
2831 1324 L
2832 1349 L
2832 1308 L
2833 1266 L
2834 1334 L
2835 1297 L
2836 1309 L
2836 1444 L
2837 1454 L
2838 1362 L
2839 1270 L
2840 1402 L
2840 1248 L
2841 1324 L
2842 1471 L
2843 1278 L
2843 1496 L
2844 1371 L
2845 1515 L
2846 1506 L
2846 1307 L
2847 1353 L
2848 1243 L
2849 1359 L
2849 1398 L
2850 1542 L
2851 1230 L
2852 1382 L
2852 1343 L
2853 1316 L
2854 1332 L
2855 1268 L
2855 1402 L
2856 1220 L
2857 1516 L
2857 1307 L
2858 1405 L
2859 1325 L
2860 1362 L
2860 1442 L
2861 1552 L
2862 1334 L
2862 1318 L
2863 1551 L
2864 1347 L
2865 1381 L
2865 1400 L
2866 1442 L
2867 1381 L
2867 1390 L
2868 1377 L
2869 1414 L
2869 1252 L
2870 1406 L
2871 1395 L
2871 1291 L
2872 1404 L
2873 1246 L
2873 1279 L
2874 1445 L
2875 1348 L
2876 1366 L
2876 1457 L
2877 1324 L
2878 1392 L
2878 1331 L
2879 1454 L
2880 1274 L
2880 1332 L
2881 1470 L
2881 1260 L
2882 1447 L
2883 1282 L
2883 1321 L
2884 1402 L
2885 1372 L
2885 1497 L
2886 1362 L
2887 1372 L
2887 1324 L
2888 1282 L
2889 1435 L
2889 1490 L
2892 1318 L
2894 1387 L
2897 1382 L
2899 1373 L
2902 1279 L
2904 1354 L
2907 1553 L
2909 1358 L
2911 1405 L
2914 1295 L
2916 1447 L
2918 1395 L
2921 1372 L
2923 1324 L
2925 1408 L
2927 1470 L
2929 1508 L
2932 1362 L
2934 1401 L
2936 1422 L
2938 1310 L
2940 1441 L
2942 1491 L
2944 1326 L
2946 1416 L
2948 1530 L
2950 1347 L
2952 1342 L
2954 1460 L
2956 1486 L
2958 1324 L
2960 1332 L
2962 1531 L
2964 1356 L
2966 1466 L
2968 1384 L
2970 1411 L
2971 1477 L
2973 1305 L
2975 1368 L
2977 1543 L
2979 1350 L
2980 1439 L
2982 1424 L
2984 1349 L
2986 1508 L
2987 1390 L
2989 1363 L
2991 1348 L
2993 1319 L
2994 1448 L
2996 1359 L
2998 1266 L
2999 1456 L
3001 1397 L
3003 1337 L
3004 1242 L
3006 1546 L
3007 1516 L
3009 1433 L
3011 1502 L
3012 1488 L
3014 1326 L
3015 1462 L
3017 1466 L
3018 1386 L
3020 1508 L
3021 1392 L
3023 1528 L
3024 1283 L
3026 1479 L
3027 1481 L
3029 1324 L
3030 1303 L
3032 1348 L
3033 1440 L
3035 1439 L
3036 1396 L
3038 1569 L
3039 1497 L
3040 1479 L
3042 1386 L
3043 1438 L
3045 1422 L
3046 1447 L
3047 1451 L
3049 1484 L
3050 1404 L
3051 1484 L
3053 1292 L
3054 1375 L
3055 1542 L
3057 1318 L
3058 1462 L
3059 1543 L
3061 1445 L
3062 1451 L
3063 1359 L
3065 1280 L
3066 1502 L
3067 1392 L
3068 1419 L
3070 1341 L
3071 1452 L
3072 1445 L
3073 1368 L
3075 1397 L
3076 1415 L
3077 1461 L
3078 1457 L
3079 1374 L
3081 1412 L
3082 1291 L
3083 1393 L
3084 1416 L
3085 1363 L
3087 1364 L
3088 1417 L
3089 1392 L
3090 1444 L
3091 1337 L
3092 1337 L
3094 1392 L
3095 1331 L
3096 1346 L
3097 1437 L
3098 1321 L
3099 1567 L
3100 1280 L
3101 1236 L
3103 1530 L
3104 1246 L
3105 1373 L
3106 1417 L
3107 1337 L
3108 1391 L
3109 1405 L
3110 1487 L
3111 1358 L
3112 1293 L
3113 1339 L
3114 1446 L
3115 1422 L
3116 1364 L
3117 1422 L
3119 1287 L
3120 1327 L
3121 1405 L
3122 1352 L
3123 1416 L
3124 1358 L
3125 1442 L
3126 1368 L
3127 1244 L
3128 1432 L
3129 1278 L
3130 1273 L
3131 1485 L
3132 1188 L
3133 1387 L
3134 1354 L
3135 1235 L
3136 1356 L
3136 1343 L
3137 1288 L
3138 1290 L
3139 1341 L
3140 1364 L
3141 1201 L
3142 1282 L
3143 1244 L
3144 1365 L
3145 1438 L
3146 1379 L
3147 1412 L
3148 1257 L
3149 1200 L
3150 1343 L
3151 1312 L
3151 1212 L
3152 1250 L
3153 1221 L
3154 1327 L
3155 1174 L
3156 1346 L
3157 1423 L
3158 1371 L
3159 1270 L
3160 1311 L
3160 1137 L
3161 1259 L
3162 1236 L
3163 1312 L
3164 1292 L
3165 1371 L
3166 1270 L
3166 1224 L
3167 1337 L
3168 1321 L
3169 1197 L
3170 1309 L
3171 1287 L
3172 1392 L
3172 1256 L
3173 1209 L
3174 1200 L
3175 1189 L
3176 1268 L
3177 1308 L
3177 1249 L
3178 1279 L
3179 1245 L
3180 1241 L
3181 1297 L
3181 1385 L
3182 1317 L
3183 1134 L
3184 1343 L
3185 1296 L
3185 1260 L
3186 1366 L
3187 1167 L
3188 1292 L
3189 1280 L
3189 1411 L
3190 1324 L
3191 1229 L
3192 1150 L
3193 1254 L
3193 1380 L
3194 1171 L
3195 1231 L
3196 1253 L
3196 1173 L
3197 1116 L
3198 1302 L
3199 1128 L
3199 1099 L
3200 1306 L
3201 1259 L
3202 1179 L
3202 1234 L
3203 1244 L
3204 1241 L
3205 1116 L
3205 1360 L
3206 1206 L
3207 1180 L
3208 1158 L
3208 1268 L
3209 1228 L
3210 1175 L
3210 1269 L
3211 1144 L
3212 1212 L
3213 1220 L
3213 1231 L
3214 1241 L
3215 1280 L
3215 1144 L
3216 1168 L
3217 1229 L
3218 1186 L
3218 1055 L
3219 991 L
3220 1276 L
3220 1192 L
3221 1176 L
3222 1166 L
3222 1262 L
3223 1117 L
3224 1284 L
3224 1106 L
3225 1205 L
3226 1116 L
3227 1112 L
3227 1111 L
3228 1115 L
3229 1209 L
3229 1147 L
3230 1079 L
3231 1184 L
3231 1200 L
3232 1139 L
3233 1244 L
3233 1144 L
3234 1111 L
3235 1271 L
3235 1094 L
3236 1292 L
3236 1198 L
3237 1133 L
3238 1183 L
3238 1109 L
3239 1153 L
3240 1221 L
3240 1131 L
3241 1160 L
3242 1137 L
3242 1153 L
3243 1140 L
3244 1098 L
3244 1125 L
3245 1182 L
3245 1034 L
3246 1107 L
3247 1054 L
3247 980 L
3248 1175 L
3249 1051 L
3249 1182 L
3250 1191 L
3250 1062 L
3251 1110 L
3252 1029 L
3252 1211 L
3253 1039 L
3253 1232 L
3254 1155 L
3255 1121 L
3255 1109 L
3256 1183 L
3257 1134 L
3257 1186 L
3258 1139 L
3258 1138 L
3259 1087 L
3259 1012 L
3260 1076 L
3261 1192 L
3261 1158 L
3262 1087 L
3262 1045 L
3263 1139 L
3264 1080 L
3264 1126 L
3265 1185 L
3265 1168 L
3266 1109 L
3267 1194 L
3267 1088 L
3268 1136 L
3268 1133 L
3269 1167 L
3269 1109 L
3270 1151 L
3271 1080 L
3271 1145 L
3272 1018 L
3272 1075 L
3273 1017 L
3273 1220 L
3274 1241 L
3275 1200 L
3275 1069 L
3276 1168 L
3276 1128 L
3277 1146 L
3277 1054 L
3278 1022 L
3278 1074 L
3279 1037 L
3280 1197 L
3280 1044 L
3281 961 L
3281 1189 L
3282 1211 L
3282 1116 L
3283 1088 L
3283 1013 L
3284 1035 L
3284 944 L
3285 1064 L
3285 908 L
3286 1028 L
3287 1091 L
3287 1003 L
3288 1161 L
3288 1044 L
3289 996 L
3289 842 L
3290 1116 L
3290 1101 L
3291 983 L
3291 965 L
3292 1104 L
3292 1123 L
3293 1005 L
3293 1023 L
3294 1037 L
3294 1026 L
3295 1021 L
3295 979 L
3296 1128 L
3297 1013 L
3297 1071 L
3298 1016 L
3298 1131 L
3299 1046 L
3299 1040 L
3300 990 L
3300 1066 L
3301 1059 L
3301 1064 L
3302 1116 L
3302 1003 L
3303 1039 L
3303 1263 L
3304 1109 L
3304 1138 L
3305 1160 L
3305 1066 L
3306 973 L
3306 1005 L
3307 1151 L
3307 1143 L
3308 1139 L
3308 990 L
3309 1086 L
3309 1009 L
3310 1041 L
3310 1040 L
3311 1110 L
3311 1076 L
3312 1105 L
3312 1014 L
3312 1078 L
3313 1013 L
3313 1107 L
3314 1218 L
3314 1048 L
3315 1021 L
3315 1028 L
3316 1108 L
3316 1023 L
3317 1071 L
3317 1084 L
3318 863 L
3318 1013 L
3319 1046 L
3319 997 L
3320 1077 L
3320 1047 L
3321 1077 L
3321 1001 L
3321 1099 L
3322 1033 L
3322 1077 L
3323 1027 L
3323 1150 L
3324 1039 L
3324 1053 L
3325 1013 L
3325 1023 L
3326 961 L
3326 951 L
3327 1068 L
3327 1210 L
3327 999 L
3328 980 L
3328 899 L
3329 1008 L
3329 1117 L
3330 1136 L
3330 1067 L
3331 1098 L
3331 1024 L
3332 1030 L
3332 1052 L
3332 1072 L
3333 931 L
3333 1079 L
3334 1077 L
3334 1106 L
3335 1027 L
3335 1069 L
3336 1073 L
3336 1102 L
3336 1118 L
3337 927 L
3337 1048 L
3338 998 L
3338 1105 L
3339 1028 L
3339 1065 L
3339 971 L
3340 796 L
3340 928 L
3341 1050 L
3341 1074 L
3342 1012 L
3342 1119 L
3343 1123 L
3343 1001 L
3343 991 L
3344 987 L
3344 1262 L
3345 994 L
3345 1063 L
3346 942 L
3346 1019 L
3346 897 L
3347 1095 L
3347 896 L
3348 1052 L
3348 926 L
3348 1014 L
3349 1121 L
3349 988 L
3350 1037 L
3350 1063 L
3351 1011 L
3351 1000 L
3351 880 L
3352 1009 L
3352 1094 L
3353 1076 L
3353 1065 L
3353 967 L
3354 874 L
3354 916 L
3355 879 L
3355 937 L
3355 1253 L
3356 1038 L
3356 1009 L
3357 974 L
3357 1026 L
3358 1173 L
3358 952 L
3358 1104 L
3359 896 L
3359 1009 L
3360 893 L
3360 988 L
3360 940 L
3361 990 L
3361 1035 L
3362 987 L
3362 900 L
3362 1073 L
3363 931 L
3363 1077 L
3364 1037 L
3364 1190 L
3364 785 L
3365 971 L
3365 1015 L
3365 1039 L
3366 1066 L
3366 851 L
3367 1049 L
3367 1102 L
3367 1060 L
3368 885 L
3368 858 L
3369 925 L
3369 953 L
3369 1014 L
3370 1135 L
3370 1087 L
3371 1095 L
3371 999 L
3371 845 L
3372 892 L
3372 883 L
3372 924 L
3373 943 L
3373 945 L
3374 1014 L
3374 924 L
3374 1015 L
3375 956 L
3375 978 L
3375 1113 L
3376 915 L
3376 912 L
3377 969 L
3377 967 L
3377 1013 L
3378 918 L
3378 933 L
3378 1073 L
3379 891 L
3379 1044 L
3380 935 L
3380 1094 L
3380 1040 L
3381 1109 L
3381 1055 L
3381 901 L
3382 863 L
3382 983 L
3383 1014 L
3383 1100 L
3383 967 L
3384 1000 L
3384 931 L
3384 935 L
3385 1040 L
3385 970 L
3385 873 L
3386 827 L
3386 878 L
3387 1098 L
3387 911 L
3387 1031 L
3388 991 L
3388 1047 L
3388 815 L
3389 944 L
3389 841 L
3389 1049 L
3390 1061 L
3390 896 L
3391 957 L
3391 923 L
3391 1051 L
3392 934 L
3392 1011 L
3392 1008 L
3393 896 L
3393 987 L
3393 939 L
3394 955 L
3394 1098 L
3394 920 L
3395 849 L
3395 1016 L
3395 962 L
3396 1009 L
3396 967 L
3396 923 L
3397 1039 L
3397 929 L
3398 1102 L
3398 910 L
3398 1022 L
3399 962 L
3399 982 L
3399 1061 L
3400 1024 L
3400 1042 L
3400 1011 L
3401 930 L
3401 1005 L
3401 875 L
3402 946 L
3402 969 L
3402 957 L
3403 887 L
3403 1053 L
3403 878 L
3404 986 L
3404 974 L
3404 976 L
3405 1105 L
3405 941 L
3405 909 L
3406 1064 L
3406 927 L
3406 926 L
3407 991 L
3407 1023 L
3407 1019 L
3408 1127 L
3408 993 L
3408 1054 L
3409 929 L
3409 981 L
3409 885 L
3410 1026 L
3410 936 L
3410 937 L
3411 1038 L
3411 950 L
3411 1057 L
3412 956 L
3412 1058 L
3412 920 L
3413 1063 L
3413 921 L
3413 931 L
3414 975 L
3414 962 L
3414 916 L
3415 1057 L
3415 977 L
3415 1015 L
3416 893 L
3416 966 L
3416 942 L
3417 1008 L
3417 881 L
3417 941 L
3417 1023 L
3418 946 L
3418 962 L
3418 1028 L
3419 928 L
3419 967 L
3419 1095 L
3420 949 L
3420 980 L
3420 1056 L
3421 1031 L
3421 1051 L
3421 945 L
3422 943 L
3422 978 L
3422 916 L
3423 974 L
3423 954 L
3423 930 L
3423 931 L
3424 1024 L
3424 913 L
3424 922 L
3425 1037 L
3425 933 L
3425 1042 L
3426 1050 L
3426 1022 L
3426 911 L
3427 1027 L
3427 946 L
3427 937 L
3428 1093 L
3428 948 L
3428 1140 L
3428 1144 L
3429 837 L
3429 1000 L
3429 1002 L
3430 956 L
3430 949 L
3430 950 L
3431 969 L
3431 960 L
3431 1034 L
3431 1039 L
3432 989 L
3432 919 L
3432 886 L
3433 847 L
3433 1055 L
3433 1033 L
3434 1014 L
3434 1049 L
3434 938 L
3434 869 L
3435 1004 L
3435 863 L
3435 1098 L
3436 952 L
3436 1051 L
3436 924 L
3437 954 L
3437 971 L
3437 961 L
3437 989 L
3438 978 L
3438 871 L
3438 970 L
3439 928 L
3439 1045 L
3439 966 L
3440 1063 L
3440 1057 L
3440 1015 L
3440 937 L
3441 888 L
3441 961 L
3441 984 L
3442 1047 L
3442 1071 L
3442 903 L
3442 963 L
3443 982 L
3443 970 L
3443 990 L
3444 934 L
3444 1037 L
3444 1092 L
3444 1071 L
3445 1029 L
3445 962 L
3445 932 L
3446 1045 L
3446 903 L
3446 971 L
3446 927 L
3447 1015 L
3447 978 L
3447 777 L
3448 1016 L
3448 1016 L
3448 979 L
3448 869 L
3449 1023 L
3449 1010 L
3449 962 L
3450 1019 L
3450 931 L
3450 867 L
3450 963 L
3451 940 L
3451 904 L
3451 976 L
3452 1071 L
3452 965 L
3452 1032 L
3452 979 L
3453 945 L
3453 1083 L
3453 998 L
3454 1006 L
3454 907 L
3454 929 L
3454 983 L
3455 956 L
3455 1081 L
3455 1063 L
3455 1043 L
3456 750 L
3456 1035 L
3456 1028 L
3457 1024 L
3457 1086 L
3457 969 L
3457 983 L
3458 928 L
3458 1066 L
3458 994 L
3458 1088 L
3459 999 L
3459 983 L
3459 1122 L
3460 1001 L
3460 991 L
3460 1021 L
3460 1060 L
3461 924 L
3461 936 L
3461 884 L
3461 991 L
3462 992 L
3462 867 L
3462 984 L
3463 1005 L
3463 1039 L
3463 1057 L
3463 1080 L
3464 815 L
3464 1032 L
3464 1028 L
3464 924 L
3465 1062 L
3465 954 L
3465 1094 L
3465 827 L
3466 1007 L
3466 963 L
3466 1086 L
3466 953 L
3467 985 L
3467 1008 L
3467 1029 L
3468 1006 L
3468 956 L
3468 1013 L
3468 1122 L
3469 1136 L
3469 977 L
3469 1000 L
3469 906 L
3470 972 L
3470 972 L
3470 909 L
3470 1033 L
3471 1055 L
3471 1099 L
3471 1119 L
3471 817 L
3472 981 L
3472 1133 L
3472 898 L
3472 944 L
3473 928 L
3473 1004 L
3473 956 L
3474 956 L
3474 937 L
3474 1029 L
3474 983 L
3475 877 L
3475 1010 L
3475 811 L
3475 865 L
3476 997 L
3476 955 L
3476 1014 L
3476 891 L
3477 912 L
3477 904 L
3477 1072 L
3477 954 L
3478 1004 L
3478 1090 L
3478 952 L
3478 997 L
3479 904 L
3479 1048 L
3479 1068 L
3479 1043 L
3480 867 L
3480 901 L
3480 931 L
3480 982 L
3481 981 L
3481 922 L
3481 991 L
3481 918 L
3482 953 L
3482 926 L
3482 1023 L
3482 1069 L
3483 999 L
3483 963 L
3483 981 L
3483 994 L
3484 1111 L
3484 948 L
3484 1023 L
3484 954 L
3485 948 L
3485 1023 L
3485 897 L
3485 1101 L
3486 942 L
3486 1151 L
3486 1105 L
3486 935 L
3487 1007 L
3487 915 L
3487 1004 L
3487 943 L
3488 1108 L
3488 1008 L
3488 789 L
3488 1080 L
3488 1028 L
3489 854 L
3489 1009 L
3489 870 L
3489 999 L
3490 1088 L
3490 1005 L
3490 984 L
3490 985 L
3491 1007 L
3491 1018 L
3491 1035 L
3491 998 L
3492 1054 L
3492 1022 L
3492 969 L
3492 1027 L
3493 957 L
3493 971 L
3493 1017 L
3493 897 L
3494 942 L
3494 1045 L
3494 997 L
3494 860 L
3494 903 L
3495 918 L
3495 1098 L
3495 1048 L
3495 956 L
3496 781 L
3496 1007 L
3496 1050 L
3496 921 L
3497 1016 L
3497 816 L
3497 985 L
3497 944 L
3498 1021 L
3498 1131 L
3498 970 L
3498 1005 L
3498 1086 L
3499 971 L
3499 1039 L
3499 865 L
3499 1146 L
3500 908 L
3500 920 L
3506 1007 L
3511 973 L
3517 1064 L
3522 981 L
3527 1043 L
3532 906 L
3537 1186 L
3542 944 L
3547 1052 L
3552 999 L
3557 991 L
3561 1105 L
3566 850 L
3570 1105 L
3575 1201 L
3579 1060 L
3583 819 L
3587 979 L
3591 1015 L
3595 1053 L
3599 1062 L
3603 1065 L
3607 1214 L
3611 1001 L
3614 978 L
3618 1028 L
3622 952 L
3625 897 L
3629 1068 L
3632 969 L
3636 1113 L
3639 848 L
3642 1244 L
3646 1132 L
3649 914 L
3652 984 L
3655 1109 L
3658 1141 L
3661 1012 L
3664 1056 L
3667 966 L
3670 1049 L
3673 1185 L
3676 1119 L
3679 976 L
3682 1079 L
3685 1061 L
3688 1131 L
3690 1014 L
3693 1101 L
3696 1131 L
3698 1073 L
3701 1040 L
3704 1145 L
3706 1014 L
3709 1027 L
3711 1115 L
3714 1069 L
3716 1122 L
3719 1141 L
3721 1139 L
3724 1138 L
3726 1089 L
3728 1056 L
3731 1131 L
3733 1095 L
3735 1055 L
3738 1075 L
3740 1065 L
3742 1108 L
3744 1129 L
3747 1030 L
3749 1164 L
3751 1113 L
3753 1204 L
3755 1199 L
3757 1041 L
3760 1086 L
3762 1099 L
3764 1120 L
3766 1020 L
3768 1113 L
3770 978 L
3772 1224 L
3774 1088 L
3776 1157 L
3778 1148 L
3780 1159 L
3781 1162 L
3783 1117 L
3785 1093 L
3787 1292 L
3789 1028 L
3791 988 L
3793 1191 L
3795 1078 L
3796 1075 L
3798 1107 L
3800 1205 L
3802 1167 L
3803 1107 L
3805 1076 L
3807 1069 L
3809 1143 L
3810 1052 L
3812 1152 L
3814 1037 L
3816 1073 L
3817 1139 L
3819 1187 L
3820 1129 L
3822 1172 L
3824 1222 L
3825 1079 L
3827 1085 L
3829 1079 L
3830 1107 L
3832 1124 L
3833 1104 L
3835 1074 L
3836 1094 L
3838 967 L
3839 904 L
3841 1208 L
3842 1205 L
3844 1037 L
3845 1260 L
3847 1013 L
3848 1189 L
3850 956 L
3851 1266 L
3853 1067 L
3854 1158 L
3856 1206 L
3857 1140 L
3859 1006 L
3860 1078 L
3861 1157 L
3863 1177 L
3864 1071 L
3866 1126 L
3867 1191 L
3868 1117 L
3870 1147 L
3871 1148 L
3872 1023 L
3874 1064 L
3875 1109 L
3876 889 L
3878 1189 L
3879 985 L
3880 965 L
3882 1075 L
3883 1113 L
3884 989 L
3885 970 L
3887 1032 L
3888 1159 L
3889 1078 L
3890 1014 L
3892 1056 L
3893 1081 L
3894 959 L
3895 1155 L
3897 1167 L
3898 1098 L
3899 1171 L
3900 1153 L
3901 1217 L
3903 1201 L
3904 1021 L
3905 1101 L
3906 1057 L
3907 1037 L
3908 1158 L
3910 1235 L
3911 988 L
3912 1028 L
3913 1087 L
3914 1034 L
3915 1210 L
3917 865 L
3918 1108 L
3919 1083 L
3920 907 L
3921 1163 L
3922 1213 L
3923 1274 L
3924 1246 L
3925 1135 L
3926 1288 L
3928 1101 L
3929 1135 L
3930 1121 L
3931 997 L
3932 1041 L
3933 1032 L
3934 1223 L
3935 988 L
3936 970 L
3937 1074 L
3938 1141 L
3939 1029 L
3940 1117 L
3941 1081 L
3942 979 L
3943 923 L
3944 1139 L
3945 1015 L
3946 1177 L
3947 946 L
3948 1144 L
3949 1213 L
3950 1067 L
3951 965 L
3952 1073 L
3953 1025 L
3954 1113 L
3955 1138 L
3956 1029 L
3957 1069 L
3958 1002 L
3959 1254 L
3960 1071 L
3961 1102 L
3962 1092 L
3963 1208 L
3964 993 L
3965 1087 L
3966 1037 L
3966 1126 L
3967 1035 L
3968 1051 L
3969 963 L
3970 1120 L
3971 1039 L
3972 1080 L
3973 1107 L
3974 1075 L
3975 1127 L
3976 1069 L
3976 1094 L
3977 1087 L
3978 1117 L
3979 1233 L
3980 1075 L
3981 1033 L
3982 1186 L
3983 1084 L
3983 1143 L
3984 1154 L
3985 1016 L
3986 1132 L
3987 987 L
3988 1213 L
3989 960 L
3989 996 L
3990 956 L
3991 1148 L
3992 1006 L
3993 1176 L
3994 1115 L
3995 844 L
3995 1061 L
3996 1143 L
3997 1013 L
3998 1184 L
3999 1066 L
3999 1139 L
4000 1085 L
4001 1039 L
4002 838 L
4003 1141 L
4003 981 L
4004 1208 L
4005 1079 L
4006 1121 L
4007 1176 L
4007 857 L
4008 1000 L
4009 991 L
4010 1055 L
4011 1162 L
4011 1042 L
4012 935 L
4013 1141 L
4014 1023 L
4014 963 L
4015 1011 L
4016 913 L
4017 1073 L
4017 1127 L
4018 1152 L
4019 1062 L
4020 1168 L
4021 1159 L
4021 981 L
4022 1136 L
4023 1009 L
4023 1041 L
4024 1155 L
4025 945 L
4026 1002 L
4026 1088 L
4027 1190 L
4028 1011 L
4029 974 L
4029 964 L
4030 1037 L
4031 1079 L
4032 1085 L
4032 969 L
4033 1060 L
4034 1106 L
4034 1078 L
4035 1154 L
4036 1131 L
4036 1111 L
4037 884 L
4038 1093 L
4039 981 L
4039 1254 L
4040 1104 L
4041 1080 L
4041 1104 L
4042 1063 L
4043 936 L
4043 1094 L
4044 1134 L
4045 1098 L
4045 1098 L
4046 967 L
4047 982 L
4047 1062 L
4048 982 L
4049 1052 L
4050 970 L
4050 1007 L
4051 1053 L
4052 1025 L
4052 1051 L
4053 1065 L
4053 1062 L
4054 1015 L
4055 1103 L
4055 1132 L
4056 1067 L
4057 1108 L
4057 1132 L
4058 1107 L
4059 1021 L
4059 1098 L
4060 1048 L
4061 988 L
4061 1014 L
4062 1149 L
L2 C02 COSGR

%
% Main frame
%
L10
GSN 
620 1700 M
4220 1700 L
4220 5300 L
620 5300 L
closepath SGR

%
% X axis: large tics
%
L10
GSN 1130 1700 M 0  54 rL SGR
GSN 1130 5300 M 0 -54 rL SGR
helvS (0.0001) 1130 470 xlabel
GSN 1716 1700 M 0  54 rL SGR
GSN 1716 5300 M 0 -54 rL SGR
helvS (0.001) 1716 470 xlabel
GSN 2303 1700 M 0  54 rL SGR
GSN 2303 5300 M 0 -54 rL SGR
helvS (0.01) 2303 470 xlabel
GSN 2889 1700 M 0  54 rL SGR
GSN 2889 5300 M 0 -54 rL SGR
helvS (0.1) 2889 470 xlabel
GSN 3476 1700 M 0  54 rL SGR
GSN 3476 5300 M 0 -54 rL SGR
helvS (1) 3476 470 xlabel
GSN 4062 1700 M 0  54 rL SGR
GSN 4062 5300 M 0 -54 rL SGR
helvS (10) 4062 470 xlabel
%
% X axis: small tics
%
L5
GSN 720 1700 M 0  36 rL SGR
GSN 720 5300 M 0 -36 rL SGR
GSN 824 1700 M 0  36 rL SGR
GSN 824 5300 M 0 -36 rL SGR
GSN 897 1700 M 0  36 rL SGR
GSN 897 5300 M 0 -36 rL SGR
GSN 954 1700 M 0  36 rL SGR
GSN 954 5300 M 0 -36 rL SGR
GSN 1000 1700 M 0  36 rL SGR
GSN 1000 5300 M 0 -36 rL SGR
GSN 1039 1700 M 0  36 rL SGR
GSN 1039 5300 M 0 -36 rL SGR
GSN 1073 1700 M 0  36 rL SGR
GSN 1073 5300 M 0 -36 rL SGR
GSN 1103 1700 M 0  36 rL SGR
GSN 1103 5300 M 0 -36 rL SGR
GSN 1307 1700 M 0  36 rL SGR
GSN 1307 5300 M 0 -36 rL SGR
GSN 1410 1700 M 0  36 rL SGR
GSN 1410 5300 M 0 -36 rL SGR
GSN 1483 1700 M 0  36 rL SGR
GSN 1483 5300 M 0 -36 rL SGR
GSN 1540 1700 M 0  36 rL SGR
GSN 1540 5300 M 0 -36 rL SGR
GSN 1586 1700 M 0  36 rL SGR
GSN 1586 5300 M 0 -36 rL SGR
GSN 1626 1700 M 0  36 rL SGR
GSN 1626 5300 M 0 -36 rL SGR
GSN 1660 1700 M 0  36 rL SGR
GSN 1660 5300 M 0 -36 rL SGR
GSN 1690 1700 M 0  36 rL SGR
GSN 1690 5300 M 0 -36 rL SGR
GSN 1893 1700 M 0  36 rL SGR
GSN 1893 5300 M 0 -36 rL SGR
GSN 1996 1700 M 0  36 rL SGR
GSN 1996 5300 M 0 -36 rL SGR
GSN 2069 1700 M 0  36 rL SGR
GSN 2069 5300 M 0 -36 rL SGR
GSN 2126 1700 M 0  36 rL SGR
GSN 2126 5300 M 0 -36 rL SGR
GSN 2173 1700 M 0  36 rL SGR
GSN 2173 5300 M 0 -36 rL SGR
GSN 2212 1700 M 0  36 rL SGR
GSN 2212 5300 M 0 -36 rL SGR
GSN 2246 1700 M 0  36 rL SGR
GSN 2246 5300 M 0 -36 rL SGR
GSN 2276 1700 M 0  36 rL SGR
GSN 2276 5300 M 0 -36 rL SGR
GSN 2479 1700 M 0  36 rL SGR
GSN 2479 5300 M 0 -36 rL SGR
GSN 2583 1700 M 0  36 rL SGR
GSN 2583 5300 M 0 -36 rL SGR
GSN 2656 1700 M 0  36 rL SGR
GSN 2656 5300 M 0 -36 rL SGR
GSN 2713 1700 M 0  36 rL SGR
GSN 2713 5300 M 0 -36 rL SGR
GSN 2759 1700 M 0  36 rL SGR
GSN 2759 5300 M 0 -36 rL SGR
GSN 2798 1700 M 0  36 rL SGR
GSN 2798 5300 M 0 -36 rL SGR
GSN 2832 1700 M 0  36 rL SGR
GSN 2832 5300 M 0 -36 rL SGR
GSN 2862 1700 M 0  36 rL SGR
GSN 2862 5300 M 0 -36 rL SGR
GSN 3066 1700 M 0  36 rL SGR
GSN 3066 5300 M 0 -36 rL SGR
GSN 3169 1700 M 0  36 rL SGR
GSN 3169 5300 M 0 -36 rL SGR
GSN 3242 1700 M 0  36 rL SGR
GSN 3242 5300 M 0 -36 rL SGR
GSN 3299 1700 M 0  36 rL SGR
GSN 3299 5300 M 0 -36 rL SGR
GSN 3345 1700 M 0  36 rL SGR
GSN 3345 5300 M 0 -36 rL SGR
GSN 3385 1700 M 0  36 rL SGR
GSN 3385 5300 M 0 -36 rL SGR
GSN 3419 1700 M 0  36 rL SGR
GSN 3419 5300 M 0 -36 rL SGR
GSN 3449 1700 M 0  36 rL SGR
GSN 3449 5300 M 0 -36 rL SGR
GSN 3652 1700 M 0  36 rL SGR
GSN 3652 5300 M 0 -36 rL SGR
GSN 3755 1700 M 0  36 rL SGR
GSN 3755 5300 M 0 -36 rL SGR
GSN 3829 1700 M 0  36 rL SGR
GSN 3829 5300 M 0 -36 rL SGR
GSN 3885 1700 M 0  36 rL SGR
GSN 3885 5300 M 0 -36 rL SGR
GSN 3932 1700 M 0  36 rL SGR
GSN 3932 5300 M 0 -36 rL SGR
GSN 3971 1700 M 0  36 rL SGR
GSN 3971 5300 M 0 -36 rL SGR
GSN 4005 1700 M 0  36 rL SGR
GSN 4005 5300 M 0 -36 rL SGR
GSN 4035 1700 M 0  36 rL SGR
GSN 4035 5300 M 0 -36 rL SGR
%
% Y axis: large tics
%
L10
GSN 620 1753 M 54 0 rL SGR
GSN 4220 1753 M -54 0 rL SGR
helvS (1.08) 560 1753 ylabel
GSN 620 2618 M 54 0 rL SGR
GSN 4220 2618 M -54 0 rL SGR
helvS (1.1) 560 2618 ylabel
GSN 620 3483 M 54 0 rL SGR
GSN 4220 3483 M -54 0 rL SGR
helvS (1.12) 560 3483 ylabel
GSN 620 4348 M 54 0 rL SGR
GSN 4220 4348 M -54 0 rL SGR
helvS (1.14) 560 4348 ylabel
GSN 620 5213 M 54 0 rL SGR
GSN 4220 5213 M -54 0 rL SGR
helvS (1.16) 560 5213 ylabel
%
% Y axis: small tics
%
L5
GSN 620 1753 M 36 0 rL SGR
GSN 4220 1753 M -36 0 rL SGR
GSN 620 1969 M 36 0 rL SGR
GSN 4220 1969 M -36 0 rL SGR
GSN 620 2186 M 36 0 rL SGR
GSN 4220 2186 M -36 0 rL SGR
GSN 620 2402 M 36 0 rL SGR
GSN 4220 2402 M -36 0 rL SGR
GSN 620 2618 M 36 0 rL SGR
GSN 4220 2618 M -36 0 rL SGR
GSN 620 2834 M 36 0 rL SGR
GSN 4220 2834 M -36 0 rL SGR
GSN 620 3051 M 36 0 rL SGR
GSN 4220 3051 M -36 0 rL SGR
GSN 620 3267 M 36 0 rL SGR
GSN 4220 3267 M -36 0 rL SGR
GSN 620 3483 M 36 0 rL SGR
GSN 4220 3483 M -36 0 rL SGR
GSN 620 3699 M 36 0 rL SGR
GSN 4220 3699 M -36 0 rL SGR
GSN 620 3915 M 36 0 rL SGR
GSN 4220 3915 M -36 0 rL SGR
GSN 620 4132 M 36 0 rL SGR
GSN 4220 4132 M -36 0 rL SGR
GSN 620 4348 M 36 0 rL SGR
GSN 4220 4348 M -36 0 rL SGR
GSN 620 4564 M 36 0 rL SGR
GSN 4220 4564 M -36 0 rL SGR
GSN 620 4780 M 36 0 rL SGR
GSN 4220 4780 M -36 0 rL SGR
GSN 620 4997 M 36 0 rL SGR
GSN 4220 4997 M -36 0 rL SGR
GSN 620 5213 M 36 0 rL SGR
GSN 4220 5213 M -36 0 rL SGR

%
% X-Axis label:
%
gsave 2420 290 M 
[
[(Helvetica) 180 0 true true 0 (t)]
[(Helvetica) 180 0 true true 0 (i)]
[(Helvetica) 180 0 true true 0 (m)]
[(Helvetica) 180 0 true true 0 (e)]
] 0 MCshow grestore

%
% Y-Axis label:
%
gsave 234 3500 M 
currentpoint gsave translate 90 rotate 0 0 moveto
[
[(Helvetica) 180 0 true true 0 (s)]
[(Helvetica) 180 0 true true 0 (i)]
[(Helvetica) 180 0 true true 0 (g)]
[(Helvetica) 180 0 true true 0 (n)]
[(Helvetica) 180 0 true true 0 (a)]
[(Helvetica) 180 0 true true 0 (l)]
] 0 MCshow grestore

%
% Residuals:
%
gsave 129 1160 M 
currentpoint gsave translate 90 rotate 0 0 moveto
[
[(Helvetica) 150 0 true true 0 (r)]
[(Helvetica) 150 0 true true 0 (e)]
[(Helvetica) 150 0 true true 0 (s)]
[(Helvetica) 150 0 true true 0 (i)]
[(Helvetica) 150 0 true true 0 (d)]
[(Helvetica) 150 0 true true 0 (u)]
[(Helvetica) 150 0 true true 0 (a)]
[(Helvetica) 150 0 true true 0 (l)]
[(Helvetica) 150 0 true true 0 (s)]
] 0 MCshow grestore

%
% Residual frame
%
L10
GSN 
620 620 M
4220 620 L
4220 1700 L
620 1700 L
closepath SGR
%
% X axis: large tics - residual frame
%
L10
GSN 1130 620 M 0  54 rL SGR
GSN 1130 1700 M 0 -54 rL SGR
GSN 1716 620 M 0  54 rL SGR
GSN 1716 1700 M 0 -54 rL SGR
GSN 2303 620 M 0  54 rL SGR
GSN 2303 1700 M 0 -54 rL SGR
GSN 2889 620 M 0  54 rL SGR
GSN 2889 1700 M 0 -54 rL SGR
GSN 3476 620 M 0  54 rL SGR
GSN 3476 1700 M 0 -54 rL SGR
GSN 4062 620 M 0  54 rL SGR
GSN 4062 1700 M 0 -54 rL SGR
%
% X axis: small tics - residual frame
%
L5
GSN 720 620 M 0  36 rL SGR
GSN 720 1700 M 0 -36 rL SGR
GSN 824 620 M 0  36 rL SGR
GSN 824 1700 M 0 -36 rL SGR
GSN 897 620 M 0  36 rL SGR
GSN 897 1700 M 0 -36 rL SGR
GSN 954 620 M 0  36 rL SGR
GSN 954 1700 M 0 -36 rL SGR
GSN 1000 620 M 0  36 rL SGR
GSN 1000 1700 M 0 -36 rL SGR
GSN 1039 620 M 0  36 rL SGR
GSN 1039 1700 M 0 -36 rL SGR
GSN 1073 620 M 0  36 rL SGR
GSN 1073 1700 M 0 -36 rL SGR
GSN 1103 620 M 0  36 rL SGR
GSN 1103 1700 M 0 -36 rL SGR
GSN 1307 620 M 0  36 rL SGR
GSN 1307 1700 M 0 -36 rL SGR
GSN 1410 620 M 0  36 rL SGR
GSN 1410 1700 M 0 -36 rL SGR
GSN 1483 620 M 0  36 rL SGR
GSN 1483 1700 M 0 -36 rL SGR
GSN 1540 620 M 0  36 rL SGR
GSN 1540 1700 M 0 -36 rL SGR
GSN 1586 620 M 0  36 rL SGR
GSN 1586 1700 M 0 -36 rL SGR
GSN 1626 620 M 0  36 rL SGR
GSN 1626 1700 M 0 -36 rL SGR
GSN 1660 620 M 0  36 rL SGR
GSN 1660 1700 M 0 -36 rL SGR
GSN 1690 620 M 0  36 rL SGR
GSN 1690 1700 M 0 -36 rL SGR
GSN 1893 620 M 0  36 rL SGR
GSN 1893 1700 M 0 -36 rL SGR
GSN 1996 620 M 0  36 rL SGR
GSN 1996 1700 M 0 -36 rL SGR
GSN 2069 620 M 0  36 rL SGR
GSN 2069 1700 M 0 -36 rL SGR
GSN 2126 620 M 0  36 rL SGR
GSN 2126 1700 M 0 -36 rL SGR
GSN 2173 620 M 0  36 rL SGR
GSN 2173 1700 M 0 -36 rL SGR
GSN 2212 620 M 0  36 rL SGR
GSN 2212 1700 M 0 -36 rL SGR
GSN 2246 620 M 0  36 rL SGR
GSN 2246 1700 M 0 -36 rL SGR
GSN 2276 620 M 0  36 rL SGR
GSN 2276 1700 M 0 -36 rL SGR
GSN 2479 620 M 0  36 rL SGR
GSN 2479 1700 M 0 -36 rL SGR
GSN 2583 620 M 0  36 rL SGR
GSN 2583 1700 M 0 -36 rL SGR
GSN 2656 620 M 0  36 rL SGR
GSN 2656 1700 M 0 -36 rL SGR
GSN 2713 620 M 0  36 rL SGR
GSN 2713 1700 M 0 -36 rL SGR
GSN 2759 620 M 0  36 rL SGR
GSN 2759 1700 M 0 -36 rL SGR
GSN 2798 620 M 0  36 rL SGR
GSN 2798 1700 M 0 -36 rL SGR
GSN 2832 620 M 0  36 rL SGR
GSN 2832 1700 M 0 -36 rL SGR
GSN 2862 620 M 0  36 rL SGR
GSN 2862 1700 M 0 -36 rL SGR
GSN 3066 620 M 0  36 rL SGR
GSN 3066 1700 M 0 -36 rL SGR
GSN 3169 620 M 0  36 rL SGR
GSN 3169 1700 M 0 -36 rL SGR
GSN 3242 620 M 0  36 rL SGR
GSN 3242 1700 M 0 -36 rL SGR
GSN 3299 620 M 0  36 rL SGR
GSN 3299 1700 M 0 -36 rL SGR
GSN 3345 620 M 0  36 rL SGR
GSN 3345 1700 M 0 -36 rL SGR
GSN 3385 620 M 0  36 rL SGR
GSN 3385 1700 M 0 -36 rL SGR
GSN 3419 620 M 0  36 rL SGR
GSN 3419 1700 M 0 -36 rL SGR
GSN 3449 620 M 0  36 rL SGR
GSN 3449 1700 M 0 -36 rL SGR
GSN 3652 620 M 0  36 rL SGR
GSN 3652 1700 M 0 -36 rL SGR
GSN 3755 620 M 0  36 rL SGR
GSN 3755 1700 M 0 -36 rL SGR
GSN 3829 620 M 0  36 rL SGR
GSN 3829 1700 M 0 -36 rL SGR
GSN 3885 620 M 0  36 rL SGR
GSN 3885 1700 M 0 -36 rL SGR
GSN 3932 620 M 0  36 rL SGR
GSN 3932 1700 M 0 -36 rL SGR
GSN 3971 620 M 0  36 rL SGR
GSN 3971 1700 M 0 -36 rL SGR
GSN 4005 620 M 0  36 rL SGR
GSN 4005 1700 M 0 -36 rL SGR
GSN 4035 620 M 0  36 rL SGR
GSN 4035 1700 M 0 -36 rL SGR
%
% Y axis: large tics - residual frame
%
L10
GSN 620 635 M 54 0 rL SGR
GSN 4220 635 M -54 0 rL SGR
helvS (-0.02) 560 635 ylabelresid
GSN 620 886 M 54 0 rL SGR
GSN 4220 886 M -54 0 rL SGR
helvS (-0.01) 560 886 ylabelresid
GSN 620 1137 M 54 0 rL SGR
GSN 4220 1137 M -54 0 rL SGR
helvS (0) 560 1137 ylabelresid
GSN 620 1388 M 54 0 rL SGR
GSN 4220 1388 M -54 0 rL SGR
helvS (0.01) 560 1388 ylabelresid
GSN 620 1639 M 54 0 rL SGR
GSN 4220 1639 M -54 0 rL SGR
helvS (0.02) 560 1639 ylabelresid

%
% X axis - residual panel
%
GSN L5 620 1137 M 4220 1137 L SDA G50 SGR

end
showpage
%%Trailer
%%EOF
