%!PS-Adobe-3.0 EPSF-3.0
%%BoundingBox: 0 0 514 550
%%Creator: BioKin Ltd.
%%DocumentFonts: Symbol Helvetica
%%EndComments
%
/bkdict 256 dict def
bkdict begin
/M {moveto} def 
/R {rmoveto} def
/L {lineto} def
/rL {rlineto} def
/GSN {gsave newpath} def
/SGR {stroke grestore} def
/COSGR {gsave setrgbcolor stroke grestore grestore} def
/SL {setlinewidth} def
/LWMB {12} def             % line width - model curves, black & white
/LWMC {10} def             % line width - model curves, color
/L2 {2.5 setlinewidth} def
/L5 {5 setlinewidth} def
/L10 {10 setlinewidth} def
/G50 {0.5 setgray} def
/SDA {[10  20] 0 setdash} def % axes
/helvT {/Helvetica findfont 100 scalefont setfont} def % tiny
/helvS {/Helvetica findfont 125 scalefont setfont} def % small
/helvM {/Helvetica findfont 150 scalefont setfont} def % medium
/helvL {/Helvetica findfont 175 scalefont setfont} def % large
/xlabel {gsave M dup
   stringwidth exch -0.5 mul exch rmoveto show grestore} def 
/ylabel {gsave M 90 rotate dup
   stringwidth exch -0.5 mul exch rmoveto show grestore} def
/ylabelresid {gsave M dup
   stringwidth exch -1 mul exch rmoveto show grestore} def
% ======
% Shapes
% ======
% Circle:
/Circ {0 360 arc closepath} def
%
% Square:
/Squa {dup dup -0.5 mul dup dup R -2 mul 0 exch rL 1 mul 0 rL dup 0 exch -1 mul rL closepath} def
%
% Triangle Up:
/TriU {dup dup dup -0.4 mul exch -0.5 mul exch R dup 0.5 mul exch rL dup -1 mul exch 0.5 mul exch rL closepath} def 
%
% Triangle Down:
/TriD {dup dup dup 0.4 mul exch -0.5 mul exch R dup 0.5 mul exch -1 mul rL dup 0.5 mul exch rL closepath} def 
%
% Diamond:
/Diam {45 rotate Squa} def
% ======
% Fills
% ======
/GRF {gsave setgray fill grestore} def                    % gray-level Fill
/COF {gsave setrgbcolor fill grestore} def                % color fill
% ======
% Colors
% ======
/C01 {1.00	0.00	0.00} def      % Red
/C02 {0.00	0.00	1.00} def      % Blue
/C03 {0.00	0.39	0.00} def      % Dark Green
/C04 {0.78	0.08	0.52} def      % Medium Violet Red
/C05 {0.55	0.27	0.07} def      % Saddle Brown
/C06 {0.10	0.70	0.70} def      % (cyan)
/C07 {1.00	0.55	0.00} def      % Dark Orange
/C08 {0.63	0.13	0.94} def      % Purple
/C09 {0.00	0.75	1.00} def      % Deep Sky Blue
/C10 {0.20	0.80	0.20} def      % Lime Green
/C11 {0.47	0.53	0.60} def      % Light Slate Gray
/C12 {0.00	0.00	0.00} def      % Black            % or: {0.19	0.31	0.31} def      % Dark Slate Gray
%
/LGR {0.75} def % light gray
/DGR {0.33} def % dark gray
%
% =============
% Dash patterns
% =============
/dash01 { [80  20] 0 setdash } def
/dash02 { [40  20] 0 setdash } def
/dash03 { [80  20  10  20] 0 setdash } def
/dash04 { [40  20  10  20] 0 setdash } def
/dash05 { [80  20  10  10  10  20] 0 setdash } def
/dash06 { [40  20  10  10  10  20] 0 setdash } def
/dash07 { [10  10] 0 setdash } def
%
/MFshow {
   { dup 5 get 3 ge
     { 5 get 3 eq {gsave} {grestore} ifelse }
     {dup dup 0 get findfont exch 1 get scalefont setfont
     [ currentpoint ] exch dup 2 get 0 exch R dup 5 get 2 ne {dup dup 6
     get exch 4 get {show} {stringwidth pop 0 R} ifelse }if dup 5 get 0 eq
     {dup 3 get {2 get neg 0 exch R pop} {pop aload pop M} ifelse} {dup 5
     get 1 eq {dup 2 get exch dup 3 get exch 6 get stringwidth pop -2 div
     dup 0 R} {dup 6 get stringwidth pop -2 div 0 R 6 get
     show 2 index {aload pop M neg 3 -1 roll neg R pop pop} {pop pop pop
     pop aload pop M} ifelse }ifelse }ifelse }
     ifelse }
   forall} bind def
/MFwidth {0 exch {dup 3 get{dup dup 0 get findfont exch 1 get scalefont
     setfont 6 get stringwidth pop add} {pop} ifelse} forall} bind def
/MCshow { currentpoint stroke M
  exch dup MFwidth -2 div 3 -1 roll R MFshow } def
%
end
%%EndProlog
bkdict begin
0.1 0.1 scale
%
% Residuals:
%
GSN 620 4172 M
620 3495 L
620 3689 L
620 4337 L
620 4063 L
620 3858 L
620 3951 L
620 3987 L
620 4117 L
620 3995 L
620 4082 L
620 3573 L
620 4547 L
620 3790 L
620 4176 L
620 4357 L
620 4266 L
620 4415 L
620 3787 L
620 4108 L
620 3978 L
620 3718 L
620 3881 L
620 4108 L
620 3730 L
620 4271 L
620 4580 L
620 4205 L
620 4493 L
620 4096 L
620 3853 L
620 3269 L
620 3645 L
620 3735 L
620 4244 L
620 4248 L
620 3951 L
620 4004 L
620 4201 L
620 4192 L
620 4458 L
620 4838 L
620 3743 L
620 4003 L
620 3392 L
620 3696 L
620 3459 L
620 4021 L
620 4068 L
620 3945 L
620 4136 L
620 4312 L
620 3488 L
620 2689 L
620 3188 L
620 3692 L
620 4046 L
620 4450 L
620 3749 L
620 3497 L
620 3255 L
620 4051 L
620 3199 L
620 3506 L
620 4082 L
620 3934 L
620 3200 L
620 3686 L
620 3651 L
620 3366 L
620 3296 L
620 3961 L
620 3541 L
620 3750 L
620 3309 L
620 3738 L
620 3771 L
620 3695 L
620 3543 L
620 3566 L
620 3719 L
620 3303 L
620 3265 L
620 3473 L
620 3698 L
620 3602 L
620 3698 L
620 3773 L
620 2995 L
620 3176 L
620 3324 L
620 4116 L
620 3123 L
620 2513 L
620 3731 L
620 3024 L
620 3499 L
620 2800 L
620 3473 L
620 3282 L
620 2994 L
620 2726 L
620 3326 L
620 3061 L
620 2136 L
620 2999 L
620 3092 L
620 2240 L
620 3206 L
620 2828 L
620 3348 L
620 2549 L
620 3433 L
620 3418 L
620 3237 L
620 2936 L
620 2969 L
620 3052 L
620 2744 L
620 2881 L
620 3073 L
620 3030 L
620 2986 L
620 2452 L
620 2837 L
620 2753 L
620 2424 L
620 2704 L
620 3148 L
620 2508 L
620 2953 L
620 2547 L
620 2591 L
620 2465 L
620 2779 L
620 2693 L
620 2571 L
620 2609 L
620 3003 L
620 2491 L
620 2803 L
620 2431 L
620 2539 L
620 2646 L
620 2559 L
620 2492 L
620 2404 L
620 2481 L
620 2433 L
620 2745 L
620 2922 L
620 2534 L
620 2906 L
620 3412 L
620 2554 L
620 2431 L
620 2482 L
620 3088 L
620 2745 L
620 2731 L
620 3472 L
620 3298 L
620 2365 L
620 3006 L
620 2548 L
620 2958 L
620 2954 L
620 2915 L
620 2991 L
620 2987 L
620 3233 L
620 2574 L
620 3419 L
620 3385 L
620 3086 L
620 3651 L
620 2138 L
620 2728 L
620 3263 L
620 2754 L
620 2900 L
620 2935 L
620 2916 L
620 3111 L
620 2242 L
620 3167 L
620 3388 L
620 4308 L
620 2994 L
620 4023 L
620 2510 L
620 3520 L
620 3295 L
620 2550 L
620 3241 L
620 3381 L
620 3302 L
620 2742 L
620 3297 L
620 2917 L
620 3013 L
620 3053 L
620 3273 L
620 3383 L
620 2799 L
620 2934 L
620 2909 L
620 3604 L
620 3439 L
620 2805 L
620 3439 L
620 3199 L
620 3480 L
620 3890 L
620 3670 L
620 3570 L
620 3635 L
620 3651 L
620 4035 L
620 3336 L
620 3461 L
620 3961 L
620 3726 L
620 3191 L
620 3271 L
620 3776 L
620 3121 L
620 3841 L
620 2782 L
620 3261 L
620 3632 L
620 3966 L
620 3902 L
620 3592 L
620 3537 L
620 3287 L
620 3282 L
620 3452 L
620 3272 L
620 3647 L
620 3172 L
620 3128 L
620 3098 L
620 3483 L
620 3368 L
620 3358 L
620 3502 L
620 3138 L
620 3568 L
620 3947 L
620 3753 L
620 3103 L
620 4018 L
620 4222 L
620 3698 L
620 3313 L
620 3178 L
620 3513 L
620 3508 L
620 3138 L
620 2903 L
620 3233 L
620 2843 L
620 3113 L
620 4368 L
620 3988 L
620 3583 L
620 3658 L
620 4288 L
620 4178 L
620 3613 L
620 2943 L
620 2993 L
620 4123 L
620 4293 L
620 3648 L
620 4273 L
620 3938 L
620 3128 L
620 3653 L
620 3238 L
620 3489 L
620 3839 L
620 3708 L
620 3484 L
620 4113 L
620 3394 L
620 4018 L
620 4238 L
620 3978 L
620 3789 L
620 4153 L
620 4213 L
620 4073 L
620 4368 L
620 4488 L
620 3774 L
620 4009 L
620 3728 L
620 4219 L
620 3339 L
620 3689 L
620 3704 L
620 3784 L
620 4278 L
620 3744 L
620 4108 L
620 4598 L
620 3879 L
620 3954 L
620 3874 L
620 4218 L
620 3638 L
620 3768 L
620 3889 L
620 3914 L
620 3839 L
620 3873 L
620 4183 L
620 3424 L
620 4548 L
620 4688 L
620 3698 L
620 4188 L
620 3123 L
620 3888 L
620 4503 L
620 3564 L
620 3334 L
620 3739 L
620 4113 L
620 4593 L
620 3844 L
620 3354 L
620 3814 L
620 3894 L
620 4328 L
620 3704 L
620 3828 L
620 3664 L
620 3499 L
620 4193 L
620 3918 L
620 3583 L
620 4104 L
620 3774 L
620 3978 L
620 4398 L
620 3679 L
620 3474 L
620 4248 L
620 4098 L
620 3418 L
620 3439 L
620 3803 L
620 3364 L
620 3739 L
620 3903 L
620 3719 L
620 4653 L
620 3284 L
620 4078 L
620 4073 L
620 4538 L
620 3574 L
620 3748 L
620 3598 L
620 3989 L
620 3309 L
620 3734 L
620 3563 L
620 3633 L
620 4038 L
620 3339 L
620 4213 L
620 4348 L
620 3874 L
620 3528 L
620 3328 L
620 4149 L
620 3883 L
620 4123 L
620 3229 L
620 3738 L
620 3908 L
620 3728 L
620 3909 L
620 3614 L
620 4238 L
620 3684 L
620 3958 L
620 3784 L
620 3883 L
620 3898 L
620 3754 L
620 3799 L
620 4218 L
620 3419 L
620 3673 L
620 3984 L
620 4128 L
620 3464 L
620 4178 L
620 3859 L
620 4423 L
620 3274 L
620 4238 L
620 3973 L
620 3788 L
620 3554 L
620 3813 L
620 3864 L
620 4173 L
620 4128 L
620 3249 L
620 3438 L
620 3763 L
620 3519 L
620 3864 L
620 4188 L
620 3244 L
620 3429 L
620 3454 L
620 4053 L
620 3089 L
620 3638 L
620 3374 L
620 3704 L
620 3824 L
620 3998 L
620 4118 L
620 3914 L
620 3604 L
620 4014 L
620 4013 L
620 3993 L
620 3879 L
620 3689 L
620 2994 L
620 3533 L
620 4433 L
620 4213 L
620 3728 L
620 3944 L
620 4194 L
620 3084 L
620 4043 L
620 3988 L
620 3279 L
620 3853 L
620 3144 L
620 3693 L
620 4183 L
620 4324 L
620 3558 L
620 4458 L
620 3364 L
620 3863 L
620 3823 L
620 4403 L
620 3294 L
620 4253 L
620 4183 L
620 3869 L
620 3653 L
620 3763 L
620 3664 L
620 4408 L
620 3649 L
620 3923 L
620 4249 L
620 3744 L
620 3858 L
620 3728 L
620 4468 L
620 3723 L
620 3458 L
620 4238 L
620 4023 L
620 4148 L
620 3444 L
620 4088 L
620 3993 L
620 4308 L
620 4433 L
620 4188 L
620 3803 L
620 4049 L
620 3848 L
620 4058 L
620 4743 L
620 3949 L
620 4188 L
620 3704 L
620 4149 L
620 3773 L
620 3993 L
620 3973 L
620 4098 L
620 3564 L
620 3713 L
620 3329 L
620 4139 L
620 4723 L
620 3064 L
620 4413 L
620 3854 L
620 3688 L
620 4199 L
620 4323 L
620 3778 L
620 4453 L
620 4208 L
620 3689 L
620 3954 L
620 3898 L
620 3984 L
620 4393 L
620 4163 L
620 3839 L
620 4863 L
620 3863 L
620 3919 L
620 4258 L
620 4178 L
620 3384 L
620 3954 L
620 3218 L
620 3759 L
620 4053 L
620 4228 L
620 3704 L
620 4153 L
L2 C01 COSGR

%
%================
% Legend - Begin
%================
%
GSN 4240 5180 M
4480 5180 L
LWMC SL  C01 COSGR
GSN 4540 5141 M helvM (0.5 uM) show grestore
%
%================
% Legend - End
%================
%

%
% Main frame
%
L10
GSN 
620 1700 M
4220 1700 L
4220 5300 L
620 5300 L
closepath SGR

%
% X axis: large tics
%
L10
%
% X axis: small tics
%
L5
%
% Y axis: large tics
%
L10
GSN 620 2635 M 54 0 rL SGR
GSN 4220 2635 M -54 0 rL SGR
helvS (-0.01) 560 2635 ylabel
GSN 620 3618 M 54 0 rL SGR
GSN 4220 3618 M -54 0 rL SGR
helvS (0) 560 3618 ylabel
GSN 620 4600 M 54 0 rL SGR
GSN 4220 4600 M -54 0 rL SGR
helvS (0.01) 560 4600 ylabel
%
% Y axis: small tics
%
L5
GSN 620 1898 M 36 0 rL SGR
GSN 4220 1898 M -36 0 rL SGR
GSN 620 2144 M 36 0 rL SGR
GSN 4220 2144 M -36 0 rL SGR
GSN 620 2389 M 36 0 rL SGR
GSN 4220 2389 M -36 0 rL SGR
GSN 620 2635 M 36 0 rL SGR
GSN 4220 2635 M -36 0 rL SGR
GSN 620 2881 M 36 0 rL SGR
GSN 4220 2881 M -36 0 rL SGR
GSN 620 3126 M 36 0 rL SGR
GSN 4220 3126 M -36 0 rL SGR
GSN 620 3372 M 36 0 rL SGR
GSN 4220 3372 M -36 0 rL SGR
GSN 620 3618 M 36 0 rL SGR
GSN 4220 3618 M -36 0 rL SGR
GSN 620 3863 M 36 0 rL SGR
GSN 4220 3863 M -36 0 rL SGR
GSN 620 4109 M 36 0 rL SGR
GSN 4220 4109 M -36 0 rL SGR
GSN 620 4355 M 36 0 rL SGR
GSN 4220 4355 M -36 0 rL SGR
GSN 620 4600 M 36 0 rL SGR
GSN 4220 4600 M -36 0 rL SGR
GSN 620 4846 M 36 0 rL SGR
GSN 4220 4846 M -36 0 rL SGR
GSN 620 5092 M 36 0 rL SGR
GSN 4220 5092 M -36 0 rL SGR

%
% X axis - residual panel
%
GSN L5 620 3618 M 4220 3618 L SDA G50 SGR

%
% X-Axis label:
%
gsave 620 1370 M 
[
[(Helvetica) 180 0 true true 0 (t)]
[(Helvetica) 180 0 true true 0 (i)]
[(Helvetica) 180 0 true true 0 (m)]
[(Helvetica) 180 0 true true 0 (e)]
] 0 MCshow grestore

%
% Y-Axis label:
%
gsave 234 3500 M 
currentpoint gsave translate 90 rotate 0 0 moveto
[
[(Helvetica) 180 0 true true 0 (r)]
[(Helvetica) 180 0 true true 0 (e)]
[(Helvetica) 180 0 true true 0 (s)]
[(Helvetica) 180 0 true true 0 (i)]
[(Helvetica) 180 0 true true 0 (d)]
[(Helvetica) 180 0 true true 0 (u)]
[(Helvetica) 180 0 true true 0 (a)]
[(Helvetica) 180 0 true true 0 (l)]
[(Helvetica) 180 0 true true 0 (s)]
] 0 MCshow grestore

end
showpage
%%Trailer
%%EOF
