%!PS-Adobe-3.0 EPSF-3.0
%%BoundingBox: 0 0 514 550
%%Creator: BioKin Ltd.
%%DocumentFonts: Symbol Helvetica
%%EndComments
%
/bkdict 256 dict def
bkdict begin
/M {moveto} def 
/R {rmoveto} def
/L {lineto} def
/rL {rlineto} def
/GSN {gsave newpath} def
/SGR {stroke grestore} def
/COSGR {gsave setrgbcolor stroke grestore grestore} def
/SL {setlinewidth} def
/LWMB {12} def             % line width - model curves, black & white
/LWMC {10} def             % line width - model curves, color
/L2 {2.5 setlinewidth} def
/L5 {5 setlinewidth} def
/L10 {10 setlinewidth} def
/G50 {0.5 setgray} def
/SDA {[10  20] 0 setdash} def % axes
/helvT {/Helvetica findfont 100 scalefont setfont} def % tiny
/helvS {/Helvetica findfont 125 scalefont setfont} def % small
/helvM {/Helvetica findfont 150 scalefont setfont} def % medium
/helvL {/Helvetica findfont 175 scalefont setfont} def % large
/xlabel {gsave M dup
   stringwidth exch -0.5 mul exch rmoveto show grestore} def 
/ylabel {gsave M 90 rotate dup
   stringwidth exch -0.5 mul exch rmoveto show grestore} def
/ylabelresid {gsave M dup
   stringwidth exch -1 mul exch rmoveto show grestore} def
% ======
% Shapes
% ======
% Circle:
/Circ {0 360 arc closepath} def
%
% Square:
/Squa {dup dup -0.5 mul dup dup R -2 mul 0 exch rL 1 mul 0 rL dup 0 exch -1 mul rL closepath} def
%
% Triangle Up:
/TriU {dup dup dup -0.4 mul exch -0.5 mul exch R dup 0.5 mul exch rL dup -1 mul exch 0.5 mul exch rL closepath} def 
%
% Triangle Down:
/TriD {dup dup dup 0.4 mul exch -0.5 mul exch R dup 0.5 mul exch -1 mul rL dup 0.5 mul exch rL closepath} def 
%
% Diamond:
/Diam {45 rotate Squa} def
% ======
% Fills
% ======
/GRF {gsave setgray fill grestore} def                    % gray-level Fill
/COF {gsave setrgbcolor fill grestore} def                % color fill
% ======
% Colors
% ======
/C01 {1.00	0.00	0.00} def      % Red
/C02 {0.00	0.00	1.00} def      % Blue
/C03 {0.00	0.39	0.00} def      % Dark Green
/C04 {0.78	0.08	0.52} def      % Medium Violet Red
/C05 {0.55	0.27	0.07} def      % Saddle Brown
/C06 {0.10	0.70	0.70} def      % (cyan)
/C07 {1.00	0.55	0.00} def      % Dark Orange
/C08 {0.63	0.13	0.94} def      % Purple
/C09 {0.00	0.75	1.00} def      % Deep Sky Blue
/C10 {0.20	0.80	0.20} def      % Lime Green
/C11 {0.47	0.53	0.60} def      % Light Slate Gray
/C12 {0.00	0.00	0.00} def      % Black            % or: {0.19	0.31	0.31} def      % Dark Slate Gray
%
/LGR {0.75} def % light gray
/DGR {0.33} def % dark gray
%
% =============
% Dash patterns
% =============
/dash01 { [80  20] 0 setdash } def
/dash02 { [40  20] 0 setdash } def
/dash03 { [80  20  10  20] 0 setdash } def
/dash04 { [40  20  10  20] 0 setdash } def
/dash05 { [80  20  10  10  10  20] 0 setdash } def
/dash06 { [40  20  10  10  10  20] 0 setdash } def
/dash07 { [10  10] 0 setdash } def
%
/MFshow {
   { dup 5 get 3 ge
     { 5 get 3 eq {gsave} {grestore} ifelse }
     {dup dup 0 get findfont exch 1 get scalefont setfont
     [ currentpoint ] exch dup 2 get 0 exch R dup 5 get 2 ne {dup dup 6
     get exch 4 get {show} {stringwidth pop 0 R} ifelse }if dup 5 get 0 eq
     {dup 3 get {2 get neg 0 exch R pop} {pop aload pop M} ifelse} {dup 5
     get 1 eq {dup 2 get exch dup 3 get exch 6 get stringwidth pop -2 div
     dup 0 R} {dup 6 get stringwidth pop -2 div 0 R 6 get
     show 2 index {aload pop M neg 3 -1 roll neg R pop pop} {pop pop pop
     pop aload pop M} ifelse }ifelse }ifelse }
     ifelse }
   forall} bind def
/MFwidth {0 exch {dup 3 get{dup dup 0 get findfont exch 1 get scalefont
     setfont 6 get stringwidth pop add} {pop} ifelse} forall} bind def
/MCshow { currentpoint stroke M
  exch dup MFwidth -2 div 3 -1 roll R MFshow } def
%
end
%%EndProlog
bkdict begin
0.1 0.1 scale
%
% Model curves:
%

GSN 753 5088 M
753 5088 L
786 5091 L
820 5094 L
853 5097 L
886 5101 L
903 5103 L
919 5105 L
953 5110 L
986 5115 L
1020 5120 L
1053 5127 L
1053 5127 L
1086 5133 L
1120 5140 L
1153 5146 L
1186 5153 L
1203 5156 L
1220 5159 L
1253 5163 L
1286 5166 L
1320 5166 L
1353 5162 L
1353 5162 L
1386 5154 L
1420 5138 L
1453 5115 L
1486 5083 L
1503 5062 L
1520 5040 L
1553 4986 L
1586 4919 L
1620 4839 L
1653 4748 L
1653 4746 L
1686 4645 L
1720 4531 L
1753 4408 L
1786 4277 L
1804 4206 L
1820 4139 L
1853 3997 L
1886 3852 L
1920 3705 L
1953 3560 L
1954 3556 L
1986 3418 L
2020 3280 L
2053 3149 L
2086 3027 L
2104 2966 L
2120 2914 L
2153 2812 L
2186 2723 L
2220 2645 L
2253 2580 L
2254 2578 L
2286 2527 L
2320 2485 L
2353 2454 L
2386 2433 L
2404 2424 L
2420 2418 L
2453 2409 L
2486 2405 L
2520 2402 L
2553 2401 L
2554 2401 L
2586 2401 L
2620 2401 L
2653 2401 L
2686 2401 L
2704 2401 L
2720 2401 L
2753 2401 L
2786 2401 L
2820 2401 L
2853 2401 L
2854 2401 L
2886 2401 L
2920 2401 L
2953 2401 L
2986 2401 L
3004 2401 L
3020 2401 L
3053 2401 L
3068 2401 L
3086 2401 L
3120 2401 L
3153 2401 L
3155 2401 L
3186 2401 L
3220 2401 L
3253 2401 L
3286 2401 L
3305 2401 L
3320 2401 L
3353 2401 L
3386 2401 L
3420 2401 L
3453 2401 L
3455 2401 L
3486 2401 L
3520 2401 L
3553 2401 L
3586 2401 L
3605 2401 L
3620 2401 L
3653 2401 L
3686 2401 L
3720 2401 L
3753 2401 L
3755 2401 L
3786 2401 L
3820 2401 L
3853 2401 L
3886 2401 L
3905 2401 L
3920 2401 L
3953 2401 L
3986 2401 L
4020 2401 L
4053 2401 L
4086 2401 L
LWMC SL  C04 COSGR

%
% Experimental data:
%
GSN 773 4067 M
1625 3884 L
1773 3755 L
1860 3903 L
1922 3734 L
1970 3891 L
2009 3677 L
2043 3678 L
2072 3678 L
2097 3542 L
2120 3534 L
2140 3538 L
2159 3360 L
2176 3369 L
2192 3381 L
2207 3373 L
2221 3475 L
2234 3338 L
2247 3374 L
2259 3311 L
2270 3309 L
2280 3287 L
2290 3298 L
2300 3147 L
2309 3245 L
2318 3284 L
2326 3066 L
2335 3192 L
2342 3029 L
2350 3136 L
2357 3052 L
2364 3010 L
2371 3046 L
2378 3080 L
2384 3042 L
2391 2982 L
2397 3052 L
2403 3159 L
2409 2906 L
2414 2995 L
2420 2993 L
2425 2973 L
2430 2955 L
2435 2780 L
2440 3005 L
2445 2994 L
2450 2819 L
2455 2883 L
2459 2735 L
2464 2800 L
2468 2825 L
2472 2906 L
2476 2928 L
2481 2782 L
2485 2735 L
2489 2881 L
2492 2660 L
2496 2737 L
2500 2736 L
2504 2603 L
2507 2599 L
2511 2693 L
2514 2734 L
2518 2687 L
2521 2617 L
2525 2593 L
2528 2505 L
2531 2620 L
2534 2598 L
2538 2559 L
2541 2627 L
2544 2698 L
2547 2568 L
2550 2546 L
2553 2562 L
2556 2622 L
2559 2512 L
2561 2458 L
2564 2674 L
2567 2454 L
2570 2629 L
2580 2273 L
2590 2528 L
2600 2320 L
2609 2295 L
2618 2354 L
2627 2249 L
2635 2221 L
2643 2300 L
2650 2278 L
2658 2223 L
2665 2197 L
2672 2109 L
2678 2141 L
2685 2158 L
2691 2306 L
2697 2111 L
2703 2147 L
2709 2167 L
2714 2146 L
2720 1912 L
2725 1999 L
2730 2095 L
2735 2075 L
2740 2070 L
2745 1969 L
2750 2047 L
2755 2143 L
2759 2024 L
2764 2029 L
2768 1976 L
2772 1913 L
2777 2089 L
2781 2001 L
2785 1971 L
2789 1996 L
2793 2044 L
2796 1887 L
2800 1954 L
2804 2039 L
2808 1956 L
2811 1975 L
2815 1942 L
2818 1969 L
2822 1959 L
2825 1971 L
2828 1989 L
2831 1990 L
2835 2025 L
2838 1883 L
2841 1987 L
2844 2071 L
2847 1974 L
2850 1997 L
2853 1981 L
2856 2031 L
2859 1985 L
2862 1963 L
2864 1951 L
2867 1982 L
2870 2015 L
2873 2011 L
2875 1999 L
2878 2032 L
2880 2028 L
2883 2094 L
2886 2123 L
2888 1833 L
2891 1893 L
2893 1978 L
2895 2120 L
2898 2080 L
2900 1981 L
2902 2046 L
2905 2050 L
2907 2040 L
2909 2020 L
2912 2096 L
2914 2006 L
2916 2048 L
2918 1958 L
2920 2044 L
2922 2127 L
2925 1993 L
2927 2104 L
2929 2060 L
2931 2053 L
2933 2044 L
2935 2179 L
2937 2058 L
2939 2171 L
2941 2119 L
2943 2135 L
2945 2182 L
2947 2068 L
2948 2068 L
2950 2171 L
2952 2144 L
2954 2073 L
2956 2096 L
2958 2104 L
2959 2159 L
2961 2241 L
2963 2133 L
2965 2195 L
2966 2117 L
2968 2210 L
2970 2210 L
2972 2089 L
2973 2144 L
2975 2163 L
2977 2228 L
2978 2072 L
2980 2140 L
2982 2199 L
2983 2193 L
2985 2103 L
2986 2138 L
2988 2123 L
2989 2213 L
2991 2166 L
2993 2222 L
2994 2067 L
2996 2324 L
2997 2176 L
2999 2188 L
3000 2221 L
3002 2167 L
3003 2214 L
3005 2261 L
3006 2200 L
3007 2185 L
3009 2252 L
3010 2109 L
3012 2191 L
3013 2247 L
3014 2314 L
3016 2281 L
3017 2262 L
3019 2261 L
3020 2264 L
3021 2249 L
3023 2351 L
3024 2329 L
3025 2337 L
3027 2161 L
3028 2259 L
3029 2412 L
3031 2320 L
3032 2334 L
3033 2268 L
3034 2334 L
3036 2309 L
3037 2227 L
3038 2331 L
3039 2274 L
3041 2433 L
3042 2424 L
3043 2247 L
3044 2392 L
3045 2298 L
3047 2343 L
3048 2300 L
3049 2418 L
3050 2298 L
3051 2247 L
3053 2207 L
3054 2405 L
3055 2266 L
3056 2269 L
3057 2255 L
3058 2267 L
3059 2323 L
3061 2381 L
3062 2407 L
3063 2309 L
3064 2313 L
3065 2319 L
3066 2393 L
3067 2253 L
3068 2274 L
3069 2505 L
3070 2407 L
3071 2404 L
3073 2443 L
3074 2395 L
3075 2389 L
3076 2351 L
3077 2274 L
3078 2385 L
3079 2464 L
3080 2340 L
3081 2192 L
3082 2404 L
3083 2363 L
3084 2378 L
3085 2455 L
3086 2326 L
3087 2410 L
3088 2416 L
3089 2491 L
3112 2499 L
3133 2510 L
3152 2523 L
3170 2617 L
3186 2431 L
3201 2567 L
3216 2694 L
3229 2591 L
3241 2637 L
3253 2509 L
3264 2625 L
3275 2632 L
3285 2621 L
3295 2644 L
3304 2638 L
3313 2480 L
3322 2662 L
3330 2623 L
3338 2592 L
3346 2609 L
3353 2674 L
3360 2603 L
3367 2571 L
3374 2713 L
3380 2495 L
3387 2721 L
3393 2621 L
3399 2621 L
3405 2586 L
3410 2597 L
3416 2648 L
3421 2577 L
3426 2562 L
3431 2571 L
3436 2637 L
3441 2612 L
3446 2547 L
3451 2596 L
3455 2591 L
3460 2514 L
3464 2542 L
3469 2593 L
3473 2646 L
3477 2596 L
3481 2597 L
3485 2534 L
3489 2549 L
3493 2522 L
3496 2586 L
3500 2660 L
3504 2555 L
3507 2702 L
3511 2688 L
3514 2552 L
3518 2642 L
3521 2608 L
3525 2538 L
3528 2586 L
3531 2814 L
3534 2586 L
3537 2649 L
3540 2522 L
3543 2493 L
3546 2555 L
3549 2523 L
3552 2582 L
3555 2649 L
3558 2535 L
3561 2592 L
3564 2512 L
3566 2488 L
3575 2495 L
3586 2393 L
3595 2656 L
3605 2450 L
3613 2548 L
3622 2511 L
3630 2605 L
3638 2532 L
3646 2519 L
3653 2572 L
3660 2605 L
3667 2554 L
3674 2414 L
3681 2562 L
3687 2558 L
3693 2469 L
3699 2423 L
3705 2501 L
3710 2427 L
3716 2629 L
3721 2508 L
3727 2515 L
3732 2448 L
3737 2524 L
3742 2415 L
3746 2536 L
3751 2542 L
3756 2389 L
3760 2296 L
3764 2496 L
3769 2567 L
3773 2423 L
3777 2376 L
3781 2449 L
3785 2412 L
3789 2478 L
3793 2340 L
3797 2476 L
3800 2493 L
3804 2502 L
3808 2416 L
3811 2445 L
3815 2540 L
3818 2353 L
3821 2317 L
3825 2515 L
3828 2341 L
3831 2448 L
3834 2260 L
3838 2388 L
3841 2310 L
3844 2440 L
3847 2588 L
3850 2403 L
3853 2350 L
3855 2432 L
3858 2213 L
3861 2368 L
3864 2421 L
3867 2463 L
3869 2326 L
3872 2475 L
3875 2331 L
3877 2424 L
3880 2414 L
3882 2428 L
3885 2480 L
3887 2283 L
3890 2443 L
3892 2301 L
3895 2354 L
3897 2375 L
3899 2446 L
3902 2382 L
3904 2339 L
3906 2432 L
3908 2304 L
3911 2355 L
3913 2382 L
3915 2424 L
3917 2384 L
3919 2489 L
3921 2390 L
3923 2524 L
3926 2339 L
3928 2461 L
3930 2415 L
3932 2399 L
3934 2395 L
3936 2401 L
3938 2389 L
3940 2336 L
3942 2347 L
3943 2568 L
3945 2387 L
3947 2312 L
3949 2417 L
3951 2382 L
3953 2527 L
3955 2342 L
3956 2501 L
3958 2507 L
3960 2346 L
3962 2467 L
3963 2374 L
3965 2440 L
3967 2450 L
3969 2477 L
3970 2252 L
3972 2493 L
3974 2292 L
3975 2367 L
3977 2353 L
3978 2439 L
3980 2447 L
3982 2203 L
3983 2314 L
3985 2318 L
3986 2405 L
3988 2488 L
3990 2321 L
3991 2347 L
3993 2156 L
3994 2410 L
3996 2316 L
3997 2423 L
3999 2162 L
4000 2356 L
4001 2483 L
4003 2248 L
4004 2268 L
4006 2300 L
4007 2278 L
4009 2355 L
4010 2371 L
4011 2399 L
4013 2378 L
4014 2342 L
4016 2343 L
4017 2257 L
4018 2397 L
4020 2391 L
4021 2140 L
4022 2363 L
4024 2301 L
4025 2381 L
4026 2326 L
4028 2356 L
4029 2431 L
4030 2366 L
4031 2280 L
4033 2237 L
4034 2355 L
4035 2377 L
4036 2251 L
4038 2235 L
4039 2368 L
4040 2403 L
4041 2258 L
4042 2391 L
4044 2342 L
4045 2238 L
4046 2355 L
4047 2359 L
4048 2577 L
4050 2323 L
4051 2315 L
4052 2409 L
4053 2293 L
4054 2364 L
4055 2438 L
4056 2375 L
4058 2374 L
4059 2280 L
4060 2361 L
4061 2392 L
4062 2360 L
4063 2297 L
4064 2283 L
4065 2334 L
4066 2308 L
L2 C04 COSGR

%
%================
% Legend - Begin
%================
%
GSN 4240 5180 M
4480 5180 L
LWMC SL  C04 COSGR
GSN 4540 5141 M helvM (2.0 uM) show grestore
%
%================
% Legend - End
%================
%

%
% Residuals:
%
GSN 773 750 M
1625 786 L
1773 948 L
1860 1173 L
1922 1219 L
1970 1380 L
2009 1358 L
2043 1417 L
2072 1465 L
2097 1445 L
2120 1475 L
2140 1505 L
2159 1450 L
2176 1475 L
2192 1498 L
2207 1510 L
2221 1569 L
2234 1520 L
2247 1546 L
2259 1528 L
2270 1535 L
2280 1532 L
2290 1544 L
2300 1483 L
2309 1531 L
2318 1553 L
2326 1460 L
2335 1520 L
2342 1451 L
2350 1500 L
2357 1466 L
2364 1450 L
2371 1468 L
2378 1484 L
2384 1469 L
2391 1445 L
2397 1477 L
2403 1525 L
2409 1414 L
2414 1454 L
2420 1455 L
2425 1447 L
2430 1439 L
2435 1363 L
2440 1462 L
2445 1458 L
2450 1382 L
2455 1410 L
2459 1345 L
2464 1374 L
2468 1386 L
2472 1421 L
2476 1431 L
2481 1367 L
2485 1347 L
2489 1411 L
2492 1314 L
2496 1348 L
2500 1348 L
2504 1289 L
2507 1288 L
2511 1329 L
2514 1347 L
2518 1327 L
2521 1296 L
2525 1286 L
2528 1247 L
2531 1298 L
2534 1288 L
2538 1270 L
2541 1300 L
2544 1332 L
2547 1275 L
2550 1265 L
2553 1272 L
2556 1298 L
2559 1250 L
2561 1226 L
2564 1321 L
2567 1225 L
2570 1302 L
2580 1145 L
2590 1257 L
2600 1166 L
2609 1155 L
2618 1181 L
2627 1134 L
2635 1122 L
2643 1157 L
2650 1147 L
2658 1123 L
2665 1111 L
2672 1072 L
2678 1087 L
2685 1094 L
2691 1160 L
2697 1074 L
2703 1090 L
2709 1098 L
2714 1089 L
2720 986 L
2725 1024 L
2730 1067 L
2735 1058 L
2740 1056 L
2745 1011 L
2750 1045 L
2755 1088 L
2759 1035 L
2764 1037 L
2768 1014 L
2772 986 L
2777 1064 L
2781 1025 L
2785 1012 L
2789 1023 L
2793 1044 L
2796 975 L
2800 1004 L
2804 1042 L
2808 1005 L
2811 1013 L
2815 999 L
2818 1011 L
2822 1007 L
2825 1012 L
2828 1020 L
2831 1020 L
2835 1036 L
2838 973 L
2841 1019 L
2844 1056 L
2847 1013 L
2850 1023 L
2853 1016 L
2856 1038 L
2859 1018 L
2862 1009 L
2864 1003 L
2867 1017 L
2870 1031 L
2873 1030 L
2875 1024 L
2878 1039 L
2880 1037 L
2883 1066 L
2886 1079 L
2888 951 L
2891 977 L
2893 1015 L
2895 1077 L
2898 1060 L
2900 1016 L
2902 1045 L
2905 1047 L
2907 1042 L
2909 1034 L
2912 1067 L
2914 1027 L
2916 1046 L
2918 1006 L
2920 1044 L
2922 1081 L
2925 1021 L
2927 1071 L
2929 1051 L
2931 1048 L
2933 1044 L
2935 1104 L
2937 1050 L
2939 1100 L
2941 1077 L
2943 1084 L
2945 1105 L
2947 1055 L
2948 1055 L
2950 1100 L
2952 1088 L
2954 1057 L
2956 1067 L
2958 1070 L
2959 1095 L
2961 1131 L
2963 1083 L
2965 1111 L
2966 1076 L
2968 1117 L
2970 1117 L
2972 1064 L
2973 1088 L
2975 1097 L
2977 1125 L
2978 1056 L
2980 1086 L
2982 1112 L
2983 1110 L
2985 1070 L
2986 1085 L
2988 1079 L
2989 1118 L
2991 1098 L
2993 1122 L
2994 1054 L
2996 1168 L
2997 1102 L
2999 1107 L
3000 1122 L
3002 1098 L
3003 1119 L
3005 1139 L
3006 1113 L
3007 1106 L
3009 1136 L
3010 1073 L
3012 1109 L
3013 1134 L
3014 1163 L
3016 1149 L
3017 1140 L
3019 1139 L
3020 1141 L
3021 1134 L
3023 1179 L
3024 1169 L
3025 1173 L
3027 1095 L
3028 1139 L
3029 1206 L
3031 1165 L
3032 1172 L
3033 1143 L
3034 1172 L
3036 1161 L
3037 1125 L
3038 1170 L
3039 1146 L
3041 1215 L
3042 1211 L
3043 1134 L
3044 1198 L
3045 1156 L
3047 1176 L
3048 1157 L
3049 1209 L
3050 1156 L
3051 1133 L
3053 1116 L
3054 1203 L
3055 1142 L
3056 1143 L
3057 1137 L
3058 1142 L
3059 1167 L
3061 1192 L
3062 1204 L
3063 1161 L
3064 1163 L
3065 1165 L
3066 1198 L
3067 1136 L
3068 1146 L
3069 1247 L
3070 1204 L
3071 1203 L
3073 1220 L
3074 1199 L
3075 1196 L
3076 1179 L
3077 1146 L
3078 1194 L
3079 1229 L
3080 1175 L
3081 1109 L
3082 1202 L
3083 1185 L
3084 1191 L
3085 1225 L
3086 1168 L
3087 1205 L
3088 1208 L
3089 1241 L
3112 1245 L
3133 1249 L
3152 1255 L
3170 1297 L
3186 1215 L
3201 1274 L
3216 1331 L
3229 1285 L
3241 1305 L
3253 1249 L
3264 1300 L
3275 1303 L
3285 1298 L
3295 1308 L
3304 1306 L
3313 1236 L
3322 1316 L
3330 1299 L
3338 1285 L
3346 1293 L
3353 1322 L
3360 1290 L
3367 1276 L
3374 1339 L
3380 1243 L
3387 1343 L
3393 1298 L
3399 1298 L
3405 1283 L
3410 1288 L
3416 1310 L
3421 1279 L
3426 1272 L
3431 1276 L
3436 1305 L
3441 1294 L
3446 1266 L
3451 1287 L
3455 1285 L
3460 1251 L
3464 1264 L
3469 1286 L
3473 1309 L
3477 1287 L
3481 1287 L
3485 1260 L
3489 1267 L
3493 1255 L
3496 1283 L
3500 1315 L
3504 1269 L
3507 1334 L
3511 1328 L
3514 1268 L
3518 1307 L
3521 1293 L
3525 1261 L
3528 1283 L
3531 1383 L
3534 1283 L
3537 1311 L
3540 1255 L
3543 1242 L
3546 1269 L
3549 1255 L
3552 1281 L
3555 1311 L
3558 1261 L
3561 1286 L
3564 1250 L
3566 1240 L
3575 1243 L
3586 1198 L
3595 1314 L
3605 1223 L
3613 1266 L
3622 1250 L
3630 1291 L
3638 1259 L
3646 1253 L
3653 1277 L
3660 1291 L
3667 1269 L
3674 1207 L
3681 1272 L
3687 1271 L
3693 1231 L
3699 1211 L
3705 1245 L
3710 1213 L
3716 1302 L
3721 1248 L
3727 1252 L
3732 1222 L
3737 1255 L
3742 1208 L
3746 1261 L
3751 1263 L
3756 1196 L
3760 1155 L
3764 1243 L
3769 1274 L
3773 1211 L
3777 1190 L
3781 1222 L
3785 1206 L
3789 1235 L
3793 1174 L
3797 1235 L
3800 1242 L
3804 1246 L
3808 1208 L
3811 1221 L
3815 1262 L
3818 1180 L
3821 1164 L
3825 1251 L
3828 1175 L
3831 1222 L
3834 1139 L
3838 1195 L
3841 1161 L
3844 1218 L
3847 1284 L
3850 1202 L
3853 1179 L
3855 1215 L
3858 1119 L
3861 1187 L
3864 1210 L
3867 1229 L
3869 1168 L
3872 1234 L
3875 1170 L
3877 1211 L
3880 1207 L
3882 1213 L
3885 1236 L
3887 1149 L
3890 1220 L
3892 1157 L
3895 1181 L
3897 1190 L
3899 1221 L
3902 1193 L
3904 1174 L
3906 1215 L
3908 1159 L
3911 1181 L
3913 1193 L
3915 1211 L
3917 1194 L
3919 1240 L
3921 1196 L
3923 1255 L
3926 1174 L
3928 1228 L
3930 1207 L
3932 1201 L
3934 1199 L
3936 1201 L
3938 1196 L
3940 1173 L
3942 1178 L
3943 1275 L
3945 1195 L
3947 1162 L
3949 1209 L
3951 1193 L
3953 1257 L
3955 1175 L
3956 1245 L
3958 1248 L
3960 1177 L
3962 1230 L
3963 1190 L
3965 1218 L
3967 1223 L
3969 1235 L
3970 1136 L
3972 1242 L
3974 1153 L
3975 1186 L
3977 1180 L
3978 1218 L
3980 1222 L
3982 1114 L
3983 1163 L
3985 1165 L
3986 1203 L
3988 1240 L
3990 1166 L
3991 1178 L
3993 1093 L
3994 1205 L
3996 1164 L
3997 1211 L
3999 1096 L
4000 1182 L
4001 1237 L
4003 1134 L
4004 1143 L
4006 1157 L
4007 1147 L
4009 1181 L
4010 1188 L
4011 1200 L
4013 1191 L
4014 1175 L
4016 1176 L
4017 1138 L
4018 1200 L
4020 1197 L
4021 1086 L
4022 1185 L
4024 1157 L
4025 1192 L
4026 1168 L
4028 1181 L
4029 1215 L
4030 1186 L
4031 1148 L
4033 1129 L
4034 1181 L
4035 1191 L
4036 1135 L
4038 1128 L
4039 1187 L
4040 1202 L
4041 1138 L
4042 1197 L
4044 1175 L
4045 1130 L
4046 1181 L
4047 1183 L
4048 1279 L
4050 1167 L
4051 1164 L
4052 1205 L
4053 1154 L
4054 1185 L
4055 1217 L
4056 1190 L
4058 1190 L
4059 1148 L
4060 1184 L
4061 1197 L
4062 1183 L
4063 1155 L
4064 1149 L
4065 1172 L
4066 1161 L
L2 C04 COSGR

%
% Main frame
%
L10
GSN 
620 1700 M
4220 1700 L
4220 5300 L
620 5300 L
closepath SGR

%
% X axis: large tics
%
L10
GSN 1074 1700 M 0  54 rL SGR
GSN 1074 5300 M 0 -54 rL SGR
helvS (0.0001) 1074 470 xlabel
GSN 1572 1700 M 0  54 rL SGR
GSN 1572 5300 M 0 -54 rL SGR
helvS (0.001) 1572 470 xlabel
GSN 2071 1700 M 0  54 rL SGR
GSN 2071 5300 M 0 -54 rL SGR
helvS (0.01) 2071 470 xlabel
GSN 2570 1700 M 0  54 rL SGR
GSN 2570 5300 M 0 -54 rL SGR
helvS (0.1) 2570 470 xlabel
GSN 3068 1700 M 0  54 rL SGR
GSN 3068 5300 M 0 -54 rL SGR
helvS (1) 3068 470 xlabel
GSN 3567 1700 M 0  54 rL SGR
GSN 3567 5300 M 0 -54 rL SGR
helvS (10) 3567 470 xlabel
GSN 4066 1700 M 0  54 rL SGR
GSN 4066 5300 M 0 -54 rL SGR
helvS (100) 4066 470 xlabel
%
% X axis: small tics
%
L5
GSN 725 1700 M 0  36 rL SGR
GSN 725 5300 M 0 -36 rL SGR
GSN 813 1700 M 0  36 rL SGR
GSN 813 5300 M 0 -36 rL SGR
GSN 875 1700 M 0  36 rL SGR
GSN 875 5300 M 0 -36 rL SGR
GSN 924 1700 M 0  36 rL SGR
GSN 924 5300 M 0 -36 rL SGR
GSN 963 1700 M 0  36 rL SGR
GSN 963 5300 M 0 -36 rL SGR
GSN 996 1700 M 0  36 rL SGR
GSN 996 5300 M 0 -36 rL SGR
GSN 1025 1700 M 0  36 rL SGR
GSN 1025 5300 M 0 -36 rL SGR
GSN 1051 1700 M 0  36 rL SGR
GSN 1051 5300 M 0 -36 rL SGR
GSN 1224 1700 M 0  36 rL SGR
GSN 1224 5300 M 0 -36 rL SGR
GSN 1312 1700 M 0  36 rL SGR
GSN 1312 5300 M 0 -36 rL SGR
GSN 1374 1700 M 0  36 rL SGR
GSN 1374 5300 M 0 -36 rL SGR
GSN 1422 1700 M 0  36 rL SGR
GSN 1422 5300 M 0 -36 rL SGR
GSN 1462 1700 M 0  36 rL SGR
GSN 1462 5300 M 0 -36 rL SGR
GSN 1495 1700 M 0  36 rL SGR
GSN 1495 5300 M 0 -36 rL SGR
GSN 1524 1700 M 0  36 rL SGR
GSN 1524 5300 M 0 -36 rL SGR
GSN 1550 1700 M 0  36 rL SGR
GSN 1550 5300 M 0 -36 rL SGR
GSN 1722 1700 M 0  36 rL SGR
GSN 1722 5300 M 0 -36 rL SGR
GSN 1810 1700 M 0  36 rL SGR
GSN 1810 5300 M 0 -36 rL SGR
GSN 1873 1700 M 0  36 rL SGR
GSN 1873 5300 M 0 -36 rL SGR
GSN 1921 1700 M 0  36 rL SGR
GSN 1921 5300 M 0 -36 rL SGR
GSN 1960 1700 M 0  36 rL SGR
GSN 1960 5300 M 0 -36 rL SGR
GSN 1994 1700 M 0  36 rL SGR
GSN 1994 5300 M 0 -36 rL SGR
GSN 2023 1700 M 0  36 rL SGR
GSN 2023 5300 M 0 -36 rL SGR
GSN 2048 1700 M 0  36 rL SGR
GSN 2048 5300 M 0 -36 rL SGR
GSN 2221 1700 M 0  36 rL SGR
GSN 2221 5300 M 0 -36 rL SGR
GSN 2309 1700 M 0  36 rL SGR
GSN 2309 5300 M 0 -36 rL SGR
GSN 2371 1700 M 0  36 rL SGR
GSN 2371 5300 M 0 -36 rL SGR
GSN 2420 1700 M 0  36 rL SGR
GSN 2420 5300 M 0 -36 rL SGR
GSN 2459 1700 M 0  36 rL SGR
GSN 2459 5300 M 0 -36 rL SGR
GSN 2492 1700 M 0  36 rL SGR
GSN 2492 5300 M 0 -36 rL SGR
GSN 2521 1700 M 0  36 rL SGR
GSN 2521 5300 M 0 -36 rL SGR
GSN 2547 1700 M 0  36 rL SGR
GSN 2547 5300 M 0 -36 rL SGR
GSN 2720 1700 M 0  36 rL SGR
GSN 2720 5300 M 0 -36 rL SGR
GSN 2808 1700 M 0  36 rL SGR
GSN 2808 5300 M 0 -36 rL SGR
GSN 2870 1700 M 0  36 rL SGR
GSN 2870 5300 M 0 -36 rL SGR
GSN 2918 1700 M 0  36 rL SGR
GSN 2918 5300 M 0 -36 rL SGR
GSN 2958 1700 M 0  36 rL SGR
GSN 2958 5300 M 0 -36 rL SGR
GSN 2991 1700 M 0  36 rL SGR
GSN 2991 5300 M 0 -36 rL SGR
GSN 3020 1700 M 0  36 rL SGR
GSN 3020 5300 M 0 -36 rL SGR
GSN 3045 1700 M 0  36 rL SGR
GSN 3045 5300 M 0 -36 rL SGR
GSN 3218 1700 M 0  36 rL SGR
GSN 3218 5300 M 0 -36 rL SGR
GSN 3306 1700 M 0  36 rL SGR
GSN 3306 5300 M 0 -36 rL SGR
GSN 3368 1700 M 0  36 rL SGR
GSN 3368 5300 M 0 -36 rL SGR
GSN 3417 1700 M 0  36 rL SGR
GSN 3417 5300 M 0 -36 rL SGR
GSN 3456 1700 M 0  36 rL SGR
GSN 3456 5300 M 0 -36 rL SGR
GSN 3490 1700 M 0  36 rL SGR
GSN 3490 5300 M 0 -36 rL SGR
GSN 3519 1700 M 0  36 rL SGR
GSN 3519 5300 M 0 -36 rL SGR
GSN 3544 1700 M 0  36 rL SGR
GSN 3544 5300 M 0 -36 rL SGR
GSN 3717 1700 M 0  36 rL SGR
GSN 3717 5300 M 0 -36 rL SGR
GSN 3805 1700 M 0  36 rL SGR
GSN 3805 5300 M 0 -36 rL SGR
GSN 3867 1700 M 0  36 rL SGR
GSN 3867 5300 M 0 -36 rL SGR
GSN 3915 1700 M 0  36 rL SGR
GSN 3915 5300 M 0 -36 rL SGR
GSN 3955 1700 M 0  36 rL SGR
GSN 3955 5300 M 0 -36 rL SGR
GSN 3988 1700 M 0  36 rL SGR
GSN 3988 5300 M 0 -36 rL SGR
GSN 4017 1700 M 0  36 rL SGR
GSN 4017 5300 M 0 -36 rL SGR
GSN 4043 1700 M 0  36 rL SGR
GSN 4043 5300 M 0 -36 rL SGR
GSN 4216 1700 M 0  36 rL SGR
GSN 4216 5300 M 0 -36 rL SGR
%
% Y axis: large tics
%
L10
GSN 620 2137 M 54 0 rL SGR
GSN 4220 2137 M -54 0 rL SGR
helvS (1) 560 2137 ylabel
GSN 620 3495 M 54 0 rL SGR
GSN 4220 3495 M -54 0 rL SGR
helvS (1.05) 560 3495 ylabel
GSN 620 4854 M 54 0 rL SGR
GSN 4220 4854 M -54 0 rL SGR
helvS (1.1) 560 4854 ylabel
%
% Y axis: small tics
%
L5
GSN 620 1865 M 36 0 rL SGR
GSN 4220 1865 M -36 0 rL SGR
GSN 620 2137 M 36 0 rL SGR
GSN 4220 2137 M -36 0 rL SGR
GSN 620 2409 M 36 0 rL SGR
GSN 4220 2409 M -36 0 rL SGR
GSN 620 2680 M 36 0 rL SGR
GSN 4220 2680 M -36 0 rL SGR
GSN 620 2952 M 36 0 rL SGR
GSN 4220 2952 M -36 0 rL SGR
GSN 620 3224 M 36 0 rL SGR
GSN 4220 3224 M -36 0 rL SGR
GSN 620 3495 M 36 0 rL SGR
GSN 4220 3495 M -36 0 rL SGR
GSN 620 3767 M 36 0 rL SGR
GSN 4220 3767 M -36 0 rL SGR
GSN 620 4039 M 36 0 rL SGR
GSN 4220 4039 M -36 0 rL SGR
GSN 620 4310 M 36 0 rL SGR
GSN 4220 4310 M -36 0 rL SGR
GSN 620 4582 M 36 0 rL SGR
GSN 4220 4582 M -36 0 rL SGR
GSN 620 4854 M 36 0 rL SGR
GSN 4220 4854 M -36 0 rL SGR
GSN 620 5125 M 36 0 rL SGR
GSN 4220 5125 M -36 0 rL SGR

%
% X-Axis label:
%
gsave 2420 290 M 
[
[(Helvetica) 180 0 true true 0 (t)]
[(Helvetica) 180 0 true true 0 (i)]
[(Helvetica) 180 0 true true 0 (m)]
[(Helvetica) 180 0 true true 0 (e)]
] 0 MCshow grestore

%
% Y-Axis label:
%
gsave 234 3499 M 
currentpoint gsave translate 90 rotate 0 0 moveto
[
[(Helvetica) 180 0 true true 0 (s)]
[(Helvetica) 180 0 true true 0 (i)]
[(Helvetica) 180 0 true true 0 (g)]
[(Helvetica) 180 0 true true 0 (n)]
[(Helvetica) 180 0 true true 0 (a)]
[(Helvetica) 180 0 true true 0 (l)]
] 0 MCshow grestore

%
% Residuals:
%
gsave 129 1160 M 
currentpoint gsave translate 90 rotate 0 0 moveto
[
[(Helvetica) 150 0 true true 0 (r)]
[(Helvetica) 150 0 true true 0 (e)]
[(Helvetica) 150 0 true true 0 (s)]
[(Helvetica) 150 0 true true 0 (i)]
[(Helvetica) 150 0 true true 0 (d)]
[(Helvetica) 150 0 true true 0 (u)]
[(Helvetica) 150 0 true true 0 (a)]
[(Helvetica) 150 0 true true 0 (l)]
[(Helvetica) 150 0 true true 0 (s)]
] 0 MCshow grestore

%
% Residual frame
%
L10
GSN 
620 620 M
4220 620 L
4220 1700 L
620 1700 L
closepath SGR
%
% X axis: large tics - residual frame
%
L10
GSN 1074 620 M 0  54 rL SGR
GSN 1074 1700 M 0 -54 rL SGR
GSN 1572 620 M 0  54 rL SGR
GSN 1572 1700 M 0 -54 rL SGR
GSN 2071 620 M 0  54 rL SGR
GSN 2071 1700 M 0 -54 rL SGR
GSN 2570 620 M 0  54 rL SGR
GSN 2570 1700 M 0 -54 rL SGR
GSN 3068 620 M 0  54 rL SGR
GSN 3068 1700 M 0 -54 rL SGR
GSN 3567 620 M 0  54 rL SGR
GSN 3567 1700 M 0 -54 rL SGR
GSN 4066 620 M 0  54 rL SGR
GSN 4066 1700 M 0 -54 rL SGR
%
% X axis: small tics - residual frame
%
L5
GSN 725 620 M 0  36 rL SGR
GSN 725 1700 M 0 -36 rL SGR
GSN 813 620 M 0  36 rL SGR
GSN 813 1700 M 0 -36 rL SGR
GSN 875 620 M 0  36 rL SGR
GSN 875 1700 M 0 -36 rL SGR
GSN 924 620 M 0  36 rL SGR
GSN 924 1700 M 0 -36 rL SGR
GSN 963 620 M 0  36 rL SGR
GSN 963 1700 M 0 -36 rL SGR
GSN 996 620 M 0  36 rL SGR
GSN 996 1700 M 0 -36 rL SGR
GSN 1025 620 M 0  36 rL SGR
GSN 1025 1700 M 0 -36 rL SGR
GSN 1051 620 M 0  36 rL SGR
GSN 1051 1700 M 0 -36 rL SGR
GSN 1224 620 M 0  36 rL SGR
GSN 1224 1700 M 0 -36 rL SGR
GSN 1312 620 M 0  36 rL SGR
GSN 1312 1700 M 0 -36 rL SGR
GSN 1374 620 M 0  36 rL SGR
GSN 1374 1700 M 0 -36 rL SGR
GSN 1422 620 M 0  36 rL SGR
GSN 1422 1700 M 0 -36 rL SGR
GSN 1462 620 M 0  36 rL SGR
GSN 1462 1700 M 0 -36 rL SGR
GSN 1495 620 M 0  36 rL SGR
GSN 1495 1700 M 0 -36 rL SGR
GSN 1524 620 M 0  36 rL SGR
GSN 1524 1700 M 0 -36 rL SGR
GSN 1550 620 M 0  36 rL SGR
GSN 1550 1700 M 0 -36 rL SGR
GSN 1722 620 M 0  36 rL SGR
GSN 1722 1700 M 0 -36 rL SGR
GSN 1810 620 M 0  36 rL SGR
GSN 1810 1700 M 0 -36 rL SGR
GSN 1873 620 M 0  36 rL SGR
GSN 1873 1700 M 0 -36 rL SGR
GSN 1921 620 M 0  36 rL SGR
GSN 1921 1700 M 0 -36 rL SGR
GSN 1960 620 M 0  36 rL SGR
GSN 1960 1700 M 0 -36 rL SGR
GSN 1994 620 M 0  36 rL SGR
GSN 1994 1700 M 0 -36 rL SGR
GSN 2023 620 M 0  36 rL SGR
GSN 2023 1700 M 0 -36 rL SGR
GSN 2048 620 M 0  36 rL SGR
GSN 2048 1700 M 0 -36 rL SGR
GSN 2221 620 M 0  36 rL SGR
GSN 2221 1700 M 0 -36 rL SGR
GSN 2309 620 M 0  36 rL SGR
GSN 2309 1700 M 0 -36 rL SGR
GSN 2371 620 M 0  36 rL SGR
GSN 2371 1700 M 0 -36 rL SGR
GSN 2420 620 M 0  36 rL SGR
GSN 2420 1700 M 0 -36 rL SGR
GSN 2459 620 M 0  36 rL SGR
GSN 2459 1700 M 0 -36 rL SGR
GSN 2492 620 M 0  36 rL SGR
GSN 2492 1700 M 0 -36 rL SGR
GSN 2521 620 M 0  36 rL SGR
GSN 2521 1700 M 0 -36 rL SGR
GSN 2547 620 M 0  36 rL SGR
GSN 2547 1700 M 0 -36 rL SGR
GSN 2720 620 M 0  36 rL SGR
GSN 2720 1700 M 0 -36 rL SGR
GSN 2808 620 M 0  36 rL SGR
GSN 2808 1700 M 0 -36 rL SGR
GSN 2870 620 M 0  36 rL SGR
GSN 2870 1700 M 0 -36 rL SGR
GSN 2918 620 M 0  36 rL SGR
GSN 2918 1700 M 0 -36 rL SGR
GSN 2958 620 M 0  36 rL SGR
GSN 2958 1700 M 0 -36 rL SGR
GSN 2991 620 M 0  36 rL SGR
GSN 2991 1700 M 0 -36 rL SGR
GSN 3020 620 M 0  36 rL SGR
GSN 3020 1700 M 0 -36 rL SGR
GSN 3045 620 M 0  36 rL SGR
GSN 3045 1700 M 0 -36 rL SGR
GSN 3218 620 M 0  36 rL SGR
GSN 3218 1700 M 0 -36 rL SGR
GSN 3306 620 M 0  36 rL SGR
GSN 3306 1700 M 0 -36 rL SGR
GSN 3368 620 M 0  36 rL SGR
GSN 3368 1700 M 0 -36 rL SGR
GSN 3417 620 M 0  36 rL SGR
GSN 3417 1700 M 0 -36 rL SGR
GSN 3456 620 M 0  36 rL SGR
GSN 3456 1700 M 0 -36 rL SGR
GSN 3490 620 M 0  36 rL SGR
GSN 3490 1700 M 0 -36 rL SGR
GSN 3519 620 M 0  36 rL SGR
GSN 3519 1700 M 0 -36 rL SGR
GSN 3544 620 M 0  36 rL SGR
GSN 3544 1700 M 0 -36 rL SGR
GSN 3717 620 M 0  36 rL SGR
GSN 3717 1700 M 0 -36 rL SGR
GSN 3805 620 M 0  36 rL SGR
GSN 3805 1700 M 0 -36 rL SGR
GSN 3867 620 M 0  36 rL SGR
GSN 3867 1700 M 0 -36 rL SGR
GSN 3915 620 M 0  36 rL SGR
GSN 3915 1700 M 0 -36 rL SGR
GSN 3955 620 M 0  36 rL SGR
GSN 3955 1700 M 0 -36 rL SGR
GSN 3988 620 M 0  36 rL SGR
GSN 3988 1700 M 0 -36 rL SGR
GSN 4017 620 M 0  36 rL SGR
GSN 4017 1700 M 0 -36 rL SGR
GSN 4043 620 M 0  36 rL SGR
GSN 4043 1700 M 0 -36 rL SGR
GSN 4216 620 M 0  36 rL SGR
GSN 4216 1700 M 0 -36 rL SGR
%
% Y axis: large tics - residual frame
%
L10
GSN 620 722 M 54 0 rL SGR
GSN 4220 722 M -54 0 rL SGR
helvS (-0.04) 560 722 ylabelresid
GSN 620 962 M 54 0 rL SGR
GSN 4220 962 M -54 0 rL SGR
helvS (-0.02) 560 962 ylabelresid
GSN 620 1201 M 54 0 rL SGR
GSN 4220 1201 M -54 0 rL SGR
helvS (0) 560 1201 ylabelresid
GSN 620 1441 M 54 0 rL SGR
GSN 4220 1441 M -54 0 rL SGR
helvS (0.02) 560 1441 ylabelresid
GSN 620 1680 M 54 0 rL SGR
GSN 4220 1680 M -54 0 rL SGR
helvS (0.04) 560 1680 ylabelresid

%
% X axis - residual panel
%
GSN L5 620 1201 M 4220 1201 L SDA G50 SGR

end
showpage
%%Trailer
%%EOF
