%!PS-Adobe-3.0 EPSF-3.0
%%BoundingBox: 0 0 514 442
%%Creator: BioKin Ltd.
%%DocumentFonts: Symbol Helvetica
%%EndComments
%
/bkdict 256 dict def
bkdict begin
/M {moveto} def 
/R {rmoveto} def
/L {lineto} def
/rL {rlineto} def
/GSN {gsave newpath} def
/SGR {stroke grestore} def
/COSGR {gsave setrgbcolor stroke grestore grestore} def
/SL {setlinewidth} def
/LWMB {12} def             % line width - model curves, black & white
/LWMC {10} def             % line width - model curves, color
/L2 {2.5 setlinewidth} def
/L5 {5 setlinewidth} def
/L10 {10 setlinewidth} def
/G50 {0.5 setgray} def
/SDA {[10  20] 0 setdash} def % axes
/helvT {/Helvetica findfont 100 scalefont setfont} def % tiny
/helvS {/Helvetica findfont 125 scalefont setfont} def % small
/helvM {/Helvetica findfont 150 scalefont setfont} def % medium
/helvL {/Helvetica findfont 175 scalefont setfont} def % large
/xlabel {gsave M dup
   stringwidth exch -0.5 mul exch rmoveto show grestore} def 
/ylabel {gsave M 90 rotate dup
   stringwidth exch -0.5 mul exch rmoveto show grestore} def
/ylabelresid {gsave M dup
   stringwidth exch -1 mul exch rmoveto show grestore} def
% ======
% Shapes
% ======
% Circle:
/Circ {0 360 arc closepath} def
%
% Square:
/Squa {dup dup -0.5 mul dup dup R -2 mul 0 exch rL 1 mul 0 rL dup 0 exch -1 mul rL closepath} def
%
% Triangle Up:
/TriU {dup dup dup -0.4 mul exch -0.5 mul exch R dup 0.5 mul exch rL dup -1 mul exch 0.5 mul exch rL closepath} def 
%
% Triangle Down:
/TriD {dup dup dup 0.4 mul exch -0.5 mul exch R dup 0.5 mul exch -1 mul rL dup 0.5 mul exch rL closepath} def 
%
% Diamond:
/Diam {45 rotate Squa} def
% ======
% Fills
% ======
/GRF {gsave setgray fill grestore} def                    % gray-level Fill
/COF {gsave setrgbcolor fill grestore} def                % color fill
% ======
% Colors
% ======
/C01 {1.00	0.00	0.00} def      % Red
/C02 {0.00	0.00	1.00} def      % Blue
/C03 {0.00	0.39	0.00} def      % Dark Green
/C04 {0.78	0.08	0.52} def      % Medium Violet Red
/C05 {0.55	0.27	0.07} def      % Saddle Brown
/C06 {0.10	0.70	0.70} def      % (cyan)
/C07 {1.00	0.55	0.00} def      % Dark Orange
/C08 {0.63	0.13	0.94} def      % Purple
/C09 {0.00	0.75	1.00} def      % Deep Sky Blue
/C10 {0.20	0.80	0.20} def      % Lime Green
/C11 {0.47	0.53	0.60} def      % Light Slate Gray
/C12 {0.00	0.00	0.00} def      % Black            % or: {0.19	0.31	0.31} def      % Dark Slate Gray
%
/LGR {0.75} def % light gray
/DGR {0.33} def % dark gray
%
% =============
% Dash patterns
% =============
/dash01 { [80  20] 0 setdash } def
/dash02 { [40  20] 0 setdash } def
/dash03 { [80  20  10  20] 0 setdash } def
/dash04 { [40  20  10  20] 0 setdash } def
/dash05 { [80  20  10  10  10  20] 0 setdash } def
/dash06 { [40  20  10  10  10  20] 0 setdash } def
/dash07 { [10  10] 0 setdash } def
%
/MFshow {
   { dup 5 get 3 ge
     { 5 get 3 eq {gsave} {grestore} ifelse }
     {dup dup 0 get findfont exch 1 get scalefont setfont
     [ currentpoint ] exch dup 2 get 0 exch R dup 5 get 2 ne {dup dup 6
     get exch 4 get {show} {stringwidth pop 0 R} ifelse }if dup 5 get 0 eq
     {dup 3 get {2 get neg 0 exch R pop} {pop aload pop M} ifelse} {dup 5
     get 1 eq {dup 2 get exch dup 3 get exch 6 get stringwidth pop -2 div
     dup 0 R} {dup 6 get stringwidth pop -2 div 0 R 6 get
     show 2 index {aload pop M neg 3 -1 roll neg R pop pop} {pop pop pop
     pop aload pop M} ifelse }ifelse }ifelse }
     ifelse }
   forall} bind def
/MFwidth {0 exch {dup 3 get{dup dup 0 get findfont exch 1 get scalefont
     setfont 6 get stringwidth pop add} {pop} ifelse} forall} bind def
/MCshow { currentpoint stroke M
  exch dup MFwidth -2 div 3 -1 roll R MFshow } def
%
end
%%EndProlog
bkdict begin
0.1 0.1 scale
%
% Model curves:
%

GSN 753 1035 M
770 1035 L
803 2453 L
837 3287 L
870 3726 L
895 3930 L
911 3981 L
937 4011 L
970 4038 L
1003 4046 L
1037 4047 L
1053 4048 L
1070 4048 L
1103 4048 L
1137 4048 L
1170 4048 L
1195 4048 L
1211 4048 L
1237 4048 L
1270 4048 L
1303 4048 L
1337 4048 L
1353 4048 L
1370 4048 L
1403 4048 L
1437 4048 L
1470 4048 L
1495 4048 L
1512 4048 L
1537 4048 L
1570 4048 L
1603 4048 L
1637 4048 L
1653 4049 L
1670 4049 L
1703 4049 L
1737 4049 L
1770 4049 L
1795 4049 L
1812 4049 L
1837 4050 L
1870 4050 L
1903 4050 L
1937 4051 L
1953 4051 L
1971 4051 L
2003 4052 L
2037 4053 L
2070 4053 L
2095 4054 L
2112 4055 L
2137 4055 L
2170 4056 L
2203 4058 L
2237 4059 L
2253 4061 L
2271 4061 L
2303 4062 L
2337 4064 L
2370 4066 L
2395 4068 L
2412 4069 L
2437 4070 L
2470 4072 L
2503 4074 L
2537 4076 L
2553 4078 L
2571 4078 L
2603 4079 L
2637 4081 L
2670 4082 L
2695 4083 L
2712 4084 L
2737 4084 L
2770 4085 L
2803 4085 L
2837 4086 L
2854 4086 L
2871 4086 L
2903 4086 L
2937 4086 L
2970 4086 L
2995 4086 L
3012 4086 L
3037 4086 L
3061 4086 L
3077 4086 L
3103 4086 L
3137 4086 L
3154 4086 L
3171 4086 L
3203 4086 L
3237 4086 L
3270 4086 L
3296 4086 L
3312 4086 L
3337 4086 L
3370 4086 L
3403 4086 L
3437 4086 L
3454 4086 L
3471 4086 L
3503 4086 L
3537 4086 L
3570 4086 L
3596 4086 L
3612 4086 L
3637 4086 L
3670 4086 L
3703 4086 L
3737 4086 L
3754 4086 L
3771 4086 L
3803 4086 L
3837 4086 L
3870 4086 L
3896 4086 L
3912 4086 L
3937 4086 L
3970 4086 L
4003 4086 L
4037 4086 L
4070 4086 L
LWMC SL dash01 C01 COSGR

GSN 753 753 M
770 753 L
803 2417 L
837 3321 L
870 3756 L
895 3937 L
911 3978 L
937 4001 L
970 4019 L
1003 4024 L
1037 4024 L
1053 4024 L
1070 4024 L
1103 4025 L
1137 4025 L
1170 4025 L
1195 4025 L
1211 4025 L
1237 4025 L
1270 4025 L
1303 4025 L
1337 4025 L
1353 4025 L
1370 4025 L
1403 4025 L
1437 4025 L
1470 4025 L
1495 4025 L
1512 4025 L
1537 4025 L
1570 4025 L
1603 4026 L
1637 4026 L
1653 4026 L
1670 4026 L
1703 4026 L
1737 4027 L
1770 4027 L
1795 4027 L
1812 4028 L
1837 4028 L
1870 4029 L
1903 4029 L
1937 4030 L
1953 4031 L
1971 4031 L
2003 4032 L
2037 4033 L
2070 4034 L
2095 4036 L
2112 4037 L
2137 4037 L
2170 4039 L
2203 4041 L
2237 4043 L
2253 4046 L
2271 4046 L
2303 4048 L
2337 4051 L
2370 4054 L
2395 4057 L
2412 4059 L
2437 4061 L
2470 4064 L
2503 4067 L
2537 4070 L
2553 4073 L
2571 4073 L
2603 4075 L
2637 4078 L
2670 4080 L
2695 4081 L
2712 4082 L
2737 4083 L
2770 4084 L
2803 4084 L
2837 4085 L
2854 4085 L
2871 4085 L
2903 4086 L
2937 4086 L
2970 4086 L
2995 4086 L
3012 4086 L
3037 4086 L
3061 4086 L
3077 4086 L
3103 4086 L
3137 4086 L
3154 4086 L
3171 4086 L
3203 4086 L
3237 4086 L
3270 4086 L
3296 4086 L
3312 4086 L
3337 4086 L
3370 4086 L
3403 4086 L
3437 4086 L
3454 4086 L
3471 4086 L
3503 4086 L
3537 4086 L
3570 4086 L
3596 4086 L
3612 4086 L
3637 4086 L
3670 4086 L
3703 4086 L
3737 4086 L
3754 4086 L
3771 4086 L
3803 4086 L
3837 4086 L
3870 4086 L
3896 4086 L
3912 4086 L
3937 4086 L
3970 4086 L
4003 4086 L
4037 4086 L
4070 4086 L
LWMC SL dash02 C02 COSGR

GSN 753 1444 M
770 1444 L
803 2864 L
837 3562 L
870 3860 L
895 3968 L
911 3990 L
937 4001 L
970 4009 L
1003 4010 L
1037 4011 L
1053 4011 L
1070 4011 L
1103 4011 L
1137 4011 L
1170 4011 L
1195 4011 L
1211 4011 L
1237 4011 L
1270 4011 L
1303 4011 L
1337 4011 L
1353 4011 L
1370 4011 L
1403 4011 L
1437 4011 L
1470 4011 L
1495 4011 L
1512 4012 L
1537 4012 L
1570 4012 L
1603 4012 L
1637 4012 L
1653 4013 L
1670 4013 L
1703 4013 L
1737 4013 L
1770 4014 L
1795 4015 L
1812 4015 L
1837 4015 L
1870 4016 L
1903 4017 L
1937 4018 L
1953 4019 L
1971 4019 L
2003 4020 L
2037 4022 L
2070 4023 L
2095 4025 L
2112 4026 L
2137 4027 L
2170 4030 L
2203 4033 L
2237 4035 L
2253 4039 L
2271 4039 L
2303 4042 L
2337 4046 L
2370 4050 L
2395 4053 L
2412 4056 L
2437 4058 L
2470 4062 L
2503 4065 L
2537 4069 L
2553 4073 L
2571 4073 L
2603 4076 L
2637 4078 L
2670 4081 L
2695 4082 L
2712 4083 L
2737 4084 L
2770 4085 L
2803 4085 L
2837 4086 L
2854 4086 L
2871 4086 L
2903 4086 L
2937 4086 L
2970 4086 L
2995 4086 L
3012 4086 L
3037 4086 L
3061 4086 L
3077 4086 L
3103 4086 L
3137 4086 L
3154 4086 L
3171 4086 L
3203 4086 L
3237 4086 L
3270 4086 L
3296 4086 L
3312 4086 L
3337 4086 L
3370 4086 L
3403 4086 L
3437 4086 L
3454 4086 L
3471 4086 L
3503 4086 L
3537 4086 L
3570 4086 L
3596 4086 L
3612 4086 L
3637 4086 L
3670 4086 L
3703 4086 L
3737 4086 L
3754 4086 L
3771 4086 L
3803 4086 L
3837 4086 L
3870 4086 L
3896 4086 L
3912 4086 L
3937 4086 L
3970 4086 L
4003 4086 L
4037 4086 L
4070 4086 L
LWMC SL dash03 C03 COSGR

GSN 753 2732 M
770 2732 L
803 3528 L
837 3849 L
870 3958 L
895 3988 L
911 3992 L
937 3994 L
970 3996 L
1003 3996 L
1037 3996 L
1053 3996 L
1070 3996 L
1103 3996 L
1137 3996 L
1170 3996 L
1195 3996 L
1211 3996 L
1237 3996 L
1270 3996 L
1303 3996 L
1337 3996 L
1353 3996 L
1370 3996 L
1403 3996 L
1437 3997 L
1470 3997 L
1495 3997 L
1512 3997 L
1537 3997 L
1570 3997 L
1603 3998 L
1637 3998 L
1653 3999 L
1670 3999 L
1703 3999 L
1737 4000 L
1770 4000 L
1795 4001 L
1812 4001 L
1837 4002 L
1870 4003 L
1903 4004 L
1937 4005 L
1953 4007 L
1971 4007 L
2003 4009 L
2037 4010 L
2070 4013 L
2095 4015 L
2112 4017 L
2137 4018 L
2170 4021 L
2203 4025 L
2237 4028 L
2253 4033 L
2271 4033 L
2303 4037 L
2337 4042 L
2370 4047 L
2395 4052 L
2412 4054 L
2437 4057 L
2470 4061 L
2503 4066 L
2537 4071 L
2553 4074 L
2571 4075 L
2603 4078 L
2637 4080 L
2670 4082 L
2695 4084 L
2712 4085 L
2737 4085 L
2770 4086 L
2803 4086 L
2837 4086 L
2854 4086 L
2871 4086 L
2903 4086 L
2937 4086 L
2970 4086 L
2995 4086 L
3012 4086 L
3037 4086 L
3061 4086 L
3077 4086 L
3103 4086 L
3137 4086 L
3154 4086 L
3171 4086 L
3203 4086 L
3237 4086 L
3270 4086 L
3296 4086 L
3312 4086 L
3337 4086 L
3370 4086 L
3403 4086 L
3437 4086 L
3454 4086 L
3471 4086 L
3503 4086 L
3537 4086 L
3570 4086 L
3596 4086 L
3612 4086 L
3637 4086 L
3670 4086 L
3703 4086 L
3737 4086 L
3754 4086 L
3771 4086 L
3803 4086 L
3837 4086 L
3870 4086 L
3896 4086 L
3912 4086 L
3937 4086 L
3970 4086 L
4003 4086 L
4037 4086 L
4070 4086 L
LWMC SL dash04 C04 COSGR

GSN 753 3539 M
770 3539 L
803 3858 L
837 3961 L
870 3987 L
895 3992 L
911 3993 L
937 3993 L
970 3993 L
1003 3993 L
1037 3993 L
1053 3993 L
1070 3993 L
1103 3994 L
1137 3994 L
1170 3994 L
1195 3994 L
1211 3994 L
1237 3994 L
1270 3994 L
1303 3994 L
1337 3994 L
1353 3994 L
1370 3994 L
1403 3994 L
1437 3994 L
1470 3995 L
1495 3995 L
1512 3995 L
1537 3995 L
1570 3995 L
1603 3996 L
1637 3996 L
1653 3997 L
1670 3997 L
1703 3997 L
1737 3998 L
1770 3998 L
1795 3999 L
1812 4000 L
1837 4000 L
1870 4001 L
1903 4003 L
1937 4004 L
1953 4006 L
1971 4006 L
2003 4008 L
2037 4010 L
2070 4012 L
2095 4015 L
2112 4017 L
2137 4018 L
2170 4021 L
2203 4025 L
2237 4029 L
2253 4034 L
2271 4034 L
2303 4038 L
2337 4043 L
2370 4049 L
2395 4054 L
2412 4057 L
2437 4059 L
2470 4064 L
2503 4069 L
2537 4073 L
2553 4077 L
2571 4077 L
2603 4080 L
2637 4082 L
2670 4084 L
2695 4085 L
2712 4085 L
2737 4085 L
2770 4086 L
2803 4086 L
2837 4086 L
2854 4086 L
2871 4086 L
2903 4086 L
2937 4086 L
2970 4086 L
2995 4086 L
3012 4086 L
3037 4086 L
3061 4086 L
3077 4086 L
3103 4086 L
3137 4086 L
3154 4086 L
3171 4086 L
3203 4086 L
3237 4086 L
3270 4086 L
3296 4086 L
3312 4086 L
3337 4086 L
3370 4086 L
3403 4086 L
3437 4086 L
3454 4086 L
3471 4086 L
3503 4086 L
3537 4086 L
3570 4086 L
3596 4086 L
3612 4086 L
3637 4086 L
3670 4086 L
3703 4086 L
3737 4086 L
3754 4086 L
3771 4086 L
3803 4086 L
3837 4086 L
3870 4086 L
3896 4086 L
3912 4086 L
3937 4086 L
3970 4086 L
4003 4086 L
4037 4086 L
4070 4086 L
LWMC SL dash05 C05 COSGR

GSN 753 3832 M
770 3832 L
803 3953 L
837 3984 L
870 3990 L
895 3991 L
911 3991 L
937 3991 L
970 3991 L
1003 3991 L
1037 3992 L
1053 3992 L
1070 3992 L
1103 3992 L
1137 3992 L
1170 3992 L
1195 3992 L
1211 3992 L
1237 3992 L
1270 3992 L
1303 3992 L
1337 3992 L
1353 3992 L
1370 3992 L
1403 3992 L
1437 3993 L
1470 3993 L
1495 3993 L
1512 3993 L
1537 3993 L
1570 3994 L
1603 3994 L
1637 3994 L
1653 3995 L
1670 3995 L
1703 3995 L
1737 3996 L
1770 3997 L
1795 3998 L
1812 3998 L
1837 3999 L
1870 4000 L
1903 4001 L
1937 4003 L
1953 4005 L
1971 4005 L
2003 4007 L
2037 4009 L
2070 4011 L
2095 4014 L
2112 4016 L
2137 4018 L
2170 4021 L
2203 4025 L
2237 4030 L
2253 4034 L
2271 4034 L
2303 4039 L
2337 4044 L
2370 4050 L
2395 4055 L
2412 4058 L
2437 4060 L
2470 4065 L
2503 4070 L
2537 4074 L
2553 4077 L
2571 4078 L
2603 4080 L
2637 4082 L
2670 4084 L
2695 4085 L
2712 4085 L
2737 4086 L
2770 4086 L
2803 4086 L
2837 4086 L
2854 4086 L
2871 4086 L
2903 4086 L
2937 4086 L
2970 4086 L
2995 4086 L
3012 4086 L
3037 4086 L
3061 4086 L
3077 4086 L
3103 4086 L
3137 4086 L
3154 4086 L
3171 4086 L
3203 4086 L
3237 4086 L
3270 4086 L
3296 4086 L
3312 4086 L
3337 4086 L
3370 4086 L
3403 4086 L
3437 4086 L
3454 4086 L
3471 4086 L
3503 4086 L
3537 4086 L
3570 4086 L
3596 4086 L
3612 4086 L
3637 4086 L
3670 4086 L
3703 4086 L
3737 4086 L
3754 4086 L
3771 4086 L
3803 4086 L
3837 4086 L
3870 4086 L
3896 4086 L
3912 4086 L
3937 4086 L
3970 4086 L
4003 4086 L
4037 4086 L
4070 4086 L
LWMC SL dash06 C06 COSGR

GSN 753 3970 M
770 3970 L
803 3984 L
837 3986 L
870 3986 L
895 3987 L
911 3987 L
937 3987 L
970 3987 L
1003 3987 L
1037 3987 L
1053 3987 L
1070 3987 L
1103 3987 L
1137 3987 L
1170 3987 L
1195 3987 L
1211 3987 L
1237 3987 L
1270 3987 L
1303 3987 L
1337 3987 L
1353 3987 L
1370 3987 L
1403 3988 L
1437 3988 L
1470 3988 L
1495 3988 L
1512 3988 L
1537 3989 L
1570 3989 L
1603 3989 L
1637 3990 L
1653 3990 L
1670 3990 L
1703 3991 L
1737 3992 L
1770 3993 L
1795 3993 L
1812 3994 L
1837 3995 L
1870 3996 L
1903 3997 L
1937 3999 L
1953 4001 L
1971 4001 L
2003 4003 L
2037 4006 L
2070 4009 L
2095 4012 L
2112 4014 L
2137 4015 L
2170 4019 L
2203 4024 L
2237 4028 L
2253 4033 L
2271 4034 L
2303 4039 L
2337 4044 L
2370 4050 L
2395 4055 L
2412 4058 L
2437 4061 L
2470 4066 L
2503 4071 L
2537 4075 L
2553 4078 L
2571 4078 L
2603 4081 L
2637 4083 L
2670 4084 L
2695 4085 L
2712 4086 L
2737 4086 L
2770 4086 L
2803 4086 L
2837 4086 L
2854 4086 L
2871 4086 L
2903 4086 L
2937 4086 L
2970 4086 L
2995 4086 L
3012 4086 L
3037 4086 L
3061 4086 L
3077 4086 L
3103 4086 L
3137 4086 L
3154 4086 L
3171 4086 L
3203 4086 L
3237 4086 L
3270 4086 L
3296 4086 L
3312 4086 L
3337 4086 L
3370 4086 L
3403 4086 L
3437 4086 L
3454 4086 L
3471 4086 L
3503 4086 L
3537 4086 L
3570 4086 L
3596 4086 L
3612 4086 L
3637 4086 L
3670 4086 L
3703 4086 L
3737 4086 L
3754 4086 L
3771 4086 L
3803 4086 L
3837 4086 L
3870 4086 L
3896 4086 L
3912 4086 L
3937 4086 L
3970 4086 L
4003 4086 L
4037 4086 L
4070 4086 L
LWMC SL dash07 C07 COSGR

%
%================
% Legend - Begin
%================
%
GSN 4240 4040 M
4480 4040 L
LWMC SL dash01 C01 COSGR
GSN 4540 4001 M helvM (0.5 uM) show grestore
GSN 4240 3860 M
4480 3860 L
LWMC SL dash02 C02 COSGR
GSN 4540 3821 M helvM (1.0 uM) show grestore
GSN 4240 3680 M
4480 3680 L
LWMC SL dash03 C03 COSGR
GSN 4540 3641 M helvM (1.5 uM) show grestore
GSN 4240 3500 M
4480 3500 L
LWMC SL dash04 C04 COSGR
GSN 4540 3461 M helvM (2.0 uM) show grestore
GSN 4240 3320 M
4480 3320 L
LWMC SL dash05 C05 COSGR
GSN 4540 3281 M helvM (2.5 uM) show grestore
GSN 4240 3140 M
4480 3140 L
LWMC SL dash06 C06 COSGR
GSN 4540 3101 M helvM (3.0 uM) show grestore
GSN 4240 2960 M
4480 2960 L
LWMC SL dash07 C07 COSGR
GSN 4540 2921 M helvM (4.0 uM) show grestore
%
%================
% Legend - End
%================
%

%
% Main frame
%
L10
GSN 
620 620 M
4220 620 L
4220 4220 L
620 4220 L
closepath SGR

%
% X axis: large tics
%
L10
GSN 1074 620 M 0  54 rL SGR
GSN 1074 4220 M 0 -54 rL SGR
helvS (0.0001) 1074 470 xlabel
GSN 1572 620 M 0  54 rL SGR
GSN 1572 4220 M 0 -54 rL SGR
helvS (0.001) 1572 470 xlabel
GSN 2071 620 M 0  54 rL SGR
GSN 2071 4220 M 0 -54 rL SGR
helvS (0.01) 2071 470 xlabel
GSN 2570 620 M 0  54 rL SGR
GSN 2570 4220 M 0 -54 rL SGR
helvS (0.1) 2570 470 xlabel
GSN 3068 620 M 0  54 rL SGR
GSN 3068 4220 M 0 -54 rL SGR
helvS (1) 3068 470 xlabel
GSN 3567 620 M 0  54 rL SGR
GSN 3567 4220 M 0 -54 rL SGR
helvS (10) 3567 470 xlabel
GSN 4066 620 M 0  54 rL SGR
GSN 4066 4220 M 0 -54 rL SGR
helvS (100) 4066 470 xlabel
%
% X axis: small tics
%
L5
GSN 725 620 M 0  36 rL SGR
GSN 725 4220 M 0 -36 rL SGR
GSN 813 620 M 0  36 rL SGR
GSN 813 4220 M 0 -36 rL SGR
GSN 875 620 M 0  36 rL SGR
GSN 875 4220 M 0 -36 rL SGR
GSN 924 620 M 0  36 rL SGR
GSN 924 4220 M 0 -36 rL SGR
GSN 963 620 M 0  36 rL SGR
GSN 963 4220 M 0 -36 rL SGR
GSN 996 620 M 0  36 rL SGR
GSN 996 4220 M 0 -36 rL SGR
GSN 1025 620 M 0  36 rL SGR
GSN 1025 4220 M 0 -36 rL SGR
GSN 1051 620 M 0  36 rL SGR
GSN 1051 4220 M 0 -36 rL SGR
GSN 1224 620 M 0  36 rL SGR
GSN 1224 4220 M 0 -36 rL SGR
GSN 1312 620 M 0  36 rL SGR
GSN 1312 4220 M 0 -36 rL SGR
GSN 1374 620 M 0  36 rL SGR
GSN 1374 4220 M 0 -36 rL SGR
GSN 1422 620 M 0  36 rL SGR
GSN 1422 4220 M 0 -36 rL SGR
GSN 1462 620 M 0  36 rL SGR
GSN 1462 4220 M 0 -36 rL SGR
GSN 1495 620 M 0  36 rL SGR
GSN 1495 4220 M 0 -36 rL SGR
GSN 1524 620 M 0  36 rL SGR
GSN 1524 4220 M 0 -36 rL SGR
GSN 1550 620 M 0  36 rL SGR
GSN 1550 4220 M 0 -36 rL SGR
GSN 1722 620 M 0  36 rL SGR
GSN 1722 4220 M 0 -36 rL SGR
GSN 1810 620 M 0  36 rL SGR
GSN 1810 4220 M 0 -36 rL SGR
GSN 1873 620 M 0  36 rL SGR
GSN 1873 4220 M 0 -36 rL SGR
GSN 1921 620 M 0  36 rL SGR
GSN 1921 4220 M 0 -36 rL SGR
GSN 1960 620 M 0  36 rL SGR
GSN 1960 4220 M 0 -36 rL SGR
GSN 1994 620 M 0  36 rL SGR
GSN 1994 4220 M 0 -36 rL SGR
GSN 2023 620 M 0  36 rL SGR
GSN 2023 4220 M 0 -36 rL SGR
GSN 2048 620 M 0  36 rL SGR
GSN 2048 4220 M 0 -36 rL SGR
GSN 2221 620 M 0  36 rL SGR
GSN 2221 4220 M 0 -36 rL SGR
GSN 2309 620 M 0  36 rL SGR
GSN 2309 4220 M 0 -36 rL SGR
GSN 2371 620 M 0  36 rL SGR
GSN 2371 4220 M 0 -36 rL SGR
GSN 2420 620 M 0  36 rL SGR
GSN 2420 4220 M 0 -36 rL SGR
GSN 2459 620 M 0  36 rL SGR
GSN 2459 4220 M 0 -36 rL SGR
GSN 2492 620 M 0  36 rL SGR
GSN 2492 4220 M 0 -36 rL SGR
GSN 2521 620 M 0  36 rL SGR
GSN 2521 4220 M 0 -36 rL SGR
GSN 2547 620 M 0  36 rL SGR
GSN 2547 4220 M 0 -36 rL SGR
GSN 2720 620 M 0  36 rL SGR
GSN 2720 4220 M 0 -36 rL SGR
GSN 2808 620 M 0  36 rL SGR
GSN 2808 4220 M 0 -36 rL SGR
GSN 2870 620 M 0  36 rL SGR
GSN 2870 4220 M 0 -36 rL SGR
GSN 2918 620 M 0  36 rL SGR
GSN 2918 4220 M 0 -36 rL SGR
GSN 2958 620 M 0  36 rL SGR
GSN 2958 4220 M 0 -36 rL SGR
GSN 2991 620 M 0  36 rL SGR
GSN 2991 4220 M 0 -36 rL SGR
GSN 3020 620 M 0  36 rL SGR
GSN 3020 4220 M 0 -36 rL SGR
GSN 3045 620 M 0  36 rL SGR
GSN 3045 4220 M 0 -36 rL SGR
GSN 3218 620 M 0  36 rL SGR
GSN 3218 4220 M 0 -36 rL SGR
GSN 3306 620 M 0  36 rL SGR
GSN 3306 4220 M 0 -36 rL SGR
GSN 3368 620 M 0  36 rL SGR
GSN 3368 4220 M 0 -36 rL SGR
GSN 3417 620 M 0  36 rL SGR
GSN 3417 4220 M 0 -36 rL SGR
GSN 3456 620 M 0  36 rL SGR
GSN 3456 4220 M 0 -36 rL SGR
GSN 3490 620 M 0  36 rL SGR
GSN 3490 4220 M 0 -36 rL SGR
GSN 3519 620 M 0  36 rL SGR
GSN 3519 4220 M 0 -36 rL SGR
GSN 3544 620 M 0  36 rL SGR
GSN 3544 4220 M 0 -36 rL SGR
GSN 3717 620 M 0  36 rL SGR
GSN 3717 4220 M 0 -36 rL SGR
GSN 3805 620 M 0  36 rL SGR
GSN 3805 4220 M 0 -36 rL SGR
GSN 3867 620 M 0  36 rL SGR
GSN 3867 4220 M 0 -36 rL SGR
GSN 3915 620 M 0  36 rL SGR
GSN 3915 4220 M 0 -36 rL SGR
GSN 3955 620 M 0  36 rL SGR
GSN 3955 4220 M 0 -36 rL SGR
GSN 3988 620 M 0  36 rL SGR
GSN 3988 4220 M 0 -36 rL SGR
GSN 4017 620 M 0  36 rL SGR
GSN 4017 4220 M 0 -36 rL SGR
GSN 4043 620 M 0  36 rL SGR
GSN 4043 4220 M 0 -36 rL SGR
GSN 4216 620 M 0  36 rL SGR
GSN 4216 4220 M 0 -36 rL SGR
%
% Y axis: large tics
%
L10
GSN 620 1423 M 54 0 rL SGR
GSN 4220 1423 M -54 0 rL SGR
helvS (-40) 560 1423 ylabel
GSN 620 2754 M 54 0 rL SGR
GSN 4220 2754 M -54 0 rL SGR
helvS (-20) 560 2754 ylabel
GSN 620 4086 M 54 0 rL SGR
GSN 4220 4086 M -54 0 rL SGR
helvS (0) 560 4086 ylabel
%
% Y axis: small tics
%
L5
GSN 620 757 M 36 0 rL SGR
GSN 4220 757 M -36 0 rL SGR
GSN 620 1090 M 36 0 rL SGR
GSN 4220 1090 M -36 0 rL SGR
GSN 620 1423 M 36 0 rL SGR
GSN 4220 1423 M -36 0 rL SGR
GSN 620 1756 M 36 0 rL SGR
GSN 4220 1756 M -36 0 rL SGR
GSN 620 2089 M 36 0 rL SGR
GSN 4220 2089 M -36 0 rL SGR
GSN 620 2422 M 36 0 rL SGR
GSN 4220 2422 M -36 0 rL SGR
GSN 620 2754 M 36 0 rL SGR
GSN 4220 2754 M -36 0 rL SGR
GSN 620 3087 M 36 0 rL SGR
GSN 4220 3087 M -36 0 rL SGR
GSN 620 3420 M 36 0 rL SGR
GSN 4220 3420 M -36 0 rL SGR
GSN 620 3753 M 36 0 rL SGR
GSN 4220 3753 M -36 0 rL SGR
GSN 620 4086 M 36 0 rL SGR
GSN 4220 4086 M -36 0 rL SGR

%
% X axis
%
GSN L5 620 4086 M 4220 4086 L SDA G50 SGR

%
% X-Axis label:
%
gsave 2420 290 M 
[
[(Helvetica) 180 0 true true 0 (t)]
[(Helvetica) 180 0 true true 0 (i)]
[(Helvetica) 180 0 true true 0 (m)]
[(Helvetica) 180 0 true true 0 (e)]
] 0 MCshow grestore

%
% Y-Axis label:
%
gsave 234 2420 M 
currentpoint gsave translate 90 rotate 0 0 moveto
[
[(Helvetica) 180 0 true true 0 (d)]
[(Helvetica) 180 0 true true 0 (\()]
[(Helvetica) 180 0 true true 0 (s)]
[(Helvetica) 180 0 true true 0 (i)]
[(Helvetica) 180 0 true true 0 (g)]
[(Helvetica) 180 0 true true 0 (n)]
[(Helvetica) 180 0 true true 0 (a)]
[(Helvetica) 180 0 true true 0 (l)]
[(Helvetica) 180 0 true true 0 (\))]
[(Helvetica) 180 0 true true 0 ( )]
[(Helvetica) 180 0 true true 0 (/)]
[(Helvetica) 180 0 true true 0 ( )]
[(Helvetica) 180 0 true true 0 (d)]
[(Helvetica) 180 0 true true 0 (t)]
] 0 MCshow grestore

end
showpage
%%Trailer
%%EOF
