%!PS-Adobe-3.0 EPSF-3.0
%%BoundingBox: 0 0 514 550
%%Creator: BioKin Ltd.
%%DocumentFonts: Symbol Helvetica
%%EndComments
%
/bkdict 256 dict def
bkdict begin
/M {moveto} def 
/R {rmoveto} def
/L {lineto} def
/rL {rlineto} def
/GSN {gsave newpath} def
/SGR {stroke grestore} def
/COSGR {gsave setrgbcolor stroke grestore grestore} def
/SL {setlinewidth} def
/LWMB {12} def             % line width - model curves, black & white
/LWMC {10} def             % line width - model curves, color
/L2 {2.5 setlinewidth} def
/L5 {5 setlinewidth} def
/L10 {10 setlinewidth} def
/G50 {0.5 setgray} def
/SDA {[10  20] 0 setdash} def % axes
/helvT {/Helvetica findfont 100 scalefont setfont} def % tiny
/helvS {/Helvetica findfont 125 scalefont setfont} def % small
/helvM {/Helvetica findfont 150 scalefont setfont} def % medium
/helvL {/Helvetica findfont 175 scalefont setfont} def % large
/xlabel {gsave M dup
   stringwidth exch -0.5 mul exch rmoveto show grestore} def 
/ylabel {gsave M 90 rotate dup
   stringwidth exch -0.5 mul exch rmoveto show grestore} def
/ylabelresid {gsave M dup
   stringwidth exch -1 mul exch rmoveto show grestore} def
% ======
% Shapes
% ======
% Circle:
/Circ {0 360 arc closepath} def
%
% Square:
/Squa {dup dup -0.5 mul dup dup R -2 mul 0 exch rL 1 mul 0 rL dup 0 exch -1 mul rL closepath} def
%
% Triangle Up:
/TriU {dup dup dup -0.4 mul exch -0.5 mul exch R dup 0.5 mul exch rL dup -1 mul exch 0.5 mul exch rL closepath} def 
%
% Triangle Down:
/TriD {dup dup dup 0.4 mul exch -0.5 mul exch R dup 0.5 mul exch -1 mul rL dup 0.5 mul exch rL closepath} def 
%
% Diamond:
/Diam {45 rotate Squa} def
% ======
% Fills
% ======
/GRF {gsave setgray fill grestore} def                    % gray-level Fill
/COF {gsave setrgbcolor fill grestore} def                % color fill
% ======
% Colors
% ======
/C01 {1.00	0.00	0.00} def      % Red
/C02 {0.00	0.00	1.00} def      % Blue
/C03 {0.00	0.39	0.00} def      % Dark Green
/C04 {0.78	0.08	0.52} def      % Medium Violet Red
/C05 {0.55	0.27	0.07} def      % Saddle Brown
/C06 {0.10	0.70	0.70} def      % (cyan)
/C07 {1.00	0.55	0.00} def      % Dark Orange
/C08 {0.63	0.13	0.94} def      % Purple
/C09 {0.00	0.75	1.00} def      % Deep Sky Blue
/C10 {0.20	0.80	0.20} def      % Lime Green
/C11 {0.47	0.53	0.60} def      % Light Slate Gray
/C12 {0.00	0.00	0.00} def      % Black            % or: {0.19	0.31	0.31} def      % Dark Slate Gray
%
/LGR {0.75} def % light gray
/DGR {0.33} def % dark gray
%
% =============
% Dash patterns
% =============
/dash01 { [80  20] 0 setdash } def
/dash02 { [40  20] 0 setdash } def
/dash03 { [80  20  10  20] 0 setdash } def
/dash04 { [40  20  10  20] 0 setdash } def
/dash05 { [80  20  10  10  10  20] 0 setdash } def
/dash06 { [40  20  10  10  10  20] 0 setdash } def
/dash07 { [10  10] 0 setdash } def
%
/MFshow {
   { dup 5 get 3 ge
     { 5 get 3 eq {gsave} {grestore} ifelse }
     {dup dup 0 get findfont exch 1 get scalefont setfont
     [ currentpoint ] exch dup 2 get 0 exch R dup 5 get 2 ne {dup dup 6
     get exch 4 get {show} {stringwidth pop 0 R} ifelse }if dup 5 get 0 eq
     {dup 3 get {2 get neg 0 exch R pop} {pop aload pop M} ifelse} {dup 5
     get 1 eq {dup 2 get exch dup 3 get exch 6 get stringwidth pop -2 div
     dup 0 R} {dup 6 get stringwidth pop -2 div 0 R 6 get
     show 2 index {aload pop M neg 3 -1 roll neg R pop pop} {pop pop pop
     pop aload pop M} ifelse }ifelse }ifelse }
     ifelse }
   forall} bind def
/MFwidth {0 exch {dup 3 get{dup dup 0 get findfont exch 1 get scalefont
     setfont 6 get stringwidth pop add} {pop} ifelse} forall} bind def
/MCshow { currentpoint stroke M
  exch dup MFwidth -2 div 3 -1 roll R MFshow } def
%
end
%%EndProlog
bkdict begin
0.1 0.1 scale
%
% Model curves:
%

GSN 753 3781 M
753 3781 L
786 3757 L
820 3730 L
853 3700 L
886 3665 L
903 3646 L
919 3627 L
953 3584 L
986 3537 L
1020 3486 L
1053 3432 L
1053 3431 L
1086 3373 L
1120 3313 L
1153 3250 L
1186 3188 L
1203 3156 L
1220 3127 L
1253 3068 L
1286 3015 L
1320 2967 L
1353 2927 L
1353 2927 L
1386 2895 L
1420 2871 L
1453 2854 L
1486 2843 L
1503 2840 L
1520 2837 L
1553 2834 L
1586 2832 L
1620 2832 L
1653 2831 L
1653 2831 L
1686 2831 L
1720 2831 L
1753 2831 L
1786 2831 L
1804 2831 L
1820 2831 L
1853 2831 L
1886 2831 L
1920 2831 L
1953 2831 L
1954 2831 L
1986 2831 L
2020 2831 L
2053 2831 L
2086 2831 L
2104 2831 L
2120 2831 L
2153 2831 L
2186 2831 L
2220 2831 L
2253 2831 L
2254 2831 L
2286 2831 L
2320 2831 L
2353 2831 L
2386 2831 L
2404 2831 L
2420 2831 L
2453 2831 L
2486 2831 L
2520 2831 L
2553 2831 L
2554 2831 L
2586 2831 L
2620 2831 L
2653 2831 L
2686 2831 L
2704 2831 L
2720 2831 L
2753 2830 L
2786 2830 L
2820 2830 L
2853 2830 L
2854 2830 L
2886 2830 L
2920 2829 L
2953 2829 L
2986 2829 L
3004 2829 L
3020 2828 L
3053 2828 L
3068 2828 L
3086 2827 L
3120 2827 L
3153 2826 L
3155 2826 L
3186 2825 L
3220 2824 L
3253 2823 L
3286 2821 L
3305 2820 L
3320 2820 L
3353 2818 L
3386 2815 L
3420 2813 L
3453 2809 L
3455 2809 L
3486 2806 L
3520 2802 L
3553 2797 L
3586 2791 L
3605 2787 L
3620 2784 L
3653 2777 L
3686 2768 L
3720 2757 L
3753 2745 L
3755 2744 L
3786 2731 L
3820 2715 L
3853 2696 L
3886 2675 L
3905 2661 L
3920 2650 L
3953 2621 L
3986 2588 L
4020 2551 L
4053 2508 L
4086 2459 L
LWMC SL  C02 COSGR

%
% Experimental data:
%
GSN 773 4880 M
1625 4560 L
1773 5079 L
1860 4811 L
1922 5166 L
1970 4888 L
2009 4960 L
2043 4936 L
2072 4751 L
2097 4595 L
2120 4784 L
2140 4675 L
2159 4926 L
2176 4607 L
2192 4689 L
2207 4642 L
2221 4646 L
2234 4544 L
2247 4453 L
2259 4459 L
2270 4266 L
2280 4307 L
2290 4513 L
2300 4328 L
2309 4215 L
2318 4521 L
2326 4340 L
2335 4361 L
2342 4275 L
2350 4373 L
2357 4266 L
2364 4008 L
2371 4299 L
2378 3977 L
2384 4351 L
2391 4340 L
2397 3936 L
2403 4318 L
2409 3737 L
2414 4326 L
2420 4082 L
2425 4219 L
2430 3909 L
2435 4174 L
2440 4123 L
2445 3919 L
2450 3884 L
2455 3928 L
2459 4084 L
2464 3961 L
2468 3907 L
2472 4055 L
2476 3858 L
2481 3833 L
2485 3846 L
2489 3868 L
2492 3739 L
2496 3956 L
2500 3864 L
2504 3667 L
2507 3640 L
2511 4002 L
2514 3542 L
2518 3909 L
2521 3548 L
2525 3808 L
2528 3392 L
2531 3624 L
2534 3347 L
2538 3615 L
2541 3638 L
2544 3466 L
2547 3435 L
2550 3673 L
2553 3270 L
2556 3242 L
2559 3658 L
2561 3270 L
2564 3270 L
2567 3418 L
2570 3661 L
2580 3160 L
2590 3123 L
2600 3289 L
2609 3258 L
2618 3190 L
2627 3279 L
2635 3188 L
2643 2942 L
2650 2860 L
2658 2759 L
2665 2882 L
2672 2921 L
2678 2956 L
2685 2554 L
2691 2659 L
2697 2938 L
2703 2813 L
2709 2476 L
2714 2969 L
2720 2868 L
2725 2737 L
2730 2747 L
2735 2651 L
2740 2698 L
2745 2490 L
2750 2258 L
2755 2457 L
2759 2361 L
2764 2619 L
2768 2603 L
2772 2632 L
2777 2539 L
2781 2338 L
2785 2324 L
2789 2589 L
2793 2184 L
2796 2459 L
2800 2035 L
2804 2517 L
2808 2166 L
2811 2193 L
2815 2281 L
2818 2564 L
2822 2314 L
2825 2628 L
2828 2572 L
2831 2040 L
2835 2338 L
2838 2055 L
2841 2371 L
2844 2266 L
2847 2135 L
2850 1833 L
2853 2392 L
2856 2104 L
2859 2176 L
2862 2383 L
2864 2488 L
2867 2215 L
2870 2223 L
2873 1991 L
2875 2034 L
2878 1999 L
2880 2196 L
2883 2242 L
2886 2359 L
2888 2141 L
2891 2383 L
2893 2219 L
2895 2158 L
2898 2157 L
2900 2069 L
2902 1954 L
2905 2071 L
2907 2110 L
2909 2053 L
2912 2000 L
2914 2155 L
2916 2116 L
2918 2180 L
2920 2344 L
2922 2396 L
2925 2431 L
2927 2151 L
2929 2355 L
2931 2593 L
2933 2205 L
2935 2260 L
2937 2176 L
2939 2488 L
2941 2112 L
2943 2158 L
2945 2344 L
2947 2361 L
2948 2277 L
2950 2080 L
2952 2369 L
2954 2396 L
2956 2233 L
2958 2141 L
2959 2373 L
2961 2347 L
2963 2299 L
2965 2030 L
2966 2371 L
2968 2201 L
2970 2281 L
2972 2110 L
2973 2706 L
2975 2459 L
2977 2098 L
2978 2613 L
2980 2123 L
2982 2377 L
2983 2585 L
2985 2386 L
2986 2455 L
2988 2484 L
2989 2579 L
2991 2462 L
2993 2587 L
2994 2016 L
2996 2186 L
2997 2425 L
2999 2316 L
3000 2334 L
3002 2271 L
3003 2385 L
3005 2283 L
3006 2342 L
3007 2381 L
3009 2570 L
3010 2482 L
3012 2408 L
3013 2529 L
3014 2293 L
3016 2383 L
3017 2244 L
3019 2346 L
3020 2324 L
3021 2587 L
3023 2433 L
3024 2342 L
3025 2348 L
3027 2543 L
3028 2776 L
3029 2404 L
3031 2568 L
3032 2190 L
3033 2377 L
3034 2410 L
3036 2431 L
3037 2367 L
3038 2546 L
3039 2615 L
3041 2461 L
3042 2669 L
3043 2330 L
3044 2075 L
3045 2579 L
3047 2264 L
3048 2681 L
3049 2708 L
3050 2507 L
3051 2036 L
3053 2484 L
3054 2727 L
3055 2533 L
3056 2316 L
3057 2566 L
3058 2622 L
3059 2751 L
3061 2464 L
3062 2474 L
3063 2566 L
3064 2634 L
3065 2531 L
3066 2578 L
3067 2536 L
3068 2568 L
3069 2381 L
3070 2480 L
3071 2667 L
3073 2542 L
3074 2431 L
3075 2544 L
3076 2492 L
3077 2468 L
3078 2414 L
3079 2160 L
3080 2326 L
3081 2562 L
3082 2704 L
3083 2537 L
3084 2589 L
3085 2695 L
3086 2437 L
3087 2642 L
3088 2543 L
3089 2440 L
3112 2713 L
3133 2637 L
3152 3056 L
3170 2759 L
3186 2609 L
3201 2593 L
3216 2481 L
3229 2773 L
3241 2609 L
3253 2863 L
3264 2687 L
3275 2947 L
3285 2926 L
3295 2879 L
3304 3074 L
3313 2903 L
3322 2837 L
3330 2897 L
3338 3048 L
3346 2999 L
3353 2765 L
3360 3040 L
3367 2832 L
3374 2809 L
3380 3077 L
3387 2570 L
3393 2944 L
3399 2804 L
3405 2960 L
3410 3043 L
3416 2637 L
3421 2687 L
3426 2999 L
3431 3069 L
3436 2980 L
3441 2728 L
3446 2468 L
3451 2934 L
3455 2653 L
3460 2598 L
3464 2825 L
3469 3019 L
3473 2588 L
3477 2718 L
3481 2866 L
3485 2733 L
3489 2903 L
3493 2918 L
3496 3134 L
3500 2949 L
3504 3092 L
3507 2671 L
3511 2949 L
3514 2832 L
3518 3082 L
3521 2658 L
3525 2526 L
3528 2481 L
3531 3001 L
3534 2741 L
3537 3045 L
3540 2819 L
3543 2817 L
3546 2848 L
3549 2871 L
3552 2858 L
3555 2622 L
3558 2710 L
3561 2869 L
3564 2876 L
3566 2687 L
3575 2549 L
3586 2700 L
3595 2718 L
3605 2593 L
3613 2596 L
3622 2611 L
3630 2655 L
3638 2858 L
3646 2869 L
3653 2624 L
3660 2762 L
3667 2432 L
3674 2596 L
3681 2570 L
3687 2767 L
3693 2889 L
3699 2414 L
3705 2760 L
3710 2455 L
3716 2455 L
3721 2502 L
3727 2570 L
3732 2497 L
3737 2479 L
3742 2630 L
3746 2536 L
3751 2726 L
3756 2455 L
3760 2458 L
3764 2772 L
3769 2377 L
3773 2746 L
3777 2513 L
3781 2687 L
3785 2583 L
3789 2710 L
3793 2427 L
3797 2588 L
3800 2484 L
3804 2437 L
3808 2528 L
3811 2559 L
3815 2721 L
3818 2159 L
3821 2744 L
3825 2463 L
3828 2406 L
3831 2684 L
3834 2364 L
3838 2479 L
3841 2437 L
3844 2424 L
3847 2427 L
3850 2323 L
3853 2718 L
3855 2310 L
3858 2375 L
3861 2416 L
3864 2297 L
3867 2250 L
3869 2471 L
3872 2632 L
3875 2468 L
3877 2523 L
3880 2588 L
3882 2801 L
3885 2544 L
3887 2671 L
3890 2840 L
3892 2661 L
3895 2427 L
3897 2481 L
3899 2770 L
3902 2497 L
3904 2487 L
3906 2138 L
3908 2734 L
3911 2247 L
3913 2440 L
3915 2557 L
3917 2463 L
3919 2313 L
3921 2434 L
3923 2635 L
3926 2588 L
3928 2697 L
3930 2814 L
3932 2422 L
3934 2887 L
3936 2476 L
3938 2523 L
3940 2328 L
3942 2526 L
3943 2357 L
3945 2614 L
3947 2388 L
3949 2552 L
3951 2432 L
3953 2518 L
3955 2546 L
3956 2354 L
3958 2671 L
3960 2299 L
3962 2635 L
3963 2533 L
3965 2658 L
3967 2419 L
3969 2226 L
3970 2313 L
3972 2294 L
3974 2458 L
3975 2562 L
3977 2458 L
3978 2372 L
3980 2741 L
3982 2315 L
3983 2778 L
3985 2708 L
3986 2053 L
3988 2297 L
3990 2427 L
3991 2757 L
3993 2331 L
3994 2588 L
3996 2564 L
3997 2273 L
3999 2133 L
4000 2385 L
4001 2466 L
4003 2544 L
4004 2565 L
4006 2422 L
4007 2453 L
4009 2619 L
4010 2312 L
4011 2312 L
4013 2590 L
4014 2552 L
4016 2440 L
4017 2312 L
4018 2429 L
4020 2689 L
4021 2237 L
4022 2102 L
4024 2159 L
4025 2564 L
4026 2461 L
4028 2305 L
4029 2702 L
4030 2544 L
4031 2336 L
4033 2250 L
4034 2297 L
4035 2372 L
4036 2419 L
4038 2320 L
4039 2216 L
4040 2611 L
4041 2318 L
4042 2398 L
4044 2731 L
4045 2372 L
4046 2110 L
4047 2505 L
4048 2180 L
4050 2601 L
4051 2528 L
4052 2440 L
4053 2289 L
4054 2674 L
4055 2237 L
4056 2481 L
4058 2380 L
4059 2681 L
4060 2487 L
4061 2396 L
4062 2479 L
4063 2518 L
4064 2643 L
4065 2435 L
4066 2489 L
L2 C02 COSGR

%
%================
% Legend - Begin
%================
%
GSN 4240 5180 M
4480 5180 L
LWMC SL  C02 COSGR
GSN 4540 5141 M helvM (1.0 uM) show grestore
%
%================
% Legend - End
%================
%

%
% Residuals:
%
GSN 773 1269 M
1625 1420 L
1773 1547 L
1860 1481 L
1922 1569 L
1970 1500 L
2009 1518 L
2043 1512 L
2072 1467 L
2097 1428 L
2120 1475 L
2140 1448 L
2159 1510 L
2176 1431 L
2192 1451 L
2207 1440 L
2221 1441 L
2234 1416 L
2247 1393 L
2259 1395 L
2270 1347 L
2280 1358 L
2290 1408 L
2300 1363 L
2309 1335 L
2318 1410 L
2326 1366 L
2335 1371 L
2342 1350 L
2350 1374 L
2357 1347 L
2364 1284 L
2371 1356 L
2378 1277 L
2384 1369 L
2391 1366 L
2397 1267 L
2403 1360 L
2409 1218 L
2414 1362 L
2420 1303 L
2425 1336 L
2430 1260 L
2435 1325 L
2440 1313 L
2445 1262 L
2450 1254 L
2455 1265 L
2459 1303 L
2464 1273 L
2468 1259 L
2472 1296 L
2476 1248 L
2481 1241 L
2485 1245 L
2489 1250 L
2492 1218 L
2496 1271 L
2500 1249 L
2504 1201 L
2507 1194 L
2511 1283 L
2514 1170 L
2518 1260 L
2521 1171 L
2525 1235 L
2528 1133 L
2531 1190 L
2534 1122 L
2538 1188 L
2541 1193 L
2544 1151 L
2547 1144 L
2550 1202 L
2553 1103 L
2556 1096 L
2559 1198 L
2561 1103 L
2564 1103 L
2567 1139 L
2570 1199 L
2580 1076 L
2590 1067 L
2600 1108 L
2609 1100 L
2618 1083 L
2627 1105 L
2635 1083 L
2643 1023 L
2650 1002 L
2658 978 L
2665 1008 L
2672 1017 L
2678 1026 L
2685 927 L
2691 953 L
2697 1022 L
2703 991 L
2709 908 L
2714 1029 L
2720 1004 L
2725 972 L
2730 975 L
2735 951 L
2740 963 L
2745 912 L
2750 855 L
2755 903 L
2759 880 L
2764 943 L
2768 939 L
2772 947 L
2777 924 L
2781 874 L
2785 871 L
2789 936 L
2793 837 L
2796 904 L
2800 800 L
2804 918 L
2808 832 L
2811 839 L
2815 860 L
2818 930 L
2822 869 L
2825 946 L
2828 932 L
2831 801 L
2835 874 L
2838 805 L
2841 883 L
2844 857 L
2847 825 L
2850 750 L
2853 888 L
2856 817 L
2859 835 L
2862 885 L
2864 911 L
2867 844 L
2870 846 L
2873 789 L
2875 800 L
2878 791 L
2880 840 L
2883 851 L
2886 880 L
2888 826 L
2891 885 L
2893 845 L
2895 830 L
2898 830 L
2900 808 L
2902 780 L
2905 809 L
2907 819 L
2909 805 L
2912 792 L
2914 830 L
2916 820 L
2918 836 L
2920 876 L
2922 889 L
2925 898 L
2927 829 L
2929 879 L
2931 937 L
2933 842 L
2935 855 L
2937 835 L
2939 911 L
2941 819 L
2943 831 L
2945 876 L
2947 880 L
2948 860 L
2950 811 L
2952 882 L
2954 889 L
2956 849 L
2958 826 L
2959 883 L
2961 877 L
2963 865 L
2965 799 L
2966 883 L
2968 841 L
2970 861 L
2972 819 L
2973 965 L
2975 904 L
2977 816 L
2978 942 L
2980 822 L
2982 884 L
2983 935 L
2985 887 L
2986 903 L
2988 911 L
2989 934 L
2991 905 L
2993 936 L
2994 796 L
2996 837 L
2997 896 L
2999 869 L
3000 874 L
3002 858 L
3003 886 L
3005 861 L
3006 876 L
3007 885 L
3009 932 L
3010 910 L
3012 892 L
3013 922 L
3014 864 L
3016 886 L
3017 852 L
3019 877 L
3020 871 L
3021 936 L
3023 898 L
3024 876 L
3025 877 L
3027 925 L
3028 983 L
3029 891 L
3031 931 L
3032 838 L
3033 884 L
3034 893 L
3036 898 L
3037 882 L
3038 926 L
3039 943 L
3041 905 L
3042 956 L
3043 873 L
3044 810 L
3045 934 L
3047 857 L
3048 959 L
3049 966 L
3050 917 L
3051 801 L
3053 911 L
3054 971 L
3055 923 L
3056 870 L
3057 931 L
3058 945 L
3059 976 L
3061 906 L
3062 908 L
3063 931 L
3064 948 L
3065 922 L
3066 934 L
3067 924 L
3068 931 L
3069 886 L
3070 910 L
3071 956 L
3073 925 L
3074 898 L
3075 926 L
3076 913 L
3077 907 L
3078 894 L
3079 831 L
3080 872 L
3081 930 L
3082 965 L
3083 924 L
3084 937 L
3085 963 L
3086 899 L
3087 950 L
3088 925 L
3089 900 L
3112 967 L
3133 949 L
3152 1052 L
3170 979 L
3186 942 L
3201 938 L
3216 911 L
3229 983 L
3241 943 L
3253 1005 L
3264 962 L
3275 1026 L
3285 1021 L
3295 1010 L
3304 1058 L
3313 1016 L
3322 1000 L
3330 1014 L
3338 1052 L
3346 1040 L
3353 982 L
3360 1050 L
3367 999 L
3374 993 L
3380 1059 L
3387 935 L
3393 1027 L
3399 993 L
3405 1031 L
3410 1052 L
3416 952 L
3421 964 L
3426 1041 L
3431 1058 L
3436 1037 L
3441 975 L
3446 911 L
3451 1026 L
3455 957 L
3460 944 L
3464 999 L
3469 1047 L
3473 941 L
3477 973 L
3481 1010 L
3485 977 L
3489 1019 L
3493 1023 L
3496 1076 L
3500 1031 L
3504 1066 L
3507 963 L
3511 1031 L
3514 1003 L
3518 1064 L
3521 960 L
3525 928 L
3528 917 L
3531 1045 L
3534 981 L
3537 1056 L
3540 1000 L
3543 1000 L
3546 1008 L
3549 1013 L
3552 1010 L
3555 952 L
3558 974 L
3561 1013 L
3564 1015 L
3566 969 L
3575 935 L
3586 973 L
3595 978 L
3605 948 L
3613 949 L
3622 953 L
3630 964 L
3638 1014 L
3646 1017 L
3653 958 L
3660 992 L
3667 912 L
3674 952 L
3681 946 L
3687 995 L
3693 1026 L
3699 909 L
3705 995 L
3710 920 L
3716 921 L
3721 933 L
3727 950 L
3732 932 L
3737 928 L
3742 966 L
3746 943 L
3751 990 L
3756 924 L
3760 925 L
3764 1003 L
3769 907 L
3773 998 L
3777 941 L
3781 984 L
3785 959 L
3789 990 L
3793 921 L
3797 961 L
3800 936 L
3804 925 L
3808 948 L
3811 956 L
3815 996 L
3818 859 L
3821 1003 L
3825 934 L
3828 920 L
3831 989 L
3834 911 L
3838 940 L
3841 930 L
3844 927 L
3847 928 L
3850 903 L
3853 1001 L
3855 901 L
3858 917 L
3861 928 L
3864 899 L
3867 888 L
3869 942 L
3872 982 L
3875 943 L
3877 956 L
3880 973 L
3882 1026 L
3885 963 L
3887 995 L
3890 1036 L
3892 993 L
3895 936 L
3897 950 L
3899 1021 L
3902 954 L
3904 952 L
3906 867 L
3908 1014 L
3911 895 L
3913 942 L
3915 972 L
3917 949 L
3919 912 L
3921 943 L
3923 992 L
3926 981 L
3928 1008 L
3930 1038 L
3932 942 L
3934 1056 L
3936 956 L
3938 968 L
3940 920 L
3942 969 L
3943 928 L
3945 992 L
3947 937 L
3949 977 L
3951 948 L
3953 970 L
3955 977 L
3956 930 L
3958 1009 L
3960 918 L
3962 1001 L
3963 976 L
3965 1007 L
3967 949 L
3969 902 L
3970 924 L
3972 919 L
3974 960 L
3975 986 L
3977 961 L
3978 940 L
3980 1031 L
3982 927 L
3983 1041 L
3985 1024 L
3986 864 L
3988 924 L
3990 956 L
3991 1038 L
3993 934 L
3994 997 L
3996 992 L
3997 921 L
3999 887 L
4000 949 L
4001 969 L
4003 989 L
4004 994 L
4006 960 L
4007 968 L
4009 1009 L
4010 934 L
4011 934 L
4013 1003 L
4014 994 L
4016 967 L
4017 936 L
4018 965 L
4020 1029 L
4021 919 L
4022 886 L
4024 900 L
4025 1000 L
4026 975 L
4028 937 L
4029 1035 L
4030 997 L
4031 946 L
4033 925 L
4034 937 L
4035 956 L
4036 968 L
4038 944 L
4039 919 L
4040 1016 L
4041 945 L
4042 965 L
4044 1047 L
4045 959 L
4046 895 L
4047 993 L
4048 913 L
4050 1017 L
4051 1000 L
4052 978 L
4053 942 L
4054 1036 L
4055 930 L
4056 990 L
4058 965 L
4059 1040 L
4060 992 L
4061 970 L
4062 991 L
4063 1001 L
4064 1032 L
4065 982 L
4066 995 L
L2 C02 COSGR

%
% Main frame
%
L10
GSN 
620 1700 M
4220 1700 L
4220 5300 L
620 5300 L
closepath SGR

%
% X axis: large tics
%
L10
GSN 1074 1700 M 0  54 rL SGR
GSN 1074 5300 M 0 -54 rL SGR
helvS (0.0001) 1074 470 xlabel
GSN 1572 1700 M 0  54 rL SGR
GSN 1572 5300 M 0 -54 rL SGR
helvS (0.001) 1572 470 xlabel
GSN 2071 1700 M 0  54 rL SGR
GSN 2071 5300 M 0 -54 rL SGR
helvS (0.01) 2071 470 xlabel
GSN 2570 1700 M 0  54 rL SGR
GSN 2570 5300 M 0 -54 rL SGR
helvS (0.1) 2570 470 xlabel
GSN 3068 1700 M 0  54 rL SGR
GSN 3068 5300 M 0 -54 rL SGR
helvS (1) 3068 470 xlabel
GSN 3567 1700 M 0  54 rL SGR
GSN 3567 5300 M 0 -54 rL SGR
helvS (10) 3567 470 xlabel
GSN 4066 1700 M 0  54 rL SGR
GSN 4066 5300 M 0 -54 rL SGR
helvS (100) 4066 470 xlabel
%
% X axis: small tics
%
L5
GSN 725 1700 M 0  36 rL SGR
GSN 725 5300 M 0 -36 rL SGR
GSN 813 1700 M 0  36 rL SGR
GSN 813 5300 M 0 -36 rL SGR
GSN 875 1700 M 0  36 rL SGR
GSN 875 5300 M 0 -36 rL SGR
GSN 924 1700 M 0  36 rL SGR
GSN 924 5300 M 0 -36 rL SGR
GSN 963 1700 M 0  36 rL SGR
GSN 963 5300 M 0 -36 rL SGR
GSN 996 1700 M 0  36 rL SGR
GSN 996 5300 M 0 -36 rL SGR
GSN 1025 1700 M 0  36 rL SGR
GSN 1025 5300 M 0 -36 rL SGR
GSN 1051 1700 M 0  36 rL SGR
GSN 1051 5300 M 0 -36 rL SGR
GSN 1224 1700 M 0  36 rL SGR
GSN 1224 5300 M 0 -36 rL SGR
GSN 1312 1700 M 0  36 rL SGR
GSN 1312 5300 M 0 -36 rL SGR
GSN 1374 1700 M 0  36 rL SGR
GSN 1374 5300 M 0 -36 rL SGR
GSN 1422 1700 M 0  36 rL SGR
GSN 1422 5300 M 0 -36 rL SGR
GSN 1462 1700 M 0  36 rL SGR
GSN 1462 5300 M 0 -36 rL SGR
GSN 1495 1700 M 0  36 rL SGR
GSN 1495 5300 M 0 -36 rL SGR
GSN 1524 1700 M 0  36 rL SGR
GSN 1524 5300 M 0 -36 rL SGR
GSN 1550 1700 M 0  36 rL SGR
GSN 1550 5300 M 0 -36 rL SGR
GSN 1722 1700 M 0  36 rL SGR
GSN 1722 5300 M 0 -36 rL SGR
GSN 1810 1700 M 0  36 rL SGR
GSN 1810 5300 M 0 -36 rL SGR
GSN 1873 1700 M 0  36 rL SGR
GSN 1873 5300 M 0 -36 rL SGR
GSN 1921 1700 M 0  36 rL SGR
GSN 1921 5300 M 0 -36 rL SGR
GSN 1960 1700 M 0  36 rL SGR
GSN 1960 5300 M 0 -36 rL SGR
GSN 1994 1700 M 0  36 rL SGR
GSN 1994 5300 M 0 -36 rL SGR
GSN 2023 1700 M 0  36 rL SGR
GSN 2023 5300 M 0 -36 rL SGR
GSN 2048 1700 M 0  36 rL SGR
GSN 2048 5300 M 0 -36 rL SGR
GSN 2221 1700 M 0  36 rL SGR
GSN 2221 5300 M 0 -36 rL SGR
GSN 2309 1700 M 0  36 rL SGR
GSN 2309 5300 M 0 -36 rL SGR
GSN 2371 1700 M 0  36 rL SGR
GSN 2371 5300 M 0 -36 rL SGR
GSN 2420 1700 M 0  36 rL SGR
GSN 2420 5300 M 0 -36 rL SGR
GSN 2459 1700 M 0  36 rL SGR
GSN 2459 5300 M 0 -36 rL SGR
GSN 2492 1700 M 0  36 rL SGR
GSN 2492 5300 M 0 -36 rL SGR
GSN 2521 1700 M 0  36 rL SGR
GSN 2521 5300 M 0 -36 rL SGR
GSN 2547 1700 M 0  36 rL SGR
GSN 2547 5300 M 0 -36 rL SGR
GSN 2720 1700 M 0  36 rL SGR
GSN 2720 5300 M 0 -36 rL SGR
GSN 2808 1700 M 0  36 rL SGR
GSN 2808 5300 M 0 -36 rL SGR
GSN 2870 1700 M 0  36 rL SGR
GSN 2870 5300 M 0 -36 rL SGR
GSN 2918 1700 M 0  36 rL SGR
GSN 2918 5300 M 0 -36 rL SGR
GSN 2958 1700 M 0  36 rL SGR
GSN 2958 5300 M 0 -36 rL SGR
GSN 2991 1700 M 0  36 rL SGR
GSN 2991 5300 M 0 -36 rL SGR
GSN 3020 1700 M 0  36 rL SGR
GSN 3020 5300 M 0 -36 rL SGR
GSN 3045 1700 M 0  36 rL SGR
GSN 3045 5300 M 0 -36 rL SGR
GSN 3218 1700 M 0  36 rL SGR
GSN 3218 5300 M 0 -36 rL SGR
GSN 3306 1700 M 0  36 rL SGR
GSN 3306 5300 M 0 -36 rL SGR
GSN 3368 1700 M 0  36 rL SGR
GSN 3368 5300 M 0 -36 rL SGR
GSN 3417 1700 M 0  36 rL SGR
GSN 3417 5300 M 0 -36 rL SGR
GSN 3456 1700 M 0  36 rL SGR
GSN 3456 5300 M 0 -36 rL SGR
GSN 3490 1700 M 0  36 rL SGR
GSN 3490 5300 M 0 -36 rL SGR
GSN 3519 1700 M 0  36 rL SGR
GSN 3519 5300 M 0 -36 rL SGR
GSN 3544 1700 M 0  36 rL SGR
GSN 3544 5300 M 0 -36 rL SGR
GSN 3717 1700 M 0  36 rL SGR
GSN 3717 5300 M 0 -36 rL SGR
GSN 3805 1700 M 0  36 rL SGR
GSN 3805 5300 M 0 -36 rL SGR
GSN 3867 1700 M 0  36 rL SGR
GSN 3867 5300 M 0 -36 rL SGR
GSN 3915 1700 M 0  36 rL SGR
GSN 3915 5300 M 0 -36 rL SGR
GSN 3955 1700 M 0  36 rL SGR
GSN 3955 5300 M 0 -36 rL SGR
GSN 3988 1700 M 0  36 rL SGR
GSN 3988 5300 M 0 -36 rL SGR
GSN 4017 1700 M 0  36 rL SGR
GSN 4017 5300 M 0 -36 rL SGR
GSN 4043 1700 M 0  36 rL SGR
GSN 4043 5300 M 0 -36 rL SGR
GSN 4216 1700 M 0  36 rL SGR
GSN 4216 5300 M 0 -36 rL SGR
%
% Y axis: large tics
%
L10
GSN 620 2669 M 54 0 rL SGR
GSN 4220 2669 M -54 0 rL SGR
helvS (1.1) 560 2669 ylabel
GSN 620 3691 M 54 0 rL SGR
GSN 4220 3691 M -54 0 rL SGR
helvS (1.12) 560 3691 ylabel
GSN 620 4713 M 54 0 rL SGR
GSN 4220 4713 M -54 0 rL SGR
helvS (1.14) 560 4713 ylabel
%
% Y axis: small tics
%
L5
GSN 620 1903 M 36 0 rL SGR
GSN 4220 1903 M -36 0 rL SGR
GSN 620 2158 M 36 0 rL SGR
GSN 4220 2158 M -36 0 rL SGR
GSN 620 2414 M 36 0 rL SGR
GSN 4220 2414 M -36 0 rL SGR
GSN 620 2669 M 36 0 rL SGR
GSN 4220 2669 M -36 0 rL SGR
GSN 620 2925 M 36 0 rL SGR
GSN 4220 2925 M -36 0 rL SGR
GSN 620 3180 M 36 0 rL SGR
GSN 4220 3180 M -36 0 rL SGR
GSN 620 3436 M 36 0 rL SGR
GSN 4220 3436 M -36 0 rL SGR
GSN 620 3691 M 36 0 rL SGR
GSN 4220 3691 M -36 0 rL SGR
GSN 620 3947 M 36 0 rL SGR
GSN 4220 3947 M -36 0 rL SGR
GSN 620 4202 M 36 0 rL SGR
GSN 4220 4202 M -36 0 rL SGR
GSN 620 4458 M 36 0 rL SGR
GSN 4220 4458 M -36 0 rL SGR
GSN 620 4713 M 36 0 rL SGR
GSN 4220 4713 M -36 0 rL SGR
GSN 620 4969 M 36 0 rL SGR
GSN 4220 4969 M -36 0 rL SGR
GSN 620 5224 M 36 0 rL SGR
GSN 4220 5224 M -36 0 rL SGR

%
% X-Axis label:
%
gsave 2420 290 M 
[
[(Helvetica) 180 0 true true 0 (t)]
[(Helvetica) 180 0 true true 0 (i)]
[(Helvetica) 180 0 true true 0 (m)]
[(Helvetica) 180 0 true true 0 (e)]
] 0 MCshow grestore

%
% Y-Axis label:
%
gsave 234 3500 M 
currentpoint gsave translate 90 rotate 0 0 moveto
[
[(Helvetica) 180 0 true true 0 (s)]
[(Helvetica) 180 0 true true 0 (i)]
[(Helvetica) 180 0 true true 0 (g)]
[(Helvetica) 180 0 true true 0 (n)]
[(Helvetica) 180 0 true true 0 (a)]
[(Helvetica) 180 0 true true 0 (l)]
] 0 MCshow grestore

%
% Residuals:
%
gsave 129 1160 M 
currentpoint gsave translate 90 rotate 0 0 moveto
[
[(Helvetica) 150 0 true true 0 (r)]
[(Helvetica) 150 0 true true 0 (e)]
[(Helvetica) 150 0 true true 0 (s)]
[(Helvetica) 150 0 true true 0 (i)]
[(Helvetica) 150 0 true true 0 (d)]
[(Helvetica) 150 0 true true 0 (u)]
[(Helvetica) 150 0 true true 0 (a)]
[(Helvetica) 150 0 true true 0 (l)]
[(Helvetica) 150 0 true true 0 (s)]
] 0 MCshow grestore

%
% Residual frame
%
L10
GSN 
620 620 M
4220 620 L
4220 1700 L
620 1700 L
closepath SGR
%
% X axis: large tics - residual frame
%
L10
GSN 1074 620 M 0  54 rL SGR
GSN 1074 1700 M 0 -54 rL SGR
GSN 1572 620 M 0  54 rL SGR
GSN 1572 1700 M 0 -54 rL SGR
GSN 2071 620 M 0  54 rL SGR
GSN 2071 1700 M 0 -54 rL SGR
GSN 2570 620 M 0  54 rL SGR
GSN 2570 1700 M 0 -54 rL SGR
GSN 3068 620 M 0  54 rL SGR
GSN 3068 1700 M 0 -54 rL SGR
GSN 3567 620 M 0  54 rL SGR
GSN 3567 1700 M 0 -54 rL SGR
GSN 4066 620 M 0  54 rL SGR
GSN 4066 1700 M 0 -54 rL SGR
%
% X axis: small tics - residual frame
%
L5
GSN 725 620 M 0  36 rL SGR
GSN 725 1700 M 0 -36 rL SGR
GSN 813 620 M 0  36 rL SGR
GSN 813 1700 M 0 -36 rL SGR
GSN 875 620 M 0  36 rL SGR
GSN 875 1700 M 0 -36 rL SGR
GSN 924 620 M 0  36 rL SGR
GSN 924 1700 M 0 -36 rL SGR
GSN 963 620 M 0  36 rL SGR
GSN 963 1700 M 0 -36 rL SGR
GSN 996 620 M 0  36 rL SGR
GSN 996 1700 M 0 -36 rL SGR
GSN 1025 620 M 0  36 rL SGR
GSN 1025 1700 M 0 -36 rL SGR
GSN 1051 620 M 0  36 rL SGR
GSN 1051 1700 M 0 -36 rL SGR
GSN 1224 620 M 0  36 rL SGR
GSN 1224 1700 M 0 -36 rL SGR
GSN 1312 620 M 0  36 rL SGR
GSN 1312 1700 M 0 -36 rL SGR
GSN 1374 620 M 0  36 rL SGR
GSN 1374 1700 M 0 -36 rL SGR
GSN 1422 620 M 0  36 rL SGR
GSN 1422 1700 M 0 -36 rL SGR
GSN 1462 620 M 0  36 rL SGR
GSN 1462 1700 M 0 -36 rL SGR
GSN 1495 620 M 0  36 rL SGR
GSN 1495 1700 M 0 -36 rL SGR
GSN 1524 620 M 0  36 rL SGR
GSN 1524 1700 M 0 -36 rL SGR
GSN 1550 620 M 0  36 rL SGR
GSN 1550 1700 M 0 -36 rL SGR
GSN 1722 620 M 0  36 rL SGR
GSN 1722 1700 M 0 -36 rL SGR
GSN 1810 620 M 0  36 rL SGR
GSN 1810 1700 M 0 -36 rL SGR
GSN 1873 620 M 0  36 rL SGR
GSN 1873 1700 M 0 -36 rL SGR
GSN 1921 620 M 0  36 rL SGR
GSN 1921 1700 M 0 -36 rL SGR
GSN 1960 620 M 0  36 rL SGR
GSN 1960 1700 M 0 -36 rL SGR
GSN 1994 620 M 0  36 rL SGR
GSN 1994 1700 M 0 -36 rL SGR
GSN 2023 620 M 0  36 rL SGR
GSN 2023 1700 M 0 -36 rL SGR
GSN 2048 620 M 0  36 rL SGR
GSN 2048 1700 M 0 -36 rL SGR
GSN 2221 620 M 0  36 rL SGR
GSN 2221 1700 M 0 -36 rL SGR
GSN 2309 620 M 0  36 rL SGR
GSN 2309 1700 M 0 -36 rL SGR
GSN 2371 620 M 0  36 rL SGR
GSN 2371 1700 M 0 -36 rL SGR
GSN 2420 620 M 0  36 rL SGR
GSN 2420 1700 M 0 -36 rL SGR
GSN 2459 620 M 0  36 rL SGR
GSN 2459 1700 M 0 -36 rL SGR
GSN 2492 620 M 0  36 rL SGR
GSN 2492 1700 M 0 -36 rL SGR
GSN 2521 620 M 0  36 rL SGR
GSN 2521 1700 M 0 -36 rL SGR
GSN 2547 620 M 0  36 rL SGR
GSN 2547 1700 M 0 -36 rL SGR
GSN 2720 620 M 0  36 rL SGR
GSN 2720 1700 M 0 -36 rL SGR
GSN 2808 620 M 0  36 rL SGR
GSN 2808 1700 M 0 -36 rL SGR
GSN 2870 620 M 0  36 rL SGR
GSN 2870 1700 M 0 -36 rL SGR
GSN 2918 620 M 0  36 rL SGR
GSN 2918 1700 M 0 -36 rL SGR
GSN 2958 620 M 0  36 rL SGR
GSN 2958 1700 M 0 -36 rL SGR
GSN 2991 620 M 0  36 rL SGR
GSN 2991 1700 M 0 -36 rL SGR
GSN 3020 620 M 0  36 rL SGR
GSN 3020 1700 M 0 -36 rL SGR
GSN 3045 620 M 0  36 rL SGR
GSN 3045 1700 M 0 -36 rL SGR
GSN 3218 620 M 0  36 rL SGR
GSN 3218 1700 M 0 -36 rL SGR
GSN 3306 620 M 0  36 rL SGR
GSN 3306 1700 M 0 -36 rL SGR
GSN 3368 620 M 0  36 rL SGR
GSN 3368 1700 M 0 -36 rL SGR
GSN 3417 620 M 0  36 rL SGR
GSN 3417 1700 M 0 -36 rL SGR
GSN 3456 620 M 0  36 rL SGR
GSN 3456 1700 M 0 -36 rL SGR
GSN 3490 620 M 0  36 rL SGR
GSN 3490 1700 M 0 -36 rL SGR
GSN 3519 620 M 0  36 rL SGR
GSN 3519 1700 M 0 -36 rL SGR
GSN 3544 620 M 0  36 rL SGR
GSN 3544 1700 M 0 -36 rL SGR
GSN 3717 620 M 0  36 rL SGR
GSN 3717 1700 M 0 -36 rL SGR
GSN 3805 620 M 0  36 rL SGR
GSN 3805 1700 M 0 -36 rL SGR
GSN 3867 620 M 0  36 rL SGR
GSN 3867 1700 M 0 -36 rL SGR
GSN 3915 620 M 0  36 rL SGR
GSN 3915 1700 M 0 -36 rL SGR
GSN 3955 620 M 0  36 rL SGR
GSN 3955 1700 M 0 -36 rL SGR
GSN 3988 620 M 0  36 rL SGR
GSN 3988 1700 M 0 -36 rL SGR
GSN 4017 620 M 0  36 rL SGR
GSN 4017 1700 M 0 -36 rL SGR
GSN 4043 620 M 0  36 rL SGR
GSN 4043 1700 M 0 -36 rL SGR
GSN 4216 620 M 0  36 rL SGR
GSN 4216 1700 M 0 -36 rL SGR
%
% Y axis: large tics - residual frame
%
L10
GSN 620 744 M 54 0 rL SGR
GSN 4220 744 M -54 0 rL SGR
helvS (-0.02) 560 744 ylabelresid
GSN 620 995 M 54 0 rL SGR
GSN 4220 995 M -54 0 rL SGR
helvS (0) 560 995 ylabelresid
GSN 620 1246 M 54 0 rL SGR
GSN 4220 1246 M -54 0 rL SGR
helvS (0.02) 560 1246 ylabelresid
GSN 620 1497 M 54 0 rL SGR
GSN 4220 1497 M -54 0 rL SGR
helvS (0.04) 560 1497 ylabelresid

%
% X axis - residual panel
%
GSN L5 620 995 M 4220 995 L SDA G50 SGR

end
showpage
%%Trailer
%%EOF
