%!PS-Adobe-3.0 EPSF-3.0
%%BoundingBox: 0 0 514 550
%%Creator: BioKin Ltd.
%%DocumentFonts: Symbol Helvetica
%%EndComments
%
/bkdict 256 dict def
bkdict begin
/M {moveto} def 
/R {rmoveto} def
/L {lineto} def
/rL {rlineto} def
/GSN {gsave newpath} def
/SGR {stroke grestore} def
/COSGR {gsave setrgbcolor stroke grestore grestore} def
/SL {setlinewidth} def
/LWMB {12} def             % line width - model curves, black & white
/LWMC {10} def             % line width - model curves, color
/L2 {2.5 setlinewidth} def
/L5 {5 setlinewidth} def
/L10 {10 setlinewidth} def
/G50 {0.5 setgray} def
/SDA {[10  20] 0 setdash} def % axes
/helvT {/Helvetica findfont 100 scalefont setfont} def % tiny
/helvS {/Helvetica findfont 125 scalefont setfont} def % small
/helvM {/Helvetica findfont 150 scalefont setfont} def % medium
/helvL {/Helvetica findfont 175 scalefont setfont} def % large
/xlabel {gsave M dup
   stringwidth exch -0.5 mul exch rmoveto show grestore} def 
/ylabel {gsave M 90 rotate dup
   stringwidth exch -0.5 mul exch rmoveto show grestore} def
/ylabelresid {gsave M dup
   stringwidth exch -1 mul exch rmoveto show grestore} def
% ======
% Shapes
% ======
% Circle:
/Circ {0 360 arc closepath} def
%
% Square:
/Squa {dup dup -0.5 mul dup dup R -2 mul 0 exch rL 1 mul 0 rL dup 0 exch -1 mul rL closepath} def
%
% Triangle Up:
/TriU {dup dup dup -0.4 mul exch -0.5 mul exch R dup 0.5 mul exch rL dup -1 mul exch 0.5 mul exch rL closepath} def 
%
% Triangle Down:
/TriD {dup dup dup 0.4 mul exch -0.5 mul exch R dup 0.5 mul exch -1 mul rL dup 0.5 mul exch rL closepath} def 
%
% Diamond:
/Diam {45 rotate Squa} def
% ======
% Fills
% ======
/GRF {gsave setgray fill grestore} def                    % gray-level Fill
/COF {gsave setrgbcolor fill grestore} def                % color fill
% ======
% Colors
% ======
/C01 {1.00	0.00	0.00} def      % Red
/C02 {0.00	0.00	1.00} def      % Blue
/C03 {0.00	0.39	0.00} def      % Dark Green
/C04 {0.78	0.08	0.52} def      % Medium Violet Red
/C05 {0.55	0.27	0.07} def      % Saddle Brown
/C06 {0.10	0.70	0.70} def      % (cyan)
/C07 {1.00	0.55	0.00} def      % Dark Orange
/C08 {0.63	0.13	0.94} def      % Purple
/C09 {0.00	0.75	1.00} def      % Deep Sky Blue
/C10 {0.20	0.80	0.20} def      % Lime Green
/C11 {0.47	0.53	0.60} def      % Light Slate Gray
/C12 {0.00	0.00	0.00} def      % Black            % or: {0.19	0.31	0.31} def      % Dark Slate Gray
%
/LGR {0.75} def % light gray
/DGR {0.33} def % dark gray
%
% =============
% Dash patterns
% =============
/dash01 { [80  20] 0 setdash } def
/dash02 { [40  20] 0 setdash } def
/dash03 { [80  20  10  20] 0 setdash } def
/dash04 { [40  20  10  20] 0 setdash } def
/dash05 { [80  20  10  10  10  20] 0 setdash } def
/dash06 { [40  20  10  10  10  20] 0 setdash } def
/dash07 { [10  10] 0 setdash } def
%
/MFshow {
   { dup 5 get 3 ge
     { 5 get 3 eq {gsave} {grestore} ifelse }
     {dup dup 0 get findfont exch 1 get scalefont setfont
     [ currentpoint ] exch dup 2 get 0 exch R dup 5 get 2 ne {dup dup 6
     get exch 4 get {show} {stringwidth pop 0 R} ifelse }if dup 5 get 0 eq
     {dup 3 get {2 get neg 0 exch R pop} {pop aload pop M} ifelse} {dup 5
     get 1 eq {dup 2 get exch dup 3 get exch 6 get stringwidth pop -2 div
     dup 0 R} {dup 6 get stringwidth pop -2 div 0 R 6 get
     show 2 index {aload pop M neg 3 -1 roll neg R pop pop} {pop pop pop
     pop aload pop M} ifelse }ifelse }ifelse }
     ifelse }
   forall} bind def
/MFwidth {0 exch {dup 3 get{dup dup 0 get findfont exch 1 get scalefont
     setfont 6 get stringwidth pop add} {pop} ifelse} forall} bind def
/MCshow { currentpoint stroke M
  exch dup MFwidth -2 div 3 -1 roll R MFshow } def
%
end
%%EndProlog
bkdict begin
0.1 0.1 scale
%
% Residuals:
%
GSN 620 2692 M
620 4863 L
620 4750 L
620 4495 L
620 4628 L
620 4514 L
620 4350 L
620 4374 L
620 4218 L
620 4171 L
620 4293 L
620 4149 L
620 4067 L
620 4140 L
620 4093 L
620 3990 L
620 4022 L
620 3866 L
620 3918 L
620 3930 L
620 3967 L
620 3996 L
620 3806 L
620 3761 L
620 3687 L
620 3736 L
620 3948 L
620 3884 L
620 3722 L
620 3707 L
620 3665 L
620 3654 L
620 3659 L
620 3726 L
620 3389 L
620 3722 L
620 3452 L
620 3452 L
620 3378 L
620 3478 L
620 3470 L
620 3225 L
620 3425 L
620 3414 L
620 3263 L
620 3352 L
620 3448 L
620 3421 L
620 3195 L
620 3242 L
620 3259 L
620 3162 L
620 3130 L
620 3224 L
620 3252 L
620 3130 L
620 3046 L
620 3057 L
620 3050 L
620 3224 L
620 3076 L
620 3195 L
620 3193 L
620 3048 L
620 3058 L
620 2949 L
620 2929 L
620 3124 L
620 3042 L
620 3128 L
620 2875 L
620 2978 L
620 3015 L
620 3035 L
620 2997 L
620 2961 L
620 2859 L
620 2857 L
620 2942 L
620 2959 L
620 2987 L
620 2788 L
620 2731 L
620 2703 L
620 2517 L
620 2701 L
620 2764 L
620 2629 L
620 2638 L
620 2587 L
620 2678 L
620 2362 L
620 2616 L
620 2478 L
620 2433 L
620 2335 L
620 2353 L
620 2431 L
620 2394 L
620 2286 L
620 2362 L
620 2403 L
620 2523 L
620 2323 L
620 2393 L
620 2478 L
620 2363 L
620 2393 L
620 2326 L
620 2381 L
620 2334 L
620 2372 L
620 2222 L
620 2158 L
620 2211 L
620 2136 L
620 2250 L
620 2156 L
620 2385 L
620 2332 L
620 2351 L
620 2293 L
620 2404 L
620 2442 L
620 2231 L
620 2315 L
620 2409 L
620 2235 L
620 2508 L
620 2324 L
620 2225 L
620 2453 L
620 2468 L
620 2454 L
620 2350 L
620 2150 L
620 2532 L
620 2371 L
620 2330 L
620 2310 L
620 2529 L
620 2397 L
620 2374 L
620 2644 L
620 2285 L
620 2263 L
620 2390 L
620 2380 L
620 2426 L
620 2356 L
620 2260 L
620 2434 L
620 2537 L
620 2437 L
620 2412 L
620 2351 L
620 2325 L
620 2579 L
620 2457 L
620 2315 L
620 2524 L
620 2373 L
620 2381 L
620 2595 L
620 2437 L
620 2437 L
620 2651 L
620 2510 L
620 2467 L
620 2573 L
620 2614 L
620 2522 L
620 2425 L
620 2514 L
620 2716 L
620 2608 L
620 2425 L
620 2683 L
620 2655 L
620 2515 L
620 2410 L
620 2668 L
620 2681 L
620 2560 L
620 2367 L
620 2671 L
620 2595 L
620 2622 L
620 2781 L
620 2576 L
620 2651 L
620 2738 L
620 2584 L
620 2641 L
620 2595 L
620 2709 L
620 2736 L
620 2643 L
620 2594 L
620 2582 L
620 2601 L
620 2690 L
620 2833 L
620 2673 L
620 2728 L
620 2492 L
620 2761 L
620 2631 L
620 2759 L
620 2692 L
620 2626 L
620 2843 L
620 2824 L
620 2650 L
620 2721 L
620 2786 L
620 2845 L
620 2657 L
620 2817 L
620 2876 L
620 2778 L
620 2744 L
620 2607 L
620 2793 L
620 2620 L
620 2748 L
620 2801 L
620 2793 L
620 2851 L
620 2826 L
620 2689 L
620 2968 L
620 2735 L
620 2717 L
620 2940 L
620 2810 L
620 2789 L
620 2829 L
620 2641 L
620 2705 L
620 2972 L
620 2918 L
620 2870 L
620 2992 L
620 2780 L
620 2720 L
620 2765 L
620 2983 L
620 2885 L
620 2763 L
620 2818 L
620 2937 L
620 2866 L
620 2869 L
620 2705 L
620 2940 L
620 3024 L
620 2851 L
620 2828 L
620 2867 L
620 2913 L
620 2868 L
620 2885 L
620 2918 L
620 2740 L
620 2988 L
620 2923 L
620 2880 L
620 2927 L
620 3008 L
620 2711 L
620 2826 L
620 2894 L
620 3015 L
620 2860 L
620 2940 L
620 2887 L
620 2939 L
620 2943 L
620 2691 L
620 3065 L
620 2958 L
620 3131 L
620 2976 L
620 2947 L
620 3176 L
620 3169 L
620 3077 L
620 3035 L
620 3242 L
620 3115 L
620 3178 L
620 2994 L
620 3147 L
620 3097 L
620 3156 L
620 3131 L
620 3205 L
620 3143 L
620 3077 L
620 3211 L
620 3135 L
620 3149 L
620 3179 L
620 3226 L
620 3146 L
620 3066 L
620 3247 L
620 3130 L
620 3317 L
620 3436 L
620 3247 L
620 3168 L
620 3097 L
620 3302 L
620 3225 L
620 3077 L
620 3146 L
620 3191 L
620 3328 L
620 3371 L
620 3097 L
620 3088 L
620 3131 L
620 3245 L
620 3166 L
620 3278 L
620 3238 L
620 3156 L
620 3167 L
620 3152 L
620 3162 L
620 3171 L
620 3060 L
620 3117 L
620 3394 L
620 3123 L
620 3185 L
620 3038 L
620 3058 L
620 3172 L
620 3111 L
620 3138 L
620 3095 L
620 3181 L
620 3262 L
620 3067 L
620 3382 L
620 3109 L
620 3143 L
620 3233 L
620 3063 L
620 3021 L
620 3219 L
620 3267 L
620 2992 L
620 3163 L
620 3009 L
620 3045 L
620 3238 L
620 3127 L
620 3094 L
620 2990 L
620 3084 L
620 3108 L
620 3240 L
620 3171 L
620 3023 L
620 3090 L
620 3088 L
620 3162 L
620 2932 L
620 3038 L
620 2996 L
620 2979 L
620 3089 L
620 3002 L
620 2982 L
620 3134 L
620 3291 L
620 3177 L
620 3076 L
620 2923 L
620 3140 L
620 2901 L
620 3058 L
620 3114 L
620 3010 L
620 3050 L
620 3106 L
620 3113 L
620 2977 L
620 2919 L
620 2915 L
620 2916 L
620 3001 L
620 3004 L
620 2895 L
620 2968 L
620 2974 L
620 2807 L
620 2971 L
620 3042 L
620 3028 L
620 2941 L
620 2977 L
620 2941 L
620 3055 L
620 2949 L
620 3025 L
620 3164 L
620 3058 L
620 2953 L
620 3064 L
620 3009 L
620 3014 L
620 3039 L
620 2820 L
620 2863 L
620 2984 L
620 3063 L
620 3014 L
620 2922 L
620 2945 L
620 2976 L
620 3051 L
620 2971 L
620 3135 L
620 3046 L
620 3001 L
620 3157 L
620 3067 L
620 2995 L
620 3010 L
620 3011 L
620 2968 L
620 2872 L
620 3089 L
620 2912 L
620 3107 L
620 3128 L
620 3029 L
620 2957 L
620 2965 L
620 3098 L
620 3125 L
620 2987 L
620 3040 L
620 3116 L
620 3023 L
620 2993 L
620 3000 L
620 2923 L
620 2806 L
620 2868 L
620 2881 L
620 2883 L
620 2967 L
620 2947 L
620 3026 L
620 3097 L
620 2974 L
620 2989 L
620 3151 L
620 3055 L
620 2928 L
620 3057 L
620 3237 L
620 2926 L
620 3004 L
620 3088 L
620 2823 L
620 2867 L
620 2883 L
620 3157 L
620 3063 L
620 2939 L
620 3000 L
620 2882 L
620 2991 L
620 2740 L
620 3094 L
620 2965 L
620 2868 L
620 2842 L
620 3109 L
620 2992 L
620 2808 L
620 3102 L
620 3065 L
620 3105 L
620 2879 L
620 2997 L
620 2888 L
620 2939 L
620 3102 L
620 2892 L
620 3027 L
620 2881 L
620 2811 L
620 2970 L
620 2994 L
620 3046 L
620 3022 L
620 3048 L
620 3047 L
620 3155 L
620 3102 L
620 3074 L
620 2983 L
620 2983 L
620 2872 L
620 2919 L
620 3016 L
620 2999 L
620 3026 L
620 2974 L
620 3087 L
620 2946 L
620 3233 L
620 2931 L
620 3075 L
620 2951 L
620 2935 L
620 3184 L
620 2999 L
620 3013 L
620 2995 L
620 3134 L
620 3160 L
620 2990 L
620 3033 L
620 2919 L
L2 C06 COSGR

%
%================
% Legend - Begin
%================
%
GSN 4240 5180 M
4480 5180 L
LWMC SL  C06 COSGR
GSN 4540 5141 M helvM (3.0 uM) show grestore
%
%================
% Legend - End
%================
%

%
% Main frame
%
L10
GSN 
620 1700 M
4220 1700 L
4220 5300 L
620 5300 L
closepath SGR

%
% X axis: large tics
%
L10
%
% X axis: small tics
%
L5
%
% Y axis: large tics
%
L10
GSN 620 2070 M 54 0 rL SGR
GSN 4220 2070 M -54 0 rL SGR
helvS (-0.025) 560 2070 ylabel
GSN 620 2958 M 54 0 rL SGR
GSN 4220 2958 M -54 0 rL SGR
helvS (0) 560 2958 ylabel
GSN 620 3847 M 54 0 rL SGR
GSN 4220 3847 M -54 0 rL SGR
helvS (0.025) 560 3847 ylabel
GSN 620 4735 M 54 0 rL SGR
GSN 4220 4735 M -54 0 rL SGR
helvS (0.05) 560 4735 ylabel
%
% Y axis: small tics
%
L5
GSN 620 1892 M 36 0 rL SGR
GSN 4220 1892 M -36 0 rL SGR
GSN 620 2336 M 36 0 rL SGR
GSN 4220 2336 M -36 0 rL SGR
GSN 620 2781 M 36 0 rL SGR
GSN 4220 2781 M -36 0 rL SGR
GSN 620 3225 M 36 0 rL SGR
GSN 4220 3225 M -36 0 rL SGR
GSN 620 3669 M 36 0 rL SGR
GSN 4220 3669 M -36 0 rL SGR
GSN 620 4113 M 36 0 rL SGR
GSN 4220 4113 M -36 0 rL SGR
GSN 620 4558 M 36 0 rL SGR
GSN 4220 4558 M -36 0 rL SGR
GSN 620 5002 M 36 0 rL SGR
GSN 4220 5002 M -36 0 rL SGR

%
% X axis - residual panel
%
GSN L5 620 2958 M 4220 2958 L SDA G50 SGR

%
% X-Axis label:
%
gsave 620 1370 M 
[
[(Helvetica) 180 0 true true 0 (t)]
[(Helvetica) 180 0 true true 0 (i)]
[(Helvetica) 180 0 true true 0 (m)]
[(Helvetica) 180 0 true true 0 (e)]
] 0 MCshow grestore

%
% Y-Axis label:
%
gsave 234 3500 M 
currentpoint gsave translate 90 rotate 0 0 moveto
[
[(Helvetica) 180 0 true true 0 (r)]
[(Helvetica) 180 0 true true 0 (e)]
[(Helvetica) 180 0 true true 0 (s)]
[(Helvetica) 180 0 true true 0 (i)]
[(Helvetica) 180 0 true true 0 (d)]
[(Helvetica) 180 0 true true 0 (u)]
[(Helvetica) 180 0 true true 0 (a)]
[(Helvetica) 180 0 true true 0 (l)]
[(Helvetica) 180 0 true true 0 (s)]
] 0 MCshow grestore

end
showpage
%%Trailer
%%EOF
