# data set	./hsmug/series//U-Trp-R243A.1.csv:col(4)
# fraction of residuals inside model inference band	0.0318949
#   x(mesh)	    y(mesh)	       rate	   y(mesh)-	   y(mesh)+	    x(data)	    y(data)	   y(model)	   y(error)	   residual	     weight	  residual*	   leverage	  y(model)-	  y(model)+	
2.27273e-005	     1.08283	    -1794.34	     -235848	      235850	    2.5e-005	     1.10351	     1.07909	           0	   0.0244193	           1	           0	    -10671.3	     1.07909	     1.07909	
2.27273e-005	     1.08283	    -1794.34	     -235848	      235850	    0.001275	      1.0989	     1.05344	           0	   0.0454642	           1	           0	    -5385.39	     1.05344	     1.05344	
2.65091e-005	     1.07692	    -1358.04	     -235848	      235851	    0.002525	     1.10058	     1.05344	           0	   0.0471402	           1	           0	    -9289.47	     1.05344	     1.05344	
3.09203e-005	     1.07175	    -1007.66	     -235849	      235851	    0.003775	      1.1086	     1.05344	           0	   0.0551682	           1	           0	     609.965	    0.485594	     1.62128	
3.60656e-005	     1.06733	    -730.791	     -235849	      235851	    0.005025	     1.10717	     1.05344	           0	   0.0537342	           1	           0	    -18877.9	     1.05344	     1.05344	
 4.2067e-005	     1.06363	    -515.868	     -235849	      235851	    0.006275	     1.10229	     1.05344	           0	   0.0488502	           1	           0	    -17183.6	     1.05344	     1.05344	
4.54545e-005	     1.06204	    -427.822	     -235849	      235851	    0.007525	     1.10085	     1.05344	           0	   0.0474182	           1	           0	    -6892.32	     1.05344	     1.05344	
 4.9067e-005	     1.06064	     -352.49	     -235849	      235851	    0.008775	     1.09802	     1.05344	           0	   0.0445802	           1	           0	    -11590.1	     1.05344	     1.05344	
5.72319e-005	     1.05829	    -231.467	     -235850	      235852	    0.010025	      1.0974	     1.05344	           0	   0.0439682	           1	           0	    -2099.03	     1.05344	     1.05344	
6.67554e-005	     1.05653	    -144.746	     -235850	      235852	    0.011275	     1.09673	     1.05344	           0	   0.0432942	           1	           0	    -5588.22	     1.05344	     1.05344	
7.78637e-005	     1.05529	    -85.2335	     -235850	      235852	    0.012525	     1.09451	     1.05344	           0	   0.0410702	           1	           0	    -10216.2	     1.05344	     1.05344	
9.08204e-005	     1.05446	    -46.6243	     -235850	      235853	    0.013775	     1.09756	     1.05344	           0	   0.0441202	           1	           0	    -5915.18	     1.05344	     1.05344	
9.09091e-005	     1.05445	    -46.4338	     -235850	      235853	    0.015025	     1.09203	     1.05344	           0	   0.0385962	           1	           0	    -2829.28	     1.05344	     1.05344	
 0.000105933	     1.05395	    -23.3185	     -235851	      235853	    0.016275	      1.0949	     1.05344	           0	   0.0414642	           1	           0	    -3599.43	     1.05344	     1.05344	
 0.000123561	     1.05367	    -10.4695	     -235851	      235853	    0.017525	     1.09441	     1.05344	           0	   0.0409762	           1	           0	    -1898.59	     1.05344	     1.05344	
 0.000144121	     1.05353	    -4.13289	     -235851	      235853	    0.018775	     1.09112	     1.05344	           0	   0.0376822	           1	           0	    -16196.4	     1.05344	     1.05344	
 0.000168104	     1.05347	    -1.40116	     -235851	      235853	    0.020025	     1.08989	     1.05344	           0	   0.0364582	           1	           0	    -4101.78	     1.05344	     1.05344	
 0.000181818	     1.05345	   -0.755195	     -235851	      235853	    0.021275	     1.09038	     1.05344	           0	   0.0369482	           1	           0	    -24389.8	     1.05344	     1.05344	
 0.000196077	     1.05344	   -0.397245	     -235851	      235853	    0.022525	     1.08794	     1.05344	           0	   0.0345062	           1	           0	    -12620.7	     1.05344	     1.05344	
 0.000228704	     1.05344	  -0.0913558	     -235851	      235853	    0.023775	     1.08962	     1.05344	           0	   0.0361842	           1	           0	      -17325	     1.05344	     1.05344	
 0.000266761	     1.05344	  -0.0164536	     -235851	      235853	    0.025025	     1.08739	     1.05344	           0	   0.0339562	           1	           0	    -18503.5	     1.05344	     1.05344	
 0.000311151	     1.05344	   -0.002228	     -235851	      235853	    0.026275	     1.08694	     1.05344	           0	   0.0335002	           1	           0	    -9005.98	     1.05344	     1.05344	
 0.000362927	     1.05344	-0.000216287	     -235851	      235853	    0.027525	     1.08828	     1.05344	           0	   0.0348422	           1	           0	      -19900	     1.05344	     1.05344	
 0.000363636	     1.05344	-0.000209486	     -235851	      235853	    0.028775	     1.08892	     1.05344	           0	   0.0354822	           1	           0	    -10000.6	     1.05344	     1.05344	
 0.000423319	     1.05344	-1.42169e-005	     -235851	      235853	    0.030025	     1.08221	     1.05344	           0	   0.0287702	           1	           0	    -13904.7	     1.05344	     1.05344	
 0.000493761	     1.05344	-5.66606e-007	     -235851	      235853	    0.031275	     1.08532	     1.05344	           0	   0.0318822	           1	           0	    -11536.2	     1.05344	     1.05344	
 0.000575924	     1.05344	1.54236e-008	     -235851	      235853	    0.032525	     1.08962	     1.05344	           0	   0.0361842	           1	           0	    -16233.9	     1.05344	     1.05344	
 0.000671759	     1.05344	2.99112e-008	     -235851	      235853	    0.033775	     1.08428	     1.05344	           0	   0.0308462	           1	           0	    -19736.1	     1.05344	     1.05344	
 0.000727273	     1.05344	3.01653e-008	     -235851	      235853	    0.035025	     1.08468	     1.05344	           0	   0.0312422	           1	           0	    -15309.7	     1.05344	     1.05344	
 0.000783541	     1.05344	3.01187e-008	     -235851	      235853	    0.036275	     1.08333	     1.05344	           0	   0.0298982	           1	           0	    -2816.71	     1.05344	     1.05344	
 0.000913924	     1.05344	3.01255e-008	     -235851	      235853	    0.037525	     1.08199	     1.05344	           0	   0.0285562	           1	           0	    -22702.9	     1.05344	     1.05344	
    0.001066	     1.05344	3.01525e-008	     -235851	      235853	    0.038775	      1.0816	     1.05344	           0	   0.0281602	           1	           0	    -5415.23	     1.05344	     1.05344	
  0.00124339	     1.05344	3.01463e-008	     -235851	      235853	    0.040025	     1.07839	     1.05344	           0	   0.0249562	           1	           0	    -2920.65	     1.05344	     1.05344	
  0.00145029	     1.05344	3.01457e-008	     -235851	      235853	    0.041275	     1.08321	     1.05344	           0	   0.0297762	           1	           0	    -821.405	     1.05344	     1.05344	
  0.00145455	     1.05344	3.01459e-008	     -235851	      235853	    0.042525	     1.08129	     1.05344	           0	   0.0278542	           1	           0	    -9237.92	     1.05344	     1.05344	
  0.00169162	     1.05344	3.01477e-008	     -235851	      235853	    0.043775	      1.0801	     1.05344	           0	   0.0266642	           1	           0	     -5750.2	     1.05344	     1.05344	
  0.00197312	     1.05344	3.01482e-008	     -235851	      235853	    0.045025	     1.07674	     1.05344	           0	   0.0233062	           1	           0	     -5852.7	     1.05344	     1.05344	
  0.00230145	     1.05344	3.01477e-008	     -235851	      235853	    0.046275	     1.08123	     1.05344	           0	   0.0277942	           1	           0	    -10142.1	     1.05344	     1.05344	
  0.00268441	     1.05344	3.01478e-008	     -235851	      235853	    0.047525	     1.08037	     1.05344	           0	   0.0269382	           1	           0	    -17317.3	     1.05344	     1.05344	
  0.00290909	     1.05344	3.01478e-008	     -235851	      235853	    0.048775	     1.07598	     1.05344	           0	   0.0225442	           1	           0	    -9619.71	     1.05344	     1.05344	
  0.00313111	     1.05344	3.01478e-008	     -235851	      235853	    0.050025	     1.07635	     1.05344	           0	   0.0229122	           1	           0	      -14324	     1.05344	     1.05344	
  0.00365213	     1.05344	3.01478e-008	     -235851	      235853	    0.051275	     1.07622	     1.05344	           0	   0.0227882	           1	           0	    -11424.5	     1.05344	     1.05344	
  0.00425985	     1.05344	3.01478e-008	     -235851	      235853	    0.052525	     1.07671	     1.05344	           0	   0.0232742	           1	           0	      -14651	     1.05344	     1.05344	
   0.0049687	     1.05344	3.01478e-008	     -235851	      235853	    0.053775	     1.07229	     1.05344	           0	   0.0188542	           1	           0	    -18548.5	     1.05344	     1.05344	
  0.00579551	     1.05344	3.01478e-008	     -235851	      235853	    0.055025	     1.07088	     1.05344	           0	   0.0174482	           1	           0	    -16847.6	     1.05344	     1.05344	
  0.00581818	     1.05344	3.01478e-008	     -235851	      235853	    0.056275	     1.07691	     1.05344	           0	   0.0234762	           1	           0	    -20751.7	     1.05344	     1.05344	
   0.0067599	     1.05344	3.01478e-008	     -235851	      235853	    0.057525	     1.07294	     1.05344	           0	   0.0195062	           1	           0	    -21930.2	     1.05344	     1.05344	
  0.00788476	     1.05344	3.01478e-008	     -235851	      235853	    0.058775	     1.07021	     1.05344	           0	   0.0167762	           1	           0	    -12030.8	     1.05344	     1.05344	
  0.00919681	     1.05344	3.01478e-008	     -235851	      235853	    0.060025	     1.07101	     1.05344	           0	   0.0175702	           1	           0	    -24126.9	     1.05344	     1.05344	
   0.0107272	     1.05344	3.01478e-008	     -235851	      235853	    0.061275	     1.07381	     1.05344	           0	   0.0203762	           1	           0	    -14227.5	     1.05344	     1.05344	
   0.0116364	     1.05344	3.01478e-008	     -235851	      235853	    0.062525	     1.06643	     1.05344	           0	   0.0129922	           1	           0	      -21127	     1.05344	     1.05344	
   0.0125122	     1.05344	3.01478e-008	     -235851	      235853	    0.063775	     1.06751	     1.05344	           0	   0.0140742	           1	           0	      -23829	     1.05344	     1.05344	
   0.0145943	     1.05344	3.01478e-008	     -235851	      235853	    0.065025	     1.07056	     1.05344	           0	   0.0171282	           1	           0	    -14337.9	     1.05344	     1.05344	
   0.0170228	     1.05344	3.01478e-008	     -235851	      235853	    0.066275	     1.07163	     1.05344	           0	   0.0181962	           1	           0	    -4046.73	     1.05344	     1.05344	
   0.0198554	     1.05344	3.01478e-008	     -235851	      235853	    0.067525	     1.06747	     1.05344	           0	   0.0140302	           1	           0	    -5071.45	     1.05344	     1.05344	
   0.0231594	     1.05344	3.01478e-008	     -235851	      235853	    0.068775	     1.07108	     1.05344	           0	   0.0176462	           1	           0	    -2570.35	     1.05344	     1.05344	
   0.0232727	     1.05344	3.01478e-008	     -235851	      235853	    0.070025	     1.07064	     1.05344	           0	   0.0172042	           1	           0	    -879.454	     1.05344	     1.05344	
   0.0270132	     1.05344	3.01478e-008	     -235851	      235853	    0.071275	     1.06893	     1.05344	           0	   0.0154962	           1	           0	    -8440.05	     1.05344	     1.05344	
   0.0315083	     1.05344	3.01478e-008	     -235851	      235853	    0.072525	     1.06501	     1.05344	           0	   0.0115742	           1	           0	     -5945.5	     1.05344	     1.05344	
   0.0367513	     1.05344	3.01478e-008	     -235851	      235853	    0.073775	     1.07015	     1.05344	           0	   0.0167162	           1	           0	      -12845	     1.05344	     1.05344	
   0.0428668	     1.05344	3.01478e-008	     -235851	      235853	    0.075025	     1.07259	     1.05344	           0	   0.0191582	           1	           0	    -8550.52	     1.05344	     1.05344	
   0.0465455	     1.05344	3.01478e-008	     -235851	      235853	    0.076275	      1.0694	     1.05344	           0	   0.0159682	           1	           0	    -6451.29	     1.05344	     1.05344	
        0.05	     1.05344	3.01478e-008	     -235851	      235853	    0.077525	     1.06376	     1.05344	           0	   0.0103222	           1	           0	    -4750.41	     1.05344	     1.05344	
   0.0583201	     1.05344	3.01478e-008	     -235851	      235853	    0.078775	     1.06115	     1.05344	           0	  0.00771216	           1	           0	    -9448.18	     1.05344	     1.05344	
   0.0680247	     1.05344	3.01478e-008	     -235851	      235853	    0.080025	     1.06626	     1.05344	           0	   0.0128242	           1	           0	    -14740.7	     1.05344	     1.05344	
   0.0793442	     1.05344	3.01478e-008	     -235851	      235853	    0.081275	     1.06397	     1.05344	           0	   0.0105342	           1	           0	    -9775.15	     1.05344	     1.05344	
   0.0925473	     1.05344	3.01478e-008	     -235851	      235853	    0.082525	     1.06364	     1.05344	           0	   0.0102004	           1	           0	    -14479.4	     1.05344	     1.05344	
   0.0930909	     1.05344	3.01478e-008	     -235851	      235853	    0.083775	     1.06455	     1.05344	           0	   0.0111156	           1	           0	    -3779.84	     1.05344	     1.05344	
    0.107947	     1.05344	3.01478e-008	     -235851	      235853	    0.085025	     1.06553	     1.05344	           0	   0.0120922	           1	           0	    -9483.82	     1.05344	     1.05344	
     0.12591	     1.05344	3.01478e-008	     -235851	      235853	    0.086275	     1.06016	     1.05344	           0	  0.00672016	           1	           0	    -13387.9	     1.05344	     1.05344	
    0.146862	     1.05344	3.01478e-008	     -235851	      235853	    0.087525	     1.06887	     1.05344	           0	   0.0154342	           1	           0	    -20274.3	     1.05344	     1.05344	
      0.1713	     1.05344	3.01478e-008	     -235851	      235853	    0.088775	     1.06316	     1.05344	           0	  0.00972616	           1	           0	    -27173.8	     1.05344	     1.05344	
    0.186182	     1.05344	3.01478e-008	     -235851	      235853	    0.090025	     1.06205	     1.05344	           0	  0.00861416	           1	           0	    -16756.5	     1.05344	     1.05344	
    0.199805	     1.05344	3.01478e-008	     -235851	      235853	    0.091275	      1.0615	     1.05344	           0	  0.00806176	           1	           0	      -23656	     1.05344	     1.05344	
    0.233053	     1.05344	3.01478e-008	     -235851	      235853	    0.092525	      1.0644	     1.05344	           0	   0.0109642	           1	           0	      -14165	     1.05344	     1.05344	
    0.271834	     1.05344	3.01478e-008	     -235851	      235853	    0.093775	     1.05828	     1.05344	           0	  0.00484556	           1	           0	    -17660.7	     1.05344	     1.05344	
    0.317067	     1.05344	3.01478e-008	     -235851	      235853	    0.095025	     1.06702	     1.05344	           0	   0.0135862	           1	           0	    -15959.8	     1.05344	     1.05344	
    0.369828	     1.05344	3.01478e-008	     -235851	      235853	    0.096275	      1.0638	     1.05344	           0	   0.0103674	           1	           0	    -11658.8	     1.05344	     1.05344	
    0.372364	     1.05344	3.01478e-008	     -235851	      235853	    0.097525	     1.06557	     1.05344	           0	   0.0121382	           1	           0	    -9566.08	     1.05344	     1.05344	
    0.431368	     1.05344	3.01478e-008	     -235851	      235853	    0.098775	     1.05972	     1.05344	           0	  0.00628016	           1	           0	    -7871.75	     1.05344	     1.05344	
    0.503149	     1.05344	3.01478e-008	     -235851	      235853	      0.1001	     1.06171	     1.05344	           0	  0.00827816	           1	           0	    -7210.55	     1.05344	     1.05344	
    0.586875	     1.05344	3.01478e-008	     -235851	      235853	      0.1051	     1.05921	     1.05344	           0	  0.00577516	           1	           0	    -5620.19	     1.05344	     1.05344	
    0.684532	     1.05344	3.01478e-008	     -235851	      235853	      0.1101	     1.05837	     1.05344	           0	  0.00493556	           1	           0	    -10421.9	     1.05344	     1.05344	
    0.744727	     1.05344	3.01478e-008	     -235851	      235853	      0.1151	     1.05613	     1.05344	           0	  0.00269376	           1	           0	    -15423.1	     1.05344	     1.05344	
     0.79844	     1.05344	3.01478e-008	     -235851	      235853	      0.1201	     1.05456	     1.05344	           0	  0.00112256	           1	           0	    -11624.4	     1.05344	     1.05344	
    0.931302	     1.05344	3.01478e-008	     -235851	      235853	      0.1251	      1.0541	     1.05344	           0	  0.00066256	           1	           0	      -15752	     1.05344	     1.05344	
           1	     1.05344	3.01478e-008	     -235851	      235853	      0.1301	     1.05422	     1.05344	           0	  0.00078476	           1	           0	    -19358.1	     1.05344	     1.05344	
     1.08627	     1.05344	3.01478e-008	     -235851	      235853	      0.1351	       1.057	     1.05344	           0	  0.00356216	           1	           0	    -9569.24	     1.05344	     1.05344	
     1.26703	     1.05344	3.01477e-008	     -235851	      235853	      0.1401	     1.05068	     1.05344	           0	 -0.00275484	           1	           0	    -24356.3	     1.05344	     1.05344	
     1.47787	     1.05344	3.01477e-008	     -235851	      235853	      0.1451	     1.05099	     1.05344	           0	 -0.00245064	           1	           0	    -3379.97	     1.05344	     1.05344	
     1.48945	     1.05344	3.01477e-008	     -235851	      235853	      0.1501	     1.05535	     1.05344	           0	  0.00191216	           1	           0	    -2580.16	     1.05344	     1.05344	
     1.72379	     1.05344	3.01477e-008	     -235851	      235853	      0.1551	     1.05103	     1.05344	           0	 -0.00240504	           1	           0	    -19857.8	     1.05344	     1.05344	
     2.01063	     1.05344	3.01477e-008	     -235851	      235853	      0.1601	      1.0514	     1.05344	           0	 -0.00203784	           1	           0	    -10062.4	     1.05344	     1.05344	
     2.34521	     1.05344	3.01477e-008	     -235851	      235853	      0.1651	     1.04981	     1.05344	           0	 -0.00362524	           1	           0	    -11875.2	     1.05344	     1.05344	
     2.73546	     1.05344	3.01477e-008	     -235851	      235853	      0.1701	     1.04917	     1.05344	           0	 -0.00426564	           1	           0	    -10278.3	     1.05344	     1.05344	
     2.97891	     1.05344	3.01477e-008	     -235851	      235853	      0.1751	     1.04996	     1.05344	           0	 -0.00347164	           1	           0	    -476.296	     1.05344	     1.05344	
     3.19064	     1.05344	3.01477e-008	     -235851	      235853	      0.1801	     1.04279	     1.05344	           0	  -0.0106436	           1	           0	    -6686.07	     1.05344	     1.05344	
     3.72157	     1.05344	3.01477e-008	     -235851	      235853	      0.1851	     1.04865	     1.05344	           0	 -0.00478364	           1	           0	    -16006.7	     1.05344	     1.05344	
     4.34085	     1.05344	3.01477e-008	     -235851	      235853	      0.1901	     1.04679	     1.05344	           0	 -0.00664724	           1	           0	    -33679.7	     1.05344	     1.05344	
     5.06318	     1.05344	3.01476e-008	     -235851	      235853	      0.1951	     1.04551	     1.05344	           0	 -0.00792884	           1	           0	    -15692.2	     1.05344	     1.05344	
     5.90571	     1.05344	3.01476e-008	     -235851	      235853	      0.2001	     1.04662	     1.05344	           0	 -0.00681524	           1	           0	     7768.15	   -0.973004	     3.07988	
     5.95782	     1.05344	3.01476e-008	     -235851	      235853	      0.2051	     1.04537	     1.05344	           0	 -0.00806584	           1	           0	    -9509.54	     1.05344	     1.05344	
     6.88843	     1.05344	3.01476e-008	     -235851	      235853	      0.2101	     1.04014	     1.05344	           0	  -0.0132992	           1	           0	    -6106.16	     1.05344	     1.05344	
     8.03469	     1.05344	3.01475e-008	     -235851	      235853	      0.2151	     1.04236	     1.05344	           0	   -0.011071	           1	           0	    -12707.8	     1.05344	     1.05344	
     9.37168	     1.05344	3.01475e-008	     -235851	      235853	      0.2201	     1.04804	     1.05344	           0	 -0.00539384	           1	           0	      -18911	     1.05344	     1.05344	
     10.9312	     1.05344	3.01475e-008	     -235851	      235853	      0.2251	     1.04175	     1.05344	           0	  -0.0116812	           1	           0	    -14720.5	     1.05344	     1.05344	
     11.9156	     1.05344	3.01474e-008	     -235851	      235853	      0.2301	     1.04446	     1.05344	           0	 -0.00898024	           1	           0	    -19120.4	     1.05344	     1.05344	
     12.7501	     1.05344	3.01474e-008	     -235851	      235853	      0.2351	     1.04757	     1.05344	           0	 -0.00586764	           1	           0	    -11526.7	     1.05344	     1.05344	
     14.8718	     1.05344	3.01473e-008	     -235851	      235853	      0.2401	     1.04217	     1.05344	           0	  -0.0112698	           1	           0	    -4469.88	     1.05344	     1.05344	
     17.3465	     1.05344	3.01473e-008	     -235851	      235853	      0.2451	     1.04275	     1.05344	           0	  -0.0106906	           1	           0	    -5739.23	     1.05344	     1.05344	
      20.233	     1.05344	3.01472e-008	     -235851	      235853	      0.2501	     1.03902	     1.05344	           0	  -0.0144134	           1	           0	    -6867.91	     1.05344	     1.05344	
     23.5998	     1.05344	3.01471e-008	     -235851	      235853	      0.2551	     1.03766	     1.05344	           0	  -0.0157718	           1	           0	    -8156.88	     1.05344	     1.05344	
     23.8313	     1.05344	3.01471e-008	     -235851	      235853	      0.2601	     1.03986	     1.05344	           0	  -0.0135734	           1	           0	      -22539	     1.05344	     1.05344	
     27.5269	     1.05344	 3.0147e-008	     -235851	      235853	      0.2651	     1.03873	     1.05344	           0	  -0.0147014	           1	           0	    -885.088	     1.05344	     1.05344	
     32.1074	     1.05344	3.01468e-008	     -235851	      235853	      0.2701	     1.03963	     1.05344	           0	  -0.0138024	           1	           0	    -8964.55	     1.05344	     1.05344	
     37.4501	     1.05344	3.01467e-008	     -235851	      235853	      0.2751	     1.03898	     1.05344	           0	   -0.014459	           1	           0	    -5165.87	     1.05344	     1.05344	
     43.6819	     1.05344	3.01465e-008	     -235851	      235853	      0.2801	      1.0404	     1.05344	           0	  -0.0130394	           1	           0	    -24488.4	     1.05344	     1.05344	
     47.6625	     1.05344	3.01463e-008	     -235851	      235853	      0.2851	     1.03901	     1.05344	           0	  -0.0144274	           1	           0	    -26162.7	     1.05344	     1.05344	
     50.9507	     1.05344	3.01462e-008	     -235851	      235853	      0.2901	     1.03883	     1.05344	           0	  -0.0146108	           1	           0	     -7776.9	     1.05344	     1.05344	
     59.4291	     1.05344	 3.0146e-008	     -235851	      235853	      0.2951	     1.04145	     1.05344	           0	  -0.0119872	           1	           0	    -20375.3	     1.05344	     1.05344	
     69.3182	     1.05344	3.01457e-008	     -235851	      235853	      0.3001	     1.03663	     1.05344	           0	  -0.0168072	           1	           0	    -7710.45	     1.05344	     1.05344	
     80.8529	     1.05344	3.01453e-008	     -235851	      235853	      0.3051	     1.03855	     1.05344	           0	  -0.0148844	           1	           0	    -21710.4	     1.05344	     1.05344	
     94.3071	     1.05344	3.01449e-008	     -235851	      235853	      0.3101	     1.03912	     1.05344	           0	  -0.0143206	           1	           0	    -4798.93	     1.05344	     1.05344	
         110	     1.05344	3.01445e-008	     -235851	      235853	      0.3151	     1.03857	     1.05344	           0	  -0.0148698	           1	           0	    -11002.2	     1.05344	     1.05344	
 --	 --	 --	 --	 --	      0.3201	     1.03605	     1.05344	           0	  -0.0173886	           1	           0	    -7210.07	     1.05344	     1.05344	
 --	 --	 --	 --	 --	      0.3251	     1.03763	     1.05344	           0	  -0.0158018	           1	           0	    -5606.62	     1.05344	     1.05344	
 --	 --	 --	 --	 --	      0.3301	     1.04229	     1.05344	           0	  -0.0111474	           1	           0	    -20008.4	     1.05344	     1.05344	
 --	 --	 --	 --	 --	      0.3351	     1.03866	     1.05344	           0	  -0.0147772	           1	           0	    -9814.55	     1.05344	     1.05344	
 --	 --	 --	 --	 --	      0.3401	      1.0396	     1.05344	           0	  -0.0138328	           1	           0	    -12025.7	     1.05344	     1.05344	
 --	 --	 --	 --	 --	      0.3451	     1.03602	     1.05344	           0	  -0.0174182	           1	           0	    -2230.28	     1.05344	     1.05344	
 --	 --	 --	 --	 --	      0.3501	     1.04018	     1.05344	           0	  -0.0132522	           1	           0	     -633.34	     1.05344	     1.05344	
 --	 --	 --	 --	 --	      0.3551	     1.03971	     1.05344	           0	  -0.0137262	           1	           0	    -15835.3	     1.05344	     1.05344	
 --	 --	 --	 --	 --	      0.3601	     1.03695	     1.05344	           0	  -0.0164882	           1	           0	    -28028.8	     1.05344	     1.05344	
 --	 --	 --	 --	 --	      0.3651	     1.03509	     1.05344	           0	  -0.0183506	           1	           0	    -1055.72	     1.05344	     1.05344	
 --	 --	 --	 --	 --	      0.3701	     1.04574	     1.05344	           0	 -0.00769985	           1	           0	    -8052.61	     1.05344	     1.05344	
 --	 --	 --	 --	 --	      0.3751	     1.03963	     1.05344	           0	  -0.0138016	           1	           0	     -8381.1	     1.05344	     1.05344	
 --	 --	 --	 --	 --	      0.3801	     1.03658	     1.05344	           0	  -0.0168532	           1	           0	    -6784.18	     1.05344	     1.05344	
 --	 --	 --	 --	 --	      0.3851	     1.03475	     1.05344	           0	  -0.0186834	           1	           0	    -15856.8	     1.05344	     1.05344	
 --	 --	 --	 --	 --	      0.3901	      1.0393	     1.05344	           0	  -0.0141382	           1	           0	    -12466.5	     1.05344	     1.05344	
 --	 --	 --	 --	 --	      0.3951	     1.04149	     1.05344	           0	   -0.011941	           1	           0	    -19469.9	     1.05344	     1.05344	
 --	 --	 --	 --	 --	      0.4001	     1.03672	     1.05344	           0	   -0.016717	           1	           0	    -7472.72	     1.05344	     1.05344	
 --	 --	 --	 --	 --	      0.4051	     1.03788	     1.05344	           0	   -0.015554	           1	           0	    -21077.3	     1.05344	     1.05344	
 --	 --	 --	 --	 --	      0.4101	     1.04388	     1.05344	           0	 -0.00955985	           1	           0	    -11677.2	     1.05344	     1.05344	
 --	 --	 --	 --	 --	      0.4151	      1.0394	     1.05344	           0	  -0.0140326	           1	           0	    -6410.72	     1.05344	     1.05344	
 --	 --	 --	 --	 --	      0.4201	      1.0403	     1.05344	           0	  -0.0131328	           1	           0	    -22286.8	     1.05344	     1.05344	
 --	 --	 --	 --	 --	      0.4251	     1.04151	     1.05344	           0	   -0.011924	           1	           0	    -18096.3	     1.05344	     1.05344	
 --	 --	 --	 --	 --	      0.4301	     1.03872	     1.05344	           0	   -0.014717	           1	           0	    -18292.8	     1.05344	     1.05344	
 --	 --	 --	 --	 --	      0.4351	     1.04198	     1.05344	           0	  -0.0114512	           1	           0	     1488.02	    0.166527	     1.94034	
 --	 --	 --	 --	 --	      0.4401	     1.03672	     1.05344	           0	   -0.016715	           1	           0	    -7440.78	     1.05344	     1.05344	
 --	 --	 --	 --	 --	      0.4451	     1.03844	     1.05344	           0	  -0.0149922	           1	           0	     -9516.9	     1.05344	     1.05344	
 --	 --	 --	 --	 --	      0.4501	     1.04192	     1.05344	           0	  -0.0115128	           1	           0	    -15716.7	     1.05344	     1.05344	
 --	 --	 --	 --	 --	      0.4551	     1.04047	     1.05344	           0	  -0.0129627	           1	           0	    -18642.2	     1.05344	     1.05344	
 --	 --	 --	 --	 --	      0.4601	     1.04127	     1.05344	           0	  -0.0121695	           1	           0	      -17321	     1.05344	     1.05344	
 --	 --	 --	 --	 --	      0.4651	     1.03837	     1.05344	           0	  -0.0150691	           1	           0	     3130.81	   -0.233045	     2.33992	
 --	 --	 --	 --	 --	      0.4701	     1.04214	     1.05344	           0	  -0.0112995	           1	           0	    -11533.6	     1.05344	     1.05344	
 --	 --	 --	 --	 --	      0.4751	     1.04508	     1.05344	           0	 -0.00835485	           1	           0	    -10743.5	     1.05344	     1.05344	
 --	 --	 --	 --	 --	      0.4801	     1.03934	     1.05344	           0	  -0.0140923	           1	           0	    -11473.7	     1.05344	     1.05344	
 --	 --	 --	 --	 --	      0.4851	     1.04368	     1.05344	           0	 -0.00975845	           1	           0	    -21346.6	     1.05344	     1.05344	
 --	 --	 --	 --	 --	      0.4901	     1.03834	     1.05344	           0	  -0.0151003	           1	           0	    -765.495	     1.05344	     1.05344	
 --	 --	 --	 --	 --	      0.4951	     1.03928	     1.05344	           0	  -0.0141513	           1	           0	    -12281.4	     1.05344	     1.05344	
 --	 --	 --	 --	 --	      0.5001	      1.0424	     1.05344	           0	  -0.0110405	           1	           0	    -10292.6	     1.05344	     1.05344	
 --	 --	 --	 --	 --	      0.5051	     1.03756	     1.05344	           0	  -0.0158771	           1	           0	    -3768.41	     1.05344	     1.05344	
 --	 --	 --	 --	 --	      0.5101	     1.04333	     1.05344	           0	  -0.0101103	           1	           0	    -16768.6	     1.05344	     1.05344	
 --	 --	 --	 --	 --	      0.5151	     1.04435	     1.05344	           0	 -0.00908645	           1	           0	    -6179.47	     1.05344	     1.05344	
 --	 --	 --	 --	 --	      0.5201	      1.0415	     1.05344	           0	  -0.0119399	           1	           0	    -20973.1	     1.05344	     1.05344	
 --	 --	 --	 --	 --	      0.5251	      1.0416	     1.05344	           0	  -0.0118329	           1	           0	    -11184.2	     1.05344	     1.05344	
 --	 --	 --	 --	 --	      0.5301	      1.0398	     1.05344	           0	  -0.0136343	           1	           0	    -23779.5	     1.05344	     1.05344	
 --	 --	 --	 --	 --	      0.5351	     1.04366	     1.05344	           0	 -0.00977265	           1	           0	    -3201.53	     1.05344	     1.05344	
 --	 --	 --	 --	 --	      0.5401	     1.04204	     1.05344	           0	  -0.0113915	           1	           0	    -1206.25	     1.05344	     1.05344	
 --	 --	 --	 --	 --	      0.5451	     1.03628	     1.05344	           0	  -0.0171593	           1	           0	    -5606.12	     1.05344	     1.05344	
 --	 --	 --	 --	 --	      0.5501	        1.04	     1.05344	           0	  -0.0134369	           1	           0	    -4411.03	     1.05344	     1.05344	
 --	 --	 --	 --	 --	      0.5551	     1.04507	     1.05344	           0	 -0.00836905	           1	           0	    -9814.03	     1.05344	     1.05344	
 --	 --	 --	 --	 --	      0.5601	      1.0425	     1.05344	           0	  -0.0109319	           1	           0	    -14220.4	     1.05344	     1.05344	
 --	 --	 --	 --	 --	      0.5651	     1.03893	     1.05344	           0	  -0.0145043	           1	           0	    -12623.5	     1.05344	     1.05344	
 --	 --	 --	 --	 --	      0.5701	     1.03915	     1.05344	           0	  -0.0142903	           1	           0	    -18820.2	     1.05344	     1.05344	
 --	 --	 --	 --	 --	      0.5751	     1.04317	     1.05344	           0	  -0.0102625	           1	           0	    -9031.34	     1.05344	     1.05344	
 --	 --	 --	 --	 --	      0.5801	     1.04403	     1.05344	           0	 -0.00940605	           1	           0	     -5232.7	     1.05344	     1.05344	
 --	 --	 --	 --	 --	      0.5851	     1.03838	     1.05344	           0	  -0.0150543	           1	           0	    -16363.2	     1.05344	     1.05344	
 --	 --	 --	 --	 --	      0.5901	     1.04322	     1.05344	           0	  -0.0102167	           1	           0	    -15842.3	     1.05344	     1.05344	
 --	 --	 --	 --	 --	      0.5951	     1.03951	     1.05344	           0	  -0.0139257	           1	           0	    -14245.4	     1.05344	     1.05344	
 --	 --	 --	 --	 --	      0.6001	     1.04145	     1.05344	           0	  -0.0119851	           1	           0	    -786.892	     1.05344	     1.05344	
 --	 --	 --	 --	 --	      0.6051	     1.04166	     1.05344	           0	  -0.0117737	           1	           0	    -259.412	     1.05344	     1.05344	
 --	 --	 --	 --	 --	      0.6101	     1.03748	     1.05344	           0	  -0.0159537	           1	           0	    -6469.16	     1.05344	     1.05344	
 --	 --	 --	 --	 --	      0.6151	     1.04606	     1.05344	           0	 -0.00737825	           1	           0	    -5264.14	     1.05344	     1.05344	
 --	 --	 --	 --	 --	      0.6201	     1.04174	     1.05344	           0	  -0.0116985	           1	           0	    -17464.1	     1.05344	     1.05344	
 --	 --	 --	 --	 --	      0.6251	     1.04207	     1.05344	           0	  -0.0113617	           1	           0	    -21070.3	     1.05344	     1.05344	
 --	 --	 --	 --	 --	      0.6301	     1.04916	     1.05344	           0	 -0.00428046	           1	           0	    -18792.7	     1.05344	     1.05344	
 --	 --	 --	 --	 --	      0.6351	     1.04507	     1.05344	           0	 -0.00837006	           1	           0	    -9687.94	     1.05344	     1.05344	
 --	 --	 --	 --	 --	      0.6401	      1.0461	     1.05344	           0	 -0.00733426	           1	           0	    -13005.3	     1.05344	     1.05344	
 --	 --	 --	 --	 --	      0.6451	     1.04622	     1.05344	           0	 -0.00721226	           1	           0	    -20682.9	     1.05344	     1.05344	
 --	 --	 --	 --	 --	      0.6501	     1.04603	     1.05344	           0	 -0.00740986	           1	           0	    -7224.39	     1.05344	     1.05344	
 --	 --	 --	 --	 --	      0.6551	     1.04224	     1.05344	           0	  -0.0111919	           1	           0	      -14902	     1.05344	     1.05344	
 --	 --	 --	 --	 --	      0.6601	     1.04307	     1.05344	           0	  -0.0103691	           1	           0	    -17827.5	     1.05344	     1.05344	
 --	 --	 --	 --	 --	      0.6651	     1.04368	     1.05344	           0	 -0.00976026	           1	           0	    -3513.11	     1.05344	     1.05344	
 --	 --	 --	 --	 --	      0.6701	     1.03648	     1.05344	           0	  -0.0169605	           1	           0	    -7517.66	     1.05344	     1.05344	
 --	 --	 --	 --	 --	      0.6751	     1.04119	     1.05344	           0	  -0.0122461	           1	           0	    -2251.18	     1.05344	     1.05344	
 --	 --	 --	 --	 --	      0.6801	     1.04555	     1.05344	           0	 -0.00788226	           1	           0	    -3925.45	     1.05344	     1.05344	
 --	 --	 --	 --	 --	      0.6851	     1.04586	     1.05344	           0	 -0.00757726	           1	           0	    -16125.5	     1.05344	     1.05344	
 --	 --	 --	 --	 --	      0.6901	     1.04124	     1.05344	           0	  -0.0121987	           1	           0	    -19449.3	     1.05344	     1.05344	
 --	 --	 --	 --	 --	      0.6951	     1.04159	     1.05344	           0	  -0.0118491	           1	           0	    -17447.5	     1.05344	     1.05344	
 --	 --	 --	 --	 --	      0.7001	     1.04603	     1.05344	           0	 -0.00740846	           1	           0	    -19134.9	     1.05344	     1.05344	
 --	 --	 --	 --	 --	      0.7051	     1.04352	     1.05344	           0	 -0.00991146	           1	           0	     645.964	    0.469078	     1.63779	
 --	 --	 --	 --	 --	      0.7101	     1.04482	     1.05344	           0	 -0.00861326	           1	           0	    -11152.2	     1.05344	     1.05344	
 --	 --	 --	 --	 --	      0.7151	     1.04757	     1.05344	           0	 -0.00586926	           1	           0	    -6277.57	     1.05344	     1.05344	
 --	 --	 --	 --	 --	      0.7201	     1.04282	     1.05344	           0	  -0.0106115	           1	           0	    -4282.24	     1.05344	     1.05344	
 --	 --	 --	 --	 --	      0.7251	     1.04522	     1.05344	           0	 -0.00821726	           1	           0	    -11966.4	     1.05344	     1.05344	
 --	 --	 --	 --	 --	      0.7301	     1.04342	     1.05344	           0	  -0.0100193	           1	           0	      -10363	     1.05344	     1.05344	
 --	 --	 --	 --	 --	      0.7351	     1.04442	     1.05344	           0	 -0.00901126	           1	           0	    -14775.9	     1.05344	     1.05344	
 --	 --	 --	 --	 --	      0.7401	     1.04346	     1.05344	           0	 -0.00997086	           1	           0	    -4977.38	     1.05344	     1.05344	
 --	 --	 --	 --	 --	      0.7451	     1.04707	     1.05344	           0	 -0.00637006	           1	           0	    -2586.75	     1.05344	     1.05344	
 --	 --	 --	 --	 --	      0.7501	      1.0481	     1.05344	           0	 -0.00533366	           1	           0	    -6584.81	     1.05344	     1.05344	
 --	 --	 --	 --	 --	      0.7551	     1.04783	     1.05344	           0	 -0.00560666	           1	           0	    -7584.96	     1.05344	     1.05344	
 --	 --	 --	 --	 --	      0.7601	     1.04395	     1.05344	           0	 -0.00948286	           1	           0	    -16918.7	     1.05344	     1.05344	
 --	 --	 --	 --	 --	      0.7651	      1.0454	     1.05344	           0	 -0.00803446	           1	           0	    -10397.9	     1.05344	     1.05344	
 --	 --	 --	 --	 --	      0.7701	     1.04261	     1.05344	           0	  -0.0108265	           1	           0	     -2534.3	     1.05344	     1.05344	
 --	 --	 --	 --	 --	      0.7751	      1.0481	     1.05344	           0	 -0.00533386	           1	           0	    -2013.39	     1.05344	     1.05344	
 --	 --	 --	 --	 --	      0.7801	     1.04337	     1.05344	           0	  -0.0100623	           1	           0	    -2206.79	     1.05344	     1.05344	
 --	 --	 --	 --	 --	      0.7851	     1.04569	     1.05344	           0	 -0.00774286	           1	           0	    -23010.2	     1.05344	     1.05344	
 --	 --	 --	 --	 --	      0.7901	      1.0491	     1.05344	           0	 -0.00434086	           1	           0	    -11019.6	     1.05344	     1.05344	
 --	 --	 --	 --	 --	      0.7951	     1.04578	     1.05344	           0	 -0.00765346	           1	           0	    -16146.8	     1.05344	     1.05344	
 --	 --	 --	 --	 --	      0.8001	     1.04702	     1.05344	           0	 -0.00641666	           1	           0	    -12354.7	     1.05344	     1.05344	
 --	 --	 --	 --	 --	      0.8051	     1.04775	     1.05344	           0	 -0.00568326	           1	           0	    -18823.7	     1.05344	     1.05344	
 --	 --	 --	 --	 --	      0.8101	     1.04533	     1.05344	           0	 -0.00811086	           1	           0	    -6965.65	     1.05344	     1.05344	
 --	 --	 --	 --	 --	      0.8151	     1.04406	     1.05344	           0	 -0.00937586	           1	           0	    -2373.31	     1.05344	     1.05344	
 --	 --	 --	 --	 --	      0.8201	     1.04559	     1.05344	           0	 -0.00785086	           1	           0	    -7046.47	     1.05344	     1.05344	
 --	 --	 --	 --	 --	      0.8251	     1.04929	     1.05344	           0	 -0.00414326	           1	           0	      -15580	     1.05344	     1.05344	
 --	 --	 --	 --	 --	      0.8301	     1.04839	     1.05344	           0	 -0.00504206	           1	           0	    -9451.04	     1.05344	     1.05344	
 --	 --	 --	 --	 --	      0.8351	     1.04699	     1.05344	           0	 -0.00644626	           1	           0	    -7860.68	     1.05344	     1.05344	
 --	 --	 --	 --	 --	      0.8401	     1.04939	     1.05344	           0	 -0.00405006	           1	           0	    -3268.31	     1.05344	     1.05344	
 --	 --	 --	 --	 --	      0.8451	      1.0467	     1.05344	           0	 -0.00673686	           1	           0	    -1273.03	     1.05344	     1.05344	
 --	 --	 --	 --	 --	      0.8501	     1.04346	     1.05344	           0	 -0.00997246	           1	           0	      -19194	     1.05344	     1.05344	
 --	 --	 --	 --	 --	      0.8551	     1.04685	     1.05344	           0	 -0.00658526	           1	           0	    -20466.5	     1.05344	     1.05344	
 --	 --	 --	 --	 --	      0.8601	     1.04464	     1.05344	           0	 -0.00879726	           1	           0	    -26669.7	     1.05344	     1.05344	
 --	 --	 --	 --	 --	      0.8651	     1.04793	     1.05344	           0	 -0.00550206	           1	           0	    -14004.9	     1.05344	     1.05344	
 --	 --	 --	 --	 --	      0.8701	     1.04632	     1.05344	           0	 -0.00711866	           1	           0	    -2701.47	     1.05344	     1.05344	
 --	 --	 --	 --	 --	      0.8751	     1.04791	     1.05344	           0	 -0.00553026	           1	           0	      -16290	     1.05344	     1.05344	
 --	 --	 --	 --	 --	      0.8801	     1.04847	     1.05344	           0	 -0.00496886	           1	           0	    -7294.77	     1.05344	     1.05344	
 --	 --	 --	 --	 --	      0.8851	     1.05042	     1.05344	           0	 -0.00301446	           1	           0	    -13504.5	     1.05344	     1.05344	
 --	 --	 --	 --	 --	      0.8901	     1.04682	     1.05344	           0	 -0.00661666	           1	           0	    -20099.6	     1.05344	     1.05344	
 --	 --	 --	 --	 --	      0.8951	     1.04771	     1.05344	           0	 -0.00573026	           1	           0	     -7717.1	     1.05344	     1.05344	
 --	 --	 --	 --	 --	      0.9001	     1.04958	     1.05344	           0	 -0.00385146	           1	           0	    -14312.2	     1.05344	     1.05344	
 --	 --	 --	 --	 --	      0.9051	     1.04597	     1.05344	           0	 -0.00746926	           1	           0	    -13117.1	     1.05344	     1.05344	
 --	 --	 --	 --	 --	      0.9101	     1.04952	     1.05344	           0	 -0.00391386	           1	           0	    -8524.77	     1.05344	     1.05344	
 --	 --	 --	 --	 --	      0.9151	     1.04767	     1.05344	           0	 -0.00576266	           1	           0	    -11848.6	     1.05344	     1.05344	
 --	 --	 --	 --	 --	      0.9201	     1.04795	     1.05344	           0	 -0.00548566	           1	           0	    -8464.82	     1.05344	     1.05344	
 --	 --	 --	 --	 --	      0.9251	     1.04456	     1.05344	           0	 -0.00887206	           1	           0	    -22451.7	     1.05344	     1.05344	
 --	 --	 --	 --	 --	      0.9301	     1.04287	     1.05344	           0	  -0.0105673	           1	           0	      -13337	     1.05344	     1.05344	
 --	 --	 --	 --	 --	      0.9351	     1.05201	     1.05344	           0	 -0.00142726	           1	           0	    -4351.68	     1.05344	     1.05344	
 --	 --	 --	 --	 --	      0.9401	       1.051	     1.05344	           0	 -0.00243426	           1	           0	     639.043	    0.472217	     1.63466	
 --	 --	 --	 --	 --	      0.9451	     1.05042	     1.05344	           0	 -0.00301446	           1	           0	    -5956.05	     1.05344	     1.05344	
 --	 --	 --	 --	 --	      0.9501	     1.04957	     1.05344	           0	 -0.00386706	           1	           0	    -12557.7	     1.05344	     1.05344	
 --	 --	 --	 --	 --	      0.9551	     1.04595	     1.05344	           0	 -0.00748407	           1	           0	    -19152.8	     1.05344	     1.05344	
 --	 --	 --	 --	 --	      0.9601	     1.05131	     1.05344	           0	 -0.00212787	           1	           0	    -16170.8	     1.05344	     1.05344	
 --	 --	 --	 --	 --	      0.9651	     1.04581	     1.05344	           0	 -0.00762367	           1	           0	    -12973.5	     1.05344	     1.05344	
 --	 --	 --	 --	 --	      0.9701	     1.04975	     1.05344	           0	 -0.00368647	           1	           0	    -16297.4	     1.05344	     1.05344	
 --	 --	 --	 --	 --	      0.9751	     1.05066	     1.05344	           0	 -0.00277147	           1	           0	      -12907	     1.05344	     1.05344	
 --	 --	 --	 --	 --	      0.9801	     1.05175	     1.05344	           0	 -0.00168427	           1	           0	    -5589.16	     1.05344	     1.05344	
 --	 --	 --	 --	 --	      0.9851	      1.0529	     1.05344	           0	-0.000540666	           1	           0	    -9995.54	     1.05344	     1.05344	
 --	 --	 --	 --	 --	      0.9901	     1.05021	     1.05344	           0	 -0.00322807	           1	           0	    -15790.4	     1.05344	     1.05344	
 --	 --	 --	 --	 --	      0.9951	     1.04905	     1.05344	           0	 -0.00438887	           1	           0	    -19522.6	     1.05344	     1.05344	
 --	 --	 --	 --	 --	      1.0001	     1.04923	     1.05344	           0	 -0.00420327	           1	           0	    -4806.39	     1.05344	     1.05344	
 --	 --	 --	 --	 --	      1.0051	     1.04684	     1.05344	           0	 -0.00659927	           1	           0	    -615.891	     1.05344	     1.05344	
 --	 --	 --	 --	 --	      1.0101	      1.0503	     1.05344	           0	 -0.00313687	           1	           0	     -7612.8	     1.05344	     1.05344	
 --	 --	 --	 --	 --	      1.0151	      1.0501	     1.05344	           0	 -0.00333447	           1	           0	    -8741.44	     1.05344	     1.05344	
 --	 --	 --	 --	 --	      1.0201	      1.0516	     1.05344	           0	 -0.00183947	           1	           0	    -26812.8	     1.05344	     1.05344	
 --	 --	 --	 --	 --	      1.0251	     1.05048	     1.05344	           0	 -0.00295287	           1	           0	    -21818.6	     1.05344	     1.05344	
 --	 --	 --	 --	 --	      1.0301	      1.0528	     1.05344	           0	-0.000632467	           1	           0	    -28423.7	     1.05344	     1.05344	
 --	 --	 --	 --	 --	      1.0351	     1.04668	     1.05344	           0	 -0.00675347	           1	           0	     4752.21	    -0.53154	     2.63841	
 --	 --	 --	 --	 --	      1.0401	     1.05215	     1.05344	           0	 -0.00128807	           1	           0	    -5561.61	     1.05344	     1.05344	
 --	 --	 --	 --	 --	      1.0451	      1.0469	     1.05344	           0	 -0.00653787	           1	           0	    -4648.85	     1.05344	     1.05344	
 --	 --	 --	 --	 --	      1.0501	     1.05308	     1.05344	           0	-0.000357668	           1	           0	     -5777.5	     1.05344	     1.05344	
 --	 --	 --	 --	 --	      1.0551	     1.04603	     1.05344	           0	 -0.00740847	           1	           0	    -14856.7	     1.05344	     1.05344	
 --	 --	 --	 --	 --	      1.0601	     1.04743	     1.05344	           0	 -0.00600347	           1	           0	      -13655	     1.05344	     1.05344	
 --	 --	 --	 --	 --	      1.0651	     1.04592	     1.05344	           0	 -0.00751587	           1	           0	    -3461.21	     1.05344	     1.05344	
 --	 --	 --	 --	 --	      1.0701	      1.0523	     1.05344	           0	 -0.00113747	           1	           0	    -10464.7	     1.05344	     1.05344	
 --	 --	 --	 --	 --	      1.0751	     1.04717	     1.05344	           0	 -0.00626427	           1	           0	    -11191.5	     1.05344	     1.05344	
 --	 --	 --	 --	 --	      1.0801	     1.05166	     1.05344	           0	 -0.00177907	           1	           0	    -10677.1	     1.05344	     1.05344	
 --	 --	 --	 --	 --	      1.0851	     1.04556	     1.05344	           0	 -0.00787987	           1	           0	    -8279.96	     1.05344	     1.05344	
 --	 --	 --	 --	 --	      1.0901	     1.05085	     1.05344	           0	 -0.00258767	           1	           0	    -20473.4	     1.05344	     1.05344	
 --	 --	 --	 --	 --	      1.0951	     1.05364	     1.05344	           0	 0.000205931	           1	           0	    -5089.59	     1.05344	     1.05344	
 --	 --	 --	 --	 --	         1.1	      1.0505	     1.05344	           0	 -0.00293687	           1	           0	    -7761.08	     1.05344	     1.05344	
 --	 --	 --	 --	 --	       1.225	     1.05544	     1.05344	           0	  0.00200413	           1	           0	    -12943.8	     1.05344	     1.05344	
 --	 --	 --	 --	 --	        1.35	     1.05544	     1.05344	           0	  0.00200412	           1	           0	    -26174.8	     1.05344	     1.05344	
 --	 --	 --	 --	 --	       1.475	     1.05708	     1.05344	           0	  0.00364162	           1	           0	    -6768.46	     1.05344	     1.05344	
 --	 --	 --	 --	 --	         1.6	     1.05367	     1.05344	           0	 0.000231615	           1	           0	    -5408.76	     1.05344	     1.05344	
 --	 --	 --	 --	 --	       1.725	     1.05296	     1.05344	           0	-0.000473888	           1	           0	    -15788.1	     1.05344	     1.05344	
 --	 --	 --	 --	 --	        1.85	     1.05861	     1.05344	           0	  0.00517161	           1	           0	    -17693.1	     1.05344	     1.05344	
 --	 --	 --	 --	 --	       1.975	     1.05777	     1.05344	           0	   0.0043316	           1	           0	    -13594.9	     1.05344	     1.05344	
 --	 --	 --	 --	 --	         2.1	     1.05031	     1.05344	           0	  -0.0031284	           1	           0	    -12909.4	     1.05344	     1.05344	
 --	 --	 --	 --	 --	       2.225	     1.05527	     1.05344	           0	   0.0018341	           1	           0	    -6632.31	     1.05344	     1.05344	
 --	 --	 --	 --	 --	        2.35	     1.05615	     1.05344	           0	  0.00271159	           1	           0	      -13737	     1.05344	     1.05344	
 --	 --	 --	 --	 --	       2.475	     1.05544	     1.05344	           0	  0.00200409	           1	           0	     -5374.3	     1.05344	     1.05344	
 --	 --	 --	 --	 --	         2.6	     1.05803	     1.05344	           0	  0.00459659	           1	           0	    -17676.5	     1.05344	     1.05344	
 --	 --	 --	 --	 --	       2.725	     1.06063	     1.05344	           0	  0.00719158	           1	           0	    -6468.73	     1.05344	     1.05344	
 --	 --	 --	 --	 --	        2.85	      1.0574	     1.05344	           0	  0.00396658	           1	           0	    -13168.5	     1.05344	     1.05344	
 --	 --	 --	 --	 --	       2.975	      1.0578	     1.05344	           0	  0.00436907	           1	           0	    -7681.72	     1.05344	     1.05344	
 --	 --	 --	 --	 --	         3.1	     1.05798	     1.05344	           0	  0.00454157	           1	           0	    -9194.86	     1.05344	     1.05344	
 --	 --	 --	 --	 --	       3.225	     1.05867	     1.05344	           0	  0.00522907	           1	           0	    -317.369	     1.05344	     1.05344	
 --	 --	 --	 --	 --	        3.35	     1.05845	     1.05344	           0	  0.00501656	           1	           0	    -19014.7	     1.05344	     1.05344	
 --	 --	 --	 --	 --	       3.475	     1.05943	     1.05344	           0	  0.00599156	           1	           0	    -4256.94	     1.05344	     1.05344	
 --	 --	 --	 --	 --	         3.6	     1.05809	     1.05344	           0	  0.00465406	           1	           0	     362.707	    0.615558	     1.49131	
 --	 --	 --	 --	 --	       3.725	     1.05361	     1.05344	           0	 0.000171551	           1	           0	    -7947.44	     1.05344	     1.05344	
 --	 --	 --	 --	 --	        3.85	     1.05416	     1.05344	           0	 0.000726548	           1	           0	    -25841.1	     1.05344	     1.05344	
 --	 --	 --	 --	 --	       3.975	     1.05506	     1.05344	           0	  0.00162154	           1	           0	    -3967.29	     1.05344	     1.05344	
 --	 --	 --	 --	 --	         4.1	     1.05565	     1.05344	           0	  0.00221404	           1	           0	    -5477.01	     1.05344	     1.05344	
 --	 --	 --	 --	 --	       4.225	     1.06095	     1.05344	           0	  0.00751904	           1	           0	    -15587.1	     1.05344	     1.05344	
 --	 --	 --	 --	 --	        4.35	     1.05683	     1.05344	           0	  0.00339653	           1	           0	    -22014.4	     1.05344	     1.05344	
 --	 --	 --	 --	 --	       4.475	     1.05985	     1.05344	           0	  0.00641153	           1	           0	    -3010.03	     1.05344	     1.05344	
 --	 --	 --	 --	 --	         4.6	     1.05804	     1.05344	           0	  0.00459903	           1	           0	     1355.06	    0.207077	     1.89979	
 --	 --	 --	 --	 --	       4.725	     1.06168	     1.05344	           0	  0.00824152	           1	           0	    -15018.6	     1.05344	     1.05344	
 --	 --	 --	 --	 --	        4.85	      1.0605	     1.05344	           0	  0.00705902	           1	           0	    -21050.7	     1.05344	     1.05344	
 --	 --	 --	 --	 --	       4.975	     1.05788	     1.05344	           0	  0.00444651	           1	           0	    -7239.37	     1.05344	     1.05344	
 --	 --	 --	 --	 --	         5.1	     1.06137	     1.05344	           0	  0.00793401	           1	           0	    -1367.21	     1.05344	     1.05344	
 --	 --	 --	 --	 --	       5.225	     1.05674	     1.05344	           0	  0.00330151	           1	           0	    -18862.6	     1.05344	     1.05344	
 --	 --	 --	 --	 --	        5.35	     1.06172	     1.05344	           0	   0.0082815	           1	           0	    -13771.1	     1.05344	     1.05344	
 --	 --	 --	 --	 --	       5.475	     1.05666	     1.05344	           0	   0.0032265	           1	           0	    -12006.5	     1.05344	     1.05344	
 --	 --	 --	 --	 --	         5.6	     1.06187	     1.05344	           0	  0.00843149	           1	           0	    -5719.58	     1.05344	     1.05344	
 --	 --	 --	 --	 --	       5.725	     1.05727	     1.05344	           0	  0.00383399	           1	           0	    -18294.1	     1.05344	     1.05344	
 --	 --	 --	 --	 --	        5.85	     1.06023	     1.05344	           0	  0.00679149	           1	           0	    -21005.8	     1.05344	     1.05344	
 --	 --	 --	 --	 --	       5.975	      1.0604	     1.05344	           0	  0.00696398	           1	           0	    -3531.51	     1.05344	     1.05344	
 --	 --	 --	 --	 --	         6.1	     1.05655	     1.05344	           0	  0.00310898	           1	           0	    -5041.13	     1.05344	     1.05344	
 --	 --	 --	 --	 --	       6.225	     1.05721	     1.05344	           0	  0.00377798	           1	           0	      -11867	     1.05344	     1.05344	
 --	 --	 --	 --	 --	        6.35	     1.05775	     1.05344	           0	  0.00431147	           1	           0	    -9253.03	     1.05344	     1.05344	
 --	 --	 --	 --	 --	       6.475	     1.05735	     1.05344	           0	  0.00391147	           1	           0	    -7488.48	     1.05344	     1.05344	
 --	 --	 --	 --	 --	         6.6	     1.05952	     1.05344	           0	  0.00608646	           1	           0	    -11469.1	     1.05344	     1.05344	
 --	 --	 --	 --	 --	       6.725	     1.05534	     1.05344	           0	  0.00190646	           1	           0	    -16774.8	     1.05344	     1.05344	
 --	 --	 --	 --	 --	        6.85	     1.06139	     1.05344	           0	  0.00795646	           1	           0	    -23879.4	     1.05344	     1.05344	
 --	 --	 --	 --	 --	       6.975	     1.05634	     1.05344	           0	   0.0029002	           1	           0	    -1208.58	     1.05344	     1.05344	
 --	 --	 --	 --	 --	         7.1	     1.05308	     1.05344	           0	 -0.00036105	           1	           0	    -8436.25	     1.05344	     1.05344	
 --	 --	 --	 --	 --	       7.225	     1.05853	     1.05344	           0	  0.00509395	           1	           0	      -13619	     1.05344	     1.05344	
 --	 --	 --	 --	 --	        7.35	     1.05124	     1.05344	           0	 -0.00219231	           1	           0	     -6933.6	     1.05344	     1.05344	
 --	 --	 --	 --	 --	       7.475	     1.05672	     1.05344	           0	  0.00328144	           1	           0	    -13759.4	     1.05344	     1.05344	
 --	 --	 --	 --	 --	         7.6	     1.05542	     1.05344	           0	  0.00198393	           1	           0	    -26735.7	     1.05344	     1.05344	
 --	 --	 --	 --	 --	       7.725	     1.05651	     1.05344	           0	  0.00307143	           1	           0	    -12250.3	     1.05344	     1.05344	
 --	 --	 --	 --	 --	        7.85	     1.05264	     1.05344	           0	-0.000801073	           1	           0	     -5976.3	     1.05344	     1.05344	
 --	 --	 --	 --	 --	       7.975	     1.06237	     1.05344	           0	  0.00892892	           1	           0	    -7081.09	     1.05344	     1.05344	
 --	 --	 --	 --	 --	         8.1	     1.05149	     1.05344	           0	 -0.00194358	           1	           0	    -17178.1	     1.05344	     1.05344	
 --	 --	 --	 --	 --	       8.225	     1.05569	     1.05344	           0	  0.00225142	           1	           0	    -19491.4	     1.05344	     1.05344	
 --	 --	 --	 --	 --	        8.35	     1.05681	     1.05344	           0	  0.00337641	           1	           0	    -20602.7	     1.05344	     1.05344	
 --	 --	 --	 --	 --	       8.475	     1.05853	     1.05344	           0	  0.00509391	           1	           0	    -12240.1	     1.05344	     1.05344	
 --	 --	 --	 --	 --	         8.6	     1.05443	     1.05344	           0	 0.000991404	           1	           0	    -18419.5	     1.05344	     1.05344	
 --	 --	 --	 --	 --	       8.725	     1.05626	     1.05344	           0	   0.0028239	           1	           0	    -20729.4	     1.05344	     1.05344	
 --	 --	 --	 --	 --	        8.85	      1.0575	     1.05344	           0	   0.0040639	           1	           0	      -11447	     1.05344	     1.05344	
 --	 --	 --	 --	 --	       8.975	      1.0576	     1.05344	           0	  0.00415889	           1	           0	    -24549.3	     1.05344	     1.05344	
 --	 --	 --	 --	 --	         9.1	     1.05817	     1.05344	           0	  0.00473139	           1	           0	    -12387.7	     1.05344	     1.05344	
 --	 --	 --	 --	 --	       9.225	     1.05767	     1.05344	           0	  0.00423389	           1	           0	    -11168.8	     1.05344	     1.05344	
 --	 --	 --	 --	 --	        9.35	     1.05674	     1.05344	           0	  0.00330138	           1	           0	    -3679.67	     1.05344	     1.05344	
 --	 --	 --	 --	 --	       9.475	     1.05563	     1.05344	           0	  0.00219638	           1	           0	      -12790	     1.05344	     1.05344	
 --	 --	 --	 --	 --	         9.6	     1.05088	     1.05344	           0	 -0.00255613	           1	           0	    -22093.4	     1.05344	     1.05344	
 --	 --	 --	 --	 --	       9.725	     1.04999	     1.05344	           0	 -0.00345063	           1	           0	    -23204.6	     1.05344	     1.05344	
 --	 --	 --	 --	 --	        9.85	     1.05796	     1.05344	           0	  0.00452387	           1	           0	    -11721.2	     1.05344	     1.05344	
 --	 --	 --	 --	 --	       9.975	      1.0575	     1.05344	           0	  0.00406386	           1	           0	    -13629.6	     1.05344	     1.05344	
 --	 --	 --	 --	 --	        10.4	     1.05527	     1.05344	           0	  0.00183385	           1	           0	    -11195.2	     1.05344	     1.05344	
 --	 --	 --	 --	 --	        10.9	      1.0526	     1.05344	           0	-0.000841165	           1	           0	    -15434.3	     1.05344	     1.05344	
 --	 --	 --	 --	 --	        11.4	     1.05456	     1.05344	           0	  0.00112632	           1	           0	    -5202.62	     1.05344	     1.05344	
 --	 --	 --	 --	 --	        11.9	     1.05697	     1.05344	           0	   0.0035313	           1	           0	    -15027.8	     1.05344	     1.05344	
 --	 --	 --	 --	 --	        12.4	     1.05636	     1.05344	           0	  0.00292129	           1	           0	    -12872.1	     1.05344	     1.05344	
 --	 --	 --	 --	 --	        12.9	      1.0564	     1.05344	           0	  0.00295877	           1	           0	    -5917.85	     1.05344	     1.05344	
 --	 --	 --	 --	 --	        13.4	     1.05559	     1.05344	           0	  0.00215626	           1	           0	    -7820.53	     1.05344	     1.05344	
 --	 --	 --	 --	 --	        13.9	     1.05685	     1.05344	           0	  0.00341374	           1	           0	     2135.37	 -0.00902062	     2.11589	
 --	 --	 --	 --	 --	        14.4	     1.05521	     1.05344	           0	  0.00177373	           1	           0	      -10287	     1.05344	     1.05344	
 --	 --	 --	 --	 --	        14.9	     1.05706	     1.05344	           0	  0.00362371	           1	           0	    -15525.8	     1.05344	     1.05344	
 --	 --	 --	 --	 --	        15.4	      1.0534	     1.05344	           0	-3.53006e-005	           1	           0	    -8166.91	     1.05344	     1.05344	
 --	 --	 --	 --	 --	        15.9	     1.04951	     1.05344	           0	 -0.00392882	           1	           0	      -30311	     1.05344	     1.05344	
 --	 --	 --	 --	 --	        16.4	      1.0534	     1.05344	           0	-3.88307e-005	           1	           0	    -19953.4	     1.05344	     1.05344	
 --	 --	 --	 --	 --	        16.9	     1.05404	     1.05344	           0	 0.000608154	           1	           0	    -15872.1	     1.05344	     1.05344	
 --	 --	 --	 --	 --	        17.4	     1.05674	     1.05344	           0	  0.00330114	           1	           0	    -16426.2	     1.05344	     1.05344	
 --	 --	 --	 --	 --	        17.9	     1.05393	     1.05344	           0	 0.000496874	           1	           0	      -16864	     1.05344	     1.05344	
 --	 --	 --	 --	 --	        18.4	     1.05325	     1.05344	           0	-0.000188891	           1	           0	    -21376.8	     1.05344	     1.05344	
 --	 --	 --	 --	 --	        18.9	     1.05678	     1.05344	           0	  0.00334109	           1	           0	    -15419.1	     1.05344	     1.05344	
 --	 --	 --	 --	 --	        19.4	     1.06091	     1.05344	           0	  0.00747608	           1	           0	    -16245.9	     1.05344	     1.05344	
 --	 --	 --	 --	 --	        19.9	     1.05235	     1.05344	           0	 -0.00108644	           1	           0	    -16686.8	     1.05344	     1.05344	
 --	 --	 --	 --	 --	        20.4	     1.05433	     1.05344	           0	 0.000896049	           1	           0	    -19715.1	     1.05344	     1.05344	
 --	 --	 --	 --	 --	        20.9	     1.05517	     1.05344	           0	  0.00173603	           1	           0	    -3357.49	     1.05344	     1.05344	
 --	 --	 --	 --	 --	        21.4	     1.05584	     1.05344	           0	  0.00240352	           1	           0	    -16908.1	     1.05344	     1.05344	
 --	 --	 --	 --	 --	        21.9	     1.05311	     1.05344	           0	-0.000323997	           1	           0	    -11346.1	     1.05344	     1.05344	
 --	 --	 --	 --	 --	        22.4	     1.05126	     1.05344	           0	 -0.00217351	           1	           0	    -14656.4	     1.05344	     1.05344	
 --	 --	 --	 --	 --	        22.9	     1.05025	     1.05344	           0	 -0.00318528	           1	           0	    -15489.3	     1.05344	     1.05344	
 --	 --	 --	 --	 --	        23.4	     1.05228	     1.05344	           0	 -0.00116154	           1	           0	    -18119.5	     1.05344	     1.05344	
 --	 --	 --	 --	 --	        23.9	     1.05857	     1.05344	           0	  0.00512844	           1	           0	    -3561.93	     1.05344	     1.05344	
 --	 --	 --	 --	 --	        24.4	     1.05697	     1.05344	           0	  0.00353093	           1	           0	    -11912.5	     1.05344	     1.05344	
 --	 --	 --	 --	 --	        24.9	     1.05126	     1.05344	           0	 -0.00217159	           1	           0	    -9621.77	     1.05344	     1.05344	
 --	 --	 --	 --	 --	        25.4	     1.05304	     1.05344	           0	-0.000399102	           1	           0	    -11457.7	     1.05344	     1.05344	
 --	 --	 --	 --	 --	        25.9	     1.05216	     1.05344	           0	 -0.00127662	           1	           0	    -13692.6	     1.05344	     1.05344	
 --	 --	 --	 --	 --	        26.4	     1.05149	     1.05344	           0	 -0.00194513	           1	           0	    -9319.41	     1.05344	     1.05344	
 --	 --	 --	 --	 --	        26.9	     1.04915	     1.05344	           0	 -0.00428915	           1	           0	    -18945.4	     1.05344	     1.05344	
 --	 --	 --	 --	 --	        27.4	      1.0553	     1.05344	           0	  0.00186834	           1	           0	    -9710.77	     1.05344	     1.05344	
 --	 --	 --	 --	 --	        27.9	     1.04989	     1.05344	           0	 -0.00354668	           1	           0	    -15744.1	     1.05344	     1.05344	
 --	 --	 --	 --	 --	        28.4	      1.0514	     1.05344	           0	 -0.00204169	           1	           0	    -20449.6	     1.05344	     1.05344	
 --	 --	 --	 --	 --	        28.9	     1.05485	     1.05344	           0	  0.00141329	           1	           0	    -10803.4	     1.05344	     1.05344	
 --	 --	 --	 --	 --	        29.4	     1.05678	     1.05344	           0	  0.00334078	           1	           0	    -16435.2	     1.05344	     1.05344	
 --	 --	 --	 --	 --	        29.9	     1.04863	     1.05344	           0	 -0.00480649	           1	           0	    -21137.5	     1.05344	     1.05344	
 --	 --	 --	 --	 --	        30.4	      1.0529	     1.05344	           0	-0.000535753	           1	           0	    -2187.18	     1.05344	     1.05344	
 --	 --	 --	 --	 --	        30.9	     1.05388	     1.05344	           0	 0.000439232	           1	           0	    -8535.64	     1.05344	     1.05344	
 --	 --	 --	 --	 --	        31.4	     1.05063	     1.05344	           0	 -0.00280528	           1	           0	    -16641.6	     1.05344	     1.05344	
 --	 --	 --	 --	 --	        31.9	     1.04934	     1.05344	           0	  -0.0040993	           1	           0	    -9871.29	     1.05344	     1.05344	
 --	 --	 --	 --	 --	        32.4	     1.05294	     1.05344	           0	-0.000496813	           1	           0	    -11431.3	     1.05344	     1.05344	
 --	 --	 --	 --	 --	        32.9	     1.05205	     1.05344	           0	 -0.00139183	           1	           0	    -10535.3	     1.05344	     1.05344	
 --	 --	 --	 --	 --	        33.4	     1.04756	     1.05344	           0	 -0.00587184	           1	           0	    -11684.6	     1.05344	     1.05344	
 --	 --	 --	 --	 --	        33.9	     1.05166	     1.05344	           0	 -0.00177436	           1	           0	    -8324.43	     1.05344	     1.05344	
 --	 --	 --	 --	 --	        34.4	     1.04939	     1.05344	           0	 -0.00404362	           1	           0	    -20949.4	     1.05344	     1.05344	
 --	 --	 --	 --	 --	        34.9	      1.0541	     1.05344	           0	 0.000668112	           1	           0	    -3656.74	     1.05344	     1.05344	
 --	 --	 --	 --	 --	        35.4	     1.05525	     1.05344	           0	   0.0018131	           1	           0	    -18203.7	     1.05344	     1.05344	
 --	 --	 --	 --	 --	        35.9	     1.04987	     1.05344	           0	 -0.00356742	           1	           0	    -17035.3	     1.05344	     1.05344	
 --	 --	 --	 --	 --	        36.4	     1.04766	     1.05344	           0	 -0.00577718	           1	           0	    -5072.06	     1.05344	     1.05344	
 --	 --	 --	 --	 --	        36.9	     1.05542	     1.05344	           0	  0.00198305	           1	           0	    -9103.15	     1.05344	     1.05344	
 --	 --	 --	 --	 --	        37.4	     1.04732	     1.05344	           0	 -0.00611996	           1	           0	    -16405.4	     1.05344	     1.05344	
 --	 --	 --	 --	 --	        37.9	      1.0502	     1.05344	           0	 -0.00324098	           1	           0	    -2961.15	     1.05344	     1.05344	
 --	 --	 --	 --	 --	        38.4	      1.0541	     1.05344	           0	 0.000665506	           1	           0	    -10263.8	     1.05344	     1.05344	
 --	 --	 --	 --	 --	        38.9	     1.05233	     1.05344	           0	 -0.00110451	           1	           0	    -14022.9	     1.05344	     1.05344	
 --	 --	 --	 --	 --	        39.4	     1.05057	     1.05344	           0	 -0.00286327	           1	           0	    -15321.9	     1.05344	     1.05344	
 --	 --	 --	 --	 --	        39.9	     1.05101	     1.05344	           0	 -0.00242254	           1	           0	    -8272.66	     1.05344	     1.05344	
 --	 --	 --	 --	 --	        40.4	      1.0506	     1.05344	           0	 -0.00283955	           1	           0	    -14774.8	     1.05344	     1.05344	
 --	 --	 --	 --	 --	        40.9	     1.05117	     1.05344	           0	 -0.00226957	           1	           0	    -4206.43	     1.05344	     1.05344	
 --	 --	 --	 --	 --	        41.4	     1.05391	     1.05344	           0	 0.000477916	           1	           0	    -10834.6	     1.05344	     1.05344	
 --	 --	 --	 --	 --	        41.9	     1.04949	     1.05344	           0	  -0.0039471	           1	           0	    -5987.05	     1.05344	     1.05344	
 --	 --	 --	 --	 --	        42.4	     1.04839	     1.05344	           0	 -0.00505211	           1	           0	    -6489.58	     1.05344	     1.05344	
 --	 --	 --	 --	 --	        42.9	     1.04974	     1.05344	           0	 -0.00370088	           1	           0	    -15441.6	     1.05344	     1.05344	
 --	 --	 --	 --	 --	        43.4	     1.05126	     1.05344	           0	 -0.00217539	           1	           0	    -7074.32	     1.05344	     1.05344	
 --	 --	 --	 --	 --	        43.9	     1.05308	     1.05344	           0	 -0.00036216	           1	           0	    -2502.77	     1.05344	     1.05344	
 --	 --	 --	 --	 --	        44.4	     1.04724	     1.05344	           0	 -0.00620192	           1	           0	    -9532.84	     1.05344	     1.05344	
 --	 --	 --	 --	 --	        44.9	      1.0512	     1.05344	           0	 -0.00223219	           1	           0	    -11828.7	     1.05344	     1.05344	
 --	 --	 --	 --	 --	        45.4	     1.04895	     1.05344	           0	  -0.0044847	           1	           0	    -14781.1	     1.05344	     1.05344	
 --	 --	 --	 --	 --	        45.9	     1.05062	     1.05344	           0	 -0.00282122	           1	           0	      -16482	     1.05344	     1.05344	
 --	 --	 --	 --	 --	        46.4	     1.04998	     1.05344	           0	 -0.00345474	           1	           0	    -13437.3	     1.05344	     1.05344	
 --	 --	 --	 --	 --	        46.9	     1.05073	     1.05344	           0	 -0.00270725	           1	           0	    -14338.8	     1.05344	     1.05344	
 --	 --	 --	 --	 --	        47.4	     1.05077	     1.05344	           0	 -0.00266927	           1	           0	    -18685.9	     1.05344	     1.05344	
 --	 --	 --	 --	 --	        47.9	     1.04645	     1.05344	           0	 -0.00698228	           1	           0	    -9199.41	     1.05344	     1.05344	
 --	 --	 --	 --	 --	        48.4	     1.05561	     1.05344	           0	   0.0021752	           1	           0	    -17216.1	     1.05344	     1.05344	
 --	 --	 --	 --	 --	        48.9	     1.05025	     1.05344	           0	 -0.00318731	           1	           0	    -9244.52	     1.05344	     1.05344	
 --	 --	 --	 --	 --	        49.4	     1.05092	     1.05344	           0	 -0.00251733	           1	           0	    -9873.46	     1.05344	     1.05344	
 --	 --	 --	 --	 --	        49.9	     1.05094	     1.05344	           0	 -0.00249984	           1	           0	    -6697.03	     1.05344	     1.05344	
 --	 --	 --	 --	 --	        50.4	     1.04382	     1.05344	           0	 -0.00961311	           1	           0	    -20042.8	     1.05344	     1.05344	
 --	 --	 --	 --	 --	        50.9	      1.0513	     1.05344	           0	 -0.00213737	           1	           0	    -14146.2	     1.05344	     1.05344	
 --	 --	 --	 --	 --	        51.4	     1.04819	     1.05344	           0	 -0.00524839	           1	           0	    -10697.2	     1.05344	     1.05344	
 --	 --	 --	 --	 --	        51.9	     1.05311	     1.05344	           0	-0.000324901	           1	           0	    -19388.3	     1.05344	     1.05344	
 --	 --	 --	 --	 --	        52.4	     1.04922	     1.05344	           0	 -0.00421492	           1	           0	    -13615.4	     1.05344	     1.05344	
 --	 --	 --	 --	 --	        52.9	     1.05159	     1.05344	           0	 -0.00184943	           1	           0	    -10570.7	     1.05344	     1.05344	
 --	 --	 --	 --	 --	        53.4	     1.05107	     1.05344	           0	 -0.00236495	           1	           0	    -15196.9	     1.05344	     1.05344	
 --	 --	 --	 --	 --	        53.9	      1.0522	     1.05344	           0	 -0.00123996	           1	           0	    -16818.5	     1.05344	     1.05344	
 --	 --	 --	 --	 --	        54.4	     1.05115	     1.05344	           0	 -0.00229048	           1	           0	    -20718.8	     1.05344	     1.05344	
 --	 --	 --	 --	 --	        54.9	     1.05123	     1.05344	           0	 -0.00221249	           1	           0	    -11551.3	     1.05344	     1.05344	
 --	 --	 --	 --	 --	        55.4	     1.05159	     1.05344	           0	 -0.00185001	           1	           0	    -3181.16	     1.05344	     1.05344	
 --	 --	 --	 --	 --	        55.9	     1.04798	     1.05344	           0	 -0.00545252	           1	           0	    -17109.3	     1.05344	     1.05344	
 --	 --	 --	 --	 --	        56.4	     1.05134	     1.05344	           0	 -0.00209754	           1	           0	    -21015.2	     1.05344	     1.05344	
 --	 --	 --	 --	 --	        56.9	     1.04701	     1.05344	           0	 -0.00642855	           1	           0	    -18957.4	     1.05344	     1.05344	
 --	 --	 --	 --	 --	        57.4	      1.0485	     1.05344	           0	 -0.00493757	           1	           0	    -4866.46	     1.05344	     1.05344	
 --	 --	 --	 --	 --	        57.9	     1.05325	     1.05344	           0	-0.000192582	           1	           0	    -3223.81	     1.05344	     1.05344	
 --	 --	 --	 --	 --	        58.4	     1.04872	     1.05344	           0	  -0.0047126	           1	           0	    -9720.38	     1.05344	     1.05344	
 --	 --	 --	 --	 --	        58.9	     1.05144	     1.05344	           0	 -0.00200211	           1	           0	    -5068.81	     1.05344	     1.05344	
 --	 --	 --	 --	 --	        59.4	     1.05201	     1.05344	           0	 -0.00143188	           1	           0	    -6684.84	     1.05344	     1.05344	
 --	 --	 --	 --	 --	        59.9	     1.05227	     1.05344	           0	 -0.00116514	           1	           0	    -10777.7	     1.05344	     1.05344	
 --	 --	 --	 --	 --	        60.4	     1.04819	     1.05344	           0	 -0.00524641	           1	           0	    -13202.7	     1.05344	     1.05344	
 --	 --	 --	 --	 --	        60.9	     1.04579	     1.05344	           0	 -0.00764942	           1	           0	    -10746.4	     1.05344	     1.05344	
 --	 --	 --	 --	 --	        61.4	     1.04806	     1.05344	           0	 -0.00537844	           1	           0	      -12777	     1.05344	     1.05344	
 --	 --	 --	 --	 --	        61.9	     1.04564	     1.05344	           0	  -0.0078017	           1	           0	    -13591.5	     1.05344	     1.05344	
 --	 --	 --	 --	 --	        62.4	     1.05063	     1.05344	           0	 -0.00280497	           1	           0	    -14815.5	     1.05344	     1.05344	
 --	 --	 --	 --	 --	        62.9	     1.05073	     1.05344	           0	 -0.00270773	           1	           0	    -11911.4	     1.05344	     1.05344	
 --	 --	 --	 --	 --	        63.4	     1.04867	     1.05344	           0	 -0.00476975	           1	           0	    -7532.98	     1.05344	     1.05344	
 --	 --	 --	 --	 --	        63.9	     1.04796	     1.05344	           0	 -0.00547451	           1	           0	    -4688.75	     1.05344	     1.05344	
 --	 --	 --	 --	 --	        64.4	     1.04758	     1.05344	           0	 -0.00585528	           1	           0	    -18181.1	     1.05344	     1.05344	
 --	 --	 --	 --	 --	        64.9	     1.04724	     1.05344	           0	 -0.00619854	           1	           0	    -8331.36	     1.05344	     1.05344	
 --	 --	 --	 --	 --	        65.4	      1.0484	     1.05344	           0	 -0.00503531	           1	           0	    -6022.15	     1.05344	     1.05344	
 --	 --	 --	 --	 --	        65.9	     1.05035	     1.05344	           0	 -0.00309032	           1	           0	    -7643.72	     1.05344	     1.05344	
 --	 --	 --	 --	 --	        66.4	     1.04928	     1.05344	           0	 -0.00415809	           1	           0	    -2870.96	     1.05344	     1.05344	
 --	 --	 --	 --	 --	        66.9	     1.04468	     1.05344	           0	 -0.00875685	           1	           0	     3702.61	   -0.345599	     2.45247	
 --	 --	 --	 --	 --	        67.4	     1.04901	     1.05344	           0	 -0.00442687	           1	           0	    -3428.11	     1.05344	     1.05344	
 --	 --	 --	 --	 --	        67.9	     1.05004	     1.05344	           0	 -0.00339788	           1	           0	    -3529.69	     1.05344	     1.05344	
 --	 --	 --	 --	 --	        68.4	     1.04825	     1.05344	           0	  -0.0051904	           1	           0	    -3557.56	     1.05344	     1.05344	
 --	 --	 --	 --	 --	        68.9	     1.04373	     1.05344	           0	 -0.00971041	           1	           0	    -6969.75	     1.05344	     1.05344	
 --	 --	 --	 --	 --	        69.4	     1.04638	     1.05344	           0	 -0.00705743	           1	           0	     277.427	    0.670481	     1.43639	
 --	 --	 --	 --	 --	        69.9	     1.05277	     1.05344	           0	-0.000670444	           1	           0	     5057.23	   -0.581613	     2.68849	
 --	 --	 --	 --	 --	        70.4	     1.05027	     1.05344	           0	 -0.00316721	           1	           0	    -9432.61	     1.05344	     1.05344	
 --	 --	 --	 --	 --	        70.9	     1.04932	     1.05344	           0	 -0.00411947	           1	           0	    -179.364	     1.05344	     1.05344	
 --	 --	 --	 --	 --	        71.4	     1.04529	     1.05344	           0	 -0.00814599	           1	           0	    -6590.16	     1.05344	     1.05344	
 --	 --	 --	 --	 --	        71.9	     1.04495	     1.05344	           0	 -0.00848775	           1	           0	     6507.71	   -0.801327	      2.9082	
 --	 --	 --	 --	 --	        72.4	     1.04691	     1.05344	           0	 -0.00652502	           1	           0	     2284.99	  -0.0456111	     2.15249	
 --	 --	 --	 --	 --	        72.9	     1.04594	     1.05344	           0	 -0.00749678	           1	           0	     4869.57	   -0.550989	     2.65787	
 --	 --	 --	 --	 --	        73.4	     1.04999	     1.05344	           0	 -0.00345155	           1	           0	    -12658.2	     1.05344	     1.05344	
 --	 --	 --	 --	 --	        73.9	     1.04565	     1.05344	           0	 -0.00778431	           1	           0	    -8286.32	     1.05344	     1.05344	
 --	 --	 --	 --	 --	        74.4	     1.04472	     1.05344	           0	 -0.00871708	           1	           0	    -22367.6	     1.05344	     1.05344	
 --	 --	 --	 --	 --	        74.9	      1.0492	     1.05344	           0	 -0.00423559	           1	           0	      -25513	     1.05344	     1.05344	
 --	 --	 --	 --	 --	        75.4	      1.0485	     1.05344	           0	 -0.00494011	           1	           0	    -27724.3	     1.05344	     1.05344	
 --	 --	 --	 --	 --	        75.9	     1.04861	     1.05344	           0	 -0.00482812	           1	           0	    -11632.2	     1.05344	     1.05344	
 --	 --	 --	 --	 --	        76.4	     1.05312	     1.05344	           0	 -0.00032314	           1	           0	    -24637.3	     1.05344	     1.05344	
 --	 --	 --	 --	 --	        76.9	     1.04564	     1.05344	           0	  -0.0078004	           1	           0	    -13870.6	     1.05344	     1.05344	
 --	 --	 --	 --	 --	        77.4	     1.05033	     1.05344	           0	 -0.00311317	           1	           0	    -13612.7	     1.05344	     1.05344	
 --	 --	 --	 --	 --	        77.9	      1.0484	     1.05344	           0	 -0.00503643	           1	           0	    -25818.4	     1.05344	     1.05344	
 --	 --	 --	 --	 --	        78.4	      1.0439	     1.05344	           0	 -0.00953595	           1	           0	    -19116.5	     1.05344	     1.05344	
 --	 --	 --	 --	 --	        78.9	     1.04501	     1.05344	           0	 -0.00842996	           1	           0	    -20254.4	     1.05344	     1.05344	
 --	 --	 --	 --	 --	        79.4	     1.04815	     1.05344	           0	 -0.00528623	           1	           0	    -25067.5	     1.05344	     1.05344	
 --	 --	 --	 --	 --	        79.9	     1.04936	     1.05344	           0	 -0.00408075	           1	           0	    -17565.5	     1.05344	     1.05344	
 --	 --	 --	 --	 --	        80.4	     1.04711	     1.05344	           0	 -0.00633276	           1	           0	    -13381.4	     1.05344	     1.05344	
 --	 --	 --	 --	 --	        80.9	     1.04718	     1.05344	           0	 -0.00625728	           1	           0	      -10126	     1.05344	     1.05344	
 --	 --	 --	 --	 --	        81.4	     1.04907	     1.05344	           0	 -0.00437079	           1	           0	    -16423.1	     1.05344	     1.05344	
 --	 --	 --	 --	 --	        81.9	     1.04937	     1.05344	           0	 -0.00406331	           1	           0	    -7039.05	     1.05344	     1.05344	
 --	 --	 --	 --	 --	        82.4	     1.05336	     1.05344	           0	-7.83204e-005	           1	           0	    -19652.6	     1.05344	     1.05344	
 --	 --	 --	 --	 --	        82.9	     1.05119	     1.05344	           0	 -0.00225084	           1	           0	    -27458.5	     1.05344	     1.05344	
 --	 --	 --	 --	 --	        83.4	     1.05265	     1.05344	           0	-0.000783351	           1	           0	    -15881.2	     1.05344	     1.05344	
 --	 --	 --	 --	 --	        83.9	     1.04629	     1.05344	           0	 -0.00715287	           1	           0	    -11025.6	     1.05344	     1.05344	
 --	 --	 --	 --	 --	        84.4	     1.04716	     1.05344	           0	 -0.00627438	           1	           0	    -7236.28	     1.05344	     1.05344	
 --	 --	 --	 --	 --	        84.9	      1.0496	     1.05344	           0	  -0.0038359	           1	           0	    -15455.8	     1.05344	     1.05344	
 --	 --	 --	 --	 --	        85.4	     1.05002	     1.05344	           0	 -0.00341591	           1	           0	    -19463.7	     1.05344	     1.05344	
 --	 --	 --	 --	 --	        85.9	     1.04714	     1.05344	           0	 -0.00629593	           1	           0	    -20881.3	     1.05344	     1.05344	
 --	 --	 --	 --	 --	        86.4	     1.04825	     1.05344	           0	 -0.00519094	           1	           0	    -17097.8	     1.05344	     1.05344	
 --	 --	 --	 --	 --	        86.9	     1.04623	     1.05344	           0	 -0.00721121	           1	           0	    -16319.5	     1.05344	     1.05344	
 --	 --	 --	 --	 --	        87.4	      1.0508	     1.05344	           0	 -0.00263472	           1	           0	    -13529.1	     1.05344	     1.05344	
 --	 --	 --	 --	 --	        87.9	     1.04703	     1.05344	           0	 -0.00640849	           1	           0	      -16419	     1.05344	     1.05344	
 --	 --	 --	 --	 --	        88.4	     1.04791	     1.05344	           0	   -0.005532	           1	           0	    -6638.73	     1.05344	     1.05344	
 --	 --	 --	 --	 --	        88.9	     1.05145	     1.05344	           0	 -0.00198577	           1	           0	    -13643.8	     1.05344	     1.05344	
 --	 --	 --	 --	 --	        89.4	     1.05229	     1.05344	           0	 -0.00114578	           1	           0	    -12464.1	     1.05344	     1.05344	
 --	 --	 --	 --	 --	        89.9	     1.04823	     1.05344	           0	  -0.0052083	           1	           0	    -11272.2	     1.05344	     1.05344	
 --	 --	 --	 --	 --	        90.4	     1.04955	     1.05344	           0	 -0.00389356	           1	           0	    -20080.9	     1.05344	     1.05344	
 --	 --	 --	 --	 --	        90.9	     1.05021	     1.05344	           0	 -0.00322608	           1	           0	    -10307.1	     1.05344	     1.05344	
 --	 --	 --	 --	 --	        91.4	     1.04951	     1.05344	           0	 -0.00392859	           1	           0	    -9523.01	     1.05344	     1.05344	
 --	 --	 --	 --	 --	        91.9	     1.04523	     1.05344	           0	 -0.00820486	           1	           0	    -22445.8	     1.05344	     1.05344	
 --	 --	 --	 --	 --	        92.4	     1.04915	     1.05344	           0	 -0.00429212	           1	           0	    -16465.7	     1.05344	     1.05344	
 --	 --	 --	 --	 --	        92.9	     1.05109	     1.05344	           0	 -0.00234614	           1	           0	    -17347.9	     1.05344	     1.05344	
 --	 --	 --	 --	 --	        93.4	     1.04651	     1.05344	           0	  -0.0069254	           1	           0	     1695.68	    0.106664	     2.00021	
 --	 --	 --	 --	 --	        93.9	     1.04861	     1.05344	           0	 -0.00482867	           1	           0	      -20497	     1.05344	     1.05344	
 --	 --	 --	 --	 --	        94.4	     1.04819	     1.05344	           0	 -0.00524593	           1	           0	    -9197.36	     1.05344	     1.05344	
 --	 --	 --	 --	 --	        94.9	     1.04913	     1.05344	           0	 -0.00431245	           1	           0	    -2739.17	     1.05344	     1.05344	
 --	 --	 --	 --	 --	        95.4	     1.04506	     1.05344	           0	 -0.00837671	           1	           0	       -7420	     1.05344	     1.05344	
 --	 --	 --	 --	 --	        95.9	     1.04905	     1.05344	           0	 -0.00438948	           1	           0	    -12958.2	     1.05344	     1.05344	
 --	 --	 --	 --	 --	        96.4	     1.04966	     1.05344	           0	 -0.00377899	           1	           0	    -13568.4	     1.05344	     1.05344	
 --	 --	 --	 --	 --	        96.9	     1.05206	     1.05344	           0	 -0.00137501	           1	           0	    -15574.5	     1.05344	     1.05344	
 --	 --	 --	 --	 --	        97.4	     1.04691	     1.05344	           0	 -0.00652677	           1	           0	    -14387.5	     1.05344	     1.05344	
 --	 --	 --	 --	 --	        97.9	     1.04963	     1.05344	           0	 -0.00381379	           1	           0	    -4081.83	     1.05344	     1.05344	
 --	 --	 --	 --	 --	        98.4	      1.0459	     1.05344	           0	  -0.0075358	           1	           0	      -626.3	     1.05344	     1.05344	
 --	 --	 --	 --	 --	        98.9	     1.04989	     1.05344	           0	 -0.00354632	           1	           0	    -6826.35	     1.05344	     1.05344	
 --	 --	 --	 --	 --	        99.4	      1.0479	     1.05344	           0	 -0.00553383	           1	           0	    -12915.3	     1.05344	     1.05344	
 --	 --	 --	 --	 --	        99.9	      1.0493	     1.05344	           0	 -0.00414185	           1	           0	    -4521.96	     1.05344	     1.05344	
 --	 --	 --	 --	 --	         100	      1.0489	     1.05344	           0	 -0.00454135	           1	           0	    -6807.92	     1.05344	     1.05344	
