%!PS-Adobe-3.0 EPSF-3.0
%%BoundingBox: 0 0 514 550
%%Creator: BioKin Ltd.
%%DocumentFonts: Symbol Helvetica
%%EndComments
%
/bkdict 256 dict def
bkdict begin
/M {moveto} def 
/R {rmoveto} def
/L {lineto} def
/rL {rlineto} def
/GSN {gsave newpath} def
/SGR {stroke grestore} def
/COSGR {gsave setrgbcolor stroke grestore grestore} def
/SL {setlinewidth} def
/LWMB {12} def             % line width - model curves, black & white
/LWMC {10} def             % line width - model curves, color
/L2 {2.5 setlinewidth} def
/L5 {5 setlinewidth} def
/L10 {10 setlinewidth} def
/G50 {0.5 setgray} def
/SDA {[10  20] 0 setdash} def % axes
/helvT {/Helvetica findfont 100 scalefont setfont} def % tiny
/helvS {/Helvetica findfont 125 scalefont setfont} def % small
/helvM {/Helvetica findfont 150 scalefont setfont} def % medium
/helvL {/Helvetica findfont 175 scalefont setfont} def % large
/xlabel {gsave M dup
   stringwidth exch -0.5 mul exch rmoveto show grestore} def 
/ylabel {gsave M 90 rotate dup
   stringwidth exch -0.5 mul exch rmoveto show grestore} def
/ylabelresid {gsave M dup
   stringwidth exch -1 mul exch rmoveto show grestore} def
% ======
% Shapes
% ======
% Circle:
/Circ {0 360 arc closepath} def
%
% Square:
/Squa {dup dup -0.5 mul dup dup R -2 mul 0 exch rL 1 mul 0 rL dup 0 exch -1 mul rL closepath} def
%
% Triangle Up:
/TriU {dup dup dup -0.4 mul exch -0.5 mul exch R dup 0.5 mul exch rL dup -1 mul exch 0.5 mul exch rL closepath} def 
%
% Triangle Down:
/TriD {dup dup dup 0.4 mul exch -0.5 mul exch R dup 0.5 mul exch -1 mul rL dup 0.5 mul exch rL closepath} def 
%
% Diamond:
/Diam {45 rotate Squa} def
% ======
% Fills
% ======
/GRF {gsave setgray fill grestore} def                    % gray-level Fill
/COF {gsave setrgbcolor fill grestore} def                % color fill
% ======
% Colors
% ======
/C01 {1.00	0.00	0.00} def      % Red
/C02 {0.00	0.00	1.00} def      % Blue
/C03 {0.00	0.39	0.00} def      % Dark Green
/C04 {0.78	0.08	0.52} def      % Medium Violet Red
/C05 {0.55	0.27	0.07} def      % Saddle Brown
/C06 {0.10	0.70	0.70} def      % (cyan)
/C07 {1.00	0.55	0.00} def      % Dark Orange
/C08 {0.63	0.13	0.94} def      % Purple
/C09 {0.00	0.75	1.00} def      % Deep Sky Blue
/C10 {0.20	0.80	0.20} def      % Lime Green
/C11 {0.47	0.53	0.60} def      % Light Slate Gray
/C12 {0.00	0.00	0.00} def      % Black            % or: {0.19	0.31	0.31} def      % Dark Slate Gray
%
/LGR {0.75} def % light gray
/DGR {0.33} def % dark gray
%
% =============
% Dash patterns
% =============
/dash01 { [80  20] 0 setdash } def
/dash02 { [40  20] 0 setdash } def
/dash03 { [80  20  10  20] 0 setdash } def
/dash04 { [40  20  10  20] 0 setdash } def
/dash05 { [80  20  10  10  10  20] 0 setdash } def
/dash06 { [40  20  10  10  10  20] 0 setdash } def
/dash07 { [10  10] 0 setdash } def
%
/MFshow {
   { dup 5 get 3 ge
     { 5 get 3 eq {gsave} {grestore} ifelse }
     {dup dup 0 get findfont exch 1 get scalefont setfont
     [ currentpoint ] exch dup 2 get 0 exch R dup 5 get 2 ne {dup dup 6
     get exch 4 get {show} {stringwidth pop 0 R} ifelse }if dup 5 get 0 eq
     {dup 3 get {2 get neg 0 exch R pop} {pop aload pop M} ifelse} {dup 5
     get 1 eq {dup 2 get exch dup 3 get exch 6 get stringwidth pop -2 div
     dup 0 R} {dup 6 get stringwidth pop -2 div 0 R 6 get
     show 2 index {aload pop M neg 3 -1 roll neg R pop pop} {pop pop pop
     pop aload pop M} ifelse }ifelse }ifelse }
     ifelse }
   forall} bind def
/MFwidth {0 exch {dup 3 get{dup dup 0 get findfont exch 1 get scalefont
     setfont 6 get stringwidth pop add} {pop} ifelse} forall} bind def
/MCshow { currentpoint stroke M
  exch dup MFwidth -2 div 3 -1 roll R MFshow } def
%
end
%%EndProlog
bkdict begin
0.1 0.1 scale
%
% Model curves:
%

GSN 753 4827 M
753 4827 L
786 4636 L
820 4443 L
853 4250 L
886 4060 L
920 3876 L
929 3823 L
953 3701 L
986 3536 L
1020 3384 L
1053 3247 L
1086 3126 L
1106 3063 L
1120 3023 L
1153 2937 L
1186 2869 L
1220 2816 L
1253 2778 L
1282 2754 L
1286 2751 L
1319 2734 L
1353 2724 L
1386 2718 L
1419 2715 L
1453 2714 L
1459 2714 L
1486 2714 L
1519 2714 L
1553 2714 L
1586 2714 L
1619 2714 L
1635 2714 L
1653 2714 L
1686 2714 L
1719 2714 L
1753 2714 L
1786 2714 L
1812 2714 L
1819 2714 L
1853 2714 L
1886 2714 L
1919 2714 L
1953 2714 L
1986 2714 L
1988 2714 L
2019 2714 L
2053 2714 L
2086 2714 L
2119 2714 L
2153 2714 L
2165 2714 L
2186 2714 L
2219 2714 L
2253 2714 L
2286 2714 L
2319 2714 L
2341 2714 L
2353 2714 L
2386 2714 L
2419 2714 L
2453 2714 L
2486 2714 L
2518 2714 L
2519 2714 L
2553 2714 L
2586 2714 L
2619 2714 L
2653 2714 L
2686 2714 L
2694 2714 L
2719 2714 L
2753 2714 L
2786 2714 L
2819 2714 L
2853 2714 L
2871 2714 L
2886 2714 L
2919 2714 L
2953 2714 L
2986 2714 L
3019 2714 L
3047 2714 L
3053 2714 L
3086 2714 L
3119 2714 L
3153 2714 L
3186 2714 L
3219 2714 L
3224 2714 L
3253 2714 L
3286 2714 L
3319 2714 L
3353 2714 L
3386 2714 L
3400 2714 L
3419 2714 L
3453 2714 L
3476 2714 L
3486 2714 L
3519 2714 L
3553 2714 L
3577 2714 L
3586 2714 L
3619 2714 L
3653 2714 L
3686 2714 L
3719 2714 L
3753 2714 L
3754 2714 L
3786 2714 L
3819 2714 L
3853 2714 L
3886 2714 L
3919 2714 L
3930 2714 L
3953 2714 L
3986 2714 L
4019 2714 L
4053 2714 L
4086 2714 L
4086 2714 L
LWMC SL  C06 COSGR

%
% Experimental data:
%
GSN 777 4555 M
1388 4390 L
1552 4470 L
1652 5166 L
1723 4632 L
1778 4813 L
1824 4448 L
1863 4614 L
1896 4686 L
1926 4670 L
1952 4689 L
1976 4669 L
1998 4421 L
2019 4520 L
2037 4521 L
2055 4412 L
2071 4608 L
2086 4140 L
2101 4499 L
2115 4517 L
2128 4557 L
2140 4430 L
2152 4331 L
2163 4568 L
2174 4517 L
2184 4433 L
2194 4381 L
2204 4381 L
2213 4420 L
2222 4290 L
2230 4255 L
2239 4337 L
2247 4423 L
2255 4399 L
2262 4392 L
2270 4281 L
2277 4359 L
2284 4239 L
2290 4028 L
2297 4093 L
2303 4112 L
2310 4464 L
2316 4237 L
2322 4272 L
2328 4249 L
2333 4061 L
2339 4165 L
2344 4194 L
2350 3984 L
2355 3951 L
2360 4193 L
2365 4234 L
2370 4247 L
2375 4395 L
2380 4210 L
2384 4037 L
2389 4252 L
2393 3863 L
2398 4155 L
2402 4040 L
2407 3948 L
2411 4095 L
2415 3952 L
2419 4117 L
2423 4023 L
2427 4027 L
2431 3954 L
2435 4143 L
2438 4082 L
2442 4030 L
2446 3976 L
2449 3959 L
2453 4019 L
2456 4097 L
2460 3773 L
2463 3864 L
2467 3979 L
2470 3904 L
2473 3832 L
2476 3956 L
2480 3898 L
2483 3966 L
2486 3819 L
2489 3759 L
2492 4037 L
2495 3729 L
2498 3890 L
2501 3777 L
2504 3722 L
2507 3848 L
2510 3786 L
2512 3907 L
2515 3893 L
2518 3951 L
2521 3796 L
2523 3799 L
2526 3713 L
2529 3859 L
2531 3681 L
2534 3651 L
2536 3839 L
2539 3801 L
2541 3656 L
2544 3965 L
2546 3756 L
2549 3870 L
2551 3670 L
2554 3591 L
2556 3594 L
2558 3697 L
2561 3664 L
2563 4039 L
2565 3808 L
2568 3871 L
2570 3643 L
2572 3615 L
2574 3906 L
2576 3686 L
2579 3730 L
2581 3697 L
2583 3536 L
2585 3503 L
2587 3760 L
2589 3759 L
2591 3601 L
2593 3589 L
2595 3575 L
2597 3670 L
2599 3664 L
2601 3822 L
2603 3819 L
2605 3420 L
2607 3541 L
2609 3531 L
2611 3525 L
2613 3749 L
2615 3732 L
2617 3748 L
2618 3585 L
2620 3529 L
2622 3573 L
2624 3558 L
2626 3419 L
2627 3462 L
2629 3587 L
2631 3557 L
2633 3438 L
2634 3669 L
2636 3435 L
2638 3384 L
2640 3511 L
2641 3572 L
2643 3418 L
2645 3408 L
2646 3486 L
2648 3499 L
2650 3548 L
2651 3333 L
2653 3533 L
2654 3520 L
2656 3505 L
2658 3700 L
2659 3360 L
2661 3315 L
2662 3364 L
2664 3578 L
2665 3317 L
2667 3445 L
2668 3347 L
2670 3453 L
2671 3211 L
2673 3374 L
2674 3405 L
2676 3540 L
2677 3282 L
2679 3573 L
2680 3299 L
2682 3098 L
2683 3223 L
2685 3236 L
2686 3279 L
2687 3268 L
2689 3486 L
2690 3337 L
2692 3212 L
2693 3279 L
2694 3293 L
2696 3419 L
2697 3174 L
2698 3247 L
2700 3200 L
2701 3280 L
2702 3227 L
2704 3167 L
2705 3243 L
2706 3308 L
2708 3066 L
2709 3132 L
2710 3144 L
2712 3329 L
2713 3299 L
2714 3130 L
2715 3404 L
2717 3038 L
2718 3257 L
2719 3034 L
2720 3202 L
2722 3212 L
2723 3036 L
2724 3187 L
2725 3251 L
2726 3046 L
2728 3237 L
2729 3282 L
2730 3294 L
2731 3238 L
2732 3191 L
2734 3209 L
2735 3248 L
2736 2962 L
2737 3075 L
2738 3067 L
2739 3056 L
2741 3286 L
2742 3312 L
2743 3171 L
2744 3159 L
2745 3173 L
2746 2811 L
2747 3038 L
2748 3276 L
2749 3300 L
2751 3110 L
2752 3086 L
2753 3036 L
2754 3246 L
2755 3143 L
2756 3290 L
2757 3104 L
2758 2957 L
2759 3000 L
2760 3105 L
2761 3092 L
2762 3055 L
2763 3205 L
2764 3051 L
2765 2973 L
2767 2964 L
2768 3097 L
2769 3015 L
2770 3070 L
2771 3146 L
2772 3016 L
2773 3123 L
2774 3013 L
2775 2964 L
2776 2907 L
2777 3017 L
2778 3054 L
2779 3067 L
2780 2930 L
2781 2810 L
2782 3081 L
2783 3114 L
2783 2922 L
2784 3032 L
2785 2948 L
2786 2780 L
2787 2912 L
2788 3052 L
2789 3063 L
2790 2985 L
2791 2928 L
2792 3165 L
2793 2870 L
2794 2930 L
2795 3028 L
2796 2905 L
2797 3058 L
2798 3007 L
2798 2838 L
2799 2775 L
2800 2724 L
2801 2977 L
2802 2754 L
2803 2851 L
2804 2880 L
2805 3062 L
2806 2901 L
2807 2995 L
2807 2843 L
2808 2935 L
2809 2897 L
2810 2835 L
2811 2762 L
2812 3032 L
2813 2681 L
2813 2916 L
2814 2739 L
2815 3006 L
2816 2872 L
2817 2985 L
2818 3089 L
2819 2745 L
2819 2819 L
2820 3001 L
2821 2820 L
2822 2719 L
2823 2798 L
2824 2961 L
2824 2998 L
2825 2819 L
2826 2951 L
2827 2895 L
2828 2702 L
2828 2841 L
2829 2966 L
2830 2909 L
2831 2833 L
2832 2763 L
2832 2852 L
2833 2874 L
2834 2760 L
2835 2786 L
2836 2891 L
2836 2733 L
2837 2824 L
2838 2886 L
2839 2764 L
2840 2720 L
2840 2712 L
2841 2593 L
2842 2925 L
2843 2596 L
2843 2719 L
2844 2923 L
2845 2775 L
2846 2734 L
2846 2642 L
2847 2713 L
2848 2835 L
2849 2763 L
2849 2745 L
2850 2877 L
2851 2733 L
2852 2928 L
2852 2797 L
2853 2842 L
2854 2745 L
2855 2787 L
2855 2653 L
2856 2781 L
2857 2970 L
2857 2641 L
2858 2911 L
2859 2766 L
2860 2696 L
2860 2665 L
2861 2813 L
2862 2694 L
2862 2805 L
2863 2813 L
2864 2627 L
2865 2766 L
2865 2908 L
2866 2827 L
2867 2745 L
2867 2560 L
2868 2615 L
2869 2719 L
2869 2786 L
2870 2796 L
2871 2589 L
2871 2653 L
2872 2618 L
2873 2746 L
2873 2658 L
2874 2552 L
2875 2901 L
2876 2772 L
2876 2636 L
2877 2633 L
2878 2883 L
2878 2599 L
2879 2491 L
2880 2634 L
2880 2732 L
2881 2777 L
2881 2796 L
2882 2608 L
2883 2726 L
2883 2741 L
2884 2550 L
2885 2677 L
2885 2487 L
2886 2745 L
2887 2647 L
2887 2544 L
2888 2865 L
2889 2797 L
2889 2775 L
2892 2718 L
2894 2602 L
2897 2590 L
2899 2506 L
2902 2559 L
2904 2723 L
2907 2535 L
2909 2381 L
2911 2559 L
2914 2497 L
2916 2484 L
2918 2623 L
2921 2454 L
2923 2612 L
2925 2467 L
2927 2491 L
2929 2515 L
2932 2491 L
2934 2393 L
2936 2264 L
2938 2484 L
2940 2573 L
2942 2339 L
2944 2136 L
2946 2464 L
2948 2436 L
2950 2259 L
2952 2526 L
2954 2394 L
2956 2533 L
2958 2233 L
2960 2364 L
2962 2303 L
2964 2127 L
2966 2386 L
2968 2289 L
2970 2590 L
2971 2334 L
2973 2303 L
2975 2396 L
2977 2543 L
2979 2387 L
2980 2283 L
2982 2459 L
2984 2340 L
2986 2194 L
2987 2319 L
2989 2261 L
2991 2219 L
2993 2439 L
2994 2362 L
2996 2268 L
2998 2291 L
2999 2177 L
3001 2096 L
3003 2281 L
3004 2328 L
3006 2112 L
3007 2311 L
3009 2372 L
3011 2247 L
3012 2090 L
3014 2124 L
3015 2374 L
3017 2222 L
3018 2211 L
3020 2291 L
3021 2204 L
3023 2223 L
3024 2174 L
3026 2129 L
3027 2403 L
3029 2291 L
3030 2138 L
3032 2066 L
3033 2002 L
3035 2276 L
3036 2146 L
3038 2126 L
3039 2087 L
3040 2194 L
3042 2168 L
3043 2121 L
3045 2061 L
3046 2171 L
3047 2133 L
3049 2303 L
3050 2177 L
3051 2180 L
3053 2131 L
3054 2149 L
3055 2106 L
3057 2068 L
3058 1870 L
3059 2013 L
3061 1956 L
3062 2079 L
3063 2230 L
3065 2048 L
3066 2096 L
3067 2150 L
3068 2224 L
3070 2225 L
3071 2151 L
3072 2141 L
3073 2083 L
3075 2265 L
3076 2119 L
3077 2118 L
3078 2271 L
3079 2123 L
3081 2125 L
3082 2099 L
3083 2163 L
3084 2054 L
3085 2056 L
3087 2250 L
3088 2004 L
3089 1899 L
3090 2130 L
3091 1923 L
3092 2181 L
3094 2083 L
3095 2089 L
3096 2222 L
3097 2097 L
3098 2055 L
3099 1987 L
3100 2092 L
3101 2097 L
3103 2156 L
3104 2082 L
3105 2119 L
3106 1923 L
3107 2130 L
3108 2038 L
3109 2181 L
3110 1914 L
3111 2108 L
3112 2057 L
3113 1887 L
3114 2124 L
3115 2026 L
3116 1932 L
3117 2116 L
3119 2027 L
3120 1983 L
3121 2124 L
3122 2046 L
3123 2066 L
3124 1965 L
3125 2129 L
3126 2112 L
3127 2184 L
3128 2107 L
3129 2151 L
3130 1915 L
3131 2082 L
3132 2004 L
3133 1944 L
3134 2138 L
3135 2087 L
3136 1837 L
3136 1867 L
3137 1874 L
3138 2049 L
3139 2032 L
3140 2124 L
3141 2001 L
3142 1932 L
3143 2082 L
3144 2121 L
3145 1954 L
3146 1931 L
3147 1851 L
3148 2073 L
3149 2046 L
3150 2088 L
3151 1900 L
3151 1974 L
3152 2065 L
3153 2172 L
3154 1967 L
3155 2012 L
3156 1873 L
3157 2012 L
3158 2194 L
3159 2061 L
3160 2008 L
3160 2121 L
3161 2025 L
3162 1892 L
3163 2247 L
3164 1881 L
3165 2064 L
3166 2115 L
3166 1848 L
3167 2098 L
3168 2064 L
3169 2085 L
3170 2162 L
3171 1862 L
3172 2096 L
3172 2140 L
3173 2021 L
3174 1902 L
3175 2242 L
3176 2021 L
3177 1984 L
3177 2141 L
3178 2266 L
3179 2114 L
3180 1958 L
3181 2220 L
3181 2183 L
3182 2213 L
3183 1940 L
3184 2068 L
3185 1873 L
3185 1954 L
3186 2045 L
3187 1887 L
3188 2170 L
3189 2071 L
3189 2045 L
3190 2186 L
3191 2133 L
3192 2091 L
3193 1929 L
3193 2147 L
3194 2132 L
3195 2112 L
3196 2127 L
3196 2093 L
3197 1958 L
3198 2059 L
3199 2086 L
3199 2196 L
3200 1909 L
3201 2255 L
3202 2032 L
3202 1994 L
3203 1877 L
3204 2063 L
3205 2054 L
3205 1926 L
3206 2217 L
3207 2088 L
3208 2046 L
3208 1948 L
3209 1957 L
3210 2387 L
3210 1991 L
3211 2160 L
3212 2195 L
3213 2281 L
3213 1964 L
3214 2108 L
3215 2354 L
3215 2211 L
3216 2135 L
3217 2110 L
3218 1916 L
3218 2238 L
3219 2196 L
3220 2030 L
3220 2229 L
3221 2165 L
3222 2114 L
3222 2083 L
3223 2231 L
3224 2228 L
3224 2183 L
3225 2067 L
3226 1866 L
3227 1953 L
3227 2342 L
3228 2158 L
3229 1911 L
3229 2280 L
3230 1992 L
3231 2339 L
3231 1833 L
3232 2193 L
3233 2106 L
3233 1960 L
3234 2221 L
3235 2090 L
3235 2349 L
3236 2062 L
3236 2264 L
3237 2179 L
3238 2118 L
3238 2037 L
3239 2040 L
3240 2138 L
3240 2162 L
3241 1971 L
3242 2230 L
3242 2277 L
3243 2345 L
3244 1969 L
3244 2009 L
3245 2188 L
3245 2135 L
3246 2060 L
3247 2163 L
3247 2116 L
3248 2236 L
3249 2109 L
3249 2123 L
3250 2070 L
3250 2132 L
3251 2054 L
3252 2403 L
3252 2023 L
3253 2159 L
3253 2087 L
3254 2150 L
3255 2012 L
3255 2230 L
3256 2080 L
3257 2232 L
3257 2188 L
3258 1988 L
3258 2202 L
3259 1958 L
3259 2252 L
3260 2258 L
3261 2127 L
3261 2158 L
3262 2158 L
3262 2094 L
3263 2144 L
3264 2116 L
3264 2216 L
3265 2091 L
3265 2115 L
3266 2096 L
3267 2166 L
3267 2294 L
3268 2128 L
3268 2141 L
3269 2138 L
3269 2090 L
3270 2236 L
3271 1999 L
3271 2303 L
3272 2031 L
3272 1985 L
3273 2095 L
3273 2274 L
3274 1995 L
3275 2281 L
3275 2174 L
3276 2111 L
3276 2333 L
3277 2389 L
3277 2307 L
3278 2286 L
3278 2363 L
3279 2310 L
3280 2071 L
3280 2004 L
3281 2178 L
3281 1895 L
3282 2309 L
3282 1978 L
3283 2187 L
3283 2151 L
3284 2506 L
3284 2047 L
3285 2264 L
3285 2341 L
3286 2084 L
3287 2261 L
3287 2108 L
3288 2302 L
3288 2265 L
3289 2056 L
3289 2213 L
3290 2158 L
3290 2263 L
3291 2222 L
3291 2332 L
3292 2247 L
3292 2346 L
3293 2168 L
3293 2122 L
3294 2199 L
3294 2361 L
3295 2065 L
3295 2206 L
3296 2301 L
3297 2045 L
3297 2185 L
3298 2076 L
3298 2120 L
3299 2336 L
3299 2272 L
3300 2183 L
3300 2237 L
3301 2314 L
3301 2263 L
3302 2108 L
3302 2149 L
3303 2141 L
3303 2098 L
3304 2047 L
3304 2116 L
3305 2126 L
3305 2180 L
3306 2079 L
3306 2337 L
3307 2350 L
3307 2195 L
3308 2313 L
3308 2414 L
3309 2199 L
3309 2177 L
3310 2328 L
3310 2177 L
3311 2107 L
3311 2174 L
3312 2177 L
3312 2298 L
3312 2400 L
3313 2216 L
3313 2231 L
3314 2410 L
3314 2300 L
3315 2470 L
3315 2188 L
3316 2122 L
3316 2257 L
3317 2311 L
3317 2205 L
3318 2065 L
3318 2403 L
3319 2210 L
3319 2297 L
3320 2398 L
3320 2294 L
3321 2211 L
3321 2325 L
3321 2357 L
3322 2084 L
3322 2103 L
3323 2238 L
3323 2370 L
3324 2450 L
3324 2362 L
3325 2322 L
3325 2366 L
3326 2270 L
3326 2358 L
3327 2197 L
3327 2119 L
3327 2427 L
3328 2164 L
3328 2180 L
3329 2171 L
3329 2519 L
3330 2364 L
3330 2261 L
3331 2300 L
3331 2266 L
3332 2319 L
3332 2295 L
3332 2481 L
3333 2371 L
3333 2124 L
3334 2350 L
3334 2236 L
3335 2364 L
3335 2205 L
3336 1990 L
3336 2216 L
3336 2322 L
3337 2164 L
3337 2297 L
3338 2350 L
3338 2224 L
3339 2375 L
3339 2445 L
3339 2287 L
3340 2279 L
3340 2201 L
3341 2402 L
3341 2414 L
3342 2211 L
3342 2422 L
3343 2314 L
3343 1997 L
3343 2263 L
3344 2205 L
3344 2342 L
3345 2206 L
3345 2306 L
3346 2148 L
3346 2300 L
3346 2212 L
3347 2513 L
3347 2449 L
3348 2428 L
3348 2330 L
3348 2395 L
3349 2266 L
3349 2303 L
3350 2443 L
3350 2356 L
3351 2168 L
3351 2297 L
3351 2286 L
3352 2311 L
3352 2120 L
3353 2602 L
3353 2486 L
3353 2523 L
3354 2102 L
3354 2579 L
3355 2298 L
3355 2439 L
3355 2241 L
3356 2431 L
3356 2315 L
3357 2498 L
3357 2255 L
3358 2291 L
3358 2349 L
3358 2476 L
3359 2353 L
3359 2336 L
3360 2450 L
3360 2378 L
3360 2331 L
3361 2502 L
3361 2442 L
3362 2261 L
3362 2551 L
3362 2197 L
3363 2469 L
3363 2475 L
3364 2372 L
3364 2328 L
3364 2343 L
3365 2531 L
3365 2312 L
3365 2263 L
3366 2410 L
3366 2285 L
3367 2206 L
3367 2562 L
3367 2420 L
3368 2504 L
3368 2357 L
3369 2320 L
3369 2325 L
3369 2381 L
3370 2337 L
3370 2300 L
3371 2456 L
3371 2305 L
3371 2398 L
3372 2399 L
3372 2540 L
3372 2394 L
3373 2349 L
3373 2439 L
3374 2349 L
3374 2615 L
3374 2395 L
3375 2511 L
3375 2398 L
3375 2473 L
3376 2438 L
3376 2493 L
3377 2545 L
3377 2450 L
3377 2503 L
3378 2493 L
3378 2439 L
3378 2404 L
3379 2343 L
3379 2402 L
3380 2284 L
3380 2310 L
3380 2480 L
3381 2388 L
3381 2348 L
3381 2593 L
3382 2565 L
3382 2328 L
3383 2409 L
3383 2335 L
3383 2350 L
3384 2533 L
3384 2432 L
3384 2423 L
3385 2356 L
3385 2410 L
3385 2266 L
3386 2365 L
3386 2612 L
3387 2453 L
3387 2405 L
3387 2522 L
3388 2525 L
3388 2383 L
3388 2608 L
3389 2540 L
3389 2485 L
3389 2680 L
3390 2476 L
3390 2434 L
3391 2261 L
3391 2543 L
3391 2402 L
3392 2654 L
3392 2493 L
3392 2297 L
3393 2377 L
3393 2596 L
3393 2453 L
3394 2238 L
3394 2386 L
3394 2537 L
3395 2485 L
3395 2656 L
3395 2530 L
3396 2320 L
3396 2594 L
3396 2596 L
3397 2445 L
3397 2388 L
3398 2667 L
3398 2471 L
3398 2637 L
3399 2640 L
3399 2528 L
3399 2411 L
3400 2559 L
3400 2615 L
3400 2442 L
3401 2454 L
3401 2411 L
3401 2434 L
3402 2496 L
3402 2643 L
3402 2383 L
3403 2486 L
3403 2537 L
3403 2616 L
3404 2550 L
3404 2618 L
3404 2579 L
3405 2582 L
3405 2496 L
3405 2371 L
3406 2598 L
3406 2402 L
3406 2415 L
3407 2368 L
3407 2558 L
3407 2409 L
3408 2548 L
3408 2568 L
3408 2392 L
3409 2573 L
3409 2487 L
3409 2528 L
3410 2567 L
3410 2615 L
3410 2601 L
3411 2556 L
3411 2544 L
3411 2706 L
3412 2560 L
3412 2473 L
3412 2621 L
3413 2668 L
3413 2534 L
3413 2364 L
3414 2507 L
3414 2417 L
3414 2323 L
3415 2460 L
3415 2374 L
3415 2566 L
3416 2590 L
3416 2436 L
3416 2412 L
3417 2598 L
3417 2380 L
3417 2654 L
3417 2521 L
3418 2461 L
3418 2526 L
3418 2609 L
3419 2548 L
3419 2546 L
3419 2368 L
3420 2602 L
3420 2475 L
3420 2512 L
3421 2545 L
3421 2685 L
3421 2437 L
3422 2436 L
3422 2362 L
3422 2603 L
3423 2444 L
3423 2419 L
3423 2487 L
3423 2564 L
3424 2560 L
3424 2614 L
3424 2431 L
3425 2486 L
3425 2376 L
3425 2440 L
3426 2501 L
3426 2493 L
3426 2583 L
3427 2515 L
3427 2620 L
3427 2664 L
3428 2579 L
3428 2679 L
3428 2573 L
3428 2545 L
3429 2371 L
3429 2361 L
3429 2593 L
3430 2564 L
3430 2429 L
3430 2491 L
3431 2515 L
3431 2520 L
3431 2627 L
3431 2675 L
3432 2760 L
3432 2769 L
3432 2636 L
3433 2601 L
3433 2541 L
3433 2534 L
3434 2681 L
3434 2736 L
3434 2451 L
3434 2646 L
3435 2655 L
3435 2714 L
3435 2572 L
3436 2755 L
3436 2550 L
3436 2593 L
3437 2671 L
3437 2650 L
3437 2501 L
3437 2653 L
3438 2613 L
3438 2615 L
3438 2539 L
3439 2481 L
3439 2604 L
3439 2587 L
3440 2545 L
3440 2491 L
3440 2724 L
3440 2413 L
3441 2611 L
3441 2743 L
3441 2627 L
3442 2582 L
3442 2693 L
3442 2622 L
3442 2501 L
3443 2544 L
3443 2560 L
3443 2689 L
3444 2568 L
3444 2627 L
3444 2466 L
3444 2604 L
3445 2542 L
3445 2561 L
3445 2397 L
3446 2660 L
3446 2400 L
3446 2643 L
3446 2455 L
3447 2557 L
3447 2703 L
3447 2469 L
3448 2403 L
3448 2793 L
3448 2773 L
3448 2523 L
3449 2758 L
3449 2637 L
3449 2516 L
3450 2720 L
3450 2511 L
3450 2700 L
3450 2702 L
3451 2531 L
3451 2618 L
3451 2664 L
3452 2648 L
3452 2687 L
3452 2676 L
3452 2761 L
3453 2474 L
3453 2780 L
3453 2688 L
3454 2665 L
3454 2578 L
3454 2457 L
3454 2550 L
3455 2434 L
3455 2373 L
3455 2641 L
3455 2817 L
3456 2485 L
3456 2523 L
3456 2610 L
3457 2735 L
3457 2710 L
3457 2534 L
3457 2654 L
3458 2568 L
3458 2631 L
3458 2675 L
3458 2771 L
3459 2628 L
3459 2690 L
3459 2587 L
3460 2530 L
3460 2664 L
3460 2645 L
3460 2529 L
3461 2708 L
3461 2651 L
3461 2532 L
3461 2809 L
3462 2760 L
3462 2663 L
3462 2581 L
3463 2591 L
3463 2734 L
3463 2320 L
3463 2602 L
3464 2619 L
3464 2721 L
3464 2685 L
3464 2451 L
3465 2505 L
3465 2441 L
3465 2643 L
3465 2748 L
3466 2629 L
3466 2545 L
3466 2473 L
3466 2647 L
3467 2747 L
3467 2737 L
3467 2667 L
3468 2688 L
3468 2469 L
3468 2663 L
3468 2608 L
3469 2796 L
3469 2682 L
3469 2724 L
3469 2666 L
3470 2532 L
3470 2509 L
3470 2646 L
3470 2816 L
3471 2698 L
3471 2525 L
3471 2525 L
3471 2540 L
3472 2627 L
3472 2509 L
3472 2663 L
3472 2392 L
3473 2716 L
3473 2602 L
3473 2623 L
3474 2798 L
3474 2772 L
3474 2665 L
3474 2645 L
3475 2879 L
3475 2785 L
3475 2755 L
3475 2760 L
3476 2695 L
3476 2675 L
3476 2841 L
3476 2562 L
3477 2667 L
3477 2646 L
3477 2651 L
3477 2640 L
3478 2679 L
3478 2688 L
3478 2665 L
3478 2666 L
3479 2512 L
3479 2533 L
3479 2752 L
3479 2700 L
3480 2651 L
3480 2684 L
3480 2663 L
3480 2612 L
3481 2507 L
3481 2679 L
3481 2810 L
3481 2607 L
3482 2673 L
3482 2777 L
3482 2669 L
3482 2529 L
3483 2537 L
3483 2799 L
3483 2705 L
3483 2632 L
3484 2701 L
3484 2670 L
3484 2639 L
3484 2659 L
3485 2479 L
3485 2649 L
3485 2693 L
3485 2972 L
3486 2710 L
3486 2692 L
3486 2682 L
3486 2556 L
3487 2547 L
3487 2798 L
3487 2728 L
3487 2827 L
3488 2642 L
3488 2724 L
3488 2476 L
3488 2766 L
3488 2830 L
3489 2738 L
3489 2397 L
3489 2600 L
3489 2880 L
3490 2704 L
3490 2773 L
3490 2669 L
3490 2674 L
3491 2674 L
3491 2507 L
3491 2722 L
3491 2688 L
3492 2805 L
3492 2538 L
3492 2629 L
3492 2648 L
3493 2648 L
3493 2637 L
3493 2787 L
3493 2747 L
3494 2799 L
3494 2629 L
3494 2724 L
3494 2676 L
3494 2557 L
3495 2755 L
3495 2619 L
3495 2666 L
3495 2592 L
3496 2635 L
3496 2534 L
3496 2700 L
3496 2723 L
3497 2752 L
3497 2847 L
3497 2782 L
3497 2597 L
3498 2727 L
3498 2743 L
3498 2766 L
3498 2601 L
3498 2696 L
3499 2453 L
3499 2704 L
3499 2729 L
3499 2593 L
3500 2700 L
3500 2860 L
3506 2418 L
3511 2720 L
3517 2547 L
3522 2738 L
3527 2744 L
3532 2945 L
3537 2630 L
3542 2805 L
3547 2790 L
3552 2931 L
3557 2887 L
3561 2867 L
3566 2848 L
3570 2948 L
3575 2763 L
3579 2902 L
3583 2867 L
3587 2825 L
3591 2779 L
3595 2732 L
3599 2736 L
3603 3038 L
3607 2892 L
3611 2970 L
3614 2981 L
3618 2656 L
3622 2804 L
3625 2894 L
3629 2939 L
3632 2973 L
3636 2835 L
3639 2902 L
3642 2986 L
3646 2833 L
3649 2872 L
3652 2965 L
3655 2890 L
3658 2800 L
3661 2936 L
3664 2827 L
3667 3163 L
3670 2983 L
3673 2800 L
3676 2982 L
3679 3052 L
3682 2894 L
3685 2981 L
3688 2794 L
3690 2909 L
3693 2914 L
3696 3081 L
3698 2808 L
3701 2808 L
3704 3182 L
3706 2982 L
3709 3052 L
3711 3065 L
3714 2984 L
3716 2859 L
3719 2783 L
3721 3181 L
3724 2746 L
3726 2901 L
3728 2984 L
3731 2949 L
3733 2826 L
3735 3154 L
3738 2831 L
3740 2872 L
3742 2895 L
3744 3012 L
3747 3087 L
3749 2874 L
3751 2894 L
3753 2959 L
3755 2870 L
3757 2917 L
3760 3069 L
3762 2890 L
3764 2932 L
3766 2881 L
3768 2963 L
3770 2841 L
3772 2862 L
3774 3012 L
3776 3083 L
3778 2950 L
3780 2892 L
3781 2987 L
3783 2945 L
3785 2932 L
3787 3009 L
3789 2960 L
3791 2959 L
3793 2873 L
3795 2950 L
3796 2896 L
3798 2819 L
3800 3014 L
3802 3019 L
3803 2981 L
3805 2911 L
3807 2848 L
3809 3024 L
3810 2936 L
3812 2993 L
3814 2986 L
3816 2942 L
3817 2989 L
3819 2951 L
3820 2697 L
3822 2927 L
3824 3045 L
3825 3081 L
3827 2984 L
3829 2920 L
3830 3017 L
3832 3004 L
3833 2965 L
3835 3034 L
3836 3065 L
3838 3213 L
3839 3038 L
3841 3127 L
3842 2948 L
3844 3059 L
3845 3054 L
3847 3067 L
3848 3028 L
3850 2861 L
3851 2874 L
3853 3037 L
3854 2830 L
3856 2983 L
3857 3058 L
3859 2991 L
3860 2984 L
3861 3221 L
3863 2813 L
3864 2931 L
3866 2892 L
3867 2886 L
3868 2967 L
3870 2950 L
3871 3134 L
3872 3042 L
3874 2975 L
3875 3022 L
3876 3147 L
3878 3263 L
3879 2895 L
3880 3048 L
3882 3023 L
3883 2922 L
3884 3058 L
3885 2975 L
3887 3026 L
3888 2931 L
3889 2889 L
3890 2972 L
3892 2936 L
3893 3021 L
3894 3165 L
3895 3060 L
3897 2894 L
3898 3104 L
3899 2621 L
3900 2858 L
3901 2936 L
3903 3118 L
3904 2982 L
3905 2798 L
3906 2917 L
3907 2944 L
3908 3034 L
3910 3138 L
3911 2913 L
3912 3224 L
3913 3026 L
3914 2873 L
3915 2895 L
3917 3053 L
3918 3141 L
3919 3008 L
3920 2948 L
3921 3058 L
3922 2910 L
3923 3013 L
3924 3083 L
3925 2997 L
3926 3041 L
3928 3074 L
3929 3116 L
3930 2850 L
3931 3146 L
3932 3170 L
3933 3023 L
3934 2824 L
3935 3159 L
3936 3193 L
3937 2966 L
3938 2941 L
3939 3205 L
3940 3076 L
3941 2894 L
3942 2928 L
3943 2932 L
3944 3067 L
3945 2800 L
3946 2885 L
3947 2979 L
3948 2858 L
3949 2825 L
3950 2989 L
3951 2932 L
3952 2731 L
3953 2945 L
3954 2939 L
3955 2856 L
3956 3056 L
3957 2855 L
3958 2941 L
3959 2994 L
3960 2965 L
3961 2970 L
3962 3080 L
3963 2836 L
3964 3006 L
3965 2891 L
3966 3092 L
3966 2929 L
3967 2909 L
3968 3157 L
3969 2769 L
3970 3048 L
3971 2816 L
3972 3062 L
3973 2852 L
3974 2925 L
3975 2959 L
3976 3156 L
3976 2899 L
3977 2984 L
3978 3045 L
3979 2970 L
3980 2876 L
3981 3150 L
3982 2917 L
3983 2966 L
3983 2955 L
3984 3015 L
3985 3104 L
3986 3059 L
3987 2993 L
3988 2965 L
3989 2978 L
3989 3017 L
3990 2831 L
3991 3016 L
3992 2975 L
3993 3109 L
3994 2856 L
3995 2874 L
3995 3037 L
3996 2854 L
3997 2864 L
3998 2956 L
3999 2923 L
3999 2889 L
4000 2917 L
4001 2978 L
4002 2860 L
4003 3053 L
4003 2963 L
4004 3217 L
4005 2993 L
4006 2819 L
4007 3204 L
4007 2972 L
4008 2922 L
4009 2924 L
4010 3052 L
4011 2844 L
4011 3083 L
4012 2990 L
4013 2936 L
4014 2893 L
4014 3073 L
4015 3099 L
4016 2830 L
4017 2794 L
4017 2983 L
4018 2880 L
4019 3110 L
4020 2852 L
4021 2916 L
4021 2969 L
4022 2907 L
4023 2964 L
4023 2976 L
4024 3070 L
4025 2968 L
4026 2876 L
4026 3052 L
4027 2909 L
4028 2939 L
4029 2866 L
4029 2947 L
4030 3028 L
4031 2939 L
4032 2931 L
4032 3086 L
4033 3253 L
4034 2981 L
4034 2892 L
4035 3067 L
4036 2733 L
4036 2945 L
4037 3003 L
4038 2986 L
4039 3038 L
4039 2814 L
4040 2984 L
4041 2931 L
4041 3073 L
4042 3028 L
4043 2895 L
4043 2900 L
4044 3054 L
4045 2861 L
4045 3037 L
4046 3042 L
4047 2961 L
4047 2846 L
4048 3204 L
4049 2911 L
4050 2951 L
4050 2973 L
4051 3150 L
4052 2908 L
4052 2987 L
4053 2924 L
4053 3033 L
4054 3095 L
4055 2944 L
4055 2672 L
4056 3006 L
4057 3046 L
4057 2987 L
4058 3042 L
4059 2917 L
4059 3121 L
4060 2981 L
4061 2794 L
4061 2857 L
4062 3023 L
L2 C06 COSGR

%
%================
% Legend - Begin
%================
%
GSN 4240 5180 M
4480 5180 L
LWMC SL  C06 COSGR
GSN 4540 5141 M helvM (3.0 uM) show grestore
%
%================
% Legend - End
%================
%

%
% Residuals:
%
GSN 777 934 M
1388 1377 L
1552 1398 L
1652 1569 L
1723 1437 L
1778 1482 L
1824 1392 L
1863 1433 L
1896 1451 L
1926 1447 L
1952 1451 L
1976 1446 L
1998 1386 L
2019 1410 L
2037 1410 L
2055 1384 L
2071 1432 L
2086 1317 L
2101 1405 L
2115 1409 L
2128 1419 L
2140 1388 L
2152 1364 L
2163 1422 L
2174 1409 L
2184 1389 L
2194 1376 L
2204 1376 L
2213 1385 L
2222 1354 L
2230 1345 L
2239 1365 L
2247 1386 L
2255 1380 L
2262 1379 L
2270 1351 L
2277 1371 L
2284 1341 L
2290 1289 L
2297 1305 L
2303 1310 L
2310 1396 L
2316 1341 L
2322 1349 L
2328 1343 L
2333 1297 L
2339 1323 L
2344 1330 L
2350 1278 L
2355 1270 L
2360 1330 L
2365 1340 L
2370 1343 L
2375 1379 L
2380 1334 L
2384 1291 L
2389 1344 L
2393 1249 L
2398 1320 L
2402 1292 L
2407 1270 L
2411 1306 L
2415 1271 L
2419 1311 L
2423 1288 L
2427 1289 L
2431 1271 L
2435 1317 L
2438 1302 L
2442 1290 L
2446 1276 L
2449 1272 L
2453 1287 L
2456 1306 L
2460 1227 L
2463 1249 L
2467 1277 L
2470 1259 L
2473 1241 L
2476 1272 L
2480 1257 L
2483 1274 L
2486 1238 L
2489 1223 L
2492 1291 L
2495 1216 L
2498 1255 L
2501 1228 L
2504 1214 L
2507 1245 L
2510 1230 L
2512 1259 L
2515 1256 L
2518 1270 L
2521 1232 L
2523 1233 L
2526 1212 L
2529 1248 L
2531 1204 L
2534 1197 L
2536 1243 L
2539 1233 L
2541 1198 L
2544 1274 L
2546 1223 L
2549 1251 L
2551 1201 L
2554 1182 L
2556 1183 L
2558 1208 L
2561 1200 L
2563 1292 L
2565 1235 L
2568 1251 L
2570 1195 L
2572 1188 L
2574 1259 L
2576 1205 L
2579 1216 L
2581 1208 L
2583 1168 L
2585 1160 L
2587 1223 L
2589 1223 L
2591 1184 L
2593 1181 L
2595 1178 L
2597 1201 L
2599 1200 L
2601 1239 L
2603 1238 L
2605 1140 L
2607 1170 L
2609 1167 L
2611 1166 L
2613 1221 L
2615 1217 L
2617 1221 L
2618 1180 L
2620 1167 L
2622 1178 L
2624 1174 L
2626 1140 L
2627 1150 L
2629 1181 L
2631 1174 L
2633 1145 L
2634 1201 L
2636 1144 L
2638 1131 L
2640 1162 L
2641 1177 L
2643 1140 L
2645 1137 L
2646 1156 L
2648 1159 L
2650 1171 L
2651 1119 L
2653 1168 L
2654 1165 L
2656 1161 L
2658 1209 L
2659 1125 L
2661 1114 L
2662 1126 L
2664 1179 L
2665 1115 L
2667 1146 L
2668 1122 L
2670 1148 L
2671 1089 L
2673 1129 L
2674 1136 L
2676 1169 L
2677 1106 L
2679 1178 L
2680 1110 L
2682 1061 L
2683 1092 L
2685 1095 L
2686 1105 L
2687 1103 L
2689 1156 L
2690 1120 L
2692 1089 L
2693 1105 L
2694 1109 L
2696 1140 L
2697 1080 L
2698 1098 L
2700 1086 L
2701 1106 L
2702 1093 L
2704 1078 L
2705 1097 L
2706 1113 L
2708 1053 L
2709 1069 L
2710 1072 L
2712 1118 L
2713 1110 L
2714 1069 L
2715 1136 L
2717 1046 L
2718 1100 L
2719 1045 L
2720 1086 L
2722 1089 L
2723 1046 L
2724 1083 L
2725 1098 L
2726 1048 L
2728 1095 L
2729 1106 L
2730 1109 L
2731 1095 L
2732 1084 L
2734 1088 L
2735 1098 L
2736 1028 L
2737 1055 L
2738 1053 L
2739 1051 L
2741 1107 L
2742 1113 L
2743 1079 L
2744 1076 L
2745 1079 L
2746 991 L
2747 1046 L
2748 1105 L
2749 1111 L
2751 1064 L
2752 1058 L
2753 1046 L
2754 1097 L
2755 1072 L
2756 1108 L
2757 1062 L
2758 1026 L
2759 1037 L
2760 1063 L
2761 1060 L
2762 1050 L
2763 1087 L
2764 1049 L
2765 1030 L
2767 1028 L
2768 1061 L
2769 1041 L
2770 1054 L
2771 1073 L
2772 1041 L
2773 1067 L
2774 1040 L
2775 1028 L
2776 1014 L
2777 1041 L
2778 1050 L
2779 1053 L
2780 1020 L
2781 990 L
2782 1057 L
2783 1065 L
2783 1018 L
2784 1045 L
2785 1024 L
2786 983 L
2787 1015 L
2788 1050 L
2789 1052 L
2790 1033 L
2791 1019 L
2792 1077 L
2793 1005 L
2794 1020 L
2795 1044 L
2796 1013 L
2797 1051 L
2798 1039 L
2798 997 L
2799 982 L
2800 969 L
2801 1031 L
2802 976 L
2803 1000 L
2804 1008 L
2805 1052 L
2806 1013 L
2807 1036 L
2807 998 L
2808 1021 L
2809 1012 L
2810 996 L
2811 978 L
2812 1045 L
2813 959 L
2813 1016 L
2814 973 L
2815 1038 L
2816 1005 L
2817 1033 L
2818 1059 L
2819 974 L
2819 992 L
2820 1037 L
2821 993 L
2822 968 L
2823 987 L
2824 1027 L
2824 1036 L
2825 992 L
2826 1025 L
2827 1011 L
2828 964 L
2828 998 L
2829 1029 L
2830 1015 L
2831 996 L
2832 979 L
2832 1000 L
2833 1006 L
2834 978 L
2835 984 L
2836 1010 L
2836 971 L
2837 994 L
2838 1009 L
2839 979 L
2840 968 L
2840 966 L
2841 937 L
2842 1019 L
2843 938 L
2843 968 L
2844 1018 L
2845 982 L
2846 972 L
2846 949 L
2847 967 L
2848 996 L
2849 979 L
2849 974 L
2850 1007 L
2851 971 L
2852 1019 L
2852 987 L
2853 998 L
2854 974 L
2855 985 L
2855 952 L
2856 983 L
2857 1030 L
2857 949 L
2858 1015 L
2859 979 L
2860 962 L
2860 955 L
2861 991 L
2862 962 L
2862 989 L
2863 991 L
2864 945 L
2865 979 L
2865 1014 L
2866 994 L
2867 974 L
2867 929 L
2868 942 L
2869 968 L
2869 984 L
2870 987 L
2871 936 L
2871 952 L
2872 943 L
2873 975 L
2873 953 L
2874 927 L
2875 1013 L
2876 981 L
2876 948 L
2877 947 L
2878 1008 L
2878 939 L
2879 912 L
2880 947 L
2880 971 L
2881 982 L
2881 987 L
2882 941 L
2883 970 L
2883 973 L
2884 926 L
2885 958 L
2885 911 L
2886 974 L
2887 950 L
2887 925 L
2888 1004 L
2889 987 L
2889 982 L
2892 968 L
2894 939 L
2897 936 L
2899 916 L
2902 929 L
2904 969 L
2907 923 L
2909 885 L
2911 929 L
2914 913 L
2916 910 L
2918 944 L
2921 903 L
2923 942 L
2925 906 L
2927 912 L
2929 918 L
2932 912 L
2934 888 L
2936 856 L
2938 910 L
2940 932 L
2942 875 L
2944 825 L
2946 905 L
2948 899 L
2950 855 L
2952 921 L
2954 888 L
2956 922 L
2958 849 L
2960 881 L
2962 866 L
2964 823 L
2966 886 L
2968 862 L
2970 936 L
2971 873 L
2973 866 L
2975 889 L
2977 925 L
2979 886 L
2980 861 L
2982 904 L
2984 875 L
2986 839 L
2987 870 L
2989 855 L
2991 845 L
2993 899 L
2994 880 L
2996 857 L
2998 863 L
2999 835 L
3001 815 L
3003 860 L
3004 872 L
3006 819 L
3007 868 L
3009 883 L
3011 852 L
3012 813 L
3014 822 L
3015 883 L
3017 846 L
3018 843 L
3020 863 L
3021 841 L
3023 846 L
3024 834 L
3026 823 L
3027 890 L
3029 863 L
3030 825 L
3032 808 L
3033 792 L
3035 859 L
3036 827 L
3038 822 L
3039 813 L
3040 839 L
3042 833 L
3043 821 L
3045 806 L
3046 834 L
3047 824 L
3049 866 L
3050 835 L
3051 836 L
3053 824 L
3054 828 L
3055 817 L
3057 808 L
3058 759 L
3059 795 L
3061 781 L
3062 811 L
3063 848 L
3065 803 L
3066 815 L
3067 828 L
3068 846 L
3070 847 L
3071 828 L
3072 826 L
3073 812 L
3075 856 L
3076 821 L
3077 821 L
3078 858 L
3079 822 L
3081 822 L
3082 816 L
3083 832 L
3084 805 L
3085 805 L
3087 853 L
3088 792 L
3089 767 L
3090 823 L
3091 773 L
3092 836 L
3094 812 L
3095 813 L
3096 846 L
3097 815 L
3098 805 L
3099 788 L
3100 814 L
3101 815 L
3103 830 L
3104 812 L
3105 821 L
3106 773 L
3107 823 L
3108 801 L
3109 836 L
3110 770 L
3111 818 L
3112 806 L
3113 764 L
3114 822 L
3115 798 L
3116 775 L
3117 820 L
3119 798 L
3120 787 L
3121 822 L
3122 803 L
3123 808 L
3124 783 L
3125 823 L
3126 819 L
3127 837 L
3128 818 L
3129 828 L
3130 771 L
3131 812 L
3132 793 L
3133 778 L
3134 825 L
3135 813 L
3136 751 L
3136 759 L
3137 761 L
3138 803 L
3139 799 L
3140 822 L
3141 792 L
3142 775 L
3143 811 L
3144 821 L
3145 780 L
3146 775 L
3147 755 L
3148 809 L
3149 803 L
3150 813 L
3151 767 L
3151 785 L
3152 807 L
3153 834 L
3154 783 L
3155 794 L
3156 760 L
3157 794 L
3158 839 L
3159 806 L
3160 793 L
3160 821 L
3161 798 L
3162 765 L
3163 852 L
3164 762 L
3165 807 L
3166 820 L
3166 754 L
3167 815 L
3168 807 L
3169 812 L
3170 831 L
3171 758 L
3172 815 L
3172 826 L
3173 797 L
3174 767 L
3175 851 L
3176 796 L
3177 788 L
3177 826 L
3178 857 L
3179 819 L
3180 781 L
3181 845 L
3181 836 L
3182 844 L
3183 777 L
3184 808 L
3185 760 L
3185 780 L
3186 802 L
3187 764 L
3188 833 L
3189 809 L
3189 802 L
3190 837 L
3191 824 L
3192 814 L
3193 774 L
3193 828 L
3194 824 L
3195 819 L
3196 823 L
3196 814 L
3197 781 L
3198 806 L
3199 813 L
3199 839 L
3200 769 L
3201 854 L
3202 799 L
3202 790 L
3203 761 L
3204 807 L
3205 805 L
3205 773 L
3206 845 L
3207 813 L
3208 803 L
3208 779 L
3209 781 L
3210 886 L
3210 789 L
3211 831 L
3212 839 L
3213 860 L
3213 783 L
3214 818 L
3215 878 L
3215 843 L
3216 825 L
3217 818 L
3218 771 L
3218 850 L
3219 840 L
3220 799 L
3220 848 L
3221 832 L
3222 819 L
3222 812 L
3223 848 L
3224 847 L
3224 836 L
3225 808 L
3226 759 L
3227 780 L
3227 875 L
3228 830 L
3229 770 L
3229 860 L
3230 789 L
3231 875 L
3231 750 L
3232 839 L
3233 817 L
3233 782 L
3234 846 L
3235 813 L
3235 877 L
3236 807 L
3236 856 L
3237 835 L
3238 821 L
3238 800 L
3239 801 L
3240 825 L
3240 831 L
3241 784 L
3242 848 L
3242 860 L
3243 876 L
3244 784 L
3244 794 L
3245 838 L
3245 824 L
3246 806 L
3247 831 L
3247 820 L
3248 849 L
3249 818 L
3249 822 L
3250 809 L
3250 824 L
3251 805 L
3252 890 L
3252 797 L
3253 830 L
3253 813 L
3254 828 L
3255 794 L
3255 848 L
3256 811 L
3257 848 L
3257 838 L
3258 789 L
3258 841 L
3259 781 L
3259 853 L
3260 855 L
3261 823 L
3261 830 L
3262 830 L
3262 815 L
3263 827 L
3264 820 L
3264 844 L
3265 814 L
3265 820 L
3266 815 L
3267 832 L
3267 864 L
3268 823 L
3268 826 L
3269 825 L
3269 813 L
3270 849 L
3271 791 L
3271 866 L
3272 799 L
3272 788 L
3273 815 L
3273 859 L
3274 790 L
3275 860 L
3275 834 L
3276 819 L
3276 873 L
3277 887 L
3277 867 L
3278 862 L
3278 881 L
3279 867 L
3280 809 L
3280 793 L
3281 835 L
3281 766 L
3282 867 L
3282 786 L
3283 837 L
3283 828 L
3284 916 L
3284 803 L
3285 856 L
3285 875 L
3286 812 L
3287 855 L
3287 818 L
3288 866 L
3288 856 L
3289 805 L
3289 844 L
3290 830 L
3290 856 L
3291 846 L
3291 873 L
3292 852 L
3292 876 L
3293 833 L
3293 821 L
3294 840 L
3294 880 L
3295 807 L
3295 842 L
3296 865 L
3297 802 L
3297 837 L
3298 810 L
3298 821 L
3299 874 L
3299 858 L
3300 836 L
3300 850 L
3301 869 L
3301 856 L
3302 818 L
3302 828 L
3303 826 L
3303 815 L
3304 803 L
3304 820 L
3305 822 L
3305 836 L
3306 811 L
3306 874 L
3307 877 L
3307 839 L
3308 868 L
3308 893 L
3309 840 L
3309 835 L
3310 872 L
3310 835 L
3311 818 L
3311 834 L
3312 835 L
3312 865 L
3312 890 L
3313 845 L
3313 848 L
3314 892 L
3314 865 L
3315 907 L
3315 838 L
3316 821 L
3316 854 L
3317 868 L
3317 842 L
3318 807 L
3318 890 L
3319 843 L
3319 864 L
3320 889 L
3320 864 L
3321 843 L
3321 871 L
3321 879 L
3322 812 L
3322 817 L
3323 850 L
3323 882 L
3324 902 L
3324 880 L
3325 870 L
3325 881 L
3326 858 L
3326 879 L
3327 840 L
3327 821 L
3327 896 L
3328 832 L
3328 836 L
3329 833 L
3329 919 L
3330 881 L
3330 856 L
3331 865 L
3331 857 L
3332 870 L
3332 864 L
3332 909 L
3333 882 L
3333 822 L
3334 877 L
3334 849 L
3335 881 L
3335 842 L
3336 789 L
3336 844 L
3336 871 L
3337 832 L
3337 864 L
3338 877 L
3338 847 L
3339 884 L
3339 901 L
3339 862 L
3340 860 L
3340 841 L
3341 890 L
3341 893 L
3342 843 L
3342 895 L
3343 868 L
3343 791 L
3343 856 L
3344 842 L
3344 875 L
3345 842 L
3345 867 L
3346 828 L
3346 865 L
3346 843 L
3347 917 L
3347 902 L
3348 897 L
3348 873 L
3348 888 L
3349 857 L
3349 866 L
3350 900 L
3350 879 L
3351 833 L
3351 864 L
3351 862 L
3352 868 L
3352 821 L
3353 939 L
3353 911 L
3353 920 L
3354 816 L
3354 934 L
3355 865 L
3355 899 L
3355 851 L
3356 897 L
3356 869 L
3357 914 L
3357 854 L
3358 863 L
3358 877 L
3358 908 L
3359 878 L
3359 874 L
3360 902 L
3360 884 L
3360 873 L
3361 915 L
3361 900 L
3362 856 L
3362 927 L
3362 840 L
3363 907 L
3363 908 L
3364 883 L
3364 872 L
3364 876 L
3365 922 L
3365 868 L
3365 856 L
3366 892 L
3366 861 L
3367 842 L
3367 929 L
3367 895 L
3368 915 L
3368 879 L
3369 870 L
3369 871 L
3369 885 L
3370 874 L
3370 865 L
3371 903 L
3371 866 L
3371 889 L
3372 889 L
3372 924 L
3372 888 L
3373 877 L
3373 899 L
3374 877 L
3374 942 L
3374 888 L
3375 917 L
3375 889 L
3375 908 L
3376 899 L
3376 912 L
3377 925 L
3377 902 L
3377 915 L
3378 912 L
3378 899 L
3378 891 L
3379 876 L
3379 890 L
3380 861 L
3380 867 L
3380 909 L
3381 887 L
3381 877 L
3381 937 L
3382 930 L
3382 872 L
3383 892 L
3383 874 L
3383 877 L
3384 922 L
3384 897 L
3384 895 L
3385 879 L
3385 892 L
3385 857 L
3386 881 L
3386 942 L
3387 903 L
3387 891 L
3387 920 L
3388 920 L
3388 885 L
3388 941 L
3389 924 L
3389 911 L
3389 958 L
3390 908 L
3390 898 L
3391 856 L
3391 925 L
3391 890 L
3392 952 L
3392 912 L
3392 864 L
3393 884 L
3393 938 L
3393 903 L
3394 850 L
3394 886 L
3394 923 L
3395 911 L
3395 952 L
3395 922 L
3396 870 L
3396 937 L
3396 938 L
3397 901 L
3397 887 L
3398 955 L
3398 907 L
3398 948 L
3399 949 L
3399 921 L
3399 892 L
3400 929 L
3400 942 L
3400 900 L
3401 903 L
3401 892 L
3401 898 L
3402 913 L
3402 949 L
3402 885 L
3403 911 L
3403 923 L
3403 943 L
3404 926 L
3404 943 L
3404 933 L
3405 934 L
3405 913 L
3405 882 L
3406 938 L
3406 890 L
3406 893 L
3407 882 L
3407 928 L
3407 892 L
3408 926 L
3408 931 L
3408 888 L
3409 932 L
3409 911 L
3409 921 L
3410 931 L
3410 942 L
3410 939 L
3411 928 L
3411 925 L
3411 965 L
3412 929 L
3412 907 L
3412 944 L
3413 955 L
3413 922 L
3413 881 L
3414 916 L
3414 894 L
3414 871 L
3415 904 L
3415 883 L
3415 930 L
3416 936 L
3416 898 L
3416 893 L
3417 938 L
3417 885 L
3417 952 L
3417 919 L
3418 905 L
3418 921 L
3418 941 L
3419 926 L
3419 926 L
3419 882 L
3420 939 L
3420 908 L
3420 917 L
3421 925 L
3421 960 L
3421 899 L
3422 898 L
3422 880 L
3422 939 L
3423 900 L
3423 894 L
3423 911 L
3423 930 L
3424 929 L
3424 942 L
3424 897 L
3425 911 L
3425 884 L
3425 899 L
3426 914 L
3426 912 L
3426 935 L
3427 918 L
3427 944 L
3427 954 L
3428 934 L
3428 958 L
3428 932 L
3428 925 L
3429 882 L
3429 880 L
3429 937 L
3430 930 L
3430 897 L
3430 912 L
3431 918 L
3431 919 L
3431 945 L
3431 957 L
3432 978 L
3432 980 L
3432 948 L
3433 939 L
3433 924 L
3433 923 L
3434 959 L
3434 972 L
3434 902 L
3434 950 L
3435 952 L
3435 967 L
3435 932 L
3436 977 L
3436 926 L
3436 937 L
3437 956 L
3437 951 L
3437 914 L
3437 952 L
3438 942 L
3438 942 L
3438 924 L
3439 910 L
3439 940 L
3439 935 L
3440 925 L
3440 912 L
3440 969 L
3440 893 L
3441 941 L
3441 974 L
3441 945 L
3442 934 L
3442 961 L
3442 944 L
3442 914 L
3443 925 L
3443 929 L
3443 961 L
3444 931 L
3444 945 L
3444 906 L
3444 940 L
3445 925 L
3445 929 L
3445 889 L
3446 954 L
3446 890 L
3446 949 L
3446 903 L
3447 928 L
3447 964 L
3447 907 L
3448 890 L
3448 986 L
3448 981 L
3448 920 L
3449 978 L
3449 948 L
3449 918 L
3450 968 L
3450 917 L
3450 963 L
3450 964 L
3451 922 L
3451 943 L
3451 954 L
3452 950 L
3452 960 L
3452 957 L
3452 978 L
3453 908 L
3453 983 L
3453 960 L
3454 955 L
3454 933 L
3454 904 L
3454 926 L
3455 898 L
3455 883 L
3455 949 L
3455 992 L
3456 911 L
3456 920 L
3456 941 L
3457 972 L
3457 966 L
3457 922 L
3457 952 L
3458 931 L
3458 946 L
3458 957 L
3458 981 L
3459 946 L
3459 961 L
3459 935 L
3460 922 L
3460 954 L
3460 950 L
3460 921 L
3461 965 L
3461 951 L
3461 922 L
3461 990 L
3462 978 L
3462 954 L
3462 934 L
3463 937 L
3463 972 L
3463 870 L
3463 939 L
3464 943 L
3464 968 L
3464 960 L
3464 902 L
3465 915 L
3465 900 L
3465 949 L
3465 975 L
3466 946 L
3466 925 L
3466 908 L
3466 950 L
3467 975 L
3467 972 L
3467 955 L
3468 960 L
3468 907 L
3468 954 L
3468 941 L
3469 987 L
3469 959 L
3469 969 L
3469 955 L
3470 922 L
3470 916 L
3470 950 L
3470 992 L
3471 963 L
3471 920 L
3471 920 L
3471 924 L
3472 945 L
3472 916 L
3472 954 L
3472 888 L
3473 967 L
3473 939 L
3473 944 L
3474 987 L
3474 981 L
3474 955 L
3474 950 L
3475 1007 L
3475 984 L
3475 977 L
3475 978 L
3476 962 L
3476 957 L
3476 998 L
3476 929 L
3477 955 L
3477 950 L
3477 951 L
3477 949 L
3478 958 L
3478 960 L
3478 955 L
3478 955 L
3479 917 L
3479 922 L
3479 976 L
3479 963 L
3480 951 L
3480 959 L
3480 954 L
3480 942 L
3481 916 L
3481 958 L
3481 990 L
3481 941 L
3482 957 L
3482 982 L
3482 956 L
3482 921 L
3483 923 L
3483 988 L
3483 965 L
3483 947 L
3484 964 L
3484 956 L
3484 948 L
3484 953 L
3485 909 L
3485 951 L
3485 962 L
3485 1030 L
3486 966 L
3486 961 L
3486 959 L
3486 928 L
3487 926 L
3487 987 L
3487 970 L
3487 994 L
3488 949 L
3488 969 L
3488 908 L
3488 979 L
3488 995 L
3489 972 L
3489 889 L
3489 939 L
3489 1008 L
3490 964 L
3490 981 L
3490 956 L
3490 957 L
3491 957 L
3491 916 L
3491 969 L
3491 960 L
3492 989 L
3492 924 L
3492 946 L
3492 950 L
3493 950 L
3493 948 L
3493 985 L
3493 975 L
3494 988 L
3494 946 L
3494 969 L
3494 957 L
3494 928 L
3495 977 L
3495 943 L
3495 955 L
3495 937 L
3496 947 L
3496 922 L
3496 963 L
3496 969 L
3497 976 L
3497 999 L
3497 983 L
3497 938 L
3498 970 L
3498 974 L
3498 979 L
3498 939 L
3498 962 L
3499 903 L
3499 964 L
3499 970 L
3499 937 L
3500 963 L
3500 1003 L
3506 894 L
3511 968 L
3517 926 L
3522 973 L
3527 974 L
3532 1023 L
3537 946 L
3542 989 L
3547 985 L
3552 1020 L
3557 1009 L
3561 1004 L
3566 1000 L
3570 1024 L
3575 979 L
3579 1013 L
3583 1004 L
3587 994 L
3591 983 L
3595 971 L
3599 972 L
3603 1046 L
3607 1010 L
3611 1029 L
3614 1032 L
3618 952 L
3622 989 L
3625 1011 L
3629 1022 L
3632 1030 L
3636 996 L
3639 1013 L
3642 1033 L
3646 996 L
3649 1006 L
3652 1028 L
3655 1010 L
3658 988 L
3661 1021 L
3664 994 L
3667 1077 L
3670 1033 L
3673 988 L
3676 1033 L
3679 1050 L
3682 1011 L
3685 1032 L
3688 986 L
3690 1014 L
3693 1016 L
3696 1057 L
3698 990 L
3701 990 L
3704 1082 L
3706 1033 L
3709 1050 L
3711 1053 L
3714 1033 L
3716 1002 L
3719 984 L
3721 1081 L
3724 975 L
3726 1013 L
3728 1033 L
3731 1024 L
3733 994 L
3735 1075 L
3738 995 L
3740 1005 L
3742 1011 L
3744 1040 L
3747 1058 L
3749 1006 L
3751 1011 L
3753 1027 L
3755 1005 L
3757 1016 L
3760 1054 L
3762 1010 L
3764 1020 L
3766 1008 L
3768 1028 L
3770 998 L
3772 1003 L
3774 1040 L
3776 1057 L
3778 1025 L
3780 1010 L
3781 1034 L
3783 1023 L
3785 1020 L
3787 1039 L
3789 1027 L
3791 1027 L
3793 1006 L
3795 1025 L
3796 1011 L
3798 993 L
3800 1040 L
3802 1042 L
3803 1032 L
3805 1015 L
3807 1000 L
3809 1043 L
3810 1021 L
3812 1035 L
3814 1033 L
3816 1023 L
3817 1034 L
3819 1025 L
3820 963 L
3822 1019 L
3824 1048 L
3825 1057 L
3827 1033 L
3829 1017 L
3830 1041 L
3832 1038 L
3833 1028 L
3835 1045 L
3836 1053 L
3838 1089 L
3839 1046 L
3841 1068 L
3842 1024 L
3844 1051 L
3845 1050 L
3847 1053 L
3848 1044 L
3850 1003 L
3851 1006 L
3853 1046 L
3854 995 L
3856 1033 L
3857 1051 L
3859 1035 L
3860 1033 L
3861 1091 L
3863 991 L
3864 1020 L
3866 1010 L
3867 1009 L
3868 1029 L
3870 1025 L
3871 1070 L
3872 1047 L
3874 1031 L
3875 1042 L
3876 1073 L
3878 1102 L
3879 1011 L
3880 1049 L
3882 1043 L
3883 1018 L
3884 1051 L
3885 1031 L
3887 1043 L
3888 1020 L
3889 1010 L
3890 1030 L
3892 1021 L
3893 1042 L
3894 1077 L
3895 1052 L
3897 1011 L
3898 1063 L
3899 944 L
3900 1002 L
3901 1021 L
3903 1066 L
3904 1033 L
3905 987 L
3906 1017 L
3907 1023 L
3908 1045 L
3910 1071 L
3911 1016 L
3912 1092 L
3913 1043 L
3914 1006 L
3915 1011 L
3917 1050 L
3918 1072 L
3919 1039 L
3920 1024 L
3921 1051 L
3922 1015 L
3923 1040 L
3924 1057 L
3925 1036 L
3926 1047 L
3928 1055 L
3929 1065 L
3930 1000 L
3931 1073 L
3932 1079 L
3933 1043 L
3934 994 L
3935 1076 L
3936 1084 L
3937 1029 L
3938 1022 L
3939 1087 L
3940 1056 L
3941 1011 L
3942 1019 L
3943 1020 L
3944 1053 L
3945 988 L
3946 1009 L
3947 1032 L
3948 1002 L
3949 994 L
3950 1034 L
3951 1020 L
3952 971 L
3953 1023 L
3954 1022 L
3955 1002 L
3956 1051 L
3957 1001 L
3958 1022 L
3959 1035 L
3960 1028 L
3961 1029 L
3962 1057 L
3963 997 L
3964 1038 L
3965 1010 L
3966 1059 L
3966 1019 L
3967 1014 L
3968 1076 L
3969 980 L
3970 1049 L
3971 992 L
3972 1052 L
3973 1001 L
3974 1018 L
3975 1027 L
3976 1075 L
3976 1012 L
3977 1033 L
3978 1048 L
3979 1030 L
3980 1006 L
3981 1074 L
3982 1016 L
3983 1029 L
3983 1026 L
3984 1041 L
3985 1063 L
3986 1051 L
3987 1035 L
3988 1028 L
3989 1031 L
3989 1041 L
3990 995 L
3991 1041 L
3992 1031 L
3993 1064 L
3994 1002 L
3995 1006 L
3995 1046 L
3996 1001 L
3997 1004 L
3998 1026 L
3999 1018 L
3999 1010 L
4000 1016 L
4001 1031 L
4002 1003 L
4003 1050 L
4003 1028 L
4004 1090 L
4005 1035 L
4006 993 L
4007 1087 L
4007 1030 L
4008 1018 L
4009 1018 L
4010 1050 L
4011 999 L
4011 1057 L
4012 1034 L
4013 1021 L
4014 1011 L
4014 1055 L
4015 1061 L
4016 995 L
4017 986 L
4017 1033 L
4018 1007 L
4019 1064 L
4020 1001 L
4021 1016 L
4021 1029 L
4022 1014 L
4023 1028 L
4023 1031 L
4024 1054 L
4025 1029 L
4026 1006 L
4026 1050 L
4027 1015 L
4028 1022 L
4029 1004 L
4029 1024 L
4030 1044 L
4031 1022 L
4032 1020 L
4032 1058 L
4033 1099 L
4034 1032 L
4034 1010 L
4035 1053 L
4036 971 L
4036 1023 L
4037 1038 L
4038 1033 L
4039 1046 L
4039 991 L
4040 1033 L
4041 1020 L
4041 1055 L
4042 1044 L
4043 1011 L
4043 1012 L
4044 1050 L
4045 1003 L
4045 1046 L
4046 1047 L
4047 1027 L
4047 999 L
4048 1087 L
4049 1015 L
4050 1025 L
4050 1030 L
4051 1074 L
4052 1014 L
4052 1034 L
4053 1018 L
4053 1045 L
4054 1060 L
4055 1023 L
4055 956 L
4056 1038 L
4057 1048 L
4057 1034 L
4058 1047 L
4059 1016 L
4059 1067 L
4060 1032 L
4061 986 L
4061 1002 L
4062 1043 L
L2 C06 COSGR

%
% Main frame
%
L10
GSN 
620 1700 M
4220 1700 L
4220 5300 L
620 5300 L
closepath SGR

%
% X axis: large tics
%
L10
GSN 1130 1700 M 0  54 rL SGR
GSN 1130 5300 M 0 -54 rL SGR
helvS (0.0001) 1130 470 xlabel
GSN 1716 1700 M 0  54 rL SGR
GSN 1716 5300 M 0 -54 rL SGR
helvS (0.001) 1716 470 xlabel
GSN 2303 1700 M 0  54 rL SGR
GSN 2303 5300 M 0 -54 rL SGR
helvS (0.01) 2303 470 xlabel
GSN 2889 1700 M 0  54 rL SGR
GSN 2889 5300 M 0 -54 rL SGR
helvS (0.1) 2889 470 xlabel
GSN 3476 1700 M 0  54 rL SGR
GSN 3476 5300 M 0 -54 rL SGR
helvS (1) 3476 470 xlabel
GSN 4062 1700 M 0  54 rL SGR
GSN 4062 5300 M 0 -54 rL SGR
helvS (10) 4062 470 xlabel
%
% X axis: small tics
%
L5
GSN 720 1700 M 0  36 rL SGR
GSN 720 5300 M 0 -36 rL SGR
GSN 824 1700 M 0  36 rL SGR
GSN 824 5300 M 0 -36 rL SGR
GSN 897 1700 M 0  36 rL SGR
GSN 897 5300 M 0 -36 rL SGR
GSN 954 1700 M 0  36 rL SGR
GSN 954 5300 M 0 -36 rL SGR
GSN 1000 1700 M 0  36 rL SGR
GSN 1000 5300 M 0 -36 rL SGR
GSN 1039 1700 M 0  36 rL SGR
GSN 1039 5300 M 0 -36 rL SGR
GSN 1073 1700 M 0  36 rL SGR
GSN 1073 5300 M 0 -36 rL SGR
GSN 1103 1700 M 0  36 rL SGR
GSN 1103 5300 M 0 -36 rL SGR
GSN 1307 1700 M 0  36 rL SGR
GSN 1307 5300 M 0 -36 rL SGR
GSN 1410 1700 M 0  36 rL SGR
GSN 1410 5300 M 0 -36 rL SGR
GSN 1483 1700 M 0  36 rL SGR
GSN 1483 5300 M 0 -36 rL SGR
GSN 1540 1700 M 0  36 rL SGR
GSN 1540 5300 M 0 -36 rL SGR
GSN 1586 1700 M 0  36 rL SGR
GSN 1586 5300 M 0 -36 rL SGR
GSN 1626 1700 M 0  36 rL SGR
GSN 1626 5300 M 0 -36 rL SGR
GSN 1660 1700 M 0  36 rL SGR
GSN 1660 5300 M 0 -36 rL SGR
GSN 1690 1700 M 0  36 rL SGR
GSN 1690 5300 M 0 -36 rL SGR
GSN 1893 1700 M 0  36 rL SGR
GSN 1893 5300 M 0 -36 rL SGR
GSN 1996 1700 M 0  36 rL SGR
GSN 1996 5300 M 0 -36 rL SGR
GSN 2069 1700 M 0  36 rL SGR
GSN 2069 5300 M 0 -36 rL SGR
GSN 2126 1700 M 0  36 rL SGR
GSN 2126 5300 M 0 -36 rL SGR
GSN 2173 1700 M 0  36 rL SGR
GSN 2173 5300 M 0 -36 rL SGR
GSN 2212 1700 M 0  36 rL SGR
GSN 2212 5300 M 0 -36 rL SGR
GSN 2246 1700 M 0  36 rL SGR
GSN 2246 5300 M 0 -36 rL SGR
GSN 2276 1700 M 0  36 rL SGR
GSN 2276 5300 M 0 -36 rL SGR
GSN 2479 1700 M 0  36 rL SGR
GSN 2479 5300 M 0 -36 rL SGR
GSN 2583 1700 M 0  36 rL SGR
GSN 2583 5300 M 0 -36 rL SGR
GSN 2656 1700 M 0  36 rL SGR
GSN 2656 5300 M 0 -36 rL SGR
GSN 2713 1700 M 0  36 rL SGR
GSN 2713 5300 M 0 -36 rL SGR
GSN 2759 1700 M 0  36 rL SGR
GSN 2759 5300 M 0 -36 rL SGR
GSN 2798 1700 M 0  36 rL SGR
GSN 2798 5300 M 0 -36 rL SGR
GSN 2832 1700 M 0  36 rL SGR
GSN 2832 5300 M 0 -36 rL SGR
GSN 2862 1700 M 0  36 rL SGR
GSN 2862 5300 M 0 -36 rL SGR
GSN 3066 1700 M 0  36 rL SGR
GSN 3066 5300 M 0 -36 rL SGR
GSN 3169 1700 M 0  36 rL SGR
GSN 3169 5300 M 0 -36 rL SGR
GSN 3242 1700 M 0  36 rL SGR
GSN 3242 5300 M 0 -36 rL SGR
GSN 3299 1700 M 0  36 rL SGR
GSN 3299 5300 M 0 -36 rL SGR
GSN 3345 1700 M 0  36 rL SGR
GSN 3345 5300 M 0 -36 rL SGR
GSN 3385 1700 M 0  36 rL SGR
GSN 3385 5300 M 0 -36 rL SGR
GSN 3419 1700 M 0  36 rL SGR
GSN 3419 5300 M 0 -36 rL SGR
GSN 3449 1700 M 0  36 rL SGR
GSN 3449 5300 M 0 -36 rL SGR
GSN 3652 1700 M 0  36 rL SGR
GSN 3652 5300 M 0 -36 rL SGR
GSN 3755 1700 M 0  36 rL SGR
GSN 3755 5300 M 0 -36 rL SGR
GSN 3829 1700 M 0  36 rL SGR
GSN 3829 5300 M 0 -36 rL SGR
GSN 3885 1700 M 0  36 rL SGR
GSN 3885 5300 M 0 -36 rL SGR
GSN 3932 1700 M 0  36 rL SGR
GSN 3932 5300 M 0 -36 rL SGR
GSN 3971 1700 M 0  36 rL SGR
GSN 3971 5300 M 0 -36 rL SGR
GSN 4005 1700 M 0  36 rL SGR
GSN 4005 5300 M 0 -36 rL SGR
GSN 4035 1700 M 0  36 rL SGR
GSN 4035 5300 M 0 -36 rL SGR
%
% Y axis: large tics
%
L10
GSN 620 2335 M 54 0 rL SGR
GSN 4220 2335 M -54 0 rL SGR
helvS (0.92) 560 2335 ylabel
GSN 620 3107 M 54 0 rL SGR
GSN 4220 3107 M -54 0 rL SGR
helvS (0.94) 560 3107 ylabel
GSN 620 3879 M 54 0 rL SGR
GSN 4220 3879 M -54 0 rL SGR
helvS (0.96) 560 3879 ylabel
GSN 620 4651 M 54 0 rL SGR
GSN 4220 4651 M -54 0 rL SGR
helvS (0.98) 560 4651 ylabel
%
% Y axis: small tics
%
L5
GSN 620 1756 M 36 0 rL SGR
GSN 4220 1756 M -36 0 rL SGR
GSN 620 1949 M 36 0 rL SGR
GSN 4220 1949 M -36 0 rL SGR
GSN 620 2142 M 36 0 rL SGR
GSN 4220 2142 M -36 0 rL SGR
GSN 620 2335 M 36 0 rL SGR
GSN 4220 2335 M -36 0 rL SGR
GSN 620 2528 M 36 0 rL SGR
GSN 4220 2528 M -36 0 rL SGR
GSN 620 2721 M 36 0 rL SGR
GSN 4220 2721 M -36 0 rL SGR
GSN 620 2914 M 36 0 rL SGR
GSN 4220 2914 M -36 0 rL SGR
GSN 620 3107 M 36 0 rL SGR
GSN 4220 3107 M -36 0 rL SGR
GSN 620 3300 M 36 0 rL SGR
GSN 4220 3300 M -36 0 rL SGR
GSN 620 3493 M 36 0 rL SGR
GSN 4220 3493 M -36 0 rL SGR
GSN 620 3686 M 36 0 rL SGR
GSN 4220 3686 M -36 0 rL SGR
GSN 620 3879 M 36 0 rL SGR
GSN 4220 3879 M -36 0 rL SGR
GSN 620 4072 M 36 0 rL SGR
GSN 4220 4072 M -36 0 rL SGR
GSN 620 4265 M 36 0 rL SGR
GSN 4220 4265 M -36 0 rL SGR
GSN 620 4458 M 36 0 rL SGR
GSN 4220 4458 M -36 0 rL SGR
GSN 620 4651 M 36 0 rL SGR
GSN 4220 4651 M -36 0 rL SGR
GSN 620 4844 M 36 0 rL SGR
GSN 4220 4844 M -36 0 rL SGR
GSN 620 5037 M 36 0 rL SGR
GSN 4220 5037 M -36 0 rL SGR
GSN 620 5230 M 36 0 rL SGR
GSN 4220 5230 M -36 0 rL SGR

%
% X-Axis label:
%
gsave 2420 290 M 
[
[(Helvetica) 180 0 true true 0 (t)]
[(Helvetica) 180 0 true true 0 (i)]
[(Helvetica) 180 0 true true 0 (m)]
[(Helvetica) 180 0 true true 0 (e)]
] 0 MCshow grestore

%
% Y-Axis label:
%
gsave 234 3500 M 
currentpoint gsave translate 90 rotate 0 0 moveto
[
[(Helvetica) 180 0 true true 0 (s)]
[(Helvetica) 180 0 true true 0 (i)]
[(Helvetica) 180 0 true true 0 (g)]
[(Helvetica) 180 0 true true 0 (n)]
[(Helvetica) 180 0 true true 0 (a)]
[(Helvetica) 180 0 true true 0 (l)]
] 0 MCshow grestore

%
% Residuals:
%
gsave 129 1160 M 
currentpoint gsave translate 90 rotate 0 0 moveto
[
[(Helvetica) 150 0 true true 0 (r)]
[(Helvetica) 150 0 true true 0 (e)]
[(Helvetica) 150 0 true true 0 (s)]
[(Helvetica) 150 0 true true 0 (i)]
[(Helvetica) 150 0 true true 0 (d)]
[(Helvetica) 150 0 true true 0 (u)]
[(Helvetica) 150 0 true true 0 (a)]
[(Helvetica) 150 0 true true 0 (l)]
[(Helvetica) 150 0 true true 0 (s)]
] 0 MCshow grestore

%
% Residual frame
%
L10
GSN 
620 620 M
4220 620 L
4220 1700 L
620 1700 L
closepath SGR
%
% X axis: large tics - residual frame
%
L10
GSN 1130 620 M 0  54 rL SGR
GSN 1130 1700 M 0 -54 rL SGR
GSN 1716 620 M 0  54 rL SGR
GSN 1716 1700 M 0 -54 rL SGR
GSN 2303 620 M 0  54 rL SGR
GSN 2303 1700 M 0 -54 rL SGR
GSN 2889 620 M 0  54 rL SGR
GSN 2889 1700 M 0 -54 rL SGR
GSN 3476 620 M 0  54 rL SGR
GSN 3476 1700 M 0 -54 rL SGR
GSN 4062 620 M 0  54 rL SGR
GSN 4062 1700 M 0 -54 rL SGR
%
% X axis: small tics - residual frame
%
L5
GSN 720 620 M 0  36 rL SGR
GSN 720 1700 M 0 -36 rL SGR
GSN 824 620 M 0  36 rL SGR
GSN 824 1700 M 0 -36 rL SGR
GSN 897 620 M 0  36 rL SGR
GSN 897 1700 M 0 -36 rL SGR
GSN 954 620 M 0  36 rL SGR
GSN 954 1700 M 0 -36 rL SGR
GSN 1000 620 M 0  36 rL SGR
GSN 1000 1700 M 0 -36 rL SGR
GSN 1039 620 M 0  36 rL SGR
GSN 1039 1700 M 0 -36 rL SGR
GSN 1073 620 M 0  36 rL SGR
GSN 1073 1700 M 0 -36 rL SGR
GSN 1103 620 M 0  36 rL SGR
GSN 1103 1700 M 0 -36 rL SGR
GSN 1307 620 M 0  36 rL SGR
GSN 1307 1700 M 0 -36 rL SGR
GSN 1410 620 M 0  36 rL SGR
GSN 1410 1700 M 0 -36 rL SGR
GSN 1483 620 M 0  36 rL SGR
GSN 1483 1700 M 0 -36 rL SGR
GSN 1540 620 M 0  36 rL SGR
GSN 1540 1700 M 0 -36 rL SGR
GSN 1586 620 M 0  36 rL SGR
GSN 1586 1700 M 0 -36 rL SGR
GSN 1626 620 M 0  36 rL SGR
GSN 1626 1700 M 0 -36 rL SGR
GSN 1660 620 M 0  36 rL SGR
GSN 1660 1700 M 0 -36 rL SGR
GSN 1690 620 M 0  36 rL SGR
GSN 1690 1700 M 0 -36 rL SGR
GSN 1893 620 M 0  36 rL SGR
GSN 1893 1700 M 0 -36 rL SGR
GSN 1996 620 M 0  36 rL SGR
GSN 1996 1700 M 0 -36 rL SGR
GSN 2069 620 M 0  36 rL SGR
GSN 2069 1700 M 0 -36 rL SGR
GSN 2126 620 M 0  36 rL SGR
GSN 2126 1700 M 0 -36 rL SGR
GSN 2173 620 M 0  36 rL SGR
GSN 2173 1700 M 0 -36 rL SGR
GSN 2212 620 M 0  36 rL SGR
GSN 2212 1700 M 0 -36 rL SGR
GSN 2246 620 M 0  36 rL SGR
GSN 2246 1700 M 0 -36 rL SGR
GSN 2276 620 M 0  36 rL SGR
GSN 2276 1700 M 0 -36 rL SGR
GSN 2479 620 M 0  36 rL SGR
GSN 2479 1700 M 0 -36 rL SGR
GSN 2583 620 M 0  36 rL SGR
GSN 2583 1700 M 0 -36 rL SGR
GSN 2656 620 M 0  36 rL SGR
GSN 2656 1700 M 0 -36 rL SGR
GSN 2713 620 M 0  36 rL SGR
GSN 2713 1700 M 0 -36 rL SGR
GSN 2759 620 M 0  36 rL SGR
GSN 2759 1700 M 0 -36 rL SGR
GSN 2798 620 M 0  36 rL SGR
GSN 2798 1700 M 0 -36 rL SGR
GSN 2832 620 M 0  36 rL SGR
GSN 2832 1700 M 0 -36 rL SGR
GSN 2862 620 M 0  36 rL SGR
GSN 2862 1700 M 0 -36 rL SGR
GSN 3066 620 M 0  36 rL SGR
GSN 3066 1700 M 0 -36 rL SGR
GSN 3169 620 M 0  36 rL SGR
GSN 3169 1700 M 0 -36 rL SGR
GSN 3242 620 M 0  36 rL SGR
GSN 3242 1700 M 0 -36 rL SGR
GSN 3299 620 M 0  36 rL SGR
GSN 3299 1700 M 0 -36 rL SGR
GSN 3345 620 M 0  36 rL SGR
GSN 3345 1700 M 0 -36 rL SGR
GSN 3385 620 M 0  36 rL SGR
GSN 3385 1700 M 0 -36 rL SGR
GSN 3419 620 M 0  36 rL SGR
GSN 3419 1700 M 0 -36 rL SGR
GSN 3449 620 M 0  36 rL SGR
GSN 3449 1700 M 0 -36 rL SGR
GSN 3652 620 M 0  36 rL SGR
GSN 3652 1700 M 0 -36 rL SGR
GSN 3755 620 M 0  36 rL SGR
GSN 3755 1700 M 0 -36 rL SGR
GSN 3829 620 M 0  36 rL SGR
GSN 3829 1700 M 0 -36 rL SGR
GSN 3885 620 M 0  36 rL SGR
GSN 3885 1700 M 0 -36 rL SGR
GSN 3932 620 M 0  36 rL SGR
GSN 3932 1700 M 0 -36 rL SGR
GSN 3971 620 M 0  36 rL SGR
GSN 3971 1700 M 0 -36 rL SGR
GSN 4005 620 M 0  36 rL SGR
GSN 4005 1700 M 0 -36 rL SGR
GSN 4035 620 M 0  36 rL SGR
GSN 4035 1700 M 0 -36 rL SGR
%
% Y axis: large tics - residual frame
%
L10
GSN 620 730 M 54 0 rL SGR
GSN 4220 730 M -54 0 rL SGR
helvS (-0.025) 560 730 ylabelresid
GSN 620 967 M 54 0 rL SGR
GSN 4220 967 M -54 0 rL SGR
helvS (0) 560 967 ylabelresid
GSN 620 1203 M 54 0 rL SGR
GSN 4220 1203 M -54 0 rL SGR
helvS (0.025) 560 1203 ylabelresid
GSN 620 1440 M 54 0 rL SGR
GSN 4220 1440 M -54 0 rL SGR
helvS (0.05) 560 1440 ylabelresid
GSN 620 1677 M 54 0 rL SGR
GSN 4220 1677 M -54 0 rL SGR
helvS (0.075) 560 1677 ylabelresid

%
% X axis - residual panel
%
GSN L5 620 967 M 4220 967 L SDA G50 SGR

end
showpage
%%Trailer
%%EOF
