%!PS-Adobe-3.0 EPSF-3.0
%%BoundingBox: 0 0 514 550
%%Creator: BioKin Ltd.
%%DocumentFonts: Symbol Helvetica
%%EndComments
%
/bkdict 256 dict def
bkdict begin
/M {moveto} def 
/R {rmoveto} def
/L {lineto} def
/rL {rlineto} def
/GSN {gsave newpath} def
/SGR {stroke grestore} def
/COSGR {gsave setrgbcolor stroke grestore grestore} def
/SL {setlinewidth} def
/LWMB {12} def             % line width - model curves, black & white
/LWMC {10} def             % line width - model curves, color
/L2 {2.5 setlinewidth} def
/L5 {5 setlinewidth} def
/L10 {10 setlinewidth} def
/G50 {0.5 setgray} def
/SDA {[10  20] 0 setdash} def % axes
/helvT {/Helvetica findfont 100 scalefont setfont} def % tiny
/helvS {/Helvetica findfont 125 scalefont setfont} def % small
/helvM {/Helvetica findfont 150 scalefont setfont} def % medium
/helvL {/Helvetica findfont 175 scalefont setfont} def % large
/xlabel {gsave M dup
   stringwidth exch -0.5 mul exch rmoveto show grestore} def 
/ylabel {gsave M 90 rotate dup
   stringwidth exch -0.5 mul exch rmoveto show grestore} def
/ylabelresid {gsave M dup
   stringwidth exch -1 mul exch rmoveto show grestore} def
% ======
% Shapes
% ======
% Circle:
/Circ {0 360 arc closepath} def
%
% Square:
/Squa {dup dup -0.5 mul dup dup R -2 mul 0 exch rL 1 mul 0 rL dup 0 exch -1 mul rL closepath} def
%
% Triangle Up:
/TriU {dup dup dup -0.4 mul exch -0.5 mul exch R dup 0.5 mul exch rL dup -1 mul exch 0.5 mul exch rL closepath} def 
%
% Triangle Down:
/TriD {dup dup dup 0.4 mul exch -0.5 mul exch R dup 0.5 mul exch -1 mul rL dup 0.5 mul exch rL closepath} def 
%
% Diamond:
/Diam {45 rotate Squa} def
% ======
% Fills
% ======
/GRF {gsave setgray fill grestore} def                    % gray-level Fill
/COF {gsave setrgbcolor fill grestore} def                % color fill
% ======
% Colors
% ======
/C01 {1.00	0.00	0.00} def      % Red
/C02 {0.00	0.00	1.00} def      % Blue
/C03 {0.00	0.39	0.00} def      % Dark Green
/C04 {0.78	0.08	0.52} def      % Medium Violet Red
/C05 {0.55	0.27	0.07} def      % Saddle Brown
/C06 {0.10	0.70	0.70} def      % (cyan)
/C07 {1.00	0.55	0.00} def      % Dark Orange
/C08 {0.63	0.13	0.94} def      % Purple
/C09 {0.00	0.75	1.00} def      % Deep Sky Blue
/C10 {0.20	0.80	0.20} def      % Lime Green
/C11 {0.47	0.53	0.60} def      % Light Slate Gray
/C12 {0.00	0.00	0.00} def      % Black            % or: {0.19	0.31	0.31} def      % Dark Slate Gray
%
/LGR {0.75} def % light gray
/DGR {0.33} def % dark gray
%
% =============
% Dash patterns
% =============
/dash01 { [80  20] 0 setdash } def
/dash02 { [40  20] 0 setdash } def
/dash03 { [80  20  10  20] 0 setdash } def
/dash04 { [40  20  10  20] 0 setdash } def
/dash05 { [80  20  10  10  10  20] 0 setdash } def
/dash06 { [40  20  10  10  10  20] 0 setdash } def
/dash07 { [10  10] 0 setdash } def
%
/MFshow {
   { dup 5 get 3 ge
     { 5 get 3 eq {gsave} {grestore} ifelse }
     {dup dup 0 get findfont exch 1 get scalefont setfont
     [ currentpoint ] exch dup 2 get 0 exch R dup 5 get 2 ne {dup dup 6
     get exch 4 get {show} {stringwidth pop 0 R} ifelse }if dup 5 get 0 eq
     {dup 3 get {2 get neg 0 exch R pop} {pop aload pop M} ifelse} {dup 5
     get 1 eq {dup 2 get exch dup 3 get exch 6 get stringwidth pop -2 div
     dup 0 R} {dup 6 get stringwidth pop -2 div 0 R 6 get
     show 2 index {aload pop M neg 3 -1 roll neg R pop pop} {pop pop pop
     pop aload pop M} ifelse }ifelse }ifelse }
     ifelse }
   forall} bind def
/MFwidth {0 exch {dup 3 get{dup dup 0 get findfont exch 1 get scalefont
     setfont 6 get stringwidth pop add} {pop} ifelse} forall} bind def
/MCshow { currentpoint stroke M
  exch dup MFwidth -2 div 3 -1 roll R MFshow } def
%
end
%%EndProlog
bkdict begin
0.1 0.1 scale
%
% Residuals:
%
GSN 620 3838 M
620 3372 L
620 3569 L
620 4216 L
620 3946 L
620 3745 L
620 3840 L
620 3880 L
620 4012 L
620 3895 L
620 3985 L
620 3482 L
620 4455 L
620 3706 L
620 4095 L
620 4279 L
620 4193 L
620 4345 L
620 3725 L
620 4049 L
620 3925 L
620 3670 L
620 3836 L
620 4067 L
620 3695 L
620 4237 L
620 4549 L
620 4180 L
620 4471 L
620 4080 L
620 3842 L
620 3266 L
620 3644 L
620 3737 L
620 4247 L
620 4255 L
620 3963 L
620 4019 L
620 4219 L
620 4214 L
620 4482 L
620 4863 L
620 3777 L
620 4039 L
620 3434 L
620 3739 L
620 3507 L
620 4069 L
620 4119 L
620 3999 L
620 4192 L
620 4370 L
620 3552 L
620 2760 L
620 3260 L
620 3763 L
620 4117 L
620 4521 L
620 3826 L
620 3578 L
620 3339 L
620 4134 L
620 3288 L
620 3595 L
620 4170 L
620 4024 L
620 3296 L
620 3781 L
620 3748 L
620 3466 L
620 3398 L
620 4061 L
620 3644 L
620 3853 L
620 3417 L
620 3844 L
620 3879 L
620 3804 L
620 3654 L
620 3678 L
620 3832 L
620 3421 L
620 3386 L
620 3596 L
620 3822 L
620 3727 L
620 3824 L
620 3899 L
620 3126 L
620 3305 L
620 3453 L
620 4240 L
620 3251 L
620 2643 L
620 3853 L
620 3148 L
620 3619 L
620 2922 L
620 3590 L
620 3397 L
620 3109 L
620 2840 L
620 3434 L
620 3168 L
620 2246 L
620 3102 L
620 3192 L
620 2342 L
620 3300 L
620 2921 L
620 3436 L
620 2638 L
620 3515 L
620 3498 L
620 3315 L
620 3013 L
620 3044 L
620 3124 L
620 2815 L
620 2949 L
620 3138 L
620 3092 L
620 3047 L
620 2513 L
620 2894 L
620 2808 L
620 2479 L
620 2755 L
620 3195 L
620 2557 L
620 2997 L
620 2591 L
620 2633 L
620 2506 L
620 2816 L
620 2729 L
620 2606 L
620 2643 L
620 3032 L
620 2522 L
620 2831 L
620 2459 L
620 2565 L
620 2671 L
620 2582 L
620 2514 L
620 2425 L
620 2501 L
620 2452 L
620 2761 L
620 2936 L
620 2549 L
620 2917 L
620 3420 L
620 2566 L
620 2442 L
620 2492 L
620 3094 L
620 2752 L
620 2737 L
620 3473 L
620 3300 L
620 2370 L
620 3007 L
620 2551 L
620 2958 L
620 2954 L
620 2914 L
620 2989 L
620 2984 L
620 3228 L
620 2572 L
620 3412 L
620 3378 L
620 3080 L
620 3642 L
620 2136 L
620 2723 L
620 3254 L
620 2747 L
620 2892 L
620 2927 L
620 2907 L
620 3101 L
620 2236 L
620 3156 L
620 3375 L
620 4290 L
620 2982 L
620 4006 L
620 2500 L
620 3505 L
620 3281 L
620 2540 L
620 3226 L
620 3365 L
620 3286 L
620 2729 L
620 3281 L
620 2903 L
620 2998 L
620 3038 L
620 3257 L
620 3366 L
620 2785 L
620 2919 L
620 2894 L
620 3585 L
620 3421 L
620 2790 L
620 3421 L
620 3182 L
620 3461 L
620 3868 L
620 3650 L
620 3550 L
620 3615 L
620 3630 L
620 4012 L
620 3317 L
620 3441 L
620 3938 L
620 3704 L
620 3173 L
620 3252 L
620 3754 L
620 3103 L
620 3819 L
620 2765 L
620 3242 L
620 3610 L
620 3943 L
620 3879 L
620 3570 L
620 3515 L
620 3267 L
620 3262 L
620 3431 L
620 3252 L
620 3625 L
620 3153 L
620 3108 L
620 3078 L
620 3461 L
620 3347 L
620 3337 L
620 3481 L
620 3118 L
620 3545 L
620 3923 L
620 3729 L
620 3083 L
620 3993 L
620 4196 L
620 3674 L
620 3292 L
620 3157 L
620 3491 L
620 3486 L
620 3118 L
620 2884 L
620 3212 L
620 2825 L
620 3093 L
620 4341 L
620 3963 L
620 3560 L
620 3635 L
620 4261 L
620 4152 L
620 3590 L
620 2924 L
620 2974 L
620 4097 L
620 4266 L
620 3625 L
620 4247 L
620 3913 L
620 3108 L
620 3630 L
620 3217 L
620 3466 L
620 3814 L
620 3685 L
620 3461 L
620 4087 L
620 3372 L
620 3993 L
620 4211 L
620 3953 L
620 3764 L
620 4127 L
620 4187 L
620 4048 L
620 4341 L
620 4460 L
620 3749 L
620 3983 L
620 3705 L
620 4192 L
620 3317 L
620 3665 L
620 3680 L
620 3759 L
620 4251 L
620 3719 L
620 4082 L
620 4569 L
620 3854 L
620 3928 L
620 3849 L
620 4192 L
620 3615 L
620 3744 L
620 3864 L
620 3889 L
620 3814 L
620 3848 L
620 4157 L
620 3401 L
620 4520 L
620 4659 L
620 3675 L
620 4162 L
620 3103 L
620 3863 L
620 4475 L
620 3541 L
620 3312 L
620 3715 L
620 4087 L
620 4565 L
620 3819 L
620 3332 L
620 3789 L
620 3869 L
620 4301 L
620 3680 L
620 3804 L
620 3640 L
620 3476 L
620 4167 L
620 3893 L
620 3560 L
620 4078 L
620 3749 L
620 3953 L
620 4371 L
620 3655 L
620 3451 L
620 4222 L
620 4072 L
620 3396 L
620 3416 L
620 3779 L
620 3342 L
620 3715 L
620 3878 L
620 3695 L
620 4624 L
620 3262 L
620 4052 L
620 4048 L
620 4510 L
620 3550 L
620 3724 L
620 3575 L
620 3963 L
620 3287 L
620 3710 L
620 3540 L
620 3610 L
620 4013 L
620 3317 L
620 4187 L
620 4321 L
620 3849 L
620 3505 L
620 3306 L
620 4122 L
620 3859 L
620 4097 L
620 3207 L
620 3714 L
620 3883 L
620 3705 L
620 3884 L
620 3590 L
620 4212 L
620 3660 L
620 3933 L
620 3759 L
620 3859 L
620 3874 L
620 3730 L
620 3774 L
620 4192 L
620 3397 L
620 3650 L
620 3958 L
620 4102 L
620 3441 L
620 4152 L
620 3834 L
620 4395 L
620 3252 L
620 4212 L
620 3948 L
620 3764 L
620 3531 L
620 3789 L
620 3839 L
620 4147 L
620 4102 L
620 3227 L
620 3416 L
620 3739 L
620 3496 L
620 3839 L
620 4162 L
620 3222 L
620 3406 L
620 3431 L
620 4028 L
620 3068 L
620 3615 L
620 3352 L
620 3680 L
620 3799 L
620 3973 L
620 4092 L
620 3889 L
620 3580 L
620 3988 L
620 3988 L
620 3968 L
620 3854 L
620 3665 L
620 2974 L
620 3510 L
620 4405 L
620 4187 L
620 3705 L
620 3919 L
620 4167 L
620 3063 L
620 4018 L
620 3963 L
620 3257 L
620 3829 L
620 3123 L
620 3670 L
620 4157 L
620 4296 L
620 3535 L
620 4430 L
620 3342 L
620 3839 L
620 3799 L
620 4376 L
620 3272 L
620 4226 L
620 4157 L
620 3844 L
620 3630 L
620 3739 L
620 3640 L
620 4381 L
620 3625 L
620 3898 L
620 4222 L
620 3719 L
620 3834 L
620 3705 L
620 4440 L
620 3699 L
620 3436 L
620 4212 L
620 3998 L
620 4122 L
620 3421 L
620 4063 L
620 3968 L
620 4281 L
620 4405 L
620 4162 L
620 3779 L
620 4023 L
620 3824 L
620 4033 L
620 4714 L
620 3923 L
620 4162 L
620 3680 L
620 4122 L
620 3749 L
620 3968 L
620 3948 L
620 4072 L
620 3541 L
620 3690 L
620 3307 L
620 4112 L
620 4694 L
620 3043 L
620 4386 L
620 3829 L
620 3664 L
620 4172 L
620 4296 L
620 3754 L
620 4425 L
620 4182 L
620 3665 L
620 3928 L
620 3874 L
620 3958 L
620 4366 L
620 4137 L
620 3814 L
620 4833 L
620 3839 L
620 3894 L
620 4231 L
620 4152 L
620 3362 L
620 3928 L
620 3197 L
620 3734 L
620 4028 L
620 4202 L
620 3680 L
620 4127 L
L2 C01 COSGR

%
%================
% Legend - Begin
%================
%
GSN 4240 5180 M
4480 5180 L
LWMC SL  C01 COSGR
GSN 4540 5141 M helvM (0.5 uM) show grestore
%
%================
% Legend - End
%================
%

%
% Main frame
%
L10
GSN 
620 1700 M
4220 1700 L
4220 5300 L
620 5300 L
closepath SGR

%
% X axis: large tics
%
L10
%
% X axis: small tics
%
L5
%
% Y axis: large tics
%
L10
GSN 620 2636 M 54 0 rL SGR
GSN 4220 2636 M -54 0 rL SGR
helvS (-0.01) 560 2636 ylabel
GSN 620 3614 M 54 0 rL SGR
GSN 4220 3614 M -54 0 rL SGR
helvS (0) 560 3614 ylabel
GSN 620 4591 M 54 0 rL SGR
GSN 4220 4591 M -54 0 rL SGR
helvS (0.01) 560 4591 ylabel
%
% Y axis: small tics
%
L5
GSN 620 1903 M 36 0 rL SGR
GSN 4220 1903 M -36 0 rL SGR
GSN 620 2148 M 36 0 rL SGR
GSN 4220 2148 M -36 0 rL SGR
GSN 620 2392 M 36 0 rL SGR
GSN 4220 2392 M -36 0 rL SGR
GSN 620 2636 M 36 0 rL SGR
GSN 4220 2636 M -36 0 rL SGR
GSN 620 2881 M 36 0 rL SGR
GSN 4220 2881 M -36 0 rL SGR
GSN 620 3125 M 36 0 rL SGR
GSN 4220 3125 M -36 0 rL SGR
GSN 620 3369 M 36 0 rL SGR
GSN 4220 3369 M -36 0 rL SGR
GSN 620 3614 M 36 0 rL SGR
GSN 4220 3614 M -36 0 rL SGR
GSN 620 3858 M 36 0 rL SGR
GSN 4220 3858 M -36 0 rL SGR
GSN 620 4102 M 36 0 rL SGR
GSN 4220 4102 M -36 0 rL SGR
GSN 620 4347 M 36 0 rL SGR
GSN 4220 4347 M -36 0 rL SGR
GSN 620 4591 M 36 0 rL SGR
GSN 4220 4591 M -36 0 rL SGR
GSN 620 4835 M 36 0 rL SGR
GSN 4220 4835 M -36 0 rL SGR
GSN 620 5080 M 36 0 rL SGR
GSN 4220 5080 M -36 0 rL SGR

%
% X axis - residual panel
%
GSN L5 620 3614 M 4220 3614 L SDA G50 SGR

%
% X-Axis label:
%
gsave 620 1370 M 
[
[(Helvetica) 180 0 true true 0 (t)]
[(Helvetica) 180 0 true true 0 (i)]
[(Helvetica) 180 0 true true 0 (m)]
[(Helvetica) 180 0 true true 0 (e)]
] 0 MCshow grestore

%
% Y-Axis label:
%
gsave 234 3500 M 
currentpoint gsave translate 90 rotate 0 0 moveto
[
[(Helvetica) 180 0 true true 0 (r)]
[(Helvetica) 180 0 true true 0 (e)]
[(Helvetica) 180 0 true true 0 (s)]
[(Helvetica) 180 0 true true 0 (i)]
[(Helvetica) 180 0 true true 0 (d)]
[(Helvetica) 180 0 true true 0 (u)]
[(Helvetica) 180 0 true true 0 (a)]
[(Helvetica) 180 0 true true 0 (l)]
[(Helvetica) 180 0 true true 0 (s)]
] 0 MCshow grestore

end
showpage
%%Trailer
%%EOF
