%!PS-Adobe-3.0 EPSF-3.0
%%BoundingBox: 0 0 514 550
%%Creator: BioKin Ltd.
%%DocumentFonts: Symbol Helvetica
%%EndComments
%
/bkdict 256 dict def
bkdict begin
/M {moveto} def 
/R {rmoveto} def
/L {lineto} def
/rL {rlineto} def
/GSN {gsave newpath} def
/SGR {stroke grestore} def
/COSGR {gsave setrgbcolor stroke grestore grestore} def
/SL {setlinewidth} def
/LWMB {12} def             % line width - model curves, black & white
/LWMC {10} def             % line width - model curves, color
/L2 {2.5 setlinewidth} def
/L5 {5 setlinewidth} def
/L10 {10 setlinewidth} def
/G50 {0.5 setgray} def
/SDA {[10  20] 0 setdash} def % axes
/helvT {/Helvetica findfont 100 scalefont setfont} def % tiny
/helvS {/Helvetica findfont 125 scalefont setfont} def % small
/helvM {/Helvetica findfont 150 scalefont setfont} def % medium
/helvL {/Helvetica findfont 175 scalefont setfont} def % large
/xlabel {gsave M dup
   stringwidth exch -0.5 mul exch rmoveto show grestore} def 
/ylabel {gsave M 90 rotate dup
   stringwidth exch -0.5 mul exch rmoveto show grestore} def
/ylabelresid {gsave M dup
   stringwidth exch -1 mul exch rmoveto show grestore} def
% ======
% Shapes
% ======
% Circle:
/Circ {0 360 arc closepath} def
%
% Square:
/Squa {dup dup -0.5 mul dup dup R -2 mul 0 exch rL 1 mul 0 rL dup 0 exch -1 mul rL closepath} def
%
% Triangle Up:
/TriU {dup dup dup -0.4 mul exch -0.5 mul exch R dup 0.5 mul exch rL dup -1 mul exch 0.5 mul exch rL closepath} def 
%
% Triangle Down:
/TriD {dup dup dup 0.4 mul exch -0.5 mul exch R dup 0.5 mul exch -1 mul rL dup 0.5 mul exch rL closepath} def 
%
% Diamond:
/Diam {45 rotate Squa} def
% ======
% Fills
% ======
/GRF {gsave setgray fill grestore} def                    % gray-level Fill
/COF {gsave setrgbcolor fill grestore} def                % color fill
% ======
% Colors
% ======
/C01 {1.00	0.00	0.00} def      % Red
/C02 {0.00	0.00	1.00} def      % Blue
/C03 {0.00	0.39	0.00} def      % Dark Green
/C04 {0.78	0.08	0.52} def      % Medium Violet Red
/C05 {0.55	0.27	0.07} def      % Saddle Brown
/C06 {0.10	0.70	0.70} def      % (cyan)
/C07 {1.00	0.55	0.00} def      % Dark Orange
/C08 {0.63	0.13	0.94} def      % Purple
/C09 {0.00	0.75	1.00} def      % Deep Sky Blue
/C10 {0.20	0.80	0.20} def      % Lime Green
/C11 {0.47	0.53	0.60} def      % Light Slate Gray
/C12 {0.00	0.00	0.00} def      % Black            % or: {0.19	0.31	0.31} def      % Dark Slate Gray
%
/LGR {0.75} def % light gray
/DGR {0.33} def % dark gray
%
% =============
% Dash patterns
% =============
/dash01 { [80  20] 0 setdash } def
/dash02 { [40  20] 0 setdash } def
/dash03 { [80  20  10  20] 0 setdash } def
/dash04 { [40  20  10  20] 0 setdash } def
/dash05 { [80  20  10  10  10  20] 0 setdash } def
/dash06 { [40  20  10  10  10  20] 0 setdash } def
/dash07 { [10  10] 0 setdash } def
%
/MFshow {
   { dup 5 get 3 ge
     { 5 get 3 eq {gsave} {grestore} ifelse }
     {dup dup 0 get findfont exch 1 get scalefont setfont
     [ currentpoint ] exch dup 2 get 0 exch R dup 5 get 2 ne {dup dup 6
     get exch 4 get {show} {stringwidth pop 0 R} ifelse }if dup 5 get 0 eq
     {dup 3 get {2 get neg 0 exch R pop} {pop aload pop M} ifelse} {dup 5
     get 1 eq {dup 2 get exch dup 3 get exch 6 get stringwidth pop -2 div
     dup 0 R} {dup 6 get stringwidth pop -2 div 0 R 6 get
     show 2 index {aload pop M neg 3 -1 roll neg R pop pop} {pop pop pop
     pop aload pop M} ifelse }ifelse }ifelse }
     ifelse }
   forall} bind def
/MFwidth {0 exch {dup 3 get{dup dup 0 get findfont exch 1 get scalefont
     setfont 6 get stringwidth pop add} {pop} ifelse} forall} bind def
/MCshow { currentpoint stroke M
  exch dup MFwidth -2 div 3 -1 roll R MFshow } def
%
end
%%EndProlog
bkdict begin
0.1 0.1 scale
%
% Model curves:
%

GSN 753 5166 M
753 5166 L
786 5164 L
820 5160 L
853 5157 L
886 5153 L
920 5149 L
929 5147 L
953 5144 L
986 5138 L
1020 5132 L
1053 5125 L
1086 5117 L
1106 5112 L
1120 5109 L
1153 5099 L
1186 5088 L
1220 5077 L
1253 5063 L
1282 5051 L
1286 5049 L
1319 5034 L
1353 5017 L
1386 4999 L
1419 4980 L
1453 4959 L
1459 4956 L
1486 4938 L
1519 4916 L
1553 4894 L
1586 4871 L
1619 4849 L
1635 4838 L
1653 4827 L
1686 4806 L
1719 4786 L
1753 4768 L
1786 4751 L
1812 4739 L
1819 4735 L
1853 4721 L
1886 4708 L
1919 4695 L
1953 4682 L
1986 4669 L
1988 4668 L
2019 4655 L
2053 4639 L
2086 4622 L
2119 4602 L
2153 4580 L
2165 4572 L
2186 4555 L
2219 4527 L
2253 4496 L
2286 4461 L
2319 4421 L
2341 4393 L
2353 4377 L
2386 4328 L
2419 4273 L
2453 4212 L
2486 4145 L
2518 4075 L
2519 4071 L
2553 3991 L
2586 3903 L
2619 3809 L
2653 3707 L
2686 3599 L
2694 3571 L
2719 3484 L
2753 3364 L
2786 3241 L
2819 3114 L
2853 2987 L
2871 2918 L
2886 2860 L
2919 2738 L
2953 2621 L
2986 2513 L
3019 2416 L
3047 2345 L
3053 2333 L
3086 2266 L
3119 2217 L
3153 2187 L
3186 2176 L
3219 2184 L
3224 2187 L
3253 2210 L
3286 2252 L
3319 2306 L
3353 2369 L
3386 2438 L
3400 2469 L
3419 2510 L
3453 2581 L
3476 2627 L
3486 2648 L
3519 2711 L
3553 2766 L
3577 2801 L
3586 2813 L
3619 2852 L
3653 2883 L
3686 2905 L
3719 2921 L
3753 2932 L
3754 2932 L
3786 2939 L
3819 2943 L
3853 2945 L
3886 2946 L
3919 2948 L
3930 2948 L
3953 2949 L
3986 2950 L
4019 2951 L
4053 2953 L
4086 2954 L
4086 2954 L
LWMC SL  C04 COSGR

%
% Experimental data:
%
GSN 777 5095 M
1388 5027 L
1552 4682 L
1652 4756 L
1723 4971 L
1778 4834 L
1824 4661 L
1863 4760 L
1896 4757 L
1926 4667 L
1952 4650 L
1976 4770 L
1998 4712 L
2019 4771 L
2037 4795 L
2055 4861 L
2071 4637 L
2086 4602 L
2101 4654 L
2115 4666 L
2128 4621 L
2140 4496 L
2152 4811 L
2163 4764 L
2174 4752 L
2184 4844 L
2194 4612 L
2204 4639 L
2213 4509 L
2222 4648 L
2230 4539 L
2239 4690 L
2247 4470 L
2255 4654 L
2262 4740 L
2270 4540 L
2277 4392 L
2284 4454 L
2290 4274 L
2297 4424 L
2303 4540 L
2310 4510 L
2316 4464 L
2322 4303 L
2328 4317 L
2333 4346 L
2339 4444 L
2344 4426 L
2350 4420 L
2355 4384 L
2360 4334 L
2365 4324 L
2370 4218 L
2375 4373 L
2380 4288 L
2384 4340 L
2389 4297 L
2393 4380 L
2398 4397 L
2402 4344 L
2407 4085 L
2411 4182 L
2415 4258 L
2419 4300 L
2423 4311 L
2427 4098 L
2431 4301 L
2435 4306 L
2438 4469 L
2442 4039 L
2446 4116 L
2449 3966 L
2453 3963 L
2456 4021 L
2460 4077 L
2463 4104 L
2467 4211 L
2470 4239 L
2473 4162 L
2476 4262 L
2480 4250 L
2483 4176 L
2486 3885 L
2489 4116 L
2492 3948 L
2495 4055 L
2498 4073 L
2501 4204 L
2504 4275 L
2507 4018 L
2510 4105 L
2512 3946 L
2515 4199 L
2518 4006 L
2521 4104 L
2523 4017 L
2526 4090 L
2529 3815 L
2531 4140 L
2534 3916 L
2536 4013 L
2539 3882 L
2541 3935 L
2544 4120 L
2546 4032 L
2549 3981 L
2551 3990 L
2554 4083 L
2556 4040 L
2558 3887 L
2561 3998 L
2563 3886 L
2565 4023 L
2568 3955 L
2570 3789 L
2572 3782 L
2574 3966 L
2576 4040 L
2579 3873 L
2581 3809 L
2583 3922 L
2585 3930 L
2587 3940 L
2589 3883 L
2591 3786 L
2593 3978 L
2595 3854 L
2597 3910 L
2599 3831 L
2601 3764 L
2603 3665 L
2605 3747 L
2607 3825 L
2609 3959 L
2611 3751 L
2613 3847 L
2615 3651 L
2617 3664 L
2618 3706 L
2620 3744 L
2622 3613 L
2624 3877 L
2626 3886 L
2627 3621 L
2629 3694 L
2631 3765 L
2633 3755 L
2634 3717 L
2636 3706 L
2638 3765 L
2640 3646 L
2641 3629 L
2643 3838 L
2645 3763 L
2646 3697 L
2648 3586 L
2650 3788 L
2651 3751 L
2653 3732 L
2654 3669 L
2656 3637 L
2658 3692 L
2659 3841 L
2661 3773 L
2662 3707 L
2664 3686 L
2665 3411 L
2667 3537 L
2668 3551 L
2670 3754 L
2671 3632 L
2673 3700 L
2674 3623 L
2676 3580 L
2677 3460 L
2679 3546 L
2680 3611 L
2682 3604 L
2683 3734 L
2685 3570 L
2686 3647 L
2687 3407 L
2689 3514 L
2690 3467 L
2692 3473 L
2693 3799 L
2694 3697 L
2696 3564 L
2697 3598 L
2698 3560 L
2700 3437 L
2701 3632 L
2702 3473 L
2704 3546 L
2705 3620 L
2706 3564 L
2708 3455 L
2709 3432 L
2710 3493 L
2712 3441 L
2713 3562 L
2714 3424 L
2715 3543 L
2717 3574 L
2718 3354 L
2719 3533 L
2720 3518 L
2722 3425 L
2723 3454 L
2724 3397 L
2725 3507 L
2726 3429 L
2728 3412 L
2729 3422 L
2730 3477 L
2731 3257 L
2732 3446 L
2734 3401 L
2735 3356 L
2736 3545 L
2737 3578 L
2738 3181 L
2739 3143 L
2741 3209 L
2742 3601 L
2743 3563 L
2744 3479 L
2745 3530 L
2746 3378 L
2747 3468 L
2748 3314 L
2749 3380 L
2751 3469 L
2752 3475 L
2753 3469 L
2754 3404 L
2755 3324 L
2756 3367 L
2757 3268 L
2758 3423 L
2759 3194 L
2760 3236 L
2761 3298 L
2762 3554 L
2763 3272 L
2764 3285 L
2765 3198 L
2767 3297 L
2768 3194 L
2769 3140 L
2770 3322 L
2771 3488 L
2772 3393 L
2773 3251 L
2774 3214 L
2775 3437 L
2776 3295 L
2777 3342 L
2778 3306 L
2779 3284 L
2780 3468 L
2781 3220 L
2782 3458 L
2783 3390 L
2783 3359 L
2784 3261 L
2785 3225 L
2786 3408 L
2787 3016 L
2788 3276 L
2789 3194 L
2790 3034 L
2791 3360 L
2792 3285 L
2793 3145 L
2794 3401 L
2795 3243 L
2796 3119 L
2797 3263 L
2798 3325 L
2798 3086 L
2799 2975 L
2800 3266 L
2801 3212 L
2802 3130 L
2803 3195 L
2804 3333 L
2805 3281 L
2806 3040 L
2807 3226 L
2807 3195 L
2808 3030 L
2809 3260 L
2810 3184 L
2811 3122 L
2812 3005 L
2813 3207 L
2813 3244 L
2814 3118 L
2815 3101 L
2816 2999 L
2817 3318 L
2818 3125 L
2819 3236 L
2819 3031 L
2820 3133 L
2821 3236 L
2822 2995 L
2823 3167 L
2824 3020 L
2824 3191 L
2825 3253 L
2826 3145 L
2827 3009 L
2828 2865 L
2828 3124 L
2829 2985 L
2830 3210 L
2831 3096 L
2832 3170 L
2832 3024 L
2833 3019 L
2834 2953 L
2835 2935 L
2836 2895 L
2836 2991 L
2837 2996 L
2838 3181 L
2839 3196 L
2840 3108 L
2840 2865 L
2841 3054 L
2842 2910 L
2843 3130 L
2843 2954 L
2844 3029 L
2845 3141 L
2846 2887 L
2846 2911 L
2847 2958 L
2848 2997 L
2849 2934 L
2849 2975 L
2850 3102 L
2851 3046 L
2852 2941 L
2852 2832 L
2853 3034 L
2854 3055 L
2855 2960 L
2855 3038 L
2856 2800 L
2857 2923 L
2857 3034 L
2858 3038 L
2859 3140 L
2860 2967 L
2860 2942 L
2861 2929 L
2862 2964 L
2862 2954 L
2863 3024 L
2864 2934 L
2865 2799 L
2865 2800 L
2866 2923 L
2867 3011 L
2867 3027 L
2868 2800 L
2869 2883 L
2869 2947 L
2870 2868 L
2871 3009 L
2871 2988 L
2872 2850 L
2873 3031 L
2873 2808 L
2874 2928 L
2875 2987 L
2876 3118 L
2876 2875 L
2877 2857 L
2878 2746 L
2878 2803 L
2879 2947 L
2880 2798 L
2880 2766 L
2881 2916 L
2881 2905 L
2882 2830 L
2883 3106 L
2883 2817 L
2884 2963 L
2885 2799 L
2885 2836 L
2886 2792 L
2887 2812 L
2887 2981 L
2888 2853 L
2889 2854 L
2889 3042 L
2892 2870 L
2894 2568 L
2897 2921 L
2899 2768 L
2902 2533 L
2904 2690 L
2907 2712 L
2909 2873 L
2911 2857 L
2914 2897 L
2916 2802 L
2918 2870 L
2921 2815 L
2923 2680 L
2925 2600 L
2927 2636 L
2929 2746 L
2932 2780 L
2934 2522 L
2936 2565 L
2938 2595 L
2940 2781 L
2942 2689 L
2944 2636 L
2946 2649 L
2948 2524 L
2950 2621 L
2952 2658 L
2954 2649 L
2956 2498 L
2958 2645 L
2960 2470 L
2962 2424 L
2964 2714 L
2966 2459 L
2968 2568 L
2970 2665 L
2971 2633 L
2973 2496 L
2975 2572 L
2977 2790 L
2979 2578 L
2980 2601 L
2982 2500 L
2984 2540 L
2986 2441 L
2987 2291 L
2989 2561 L
2991 2533 L
2993 2462 L
2994 2489 L
2996 2491 L
2998 2485 L
2999 2623 L
3001 2424 L
3003 2569 L
3004 2362 L
3006 2543 L
3007 2556 L
3009 2298 L
3011 2582 L
3012 2442 L
3014 2440 L
3015 2353 L
3017 2345 L
3018 2312 L
3020 2339 L
3021 2143 L
3023 2394 L
3024 2369 L
3026 2349 L
3027 2222 L
3029 2380 L
3030 2288 L
3032 2581 L
3033 2195 L
3035 2207 L
3036 2498 L
3038 2321 L
3039 2302 L
3040 2462 L
3042 2330 L
3043 2302 L
3045 2279 L
3046 2354 L
3047 2390 L
3049 2363 L
3050 2208 L
3051 2153 L
3053 2382 L
3054 2261 L
3055 2335 L
3057 2137 L
3058 2357 L
3059 2352 L
3061 2282 L
3062 2278 L
3063 2270 L
3065 2415 L
3066 2018 L
3067 2269 L
3068 2340 L
3070 2091 L
3071 2291 L
3072 2142 L
3073 2295 L
3075 2107 L
3076 2272 L
3077 2105 L
3078 2279 L
3079 2275 L
3081 2313 L
3082 2131 L
3083 2281 L
3084 2250 L
3085 2156 L
3087 2243 L
3088 2260 L
3089 2191 L
3090 2244 L
3091 2223 L
3092 2203 L
3094 2495 L
3095 2481 L
3096 2099 L
3097 2235 L
3098 2149 L
3099 2204 L
3100 2111 L
3101 2211 L
3103 2068 L
3104 2168 L
3105 2318 L
3106 2253 L
3107 2348 L
3108 2024 L
3109 2189 L
3110 2125 L
3111 2317 L
3112 2177 L
3113 2176 L
3114 2239 L
3115 2150 L
3116 2057 L
3117 2185 L
3119 2209 L
3120 2241 L
3121 1996 L
3122 2199 L
3123 2109 L
3124 2180 L
3125 1999 L
3126 2110 L
3127 2112 L
3128 2019 L
3129 2427 L
3130 2092 L
3131 2109 L
3132 1999 L
3133 2271 L
3134 2014 L
3135 2198 L
3136 2098 L
3136 2230 L
3137 2145 L
3138 2113 L
3139 2239 L
3140 2037 L
3141 2180 L
3142 2102 L
3143 2186 L
3144 2034 L
3145 2091 L
3146 2328 L
3147 2138 L
3148 2185 L
3149 2105 L
3150 2077 L
3151 2135 L
3151 2206 L
3152 2113 L
3153 1994 L
3154 2105 L
3155 2090 L
3156 1981 L
3157 2067 L
3158 2184 L
3159 2127 L
3160 1924 L
3160 2078 L
3161 2252 L
3162 2180 L
3163 2109 L
3164 2246 L
3165 2199 L
3166 2078 L
3166 2164 L
3167 2171 L
3168 2097 L
3169 2080 L
3170 2158 L
3171 2129 L
3172 2157 L
3172 2119 L
3173 2107 L
3174 2035 L
3175 2099 L
3176 2143 L
3177 2151 L
3177 2061 L
3178 2226 L
3179 2076 L
3180 2164 L
3181 2092 L
3181 2099 L
3182 2111 L
3183 2111 L
3184 2034 L
3185 2057 L
3185 2085 L
3186 2196 L
3187 2076 L
3188 2053 L
3189 2086 L
3189 2102 L
3190 1926 L
3191 2067 L
3192 2177 L
3193 2177 L
3193 2128 L
3194 2145 L
3195 2206 L
3196 2090 L
3196 2174 L
3197 2129 L
3198 2244 L
3199 2104 L
3199 2208 L
3200 2241 L
3201 2179 L
3202 2158 L
3202 2225 L
3203 2166 L
3204 2150 L
3205 1976 L
3205 2063 L
3206 2078 L
3207 2131 L
3208 2089 L
3208 2125 L
3209 2023 L
3210 1970 L
3210 2211 L
3211 1990 L
3212 2245 L
3213 2040 L
3213 2143 L
3214 2095 L
3215 2079 L
3215 2106 L
3216 2098 L
3217 2083 L
3218 2044 L
3218 2089 L
3219 2139 L
3220 1833 L
3220 2080 L
3221 2111 L
3222 2067 L
3222 2116 L
3223 2067 L
3224 2097 L
3224 2154 L
3225 2201 L
3226 2187 L
3227 1926 L
3227 2079 L
3228 2222 L
3229 2147 L
3229 2122 L
3230 2018 L
3231 2155 L
3231 2160 L
3232 2114 L
3233 2091 L
3233 2207 L
3234 2109 L
3235 2041 L
3235 2109 L
3236 2073 L
3236 2116 L
3237 2046 L
3238 2122 L
3238 2169 L
3239 2117 L
3240 2023 L
3240 2251 L
3241 1971 L
3242 1955 L
3242 2165 L
3243 2118 L
3244 1941 L
3244 2260 L
3245 2174 L
3245 2159 L
3246 2188 L
3247 2235 L
3247 2116 L
3248 2122 L
3249 2141 L
3249 2338 L
3250 2221 L
3250 2147 L
3251 2239 L
3252 2189 L
3252 2182 L
3253 2093 L
3253 2248 L
3254 2403 L
3255 2183 L
3255 2162 L
3256 1986 L
3257 2159 L
3257 2215 L
3258 2277 L
3258 2175 L
3259 2246 L
3259 2077 L
3260 2167 L
3261 2318 L
3261 2166 L
3262 2200 L
3262 2058 L
3263 2274 L
3264 1904 L
3264 2324 L
3265 2041 L
3265 2214 L
3266 2326 L
3267 1990 L
3267 2333 L
3268 2145 L
3268 2312 L
3269 2149 L
3269 2112 L
3270 2217 L
3271 2230 L
3271 2262 L
3272 2204 L
3272 2314 L
3273 2279 L
3273 2146 L
3274 2197 L
3275 2148 L
3275 2257 L
3276 2143 L
3276 2207 L
3277 2142 L
3277 2292 L
3278 2116 L
3278 2192 L
3279 2453 L
3280 2208 L
3280 2137 L
3281 2209 L
3281 2337 L
3282 2259 L
3282 2279 L
3283 1904 L
3283 2214 L
3284 2092 L
3284 2235 L
3285 2277 L
3285 2209 L
3286 2201 L
3287 2303 L
3287 2406 L
3288 2087 L
3288 2321 L
3289 2172 L
3289 2143 L
3290 2216 L
3290 2292 L
3291 2196 L
3291 2280 L
3292 2276 L
3292 2180 L
3293 2253 L
3293 2194 L
3294 2151 L
3294 2291 L
3295 2135 L
3295 2272 L
3296 2318 L
3297 2212 L
3297 2131 L
3298 2088 L
3298 2350 L
3299 2085 L
3299 2083 L
3300 2116 L
3300 2297 L
3301 2137 L
3301 2306 L
3302 2206 L
3302 2349 L
3303 2265 L
3303 2302 L
3304 2305 L
3304 2325 L
3305 2143 L
3305 2257 L
3306 2422 L
3306 2179 L
3307 2133 L
3307 2272 L
3308 2378 L
3308 2188 L
3309 2116 L
3309 2292 L
3310 2270 L
3310 2278 L
3311 2397 L
3311 2235 L
3312 2230 L
3312 2225 L
3312 2317 L
3313 2280 L
3313 2231 L
3314 2219 L
3314 2366 L
3315 2270 L
3315 2202 L
3316 2179 L
3316 2206 L
3317 2440 L
3317 2350 L
3318 2211 L
3318 2353 L
3319 2400 L
3319 2305 L
3320 2177 L
3320 2138 L
3321 2209 L
3321 2225 L
3321 2416 L
3322 2260 L
3322 2373 L
3323 2257 L
3323 2388 L
3324 2244 L
3324 2190 L
3325 2197 L
3325 2092 L
3326 2314 L
3326 2321 L
3327 2315 L
3327 2414 L
3327 2257 L
3328 2336 L
3328 2510 L
3329 2269 L
3329 2300 L
3330 2404 L
3330 2404 L
3331 2441 L
3331 2237 L
3332 2286 L
3332 2099 L
3332 2240 L
3333 2237 L
3333 2280 L
3334 2348 L
3334 2216 L
3335 2240 L
3335 2327 L
3336 2414 L
3336 2220 L
3336 2347 L
3337 2388 L
3337 2413 L
3338 2340 L
3338 2149 L
3339 2262 L
3339 2349 L
3339 2313 L
3340 2174 L
3340 2398 L
3341 2393 L
3341 2248 L
3342 2302 L
3342 2426 L
3343 2278 L
3343 2283 L
3343 2281 L
3344 2384 L
3344 2426 L
3345 2426 L
3345 2386 L
3346 2292 L
3346 2383 L
3346 2418 L
3347 2199 L
3347 2527 L
3348 2371 L
3348 2410 L
3348 2273 L
3349 2286 L
3349 2297 L
3350 2487 L
3350 2266 L
3351 2334 L
3351 2254 L
3351 2356 L
3352 2333 L
3352 2326 L
3353 2291 L
3353 2276 L
3353 2349 L
3354 2422 L
3354 2334 L
3355 2446 L
3355 2426 L
3355 2439 L
3356 2310 L
3356 2296 L
3357 2453 L
3357 2262 L
3358 2247 L
3358 2443 L
3358 2254 L
3359 2239 L
3359 2330 L
3360 2315 L
3360 2444 L
3360 2298 L
3361 2351 L
3361 2379 L
3362 2382 L
3362 2270 L
3362 2368 L
3363 2334 L
3363 2419 L
3364 2469 L
3364 2349 L
3364 2350 L
3365 2288 L
3365 2475 L
3365 2291 L
3366 2376 L
3366 2508 L
3367 2482 L
3367 2497 L
3367 2330 L
3368 2469 L
3368 2433 L
3369 2282 L
3369 2392 L
3369 2296 L
3370 2246 L
3370 2414 L
3371 2372 L
3371 2305 L
3371 2430 L
3372 2343 L
3372 2400 L
3372 2381 L
3373 2253 L
3373 2353 L
3374 2428 L
3374 2297 L
3374 2632 L
3375 2380 L
3375 2369 L
3375 2418 L
3376 2460 L
3376 2430 L
3377 2405 L
3377 2407 L
3377 2290 L
3378 2359 L
3378 2427 L
3378 2466 L
3379 2497 L
3379 2340 L
3380 2270 L
3380 2446 L
3380 2554 L
3381 2489 L
3381 2318 L
3381 2436 L
3382 2386 L
3382 2446 L
3383 2414 L
3383 2447 L
3383 2365 L
3384 2456 L
3384 2565 L
3384 2483 L
3385 2380 L
3385 2430 L
3385 2458 L
3386 2402 L
3386 2467 L
3387 2460 L
3387 2395 L
3387 2562 L
3388 2427 L
3388 2517 L
3388 2238 L
3389 2439 L
3389 2388 L
3389 2401 L
3390 2348 L
3390 2607 L
3391 2435 L
3391 2476 L
3391 2482 L
3392 2387 L
3392 2394 L
3392 2560 L
3393 2491 L
3393 2160 L
3393 2459 L
3394 2411 L
3394 2410 L
3394 2344 L
3395 2524 L
3395 2442 L
3395 2459 L
3396 2513 L
3396 2400 L
3396 2526 L
3397 2379 L
3397 2381 L
3398 2323 L
3398 2521 L
3398 2394 L
3399 2408 L
3399 2449 L
3399 2399 L
3400 2382 L
3400 2436 L
3400 2406 L
3401 2516 L
3401 2561 L
3401 2507 L
3402 2354 L
3402 2572 L
3402 2429 L
3403 2626 L
3403 2464 L
3403 2466 L
3404 2518 L
3404 2408 L
3404 2372 L
3405 2626 L
3405 2376 L
3405 2485 L
3406 2503 L
3406 2519 L
3406 2502 L
3407 2502 L
3407 2638 L
3407 2299 L
3408 2278 L
3408 2276 L
3408 2485 L
3409 2440 L
3409 2416 L
3409 2469 L
3410 2469 L
3410 2532 L
3410 2658 L
3411 2497 L
3411 2568 L
3411 2533 L
3412 2403 L
3412 2395 L
3412 2591 L
3413 2624 L
3413 2487 L
3413 2492 L
3414 2560 L
3414 2545 L
3414 2468 L
3415 2561 L
3415 2439 L
3415 2640 L
3416 2518 L
3416 2413 L
3416 2307 L
3417 2613 L
3417 2630 L
3417 2516 L
3417 2381 L
3418 2511 L
3418 2562 L
3418 2411 L
3419 2520 L
3419 2646 L
3419 2343 L
3420 2548 L
3420 2507 L
3420 2498 L
3421 2557 L
3421 2468 L
3421 2493 L
3422 2481 L
3422 2644 L
3422 2367 L
3423 2411 L
3423 2581 L
3423 2503 L
3423 2613 L
3424 2567 L
3424 2567 L
3424 2365 L
3425 2485 L
3425 2624 L
3425 2552 L
3426 2668 L
3426 2687 L
3426 2734 L
3427 2373 L
3427 2563 L
3427 2407 L
3428 2384 L
3428 2446 L
3428 2514 L
3428 2642 L
3429 2348 L
3429 2557 L
3429 2625 L
3430 2732 L
3430 2430 L
3430 2450 L
3431 2386 L
3431 2441 L
3431 2600 L
3431 2514 L
3432 2495 L
3432 2476 L
3432 2559 L
3433 2620 L
3433 2642 L
3433 2601 L
3434 2536 L
3434 2607 L
3434 2526 L
3434 2507 L
3435 2454 L
3435 2483 L
3435 2577 L
3436 2620 L
3436 2679 L
3436 2552 L
3437 2591 L
3437 2561 L
3437 2584 L
3437 2475 L
3438 2475 L
3438 2466 L
3438 2561 L
3439 2468 L
3439 2508 L
3439 2561 L
3440 2656 L
3440 2620 L
3440 2616 L
3440 2562 L
3441 2644 L
3441 2604 L
3441 2533 L
3442 2535 L
3442 2529 L
3442 2628 L
3442 2556 L
3443 2677 L
3443 2761 L
3443 2562 L
3444 2614 L
3444 2583 L
3444 2587 L
3444 2748 L
3445 2556 L
3445 2546 L
3445 2665 L
3446 2501 L
3446 2497 L
3446 2626 L
3446 2552 L
3447 2356 L
3447 2509 L
3447 2704 L
3448 2566 L
3448 2566 L
3448 2522 L
3448 2524 L
3449 2569 L
3449 2559 L
3449 2520 L
3450 2527 L
3450 2707 L
3450 2633 L
3450 2571 L
3451 2613 L
3451 2583 L
3451 2487 L
3452 2572 L
3452 2584 L
3452 2431 L
3452 2600 L
3453 2796 L
3453 2740 L
3453 2835 L
3454 2523 L
3454 2543 L
3454 2478 L
3454 2568 L
3455 2488 L
3455 2537 L
3455 2476 L
3455 2640 L
3456 2495 L
3456 2534 L
3456 2545 L
3457 2776 L
3457 2621 L
3457 2439 L
3457 2454 L
3458 2398 L
3458 2613 L
3458 2553 L
3458 2722 L
3459 2537 L
3459 2538 L
3459 2492 L
3460 2606 L
3460 2524 L
3460 2513 L
3460 2780 L
3461 2612 L
3461 2711 L
3461 2527 L
3461 2908 L
3462 2563 L
3462 2713 L
3462 2630 L
3463 2508 L
3463 2487 L
3463 2552 L
3463 2582 L
3464 2417 L
3464 2524 L
3464 2609 L
3464 2689 L
3465 2600 L
3465 2549 L
3465 2604 L
3465 2668 L
3466 2391 L
3466 2560 L
3466 2707 L
3466 2687 L
3467 2433 L
3467 2691 L
3467 2565 L
3468 2582 L
3468 2725 L
3468 2694 L
3468 2659 L
3469 2492 L
3469 2571 L
3469 2584 L
3469 2603 L
3470 2693 L
3470 2703 L
3470 2599 L
3470 2590 L
3471 2577 L
3471 2956 L
3471 2609 L
3471 2562 L
3472 2598 L
3472 2841 L
3472 2895 L
3472 2592 L
3473 2579 L
3473 2704 L
3473 2768 L
3474 2650 L
3474 2718 L
3474 2693 L
3474 2504 L
3475 2623 L
3475 2623 L
3475 2670 L
3475 2741 L
3476 2535 L
3476 2745 L
3476 2630 L
3476 2767 L
3477 2662 L
3477 2864 L
3477 2682 L
3477 2637 L
3478 2588 L
3478 2807 L
3478 2725 L
3478 2571 L
3479 2787 L
3479 2575 L
3479 2770 L
3479 2721 L
3480 2591 L
3480 2642 L
3480 2669 L
3480 2588 L
3481 2777 L
3481 2598 L
3481 2662 L
3481 2695 L
3482 2537 L
3482 2707 L
3482 2726 L
3482 2752 L
3483 2606 L
3483 2736 L
3483 2699 L
3483 2773 L
3484 2713 L
3484 2712 L
3484 2792 L
3484 2644 L
3485 2733 L
3485 2678 L
3485 2527 L
3485 2457 L
3486 2535 L
3486 2604 L
3486 2680 L
3486 2553 L
3487 2606 L
3487 2694 L
3487 2746 L
3487 2709 L
3488 2705 L
3488 2735 L
3488 2806 L
3488 2836 L
3488 2721 L
3489 2663 L
3489 2609 L
3489 2629 L
3489 2742 L
3490 2778 L
3490 2674 L
3490 2644 L
3490 2417 L
3491 2666 L
3491 2750 L
3491 2584 L
3491 2709 L
3492 2720 L
3492 2645 L
3492 2736 L
3492 2627 L
3493 2581 L
3493 2662 L
3493 2562 L
3493 2674 L
3494 2725 L
3494 2669 L
3494 2684 L
3494 2654 L
3494 2857 L
3495 2690 L
3495 2501 L
3495 2793 L
3495 2772 L
3496 2674 L
3496 2825 L
3496 2633 L
3496 2608 L
3497 2787 L
3497 2639 L
3497 2497 L
3497 2631 L
3498 2729 L
3498 2564 L
3498 2869 L
3498 2611 L
3498 2693 L
3499 2737 L
3499 2789 L
3499 2779 L
3499 2672 L
3500 2562 L
3500 2845 L
3506 2622 L
3511 2670 L
3517 2819 L
3522 2695 L
3527 2856 L
3532 2736 L
3537 2783 L
3542 2715 L
3547 2893 L
3552 2871 L
3557 2725 L
3561 2831 L
3566 2828 L
3570 2941 L
3575 2890 L
3579 2929 L
3583 3022 L
3587 2835 L
3591 2896 L
3595 3025 L
3599 3035 L
3603 2880 L
3607 2816 L
3611 2898 L
3614 2759 L
3618 2947 L
3622 3023 L
3625 3059 L
3629 2881 L
3632 2952 L
3636 2873 L
3639 2930 L
3642 3028 L
3646 2872 L
3649 3135 L
3652 2745 L
3655 2832 L
3658 3015 L
3661 3076 L
3664 2987 L
3667 2743 L
3670 3066 L
3673 3015 L
3676 3132 L
3679 3053 L
3682 3058 L
3685 2961 L
3688 2981 L
3690 2787 L
3693 2870 L
3696 3101 L
3698 2847 L
3701 3035 L
3704 2867 L
3706 3036 L
3709 2846 L
3711 3126 L
3714 3020 L
3716 2981 L
3719 3046 L
3721 2944 L
3724 2778 L
3726 2914 L
3728 3038 L
3731 3031 L
3733 2917 L
3735 3083 L
3738 2913 L
3740 2910 L
3742 3064 L
3744 3233 L
3747 3025 L
3749 2833 L
3751 3029 L
3753 3055 L
3755 2753 L
3757 2799 L
3760 3179 L
3762 2936 L
3764 2829 L
3766 3132 L
3768 2984 L
3770 2860 L
3772 3132 L
3774 3089 L
3776 2948 L
3778 3012 L
3780 3082 L
3781 2920 L
3783 3033 L
3785 2942 L
3787 3164 L
3789 2916 L
3791 3093 L
3793 2989 L
3795 3061 L
3796 3082 L
3798 2933 L
3800 2911 L
3802 3013 L
3803 3092 L
3805 2921 L
3807 3099 L
3809 3067 L
3810 3106 L
3812 3105 L
3814 2975 L
3816 3034 L
3817 3071 L
3819 3005 L
3820 2768 L
3822 3127 L
3824 2713 L
3825 3101 L
3827 2959 L
3829 2929 L
3830 2960 L
3832 3030 L
3833 3148 L
3835 3162 L
3836 2807 L
3838 3064 L
3839 2993 L
3841 3109 L
3842 2850 L
3844 3004 L
3845 3021 L
3847 2868 L
3848 3221 L
3850 3174 L
3851 3005 L
3853 2945 L
3854 3004 L
3856 3002 L
3857 3030 L
3859 3058 L
3860 3038 L
3861 2862 L
3863 3017 L
3864 3031 L
3866 2924 L
3867 2904 L
3868 3275 L
3870 2917 L
3871 2980 L
3872 3055 L
3874 3031 L
3875 3035 L
3876 2932 L
3878 2996 L
3879 3166 L
3880 2956 L
3882 2806 L
3883 2873 L
3884 3069 L
3885 3122 L
3887 2954 L
3888 3127 L
3889 3055 L
3890 2968 L
3892 3115 L
3893 3105 L
3894 3021 L
3895 3126 L
3897 2947 L
3898 2948 L
3899 3126 L
3900 3190 L
3901 2892 L
3903 2959 L
3904 3244 L
3905 3031 L
3906 2926 L
3907 3229 L
3908 3053 L
3910 3000 L
3911 3069 L
3912 2958 L
3913 2923 L
3914 3018 L
3915 2884 L
3917 2972 L
3918 3057 L
3919 2944 L
3920 2924 L
3921 2800 L
3922 2823 L
3923 2991 L
3924 3089 L
3925 2994 L
3926 2899 L
3928 2860 L
3929 3056 L
3930 2899 L
3931 2988 L
3932 2853 L
3933 2918 L
3934 2930 L
3935 3045 L
3936 2877 L
3937 3006 L
3938 3120 L
3939 3152 L
3940 2999 L
3941 2918 L
3942 3194 L
3943 3004 L
3944 3078 L
3945 2955 L
3946 2990 L
3947 2650 L
3948 2995 L
3949 3039 L
3950 3085 L
3951 3066 L
3952 2873 L
3953 3042 L
3954 3040 L
3955 3155 L
3956 2995 L
3957 2899 L
3958 3022 L
3959 3043 L
3960 2973 L
3961 2995 L
3962 3015 L
3963 3085 L
3964 2899 L
3965 2907 L
3966 2906 L
3966 2842 L
3967 3092 L
3968 3208 L
3969 3084 L
3970 2927 L
3971 2960 L
3972 2818 L
3973 3135 L
3974 3055 L
3975 2890 L
3976 2905 L
3976 3066 L
3977 2958 L
3978 2947 L
3979 2981 L
3980 3032 L
3981 2836 L
3982 2883 L
3983 3150 L
3983 3086 L
3984 3131 L
3985 2932 L
3986 3011 L
3987 3045 L
3988 2935 L
3989 3226 L
3989 2841 L
3990 3004 L
3991 2963 L
3992 3146 L
3993 2981 L
3994 3079 L
3995 2833 L
3995 2991 L
3996 3126 L
3997 3088 L
3998 3110 L
3999 3112 L
3999 2866 L
4000 2932 L
4001 2693 L
4002 2939 L
4003 2893 L
4003 2865 L
4004 3060 L
4005 2896 L
4006 3067 L
4007 3047 L
4007 2904 L
4008 3012 L
4009 2888 L
4010 3090 L
4011 2911 L
4011 2843 L
4012 2911 L
4013 2988 L
4014 2952 L
4014 3081 L
4015 2958 L
4016 2981 L
4017 3015 L
4017 3030 L
4018 2890 L
4019 2978 L
4020 3306 L
4021 2983 L
4021 2947 L
4022 3018 L
4023 2881 L
4023 2981 L
4024 2924 L
4025 2773 L
4026 2947 L
4026 3089 L
4027 3070 L
4028 2920 L
4029 2964 L
4029 3062 L
4030 2989 L
4031 2890 L
4032 2914 L
4032 3410 L
4033 2901 L
4034 3060 L
4034 2847 L
4035 3061 L
4036 3008 L
4036 3010 L
4037 2871 L
4038 2936 L
4039 3087 L
4039 2834 L
4040 3197 L
4041 3066 L
4041 2890 L
4042 3061 L
4043 2937 L
4043 3036 L
4044 3041 L
4045 2975 L
4045 3092 L
4046 3057 L
4047 2873 L
4047 3114 L
4048 3070 L
4049 3049 L
4050 2844 L
4050 2815 L
4051 3086 L
4052 2908 L
4052 3054 L
4053 2949 L
4053 3180 L
4054 2936 L
4055 2989 L
4055 2918 L
4056 2927 L
4057 2822 L
4057 3124 L
4058 2874 L
4059 3183 L
4059 3001 L
4060 2936 L
4061 3080 L
4061 2841 L
4062 2950 L
L2 C04 COSGR

%
%================
% Legend - Begin
%================
%
GSN 4240 5180 M
4480 5180 L
LWMC SL  C04 COSGR
GSN 4540 5141 M helvM (2.0 uM) show grestore
%
%================
% Legend - End
%================
%

%
% Residuals:
%
GSN 777 1036 M
1388 1135 L
1552 891 L
1652 1033 L
1723 1294 L
1778 1186 L
1824 1032 L
1863 1149 L
1896 1159 L
1926 1080 L
1952 1073 L
1976 1204 L
1998 1154 L
2019 1223 L
2037 1255 L
2055 1331 L
2071 1113 L
2086 1085 L
2101 1146 L
2115 1167 L
2128 1129 L
2140 1012 L
2152 1338 L
2163 1298 L
2174 1295 L
2184 1396 L
2194 1170 L
2204 1205 L
2213 1081 L
2222 1229 L
2230 1127 L
2239 1288 L
2247 1073 L
2255 1267 L
2262 1362 L
2270 1168 L
2277 1026 L
2284 1096 L
2290 921 L
2297 1081 L
2303 1206 L
2310 1184 L
2316 1145 L
2322 989 L
2328 1011 L
2333 1048 L
2339 1154 L
2344 1144 L
2350 1145 L
2355 1116 L
2360 1073 L
2365 1070 L
2370 970 L
2375 1134 L
2380 1055 L
2384 1115 L
2389 1079 L
2393 1170 L
2398 1194 L
2402 1148 L
2407 894 L
2411 999 L
2415 1083 L
2419 1132 L
2423 1151 L
2427 942 L
2431 1154 L
2435 1166 L
2438 1338 L
2442 910 L
2446 995 L
2449 850 L
2453 854 L
2456 920 L
2460 983 L
2463 1017 L
2467 1132 L
2470 1167 L
2473 1096 L
2476 1203 L
2480 1198 L
2483 1130 L
2486 842 L
2489 1082 L
2492 919 L
2495 1033 L
2498 1059 L
2501 1197 L
2504 1275 L
2507 1022 L
2510 1117 L
2512 962 L
2515 1225 L
2518 1036 L
2521 1141 L
2523 1059 L
2526 1140 L
2529 868 L
2531 1203 L
2534 983 L
2536 1087 L
2539 960 L
2541 1020 L
2544 1213 L
2546 1131 L
2549 1086 L
2551 1101 L
2554 1201 L
2556 1164 L
2558 1015 L
2561 1133 L
2563 1026 L
2565 1170 L
2568 1108 L
2570 946 L
2572 945 L
2574 1136 L
2576 1217 L
2579 1054 L
2581 995 L
2583 1115 L
2585 1129 L
2587 1145 L
2589 1093 L
2591 1001 L
2593 1201 L
2595 1082 L
2597 1143 L
2599 1069 L
2601 1007 L
2603 913 L
2605 1001 L
2607 1086 L
2609 1227 L
2611 1022 L
2613 1124 L
2615 932 L
2617 951 L
2618 998 L
2620 1042 L
2622 916 L
2624 1188 L
2626 1202 L
2627 940 L
2629 1019 L
2631 1097 L
2633 1091 L
2634 1058 L
2636 1053 L
2638 1118 L
2640 1002 L
2641 991 L
2643 1207 L
2645 1136 L
2646 1075 L
2648 967 L
2650 1177 L
2651 1145 L
2653 1131 L
2654 1072 L
2656 1045 L
2658 1106 L
2659 1262 L
2661 1198 L
2662 1136 L
2664 1119 L
2665 847 L
2667 979 L
2668 998 L
2670 1208 L
2671 1090 L
2673 1164 L
2674 1091 L
2676 1053 L
2677 936 L
2679 1028 L
2680 1098 L
2682 1097 L
2683 1232 L
2685 1071 L
2686 1154 L
2687 917 L
2689 1030 L
2690 986 L
2692 997 L
2693 1331 L
2694 1233 L
2696 1103 L
2697 1142 L
2698 1108 L
2700 989 L
2701 1190 L
2702 1034 L
2704 1112 L
2705 1192 L
2706 1140 L
2708 1035 L
2709 1015 L
2710 1081 L
2712 1033 L
2713 1160 L
2714 1026 L
2715 1150 L
2717 1186 L
2718 968 L
2719 1154 L
2720 1143 L
2722 1053 L
2723 1087 L
2724 1034 L
2725 1149 L
2726 1074 L
2728 1062 L
2729 1076 L
2730 1136 L
2731 918 L
2732 1113 L
2734 1072 L
2735 1031 L
2736 1226 L
2737 1264 L
2738 866 L
2739 833 L
2741 903 L
2742 1303 L
2743 1269 L
2744 1188 L
2745 1244 L
2746 1095 L
2747 1190 L
2748 1038 L
2749 1109 L
2751 1203 L
2752 1213 L
2753 1211 L
2754 1150 L
2755 1073 L
2756 1120 L
2757 1024 L
2758 1184 L
2759 957 L
2760 1003 L
2761 1070 L
2762 1332 L
2763 1051 L
2764 1069 L
2765 985 L
2767 1088 L
2768 988 L
2769 938 L
2770 1125 L
2771 1297 L
2772 1205 L
2773 1065 L
2774 1031 L
2775 1260 L
2776 1120 L
2777 1172 L
2778 1139 L
2779 1121 L
2780 1311 L
2781 1064 L
2782 1307 L
2783 1243 L
2783 1215 L
2784 1119 L
2785 1087 L
2786 1275 L
2787 883 L
2788 1150 L
2789 1070 L
2790 912 L
2791 1245 L
2792 1173 L
2793 1035 L
2794 1297 L
2795 1141 L
2796 1019 L
2797 1168 L
2798 1234 L
2798 997 L
2799 888 L
2800 1185 L
2801 1134 L
2802 1055 L
2803 1124 L
2804 1267 L
2805 1218 L
2806 977 L
2807 1169 L
2807 1141 L
2808 977 L
2809 1213 L
2810 1140 L
2811 1081 L
2812 965 L
2813 1173 L
2813 1214 L
2814 1089 L
2815 1075 L
2816 976 L
2817 1302 L
2818 1110 L
2819 1225 L
2819 1021 L
2820 1127 L
2821 1235 L
2822 995 L
2823 1172 L
2824 1026 L
2824 1202 L
2825 1268 L
2826 1162 L
2827 1027 L
2828 885 L
2828 1150 L
2829 1012 L
2830 1243 L
2831 1131 L
2832 1209 L
2832 1065 L
2833 1062 L
2834 999 L
2835 984 L
2836 946 L
2836 1046 L
2837 1055 L
2838 1245 L
2839 1263 L
2840 1176 L
2840 934 L
2841 1129 L
2842 985 L
2843 1210 L
2843 1036 L
2844 1115 L
2845 1231 L
2846 977 L
2846 1004 L
2847 1055 L
2848 1097 L
2849 1036 L
2849 1080 L
2850 1212 L
2851 1158 L
2852 1055 L
2852 947 L
2853 1155 L
2854 1178 L
2855 1085 L
2855 1167 L
2856 929 L
2857 1056 L
2857 1171 L
2858 1178 L
2859 1283 L
2860 1111 L
2860 1090 L
2861 1079 L
2862 1117 L
2862 1110 L
2863 1183 L
2864 1094 L
2865 961 L
2865 965 L
2866 1092 L
2867 1183 L
2867 1202 L
2868 976 L
2869 1062 L
2869 1129 L
2870 1052 L
2871 1198 L
2871 1179 L
2872 1042 L
2873 1227 L
2873 1004 L
2874 1128 L
2875 1190 L
2876 1325 L
2876 1082 L
2877 1067 L
2878 957 L
2878 1017 L
2879 1166 L
2880 1017 L
2880 987 L
2881 1141 L
2881 1133 L
2882 1060 L
2883 1341 L
2883 1051 L
2884 1202 L
2885 1038 L
2885 1078 L
2886 1036 L
2887 1059 L
2887 1232 L
2888 1105 L
2889 1109 L
2889 1301 L
2892 1137 L
2894 842 L
2897 1208 L
2899 1062 L
2902 833 L
2904 1002 L
2907 1033 L
2909 1204 L
2911 1197 L
2914 1245 L
2916 1158 L
2918 1235 L
2921 1187 L
2923 1059 L
2925 987 L
2927 1031 L
2929 1150 L
2932 1192 L
2934 939 L
2936 990 L
2938 1028 L
2940 1223 L
2942 1137 L
2944 1091 L
2946 1112 L
2948 992 L
2950 1097 L
2952 1141 L
2954 1139 L
2956 993 L
2958 1148 L
2960 978 L
2962 938 L
2964 1237 L
2966 986 L
2968 1102 L
2970 1206 L
2971 1180 L
2973 1048 L
2975 1130 L
2977 1356 L
2979 1148 L
2980 1177 L
2982 1081 L
2984 1127 L
2986 1032 L
2987 885 L
2989 1163 L
2991 1141 L
2993 1074 L
2994 1107 L
2996 1114 L
2998 1113 L
2999 1257 L
3001 1061 L
3003 1213 L
3004 1008 L
3006 1195 L
3007 1214 L
3009 957 L
3011 1249 L
3012 1112 L
3014 1114 L
3015 1030 L
3017 1027 L
3018 998 L
3020 1029 L
3021 835 L
3023 1092 L
3024 1072 L
3026 1055 L
3027 931 L
3029 1095 L
3030 1006 L
3032 1305 L
3033 919 L
3035 935 L
3036 1233 L
3038 1057 L
3039 1042 L
3040 1207 L
3042 1076 L
3043 1052 L
3045 1032 L
3046 1111 L
3047 1151 L
3049 1127 L
3050 973 L
3051 920 L
3053 1155 L
3054 1036 L
3055 1114 L
3057 917 L
3058 1142 L
3059 1140 L
3061 1071 L
3062 1071 L
3063 1065 L
3065 1214 L
3066 815 L
3067 1072 L
3068 1146 L
3070 897 L
3071 1102 L
3072 954 L
3073 1111 L
3075 923 L
3076 1093 L
3077 926 L
3078 1105 L
3079 1102 L
3081 1143 L
3082 962 L
3083 1115 L
3084 1086 L
3085 993 L
3087 1083 L
3088 1102 L
3089 1035 L
3090 1090 L
3091 1071 L
3092 1053 L
3094 1350 L
3095 1337 L
3096 953 L
3097 1093 L
3098 1007 L
3099 1065 L
3100 972 L
3101 1075 L
3103 932 L
3104 1035 L
3105 1189 L
3106 1124 L
3107 1222 L
3108 895 L
3109 1064 L
3110 1001 L
3111 1196 L
3112 1057 L
3113 1057 L
3114 1122 L
3115 1033 L
3116 940 L
3117 1071 L
3119 1097 L
3120 1130 L
3121 884 L
3122 1090 L
3123 1000 L
3124 1074 L
3125 892 L
3126 1005 L
3127 1008 L
3128 915 L
3129 1328 L
3130 990 L
3131 1009 L
3132 899 L
3133 1175 L
3134 916 L
3135 1102 L
3136 1003 L
3136 1137 L
3137 1052 L
3138 1021 L
3139 1149 L
3140 945 L
3141 1090 L
3142 1012 L
3143 1098 L
3144 945 L
3145 1004 L
3146 1244 L
3147 1052 L
3148 1100 L
3149 1021 L
3150 993 L
3151 1052 L
3151 1125 L
3152 1031 L
3153 911 L
3154 1024 L
3155 1010 L
3156 900 L
3157 987 L
3158 1106 L
3159 1049 L
3160 844 L
3160 1000 L
3161 1176 L
3162 1104 L
3163 1033 L
3164 1171 L
3165 1125 L
3166 1002 L
3166 1090 L
3167 1097 L
3168 1022 L
3169 1005 L
3170 1085 L
3171 1055 L
3172 1084 L
3172 1046 L
3173 1034 L
3174 962 L
3175 1027 L
3176 1070 L
3177 1080 L
3177 988 L
3178 1155 L
3179 1003 L
3180 1093 L
3181 1020 L
3181 1028 L
3182 1040 L
3183 1040 L
3184 962 L
3185 985 L
3185 1013 L
3186 1126 L
3187 1005 L
3188 981 L
3189 1014 L
3189 1031 L
3190 853 L
3191 996 L
3192 1107 L
3193 1107 L
3193 1057 L
3194 1074 L
3195 1136 L
3196 1018 L
3196 1103 L
3197 1057 L
3198 1174 L
3199 1032 L
3199 1137 L
3200 1170 L
3201 1107 L
3202 1086 L
3202 1154 L
3203 1094 L
3204 1077 L
3205 901 L
3205 988 L
3206 1004 L
3207 1057 L
3208 1014 L
3208 1051 L
3209 947 L
3210 894 L
3210 1137 L
3211 913 L
3212 1170 L
3213 963 L
3213 1066 L
3214 1018 L
3215 1001 L
3215 1028 L
3216 1020 L
3217 1005 L
3218 965 L
3218 1010 L
3219 1060 L
3220 750 L
3220 1000 L
3221 1031 L
3222 986 L
3222 1035 L
3223 985 L
3224 1015 L
3224 1072 L
3225 1119 L
3226 1105 L
3227 840 L
3227 995 L
3228 1139 L
3229 1062 L
3229 1037 L
3230 931 L
3231 1069 L
3231 1074 L
3232 1026 L
3233 1003 L
3233 1120 L
3234 1020 L
3235 951 L
3235 1020 L
3236 983 L
3236 1025 L
3237 954 L
3238 1030 L
3238 1078 L
3239 1024 L
3240 929 L
3240 1159 L
3241 876 L
3242 858 L
3242 1070 L
3243 1022 L
3244 843 L
3244 1165 L
3245 1077 L
3245 1061 L
3246 1089 L
3247 1137 L
3247 1016 L
3248 1021 L
3249 1040 L
3249 1239 L
3250 1119 L
3250 1045 L
3251 1137 L
3252 1085 L
3252 1078 L
3253 988 L
3253 1143 L
3254 1299 L
3255 1077 L
3255 1054 L
3256 876 L
3257 1050 L
3257 1106 L
3258 1168 L
3258 1064 L
3259 1135 L
3259 964 L
3260 1055 L
3261 1206 L
3261 1051 L
3262 1085 L
3262 941 L
3263 1159 L
3264 785 L
3264 1208 L
3265 921 L
3265 1095 L
3266 1208 L
3267 868 L
3267 1214 L
3268 1023 L
3268 1191 L
3269 1026 L
3269 988 L
3270 1093 L
3271 1105 L
3271 1136 L
3272 1078 L
3272 1188 L
3273 1152 L
3273 1017 L
3274 1067 L
3275 1018 L
3275 1127 L
3276 1010 L
3276 1075 L
3277 1008 L
3277 1159 L
3278 980 L
3278 1057 L
3279 1319 L
3280 1071 L
3280 998 L
3281 1070 L
3281 1199 L
3282 1119 L
3282 1139 L
3283 759 L
3283 1072 L
3284 948 L
3284 1092 L
3285 1134 L
3285 1063 L
3286 1054 L
3287 1157 L
3287 1260 L
3288 937 L
3288 1173 L
3289 1022 L
3289 991 L
3290 1064 L
3290 1141 L
3291 1043 L
3291 1127 L
3292 1122 L
3292 1024 L
3293 1097 L
3293 1037 L
3294 993 L
3294 1133 L
3295 974 L
3295 1112 L
3296 1158 L
3297 1050 L
3297 968 L
3298 923 L
3298 1187 L
3299 918 L
3299 916 L
3300 948 L
3300 1130 L
3301 967 L
3301 1138 L
3302 1036 L
3302 1179 L
3303 1094 L
3303 1131 L
3304 1132 L
3304 1152 L
3305 967 L
3305 1082 L
3306 1247 L
3306 1001 L
3307 954 L
3307 1094 L
3308 1199 L
3308 1007 L
3309 933 L
3309 1111 L
3310 1088 L
3310 1094 L
3311 1213 L
3311 1049 L
3312 1043 L
3312 1038 L
3312 1130 L
3313 1091 L
3313 1041 L
3314 1028 L
3314 1175 L
3315 1078 L
3315 1009 L
3316 984 L
3316 1011 L
3317 1246 L
3317 1154 L
3318 1013 L
3318 1156 L
3319 1202 L
3319 1106 L
3320 976 L
3320 935 L
3321 1007 L
3321 1022 L
3321 1213 L
3322 1055 L
3322 1168 L
3323 1051 L
3323 1182 L
3324 1036 L
3324 980 L
3325 986 L
3325 879 L
3326 1103 L
3326 1109 L
3327 1102 L
3327 1202 L
3327 1042 L
3328 1121 L
3328 1296 L
3329 1052 L
3329 1082 L
3330 1186 L
3330 1185 L
3331 1222 L
3331 1015 L
3332 1064 L
3332 873 L
3332 1016 L
3333 1012 L
3333 1054 L
3334 1122 L
3334 988 L
3335 1011 L
3335 1098 L
3336 1185 L
3336 989 L
3336 1116 L
3337 1157 L
3337 1180 L
3338 1106 L
3338 912 L
3339 1025 L
3339 1113 L
3339 1076 L
3340 935 L
3340 1160 L
3341 1154 L
3341 1006 L
3342 1060 L
3342 1184 L
3343 1034 L
3343 1038 L
3343 1036 L
3344 1138 L
3344 1180 L
3345 1180 L
3345 1138 L
3346 1042 L
3346 1134 L
3346 1168 L
3347 946 L
3347 1277 L
3348 1118 L
3348 1157 L
3348 1018 L
3349 1030 L
3349 1040 L
3350 1231 L
3350 1007 L
3351 1075 L
3351 994 L
3351 1096 L
3352 1071 L
3352 1064 L
3353 1027 L
3353 1012 L
3353 1084 L
3354 1157 L
3354 1068 L
3355 1179 L
3355 1158 L
3355 1171 L
3356 1040 L
3356 1025 L
3357 1183 L
3357 989 L
3358 973 L
3358 1170 L
3358 979 L
3359 962 L
3359 1053 L
3360 1037 L
3360 1167 L
3360 1019 L
3361 1071 L
3361 1099 L
3362 1101 L
3362 987 L
3362 1085 L
3363 1050 L
3363 1135 L
3364 1185 L
3364 1063 L
3364 1063 L
3365 999 L
3365 1187 L
3365 1000 L
3366 1086 L
3366 1218 L
3367 1191 L
3367 1205 L
3367 1036 L
3368 1176 L
3368 1139 L
3369 985 L
3369 1096 L
3369 998 L
3370 947 L
3370 1115 L
3371 1072 L
3371 1004 L
3371 1129 L
3372 1040 L
3372 1097 L
3372 1077 L
3373 947 L
3373 1047 L
3374 1122 L
3374 989 L
3374 1326 L
3375 1071 L
3375 1059 L
3375 1109 L
3376 1150 L
3376 1119 L
3377 1093 L
3377 1093 L
3377 975 L
3378 1043 L
3378 1112 L
3378 1151 L
3379 1181 L
3379 1022 L
3380 950 L
3380 1127 L
3380 1235 L
3381 1169 L
3381 995 L
3381 1114 L
3382 1062 L
3382 1122 L
3383 1089 L
3383 1121 L
3383 1037 L
3384 1129 L
3384 1239 L
3384 1155 L
3385 1050 L
3385 1100 L
3385 1127 L
3386 1070 L
3386 1135 L
3387 1127 L
3387 1061 L
3387 1228 L
3388 1091 L
3388 1182 L
3388 899 L
3389 1101 L
3389 1048 L
3389 1061 L
3390 1007 L
3390 1267 L
3391 1093 L
3391 1134 L
3391 1139 L
3392 1042 L
3392 1049 L
3392 1216 L
3393 1145 L
3393 810 L
3393 1112 L
3394 1062 L
3394 1060 L
3394 993 L
3395 1174 L
3395 1090 L
3395 1107 L
3396 1161 L
3396 1046 L
3396 1172 L
3397 1023 L
3397 1024 L
3398 964 L
3398 1165 L
3398 1035 L
3399 1049 L
3399 1089 L
3399 1038 L
3400 1020 L
3400 1074 L
3400 1043 L
3401 1153 L
3401 1197 L
3401 1143 L
3402 987 L
3402 1207 L
3402 1061 L
3403 1260 L
3403 1095 L
3403 1097 L
3404 1149 L
3404 1036 L
3404 999 L
3405 1255 L
3405 1002 L
3405 1112 L
3406 1129 L
3406 1144 L
3406 1126 L
3407 1126 L
3407 1262 L
3407 920 L
3408 897 L
3408 894 L
3408 1105 L
3409 1058 L
3409 1034 L
3409 1086 L
3410 1086 L
3410 1149 L
3410 1276 L
3411 1112 L
3411 1183 L
3411 1147 L
3412 1015 L
3412 1006 L
3412 1204 L
3413 1236 L
3413 1096 L
3413 1101 L
3414 1169 L
3414 1153 L
3414 1074 L
3415 1168 L
3415 1044 L
3415 1247 L
3416 1122 L
3416 1015 L
3416 908 L
3417 1217 L
3417 1233 L
3417 1117 L
3417 980 L
3418 1110 L
3418 1161 L
3418 1008 L
3419 1118 L
3419 1244 L
3419 938 L
3420 1144 L
3420 1101 L
3420 1092 L
3421 1151 L
3421 1060 L
3421 1085 L
3422 1072 L
3422 1236 L
3422 955 L
3423 999 L
3423 1171 L
3423 1090 L
3423 1201 L
3424 1154 L
3424 1153 L
3424 948 L
3425 1070 L
3425 1209 L
3425 1135 L
3426 1252 L
3426 1270 L
3426 1317 L
3427 952 L
3427 1143 L
3427 985 L
3428 961 L
3428 1023 L
3428 1091 L
3428 1220 L
3429 922 L
3429 1133 L
3429 1201 L
3430 1308 L
3430 1002 L
3430 1022 L
3431 956 L
3431 1011 L
3431 1171 L
3431 1084 L
3432 1064 L
3432 1044 L
3432 1127 L
3433 1188 L
3433 1210 L
3433 1168 L
3434 1101 L
3434 1172 L
3434 1090 L
3434 1071 L
3435 1016 L
3435 1045 L
3435 1139 L
3436 1182 L
3436 1241 L
3436 1112 L
3437 1151 L
3437 1119 L
3437 1143 L
3437 1032 L
3438 1031 L
3438 1021 L
3438 1116 L
3439 1022 L
3439 1062 L
3439 1115 L
3440 1211 L
3440 1173 L
3440 1168 L
3440 1113 L
3441 1195 L
3441 1154 L
3441 1082 L
3442 1084 L
3442 1076 L
3442 1176 L
3442 1103 L
3443 1225 L
3443 1309 L
3443 1107 L
3444 1159 L
3444 1127 L
3444 1130 L
3444 1293 L
3445 1098 L
3445 1087 L
3445 1207 L
3446 1041 L
3446 1035 L
3446 1166 L
3446 1090 L
3447 891 L
3447 1045 L
3447 1242 L
3448 1102 L
3448 1102 L
3448 1056 L
3448 1057 L
3449 1102 L
3449 1091 L
3449 1051 L
3450 1058 L
3450 1239 L
3450 1164 L
3450 1100 L
3451 1143 L
3451 1112 L
3451 1014 L
3452 1099 L
3452 1111 L
3452 956 L
3452 1126 L
3453 1324 L
3453 1266 L
3453 1361 L
3454 1046 L
3454 1066 L
3454 999 L
3454 1090 L
3455 1008 L
3455 1057 L
3455 995 L
3455 1160 L
3456 1013 L
3456 1052 L
3456 1062 L
3457 1295 L
3457 1138 L
3457 954 L
3457 968 L
3458 911 L
3458 1128 L
3458 1067 L
3458 1237 L
3459 1049 L
3459 1049 L
3459 1002 L
3460 1117 L
3460 1033 L
3460 1022 L
3460 1291 L
3461 1121 L
3461 1220 L
3461 1034 L
3461 1418 L
3462 1069 L
3462 1220 L
3462 1136 L
3463 1012 L
3463 990 L
3463 1055 L
3463 1085 L
3464 917 L
3464 1026 L
3464 1111 L
3464 1191 L
3465 1100 L
3465 1049 L
3465 1104 L
3465 1167 L
3466 887 L
3466 1057 L
3466 1205 L
3466 1185 L
3467 927 L
3467 1187 L
3467 1059 L
3468 1077 L
3468 1220 L
3468 1189 L
3468 1152 L
3469 983 L
3469 1062 L
3469 1075 L
3469 1094 L
3470 1184 L
3470 1193 L
3470 1088 L
3470 1078 L
3471 1065 L
3471 1447 L
3471 1095 L
3471 1048 L
3472 1084 L
3472 1329 L
3472 1383 L
3472 1076 L
3473 1062 L
3473 1189 L
3473 1253 L
3474 1133 L
3474 1201 L
3474 1175 L
3474 984 L
3475 1104 L
3475 1103 L
3475 1149 L
3475 1221 L
3476 1012 L
3476 1224 L
3476 1108 L
3476 1245 L
3477 1138 L
3477 1342 L
3477 1158 L
3477 1112 L
3478 1061 L
3478 1283 L
3478 1199 L
3478 1043 L
3479 1261 L
3479 1046 L
3479 1243 L
3479 1193 L
3480 1060 L
3480 1112 L
3480 1139 L
3480 1056 L
3481 1246 L
3481 1065 L
3481 1129 L
3481 1162 L
3482 1002 L
3482 1174 L
3482 1192 L
3482 1218 L
3483 1069 L
3483 1201 L
3483 1162 L
3483 1237 L
3484 1176 L
3484 1174 L
3484 1254 L
3484 1105 L
3485 1195 L
3485 1139 L
3485 985 L
3485 914 L
3486 992 L
3486 1062 L
3486 1137 L
3486 1009 L
3487 1062 L
3487 1150 L
3487 1203 L
3487 1164 L
3488 1160 L
3488 1190 L
3488 1261 L
3488 1291 L
3488 1174 L
3489 1115 L
3489 1060 L
3489 1080 L
3489 1194 L
3490 1230 L
3490 1124 L
3490 1093 L
3490 864 L
3491 1114 L
3491 1199 L
3491 1031 L
3491 1156 L
3492 1167 L
3492 1091 L
3492 1183 L
3492 1072 L
3493 1025 L
3493 1106 L
3493 1005 L
3493 1117 L
3494 1169 L
3494 1111 L
3494 1126 L
3494 1096 L
3494 1300 L
3495 1131 L
3495 940 L
3495 1234 L
3495 1213 L
3496 1113 L
3496 1265 L
3496 1070 L
3496 1045 L
3497 1225 L
3497 1075 L
3497 931 L
3497 1066 L
3498 1165 L
3498 997 L
3498 1306 L
3498 1045 L
3498 1126 L
3499 1171 L
3499 1222 L
3499 1212 L
3499 1104 L
3500 992 L
3500 1278 L
3506 1042 L
3511 1079 L
3517 1221 L
3522 1085 L
3527 1239 L
3532 1109 L
3537 1148 L
3542 1071 L
3547 1242 L
3552 1213 L
3557 1058 L
3561 1159 L
3566 1149 L
3570 1257 L
3575 1199 L
3579 1233 L
3583 1321 L
3587 1126 L
3591 1183 L
3595 1308 L
3599 1314 L
3603 1152 L
3607 1082 L
3611 1162 L
3614 1017 L
3618 1203 L
3622 1276 L
3625 1309 L
3629 1125 L
3632 1194 L
3636 1110 L
3639 1166 L
3642 1261 L
3646 1101 L
3649 1364 L
3652 968 L
3655 1053 L
3658 1235 L
3661 1295 L
3664 1203 L
3667 954 L
3670 1278 L
3673 1225 L
3676 1340 L
3679 1259 L
3682 1263 L
3685 1162 L
3688 1181 L
3690 984 L
3693 1066 L
3696 1298 L
3698 1040 L
3701 1229 L
3704 1057 L
3706 1227 L
3709 1034 L
3711 1316 L
3714 1207 L
3716 1168 L
3719 1232 L
3721 1128 L
3724 959 L
3726 1096 L
3728 1221 L
3731 1212 L
3733 1096 L
3735 1263 L
3738 1091 L
3740 1087 L
3742 1242 L
3744 1412 L
3747 1201 L
3749 1006 L
3751 1205 L
3753 1230 L
3755 925 L
3757 970 L
3760 1354 L
3762 1108 L
3764 999 L
3766 1304 L
3768 1155 L
3770 1029 L
3772 1304 L
3774 1259 L
3776 1117 L
3778 1181 L
3780 1252 L
3781 1087 L
3783 1202 L
3785 1109 L
3787 1333 L
3789 1083 L
3791 1261 L
3793 1155 L
3795 1228 L
3796 1249 L
3798 1098 L
3800 1076 L
3802 1179 L
3803 1259 L
3805 1086 L
3807 1265 L
3809 1233 L
3810 1271 L
3812 1270 L
3814 1139 L
3816 1198 L
3817 1236 L
3819 1169 L
3820 929 L
3822 1292 L
3824 874 L
3825 1266 L
3827 1122 L
3829 1091 L
3830 1122 L
3832 1193 L
3833 1312 L
3835 1326 L
3836 968 L
3838 1227 L
3839 1155 L
3841 1272 L
3842 1010 L
3844 1165 L
3845 1183 L
3847 1028 L
3848 1385 L
3850 1337 L
3851 1166 L
3853 1106 L
3854 1165 L
3856 1163 L
3857 1191 L
3859 1219 L
3860 1200 L
3861 1022 L
3863 1178 L
3864 1192 L
3866 1083 L
3867 1064 L
3868 1438 L
3870 1077 L
3871 1140 L
3872 1215 L
3874 1191 L
3875 1196 L
3876 1091 L
3878 1156 L
3879 1328 L
3880 1115 L
3882 964 L
3883 1031 L
3884 1229 L
3885 1283 L
3887 1113 L
3888 1288 L
3889 1215 L
3890 1127 L
3892 1275 L
3893 1266 L
3894 1181 L
3895 1287 L
3897 1105 L
3898 1107 L
3899 1286 L
3900 1351 L
3901 1050 L
3903 1118 L
3904 1406 L
3905 1190 L
3906 1084 L
3907 1391 L
3908 1213 L
3910 1159 L
3911 1229 L
3912 1117 L
3913 1081 L
3914 1177 L
3915 1042 L
3917 1130 L
3918 1216 L
3919 1102 L
3920 1082 L
3921 956 L
3922 980 L
3923 1149 L
3924 1248 L
3925 1152 L
3926 1057 L
3928 1017 L
3929 1215 L
3930 1056 L
3931 1146 L
3932 1009 L
3933 1075 L
3934 1087 L
3935 1204 L
3936 1034 L
3937 1164 L
3938 1279 L
3939 1312 L
3940 1157 L
3941 1075 L
3942 1354 L
3943 1162 L
3944 1237 L
3945 1113 L
3946 1148 L
3947 804 L
3948 1152 L
3949 1197 L
3950 1243 L
3951 1224 L
3952 1029 L
3953 1200 L
3954 1198 L
3955 1314 L
3956 1152 L
3957 1055 L
3958 1180 L
3959 1201 L
3960 1130 L
3961 1153 L
3962 1172 L
3963 1243 L
3964 1055 L
3965 1063 L
3966 1062 L
3966 998 L
3967 1250 L
3968 1367 L
3969 1241 L
3970 1083 L
3971 1116 L
3972 973 L
3973 1293 L
3974 1213 L
3975 1045 L
3976 1061 L
3976 1223 L
3977 1115 L
3978 1103 L
3979 1137 L
3980 1189 L
3981 991 L
3982 1038 L
3983 1308 L
3983 1243 L
3984 1289 L
3985 1087 L
3986 1167 L
3987 1202 L
3988 1091 L
3989 1385 L
3989 995 L
3990 1160 L
3991 1119 L
3992 1304 L
3993 1136 L
3994 1236 L
3995 988 L
3995 1147 L
3996 1284 L
3997 1245 L
3998 1267 L
3999 1269 L
3999 1020 L
4000 1087 L
4001 845 L
4002 1094 L
4003 1048 L
4003 1019 L
4004 1216 L
4005 1051 L
4006 1223 L
4007 1203 L
4007 1058 L
4008 1168 L
4009 1042 L
4010 1247 L
4011 1065 L
4011 997 L
4012 1065 L
4013 1143 L
4014 1107 L
4014 1237 L
4015 1112 L
4016 1135 L
4017 1171 L
4017 1186 L
4018 1043 L
4019 1133 L
4020 1465 L
4021 1138 L
4021 1102 L
4022 1173 L
4023 1035 L
4023 1135 L
4024 1078 L
4025 925 L
4026 1101 L
4026 1245 L
4027 1226 L
4028 1074 L
4029 1119 L
4029 1217 L
4030 1143 L
4031 1043 L
4032 1068 L
4032 1569 L
4033 1054 L
4034 1215 L
4034 1000 L
4035 1216 L
4036 1162 L
4036 1165 L
4037 1024 L
4038 1089 L
4039 1242 L
4039 986 L
4040 1353 L
4041 1221 L
4041 1043 L
4042 1215 L
4043 1090 L
4043 1190 L
4044 1195 L
4045 1128 L
4045 1247 L
4046 1211 L
4047 1026 L
4047 1269 L
4048 1225 L
4049 1204 L
4050 996 L
4050 967 L
4051 1240 L
4052 1061 L
4052 1208 L
4053 1102 L
4053 1336 L
4054 1089 L
4055 1143 L
4055 1070 L
4056 1079 L
4057 974 L
4057 1279 L
4058 1026 L
4059 1339 L
4059 1155 L
4060 1089 L
4061 1234 L
4061 992 L
4062 1103 L
L2 C04 COSGR

%
% Main frame
%
L10
GSN 
620 1700 M
4220 1700 L
4220 5300 L
620 5300 L
closepath SGR

%
% X axis: large tics
%
L10
GSN 1130 1700 M 0  54 rL SGR
GSN 1130 5300 M 0 -54 rL SGR
helvS (0.0001) 1130 470 xlabel
GSN 1716 1700 M 0  54 rL SGR
GSN 1716 5300 M 0 -54 rL SGR
helvS (0.001) 1716 470 xlabel
GSN 2303 1700 M 0  54 rL SGR
GSN 2303 5300 M 0 -54 rL SGR
helvS (0.01) 2303 470 xlabel
GSN 2889 1700 M 0  54 rL SGR
GSN 2889 5300 M 0 -54 rL SGR
helvS (0.1) 2889 470 xlabel
GSN 3476 1700 M 0  54 rL SGR
GSN 3476 5300 M 0 -54 rL SGR
helvS (1) 3476 470 xlabel
GSN 4062 1700 M 0  54 rL SGR
GSN 4062 5300 M 0 -54 rL SGR
helvS (10) 4062 470 xlabel
%
% X axis: small tics
%
L5
GSN 720 1700 M 0  36 rL SGR
GSN 720 5300 M 0 -36 rL SGR
GSN 824 1700 M 0  36 rL SGR
GSN 824 5300 M 0 -36 rL SGR
GSN 897 1700 M 0  36 rL SGR
GSN 897 5300 M 0 -36 rL SGR
GSN 954 1700 M 0  36 rL SGR
GSN 954 5300 M 0 -36 rL SGR
GSN 1000 1700 M 0  36 rL SGR
GSN 1000 5300 M 0 -36 rL SGR
GSN 1039 1700 M 0  36 rL SGR
GSN 1039 5300 M 0 -36 rL SGR
GSN 1073 1700 M 0  36 rL SGR
GSN 1073 5300 M 0 -36 rL SGR
GSN 1103 1700 M 0  36 rL SGR
GSN 1103 5300 M 0 -36 rL SGR
GSN 1307 1700 M 0  36 rL SGR
GSN 1307 5300 M 0 -36 rL SGR
GSN 1410 1700 M 0  36 rL SGR
GSN 1410 5300 M 0 -36 rL SGR
GSN 1483 1700 M 0  36 rL SGR
GSN 1483 5300 M 0 -36 rL SGR
GSN 1540 1700 M 0  36 rL SGR
GSN 1540 5300 M 0 -36 rL SGR
GSN 1586 1700 M 0  36 rL SGR
GSN 1586 5300 M 0 -36 rL SGR
GSN 1626 1700 M 0  36 rL SGR
GSN 1626 5300 M 0 -36 rL SGR
GSN 1660 1700 M 0  36 rL SGR
GSN 1660 5300 M 0 -36 rL SGR
GSN 1690 1700 M 0  36 rL SGR
GSN 1690 5300 M 0 -36 rL SGR
GSN 1893 1700 M 0  36 rL SGR
GSN 1893 5300 M 0 -36 rL SGR
GSN 1996 1700 M 0  36 rL SGR
GSN 1996 5300 M 0 -36 rL SGR
GSN 2069 1700 M 0  36 rL SGR
GSN 2069 5300 M 0 -36 rL SGR
GSN 2126 1700 M 0  36 rL SGR
GSN 2126 5300 M 0 -36 rL SGR
GSN 2173 1700 M 0  36 rL SGR
GSN 2173 5300 M 0 -36 rL SGR
GSN 2212 1700 M 0  36 rL SGR
GSN 2212 5300 M 0 -36 rL SGR
GSN 2246 1700 M 0  36 rL SGR
GSN 2246 5300 M 0 -36 rL SGR
GSN 2276 1700 M 0  36 rL SGR
GSN 2276 5300 M 0 -36 rL SGR
GSN 2479 1700 M 0  36 rL SGR
GSN 2479 5300 M 0 -36 rL SGR
GSN 2583 1700 M 0  36 rL SGR
GSN 2583 5300 M 0 -36 rL SGR
GSN 2656 1700 M 0  36 rL SGR
GSN 2656 5300 M 0 -36 rL SGR
GSN 2713 1700 M 0  36 rL SGR
GSN 2713 5300 M 0 -36 rL SGR
GSN 2759 1700 M 0  36 rL SGR
GSN 2759 5300 M 0 -36 rL SGR
GSN 2798 1700 M 0  36 rL SGR
GSN 2798 5300 M 0 -36 rL SGR
GSN 2832 1700 M 0  36 rL SGR
GSN 2832 5300 M 0 -36 rL SGR
GSN 2862 1700 M 0  36 rL SGR
GSN 2862 5300 M 0 -36 rL SGR
GSN 3066 1700 M 0  36 rL SGR
GSN 3066 5300 M 0 -36 rL SGR
GSN 3169 1700 M 0  36 rL SGR
GSN 3169 5300 M 0 -36 rL SGR
GSN 3242 1700 M 0  36 rL SGR
GSN 3242 5300 M 0 -36 rL SGR
GSN 3299 1700 M 0  36 rL SGR
GSN 3299 5300 M 0 -36 rL SGR
GSN 3345 1700 M 0  36 rL SGR
GSN 3345 5300 M 0 -36 rL SGR
GSN 3385 1700 M 0  36 rL SGR
GSN 3385 5300 M 0 -36 rL SGR
GSN 3419 1700 M 0  36 rL SGR
GSN 3419 5300 M 0 -36 rL SGR
GSN 3449 1700 M 0  36 rL SGR
GSN 3449 5300 M 0 -36 rL SGR
GSN 3652 1700 M 0  36 rL SGR
GSN 3652 5300 M 0 -36 rL SGR
GSN 3755 1700 M 0  36 rL SGR
GSN 3755 5300 M 0 -36 rL SGR
GSN 3829 1700 M 0  36 rL SGR
GSN 3829 5300 M 0 -36 rL SGR
GSN 3885 1700 M 0  36 rL SGR
GSN 3885 5300 M 0 -36 rL SGR
GSN 3932 1700 M 0  36 rL SGR
GSN 3932 5300 M 0 -36 rL SGR
GSN 3971 1700 M 0  36 rL SGR
GSN 3971 5300 M 0 -36 rL SGR
GSN 4005 1700 M 0  36 rL SGR
GSN 4005 5300 M 0 -36 rL SGR
GSN 4035 1700 M 0  36 rL SGR
GSN 4035 5300 M 0 -36 rL SGR
%
% Y axis: large tics
%
L10
GSN 620 2339 M 54 0 rL SGR
GSN 4220 2339 M -54 0 rL SGR
helvS (1) 560 2339 ylabel
GSN 620 3115 M 54 0 rL SGR
GSN 4220 3115 M -54 0 rL SGR
helvS (1.02) 560 3115 ylabel
GSN 620 3891 M 54 0 rL SGR
GSN 4220 3891 M -54 0 rL SGR
helvS (1.04) 560 3891 ylabel
GSN 620 4667 M 54 0 rL SGR
GSN 4220 4667 M -54 0 rL SGR
helvS (1.06) 560 4667 ylabel
%
% Y axis: small tics
%
L5
GSN 620 1757 M 36 0 rL SGR
GSN 4220 1757 M -36 0 rL SGR
GSN 620 1951 M 36 0 rL SGR
GSN 4220 1951 M -36 0 rL SGR
GSN 620 2145 M 36 0 rL SGR
GSN 4220 2145 M -36 0 rL SGR
GSN 620 2339 M 36 0 rL SGR
GSN 4220 2339 M -36 0 rL SGR
GSN 620 2533 M 36 0 rL SGR
GSN 4220 2533 M -36 0 rL SGR
GSN 620 2727 M 36 0 rL SGR
GSN 4220 2727 M -36 0 rL SGR
GSN 620 2921 M 36 0 rL SGR
GSN 4220 2921 M -36 0 rL SGR
GSN 620 3115 M 36 0 rL SGR
GSN 4220 3115 M -36 0 rL SGR
GSN 620 3309 M 36 0 rL SGR
GSN 4220 3309 M -36 0 rL SGR
GSN 620 3503 M 36 0 rL SGR
GSN 4220 3503 M -36 0 rL SGR
GSN 620 3697 M 36 0 rL SGR
GSN 4220 3697 M -36 0 rL SGR
GSN 620 3891 M 36 0 rL SGR
GSN 4220 3891 M -36 0 rL SGR
GSN 620 4085 M 36 0 rL SGR
GSN 4220 4085 M -36 0 rL SGR
GSN 620 4279 M 36 0 rL SGR
GSN 4220 4279 M -36 0 rL SGR
GSN 620 4473 M 36 0 rL SGR
GSN 4220 4473 M -36 0 rL SGR
GSN 620 4667 M 36 0 rL SGR
GSN 4220 4667 M -36 0 rL SGR
GSN 620 4861 M 36 0 rL SGR
GSN 4220 4861 M -36 0 rL SGR
GSN 620 5055 M 36 0 rL SGR
GSN 4220 5055 M -36 0 rL SGR
GSN 620 5249 M 36 0 rL SGR
GSN 4220 5249 M -36 0 rL SGR

%
% X-Axis label:
%
gsave 2420 290 M 
[
[(Helvetica) 180 0 true true 0 (t)]
[(Helvetica) 180 0 true true 0 (i)]
[(Helvetica) 180 0 true true 0 (m)]
[(Helvetica) 180 0 true true 0 (e)]
] 0 MCshow grestore

%
% Y-Axis label:
%
gsave 234 3500 M 
currentpoint gsave translate 90 rotate 0 0 moveto
[
[(Helvetica) 180 0 true true 0 (s)]
[(Helvetica) 180 0 true true 0 (i)]
[(Helvetica) 180 0 true true 0 (g)]
[(Helvetica) 180 0 true true 0 (n)]
[(Helvetica) 180 0 true true 0 (a)]
[(Helvetica) 180 0 true true 0 (l)]
] 0 MCshow grestore

%
% Residuals:
%
gsave 129 1160 M 
currentpoint gsave translate 90 rotate 0 0 moveto
[
[(Helvetica) 150 0 true true 0 (r)]
[(Helvetica) 150 0 true true 0 (e)]
[(Helvetica) 150 0 true true 0 (s)]
[(Helvetica) 150 0 true true 0 (i)]
[(Helvetica) 150 0 true true 0 (d)]
[(Helvetica) 150 0 true true 0 (u)]
[(Helvetica) 150 0 true true 0 (a)]
[(Helvetica) 150 0 true true 0 (l)]
[(Helvetica) 150 0 true true 0 (s)]
] 0 MCshow grestore

%
% Residual frame
%
L10
GSN 
620 620 M
4220 620 L
4220 1700 L
620 1700 L
closepath SGR
%
% X axis: large tics - residual frame
%
L10
GSN 1130 620 M 0  54 rL SGR
GSN 1130 1700 M 0 -54 rL SGR
GSN 1716 620 M 0  54 rL SGR
GSN 1716 1700 M 0 -54 rL SGR
GSN 2303 620 M 0  54 rL SGR
GSN 2303 1700 M 0 -54 rL SGR
GSN 2889 620 M 0  54 rL SGR
GSN 2889 1700 M 0 -54 rL SGR
GSN 3476 620 M 0  54 rL SGR
GSN 3476 1700 M 0 -54 rL SGR
GSN 4062 620 M 0  54 rL SGR
GSN 4062 1700 M 0 -54 rL SGR
%
% X axis: small tics - residual frame
%
L5
GSN 720 620 M 0  36 rL SGR
GSN 720 1700 M 0 -36 rL SGR
GSN 824 620 M 0  36 rL SGR
GSN 824 1700 M 0 -36 rL SGR
GSN 897 620 M 0  36 rL SGR
GSN 897 1700 M 0 -36 rL SGR
GSN 954 620 M 0  36 rL SGR
GSN 954 1700 M 0 -36 rL SGR
GSN 1000 620 M 0  36 rL SGR
GSN 1000 1700 M 0 -36 rL SGR
GSN 1039 620 M 0  36 rL SGR
GSN 1039 1700 M 0 -36 rL SGR
GSN 1073 620 M 0  36 rL SGR
GSN 1073 1700 M 0 -36 rL SGR
GSN 1103 620 M 0  36 rL SGR
GSN 1103 1700 M 0 -36 rL SGR
GSN 1307 620 M 0  36 rL SGR
GSN 1307 1700 M 0 -36 rL SGR
GSN 1410 620 M 0  36 rL SGR
GSN 1410 1700 M 0 -36 rL SGR
GSN 1483 620 M 0  36 rL SGR
GSN 1483 1700 M 0 -36 rL SGR
GSN 1540 620 M 0  36 rL SGR
GSN 1540 1700 M 0 -36 rL SGR
GSN 1586 620 M 0  36 rL SGR
GSN 1586 1700 M 0 -36 rL SGR
GSN 1626 620 M 0  36 rL SGR
GSN 1626 1700 M 0 -36 rL SGR
GSN 1660 620 M 0  36 rL SGR
GSN 1660 1700 M 0 -36 rL SGR
GSN 1690 620 M 0  36 rL SGR
GSN 1690 1700 M 0 -36 rL SGR
GSN 1893 620 M 0  36 rL SGR
GSN 1893 1700 M 0 -36 rL SGR
GSN 1996 620 M 0  36 rL SGR
GSN 1996 1700 M 0 -36 rL SGR
GSN 2069 620 M 0  36 rL SGR
GSN 2069 1700 M 0 -36 rL SGR
GSN 2126 620 M 0  36 rL SGR
GSN 2126 1700 M 0 -36 rL SGR
GSN 2173 620 M 0  36 rL SGR
GSN 2173 1700 M 0 -36 rL SGR
GSN 2212 620 M 0  36 rL SGR
GSN 2212 1700 M 0 -36 rL SGR
GSN 2246 620 M 0  36 rL SGR
GSN 2246 1700 M 0 -36 rL SGR
GSN 2276 620 M 0  36 rL SGR
GSN 2276 1700 M 0 -36 rL SGR
GSN 2479 620 M 0  36 rL SGR
GSN 2479 1700 M 0 -36 rL SGR
GSN 2583 620 M 0  36 rL SGR
GSN 2583 1700 M 0 -36 rL SGR
GSN 2656 620 M 0  36 rL SGR
GSN 2656 1700 M 0 -36 rL SGR
GSN 2713 620 M 0  36 rL SGR
GSN 2713 1700 M 0 -36 rL SGR
GSN 2759 620 M 0  36 rL SGR
GSN 2759 1700 M 0 -36 rL SGR
GSN 2798 620 M 0  36 rL SGR
GSN 2798 1700 M 0 -36 rL SGR
GSN 2832 620 M 0  36 rL SGR
GSN 2832 1700 M 0 -36 rL SGR
GSN 2862 620 M 0  36 rL SGR
GSN 2862 1700 M 0 -36 rL SGR
GSN 3066 620 M 0  36 rL SGR
GSN 3066 1700 M 0 -36 rL SGR
GSN 3169 620 M 0  36 rL SGR
GSN 3169 1700 M 0 -36 rL SGR
GSN 3242 620 M 0  36 rL SGR
GSN 3242 1700 M 0 -36 rL SGR
GSN 3299 620 M 0  36 rL SGR
GSN 3299 1700 M 0 -36 rL SGR
GSN 3345 620 M 0  36 rL SGR
GSN 3345 1700 M 0 -36 rL SGR
GSN 3385 620 M 0  36 rL SGR
GSN 3385 1700 M 0 -36 rL SGR
GSN 3419 620 M 0  36 rL SGR
GSN 3419 1700 M 0 -36 rL SGR
GSN 3449 620 M 0  36 rL SGR
GSN 3449 1700 M 0 -36 rL SGR
GSN 3652 620 M 0  36 rL SGR
GSN 3652 1700 M 0 -36 rL SGR
GSN 3755 620 M 0  36 rL SGR
GSN 3755 1700 M 0 -36 rL SGR
GSN 3829 620 M 0  36 rL SGR
GSN 3829 1700 M 0 -36 rL SGR
GSN 3885 620 M 0  36 rL SGR
GSN 3885 1700 M 0 -36 rL SGR
GSN 3932 620 M 0  36 rL SGR
GSN 3932 1700 M 0 -36 rL SGR
GSN 3971 620 M 0  36 rL SGR
GSN 3971 1700 M 0 -36 rL SGR
GSN 4005 620 M 0  36 rL SGR
GSN 4005 1700 M 0 -36 rL SGR
GSN 4035 620 M 0  36 rL SGR
GSN 4035 1700 M 0 -36 rL SGR
%
% Y axis: large tics - residual frame
%
L10
GSN 620 713 M 54 0 rL SGR
GSN 4220 713 M -54 0 rL SGR
helvS (-0.01) 560 713 ylabelresid
GSN 620 1106 M 54 0 rL SGR
GSN 4220 1106 M -54 0 rL SGR
helvS (0) 560 1106 ylabelresid
GSN 620 1498 M 54 0 rL SGR
GSN 4220 1498 M -54 0 rL SGR
helvS (0.01) 560 1498 ylabelresid

%
% X axis - residual panel
%
GSN L5 620 1106 M 4220 1106 L SDA G50 SGR

end
showpage
%%Trailer
%%EOF
