%!PS-Adobe-3.0 EPSF-3.0
%%BoundingBox: 0 0 514 442
%%Creator: BioKin Ltd.
%%DocumentFonts: Symbol Helvetica
%%EndComments
%
/bkdict 256 dict def
bkdict begin
/M {moveto} def 
/R {rmoveto} def
/L {lineto} def
/rL {rlineto} def
/GSN {gsave newpath} def
/SGR {stroke grestore} def
/COSGR {gsave setrgbcolor stroke grestore grestore} def
/SL {setlinewidth} def
/LWMB {12} def             % line width - model curves, black & white
/LWMC {10} def             % line width - model curves, color
/L2 {2.5 setlinewidth} def
/L5 {5 setlinewidth} def
/L10 {10 setlinewidth} def
/G50 {0.5 setgray} def
/SDA {[10  20] 0 setdash} def % axes
/helvT {/Helvetica findfont 100 scalefont setfont} def % tiny
/helvS {/Helvetica findfont 125 scalefont setfont} def % small
/helvM {/Helvetica findfont 150 scalefont setfont} def % medium
/helvL {/Helvetica findfont 175 scalefont setfont} def % large
/xlabel {gsave M dup
   stringwidth exch -0.5 mul exch rmoveto show grestore} def 
/ylabel {gsave M 90 rotate dup
   stringwidth exch -0.5 mul exch rmoveto show grestore} def
/ylabelresid {gsave M dup
   stringwidth exch -1 mul exch rmoveto show grestore} def
% ======
% Shapes
% ======
% Circle:
/Circ {0 360 arc closepath} def
%
% Square:
/Squa {dup dup -0.5 mul dup dup R -2 mul 0 exch rL 1 mul 0 rL dup 0 exch -1 mul rL closepath} def
%
% Triangle Up:
/TriU {dup dup dup -0.4 mul exch -0.5 mul exch R dup 0.5 mul exch rL dup -1 mul exch 0.5 mul exch rL closepath} def 
%
% Triangle Down:
/TriD {dup dup dup 0.4 mul exch -0.5 mul exch R dup 0.5 mul exch -1 mul rL dup 0.5 mul exch rL closepath} def 
%
% Diamond:
/Diam {45 rotate Squa} def
% ======
% Fills
% ======
/GRF {gsave setgray fill grestore} def                    % gray-level Fill
/COF {gsave setrgbcolor fill grestore} def                % color fill
% ======
% Colors
% ======
/C01 {1.00	0.00	0.00} def      % Red
/C02 {0.00	0.00	1.00} def      % Blue
/C03 {0.00	0.39	0.00} def      % Dark Green
/C04 {0.78	0.08	0.52} def      % Medium Violet Red
/C05 {0.55	0.27	0.07} def      % Saddle Brown
/C06 {0.10	0.70	0.70} def      % (cyan)
/C07 {1.00	0.55	0.00} def      % Dark Orange
/C08 {0.63	0.13	0.94} def      % Purple
/C09 {0.00	0.75	1.00} def      % Deep Sky Blue
/C10 {0.20	0.80	0.20} def      % Lime Green
/C11 {0.47	0.53	0.60} def      % Light Slate Gray
/C12 {0.00	0.00	0.00} def      % Black            % or: {0.19	0.31	0.31} def      % Dark Slate Gray
%
/LGR {0.75} def % light gray
/DGR {0.33} def % dark gray
%
% =============
% Dash patterns
% =============
/dash01 { [80  20] 0 setdash } def
/dash02 { [40  20] 0 setdash } def
/dash03 { [80  20  10  20] 0 setdash } def
/dash04 { [40  20  10  20] 0 setdash } def
/dash05 { [80  20  10  10  10  20] 0 setdash } def
/dash06 { [40  20  10  10  10  20] 0 setdash } def
/dash07 { [10  10] 0 setdash } def
%
/MFshow {
   { dup 5 get 3 ge
     { 5 get 3 eq {gsave} {grestore} ifelse }
     {dup dup 0 get findfont exch 1 get scalefont setfont
     [ currentpoint ] exch dup 2 get 0 exch R dup 5 get 2 ne {dup dup 6
     get exch 4 get {show} {stringwidth pop 0 R} ifelse }if dup 5 get 0 eq
     {dup 3 get {2 get neg 0 exch R pop} {pop aload pop M} ifelse} {dup 5
     get 1 eq {dup 2 get exch dup 3 get exch 6 get stringwidth pop -2 div
     dup 0 R} {dup 6 get stringwidth pop -2 div 0 R 6 get
     show 2 index {aload pop M neg 3 -1 roll neg R pop pop} {pop pop pop
     pop aload pop M} ifelse }ifelse }ifelse }
     ifelse }
   forall} bind def
/MFwidth {0 exch {dup 3 get{dup dup 0 get findfont exch 1 get scalefont
     setfont 6 get stringwidth pop add} {pop} ifelse} forall} bind def
/MCshow { currentpoint stroke M
  exch dup MFwidth -2 div 3 -1 roll R MFshow } def
%
end
%%EndProlog
bkdict begin
0.1 0.1 scale
%
% Model curves:
%

GSN 753 3616 M
770 3616 L
803 3616 L
837 3616 L
870 3617 L
903 3617 L
924 3617 L
941 3618 L
970 3618 L
1003 3618 L
1037 3619 L
1070 3619 L
1096 3620 L
1113 3620 L
1137 3621 L
1170 3622 L
1203 3623 L
1237 3624 L
1268 3625 L
1284 3626 L
1303 3627 L
1337 3628 L
1370 3630 L
1403 3632 L
1437 3635 L
1456 3637 L
1473 3638 L
1503 3640 L
1537 3644 L
1570 3648 L
1603 3652 L
1628 3657 L
1644 3660 L
1670 3663 L
1703 3669 L
1737 3677 L
1770 3685 L
1799 3694 L
1816 3701 L
1837 3704 L
1870 3715 L
1903 3727 L
1937 3740 L
1970 3755 L
1987 3771 L
2004 3772 L
2037 3788 L
2070 3806 L
2103 3826 L
2137 3847 L
2159 3869 L
2176 3877 L
2203 3891 L
2237 3914 L
2270 3936 L
2303 3958 L
2331 3980 L
2347 3993 L
2370 4000 L
2403 4018 L
2437 4034 L
2470 4048 L
2503 4059 L
2519 4068 L
2537 4068 L
2570 4075 L
2603 4079 L
2637 4082 L
2670 4084 L
2690 4085 L
2707 4085 L
2737 4086 L
2770 4086 L
2803 4086 L
2837 4086 L
2862 4086 L
2879 4086 L
2903 4086 L
2937 4086 L
2970 4086 L
3003 4086 L
3034 4086 L
3050 4086 L
3070 4086 L
3103 4086 L
3137 4086 L
3170 4086 L
3203 4086 L
3222 4086 L
3239 4086 L
3270 4086 L
3303 4086 L
3337 4086 L
3370 4086 L
3393 4086 L
3410 4086 L
3437 4086 L
3464 4086 L
3481 4086 L
3503 4086 L
3537 4086 L
3565 4086 L
3582 4086 L
3603 4086 L
3637 4086 L
3670 4086 L
3703 4086 L
3737 4086 L
3753 4086 L
3770 4086 L
3803 4086 L
3837 4086 L
3870 4086 L
3903 4086 L
3925 4086 L
3942 4086 L
3970 4086 L
4003 4086 L
4037 4086 L
4070 4086 L
4086 4086 L
LWMC SL dash01 C01 COSGR

GSN 753 3143 M
770 3143 L
803 3143 L
837 3143 L
870 3144 L
903 3145 L
924 3145 L
941 3146 L
970 3146 L
1003 3147 L
1037 3148 L
1070 3149 L
1096 3151 L
1113 3152 L
1137 3152 L
1170 3154 L
1203 3156 L
1237 3159 L
1268 3161 L
1284 3164 L
1303 3164 L
1337 3168 L
1370 3171 L
1403 3176 L
1437 3181 L
1456 3186 L
1473 3187 L
1503 3193 L
1537 3200 L
1570 3208 L
1603 3217 L
1628 3228 L
1644 3233 L
1670 3239 L
1703 3252 L
1737 3267 L
1770 3283 L
1799 3302 L
1816 3317 L
1837 3322 L
1870 3344 L
1903 3369 L
1937 3397 L
1970 3427 L
1987 3459 L
2004 3461 L
2037 3494 L
2070 3532 L
2103 3572 L
2137 3614 L
2159 3657 L
2176 3674 L
2203 3702 L
2237 3748 L
2270 3793 L
2303 3837 L
2331 3880 L
2347 3906 L
2370 3919 L
2403 3955 L
2437 3987 L
2470 4014 L
2503 4035 L
2519 4052 L
2537 4052 L
2570 4065 L
2603 4074 L
2637 4079 L
2670 4083 L
2690 4084 L
2707 4085 L
2737 4085 L
2770 4086 L
2803 4086 L
2837 4086 L
2862 4086 L
2879 4086 L
2903 4086 L
2937 4086 L
2970 4086 L
3003 4086 L
3034 4086 L
3050 4086 L
3070 4086 L
3103 4086 L
3137 4086 L
3170 4086 L
3203 4086 L
3222 4086 L
3239 4086 L
3270 4086 L
3303 4086 L
3337 4086 L
3370 4086 L
3393 4086 L
3410 4086 L
3437 4086 L
3464 4086 L
3481 4086 L
3503 4086 L
3537 4086 L
3565 4086 L
3582 4086 L
3603 4086 L
3637 4086 L
3670 4086 L
3703 4086 L
3737 4086 L
3753 4086 L
3770 4086 L
3803 4086 L
3837 4086 L
3870 4086 L
3903 4086 L
3925 4086 L
3942 4086 L
3970 4086 L
4003 4086 L
4037 4086 L
4070 4086 L
4086 4086 L
LWMC SL dash02 C02 COSGR

GSN 753 2655 M
770 2655 L
803 2656 L
837 2657 L
870 2658 L
903 2659 L
924 2660 L
941 2660 L
970 2661 L
1003 2663 L
1037 2664 L
1070 2666 L
1096 2668 L
1113 2670 L
1137 2671 L
1170 2673 L
1203 2677 L
1237 2680 L
1268 2684 L
1284 2688 L
1303 2689 L
1337 2694 L
1370 2700 L
1403 2707 L
1437 2715 L
1456 2723 L
1473 2725 L
1503 2733 L
1537 2744 L
1570 2757 L
1603 2771 L
1628 2787 L
1644 2795 L
1670 2805 L
1703 2825 L
1737 2848 L
1770 2873 L
1799 2902 L
1816 2926 L
1837 2933 L
1870 2968 L
1903 3006 L
1937 3048 L
1970 3094 L
1987 3144 L
2004 3148 L
2037 3198 L
2070 3256 L
2103 3317 L
2137 3381 L
2159 3448 L
2176 3472 L
2203 3516 L
2237 3585 L
2270 3654 L
2303 3720 L
2331 3784 L
2347 3823 L
2370 3843 L
2403 3896 L
2437 3943 L
2470 3982 L
2503 4014 L
2519 4038 L
2537 4039 L
2570 4057 L
2603 4069 L
2637 4077 L
2670 4082 L
2690 4084 L
2707 4084 L
2737 4085 L
2770 4086 L
2803 4086 L
2837 4086 L
2862 4086 L
2879 4086 L
2903 4086 L
2937 4086 L
2970 4086 L
3003 4086 L
3034 4086 L
3050 4086 L
3070 4086 L
3103 4086 L
3137 4086 L
3170 4086 L
3203 4086 L
3222 4086 L
3239 4086 L
3270 4086 L
3303 4086 L
3337 4086 L
3370 4086 L
3393 4086 L
3410 4086 L
3437 4086 L
3464 4086 L
3481 4086 L
3503 4086 L
3537 4086 L
3565 4086 L
3582 4086 L
3603 4086 L
3637 4086 L
3670 4086 L
3703 4086 L
3737 4086 L
3753 4086 L
3770 4086 L
3803 4086 L
3837 4086 L
3870 4086 L
3903 4086 L
3925 4086 L
3942 4086 L
3970 4086 L
4003 4086 L
4037 4086 L
4070 4086 L
4086 4086 L
LWMC SL dash03 C03 COSGR

GSN 753 2151 M
770 2151 L
803 2152 L
837 2153 L
870 2154 L
903 2155 L
924 2157 L
941 2157 L
970 2158 L
1003 2160 L
1037 2163 L
1070 2165 L
1096 2168 L
1113 2170 L
1137 2172 L
1170 2176 L
1203 2180 L
1237 2185 L
1268 2191 L
1284 2196 L
1303 2197 L
1337 2204 L
1370 2213 L
1403 2222 L
1437 2233 L
1456 2245 L
1473 2247 L
1503 2258 L
1537 2274 L
1570 2291 L
1603 2311 L
1628 2333 L
1644 2344 L
1670 2358 L
1703 2386 L
1737 2417 L
1770 2452 L
1799 2491 L
1816 2524 L
1837 2534 L
1870 2582 L
1903 2635 L
1937 2693 L
1970 2756 L
1987 2824 L
2004 2829 L
2037 2898 L
2070 2977 L
2103 3060 L
2137 3148 L
2159 3238 L
2176 3272 L
2203 3331 L
2237 3424 L
2270 3517 L
2303 3606 L
2331 3691 L
2347 3744 L
2370 3770 L
2403 3841 L
2437 3902 L
2470 3954 L
2503 3995 L
2519 4025 L
2537 4027 L
2570 4050 L
2603 4065 L
2637 4075 L
2670 4081 L
2690 4084 L
2707 4084 L
2737 4085 L
2770 4086 L
2803 4086 L
2837 4086 L
2862 4086 L
2879 4086 L
2903 4086 L
2937 4086 L
2970 4086 L
3003 4086 L
3034 4086 L
3050 4086 L
3070 4086 L
3103 4086 L
3137 4086 L
3170 4086 L
3203 4086 L
3222 4086 L
3239 4086 L
3270 4086 L
3303 4086 L
3337 4086 L
3370 4086 L
3393 4086 L
3410 4086 L
3437 4086 L
3464 4086 L
3481 4086 L
3503 4086 L
3537 4086 L
3565 4086 L
3582 4086 L
3603 4086 L
3637 4086 L
3670 4086 L
3703 4086 L
3737 4086 L
3753 4086 L
3770 4086 L
3803 4086 L
3837 4086 L
3870 4086 L
3903 4086 L
3925 4086 L
3942 4086 L
3970 4086 L
4003 4086 L
4037 4086 L
4070 4086 L
4086 4086 L
LWMC SL dash04 C04 COSGR

GSN 753 1741 M
770 1741 L
803 1742 L
837 1743 L
870 1744 L
903 1746 L
924 1748 L
941 1749 L
970 1750 L
1003 1753 L
1037 1755 L
1070 1759 L
1096 1762 L
1113 1765 L
1137 1767 L
1170 1771 L
1203 1777 L
1237 1783 L
1268 1790 L
1284 1797 L
1303 1798 L
1337 1807 L
1370 1817 L
1403 1828 L
1437 1841 L
1456 1856 L
1473 1859 L
1503 1873 L
1537 1892 L
1570 1914 L
1603 1938 L
1628 1965 L
1644 1979 L
1670 1996 L
1703 2030 L
1737 2069 L
1770 2112 L
1799 2159 L
1816 2200 L
1837 2213 L
1870 2271 L
1903 2336 L
1937 2407 L
1970 2485 L
1987 2568 L
2004 2574 L
2037 2659 L
2070 2755 L
2103 2857 L
2137 2963 L
2159 3073 L
2176 3114 L
2203 3186 L
2237 3299 L
2270 3410 L
2303 3518 L
2331 3621 L
2347 3684 L
2370 3715 L
2403 3799 L
2437 3872 L
2470 3933 L
2503 3982 L
2519 4017 L
2537 4018 L
2570 4045 L
2603 4063 L
2637 4074 L
2670 4080 L
2690 4084 L
2707 4084 L
2737 4085 L
2770 4086 L
2803 4086 L
2837 4086 L
2862 4086 L
2879 4086 L
2903 4086 L
2937 4086 L
2970 4086 L
3003 4086 L
3034 4086 L
3050 4086 L
3070 4086 L
3103 4086 L
3137 4086 L
3170 4086 L
3203 4086 L
3222 4086 L
3239 4086 L
3270 4086 L
3303 4086 L
3337 4086 L
3370 4086 L
3393 4086 L
3410 4086 L
3437 4086 L
3464 4086 L
3481 4086 L
3503 4086 L
3537 4086 L
3565 4086 L
3582 4086 L
3603 4086 L
3637 4086 L
3670 4086 L
3703 4086 L
3737 4086 L
3753 4086 L
3770 4086 L
3803 4086 L
3837 4086 L
3870 4086 L
3903 4086 L
3925 4086 L
3942 4086 L
3970 4086 L
4003 4086 L
4037 4086 L
4070 4086 L
4086 4086 L
LWMC SL dash05 C05 COSGR

GSN 753 1637 M
770 1637 L
803 1638 L
837 1639 L
870 1641 L
903 1643 L
924 1645 L
941 1645 L
970 1647 L
1003 1649 L
1037 1652 L
1070 1656 L
1096 1660 L
1113 1662 L
1137 1664 L
1170 1669 L
1203 1675 L
1237 1681 L
1268 1688 L
1284 1696 L
1303 1697 L
1337 1706 L
1370 1717 L
1403 1729 L
1437 1743 L
1456 1758 L
1473 1761 L
1503 1776 L
1537 1796 L
1570 1818 L
1603 1844 L
1628 1872 L
1644 1887 L
1670 1904 L
1703 1940 L
1737 1981 L
1770 2026 L
1799 2076 L
1816 2118 L
1837 2132 L
1870 2193 L
1903 2261 L
1937 2335 L
1970 2417 L
1987 2504 L
2004 2510 L
2037 2599 L
2070 2699 L
2103 2806 L
2137 2917 L
2159 3033 L
2176 3075 L
2203 3150 L
2237 3268 L
2270 3384 L
2303 3497 L
2331 3603 L
2347 3669 L
2370 3701 L
2403 3789 L
2437 3865 L
2470 3928 L
2503 3978 L
2519 4015 L
2537 4016 L
2570 4044 L
2603 4062 L
2637 4074 L
2670 4080 L
2690 4084 L
2707 4084 L
2737 4085 L
2770 4086 L
2803 4086 L
2837 4086 L
2862 4086 L
2879 4086 L
2903 4086 L
2937 4086 L
2970 4086 L
3003 4086 L
3034 4086 L
3050 4086 L
3070 4086 L
3103 4086 L
3137 4086 L
3170 4086 L
3203 4086 L
3222 4086 L
3239 4086 L
3270 4086 L
3303 4086 L
3337 4086 L
3370 4086 L
3393 4086 L
3410 4086 L
3437 4086 L
3464 4086 L
3481 4086 L
3503 4086 L
3537 4086 L
3565 4086 L
3582 4086 L
3603 4086 L
3637 4086 L
3670 4086 L
3703 4086 L
3737 4086 L
3753 4086 L
3770 4086 L
3803 4086 L
3837 4086 L
3870 4086 L
3903 4086 L
3925 4086 L
3942 4086 L
3970 4086 L
4003 4086 L
4037 4086 L
4070 4086 L
4086 4086 L
LWMC SL dash06 C06 COSGR

GSN 753 753 M
770 753 L
803 755 L
837 756 L
870 759 L
903 761 L
924 764 L
941 765 L
970 767 L
1003 771 L
1037 775 L
1070 780 L
1096 785 L
1113 789 L
1137 791 L
1170 798 L
1203 806 L
1237 815 L
1268 826 L
1284 836 L
1303 837 L
1337 851 L
1370 866 L
1403 883 L
1437 902 L
1456 924 L
1473 928 L
1503 949 L
1537 977 L
1570 1008 L
1603 1044 L
1628 1084 L
1644 1105 L
1670 1129 L
1703 1180 L
1737 1237 L
1770 1300 L
1799 1370 L
1816 1429 L
1837 1448 L
1870 1534 L
1903 1629 L
1937 1732 L
1970 1845 L
1987 1967 L
2004 1975 L
2037 2098 L
2070 2237 L
2103 2384 L
2137 2537 L
2159 2694 L
2176 2752 L
2203 2855 L
2237 3015 L
2270 3172 L
2303 3323 L
2331 3465 L
2347 3552 L
2370 3595 L
2403 3710 L
2437 3809 L
2470 3890 L
2503 3954 L
2519 4000 L
2537 4002 L
2570 4036 L
2603 4058 L
2637 4072 L
2670 4079 L
2690 4083 L
2707 4084 L
2737 4085 L
2770 4086 L
2803 4086 L
2837 4086 L
2862 4086 L
2879 4086 L
2903 4086 L
2937 4086 L
2970 4086 L
3003 4086 L
3034 4086 L
3050 4086 L
3070 4086 L
3103 4086 L
3137 4086 L
3170 4086 L
3203 4086 L
3222 4086 L
3239 4086 L
3270 4086 L
3303 4086 L
3337 4086 L
3370 4086 L
3393 4086 L
3410 4086 L
3437 4086 L
3464 4086 L
3481 4086 L
3503 4086 L
3537 4086 L
3565 4086 L
3582 4086 L
3603 4086 L
3637 4086 L
3670 4086 L
3703 4086 L
3737 4086 L
3753 4086 L
3770 4086 L
3803 4086 L
3837 4086 L
3870 4086 L
3903 4086 L
3925 4086 L
3942 4086 L
3970 4086 L
4003 4086 L
4037 4086 L
4070 4086 L
4086 4086 L
LWMC SL dash07 C07 COSGR

%
%================
% Legend - Begin
%================
%
GSN 4240 4040 M
4480 4040 L
LWMC SL dash01 C01 COSGR
GSN 4540 4001 M helvM (0.5 uM) show grestore
GSN 4240 3860 M
4480 3860 L
LWMC SL dash02 C02 COSGR
GSN 4540 3821 M helvM (1.0 uM) show grestore
GSN 4240 3680 M
4480 3680 L
LWMC SL dash03 C03 COSGR
GSN 4540 3641 M helvM (1.5 uM) show grestore
GSN 4240 3500 M
4480 3500 L
LWMC SL dash04 C04 COSGR
GSN 4540 3461 M helvM (2.0 uM) show grestore
GSN 4240 3320 M
4480 3320 L
LWMC SL dash05 C05 COSGR
GSN 4540 3281 M helvM (2.5 uM) show grestore
GSN 4240 3140 M
4480 3140 L
LWMC SL dash06 C06 COSGR
GSN 4540 3101 M helvM (3.0 uM) show grestore
GSN 4240 2960 M
4480 2960 L
LWMC SL dash07 C07 COSGR
GSN 4540 2921 M helvM (4.0 uM) show grestore
%
%================
% Legend - End
%================
%

%
% Main frame
%
L10
GSN 
620 620 M
4220 620 L
4220 4220 L
620 4220 L
closepath SGR

%
% X axis: large tics
%
L10
GSN 1130 620 M 0  54 rL SGR
GSN 1130 4220 M 0 -54 rL SGR
helvS (0.0001) 1130 470 xlabel
GSN 1716 620 M 0  54 rL SGR
GSN 1716 4220 M 0 -54 rL SGR
helvS (0.001) 1716 470 xlabel
GSN 2303 620 M 0  54 rL SGR
GSN 2303 4220 M 0 -54 rL SGR
helvS (0.01) 2303 470 xlabel
GSN 2889 620 M 0  54 rL SGR
GSN 2889 4220 M 0 -54 rL SGR
helvS (0.1) 2889 470 xlabel
GSN 3476 620 M 0  54 rL SGR
GSN 3476 4220 M 0 -54 rL SGR
helvS (1) 3476 470 xlabel
GSN 4062 620 M 0  54 rL SGR
GSN 4062 4220 M 0 -54 rL SGR
helvS (10) 4062 470 xlabel
%
% X axis: small tics
%
L5
GSN 720 620 M 0  36 rL SGR
GSN 720 4220 M 0 -36 rL SGR
GSN 824 620 M 0  36 rL SGR
GSN 824 4220 M 0 -36 rL SGR
GSN 897 620 M 0  36 rL SGR
GSN 897 4220 M 0 -36 rL SGR
GSN 954 620 M 0  36 rL SGR
GSN 954 4220 M 0 -36 rL SGR
GSN 1000 620 M 0  36 rL SGR
GSN 1000 4220 M 0 -36 rL SGR
GSN 1039 620 M 0  36 rL SGR
GSN 1039 4220 M 0 -36 rL SGR
GSN 1073 620 M 0  36 rL SGR
GSN 1073 4220 M 0 -36 rL SGR
GSN 1103 620 M 0  36 rL SGR
GSN 1103 4220 M 0 -36 rL SGR
GSN 1307 620 M 0  36 rL SGR
GSN 1307 4220 M 0 -36 rL SGR
GSN 1410 620 M 0  36 rL SGR
GSN 1410 4220 M 0 -36 rL SGR
GSN 1483 620 M 0  36 rL SGR
GSN 1483 4220 M 0 -36 rL SGR
GSN 1540 620 M 0  36 rL SGR
GSN 1540 4220 M 0 -36 rL SGR
GSN 1586 620 M 0  36 rL SGR
GSN 1586 4220 M 0 -36 rL SGR
GSN 1626 620 M 0  36 rL SGR
GSN 1626 4220 M 0 -36 rL SGR
GSN 1660 620 M 0  36 rL SGR
GSN 1660 4220 M 0 -36 rL SGR
GSN 1690 620 M 0  36 rL SGR
GSN 1690 4220 M 0 -36 rL SGR
GSN 1893 620 M 0  36 rL SGR
GSN 1893 4220 M 0 -36 rL SGR
GSN 1996 620 M 0  36 rL SGR
GSN 1996 4220 M 0 -36 rL SGR
GSN 2069 620 M 0  36 rL SGR
GSN 2069 4220 M 0 -36 rL SGR
GSN 2126 620 M 0  36 rL SGR
GSN 2126 4220 M 0 -36 rL SGR
GSN 2173 620 M 0  36 rL SGR
GSN 2173 4220 M 0 -36 rL SGR
GSN 2212 620 M 0  36 rL SGR
GSN 2212 4220 M 0 -36 rL SGR
GSN 2246 620 M 0  36 rL SGR
GSN 2246 4220 M 0 -36 rL SGR
GSN 2276 620 M 0  36 rL SGR
GSN 2276 4220 M 0 -36 rL SGR
GSN 2479 620 M 0  36 rL SGR
GSN 2479 4220 M 0 -36 rL SGR
GSN 2583 620 M 0  36 rL SGR
GSN 2583 4220 M 0 -36 rL SGR
GSN 2656 620 M 0  36 rL SGR
GSN 2656 4220 M 0 -36 rL SGR
GSN 2713 620 M 0  36 rL SGR
GSN 2713 4220 M 0 -36 rL SGR
GSN 2759 620 M 0  36 rL SGR
GSN 2759 4220 M 0 -36 rL SGR
GSN 2798 620 M 0  36 rL SGR
GSN 2798 4220 M 0 -36 rL SGR
GSN 2832 620 M 0  36 rL SGR
GSN 2832 4220 M 0 -36 rL SGR
GSN 2862 620 M 0  36 rL SGR
GSN 2862 4220 M 0 -36 rL SGR
GSN 3066 620 M 0  36 rL SGR
GSN 3066 4220 M 0 -36 rL SGR
GSN 3169 620 M 0  36 rL SGR
GSN 3169 4220 M 0 -36 rL SGR
GSN 3242 620 M 0  36 rL SGR
GSN 3242 4220 M 0 -36 rL SGR
GSN 3299 620 M 0  36 rL SGR
GSN 3299 4220 M 0 -36 rL SGR
GSN 3345 620 M 0  36 rL SGR
GSN 3345 4220 M 0 -36 rL SGR
GSN 3385 620 M 0  36 rL SGR
GSN 3385 4220 M 0 -36 rL SGR
GSN 3419 620 M 0  36 rL SGR
GSN 3419 4220 M 0 -36 rL SGR
GSN 3449 620 M 0  36 rL SGR
GSN 3449 4220 M 0 -36 rL SGR
GSN 3652 620 M 0  36 rL SGR
GSN 3652 4220 M 0 -36 rL SGR
GSN 3755 620 M 0  36 rL SGR
GSN 3755 4220 M 0 -36 rL SGR
GSN 3829 620 M 0  36 rL SGR
GSN 3829 4220 M 0 -36 rL SGR
GSN 3885 620 M 0  36 rL SGR
GSN 3885 4220 M 0 -36 rL SGR
GSN 3932 620 M 0  36 rL SGR
GSN 3932 4220 M 0 -36 rL SGR
GSN 3971 620 M 0  36 rL SGR
GSN 3971 4220 M 0 -36 rL SGR
GSN 4005 620 M 0  36 rL SGR
GSN 4005 4220 M 0 -36 rL SGR
GSN 4035 620 M 0  36 rL SGR
GSN 4035 4220 M 0 -36 rL SGR
%
% Y axis: large tics
%
L10
GSN 620 1351 M 54 0 rL SGR
GSN 4220 1351 M -54 0 rL SGR
helvS (-15) 560 1351 ylabel
GSN 620 2263 M 54 0 rL SGR
GSN 4220 2263 M -54 0 rL SGR
helvS (-10) 560 2263 ylabel
GSN 620 3174 M 54 0 rL SGR
GSN 4220 3174 M -54 0 rL SGR
helvS (-5) 560 3174 ylabel
GSN 620 4086 M 54 0 rL SGR
GSN 4220 4086 M -54 0 rL SGR
helvS (0) 560 4086 ylabel
%
% Y axis: small tics
%
L5
GSN 620 622 M 36 0 rL SGR
GSN 4220 622 M -36 0 rL SGR
GSN 620 804 M 36 0 rL SGR
GSN 4220 804 M -36 0 rL SGR
GSN 620 986 M 36 0 rL SGR
GSN 4220 986 M -36 0 rL SGR
GSN 620 1169 M 36 0 rL SGR
GSN 4220 1169 M -36 0 rL SGR
GSN 620 1351 M 36 0 rL SGR
GSN 4220 1351 M -36 0 rL SGR
GSN 620 1533 M 36 0 rL SGR
GSN 4220 1533 M -36 0 rL SGR
GSN 620 1716 M 36 0 rL SGR
GSN 4220 1716 M -36 0 rL SGR
GSN 620 1898 M 36 0 rL SGR
GSN 4220 1898 M -36 0 rL SGR
GSN 620 2080 M 36 0 rL SGR
GSN 4220 2080 M -36 0 rL SGR
GSN 620 2263 M 36 0 rL SGR
GSN 4220 2263 M -36 0 rL SGR
GSN 620 2445 M 36 0 rL SGR
GSN 4220 2445 M -36 0 rL SGR
GSN 620 2627 M 36 0 rL SGR
GSN 4220 2627 M -36 0 rL SGR
GSN 620 2810 M 36 0 rL SGR
GSN 4220 2810 M -36 0 rL SGR
GSN 620 2992 M 36 0 rL SGR
GSN 4220 2992 M -36 0 rL SGR
GSN 620 3174 M 36 0 rL SGR
GSN 4220 3174 M -36 0 rL SGR
GSN 620 3357 M 36 0 rL SGR
GSN 4220 3357 M -36 0 rL SGR
GSN 620 3539 M 36 0 rL SGR
GSN 4220 3539 M -36 0 rL SGR
GSN 620 3721 M 36 0 rL SGR
GSN 4220 3721 M -36 0 rL SGR
GSN 620 3904 M 36 0 rL SGR
GSN 4220 3904 M -36 0 rL SGR
GSN 620 4086 M 36 0 rL SGR
GSN 4220 4086 M -36 0 rL SGR

%
% X axis
%
GSN L5 620 4086 M 4220 4086 L SDA G50 SGR

%
% X-Axis label:
%
gsave 2420 290 M 
[
[(Helvetica) 180 0 true true 0 (t)]
[(Helvetica) 180 0 true true 0 (i)]
[(Helvetica) 180 0 true true 0 (m)]
[(Helvetica) 180 0 true true 0 (e)]
] 0 MCshow grestore

%
% Y-Axis label:
%
gsave 234 2420 M 
currentpoint gsave translate 90 rotate 0 0 moveto
[
[(Helvetica) 180 0 true true 0 (d)]
[(Helvetica) 180 0 true true 0 (\()]
[(Helvetica) 180 0 true true 0 (s)]
[(Helvetica) 180 0 true true 0 (i)]
[(Helvetica) 180 0 true true 0 (g)]
[(Helvetica) 180 0 true true 0 (n)]
[(Helvetica) 180 0 true true 0 (a)]
[(Helvetica) 180 0 true true 0 (l)]
[(Helvetica) 180 0 true true 0 (\))]
[(Helvetica) 180 0 true true 0 ( )]
[(Helvetica) 180 0 true true 0 (/)]
[(Helvetica) 180 0 true true 0 ( )]
[(Helvetica) 180 0 true true 0 (d)]
[(Helvetica) 180 0 true true 0 (t)]
] 0 MCshow grestore

end
showpage
%%Trailer
%%EOF
