%!PS-Adobe-3.0 EPSF-3.0
%%BoundingBox: 0 0 514 550
%%Creator: BioKin Ltd.
%%DocumentFonts: Symbol Helvetica
%%EndComments
%
/bkdict 256 dict def
bkdict begin
/M {moveto} def 
/R {rmoveto} def
/L {lineto} def
/rL {rlineto} def
/GSN {gsave newpath} def
/SGR {stroke grestore} def
/COSGR {gsave setrgbcolor stroke grestore grestore} def
/SL {setlinewidth} def
/LWMB {12} def             % line width - model curves, black & white
/LWMC {10} def             % line width - model curves, color
/L2 {2.5 setlinewidth} def
/L5 {5 setlinewidth} def
/L10 {10 setlinewidth} def
/G50 {0.5 setgray} def
/SDA {[10  20] 0 setdash} def % axes
/helvT {/Helvetica findfont 100 scalefont setfont} def % tiny
/helvS {/Helvetica findfont 125 scalefont setfont} def % small
/helvM {/Helvetica findfont 150 scalefont setfont} def % medium
/helvL {/Helvetica findfont 175 scalefont setfont} def % large
/xlabel {gsave M dup
   stringwidth exch -0.5 mul exch rmoveto show grestore} def 
/ylabel {gsave M 90 rotate dup
   stringwidth exch -0.5 mul exch rmoveto show grestore} def
/ylabelresid {gsave M dup
   stringwidth exch -1 mul exch rmoveto show grestore} def
% ======
% Shapes
% ======
% Circle:
/Circ {0 360 arc closepath} def
%
% Square:
/Squa {dup dup -0.5 mul dup dup R -2 mul 0 exch rL 1 mul 0 rL dup 0 exch -1 mul rL closepath} def
%
% Triangle Up:
/TriU {dup dup dup -0.4 mul exch -0.5 mul exch R dup 0.5 mul exch rL dup -1 mul exch 0.5 mul exch rL closepath} def 
%
% Triangle Down:
/TriD {dup dup dup 0.4 mul exch -0.5 mul exch R dup 0.5 mul exch -1 mul rL dup 0.5 mul exch rL closepath} def 
%
% Diamond:
/Diam {45 rotate Squa} def
% ======
% Fills
% ======
/GRF {gsave setgray fill grestore} def                    % gray-level Fill
/COF {gsave setrgbcolor fill grestore} def                % color fill
% ======
% Colors
% ======
/C01 {1.00	0.00	0.00} def      % Red
/C02 {0.00	0.00	1.00} def      % Blue
/C03 {0.00	0.39	0.00} def      % Dark Green
/C04 {0.78	0.08	0.52} def      % Medium Violet Red
/C05 {0.55	0.27	0.07} def      % Saddle Brown
/C06 {0.10	0.70	0.70} def      % (cyan)
/C07 {1.00	0.55	0.00} def      % Dark Orange
/C08 {0.63	0.13	0.94} def      % Purple
/C09 {0.00	0.75	1.00} def      % Deep Sky Blue
/C10 {0.20	0.80	0.20} def      % Lime Green
/C11 {0.47	0.53	0.60} def      % Light Slate Gray
/C12 {0.00	0.00	0.00} def      % Black            % or: {0.19	0.31	0.31} def      % Dark Slate Gray
%
/LGR {0.75} def % light gray
/DGR {0.33} def % dark gray
%
% =============
% Dash patterns
% =============
/dash01 { [80  20] 0 setdash } def
/dash02 { [40  20] 0 setdash } def
/dash03 { [80  20  10  20] 0 setdash } def
/dash04 { [40  20  10  20] 0 setdash } def
/dash05 { [80  20  10  10  10  20] 0 setdash } def
/dash06 { [40  20  10  10  10  20] 0 setdash } def
/dash07 { [10  10] 0 setdash } def
%
/MFshow {
   { dup 5 get 3 ge
     { 5 get 3 eq {gsave} {grestore} ifelse }
     {dup dup 0 get findfont exch 1 get scalefont setfont
     [ currentpoint ] exch dup 2 get 0 exch R dup 5 get 2 ne {dup dup 6
     get exch 4 get {show} {stringwidth pop 0 R} ifelse }if dup 5 get 0 eq
     {dup 3 get {2 get neg 0 exch R pop} {pop aload pop M} ifelse} {dup 5
     get 1 eq {dup 2 get exch dup 3 get exch 6 get stringwidth pop -2 div
     dup 0 R} {dup 6 get stringwidth pop -2 div 0 R 6 get
     show 2 index {aload pop M neg 3 -1 roll neg R pop pop} {pop pop pop
     pop aload pop M} ifelse }ifelse }ifelse }
     ifelse }
   forall} bind def
/MFwidth {0 exch {dup 3 get{dup dup 0 get findfont exch 1 get scalefont
     setfont 6 get stringwidth pop add} {pop} ifelse} forall} bind def
/MCshow { currentpoint stroke M
  exch dup MFwidth -2 div 3 -1 roll R MFshow } def
%
end
%%EndProlog
bkdict begin
0.1 0.1 scale
%
% Residuals:
%
GSN 620 4675 M
620 4505 L
620 4567 L
620 4863 L
620 4810 L
620 4630 L
620 4577 L
620 4472 L
620 4450 L
620 4425 L
620 4343 L
620 4455 L
620 4251 L
620 4357 L
620 4339 L
620 4218 L
620 4172 L
620 4190 L
620 4100 L
620 4162 L
620 4080 L
620 4063 L
620 4113 L
620 4136 L
620 3889 L
620 4003 L
620 4162 L
620 3965 L
620 3980 L
620 3930 L
620 3881 L
620 3866 L
620 3748 L
620 3926 L
620 3855 L
620 3811 L
620 3687 L
620 3852 L
620 3821 L
620 3659 L
620 3672 L
620 3668 L
620 3686 L
620 3522 L
620 3470 L
620 3693 L
620 3546 L
620 3446 L
620 3475 L
620 3579 L
620 3306 L
620 3346 L
620 3459 L
620 3498 L
620 3344 L
620 3478 L
620 3461 L
620 3398 L
620 3254 L
620 3443 L
620 3534 L
620 3416 L
620 3207 L
620 3111 L
620 3300 L
620 3215 L
620 3203 L
620 3237 L
620 3273 L
620 3074 L
620 3396 L
620 3185 L
620 3144 L
620 3124 L
620 3231 L
620 3005 L
620 3328 L
620 3209 L
620 3274 L
620 3058 L
620 3132 L
620 3039 L
620 3008 L
620 2926 L
620 2868 L
620 2851 L
620 2855 L
620 2958 L
620 2724 L
620 2736 L
620 2897 L
620 2737 L
620 2751 L
620 2692 L
620 2669 L
620 2698 L
620 2433 L
620 2649 L
620 2581 L
620 2533 L
620 2574 L
620 2528 L
620 2335 L
620 2417 L
620 2627 L
620 2395 L
620 2494 L
620 2609 L
620 2410 L
620 2431 L
620 2294 L
620 2244 L
620 2325 L
620 2283 L
620 2316 L
620 2292 L
620 2344 L
620 2293 L
620 2286 L
620 2383 L
620 2205 L
620 2276 L
620 2297 L
620 2277 L
620 2184 L
620 2242 L
620 2414 L
620 2280 L
620 2315 L
620 2183 L
620 2336 L
620 2319 L
620 2217 L
620 2148 L
620 2541 L
620 2316 L
620 2203 L
620 2136 L
620 2304 L
620 2385 L
620 2208 L
620 2251 L
620 2473 L
620 2307 L
620 2341 L
620 2385 L
620 2282 L
620 2403 L
620 2208 L
620 2272 L
620 2400 L
620 2347 L
620 2376 L
620 2269 L
620 2408 L
620 2517 L
620 2305 L
620 2465 L
620 2268 L
620 2303 L
620 2418 L
620 2239 L
620 2452 L
620 2490 L
620 2385 L
620 2388 L
620 2322 L
620 2465 L
620 2405 L
620 2192 L
620 2329 L
620 2516 L
620 2422 L
620 2290 L
620 2298 L
620 2446 L
620 2478 L
620 2269 L
620 2448 L
620 2311 L
620 2383 L
620 2391 L
620 2236 L
620 2553 L
620 2393 L
620 2406 L
620 2667 L
620 2516 L
620 2554 L
620 2559 L
620 2552 L
620 2412 L
620 2442 L
620 2465 L
620 2199 L
620 2373 L
620 2534 L
620 2545 L
620 2375 L
620 2388 L
620 2551 L
620 2459 L
620 2507 L
620 2608 L
620 2433 L
620 2522 L
620 2455 L
620 2492 L
620 2457 L
620 2590 L
620 2628 L
620 2618 L
620 2475 L
620 2528 L
620 2425 L
620 2628 L
620 2453 L
620 2539 L
620 2665 L
620 2542 L
620 2588 L
620 2615 L
620 2525 L
620 2479 L
620 2535 L
620 2672 L
620 2639 L
620 2587 L
620 2675 L
620 2576 L
620 2457 L
620 2582 L
620 2500 L
620 2622 L
620 2562 L
620 2620 L
620 2641 L
620 2713 L
620 2580 L
620 2613 L
620 2682 L
620 2549 L
620 2680 L
620 2612 L
620 2622 L
620 2497 L
620 2434 L
620 2772 L
620 2735 L
620 2713 L
620 2682 L
620 2548 L
620 2746 L
620 2543 L
620 2688 L
620 2722 L
620 2762 L
620 2804 L
620 2705 L
620 2662 L
620 2669 L
620 2581 L
620 2709 L
620 2701 L
620 2756 L
620 2715 L
620 2801 L
620 2575 L
620 2777 L
620 2583 L
620 2811 L
620 2551 L
620 2603 L
620 2547 L
620 2782 L
620 2593 L
620 2759 L
620 2533 L
620 2729 L
620 2832 L
620 2716 L
620 2898 L
620 2898 L
620 2958 L
620 2832 L
620 2806 L
620 3014 L
620 2983 L
620 2707 L
620 2890 L
620 2922 L
620 2896 L
620 2992 L
620 3087 L
620 2968 L
620 2983 L
620 2989 L
620 3014 L
620 3006 L
620 3042 L
620 2993 L
620 2827 L
620 2847 L
620 2880 L
620 2902 L
620 3098 L
620 2946 L
620 3057 L
620 2990 L
620 3124 L
620 3080 L
620 2984 L
620 3112 L
620 2941 L
620 3125 L
620 2938 L
620 3131 L
620 2961 L
620 3070 L
620 3076 L
620 2934 L
620 2959 L
620 2978 L
620 2963 L
620 3044 L
620 2889 L
620 3113 L
620 2926 L
620 2806 L
620 3007 L
620 2738 L
620 2940 L
620 2892 L
620 2932 L
620 2789 L
620 3148 L
620 2747 L
620 2902 L
620 2943 L
620 3007 L
620 2855 L
620 2923 L
620 2969 L
620 2972 L
620 2994 L
620 2975 L
620 2941 L
620 2900 L
620 2725 L
620 2692 L
620 2986 L
620 2969 L
620 2887 L
620 2788 L
620 2861 L
620 2950 L
620 2928 L
620 2930 L
620 2900 L
620 2947 L
620 2887 L
620 2956 L
620 2821 L
620 2678 L
620 2822 L
620 2846 L
620 2946 L
620 2843 L
620 2819 L
620 2949 L
620 3103 L
620 2787 L
620 2861 L
620 2893 L
620 2918 L
620 2818 L
620 2750 L
620 2714 L
620 2789 L
620 3022 L
620 2964 L
620 2754 L
620 2820 L
620 2789 L
620 2765 L
620 2679 L
620 2907 L
620 2708 L
620 2764 L
620 2893 L
620 2965 L
620 2665 L
620 2823 L
620 2860 L
620 2741 L
620 2694 L
620 2828 L
620 2796 L
620 2632 L
620 2784 L
620 2701 L
620 2876 L
620 2919 L
620 2721 L
620 2641 L
620 2928 L
620 2630 L
620 2737 L
620 2882 L
620 2818 L
620 2754 L
620 2771 L
620 2757 L
620 2779 L
620 2881 L
620 2719 L
620 2679 L
620 2730 L
620 2787 L
620 2855 L
620 2641 L
620 2788 L
620 2706 L
620 2769 L
620 2746 L
620 2775 L
620 2778 L
620 2619 L
620 2958 L
620 2762 L
620 2787 L
620 2789 L
620 2528 L
620 2805 L
620 2691 L
620 2874 L
620 2731 L
620 2820 L
620 2802 L
620 2844 L
620 2807 L
620 2810 L
620 2825 L
620 2693 L
620 2818 L
620 2659 L
620 2715 L
620 2892 L
620 2726 L
620 2827 L
620 2849 L
620 2860 L
620 2711 L
620 2623 L
620 2708 L
620 2620 L
620 2805 L
620 2810 L
620 2735 L
620 2710 L
620 2697 L
620 2686 L
620 2730 L
620 2803 L
620 2764 L
620 2596 L
620 2757 L
620 2796 L
620 2731 L
620 2565 L
620 2664 L
620 2901 L
620 2810 L
620 2776 L
620 2629 L
620 2617 L
620 2691 L
620 2656 L
620 2806 L
620 2648 L
620 2614 L
620 2781 L
620 2756 L
620 2761 L
620 2929 L
620 2654 L
620 2828 L
620 2758 L
620 2593 L
620 2635 L
620 2753 L
620 2798 L
620 2716 L
620 2720 L
620 2791 L
620 2804 L
620 2952 L
620 2873 L
620 2928 L
620 2694 L
620 2728 L
620 2819 L
620 2836 L
620 2730 L
620 2772 L
620 2699 L
620 2869 L
620 2731 L
620 2765 L
620 2897 L
620 2929 L
620 2780 L
620 2830 L
620 2856 L
620 2831 L
620 2674 L
620 2820 L
620 2893 L
620 2725 L
620 2803 L
620 2789 L
620 2825 L
620 2676 L
620 2824 L
620 2848 L
620 2938 L
620 2749 L
620 2850 L
620 2714 L
620 2863 L
620 2790 L
620 2843 L
620 2828 L
L2 C03 COSGR

%
%================
% Legend - Begin
%================
%
GSN 4240 5180 M
4480 5180 L
LWMC SL  C03 COSGR
GSN 4540 5141 M helvM (1.5 uM) show grestore
%
%================
% Legend - End
%================
%

%
% Main frame
%
L10
GSN 
620 1700 M
4220 1700 L
4220 5300 L
620 5300 L
closepath SGR

%
% X axis: large tics
%
L10
%
% X axis: small tics
%
L5
%
% Y axis: large tics
%
L10
GSN 620 2113 M 54 0 rL SGR
GSN 4220 2113 M -54 0 rL SGR
helvS (-0.02) 560 2113 ylabel
GSN 620 2851 M 54 0 rL SGR
GSN 4220 2851 M -54 0 rL SGR
helvS (0) 560 2851 ylabel
GSN 620 3589 M 54 0 rL SGR
GSN 4220 3589 M -54 0 rL SGR
helvS (0.02) 560 3589 ylabel
GSN 620 4328 M 54 0 rL SGR
GSN 4220 4328 M -54 0 rL SGR
helvS (0.04) 560 4328 ylabel
GSN 620 5066 M 54 0 rL SGR
GSN 4220 5066 M -54 0 rL SGR
helvS (0.06) 560 5066 ylabel
%
% Y axis: small tics
%
L5
GSN 620 1743 M 36 0 rL SGR
GSN 4220 1743 M -36 0 rL SGR
GSN 620 1928 M 36 0 rL SGR
GSN 4220 1928 M -36 0 rL SGR
GSN 620 2113 M 36 0 rL SGR
GSN 4220 2113 M -36 0 rL SGR
GSN 620 2297 M 36 0 rL SGR
GSN 4220 2297 M -36 0 rL SGR
GSN 620 2482 M 36 0 rL SGR
GSN 4220 2482 M -36 0 rL SGR
GSN 620 2666 M 36 0 rL SGR
GSN 4220 2666 M -36 0 rL SGR
GSN 620 2851 M 36 0 rL SGR
GSN 4220 2851 M -36 0 rL SGR
GSN 620 3036 M 36 0 rL SGR
GSN 4220 3036 M -36 0 rL SGR
GSN 620 3220 M 36 0 rL SGR
GSN 4220 3220 M -36 0 rL SGR
GSN 620 3405 M 36 0 rL SGR
GSN 4220 3405 M -36 0 rL SGR
GSN 620 3589 M 36 0 rL SGR
GSN 4220 3589 M -36 0 rL SGR
GSN 620 3774 M 36 0 rL SGR
GSN 4220 3774 M -36 0 rL SGR
GSN 620 3958 M 36 0 rL SGR
GSN 4220 3958 M -36 0 rL SGR
GSN 620 4143 M 36 0 rL SGR
GSN 4220 4143 M -36 0 rL SGR
GSN 620 4328 M 36 0 rL SGR
GSN 4220 4328 M -36 0 rL SGR
GSN 620 4512 M 36 0 rL SGR
GSN 4220 4512 M -36 0 rL SGR
GSN 620 4697 M 36 0 rL SGR
GSN 4220 4697 M -36 0 rL SGR
GSN 620 4881 M 36 0 rL SGR
GSN 4220 4881 M -36 0 rL SGR
GSN 620 5066 M 36 0 rL SGR
GSN 4220 5066 M -36 0 rL SGR
GSN 620 5251 M 36 0 rL SGR
GSN 4220 5251 M -36 0 rL SGR

%
% X axis - residual panel
%
GSN L5 620 2851 M 4220 2851 L SDA G50 SGR

%
% X-Axis label:
%
gsave 620 1370 M 
[
[(Helvetica) 180 0 true true 0 (t)]
[(Helvetica) 180 0 true true 0 (i)]
[(Helvetica) 180 0 true true 0 (m)]
[(Helvetica) 180 0 true true 0 (e)]
] 0 MCshow grestore

%
% Y-Axis label:
%
gsave 234 3500 M 
currentpoint gsave translate 90 rotate 0 0 moveto
[
[(Helvetica) 180 0 true true 0 (r)]
[(Helvetica) 180 0 true true 0 (e)]
[(Helvetica) 180 0 true true 0 (s)]
[(Helvetica) 180 0 true true 0 (i)]
[(Helvetica) 180 0 true true 0 (d)]
[(Helvetica) 180 0 true true 0 (u)]
[(Helvetica) 180 0 true true 0 (a)]
[(Helvetica) 180 0 true true 0 (l)]
[(Helvetica) 180 0 true true 0 (s)]
] 0 MCshow grestore

end
showpage
%%Trailer
%%EOF
