%!PS-Adobe-3.0 EPSF-3.0
%%BoundingBox: 0 0 514 550
%%Creator: BioKin Ltd.
%%DocumentFonts: Symbol Helvetica
%%EndComments
%
/bkdict 256 dict def
bkdict begin
/M {moveto} def 
/R {rmoveto} def
/L {lineto} def
/rL {rlineto} def
/GSN {gsave newpath} def
/SGR {stroke grestore} def
/COSGR {gsave setrgbcolor stroke grestore grestore} def
/SL {setlinewidth} def
/LWMB {12} def             % line width - model curves, black & white
/LWMC {10} def             % line width - model curves, color
/L2 {2.5 setlinewidth} def
/L5 {5 setlinewidth} def
/L10 {10 setlinewidth} def
/G50 {0.5 setgray} def
/SDA {[10  20] 0 setdash} def % axes
/helvT {/Helvetica findfont 100 scalefont setfont} def % tiny
/helvS {/Helvetica findfont 125 scalefont setfont} def % small
/helvM {/Helvetica findfont 150 scalefont setfont} def % medium
/helvL {/Helvetica findfont 175 scalefont setfont} def % large
/xlabel {gsave M dup
   stringwidth exch -0.5 mul exch rmoveto show grestore} def 
/ylabel {gsave M 90 rotate dup
   stringwidth exch -0.5 mul exch rmoveto show grestore} def
/ylabelresid {gsave M dup
   stringwidth exch -1 mul exch rmoveto show grestore} def
% ======
% Shapes
% ======
% Circle:
/Circ {0 360 arc closepath} def
%
% Square:
/Squa {dup dup -0.5 mul dup dup R -2 mul 0 exch rL 1 mul 0 rL dup 0 exch -1 mul rL closepath} def
%
% Triangle Up:
/TriU {dup dup dup -0.4 mul exch -0.5 mul exch R dup 0.5 mul exch rL dup -1 mul exch 0.5 mul exch rL closepath} def 
%
% Triangle Down:
/TriD {dup dup dup 0.4 mul exch -0.5 mul exch R dup 0.5 mul exch -1 mul rL dup 0.5 mul exch rL closepath} def 
%
% Diamond:
/Diam {45 rotate Squa} def
% ======
% Fills
% ======
/GRF {gsave setgray fill grestore} def                    % gray-level Fill
/COF {gsave setrgbcolor fill grestore} def                % color fill
% ======
% Colors
% ======
/C01 {1.00	0.00	0.00} def      % Red
/C02 {0.00	0.00	1.00} def      % Blue
/C03 {0.00	0.39	0.00} def      % Dark Green
/C04 {0.78	0.08	0.52} def      % Medium Violet Red
/C05 {0.55	0.27	0.07} def      % Saddle Brown
/C06 {0.10	0.70	0.70} def      % (cyan)
/C07 {1.00	0.55	0.00} def      % Dark Orange
/C08 {0.63	0.13	0.94} def      % Purple
/C09 {0.00	0.75	1.00} def      % Deep Sky Blue
/C10 {0.20	0.80	0.20} def      % Lime Green
/C11 {0.47	0.53	0.60} def      % Light Slate Gray
/C12 {0.00	0.00	0.00} def      % Black            % or: {0.19	0.31	0.31} def      % Dark Slate Gray
%
/LGR {0.75} def % light gray
/DGR {0.33} def % dark gray
%
% =============
% Dash patterns
% =============
/dash01 { [80  20] 0 setdash } def
/dash02 { [40  20] 0 setdash } def
/dash03 { [80  20  10  20] 0 setdash } def
/dash04 { [40  20  10  20] 0 setdash } def
/dash05 { [80  20  10  10  10  20] 0 setdash } def
/dash06 { [40  20  10  10  10  20] 0 setdash } def
/dash07 { [10  10] 0 setdash } def
%
/MFshow {
   { dup 5 get 3 ge
     { 5 get 3 eq {gsave} {grestore} ifelse }
     {dup dup 0 get findfont exch 1 get scalefont setfont
     [ currentpoint ] exch dup 2 get 0 exch R dup 5 get 2 ne {dup dup 6
     get exch 4 get {show} {stringwidth pop 0 R} ifelse }if dup 5 get 0 eq
     {dup 3 get {2 get neg 0 exch R pop} {pop aload pop M} ifelse} {dup 5
     get 1 eq {dup 2 get exch dup 3 get exch 6 get stringwidth pop -2 div
     dup 0 R} {dup 6 get stringwidth pop -2 div 0 R 6 get
     show 2 index {aload pop M neg 3 -1 roll neg R pop pop} {pop pop pop
     pop aload pop M} ifelse }ifelse }ifelse }
     ifelse }
   forall} bind def
/MFwidth {0 exch {dup 3 get{dup dup 0 get findfont exch 1 get scalefont
     setfont 6 get stringwidth pop add} {pop} ifelse} forall} bind def
/MCshow { currentpoint stroke M
  exch dup MFwidth -2 div 3 -1 roll R MFshow } def
%
end
%%EndProlog
bkdict begin
0.1 0.1 scale
%
% Residuals:
%
GSN 620 3795 M
620 3414 L
620 2962 L
620 3019 L
620 3445 L
620 3275 L
620 3061 L
620 2885 L
620 3328 L
620 3193 L
620 3092 L
620 3065 L
620 3255 L
620 3282 L
620 3210 L
620 3672 L
620 3340 L
620 3297 L
620 3505 L
620 3625 L
620 3694 L
620 3459 L
620 3396 L
620 3741 L
620 3756 L
620 3424 L
620 3446 L
620 3577 L
620 3353 L
620 3328 L
620 3435 L
620 3327 L
620 3399 L
620 3813 L
620 3349 L
620 3447 L
620 3532 L
620 3673 L
620 3603 L
620 3542 L
620 3560 L
620 3525 L
620 3568 L
620 3347 L
620 3196 L
620 3526 L
620 3668 L
620 3547 L
620 3403 L
620 3057 L
620 3274 L
620 3392 L
620 3314 L
620 3454 L
620 3571 L
620 3618 L
620 3380 L
620 3248 L
620 3363 L
620 3221 L
620 3218 L
620 3193 L
620 3254 L
620 3313 L
620 3345 L
620 3291 L
620 3321 L
620 2972 L
620 3227 L
620 3115 L
620 3828 L
620 3518 L
620 3171 L
620 3125 L
620 3462 L
620 3401 L
620 3438 L
620 3394 L
620 3439 L
620 3282 L
620 3488 L
620 3472 L
620 3458 L
620 2984 L
620 3926 L
620 3193 L
620 3511 L
620 3118 L
620 3235 L
620 3519 L
620 3297 L
620 3122 L
620 3449 L
620 3697 L
620 3000 L
620 3340 L
620 3335 L
620 3343 L
620 3252 L
620 3538 L
620 3350 L
620 3249 L
620 3161 L
620 3233 L
620 3212 L
620 3174 L
620 3476 L
620 3189 L
620 3164 L
620 2936 L
620 3040 L
620 3698 L
620 3285 L
620 2811 L
620 3568 L
620 3164 L
620 3193 L
620 3767 L
620 3336 L
620 3438 L
620 3588 L
620 3482 L
620 3397 L
620 3616 L
620 3381 L
620 3265 L
620 3188 L
620 3143 L
620 2993 L
620 3247 L
620 3424 L
620 3341 L
620 3030 L
620 3595 L
620 3327 L
620 3296 L
620 3589 L
620 3749 L
620 3469 L
620 3583 L
620 3463 L
620 3218 L
620 3228 L
620 3475 L
620 3792 L
620 3465 L
620 3302 L
620 3440 L
620 3034 L
620 3518 L
620 3513 L
620 3324 L
620 3285 L
620 3284 L
620 3333 L
620 3369 L
620 3429 L
620 3487 L
620 3619 L
620 3359 L
620 3230 L
620 3583 L
620 3506 L
620 3309 L
620 3333 L
620 3073 L
620 3530 L
620 3217 L
620 3082 L
620 3252 L
620 3308 L
620 3419 L
620 3194 L
620 3300 L
620 3214 L
620 3324 L
620 3052 L
620 3167 L
620 3621 L
620 3230 L
620 3192 L
620 3477 L
620 3584 L
620 3322 L
620 3128 L
620 3486 L
620 3474 L
620 3226 L
620 3340 L
620 3365 L
620 3702 L
620 3352 L
620 3414 L
620 3284 L
620 2920 L
620 3569 L
620 3539 L
620 3516 L
620 3056 L
620 3387 L
620 3534 L
620 3478 L
620 3428 L
620 3383 L
620 3341 L
620 3341 L
620 3407 L
620 3713 L
620 3610 L
620 3408 L
620 3633 L
620 3644 L
620 3330 L
620 3638 L
620 3430 L
620 3214 L
620 3421 L
620 3812 L
620 3547 L
620 3509 L
620 3304 L
620 3487 L
620 3806 L
620 3468 L
620 3663 L
620 3451 L
620 3683 L
620 3363 L
620 2972 L
620 3470 L
620 3565 L
620 3847 L
620 3626 L
620 3307 L
620 3805 L
620 3483 L
620 3803 L
620 3461 L
620 3378 L
620 3313 L
620 3524 L
620 3913 L
620 3487 L
620 3355 L
620 3734 L
620 3536 L
620 3188 L
620 3361 L
620 3455 L
620 3421 L
620 3337 L
620 3431 L
620 3450 L
620 3473 L
620 3312 L
620 3398 L
620 3716 L
620 3428 L
620 3606 L
620 3386 L
620 3433 L
620 3152 L
620 3522 L
620 3663 L
620 3652 L
620 3299 L
620 3547 L
620 3373 L
620 3995 L
620 3578 L
620 2957 L
620 3614 L
620 3619 L
620 3223 L
620 3112 L
620 3705 L
620 3479 L
620 3615 L
620 3761 L
620 3366 L
620 3387 L
620 3524 L
620 3828 L
620 3655 L
620 3571 L
620 3466 L
620 3481 L
620 3182 L
620 3768 L
620 3775 L
620 3381 L
620 3500 L
620 3640 L
620 3316 L
620 3797 L
620 3794 L
620 3077 L
620 3663 L
620 3820 L
620 3712 L
620 3460 L
620 3516 L
620 3541 L
620 3584 L
620 3563 L
620 3305 L
620 3705 L
620 3577 L
620 3587 L
620 3422 L
620 4036 L
620 3386 L
620 3695 L
620 3613 L
620 3585 L
620 3273 L
620 3701 L
620 3463 L
620 3648 L
620 3393 L
620 3653 L
620 3747 L
620 3639 L
620 3843 L
620 3547 L
620 3587 L
620 3372 L
620 3555 L
620 3782 L
620 3439 L
620 3394 L
620 3337 L
620 3549 L
620 3527 L
620 3585 L
620 3512 L
620 3700 L
620 3254 L
620 3434 L
620 3650 L
620 3453 L
620 3659 L
620 3664 L
620 3476 L
620 3484 L
620 3775 L
620 3439 L
620 3209 L
620 3791 L
620 3316 L
620 3558 L
620 3858 L
620 3479 L
620 3474 L
620 3507 L
620 3251 L
620 3340 L
620 3614 L
620 3748 L
620 3644 L
620 3742 L
620 3820 L
620 3477 L
620 3447 L
620 3489 L
620 3995 L
620 3187 L
620 3031 L
620 3617 L
620 3299 L
620 3589 L
620 3487 L
620 3313 L
620 3578 L
620 3567 L
620 3541 L
620 3462 L
620 3742 L
620 3509 L
620 3526 L
620 3710 L
620 3109 L
620 3368 L
620 3529 L
620 3516 L
620 3298 L
620 3281 L
620 3558 L
620 3536 L
620 3414 L
620 3537 L
620 3383 L
620 3558 L
620 3476 L
620 3392 L
620 3585 L
620 3519 L
620 3195 L
620 3505 L
620 3753 L
620 3534 L
620 3695 L
620 3091 L
620 3521 L
620 3292 L
620 3269 L
620 3435 L
620 3453 L
620 3376 L
620 3157 L
620 3386 L
620 3366 L
620 3271 L
620 3341 L
620 3492 L
620 3747 L
620 3167 L
620 3269 L
620 3256 L
620 2976 L
620 3192 L
620 3661 L
620 3198 L
620 3357 L
620 3222 L
620 3305 L
620 3205 L
620 3059 L
620 3242 L
620 2859 L
620 3486 L
620 2761 L
620 3108 L
620 3356 L
620 3158 L
620 3384 L
620 3109 L
620 3251 L
620 3173 L
620 3075 L
620 3193 L
620 3287 L
620 3299 L
620 3098 L
620 3201 L
620 3055 L
620 3404 L
620 3127 L
620 2972 L
620 3166 L
620 3057 L
620 2857 L
620 3140 L
620 2802 L
620 3007 L
620 3116 L
620 2891 L
620 3316 L
620 2832 L
620 3241 L
620 2570 L
620 3088 L
620 3272 L
620 3488 L
620 2894 L
620 3032 L
620 2812 L
620 2894 L
620 3157 L
620 2866 L
620 2816 L
620 2914 L
620 2749 L
620 2893 L
620 3206 L
620 3313 L
620 3171 L
620 2645 L
620 2638 L
620 2950 L
620 2787 L
620 2952 L
620 2672 L
620 2775 L
620 2883 L
620 2966 L
620 2916 L
620 2857 L
620 2826 L
620 3351 L
620 2472 L
620 3021 L
620 2678 L
620 2823 L
620 2710 L
620 2688 L
620 2772 L
620 2672 L
620 2293 L
620 2383 L
620 2726 L
620 2419 L
620 2904 L
620 2771 L
620 2447 L
620 2536 L
620 2437 L
620 2767 L
620 2685 L
620 2678 L
620 2853 L
620 2882 L
620 2591 L
620 3008 L
620 2766 L
620 2588 L
620 2750 L
620 2740 L
620 2820 L
620 2364 L
620 2884 L
620 2291 L
620 2765 L
620 2861 L
620 2660 L
620 2909 L
620 2387 L
620 2652 L
620 2703 L
620 2306 L
620 2671 L
620 2719 L
620 2383 L
620 2767 L
620 2677 L
620 2460 L
620 2431 L
620 2791 L
620 2802 L
620 2347 L
620 2465 L
620 2461 L
620 2849 L
620 2920 L
620 2521 L
620 2868 L
620 2136 L
620 2799 L
620 2920 L
620 2766 L
620 2596 L
620 2794 L
620 2702 L
620 2454 L
620 2368 L
620 2509 L
620 2432 L
620 2584 L
620 2508 L
620 2364 L
620 2549 L
620 2894 L
620 2558 L
620 2508 L
620 2850 L
620 2739 L
620 2483 L
620 2600 L
620 2881 L
620 2244 L
620 2532 L
620 2486 L
620 2633 L
620 2217 L
620 2792 L
620 2625 L
620 2645 L
620 2581 L
620 2810 L
620 2527 L
620 2462 L
620 2635 L
620 2376 L
620 2834 L
620 2484 L
620 2717 L
620 2323 L
620 2487 L
620 2789 L
620 2449 L
620 2741 L
620 2506 L
620 2447 L
620 2418 L
620 3039 L
620 2647 L
620 2316 L
620 2511 L
620 2978 L
620 2593 L
620 2692 L
620 2728 L
620 2609 L
620 2458 L
620 2710 L
620 2715 L
620 2581 L
620 2635 L
620 2424 L
620 2777 L
620 2415 L
620 2843 L
620 2667 L
620 2920 L
620 2924 L
620 2976 L
620 2672 L
620 2655 L
620 2210 L
620 2412 L
620 2827 L
620 2458 L
620 2765 L
620 2442 L
620 2562 L
620 2192 L
620 3117 L
620 2428 L
620 2530 L
620 2591 L
620 2746 L
620 2571 L
620 2318 L
620 3116 L
620 2520 L
620 2652 L
620 2785 L
620 2344 L
620 2357 L
620 3007 L
620 2828 L
620 2790 L
620 2747 L
620 2486 L
620 2569 L
620 2608 L
620 2792 L
620 2771 L
620 2769 L
620 2400 L
620 2687 L
620 2603 L
620 2785 L
620 2508 L
620 2613 L
620 2476 L
620 2682 L
620 2528 L
620 2522 L
620 2307 L
620 2723 L
620 2591 L
620 2507 L
620 2619 L
620 2609 L
620 2735 L
620 2513 L
620 2639 L
620 2479 L
620 2485 L
620 3049 L
620 2526 L
620 2901 L
620 2358 L
620 2650 L
620 2372 L
620 2629 L
620 2611 L
620 2433 L
620 2497 L
620 2698 L
620 3080 L
620 2732 L
620 2352 L
620 2695 L
620 2880 L
620 2673 L
620 2301 L
620 2652 L
620 2776 L
620 2923 L
620 2599 L
620 2884 L
620 2584 L
620 2769 L
620 2878 L
620 2639 L
620 2794 L
620 2580 L
620 2449 L
620 2847 L
620 2451 L
620 2474 L
620 2690 L
620 2639 L
620 2513 L
620 2761 L
620 2550 L
620 2725 L
620 2740 L
620 2563 L
620 2693 L
620 2653 L
620 2560 L
620 3013 L
620 2798 L
620 2479 L
620 3007 L
620 2557 L
620 2633 L
620 2671 L
620 2143 L
620 2660 L
620 2713 L
620 2625 L
620 2794 L
620 2647 L
620 2605 L
620 2819 L
620 2898 L
620 2861 L
620 2745 L
620 2857 L
620 2690 L
620 2593 L
620 2808 L
620 2898 L
620 2587 L
620 2685 L
620 2574 L
620 2874 L
620 2615 L
620 2691 L
620 2882 L
620 2802 L
620 2912 L
620 2646 L
620 2270 L
620 2614 L
620 2610 L
620 2637 L
620 2802 L
620 2807 L
620 2851 L
620 2918 L
620 2914 L
620 2827 L
620 2520 L
620 2435 L
620 2645 L
620 2775 L
620 2544 L
620 2912 L
620 2651 L
620 3055 L
620 2645 L
620 2935 L
620 2726 L
620 2778 L
620 2835 L
620 3035 L
620 2671 L
620 2846 L
620 2720 L
620 2727 L
620 3077 L
620 3322 L
620 2671 L
620 2773 L
620 2937 L
620 2698 L
620 2672 L
620 2765 L
620 2807 L
620 2403 L
620 2735 L
620 3074 L
620 2963 L
620 2511 L
620 2639 L
620 3125 L
620 2739 L
620 2893 L
620 2797 L
620 2866 L
620 3042 L
620 2531 L
620 2944 L
620 2949 L
620 2999 L
620 3020 L
620 2555 L
620 2567 L
620 2974 L
620 2874 L
620 3024 L
620 2736 L
620 3115 L
620 2827 L
620 2925 L
620 2695 L
620 2732 L
620 3128 L
620 3091 L
620 2939 L
620 3023 L
620 3079 L
620 2807 L
620 3042 L
620 3160 L
620 3131 L
620 3067 L
620 2865 L
620 2756 L
620 2793 L
620 3065 L
620 2748 L
620 3135 L
620 2794 L
620 2955 L
620 2832 L
620 3010 L
620 3116 L
620 2813 L
620 2769 L
620 2871 L
620 2684 L
620 3024 L
620 3004 L
620 2704 L
620 2888 L
620 2998 L
620 2844 L
620 3196 L
620 3048 L
620 3088 L
620 2968 L
620 2612 L
620 2739 L
620 3191 L
620 3104 L
620 2960 L
620 2926 L
620 3257 L
620 2798 L
620 3103 L
620 2914 L
620 2822 L
620 2975 L
620 2705 L
620 2894 L
620 3165 L
620 3140 L
620 2673 L
620 2837 L
620 3293 L
620 3049 L
620 2857 L
620 3207 L
620 3013 L
620 3177 L
620 2852 L
620 3413 L
620 2868 L
620 2961 L
620 2754 L
620 2912 L
620 3261 L
620 2862 L
620 2618 L
620 3326 L
620 3170 L
620 3301 L
620 2819 L
620 3117 L
620 2905 L
620 3381 L
620 3071 L
620 3271 L
620 3285 L
620 2955 L
620 3191 L
620 2673 L
620 3136 L
620 3219 L
620 3088 L
620 2843 L
620 3235 L
620 2903 L
620 2942 L
620 3031 L
620 2912 L
620 3007 L
620 3017 L
620 2927 L
620 3266 L
620 2685 L
620 3235 L
620 3125 L
620 3341 L
620 3080 L
620 3400 L
620 2814 L
620 2693 L
620 2875 L
620 3266 L
620 3162 L
620 3211 L
620 2813 L
620 3236 L
620 3263 L
620 3043 L
620 3106 L
620 2920 L
620 3425 L
620 3183 L
620 3222 L
620 2944 L
620 3202 L
620 2968 L
620 3109 L
620 3351 L
620 3193 L
620 2901 L
620 2926 L
620 3264 L
620 3026 L
620 3345 L
620 3134 L
620 3220 L
620 2979 L
620 2994 L
620 3332 L
620 2970 L
620 3093 L
620 3174 L
620 3159 L
620 3779 L
620 3209 L
620 3176 L
620 3481 L
620 3426 L
620 3031 L
620 3165 L
620 3233 L
620 2929 L
620 3127 L
620 2995 L
620 3112 L
620 3316 L
620 3513 L
620 3287 L
620 3134 L
620 3097 L
620 3127 L
620 3110 L
620 3337 L
620 3227 L
620 3191 L
620 3036 L
620 2856 L
620 3226 L
620 3292 L
620 2920 L
620 3073 L
620 3172 L
620 2923 L
620 3184 L
620 3096 L
620 3289 L
620 3516 L
620 2923 L
620 3079 L
620 3283 L
620 3065 L
620 2878 L
620 3395 L
620 3365 L
620 3117 L
620 3696 L
620 3043 L
620 3160 L
620 3339 L
620 3661 L
620 3586 L
620 3345 L
620 3260 L
620 3255 L
620 3359 L
620 2765 L
620 3435 L
620 3235 L
620 3104 L
620 2892 L
620 2929 L
620 3143 L
620 3528 L
620 3145 L
620 3467 L
620 3276 L
620 3079 L
620 3418 L
620 3020 L
620 3550 L
620 3409 L
620 3117 L
620 3233 L
620 3437 L
620 3241 L
620 3240 L
620 3559 L
620 3298 L
620 3291 L
620 3467 L
620 3264 L
620 3287 L
620 3456 L
620 3398 L
620 2989 L
620 3376 L
620 3393 L
620 3214 L
620 3084 L
620 3235 L
620 3155 L
620 3489 L
620 3579 L
620 3492 L
620 3530 L
620 3203 L
620 3493 L
620 3365 L
620 3501 L
620 2937 L
620 3309 L
620 3473 L
620 3596 L
620 3177 L
620 3146 L
620 3229 L
620 3707 L
620 2954 L
620 3429 L
620 3751 L
620 3118 L
620 3440 L
620 3020 L
620 3226 L
620 3432 L
620 3115 L
620 3637 L
620 3359 L
620 3449 L
620 3275 L
620 3326 L
620 3470 L
620 3365 L
620 3438 L
620 3282 L
620 3153 L
620 3504 L
620 3535 L
620 3455 L
620 3402 L
620 3366 L
620 3071 L
620 3356 L
620 3674 L
620 3316 L
620 3518 L
620 3293 L
620 3356 L
620 3766 L
620 3023 L
620 3130 L
620 3594 L
620 3667 L
620 3271 L
620 3679 L
620 3359 L
620 3029 L
620 3432 L
620 3545 L
620 3173 L
620 3333 L
620 3349 L
620 3368 L
620 3358 L
620 3316 L
620 3282 L
620 3392 L
620 3608 L
620 3409 L
620 3726 L
620 3489 L
620 3321 L
620 3506 L
620 3408 L
620 3408 L
620 3378 L
620 3656 L
620 3642 L
620 3291 L
620 3402 L
620 3209 L
620 3400 L
620 3105 L
620 3246 L
620 3920 L
620 3747 L
620 3525 L
620 3777 L
620 3491 L
620 3244 L
620 3565 L
620 3477 L
620 3287 L
620 3784 L
620 3532 L
620 3771 L
620 3493 L
620 3427 L
620 3343 L
620 3575 L
620 3427 L
620 3423 L
620 3091 L
620 3627 L
620 3223 L
620 3451 L
620 3470 L
620 3667 L
620 3372 L
620 3192 L
620 3664 L
620 3733 L
620 3531 L
620 3295 L
620 3491 L
620 3306 L
620 3304 L
620 3660 L
620 3611 L
620 3524 L
620 3337 L
620 3467 L
620 3604 L
620 3581 L
620 3573 L
620 3616 L
620 3310 L
620 3316 L
620 3458 L
620 3816 L
620 3940 L
620 3312 L
620 3933 L
620 3609 L
620 3291 L
620 3590 L
620 3542 L
620 3792 L
620 3986 L
620 3566 L
620 3619 L
620 3327 L
620 3530 L
620 3499 L
620 3420 L
620 3677 L
620 3594 L
620 3642 L
620 3674 L
620 3636 L
620 3361 L
620 3476 L
620 3728 L
620 3538 L
620 3580 L
620 3667 L
620 3665 L
620 3419 L
620 3659 L
620 3721 L
620 3151 L
620 3608 L
620 3649 L
620 3444 L
620 3668 L
620 3874 L
620 3846 L
620 3260 L
620 3345 L
620 3477 L
620 3503 L
620 3802 L
620 3609 L
620 3511 L
620 3488 L
620 3926 L
620 3660 L
620 3340 L
620 3592 L
620 3757 L
620 3837 L
620 3699 L
620 3935 L
620 3423 L
620 3436 L
620 3534 L
620 3486 L
620 3500 L
620 3321 L
620 3769 L
620 3437 L
620 3547 L
620 3833 L
620 3359 L
620 3615 L
620 3338 L
620 3334 L
620 3408 L
620 3667 L
620 3721 L
620 3582 L
620 3703 L
620 3617 L
620 3612 L
620 3878 L
620 3486 L
620 3605 L
620 3750 L
620 3205 L
620 3406 L
620 3599 L
620 3418 L
620 3920 L
620 3697 L
620 3463 L
620 3809 L
620 3710 L
620 3477 L
620 3573 L
620 3547 L
620 3680 L
620 3634 L
620 3610 L
620 3452 L
620 3507 L
620 3588 L
620 3765 L
620 3820 L
620 3568 L
620 3738 L
620 3765 L
620 3393 L
620 3322 L
620 3874 L
620 3920 L
620 3343 L
620 3433 L
620 3942 L
620 3741 L
620 3764 L
620 3408 L
620 4085 L
620 3844 L
620 3573 L
620 3835 L
620 3684 L
620 4026 L
620 3862 L
620 3698 L
620 3822 L
620 3560 L
620 3450 L
620 3726 L
620 3357 L
620 3695 L
620 3461 L
620 3721 L
620 3635 L
620 3487 L
620 3976 L
620 3994 L
620 3902 L
620 3650 L
620 3696 L
620 3565 L
620 3691 L
620 3702 L
620 3304 L
620 3742 L
620 3219 L
620 3529 L
620 3680 L
620 3339 L
620 3741 L
620 3389 L
620 3776 L
620 3781 L
620 3656 L
620 3596 L
620 3845 L
620 3596 L
620 3674 L
620 3659 L
620 3667 L
620 3742 L
620 3772 L
620 4032 L
620 3788 L
620 3597 L
620 3293 L
620 3591 L
620 3463 L
620 4146 L
620 3492 L
620 3880 L
620 3544 L
620 3699 L
620 3503 L
620 3631 L
620 3945 L
620 3816 L
620 3750 L
620 3827 L
620 3703 L
620 3883 L
620 3349 L
620 3602 L
620 3776 L
620 3590 L
620 3909 L
620 4057 L
620 3782 L
620 3224 L
620 3818 L
620 3812 L
620 4037 L
620 3812 L
620 3563 L
620 3693 L
620 4321 L
620 3472 L
620 3819 L
620 3425 L
620 3964 L
620 3321 L
620 3720 L
620 3714 L
620 3716 L
620 3508 L
620 3793 L
620 3187 L
620 3919 L
620 3715 L
620 3943 L
620 3689 L
620 3744 L
620 3827 L
620 3937 L
620 3781 L
620 4030 L
620 3461 L
620 3590 L
620 3528 L
620 3884 L
620 3717 L
620 3710 L
620 3616 L
620 3757 L
620 3559 L
620 3392 L
620 3568 L
620 3905 L
620 3617 L
620 3569 L
620 3849 L
620 3592 L
620 3833 L
620 3306 L
620 4014 L
620 3439 L
620 3840 L
620 3871 L
620 3950 L
620 3590 L
620 4154 L
620 3714 L
620 3662 L
620 3938 L
620 3904 L
620 4134 L
620 3904 L
620 4217 L
620 4104 L
620 4110 L
620 3837 L
620 4175 L
620 3853 L
620 3962 L
620 4105 L
620 3886 L
620 4137 L
620 3973 L
620 4035 L
620 4070 L
620 4037 L
620 4387 L
620 4396 L
620 3841 L
620 4235 L
620 4377 L
620 4059 L
620 4114 L
620 4195 L
620 4056 L
620 4183 L
620 4186 L
620 4426 L
620 4052 L
620 3931 L
620 4271 L
620 3914 L
620 4425 L
620 4107 L
620 4334 L
620 4407 L
620 4359 L
620 4601 L
620 4289 L
620 4550 L
620 4301 L
620 4280 L
620 4122 L
620 4087 L
620 4131 L
620 3849 L
620 4231 L
620 4505 L
620 4532 L
620 4047 L
620 4508 L
620 4383 L
620 4419 L
620 4223 L
620 4067 L
620 4550 L
620 3974 L
620 4529 L
620 4413 L
620 4489 L
620 4472 L
620 4086 L
620 4195 L
620 4519 L
620 4244 L
620 4435 L
620 4525 L
620 4305 L
620 4583 L
620 4399 L
620 4456 L
620 4250 L
620 4101 L
620 3771 L
620 4310 L
620 4390 L
620 4338 L
620 4222 L
620 3919 L
620 4082 L
620 4140 L
620 4656 L
620 4684 L
620 4074 L
620 4125 L
620 4329 L
620 4435 L
620 4368 L
620 4442 L
620 4387 L
620 4287 L
620 4411 L
620 4532 L
620 4417 L
620 4183 L
620 3843 L
620 4399 L
620 4263 L
620 4196 L
620 4131 L
620 4483 L
620 4363 L
620 4101 L
620 3795 L
620 4550 L
620 3685 L
620 4604 L
620 4132 L
620 4223 L
620 4098 L
620 4435 L
620 4190 L
620 3977 L
620 4325 L
620 4365 L
620 4292 L
620 4493 L
620 4261 L
620 4457 L
620 4545 L
620 4146 L
620 4220 L
620 4378 L
620 4190 L
620 4778 L
620 4341 L
620 4281 L
620 4522 L
620 4541 L
620 4583 L
620 4129 L
620 4368 L
620 4122 L
620 4501 L
620 4457 L
620 4435 L
620 4475 L
620 4289 L
620 4553 L
620 4085 L
620 4607 L
620 4448 L
620 4863 L
620 4463 L
620 4247 L
620 4313 L
620 4310 L
620 4170 L
620 4043 L
620 4465 L
620 4590 L
620 4426 L
620 4349 L
620 4463 L
620 4386 L
620 4211 L
620 4180 L
620 4190 L
620 4150 L
620 4371 L
620 3855 L
620 4204 L
620 4686 L
620 4447 L
620 4244 L
620 4120 L
620 4401 L
620 3953 L
620 4653 L
620 4790 L
620 4271 L
620 4256 L
620 4498 L
620 4274 L
620 4356 L
620 4110 L
620 4481 L
620 4387 L
620 4638 L
620 4504 L
620 4445 L
620 4657 L
620 4642 L
620 4592 L
620 4250 L
620 4116 L
620 4772 L
620 4299 L
620 4159 L
620 4275 L
620 4614 L
620 4672 L
620 4277 L
620 4457 L
620 4471 L
620 4389 L
620 4001 L
620 4310 L
620 4599 L
620 4337 L
620 4383 L
620 4633 L
620 4219 L
620 4231 L
620 4448 L
620 4711 L
620 3919 L
620 4692 L
620 4228 L
620 4102 L
620 4431 L
620 4356 L
620 4526 L
620 4174 L
620 4150 L
620 4141 L
620 4598 L
620 4189 L
620 4562 L
620 4104 L
620 4368 L
620 4264 L
620 4073 L
620 4363 L
620 4146 L
620 4492 L
620 4041 L
620 4104 L
620 4068 L
620 4287 L
620 4359 L
620 3900 L
620 4237 L
620 4250 L
620 4517 L
620 4414 L
620 4159 L
620 4665 L
620 4286 L
620 4120 L
620 3911 L
620 4434 L
620 4210 L
620 4017 L
620 4092 L
620 4638 L
620 4184 L
620 4289 L
620 4349 L
620 4408 L
620 4489 L
620 4408 L
620 4266 L
620 4171 L
620 4298 L
620 4413 L
620 4180 L
620 4589 L
620 4498 L
620 4211 L
620 4563 L
620 4611 L
620 4448 L
620 4156 L
620 4181 L
620 4181 L
620 4525 L
620 4122 L
620 4380 L
620 4554 L
620 4425 L
620 4395 L
620 4432 L
620 4122 L
620 4213 L
620 4620 L
620 4310 L
620 4210 L
620 4181 L
620 4407 L
620 4338 L
620 4457 L
620 4386 L
620 4426 L
620 4444 L
620 4102 L
620 4347 L
620 4161 L
620 4550 L
620 4408 L
620 4651 L
620 4541 L
620 4372 L
620 4266 L
620 4398 L
620 4495 L
620 4255 L
620 4419 L
620 4214 L
620 4132 L
620 4170 L
620 4529 L
620 4323 L
620 3959 L
620 4434 L
620 4690 L
620 4547 L
620 4184 L
620 4517 L
620 4055 L
620 4149 L
620 4539 L
620 4654 L
620 4343 L
620 4520 L
620 3988 L
620 4425 L
620 4171 L
620 3956 L
620 4049 L
620 4162 L
620 4354 L
620 4608 L
620 4087 L
620 4220 L
620 3964 L
620 4059 L
620 4235 L
620 4293 L
620 4195 L
620 4544 L
620 4126 L
620 4287 L
620 4019 L
620 4026 L
620 4460 L
620 4836 L
620 4405 L
620 4337 L
620 3949 L
620 3965 L
620 4343 L
620 3679 L
620 4450 L
620 4258 L
620 4293 L
620 4259 L
620 4095 L
620 4162 L
620 4265 L
620 3871 L
620 4016 L
620 4255 L
620 4690 L
L2 C05 COSGR

%
%================
% Legend - Begin
%================
%
GSN 4240 5180 M
4480 5180 L
LWMC SL  C05 COSGR
GSN 4540 5141 M helvM (2.5 uM) show grestore
%
%================
% Legend - End
%================
%

%
% Main frame
%
L10
GSN 
620 1700 M
4220 1700 L
4220 5300 L
620 5300 L
closepath SGR

%
% X axis: large tics
%
L10
%
% X axis: small tics
%
L5
%
% Y axis: large tics
%
L10
GSN 620 1877 M 54 0 rL SGR
GSN 4220 1877 M -54 0 rL SGR
helvS (-0.02) 560 1877 ylabel
GSN 620 2659 M 54 0 rL SGR
GSN 4220 2659 M -54 0 rL SGR
helvS (-0.01) 560 2659 ylabel
GSN 620 3441 M 54 0 rL SGR
GSN 4220 3441 M -54 0 rL SGR
helvS (0) 560 3441 ylabel
GSN 620 4223 M 54 0 rL SGR
GSN 4220 4223 M -54 0 rL SGR
helvS (0.01) 560 4223 ylabel
GSN 620 5006 M 54 0 rL SGR
GSN 4220 5006 M -54 0 rL SGR
helvS (0.02) 560 5006 ylabel
%
% Y axis: small tics
%
L5
GSN 620 1877 M 36 0 rL SGR
GSN 4220 1877 M -36 0 rL SGR
GSN 620 2073 M 36 0 rL SGR
GSN 4220 2073 M -36 0 rL SGR
GSN 620 2268 M 36 0 rL SGR
GSN 4220 2268 M -36 0 rL SGR
GSN 620 2464 M 36 0 rL SGR
GSN 4220 2464 M -36 0 rL SGR
GSN 620 2659 M 36 0 rL SGR
GSN 4220 2659 M -36 0 rL SGR
GSN 620 2855 M 36 0 rL SGR
GSN 4220 2855 M -36 0 rL SGR
GSN 620 3050 M 36 0 rL SGR
GSN 4220 3050 M -36 0 rL SGR
GSN 620 3246 M 36 0 rL SGR
GSN 4220 3246 M -36 0 rL SGR
GSN 620 3441 M 36 0 rL SGR
GSN 4220 3441 M -36 0 rL SGR
GSN 620 3637 M 36 0 rL SGR
GSN 4220 3637 M -36 0 rL SGR
GSN 620 3832 M 36 0 rL SGR
GSN 4220 3832 M -36 0 rL SGR
GSN 620 4028 M 36 0 rL SGR
GSN 4220 4028 M -36 0 rL SGR
GSN 620 4223 M 36 0 rL SGR
GSN 4220 4223 M -36 0 rL SGR
GSN 620 4419 M 36 0 rL SGR
GSN 4220 4419 M -36 0 rL SGR
GSN 620 4615 M 36 0 rL SGR
GSN 4220 4615 M -36 0 rL SGR
GSN 620 4810 M 36 0 rL SGR
GSN 4220 4810 M -36 0 rL SGR
GSN 620 5006 M 36 0 rL SGR
GSN 4220 5006 M -36 0 rL SGR
GSN 620 5201 M 36 0 rL SGR
GSN 4220 5201 M -36 0 rL SGR

%
% X axis - residual panel
%
GSN L5 620 3441 M 4220 3441 L SDA G50 SGR

%
% X-Axis label:
%
gsave 620 1370 M 
[
[(Helvetica) 180 0 true true 0 (t)]
[(Helvetica) 180 0 true true 0 (i)]
[(Helvetica) 180 0 true true 0 (m)]
[(Helvetica) 180 0 true true 0 (e)]
] 0 MCshow grestore

%
% Y-Axis label:
%
gsave 234 3500 M 
currentpoint gsave translate 90 rotate 0 0 moveto
[
[(Helvetica) 180 0 true true 0 (r)]
[(Helvetica) 180 0 true true 0 (e)]
[(Helvetica) 180 0 true true 0 (s)]
[(Helvetica) 180 0 true true 0 (i)]
[(Helvetica) 180 0 true true 0 (d)]
[(Helvetica) 180 0 true true 0 (u)]
[(Helvetica) 180 0 true true 0 (a)]
[(Helvetica) 180 0 true true 0 (l)]
[(Helvetica) 180 0 true true 0 (s)]
] 0 MCshow grestore

end
showpage
%%Trailer
%%EOF
