# data set	./hsmug/series//U-Trp-R243A.1.csv:col(7)
# fraction of residuals inside model inference band	0.870544
#   x(mesh)	    y(mesh)	       rate	   y(mesh)-	   y(mesh)+	    x(data)	    y(data)	   y(model)	   y(error)	   residual	     weight	  residual*	   leverage	  y(model)-	  y(model)+	
2.27273e-005	    0.985853	    -11.7371	    0.851824	     1.11988	    2.5e-005	     0.97752	    0.985827	           0	 -0.00830665	           1	    -2.12802	     0.59739	    0.976504	    0.995149	
2.27273e-005	    0.985853	    -11.7371	    0.851824	     1.11988	    0.001275	    0.984195	    0.982007	           0	  0.00218796	           1	    0.393254	    0.182064	    0.976861	    0.987154	
2.65091e-005	    0.985809	    -11.5077	    0.832078	     1.13954	    0.002525	    0.980992	    0.980261	           0	 0.000731305	           1	     0.12293	   0.0648846	    0.977189	    0.983334	
3.09203e-005	    0.985759	    -11.2483	     0.81009	     1.16143	    0.003775	    0.973823	    0.978582	           0	 -0.00475927	           1	    -0.89056	    0.245359	    0.972607	    0.984556	
3.60656e-005	    0.985702	    -10.9563	    0.785765	     1.18564	    0.005025	     0.97756	    0.976956	           0	 0.000604228	           1	    0.109673	    0.197982	    0.971589	    0.982323	
 4.2067e-005	    0.985637	    -10.6295	    0.758815	     1.21246	    0.006275	    0.974355	    0.975381	           0	  -0.0010264	           1	   -0.169076	   0.0262325	    0.973428	    0.977335	
4.54545e-005	    0.985601	    -10.4513	    0.744241	     1.22696	    0.007525	     0.96974	    0.973857	           0	   -0.004117	           1	    -0.78409	    0.271523	    0.967572	    0.980142	
 4.9067e-005	    0.985564	     -10.266	    0.729214	     1.24191	    0.008775	    0.970425	    0.972381	           0	 -0.00195599	           1	   -0.346791	    0.159416	    0.967565	    0.977197	
5.72319e-005	    0.985482	    -9.86442	    0.697233	     1.27373	    0.010025	    0.966042	    0.970952	           0	  -0.0049093	           1	    -0.93774	    0.275799	    0.964618	    0.977286	
6.67554e-005	     0.98539	    -9.42449	    0.662943	     1.30784	    0.011275	    0.964708	    0.969568	           0	 -0.00486044	           1	    -1.01271	    0.391352	    0.962023	    0.977113	
7.78637e-005	    0.985288	    -8.94683	     0.62683	     1.34375	    0.012525	    0.968137	    0.968228	           0	-9.04665e-005	           1	  -0.0172415	     0.27254	    0.961931	    0.974525	
9.08204e-005	    0.985175	    -8.43349	    0.589388	     1.38096	    0.013775	    0.964092	     0.96693	           0	 -0.00283797	           1	   -0.518794	    0.209298	    0.961412	    0.972448	
9.09091e-005	    0.985175	    -8.43013	    0.589127	     1.38122	    0.015025	    0.961788	    0.965674	           0	 -0.00388661	           1	    -0.68305	    0.144496	    0.961089	    0.970259	
 0.000105933	    0.985052	    -7.88805	    0.551371	     1.41873	    0.016275	    0.963827	    0.964458	           0	-0.000630053	           1	   -0.120094	    0.272729	    0.958159	    0.970756	
 0.000123561	    0.984918	    -7.31581	    0.513778	     1.45606	    0.017525	     0.96251	     0.96328	           0	-0.000769541	           1	   -0.138355	     0.18255	    0.958126	    0.968433	
 0.000144121	    0.984774	    -6.72388	     0.47767	     1.49188	    0.018775	     0.95961	    0.962139	           0	 -0.00252884	           1	   -0.440675	    0.129856	    0.957792	    0.966485	
 0.000168104	     0.98462	    -6.12102	    0.444496	     1.52474	    0.020025	    0.960508	    0.961034	           0	-0.000526766	           1	  -0.0906362	    0.107481	     0.95708	    0.964989	
 0.000181818	    0.984538	    -5.81291	    0.429124	     1.53995	    0.021275	     0.95612	    0.959965	           0	 -0.00384466	           1	   -0.721081	    0.248838	    0.953948	    0.965981	
 0.000196077	    0.984458	     -5.5175	    0.415554	     1.55336	    0.022525	    0.957588	    0.958929	           0	 -0.00134142	           1	   -0.236925	    0.152987	    0.954211	    0.963647	
 0.000228704	    0.984288	    -4.92461	    0.392284	     1.57629	    0.023775	    0.957935	    0.957926	           0	9.04598e-006	           1	  0.00148074	   0.0138565	    0.956506	    0.959346	
 0.000266761	    0.984111	    -4.35414	    0.375956	     1.59227	    0.025025	    0.958963	    0.956955	           0	  0.00200777	           1	    0.343584	   0.0977046	    0.953185	    0.960725	
 0.000311151	    0.983931	    -3.81767	    0.367539	     1.60032	    0.026275	     0.95978	    0.956014	           0	  0.00376577	           1	    0.645316	    0.100193	    0.952196	    0.959832	
 0.000362927	    0.983746	    -3.32585	    0.367532	     1.59996	    0.027525	    0.954442	    0.955103	           0	-0.000660974	           1	   -0.125567	    0.267841	    0.948861	    0.961346	
 0.000363636	    0.983744	    -3.31994	    0.367585	      1.5999	    0.028775	    0.953163	    0.954222	           0	 -0.00105903	           1	   -0.187731	    0.159136	     0.94941	    0.959033	
 0.000423319	    0.983559	    -2.88757	    0.375751	     1.59137	    0.030025	    0.951103	    0.953367	           0	 -0.00226472	           1	   -0.388986	    0.104335	    0.949472	    0.957263	
 0.000493761	     0.98337	    -2.50932	    0.391146	     1.57559	    0.031275	    0.952477	     0.95254	           0	-6.29075e-005	           1	  -0.0106626	   0.0802542	    0.949124	    0.955957	
 0.000575924	    0.983177	    -2.19459	    0.411827	     1.55453	    0.032525	    0.958448	    0.951739	           0	  0.00670801	           1	     1.17092	     0.13281	    0.947344	    0.956135	
 0.000671759	     0.98298	    -1.94348	    0.435071	     1.53089	    0.033775	    0.956635	    0.950964	           0	  0.00567111	           1	    0.983619	    0.121651	    0.946757	    0.955171	
 0.000727273	    0.982875	    -1.83784	    0.446995	     1.51876	    0.035025	    0.952076	    0.950213	           0	  0.00186345	           1	    0.330363	    0.159304	    0.945399	    0.955027	
 0.000783541	    0.982774	    -1.75259	    0.457641	     1.50791	    0.036275	    0.951658	    0.949485	           0	  0.00217206	           1	    0.390846	    0.183947	    0.944312	    0.954658	
 0.000913924	    0.982555	    -1.61525	    0.476108	       1.489	    0.037525	    0.950475	    0.948781	           0	  0.00169344	           1	    0.290067	   0.0994057	    0.944978	    0.952584	
    0.001066	    0.982317	    -1.52222	    0.487554	     1.47708	    0.038775	     0.95015	    0.948099	           0	  0.00205158	           1	    0.349707	   0.0906097	    0.944468	     0.95173	
  0.00124339	    0.982053	    -1.46282	    0.490194	     1.47391	    0.040025	    0.950305	    0.947438	           0	  0.00286666	           1	    0.489919	   0.0953286	    0.943714	    0.951162	
  0.00145029	    0.981755	     -1.4264	    0.483325	     1.48018	    0.041275	    0.952192	    0.946799	           0	  0.00539389	           1	           0	  -0.0948615	    0.946799	    0.946799	
  0.00145455	    0.981749	    -1.42587	    0.483117	     1.48038	    0.042525	    0.942694	    0.946179	           0	 -0.00348508	           1	   -0.584949	   0.0620597	    0.943174	    0.949184	
  0.00169162	    0.981413	    -1.40371	    0.467594	     1.49523	    0.043775	    0.952076	    0.945579	           0	  0.00649739	           1	     1.15441	     0.16296	     0.94071	    0.950448	
  0.00197312	    0.981021	    -1.38774	     0.44409	     1.51795	    0.045025	    0.944467	    0.944998	           0	 -0.00053133	           1	           0	   -0.116085	    0.944998	    0.944998	
  0.00230145	    0.980567	    -1.37396	    0.414038	      1.5471	    0.046275	    0.944466	    0.944435	           0	3.03602e-005	           1	  0.00546385	    0.184179	    0.939259	    0.949612	
  0.00268441	    0.980044	    -1.35984	    0.378217	     1.58187	    0.047525	    0.942407	     0.94389	           0	 -0.00148371	           1	   -0.244123	   0.0239632	    0.942023	    0.945758	
  0.00290909	    0.979739	    -1.35187	    0.357266	     1.60221	    0.048775	    0.945213	    0.943363	           0	  0.00185028	           1	    0.313747	   0.0810354	    0.939929	    0.946796	
  0.00313111	     0.97944	     -1.3441	    0.336752	     1.62213	    0.050025	    0.944982	    0.942852	           0	  0.00213061	           1	     0.36789	    0.113744	    0.938784	    0.946919	
  0.00365213	    0.978744	    -1.32611	    0.289452	     1.66804	    0.051275	    0.938098	    0.942357	           0	 -0.00425893	           1	   -0.735059	    0.112962	    0.938303	     0.94641	
  0.00425985	    0.977945	    -1.30546	    0.235863	     1.72003	    0.052525	    0.943721	    0.941877	           0	  0.00184342	           1	           0	    -0.12093	    0.941877	    0.941877	
   0.0049687	    0.977028	    -1.28179	    0.175522	     1.77853	    0.053775	    0.943399	    0.941413	           0	  0.00198589	           1	    0.338514	   0.0906278	    0.937782	    0.945044	
  0.00579551	    0.975979	    -1.25472	    0.107988	     1.84397	    0.055025	    0.939164	    0.940964	           0	 -0.00179978	           1	   -0.311628	    0.118647	    0.936809	    0.945118	
  0.00581818	    0.975951	    -1.25399	    0.106169	     1.84573	    0.056275	    0.941662	    0.940528	           0	  0.00113363	           1	    0.192594	   0.0845443	    0.937021	    0.944035	
   0.0067599	    0.974784	    -1.22388	   0.0330494	     1.91652	    0.057525	    0.944372	    0.940106	           0	   0.0042658	           1	    0.721368	   0.0760003	    0.936781	    0.943432	
  0.00788476	    0.973427	    -1.18887	  -0.0493915	     1.99625	    0.058775	    0.943608	    0.939698	           0	  0.00390943	           1	    0.683394	    0.135294	    0.935262	    0.944135	
  0.00919681	    0.971894	    -1.14931	    -0.13906	     2.08285	    0.060025	    0.937237	    0.939303	           0	 -0.00206532	           1	           0	  -0.0130373	    0.939303	    0.939303	
   0.0107272	    0.970169	    -1.10484	   -0.235283	     2.17562	    0.061275	    0.938554	     0.93892	           0	-0.000365042	           1	  -0.0616676	   0.0741144	    0.935636	    0.942203	
   0.0116364	    0.969176	    -1.07924	   -0.288349	      2.2267	    0.062525	     0.93905	    0.938549	           0	 0.000501914	           1	   0.0898438	    0.175352	    0.933498	    0.943599	
   0.0125122	    0.968241	    -1.05515	   -0.336759	     2.27324	    0.063775	    0.936303	    0.938189	           0	 -0.00188582	           1	           0	  -0.0794822	    0.938189	    0.938189	
   0.0145943	    0.966102	    -1.00003	   -0.441345	     2.37355	    0.065025	    0.935426	    0.937841	           0	 -0.00241538	           1	   -0.427324	    0.155804	    0.933081	    0.942602	
   0.0170228	    0.963748	   -0.939394	   -0.546152	     2.47365	    0.066275	    0.938058	    0.937504	           0	 0.000553589	           1	   0.0999732	    0.189797	     0.93225	    0.942759	
   0.0198554	    0.961182	   -0.873324	   -0.647348	     2.56971	    0.067525	    0.938859	    0.937178	           0	  0.00168119	           1	           0	  -0.0379087	    0.937178	    0.937178	
   0.0231594	    0.958416	   -0.802142	   -0.739608	     2.65644	    0.068775	    0.935426	    0.936862	           0	 -0.00143574	           1	   -0.264406	    0.220897	    0.931193	    0.942531	
   0.0232727	    0.958325	   -0.799808	   -0.742307	     2.65896	    0.070025	    0.933042	    0.936556	           0	 -0.00351388	           1	   -0.660919	      0.2531	    0.930488	    0.942624	
   0.0270132	    0.955473	   -0.726452	   -0.816753	      2.7277	    0.071275	    0.933366	    0.936259	           0	 -0.00289317	           1	   -0.498615	    0.110385	    0.932252	    0.940267	
   0.0315083	    0.952389	   -0.647186	   -0.871691	     2.77647	    0.072525	    0.933157	    0.935972	           0	  -0.0028158	           1	   -0.478208	   0.0838776	    0.932479	    0.939465	
   0.0367513	    0.949214	   -0.565636	   -0.896725	     2.79515	    0.073775	    0.938059	    0.935694	           0	  0.00236528	           1	    0.405572	    0.101298	    0.931855	    0.939533	
   0.0428668	    0.946013	   -0.483455	   -0.884461	     2.77649	    0.075025	      0.9339	    0.935425	           0	 -0.00152465	           1	           0	  -0.0502654	    0.935425	    0.935425	
   0.0465455	    0.944316	    -0.43991	   -0.860475	     2.74911	    0.076275	    0.937257	    0.935164	           0	  0.00209318	           1	           0	  -0.0205429	    0.935164	    0.935164	
        0.05	    0.942862	   -0.402606	   -0.828928	     2.71465	    0.077525	    0.937182	    0.934911	           0	  0.00227004	           1	           0	   -0.124223	    0.934911	    0.934911	
   0.0583201	    0.939845	   -0.325266	   -0.726413	      2.6061	    0.078775	    0.933099	    0.934667	           0	  -0.0015678	           1	   -0.286772	    0.210248	    0.929136	    0.940197	
   0.0680247	     0.93705	   -0.253656	    -0.57731	     2.45141	    0.080025	    0.933385	     0.93443	           0	 -0.00104459	           1	   -0.180716	    0.117151	    0.930302	    0.938558	
   0.0793442	    0.934558	   -0.189825	   -0.387353	     2.25647	    0.081275	    0.930314	      0.9342	           0	  -0.0038861	           1	   -0.647619	   0.0485738	    0.931542	    0.936859	
   0.0925473	    0.932431	   -0.135389	   -0.168308	     2.03317	    0.082525	    0.929762	    0.933978	           0	 -0.00421659	           1	   -0.711684	   0.0724585	    0.930731	    0.937225	
   0.0930909	    0.932358	   -0.133519	   -0.159602	     2.02432	    0.083775	    0.935237	    0.933763	           0	  0.00147367	           1	    0.242118	   0.0211144	     0.93201	    0.935515	
    0.107947	    0.930708	  -0.0912981	   0.0636587	     1.79776	    0.085025	    0.932947	    0.933554	           0	-0.000607596	           1	   -0.106933	    0.146917	    0.928931	    0.938177	
     0.12591	    0.929393	  -0.0576674	     0.28938	     1.56941	    0.086275	    0.935369	    0.933352	           0	  0.00201657	           1	    0.334684	   0.0407263	    0.930918	    0.935787	
    0.146862	    0.928458	  -0.0337483	    0.490546	     1.36637	    0.087525	    0.928235	    0.933157	           0	 -0.00492137	           1	   -0.817503	   0.0424147	    0.930673	    0.935641	
      0.1713	    0.927844	  -0.0180677	    0.653488	      1.2022	    0.088775	    0.931153	    0.932967	           0	 -0.00181471	           1	           0	  -0.0960017	    0.932967	    0.932967	
    0.186182	    0.927621	  -0.0123503	    0.723234	     1.13201	    0.090025	    0.932183	    0.932784	           0	-0.000600524	           1	   -0.100238	   0.0516274	    0.930043	    0.935525	
    0.199805	    0.927479	  -0.0087183	    0.771971	     1.08299	    0.091275	    0.932737	    0.932606	           0	  0.00013039	           1	    0.023207	    0.165867	    0.927694	    0.937519	
    0.233053	    0.927283	 -0.00372668	    0.848059	     1.00651	    0.092525	    0.931688	    0.932434	           0	 -0.00074654	           1	           0	 -0.00258207	    0.932434	    0.932434	
    0.271834	    0.927192	 -0.00138294	    0.889043	    0.965341	    0.093775	    0.930658	    0.932268	           0	 -0.00160964	           1	   -0.265223	     0.02676	    0.930295	    0.934241	
    0.317067	    0.927155	-0.000435165	    0.906107	    0.948202	    0.095025	    0.927797	    0.932106	           0	 -0.00430948	           1	    -0.70479	   0.0120949	     0.93078	    0.933433	
    0.369828	    0.927142	-0.000112966	    0.908818	    0.945466	    0.096275	     0.92774	     0.93195	           0	 -0.00421015	           1	           0	  -0.0914602	     0.93195	     0.93195	
    0.372364	    0.927142	-0.000105877	    0.910098	    0.944186	    0.097525	    0.930124	    0.931798	           0	 -0.00167475	           1	   -0.319537	    0.274159	    0.925483	    0.938114	
    0.431368	    0.927139	-2.34304e-005	    0.909938	    0.944339	    0.098775	    0.930619	    0.931652	           0	 -0.00103236	           1	   -0.170829	   0.0350038	    0.929395	    0.933908	
    0.503149	    0.927138	-3.7405e-006	    0.909612	    0.944664	      0.1001	    0.931401	    0.931501	           0	-9.99594e-005	           1	  -0.0166872	   0.0518719	    0.928754	    0.934248	
    0.586875	    0.927138	-4.40031e-007	    0.909663	    0.944612	      0.1051	    0.925794	    0.930978	           0	 -0.00518394	           1	   -0.865573	   0.0522424	    0.928221	    0.933735	
    0.684532	    0.927138	-3.62553e-008	    0.908662	    0.945614	      0.1101	    0.924192	    0.930517	           0	 -0.00632481	           1	    -1.12749	     0.16851	    0.925566	    0.935468	
    0.744727	    0.927138	-7.7828e-009	    0.909948	    0.944327	      0.1151	     0.92341	    0.930111	           0	 -0.00670101	           1	    -1.10366	   0.0259128	     0.92817	    0.932053	
     0.79844	    0.927138	-1.97183e-009	    0.909288	    0.944987	      0.1201	    0.918165	    0.929754	           0	  -0.0115897	           1	    -1.93895	    0.055952	    0.926901	    0.932607	
    0.931302	    0.927138	-6.60602e-011	    0.909625	     0.94465	      0.1251	    0.923353	     0.92944	           0	 -0.00608763	           1	    -1.06558	    0.137596	    0.924966	    0.933914	
           1	    0.927138	-1.13984e-011	    0.909581	    0.944694	      0.1301	    0.925126	    0.929164	           0	 -0.00403755	           1	           0	  -0.0765417	    0.929164	    0.929164	
     1.08627	    0.927138	-1.26761e-012	    0.909963	    0.944312	      0.1351	    0.921331	    0.928921	           0	 -0.00759014	           1	           0	   -0.148034	    0.928921	    0.928921	
     1.26703	    0.927138	-1.60017e-014	    0.909963	    0.944312	      0.1401	    0.921579	    0.928707	           0	 -0.00712791	           1	    -1.16922	   0.0179856	    0.927089	    0.930324	
     1.47787	    0.927138	1.59846e-015	    0.909488	    0.944787	      0.1451	     0.92013	    0.928519	           0	 -0.00838911	           1	    -1.45449	    0.120985	    0.924323	    0.932714	
     1.48945	    0.927138	-2.70702e-015	    0.909488	    0.944787	      0.1501	    0.922704	    0.928353	           0	 -0.00564891	           1	           0	    -0.12593	    0.928353	    0.928353	
     1.72379	    0.927138	3.67871e-016	    0.909963	    0.944312	      0.1551	    0.913816	    0.928207	           0	  -0.0143911	           1	    -2.43053	   0.0736582	    0.924934	    0.931481	
     2.01063	    0.927138	-3.13584e-016	    0.909963	    0.944312	      0.1601	     0.92095	    0.928079	           0	 -0.00712903	           1	           0	   -0.134753	    0.928079	    0.928079	
     2.34521	    0.927138	-9.32385e-016	    0.909488	    0.944787	      0.1651	    0.917078	    0.927966	           0	  -0.0108881	           1	    -1.79343	   0.0260816	    0.926018	    0.929914	
     2.73546	    0.927138	1.60027e-015	    0.909488	    0.944787	      0.1701	    0.915818	    0.927866	           0	   -0.012048	           1	           0	  -0.0596913	    0.927866	    0.927866	
     2.97891	    0.927138	1.50461e-017	    0.909488	    0.944787	      0.1751	    0.913034	    0.927779	           0	   -0.014745	           1	           0	  -0.0790368	    0.927779	    0.927779	
     3.19064	    0.927138	 2.4751e-016	    0.909963	    0.944312	      0.1801	    0.913568	    0.927702	           0	  -0.0141343	           1	    -2.39504	   0.0797428	    0.924296	    0.931108	
     3.72157	    0.927138	-2.9752e-018	    0.909963	    0.944312	      0.1851	    0.915761	    0.927634	           0	  -0.0118731	           1	    -1.97827	   0.0481988	    0.924986	    0.930282	
     4.34085	    0.927138	-1.54515e-017	    0.909963	    0.944312	      0.1901	    0.914713	    0.927575	           0	  -0.0128623	           1	    -2.37987	    0.228183	    0.921813	    0.933336	
     5.06318	    0.927138	9.72895e-018	    0.909963	    0.944312	      0.1951	     0.91166	    0.927522	           0	  -0.0158618	           1	     -2.5803	  0.00149357	    0.927056	    0.927988	
     5.90571	    0.927138	1.94424e-019	    0.909963	    0.944312	      0.2001	    0.913816	    0.927476	           0	  -0.0136604	           1	    -2.31753	   0.0819537	    0.924023	    0.930929	
     5.95782	    0.927138	-3.9527e-019	    0.909963	    0.944312	      0.2051	     0.91496	    0.927436	           0	  -0.0124751	           1	    -2.26087	    0.195511	    0.922102	    0.932769	
     6.88843	    0.927138	-1.09267e-017	    0.909963	    0.944312	      0.2101	    0.918336	      0.9274	           0	 -0.00906359	           1	           0	   -0.144729	      0.9274	      0.9274	
     8.03469	    0.927138	-1.62447e-019	    0.909963	    0.944312	      0.2151	    0.912709	    0.927368	           0	  -0.0146589	           1	    -2.41916	   0.0298074	    0.925286	    0.929451	
     9.37168	    0.927138	-2.47954e-019	    0.909963	    0.944312	      0.2201	    0.914693	    0.927341	           0	  -0.0126472	           1	    -2.10197	   0.0434216	    0.924827	    0.929854	
     10.9312	    0.927138	1.00644e-019	    0.909963	    0.944312	      0.2251	    0.917077	    0.927316	           0	  -0.0102388	           1	     -1.6656	  0.00150966	    0.926848	    0.927785	
     11.9156	    0.927138	1.00644e-019	    0.909963	    0.944312	      0.2301	    0.913835	    0.927295	           0	  -0.0134599	           1	           0	  -0.0345821	    0.927295	    0.927295	
     12.7501	    0.927138	1.00644e-019	    0.909963	    0.944312	      0.2351	    0.914693	    0.927276	           0	  -0.0125826	           1	    -2.07415	   0.0276106	    0.925272	     0.92928	
     14.8718	    0.927138	1.32313e-022	    0.909963	    0.944312	      0.2401	    0.912805	    0.927259	           0	  -0.0144545	           1	    -2.48991	    0.109524	    0.923268	    0.931251	
     17.3465	    0.927138	1.32313e-022	    0.909963	    0.944312	      0.2451	    0.914331	    0.927245	           0	  -0.0129141	           1	           0	  -0.0736946	    0.927245	    0.927245	
      20.233	    0.927138	1.32313e-022	    0.909963	    0.944312	      0.2501	    0.913034	    0.927232	           0	   -0.014198	           1	           0	  -0.0147722	    0.927232	    0.927232	
     23.5998	    0.927138	1.32313e-022	    0.909963	    0.944312	      0.2551	    0.914102	    0.927221	           0	  -0.0131187	           1	    -2.32688	    0.160121	    0.922394	    0.932047	
     23.8313	    0.927138	1.32313e-022	    0.909963	    0.944312	      0.2601	    0.909868	    0.927211	           0	   -0.017343	           1	    -2.83976	   0.0144736	     0.92576	    0.928662	
     27.5269	    0.927138	1.32313e-022	    0.909963	    0.944312	      0.2651	    0.908056	    0.927202	           0	  -0.0191462	           1	    -3.21311	   0.0617913	    0.924204	      0.9302	
     32.1074	    0.927138	1.32313e-022	    0.909963	    0.944312	      0.2701	    0.909563	    0.927194	           0	  -0.0176317	           1	      -2.915	   0.0332834	    0.924994	    0.929395	
     37.4501	    0.927138	1.32313e-022	    0.909963	    0.944312	      0.2751	    0.907445	    0.927187	           0	  -0.0197422	           1	    -3.33543	   0.0742917	      0.9239	    0.930475	
     43.6819	    0.927138	1.73927e-025	    0.909963	    0.944312	      0.2801	     0.91065	    0.927181	           0	  -0.0165317	           1	           0	  -0.0938603	    0.927181	    0.927181	
     47.6625	    0.927138	1.73927e-025	    0.909963	    0.944312	      0.2851	    0.908017	    0.927176	           0	   -0.019159	           1	     -3.1837	   0.0430993	    0.924672	     0.92968	
     50.9507	    0.927138	1.73927e-025	    0.909963	    0.944312	      0.2901	    0.914446	    0.927172	           0	  -0.0127261	           1	           0	   -0.145651	    0.927172	    0.927172	
     59.4291	    0.927138	1.73927e-025	    0.909963	    0.944312	      0.2951	    0.912976	    0.927168	           0	   -0.014191	           1	    -2.57415	    0.196946	    0.921815	     0.93252	
     69.3182	    0.927138	1.73927e-025	    0.909963	    0.944312	      0.3001	    0.913511	    0.927164	           0	  -0.0136535	           1	    -2.42436	    0.161935	     0.92231	    0.932018	
     80.8529	    0.927138	2.28905e-029	    0.909963	    0.944312	      0.3051	     0.91187	    0.927161	           0	  -0.0152906	           1	           0	  -0.0901696	    0.927161	    0.927161	
     94.3071	    0.927138	2.28905e-029	    0.909963	    0.944312	      0.3101	     0.91498	    0.927158	           0	  -0.0121785	           1	           0	 -0.00890859	    0.927158	    0.927158	
         110	    0.927138	2.28905e-029	    0.909963	    0.944312	      0.3151	    0.916067	    0.927156	           0	  -0.0110891	           1	           0	  -0.0634938	    0.927156	    0.927156	
 --	 --	 --	 --	 --	      0.3201	    0.910116	    0.927153	           0	  -0.0170379	           1	    -2.87834	    0.074159	    0.923869	    0.930438	
 --	 --	 --	 --	 --	      0.3251	    0.912481	    0.927152	           0	  -0.0146711	           1	    -2.62304	    0.173396	    0.922129	    0.932174	
 --	 --	 --	 --	 --	      0.3301	    0.915132	     0.92715	           0	  -0.0120181	           1	           0	   -0.167228	     0.92715	     0.92715	
 --	 --	 --	 --	 --	      0.3351	     0.91023	    0.927148	           0	  -0.0169184	           1	    -2.81322	   0.0443492	    0.924608	    0.929688	
 --	 --	 --	 --	 --	      0.3401	    0.917917	    0.927147	           0	 -0.00923039	           1	    -1.55513	   0.0691223	    0.923976	    0.930318	
 --	 --	 --	 --	 --	      0.3451	    0.912729	    0.927146	           0	  -0.0144173	           1	    -2.44518	   0.0813962	    0.923705	    0.930587	
 --	 --	 --	 --	 --	      0.3501	    0.909963	    0.927145	           0	  -0.0171818	           1	    -2.84778	   0.0381488	    0.924789	    0.929501	
 --	 --	 --	 --	 --	      0.3551	    0.916372	    0.927144	           0	  -0.0107724	           1	    -1.88773	    0.139542	    0.922639	     0.93165	
 --	 --	 --	 --	 --	      0.3601	    0.916791	    0.927143	           0	  -0.0103521	           1	    -1.78299	    0.109272	    0.923156	     0.93113	
 --	 --	 --	 --	 --	      0.3651	     0.91641	    0.927143	           0	  -0.0107329	           1	           0	   -0.141101	    0.927143	    0.927143	
 --	 --	 --	 --	 --	      0.3701	    0.913473	    0.927142	           0	  -0.0136696	           1	    -2.27345	   0.0447371	    0.924591	    0.929693	
 --	 --	 --	 --	 --	      0.3751	    0.907846	    0.927142	           0	  -0.0192958	           1	           0	   -0.103252	    0.927142	    0.927142	
 --	 --	 --	 --	 --	      0.3801	    0.918584	    0.927141	           0	 -0.00855709	           1	    -1.48623	    0.124082	    0.922892	     0.93139	
 --	 --	 --	 --	 --	      0.3851	    0.914064	    0.927141	           0	  -0.0130767	           1	           0	-0.000464084	    0.927141	    0.927141	
 --	 --	 --	 --	 --	      0.3901	    0.912919	     0.92714	           0	  -0.0142208	           1	    -2.38716	     0.06228	     0.92413	     0.93015	
 --	 --	 --	 --	 --	      0.3951	    0.912347	     0.92714	           0	  -0.0147928	           1	           0	   -0.171867	     0.92714	     0.92714	
 --	 --	 --	 --	 --	      0.4001	    0.918508	     0.92714	           0	 -0.00863173	           1	           0	 -0.00361706	     0.92714	     0.92714	
 --	 --	 --	 --	 --	      0.4051	    0.914808	    0.927139	           0	  -0.0123317	           1	           0	  -0.0274105	    0.927139	    0.927139	
 --	 --	 --	 --	 --	      0.4101	     0.91414	    0.927139	           0	   -0.012999	           1	    -2.15991	   0.0429531	     0.92464	    0.929639	
 --	 --	 --	 --	 --	      0.4151	     0.92175	    0.927139	           0	 -0.00538858	           1	           0	  -0.0349852	    0.927139	    0.927139	
 --	 --	 --	 --	 --	      0.4201	    0.911642	    0.927139	           0	  -0.0154974	           1	           0	 -0.00838761	    0.927139	    0.927139	
 --	 --	 --	 --	 --	      0.4251	    0.911012	    0.927139	           0	  -0.0161268	           1	    -2.80838	      0.1287	    0.922812	    0.931466	
 --	 --	 --	 --	 --	      0.4301	    0.914598	    0.927139	           0	  -0.0125406	           1	    -2.05259	   0.0136785	    0.925728	    0.928549	
 --	 --	 --	 --	 --	      0.4351	    0.914312	    0.927139	           0	  -0.0128268	           1	    -2.17018	    0.076941	    0.923793	    0.930484	
 --	 --	 --	 --	 --	      0.4401	    0.915609	    0.927138	           0	  -0.0115297	           1	           0	   -0.109736	    0.927138	    0.927138	
 --	 --	 --	 --	 --	      0.4451	    0.913644	    0.927138	           0	  -0.0134938	           1	    -2.38061	    0.151052	    0.922451	    0.931826	
 --	 --	 --	 --	 --	      0.4501	    0.910936	    0.927138	           0	  -0.0162025	           1	    -2.74607	   0.0801304	    0.923724	    0.930553	
 --	 --	 --	 --	 --	      0.4551	    0.915838	    0.927138	           0	  -0.0113004	           1	      -2.091	    0.228263	    0.921376	    0.932901	
 --	 --	 --	 --	 --	      0.4601	    0.918737	    0.927138	           0	 -0.00840138	           1	     -1.3895	   0.0340176	    0.924914	    0.929363	
 --	 --	 --	 --	 --	      0.4651	    0.915933	    0.927138	           0	  -0.0112048	           1	           0	 -0.00155906	    0.927138	    0.927138	
 --	 --	 --	 --	 --	      0.4701	    0.915227	    0.927138	           0	  -0.0119105	           1	     -2.0111	   0.0732098	    0.923875	    0.930402	
 --	 --	 --	 --	 --	      0.4751	    0.913492	    0.927138	           0	  -0.0136465	           1	    -2.24122	     0.02038	    0.925416	     0.92886	
 --	 --	 --	 --	 --	      0.4801	    0.912767	    0.927138	           0	  -0.0143712	           1	    -2.58852	    0.185544	    0.921943	    0.932333	
 --	 --	 --	 --	 --	      0.4851	     0.91992	    0.927138	           0	 -0.00721842	           1	     -1.2227	   0.0790566	    0.923747	    0.930529	
 --	 --	 --	 --	 --	      0.4901	    0.916486	    0.927138	           0	  -0.0106516	           1	           0	   -0.168131	    0.927138	    0.927138	
 --	 --	 --	 --	 --	      0.4951	    0.912481	    0.927138	           0	  -0.0146571	           1	    -2.41279	   0.0249119	    0.925234	    0.929042	
 --	 --	 --	 --	 --	      0.5001	    0.918374	    0.927138	           0	  -0.0087636	           1	           0	  -0.0563508	    0.927138	    0.927138	
 --	 --	 --	 --	 --	      0.5051	    0.914121	    0.927138	           0	  -0.0130171	           1	           0	  -0.0584099	    0.927138	    0.927138	
 --	 --	 --	 --	 --	      0.5101	    0.914331	    0.927138	           0	  -0.0128073	           1	           0	   -0.015766	    0.927138	    0.927138	
 --	 --	 --	 --	 --	      0.5151	    0.920377	    0.927138	           0	  -0.0067608	           1	    -1.24562	    0.221585	     0.92146	    0.932815	
 --	 --	 --	 --	 --	      0.5201	    0.915914	    0.927138	           0	  -0.0112238	           1	    -1.97352	    0.145364	    0.922539	    0.931736	
 --	 --	 --	 --	 --	      0.5251	    0.915914	    0.927138	           0	   -0.011224	           1	    -1.95771	    0.131464	    0.922765	    0.931511	
 --	 --	 --	 --	 --	      0.5301	    0.921941	    0.927138	           0	 -0.00519677	           1	   -0.846918	  0.00512366	    0.926274	    0.928001	
 --	 --	 --	 --	 --	      0.5351	    0.917974	    0.927138	           0	 -0.00916401	           1	           0	   -0.104795	    0.927138	    0.927138	
 --	 --	 --	 --	 --	      0.5401	    0.916772	    0.927138	           0	  -0.0103652	           1	           0	  -0.0703886	    0.927138	    0.927138	
 --	 --	 --	 --	 --	      0.5451	    0.919748	    0.927138	           0	 -0.00738999	           1	     -1.3132	    0.163224	    0.922265	    0.932011	
 --	 --	 --	 --	 --	      0.5501	    0.920911	    0.927138	           0	 -0.00622649	           1	    -1.01625	  0.00809853	    0.926052	    0.928223	
 --	 --	 --	 --	 --	      0.5551	    0.918317	    0.927138	           0	 -0.00882048	           1	           0	  -0.0557747	    0.927138	    0.927138	
 --	 --	 --	 --	 --	      0.5601	    0.915571	    0.927138	           0	  -0.0115667	           1	           0	  -0.0483473	    0.927138	    0.927138	
 --	 --	 --	 --	 --	      0.5651	    0.918088	    0.927138	           0	 -0.00904947	           1	    -1.72048	    0.268976	    0.920882	    0.933393	
 --	 --	 --	 --	 --	      0.5701	    0.923772	    0.927138	           0	 -0.00336547	           1	   -0.554998	   0.0283858	    0.925106	     0.92917	
 --	 --	 --	 --	 --	      0.5751	     0.92074	    0.927138	           0	 -0.00639797	           1	           0	 -0.00670728	    0.927138	    0.927138	
 --	 --	 --	 --	 --	      0.5801	    0.915571	    0.927138	           0	   -0.011567	           1	           0	  -0.0786262	    0.927138	    0.927138	
 --	 --	 --	 --	 --	      0.5851	    0.922837	    0.927138	           0	 -0.00430021	           1	   -0.709958	   0.0306076	    0.925028	    0.929248	
 --	 --	 --	 --	 --	      0.5901	    0.922056	    0.927138	           0	 -0.00508221	           1	   -0.853132	   0.0623144	    0.924127	    0.930149	
 --	 --	 --	 --	 --	      0.5951	    0.918127	    0.927138	           0	 -0.00901096	           1	    -1.49577	   0.0410455	    0.924694	    0.929581	
 --	 --	 --	 --	 --	      0.6001	    0.915151	    0.927138	           0	  -0.0119867	           1	    -2.19051	    0.208783	    0.921627	    0.932649	
 --	 --	 --	 --	 --	      0.6051	    0.922418	    0.927138	           0	  -0.0047197	           1	   -0.780731	   0.0343691	    0.924902	    0.929374	
 --	 --	 --	 --	 --	      0.6101	    0.922799	    0.927138	           0	 -0.00433845	           1	           0	  -0.0626363	    0.927138	    0.927138	
 --	 --	 --	 --	 --	      0.6151	    0.919385	    0.927138	           0	  -0.0077522	           1	    -1.27339	   0.0207136	    0.925402	    0.928874	
 --	 --	 --	 --	 --	      0.6201	    0.913949	    0.927138	           0	  -0.0131884	           1	           0	  -0.0525055	    0.927138	    0.927138	
 --	 --	 --	 --	 --	      0.6251	    0.922494	    0.927138	           0	 -0.00464345	           1	   -0.813683	    0.139489	    0.922633	    0.931642	
 --	 --	 --	 --	 --	      0.6301	    0.920358	    0.927138	           0	 -0.00677945	           1	    -1.14653	   0.0761535	    0.923809	    0.930466	
 --	 --	 --	 --	 --	      0.6351	    0.921121	    0.927138	           0	  -0.0060167	           1	    -1.05179	     0.13534	      0.9227	    0.931575	
 --	 --	 --	 --	 --	      0.6401	    0.925603	    0.927138	           0	 -0.00153445	           1	   -0.262232	   0.0952738	    0.923415	    0.930861	
 --	 --	 --	 --	 --	      0.6451	    0.919824	    0.927138	           0	 -0.00731395	           1	    -1.23299	   0.0702373	    0.923941	    0.930334	
 --	 --	 --	 --	 --	      0.6501	    0.921941	    0.927138	           0	  -0.0051967	           1	           0	  -0.0073057	    0.927138	    0.927138	
 --	 --	 --	 --	 --	      0.6551	    0.924383	    0.927138	           0	 -0.00275495	           1	           0	-0.000113594	    0.927138	    0.927138	
 --	 --	 --	 --	 --	      0.6601	    0.920053	    0.927138	           0	 -0.00708469	           1	    -1.17116	   0.0330771	    0.924944	    0.929331	
 --	 --	 --	 --	 --	      0.6651	    0.921655	    0.927138	           0	 -0.00548244	           1	   -0.903051	    0.026112	    0.925189	    0.929087	
 --	 --	 --	 --	 --	      0.6701	    0.920358	    0.927138	           0	 -0.00677944	           1	    -1.23374	    0.202138	    0.921715	     0.93256	
 --	 --	 --	 --	 --	      0.6751	    0.923582	    0.927138	           0	 -0.00355619	           1	   -0.600446	   0.0731527	    0.923875	      0.9304	
 --	 --	 --	 --	 --	      0.6801	    0.924345	    0.927138	           0	 -0.00279294	           1	           0	  -0.0024127	    0.927138	    0.927138	
 --	 --	 --	 --	 --	      0.6851	    0.921731	    0.927138	           0	 -0.00540644	           1	           0	  -0.0212625	    0.927138	    0.927138	
 --	 --	 --	 --	 --	      0.6901	    0.920339	    0.927138	           0	 -0.00679894	           1	    -1.11309	    0.014153	    0.925703	    0.928573	
 --	 --	 --	 --	 --	      0.6951	    0.919996	    0.927138	           0	 -0.00714194	           1	           0	   -0.150043	    0.927138	    0.927138	
 --	 --	 --	 --	 --	      0.7001	    0.920549	    0.927138	           0	 -0.00658894	           1	           0	 -0.00588669	    0.927138	    0.927138	
 --	 --	 --	 --	 --	      0.7051	    0.923048	    0.927138	           0	 -0.00408994	           1	           0	   -0.130459	    0.927138	    0.927138	
 --	 --	 --	 --	 --	      0.7101	    0.927072	    0.927138	           0	-6.56929e-005	           1	           0	 -0.00180715	    0.927138	    0.927138	
 --	 --	 --	 --	 --	      0.7151	    0.922552	    0.927138	           0	 -0.00458594	           1	           0	  -0.0290441	    0.927138	    0.927138	
 --	 --	 --	 --	 --	      0.7201	    0.924096	    0.927138	           0	 -0.00304119	           1	           0	-0.000116695	    0.927138	    0.927138	
 --	 --	 --	 --	 --	      0.7251	    0.917478	    0.927138	           0	 -0.00965944	           1	           0	  -0.0141861	    0.927138	    0.927138	
 --	 --	 --	 --	 --	      0.7301	     0.92505	    0.927138	           0	 -0.00208744	           1	    -0.35371	   0.0797217	    0.923732	    0.930543	
 --	 --	 --	 --	 --	      0.7351	    0.921369	    0.927138	           0	 -0.00576844	           1	     -1.0812	    0.247879	    0.921133	    0.933143	
 --	 --	 --	 --	 --	      0.7401	    0.924993	    0.927138	           0	 -0.00214469	           1	           0	  -0.0448163	    0.927138	    0.927138	
 --	 --	 --	 --	 --	      0.7451	    0.923086	    0.927138	           0	 -0.00405219	           1	           0	   -0.142994	    0.927138	    0.927138	
 --	 --	 --	 --	 --	      0.7501	    0.921235	    0.927138	           0	 -0.00590219	           1	    -1.01656	    0.109274	    0.923151	    0.931125	
 --	 --	 --	 --	 --	      0.7551	    0.927339	    0.927138	           0	 0.000201308	           1	           0	  -0.0205214	    0.927138	    0.927138	
 --	 --	 --	 --	 --	      0.7601	    0.926824	    0.927138	           0	-0.000313692	           1	  -0.0517563	   0.0293418	    0.925072	    0.929204	
 --	 --	 --	 --	 --	      0.7651	    0.921903	    0.927138	           0	 -0.00523444	           1	   -0.911438	    0.128491	    0.922814	    0.931461	
 --	 --	 --	 --	 --	      0.7701	    0.923925	    0.927138	           0	 -0.00321269	           1	   -0.593301	     0.22523	    0.921414	    0.932862	
 --	 --	 --	 --	 --	      0.7751	    0.925737	    0.927138	           0	 -0.00140094	           1	   -0.228258	  0.00465686	    0.926315	    0.927961	
 --	 --	 --	 --	 --	      0.7801	    0.927416	    0.927138	           0	 0.000277808	           1	   0.0492683	    0.159887	    0.922315	    0.931961	
 --	 --	 --	 --	 --	      0.7851	    0.922113	    0.927138	           0	 -0.00502494	           1	   -0.831052	   0.0339691	    0.924915	    0.929361	
 --	 --	 --	 --	 --	      0.7901	    0.926614	    0.927138	           0	-0.000523442	           1	           0	  -0.0829299	    0.927138	    0.927138	
 --	 --	 --	 --	 --	      0.7951	    0.928274	    0.927138	           0	  0.00113606	           1	    0.198374	    0.133404	    0.922732	    0.931543	
 --	 --	 --	 --	 --	      0.8001	    0.925527	    0.927138	           0	 -0.00161069	           1	           0	   -0.142068	    0.927138	    0.927138	
 --	 --	 --	 --	 --	      0.8051	    0.924573	    0.927138	           0	 -0.00256444	           1	   -0.419963	   0.0147444	    0.925673	    0.928602	
 --	 --	 --	 --	 --	      0.8101	    0.920701	    0.927138	           0	 -0.00643619	           1	           0	  -0.0692528	    0.927138	    0.927138	
 --	 --	 --	 --	 --	      0.8151	    0.925928	    0.927138	           0	 -0.00120994	           1	   -0.201281	   0.0452111	    0.924573	    0.929702	
 --	 --	 --	 --	 --	      0.8201	    0.921064	    0.927138	           0	 -0.00607394	           1	    -1.06127	    0.134485	    0.922715	    0.931561	
 --	 --	 --	 --	 --	      0.8251	    0.924669	    0.927138	           0	 -0.00246869	           1	   -0.412525	   0.0537209	    0.924342	    0.929933	
 --	 --	 --	 --	 --	      0.8301	    0.926176	    0.927138	           0	-0.000961942	           1	           0	   -0.117805	    0.927138	    0.927138	
 --	 --	 --	 --	 --	      0.8351	    0.925928	    0.927138	           0	 -0.00121019	           1	   -0.203565	   0.0661297	    0.924036	    0.930239	
 --	 --	 --	 --	 --	      0.8401	    0.927568	    0.927138	           0	 0.000430308	           1	   0.0705349	   0.0165878	    0.925584	    0.928691	
 --	 --	 --	 --	 --	      0.8451	    0.926881	    0.927138	           0	-0.000256442	           1	           0	  -0.0977028	    0.927138	    0.927138	
 --	 --	 --	 --	 --	      0.8501	    0.923009	    0.927138	           0	 -0.00412844	           1	           0	    -0.13244	    0.927138	    0.927138	
 --	 --	 --	 --	 --	      0.8551	    0.930868	    0.927138	           0	  0.00373056	           1	    0.629351	   0.0715759	    0.923911	    0.930365	
 --	 --	 --	 --	 --	      0.8601	    0.924306	    0.927138	           0	 -0.00283169	           1	   -0.471808	    0.048199	     0.92449	    0.929786	
 --	 --	 --	 --	 --	      0.8651	    0.923792	    0.927138	           0	 -0.00334619	           1	           0	   -0.108392	    0.927138	    0.927138	
 --	 --	 --	 --	 --	      0.8701	    0.930067	    0.927138	           0	  0.00292881	           1	           0	   -0.165636	    0.927138	    0.927138	
 --	 --	 --	 --	 --	      0.8751	    0.926404	    0.927138	           0	-0.000733442	           1	   -0.123048	   0.0612072	    0.924154	    0.930122	
 --	 --	 --	 --	 --	      0.8801	    0.925832	    0.927138	           0	 -0.00130544	           1	           0	   -0.132395	    0.927138	    0.927138	
 --	 --	 --	 --	 --	      0.8851	    0.926957	    0.927138	           0	-0.000180442	           1	  -0.0297264	   0.0264105	    0.925178	    0.929098	
 --	 --	 --	 --	 --	      0.8901	    0.921674	    0.927138	           0	 -0.00546369	           1	           0	  -0.0220285	    0.927138	    0.927138	
 --	 --	 --	 --	 --	      0.8951	    0.923467	    0.927138	           0	 -0.00367094	           1	   -0.634024	    0.114214	    0.923061	    0.931214	
 --	 --	 --	 --	 --	      0.9001	    0.930963	    0.927138	           0	  0.00382556	           1	           0	   -0.144613	    0.927138	    0.927138	
 --	 --	 --	 --	 --	      0.9051	    0.929456	    0.927138	           0	  0.00231856	           1	    0.391027	   0.0710197	    0.923923	    0.930352	
 --	 --	 --	 --	 --	      0.9101	    0.928102	    0.927138	           0	 0.000964308	           1	    0.158782	   0.0254229	    0.925215	    0.929061	
 --	 --	 --	 --	 --	      0.9151	    0.931535	    0.927138	           0	  0.00439731	           1	           0	   -0.122446	    0.927138	    0.927138	
 --	 --	 --	 --	 --	      0.9201	    0.925565	    0.927138	           0	 -0.00157244	           1	   -0.265133	   0.0705942	    0.923933	    0.930342	
 --	 --	 --	 --	 --	      0.9251	    0.923887	    0.927138	           0	 -0.00325094	           1	           0	  -0.0229098	    0.927138	    0.927138	
 --	 --	 --	 --	 --	      0.9301	    0.925146	    0.927138	           0	 -0.00199194	           1	   -0.329824	   0.0362306	    0.924842	    0.929433	
 --	 --	 --	 --	 --	      0.9351	    0.931287	    0.927138	           0	  0.00414956	           1	    0.694425	   0.0565087	    0.924271	    0.930005	
 --	 --	 --	 --	 --	      0.9401	    0.928521	    0.927138	           0	  0.00138356	           1	           0	  -0.0205933	    0.927138	    0.927138	
 --	 --	 --	 --	 --	      0.9451	    0.925108	    0.927138	           0	 -0.00203019	           1	   -0.330342	  0.00199963	    0.926598	    0.927677	
 --	 --	 --	 --	 --	      0.9501	    0.926633	    0.927138	           0	-0.000504442	           1	  -0.0850301	    0.070043	    0.923946	     0.93033	
 --	 --	 --	 --	 --	      0.9551	     0.92999	    0.927138	           0	  0.00285256	           1	    0.493073	    0.115636	    0.923036	    0.931239	
 --	 --	 --	 --	 --	      0.9601	    0.927987	    0.927138	           0	 0.000849808	           1	           0	   -0.043597	    0.927138	    0.927138	
 --	 --	 --	 --	 --	      0.9651	    0.928083	    0.927138	           0	 0.000945308	           1	    0.156489	   0.0358079	    0.924855	     0.92942	
 --	 --	 --	 --	 --	      0.9701	    0.923467	    0.927138	           0	 -0.00367069	           1	           0	  -0.0576257	    0.927138	    0.927138	
 --	 --	 --	 --	 --	      0.9751	    0.930067	    0.927138	           0	  0.00292906	           1	           0	  -0.0891935	    0.927138	    0.927138	
 --	 --	 --	 --	 --	      0.9801	     0.93245	    0.927138	           0	  0.00531231	           1	           0	   -0.100425	    0.927138	    0.927138	
 --	 --	 --	 --	 --	      0.9851	    0.927568	    0.927138	           0	 0.000430058	           1	           0	   -0.202831	    0.927138	    0.927138	
 --	 --	 --	 --	 --	      0.9901	    0.926919	    0.927138	           0	-0.000218442	           1	           0	   -0.202831	    0.927138	    0.927138	
 --	 --	 --	 --	 --	      0.9951	    0.928026	    0.927138	           0	 0.000888058	           1	           0	    -0.20283	    0.927138	    0.927138	
 --	 --	 --	 --	 --	      1.0001	    0.929323	    0.927138	           0	  0.00218506	           1	           0	  -0.0891913	    0.927138	    0.927138	
 --	 --	 --	 --	 --	      1.0051	    0.928045	    0.927138	           0	 0.000907058	           1	    0.159625	    0.146793	    0.922517	    0.931759	
 --	 --	 --	 --	 --	      1.0101	    0.928541	    0.927138	           0	  0.00140281	           1	           0	  -0.0891899	    0.927138	    0.927138	
 --	 --	 --	 --	 --	      1.0151	    0.929457	    0.927138	           0	  0.00231881	           1	           0	  -0.0211455	    0.927138	    0.927138	
 --	 --	 --	 --	 --	      1.0201	    0.924459	    0.927138	           0	 -0.00267844	           1	   -0.438293	   0.0132184	    0.925751	    0.928524	
 --	 --	 --	 --	 --	      1.0251	     0.93144	    0.927138	           0	  0.00430206	           1	           0	  -0.0891855	    0.927138	    0.927138	
 --	 --	 --	 --	 --	      1.0301	     0.92959	    0.927138	           0	  0.00245206	           1	           0	 -0.00092356	    0.927138	    0.927138	
 --	 --	 --	 --	 --	      1.0351	    0.928388	    0.927138	           0	  0.00125031	           1	           0	  -0.0009199	    0.927138	    0.927138	
 --	 --	 --	 --	 --	      1.0401	    0.929704	    0.927138	           0	  0.00256631	           1	           0	  -0.0689784	    0.927138	    0.927138	
 --	 --	 --	 --	 --	      1.0451	    0.931993	    0.927138	           0	  0.00485531	           1	    0.823349	   0.0811367	    0.923702	    0.930573	
 --	 --	 --	 --	 --	      1.0501	    0.923639	    0.927138	           0	 -0.00349894	           1	           0	-0.000918428	    0.927138	    0.927138	
 --	 --	 --	 --	 --	      1.0551	    0.926862	    0.927138	           0	-0.000275442	           1	  -0.0450697	   0.0130916	    0.925758	    0.928518	
 --	 --	 --	 --	 --	      1.0601	    0.928789	    0.927138	           0	  0.00165081	           1	           0	  -0.0211396	    0.927138	    0.927138	
 --	 --	 --	 --	 --	      1.0651	    0.932184	    0.927138	           0	  0.00504681	           1	           0	  -0.0211426	    0.927138	    0.927138	
 --	 --	 --	 --	 --	      1.0701	    0.927816	    0.927138	           0	 0.000678058	           1	           0	 -0.00978039	    0.927138	    0.927138	
 --	 --	 --	 --	 --	      1.0751	    0.930086	    0.927138	           0	  0.00294781	           1	           0	 -0.00978332	    0.927138	    0.927138	
 --	 --	 --	 --	 --	      1.0801	    0.928579	    0.927138	           0	  0.00144106	           1	    0.234432	  0.00157592	    0.926659	    0.927617	
 --	 --	 --	 --	 --	      1.0851	    0.930048	    0.927138	           0	  0.00290981	           1	           0	  -0.0778314	    0.927138	    0.927138	
 --	 --	 --	 --	 --	      1.0901	    0.930162	    0.927138	           0	  0.00302431	           1	    0.499965	   0.0331542	    0.924942	    0.929334	
 --	 --	 --	 --	 --	      1.0951	    0.923067	    0.927138	           0	 -0.00407094	           1	           0	   -0.112064	    0.927138	    0.927138	
 --	 --	 --	 --	 --	         1.1	    0.933599	    0.927138	           0	  0.00646106	           1	           0	   -0.112066	    0.927138	    0.927138	
 --	 --	 --	 --	 --	       1.225	    0.930584	    0.927138	           0	  0.00344681	           1	           0	 -0.00978478	    0.927138	    0.927138	
 --	 --	 --	 --	 --	        1.35	    0.935449	    0.927138	           0	  0.00831081	           1	           0	   -0.134783	    0.927138	    0.927138	
 --	 --	 --	 --	 --	       1.475	     0.93108	    0.927138	           0	  0.00394281	           1	           0	   -0.134783	    0.927138	    0.927138	
 --	 --	 --	 --	 --	         1.6	     0.93028	    0.927138	           0	  0.00314181	           1	           0	   -0.134782	    0.927138	    0.927138	
 --	 --	 --	 --	 --	       1.725	    0.936726	    0.927138	           0	  0.00958881	           1	           0	   -0.134782	    0.927138	    0.927138	
 --	 --	 --	 --	 --	        1.85	    0.936535	    0.927138	           0	  0.00939781	           1	           0	   -0.134783	    0.927138	    0.927138	
 --	 --	 --	 --	 --	       1.975	    0.933923	    0.927138	           0	  0.00678506	           1	           0	   -0.134783	    0.927138	    0.927138	
 --	 --	 --	 --	 --	         2.1	     0.93274	    0.927138	           0	  0.00560256	           1	           0	   -0.134783	    0.927138	    0.927138	
 --	 --	 --	 --	 --	       2.225	    0.938577	    0.927138	           0	   0.0114391	           1	           0	   -0.134783	    0.927138	    0.927138	
 --	 --	 --	 --	 --	        2.35	     0.93501	    0.927138	           0	  0.00787231	           1	           0	   -0.134783	    0.927138	    0.927138	
 --	 --	 --	 --	 --	       2.475	    0.936765	    0.927138	           0	  0.00962706	           1	           0	   -0.134783	    0.927138	    0.927138	
 --	 --	 --	 --	 --	         2.6	    0.931615	    0.927138	           0	  0.00447706	           1	           0	   -0.134783	    0.927138	    0.927138	
 --	 --	 --	 --	 --	       2.725	    0.935906	    0.927138	           0	  0.00876856	           1	           0	   -0.134783	    0.927138	    0.927138	
 --	 --	 --	 --	 --	        2.85	    0.934514	    0.927138	           0	  0.00737606	           1	           0	   -0.134783	    0.927138	    0.927138	
 --	 --	 --	 --	 --	       2.975	    0.936174	    0.927138	           0	  0.00903581	           1	           0	   -0.134783	    0.927138	    0.927138	
 --	 --	 --	 --	 --	         3.1	    0.935468	    0.927138	           0	  0.00833006	           1	           0	   -0.134783	    0.927138	    0.927138	
 --	 --	 --	 --	 --	       3.225	    0.937547	    0.927138	           0	   0.0104091	           1	           0	   -0.134783	    0.927138	    0.927138	
 --	 --	 --	 --	 --	        3.35	    0.935792	    0.927138	           0	  0.00865431	           1	           0	   -0.134783	    0.927138	    0.927138	
 --	 --	 --	 --	 --	       3.475	    0.933942	    0.927138	           0	  0.00680406	           1	           0	   -0.134783	    0.927138	    0.927138	
 --	 --	 --	 --	 --	         3.6	    0.937718	    0.927138	           0	   0.0105806	           1	           0	   -0.134783	    0.927138	    0.927138	
 --	 --	 --	 --	 --	       3.725	    0.935563	    0.927138	           0	  0.00842531	           1	           0	   -0.134783	    0.927138	    0.927138	
 --	 --	 --	 --	 --	        3.85	    0.935964	    0.927138	           0	  0.00882581	           1	           0	   -0.134783	    0.927138	    0.927138	
 --	 --	 --	 --	 --	       3.975	    0.936822	    0.927138	           0	  0.00968431	           1	           0	   -0.134783	    0.927138	    0.927138	
 --	 --	 --	 --	 --	         4.1	    0.938119	    0.927138	           0	   0.0109811	           1	           0	   -0.134783	    0.927138	    0.927138	
 --	 --	 --	 --	 --	       4.225	    0.935868	    0.927138	           0	  0.00873031	           1	           0	   -0.134783	    0.927138	    0.927138	
 --	 --	 --	 --	 --	        4.35	    0.933617	    0.927138	           0	  0.00647981	           1	           0	   -0.134783	    0.927138	    0.927138	
 --	 --	 --	 --	 --	       4.475	    0.938729	    0.927138	           0	   0.0115911	           1	           0	   -0.134783	    0.927138	    0.927138	
 --	 --	 --	 --	 --	         4.6	     0.93543	    0.927138	           0	  0.00829181	           1	           0	   -0.134783	    0.927138	    0.927138	
 --	 --	 --	 --	 --	       4.725	    0.940694	    0.927138	           0	   0.0135568	           1	           0	   -0.134783	    0.927138	    0.927138	
 --	 --	 --	 --	 --	        4.85	    0.944051	    0.927138	           0	   0.0169131	           1	           0	   -0.134783	    0.927138	    0.927138	
 --	 --	 --	 --	 --	       4.975	    0.938729	    0.927138	           0	   0.0115916	           1	           0	   -0.134783	    0.927138	    0.927138	
 --	 --	 --	 --	 --	         5.1	    0.936497	    0.927138	           0	  0.00935981	           1	           0	   -0.134783	    0.927138	    0.927138	
 --	 --	 --	 --	 --	       5.225	    0.934495	    0.927138	           0	  0.00735706	           1	           0	   -0.134783	    0.927138	    0.927138	
 --	 --	 --	 --	 --	        5.35	    0.940274	    0.927138	           0	   0.0131366	           1	           0	   -0.134783	    0.927138	    0.927138	
 --	 --	 --	 --	 --	       5.475	      0.9381	    0.927138	           0	   0.0109618	           1	           0	   -0.134783	    0.927138	    0.927138	
 --	 --	 --	 --	 --	         5.6	    0.933942	    0.927138	           0	  0.00680406	           1	           0	   -0.134783	    0.927138	    0.927138	
 --	 --	 --	 --	 --	       5.725	    0.935887	    0.927138	           0	  0.00874956	           1	           0	   -0.134783	    0.927138	    0.927138	
 --	 --	 --	 --	 --	        5.85	    0.937146	    0.927138	           0	   0.0100083	           1	           0	   -0.134783	    0.927138	    0.927138	
 --	 --	 --	 --	 --	       5.975	    0.940999	    0.927138	           0	   0.0138611	           1	           0	   -0.134783	    0.927138	    0.927138	
 --	 --	 --	 --	 --	         6.1	     0.94222	    0.927138	           0	   0.0150821	           1	           0	   -0.134783	    0.927138	    0.927138	
 --	 --	 --	 --	 --	       6.225	    0.934495	    0.927138	           0	  0.00735706	           1	           0	   -0.134783	    0.927138	    0.927138	
 --	 --	 --	 --	 --	        6.35	    0.934247	    0.927138	           0	  0.00710931	           1	           0	   -0.134783	    0.927138	    0.927138	
 --	 --	 --	 --	 --	       6.475	    0.935468	    0.927138	           0	  0.00833006	           1	           0	   -0.134783	    0.927138	    0.927138	
 --	 --	 --	 --	 --	         6.6	    0.938672	    0.927138	           0	   0.0115346	           1	           0	   -0.134783	    0.927138	    0.927138	
 --	 --	 --	 --	 --	       6.725	    0.936441	    0.927138	           0	  0.00930281	           1	           0	   -0.134783	    0.927138	    0.927138	
 --	 --	 --	 --	 --	        6.85	    0.939607	    0.927138	           0	   0.0124688	           1	           0	   -0.134783	    0.927138	    0.927138	
 --	 --	 --	 --	 --	       6.975	    0.938481	    0.927138	           0	   0.0113433	           1	           0	   -0.134783	    0.927138	    0.927138	
 --	 --	 --	 --	 --	         7.1	    0.936173	    0.927138	           0	  0.00903556	           1	           0	   -0.134783	    0.927138	    0.927138	
 --	 --	 --	 --	 --	       7.225	    0.936459	    0.927138	           0	  0.00932181	           1	           0	   -0.134783	    0.927138	    0.927138	
 --	 --	 --	 --	 --	        7.35	    0.936059	    0.927138	           0	  0.00892106	           1	           0	   -0.134783	    0.927138	    0.927138	
 --	 --	 --	 --	 --	       7.475	    0.936326	    0.927138	           0	  0.00918831	           1	           0	   -0.134783	    0.927138	    0.927138	
 --	 --	 --	 --	 --	         7.6	    0.936593	    0.927138	           0	  0.00945531	           1	           0	   -0.134783	    0.927138	    0.927138	
 --	 --	 --	 --	 --	       7.725	    0.933446	    0.927138	           0	  0.00630831	           1	           0	   -0.134783	    0.927138	    0.927138	
 --	 --	 --	 --	 --	        7.85	    0.935067	    0.927138	           0	  0.00792931	           1	           0	   -0.134783	    0.927138	    0.927138	
 --	 --	 --	 --	 --	       7.975	    0.942849	    0.927138	           0	   0.0157116	           1	           0	   -0.134783	    0.927138	    0.927138	
 --	 --	 --	 --	 --	         8.1	    0.935219	    0.927138	           0	  0.00808181	           1	           0	   -0.134783	    0.927138	    0.927138	
 --	 --	 --	 --	 --	       8.225	    0.936975	    0.927138	           0	  0.00983681	           1	           0	   -0.134783	    0.927138	    0.927138	
 --	 --	 --	 --	 --	        8.35	    0.932835	    0.927138	           0	  0.00569756	           1	           0	   -0.134783	    0.927138	    0.927138	
 --	 --	 --	 --	 --	       8.475	    0.933389	    0.927138	           0	  0.00625106	           1	           0	   -0.134783	    0.927138	    0.927138	
 --	 --	 --	 --	 --	         8.6	    0.936612	    0.927138	           0	  0.00947456	           1	           0	   -0.134783	    0.927138	    0.927138	
 --	 --	 --	 --	 --	       8.725	    0.934876	    0.927138	           0	  0.00773881	           1	           0	   -0.134783	    0.927138	    0.927138	
 --	 --	 --	 --	 --	        8.85	    0.935658	    0.927138	           0	  0.00852056	           1	           0	   -0.134783	    0.927138	    0.927138	
 --	 --	 --	 --	 --	       8.975	    0.934438	    0.927138	           0	  0.00729981	           1	           0	   -0.134783	    0.927138	    0.927138	
 --	 --	 --	 --	 --	         9.1	     0.93686	    0.927138	           0	  0.00972231	           1	           0	   -0.134783	    0.927138	    0.927138	
 --	 --	 --	 --	 --	       9.225	     0.93913	    0.927138	           0	   0.0119921	           1	           0	   -0.134783	    0.927138	    0.927138	
 --	 --	 --	 --	 --	        9.35	    0.933637	    0.927138	           0	  0.00649906	           1	           0	   -0.134783	    0.927138	    0.927138	
 --	 --	 --	 --	 --	       9.475	    0.942525	    0.927138	           0	   0.0153868	           1	           0	   -0.134783	    0.927138	    0.927138	
 --	 --	 --	 --	 --	         9.6	    0.934838	    0.927138	           0	  0.00770031	           1	           0	   -0.134783	    0.927138	    0.927138	
 --	 --	 --	 --	 --	       9.725	    0.935773	    0.927138	           0	  0.00863506	           1	           0	   -0.134783	    0.927138	    0.927138	
 --	 --	 --	 --	 --	        9.85	    0.938329	    0.927138	           0	   0.0111908	           1	           0	   -0.134783	    0.927138	    0.927138	
 --	 --	 --	 --	 --	       9.975	    0.933522	    0.927138	           0	  0.00638456	           1	           0	   -0.134783	    0.927138	    0.927138	
 --	 --	 --	 --	 --	        10.4	    0.932358	    0.927138	           0	  0.00522081	           1	           0	   -0.134783	    0.927138	    0.927138	
 --	 --	 --	 --	 --	        10.9	    0.937928	    0.927138	           0	   0.0107903	           1	           0	   -0.134783	    0.927138	    0.927138	
 --	 --	 --	 --	 --	        11.4	    0.939264	    0.927138	           0	   0.0121258	           1	           0	   -0.134783	    0.927138	    0.927138	
 --	 --	 --	 --	 --	        11.9	    0.931539	    0.927138	           0	  0.00440081	           1	           0	   -0.134783	    0.927138	    0.927138	
 --	 --	 --	 --	 --	        12.4	    0.936326	    0.927138	           0	  0.00918806	           1	           0	   -0.134783	    0.927138	    0.927138	
 --	 --	 --	 --	 --	        12.9	    0.931996	    0.927138	           0	  0.00485856	           1	           0	   -0.134783	    0.927138	    0.927138	
 --	 --	 --	 --	 --	        13.4	    0.933007	    0.927138	           0	  0.00586956	           1	           0	   -0.134783	    0.927138	    0.927138	
 --	 --	 --	 --	 --	        13.9	    0.938443	    0.927138	           0	   0.0113056	           1	           0	   -0.134783	    0.927138	    0.927138	
 --	 --	 --	 --	 --	        14.4	    0.935315	    0.927138	           0	  0.00817731	           1	           0	   -0.134783	    0.927138	    0.927138	
 --	 --	 --	 --	 --	        14.9	    0.934361	    0.927138	           0	  0.00722356	           1	           0	   -0.134783	    0.927138	    0.927138	
 --	 --	 --	 --	 --	        15.4	    0.931443	    0.927138	           0	  0.00430506	           1	           0	   -0.134783	    0.927138	    0.927138	
 --	 --	 --	 --	 --	        15.9	    0.934075	    0.927138	           0	  0.00693756	           1	           0	   -0.134783	    0.927138	    0.927138	
 --	 --	 --	 --	 --	        16.4	    0.934762	    0.927138	           0	  0.00762431	           1	           0	   -0.134783	    0.927138	    0.927138	
 --	 --	 --	 --	 --	        16.9	    0.938462	    0.927138	           0	   0.0113246	           1	           0	   -0.134783	    0.927138	    0.927138	
 --	 --	 --	 --	 --	        17.4	    0.936498	    0.927138	           0	  0.00936006	           1	           0	   -0.134783	    0.927138	    0.927138	
 --	 --	 --	 --	 --	        17.9	     0.93234	    0.927138	           0	  0.00520181	           1	           0	   -0.134783	    0.927138	    0.927138	
 --	 --	 --	 --	 --	        18.4	    0.934209	    0.927138	           0	  0.00707106	           1	           0	   -0.134783	    0.927138	    0.927138	
 --	 --	 --	 --	 --	        18.9	    0.934171	    0.927138	           0	  0.00703281	           1	           0	   -0.134783	    0.927138	    0.927138	
 --	 --	 --	 --	 --	        19.4	    0.936231	    0.927138	           0	  0.00909281	           1	           0	   -0.134783	    0.927138	    0.927138	
 --	 --	 --	 --	 --	        19.9	    0.929765	    0.927138	           0	  0.00262706	           1	           0	   -0.134783	    0.927138	    0.927138	
 --	 --	 --	 --	 --	        20.4	     0.93274	    0.927138	           0	  0.00560256	           1	           0	   -0.134783	    0.927138	    0.927138	
 --	 --	 --	 --	 --	        20.9	    0.931539	    0.927138	           0	  0.00440081	           1	           0	   -0.134783	    0.927138	    0.927138	
 --	 --	 --	 --	 --	        21.4	    0.931042	    0.927138	           0	  0.00390481	           1	           0	   -0.134783	    0.927138	    0.927138	
 --	 --	 --	 --	 --	        21.9	    0.934133	    0.927138	           0	  0.00699481	           1	           0	   -0.134783	    0.927138	    0.927138	
 --	 --	 --	 --	 --	        22.4	    0.931691	    0.927138	           0	  0.00455331	           1	           0	   -0.134783	    0.927138	    0.927138	
 --	 --	 --	 --	 --	        22.9	    0.931119	    0.927138	           0	  0.00398131	           1	           0	   -0.134783	    0.927138	    0.927138	
 --	 --	 --	 --	 --	        23.4	    0.935392	    0.927138	           0	  0.00825381	           1	           0	   -0.134783	    0.927138	    0.927138	
 --	 --	 --	 --	 --	        23.9	    0.939797	    0.927138	           0	   0.0126596	           1	           0	   -0.134783	    0.927138	    0.927138	
 --	 --	 --	 --	 --	        24.4	    0.936593	    0.927138	           0	  0.00945531	           1	           0	   -0.134783	    0.927138	    0.927138	
 --	 --	 --	 --	 --	        24.9	    0.933732	    0.927138	           0	  0.00659456	           1	           0	   -0.134783	    0.927138	    0.927138	
 --	 --	 --	 --	 --	        25.4	    0.929402	    0.927138	           0	  0.00226456	           1	           0	   -0.134783	    0.927138	    0.927138	
 --	 --	 --	 --	 --	        25.9	    0.935506	    0.927138	           0	  0.00836806	           1	           0	   -0.134783	    0.927138	    0.927138	
 --	 --	 --	 --	 --	        26.4	    0.928773	    0.927138	           0	  0.00163506	           1	           0	   -0.134783	    0.927138	    0.927138	
 --	 --	 --	 --	 --	        26.9	    0.933198	    0.927138	           0	  0.00606031	           1	           0	   -0.134783	    0.927138	    0.927138	
 --	 --	 --	 --	 --	        27.4	    0.934762	    0.927138	           0	  0.00762406	           1	           0	   -0.134783	    0.927138	    0.927138	
 --	 --	 --	 --	 --	        27.9	    0.931825	    0.927138	           0	  0.00468681	           1	           0	   -0.134783	    0.927138	    0.927138	
 --	 --	 --	 --	 --	        28.4	    0.932931	    0.927138	           0	  0.00579331	           1	           0	   -0.134783	    0.927138	    0.927138	
 --	 --	 --	 --	 --	        28.9	    0.934495	    0.927138	           0	  0.00735731	           1	           0	   -0.134783	    0.927138	    0.927138	
 --	 --	 --	 --	 --	        29.4	    0.934686	    0.927138	           0	  0.00754806	           1	           0	   -0.134783	    0.927138	    0.927138	
 --	 --	 --	 --	 --	        29.9	    0.930852	    0.927138	           0	  0.00371406	           1	           0	   -0.134783	    0.927138	    0.927138	
 --	 --	 --	 --	 --	        30.4	    0.929211	    0.927138	           0	  0.00207356	           1	           0	   -0.134783	    0.927138	    0.927138	
 --	 --	 --	 --	 --	        30.9	    0.929078	    0.927138	           0	  0.00194031	           1	           0	   -0.134783	    0.927138	    0.927138	
 --	 --	 --	 --	 --	        31.4	    0.929097	    0.927138	           0	  0.00195956	           1	           0	   -0.134783	    0.927138	    0.927138	
 --	 --	 --	 --	 --	        31.9	    0.931481	    0.927138	           0	  0.00434356	           1	           0	   -0.134783	    0.927138	    0.927138	
 --	 --	 --	 --	 --	        32.4	    0.931558	    0.927138	           0	  0.00442006	           1	           0	   -0.134783	    0.927138	    0.927138	
 --	 --	 --	 --	 --	        32.9	    0.928487	    0.927138	           0	  0.00134906	           1	           0	   -0.134783	    0.927138	    0.927138	
 --	 --	 --	 --	 --	        33.4	    0.930508	    0.927138	           0	  0.00337081	           1	           0	   -0.134783	    0.927138	    0.927138	
 --	 --	 --	 --	 --	        33.9	     0.93068	    0.927138	           0	  0.00354256	           1	           0	   -0.134783	    0.927138	    0.927138	
 --	 --	 --	 --	 --	        34.4	     0.92595	    0.927138	           0	 -0.00118769	           1	           0	   -0.134783	    0.927138	    0.927138	
 --	 --	 --	 --	 --	        34.9	    0.930566	    0.927138	           0	  0.00342806	           1	           0	   -0.134783	    0.927138	    0.927138	
 --	 --	 --	 --	 --	        35.4	    0.932549	    0.927138	           0	  0.00541156	           1	           0	   -0.134783	    0.927138	    0.927138	
 --	 --	 --	 --	 --	        35.9	    0.932149	    0.927138	           0	  0.00501106	           1	           0	   -0.134783	    0.927138	    0.927138	
 --	 --	 --	 --	 --	        36.4	    0.929689	    0.927138	           0	  0.00255081	           1	           0	   -0.134783	    0.927138	    0.927138	
 --	 --	 --	 --	 --	        36.9	     0.93068	    0.927138	           0	  0.00354231	           1	           0	   -0.134783	    0.927138	    0.927138	
 --	 --	 --	 --	 --	        37.4	    0.929669	    0.927138	           0	  0.00253156	           1	           0	   -0.134783	    0.927138	    0.927138	
 --	 --	 --	 --	 --	        37.9	    0.932855	    0.927138	           0	  0.00571681	           1	           0	   -0.134783	    0.927138	    0.927138	
 --	 --	 --	 --	 --	        38.4	     0.92986	    0.927138	           0	  0.00272231	           1	           0	   -0.134783	    0.927138	    0.927138	
 --	 --	 --	 --	 --	        38.9	    0.931977	    0.927138	           0	  0.00483931	           1	           0	   -0.134783	    0.927138	    0.927138	
 --	 --	 --	 --	 --	        39.4	    0.935887	    0.927138	           0	  0.00874931	           1	           0	   -0.134783	    0.927138	    0.927138	
 --	 --	 --	 --	 --	        39.9	    0.932893	    0.927138	           0	  0.00575531	           1	           0	   -0.134783	    0.927138	    0.927138	
 --	 --	 --	 --	 --	        40.4	    0.929917	    0.927138	           0	  0.00277956	           1	           0	   -0.134783	    0.927138	    0.927138	
 --	 --	 --	 --	 --	        40.9	    0.933026	    0.927138	           0	  0.00588856	           1	           0	   -0.134783	    0.927138	    0.927138	
 --	 --	 --	 --	 --	        41.4	    0.931462	    0.927138	           0	  0.00432431	           1	           0	   -0.134783	    0.927138	    0.927138	
 --	 --	 --	 --	 --	        41.9	    0.931596	    0.927138	           0	  0.00445806	           1	           0	   -0.134783	    0.927138	    0.927138	
 --	 --	 --	 --	 --	        42.4	    0.932282	    0.927138	           0	  0.00514456	           1	           0	   -0.134783	    0.927138	    0.927138	
 --	 --	 --	 --	 --	        42.9	    0.926122	    0.927138	           0	 -0.00101594	           1	           0	   -0.134783	    0.927138	    0.927138	
 --	 --	 --	 --	 --	        43.4	    0.927304	    0.927138	           0	 0.000166558	           1	           0	   -0.134783	    0.927138	    0.927138	
 --	 --	 --	 --	 --	        43.9	    0.930699	    0.927138	           0	  0.00356131	           1	           0	   -0.134783	    0.927138	    0.927138	
 --	 --	 --	 --	 --	        44.4	    0.932893	    0.927138	           0	  0.00575506	           1	           0	   -0.134783	    0.927138	    0.927138	
 --	 --	 --	 --	 --	        44.9	    0.931519	    0.927138	           0	  0.00438181	           1	           0	   -0.134783	    0.927138	    0.927138	
 --	 --	 --	 --	 --	        45.4	    0.928906	    0.927138	           0	  0.00176856	           1	           0	   -0.134783	    0.927138	    0.927138	
 --	 --	 --	 --	 --	        45.9	    0.929555	    0.927138	           0	  0.00241731	           1	           0	   -0.134783	    0.927138	    0.927138	
 --	 --	 --	 --	 --	        46.4	    0.930394	    0.927138	           0	  0.00325631	           1	           0	   -0.134783	    0.927138	    0.927138	
 --	 --	 --	 --	 --	        46.9	    0.932492	    0.927138	           0	  0.00535456	           1	           0	   -0.134783	    0.927138	    0.927138	
 --	 --	 --	 --	 --	        47.4	    0.930223	    0.927138	           0	  0.00308481	           1	           0	   -0.134783	    0.927138	    0.927138	
 --	 --	 --	 --	 --	        47.9	    0.934819	    0.927138	           0	  0.00768156	           1	           0	   -0.134783	    0.927138	    0.927138	
 --	 --	 --	 --	 --	        48.4	    0.932301	    0.927138	           0	  0.00516381	           1	           0	   -0.134783	    0.927138	    0.927138	
 --	 --	 --	 --	 --	        48.9	    0.931024	    0.927138	           0	  0.00388581	           1	           0	   -0.134783	    0.927138	    0.927138	
 --	 --	 --	 --	 --	        49.4	     0.93541	    0.927138	           0	  0.00827281	           1	           0	   -0.134783	    0.927138	    0.927138	
 --	 --	 --	 --	 --	        49.9	    0.932855	    0.927138	           0	  0.00571681	           1	           0	   -0.134783	    0.927138	    0.927138	
 --	 --	 --	 --	 --	        50.4	    0.930814	    0.927138	           0	  0.00367606	           1	           0	   -0.134783	    0.927138	    0.927138	
 --	 --	 --	 --	 --	        50.9	    0.931214	    0.927138	           0	  0.00407631	           1	           0	   -0.134783	    0.927138	    0.927138	
 --	 --	 --	 --	 --	        51.4	    0.931233	    0.927138	           0	  0.00409581	           1	           0	   -0.134783	    0.927138	    0.927138	
 --	 --	 --	 --	 --	        51.9	    0.930013	    0.927138	           0	  0.00287506	           1	           0	   -0.134783	    0.927138	    0.927138	
 --	 --	 --	 --	 --	        52.4	    0.927285	    0.927138	           0	 0.000147308	           1	           0	   -0.134783	    0.927138	    0.927138	
 --	 --	 --	 --	 --	        52.9	    0.933389	    0.927138	           0	  0.00625081	           1	           0	   -0.134783	    0.927138	    0.927138	
 --	 --	 --	 --	 --	        53.4	    0.928373	    0.927138	           0	  0.00123481	           1	           0	   -0.134783	    0.927138	    0.927138	
 --	 --	 --	 --	 --	        53.9	    0.933846	    0.927138	           0	  0.00670856	           1	           0	   -0.134783	    0.927138	    0.927138	
 --	 --	 --	 --	 --	        54.4	    0.934438	    0.927138	           0	  0.00730006	           1	           0	   -0.134783	    0.927138	    0.927138	
 --	 --	 --	 --	 --	        54.9	    0.931615	    0.927138	           0	  0.00447731	           1	           0	   -0.134783	    0.927138	    0.927138	
 --	 --	 --	 --	 --	        55.4	    0.929593	    0.927138	           0	  0.00245506	           1	           0	   -0.134783	    0.927138	    0.927138	
 --	 --	 --	 --	 --	        55.9	    0.929783	    0.927138	           0	  0.00264581	           1	           0	   -0.134783	    0.927138	    0.927138	
 --	 --	 --	 --	 --	        56.4	    0.933503	    0.927138	           0	  0.00636531	           1	           0	   -0.134783	    0.927138	    0.927138	
 --	 --	 --	 --	 --	        56.9	    0.934247	    0.927138	           0	  0.00710906	           1	           0	   -0.134783	    0.927138	    0.927138	
 --	 --	 --	 --	 --	        57.4	    0.930356	    0.927138	           0	  0.00321806	           1	           0	   -0.134783	    0.927138	    0.927138	
 --	 --	 --	 --	 --	        57.9	    0.931825	    0.927138	           0	  0.00468706	           1	           0	   -0.134783	    0.927138	    0.927138	
 --	 --	 --	 --	 --	        58.4	    0.933961	    0.927138	           0	  0.00682331	           1	           0	   -0.134783	    0.927138	    0.927138	
 --	 --	 --	 --	 --	        58.9	    0.931309	    0.927138	           0	  0.00417181	           1	           0	   -0.134783	    0.927138	    0.927138	
 --	 --	 --	 --	 --	        59.4	     0.93047	    0.927138	           0	  0.00333281	           1	           0	   -0.134783	    0.927138	    0.927138	
 --	 --	 --	 --	 --	        59.9	    0.930642	    0.927138	           0	  0.00350456	           1	           0	   -0.134783	    0.927138	    0.927138	
 --	 --	 --	 --	 --	        60.4	    0.928449	    0.927138	           0	  0.00131081	           1	           0	   -0.134783	    0.927138	    0.927138	
 --	 --	 --	 --	 --	        60.9	    0.925149	    0.927138	           0	 -0.00198894	           1	           0	   -0.134783	    0.927138	    0.927138	
 --	 --	 --	 --	 --	        61.4	    0.926866	    0.927138	           0	-0.000272192	           1	           0	   -0.134783	    0.927138	    0.927138	
 --	 --	 --	 --	 --	        61.9	    0.927209	    0.927138	           0	7.13078e-005	           1	           0	   -0.134783	    0.927138	    0.927138	
 --	 --	 --	 --	 --	        62.4	    0.927266	    0.927138	           0	 0.000128308	           1	           0	   -0.134783	    0.927138	    0.927138	
 --	 --	 --	 --	 --	        62.9	    0.929593	    0.927138	           0	  0.00245506	           1	           0	   -0.134783	    0.927138	    0.927138	
 --	 --	 --	 --	 --	        63.4	    0.929021	    0.927138	           0	  0.00188331	           1	           0	   -0.134783	    0.927138	    0.927138	
 --	 --	 --	 --	 --	        63.9	    0.931214	    0.927138	           0	  0.00407656	           1	           0	   -0.134783	    0.927138	    0.927138	
 --	 --	 --	 --	 --	        64.4	    0.933198	    0.927138	           0	  0.00606006	           1	           0	   -0.134783	    0.927138	    0.927138	
 --	 --	 --	 --	 --	        64.9	    0.929727	    0.927138	           0	  0.00258906	           1	           0	   -0.134783	    0.927138	    0.927138	
 --	 --	 --	 --	 --	        65.4	    0.930127	    0.927138	           0	  0.00298931	           1	           0	   -0.134783	    0.927138	    0.927138	
 --	 --	 --	 --	 --	        65.9	    0.934685	    0.927138	           0	  0.00754781	           1	           0	   -0.134783	    0.927138	    0.927138	
 --	 --	 --	 --	 --	        66.4	    0.931958	    0.927138	           0	  0.00482056	           1	           0	   -0.134783	    0.927138	    0.927138	
 --	 --	 --	 --	 --	        66.9	    0.928353	    0.927138	           0	  0.00121581	           1	           0	   -0.134783	    0.927138	    0.927138	
 --	 --	 --	 --	 --	        67.4	    0.931977	    0.927138	           0	  0.00483931	           1	           0	   -0.134783	    0.927138	    0.927138	
 --	 --	 --	 --	 --	        67.9	    0.937013	    0.927138	           0	  0.00987481	           1	           0	   -0.134783	    0.927138	    0.927138	
 --	 --	 --	 --	 --	        68.4	    0.928239	    0.927138	           0	  0.00110106	           1	           0	   -0.134783	    0.927138	    0.927138	
 --	 --	 --	 --	 --	        68.9	    0.930413	    0.927138	           0	  0.00327531	           1	           0	   -0.134783	    0.927138	    0.927138	
 --	 --	 --	 --	 --	        69.4	    0.932778	    0.927138	           0	  0.00564081	           1	           0	   -0.134783	    0.927138	    0.927138	
 --	 --	 --	 --	 --	        69.9	    0.925301	    0.927138	           0	 -0.00183644	           1	           0	   -0.134783	    0.927138	    0.927138	
 --	 --	 --	 --	 --	        70.4	    0.926503	    0.927138	           0	-0.000634692	           1	           0	   -0.134783	    0.927138	    0.927138	
 --	 --	 --	 --	 --	        70.9	    0.926942	    0.927138	           0	-0.000195942	           1	           0	   -0.134783	    0.927138	    0.927138	
 --	 --	 --	 --	 --	        71.4	    0.934647	    0.927138	           0	  0.00750956	           1	           0	   -0.134783	    0.927138	    0.927138	
 --	 --	 --	 --	 --	        71.9	    0.931977	    0.927138	           0	  0.00483956	           1	           0	   -0.134783	    0.927138	    0.927138	
 --	 --	 --	 --	 --	        72.4	    0.928468	    0.927138	           0	  0.00133006	           1	           0	   -0.134783	    0.927138	    0.927138	
 --	 --	 --	 --	 --	        72.9	    0.930165	    0.927138	           0	  0.00302731	           1	           0	   -0.134783	    0.927138	    0.927138	
 --	 --	 --	 --	 --	        73.4	    0.926827	    0.927138	           0	-0.000310192	           1	           0	   -0.134783	    0.927138	    0.927138	
 --	 --	 --	 --	 --	        73.9	    0.929879	    0.927138	           0	  0.00274131	           1	           0	   -0.134783	    0.927138	    0.927138	
 --	 --	 --	 --	 --	        74.4	    0.922784	    0.927138	           0	 -0.00435369	           1	           0	   -0.134783	    0.927138	    0.927138	
 --	 --	 --	 --	 --	        74.9	     0.93274	    0.927138	           0	  0.00560256	           1	           0	   -0.134783	    0.927138	    0.927138	
 --	 --	 --	 --	 --	        75.4	    0.929078	    0.927138	           0	  0.00194031	           1	           0	   -0.134783	    0.927138	    0.927138	
 --	 --	 --	 --	 --	        75.9	    0.926332	    0.927138	           0	-0.000806192	           1	           0	   -0.134783	    0.927138	    0.927138	
 --	 --	 --	 --	 --	        76.4	    0.925588	    0.927138	           0	 -0.00155019	           1	           0	   -0.134783	    0.927138	    0.927138	
 --	 --	 --	 --	 --	        76.9	    0.933065	    0.927138	           0	  0.00592681	           1	           0	   -0.134783	    0.927138	    0.927138	
 --	 --	 --	 --	 --	        77.4	    0.929765	    0.927138	           0	  0.00262706	           1	           0	   -0.134783	    0.927138	    0.927138	
 --	 --	 --	 --	 --	        77.9	    0.924558	    0.927138	           0	 -0.00258019	           1	           0	   -0.134783	    0.927138	    0.927138	
 --	 --	 --	 --	 --	        78.4	    0.932817	    0.927138	           0	  0.00567881	           1	           0	   -0.134783	    0.927138	    0.927138	
 --	 --	 --	 --	 --	        78.9	    0.931749	    0.927138	           0	  0.00461081	           1	           0	   -0.134783	    0.927138	    0.927138	
 --	 --	 --	 --	 --	        79.4	    0.932874	    0.927138	           0	  0.00573606	           1	           0	   -0.134783	    0.927138	    0.927138	
 --	 --	 --	 --	 --	        79.9	    0.926484	    0.927138	           0	-0.000653692	           1	           0	   -0.134783	    0.927138	    0.927138	
 --	 --	 --	 --	 --	        80.4	    0.929784	    0.927138	           0	  0.00264606	           1	           0	   -0.134783	    0.927138	    0.927138	
 --	 --	 --	 --	 --	        80.9	    0.926694	    0.927138	           0	-0.000443692	           1	           0	   -0.134783	    0.927138	    0.927138	
 --	 --	 --	 --	 --	        81.4	    0.928125	    0.927138	           0	 0.000986808	           1	           0	   -0.134783	    0.927138	    0.927138	
 --	 --	 --	 --	 --	        81.9	    0.932683	    0.927138	           0	  0.00554506	           1	           0	   -0.134783	    0.927138	    0.927138	
 --	 --	 --	 --	 --	        82.4	    0.926751	    0.927138	           0	-0.000386942	           1	           0	   -0.134783	    0.927138	    0.927138	
 --	 --	 --	 --	 --	        82.9	    0.930527	    0.927138	           0	  0.00338981	           1	           0	   -0.134783	    0.927138	    0.927138	
 --	 --	 --	 --	 --	        83.4	    0.926408	    0.927138	           0	-0.000729942	           1	           0	   -0.134783	    0.927138	    0.927138	
 --	 --	 --	 --	 --	        83.9	    0.924405	    0.927138	           0	 -0.00273294	           1	           0	   -0.134783	    0.927138	    0.927138	
 --	 --	 --	 --	 --	        84.4	    0.928868	    0.927138	           0	  0.00173056	           1	           0	   -0.134783	    0.927138	    0.927138	
 --	 --	 --	 --	 --	        84.9	    0.929517	    0.927138	           0	  0.00237881	           1	           0	   -0.134783	    0.927138	    0.927138	
 --	 --	 --	 --	 --	        85.4	    0.930966	    0.927138	           0	  0.00382856	           1	           0	   -0.134783	    0.927138	    0.927138	
 --	 --	 --	 --	 --	        85.9	     0.93026	    0.927138	           0	  0.00312281	           1	           0	   -0.134783	    0.927138	    0.927138	
 --	 --	 --	 --	 --	        86.4	    0.930967	    0.927138	           0	  0.00382881	           1	           0	   -0.134783	    0.927138	    0.927138	
 --	 --	 --	 --	 --	        86.9	    0.930928	    0.927138	           0	  0.00379056	           1	           0	   -0.134783	    0.927138	    0.927138	
 --	 --	 --	 --	 --	        87.4	    0.933942	    0.927138	           0	  0.00680406	           1	           0	   -0.134783	    0.927138	    0.927138	
 --	 --	 --	 --	 --	        87.9	    0.932435	    0.927138	           0	  0.00529706	           1	           0	   -0.134783	    0.927138	    0.927138	
 --	 --	 --	 --	 --	        88.4	    0.931615	    0.927138	           0	  0.00447731	           1	           0	   -0.134783	    0.927138	    0.927138	
 --	 --	 --	 --	 --	        88.9	    0.929059	    0.927138	           0	  0.00192106	           1	           0	   -0.134783	    0.927138	    0.927138	
 --	 --	 --	 --	 --	        89.4	    0.929021	    0.927138	           0	  0.00188331	           1	           0	   -0.134783	    0.927138	    0.927138	
 --	 --	 --	 --	 --	        89.9	    0.925893	    0.927138	           0	 -0.00124494	           1	           0	   -0.134783	    0.927138	    0.927138	
 --	 --	 --	 --	 --	        90.4	     0.92719	    0.927138	           0	5.18078e-005	           1	           0	   -0.134783	    0.927138	    0.927138	
 --	 --	 --	 --	 --	        90.9	    0.929879	    0.927138	           0	  0.00274106	           1	           0	   -0.134783	    0.927138	    0.927138	
 --	 --	 --	 --	 --	        91.4	    0.929402	    0.927138	           0	  0.00226456	           1	           0	   -0.134783	    0.927138	    0.927138	
 --	 --	 --	 --	 --	        91.9	    0.930127	    0.927138	           0	  0.00298931	           1	           0	   -0.134783	    0.927138	    0.927138	
 --	 --	 --	 --	 --	        92.4	    0.928658	    0.927138	           0	  0.00152081	           1	           0	   -0.134783	    0.927138	    0.927138	
 --	 --	 --	 --	 --	        92.9	    0.931806	    0.927138	           0	  0.00466781	           1	           0	   -0.134783	    0.927138	    0.927138	
 --	 --	 --	 --	 --	        93.4	    0.927819	    0.927138	           0	 0.000681308	           1	           0	   -0.134783	    0.927138	    0.927138	
 --	 --	 --	 --	 --	        93.9	    0.935868	    0.927138	           0	  0.00873056	           1	           0	   -0.134783	    0.927138	    0.927138	
 --	 --	 --	 --	 --	        94.4	    0.927342	    0.927138	           0	 0.000204808	           1	           0	   -0.134783	    0.927138	    0.927138	
 --	 --	 --	 --	 --	        94.9	    0.931386	    0.927138	           0	  0.00424806	           1	           0	   -0.134783	    0.927138	    0.927138	
 --	 --	 --	 --	 --	        95.4	    0.927876	    0.927138	           0	 0.000738558	           1	           0	   -0.134783	    0.927138	    0.927138	
 --	 --	 --	 --	 --	        95.9	      0.9274	    0.927138	           0	 0.000261808	           1	           0	   -0.134783	    0.927138	    0.927138	
 --	 --	 --	 --	 --	        96.4	    0.934381	    0.927138	           0	  0.00724281	           1	           0	   -0.134783	    0.927138	    0.927138	
 --	 --	 --	 --	 --	        96.9	    0.929173	    0.927138	           0	  0.00203556	           1	           0	   -0.134783	    0.927138	    0.927138	
 --	 --	 --	 --	 --	        97.4	    0.929536	    0.927138	           0	  0.00239831	           1	           0	   -0.134783	    0.927138	    0.927138	
 --	 --	 --	 --	 --	        97.9	    0.929002	    0.927138	           0	  0.00186431	           1	           0	   -0.134783	    0.927138	    0.927138	
 --	 --	 --	 --	 --	        98.4	    0.932893	    0.927138	           0	  0.00575506	           1	           0	   -0.134783	    0.927138	    0.927138	
 --	 --	 --	 --	 --	        98.9	    0.933617	    0.927138	           0	  0.00647981	           1	           0	   -0.134783	    0.927138	    0.927138	
 --	 --	 --	 --	 --	        99.4	    0.928792	    0.927138	           0	  0.00165431	           1	           0	   -0.134783	    0.927138	    0.927138	
 --	 --	 --	 --	 --	        99.9	    0.929993	    0.927138	           0	  0.00285581	           1	           0	   -0.134783	    0.927138	    0.927138	
 --	 --	 --	 --	 --	         100	    0.926789	    0.927138	           0	-0.000348442	           1	           0	   -0.134783	    0.927138	    0.927138	
