%!PS-Adobe-3.0 EPSF-3.0
%%BoundingBox: 0 0 514 442
%%Creator: BioKin Ltd.
%%DocumentFonts: Symbol Helvetica
%%EndComments
%
/bkdict 256 dict def
bkdict begin
/M {moveto} def 
/R {rmoveto} def
/L {lineto} def
/rL {rlineto} def
/GSN {gsave newpath} def
/SGR {stroke grestore} def
/COSGR {gsave setrgbcolor stroke grestore grestore} def
/SL {setlinewidth} def
/LWMB {12} def             % line width - model curves, black & white
/LWMC {10} def             % line width - model curves, color
/L2 {2.5 setlinewidth} def
/L5 {5 setlinewidth} def
/L10 {10 setlinewidth} def
/G50 {0.5 setgray} def
/SDA {[10  20] 0 setdash} def % axes
/helvT {/Helvetica findfont 100 scalefont setfont} def % tiny
/helvS {/Helvetica findfont 125 scalefont setfont} def % small
/helvM {/Helvetica findfont 150 scalefont setfont} def % medium
/helvL {/Helvetica findfont 175 scalefont setfont} def % large
/xlabel {gsave M dup
   stringwidth exch -0.5 mul exch rmoveto show grestore} def 
/ylabel {gsave M 90 rotate dup
   stringwidth exch -0.5 mul exch rmoveto show grestore} def
/ylabelresid {gsave M dup
   stringwidth exch -1 mul exch rmoveto show grestore} def
% ======
% Shapes
% ======
% Circle:
/Circ {0 360 arc closepath} def
%
% Square:
/Squa {dup dup -0.5 mul dup dup R -2 mul 0 exch rL 1 mul 0 rL dup 0 exch -1 mul rL closepath} def
%
% Triangle Up:
/TriU {dup dup dup -0.4 mul exch -0.5 mul exch R dup 0.5 mul exch rL dup -1 mul exch 0.5 mul exch rL closepath} def 
%
% Triangle Down:
/TriD {dup dup dup 0.4 mul exch -0.5 mul exch R dup 0.5 mul exch -1 mul rL dup 0.5 mul exch rL closepath} def 
%
% Diamond:
/Diam {45 rotate Squa} def
% ======
% Fills
% ======
/GRF {gsave setgray fill grestore} def                    % gray-level Fill
/COF {gsave setrgbcolor fill grestore} def                % color fill
% ======
% Colors
% ======
/C01 {1.00	0.00	0.00} def      % Red
/C02 {0.00	0.00	1.00} def      % Blue
/C03 {0.00	0.39	0.00} def      % Dark Green
/C04 {0.78	0.08	0.52} def      % Medium Violet Red
/C05 {0.55	0.27	0.07} def      % Saddle Brown
/C06 {0.10	0.70	0.70} def      % (cyan)
/C07 {1.00	0.55	0.00} def      % Dark Orange
/C08 {0.63	0.13	0.94} def      % Purple
/C09 {0.00	0.75	1.00} def      % Deep Sky Blue
/C10 {0.20	0.80	0.20} def      % Lime Green
/C11 {0.47	0.53	0.60} def      % Light Slate Gray
/C12 {0.00	0.00	0.00} def      % Black            % or: {0.19	0.31	0.31} def      % Dark Slate Gray
%
/LGR {0.75} def % light gray
/DGR {0.33} def % dark gray
%
% =============
% Dash patterns
% =============
/dash01 { [80  20] 0 setdash } def
/dash02 { [40  20] 0 setdash } def
/dash03 { [80  20  10  20] 0 setdash } def
/dash04 { [40  20  10  20] 0 setdash } def
/dash05 { [80  20  10  10  10  20] 0 setdash } def
/dash06 { [40  20  10  10  10  20] 0 setdash } def
/dash07 { [10  10] 0 setdash } def
%
/MFshow {
   { dup 5 get 3 ge
     { 5 get 3 eq {gsave} {grestore} ifelse }
     {dup dup 0 get findfont exch 1 get scalefont setfont
     [ currentpoint ] exch dup 2 get 0 exch R dup 5 get 2 ne {dup dup 6
     get exch 4 get {show} {stringwidth pop 0 R} ifelse }if dup 5 get 0 eq
     {dup 3 get {2 get neg 0 exch R pop} {pop aload pop M} ifelse} {dup 5
     get 1 eq {dup 2 get exch dup 3 get exch 6 get stringwidth pop -2 div
     dup 0 R} {dup 6 get stringwidth pop -2 div 0 R 6 get
     show 2 index {aload pop M neg 3 -1 roll neg R pop pop} {pop pop pop
     pop aload pop M} ifelse }ifelse }ifelse }
     ifelse }
   forall} bind def
/MFwidth {0 exch {dup 3 get{dup dup 0 get findfont exch 1 get scalefont
     setfont 6 get stringwidth pop add} {pop} ifelse} forall} bind def
/MCshow { currentpoint stroke M
  exch dup MFwidth -2 div 3 -1 roll R MFshow } def
%
end
%%EndProlog
bkdict begin
0.1 0.1 scale
%
% Model curves:
%

GSN 753 3518 M
770 3518 L
803 3526 L
837 3534 L
870 3540 L
903 3545 L
924 3550 L
941 3551 L
970 3553 L
1003 3556 L
1037 3558 L
1070 3559 L
1096 3560 L
1113 3560 L
1137 3560 L
1170 3561 L
1203 3561 L
1237 3561 L
1268 3561 L
1284 3561 L
1303 3561 L
1337 3561 L
1370 3561 L
1403 3562 L
1437 3562 L
1456 3562 L
1473 3562 L
1503 3562 L
1537 3562 L
1570 3563 L
1603 3563 L
1628 3563 L
1644 3563 L
1670 3564 L
1703 3564 L
1737 3564 L
1770 3565 L
1799 3566 L
1816 3566 L
1837 3566 L
1870 3567 L
1903 3568 L
1937 3569 L
1970 3571 L
1987 3572 L
2004 3572 L
2037 3574 L
2070 3575 L
2103 3577 L
2137 3580 L
2159 3582 L
2176 3583 L
2203 3585 L
2237 3589 L
2270 3592 L
2303 3597 L
2331 3601 L
2347 3605 L
2370 3607 L
2403 3613 L
2437 3619 L
2470 3627 L
2503 3635 L
2519 3644 L
2537 3644 L
2570 3655 L
2603 3666 L
2637 3678 L
2670 3691 L
2690 3706 L
2707 3710 L
2737 3721 L
2770 3738 L
2803 3756 L
2837 3774 L
2862 3794 L
2879 3805 L
2903 3814 L
2937 3835 L
2970 3855 L
3003 3876 L
3034 3897 L
3050 3913 L
3070 3916 L
3103 3935 L
3137 3953 L
3170 3970 L
3203 3985 L
3222 3998 L
3239 4000 L
3270 4010 L
3303 4020 L
3337 4027 L
3370 4033 L
3393 4038 L
3410 4039 L
3437 4040 L
3464 4042 L
3481 4042 L
3503 4042 L
3537 4042 L
3565 4041 L
3582 4040 L
3603 4039 L
3637 4038 L
3670 4036 L
3703 4035 L
3737 4034 L
3753 4033 L
3770 4033 L
3803 4033 L
3837 4033 L
3870 4033 L
3903 4033 L
3925 4033 L
3942 4033 L
3970 4033 L
4003 4033 L
4037 4033 L
4070 4033 L
4086 4033 L
LWMC SL dash01 C01 COSGR

GSN 753 3014 M
770 3014 L
803 3030 L
837 3044 L
870 3057 L
903 3068 L
924 3077 L
941 3079 L
970 3084 L
1003 3089 L
1037 3093 L
1070 3095 L
1096 3097 L
1113 3097 L
1137 3098 L
1170 3098 L
1203 3099 L
1237 3099 L
1268 3099 L
1284 3099 L
1303 3099 L
1337 3100 L
1370 3100 L
1403 3100 L
1437 3101 L
1456 3101 L
1473 3101 L
1503 3102 L
1537 3102 L
1570 3103 L
1603 3104 L
1628 3105 L
1644 3105 L
1670 3106 L
1703 3107 L
1737 3108 L
1770 3110 L
1799 3111 L
1816 3113 L
1837 3113 L
1870 3115 L
1903 3118 L
1937 3121 L
1970 3124 L
1987 3127 L
2004 3128 L
2037 3132 L
2070 3136 L
2103 3141 L
2137 3147 L
2159 3154 L
2176 3157 L
2203 3162 L
2237 3170 L
2270 3180 L
2303 3190 L
2331 3202 L
2347 3211 L
2370 3216 L
2403 3231 L
2437 3247 L
2470 3266 L
2503 3286 L
2519 3307 L
2537 3308 L
2570 3332 L
2603 3359 L
2637 3387 L
2670 3418 L
2690 3450 L
2707 3458 L
2737 3485 L
2770 3521 L
2803 3558 L
2837 3597 L
2862 3636 L
2879 3658 L
2903 3676 L
2937 3716 L
2970 3754 L
3003 3792 L
3034 3828 L
3050 3857 L
3070 3862 L
3103 3894 L
3137 3923 L
3170 3949 L
3203 3971 L
3222 3991 L
3239 3993 L
3270 4007 L
3303 4020 L
3337 4030 L
3370 4037 L
3393 4042 L
3410 4044 L
3437 4045 L
3464 4046 L
3481 4046 L
3503 4046 L
3537 4045 L
3565 4043 L
3582 4042 L
3603 4041 L
3637 4039 L
3670 4037 L
3703 4036 L
3737 4034 L
3753 4034 L
3770 4034 L
3803 4033 L
3837 4033 L
3870 4033 L
3903 4033 L
3925 4033 L
3942 4033 L
3970 4033 L
4003 4033 L
4037 4033 L
4070 4033 L
4086 4033 L
LWMC SL dash02 C02 COSGR

GSN 753 2538 M
770 2538 L
803 2560 L
837 2581 L
870 2600 L
903 2616 L
924 2629 L
941 2632 L
970 2639 L
1003 2647 L
1037 2653 L
1070 2656 L
1096 2659 L
1113 2660 L
1137 2660 L
1170 2661 L
1203 2662 L
1237 2662 L
1268 2662 L
1284 2663 L
1303 2663 L
1337 2663 L
1370 2664 L
1403 2665 L
1437 2665 L
1456 2666 L
1473 2666 L
1503 2667 L
1537 2668 L
1570 2670 L
1603 2671 L
1628 2673 L
1644 2673 L
1670 2674 L
1703 2676 L
1737 2679 L
1770 2681 L
1799 2685 L
1816 2687 L
1837 2688 L
1870 2692 L
1903 2696 L
1937 2702 L
1970 2707 L
1987 2714 L
2004 2714 L
2037 2721 L
2070 2730 L
2103 2739 L
2137 2750 L
2159 2762 L
2176 2766 L
2203 2775 L
2237 2790 L
2270 2807 L
2303 2826 L
2331 2847 L
2347 2862 L
2370 2871 L
2403 2897 L
2437 2926 L
2470 2957 L
2503 2992 L
2519 3027 L
2537 3029 L
2570 3070 L
2603 3114 L
2637 3161 L
2670 3211 L
2690 3263 L
2707 3276 L
2737 3318 L
2770 3374 L
2803 3432 L
2837 3491 L
2862 3550 L
2879 3581 L
2903 3608 L
2937 3664 L
2970 3719 L
3003 3771 L
3034 3819 L
3050 3857 L
3070 3864 L
3103 3904 L
3137 3940 L
3170 3971 L
3203 3997 L
3222 4019 L
3239 4021 L
3270 4036 L
3303 4048 L
3337 4056 L
3370 4061 L
3393 4062 L
3410 4061 L
3437 4061 L
3464 4058 L
3481 4056 L
3503 4054 L
3537 4051 L
3565 4047 L
3582 4044 L
3603 4043 L
3637 4040 L
3670 4038 L
3703 4036 L
3737 4035 L
3753 4034 L
3770 4034 L
3803 4034 L
3837 4033 L
3870 4033 L
3903 4033 L
3925 4033 L
3942 4033 L
3970 4033 L
4003 4033 L
4037 4033 L
4070 4033 L
4086 4033 L
LWMC SL dash03 C03 COSGR

GSN 753 2066 M
770 2066 L
803 2096 L
837 2124 L
870 2148 L
903 2169 L
924 2186 L
941 2191 L
970 2200 L
1003 2210 L
1037 2217 L
1070 2222 L
1096 2225 L
1113 2227 L
1137 2227 L
1170 2229 L
1203 2229 L
1237 2230 L
1268 2231 L
1284 2231 L
1303 2231 L
1337 2232 L
1370 2233 L
1403 2234 L
1437 2235 L
1456 2237 L
1473 2237 L
1503 2238 L
1537 2240 L
1570 2242 L
1603 2244 L
1628 2246 L
1644 2248 L
1670 2249 L
1703 2253 L
1737 2256 L
1770 2261 L
1799 2265 L
1816 2269 L
1837 2271 L
1870 2277 L
1903 2284 L
1937 2292 L
1970 2301 L
1987 2311 L
2004 2312 L
2037 2322 L
2070 2335 L
2103 2350 L
2137 2366 L
2159 2385 L
2176 2392 L
2203 2406 L
2237 2429 L
2270 2455 L
2303 2484 L
2331 2516 L
2347 2539 L
2370 2551 L
2403 2590 L
2437 2634 L
2470 2681 L
2503 2732 L
2519 2785 L
2537 2787 L
2570 2847 L
2603 2910 L
2637 2978 L
2670 3048 L
2690 3122 L
2707 3141 L
2737 3198 L
2770 3275 L
2803 3354 L
2837 3432 L
2862 3509 L
2879 3550 L
2903 3583 L
2937 3655 L
2970 3723 L
3003 3786 L
3034 3843 L
3050 3887 L
3070 3894 L
3103 3939 L
3137 3978 L
3170 4010 L
3203 4034 L
3222 4053 L
3239 4054 L
3270 4064 L
3303 4070 L
3337 4072 L
3370 4071 L
3393 4068 L
3410 4066 L
3437 4064 L
3464 4060 L
3481 4057 L
3503 4055 L
3537 4051 L
3565 4047 L
3582 4044 L
3603 4043 L
3637 4041 L
3670 4038 L
3703 4036 L
3737 4035 L
3753 4034 L
3770 4034 L
3803 4034 L
3837 4033 L
3870 4033 L
3903 4033 L
3925 4033 L
3942 4033 L
3970 4033 L
4003 4033 L
4037 4033 L
4070 4033 L
4086 4033 L
LWMC SL dash04 C04 COSGR

GSN 753 1865 M
770 1865 L
803 1898 L
837 1929 L
870 1956 L
903 1979 L
924 1998 L
941 2003 L
970 2013 L
1003 2024 L
1037 2032 L
1070 2038 L
1096 2041 L
1113 2043 L
1137 2043 L
1170 2045 L
1203 2046 L
1237 2047 L
1268 2047 L
1284 2048 L
1303 2048 L
1337 2049 L
1370 2050 L
1403 2051 L
1437 2053 L
1456 2054 L
1473 2055 L
1503 2056 L
1537 2058 L
1570 2060 L
1603 2063 L
1628 2066 L
1644 2067 L
1670 2069 L
1703 2073 L
1737 2078 L
1770 2082 L
1799 2088 L
1816 2093 L
1837 2095 L
1870 2102 L
1903 2110 L
1937 2119 L
1970 2130 L
1987 2142 L
2004 2143 L
2037 2155 L
2070 2171 L
2103 2188 L
2137 2207 L
2159 2229 L
2176 2237 L
2203 2253 L
2237 2280 L
2270 2311 L
2303 2345 L
2331 2382 L
2347 2409 L
2370 2424 L
2403 2469 L
2437 2519 L
2470 2574 L
2503 2633 L
2519 2694 L
2537 2697 L
2570 2765 L
2603 2838 L
2637 2914 L
2670 2995 L
2690 3078 L
2707 3099 L
2737 3163 L
2770 3250 L
2803 3337 L
2837 3423 L
2862 3507 L
2879 3552 L
2903 3588 L
2937 3665 L
2970 3738 L
3003 3804 L
3034 3864 L
3050 3908 L
3070 3916 L
3103 3961 L
3137 3999 L
3170 4029 L
3203 4050 L
3222 4064 L
3239 4066 L
3270 4072 L
3303 4075 L
3337 4074 L
3370 4072 L
3393 4068 L
3410 4067 L
3437 4064 L
3464 4059 L
3481 4056 L
3503 4055 L
3537 4051 L
3565 4047 L
3582 4044 L
3603 4043 L
3637 4040 L
3670 4038 L
3703 4036 L
3737 4035 L
3753 4034 L
3770 4034 L
3803 4034 L
3837 4033 L
3870 4033 L
3903 4033 L
3925 4033 L
3942 4033 L
3970 4033 L
4003 4033 L
4037 4033 L
4070 4033 L
4086 4033 L
LWMC SL dash05 C05 COSGR

GSN 753 1559 M
770 1559 L
803 1597 L
837 1631 L
870 1662 L
903 1689 L
924 1710 L
941 1716 L
970 1728 L
1003 1741 L
1037 1750 L
1070 1756 L
1096 1760 L
1113 1762 L
1137 1762 L
1170 1764 L
1203 1765 L
1237 1766 L
1268 1767 L
1284 1768 L
1303 1768 L
1337 1769 L
1370 1771 L
1403 1772 L
1437 1774 L
1456 1776 L
1473 1776 L
1503 1778 L
1537 1780 L
1570 1783 L
1603 1787 L
1628 1790 L
1644 1792 L
1670 1794 L
1703 1799 L
1737 1805 L
1770 1811 L
1799 1818 L
1816 1824 L
1837 1826 L
1870 1835 L
1903 1845 L
1937 1857 L
1970 1870 L
1987 1885 L
2004 1886 L
2037 1901 L
2070 1920 L
2103 1941 L
2137 1965 L
2159 1992 L
2176 2002 L
2203 2022 L
2237 2055 L
2270 2093 L
2303 2134 L
2331 2180 L
2347 2212 L
2370 2230 L
2403 2286 L
2437 2346 L
2470 2412 L
2503 2483 L
2519 2556 L
2537 2560 L
2570 2642 L
2603 2728 L
2637 2819 L
2670 2913 L
2690 3010 L
2707 3035 L
2737 3109 L
2770 3209 L
2803 3308 L
2837 3406 L
2862 3500 L
2879 3550 L
2903 3590 L
2937 3675 L
2970 3753 L
3003 3824 L
3034 3886 L
3050 3932 L
3070 3940 L
3103 3985 L
3137 4021 L
3170 4047 L
3203 4065 L
3222 4075 L
3239 4075 L
3270 4079 L
3303 4079 L
3337 4077 L
3370 4074 L
3393 4069 L
3410 4067 L
3437 4065 L
3464 4060 L
3481 4057 L
3503 4055 L
3537 4051 L
3565 4047 L
3582 4044 L
3603 4043 L
3637 4041 L
3670 4038 L
3703 4037 L
3737 4035 L
3753 4034 L
3770 4034 L
3803 4034 L
3837 4033 L
3870 4033 L
3903 4033 L
3925 4033 L
3942 4033 L
3970 4033 L
4003 4033 L
4037 4033 L
4070 4033 L
4086 4033 L
LWMC SL dash06 C06 COSGR

GSN 753 753 M
770 753 L
803 803 L
837 849 L
870 890 L
903 926 L
924 954 L
941 962 L
970 977 L
1003 995 L
1037 1007 L
1070 1015 L
1096 1021 L
1113 1023 L
1137 1024 L
1170 1027 L
1203 1028 L
1237 1030 L
1268 1031 L
1284 1033 L
1303 1033 L
1337 1035 L
1370 1037 L
1403 1039 L
1437 1042 L
1456 1045 L
1473 1046 L
1503 1049 L
1537 1053 L
1570 1058 L
1603 1063 L
1628 1069 L
1644 1072 L
1670 1076 L
1703 1084 L
1737 1093 L
1770 1103 L
1799 1114 L
1816 1124 L
1837 1127 L
1870 1142 L
1903 1158 L
1937 1177 L
1970 1198 L
1987 1222 L
2004 1224 L
2037 1249 L
2070 1280 L
2103 1314 L
2137 1352 L
2159 1395 L
2176 1411 L
2203 1442 L
2237 1496 L
2270 1554 L
2303 1619 L
2331 1691 L
2347 1742 L
2370 1770 L
2403 1855 L
2437 1948 L
2470 2048 L
2503 2155 L
2519 2263 L
2537 2269 L
2570 2389 L
2603 2514 L
2637 2644 L
2670 2777 L
2690 2911 L
2707 2945 L
2737 3046 L
2770 3178 L
2803 3307 L
2837 3430 L
2862 3546 L
2879 3605 L
2903 3653 L
2937 3749 L
2970 3835 L
3003 3907 L
3034 3967 L
3050 4007 L
3070 4014 L
3103 4047 L
3137 4068 L
3170 4080 L
3203 4085 L
3222 4086 L
3239 4086 L
3270 4085 L
3303 4082 L
3337 4078 L
3370 4074 L
3393 4069 L
3410 4067 L
3437 4064 L
3464 4059 L
3481 4056 L
3503 4055 L
3537 4050 L
3565 4047 L
3582 4044 L
3603 4043 L
3637 4041 L
3670 4038 L
3703 4037 L
3737 4035 L
3753 4035 L
3770 4035 L
3803 4034 L
3837 4034 L
3870 4033 L
3903 4033 L
3925 4033 L
3942 4033 L
3970 4033 L
4003 4033 L
4037 4033 L
4070 4033 L
4086 4033 L
LWMC SL dash07 C07 COSGR

%
%================
% Legend - Begin
%================
%
GSN 4240 4040 M
4480 4040 L
LWMC SL dash01 C01 COSGR
GSN 4540 4001 M helvM (0.5 uM) show grestore
GSN 4240 3860 M
4480 3860 L
LWMC SL dash02 C02 COSGR
GSN 4540 3821 M helvM (1.0 uM) show grestore
GSN 4240 3680 M
4480 3680 L
LWMC SL dash03 C03 COSGR
GSN 4540 3641 M helvM (1.5 uM) show grestore
GSN 4240 3500 M
4480 3500 L
LWMC SL dash04 C04 COSGR
GSN 4540 3461 M helvM (2.0 uM) show grestore
GSN 4240 3320 M
4480 3320 L
LWMC SL dash05 C05 COSGR
GSN 4540 3281 M helvM (2.5 uM) show grestore
GSN 4240 3140 M
4480 3140 L
LWMC SL dash06 C06 COSGR
GSN 4540 3101 M helvM (3.0 uM) show grestore
GSN 4240 2960 M
4480 2960 L
LWMC SL dash07 C07 COSGR
GSN 4540 2921 M helvM (4.0 uM) show grestore
%
%================
% Legend - End
%================
%

%
% Main frame
%
L10
GSN 
620 620 M
4220 620 L
4220 4220 L
620 4220 L
closepath SGR

%
% X axis: large tics
%
L10
GSN 1130 620 M 0  54 rL SGR
GSN 1130 4220 M 0 -54 rL SGR
helvS (0.0001) 1130 470 xlabel
GSN 1716 620 M 0  54 rL SGR
GSN 1716 4220 M 0 -54 rL SGR
helvS (0.001) 1716 470 xlabel
GSN 2303 620 M 0  54 rL SGR
GSN 2303 4220 M 0 -54 rL SGR
helvS (0.01) 2303 470 xlabel
GSN 2889 620 M 0  54 rL SGR
GSN 2889 4220 M 0 -54 rL SGR
helvS (0.1) 2889 470 xlabel
GSN 3476 620 M 0  54 rL SGR
GSN 3476 4220 M 0 -54 rL SGR
helvS (1) 3476 470 xlabel
GSN 4062 620 M 0  54 rL SGR
GSN 4062 4220 M 0 -54 rL SGR
helvS (10) 4062 470 xlabel
%
% X axis: small tics
%
L5
GSN 720 620 M 0  36 rL SGR
GSN 720 4220 M 0 -36 rL SGR
GSN 824 620 M 0  36 rL SGR
GSN 824 4220 M 0 -36 rL SGR
GSN 897 620 M 0  36 rL SGR
GSN 897 4220 M 0 -36 rL SGR
GSN 954 620 M 0  36 rL SGR
GSN 954 4220 M 0 -36 rL SGR
GSN 1000 620 M 0  36 rL SGR
GSN 1000 4220 M 0 -36 rL SGR
GSN 1039 620 M 0  36 rL SGR
GSN 1039 4220 M 0 -36 rL SGR
GSN 1073 620 M 0  36 rL SGR
GSN 1073 4220 M 0 -36 rL SGR
GSN 1103 620 M 0  36 rL SGR
GSN 1103 4220 M 0 -36 rL SGR
GSN 1307 620 M 0  36 rL SGR
GSN 1307 4220 M 0 -36 rL SGR
GSN 1410 620 M 0  36 rL SGR
GSN 1410 4220 M 0 -36 rL SGR
GSN 1483 620 M 0  36 rL SGR
GSN 1483 4220 M 0 -36 rL SGR
GSN 1540 620 M 0  36 rL SGR
GSN 1540 4220 M 0 -36 rL SGR
GSN 1586 620 M 0  36 rL SGR
GSN 1586 4220 M 0 -36 rL SGR
GSN 1626 620 M 0  36 rL SGR
GSN 1626 4220 M 0 -36 rL SGR
GSN 1660 620 M 0  36 rL SGR
GSN 1660 4220 M 0 -36 rL SGR
GSN 1690 620 M 0  36 rL SGR
GSN 1690 4220 M 0 -36 rL SGR
GSN 1893 620 M 0  36 rL SGR
GSN 1893 4220 M 0 -36 rL SGR
GSN 1996 620 M 0  36 rL SGR
GSN 1996 4220 M 0 -36 rL SGR
GSN 2069 620 M 0  36 rL SGR
GSN 2069 4220 M 0 -36 rL SGR
GSN 2126 620 M 0  36 rL SGR
GSN 2126 4220 M 0 -36 rL SGR
GSN 2173 620 M 0  36 rL SGR
GSN 2173 4220 M 0 -36 rL SGR
GSN 2212 620 M 0  36 rL SGR
GSN 2212 4220 M 0 -36 rL SGR
GSN 2246 620 M 0  36 rL SGR
GSN 2246 4220 M 0 -36 rL SGR
GSN 2276 620 M 0  36 rL SGR
GSN 2276 4220 M 0 -36 rL SGR
GSN 2479 620 M 0  36 rL SGR
GSN 2479 4220 M 0 -36 rL SGR
GSN 2583 620 M 0  36 rL SGR
GSN 2583 4220 M 0 -36 rL SGR
GSN 2656 620 M 0  36 rL SGR
GSN 2656 4220 M 0 -36 rL SGR
GSN 2713 620 M 0  36 rL SGR
GSN 2713 4220 M 0 -36 rL SGR
GSN 2759 620 M 0  36 rL SGR
GSN 2759 4220 M 0 -36 rL SGR
GSN 2798 620 M 0  36 rL SGR
GSN 2798 4220 M 0 -36 rL SGR
GSN 2832 620 M 0  36 rL SGR
GSN 2832 4220 M 0 -36 rL SGR
GSN 2862 620 M 0  36 rL SGR
GSN 2862 4220 M 0 -36 rL SGR
GSN 3066 620 M 0  36 rL SGR
GSN 3066 4220 M 0 -36 rL SGR
GSN 3169 620 M 0  36 rL SGR
GSN 3169 4220 M 0 -36 rL SGR
GSN 3242 620 M 0  36 rL SGR
GSN 3242 4220 M 0 -36 rL SGR
GSN 3299 620 M 0  36 rL SGR
GSN 3299 4220 M 0 -36 rL SGR
GSN 3345 620 M 0  36 rL SGR
GSN 3345 4220 M 0 -36 rL SGR
GSN 3385 620 M 0  36 rL SGR
GSN 3385 4220 M 0 -36 rL SGR
GSN 3419 620 M 0  36 rL SGR
GSN 3419 4220 M 0 -36 rL SGR
GSN 3449 620 M 0  36 rL SGR
GSN 3449 4220 M 0 -36 rL SGR
GSN 3652 620 M 0  36 rL SGR
GSN 3652 4220 M 0 -36 rL SGR
GSN 3755 620 M 0  36 rL SGR
GSN 3755 4220 M 0 -36 rL SGR
GSN 3829 620 M 0  36 rL SGR
GSN 3829 4220 M 0 -36 rL SGR
GSN 3885 620 M 0  36 rL SGR
GSN 3885 4220 M 0 -36 rL SGR
GSN 3932 620 M 0  36 rL SGR
GSN 3932 4220 M 0 -36 rL SGR
GSN 3971 620 M 0  36 rL SGR
GSN 3971 4220 M 0 -36 rL SGR
GSN 4005 620 M 0  36 rL SGR
GSN 4005 4220 M 0 -36 rL SGR
GSN 4035 620 M 0  36 rL SGR
GSN 4035 4220 M 0 -36 rL SGR
%
% Y axis: large tics
%
L10
GSN 620 1233 M 54 0 rL SGR
GSN 4220 1233 M -54 0 rL SGR
helvS (-1.5) 560 1233 ylabel
GSN 620 2166 M 54 0 rL SGR
GSN 4220 2166 M -54 0 rL SGR
helvS (-1) 560 2166 ylabel
GSN 620 3099 M 54 0 rL SGR
GSN 4220 3099 M -54 0 rL SGR
helvS (-0.5) 560 3099 ylabel
GSN 620 4033 M 54 0 rL SGR
GSN 4220 4033 M -54 0 rL SGR
helvS (0) 560 4033 ylabel
%
% Y axis: small tics
%
L5
GSN 620 673 M 36 0 rL SGR
GSN 4220 673 M -36 0 rL SGR
GSN 620 860 M 36 0 rL SGR
GSN 4220 860 M -36 0 rL SGR
GSN 620 1046 M 36 0 rL SGR
GSN 4220 1046 M -36 0 rL SGR
GSN 620 1233 M 36 0 rL SGR
GSN 4220 1233 M -36 0 rL SGR
GSN 620 1419 M 36 0 rL SGR
GSN 4220 1419 M -36 0 rL SGR
GSN 620 1606 M 36 0 rL SGR
GSN 4220 1606 M -36 0 rL SGR
GSN 620 1793 M 36 0 rL SGR
GSN 4220 1793 M -36 0 rL SGR
GSN 620 1979 M 36 0 rL SGR
GSN 4220 1979 M -36 0 rL SGR
GSN 620 2166 M 36 0 rL SGR
GSN 4220 2166 M -36 0 rL SGR
GSN 620 2353 M 36 0 rL SGR
GSN 4220 2353 M -36 0 rL SGR
GSN 620 2539 M 36 0 rL SGR
GSN 4220 2539 M -36 0 rL SGR
GSN 620 2726 M 36 0 rL SGR
GSN 4220 2726 M -36 0 rL SGR
GSN 620 2913 M 36 0 rL SGR
GSN 4220 2913 M -36 0 rL SGR
GSN 620 3099 M 36 0 rL SGR
GSN 4220 3099 M -36 0 rL SGR
GSN 620 3286 M 36 0 rL SGR
GSN 4220 3286 M -36 0 rL SGR
GSN 620 3473 M 36 0 rL SGR
GSN 4220 3473 M -36 0 rL SGR
GSN 620 3659 M 36 0 rL SGR
GSN 4220 3659 M -36 0 rL SGR
GSN 620 3846 M 36 0 rL SGR
GSN 4220 3846 M -36 0 rL SGR
GSN 620 4033 M 36 0 rL SGR
GSN 4220 4033 M -36 0 rL SGR
GSN 620 4219 M 36 0 rL SGR
GSN 4220 4219 M -36 0 rL SGR

%
% X axis
%
GSN L5 620 4033 M 4220 4033 L SDA G50 SGR

%
% X-Axis label:
%
gsave 2420 290 M 
[
[(Helvetica) 180 0 true true 0 (t)]
[(Helvetica) 180 0 true true 0 (i)]
[(Helvetica) 180 0 true true 0 (m)]
[(Helvetica) 180 0 true true 0 (e)]
] 0 MCshow grestore

%
% Y-Axis label:
%
gsave 234 2420 M 
currentpoint gsave translate 90 rotate 0 0 moveto
[
[(Helvetica) 180 0 true true 0 (d)]
[(Helvetica) 180 0 true true 0 (\()]
[(Helvetica) 180 0 true true 0 (s)]
[(Helvetica) 180 0 true true 0 (i)]
[(Helvetica) 180 0 true true 0 (g)]
[(Helvetica) 180 0 true true 0 (n)]
[(Helvetica) 180 0 true true 0 (a)]
[(Helvetica) 180 0 true true 0 (l)]
[(Helvetica) 180 0 true true 0 (\))]
[(Helvetica) 180 0 true true 0 ( )]
[(Helvetica) 180 0 true true 0 (/)]
[(Helvetica) 180 0 true true 0 ( )]
[(Helvetica) 180 0 true true 0 (d)]
[(Helvetica) 180 0 true true 0 (t)]
] 0 MCshow grestore

end
showpage
%%Trailer
%%EOF
