%!PS-Adobe-3.0 EPSF-3.0
%%BoundingBox: 0 0 514 550
%%Creator: BioKin Ltd.
%%DocumentFonts: Symbol Helvetica
%%EndComments
%
/bkdict 256 dict def
bkdict begin
/M {moveto} def 
/R {rmoveto} def
/L {lineto} def
/rL {rlineto} def
/GSN {gsave newpath} def
/SGR {stroke grestore} def
/COSGR {gsave setrgbcolor stroke grestore grestore} def
/SL {setlinewidth} def
/LWMB {12} def             % line width - model curves, black & white
/LWMC {10} def             % line width - model curves, color
/L2 {2.5 setlinewidth} def
/L5 {5 setlinewidth} def
/L10 {10 setlinewidth} def
/G50 {0.5 setgray} def
/SDA {[10  20] 0 setdash} def % axes
/helvT {/Helvetica findfont 100 scalefont setfont} def % tiny
/helvS {/Helvetica findfont 125 scalefont setfont} def % small
/helvM {/Helvetica findfont 150 scalefont setfont} def % medium
/helvL {/Helvetica findfont 175 scalefont setfont} def % large
/xlabel {gsave M dup
   stringwidth exch -0.5 mul exch rmoveto show grestore} def 
/ylabel {gsave M 90 rotate dup
   stringwidth exch -0.5 mul exch rmoveto show grestore} def
/ylabelresid {gsave M dup
   stringwidth exch -1 mul exch rmoveto show grestore} def
% ======
% Shapes
% ======
% Circle:
/Circ {0 360 arc closepath} def
%
% Square:
/Squa {dup dup -0.5 mul dup dup R -2 mul 0 exch rL 1 mul 0 rL dup 0 exch -1 mul rL closepath} def
%
% Triangle Up:
/TriU {dup dup dup -0.4 mul exch -0.5 mul exch R dup 0.5 mul exch rL dup -1 mul exch 0.5 mul exch rL closepath} def 
%
% Triangle Down:
/TriD {dup dup dup 0.4 mul exch -0.5 mul exch R dup 0.5 mul exch -1 mul rL dup 0.5 mul exch rL closepath} def 
%
% Diamond:
/Diam {45 rotate Squa} def
% ======
% Fills
% ======
/GRF {gsave setgray fill grestore} def                    % gray-level Fill
/COF {gsave setrgbcolor fill grestore} def                % color fill
% ======
% Colors
% ======
/C01 {1.00	0.00	0.00} def      % Red
/C02 {0.00	0.00	1.00} def      % Blue
/C03 {0.00	0.39	0.00} def      % Dark Green
/C04 {0.78	0.08	0.52} def      % Medium Violet Red
/C05 {0.55	0.27	0.07} def      % Saddle Brown
/C06 {0.10	0.70	0.70} def      % (cyan)
/C07 {1.00	0.55	0.00} def      % Dark Orange
/C08 {0.63	0.13	0.94} def      % Purple
/C09 {0.00	0.75	1.00} def      % Deep Sky Blue
/C10 {0.20	0.80	0.20} def      % Lime Green
/C11 {0.47	0.53	0.60} def      % Light Slate Gray
/C12 {0.00	0.00	0.00} def      % Black            % or: {0.19	0.31	0.31} def      % Dark Slate Gray
%
/LGR {0.75} def % light gray
/DGR {0.33} def % dark gray
%
% =============
% Dash patterns
% =============
/dash01 { [80  20] 0 setdash } def
/dash02 { [40  20] 0 setdash } def
/dash03 { [80  20  10  20] 0 setdash } def
/dash04 { [40  20  10  20] 0 setdash } def
/dash05 { [80  20  10  10  10  20] 0 setdash } def
/dash06 { [40  20  10  10  10  20] 0 setdash } def
/dash07 { [10  10] 0 setdash } def
%
/MFshow {
   { dup 5 get 3 ge
     { 5 get 3 eq {gsave} {grestore} ifelse }
     {dup dup 0 get findfont exch 1 get scalefont setfont
     [ currentpoint ] exch dup 2 get 0 exch R dup 5 get 2 ne {dup dup 6
     get exch 4 get {show} {stringwidth pop 0 R} ifelse }if dup 5 get 0 eq
     {dup 3 get {2 get neg 0 exch R pop} {pop aload pop M} ifelse} {dup 5
     get 1 eq {dup 2 get exch dup 3 get exch 6 get stringwidth pop -2 div
     dup 0 R} {dup 6 get stringwidth pop -2 div 0 R 6 get
     show 2 index {aload pop M neg 3 -1 roll neg R pop pop} {pop pop pop
     pop aload pop M} ifelse }ifelse }ifelse }
     ifelse }
   forall} bind def
/MFwidth {0 exch {dup 3 get{dup dup 0 get findfont exch 1 get scalefont
     setfont 6 get stringwidth pop add} {pop} ifelse} forall} bind def
/MCshow { currentpoint stroke M
  exch dup MFwidth -2 div 3 -1 roll R MFshow } def
%
end
%%EndProlog
bkdict begin
0.1 0.1 scale
%
% Model curves:
%

GSN 753 5166 M
753 5166 L
786 5165 L
820 5163 L
853 5162 L
886 5160 L
920 5158 L
929 5157 L
953 5156 L
986 5154 L
1020 5151 L
1053 5148 L
1086 5144 L
1106 5142 L
1120 5140 L
1153 5136 L
1186 5130 L
1220 5125 L
1253 5118 L
1282 5111 L
1286 5110 L
1319 5102 L
1353 5092 L
1386 5081 L
1419 5069 L
1453 5054 L
1459 5052 L
1486 5039 L
1519 5021 L
1553 5001 L
1586 4978 L
1619 4953 L
1635 4940 L
1653 4924 L
1686 4893 L
1719 4858 L
1753 4819 L
1786 4776 L
1812 4740 L
1819 4729 L
1853 4677 L
1886 4620 L
1919 4559 L
1953 4492 L
1986 4421 L
1988 4416 L
2019 4345 L
2053 4264 L
2086 4179 L
2119 4091 L
2153 3999 L
2165 3965 L
2186 3904 L
2219 3808 L
2253 3711 L
2286 3614 L
2319 3517 L
2341 3454 L
2353 3422 L
2386 3329 L
2419 3239 L
2453 3152 L
2486 3070 L
2518 2996 L
2519 2992 L
2553 2919 L
2586 2851 L
2619 2787 L
2653 2729 L
2686 2675 L
2694 2663 L
2719 2626 L
2753 2582 L
2786 2542 L
2819 2505 L
2853 2473 L
2871 2457 L
2886 2444 L
2919 2418 L
2953 2395 L
2986 2374 L
3019 2356 L
3047 2343 L
3053 2340 L
3086 2327 L
3119 2315 L
3153 2304 L
3186 2295 L
3219 2287 L
3224 2287 L
3253 2281 L
3286 2276 L
3319 2272 L
3353 2269 L
3386 2266 L
3400 2266 L
3419 2265 L
3453 2265 L
3476 2265 L
3486 2265 L
3519 2267 L
3553 2269 L
3577 2271 L
3586 2272 L
3619 2276 L
3653 2281 L
3686 2287 L
3719 2294 L
3753 2302 L
3754 2302 L
3786 2311 L
3819 2321 L
3853 2333 L
3886 2347 L
3919 2363 L
3930 2368 L
3953 2380 L
3986 2400 L
4019 2423 L
4053 2449 L
4086 2479 L
4086 2479 L
LWMC SL  C02 COSGR

%
% Experimental data:
%
GSN 777 3457 M
1388 3792 L
1552 3657 L
1652 3370 L
1723 3247 L
1778 3292 L
1824 3547 L
1863 3421 L
1896 3470 L
1926 3465 L
1952 3560 L
1976 3505 L
1998 3603 L
2019 3428 L
2037 3367 L
2055 3422 L
2071 3519 L
2086 3407 L
2101 3487 L
2115 3593 L
2128 3606 L
2140 3510 L
2152 3421 L
2163 3479 L
2174 3524 L
2184 3462 L
2194 3522 L
2204 3478 L
2213 3343 L
2222 3574 L
2230 3499 L
2239 3525 L
2247 3555 L
2255 3406 L
2262 3312 L
2270 3487 L
2277 3434 L
2284 3304 L
2290 3492 L
2297 3431 L
2303 3391 L
2310 3448 L
2316 3475 L
2322 3459 L
2328 3368 L
2333 3310 L
2339 3381 L
2344 3534 L
2350 3444 L
2355 3480 L
2360 3408 L
2365 3468 L
2370 3340 L
2375 3407 L
2380 3463 L
2384 3352 L
2389 3324 L
2393 3361 L
2398 3387 L
2402 3403 L
2407 3482 L
2411 3340 L
2415 3342 L
2419 3200 L
2423 3410 L
2427 3316 L
2431 3351 L
2435 3293 L
2438 3358 L
2442 3351 L
2446 3359 L
2449 3204 L
2453 3363 L
2456 3376 L
2460 3455 L
2463 3334 L
2467 3331 L
2470 3299 L
2473 3188 L
2476 3238 L
2480 3336 L
2483 3340 L
2486 3429 L
2489 3408 L
2492 3267 L
2495 3284 L
2498 3318 L
2501 3313 L
2504 3258 L
2507 3356 L
2510 3236 L
2512 3171 L
2515 3226 L
2518 3195 L
2521 3235 L
2523 3239 L
2526 3370 L
2529 3262 L
2531 3191 L
2534 3315 L
2536 3140 L
2539 3205 L
2541 3224 L
2544 3284 L
2546 3255 L
2549 3161 L
2551 3177 L
2554 3189 L
2556 3250 L
2558 3346 L
2561 3268 L
2563 3201 L
2565 3072 L
2568 3197 L
2570 3187 L
2572 3172 L
2574 3138 L
2576 3468 L
2579 3228 L
2581 3274 L
2583 3113 L
2585 3278 L
2587 3175 L
2589 3163 L
2591 3286 L
2593 3272 L
2595 3240 L
2597 3139 L
2599 3220 L
2601 3281 L
2603 3178 L
2605 3072 L
2607 3080 L
2609 3131 L
2611 3191 L
2613 3189 L
2615 3265 L
2617 3170 L
2618 3180 L
2620 3151 L
2622 3145 L
2624 3122 L
2626 3111 L
2627 3136 L
2629 3008 L
2631 3195 L
2633 3252 L
2634 3097 L
2636 3184 L
2638 3042 L
2640 3140 L
2641 3186 L
2643 3028 L
2645 3159 L
2646 3038 L
2648 3006 L
2650 3110 L
2651 3129 L
2653 3161 L
2654 3126 L
2656 3157 L
2658 3027 L
2659 3142 L
2661 3068 L
2662 2973 L
2664 2990 L
2665 3180 L
2667 3066 L
2668 3138 L
2670 3210 L
2671 3184 L
2673 3010 L
2674 3223 L
2676 3116 L
2677 3082 L
2679 3178 L
2680 3065 L
2682 2970 L
2683 3004 L
2685 3044 L
2686 2969 L
2687 2980 L
2689 2921 L
2690 3161 L
2692 3089 L
2693 3167 L
2694 3093 L
2696 3043 L
2697 3067 L
2698 3118 L
2700 2866 L
2701 2979 L
2702 3091 L
2704 3004 L
2705 3088 L
2706 3171 L
2708 3032 L
2709 3012 L
2710 3054 L
2712 2987 L
2713 3045 L
2714 3075 L
2715 3070 L
2717 2968 L
2718 3092 L
2719 3115 L
2720 2909 L
2722 3012 L
2723 3055 L
2724 3080 L
2725 2955 L
2726 3103 L
2728 3012 L
2729 3000 L
2730 3088 L
2731 3092 L
2732 2872 L
2734 2930 L
2735 3125 L
2736 3091 L
2737 3066 L
2738 2904 L
2739 2976 L
2741 3002 L
2742 3035 L
2743 2960 L
2744 3075 L
2745 3094 L
2746 2902 L
2747 2879 L
2748 2942 L
2749 2923 L
2751 2866 L
2752 3003 L
2753 2960 L
2754 2965 L
2755 2930 L
2756 3002 L
2757 2961 L
2758 2947 L
2759 3046 L
2760 3039 L
2761 2844 L
2762 2851 L
2763 2858 L
2764 2982 L
2765 2972 L
2767 3042 L
2768 2913 L
2769 3002 L
2770 2954 L
2771 2976 L
2772 3091 L
2773 2730 L
2774 2911 L
2775 3031 L
2776 2950 L
2777 2791 L
2778 2853 L
2779 2975 L
2780 2929 L
2781 2843 L
2782 2994 L
2783 2885 L
2783 2896 L
2784 2916 L
2785 2966 L
2786 2883 L
2787 3004 L
2788 3022 L
2789 2923 L
2790 2935 L
2791 2928 L
2792 2881 L
2793 2876 L
2794 2934 L
2795 2947 L
2796 2911 L
2797 2852 L
2798 2976 L
2798 2867 L
2799 2856 L
2800 2766 L
2801 2933 L
2802 2937 L
2803 2979 L
2804 2777 L
2805 2881 L
2806 3061 L
2807 2879 L
2807 2932 L
2808 2733 L
2809 2715 L
2810 2738 L
2811 2870 L
2812 2830 L
2813 2846 L
2813 2858 L
2814 2958 L
2815 2812 L
2816 2816 L
2817 2830 L
2818 2922 L
2819 2724 L
2819 2840 L
2820 3003 L
2821 2866 L
2822 2738 L
2823 2872 L
2824 2903 L
2824 2765 L
2825 2820 L
2826 2778 L
2827 2825 L
2828 2762 L
2828 2955 L
2829 2867 L
2830 2711 L
2831 2789 L
2832 2814 L
2832 2768 L
2833 2723 L
2834 2793 L
2835 2751 L
2836 2762 L
2836 2902 L
2837 2912 L
2838 2813 L
2839 2714 L
2840 2851 L
2840 2687 L
2841 2765 L
2842 2919 L
2843 2714 L
2843 2942 L
2844 2808 L
2845 2958 L
2846 2947 L
2846 2735 L
2847 2782 L
2848 2664 L
2849 2785 L
2849 2825 L
2850 2974 L
2851 2644 L
2852 2803 L
2852 2759 L
2853 2730 L
2854 2744 L
2855 2675 L
2855 2815 L
2856 2621 L
2857 2932 L
2857 2710 L
2858 2812 L
2859 2726 L
2860 2763 L
2860 2846 L
2861 2960 L
2862 2729 L
2862 2710 L
2863 2954 L
2864 2737 L
2865 2771 L
2865 2789 L
2866 2833 L
2867 2766 L
2867 2774 L
2868 2759 L
2869 2796 L
2869 2624 L
2870 2785 L
2871 2771 L
2871 2660 L
2872 2778 L
2873 2610 L
2873 2643 L
2874 2817 L
2875 2713 L
2876 2730 L
2876 2825 L
2877 2682 L
2878 2753 L
2878 2687 L
2879 2816 L
2880 2624 L
2880 2683 L
2881 2828 L
2881 2605 L
2882 2800 L
2883 2624 L
2883 2664 L
2884 2748 L
2885 2715 L
2885 2845 L
2886 2701 L
2887 2710 L
2887 2657 L
2888 2612 L
2889 2771 L
2889 2827 L
2892 2638 L
2894 2704 L
2897 2691 L
2899 2673 L
2902 2567 L
2904 2639 L
2907 2842 L
2909 2629 L
2911 2671 L
2914 2548 L
2916 2702 L
2918 2640 L
2921 2610 L
2923 2552 L
2925 2634 L
2927 2694 L
2929 2727 L
2932 2566 L
2934 2602 L
2936 2618 L
2938 2494 L
2940 2626 L
2942 2673 L
2944 2493 L
2946 2583 L
2948 2697 L
2950 2499 L
2952 2488 L
2954 2607 L
2956 2629 L
2958 2452 L
2960 2455 L
2962 2660 L
2964 2471 L
2966 2581 L
2968 2491 L
2970 2514 L
2971 2578 L
2973 2393 L
2975 2454 L
2977 2635 L
2979 2426 L
2980 2516 L
2982 2496 L
2984 2412 L
2986 2576 L
2987 2447 L
2989 2415 L
2991 2395 L
2993 2360 L
2994 2492 L
2996 2395 L
2998 2293 L
2999 2489 L
3001 2423 L
3003 2356 L
3004 2253 L
3006 2569 L
3007 2534 L
3009 2443 L
3011 2513 L
3012 2495 L
3014 2320 L
3015 2460 L
3017 2461 L
3018 2374 L
3020 2500 L
3021 2375 L
3023 2515 L
3024 2254 L
3026 2457 L
3027 2456 L
3029 2288 L
3030 2263 L
3032 2308 L
3033 2402 L
3035 2399 L
3036 2350 L
3038 2530 L
3039 2452 L
3040 2431 L
3042 2330 L
3043 2383 L
3045 2363 L
3046 2388 L
3047 2390 L
3049 2422 L
3050 2335 L
3051 2418 L
3053 2213 L
3054 2299 L
3055 2474 L
3057 2234 L
3058 2385 L
3059 2469 L
3061 2364 L
3062 2368 L
3063 2269 L
3065 2184 L
3066 2416 L
3067 2299 L
3068 2325 L
3070 2241 L
3071 2358 L
3072 2348 L
3073 2266 L
3075 2295 L
3076 2312 L
3077 2360 L
3078 2354 L
3079 2265 L
3081 2304 L
3082 2175 L
3083 2281 L
3084 2304 L
3085 2248 L
3087 2248 L
3088 2302 L
3089 2275 L
3090 2328 L
3091 2214 L
3092 2213 L
3094 2271 L
3095 2205 L
3096 2220 L
3097 2315 L
3098 2192 L
3099 2450 L
3100 2147 L
3101 2100 L
3103 2409 L
3104 2109 L
3105 2242 L
3106 2288 L
3107 2203 L
3108 2259 L
3109 2273 L
3110 2359 L
3111 2222 L
3112 2154 L
3113 2201 L
3114 2314 L
3115 2288 L
3116 2226 L
3117 2287 L
3119 2145 L
3120 2186 L
3121 2268 L
3122 2211 L
3123 2279 L
3124 2217 L
3125 2306 L
3126 2227 L
3127 2096 L
3128 2294 L
3129 2131 L
3130 2126 L
3131 2349 L
3132 2037 L
3133 2246 L
3134 2211 L
3135 2085 L
3136 2213 L
3136 2199 L
3137 2142 L
3138 2144 L
3139 2197 L
3140 2221 L
3141 2049 L
3142 2135 L
3143 2095 L
3144 2222 L
3145 2299 L
3146 2237 L
3147 2272 L
3148 2109 L
3149 2049 L
3150 2200 L
3151 2167 L
3151 2062 L
3152 2102 L
3153 2072 L
3154 2184 L
3155 2022 L
3156 2204 L
3157 2286 L
3158 2231 L
3159 2125 L
3160 2169 L
3160 1985 L
3161 2114 L
3162 2090 L
3163 2171 L
3164 2151 L
3165 2234 L
3166 2127 L
3166 2080 L
3167 2199 L
3168 2183 L
3169 2053 L
3170 2171 L
3171 2149 L
3172 2260 L
3172 2116 L
3173 2067 L
3174 2059 L
3175 2048 L
3176 2131 L
3177 2174 L
3177 2112 L
3178 2145 L
3179 2109 L
3180 2105 L
3181 2165 L
3181 2259 L
3182 2187 L
3183 1994 L
3184 2215 L
3185 2167 L
3185 2129 L
3186 2241 L
3187 2032 L
3188 2165 L
3189 2153 L
3189 2292 L
3190 2201 L
3191 2101 L
3192 2018 L
3193 2128 L
3193 2263 L
3194 2043 L
3195 2106 L
3196 2130 L
3196 2047 L
3197 1987 L
3198 2184 L
3199 2001 L
3199 1972 L
3200 2191 L
3201 2142 L
3202 2058 L
3202 2117 L
3203 2128 L
3204 2126 L
3205 1995 L
3205 2253 L
3206 2091 L
3207 2065 L
3208 2043 L
3208 2159 L
3209 2117 L
3210 2063 L
3210 2163 L
3211 2032 L
3212 2104 L
3213 2113 L
3213 2125 L
3214 2138 L
3215 2179 L
3215 2037 L
3216 2063 L
3217 2128 L
3218 2083 L
3218 1947 L
3219 1880 L
3220 2181 L
3220 2093 L
3221 2077 L
3222 2068 L
3222 2170 L
3223 2017 L
3224 2195 L
3224 2008 L
3225 2113 L
3226 2020 L
3227 2017 L
3227 2016 L
3228 2021 L
3229 2122 L
3229 2058 L
3230 1987 L
3231 2098 L
3231 2116 L
3232 2053 L
3233 2165 L
3233 2060 L
3234 2026 L
3235 2196 L
3235 2010 L
3236 2219 L
3236 2121 L
3237 2054 L
3238 2107 L
3238 2031 L
3239 2078 L
3240 2151 L
3240 2057 L
3241 2088 L
3242 2065 L
3242 2082 L
3243 2070 L
3244 2027 L
3244 2056 L
3245 2117 L
3245 1962 L
3246 2040 L
3247 1985 L
3247 1907 L
3248 2114 L
3249 1984 L
3249 2123 L
3250 2134 L
3250 1999 L
3251 2051 L
3252 1966 L
3252 2159 L
3253 1979 L
3253 2183 L
3254 2103 L
3255 2068 L
3255 2057 L
3256 2136 L
3257 2085 L
3257 2141 L
3258 2092 L
3258 2092 L
3259 2039 L
3259 1961 L
3260 2030 L
3261 2153 L
3261 2117 L
3262 2044 L
3262 2000 L
3263 2100 L
3264 2040 L
3264 2089 L
3265 2152 L
3265 2136 L
3266 2074 L
3267 2165 L
3267 2054 L
3268 2105 L
3268 2103 L
3269 2140 L
3269 2080 L
3270 2125 L
3271 2051 L
3271 2120 L
3272 1988 L
3272 2049 L
3273 1989 L
3273 2204 L
3274 2227 L
3275 2185 L
3275 2048 L
3276 2153 L
3276 2111 L
3277 2131 L
3277 2036 L
3278 2002 L
3278 2059 L
3279 2020 L
3280 2190 L
3280 2030 L
3281 1943 L
3281 2185 L
3282 2209 L
3282 2109 L
3283 2081 L
3283 2003 L
3284 2028 L
3284 1932 L
3285 2060 L
3285 1896 L
3286 2024 L
3287 2091 L
3287 1999 L
3288 2167 L
3288 2044 L
3289 1994 L
3289 1833 L
3290 2122 L
3290 2108 L
3291 1984 L
3291 1967 L
3292 2114 L
3292 2135 L
3293 2011 L
3293 2032 L
3294 2047 L
3294 2037 L
3295 2033 L
3295 1989 L
3296 2147 L
3297 2027 L
3297 2089 L
3298 2032 L
3298 2154 L
3299 2065 L
3299 2060 L
3300 2007 L
3300 2089 L
3301 2082 L
3301 2088 L
3302 2145 L
3302 2027 L
3303 2065 L
3303 2302 L
3304 2140 L
3304 2172 L
3305 2196 L
3305 2098 L
3306 2000 L
3306 2036 L
3307 2190 L
3307 2183 L
3308 2179 L
3308 2023 L
3309 2125 L
3309 2045 L
3310 2080 L
3310 2079 L
3311 2155 L
3311 2119 L
3312 2151 L
3312 2056 L
3312 2124 L
3313 2057 L
3313 2157 L
3314 2274 L
3314 2096 L
3315 2068 L
3315 2077 L
3316 2162 L
3316 2073 L
3317 2124 L
3317 2139 L
3318 1906 L
3318 2066 L
3319 2101 L
3319 2051 L
3320 2135 L
3320 2105 L
3321 2137 L
3321 2058 L
3321 2163 L
3322 2094 L
3322 2141 L
3323 2089 L
3323 2219 L
3324 2103 L
3324 2119 L
3325 2078 L
3325 2089 L
3326 2025 L
3326 2014 L
3327 2139 L
3327 2290 L
3327 2068 L
3328 2049 L
3328 1964 L
3329 2080 L
3329 2195 L
3330 2216 L
3330 2145 L
3331 2178 L
3331 2101 L
3332 2107 L
3332 2131 L
3332 2154 L
3333 2006 L
3333 2163 L
3334 2162 L
3334 2193 L
3335 2110 L
3335 2156 L
3336 2161 L
3336 2192 L
3336 2209 L
3337 2008 L
3337 2137 L
3338 2085 L
3338 2199 L
3339 2118 L
3339 2158 L
3339 2060 L
3340 1876 L
3340 2016 L
3341 2146 L
3341 2172 L
3342 2107 L
3342 2220 L
3343 2225 L
3343 2097 L
3343 2087 L
3344 2084 L
3344 2375 L
3345 2093 L
3345 2167 L
3346 2040 L
3346 2121 L
3346 1993 L
3347 2203 L
3347 1994 L
3348 2160 L
3348 2028 L
3348 2120 L
3349 2234 L
3349 2095 L
3350 2147 L
3350 2175 L
3351 2121 L
3351 2110 L
3351 1984 L
3352 2121 L
3352 2211 L
3353 2193 L
3353 2182 L
3353 2080 L
3354 1982 L
3354 2028 L
3355 1989 L
3355 2051 L
3355 2385 L
3356 2159 L
3356 2128 L
3357 2092 L
3357 2148 L
3358 2304 L
3358 2071 L
3358 2232 L
3359 2013 L
3359 2133 L
3360 2011 L
3360 2112 L
3360 2063 L
3361 2116 L
3361 2164 L
3362 2114 L
3362 2023 L
3362 2206 L
3363 2057 L
3363 2212 L
3364 2170 L
3364 2332 L
3364 1905 L
3365 2102 L
3365 2150 L
3365 2176 L
3366 2204 L
3366 1978 L
3367 2188 L
3367 2245 L
3367 2201 L
3368 2017 L
3368 1989 L
3369 2061 L
3369 2090 L
3369 2156 L
3370 2284 L
3370 2233 L
3371 2242 L
3371 2143 L
3371 1980 L
3372 2031 L
3372 2022 L
3372 2066 L
3373 2086 L
3373 2089 L
3374 2162 L
3374 2068 L
3374 2165 L
3375 2103 L
3375 2126 L
3375 2270 L
3376 2062 L
3376 2059 L
3377 2119 L
3377 2118 L
3377 2167 L
3378 2068 L
3378 2084 L
3378 2231 L
3379 2041 L
3379 2202 L
3380 2088 L
3380 2257 L
3380 2200 L
3381 2274 L
3381 2217 L
3381 2055 L
3382 2015 L
3382 2143 L
3383 2176 L
3383 2267 L
3383 2127 L
3384 2163 L
3384 2091 L
3384 2095 L
3385 2206 L
3385 2133 L
3385 2032 L
3386 1984 L
3386 2038 L
3387 2271 L
3387 2074 L
3387 2201 L
3388 2160 L
3388 2219 L
3388 1975 L
3389 2111 L
3389 2003 L
3389 2223 L
3390 2236 L
3390 2063 L
3391 2127 L
3391 2092 L
3391 2227 L
3392 2105 L
3392 2187 L
3392 2184 L
3393 2066 L
3393 2163 L
3393 2112 L
3394 2130 L
3394 2281 L
3394 2094 L
3395 2019 L
3395 2196 L
3395 2140 L
3396 2190 L
3396 2146 L
3396 2100 L
3397 2223 L
3397 2107 L
3398 2290 L
3398 2088 L
3398 2207 L
3399 2145 L
3399 2166 L
3399 2250 L
3400 2211 L
3400 2230 L
3400 2198 L
3401 2113 L
3401 2193 L
3401 2056 L
3402 2131 L
3402 2156 L
3402 2144 L
3403 2071 L
3403 2247 L
3403 2062 L
3404 2176 L
3404 2164 L
3404 2167 L
3405 2303 L
3405 2130 L
3405 2097 L
3406 2262 L
3406 2117 L
3406 2116 L
3407 2186 L
3407 2219 L
3407 2216 L
3408 2330 L
3408 2189 L
3408 2255 L
3409 2122 L
3409 2178 L
3409 2077 L
3410 2226 L
3410 2131 L
3410 2133 L
3411 2240 L
3411 2148 L
3411 2261 L
3412 2155 L
3412 2263 L
3412 2118 L
3413 2270 L
3413 2119 L
3413 2130 L
3414 2178 L
3414 2165 L
3414 2116 L
3415 2266 L
3415 2181 L
3415 2221 L
3416 2093 L
3416 2171 L
3416 2146 L
3417 2216 L
3417 2082 L
3417 2146 L
3417 2233 L
3418 2152 L
3418 2170 L
3418 2239 L
3419 2135 L
3419 2176 L
3419 2311 L
3420 2158 L
3420 2191 L
3420 2271 L
3421 2245 L
3421 2267 L
3421 2156 L
3422 2154 L
3422 2191 L
3422 2125 L
3423 2187 L
3423 2167 L
3423 2142 L
3423 2144 L
3424 2241 L
3424 2124 L
3424 2135 L
3425 2257 L
3425 2147 L
3425 2262 L
3426 2271 L
3426 2241 L
3426 2125 L
3427 2248 L
3427 2163 L
3427 2154 L
3428 2318 L
3428 2166 L
3428 2369 L
3428 2374 L
3429 2050 L
3429 2222 L
3429 2224 L
3430 2176 L
3430 2169 L
3430 2171 L
3431 2191 L
3431 2182 L
3431 2261 L
3431 2266 L
3432 2213 L
3432 2140 L
3432 2105 L
3433 2065 L
3433 2284 L
3433 2262 L
3434 2241 L
3434 2279 L
3434 2162 L
3434 2090 L
3435 2232 L
3435 2084 L
3435 2332 L
3436 2179 L
3436 2283 L
3436 2150 L
3437 2182 L
3437 2200 L
3437 2190 L
3437 2219 L
3438 2208 L
3438 2095 L
3438 2200 L
3439 2157 L
3439 2280 L
3439 2197 L
3440 2300 L
3440 2294 L
3440 2250 L
3440 2168 L
3441 2116 L
3441 2194 L
3441 2218 L
3442 2285 L
3442 2310 L
3442 2133 L
3442 2197 L
3443 2217 L
3443 2205 L
3443 2226 L
3444 2168 L
3444 2277 L
3444 2334 L
3444 2313 L
3445 2269 L
3445 2198 L
3445 2167 L
3446 2287 L
3446 2138 L
3446 2209 L
3446 2163 L
3447 2256 L
3447 2217 L
3447 2005 L
3448 2258 L
3448 2258 L
3448 2219 L
3448 2103 L
3449 2267 L
3449 2253 L
3449 2202 L
3450 2263 L
3450 2170 L
3450 2103 L
3450 2204 L
3451 2181 L
3451 2143 L
3451 2219 L
3452 2319 L
3452 2208 L
3452 2279 L
3452 2223 L
3453 2188 L
3453 2333 L
3453 2244 L
3454 2253 L
3454 2149 L
3454 2172 L
3454 2229 L
3455 2201 L
3455 2333 L
3455 2314 L
3455 2293 L
3456 1985 L
3456 2286 L
3456 2278 L
3457 2275 L
3457 2340 L
3457 2217 L
3457 2232 L
3458 2174 L
3458 2320 L
3458 2244 L
3458 2343 L
3459 2250 L
3459 2233 L
3459 2380 L
3460 2253 L
3460 2243 L
3460 2274 L
3460 2315 L
3461 2173 L
3461 2185 L
3461 2130 L
3461 2243 L
3462 2245 L
3462 2113 L
3462 2236 L
3463 2260 L
3463 2295 L
3463 2314 L
3463 2339 L
3464 2060 L
3464 2289 L
3464 2285 L
3464 2175 L
3465 2321 L
3465 2207 L
3465 2355 L
3465 2074 L
3466 2264 L
3466 2217 L
3466 2347 L
3466 2207 L
3467 2241 L
3467 2266 L
3467 2288 L
3468 2265 L
3468 2212 L
3468 2272 L
3468 2387 L
3469 2402 L
3469 2234 L
3469 2260 L
3469 2160 L
3470 2230 L
3470 2230 L
3470 2164 L
3470 2295 L
3471 2318 L
3471 2365 L
3471 2386 L
3471 2068 L
3472 2241 L
3472 2402 L
3472 2154 L
3472 2202 L
3473 2186 L
3473 2266 L
3473 2216 L
3474 2216 L
3474 2196 L
3474 2293 L
3474 2244 L
3475 2133 L
3475 2274 L
3475 2064 L
3475 2121 L
3476 2261 L
3476 2216 L
3476 2279 L
3476 2150 L
3477 2172 L
3477 2164 L
3477 2340 L
3477 2216 L
3478 2270 L
3478 2361 L
3478 2215 L
3478 2263 L
3479 2165 L
3479 2317 L
3479 2338 L
3479 2312 L
3480 2126 L
3480 2163 L
3480 2194 L
3480 2249 L
3481 2247 L
3481 2185 L
3481 2258 L
3481 2181 L
3482 2218 L
3482 2190 L
3482 2292 L
3482 2341 L
3483 2268 L
3483 2229 L
3483 2249 L
3483 2263 L
3484 2386 L
3484 2214 L
3484 2294 L
3484 2221 L
3485 2215 L
3485 2294 L
3485 2162 L
3485 2377 L
3486 2209 L
3486 2430 L
3486 2382 L
3486 2202 L
3487 2279 L
3487 2181 L
3487 2276 L
3487 2211 L
3488 2386 L
3488 2280 L
3488 2050 L
3488 2357 L
3488 2302 L
3489 2118 L
3489 2282 L
3489 2136 L
3489 2272 L
3490 2366 L
3490 2278 L
3490 2257 L
3490 2258 L
3491 2281 L
3491 2293 L
3491 2310 L
3491 2272 L
3492 2331 L
3492 2297 L
3492 2241 L
3492 2303 L
3493 2229 L
3493 2245 L
3493 2293 L
3493 2167 L
3494 2214 L
3494 2322 L
3494 2272 L
3494 2127 L
3494 2173 L
3495 2189 L
3495 2379 L
3495 2326 L
3495 2229 L
3496 2046 L
3496 2284 L
3496 2329 L
3496 2193 L
3497 2294 L
3497 2083 L
3497 2261 L
3497 2218 L
3498 2299 L
3498 2415 L
3498 2246 L
3498 2283 L
3498 2369 L
3499 2248 L
3499 2319 L
3499 2136 L
3499 2432 L
3500 2181 L
3500 2194 L
3506 2289 L
3511 2255 L
3517 2353 L
3522 2268 L
3527 2336 L
3532 2193 L
3537 2489 L
3542 2236 L
3547 2350 L
3552 2297 L
3557 2289 L
3561 2410 L
3566 2142 L
3570 2411 L
3575 2513 L
3579 2365 L
3583 2112 L
3587 2281 L
3591 2319 L
3595 2360 L
3599 2369 L
3603 2373 L
3607 2531 L
3611 2306 L
3614 2282 L
3618 2336 L
3622 2255 L
3625 2197 L
3629 2377 L
3632 2274 L
3636 2426 L
3639 2146 L
3642 2564 L
3646 2446 L
3649 2216 L
3652 2290 L
3655 2422 L
3658 2455 L
3661 2319 L
3664 2367 L
3667 2271 L
3670 2359 L
3673 2502 L
3676 2433 L
3679 2282 L
3682 2391 L
3685 2372 L
3688 2446 L
3690 2322 L
3693 2414 L
3696 2446 L
3698 2384 L
3701 2349 L
3704 2461 L
3706 2322 L
3709 2336 L
3711 2429 L
3714 2380 L
3716 2437 L
3719 2457 L
3721 2454 L
3724 2453 L
3726 2402 L
3728 2367 L
3731 2446 L
3733 2408 L
3735 2365 L
3738 2387 L
3740 2376 L
3742 2422 L
3744 2443 L
3747 2340 L
3749 2481 L
3751 2427 L
3753 2523 L
3755 2517 L
3757 2350 L
3760 2399 L
3762 2412 L
3764 2434 L
3766 2329 L
3768 2427 L
3770 2285 L
3772 2544 L
3774 2400 L
3776 2473 L
3778 2464 L
3780 2476 L
3781 2478 L
3783 2431 L
3785 2406 L
3787 2616 L
3789 2337 L
3791 2295 L
3793 2509 L
3795 2390 L
3796 2387 L
3798 2420 L
3800 2524 L
3802 2484 L
3803 2420 L
3805 2388 L
3807 2380 L
3809 2458 L
3810 2363 L
3812 2468 L
3814 2346 L
3816 2384 L
3817 2454 L
3819 2505 L
3820 2443 L
3822 2489 L
3824 2542 L
3825 2391 L
3827 2398 L
3829 2391 L
3830 2420 L
3832 2438 L
3833 2418 L
3835 2385 L
3836 2407 L
3838 2272 L
3839 2207 L
3841 2527 L
3842 2524 L
3844 2346 L
3845 2582 L
3847 2321 L
3848 2507 L
3850 2262 L
3851 2589 L
3853 2379 L
3854 2474 L
3856 2525 L
3857 2455 L
3859 2314 L
3860 2389 L
3861 2473 L
3863 2494 L
3864 2383 L
3866 2441 L
3867 2509 L
3868 2431 L
3870 2462 L
3871 2463 L
3872 2332 L
3874 2375 L
3875 2423 L
3876 2190 L
3878 2507 L
3879 2291 L
3880 2271 L
3882 2387 L
3883 2427 L
3884 2297 L
3885 2276 L
3887 2341 L
3888 2476 L
3889 2390 L
3890 2322 L
3892 2367 L
3893 2394 L
3894 2264 L
3895 2472 L
3897 2484 L
3898 2411 L
3899 2488 L
3900 2469 L
3901 2536 L
3903 2520 L
3904 2330 L
3905 2414 L
3906 2368 L
3907 2346 L
3908 2474 L
3910 2555 L
3911 2295 L
3912 2337 L
3913 2399 L
3914 2344 L
3915 2529 L
3917 2165 L
3918 2422 L
3919 2395 L
3920 2209 L
3921 2480 L
3922 2532 L
3923 2597 L
3924 2567 L
3925 2450 L
3926 2611 L
3928 2414 L
3929 2450 L
3930 2435 L
3931 2305 L
3932 2351 L
3933 2341 L
3934 2543 L
3935 2295 L
3936 2276 L
3937 2385 L
3938 2457 L
3939 2338 L
3940 2431 L
3941 2394 L
3942 2286 L
3943 2227 L
3944 2454 L
3945 2324 L
3946 2494 L
3947 2251 L
3948 2459 L
3949 2532 L
3950 2379 L
3951 2271 L
3952 2384 L
3953 2334 L
3954 2427 L
3955 2453 L
3956 2338 L
3957 2380 L
3958 2310 L
3959 2575 L
3960 2383 L
3961 2415 L
3962 2404 L
3963 2527 L
3964 2301 L
3965 2399 L
3966 2346 L
3966 2441 L
3967 2345 L
3968 2361 L
3969 2268 L
3970 2434 L
3971 2349 L
3972 2392 L
3973 2420 L
3974 2387 L
3975 2442 L
3976 2380 L
3976 2407 L
3977 2399 L
3978 2431 L
3979 2554 L
3980 2387 L
3981 2342 L
3982 2504 L
3983 2396 L
3983 2458 L
3984 2470 L
3985 2325 L
3986 2447 L
3987 2294 L
3988 2532 L
3989 2266 L
3989 2303 L
3990 2262 L
3991 2464 L
3992 2314 L
3993 2493 L
3994 2429 L
3995 2143 L
3995 2372 L
3996 2458 L
3997 2321 L
3998 2501 L
3999 2377 L
3999 2454 L
4000 2398 L
4001 2349 L
4002 2137 L
4003 2457 L
4003 2287 L
4004 2527 L
4005 2391 L
4006 2435 L
4007 2493 L
4007 2157 L
4008 2307 L
4009 2298 L
4010 2365 L
4011 2478 L
4011 2352 L
4012 2239 L
4013 2457 L
4014 2332 L
4014 2268 L
4015 2320 L
4016 2216 L
4017 2384 L
4017 2442 L
4018 2468 L
4019 2373 L
4020 2485 L
4021 2476 L
4021 2287 L
4022 2451 L
4023 2317 L
4023 2351 L
4024 2472 L
4025 2250 L
4026 2310 L
4026 2400 L
4027 2508 L
4028 2319 L
4029 2281 L
4029 2270 L
4030 2346 L
4031 2391 L
4032 2398 L
4032 2275 L
4033 2371 L
4034 2419 L
4034 2390 L
4035 2470 L
4036 2446 L
4036 2424 L
4037 2185 L
4038 2406 L
4039 2287 L
4039 2575 L
4040 2418 L
4041 2392 L
4041 2418 L
4042 2375 L
4043 2240 L
4043 2407 L
4044 2449 L
4045 2411 L
4045 2411 L
4046 2272 L
4047 2289 L
4047 2373 L
4048 2289 L
4049 2363 L
4050 2276 L
4050 2316 L
4051 2364 L
4052 2334 L
4052 2361 L
4053 2376 L
4053 2373 L
4054 2324 L
4055 2416 L
4055 2447 L
4056 2379 L
4057 2422 L
4057 2447 L
4058 2420 L
4059 2330 L
4059 2411 L
4060 2359 L
4061 2295 L
4061 2322 L
4062 2465 L
L2 C02 COSGR

%
%================
% Legend - Begin
%================
%
GSN 4240 5180 M
4480 5180 L
LWMC SL  C02 COSGR
GSN 4540 5141 M helvM (1.0 uM) show grestore
%
%================
% Legend - End
%================
%

%
% Residuals:
%
GSN 777 750 M
1388 899 L
1552 880 L
1652 804 L
1723 786 L
1778 826 L
1824 940 L
1863 917 L
1896 954 L
1926 973 L
1952 1025 L
1976 1024 L
1998 1076 L
2019 1030 L
2037 1024 L
2055 1059 L
2071 1108 L
2086 1083 L
2101 1124 L
2115 1175 L
2128 1192 L
2140 1170 L
2152 1150 L
2163 1182 L
2174 1209 L
2184 1197 L
2194 1229 L
2204 1223 L
2213 1185 L
2222 1276 L
2230 1258 L
2239 1276 L
2247 1295 L
2255 1250 L
2262 1225 L
2270 1294 L
2277 1283 L
2284 1244 L
2290 1318 L
2297 1303 L
2303 1295 L
2310 1322 L
2316 1338 L
2322 1339 L
2328 1312 L
2333 1297 L
2339 1328 L
2344 1388 L
2350 1362 L
2355 1379 L
2360 1359 L
2365 1385 L
2370 1345 L
2375 1373 L
2380 1398 L
2384 1363 L
2389 1358 L
2393 1375 L
2398 1389 L
2402 1398 L
2407 1430 L
2411 1384 L
2415 1389 L
2419 1342 L
2423 1421 L
2427 1391 L
2431 1407 L
2435 1390 L
2438 1416 L
2442 1417 L
2446 1423 L
2449 1372 L
2453 1431 L
2456 1439 L
2460 1470 L
2463 1430 L
2467 1432 L
2470 1424 L
2473 1387 L
2476 1408 L
2480 1446 L
2483 1450 L
2486 1484 L
2489 1479 L
2492 1431 L
2495 1440 L
2498 1455 L
2501 1455 L
2504 1438 L
2507 1475 L
2510 1435 L
2512 1414 L
2515 1436 L
2518 1427 L
2521 1444 L
2523 1447 L
2526 1496 L
2529 1460 L
2531 1437 L
2534 1483 L
2536 1422 L
2539 1448 L
2541 1456 L
2544 1479 L
2546 1471 L
2549 1439 L
2551 1447 L
2554 1453 L
2556 1476 L
2558 1512 L
2561 1486 L
2563 1464 L
2565 1420 L
2568 1466 L
2570 1464 L
2572 1460 L
2574 1450 L
2576 1569 L
2579 1485 L
2581 1503 L
2583 1447 L
2585 1507 L
2587 1472 L
2589 1469 L
2591 1515 L
2593 1511 L
2595 1501 L
2597 1466 L
2599 1497 L
2601 1520 L
2603 1484 L
2605 1448 L
2607 1452 L
2609 1471 L
2611 1494 L
2613 1495 L
2615 1523 L
2617 1490 L
2618 1495 L
2620 1486 L
2622 1485 L
2624 1478 L
2626 1476 L
2627 1485 L
2629 1441 L
2631 1509 L
2633 1530 L
2634 1476 L
2636 1508 L
2638 1458 L
2640 1494 L
2641 1512 L
2643 1457 L
2645 1504 L
2646 1462 L
2648 1452 L
2650 1490 L
2651 1498 L
2653 1510 L
2654 1499 L
2656 1510 L
2658 1465 L
2659 1507 L
2661 1482 L
2662 1449 L
2664 1456 L
2665 1524 L
2667 1484 L
2668 1511 L
2670 1537 L
2671 1529 L
2673 1468 L
2674 1545 L
2676 1507 L
2677 1496 L
2679 1531 L
2680 1492 L
2682 1459 L
2683 1472 L
2685 1486 L
2686 1461 L
2687 1465 L
2689 1445 L
2690 1531 L
2692 1506 L
2693 1535 L
2694 1509 L
2696 1492 L
2697 1501 L
2698 1520 L
2700 1432 L
2701 1472 L
2702 1513 L
2704 1483 L
2705 1513 L
2706 1543 L
2708 1494 L
2709 1488 L
2710 1504 L
2712 1481 L
2713 1502 L
2714 1513 L
2715 1512 L
2717 1476 L
2718 1521 L
2719 1530 L
2720 1457 L
2722 1495 L
2723 1510 L
2724 1520 L
2725 1476 L
2726 1529 L
2728 1498 L
2729 1494 L
2730 1526 L
2731 1528 L
2732 1450 L
2734 1471 L
2735 1541 L
2736 1529 L
2737 1521 L
2738 1464 L
2739 1490 L
2741 1500 L
2742 1512 L
2743 1486 L
2744 1527 L
2745 1535 L
2746 1467 L
2747 1460 L
2748 1482 L
2749 1476 L
2751 1456 L
2752 1506 L
2753 1491 L
2754 1493 L
2755 1481 L
2756 1507 L
2757 1493 L
2758 1488 L
2759 1524 L
2760 1522 L
2761 1453 L
2762 1456 L
2763 1459 L
2764 1504 L
2765 1501 L
2767 1526 L
2768 1480 L
2769 1513 L
2770 1496 L
2771 1504 L
2772 1545 L
2773 1418 L
2774 1483 L
2775 1525 L
2776 1497 L
2777 1441 L
2778 1463 L
2779 1507 L
2780 1491 L
2781 1461 L
2782 1515 L
2783 1477 L
2783 1481 L
2784 1489 L
2785 1507 L
2786 1478 L
2787 1521 L
2788 1528 L
2789 1493 L
2790 1498 L
2791 1495 L
2792 1479 L
2793 1478 L
2794 1499 L
2795 1504 L
2796 1492 L
2797 1471 L
2798 1515 L
2798 1477 L
2799 1473 L
2800 1442 L
2801 1501 L
2802 1503 L
2803 1518 L
2804 1447 L
2805 1484 L
2806 1548 L
2807 1484 L
2807 1503 L
2808 1433 L
2809 1427 L
2810 1435 L
2811 1483 L
2812 1469 L
2813 1475 L
2813 1479 L
2814 1515 L
2815 1464 L
2816 1465 L
2817 1471 L
2818 1504 L
2819 1434 L
2819 1475 L
2820 1533 L
2821 1485 L
2822 1440 L
2823 1488 L
2824 1499 L
2824 1450 L
2825 1470 L
2826 1456 L
2827 1472 L
2828 1451 L
2828 1519 L
2829 1488 L
2830 1433 L
2831 1461 L
2832 1470 L
2832 1454 L
2833 1439 L
2834 1464 L
2835 1449 L
2836 1453 L
2836 1503 L
2837 1507 L
2838 1472 L
2839 1437 L
2840 1486 L
2840 1428 L
2841 1456 L
2842 1511 L
2843 1439 L
2843 1520 L
2844 1472 L
2845 1526 L
2846 1522 L
2846 1447 L
2847 1464 L
2848 1423 L
2849 1466 L
2849 1480 L
2850 1533 L
2851 1417 L
2852 1473 L
2852 1458 L
2853 1448 L
2854 1453 L
2855 1429 L
2855 1479 L
2856 1410 L
2857 1521 L
2857 1442 L
2858 1478 L
2859 1448 L
2860 1462 L
2860 1491 L
2861 1532 L
2862 1450 L
2862 1444 L
2863 1531 L
2864 1454 L
2865 1466 L
2865 1473 L
2866 1488 L
2867 1465 L
2867 1468 L
2868 1463 L
2869 1476 L
2869 1415 L
2870 1473 L
2871 1468 L
2871 1429 L
2872 1471 L
2873 1411 L
2873 1423 L
2874 1485 L
2875 1449 L
2876 1455 L
2876 1489 L
2877 1438 L
2878 1464 L
2878 1441 L
2879 1486 L
2880 1418 L
2880 1440 L
2881 1491 L
2881 1412 L
2882 1482 L
2883 1419 L
2883 1434 L
2884 1464 L
2885 1452 L
2885 1499 L
2886 1448 L
2887 1451 L
2887 1433 L
2888 1417 L
2889 1473 L
2889 1493 L
2892 1427 L
2894 1451 L
2897 1447 L
2899 1442 L
2902 1405 L
2904 1431 L
2907 1504 L
2909 1429 L
2911 1444 L
2914 1401 L
2916 1456 L
2918 1435 L
2921 1425 L
2923 1405 L
2925 1435 L
2927 1456 L
2929 1469 L
2932 1412 L
2934 1425 L
2936 1432 L
2938 1388 L
2940 1436 L
2942 1453 L
2944 1389 L
2946 1422 L
2948 1463 L
2950 1393 L
2952 1389 L
2954 1432 L
2956 1440 L
2958 1378 L
2960 1380 L
2962 1453 L
2964 1386 L
2966 1426 L
2968 1394 L
2970 1403 L
2971 1426 L
2973 1360 L
2975 1383 L
2977 1447 L
2979 1373 L
2980 1406 L
2982 1399 L
2984 1369 L
2986 1428 L
2987 1383 L
2989 1372 L
2991 1365 L
2993 1353 L
2994 1400 L
2996 1366 L
2998 1330 L
2999 1400 L
3001 1377 L
3003 1353 L
3004 1317 L
3006 1430 L
3007 1417 L
3009 1385 L
3011 1410 L
3012 1404 L
3014 1343 L
3015 1393 L
3017 1393 L
3018 1362 L
3020 1407 L
3021 1363 L
3023 1413 L
3024 1321 L
3026 1393 L
3027 1393 L
3029 1334 L
3030 1325 L
3032 1342 L
3033 1375 L
3035 1374 L
3036 1357 L
3038 1421 L
3039 1394 L
3040 1387 L
3042 1351 L
3043 1370 L
3045 1363 L
3046 1372 L
3047 1373 L
3049 1385 L
3050 1354 L
3051 1384 L
3053 1311 L
3054 1342 L
3055 1404 L
3057 1319 L
3058 1373 L
3059 1403 L
3061 1366 L
3062 1368 L
3063 1333 L
3065 1303 L
3066 1385 L
3067 1344 L
3068 1353 L
3070 1324 L
3071 1365 L
3072 1362 L
3073 1333 L
3075 1344 L
3076 1350 L
3077 1367 L
3078 1365 L
3079 1334 L
3081 1348 L
3082 1302 L
3083 1340 L
3084 1348 L
3085 1328 L
3087 1329 L
3088 1348 L
3089 1338 L
3090 1358 L
3091 1317 L
3092 1317 L
3094 1338 L
3095 1315 L
3096 1320 L
3097 1354 L
3098 1310 L
3099 1402 L
3100 1295 L
3101 1278 L
3103 1388 L
3104 1282 L
3105 1329 L
3106 1345 L
3107 1315 L
3108 1335 L
3109 1340 L
3110 1371 L
3111 1323 L
3112 1299 L
3113 1315 L
3114 1356 L
3115 1347 L
3116 1325 L
3117 1346 L
3119 1296 L
3120 1311 L
3121 1340 L
3122 1320 L
3123 1344 L
3124 1322 L
3125 1354 L
3126 1326 L
3127 1280 L
3128 1350 L
3129 1293 L
3130 1291 L
3131 1370 L
3132 1259 L
3133 1334 L
3134 1321 L
3135 1277 L
3136 1322 L
3136 1317 L
3137 1297 L
3138 1298 L
3139 1317 L
3140 1326 L
3141 1265 L
3142 1295 L
3143 1281 L
3144 1327 L
3145 1354 L
3146 1332 L
3147 1344 L
3148 1287 L
3149 1265 L
3150 1319 L
3151 1308 L
3151 1270 L
3152 1285 L
3153 1274 L
3154 1314 L
3155 1257 L
3156 1321 L
3157 1350 L
3158 1331 L
3159 1294 L
3160 1309 L
3160 1244 L
3161 1290 L
3162 1282 L
3163 1310 L
3164 1303 L
3165 1333 L
3166 1295 L
3166 1278 L
3167 1321 L
3168 1315 L
3169 1269 L
3170 1311 L
3171 1303 L
3172 1343 L
3172 1292 L
3173 1274 L
3174 1272 L
3175 1268 L
3176 1297 L
3177 1313 L
3177 1291 L
3178 1302 L
3179 1290 L
3180 1289 L
3181 1310 L
3181 1343 L
3182 1318 L
3183 1249 L
3184 1328 L
3185 1311 L
3185 1298 L
3186 1337 L
3187 1263 L
3188 1310 L
3189 1306 L
3189 1356 L
3190 1323 L
3191 1288 L
3192 1259 L
3193 1298 L
3193 1346 L
3194 1268 L
3195 1290 L
3196 1299 L
3196 1269 L
3197 1248 L
3198 1318 L
3199 1253 L
3199 1243 L
3200 1321 L
3201 1303 L
3202 1274 L
3202 1295 L
3203 1299 L
3204 1298 L
3205 1252 L
3205 1343 L
3206 1286 L
3207 1276 L
3208 1269 L
3208 1310 L
3209 1295 L
3210 1276 L
3210 1312 L
3211 1265 L
3212 1291 L
3213 1294 L
3213 1299 L
3214 1303 L
3215 1318 L
3215 1267 L
3216 1277 L
3217 1300 L
3218 1284 L
3218 1235 L
3219 1212 L
3220 1319 L
3220 1288 L
3221 1282 L
3222 1279 L
3222 1315 L
3223 1261 L
3224 1324 L
3224 1258 L
3225 1295 L
3226 1262 L
3227 1261 L
3227 1261 L
3228 1263 L
3229 1299 L
3229 1276 L
3230 1251 L
3231 1290 L
3231 1297 L
3232 1274 L
3233 1314 L
3233 1277 L
3234 1265 L
3235 1325 L
3235 1259 L
3236 1333 L
3236 1299 L
3237 1275 L
3238 1294 L
3238 1267 L
3239 1284 L
3240 1309 L
3240 1276 L
3241 1287 L
3242 1279 L
3242 1285 L
3243 1281 L
3244 1266 L
3244 1276 L
3245 1298 L
3245 1243 L
3246 1270 L
3247 1251 L
3247 1224 L
3248 1297 L
3249 1251 L
3249 1300 L
3250 1304 L
3250 1256 L
3251 1275 L
3252 1245 L
3252 1313 L
3253 1249 L
3253 1322 L
3254 1293 L
3255 1281 L
3255 1277 L
3256 1305 L
3257 1287 L
3257 1307 L
3258 1290 L
3258 1290 L
3259 1271 L
3259 1243 L
3260 1268 L
3261 1311 L
3261 1299 L
3262 1273 L
3262 1257 L
3263 1293 L
3264 1271 L
3264 1289 L
3265 1311 L
3265 1306 L
3266 1284 L
3267 1316 L
3267 1277 L
3268 1295 L
3268 1294 L
3269 1308 L
3269 1286 L
3270 1302 L
3271 1276 L
3271 1301 L
3272 1254 L
3272 1275 L
3273 1254 L
3273 1330 L
3274 1339 L
3275 1324 L
3275 1275 L
3276 1312 L
3276 1298 L
3277 1305 L
3277 1271 L
3278 1259 L
3278 1279 L
3279 1265 L
3280 1326 L
3280 1269 L
3281 1238 L
3281 1324 L
3282 1333 L
3282 1297 L
3283 1287 L
3283 1260 L
3284 1268 L
3284 1234 L
3285 1280 L
3285 1222 L
3286 1267 L
3287 1291 L
3287 1258 L
3288 1318 L
3288 1274 L
3289 1257 L
3289 1199 L
3290 1302 L
3290 1297 L
3291 1253 L
3291 1247 L
3292 1299 L
3292 1307 L
3293 1263 L
3293 1270 L
3294 1276 L
3294 1272 L
3295 1271 L
3295 1255 L
3296 1311 L
3297 1268 L
3297 1291 L
3298 1270 L
3298 1314 L
3299 1282 L
3299 1280 L
3300 1262 L
3300 1291 L
3301 1288 L
3301 1291 L
3302 1311 L
3302 1269 L
3303 1282 L
3303 1367 L
3304 1309 L
3304 1320 L
3305 1329 L
3305 1294 L
3306 1260 L
3306 1272 L
3307 1327 L
3307 1324 L
3308 1323 L
3308 1268 L
3309 1304 L
3309 1275 L
3310 1288 L
3310 1288 L
3311 1315 L
3311 1302 L
3312 1313 L
3312 1280 L
3312 1304 L
3313 1280 L
3313 1315 L
3314 1357 L
3314 1294 L
3315 1284 L
3315 1287 L
3316 1317 L
3316 1286 L
3317 1304 L
3317 1309 L
3318 1227 L
3318 1283 L
3319 1296 L
3319 1278 L
3320 1308 L
3320 1297 L
3321 1309 L
3321 1281 L
3321 1318 L
3322 1294 L
3322 1310 L
3323 1292 L
3323 1338 L
3324 1297 L
3324 1303 L
3325 1288 L
3325 1292 L
3326 1269 L
3326 1265 L
3327 1309 L
3327 1363 L
3327 1284 L
3328 1278 L
3328 1248 L
3329 1289 L
3329 1330 L
3330 1337 L
3330 1312 L
3331 1324 L
3331 1296 L
3332 1299 L
3332 1307 L
3332 1315 L
3333 1263 L
3333 1318 L
3334 1318 L
3334 1329 L
3335 1300 L
3335 1316 L
3336 1318 L
3336 1329 L
3336 1335 L
3337 1264 L
3337 1309 L
3338 1291 L
3338 1331 L
3339 1303 L
3339 1317 L
3339 1282 L
3340 1217 L
3340 1267 L
3341 1312 L
3341 1322 L
3342 1299 L
3342 1339 L
3343 1341 L
3343 1295 L
3343 1292 L
3344 1291 L
3344 1394 L
3345 1294 L
3345 1320 L
3346 1275 L
3346 1304 L
3346 1259 L
3347 1333 L
3347 1259 L
3348 1318 L
3348 1271 L
3348 1304 L
3349 1344 L
3349 1295 L
3350 1313 L
3350 1323 L
3351 1304 L
3351 1300 L
3351 1255 L
3352 1304 L
3352 1336 L
3353 1330 L
3353 1326 L
3353 1290 L
3354 1255 L
3354 1271 L
3355 1257 L
3355 1279 L
3355 1398 L
3356 1318 L
3356 1307 L
3357 1294 L
3357 1314 L
3358 1369 L
3358 1286 L
3358 1344 L
3359 1266 L
3359 1309 L
3360 1265 L
3360 1301 L
3360 1284 L
3361 1303 L
3361 1320 L
3362 1302 L
3362 1270 L
3362 1335 L
3363 1282 L
3363 1337 L
3364 1322 L
3364 1379 L
3364 1228 L
3365 1298 L
3365 1315 L
3365 1324 L
3366 1334 L
3366 1254 L
3367 1328 L
3367 1348 L
3367 1333 L
3368 1268 L
3368 1258 L
3369 1283 L
3369 1294 L
3369 1317 L
3370 1362 L
3370 1344 L
3371 1348 L
3371 1312 L
3371 1255 L
3372 1272 L
3372 1269 L
3372 1285 L
3373 1292 L
3373 1293 L
3374 1319 L
3374 1286 L
3374 1320 L
3375 1298 L
3375 1307 L
3375 1357 L
3376 1284 L
3376 1283 L
3377 1304 L
3377 1304 L
3377 1321 L
3378 1286 L
3378 1292 L
3378 1344 L
3379 1276 L
3379 1334 L
3380 1293 L
3380 1353 L
3380 1333 L
3381 1359 L
3381 1339 L
3381 1281 L
3382 1267 L
3382 1312 L
3383 1324 L
3383 1357 L
3383 1307 L
3384 1320 L
3384 1294 L
3384 1296 L
3385 1335 L
3385 1309 L
3385 1273 L
3386 1256 L
3386 1275 L
3387 1358 L
3387 1288 L
3387 1333 L
3388 1319 L
3388 1340 L
3388 1253 L
3389 1301 L
3389 1263 L
3389 1341 L
3390 1346 L
3390 1284 L
3391 1307 L
3391 1295 L
3391 1343 L
3392 1299 L
3392 1328 L
3392 1327 L
3393 1285 L
3393 1320 L
3393 1302 L
3394 1308 L
3394 1362 L
3394 1295 L
3395 1269 L
3395 1332 L
3395 1312 L
3396 1330 L
3396 1314 L
3396 1298 L
3397 1341 L
3397 1300 L
3398 1365 L
3398 1293 L
3398 1336 L
3399 1313 L
3399 1321 L
3399 1351 L
3400 1337 L
3400 1344 L
3400 1332 L
3401 1302 L
3401 1331 L
3401 1282 L
3402 1309 L
3402 1317 L
3402 1313 L
3403 1287 L
3403 1350 L
3403 1284 L
3404 1325 L
3404 1320 L
3404 1321 L
3405 1370 L
3405 1308 L
3405 1297 L
3406 1355 L
3406 1304 L
3406 1304 L
3407 1328 L
3407 1340 L
3407 1339 L
3408 1379 L
3408 1329 L
3408 1353 L
3409 1306 L
3409 1325 L
3409 1290 L
3410 1343 L
3410 1309 L
3410 1310 L
3411 1348 L
3411 1315 L
3411 1355 L
3412 1317 L
3412 1355 L
3412 1304 L
3413 1358 L
3413 1305 L
3413 1309 L
3414 1325 L
3414 1321 L
3414 1304 L
3415 1357 L
3415 1327 L
3415 1341 L
3416 1295 L
3416 1323 L
3416 1314 L
3417 1339 L
3417 1291 L
3417 1314 L
3417 1345 L
3418 1316 L
3418 1323 L
3418 1347 L
3419 1310 L
3419 1325 L
3419 1373 L
3420 1318 L
3420 1330 L
3420 1358 L
3421 1349 L
3421 1357 L
3421 1318 L
3422 1317 L
3422 1330 L
3422 1307 L
3423 1329 L
3423 1322 L
3423 1313 L
3423 1313 L
3424 1348 L
3424 1307 L
3424 1310 L
3425 1353 L
3425 1314 L
3425 1355 L
3426 1358 L
3426 1348 L
3426 1307 L
3427 1350 L
3427 1320 L
3427 1317 L
3428 1375 L
3428 1321 L
3428 1393 L
3428 1395 L
3429 1280 L
3429 1341 L
3429 1342 L
3430 1325 L
3430 1322 L
3430 1323 L
3431 1330 L
3431 1327 L
3431 1355 L
3431 1357 L
3432 1338 L
3432 1312 L
3432 1300 L
3433 1285 L
3433 1363 L
3433 1355 L
3434 1348 L
3434 1361 L
3434 1320 L
3434 1294 L
3435 1345 L
3435 1292 L
3435 1380 L
3436 1326 L
3436 1363 L
3436 1316 L
3437 1327 L
3437 1333 L
3437 1330 L
3437 1340 L
3438 1336 L
3438 1296 L
3438 1333 L
3439 1318 L
3439 1362 L
3439 1332 L
3440 1369 L
3440 1367 L
3440 1351 L
3440 1322 L
3441 1304 L
3441 1331 L
3441 1340 L
3442 1364 L
3442 1373 L
3442 1310 L
3442 1332 L
3443 1340 L
3443 1335 L
3443 1343 L
3444 1322 L
3444 1361 L
3444 1381 L
3444 1374 L
3445 1358 L
3445 1333 L
3445 1322 L
3446 1364 L
3446 1311 L
3446 1337 L
3446 1320 L
3447 1353 L
3447 1340 L
3447 1264 L
3448 1354 L
3448 1354 L
3448 1340 L
3448 1299 L
3449 1357 L
3449 1352 L
3449 1334 L
3450 1356 L
3450 1323 L
3450 1299 L
3450 1335 L
3451 1327 L
3451 1313 L
3451 1340 L
3452 1376 L
3452 1336 L
3452 1361 L
3452 1342 L
3453 1329 L
3453 1381 L
3453 1349 L
3454 1352 L
3454 1315 L
3454 1323 L
3454 1344 L
3455 1334 L
3455 1381 L
3455 1374 L
3455 1366 L
3456 1257 L
3456 1364 L
3456 1361 L
3457 1360 L
3457 1383 L
3457 1340 L
3457 1345 L
3458 1324 L
3458 1376 L
3458 1349 L
3458 1384 L
3459 1351 L
3459 1345 L
3459 1397 L
3460 1352 L
3460 1349 L
3460 1360 L
3460 1374 L
3461 1324 L
3461 1328 L
3461 1309 L
3461 1349 L
3462 1349 L
3462 1303 L
3462 1346 L
3463 1355 L
3463 1367 L
3463 1374 L
3463 1383 L
3464 1284 L
3464 1365 L
3464 1364 L
3464 1325 L
3465 1376 L
3465 1336 L
3465 1389 L
3465 1289 L
3466 1356 L
3466 1340 L
3466 1386 L
3466 1336 L
3467 1348 L
3467 1357 L
3467 1365 L
3468 1356 L
3468 1338 L
3468 1359 L
3468 1400 L
3469 1405 L
3469 1346 L
3469 1355 L
3469 1319 L
3470 1344 L
3470 1344 L
3470 1321 L
3470 1367 L
3471 1375 L
3471 1392 L
3471 1399 L
3471 1287 L
3472 1348 L
3472 1405 L
3472 1317 L
3472 1334 L
3473 1328 L
3473 1357 L
3473 1339 L
3474 1339 L
3474 1332 L
3474 1366 L
3474 1349 L
3475 1310 L
3475 1360 L
3475 1285 L
3475 1305 L
3476 1355 L
3476 1339 L
3476 1361 L
3476 1316 L
3477 1323 L
3477 1321 L
3477 1383 L
3477 1339 L
3478 1358 L
3478 1390 L
3478 1339 L
3478 1356 L
3479 1321 L
3479 1375 L
3479 1382 L
3479 1373 L
3480 1307 L
3480 1320 L
3480 1331 L
3480 1351 L
3481 1350 L
3481 1328 L
3481 1354 L
3481 1327 L
3482 1340 L
3482 1330 L
3482 1366 L
3482 1384 L
3483 1357 L
3483 1344 L
3483 1351 L
3483 1356 L
3484 1399 L
3484 1338 L
3484 1367 L
3484 1341 L
3485 1339 L
3485 1367 L
3485 1320 L
3485 1396 L
3486 1337 L
3486 1415 L
3486 1398 L
3486 1334 L
3487 1361 L
3487 1327 L
3487 1360 L
3487 1337 L
3488 1399 L
3488 1362 L
3488 1280 L
3488 1389 L
3488 1369 L
3489 1304 L
3489 1362 L
3489 1310 L
3489 1359 L
3490 1392 L
3490 1361 L
3490 1353 L
3490 1354 L
3491 1362 L
3491 1366 L
3491 1372 L
3491 1359 L
3492 1380 L
3492 1368 L
3492 1348 L
3492 1370 L
3493 1344 L
3493 1349 L
3493 1366 L
3493 1321 L
3494 1338 L
3494 1377 L
3494 1359 L
3494 1307 L
3494 1324 L
3495 1329 L
3495 1397 L
3495 1378 L
3495 1344 L
3496 1278 L
3496 1363 L
3496 1379 L
3496 1331 L
3497 1367 L
3497 1292 L
3497 1355 L
3497 1340 L
3498 1368 L
3498 1409 L
3498 1349 L
3498 1363 L
3498 1393 L
3499 1350 L
3499 1375 L
3499 1310 L
3499 1416 L
3500 1326 L
3500 1331 L
3506 1365 L
3511 1352 L
3517 1387 L
3522 1357 L
3527 1381 L
3532 1330 L
3537 1435 L
3542 1345 L
3547 1386 L
3552 1366 L
3557 1363 L
3561 1406 L
3566 1311 L
3570 1406 L
3575 1443 L
3579 1390 L
3583 1300 L
3587 1359 L
3591 1373 L
3595 1387 L
3599 1390 L
3603 1392 L
3607 1447 L
3611 1368 L
3614 1359 L
3618 1378 L
3622 1349 L
3625 1328 L
3629 1392 L
3632 1355 L
3636 1409 L
3639 1309 L
3642 1458 L
3646 1415 L
3649 1334 L
3652 1360 L
3655 1406 L
3658 1418 L
3661 1370 L
3664 1386 L
3667 1352 L
3670 1383 L
3673 1434 L
3676 1409 L
3679 1355 L
3682 1394 L
3685 1387 L
3688 1413 L
3690 1369 L
3693 1401 L
3696 1412 L
3698 1390 L
3701 1378 L
3704 1417 L
3706 1368 L
3709 1372 L
3711 1405 L
3714 1388 L
3716 1407 L
3719 1414 L
3721 1413 L
3724 1413 L
3726 1394 L
3728 1382 L
3731 1410 L
3733 1396 L
3735 1381 L
3738 1388 L
3740 1384 L
3742 1400 L
3744 1407 L
3747 1371 L
3749 1420 L
3751 1401 L
3753 1435 L
3755 1433 L
3757 1373 L
3760 1390 L
3762 1395 L
3764 1402 L
3766 1365 L
3768 1400 L
3770 1349 L
3772 1441 L
3774 1389 L
3776 1415 L
3778 1412 L
3780 1416 L
3781 1416 L
3783 1399 L
3785 1390 L
3787 1464 L
3789 1365 L
3791 1350 L
3793 1426 L
3795 1383 L
3796 1382 L
3798 1394 L
3800 1431 L
3802 1416 L
3803 1393 L
3805 1382 L
3807 1379 L
3809 1406 L
3810 1372 L
3812 1409 L
3814 1366 L
3816 1379 L
3817 1404 L
3819 1422 L
3820 1400 L
3822 1416 L
3824 1434 L
3825 1380 L
3827 1383 L
3829 1380 L
3830 1390 L
3832 1396 L
3833 1389 L
3835 1377 L
3836 1385 L
3838 1337 L
3839 1313 L
3841 1427 L
3842 1426 L
3844 1362 L
3845 1446 L
3847 1353 L
3848 1419 L
3850 1331 L
3851 1447 L
3853 1373 L
3854 1406 L
3856 1424 L
3857 1399 L
3859 1349 L
3860 1375 L
3861 1405 L
3863 1412 L
3864 1372 L
3866 1393 L
3867 1417 L
3868 1389 L
3870 1400 L
3871 1400 L
3872 1353 L
3874 1368 L
3875 1385 L
3876 1302 L
3878 1414 L
3879 1338 L
3880 1330 L
3882 1371 L
3883 1385 L
3884 1339 L
3885 1332 L
3887 1354 L
3888 1402 L
3889 1371 L
3890 1347 L
3892 1363 L
3893 1372 L
3894 1326 L
3895 1399 L
3897 1403 L
3898 1377 L
3899 1404 L
3900 1397 L
3901 1421 L
3903 1415 L
3904 1348 L
3905 1377 L
3906 1361 L
3907 1353 L
3908 1398 L
3910 1427 L
3911 1334 L
3912 1349 L
3913 1371 L
3914 1351 L
3915 1416 L
3917 1287 L
3918 1378 L
3919 1368 L
3920 1302 L
3921 1398 L
3922 1416 L
3923 1439 L
3924 1428 L
3925 1387 L
3926 1444 L
3928 1373 L
3929 1386 L
3930 1380 L
3931 1334 L
3932 1350 L
3933 1346 L
3934 1418 L
3935 1330 L
3936 1323 L
3937 1361 L
3938 1387 L
3939 1344 L
3940 1377 L
3941 1364 L
3942 1325 L
3943 1304 L
3944 1384 L
3945 1338 L
3946 1398 L
3947 1312 L
3948 1386 L
3949 1411 L
3950 1356 L
3951 1318 L
3952 1358 L
3953 1340 L
3954 1373 L
3955 1382 L
3956 1341 L
3957 1356 L
3958 1331 L
3959 1424 L
3960 1356 L
3961 1367 L
3962 1363 L
3963 1406 L
3964 1326 L
3965 1361 L
3966 1342 L
3966 1375 L
3967 1341 L
3968 1347 L
3969 1313 L
3970 1372 L
3971 1342 L
3972 1357 L
3973 1367 L
3974 1354 L
3975 1374 L
3976 1352 L
3976 1361 L
3977 1358 L
3978 1369 L
3979 1412 L
3980 1353 L
3981 1337 L
3982 1394 L
3983 1356 L
3983 1378 L
3984 1382 L
3985 1330 L
3986 1373 L
3987 1319 L
3988 1403 L
3989 1308 L
3989 1321 L
3990 1306 L
3991 1378 L
3992 1325 L
3993 1388 L
3994 1365 L
3995 1263 L
3995 1344 L
3996 1375 L
3997 1326 L
3998 1390 L
3999 1345 L
3999 1372 L
4000 1352 L
4001 1335 L
4002 1259 L
4003 1373 L
4003 1312 L
4004 1397 L
4005 1349 L
4006 1364 L
4007 1385 L
4007 1265 L
4008 1318 L
4009 1315 L
4010 1338 L
4011 1378 L
4011 1333 L
4012 1293 L
4013 1370 L
4014 1325 L
4014 1303 L
4015 1321 L
4016 1284 L
4017 1343 L
4017 1364 L
4018 1373 L
4019 1339 L
4020 1378 L
4021 1375 L
4021 1308 L
4022 1366 L
4023 1318 L
4023 1330 L
4024 1372 L
4025 1293 L
4026 1315 L
4026 1347 L
4027 1385 L
4028 1317 L
4029 1303 L
4029 1299 L
4030 1326 L
4031 1342 L
4032 1344 L
4032 1301 L
4033 1334 L
4034 1351 L
4034 1341 L
4035 1369 L
4036 1360 L
4036 1352 L
4037 1267 L
4038 1345 L
4039 1303 L
4039 1405 L
4040 1349 L
4041 1340 L
4041 1349 L
4042 1333 L
4043 1285 L
4043 1344 L
4044 1359 L
4045 1345 L
4045 1345 L
4046 1296 L
4047 1301 L
4047 1331 L
4048 1301 L
4049 1327 L
4050 1296 L
4050 1310 L
4051 1327 L
4052 1316 L
4052 1325 L
4053 1331 L
4053 1329 L
4054 1311 L
4055 1344 L
4055 1355 L
4056 1330 L
4057 1346 L
4057 1354 L
4058 1345 L
4059 1313 L
4059 1341 L
4060 1322 L
4061 1300 L
4061 1309 L
4062 1359 L
L2 C02 COSGR

%
% Main frame
%
L10
GSN 
620 1700 M
4220 1700 L
4220 5300 L
620 5300 L
closepath SGR

%
% X axis: large tics
%
L10
GSN 1130 1700 M 0  54 rL SGR
GSN 1130 5300 M 0 -54 rL SGR
helvS (0.0001) 1130 470 xlabel
GSN 1716 1700 M 0  54 rL SGR
GSN 1716 5300 M 0 -54 rL SGR
helvS (0.001) 1716 470 xlabel
GSN 2303 1700 M 0  54 rL SGR
GSN 2303 5300 M 0 -54 rL SGR
helvS (0.01) 2303 470 xlabel
GSN 2889 1700 M 0  54 rL SGR
GSN 2889 5300 M 0 -54 rL SGR
helvS (0.1) 2889 470 xlabel
GSN 3476 1700 M 0  54 rL SGR
GSN 3476 5300 M 0 -54 rL SGR
helvS (1) 3476 470 xlabel
GSN 4062 1700 M 0  54 rL SGR
GSN 4062 5300 M 0 -54 rL SGR
helvS (10) 4062 470 xlabel
%
% X axis: small tics
%
L5
GSN 720 1700 M 0  36 rL SGR
GSN 720 5300 M 0 -36 rL SGR
GSN 824 1700 M 0  36 rL SGR
GSN 824 5300 M 0 -36 rL SGR
GSN 897 1700 M 0  36 rL SGR
GSN 897 5300 M 0 -36 rL SGR
GSN 954 1700 M 0  36 rL SGR
GSN 954 5300 M 0 -36 rL SGR
GSN 1000 1700 M 0  36 rL SGR
GSN 1000 5300 M 0 -36 rL SGR
GSN 1039 1700 M 0  36 rL SGR
GSN 1039 5300 M 0 -36 rL SGR
GSN 1073 1700 M 0  36 rL SGR
GSN 1073 5300 M 0 -36 rL SGR
GSN 1103 1700 M 0  36 rL SGR
GSN 1103 5300 M 0 -36 rL SGR
GSN 1307 1700 M 0  36 rL SGR
GSN 1307 5300 M 0 -36 rL SGR
GSN 1410 1700 M 0  36 rL SGR
GSN 1410 5300 M 0 -36 rL SGR
GSN 1483 1700 M 0  36 rL SGR
GSN 1483 5300 M 0 -36 rL SGR
GSN 1540 1700 M 0  36 rL SGR
GSN 1540 5300 M 0 -36 rL SGR
GSN 1586 1700 M 0  36 rL SGR
GSN 1586 5300 M 0 -36 rL SGR
GSN 1626 1700 M 0  36 rL SGR
GSN 1626 5300 M 0 -36 rL SGR
GSN 1660 1700 M 0  36 rL SGR
GSN 1660 5300 M 0 -36 rL SGR
GSN 1690 1700 M 0  36 rL SGR
GSN 1690 5300 M 0 -36 rL SGR
GSN 1893 1700 M 0  36 rL SGR
GSN 1893 5300 M 0 -36 rL SGR
GSN 1996 1700 M 0  36 rL SGR
GSN 1996 5300 M 0 -36 rL SGR
GSN 2069 1700 M 0  36 rL SGR
GSN 2069 5300 M 0 -36 rL SGR
GSN 2126 1700 M 0  36 rL SGR
GSN 2126 5300 M 0 -36 rL SGR
GSN 2173 1700 M 0  36 rL SGR
GSN 2173 5300 M 0 -36 rL SGR
GSN 2212 1700 M 0  36 rL SGR
GSN 2212 5300 M 0 -36 rL SGR
GSN 2246 1700 M 0  36 rL SGR
GSN 2246 5300 M 0 -36 rL SGR
GSN 2276 1700 M 0  36 rL SGR
GSN 2276 5300 M 0 -36 rL SGR
GSN 2479 1700 M 0  36 rL SGR
GSN 2479 5300 M 0 -36 rL SGR
GSN 2583 1700 M 0  36 rL SGR
GSN 2583 5300 M 0 -36 rL SGR
GSN 2656 1700 M 0  36 rL SGR
GSN 2656 5300 M 0 -36 rL SGR
GSN 2713 1700 M 0  36 rL SGR
GSN 2713 5300 M 0 -36 rL SGR
GSN 2759 1700 M 0  36 rL SGR
GSN 2759 5300 M 0 -36 rL SGR
GSN 2798 1700 M 0  36 rL SGR
GSN 2798 5300 M 0 -36 rL SGR
GSN 2832 1700 M 0  36 rL SGR
GSN 2832 5300 M 0 -36 rL SGR
GSN 2862 1700 M 0  36 rL SGR
GSN 2862 5300 M 0 -36 rL SGR
GSN 3066 1700 M 0  36 rL SGR
GSN 3066 5300 M 0 -36 rL SGR
GSN 3169 1700 M 0  36 rL SGR
GSN 3169 5300 M 0 -36 rL SGR
GSN 3242 1700 M 0  36 rL SGR
GSN 3242 5300 M 0 -36 rL SGR
GSN 3299 1700 M 0  36 rL SGR
GSN 3299 5300 M 0 -36 rL SGR
GSN 3345 1700 M 0  36 rL SGR
GSN 3345 5300 M 0 -36 rL SGR
GSN 3385 1700 M 0  36 rL SGR
GSN 3385 5300 M 0 -36 rL SGR
GSN 3419 1700 M 0  36 rL SGR
GSN 3419 5300 M 0 -36 rL SGR
GSN 3449 1700 M 0  36 rL SGR
GSN 3449 5300 M 0 -36 rL SGR
GSN 3652 1700 M 0  36 rL SGR
GSN 3652 5300 M 0 -36 rL SGR
GSN 3755 1700 M 0  36 rL SGR
GSN 3755 5300 M 0 -36 rL SGR
GSN 3829 1700 M 0  36 rL SGR
GSN 3829 5300 M 0 -36 rL SGR
GSN 3885 1700 M 0  36 rL SGR
GSN 3885 5300 M 0 -36 rL SGR
GSN 3932 1700 M 0  36 rL SGR
GSN 3932 5300 M 0 -36 rL SGR
GSN 3971 1700 M 0  36 rL SGR
GSN 3971 5300 M 0 -36 rL SGR
GSN 4005 1700 M 0  36 rL SGR
GSN 4005 5300 M 0 -36 rL SGR
GSN 4035 1700 M 0  36 rL SGR
GSN 4035 5300 M 0 -36 rL SGR
%
% Y axis: large tics
%
L10
GSN 620 2313 M 54 0 rL SGR
GSN 4220 2313 M -54 0 rL SGR
helvS (1.1) 560 2313 ylabel
GSN 620 3636 M 54 0 rL SGR
GSN 4220 3636 M -54 0 rL SGR
helvS (1.15) 560 3636 ylabel
GSN 620 4959 M 54 0 rL SGR
GSN 4220 4959 M -54 0 rL SGR
helvS (1.2) 560 4959 ylabel
%
% Y axis: small tics
%
L5
GSN 620 1784 M 36 0 rL SGR
GSN 4220 1784 M -36 0 rL SGR
GSN 620 2049 M 36 0 rL SGR
GSN 4220 2049 M -36 0 rL SGR
GSN 620 2313 M 36 0 rL SGR
GSN 4220 2313 M -36 0 rL SGR
GSN 620 2578 M 36 0 rL SGR
GSN 4220 2578 M -36 0 rL SGR
GSN 620 2842 M 36 0 rL SGR
GSN 4220 2842 M -36 0 rL SGR
GSN 620 3107 M 36 0 rL SGR
GSN 4220 3107 M -36 0 rL SGR
GSN 620 3371 M 36 0 rL SGR
GSN 4220 3371 M -36 0 rL SGR
GSN 620 3636 M 36 0 rL SGR
GSN 4220 3636 M -36 0 rL SGR
GSN 620 3900 M 36 0 rL SGR
GSN 4220 3900 M -36 0 rL SGR
GSN 620 4165 M 36 0 rL SGR
GSN 4220 4165 M -36 0 rL SGR
GSN 620 4430 M 36 0 rL SGR
GSN 4220 4430 M -36 0 rL SGR
GSN 620 4694 M 36 0 rL SGR
GSN 4220 4694 M -36 0 rL SGR
GSN 620 4959 M 36 0 rL SGR
GSN 4220 4959 M -36 0 rL SGR
GSN 620 5223 M 36 0 rL SGR
GSN 4220 5223 M -36 0 rL SGR

%
% X-Axis label:
%
gsave 2420 290 M 
[
[(Helvetica) 180 0 true true 0 (t)]
[(Helvetica) 180 0 true true 0 (i)]
[(Helvetica) 180 0 true true 0 (m)]
[(Helvetica) 180 0 true true 0 (e)]
] 0 MCshow grestore

%
% Y-Axis label:
%
gsave 234 3500 M 
currentpoint gsave translate 90 rotate 0 0 moveto
[
[(Helvetica) 180 0 true true 0 (s)]
[(Helvetica) 180 0 true true 0 (i)]
[(Helvetica) 180 0 true true 0 (g)]
[(Helvetica) 180 0 true true 0 (n)]
[(Helvetica) 180 0 true true 0 (a)]
[(Helvetica) 180 0 true true 0 (l)]
] 0 MCshow grestore

%
% Residuals:
%
gsave 129 1160 M 
currentpoint gsave translate 90 rotate 0 0 moveto
[
[(Helvetica) 150 0 true true 0 (r)]
[(Helvetica) 150 0 true true 0 (e)]
[(Helvetica) 150 0 true true 0 (s)]
[(Helvetica) 150 0 true true 0 (i)]
[(Helvetica) 150 0 true true 0 (d)]
[(Helvetica) 150 0 true true 0 (u)]
[(Helvetica) 150 0 true true 0 (a)]
[(Helvetica) 150 0 true true 0 (l)]
[(Helvetica) 150 0 true true 0 (s)]
] 0 MCshow grestore

%
% Residual frame
%
L10
GSN 
620 620 M
4220 620 L
4220 1700 L
620 1700 L
closepath SGR
%
% X axis: large tics - residual frame
%
L10
GSN 1130 620 M 0  54 rL SGR
GSN 1130 1700 M 0 -54 rL SGR
GSN 1716 620 M 0  54 rL SGR
GSN 1716 1700 M 0 -54 rL SGR
GSN 2303 620 M 0  54 rL SGR
GSN 2303 1700 M 0 -54 rL SGR
GSN 2889 620 M 0  54 rL SGR
GSN 2889 1700 M 0 -54 rL SGR
GSN 3476 620 M 0  54 rL SGR
GSN 3476 1700 M 0 -54 rL SGR
GSN 4062 620 M 0  54 rL SGR
GSN 4062 1700 M 0 -54 rL SGR
%
% X axis: small tics - residual frame
%
L5
GSN 720 620 M 0  36 rL SGR
GSN 720 1700 M 0 -36 rL SGR
GSN 824 620 M 0  36 rL SGR
GSN 824 1700 M 0 -36 rL SGR
GSN 897 620 M 0  36 rL SGR
GSN 897 1700 M 0 -36 rL SGR
GSN 954 620 M 0  36 rL SGR
GSN 954 1700 M 0 -36 rL SGR
GSN 1000 620 M 0  36 rL SGR
GSN 1000 1700 M 0 -36 rL SGR
GSN 1039 620 M 0  36 rL SGR
GSN 1039 1700 M 0 -36 rL SGR
GSN 1073 620 M 0  36 rL SGR
GSN 1073 1700 M 0 -36 rL SGR
GSN 1103 620 M 0  36 rL SGR
GSN 1103 1700 M 0 -36 rL SGR
GSN 1307 620 M 0  36 rL SGR
GSN 1307 1700 M 0 -36 rL SGR
GSN 1410 620 M 0  36 rL SGR
GSN 1410 1700 M 0 -36 rL SGR
GSN 1483 620 M 0  36 rL SGR
GSN 1483 1700 M 0 -36 rL SGR
GSN 1540 620 M 0  36 rL SGR
GSN 1540 1700 M 0 -36 rL SGR
GSN 1586 620 M 0  36 rL SGR
GSN 1586 1700 M 0 -36 rL SGR
GSN 1626 620 M 0  36 rL SGR
GSN 1626 1700 M 0 -36 rL SGR
GSN 1660 620 M 0  36 rL SGR
GSN 1660 1700 M 0 -36 rL SGR
GSN 1690 620 M 0  36 rL SGR
GSN 1690 1700 M 0 -36 rL SGR
GSN 1893 620 M 0  36 rL SGR
GSN 1893 1700 M 0 -36 rL SGR
GSN 1996 620 M 0  36 rL SGR
GSN 1996 1700 M 0 -36 rL SGR
GSN 2069 620 M 0  36 rL SGR
GSN 2069 1700 M 0 -36 rL SGR
GSN 2126 620 M 0  36 rL SGR
GSN 2126 1700 M 0 -36 rL SGR
GSN 2173 620 M 0  36 rL SGR
GSN 2173 1700 M 0 -36 rL SGR
GSN 2212 620 M 0  36 rL SGR
GSN 2212 1700 M 0 -36 rL SGR
GSN 2246 620 M 0  36 rL SGR
GSN 2246 1700 M 0 -36 rL SGR
GSN 2276 620 M 0  36 rL SGR
GSN 2276 1700 M 0 -36 rL SGR
GSN 2479 620 M 0  36 rL SGR
GSN 2479 1700 M 0 -36 rL SGR
GSN 2583 620 M 0  36 rL SGR
GSN 2583 1700 M 0 -36 rL SGR
GSN 2656 620 M 0  36 rL SGR
GSN 2656 1700 M 0 -36 rL SGR
GSN 2713 620 M 0  36 rL SGR
GSN 2713 1700 M 0 -36 rL SGR
GSN 2759 620 M 0  36 rL SGR
GSN 2759 1700 M 0 -36 rL SGR
GSN 2798 620 M 0  36 rL SGR
GSN 2798 1700 M 0 -36 rL SGR
GSN 2832 620 M 0  36 rL SGR
GSN 2832 1700 M 0 -36 rL SGR
GSN 2862 620 M 0  36 rL SGR
GSN 2862 1700 M 0 -36 rL SGR
GSN 3066 620 M 0  36 rL SGR
GSN 3066 1700 M 0 -36 rL SGR
GSN 3169 620 M 0  36 rL SGR
GSN 3169 1700 M 0 -36 rL SGR
GSN 3242 620 M 0  36 rL SGR
GSN 3242 1700 M 0 -36 rL SGR
GSN 3299 620 M 0  36 rL SGR
GSN 3299 1700 M 0 -36 rL SGR
GSN 3345 620 M 0  36 rL SGR
GSN 3345 1700 M 0 -36 rL SGR
GSN 3385 620 M 0  36 rL SGR
GSN 3385 1700 M 0 -36 rL SGR
GSN 3419 620 M 0  36 rL SGR
GSN 3419 1700 M 0 -36 rL SGR
GSN 3449 620 M 0  36 rL SGR
GSN 3449 1700 M 0 -36 rL SGR
GSN 3652 620 M 0  36 rL SGR
GSN 3652 1700 M 0 -36 rL SGR
GSN 3755 620 M 0  36 rL SGR
GSN 3755 1700 M 0 -36 rL SGR
GSN 3829 620 M 0  36 rL SGR
GSN 3829 1700 M 0 -36 rL SGR
GSN 3885 620 M 0  36 rL SGR
GSN 3885 1700 M 0 -36 rL SGR
GSN 3932 620 M 0  36 rL SGR
GSN 3932 1700 M 0 -36 rL SGR
GSN 3971 620 M 0  36 rL SGR
GSN 3971 1700 M 0 -36 rL SGR
GSN 4005 620 M 0  36 rL SGR
GSN 4005 1700 M 0 -36 rL SGR
GSN 4035 620 M 0  36 rL SGR
GSN 4035 1700 M 0 -36 rL SGR
%
% Y axis: large tics - residual frame
%
L10
GSN 620 652 M 54 0 rL SGR
GSN 4220 652 M -54 0 rL SGR
helvS (-0.075) 560 652 ylabelresid
GSN 620 887 M 54 0 rL SGR
GSN 4220 887 M -54 0 rL SGR
helvS (-0.05) 560 887 ylabelresid
GSN 620 1122 M 54 0 rL SGR
GSN 4220 1122 M -54 0 rL SGR
helvS (-0.025) 560 1122 ylabelresid
GSN 620 1356 M 54 0 rL SGR
GSN 4220 1356 M -54 0 rL SGR
helvS (0) 560 1356 ylabelresid
GSN 620 1591 M 54 0 rL SGR
GSN 4220 1591 M -54 0 rL SGR
helvS (0.025) 560 1591 ylabelresid

%
% X axis - residual panel
%
GSN L5 620 1356 M 4220 1356 L SDA G50 SGR

end
showpage
%%Trailer
%%EOF
