%!PS-Adobe-3.0 EPSF-3.0
%%BoundingBox: 0 0 514 550
%%Creator: BioKin Ltd.
%%DocumentFonts: Symbol Helvetica
%%EndComments
%
/bkdict 256 dict def
bkdict begin
/M {moveto} def 
/R {rmoveto} def
/L {lineto} def
/rL {rlineto} def
/GSN {gsave newpath} def
/SGR {stroke grestore} def
/COSGR {gsave setrgbcolor stroke grestore grestore} def
/SL {setlinewidth} def
/LWMB {12} def             % line width - model curves, black & white
/LWMC {10} def             % line width - model curves, color
/L2 {2.5 setlinewidth} def
/L5 {5 setlinewidth} def
/L10 {10 setlinewidth} def
/G50 {0.5 setgray} def
/SDA {[10  20] 0 setdash} def % axes
/helvT {/Helvetica findfont 100 scalefont setfont} def % tiny
/helvS {/Helvetica findfont 125 scalefont setfont} def % small
/helvM {/Helvetica findfont 150 scalefont setfont} def % medium
/helvL {/Helvetica findfont 175 scalefont setfont} def % large
/xlabel {gsave M dup
   stringwidth exch -0.5 mul exch rmoveto show grestore} def 
/ylabel {gsave M 90 rotate dup
   stringwidth exch -0.5 mul exch rmoveto show grestore} def
/ylabelresid {gsave M dup
   stringwidth exch -1 mul exch rmoveto show grestore} def
% ======
% Shapes
% ======
% Circle:
/Circ {0 360 arc closepath} def
%
% Square:
/Squa {dup dup -0.5 mul dup dup R -2 mul 0 exch rL 1 mul 0 rL dup 0 exch -1 mul rL closepath} def
%
% Triangle Up:
/TriU {dup dup dup -0.4 mul exch -0.5 mul exch R dup 0.5 mul exch rL dup -1 mul exch 0.5 mul exch rL closepath} def 
%
% Triangle Down:
/TriD {dup dup dup 0.4 mul exch -0.5 mul exch R dup 0.5 mul exch -1 mul rL dup 0.5 mul exch rL closepath} def 
%
% Diamond:
/Diam {45 rotate Squa} def
% ======
% Fills
% ======
/GRF {gsave setgray fill grestore} def                    % gray-level Fill
/COF {gsave setrgbcolor fill grestore} def                % color fill
% ======
% Colors
% ======
/C01 {1.00	0.00	0.00} def      % Red
/C02 {0.00	0.00	1.00} def      % Blue
/C03 {0.00	0.39	0.00} def      % Dark Green
/C04 {0.78	0.08	0.52} def      % Medium Violet Red
/C05 {0.55	0.27	0.07} def      % Saddle Brown
/C06 {0.10	0.70	0.70} def      % (cyan)
/C07 {1.00	0.55	0.00} def      % Dark Orange
/C08 {0.63	0.13	0.94} def      % Purple
/C09 {0.00	0.75	1.00} def      % Deep Sky Blue
/C10 {0.20	0.80	0.20} def      % Lime Green
/C11 {0.47	0.53	0.60} def      % Light Slate Gray
/C12 {0.00	0.00	0.00} def      % Black            % or: {0.19	0.31	0.31} def      % Dark Slate Gray
%
/LGR {0.75} def % light gray
/DGR {0.33} def % dark gray
%
% =============
% Dash patterns
% =============
/dash01 { [80  20] 0 setdash } def
/dash02 { [40  20] 0 setdash } def
/dash03 { [80  20  10  20] 0 setdash } def
/dash04 { [40  20  10  20] 0 setdash } def
/dash05 { [80  20  10  10  10  20] 0 setdash } def
/dash06 { [40  20  10  10  10  20] 0 setdash } def
/dash07 { [10  10] 0 setdash } def
%
/MFshow {
   { dup 5 get 3 ge
     { 5 get 3 eq {gsave} {grestore} ifelse }
     {dup dup 0 get findfont exch 1 get scalefont setfont
     [ currentpoint ] exch dup 2 get 0 exch R dup 5 get 2 ne {dup dup 6
     get exch 4 get {show} {stringwidth pop 0 R} ifelse }if dup 5 get 0 eq
     {dup 3 get {2 get neg 0 exch R pop} {pop aload pop M} ifelse} {dup 5
     get 1 eq {dup 2 get exch dup 3 get exch 6 get stringwidth pop -2 div
     dup 0 R} {dup 6 get stringwidth pop -2 div 0 R 6 get
     show 2 index {aload pop M neg 3 -1 roll neg R pop pop} {pop pop pop
     pop aload pop M} ifelse }ifelse }ifelse }
     ifelse }
   forall} bind def
/MFwidth {0 exch {dup 3 get{dup dup 0 get findfont exch 1 get scalefont
     setfont 6 get stringwidth pop add} {pop} ifelse} forall} bind def
/MCshow { currentpoint stroke M
  exch dup MFwidth -2 div 3 -1 roll R MFshow } def
%
end
%%EndProlog
bkdict begin
0.1 0.1 scale
%
% Residuals:
%
GSN 620 3487 M
620 4789 L
620 4576 L
620 4863 L
620 4558 L
620 4862 L
620 4472 L
620 4484 L
620 4494 L
620 4250 L
620 4244 L
620 4262 L
620 3938 L
620 3965 L
620 3998 L
620 3992 L
620 4193 L
620 3947 L
620 4023 L
620 3916 L
620 3921 L
620 3888 L
620 3919 L
620 3646 L
620 3838 L
620 3921 L
620 3520 L
620 3766 L
620 3469 L
620 3678 L
620 3530 L
620 3459 L
620 3535 L
620 3608 L
620 3546 L
620 3442 L
620 3582 L
620 3790 L
620 3324 L
620 3499 L
620 3504 L
620 3475 L
620 3448 L
620 3128 L
620 3558 L
620 3545 L
620 3226 L
620 3353 L
620 3084 L
620 3212 L
620 3268 L
620 3426 L
620 3475 L
620 3210 L
620 3129 L
620 3409 L
620 3003 L
620 3154 L
620 3161 L
620 2918 L
620 2918 L
620 3100 L
620 3184 L
620 3103 L
620 2978 L
620 2942 L
620 2783 L
620 3006 L
620 2970 L
620 2903 L
620 3037 L
620 3177 L
620 2940 L
620 2905 L
620 2943 L
620 3060 L
620 2862 L
620 2767 L
620 3177 L
620 2772 L
620 3106 L
620 2462 L
620 2963 L
620 2597 L
620 2573 L
620 2705 L
620 2528 L
620 2497 L
620 2665 L
620 2643 L
620 2558 L
620 2527 L
620 2379 L
620 2458 L
620 2506 L
620 2800 L
620 2451 L
620 2534 L
620 2585 L
620 2561 L
620 2136 L
620 2313 L
620 2506 L
620 2481 L
620 2485 L
620 2308 L
620 2466 L
620 2657 L
620 2445 L
620 2465 L
620 2376 L
620 2269 L
620 2609 L
620 2454 L
620 2406 L
620 2463 L
620 2562 L
620 2275 L
620 2410 L
620 2578 L
620 2429 L
620 2472 L
620 2419 L
620 2477 L
620 2465 L
620 2495 L
620 2535 L
620 2543 L
620 2616 L
620 2354 L
620 2557 L
620 2720 L
620 2543 L
620 2592 L
620 2567 L
620 2665 L
620 2585 L
620 2549 L
620 2531 L
620 2593 L
620 2660 L
620 2657 L
620 2638 L
620 2704 L
620 2701 L
620 2828 L
620 2886 L
620 2347 L
620 2463 L
620 2627 L
620 2895 L
620 2824 L
620 2641 L
620 2766 L
620 2776 L
620 2761 L
620 2727 L
620 2871 L
620 2705 L
620 2787 L
620 2621 L
620 2784 L
620 2943 L
620 2693 L
620 2905 L
620 2824 L
620 2813 L
620 2798 L
620 3054 L
620 2827 L
620 3042 L
620 2947 L
620 2978 L
620 3068 L
620 2856 L
620 2857 L
620 3053 L
620 3003 L
620 2872 L
620 2917 L
620 2933 L
620 3037 L
620 3192 L
620 2990 L
620 3109 L
620 2963 L
620 3139 L
620 3141 L
620 2915 L
620 3019 L
620 3056 L
620 3179 L
620 2887 L
620 3015 L
620 3128 L
620 3116 L
620 2949 L
620 3016 L
620 2988 L
620 3157 L
620 3070 L
620 3176 L
620 2886 L
620 3370 L
620 3092 L
620 3115 L
620 3179 L
620 3077 L
620 3167 L
620 3254 L
620 3141 L
620 3114 L
620 3240 L
620 2973 L
620 3127 L
620 3233 L
620 3358 L
620 3298 L
620 3262 L
620 3260 L
620 3266 L
620 3238 L
620 3430 L
620 3389 L
620 3404 L
620 3075 L
620 3260 L
620 3547 L
620 3374 L
620 3400 L
620 3277 L
620 3401 L
620 3355 L
620 3202 L
620 3397 L
620 3291 L
620 3588 L
620 3572 L
620 3242 L
620 3514 L
620 3337 L
620 3421 L
620 3341 L
620 3562 L
620 3337 L
620 3242 L
620 3168 L
620 3540 L
620 3280 L
620 3285 L
620 3259 L
620 3281 L
620 3386 L
620 3495 L
620 3544 L
620 3360 L
620 3368 L
620 3379 L
620 3519 L
620 3256 L
620 3297 L
620 3729 L
620 3546 L
620 3541 L
620 3614 L
620 3523 L
620 3512 L
620 3441 L
620 3298 L
620 3506 L
620 3654 L
620 3422 L
620 3144 L
620 3541 L
620 3465 L
620 3493 L
620 3637 L
620 3395 L
620 3554 L
620 3564 L
620 3706 L
620 3722 L
620 3742 L
620 3767 L
620 3944 L
620 3596 L
620 3849 L
620 4089 L
620 3895 L
620 3981 L
620 3741 L
620 3959 L
620 3972 L
620 3952 L
620 3995 L
620 3983 L
620 3687 L
620 4028 L
620 3955 L
620 3897 L
620 3929 L
620 4050 L
620 3918 L
620 3858 L
620 4124 L
620 3714 L
620 4140 L
620 3951 L
620 3952 L
620 3885 L
620 3907 L
620 4002 L
620 3870 L
620 3842 L
620 3858 L
620 3981 L
620 3935 L
620 3812 L
620 3904 L
620 3896 L
620 3750 L
620 3804 L
620 3899 L
620 3998 L
620 3905 L
620 3906 L
620 3788 L
620 3816 L
620 3767 L
620 3886 L
620 4024 L
620 3827 L
620 4104 L
620 4078 L
620 3822 L
620 3990 L
620 3928 L
620 3795 L
620 3886 L
620 4314 L
620 3886 L
620 4004 L
620 3767 L
620 3711 L
620 3827 L
620 3768 L
620 3878 L
620 4004 L
620 3791 L
620 3898 L
620 3746 L
620 3703 L
620 3715 L
620 3524 L
620 4016 L
620 3631 L
620 3815 L
620 3745 L
620 3922 L
620 3784 L
620 3761 L
620 3860 L
620 3921 L
620 3825 L
620 3563 L
620 3842 L
620 3834 L
620 3666 L
620 3580 L
620 3726 L
620 3587 L
620 3967 L
620 3740 L
620 3753 L
620 3627 L
620 3769 L
620 3566 L
620 3793 L
620 3803 L
620 3516 L
620 3342 L
620 3716 L
620 3849 L
620 3580 L
620 3493 L
620 3629 L
620 3559 L
620 3683 L
620 3424 L
620 3680 L
620 3711 L
620 3728 L
620 3567 L
620 3622 L
620 3799 L
620 3449 L
620 3382 L
620 3752 L
620 3427 L
620 3627 L
620 3276 L
620 3514 L
620 3369 L
620 3611 L
620 3890 L
620 3543 L
620 3443 L
620 3597 L
620 3187 L
620 3477 L
620 3578 L
620 3655 L
620 3398 L
620 3678 L
620 3408 L
620 3582 L
620 3564 L
620 3590 L
620 3687 L
620 3318 L
620 3618 L
620 3351 L
620 3451 L
620 3491 L
620 3624 L
620 3504 L
620 3422 L
620 3597 L
620 3358 L
620 3453 L
620 3504 L
620 3582 L
620 3508 L
620 3704 L
620 3518 L
620 3769 L
620 3422 L
620 3652 L
620 3565 L
620 3536 L
620 3528 L
620 3539 L
620 3516 L
620 3418 L
620 3439 L
620 3851 L
620 3513 L
620 3372 L
620 3570 L
620 3504 L
620 3776 L
620 3429 L
620 3726 L
620 3739 L
620 3436 L
620 3662 L
620 3489 L
620 3612 L
620 3632 L
620 3682 L
620 3260 L
620 3713 L
620 3336 L
620 3476 L
620 3449 L
620 3610 L
620 3626 L
620 3168 L
620 3375 L
620 3384 L
620 3546 L
620 3703 L
620 3389 L
620 3439 L
620 3079 L
620 3555 L
620 3379 L
620 3581 L
620 3091 L
620 3455 L
620 3692 L
620 3253 L
620 3290 L
620 3350 L
620 3310 L
620 3452 L
620 3483 L
620 3535 L
620 3497 L
620 3428 L
620 3431 L
620 3270 L
620 3532 L
620 3521 L
620 3049 L
620 3469 L
620 3352 L
620 3501 L
620 3398 L
620 3454 L
620 3596 L
620 3474 L
620 3313 L
620 3232 L
620 3453 L
620 3494 L
620 3258 L
620 3229 L
620 3476 L
620 3544 L
620 3272 L
620 3521 L
620 3429 L
620 3234 L
620 3452 L
620 3461 L
620 3869 L
620 3393 L
620 3379 L
620 3554 L
620 3337 L
620 3470 L
620 3608 L
620 3491 L
620 3489 L
620 3313 L
620 3464 L
620 3522 L
620 3462 L
620 3344 L
620 3318 L
620 3414 L
620 3366 L
L2 C04 COSGR

%
%================
% Legend - Begin
%================
%
GSN 4240 5180 M
4480 5180 L
LWMC SL  C04 COSGR
GSN 4540 5141 M helvM (2.0 uM) show grestore
%
%================
% Legend - End
%================
%

%
% Main frame
%
L10
GSN 
620 1700 M
4220 1700 L
4220 5300 L
620 5300 L
closepath SGR

%
% X axis: large tics
%
L10
%
% X axis: small tics
%
L5
%
% Y axis: large tics
%
L10
GSN 620 2350 M 54 0 rL SGR
GSN 4220 2350 M -54 0 rL SGR
helvS (-0.02) 560 2350 ylabel
GSN 620 3369 M 54 0 rL SGR
GSN 4220 3369 M -54 0 rL SGR
helvS (0) 560 3369 ylabel
GSN 620 4387 M 54 0 rL SGR
GSN 4220 4387 M -54 0 rL SGR
helvS (0.02) 560 4387 ylabel
%
% Y axis: small tics
%
L5
GSN 620 1841 M 36 0 rL SGR
GSN 4220 1841 M -36 0 rL SGR
GSN 620 2096 M 36 0 rL SGR
GSN 4220 2096 M -36 0 rL SGR
GSN 620 2350 M 36 0 rL SGR
GSN 4220 2350 M -36 0 rL SGR
GSN 620 2605 M 36 0 rL SGR
GSN 4220 2605 M -36 0 rL SGR
GSN 620 2860 M 36 0 rL SGR
GSN 4220 2860 M -36 0 rL SGR
GSN 620 3114 M 36 0 rL SGR
GSN 4220 3114 M -36 0 rL SGR
GSN 620 3369 M 36 0 rL SGR
GSN 4220 3369 M -36 0 rL SGR
GSN 620 3623 M 36 0 rL SGR
GSN 4220 3623 M -36 0 rL SGR
GSN 620 3878 M 36 0 rL SGR
GSN 4220 3878 M -36 0 rL SGR
GSN 620 4132 M 36 0 rL SGR
GSN 4220 4132 M -36 0 rL SGR
GSN 620 4387 M 36 0 rL SGR
GSN 4220 4387 M -36 0 rL SGR
GSN 620 4641 M 36 0 rL SGR
GSN 4220 4641 M -36 0 rL SGR
GSN 620 4896 M 36 0 rL SGR
GSN 4220 4896 M -36 0 rL SGR
GSN 620 5150 M 36 0 rL SGR
GSN 4220 5150 M -36 0 rL SGR

%
% X axis - residual panel
%
GSN L5 620 3369 M 4220 3369 L SDA G50 SGR

%
% X-Axis label:
%
gsave 620 1370 M 
[
[(Helvetica) 180 0 true true 0 (t)]
[(Helvetica) 180 0 true true 0 (i)]
[(Helvetica) 180 0 true true 0 (m)]
[(Helvetica) 180 0 true true 0 (e)]
] 0 MCshow grestore

%
% Y-Axis label:
%
gsave 234 3499 M 
currentpoint gsave translate 90 rotate 0 0 moveto
[
[(Helvetica) 180 0 true true 0 (r)]
[(Helvetica) 180 0 true true 0 (e)]
[(Helvetica) 180 0 true true 0 (s)]
[(Helvetica) 180 0 true true 0 (i)]
[(Helvetica) 180 0 true true 0 (d)]
[(Helvetica) 180 0 true true 0 (u)]
[(Helvetica) 180 0 true true 0 (a)]
[(Helvetica) 180 0 true true 0 (l)]
[(Helvetica) 180 0 true true 0 (s)]
] 0 MCshow grestore

end
showpage
%%Trailer
%%EOF
