%!PS-Adobe-3.0 EPSF-3.0
%%BoundingBox: 0 0 514 550
%%Creator: BioKin Ltd.
%%DocumentFonts: Symbol Helvetica
%%EndComments
%
/bkdict 256 dict def
bkdict begin
/M {moveto} def 
/R {rmoveto} def
/L {lineto} def
/rL {rlineto} def
/GSN {gsave newpath} def
/SGR {stroke grestore} def
/COSGR {gsave setrgbcolor stroke grestore grestore} def
/SL {setlinewidth} def
/LWMB {12} def             % line width - model curves, black & white
/LWMC {10} def             % line width - model curves, color
/L2 {2.5 setlinewidth} def
/L5 {5 setlinewidth} def
/L10 {10 setlinewidth} def
/G50 {0.5 setgray} def
/SDA {[10  20] 0 setdash} def % axes
/helvT {/Helvetica findfont 100 scalefont setfont} def % tiny
/helvS {/Helvetica findfont 125 scalefont setfont} def % small
/helvM {/Helvetica findfont 150 scalefont setfont} def % medium
/helvL {/Helvetica findfont 175 scalefont setfont} def % large
/xlabel {gsave M dup
   stringwidth exch -0.5 mul exch rmoveto show grestore} def 
/ylabel {gsave M 90 rotate dup
   stringwidth exch -0.5 mul exch rmoveto show grestore} def
/ylabelresid {gsave M dup
   stringwidth exch -1 mul exch rmoveto show grestore} def
% ======
% Shapes
% ======
% Circle:
/Circ {0 360 arc closepath} def
%
% Square:
/Squa {dup dup -0.5 mul dup dup R -2 mul 0 exch rL 1 mul 0 rL dup 0 exch -1 mul rL closepath} def
%
% Triangle Up:
/TriU {dup dup dup -0.4 mul exch -0.5 mul exch R dup 0.5 mul exch rL dup -1 mul exch 0.5 mul exch rL closepath} def 
%
% Triangle Down:
/TriD {dup dup dup 0.4 mul exch -0.5 mul exch R dup 0.5 mul exch -1 mul rL dup 0.5 mul exch rL closepath} def 
%
% Diamond:
/Diam {45 rotate Squa} def
% ======
% Fills
% ======
/GRF {gsave setgray fill grestore} def                    % gray-level Fill
/COF {gsave setrgbcolor fill grestore} def                % color fill
% ======
% Colors
% ======
/C01 {1.00	0.00	0.00} def      % Red
/C02 {0.00	0.00	1.00} def      % Blue
/C03 {0.00	0.39	0.00} def      % Dark Green
/C04 {0.78	0.08	0.52} def      % Medium Violet Red
/C05 {0.55	0.27	0.07} def      % Saddle Brown
/C06 {0.10	0.70	0.70} def      % (cyan)
/C07 {1.00	0.55	0.00} def      % Dark Orange
/C08 {0.63	0.13	0.94} def      % Purple
/C09 {0.00	0.75	1.00} def      % Deep Sky Blue
/C10 {0.20	0.80	0.20} def      % Lime Green
/C11 {0.47	0.53	0.60} def      % Light Slate Gray
/C12 {0.00	0.00	0.00} def      % Black            % or: {0.19	0.31	0.31} def      % Dark Slate Gray
%
/LGR {0.75} def % light gray
/DGR {0.33} def % dark gray
%
% =============
% Dash patterns
% =============
/dash01 { [80  20] 0 setdash } def
/dash02 { [40  20] 0 setdash } def
/dash03 { [80  20  10  20] 0 setdash } def
/dash04 { [40  20  10  20] 0 setdash } def
/dash05 { [80  20  10  10  10  20] 0 setdash } def
/dash06 { [40  20  10  10  10  20] 0 setdash } def
/dash07 { [10  10] 0 setdash } def
%
/MFshow {
   { dup 5 get 3 ge
     { 5 get 3 eq {gsave} {grestore} ifelse }
     {dup dup 0 get findfont exch 1 get scalefont setfont
     [ currentpoint ] exch dup 2 get 0 exch R dup 5 get 2 ne {dup dup 6
     get exch 4 get {show} {stringwidth pop 0 R} ifelse }if dup 5 get 0 eq
     {dup 3 get {2 get neg 0 exch R pop} {pop aload pop M} ifelse} {dup 5
     get 1 eq {dup 2 get exch dup 3 get exch 6 get stringwidth pop -2 div
     dup 0 R} {dup 6 get stringwidth pop -2 div 0 R 6 get
     show 2 index {aload pop M neg 3 -1 roll neg R pop pop} {pop pop pop
     pop aload pop M} ifelse }ifelse }ifelse }
     ifelse }
   forall} bind def
/MFwidth {0 exch {dup 3 get{dup dup 0 get findfont exch 1 get scalefont
     setfont 6 get stringwidth pop add} {pop} ifelse} forall} bind def
/MCshow { currentpoint stroke M
  exch dup MFwidth -2 div 3 -1 roll R MFshow } def
%
end
%%EndProlog
bkdict begin
0.1 0.1 scale
%
% Model curves:
%

GSN 753 5166 M
753 5166 L
786 5063 L
820 4962 L
853 4866 L
886 4776 L
920 4695 L
929 4673 L
953 4624 L
986 4564 L
1020 4515 L
1053 4477 L
1086 4448 L
1106 4436 L
1120 4428 L
1153 4415 L
1186 4406 L
1220 4400 L
1253 4396 L
1282 4393 L
1286 4393 L
1319 4390 L
1353 4388 L
1386 4385 L
1419 4382 L
1453 4378 L
1459 4378 L
1486 4375 L
1519 4371 L
1553 4367 L
1586 4362 L
1619 4357 L
1635 4355 L
1653 4352 L
1686 4346 L
1719 4340 L
1753 4333 L
1786 4326 L
1812 4319 L
1819 4317 L
1853 4307 L
1886 4296 L
1919 4284 L
1953 4270 L
1986 4254 L
1988 4252 L
2019 4236 L
2053 4215 L
2086 4192 L
2119 4166 L
2153 4137 L
2165 4126 L
2186 4105 L
2219 4068 L
2253 4028 L
2286 3982 L
2319 3932 L
2341 3896 L
2353 3876 L
2386 3815 L
2419 3748 L
2453 3676 L
2486 3597 L
2518 3517 L
2519 3512 L
2553 3422 L
2586 3328 L
2619 3229 L
2653 3126 L
2686 3023 L
2694 2997 L
2719 2919 L
2753 2817 L
2786 2719 L
2819 2626 L
2853 2542 L
2871 2499 L
2886 2466 L
2919 2401 L
2953 2347 L
2986 2305 L
3019 2273 L
3047 2254 L
3053 2251 L
3086 2237 L
3119 2229 L
3153 2227 L
3186 2227 L
3219 2230 L
3224 2231 L
3253 2235 L
3286 2242 L
3319 2249 L
3353 2258 L
3386 2269 L
3400 2275 L
3419 2282 L
3453 2298 L
3476 2310 L
3486 2316 L
3519 2338 L
3553 2365 L
3577 2388 L
3586 2397 L
3619 2435 L
3653 2479 L
3686 2527 L
3719 2576 L
3753 2621 L
3754 2622 L
3786 2658 L
3819 2683 L
3853 2698 L
3886 2705 L
3919 2708 L
3930 2709 L
3953 2709 L
3986 2710 L
4019 2710 L
4053 2710 L
4086 2710 L
4086 2710 L
LWMC SL  C07 COSGR

%
% Experimental data:
%
GSN 777 4770 M
1388 4944 L
1552 4618 L
1652 4604 L
1723 4568 L
1778 4374 L
1824 3937 L
1863 4372 L
1896 4150 L
1926 4071 L
1952 4223 L
1976 4109 L
1998 4314 L
2019 4253 L
2037 4405 L
2055 4182 L
2071 4141 L
2086 4114 L
2101 4213 L
2115 4151 L
2128 4178 L
2140 4063 L
2152 4099 L
2163 4090 L
2174 4008 L
2184 3873 L
2194 4153 L
2204 4076 L
2213 4128 L
2222 4179 L
2230 4185 L
2239 4008 L
2247 4142 L
2255 4114 L
2262 4121 L
2270 3987 L
2277 4008 L
2284 4004 L
2290 4084 L
2297 3987 L
2303 3976 L
2310 3922 L
2316 3763 L
2322 4003 L
2328 3976 L
2333 3879 L
2339 3754 L
2344 3889 L
2350 3790 L
2355 3777 L
2360 3641 L
2365 3781 L
2370 3808 L
2375 3750 L
2380 3650 L
2384 3840 L
2389 3792 L
2393 3844 L
2398 3840 L
2402 3590 L
2407 3647 L
2411 3931 L
2415 3749 L
2419 3656 L
2423 3710 L
2427 3572 L
2431 3627 L
2435 3787 L
2438 3563 L
2442 3661 L
2446 3644 L
2449 3751 L
2453 3781 L
2456 3693 L
2460 3807 L
2463 3513 L
2467 3661 L
2470 3641 L
2473 3731 L
2476 3519 L
2480 3460 L
2483 3527 L
2486 3530 L
2489 3798 L
2492 3582 L
2495 3564 L
2498 3422 L
2501 3558 L
2504 3616 L
2507 3507 L
2510 3325 L
2512 3398 L
2515 3548 L
2518 3529 L
2521 3527 L
2523 3474 L
2526 3549 L
2529 3493 L
2531 3606 L
2534 3379 L
2536 3512 L
2539 3613 L
2541 3485 L
2544 3571 L
2546 3487 L
2549 3394 L
2551 3416 L
2554 3394 L
2556 3407 L
2558 3320 L
2561 3510 L
2563 3354 L
2565 3437 L
2568 3423 L
2570 3342 L
2572 3295 L
2574 3292 L
2576 3250 L
2579 3487 L
2581 3324 L
2583 3419 L
2585 3365 L
2587 3275 L
2589 3316 L
2591 3309 L
2593 3462 L
2595 3058 L
2597 3296 L
2599 3250 L
2601 3257 L
2603 3204 L
2605 3376 L
2607 3278 L
2609 3488 L
2611 3368 L
2613 3296 L
2615 3236 L
2617 3239 L
2618 3375 L
2620 3240 L
2622 3266 L
2624 3240 L
2626 3195 L
2627 3240 L
2629 3247 L
2631 3357 L
2633 3284 L
2634 3268 L
2636 3349 L
2638 3131 L
2640 3137 L
2641 3264 L
2643 3195 L
2645 3164 L
2646 3162 L
2648 3004 L
2650 3070 L
2651 3108 L
2653 3150 L
2654 3204 L
2656 3345 L
2658 3269 L
2659 3179 L
2661 3106 L
2662 3135 L
2664 3062 L
2665 3097 L
2667 3142 L
2668 3134 L
2670 3040 L
2671 3213 L
2673 2993 L
2674 3046 L
2676 2998 L
2677 3041 L
2679 3119 L
2680 3054 L
2682 3037 L
2683 3137 L
2685 2962 L
2686 3063 L
2687 3027 L
2689 2980 L
2690 3044 L
2692 2969 L
2693 3074 L
2694 3088 L
2696 2955 L
2697 2996 L
2698 3151 L
2700 3033 L
2701 2942 L
2702 2966 L
2704 2901 L
2705 2835 L
2706 2988 L
2708 2936 L
2709 2813 L
2710 2917 L
2712 2976 L
2713 2838 L
2714 2692 L
2715 2932 L
2717 3034 L
2718 2992 L
2719 3035 L
2720 3047 L
2722 2873 L
2723 2807 L
2724 2868 L
2725 2936 L
2726 2933 L
2728 2859 L
2729 2912 L
2730 2935 L
2731 2926 L
2732 2854 L
2734 2855 L
2735 2926 L
2736 2769 L
2737 2924 L
2738 2863 L
2739 2870 L
2741 2965 L
2742 2650 L
2743 2816 L
2744 2915 L
2745 2721 L
2746 2723 L
2747 2794 L
2748 2924 L
2749 2883 L
2751 2799 L
2752 2857 L
2753 2752 L
2754 2732 L
2755 2767 L
2756 2915 L
2757 2771 L
2758 2767 L
2759 2737 L
2760 2726 L
2761 2817 L
2762 2818 L
2763 3016 L
2764 2800 L
2765 2830 L
2767 2911 L
2768 2778 L
2769 2728 L
2770 2799 L
2771 2701 L
2772 2699 L
2773 2741 L
2774 2824 L
2775 2656 L
2776 2454 L
2777 2789 L
2778 2671 L
2779 2741 L
2780 2597 L
2781 2752 L
2782 2872 L
2783 2851 L
2783 2754 L
2784 2563 L
2785 2577 L
2786 2799 L
2787 2850 L
2788 2816 L
2789 2791 L
2790 2585 L
2791 2665 L
2792 2695 L
2793 2657 L
2794 2667 L
2795 2696 L
2796 2826 L
2797 2781 L
2798 2812 L
2798 2766 L
2799 2790 L
2800 2635 L
2801 2578 L
2802 2546 L
2803 2641 L
2804 2689 L
2805 2636 L
2806 2735 L
2807 2473 L
2807 2722 L
2808 2600 L
2809 2716 L
2810 2666 L
2811 2737 L
2812 2737 L
2813 2577 L
2813 2697 L
2814 2549 L
2815 2623 L
2816 2599 L
2817 2523 L
2818 2541 L
2819 2632 L
2819 2577 L
2820 2725 L
2821 2667 L
2822 2669 L
2823 2527 L
2824 2619 L
2824 2715 L
2825 2552 L
2826 2540 L
2827 2812 L
2828 2525 L
2828 2786 L
2829 2501 L
2830 2537 L
2831 2581 L
2832 2572 L
2832 2605 L
2833 2506 L
2834 2557 L
2835 2448 L
2836 2618 L
2836 2509 L
2837 2556 L
2838 2653 L
2839 2670 L
2840 2558 L
2840 2509 L
2841 2523 L
2842 2567 L
2843 2585 L
2843 2427 L
2844 2544 L
2845 2627 L
2846 2558 L
2846 2642 L
2847 2293 L
2848 2334 L
2849 2384 L
2849 2599 L
2850 2775 L
2851 2462 L
2852 2573 L
2852 2467 L
2853 2422 L
2854 2568 L
2855 2475 L
2855 2528 L
2856 2448 L
2857 2584 L
2857 2336 L
2858 2494 L
2859 2454 L
2860 2358 L
2860 2512 L
2861 2554 L
2862 2500 L
2862 2719 L
2863 2477 L
2864 2368 L
2865 2588 L
2865 2474 L
2866 2367 L
2867 2441 L
2867 2561 L
2868 2387 L
2869 2410 L
2869 2487 L
2870 2476 L
2871 2465 L
2871 2573 L
2872 2351 L
2873 2619 L
2873 2343 L
2874 2550 L
2875 2528 L
2876 2442 L
2876 2326 L
2877 2350 L
2878 2354 L
2878 2347 L
2879 2416 L
2880 2307 L
2880 2594 L
2881 2427 L
2881 2500 L
2882 2529 L
2883 2501 L
2883 2527 L
2884 2494 L
2885 2425 L
2885 2437 L
2886 2428 L
2887 2398 L
2887 2326 L
2888 2272 L
2889 2396 L
2889 2421 L
2892 2469 L
2894 2445 L
2897 2525 L
2899 2372 L
2902 2369 L
2904 2261 L
2907 2205 L
2909 2462 L
2911 2425 L
2914 2392 L
2916 2478 L
2918 2381 L
2921 2306 L
2923 2302 L
2925 2473 L
2927 2263 L
2929 2288 L
2932 2296 L
2934 2262 L
2936 2302 L
2938 2326 L
2940 2329 L
2942 2040 L
2944 2248 L
2946 2194 L
2948 2266 L
2950 2159 L
2952 2239 L
2954 2244 L
2956 2322 L
2958 2236 L
2960 2313 L
2962 2105 L
2964 2223 L
2966 2125 L
2968 2126 L
2970 2185 L
2971 2185 L
2973 2291 L
2975 2174 L
2977 2186 L
2979 2180 L
2980 2299 L
2982 2166 L
2984 2182 L
2986 2180 L
2987 2006 L
2989 2242 L
2991 2217 L
2993 2312 L
2994 1989 L
2996 2341 L
2998 2110 L
2999 1953 L
3001 2078 L
3003 2172 L
3004 2092 L
3006 2086 L
3007 2066 L
3009 2260 L
3011 2115 L
3012 2125 L
3014 2075 L
3015 2006 L
3017 2154 L
3018 2197 L
3020 2153 L
3021 2093 L
3023 2093 L
3024 2065 L
3026 2183 L
3027 1931 L
3029 2019 L
3030 1982 L
3032 2087 L
3033 2204 L
3035 2105 L
3036 2059 L
3038 2056 L
3039 2029 L
3040 2204 L
3042 2045 L
3043 1979 L
3045 2016 L
3046 2016 L
3047 2023 L
3049 2098 L
3050 2096 L
3051 2105 L
3053 2123 L
3054 1994 L
3055 2065 L
3057 2104 L
3058 1941 L
3059 2024 L
3061 1935 L
3062 2007 L
3063 1928 L
3065 2046 L
3066 2196 L
3067 2028 L
3068 1988 L
3070 2009 L
3071 2198 L
3072 2048 L
3073 2037 L
3075 1968 L
3076 2036 L
3077 1984 L
3078 2120 L
3079 2079 L
3081 1874 L
3082 2016 L
3083 2130 L
3084 1963 L
3085 2080 L
3087 1963 L
3088 1941 L
3089 2061 L
3090 2099 L
3091 2122 L
3092 1906 L
3094 2022 L
3095 1907 L
3096 1958 L
3097 1900 L
3098 2048 L
3099 2128 L
3100 1924 L
3101 2056 L
3103 2039 L
3104 1854 L
3105 1967 L
3106 2044 L
3107 2007 L
3108 1935 L
3109 2051 L
3110 1847 L
3111 2135 L
3112 2139 L
3113 2068 L
3114 2233 L
3115 1909 L
3116 2013 L
3117 2097 L
3119 2088 L
3120 1833 L
3121 1999 L
3122 1966 L
3123 2111 L
3124 2058 L
3125 1951 L
3126 2013 L
3127 2050 L
3128 2003 L
3129 1981 L
3130 2051 L
3131 1953 L
3132 1928 L
3133 1909 L
3134 1969 L
3135 2140 L
3136 1907 L
3136 1970 L
3137 1878 L
3138 1983 L
3139 1937 L
3140 1937 L
3141 1899 L
3142 2021 L
3143 2104 L
3144 1939 L
3145 1995 L
3146 1939 L
3147 1998 L
3148 2096 L
3149 2233 L
3150 1968 L
3151 1926 L
3151 2051 L
3152 2011 L
3153 1971 L
3154 1890 L
3155 1875 L
3156 2185 L
3157 2032 L
3158 2267 L
3159 2072 L
3160 2043 L
3160 2108 L
3161 2072 L
3162 2023 L
3163 1968 L
3164 1980 L
3165 2030 L
3166 1941 L
3166 1974 L
3167 2190 L
3168 1947 L
3169 2031 L
3170 1926 L
3171 1864 L
3172 2059 L
3172 1952 L
3173 1998 L
3174 1977 L
3175 2015 L
3176 2035 L
3177 2032 L
3177 2053 L
3178 2159 L
3179 1956 L
3180 1843 L
3181 2061 L
3181 1947 L
3182 2093 L
3183 2088 L
3184 2007 L
3185 2093 L
3185 2100 L
3186 1939 L
3187 1845 L
3188 1915 L
3189 2112 L
3189 2054 L
3190 1861 L
3191 2042 L
3192 2015 L
3193 1986 L
3193 1934 L
3194 1982 L
3195 1913 L
3196 1946 L
3196 2016 L
3197 1980 L
3198 2119 L
3199 2073 L
3199 2105 L
3200 2117 L
3201 2038 L
3202 2056 L
3202 2077 L
3203 2287 L
3204 2011 L
3205 2043 L
3205 2247 L
3206 2146 L
3207 1977 L
3208 2121 L
3208 2014 L
3209 1954 L
3210 2089 L
3210 2051 L
3211 2067 L
3212 2110 L
3213 1970 L
3213 2142 L
3214 2177 L
3215 2229 L
3215 2029 L
3216 2089 L
3217 1977 L
3218 2098 L
3218 2062 L
3219 2140 L
3220 2049 L
3220 2132 L
3221 2240 L
3222 2103 L
3222 1904 L
3223 2204 L
3224 2081 L
3224 2108 L
3225 2087 L
3226 2158 L
3227 2272 L
3227 1976 L
3228 2045 L
3229 2181 L
3229 1967 L
3230 2121 L
3231 2037 L
3231 2152 L
3232 1996 L
3233 2279 L
3233 2015 L
3234 2033 L
3235 2042 L
3235 2092 L
3236 2134 L
3236 2061 L
3237 2018 L
3238 2040 L
3238 2118 L
3239 2200 L
3240 2031 L
3240 2165 L
3241 2206 L
3242 2244 L
3242 2141 L
3243 2090 L
3244 2058 L
3244 2161 L
3245 2002 L
3245 1952 L
3246 2207 L
3247 2107 L
3247 2126 L
3248 2035 L
3249 2187 L
3249 2192 L
3250 2220 L
3250 2104 L
3251 2202 L
3252 2190 L
3252 2311 L
3253 1938 L
3253 2106 L
3254 2109 L
3255 2173 L
3255 1913 L
3256 2147 L
3257 2157 L
3257 1970 L
3258 2119 L
3258 2166 L
3259 2086 L
3259 1950 L
3260 2260 L
3261 2234 L
3261 2042 L
3262 2268 L
3262 1998 L
3263 2092 L
3264 2006 L
3264 2203 L
3265 2214 L
3265 2130 L
3266 2229 L
3267 2113 L
3267 2122 L
3268 2088 L
3268 2271 L
3269 2115 L
3269 2068 L
3270 2067 L
3271 2179 L
3271 2284 L
3272 2240 L
3272 2200 L
3273 2122 L
3273 2159 L
3274 2199 L
3275 2294 L
3275 2125 L
3276 2172 L
3276 2088 L
3277 2125 L
3277 2158 L
3278 2174 L
3278 2208 L
3279 2212 L
3280 2128 L
3280 2165 L
3281 2135 L
3281 2125 L
3282 2154 L
3282 2157 L
3283 2053 L
3283 2038 L
3284 2191 L
3284 2351 L
3285 2128 L
3285 2114 L
3286 2348 L
3287 2232 L
3287 2186 L
3288 2244 L
3288 2108 L
3289 2173 L
3289 2044 L
3290 2166 L
3290 2153 L
3291 2211 L
3291 2142 L
3292 2185 L
3292 2182 L
3293 2177 L
3293 2264 L
3294 2258 L
3294 2151 L
3295 2288 L
3295 2387 L
3296 2288 L
3297 1993 L
3297 2130 L
3298 2133 L
3298 2053 L
3299 2109 L
3299 2260 L
3300 2227 L
3300 2205 L
3301 2007 L
3301 2309 L
3302 2304 L
3302 2143 L
3303 2235 L
3303 2245 L
3304 2206 L
3304 2235 L
3305 2202 L
3305 2286 L
3306 2252 L
3306 2192 L
3307 2192 L
3307 2211 L
3308 2179 L
3308 2143 L
3309 2297 L
3309 2250 L
3310 2336 L
3310 2370 L
3311 2156 L
3311 2207 L
3312 2191 L
3312 2222 L
3312 2344 L
3313 2138 L
3313 2267 L
3314 2211 L
3314 2198 L
3315 2055 L
3315 2109 L
3316 2364 L
3316 2195 L
3317 2237 L
3317 2188 L
3318 2274 L
3318 2251 L
3319 2251 L
3319 2245 L
3320 2238 L
3320 2315 L
3321 2128 L
3321 2292 L
3321 2536 L
3322 2350 L
3322 2224 L
3323 2213 L
3323 2274 L
3324 2237 L
3324 2138 L
3325 2280 L
3325 2384 L
3326 2182 L
3326 2244 L
3327 2253 L
3327 2215 L
3327 2221 L
3328 2272 L
3328 2235 L
3329 2128 L
3329 2146 L
3330 2241 L
3330 2361 L
3331 2300 L
3331 2329 L
3332 2321 L
3332 2185 L
3332 2300 L
3333 2369 L
3333 2260 L
3334 2203 L
3334 1992 L
3335 2217 L
3335 2198 L
3336 2192 L
3336 2370 L
3336 2215 L
3337 2304 L
3337 2286 L
3338 2370 L
3338 2283 L
3339 2214 L
3339 2176 L
3339 2298 L
3340 2351 L
3340 2407 L
3341 2305 L
3341 2343 L
3342 2243 L
3342 2288 L
3343 2282 L
3343 2170 L
3343 2319 L
3344 2307 L
3344 2257 L
3345 2383 L
3345 2187 L
3346 2238 L
3346 2197 L
3346 2305 L
3347 2306 L
3347 2338 L
3348 2408 L
3348 2256 L
3348 2248 L
3349 2286 L
3349 2401 L
3350 2284 L
3350 2277 L
3351 2223 L
3351 2310 L
3351 2315 L
3352 2322 L
3352 2266 L
3353 2425 L
3353 2211 L
3353 2282 L
3354 2261 L
3354 2377 L
3355 2255 L
3355 2274 L
3355 2257 L
3356 2214 L
3356 2170 L
3357 2418 L
3357 2349 L
3358 2264 L
3358 2250 L
3358 2376 L
3359 2422 L
3359 2233 L
3360 2246 L
3360 2294 L
3360 2223 L
3361 2186 L
3361 2249 L
3362 2396 L
3362 2241 L
3362 2328 L
3363 2222 L
3363 2321 L
3364 2246 L
3364 2570 L
3364 2379 L
3365 2231 L
3365 2422 L
3365 2356 L
3366 2409 L
3366 2364 L
3367 2301 L
3367 2371 L
3367 2617 L
3368 2282 L
3368 2405 L
3369 2274 L
3369 2320 L
3369 2397 L
3370 2421 L
3370 2453 L
3371 2524 L
3371 2324 L
3371 2222 L
3372 2224 L
3372 2302 L
3372 2413 L
3373 2239 L
3373 2433 L
3374 2442 L
3374 2325 L
3374 2425 L
3375 2283 L
3375 2198 L
3375 2469 L
3376 2229 L
3376 2475 L
3377 2383 L
3377 2338 L
3377 2490 L
3378 2285 L
3378 2377 L
3378 2326 L
3379 2374 L
3379 2401 L
3380 2461 L
3380 2427 L
3380 2212 L
3381 2365 L
3381 2361 L
3381 2404 L
3382 2293 L
3382 2334 L
3383 2447 L
3383 2394 L
3383 2360 L
3384 2311 L
3384 2330 L
3384 2268 L
3385 2325 L
3385 2271 L
3385 2572 L
3386 2409 L
3386 2567 L
3387 2340 L
3387 2362 L
3387 2345 L
3388 2485 L
3388 2415 L
3388 2471 L
3389 2464 L
3389 2394 L
3389 2522 L
3390 2333 L
3390 2401 L
3391 2438 L
3391 2387 L
3391 2381 L
3392 2296 L
3392 2410 L
3392 2394 L
3393 2455 L
3393 2223 L
3393 2445 L
3394 2394 L
3394 2453 L
3394 2501 L
3395 2550 L
3395 2318 L
3395 2504 L
3396 2272 L
3396 2487 L
3396 2373 L
3397 2334 L
3397 2435 L
3398 2361 L
3398 2296 L
3398 2375 L
3399 2441 L
3399 2347 L
3399 2411 L
3400 2564 L
3400 2338 L
3400 2437 L
3401 2417 L
3401 2437 L
3401 2383 L
3402 2213 L
3402 2490 L
3402 2310 L
3403 2431 L
3403 2321 L
3403 2435 L
3404 2396 L
3404 2540 L
3404 2404 L
3405 2485 L
3405 2533 L
3405 2373 L
3406 2191 L
3406 2372 L
3406 2445 L
3407 2489 L
3407 2394 L
3407 2464 L
3408 2548 L
3408 2411 L
3408 2432 L
3409 2353 L
3409 2376 L
3409 2371 L
3410 2429 L
3410 2400 L
3410 2246 L
3411 2499 L
3411 2249 L
3411 2333 L
3412 2446 L
3412 2353 L
3412 2414 L
3413 2455 L
3413 2323 L
3413 2407 L
3414 2459 L
3414 2402 L
3414 2358 L
3415 2425 L
3415 2240 L
3415 2456 L
3416 2441 L
3416 2498 L
3416 2392 L
3417 2536 L
3417 2488 L
3417 2447 L
3417 2399 L
3418 2500 L
3418 2444 L
3418 2449 L
3419 2494 L
3419 2471 L
3419 2466 L
3420 2529 L
3420 2217 L
3420 2547 L
3421 2423 L
3421 2516 L
3421 2496 L
3422 2422 L
3422 2338 L
3422 2460 L
3423 2560 L
3423 2313 L
3423 2427 L
3423 2425 L
3424 2389 L
3424 2600 L
3424 2486 L
3425 2505 L
3425 2409 L
3425 2417 L
3426 2532 L
3426 2504 L
3426 2499 L
3427 2477 L
3427 2402 L
3427 2521 L
3428 2302 L
3428 2522 L
3428 2326 L
3428 2505 L
3429 2407 L
3429 2551 L
3429 2567 L
3430 2514 L
3430 2438 L
3430 2503 L
3431 2530 L
3431 2505 L
3431 2480 L
3431 2643 L
3432 2561 L
3432 2507 L
3432 2363 L
3433 2382 L
3433 2430 L
3433 2334 L
3434 2463 L
3434 2495 L
3434 2518 L
3434 2454 L
3435 2464 L
3435 2383 L
3435 2425 L
3436 2406 L
3436 2399 L
3436 2321 L
3437 2487 L
3437 2407 L
3437 2491 L
3437 2476 L
3438 2379 L
3438 2471 L
3438 2549 L
3439 2420 L
3439 2354 L
3439 2508 L
3440 2470 L
3440 2431 L
3440 2413 L
3440 2380 L
3441 2469 L
3441 2448 L
3441 2508 L
3442 2507 L
3442 2500 L
3442 2367 L
3442 2459 L
3443 2404 L
3443 2544 L
3443 2402 L
3444 2561 L
3444 2471 L
3444 2274 L
3444 2579 L
3445 2534 L
3445 2507 L
3445 2490 L
3446 2441 L
3446 2411 L
3446 2400 L
3446 2519 L
3447 2543 L
3447 2457 L
3447 2507 L
3448 2383 L
3448 2692 L
3448 2469 L
3448 2418 L
3449 2575 L
3449 2412 L
3449 2399 L
3450 2651 L
3450 2502 L
3450 2456 L
3450 2383 L
3451 2554 L
3451 2600 L
3451 2532 L
3452 2574 L
3452 2416 L
3452 2432 L
3452 2285 L
3453 2409 L
3453 2451 L
3453 2442 L
3454 2429 L
3454 2525 L
3454 2411 L
3454 2302 L
3455 2581 L
3455 2407 L
3455 2397 L
3455 2488 L
3456 2517 L
3456 2422 L
3456 2565 L
3457 2619 L
3457 2409 L
3457 2575 L
3457 2422 L
3458 2610 L
3458 2493 L
3458 2505 L
3458 2523 L
3459 2482 L
3459 2500 L
3459 2464 L
3460 2650 L
3460 2413 L
3460 2367 L
3460 2514 L
3461 2413 L
3461 2558 L
3461 2439 L
3461 2481 L
3462 2562 L
3462 2622 L
3462 2513 L
3463 2661 L
3463 2525 L
3463 2569 L
3463 2555 L
3464 2552 L
3464 2476 L
3464 2500 L
3464 2495 L
3465 2579 L
3465 2407 L
3465 2499 L
3465 2633 L
3466 2520 L
3466 2576 L
3466 2527 L
3466 2562 L
3467 2470 L
3467 2661 L
3467 2420 L
3468 2418 L
3468 2682 L
3468 2543 L
3468 2349 L
3469 2406 L
3469 2641 L
3469 2389 L
3469 2485 L
3470 2613 L
3470 2557 L
3470 2429 L
3470 2372 L
3471 2497 L
3471 2544 L
3471 2346 L
3471 2459 L
3472 2512 L
3472 2460 L
3472 2723 L
3472 2633 L
3473 2348 L
3473 2620 L
3473 2609 L
3474 2525 L
3474 2438 L
3474 2642 L
3474 2725 L
3475 2448 L
3475 2458 L
3475 2655 L
3475 2599 L
3476 2540 L
3476 2607 L
3476 2447 L
3476 2478 L
3477 2486 L
3477 2485 L
3477 2377 L
3477 2516 L
3478 2501 L
3478 2505 L
3478 2652 L
3478 2456 L
3479 2652 L
3479 2430 L
3479 2460 L
3479 2522 L
3480 2408 L
3480 2431 L
3480 2377 L
3480 2611 L
3481 2578 L
3481 2551 L
3481 2647 L
3481 2659 L
3482 2532 L
3482 2442 L
3482 2537 L
3482 2478 L
3483 2565 L
3483 2521 L
3483 2513 L
3483 2526 L
3484 2679 L
3484 2400 L
3484 2542 L
3484 2335 L
3485 2530 L
3485 2600 L
3485 2458 L
3485 2525 L
3486 2497 L
3486 2684 L
3486 2516 L
3486 2615 L
3487 2526 L
3487 2436 L
3487 2569 L
3487 2590 L
3488 2487 L
3488 2491 L
3488 2687 L
3488 2535 L
3488 2582 L
3489 2561 L
3489 2661 L
3489 2623 L
3489 2599 L
3490 2648 L
3490 2581 L
3490 2546 L
3490 2753 L
3491 2505 L
3491 2660 L
3491 2654 L
3491 2574 L
3492 2480 L
3492 2516 L
3492 2607 L
3492 2636 L
3493 2621 L
3493 2508 L
3493 2500 L
3493 2487 L
3494 2515 L
3494 2473 L
3494 2675 L
3494 2601 L
3494 2671 L
3495 2561 L
3495 2516 L
3495 2620 L
3495 2478 L
3496 2593 L
3496 2635 L
3496 2442 L
3496 2629 L
3497 2522 L
3497 2641 L
3497 2573 L
3497 2674 L
3498 2485 L
3498 2527 L
3498 2608 L
3498 2702 L
3498 2699 L
3499 2392 L
3499 2604 L
3499 2279 L
3499 2514 L
3500 2459 L
3500 2549 L
3506 2571 L
3511 2606 L
3517 2677 L
3522 2429 L
3527 2678 L
3532 2708 L
3537 2670 L
3542 2626 L
3547 2681 L
3552 2368 L
3557 2592 L
3561 2749 L
3566 2670 L
3570 2763 L
3575 2820 L
3579 2693 L
3583 2595 L
3587 2626 L
3591 2633 L
3595 2684 L
3599 2733 L
3603 2663 L
3607 2732 L
3611 2729 L
3614 2732 L
3618 2637 L
3622 2821 L
3625 2794 L
3629 2574 L
3632 2652 L
3636 2743 L
3639 2804 L
3642 2519 L
3646 2749 L
3649 2770 L
3652 2701 L
3655 2813 L
3658 2586 L
3661 2761 L
3664 2688 L
3667 2694 L
3670 2511 L
3673 2752 L
3676 2448 L
3679 2534 L
3682 2603 L
3685 2709 L
3688 2523 L
3690 2699 L
3693 2512 L
3696 2707 L
3698 2716 L
3701 2802 L
3704 2638 L
3706 2703 L
3709 2791 L
3711 2621 L
3714 2605 L
3716 2798 L
3719 2694 L
3721 2935 L
3724 2774 L
3726 2622 L
3728 2649 L
3731 2668 L
3733 2760 L
3735 2604 L
3738 2701 L
3740 2602 L
3742 2701 L
3744 2805 L
3747 2836 L
3749 2773 L
3751 2775 L
3753 2665 L
3755 2765 L
3757 2801 L
3760 2953 L
3762 2568 L
3764 2823 L
3766 2759 L
3768 2788 L
3770 2712 L
3772 2765 L
3774 2692 L
3776 2633 L
3778 2796 L
3780 2669 L
3781 2636 L
3783 2586 L
3785 2850 L
3787 2844 L
3789 2667 L
3791 2613 L
3793 2776 L
3795 2781 L
3796 2696 L
3798 2643 L
3800 2644 L
3802 2700 L
3803 2791 L
3805 2648 L
3807 2783 L
3809 2659 L
3810 2814 L
3812 2669 L
3814 2589 L
3816 2519 L
3817 2675 L
3819 2880 L
3820 2706 L
3822 2642 L
3824 2697 L
3825 2829 L
3827 2712 L
3829 2708 L
3830 2707 L
3832 2657 L
3833 2703 L
3835 2629 L
3836 2650 L
3838 2835 L
3839 2648 L
3841 2883 L
3842 2663 L
3844 2776 L
3845 2621 L
3847 2538 L
3848 2744 L
3850 2703 L
3851 2559 L
3853 2838 L
3854 2756 L
3856 2709 L
3857 2761 L
3859 2653 L
3860 2633 L
3861 2697 L
3863 2588 L
3864 2580 L
3866 2846 L
3867 2639 L
3868 2621 L
3870 2797 L
3871 2521 L
3872 2908 L
3874 2842 L
3875 2737 L
3876 2633 L
3878 2723 L
3879 2661 L
3880 2770 L
3882 2745 L
3883 2712 L
3884 2690 L
3885 2663 L
3887 2791 L
3888 2711 L
3889 2646 L
3890 2900 L
3892 2800 L
3893 2834 L
3894 2809 L
3895 2800 L
3897 2787 L
3898 2902 L
3899 2735 L
3900 2944 L
3901 2730 L
3903 2728 L
3904 2802 L
3905 2634 L
3906 2869 L
3907 2805 L
3908 2682 L
3910 2731 L
3911 2619 L
3912 2742 L
3913 2725 L
3914 2701 L
3915 2650 L
3917 2663 L
3918 2747 L
3919 2685 L
3920 2759 L
3921 2767 L
3922 2642 L
3923 2767 L
3924 2906 L
3925 2926 L
3926 2862 L
3928 2661 L
3929 2888 L
3930 2756 L
3931 2810 L
3932 2668 L
3933 2540 L
3934 2677 L
3935 2778 L
3936 2838 L
3937 2690 L
3938 2871 L
3939 2618 L
3940 2646 L
3941 2769 L
3942 2906 L
3943 2800 L
3944 2789 L
3945 2686 L
3946 2609 L
3947 2655 L
3948 2791 L
3949 2555 L
3950 2690 L
3951 2783 L
3952 2689 L
3953 2924 L
3954 2560 L
3955 2703 L
3956 2767 L
3957 2511 L
3958 2769 L
3959 2781 L
3960 2778 L
3961 2633 L
3962 2636 L
3963 2682 L
3964 2673 L
3965 2737 L
3966 2719 L
3966 2679 L
3967 2772 L
3968 2651 L
3969 2755 L
3970 2839 L
3971 2663 L
3972 2650 L
3973 2584 L
3974 2681 L
3975 2773 L
3976 2730 L
3976 2823 L
3977 2649 L
3978 2605 L
3979 2677 L
3980 2754 L
3981 2776 L
3982 2655 L
3983 2760 L
3983 2889 L
3984 2492 L
3985 2825 L
3986 2605 L
3987 2730 L
3988 2659 L
3989 2857 L
3989 2864 L
3990 2743 L
3991 2854 L
3992 2719 L
3993 2637 L
3994 2759 L
3995 2527 L
3995 2755 L
3996 2736 L
3997 2595 L
3998 2772 L
3999 2667 L
3999 2650 L
4000 2918 L
4001 2775 L
4002 2754 L
4003 2619 L
4003 2900 L
4004 2580 L
4005 2705 L
4006 2630 L
4007 3000 L
4007 2622 L
4008 2746 L
4009 2836 L
4010 2597 L
4011 2812 L
4011 2655 L
4012 2719 L
4013 2745 L
4014 2711 L
4014 2615 L
4015 2809 L
4016 2693 L
4017 2844 L
4017 2995 L
4018 2770 L
4019 2851 L
4020 2700 L
4021 2708 L
4021 2696 L
4022 2769 L
4023 2835 L
4023 2687 L
4024 2904 L
4025 2743 L
4026 2605 L
4026 2763 L
4027 2644 L
4028 2895 L
4029 2675 L
4029 2701 L
4030 2646 L
4031 2617 L
4032 2853 L
4032 2709 L
4033 2705 L
4034 2694 L
4034 2732 L
4035 2589 L
4036 2840 L
4036 2745 L
4037 2822 L
4038 2750 L
4039 2873 L
4039 2831 L
4040 2744 L
4041 2789 L
4041 2881 L
4042 2780 L
4043 2767 L
4043 2594 L
4044 2663 L
4045 2511 L
4045 2670 L
4046 2532 L
4047 2713 L
4047 2668 L
4048 2764 L
4049 2651 L
4050 2610 L
4050 2789 L
4051 2797 L
4052 2767 L
4052 2719 L
4053 2840 L
4053 2791 L
4054 2575 L
4055 2714 L
4055 2702 L
4056 2791 L
4057 2922 L
4057 2708 L
4058 2743 L
4059 2669 L
4059 2670 L
4060 2725 L
4061 2606 L
4061 2727 L
4062 2763 L
L2 C07 COSGR

%
%================
% Legend - Begin
%================
%
GSN 4240 5180 M
4480 5180 L
LWMC SL  C07 COSGR
GSN 4540 5141 M helvM (4.0 uM) show grestore
%
%================
% Legend - End
%================
%

%
% Residuals:
%
GSN 777 815 M
1388 1569 L
1552 1305 L
1652 1305 L
1723 1285 L
1778 1129 L
1824 765 L
1863 1148 L
1896 967 L
1926 910 L
1952 1050 L
1976 962 L
1998 1147 L
2019 1104 L
2037 1243 L
2055 1062 L
2071 1037 L
2086 1023 L
2101 1117 L
2115 1073 L
2128 1105 L
2140 1016 L
2152 1056 L
2163 1057 L
2174 996 L
2184 890 L
2194 1138 L
2204 1081 L
2213 1134 L
2222 1187 L
2230 1201 L
2239 1057 L
2247 1181 L
2255 1166 L
2262 1180 L
2270 1074 L
2277 1100 L
2284 1106 L
2290 1182 L
2297 1108 L
2303 1106 L
2310 1068 L
2316 940 L
2322 1153 L
2328 1138 L
2333 1064 L
2339 964 L
2344 1088 L
2350 1011 L
2355 1008 L
2360 899 L
2365 1027 L
2370 1058 L
2375 1016 L
2380 938 L
2384 1108 L
2389 1075 L
2393 1126 L
2398 1131 L
2402 924 L
2407 980 L
2411 1230 L
2415 1082 L
2419 1010 L
2423 1063 L
2427 952 L
2431 1006 L
2435 1151 L
2438 965 L
2442 1056 L
2446 1049 L
2449 1147 L
2453 1180 L
2456 1112 L
2460 1216 L
2463 971 L
2467 1105 L
2470 1094 L
2473 1177 L
2476 1003 L
2480 959 L
2483 1023 L
2486 1032 L
2489 1268 L
2492 1089 L
2495 1081 L
2498 965 L
2501 1088 L
2504 1144 L
2507 1057 L
2510 907 L
2512 976 L
2515 1111 L
2518 1101 L
2521 1105 L
2523 1066 L
2526 1136 L
2529 1094 L
2531 1197 L
2534 1008 L
2536 1128 L
2539 1220 L
2541 1117 L
2544 1196 L
2546 1130 L
2549 1056 L
2551 1080 L
2554 1067 L
2556 1084 L
2558 1016 L
2561 1183 L
2563 1055 L
2565 1132 L
2568 1125 L
2570 1062 L
2572 1027 L
2574 1030 L
2576 999 L
2579 1207 L
2581 1073 L
2583 1160 L
2585 1119 L
2587 1047 L
2589 1087 L
2591 1086 L
2593 1222 L
2595 882 L
2597 1090 L
2599 1056 L
2601 1067 L
2603 1027 L
2605 1179 L
2607 1100 L
2609 1285 L
2611 1187 L
2613 1130 L
2615 1084 L
2617 1091 L
2618 1212 L
2620 1101 L
2622 1128 L
2624 1110 L
2626 1077 L
2627 1120 L
2629 1130 L
2631 1229 L
2633 1171 L
2634 1162 L
2636 1236 L
2638 1054 L
2640 1064 L
2641 1177 L
2643 1122 L
2645 1100 L
2646 1103 L
2648 972 L
2650 1033 L
2651 1070 L
2653 1110 L
2654 1160 L
2656 1285 L
2658 1224 L
2659 1151 L
2661 1093 L
2662 1122 L
2664 1064 L
2665 1098 L
2667 1140 L
2668 1137 L
2670 1061 L
2671 1213 L
2673 1029 L
2674 1078 L
2676 1041 L
2677 1082 L
2679 1152 L
2680 1101 L
2682 1090 L
2683 1179 L
2685 1033 L
2686 1124 L
2687 1097 L
2689 1060 L
2690 1118 L
2692 1058 L
2693 1152 L
2694 1167 L
2696 1057 L
2697 1096 L
2698 1233 L
2700 1135 L
2701 1060 L
2702 1085 L
2704 1033 L
2705 980 L
2706 1114 L
2708 1072 L
2709 971 L
2710 1063 L
2712 1117 L
2713 1003 L
2714 881 L
2715 1090 L
2717 1181 L
2718 1148 L
2719 1188 L
2720 1201 L
2722 1056 L
2723 1002 L
2724 1058 L
2725 1120 L
2726 1120 L
2728 1059 L
2729 1108 L
2730 1131 L
2731 1127 L
2732 1068 L
2734 1072 L
2735 1136 L
2736 1005 L
2737 1140 L
2738 1092 L
2739 1100 L
2741 1185 L
2742 918 L
2743 1063 L
2744 1151 L
2745 987 L
2746 992 L
2747 1056 L
2748 1170 L
2749 1138 L
2751 1068 L
2752 1121 L
2753 1034 L
2754 1020 L
2755 1052 L
2756 1181 L
2757 1061 L
2758 1061 L
2759 1038 L
2760 1031 L
2761 1111 L
2762 1115 L
2763 1287 L
2764 1105 L
2765 1133 L
2767 1206 L
2768 1094 L
2769 1054 L
2770 1117 L
2771 1035 L
2772 1037 L
2773 1075 L
2774 1149 L
2775 1008 L
2776 837 L
2777 1126 L
2778 1028 L
2779 1090 L
2780 969 L
2781 1104 L
2782 1209 L
2783 1194 L
2783 1114 L
2784 953 L
2785 967 L
2786 1159 L
2787 1205 L
2788 1178 L
2789 1159 L
2790 985 L
2791 1056 L
2792 1084 L
2793 1053 L
2794 1064 L
2795 1091 L
2796 1205 L
2797 1168 L
2798 1197 L
2798 1160 L
2799 1183 L
2800 1052 L
2801 1005 L
2802 981 L
2803 1064 L
2804 1107 L
2805 1064 L
2806 1150 L
2807 928 L
2807 1143 L
2808 1041 L
2809 1143 L
2810 1102 L
2811 1164 L
2812 1166 L
2813 1031 L
2813 1136 L
2814 1012 L
2815 1077 L
2816 1059 L
2817 995 L
2818 1012 L
2819 1092 L
2819 1047 L
2820 1176 L
2821 1128 L
2822 1132 L
2823 1012 L
2824 1093 L
2824 1176 L
2825 1039 L
2826 1031 L
2827 1265 L
2828 1022 L
2828 1247 L
2829 1004 L
2830 1037 L
2831 1076 L
2832 1070 L
2832 1101 L
2833 1017 L
2834 1063 L
2835 971 L
2836 1119 L
2836 1027 L
2837 1069 L
2838 1153 L
2839 1170 L
2840 1076 L
2840 1035 L
2841 1049 L
2842 1088 L
2843 1105 L
2843 972 L
2844 1073 L
2845 1146 L
2846 1089 L
2846 1162 L
2847 865 L
2848 902 L
2849 946 L
2849 1132 L
2850 1284 L
2851 1017 L
2852 1114 L
2852 1025 L
2853 988 L
2854 1114 L
2855 1036 L
2855 1083 L
2856 1016 L
2857 1134 L
2857 923 L
2858 1060 L
2859 1027 L
2860 946 L
2860 1079 L
2861 1117 L
2862 1072 L
2862 1261 L
2863 1055 L
2864 963 L
2865 1153 L
2865 1057 L
2866 967 L
2867 1031 L
2867 1136 L
2868 988 L
2869 1009 L
2869 1076 L
2870 1069 L
2871 1060 L
2871 1154 L
2872 965 L
2873 1196 L
2873 961 L
2874 1140 L
2875 1121 L
2876 1049 L
2876 951 L
2877 973 L
2878 978 L
2878 973 L
2879 1033 L
2880 942 L
2880 1188 L
2881 1046 L
2881 1110 L
2882 1136 L
2883 1114 L
2883 1137 L
2884 1110 L
2885 1052 L
2885 1064 L
2886 1057 L
2887 1033 L
2887 972 L
2888 927 L
2889 1034 L
2889 1057 L
2892 1103 L
2894 1087 L
2897 1160 L
2899 1033 L
2902 1034 L
2904 946 L
2907 902 L
2909 1126 L
2911 1098 L
2914 1073 L
2916 1150 L
2918 1070 L
2921 1010 L
2923 1010 L
2925 1160 L
2927 983 L
2929 1007 L
2932 1018 L
2934 992 L
2936 1029 L
2938 1052 L
2940 1057 L
2942 813 L
2944 994 L
2946 950 L
2948 1014 L
2950 925 L
2952 996 L
2954 1003 L
2956 1072 L
2958 1001 L
2960 1070 L
2962 894 L
2964 996 L
2966 914 L
2968 917 L
2970 970 L
2971 972 L
2973 1065 L
2975 966 L
2977 979 L
2979 975 L
2980 1079 L
2982 967 L
2984 983 L
2986 982 L
2987 835 L
2989 1039 L
2991 1019 L
2993 1102 L
2994 827 L
2996 1130 L
2998 933 L
2999 801 L
3001 909 L
3003 991 L
3004 923 L
3006 919 L
3007 903 L
3009 1071 L
3011 948 L
3012 958 L
3014 916 L
3015 858 L
3017 986 L
3018 1024 L
3020 987 L
3021 937 L
3023 938 L
3024 915 L
3026 1017 L
3027 802 L
3029 879 L
3030 848 L
3032 938 L
3033 1040 L
3035 956 L
3036 917 L
3038 915 L
3039 893 L
3040 1043 L
3042 908 L
3043 853 L
3045 885 L
3046 886 L
3047 892 L
3049 957 L
3050 956 L
3051 965 L
3053 980 L
3054 870 L
3055 932 L
3057 966 L
3058 827 L
3059 898 L
3061 822 L
3062 885 L
3063 818 L
3065 920 L
3066 1048 L
3067 905 L
3068 871 L
3070 890 L
3071 1052 L
3072 923 L
3073 915 L
3075 856 L
3076 915 L
3077 871 L
3078 988 L
3079 953 L
3081 777 L
3082 899 L
3083 997 L
3084 855 L
3085 955 L
3087 855 L
3088 837 L
3089 940 L
3090 973 L
3091 993 L
3092 808 L
3094 907 L
3095 809 L
3096 854 L
3097 804 L
3098 931 L
3099 1000 L
3100 825 L
3101 939 L
3103 924 L
3104 766 L
3105 863 L
3106 929 L
3107 898 L
3108 836 L
3109 935 L
3110 761 L
3111 1007 L
3112 1012 L
3113 951 L
3114 1092 L
3115 815 L
3116 904 L
3117 976 L
3119 968 L
3120 750 L
3121 892 L
3122 865 L
3123 989 L
3124 944 L
3125 852 L
3126 906 L
3127 937 L
3128 897 L
3129 879 L
3130 939 L
3131 855 L
3132 833 L
3133 817 L
3134 868 L
3135 1014 L
3136 816 L
3136 870 L
3137 791 L
3138 881 L
3139 842 L
3140 842 L
3141 809 L
3142 914 L
3143 984 L
3144 843 L
3145 891 L
3146 843 L
3147 894 L
3148 978 L
3149 1095 L
3150 869 L
3151 833 L
3151 939 L
3152 905 L
3153 871 L
3154 801 L
3155 789 L
3156 1054 L
3157 923 L
3158 1125 L
3159 958 L
3160 932 L
3160 988 L
3161 958 L
3162 916 L
3163 868 L
3164 879 L
3165 922 L
3166 846 L
3166 874 L
3167 1059 L
3168 850 L
3169 922 L
3170 833 L
3171 780 L
3172 946 L
3172 854 L
3173 894 L
3174 876 L
3175 908 L
3176 925 L
3177 923 L
3177 941 L
3178 1032 L
3179 858 L
3180 761 L
3181 947 L
3181 850 L
3182 975 L
3183 970 L
3184 901 L
3185 975 L
3185 981 L
3186 843 L
3187 762 L
3188 822 L
3189 991 L
3189 941 L
3190 776 L
3191 931 L
3192 908 L
3193 883 L
3193 838 L
3194 879 L
3195 820 L
3196 848 L
3196 908 L
3197 878 L
3198 996 L
3199 957 L
3199 984 L
3200 994 L
3201 927 L
3202 942 L
3202 960 L
3203 1140 L
3204 904 L
3205 931 L
3205 1106 L
3206 1018 L
3207 874 L
3208 997 L
3208 906 L
3209 854 L
3210 969 L
3210 937 L
3211 951 L
3212 988 L
3213 867 L
3213 1015 L
3214 1044 L
3215 1089 L
3215 918 L
3216 969 L
3217 873 L
3218 977 L
3218 946 L
3219 1012 L
3220 935 L
3220 1006 L
3221 1098 L
3222 981 L
3222 810 L
3223 1067 L
3224 961 L
3224 984 L
3225 966 L
3226 1027 L
3227 1125 L
3227 871 L
3228 930 L
3229 1046 L
3229 863 L
3230 995 L
3231 923 L
3231 1021 L
3232 888 L
3233 1130 L
3233 903 L
3234 919 L
3235 927 L
3235 969 L
3236 1005 L
3236 943 L
3237 906 L
3238 924 L
3238 991 L
3239 1061 L
3240 917 L
3240 1031 L
3241 1066 L
3242 1098 L
3242 1010 L
3243 967 L
3244 939 L
3244 1027 L
3245 892 L
3245 849 L
3246 1067 L
3247 981 L
3247 997 L
3248 919 L
3249 1049 L
3249 1053 L
3250 1077 L
3250 977 L
3251 1062 L
3252 1051 L
3252 1154 L
3253 835 L
3253 979 L
3254 982 L
3255 1036 L
3255 813 L
3256 1013 L
3257 1022 L
3257 862 L
3258 989 L
3258 1030 L
3259 961 L
3259 845 L
3260 1110 L
3261 1088 L
3261 923 L
3262 1116 L
3262 885 L
3263 966 L
3264 892 L
3264 1060 L
3265 1070 L
3265 998 L
3266 1082 L
3267 983 L
3267 990 L
3268 961 L
3268 1117 L
3269 984 L
3269 944 L
3270 943 L
3271 1039 L
3271 1129 L
3272 1091 L
3272 1056 L
3273 990 L
3273 1021 L
3274 1055 L
3275 1136 L
3275 992 L
3276 1032 L
3276 960 L
3277 992 L
3277 1020 L
3278 1033 L
3278 1063 L
3279 1066 L
3280 994 L
3280 1025 L
3281 1000 L
3281 991 L
3282 1015 L
3282 1018 L
3283 929 L
3283 916 L
3284 1047 L
3284 1184 L
3285 993 L
3285 981 L
3286 1180 L
3287 1081 L
3287 1042 L
3288 1091 L
3288 975 L
3289 1030 L
3289 920 L
3290 1024 L
3290 1013 L
3291 1062 L
3291 1004 L
3292 1040 L
3292 1038 L
3293 1034 L
3293 1108 L
3294 1103 L
3294 1010 L
3295 1127 L
3295 1213 L
3296 1127 L
3297 875 L
3297 992 L
3298 995 L
3298 926 L
3299 974 L
3299 1103 L
3300 1075 L
3300 1056 L
3301 887 L
3301 1144 L
3302 1140 L
3302 1003 L
3303 1081 L
3303 1090 L
3304 1056 L
3304 1080 L
3305 1052 L
3305 1124 L
3306 1095 L
3306 1043 L
3307 1043 L
3307 1059 L
3308 1032 L
3308 1001 L
3309 1133 L
3309 1092 L
3310 1166 L
3310 1195 L
3311 1012 L
3311 1055 L
3312 1042 L
3312 1068 L
3312 1173 L
3313 996 L
3313 1106 L
3314 1058 L
3314 1047 L
3315 925 L
3315 971 L
3316 1189 L
3316 1044 L
3317 1080 L
3317 1038 L
3318 1111 L
3318 1091 L
3319 1092 L
3319 1086 L
3320 1080 L
3320 1145 L
3321 986 L
3321 1126 L
3321 1335 L
3322 1176 L
3322 1067 L
3323 1058 L
3323 1110 L
3324 1078 L
3324 993 L
3325 1115 L
3325 1204 L
3326 1031 L
3326 1084 L
3327 1091 L
3327 1059 L
3327 1064 L
3328 1107 L
3328 1075 L
3329 984 L
3329 999 L
3330 1081 L
3330 1183 L
3331 1130 L
3331 1155 L
3332 1148 L
3332 1032 L
3332 1130 L
3333 1189 L
3333 1096 L
3334 1047 L
3334 867 L
3335 1058 L
3335 1043 L
3336 1037 L
3336 1189 L
3336 1057 L
3337 1133 L
3337 1117 L
3338 1189 L
3338 1115 L
3339 1056 L
3339 1023 L
3339 1127 L
3340 1172 L
3340 1220 L
3341 1133 L
3341 1165 L
3342 1079 L
3342 1118 L
3343 1113 L
3343 1016 L
3343 1144 L
3344 1134 L
3344 1090 L
3345 1199 L
3345 1031 L
3346 1074 L
3346 1039 L
3346 1131 L
3347 1132 L
3347 1159 L
3348 1219 L
3348 1089 L
3348 1082 L
3349 1114 L
3349 1213 L
3350 1113 L
3350 1106 L
3351 1060 L
3351 1134 L
3351 1139 L
3352 1145 L
3352 1096 L
3353 1233 L
3353 1049 L
3353 1109 L
3354 1092 L
3354 1191 L
3355 1086 L
3355 1102 L
3355 1088 L
3356 1051 L
3356 1013 L
3357 1225 L
3357 1166 L
3358 1094 L
3358 1081 L
3358 1189 L
3359 1228 L
3359 1066 L
3360 1077 L
3360 1119 L
3360 1057 L
3361 1025 L
3361 1080 L
3362 1205 L
3362 1073 L
3362 1147 L
3363 1056 L
3363 1141 L
3364 1076 L
3364 1353 L
3364 1190 L
3365 1064 L
3365 1226 L
3365 1170 L
3366 1215 L
3366 1177 L
3367 1123 L
3367 1183 L
3367 1393 L
3368 1106 L
3368 1211 L
3369 1099 L
3369 1138 L
3369 1204 L
3370 1225 L
3370 1251 L
3371 1312 L
3371 1141 L
3371 1054 L
3372 1055 L
3372 1122 L
3372 1217 L
3373 1068 L
3373 1234 L
3374 1241 L
3374 1141 L
3374 1227 L
3375 1105 L
3375 1032 L
3375 1264 L
3376 1058 L
3376 1269 L
3377 1190 L
3377 1151 L
3377 1281 L
3378 1106 L
3378 1184 L
3378 1140 L
3379 1182 L
3379 1205 L
3380 1256 L
3380 1227 L
3380 1042 L
3381 1173 L
3381 1170 L
3381 1206 L
3382 1111 L
3382 1146 L
3383 1243 L
3383 1197 L
3383 1168 L
3384 1126 L
3384 1142 L
3384 1089 L
3385 1138 L
3385 1091 L
3385 1349 L
3386 1209 L
3386 1344 L
3387 1150 L
3387 1169 L
3387 1155 L
3388 1274 L
3388 1214 L
3388 1262 L
3389 1256 L
3389 1195 L
3389 1305 L
3390 1143 L
3390 1201 L
3391 1233 L
3391 1189 L
3391 1184 L
3392 1111 L
3392 1209 L
3392 1194 L
3393 1247 L
3393 1048 L
3393 1238 L
3394 1194 L
3394 1245 L
3394 1285 L
3395 1327 L
3395 1129 L
3395 1288 L
3396 1089 L
3396 1273 L
3396 1175 L
3397 1142 L
3397 1228 L
3398 1165 L
3398 1109 L
3398 1176 L
3399 1233 L
3399 1152 L
3399 1207 L
3400 1338 L
3400 1144 L
3400 1229 L
3401 1212 L
3401 1229 L
3401 1182 L
3402 1036 L
3402 1274 L
3402 1119 L
3403 1223 L
3403 1128 L
3403 1226 L
3404 1192 L
3404 1316 L
3404 1199 L
3405 1269 L
3405 1309 L
3405 1172 L
3406 1016 L
3406 1171 L
3406 1234 L
3407 1271 L
3407 1190 L
3407 1249 L
3408 1321 L
3408 1204 L
3408 1222 L
3409 1154 L
3409 1174 L
3409 1169 L
3410 1218 L
3410 1194 L
3410 1062 L
3411 1278 L
3411 1064 L
3411 1136 L
3412 1233 L
3412 1153 L
3412 1205 L
3413 1240 L
3413 1127 L
3413 1199 L
3414 1243 L
3414 1194 L
3414 1157 L
3415 1214 L
3415 1055 L
3415 1240 L
3416 1227 L
3416 1276 L
3416 1185 L
3417 1308 L
3417 1267 L
3417 1231 L
3417 1190 L
3418 1276 L
3418 1229 L
3418 1233 L
3419 1271 L
3419 1252 L
3419 1247 L
3420 1301 L
3420 1033 L
3420 1316 L
3421 1210 L
3421 1289 L
3421 1272 L
3422 1209 L
3422 1137 L
3422 1241 L
3423 1326 L
3423 1115 L
3423 1213 L
3423 1211 L
3424 1180 L
3424 1360 L
3424 1263 L
3425 1278 L
3425 1196 L
3425 1203 L
3426 1301 L
3426 1277 L
3426 1273 L
3427 1254 L
3427 1190 L
3427 1291 L
3428 1104 L
3428 1292 L
3428 1124 L
3428 1277 L
3429 1193 L
3429 1317 L
3429 1330 L
3430 1284 L
3430 1219 L
3430 1275 L
3431 1298 L
3431 1276 L
3431 1255 L
3431 1394 L
3432 1323 L
3432 1278 L
3432 1154 L
3433 1170 L
3433 1211 L
3433 1129 L
3434 1239 L
3434 1267 L
3434 1286 L
3434 1231 L
3435 1240 L
3435 1170 L
3435 1206 L
3436 1190 L
3436 1184 L
3436 1117 L
3437 1258 L
3437 1190 L
3437 1262 L
3437 1249 L
3438 1166 L
3438 1244 L
3438 1311 L
3439 1200 L
3439 1144 L
3439 1276 L
3440 1243 L
3440 1209 L
3440 1194 L
3440 1166 L
3441 1242 L
3441 1224 L
3441 1274 L
3442 1273 L
3442 1268 L
3442 1153 L
3442 1233 L
3443 1185 L
3443 1304 L
3443 1183 L
3444 1319 L
3444 1242 L
3444 1074 L
3444 1334 L
3445 1296 L
3445 1272 L
3445 1257 L
3446 1215 L
3446 1190 L
3446 1181 L
3446 1282 L
3447 1302 L
3447 1229 L
3447 1271 L
3448 1165 L
3448 1430 L
3448 1239 L
3448 1194 L
3449 1329 L
3449 1189 L
3449 1178 L
3450 1394 L
3450 1266 L
3450 1226 L
3450 1164 L
3451 1310 L
3451 1350 L
3451 1291 L
3452 1327 L
3452 1192 L
3452 1205 L
3452 1079 L
3453 1185 L
3453 1221 L
3453 1213 L
3454 1201 L
3454 1284 L
3454 1186 L
3454 1093 L
3455 1332 L
3455 1183 L
3455 1174 L
3455 1252 L
3456 1276 L
3456 1195 L
3456 1317 L
3457 1363 L
3457 1184 L
3457 1325 L
3457 1194 L
3458 1355 L
3458 1255 L
3458 1265 L
3458 1280 L
3459 1245 L
3459 1260 L
3459 1229 L
3460 1389 L
3460 1185 L
3460 1146 L
3460 1272 L
3461 1185 L
3461 1309 L
3461 1207 L
3461 1243 L
3462 1312 L
3462 1364 L
3462 1270 L
3463 1396 L
3463 1280 L
3463 1318 L
3463 1305 L
3464 1303 L
3464 1237 L
3464 1258 L
3464 1254 L
3465 1325 L
3465 1178 L
3465 1257 L
3465 1371 L
3466 1274 L
3466 1322 L
3466 1280 L
3466 1310 L
3467 1231 L
3467 1395 L
3467 1188 L
3468 1186 L
3468 1412 L
3468 1292 L
3468 1127 L
3469 1175 L
3469 1376 L
3469 1161 L
3469 1243 L
3470 1352 L
3470 1304 L
3470 1194 L
3470 1146 L
3471 1253 L
3471 1292 L
3471 1123 L
3471 1220 L
3472 1264 L
3472 1220 L
3472 1445 L
3472 1368 L
3473 1123 L
3473 1356 L
3473 1346 L
3474 1275 L
3474 1200 L
3474 1375 L
3474 1446 L
3475 1208 L
3475 1217 L
3475 1386 L
3475 1337 L
3476 1286 L
3476 1344 L
3476 1207 L
3476 1233 L
3477 1240 L
3477 1239 L
3477 1146 L
3477 1265 L
3478 1252 L
3478 1255 L
3478 1381 L
3478 1213 L
3479 1381 L
3479 1191 L
3479 1216 L
3479 1269 L
3480 1171 L
3480 1191 L
3480 1145 L
3480 1345 L
3481 1317 L
3481 1294 L
3481 1375 L
3481 1386 L
3482 1277 L
3482 1200 L
3482 1281 L
3482 1230 L
3483 1304 L
3483 1267 L
3483 1260 L
3483 1271 L
3484 1401 L
3484 1163 L
3484 1284 L
3484 1107 L
3485 1273 L
3485 1334 L
3485 1212 L
3485 1269 L
3486 1245 L
3486 1405 L
3486 1261 L
3486 1346 L
3487 1269 L
3487 1192 L
3487 1306 L
3487 1324 L
3488 1235 L
3488 1239 L
3488 1406 L
3488 1276 L
3488 1316 L
3489 1298 L
3489 1384 L
3489 1351 L
3489 1330 L
3490 1372 L
3490 1314 L
3490 1284 L
3490 1461 L
3491 1249 L
3491 1382 L
3491 1376 L
3491 1308 L
3492 1227 L
3492 1257 L
3492 1335 L
3492 1360 L
3493 1347 L
3493 1250 L
3493 1243 L
3493 1232 L
3494 1256 L
3494 1220 L
3494 1392 L
3494 1329 L
3494 1389 L
3495 1294 L
3495 1256 L
3495 1345 L
3495 1223 L
3496 1322 L
3496 1357 L
3496 1192 L
3496 1352 L
3497 1260 L
3497 1362 L
3497 1304 L
3497 1390 L
3498 1228 L
3498 1264 L
3498 1333 L
3498 1414 L
3498 1411 L
3499 1148 L
3499 1329 L
3499 1051 L
3499 1252 L
3500 1205 L
3500 1281 L
3506 1297 L
3511 1324 L
3517 1381 L
3522 1166 L
3527 1375 L
3532 1397 L
3537 1361 L
3542 1320 L
3547 1364 L
3552 1093 L
3557 1281 L
3561 1412 L
3566 1340 L
3570 1416 L
3575 1461 L
3579 1349 L
3583 1262 L
3587 1284 L
3591 1287 L
3595 1327 L
3599 1365 L
3603 1302 L
3607 1356 L
3611 1350 L
3614 1349 L
3618 1264 L
3622 1418 L
3625 1391 L
3629 1199 L
3632 1262 L
3636 1336 L
3639 1384 L
3642 1137 L
3646 1329 L
3649 1344 L
3652 1281 L
3655 1373 L
3658 1175 L
3661 1321 L
3664 1255 L
3667 1256 L
3670 1096 L
3673 1299 L
3676 1035 L
3679 1105 L
3682 1160 L
3685 1247 L
3688 1085 L
3690 1231 L
3693 1068 L
3696 1232 L
3698 1237 L
3701 1306 L
3704 1163 L
3706 1215 L
3709 1288 L
3711 1139 L
3714 1122 L
3716 1283 L
3719 1192 L
3721 1394 L
3724 1254 L
3726 1121 L
3728 1141 L
3731 1154 L
3733 1231 L
3735 1094 L
3738 1175 L
3740 1087 L
3742 1170 L
3744 1256 L
3747 1280 L
3749 1224 L
3751 1223 L
3753 1127 L
3755 1210 L
3757 1239 L
3760 1366 L
3762 1035 L
3764 1251 L
3766 1194 L
3768 1217 L
3770 1150 L
3772 1193 L
3774 1129 L
3776 1077 L
3778 1215 L
3780 1104 L
3781 1075 L
3783 1030 L
3785 1255 L
3787 1248 L
3789 1095 L
3791 1048 L
3793 1186 L
3795 1189 L
3796 1114 L
3798 1068 L
3800 1068 L
3802 1114 L
3803 1191 L
3805 1068 L
3807 1182 L
3809 1074 L
3810 1207 L
3812 1081 L
3814 1012 L
3816 951 L
3817 1084 L
3819 1259 L
3820 1109 L
3822 1053 L
3824 1099 L
3825 1211 L
3827 1110 L
3829 1106 L
3830 1105 L
3832 1062 L
3833 1100 L
3835 1036 L
3836 1054 L
3838 1211 L
3839 1051 L
3841 1252 L
3842 1063 L
3844 1159 L
3845 1026 L
3847 954 L
3848 1130 L
3850 1095 L
3851 971 L
3853 1209 L
3854 1139 L
3856 1098 L
3857 1142 L
3859 1050 L
3860 1032 L
3861 1087 L
3863 993 L
3864 986 L
3866 1213 L
3867 1036 L
3868 1020 L
3870 1171 L
3871 934 L
3872 1266 L
3874 1208 L
3875 1119 L
3876 1029 L
3878 1106 L
3879 1053 L
3880 1146 L
3882 1124 L
3883 1096 L
3884 1077 L
3885 1054 L
3887 1163 L
3888 1094 L
3889 1038 L
3890 1256 L
3892 1170 L
3893 1199 L
3894 1178 L
3895 1170 L
3897 1159 L
3898 1257 L
3899 1114 L
3900 1293 L
3901 1109 L
3903 1108 L
3904 1171 L
3905 1027 L
3906 1228 L
3907 1173 L
3908 1068 L
3910 1110 L
3911 1014 L
3912 1119 L
3913 1104 L
3914 1083 L
3915 1040 L
3917 1052 L
3918 1123 L
3919 1070 L
3920 1133 L
3921 1140 L
3922 1033 L
3923 1140 L
3924 1259 L
3925 1276 L
3926 1221 L
3928 1049 L
3929 1243 L
3930 1131 L
3931 1176 L
3932 1055 L
3933 945 L
3934 1063 L
3935 1149 L
3936 1200 L
3937 1073 L
3938 1228 L
3939 1012 L
3940 1035 L
3941 1141 L
3942 1258 L
3943 1168 L
3944 1158 L
3945 1070 L
3946 1004 L
3947 1044 L
3948 1160 L
3949 958 L
3950 1074 L
3951 1152 L
3952 1072 L
3953 1273 L
3954 962 L
3955 1084 L
3956 1139 L
3957 920 L
3958 1141 L
3959 1151 L
3960 1148 L
3961 1024 L
3962 1027 L
3963 1066 L
3964 1059 L
3965 1113 L
3966 1097 L
3966 1064 L
3967 1143 L
3968 1040 L
3969 1129 L
3970 1201 L
3971 1050 L
3972 1039 L
3973 982 L
3974 1066 L
3975 1144 L
3976 1107 L
3976 1187 L
3977 1038 L
3978 1000 L
3979 1062 L
3980 1127 L
3981 1146 L
3982 1043 L
3983 1133 L
3983 1243 L
3984 904 L
3985 1188 L
3986 1000 L
3987 1107 L
3988 1047 L
3989 1216 L
3989 1222 L
3990 1119 L
3991 1213 L
3992 1098 L
3993 1028 L
3994 1132 L
3995 933 L
3995 1129 L
3996 1113 L
3997 992 L
3998 1143 L
3999 1053 L
3999 1039 L
4000 1268 L
4001 1146 L
4002 1127 L
4003 1012 L
4003 1252 L
4004 979 L
4005 1086 L
4006 1022 L
4007 1338 L
4007 1015 L
4008 1121 L
4009 1198 L
4010 993 L
4011 1177 L
4011 1043 L
4012 1097 L
4013 1120 L
4014 1091 L
4014 1009 L
4015 1174 L
4016 1075 L
4017 1205 L
4017 1333 L
4018 1141 L
4019 1210 L
4020 1081 L
4021 1088 L
4021 1078 L
4022 1140 L
4023 1197 L
4023 1070 L
4024 1256 L
4025 1118 L
4026 1000 L
4026 1135 L
4027 1033 L
4028 1248 L
4029 1060 L
4029 1083 L
4030 1035 L
4031 1011 L
4032 1212 L
4032 1089 L
4033 1085 L
4034 1076 L
4034 1109 L
4035 987 L
4036 1202 L
4036 1120 L
4037 1186 L
4038 1124 L
4039 1229 L
4039 1194 L
4040 1119 L
4041 1157 L
4041 1236 L
4042 1150 L
4043 1139 L
4043 991 L
4044 1050 L
4045 919 L
4045 1055 L
4046 938 L
4047 1093 L
4047 1054 L
4048 1136 L
4049 1040 L
4050 1005 L
4050 1157 L
4051 1164 L
4052 1139 L
4052 1098 L
4053 1201 L
4053 1159 L
4054 975 L
4055 1093 L
4055 1083 L
4056 1159 L
4057 1272 L
4057 1088 L
4058 1118 L
4059 1055 L
4059 1055 L
4060 1103 L
4061 1001 L
4061 1105 L
4062 1136 L
L2 C07 COSGR

%
% Main frame
%
L10
GSN 
620 1700 M
4220 1700 L
4220 5300 L
620 5300 L
closepath SGR

%
% X axis: large tics
%
L10
GSN 1130 1700 M 0  54 rL SGR
GSN 1130 5300 M 0 -54 rL SGR
helvS (0.0001) 1130 470 xlabel
GSN 1716 1700 M 0  54 rL SGR
GSN 1716 5300 M 0 -54 rL SGR
helvS (0.001) 1716 470 xlabel
GSN 2303 1700 M 0  54 rL SGR
GSN 2303 5300 M 0 -54 rL SGR
helvS (0.01) 2303 470 xlabel
GSN 2889 1700 M 0  54 rL SGR
GSN 2889 5300 M 0 -54 rL SGR
helvS (0.1) 2889 470 xlabel
GSN 3476 1700 M 0  54 rL SGR
GSN 3476 5300 M 0 -54 rL SGR
helvS (1) 3476 470 xlabel
GSN 4062 1700 M 0  54 rL SGR
GSN 4062 5300 M 0 -54 rL SGR
helvS (10) 4062 470 xlabel
%
% X axis: small tics
%
L5
GSN 720 1700 M 0  36 rL SGR
GSN 720 5300 M 0 -36 rL SGR
GSN 824 1700 M 0  36 rL SGR
GSN 824 5300 M 0 -36 rL SGR
GSN 897 1700 M 0  36 rL SGR
GSN 897 5300 M 0 -36 rL SGR
GSN 954 1700 M 0  36 rL SGR
GSN 954 5300 M 0 -36 rL SGR
GSN 1000 1700 M 0  36 rL SGR
GSN 1000 5300 M 0 -36 rL SGR
GSN 1039 1700 M 0  36 rL SGR
GSN 1039 5300 M 0 -36 rL SGR
GSN 1073 1700 M 0  36 rL SGR
GSN 1073 5300 M 0 -36 rL SGR
GSN 1103 1700 M 0  36 rL SGR
GSN 1103 5300 M 0 -36 rL SGR
GSN 1307 1700 M 0  36 rL SGR
GSN 1307 5300 M 0 -36 rL SGR
GSN 1410 1700 M 0  36 rL SGR
GSN 1410 5300 M 0 -36 rL SGR
GSN 1483 1700 M 0  36 rL SGR
GSN 1483 5300 M 0 -36 rL SGR
GSN 1540 1700 M 0  36 rL SGR
GSN 1540 5300 M 0 -36 rL SGR
GSN 1586 1700 M 0  36 rL SGR
GSN 1586 5300 M 0 -36 rL SGR
GSN 1626 1700 M 0  36 rL SGR
GSN 1626 5300 M 0 -36 rL SGR
GSN 1660 1700 M 0  36 rL SGR
GSN 1660 5300 M 0 -36 rL SGR
GSN 1690 1700 M 0  36 rL SGR
GSN 1690 5300 M 0 -36 rL SGR
GSN 1893 1700 M 0  36 rL SGR
GSN 1893 5300 M 0 -36 rL SGR
GSN 1996 1700 M 0  36 rL SGR
GSN 1996 5300 M 0 -36 rL SGR
GSN 2069 1700 M 0  36 rL SGR
GSN 2069 5300 M 0 -36 rL SGR
GSN 2126 1700 M 0  36 rL SGR
GSN 2126 5300 M 0 -36 rL SGR
GSN 2173 1700 M 0  36 rL SGR
GSN 2173 5300 M 0 -36 rL SGR
GSN 2212 1700 M 0  36 rL SGR
GSN 2212 5300 M 0 -36 rL SGR
GSN 2246 1700 M 0  36 rL SGR
GSN 2246 5300 M 0 -36 rL SGR
GSN 2276 1700 M 0  36 rL SGR
GSN 2276 5300 M 0 -36 rL SGR
GSN 2479 1700 M 0  36 rL SGR
GSN 2479 5300 M 0 -36 rL SGR
GSN 2583 1700 M 0  36 rL SGR
GSN 2583 5300 M 0 -36 rL SGR
GSN 2656 1700 M 0  36 rL SGR
GSN 2656 5300 M 0 -36 rL SGR
GSN 2713 1700 M 0  36 rL SGR
GSN 2713 5300 M 0 -36 rL SGR
GSN 2759 1700 M 0  36 rL SGR
GSN 2759 5300 M 0 -36 rL SGR
GSN 2798 1700 M 0  36 rL SGR
GSN 2798 5300 M 0 -36 rL SGR
GSN 2832 1700 M 0  36 rL SGR
GSN 2832 5300 M 0 -36 rL SGR
GSN 2862 1700 M 0  36 rL SGR
GSN 2862 5300 M 0 -36 rL SGR
GSN 3066 1700 M 0  36 rL SGR
GSN 3066 5300 M 0 -36 rL SGR
GSN 3169 1700 M 0  36 rL SGR
GSN 3169 5300 M 0 -36 rL SGR
GSN 3242 1700 M 0  36 rL SGR
GSN 3242 5300 M 0 -36 rL SGR
GSN 3299 1700 M 0  36 rL SGR
GSN 3299 5300 M 0 -36 rL SGR
GSN 3345 1700 M 0  36 rL SGR
GSN 3345 5300 M 0 -36 rL SGR
GSN 3385 1700 M 0  36 rL SGR
GSN 3385 5300 M 0 -36 rL SGR
GSN 3419 1700 M 0  36 rL SGR
GSN 3419 5300 M 0 -36 rL SGR
GSN 3449 1700 M 0  36 rL SGR
GSN 3449 5300 M 0 -36 rL SGR
GSN 3652 1700 M 0  36 rL SGR
GSN 3652 5300 M 0 -36 rL SGR
GSN 3755 1700 M 0  36 rL SGR
GSN 3755 5300 M 0 -36 rL SGR
GSN 3829 1700 M 0  36 rL SGR
GSN 3829 5300 M 0 -36 rL SGR
GSN 3885 1700 M 0  36 rL SGR
GSN 3885 5300 M 0 -36 rL SGR
GSN 3932 1700 M 0  36 rL SGR
GSN 3932 5300 M 0 -36 rL SGR
GSN 3971 1700 M 0  36 rL SGR
GSN 3971 5300 M 0 -36 rL SGR
GSN 4005 1700 M 0  36 rL SGR
GSN 4005 5300 M 0 -36 rL SGR
GSN 4035 1700 M 0  36 rL SGR
GSN 4035 5300 M 0 -36 rL SGR
%
% Y axis: large tics
%
L10
GSN 620 1958 M 54 0 rL SGR
GSN 4220 1958 M -54 0 rL SGR
helvS (0.88) 560 1958 ylabel
GSN 620 2680 M 54 0 rL SGR
GSN 4220 2680 M -54 0 rL SGR
helvS (0.9) 560 2680 ylabel
GSN 620 3402 M 54 0 rL SGR
GSN 4220 3402 M -54 0 rL SGR
helvS (0.92) 560 3402 ylabel
GSN 620 4123 M 54 0 rL SGR
GSN 4220 4123 M -54 0 rL SGR
helvS (0.94) 560 4123 ylabel
GSN 620 4845 M 54 0 rL SGR
GSN 4220 4845 M -54 0 rL SGR
helvS (0.96) 560 4845 ylabel
%
% Y axis: small tics
%
L5
GSN 620 1778 M 36 0 rL SGR
GSN 4220 1778 M -36 0 rL SGR
GSN 620 1958 M 36 0 rL SGR
GSN 4220 1958 M -36 0 rL SGR
GSN 620 2139 M 36 0 rL SGR
GSN 4220 2139 M -36 0 rL SGR
GSN 620 2319 M 36 0 rL SGR
GSN 4220 2319 M -36 0 rL SGR
GSN 620 2500 M 36 0 rL SGR
GSN 4220 2500 M -36 0 rL SGR
GSN 620 2680 M 36 0 rL SGR
GSN 4220 2680 M -36 0 rL SGR
GSN 620 2860 M 36 0 rL SGR
GSN 4220 2860 M -36 0 rL SGR
GSN 620 3041 M 36 0 rL SGR
GSN 4220 3041 M -36 0 rL SGR
GSN 620 3221 M 36 0 rL SGR
GSN 4220 3221 M -36 0 rL SGR
GSN 620 3402 M 36 0 rL SGR
GSN 4220 3402 M -36 0 rL SGR
GSN 620 3582 M 36 0 rL SGR
GSN 4220 3582 M -36 0 rL SGR
GSN 620 3762 M 36 0 rL SGR
GSN 4220 3762 M -36 0 rL SGR
GSN 620 3943 M 36 0 rL SGR
GSN 4220 3943 M -36 0 rL SGR
GSN 620 4123 M 36 0 rL SGR
GSN 4220 4123 M -36 0 rL SGR
GSN 620 4304 M 36 0 rL SGR
GSN 4220 4304 M -36 0 rL SGR
GSN 620 4484 M 36 0 rL SGR
GSN 4220 4484 M -36 0 rL SGR
GSN 620 4665 M 36 0 rL SGR
GSN 4220 4665 M -36 0 rL SGR
GSN 620 4845 M 36 0 rL SGR
GSN 4220 4845 M -36 0 rL SGR
GSN 620 5025 M 36 0 rL SGR
GSN 4220 5025 M -36 0 rL SGR
GSN 620 5206 M 36 0 rL SGR
GSN 4220 5206 M -36 0 rL SGR

%
% X-Axis label:
%
gsave 2420 290 M 
[
[(Helvetica) 180 0 true true 0 (t)]
[(Helvetica) 180 0 true true 0 (i)]
[(Helvetica) 180 0 true true 0 (m)]
[(Helvetica) 180 0 true true 0 (e)]
] 0 MCshow grestore

%
% Y-Axis label:
%
gsave 234 3500 M 
currentpoint gsave translate 90 rotate 0 0 moveto
[
[(Helvetica) 180 0 true true 0 (s)]
[(Helvetica) 180 0 true true 0 (i)]
[(Helvetica) 180 0 true true 0 (g)]
[(Helvetica) 180 0 true true 0 (n)]
[(Helvetica) 180 0 true true 0 (a)]
[(Helvetica) 180 0 true true 0 (l)]
] 0 MCshow grestore

%
% Residuals:
%
gsave 129 1160 M 
currentpoint gsave translate 90 rotate 0 0 moveto
[
[(Helvetica) 150 0 true true 0 (r)]
[(Helvetica) 150 0 true true 0 (e)]
[(Helvetica) 150 0 true true 0 (s)]
[(Helvetica) 150 0 true true 0 (i)]
[(Helvetica) 150 0 true true 0 (d)]
[(Helvetica) 150 0 true true 0 (u)]
[(Helvetica) 150 0 true true 0 (a)]
[(Helvetica) 150 0 true true 0 (l)]
[(Helvetica) 150 0 true true 0 (s)]
] 0 MCshow grestore

%
% Residual frame
%
L10
GSN 
620 620 M
4220 620 L
4220 1700 L
620 1700 L
closepath SGR
%
% X axis: large tics - residual frame
%
L10
GSN 1130 620 M 0  54 rL SGR
GSN 1130 1700 M 0 -54 rL SGR
GSN 1716 620 M 0  54 rL SGR
GSN 1716 1700 M 0 -54 rL SGR
GSN 2303 620 M 0  54 rL SGR
GSN 2303 1700 M 0 -54 rL SGR
GSN 2889 620 M 0  54 rL SGR
GSN 2889 1700 M 0 -54 rL SGR
GSN 3476 620 M 0  54 rL SGR
GSN 3476 1700 M 0 -54 rL SGR
GSN 4062 620 M 0  54 rL SGR
GSN 4062 1700 M 0 -54 rL SGR
%
% X axis: small tics - residual frame
%
L5
GSN 720 620 M 0  36 rL SGR
GSN 720 1700 M 0 -36 rL SGR
GSN 824 620 M 0  36 rL SGR
GSN 824 1700 M 0 -36 rL SGR
GSN 897 620 M 0  36 rL SGR
GSN 897 1700 M 0 -36 rL SGR
GSN 954 620 M 0  36 rL SGR
GSN 954 1700 M 0 -36 rL SGR
GSN 1000 620 M 0  36 rL SGR
GSN 1000 1700 M 0 -36 rL SGR
GSN 1039 620 M 0  36 rL SGR
GSN 1039 1700 M 0 -36 rL SGR
GSN 1073 620 M 0  36 rL SGR
GSN 1073 1700 M 0 -36 rL SGR
GSN 1103 620 M 0  36 rL SGR
GSN 1103 1700 M 0 -36 rL SGR
GSN 1307 620 M 0  36 rL SGR
GSN 1307 1700 M 0 -36 rL SGR
GSN 1410 620 M 0  36 rL SGR
GSN 1410 1700 M 0 -36 rL SGR
GSN 1483 620 M 0  36 rL SGR
GSN 1483 1700 M 0 -36 rL SGR
GSN 1540 620 M 0  36 rL SGR
GSN 1540 1700 M 0 -36 rL SGR
GSN 1586 620 M 0  36 rL SGR
GSN 1586 1700 M 0 -36 rL SGR
GSN 1626 620 M 0  36 rL SGR
GSN 1626 1700 M 0 -36 rL SGR
GSN 1660 620 M 0  36 rL SGR
GSN 1660 1700 M 0 -36 rL SGR
GSN 1690 620 M 0  36 rL SGR
GSN 1690 1700 M 0 -36 rL SGR
GSN 1893 620 M 0  36 rL SGR
GSN 1893 1700 M 0 -36 rL SGR
GSN 1996 620 M 0  36 rL SGR
GSN 1996 1700 M 0 -36 rL SGR
GSN 2069 620 M 0  36 rL SGR
GSN 2069 1700 M 0 -36 rL SGR
GSN 2126 620 M 0  36 rL SGR
GSN 2126 1700 M 0 -36 rL SGR
GSN 2173 620 M 0  36 rL SGR
GSN 2173 1700 M 0 -36 rL SGR
GSN 2212 620 M 0  36 rL SGR
GSN 2212 1700 M 0 -36 rL SGR
GSN 2246 620 M 0  36 rL SGR
GSN 2246 1700 M 0 -36 rL SGR
GSN 2276 620 M 0  36 rL SGR
GSN 2276 1700 M 0 -36 rL SGR
GSN 2479 620 M 0  36 rL SGR
GSN 2479 1700 M 0 -36 rL SGR
GSN 2583 620 M 0  36 rL SGR
GSN 2583 1700 M 0 -36 rL SGR
GSN 2656 620 M 0  36 rL SGR
GSN 2656 1700 M 0 -36 rL SGR
GSN 2713 620 M 0  36 rL SGR
GSN 2713 1700 M 0 -36 rL SGR
GSN 2759 620 M 0  36 rL SGR
GSN 2759 1700 M 0 -36 rL SGR
GSN 2798 620 M 0  36 rL SGR
GSN 2798 1700 M 0 -36 rL SGR
GSN 2832 620 M 0  36 rL SGR
GSN 2832 1700 M 0 -36 rL SGR
GSN 2862 620 M 0  36 rL SGR
GSN 2862 1700 M 0 -36 rL SGR
GSN 3066 620 M 0  36 rL SGR
GSN 3066 1700 M 0 -36 rL SGR
GSN 3169 620 M 0  36 rL SGR
GSN 3169 1700 M 0 -36 rL SGR
GSN 3242 620 M 0  36 rL SGR
GSN 3242 1700 M 0 -36 rL SGR
GSN 3299 620 M 0  36 rL SGR
GSN 3299 1700 M 0 -36 rL SGR
GSN 3345 620 M 0  36 rL SGR
GSN 3345 1700 M 0 -36 rL SGR
GSN 3385 620 M 0  36 rL SGR
GSN 3385 1700 M 0 -36 rL SGR
GSN 3419 620 M 0  36 rL SGR
GSN 3419 1700 M 0 -36 rL SGR
GSN 3449 620 M 0  36 rL SGR
GSN 3449 1700 M 0 -36 rL SGR
GSN 3652 620 M 0  36 rL SGR
GSN 3652 1700 M 0 -36 rL SGR
GSN 3755 620 M 0  36 rL SGR
GSN 3755 1700 M 0 -36 rL SGR
GSN 3829 620 M 0  36 rL SGR
GSN 3829 1700 M 0 -36 rL SGR
GSN 3885 620 M 0  36 rL SGR
GSN 3885 1700 M 0 -36 rL SGR
GSN 3932 620 M 0  36 rL SGR
GSN 3932 1700 M 0 -36 rL SGR
GSN 3971 620 M 0  36 rL SGR
GSN 3971 1700 M 0 -36 rL SGR
GSN 4005 620 M 0  36 rL SGR
GSN 4005 1700 M 0 -36 rL SGR
GSN 4035 620 M 0  36 rL SGR
GSN 4035 1700 M 0 -36 rL SGR
%
% Y axis: large tics - residual frame
%
L10
GSN 620 781 M 54 0 rL SGR
GSN 4220 781 M -54 0 rL SGR
helvS (-0.01) 560 781 ylabelresid
GSN 620 1090 M 54 0 rL SGR
GSN 4220 1090 M -54 0 rL SGR
helvS (0) 560 1090 ylabelresid
GSN 620 1399 M 54 0 rL SGR
GSN 4220 1399 M -54 0 rL SGR
helvS (0.01) 560 1399 ylabelresid

%
% X axis - residual panel
%
GSN L5 620 1090 M 4220 1090 L SDA G50 SGR

end
showpage
%%Trailer
%%EOF
