%!PS-Adobe-3.0 EPSF-3.0
%%BoundingBox: 0 0 514 550
%%Creator: BioKin Ltd.
%%DocumentFonts: Symbol Helvetica
%%EndComments
%
/bkdict 256 dict def
bkdict begin
/M {moveto} def 
/R {rmoveto} def
/L {lineto} def
/rL {rlineto} def
/GSN {gsave newpath} def
/SGR {stroke grestore} def
/COSGR {gsave setrgbcolor stroke grestore grestore} def
/SL {setlinewidth} def
/LWMB {12} def             % line width - model curves, black & white
/LWMC {10} def             % line width - model curves, color
/L2 {2.5 setlinewidth} def
/L5 {5 setlinewidth} def
/L10 {10 setlinewidth} def
/G50 {0.5 setgray} def
/SDA {[10  20] 0 setdash} def % axes
/helvT {/Helvetica findfont 100 scalefont setfont} def % tiny
/helvS {/Helvetica findfont 125 scalefont setfont} def % small
/helvM {/Helvetica findfont 150 scalefont setfont} def % medium
/helvL {/Helvetica findfont 175 scalefont setfont} def % large
/xlabel {gsave M dup
   stringwidth exch -0.5 mul exch rmoveto show grestore} def 
/ylabel {gsave M 90 rotate dup
   stringwidth exch -0.5 mul exch rmoveto show grestore} def
/ylabelresid {gsave M dup
   stringwidth exch -1 mul exch rmoveto show grestore} def
% ======
% Shapes
% ======
% Circle:
/Circ {0 360 arc closepath} def
%
% Square:
/Squa {dup dup -0.5 mul dup dup R -2 mul 0 exch rL 1 mul 0 rL dup 0 exch -1 mul rL closepath} def
%
% Triangle Up:
/TriU {dup dup dup -0.4 mul exch -0.5 mul exch R dup 0.5 mul exch rL dup -1 mul exch 0.5 mul exch rL closepath} def 
%
% Triangle Down:
/TriD {dup dup dup 0.4 mul exch -0.5 mul exch R dup 0.5 mul exch -1 mul rL dup 0.5 mul exch rL closepath} def 
%
% Diamond:
/Diam {45 rotate Squa} def
% ======
% Fills
% ======
/GRF {gsave setgray fill grestore} def                    % gray-level Fill
/COF {gsave setrgbcolor fill grestore} def                % color fill
% ======
% Colors
% ======
/C01 {1.00	0.00	0.00} def      % Red
/C02 {0.00	0.00	1.00} def      % Blue
/C03 {0.00	0.39	0.00} def      % Dark Green
/C04 {0.78	0.08	0.52} def      % Medium Violet Red
/C05 {0.55	0.27	0.07} def      % Saddle Brown
/C06 {0.10	0.70	0.70} def      % (cyan)
/C07 {1.00	0.55	0.00} def      % Dark Orange
/C08 {0.63	0.13	0.94} def      % Purple
/C09 {0.00	0.75	1.00} def      % Deep Sky Blue
/C10 {0.20	0.80	0.20} def      % Lime Green
/C11 {0.47	0.53	0.60} def      % Light Slate Gray
/C12 {0.00	0.00	0.00} def      % Black            % or: {0.19	0.31	0.31} def      % Dark Slate Gray
%
/LGR {0.75} def % light gray
/DGR {0.33} def % dark gray
%
% =============
% Dash patterns
% =============
/dash01 { [80  20] 0 setdash } def
/dash02 { [40  20] 0 setdash } def
/dash03 { [80  20  10  20] 0 setdash } def
/dash04 { [40  20  10  20] 0 setdash } def
/dash05 { [80  20  10  10  10  20] 0 setdash } def
/dash06 { [40  20  10  10  10  20] 0 setdash } def
/dash07 { [10  10] 0 setdash } def
%
/MFshow {
   { dup 5 get 3 ge
     { 5 get 3 eq {gsave} {grestore} ifelse }
     {dup dup 0 get findfont exch 1 get scalefont setfont
     [ currentpoint ] exch dup 2 get 0 exch R dup 5 get 2 ne {dup dup 6
     get exch 4 get {show} {stringwidth pop 0 R} ifelse }if dup 5 get 0 eq
     {dup 3 get {2 get neg 0 exch R pop} {pop aload pop M} ifelse} {dup 5
     get 1 eq {dup 2 get exch dup 3 get exch 6 get stringwidth pop -2 div
     dup 0 R} {dup 6 get stringwidth pop -2 div 0 R 6 get
     show 2 index {aload pop M neg 3 -1 roll neg R pop pop} {pop pop pop
     pop aload pop M} ifelse }ifelse }ifelse }
     ifelse }
   forall} bind def
/MFwidth {0 exch {dup 3 get{dup dup 0 get findfont exch 1 get scalefont
     setfont 6 get stringwidth pop add} {pop} ifelse} forall} bind def
/MCshow { currentpoint stroke M
  exch dup MFwidth -2 div 3 -1 roll R MFshow } def
%
end
%%EndProlog
bkdict begin
0.1 0.1 scale
%
% Model curves:
%

GSN 753 5166 M
753 5166 L
786 5165 L
820 5164 L
853 5163 L
886 5162 L
903 5161 L
919 5161 L
953 5159 L
986 5157 L
1020 5155 L
1053 5152 L
1053 5152 L
1086 5149 L
1120 5145 L
1153 5141 L
1186 5136 L
1203 5133 L
1220 5131 L
1253 5124 L
1286 5116 L
1320 5107 L
1353 5097 L
1353 5097 L
1386 5085 L
1420 5071 L
1453 5056 L
1486 5037 L
1503 5027 L
1520 5016 L
1553 4992 L
1586 4964 L
1620 4933 L
1653 4897 L
1653 4896 L
1686 4856 L
1720 4810 L
1753 4759 L
1786 4701 L
1804 4669 L
1820 4637 L
1853 4567 L
1886 4490 L
1920 4406 L
1953 4316 L
1954 4314 L
1986 4221 L
2020 4120 L
2053 4014 L
2086 3905 L
2104 3847 L
2120 3794 L
2153 3682 L
2186 3571 L
2220 3461 L
2253 3354 L
2254 3351 L
2286 3251 L
2320 3153 L
2353 3061 L
2386 2975 L
2404 2931 L
2420 2895 L
2453 2822 L
2486 2756 L
2520 2696 L
2553 2642 L
2554 2640 L
2586 2594 L
2620 2551 L
2653 2514 L
2686 2481 L
2704 2465 L
2720 2453 L
2753 2428 L
2786 2406 L
2820 2388 L
2853 2372 L
2854 2371 L
2886 2359 L
2920 2347 L
2953 2338 L
2986 2330 L
3004 2327 L
3020 2324 L
3053 2320 L
3068 2318 L
3086 2317 L
3120 2314 L
3153 2313 L
3155 2313 L
3186 2313 L
3220 2313 L
3253 2315 L
3286 2316 L
3305 2318 L
3320 2319 L
3353 2321 L
3386 2324 L
3420 2327 L
3453 2329 L
3455 2329 L
3486 2331 L
3520 2333 L
3553 2334 L
3586 2335 L
3605 2335 L
3620 2336 L
3653 2336 L
3686 2335 L
3720 2335 L
3753 2335 L
3755 2335 L
3786 2334 L
3820 2334 L
3853 2334 L
3886 2333 L
3905 2333 L
3920 2333 L
3953 2333 L
3986 2333 L
4020 2333 L
4053 2333 L
4086 2333 L
LWMC SL  C02 COSGR

%
% Experimental data:
%
GSN 773 3894 M
1625 3678 L
1773 4029 L
1860 3848 L
1922 4088 L
1970 3900 L
2009 3948 L
2043 3932 L
2072 3807 L
2097 3702 L
2120 3830 L
2140 3756 L
2159 3926 L
2176 3710 L
2192 3765 L
2207 3733 L
2221 3736 L
2234 3667 L
2247 3605 L
2259 3609 L
2270 3479 L
2280 3506 L
2290 3646 L
2300 3521 L
2309 3444 L
2318 3651 L
2326 3529 L
2335 3543 L
2342 3485 L
2350 3551 L
2357 3479 L
2364 3305 L
2371 3501 L
2378 3284 L
2384 3537 L
2391 3529 L
2397 3256 L
2403 3514 L
2409 3121 L
2414 3520 L
2420 3355 L
2425 3447 L
2430 3237 L
2435 3417 L
2440 3383 L
2445 3244 L
2450 3220 L
2455 3251 L
2459 3356 L
2464 3273 L
2468 3236 L
2472 3336 L
2476 3203 L
2481 3186 L
2485 3195 L
2489 3210 L
2492 3123 L
2496 3269 L
2500 3207 L
2504 3074 L
2507 3055 L
2511 3301 L
2514 2989 L
2518 3237 L
2521 2993 L
2525 3169 L
2528 2888 L
2531 3045 L
2534 2858 L
2538 3038 L
2541 3054 L
2544 2938 L
2547 2917 L
2550 3078 L
2553 2805 L
2556 2786 L
2559 3067 L
2561 2805 L
2564 2805 L
2567 2905 L
2570 3070 L
2580 2731 L
2590 2706 L
2600 2818 L
2609 2797 L
2618 2751 L
2627 2811 L
2635 2749 L
2643 2583 L
2650 2528 L
2658 2459 L
2665 2542 L
2672 2569 L
2678 2593 L
2685 2321 L
2691 2392 L
2697 2581 L
2703 2496 L
2709 2268 L
2714 2602 L
2720 2533 L
2725 2445 L
2730 2451 L
2735 2387 L
2740 2418 L
2745 2277 L
2750 2120 L
2755 2255 L
2759 2190 L
2764 2364 L
2768 2354 L
2772 2374 L
2777 2310 L
2781 2174 L
2785 2165 L
2789 2345 L
2793 2070 L
2796 2256 L
2800 1970 L
2804 2296 L
2808 2058 L
2811 2077 L
2815 2136 L
2818 2327 L
2822 2159 L
2825 2371 L
2828 2333 L
2831 1973 L
2835 2174 L
2838 1983 L
2841 2197 L
2844 2126 L
2847 2037 L
2850 1833 L
2853 2211 L
2856 2016 L
2859 2065 L
2862 2205 L
2864 2276 L
2867 2091 L
2870 2097 L
2873 1940 L
2875 1969 L
2878 1945 L
2880 2078 L
2883 2110 L
2886 2189 L
2888 2041 L
2891 2205 L
2893 2094 L
2895 2053 L
2898 2052 L
2900 1992 L
2902 1915 L
2905 1994 L
2907 2020 L
2909 1982 L
2912 1946 L
2914 2050 L
2916 2024 L
2918 2068 L
2920 2178 L
2922 2214 L
2925 2238 L
2927 2048 L
2929 2186 L
2931 2347 L
2933 2085 L
2935 2122 L
2937 2065 L
2939 2276 L
2941 2022 L
2943 2053 L
2945 2178 L
2947 2190 L
2948 2134 L
2950 2000 L
2952 2195 L
2954 2214 L
2956 2103 L
2958 2041 L
2959 2198 L
2961 2181 L
2963 2148 L
2965 1966 L
2966 2197 L
2968 2082 L
2970 2136 L
2972 2020 L
2973 2424 L
2975 2256 L
2977 2012 L
2978 2360 L
2980 2029 L
2982 2201 L
2983 2342 L
2985 2207 L
2986 2254 L
2988 2273 L
2989 2338 L
2991 2259 L
2993 2343 L
2994 1957 L
2996 2071 L
2997 2234 L
2999 2160 L
3000 2172 L
3002 2130 L
3003 2206 L
3005 2138 L
3006 2177 L
3007 2203 L
3009 2331 L
3010 2272 L
3012 2222 L
3013 2304 L
3014 2144 L
3016 2205 L
3017 2111 L
3019 2180 L
3020 2165 L
3021 2343 L
3023 2239 L
3024 2177 L
3025 2181 L
3027 2313 L
3028 2471 L
3029 2219 L
3031 2330 L
3032 2074 L
3033 2201 L
3034 2223 L
3036 2238 L
3037 2194 L
3038 2316 L
3039 2362 L
3041 2258 L
3042 2399 L
3043 2169 L
3044 1996 L
3045 2338 L
3047 2124 L
3048 2407 L
3049 2425 L
3050 2289 L
3051 1970 L
3053 2273 L
3054 2438 L
3055 2306 L
3056 2160 L
3057 2329 L
3058 2367 L
3059 2454 L
3061 2260 L
3062 2267 L
3063 2329 L
3064 2375 L
3065 2305 L
3066 2337 L
3067 2309 L
3068 2330 L
3069 2204 L
3070 2271 L
3071 2397 L
3073 2313 L
3074 2238 L
3075 2314 L
3076 2279 L
3077 2263 L
3078 2226 L
3079 2054 L
3080 2167 L
3081 2326 L
3082 2422 L
3083 2309 L
3084 2345 L
3085 2416 L
3086 2242 L
3087 2380 L
3088 2313 L
3089 2243 L
3112 2428 L
3133 2377 L
3152 2660 L
3170 2460 L
3186 2358 L
3201 2347 L
3216 2272 L
3229 2469 L
3241 2358 L
3253 2530 L
3264 2411 L
3275 2586 L
3285 2572 L
3295 2541 L
3304 2673 L
3313 2557 L
3322 2512 L
3330 2553 L
3338 2655 L
3346 2622 L
3353 2463 L
3360 2650 L
3367 2509 L
3374 2493 L
3380 2674 L
3387 2331 L
3393 2585 L
3399 2490 L
3405 2595 L
3410 2652 L
3416 2377 L
3421 2411 L
3426 2622 L
3431 2669 L
3436 2609 L
3441 2439 L
3446 2263 L
3451 2578 L
3455 2388 L
3460 2351 L
3464 2504 L
3469 2636 L
3473 2344 L
3477 2432 L
3481 2532 L
3485 2442 L
3489 2557 L
3493 2567 L
3496 2713 L
3500 2588 L
3504 2685 L
3507 2400 L
3511 2588 L
3514 2509 L
3518 2678 L
3521 2391 L
3525 2302 L
3528 2272 L
3531 2623 L
3534 2448 L
3537 2653 L
3540 2500 L
3543 2498 L
3546 2520 L
3549 2535 L
3552 2527 L
3555 2367 L
3558 2426 L
3561 2534 L
3564 2539 L
3566 2411 L
3575 2317 L
3586 2419 L
3595 2432 L
3605 2347 L
3613 2349 L
3622 2360 L
3630 2389 L
3638 2527 L
3646 2534 L
3653 2368 L
3660 2462 L
3667 2238 L
3674 2349 L
3681 2332 L
3687 2465 L
3693 2548 L
3699 2226 L
3705 2460 L
3710 2254 L
3716 2254 L
3721 2286 L
3727 2331 L
3732 2282 L
3737 2270 L
3742 2372 L
3746 2309 L
3751 2437 L
3756 2254 L
3760 2256 L
3764 2469 L
3769 2201 L
3773 2451 L
3777 2293 L
3781 2411 L
3785 2340 L
3789 2426 L
3793 2235 L
3797 2344 L
3800 2273 L
3804 2242 L
3808 2303 L
3811 2324 L
3815 2433 L
3818 2054 L
3821 2449 L
3825 2259 L
3828 2221 L
3831 2409 L
3834 2193 L
3838 2270 L
3841 2242 L
3844 2233 L
3847 2235 L
3850 2164 L
3853 2432 L
3855 2156 L
3858 2199 L
3861 2228 L
3864 2147 L
3867 2115 L
3869 2265 L
3872 2374 L
3875 2263 L
3877 2300 L
3880 2344 L
3882 2488 L
3885 2314 L
3887 2400 L
3890 2514 L
3892 2393 L
3895 2235 L
3897 2272 L
3899 2467 L
3902 2282 L
3904 2275 L
3906 2040 L
3908 2442 L
3911 2113 L
3913 2243 L
3915 2323 L
3917 2259 L
3919 2157 L
3921 2240 L
3923 2375 L
3926 2344 L
3928 2418 L
3930 2497 L
3932 2231 L
3934 2546 L
3936 2268 L
3938 2300 L
3940 2168 L
3942 2302 L
3943 2187 L
3945 2361 L
3947 2208 L
3949 2319 L
3951 2238 L
3953 2296 L
3955 2316 L
3956 2185 L
3958 2400 L
3960 2148 L
3962 2375 L
3963 2307 L
3965 2391 L
3967 2229 L
3969 2099 L
3970 2157 L
3972 2145 L
3974 2256 L
3975 2326 L
3977 2256 L
3978 2198 L
3980 2448 L
3982 2159 L
3983 2472 L
3985 2425 L
3986 1982 L
3988 2147 L
3990 2235 L
3991 2458 L
3993 2170 L
3994 2344 L
3996 2328 L
3997 2131 L
3999 2036 L
4000 2207 L
4001 2261 L
4003 2314 L
4004 2328 L
4006 2231 L
4007 2252 L
4009 2365 L
4010 2157 L
4011 2157 L
4013 2345 L
4014 2319 L
4016 2243 L
4017 2157 L
4018 2236 L
4020 2412 L
4021 2106 L
4022 2015 L
4024 2054 L
4025 2328 L
4026 2258 L
4028 2152 L
4029 2421 L
4030 2314 L
4031 2173 L
4033 2115 L
4034 2147 L
4035 2198 L
4036 2229 L
4038 2163 L
4039 2092 L
4040 2360 L
4041 2161 L
4042 2215 L
4044 2440 L
4045 2198 L
4046 2020 L
4047 2287 L
4048 2067 L
4050 2353 L
4051 2303 L
4052 2243 L
4053 2141 L
4054 2402 L
4055 2106 L
4056 2272 L
4058 2203 L
4059 2407 L
4060 2275 L
4061 2214 L
4062 2270 L
4063 2296 L
4064 2381 L
4065 2240 L
4066 2277 L
L2 C02 COSGR

%
%================
% Legend - Begin
%================
%
GSN 4240 5180 M
4480 5180 L
LWMC SL  C02 COSGR
GSN 4540 5141 M helvM (1.0 uM) show grestore
%
%================
% Legend - End
%================
%

%
% Residuals:
%
GSN 773 750 M
1625 760 L
1773 1000 L
1860 997 L
1922 1167 L
1970 1143 L
2009 1215 L
2043 1253 L
2072 1239 L
2097 1230 L
2120 1318 L
2140 1316 L
2159 1418 L
2176 1349 L
2192 1396 L
2207 1404 L
2221 1425 L
2234 1413 L
2247 1403 L
2259 1421 L
2270 1380 L
2280 1406 L
2290 1480 L
2300 1438 L
2309 1416 L
2318 1517 L
2326 1474 L
2335 1491 L
2342 1475 L
2350 1512 L
2357 1489 L
2364 1422 L
2371 1515 L
2378 1428 L
2384 1545 L
2391 1548 L
2397 1436 L
2403 1555 L
2409 1390 L
2414 1569 L
2420 1502 L
2425 1548 L
2430 1462 L
2435 1545 L
2440 1534 L
2445 1479 L
2450 1473 L
2455 1490 L
2459 1540 L
2464 1508 L
2468 1496 L
2472 1543 L
2476 1489 L
2481 1485 L
2485 1492 L
2489 1502 L
2492 1467 L
2496 1534 L
2500 1510 L
2504 1455 L
2507 1450 L
2511 1559 L
2514 1427 L
2518 1537 L
2521 1433 L
2525 1512 L
2528 1392 L
2531 1463 L
2534 1384 L
2538 1465 L
2541 1474 L
2544 1425 L
2547 1418 L
2550 1490 L
2553 1373 L
2556 1367 L
2559 1491 L
2561 1379 L
2564 1381 L
2567 1426 L
2570 1499 L
2580 1359 L
2590 1354 L
2600 1408 L
2609 1404 L
2618 1388 L
2627 1419 L
2635 1396 L
2643 1328 L
2650 1307 L
2658 1281 L
2665 1320 L
2672 1335 L
2678 1348 L
2685 1232 L
2691 1266 L
2697 1350 L
2703 1316 L
2709 1219 L
2714 1366 L
2720 1338 L
2725 1301 L
2730 1306 L
2735 1279 L
2740 1295 L
2745 1235 L
2750 1168 L
2755 1228 L
2759 1201 L
2764 1278 L
2768 1275 L
2772 1285 L
2777 1258 L
2781 1201 L
2785 1198 L
2789 1277 L
2793 1158 L
2796 1240 L
2800 1117 L
2804 1259 L
2808 1157 L
2811 1166 L
2815 1192 L
2818 1276 L
2822 1204 L
2825 1297 L
2828 1281 L
2831 1125 L
2835 1213 L
2838 1131 L
2841 1224 L
2844 1194 L
2847 1156 L
2850 1068 L
2853 1233 L
2856 1149 L
2859 1170 L
2862 1232 L
2864 1263 L
2867 1183 L
2870 1186 L
2873 1118 L
2875 1131 L
2878 1122 L
2880 1180 L
2883 1194 L
2886 1229 L
2888 1165 L
2891 1237 L
2893 1189 L
2895 1171 L
2898 1171 L
2900 1146 L
2902 1112 L
2905 1147 L
2907 1159 L
2909 1142 L
2912 1127 L
2914 1173 L
2916 1162 L
2918 1181 L
2920 1229 L
2922 1245 L
2925 1256 L
2927 1173 L
2929 1234 L
2931 1304 L
2933 1190 L
2935 1207 L
2937 1182 L
2939 1274 L
2941 1164 L
2943 1178 L
2945 1232 L
2947 1238 L
2948 1213 L
2950 1156 L
2952 1241 L
2954 1249 L
2956 1201 L
2958 1174 L
2959 1243 L
2961 1235 L
2963 1221 L
2965 1142 L
2966 1243 L
2968 1193 L
2970 1217 L
2972 1166 L
2973 1342 L
2975 1269 L
2977 1164 L
2978 1315 L
2980 1171 L
2982 1246 L
2983 1307 L
2985 1249 L
2986 1269 L
2988 1278 L
2989 1306 L
2991 1272 L
2993 1309 L
2994 1141 L
2996 1191 L
2997 1262 L
2999 1230 L
3000 1235 L
3002 1217 L
3003 1250 L
3005 1220 L
3006 1238 L
3007 1249 L
3009 1305 L
3010 1279 L
3012 1258 L
3013 1293 L
3014 1224 L
3016 1250 L
3017 1210 L
3019 1240 L
3020 1233 L
3021 1311 L
3023 1266 L
3024 1239 L
3025 1241 L
3027 1298 L
3028 1367 L
3029 1258 L
3031 1306 L
3032 1195 L
3033 1250 L
3034 1260 L
3036 1266 L
3037 1247 L
3038 1300 L
3039 1320 L
3041 1275 L
3042 1336 L
3043 1237 L
3044 1162 L
3045 1310 L
3047 1217 L
3048 1340 L
3049 1348 L
3050 1289 L
3051 1151 L
3053 1282 L
3054 1354 L
3055 1297 L
3056 1233 L
3057 1307 L
3058 1323 L
3059 1361 L
3061 1277 L
3062 1280 L
3063 1307 L
3064 1327 L
3065 1297 L
3066 1311 L
3067 1299 L
3068 1308 L
3069 1253 L
3070 1282 L
3071 1337 L
3073 1301 L
3074 1268 L
3075 1301 L
3076 1286 L
3077 1279 L
3078 1263 L
3079 1189 L
3080 1237 L
3081 1307 L
3082 1348 L
3083 1299 L
3084 1315 L
3085 1346 L
3086 1270 L
3087 1330 L
3088 1301 L
3089 1271 L
3112 1352 L
3133 1330 L
3152 1453 L
3170 1366 L
3186 1322 L
3201 1318 L
3216 1284 L
3229 1370 L
3241 1322 L
3253 1396 L
3264 1344 L
3275 1420 L
3285 1414 L
3295 1400 L
3304 1457 L
3313 1406 L
3322 1387 L
3330 1404 L
3338 1448 L
3346 1433 L
3353 1364 L
3360 1445 L
3367 1384 L
3374 1377 L
3380 1455 L
3387 1306 L
3393 1416 L
3399 1374 L
3405 1420 L
3410 1444 L
3416 1325 L
3421 1339 L
3426 1430 L
3431 1451 L
3436 1425 L
3441 1351 L
3446 1274 L
3451 1411 L
3455 1328 L
3460 1312 L
3464 1378 L
3469 1435 L
3473 1308 L
3477 1346 L
3481 1390 L
3485 1351 L
3489 1400 L
3493 1405 L
3496 1468 L
3500 1414 L
3504 1456 L
3507 1332 L
3511 1414 L
3514 1379 L
3518 1452 L
3521 1328 L
3525 1289 L
3528 1276 L
3531 1428 L
3534 1352 L
3537 1441 L
3540 1375 L
3543 1374 L
3546 1383 L
3549 1390 L
3552 1386 L
3555 1317 L
3558 1342 L
3561 1389 L
3564 1391 L
3566 1336 L
3575 1295 L
3586 1339 L
3595 1344 L
3605 1308 L
3613 1308 L
3622 1313 L
3630 1326 L
3638 1386 L
3646 1389 L
3653 1317 L
3660 1357 L
3667 1260 L
3674 1308 L
3681 1301 L
3687 1359 L
3693 1395 L
3699 1255 L
3705 1357 L
3710 1267 L
3716 1267 L
3721 1281 L
3727 1301 L
3732 1280 L
3737 1274 L
3742 1319 L
3746 1291 L
3751 1347 L
3756 1268 L
3760 1268 L
3764 1361 L
3769 1245 L
3773 1353 L
3777 1285 L
3781 1336 L
3785 1305 L
3789 1343 L
3793 1259 L
3797 1307 L
3800 1276 L
3804 1262 L
3808 1289 L
3811 1298 L
3815 1346 L
3818 1181 L
3821 1353 L
3825 1270 L
3828 1253 L
3831 1335 L
3834 1241 L
3838 1275 L
3841 1263 L
3844 1259 L
3847 1260 L
3850 1229 L
3853 1345 L
3855 1225 L
3858 1244 L
3861 1257 L
3864 1221 L
3867 1208 L
3869 1273 L
3872 1320 L
3875 1272 L
3877 1288 L
3880 1307 L
3882 1370 L
3885 1294 L
3887 1331 L
3890 1381 L
3892 1328 L
3895 1260 L
3897 1276 L
3899 1361 L
3902 1280 L
3904 1277 L
3906 1175 L
3908 1350 L
3911 1207 L
3913 1264 L
3915 1298 L
3917 1270 L
3919 1226 L
3921 1262 L
3923 1321 L
3926 1307 L
3928 1339 L
3930 1374 L
3932 1258 L
3934 1395 L
3936 1274 L
3938 1288 L
3940 1231 L
3942 1289 L
3943 1239 L
3945 1315 L
3947 1248 L
3949 1297 L
3951 1261 L
3953 1287 L
3955 1295 L
3956 1238 L
3958 1332 L
3960 1222 L
3962 1321 L
3963 1291 L
3965 1328 L
3967 1258 L
3969 1201 L
3970 1226 L
3972 1221 L
3974 1269 L
3975 1300 L
3977 1269 L
3978 1244 L
3980 1352 L
3982 1227 L
3983 1363 L
3985 1342 L
3986 1150 L
3988 1222 L
3990 1260 L
3991 1357 L
3993 1232 L
3994 1307 L
3996 1300 L
3997 1215 L
3999 1174 L
4000 1248 L
4001 1271 L
4003 1294 L
4004 1300 L
4006 1258 L
4007 1268 L
4009 1316 L
4010 1226 L
4011 1226 L
4013 1308 L
4014 1297 L
4016 1264 L
4017 1226 L
4018 1261 L
4020 1337 L
4021 1204 L
4022 1164 L
4024 1181 L
4025 1300 L
4026 1270 L
4028 1224 L
4029 1341 L
4030 1294 L
4031 1233 L
4033 1208 L
4034 1222 L
4035 1244 L
4036 1258 L
4038 1229 L
4039 1198 L
4040 1314 L
4041 1228 L
4042 1252 L
4044 1349 L
4045 1244 L
4046 1167 L
4047 1283 L
4048 1187 L
4050 1311 L
4051 1290 L
4052 1264 L
4053 1219 L
4054 1333 L
4055 1204 L
4056 1276 L
4058 1246 L
4059 1335 L
4060 1278 L
4061 1251 L
4062 1275 L
4063 1287 L
4064 1323 L
4065 1262 L
4066 1278 L
L2 C02 COSGR

%
% Main frame
%
L10
GSN 
620 1700 M
4220 1700 L
4220 5300 L
620 5300 L
closepath SGR

%
% X axis: large tics
%
L10
GSN 1074 1700 M 0  54 rL SGR
GSN 1074 5300 M 0 -54 rL SGR
helvS (0.0001) 1074 470 xlabel
GSN 1572 1700 M 0  54 rL SGR
GSN 1572 5300 M 0 -54 rL SGR
helvS (0.001) 1572 470 xlabel
GSN 2071 1700 M 0  54 rL SGR
GSN 2071 5300 M 0 -54 rL SGR
helvS (0.01) 2071 470 xlabel
GSN 2570 1700 M 0  54 rL SGR
GSN 2570 5300 M 0 -54 rL SGR
helvS (0.1) 2570 470 xlabel
GSN 3068 1700 M 0  54 rL SGR
GSN 3068 5300 M 0 -54 rL SGR
helvS (1) 3068 470 xlabel
GSN 3567 1700 M 0  54 rL SGR
GSN 3567 5300 M 0 -54 rL SGR
helvS (10) 3567 470 xlabel
GSN 4066 1700 M 0  54 rL SGR
GSN 4066 5300 M 0 -54 rL SGR
helvS (100) 4066 470 xlabel
%
% X axis: small tics
%
L5
GSN 725 1700 M 0  36 rL SGR
GSN 725 5300 M 0 -36 rL SGR
GSN 813 1700 M 0  36 rL SGR
GSN 813 5300 M 0 -36 rL SGR
GSN 875 1700 M 0  36 rL SGR
GSN 875 5300 M 0 -36 rL SGR
GSN 924 1700 M 0  36 rL SGR
GSN 924 5300 M 0 -36 rL SGR
GSN 963 1700 M 0  36 rL SGR
GSN 963 5300 M 0 -36 rL SGR
GSN 996 1700 M 0  36 rL SGR
GSN 996 5300 M 0 -36 rL SGR
GSN 1025 1700 M 0  36 rL SGR
GSN 1025 5300 M 0 -36 rL SGR
GSN 1051 1700 M 0  36 rL SGR
GSN 1051 5300 M 0 -36 rL SGR
GSN 1224 1700 M 0  36 rL SGR
GSN 1224 5300 M 0 -36 rL SGR
GSN 1312 1700 M 0  36 rL SGR
GSN 1312 5300 M 0 -36 rL SGR
GSN 1374 1700 M 0  36 rL SGR
GSN 1374 5300 M 0 -36 rL SGR
GSN 1422 1700 M 0  36 rL SGR
GSN 1422 5300 M 0 -36 rL SGR
GSN 1462 1700 M 0  36 rL SGR
GSN 1462 5300 M 0 -36 rL SGR
GSN 1495 1700 M 0  36 rL SGR
GSN 1495 5300 M 0 -36 rL SGR
GSN 1524 1700 M 0  36 rL SGR
GSN 1524 5300 M 0 -36 rL SGR
GSN 1550 1700 M 0  36 rL SGR
GSN 1550 5300 M 0 -36 rL SGR
GSN 1722 1700 M 0  36 rL SGR
GSN 1722 5300 M 0 -36 rL SGR
GSN 1810 1700 M 0  36 rL SGR
GSN 1810 5300 M 0 -36 rL SGR
GSN 1873 1700 M 0  36 rL SGR
GSN 1873 5300 M 0 -36 rL SGR
GSN 1921 1700 M 0  36 rL SGR
GSN 1921 5300 M 0 -36 rL SGR
GSN 1960 1700 M 0  36 rL SGR
GSN 1960 5300 M 0 -36 rL SGR
GSN 1994 1700 M 0  36 rL SGR
GSN 1994 5300 M 0 -36 rL SGR
GSN 2023 1700 M 0  36 rL SGR
GSN 2023 5300 M 0 -36 rL SGR
GSN 2048 1700 M 0  36 rL SGR
GSN 2048 5300 M 0 -36 rL SGR
GSN 2221 1700 M 0  36 rL SGR
GSN 2221 5300 M 0 -36 rL SGR
GSN 2309 1700 M 0  36 rL SGR
GSN 2309 5300 M 0 -36 rL SGR
GSN 2371 1700 M 0  36 rL SGR
GSN 2371 5300 M 0 -36 rL SGR
GSN 2420 1700 M 0  36 rL SGR
GSN 2420 5300 M 0 -36 rL SGR
GSN 2459 1700 M 0  36 rL SGR
GSN 2459 5300 M 0 -36 rL SGR
GSN 2492 1700 M 0  36 rL SGR
GSN 2492 5300 M 0 -36 rL SGR
GSN 2521 1700 M 0  36 rL SGR
GSN 2521 5300 M 0 -36 rL SGR
GSN 2547 1700 M 0  36 rL SGR
GSN 2547 5300 M 0 -36 rL SGR
GSN 2720 1700 M 0  36 rL SGR
GSN 2720 5300 M 0 -36 rL SGR
GSN 2808 1700 M 0  36 rL SGR
GSN 2808 5300 M 0 -36 rL SGR
GSN 2870 1700 M 0  36 rL SGR
GSN 2870 5300 M 0 -36 rL SGR
GSN 2918 1700 M 0  36 rL SGR
GSN 2918 5300 M 0 -36 rL SGR
GSN 2958 1700 M 0  36 rL SGR
GSN 2958 5300 M 0 -36 rL SGR
GSN 2991 1700 M 0  36 rL SGR
GSN 2991 5300 M 0 -36 rL SGR
GSN 3020 1700 M 0  36 rL SGR
GSN 3020 5300 M 0 -36 rL SGR
GSN 3045 1700 M 0  36 rL SGR
GSN 3045 5300 M 0 -36 rL SGR
GSN 3218 1700 M 0  36 rL SGR
GSN 3218 5300 M 0 -36 rL SGR
GSN 3306 1700 M 0  36 rL SGR
GSN 3306 5300 M 0 -36 rL SGR
GSN 3368 1700 M 0  36 rL SGR
GSN 3368 5300 M 0 -36 rL SGR
GSN 3417 1700 M 0  36 rL SGR
GSN 3417 5300 M 0 -36 rL SGR
GSN 3456 1700 M 0  36 rL SGR
GSN 3456 5300 M 0 -36 rL SGR
GSN 3490 1700 M 0  36 rL SGR
GSN 3490 5300 M 0 -36 rL SGR
GSN 3519 1700 M 0  36 rL SGR
GSN 3519 5300 M 0 -36 rL SGR
GSN 3544 1700 M 0  36 rL SGR
GSN 3544 5300 M 0 -36 rL SGR
GSN 3717 1700 M 0  36 rL SGR
GSN 3717 5300 M 0 -36 rL SGR
GSN 3805 1700 M 0  36 rL SGR
GSN 3805 5300 M 0 -36 rL SGR
GSN 3867 1700 M 0  36 rL SGR
GSN 3867 5300 M 0 -36 rL SGR
GSN 3915 1700 M 0  36 rL SGR
GSN 3915 5300 M 0 -36 rL SGR
GSN 3955 1700 M 0  36 rL SGR
GSN 3955 5300 M 0 -36 rL SGR
GSN 3988 1700 M 0  36 rL SGR
GSN 3988 5300 M 0 -36 rL SGR
GSN 4017 1700 M 0  36 rL SGR
GSN 4017 5300 M 0 -36 rL SGR
GSN 4043 1700 M 0  36 rL SGR
GSN 4043 5300 M 0 -36 rL SGR
GSN 4216 1700 M 0  36 rL SGR
GSN 4216 5300 M 0 -36 rL SGR
%
% Y axis: large tics
%
L10
GSN 620 2399 M 54 0 rL SGR
GSN 4220 2399 M -54 0 rL SGR
helvS (1.1) 560 2399 ylabel
GSN 620 3263 M 54 0 rL SGR
GSN 4220 3263 M -54 0 rL SGR
helvS (1.125) 560 3263 ylabel
GSN 620 4127 M 54 0 rL SGR
GSN 4220 4127 M -54 0 rL SGR
helvS (1.15) 560 4127 ylabel
GSN 620 4992 M 54 0 rL SGR
GSN 4220 4992 M -54 0 rL SGR
helvS (1.175) 560 4992 ylabel
%
% Y axis: small tics
%
L5
GSN 620 1707 M 36 0 rL SGR
GSN 4220 1707 M -36 0 rL SGR
GSN 620 2140 M 36 0 rL SGR
GSN 4220 2140 M -36 0 rL SGR
GSN 620 2572 M 36 0 rL SGR
GSN 4220 2572 M -36 0 rL SGR
GSN 620 3004 M 36 0 rL SGR
GSN 4220 3004 M -36 0 rL SGR
GSN 620 3436 M 36 0 rL SGR
GSN 4220 3436 M -36 0 rL SGR
GSN 620 3868 M 36 0 rL SGR
GSN 4220 3868 M -36 0 rL SGR
GSN 620 4300 M 36 0 rL SGR
GSN 4220 4300 M -36 0 rL SGR
GSN 620 4733 M 36 0 rL SGR
GSN 4220 4733 M -36 0 rL SGR
GSN 620 5165 M 36 0 rL SGR
GSN 4220 5165 M -36 0 rL SGR

%
% X-Axis label:
%
gsave 2420 290 M 
[
[(Helvetica) 180 0 true true 0 (t)]
[(Helvetica) 180 0 true true 0 (i)]
[(Helvetica) 180 0 true true 0 (m)]
[(Helvetica) 180 0 true true 0 (e)]
] 0 MCshow grestore

%
% Y-Axis label:
%
gsave 234 3499 M 
currentpoint gsave translate 90 rotate 0 0 moveto
[
[(Helvetica) 180 0 true true 0 (s)]
[(Helvetica) 180 0 true true 0 (i)]
[(Helvetica) 180 0 true true 0 (g)]
[(Helvetica) 180 0 true true 0 (n)]
[(Helvetica) 180 0 true true 0 (a)]
[(Helvetica) 180 0 true true 0 (l)]
] 0 MCshow grestore

%
% Residuals:
%
gsave 129 1160 M 
currentpoint gsave translate 90 rotate 0 0 moveto
[
[(Helvetica) 150 0 true true 0 (r)]
[(Helvetica) 150 0 true true 0 (e)]
[(Helvetica) 150 0 true true 0 (s)]
[(Helvetica) 150 0 true true 0 (i)]
[(Helvetica) 150 0 true true 0 (d)]
[(Helvetica) 150 0 true true 0 (u)]
[(Helvetica) 150 0 true true 0 (a)]
[(Helvetica) 150 0 true true 0 (l)]
[(Helvetica) 150 0 true true 0 (s)]
] 0 MCshow grestore

%
% Residual frame
%
L10
GSN 
620 620 M
4220 620 L
4220 1700 L
620 1700 L
closepath SGR
%
% X axis: large tics - residual frame
%
L10
GSN 1074 620 M 0  54 rL SGR
GSN 1074 1700 M 0 -54 rL SGR
GSN 1572 620 M 0  54 rL SGR
GSN 1572 1700 M 0 -54 rL SGR
GSN 2071 620 M 0  54 rL SGR
GSN 2071 1700 M 0 -54 rL SGR
GSN 2570 620 M 0  54 rL SGR
GSN 2570 1700 M 0 -54 rL SGR
GSN 3068 620 M 0  54 rL SGR
GSN 3068 1700 M 0 -54 rL SGR
GSN 3567 620 M 0  54 rL SGR
GSN 3567 1700 M 0 -54 rL SGR
GSN 4066 620 M 0  54 rL SGR
GSN 4066 1700 M 0 -54 rL SGR
%
% X axis: small tics - residual frame
%
L5
GSN 725 620 M 0  36 rL SGR
GSN 725 1700 M 0 -36 rL SGR
GSN 813 620 M 0  36 rL SGR
GSN 813 1700 M 0 -36 rL SGR
GSN 875 620 M 0  36 rL SGR
GSN 875 1700 M 0 -36 rL SGR
GSN 924 620 M 0  36 rL SGR
GSN 924 1700 M 0 -36 rL SGR
GSN 963 620 M 0  36 rL SGR
GSN 963 1700 M 0 -36 rL SGR
GSN 996 620 M 0  36 rL SGR
GSN 996 1700 M 0 -36 rL SGR
GSN 1025 620 M 0  36 rL SGR
GSN 1025 1700 M 0 -36 rL SGR
GSN 1051 620 M 0  36 rL SGR
GSN 1051 1700 M 0 -36 rL SGR
GSN 1224 620 M 0  36 rL SGR
GSN 1224 1700 M 0 -36 rL SGR
GSN 1312 620 M 0  36 rL SGR
GSN 1312 1700 M 0 -36 rL SGR
GSN 1374 620 M 0  36 rL SGR
GSN 1374 1700 M 0 -36 rL SGR
GSN 1422 620 M 0  36 rL SGR
GSN 1422 1700 M 0 -36 rL SGR
GSN 1462 620 M 0  36 rL SGR
GSN 1462 1700 M 0 -36 rL SGR
GSN 1495 620 M 0  36 rL SGR
GSN 1495 1700 M 0 -36 rL SGR
GSN 1524 620 M 0  36 rL SGR
GSN 1524 1700 M 0 -36 rL SGR
GSN 1550 620 M 0  36 rL SGR
GSN 1550 1700 M 0 -36 rL SGR
GSN 1722 620 M 0  36 rL SGR
GSN 1722 1700 M 0 -36 rL SGR
GSN 1810 620 M 0  36 rL SGR
GSN 1810 1700 M 0 -36 rL SGR
GSN 1873 620 M 0  36 rL SGR
GSN 1873 1700 M 0 -36 rL SGR
GSN 1921 620 M 0  36 rL SGR
GSN 1921 1700 M 0 -36 rL SGR
GSN 1960 620 M 0  36 rL SGR
GSN 1960 1700 M 0 -36 rL SGR
GSN 1994 620 M 0  36 rL SGR
GSN 1994 1700 M 0 -36 rL SGR
GSN 2023 620 M 0  36 rL SGR
GSN 2023 1700 M 0 -36 rL SGR
GSN 2048 620 M 0  36 rL SGR
GSN 2048 1700 M 0 -36 rL SGR
GSN 2221 620 M 0  36 rL SGR
GSN 2221 1700 M 0 -36 rL SGR
GSN 2309 620 M 0  36 rL SGR
GSN 2309 1700 M 0 -36 rL SGR
GSN 2371 620 M 0  36 rL SGR
GSN 2371 1700 M 0 -36 rL SGR
GSN 2420 620 M 0  36 rL SGR
GSN 2420 1700 M 0 -36 rL SGR
GSN 2459 620 M 0  36 rL SGR
GSN 2459 1700 M 0 -36 rL SGR
GSN 2492 620 M 0  36 rL SGR
GSN 2492 1700 M 0 -36 rL SGR
GSN 2521 620 M 0  36 rL SGR
GSN 2521 1700 M 0 -36 rL SGR
GSN 2547 620 M 0  36 rL SGR
GSN 2547 1700 M 0 -36 rL SGR
GSN 2720 620 M 0  36 rL SGR
GSN 2720 1700 M 0 -36 rL SGR
GSN 2808 620 M 0  36 rL SGR
GSN 2808 1700 M 0 -36 rL SGR
GSN 2870 620 M 0  36 rL SGR
GSN 2870 1700 M 0 -36 rL SGR
GSN 2918 620 M 0  36 rL SGR
GSN 2918 1700 M 0 -36 rL SGR
GSN 2958 620 M 0  36 rL SGR
GSN 2958 1700 M 0 -36 rL SGR
GSN 2991 620 M 0  36 rL SGR
GSN 2991 1700 M 0 -36 rL SGR
GSN 3020 620 M 0  36 rL SGR
GSN 3020 1700 M 0 -36 rL SGR
GSN 3045 620 M 0  36 rL SGR
GSN 3045 1700 M 0 -36 rL SGR
GSN 3218 620 M 0  36 rL SGR
GSN 3218 1700 M 0 -36 rL SGR
GSN 3306 620 M 0  36 rL SGR
GSN 3306 1700 M 0 -36 rL SGR
GSN 3368 620 M 0  36 rL SGR
GSN 3368 1700 M 0 -36 rL SGR
GSN 3417 620 M 0  36 rL SGR
GSN 3417 1700 M 0 -36 rL SGR
GSN 3456 620 M 0  36 rL SGR
GSN 3456 1700 M 0 -36 rL SGR
GSN 3490 620 M 0  36 rL SGR
GSN 3490 1700 M 0 -36 rL SGR
GSN 3519 620 M 0  36 rL SGR
GSN 3519 1700 M 0 -36 rL SGR
GSN 3544 620 M 0  36 rL SGR
GSN 3544 1700 M 0 -36 rL SGR
GSN 3717 620 M 0  36 rL SGR
GSN 3717 1700 M 0 -36 rL SGR
GSN 3805 620 M 0  36 rL SGR
GSN 3805 1700 M 0 -36 rL SGR
GSN 3867 620 M 0  36 rL SGR
GSN 3867 1700 M 0 -36 rL SGR
GSN 3915 620 M 0  36 rL SGR
GSN 3915 1700 M 0 -36 rL SGR
GSN 3955 620 M 0  36 rL SGR
GSN 3955 1700 M 0 -36 rL SGR
GSN 3988 620 M 0  36 rL SGR
GSN 3988 1700 M 0 -36 rL SGR
GSN 4017 620 M 0  36 rL SGR
GSN 4017 1700 M 0 -36 rL SGR
GSN 4043 620 M 0  36 rL SGR
GSN 4043 1700 M 0 -36 rL SGR
GSN 4216 620 M 0  36 rL SGR
GSN 4216 1700 M 0 -36 rL SGR
%
% Y axis: large tics - residual frame
%
L10
GSN 620 702 M 54 0 rL SGR
GSN 4220 702 M -54 0 rL SGR
helvS (-0.04) 560 702 ylabelresid
GSN 620 1002 M 54 0 rL SGR
GSN 4220 1002 M -54 0 rL SGR
helvS (-0.02) 560 1002 ylabelresid
GSN 620 1303 M 54 0 rL SGR
GSN 4220 1303 M -54 0 rL SGR
helvS (0) 560 1303 ylabelresid
GSN 620 1603 M 54 0 rL SGR
GSN 4220 1603 M -54 0 rL SGR
helvS (0.02) 560 1603 ylabelresid

%
% X axis - residual panel
%
GSN L5 620 1303 M 4220 1303 L SDA G50 SGR

end
showpage
%%Trailer
%%EOF
