%!PS-Adobe-3.0 EPSF-3.0
%%BoundingBox: 0 0 514 550
%%Creator: BioKin Ltd.
%%DocumentFonts: Symbol Helvetica
%%EndComments
%
/bkdict 256 dict def
bkdict begin
/M {moveto} def 
/R {rmoveto} def
/L {lineto} def
/rL {rlineto} def
/GSN {gsave newpath} def
/SGR {stroke grestore} def
/COSGR {gsave setrgbcolor stroke grestore grestore} def
/SL {setlinewidth} def
/LWMB {12} def             % line width - model curves, black & white
/LWMC {10} def             % line width - model curves, color
/L2 {2.5 setlinewidth} def
/L5 {5 setlinewidth} def
/L10 {10 setlinewidth} def
/G50 {0.5 setgray} def
/SDA {[10  20] 0 setdash} def % axes
/helvT {/Helvetica findfont 100 scalefont setfont} def % tiny
/helvS {/Helvetica findfont 125 scalefont setfont} def % small
/helvM {/Helvetica findfont 150 scalefont setfont} def % medium
/helvL {/Helvetica findfont 175 scalefont setfont} def % large
/xlabel {gsave M dup
   stringwidth exch -0.5 mul exch rmoveto show grestore} def 
/ylabel {gsave M 90 rotate dup
   stringwidth exch -0.5 mul exch rmoveto show grestore} def
/ylabelresid {gsave M dup
   stringwidth exch -1 mul exch rmoveto show grestore} def
% ======
% Shapes
% ======
% Circle:
/Circ {0 360 arc closepath} def
%
% Square:
/Squa {dup dup -0.5 mul dup dup R -2 mul 0 exch rL 1 mul 0 rL dup 0 exch -1 mul rL closepath} def
%
% Triangle Up:
/TriU {dup dup dup -0.4 mul exch -0.5 mul exch R dup 0.5 mul exch rL dup -1 mul exch 0.5 mul exch rL closepath} def 
%
% Triangle Down:
/TriD {dup dup dup 0.4 mul exch -0.5 mul exch R dup 0.5 mul exch -1 mul rL dup 0.5 mul exch rL closepath} def 
%
% Diamond:
/Diam {45 rotate Squa} def
% ======
% Fills
% ======
/GRF {gsave setgray fill grestore} def                    % gray-level Fill
/COF {gsave setrgbcolor fill grestore} def                % color fill
% ======
% Colors
% ======
/C01 {1.00	0.00	0.00} def      % Red
/C02 {0.00	0.00	1.00} def      % Blue
/C03 {0.00	0.39	0.00} def      % Dark Green
/C04 {0.78	0.08	0.52} def      % Medium Violet Red
/C05 {0.55	0.27	0.07} def      % Saddle Brown
/C06 {0.10	0.70	0.70} def      % (cyan)
/C07 {1.00	0.55	0.00} def      % Dark Orange
/C08 {0.63	0.13	0.94} def      % Purple
/C09 {0.00	0.75	1.00} def      % Deep Sky Blue
/C10 {0.20	0.80	0.20} def      % Lime Green
/C11 {0.47	0.53	0.60} def      % Light Slate Gray
/C12 {0.00	0.00	0.00} def      % Black            % or: {0.19	0.31	0.31} def      % Dark Slate Gray
%
/LGR {0.75} def % light gray
/DGR {0.33} def % dark gray
%
% =============
% Dash patterns
% =============
/dash01 { [80  20] 0 setdash } def
/dash02 { [40  20] 0 setdash } def
/dash03 { [80  20  10  20] 0 setdash } def
/dash04 { [40  20  10  20] 0 setdash } def
/dash05 { [80  20  10  10  10  20] 0 setdash } def
/dash06 { [40  20  10  10  10  20] 0 setdash } def
/dash07 { [10  10] 0 setdash } def
%
/MFshow {
   { dup 5 get 3 ge
     { 5 get 3 eq {gsave} {grestore} ifelse }
     {dup dup 0 get findfont exch 1 get scalefont setfont
     [ currentpoint ] exch dup 2 get 0 exch R dup 5 get 2 ne {dup dup 6
     get exch 4 get {show} {stringwidth pop 0 R} ifelse }if dup 5 get 0 eq
     {dup 3 get {2 get neg 0 exch R pop} {pop aload pop M} ifelse} {dup 5
     get 1 eq {dup 2 get exch dup 3 get exch 6 get stringwidth pop -2 div
     dup 0 R} {dup 6 get stringwidth pop -2 div 0 R 6 get
     show 2 index {aload pop M neg 3 -1 roll neg R pop pop} {pop pop pop
     pop aload pop M} ifelse }ifelse }ifelse }
     ifelse }
   forall} bind def
/MFwidth {0 exch {dup 3 get{dup dup 0 get findfont exch 1 get scalefont
     setfont 6 get stringwidth pop add} {pop} ifelse} forall} bind def
/MCshow { currentpoint stroke M
  exch dup MFwidth -2 div 3 -1 roll R MFshow } def
%
end
%%EndProlog
bkdict begin
0.1 0.1 scale
%
% Residuals:
%
GSN 620 4480 M
620 3442 L
620 3002 L
620 3828 L
620 3789 L
620 3308 L
620 3299 L
620 3304 L
620 3483 L
620 3434 L
620 3041 L
620 3607 L
620 2984 L
620 3119 L
620 4001 L
620 3336 L
620 3496 L
620 3040 L
620 3223 L
620 3308 L
620 3339 L
620 3068 L
620 2864 L
620 3072 L
620 3759 L
620 3246 L
620 3506 L
620 3303 L
620 3573 L
620 3576 L
620 3652 L
620 3420 L
620 3194 L
620 2939 L
620 3313 L
620 3334 L
620 3116 L
620 3585 L
620 3925 L
620 3706 L
620 3645 L
620 3330 L
620 3792 L
620 3114 L
620 3254 L
620 3485 L
620 3663 L
620 3527 L
620 3589 L
620 3604 L
620 3282 L
620 3377 L
620 3431 L
620 3214 L
620 2663 L
620 3863 L
620 3353 L
620 3480 L
620 3345 L
620 4008 L
620 3475 L
620 3228 L
620 4404 L
620 3184 L
620 3797 L
620 3696 L
620 3391 L
620 3585 L
620 3497 L
620 4021 L
620 3679 L
620 3194 L
620 3989 L
620 4403 L
620 3761 L
620 3692 L
620 3973 L
620 3321 L
620 3714 L
620 3802 L
620 3730 L
620 3350 L
620 3585 L
620 4216 L
620 3376 L
620 3612 L
620 3955 L
620 3845 L
620 3589 L
620 3419 L
620 3472 L
620 3614 L
620 2783 L
620 3569 L
620 3264 L
620 4100 L
620 3294 L
620 3616 L
620 2854 L
620 3231 L
620 3319 L
620 3041 L
620 3573 L
620 3169 L
620 3663 L
620 3722 L
620 3356 L
620 3029 L
620 3050 L
620 3709 L
620 3280 L
620 3148 L
620 3220 L
620 3530 L
620 3201 L
620 3354 L
620 3093 L
620 3504 L
620 3542 L
620 3389 L
620 3460 L
620 3493 L
620 3009 L
620 3905 L
620 3660 L
620 2635 L
620 3517 L
620 3359 L
620 3635 L
620 3273 L
620 3392 L
620 3044 L
620 3431 L
620 3441 L
620 3934 L
620 2837 L
620 3349 L
620 3629 L
620 3687 L
620 3604 L
620 3543 L
620 2994 L
620 3062 L
620 3427 L
620 3209 L
620 3394 L
620 3488 L
620 3390 L
620 3482 L
620 3530 L
620 3076 L
620 3507 L
620 3270 L
620 3047 L
620 3660 L
620 3713 L
620 3092 L
620 3138 L
620 3750 L
620 3602 L
620 3554 L
620 3546 L
620 3003 L
620 3516 L
620 3677 L
620 3555 L
620 3168 L
620 3218 L
620 3231 L
620 3539 L
620 3550 L
620 3535 L
620 3186 L
620 3812 L
620 3613 L
620 2922 L
620 3826 L
620 3137 L
620 3204 L
620 3406 L
620 3301 L
620 3665 L
620 3353 L
620 3639 L
620 3621 L
620 3480 L
620 3349 L
620 3585 L
620 3115 L
620 3417 L
620 3897 L
620 2998 L
620 3925 L
620 3266 L
620 2846 L
620 3342 L
620 3882 L
620 2847 L
620 3100 L
620 3573 L
620 3706 L
620 3227 L
620 3113 L
620 3163 L
620 3861 L
620 3413 L
620 3573 L
620 3718 L
620 3713 L
620 3670 L
620 4035 L
620 3597 L
620 3903 L
620 3625 L
620 3669 L
620 2963 L
620 3310 L
620 3785 L
620 2867 L
620 3371 L
620 3431 L
620 3308 L
620 3837 L
620 3416 L
620 3608 L
620 3522 L
620 3538 L
620 3417 L
620 3484 L
620 3897 L
620 3201 L
620 3453 L
620 3193 L
620 3187 L
620 3548 L
620 3195 L
620 3616 L
620 3419 L
620 3713 L
620 3613 L
620 3989 L
620 3910 L
620 3674 L
620 3730 L
620 3380 L
620 3470 L
620 3122 L
620 3706 L
620 3542 L
620 3234 L
620 3696 L
620 3567 L
620 3770 L
620 3166 L
620 3224 L
620 4263 L
620 4163 L
620 3231 L
620 3659 L
620 3944 L
620 3616 L
620 3575 L
620 3730 L
620 3553 L
620 4121 L
620 3202 L
620 3575 L
620 3649 L
620 3406 L
620 3689 L
620 3731 L
620 3737 L
620 3563 L
620 3887 L
620 3734 L
620 3347 L
620 3384 L
620 3842 L
620 3722 L
620 3778 L
620 3437 L
620 4213 L
620 3541 L
620 3664 L
620 4291 L
620 3798 L
620 4267 L
620 4240 L
620 4504 L
620 3721 L
620 4325 L
620 4178 L
620 4349 L
620 3807 L
620 3981 L
620 3650 L
620 3841 L
620 4582 L
620 4073 L
620 4335 L
620 3903 L
620 3642 L
620 3691 L
620 3442 L
620 3897 L
620 4085 L
620 4315 L
620 3673 L
620 3941 L
620 4863 L
620 3750 L
620 4037 L
620 3783 L
620 4578 L
620 3402 L
620 4276 L
620 4099 L
620 4509 L
620 3958 L
620 3922 L
620 3975 L
620 3829 L
620 4588 L
620 4322 L
620 3781 L
620 3594 L
620 3644 L
620 3857 L
620 4544 L
620 3814 L
620 3941 L
620 3905 L
620 4422 L
620 4197 L
620 3673 L
620 4171 L
620 3814 L
620 4097 L
620 3735 L
620 4075 L
620 4149 L
620 3996 L
620 3773 L
620 4528 L
620 3752 L
620 4453 L
620 3855 L
620 3939 L
620 4128 L
620 2962 L
620 3630 L
620 3886 L
620 3912 L
620 4212 L
620 4137 L
620 4164 L
620 3812 L
620 3426 L
620 3929 L
620 3876 L
620 4094 L
620 3623 L
620 3675 L
620 3266 L
620 3941 L
620 3814 L
620 3513 L
620 3821 L
620 3546 L
620 4216 L
620 3474 L
620 4568 L
620 3951 L
620 3261 L
620 3896 L
620 3606 L
620 3726 L
620 4415 L
620 3311 L
620 3345 L
620 3874 L
620 3671 L
620 3414 L
620 3666 L
620 3903 L
620 3726 L
620 3151 L
620 3584 L
620 2713 L
620 3252 L
620 3697 L
620 3714 L
620 3405 L
620 3022 L
620 3853 L
620 3295 L
620 2742 L
620 4128 L
620 3094 L
620 3041 L
620 4204 L
620 3369 L
620 3077 L
620 3568 L
620 3311 L
620 3165 L
620 3824 L
620 3752 L
620 3436 L
620 3283 L
620 3393 L
620 3015 L
620 3029 L
620 3335 L
620 3151 L
620 3405 L
620 3477 L
620 3024 L
620 3185 L
620 3596 L
620 2646 L
620 4080 L
620 3278 L
620 3860 L
620 3728 L
620 3074 L
620 3319 L
620 3141 L
620 3448 L
620 3390 L
620 2897 L
620 2854 L
620 3699 L
620 2924 L
620 3283 L
620 3486 L
620 3058 L
620 3110 L
620 3180 L
620 3096 L
620 2938 L
620 2931 L
620 3426 L
620 3060 L
620 3264 L
620 2584 L
620 3218 L
620 3206 L
620 2892 L
620 3038 L
620 3096 L
620 3532 L
620 3462 L
620 3170 L
620 2919 L
620 2730 L
620 3290 L
620 3414 L
620 3048 L
620 2900 L
620 2952 L
620 3821 L
620 3445 L
620 3067 L
620 2713 L
620 2651 L
620 3395 L
620 3323 L
620 3323 L
620 3460 L
620 3283 L
620 3007 L
620 2785 L
620 3110 L
620 2763 L
620 2842 L
620 3287 L
620 3541 L
620 2926 L
620 2859 L
620 2993 L
620 3568 L
620 2940 L
620 2892 L
620 3510 L
620 3556 L
620 3108 L
620 3625 L
620 2241 L
620 2320 L
620 3477 L
620 3170 L
620 2517 L
620 3220 L
620 3091 L
620 3754 L
620 3192 L
620 3678 L
620 2629 L
620 3666 L
620 3127 L
620 3213 L
620 3168 L
620 3110 L
620 2854 L
620 3003 L
620 2979 L
620 3000 L
620 3125 L
620 2766 L
620 2284 L
620 3374 L
620 2775 L
620 2603 L
620 2871 L
620 2983 L
620 3230 L
620 3287 L
620 2473 L
620 3247 L
620 3182 L
620 2773 L
620 3194 L
620 2651 L
620 2713 L
620 3347 L
620 2981 L
620 3034 L
620 2529 L
620 3120 L
620 2136 L
620 2794 L
620 3127 L
L2 C05 COSGR

%
%================
% Legend - Begin
%================
%
GSN 4240 5180 M
4480 5180 L
LWMC SL  C05 COSGR
GSN 4540 5141 M helvM (2.5 uM) show grestore
%
%================
% Legend - End
%================
%

%
% Main frame
%
L10
GSN 
620 1700 M
4220 1700 L
4220 5300 L
620 5300 L
closepath SGR

%
% X axis: large tics
%
L10
%
% X axis: small tics
%
L5
%
% Y axis: large tics
%
L10
GSN 620 2224 M 54 0 rL SGR
GSN 4220 2224 M -54 0 rL SGR
helvS (-0.01) 560 2224 ylabel
GSN 620 3479 M 54 0 rL SGR
GSN 4220 3479 M -54 0 rL SGR
helvS (0) 560 3479 ylabel
GSN 620 4735 M 54 0 rL SGR
GSN 4220 4735 M -54 0 rL SGR
helvS (0.01) 560 4735 ylabel
%
% Y axis: small tics
%
L5
GSN 620 1910 M 36 0 rL SGR
GSN 4220 1910 M -36 0 rL SGR
GSN 620 2224 M 36 0 rL SGR
GSN 4220 2224 M -36 0 rL SGR
GSN 620 2538 M 36 0 rL SGR
GSN 4220 2538 M -36 0 rL SGR
GSN 620 2852 M 36 0 rL SGR
GSN 4220 2852 M -36 0 rL SGR
GSN 620 3166 M 36 0 rL SGR
GSN 4220 3166 M -36 0 rL SGR
GSN 620 3479 M 36 0 rL SGR
GSN 4220 3479 M -36 0 rL SGR
GSN 620 3793 M 36 0 rL SGR
GSN 4220 3793 M -36 0 rL SGR
GSN 620 4107 M 36 0 rL SGR
GSN 4220 4107 M -36 0 rL SGR
GSN 620 4421 M 36 0 rL SGR
GSN 4220 4421 M -36 0 rL SGR
GSN 620 4735 M 36 0 rL SGR
GSN 4220 4735 M -36 0 rL SGR
GSN 620 5048 M 36 0 rL SGR
GSN 4220 5048 M -36 0 rL SGR

%
% X axis - residual panel
%
GSN L5 620 3479 M 4220 3479 L SDA G50 SGR

%
% X-Axis label:
%
gsave 620 1370 M 
[
[(Helvetica) 180 0 true true 0 (t)]
[(Helvetica) 180 0 true true 0 (i)]
[(Helvetica) 180 0 true true 0 (m)]
[(Helvetica) 180 0 true true 0 (e)]
] 0 MCshow grestore

%
% Y-Axis label:
%
gsave 234 3499 M 
currentpoint gsave translate 90 rotate 0 0 moveto
[
[(Helvetica) 180 0 true true 0 (r)]
[(Helvetica) 180 0 true true 0 (e)]
[(Helvetica) 180 0 true true 0 (s)]
[(Helvetica) 180 0 true true 0 (i)]
[(Helvetica) 180 0 true true 0 (d)]
[(Helvetica) 180 0 true true 0 (u)]
[(Helvetica) 180 0 true true 0 (a)]
[(Helvetica) 180 0 true true 0 (l)]
[(Helvetica) 180 0 true true 0 (s)]
] 0 MCshow grestore

end
showpage
%%Trailer
%%EOF
