%!PS-Adobe-3.0 EPSF-3.0
%%BoundingBox: 0 0 514 550
%%Creator: BioKin Ltd.
%%DocumentFonts: Symbol Helvetica
%%EndComments
%
/bkdict 256 dict def
bkdict begin
/M {moveto} def 
/R {rmoveto} def
/L {lineto} def
/rL {rlineto} def
/GSN {gsave newpath} def
/SGR {stroke grestore} def
/COSGR {gsave setrgbcolor stroke grestore grestore} def
/SL {setlinewidth} def
/LWMB {12} def             % line width - model curves, black & white
/LWMC {10} def             % line width - model curves, color
/L2 {2.5 setlinewidth} def
/L5 {5 setlinewidth} def
/L10 {10 setlinewidth} def
/G50 {0.5 setgray} def
/SDA {[10  20] 0 setdash} def % axes
/helvT {/Helvetica findfont 100 scalefont setfont} def % tiny
/helvS {/Helvetica findfont 125 scalefont setfont} def % small
/helvM {/Helvetica findfont 150 scalefont setfont} def % medium
/helvL {/Helvetica findfont 175 scalefont setfont} def % large
/xlabel {gsave M dup
   stringwidth exch -0.5 mul exch rmoveto show grestore} def 
/ylabel {gsave M 90 rotate dup
   stringwidth exch -0.5 mul exch rmoveto show grestore} def
/ylabelresid {gsave M dup
   stringwidth exch -1 mul exch rmoveto show grestore} def
% ======
% Shapes
% ======
% Circle:
/Circ {0 360 arc closepath} def
%
% Square:
/Squa {dup dup -0.5 mul dup dup R -2 mul 0 exch rL 1 mul 0 rL dup 0 exch -1 mul rL closepath} def
%
% Triangle Up:
/TriU {dup dup dup -0.4 mul exch -0.5 mul exch R dup 0.5 mul exch rL dup -1 mul exch 0.5 mul exch rL closepath} def 
%
% Triangle Down:
/TriD {dup dup dup 0.4 mul exch -0.5 mul exch R dup 0.5 mul exch -1 mul rL dup 0.5 mul exch rL closepath} def 
%
% Diamond:
/Diam {45 rotate Squa} def
% ======
% Fills
% ======
/GRF {gsave setgray fill grestore} def                    % gray-level Fill
/COF {gsave setrgbcolor fill grestore} def                % color fill
% ======
% Colors
% ======
/C01 {1.00	0.00	0.00} def      % Red
/C02 {0.00	0.00	1.00} def      % Blue
/C03 {0.00	0.39	0.00} def      % Dark Green
/C04 {0.78	0.08	0.52} def      % Medium Violet Red
/C05 {0.55	0.27	0.07} def      % Saddle Brown
/C06 {0.10	0.70	0.70} def      % (cyan)
/C07 {1.00	0.55	0.00} def      % Dark Orange
/C08 {0.63	0.13	0.94} def      % Purple
/C09 {0.00	0.75	1.00} def      % Deep Sky Blue
/C10 {0.20	0.80	0.20} def      % Lime Green
/C11 {0.47	0.53	0.60} def      % Light Slate Gray
/C12 {0.00	0.00	0.00} def      % Black            % or: {0.19	0.31	0.31} def      % Dark Slate Gray
%
/LGR {0.75} def % light gray
/DGR {0.33} def % dark gray
%
% =============
% Dash patterns
% =============
/dash01 { [80  20] 0 setdash } def
/dash02 { [40  20] 0 setdash } def
/dash03 { [80  20  10  20] 0 setdash } def
/dash04 { [40  20  10  20] 0 setdash } def
/dash05 { [80  20  10  10  10  20] 0 setdash } def
/dash06 { [40  20  10  10  10  20] 0 setdash } def
/dash07 { [10  10] 0 setdash } def
%
/MFshow {
   { dup 5 get 3 ge
     { 5 get 3 eq {gsave} {grestore} ifelse }
     {dup dup 0 get findfont exch 1 get scalefont setfont
     [ currentpoint ] exch dup 2 get 0 exch R dup 5 get 2 ne {dup dup 6
     get exch 4 get {show} {stringwidth pop 0 R} ifelse }if dup 5 get 0 eq
     {dup 3 get {2 get neg 0 exch R pop} {pop aload pop M} ifelse} {dup 5
     get 1 eq {dup 2 get exch dup 3 get exch 6 get stringwidth pop -2 div
     dup 0 R} {dup 6 get stringwidth pop -2 div 0 R 6 get
     show 2 index {aload pop M neg 3 -1 roll neg R pop pop} {pop pop pop
     pop aload pop M} ifelse }ifelse }ifelse }
     ifelse }
   forall} bind def
/MFwidth {0 exch {dup 3 get{dup dup 0 get findfont exch 1 get scalefont
     setfont 6 get stringwidth pop add} {pop} ifelse} forall} bind def
/MCshow { currentpoint stroke M
  exch dup MFwidth -2 div 3 -1 roll R MFshow } def
%
end
%%EndProlog
bkdict begin
0.1 0.1 scale
%
% Residuals:
%
GSN 620 4363 M
620 4229 L
620 4294 L
620 4863 L
620 4426 L
620 4574 L
620 4275 L
620 4412 L
620 4471 L
620 4457 L
620 4473 L
620 4456 L
620 4254 L
620 4335 L
620 4336 L
620 4247 L
620 4407 L
620 4024 L
620 4318 L
620 4332 L
620 4365 L
620 4261 L
620 4180 L
620 4374 L
620 4332 L
620 4263 L
620 4221 L
620 4221 L
620 4253 L
620 4147 L
620 4118 L
620 4185 L
620 4255 L
620 4236 L
620 4230 L
620 4139 L
620 4203 L
620 4104 L
620 3932 L
620 3985 L
620 4001 L
620 4289 L
620 4103 L
620 4132 L
620 4113 L
620 3959 L
620 4044 L
620 4068 L
620 3896 L
620 3870 L
620 4067 L
620 4101 L
620 4112 L
620 4232 L
620 4081 L
620 3940 L
620 4115 L
620 3797 L
620 4036 L
620 3942 L
620 3867 L
620 3987 L
620 3870 L
620 4005 L
620 3928 L
620 3931 L
620 3872 L
620 4026 L
620 3976 L
620 3934 L
620 3890 L
620 3876 L
620 3925 L
620 3988 L
620 3724 L
620 3798 L
620 3892 L
620 3831 L
620 3772 L
620 3873 L
620 3826 L
620 3881 L
620 3761 L
620 3712 L
620 3940 L
620 3688 L
620 3820 L
620 3727 L
620 3682 L
620 3785 L
620 3734 L
620 3833 L
620 3822 L
620 3869 L
620 3743 L
620 3745 L
620 3675 L
620 3794 L
620 3649 L
620 3624 L
620 3778 L
620 3746 L
620 3628 L
620 3880 L
620 3710 L
620 3803 L
620 3640 L
620 3575 L
620 3577 L
620 3662 L
620 3635 L
620 3941 L
620 3752 L
620 3804 L
620 3617 L
620 3594 L
620 3832 L
620 3653 L
620 3688 L
620 3662 L
620 3529 L
620 3503 L
620 3713 L
620 3713 L
620 3583 L
620 3573 L
620 3561 L
620 3639 L
620 3634 L
620 3764 L
620 3761 L
620 3435 L
620 3534 L
620 3526 L
620 3521 L
620 3704 L
620 3690 L
620 3704 L
620 3570 L
620 3524 L
620 3560 L
620 3548 L
620 3434 L
620 3469 L
620 3572 L
620 3547 L
620 3450 L
620 3638 L
620 3448 L
620 3405 L
620 3510 L
620 3559 L
620 3434 L
620 3425 L
620 3489 L
620 3499 L
620 3540 L
620 3364 L
620 3527 L
620 3517 L
620 3504 L
620 3664 L
620 3386 L
620 3349 L
620 3389 L
620 3564 L
620 3351 L
620 3455 L
620 3375 L
620 3462 L
620 3264 L
620 3398 L
620 3423 L
620 3533 L
620 3322 L
620 3560 L
620 3336 L
620 3171 L
620 3274 L
620 3284 L
620 3320 L
620 3311 L
620 3489 L
620 3367 L
620 3265 L
620 3320 L
620 3331 L
620 3434 L
620 3234 L
620 3294 L
620 3255 L
620 3321 L
620 3277 L
620 3228 L
620 3290 L
620 3343 L
620 3145 L
620 3200 L
620 3209 L
620 3361 L
620 3336 L
620 3198 L
620 3422 L
620 3122 L
620 3302 L
620 3119 L
620 3257 L
620 3265 L
620 3121 L
620 3244 L
620 3296 L
620 3129 L
620 3286 L
620 3322 L
620 3332 L
620 3286 L
620 3248 L
620 3262 L
620 3294 L
620 3060 L
620 3153 L
620 3146 L
620 3137 L
620 3325 L
620 3346 L
620 3231 L
620 3222 L
620 3233 L
620 2937 L
620 3122 L
620 3317 L
620 3337 L
620 3181 L
620 3162 L
620 3121 L
620 3293 L
620 3208 L
620 3328 L
620 3177 L
620 3056 L
620 3092 L
620 3177 L
620 3167 L
620 3136 L
620 3259 L
620 3133 L
620 3069 L
620 3062 L
620 3171 L
620 3104 L
620 3149 L
620 3211 L
620 3104 L
620 3192 L
620 3102 L
620 3062 L
620 3015 L
620 3105 L
620 3136 L
620 3146 L
620 3035 L
620 2936 L
620 3158 L
620 3184 L
620 3028 L
620 3118 L
620 3049 L
620 2911 L
620 3019 L
620 3134 L
620 3143 L
620 3079 L
620 3033 L
620 3226 L
620 2985 L
620 3035 L
620 3114 L
620 3013 L
620 3139 L
620 3097 L
620 2959 L
620 2907 L
620 2866 L
620 3072 L
620 2890 L
620 2969 L
620 2994 L
620 3142 L
620 3010 L
620 3088 L
620 2963 L
620 3038 L
620 3007 L
620 2956 L
620 2897 L
620 3118 L
620 2830 L
620 3023 L
620 2878 L
620 3097 L
620 2986 L
620 3079 L
620 3165 L
620 2883 L
620 2943 L
620 3092 L
620 2944 L
620 2862 L
620 2926 L
620 3059 L
620 3090 L
620 2943 L
620 3051 L
620 3006 L
620 2848 L
620 2961 L
620 3063 L
620 3017 L
620 2954 L
620 2898 L
620 2970 L
620 2988 L
620 2895 L
620 2916 L
620 3003 L
620 2873 L
620 2948 L
620 2998 L
620 2898 L
620 2862 L
620 2856 L
620 2758 L
620 3030 L
620 2761 L
620 2862 L
620 3028 L
620 2907 L
620 2874 L
620 2798 L
620 2857 L
620 2956 L
620 2897 L
620 2883 L
620 2991 L
620 2873 L
620 3033 L
620 2925 L
620 2962 L
620 2883 L
620 2917 L
620 2807 L
620 2912 L
620 3067 L
620 2798 L
620 3019 L
620 2900 L
620 2842 L
620 2817 L
620 2938 L
620 2841 L
620 2932 L
620 2939 L
620 2786 L
620 2900 L
620 3016 L
620 2950 L
620 2883 L
620 2732 L
620 2777 L
620 2862 L
620 2916 L
620 2925 L
620 2755 L
620 2807 L
620 2779 L
620 2884 L
620 2812 L
620 2725 L
620 3010 L
620 2905 L
620 2794 L
620 2791 L
620 2996 L
620 2763 L
620 2675 L
620 2792 L
620 2872 L
620 2909 L
620 2925 L
620 2771 L
620 2867 L
620 2880 L
620 2723 L
620 2827 L
620 2671 L
620 2883 L
620 2803 L
620 2718 L
620 2981 L
620 2925 L
620 2907 L
620 2860 L
620 2766 L
620 2756 L
620 2688 L
620 2730 L
620 2865 L
620 2711 L
620 2585 L
620 2731 L
620 2680 L
620 2670 L
620 2783 L
620 2645 L
620 2774 L
620 2655 L
620 2675 L
620 2695 L
620 2675 L
620 2595 L
620 2489 L
620 2669 L
620 2742 L
620 2551 L
620 2385 L
620 2653 L
620 2630 L
620 2485 L
620 2704 L
620 2595 L
620 2709 L
620 2464 L
620 2571 L
620 2521 L
620 2377 L
620 2589 L
620 2509 L
620 2756 L
620 2547 L
620 2521 L
620 2597 L
620 2718 L
620 2590 L
620 2505 L
620 2649 L
620 2551 L
620 2432 L
620 2534 L
620 2486 L
620 2452 L
620 2633 L
620 2569 L
620 2492 L
620 2512 L
620 2418 L
620 2352 L
620 2503 L
620 2541 L
620 2365 L
620 2527 L
620 2577 L
620 2476 L
620 2347 L
620 2375 L
620 2579 L
620 2455 L
620 2446 L
620 2512 L
620 2440 L
620 2456 L
620 2415 L
620 2379 L
620 2603 L
620 2512 L
620 2386 L
620 2327 L
620 2275 L
620 2499 L
620 2392 L
620 2376 L
620 2344 L
620 2432 L
620 2410 L
620 2372 L
620 2323 L
620 2413 L
620 2382 L
620 2521 L
620 2418 L
620 2420 L
620 2380 L
620 2395 L
620 2360 L
620 2329 L
620 2167 L
620 2284 L
620 2237 L
620 2338 L
620 2461 L
620 2312 L
620 2352 L
620 2396 L
620 2456 L
620 2457 L
620 2397 L
620 2388 L
620 2341 L
620 2490 L
620 2371 L
620 2370 L
620 2495 L
620 2374 L
620 2375 L
620 2354 L
620 2407 L
620 2317 L
620 2319 L
620 2478 L
620 2276 L
620 2191 L
620 2380 L
620 2210 L
620 2421 L
620 2341 L
620 2346 L
620 2455 L
620 2352 L
620 2318 L
620 2263 L
620 2348 L
620 2352 L
620 2401 L
620 2340 L
620 2371 L
620 2210 L
620 2380 L
620 2304 L
620 2421 L
620 2203 L
620 2361 L
620 2320 L
620 2180 L
620 2374 L
620 2295 L
620 2218 L
620 2368 L
620 2295 L
620 2259 L
620 2375 L
620 2310 L
620 2327 L
620 2245 L
620 2378 L
620 2364 L
620 2423 L
620 2361 L
620 2396 L
620 2204 L
620 2340 L
620 2277 L
620 2227 L
620 2385 L
620 2344 L
620 2140 L
620 2164 L
620 2170 L
620 2313 L
620 2299 L
620 2374 L
620 2273 L
620 2217 L
620 2340 L
620 2372 L
620 2235 L
620 2217 L
620 2151 L
620 2332 L
620 2310 L
620 2345 L
620 2191 L
620 2252 L
620 2326 L
620 2414 L
620 2246 L
620 2283 L
620 2169 L
620 2283 L
620 2431 L
620 2323 L
620 2279 L
620 2372 L
620 2293 L
620 2184 L
620 2475 L
620 2176 L
620 2325 L
620 2367 L
620 2149 L
620 2353 L
620 2325 L
620 2342 L
620 2405 L
620 2160 L
620 2352 L
620 2387 L
620 2290 L
620 2193 L
620 2471 L
620 2290 L
620 2260 L
620 2388 L
620 2491 L
620 2366 L
620 2238 L
620 2453 L
620 2423 L
620 2447 L
620 2224 L
620 2329 L
620 2169 L
620 2235 L
620 2309 L
620 2180 L
620 2412 L
620 2331 L
620 2309 L
620 2425 L
620 2382 L
620 2347 L
620 2214 L
620 2393 L
620 2380 L
620 2364 L
620 2376 L
620 2349 L
620 2238 L
620 2321 L
620 2343 L
620 2433 L
620 2199 L
620 2481 L
620 2299 L
620 2268 L
620 2172 L
620 2324 L
620 2317 L
620 2212 L
620 2450 L
620 2345 L
620 2310 L
620 2230 L
620 2238 L
620 2589 L
620 2265 L
620 2404 L
620 2432 L
620 2503 L
620 2243 L
620 2361 L
620 2562 L
620 2445 L
620 2383 L
620 2362 L
620 2204 L
620 2468 L
620 2433 L
620 2297 L
620 2460 L
620 2407 L
620 2366 L
620 2341 L
620 2462 L
620 2459 L
620 2422 L
620 2327 L
620 2163 L
620 2234 L
620 2553 L
620 2402 L
620 2200 L
620 2502 L
620 2266 L
620 2550 L
620 2136 L
620 2430 L
620 2359 L
620 2240 L
620 2453 L
620 2346 L
620 2558 L
620 2323 L
620 2489 L
620 2419 L
620 2369 L
620 2303 L
620 2305 L
620 2386 L
620 2405 L
620 2249 L
620 2460 L
620 2499 L
620 2555 L
620 2247 L
620 2280 L
620 2427 L
620 2383 L
620 2322 L
620 2406 L
620 2367 L
620 2465 L
620 2362 L
620 2373 L
620 2330 L
620 2381 L
620 2317 L
620 2602 L
620 2291 L
620 2402 L
620 2343 L
620 2395 L
620 2283 L
620 2461 L
620 2338 L
620 2462 L
620 2427 L
620 2263 L
620 2437 L
620 2238 L
620 2479 L
620 2483 L
620 2376 L
620 2402 L
620 2402 L
620 2349 L
620 2390 L
620 2367 L
620 2449 L
620 2347 L
620 2366 L
620 2351 L
620 2408 L
620 2513 L
620 2377 L
620 2387 L
620 2386 L
620 2346 L
620 2466 L
620 2272 L
620 2520 L
620 2298 L
620 2260 L
620 2350 L
620 2496 L
620 2268 L
620 2502 L
620 2415 L
620 2363 L
620 2544 L
620 2590 L
620 2523 L
620 2506 L
620 2569 L
620 2526 L
620 2330 L
620 2276 L
620 2418 L
620 2187 L
620 2525 L
620 2254 L
620 2425 L
620 2396 L
620 2686 L
620 2311 L
620 2488 L
620 2551 L
620 2341 L
620 2485 L
620 2361 L
620 2520 L
620 2489 L
620 2318 L
620 2447 L
620 2402 L
620 2487 L
620 2454 L
620 2544 L
620 2474 L
620 2555 L
620 2409 L
620 2372 L
620 2435 L
620 2568 L
620 2325 L
620 2441 L
620 2518 L
620 2309 L
620 2423 L
620 2334 L
620 2370 L
620 2547 L
620 2495 L
620 2421 L
620 2466 L
620 2529 L
620 2488 L
620 2361 L
620 2394 L
620 2388 L
620 2352 L
620 2311 L
620 2367 L
620 2375 L
620 2419 L
620 2337 L
620 2548 L
620 2558 L
620 2432 L
620 2528 L
620 2610 L
620 2435 L
620 2417 L
620 2541 L
620 2417 L
620 2359 L
620 2415 L
620 2417 L
620 2516 L
620 2600 L
620 2449 L
620 2461 L
620 2607 L
620 2518 L
620 2656 L
620 2426 L
620 2372 L
620 2482 L
620 2527 L
620 2439 L
620 2325 L
620 2602 L
620 2444 L
620 2515 L
620 2598 L
620 2513 L
620 2445 L
620 2538 L
620 2564 L
620 2341 L
620 2356 L
620 2467 L
620 2575 L
620 2640 L
620 2568 L
620 2535 L
620 2571 L
620 2493 L
620 2565 L
620 2433 L
620 2370 L
620 2621 L
620 2406 L
620 2419 L
620 2412 L
620 2696 L
620 2570 L
620 2486 L
620 2518 L
620 2489 L
620 2533 L
620 2513 L
620 2665 L
620 2575 L
620 2374 L
620 2559 L
620 2465 L
620 2569 L
620 2440 L
620 2263 L
620 2448 L
620 2536 L
620 2406 L
620 2515 L
620 2558 L
620 2456 L
620 2579 L
620 2636 L
620 2507 L
620 2500 L
620 2436 L
620 2601 L
620 2611 L
620 2445 L
620 2617 L
620 2528 L
620 2269 L
620 2487 L
620 2439 L
620 2552 L
620 2440 L
620 2522 L
620 2393 L
620 2517 L
620 2445 L
620 2691 L
620 2639 L
620 2622 L
620 2542 L
620 2595 L
620 2489 L
620 2519 L
620 2634 L
620 2563 L
620 2409 L
620 2515 L
620 2506 L
620 2526 L
620 2370 L
620 2764 L
620 2669 L
620 2700 L
620 2355 L
620 2746 L
620 2516 L
620 2631 L
620 2469 L
620 2625 L
620 2529 L
620 2679 L
620 2481 L
620 2510 L
620 2557 L
620 2661 L
620 2561 L
620 2547 L
620 2640 L
620 2581 L
620 2543 L
620 2682 L
620 2633 L
620 2485 L
620 2723 L
620 2433 L
620 2655 L
620 2660 L
620 2576 L
620 2540 L
620 2552 L
620 2706 L
620 2527 L
620 2487 L
620 2607 L
620 2505 L
620 2440 L
620 2731 L
620 2615 L
620 2684 L
620 2564 L
620 2534 L
620 2538 L
620 2583 L
620 2547 L
620 2517 L
620 2645 L
620 2522 L
620 2597 L
620 2598 L
620 2714 L
620 2594 L
620 2557 L
620 2630 L
620 2557 L
620 2774 L
620 2595 L
620 2689 L
620 2597 L
620 2659 L
620 2630 L
620 2675 L
620 2717 L
620 2639 L
620 2683 L
620 2675 L
620 2631 L
620 2602 L
620 2552 L
620 2600 L
620 2504 L
620 2525 L
620 2664 L
620 2589 L
620 2556 L
620 2756 L
620 2733 L
620 2539 L
620 2606 L
620 2545 L
620 2558 L
620 2707 L
620 2625 L
620 2618 L
620 2563 L
620 2607 L
620 2489 L
620 2570 L
620 2772 L
620 2642 L
620 2603 L
620 2698 L
620 2701 L
620 2585 L
620 2769 L
620 2713 L
620 2668 L
620 2828 L
620 2660 L
620 2626 L
620 2485 L
620 2716 L
620 2600 L
620 2807 L
620 2675 L
620 2514 L
620 2580 L
620 2759 L
620 2642 L
620 2466 L
620 2588 L
620 2710 L
620 2668 L
620 2808 L
620 2705 L
620 2533 L
620 2757 L
620 2759 L
620 2635 L
620 2589 L
620 2817 L
620 2657 L
620 2793 L
620 2795 L
620 2703 L
620 2607 L
620 2729 L
620 2774 L
620 2633 L
620 2643 L
620 2608 L
620 2627 L
620 2677 L
620 2798 L
620 2584 L
620 2669 L
620 2710 L
620 2775 L
620 2721 L
620 2777 L
620 2745 L
620 2747 L
620 2677 L
620 2575 L
620 2761 L
620 2600 L
620 2611 L
620 2572 L
620 2728 L
620 2605 L
620 2719 L
620 2736 L
620 2592 L
620 2740 L
620 2669 L
620 2704 L
620 2735 L
620 2775 L
620 2763 L
620 2726 L
620 2716 L
620 2849 L
620 2729 L
620 2658 L
620 2779 L
620 2818 L
620 2708 L
620 2569 L
620 2686 L
620 2612 L
620 2536 L
620 2648 L
620 2577 L
620 2734 L
620 2754 L
620 2628 L
620 2608 L
620 2760 L
620 2582 L
620 2806 L
620 2697 L
620 2648 L
620 2702 L
620 2769 L
620 2720 L
620 2718 L
620 2572 L
620 2764 L
620 2660 L
620 2690 L
620 2717 L
620 2832 L
620 2629 L
620 2628 L
620 2567 L
620 2764 L
620 2634 L
620 2614 L
620 2670 L
620 2732 L
620 2729 L
620 2773 L
620 2623 L
620 2669 L
620 2579 L
620 2631 L
620 2681 L
620 2675 L
620 2748 L
620 2693 L
620 2778 L
620 2814 L
620 2745 L
620 2826 L
620 2740 L
620 2717 L
620 2575 L
620 2567 L
620 2756 L
620 2732 L
620 2622 L
620 2673 L
620 2693 L
620 2696 L
620 2784 L
620 2823 L
620 2892 L
620 2900 L
620 2791 L
620 2762 L
620 2714 L
620 2708 L
620 2828 L
620 2873 L
620 2640 L
620 2799 L
620 2807 L
620 2855 L
620 2739 L
620 2888 L
620 2721 L
620 2756 L
620 2820 L
620 2803 L
620 2681 L
620 2805 L
620 2773 L
620 2774 L
620 2712 L
620 2665 L
620 2765 L
620 2751 L
620 2717 L
620 2673 L
620 2863 L
620 2609 L
620 2771 L
620 2878 L
620 2784 L
620 2747 L
620 2837 L
620 2780 L
620 2680 L
620 2716 L
620 2729 L
620 2834 L
620 2736 L
620 2784 L
620 2652 L
620 2765 L
620 2715 L
620 2730 L
620 2596 L
620 2811 L
620 2598 L
620 2797 L
620 2643 L
620 2727 L
620 2846 L
620 2654 L
620 2601 L
620 2919 L
620 2903 L
620 2698 L
620 2891 L
620 2792 L
620 2693 L
620 2860 L
620 2689 L
620 2843 L
620 2845 L
620 2705 L
620 2777 L
620 2814 L
620 2801 L
620 2833 L
620 2824 L
620 2893 L
620 2659 L
620 2909 L
620 2833 L
620 2814 L
620 2743 L
620 2645 L
620 2721 L
620 2625 L
620 2576 L
620 2795 L
620 2939 L
620 2668 L
620 2699 L
620 2770 L
620 2872 L
620 2851 L
620 2707 L
620 2806 L
620 2736 L
620 2787 L
620 2823 L
620 2901 L
620 2784 L
620 2835 L
620 2751 L
620 2704 L
620 2814 L
620 2798 L
620 2703 L
620 2850 L
620 2803 L
620 2706 L
620 2932 L
620 2893 L
620 2813 L
620 2746 L
620 2754 L
620 2871 L
620 2533 L
620 2763 L
620 2777 L
620 2860 L
620 2831 L
620 2640 L
620 2684 L
620 2631 L
620 2797 L
620 2882 L
620 2785 L
620 2716 L
620 2658 L
620 2800 L
620 2882 L
620 2873 L
620 2816 L
620 2834 L
620 2654 L
620 2813 L
620 2768 L
620 2922 L
620 2828 L
620 2862 L
620 2816 L
620 2706 L
620 2687 L
620 2799 L
620 2938 L
620 2841 L
620 2700 L
620 2700 L
620 2713 L
620 2784 L
620 2687 L
620 2813 L
620 2592 L
620 2856 L
620 2763 L
620 2781 L
620 2923 L
620 2902 L
620 2814 L
620 2798 L
620 2989 L
620 2913 L
620 2888 L
620 2893 L
620 2839 L
620 2823 L
620 2959 L
620 2730 L
620 2816 L
620 2799 L
620 2803 L
620 2794 L
620 2826 L
620 2833 L
620 2814 L
620 2815 L
620 2689 L
620 2706 L
620 2885 L
620 2843 L
620 2803 L
620 2830 L
620 2813 L
620 2771 L
620 2685 L
620 2826 L
620 2933 L
620 2767 L
620 2821 L
620 2906 L
620 2818 L
620 2703 L
620 2709 L
620 2924 L
620 2847 L
620 2788 L
620 2844 L
620 2818 L
620 2793 L
620 2809 L
620 2662 L
620 2801 L
620 2838 L
620 3066 L
620 2851 L
620 2836 L
620 2829 L
620 2725 L
620 2718 L
620 2923 L
620 2866 L
620 2947 L
620 2795 L
620 2862 L
620 2659 L
620 2897 L
620 2949 L
620 2874 L
620 2596 L
620 2761 L
620 2990 L
620 2846 L
620 2903 L
620 2818 L
620 2822 L
620 2822 L
620 2685 L
620 2861 L
620 2833 L
620 2929 L
620 2710 L
620 2785 L
620 2800 L
620 2800 L
620 2791 L
620 2914 L
620 2881 L
620 2924 L
620 2785 L
620 2863 L
620 2824 L
620 2726 L
620 2888 L
620 2777 L
620 2815 L
620 2754 L
620 2790 L
620 2707 L
620 2843 L
620 2862 L
620 2886 L
620 2963 L
620 2910 L
620 2759 L
620 2865 L
620 2878 L
620 2896 L
620 2762 L
620 2840 L
620 2641 L
620 2846 L
620 2866 L
620 2755 L
620 2843 L
620 2974 L
620 2612 L
620 2859 L
620 2717 L
620 2874 L
620 2878 L
620 3042 L
620 2785 L
620 2928 L
620 2916 L
620 3031 L
620 2995 L
620 2979 L
620 2963 L
620 3045 L
620 2893 L
620 3007 L
620 2978 L
620 2943 L
620 2906 L
620 2867 L
620 2871 L
620 3118 L
620 2998 L
620 3061 L
620 3070 L
620 2805 L
620 2926 L
620 2999 L
620 3036 L
620 3064 L
620 2951 L
620 3005 L
620 3074 L
620 2949 L
620 2981 L
620 3057 L
620 2995 L
620 2921 L
620 3033 L
620 2943 L
620 3218 L
620 3071 L
620 2921 L
620 3070 L
620 3127 L
620 2998 L
620 3069 L
620 2916 L
620 3009 L
620 3014 L
620 3151 L
620 2927 L
620 2927 L
620 3233 L
620 3069 L
620 3126 L
620 3137 L
620 3071 L
620 2968 L
620 2906 L
620 3231 L
620 2875 L
620 3002 L
620 3070 L
620 3041 L
620 2941 L
620 3209 L
620 2945 L
620 2978 L
620 2997 L
620 3093 L
620 3154 L
620 2979 L
620 2996 L
620 3049 L
620 2976 L
620 3014 L
620 3138 L
620 2992 L
620 3026 L
620 2984 L
620 3051 L
620 2951 L
620 2969 L
620 3092 L
620 3149 L
620 3040 L
620 2993 L
620 3070 L
620 3036 L
620 3025 L
620 3089 L
620 3048 L
620 3047 L
620 2977 L
620 3039 L
620 2995 L
620 2933 L
620 3092 L
620 3096 L
620 3064 L
620 3008 L
620 2956 L
620 3100 L
620 3027 L
620 3074 L
620 3068 L
620 3033 L
620 3070 L
620 3040 L
620 2832 L
620 3020 L
620 3116 L
620 3146 L
620 3066 L
620 3013 L
620 3093 L
620 3082 L
620 3050 L
620 3107 L
620 3132 L
620 3253 L
620 3110 L
620 3182 L
620 3035 L
620 3127 L
620 3123 L
620 3133 L
620 3101 L
620 2964 L
620 2975 L
620 3108 L
620 2939 L
620 3064 L
620 3125 L
620 3070 L
620 3064 L
620 3258 L
620 2924 L
620 3020 L
620 2988 L
620 2984 L
620 3050 L
620 3036 L
620 3186 L
620 3111 L
620 3057 L
620 3094 L
620 3197 L
620 3292 L
620 2991 L
620 3116 L
620 3095 L
620 3012 L
620 3123 L
620 3056 L
620 3097 L
620 3019 L
620 2985 L
620 3053 L
620 3023 L
620 3093 L
620 3211 L
620 3124 L
620 2989 L
620 3160 L
620 2765 L
620 2959 L
620 3022 L
620 3171 L
620 3060 L
620 2910 L
620 3007 L
620 3029 L
620 3102 L
620 3187 L
620 3003 L
620 3258 L
620 3095 L
620 2970 L
620 2988 L
620 3117 L
620 3189 L
620 3080 L
620 3031 L
620 3121 L
620 3000 L
620 3084 L
620 3141 L
620 3071 L
620 3107 L
620 3134 L
620 3168 L
620 2951 L
620 3192 L
620 3212 L
620 3092 L
620 2929 L
620 3202 L
620 3230 L
620 3044 L
620 3024 L
620 3240 L
620 3135 L
620 2986 L
620 3013 L
620 3016 L
620 3126 L
620 2908 L
620 2978 L
620 3055 L
620 2955 L
620 2928 L
620 3062 L
620 3016 L
620 2851 L
620 3026 L
620 3021 L
620 2953 L
620 3116 L
620 2952 L
620 3022 L
620 3066 L
620 3042 L
620 3046 L
620 3136 L
620 2936 L
620 3075 L
620 2981 L
620 3145 L
620 3012 L
620 2995 L
620 3199 L
620 2881 L
620 3109 L
620 2919 L
620 3120 L
620 2948 L
620 3008 L
620 3036 L
620 3197 L
620 2986 L
620 3056 L
620 3106 L
620 3045 L
620 2968 L
620 3191 L
620 3000 L
620 3041 L
620 3032 L
620 3081 L
620 3154 L
620 3116 L
620 3063 L
620 3040 L
620 3050 L
620 3082 L
620 2930 L
620 3081 L
620 3048 L
620 3157 L
620 2950 L
620 2964 L
620 3098 L
620 2948 L
620 2956 L
620 3031 L
620 3004 L
620 2976 L
620 2999 L
620 3049 L
620 2952 L
620 3110 L
620 3036 L
620 3244 L
620 3061 L
620 2919 L
620 3233 L
620 3043 L
620 3003 L
620 3004 L
620 3109 L
620 2938 L
620 3134 L
620 3058 L
620 3014 L
620 2978 L
620 3126 L
620 3147 L
620 2927 L
620 2897 L
620 3051 L
620 2967 L
620 3155 L
620 2944 L
620 2996 L
620 3039 L
620 2989 L
620 3036 L
620 3045 L
620 3122 L
620 3038 L
620 2963 L
620 3107 L
620 2990 L
620 3015 L
620 2954 L
620 3020 L
620 3087 L
620 3014 L
620 3008 L
620 3134 L
620 3271 L
620 3048 L
620 2975 L
620 3118 L
620 2845 L
620 3018 L
620 3066 L
620 3051 L
620 3094 L
620 2911 L
620 3049 L
620 3007 L
620 3123 L
620 3085 L
620 2977 L
620 2980 L
620 3106 L
620 2949 L
620 3092 L
620 3097 L
620 3030 L
620 2936 L
620 3229 L
620 2989 L
620 3022 L
620 3039 L
620 3184 L
620 2986 L
620 3051 L
620 2999 L
620 3088 L
620 3139 L
620 3015 L
620 2793 L
620 3066 L
620 3099 L
620 3050 L
620 3095 L
620 2992 L
620 3160 L
620 3045 L
620 2892 L
620 2943 L
620 3079 L
L2 C06 COSGR

%
%================
% Legend - Begin
%================
%
GSN 4240 5180 M
4480 5180 L
LWMC SL  C06 COSGR
GSN 4540 5141 M helvM (3.0 uM) show grestore
%
%================
% Legend - End
%================
%

%
% Main frame
%
L10
GSN 
620 1700 M
4220 1700 L
4220 5300 L
620 5300 L
closepath SGR

%
% X axis: large tics
%
L10
%
% X axis: small tics
%
L5
%
% Y axis: large tics
%
L10
GSN 620 2107 M 54 0 rL SGR
GSN 4220 2107 M -54 0 rL SGR
helvS (-0.025) 560 2107 ylabel
GSN 620 2896 M 54 0 rL SGR
GSN 4220 2896 M -54 0 rL SGR
helvS (0) 560 2896 ylabel
GSN 620 3685 M 54 0 rL SGR
GSN 4220 3685 M -54 0 rL SGR
helvS (0.025) 560 3685 ylabel
GSN 620 4474 M 54 0 rL SGR
GSN 4220 4474 M -54 0 rL SGR
helvS (0.05) 560 4474 ylabel
GSN 620 5263 M 54 0 rL SGR
GSN 4220 5263 M -54 0 rL SGR
helvS (0.075) 560 5263 ylabel
%
% Y axis: small tics
%
L5
GSN 620 1712 M 36 0 rL SGR
GSN 4220 1712 M -36 0 rL SGR
GSN 620 2107 M 36 0 rL SGR
GSN 4220 2107 M -36 0 rL SGR
GSN 620 2501 M 36 0 rL SGR
GSN 4220 2501 M -36 0 rL SGR
GSN 620 2896 M 36 0 rL SGR
GSN 4220 2896 M -36 0 rL SGR
GSN 620 3290 M 36 0 rL SGR
GSN 4220 3290 M -36 0 rL SGR
GSN 620 3685 M 36 0 rL SGR
GSN 4220 3685 M -36 0 rL SGR
GSN 620 4079 M 36 0 rL SGR
GSN 4220 4079 M -36 0 rL SGR
GSN 620 4474 M 36 0 rL SGR
GSN 4220 4474 M -36 0 rL SGR
GSN 620 4869 M 36 0 rL SGR
GSN 4220 4869 M -36 0 rL SGR
GSN 620 5263 M 36 0 rL SGR
GSN 4220 5263 M -36 0 rL SGR

%
% X axis - residual panel
%
GSN L5 620 2896 M 4220 2896 L SDA G50 SGR

%
% X-Axis label:
%
gsave 620 1370 M 
[
[(Helvetica) 180 0 true true 0 (t)]
[(Helvetica) 180 0 true true 0 (i)]
[(Helvetica) 180 0 true true 0 (m)]
[(Helvetica) 180 0 true true 0 (e)]
] 0 MCshow grestore

%
% Y-Axis label:
%
gsave 234 3500 M 
currentpoint gsave translate 90 rotate 0 0 moveto
[
[(Helvetica) 180 0 true true 0 (r)]
[(Helvetica) 180 0 true true 0 (e)]
[(Helvetica) 180 0 true true 0 (s)]
[(Helvetica) 180 0 true true 0 (i)]
[(Helvetica) 180 0 true true 0 (d)]
[(Helvetica) 180 0 true true 0 (u)]
[(Helvetica) 180 0 true true 0 (a)]
[(Helvetica) 180 0 true true 0 (l)]
[(Helvetica) 180 0 true true 0 (s)]
] 0 MCshow grestore

end
showpage
%%Trailer
%%EOF
