%!PS-Adobe-3.0 EPSF-3.0
%%BoundingBox: 0 0 514 442
%%Creator: BioKin Ltd.
%%DocumentFonts: Symbol Helvetica
%%EndComments
%
/bkdict 256 dict def
bkdict begin
/M {moveto} def 
/R {rmoveto} def
/L {lineto} def
/rL {rlineto} def
/GSN {gsave newpath} def
/SGR {stroke grestore} def
/COSGR {gsave setrgbcolor stroke grestore grestore} def
/SL {setlinewidth} def
/LWMB {12} def             % line width - model curves, black & white
/LWMC {10} def             % line width - model curves, color
/L2 {2.5 setlinewidth} def
/L5 {5 setlinewidth} def
/L10 {10 setlinewidth} def
/G50 {0.5 setgray} def
/SDA {[10  20] 0 setdash} def % axes
/helvT {/Helvetica findfont 100 scalefont setfont} def % tiny
/helvS {/Helvetica findfont 125 scalefont setfont} def % small
/helvM {/Helvetica findfont 150 scalefont setfont} def % medium
/helvL {/Helvetica findfont 175 scalefont setfont} def % large
/xlabel {gsave M dup
   stringwidth exch -0.5 mul exch rmoveto show grestore} def 
/ylabel {gsave M 90 rotate dup
   stringwidth exch -0.5 mul exch rmoveto show grestore} def
/ylabelresid {gsave M dup
   stringwidth exch -1 mul exch rmoveto show grestore} def
% ======
% Shapes
% ======
% Circle:
/Circ {0 360 arc closepath} def
%
% Square:
/Squa {dup dup -0.5 mul dup dup R -2 mul 0 exch rL 1 mul 0 rL dup 0 exch -1 mul rL closepath} def
%
% Triangle Up:
/TriU {dup dup dup -0.4 mul exch -0.5 mul exch R dup 0.5 mul exch rL dup -1 mul exch 0.5 mul exch rL closepath} def 
%
% Triangle Down:
/TriD {dup dup dup 0.4 mul exch -0.5 mul exch R dup 0.5 mul exch -1 mul rL dup 0.5 mul exch rL closepath} def 
%
% Diamond:
/Diam {45 rotate Squa} def
% ======
% Fills
% ======
/GRF {gsave setgray fill grestore} def                    % gray-level Fill
/COF {gsave setrgbcolor fill grestore} def                % color fill
% ======
% Colors
% ======
/C01 {1.00	0.00	0.00} def      % Red
/C02 {0.00	0.00	1.00} def      % Blue
/C03 {0.00	0.39	0.00} def      % Dark Green
/C04 {0.78	0.08	0.52} def      % Medium Violet Red
/C05 {0.55	0.27	0.07} def      % Saddle Brown
/C06 {0.10	0.70	0.70} def      % (cyan)
/C07 {1.00	0.55	0.00} def      % Dark Orange
/C08 {0.63	0.13	0.94} def      % Purple
/C09 {0.00	0.75	1.00} def      % Deep Sky Blue
/C10 {0.20	0.80	0.20} def      % Lime Green
/C11 {0.47	0.53	0.60} def      % Light Slate Gray
/C12 {0.00	0.00	0.00} def      % Black            % or: {0.19	0.31	0.31} def      % Dark Slate Gray
%
/LGR {0.75} def % light gray
/DGR {0.33} def % dark gray
%
% =============
% Dash patterns
% =============
/dash01 { [80  20] 0 setdash } def
/dash02 { [40  20] 0 setdash } def
/dash03 { [80  20  10  20] 0 setdash } def
/dash04 { [40  20  10  20] 0 setdash } def
/dash05 { [80  20  10  10  10  20] 0 setdash } def
/dash06 { [40  20  10  10  10  20] 0 setdash } def
/dash07 { [10  10] 0 setdash } def
%
/MFshow {
   { dup 5 get 3 ge
     { 5 get 3 eq {gsave} {grestore} ifelse }
     {dup dup 0 get findfont exch 1 get scalefont setfont
     [ currentpoint ] exch dup 2 get 0 exch R dup 5 get 2 ne {dup dup 6
     get exch 4 get {show} {stringwidth pop 0 R} ifelse }if dup 5 get 0 eq
     {dup 3 get {2 get neg 0 exch R pop} {pop aload pop M} ifelse} {dup 5
     get 1 eq {dup 2 get exch dup 3 get exch 6 get stringwidth pop -2 div
     dup 0 R} {dup 6 get stringwidth pop -2 div 0 R 6 get
     show 2 index {aload pop M neg 3 -1 roll neg R pop pop} {pop pop pop
     pop aload pop M} ifelse }ifelse }ifelse }
     ifelse }
   forall} bind def
/MFwidth {0 exch {dup 3 get{dup dup 0 get findfont exch 1 get scalefont
     setfont 6 get stringwidth pop add} {pop} ifelse} forall} bind def
/MCshow { currentpoint stroke M
  exch dup MFwidth -2 div 3 -1 roll R MFshow } def
%
end
%%EndProlog
bkdict begin
0.1 0.1 scale
%
% Model curves:
%

GSN 753 1356 M
770 1356 L
803 1346 L
837 1334 L
870 1321 L
903 1306 L
924 1290 L
941 1285 L
970 1272 L
1003 1253 L
1037 1232 L
1070 1209 L
1096 1185 L
1113 1170 L
1137 1160 L
1170 1133 L
1203 1105 L
1237 1077 L
1268 1048 L
1284 1023 L
1303 1020 L
1337 992 L
1370 966 L
1403 942 L
1437 920 L
1456 901 L
1473 898 L
1503 885 L
1537 873 L
1570 863 L
1603 856 L
1628 851 L
1644 850 L
1670 848 L
1703 846 L
1737 846 L
1770 845 L
1799 845 L
1816 845 L
1837 845 L
1870 845 L
1903 845 L
1937 845 L
1970 845 L
1987 845 L
2004 845 L
2037 845 L
2070 846 L
2103 846 L
2137 846 L
2159 846 L
2176 846 L
2203 846 L
2237 846 L
2270 847 L
2303 847 L
2331 847 L
2347 847 L
2370 847 L
2403 848 L
2437 848 L
2470 849 L
2503 849 L
2519 849 L
2537 849 L
2570 850 L
2603 850 L
2637 851 L
2670 852 L
2690 852 L
2707 852 L
2737 853 L
2770 853 L
2803 854 L
2837 854 L
2862 855 L
2879 855 L
2903 855 L
2937 856 L
2970 856 L
3003 857 L
3034 857 L
3050 857 L
3070 857 L
3103 858 L
3137 858 L
3170 858 L
3203 858 L
3222 858 L
3239 858 L
3270 858 L
3303 858 L
3337 859 L
3370 859 L
3393 859 L
3410 859 L
3437 859 L
3464 859 L
3481 859 L
3503 859 L
3537 859 L
3565 859 L
3582 859 L
3603 859 L
3637 859 L
3670 859 L
3703 859 L
3737 859 L
3753 859 L
3770 859 L
3803 859 L
3837 859 L
3870 859 L
3903 859 L
3925 859 L
3942 859 L
3970 859 L
4003 859 L
4037 859 L
4070 859 L
4086 859 L
LWMC SL dash01 C01 COSGR

GSN 753 1858 M
770 1858 L
803 1836 L
837 1812 L
870 1786 L
903 1757 L
924 1724 L
941 1714 L
970 1689 L
1003 1650 L
1037 1608 L
1070 1562 L
1096 1514 L
1113 1484 L
1137 1463 L
1170 1409 L
1203 1353 L
1237 1296 L
1268 1238 L
1284 1188 L
1303 1181 L
1337 1126 L
1370 1073 L
1403 1025 L
1437 981 L
1456 943 L
1473 937 L
1503 911 L
1537 886 L
1570 866 L
1603 852 L
1628 842 L
1644 839 L
1670 836 L
1703 833 L
1737 831 L
1770 830 L
1799 830 L
1816 830 L
1837 830 L
1870 830 L
1903 830 L
1937 831 L
1970 831 L
1987 831 L
2004 831 L
2037 832 L
2070 832 L
2103 832 L
2137 833 L
2159 833 L
2176 833 L
2203 834 L
2237 834 L
2270 835 L
2303 836 L
2331 836 L
2347 837 L
2370 837 L
2403 838 L
2437 839 L
2470 840 L
2503 841 L
2519 842 L
2537 842 L
2570 843 L
2603 844 L
2637 845 L
2670 847 L
2690 848 L
2707 848 L
2737 849 L
2770 850 L
2803 851 L
2837 852 L
2862 853 L
2879 853 L
2903 854 L
2937 854 L
2970 855 L
3003 856 L
3034 856 L
3050 857 L
3070 857 L
3103 857 L
3137 857 L
3170 858 L
3203 858 L
3222 858 L
3239 858 L
3270 858 L
3303 858 L
3337 858 L
3370 858 L
3393 858 L
3410 859 L
3437 859 L
3464 859 L
3481 859 L
3503 859 L
3537 859 L
3565 859 L
3582 859 L
3603 859 L
3637 859 L
3670 859 L
3703 859 L
3737 859 L
3753 859 L
3770 859 L
3803 859 L
3837 859 L
3870 859 L
3903 859 L
3925 859 L
3942 859 L
3970 859 L
4003 859 L
4037 859 L
4070 859 L
4086 859 L
LWMC SL dash02 C02 COSGR

GSN 753 2347 M
770 2347 L
803 2315 L
837 2280 L
870 2240 L
903 2196 L
924 2148 L
941 2133 L
970 2095 L
1003 2037 L
1037 1974 L
1070 1907 L
1096 1834 L
1113 1790 L
1137 1758 L
1170 1678 L
1203 1594 L
1237 1509 L
1268 1423 L
1284 1348 L
1303 1338 L
1337 1256 L
1370 1177 L
1403 1105 L
1437 1040 L
1456 983 L
1473 973 L
1503 935 L
1537 897 L
1570 868 L
1603 847 L
1628 833 L
1644 828 L
1670 824 L
1703 819 L
1737 816 L
1770 815 L
1799 815 L
1816 815 L
1837 815 L
1870 815 L
1903 815 L
1937 816 L
1970 816 L
1987 817 L
2004 817 L
2037 817 L
2070 818 L
2103 819 L
2137 820 L
2159 821 L
2176 821 L
2203 822 L
2237 823 L
2270 824 L
2303 825 L
2331 826 L
2347 827 L
2370 828 L
2403 829 L
2437 831 L
2470 833 L
2503 835 L
2519 836 L
2537 836 L
2570 838 L
2603 840 L
2637 842 L
2670 844 L
2690 845 L
2707 846 L
2737 847 L
2770 849 L
2803 850 L
2837 851 L
2862 853 L
2879 853 L
2903 854 L
2937 855 L
2970 855 L
3003 856 L
3034 857 L
3050 857 L
3070 857 L
3103 858 L
3137 858 L
3170 858 L
3203 858 L
3222 858 L
3239 858 L
3270 859 L
3303 859 L
3337 859 L
3370 859 L
3393 859 L
3410 859 L
3437 859 L
3464 859 L
3481 859 L
3503 859 L
3537 859 L
3565 859 L
3582 859 L
3603 859 L
3637 859 L
3670 859 L
3703 859 L
3737 859 L
3753 859 L
3770 859 L
3803 859 L
3837 859 L
3870 859 L
3903 859 L
3925 859 L
3942 859 L
3970 859 L
4003 859 L
4037 859 L
4070 859 L
4086 859 L
LWMC SL dash03 C03 COSGR

GSN 753 2657 M
770 2657 L
803 2618 L
837 2575 L
870 2527 L
903 2474 L
924 2416 L
941 2397 L
970 2352 L
1003 2282 L
1037 2206 L
1070 2124 L
1096 2037 L
1113 1983 L
1137 1944 L
1170 1847 L
1203 1746 L
1237 1643 L
1268 1540 L
1284 1449 L
1303 1437 L
1337 1337 L
1370 1242 L
1403 1155 L
1437 1076 L
1456 1007 L
1473 996 L
1503 950 L
1537 904 L
1570 869 L
1603 843 L
1628 826 L
1644 820 L
1670 815 L
1703 809 L
1737 806 L
1770 805 L
1799 805 L
1816 805 L
1837 805 L
1870 805 L
1903 806 L
1937 806 L
1970 807 L
1987 808 L
2004 808 L
2037 808 L
2070 809 L
2103 810 L
2137 811 L
2159 813 L
2176 813 L
2203 814 L
2237 815 L
2270 817 L
2303 819 L
2331 821 L
2347 822 L
2370 823 L
2403 825 L
2437 827 L
2470 829 L
2503 831 L
2519 833 L
2537 834 L
2570 836 L
2603 838 L
2637 840 L
2670 843 L
2690 845 L
2707 845 L
2737 847 L
2770 848 L
2803 850 L
2837 852 L
2862 853 L
2879 854 L
2903 854 L
2937 855 L
2970 856 L
3003 857 L
3034 857 L
3050 858 L
3070 858 L
3103 858 L
3137 858 L
3170 858 L
3203 859 L
3222 859 L
3239 859 L
3270 859 L
3303 859 L
3337 859 L
3370 859 L
3393 859 L
3410 859 L
3437 859 L
3464 859 L
3481 859 L
3503 859 L
3537 859 L
3565 859 L
3582 859 L
3603 859 L
3637 859 L
3670 859 L
3703 859 L
3737 859 L
3753 859 L
3770 859 L
3803 859 L
3837 859 L
3870 859 L
3903 859 L
3925 859 L
3942 859 L
3970 859 L
4003 859 L
4037 859 L
4070 859 L
4086 859 L
LWMC SL dash04 C04 COSGR

GSN 753 2903 M
770 2903 L
803 2859 L
837 2810 L
870 2755 L
903 2695 L
924 2629 L
941 2608 L
970 2556 L
1003 2476 L
1037 2390 L
1070 2297 L
1096 2198 L
1113 2136 L
1137 2092 L
1170 1982 L
1203 1867 L
1237 1750 L
1268 1632 L
1284 1528 L
1303 1515 L
1337 1402 L
1370 1294 L
1403 1194 L
1437 1105 L
1456 1027 L
1473 1014 L
1503 961 L
1537 909 L
1570 869 L
1603 840 L
1628 821 L
1644 814 L
1670 808 L
1703 801 L
1737 798 L
1770 797 L
1799 796 L
1816 796 L
1837 796 L
1870 797 L
1903 798 L
1937 798 L
1970 799 L
1987 800 L
2004 800 L
2037 801 L
2070 802 L
2103 803 L
2137 805 L
2159 806 L
2176 807 L
2203 808 L
2237 810 L
2270 812 L
2303 814 L
2331 816 L
2347 818 L
2370 818 L
2403 821 L
2437 824 L
2470 826 L
2503 829 L
2519 831 L
2537 832 L
2570 834 L
2603 837 L
2637 840 L
2670 842 L
2690 844 L
2707 845 L
2737 847 L
2770 849 L
2803 850 L
2837 852 L
2862 853 L
2879 854 L
2903 855 L
2937 856 L
2970 856 L
3003 857 L
3034 858 L
3050 858 L
3070 858 L
3103 858 L
3137 858 L
3170 859 L
3203 859 L
3222 859 L
3239 859 L
3270 859 L
3303 859 L
3337 859 L
3370 859 L
3393 859 L
3410 859 L
3437 859 L
3464 859 L
3481 859 L
3503 859 L
3537 859 L
3565 859 L
3582 859 L
3603 859 L
3637 859 L
3670 859 L
3703 859 L
3737 859 L
3753 859 L
3770 859 L
3803 859 L
3837 859 L
3870 859 L
3903 859 L
3925 859 L
3942 859 L
3970 859 L
4003 859 L
4037 859 L
4070 859 L
4086 859 L
LWMC SL dash05 C05 COSGR

GSN 753 3288 M
770 3288 L
803 3236 L
837 3178 L
870 3113 L
903 3041 L
924 2962 L
941 2938 L
970 2876 L
1003 2781 L
1037 2678 L
1070 2568 L
1096 2449 L
1113 2376 L
1137 2324 L
1170 2193 L
1203 2056 L
1237 1917 L
1268 1777 L
1284 1653 L
1303 1638 L
1337 1503 L
1370 1374 L
1403 1256 L
1437 1149 L
1456 1056 L
1473 1041 L
1503 979 L
1537 916 L
1570 869 L
1603 834 L
1628 811 L
1644 803 L
1670 797 L
1703 789 L
1737 785 L
1770 783 L
1799 783 L
1816 783 L
1837 783 L
1870 784 L
1903 785 L
1937 786 L
1970 787 L
1987 788 L
2004 788 L
2037 789 L
2070 791 L
2103 793 L
2137 795 L
2159 797 L
2176 797 L
2203 799 L
2237 801 L
2270 804 L
2303 807 L
2331 810 L
2347 812 L
2370 813 L
2403 816 L
2437 819 L
2470 822 L
2503 826 L
2519 829 L
2537 829 L
2570 833 L
2603 836 L
2637 839 L
2670 842 L
2690 844 L
2707 845 L
2737 847 L
2770 849 L
2803 851 L
2837 853 L
2862 854 L
2879 855 L
2903 855 L
2937 856 L
2970 857 L
3003 858 L
3034 858 L
3050 858 L
3070 858 L
3103 858 L
3137 859 L
3170 859 L
3203 859 L
3222 859 L
3239 859 L
3270 859 L
3303 859 L
3337 859 L
3370 859 L
3393 859 L
3410 859 L
3437 859 L
3464 859 L
3481 859 L
3503 859 L
3537 859 L
3565 859 L
3582 859 L
3603 859 L
3637 859 L
3670 859 L
3703 859 L
3737 859 L
3753 859 L
3770 859 L
3803 859 L
3837 859 L
3870 859 L
3903 859 L
3925 859 L
3942 859 L
3970 859 L
4003 859 L
4037 859 L
4070 859 L
4086 859 L
LWMC SL dash06 C06 COSGR

GSN 753 4086 M
770 4086 L
803 4017 L
837 3939 L
870 3853 L
903 3757 L
924 3652 L
941 3619 L
970 3537 L
1003 3411 L
1037 3274 L
1070 3127 L
1096 2969 L
1113 2872 L
1137 2803 L
1170 2628 L
1203 2446 L
1237 2261 L
1268 2074 L
1284 1910 L
1303 1889 L
1337 1709 L
1370 1539 L
1403 1381 L
1437 1239 L
1456 1115 L
1473 1095 L
1503 1012 L
1537 929 L
1570 866 L
1603 821 L
1628 790 L
1644 780 L
1670 771 L
1703 760 L
1737 755 L
1770 753 L
1799 753 L
1816 753 L
1837 754 L
1870 755 L
1903 756 L
1937 758 L
1970 760 L
1987 762 L
2004 762 L
2037 765 L
2070 767 L
2103 770 L
2137 773 L
2159 777 L
2176 778 L
2203 780 L
2237 784 L
2270 788 L
2303 793 L
2331 797 L
2347 800 L
2370 802 L
2403 807 L
2437 812 L
2470 817 L
2503 821 L
2519 826 L
2537 826 L
2570 831 L
2603 835 L
2637 839 L
2670 843 L
2690 846 L
2707 847 L
2737 849 L
2770 851 L
2803 853 L
2837 855 L
2862 856 L
2879 857 L
2903 857 L
2937 858 L
2970 858 L
3003 858 L
3034 859 L
3050 859 L
3070 859 L
3103 859 L
3137 859 L
3170 859 L
3203 859 L
3222 859 L
3239 859 L
3270 859 L
3303 859 L
3337 859 L
3370 859 L
3393 859 L
3410 859 L
3437 859 L
3464 859 L
3481 859 L
3503 859 L
3537 859 L
3565 859 L
3582 859 L
3603 859 L
3637 859 L
3670 859 L
3703 859 L
3737 859 L
3753 859 L
3770 859 L
3803 859 L
3837 859 L
3870 859 L
3903 859 L
3925 859 L
3942 859 L
3970 859 L
4003 859 L
4037 859 L
4070 859 L
4086 859 L
LWMC SL dash07 C07 COSGR

%
%================
% Legend - Begin
%================
%
GSN 4240 4040 M
4480 4040 L
LWMC SL dash01 C01 COSGR
GSN 4540 4001 M helvM (0.5 uM) show grestore
GSN 4240 3860 M
4480 3860 L
LWMC SL dash02 C02 COSGR
GSN 4540 3821 M helvM (1.0 uM) show grestore
GSN 4240 3680 M
4480 3680 L
LWMC SL dash03 C03 COSGR
GSN 4540 3641 M helvM (1.5 uM) show grestore
GSN 4240 3500 M
4480 3500 L
LWMC SL dash04 C04 COSGR
GSN 4540 3461 M helvM (2.0 uM) show grestore
GSN 4240 3320 M
4480 3320 L
LWMC SL dash05 C05 COSGR
GSN 4540 3281 M helvM (2.5 uM) show grestore
GSN 4240 3140 M
4480 3140 L
LWMC SL dash06 C06 COSGR
GSN 4540 3101 M helvM (3.0 uM) show grestore
GSN 4240 2960 M
4480 2960 L
LWMC SL dash07 C07 COSGR
GSN 4540 2921 M helvM (4.0 uM) show grestore
%
%================
% Legend - End
%================
%

%
% Main frame
%
L10
GSN 
620 620 M
4220 620 L
4220 4220 L
620 4220 L
closepath SGR

%
% X axis: large tics
%
L10
GSN 1130 620 M 0  54 rL SGR
GSN 1130 4220 M 0 -54 rL SGR
helvS (0.0001) 1130 470 xlabel
GSN 1716 620 M 0  54 rL SGR
GSN 1716 4220 M 0 -54 rL SGR
helvS (0.001) 1716 470 xlabel
GSN 2303 620 M 0  54 rL SGR
GSN 2303 4220 M 0 -54 rL SGR
helvS (0.01) 2303 470 xlabel
GSN 2889 620 M 0  54 rL SGR
GSN 2889 4220 M 0 -54 rL SGR
helvS (0.1) 2889 470 xlabel
GSN 3476 620 M 0  54 rL SGR
GSN 3476 4220 M 0 -54 rL SGR
helvS (1) 3476 470 xlabel
GSN 4062 620 M 0  54 rL SGR
GSN 4062 4220 M 0 -54 rL SGR
helvS (10) 4062 470 xlabel
%
% X axis: small tics
%
L5
GSN 720 620 M 0  36 rL SGR
GSN 720 4220 M 0 -36 rL SGR
GSN 824 620 M 0  36 rL SGR
GSN 824 4220 M 0 -36 rL SGR
GSN 897 620 M 0  36 rL SGR
GSN 897 4220 M 0 -36 rL SGR
GSN 954 620 M 0  36 rL SGR
GSN 954 4220 M 0 -36 rL SGR
GSN 1000 620 M 0  36 rL SGR
GSN 1000 4220 M 0 -36 rL SGR
GSN 1039 620 M 0  36 rL SGR
GSN 1039 4220 M 0 -36 rL SGR
GSN 1073 620 M 0  36 rL SGR
GSN 1073 4220 M 0 -36 rL SGR
GSN 1103 620 M 0  36 rL SGR
GSN 1103 4220 M 0 -36 rL SGR
GSN 1307 620 M 0  36 rL SGR
GSN 1307 4220 M 0 -36 rL SGR
GSN 1410 620 M 0  36 rL SGR
GSN 1410 4220 M 0 -36 rL SGR
GSN 1483 620 M 0  36 rL SGR
GSN 1483 4220 M 0 -36 rL SGR
GSN 1540 620 M 0  36 rL SGR
GSN 1540 4220 M 0 -36 rL SGR
GSN 1586 620 M 0  36 rL SGR
GSN 1586 4220 M 0 -36 rL SGR
GSN 1626 620 M 0  36 rL SGR
GSN 1626 4220 M 0 -36 rL SGR
GSN 1660 620 M 0  36 rL SGR
GSN 1660 4220 M 0 -36 rL SGR
GSN 1690 620 M 0  36 rL SGR
GSN 1690 4220 M 0 -36 rL SGR
GSN 1893 620 M 0  36 rL SGR
GSN 1893 4220 M 0 -36 rL SGR
GSN 1996 620 M 0  36 rL SGR
GSN 1996 4220 M 0 -36 rL SGR
GSN 2069 620 M 0  36 rL SGR
GSN 2069 4220 M 0 -36 rL SGR
GSN 2126 620 M 0  36 rL SGR
GSN 2126 4220 M 0 -36 rL SGR
GSN 2173 620 M 0  36 rL SGR
GSN 2173 4220 M 0 -36 rL SGR
GSN 2212 620 M 0  36 rL SGR
GSN 2212 4220 M 0 -36 rL SGR
GSN 2246 620 M 0  36 rL SGR
GSN 2246 4220 M 0 -36 rL SGR
GSN 2276 620 M 0  36 rL SGR
GSN 2276 4220 M 0 -36 rL SGR
GSN 2479 620 M 0  36 rL SGR
GSN 2479 4220 M 0 -36 rL SGR
GSN 2583 620 M 0  36 rL SGR
GSN 2583 4220 M 0 -36 rL SGR
GSN 2656 620 M 0  36 rL SGR
GSN 2656 4220 M 0 -36 rL SGR
GSN 2713 620 M 0  36 rL SGR
GSN 2713 4220 M 0 -36 rL SGR
GSN 2759 620 M 0  36 rL SGR
GSN 2759 4220 M 0 -36 rL SGR
GSN 2798 620 M 0  36 rL SGR
GSN 2798 4220 M 0 -36 rL SGR
GSN 2832 620 M 0  36 rL SGR
GSN 2832 4220 M 0 -36 rL SGR
GSN 2862 620 M 0  36 rL SGR
GSN 2862 4220 M 0 -36 rL SGR
GSN 3066 620 M 0  36 rL SGR
GSN 3066 4220 M 0 -36 rL SGR
GSN 3169 620 M 0  36 rL SGR
GSN 3169 4220 M 0 -36 rL SGR
GSN 3242 620 M 0  36 rL SGR
GSN 3242 4220 M 0 -36 rL SGR
GSN 3299 620 M 0  36 rL SGR
GSN 3299 4220 M 0 -36 rL SGR
GSN 3345 620 M 0  36 rL SGR
GSN 3345 4220 M 0 -36 rL SGR
GSN 3385 620 M 0  36 rL SGR
GSN 3385 4220 M 0 -36 rL SGR
GSN 3419 620 M 0  36 rL SGR
GSN 3419 4220 M 0 -36 rL SGR
GSN 3449 620 M 0  36 rL SGR
GSN 3449 4220 M 0 -36 rL SGR
GSN 3652 620 M 0  36 rL SGR
GSN 3652 4220 M 0 -36 rL SGR
GSN 3755 620 M 0  36 rL SGR
GSN 3755 4220 M 0 -36 rL SGR
GSN 3829 620 M 0  36 rL SGR
GSN 3829 4220 M 0 -36 rL SGR
GSN 3885 620 M 0  36 rL SGR
GSN 3885 4220 M 0 -36 rL SGR
GSN 3932 620 M 0  36 rL SGR
GSN 3932 4220 M 0 -36 rL SGR
GSN 3971 620 M 0  36 rL SGR
GSN 3971 4220 M 0 -36 rL SGR
GSN 4005 620 M 0  36 rL SGR
GSN 4005 4220 M 0 -36 rL SGR
GSN 4035 620 M 0  36 rL SGR
GSN 4035 4220 M 0 -36 rL SGR
%
% Y axis: large tics
%
L10
GSN 620 859 M 54 0 rL SGR
GSN 4220 859 M -54 0 rL SGR
helvS (0) 560 859 ylabel
GSN 620 2447 M 54 0 rL SGR
GSN 4220 2447 M -54 0 rL SGR
helvS (50) 560 2447 ylabel
GSN 620 4034 M 54 0 rL SGR
GSN 4220 4034 M -54 0 rL SGR
helvS (100) 560 4034 ylabel
%
% Y axis: small tics
%
L5
GSN 620 859 M 36 0 rL SGR
GSN 4220 859 M -36 0 rL SGR
GSN 620 1176 M 36 0 rL SGR
GSN 4220 1176 M -36 0 rL SGR
GSN 620 1494 M 36 0 rL SGR
GSN 4220 1494 M -36 0 rL SGR
GSN 620 1811 M 36 0 rL SGR
GSN 4220 1811 M -36 0 rL SGR
GSN 620 2129 M 36 0 rL SGR
GSN 4220 2129 M -36 0 rL SGR
GSN 620 2447 M 36 0 rL SGR
GSN 4220 2447 M -36 0 rL SGR
GSN 620 2764 M 36 0 rL SGR
GSN 4220 2764 M -36 0 rL SGR
GSN 620 3082 M 36 0 rL SGR
GSN 4220 3082 M -36 0 rL SGR
GSN 620 3399 M 36 0 rL SGR
GSN 4220 3399 M -36 0 rL SGR
GSN 620 3717 M 36 0 rL SGR
GSN 4220 3717 M -36 0 rL SGR
GSN 620 4034 M 36 0 rL SGR
GSN 4220 4034 M -36 0 rL SGR

%
% X axis
%
GSN L5 620 859 M 4220 859 L SDA G50 SGR

%
% X-Axis label:
%
gsave 2420 290 M 
[
[(Helvetica) 180 0 true true 0 (t)]
[(Helvetica) 180 0 true true 0 (i)]
[(Helvetica) 180 0 true true 0 (m)]
[(Helvetica) 180 0 true true 0 (e)]
] 0 MCshow grestore

%
% Y-Axis label:
%
gsave 234 2420 M 
currentpoint gsave translate 90 rotate 0 0 moveto
[
[(Helvetica) 180 0 true true 0 (d)]
[(Helvetica) 180 0 true true 0 (\()]
[(Helvetica) 180 0 true true 0 (s)]
[(Helvetica) 180 0 true true 0 (i)]
[(Helvetica) 180 0 true true 0 (g)]
[(Helvetica) 180 0 true true 0 (n)]
[(Helvetica) 180 0 true true 0 (a)]
[(Helvetica) 180 0 true true 0 (l)]
[(Helvetica) 180 0 true true 0 (\))]
[(Helvetica) 180 0 true true 0 ( )]
[(Helvetica) 180 0 true true 0 (/)]
[(Helvetica) 180 0 true true 0 ( )]
[(Helvetica) 180 0 true true 0 (d)]
[(Helvetica) 180 0 true true 0 (t)]
] 0 MCshow grestore

end
showpage
%%Trailer
%%EOF
