%!PS-Adobe-3.0 EPSF-3.0
%%BoundingBox: 0 0 514 550
%%Creator: BioKin Ltd.
%%DocumentFonts: Symbol Helvetica
%%EndComments
%
/bkdict 256 dict def
bkdict begin
/M {moveto} def 
/R {rmoveto} def
/L {lineto} def
/rL {rlineto} def
/GSN {gsave newpath} def
/SGR {stroke grestore} def
/COSGR {gsave setrgbcolor stroke grestore grestore} def
/SL {setlinewidth} def
/LWMB {12} def             % line width - model curves, black & white
/LWMC {10} def             % line width - model curves, color
/L2 {2.5 setlinewidth} def
/L5 {5 setlinewidth} def
/L10 {10 setlinewidth} def
/G50 {0.5 setgray} def
/SDA {[10  20] 0 setdash} def % axes
/helvT {/Helvetica findfont 100 scalefont setfont} def % tiny
/helvS {/Helvetica findfont 125 scalefont setfont} def % small
/helvM {/Helvetica findfont 150 scalefont setfont} def % medium
/helvL {/Helvetica findfont 175 scalefont setfont} def % large
/xlabel {gsave M dup
   stringwidth exch -0.5 mul exch rmoveto show grestore} def 
/ylabel {gsave M 90 rotate dup
   stringwidth exch -0.5 mul exch rmoveto show grestore} def
/ylabelresid {gsave M dup
   stringwidth exch -1 mul exch rmoveto show grestore} def
% ======
% Shapes
% ======
% Circle:
/Circ {0 360 arc closepath} def
%
% Square:
/Squa {dup dup -0.5 mul dup dup R -2 mul 0 exch rL 1 mul 0 rL dup 0 exch -1 mul rL closepath} def
%
% Triangle Up:
/TriU {dup dup dup -0.4 mul exch -0.5 mul exch R dup 0.5 mul exch rL dup -1 mul exch 0.5 mul exch rL closepath} def 
%
% Triangle Down:
/TriD {dup dup dup 0.4 mul exch -0.5 mul exch R dup 0.5 mul exch -1 mul rL dup 0.5 mul exch rL closepath} def 
%
% Diamond:
/Diam {45 rotate Squa} def
% ======
% Fills
% ======
/GRF {gsave setgray fill grestore} def                    % gray-level Fill
/COF {gsave setrgbcolor fill grestore} def                % color fill
% ======
% Colors
% ======
/C01 {1.00	0.00	0.00} def      % Red
/C02 {0.00	0.00	1.00} def      % Blue
/C03 {0.00	0.39	0.00} def      % Dark Green
/C04 {0.78	0.08	0.52} def      % Medium Violet Red
/C05 {0.55	0.27	0.07} def      % Saddle Brown
/C06 {0.10	0.70	0.70} def      % (cyan)
/C07 {1.00	0.55	0.00} def      % Dark Orange
/C08 {0.63	0.13	0.94} def      % Purple
/C09 {0.00	0.75	1.00} def      % Deep Sky Blue
/C10 {0.20	0.80	0.20} def      % Lime Green
/C11 {0.47	0.53	0.60} def      % Light Slate Gray
/C12 {0.00	0.00	0.00} def      % Black            % or: {0.19	0.31	0.31} def      % Dark Slate Gray
%
/LGR {0.75} def % light gray
/DGR {0.33} def % dark gray
%
% =============
% Dash patterns
% =============
/dash01 { [80  20] 0 setdash } def
/dash02 { [40  20] 0 setdash } def
/dash03 { [80  20  10  20] 0 setdash } def
/dash04 { [40  20  10  20] 0 setdash } def
/dash05 { [80  20  10  10  10  20] 0 setdash } def
/dash06 { [40  20  10  10  10  20] 0 setdash } def
/dash07 { [10  10] 0 setdash } def
%
/MFshow {
   { dup 5 get 3 ge
     { 5 get 3 eq {gsave} {grestore} ifelse }
     {dup dup 0 get findfont exch 1 get scalefont setfont
     [ currentpoint ] exch dup 2 get 0 exch R dup 5 get 2 ne {dup dup 6
     get exch 4 get {show} {stringwidth pop 0 R} ifelse }if dup 5 get 0 eq
     {dup 3 get {2 get neg 0 exch R pop} {pop aload pop M} ifelse} {dup 5
     get 1 eq {dup 2 get exch dup 3 get exch 6 get stringwidth pop -2 div
     dup 0 R} {dup 6 get stringwidth pop -2 div 0 R 6 get
     show 2 index {aload pop M neg 3 -1 roll neg R pop pop} {pop pop pop
     pop aload pop M} ifelse }ifelse }ifelse }
     ifelse }
   forall} bind def
/MFwidth {0 exch {dup 3 get{dup dup 0 get findfont exch 1 get scalefont
     setfont 6 get stringwidth pop add} {pop} ifelse} forall} bind def
/MCshow { currentpoint stroke M
  exch dup MFwidth -2 div 3 -1 roll R MFshow } def
%
end
%%EndProlog
bkdict begin
0.1 0.1 scale
%
% Residuals:
%
GSN 620 4863 M
620 3961 L
620 3721 L
620 3776 L
620 3924 L
620 3251 L
620 4251 L
620 3858 L
620 3970 L
620 3844 L
620 3329 L
620 4002 L
620 3602 L
620 3520 L
620 3835 L
620 3594 L
620 3565 L
620 3957 L
620 3412 L
620 3922 L
620 4126 L
620 3901 L
620 4313 L
620 3821 L
620 4249 L
620 4453 L
620 3836 L
620 4169 L
620 4169 L
620 4495 L
620 3974 L
620 3687 L
620 4687 L
620 3988 L
620 4468 L
620 4279 L
620 4192 L
620 4285 L
620 4237 L
620 4176 L
620 3826 L
620 4418 L
620 4206 L
620 4233 L
620 4279 L
620 4039 L
620 4383 L
620 3911 L
620 3971 L
620 4190 L
620 4231 L
620 3889 L
620 3770 L
620 3721 L
620 4381 L
620 4084 L
620 4393 L
620 4090 L
620 4348 L
620 4425 L
620 4085 L
620 4461 L
620 4468 L
620 4695 L
620 4234 L
620 4003 L
620 4033 L
620 4157 L
620 3616 L
620 4293 L
620 4199 L
620 4023 L
620 4770 L
620 3837 L
620 4189 L
620 4572 L
620 3797 L
620 3770 L
620 4320 L
620 4142 L
620 4146 L
620 4080 L
620 4214 L
620 4498 L
620 4088 L
620 3845 L
620 4238 L
620 3739 L
620 3907 L
620 3961 L
620 4341 L
620 3727 L
620 4241 L
620 3968 L
620 3740 L
620 3809 L
620 3662 L
620 3632 L
620 3927 L
620 3660 L
620 4130 L
620 3725 L
620 3920 L
620 3490 L
620 3855 L
620 3466 L
620 3726 L
620 3585 L
620 3937 L
620 3811 L
620 3842 L
620 3536 L
620 3269 L
620 3173 L
620 3551 L
620 3476 L
620 3607 L
620 3959 L
620 3737 L
620 3512 L
620 3500 L
620 3396 L
620 3530 L
620 3230 L
620 3631 L
620 3490 L
620 3151 L
620 3262 L
620 3405 L
620 3404 L
620 3309 L
620 3557 L
620 3322 L
620 3609 L
620 2952 L
620 3629 L
620 3093 L
620 3929 L
620 3519 L
620 3683 L
620 3508 L
620 2981 L
620 3607 L
620 3601 L
620 3540 L
620 3378 L
620 3679 L
620 3044 L
620 3321 L
620 3185 L
620 3530 L
620 3313 L
620 3434 L
620 3315 L
620 3036 L
620 3867 L
620 3378 L
620 3282 L
620 3586 L
620 2851 L
620 3564 L
620 3673 L
620 3472 L
620 3343 L
620 3489 L
620 3318 L
620 3360 L
620 3305 L
620 3447 L
620 3546 L
620 3487 L
620 3224 L
620 3459 L
620 3690 L
620 3513 L
620 3275 L
620 3502 L
620 3144 L
620 3586 L
620 3511 L
620 3281 L
620 3732 L
620 3387 L
620 3480 L
620 3304 L
620 3165 L
620 3253 L
620 3365 L
620 3212 L
620 4097 L
620 3649 L
620 3293 L
620 3665 L
620 3119 L
620 3703 L
620 3769 L
620 3817 L
620 3566 L
620 3449 L
620 3529 L
620 3333 L
620 3366 L
620 3714 L
620 3516 L
620 3533 L
620 3480 L
620 3772 L
620 3577 L
620 3328 L
620 3512 L
620 3213 L
620 3832 L
620 2874 L
620 3610 L
620 3365 L
620 3692 L
620 3454 L
620 3414 L
620 3514 L
620 3522 L
620 3644 L
620 3781 L
620 3206 L
620 3437 L
620 3385 L
620 3564 L
620 3147 L
620 3652 L
620 3555 L
620 3280 L
620 3644 L
620 3334 L
620 3560 L
620 3360 L
620 3336 L
620 3585 L
620 3679 L
620 3771 L
620 3308 L
620 3562 L
620 3742 L
620 3412 L
620 3730 L
620 3389 L
620 2978 L
620 3558 L
620 3711 L
620 3565 L
620 3258 L
620 3325 L
620 3924 L
620 3416 L
620 3474 L
620 3642 L
620 3962 L
620 3161 L
620 3110 L
620 3485 L
620 3774 L
620 4057 L
620 3548 L
620 3395 L
620 3843 L
620 3485 L
620 3635 L
620 3261 L
620 3449 L
620 2960 L
620 3398 L
620 3226 L
620 3906 L
620 3730 L
620 4078 L
620 3332 L
620 3403 L
620 3854 L
620 3700 L
620 3722 L
620 3325 L
620 3068 L
620 3492 L
620 3765 L
620 2861 L
620 4043 L
620 3638 L
620 3739 L
620 3502 L
620 3806 L
620 3569 L
620 3141 L
620 3073 L
620 3587 L
620 3560 L
620 3483 L
620 3572 L
620 3471 L
620 3900 L
620 3541 L
620 3252 L
620 3770 L
620 3562 L
620 3872 L
620 4052 L
620 3593 L
620 3368 L
620 3459 L
620 3568 L
620 3725 L
620 3232 L
620 3073 L
620 3624 L
620 3532 L
620 4105 L
620 3798 L
620 3637 L
620 3511 L
620 3562 L
620 3721 L
620 4176 L
620 3860 L
620 3936 L
620 3747 L
620 3313 L
620 3785 L
620 3743 L
620 3376 L
620 3610 L
620 3938 L
620 3758 L
620 3498 L
620 4073 L
620 3449 L
620 3612 L
620 3659 L
620 4154 L
620 3234 L
620 3685 L
620 3610 L
620 3541 L
620 3560 L
620 3524 L
620 3406 L
620 3335 L
620 3648 L
620 3697 L
620 4053 L
620 3045 L
620 3734 L
620 3743 L
620 3597 L
620 3678 L
620 3635 L
620 3654 L
620 3908 L
620 3455 L
620 3843 L
620 3313 L
620 3357 L
620 3320 L
620 3174 L
620 3511 L
620 3326 L
620 3208 L
620 3324 L
620 3970 L
620 3181 L
620 3491 L
620 3290 L
620 3226 L
620 3326 L
620 3974 L
620 3056 L
620 3159 L
620 3048 L
620 3221 L
620 3045 L
620 3011 L
620 3009 L
620 3138 L
620 3279 L
620 2730 L
620 3234 L
620 2966 L
620 3451 L
620 3361 L
620 3058 L
620 3224 L
620 2825 L
620 2805 L
620 3056 L
620 2895 L
620 3224 L
620 2912 L
620 3344 L
620 2936 L
620 3153 L
620 3464 L
620 2853 L
620 2943 L
620 3037 L
620 2700 L
620 2704 L
620 3299 L
620 3243 L
620 2323 L
620 2906 L
620 3408 L
620 2898 L
620 3221 L
620 3326 L
620 3329 L
620 2660 L
620 3324 L
620 2732 L
620 3262 L
620 2647 L
620 2690 L
620 2631 L
620 2957 L
620 3086 L
620 3275 L
620 2942 L
620 2988 L
620 3005 L
620 2943 L
620 2981 L
620 3116 L
620 2820 L
620 2870 L
620 3236 L
620 2280 L
620 2400 L
620 2962 L
620 2913 L
620 2960 L
620 3166 L
620 2651 L
620 3163 L
620 3026 L
620 2694 L
620 3258 L
620 3200 L
620 2906 L
620 3135 L
620 2850 L
620 2958 L
620 2825 L
620 3001 L
620 3172 L
620 3003 L
620 2814 L
620 2213 L
620 3103 L
620 3228 L
620 3101 L
620 2520 L
620 2556 L
620 2906 L
620 3204 L
620 2698 L
620 2572 L
620 3178 L
620 3026 L
620 2816 L
620 2542 L
620 2529 L
620 2865 L
620 2737 L
620 2597 L
620 2621 L
620 2348 L
620 2882 L
620 2426 L
620 2801 L
620 2808 L
620 3073 L
620 2645 L
620 2679 L
620 3103 L
620 2988 L
620 2704 L
620 2370 L
620 2548 L
620 2724 L
620 2750 L
620 2451 L
620 2850 L
620 2883 L
620 2882 L
620 2842 L
620 2915 L
620 2149 L
620 2640 L
620 2357 L
620 2722 L
620 2900 L
620 2293 L
620 3303 L
620 2704 L
620 3030 L
620 2874 L
620 2274 L
620 2379 L
620 2394 L
620 2861 L
620 2404 L
620 2136 L
620 2983 L
620 2482 L
620 2541 L
620 2681 L
620 2336 L
620 2436 L
620 2977 L
620 2441 L
620 2842 L
620 2537 L
620 2619 L
620 3133 L
620 2749 L
620 2949 L
620 2196 L
620 2580 L
620 2679 L
620 2898 L
620 2439 L
620 2542 L
620 2775 L
620 2213 L
620 2713 L
620 2623 L
620 2741 L
620 3060 L
L2 C07 COSGR

%
%================
% Legend - Begin
%================
%
GSN 4240 5180 M
4480 5180 L
LWMC SL  C07 COSGR
GSN 4540 5141 M helvM (4.0 uM) show grestore
%
%================
% Legend - End
%================
%

%
% Main frame
%
L10
GSN 
620 1700 M
4220 1700 L
4220 5300 L
620 5300 L
closepath SGR

%
% X axis: large tics
%
L10
%
% X axis: small tics
%
L5
%
% Y axis: large tics
%
L10
GSN 620 2435 M 54 0 rL SGR
GSN 4220 2435 M -54 0 rL SGR
helvS (-0.01) 560 2435 ylabel
GSN 620 3418 M 54 0 rL SGR
GSN 4220 3418 M -54 0 rL SGR
helvS (0) 560 3418 ylabel
GSN 620 4400 M 54 0 rL SGR
GSN 4220 4400 M -54 0 rL SGR
helvS (0.01) 560 4400 ylabel
%
% Y axis: small tics
%
L5
GSN 620 1944 M 36 0 rL SGR
GSN 4220 1944 M -36 0 rL SGR
GSN 620 2190 M 36 0 rL SGR
GSN 4220 2190 M -36 0 rL SGR
GSN 620 2435 M 36 0 rL SGR
GSN 4220 2435 M -36 0 rL SGR
GSN 620 2681 M 36 0 rL SGR
GSN 4220 2681 M -36 0 rL SGR
GSN 620 2927 M 36 0 rL SGR
GSN 4220 2927 M -36 0 rL SGR
GSN 620 3172 M 36 0 rL SGR
GSN 4220 3172 M -36 0 rL SGR
GSN 620 3418 M 36 0 rL SGR
GSN 4220 3418 M -36 0 rL SGR
GSN 620 3663 M 36 0 rL SGR
GSN 4220 3663 M -36 0 rL SGR
GSN 620 3909 M 36 0 rL SGR
GSN 4220 3909 M -36 0 rL SGR
GSN 620 4154 M 36 0 rL SGR
GSN 4220 4154 M -36 0 rL SGR
GSN 620 4400 M 36 0 rL SGR
GSN 4220 4400 M -36 0 rL SGR
GSN 620 4646 M 36 0 rL SGR
GSN 4220 4646 M -36 0 rL SGR
GSN 620 4891 M 36 0 rL SGR
GSN 4220 4891 M -36 0 rL SGR
GSN 620 5137 M 36 0 rL SGR
GSN 4220 5137 M -36 0 rL SGR

%
% X axis - residual panel
%
GSN L5 620 3418 M 4220 3418 L SDA G50 SGR

%
% X-Axis label:
%
gsave 620 1370 M 
[
[(Helvetica) 180 0 true true 0 (t)]
[(Helvetica) 180 0 true true 0 (i)]
[(Helvetica) 180 0 true true 0 (m)]
[(Helvetica) 180 0 true true 0 (e)]
] 0 MCshow grestore

%
% Y-Axis label:
%
gsave 234 3499 M 
currentpoint gsave translate 90 rotate 0 0 moveto
[
[(Helvetica) 180 0 true true 0 (r)]
[(Helvetica) 180 0 true true 0 (e)]
[(Helvetica) 180 0 true true 0 (s)]
[(Helvetica) 180 0 true true 0 (i)]
[(Helvetica) 180 0 true true 0 (d)]
[(Helvetica) 180 0 true true 0 (u)]
[(Helvetica) 180 0 true true 0 (a)]
[(Helvetica) 180 0 true true 0 (l)]
[(Helvetica) 180 0 true true 0 (s)]
] 0 MCshow grestore

end
showpage
%%Trailer
%%EOF
