%!PS-Adobe-3.0 EPSF-3.0
%%BoundingBox: 0 0 514 442
%%Creator: BioKin Ltd.
%%DocumentFonts: Symbol Helvetica
%%EndComments
%
/bkdict 256 dict def
bkdict begin
/M {moveto} def 
/R {rmoveto} def
/L {lineto} def
/rL {rlineto} def
/GSN {gsave newpath} def
/SGR {stroke grestore} def
/COSGR {gsave setrgbcolor stroke grestore grestore} def
/SL {setlinewidth} def
/LWMB {12} def             % line width - model curves, black & white
/LWMC {10} def             % line width - model curves, color
/L2 {2.5 setlinewidth} def
/L5 {5 setlinewidth} def
/L10 {10 setlinewidth} def
/G50 {0.5 setgray} def
/SDA {[10  20] 0 setdash} def % axes
/helvT {/Helvetica findfont 100 scalefont setfont} def % tiny
/helvS {/Helvetica findfont 125 scalefont setfont} def % small
/helvM {/Helvetica findfont 150 scalefont setfont} def % medium
/helvL {/Helvetica findfont 175 scalefont setfont} def % large
/xlabel {gsave M dup
   stringwidth exch -0.5 mul exch rmoveto show grestore} def 
/ylabel {gsave M 90 rotate dup
   stringwidth exch -0.5 mul exch rmoveto show grestore} def
/ylabelresid {gsave M dup
   stringwidth exch -1 mul exch rmoveto show grestore} def
% ======
% Shapes
% ======
% Circle:
/Circ {0 360 arc closepath} def
%
% Square:
/Squa {dup dup -0.5 mul dup dup R -2 mul 0 exch rL 1 mul 0 rL dup 0 exch -1 mul rL closepath} def
%
% Triangle Up:
/TriU {dup dup dup -0.4 mul exch -0.5 mul exch R dup 0.5 mul exch rL dup -1 mul exch 0.5 mul exch rL closepath} def 
%
% Triangle Down:
/TriD {dup dup dup 0.4 mul exch -0.5 mul exch R dup 0.5 mul exch -1 mul rL dup 0.5 mul exch rL closepath} def 
%
% Diamond:
/Diam {45 rotate Squa} def
% ======
% Fills
% ======
/GRF {gsave setgray fill grestore} def                    % gray-level Fill
/COF {gsave setrgbcolor fill grestore} def                % color fill
% ======
% Colors
% ======
/C01 {1.00	0.00	0.00} def      % Red
/C02 {0.00	0.00	1.00} def      % Blue
/C03 {0.00	0.39	0.00} def      % Dark Green
/C04 {0.78	0.08	0.52} def      % Medium Violet Red
/C05 {0.55	0.27	0.07} def      % Saddle Brown
/C06 {0.10	0.70	0.70} def      % (cyan)
/C07 {1.00	0.55	0.00} def      % Dark Orange
/C08 {0.63	0.13	0.94} def      % Purple
/C09 {0.00	0.75	1.00} def      % Deep Sky Blue
/C10 {0.20	0.80	0.20} def      % Lime Green
/C11 {0.47	0.53	0.60} def      % Light Slate Gray
/C12 {0.00	0.00	0.00} def      % Black            % or: {0.19	0.31	0.31} def      % Dark Slate Gray
%
/LGR {0.75} def % light gray
/DGR {0.33} def % dark gray
%
% =============
% Dash patterns
% =============
/dash01 { [80  20] 0 setdash } def
/dash02 { [40  20] 0 setdash } def
/dash03 { [80  20  10  20] 0 setdash } def
/dash04 { [40  20  10  20] 0 setdash } def
/dash05 { [80  20  10  10  10  20] 0 setdash } def
/dash06 { [40  20  10  10  10  20] 0 setdash } def
/dash07 { [10  10] 0 setdash } def
%
/MFshow {
   { dup 5 get 3 ge
     { 5 get 3 eq {gsave} {grestore} ifelse }
     {dup dup 0 get findfont exch 1 get scalefont setfont
     [ currentpoint ] exch dup 2 get 0 exch R dup 5 get 2 ne {dup dup 6
     get exch 4 get {show} {stringwidth pop 0 R} ifelse }if dup 5 get 0 eq
     {dup 3 get {2 get neg 0 exch R pop} {pop aload pop M} ifelse} {dup 5
     get 1 eq {dup 2 get exch dup 3 get exch 6 get stringwidth pop -2 div
     dup 0 R} {dup 6 get stringwidth pop -2 div 0 R 6 get
     show 2 index {aload pop M neg 3 -1 roll neg R pop pop} {pop pop pop
     pop aload pop M} ifelse }ifelse }ifelse }
     ifelse }
   forall} bind def
/MFwidth {0 exch {dup 3 get{dup dup 0 get findfont exch 1 get scalefont
     setfont 6 get stringwidth pop add} {pop} ifelse} forall} bind def
/MCshow { currentpoint stroke M
  exch dup MFwidth -2 div 3 -1 roll R MFshow } def
%
end
%%EndProlog
bkdict begin
0.1 0.1 scale
%
% Model curves:
%

GSN 753 3581 M
770 3581 L
803 3653 L
837 3720 L
870 3782 L
895 3837 L
911 3861 L
937 3882 L
970 3918 L
1003 3945 L
1037 3964 L
1053 3976 L
1070 3976 L
1103 3982 L
1137 3986 L
1170 3987 L
1195 3988 L
1211 3988 L
1237 3988 L
1270 3988 L
1303 3989 L
1337 3989 L
1353 3989 L
1370 3989 L
1403 3989 L
1437 3989 L
1470 3989 L
1495 3989 L
1512 3990 L
1537 3990 L
1570 3990 L
1603 3990 L
1637 3991 L
1653 3991 L
1670 3991 L
1703 3992 L
1737 3992 L
1770 3993 L
1795 3994 L
1812 3994 L
1837 3995 L
1870 3996 L
1903 3997 L
1937 3999 L
1953 4000 L
1971 4000 L
2003 4002 L
2037 4004 L
2070 4007 L
2095 4009 L
2112 4011 L
2137 4012 L
2170 4015 L
2203 4019 L
2237 4022 L
2253 4026 L
2271 4027 L
2303 4031 L
2337 4035 L
2370 4040 L
2395 4044 L
2412 4047 L
2437 4049 L
2470 4053 L
2503 4058 L
2537 4062 L
2553 4066 L
2571 4066 L
2603 4070 L
2637 4073 L
2670 4076 L
2695 4078 L
2712 4079 L
2737 4080 L
2770 4082 L
2803 4083 L
2837 4084 L
2854 4085 L
2871 4085 L
2903 4085 L
2937 4086 L
2970 4086 L
2995 4086 L
3012 4086 L
3037 4086 L
3061 4086 L
3077 4086 L
3103 4086 L
3137 4086 L
3154 4086 L
3171 4086 L
3203 4086 L
3237 4086 L
3270 4086 L
3296 4086 L
3312 4086 L
3337 4086 L
3370 4086 L
3403 4086 L
3437 4086 L
3454 4086 L
3471 4086 L
3503 4086 L
3537 4086 L
3570 4086 L
3596 4086 L
3612 4086 L
3637 4086 L
3670 4086 L
3703 4086 L
3737 4086 L
3754 4086 L
3771 4086 L
3803 4086 L
3837 4086 L
3870 4086 L
3896 4086 L
3912 4086 L
3937 4086 L
3970 4086 L
4003 4086 L
4037 4086 L
4070 4086 L
LWMC SL dash01 C01 COSGR

GSN 753 3252 M
770 3252 L
803 3370 L
837 3482 L
870 3584 L
895 3674 L
911 3714 L
937 3749 L
970 3809 L
1003 3854 L
1037 3884 L
1053 3904 L
1070 3904 L
1103 3915 L
1137 3921 L
1170 3923 L
1195 3924 L
1211 3925 L
1237 3925 L
1270 3925 L
1303 3925 L
1337 3925 L
1353 3926 L
1370 3926 L
1403 3926 L
1437 3926 L
1470 3927 L
1495 3927 L
1512 3927 L
1537 3928 L
1570 3928 L
1603 3929 L
1637 3930 L
1653 3931 L
1670 3931 L
1703 3932 L
1737 3933 L
1770 3934 L
1795 3936 L
1812 3937 L
1837 3938 L
1870 3940 L
1903 3942 L
1937 3945 L
1953 3948 L
1971 3948 L
2003 3952 L
2037 3956 L
2070 3960 L
2095 3965 L
2112 3968 L
2137 3970 L
2170 3976 L
2203 3982 L
2237 3989 L
2253 3996 L
2271 3996 L
2303 4003 L
2337 4010 L
2370 4018 L
2395 4025 L
2412 4029 L
2437 4032 L
2470 4039 L
2503 4046 L
2537 4052 L
2553 4057 L
2571 4057 L
2603 4062 L
2637 4066 L
2670 4070 L
2695 4073 L
2712 4075 L
2737 4076 L
2770 4078 L
2803 4080 L
2837 4081 L
2854 4083 L
2871 4083 L
2903 4084 L
2937 4084 L
2970 4085 L
2995 4085 L
3012 4085 L
3037 4086 L
3061 4086 L
3077 4086 L
3103 4086 L
3137 4086 L
3154 4086 L
3171 4086 L
3203 4086 L
3237 4086 L
3270 4086 L
3296 4086 L
3312 4086 L
3337 4086 L
3370 4086 L
3403 4086 L
3437 4086 L
3454 4086 L
3471 4086 L
3503 4086 L
3537 4086 L
3570 4086 L
3596 4086 L
3612 4086 L
3637 4086 L
3670 4086 L
3703 4086 L
3737 4086 L
3754 4086 L
3771 4086 L
3803 4086 L
3837 4086 L
3870 4086 L
3896 4086 L
3912 4086 L
3937 4086 L
3970 4086 L
4003 4086 L
4037 4086 L
4070 4086 L
LWMC SL dash02 C02 COSGR

GSN 753 2736 M
770 2736 L
803 2927 L
837 3109 L
870 3274 L
895 3420 L
911 3484 L
937 3542 L
970 3638 L
1003 3710 L
1037 3760 L
1053 3792 L
1070 3792 L
1103 3810 L
1137 3819 L
1170 3824 L
1195 3825 L
1211 3826 L
1237 3826 L
1270 3827 L
1303 3827 L
1337 3827 L
1353 3828 L
1370 3828 L
1403 3828 L
1437 3829 L
1470 3830 L
1495 3831 L
1512 3831 L
1537 3832 L
1570 3833 L
1603 3835 L
1637 3836 L
1653 3838 L
1670 3838 L
1703 3840 L
1737 3843 L
1770 3846 L
1795 3849 L
1812 3851 L
1837 3853 L
1870 3857 L
1903 3862 L
1937 3868 L
1953 3874 L
1971 3874 L
2003 3881 L
2037 3889 L
2070 3897 L
2095 3906 L
2112 3911 L
2137 3916 L
2170 3927 L
2203 3938 L
2237 3950 L
2253 3962 L
2271 3962 L
2303 3974 L
2337 3986 L
2370 3998 L
2395 4009 L
2412 4015 L
2437 4020 L
2470 4031 L
2503 4040 L
2537 4048 L
2553 4056 L
2571 4056 L
2603 4062 L
2637 4068 L
2670 4072 L
2695 4076 L
2712 4078 L
2737 4079 L
2770 4081 L
2803 4083 L
2837 4084 L
2854 4085 L
2871 4085 L
2903 4086 L
2937 4086 L
2970 4086 L
2995 4086 L
3012 4086 L
3037 4086 L
3061 4086 L
3077 4086 L
3103 4086 L
3137 4086 L
3154 4086 L
3171 4086 L
3203 4086 L
3237 4086 L
3270 4086 L
3296 4086 L
3312 4086 L
3337 4086 L
3370 4086 L
3403 4086 L
3437 4086 L
3454 4086 L
3471 4086 L
3503 4086 L
3537 4086 L
3570 4086 L
3596 4086 L
3612 4086 L
3637 4086 L
3670 4086 L
3703 4086 L
3737 4086 L
3754 4086 L
3771 4086 L
3803 4086 L
3837 4086 L
3870 4086 L
3896 4086 L
3912 4086 L
3937 4086 L
3970 4086 L
4003 4086 L
4037 4086 L
4070 4086 L
LWMC SL dash03 C03 COSGR

GSN 753 2213 M
770 2213 L
803 2479 L
837 2730 L
870 2960 L
895 3162 L
911 3252 L
937 3332 L
970 3466 L
1003 3566 L
1037 3635 L
1053 3679 L
1070 3679 L
1103 3704 L
1137 3717 L
1170 3723 L
1195 3725 L
1211 3726 L
1237 3727 L
1270 3727 L
1303 3728 L
1337 3729 L
1353 3730 L
1370 3730 L
1403 3731 L
1437 3732 L
1470 3733 L
1495 3735 L
1512 3735 L
1537 3736 L
1570 3738 L
1603 3741 L
1637 3744 L
1653 3747 L
1670 3747 L
1703 3750 L
1737 3755 L
1770 3759 L
1795 3765 L
1812 3768 L
1837 3771 L
1870 3778 L
1903 3786 L
1937 3795 L
1953 3805 L
1971 3805 L
2003 3816 L
2037 3828 L
2070 3841 L
2095 3855 L
2112 3863 L
2137 3870 L
2170 3886 L
2203 3903 L
2237 3919 L
2253 3937 L
2271 3937 L
2303 3954 L
2337 3970 L
2370 3987 L
2395 4002 L
2412 4010 L
2437 4016 L
2470 4029 L
2503 4040 L
2537 4050 L
2553 4059 L
2571 4059 L
2603 4066 L
2637 4072 L
2670 4076 L
2695 4080 L
2712 4081 L
2737 4082 L
2770 4084 L
2803 4085 L
2837 4086 L
2854 4086 L
2871 4086 L
2903 4086 L
2937 4086 L
2970 4086 L
2995 4086 L
3012 4086 L
3037 4086 L
3061 4086 L
3077 4086 L
3103 4086 L
3137 4086 L
3154 4086 L
3171 4086 L
3203 4086 L
3237 4086 L
3270 4086 L
3296 4086 L
3312 4086 L
3337 4086 L
3370 4086 L
3403 4086 L
3437 4086 L
3454 4086 L
3471 4086 L
3503 4086 L
3537 4086 L
3570 4086 L
3596 4086 L
3612 4086 L
3637 4086 L
3670 4086 L
3703 4086 L
3737 4086 L
3754 4086 L
3771 4086 L
3803 4086 L
3837 4086 L
3870 4086 L
3896 4086 L
3912 4086 L
3937 4086 L
3970 4086 L
4003 4086 L
4037 4086 L
4070 4086 L
LWMC SL dash04 C04 COSGR

GSN 753 2119 M
770 2119 L
803 2399 L
837 2663 L
870 2904 L
895 3116 L
911 3210 L
937 3294 L
970 3435 L
1003 3540 L
1037 3613 L
1053 3659 L
1070 3659 L
1103 3685 L
1137 3699 L
1170 3705 L
1195 3708 L
1211 3709 L
1237 3709 L
1270 3710 L
1303 3711 L
1337 3711 L
1353 3712 L
1370 3712 L
1403 3713 L
1437 3715 L
1470 3716 L
1495 3718 L
1512 3719 L
1537 3720 L
1570 3722 L
1603 3725 L
1637 3728 L
1653 3731 L
1670 3731 L
1703 3735 L
1737 3740 L
1770 3745 L
1795 3751 L
1812 3755 L
1837 3758 L
1870 3766 L
1903 3775 L
1937 3785 L
1953 3795 L
1971 3796 L
2003 3807 L
2037 3820 L
2070 3835 L
2095 3850 L
2112 3859 L
2137 3866 L
2170 3883 L
2203 3901 L
2237 3919 L
2253 3938 L
2271 3938 L
2303 3956 L
2337 3974 L
2370 3990 L
2395 4006 L
2412 4014 L
2437 4021 L
2470 4034 L
2503 4045 L
2537 4055 L
2553 4064 L
2571 4064 L
2603 4070 L
2637 4075 L
2670 4079 L
2695 4082 L
2712 4083 L
2737 4084 L
2770 4085 L
2803 4086 L
2837 4086 L
2854 4086 L
2871 4086 L
2903 4086 L
2937 4086 L
2970 4086 L
2995 4086 L
3012 4086 L
3037 4086 L
3061 4086 L
3077 4086 L
3103 4086 L
3137 4086 L
3154 4086 L
3171 4086 L
3203 4086 L
3237 4086 L
3270 4086 L
3296 4086 L
3312 4086 L
3337 4086 L
3370 4086 L
3403 4086 L
3437 4086 L
3454 4086 L
3471 4086 L
3503 4086 L
3537 4086 L
3570 4086 L
3596 4086 L
3612 4086 L
3637 4086 L
3670 4086 L
3703 4086 L
3737 4086 L
3754 4086 L
3771 4086 L
3803 4086 L
3837 4086 L
3870 4086 L
3896 4086 L
3912 4086 L
3937 4086 L
3970 4086 L
4003 4086 L
4037 4086 L
4070 4086 L
LWMC SL dash05 C05 COSGR

GSN 753 1807 M
770 1807 L
803 2131 L
837 2437 L
870 2717 L
895 2963 L
911 3072 L
937 3169 L
970 3332 L
1003 3454 L
1037 3538 L
1053 3591 L
1070 3592 L
1103 3622 L
1137 3638 L
1170 3646 L
1195 3649 L
1211 3650 L
1237 3650 L
1270 3651 L
1303 3652 L
1337 3653 L
1353 3654 L
1370 3654 L
1403 3656 L
1437 3657 L
1470 3659 L
1495 3661 L
1512 3663 L
1537 3664 L
1570 3667 L
1603 3670 L
1637 3674 L
1653 3679 L
1670 3679 L
1703 3684 L
1737 3690 L
1770 3696 L
1795 3704 L
1812 3708 L
1837 3712 L
1870 3722 L
1903 3733 L
1937 3745 L
1953 3759 L
1971 3759 L
2003 3773 L
2037 3790 L
2070 3807 L
2095 3826 L
2112 3836 L
2137 3845 L
2170 3866 L
2203 3887 L
2237 3908 L
2253 3930 L
2271 3930 L
2303 3951 L
2337 3971 L
2370 3990 L
2395 4007 L
2412 4016 L
2437 4023 L
2470 4037 L
2503 4049 L
2537 4059 L
2553 4068 L
2571 4068 L
2603 4074 L
2637 4078 L
2670 4082 L
2695 4084 L
2712 4085 L
2737 4085 L
2770 4086 L
2803 4086 L
2837 4086 L
2854 4086 L
2871 4086 L
2903 4086 L
2937 4086 L
2970 4086 L
2995 4086 L
3012 4086 L
3037 4086 L
3061 4086 L
3077 4086 L
3103 4086 L
3137 4086 L
3154 4086 L
3171 4086 L
3203 4086 L
3237 4086 L
3270 4086 L
3296 4086 L
3312 4086 L
3337 4086 L
3370 4086 L
3403 4086 L
3437 4086 L
3454 4086 L
3471 4086 L
3503 4086 L
3537 4086 L
3570 4086 L
3596 4086 L
3612 4086 L
3637 4086 L
3670 4086 L
3703 4086 L
3737 4086 L
3754 4086 L
3771 4086 L
3803 4086 L
3837 4086 L
3870 4086 L
3896 4086 L
3912 4086 L
3937 4086 L
3970 4086 L
4003 4086 L
4037 4086 L
4070 4086 L
LWMC SL dash06 C06 COSGR

GSN 753 753 M
770 753 L
803 1226 L
837 1675 L
870 2085 L
895 2445 L
911 2604 L
937 2746 L
970 2986 L
1003 3164 L
1037 3287 L
1053 3365 L
1070 3366 L
1103 3411 L
1137 3434 L
1170 3445 L
1195 3450 L
1211 3451 L
1237 3452 L
1270 3454 L
1303 3456 L
1337 3458 L
1353 3460 L
1370 3460 L
1403 3462 L
1437 3465 L
1470 3469 L
1495 3473 L
1512 3475 L
1537 3477 L
1570 3483 L
1603 3489 L
1637 3496 L
1653 3504 L
1670 3504 L
1703 3513 L
1737 3524 L
1770 3536 L
1795 3549 L
1812 3557 L
1837 3564 L
1870 3581 L
1903 3600 L
1937 3621 L
1953 3644 L
1971 3645 L
2003 3669 L
2037 3696 L
2070 3724 L
2095 3754 L
2112 3770 L
2137 3785 L
2170 3817 L
2203 3849 L
2237 3880 L
2253 3911 L
2271 3912 L
2303 3940 L
2337 3967 L
2370 3991 L
2395 4013 L
2412 4023 L
2437 4032 L
2470 4047 L
2503 4059 L
2537 4069 L
2553 4076 L
2571 4076 L
2603 4080 L
2637 4083 L
2670 4085 L
2695 4086 L
2712 4086 L
2737 4086 L
2770 4086 L
2803 4086 L
2837 4086 L
2854 4086 L
2871 4086 L
2903 4086 L
2937 4086 L
2970 4086 L
2995 4086 L
3012 4086 L
3037 4086 L
3061 4086 L
3077 4086 L
3103 4086 L
3137 4086 L
3154 4086 L
3171 4086 L
3203 4086 L
3237 4086 L
3270 4086 L
3296 4086 L
3312 4086 L
3337 4086 L
3370 4086 L
3403 4086 L
3437 4086 L
3454 4086 L
3471 4086 L
3503 4086 L
3537 4086 L
3570 4086 L
3596 4086 L
3612 4086 L
3637 4086 L
3670 4086 L
3703 4086 L
3737 4086 L
3754 4086 L
3771 4086 L
3803 4086 L
3837 4086 L
3870 4086 L
3896 4086 L
3912 4086 L
3937 4086 L
3970 4086 L
4003 4086 L
4037 4086 L
4070 4086 L
LWMC SL dash07 C07 COSGR

%
%================
% Legend - Begin
%================
%
GSN 4240 4040 M
4480 4040 L
LWMC SL dash01 C01 COSGR
GSN 4540 4001 M helvM (0.5 uM) show grestore
GSN 4240 3860 M
4480 3860 L
LWMC SL dash02 C02 COSGR
GSN 4540 3821 M helvM (1.0 uM) show grestore
GSN 4240 3680 M
4480 3680 L
LWMC SL dash03 C03 COSGR
GSN 4540 3641 M helvM (1.5 uM) show grestore
GSN 4240 3500 M
4480 3500 L
LWMC SL dash04 C04 COSGR
GSN 4540 3461 M helvM (2.0 uM) show grestore
GSN 4240 3320 M
4480 3320 L
LWMC SL dash05 C05 COSGR
GSN 4540 3281 M helvM (2.5 uM) show grestore
GSN 4240 3140 M
4480 3140 L
LWMC SL dash06 C06 COSGR
GSN 4540 3101 M helvM (3.0 uM) show grestore
GSN 4240 2960 M
4480 2960 L
LWMC SL dash07 C07 COSGR
GSN 4540 2921 M helvM (4.0 uM) show grestore
%
%================
% Legend - End
%================
%

%
% Main frame
%
L10
GSN 
620 620 M
4220 620 L
4220 4220 L
620 4220 L
closepath SGR

%
% X axis: large tics
%
L10
GSN 1074 620 M 0  54 rL SGR
GSN 1074 4220 M 0 -54 rL SGR
helvS (0.0001) 1074 470 xlabel
GSN 1572 620 M 0  54 rL SGR
GSN 1572 4220 M 0 -54 rL SGR
helvS (0.001) 1572 470 xlabel
GSN 2071 620 M 0  54 rL SGR
GSN 2071 4220 M 0 -54 rL SGR
helvS (0.01) 2071 470 xlabel
GSN 2570 620 M 0  54 rL SGR
GSN 2570 4220 M 0 -54 rL SGR
helvS (0.1) 2570 470 xlabel
GSN 3068 620 M 0  54 rL SGR
GSN 3068 4220 M 0 -54 rL SGR
helvS (1) 3068 470 xlabel
GSN 3567 620 M 0  54 rL SGR
GSN 3567 4220 M 0 -54 rL SGR
helvS (10) 3567 470 xlabel
GSN 4066 620 M 0  54 rL SGR
GSN 4066 4220 M 0 -54 rL SGR
helvS (100) 4066 470 xlabel
%
% X axis: small tics
%
L5
GSN 725 620 M 0  36 rL SGR
GSN 725 4220 M 0 -36 rL SGR
GSN 813 620 M 0  36 rL SGR
GSN 813 4220 M 0 -36 rL SGR
GSN 875 620 M 0  36 rL SGR
GSN 875 4220 M 0 -36 rL SGR
GSN 924 620 M 0  36 rL SGR
GSN 924 4220 M 0 -36 rL SGR
GSN 963 620 M 0  36 rL SGR
GSN 963 4220 M 0 -36 rL SGR
GSN 996 620 M 0  36 rL SGR
GSN 996 4220 M 0 -36 rL SGR
GSN 1025 620 M 0  36 rL SGR
GSN 1025 4220 M 0 -36 rL SGR
GSN 1051 620 M 0  36 rL SGR
GSN 1051 4220 M 0 -36 rL SGR
GSN 1224 620 M 0  36 rL SGR
GSN 1224 4220 M 0 -36 rL SGR
GSN 1312 620 M 0  36 rL SGR
GSN 1312 4220 M 0 -36 rL SGR
GSN 1374 620 M 0  36 rL SGR
GSN 1374 4220 M 0 -36 rL SGR
GSN 1422 620 M 0  36 rL SGR
GSN 1422 4220 M 0 -36 rL SGR
GSN 1462 620 M 0  36 rL SGR
GSN 1462 4220 M 0 -36 rL SGR
GSN 1495 620 M 0  36 rL SGR
GSN 1495 4220 M 0 -36 rL SGR
GSN 1524 620 M 0  36 rL SGR
GSN 1524 4220 M 0 -36 rL SGR
GSN 1550 620 M 0  36 rL SGR
GSN 1550 4220 M 0 -36 rL SGR
GSN 1722 620 M 0  36 rL SGR
GSN 1722 4220 M 0 -36 rL SGR
GSN 1810 620 M 0  36 rL SGR
GSN 1810 4220 M 0 -36 rL SGR
GSN 1873 620 M 0  36 rL SGR
GSN 1873 4220 M 0 -36 rL SGR
GSN 1921 620 M 0  36 rL SGR
GSN 1921 4220 M 0 -36 rL SGR
GSN 1960 620 M 0  36 rL SGR
GSN 1960 4220 M 0 -36 rL SGR
GSN 1994 620 M 0  36 rL SGR
GSN 1994 4220 M 0 -36 rL SGR
GSN 2023 620 M 0  36 rL SGR
GSN 2023 4220 M 0 -36 rL SGR
GSN 2048 620 M 0  36 rL SGR
GSN 2048 4220 M 0 -36 rL SGR
GSN 2221 620 M 0  36 rL SGR
GSN 2221 4220 M 0 -36 rL SGR
GSN 2309 620 M 0  36 rL SGR
GSN 2309 4220 M 0 -36 rL SGR
GSN 2371 620 M 0  36 rL SGR
GSN 2371 4220 M 0 -36 rL SGR
GSN 2420 620 M 0  36 rL SGR
GSN 2420 4220 M 0 -36 rL SGR
GSN 2459 620 M 0  36 rL SGR
GSN 2459 4220 M 0 -36 rL SGR
GSN 2492 620 M 0  36 rL SGR
GSN 2492 4220 M 0 -36 rL SGR
GSN 2521 620 M 0  36 rL SGR
GSN 2521 4220 M 0 -36 rL SGR
GSN 2547 620 M 0  36 rL SGR
GSN 2547 4220 M 0 -36 rL SGR
GSN 2720 620 M 0  36 rL SGR
GSN 2720 4220 M 0 -36 rL SGR
GSN 2808 620 M 0  36 rL SGR
GSN 2808 4220 M 0 -36 rL SGR
GSN 2870 620 M 0  36 rL SGR
GSN 2870 4220 M 0 -36 rL SGR
GSN 2918 620 M 0  36 rL SGR
GSN 2918 4220 M 0 -36 rL SGR
GSN 2958 620 M 0  36 rL SGR
GSN 2958 4220 M 0 -36 rL SGR
GSN 2991 620 M 0  36 rL SGR
GSN 2991 4220 M 0 -36 rL SGR
GSN 3020 620 M 0  36 rL SGR
GSN 3020 4220 M 0 -36 rL SGR
GSN 3045 620 M 0  36 rL SGR
GSN 3045 4220 M 0 -36 rL SGR
GSN 3218 620 M 0  36 rL SGR
GSN 3218 4220 M 0 -36 rL SGR
GSN 3306 620 M 0  36 rL SGR
GSN 3306 4220 M 0 -36 rL SGR
GSN 3368 620 M 0  36 rL SGR
GSN 3368 4220 M 0 -36 rL SGR
GSN 3417 620 M 0  36 rL SGR
GSN 3417 4220 M 0 -36 rL SGR
GSN 3456 620 M 0  36 rL SGR
GSN 3456 4220 M 0 -36 rL SGR
GSN 3490 620 M 0  36 rL SGR
GSN 3490 4220 M 0 -36 rL SGR
GSN 3519 620 M 0  36 rL SGR
GSN 3519 4220 M 0 -36 rL SGR
GSN 3544 620 M 0  36 rL SGR
GSN 3544 4220 M 0 -36 rL SGR
GSN 3717 620 M 0  36 rL SGR
GSN 3717 4220 M 0 -36 rL SGR
GSN 3805 620 M 0  36 rL SGR
GSN 3805 4220 M 0 -36 rL SGR
GSN 3867 620 M 0  36 rL SGR
GSN 3867 4220 M 0 -36 rL SGR
GSN 3915 620 M 0  36 rL SGR
GSN 3915 4220 M 0 -36 rL SGR
GSN 3955 620 M 0  36 rL SGR
GSN 3955 4220 M 0 -36 rL SGR
GSN 3988 620 M 0  36 rL SGR
GSN 3988 4220 M 0 -36 rL SGR
GSN 4017 620 M 0  36 rL SGR
GSN 4017 4220 M 0 -36 rL SGR
GSN 4043 620 M 0  36 rL SGR
GSN 4043 4220 M 0 -36 rL SGR
GSN 4216 620 M 0  36 rL SGR
GSN 4216 4220 M 0 -36 rL SGR
%
% Y axis: large tics
%
L10
GSN 620 1428 M 54 0 rL SGR
GSN 4220 1428 M -54 0 rL SGR
helvS (-15) 560 1428 ylabel
GSN 620 2314 M 54 0 rL SGR
GSN 4220 2314 M -54 0 rL SGR
helvS (-10) 560 2314 ylabel
GSN 620 3200 M 54 0 rL SGR
GSN 4220 3200 M -54 0 rL SGR
helvS (-5) 560 3200 ylabel
GSN 620 4086 M 54 0 rL SGR
GSN 4220 4086 M -54 0 rL SGR
helvS (0) 560 4086 ylabel
%
% Y axis: small tics
%
L5
GSN 620 985 M 36 0 rL SGR
GSN 4220 985 M -36 0 rL SGR
GSN 620 1428 M 36 0 rL SGR
GSN 4220 1428 M -36 0 rL SGR
GSN 620 1871 M 36 0 rL SGR
GSN 4220 1871 M -36 0 rL SGR
GSN 620 2314 M 36 0 rL SGR
GSN 4220 2314 M -36 0 rL SGR
GSN 620 2757 M 36 0 rL SGR
GSN 4220 2757 M -36 0 rL SGR
GSN 620 3200 M 36 0 rL SGR
GSN 4220 3200 M -36 0 rL SGR
GSN 620 3643 M 36 0 rL SGR
GSN 4220 3643 M -36 0 rL SGR
GSN 620 4086 M 36 0 rL SGR
GSN 4220 4086 M -36 0 rL SGR

%
% X axis
%
GSN L5 620 4086 M 4220 4086 L SDA G50 SGR

%
% X-Axis label:
%
gsave 2420 290 M 
[
[(Helvetica) 180 0 true true 0 (t)]
[(Helvetica) 180 0 true true 0 (i)]
[(Helvetica) 180 0 true true 0 (m)]
[(Helvetica) 180 0 true true 0 (e)]
] 0 MCshow grestore

%
% Y-Axis label:
%
gsave 234 2420 M 
currentpoint gsave translate 90 rotate 0 0 moveto
[
[(Helvetica) 180 0 true true 0 (d)]
[(Helvetica) 180 0 true true 0 (\()]
[(Helvetica) 180 0 true true 0 (s)]
[(Helvetica) 180 0 true true 0 (i)]
[(Helvetica) 180 0 true true 0 (g)]
[(Helvetica) 180 0 true true 0 (n)]
[(Helvetica) 180 0 true true 0 (a)]
[(Helvetica) 180 0 true true 0 (l)]
[(Helvetica) 180 0 true true 0 (\))]
[(Helvetica) 180 0 true true 0 ( )]
[(Helvetica) 180 0 true true 0 (/)]
[(Helvetica) 180 0 true true 0 ( )]
[(Helvetica) 180 0 true true 0 (d)]
[(Helvetica) 180 0 true true 0 (t)]
] 0 MCshow grestore

end
showpage
%%Trailer
%%EOF
