%!PS-Adobe-3.0 EPSF-3.0
%%BoundingBox: 0 0 514 550
%%Creator: BioKin Ltd.
%%DocumentFonts: Symbol Helvetica
%%EndComments
%
/bkdict 256 dict def
bkdict begin
/M {moveto} def 
/R {rmoveto} def
/L {lineto} def
/rL {rlineto} def
/GSN {gsave newpath} def
/SGR {stroke grestore} def
/COSGR {gsave setrgbcolor stroke grestore grestore} def
/SL {setlinewidth} def
/LWMB {12} def             % line width - model curves, black & white
/LWMC {10} def             % line width - model curves, color
/L2 {2.5 setlinewidth} def
/L5 {5 setlinewidth} def
/L10 {10 setlinewidth} def
/G50 {0.5 setgray} def
/SDA {[10  20] 0 setdash} def % axes
/helvT {/Helvetica findfont 100 scalefont setfont} def % tiny
/helvS {/Helvetica findfont 125 scalefont setfont} def % small
/helvM {/Helvetica findfont 150 scalefont setfont} def % medium
/helvL {/Helvetica findfont 175 scalefont setfont} def % large
/xlabel {gsave M dup
   stringwidth exch -0.5 mul exch rmoveto show grestore} def 
/ylabel {gsave M 90 rotate dup
   stringwidth exch -0.5 mul exch rmoveto show grestore} def
/ylabelresid {gsave M dup
   stringwidth exch -1 mul exch rmoveto show grestore} def
% ======
% Shapes
% ======
% Circle:
/Circ {0 360 arc closepath} def
%
% Square:
/Squa {dup dup -0.5 mul dup dup R -2 mul 0 exch rL 1 mul 0 rL dup 0 exch -1 mul rL closepath} def
%
% Triangle Up:
/TriU {dup dup dup -0.4 mul exch -0.5 mul exch R dup 0.5 mul exch rL dup -1 mul exch 0.5 mul exch rL closepath} def 
%
% Triangle Down:
/TriD {dup dup dup 0.4 mul exch -0.5 mul exch R dup 0.5 mul exch -1 mul rL dup 0.5 mul exch rL closepath} def 
%
% Diamond:
/Diam {45 rotate Squa} def
% ======
% Fills
% ======
/GRF {gsave setgray fill grestore} def                    % gray-level Fill
/COF {gsave setrgbcolor fill grestore} def                % color fill
% ======
% Colors
% ======
/C01 {1.00	0.00	0.00} def      % Red
/C02 {0.00	0.00	1.00} def      % Blue
/C03 {0.00	0.39	0.00} def      % Dark Green
/C04 {0.78	0.08	0.52} def      % Medium Violet Red
/C05 {0.55	0.27	0.07} def      % Saddle Brown
/C06 {0.10	0.70	0.70} def      % (cyan)
/C07 {1.00	0.55	0.00} def      % Dark Orange
/C08 {0.63	0.13	0.94} def      % Purple
/C09 {0.00	0.75	1.00} def      % Deep Sky Blue
/C10 {0.20	0.80	0.20} def      % Lime Green
/C11 {0.47	0.53	0.60} def      % Light Slate Gray
/C12 {0.00	0.00	0.00} def      % Black            % or: {0.19	0.31	0.31} def      % Dark Slate Gray
%
/LGR {0.75} def % light gray
/DGR {0.33} def % dark gray
%
% =============
% Dash patterns
% =============
/dash01 { [80  20] 0 setdash } def
/dash02 { [40  20] 0 setdash } def
/dash03 { [80  20  10  20] 0 setdash } def
/dash04 { [40  20  10  20] 0 setdash } def
/dash05 { [80  20  10  10  10  20] 0 setdash } def
/dash06 { [40  20  10  10  10  20] 0 setdash } def
/dash07 { [10  10] 0 setdash } def
%
/MFshow {
   { dup 5 get 3 ge
     { 5 get 3 eq {gsave} {grestore} ifelse }
     {dup dup 0 get findfont exch 1 get scalefont setfont
     [ currentpoint ] exch dup 2 get 0 exch R dup 5 get 2 ne {dup dup 6
     get exch 4 get {show} {stringwidth pop 0 R} ifelse }if dup 5 get 0 eq
     {dup 3 get {2 get neg 0 exch R pop} {pop aload pop M} ifelse} {dup 5
     get 1 eq {dup 2 get exch dup 3 get exch 6 get stringwidth pop -2 div
     dup 0 R} {dup 6 get stringwidth pop -2 div 0 R 6 get
     show 2 index {aload pop M neg 3 -1 roll neg R pop pop} {pop pop pop
     pop aload pop M} ifelse }ifelse }ifelse }
     ifelse }
   forall} bind def
/MFwidth {0 exch {dup 3 get{dup dup 0 get findfont exch 1 get scalefont
     setfont 6 get stringwidth pop add} {pop} ifelse} forall} bind def
/MCshow { currentpoint stroke M
  exch dup MFwidth -2 div 3 -1 roll R MFshow } def
%
end
%%EndProlog
bkdict begin
0.1 0.1 scale
%
% Model curves:
%

GSN 753 5166 M
753 5166 L
786 5165 L
820 5163 L
853 5162 L
886 5160 L
920 5158 L
929 5157 L
953 5155 L
986 5153 L
1020 5149 L
1053 5146 L
1086 5142 L
1106 5139 L
1120 5137 L
1153 5132 L
1186 5126 L
1220 5119 L
1253 5112 L
1282 5104 L
1286 5103 L
1319 5093 L
1353 5082 L
1386 5069 L
1419 5055 L
1453 5039 L
1459 5036 L
1486 5020 L
1519 5000 L
1553 4977 L
1586 4951 L
1619 4922 L
1635 4907 L
1653 4890 L
1686 4854 L
1719 4814 L
1753 4770 L
1786 4721 L
1812 4680 L
1819 4668 L
1853 4609 L
1886 4545 L
1919 4476 L
1953 4402 L
1986 4322 L
1988 4317 L
2019 4238 L
2053 4148 L
2086 4055 L
2119 3957 L
2153 3857 L
2165 3820 L
2186 3754 L
2219 3649 L
2253 3544 L
2286 3440 L
2319 3336 L
2341 3269 L
2353 3235 L
2386 3137 L
2419 3043 L
2453 2953 L
2486 2869 L
2518 2794 L
2519 2790 L
2553 2717 L
2586 2650 L
2619 2590 L
2653 2536 L
2686 2488 L
2694 2477 L
2719 2446 L
2753 2410 L
2786 2380 L
2819 2356 L
2853 2336 L
2871 2327 L
2886 2321 L
2919 2310 L
2953 2302 L
2986 2297 L
3019 2293 L
3047 2292 L
3053 2292 L
3086 2292 L
3119 2292 L
3153 2292 L
3186 2293 L
3219 2294 L
3224 2294 L
3253 2296 L
3286 2297 L
3319 2299 L
3353 2301 L
3386 2303 L
3400 2304 L
3419 2305 L
3453 2308 L
3476 2310 L
3486 2311 L
3519 2315 L
3553 2319 L
3577 2322 L
3586 2323 L
3619 2329 L
3653 2335 L
3686 2341 L
3719 2349 L
3753 2358 L
3754 2358 L
3786 2368 L
3819 2379 L
3853 2392 L
3886 2406 L
3919 2422 L
3930 2428 L
3953 2440 L
3986 2461 L
4019 2484 L
4053 2510 L
4086 2539 L
4086 2539 L
LWMC SL  C03 COSGR

%
% Experimental data:
%
GSN 777 3677 M
1388 3671 L
1552 3692 L
1652 3773 L
1723 3643 L
1778 3556 L
1824 3565 L
1863 3536 L
1896 3521 L
1926 3549 L
1952 3600 L
1976 3639 L
1998 3754 L
2019 3811 L
2037 3614 L
2055 3811 L
2071 3717 L
2086 3622 L
2101 3605 L
2115 3618 L
2128 3774 L
2140 3638 L
2152 3591 L
2163 3812 L
2174 3769 L
2184 3645 L
2194 3535 L
2204 3479 L
2213 3625 L
2222 3643 L
2230 3607 L
2239 3665 L
2247 3566 L
2255 3559 L
2262 3673 L
2270 3532 L
2277 3576 L
2284 3527 L
2290 3658 L
2297 3601 L
2303 3516 L
2310 3417 L
2316 3481 L
2322 3443 L
2328 3471 L
2333 3499 L
2339 3535 L
2344 3519 L
2350 3583 L
2355 3432 L
2360 3440 L
2365 3491 L
2370 3526 L
2375 3467 L
2380 3363 L
2384 3520 L
2389 3475 L
2393 3614 L
2398 3478 L
2402 3379 L
2407 3375 L
2411 3487 L
2415 3446 L
2419 3421 L
2423 3522 L
2427 3450 L
2431 3598 L
2435 3441 L
2438 3374 L
2442 3470 L
2446 3438 L
2449 3364 L
2453 3383 L
2456 3440 L
2460 3403 L
2463 3351 L
2467 3286 L
2470 3319 L
2473 3391 L
2476 3427 L
2480 3319 L
2483 3342 L
2486 3475 L
2489 3344 L
2492 3422 L
2495 3331 L
2498 3381 L
2501 3283 L
2504 3423 L
2507 3369 L
2510 3267 L
2512 3366 L
2515 3418 L
2518 3344 L
2521 3373 L
2523 3311 L
2526 3335 L
2529 3248 L
2531 3137 L
2534 3261 L
2536 3253 L
2539 3291 L
2541 3272 L
2544 3207 L
2546 3140 L
2549 3241 L
2551 3276 L
2554 3254 L
2556 3207 L
2558 3247 L
2561 3276 L
2563 3157 L
2565 3147 L
2568 3370 L
2570 3325 L
2572 3293 L
2574 3222 L
2576 3106 L
2579 3450 L
2581 3189 L
2583 3116 L
2585 3232 L
2587 3295 L
2589 3220 L
2591 3162 L
2593 3198 L
2595 3145 L
2597 3220 L
2599 3164 L
2601 3169 L
2603 3311 L
2605 3056 L
2607 3119 L
2609 3148 L
2611 3195 L
2613 3171 L
2615 3044 L
2617 3085 L
2618 3156 L
2620 3179 L
2622 3181 L
2624 3211 L
2626 3180 L
2627 3032 L
2629 3071 L
2631 3146 L
2633 3152 L
2634 3105 L
2636 3196 L
2638 3085 L
2640 3110 L
2641 3073 L
2643 3150 L
2645 3050 L
2646 3157 L
2648 3100 L
2650 2883 L
2651 3099 L
2653 3036 L
2654 3110 L
2656 3015 L
2658 3110 L
2659 3014 L
2661 2925 L
2662 3008 L
2664 3142 L
2665 3126 L
2667 2993 L
2668 3055 L
2670 3101 L
2671 3092 L
2673 2976 L
2674 3058 L
2676 3061 L
2677 2986 L
2679 3060 L
2680 3034 L
2682 3018 L
2683 3017 L
2685 2983 L
2686 2972 L
2687 3044 L
2689 2973 L
2690 2998 L
2692 2810 L
2693 3090 L
2694 3031 L
2696 2932 L
2697 2909 L
2698 3042 L
2700 3068 L
2701 2974 L
2702 3061 L
2704 2948 L
2705 2930 L
2706 2952 L
2708 2891 L
2709 3022 L
2710 2942 L
2712 3007 L
2713 2962 L
2714 2986 L
2715 3019 L
2717 2901 L
2718 2908 L
2719 2958 L
2720 3041 L
2722 2942 L
2723 2872 L
2724 3015 L
2725 2971 L
2726 2885 L
2728 2936 L
2729 2856 L
2730 2913 L
2731 2855 L
2732 2978 L
2734 2882 L
2735 2950 L
2736 2815 L
2737 2818 L
2738 2920 L
2739 2860 L
2741 2831 L
2742 2769 L
2743 2977 L
2744 2806 L
2745 2907 L
2746 2838 L
2747 3027 L
2748 2872 L
2749 2882 L
2751 2893 L
2752 2827 L
2753 3010 L
2754 2800 L
2755 2854 L
2756 2875 L
2757 2804 L
2758 2882 L
2759 2821 L
2760 2854 L
2761 2961 L
2762 2890 L
2763 2867 L
2764 2895 L
2765 2755 L
2767 2976 L
2768 3001 L
2769 2889 L
2770 2700 L
2771 2884 L
2772 2817 L
2773 2809 L
2774 2908 L
2775 2729 L
2776 2851 L
2777 2778 L
2778 2911 L
2779 2805 L
2780 2809 L
2781 2859 L
2782 2710 L
2783 2854 L
2783 2868 L
2784 2837 L
2785 2769 L
2786 2831 L
2787 2707 L
2788 2766 L
2789 2728 L
2790 2788 L
2791 2671 L
2792 2882 L
2793 2796 L
2794 2823 L
2795 2783 L
2796 2777 L
2797 2696 L
2798 2890 L
2798 2811 L
2799 2908 L
2800 2801 L
2801 2901 L
2802 2813 L
2803 2766 L
2804 2703 L
2805 2807 L
2806 2708 L
2807 2779 L
2807 2663 L
2808 2808 L
2809 2822 L
2810 2730 L
2811 2724 L
2812 2798 L
2813 2689 L
2813 2669 L
2814 2593 L
2815 2756 L
2816 2863 L
2817 2688 L
2818 2776 L
2819 2801 L
2819 2734 L
2820 2779 L
2821 2589 L
2822 2712 L
2823 2852 L
2824 2683 L
2824 2630 L
2825 2703 L
2826 2712 L
2827 2942 L
2828 2687 L
2828 2561 L
2829 2677 L
2830 2644 L
2831 2693 L
2832 2613 L
2832 2696 L
2833 2628 L
2834 2682 L
2835 2758 L
2836 2638 L
2836 2636 L
2837 2589 L
2838 2704 L
2839 2615 L
2840 2595 L
2840 2627 L
2841 2611 L
2842 2663 L
2843 2763 L
2843 2619 L
2844 2651 L
2845 2631 L
2846 2527 L
2846 2648 L
2847 2554 L
2848 2677 L
2849 2817 L
2849 2557 L
2850 2587 L
2851 2725 L
2852 2535 L
2852 2647 L
2853 2661 L
2854 2680 L
2855 2704 L
2855 2765 L
2856 2616 L
2857 2666 L
2857 2631 L
2858 2595 L
2859 2614 L
2860 2645 L
2860 2543 L
2861 2573 L
2862 2545 L
2862 2585 L
2863 2530 L
2864 2711 L
2865 2536 L
2865 2771 L
2866 2570 L
2867 2491 L
2867 2575 L
2868 2634 L
2869 2695 L
2869 2647 L
2870 2603 L
2871 2716 L
2871 2618 L
2872 2566 L
2873 2486 L
2873 2588 L
2874 2700 L
2875 2530 L
2876 2611 L
2876 2716 L
2877 2564 L
2878 2550 L
2878 2541 L
2879 2653 L
2880 2631 L
2880 2527 L
2881 2603 L
2881 2531 L
2882 2568 L
2883 2678 L
2883 2576 L
2884 2653 L
2885 2690 L
2885 2492 L
2886 2523 L
2887 2692 L
2887 2655 L
2888 2528 L
2889 2584 L
2889 2576 L
2892 2709 L
2894 2625 L
2897 2574 L
2899 2657 L
2902 2510 L
2904 2650 L
2907 2640 L
2909 2413 L
2911 2474 L
2914 2488 L
2916 2521 L
2918 2450 L
2921 2605 L
2923 2437 L
2925 2429 L
2927 2457 L
2929 2449 L
2932 2452 L
2934 2481 L
2936 2388 L
2938 2476 L
2940 2465 L
2942 2447 L
2944 2462 L
2946 2375 L
2948 2478 L
2950 2435 L
2952 2353 L
2954 2376 L
2956 2379 L
2958 2418 L
2960 2254 L
2962 2406 L
2964 2450 L
2966 2452 L
2968 2393 L
2970 2436 L
2971 2392 L
2973 2361 L
2975 2285 L
2977 2266 L
2979 2356 L
2980 2281 L
2982 2408 L
2984 2293 L
2986 2350 L
2987 2336 L
2989 2426 L
2991 2338 L
2993 2408 L
2994 2293 L
2996 2378 L
2998 2345 L
2999 2286 L
3001 2295 L
3003 2168 L
3004 2380 L
3006 2228 L
3007 2278 L
3009 2304 L
3011 2274 L
3012 2239 L
3014 2172 L
3015 2318 L
3017 2263 L
3018 2197 L
3020 2217 L
3021 2164 L
3023 2292 L
3024 2246 L
3026 2246 L
3027 2209 L
3029 2113 L
3030 2262 L
3032 2267 L
3033 2262 L
3035 2200 L
3036 2220 L
3038 2333 L
3039 2078 L
3040 2304 L
3042 2148 L
3043 2236 L
3045 2242 L
3046 2232 L
3047 2141 L
3049 2320 L
3050 2215 L
3051 2276 L
3053 2183 L
3054 2082 L
3055 2156 L
3057 2162 L
3058 2209 L
3059 2149 L
3061 2155 L
3062 2118 L
3063 2030 L
3065 2100 L
3066 2178 L
3067 2150 L
3068 2076 L
3070 2182 L
3071 2164 L
3072 2146 L
3073 2247 L
3075 2048 L
3076 2103 L
3077 2207 L
3078 2008 L
3079 2158 L
3081 2198 L
3082 2171 L
3083 2169 L
3084 2066 L
3085 2170 L
3087 2096 L
3088 2179 L
3089 1904 L
3090 2216 L
3091 2086 L
3092 2041 L
3094 2111 L
3095 2042 L
3096 2050 L
3097 2110 L
3098 2123 L
3099 2123 L
3100 2078 L
3101 2121 L
3103 2090 L
3104 2044 L
3105 2152 L
3106 2030 L
3107 2203 L
3108 2048 L
3109 1997 L
3110 2136 L
3111 2072 L
3112 2061 L
3113 2136 L
3114 2183 L
3115 2062 L
3116 2082 L
3117 2076 L
3119 2033 L
3120 2065 L
3121 1945 L
3122 2063 L
3123 1978 L
3124 1933 L
3125 1993 L
3126 2033 L
3127 1993 L
3128 1943 L
3129 2080 L
3130 2039 L
3131 1912 L
3132 2061 L
3133 2000 L
3134 2197 L
3135 1992 L
3136 1990 L
3136 1945 L
3137 1971 L
3138 2019 L
3139 2127 L
3140 2113 L
3141 2064 L
3142 1994 L
3143 2046 L
3144 2011 L
3145 2074 L
3146 1976 L
3147 1977 L
3148 2139 L
3149 1957 L
3150 1994 L
3151 2004 L
3151 2014 L
3152 2085 L
3153 2033 L
3154 1930 L
3155 1980 L
3156 1978 L
3157 2031 L
3158 2055 L
3159 1968 L
3160 1967 L
3160 1973 L
3161 1923 L
3162 1959 L
3163 1993 L
3164 2023 L
3165 2042 L
3166 1932 L
3166 1992 L
3167 1973 L
3168 1933 L
3169 1915 L
3170 1923 L
3171 1967 L
3172 2020 L
3172 2056 L
3173 1966 L
3174 2081 L
3175 1994 L
3176 2105 L
3177 1941 L
3177 1981 L
3178 2018 L
3179 2121 L
3180 2023 L
3181 1855 L
3181 1966 L
3182 2027 L
3183 1933 L
3184 2001 L
3185 1999 L
3185 1900 L
3186 1987 L
3187 1974 L
3188 1988 L
3189 2059 L
3189 1942 L
3190 1957 L
3191 2068 L
3192 2020 L
3193 1951 L
3193 2064 L
3194 1971 L
3195 1945 L
3196 1969 L
3196 1918 L
3197 1969 L
3198 1951 L
3199 1838 L
3199 2026 L
3200 1974 L
3201 1994 L
3202 1941 L
3202 2068 L
3203 1953 L
3204 1869 L
3205 1899 L
3205 1874 L
3206 1928 L
3207 2075 L
3208 1938 L
3208 2009 L
3209 2035 L
3210 2035 L
3210 1840 L
3211 1907 L
3212 1996 L
3213 2064 L
3213 1982 L
3214 1985 L
3215 2023 L
3215 1924 L
3216 1955 L
3217 2061 L
3218 2015 L
3218 1953 L
3219 1875 L
3220 2064 L
3220 1978 L
3221 2180 L
3222 2013 L
3222 2155 L
3223 2019 L
3224 2127 L
3224 1849 L
3225 1953 L
3226 1994 L
3227 1926 L
3227 2077 L
3228 1882 L
3229 2048 L
3229 1914 L
3230 2010 L
3231 1993 L
3231 1873 L
3232 2040 L
3233 1866 L
3233 2037 L
3234 1936 L
3235 2079 L
3235 1966 L
3236 1986 L
3236 1997 L
3237 1970 L
3238 1908 L
3238 1974 L
3239 2043 L
3240 1986 L
3240 1972 L
3241 2015 L
3242 1941 L
3242 1918 L
3243 1863 L
3244 2007 L
3244 1922 L
3245 2052 L
3245 1948 L
3246 1982 L
3247 1975 L
3247 1833 L
3248 1942 L
3249 2106 L
3249 2007 L
3250 1898 L
3250 1949 L
3251 2012 L
3252 1988 L
3252 2004 L
3253 1941 L
3253 1932 L
3254 1995 L
3255 2012 L
3255 2017 L
3256 1869 L
3257 2088 L
3257 1922 L
3258 2044 L
3258 1966 L
3259 2142 L
3259 1899 L
3260 2036 L
3261 1970 L
3261 1947 L
3262 1961 L
3262 2030 L
3263 2070 L
3264 2056 L
3264 2009 L
3265 1988 L
3265 2074 L
3266 1898 L
3267 1918 L
3267 2014 L
3268 1919 L
3268 2019 L
3269 2070 L
3269 1963 L
3270 2034 L
3271 1935 L
3271 2002 L
3272 1931 L
3272 2055 L
3273 1957 L
3273 2044 L
3274 2012 L
3275 2051 L
3275 2017 L
3276 1972 L
3276 1924 L
3277 2073 L
3277 2065 L
3278 2037 L
3278 1937 L
3279 1979 L
3280 2064 L
3280 2073 L
3281 1961 L
3281 2019 L
3282 2014 L
3282 2013 L
3283 2000 L
3283 2060 L
3284 1961 L
3284 2018 L
3285 2014 L
3285 1975 L
3286 2138 L
3287 1954 L
3287 2040 L
3288 2050 L
3288 2066 L
3289 1987 L
3289 1996 L
3290 2023 L
3290 2121 L
3291 1927 L
3291 2101 L
3292 1961 L
3292 2035 L
3293 2091 L
3293 1937 L
3294 1960 L
3294 2052 L
3295 2016 L
3295 2042 L
3296 2011 L
3297 1985 L
3297 2046 L
3298 1976 L
3298 2083 L
3299 2038 L
3299 2067 L
3300 1929 L
3300 1978 L
3301 1996 L
3301 2007 L
3302 1940 L
3302 1984 L
3303 1884 L
3303 2117 L
3304 1965 L
3304 2092 L
3305 2097 L
3305 1979 L
3306 1940 L
3306 2084 L
3307 2119 L
3307 2033 L
3308 1960 L
3308 1974 L
3309 2004 L
3309 2043 L
3310 1979 L
3310 2128 L
3311 1994 L
3311 2037 L
3312 2046 L
3312 2113 L
3312 1892 L
3313 2152 L
3313 1972 L
3314 1999 L
3314 2095 L
3315 1950 L
3315 2004 L
3316 2025 L
3316 2101 L
3317 2060 L
3317 2177 L
3318 1950 L
3318 2006 L
3319 2058 L
3319 1949 L
3320 2040 L
3320 2023 L
3321 2011 L
3321 1906 L
3321 2014 L
3322 2030 L
3322 2019 L
3323 2022 L
3323 2004 L
3324 2181 L
3324 2027 L
3325 2092 L
3325 2118 L
3326 2138 L
3326 2108 L
3327 1995 L
3327 2084 L
3327 2189 L
3328 2070 L
3328 1990 L
3329 2095 L
3329 1950 L
3330 2085 L
3330 1976 L
3331 2075 L
3331 2074 L
3332 2182 L
3332 2031 L
3332 1982 L
3333 2073 L
3333 2263 L
3334 1970 L
3334 1917 L
3335 2088 L
3335 2033 L
3336 2048 L
3336 2038 L
3336 1993 L
3337 2110 L
3337 1930 L
3338 2145 L
3338 1983 L
3339 2162 L
3339 1961 L
3339 2147 L
3340 2059 L
3340 1985 L
3341 2086 L
3341 2089 L
3342 2125 L
3342 2030 L
3343 2078 L
3343 2065 L
3343 1991 L
3344 2086 L
3344 1998 L
3345 1975 L
3345 2065 L
3346 2042 L
3346 1978 L
3346 2092 L
3347 2132 L
3347 2062 L
3348 2048 L
3348 2110 L
3348 2104 L
3349 1976 L
3349 2097 L
3350 1938 L
3350 2030 L
3351 2010 L
3351 2104 L
3351 2117 L
3352 2164 L
3352 2011 L
3353 2002 L
3353 2058 L
3353 2051 L
3354 2050 L
3354 2009 L
3355 2019 L
3355 2068 L
3355 2131 L
3356 2059 L
3356 2088 L
3357 2043 L
3357 2086 L
3358 2039 L
3358 2245 L
3358 2051 L
3359 2117 L
3359 2143 L
3360 2037 L
3360 2138 L
3360 2045 L
3361 2248 L
3361 2062 L
3362 2091 L
3362 2165 L
3362 2051 L
3363 1916 L
3363 2113 L
3364 2050 L
3364 2168 L
3364 2124 L
3365 1929 L
3365 2128 L
3365 2174 L
3366 2163 L
3366 2151 L
3367 2065 L
3367 2074 L
3367 2077 L
3368 2063 L
3368 2192 L
3369 2032 L
3369 2144 L
3369 2127 L
3370 2085 L
3370 2126 L
3371 2092 L
3371 2141 L
3371 2119 L
3372 2101 L
3372 2055 L
3372 2046 L
3373 1917 L
3373 2056 L
3374 1911 L
3374 2114 L
3374 1945 L
3375 2140 L
3375 2151 L
3375 2035 L
3376 2136 L
3376 2040 L
3377 2104 L
3377 2324 L
3377 2150 L
3378 2077 L
3378 1953 L
3378 2108 L
3379 2047 L
3379 2158 L
3380 2059 L
3380 2063 L
3380 2113 L
3381 2226 L
3381 2037 L
3381 2124 L
3382 2107 L
3382 2017 L
3383 2097 L
3383 2046 L
3383 2185 L
3384 2040 L
3384 2306 L
3384 2067 L
3385 2163 L
3385 2158 L
3385 2127 L
3386 2064 L
3386 2215 L
3387 2097 L
3387 2123 L
3387 2219 L
3388 2010 L
3388 2083 L
3388 2131 L
3389 2079 L
3389 2168 L
3389 2074 L
3390 2061 L
3390 2203 L
3391 2081 L
3391 2144 L
3391 2062 L
3392 2130 L
3392 2078 L
3392 2198 L
3393 2062 L
3393 2209 L
3393 2160 L
3394 2142 L
3394 2008 L
3394 2050 L
3395 2084 L
3395 2033 L
3395 2094 L
3396 2179 L
3396 2068 L
3396 2094 L
3397 2064 L
3397 2121 L
3398 2127 L
3398 2068 L
3398 2112 L
3399 2080 L
3399 2095 L
3399 2069 L
3400 2090 L
3400 2088 L
3400 2071 L
3401 2190 L
3401 2042 L
3401 2146 L
3402 2226 L
3402 2156 L
3402 2218 L
3403 2160 L
3403 2126 L
3403 2205 L
3404 2164 L
3404 2210 L
3404 2243 L
3405 2219 L
3405 2067 L
3405 2137 L
3406 2108 L
3406 2076 L
3406 2119 L
3407 2131 L
3407 2127 L
3407 2146 L
3408 2155 L
3408 2144 L
3408 2187 L
3409 2206 L
3409 2073 L
3409 2181 L
3410 2055 L
3410 2108 L
3410 2215 L
3411 2218 L
3411 2089 L
3411 2152 L
3412 2253 L
3412 2223 L
3412 2093 L
3413 2188 L
3413 2094 L
3413 2097 L
3414 2193 L
3414 2154 L
3414 2144 L
3415 2122 L
3415 1994 L
3415 2180 L
3416 2244 L
3416 2080 L
3416 2199 L
3417 2053 L
3417 2166 L
3417 2156 L
3417 2120 L
3418 2175 L
3418 2209 L
3418 2178 L
3419 2189 L
3419 2121 L
3419 2042 L
3420 2162 L
3420 2353 L
3420 2208 L
3421 2168 L
3421 2120 L
3421 2164 L
3422 2102 L
3422 2144 L
3422 2153 L
3423 2259 L
3423 2103 L
3423 2213 L
3423 2111 L
3424 2228 L
3424 2226 L
3424 2206 L
3425 2245 L
3425 2151 L
3425 2148 L
3426 2128 L
3426 2094 L
3426 2205 L
3427 2249 L
3427 2095 L
3427 2188 L
3428 2125 L
3428 2460 L
3428 2225 L
3428 2109 L
3429 2087 L
3429 2155 L
3429 2313 L
3430 2188 L
3430 2164 L
3430 2139 L
3431 2207 L
3431 2103 L
3431 2251 L
3431 2228 L
3432 2164 L
3432 2152 L
3432 2135 L
3433 2181 L
3433 2226 L
3433 2129 L
3434 2171 L
3434 2252 L
3434 2095 L
3434 2295 L
3435 2234 L
3435 2277 L
3435 2258 L
3436 2185 L
3436 2170 L
3436 2201 L
3437 2163 L
3437 2193 L
3437 2126 L
3437 2154 L
3438 2243 L
3438 2238 L
3438 2245 L
3439 2213 L
3439 2220 L
3439 2298 L
3440 2306 L
3440 2133 L
3440 2170 L
3440 2232 L
3441 2234 L
3441 2121 L
3441 2142 L
3442 2212 L
3442 2310 L
3442 2283 L
3442 2384 L
3443 2276 L
3443 2227 L
3443 2201 L
3444 2203 L
3444 2198 L
3444 2159 L
3444 2279 L
3445 2036 L
3445 2363 L
3445 2164 L
3446 2126 L
3446 2184 L
3446 2302 L
3446 2120 L
3447 2206 L
3447 2150 L
3447 2207 L
3448 2244 L
3448 2265 L
3448 2240 L
3448 2171 L
3449 2257 L
3449 2302 L
3449 2295 L
3450 2076 L
3450 2134 L
3450 2161 L
3450 2230 L
3451 2091 L
3451 2151 L
3451 2175 L
3452 2255 L
3452 2212 L
3452 2186 L
3452 2219 L
3453 2094 L
3453 2206 L
3453 2160 L
3454 2273 L
3454 2230 L
3454 2242 L
3454 2214 L
3455 2296 L
3455 2180 L
3455 2232 L
3455 2197 L
3456 2124 L
3456 2236 L
3456 2282 L
3457 2132 L
3457 2188 L
3457 2080 L
3457 2236 L
3458 2132 L
3458 2238 L
3458 2210 L
3458 2320 L
3459 2201 L
3459 2307 L
3459 2196 L
3460 2291 L
3460 2294 L
3460 2161 L
3460 2168 L
3461 2184 L
3461 2255 L
3461 2279 L
3461 2137 L
3462 2221 L
3462 2239 L
3462 2212 L
3463 2256 L
3463 2144 L
3463 2166 L
3463 2247 L
3464 2219 L
3464 2161 L
3464 2197 L
3464 2247 L
3465 2333 L
3465 2137 L
3465 2302 L
3465 2191 L
3466 2197 L
3466 2280 L
3466 2259 L
3466 2157 L
3467 2218 L
3467 2217 L
3467 2278 L
3468 2287 L
3468 2261 L
3468 2240 L
3468 2295 L
3469 2308 L
3469 2308 L
3469 2285 L
3469 2210 L
3470 2258 L
3470 2189 L
3470 2295 L
3470 2314 L
3471 2269 L
3471 2373 L
3471 2250 L
3471 2344 L
3472 2344 L
3472 2258 L
3472 2205 L
3472 2308 L
3473 2275 L
3473 2273 L
3473 2152 L
3474 2363 L
3474 2228 L
3474 2277 L
3474 2242 L
3475 2138 L
3475 2261 L
3475 2218 L
3475 2254 L
3476 2247 L
3476 2304 L
3476 2185 L
3476 2209 L
3477 2210 L
3477 2184 L
3477 2271 L
3477 2255 L
3478 2238 L
3478 2289 L
3478 2275 L
3478 2203 L
3479 2233 L
3479 2247 L
3479 2279 L
3479 2270 L
3480 2259 L
3480 2294 L
3480 2228 L
3480 2264 L
3481 2310 L
3481 2238 L
3481 2337 L
3481 2351 L
3482 2304 L
3482 2280 L
3482 2242 L
3482 2316 L
3483 2328 L
3483 2323 L
3483 2341 L
3483 2223 L
3484 2289 L
3484 2248 L
3484 2198 L
3484 2180 L
3485 2278 L
3485 2224 L
3485 2252 L
3485 2135 L
3486 2324 L
3486 2181 L
3486 2167 L
3486 2258 L
3487 2292 L
3487 2186 L
3487 2232 L
3487 2228 L
3488 2308 L
3488 2310 L
3488 2349 L
3488 2197 L
3488 2366 L
3489 2256 L
3489 2201 L
3489 2163 L
3489 2362 L
3490 2288 L
3490 2335 L
3490 2189 L
3490 2200 L
3491 2418 L
3491 2368 L
3491 2157 L
3491 2245 L
3492 2160 L
3492 2250 L
3492 2306 L
3492 2223 L
3493 2308 L
3493 2328 L
3493 2285 L
3493 2250 L
3494 2241 L
3494 2252 L
3494 2193 L
3494 2282 L
3494 2162 L
3495 2263 L
3495 2290 L
3495 2311 L
3495 2226 L
3496 2200 L
3496 2216 L
3496 2433 L
3496 2150 L
3497 2320 L
3497 2278 L
3497 2279 L
3497 2316 L
3498 2290 L
3498 2357 L
3498 2270 L
3498 2215 L
3498 2312 L
3499 2363 L
3499 2376 L
3499 2305 L
3499 2403 L
3500 2246 L
3500 2281 L
3506 2369 L
3511 2232 L
3517 2329 L
3522 2361 L
3527 2411 L
3532 2322 L
3537 2364 L
3542 2369 L
3547 2319 L
3552 2411 L
3557 2367 L
3561 2308 L
3566 2358 L
3570 2477 L
3575 2454 L
3579 2404 L
3583 2521 L
3587 2517 L
3591 2547 L
3595 2364 L
3599 2425 L
3603 2408 L
3607 2392 L
3611 2426 L
3614 2346 L
3618 2475 L
3622 2407 L
3625 2338 L
3629 2347 L
3632 2494 L
3636 2557 L
3639 2459 L
3642 2394 L
3646 2422 L
3649 2472 L
3652 2515 L
3655 2476 L
3658 2630 L
3661 2387 L
3664 2276 L
3667 2427 L
3670 2386 L
3673 2461 L
3676 2467 L
3679 2406 L
3682 2442 L
3685 2538 L
3688 2350 L
3690 2492 L
3693 2429 L
3696 2412 L
3698 2520 L
3701 2350 L
3704 2352 L
3706 2411 L
3709 2429 L
3711 2479 L
3714 2483 L
3716 2467 L
3719 2479 L
3721 2358 L
3724 2544 L
3726 2254 L
3728 2509 L
3731 2547 L
3733 2476 L
3735 2416 L
3738 2479 L
3740 2498 L
3742 2463 L
3744 2533 L
3747 2459 L
3749 2628 L
3751 2453 L
3753 2473 L
3755 2582 L
3757 2506 L
3760 2501 L
3762 2658 L
3764 2478 L
3766 2506 L
3768 2380 L
3770 2462 L
3772 2473 L
3774 2496 L
3776 2481 L
3778 2545 L
3780 2458 L
3781 2452 L
3783 2490 L
3785 2401 L
3787 2517 L
3789 2442 L
3791 2490 L
3793 2516 L
3795 2470 L
3796 2417 L
3798 2356 L
3800 2560 L
3802 2481 L
3803 2445 L
3805 2474 L
3807 2542 L
3809 2533 L
3810 2363 L
3812 2399 L
3814 2562 L
3816 2520 L
3817 2357 L
3819 2377 L
3820 2337 L
3822 2504 L
3824 2513 L
3825 2437 L
3827 2401 L
3829 2573 L
3830 2464 L
3832 2531 L
3833 2469 L
3835 2416 L
3836 2485 L
3838 2421 L
3839 2512 L
3841 2620 L
3842 2556 L
3844 2410 L
3845 2507 L
3847 2594 L
3848 2447 L
3850 2448 L
3851 2593 L
3853 2363 L
3854 2499 L
3856 2380 L
3857 2527 L
3859 2497 L
3860 2552 L
3861 2492 L
3863 2470 L
3864 2479 L
3866 2455 L
3867 2441 L
3868 2485 L
3870 2431 L
3871 2575 L
3872 2569 L
3874 2514 L
3875 2379 L
3876 2710 L
3878 2544 L
3879 2432 L
3880 2560 L
3882 2380 L
3883 2426 L
3884 2475 L
3885 2586 L
3887 2491 L
3888 2495 L
3889 2488 L
3890 2567 L
3892 2584 L
3893 2593 L
3894 2462 L
3895 2451 L
3897 2445 L
3898 2517 L
3899 2499 L
3900 2442 L
3901 2548 L
3903 2576 L
3904 2480 L
3905 2490 L
3906 2349 L
3907 2400 L
3908 2443 L
3910 2298 L
3911 2503 L
3912 2428 L
3913 2518 L
3914 2580 L
3915 2332 L
3917 2394 L
3918 2271 L
3919 2514 L
3920 2459 L
3921 2543 L
3922 2440 L
3923 2514 L
3924 2598 L
3925 2537 L
3926 2514 L
3928 2539 L
3929 2493 L
3930 2472 L
3931 2541 L
3932 2470 L
3933 2400 L
3934 2367 L
3935 2550 L
3936 2440 L
3937 2541 L
3938 2466 L
3939 2577 L
3940 2404 L
3941 2458 L
3942 2541 L
3943 2529 L
3944 2477 L
3945 2660 L
3946 2472 L
3947 2347 L
3948 2405 L
3949 2404 L
3950 2609 L
3951 2461 L
3952 2437 L
3953 2443 L
3954 2425 L
3955 2442 L
3956 2518 L
3957 2570 L
3958 2467 L
3959 2494 L
3960 2391 L
3961 2408 L
3962 2414 L
3963 2578 L
3964 2436 L
3965 2501 L
3966 2568 L
3966 2374 L
3967 2432 L
3968 2454 L
3969 2406 L
3970 2434 L
3971 2425 L
3972 2434 L
3973 2460 L
3974 2494 L
3975 2349 L
3976 2407 L
3976 2417 L
3977 2297 L
3978 2470 L
3979 2492 L
3980 2501 L
3981 2523 L
3982 2524 L
3983 2439 L
3983 2300 L
3984 2300 L
3985 2530 L
3986 2378 L
3987 2518 L
3988 2444 L
3989 2423 L
3989 2486 L
3990 2350 L
3991 2397 L
3992 2410 L
3993 2435 L
3994 2445 L
3995 2452 L
3995 2365 L
3996 2439 L
3997 2379 L
3998 2431 L
3999 2507 L
3999 2484 L
4000 2337 L
4001 2332 L
4002 2389 L
4003 2478 L
4003 2470 L
4004 2593 L
4005 2526 L
4006 2402 L
4007 2527 L
4007 2451 L
4008 2307 L
4009 2437 L
4010 2470 L
4011 2486 L
4011 2299 L
4012 2417 L
4013 2352 L
4014 2547 L
4014 2377 L
4015 2467 L
4016 2447 L
4017 2452 L
4017 2505 L
4018 2530 L
4019 2577 L
4020 2492 L
4021 2571 L
4021 2429 L
4022 2510 L
4023 2446 L
4023 2384 L
4024 2478 L
4025 2596 L
4026 2395 L
4026 2460 L
4027 2432 L
4028 2445 L
4029 2526 L
4029 2479 L
4030 2514 L
4031 2465 L
4032 2394 L
4032 2528 L
4033 2481 L
4034 2442 L
4034 2468 L
4035 2589 L
4036 2422 L
4036 2375 L
4037 2568 L
4038 2483 L
4039 2452 L
4039 2513 L
4040 2424 L
4041 2497 L
4041 2470 L
4042 2360 L
4043 2361 L
4043 2406 L
4044 2495 L
4045 2445 L
4045 2366 L
4046 2378 L
4047 2472 L
4047 2447 L
4048 2416 L
4049 2476 L
4050 2586 L
4050 2452 L
4051 2574 L
4052 2291 L
4052 2508 L
4053 2339 L
4053 2563 L
4054 2584 L
4055 2267 L
4055 2444 L
4056 2515 L
4057 2384 L
4057 2529 L
4058 2477 L
4059 2433 L
4059 2307 L
4060 2457 L
4061 2213 L
4061 2465 L
4062 2293 L
L2 C03 COSGR

%
%================
% Legend - Begin
%================
%
GSN 4240 5180 M
4480 5180 L
LWMC SL  C03 COSGR
GSN 4540 5141 M helvM (1.5 uM) show grestore
%
%================
% Legend - End
%================
%

%
% Residuals:
%
GSN 777 750 M
1388 783 L
1552 823 L
1652 883 L
1723 866 L
1778 862 L
1824 892 L
1863 906 L
1896 925 L
1926 957 L
1952 997 L
1976 1031 L
1998 1092 L
2019 1131 L
2037 1078 L
2055 1167 L
2071 1149 L
2086 1130 L
2101 1139 L
2115 1159 L
2128 1229 L
2140 1193 L
2152 1189 L
2163 1281 L
2174 1278 L
2184 1245 L
2194 1216 L
2204 1207 L
2213 1270 L
2222 1286 L
2230 1283 L
2239 1314 L
2247 1287 L
2255 1293 L
2262 1343 L
2270 1301 L
2277 1324 L
2284 1315 L
2290 1369 L
2297 1356 L
2303 1333 L
2310 1304 L
2316 1334 L
2322 1327 L
2328 1343 L
2333 1360 L
2339 1379 L
2344 1379 L
2350 1408 L
2355 1359 L
2360 1368 L
2365 1391 L
2370 1409 L
2375 1393 L
2380 1361 L
2384 1422 L
2389 1410 L
2393 1465 L
2398 1421 L
2402 1389 L
2407 1392 L
2411 1437 L
2415 1427 L
2419 1422 L
2423 1462 L
2427 1440 L
2431 1497 L
2435 1444 L
2438 1424 L
2442 1462 L
2446 1453 L
2449 1431 L
2453 1441 L
2456 1464 L
2460 1454 L
2463 1439 L
2467 1418 L
2470 1434 L
2473 1462 L
2476 1478 L
2480 1442 L
2483 1453 L
2486 1504 L
2489 1460 L
2492 1490 L
2495 1460 L
2498 1481 L
2501 1448 L
2504 1501 L
2507 1484 L
2510 1449 L
2512 1487 L
2515 1509 L
2518 1484 L
2521 1497 L
2523 1477 L
2526 1487 L
2529 1458 L
2531 1420 L
2534 1467 L
2536 1466 L
2539 1482 L
2541 1477 L
2544 1455 L
2546 1433 L
2549 1471 L
2551 1486 L
2554 1480 L
2556 1465 L
2558 1481 L
2561 1493 L
2563 1452 L
2565 1450 L
2568 1532 L
2570 1517 L
2572 1507 L
2574 1483 L
2576 1443 L
2579 1569 L
2581 1476 L
2583 1451 L
2585 1494 L
2587 1519 L
2589 1493 L
2591 1473 L
2593 1488 L
2595 1470 L
2597 1498 L
2599 1480 L
2601 1483 L
2603 1535 L
2605 1445 L
2607 1469 L
2609 1480 L
2611 1498 L
2613 1491 L
2615 1446 L
2617 1462 L
2618 1489 L
2620 1499 L
2622 1500 L
2624 1512 L
2626 1502 L
2627 1450 L
2629 1465 L
2631 1493 L
2633 1496 L
2634 1480 L
2636 1514 L
2638 1475 L
2640 1485 L
2641 1473 L
2643 1501 L
2645 1466 L
2646 1506 L
2648 1486 L
2650 1409 L
2651 1488 L
2653 1466 L
2654 1493 L
2656 1460 L
2658 1495 L
2659 1461 L
2661 1430 L
2662 1461 L
2664 1510 L
2665 1505 L
2667 1458 L
2668 1481 L
2670 1499 L
2671 1496 L
2673 1455 L
2674 1485 L
2676 1487 L
2677 1461 L
2679 1488 L
2680 1480 L
2682 1475 L
2683 1475 L
2685 1463 L
2686 1460 L
2687 1487 L
2689 1462 L
2690 1471 L
2692 1404 L
2693 1506 L
2694 1485 L
2696 1450 L
2697 1443 L
2698 1491 L
2700 1501 L
2701 1468 L
2702 1500 L
2704 1460 L
2705 1454 L
2706 1462 L
2708 1441 L
2709 1489 L
2710 1461 L
2712 1484 L
2713 1469 L
2714 1478 L
2715 1491 L
2717 1449 L
2718 1451 L
2719 1470 L
2720 1500 L
2722 1465 L
2723 1441 L
2724 1492 L
2725 1477 L
2726 1447 L
2728 1466 L
2729 1437 L
2730 1458 L
2731 1438 L
2732 1482 L
2734 1448 L
2735 1474 L
2736 1425 L
2737 1427 L
2738 1464 L
2739 1443 L
2741 1433 L
2742 1411 L
2743 1486 L
2744 1425 L
2745 1462 L
2746 1438 L
2747 1506 L
2748 1450 L
2749 1454 L
2751 1459 L
2752 1435 L
2753 1502 L
2754 1427 L
2755 1446 L
2756 1454 L
2757 1429 L
2758 1457 L
2759 1436 L
2760 1448 L
2761 1487 L
2762 1462 L
2763 1454 L
2764 1464 L
2765 1414 L
2767 1494 L
2768 1503 L
2769 1464 L
2770 1396 L
2771 1463 L
2772 1439 L
2773 1436 L
2774 1472 L
2775 1408 L
2776 1452 L
2777 1426 L
2778 1474 L
2779 1436 L
2780 1438 L
2781 1456 L
2782 1403 L
2783 1455 L
2783 1461 L
2784 1450 L
2785 1426 L
2786 1448 L
2787 1404 L
2788 1425 L
2789 1412 L
2790 1434 L
2791 1392 L
2792 1468 L
2793 1438 L
2794 1447 L
2795 1433 L
2796 1432 L
2797 1402 L
2798 1473 L
2798 1445 L
2799 1480 L
2800 1441 L
2801 1478 L
2802 1446 L
2803 1430 L
2804 1407 L
2805 1445 L
2806 1409 L
2807 1435 L
2807 1394 L
2808 1446 L
2809 1451 L
2810 1419 L
2811 1416 L
2812 1443 L
2813 1404 L
2813 1397 L
2814 1370 L
2815 1429 L
2816 1468 L
2817 1405 L
2818 1437 L
2819 1446 L
2819 1422 L
2820 1438 L
2821 1370 L
2822 1415 L
2823 1465 L
2824 1405 L
2824 1386 L
2825 1412 L
2826 1416 L
2827 1499 L
2828 1407 L
2828 1362 L
2829 1404 L
2830 1392 L
2831 1410 L
2832 1382 L
2832 1411 L
2833 1387 L
2834 1407 L
2835 1434 L
2836 1391 L
2836 1391 L
2837 1374 L
2838 1415 L
2839 1384 L
2840 1377 L
2840 1388 L
2841 1383 L
2842 1401 L
2843 1438 L
2843 1386 L
2844 1398 L
2845 1391 L
2846 1353 L
2846 1397 L
2847 1363 L
2848 1408 L
2849 1458 L
2849 1365 L
2850 1376 L
2851 1426 L
2852 1357 L
2852 1398 L
2853 1403 L
2854 1410 L
2855 1419 L
2855 1441 L
2856 1387 L
2857 1406 L
2857 1393 L
2858 1380 L
2859 1387 L
2860 1398 L
2860 1362 L
2861 1373 L
2862 1363 L
2862 1377 L
2863 1358 L
2864 1423 L
2865 1360 L
2865 1445 L
2866 1373 L
2867 1344 L
2867 1374 L
2868 1396 L
2869 1418 L
2869 1401 L
2870 1385 L
2871 1426 L
2871 1391 L
2872 1372 L
2873 1343 L
2873 1380 L
2874 1420 L
2875 1360 L
2876 1389 L
2876 1427 L
2877 1372 L
2878 1367 L
2878 1364 L
2879 1404 L
2880 1397 L
2880 1359 L
2881 1387 L
2881 1361 L
2882 1374 L
2883 1414 L
2883 1377 L
2884 1405 L
2885 1418 L
2885 1348 L
2886 1359 L
2887 1420 L
2887 1406 L
2888 1361 L
2889 1381 L
2889 1378 L
2892 1426 L
2894 1397 L
2897 1379 L
2899 1409 L
2902 1356 L
2904 1407 L
2907 1404 L
2909 1322 L
2911 1344 L
2914 1350 L
2916 1362 L
2918 1336 L
2921 1392 L
2923 1332 L
2925 1330 L
2927 1340 L
2929 1337 L
2932 1338 L
2934 1349 L
2936 1316 L
2938 1347 L
2940 1344 L
2942 1337 L
2944 1343 L
2946 1312 L
2948 1349 L
2950 1334 L
2952 1304 L
2954 1313 L
2956 1314 L
2958 1328 L
2960 1269 L
2962 1324 L
2964 1340 L
2966 1341 L
2968 1320 L
2970 1335 L
2971 1320 L
2973 1309 L
2975 1281 L
2977 1274 L
2979 1307 L
2980 1280 L
2982 1326 L
2984 1285 L
2986 1305 L
2987 1300 L
2989 1333 L
2991 1301 L
2993 1327 L
2994 1285 L
2996 1316 L
2998 1304 L
2999 1283 L
3001 1286 L
3003 1241 L
3004 1317 L
3006 1262 L
3007 1280 L
3009 1290 L
3011 1279 L
3012 1266 L
3014 1242 L
3015 1295 L
3017 1275 L
3018 1251 L
3020 1258 L
3021 1239 L
3023 1286 L
3024 1269 L
3026 1269 L
3027 1256 L
3029 1221 L
3030 1275 L
3032 1277 L
3033 1275 L
3035 1253 L
3036 1260 L
3038 1301 L
3039 1209 L
3040 1290 L
3042 1234 L
3043 1266 L
3045 1268 L
3046 1264 L
3047 1232 L
3049 1296 L
3050 1258 L
3051 1280 L
3053 1247 L
3054 1210 L
3055 1237 L
3057 1239 L
3058 1256 L
3059 1235 L
3061 1237 L
3062 1223 L
3063 1192 L
3065 1217 L
3066 1245 L
3067 1235 L
3068 1209 L
3070 1246 L
3071 1240 L
3072 1233 L
3073 1270 L
3075 1198 L
3076 1218 L
3077 1256 L
3078 1184 L
3079 1238 L
3081 1252 L
3082 1243 L
3083 1242 L
3084 1205 L
3085 1242 L
3087 1216 L
3088 1245 L
3089 1147 L
3090 1259 L
3091 1212 L
3092 1196 L
3094 1221 L
3095 1196 L
3096 1199 L
3097 1221 L
3098 1225 L
3099 1225 L
3100 1209 L
3101 1225 L
3103 1213 L
3104 1197 L
3105 1236 L
3106 1192 L
3107 1254 L
3108 1198 L
3109 1180 L
3110 1230 L
3111 1207 L
3112 1203 L
3113 1230 L
3114 1247 L
3115 1203 L
3116 1211 L
3117 1208 L
3119 1193 L
3120 1204 L
3121 1161 L
3122 1204 L
3123 1173 L
3124 1157 L
3125 1179 L
3126 1193 L
3127 1179 L
3128 1160 L
3129 1210 L
3130 1195 L
3131 1149 L
3132 1203 L
3133 1181 L
3134 1252 L
3135 1178 L
3136 1177 L
3136 1161 L
3137 1170 L
3138 1188 L
3139 1227 L
3140 1221 L
3141 1204 L
3142 1179 L
3143 1197 L
3144 1185 L
3145 1208 L
3146 1172 L
3147 1173 L
3148 1231 L
3149 1165 L
3150 1179 L
3151 1182 L
3151 1186 L
3152 1211 L
3153 1193 L
3154 1156 L
3155 1173 L
3156 1173 L
3157 1192 L
3158 1200 L
3159 1169 L
3160 1169 L
3160 1171 L
3161 1153 L
3162 1166 L
3163 1178 L
3164 1189 L
3165 1196 L
3166 1156 L
3166 1178 L
3167 1171 L
3168 1156 L
3169 1150 L
3170 1153 L
3171 1169 L
3172 1188 L
3172 1201 L
3173 1168 L
3174 1210 L
3175 1179 L
3176 1218 L
3177 1159 L
3177 1174 L
3178 1187 L
3179 1224 L
3180 1189 L
3181 1128 L
3181 1168 L
3182 1190 L
3183 1156 L
3184 1181 L
3185 1180 L
3185 1144 L
3186 1176 L
3187 1171 L
3188 1176 L
3189 1202 L
3189 1159 L
3190 1165 L
3191 1205 L
3192 1188 L
3193 1163 L
3193 1204 L
3194 1170 L
3195 1160 L
3196 1169 L
3196 1151 L
3197 1169 L
3198 1163 L
3199 1122 L
3199 1190 L
3200 1171 L
3201 1178 L
3202 1159 L
3202 1205 L
3203 1163 L
3204 1133 L
3205 1144 L
3205 1135 L
3206 1154 L
3207 1207 L
3208 1158 L
3208 1183 L
3209 1193 L
3210 1193 L
3210 1123 L
3211 1147 L
3212 1179 L
3213 1203 L
3213 1174 L
3214 1175 L
3215 1188 L
3215 1153 L
3216 1164 L
3217 1202 L
3218 1186 L
3218 1163 L
3219 1135 L
3220 1203 L
3220 1172 L
3221 1245 L
3222 1185 L
3222 1236 L
3223 1187 L
3224 1226 L
3224 1126 L
3225 1163 L
3226 1178 L
3227 1153 L
3227 1208 L
3228 1138 L
3229 1197 L
3229 1149 L
3230 1183 L
3231 1177 L
3231 1134 L
3232 1194 L
3233 1132 L
3233 1193 L
3234 1157 L
3235 1208 L
3235 1168 L
3236 1175 L
3236 1179 L
3237 1169 L
3238 1147 L
3238 1170 L
3239 1195 L
3240 1175 L
3240 1170 L
3241 1185 L
3242 1159 L
3242 1150 L
3243 1131 L
3244 1182 L
3244 1152 L
3245 1198 L
3245 1161 L
3246 1173 L
3247 1171 L
3247 1120 L
3248 1159 L
3249 1218 L
3249 1182 L
3250 1143 L
3250 1161 L
3251 1184 L
3252 1175 L
3252 1181 L
3253 1158 L
3253 1155 L
3254 1178 L
3255 1184 L
3255 1186 L
3256 1132 L
3257 1211 L
3257 1151 L
3258 1195 L
3258 1167 L
3259 1231 L
3259 1143 L
3260 1192 L
3261 1169 L
3261 1160 L
3262 1165 L
3262 1190 L
3263 1204 L
3264 1200 L
3264 1183 L
3265 1175 L
3265 1206 L
3266 1143 L
3267 1150 L
3267 1184 L
3268 1150 L
3268 1186 L
3269 1205 L
3269 1166 L
3270 1192 L
3271 1156 L
3271 1180 L
3272 1155 L
3272 1199 L
3273 1164 L
3273 1195 L
3274 1183 L
3275 1198 L
3275 1185 L
3276 1169 L
3276 1152 L
3277 1205 L
3277 1203 L
3278 1193 L
3278 1157 L
3279 1172 L
3280 1202 L
3280 1206 L
3281 1165 L
3281 1186 L
3282 1184 L
3282 1184 L
3283 1179 L
3283 1201 L
3284 1165 L
3284 1186 L
3285 1184 L
3285 1170 L
3286 1229 L
3287 1163 L
3287 1194 L
3288 1197 L
3288 1203 L
3289 1174 L
3289 1177 L
3290 1187 L
3290 1222 L
3291 1153 L
3291 1215 L
3292 1165 L
3292 1191 L
3293 1212 L
3293 1156 L
3294 1165 L
3294 1197 L
3295 1185 L
3295 1194 L
3296 1183 L
3297 1174 L
3297 1195 L
3298 1170 L
3298 1209 L
3299 1193 L
3299 1203 L
3300 1153 L
3300 1171 L
3301 1177 L
3301 1181 L
3302 1157 L
3302 1173 L
3303 1137 L
3303 1221 L
3304 1166 L
3304 1212 L
3305 1214 L
3305 1171 L
3306 1157 L
3306 1209 L
3307 1221 L
3307 1191 L
3308 1164 L
3308 1169 L
3309 1180 L
3309 1194 L
3310 1171 L
3310 1225 L
3311 1177 L
3311 1192 L
3312 1195 L
3312 1219 L
3312 1140 L
3313 1233 L
3313 1168 L
3314 1178 L
3314 1213 L
3315 1160 L
3315 1180 L
3316 1188 L
3316 1215 L
3317 1200 L
3317 1242 L
3318 1160 L
3318 1181 L
3319 1199 L
3319 1160 L
3320 1193 L
3320 1187 L
3321 1183 L
3321 1145 L
3321 1184 L
3322 1189 L
3322 1185 L
3323 1186 L
3323 1180 L
3324 1244 L
3324 1188 L
3325 1211 L
3325 1221 L
3326 1228 L
3326 1217 L
3327 1176 L
3327 1209 L
3327 1246 L
3328 1204 L
3328 1175 L
3329 1213 L
3329 1160 L
3330 1209 L
3330 1170 L
3331 1205 L
3331 1205 L
3332 1244 L
3332 1189 L
3332 1172 L
3333 1205 L
3333 1273 L
3334 1168 L
3334 1148 L
3335 1210 L
3335 1190 L
3336 1195 L
3336 1192 L
3336 1176 L
3337 1218 L
3337 1153 L
3338 1230 L
3338 1172 L
3339 1236 L
3339 1164 L
3339 1231 L
3340 1199 L
3340 1173 L
3341 1209 L
3341 1210 L
3342 1223 L
3342 1189 L
3343 1206 L
3343 1201 L
3343 1175 L
3344 1209 L
3344 1177 L
3345 1169 L
3345 1201 L
3346 1193 L
3346 1170 L
3346 1211 L
3347 1225 L
3347 1200 L
3348 1195 L
3348 1217 L
3348 1215 L
3349 1169 L
3349 1213 L
3350 1155 L
3350 1189 L
3351 1182 L
3351 1215 L
3351 1220 L
3352 1237 L
3352 1182 L
3353 1179 L
3353 1199 L
3353 1196 L
3354 1196 L
3354 1181 L
3355 1185 L
3355 1202 L
3355 1225 L
3356 1199 L
3356 1209 L
3357 1193 L
3357 1209 L
3358 1192 L
3358 1266 L
3358 1196 L
3359 1220 L
3359 1229 L
3360 1191 L
3360 1227 L
3360 1194 L
3361 1267 L
3361 1200 L
3362 1210 L
3362 1237 L
3362 1196 L
3363 1148 L
3363 1218 L
3364 1196 L
3364 1238 L
3364 1222 L
3365 1152 L
3365 1224 L
3365 1240 L
3366 1236 L
3366 1232 L
3367 1201 L
3367 1204 L
3367 1205 L
3368 1200 L
3368 1247 L
3369 1189 L
3369 1229 L
3369 1223 L
3370 1208 L
3370 1223 L
3371 1211 L
3371 1228 L
3371 1220 L
3372 1214 L
3372 1197 L
3372 1194 L
3373 1147 L
3373 1197 L
3374 1145 L
3374 1218 L
3374 1158 L
3375 1228 L
3375 1232 L
3375 1190 L
3376 1226 L
3376 1192 L
3377 1215 L
3377 1294 L
3377 1231 L
3378 1205 L
3378 1160 L
3378 1216 L
3379 1194 L
3379 1234 L
3380 1198 L
3380 1200 L
3380 1218 L
3381 1258 L
3381 1190 L
3381 1222 L
3382 1216 L
3382 1183 L
3383 1212 L
3383 1194 L
3383 1244 L
3384 1192 L
3384 1287 L
3384 1201 L
3385 1236 L
3385 1234 L
3385 1223 L
3386 1200 L
3386 1255 L
3387 1212 L
3387 1221 L
3387 1256 L
3388 1180 L
3388 1207 L
3388 1224 L
3389 1205 L
3389 1237 L
3389 1204 L
3390 1199 L
3390 1250 L
3391 1206 L
3391 1229 L
3391 1199 L
3392 1224 L
3392 1205 L
3392 1248 L
3393 1199 L
3393 1252 L
3393 1235 L
3394 1228 L
3394 1180 L
3394 1195 L
3395 1207 L
3395 1189 L
3395 1211 L
3396 1241 L
3396 1201 L
3396 1211 L
3397 1200 L
3397 1220 L
3398 1222 L
3398 1201 L
3398 1217 L
3399 1206 L
3399 1211 L
3399 1202 L
3400 1209 L
3400 1208 L
3400 1202 L
3401 1245 L
3401 1192 L
3401 1229 L
3402 1258 L
3402 1233 L
3402 1255 L
3403 1234 L
3403 1222 L
3403 1251 L
3404 1236 L
3404 1252 L
3404 1264 L
3405 1255 L
3405 1201 L
3405 1226 L
3406 1215 L
3406 1204 L
3406 1220 L
3407 1224 L
3407 1222 L
3407 1229 L
3408 1232 L
3408 1228 L
3408 1244 L
3409 1251 L
3409 1203 L
3409 1242 L
3410 1196 L
3410 1215 L
3410 1254 L
3411 1255 L
3411 1208 L
3411 1231 L
3412 1268 L
3412 1257 L
3412 1210 L
3413 1244 L
3413 1210 L
3413 1211 L
3414 1246 L
3414 1232 L
3414 1228 L
3415 1220 L
3415 1174 L
3415 1241 L
3416 1264 L
3416 1205 L
3416 1248 L
3417 1195 L
3417 1236 L
3417 1233 L
3417 1219 L
3418 1239 L
3418 1251 L
3418 1240 L
3419 1244 L
3419 1220 L
3419 1191 L
3420 1234 L
3420 1303 L
3420 1251 L
3421 1237 L
3421 1219 L
3421 1235 L
3422 1213 L
3422 1228 L
3422 1231 L
3423 1269 L
3423 1213 L
3423 1253 L
3423 1216 L
3424 1258 L
3424 1258 L
3424 1250 L
3425 1264 L
3425 1230 L
3425 1229 L
3426 1222 L
3426 1210 L
3426 1250 L
3427 1266 L
3427 1210 L
3427 1244 L
3428 1221 L
3428 1341 L
3428 1257 L
3428 1215 L
3429 1207 L
3429 1232 L
3429 1289 L
3430 1244 L
3430 1235 L
3430 1226 L
3431 1250 L
3431 1213 L
3431 1266 L
3431 1258 L
3432 1235 L
3432 1231 L
3432 1224 L
3433 1241 L
3433 1257 L
3433 1222 L
3434 1237 L
3434 1266 L
3434 1210 L
3434 1282 L
3435 1260 L
3435 1276 L
3435 1269 L
3436 1242 L
3436 1237 L
3436 1248 L
3437 1234 L
3437 1245 L
3437 1221 L
3437 1231 L
3438 1263 L
3438 1261 L
3438 1264 L
3439 1252 L
3439 1255 L
3439 1283 L
3440 1286 L
3440 1224 L
3440 1237 L
3440 1259 L
3441 1260 L
3441 1219 L
3441 1227 L
3442 1252 L
3442 1287 L
3442 1277 L
3442 1314 L
3443 1275 L
3443 1257 L
3443 1248 L
3444 1248 L
3444 1247 L
3444 1233 L
3444 1276 L
3445 1188 L
3445 1306 L
3445 1235 L
3446 1221 L
3446 1242 L
3446 1284 L
3446 1218 L
3447 1250 L
3447 1229 L
3447 1250 L
3448 1263 L
3448 1271 L
3448 1262 L
3448 1237 L
3449 1268 L
3449 1284 L
3449 1282 L
3450 1203 L
3450 1223 L
3450 1233 L
3450 1258 L
3451 1208 L
3451 1230 L
3451 1238 L
3452 1267 L
3452 1252 L
3452 1242 L
3452 1254 L
3453 1209 L
3453 1249 L
3453 1233 L
3454 1273 L
3454 1258 L
3454 1262 L
3454 1252 L
3455 1282 L
3455 1240 L
3455 1259 L
3455 1246 L
3456 1220 L
3456 1260 L
3456 1276 L
3457 1223 L
3457 1243 L
3457 1204 L
3457 1260 L
3458 1223 L
3458 1261 L
3458 1251 L
3458 1290 L
3459 1247 L
3459 1285 L
3459 1245 L
3460 1280 L
3460 1281 L
3460 1233 L
3460 1235 L
3461 1241 L
3461 1267 L
3461 1275 L
3461 1224 L
3462 1254 L
3462 1261 L
3462 1251 L
3463 1267 L
3463 1227 L
3463 1235 L
3463 1264 L
3464 1254 L
3464 1233 L
3464 1246 L
3464 1264 L
3465 1295 L
3465 1224 L
3465 1283 L
3465 1244 L
3466 1246 L
3466 1276 L
3466 1268 L
3466 1231 L
3467 1253 L
3467 1253 L
3467 1275 L
3468 1278 L
3468 1269 L
3468 1261 L
3468 1281 L
3469 1286 L
3469 1286 L
3469 1277 L
3469 1250 L
3470 1267 L
3470 1242 L
3470 1281 L
3470 1287 L
3471 1271 L
3471 1309 L
3471 1264 L
3471 1298 L
3472 1298 L
3472 1267 L
3472 1248 L
3472 1285 L
3473 1273 L
3473 1273 L
3473 1229 L
3474 1305 L
3474 1256 L
3474 1274 L
3474 1262 L
3475 1224 L
3475 1268 L
3475 1253 L
3475 1266 L
3476 1263 L
3476 1284 L
3476 1241 L
3476 1250 L
3477 1250 L
3477 1241 L
3477 1272 L
3477 1266 L
3478 1260 L
3478 1278 L
3478 1273 L
3478 1248 L
3479 1258 L
3479 1263 L
3479 1275 L
3479 1272 L
3480 1267 L
3480 1280 L
3480 1256 L
3480 1269 L
3481 1286 L
3481 1260 L
3481 1295 L
3481 1301 L
3482 1283 L
3482 1275 L
3482 1261 L
3482 1288 L
3483 1292 L
3483 1291 L
3483 1297 L
3483 1254 L
3484 1278 L
3484 1263 L
3484 1245 L
3484 1239 L
3485 1274 L
3485 1255 L
3485 1265 L
3485 1223 L
3486 1291 L
3486 1239 L
3486 1234 L
3486 1267 L
3487 1279 L
3487 1241 L
3487 1258 L
3487 1256 L
3488 1285 L
3488 1286 L
3488 1299 L
3488 1245 L
3488 1306 L
3489 1266 L
3489 1246 L
3489 1233 L
3489 1304 L
3490 1278 L
3490 1294 L
3490 1242 L
3490 1246 L
3491 1324 L
3491 1306 L
3491 1230 L
3491 1262 L
3492 1231 L
3492 1264 L
3492 1284 L
3492 1254 L
3493 1285 L
3493 1292 L
3493 1277 L
3493 1264 L
3494 1261 L
3494 1264 L
3494 1243 L
3494 1275 L
3494 1232 L
3495 1268 L
3495 1278 L
3495 1286 L
3495 1255 L
3496 1246 L
3496 1252 L
3496 1329 L
3496 1228 L
3497 1289 L
3497 1274 L
3497 1274 L
3497 1287 L
3498 1278 L
3498 1302 L
3498 1271 L
3498 1251 L
3498 1286 L
3499 1304 L
3499 1309 L
3499 1283 L
3499 1319 L
3500 1262 L
3500 1275 L
3506 1306 L
3511 1257 L
3517 1291 L
3522 1303 L
3527 1320 L
3532 1288 L
3537 1303 L
3542 1304 L
3547 1286 L
3552 1319 L
3557 1303 L
3561 1282 L
3566 1299 L
3570 1342 L
3575 1334 L
3579 1316 L
3583 1357 L
3587 1356 L
3591 1366 L
3595 1300 L
3599 1322 L
3603 1316 L
3607 1310 L
3611 1322 L
3614 1292 L
3618 1339 L
3622 1314 L
3625 1289 L
3629 1292 L
3632 1345 L
3636 1367 L
3639 1332 L
3642 1308 L
3646 1318 L
3649 1336 L
3652 1351 L
3655 1337 L
3658 1392 L
3661 1304 L
3664 1264 L
3667 1318 L
3670 1303 L
3673 1330 L
3676 1332 L
3679 1310 L
3682 1323 L
3685 1357 L
3688 1289 L
3690 1340 L
3693 1317 L
3696 1311 L
3698 1349 L
3701 1288 L
3704 1288 L
3706 1309 L
3709 1316 L
3711 1333 L
3714 1335 L
3716 1329 L
3719 1333 L
3721 1289 L
3724 1356 L
3726 1251 L
3728 1343 L
3731 1356 L
3733 1331 L
3735 1309 L
3738 1331 L
3740 1338 L
3742 1325 L
3744 1350 L
3747 1323 L
3749 1384 L
3751 1320 L
3753 1327 L
3755 1367 L
3757 1339 L
3760 1337 L
3762 1393 L
3764 1328 L
3766 1338 L
3768 1293 L
3770 1322 L
3772 1326 L
3774 1333 L
3776 1328 L
3778 1351 L
3780 1319 L
3781 1317 L
3783 1330 L
3785 1298 L
3787 1340 L
3789 1312 L
3791 1329 L
3793 1339 L
3795 1322 L
3796 1302 L
3798 1280 L
3800 1353 L
3802 1325 L
3803 1312 L
3805 1322 L
3807 1346 L
3809 1343 L
3810 1281 L
3812 1294 L
3814 1353 L
3816 1337 L
3817 1278 L
3819 1285 L
3820 1271 L
3822 1331 L
3824 1334 L
3825 1306 L
3827 1293 L
3829 1355 L
3830 1315 L
3832 1339 L
3833 1317 L
3835 1297 L
3836 1322 L
3838 1299 L
3839 1331 L
3841 1370 L
3842 1347 L
3844 1294 L
3845 1329 L
3847 1360 L
3848 1307 L
3850 1307 L
3851 1359 L
3853 1276 L
3854 1325 L
3856 1281 L
3857 1334 L
3859 1323 L
3860 1343 L
3861 1321 L
3863 1313 L
3864 1316 L
3866 1307 L
3867 1302 L
3868 1317 L
3870 1297 L
3871 1349 L
3872 1347 L
3874 1327 L
3875 1278 L
3876 1397 L
3878 1337 L
3879 1297 L
3880 1342 L
3882 1277 L
3883 1294 L
3884 1311 L
3885 1351 L
3887 1317 L
3888 1318 L
3889 1315 L
3890 1343 L
3892 1349 L
3893 1352 L
3894 1305 L
3895 1301 L
3897 1298 L
3898 1324 L
3899 1317 L
3900 1296 L
3901 1335 L
3903 1344 L
3904 1310 L
3905 1313 L
3906 1262 L
3907 1280 L
3908 1296 L
3910 1243 L
3911 1317 L
3912 1290 L
3913 1322 L
3914 1344 L
3915 1254 L
3917 1276 L
3918 1232 L
3919 1319 L
3920 1299 L
3921 1329 L
3922 1292 L
3923 1319 L
3924 1348 L
3925 1326 L
3926 1318 L
3928 1327 L
3929 1310 L
3930 1302 L
3931 1327 L
3932 1301 L
3933 1275 L
3934 1263 L
3935 1329 L
3936 1289 L
3937 1326 L
3938 1298 L
3939 1338 L
3940 1275 L
3941 1295 L
3942 1324 L
3943 1320 L
3944 1301 L
3945 1366 L
3946 1299 L
3947 1253 L
3948 1274 L
3949 1274 L
3950 1347 L
3951 1294 L
3952 1285 L
3953 1287 L
3954 1280 L
3955 1286 L
3956 1313 L
3957 1332 L
3958 1294 L
3959 1304 L
3960 1267 L
3961 1273 L
3962 1274 L
3963 1333 L
3964 1282 L
3965 1305 L
3966 1329 L
3966 1259 L
3967 1280 L
3968 1288 L
3969 1270 L
3970 1280 L
3971 1277 L
3972 1279 L
3973 1289 L
3974 1301 L
3975 1248 L
3976 1269 L
3976 1272 L
3977 1229 L
3978 1291 L
3979 1299 L
3980 1302 L
3981 1310 L
3982 1310 L
3983 1279 L
3983 1229 L
3984 1229 L
3985 1311 L
3986 1256 L
3987 1306 L
3988 1280 L
3989 1272 L
3989 1294 L
3990 1245 L
3991 1262 L
3992 1266 L
3993 1275 L
3994 1279 L
3995 1281 L
3995 1249 L
3996 1276 L
3997 1254 L
3998 1273 L
3999 1299 L
3999 1291 L
4000 1238 L
4001 1236 L
4002 1256 L
4003 1288 L
4003 1285 L
4004 1329 L
4005 1305 L
4006 1260 L
4007 1305 L
4007 1277 L
4008 1225 L
4009 1272 L
4010 1283 L
4011 1289 L
4011 1222 L
4012 1264 L
4013 1240 L
4014 1310 L
4014 1249 L
4015 1281 L
4016 1273 L
4017 1275 L
4017 1294 L
4018 1303 L
4019 1319 L
4020 1289 L
4021 1317 L
4021 1266 L
4022 1295 L
4023 1272 L
4023 1249 L
4024 1283 L
4025 1325 L
4026 1252 L
4026 1275 L
4027 1265 L
4028 1270 L
4029 1299 L
4029 1281 L
4030 1294 L
4031 1276 L
4032 1250 L
4032 1298 L
4033 1281 L
4034 1267 L
4034 1276 L
4035 1319 L
4036 1259 L
4036 1242 L
4037 1311 L
4038 1280 L
4039 1269 L
4039 1291 L
4040 1259 L
4041 1285 L
4041 1275 L
4042 1235 L
4043 1235 L
4043 1251 L
4044 1283 L
4045 1265 L
4045 1236 L
4046 1240 L
4047 1274 L
4047 1265 L
4048 1253 L
4049 1275 L
4050 1314 L
4050 1266 L
4051 1309 L
4052 1207 L
4052 1285 L
4053 1224 L
4053 1305 L
4054 1312 L
4055 1198 L
4055 1262 L
4056 1287 L
4057 1239 L
4057 1291 L
4058 1273 L
4059 1256 L
4059 1211 L
4060 1265 L
4061 1177 L
4061 1267 L
4062 1205 L
L2 C03 COSGR

%
% Main frame
%
L10
GSN 
620 1700 M
4220 1700 L
4220 5300 L
620 5300 L
closepath SGR

%
% X axis: large tics
%
L10
GSN 1130 1700 M 0  54 rL SGR
GSN 1130 5300 M 0 -54 rL SGR
helvS (0.0001) 1130 470 xlabel
GSN 1716 1700 M 0  54 rL SGR
GSN 1716 5300 M 0 -54 rL SGR
helvS (0.001) 1716 470 xlabel
GSN 2303 1700 M 0  54 rL SGR
GSN 2303 5300 M 0 -54 rL SGR
helvS (0.01) 2303 470 xlabel
GSN 2889 1700 M 0  54 rL SGR
GSN 2889 5300 M 0 -54 rL SGR
helvS (0.1) 2889 470 xlabel
GSN 3476 1700 M 0  54 rL SGR
GSN 3476 5300 M 0 -54 rL SGR
helvS (1) 3476 470 xlabel
GSN 4062 1700 M 0  54 rL SGR
GSN 4062 5300 M 0 -54 rL SGR
helvS (10) 4062 470 xlabel
%
% X axis: small tics
%
L5
GSN 720 1700 M 0  36 rL SGR
GSN 720 5300 M 0 -36 rL SGR
GSN 824 1700 M 0  36 rL SGR
GSN 824 5300 M 0 -36 rL SGR
GSN 897 1700 M 0  36 rL SGR
GSN 897 5300 M 0 -36 rL SGR
GSN 954 1700 M 0  36 rL SGR
GSN 954 5300 M 0 -36 rL SGR
GSN 1000 1700 M 0  36 rL SGR
GSN 1000 5300 M 0 -36 rL SGR
GSN 1039 1700 M 0  36 rL SGR
GSN 1039 5300 M 0 -36 rL SGR
GSN 1073 1700 M 0  36 rL SGR
GSN 1073 5300 M 0 -36 rL SGR
GSN 1103 1700 M 0  36 rL SGR
GSN 1103 5300 M 0 -36 rL SGR
GSN 1307 1700 M 0  36 rL SGR
GSN 1307 5300 M 0 -36 rL SGR
GSN 1410 1700 M 0  36 rL SGR
GSN 1410 5300 M 0 -36 rL SGR
GSN 1483 1700 M 0  36 rL SGR
GSN 1483 5300 M 0 -36 rL SGR
GSN 1540 1700 M 0  36 rL SGR
GSN 1540 5300 M 0 -36 rL SGR
GSN 1586 1700 M 0  36 rL SGR
GSN 1586 5300 M 0 -36 rL SGR
GSN 1626 1700 M 0  36 rL SGR
GSN 1626 5300 M 0 -36 rL SGR
GSN 1660 1700 M 0  36 rL SGR
GSN 1660 5300 M 0 -36 rL SGR
GSN 1690 1700 M 0  36 rL SGR
GSN 1690 5300 M 0 -36 rL SGR
GSN 1893 1700 M 0  36 rL SGR
GSN 1893 5300 M 0 -36 rL SGR
GSN 1996 1700 M 0  36 rL SGR
GSN 1996 5300 M 0 -36 rL SGR
GSN 2069 1700 M 0  36 rL SGR
GSN 2069 5300 M 0 -36 rL SGR
GSN 2126 1700 M 0  36 rL SGR
GSN 2126 5300 M 0 -36 rL SGR
GSN 2173 1700 M 0  36 rL SGR
GSN 2173 5300 M 0 -36 rL SGR
GSN 2212 1700 M 0  36 rL SGR
GSN 2212 5300 M 0 -36 rL SGR
GSN 2246 1700 M 0  36 rL SGR
GSN 2246 5300 M 0 -36 rL SGR
GSN 2276 1700 M 0  36 rL SGR
GSN 2276 5300 M 0 -36 rL SGR
GSN 2479 1700 M 0  36 rL SGR
GSN 2479 5300 M 0 -36 rL SGR
GSN 2583 1700 M 0  36 rL SGR
GSN 2583 5300 M 0 -36 rL SGR
GSN 2656 1700 M 0  36 rL SGR
GSN 2656 5300 M 0 -36 rL SGR
GSN 2713 1700 M 0  36 rL SGR
GSN 2713 5300 M 0 -36 rL SGR
GSN 2759 1700 M 0  36 rL SGR
GSN 2759 5300 M 0 -36 rL SGR
GSN 2798 1700 M 0  36 rL SGR
GSN 2798 5300 M 0 -36 rL SGR
GSN 2832 1700 M 0  36 rL SGR
GSN 2832 5300 M 0 -36 rL SGR
GSN 2862 1700 M 0  36 rL SGR
GSN 2862 5300 M 0 -36 rL SGR
GSN 3066 1700 M 0  36 rL SGR
GSN 3066 5300 M 0 -36 rL SGR
GSN 3169 1700 M 0  36 rL SGR
GSN 3169 5300 M 0 -36 rL SGR
GSN 3242 1700 M 0  36 rL SGR
GSN 3242 5300 M 0 -36 rL SGR
GSN 3299 1700 M 0  36 rL SGR
GSN 3299 5300 M 0 -36 rL SGR
GSN 3345 1700 M 0  36 rL SGR
GSN 3345 5300 M 0 -36 rL SGR
GSN 3385 1700 M 0  36 rL SGR
GSN 3385 5300 M 0 -36 rL SGR
GSN 3419 1700 M 0  36 rL SGR
GSN 3419 5300 M 0 -36 rL SGR
GSN 3449 1700 M 0  36 rL SGR
GSN 3449 5300 M 0 -36 rL SGR
GSN 3652 1700 M 0  36 rL SGR
GSN 3652 5300 M 0 -36 rL SGR
GSN 3755 1700 M 0  36 rL SGR
GSN 3755 5300 M 0 -36 rL SGR
GSN 3829 1700 M 0  36 rL SGR
GSN 3829 5300 M 0 -36 rL SGR
GSN 3885 1700 M 0  36 rL SGR
GSN 3885 5300 M 0 -36 rL SGR
GSN 3932 1700 M 0  36 rL SGR
GSN 3932 5300 M 0 -36 rL SGR
GSN 3971 1700 M 0  36 rL SGR
GSN 3971 5300 M 0 -36 rL SGR
GSN 4005 1700 M 0  36 rL SGR
GSN 4005 5300 M 0 -36 rL SGR
GSN 4035 1700 M 0  36 rL SGR
GSN 4035 5300 M 0 -36 rL SGR
%
% Y axis: large tics
%
L10
GSN 620 2268 M 54 0 rL SGR
GSN 4220 2268 M -54 0 rL SGR
helvS (1.05) 560 2268 ylabel
GSN 620 3585 M 54 0 rL SGR
GSN 4220 3585 M -54 0 rL SGR
helvS (1.1) 560 3585 ylabel
GSN 620 4902 M 54 0 rL SGR
GSN 4220 4902 M -54 0 rL SGR
helvS (1.15) 560 4902 ylabel
%
% Y axis: small tics
%
L5
GSN 620 1741 M 36 0 rL SGR
GSN 4220 1741 M -36 0 rL SGR
GSN 620 2004 M 36 0 rL SGR
GSN 4220 2004 M -36 0 rL SGR
GSN 620 2268 M 36 0 rL SGR
GSN 4220 2268 M -36 0 rL SGR
GSN 620 2531 M 36 0 rL SGR
GSN 4220 2531 M -36 0 rL SGR
GSN 620 2794 M 36 0 rL SGR
GSN 4220 2794 M -36 0 rL SGR
GSN 620 3058 M 36 0 rL SGR
GSN 4220 3058 M -36 0 rL SGR
GSN 620 3321 M 36 0 rL SGR
GSN 4220 3321 M -36 0 rL SGR
GSN 620 3585 M 36 0 rL SGR
GSN 4220 3585 M -36 0 rL SGR
GSN 620 3848 M 36 0 rL SGR
GSN 4220 3848 M -36 0 rL SGR
GSN 620 4112 M 36 0 rL SGR
GSN 4220 4112 M -36 0 rL SGR
GSN 620 4375 M 36 0 rL SGR
GSN 4220 4375 M -36 0 rL SGR
GSN 620 4639 M 36 0 rL SGR
GSN 4220 4639 M -36 0 rL SGR
GSN 620 4902 M 36 0 rL SGR
GSN 4220 4902 M -36 0 rL SGR
GSN 620 5165 M 36 0 rL SGR
GSN 4220 5165 M -36 0 rL SGR

%
% X-Axis label:
%
gsave 2420 290 M 
[
[(Helvetica) 180 0 true true 0 (t)]
[(Helvetica) 180 0 true true 0 (i)]
[(Helvetica) 180 0 true true 0 (m)]
[(Helvetica) 180 0 true true 0 (e)]
] 0 MCshow grestore

%
% Y-Axis label:
%
gsave 234 3500 M 
currentpoint gsave translate 90 rotate 0 0 moveto
[
[(Helvetica) 180 0 true true 0 (s)]
[(Helvetica) 180 0 true true 0 (i)]
[(Helvetica) 180 0 true true 0 (g)]
[(Helvetica) 180 0 true true 0 (n)]
[(Helvetica) 180 0 true true 0 (a)]
[(Helvetica) 180 0 true true 0 (l)]
] 0 MCshow grestore

%
% Residuals:
%
gsave 129 1160 M 
currentpoint gsave translate 90 rotate 0 0 moveto
[
[(Helvetica) 150 0 true true 0 (r)]
[(Helvetica) 150 0 true true 0 (e)]
[(Helvetica) 150 0 true true 0 (s)]
[(Helvetica) 150 0 true true 0 (i)]
[(Helvetica) 150 0 true true 0 (d)]
[(Helvetica) 150 0 true true 0 (u)]
[(Helvetica) 150 0 true true 0 (a)]
[(Helvetica) 150 0 true true 0 (l)]
[(Helvetica) 150 0 true true 0 (s)]
] 0 MCshow grestore

%
% Residual frame
%
L10
GSN 
620 620 M
4220 620 L
4220 1700 L
620 1700 L
closepath SGR
%
% X axis: large tics - residual frame
%
L10
GSN 1130 620 M 0  54 rL SGR
GSN 1130 1700 M 0 -54 rL SGR
GSN 1716 620 M 0  54 rL SGR
GSN 1716 1700 M 0 -54 rL SGR
GSN 2303 620 M 0  54 rL SGR
GSN 2303 1700 M 0 -54 rL SGR
GSN 2889 620 M 0  54 rL SGR
GSN 2889 1700 M 0 -54 rL SGR
GSN 3476 620 M 0  54 rL SGR
GSN 3476 1700 M 0 -54 rL SGR
GSN 4062 620 M 0  54 rL SGR
GSN 4062 1700 M 0 -54 rL SGR
%
% X axis: small tics - residual frame
%
L5
GSN 720 620 M 0  36 rL SGR
GSN 720 1700 M 0 -36 rL SGR
GSN 824 620 M 0  36 rL SGR
GSN 824 1700 M 0 -36 rL SGR
GSN 897 620 M 0  36 rL SGR
GSN 897 1700 M 0 -36 rL SGR
GSN 954 620 M 0  36 rL SGR
GSN 954 1700 M 0 -36 rL SGR
GSN 1000 620 M 0  36 rL SGR
GSN 1000 1700 M 0 -36 rL SGR
GSN 1039 620 M 0  36 rL SGR
GSN 1039 1700 M 0 -36 rL SGR
GSN 1073 620 M 0  36 rL SGR
GSN 1073 1700 M 0 -36 rL SGR
GSN 1103 620 M 0  36 rL SGR
GSN 1103 1700 M 0 -36 rL SGR
GSN 1307 620 M 0  36 rL SGR
GSN 1307 1700 M 0 -36 rL SGR
GSN 1410 620 M 0  36 rL SGR
GSN 1410 1700 M 0 -36 rL SGR
GSN 1483 620 M 0  36 rL SGR
GSN 1483 1700 M 0 -36 rL SGR
GSN 1540 620 M 0  36 rL SGR
GSN 1540 1700 M 0 -36 rL SGR
GSN 1586 620 M 0  36 rL SGR
GSN 1586 1700 M 0 -36 rL SGR
GSN 1626 620 M 0  36 rL SGR
GSN 1626 1700 M 0 -36 rL SGR
GSN 1660 620 M 0  36 rL SGR
GSN 1660 1700 M 0 -36 rL SGR
GSN 1690 620 M 0  36 rL SGR
GSN 1690 1700 M 0 -36 rL SGR
GSN 1893 620 M 0  36 rL SGR
GSN 1893 1700 M 0 -36 rL SGR
GSN 1996 620 M 0  36 rL SGR
GSN 1996 1700 M 0 -36 rL SGR
GSN 2069 620 M 0  36 rL SGR
GSN 2069 1700 M 0 -36 rL SGR
GSN 2126 620 M 0  36 rL SGR
GSN 2126 1700 M 0 -36 rL SGR
GSN 2173 620 M 0  36 rL SGR
GSN 2173 1700 M 0 -36 rL SGR
GSN 2212 620 M 0  36 rL SGR
GSN 2212 1700 M 0 -36 rL SGR
GSN 2246 620 M 0  36 rL SGR
GSN 2246 1700 M 0 -36 rL SGR
GSN 2276 620 M 0  36 rL SGR
GSN 2276 1700 M 0 -36 rL SGR
GSN 2479 620 M 0  36 rL SGR
GSN 2479 1700 M 0 -36 rL SGR
GSN 2583 620 M 0  36 rL SGR
GSN 2583 1700 M 0 -36 rL SGR
GSN 2656 620 M 0  36 rL SGR
GSN 2656 1700 M 0 -36 rL SGR
GSN 2713 620 M 0  36 rL SGR
GSN 2713 1700 M 0 -36 rL SGR
GSN 2759 620 M 0  36 rL SGR
GSN 2759 1700 M 0 -36 rL SGR
GSN 2798 620 M 0  36 rL SGR
GSN 2798 1700 M 0 -36 rL SGR
GSN 2832 620 M 0  36 rL SGR
GSN 2832 1700 M 0 -36 rL SGR
GSN 2862 620 M 0  36 rL SGR
GSN 2862 1700 M 0 -36 rL SGR
GSN 3066 620 M 0  36 rL SGR
GSN 3066 1700 M 0 -36 rL SGR
GSN 3169 620 M 0  36 rL SGR
GSN 3169 1700 M 0 -36 rL SGR
GSN 3242 620 M 0  36 rL SGR
GSN 3242 1700 M 0 -36 rL SGR
GSN 3299 620 M 0  36 rL SGR
GSN 3299 1700 M 0 -36 rL SGR
GSN 3345 620 M 0  36 rL SGR
GSN 3345 1700 M 0 -36 rL SGR
GSN 3385 620 M 0  36 rL SGR
GSN 3385 1700 M 0 -36 rL SGR
GSN 3419 620 M 0  36 rL SGR
GSN 3419 1700 M 0 -36 rL SGR
GSN 3449 620 M 0  36 rL SGR
GSN 3449 1700 M 0 -36 rL SGR
GSN 3652 620 M 0  36 rL SGR
GSN 3652 1700 M 0 -36 rL SGR
GSN 3755 620 M 0  36 rL SGR
GSN 3755 1700 M 0 -36 rL SGR
GSN 3829 620 M 0  36 rL SGR
GSN 3829 1700 M 0 -36 rL SGR
GSN 3885 620 M 0  36 rL SGR
GSN 3885 1700 M 0 -36 rL SGR
GSN 3932 620 M 0  36 rL SGR
GSN 3932 1700 M 0 -36 rL SGR
GSN 3971 620 M 0  36 rL SGR
GSN 3971 1700 M 0 -36 rL SGR
GSN 4005 620 M 0  36 rL SGR
GSN 4005 1700 M 0 -36 rL SGR
GSN 4035 620 M 0  36 rL SGR
GSN 4035 1700 M 0 -36 rL SGR
%
% Y axis: large tics - residual frame
%
L10
GSN 620 812 M 54 0 rL SGR
GSN 4220 812 M -54 0 rL SGR
helvS (-0.05) 560 812 ylabelresid
GSN 620 1049 M 54 0 rL SGR
GSN 4220 1049 M -54 0 rL SGR
helvS (-0.025) 560 1049 ylabelresid
GSN 620 1286 M 54 0 rL SGR
GSN 4220 1286 M -54 0 rL SGR
helvS (0) 560 1286 ylabelresid
GSN 620 1523 M 54 0 rL SGR
GSN 4220 1523 M -54 0 rL SGR
helvS (0.025) 560 1523 ylabelresid

%
% X axis - residual panel
%
GSN L5 620 1286 M 4220 1286 L SDA G50 SGR

end
showpage
%%Trailer
%%EOF
