%!PS-Adobe-3.0 EPSF-3.0
%%BoundingBox: 0 0 514 442
%%Creator: BioKin Ltd.
%%DocumentFonts: Symbol Helvetica
%%EndComments
%
/bkdict 256 dict def
bkdict begin
/M {moveto} def 
/R {rmoveto} def
/L {lineto} def
/rL {rlineto} def
/GSN {gsave newpath} def
/SGR {stroke grestore} def
/COSGR {gsave setrgbcolor stroke grestore grestore} def
/SL {setlinewidth} def
/LWMB {12} def             % line width - model curves, black & white
/LWMC {10} def             % line width - model curves, color
/L2 {2.5 setlinewidth} def
/L5 {5 setlinewidth} def
/L10 {10 setlinewidth} def
/G50 {0.5 setgray} def
/SDA {[10  20] 0 setdash} def % axes
/helvT {/Helvetica findfont 100 scalefont setfont} def % tiny
/helvS {/Helvetica findfont 125 scalefont setfont} def % small
/helvM {/Helvetica findfont 150 scalefont setfont} def % medium
/helvL {/Helvetica findfont 175 scalefont setfont} def % large
/xlabel {gsave M dup
   stringwidth exch -0.5 mul exch rmoveto show grestore} def 
/ylabel {gsave M 90 rotate dup
   stringwidth exch -0.5 mul exch rmoveto show grestore} def
/ylabelresid {gsave M dup
   stringwidth exch -1 mul exch rmoveto show grestore} def
% ======
% Shapes
% ======
% Circle:
/Circ {0 360 arc closepath} def
%
% Square:
/Squa {dup dup -0.5 mul dup dup R -2 mul 0 exch rL 1 mul 0 rL dup 0 exch -1 mul rL closepath} def
%
% Triangle Up:
/TriU {dup dup dup -0.4 mul exch -0.5 mul exch R dup 0.5 mul exch rL dup -1 mul exch 0.5 mul exch rL closepath} def 
%
% Triangle Down:
/TriD {dup dup dup 0.4 mul exch -0.5 mul exch R dup 0.5 mul exch -1 mul rL dup 0.5 mul exch rL closepath} def 
%
% Diamond:
/Diam {45 rotate Squa} def
% ======
% Fills
% ======
/GRF {gsave setgray fill grestore} def                    % gray-level Fill
/COF {gsave setrgbcolor fill grestore} def                % color fill
% ======
% Colors
% ======
/C01 {1.00	0.00	0.00} def      % Red
/C02 {0.00	0.00	1.00} def      % Blue
/C03 {0.00	0.39	0.00} def      % Dark Green
/C04 {0.78	0.08	0.52} def      % Medium Violet Red
/C05 {0.55	0.27	0.07} def      % Saddle Brown
/C06 {0.10	0.70	0.70} def      % (cyan)
/C07 {1.00	0.55	0.00} def      % Dark Orange
/C08 {0.63	0.13	0.94} def      % Purple
/C09 {0.00	0.75	1.00} def      % Deep Sky Blue
/C10 {0.20	0.80	0.20} def      % Lime Green
/C11 {0.47	0.53	0.60} def      % Light Slate Gray
/C12 {0.00	0.00	0.00} def      % Black            % or: {0.19	0.31	0.31} def      % Dark Slate Gray
%
/LGR {0.75} def % light gray
/DGR {0.33} def % dark gray
%
% =============
% Dash patterns
% =============
/dash01 { [80  20] 0 setdash } def
/dash02 { [40  20] 0 setdash } def
/dash03 { [80  20  10  20] 0 setdash } def
/dash04 { [40  20  10  20] 0 setdash } def
/dash05 { [80  20  10  10  10  20] 0 setdash } def
/dash06 { [40  20  10  10  10  20] 0 setdash } def
/dash07 { [10  10] 0 setdash } def
%
/MFshow {
   { dup 5 get 3 ge
     { 5 get 3 eq {gsave} {grestore} ifelse }
     {dup dup 0 get findfont exch 1 get scalefont setfont
     [ currentpoint ] exch dup 2 get 0 exch R dup 5 get 2 ne {dup dup 6
     get exch 4 get {show} {stringwidth pop 0 R} ifelse }if dup 5 get 0 eq
     {dup 3 get {2 get neg 0 exch R pop} {pop aload pop M} ifelse} {dup 5
     get 1 eq {dup 2 get exch dup 3 get exch 6 get stringwidth pop -2 div
     dup 0 R} {dup 6 get stringwidth pop -2 div 0 R 6 get
     show 2 index {aload pop M neg 3 -1 roll neg R pop pop} {pop pop pop
     pop aload pop M} ifelse }ifelse }ifelse }
     ifelse }
   forall} bind def
/MFwidth {0 exch {dup 3 get{dup dup 0 get findfont exch 1 get scalefont
     setfont 6 get stringwidth pop add} {pop} ifelse} forall} bind def
/MCshow { currentpoint stroke M
  exch dup MFwidth -2 div 3 -1 roll R MFshow } def
%
end
%%EndProlog
bkdict begin
0.1 0.1 scale
%
% Model curves:
%

GSN 753 3642 M
770 3642 L
803 3642 L
837 3642 L
870 3642 L
895 3642 L
911 3642 L
937 3642 L
970 3642 L
1003 3642 L
1037 3642 L
1053 3642 L
1070 3642 L
1103 3642 L
1137 3642 L
1170 3643 L
1195 3643 L
1211 3643 L
1237 3643 L
1270 3643 L
1303 3644 L
1337 3644 L
1353 3644 L
1370 3644 L
1403 3645 L
1437 3645 L
1470 3646 L
1495 3647 L
1512 3647 L
1537 3648 L
1570 3649 L
1603 3650 L
1637 3652 L
1653 3653 L
1670 3653 L
1703 3655 L
1737 3657 L
1770 3660 L
1795 3663 L
1812 3665 L
1837 3666 L
1870 3670 L
1903 3675 L
1937 3680 L
1953 3686 L
1971 3686 L
2003 3693 L
2037 3701 L
2070 3709 L
2095 3719 L
2112 3725 L
2137 3730 L
2170 3742 L
2203 3756 L
2237 3771 L
2253 3787 L
2271 3787 L
2303 3804 L
2337 3822 L
2370 3841 L
2395 3861 L
2412 3872 L
2437 3881 L
2470 3902 L
2503 3922 L
2537 3942 L
2553 3960 L
2571 3961 L
2603 3978 L
2637 3994 L
2670 4008 L
2695 4021 L
2712 4027 L
2737 4032 L
2770 4040 L
2803 4048 L
2837 4053 L
2854 4057 L
2871 4057 L
2903 4059 L
2937 4060 L
2970 4061 L
2995 4060 L
3012 4060 L
3037 4059 L
3061 4058 L
3077 4058 L
3103 4057 L
3137 4057 L
3154 4056 L
3171 4056 L
3203 4055 L
3237 4055 L
3270 4055 L
3296 4055 L
3312 4055 L
3337 4055 L
3370 4055 L
3403 4055 L
3437 4055 L
3454 4055 L
3471 4055 L
3503 4055 L
3537 4055 L
3570 4055 L
3596 4055 L
3612 4055 L
3637 4055 L
3670 4055 L
3703 4055 L
3737 4055 L
3754 4055 L
3771 4055 L
3803 4055 L
3837 4055 L
3870 4055 L
3896 4055 L
3912 4055 L
3937 4055 L
3970 4055 L
4003 4055 L
4037 4055 L
4070 4055 L
LWMC SL dash01 C01 COSGR

GSN 753 3228 M
770 3228 L
803 3229 L
837 3229 L
870 3229 L
895 3229 L
911 3229 L
937 3229 L
970 3229 L
1003 3229 L
1037 3230 L
1053 3230 L
1070 3230 L
1103 3230 L
1137 3231 L
1170 3231 L
1195 3232 L
1211 3232 L
1237 3232 L
1270 3233 L
1303 3234 L
1337 3235 L
1353 3236 L
1370 3236 L
1403 3237 L
1437 3239 L
1470 3241 L
1495 3243 L
1512 3244 L
1537 3245 L
1570 3248 L
1603 3251 L
1637 3255 L
1653 3259 L
1670 3259 L
1703 3264 L
1737 3270 L
1770 3277 L
1795 3284 L
1812 3289 L
1837 3293 L
1870 3303 L
1903 3315 L
1937 3328 L
1953 3343 L
1971 3343 L
2003 3360 L
2037 3379 L
2070 3400 L
2095 3424 L
2112 3437 L
2137 3450 L
2170 3478 L
2203 3509 L
2237 3542 L
2253 3577 L
2271 3578 L
2303 3614 L
2337 3652 L
2370 3691 L
2395 3730 L
2412 3751 L
2437 3768 L
2470 3806 L
2503 3842 L
2537 3876 L
2553 3907 L
2571 3908 L
2603 3935 L
2637 3960 L
2670 3982 L
2695 4000 L
2712 4009 L
2737 4016 L
2770 4028 L
2803 4038 L
2837 4046 L
2854 4051 L
2871 4052 L
2903 4055 L
2937 4058 L
2970 4059 L
2995 4059 L
3012 4059 L
3037 4059 L
3061 4058 L
3077 4058 L
3103 4057 L
3137 4057 L
3154 4056 L
3171 4056 L
3203 4055 L
3237 4055 L
3270 4055 L
3296 4055 L
3312 4055 L
3337 4055 L
3370 4055 L
3403 4055 L
3437 4055 L
3454 4055 L
3471 4055 L
3503 4055 L
3537 4055 L
3570 4055 L
3596 4055 L
3612 4055 L
3637 4055 L
3670 4055 L
3703 4055 L
3737 4055 L
3754 4055 L
3771 4055 L
3803 4055 L
3837 4055 L
3870 4055 L
3896 4055 L
3912 4055 L
3937 4055 L
3970 4055 L
4003 4055 L
4037 4055 L
4070 4055 L
LWMC SL dash02 C02 COSGR

GSN 753 2816 M
770 2816 L
803 2816 L
837 2816 L
870 2816 L
895 2816 L
911 2817 L
937 2817 L
970 2817 L
1003 2817 L
1037 2818 L
1053 2818 L
1070 2818 L
1103 2819 L
1137 2820 L
1170 2821 L
1195 2822 L
1211 2822 L
1237 2823 L
1270 2824 L
1303 2826 L
1337 2827 L
1353 2829 L
1370 2830 L
1403 2832 L
1437 2835 L
1470 2838 L
1495 2842 L
1512 2844 L
1537 2846 L
1570 2852 L
1603 2857 L
1637 2864 L
1653 2872 L
1670 2873 L
1703 2882 L
1737 2892 L
1770 2905 L
1795 2919 L
1812 2927 L
1837 2935 L
1870 2953 L
1903 2974 L
1937 2997 L
1953 3024 L
1971 3025 L
2003 3054 L
2037 3087 L
2070 3124 L
2095 3165 L
2112 3188 L
2137 3209 L
2170 3257 L
2203 3308 L
2237 3362 L
2253 3418 L
2271 3420 L
2303 3476 L
2337 3535 L
2370 3594 L
2395 3652 L
2412 3682 L
2437 3708 L
2470 3761 L
2503 3811 L
2537 3856 L
2553 3897 L
2571 3898 L
2603 3933 L
2637 3964 L
2670 3990 L
2695 4011 L
2712 4021 L
2737 4029 L
2770 4042 L
2803 4053 L
2837 4060 L
2854 4064 L
2871 4065 L
2903 4067 L
2937 4068 L
2970 4067 L
2995 4066 L
3012 4065 L
3037 4064 L
3061 4062 L
3077 4061 L
3103 4060 L
3137 4058 L
3154 4057 L
3171 4057 L
3203 4056 L
3237 4055 L
3270 4055 L
3296 4055 L
3312 4055 L
3337 4055 L
3370 4055 L
3403 4055 L
3437 4055 L
3454 4055 L
3471 4055 L
3503 4055 L
3537 4055 L
3570 4055 L
3596 4055 L
3612 4055 L
3637 4055 L
3670 4055 L
3703 4055 L
3737 4055 L
3754 4055 L
3771 4055 L
3803 4055 L
3837 4055 L
3870 4055 L
3896 4055 L
3912 4055 L
3937 4055 L
3970 4055 L
4003 4055 L
4037 4055 L
4070 4055 L
LWMC SL dash03 C03 COSGR

GSN 753 2403 M
770 2403 L
803 2403 L
837 2403 L
870 2404 L
895 2404 L
911 2404 L
937 2405 L
970 2405 L
1003 2406 L
1037 2406 L
1053 2407 L
1070 2407 L
1103 2408 L
1137 2409 L
1170 2411 L
1195 2412 L
1211 2413 L
1237 2414 L
1270 2416 L
1303 2419 L
1337 2422 L
1353 2425 L
1370 2425 L
1403 2429 L
1437 2433 L
1470 2439 L
1495 2445 L
1512 2448 L
1537 2452 L
1570 2460 L
1603 2469 L
1637 2480 L
1653 2493 L
1670 2493 L
1703 2507 L
1737 2524 L
1770 2543 L
1795 2565 L
1812 2578 L
1837 2590 L
1870 2619 L
1903 2651 L
1937 2687 L
1953 2728 L
1971 2729 L
2003 2774 L
2037 2824 L
2070 2879 L
2095 2940 L
2112 2973 L
2137 3005 L
2170 3074 L
2203 3148 L
2237 3224 L
2253 3303 L
2271 3305 L
2303 3383 L
2337 3463 L
2370 3541 L
2395 3617 L
2412 3655 L
2437 3688 L
2470 3755 L
2503 3815 L
2537 3869 L
2553 3917 L
2571 3918 L
2603 3957 L
2637 3990 L
2670 4017 L
2695 4038 L
2712 4047 L
2737 4054 L
2770 4064 L
2803 4071 L
2837 4074 L
2854 4075 L
2871 4075 L
2903 4074 L
2937 4072 L
2970 4069 L
2995 4066 L
3012 4065 L
3037 4064 L
3061 4061 L
3077 4060 L
3103 4059 L
3137 4058 L
3154 4057 L
3171 4057 L
3203 4056 L
3237 4055 L
3270 4055 L
3296 4055 L
3312 4055 L
3337 4055 L
3370 4055 L
3403 4055 L
3437 4055 L
3454 4055 L
3471 4055 L
3503 4055 L
3537 4055 L
3570 4055 L
3596 4055 L
3612 4055 L
3637 4055 L
3670 4055 L
3703 4055 L
3737 4055 L
3754 4055 L
3771 4055 L
3803 4055 L
3837 4055 L
3870 4055 L
3896 4055 L
3912 4055 L
3937 4055 L
3970 4055 L
4003 4055 L
4037 4055 L
4070 4055 L
LWMC SL dash04 C04 COSGR

GSN 753 1990 M
770 1990 L
803 1990 L
837 1991 L
870 1991 L
895 1992 L
911 1992 L
937 1993 L
970 1993 L
1003 1994 L
1037 1995 L
1053 1997 L
1070 1997 L
1103 1998 L
1137 2000 L
1170 2002 L
1195 2004 L
1211 2005 L
1237 2007 L
1270 2010 L
1303 2013 L
1337 2017 L
1353 2022 L
1370 2022 L
1403 2028 L
1437 2034 L
1470 2042 L
1495 2051 L
1512 2056 L
1537 2061 L
1570 2073 L
1603 2086 L
1637 2102 L
1653 2120 L
1670 2121 L
1703 2141 L
1737 2165 L
1770 2193 L
1795 2224 L
1812 2242 L
1837 2260 L
1870 2300 L
1903 2346 L
1937 2397 L
1953 2454 L
1971 2456 L
2003 2517 L
2037 2587 L
2070 2663 L
2095 2745 L
2112 2791 L
2137 2833 L
2170 2926 L
2203 3023 L
2237 3123 L
2253 3225 L
2271 3228 L
2303 3326 L
2337 3426 L
2370 3522 L
2395 3613 L
2412 3659 L
2437 3698 L
2470 3775 L
2503 3843 L
2537 3901 L
2553 3951 L
2571 3953 L
2603 3991 L
2637 4022 L
2670 4046 L
2695 4062 L
2712 4068 L
2737 4072 L
2770 4077 L
2803 4079 L
2837 4079 L
2854 4077 L
2871 4077 L
2903 4074 L
2937 4072 L
2970 4069 L
2995 4066 L
3012 4065 L
3037 4063 L
3061 4061 L
3077 4060 L
3103 4059 L
3137 4058 L
3154 4057 L
3171 4057 L
3203 4056 L
3237 4055 L
3270 4055 L
3296 4055 L
3312 4055 L
3337 4055 L
3370 4055 L
3403 4055 L
3437 4055 L
3454 4055 L
3471 4055 L
3503 4055 L
3537 4055 L
3570 4055 L
3596 4055 L
3612 4055 L
3637 4055 L
3670 4055 L
3703 4055 L
3737 4055 L
3754 4055 L
3771 4055 L
3803 4055 L
3837 4055 L
3870 4055 L
3896 4055 L
3912 4055 L
3937 4055 L
3970 4055 L
4003 4055 L
4037 4055 L
4070 4055 L
LWMC SL dash05 C05 COSGR

GSN 753 1578 M
770 1578 L
803 1578 L
837 1579 L
870 1579 L
895 1580 L
911 1581 L
937 1581 L
970 1582 L
1003 1583 L
1037 1585 L
1053 1586 L
1070 1586 L
1103 1588 L
1137 1591 L
1170 1593 L
1195 1596 L
1211 1598 L
1237 1600 L
1270 1604 L
1303 1609 L
1337 1615 L
1353 1621 L
1370 1622 L
1403 1629 L
1437 1638 L
1470 1648 L
1495 1660 L
1512 1667 L
1537 1674 L
1570 1690 L
1603 1709 L
1637 1730 L
1653 1755 L
1670 1755 L
1703 1783 L
1737 1816 L
1770 1853 L
1795 1895 L
1812 1919 L
1837 1943 L
1870 1997 L
1903 2057 L
1937 2125 L
1953 2201 L
1971 2203 L
2003 2284 L
2037 2374 L
2070 2473 L
2095 2579 L
2112 2637 L
2137 2691 L
2170 2808 L
2203 2929 L
2237 3053 L
2253 3177 L
2271 3181 L
2303 3299 L
2337 3417 L
2370 3529 L
2395 3632 L
2412 3684 L
2437 3726 L
2470 3809 L
2503 3881 L
2537 3940 L
2553 3987 L
2571 3989 L
2603 4023 L
2637 4049 L
2670 4066 L
2695 4076 L
2712 4079 L
2737 4081 L
2770 4082 L
2803 4081 L
2837 4079 L
2854 4077 L
2871 4077 L
2903 4074 L
2937 4071 L
2970 4068 L
2995 4066 L
3012 4064 L
3037 4063 L
3061 4061 L
3077 4060 L
3103 4059 L
3137 4058 L
3154 4057 L
3171 4057 L
3203 4056 L
3237 4055 L
3270 4055 L
3296 4055 L
3312 4055 L
3337 4055 L
3370 4055 L
3403 4055 L
3437 4055 L
3454 4055 L
3471 4055 L
3503 4055 L
3537 4055 L
3570 4055 L
3596 4055 L
3612 4055 L
3637 4055 L
3670 4055 L
3703 4055 L
3737 4055 L
3754 4055 L
3771 4055 L
3803 4055 L
3837 4055 L
3870 4055 L
3896 4055 L
3912 4055 L
3937 4055 L
3970 4055 L
4003 4055 L
4037 4055 L
4070 4055 L
LWMC SL dash06 C06 COSGR

GSN 753 753 M
770 753 L
803 754 L
837 755 L
870 756 L
895 757 L
911 758 L
937 759 L
970 760 L
1003 762 L
1037 765 L
1053 768 L
1070 768 L
1103 771 L
1137 775 L
1170 779 L
1195 784 L
1211 787 L
1237 790 L
1270 797 L
1303 805 L
1337 815 L
1353 826 L
1370 826 L
1403 838 L
1437 853 L
1470 870 L
1495 890 L
1512 901 L
1537 913 L
1570 939 L
1603 970 L
1637 1005 L
1653 1045 L
1670 1045 L
1703 1091 L
1737 1143 L
1770 1203 L
1795 1271 L
1812 1309 L
1837 1347 L
1870 1433 L
1903 1529 L
1937 1635 L
1953 1752 L
1971 1755 L
2003 1879 L
2037 2017 L
2070 2164 L
2095 2320 L
2112 2405 L
2137 2483 L
2170 2650 L
2203 2819 L
2237 2987 L
2253 3152 L
2271 3157 L
2303 3309 L
2337 3456 L
2370 3589 L
2395 3708 L
2412 3764 L
2437 3809 L
2470 3893 L
2503 3959 L
2537 4008 L
2553 4043 L
2571 4044 L
2603 4065 L
2637 4078 L
2670 4084 L
2695 4086 L
2712 4086 L
2737 4086 L
2770 4084 L
2803 4082 L
2837 4079 L
2854 4076 L
2871 4076 L
2903 4074 L
2937 4071 L
2970 4068 L
2995 4066 L
3012 4064 L
3037 4063 L
3061 4061 L
3077 4060 L
3103 4059 L
3137 4058 L
3154 4057 L
3171 4056 L
3203 4056 L
3237 4055 L
3270 4055 L
3296 4055 L
3312 4055 L
3337 4055 L
3370 4055 L
3403 4055 L
3437 4055 L
3454 4055 L
3471 4055 L
3503 4055 L
3537 4055 L
3570 4055 L
3596 4055 L
3612 4055 L
3637 4055 L
3670 4055 L
3703 4055 L
3737 4055 L
3754 4055 L
3771 4055 L
3803 4055 L
3837 4055 L
3870 4055 L
3896 4055 L
3912 4055 L
3937 4055 L
3970 4055 L
4003 4055 L
4037 4055 L
4070 4055 L
LWMC SL dash07 C07 COSGR

%
%================
% Legend - Begin
%================
%
GSN 4240 4040 M
4480 4040 L
LWMC SL dash01 C01 COSGR
GSN 4540 4001 M helvM (0.5 uM) show grestore
GSN 4240 3860 M
4480 3860 L
LWMC SL dash02 C02 COSGR
GSN 4540 3821 M helvM (1.0 uM) show grestore
GSN 4240 3680 M
4480 3680 L
LWMC SL dash03 C03 COSGR
GSN 4540 3641 M helvM (1.5 uM) show grestore
GSN 4240 3500 M
4480 3500 L
LWMC SL dash04 C04 COSGR
GSN 4540 3461 M helvM (2.0 uM) show grestore
GSN 4240 3320 M
4480 3320 L
LWMC SL dash05 C05 COSGR
GSN 4540 3281 M helvM (2.5 uM) show grestore
GSN 4240 3140 M
4480 3140 L
LWMC SL dash06 C06 COSGR
GSN 4540 3101 M helvM (3.0 uM) show grestore
GSN 4240 2960 M
4480 2960 L
LWMC SL dash07 C07 COSGR
GSN 4540 2921 M helvM (4.0 uM) show grestore
%
%================
% Legend - End
%================
%

%
% Main frame
%
L10
GSN 
620 620 M
4220 620 L
4220 4220 L
620 4220 L
closepath SGR

%
% X axis: large tics
%
L10
GSN 1074 620 M 0  54 rL SGR
GSN 1074 4220 M 0 -54 rL SGR
helvS (0.0001) 1074 470 xlabel
GSN 1572 620 M 0  54 rL SGR
GSN 1572 4220 M 0 -54 rL SGR
helvS (0.001) 1572 470 xlabel
GSN 2071 620 M 0  54 rL SGR
GSN 2071 4220 M 0 -54 rL SGR
helvS (0.01) 2071 470 xlabel
GSN 2570 620 M 0  54 rL SGR
GSN 2570 4220 M 0 -54 rL SGR
helvS (0.1) 2570 470 xlabel
GSN 3068 620 M 0  54 rL SGR
GSN 3068 4220 M 0 -54 rL SGR
helvS (1) 3068 470 xlabel
GSN 3567 620 M 0  54 rL SGR
GSN 3567 4220 M 0 -54 rL SGR
helvS (10) 3567 470 xlabel
GSN 4066 620 M 0  54 rL SGR
GSN 4066 4220 M 0 -54 rL SGR
helvS (100) 4066 470 xlabel
%
% X axis: small tics
%
L5
GSN 725 620 M 0  36 rL SGR
GSN 725 4220 M 0 -36 rL SGR
GSN 813 620 M 0  36 rL SGR
GSN 813 4220 M 0 -36 rL SGR
GSN 875 620 M 0  36 rL SGR
GSN 875 4220 M 0 -36 rL SGR
GSN 924 620 M 0  36 rL SGR
GSN 924 4220 M 0 -36 rL SGR
GSN 963 620 M 0  36 rL SGR
GSN 963 4220 M 0 -36 rL SGR
GSN 996 620 M 0  36 rL SGR
GSN 996 4220 M 0 -36 rL SGR
GSN 1025 620 M 0  36 rL SGR
GSN 1025 4220 M 0 -36 rL SGR
GSN 1051 620 M 0  36 rL SGR
GSN 1051 4220 M 0 -36 rL SGR
GSN 1224 620 M 0  36 rL SGR
GSN 1224 4220 M 0 -36 rL SGR
GSN 1312 620 M 0  36 rL SGR
GSN 1312 4220 M 0 -36 rL SGR
GSN 1374 620 M 0  36 rL SGR
GSN 1374 4220 M 0 -36 rL SGR
GSN 1422 620 M 0  36 rL SGR
GSN 1422 4220 M 0 -36 rL SGR
GSN 1462 620 M 0  36 rL SGR
GSN 1462 4220 M 0 -36 rL SGR
GSN 1495 620 M 0  36 rL SGR
GSN 1495 4220 M 0 -36 rL SGR
GSN 1524 620 M 0  36 rL SGR
GSN 1524 4220 M 0 -36 rL SGR
GSN 1550 620 M 0  36 rL SGR
GSN 1550 4220 M 0 -36 rL SGR
GSN 1722 620 M 0  36 rL SGR
GSN 1722 4220 M 0 -36 rL SGR
GSN 1810 620 M 0  36 rL SGR
GSN 1810 4220 M 0 -36 rL SGR
GSN 1873 620 M 0  36 rL SGR
GSN 1873 4220 M 0 -36 rL SGR
GSN 1921 620 M 0  36 rL SGR
GSN 1921 4220 M 0 -36 rL SGR
GSN 1960 620 M 0  36 rL SGR
GSN 1960 4220 M 0 -36 rL SGR
GSN 1994 620 M 0  36 rL SGR
GSN 1994 4220 M 0 -36 rL SGR
GSN 2023 620 M 0  36 rL SGR
GSN 2023 4220 M 0 -36 rL SGR
GSN 2048 620 M 0  36 rL SGR
GSN 2048 4220 M 0 -36 rL SGR
GSN 2221 620 M 0  36 rL SGR
GSN 2221 4220 M 0 -36 rL SGR
GSN 2309 620 M 0  36 rL SGR
GSN 2309 4220 M 0 -36 rL SGR
GSN 2371 620 M 0  36 rL SGR
GSN 2371 4220 M 0 -36 rL SGR
GSN 2420 620 M 0  36 rL SGR
GSN 2420 4220 M 0 -36 rL SGR
GSN 2459 620 M 0  36 rL SGR
GSN 2459 4220 M 0 -36 rL SGR
GSN 2492 620 M 0  36 rL SGR
GSN 2492 4220 M 0 -36 rL SGR
GSN 2521 620 M 0  36 rL SGR
GSN 2521 4220 M 0 -36 rL SGR
GSN 2547 620 M 0  36 rL SGR
GSN 2547 4220 M 0 -36 rL SGR
GSN 2720 620 M 0  36 rL SGR
GSN 2720 4220 M 0 -36 rL SGR
GSN 2808 620 M 0  36 rL SGR
GSN 2808 4220 M 0 -36 rL SGR
GSN 2870 620 M 0  36 rL SGR
GSN 2870 4220 M 0 -36 rL SGR
GSN 2918 620 M 0  36 rL SGR
GSN 2918 4220 M 0 -36 rL SGR
GSN 2958 620 M 0  36 rL SGR
GSN 2958 4220 M 0 -36 rL SGR
GSN 2991 620 M 0  36 rL SGR
GSN 2991 4220 M 0 -36 rL SGR
GSN 3020 620 M 0  36 rL SGR
GSN 3020 4220 M 0 -36 rL SGR
GSN 3045 620 M 0  36 rL SGR
GSN 3045 4220 M 0 -36 rL SGR
GSN 3218 620 M 0  36 rL SGR
GSN 3218 4220 M 0 -36 rL SGR
GSN 3306 620 M 0  36 rL SGR
GSN 3306 4220 M 0 -36 rL SGR
GSN 3368 620 M 0  36 rL SGR
GSN 3368 4220 M 0 -36 rL SGR
GSN 3417 620 M 0  36 rL SGR
GSN 3417 4220 M 0 -36 rL SGR
GSN 3456 620 M 0  36 rL SGR
GSN 3456 4220 M 0 -36 rL SGR
GSN 3490 620 M 0  36 rL SGR
GSN 3490 4220 M 0 -36 rL SGR
GSN 3519 620 M 0  36 rL SGR
GSN 3519 4220 M 0 -36 rL SGR
GSN 3544 620 M 0  36 rL SGR
GSN 3544 4220 M 0 -36 rL SGR
GSN 3717 620 M 0  36 rL SGR
GSN 3717 4220 M 0 -36 rL SGR
GSN 3805 620 M 0  36 rL SGR
GSN 3805 4220 M 0 -36 rL SGR
GSN 3867 620 M 0  36 rL SGR
GSN 3867 4220 M 0 -36 rL SGR
GSN 3915 620 M 0  36 rL SGR
GSN 3915 4220 M 0 -36 rL SGR
GSN 3955 620 M 0  36 rL SGR
GSN 3955 4220 M 0 -36 rL SGR
GSN 3988 620 M 0  36 rL SGR
GSN 3988 4220 M 0 -36 rL SGR
GSN 4017 620 M 0  36 rL SGR
GSN 4017 4220 M 0 -36 rL SGR
GSN 4043 620 M 0  36 rL SGR
GSN 4043 4220 M 0 -36 rL SGR
GSN 4216 620 M 0  36 rL SGR
GSN 4216 4220 M 0 -36 rL SGR
%
% Y axis: large tics
%
L10
GSN 620 1229 M 54 0 rL SGR
GSN 4220 1229 M -54 0 rL SGR
helvS (-4) 560 1229 ylabel
GSN 620 2642 M 54 0 rL SGR
GSN 4220 2642 M -54 0 rL SGR
helvS (-2) 560 2642 ylabel
GSN 620 4055 M 54 0 rL SGR
GSN 4220 4055 M -54 0 rL SGR
helvS (0) 560 4055 ylabel
%
% Y axis: small tics
%
L5
GSN 620 876 M 36 0 rL SGR
GSN 4220 876 M -36 0 rL SGR
GSN 620 1229 M 36 0 rL SGR
GSN 4220 1229 M -36 0 rL SGR
GSN 620 1582 M 36 0 rL SGR
GSN 4220 1582 M -36 0 rL SGR
GSN 620 1935 M 36 0 rL SGR
GSN 4220 1935 M -36 0 rL SGR
GSN 620 2289 M 36 0 rL SGR
GSN 4220 2289 M -36 0 rL SGR
GSN 620 2642 M 36 0 rL SGR
GSN 4220 2642 M -36 0 rL SGR
GSN 620 2995 M 36 0 rL SGR
GSN 4220 2995 M -36 0 rL SGR
GSN 620 3348 M 36 0 rL SGR
GSN 4220 3348 M -36 0 rL SGR
GSN 620 3701 M 36 0 rL SGR
GSN 4220 3701 M -36 0 rL SGR
GSN 620 4055 M 36 0 rL SGR
GSN 4220 4055 M -36 0 rL SGR

%
% X axis
%
GSN L5 620 4055 M 4220 4055 L SDA G50 SGR

%
% X-Axis label:
%
gsave 2420 290 M 
[
[(Helvetica) 180 0 true true 0 (t)]
[(Helvetica) 180 0 true true 0 (i)]
[(Helvetica) 180 0 true true 0 (m)]
[(Helvetica) 180 0 true true 0 (e)]
] 0 MCshow grestore

%
% Y-Axis label:
%
gsave 234 2420 M 
currentpoint gsave translate 90 rotate 0 0 moveto
[
[(Helvetica) 180 0 true true 0 (d)]
[(Helvetica) 180 0 true true 0 (\()]
[(Helvetica) 180 0 true true 0 (s)]
[(Helvetica) 180 0 true true 0 (i)]
[(Helvetica) 180 0 true true 0 (g)]
[(Helvetica) 180 0 true true 0 (n)]
[(Helvetica) 180 0 true true 0 (a)]
[(Helvetica) 180 0 true true 0 (l)]
[(Helvetica) 180 0 true true 0 (\))]
[(Helvetica) 180 0 true true 0 ( )]
[(Helvetica) 180 0 true true 0 (/)]
[(Helvetica) 180 0 true true 0 ( )]
[(Helvetica) 180 0 true true 0 (d)]
[(Helvetica) 180 0 true true 0 (t)]
] 0 MCshow grestore

end
showpage
%%Trailer
%%EOF
