%!PS-Adobe-3.0 EPSF-3.0
%%BoundingBox: 0 0 514 550
%%Creator: BioKin Ltd.
%%DocumentFonts: Symbol Helvetica
%%EndComments
%
/bkdict 256 dict def
bkdict begin
/M {moveto} def 
/R {rmoveto} def
/L {lineto} def
/rL {rlineto} def
/GSN {gsave newpath} def
/SGR {stroke grestore} def
/COSGR {gsave setrgbcolor stroke grestore grestore} def
/SL {setlinewidth} def
/LWMB {12} def             % line width - model curves, black & white
/LWMC {10} def             % line width - model curves, color
/L2 {2.5 setlinewidth} def
/L5 {5 setlinewidth} def
/L10 {10 setlinewidth} def
/G50 {0.5 setgray} def
/SDA {[10  20] 0 setdash} def % axes
/helvT {/Helvetica findfont 100 scalefont setfont} def % tiny
/helvS {/Helvetica findfont 125 scalefont setfont} def % small
/helvM {/Helvetica findfont 150 scalefont setfont} def % medium
/helvL {/Helvetica findfont 175 scalefont setfont} def % large
/xlabel {gsave M dup
   stringwidth exch -0.5 mul exch rmoveto show grestore} def 
/ylabel {gsave M 90 rotate dup
   stringwidth exch -0.5 mul exch rmoveto show grestore} def
/ylabelresid {gsave M dup
   stringwidth exch -1 mul exch rmoveto show grestore} def
% ======
% Shapes
% ======
% Circle:
/Circ {0 360 arc closepath} def
%
% Square:
/Squa {dup dup -0.5 mul dup dup R -2 mul 0 exch rL 1 mul 0 rL dup 0 exch -1 mul rL closepath} def
%
% Triangle Up:
/TriU {dup dup dup -0.4 mul exch -0.5 mul exch R dup 0.5 mul exch rL dup -1 mul exch 0.5 mul exch rL closepath} def 
%
% Triangle Down:
/TriD {dup dup dup 0.4 mul exch -0.5 mul exch R dup 0.5 mul exch -1 mul rL dup 0.5 mul exch rL closepath} def 
%
% Diamond:
/Diam {45 rotate Squa} def
% ======
% Fills
% ======
/GRF {gsave setgray fill grestore} def                    % gray-level Fill
/COF {gsave setrgbcolor fill grestore} def                % color fill
% ======
% Colors
% ======
/C01 {1.00	0.00	0.00} def      % Red
/C02 {0.00	0.00	1.00} def      % Blue
/C03 {0.00	0.39	0.00} def      % Dark Green
/C04 {0.78	0.08	0.52} def      % Medium Violet Red
/C05 {0.55	0.27	0.07} def      % Saddle Brown
/C06 {0.10	0.70	0.70} def      % (cyan)
/C07 {1.00	0.55	0.00} def      % Dark Orange
/C08 {0.63	0.13	0.94} def      % Purple
/C09 {0.00	0.75	1.00} def      % Deep Sky Blue
/C10 {0.20	0.80	0.20} def      % Lime Green
/C11 {0.47	0.53	0.60} def      % Light Slate Gray
/C12 {0.00	0.00	0.00} def      % Black            % or: {0.19	0.31	0.31} def      % Dark Slate Gray
%
/LGR {0.75} def % light gray
/DGR {0.33} def % dark gray
%
% =============
% Dash patterns
% =============
/dash01 { [80  20] 0 setdash } def
/dash02 { [40  20] 0 setdash } def
/dash03 { [80  20  10  20] 0 setdash } def
/dash04 { [40  20  10  20] 0 setdash } def
/dash05 { [80  20  10  10  10  20] 0 setdash } def
/dash06 { [40  20  10  10  10  20] 0 setdash } def
/dash07 { [10  10] 0 setdash } def
%
/MFshow {
   { dup 5 get 3 ge
     { 5 get 3 eq {gsave} {grestore} ifelse }
     {dup dup 0 get findfont exch 1 get scalefont setfont
     [ currentpoint ] exch dup 2 get 0 exch R dup 5 get 2 ne {dup dup 6
     get exch 4 get {show} {stringwidth pop 0 R} ifelse }if dup 5 get 0 eq
     {dup 3 get {2 get neg 0 exch R pop} {pop aload pop M} ifelse} {dup 5
     get 1 eq {dup 2 get exch dup 3 get exch 6 get stringwidth pop -2 div
     dup 0 R} {dup 6 get stringwidth pop -2 div 0 R 6 get
     show 2 index {aload pop M neg 3 -1 roll neg R pop pop} {pop pop pop
     pop aload pop M} ifelse }ifelse }ifelse }
     ifelse }
   forall} bind def
/MFwidth {0 exch {dup 3 get{dup dup 0 get findfont exch 1 get scalefont
     setfont 6 get stringwidth pop add} {pop} ifelse} forall} bind def
/MCshow { currentpoint stroke M
  exch dup MFwidth -2 div 3 -1 roll R MFshow } def
%
end
%%EndProlog
bkdict begin
0.1 0.1 scale
%
% Residuals:
%
GSN 620 2847 M
620 2369 L
620 2251 L
620 2910 L
620 3019 L
620 2844 L
620 2953 L
620 3063 L
620 3273 L
620 3334 L
620 3174 L
620 3606 L
620 3292 L
620 3444 L
620 4056 L
620 3701 L
620 3854 L
620 3620 L
620 3781 L
620 3877 L
620 3936 L
620 3804 L
620 3710 L
620 3871 L
620 4328 L
620 4034 L
620 4220 L
620 4115 L
620 4303 L
620 4324 L
620 4387 L
620 4257 L
620 4130 L
620 3983 L
620 4226 L
620 4248 L
620 4120 L
620 4419 L
620 4636 L
620 4505 L
620 4470 L
620 4276 L
620 4567 L
620 4145 L
620 4233 L
620 4376 L
620 4485 L
620 4399 L
620 4436 L
620 4442 L
620 4238 L
620 4294 L
620 4323 L
620 4182 L
620 3834 L
620 4576 L
620 4252 L
620 4325 L
620 4234 L
620 4640 L
620 4300 L
620 4139 L
620 4863 L
620 4095 L
620 4468 L
620 4397 L
620 4198 L
620 4310 L
620 4246 L
620 4563 L
620 4341 L
620 4029 L
620 4515 L
620 4763 L
620 4353 L
620 4300 L
620 4465 L
620 4049 L
620 4283 L
620 4327 L
620 4272 L
620 3993 L
620 4096 L
620 4446 L
620 3880 L
620 3984 L
620 4156 L
620 4046 L
620 3846 L
620 3701 L
620 3695 L
620 3745 L
620 3190 L
620 3644 L
620 3419 L
620 3906 L
620 3371 L
620 3540 L
620 3035 L
620 3240 L
620 3267 L
620 3066 L
620 3370 L
620 3093 L
620 3377 L
620 3390 L
620 3139 L
620 2914 L
620 2907 L
620 3297 L
620 3011 L
620 2910 L
620 2938 L
620 3114 L
620 2893 L
620 2972 L
620 2796 L
620 3037 L
620 3048 L
620 2940 L
620 2972 L
620 2981 L
620 2668 L
620 3216 L
620 3053 L
620 2406 L
620 2946 L
620 2839 L
620 3002 L
620 2769 L
620 2836 L
620 2612 L
620 2847 L
620 2846 L
620 3148 L
620 2459 L
620 2773 L
620 2942 L
620 2973 L
620 2917 L
620 2875 L
620 2529 L
620 2568 L
620 2791 L
620 2653 L
620 2764 L
620 2820 L
620 2757 L
620 2812 L
620 2839 L
620 2555 L
620 2821 L
620 2671 L
620 2531 L
620 2911 L
620 2943 L
620 2555 L
620 2582 L
620 2962 L
620 2869 L
620 2838 L
620 2833 L
620 2494 L
620 2813 L
620 2913 L
620 2837 L
620 2595 L
620 2626 L
620 2634 L
620 2826 L
620 2833 L
620 2823 L
620 2606 L
620 2997 L
620 2873 L
620 2443 L
620 3006 L
620 2577 L
620 2619 L
620 2745 L
620 2681 L
620 2908 L
620 2715 L
620 2893 L
620 2883 L
620 2795 L
620 2714 L
620 2862 L
620 2570 L
620 2759 L
620 3059 L
620 2500 L
620 3078 L
620 2668 L
620 2408 L
620 2717 L
620 3054 L
620 2411 L
620 2570 L
620 2865 L
620 2949 L
620 2652 L
620 2581 L
620 2614 L
620 3049 L
620 2771 L
620 2872 L
620 2963 L
620 2961 L
620 2935 L
620 3164 L
620 2892 L
620 3084 L
620 2911 L
620 2940 L
620 2502 L
620 2718 L
620 3015 L
620 2445 L
620 2760 L
620 2798 L
620 2722 L
620 3053 L
620 2792 L
620 2912 L
620 2860 L
620 2871 L
620 2796 L
620 2839 L
620 3097 L
620 2665 L
620 2823 L
620 2662 L
620 2659 L
620 2885 L
620 2666 L
620 2930 L
620 2807 L
620 2992 L
620 2931 L
620 3165 L
620 3117 L
620 2972 L
620 3007 L
620 2790 L
620 2847 L
620 2631 L
620 2996 L
620 2895 L
620 2704 L
620 2993 L
620 2913 L
620 3041 L
620 2665 L
620 2703 L
620 3351 L
620 3289 L
620 2710 L
620 2977 L
620 3155 L
620 2952 L
620 2927 L
620 3024 L
620 2915 L
620 3270 L
620 2698 L
620 2931 L
620 2979 L
620 2828 L
620 3005 L
620 3032 L
620 3037 L
620 2929 L
620 3131 L
620 3037 L
620 2797 L
620 2821 L
620 3107 L
620 3032 L
620 3068 L
620 2857 L
620 3357 L
620 2953 L
620 3041 L
620 3441 L
620 3141 L
620 3439 L
620 3428 L
620 3596 L
620 3111 L
620 3490 L
620 3400 L
620 3508 L
620 3172 L
620 3281 L
620 3076 L
620 3196 L
620 3657 L
620 3341 L
620 3504 L
620 3236 L
620 3073 L
620 3104 L
620 2949 L
620 3232 L
620 3350 L
620 3493 L
620 3093 L
620 3260 L
620 3834 L
620 3141 L
620 3320 L
620 3162 L
620 3657 L
620 2925 L
620 3469 L
620 3358 L
620 3613 L
620 3271 L
620 3248 L
620 3281 L
620 3190 L
620 3663 L
620 3497 L
620 3160 L
620 3044 L
620 3075 L
620 3208 L
620 3636 L
620 3181 L
620 3260 L
620 3238 L
620 3560 L
620 3420 L
620 3093 L
620 3403 L
620 3181 L
620 3357 L
620 3132 L
620 3344 L
620 3390 L
620 3294 L
620 3156 L
620 3625 L
620 3142 L
620 3579 L
620 3206 L
620 3259 L
620 3376 L
620 2650 L
620 3066 L
620 3226 L
620 3242 L
620 3429 L
620 3382 L
620 3399 L
620 3180 L
620 2939 L
620 3253 L
620 3220 L
620 3355 L
620 3062 L
620 3095 L
620 2840 L
620 3260 L
620 3181 L
620 2993 L
620 3186 L
620 3014 L
620 3432 L
620 2969 L
620 3651 L
620 3266 L
620 2837 L
620 3232 L
620 3051 L
620 3126 L
620 3555 L
620 2868 L
620 2889 L
620 3218 L
620 3092 L
620 2932 L
620 3089 L
620 3236 L
620 3126 L
620 2768 L
620 3038 L
620 2495 L
620 2831 L
620 3108 L
620 3118 L
620 2926 L
620 2688 L
620 3205 L
620 2858 L
620 2513 L
620 3376 L
620 2732 L
620 2699 L
620 3424 L
620 2904 L
620 2722 L
620 3027 L
620 2868 L
620 2777 L
620 3187 L
620 3142 L
620 2945 L
620 2850 L
620 2919 L
620 2683 L
620 2692 L
620 2883 L
620 2768 L
620 2926 L
620 2971 L
620 2689 L
620 2789 L
620 3045 L
620 2453 L
620 3347 L
620 2847 L
620 3209 L
620 3127 L
620 2720 L
620 2872 L
620 2762 L
620 2953 L
620 2917 L
620 2610 L
620 2583 L
620 3109 L
620 2626 L
620 2850 L
620 2977 L
620 2710 L
620 2743 L
620 2786 L
620 2734 L
620 2635 L
620 2631 L
620 2939 L
620 2711 L
620 2838 L
620 2415 L
620 2810 L
620 2802 L
620 2607 L
620 2698 L
620 2734 L
620 3005 L
620 2962 L
620 2780 L
620 2623 L
620 2506 L
620 2855 L
620 2932 L
620 2704 L
620 2611 L
620 2644 L
620 3185 L
620 2951 L
620 2716 L
620 2495 L
620 2456 L
620 2920 L
620 2875 L
620 2875 L
620 2960 L
620 2850 L
620 2679 L
620 2540 L
620 2743 L
620 2527 L
620 2576 L
620 2853 L
620 3011 L
620 2628 L
620 2586 L
620 2670 L
620 3027 L
620 2637 L
620 2607 L
620 2992 L
620 3020 L
620 2741 L
620 3063 L
620 2201 L
620 2251 L
620 2971 L
620 2780 L
620 2373 L
620 2811 L
620 2731 L
620 3144 L
620 2793 L
620 3096 L
620 2443 L
620 3089 L
620 2753 L
620 2807 L
620 2778 L
620 2743 L
620 2583 L
620 2676 L
620 2661 L
620 2674 L
620 2752 L
620 2528 L
620 2228 L
620 2907 L
620 2534 L
620 2427 L
620 2594 L
620 2664 L
620 2817 L
620 2853 L
620 2346 L
620 2828 L
620 2787 L
620 2532 L
620 2795 L
620 2456 L
620 2495 L
620 2890 L
620 2662 L
620 2695 L
620 2380 L
620 2749 L
620 2136 L
620 2546 L
620 2753 L
L2 C05 COSGR

%
%================
% Legend - Begin
%================
%
GSN 4240 5180 M
4480 5180 L
LWMC SL  C05 COSGR
GSN 4540 5141 M helvM (2.5 uM) show grestore
%
%================
% Legend - End
%================
%

%
% Main frame
%
L10
GSN 
620 1700 M
4220 1700 L
4220 5300 L
620 5300 L
closepath SGR

%
% X axis: large tics
%
L10
%
% X axis: small tics
%
L5
%
% Y axis: large tics
%
L10
GSN 620 2059 M 54 0 rL SGR
GSN 4220 2059 M -54 0 rL SGR
helvS (-0.32) 560 2059 ylabel
GSN 620 2841 M 54 0 rL SGR
GSN 4220 2841 M -54 0 rL SGR
helvS (-0.31) 560 2841 ylabel
GSN 620 3623 M 54 0 rL SGR
GSN 4220 3623 M -54 0 rL SGR
helvS (-0.3) 560 3623 ylabel
GSN 620 4405 M 54 0 rL SGR
GSN 4220 4405 M -54 0 rL SGR
helvS (-0.29) 560 4405 ylabel
GSN 620 5186 M 54 0 rL SGR
GSN 4220 5186 M -54 0 rL SGR
helvS (-0.28) 560 5186 ylabel
%
% Y axis: small tics
%
L5
GSN 620 1864 M 36 0 rL SGR
GSN 4220 1864 M -36 0 rL SGR
GSN 620 2059 M 36 0 rL SGR
GSN 4220 2059 M -36 0 rL SGR
GSN 620 2255 M 36 0 rL SGR
GSN 4220 2255 M -36 0 rL SGR
GSN 620 2450 M 36 0 rL SGR
GSN 4220 2450 M -36 0 rL SGR
GSN 620 2646 M 36 0 rL SGR
GSN 4220 2646 M -36 0 rL SGR
GSN 620 2841 M 36 0 rL SGR
GSN 4220 2841 M -36 0 rL SGR
GSN 620 3037 M 36 0 rL SGR
GSN 4220 3037 M -36 0 rL SGR
GSN 620 3232 M 36 0 rL SGR
GSN 4220 3232 M -36 0 rL SGR
GSN 620 3427 M 36 0 rL SGR
GSN 4220 3427 M -36 0 rL SGR
GSN 620 3623 M 36 0 rL SGR
GSN 4220 3623 M -36 0 rL SGR
GSN 620 3818 M 36 0 rL SGR
GSN 4220 3818 M -36 0 rL SGR
GSN 620 4014 M 36 0 rL SGR
GSN 4220 4014 M -36 0 rL SGR
GSN 620 4209 M 36 0 rL SGR
GSN 4220 4209 M -36 0 rL SGR
GSN 620 4405 M 36 0 rL SGR
GSN 4220 4405 M -36 0 rL SGR
GSN 620 4600 M 36 0 rL SGR
GSN 4220 4600 M -36 0 rL SGR
GSN 620 4795 M 36 0 rL SGR
GSN 4220 4795 M -36 0 rL SGR
GSN 620 4991 M 36 0 rL SGR
GSN 4220 4991 M -36 0 rL SGR
GSN 620 5186 M 36 0 rL SGR
GSN 4220 5186 M -36 0 rL SGR

%
% X-Axis label:
%
gsave 620 1370 M 
[
[(Helvetica) 180 0 true true 0 (t)]
[(Helvetica) 180 0 true true 0 (i)]
[(Helvetica) 180 0 true true 0 (m)]
[(Helvetica) 180 0 true true 0 (e)]
] 0 MCshow grestore

%
% Y-Axis label:
%
gsave 234 3500 M 
currentpoint gsave translate 90 rotate 0 0 moveto
[
[(Helvetica) 180 0 true true 0 (r)]
[(Helvetica) 180 0 true true 0 (e)]
[(Helvetica) 180 0 true true 0 (s)]
[(Helvetica) 180 0 true true 0 (i)]
[(Helvetica) 180 0 true true 0 (d)]
[(Helvetica) 180 0 true true 0 (u)]
[(Helvetica) 180 0 true true 0 (a)]
[(Helvetica) 180 0 true true 0 (l)]
[(Helvetica) 180 0 true true 0 (s)]
] 0 MCshow grestore

end
showpage
%%Trailer
%%EOF
