%!PS-Adobe-3.0 EPSF-3.0
%%BoundingBox: 0 0 514 550
%%Creator: BioKin Ltd.
%%DocumentFonts: Symbol Helvetica
%%EndComments
%
/bkdict 256 dict def
bkdict begin
/M {moveto} def 
/R {rmoveto} def
/L {lineto} def
/rL {rlineto} def
/GSN {gsave newpath} def
/SGR {stroke grestore} def
/COSGR {gsave setrgbcolor stroke grestore grestore} def
/SL {setlinewidth} def
/LWMB {12} def             % line width - model curves, black & white
/LWMC {10} def             % line width - model curves, color
/L2 {2.5 setlinewidth} def
/L5 {5 setlinewidth} def
/L10 {10 setlinewidth} def
/G50 {0.5 setgray} def
/SDA {[10  20] 0 setdash} def % axes
/helvT {/Helvetica findfont 100 scalefont setfont} def % tiny
/helvS {/Helvetica findfont 125 scalefont setfont} def % small
/helvM {/Helvetica findfont 150 scalefont setfont} def % medium
/helvL {/Helvetica findfont 175 scalefont setfont} def % large
/xlabel {gsave M dup
   stringwidth exch -0.5 mul exch rmoveto show grestore} def 
/ylabel {gsave M 90 rotate dup
   stringwidth exch -0.5 mul exch rmoveto show grestore} def
/ylabelresid {gsave M dup
   stringwidth exch -1 mul exch rmoveto show grestore} def
% ======
% Shapes
% ======
% Circle:
/Circ {0 360 arc closepath} def
%
% Square:
/Squa {dup dup -0.5 mul dup dup R -2 mul 0 exch rL 1 mul 0 rL dup 0 exch -1 mul rL closepath} def
%
% Triangle Up:
/TriU {dup dup dup -0.4 mul exch -0.5 mul exch R dup 0.5 mul exch rL dup -1 mul exch 0.5 mul exch rL closepath} def 
%
% Triangle Down:
/TriD {dup dup dup 0.4 mul exch -0.5 mul exch R dup 0.5 mul exch -1 mul rL dup 0.5 mul exch rL closepath} def 
%
% Diamond:
/Diam {45 rotate Squa} def
% ======
% Fills
% ======
/GRF {gsave setgray fill grestore} def                    % gray-level Fill
/COF {gsave setrgbcolor fill grestore} def                % color fill
% ======
% Colors
% ======
/C01 {1.00	0.00	0.00} def      % Red
/C02 {0.00	0.00	1.00} def      % Blue
/C03 {0.00	0.39	0.00} def      % Dark Green
/C04 {0.78	0.08	0.52} def      % Medium Violet Red
/C05 {0.55	0.27	0.07} def      % Saddle Brown
/C06 {0.10	0.70	0.70} def      % (cyan)
/C07 {1.00	0.55	0.00} def      % Dark Orange
/C08 {0.63	0.13	0.94} def      % Purple
/C09 {0.00	0.75	1.00} def      % Deep Sky Blue
/C10 {0.20	0.80	0.20} def      % Lime Green
/C11 {0.47	0.53	0.60} def      % Light Slate Gray
/C12 {0.00	0.00	0.00} def      % Black            % or: {0.19	0.31	0.31} def      % Dark Slate Gray
%
/LGR {0.75} def % light gray
/DGR {0.33} def % dark gray
%
% =============
% Dash patterns
% =============
/dash01 { [80  20] 0 setdash } def
/dash02 { [40  20] 0 setdash } def
/dash03 { [80  20  10  20] 0 setdash } def
/dash04 { [40  20  10  20] 0 setdash } def
/dash05 { [80  20  10  10  10  20] 0 setdash } def
/dash06 { [40  20  10  10  10  20] 0 setdash } def
/dash07 { [10  10] 0 setdash } def
%
/MFshow {
   { dup 5 get 3 ge
     { 5 get 3 eq {gsave} {grestore} ifelse }
     {dup dup 0 get findfont exch 1 get scalefont setfont
     [ currentpoint ] exch dup 2 get 0 exch R dup 5 get 2 ne {dup dup 6
     get exch 4 get {show} {stringwidth pop 0 R} ifelse }if dup 5 get 0 eq
     {dup 3 get {2 get neg 0 exch R pop} {pop aload pop M} ifelse} {dup 5
     get 1 eq {dup 2 get exch dup 3 get exch 6 get stringwidth pop -2 div
     dup 0 R} {dup 6 get stringwidth pop -2 div 0 R 6 get
     show 2 index {aload pop M neg 3 -1 roll neg R pop pop} {pop pop pop
     pop aload pop M} ifelse }ifelse }ifelse }
     ifelse }
   forall} bind def
/MFwidth {0 exch {dup 3 get{dup dup 0 get findfont exch 1 get scalefont
     setfont 6 get stringwidth pop add} {pop} ifelse} forall} bind def
/MCshow { currentpoint stroke M
  exch dup MFwidth -2 div 3 -1 roll R MFshow } def
%
end
%%EndProlog
bkdict begin
0.1 0.1 scale
%
% Model curves:
%

GSN 753 5045 M
753 5045 L
786 5045 L
820 5045 L
853 5045 L
886 5045 L
903 5045 L
919 5045 L
953 5045 L
986 5044 L
1020 5044 L
1053 5044 L
1053 5044 L
1086 5043 L
1120 5043 L
1153 5042 L
1186 5042 L
1203 5041 L
1220 5041 L
1253 5040 L
1286 5039 L
1320 5038 L
1353 5037 L
1353 5037 L
1386 5035 L
1420 5033 L
1453 5031 L
1486 5029 L
1503 5027 L
1520 5026 L
1553 5023 L
1586 5019 L
1620 5014 L
1653 5009 L
1653 5009 L
1686 5003 L
1720 4996 L
1753 4988 L
1786 4978 L
1804 4973 L
1820 4967 L
1853 4954 L
1886 4939 L
1920 4922 L
1953 4902 L
1954 4902 L
1986 4879 L
2020 4853 L
2053 4822 L
2086 4787 L
2104 4767 L
2120 4748 L
2153 4702 L
2186 4650 L
2220 4592 L
2253 4526 L
2254 4524 L
2286 4452 L
2320 4370 L
2353 4279 L
2386 4179 L
2404 4122 L
2420 4070 L
2453 3953 L
2486 3828 L
2520 3696 L
2553 3558 L
2554 3553 L
2586 3418 L
2620 3276 L
2653 3135 L
2686 2999 L
2704 2928 L
2720 2870 L
2753 2751 L
2786 2646 L
2820 2555 L
2853 2482 L
2854 2479 L
2886 2427 L
2920 2390 L
2953 2371 L
2986 2368 L
3004 2372 L
3020 2378 L
3053 2397 L
3068 2408 L
3086 2422 L
3120 2448 L
3153 2473 L
3155 2475 L
3186 2494 L
3220 2510 L
3253 2520 L
3286 2525 L
3305 2527 L
3320 2528 L
3353 2528 L
3386 2528 L
3420 2528 L
3453 2528 L
3455 2528 L
3486 2527 L
3520 2527 L
3553 2527 L
3586 2527 L
3605 2527 L
3620 2527 L
3653 2527 L
3686 2527 L
3720 2527 L
3753 2527 L
3755 2527 L
3786 2527 L
3820 2527 L
3853 2527 L
3886 2527 L
3905 2527 L
3920 2527 L
3953 2527 L
3986 2527 L
4020 2527 L
4053 2527 L
4086 2527 L
LWMC SL  C02 COSGR

%
% Experimental data:
%
GSN 773 4880 M
1625 4560 L
1773 5079 L
1860 4811 L
1922 5166 L
1970 4888 L
2009 4960 L
2043 4936 L
2072 4751 L
2097 4595 L
2120 4784 L
2140 4675 L
2159 4926 L
2176 4607 L
2192 4689 L
2207 4642 L
2221 4646 L
2234 4544 L
2247 4453 L
2259 4459 L
2270 4266 L
2280 4307 L
2290 4513 L
2300 4328 L
2309 4215 L
2318 4521 L
2326 4340 L
2335 4361 L
2342 4275 L
2350 4373 L
2357 4266 L
2364 4008 L
2371 4299 L
2378 3977 L
2384 4351 L
2391 4340 L
2397 3936 L
2403 4318 L
2409 3737 L
2414 4326 L
2420 4082 L
2425 4219 L
2430 3909 L
2435 4174 L
2440 4123 L
2445 3919 L
2450 3884 L
2455 3928 L
2459 4084 L
2464 3961 L
2468 3907 L
2472 4055 L
2476 3858 L
2481 3833 L
2485 3846 L
2489 3868 L
2492 3739 L
2496 3956 L
2500 3864 L
2504 3667 L
2507 3640 L
2511 4002 L
2514 3542 L
2518 3909 L
2521 3548 L
2525 3808 L
2528 3392 L
2531 3624 L
2534 3347 L
2538 3615 L
2541 3638 L
2544 3466 L
2547 3435 L
2550 3673 L
2553 3270 L
2556 3242 L
2559 3658 L
2561 3270 L
2564 3270 L
2567 3418 L
2570 3661 L
2580 3160 L
2590 3123 L
2600 3289 L
2609 3258 L
2618 3190 L
2627 3279 L
2635 3188 L
2643 2942 L
2650 2860 L
2658 2759 L
2665 2882 L
2672 2921 L
2678 2956 L
2685 2554 L
2691 2659 L
2697 2938 L
2703 2813 L
2709 2476 L
2714 2969 L
2720 2868 L
2725 2737 L
2730 2747 L
2735 2651 L
2740 2698 L
2745 2490 L
2750 2258 L
2755 2457 L
2759 2361 L
2764 2619 L
2768 2603 L
2772 2632 L
2777 2539 L
2781 2338 L
2785 2324 L
2789 2589 L
2793 2184 L
2796 2459 L
2800 2035 L
2804 2517 L
2808 2166 L
2811 2193 L
2815 2281 L
2818 2564 L
2822 2314 L
2825 2628 L
2828 2572 L
2831 2040 L
2835 2338 L
2838 2055 L
2841 2371 L
2844 2266 L
2847 2135 L
2850 1833 L
2853 2392 L
2856 2104 L
2859 2176 L
2862 2383 L
2864 2488 L
2867 2215 L
2870 2223 L
2873 1991 L
2875 2034 L
2878 1999 L
2880 2196 L
2883 2242 L
2886 2359 L
2888 2141 L
2891 2383 L
2893 2219 L
2895 2158 L
2898 2157 L
2900 2069 L
2902 1954 L
2905 2071 L
2907 2110 L
2909 2053 L
2912 2000 L
2914 2155 L
2916 2116 L
2918 2180 L
2920 2344 L
2922 2396 L
2925 2431 L
2927 2151 L
2929 2355 L
2931 2593 L
2933 2205 L
2935 2260 L
2937 2176 L
2939 2488 L
2941 2112 L
2943 2158 L
2945 2344 L
2947 2361 L
2948 2277 L
2950 2080 L
2952 2369 L
2954 2396 L
2956 2233 L
2958 2141 L
2959 2373 L
2961 2347 L
2963 2299 L
2965 2030 L
2966 2371 L
2968 2201 L
2970 2281 L
2972 2110 L
2973 2706 L
2975 2459 L
2977 2098 L
2978 2613 L
2980 2123 L
2982 2377 L
2983 2585 L
2985 2386 L
2986 2455 L
2988 2484 L
2989 2579 L
2991 2462 L
2993 2587 L
2994 2016 L
2996 2186 L
2997 2425 L
2999 2316 L
3000 2334 L
3002 2271 L
3003 2385 L
3005 2283 L
3006 2342 L
3007 2381 L
3009 2570 L
3010 2482 L
3012 2408 L
3013 2529 L
3014 2293 L
3016 2383 L
3017 2244 L
3019 2346 L
3020 2324 L
3021 2587 L
3023 2433 L
3024 2342 L
3025 2348 L
3027 2543 L
3028 2776 L
3029 2404 L
3031 2568 L
3032 2190 L
3033 2377 L
3034 2410 L
3036 2431 L
3037 2367 L
3038 2546 L
3039 2615 L
3041 2461 L
3042 2669 L
3043 2330 L
3044 2075 L
3045 2579 L
3047 2264 L
3048 2681 L
3049 2708 L
3050 2507 L
3051 2036 L
3053 2484 L
3054 2727 L
3055 2533 L
3056 2316 L
3057 2566 L
3058 2622 L
3059 2751 L
3061 2464 L
3062 2474 L
3063 2566 L
3064 2634 L
3065 2531 L
3066 2578 L
3067 2536 L
3068 2568 L
3069 2381 L
3070 2480 L
3071 2667 L
3073 2542 L
3074 2431 L
3075 2544 L
3076 2492 L
3077 2468 L
3078 2414 L
3079 2160 L
3080 2326 L
3081 2562 L
3082 2704 L
3083 2537 L
3084 2589 L
3085 2695 L
3086 2437 L
3087 2642 L
3088 2543 L
3089 2440 L
3112 2713 L
3133 2637 L
3152 3056 L
3170 2759 L
3186 2609 L
3201 2593 L
3216 2481 L
3229 2773 L
3241 2609 L
3253 2863 L
3264 2687 L
3275 2947 L
3285 2926 L
3295 2879 L
3304 3074 L
3313 2903 L
3322 2837 L
3330 2897 L
3338 3048 L
3346 2999 L
3353 2765 L
3360 3040 L
3367 2832 L
3374 2809 L
3380 3077 L
3387 2570 L
3393 2944 L
3399 2804 L
3405 2960 L
3410 3043 L
3416 2637 L
3421 2687 L
3426 2999 L
3431 3069 L
3436 2980 L
3441 2728 L
3446 2468 L
3451 2934 L
3455 2653 L
3460 2598 L
3464 2825 L
3469 3019 L
3473 2588 L
3477 2718 L
3481 2866 L
3485 2733 L
3489 2903 L
3493 2918 L
3496 3134 L
3500 2949 L
3504 3092 L
3507 2671 L
3511 2949 L
3514 2832 L
3518 3082 L
3521 2658 L
3525 2526 L
3528 2481 L
3531 3001 L
3534 2741 L
3537 3045 L
3540 2819 L
3543 2817 L
3546 2848 L
3549 2871 L
3552 2858 L
3555 2622 L
3558 2710 L
3561 2869 L
3564 2876 L
3566 2687 L
3575 2549 L
3586 2700 L
3595 2718 L
3605 2593 L
3613 2596 L
3622 2611 L
3630 2655 L
3638 2858 L
3646 2869 L
3653 2624 L
3660 2762 L
3667 2432 L
3674 2596 L
3681 2570 L
3687 2767 L
3693 2889 L
3699 2414 L
3705 2760 L
3710 2455 L
3716 2455 L
3721 2502 L
3727 2570 L
3732 2497 L
3737 2479 L
3742 2630 L
3746 2536 L
3751 2726 L
3756 2455 L
3760 2458 L
3764 2772 L
3769 2377 L
3773 2746 L
3777 2513 L
3781 2687 L
3785 2583 L
3789 2710 L
3793 2427 L
3797 2588 L
3800 2484 L
3804 2437 L
3808 2528 L
3811 2559 L
3815 2721 L
3818 2159 L
3821 2744 L
3825 2463 L
3828 2406 L
3831 2684 L
3834 2364 L
3838 2479 L
3841 2437 L
3844 2424 L
3847 2427 L
3850 2323 L
3853 2718 L
3855 2310 L
3858 2375 L
3861 2416 L
3864 2297 L
3867 2250 L
3869 2471 L
3872 2632 L
3875 2468 L
3877 2523 L
3880 2588 L
3882 2801 L
3885 2544 L
3887 2671 L
3890 2840 L
3892 2661 L
3895 2427 L
3897 2481 L
3899 2770 L
3902 2497 L
3904 2487 L
3906 2138 L
3908 2734 L
3911 2247 L
3913 2440 L
3915 2557 L
3917 2463 L
3919 2313 L
3921 2434 L
3923 2635 L
3926 2588 L
3928 2697 L
3930 2814 L
3932 2422 L
3934 2887 L
3936 2476 L
3938 2523 L
3940 2328 L
3942 2526 L
3943 2357 L
3945 2614 L
3947 2388 L
3949 2552 L
3951 2432 L
3953 2518 L
3955 2546 L
3956 2354 L
3958 2671 L
3960 2299 L
3962 2635 L
3963 2533 L
3965 2658 L
3967 2419 L
3969 2226 L
3970 2313 L
3972 2294 L
3974 2458 L
3975 2562 L
3977 2458 L
3978 2372 L
3980 2741 L
3982 2315 L
3983 2778 L
3985 2708 L
3986 2053 L
3988 2297 L
3990 2427 L
3991 2757 L
3993 2331 L
3994 2588 L
3996 2564 L
3997 2273 L
3999 2133 L
4000 2385 L
4001 2466 L
4003 2544 L
4004 2565 L
4006 2422 L
4007 2453 L
4009 2619 L
4010 2312 L
4011 2312 L
4013 2590 L
4014 2552 L
4016 2440 L
4017 2312 L
4018 2429 L
4020 2689 L
4021 2237 L
4022 2102 L
4024 2159 L
4025 2564 L
4026 2461 L
4028 2305 L
4029 2702 L
4030 2544 L
4031 2336 L
4033 2250 L
4034 2297 L
4035 2372 L
4036 2419 L
4038 2320 L
4039 2216 L
4040 2611 L
4041 2318 L
4042 2398 L
4044 2731 L
4045 2372 L
4046 2110 L
4047 2505 L
4048 2180 L
4050 2601 L
4051 2528 L
4052 2440 L
4053 2289 L
4054 2674 L
4055 2237 L
4056 2481 L
4058 2380 L
4059 2681 L
4060 2487 L
4061 2396 L
4062 2479 L
4063 2518 L
4064 2643 L
4065 2435 L
4066 2489 L
L2 C02 COSGR

%
%================
% Legend - Begin
%================
%
GSN 4240 5180 M
4480 5180 L
LWMC SL  C02 COSGR
GSN 4540 5141 M helvM (1.0 uM) show grestore
%
%================
% Legend - End
%================
%

%
% Residuals:
%
GSN 773 1068 M
1625 881 L
1773 1238 L
1860 1084 L
1922 1334 L
1970 1173 L
2009 1239 L
2043 1243 L
2072 1141 L
2097 1058 L
2120 1199 L
2140 1146 L
2159 1327 L
2176 1137 L
2192 1207 L
2207 1193 L
2221 1212 L
2234 1163 L
2247 1119 L
2259 1139 L
2270 1030 L
2280 1072 L
2290 1221 L
2300 1116 L
2309 1057 L
2318 1270 L
2326 1167 L
2335 1195 L
2342 1154 L
2350 1231 L
2357 1175 L
2364 1021 L
2371 1223 L
2378 1028 L
2384 1283 L
2391 1289 L
2397 1040 L
2403 1300 L
2409 935 L
2414 1329 L
2420 1183 L
2425 1284 L
2430 1094 L
2435 1278 L
2440 1256 L
2445 1135 L
2450 1123 L
2455 1163 L
2459 1275 L
2464 1206 L
2468 1182 L
2472 1288 L
2476 1171 L
2481 1164 L
2485 1183 L
2489 1207 L
2492 1134 L
2496 1284 L
2500 1234 L
2504 1116 L
2507 1107 L
2511 1352 L
2514 1062 L
2518 1309 L
2521 1084 L
2525 1261 L
2528 1001 L
2531 1160 L
2534 989 L
2538 1171 L
2541 1194 L
2544 1091 L
2547 1079 L
2550 1241 L
2553 987 L
2556 978 L
2559 1255 L
2561 1011 L
2564 1019 L
2567 1122 L
2570 1288 L
2580 992 L
2590 996 L
2600 1130 L
2609 1135 L
2618 1115 L
2627 1197 L
2635 1160 L
2643 1022 L
2650 989 L
2658 944 L
2665 1042 L
2672 1086 L
2678 1126 L
2685 882 L
2691 967 L
2697 1163 L
2703 1097 L
2709 893 L
2714 1227 L
2720 1174 L
2725 1103 L
2730 1121 L
2735 1071 L
2740 1113 L
2745 989 L
2750 849 L
2755 988 L
2759 936 L
2764 1112 L
2768 1111 L
2772 1139 L
2777 1087 L
2781 965 L
2785 964 L
2789 1143 L
2793 888 L
2796 1073 L
2800 805 L
2804 1124 L
2808 903 L
2811 927 L
2815 990 L
2818 1179 L
2822 1022 L
2825 1231 L
2828 1199 L
2831 859 L
2835 1057 L
2838 878 L
2841 1088 L
2844 1023 L
2847 943 L
2850 750 L
2853 1117 L
2856 934 L
2859 984 L
2862 1121 L
2864 1193 L
2867 1019 L
2870 1027 L
2873 879 L
2875 910 L
2878 889 L
2880 1020 L
2883 1053 L
2886 1131 L
2888 991 L
2891 1150 L
2893 1046 L
2895 1009 L
2898 1009 L
2900 954 L
2902 881 L
2905 959 L
2907 986 L
2909 950 L
2912 918 L
2914 1019 L
2916 995 L
2918 1038 L
2920 1145 L
2922 1181 L
2925 1205 L
2927 1023 L
2929 1157 L
2931 1312 L
2933 1061 L
2935 1098 L
2937 1044 L
2939 1247 L
2941 1004 L
2943 1035 L
2945 1155 L
2947 1167 L
2948 1113 L
2950 986 L
2952 1174 L
2954 1192 L
2956 1086 L
2958 1027 L
2959 1177 L
2961 1161 L
2963 1130 L
2965 955 L
2966 1177 L
2968 1067 L
2970 1119 L
2972 1008 L
2973 1395 L
2975 1234 L
2977 1000 L
2978 1334 L
2980 1017 L
2982 1181 L
2983 1316 L
2985 1187 L
2986 1232 L
2988 1250 L
2989 1312 L
2991 1236 L
2993 1317 L
2994 946 L
2996 1056 L
2997 1211 L
2999 1140 L
3000 1151 L
3002 1111 L
3003 1184 L
3005 1118 L
3006 1155 L
3007 1180 L
3009 1303 L
3010 1245 L
3012 1197 L
3013 1275 L
3014 1122 L
3016 1179 L
3017 1089 L
3019 1155 L
3020 1140 L
3021 1311 L
3023 1210 L
3024 1150 L
3025 1154 L
3027 1280 L
3028 1431 L
3029 1189 L
3031 1295 L
3032 1049 L
3033 1170 L
3034 1191 L
3036 1205 L
3037 1162 L
3038 1278 L
3039 1322 L
3041 1222 L
3042 1356 L
3043 1136 L
3044 970 L
3045 1297 L
3047 1091 L
3048 1362 L
3049 1379 L
3050 1248 L
3051 941 L
3053 1232 L
3054 1389 L
3055 1262 L
3056 1121 L
3057 1283 L
3058 1319 L
3059 1402 L
3061 1215 L
3062 1221 L
3063 1280 L
3064 1324 L
3065 1256 L
3066 1286 L
3067 1259 L
3068 1279 L
3069 1157 L
3070 1221 L
3071 1342 L
3073 1260 L
3074 1188 L
3075 1261 L
3076 1226 L
3077 1210 L
3078 1174 L
3079 1009 L
3080 1116 L
3081 1269 L
3082 1361 L
3083 1251 L
3084 1285 L
3085 1353 L
3086 1185 L
3087 1318 L
3088 1253 L
3089 1185 L
3112 1350 L
3133 1291 L
3152 1553 L
3170 1353 L
3186 1249 L
3201 1234 L
3216 1158 L
3229 1344 L
3241 1235 L
3253 1398 L
3264 1282 L
3275 1450 L
3285 1435 L
3295 1404 L
3304 1530 L
3313 1419 L
3322 1376 L
3330 1415 L
3338 1513 L
3346 1481 L
3353 1329 L
3360 1507 L
3367 1372 L
3374 1357 L
3380 1531 L
3387 1202 L
3393 1445 L
3399 1354 L
3405 1455 L
3410 1509 L
3416 1246 L
3421 1278 L
3426 1481 L
3431 1526 L
3436 1469 L
3441 1305 L
3446 1137 L
3451 1439 L
3455 1256 L
3460 1221 L
3464 1368 L
3469 1494 L
3473 1214 L
3477 1299 L
3481 1395 L
3485 1309 L
3489 1419 L
3493 1429 L
3496 1569 L
3500 1449 L
3504 1542 L
3507 1268 L
3511 1449 L
3514 1373 L
3518 1535 L
3521 1260 L
3525 1174 L
3528 1145 L
3531 1483 L
3534 1314 L
3537 1511 L
3540 1365 L
3543 1363 L
3546 1383 L
3549 1398 L
3552 1390 L
3555 1236 L
3558 1294 L
3561 1397 L
3564 1402 L
3566 1279 L
3575 1189 L
3586 1287 L
3595 1299 L
3605 1218 L
3613 1220 L
3622 1230 L
3630 1258 L
3638 1390 L
3646 1397 L
3653 1238 L
3660 1328 L
3667 1113 L
3674 1220 L
3681 1203 L
3687 1331 L
3693 1410 L
3699 1101 L
3705 1326 L
3710 1128 L
3716 1128 L
3721 1159 L
3727 1203 L
3732 1156 L
3737 1144 L
3742 1241 L
3746 1181 L
3751 1304 L
3756 1128 L
3760 1130 L
3764 1334 L
3769 1078 L
3773 1317 L
3777 1166 L
3781 1279 L
3785 1211 L
3789 1294 L
3793 1110 L
3797 1214 L
3800 1147 L
3804 1116 L
3808 1176 L
3811 1196 L
3815 1301 L
3818 936 L
3821 1316 L
3825 1134 L
3828 1096 L
3831 1277 L
3834 1069 L
3838 1144 L
3841 1117 L
3844 1108 L
3847 1110 L
3850 1042 L
3853 1299 L
3855 1034 L
3858 1076 L
3861 1103 L
3864 1025 L
3867 995 L
3869 1138 L
3872 1243 L
3875 1137 L
3877 1172 L
3880 1214 L
3882 1353 L
3885 1186 L
3887 1268 L
3890 1378 L
3892 1262 L
3895 1110 L
3897 1145 L
3899 1332 L
3902 1155 L
3904 1149 L
3906 923 L
3908 1309 L
3911 993 L
3913 1118 L
3915 1194 L
3917 1134 L
3919 1036 L
3921 1115 L
3923 1245 L
3926 1214 L
3928 1285 L
3930 1361 L
3932 1106 L
3934 1408 L
3936 1142 L
3938 1172 L
3940 1046 L
3942 1174 L
3943 1064 L
3945 1231 L
3947 1085 L
3949 1191 L
3951 1113 L
3953 1169 L
3955 1187 L
3956 1063 L
3958 1268 L
3960 1027 L
3962 1245 L
3963 1179 L
3965 1260 L
3967 1105 L
3969 980 L
3970 1036 L
3972 1024 L
3974 1130 L
3975 1198 L
3977 1130 L
3978 1074 L
3980 1314 L
3982 1037 L
3983 1337 L
3985 1292 L
3986 867 L
3988 1025 L
3990 1110 L
3991 1324 L
3993 1047 L
3994 1214 L
3996 1199 L
3997 1010 L
3999 919 L
4000 1083 L
4001 1135 L
4003 1186 L
4004 1199 L
4006 1106 L
4007 1127 L
4009 1235 L
4010 1036 L
4011 1036 L
4013 1216 L
4014 1191 L
4016 1118 L
4017 1036 L
4018 1112 L
4020 1280 L
4021 987 L
4022 899 L
4024 936 L
4025 1199 L
4026 1132 L
4028 1031 L
4029 1289 L
4030 1186 L
4031 1051 L
4033 995 L
4034 1025 L
4035 1074 L
4036 1105 L
4038 1041 L
4039 973 L
4040 1230 L
4041 1039 L
4042 1091 L
4044 1307 L
4045 1074 L
4046 904 L
4047 1160 L
4048 949 L
4050 1223 L
4051 1176 L
4052 1118 L
4053 1020 L
4054 1270 L
4055 987 L
4056 1145 L
4058 1079 L
4059 1275 L
4060 1149 L
4061 1090 L
4062 1144 L
4063 1169 L
4064 1250 L
4065 1115 L
4066 1150 L
L2 C02 COSGR

%
% Main frame
%
L10
GSN 
620 1700 M
4220 1700 L
4220 5300 L
620 5300 L
closepath SGR

%
% X axis: large tics
%
L10
GSN 1074 1700 M 0  54 rL SGR
GSN 1074 5300 M 0 -54 rL SGR
helvS (0.0001) 1074 470 xlabel
GSN 1572 1700 M 0  54 rL SGR
GSN 1572 5300 M 0 -54 rL SGR
helvS (0.001) 1572 470 xlabel
GSN 2071 1700 M 0  54 rL SGR
GSN 2071 5300 M 0 -54 rL SGR
helvS (0.01) 2071 470 xlabel
GSN 2570 1700 M 0  54 rL SGR
GSN 2570 5300 M 0 -54 rL SGR
helvS (0.1) 2570 470 xlabel
GSN 3068 1700 M 0  54 rL SGR
GSN 3068 5300 M 0 -54 rL SGR
helvS (1) 3068 470 xlabel
GSN 3567 1700 M 0  54 rL SGR
GSN 3567 5300 M 0 -54 rL SGR
helvS (10) 3567 470 xlabel
GSN 4066 1700 M 0  54 rL SGR
GSN 4066 5300 M 0 -54 rL SGR
helvS (100) 4066 470 xlabel
%
% X axis: small tics
%
L5
GSN 725 1700 M 0  36 rL SGR
GSN 725 5300 M 0 -36 rL SGR
GSN 813 1700 M 0  36 rL SGR
GSN 813 5300 M 0 -36 rL SGR
GSN 875 1700 M 0  36 rL SGR
GSN 875 5300 M 0 -36 rL SGR
GSN 924 1700 M 0  36 rL SGR
GSN 924 5300 M 0 -36 rL SGR
GSN 963 1700 M 0  36 rL SGR
GSN 963 5300 M 0 -36 rL SGR
GSN 996 1700 M 0  36 rL SGR
GSN 996 5300 M 0 -36 rL SGR
GSN 1025 1700 M 0  36 rL SGR
GSN 1025 5300 M 0 -36 rL SGR
GSN 1051 1700 M 0  36 rL SGR
GSN 1051 5300 M 0 -36 rL SGR
GSN 1224 1700 M 0  36 rL SGR
GSN 1224 5300 M 0 -36 rL SGR
GSN 1312 1700 M 0  36 rL SGR
GSN 1312 5300 M 0 -36 rL SGR
GSN 1374 1700 M 0  36 rL SGR
GSN 1374 5300 M 0 -36 rL SGR
GSN 1422 1700 M 0  36 rL SGR
GSN 1422 5300 M 0 -36 rL SGR
GSN 1462 1700 M 0  36 rL SGR
GSN 1462 5300 M 0 -36 rL SGR
GSN 1495 1700 M 0  36 rL SGR
GSN 1495 5300 M 0 -36 rL SGR
GSN 1524 1700 M 0  36 rL SGR
GSN 1524 5300 M 0 -36 rL SGR
GSN 1550 1700 M 0  36 rL SGR
GSN 1550 5300 M 0 -36 rL SGR
GSN 1722 1700 M 0  36 rL SGR
GSN 1722 5300 M 0 -36 rL SGR
GSN 1810 1700 M 0  36 rL SGR
GSN 1810 5300 M 0 -36 rL SGR
GSN 1873 1700 M 0  36 rL SGR
GSN 1873 5300 M 0 -36 rL SGR
GSN 1921 1700 M 0  36 rL SGR
GSN 1921 5300 M 0 -36 rL SGR
GSN 1960 1700 M 0  36 rL SGR
GSN 1960 5300 M 0 -36 rL SGR
GSN 1994 1700 M 0  36 rL SGR
GSN 1994 5300 M 0 -36 rL SGR
GSN 2023 1700 M 0  36 rL SGR
GSN 2023 5300 M 0 -36 rL SGR
GSN 2048 1700 M 0  36 rL SGR
GSN 2048 5300 M 0 -36 rL SGR
GSN 2221 1700 M 0  36 rL SGR
GSN 2221 5300 M 0 -36 rL SGR
GSN 2309 1700 M 0  36 rL SGR
GSN 2309 5300 M 0 -36 rL SGR
GSN 2371 1700 M 0  36 rL SGR
GSN 2371 5300 M 0 -36 rL SGR
GSN 2420 1700 M 0  36 rL SGR
GSN 2420 5300 M 0 -36 rL SGR
GSN 2459 1700 M 0  36 rL SGR
GSN 2459 5300 M 0 -36 rL SGR
GSN 2492 1700 M 0  36 rL SGR
GSN 2492 5300 M 0 -36 rL SGR
GSN 2521 1700 M 0  36 rL SGR
GSN 2521 5300 M 0 -36 rL SGR
GSN 2547 1700 M 0  36 rL SGR
GSN 2547 5300 M 0 -36 rL SGR
GSN 2720 1700 M 0  36 rL SGR
GSN 2720 5300 M 0 -36 rL SGR
GSN 2808 1700 M 0  36 rL SGR
GSN 2808 5300 M 0 -36 rL SGR
GSN 2870 1700 M 0  36 rL SGR
GSN 2870 5300 M 0 -36 rL SGR
GSN 2918 1700 M 0  36 rL SGR
GSN 2918 5300 M 0 -36 rL SGR
GSN 2958 1700 M 0  36 rL SGR
GSN 2958 5300 M 0 -36 rL SGR
GSN 2991 1700 M 0  36 rL SGR
GSN 2991 5300 M 0 -36 rL SGR
GSN 3020 1700 M 0  36 rL SGR
GSN 3020 5300 M 0 -36 rL SGR
GSN 3045 1700 M 0  36 rL SGR
GSN 3045 5300 M 0 -36 rL SGR
GSN 3218 1700 M 0  36 rL SGR
GSN 3218 5300 M 0 -36 rL SGR
GSN 3306 1700 M 0  36 rL SGR
GSN 3306 5300 M 0 -36 rL SGR
GSN 3368 1700 M 0  36 rL SGR
GSN 3368 5300 M 0 -36 rL SGR
GSN 3417 1700 M 0  36 rL SGR
GSN 3417 5300 M 0 -36 rL SGR
GSN 3456 1700 M 0  36 rL SGR
GSN 3456 5300 M 0 -36 rL SGR
GSN 3490 1700 M 0  36 rL SGR
GSN 3490 5300 M 0 -36 rL SGR
GSN 3519 1700 M 0  36 rL SGR
GSN 3519 5300 M 0 -36 rL SGR
GSN 3544 1700 M 0  36 rL SGR
GSN 3544 5300 M 0 -36 rL SGR
GSN 3717 1700 M 0  36 rL SGR
GSN 3717 5300 M 0 -36 rL SGR
GSN 3805 1700 M 0  36 rL SGR
GSN 3805 5300 M 0 -36 rL SGR
GSN 3867 1700 M 0  36 rL SGR
GSN 3867 5300 M 0 -36 rL SGR
GSN 3915 1700 M 0  36 rL SGR
GSN 3915 5300 M 0 -36 rL SGR
GSN 3955 1700 M 0  36 rL SGR
GSN 3955 5300 M 0 -36 rL SGR
GSN 3988 1700 M 0  36 rL SGR
GSN 3988 5300 M 0 -36 rL SGR
GSN 4017 1700 M 0  36 rL SGR
GSN 4017 5300 M 0 -36 rL SGR
GSN 4043 1700 M 0  36 rL SGR
GSN 4043 5300 M 0 -36 rL SGR
GSN 4216 1700 M 0  36 rL SGR
GSN 4216 5300 M 0 -36 rL SGR
%
% Y axis: large tics
%
L10
GSN 620 2669 M 54 0 rL SGR
GSN 4220 2669 M -54 0 rL SGR
helvS (1.1) 560 2669 ylabel
GSN 620 3691 M 54 0 rL SGR
GSN 4220 3691 M -54 0 rL SGR
helvS (1.12) 560 3691 ylabel
GSN 620 4713 M 54 0 rL SGR
GSN 4220 4713 M -54 0 rL SGR
helvS (1.14) 560 4713 ylabel
%
% Y axis: small tics
%
L5
GSN 620 1903 M 36 0 rL SGR
GSN 4220 1903 M -36 0 rL SGR
GSN 620 2158 M 36 0 rL SGR
GSN 4220 2158 M -36 0 rL SGR
GSN 620 2414 M 36 0 rL SGR
GSN 4220 2414 M -36 0 rL SGR
GSN 620 2669 M 36 0 rL SGR
GSN 4220 2669 M -36 0 rL SGR
GSN 620 2925 M 36 0 rL SGR
GSN 4220 2925 M -36 0 rL SGR
GSN 620 3180 M 36 0 rL SGR
GSN 4220 3180 M -36 0 rL SGR
GSN 620 3436 M 36 0 rL SGR
GSN 4220 3436 M -36 0 rL SGR
GSN 620 3691 M 36 0 rL SGR
GSN 4220 3691 M -36 0 rL SGR
GSN 620 3947 M 36 0 rL SGR
GSN 4220 3947 M -36 0 rL SGR
GSN 620 4202 M 36 0 rL SGR
GSN 4220 4202 M -36 0 rL SGR
GSN 620 4458 M 36 0 rL SGR
GSN 4220 4458 M -36 0 rL SGR
GSN 620 4713 M 36 0 rL SGR
GSN 4220 4713 M -36 0 rL SGR
GSN 620 4969 M 36 0 rL SGR
GSN 4220 4969 M -36 0 rL SGR
GSN 620 5224 M 36 0 rL SGR
GSN 4220 5224 M -36 0 rL SGR

%
% X-Axis label:
%
gsave 2420 290 M 
[
[(Helvetica) 180 0 true true 0 (t)]
[(Helvetica) 180 0 true true 0 (i)]
[(Helvetica) 180 0 true true 0 (m)]
[(Helvetica) 180 0 true true 0 (e)]
] 0 MCshow grestore

%
% Y-Axis label:
%
gsave 234 3500 M 
currentpoint gsave translate 90 rotate 0 0 moveto
[
[(Helvetica) 180 0 true true 0 (s)]
[(Helvetica) 180 0 true true 0 (i)]
[(Helvetica) 180 0 true true 0 (g)]
[(Helvetica) 180 0 true true 0 (n)]
[(Helvetica) 180 0 true true 0 (a)]
[(Helvetica) 180 0 true true 0 (l)]
] 0 MCshow grestore

%
% Residuals:
%
gsave 129 1160 M 
currentpoint gsave translate 90 rotate 0 0 moveto
[
[(Helvetica) 150 0 true true 0 (r)]
[(Helvetica) 150 0 true true 0 (e)]
[(Helvetica) 150 0 true true 0 (s)]
[(Helvetica) 150 0 true true 0 (i)]
[(Helvetica) 150 0 true true 0 (d)]
[(Helvetica) 150 0 true true 0 (u)]
[(Helvetica) 150 0 true true 0 (a)]
[(Helvetica) 150 0 true true 0 (l)]
[(Helvetica) 150 0 true true 0 (s)]
] 0 MCshow grestore

%
% Residual frame
%
L10
GSN 
620 620 M
4220 620 L
4220 1700 L
620 1700 L
closepath SGR
%
% X axis: large tics - residual frame
%
L10
GSN 1074 620 M 0  54 rL SGR
GSN 1074 1700 M 0 -54 rL SGR
GSN 1572 620 M 0  54 rL SGR
GSN 1572 1700 M 0 -54 rL SGR
GSN 2071 620 M 0  54 rL SGR
GSN 2071 1700 M 0 -54 rL SGR
GSN 2570 620 M 0  54 rL SGR
GSN 2570 1700 M 0 -54 rL SGR
GSN 3068 620 M 0  54 rL SGR
GSN 3068 1700 M 0 -54 rL SGR
GSN 3567 620 M 0  54 rL SGR
GSN 3567 1700 M 0 -54 rL SGR
GSN 4066 620 M 0  54 rL SGR
GSN 4066 1700 M 0 -54 rL SGR
%
% X axis: small tics - residual frame
%
L5
GSN 725 620 M 0  36 rL SGR
GSN 725 1700 M 0 -36 rL SGR
GSN 813 620 M 0  36 rL SGR
GSN 813 1700 M 0 -36 rL SGR
GSN 875 620 M 0  36 rL SGR
GSN 875 1700 M 0 -36 rL SGR
GSN 924 620 M 0  36 rL SGR
GSN 924 1700 M 0 -36 rL SGR
GSN 963 620 M 0  36 rL SGR
GSN 963 1700 M 0 -36 rL SGR
GSN 996 620 M 0  36 rL SGR
GSN 996 1700 M 0 -36 rL SGR
GSN 1025 620 M 0  36 rL SGR
GSN 1025 1700 M 0 -36 rL SGR
GSN 1051 620 M 0  36 rL SGR
GSN 1051 1700 M 0 -36 rL SGR
GSN 1224 620 M 0  36 rL SGR
GSN 1224 1700 M 0 -36 rL SGR
GSN 1312 620 M 0  36 rL SGR
GSN 1312 1700 M 0 -36 rL SGR
GSN 1374 620 M 0  36 rL SGR
GSN 1374 1700 M 0 -36 rL SGR
GSN 1422 620 M 0  36 rL SGR
GSN 1422 1700 M 0 -36 rL SGR
GSN 1462 620 M 0  36 rL SGR
GSN 1462 1700 M 0 -36 rL SGR
GSN 1495 620 M 0  36 rL SGR
GSN 1495 1700 M 0 -36 rL SGR
GSN 1524 620 M 0  36 rL SGR
GSN 1524 1700 M 0 -36 rL SGR
GSN 1550 620 M 0  36 rL SGR
GSN 1550 1700 M 0 -36 rL SGR
GSN 1722 620 M 0  36 rL SGR
GSN 1722 1700 M 0 -36 rL SGR
GSN 1810 620 M 0  36 rL SGR
GSN 1810 1700 M 0 -36 rL SGR
GSN 1873 620 M 0  36 rL SGR
GSN 1873 1700 M 0 -36 rL SGR
GSN 1921 620 M 0  36 rL SGR
GSN 1921 1700 M 0 -36 rL SGR
GSN 1960 620 M 0  36 rL SGR
GSN 1960 1700 M 0 -36 rL SGR
GSN 1994 620 M 0  36 rL SGR
GSN 1994 1700 M 0 -36 rL SGR
GSN 2023 620 M 0  36 rL SGR
GSN 2023 1700 M 0 -36 rL SGR
GSN 2048 620 M 0  36 rL SGR
GSN 2048 1700 M 0 -36 rL SGR
GSN 2221 620 M 0  36 rL SGR
GSN 2221 1700 M 0 -36 rL SGR
GSN 2309 620 M 0  36 rL SGR
GSN 2309 1700 M 0 -36 rL SGR
GSN 2371 620 M 0  36 rL SGR
GSN 2371 1700 M 0 -36 rL SGR
GSN 2420 620 M 0  36 rL SGR
GSN 2420 1700 M 0 -36 rL SGR
GSN 2459 620 M 0  36 rL SGR
GSN 2459 1700 M 0 -36 rL SGR
GSN 2492 620 M 0  36 rL SGR
GSN 2492 1700 M 0 -36 rL SGR
GSN 2521 620 M 0  36 rL SGR
GSN 2521 1700 M 0 -36 rL SGR
GSN 2547 620 M 0  36 rL SGR
GSN 2547 1700 M 0 -36 rL SGR
GSN 2720 620 M 0  36 rL SGR
GSN 2720 1700 M 0 -36 rL SGR
GSN 2808 620 M 0  36 rL SGR
GSN 2808 1700 M 0 -36 rL SGR
GSN 2870 620 M 0  36 rL SGR
GSN 2870 1700 M 0 -36 rL SGR
GSN 2918 620 M 0  36 rL SGR
GSN 2918 1700 M 0 -36 rL SGR
GSN 2958 620 M 0  36 rL SGR
GSN 2958 1700 M 0 -36 rL SGR
GSN 2991 620 M 0  36 rL SGR
GSN 2991 1700 M 0 -36 rL SGR
GSN 3020 620 M 0  36 rL SGR
GSN 3020 1700 M 0 -36 rL SGR
GSN 3045 620 M 0  36 rL SGR
GSN 3045 1700 M 0 -36 rL SGR
GSN 3218 620 M 0  36 rL SGR
GSN 3218 1700 M 0 -36 rL SGR
GSN 3306 620 M 0  36 rL SGR
GSN 3306 1700 M 0 -36 rL SGR
GSN 3368 620 M 0  36 rL SGR
GSN 3368 1700 M 0 -36 rL SGR
GSN 3417 620 M 0  36 rL SGR
GSN 3417 1700 M 0 -36 rL SGR
GSN 3456 620 M 0  36 rL SGR
GSN 3456 1700 M 0 -36 rL SGR
GSN 3490 620 M 0  36 rL SGR
GSN 3490 1700 M 0 -36 rL SGR
GSN 3519 620 M 0  36 rL SGR
GSN 3519 1700 M 0 -36 rL SGR
GSN 3544 620 M 0  36 rL SGR
GSN 3544 1700 M 0 -36 rL SGR
GSN 3717 620 M 0  36 rL SGR
GSN 3717 1700 M 0 -36 rL SGR
GSN 3805 620 M 0  36 rL SGR
GSN 3805 1700 M 0 -36 rL SGR
GSN 3867 620 M 0  36 rL SGR
GSN 3867 1700 M 0 -36 rL SGR
GSN 3915 620 M 0  36 rL SGR
GSN 3915 1700 M 0 -36 rL SGR
GSN 3955 620 M 0  36 rL SGR
GSN 3955 1700 M 0 -36 rL SGR
GSN 3988 620 M 0  36 rL SGR
GSN 3988 1700 M 0 -36 rL SGR
GSN 4017 620 M 0  36 rL SGR
GSN 4017 1700 M 0 -36 rL SGR
GSN 4043 620 M 0  36 rL SGR
GSN 4043 1700 M 0 -36 rL SGR
GSN 4216 620 M 0  36 rL SGR
GSN 4216 1700 M 0 -36 rL SGR
%
% Y axis: large tics - residual frame
%
L10
GSN 620 843 M 54 0 rL SGR
GSN 4220 843 M -54 0 rL SGR
helvS (-0.01) 560 843 ylabelresid
GSN 620 1175 M 54 0 rL SGR
GSN 4220 1175 M -54 0 rL SGR
helvS (0) 560 1175 ylabelresid
GSN 620 1507 M 54 0 rL SGR
GSN 4220 1507 M -54 0 rL SGR
helvS (0.01) 560 1507 ylabelresid

%
% X axis - residual panel
%
GSN L5 620 1175 M 4220 1175 L SDA G50 SGR

end
showpage
%%Trailer
%%EOF
