%!PS-Adobe-3.0 EPSF-3.0
%%BoundingBox: 0 0 514 550
%%Creator: BioKin Ltd.
%%DocumentFonts: Symbol Helvetica
%%EndComments
%
/bkdict 256 dict def
bkdict begin
/M {moveto} def 
/R {rmoveto} def
/L {lineto} def
/rL {rlineto} def
/GSN {gsave newpath} def
/SGR {stroke grestore} def
/COSGR {gsave setrgbcolor stroke grestore grestore} def
/SL {setlinewidth} def
/LWMB {12} def             % line width - model curves, black & white
/LWMC {10} def             % line width - model curves, color
/L2 {2.5 setlinewidth} def
/L5 {5 setlinewidth} def
/L10 {10 setlinewidth} def
/G50 {0.5 setgray} def
/SDA {[10  20] 0 setdash} def % axes
/helvT {/Helvetica findfont 100 scalefont setfont} def % tiny
/helvS {/Helvetica findfont 125 scalefont setfont} def % small
/helvM {/Helvetica findfont 150 scalefont setfont} def % medium
/helvL {/Helvetica findfont 175 scalefont setfont} def % large
/xlabel {gsave M dup
   stringwidth exch -0.5 mul exch rmoveto show grestore} def 
/ylabel {gsave M 90 rotate dup
   stringwidth exch -0.5 mul exch rmoveto show grestore} def
/ylabelresid {gsave M dup
   stringwidth exch -1 mul exch rmoveto show grestore} def
% ======
% Shapes
% ======
% Circle:
/Circ {0 360 arc closepath} def
%
% Square:
/Squa {dup dup -0.5 mul dup dup R -2 mul 0 exch rL 1 mul 0 rL dup 0 exch -1 mul rL closepath} def
%
% Triangle Up:
/TriU {dup dup dup -0.4 mul exch -0.5 mul exch R dup 0.5 mul exch rL dup -1 mul exch 0.5 mul exch rL closepath} def 
%
% Triangle Down:
/TriD {dup dup dup 0.4 mul exch -0.5 mul exch R dup 0.5 mul exch -1 mul rL dup 0.5 mul exch rL closepath} def 
%
% Diamond:
/Diam {45 rotate Squa} def
% ======
% Fills
% ======
/GRF {gsave setgray fill grestore} def                    % gray-level Fill
/COF {gsave setrgbcolor fill grestore} def                % color fill
% ======
% Colors
% ======
/C01 {1.00	0.00	0.00} def      % Red
/C02 {0.00	0.00	1.00} def      % Blue
/C03 {0.00	0.39	0.00} def      % Dark Green
/C04 {0.78	0.08	0.52} def      % Medium Violet Red
/C05 {0.55	0.27	0.07} def      % Saddle Brown
/C06 {0.10	0.70	0.70} def      % (cyan)
/C07 {1.00	0.55	0.00} def      % Dark Orange
/C08 {0.63	0.13	0.94} def      % Purple
/C09 {0.00	0.75	1.00} def      % Deep Sky Blue
/C10 {0.20	0.80	0.20} def      % Lime Green
/C11 {0.47	0.53	0.60} def      % Light Slate Gray
/C12 {0.00	0.00	0.00} def      % Black            % or: {0.19	0.31	0.31} def      % Dark Slate Gray
%
/LGR {0.75} def % light gray
/DGR {0.33} def % dark gray
%
% =============
% Dash patterns
% =============
/dash01 { [80  20] 0 setdash } def
/dash02 { [40  20] 0 setdash } def
/dash03 { [80  20  10  20] 0 setdash } def
/dash04 { [40  20  10  20] 0 setdash } def
/dash05 { [80  20  10  10  10  20] 0 setdash } def
/dash06 { [40  20  10  10  10  20] 0 setdash } def
/dash07 { [10  10] 0 setdash } def
%
/MFshow {
   { dup 5 get 3 ge
     { 5 get 3 eq {gsave} {grestore} ifelse }
     {dup dup 0 get findfont exch 1 get scalefont setfont
     [ currentpoint ] exch dup 2 get 0 exch R dup 5 get 2 ne {dup dup 6
     get exch 4 get {show} {stringwidth pop 0 R} ifelse }if dup 5 get 0 eq
     {dup 3 get {2 get neg 0 exch R pop} {pop aload pop M} ifelse} {dup 5
     get 1 eq {dup 2 get exch dup 3 get exch 6 get stringwidth pop -2 div
     dup 0 R} {dup 6 get stringwidth pop -2 div 0 R 6 get
     show 2 index {aload pop M neg 3 -1 roll neg R pop pop} {pop pop pop
     pop aload pop M} ifelse }ifelse }ifelse }
     ifelse }
   forall} bind def
/MFwidth {0 exch {dup 3 get{dup dup 0 get findfont exch 1 get scalefont
     setfont 6 get stringwidth pop add} {pop} ifelse} forall} bind def
/MCshow { currentpoint stroke M
  exch dup MFwidth -2 div 3 -1 roll R MFshow } def
%
end
%%EndProlog
bkdict begin
0.1 0.1 scale
%
% Residuals:
%
GSN 620 3500 M
620 3833 L
620 3964 L
620 4280 L
620 4675 L
620 4226 L
620 4142 L
620 4385 L
620 4405 L
620 4177 L
620 4332 L
620 4456 L
620 4492 L
620 4479 L
620 4758 L
620 4591 L
620 4863 L
620 4545 L
620 4488 L
620 4524 L
620 4444 L
620 4366 L
620 4581 L
620 4732 L
620 4771 L
620 4328 L
620 4348 L
620 4556 L
620 4383 L
620 4175 L
620 4344 L
620 4394 L
620 4269 L
620 4534 L
620 4361 L
620 4335 L
620 4392 L
620 4151 L
620 4385 L
620 4541 L
620 4368 L
620 4381 L
620 4328 L
620 4151 L
620 4416 L
620 4291 L
620 4236 L
620 4353 L
620 4131 L
620 4179 L
620 4306 L
620 4037 L
620 4201 L
620 4311 L
620 4241 L
620 4061 L
620 4236 L
620 4105 L
620 4120 L
620 4238 L
620 4467 L
620 4234 L
620 4234 L
620 4166 L
620 4250 L
620 4113 L
620 3949 L
620 4135 L
620 4030 L
620 4120 L
620 4263 L
620 4087 L
620 4157 L
620 4453 L
620 4087 L
620 4322 L
620 4013 L
620 4065 L
620 4048 L
620 4473 L
620 4263 L
620 3888 L
620 4234 L
620 4107 L
620 4010 L
620 4309 L
620 4094 L
620 4149 L
620 4142 L
620 4282 L
620 4015 L
620 4006 L
620 4361 L
620 4245 L
620 4118 L
620 4138 L
620 4074 L
620 4043 L
620 4372 L
620 3850 L
620 4063 L
620 3877 L
620 4203 L
620 4353 L
620 4280 L
620 3932 L
620 4151 L
620 4045 L
620 4129 L
620 4206 L
620 3986 L
620 4065 L
620 3907 L
620 4057 L
620 3690 L
620 4070 L
620 4291 L
620 4192 L
620 4331 L
620 3903 L
620 3888 L
620 4179 L
620 4258 L
620 4032 L
620 4153 L
620 4109 L
620 4098 L
620 4092 L
620 3947 L
620 3907 L
620 4230 L
620 3964 L
620 3842 L
620 4186 L
620 3664 L
620 4050 L
620 4155 L
620 4197 L
620 4039 L
620 4188 L
620 4162 L
620 3771 L
620 3863 L
620 3921 L
620 3811 L
620 3973 L
620 4076 L
620 3616 L
620 3912 L
620 3971 L
620 3853 L
620 3745 L
620 4043 L
620 4024 L
620 3907 L
620 3583 L
620 3802 L
620 3936 L
620 3951 L
620 3879 L
620 3734 L
620 3758 L
620 3903 L
620 4063 L
620 3671 L
620 3760 L
620 3892 L
620 4171 L
620 3739 L
620 3949 L
620 3971 L
620 3881 L
620 3675 L
620 3708 L
620 3710 L
620 3960 L
620 3660 L
620 3859 L
620 4006 L
620 3723 L
620 3817 L
620 3811 L
620 3934 L
620 3811 L
620 3695 L
620 3828 L
620 3789 L
620 3754 L
620 3798 L
620 4037 L
620 3903 L
620 3809 L
620 3596 L
620 3842 L
620 3585 L
620 3888 L
620 3835 L
620 4065 L
620 3776 L
620 3708 L
620 3993 L
620 3587 L
620 3719 L
620 3800 L
620 3899 L
620 4149 L
620 3894 L
620 3760 L
620 3826 L
620 3725 L
620 3657 L
620 3747 L
620 3552 L
620 3802 L
620 3677 L
620 3761 L
620 3561 L
620 3565 L
620 3771 L
620 3550 L
620 3482 L
620 3881 L
620 3756 L
620 3747 L
620 3482 L
620 3605 L
620 3813 L
620 3526 L
620 3565 L
620 3567 L
620 3491 L
620 3747 L
620 3804 L
620 3978 L
620 3500 L
620 3728 L
620 3581 L
620 3568 L
620 3761 L
620 3666 L
620 3739 L
620 3708 L
620 3329 L
620 3568 L
620 3725 L
620 3675 L
620 3752 L
620 3515 L
620 3533 L
620 3572 L
620 3749 L
620 3458 L
620 3392 L
620 3530 L
620 3872 L
620 3818 L
620 3561 L
620 3381 L
620 3776 L
620 3370 L
620 3447 L
620 3636 L
620 3489 L
620 3515 L
620 3699 L
620 3088 L
620 3653 L
620 3544 L
620 3658 L
620 3745 L
620 3298 L
620 3528 L
620 3861 L
620 3530 L
620 3675 L
620 3511 L
620 3521 L
620 3276 L
620 3326 L
620 3517 L
620 3657 L
620 3355 L
620 3758 L
620 3412 L
620 3434 L
620 3826 L
620 3445 L
620 3311 L
620 3557 L
620 3326 L
620 3511 L
620 3250 L
620 3502 L
620 3416 L
620 3460 L
620 3392 L
620 3493 L
620 3609 L
620 3712 L
620 3210 L
620 3278 L
620 3515 L
620 3581 L
620 3151 L
620 3289 L
620 3620 L
620 3337 L
620 3493 L
620 3502 L
620 3331 L
620 3239 L
620 3311 L
620 3147 L
620 3541 L
620 3232 L
620 3366 L
620 3528 L
620 3497 L
620 3434 L
620 3497 L
620 3611 L
620 3670 L
620 3421 L
620 3579 L
620 3427 L
620 3539 L
620 3186 L
620 3403 L
620 3311 L
620 3541 L
620 3210 L
620 3513 L
620 3475 L
620 3614 L
620 3557 L
620 3416 L
620 3419 L
620 3342 L
620 3269 L
620 3465 L
620 3394 L
620 3509 L
620 3616 L
620 3462 L
620 3068 L
620 3263 L
620 3436 L
620 3467 L
620 3302 L
620 3245 L
620 3225 L
620 3508 L
620 3499 L
620 3033 L
620 3394 L
620 3511 L
620 3375 L
620 3228 L
620 3362 L
620 3267 L
620 3320 L
620 3372 L
620 3471 L
620 3355 L
620 3182 L
620 3405 L
620 3408 L
620 3394 L
620 3169 L
620 3013 L
620 3206 L
620 3318 L
620 3473 L
620 3311 L
620 3210 L
620 3388 L
620 3456 L
620 3328 L
620 3414 L
620 3508 L
620 3397 L
620 3265 L
620 3287 L
620 3524 L
620 3324 L
620 3357 L
620 3068 L
620 3109 L
620 3184 L
620 3410 L
620 3285 L
620 3057 L
620 2954 L
620 3153 L
620 3324 L
620 3289 L
620 3320 L
620 3245 L
620 3280 L
620 3085 L
620 3350 L
620 3092 L
620 3326 L
620 3399 L
620 3346 L
620 3146 L
620 3243 L
620 3068 L
620 3026 L
620 3204 L
620 3109 L
620 3109 L
620 2890 L
620 3188 L
620 3342 L
620 3182 L
620 3493 L
620 3372 L
620 3269 L
620 3408 L
620 3263 L
620 3171 L
620 3105 L
620 2864 L
620 2982 L
620 3203 L
620 3061 L
620 3252 L
620 3125 L
620 3044 L
620 3230 L
620 3035 L
620 3208 L
620 3109 L
620 2978 L
620 3248 L
620 3026 L
620 3037 L
620 3149 L
620 2846 L
620 2892 L
620 3171 L
620 2910 L
620 3079 L
620 3116 L
620 2958 L
620 2993 L
620 2967 L
620 2978 L
620 2728 L
620 3011 L
620 3092 L
620 2991 L
620 3083 L
620 2712 L
620 3346 L
620 3085 L
620 2941 L
620 2997 L
620 2923 L
620 2899 L
620 2761 L
620 2697 L
620 2965 L
620 2787 L
620 2621 L
620 3239 L
620 3002 L
620 2932 L
620 2862 L
620 3144 L
620 2930 L
620 2883 L
620 2984 L
620 2772 L
620 2824 L
620 2805 L
620 2969 L
620 2835 L
620 2640 L
620 3024 L
620 2960 L
620 2844 L
620 2763 L
620 2833 L
620 2708 L
620 2848 L
620 2710 L
620 2883 L
620 2743 L
620 2995 L
620 2618 L
620 2864 L
620 2559 L
620 2625 L
620 2903 L
620 3026 L
620 3006 L
620 2706 L
620 2846 L
620 2770 L
620 2916 L
620 2634 L
620 2875 L
620 2734 L
620 2645 L
620 2866 L
620 2596 L
620 2557 L
620 2868 L
620 2901 L
620 2710 L
620 2682 L
620 2919 L
620 2849 L
620 2778 L
620 2565 L
620 2684 L
620 2704 L
620 2813 L
620 2366 L
620 2732 L
620 2675 L
620 2721 L
620 2629 L
620 2739 L
620 2611 L
620 2647 L
620 2511 L
620 2485 L
620 2774 L
620 2861 L
620 2774 L
620 2837 L
620 2664 L
620 2395 L
620 2826 L
620 2673 L
620 2520 L
620 2469 L
620 2813 L
620 2800 L
620 2712 L
620 2787 L
620 2765 L
620 2642 L
620 2743 L
620 2552 L
620 2546 L
620 2513 L
620 2866 L
620 2807 L
620 2783 L
620 2796 L
620 2905 L
620 2511 L
620 2614 L
620 2645 L
620 2761 L
620 2859 L
620 2894 L
620 2859 L
620 2921 L
620 2524 L
620 2552 L
620 2883 L
620 2794 L
620 2605 L
620 2776 L
620 2851 L
620 2800 L
620 2842 L
620 2651 L
620 2559 L
620 2590 L
620 2664 L
620 2427 L
620 2636 L
620 2723 L
620 2535 L
620 2675 L
620 2522 L
620 2688 L
620 2680 L
620 2649 L
620 2708 L
620 2583 L
620 2594 L
620 2684 L
620 2397 L
620 2570 L
620 2509 L
620 2702 L
620 2739 L
620 2710 L
620 2627 L
620 2662 L
620 2563 L
620 2375 L
620 2441 L
620 2708 L
620 2379 L
620 2456 L
620 2837 L
620 2629 L
620 2686 L
620 2546 L
620 2559 L
620 2623 L
620 2607 L
620 2664 L
620 2638 L
620 2664 L
620 2449 L
620 2732 L
620 2427 L
620 2524 L
620 2846 L
620 2655 L
620 2638 L
620 2594 L
620 2585 L
620 2756 L
620 2675 L
620 2555 L
620 2555 L
620 2772 L
620 2445 L
620 2440 L
620 2563 L
620 2408 L
620 2765 L
620 2583 L
620 2712 L
620 2416 L
620 2528 L
620 2653 L
620 2620 L
620 2513 L
620 2493 L
620 2721 L
620 2625 L
620 2655 L
620 2493 L
620 2732 L
620 2438 L
620 2381 L
620 2759 L
620 2544 L
620 2585 L
620 2631 L
620 2561 L
620 2373 L
620 2384 L
620 2432 L
620 2452 L
620 2866 L
620 2313 L
620 2673 L
620 2449 L
620 2469 L
620 2508 L
620 2572 L
620 2824 L
620 2465 L
620 2412 L
620 2594 L
620 2730 L
620 2574 L
620 2666 L
620 2548 L
620 2373 L
620 2638 L
620 2688 L
620 2671 L
620 2509 L
620 2651 L
620 2997 L
620 2873 L
620 2568 L
620 2454 L
620 2362 L
620 2671 L
620 2526 L
620 2419 L
620 2469 L
620 2653 L
620 2693 L
620 2535 L
620 2541 L
620 2640 L
620 2601 L
620 2524 L
620 2697 L
620 2603 L
620 2414 L
620 2136 L
620 2572 L
620 2546 L
620 2666 L
620 2550 L
620 2581 L
620 2561 L
620 2447 L
620 2818 L
620 2386 L
620 2778 L
620 2458 L
620 2667 L
620 2726 L
620 2432 L
620 2311 L
620 2587 L
620 2370 L
620 2438 L
620 2478 L
620 2671 L
620 2491 L
620 2568 L
620 2371 L
620 2438 L
620 2478 L
620 2241 L
620 2281 L
620 2546 L
620 2408 L
620 2754 L
620 2840 L
620 2434 L
620 2592 L
620 2368 L
620 2349 L
620 2579 L
620 2482 L
620 2412 L
620 2401 L
620 2460 L
620 2557 L
620 2625 L
620 2811 L
620 2379 L
620 2355 L
620 2517 L
620 2526 L
620 2467 L
620 2515 L
620 2550 L
620 2614 L
620 2502 L
620 2596 L
620 2592 L
620 2541 L
620 2386 L
620 2754 L
620 2739 L
620 2421 L
620 2469 L
620 2596 L
620 2496 L
620 2607 L
620 2583 L
620 2484 L
620 2719 L
620 2631 L
620 2739 L
620 2805 L
620 2511 L
620 2533 L
620 2520 L
620 2408 L
620 2427 L
620 2708 L
620 2473 L
620 2675 L
620 2745 L
620 2373 L
620 2425 L
620 2546 L
620 2706 L
620 2445 L
620 2395 L
620 2688 L
620 2636 L
620 2601 L
620 2721 L
620 2660 L
620 2191 L
620 2688 L
620 2434 L
620 2373 L
620 2509 L
620 2452 L
620 2734 L
620 2833 L
620 2581 L
620 2502 L
620 2629 L
620 2504 L
620 2539 L
620 2695 L
620 2826 L
620 2553 L
620 2458 L
620 2526 L
620 2813 L
620 2750 L
620 2480 L
620 2702 L
620 2796 L
620 2636 L
620 2340 L
620 2759 L
620 2651 L
620 2535 L
620 2767 L
620 2620 L
620 2629 L
620 2506 L
620 2728 L
620 2594 L
620 2419 L
620 2605 L
620 2460 L
620 2741 L
620 2686 L
620 2598 L
620 2704 L
620 2717 L
620 2583 L
620 2776 L
620 2596 L
620 2914 L
620 2923 L
620 2555 L
620 2736 L
620 2579 L
620 2526 L
620 2550 L
620 2842 L
620 2482 L
620 2612 L
620 2506 L
620 2697 L
620 2756 L
620 2697 L
620 2609 L
620 2410 L
620 2638 L
620 2653 L
620 2818 L
620 2717 L
620 2728 L
620 2805 L
620 2517 L
620 2666 L
620 2427 L
620 2719 L
620 2605 L
620 2712 L
620 2587 L
620 2798 L
620 2679 L
620 2438 L
620 2724 L
620 2618 L
620 2783 L
620 2539 L
620 2736 L
620 2721 L
620 2741 L
620 2651 L
620 2612 L
620 2620 L
620 2857 L
620 2508 L
620 2899 L
620 2763 L
620 2750 L
620 2331 L
620 2796 L
620 2235 L
620 2541 L
620 2807 L
620 2655 L
620 2596 L
620 2493 L
620 2568 L
620 2480 L
620 2789 L
620 2734 L
620 2728 L
620 2504 L
620 2807 L
620 2399 L
620 2607 L
620 2504 L
620 2724 L
620 2522 L
620 2587 L
620 2289 L
620 2568 L
620 2899 L
620 2623 L
620 2430 L
620 2634 L
620 2583 L
620 2660 L
620 2603 L
620 2848 L
620 2513 L
620 2574 L
620 2596 L
620 2594 L
620 2395 L
620 2673 L
620 2660 L
620 2515 L
620 2530 L
620 2717 L
620 2493 L
620 2278 L
620 2862 L
620 2603 L
620 2612 L
620 2528 L
620 2684 L
620 2824 L
620 2800 L
620 2550 L
620 2359 L
620 2780 L
620 2605 L
620 2535 L
620 2686 L
620 2546 L
620 3184 L
620 2506 L
620 2587 L
620 2605 L
620 2508 L
620 2607 L
620 2772 L
620 2767 L
620 2932 L
620 2537 L
620 3059 L
620 2818 L
620 2796 L
620 2688 L
620 2629 L
620 2395 L
620 2684 L
620 2739 L
620 2498 L
620 2715 L
620 2837 L
620 2493 L
620 2833 L
620 2627 L
620 2745 L
620 2739 L
620 2800 L
620 2561 L
620 2474 L
620 2822 L
620 2412 L
620 2870 L
620 2434 L
620 2581 L
620 2631 L
620 2715 L
620 2502 L
620 2743 L
620 2800 L
620 2767 L
620 2776 L
620 2697 L
620 2745 L
620 2748 L
620 2712 L
620 2741 L
620 2601 L
620 2888 L
620 2544 L
620 2712 L
620 2495 L
620 2855 L
620 2897 L
620 2866 L
620 2520 L
620 2739 L
620 2743 L
620 2848 L
620 2484 L
620 2588 L
620 2572 L
620 2583 L
620 2660 L
620 2824 L
620 2546 L
620 2614 L
620 2625 L
620 2682 L
620 2693 L
620 2717 L
620 2631 L
620 2493 L
620 2903 L
620 2682 L
620 2739 L
620 2728 L
620 2730 L
620 2973 L
620 2456 L
620 2500 L
620 2776 L
620 2833 L
620 2645 L
620 2653 L
620 2699 L
620 2520 L
620 2710 L
620 2583 L
620 2737 L
620 2717 L
620 2579 L
620 2649 L
620 2704 L
620 2191 L
620 2833 L
620 2568 L
620 2862 L
620 2570 L
620 2677 L
620 2680 L
620 2873 L
620 2824 L
620 2734 L
620 2541 L
620 2873 L
620 2800 L
620 2730 L
620 2783 L
620 3044 L
620 2934 L
620 2522 L
620 2693 L
620 2798 L
620 2925 L
620 2802 L
620 2800 L
620 2967 L
620 2824 L
620 2908 L
620 2794 L
620 2695 L
620 2607 L
620 2761 L
620 3024 L
620 2443 L
620 2818 L
620 2927 L
620 2728 L
620 2609 L
620 2614 L
620 2998 L
620 2758 L
620 2581 L
620 2914 L
620 2682 L
620 2901 L
620 2739 L
620 2649 L
620 2778 L
620 2840 L
620 2857 L
620 2864 L
620 2726 L
620 2596 L
620 2618 L
620 2886 L
620 2478 L
620 2695 L
620 2853 L
620 2853 L
620 2892 L
620 2857 L
620 2899 L
620 3002 L
620 2653 L
620 3061 L
620 2780 L
620 2636 L
620 2592 L
620 2653 L
620 2754 L
620 2787 L
620 2526 L
620 2701 L
620 2660 L
620 2809 L
620 2675 L
620 2769 L
620 2614 L
620 2833 L
620 3028 L
620 2851 L
620 2798 L
620 2875 L
620 2465 L
620 2925 L
620 2561 L
620 2952 L
620 2938 L
620 2469 L
620 2691 L
620 2787 L
620 3096 L
620 2737 L
620 2872 L
620 2726 L
620 2870 L
620 2831 L
620 2752 L
620 2686 L
620 2947 L
620 2804 L
620 2809 L
620 2809 L
620 2730 L
620 2660 L
620 2989 L
620 2842 L
620 2629 L
620 2772 L
620 2976 L
620 2487 L
620 2765 L
620 2456 L
620 2441 L
620 2511 L
620 2745 L
620 2590 L
620 2958 L
620 2555 L
620 2721 L
620 2798 L
620 2921 L
620 2956 L
620 2743 L
620 2883 L
620 2916 L
620 3004 L
620 2653 L
620 2728 L
620 3030 L
620 2579 L
620 2763 L
620 2478 L
620 2872 L
620 3002 L
620 2625 L
620 2710 L
620 2916 L
620 2859 L
620 2866 L
620 2820 L
620 2761 L
620 2719 L
620 2894 L
620 2842 L
620 2767 L
620 2875 L
620 2995 L
620 2662 L
620 2732 L
620 2997 L
620 2743 L
620 3098 L
620 2502 L
620 2730 L
620 2903 L
620 2704 L
620 2846 L
620 2745 L
620 2804 L
620 2721 L
620 2794 L
620 2963 L
620 2908 L
620 2726 L
620 2857 L
620 2796 L
620 2633 L
620 2498 L
620 2890 L
620 2719 L
620 3013 L
620 2673 L
620 2550 L
620 2682 L
620 2969 L
620 2743 L
620 2796 L
620 2976 L
620 2662 L
620 2605 L
620 2888 L
620 2993 L
620 2728 L
620 2649 L
620 2730 L
620 2899 L
620 2706 L
620 2767 L
620 2818 L
620 2908 L
620 2684 L
620 3142 L
620 2941 L
620 2767 L
620 2721 L
620 2636 L
620 3133 L
620 2901 L
620 2763 L
620 2954 L
620 2765 L
620 2914 L
620 2991 L
620 2826 L
620 2631 L
620 2890 L
620 2938 L
620 3048 L
620 2667 L
620 2914 L
620 3201 L
620 2550 L
620 2813 L
620 2855 L
620 2947 L
620 2861 L
620 2826 L
620 2559 L
620 3022 L
620 2792 L
620 2721 L
620 2965 L
620 2941 L
620 2936 L
620 2752 L
620 2857 L
620 3098 L
620 2752 L
620 2651 L
620 2480 L
620 3068 L
620 3000 L
620 2800 L
620 3052 L
620 2851 L
620 2870 L
620 2441 L
620 2627 L
620 3142 L
620 2789 L
620 3004 L
620 3050 L
620 2787 L
620 2912 L
620 2859 L
620 2949 L
620 2859 L
620 2712 L
620 2743 L
620 2752 L
620 2638 L
620 2833 L
620 2787 L
620 2684 L
620 2631 L
620 2837 L
620 3006 L
620 2980 L
620 2831 L
620 2594 L
620 2905 L
620 2932 L
620 3030 L
620 2829 L
620 3160 L
620 3065 L
620 2965 L
620 2719 L
620 2667 L
620 3066 L
620 2653 L
620 2750 L
620 2763 L
620 2563 L
620 3223 L
620 2616 L
620 2962 L
620 2987 L
620 2708 L
620 3006 L
620 2824 L
620 2570 L
620 2853 L
620 2537 L
620 2780 L
620 3054 L
620 2907 L
620 3037 L
620 2655 L
620 3118 L
620 2971 L
620 3105 L
620 2763 L
620 3206 L
620 2813 L
620 3026 L
620 3037 L
620 3070 L
620 3039 L
620 2651 L
620 3142 L
620 2866 L
620 2973 L
620 2862 L
620 2682 L
620 3147 L
620 3074 L
620 2923 L
620 2894 L
620 2612 L
620 2941 L
620 2947 L
620 2798 L
620 3171 L
620 2943 L
620 2840 L
620 2895 L
620 2827 L
620 3122 L
620 2798 L
620 3048 L
620 2888 L
620 2917 L
620 2875 L
620 3098 L
620 2831 L
620 2958 L
620 2892 L
620 2581 L
620 3151 L
620 2548 L
620 2919 L
620 2897 L
620 2603 L
620 2837 L
620 3230 L
620 2875 L
620 2945 L
620 3098 L
620 2929 L
620 3118 L
620 2967 L
620 2684 L
620 3173 L
620 2936 L
620 3107 L
620 2984 L
620 2712 L
620 2890 L
620 2800 L
620 3109 L
620 2932 L
620 2770 L
620 3164 L
620 3026 L
620 3052 L
620 2895 L
620 2820 L
620 3017 L
620 2822 L
620 3006 L
620 2824 L
620 2824 L
620 2662 L
620 2791 L
620 2730 L
620 3046 L
620 2851 L
620 2892 L
620 2927 L
620 3070 L
620 2805 L
620 2822 L
620 2710 L
620 2963 L
620 2965 L
620 2980 L
620 2581 L
620 2820 L
620 2949 L
620 2897 L
620 3215 L
620 3206 L
620 2973 L
620 2914 L
620 2846 L
620 2925 L
620 3033 L
620 2916 L
620 2765 L
620 2978 L
620 3285 L
620 2787 L
620 2818 L
620 3195 L
620 2870 L
620 2842 L
620 3028 L
620 3094 L
620 3147 L
620 2877 L
620 2927 L
620 2695 L
620 2778 L
620 3057 L
620 2960 L
620 3410 L
620 3068 L
620 3052 L
620 2967 L
620 2888 L
620 3112 L
620 2783 L
620 3149 L
620 3118 L
620 2956 L
620 2912 L
620 2776 L
620 3035 L
620 3105 L
620 3416 L
620 3280 L
620 3039 L
620 2952 L
620 3037 L
620 3068 L
620 3219 L
620 2789 L
620 3112 L
620 2710 L
620 2987 L
620 3101 L
620 3057 L
620 3138 L
620 2853 L
620 3083 L
620 2984 L
620 3353 L
620 3076 L
620 3250 L
620 2905 L
620 3112 L
620 3221 L
620 3206 L
620 2967 L
620 2919 L
620 2855 L
620 2881 L
620 3258 L
620 2765 L
620 3074 L
620 2954 L
620 3219 L
620 2945 L
620 2958 L
620 3120 L
620 2881 L
620 3195 L
620 3048 L
620 2980 L
620 3129 L
620 3123 L
620 2772 L
620 2925 L
620 2827 L
620 3030 L
620 3131 L
620 3210 L
620 3140 L
620 2998 L
620 2951 L
620 3131 L
620 3195 L
620 2754 L
620 3122 L
620 2798 L
620 3066 L
620 3019 L
620 2908 L
620 3074 L
620 2897 L
620 2844 L
620 3083 L
620 2914 L
620 3030 L
620 3250 L
620 3311 L
620 3276 L
620 2949 L
620 2899 L
620 3019 L
620 2908 L
620 3149 L
620 3166 L
620 3133 L
620 2951 L
620 3261 L
620 2824 L
620 2932 L
620 3030 L
620 3201 L
620 3116 L
620 3057 L
620 3092 L
620 3052 L
620 2780 L
620 3046 L
620 2899 L
620 3307 L
620 2997 L
620 3239 L
620 2897 L
620 3252 L
620 2991 L
620 3208 L
620 3114 L
620 2921 L
620 3243 L
620 3024 L
620 3030 L
620 3037 L
620 2870 L
620 3083 L
620 2989 L
620 3094 L
620 2721 L
620 2868 L
620 3215 L
620 3140 L
620 3116 L
620 2951 L
620 2870 L
620 3179 L
620 2886 L
620 3107 L
620 2851 L
620 2883 L
620 2861 L
620 2943 L
620 2866 L
620 3377 L
620 2701 L
620 2993 L
620 2995 L
620 3232 L
620 3309 L
620 3199 L
620 3035 L
620 3006 L
620 2794 L
620 3109 L
620 2947 L
620 2930 L
620 2973 L
620 2800 L
620 3039 L
620 2971 L
620 3234 L
620 2989 L
620 2776 L
620 2770 L
620 3250 L
620 2965 L
620 3125 L
620 3109 L
620 3223 L
620 2772 L
620 2917 L
620 2791 L
620 3063 L
620 2894 L
620 3112 L
620 3054 L
620 3285 L
620 2881 L
620 3107 L
620 2903 L
620 2899 L
620 3346 L
620 3107 L
620 2941 L
620 3044 L
620 3114 L
620 2912 L
620 2884 L
620 2792 L
620 2907 L
620 3042 L
620 3127 L
620 2989 L
620 2921 L
620 2943 L
620 3138 L
620 2660 L
620 2855 L
620 2925 L
620 3333 L
620 3107 L
620 2995 L
620 3136 L
620 3033 L
620 2969 L
620 3024 L
620 3265 L
620 3059 L
620 2943 L
620 2980 L
620 2888 L
620 2853 L
620 2969 L
620 3116 L
620 2763 L
620 3114 L
620 2752 L
620 2778 L
620 3083 L
620 2976 L
620 3017 L
620 2930 L
620 2969 L
620 2921 L
620 2945 L
620 2956 L
620 3094 L
620 3052 L
620 2640 L
620 3087 L
620 2833 L
620 3304 L
620 3076 L
620 3127 L
620 3114 L
620 2890 L
620 2976 L
620 3092 L
620 2875 L
620 2894 L
620 2824 L
620 2761 L
620 2884 L
620 3004 L
620 2932 L
620 2949 L
620 2963 L
620 2971 L
620 3241 L
620 3179 L
620 2877 L
620 2998 L
620 3002 L
620 3153 L
620 3131 L
620 2947 L
620 3188 L
620 3079 L
620 3107 L
620 3169 L
620 3033 L
620 2914 L
620 3282 L
620 2916 L
620 2748 L
620 2916 L
620 2969 L
620 2875 L
620 2800 L
620 2894 L
620 2745 L
620 2897 L
620 3149 L
620 3008 L
620 3149 L
620 2897 L
620 2824 L
620 3050 L
620 3125 L
620 2925 L
620 2903 L
620 3129 L
620 3131 L
620 2998 L
620 3166 L
620 3188 L
620 3008 L
620 2923 L
620 2954 L
620 2826 L
620 3081 L
620 2861 L
620 2932 L
620 3057 L
620 2963 L
620 2842 L
620 3090 L
620 2899 L
620 2855 L
620 2958 L
620 2809 L
620 2945 L
620 2984 L
620 3024 L
620 2951 L
620 3019 L
620 3035 L
620 3125 L
620 3041 L
620 2925 L
620 2986 L
620 3219 L
620 2947 L
620 2697 L
620 2780 L
620 3105 L
620 2903 L
620 2612 L
620 3039 L
620 2925 L
620 3052 L
620 2813 L
620 2807 L
620 2752 L
620 3006 L
620 2824 L
620 3153 L
620 2666 L
620 3022 L
620 2945 L
620 3164 L
620 3087 L
620 3112 L
L2 C01 COSGR

%
%================
% Legend - Begin
%================
%
GSN 4240 5180 M
4480 5180 L
LWMC SL  C01 COSGR
GSN 4540 5141 M helvM (0.5 uM) show grestore
%
%================
% Legend - End
%================
%

%
% Main frame
%
L10
GSN 
620 1700 M
4220 1700 L
4220 5300 L
620 5300 L
closepath SGR

%
% X axis: large tics
%
L10
%
% X axis: small tics
%
L5
%
% Y axis: large tics
%
L10
GSN 620 2170 M 54 0 rL SGR
GSN 4220 2170 M -54 0 rL SGR
helvS (-0.02) 560 2170 ylabel
GSN 620 3032 M 54 0 rL SGR
GSN 4220 3032 M -54 0 rL SGR
helvS (0) 560 3032 ylabel
GSN 620 3894 M 54 0 rL SGR
GSN 4220 3894 M -54 0 rL SGR
helvS (0.02) 560 3894 ylabel
GSN 620 4756 M 54 0 rL SGR
GSN 4220 4756 M -54 0 rL SGR
helvS (0.04) 560 4756 ylabel
%
% Y axis: small tics
%
L5
GSN 620 1739 M 36 0 rL SGR
GSN 4220 1739 M -36 0 rL SGR
GSN 620 1955 M 36 0 rL SGR
GSN 4220 1955 M -36 0 rL SGR
GSN 620 2170 M 36 0 rL SGR
GSN 4220 2170 M -36 0 rL SGR
GSN 620 2386 M 36 0 rL SGR
GSN 4220 2386 M -36 0 rL SGR
GSN 620 2601 M 36 0 rL SGR
GSN 4220 2601 M -36 0 rL SGR
GSN 620 2817 M 36 0 rL SGR
GSN 4220 2817 M -36 0 rL SGR
GSN 620 3032 M 36 0 rL SGR
GSN 4220 3032 M -36 0 rL SGR
GSN 620 3248 M 36 0 rL SGR
GSN 4220 3248 M -36 0 rL SGR
GSN 620 3463 M 36 0 rL SGR
GSN 4220 3463 M -36 0 rL SGR
GSN 620 3679 M 36 0 rL SGR
GSN 4220 3679 M -36 0 rL SGR
GSN 620 3894 M 36 0 rL SGR
GSN 4220 3894 M -36 0 rL SGR
GSN 620 4110 M 36 0 rL SGR
GSN 4220 4110 M -36 0 rL SGR
GSN 620 4325 M 36 0 rL SGR
GSN 4220 4325 M -36 0 rL SGR
GSN 620 4541 M 36 0 rL SGR
GSN 4220 4541 M -36 0 rL SGR
GSN 620 4756 M 36 0 rL SGR
GSN 4220 4756 M -36 0 rL SGR
GSN 620 4972 M 36 0 rL SGR
GSN 4220 4972 M -36 0 rL SGR
GSN 620 5188 M 36 0 rL SGR
GSN 4220 5188 M -36 0 rL SGR

%
% X axis - residual panel
%
GSN L5 620 3032 M 4220 3032 L SDA G50 SGR

%
% X-Axis label:
%
gsave 620 1370 M 
[
[(Helvetica) 180 0 true true 0 (t)]
[(Helvetica) 180 0 true true 0 (i)]
[(Helvetica) 180 0 true true 0 (m)]
[(Helvetica) 180 0 true true 0 (e)]
] 0 MCshow grestore

%
% Y-Axis label:
%
gsave 234 3499 M 
currentpoint gsave translate 90 rotate 0 0 moveto
[
[(Helvetica) 180 0 true true 0 (r)]
[(Helvetica) 180 0 true true 0 (e)]
[(Helvetica) 180 0 true true 0 (s)]
[(Helvetica) 180 0 true true 0 (i)]
[(Helvetica) 180 0 true true 0 (d)]
[(Helvetica) 180 0 true true 0 (u)]
[(Helvetica) 180 0 true true 0 (a)]
[(Helvetica) 180 0 true true 0 (l)]
[(Helvetica) 180 0 true true 0 (s)]
] 0 MCshow grestore

end
showpage
%%Trailer
%%EOF
