%!PS-Adobe-3.0 EPSF-3.0
%%BoundingBox: 0 0 514 550
%%Creator: BioKin Ltd.
%%DocumentFonts: Symbol Helvetica
%%EndComments
%
/bkdict 256 dict def
bkdict begin
/M {moveto} def 
/R {rmoveto} def
/L {lineto} def
/rL {rlineto} def
/GSN {gsave newpath} def
/SGR {stroke grestore} def
/COSGR {gsave setrgbcolor stroke grestore grestore} def
/SL {setlinewidth} def
/LWMB {12} def             % line width - model curves, black & white
/LWMC {10} def             % line width - model curves, color
/L2 {2.5 setlinewidth} def
/L5 {5 setlinewidth} def
/L10 {10 setlinewidth} def
/G50 {0.5 setgray} def
/SDA {[10  20] 0 setdash} def % axes
/helvT {/Helvetica findfont 100 scalefont setfont} def % tiny
/helvS {/Helvetica findfont 125 scalefont setfont} def % small
/helvM {/Helvetica findfont 150 scalefont setfont} def % medium
/helvL {/Helvetica findfont 175 scalefont setfont} def % large
/xlabel {gsave M dup
   stringwidth exch -0.5 mul exch rmoveto show grestore} def 
/ylabel {gsave M 90 rotate dup
   stringwidth exch -0.5 mul exch rmoveto show grestore} def
/ylabelresid {gsave M dup
   stringwidth exch -1 mul exch rmoveto show grestore} def
% ======
% Shapes
% ======
% Circle:
/Circ {0 360 arc closepath} def
%
% Square:
/Squa {dup dup -0.5 mul dup dup R -2 mul 0 exch rL 1 mul 0 rL dup 0 exch -1 mul rL closepath} def
%
% Triangle Up:
/TriU {dup dup dup -0.4 mul exch -0.5 mul exch R dup 0.5 mul exch rL dup -1 mul exch 0.5 mul exch rL closepath} def 
%
% Triangle Down:
/TriD {dup dup dup 0.4 mul exch -0.5 mul exch R dup 0.5 mul exch -1 mul rL dup 0.5 mul exch rL closepath} def 
%
% Diamond:
/Diam {45 rotate Squa} def
% ======
% Fills
% ======
/GRF {gsave setgray fill grestore} def                    % gray-level Fill
/COF {gsave setrgbcolor fill grestore} def                % color fill
% ======
% Colors
% ======
/C01 {1.00	0.00	0.00} def      % Red
/C02 {0.00	0.00	1.00} def      % Blue
/C03 {0.00	0.39	0.00} def      % Dark Green
/C04 {0.78	0.08	0.52} def      % Medium Violet Red
/C05 {0.55	0.27	0.07} def      % Saddle Brown
/C06 {0.10	0.70	0.70} def      % (cyan)
/C07 {1.00	0.55	0.00} def      % Dark Orange
/C08 {0.63	0.13	0.94} def      % Purple
/C09 {0.00	0.75	1.00} def      % Deep Sky Blue
/C10 {0.20	0.80	0.20} def      % Lime Green
/C11 {0.47	0.53	0.60} def      % Light Slate Gray
/C12 {0.00	0.00	0.00} def      % Black            % or: {0.19	0.31	0.31} def      % Dark Slate Gray
%
/LGR {0.75} def % light gray
/DGR {0.33} def % dark gray
%
% =============
% Dash patterns
% =============
/dash01 { [80  20] 0 setdash } def
/dash02 { [40  20] 0 setdash } def
/dash03 { [80  20  10  20] 0 setdash } def
/dash04 { [40  20  10  20] 0 setdash } def
/dash05 { [80  20  10  10  10  20] 0 setdash } def
/dash06 { [40  20  10  10  10  20] 0 setdash } def
/dash07 { [10  10] 0 setdash } def
%
/MFshow {
   { dup 5 get 3 ge
     { 5 get 3 eq {gsave} {grestore} ifelse }
     {dup dup 0 get findfont exch 1 get scalefont setfont
     [ currentpoint ] exch dup 2 get 0 exch R dup 5 get 2 ne {dup dup 6
     get exch 4 get {show} {stringwidth pop 0 R} ifelse }if dup 5 get 0 eq
     {dup 3 get {2 get neg 0 exch R pop} {pop aload pop M} ifelse} {dup 5
     get 1 eq {dup 2 get exch dup 3 get exch 6 get stringwidth pop -2 div
     dup 0 R} {dup 6 get stringwidth pop -2 div 0 R 6 get
     show 2 index {aload pop M neg 3 -1 roll neg R pop pop} {pop pop pop
     pop aload pop M} ifelse }ifelse }ifelse }
     ifelse }
   forall} bind def
/MFwidth {0 exch {dup 3 get{dup dup 0 get findfont exch 1 get scalefont
     setfont 6 get stringwidth pop add} {pop} ifelse} forall} bind def
/MCshow { currentpoint stroke M
  exch dup MFwidth -2 div 3 -1 roll R MFshow } def
%
end
%%EndProlog
bkdict begin
0.1 0.1 scale
%
% Residuals:
%
GSN 620 4464 M
620 3551 L
620 3323 L
620 3399 L
620 3571 L
620 2891 L
620 3946 L
620 3555 L
620 3687 L
620 3571 L
620 3052 L
620 3763 L
620 3362 L
620 3289 L
620 3628 L
620 3391 L
620 3371 L
620 3789 L
620 3234 L
620 3772 L
620 3993 L
620 3770 L
620 4205 L
620 3704 L
620 4155 L
620 4375 L
620 3742 L
620 4095 L
620 4102 L
620 4446 L
620 3912 L
620 3622 L
620 4663 L
620 3945 L
620 4448 L
620 4257 L
620 4171 L
620 4273 L
620 4227 L
620 4169 L
620 3810 L
620 4428 L
620 4212 L
620 4245 L
620 4296 L
620 4050 L
620 4410 L
620 3924 L
620 3989 L
620 4219 L
620 4264 L
620 3912 L
620 3792 L
620 3744 L
620 4430 L
620 4125 L
620 4447 L
620 4136 L
620 4405 L
620 4486 L
620 4136 L
620 4528 L
620 4536 L
620 4774 L
620 4297 L
620 4059 L
620 4092 L
620 4222 L
620 3663 L
620 4365 L
620 4269 L
620 4088 L
620 4863 L
620 3898 L
620 4263 L
620 4661 L
620 3859 L
620 3832 L
620 4402 L
620 4219 L
620 4224 L
620 4158 L
620 4298 L
620 4595 L
620 4171 L
620 3920 L
620 4328 L
620 3812 L
620 3986 L
620 4042 L
620 4435 L
620 3798 L
620 4331 L
620 4047 L
620 3810 L
620 3882 L
620 3728 L
620 3697 L
620 4002 L
620 3724 L
620 4211 L
620 3790 L
620 3992 L
620 3545 L
620 3923 L
620 3519 L
620 3788 L
620 3642 L
620 4005 L
620 3874 L
620 3906 L
620 3588 L
620 3311 L
620 3212 L
620 3603 L
620 3525 L
620 3660 L
620 4024 L
620 3794 L
620 3561 L
620 3548 L
620 3440 L
620 3579 L
620 3268 L
620 3683 L
620 3537 L
620 3185 L
620 3301 L
620 3448 L
620 3447 L
620 3350 L
620 3606 L
620 3363 L
620 3660 L
620 2980 L
620 3681 L
620 3125 L
620 3992 L
620 3567 L
620 3737 L
620 3556 L
620 3010 L
620 3659 L
620 3652 L
620 3589 L
620 3421 L
620 3733 L
620 3076 L
620 3363 L
620 3222 L
620 3579 L
620 3354 L
620 3481 L
620 3357 L
620 3069 L
620 3930 L
620 3423 L
620 3324 L
620 3639 L
620 2877 L
620 3617 L
620 3730 L
620 3522 L
620 3388 L
620 3539 L
620 3362 L
620 3406 L
620 3349 L
620 3496 L
620 3599 L
620 3538 L
620 3265 L
620 3509 L
620 3749 L
620 3566 L
620 3319 L
620 3555 L
620 3184 L
620 3642 L
620 3565 L
620 3326 L
620 3794 L
620 3436 L
620 3533 L
620 3350 L
620 3207 L
620 3298 L
620 3414 L
620 3255 L
620 4173 L
620 3708 L
620 3340 L
620 3725 L
620 3160 L
620 3764 L
620 3833 L
620 3883 L
620 3623 L
620 3502 L
620 3585 L
620 3382 L
620 3416 L
620 3777 L
620 3571 L
620 3590 L
620 3535 L
620 3838 L
620 3635 L
620 3377 L
620 3568 L
620 3258 L
620 3900 L
620 2907 L
620 3670 L
620 3416 L
620 3755 L
620 3508 L
620 3467 L
620 3570 L
620 3579 L
620 3705 L
620 3847 L
620 3252 L
620 3491 L
620 3437 L
620 3623 L
620 3191 L
620 3714 L
620 3613 L
620 3329 L
620 3706 L
620 3384 L
620 3619 L
620 3411 L
620 3386 L
620 3644 L
620 3743 L
620 3838 L
620 3358 L
620 3621 L
620 3808 L
620 3465 L
620 3795 L
620 3442 L
620 3016 L
620 3617 L
620 3775 L
620 3624 L
620 3306 L
620 3376 L
620 3997 L
620 3470 L
620 3530 L
620 3704 L
620 4036 L
620 3206 L
620 3153 L
620 3541 L
620 3841 L
620 4135 L
620 3607 L
620 3448 L
620 3913 L
620 3542 L
620 3697 L
620 3309 L
620 3504 L
620 2998 L
620 3452 L
620 3273 L
620 3978 L
620 3795 L
620 4156 L
620 3383 L
620 3456 L
620 3923 L
620 3764 L
620 3786 L
620 3376 L
620 3109 L
620 3548 L
620 3831 L
620 2893 L
620 4118 L
620 3697 L
620 3801 L
620 3555 L
620 3870 L
620 3623 L
620 3180 L
620 3109 L
620 3641 L
620 3613 L
620 3533 L
620 3625 L
620 3520 L
620 3965 L
620 3593 L
620 3293 L
620 3830 L
620 3614 L
620 3935 L
620 4121 L
620 3645 L
620 3412 L
620 3507 L
620 3620 L
620 3783 L
620 3272 L
620 3107 L
620 3678 L
620 3582 L
620 4177 L
620 3858 L
620 3691 L
620 3561 L
620 3613 L
620 3778 L
620 4250 L
620 3922 L
620 4002 L
620 3806 L
620 3355 L
620 3844 L
620 3802 L
620 3421 L
620 3664 L
620 4004 L
620 3817 L
620 3547 L
620 4143 L
620 3497 L
620 3666 L
620 3714 L
620 4227 L
620 3274 L
620 3742 L
620 3664 L
620 3592 L
620 3611 L
620 3575 L
620 3452 L
620 3378 L
620 3703 L
620 3753 L
620 4122 L
620 3078 L
620 3792 L
620 3802 L
620 3650 L
620 3734 L
620 3689 L
620 3709 L
620 3973 L
620 3503 L
620 3905 L
620 3355 L
620 3402 L
620 3363 L
620 3211 L
620 3561 L
620 3369 L
620 3246 L
620 3367 L
620 4037 L
620 3219 L
620 3540 L
620 3332 L
620 3266 L
620 3369 L
620 4041 L
620 3089 L
620 3196 L
620 3081 L
620 3260 L
620 3078 L
620 3043 L
620 3041 L
620 3175 L
620 3320 L
620 2751 L
620 3274 L
620 2996 L
620 3499 L
620 3406 L
620 3091 L
620 3264 L
620 2850 L
620 2829 L
620 3089 L
620 2922 L
620 3264 L
620 2940 L
620 3388 L
620 2965 L
620 3190 L
620 3512 L
620 2879 L
620 2973 L
620 3070 L
620 2720 L
620 2724 L
620 3342 L
620 3283 L
620 2330 L
620 2934 L
620 3454 L
620 2926 L
620 3260 L
620 3369 L
620 3373 L
620 2680 L
620 3367 L
620 2753 L
620 3303 L
620 2666 L
620 2711 L
620 2648 L
620 2986 L
620 3120 L
620 3316 L
620 2971 L
620 3019 L
620 3037 L
620 2973 L
620 3012 L
620 3151 L
620 2845 L
620 2897 L
620 3276 L
620 2285 L
620 2410 L
620 2992 L
620 2942 L
620 2990 L
620 3204 L
620 2670 L
620 3200 L
620 3058 L
620 2714 L
620 3299 L
620 3239 L
620 2934 L
620 3171 L
620 2876 L
620 2988 L
620 2850 L
620 3033 L
620 3210 L
620 3035 L
620 2839 L
620 2215 L
620 3138 L
620 3268 L
620 3136 L
620 2534 L
620 2571 L
620 2934 L
620 3243 L
620 2718 L
620 2588 L
620 3215 L
620 3058 L
620 2841 L
620 2557 L
620 2544 L
620 2891 L
620 2759 L
620 2613 L
620 2639 L
620 2355 L
620 2909 L
620 2437 L
620 2825 L
620 2833 L
620 3107 L
620 2664 L
620 2699 L
620 3138 L
620 3019 L
620 2724 L
620 2379 L
620 2563 L
620 2746 L
620 2773 L
620 2462 L
620 2876 L
620 2911 L
620 2909 L
620 2868 L
620 2944 L
620 2149 L
620 2658 L
620 2365 L
620 2744 L
620 2928 L
620 2299 L
620 3345 L
620 2724 L
620 3062 L
620 2901 L
620 2280 L
620 2388 L
620 2404 L
620 2887 L
620 2414 L
620 2136 L
620 3013 L
620 2495 L
620 2555 L
620 2701 L
620 2344 L
620 2447 L
620 3008 L
620 2452 L
620 2868 L
620 2551 L
620 2637 L
620 3169 L
620 2771 L
620 2979 L
620 2198 L
620 2596 L
620 2699 L
620 2926 L
620 2450 L
620 2557 L
620 2798 L
620 2215 L
620 2734 L
620 2641 L
620 2763 L
620 3093 L
L2 C07 COSGR

%
%================
% Legend - Begin
%================
%
GSN 4240 5180 M
4480 5180 L
LWMC SL  C07 COSGR
GSN 4540 5141 M helvM (4.0 uM) show grestore
%
%================
% Legend - End
%================
%

%
% Main frame
%
L10
GSN 
620 1700 M
4220 1700 L
4220 5300 L
620 5300 L
closepath SGR

%
% X axis: large tics
%
L10
%
% X axis: small tics
%
L5
%
% Y axis: large tics
%
L10
GSN 620 2429 M 54 0 rL SGR
GSN 4220 2429 M -54 0 rL SGR
helvS (-0.01) 560 2429 ylabel
GSN 620 3447 M 54 0 rL SGR
GSN 4220 3447 M -54 0 rL SGR
helvS (0) 560 3447 ylabel
GSN 620 4465 M 54 0 rL SGR
GSN 4220 4465 M -54 0 rL SGR
helvS (0.01) 560 4465 ylabel
%
% Y axis: small tics
%
L5
GSN 620 1920 M 36 0 rL SGR
GSN 4220 1920 M -36 0 rL SGR
GSN 620 2174 M 36 0 rL SGR
GSN 4220 2174 M -36 0 rL SGR
GSN 620 2429 M 36 0 rL SGR
GSN 4220 2429 M -36 0 rL SGR
GSN 620 2683 M 36 0 rL SGR
GSN 4220 2683 M -36 0 rL SGR
GSN 620 2938 M 36 0 rL SGR
GSN 4220 2938 M -36 0 rL SGR
GSN 620 3192 M 36 0 rL SGR
GSN 4220 3192 M -36 0 rL SGR
GSN 620 3447 M 36 0 rL SGR
GSN 4220 3447 M -36 0 rL SGR
GSN 620 3701 M 36 0 rL SGR
GSN 4220 3701 M -36 0 rL SGR
GSN 620 3956 M 36 0 rL SGR
GSN 4220 3956 M -36 0 rL SGR
GSN 620 4210 M 36 0 rL SGR
GSN 4220 4210 M -36 0 rL SGR
GSN 620 4465 M 36 0 rL SGR
GSN 4220 4465 M -36 0 rL SGR
GSN 620 4719 M 36 0 rL SGR
GSN 4220 4719 M -36 0 rL SGR
GSN 620 4974 M 36 0 rL SGR
GSN 4220 4974 M -36 0 rL SGR
GSN 620 5228 M 36 0 rL SGR
GSN 4220 5228 M -36 0 rL SGR

%
% X axis - residual panel
%
GSN L5 620 3447 M 4220 3447 L SDA G50 SGR

%
% X-Axis label:
%
gsave 620 1370 M 
[
[(Helvetica) 180 0 true true 0 (t)]
[(Helvetica) 180 0 true true 0 (i)]
[(Helvetica) 180 0 true true 0 (m)]
[(Helvetica) 180 0 true true 0 (e)]
] 0 MCshow grestore

%
% Y-Axis label:
%
gsave 234 3499 M 
currentpoint gsave translate 90 rotate 0 0 moveto
[
[(Helvetica) 180 0 true true 0 (r)]
[(Helvetica) 180 0 true true 0 (e)]
[(Helvetica) 180 0 true true 0 (s)]
[(Helvetica) 180 0 true true 0 (i)]
[(Helvetica) 180 0 true true 0 (d)]
[(Helvetica) 180 0 true true 0 (u)]
[(Helvetica) 180 0 true true 0 (a)]
[(Helvetica) 180 0 true true 0 (l)]
[(Helvetica) 180 0 true true 0 (s)]
] 0 MCshow grestore

end
showpage
%%Trailer
%%EOF
