%!PS-Adobe-3.0 EPSF-3.0
%%BoundingBox: 0 0 514 550
%%Creator: BioKin Ltd.
%%DocumentFonts: Symbol Helvetica
%%EndComments
%
/bkdict 256 dict def
bkdict begin
/M {moveto} def 
/R {rmoveto} def
/L {lineto} def
/rL {rlineto} def
/GSN {gsave newpath} def
/SGR {stroke grestore} def
/COSGR {gsave setrgbcolor stroke grestore grestore} def
/SL {setlinewidth} def
/LWMB {12} def             % line width - model curves, black & white
/LWMC {10} def             % line width - model curves, color
/L2 {2.5 setlinewidth} def
/L5 {5 setlinewidth} def
/L10 {10 setlinewidth} def
/G50 {0.5 setgray} def
/SDA {[10  20] 0 setdash} def % axes
/helvT {/Helvetica findfont 100 scalefont setfont} def % tiny
/helvS {/Helvetica findfont 125 scalefont setfont} def % small
/helvM {/Helvetica findfont 150 scalefont setfont} def % medium
/helvL {/Helvetica findfont 175 scalefont setfont} def % large
/xlabel {gsave M dup
   stringwidth exch -0.5 mul exch rmoveto show grestore} def 
/ylabel {gsave M 90 rotate dup
   stringwidth exch -0.5 mul exch rmoveto show grestore} def
/ylabelresid {gsave M dup
   stringwidth exch -1 mul exch rmoveto show grestore} def
% ======
% Shapes
% ======
% Circle:
/Circ {0 360 arc closepath} def
%
% Square:
/Squa {dup dup -0.5 mul dup dup R -2 mul 0 exch rL 1 mul 0 rL dup 0 exch -1 mul rL closepath} def
%
% Triangle Up:
/TriU {dup dup dup -0.4 mul exch -0.5 mul exch R dup 0.5 mul exch rL dup -1 mul exch 0.5 mul exch rL closepath} def 
%
% Triangle Down:
/TriD {dup dup dup 0.4 mul exch -0.5 mul exch R dup 0.5 mul exch -1 mul rL dup 0.5 mul exch rL closepath} def 
%
% Diamond:
/Diam {45 rotate Squa} def
% ======
% Fills
% ======
/GRF {gsave setgray fill grestore} def                    % gray-level Fill
/COF {gsave setrgbcolor fill grestore} def                % color fill
% ======
% Colors
% ======
/C01 {1.00	0.00	0.00} def      % Red
/C02 {0.00	0.00	1.00} def      % Blue
/C03 {0.00	0.39	0.00} def      % Dark Green
/C04 {0.78	0.08	0.52} def      % Medium Violet Red
/C05 {0.55	0.27	0.07} def      % Saddle Brown
/C06 {0.10	0.70	0.70} def      % (cyan)
/C07 {1.00	0.55	0.00} def      % Dark Orange
/C08 {0.63	0.13	0.94} def      % Purple
/C09 {0.00	0.75	1.00} def      % Deep Sky Blue
/C10 {0.20	0.80	0.20} def      % Lime Green
/C11 {0.47	0.53	0.60} def      % Light Slate Gray
/C12 {0.00	0.00	0.00} def      % Black            % or: {0.19	0.31	0.31} def      % Dark Slate Gray
%
/LGR {0.75} def % light gray
/DGR {0.33} def % dark gray
%
% =============
% Dash patterns
% =============
/dash01 { [80  20] 0 setdash } def
/dash02 { [40  20] 0 setdash } def
/dash03 { [80  20  10  20] 0 setdash } def
/dash04 { [40  20  10  20] 0 setdash } def
/dash05 { [80  20  10  10  10  20] 0 setdash } def
/dash06 { [40  20  10  10  10  20] 0 setdash } def
/dash07 { [10  10] 0 setdash } def
%
/MFshow {
   { dup 5 get 3 ge
     { 5 get 3 eq {gsave} {grestore} ifelse }
     {dup dup 0 get findfont exch 1 get scalefont setfont
     [ currentpoint ] exch dup 2 get 0 exch R dup 5 get 2 ne {dup dup 6
     get exch 4 get {show} {stringwidth pop 0 R} ifelse }if dup 5 get 0 eq
     {dup 3 get {2 get neg 0 exch R pop} {pop aload pop M} ifelse} {dup 5
     get 1 eq {dup 2 get exch dup 3 get exch 6 get stringwidth pop -2 div
     dup 0 R} {dup 6 get stringwidth pop -2 div 0 R 6 get
     show 2 index {aload pop M neg 3 -1 roll neg R pop pop} {pop pop pop
     pop aload pop M} ifelse }ifelse }ifelse }
     ifelse }
   forall} bind def
/MFwidth {0 exch {dup 3 get{dup dup 0 get findfont exch 1 get scalefont
     setfont 6 get stringwidth pop add} {pop} ifelse} forall} bind def
/MCshow { currentpoint stroke M
  exch dup MFwidth -2 div 3 -1 roll R MFshow } def
%
end
%%EndProlog
bkdict begin
0.1 0.1 scale
%
% Model curves:
%

GSN 753 2879 M
753 2879 L
786 2879 L
820 2878 L
853 2878 L
886 2877 L
903 2877 L
919 2877 L
953 2876 L
986 2876 L
1020 2875 L
1053 2874 L
1053 2874 L
1086 2874 L
1120 2873 L
1153 2872 L
1186 2872 L
1203 2871 L
1220 2871 L
1253 2871 L
1286 2870 L
1320 2870 L
1353 2870 L
1353 2870 L
1386 2869 L
1420 2869 L
1453 2869 L
1486 2869 L
1503 2869 L
1520 2869 L
1553 2869 L
1586 2869 L
1620 2869 L
1653 2869 L
1653 2869 L
1686 2869 L
1720 2869 L
1753 2869 L
1786 2869 L
1804 2869 L
1820 2869 L
1853 2869 L
1886 2869 L
1920 2869 L
1953 2869 L
1954 2869 L
1986 2869 L
2020 2869 L
2053 2869 L
2086 2869 L
2104 2869 L
2120 2869 L
2153 2869 L
2186 2869 L
2220 2869 L
2253 2869 L
2254 2869 L
2286 2869 L
2320 2869 L
2353 2869 L
2386 2869 L
2404 2869 L
2420 2869 L
2453 2869 L
2486 2869 L
2520 2869 L
2553 2869 L
2554 2869 L
2586 2869 L
2620 2869 L
2653 2869 L
2686 2869 L
2704 2869 L
2720 2869 L
2753 2869 L
2786 2869 L
2820 2869 L
2853 2868 L
2854 2868 L
2886 2868 L
2920 2868 L
2953 2868 L
2986 2868 L
3004 2868 L
3020 2868 L
3053 2867 L
3068 2867 L
3086 2867 L
3120 2866 L
3153 2866 L
3155 2866 L
3186 2865 L
3220 2865 L
3253 2864 L
3286 2863 L
3305 2863 L
3320 2862 L
3353 2861 L
3386 2860 L
3420 2858 L
3453 2856 L
3455 2856 L
3486 2854 L
3520 2852 L
3553 2849 L
3586 2845 L
3605 2843 L
3620 2841 L
3653 2837 L
3686 2831 L
3720 2825 L
3753 2818 L
3755 2817 L
3786 2809 L
3820 2799 L
3853 2788 L
3886 2774 L
3905 2766 L
3920 2758 L
3953 2740 L
3986 2719 L
4020 2694 L
4053 2665 L
4086 2631 L
LWMC SL  C06 COSGR

%
% Experimental data:
%
GSN 773 4876 M
1625 5166 L
1773 5027 L
1860 4716 L
1922 4878 L
1970 4739 L
2009 4538 L
2043 4568 L
2072 4378 L
2097 4320 L
2120 4469 L
2140 4293 L
2159 4193 L
2176 4282 L
2192 4224 L
2207 4098 L
2221 4137 L
2234 3947 L
2247 4011 L
2259 4026 L
2270 4070 L
2280 4106 L
2290 3874 L
2300 3818 L
2309 3729 L
2318 3789 L
2326 4048 L
2335 3969 L
2342 3771 L
2350 3753 L
2357 3702 L
2364 3688 L
2371 3694 L
2378 3776 L
2384 3364 L
2391 3771 L
2397 3441 L
2403 3441 L
2409 3351 L
2414 3473 L
2420 3463 L
2425 3164 L
2430 3408 L
2435 3394 L
2440 3210 L
2445 3319 L
2450 3437 L
2455 3403 L
2459 3127 L
2464 3184 L
2468 3205 L
2472 3086 L
2476 3048 L
2481 3162 L
2485 3197 L
2489 3048 L
2492 2945 L
2496 2959 L
2500 2950 L
2504 3162 L
2507 2982 L
2511 3128 L
2514 3124 L
2518 2947 L
2521 2959 L
2525 2826 L
2528 2802 L
2531 3040 L
2534 2940 L
2538 3046 L
2541 2736 L
2544 2862 L
2547 2907 L
2550 2931 L
2553 2886 L
2556 2841 L
2559 2717 L
2561 2714 L
2564 2818 L
2567 2839 L
2570 2873 L
2580 2630 L
2590 2560 L
2600 2526 L
2609 2298 L
2618 2524 L
2627 2601 L
2635 2436 L
2643 2447 L
2650 2384 L
2658 2496 L
2665 2110 L
2672 2419 L
2678 2251 L
2685 2196 L
2691 2076 L
2697 2099 L
2703 2194 L
2709 2148 L
2714 2016 L
2720 2110 L
2725 2159 L
2730 2306 L
2735 2061 L
2740 2148 L
2745 2251 L
2750 2110 L
2755 2148 L
2759 2066 L
2764 2132 L
2768 2076 L
2772 2122 L
2777 1938 L
2781 1859 L
2785 1925 L
2789 1833 L
2793 1972 L
2796 1858 L
2800 2137 L
2804 2073 L
2808 2096 L
2811 2025 L
2815 2160 L
2818 2207 L
2822 1949 L
2825 2052 L
2828 2167 L
2831 1954 L
2835 2288 L
2838 2062 L
2841 1942 L
2844 2221 L
2847 2239 L
2850 2222 L
2853 2095 L
2856 1850 L
2859 2317 L
2862 2120 L
2864 2071 L
2867 2046 L
2870 2313 L
2873 2153 L
2875 2124 L
2878 2454 L
2880 2015 L
2883 1988 L
2886 2143 L
2888 2131 L
2891 2187 L
2893 2102 L
2895 1984 L
2898 2197 L
2900 2323 L
2902 2201 L
2905 2171 L
2907 2095 L
2909 2064 L
2912 2375 L
2914 2225 L
2916 2052 L
2918 2307 L
2920 2123 L
2922 2132 L
2925 2394 L
2927 2201 L
2929 2201 L
2931 2462 L
2933 2290 L
2935 2238 L
2937 2367 L
2939 2418 L
2941 2305 L
2943 2186 L
2945 2295 L
2947 2542 L
2948 2410 L
2950 2186 L
2952 2501 L
2954 2467 L
2956 2297 L
2958 2168 L
2959 2483 L
2961 2500 L
2963 2351 L
2965 2115 L
2966 2486 L
2968 2394 L
2970 2427 L
2972 2621 L
2973 2370 L
2975 2462 L
2977 2568 L
2978 2380 L
2980 2450 L
2982 2394 L
2983 2534 L
2985 2567 L
2986 2453 L
2988 2393 L
2989 2378 L
2991 2402 L
2993 2510 L
2994 2685 L
2996 2489 L
2997 2556 L
2999 2269 L
3000 2597 L
3002 2438 L
3003 2595 L
3005 2512 L
3006 2432 L
3007 2697 L
3009 2674 L
3010 2461 L
3012 2549 L
3013 2627 L
3014 2700 L
3016 2470 L
3017 2665 L
3019 2737 L
3020 2618 L
3021 2577 L
3023 2409 L
3024 2636 L
3025 2424 L
3027 2581 L
3028 2646 L
3029 2636 L
3031 2707 L
3032 2677 L
3033 2509 L
3034 2850 L
3036 2565 L
3037 2543 L
3038 2815 L
3039 2656 L
3041 2631 L
3042 2680 L
3043 2451 L
3044 2529 L
3045 2854 L
3047 2789 L
3048 2730 L
3049 2879 L
3050 2620 L
3051 2547 L
3053 2602 L
3054 2868 L
3055 2748 L
3056 2600 L
3057 2666 L
3058 2812 L
3059 2725 L
3061 2729 L
3062 2529 L
3063 2815 L
3064 2919 L
3065 2707 L
3066 2679 L
3067 2727 L
3068 2783 L
3069 2727 L
3070 2749 L
3071 2789 L
3073 2572 L
3074 2875 L
3075 2795 L
3076 2742 L
3077 2800 L
3078 2899 L
3079 2536 L
3080 2676 L
3081 2760 L
3082 2907 L
3083 2718 L
3084 2816 L
3085 2751 L
3086 2814 L
3087 2819 L
3088 2511 L
3089 2969 L
3112 2838 L
3133 3049 L
3152 2859 L
3170 2825 L
3186 3105 L
3201 3096 L
3216 2983 L
3229 2931 L
3241 3185 L
3253 3030 L
3264 3106 L
3275 2883 L
3285 3069 L
3295 3008 L
3304 3081 L
3313 3050 L
3322 3140 L
3330 3064 L
3338 2984 L
3346 3148 L
3353 3054 L
3360 3071 L
3367 3109 L
3374 3165 L
3380 3067 L
3387 2970 L
3393 3192 L
3399 3048 L
3405 3277 L
3410 3423 L
3416 3192 L
3421 3095 L
3426 3008 L
3431 3259 L
3436 3164 L
3441 2984 L
3446 3068 L
3451 3123 L
3455 3290 L
3460 3343 L
3464 3008 L
3469 2997 L
3473 3050 L
3477 3189 L
3481 3092 L
3485 3230 L
3489 3181 L
3493 3081 L
3496 3093 L
3500 3076 L
3504 3087 L
3507 3099 L
3511 2962 L
3514 3032 L
3518 3370 L
3521 3039 L
3525 3115 L
3528 2936 L
3531 2960 L
3534 3100 L
3537 3024 L
3540 3058 L
3543 3005 L
3546 3110 L
3549 3209 L
3552 2970 L
3555 3356 L
3558 3023 L
3561 3063 L
3564 3174 L
3566 2965 L
3575 2915 L
3586 3157 L
3595 3215 L
3605 2879 L
3613 3087 L
3622 2899 L
3630 2943 L
3638 3179 L
3646 3043 L
3653 3002 L
3660 2875 L
3667 2989 L
3674 3019 L
3681 3180 L
3687 3095 L
3693 2914 L
3699 2995 L
3705 2994 L
3710 3083 L
3716 2802 L
3721 2931 L
3727 2879 L
3732 2858 L
3737 2992 L
3742 2886 L
3746 2861 L
3751 3047 L
3756 3238 L
3760 3099 L
3764 2975 L
3769 2786 L
3773 3052 L
3777 2759 L
3781 2951 L
3785 3019 L
3789 2892 L
3793 2940 L
3797 3008 L
3800 3016 L
3804 2849 L
3808 2778 L
3811 2772 L
3815 2773 L
3818 2877 L
3821 2880 L
3825 2747 L
3828 2834 L
3831 2842 L
3834 2637 L
3838 2837 L
3841 2923 L
3844 2906 L
3847 2799 L
3850 2842 L
3853 2798 L
3855 2936 L
3858 2806 L
3861 2898 L
3864 3068 L
3867 2938 L
3869 2809 L
3872 2944 L
3875 2876 L
3877 2882 L
3880 2912 L
3882 2644 L
3885 2695 L
3887 2843 L
3890 2938 L
3892 2878 L
3895 2765 L
3897 2793 L
3899 2830 L
3902 2921 L
3904 2822 L
3906 3022 L
3908 2912 L
3911 2857 L
3913 3047 L
3915 2936 L
3917 2848 L
3919 2865 L
3921 2866 L
3923 2813 L
3926 2694 L
3928 2960 L
3930 2742 L
3932 2979 L
3934 3005 L
3936 2883 L
3938 2795 L
3940 2803 L
3942 2965 L
3943 2997 L
3945 2828 L
3947 2892 L
3949 2984 L
3951 2869 L
3953 2833 L
3955 2840 L
3956 2745 L
3958 2602 L
3960 2676 L
3962 2691 L
3963 2694 L
3965 2795 L
3967 2770 L
3969 2865 L
3970 2951 L
3972 2801 L
3974 2818 L
3975 3016 L
3977 2897 L
3978 2741 L
3980 2898 L
3982 3117 L
3983 2736 L
3985 2830 L
3986 2933 L
3988 2608 L
3990 2661 L
3991 2680 L
3993 3014 L
3994 2898 L
3996 2746 L
3997 2820 L
3999 2675 L
4000 2807 L
4001 2499 L
4003 2931 L
4004 2772 L
4006 2653 L
4007 2621 L
4009 2946 L
4010 2802 L
4011 2576 L
4013 2935 L
4014 2888 L
4016 2937 L
4017 2660 L
4018 2803 L
4020 2669 L
4021 2731 L
4022 2929 L
4024 2671 L
4025 2835 L
4026 2656 L
4028 2569 L
4029 2763 L
4030 2791 L
4031 2854 L
4033 2824 L
4034 2854 L
4035 2853 L
4036 2984 L
4038 2918 L
4039 2883 L
4040 2772 L
4041 2770 L
4042 2634 L
4044 2690 L
4045 2807 L
4046 2786 L
4047 2818 L
4048 2754 L
4050 2891 L
4051 2718 L
4052 3067 L
4053 2697 L
4054 2873 L
4055 2720 L
4056 2699 L
4058 3003 L
4059 2777 L
4060 2792 L
4061 2769 L
4062 2938 L
4063 2970 L
4064 2760 L
4065 2812 L
4066 2673 L
L2 C06 COSGR

%
%================
% Legend - Begin
%================
%
GSN 4240 5180 M
4480 5180 L
LWMC SL  C06 COSGR
GSN 4540 5141 M helvM (3.0 uM) show grestore
%
%================
% Legend - End
%================
%

%
% Residuals:
%
GSN 773 1495 M
1625 1569 L
1773 1534 L
1860 1458 L
1922 1498 L
1970 1464 L
2009 1414 L
2043 1422 L
2072 1375 L
2097 1361 L
2120 1397 L
2140 1354 L
2159 1330 L
2176 1351 L
2192 1337 L
2207 1306 L
2221 1316 L
2234 1269 L
2247 1285 L
2259 1289 L
2270 1300 L
2280 1308 L
2290 1251 L
2300 1238 L
2309 1216 L
2318 1230 L
2326 1294 L
2335 1275 L
2342 1226 L
2350 1222 L
2357 1209 L
2364 1206 L
2371 1207 L
2378 1227 L
2384 1126 L
2391 1226 L
2397 1145 L
2403 1145 L
2409 1123 L
2414 1153 L
2420 1151 L
2425 1077 L
2430 1137 L
2435 1134 L
2440 1088 L
2445 1115 L
2450 1144 L
2455 1136 L
2459 1068 L
2464 1082 L
2468 1087 L
2472 1058 L
2476 1049 L
2481 1077 L
2485 1085 L
2489 1049 L
2492 1023 L
2496 1027 L
2500 1024 L
2504 1077 L
2507 1032 L
2511 1068 L
2514 1067 L
2518 1024 L
2521 1027 L
2525 994 L
2528 988 L
2531 1047 L
2534 1022 L
2538 1048 L
2541 972 L
2544 1003 L
2547 1014 L
2550 1020 L
2553 1009 L
2556 998 L
2559 967 L
2561 967 L
2564 992 L
2567 997 L
2570 1006 L
2580 946 L
2590 929 L
2600 921 L
2609 865 L
2618 920 L
2627 939 L
2635 898 L
2643 901 L
2650 886 L
2658 913 L
2665 818 L
2672 894 L
2678 853 L
2685 840 L
2691 810 L
2697 816 L
2703 839 L
2709 828 L
2714 795 L
2720 818 L
2725 831 L
2730 866 L
2735 807 L
2740 828 L
2745 853 L
2750 819 L
2755 828 L
2759 808 L
2764 824 L
2768 810 L
2772 821 L
2777 776 L
2781 757 L
2785 773 L
2789 750 L
2793 785 L
2796 757 L
2800 825 L
2804 809 L
2808 815 L
2811 798 L
2815 831 L
2818 842 L
2822 779 L
2825 804 L
2828 832 L
2831 780 L
2835 862 L
2838 807 L
2841 777 L
2844 846 L
2847 850 L
2850 846 L
2853 815 L
2856 755 L
2859 869 L
2862 821 L
2864 809 L
2867 803 L
2870 868 L
2873 829 L
2875 822 L
2878 903 L
2880 795 L
2883 789 L
2886 827 L
2888 824 L
2891 838 L
2893 817 L
2895 788 L
2898 840 L
2900 871 L
2902 841 L
2905 833 L
2907 815 L
2909 807 L
2912 884 L
2914 847 L
2916 804 L
2918 867 L
2920 822 L
2922 824 L
2925 888 L
2927 841 L
2929 841 L
2931 905 L
2933 863 L
2935 850 L
2937 882 L
2939 894 L
2941 866 L
2943 837 L
2945 864 L
2947 925 L
2948 892 L
2950 837 L
2952 915 L
2954 906 L
2956 864 L
2958 833 L
2959 910 L
2961 914 L
2963 878 L
2965 820 L
2966 911 L
2968 888 L
2970 896 L
2972 944 L
2973 883 L
2975 905 L
2977 931 L
2978 885 L
2980 902 L
2982 888 L
2983 923 L
2985 931 L
2986 903 L
2988 888 L
2989 884 L
2991 890 L
2993 917 L
2994 960 L
2996 912 L
2997 928 L
2999 858 L
3000 938 L
3002 899 L
3003 938 L
3005 917 L
3006 898 L
3007 963 L
3009 957 L
3010 905 L
3012 926 L
3013 946 L
3014 964 L
3016 907 L
3017 955 L
3019 973 L
3020 943 L
3021 933 L
3023 892 L
3024 948 L
3025 896 L
3027 934 L
3028 950 L
3029 948 L
3031 965 L
3032 958 L
3033 917 L
3034 1000 L
3036 930 L
3037 925 L
3038 992 L
3039 953 L
3041 947 L
3042 959 L
3043 902 L
3044 922 L
3045 1002 L
3047 985 L
3048 971 L
3049 1008 L
3050 944 L
3051 926 L
3053 939 L
3054 1005 L
3055 975 L
3056 939 L
3057 955 L
3058 991 L
3059 970 L
3061 971 L
3062 922 L
3063 992 L
3064 1017 L
3065 965 L
3066 958 L
3067 970 L
3068 984 L
3069 970 L
3070 976 L
3071 985 L
3073 932 L
3074 1007 L
3075 987 L
3076 974 L
3077 988 L
3078 1013 L
3079 923 L
3080 958 L
3081 978 L
3082 1015 L
3083 968 L
3084 992 L
3085 976 L
3086 992 L
3087 993 L
3088 917 L
3089 1030 L
3112 998 L
3133 1050 L
3152 1003 L
3170 995 L
3186 1063 L
3201 1061 L
3216 1034 L
3229 1021 L
3241 1083 L
3253 1045 L
3264 1064 L
3275 1009 L
3285 1055 L
3295 1040 L
3304 1058 L
3313 1051 L
3322 1073 L
3330 1054 L
3338 1035 L
3346 1075 L
3353 1052 L
3360 1056 L
3367 1066 L
3374 1080 L
3380 1056 L
3387 1032 L
3393 1086 L
3399 1051 L
3405 1107 L
3410 1143 L
3416 1086 L
3421 1063 L
3426 1041 L
3431 1103 L
3436 1080 L
3441 1036 L
3446 1057 L
3451 1070 L
3455 1111 L
3460 1124 L
3464 1042 L
3469 1039 L
3473 1053 L
3477 1087 L
3481 1063 L
3485 1097 L
3489 1085 L
3493 1060 L
3496 1063 L
3500 1059 L
3504 1062 L
3507 1065 L
3511 1032 L
3514 1049 L
3518 1132 L
3521 1051 L
3525 1070 L
3528 1025 L
3531 1031 L
3534 1066 L
3537 1047 L
3540 1056 L
3543 1043 L
3546 1069 L
3549 1093 L
3552 1035 L
3555 1129 L
3558 1047 L
3561 1058 L
3564 1085 L
3566 1034 L
3575 1021 L
3586 1081 L
3595 1096 L
3605 1014 L
3613 1065 L
3622 1019 L
3630 1030 L
3638 1088 L
3646 1055 L
3653 1045 L
3660 1014 L
3667 1043 L
3674 1050 L
3681 1090 L
3687 1069 L
3693 1025 L
3699 1045 L
3705 1045 L
3710 1068 L
3716 999 L
3721 1031 L
3727 1018 L
3732 1013 L
3737 1047 L
3742 1021 L
3746 1015 L
3751 1061 L
3756 1108 L
3760 1074 L
3764 1044 L
3769 998 L
3773 1063 L
3777 992 L
3781 1039 L
3785 1056 L
3789 1025 L
3793 1037 L
3797 1054 L
3800 1056 L
3804 1016 L
3808 999 L
3811 997 L
3815 998 L
3818 1024 L
3821 1025 L
3825 992 L
3828 1014 L
3831 1016 L
3834 966 L
3838 1015 L
3841 1037 L
3844 1033 L
3847 1007 L
3850 1018 L
3853 1007 L
3855 1041 L
3858 1010 L
3861 1033 L
3864 1075 L
3867 1043 L
3869 1011 L
3872 1045 L
3875 1028 L
3877 1030 L
3880 1038 L
3882 972 L
3885 985 L
3887 1022 L
3890 1045 L
3892 1031 L
3895 1003 L
3897 1011 L
3899 1020 L
3902 1042 L
3904 1018 L
3906 1068 L
3908 1041 L
3911 1028 L
3913 1075 L
3915 1048 L
3917 1026 L
3919 1031 L
3921 1031 L
3923 1019 L
3926 990 L
3928 1055 L
3930 1002 L
3932 1061 L
3934 1067 L
3936 1037 L
3938 1016 L
3940 1018 L
3942 1058 L
3943 1066 L
3945 1025 L
3947 1041 L
3949 1064 L
3951 1036 L
3953 1027 L
3955 1030 L
3956 1006 L
3958 972 L
3960 990 L
3962 994 L
3963 995 L
3965 1020 L
3967 1014 L
3969 1038 L
3970 1059 L
3972 1022 L
3974 1027 L
3975 1076 L
3977 1047 L
3978 1009 L
3980 1048 L
3982 1102 L
3983 1008 L
3985 1032 L
3986 1057 L
3988 978 L
3990 991 L
3991 996 L
3993 1078 L
3994 1050 L
3996 1013 L
3997 1031 L
3999 996 L
4000 1029 L
4001 953 L
4003 1060 L
4004 1021 L
4006 992 L
4007 984 L
4009 1064 L
4010 1030 L
4011 974 L
4013 1063 L
4014 1051 L
4016 1064 L
4017 996 L
4018 1031 L
4020 999 L
4021 1014 L
4022 1063 L
4024 1000 L
4025 1041 L
4026 997 L
4028 976 L
4029 1024 L
4030 1031 L
4031 1047 L
4033 1039 L
4034 1047 L
4035 1047 L
4036 1079 L
4038 1064 L
4039 1055 L
4040 1028 L
4041 1028 L
4042 995 L
4044 1009 L
4045 1038 L
4046 1033 L
4047 1041 L
4048 1026 L
4050 1059 L
4051 1017 L
4052 1103 L
4053 1013 L
4054 1056 L
4055 1019 L
4056 1014 L
4058 1089 L
4059 1034 L
4060 1038 L
4061 1032 L
4062 1074 L
4063 1082 L
4064 1031 L
4065 1044 L
4066 1010 L
L2 C06 COSGR

%
% Main frame
%
L10
GSN 
620 1700 M
4220 1700 L
4220 5300 L
620 5300 L
closepath SGR

%
% X axis: large tics
%
L10
GSN 1074 1700 M 0  54 rL SGR
GSN 1074 5300 M 0 -54 rL SGR
helvS (0.0001) 1074 470 xlabel
GSN 1572 1700 M 0  54 rL SGR
GSN 1572 5300 M 0 -54 rL SGR
helvS (0.001) 1572 470 xlabel
GSN 2071 1700 M 0  54 rL SGR
GSN 2071 5300 M 0 -54 rL SGR
helvS (0.01) 2071 470 xlabel
GSN 2570 1700 M 0  54 rL SGR
GSN 2570 5300 M 0 -54 rL SGR
helvS (0.1) 2570 470 xlabel
GSN 3068 1700 M 0  54 rL SGR
GSN 3068 5300 M 0 -54 rL SGR
helvS (1) 3068 470 xlabel
GSN 3567 1700 M 0  54 rL SGR
GSN 3567 5300 M 0 -54 rL SGR
helvS (10) 3567 470 xlabel
GSN 4066 1700 M 0  54 rL SGR
GSN 4066 5300 M 0 -54 rL SGR
helvS (100) 4066 470 xlabel
%
% X axis: small tics
%
L5
GSN 725 1700 M 0  36 rL SGR
GSN 725 5300 M 0 -36 rL SGR
GSN 813 1700 M 0  36 rL SGR
GSN 813 5300 M 0 -36 rL SGR
GSN 875 1700 M 0  36 rL SGR
GSN 875 5300 M 0 -36 rL SGR
GSN 924 1700 M 0  36 rL SGR
GSN 924 5300 M 0 -36 rL SGR
GSN 963 1700 M 0  36 rL SGR
GSN 963 5300 M 0 -36 rL SGR
GSN 996 1700 M 0  36 rL SGR
GSN 996 5300 M 0 -36 rL SGR
GSN 1025 1700 M 0  36 rL SGR
GSN 1025 5300 M 0 -36 rL SGR
GSN 1051 1700 M 0  36 rL SGR
GSN 1051 5300 M 0 -36 rL SGR
GSN 1224 1700 M 0  36 rL SGR
GSN 1224 5300 M 0 -36 rL SGR
GSN 1312 1700 M 0  36 rL SGR
GSN 1312 5300 M 0 -36 rL SGR
GSN 1374 1700 M 0  36 rL SGR
GSN 1374 5300 M 0 -36 rL SGR
GSN 1422 1700 M 0  36 rL SGR
GSN 1422 5300 M 0 -36 rL SGR
GSN 1462 1700 M 0  36 rL SGR
GSN 1462 5300 M 0 -36 rL SGR
GSN 1495 1700 M 0  36 rL SGR
GSN 1495 5300 M 0 -36 rL SGR
GSN 1524 1700 M 0  36 rL SGR
GSN 1524 5300 M 0 -36 rL SGR
GSN 1550 1700 M 0  36 rL SGR
GSN 1550 5300 M 0 -36 rL SGR
GSN 1722 1700 M 0  36 rL SGR
GSN 1722 5300 M 0 -36 rL SGR
GSN 1810 1700 M 0  36 rL SGR
GSN 1810 5300 M 0 -36 rL SGR
GSN 1873 1700 M 0  36 rL SGR
GSN 1873 5300 M 0 -36 rL SGR
GSN 1921 1700 M 0  36 rL SGR
GSN 1921 5300 M 0 -36 rL SGR
GSN 1960 1700 M 0  36 rL SGR
GSN 1960 5300 M 0 -36 rL SGR
GSN 1994 1700 M 0  36 rL SGR
GSN 1994 5300 M 0 -36 rL SGR
GSN 2023 1700 M 0  36 rL SGR
GSN 2023 5300 M 0 -36 rL SGR
GSN 2048 1700 M 0  36 rL SGR
GSN 2048 5300 M 0 -36 rL SGR
GSN 2221 1700 M 0  36 rL SGR
GSN 2221 5300 M 0 -36 rL SGR
GSN 2309 1700 M 0  36 rL SGR
GSN 2309 5300 M 0 -36 rL SGR
GSN 2371 1700 M 0  36 rL SGR
GSN 2371 5300 M 0 -36 rL SGR
GSN 2420 1700 M 0  36 rL SGR
GSN 2420 5300 M 0 -36 rL SGR
GSN 2459 1700 M 0  36 rL SGR
GSN 2459 5300 M 0 -36 rL SGR
GSN 2492 1700 M 0  36 rL SGR
GSN 2492 5300 M 0 -36 rL SGR
GSN 2521 1700 M 0  36 rL SGR
GSN 2521 5300 M 0 -36 rL SGR
GSN 2547 1700 M 0  36 rL SGR
GSN 2547 5300 M 0 -36 rL SGR
GSN 2720 1700 M 0  36 rL SGR
GSN 2720 5300 M 0 -36 rL SGR
GSN 2808 1700 M 0  36 rL SGR
GSN 2808 5300 M 0 -36 rL SGR
GSN 2870 1700 M 0  36 rL SGR
GSN 2870 5300 M 0 -36 rL SGR
GSN 2918 1700 M 0  36 rL SGR
GSN 2918 5300 M 0 -36 rL SGR
GSN 2958 1700 M 0  36 rL SGR
GSN 2958 5300 M 0 -36 rL SGR
GSN 2991 1700 M 0  36 rL SGR
GSN 2991 5300 M 0 -36 rL SGR
GSN 3020 1700 M 0  36 rL SGR
GSN 3020 5300 M 0 -36 rL SGR
GSN 3045 1700 M 0  36 rL SGR
GSN 3045 5300 M 0 -36 rL SGR
GSN 3218 1700 M 0  36 rL SGR
GSN 3218 5300 M 0 -36 rL SGR
GSN 3306 1700 M 0  36 rL SGR
GSN 3306 5300 M 0 -36 rL SGR
GSN 3368 1700 M 0  36 rL SGR
GSN 3368 5300 M 0 -36 rL SGR
GSN 3417 1700 M 0  36 rL SGR
GSN 3417 5300 M 0 -36 rL SGR
GSN 3456 1700 M 0  36 rL SGR
GSN 3456 5300 M 0 -36 rL SGR
GSN 3490 1700 M 0  36 rL SGR
GSN 3490 5300 M 0 -36 rL SGR
GSN 3519 1700 M 0  36 rL SGR
GSN 3519 5300 M 0 -36 rL SGR
GSN 3544 1700 M 0  36 rL SGR
GSN 3544 5300 M 0 -36 rL SGR
GSN 3717 1700 M 0  36 rL SGR
GSN 3717 5300 M 0 -36 rL SGR
GSN 3805 1700 M 0  36 rL SGR
GSN 3805 5300 M 0 -36 rL SGR
GSN 3867 1700 M 0  36 rL SGR
GSN 3867 5300 M 0 -36 rL SGR
GSN 3915 1700 M 0  36 rL SGR
GSN 3915 5300 M 0 -36 rL SGR
GSN 3955 1700 M 0  36 rL SGR
GSN 3955 5300 M 0 -36 rL SGR
GSN 3988 1700 M 0  36 rL SGR
GSN 3988 5300 M 0 -36 rL SGR
GSN 4017 1700 M 0  36 rL SGR
GSN 4017 5300 M 0 -36 rL SGR
GSN 4043 1700 M 0  36 rL SGR
GSN 4043 5300 M 0 -36 rL SGR
GSN 4216 1700 M 0  36 rL SGR
GSN 4216 5300 M 0 -36 rL SGR
%
% Y axis: large tics
%
L10
GSN 620 2378 M 54 0 rL SGR
GSN 4220 2378 M -54 0 rL SGR
helvS (0.92) 560 2378 ylabel
GSN 620 3247 M 54 0 rL SGR
GSN 4220 3247 M -54 0 rL SGR
helvS (0.94) 560 3247 ylabel
GSN 620 4115 M 54 0 rL SGR
GSN 4220 4115 M -54 0 rL SGR
helvS (0.96) 560 4115 ylabel
GSN 620 4984 M 54 0 rL SGR
GSN 4220 4984 M -54 0 rL SGR
helvS (0.98) 560 4984 ylabel
%
% Y axis: small tics
%
L5
GSN 620 1727 M 36 0 rL SGR
GSN 4220 1727 M -36 0 rL SGR
GSN 620 1944 M 36 0 rL SGR
GSN 4220 1944 M -36 0 rL SGR
GSN 620 2161 M 36 0 rL SGR
GSN 4220 2161 M -36 0 rL SGR
GSN 620 2378 M 36 0 rL SGR
GSN 4220 2378 M -36 0 rL SGR
GSN 620 2595 M 36 0 rL SGR
GSN 4220 2595 M -36 0 rL SGR
GSN 620 2812 M 36 0 rL SGR
GSN 4220 2812 M -36 0 rL SGR
GSN 620 3030 M 36 0 rL SGR
GSN 4220 3030 M -36 0 rL SGR
GSN 620 3247 M 36 0 rL SGR
GSN 4220 3247 M -36 0 rL SGR
GSN 620 3464 M 36 0 rL SGR
GSN 4220 3464 M -36 0 rL SGR
GSN 620 3681 M 36 0 rL SGR
GSN 4220 3681 M -36 0 rL SGR
GSN 620 3898 M 36 0 rL SGR
GSN 4220 3898 M -36 0 rL SGR
GSN 620 4115 M 36 0 rL SGR
GSN 4220 4115 M -36 0 rL SGR
GSN 620 4333 M 36 0 rL SGR
GSN 4220 4333 M -36 0 rL SGR
GSN 620 4550 M 36 0 rL SGR
GSN 4220 4550 M -36 0 rL SGR
GSN 620 4767 M 36 0 rL SGR
GSN 4220 4767 M -36 0 rL SGR
GSN 620 4984 M 36 0 rL SGR
GSN 4220 4984 M -36 0 rL SGR
GSN 620 5201 M 36 0 rL SGR
GSN 4220 5201 M -36 0 rL SGR

%
% X-Axis label:
%
gsave 2420 290 M 
[
[(Helvetica) 180 0 true true 0 (t)]
[(Helvetica) 180 0 true true 0 (i)]
[(Helvetica) 180 0 true true 0 (m)]
[(Helvetica) 180 0 true true 0 (e)]
] 0 MCshow grestore

%
% Y-Axis label:
%
gsave 234 3500 M 
currentpoint gsave translate 90 rotate 0 0 moveto
[
[(Helvetica) 180 0 true true 0 (s)]
[(Helvetica) 180 0 true true 0 (i)]
[(Helvetica) 180 0 true true 0 (g)]
[(Helvetica) 180 0 true true 0 (n)]
[(Helvetica) 180 0 true true 0 (a)]
[(Helvetica) 180 0 true true 0 (l)]
] 0 MCshow grestore

%
% Residuals:
%
gsave 129 1160 M 
currentpoint gsave translate 90 rotate 0 0 moveto
[
[(Helvetica) 150 0 true true 0 (r)]
[(Helvetica) 150 0 true true 0 (e)]
[(Helvetica) 150 0 true true 0 (s)]
[(Helvetica) 150 0 true true 0 (i)]
[(Helvetica) 150 0 true true 0 (d)]
[(Helvetica) 150 0 true true 0 (u)]
[(Helvetica) 150 0 true true 0 (a)]
[(Helvetica) 150 0 true true 0 (l)]
[(Helvetica) 150 0 true true 0 (s)]
] 0 MCshow grestore

%
% Residual frame
%
L10
GSN 
620 620 M
4220 620 L
4220 1700 L
620 1700 L
closepath SGR
%
% X axis: large tics - residual frame
%
L10
GSN 1074 620 M 0  54 rL SGR
GSN 1074 1700 M 0 -54 rL SGR
GSN 1572 620 M 0  54 rL SGR
GSN 1572 1700 M 0 -54 rL SGR
GSN 2071 620 M 0  54 rL SGR
GSN 2071 1700 M 0 -54 rL SGR
GSN 2570 620 M 0  54 rL SGR
GSN 2570 1700 M 0 -54 rL SGR
GSN 3068 620 M 0  54 rL SGR
GSN 3068 1700 M 0 -54 rL SGR
GSN 3567 620 M 0  54 rL SGR
GSN 3567 1700 M 0 -54 rL SGR
GSN 4066 620 M 0  54 rL SGR
GSN 4066 1700 M 0 -54 rL SGR
%
% X axis: small tics - residual frame
%
L5
GSN 725 620 M 0  36 rL SGR
GSN 725 1700 M 0 -36 rL SGR
GSN 813 620 M 0  36 rL SGR
GSN 813 1700 M 0 -36 rL SGR
GSN 875 620 M 0  36 rL SGR
GSN 875 1700 M 0 -36 rL SGR
GSN 924 620 M 0  36 rL SGR
GSN 924 1700 M 0 -36 rL SGR
GSN 963 620 M 0  36 rL SGR
GSN 963 1700 M 0 -36 rL SGR
GSN 996 620 M 0  36 rL SGR
GSN 996 1700 M 0 -36 rL SGR
GSN 1025 620 M 0  36 rL SGR
GSN 1025 1700 M 0 -36 rL SGR
GSN 1051 620 M 0  36 rL SGR
GSN 1051 1700 M 0 -36 rL SGR
GSN 1224 620 M 0  36 rL SGR
GSN 1224 1700 M 0 -36 rL SGR
GSN 1312 620 M 0  36 rL SGR
GSN 1312 1700 M 0 -36 rL SGR
GSN 1374 620 M 0  36 rL SGR
GSN 1374 1700 M 0 -36 rL SGR
GSN 1422 620 M 0  36 rL SGR
GSN 1422 1700 M 0 -36 rL SGR
GSN 1462 620 M 0  36 rL SGR
GSN 1462 1700 M 0 -36 rL SGR
GSN 1495 620 M 0  36 rL SGR
GSN 1495 1700 M 0 -36 rL SGR
GSN 1524 620 M 0  36 rL SGR
GSN 1524 1700 M 0 -36 rL SGR
GSN 1550 620 M 0  36 rL SGR
GSN 1550 1700 M 0 -36 rL SGR
GSN 1722 620 M 0  36 rL SGR
GSN 1722 1700 M 0 -36 rL SGR
GSN 1810 620 M 0  36 rL SGR
GSN 1810 1700 M 0 -36 rL SGR
GSN 1873 620 M 0  36 rL SGR
GSN 1873 1700 M 0 -36 rL SGR
GSN 1921 620 M 0  36 rL SGR
GSN 1921 1700 M 0 -36 rL SGR
GSN 1960 620 M 0  36 rL SGR
GSN 1960 1700 M 0 -36 rL SGR
GSN 1994 620 M 0  36 rL SGR
GSN 1994 1700 M 0 -36 rL SGR
GSN 2023 620 M 0  36 rL SGR
GSN 2023 1700 M 0 -36 rL SGR
GSN 2048 620 M 0  36 rL SGR
GSN 2048 1700 M 0 -36 rL SGR
GSN 2221 620 M 0  36 rL SGR
GSN 2221 1700 M 0 -36 rL SGR
GSN 2309 620 M 0  36 rL SGR
GSN 2309 1700 M 0 -36 rL SGR
GSN 2371 620 M 0  36 rL SGR
GSN 2371 1700 M 0 -36 rL SGR
GSN 2420 620 M 0  36 rL SGR
GSN 2420 1700 M 0 -36 rL SGR
GSN 2459 620 M 0  36 rL SGR
GSN 2459 1700 M 0 -36 rL SGR
GSN 2492 620 M 0  36 rL SGR
GSN 2492 1700 M 0 -36 rL SGR
GSN 2521 620 M 0  36 rL SGR
GSN 2521 1700 M 0 -36 rL SGR
GSN 2547 620 M 0  36 rL SGR
GSN 2547 1700 M 0 -36 rL SGR
GSN 2720 620 M 0  36 rL SGR
GSN 2720 1700 M 0 -36 rL SGR
GSN 2808 620 M 0  36 rL SGR
GSN 2808 1700 M 0 -36 rL SGR
GSN 2870 620 M 0  36 rL SGR
GSN 2870 1700 M 0 -36 rL SGR
GSN 2918 620 M 0  36 rL SGR
GSN 2918 1700 M 0 -36 rL SGR
GSN 2958 620 M 0  36 rL SGR
GSN 2958 1700 M 0 -36 rL SGR
GSN 2991 620 M 0  36 rL SGR
GSN 2991 1700 M 0 -36 rL SGR
GSN 3020 620 M 0  36 rL SGR
GSN 3020 1700 M 0 -36 rL SGR
GSN 3045 620 M 0  36 rL SGR
GSN 3045 1700 M 0 -36 rL SGR
GSN 3218 620 M 0  36 rL SGR
GSN 3218 1700 M 0 -36 rL SGR
GSN 3306 620 M 0  36 rL SGR
GSN 3306 1700 M 0 -36 rL SGR
GSN 3368 620 M 0  36 rL SGR
GSN 3368 1700 M 0 -36 rL SGR
GSN 3417 620 M 0  36 rL SGR
GSN 3417 1700 M 0 -36 rL SGR
GSN 3456 620 M 0  36 rL SGR
GSN 3456 1700 M 0 -36 rL SGR
GSN 3490 620 M 0  36 rL SGR
GSN 3490 1700 M 0 -36 rL SGR
GSN 3519 620 M 0  36 rL SGR
GSN 3519 1700 M 0 -36 rL SGR
GSN 3544 620 M 0  36 rL SGR
GSN 3544 1700 M 0 -36 rL SGR
GSN 3717 620 M 0  36 rL SGR
GSN 3717 1700 M 0 -36 rL SGR
GSN 3805 620 M 0  36 rL SGR
GSN 3805 1700 M 0 -36 rL SGR
GSN 3867 620 M 0  36 rL SGR
GSN 3867 1700 M 0 -36 rL SGR
GSN 3915 620 M 0  36 rL SGR
GSN 3915 1700 M 0 -36 rL SGR
GSN 3955 620 M 0  36 rL SGR
GSN 3955 1700 M 0 -36 rL SGR
GSN 3988 620 M 0  36 rL SGR
GSN 3988 1700 M 0 -36 rL SGR
GSN 4017 620 M 0  36 rL SGR
GSN 4017 1700 M 0 -36 rL SGR
GSN 4043 620 M 0  36 rL SGR
GSN 4043 1700 M 0 -36 rL SGR
GSN 4216 620 M 0  36 rL SGR
GSN 4216 1700 M 0 -36 rL SGR
%
% Y axis: large tics - residual frame
%
L10
GSN 620 738 M 54 0 rL SGR
GSN 4220 738 M -54 0 rL SGR
helvS (-0.025) 560 738 ylabelresid
GSN 620 1005 M 54 0 rL SGR
GSN 4220 1005 M -54 0 rL SGR
helvS (0) 560 1005 ylabelresid
GSN 620 1271 M 54 0 rL SGR
GSN 4220 1271 M -54 0 rL SGR
helvS (0.025) 560 1271 ylabelresid
GSN 620 1538 M 54 0 rL SGR
GSN 4220 1538 M -54 0 rL SGR
helvS (0.05) 560 1538 ylabelresid

%
% X axis - residual panel
%
GSN L5 620 1005 M 4220 1005 L SDA G50 SGR

end
showpage
%%Trailer
%%EOF
