%!PS-Adobe-3.0 EPSF-3.0
%%BoundingBox: 0 0 514 550
%%Creator: BioKin Ltd.
%%DocumentFonts: Symbol Helvetica
%%EndComments
%
/bkdict 256 dict def
bkdict begin
/M {moveto} def 
/R {rmoveto} def
/L {lineto} def
/rL {rlineto} def
/GSN {gsave newpath} def
/SGR {stroke grestore} def
/COSGR {gsave setrgbcolor stroke grestore grestore} def
/SL {setlinewidth} def
/LWMB {12} def             % line width - model curves, black & white
/LWMC {10} def             % line width - model curves, color
/L2 {2.5 setlinewidth} def
/L5 {5 setlinewidth} def
/L10 {10 setlinewidth} def
/G50 {0.5 setgray} def
/SDA {[10  20] 0 setdash} def % axes
/helvT {/Helvetica findfont 100 scalefont setfont} def % tiny
/helvS {/Helvetica findfont 125 scalefont setfont} def % small
/helvM {/Helvetica findfont 150 scalefont setfont} def % medium
/helvL {/Helvetica findfont 175 scalefont setfont} def % large
/xlabel {gsave M dup
   stringwidth exch -0.5 mul exch rmoveto show grestore} def 
/ylabel {gsave M 90 rotate dup
   stringwidth exch -0.5 mul exch rmoveto show grestore} def
/ylabelresid {gsave M dup
   stringwidth exch -1 mul exch rmoveto show grestore} def
% ======
% Shapes
% ======
% Circle:
/Circ {0 360 arc closepath} def
%
% Square:
/Squa {dup dup -0.5 mul dup dup R -2 mul 0 exch rL 1 mul 0 rL dup 0 exch -1 mul rL closepath} def
%
% Triangle Up:
/TriU {dup dup dup -0.4 mul exch -0.5 mul exch R dup 0.5 mul exch rL dup -1 mul exch 0.5 mul exch rL closepath} def 
%
% Triangle Down:
/TriD {dup dup dup 0.4 mul exch -0.5 mul exch R dup 0.5 mul exch -1 mul rL dup 0.5 mul exch rL closepath} def 
%
% Diamond:
/Diam {45 rotate Squa} def
% ======
% Fills
% ======
/GRF {gsave setgray fill grestore} def                    % gray-level Fill
/COF {gsave setrgbcolor fill grestore} def                % color fill
% ======
% Colors
% ======
/C01 {1.00	0.00	0.00} def      % Red
/C02 {0.00	0.00	1.00} def      % Blue
/C03 {0.00	0.39	0.00} def      % Dark Green
/C04 {0.78	0.08	0.52} def      % Medium Violet Red
/C05 {0.55	0.27	0.07} def      % Saddle Brown
/C06 {0.10	0.70	0.70} def      % (cyan)
/C07 {1.00	0.55	0.00} def      % Dark Orange
/C08 {0.63	0.13	0.94} def      % Purple
/C09 {0.00	0.75	1.00} def      % Deep Sky Blue
/C10 {0.20	0.80	0.20} def      % Lime Green
/C11 {0.47	0.53	0.60} def      % Light Slate Gray
/C12 {0.00	0.00	0.00} def      % Black            % or: {0.19	0.31	0.31} def      % Dark Slate Gray
%
/LGR {0.75} def % light gray
/DGR {0.33} def % dark gray
%
% =============
% Dash patterns
% =============
/dash01 { [80  20] 0 setdash } def
/dash02 { [40  20] 0 setdash } def
/dash03 { [80  20  10  20] 0 setdash } def
/dash04 { [40  20  10  20] 0 setdash } def
/dash05 { [80  20  10  10  10  20] 0 setdash } def
/dash06 { [40  20  10  10  10  20] 0 setdash } def
/dash07 { [10  10] 0 setdash } def
%
/MFshow {
   { dup 5 get 3 ge
     { 5 get 3 eq {gsave} {grestore} ifelse }
     {dup dup 0 get findfont exch 1 get scalefont setfont
     [ currentpoint ] exch dup 2 get 0 exch R dup 5 get 2 ne {dup dup 6
     get exch 4 get {show} {stringwidth pop 0 R} ifelse }if dup 5 get 0 eq
     {dup 3 get {2 get neg 0 exch R pop} {pop aload pop M} ifelse} {dup 5
     get 1 eq {dup 2 get exch dup 3 get exch 6 get stringwidth pop -2 div
     dup 0 R} {dup 6 get stringwidth pop -2 div 0 R 6 get
     show 2 index {aload pop M neg 3 -1 roll neg R pop pop} {pop pop pop
     pop aload pop M} ifelse }ifelse }ifelse }
     ifelse }
   forall} bind def
/MFwidth {0 exch {dup 3 get{dup dup 0 get findfont exch 1 get scalefont
     setfont 6 get stringwidth pop add} {pop} ifelse} forall} bind def
/MCshow { currentpoint stroke M
  exch dup MFwidth -2 div 3 -1 roll R MFshow } def
%
end
%%EndProlog
bkdict begin
0.1 0.1 scale
%
% Model curves:
%

GSN 753 5030 M
753 5030 L
786 5058 L
820 5083 L
853 5105 L
886 5123 L
920 5137 L
929 5141 L
953 5148 L
986 5156 L
1020 5161 L
1053 5165 L
1086 5166 L
1106 5166 L
1120 5166 L
1153 5166 L
1186 5164 L
1220 5163 L
1253 5161 L
1282 5159 L
1286 5159 L
1319 5156 L
1353 5153 L
1386 5150 L
1419 5146 L
1453 5142 L
1459 5141 L
1486 5137 L
1519 5131 L
1553 5125 L
1586 5118 L
1619 5110 L
1635 5106 L
1653 5101 L
1686 5090 L
1719 5078 L
1753 5065 L
1786 5050 L
1812 5036 L
1819 5032 L
1853 5013 L
1886 4991 L
1919 4966 L
1953 4938 L
1986 4907 L
1988 4905 L
2019 4872 L
2053 4833 L
2086 4789 L
2119 4740 L
2153 4686 L
2165 4665 L
2186 4627 L
2219 4561 L
2253 4489 L
2286 4411 L
2319 4327 L
2341 4268 L
2353 4237 L
2386 4141 L
2419 4040 L
2453 3934 L
2486 3826 L
2518 3721 L
2519 3716 L
2553 3606 L
2586 3498 L
2619 3395 L
2653 3297 L
2686 3208 L
2694 3187 L
2719 3128 L
2753 3059 L
2786 3000 L
2819 2952 L
2853 2914 L
2871 2897 L
2886 2884 L
2919 2859 L
2953 2839 L
2986 2821 L
3019 2805 L
3047 2792 L
3053 2789 L
3086 2773 L
3119 2757 L
3153 2741 L
3186 2724 L
3219 2709 L
3224 2707 L
3253 2694 L
3286 2680 L
3319 2667 L
3353 2656 L
3386 2647 L
3400 2643 L
3419 2639 L
3453 2634 L
3476 2631 L
3486 2629 L
3519 2626 L
3553 2625 L
3577 2624 L
3586 2624 L
3619 2623 L
3653 2623 L
3686 2623 L
3719 2622 L
3753 2622 L
3754 2622 L
3786 2622 L
3819 2622 L
3853 2622 L
3886 2622 L
3919 2622 L
3930 2622 L
3953 2622 L
3986 2622 L
4019 2622 L
4053 2622 L
4086 2622 L
4086 2622 L
LWMC SL  C05 COSGR

%
% Experimental data:
%
GSN 777 4533 M
1388 4352 L
1552 4142 L
1652 4146 L
1723 4306 L
1778 4216 L
1824 4108 L
1863 4017 L
1896 4187 L
1926 4114 L
1952 4056 L
1976 4029 L
1998 4094 L
2019 4092 L
2037 4047 L
2055 4228 L
2071 4076 L
2086 4045 L
2101 4120 L
2115 4159 L
2128 4176 L
2140 4066 L
2152 4028 L
2163 4163 L
2174 4158 L
2184 4008 L
2194 4008 L
2204 4053 L
2213 3949 L
2222 3929 L
2230 3965 L
2239 3910 L
2247 3932 L
2255 4098 L
2262 3894 L
2270 3927 L
2277 3955 L
2284 4006 L
2290 3968 L
2297 3935 L
2303 3935 L
2310 3913 L
2316 3924 L
2322 3823 L
2328 3753 L
2333 3884 L
2339 3937 L
2344 3879 L
2350 3812 L
2355 3660 L
2360 3744 L
2365 3788 L
2370 3748 L
2375 3801 L
2380 3843 L
2384 3857 L
2389 3750 L
2393 3689 L
2398 3731 L
2402 3665 L
2407 3658 L
2411 3642 L
2415 3661 L
2419 3680 L
2423 3688 L
2427 3659 L
2431 3666 L
2435 3514 L
2438 3615 L
2442 3562 L
2446 3856 L
2449 3720 L
2453 3569 L
2456 3544 L
2460 3680 L
2463 3649 L
2467 3659 L
2470 3635 L
2473 3649 L
2476 3577 L
2480 3659 L
2483 3646 L
2486 3635 L
2489 3430 L
2492 3821 L
2495 3508 L
2498 3636 L
2501 3466 L
2504 3509 L
2507 3624 L
2510 3525 L
2512 3446 L
2515 3578 L
2518 3677 L
2521 3379 L
2523 3517 L
2526 3510 L
2529 3508 L
2531 3464 L
2534 3579 L
2536 3495 L
2539 3447 L
2541 3405 L
2544 3430 L
2546 3416 L
2549 3395 L
2551 3517 L
2554 3391 L
2556 3376 L
2558 3275 L
2561 3314 L
2563 3585 L
2565 3406 L
2568 3202 L
2570 3515 L
2572 3340 L
2574 3347 L
2576 3583 L
2579 3397 L
2581 3435 L
2583 3493 L
2585 3443 L
2587 3403 L
2589 3490 L
2591 3386 L
2593 3332 L
2595 3295 L
2597 3271 L
2599 3203 L
2601 3305 L
2603 3374 L
2605 3334 L
2607 3199 L
2609 3431 L
2611 3314 L
2613 3295 L
2615 3414 L
2617 3476 L
2618 3354 L
2620 3396 L
2622 3341 L
2624 3233 L
2626 3233 L
2627 3332 L
2629 3460 L
2631 3318 L
2633 3244 L
2634 3297 L
2636 3122 L
2638 3321 L
2640 3314 L
2641 3229 L
2643 3208 L
2645 3203 L
2646 3219 L
2648 3229 L
2650 3250 L
2651 3269 L
2653 3320 L
2654 3206 L
2656 3147 L
2658 3291 L
2659 3254 L
2661 3166 L
2662 3172 L
2664 3058 L
2665 3245 L
2667 3109 L
2668 3048 L
2670 3114 L
2671 3133 L
2673 3176 L
2674 3076 L
2676 3116 L
2677 3076 L
2679 3117 L
2680 2999 L
2682 3042 L
2683 3229 L
2685 3060 L
2686 3039 L
2687 3155 L
2689 3195 L
2690 3081 L
2692 2995 L
2693 3141 L
2694 3131 L
2696 3023 L
2697 3066 L
2698 3072 L
2700 3210 L
2701 3058 L
2702 3080 L
2704 3021 L
2705 2864 L
2706 3132 L
2708 3115 L
2709 3102 L
2710 2904 L
2712 3039 L
2713 3097 L
2714 3069 L
2715 3044 L
2717 3021 L
2718 2999 L
2719 2995 L
2720 3019 L
2722 3143 L
2723 3096 L
2724 3007 L
2725 3097 L
2726 3098 L
2728 2962 L
2729 3087 L
2730 2996 L
2731 2901 L
2732 2985 L
2734 3145 L
2735 3030 L
2736 3010 L
2737 2920 L
2738 2993 L
2739 3123 L
2741 2977 L
2742 3055 L
2743 2962 L
2744 3056 L
2745 2918 L
2746 2750 L
2747 2955 L
2748 2992 L
2749 3106 L
2751 3010 L
2752 2872 L
2753 3078 L
2754 2939 L
2755 3070 L
2756 2922 L
2757 2884 L
2758 2853 L
2759 2938 L
2760 3098 L
2761 2916 L
2762 2857 L
2763 3013 L
2764 2926 L
2765 2776 L
2767 2846 L
2768 2882 L
2769 2864 L
2770 2825 L
2771 2862 L
2772 2866 L
2773 2873 L
2774 2801 L
2775 2835 L
2776 2965 L
2777 2841 L
2778 2912 L
2779 2816 L
2780 2833 L
2781 2712 L
2782 2864 L
2783 2920 L
2783 2912 L
2784 2761 L
2785 2862 L
2786 2786 L
2787 3044 L
2788 2866 L
2789 2602 L
2790 2875 L
2791 2874 L
2792 2705 L
2793 2655 L
2794 2901 L
2795 2803 L
2796 2858 L
2797 2916 L
2798 2747 L
2798 2753 L
2799 2808 L
2800 2933 L
2801 2858 L
2802 2819 L
2803 2772 L
2804 2776 L
2805 2647 L
2806 2891 L
2807 2891 L
2807 2723 L
2808 2770 L
2809 2827 L
2810 2688 L
2811 2887 L
2812 2883 L
2813 2579 L
2813 2823 L
2814 2887 L
2815 2839 L
2816 2730 L
2817 2751 L
2818 2759 L
2819 2775 L
2819 2763 L
2820 2652 L
2821 2818 L
2822 2762 L
2823 2764 L
2824 2692 L
2824 2947 L
2825 2672 L
2826 2799 L
2827 2763 L
2828 2749 L
2828 2615 L
2829 2793 L
2830 2691 L
2831 2766 L
2832 2656 L
2832 2763 L
2833 2801 L
2834 2753 L
2835 2837 L
2836 2710 L
2836 2725 L
2837 2632 L
2838 2707 L
2839 2800 L
2840 2654 L
2840 2633 L
2841 2607 L
2842 2694 L
2843 2683 L
2843 2705 L
2844 2672 L
2845 2749 L
2846 2560 L
2846 2633 L
2847 2722 L
2848 2637 L
2849 2722 L
2849 2722 L
2850 2641 L
2851 2643 L
2852 2763 L
2852 2620 L
2853 2522 L
2854 2764 L
2855 2563 L
2855 2662 L
2856 2787 L
2857 2626 L
2857 2622 L
2858 2634 L
2859 2525 L
2860 2560 L
2860 2674 L
2861 2728 L
2862 2683 L
2862 2722 L
2863 2753 L
2864 2607 L
2865 2593 L
2865 2609 L
2866 2820 L
2867 2479 L
2867 2412 L
2868 2656 L
2869 2521 L
2869 2641 L
2870 2597 L
2871 2522 L
2871 2632 L
2872 2626 L
2873 2613 L
2873 2579 L
2874 2695 L
2875 2595 L
2876 2601 L
2876 2677 L
2877 2423 L
2878 2530 L
2878 2596 L
2879 2589 L
2880 2496 L
2880 2488 L
2881 2603 L
2881 2592 L
2882 2540 L
2883 2590 L
2883 2524 L
2884 2596 L
2885 2560 L
2885 2524 L
2886 2603 L
2887 2574 L
2887 2437 L
2888 2566 L
2889 2669 L
2889 2575 L
2892 2637 L
2894 2379 L
2897 2555 L
2899 2454 L
2902 2440 L
2904 2505 L
2907 2508 L
2909 2472 L
2911 2376 L
2914 2468 L
2916 2456 L
2918 2413 L
2921 2439 L
2923 2499 L
2925 2603 L
2927 2356 L
2929 2396 L
2932 2387 L
2934 2267 L
2936 2354 L
2938 2549 L
2940 2352 L
2942 2416 L
2944 2357 L
2946 2390 L
2948 2345 L
2950 2282 L
2952 2357 L
2954 2193 L
2956 2455 L
2958 2148 L
2960 2292 L
2962 2395 L
2964 2310 L
2966 2403 L
2968 2286 L
2970 2344 L
2971 2309 L
2973 2267 L
2975 2315 L
2977 2353 L
2979 2357 L
2980 2271 L
2982 2313 L
2984 2251 L
2986 2396 L
2987 2279 L
2989 2213 L
2991 2293 L
2993 2246 L
2994 2161 L
2996 2279 L
2998 2136 L
2999 2222 L
3001 2266 L
3003 2171 L
3004 2349 L
3006 2145 L
3007 2316 L
3009 2033 L
3011 2250 L
3012 2327 L
3014 2417 L
3015 2167 L
3017 2224 L
3018 2131 L
3020 2165 L
3021 2275 L
3023 2152 L
3024 2131 L
3026 2171 L
3027 2102 L
3029 2162 L
3030 2293 L
3032 2337 L
3033 2277 L
3035 2056 L
3036 2053 L
3038 2183 L
3039 2115 L
3040 2183 L
3042 2066 L
3043 2109 L
3045 2154 L
3046 2188 L
3047 2167 L
3049 2142 L
3050 2129 L
3051 2349 L
3053 1979 L
3054 2210 L
3055 2066 L
3057 2126 L
3058 2079 L
3059 2069 L
3061 2104 L
3062 2062 L
3063 1903 L
3065 1940 L
3066 2084 L
3067 1955 L
3068 2159 L
3070 2103 L
3071 1966 L
3072 2004 L
3073 1962 L
3075 2101 L
3076 2066 L
3077 2063 L
3078 2136 L
3079 2148 L
3081 2026 L
3082 2201 L
3083 2099 L
3084 2024 L
3085 2093 L
3087 2088 L
3088 2122 L
3089 1930 L
3090 2148 L
3091 1899 L
3092 2098 L
3094 2139 L
3095 2054 L
3096 2159 L
3097 1939 L
3098 2051 L
3099 2072 L
3100 1905 L
3101 2059 L
3103 2079 L
3104 1937 L
3105 2099 L
3106 2061 L
3107 1969 L
3108 1957 L
3109 2109 L
3110 2113 L
3111 1922 L
3112 1971 L
3113 1970 L
3114 2133 L
3115 2162 L
3116 1995 L
3117 2141 L
3119 1833 L
3120 2112 L
3121 2162 L
3122 2098 L
3123 2026 L
3124 2109 L
3125 2071 L
3126 1966 L
3127 1930 L
3128 1989 L
3129 1957 L
3130 2021 L
3131 1989 L
3132 1929 L
3133 2006 L
3134 2151 L
3135 2010 L
3136 1989 L
3136 2133 L
3137 2086 L
3138 1978 L
3139 2027 L
3140 2146 L
3141 1878 L
3142 1999 L
3143 1980 L
3144 2041 L
3145 1866 L
3146 2108 L
3147 2038 L
3148 2047 L
3149 2019 L
3150 2116 L
3151 1997 L
3151 1969 L
3152 2042 L
3153 1933 L
3154 2126 L
3155 1979 L
3156 2077 L
3157 1911 L
3158 1980 L
3159 2107 L
3160 1964 L
3160 2087 L
3161 1988 L
3162 1963 L
3163 1951 L
3164 2212 L
3165 2047 L
3166 1908 L
3166 1990 L
3167 2186 L
3168 2024 L
3169 2066 L
3170 2081 L
3171 2031 L
3172 1968 L
3172 2074 L
3173 2076 L
3174 2019 L
3175 2042 L
3176 1953 L
3177 2102 L
3177 1950 L
3178 2129 L
3179 2056 L
3180 2162 L
3181 2163 L
3181 2185 L
3182 2058 L
3183 2051 L
3184 1863 L
3185 1948 L
3185 2123 L
3186 1968 L
3187 2097 L
3188 1961 L
3189 2011 L
3189 1856 L
3190 2245 L
3191 1955 L
3192 1998 L
3193 2023 L
3193 2089 L
3194 2015 L
3195 1909 L
3196 2244 L
3196 1994 L
3197 2049 L
3198 2105 L
3199 1920 L
3199 1925 L
3200 2198 L
3201 2123 L
3202 2107 L
3202 2089 L
3203 1979 L
3204 2014 L
3205 2030 L
3205 2108 L
3206 2099 L
3207 2098 L
3208 1943 L
3208 2064 L
3209 2028 L
3210 2105 L
3210 1989 L
3211 2033 L
3212 1975 L
3213 2062 L
3213 1997 L
3214 1994 L
3215 1904 L
3215 2079 L
3216 2023 L
3217 1988 L
3218 2035 L
3218 2031 L
3219 2084 L
3220 1991 L
3220 2044 L
3221 1976 L
3222 1979 L
3222 2216 L
3223 1996 L
3224 2154 L
3224 1926 L
3225 2049 L
3226 1932 L
3227 2039 L
3227 2032 L
3228 1957 L
3229 1984 L
3229 2069 L
3230 2229 L
3231 2083 L
3231 1923 L
3232 2067 L
3233 2145 L
3233 2058 L
3234 1902 L
3235 2049 L
3235 2101 L
3236 2163 L
3236 2027 L
3237 2147 L
3238 2020 L
3238 2098 L
3239 2144 L
3240 2044 L
3240 2109 L
3241 2019 L
3242 1964 L
3242 2131 L
3243 1965 L
3244 1974 L
3244 2065 L
3245 2044 L
3245 1991 L
3246 2095 L
3247 2006 L
3247 2080 L
3248 2086 L
3249 2012 L
3249 2067 L
3250 2050 L
3250 2010 L
3251 2201 L
3252 2111 L
3252 1976 L
3253 2198 L
3253 2009 L
3254 2041 L
3255 2057 L
3255 1835 L
3256 2053 L
3257 2075 L
3257 2038 L
3258 2109 L
3258 2047 L
3259 2029 L
3259 2119 L
3260 2152 L
3261 2137 L
3261 2088 L
3262 2135 L
3262 2065 L
3263 2024 L
3264 2115 L
3264 2152 L
3265 2022 L
3265 2063 L
3266 2016 L
3267 2142 L
3267 2033 L
3268 2066 L
3268 2146 L
3269 2112 L
3269 2158 L
3270 2047 L
3271 1889 L
3271 2033 L
3272 2031 L
3272 2043 L
3273 2112 L
3273 2114 L
3274 2133 L
3275 2161 L
3275 2159 L
3276 2123 L
3276 1994 L
3277 1958 L
3277 2046 L
3278 2101 L
3278 2004 L
3279 2158 L
3280 2049 L
3280 2219 L
3281 2046 L
3281 2168 L
3282 2080 L
3282 2102 L
3283 2126 L
3283 2210 L
3284 2057 L
3284 2131 L
3285 2078 L
3285 2081 L
3286 2228 L
3287 2331 L
3287 2057 L
3288 2100 L
3288 2169 L
3289 2069 L
3289 2058 L
3290 2097 L
3290 2114 L
3291 1945 L
3291 2084 L
3292 2227 L
3292 2180 L
3293 1990 L
3293 2043 L
3294 2248 L
3294 2086 L
3295 2150 L
3295 2110 L
3296 2139 L
3297 2213 L
3297 1998 L
3298 2172 L
3298 2174 L
3299 2195 L
3299 2204 L
3300 2008 L
3300 2013 L
3301 2184 L
3301 2142 L
3302 2206 L
3302 2085 L
3303 2244 L
3303 2123 L
3304 2164 L
3304 2067 L
3305 2083 L
3305 2249 L
3306 2234 L
3306 2170 L
3307 2205 L
3307 2229 L
3308 2114 L
3308 2213 L
3309 2263 L
3309 2251 L
3310 2224 L
3310 2139 L
3311 2093 L
3311 2108 L
3312 2223 L
3312 2090 L
3312 2252 L
3313 2109 L
3313 2176 L
3314 2125 L
3314 2200 L
3315 2244 L
3315 2117 L
3316 2098 L
3316 2141 L
3317 2063 L
3317 2206 L
3318 2197 L
3318 2071 L
3319 2148 L
3319 2194 L
3320 2130 L
3320 2278 L
3321 2216 L
3321 2233 L
3321 2182 L
3322 2032 L
3322 2086 L
3323 2276 L
3323 2239 L
3324 2178 L
3324 2164 L
3325 2303 L
3325 2111 L
3326 2239 L
3326 2159 L
3327 2121 L
3327 2185 L
3327 2072 L
3328 2151 L
3328 2265 L
3329 2254 L
3329 2058 L
3330 2127 L
3330 2318 L
3331 2216 L
3331 2135 L
3332 2282 L
3332 2201 L
3332 2270 L
3333 2133 L
3333 2369 L
3334 2140 L
3334 2179 L
3335 2092 L
3335 2158 L
3336 2305 L
3336 2137 L
3336 2035 L
3337 2332 L
3337 2267 L
3338 2322 L
3338 2119 L
3339 2245 L
3339 2155 L
3339 2355 L
3340 2225 L
3340 2309 L
3341 2315 L
3341 2176 L
3342 2276 L
3342 2058 L
3343 2253 L
3343 2287 L
3343 2233 L
3344 2129 L
3344 2294 L
3345 2155 L
3345 2171 L
3346 2209 L
3346 2158 L
3346 2198 L
3347 2203 L
3347 2165 L
3348 2307 L
3348 2063 L
3348 2294 L
3349 2248 L
3349 2339 L
3350 2229 L
3350 2364 L
3351 2117 L
3351 2067 L
3351 2143 L
3352 2307 L
3352 2264 L
3353 2284 L
3353 2117 L
3353 2295 L
3354 2306 L
3354 2214 L
3355 2240 L
3355 2162 L
3355 2374 L
3356 2272 L
3356 2289 L
3357 2172 L
3357 2280 L
3358 2182 L
3358 2241 L
3358 2343 L
3359 2277 L
3359 2154 L
3360 2164 L
3360 2306 L
3360 2207 L
3361 2340 L
3361 2252 L
3362 2288 L
3362 2186 L
3362 2193 L
3363 2335 L
3363 2183 L
3364 2235 L
3364 2269 L
3364 2262 L
3365 2523 L
3365 2283 L
3365 2269 L
3366 2398 L
3366 2375 L
3367 2209 L
3367 2265 L
3367 2293 L
3368 2165 L
3368 2249 L
3369 2193 L
3369 2243 L
3369 2328 L
3370 2411 L
3370 2316 L
3371 2252 L
3371 2236 L
3371 2249 L
3372 2242 L
3372 2337 L
3372 2291 L
3373 2276 L
3373 2211 L
3374 2135 L
3374 2290 L
3374 2318 L
3375 2162 L
3375 2226 L
3375 2268 L
3376 2163 L
3376 2273 L
3377 2236 L
3377 2317 L
3377 2412 L
3378 2163 L
3378 2229 L
3378 2314 L
3379 2223 L
3379 2144 L
3380 2362 L
3380 2349 L
3380 2245 L
3381 2488 L
3381 2214 L
3381 2263 L
3382 2338 L
3382 2473 L
3383 2442 L
3383 2340 L
3383 2305 L
3384 2303 L
3384 2346 L
3384 2097 L
3385 2378 L
3385 2294 L
3385 2239 L
3386 2150 L
3386 2165 L
3387 2256 L
3387 2417 L
3387 2256 L
3388 2392 L
3388 2311 L
3388 2229 L
3389 2371 L
3389 2204 L
3389 2427 L
3390 2368 L
3390 2245 L
3391 2293 L
3391 2379 L
3391 2297 L
3392 2296 L
3392 2430 L
3392 2321 L
3393 2318 L
3393 2392 L
3393 2306 L
3394 2316 L
3394 2387 L
3394 2363 L
3395 2191 L
3395 2353 L
3395 2361 L
3396 2285 L
3396 2231 L
3396 2294 L
3397 2261 L
3397 2401 L
3398 2439 L
3398 2402 L
3398 2418 L
3399 2281 L
3399 2403 L
3399 2349 L
3400 2406 L
3400 2169 L
3400 2325 L
3401 2394 L
3401 2446 L
3401 2270 L
3402 2257 L
3402 2292 L
3402 2492 L
3403 2176 L
3403 2376 L
3403 2511 L
3404 2245 L
3404 2381 L
3404 2204 L
3405 2290 L
3405 2377 L
3405 2244 L
3406 2463 L
3406 2346 L
3406 2384 L
3407 2311 L
3407 2332 L
3407 2393 L
3408 2349 L
3408 2380 L
3408 2314 L
3409 2260 L
3409 2407 L
3409 2420 L
3410 2387 L
3410 2365 L
3410 2349 L
3411 2225 L
3411 2345 L
3411 2479 L
3412 2328 L
3412 2413 L
3412 2318 L
3413 2345 L
3413 2518 L
3413 2205 L
3414 2250 L
3414 2445 L
3414 2476 L
3415 2309 L
3415 2481 L
3415 2346 L
3416 2208 L
3416 2377 L
3416 2425 L
3417 2268 L
3417 2335 L
3417 2342 L
3417 2350 L
3418 2346 L
3418 2328 L
3418 2314 L
3419 2360 L
3419 2451 L
3419 2368 L
3420 2500 L
3420 2401 L
3420 2330 L
3421 2408 L
3421 2367 L
3421 2367 L
3422 2354 L
3422 2471 L
3422 2465 L
3423 2318 L
3423 2365 L
3423 2283 L
3423 2364 L
3424 2240 L
3424 2299 L
3424 2582 L
3425 2509 L
3425 2416 L
3425 2522 L
3426 2402 L
3426 2298 L
3426 2433 L
3427 2396 L
3427 2316 L
3427 2525 L
3428 2419 L
3428 2520 L
3428 2403 L
3428 2375 L
3429 2339 L
3429 2437 L
3429 2375 L
3430 2373 L
3430 2234 L
3430 2459 L
3431 2289 L
3431 2385 L
3431 2393 L
3431 2476 L
3432 2352 L
3432 2276 L
3432 2474 L
3433 2503 L
3433 2419 L
3433 2319 L
3434 2402 L
3434 2324 L
3434 2323 L
3434 2473 L
3435 2452 L
3435 2416 L
3435 2337 L
3436 2392 L
3436 2449 L
3436 2440 L
3437 2436 L
3437 2454 L
3437 2326 L
3437 2328 L
3438 2388 L
3438 2539 L
3438 2591 L
3439 2326 L
3439 2588 L
3439 2451 L
3440 2318 L
3440 2443 L
3440 2423 L
3440 2529 L
3441 2610 L
3441 2433 L
3441 2456 L
3442 2333 L
3442 2418 L
3442 2405 L
3442 2372 L
3443 2480 L
3443 2445 L
3443 2465 L
3444 2479 L
3444 2463 L
3444 2347 L
3444 2396 L
3445 2501 L
3445 2422 L
3445 2439 L
3446 2476 L
3446 2475 L
3446 2372 L
3446 2472 L
3447 2498 L
3447 2259 L
3447 2451 L
3448 2468 L
3448 2382 L
3448 2476 L
3448 2563 L
3449 2551 L
3449 2305 L
3449 2340 L
3450 2396 L
3450 2407 L
3450 2533 L
3450 2451 L
3451 2410 L
3451 2401 L
3451 2585 L
3452 2473 L
3452 2338 L
3452 2444 L
3452 2513 L
3453 2547 L
3453 2489 L
3453 2588 L
3454 2373 L
3454 2379 L
3454 2420 L
3454 2400 L
3455 2406 L
3455 2330 L
3455 2519 L
3455 2379 L
3456 2425 L
3456 2546 L
3456 2346 L
3457 2454 L
3457 2337 L
3457 2336 L
3457 2367 L
3458 2476 L
3458 2498 L
3458 2440 L
3458 2491 L
3459 2455 L
3459 2453 L
3459 2565 L
3460 2400 L
3460 2450 L
3460 2510 L
3460 2282 L
3461 2366 L
3461 2447 L
3461 2371 L
3461 2582 L
3462 2488 L
3462 2390 L
3462 2536 L
3463 2494 L
3463 2396 L
3463 2436 L
3463 2425 L
3464 2481 L
3464 2462 L
3464 2452 L
3464 2386 L
3465 2409 L
3465 2443 L
3465 2517 L
3465 2540 L
3466 2434 L
3466 2505 L
3466 2517 L
3466 2361 L
3467 2331 L
3467 2563 L
3467 2582 L
3468 2339 L
3468 2378 L
3468 2591 L
3468 2507 L
3469 2517 L
3469 2367 L
3469 2651 L
3469 2550 L
3470 2436 L
3470 2547 L
3470 2483 L
3470 2627 L
3471 2558 L
3471 2489 L
3471 2541 L
3471 2431 L
3472 2385 L
3472 2500 L
3472 2345 L
3472 2487 L
3473 2389 L
3473 2498 L
3473 2462 L
3474 2400 L
3474 2606 L
3474 2613 L
3474 2575 L
3475 2469 L
3475 2488 L
3475 2433 L
3475 2486 L
3476 2490 L
3476 2323 L
3476 2507 L
3476 2287 L
3477 2418 L
3477 2481 L
3477 2338 L
3477 2507 L
3478 2359 L
3478 2522 L
3478 2524 L
3478 2471 L
3479 2446 L
3479 2551 L
3479 2446 L
3479 2479 L
3480 2472 L
3480 2476 L
3480 2507 L
3480 2520 L
3481 2629 L
3481 2527 L
3481 2446 L
3481 2318 L
3482 2444 L
3482 2390 L
3482 2677 L
3482 2402 L
3483 2565 L
3483 2424 L
3483 2489 L
3483 2407 L
3484 2461 L
3484 2593 L
3484 2539 L
3484 2510 L
3485 2543 L
3485 2491 L
3485 2567 L
3485 2342 L
3486 2448 L
3486 2522 L
3486 2443 L
3486 2578 L
3487 2640 L
3487 2524 L
3487 2290 L
3487 2539 L
3488 2537 L
3488 2631 L
3488 2537 L
3488 2432 L
3488 2487 L
3489 2751 L
3489 2394 L
3489 2540 L
3489 2374 L
3490 2601 L
3490 2330 L
3490 2498 L
3490 2495 L
3491 2496 L
3491 2409 L
3491 2529 L
3491 2274 L
3492 2582 L
3492 2496 L
3492 2592 L
3492 2485 L
3493 2508 L
3493 2543 L
3493 2589 L
3493 2524 L
3494 2628 L
3494 2389 L
3494 2443 L
3494 2417 L
3494 2567 L
3495 2497 L
3495 2494 L
3495 2454 L
3495 2514 L
3496 2430 L
3496 2360 L
3496 2434 L
3496 2576 L
3497 2455 L
3497 2435 L
3497 2552 L
3497 2444 L
3498 2546 L
3498 2324 L
3498 2622 L
3498 2380 L
3498 2549 L
3499 2562 L
3499 2595 L
3499 2443 L
3499 2681 L
3500 2495 L
3500 2474 L
3506 2590 L
3511 2575 L
3517 2672 L
3522 2575 L
3527 2707 L
3532 2659 L
3537 2662 L
3542 2547 L
3547 2690 L
3552 2554 L
3557 2600 L
3561 2660 L
3566 2568 L
3570 2673 L
3575 2604 L
3579 2631 L
3583 2645 L
3587 2631 L
3591 2779 L
3595 2782 L
3599 2549 L
3603 2715 L
3607 2774 L
3611 2641 L
3614 2664 L
3618 2698 L
3622 2639 L
3625 2693 L
3629 2694 L
3632 2795 L
3636 2638 L
3639 2587 L
3642 2730 L
3646 2580 L
3649 2794 L
3652 2661 L
3655 2756 L
3658 2787 L
3661 2767 L
3664 2868 L
3667 2737 L
3670 2847 L
3673 2742 L
3676 2733 L
3679 2667 L
3682 2653 L
3685 2671 L
3688 2552 L
3690 2713 L
3693 2828 L
3696 2839 L
3698 2636 L
3701 2829 L
3704 2777 L
3706 2792 L
3709 2710 L
3711 2644 L
3714 2847 L
3716 2605 L
3719 2838 L
3721 2789 L
3724 2821 L
3726 2814 L
3728 2652 L
3731 2698 L
3733 2834 L
3735 2718 L
3738 2799 L
3740 2836 L
3742 2744 L
3744 2861 L
3747 2784 L
3749 2807 L
3751 2721 L
3753 2658 L
3755 2520 L
3757 2746 L
3760 2780 L
3762 2758 L
3764 2709 L
3766 2582 L
3768 2650 L
3770 2674 L
3772 2891 L
3774 2903 L
3776 2647 L
3778 2668 L
3780 2754 L
3781 2799 L
3783 2770 L
3785 2802 L
3787 2779 L
3789 2737 L
3791 2789 L
3793 2839 L
3795 2791 L
3796 2693 L
3798 2550 L
3800 2784 L
3802 2727 L
3803 2698 L
3805 2671 L
3807 2819 L
3809 2769 L
3810 2658 L
3812 2530 L
3814 2847 L
3816 2483 L
3817 2869 L
3819 2671 L
3820 2710 L
3822 2657 L
3824 2799 L
3825 2696 L
3827 2606 L
3829 2752 L
3830 2769 L
3832 2738 L
3833 2823 L
3835 2725 L
3836 2808 L
3838 2845 L
3839 2677 L
3841 2708 L
3842 2775 L
3844 2696 L
3845 2943 L
3847 2759 L
3848 2734 L
3850 2835 L
3851 2843 L
3853 2861 L
3854 2670 L
3856 2770 L
3857 2667 L
3859 2826 L
3860 2808 L
3861 2799 L
3863 2816 L
3864 2737 L
3866 2848 L
3867 2651 L
3868 2871 L
3870 2804 L
3871 2979 L
3872 2811 L
3874 2720 L
3875 2747 L
3876 2746 L
3878 2687 L
3879 2634 L
3880 2811 L
3882 2864 L
3883 2795 L
3884 2762 L
3885 2811 L
3887 2778 L
3888 2705 L
3889 2691 L
3890 2696 L
3892 2679 L
3893 2772 L
3894 2555 L
3895 2701 L
3897 2904 L
3898 2804 L
3899 2718 L
3900 2666 L
3901 2784 L
3903 2596 L
3904 2890 L
3905 2948 L
3906 2730 L
3907 2723 L
3908 2825 L
3910 2731 L
3911 2765 L
3912 2662 L
3913 2818 L
3914 2779 L
3915 2884 L
3917 2827 L
3918 2803 L
3919 2892 L
3920 2886 L
3921 2864 L
3922 2721 L
3923 2664 L
3924 2940 L
3925 2742 L
3926 2683 L
3928 2732 L
3929 2874 L
3930 2898 L
3931 2732 L
3932 2808 L
3933 2814 L
3934 2779 L
3935 2616 L
3936 2746 L
3937 2868 L
3938 2757 L
3939 2777 L
3940 2882 L
3941 2708 L
3942 2713 L
3943 2804 L
3944 2915 L
3945 2582 L
3946 2906 L
3947 2711 L
3948 2659 L
3949 2797 L
3950 2765 L
3951 2837 L
3952 2689 L
3953 2679 L
3954 2675 L
3955 2867 L
3956 2695 L
3957 2852 L
3958 2659 L
3959 2770 L
3960 2727 L
3961 2646 L
3962 2769 L
3963 2677 L
3964 2822 L
3965 2633 L
3966 2659 L
3966 2644 L
3967 2737 L
3968 2767 L
3969 2574 L
3970 2715 L
3971 2721 L
3972 2833 L
3973 2790 L
3974 2683 L
3975 2895 L
3976 2736 L
3976 2666 L
3977 2579 L
3978 2798 L
3979 2704 L
3980 2623 L
3981 2654 L
3982 2884 L
3983 2693 L
3983 2737 L
3984 2762 L
3985 2787 L
3986 2821 L
3987 2787 L
3988 2728 L
3989 2688 L
3989 2741 L
3990 2789 L
3991 2691 L
3992 2863 L
3993 2825 L
3994 2705 L
3995 2853 L
3995 2873 L
3996 2804 L
3997 2681 L
3998 2692 L
3999 2692 L
3999 2836 L
4000 2667 L
4001 2775 L
4002 2849 L
4003 2794 L
4003 2782 L
4004 2797 L
4005 2667 L
4006 2705 L
4007 2876 L
4007 2746 L
4008 2704 L
4009 2692 L
4010 2787 L
4011 2758 L
4011 2808 L
4012 2778 L
4013 2795 L
4014 2802 L
4014 2659 L
4015 2762 L
4016 2683 L
4017 2847 L
4017 2787 L
4018 2890 L
4019 2843 L
4020 2772 L
4021 2728 L
4021 2783 L
4022 2824 L
4023 2723 L
4023 2792 L
4024 2706 L
4025 2671 L
4026 2687 L
4026 2838 L
4027 2752 L
4028 2599 L
4029 2798 L
4029 2906 L
4030 2846 L
4031 2693 L
4032 2833 L
4032 2639 L
4033 2678 L
4034 2843 L
4034 2891 L
4035 2760 L
4036 2834 L
4036 2611 L
4037 2794 L
4038 2688 L
4039 2597 L
4039 2636 L
4040 2684 L
4041 2765 L
4041 2871 L
4042 2653 L
4043 2708 L
4043 2601 L
4044 2641 L
4045 2715 L
4045 2739 L
4046 2698 L
4047 2844 L
4047 2669 L
4048 2737 L
4049 2624 L
4050 2627 L
4050 2809 L
4051 2967 L
4052 2786 L
4052 2757 L
4053 2594 L
4053 2601 L
4054 2760 L
4055 2481 L
4055 2805 L
4056 2724 L
4057 2739 L
4057 2725 L
4058 2656 L
4059 2684 L
4059 2727 L
4060 2562 L
4061 2622 L
4061 2723 L
4062 2906 L
L2 C05 COSGR

%
%================
% Legend - Begin
%================
%
GSN 4240 5180 M
4480 5180 L
LWMC SL  C05 COSGR
GSN 4540 5141 M helvM (2.5 uM) show grestore
%
%================
% Legend - End
%================
%

%
% Residuals:
%
GSN 777 1037 M
1388 867 L
1552 754 L
1652 771 L
1723 883 L
1778 843 L
1824 792 L
1863 750 L
1896 867 L
1926 837 L
1952 815 L
1976 813 L
1998 866 L
2019 877 L
2037 863 L
2055 986 L
2071 906 L
2086 900 L
2101 958 L
2115 994 L
2128 1017 L
2140 962 L
2152 951 L
2163 1045 L
2174 1054 L
2184 974 L
2194 985 L
2204 1024 L
2213 972 L
2222 971 L
2230 1004 L
2239 981 L
2247 1005 L
2255 1116 L
2262 1003 L
2270 1033 L
2277 1060 L
2284 1102 L
2290 1089 L
2297 1079 L
2303 1089 L
2310 1085 L
2316 1101 L
2322 1049 L
2328 1016 L
2333 1105 L
2339 1146 L
2344 1120 L
2350 1088 L
2355 1005 L
2360 1065 L
2365 1100 L
2370 1085 L
2375 1125 L
2380 1160 L
2384 1176 L
2389 1120 L
2393 1090 L
2398 1124 L
2402 1092 L
2407 1096 L
2411 1093 L
2415 1113 L
2419 1132 L
2423 1144 L
2427 1135 L
2431 1146 L
2435 1061 L
2438 1130 L
2442 1105 L
2446 1291 L
2449 1215 L
2453 1130 L
2456 1122 L
2460 1211 L
2463 1199 L
2467 1212 L
2470 1204 L
2473 1218 L
2476 1182 L
2480 1237 L
2483 1236 L
2486 1235 L
2489 1117 L
2492 1361 L
2495 1176 L
2498 1260 L
2501 1163 L
2504 1195 L
2507 1270 L
2510 1216 L
2512 1174 L
2515 1260 L
2518 1325 L
2521 1150 L
2523 1239 L
2526 1240 L
2529 1244 L
2531 1222 L
2534 1298 L
2536 1252 L
2539 1228 L
2541 1207 L
2544 1227 L
2546 1224 L
2549 1216 L
2551 1295 L
2554 1223 L
2556 1218 L
2558 1162 L
2561 1190 L
2563 1359 L
2565 1255 L
2568 1135 L
2570 1330 L
2572 1228 L
2574 1237 L
2576 1385 L
2579 1276 L
2581 1303 L
2583 1342 L
2585 1316 L
2587 1296 L
2589 1352 L
2591 1293 L
2593 1264 L
2595 1246 L
2597 1235 L
2599 1197 L
2601 1263 L
2603 1309 L
2605 1288 L
2607 1210 L
2609 1354 L
2611 1287 L
2613 1279 L
2615 1355 L
2617 1396 L
2618 1325 L
2620 1354 L
2622 1324 L
2624 1262 L
2626 1265 L
2627 1328 L
2629 1409 L
2631 1326 L
2633 1285 L
2634 1320 L
2636 1216 L
2638 1340 L
2640 1339 L
2641 1291 L
2643 1281 L
2645 1281 L
2646 1293 L
2648 1302 L
2650 1318 L
2651 1332 L
2653 1366 L
2654 1299 L
2656 1266 L
2658 1356 L
2659 1336 L
2661 1286 L
2662 1292 L
2664 1225 L
2665 1341 L
2667 1261 L
2668 1226 L
2670 1269 L
2671 1283 L
2673 1311 L
2674 1253 L
2676 1280 L
2677 1258 L
2679 1285 L
2680 1215 L
2682 1244 L
2683 1360 L
2685 1259 L
2686 1249 L
2687 1321 L
2689 1348 L
2690 1281 L
2692 1231 L
2693 1322 L
2694 1318 L
2696 1254 L
2697 1282 L
2698 1288 L
2700 1374 L
2701 1283 L
2702 1299 L
2704 1265 L
2705 1171 L
2706 1336 L
2708 1328 L
2709 1321 L
2710 1203 L
2712 1287 L
2713 1324 L
2714 1308 L
2715 1295 L
2717 1283 L
2718 1271 L
2719 1271 L
2720 1287 L
2722 1364 L
2723 1337 L
2724 1284 L
2725 1341 L
2726 1343 L
2728 1262 L
2729 1340 L
2730 1286 L
2731 1230 L
2732 1282 L
2734 1381 L
2735 1312 L
2736 1302 L
2737 1248 L
2738 1294 L
2739 1375 L
2741 1287 L
2742 1336 L
2743 1281 L
2744 1340 L
2745 1257 L
2746 1156 L
2747 1283 L
2748 1306 L
2749 1377 L
2751 1320 L
2752 1237 L
2753 1364 L
2754 1280 L
2755 1361 L
2756 1273 L
2757 1251 L
2758 1233 L
2759 1286 L
2760 1385 L
2761 1275 L
2762 1240 L
2763 1336 L
2764 1284 L
2765 1195 L
2767 1238 L
2768 1261 L
2769 1251 L
2770 1229 L
2771 1252 L
2772 1256 L
2773 1261 L
2774 1218 L
2775 1240 L
2776 1320 L
2777 1245 L
2778 1290 L
2779 1233 L
2780 1244 L
2781 1171 L
2782 1265 L
2783 1300 L
2783 1296 L
2784 1205 L
2785 1267 L
2786 1222 L
2787 1380 L
2788 1272 L
2789 1113 L
2790 1280 L
2791 1280 L
2792 1178 L
2793 1148 L
2794 1299 L
2795 1240 L
2796 1274 L
2797 1311 L
2798 1209 L
2798 1213 L
2799 1247 L
2800 1324 L
2801 1279 L
2802 1257 L
2803 1229 L
2804 1232 L
2805 1154 L
2806 1303 L
2807 1304 L
2807 1203 L
2808 1232 L
2809 1267 L
2810 1183 L
2811 1305 L
2812 1304 L
2813 1120 L
2813 1268 L
2814 1308 L
2815 1279 L
2816 1214 L
2817 1228 L
2818 1233 L
2819 1243 L
2819 1237 L
2820 1170 L
2821 1271 L
2822 1238 L
2823 1240 L
2824 1197 L
2824 1353 L
2825 1186 L
2826 1264 L
2827 1242 L
2828 1234 L
2828 1154 L
2829 1262 L
2830 1201 L
2831 1247 L
2832 1181 L
2832 1247 L
2833 1270 L
2834 1242 L
2835 1293 L
2836 1217 L
2836 1226 L
2837 1170 L
2838 1216 L
2839 1274 L
2840 1185 L
2840 1173 L
2841 1158 L
2842 1211 L
2843 1205 L
2843 1219 L
2844 1199 L
2845 1247 L
2846 1132 L
2846 1177 L
2847 1232 L
2848 1181 L
2849 1233 L
2849 1233 L
2850 1185 L
2851 1186 L
2852 1260 L
2852 1173 L
2853 1114 L
2854 1262 L
2855 1139 L
2855 1201 L
2856 1277 L
2857 1179 L
2857 1177 L
2858 1185 L
2859 1119 L
2860 1141 L
2860 1210 L
2861 1244 L
2862 1217 L
2862 1241 L
2863 1260 L
2864 1172 L
2865 1164 L
2865 1174 L
2866 1303 L
2867 1096 L
2867 1055 L
2868 1204 L
2869 1122 L
2869 1196 L
2870 1169 L
2871 1124 L
2871 1191 L
2872 1188 L
2873 1181 L
2873 1160 L
2874 1231 L
2875 1171 L
2876 1175 L
2876 1221 L
2877 1067 L
2878 1133 L
2878 1173 L
2879 1169 L
2880 1113 L
2880 1108 L
2881 1179 L
2881 1173 L
2882 1141 L
2883 1172 L
2883 1132 L
2884 1176 L
2885 1155 L
2885 1133 L
2886 1182 L
2887 1164 L
2887 1081 L
2888 1160 L
2889 1222 L
2889 1166 L
2892 1205 L
2894 1049 L
2897 1157 L
2899 1097 L
2902 1090 L
2904 1130 L
2907 1133 L
2909 1112 L
2911 1055 L
2914 1112 L
2916 1106 L
2918 1080 L
2921 1097 L
2923 1134 L
2925 1198 L
2927 1049 L
2929 1074 L
2932 1070 L
2934 997 L
2936 1051 L
2938 1171 L
2940 1051 L
2942 1091 L
2944 1056 L
2946 1077 L
2948 1050 L
2950 1012 L
2952 1058 L
2954 960 L
2956 1120 L
2958 934 L
2960 1022 L
2962 1085 L
2964 1034 L
2966 1091 L
2968 1021 L
2970 1057 L
2971 1036 L
2973 1011 L
2975 1041 L
2977 1064 L
2979 1067 L
2980 1016 L
2982 1042 L
2984 1004 L
2986 1093 L
2987 1023 L
2989 983 L
2991 1032 L
2993 1004 L
2994 953 L
2996 1025 L
2998 939 L
2999 991 L
3001 1019 L
3003 962 L
3004 1070 L
3006 947 L
3007 1051 L
3009 880 L
3011 1012 L
3012 1059 L
3014 1115 L
3015 963 L
3017 998 L
3018 942 L
3020 963 L
3021 1031 L
3023 956 L
3024 944 L
3026 969 L
3027 927 L
3029 964 L
3030 1044 L
3032 1071 L
3033 1035 L
3035 901 L
3036 899 L
3038 979 L
3039 938 L
3040 980 L
3042 909 L
3043 936 L
3045 963 L
3046 985 L
3047 972 L
3049 957 L
3050 950 L
3051 1084 L
3053 860 L
3054 1000 L
3055 913 L
3057 950 L
3058 922 L
3059 916 L
3061 938 L
3062 913 L
3063 816 L
3065 839 L
3066 927 L
3067 849 L
3068 973 L
3070 940 L
3071 857 L
3072 880 L
3073 855 L
3075 940 L
3076 919 L
3077 918 L
3078 963 L
3079 970 L
3081 896 L
3082 1003 L
3083 941 L
3084 896 L
3085 938 L
3087 936 L
3088 957 L
3089 840 L
3090 973 L
3091 822 L
3092 944 L
3094 969 L
3095 917 L
3096 981 L
3097 848 L
3098 916 L
3099 930 L
3100 828 L
3101 922 L
3103 935 L
3104 849 L
3105 948 L
3106 925 L
3107 869 L
3108 862 L
3109 955 L
3110 958 L
3111 842 L
3112 872 L
3113 872 L
3114 971 L
3115 989 L
3116 888 L
3117 977 L
3119 790 L
3120 960 L
3121 991 L
3122 952 L
3123 909 L
3124 960 L
3125 936 L
3126 873 L
3127 852 L
3128 888 L
3129 869 L
3130 908 L
3131 888 L
3132 852 L
3133 900 L
3134 988 L
3135 902 L
3136 890 L
3136 978 L
3137 950 L
3138 884 L
3139 914 L
3140 987 L
3141 824 L
3142 898 L
3143 887 L
3144 924 L
3145 818 L
3146 966 L
3147 923 L
3148 929 L
3149 912 L
3150 971 L
3151 899 L
3151 883 L
3152 927 L
3153 861 L
3154 979 L
3155 890 L
3156 949 L
3157 849 L
3158 891 L
3159 968 L
3160 882 L
3160 957 L
3161 897 L
3162 882 L
3163 875 L
3164 1034 L
3165 934 L
3166 850 L
3166 900 L
3167 1019 L
3168 921 L
3169 947 L
3170 956 L
3171 926 L
3172 888 L
3172 952 L
3173 954 L
3174 920 L
3175 934 L
3176 880 L
3177 971 L
3177 878 L
3178 988 L
3179 943 L
3180 1008 L
3181 1009 L
3181 1023 L
3182 945 L
3183 941 L
3184 828 L
3185 880 L
3185 986 L
3186 892 L
3187 971 L
3188 888 L
3189 919 L
3189 825 L
3190 1062 L
3191 886 L
3192 912 L
3193 928 L
3193 968 L
3194 923 L
3195 859 L
3196 1063 L
3196 911 L
3197 945 L
3198 979 L
3199 866 L
3199 870 L
3200 1036 L
3201 991 L
3202 981 L
3202 971 L
3203 904 L
3204 926 L
3205 935 L
3205 983 L
3206 978 L
3207 977 L
3208 883 L
3208 957 L
3209 936 L
3210 982 L
3210 912 L
3211 939 L
3212 904 L
3213 957 L
3213 918 L
3214 916 L
3215 862 L
3215 968 L
3216 934 L
3217 913 L
3218 942 L
3218 940 L
3219 972 L
3220 916 L
3220 948 L
3221 907 L
3222 909 L
3222 1053 L
3223 920 L
3224 1016 L
3224 877 L
3225 952 L
3226 881 L
3227 947 L
3227 943 L
3228 898 L
3229 914 L
3229 966 L
3230 1063 L
3231 975 L
3231 878 L
3232 965 L
3233 1013 L
3233 960 L
3234 865 L
3235 955 L
3235 987 L
3236 1025 L
3236 942 L
3237 1015 L
3238 939 L
3238 986 L
3239 1014 L
3240 953 L
3240 993 L
3241 939 L
3242 905 L
3242 1007 L
3243 906 L
3244 912 L
3244 968 L
3245 955 L
3245 923 L
3246 986 L
3247 933 L
3247 977 L
3248 981 L
3249 936 L
3249 970 L
3250 960 L
3250 936 L
3251 1052 L
3252 997 L
3252 916 L
3253 1051 L
3253 936 L
3254 956 L
3255 965 L
3255 831 L
3256 963 L
3257 977 L
3257 955 L
3258 998 L
3258 960 L
3259 950 L
3259 1005 L
3260 1025 L
3261 1016 L
3261 986 L
3262 1015 L
3262 972 L
3263 948 L
3264 1003 L
3264 1026 L
3265 947 L
3265 972 L
3266 944 L
3267 1020 L
3267 954 L
3268 974 L
3268 1023 L
3269 1003 L
3269 1031 L
3270 963 L
3271 867 L
3271 955 L
3272 954 L
3272 961 L
3273 1004 L
3273 1005 L
3274 1016 L
3275 1034 L
3275 1033 L
3276 1011 L
3276 933 L
3277 911 L
3277 965 L
3278 998 L
3278 939 L
3279 1033 L
3280 967 L
3280 1070 L
3281 965 L
3281 1040 L
3282 986 L
3282 1000 L
3283 1015 L
3283 1066 L
3284 973 L
3284 1018 L
3285 986 L
3285 988 L
3286 1077 L
3287 1140 L
3287 974 L
3288 1000 L
3288 1042 L
3289 981 L
3289 974 L
3290 998 L
3290 1009 L
3291 906 L
3291 991 L
3292 1078 L
3292 1050 L
3293 934 L
3293 967 L
3294 1092 L
3294 993 L
3295 1032 L
3295 1008 L
3296 1026 L
3297 1071 L
3297 940 L
3298 1046 L
3298 1047 L
3299 1060 L
3299 1066 L
3300 947 L
3300 950 L
3301 1054 L
3301 1029 L
3302 1067 L
3302 994 L
3303 1091 L
3303 1017 L
3304 1043 L
3304 984 L
3305 993 L
3305 1095 L
3306 1085 L
3306 1047 L
3307 1068 L
3307 1083 L
3308 1013 L
3308 1073 L
3309 1104 L
3309 1097 L
3310 1080 L
3310 1029 L
3311 1001 L
3311 1010 L
3312 1080 L
3312 999 L
3312 1098 L
3313 1011 L
3313 1052 L
3314 1021 L
3314 1067 L
3315 1094 L
3315 1017 L
3316 1005 L
3316 1032 L
3317 984 L
3317 1071 L
3318 1066 L
3318 989 L
3319 1036 L
3319 1065 L
3320 1025 L
3320 1115 L
3321 1078 L
3321 1088 L
3321 1057 L
3322 967 L
3322 999 L
3323 1115 L
3323 1093 L
3324 1056 L
3324 1047 L
3325 1132 L
3325 1015 L
3326 1093 L
3326 1045 L
3327 1021 L
3327 1060 L
3327 992 L
3328 1040 L
3328 1109 L
3329 1103 L
3329 984 L
3330 1026 L
3330 1142 L
3331 1080 L
3331 1031 L
3332 1121 L
3332 1071 L
3332 1113 L
3333 1030 L
3333 1174 L
3334 1034 L
3334 1058 L
3335 1006 L
3335 1046 L
3336 1135 L
3336 1033 L
3336 971 L
3337 1152 L
3337 1112 L
3338 1146 L
3338 1023 L
3339 1099 L
3339 1045 L
3339 1167 L
3340 1088 L
3340 1139 L
3341 1143 L
3341 1058 L
3342 1119 L
3342 986 L
3343 1105 L
3343 1126 L
3343 1093 L
3344 1030 L
3344 1130 L
3345 1046 L
3345 1056 L
3346 1079 L
3346 1048 L
3346 1073 L
3347 1075 L
3347 1052 L
3348 1139 L
3348 991 L
3348 1131 L
3349 1103 L
3349 1159 L
3350 1092 L
3350 1174 L
3351 1024 L
3351 993 L
3351 1040 L
3352 1140 L
3352 1113 L
3353 1126 L
3353 1024 L
3353 1132 L
3354 1139 L
3354 1083 L
3355 1099 L
3355 1052 L
3355 1181 L
3356 1119 L
3356 1129 L
3357 1058 L
3357 1124 L
3358 1065 L
3358 1101 L
3358 1163 L
3359 1122 L
3359 1048 L
3360 1054 L
3360 1141 L
3360 1080 L
3361 1162 L
3361 1108 L
3362 1130 L
3362 1068 L
3362 1072 L
3363 1159 L
3363 1066 L
3364 1098 L
3364 1119 L
3364 1115 L
3365 1273 L
3365 1128 L
3365 1119 L
3366 1197 L
3366 1183 L
3367 1082 L
3367 1117 L
3367 1134 L
3368 1056 L
3368 1107 L
3369 1074 L
3369 1104 L
3369 1156 L
3370 1206 L
3370 1148 L
3371 1109 L
3371 1100 L
3371 1108 L
3372 1103 L
3372 1161 L
3372 1133 L
3373 1124 L
3373 1085 L
3374 1039 L
3374 1133 L
3374 1150 L
3375 1055 L
3375 1094 L
3375 1120 L
3376 1056 L
3376 1123 L
3377 1101 L
3377 1150 L
3377 1208 L
3378 1056 L
3378 1096 L
3378 1149 L
3379 1093 L
3379 1045 L
3380 1178 L
3380 1170 L
3380 1107 L
3381 1255 L
3381 1088 L
3381 1118 L
3382 1164 L
3382 1246 L
3383 1227 L
3383 1165 L
3383 1144 L
3384 1143 L
3384 1169 L
3384 1017 L
3385 1188 L
3385 1138 L
3385 1104 L
3386 1050 L
3386 1059 L
3387 1114 L
3387 1213 L
3387 1115 L
3388 1197 L
3388 1148 L
3388 1098 L
3389 1185 L
3389 1083 L
3389 1219 L
3390 1183 L
3390 1108 L
3391 1138 L
3391 1190 L
3391 1140 L
3392 1140 L
3392 1221 L
3392 1155 L
3393 1153 L
3393 1198 L
3393 1146 L
3394 1152 L
3394 1195 L
3394 1180 L
3395 1076 L
3395 1175 L
3395 1179 L
3396 1134 L
3396 1100 L
3396 1139 L
3397 1119 L
3397 1204 L
3398 1227 L
3398 1205 L
3398 1215 L
3399 1131 L
3399 1205 L
3399 1173 L
3400 1208 L
3400 1063 L
3400 1159 L
3401 1201 L
3401 1232 L
3401 1125 L
3402 1117 L
3402 1138 L
3402 1261 L
3403 1068 L
3403 1190 L
3403 1272 L
3404 1110 L
3404 1193 L
3404 1085 L
3405 1138 L
3405 1191 L
3405 1110 L
3406 1243 L
3406 1172 L
3406 1195 L
3407 1151 L
3407 1164 L
3407 1201 L
3408 1174 L
3408 1193 L
3408 1153 L
3409 1120 L
3409 1210 L
3409 1218 L
3410 1197 L
3410 1184 L
3410 1175 L
3411 1099 L
3411 1172 L
3411 1253 L
3412 1162 L
3412 1214 L
3412 1156 L
3413 1172 L
3413 1277 L
3413 1087 L
3414 1115 L
3414 1233 L
3414 1252 L
3415 1151 L
3415 1255 L
3415 1173 L
3416 1089 L
3416 1192 L
3416 1221 L
3417 1126 L
3417 1167 L
3417 1171 L
3417 1176 L
3418 1173 L
3418 1163 L
3418 1154 L
3419 1182 L
3419 1237 L
3419 1187 L
3420 1268 L
3420 1207 L
3420 1164 L
3421 1212 L
3421 1187 L
3421 1187 L
3422 1179 L
3422 1250 L
3422 1247 L
3423 1157 L
3423 1185 L
3423 1136 L
3423 1185 L
3424 1110 L
3424 1146 L
3424 1318 L
3425 1274 L
3425 1217 L
3425 1281 L
3426 1208 L
3426 1145 L
3426 1227 L
3427 1205 L
3427 1156 L
3427 1283 L
3428 1219 L
3428 1280 L
3428 1209 L
3428 1192 L
3429 1171 L
3429 1230 L
3429 1193 L
3430 1191 L
3430 1107 L
3430 1244 L
3431 1141 L
3431 1199 L
3431 1204 L
3431 1254 L
3432 1179 L
3432 1133 L
3432 1253 L
3433 1271 L
3433 1219 L
3433 1159 L
3434 1209 L
3434 1162 L
3434 1162 L
3434 1253 L
3435 1240 L
3435 1218 L
3435 1170 L
3436 1203 L
3436 1238 L
3436 1233 L
3437 1231 L
3437 1242 L
3437 1163 L
3437 1165 L
3438 1201 L
3438 1293 L
3438 1325 L
3439 1164 L
3439 1323 L
3439 1240 L
3440 1159 L
3440 1235 L
3440 1223 L
3440 1287 L
3441 1336 L
3441 1229 L
3441 1243 L
3442 1168 L
3442 1220 L
3442 1212 L
3442 1192 L
3443 1258 L
3443 1237 L
3443 1249 L
3444 1257 L
3444 1247 L
3444 1177 L
3444 1207 L
3445 1271 L
3445 1223 L
3445 1233 L
3446 1256 L
3446 1255 L
3446 1192 L
3446 1253 L
3447 1269 L
3447 1124 L
3447 1240 L
3448 1251 L
3448 1199 L
3448 1256 L
3448 1309 L
3449 1302 L
3449 1152 L
3449 1174 L
3450 1207 L
3450 1214 L
3450 1290 L
3450 1241 L
3451 1216 L
3451 1210 L
3451 1322 L
3452 1254 L
3452 1173 L
3452 1237 L
3452 1279 L
3453 1299 L
3453 1264 L
3453 1325 L
3454 1194 L
3454 1197 L
3454 1222 L
3454 1210 L
3455 1214 L
3455 1168 L
3455 1282 L
3455 1198 L
3456 1226 L
3456 1299 L
3456 1178 L
3457 1243 L
3457 1172 L
3457 1171 L
3457 1190 L
3458 1257 L
3458 1270 L
3458 1235 L
3458 1266 L
3459 1244 L
3459 1243 L
3459 1311 L
3460 1210 L
3460 1241 L
3460 1278 L
3460 1139 L
3461 1190 L
3461 1240 L
3461 1193 L
3461 1322 L
3462 1265 L
3462 1205 L
3462 1293 L
3463 1268 L
3463 1209 L
3463 1233 L
3463 1226 L
3464 1260 L
3464 1249 L
3464 1243 L
3464 1202 L
3465 1216 L
3465 1237 L
3465 1282 L
3465 1296 L
3466 1232 L
3466 1275 L
3466 1282 L
3466 1187 L
3467 1169 L
3467 1310 L
3467 1322 L
3468 1174 L
3468 1198 L
3468 1328 L
3468 1276 L
3469 1282 L
3469 1191 L
3469 1364 L
3469 1303 L
3470 1234 L
3470 1301 L
3470 1262 L
3470 1349 L
3471 1307 L
3471 1266 L
3471 1297 L
3471 1230 L
3472 1202 L
3472 1273 L
3472 1178 L
3472 1265 L
3473 1205 L
3473 1272 L
3473 1250 L
3474 1212 L
3474 1337 L
3474 1341 L
3474 1318 L
3475 1254 L
3475 1265 L
3475 1232 L
3475 1264 L
3476 1267 L
3476 1165 L
3476 1277 L
3476 1143 L
3477 1223 L
3477 1261 L
3477 1174 L
3477 1277 L
3478 1187 L
3478 1286 L
3478 1287 L
3478 1255 L
3479 1240 L
3479 1304 L
3479 1240 L
3479 1260 L
3480 1256 L
3480 1258 L
3480 1278 L
3480 1285 L
3481 1352 L
3481 1289 L
3481 1240 L
3481 1163 L
3482 1239 L
3482 1206 L
3482 1381 L
3482 1214 L
3483 1313 L
3483 1227 L
3483 1267 L
3483 1216 L
3484 1249 L
3484 1330 L
3484 1297 L
3484 1280 L
3485 1300 L
3485 1268 L
3485 1314 L
3485 1177 L
3486 1242 L
3486 1286 L
3486 1239 L
3486 1321 L
3487 1359 L
3487 1288 L
3487 1146 L
3487 1297 L
3488 1296 L
3488 1353 L
3488 1296 L
3488 1232 L
3488 1266 L
3489 1426 L
3489 1209 L
3489 1298 L
3489 1197 L
3490 1335 L
3490 1171 L
3490 1272 L
3490 1271 L
3491 1272 L
3491 1218 L
3491 1291 L
3491 1136 L
3492 1323 L
3492 1271 L
3492 1330 L
3492 1265 L
3493 1279 L
3493 1300 L
3493 1328 L
3493 1288 L
3494 1352 L
3494 1206 L
3494 1239 L
3494 1224 L
3494 1315 L
3495 1272 L
3495 1270 L
3495 1246 L
3495 1282 L
3496 1232 L
3496 1189 L
3496 1234 L
3496 1320 L
3497 1247 L
3497 1234 L
3497 1306 L
3497 1240 L
3498 1302 L
3498 1167 L
3498 1348 L
3498 1201 L
3498 1304 L
3499 1312 L
3499 1332 L
3499 1240 L
3499 1384 L
3500 1271 L
3500 1258 L
3506 1329 L
3511 1321 L
3517 1380 L
3522 1321 L
3527 1401 L
3532 1373 L
3537 1374 L
3542 1305 L
3547 1391 L
3552 1309 L
3557 1337 L
3561 1374 L
3566 1318 L
3570 1382 L
3575 1340 L
3579 1356 L
3583 1365 L
3587 1357 L
3591 1446 L
3595 1449 L
3599 1307 L
3603 1408 L
3607 1444 L
3611 1363 L
3614 1377 L
3618 1397 L
3622 1362 L
3625 1395 L
3629 1395 L
3632 1457 L
3636 1361 L
3639 1330 L
3642 1417 L
3646 1326 L
3649 1456 L
3652 1375 L
3655 1433 L
3658 1452 L
3661 1440 L
3664 1501 L
3667 1422 L
3670 1488 L
3673 1425 L
3676 1419 L
3679 1379 L
3682 1370 L
3685 1381 L
3688 1309 L
3690 1407 L
3693 1477 L
3696 1484 L
3698 1360 L
3701 1478 L
3704 1446 L
3706 1455 L
3709 1405 L
3711 1365 L
3714 1489 L
3716 1341 L
3719 1483 L
3721 1453 L
3724 1473 L
3726 1469 L
3728 1370 L
3731 1398 L
3733 1481 L
3735 1410 L
3738 1459 L
3740 1482 L
3742 1426 L
3744 1497 L
3747 1450 L
3749 1465 L
3751 1412 L
3753 1374 L
3755 1290 L
3757 1427 L
3760 1448 L
3762 1434 L
3764 1405 L
3766 1327 L
3768 1369 L
3770 1384 L
3772 1516 L
3774 1523 L
3776 1367 L
3778 1380 L
3780 1432 L
3781 1459 L
3783 1442 L
3785 1461 L
3787 1447 L
3789 1421 L
3791 1453 L
3793 1484 L
3795 1455 L
3796 1395 L
3798 1308 L
3800 1450 L
3802 1415 L
3803 1398 L
3805 1381 L
3807 1471 L
3809 1441 L
3810 1374 L
3812 1296 L
3814 1489 L
3816 1267 L
3817 1502 L
3819 1382 L
3820 1405 L
3822 1373 L
3824 1459 L
3825 1397 L
3827 1342 L
3829 1431 L
3830 1441 L
3832 1423 L
3833 1474 L
3835 1415 L
3836 1465 L
3838 1487 L
3839 1385 L
3841 1404 L
3842 1445 L
3844 1397 L
3845 1547 L
3847 1435 L
3848 1420 L
3850 1481 L
3851 1486 L
3853 1497 L
3854 1381 L
3856 1442 L
3857 1379 L
3859 1476 L
3860 1465 L
3861 1459 L
3863 1469 L
3864 1422 L
3866 1489 L
3867 1370 L
3868 1503 L
3870 1463 L
3871 1569 L
3872 1466 L
3874 1411 L
3875 1428 L
3876 1427 L
3878 1391 L
3879 1359 L
3880 1467 L
3882 1499 L
3883 1457 L
3884 1437 L
3885 1466 L
3887 1447 L
3888 1402 L
3889 1394 L
3890 1397 L
3892 1386 L
3893 1443 L
3894 1311 L
3895 1400 L
3897 1523 L
3898 1462 L
3899 1410 L
3900 1379 L
3901 1450 L
3903 1336 L
3904 1515 L
3905 1550 L
3906 1417 L
3907 1413 L
3908 1475 L
3910 1418 L
3911 1439 L
3912 1376 L
3913 1471 L
3914 1447 L
3915 1511 L
3917 1477 L
3918 1462 L
3919 1516 L
3920 1512 L
3921 1499 L
3922 1412 L
3923 1378 L
3924 1545 L
3925 1424 L
3926 1389 L
3928 1418 L
3929 1505 L
3930 1520 L
3931 1419 L
3932 1465 L
3933 1468 L
3934 1447 L
3935 1348 L
3936 1427 L
3937 1501 L
3938 1434 L
3939 1446 L
3940 1510 L
3941 1404 L
3942 1407 L
3943 1463 L
3944 1530 L
3945 1327 L
3946 1525 L
3947 1406 L
3948 1374 L
3949 1458 L
3950 1439 L
3951 1482 L
3952 1392 L
3953 1386 L
3954 1384 L
3955 1501 L
3956 1396 L
3957 1492 L
3958 1375 L
3959 1442 L
3960 1415 L
3961 1367 L
3962 1441 L
3963 1385 L
3964 1474 L
3965 1359 L
3966 1375 L
3966 1365 L
3967 1421 L
3968 1440 L
3969 1322 L
3970 1408 L
3971 1412 L
3972 1480 L
3973 1454 L
3974 1389 L
3975 1518 L
3976 1421 L
3976 1379 L
3977 1325 L
3978 1459 L
3979 1402 L
3980 1352 L
3981 1371 L
3982 1511 L
3983 1395 L
3983 1422 L
3984 1437 L
3985 1452 L
3986 1473 L
3987 1452 L
3988 1416 L
3989 1392 L
3989 1424 L
3990 1453 L
3991 1394 L
3992 1498 L
3993 1475 L
3994 1402 L
3995 1492 L
3995 1504 L
3996 1463 L
3997 1388 L
3998 1394 L
3999 1394 L
3999 1482 L
4000 1379 L
4001 1445 L
4002 1490 L
4003 1457 L
4003 1449 L
4004 1458 L
4005 1379 L
4006 1402 L
4007 1506 L
4007 1427 L
4008 1402 L
4009 1394 L
4010 1452 L
4011 1434 L
4011 1465 L
4012 1447 L
4013 1457 L
4014 1461 L
4014 1374 L
4015 1437 L
4016 1389 L
4017 1489 L
4017 1452 L
4018 1514 L
4019 1486 L
4020 1443 L
4021 1416 L
4021 1450 L
4022 1474 L
4023 1413 L
4023 1455 L
4024 1403 L
4025 1382 L
4026 1391 L
4026 1483 L
4027 1431 L
4028 1338 L
4029 1459 L
4029 1524 L
4030 1488 L
4031 1395 L
4032 1480 L
4032 1362 L
4033 1386 L
4034 1486 L
4034 1515 L
4035 1436 L
4036 1481 L
4036 1345 L
4037 1457 L
4038 1392 L
4039 1337 L
4039 1360 L
4040 1389 L
4041 1439 L
4041 1503 L
4042 1370 L
4043 1404 L
4043 1339 L
4044 1363 L
4045 1408 L
4045 1423 L
4046 1398 L
4047 1487 L
4047 1380 L
4048 1421 L
4049 1353 L
4050 1355 L
4050 1466 L
4051 1562 L
4052 1452 L
4052 1434 L
4053 1335 L
4053 1339 L
4054 1436 L
4055 1266 L
4055 1463 L
4056 1414 L
4057 1423 L
4057 1414 L
4058 1372 L
4059 1389 L
4059 1416 L
4060 1315 L
4061 1352 L
4061 1413 L
4062 1524 L
L2 C05 COSGR

%
% Main frame
%
L10
GSN 
620 1700 M
4220 1700 L
4220 5300 L
620 5300 L
closepath SGR

%
% X axis: large tics
%
L10
GSN 1130 1700 M 0  54 rL SGR
GSN 1130 5300 M 0 -54 rL SGR
helvS (0.0001) 1130 470 xlabel
GSN 1716 1700 M 0  54 rL SGR
GSN 1716 5300 M 0 -54 rL SGR
helvS (0.001) 1716 470 xlabel
GSN 2303 1700 M 0  54 rL SGR
GSN 2303 5300 M 0 -54 rL SGR
helvS (0.01) 2303 470 xlabel
GSN 2889 1700 M 0  54 rL SGR
GSN 2889 5300 M 0 -54 rL SGR
helvS (0.1) 2889 470 xlabel
GSN 3476 1700 M 0  54 rL SGR
GSN 3476 5300 M 0 -54 rL SGR
helvS (1) 3476 470 xlabel
GSN 4062 1700 M 0  54 rL SGR
GSN 4062 5300 M 0 -54 rL SGR
helvS (10) 4062 470 xlabel
%
% X axis: small tics
%
L5
GSN 720 1700 M 0  36 rL SGR
GSN 720 5300 M 0 -36 rL SGR
GSN 824 1700 M 0  36 rL SGR
GSN 824 5300 M 0 -36 rL SGR
GSN 897 1700 M 0  36 rL SGR
GSN 897 5300 M 0 -36 rL SGR
GSN 954 1700 M 0  36 rL SGR
GSN 954 5300 M 0 -36 rL SGR
GSN 1000 1700 M 0  36 rL SGR
GSN 1000 5300 M 0 -36 rL SGR
GSN 1039 1700 M 0  36 rL SGR
GSN 1039 5300 M 0 -36 rL SGR
GSN 1073 1700 M 0  36 rL SGR
GSN 1073 5300 M 0 -36 rL SGR
GSN 1103 1700 M 0  36 rL SGR
GSN 1103 5300 M 0 -36 rL SGR
GSN 1307 1700 M 0  36 rL SGR
GSN 1307 5300 M 0 -36 rL SGR
GSN 1410 1700 M 0  36 rL SGR
GSN 1410 5300 M 0 -36 rL SGR
GSN 1483 1700 M 0  36 rL SGR
GSN 1483 5300 M 0 -36 rL SGR
GSN 1540 1700 M 0  36 rL SGR
GSN 1540 5300 M 0 -36 rL SGR
GSN 1586 1700 M 0  36 rL SGR
GSN 1586 5300 M 0 -36 rL SGR
GSN 1626 1700 M 0  36 rL SGR
GSN 1626 5300 M 0 -36 rL SGR
GSN 1660 1700 M 0  36 rL SGR
GSN 1660 5300 M 0 -36 rL SGR
GSN 1690 1700 M 0  36 rL SGR
GSN 1690 5300 M 0 -36 rL SGR
GSN 1893 1700 M 0  36 rL SGR
GSN 1893 5300 M 0 -36 rL SGR
GSN 1996 1700 M 0  36 rL SGR
GSN 1996 5300 M 0 -36 rL SGR
GSN 2069 1700 M 0  36 rL SGR
GSN 2069 5300 M 0 -36 rL SGR
GSN 2126 1700 M 0  36 rL SGR
GSN 2126 5300 M 0 -36 rL SGR
GSN 2173 1700 M 0  36 rL SGR
GSN 2173 5300 M 0 -36 rL SGR
GSN 2212 1700 M 0  36 rL SGR
GSN 2212 5300 M 0 -36 rL SGR
GSN 2246 1700 M 0  36 rL SGR
GSN 2246 5300 M 0 -36 rL SGR
GSN 2276 1700 M 0  36 rL SGR
GSN 2276 5300 M 0 -36 rL SGR
GSN 2479 1700 M 0  36 rL SGR
GSN 2479 5300 M 0 -36 rL SGR
GSN 2583 1700 M 0  36 rL SGR
GSN 2583 5300 M 0 -36 rL SGR
GSN 2656 1700 M 0  36 rL SGR
GSN 2656 5300 M 0 -36 rL SGR
GSN 2713 1700 M 0  36 rL SGR
GSN 2713 5300 M 0 -36 rL SGR
GSN 2759 1700 M 0  36 rL SGR
GSN 2759 5300 M 0 -36 rL SGR
GSN 2798 1700 M 0  36 rL SGR
GSN 2798 5300 M 0 -36 rL SGR
GSN 2832 1700 M 0  36 rL SGR
GSN 2832 5300 M 0 -36 rL SGR
GSN 2862 1700 M 0  36 rL SGR
GSN 2862 5300 M 0 -36 rL SGR
GSN 3066 1700 M 0  36 rL SGR
GSN 3066 5300 M 0 -36 rL SGR
GSN 3169 1700 M 0  36 rL SGR
GSN 3169 5300 M 0 -36 rL SGR
GSN 3242 1700 M 0  36 rL SGR
GSN 3242 5300 M 0 -36 rL SGR
GSN 3299 1700 M 0  36 rL SGR
GSN 3299 5300 M 0 -36 rL SGR
GSN 3345 1700 M 0  36 rL SGR
GSN 3345 5300 M 0 -36 rL SGR
GSN 3385 1700 M 0  36 rL SGR
GSN 3385 5300 M 0 -36 rL SGR
GSN 3419 1700 M 0  36 rL SGR
GSN 3419 5300 M 0 -36 rL SGR
GSN 3449 1700 M 0  36 rL SGR
GSN 3449 5300 M 0 -36 rL SGR
GSN 3652 1700 M 0  36 rL SGR
GSN 3652 5300 M 0 -36 rL SGR
GSN 3755 1700 M 0  36 rL SGR
GSN 3755 5300 M 0 -36 rL SGR
GSN 3829 1700 M 0  36 rL SGR
GSN 3829 5300 M 0 -36 rL SGR
GSN 3885 1700 M 0  36 rL SGR
GSN 3885 5300 M 0 -36 rL SGR
GSN 3932 1700 M 0  36 rL SGR
GSN 3932 5300 M 0 -36 rL SGR
GSN 3971 1700 M 0  36 rL SGR
GSN 3971 5300 M 0 -36 rL SGR
GSN 4005 1700 M 0  36 rL SGR
GSN 4005 5300 M 0 -36 rL SGR
GSN 4035 1700 M 0  36 rL SGR
GSN 4035 5300 M 0 -36 rL SGR
%
% Y axis: large tics
%
L10
GSN 620 1934 M 54 0 rL SGR
GSN 4220 1934 M -54 0 rL SGR
helvS (0.95) 560 1934 ylabel
GSN 620 3577 M 54 0 rL SGR
GSN 4220 3577 M -54 0 rL SGR
helvS (1) 560 3577 ylabel
GSN 620 5221 M 54 0 rL SGR
GSN 4220 5221 M -54 0 rL SGR
helvS (1.05) 560 5221 ylabel
%
% Y axis: small tics
%
L5
GSN 620 1934 M 36 0 rL SGR
GSN 4220 1934 M -36 0 rL SGR
GSN 620 2262 M 36 0 rL SGR
GSN 4220 2262 M -36 0 rL SGR
GSN 620 2591 M 36 0 rL SGR
GSN 4220 2591 M -36 0 rL SGR
GSN 620 2920 M 36 0 rL SGR
GSN 4220 2920 M -36 0 rL SGR
GSN 620 3249 M 36 0 rL SGR
GSN 4220 3249 M -36 0 rL SGR
GSN 620 3577 M 36 0 rL SGR
GSN 4220 3577 M -36 0 rL SGR
GSN 620 3906 M 36 0 rL SGR
GSN 4220 3906 M -36 0 rL SGR
GSN 620 4235 M 36 0 rL SGR
GSN 4220 4235 M -36 0 rL SGR
GSN 620 4563 M 36 0 rL SGR
GSN 4220 4563 M -36 0 rL SGR
GSN 620 4892 M 36 0 rL SGR
GSN 4220 4892 M -36 0 rL SGR
GSN 620 5221 M 36 0 rL SGR
GSN 4220 5221 M -36 0 rL SGR

%
% X-Axis label:
%
gsave 2420 290 M 
[
[(Helvetica) 180 0 true true 0 (t)]
[(Helvetica) 180 0 true true 0 (i)]
[(Helvetica) 180 0 true true 0 (m)]
[(Helvetica) 180 0 true true 0 (e)]
] 0 MCshow grestore

%
% Y-Axis label:
%
gsave 234 3500 M 
currentpoint gsave translate 90 rotate 0 0 moveto
[
[(Helvetica) 180 0 true true 0 (s)]
[(Helvetica) 180 0 true true 0 (i)]
[(Helvetica) 180 0 true true 0 (g)]
[(Helvetica) 180 0 true true 0 (n)]
[(Helvetica) 180 0 true true 0 (a)]
[(Helvetica) 180 0 true true 0 (l)]
] 0 MCshow grestore

%
% Residuals:
%
gsave 129 1160 M 
currentpoint gsave translate 90 rotate 0 0 moveto
[
[(Helvetica) 150 0 true true 0 (r)]
[(Helvetica) 150 0 true true 0 (e)]
[(Helvetica) 150 0 true true 0 (s)]
[(Helvetica) 150 0 true true 0 (i)]
[(Helvetica) 150 0 true true 0 (d)]
[(Helvetica) 150 0 true true 0 (u)]
[(Helvetica) 150 0 true true 0 (a)]
[(Helvetica) 150 0 true true 0 (l)]
[(Helvetica) 150 0 true true 0 (s)]
] 0 MCshow grestore

%
% Residual frame
%
L10
GSN 
620 620 M
4220 620 L
4220 1700 L
620 1700 L
closepath SGR
%
% X axis: large tics - residual frame
%
L10
GSN 1130 620 M 0  54 rL SGR
GSN 1130 1700 M 0 -54 rL SGR
GSN 1716 620 M 0  54 rL SGR
GSN 1716 1700 M 0 -54 rL SGR
GSN 2303 620 M 0  54 rL SGR
GSN 2303 1700 M 0 -54 rL SGR
GSN 2889 620 M 0  54 rL SGR
GSN 2889 1700 M 0 -54 rL SGR
GSN 3476 620 M 0  54 rL SGR
GSN 3476 1700 M 0 -54 rL SGR
GSN 4062 620 M 0  54 rL SGR
GSN 4062 1700 M 0 -54 rL SGR
%
% X axis: small tics - residual frame
%
L5
GSN 720 620 M 0  36 rL SGR
GSN 720 1700 M 0 -36 rL SGR
GSN 824 620 M 0  36 rL SGR
GSN 824 1700 M 0 -36 rL SGR
GSN 897 620 M 0  36 rL SGR
GSN 897 1700 M 0 -36 rL SGR
GSN 954 620 M 0  36 rL SGR
GSN 954 1700 M 0 -36 rL SGR
GSN 1000 620 M 0  36 rL SGR
GSN 1000 1700 M 0 -36 rL SGR
GSN 1039 620 M 0  36 rL SGR
GSN 1039 1700 M 0 -36 rL SGR
GSN 1073 620 M 0  36 rL SGR
GSN 1073 1700 M 0 -36 rL SGR
GSN 1103 620 M 0  36 rL SGR
GSN 1103 1700 M 0 -36 rL SGR
GSN 1307 620 M 0  36 rL SGR
GSN 1307 1700 M 0 -36 rL SGR
GSN 1410 620 M 0  36 rL SGR
GSN 1410 1700 M 0 -36 rL SGR
GSN 1483 620 M 0  36 rL SGR
GSN 1483 1700 M 0 -36 rL SGR
GSN 1540 620 M 0  36 rL SGR
GSN 1540 1700 M 0 -36 rL SGR
GSN 1586 620 M 0  36 rL SGR
GSN 1586 1700 M 0 -36 rL SGR
GSN 1626 620 M 0  36 rL SGR
GSN 1626 1700 M 0 -36 rL SGR
GSN 1660 620 M 0  36 rL SGR
GSN 1660 1700 M 0 -36 rL SGR
GSN 1690 620 M 0  36 rL SGR
GSN 1690 1700 M 0 -36 rL SGR
GSN 1893 620 M 0  36 rL SGR
GSN 1893 1700 M 0 -36 rL SGR
GSN 1996 620 M 0  36 rL SGR
GSN 1996 1700 M 0 -36 rL SGR
GSN 2069 620 M 0  36 rL SGR
GSN 2069 1700 M 0 -36 rL SGR
GSN 2126 620 M 0  36 rL SGR
GSN 2126 1700 M 0 -36 rL SGR
GSN 2173 620 M 0  36 rL SGR
GSN 2173 1700 M 0 -36 rL SGR
GSN 2212 620 M 0  36 rL SGR
GSN 2212 1700 M 0 -36 rL SGR
GSN 2246 620 M 0  36 rL SGR
GSN 2246 1700 M 0 -36 rL SGR
GSN 2276 620 M 0  36 rL SGR
GSN 2276 1700 M 0 -36 rL SGR
GSN 2479 620 M 0  36 rL SGR
GSN 2479 1700 M 0 -36 rL SGR
GSN 2583 620 M 0  36 rL SGR
GSN 2583 1700 M 0 -36 rL SGR
GSN 2656 620 M 0  36 rL SGR
GSN 2656 1700 M 0 -36 rL SGR
GSN 2713 620 M 0  36 rL SGR
GSN 2713 1700 M 0 -36 rL SGR
GSN 2759 620 M 0  36 rL SGR
GSN 2759 1700 M 0 -36 rL SGR
GSN 2798 620 M 0  36 rL SGR
GSN 2798 1700 M 0 -36 rL SGR
GSN 2832 620 M 0  36 rL SGR
GSN 2832 1700 M 0 -36 rL SGR
GSN 2862 620 M 0  36 rL SGR
GSN 2862 1700 M 0 -36 rL SGR
GSN 3066 620 M 0  36 rL SGR
GSN 3066 1700 M 0 -36 rL SGR
GSN 3169 620 M 0  36 rL SGR
GSN 3169 1700 M 0 -36 rL SGR
GSN 3242 620 M 0  36 rL SGR
GSN 3242 1700 M 0 -36 rL SGR
GSN 3299 620 M 0  36 rL SGR
GSN 3299 1700 M 0 -36 rL SGR
GSN 3345 620 M 0  36 rL SGR
GSN 3345 1700 M 0 -36 rL SGR
GSN 3385 620 M 0  36 rL SGR
GSN 3385 1700 M 0 -36 rL SGR
GSN 3419 620 M 0  36 rL SGR
GSN 3419 1700 M 0 -36 rL SGR
GSN 3449 620 M 0  36 rL SGR
GSN 3449 1700 M 0 -36 rL SGR
GSN 3652 620 M 0  36 rL SGR
GSN 3652 1700 M 0 -36 rL SGR
GSN 3755 620 M 0  36 rL SGR
GSN 3755 1700 M 0 -36 rL SGR
GSN 3829 620 M 0  36 rL SGR
GSN 3829 1700 M 0 -36 rL SGR
GSN 3885 620 M 0  36 rL SGR
GSN 3885 1700 M 0 -36 rL SGR
GSN 3932 620 M 0  36 rL SGR
GSN 3932 1700 M 0 -36 rL SGR
GSN 3971 620 M 0  36 rL SGR
GSN 3971 1700 M 0 -36 rL SGR
GSN 4005 620 M 0  36 rL SGR
GSN 4005 1700 M 0 -36 rL SGR
GSN 4035 620 M 0  36 rL SGR
GSN 4035 1700 M 0 -36 rL SGR
%
% Y axis: large tics - residual frame
%
L10
GSN 620 752 M 54 0 rL SGR
GSN 4220 752 M -54 0 rL SGR
helvS (-0.03) 560 752 ylabelresid
GSN 620 952 M 54 0 rL SGR
GSN 4220 952 M -54 0 rL SGR
helvS (-0.02) 560 952 ylabelresid
GSN 620 1152 M 54 0 rL SGR
GSN 4220 1152 M -54 0 rL SGR
helvS (-0.01) 560 1152 ylabelresid
GSN 620 1352 M 54 0 rL SGR
GSN 4220 1352 M -54 0 rL SGR
helvS (0) 560 1352 ylabelresid
GSN 620 1552 M 54 0 rL SGR
GSN 4220 1552 M -54 0 rL SGR
helvS (0.01) 560 1552 ylabelresid

%
% X axis - residual panel
%
GSN L5 620 1352 M 4220 1352 L SDA G50 SGR

end
showpage
%%Trailer
%%EOF
