%!PS-Adobe-3.0 EPSF-3.0
%%BoundingBox: 0 0 514 550
%%Creator: BioKin Ltd.
%%DocumentFonts: Symbol Helvetica
%%EndComments
%
/bkdict 256 dict def
bkdict begin
/M {moveto} def 
/R {rmoveto} def
/L {lineto} def
/rL {rlineto} def
/GSN {gsave newpath} def
/SGR {stroke grestore} def
/COSGR {gsave setrgbcolor stroke grestore grestore} def
/SL {setlinewidth} def
/LWMB {12} def             % line width - model curves, black & white
/LWMC {10} def             % line width - model curves, color
/L2 {2.5 setlinewidth} def
/L5 {5 setlinewidth} def
/L10 {10 setlinewidth} def
/G50 {0.5 setgray} def
/SDA {[10  20] 0 setdash} def % axes
/helvT {/Helvetica findfont 100 scalefont setfont} def % tiny
/helvS {/Helvetica findfont 125 scalefont setfont} def % small
/helvM {/Helvetica findfont 150 scalefont setfont} def % medium
/helvL {/Helvetica findfont 175 scalefont setfont} def % large
/xlabel {gsave M dup
   stringwidth exch -0.5 mul exch rmoveto show grestore} def 
/ylabel {gsave M 90 rotate dup
   stringwidth exch -0.5 mul exch rmoveto show grestore} def
/ylabelresid {gsave M dup
   stringwidth exch -1 mul exch rmoveto show grestore} def
% ======
% Shapes
% ======
% Circle:
/Circ {0 360 arc closepath} def
%
% Square:
/Squa {dup dup -0.5 mul dup dup R -2 mul 0 exch rL 1 mul 0 rL dup 0 exch -1 mul rL closepath} def
%
% Triangle Up:
/TriU {dup dup dup -0.4 mul exch -0.5 mul exch R dup 0.5 mul exch rL dup -1 mul exch 0.5 mul exch rL closepath} def 
%
% Triangle Down:
/TriD {dup dup dup 0.4 mul exch -0.5 mul exch R dup 0.5 mul exch -1 mul rL dup 0.5 mul exch rL closepath} def 
%
% Diamond:
/Diam {45 rotate Squa} def
% ======
% Fills
% ======
/GRF {gsave setgray fill grestore} def                    % gray-level Fill
/COF {gsave setrgbcolor fill grestore} def                % color fill
% ======
% Colors
% ======
/C01 {1.00	0.00	0.00} def      % Red
/C02 {0.00	0.00	1.00} def      % Blue
/C03 {0.00	0.39	0.00} def      % Dark Green
/C04 {0.78	0.08	0.52} def      % Medium Violet Red
/C05 {0.55	0.27	0.07} def      % Saddle Brown
/C06 {0.10	0.70	0.70} def      % (cyan)
/C07 {1.00	0.55	0.00} def      % Dark Orange
/C08 {0.63	0.13	0.94} def      % Purple
/C09 {0.00	0.75	1.00} def      % Deep Sky Blue
/C10 {0.20	0.80	0.20} def      % Lime Green
/C11 {0.47	0.53	0.60} def      % Light Slate Gray
/C12 {0.00	0.00	0.00} def      % Black            % or: {0.19	0.31	0.31} def      % Dark Slate Gray
%
/LGR {0.75} def % light gray
/DGR {0.33} def % dark gray
%
% =============
% Dash patterns
% =============
/dash01 { [80  20] 0 setdash } def
/dash02 { [40  20] 0 setdash } def
/dash03 { [80  20  10  20] 0 setdash } def
/dash04 { [40  20  10  20] 0 setdash } def
/dash05 { [80  20  10  10  10  20] 0 setdash } def
/dash06 { [40  20  10  10  10  20] 0 setdash } def
/dash07 { [10  10] 0 setdash } def
%
/MFshow {
   { dup 5 get 3 ge
     { 5 get 3 eq {gsave} {grestore} ifelse }
     {dup dup 0 get findfont exch 1 get scalefont setfont
     [ currentpoint ] exch dup 2 get 0 exch R dup 5 get 2 ne {dup dup 6
     get exch 4 get {show} {stringwidth pop 0 R} ifelse }if dup 5 get 0 eq
     {dup 3 get {2 get neg 0 exch R pop} {pop aload pop M} ifelse} {dup 5
     get 1 eq {dup 2 get exch dup 3 get exch 6 get stringwidth pop -2 div
     dup 0 R} {dup 6 get stringwidth pop -2 div 0 R 6 get
     show 2 index {aload pop M neg 3 -1 roll neg R pop pop} {pop pop pop
     pop aload pop M} ifelse }ifelse }ifelse }
     ifelse }
   forall} bind def
/MFwidth {0 exch {dup 3 get{dup dup 0 get findfont exch 1 get scalefont
     setfont 6 get stringwidth pop add} {pop} ifelse} forall} bind def
/MCshow { currentpoint stroke M
  exch dup MFwidth -2 div 3 -1 roll R MFshow } def
%
end
%%EndProlog
bkdict begin
0.1 0.1 scale
%
% Residuals:
%
GSN 620 2136 M
620 4863 L
620 4462 L
620 4464 L
620 4426 L
620 4133 L
620 3448 L
620 4168 L
620 3829 L
620 3721 L
620 3984 L
620 3819 L
620 4167 L
620 4087 L
620 4349 L
620 4009 L
620 3961 L
620 3935 L
620 4113 L
620 4030 L
620 4091 L
620 3924 L
620 3999 L
620 4001 L
620 3886 L
620 3687 L
620 4154 L
620 4047 L
620 4147 L
620 4247 L
620 4273 L
620 4004 L
620 4237 L
620 4207 L
620 4235 L
620 4036 L
620 4086 L
620 4096 L
620 4240 L
620 4100 L
620 4098 L
620 4027 L
620 3786 L
620 4187 L
620 4159 L
620 4019 L
620 3832 L
620 4065 L
620 3921 L
620 3914 L
620 3710 L
620 3950 L
620 4009 L
620 3930 L
620 3784 L
620 4104 L
620 4041 L
620 4138 L
620 4147 L
620 3759 L
620 3864 L
620 4335 L
620 4056 L
620 3921 L
620 4021 L
620 3812 L
620 3915 L
620 4186 L
620 3838 L
620 4009 L
620 3995 L
620 4180 L
620 4242 L
620 4114 L
620 4309 L
620 3849 L
620 4101 L
620 4081 L
620 4238 L
620 3910 L
620 3828 L
620 3948 L
620 3965 L
620 4408 L
620 4073 L
620 4057 L
620 3840 L
620 4071 L
620 4176 L
620 4013 L
620 3732 L
620 3861 L
620 4115 L
620 4095 L
620 4103 L
620 4030 L
620 4162 L
620 4083 L
620 4277 L
620 3922 L
620 4148 L
620 4321 L
620 4126 L
620 4276 L
620 4151 L
620 4012 L
620 4059 L
620 4034 L
620 4066 L
620 3937 L
620 4253 L
620 4013 L
620 4157 L
620 4144 L
620 4024 L
620 3959 L
620 3964 L
620 3907 L
620 4298 L
620 4046 L
620 4209 L
620 4132 L
620 3998 L
620 4073 L
620 4072 L
620 4327 L
620 3688 L
620 4079 L
620 4015 L
620 4035 L
620 3960 L
620 4246 L
620 4098 L
620 4445 L
620 4262 L
620 4154 L
620 4068 L
620 4081 L
620 4309 L
620 4100 L
620 4152 L
620 4118 L
620 4055 L
620 4137 L
620 4156 L
620 4342 L
620 4233 L
620 4216 L
620 4354 L
620 4012 L
620 4031 L
620 4244 L
620 4141 L
620 4100 L
620 4104 L
620 3859 L
620 3973 L
620 4043 L
620 4118 L
620 4212 L
620 4447 L
620 4333 L
620 4196 L
620 4087 L
620 4141 L
620 4032 L
620 4096 L
620 4176 L
620 4170 L
620 4027 L
620 4313 L
620 3967 L
620 4060 L
620 3990 L
620 4066 L
620 4199 L
620 4102 L
620 4082 L
620 4249 L
620 3975 L
620 4145 L
620 4094 L
620 4025 L
620 4135 L
620 4022 L
620 4198 L
620 4227 L
620 4020 L
620 4093 L
620 4350 L
620 4166 L
620 4026 L
620 4072 L
620 3975 L
620 3875 L
620 4128 L
620 4049 L
620 3859 L
620 4032 L
620 4133 L
620 3918 L
620 3690 L
620 4082 L
620 4253 L
620 4192 L
620 4266 L
620 4292 L
620 4018 L
620 3918 L
620 4023 L
620 4138 L
620 4140 L
620 4025 L
620 4117 L
620 4159 L
620 4152 L
620 4042 L
620 4048 L
620 4169 L
620 3923 L
620 4176 L
620 4086 L
620 4101 L
620 4261 L
620 3760 L
620 4032 L
620 4197 L
620 3890 L
620 3899 L
620 4018 L
620 4233 L
620 4173 L
620 4042 L
620 4142 L
620 3978 L
620 3951 L
620 4011 L
620 4255 L
620 4029 L
620 4028 L
620 3984 L
620 3972 L
620 4123 L
620 4131 L
620 4453 L
620 4111 L
620 4164 L
620 4300 L
620 4090 L
620 4015 L
620 4133 L
620 3980 L
620 3983 L
620 4055 L
620 4193 L
620 3929 L
620 3608 L
620 4151 L
620 3966 L
620 4084 L
620 3856 L
620 4110 L
620 4307 L
620 4279 L
620 4128 L
620 3825 L
620 3851 L
620 4213 L
620 4298 L
620 4249 L
620 4212 L
620 3886 L
620 4019 L
620 4071 L
620 4014 L
620 4034 L
620 4085 L
620 4299 L
620 4230 L
620 4285 L
620 4215 L
620 4258 L
620 4012 L
620 3924 L
620 3878 L
620 4034 L
620 4115 L
620 4034 L
620 4196 L
620 3780 L
620 4184 L
620 3991 L
620 4183 L
620 4106 L
620 4223 L
620 4227 L
620 3973 L
620 4170 L
620 3936 L
620 4058 L
620 4024 L
620 3905 L
620 3937 L
620 4087 L
620 4002 L
620 4244 L
620 4155 L
620 4162 L
620 3936 L
620 4088 L
620 4246 L
620 3987 L
620 3972 L
620 4412 L
620 3955 L
620 4378 L
620 3922 L
620 3983 L
620 4058 L
620 4046 L
620 4103 L
620 3946 L
620 4033 L
620 3860 L
620 4137 L
620 3964 L
620 4044 L
620 4202 L
620 4233 L
620 4056 L
620 3980 L
620 4006 L
620 4079 L
620 4112 L
620 3861 L
620 4051 L
620 4188 L
620 4080 L
620 4218 L
620 3660 L
620 3730 L
620 3812 L
620 4162 L
620 4448 L
620 3946 L
620 4128 L
620 3961 L
620 3891 L
620 4128 L
620 3981 L
620 4070 L
620 3945 L
620 4166 L
620 3769 L
620 4026 L
620 3964 L
620 3812 L
620 4063 L
620 4133 L
620 4049 L
620 4404 L
620 4018 L
620 3845 L
620 4201 L
620 4020 L
620 3851 L
620 3972 L
620 4169 L
620 3890 L
620 3931 L
620 4057 L
620 4042 L
620 4027 L
620 4203 L
620 3848 L
620 4281 L
620 3839 L
620 4176 L
620 4142 L
620 4006 L
620 3821 L
620 3863 L
620 3872 L
620 3862 L
620 3976 L
620 3804 L
620 4268 L
620 4001 L
620 4121 L
620 4169 L
620 4127 L
620 4170 L
620 4119 L
620 4010 L
620 4033 L
620 4020 L
620 3975 L
620 3861 L
620 3775 L
620 3977 L
620 4021 L
620 4106 L
620 4076 L
620 4213 L
620 3975 L
620 3976 L
620 3811 L
620 3728 L
620 4149 L
620 4096 L
620 4049 L
620 4194 L
620 4045 L
620 3932 L
620 3932 L
620 4212 L
620 3880 L
620 3926 L
620 3946 L
620 3897 L
620 3966 L
620 4009 L
620 4020 L
620 3560 L
620 3900 L
620 3818 L
620 3938 L
620 3771 L
620 3905 L
620 3917 L
620 4048 L
620 3914 L
620 4042 L
620 3711 L
620 3904 L
620 3750 L
620 3756 L
620 3856 L
620 3858 L
620 4033 L
620 3848 L
620 3872 L
620 3865 L
620 4060 L
620 3849 L
620 3879 L
620 3877 L
620 3601 L
620 3984 L
620 3946 L
620 4103 L
620 3586 L
620 4154 L
620 3785 L
620 3536 L
620 3740 L
620 3893 L
620 3766 L
620 3758 L
620 3729 L
620 4044 L
620 3813 L
620 3830 L
620 3753 L
620 3643 L
620 3883 L
620 3954 L
620 3886 L
620 3792 L
620 3793 L
620 3750 L
620 3942 L
620 3538 L
620 3682 L
620 3623 L
620 3793 L
620 3984 L
620 3827 L
620 3754 L
620 3750 L
620 3709 L
620 3991 L
620 3737 L
620 3632 L
620 3693 L
620 3694 L
620 3707 L
620 3829 L
620 3826 L
620 3843 L
620 3872 L
620 3665 L
620 3781 L
620 3844 L
620 3584 L
620 3718 L
620 3575 L
620 3692 L
620 3567 L
620 3758 L
620 4000 L
620 3730 L
620 3667 L
620 3701 L
620 4006 L
620 3765 L
620 3749 L
620 3638 L
620 3748 L
620 3666 L
620 3885 L
620 3820 L
620 3490 L
620 3719 L
620 3903 L
620 3636 L
620 3824 L
620 3636 L
620 3602 L
620 3795 L
620 3858 L
620 3895 L
620 3548 L
620 3734 L
620 3550 L
620 3633 L
620 3540 L
620 3779 L
620 3908 L
620 3579 L
620 3793 L
620 3766 L
620 3468 L
620 3651 L
620 3774 L
620 3716 L
620 3601 L
620 3787 L
620 3460 L
620 3922 L
620 3930 L
620 3816 L
620 4081 L
620 3561 L
620 3728 L
620 3863 L
620 3849 L
620 3439 L
620 3706 L
620 3654 L
620 3888 L
620 3802 L
620 3629 L
620 3731 L
620 3789 L
620 3714 L
620 3680 L
620 3792 L
620 3635 L
620 3593 L
620 3563 L
620 3660 L
620 3935 L
620 3561 L
620 3663 L
620 3514 L
620 3684 L
620 3610 L
620 3610 L
620 3548 L
620 3745 L
620 3878 L
620 3612 L
620 3703 L
620 3613 L
620 3708 L
620 3866 L
620 4086 L
620 3661 L
620 3593 L
620 3794 L
620 3730 L
620 3665 L
620 3534 L
620 3511 L
620 4009 L
620 3763 L
620 4142 L
620 3828 L
620 3780 L
620 3886 L
620 3828 L
620 3749 L
620 3660 L
620 3679 L
620 3761 L
620 3617 L
620 3670 L
620 4018 L
620 3626 L
620 3762 L
620 3593 L
620 3493 L
620 3807 L
620 3634 L
620 3708 L
620 3674 L
620 3735 L
620 3767 L
620 3763 L
620 3796 L
620 3967 L
620 3640 L
620 3458 L
620 3809 L
620 3626 L
620 3860 L
620 3852 L
620 3721 L
620 3860 L
620 3871 L
620 3611 L
620 3461 L
620 3573 L
620 3890 L
620 3796 L
620 3487 L
620 3777 L
620 3734 L
620 3688 L
620 3604 L
620 3680 L
620 3569 L
620 3622 L
620 3735 L
620 3677 L
620 3900 L
620 3826 L
620 3878 L
620 3897 L
620 3770 L
620 3798 L
620 3832 L
620 4170 L
620 3726 L
620 3777 L
620 4106 L
620 3942 L
620 3671 L
620 3902 L
620 3730 L
620 3633 L
620 3850 L
620 3789 L
620 3814 L
620 3884 L
620 3658 L
620 3935 L
620 3991 L
620 4074 L
620 3753 L
620 3849 L
620 3668 L
620 3863 L
620 3806 L
620 3930 L
620 3784 L
620 3918 L
620 4091 L
620 3871 L
620 3551 L
620 4032 L
620 3835 L
620 3878 L
620 3843 L
620 3958 L
620 4141 L
620 3665 L
620 3776 L
620 3994 L
620 3649 L
620 3897 L
620 3762 L
620 3947 L
620 3696 L
620 4152 L
620 3725 L
620 3754 L
620 3769 L
620 3849 L
620 3917 L
620 3800 L
620 3731 L
620 3765 L
620 3891 L
620 4022 L
620 3750 L
620 3965 L
620 4032 L
620 4092 L
620 3926 L
620 3844 L
620 3793 L
620 3958 L
620 3703 L
620 3622 L
620 4032 L
620 3871 L
620 3901 L
620 3754 L
620 4000 L
620 4007 L
620 4052 L
620 3864 L
620 4023 L
620 4003 L
620 4197 L
620 3597 L
620 3867 L
620 3872 L
620 3975 L
620 3556 L
620 3932 L
620 3949 L
620 3647 L
620 3886 L
620 3963 L
620 3834 L
620 3615 L
620 4113 L
620 4071 L
620 3762 L
620 4125 L
620 3691 L
620 3842 L
620 3704 L
620 4020 L
620 4038 L
620 3903 L
620 4061 L
620 3875 L
620 3889 L
620 3834 L
620 4128 L
620 3877 L
620 3801 L
620 3800 L
620 3980 L
620 4149 L
620 4078 L
620 4012 L
620 3888 L
620 3947 L
620 4011 L
620 4163 L
620 3891 L
620 3967 L
620 3832 L
620 3891 L
620 3944 L
620 3970 L
620 4024 L
620 4030 L
620 3895 L
620 3954 L
620 3906 L
620 3890 L
620 3936 L
620 3941 L
620 3773 L
620 3748 L
620 3995 L
620 4253 L
620 3894 L
620 3871 L
620 4246 L
620 4060 L
620 3986 L
620 4078 L
620 3860 L
620 3963 L
620 3757 L
620 3952 L
620 3932 L
620 4024 L
620 3914 L
620 3983 L
620 3978 L
620 3970 L
620 4110 L
620 4100 L
620 3926 L
620 4146 L
620 4306 L
620 4146 L
620 3672 L
620 3892 L
620 3896 L
620 3768 L
620 3857 L
620 4100 L
620 4047 L
620 4011 L
620 3693 L
620 4178 L
620 4170 L
620 3912 L
620 4059 L
620 4075 L
620 4011 L
620 4058 L
620 4005 L
620 4140 L
620 4085 L
620 3988 L
620 3988 L
620 4018 L
620 3966 L
620 3909 L
620 4156 L
620 4080 L
620 4218 L
620 4273 L
620 3929 L
620 4011 L
620 3985 L
620 4034 L
620 4231 L
620 3899 L
620 4106 L
620 4016 L
620 3995 L
620 3765 L
620 3852 L
620 4261 L
620 3989 L
620 4057 L
620 3978 L
620 4115 L
620 4078 L
620 4079 L
620 4068 L
620 4057 L
620 4180 L
620 3880 L
620 4143 L
620 4536 L
620 4237 L
620 4033 L
620 4015 L
620 4114 L
620 4054 L
620 3894 L
620 4122 L
620 4289 L
620 3964 L
620 4064 L
620 4078 L
620 4018 L
620 4026 L
620 4108 L
620 4048 L
620 3876 L
620 3904 L
620 4058 L
620 4251 L
620 4152 L
620 4198 L
620 4185 L
620 3966 L
620 4152 L
620 4262 L
620 4087 L
620 3995 L
620 3656 L
620 4016 L
620 3987 L
620 3977 L
620 4262 L
620 4014 L
620 4156 L
620 4126 L
620 4261 L
620 4122 L
620 4011 L
620 3949 L
620 4145 L
620 4230 L
620 4319 L
620 4156 L
620 4216 L
620 4055 L
620 4128 L
620 4118 L
620 3937 L
620 4177 L
620 4158 L
620 4076 L
620 4280 L
620 3964 L
620 4046 L
620 3980 L
620 4153 L
620 4154 L
620 4205 L
620 4317 L
620 4074 L
620 4060 L
620 4121 L
620 4306 L
620 4118 L
620 4105 L
620 4018 L
620 4159 L
620 4167 L
620 4178 L
620 4087 L
620 4343 L
620 3999 L
620 4112 L
620 4079 L
620 4265 L
620 4069 L
620 4099 L
620 4072 L
620 4002 L
620 3932 L
620 4330 L
620 4218 L
620 4082 L
620 4058 L
620 4262 L
620 4335 L
620 4031 L
620 4051 L
620 4129 L
620 4014 L
620 3954 L
620 4056 L
620 4292 L
620 4043 L
620 4183 L
620 4012 L
620 4171 L
620 4049 L
620 4571 L
620 4263 L
620 4026 L
620 4332 L
620 4225 L
620 4310 L
620 4238 L
620 4137 L
620 4249 L
620 4645 L
620 4105 L
620 4303 L
620 4093 L
620 4165 L
620 4289 L
620 4328 L
620 4379 L
620 4493 L
620 4171 L
620 4007 L
620 4010 L
620 4135 L
620 4314 L
620 4034 L
620 4345 L
620 4359 L
620 4171 L
620 4332 L
620 4103 L
620 3966 L
620 4402 L
620 4015 L
620 4411 L
620 4264 L
620 4191 L
620 4435 L
620 4105 L
620 4252 L
620 4170 L
620 4247 L
620 4291 L
620 4387 L
620 4333 L
620 3985 L
620 4232 L
620 4226 L
620 4294 L
620 4115 L
620 4181 L
620 4362 L
620 4277 L
620 4223 L
620 4144 L
620 4174 L
620 4074 L
620 4165 L
620 4077 L
620 4561 L
620 4299 L
620 4553 L
620 4188 L
620 4224 L
620 4196 L
620 4420 L
620 4309 L
620 4398 L
620 4387 L
620 4273 L
620 4479 L
620 4175 L
620 4284 L
620 4344 L
620 4262 L
620 4252 L
620 4115 L
620 4298 L
620 4271 L
620 4370 L
620 3996 L
620 4353 L
620 4271 L
620 4366 L
620 4442 L
620 4521 L
620 4148 L
620 4447 L
620 4074 L
620 4419 L
620 4235 L
620 4173 L
620 4335 L
620 4216 L
620 4111 L
620 4237 L
620 4343 L
620 4191 L
620 4295 L
620 4541 L
620 4177 L
620 4337 L
620 4304 L
620 4336 L
620 4248 L
620 3974 L
620 4420 L
620 4130 L
620 4324 L
620 4147 L
620 4331 L
620 4267 L
620 4499 L
620 4280 L
620 4411 L
620 4487 L
620 4230 L
620 3936 L
620 4227 L
620 4345 L
620 4416 L
620 4263 L
620 4375 L
620 4510 L
620 4290 L
620 4323 L
620 4196 L
620 4233 L
620 4224 L
620 4316 L
620 4270 L
620 4022 L
620 4429 L
620 4026 L
620 4162 L
620 4343 L
620 4193 L
620 4292 L
620 4357 L
620 4145 L
620 4279 L
620 4362 L
620 4271 L
620 4200 L
620 4308 L
620 4010 L
620 4357 L
620 4333 L
620 4424 L
620 4254 L
620 4484 L
620 4407 L
620 4341 L
620 4263 L
620 4425 L
620 4335 L
620 4344 L
620 4416 L
620 4379 L
620 4370 L
620 4471 L
620 3968 L
620 4500 L
620 4300 L
620 4449 L
620 4417 L
620 4298 L
620 4163 L
620 4359 L
620 4518 L
620 4121 L
620 4305 L
620 4302 L
620 4244 L
620 4582 L
620 4399 L
620 4428 L
620 4274 L
620 4287 L
620 4471 L
620 4426 L
620 4418 L
620 4383 L
620 4262 L
620 4453 L
620 4100 L
620 4453 L
620 4139 L
620 4426 L
620 4268 L
620 4500 L
620 4526 L
620 4440 L
620 4317 L
620 4422 L
620 4465 L
620 4425 L
620 4385 L
620 4647 L
620 4513 L
620 4427 L
620 4195 L
620 4225 L
620 4302 L
620 4147 L
620 4354 L
620 4407 L
620 4443 L
620 4341 L
620 4356 L
620 4225 L
620 4293 L
620 4262 L
620 4251 L
620 4125 L
620 4391 L
620 4262 L
620 4398 L
620 4373 L
620 4217 L
620 4364 L
620 4490 L
620 4282 L
620 4176 L
620 4424 L
620 4362 L
620 4298 L
620 4270 L
620 4216 L
620 4360 L
620 4326 L
620 4421 L
620 4419 L
620 4408 L
620 4194 L
620 4342 L
620 4253 L
620 4477 L
620 4249 L
620 4505 L
620 4360 L
620 4043 L
620 4534 L
620 4461 L
620 4417 L
620 4389 L
620 4310 L
620 4263 L
620 4245 L
620 4436 L
620 4473 L
620 4335 L
620 4415 L
620 4216 L
620 4713 L
620 4354 L
620 4270 L
620 4523 L
620 4261 L
620 4240 L
620 4645 L
620 4405 L
620 4330 L
620 4214 L
620 4487 L
620 4562 L
620 4452 L
620 4520 L
620 4266 L
620 4290 L
620 4055 L
620 4253 L
620 4321 L
620 4305 L
620 4284 L
620 4440 L
620 4255 L
620 4080 L
620 4528 L
620 4248 L
620 4232 L
620 4378 L
620 4425 L
620 4272 L
620 4500 L
620 4588 L
620 4250 L
620 4516 L
620 4270 L
620 4573 L
620 4384 L
620 4403 L
620 4432 L
620 4366 L
620 4393 L
620 4336 L
620 4636 L
620 4253 L
620 4180 L
620 4416 L
620 4253 L
620 4487 L
620 4294 L
620 4362 L
620 4491 L
620 4588 L
620 4412 L
620 4650 L
620 4432 L
620 4502 L
620 4478 L
620 4474 L
620 4351 L
620 4390 L
620 4382 L
620 4516 L
620 4239 L
620 4387 L
620 4602 L
620 4420 L
620 4510 L
620 4431 L
620 4488 L
620 4339 L
620 4647 L
620 4258 L
620 4255 L
620 4679 L
620 4455 L
620 4143 L
620 4234 L
620 4611 L
620 4207 L
620 4361 L
620 4567 L
620 4477 L
620 4270 L
620 4179 L
620 4380 L
620 4454 L
620 4136 L
620 4318 L
620 4402 L
620 4318 L
620 4741 L
620 4596 L
620 4137 L
620 4574 L
620 4556 L
620 4421 L
620 4281 L
620 4609 L
620 4743 L
620 4296 L
620 4312 L
620 4630 L
620 4538 L
620 4443 L
620 4551 L
620 4294 L
620 4342 L
620 4356 L
620 4354 L
620 4180 L
620 4403 L
620 4378 L
620 4384 L
620 4621 L
620 4305 L
620 4620 L
620 4263 L
620 4311 L
620 4410 L
620 4227 L
620 4264 L
620 4177 L
620 4553 L
620 4500 L
620 4457 L
620 4610 L
620 4630 L
620 4425 L
620 4280 L
620 4433 L
620 4338 L
620 4476 L
620 4406 L
620 4393 L
620 4414 L
620 4659 L
620 4210 L
620 4439 L
620 4105 L
620 4419 L
620 4532 L
620 4303 L
620 4411 L
620 4365 L
620 4665 L
620 4395 L
620 4554 L
620 4410 L
620 4265 L
620 4479 L
620 4513 L
620 4347 L
620 4353 L
620 4668 L
620 4424 L
620 4499 L
620 4465 L
620 4626 L
620 4565 L
620 4524 L
620 4604 L
620 4496 L
620 4439 L
620 4771 L
620 4373 L
620 4622 L
620 4611 L
620 4483 L
620 4332 L
620 4388 L
620 4535 L
620 4581 L
620 4557 L
620 4375 L
620 4361 L
620 4341 L
620 4386 L
620 4317 L
620 4642 L
620 4523 L
620 4636 L
620 4458 L
620 4385 L
620 4552 L
620 4323 L
620 4509 L
620 4576 L
620 4266 L
620 4566 L
620 4393 L
620 4585 L
620 4475 L
620 4638 L
620 4333 L
620 4400 L
620 4531 L
620 4682 L
620 4676 L
620 4182 L
620 4523 L
620 4001 L
620 4379 L
620 4289 L
620 4433 L
620 4462 L
620 4512 L
620 4621 L
620 4216 L
620 4609 L
620 4650 L
620 4583 L
620 4505 L
620 4587 L
620 4078 L
620 4431 L
620 4678 L
620 4542 L
620 4685 L
620 4770 L
620 4559 L
620 4395 L
620 4437 L
620 4442 L
620 4516 L
620 4588 L
620 4469 L
620 4571 L
620 4560 L
620 4557 L
620 4397 L
620 4686 L
620 4636 L
620 4274 L
620 4393 L
620 4532 L
620 4622 L
620 4157 L
620 4519 L
620 4546 L
620 4428 L
620 4601 L
620 4228 L
620 4504 L
620 4378 L
620 4381 L
620 4081 L
620 4461 L
620 3965 L
620 4096 L
620 4200 L
620 4364 L
620 4058 L
620 4334 L
620 4028 L
620 4334 L
620 4343 L
620 4474 L
620 4205 L
620 4303 L
620 4439 L
620 4160 L
620 4127 L
620 4431 L
620 4260 L
620 4640 L
620 4377 L
620 4127 L
620 4164 L
620 4189 L
620 4332 L
620 4076 L
620 4228 L
620 4062 L
620 4218 L
620 4381 L
620 4425 L
620 4320 L
620 4318 L
620 4137 L
620 4293 L
620 4348 L
620 4587 L
620 3965 L
620 4372 L
620 4265 L
620 4308 L
620 4182 L
620 4263 L
620 4142 L
620 4044 L
620 4304 L
620 4096 L
620 4040 L
620 3957 L
620 4379 L
620 4367 L
620 4079 L
620 3990 L
620 4250 L
620 4255 L
620 4116 L
620 4028 L
620 4028 L
620 4116 L
620 4261 L
620 4029 L
620 4242 L
620 4041 L
620 4290 L
620 4054 L
620 3924 L
620 3810 L
620 4059 L
620 4388 L
620 4106 L
620 4002 L
620 4089 L
620 4299 L
620 4110 L
620 4102 L
620 4099 L
620 4019 L
620 4091 L
620 3971 L
620 4004 L
620 4300 L
620 3998 L
620 4376 L
620 4020 L
620 4201 L
620 3952 L
620 3816 L
620 4148 L
620 4081 L
620 3849 L
620 4296 L
620 4165 L
620 4088 L
620 4170 L
620 3997 L
620 3963 L
620 4067 L
620 3890 L
620 3876 L
620 4304 L
620 3971 L
620 3941 L
620 4224 L
620 3780 L
620 4403 L
620 4295 L
620 4126 L
620 3958 L
620 4104 L
620 4003 L
620 4178 L
620 4137 L
620 4085 L
620 4048 L
620 4004 L
620 4211 L
620 4081 L
620 3976 L
620 4385 L
620 4223 L
620 4279 L
620 4239 L
620 4223 L
620 4203 L
620 4386 L
620 4118 L
620 4455 L
620 4109 L
620 4107 L
620 4226 L
620 3955 L
620 4333 L
620 4229 L
620 4032 L
620 4110 L
620 3931 L
620 4128 L
620 4100 L
620 4061 L
620 3979 L
620 4001 L
620 4136 L
620 4036 L
620 4155 L
620 4168 L
620 3966 L
620 4168 L
620 4391 L
620 4423 L
620 4320 L
620 3996 L
620 4361 L
620 4150 L
620 4236 L
620 4008 L
620 3801 L
620 4022 L
620 4185 L
620 4281 L
620 4042 L
620 4333 L
620 3927 L
620 3971 L
620 4169 L
620 4389 L
620 4220 L
620 4201 L
620 4036 L
620 3912 L
620 3986 L
620 4204 L
620 3826 L
620 4043 L
620 4191 L
620 4040 L
620 4418 L
620 3833 L
620 4062 L
620 4166 L
620 3753 L
620 4170 L
620 4189 L
620 4183 L
620 3949 L
620 3955 L
620 4029 L
620 4015 L
620 4118 L
620 4088 L
620 4025 L
620 4174 L
620 3979 L
620 4146 L
620 4281 L
620 3999 L
620 3977 L
620 3871 L
620 4028 L
620 4175 L
620 4106 L
620 4256 L
620 3976 L
620 3905 L
620 4021 L
620 4144 L
620 4179 L
620 3985 L
620 4154 L
620 4361 L
620 3723 L
620 4258 L
620 3905 L
620 4105 L
620 3992 L
620 4310 L
620 4321 L
620 4127 L
620 4305 L
620 4089 L
620 3957 L
620 4153 L
620 3779 L
620 4146 L
620 4116 L
620 3889 L
620 4173 L
620 4004 L
620 3978 L
620 4408 L
620 4178 L
620 4144 L
620 3927 L
620 4378 L
620 3865 L
620 4065 L
620 3946 L
620 4540 L
620 3932 L
620 4132 L
620 4277 L
620 3891 L
620 4238 L
620 3984 L
620 4087 L
620 4129 L
620 4075 L
620 3921 L
620 4232 L
620 4046 L
620 4290 L
620 4531 L
620 4170 L
620 4300 L
620 4057 L
620 4070 L
620 4051 L
620 4168 L
620 4274 L
620 4036 L
620 4386 L
620 4127 L
620 3905 L
620 4158 L
620 3967 L
620 4371 L
620 4018 L
620 4060 L
620 3970 L
620 3925 L
620 4303 L
620 4072 L
620 4065 L
620 4047 L
620 4109 L
620 3879 L
620 4283 L
620 4129 L
620 4253 L
620 4138 L
620 4335 L
620 4269 L
620 4128 L
620 4200 L
620 4349 L
620 4187 L
620 4166 L
620 3887 L
620 3998 L
620 3753 L
620 4009 L
620 3787 L
620 4078 L
620 4006 L
620 4160 L
620 3979 L
620 3914 L
620 4200 L
620 4214 L
620 4166 L
620 4088 L
620 4282 L
620 4204 L
620 3857 L
620 4080 L
620 4061 L
620 4204 L
620 4415 L
620 4071 L
620 4127 L
620 4008 L
620 4009 L
620 4097 L
620 3906 L
620 4102 L
620 4159 L
L2 C07 COSGR

%
%================
% Legend - Begin
%================
%
GSN 4240 5180 M
4480 5180 L
LWMC SL  C07 COSGR
GSN 4540 5141 M helvM (4.0 uM) show grestore
%
%================
% Legend - End
%================
%

%
% Main frame
%
L10
GSN 
620 1700 M
4220 1700 L
4220 5300 L
620 5300 L
closepath SGR

%
% X axis: large tics
%
L10
%
% X axis: small tics
%
L5
%
% Y axis: large tics
%
L10
GSN 620 1759 M 54 0 rL SGR
GSN 4220 1759 M -54 0 rL SGR
helvS (-0.04) 560 1759 ylabel
GSN 620 2920 M 54 0 rL SGR
GSN 4220 2920 M -54 0 rL SGR
helvS (-0.02) 560 2920 ylabel
GSN 620 4081 M 54 0 rL SGR
GSN 4220 4081 M -54 0 rL SGR
helvS (0) 560 4081 ylabel
GSN 620 5242 M 54 0 rL SGR
GSN 4220 5242 M -54 0 rL SGR
helvS (0.02) 560 5242 ylabel
%
% Y axis: small tics
%
L5
GSN 620 1759 M 36 0 rL SGR
GSN 4220 1759 M -36 0 rL SGR
GSN 620 2050 M 36 0 rL SGR
GSN 4220 2050 M -36 0 rL SGR
GSN 620 2340 M 36 0 rL SGR
GSN 4220 2340 M -36 0 rL SGR
GSN 620 2630 M 36 0 rL SGR
GSN 4220 2630 M -36 0 rL SGR
GSN 620 2920 M 36 0 rL SGR
GSN 4220 2920 M -36 0 rL SGR
GSN 620 3210 M 36 0 rL SGR
GSN 4220 3210 M -36 0 rL SGR
GSN 620 3500 M 36 0 rL SGR
GSN 4220 3500 M -36 0 rL SGR
GSN 620 3791 M 36 0 rL SGR
GSN 4220 3791 M -36 0 rL SGR
GSN 620 4081 M 36 0 rL SGR
GSN 4220 4081 M -36 0 rL SGR
GSN 620 4371 M 36 0 rL SGR
GSN 4220 4371 M -36 0 rL SGR
GSN 620 4661 M 36 0 rL SGR
GSN 4220 4661 M -36 0 rL SGR
GSN 620 4951 M 36 0 rL SGR
GSN 4220 4951 M -36 0 rL SGR
GSN 620 5242 M 36 0 rL SGR
GSN 4220 5242 M -36 0 rL SGR

%
% X axis - residual panel
%
GSN L5 620 4081 M 4220 4081 L SDA G50 SGR

%
% X-Axis label:
%
gsave 620 1370 M 
[
[(Helvetica) 180 0 true true 0 (t)]
[(Helvetica) 180 0 true true 0 (i)]
[(Helvetica) 180 0 true true 0 (m)]
[(Helvetica) 180 0 true true 0 (e)]
] 0 MCshow grestore

%
% Y-Axis label:
%
gsave 234 3499 M 
currentpoint gsave translate 90 rotate 0 0 moveto
[
[(Helvetica) 180 0 true true 0 (r)]
[(Helvetica) 180 0 true true 0 (e)]
[(Helvetica) 180 0 true true 0 (s)]
[(Helvetica) 180 0 true true 0 (i)]
[(Helvetica) 180 0 true true 0 (d)]
[(Helvetica) 180 0 true true 0 (u)]
[(Helvetica) 180 0 true true 0 (a)]
[(Helvetica) 180 0 true true 0 (l)]
[(Helvetica) 180 0 true true 0 (s)]
] 0 MCshow grestore

end
showpage
%%Trailer
%%EOF
