# data set	./hsmug/series//U-Trp-R243A.1.csv:col(2)
# fraction of residuals inside model inference band	0.422139
#   x(mesh)	    y(mesh)	       rate	   y(mesh)-	   y(mesh)+	    x(data)	    y(data)	   y(model)	   y(error)	   residual	     weight	  residual*	   leverage	  y(model)-	  y(model)+	
2.27273e-005	     1.17046	   -0.295757	     1.17046	     1.17046	    2.5e-005	      1.1793	     1.17046	           0	  0.00884188	           1	           0	      -10677	     1.17046	     1.17046	
2.27273e-005	     1.17046	   -0.295757	     1.17046	     1.17046	    0.001275	     1.17193	     1.17009	           0	  0.00183593	           1	           0	      7506.9	    0.478673	     1.86151	
2.65091e-005	     1.17046	   -0.295746	     1.17046	     1.17046	    0.002525	     1.17325	     1.16973	           0	  0.00351878	           1	           0	     6126.32	    0.545116	     1.79434	
3.09203e-005	     1.17046	   -0.295733	     0.25981	      2.0811	    0.003775	      1.1792	     1.16937	           0	  0.00983048	           1	           0	     -1948.7	     1.16937	     1.16937	
3.60656e-005	     1.17045	   -0.295718	     1.17045	     1.17045	    0.005025	     1.17579	     1.16902	           0	  0.00677444	           1	           0	     2805.49	    0.746333	      1.5917	
 4.2067e-005	     1.17045	     -0.2957	     1.17045	     1.17045	    0.006275	      1.1731	     1.16867	           0	  0.00443074	           1	           0	      -11702	     1.16867	     1.16867	
4.54545e-005	     1.17045	    -0.29569	     1.17045	     1.17045	    0.007525	     1.17345	     1.16832	           0	  0.00513278	           1	           0	     -1974.9	     1.16832	     1.16832	
 4.9067e-005	     1.17045	   -0.295679	     1.17045	     1.17045	    0.008775	     1.17325	     1.16798	           0	  0.00527062	           1	           0	     2050.15	     0.80665	     1.52931	
5.72319e-005	     1.17045	   -0.295655	     1.17045	     1.17045	    0.010025	     1.17401	     1.16764	           0	  0.00637099	           1	           0	    -1843.94	     1.16764	     1.16764	
6.67554e-005	     1.17045	   -0.295627	    0.785347	     1.55554	    0.011275	     1.17223	     1.16731	           0	  0.00492064	           1	           0	    -1138.13	     1.16731	     1.16731	
7.78637e-005	     1.17044	   -0.295594	     1.17044	     1.17044	    0.012525	     1.17259	     1.16698	           0	  0.00560628	           1	           0	     8330.76	     0.43861	     1.89535	
9.08204e-005	     1.17044	   -0.295556	     1.17044	     1.17044	    0.013775	     1.16689	     1.16666	           0	 0.000234655	           1	           0	    -11783.5	     1.16666	     1.16666	
9.09091e-005	     1.17044	   -0.295556	     1.17044	     1.17044	    0.015025	      1.1763	     1.16633	           0	  0.00996915	           1	           0	    -12074.6	     1.16633	     1.16633	
 0.000105933	     1.17043	   -0.295511	     1.17043	     1.17043	    0.016275	     1.16811	     1.16602	           0	  0.00209315	           1	           0	    -12504.9	     1.16602	     1.16602	
 0.000123561	     1.17043	   -0.295459	     1.17043	     1.17043	    0.017525	     1.17157	      1.1657	           0	  0.00586673	           1	           0	    -722.003	      1.1657	      1.1657	
 0.000144121	     1.17042	   -0.295399	     1.17042	     1.17042	    0.018775	     1.17294	     1.16539	           0	  0.00754994	           1	           0	    -10139.1	     1.16539	     1.16539	
 0.000168104	     1.17042	   -0.295328	     1.17042	     1.17042	    0.020025	     1.17157	     1.16509	           0	  0.00648283	           1	           0	    -8605.68	     1.16509	     1.16509	
 0.000181818	     1.17041	   -0.295287	     1.17041	     1.17041	    0.021275	     1.17264	     1.16478	           0	  0.00785547	           1	           0	    -15957.1	     1.16478	     1.16478	
 0.000196077	     1.17041	   -0.295245	     1.17041	     1.17041	    0.022525	     1.16582	     1.16449	           0	  0.00133789	           1	           0	     854.211	    0.931251	     1.39772	
 0.000228704	      1.1704	   -0.295149	      1.1704	      1.1704	    0.023775	     1.16867	     1.16419	           0	  0.00448017	           1	           0	    -11963.9	     1.16419	     1.16419	
 0.000266761	     1.17039	   -0.295037	     1.17039	     1.17039	    0.025025	     1.16694	      1.1639	           0	  0.00304568	           1	           0	     8728.54	     0.41834	     1.90945	
 0.000311151	     1.17037	   -0.294906	     1.17037	     1.17037	    0.026275	     1.16389	     1.16361	           0	 0.000281134	           1	           0	     12687.4	    0.264741	     2.06248	
 0.000362927	     1.17036	   -0.294753	     1.17036	     1.17036	    0.027525	     1.16516	     1.16332	           0	  0.00183659	           1	           0	      -10977	     1.16332	     1.16332	
 0.000363636	     1.17036	   -0.294751	     1.17036	     1.17036	    0.028775	     1.16709	     1.16304	           0	   0.0040521	           1	           0	    -10948.3	     1.16304	     1.16304	
 0.000423319	     1.17034	   -0.294575	     1.17034	     1.17034	    0.030025	     1.16287	     1.16276	           0	 0.000111031	           1	           0	     1828.19	    0.821553	     1.50397	
 0.000493761	     1.17032	   -0.294368	     1.17032	     1.17032	    0.031275	     1.16801	     1.16249	           0	  0.00552344	           1	           0	    -20496.8	     1.16249	     1.16249	
 0.000575924	      1.1703	   -0.294127	      1.1703	      1.1703	    0.032525	     1.17081	     1.16221	           0	  0.00859271	           1	           0	     4630.93	    0.619158	     1.70527	
 0.000671759	     1.17027	   -0.293845	     1.17027	     1.17027	    0.033775	     1.16664	     1.16194	           0	  0.00469221	           1	           0	    -14451.2	     1.16194	     1.16194	
 0.000727273	     1.17025	   -0.293683	     1.17025	     1.17025	    0.035025	     1.16923	     1.16168	           0	  0.00755199	           1	           0	     4997.28	    0.597551	     1.72581	
 0.000783541	     1.17023	   -0.293518	     1.17023	     1.17023	    0.036275	     1.16486	     1.16141	           0	  0.00344543	           1	           0	    -11396.8	     1.16141	     1.16141	
 0.000913924	      1.1702	   -0.293136	      1.1702	      1.1702	    0.037525	     1.16206	     1.16115	           0	 0.000902564	           1	           0	    -3290.54	     1.16115	     1.16115	
    0.001066	     1.17015	   -0.292692	    0.563854	     1.77645	    0.038775	      1.1558	      1.1609	           0	 -0.00509656	           1	           0	    -1264.95	      1.1609	      1.1609	
  0.00124339	      1.1701	   -0.292175	      1.1701	      1.1701	    0.040025	     1.15931	     1.16064	           0	 -0.00132857	           1	           0	    -11329.8	     1.16064	     1.16064	
  0.00145029	     1.17004	   -0.291573	     1.17004	     1.17004	    0.041275	     1.15992	     1.16039	           0	-0.000470091	           1	           0	     5251.06	    0.582116	     1.73866	
  0.00145455	     1.17004	   -0.291561	     1.17004	     1.17004	    0.042525	      1.1648	     1.16014	           0	  0.00466225	           1	           0	     15488.9	    0.166977	     2.15331	
  0.00169162	     1.16997	   -0.290873	     1.16997	     1.16997	    0.043775	     1.16455	     1.15989	           0	  0.00465516	           1	           0	     1958.96	    0.806693	      1.5131	
  0.00197312	     1.16989	    -0.29006	     1.16989	     1.16989	    0.045025	     1.16124	     1.15965	           0	  0.00159201	           1	           0	    -18156.4	     1.15965	     1.15965	
  0.00230145	     1.16979	   -0.289115	     1.16979	     1.16979	    0.046275	      1.1615	     1.15941	           0	  0.00208616	           1	           0	    -2513.07	     1.15941	     1.15941	
  0.00268441	     1.16968	   -0.288018	     1.16968	     1.16968	    0.047525	     1.16323	     1.15917	           0	  0.00405767	           1	           0	    -2423.95	     1.15917	     1.15917	
  0.00290909	     1.16962	   -0.287377	     0.54547	     1.79376	    0.048775	     1.16287	     1.15894	           0	  0.00393655	           1	           0	    -5948.99	     1.15894	     1.15894	
  0.00313111	     1.16955	   -0.286745	     1.16955	     1.16955	    0.050025	     1.16532	      1.1587	           0	  0.00661286	           1	           0	    -16705.6	      1.1587	      1.1587	
  0.00365213	      1.1694	    -0.28527	      1.1694	      1.1694	    0.051275	     1.16893	     1.15847	           0	   0.0104533	           1	           0	    -440.372	     1.15847	     1.15847	
  0.00425985	     1.16923	   -0.283562	     1.16923	     1.16923	    0.052525	     1.15753	     1.15825	           0	-0.000715466	           1	           0	     1955.46	    0.805359	     1.51113	
   0.0049687	     1.16903	   -0.281586	     1.16903	     1.16903	    0.053775	     1.15992	     1.15802	           0	   0.0019033	           1	           0	    -5177.12	     1.15802	     1.15802	
  0.00579551	      1.1688	   -0.279304	      1.1688	      1.1688	    0.055025	     1.15346	      1.1578	           0	 -0.00433371	           1	           0	    -25588.7	      1.1578	      1.1578	
  0.00581818	     1.16879	   -0.279242	     1.16879	     1.16879	    0.056275	     1.15631	     1.15758	           0	 -0.00126313	           1	           0	     1760.76	    0.822719	     1.49243	
   0.0067599	     1.16853	   -0.276673	     1.16853	     1.16853	    0.057525	     1.15367	     1.15736	           0	  -0.0036916	           1	           0	     3810.48	    0.664752	     1.64996	
  0.00788476	     1.16822	   -0.273645	     1.16822	     1.16822	    0.058775	     1.15916	     1.15714	           0	  0.00202092	           1	           0	      6083.6	    0.534712	     1.77957	
  0.00919681	     1.16787	   -0.270166	     1.16787	     1.16787	    0.060025	     1.15941	     1.15693	           0	  0.00248445	           1	           0	        6773	    0.500178	     1.81368	
   0.0107272	     1.16745	   -0.266182	     1.16745	     1.16745	    0.061275	     1.15794	     1.15672	           0	  0.00122236	           1	           0	     -6358.9	     1.15672	     1.15672	
   0.0116364	     1.16721	   -0.263851	     1.16721	     1.16721	    0.062525	     1.15967	     1.15651	           0	  0.00315801	           1	           0	     5325.55	    0.574147	     1.73887	
   0.0125122	     1.16698	    -0.26163	     1.16698	     1.16698	    0.063775	     1.16125	      1.1563	           0	  0.00494477	           1	           0	      7505.1	    0.464967	     1.84764	
   0.0145943	     1.16644	   -0.256447	     1.16644	     1.16644	    0.065025	     1.15265	      1.1561	           0	 -0.00345068	           1	           0	     2590.14	    0.749961	     1.56223	
   0.0170228	     1.16583	   -0.250568	     1.16583	     1.16583	    0.066275	     1.14431	     1.15589	           0	   -0.011585	           1	           0	     2791.86	     0.73424	     1.57755	
   0.0198554	     1.16513	   -0.243927	     1.16513	     1.16513	    0.067525	     1.14919	     1.15569	           0	 -0.00650138	           1	           0	     7590.49	    0.460438	     1.85095	
   0.0231594	     1.16433	   -0.236464	    0.263136	     2.06553	    0.068775	     1.15412	      1.1555	           0	 -0.00137325	           1	           0	     2716.03	    0.739607	     1.57139	
   0.0232727	     1.16431	   -0.236214	    0.653698	     1.67492	    0.070025	     1.15753	      1.1553	           0	  0.00222945	           1	           0	     11099.5	     0.31456	     1.99604	
   0.0270132	     1.16344	   -0.228124	     0.38284	     1.94404	    0.071275	     1.16145	     1.15511	           0	   0.0063401	           1	           0	     409.875	    0.993546	     1.31667	
   0.0315083	     1.16244	   -0.218863	     1.16244	     1.16244	    0.072525	     1.15413	     1.15491	           0	-0.000787964	           1	           0	    -8228.55	     1.15491	     1.15491	
   0.0367513	     1.16131	   -0.208654	     1.16131	     1.16131	    0.073775	     1.15138	     1.15472	           0	 -0.00334803	           1	           0	      9525.5	    0.375874	     1.93358	
   0.0428668	     1.16007	   -0.197491	     1.16007	     1.16007	    0.075025	     1.14873	     1.15454	           0	 -0.00580342	           1	           0	     5185.95	    0.579859	     1.72921	
   0.0465455	     1.15936	   -0.191134	     1.15936	     1.15936	    0.076275	     1.15666	     1.15435	           0	  0.00231257	           1	           0	     5521.47	    0.561374	     1.74733	
        0.05	     1.15871	   -0.185396	     1.15871	     1.15871	    0.077525	     1.14782	     1.15417	           0	 -0.00635005	           1	           0	    -17479.7	     1.15417	     1.15417	
   0.0583201	     1.15722	   -0.172424	     1.15722	     1.15722	    0.078775	     1.15077	     1.15398	           0	 -0.00321791	           1	           0	     13927.9	    0.212197	     2.09577	
   0.0680247	     1.15562	    -0.15867	     1.15562	     1.15562	    0.080025	     1.15646	      1.1538	           0	  0.00265901	           1	           0	    -13522.5	      1.1538	      1.1538	
   0.0793442	      1.1539	   -0.144267	      1.1539	      1.1539	    0.081275	     1.15479	     1.15363	           0	  0.00116073	           1	           0	     8809.81	    0.404606	     1.90265	
   0.0925473	      1.1521	   -0.129393	      1.1521	      1.1521	    0.082525	     1.14716	     1.15345	           0	 -0.00629273	           1	           0	     5405.88	    0.566712	     1.74019	
   0.0930909	     1.15203	   -0.128821	     1.15203	     1.15203	    0.083775	     1.15194	     1.15327	           0	   -0.001338	           1	           0	     740.231	    0.936158	     1.37039	
    0.107947	     1.15022	   -0.114262	     1.15022	     1.15022	    0.085025	     1.15143	      1.1531	           0	 -0.00167507	           1	           0	    -2298.65	      1.1531	      1.1531	
     0.12591	     1.14831	  -0.0991221	     1.14831	     1.14831	    0.086275	     1.14837	     1.15293	           0	 -0.00455725	           1	           0	     8407.11	     0.42123	     1.88463	
    0.146862	      1.1464	  -0.0842416	      1.1464	      1.1464	    0.087525	     1.14751	     1.15276	           0	 -0.00525118	           1	           0	     2740.69	    0.734988	     1.57053	
      0.1713	     1.14452	  -0.0698992	     1.14452	     1.14452	    0.088775	     1.15413	     1.15259	           0	  0.00153316	           1	           0	     16043.5	    0.141806	     2.16338	
    0.186182	     1.14353	  -0.0624579	     1.14353	     1.14353	    0.090025	      1.1497	     1.15243	           0	 -0.00272755	           1	           0	     1008.45	     0.89901	     1.40585	
    0.199805	     1.14273	  -0.0563664	     1.14273	     1.14273	    0.091275	     1.15168	     1.15226	           0	-0.000583278	           1	           0	      -10570	     1.15226	     1.15226	
    0.233053	     1.14107	  -0.0438925	     1.14107	     1.14107	    0.092525	     1.14705	      1.1521	           0	 -0.00504735	           1	           0	     2212.08	    0.776773	     1.52743	
    0.271834	     1.13959	  -0.0326896	     1.13959	     1.13959	    0.093775	     1.15128	     1.15194	           0	-0.000663063	           1	           0	     -6453.6	     1.15194	     1.15194	
    0.317067	     1.13835	  -0.0229204	    0.565384	     1.71131	    0.095025	     1.15148	     1.15178	           0	-0.000300411	           1	           0	     3255.75	     0.69644	     1.60712	
    0.369828	     1.13737	   -0.014689	     1.13737	     1.13737	    0.096275	     1.15056	     1.15162	           0	 -0.00105937	           1	           0	     4709.43	    0.603984	     1.69926	
    0.372364	     1.13733	  -0.0143601	     1.13733	     1.13733	    0.097525	     1.14888	     1.15147	           0	 -0.00258325	           1	           0	     7818.35	    0.445852	     1.85708	
    0.431368	     1.13668	 -0.00803577	     1.13668	     1.13668	    0.098775	     1.14899	     1.15131	           0	 -0.00232205	           1	           0	     5787.03	    0.544243	     1.75838	
    0.503149	      1.1363	 -0.00293632	    0.664659	     1.60794	      0.1001	     1.15041	     1.15115	           0	-0.000739929	           1	           0	     3981.24	    0.647627	     1.65467	
    0.586875	     1.13622	 0.000696979	     1.13622	     1.13622	      0.1051	     1.14568	     1.15055	           0	 -0.00487686	           1	           0	     6485.47	    0.507894	     1.79321	
    0.684532	     1.13641	   0.0030097	     1.13641	     1.13641	      0.1101	     1.14482	     1.14998	           0	 -0.00516392	           1	           0	    -9720.26	     1.14998	     1.14998	
    0.744727	     1.13662	  0.00378513	     1.13662	     1.13662	      0.1151	     1.14649	     1.14943	           0	  -0.0029367	           1	           0	       10509	     0.33136	      1.9675	
     0.79844	     1.13684	  0.00419724	     1.13684	     1.13684	      0.1201	     1.14838	      1.1489	           0	-0.000524217	           1	           0	     918.086	    0.907103	      1.3907	
    0.931302	     1.13742	  0.00449295	    0.651195	     1.62365	      0.1251	       1.147	     1.14839	           0	 -0.00139219	           1	           0	     3393.19	     0.68354	     1.61324	
           1	     1.13773	  0.00439867	     1.13773	     1.13773	      0.1301	     1.14761	      1.1479	           0	-0.000289725	           1	           0	     16403.9	    0.125825	     2.16998	
     1.08627	      1.1381	  0.00415198	    0.864824	     1.41137	      0.1351	     1.14802	     1.14743	           0	 0.000590681	           1	           0	    -151.853	     1.14743	     1.14743	
     1.26703	     1.13879	  0.00343028	     1.13879	     1.13879	      0.1401	     1.13978	     1.14698	           0	 -0.00720017	           1	           0	     7292.85	    0.465491	     1.82847	
     1.47787	     1.13942	  0.00256006	     1.13942	     1.13942	      0.1451	     1.14131	     1.14654	           0	  -0.0052382	           1	           0	     2731.29	    0.729489	      1.5636	
     1.48945	     1.13944	  0.00251557	     1.13944	     1.13944	      0.1501	     1.14253	     1.14613	           0	 -0.00359935	           1	           0	     20648.7	-0.000591342	     2.29284	
     1.72379	     1.13994	  0.00172511	     1.13994	     1.13994	      0.1551	     1.15031	     1.14572	           0	  0.00458373	           1	           0	     7129.67	    0.471901	     1.81954	
     2.01063	     1.14033	  0.00104281	     1.14033	     1.14033	      0.1601	     1.13993	     1.14534	           0	   -0.005405	           1	           0	     7477.14	    0.455289	     1.83538	
     2.34521	     1.14059	 0.000559502	     1.14059	     1.14059	      0.1651	     1.13348	     1.14496	           0	  -0.0114849	           1	           0	    -1708.62	     1.14496	     1.14496	
     2.73546	     1.14074	 0.000262764	     1.14074	     1.14074	      0.1701	     1.14563	      1.1446	           0	  0.00102789	           1	           0	      2951.3	    0.711074	     1.57813	
     2.97891	     1.14079	 0.000162267	     1.14079	     1.14079	      0.1751	     1.13821	     1.14426	           0	 -0.00604935	           1	           0	     4277.24	     0.62235	     1.66616	
     3.19064	     1.14082	 0.000106206	     1.14082	     1.14082	      0.1801	     1.14283	     1.14392	           0	 -0.00108946	           1	           0	    -6240.24	     1.14392	     1.14392	
     3.72157	     1.14085	3.62104e-005	     1.14085	     1.14085	      0.1851	     1.13551	      1.1436	           0	 -0.00809526	           1	           0	    -1069.94	      1.1436	      1.1436	
     4.34085	     1.14087	1.01701e-005	     1.14087	     1.14087	      0.1901	     1.14217	     1.14329	           0	 -0.00112294	           1	           0	     1938.38	    0.791951	     1.49464	
     5.06318	     1.14087	2.28799e-006	     1.14087	     1.14087	      0.1951	     1.14003	       1.143	           0	 -0.00296205	           1	           0	     8890.56	     0.39055	     1.89544	
     5.90571	     1.14087	3.98804e-007	     1.14087	     1.14087	      0.2001	     1.13693	     1.14271	           0	 -0.00577548	           1	           0	    -2137.19	     1.14271	     1.14271	
     5.95782	     1.14087	3.57911e-007	     1.14087	     1.14087	      0.2051	     1.13403	     1.14243	           0	  -0.0083995	           1	           0	     6481.41	    0.499974	     1.78489	
     6.88843	     1.14087	5.17644e-008	     1.14087	     1.14087	      0.2101	     1.13998	     1.14217	           0	  -0.0021837	           1	           0	     1374.15	    0.846347	     1.43799	
     8.03469	     1.14087	4.77331e-009	     1.14087	     1.14087	      0.2151	     1.13713	     1.14191	           0	  -0.0047777	           1	           0	    -679.229	     1.14191	     1.14191	
     9.37168	     1.14087	2.95752e-010	     1.14087	     1.14087	      0.2201	     1.12757	     1.14166	           0	  -0.0140912	           1	           0	     7877.16	    0.433401	     1.84993	
     10.9312	     1.14087	 1.1532e-011	     1.14087	     1.14087	      0.2251	     1.13622	     1.14143	           0	 -0.00520704	           1	           0	     11588.3	    0.282374	     2.00048	
     11.9156	     1.14087	1.48685e-012	     1.14087	     1.14087	      0.2301	     1.13703	      1.1412	           0	 -0.00416502	           1	           0	     2246.58	    0.762955	     1.51944	
     12.7501	     1.14087	 2.6196e-013	     1.14087	     1.14087	      0.2351	     1.12824	     1.14098	           0	  -0.0127415	           1	           0	    -2594.88	     1.14098	     1.14098	
     14.8718	     1.14087	   3.49e-015	     1.14087	     1.14087	      0.2401	     1.13795	     1.14077	           0	 -0.00281606	           1	           0	      5863.6	    0.529694	     1.75184	
     17.3465	     1.14087	1.84277e-016	     1.14087	     1.14087	      0.2451	     1.13398	     1.14056	           0	 -0.00657851	           1	           0	     12512.9	    0.247896	     2.03323	
      20.233	     1.14087	9.75493e-017	     1.14087	     1.14087	      0.2501	     1.13917	     1.14037	           0	 -0.00119521	           1	           0	      872.74	    0.904615	     1.37612	
     23.5998	     1.14087	-2.5338e-017	     1.14087	     1.14087	      0.2551	     1.13093	     1.14018	           0	  -0.0092459	           1	           0	     3280.81	    0.683087	     1.59726	
     23.8313	     1.14087	-1.88771e-017	     1.14087	     1.14087	      0.2601	     1.13983	     1.13999	           0	-0.000163651	           1	           0	    -3080.61	     1.13999	     1.13999	
     27.5269	     1.14087	2.15735e-019	     1.14087	     1.14087	      0.2651	     1.13958	     1.13982	           0	 -0.00024155	           1	           0	     -3393.2	     1.13982	     1.13982	
     32.1074	     1.14087	-1.59723e-017	     1.14087	     1.14087	      0.2701	     1.13764	     1.13965	           0	 -0.00200603	           1	           0	    -110.454	     1.13965	     1.13965	
     37.4501	     1.14087	-5.81406e-018	     1.14087	     1.14087	      0.2751	     1.13449	     1.13949	           0	 -0.00499353	           1	           0	      7332.7	    0.456138	     1.82284	
     43.6819	     1.14087	9.77592e-019	     1.14087	     1.14087	      0.2801	     1.13475	     1.13933	           0	 -0.00458384	           1	           0	    -8520.46	     1.13933	     1.13933	
     47.6625	     1.14087	3.14486e-019	     1.14087	     1.14087	      0.2851	     1.13551	     1.13918	           0	 -0.00367008	           1	           0	     9238.41	    0.372156	      1.9062	
     50.9507	     1.14087	-7.34168e-019	     1.14087	     1.14087	      0.2901	      1.1323	     1.13904	           0	 -0.00673205	           1	           0	       11506	    0.283038	     1.99503	
     59.4291	     1.14087	-3.70892e-019	     1.14087	     1.14087	      0.2951	     1.13363	      1.1389	           0	 -0.00526955	           1	           0	     6160.01	    0.512569	     1.76522	
     69.3182	     1.14087	5.28339e-020	     1.14087	     1.14087	      0.3001	     1.13551	     1.13876	           0	 -0.00325241	           1	           0	     5992.66	    0.521002	     1.75652	
     80.8529	     1.14087	5.47069e-019	     1.14087	     1.14087	      0.3051	       1.135	     1.13863	           0	 -0.00363378	           1	           0	     11577.8	    0.279971	      1.9973	
     94.3071	     1.14087	7.09274e-021	     1.14087	     1.14087	      0.3101	     1.13449	     1.13851	           0	 -0.00401681	           1	           0	    -5016.26	     1.13851	     1.13851	
         110	     1.14087	1.22185e-020	     1.14087	     1.14087	      0.3151	       1.129	     1.13839	           0	 -0.00939468	           1	           0	    -1774.58	     1.13839	     1.13839	
 --	 --	 --	 --	 --	      0.3201	     1.13286	     1.13828	           0	 -0.00541723	           1	           0	      7255.9	    0.458517	     1.81804	
 --	 --	 --	 --	 --	      0.3251	     1.13195	     1.13817	           0	 -0.00622097	           1	           0	     -434.95	     1.13817	     1.13817	
 --	 --	 --	 --	 --	      0.3301	     1.12854	     1.13806	           0	 -0.00951909	           1	           0	     13238.6	    0.219873	     2.05625	
 --	 --	 --	 --	 --	      0.3351	     1.13134	     1.13796	           0	 -0.00662144	           1	           0	     8832.97	    0.387957	     1.88797	
 --	 --	 --	 --	 --	      0.3401	     1.13581	     1.13786	           0	 -0.00205456	           1	           0	     5232.58	    0.560609	     1.71512	
 --	 --	 --	 --	 --	      0.3451	     1.12925	     1.13777	           0	 -0.00851831	           1	           0	     2286.59	    0.756175	     1.51937	
 --	 --	 --	 --	 --	      0.3501	     1.13373	     1.13768	           0	 -0.00395256	           1	           0	     15344.3	    0.149168	      2.1262	
 --	 --	 --	 --	 --	      0.3551	     1.12956	      1.1376	           0	 -0.00804053	           1	           0	    -15102.9	      1.1376	      1.1376	
 --	 --	 --	 --	 --	      0.3601	     1.12996	     1.13752	           0	  -0.0075521	           1	           0	     7391.29	    0.451442	     1.82359	
 --	 --	 --	 --	 --	      0.3651	     1.12864	     1.13744	           0	 -0.00879381	           1	           0	    -13690.1	     1.13744	     1.13744	
 --	 --	 --	 --	 --	      0.3701	      1.1318	     1.13736	           0	 -0.00556556	           1	           0	     8436.82	    0.404369	     1.87036	
 --	 --	 --	 --	 --	      0.3751	     1.13088	     1.13729	           0	 -0.00641057	           1	           0	     487.542	    0.961086	     1.31349	
 --	 --	 --	 --	 --	      0.3801	     1.12961	     1.13722	           0	 -0.00761208	           1	           0	     -784.78	     1.13722	     1.13722	
 --	 --	 --	 --	 --	      0.3851	     1.12996	     1.13716	           0	 -0.00719332	           1	           0	     8300.53	    0.410109	      1.8642	
 --	 --	 --	 --	 --	      0.3901	     1.13393	     1.13709	           0	 -0.00316085	           1	           0	     7929.91	    0.426463	     1.84773	
 --	 --	 --	 --	 --	      0.3951	     1.12869	     1.13703	           0	 -0.00834125	           1	           0	     730.079	    0.921411	     1.35266	
 --	 --	 --	 --	 --	      0.4001	     1.13185	     1.13698	           0	  -0.0051311	           1	           0	    -3597.23	     1.13698	     1.13698	
 --	 --	 --	 --	 --	      0.4051	     1.12803	     1.13692	           0	 -0.00889364	           1	           0	     3399.61	    0.671632	     1.60222	
 --	 --	 --	 --	 --	      0.4101	      1.1291	     1.13687	           0	 -0.00777546	           1	           0	     2278.06	    0.755988	     1.51776	
 --	 --	 --	 --	 --	      0.4151	     1.13017	     1.13682	           0	 -0.00665648	           1	           0	     2321.99	    0.752284	     1.52136	
 --	 --	 --	 --	 --	      0.4201	     1.12925	     1.13678	           0	 -0.00752661	           1	           0	    -457.884	     1.13678	     1.13678	
 --	 --	 --	 --	 --	      0.4251	     1.12854	     1.13673	           0	 -0.00818911	           1	           0	     8301.17	    0.409656	     1.86381	
 --	 --	 --	 --	 --	      0.4301	     1.12762	     1.13669	           0	 -0.00906724	           1	           0	    -5045.83	     1.13669	     1.13669	
 --	 --	 --	 --	 --	      0.4351	     1.12839	     1.13665	           0	 -0.00826427	           1	           0	      4250.3	    0.616391	     1.65691	
 --	 --	 --	 --	 --	      0.4401	     1.12788	     1.13661	           0	 -0.00873678	           1	           0	     8213.02	    0.413408	     1.85982	
 --	 --	 --	 --	 --	      0.4451	     1.13103	     1.13658	           0	 -0.00554473	           1	           0	     10451.9	    0.320734	     1.95242	
 --	 --	 --	 --	 --	      0.4501	     1.13281	     1.13654	           0	 -0.00373136	           1	           0	    -2027.93	     1.13654	     1.13654	
 --	 --	 --	 --	 --	      0.4551	     1.12884	     1.13651	           0	 -0.00766996	           1	           0	     4361.55	    0.609489	     1.66354	
 --	 --	 --	 --	 --	      0.4601	     1.13261	     1.13648	           0	 -0.00387379	           1	           0	     7415.44	    0.449291	     1.82368	
 --	 --	 --	 --	 --	      0.4651	     1.13775	     1.13646	           0	  0.00129054	           1	           0	     1661.95	     0.81113	     1.46178	
 --	 --	 --	 --	 --	      0.4701	       1.129	     1.13643	           0	 -0.00743359	           1	           0	     8182.99	    0.414548	     1.85831	
 --	 --	 --	 --	 --	      0.4751	     1.12773	     1.13641	           0	 -0.00867945	           1	           0	     3020.66	    0.697814	       1.575	
 --	 --	 --	 --	 --	      0.4801	     1.12823	     1.13638	           0	 -0.00815031	           1	           0	     5176.64	    0.562222	     1.71055	
 --	 --	 --	 --	 --	      0.4851	     1.13439	     1.13636	           0	  -0.0019728	           1	           0	     13949.2	    0.193855	     2.07887	
 --	 --	 --	 --	 --	      0.4901	     1.13088	     1.13634	           0	 -0.00546353	           1	           0	     7094.71	    0.464176	     1.80851	
 --	 --	 --	 --	 --	      0.4951	     1.13073	     1.13633	           0	 -0.00559912	           1	           0	    -3894.16	     1.13633	     1.13633	
 --	 --	 --	 --	 --	      0.5001	     1.13825	     1.13631	           0	  0.00194381	           1	           0	     7919.98	    0.426123	      1.8465	
 --	 --	 --	 --	 --	      0.5051	     1.13647	     1.13629	           0	 0.000178651	           1	           0	    -5112.49	     1.13629	     1.13629	
 --	 --	 --	 --	 --	      0.5101	     1.12696	     1.13628	           0	 -0.00932123	           1	           0	     1796.66	    0.798027	     1.47454	
 --	 --	 --	 --	 --	      0.5151	     1.13347	     1.13627	           0	 -0.00279579	           1	           0	     6138.41	    0.511041	      1.7615	
 --	 --	 --	 --	 --	      0.5201	      1.1288	     1.13626	           0	 -0.00746165	           1	           0	      5669.8	    0.535369	     1.73715	
 --	 --	 --	 --	 --	      0.5251	     1.13296	     1.13625	           0	 -0.00328543	           1	           0	     2845.38	    0.710572	     1.56193	
 --	 --	 --	 --	 --	      0.5301	     1.13292	     1.13624	           0	 -0.00332377	           1	           0	     1054.99	    0.877041	     1.39544	
 --	 --	 --	 --	 --	      0.5351	     1.13251	     1.13623	           0	 -0.00372328	           1	           0	     8448.61	    0.402728	     1.86974	
 --	 --	 --	 --	 --	      0.5401	     1.13327	     1.13623	           0	 -0.00295728	           1	           0	     3951.69	    0.634576	     1.63788	
 --	 --	 --	 --	 --	      0.5451	     1.13322	     1.13622	           0	 -0.00300238	           1	           0	     6588.21	    0.488493	     1.78395	
 --	 --	 --	 --	 --	      0.5501	     1.13571	     1.13622	           0	-0.000508559	           1	           0	     6660.42	    0.484948	     1.78749	
 --	 --	 --	 --	 --	      0.5551	       1.129	     1.13622	           0	 -0.00721911	           1	           0	      7851.3	    0.429115	     1.84332	
 --	 --	 --	 --	 --	      0.5601	     1.13759	     1.13621	           0	  0.00137934	           1	           0	     219.734	     1.01792	     1.25451	
 --	 --	 --	 --	 --	      0.5651	     1.13724	     1.13621	           0	  0.00102682	           1	           0	     1057.52	    0.876703	     1.39572	
 --	 --	 --	 --	 --	      0.5701	     1.13419	     1.13621	           0	 -0.00202665	           1	           0	    -7011.09	     1.13621	     1.13621	
 --	 --	 --	 --	 --	      0.5751	     1.13993	     1.13621	           0	  0.00371898	           1	           0	     8672.79	    0.393042	     1.87939	
 --	 --	 --	 --	 --	      0.5801	     1.12452	     1.13622	           0	  -0.0116929	           1	           0	     10028.8	    0.337055	     1.93538	
 --	 --	 --	 --	 --	      0.5851	     1.13053	     1.13622	           0	 -0.00569239	           1	           0	     173.101	     1.03123	     1.24121	
 --	 --	 --	 --	 --	      0.5901	     1.13596	     1.13622	           0	-0.000259328	           1	           0	     7623.24	    0.439468	     1.83298	
 --	 --	 --	 --	 --	      0.5951	     1.13078	     1.13623	           0	 -0.00545039	           1	           0	     9794.92	    0.346439	     1.92602	
 --	 --	 --	 --	 --	      0.6001	     1.13225	     1.13623	           0	  -0.0039789	           1	           0	     9955.62	    0.339991	     1.93247	
 --	 --	 --	 --	 --	      0.6051	     1.13261	     1.13624	           0	 -0.00363148	           1	           0	     4019.13	    0.630325	     1.64215	
 --	 --	 --	 --	 --	      0.6101	     1.13241	     1.13624	           0	 -0.00383812	           1	           0	     10026.4	    0.337177	     1.93531	
 --	 --	 --	 --	 --	      0.6151	     1.13439	     1.13625	           0	 -0.00186212	           1	           0	     4016.12	    0.630528	     1.64198	
 --	 --	 --	 --	 --	      0.6201	     1.12554	     1.13626	           0	  -0.0107201	           1	           0	     11518.5	    0.279798	     1.99272	
 --	 --	 --	 --	 --	      0.6251	     1.13495	     1.13627	           0	 -0.00131878	           1	           0	     10345.3	    0.324596	     1.94794	
 --	 --	 --	 --	 --	      0.6301	     1.13719	     1.13628	           0	 0.000908605	           1	           0	     20824.9	  -0.0153223	     2.28788	
 --	 --	 --	 --	 --	      0.6351	     1.14655	     1.13629	           0	   0.0102587	           1	           0	     325.474	    0.992319	     1.28026	
 --	 --	 --	 --	 --	      0.6401	     1.13317	      1.1363	           0	 -0.00312843	           1	           0	     6163.67	    0.509786	     1.76281	
 --	 --	 --	 --	 --	      0.6451	     1.14364	     1.13631	           0	  0.00733387	           1	           0	     2894.28	     0.70699	     1.56563	
 --	 --	 --	 --	 --	      0.6501	     1.12824	     1.13632	           0	 -0.00808439	           1	           0	     3602.99	    0.657314	     1.61533	
 --	 --	 --	 --	 --	      0.6551	     1.13851	     1.13633	           0	  0.00217684	           1	           0	    -7090.33	     1.13633	     1.13633	
 --	 --	 --	 --	 --	      0.6601	     1.13622	     1.13635	           0	-0.000125781	           1	           0	     2006.81	    0.778856	     1.49384	
 --	 --	 --	 --	 --	      0.6651	     1.12864	     1.13636	           0	 -0.00771889	           1	           0	    -2939.75	     1.13636	     1.13636	
 --	 --	 --	 --	 --	      0.6701	     1.13566	     1.13637	           0	-0.000712466	           1	           0	    -5468.21	     1.13637	     1.13637	
 --	 --	 --	 --	 --	      0.6751	     1.13708	     1.13639	           0	 0.000696836	           1	           0	    -10769.8	     1.13639	     1.13639	
 --	 --	 --	 --	 --	      0.6801	     1.13627	      1.1364	           0	-0.000127633	           1	           0	     3208.08	    0.684407	      1.5884	
 --	 --	 --	 --	 --	      0.6851	     1.13057	     1.13642	           0	 -0.00584252	           1	           0	      1605.8	    0.816633	      1.4562	
 --	 --	 --	 --	 --	      0.6901	     1.13622	     1.13643	           0	 -0.00021115	           1	           0	     6476.26	    0.494228	     1.77863	
 --	 --	 --	 --	 --	      0.6951	     1.13235	     1.13645	           0	  -0.0040935	           1	           0	     4520.23	    0.599921	     1.67297	
 --	 --	 --	 --	 --	      0.7001	     1.13332	     1.13646	           0	 -0.00313956	           1	           0	     4501.16	     0.60107	     1.67186	
 --	 --	 --	 --	 --	      0.7051	     1.13373	     1.13648	           0	 -0.00274931	           1	           0	     7166.13	    0.460937	     1.81202	
 --	 --	 --	 --	 --	      0.7101	     1.13597	      1.1365	           0	-0.000529409	           1	           0	     16499.1	    0.111457	     2.16154	
 --	 --	 --	 --	 --	      0.7151	     1.13709	     1.13651	           0	 0.000573495	           1	           0	     10204.1	    0.330396	     1.94263	
 --	 --	 --	 --	 --	      0.7201	     1.13114	     1.13653	           0	 -0.00539392	           1	           0	       11160	    0.293503	     1.97956	
 --	 --	 --	 --	 --	      0.7251	     1.13251	     1.13655	           0	 -0.00403831	           1	           0	    -5134.77	     1.13655	     1.13655	
 --	 --	 --	 --	 --	      0.7301	     1.13225	     1.13657	           0	 -0.00431299	           1	           0	     4550.82	    0.598228	      1.6749	
 --	 --	 --	 --	 --	      0.7351	     1.13932	     1.13658	           0	  0.00273872	           1	           0	    -7863.58	     1.13658	     1.13658	
 --	 --	 --	 --	 --	      0.7401	     1.13765	      1.1366	           0	  0.00104349	           1	           0	     753.199	    0.917593	     1.35561	
 --	 --	 --	 --	 --	      0.7451	     1.13119	     1.13662	           0	 -0.00543533	           1	           0	      8916.6	    0.383076	     1.89017	
 --	 --	 --	 --	 --	      0.7501	     1.13764	     1.13664	           0	  0.00100227	           1	           0	     2195.41	     0.76273	     1.51055	
 --	 --	 --	 --	 --	      0.7551	      1.1352	     1.13666	           0	 -0.00146036	           1	           0	     6221.07	    0.507237	     1.76608	
 --	 --	 --	 --	 --	      0.7601	     1.13805	     1.13668	           0	  0.00137345	           1	           0	     5091.89	    0.567237	     1.70612	
 --	 --	 --	 --	 --	      0.7651	     1.14222	      1.1367	           0	  0.00552371	           1	           0	     17955.7	   0.0673702	     2.20603	
 --	 --	 --	 --	 --	      0.7701	     1.13999	     1.13672	           0	  0.00326711	           1	           0	    -783.778	     1.13672	     1.13672	
 --	 --	 --	 --	 --	      0.7751	     1.13897	     1.13674	           0	  0.00222697	           1	           0	     -83.699	     1.13674	     1.13674	
 --	 --	 --	 --	 --	      0.7801	     1.13963	     1.13676	           0	  0.00286666	           1	           0	    -8925.66	     1.13676	     1.13676	
 --	 --	 --	 --	 --	      0.7851	     1.13978	     1.13678	           0	  0.00300283	           1	           0	    -7772.63	     1.13678	     1.13678	
 --	 --	 --	 --	 --	      0.7901	      1.1437	      1.1368	           0	  0.00689551	           1	           0	     6910.17	    0.473433	     1.80017	
 --	 --	 --	 --	 --	      0.7951	     1.13658	     1.13682	           0	-0.000245307	           1	           0	     -871.03	     1.13682	     1.13682	
 --	 --	 --	 --	 --	      0.8001	     1.13785	     1.13684	           0	  0.00100373	           1	           0	    -17964.3	     1.13684	     1.13684	
 --	 --	 --	 --	 --	      0.8051	     1.14294	     1.13686	           0	  0.00607263	           1	           0	     3429.16	    0.669555	     1.60417	
 --	 --	 --	 --	 --	      0.8101	     1.14054	     1.13689	           0	  0.00365473	           1	           0	     9347.04	    0.365365	     1.90841	
 --	 --	 --	 --	 --	      0.8151	      1.1351	     1.13691	           0	 -0.00180329	           1	           0	     2297.67	    0.754387	     1.51943	
 --	 --	 --	 --	 --	      0.8201	     1.13591	     1.13693	           0	 -0.00101477	           1	           0	     -9554.5	     1.13693	     1.13693	
 --	 --	 --	 --	 --	      0.8251	     1.14105	     1.13695	           0	  0.00410365	           1	           0	     10111.6	    0.334497	      1.9394	
 --	 --	 --	 --	 --	      0.8301	     1.13439	     1.13697	           0	  -0.0025847	           1	           0	     -5366.4	     1.13697	     1.13697	
 --	 --	 --	 --	 --	      0.8351	     1.14171	     1.13699	           0	  0.00472019	           1	           0	     3991.72	    0.632808	     1.64118	
 --	 --	 --	 --	 --	      0.8401	     1.13093	     1.13702	           0	 -0.00608501	           1	           0	     5533.75	    0.543379	     1.73065	
 --	 --	 --	 --	 --	      0.8451	     1.13581	     1.13704	           0	 -0.00122695	           1	           0	     911.188	    0.896149	     1.37792	
 --	 --	 --	 --	 --	      0.8501	     1.13958	     1.13706	           0	  0.00251769	           1	           0	    -5226.24	     1.13706	     1.13706	
 --	 --	 --	 --	 --	      0.8551	     1.14298	     1.13708	           0	  0.00590227	           1	           0	      -12723	     1.13708	     1.13708	
 --	 --	 --	 --	 --	      0.8601	     1.14233	      1.1371	           0	  0.00522345	           1	           0	     12581.2	    0.242005	      2.0322	
 --	 --	 --	 --	 --	      0.8651	     1.13917	     1.13713	           0	  0.00204458	           1	           0	    -3718.64	     1.13713	     1.13713	
 --	 --	 --	 --	 --	      0.8701	     1.13861	     1.13715	           0	  0.00146232	           1	           0	     1456.11	    0.832633	     1.44166	
 --	 --	 --	 --	 --	      0.8751	     1.13607	     1.13717	           0	 -0.00109998	           1	           0	    -3088.26	     1.13717	     1.13717	
 --	 --	 --	 --	 --	      0.8801	     1.13602	     1.13719	           0	 -0.00117566	           1	           0	     1854.59	    0.793528	     1.48086	
 --	 --	 --	 --	 --	      0.8851	     1.13774	     1.13721	           0	 0.000528631	           1	           0	     1600.12	    0.817998	     1.45643	
 --	 --	 --	 --	 --	      0.8901	     1.13592	     1.13724	           0	 -0.00132044	           1	           0	     2388.18	    0.747255	     1.52722	
 --	 --	 --	 --	 --	      0.8951	     1.13973	     1.13726	           0	  0.00247046	           1	           0	     7615.68	     0.44085	     1.83367	
 --	 --	 --	 --	 --	      0.9001	      1.1349	     1.13728	           0	 -0.00238532	           1	           0	    -4439.05	     1.13728	     1.13728	
 --	 --	 --	 --	 --	      0.9051	     1.13444	      1.1373	           0	 -0.00286445	           1	           0	     1909.68	    0.788573	     1.48604	
 --	 --	 --	 --	 --	      0.9101	     1.13414	     1.13733	           0	 -0.00319026	           1	           0	     5634.22	    0.538326	     1.73633	
 --	 --	 --	 --	 --	      0.9151	     1.13805	     1.13735	           0	 0.000703928	           1	           0	    -6075.17	     1.13735	     1.13735	
 --	 --	 --	 --	 --	      0.9201	     1.13688	     1.13737	           0	-0.000488553	           1	           0	     9911.34	    0.342904	     1.93184	
 --	 --	 --	 --	 --	      0.9251	     1.13678	     1.13739	           0	-0.000614365	           1	           0	     4893.69	    0.579144	     1.69564	
 --	 --	 --	 --	 --	      0.9301	     1.13825	     1.13742	           0	 0.000836496	           1	           0	     8758.07	    0.390599	     1.88423	
 --	 --	 --	 --	 --	      0.9351	     1.13454	     1.13744	           0	 -0.00289597	           1	           0	    -7535.25	     1.13744	     1.13744	
 --	 --	 --	 --	 --	      0.9401	     1.13892	     1.13746	           0	  0.00145492	           1	           0	    -138.909	     1.13746	     1.13746	
 --	 --	 --	 --	 --	      0.9451	     1.14278	     1.13748	           0	  0.00529582	           1	           0	     5711.01	    0.534416	     1.74055	
 --	 --	 --	 --	 --	      0.9501	      1.1408	     1.13751	           0	  0.00329008	           1	           0	    -1002.86	     1.13751	     1.13751	
 --	 --	 --	 --	 --	      0.9551	     1.13418	     1.13753	           0	 -0.00334563	           1	           0	    -8398.69	     1.13753	     1.13753	
 --	 --	 --	 --	 --	      0.9601	      1.1435	     1.13755	           0	  0.00594535	           1	           0	     4819.82	    0.583531	     1.69157	
 --	 --	 --	 --	 --	      0.9651	     1.14558	     1.13757	           0	  0.00800302	           1	           0	    -290.304	     1.13757	     1.13757	
 --	 --	 --	 --	 --	      0.9701	     1.14024	      1.1376	           0	  0.00264074	           1	           0	    -724.715	      1.1376	      1.1376	
 --	 --	 --	 --	 --	      0.9751	     1.13632	     1.13762	           0	 -0.00129485	           1	           0	     10115.9	    0.334992	     1.94024	
 --	 --	 --	 --	 --	      0.9801	     1.13495	     1.13764	           0	 -0.00269372	           1	           0	    -17972.5	     1.13764	     1.13764	
 --	 --	 --	 --	 --	      0.9851	     1.13836	     1.13766	           0	 0.000694112	           1	           0	     5336.07	    0.554726	      1.7206	
 --	 --	 --	 --	 --	      0.9901	     1.13831	     1.13768	           0	 0.000621993	           1	           0	     14225.4	    0.185893	     2.08948	
 --	 --	 --	 --	 --	      0.9951	     1.13454	     1.13771	           0	 -0.00316341	           1	           0	     3802.91	     0.64559	     1.62982	
 --	 --	 --	 --	 --	      1.0001	     1.13215	     1.13773	           0	 -0.00557543	           1	           0	     1277.26	    0.852528	     1.42293	
 --	 --	 --	 --	 --	      1.0051	     1.13551	     1.13775	           0	 -0.00224406	           1	           0	    -13157.7	     1.13775	     1.13775	
 --	 --	 --	 --	 --	      1.0101	     1.13154	     1.13777	           0	 -0.00623264	           1	           0	     9555.48	    0.357697	     1.91785	
 --	 --	 --	 --	 --	      1.0151	     1.13429	     1.13779	           0	 -0.00350782	           1	           0	     3311.97	     0.67854	     1.59705	
 --	 --	 --	 --	 --	      1.0201	     1.14705	     1.13782	           0	  0.00923706	           1	           0	    -3760.26	     1.13782	     1.13782	
 --	 --	 --	 --	 --	      1.0251	     1.14319	     1.13784	           0	    0.005352	           1	           0	    -2929.71	     1.13784	     1.13784	
 --	 --	 --	 --	 --	      1.0301	     1.13907	     1.13786	           0	  0.00121034	           1	           0	    -10388.5	     1.13786	     1.13786	
 --	 --	 --	 --	 --	      1.0351	     1.13983	     1.13788	           0	  0.00194875	           1	           0	    -8734.62	     1.13788	     1.13788	
 --	 --	 --	 --	 --	      1.0401	     1.14624	      1.1379	           0	  0.00833722	           1	           0	      6250.6	    0.506987	     1.76882	
 --	 --	 --	 --	 --	      1.0451	     1.14512	     1.13792	           0	  0.00719577	           1	           0	    -3149.46	     1.13792	     1.13792	
 --	 --	 --	 --	 --	      1.0501	     1.13937	     1.13795	           0	  0.00142773	           1	           0	    -551.948	     1.13795	     1.13795	
 --	 --	 --	 --	 --	      1.0551	     1.13256	     1.13797	           0	 -0.00541025	           1	           0	     3988.21	    0.634003	     1.64193	
 --	 --	 --	 --	 --	      1.0601	     1.13307	     1.13799	           0	 -0.00492147	           1	           0	     3186.91	    0.687488	     1.58849	
 --	 --	 --	 --	 --	      1.0651	     1.14456	     1.13801	           0	  0.00655071	           1	           0	      2321.6	    0.753502	     1.52252	
 --	 --	 --	 --	 --	      1.0701	     1.14629	     1.13803	           0	  0.00825964	           1	           0	     4951.68	    0.576482	     1.69958	
 --	 --	 --	 --	 --	      1.0751	     1.13973	     1.13805	           0	  0.00167865	           1	           0	     608.713	    0.941165	     1.33494	
 --	 --	 --	 --	 --	      1.0801	     1.14609	     1.13807	           0	  0.00801774	           1	           0	    -4024.53	     1.13807	     1.13807	
 --	 --	 --	 --	 --	      1.0851	     1.14268	     1.13809	           0	  0.00458692	           1	           0	    -8340.86	     1.13809	     1.13809	
 --	 --	 --	 --	 --	      1.0901	     1.13444	     1.13811	           0	 -0.00367381	           1	           0	     566.075	    0.948248	     1.32798	
 --	 --	 --	 --	 --	      1.0951	     1.13978	     1.13813	           0	  0.00164553	           1	           0	    -1221.78	     1.13813	     1.13813	
 --	 --	 --	 --	 --	         1.1	     1.13556	     1.13815	           0	 -0.00259795	           1	           0	     966.809	    0.890024	     1.38629	
 --	 --	 --	 --	 --	       1.225	      1.1381	     1.13864	           0	-0.000534162	           1	           0	     4096.19	    0.627897	     1.64938	
 --	 --	 --	 --	 --	        1.35	     1.14166	     1.13906	           0	  0.00260795	           1	           0	     -6845.7	     1.13906	     1.13906	
 --	 --	 --	 --	 --	       1.475	     1.14034	     1.13941	           0	 0.000931993	           1	           0	    -11321.7	     1.13941	     1.13941	
 --	 --	 --	 --	 --	         1.6	     1.13805	      1.1397	           0	   -0.001647	           1	           0	      1499.3	    0.830703	      1.4487	
 --	 --	 --	 --	 --	       1.725	     1.14446	     1.13994	           0	  0.00452048	           1	           0	     414.613	    0.977448	     1.30243	
 --	 --	 --	 --	 --	        1.85	     1.13714	     1.14013	           0	 -0.00299662	           1	           0	     5124.04	    0.568896	     1.71137	
 --	 --	 --	 --	 --	       1.975	     1.14349	     1.14029	           0	  0.00320431	           1	           0	     3934.24	    0.639747	     1.64083	
 --	 --	 --	 --	 --	         2.1	     1.14573	     1.14041	           0	  0.00531659	           1	           0	     -4843.2	     1.14041	     1.14041	
 --	 --	 --	 --	 --	       2.225	     1.14309	     1.14051	           0	  0.00257443	           1	           0	    -8440.79	     1.14051	     1.14051	
 --	 --	 --	 --	 --	        2.35	     1.14116	     1.14059	           0	 0.000566233	           1	           0	    -8472.92	     1.14059	     1.14059	
 --	 --	 --	 --	 --	       2.475	     1.14487	     1.14065	           0	  0.00421459	           1	           0	    -1833.49	     1.14065	     1.14065	
 --	 --	 --	 --	 --	         2.6	     1.14548	      1.1407	           0	  0.00477613	           1	           0	     1073.64	     0.87922	     1.40218	
 --	 --	 --	 --	 --	       2.725	     1.14405	     1.14074	           0	  0.00331481	           1	           0	    -4078.86	     1.14074	     1.14074	
 --	 --	 --	 --	 --	        2.85	     1.14705	     1.14077	           0	  0.00628509	           1	           0	    -7146.87	     1.14077	     1.14077	
 --	 --	 --	 --	 --	       2.975	     1.14827	     1.14079	           0	  0.00748189	           1	           0	     7032.56	    0.471574	     1.81001	
 --	 --	 --	 --	 --	         3.1	       1.141	     1.14081	           0	 0.000193794	           1	           0	     1339.89	      0.8487	     1.43292	
 --	 --	 --	 --	 --	       3.225	     1.14339	     1.14082	           0	  0.00256971	           1	           0	     14820.1	    0.169338	     2.11231	
 --	 --	 --	 --	 --	        3.35	     1.14054	     1.14083	           0	-0.000291242	           1	           0	     2159.51	    0.769993	     1.51168	
 --	 --	 --	 --	 --	       3.475	     1.14553	     1.14084	           0	  0.00468692	           1	           0	     9138.65	    0.377972	     1.90371	
 --	 --	 --	 --	 --	         3.6	     1.13658	     1.14085	           0	 -0.00426968	           1	           0	     2223.82	    0.764527	     1.51717	
 --	 --	 --	 --	 --	       3.725	     1.14014	     1.14085	           0	-0.000718137	           1	           0	    -1931.54	     1.14085	     1.14085	
 --	 --	 --	 --	 --	        3.85	     1.14029	     1.14086	           0	-0.000568771	           1	           0	    -661.744	     1.14086	     1.14086	
 --	 --	 --	 --	 --	       3.975	      1.1411	     1.14086	           0	 0.000241491	           1	           0	     -3174.1	     1.14086	     1.14086	
 --	 --	 --	 --	 --	         4.1	     1.14614	     1.14086	           0	  0.00527578	           1	           0	      2085.3	    0.776451	     1.50528	
 --	 --	 --	 --	 --	       4.225	      1.1407	     1.14087	           0	-0.000169394	           1	           0	     821.334	    0.912164	     1.36957	
 --	 --	 --	 --	 --	        4.35	     1.14441	     1.14087	           0	  0.00354252	           1	           0	     10443.6	    0.325346	     1.95639	
 --	 --	 --	 --	 --	       4.475	     1.14939	     1.14087	           0	  0.00852475	           1	           0	     6620.84	    0.491536	      1.7902	
 --	 --	 --	 --	 --	         4.6	     1.14207	     1.14087	           0	  0.00120057	           1	           0	     2952.65	    0.707242	      1.5745	
 --	 --	 --	 --	 --	       4.725	     1.14283	     1.14087	           0	  0.00196324	           1	           0	        5397	    0.554615	     1.72713	
 --	 --	 --	 --	 --	        4.85	     1.14202	     1.14087	           0	   0.0011494	           1	           0	    -305.425	     1.14087	     1.14087	
 --	 --	 --	 --	 --	       4.975	     1.14553	     1.14087	           0	  0.00465568	           1	           0	      518.84	    0.959099	     1.32264	
 --	 --	 --	 --	 --	         5.1	     1.13963	     1.14087	           0	 -0.00124462	           1	           0	     5109.06	     0.57047	     1.71127	
 --	 --	 --	 --	 --	       5.225	     1.14095	     1.14087	           0	7.84754e-005	           1	           0	     3838.77	     0.64644	      1.6353	
 --	 --	 --	 --	 --	        5.35	     1.14217	     1.14087	           0	  0.00130163	           1	           0	    -5928.83	     1.14087	     1.14087	
 --	 --	 --	 --	 --	       5.475	     1.14243	     1.14087	           0	  0.00155482	           1	           0	     5405.64	    0.554148	      1.7276	
 --	 --	 --	 --	 --	         5.6	     1.14166	     1.14087	           0	 0.000791382	           1	           0	     593.117	    0.946524	     1.33522	
 --	 --	 --	 --	 --	       5.725	     1.14202	     1.14087	           0	  0.00114463	           1	           0	     6185.71	     0.51324	      1.7685	
 --	 --	 --	 --	 --	        5.85	     1.14517	     1.14087	           0	   0.0042979	           1	           0	    -630.919	     1.14087	     1.14087	
 --	 --	 --	 --	 --	       5.975	     1.13744	     1.14087	           0	 -0.00343215	           1	           0	    -629.032	     1.14087	     1.14087	
 --	 --	 --	 --	 --	         6.1	     1.14888	     1.14087	           0	  0.00801115	           1	           0	     7008.94	     0.47278	     1.80896	
 --	 --	 --	 --	 --	       6.225	     1.15031	     1.14087	           0	  0.00943779	           1	           0	    -6042.21	     1.14087	     1.14087	
 --	 --	 --	 --	 --	        6.35	     1.14024	     1.14087	           0	-0.000635571	           1	           0	    -1537.38	     1.14087	     1.14087	
 --	 --	 --	 --	 --	       6.475	     1.14522	     1.14087	           0	  0.00435108	           1	           0	     603.676	    0.944802	     1.33694	
 --	 --	 --	 --	 --	         6.6	     1.13439	     1.14087	           0	  -0.0064856	           1	           0	    -1111.82	     1.14087	     1.14087	
 --	 --	 --	 --	 --	       6.725	     1.14217	     1.14087	           0	  0.00129772	           1	           0	     60.1323	     1.07899	     1.20275	
 --	 --	 --	 --	 --	        6.85	     1.14843	     1.14087	           0	  0.00755438	           1	           0	    -8492.38	     1.14087	     1.14087	
 --	 --	 --	 --	 --	       6.975	     1.13887	     1.14087	           0	 -0.00200563	           1	           0	    -5194.68	     1.14087	     1.14087	
 --	 --	 --	 --	 --	         7.1	     1.13653	     1.14087	           0	 -0.00434563	           1	           0	    -15471.8	     1.14087	     1.14087	
 --	 --	 --	 --	 --	       7.225	     1.14065	     1.14087	           0	-0.000225634	           1	           0	    -4054.68	     1.14087	     1.14087	
 --	 --	 --	 --	 --	        7.35	     1.14446	     1.14087	           0	   0.0035877	           1	           0	    -8027.61	     1.14087	     1.14087	
 --	 --	 --	 --	 --	       7.475	     1.14934	     1.14087	           0	  0.00847103	           1	           0	     -1529.1	     1.14087	     1.14087	
 --	 --	 --	 --	 --	         7.6	     1.14172	     1.14087	           0	 0.000844359	           1	           0	     8653.06	    0.398545	      1.8832	
 --	 --	 --	 --	 --	       7.725	     1.13673	     1.14087	           0	 -0.00414231	           1	           0	    -2376.85	     1.14087	     1.14087	
 --	 --	 --	 --	 --	        7.85	     1.14141	     1.14087	           0	  0.00053769	           1	           0	    -2729.85	     1.14087	     1.14087	
 --	 --	 --	 --	 --	       7.975	     1.14222	     1.14087	           0	  0.00135102	           1	           0	    -1976.07	     1.14087	     1.14087	
 --	 --	 --	 --	 --	         8.1	     1.14665	     1.14087	           0	  0.00577436	           1	           0	     3425.79	    0.673793	     1.60795	
 --	 --	 --	 --	 --	       8.225	     1.14029	     1.14087	           0	-0.000582312	           1	           0	    -4774.75	     1.14087	     1.14087	
 --	 --	 --	 --	 --	        8.35	     1.14156	     1.14087	           0	 0.000687688	           1	           0	    -7043.23	     1.14087	     1.14087	
 --	 --	 --	 --	 --	       8.475	     1.13988	     1.14087	           0	-0.000988979	           1	           0	     8245.34	    0.416245	      1.8655	
 --	 --	 --	 --	 --	         8.6	     1.13821	     1.14087	           0	 -0.00266565	           1	           0	    -10961.1	     1.14087	     1.14087	
 --	 --	 --	 --	 --	       8.725	     1.14527	     1.14087	           0	  0.00440102	           1	           0	     1270.77	    0.856398	     1.42535	
 --	 --	 --	 --	 --	        8.85	     1.14247	     1.14087	           0	  0.00160102	           1	           0	     4230.08	    0.621852	     1.65989	
 --	 --	 --	 --	 --	       8.975	     1.13907	     1.14087	           0	 -0.00180565	           1	           0	    -8039.27	     1.14087	     1.14087	
 --	 --	 --	 --	 --	         9.1	     1.14436	     1.14087	           0	  0.00348769	           1	           0	     2606.72	    0.733438	     1.54831	
 --	 --	 --	 --	 --	       9.225	       1.141	     1.14087	           0	  0.00013102	           1	           0	    -9642.92	     1.14087	     1.14087	
 --	 --	 --	 --	 --	        9.35	     1.14309	     1.14087	           0	  0.00221435	           1	           0	     2925.05	    0.709277	     1.57247	
 --	 --	 --	 --	 --	       9.475	     1.14736	     1.14087	           0	  0.00648769	           1	           0	     7518.48	    0.448921	     1.83282	
 --	 --	 --	 --	 --	         9.6	     1.14004	     1.14087	           0	-0.000835647	           1	           0	     7873.92	    0.432754	     1.84899	
 --	 --	 --	 --	 --	       9.725	     1.13795	     1.14087	           0	 -0.00292231	           1	           0	     1299.52	    0.853197	     1.42855	
 --	 --	 --	 --	 --	        9.85	     1.14583	     1.14087	           0	  0.00496102	           1	           0	    -3188.23	     1.14087	     1.14087	
 --	 --	 --	 --	 --	       9.975	     1.14431	     1.14087	           0	  0.00343435	           1	           0	     3296.74	    0.682675	     1.59907	
 --	 --	 --	 --	 --	        10.4	     1.13739	     1.14087	           0	 -0.00348565	           1	           0	     6213.98	    0.511808	     1.76994	
 --	 --	 --	 --	 --	        10.9	     1.13759	     1.14087	           0	 -0.00327898	           1	           0	     3362.69	    0.678115	     1.60363	
 --	 --	 --	 --	 --	        11.4	      1.1413	     1.14087	           0	  0.00043102	           1	           0	     4154.65	      0.6265	     1.65524	
 --	 --	 --	 --	 --	        11.9	     1.13683	     1.14087	           0	 -0.00404231	           1	           0	     4954.18	    0.579183	     1.70256	
 --	 --	 --	 --	 --	        12.4	     1.14065	     1.14087	           0	-0.000225647	           1	           0	     3774.27	    0.650612	     1.63113	
 --	 --	 --	 --	 --	        12.9	     1.14232	     1.14087	           0	  0.00145102	           1	           0	      -17461	     1.14087	     1.14087	
 --	 --	 --	 --	 --	        13.4	     1.14044	     1.14087	           0	 -0.00042898	           1	           0	    -8537.19	     1.14087	     1.14087	
 --	 --	 --	 --	 --	        13.9	     1.14995	     1.14087	           0	  0.00908102	           1	           0	    -4031.32	     1.14087	     1.14087	
 --	 --	 --	 --	 --	        14.4	     1.13602	     1.14087	           0	 -0.00485565	           1	           0	    -8537.19	     1.14087	     1.14087	
 --	 --	 --	 --	 --	        14.9	      1.1441	     1.14087	           0	  0.00323102	           1	           0	    -8537.33	     1.14087	     1.14087	
 --	 --	 --	 --	 --	        15.4	     1.14405	     1.14087	           0	  0.00318102	           1	           0	    -8537.06	     1.14087	     1.14087	
 --	 --	 --	 --	 --	        15.9	     1.14878	     1.14087	           0	  0.00791102	           1	           0	    -9467.59	     1.14087	     1.14087	
 --	 --	 --	 --	 --	        16.4	     1.13897	     1.14087	           0	 -0.00190565	           1	           0	    -8537.19	     1.14087	     1.14087	
 --	 --	 --	 --	 --	        16.9	     1.14075	     1.14087	           0	-0.000125647	           1	           0	    -8537.05	     1.14087	     1.14087	
 --	 --	 --	 --	 --	        17.4	     1.13922	     1.14087	           0	 -0.00165231	           1	           0	    -4031.32	     1.14087	     1.14087	
 --	 --	 --	 --	 --	        17.9	     1.14319	     1.14087	           0	  0.00231769	           1	           0	    -8537.06	     1.14087	     1.14087	
 --	 --	 --	 --	 --	        18.4	     1.13627	     1.14087	           0	 -0.00460231	           1	           0	    -7345.24	     1.14087	     1.14087	
 --	 --	 --	 --	 --	        18.9	      1.1406	     1.14087	           0	-0.000275647	           1	           0	    -8537.19	     1.14087	     1.14087	
 --	 --	 --	 --	 --	        19.4	     1.13886	     1.14087	           0	 -0.00200898	           1	           0	    -8537.33	     1.14087	     1.14087	
 --	 --	 --	 --	 --	        19.9	     1.13958	     1.14087	           0	 -0.00129565	           1	           0	    -8535.93	     1.14087	     1.14087	
 --	 --	 --	 --	 --	        20.4	      1.1437	     1.14087	           0	  0.00282435	           1	           0	    -16356.8	     1.14087	     1.14087	
 --	 --	 --	 --	 --	        20.9	     1.13658	     1.14087	           0	 -0.00429565	           1	           0	    -8537.19	     1.14087	     1.14087	
 --	 --	 --	 --	 --	        21.4	     1.14548	     1.14087	           0	  0.00460435	           1	           0	    -22426.4	     1.14087	     1.14087	
 --	 --	 --	 --	 --	        21.9	     1.14685	     1.14087	           0	  0.00597769	           1	           0	    -4031.19	     1.14087	     1.14087	
 --	 --	 --	 --	 --	        22.4	     1.14202	     1.14087	           0	  0.00114769	           1	           0	    -8537.19	     1.14087	     1.14087	
 --	 --	 --	 --	 --	        22.9	     1.13851	     1.14087	           0	 -0.00236565	           1	           0	    -4031.46	     1.14087	     1.14087	
 --	 --	 --	 --	 --	        23.4	     1.13647	     1.14087	           0	 -0.00440231	           1	           0	    -8537.06	     1.14087	     1.14087	
 --	 --	 --	 --	 --	        23.9	     1.14482	     1.14087	           0	  0.00394769	           1	           0	     -8536.2	     1.14087	     1.14087	
 --	 --	 --	 --	 --	        24.4	     1.14212	     1.14087	           0	  0.00124769	           1	           0	    -8537.33	     1.14087	     1.14087	
 --	 --	 --	 --	 --	        24.9	     1.14456	     1.14087	           0	  0.00368769	           1	           0	      -11851	     1.14087	     1.14087	
 --	 --	 --	 --	 --	        25.4	     1.13546	     1.14087	           0	 -0.00541565	           1	           0	    -8537.33	     1.14087	     1.14087	
 --	 --	 --	 --	 --	        25.9	     1.14064	     1.14087	           0	 -0.00022898	           1	           0	    -8537.46	     1.14087	     1.14087	
 --	 --	 --	 --	 --	        26.4	     1.14237	     1.14087	           0	  0.00150102	           1	           0	    -8536.07	     1.14087	     1.14087	
 --	 --	 --	 --	 --	        26.9	     1.14054	     1.14087	           0	 -0.00032898	           1	           0	    -8536.92	     1.14087	     1.14087	
 --	 --	 --	 --	 --	        27.4	     1.14238	     1.14087	           0	  0.00150435	           1	           0	    -4031.19	     1.14087	     1.14087	
 --	 --	 --	 --	 --	        27.9	     1.13937	     1.14087	           0	 -0.00149898	           1	           0	    -4031.32	     1.14087	     1.14087	
 --	 --	 --	 --	 --	        28.4	     1.14573	     1.14087	           0	  0.00486102	           1	           0	    -8537.05	     1.14087	     1.14087	
 --	 --	 --	 --	 --	        28.9	     1.14009	     1.14087	           0	-0.000785647	           1	           0	    -8537.06	     1.14087	     1.14087	
 --	 --	 --	 --	 --	        29.4	     1.14288	     1.14087	           0	  0.00201102	           1	           0	    -8537.06	     1.14087	     1.14087	
 --	 --	 --	 --	 --	        29.9	      1.1411	     1.14087	           0	  0.00023102	           1	           0	    -8535.93	     1.14087	     1.14087	
 --	 --	 --	 --	 --	        30.4	     1.14212	     1.14087	           0	  0.00124769	           1	           0	    -8537.06	     1.14087	     1.14087	
 --	 --	 --	 --	 --	        30.9	     1.14227	     1.14087	           0	  0.00140102	           1	           0	    -22426.3	     1.14087	     1.14087	
 --	 --	 --	 --	 --	        31.4	      1.1408	     1.14087	           0	-7.23134e-005	           1	           0	    -8537.06	     1.14087	     1.14087	
 --	 --	 --	 --	 --	        31.9	     1.14126	     1.14087	           0	 0.000384353	           1	           0	    -22426.4	     1.14087	     1.14087	
 --	 --	 --	 --	 --	        32.4	     1.14553	     1.14087	           0	  0.00465435	           1	           0	    -8536.07	     1.14087	     1.14087	
 --	 --	 --	 --	 --	        32.9	     1.13739	     1.14087	           0	 -0.00347898	           1	           0	    -8537.19	     1.14087	     1.14087	
 --	 --	 --	 --	 --	        33.4	     1.13998	     1.14087	           0	 -0.00088898	           1	           0	    -8537.33	     1.14087	     1.14087	
 --	 --	 --	 --	 --	        33.9	     1.14314	     1.14087	           0	  0.00226769	           1	           0	    -8537.33	     1.14087	     1.14087	
 --	 --	 --	 --	 --	        34.4	     1.14461	     1.14087	           0	  0.00374102	           1	           0	    -8537.46	     1.14087	     1.14087	
 --	 --	 --	 --	 --	        34.9	     1.13785	     1.14087	           0	 -0.00302231	           1	           0	    -8537.33	     1.14087	     1.14087	
 --	 --	 --	 --	 --	        35.4	     1.14512	     1.14087	           0	  0.00424769	           1	           0	    -8537.33	     1.14087	     1.14087	
 --	 --	 --	 --	 --	        35.9	     1.14187	     1.14087	           0	 0.000994353	           1	           0	    -8537.46	     1.14087	     1.14087	
 --	 --	 --	 --	 --	        36.4	     1.14761	     1.14087	           0	  0.00673769	           1	           0	    -8537.33	     1.14087	     1.14087	
 --	 --	 --	 --	 --	        36.9	     1.13591	     1.14087	           0	 -0.00495898	           1	           0	    -8537.33	     1.14087	     1.14087	
 --	 --	 --	 --	 --	        37.4	     1.14573	     1.14087	           0	  0.00486102	           1	           0	    -8537.33	     1.14087	     1.14087	
 --	 --	 --	 --	 --	        37.9	     1.14304	     1.14087	           0	  0.00216435	           1	           0	    -8537.06	     1.14087	     1.14087	
 --	 --	 --	 --	 --	        38.4	     1.14115	     1.14087	           0	  0.00028102	           1	           0	    -8537.06	     1.14087	     1.14087	
 --	 --	 --	 --	 --	        38.9	     1.13876	     1.14087	           0	 -0.00210898	           1	           0	    -8537.06	     1.14087	     1.14087	
 --	 --	 --	 --	 --	        39.4	     1.14141	     1.14087	           0	 0.000534353	           1	           0	    -8537.06	     1.14087	     1.14087	
 --	 --	 --	 --	 --	        39.9	     1.14192	     1.14087	           0	  0.00104769	           1	           0	    -8537.06	     1.14087	     1.14087	
 --	 --	 --	 --	 --	        40.4	     1.14507	     1.14087	           0	  0.00419769	           1	           0	    -8537.06	     1.14087	     1.14087	
 --	 --	 --	 --	 --	        40.9	     1.14461	     1.14087	           0	  0.00374102	           1	           0	    -8537.06	     1.14087	     1.14087	
 --	 --	 --	 --	 --	        41.4	     1.13566	     1.14087	           0	 -0.00521231	           1	           0	    -4031.32	     1.14087	     1.14087	
 --	 --	 --	 --	 --	        41.9	     1.13759	     1.14087	           0	 -0.00328231	           1	           0	    -4031.32	     1.14087	     1.14087	
 --	 --	 --	 --	 --	        42.4	      1.1409	     1.14087	           0	2.43532e-005	           1	           0	    -8535.93	     1.14087	     1.14087	
 --	 --	 --	 --	 --	        42.9	     1.13841	     1.14087	           0	 -0.00246565	           1	           0	    -8536.07	     1.14087	     1.14087	
 --	 --	 --	 --	 --	        43.4	     1.14192	     1.14087	           0	  0.00104769	           1	           0	    -8536.07	     1.14087	     1.14087	
 --	 --	 --	 --	 --	        43.9	     1.14522	     1.14087	           0	  0.00435102	           1	           0	    -4031.46	     1.14087	     1.14087	
 --	 --	 --	 --	 --	        44.4	     1.13561	     1.14087	           0	 -0.00526231	           1	           0	    -4031.32	     1.14087	     1.14087	
 --	 --	 --	 --	 --	        44.9	     1.13749	     1.14087	           0	 -0.00337898	           1	           0	    -4031.32	     1.14087	     1.14087	
 --	 --	 --	 --	 --	        45.4	     1.13775	     1.14087	           0	 -0.00312565	           1	           0	    -4031.32	     1.14087	     1.14087	
 --	 --	 --	 --	 --	        45.9	     1.14385	     1.14087	           0	  0.00297769	           1	           0	    -4031.19	     1.14087	     1.14087	
 --	 --	 --	 --	 --	        46.4	     1.13403	     1.14087	           0	 -0.00683898	           1	           0	    -4031.32	     1.14087	     1.14087	
 --	 --	 --	 --	 --	        46.9	     1.13963	     1.14087	           0	 -0.00124565	           1	           0	    -4031.32	     1.14087	     1.14087	
 --	 --	 --	 --	 --	        47.4	     1.13693	     1.14087	           0	 -0.00393898	           1	           0	    -4031.32	     1.14087	     1.14087	
 --	 --	 --	 --	 --	        47.9	     1.14029	     1.14087	           0	-0.000582313	           1	           0	    -4031.32	     1.14087	     1.14087	
 --	 --	 --	 --	 --	        48.4	     1.14151	     1.14087	           0	  0.00064102	           1	           0	    -4031.32	     1.14087	     1.14087	
 --	 --	 --	 --	 --	        48.9	     1.14329	     1.14087	           0	  0.00241769	           1	           0	    -4031.32	     1.14087	     1.14087	
 --	 --	 --	 --	 --	        49.4	     1.14451	     1.14087	           0	  0.00363769	           1	           0	    -4031.32	     1.14087	     1.14087	
 --	 --	 --	 --	 --	        49.9	     1.14243	     1.14087	           0	  0.00155435	           1	           0	    -4031.32	     1.14087	     1.14087	
 --	 --	 --	 --	 --	        50.4	     1.13927	     1.14087	           0	 -0.00159898	           1	           0	    -4031.32	     1.14087	     1.14087	
 --	 --	 --	 --	 --	        50.9	     1.14345	     1.14087	           0	  0.00257435	           1	           0	    -4031.32	     1.14087	     1.14087	
 --	 --	 --	 --	 --	        51.4	     1.14344	     1.14087	           0	  0.00257102	           1	           0	    -4031.32	     1.14087	     1.14087	
 --	 --	 --	 --	 --	        51.9	     1.14324	     1.14087	           0	  0.00236769	           1	           0	    -4031.32	     1.14087	     1.14087	
 --	 --	 --	 --	 --	        52.4	     1.14207	     1.14087	           0	  0.00119769	           1	           0	    -4031.32	     1.14087	     1.14087	
 --	 --	 --	 --	 --	        52.9	     1.14014	     1.14087	           0	-0.000735647	           1	           0	    -4031.32	     1.14087	     1.14087	
 --	 --	 --	 --	 --	        53.4	     1.13307	     1.14087	           0	 -0.00780565	           1	           0	     -4030.2	     1.14087	     1.14087	
 --	 --	 --	 --	 --	        53.9	     1.13856	     1.14087	           0	 -0.00231565	           1	           0	    -4030.33	     1.14087	     1.14087	
 --	 --	 --	 --	 --	        54.4	     1.14771	     1.14087	           0	  0.00684102	           1	           0	    -4030.33	     1.14087	     1.14087	
 --	 --	 --	 --	 --	        54.9	     1.14548	     1.14087	           0	  0.00460435	           1	           0	    -8536.07	     1.14087	     1.14087	
 --	 --	 --	 --	 --	        55.4	     1.14054	     1.14087	           0	 -0.00032898	           1	           0	    -8536.07	     1.14087	     1.14087	
 --	 --	 --	 --	 --	        55.9	     1.14273	     1.14087	           0	  0.00186102	           1	           0	    -8536.07	     1.14087	     1.14087	
 --	 --	 --	 --	 --	        56.4	     1.14528	     1.14087	           0	  0.00440435	           1	           0	     -8536.2	     1.14087	     1.14087	
 --	 --	 --	 --	 --	        56.9	     1.13398	     1.14087	           0	 -0.00688898	           1	           0	     -8536.2	     1.14087	     1.14087	
 --	 --	 --	 --	 --	        57.4	     1.14375	     1.14087	           0	  0.00287435	           1	           0	     -8536.2	     1.14087	     1.14087	
 --	 --	 --	 --	 --	        57.9	     1.14319	     1.14087	           0	  0.00231435	           1	           0	     -8536.2	     1.14087	     1.14087	
 --	 --	 --	 --	 --	        58.4	     1.13597	     1.14087	           0	 -0.00490565	           1	           0	     -8536.2	     1.14087	     1.14087	
 --	 --	 --	 --	 --	        58.9	     1.14181	     1.14087	           0	  0.00094102	           1	           0	     -8536.2	     1.14087	     1.14087	
 --	 --	 --	 --	 --	        59.4	     1.13459	     1.14087	           0	 -0.00627898	           1	           0	     -8536.2	     1.14087	     1.14087	
 --	 --	 --	 --	 --	        59.9	     1.14019	     1.14087	           0	-0.000685647	           1	           0	     -8536.2	     1.14087	     1.14087	
 --	 --	 --	 --	 --	        60.4	     1.14517	     1.14087	           0	  0.00430102	           1	           0	     -8536.2	     1.14087	     1.14087	
 --	 --	 --	 --	 --	        60.9	      1.1466	     1.14087	           0	  0.00572769	           1	           0	    -8536.34	     1.14087	     1.14087	
 --	 --	 --	 --	 --	        61.4	     1.13881	     1.14087	           0	 -0.00205898	           1	           0	    -8537.46	     1.14087	     1.14087	
 --	 --	 --	 --	 --	        61.9	     1.14797	     1.14087	           0	  0.00709769	           1	           0	    -8537.46	     1.14087	     1.14087	
 --	 --	 --	 --	 --	        62.4	     1.13683	     1.14087	           0	 -0.00404231	           1	           0	    -8537.46	     1.14087	     1.14087	
 --	 --	 --	 --	 --	        62.9	     1.14192	     1.14087	           0	  0.00104435	           1	           0	    -8537.46	     1.14087	     1.14087	
 --	 --	 --	 --	 --	        63.4	     1.14151	     1.14087	           0	 0.000637687	           1	           0	    -8537.46	     1.14087	     1.14087	
 --	 --	 --	 --	 --	        63.9	     1.14741	     1.14087	           0	  0.00653769	           1	           0	    -8537.46	     1.14087	     1.14087	
 --	 --	 --	 --	 --	        64.4	     1.13612	     1.14087	           0	 -0.00475231	           1	           0	    -8537.46	     1.14087	     1.14087	
 --	 --	 --	 --	 --	        64.9	     1.14588	     1.14087	           0	  0.00501102	           1	           0	    -8537.46	     1.14087	     1.14087	
 --	 --	 --	 --	 --	        65.4	     1.14517	     1.14087	           0	  0.00430102	           1	           0	    -8537.46	     1.14087	     1.14087	
 --	 --	 --	 --	 --	        65.9	     1.14197	     1.14087	           0	  0.00109769	           1	           0	    -8537.46	     1.14087	     1.14087	
 --	 --	 --	 --	 --	        66.4	     1.13978	     1.14087	           0	 -0.00109231	           1	           0	    -8537.46	     1.14087	     1.14087	
 --	 --	 --	 --	 --	        66.9	      1.1409	     1.14087	           0	2.43532e-005	           1	           0	    -8537.46	     1.14087	     1.14087	
 --	 --	 --	 --	 --	        67.4	     1.13988	     1.14087	           0	 -0.00098898	           1	           0	    -8537.46	     1.14087	     1.14087	
 --	 --	 --	 --	 --	        67.9	     1.14746	     1.14087	           0	  0.00659102	           1	           0	    -8537.46	     1.14087	     1.14087	
 --	 --	 --	 --	 --	        68.4	     1.13973	     1.14087	           0	 -0.00114231	           1	           0	    -8537.46	     1.14087	     1.14087	
 --	 --	 --	 --	 --	        68.9	     1.14253	     1.14087	           0	  0.00165435	           1	           0	    -8537.33	     1.14087	     1.14087	
 --	 --	 --	 --	 --	        69.4	     1.14584	     1.14087	           0	  0.00496435	           1	           0	    -8537.33	     1.14087	     1.14087	
 --	 --	 --	 --	 --	        69.9	      1.1407	     1.14087	           0	-0.000175647	           1	           0	    -8537.46	     1.14087	     1.14087	
 --	 --	 --	 --	 --	        70.4	     1.14186	     1.14087	           0	  0.00099102	           1	           0	    -8537.46	     1.14087	     1.14087	
 --	 --	 --	 --	 --	        70.9	     1.14054	     1.14087	           0	 -0.00032898	           1	           0	     -8537.6	     1.14087	     1.14087	
 --	 --	 --	 --	 --	        71.4	     1.14807	     1.14087	           0	  0.00720102	           1	           0	    -8537.46	     1.14087	     1.14087	
 --	 --	 --	 --	 --	        71.9	     1.14049	     1.14087	           0	-0.000382313	           1	           0	    -8537.46	     1.14087	     1.14087	
 --	 --	 --	 --	 --	        72.4	     1.13779	     1.14087	           0	 -0.00307898	           1	           0	    -8537.46	     1.14087	     1.14087	
 --	 --	 --	 --	 --	        72.9	     1.14573	     1.14087	           0	  0.00486102	           1	           0	    -8537.46	     1.14087	     1.14087	
 --	 --	 --	 --	 --	        73.4	     1.14354	     1.14087	           0	  0.00267102	           1	           0	    -8537.46	     1.14087	     1.14087	
 --	 --	 --	 --	 --	        73.9	     1.14481	     1.14087	           0	  0.00394102	           1	           0	    -8537.46	     1.14087	     1.14087	
 --	 --	 --	 --	 --	        74.4	     1.13765	     1.14087	           0	 -0.00322565	           1	           0	    -8537.46	     1.14087	     1.14087	
 --	 --	 --	 --	 --	        74.9	     1.14421	     1.14087	           0	  0.00333435	           1	           0	    -8537.46	     1.14087	     1.14087	
 --	 --	 --	 --	 --	        75.4	     1.14324	     1.14087	           0	  0.00236769	           1	           0	     -8536.2	     1.14087	     1.14087	
 --	 --	 --	 --	 --	        75.9	     1.14644	     1.14087	           0	  0.00557102	           1	           0	     -8536.2	     1.14087	     1.14087	
 --	 --	 --	 --	 --	        76.4	     1.14771	     1.14087	           0	  0.00684102	           1	           0	     -8536.2	     1.14087	     1.14087	
 --	 --	 --	 --	 --	        76.9	     1.14522	     1.14087	           0	  0.00434769	           1	           0	     -8536.2	     1.14087	     1.14087	
 --	 --	 --	 --	 --	        77.4	      1.1413	     1.14087	           0	  0.00043102	           1	           0	     -8536.2	     1.14087	     1.14087	
 --	 --	 --	 --	 --	        77.9	      1.1438	     1.14087	           0	  0.00292769	           1	           0	     -8536.2	     1.14087	     1.14087	
 --	 --	 --	 --	 --	        78.4	     1.14176	     1.14087	           0	  0.00089102	           1	           0	     -8536.2	     1.14087	     1.14087	
 --	 --	 --	 --	 --	        78.9	      1.1439	     1.14087	           0	  0.00302769	           1	           0	     -8536.2	     1.14087	     1.14087	
 --	 --	 --	 --	 --	        79.4	     1.15087	     1.14087	           0	  0.00999769	           1	           0	     -8536.2	     1.14087	     1.14087	
 --	 --	 --	 --	 --	        79.9	     1.14278	     1.14087	           0	  0.00191102	           1	           0	     -8536.2	     1.14087	     1.14087	
 --	 --	 --	 --	 --	        80.4	     1.14522	     1.14087	           0	  0.00435102	           1	           0	     -8536.2	     1.14087	     1.14087	
 --	 --	 --	 --	 --	        80.9	     1.14029	     1.14087	           0	-0.000582313	           1	           0	     -8536.2	     1.14087	     1.14087	
 --	 --	 --	 --	 --	        81.4	     1.14482	     1.14087	           0	  0.00394769	           1	           0	     -8536.2	     1.14087	     1.14087	
 --	 --	 --	 --	 --	        81.9	       1.141	     1.14087	           0	 0.000127687	           1	           0	     -8536.2	     1.14087	     1.14087	
 --	 --	 --	 --	 --	        82.4	     1.14324	     1.14087	           0	  0.00236769	           1	           0	     -8536.2	     1.14087	     1.14087	
 --	 --	 --	 --	 --	        82.9	     1.14304	     1.14087	           0	  0.00216435	           1	           0	     -8536.2	     1.14087	     1.14087	
 --	 --	 --	 --	 --	        83.4	     1.14431	     1.14087	           0	  0.00343435	           1	           0	    -8537.19	     1.14087	     1.14087	
 --	 --	 --	 --	 --	        83.9	     1.13887	     1.14087	           0	 -0.00200565	           1	           0	    -8537.19	     1.14087	     1.14087	
 --	 --	 --	 --	 --	        84.4	     1.14039	     1.14087	           0	-0.000482313	           1	           0	    -8537.19	     1.14087	     1.14087	
 --	 --	 --	 --	 --	        84.9	     1.13648	     1.14087	           0	 -0.00439565	           1	           0	    -8537.19	     1.14087	     1.14087	
 --	 --	 --	 --	 --	        85.4	     1.14472	     1.14087	           0	  0.00384435	           1	           0	    -8537.19	     1.14087	     1.14087	
 --	 --	 --	 --	 --	        85.9	     1.15066	     1.14087	           0	  0.00979102	           1	           0	    -8537.19	     1.14087	     1.14087	
 --	 --	 --	 --	 --	        86.4	     1.13378	     1.14087	           0	 -0.00709231	           1	           0	    -8537.19	     1.14087	     1.14087	
 --	 --	 --	 --	 --	        86.9	     1.14751	     1.14087	           0	  0.00664102	           1	           0	    -8537.19	     1.14087	     1.14087	
 --	 --	 --	 --	 --	        87.4	     1.14182	     1.14087	           0	 0.000944353	           1	           0	    -8537.19	     1.14087	     1.14087	
 --	 --	 --	 --	 --	        87.9	     1.14013	     1.14087	           0	 -0.00073898	           1	           0	    -8537.19	     1.14087	     1.14087	
 --	 --	 --	 --	 --	        88.4	     1.14533	     1.14087	           0	  0.00445435	           1	           0	    -8537.19	     1.14087	     1.14087	
 --	 --	 --	 --	 --	        88.9	      1.1466	     1.14087	           0	  0.00572435	           1	           0	    -8537.19	     1.14087	     1.14087	
 --	 --	 --	 --	 --	        89.4	     1.14105	     1.14087	           0	 0.000177687	           1	           0	    -8537.19	     1.14087	     1.14087	
 --	 --	 --	 --	 --	        89.9	     1.14792	     1.14087	           0	  0.00704435	           1	           0	    -8537.19	     1.14087	     1.14087	
 --	 --	 --	 --	 --	        90.4	     1.14543	     1.14087	           0	  0.00455435	           1	           0	    -8537.19	     1.14087	     1.14087	
 --	 --	 --	 --	 --	        90.9	     1.14014	     1.14087	           0	-0.000735647	           1	           0	    -8537.19	     1.14087	     1.14087	
 --	 --	 --	 --	 --	        91.4	     1.14283	     1.14087	           0	  0.00196102	           1	           0	    -8537.19	     1.14087	     1.14087	
 --	 --	 --	 --	 --	        91.9	     1.14227	     1.14087	           0	  0.00140102	           1	           0	    -8537.19	     1.14087	     1.14087	
 --	 --	 --	 --	 --	        92.4	     1.14314	     1.14087	           0	  0.00226769	           1	           0	    -8537.19	     1.14087	     1.14087	
 --	 --	 --	 --	 --	        92.9	     1.14731	     1.14087	           0	  0.00643435	           1	           0	    -8537.19	     1.14087	     1.14087	
 --	 --	 --	 --	 --	        93.4	     1.14497	     1.14087	           0	  0.00409769	           1	           0	    -8537.19	     1.14087	     1.14087	
 --	 --	 --	 --	 --	        93.9	     1.14166	     1.14087	           0	  0.00079102	           1	           0	    -8537.19	     1.14087	     1.14087	
 --	 --	 --	 --	 --	        94.4	     1.15209	     1.14087	           0	   0.0112177	           1	           0	    -8537.19	     1.14087	     1.14087	
 --	 --	 --	 --	 --	        94.9	     1.14192	     1.14087	           0	  0.00104435	           1	           0	    -8537.19	     1.14087	     1.14087	
 --	 --	 --	 --	 --	        95.4	     1.14248	     1.14087	           0	  0.00160769	           1	           0	    -8537.19	     1.14087	     1.14087	
 --	 --	 --	 --	 --	        95.9	     1.14593	     1.14087	           0	  0.00506102	           1	           0	    -8537.19	     1.14087	     1.14087	
 --	 --	 --	 --	 --	        96.4	     1.14512	     1.14087	           0	  0.00424769	           1	           0	    -8537.19	     1.14087	     1.14087	
 --	 --	 --	 --	 --	        96.9	     1.13704	     1.14087	           0	 -0.00383565	           1	           0	    -8537.19	     1.14087	     1.14087	
 --	 --	 --	 --	 --	        97.4	     1.14283	     1.14087	           0	  0.00196102	           1	           0	    -8537.19	     1.14087	     1.14087	
 --	 --	 --	 --	 --	        97.9	     1.13535	     1.14087	           0	 -0.00551898	           1	           0	    -8537.19	     1.14087	     1.14087	
 --	 --	 --	 --	 --	        98.4	     1.14085	     1.14087	           0	-2.23134e-005	           1	           0	    -8537.19	     1.14087	     1.14087	
 --	 --	 --	 --	 --	        98.9	     1.14385	     1.14087	           0	  0.00297769	           1	           0	    -8537.19	     1.14087	     1.14087	
 --	 --	 --	 --	 --	        99.4	     1.14563	     1.14087	           0	  0.00475769	           1	           0	    -8537.19	     1.14087	     1.14087	
 --	 --	 --	 --	 --	        99.9	     1.14029	     1.14087	           0	-0.000582313	           1	           0	    -8537.19	     1.14087	     1.14087	
 --	 --	 --	 --	 --	         100	     1.14487	     1.14087	           0	  0.00399435	           1	           0	    -8537.19	     1.14087	     1.14087	
