%!PS-Adobe-3.0 EPSF-3.0
%%BoundingBox: 0 0 514 550
%%Creator: BioKin Ltd.
%%DocumentFonts: Symbol Helvetica
%%EndComments
%
/bkdict 256 dict def
bkdict begin
/M {moveto} def 
/R {rmoveto} def
/L {lineto} def
/rL {rlineto} def
/GSN {gsave newpath} def
/SGR {stroke grestore} def
/COSGR {gsave setrgbcolor stroke grestore grestore} def
/SL {setlinewidth} def
/LWMB {12} def             % line width - model curves, black & white
/LWMC {10} def             % line width - model curves, color
/L2 {2.5 setlinewidth} def
/L5 {5 setlinewidth} def
/L10 {10 setlinewidth} def
/G50 {0.5 setgray} def
/SDA {[10  20] 0 setdash} def % axes
/helvT {/Helvetica findfont 100 scalefont setfont} def % tiny
/helvS {/Helvetica findfont 125 scalefont setfont} def % small
/helvM {/Helvetica findfont 150 scalefont setfont} def % medium
/helvL {/Helvetica findfont 175 scalefont setfont} def % large
/xlabel {gsave M dup
   stringwidth exch -0.5 mul exch rmoveto show grestore} def 
/ylabel {gsave M 90 rotate dup
   stringwidth exch -0.5 mul exch rmoveto show grestore} def
/ylabelresid {gsave M dup
   stringwidth exch -1 mul exch rmoveto show grestore} def
% ======
% Shapes
% ======
% Circle:
/Circ {0 360 arc closepath} def
%
% Square:
/Squa {dup dup -0.5 mul dup dup R -2 mul 0 exch rL 1 mul 0 rL dup 0 exch -1 mul rL closepath} def
%
% Triangle Up:
/TriU {dup dup dup -0.4 mul exch -0.5 mul exch R dup 0.5 mul exch rL dup -1 mul exch 0.5 mul exch rL closepath} def 
%
% Triangle Down:
/TriD {dup dup dup 0.4 mul exch -0.5 mul exch R dup 0.5 mul exch -1 mul rL dup 0.5 mul exch rL closepath} def 
%
% Diamond:
/Diam {45 rotate Squa} def
% ======
% Fills
% ======
/GRF {gsave setgray fill grestore} def                    % gray-level Fill
/COF {gsave setrgbcolor fill grestore} def                % color fill
% ======
% Colors
% ======
/C01 {1.00	0.00	0.00} def      % Red
/C02 {0.00	0.00	1.00} def      % Blue
/C03 {0.00	0.39	0.00} def      % Dark Green
/C04 {0.78	0.08	0.52} def      % Medium Violet Red
/C05 {0.55	0.27	0.07} def      % Saddle Brown
/C06 {0.10	0.70	0.70} def      % (cyan)
/C07 {1.00	0.55	0.00} def      % Dark Orange
/C08 {0.63	0.13	0.94} def      % Purple
/C09 {0.00	0.75	1.00} def      % Deep Sky Blue
/C10 {0.20	0.80	0.20} def      % Lime Green
/C11 {0.47	0.53	0.60} def      % Light Slate Gray
/C12 {0.00	0.00	0.00} def      % Black            % or: {0.19	0.31	0.31} def      % Dark Slate Gray
%
/LGR {0.75} def % light gray
/DGR {0.33} def % dark gray
%
% =============
% Dash patterns
% =============
/dash01 { [80  20] 0 setdash } def
/dash02 { [40  20] 0 setdash } def
/dash03 { [80  20  10  20] 0 setdash } def
/dash04 { [40  20  10  20] 0 setdash } def
/dash05 { [80  20  10  10  10  20] 0 setdash } def
/dash06 { [40  20  10  10  10  20] 0 setdash } def
/dash07 { [10  10] 0 setdash } def
%
/MFshow {
   { dup 5 get 3 ge
     { 5 get 3 eq {gsave} {grestore} ifelse }
     {dup dup 0 get findfont exch 1 get scalefont setfont
     [ currentpoint ] exch dup 2 get 0 exch R dup 5 get 2 ne {dup dup 6
     get exch 4 get {show} {stringwidth pop 0 R} ifelse }if dup 5 get 0 eq
     {dup 3 get {2 get neg 0 exch R pop} {pop aload pop M} ifelse} {dup 5
     get 1 eq {dup 2 get exch dup 3 get exch 6 get stringwidth pop -2 div
     dup 0 R} {dup 6 get stringwidth pop -2 div 0 R 6 get
     show 2 index {aload pop M neg 3 -1 roll neg R pop pop} {pop pop pop
     pop aload pop M} ifelse }ifelse }ifelse }
     ifelse }
   forall} bind def
/MFwidth {0 exch {dup 3 get{dup dup 0 get findfont exch 1 get scalefont
     setfont 6 get stringwidth pop add} {pop} ifelse} forall} bind def
/MCshow { currentpoint stroke M
  exch dup MFwidth -2 div 3 -1 roll R MFshow } def
%
end
%%EndProlog
bkdict begin
0.1 0.1 scale
%
% Model curves:
%

GSN 753 5166 M
753 5166 L
786 5124 L
820 5080 L
853 5033 L
886 4986 L
920 4937 L
929 4922 L
953 4888 L
986 4839 L
1020 4792 L
1053 4747 L
1086 4704 L
1106 4681 L
1120 4666 L
1153 4632 L
1186 4602 L
1220 4578 L
1253 4558 L
1282 4544 L
1286 4543 L
1319 4532 L
1353 4524 L
1386 4518 L
1419 4514 L
1453 4512 L
1459 4511 L
1486 4509 L
1519 4507 L
1553 4505 L
1586 4502 L
1619 4499 L
1635 4498 L
1653 4496 L
1686 4492 L
1719 4488 L
1753 4483 L
1786 4478 L
1812 4473 L
1819 4471 L
1853 4464 L
1886 4456 L
1919 4447 L
1953 4437 L
1986 4425 L
1988 4424 L
2019 4411 L
2053 4396 L
2086 4379 L
2119 4359 L
2153 4337 L
2165 4329 L
2186 4312 L
2219 4284 L
2253 4252 L
2286 4217 L
2319 4177 L
2341 4148 L
2353 4132 L
2386 4082 L
2419 4026 L
2453 3964 L
2486 3895 L
2518 3823 L
2519 3819 L
2553 3736 L
2586 3646 L
2619 3547 L
2653 3442 L
2686 3329 L
2694 3300 L
2719 3210 L
2753 3085 L
2786 2957 L
2819 2827 L
2853 2697 L
2871 2628 L
2886 2571 L
2919 2452 L
2953 2343 L
2986 2248 L
3019 2170 L
3047 2121 L
3053 2113 L
3086 2077 L
3119 2062 L
3153 2067 L
3186 2089 L
3219 2124 L
3224 2130 L
3253 2171 L
3286 2225 L
3319 2286 L
3353 2350 L
3386 2417 L
3400 2445 L
3419 2482 L
3453 2546 L
3476 2588 L
3486 2606 L
3519 2662 L
3553 2711 L
3577 2744 L
3586 2755 L
3619 2792 L
3653 2824 L
3686 2851 L
3719 2873 L
3753 2891 L
3754 2892 L
3786 2907 L
3819 2920 L
3853 2932 L
3886 2942 L
3919 2951 L
3930 2954 L
3953 2959 L
3986 2966 L
4019 2972 L
4053 2977 L
4086 2982 L
4086 2982 L
LWMC SL  C06 COSGR

%
% Experimental data:
%
GSN 777 4475 M
1388 4315 L
1552 4392 L
1652 5068 L
1723 4549 L
1778 4725 L
1824 4370 L
1863 4532 L
1896 4602 L
1926 4586 L
1952 4605 L
1976 4585 L
1998 4345 L
2019 4441 L
2037 4442 L
2055 4336 L
2071 4526 L
2086 4072 L
2101 4421 L
2115 4438 L
2128 4476 L
2140 4353 L
2152 4258 L
2163 4488 L
2174 4438 L
2184 4356 L
2194 4306 L
2204 4306 L
2213 4343 L
2222 4218 L
2230 4183 L
2239 4263 L
2247 4346 L
2255 4323 L
2262 4316 L
2270 4209 L
2277 4285 L
2284 4168 L
2290 3963 L
2297 4026 L
2303 4045 L
2310 4386 L
2316 4166 L
2322 4201 L
2328 4178 L
2333 3995 L
2339 4096 L
2344 4125 L
2350 3921 L
2355 3889 L
2360 4123 L
2365 4163 L
2370 4176 L
2375 4319 L
2380 4140 L
2384 3972 L
2389 4180 L
2393 3803 L
2398 4086 L
2402 3975 L
2407 3886 L
2411 4028 L
2415 3890 L
2419 4050 L
2423 3958 L
2427 3962 L
2431 3892 L
2435 4075 L
2438 4015 L
2442 3965 L
2446 3913 L
2449 3896 L
2453 3955 L
2456 4030 L
2460 3716 L
2463 3804 L
2467 3915 L
2470 3843 L
2473 3773 L
2476 3893 L
2480 3838 L
2483 3903 L
2486 3760 L
2489 3702 L
2492 3972 L
2495 3673 L
2498 3830 L
2501 3720 L
2504 3666 L
2507 3789 L
2510 3728 L
2512 3845 L
2515 3832 L
2518 3888 L
2521 3738 L
2523 3741 L
2526 3658 L
2529 3799 L
2531 3627 L
2534 3598 L
2536 3780 L
2539 3743 L
2541 3602 L
2544 3902 L
2546 3700 L
2549 3810 L
2551 3616 L
2554 3539 L
2556 3542 L
2558 3643 L
2561 3610 L
2563 3974 L
2565 3750 L
2568 3811 L
2570 3590 L
2572 3562 L
2574 3845 L
2576 3632 L
2579 3674 L
2581 3643 L
2583 3485 L
2585 3454 L
2587 3703 L
2589 3703 L
2591 3549 L
2593 3537 L
2595 3523 L
2597 3615 L
2599 3610 L
2601 3763 L
2603 3760 L
2605 3373 L
2607 3490 L
2609 3481 L
2611 3475 L
2613 3693 L
2615 3676 L
2617 3692 L
2618 3533 L
2620 3479 L
2622 3522 L
2624 3507 L
2626 3372 L
2627 3414 L
2629 3535 L
2631 3506 L
2633 3391 L
2634 3615 L
2636 3388 L
2638 3338 L
2640 3462 L
2641 3520 L
2643 3372 L
2645 3362 L
2646 3437 L
2648 3450 L
2650 3497 L
2651 3289 L
2653 3483 L
2654 3470 L
2656 3455 L
2658 3645 L
2659 3315 L
2661 3272 L
2662 3319 L
2664 3526 L
2665 3273 L
2667 3397 L
2668 3302 L
2670 3405 L
2671 3170 L
2673 3329 L
2674 3359 L
2676 3490 L
2677 3240 L
2679 3522 L
2680 3256 L
2682 3060 L
2683 3182 L
2685 3195 L
2686 3237 L
2687 3226 L
2689 3438 L
2690 3292 L
2692 3171 L
2693 3237 L
2694 3250 L
2696 3372 L
2697 3135 L
2698 3205 L
2700 3160 L
2701 3237 L
2702 3186 L
2704 3128 L
2705 3202 L
2706 3265 L
2708 3030 L
2709 3094 L
2710 3105 L
2712 3285 L
2713 3256 L
2714 3092 L
2715 3357 L
2717 3002 L
2718 3215 L
2719 2998 L
2720 3162 L
2722 3171 L
2723 3000 L
2724 3147 L
2725 3209 L
2726 3010 L
2728 3196 L
2729 3239 L
2730 3251 L
2731 3197 L
2732 3151 L
2734 3168 L
2735 3206 L
2736 2929 L
2737 3038 L
2738 3030 L
2739 3020 L
2741 3243 L
2742 3268 L
2743 3132 L
2744 3120 L
2745 3134 L
2746 2782 L
2747 3002 L
2748 3233 L
2749 3257 L
2751 3072 L
2752 3049 L
2753 3000 L
2754 3205 L
2755 3104 L
2756 3247 L
2757 3067 L
2758 2924 L
2759 2966 L
2760 3067 L
2761 3055 L
2762 3019 L
2763 3165 L
2764 3015 L
2765 2939 L
2767 2931 L
2768 3060 L
2769 2980 L
2770 3034 L
2771 3107 L
2772 2981 L
2773 3085 L
2774 2978 L
2775 2931 L
2776 2875 L
2777 2982 L
2778 3018 L
2779 3030 L
2780 2898 L
2781 2781 L
2782 3045 L
2783 3076 L
2783 2890 L
2784 2997 L
2785 2915 L
2786 2752 L
2787 2880 L
2788 3016 L
2789 3027 L
2790 2951 L
2791 2896 L
2792 3125 L
2793 2839 L
2794 2898 L
2795 2992 L
2796 2873 L
2797 3022 L
2798 2972 L
2798 2809 L
2799 2747 L
2800 2698 L
2801 2943 L
2802 2727 L
2803 2821 L
2804 2849 L
2805 3026 L
2806 2869 L
2807 2961 L
2807 2813 L
2808 2902 L
2809 2866 L
2810 2805 L
2811 2734 L
2812 2997 L
2813 2656 L
2813 2885 L
2814 2712 L
2815 2972 L
2816 2841 L
2817 2951 L
2818 3052 L
2819 2718 L
2819 2789 L
2820 2967 L
2821 2791 L
2822 2693 L
2823 2770 L
2824 2927 L
2824 2964 L
2825 2789 L
2826 2918 L
2827 2864 L
2828 2677 L
2828 2811 L
2829 2932 L
2830 2877 L
2831 2803 L
2832 2736 L
2832 2822 L
2833 2843 L
2834 2733 L
2835 2758 L
2836 2860 L
2836 2707 L
2837 2795 L
2838 2855 L
2839 2737 L
2840 2694 L
2840 2686 L
2841 2570 L
2842 2893 L
2843 2573 L
2843 2693 L
2844 2891 L
2845 2747 L
2846 2707 L
2846 2618 L
2847 2687 L
2848 2805 L
2849 2735 L
2849 2718 L
2850 2847 L
2851 2707 L
2852 2896 L
2852 2769 L
2853 2812 L
2854 2718 L
2855 2759 L
2855 2629 L
2856 2753 L
2857 2937 L
2857 2617 L
2858 2880 L
2859 2738 L
2860 2670 L
2860 2640 L
2861 2784 L
2862 2669 L
2862 2777 L
2863 2784 L
2864 2604 L
2865 2738 L
2865 2877 L
2866 2797 L
2867 2718 L
2867 2539 L
2868 2592 L
2869 2693 L
2869 2758 L
2870 2768 L
2871 2567 L
2871 2629 L
2872 2594 L
2873 2719 L
2873 2634 L
2874 2531 L
2875 2870 L
2876 2744 L
2876 2612 L
2877 2609 L
2878 2852 L
2878 2577 L
2879 2472 L
2880 2610 L
2880 2705 L
2881 2749 L
2881 2768 L
2882 2585 L
2883 2699 L
2883 2714 L
2884 2529 L
2885 2652 L
2885 2467 L
2886 2718 L
2887 2623 L
2887 2523 L
2888 2835 L
2889 2769 L
2889 2747 L
2892 2692 L
2894 2579 L
2897 2567 L
2899 2487 L
2902 2537 L
2904 2697 L
2907 2514 L
2909 2365 L
2911 2538 L
2914 2477 L
2916 2465 L
2918 2600 L
2921 2436 L
2923 2589 L
2925 2448 L
2927 2472 L
2929 2495 L
2932 2472 L
2934 2377 L
2936 2252 L
2938 2465 L
2940 2551 L
2942 2324 L
2944 2127 L
2946 2446 L
2948 2419 L
2950 2246 L
2952 2506 L
2954 2377 L
2956 2512 L
2958 2221 L
2960 2348 L
2962 2289 L
2964 2118 L
2966 2370 L
2968 2275 L
2970 2567 L
2971 2319 L
2973 2289 L
2975 2379 L
2977 2522 L
2979 2371 L
2980 2270 L
2982 2441 L
2984 2325 L
2986 2183 L
2987 2304 L
2989 2248 L
2991 2207 L
2993 2422 L
2994 2347 L
2996 2255 L
2998 2278 L
2999 2167 L
3001 2089 L
3003 2268 L
3004 2313 L
3006 2104 L
3007 2297 L
3009 2356 L
3011 2235 L
3012 2082 L
3014 2116 L
3015 2358 L
3017 2211 L
3018 2200 L
3020 2278 L
3021 2193 L
3023 2211 L
3024 2164 L
3026 2120 L
3027 2386 L
3029 2278 L
3030 2129 L
3032 2059 L
3033 1997 L
3035 2263 L
3036 2136 L
3038 2117 L
3039 2079 L
3040 2183 L
3042 2158 L
3043 2113 L
3045 2054 L
3046 2161 L
3047 2124 L
3049 2289 L
3050 2167 L
3051 2169 L
3053 2122 L
3054 2140 L
3055 2098 L
3057 2061 L
3058 1869 L
3059 2008 L
3061 1952 L
3062 2072 L
3063 2218 L
3065 2041 L
3066 2089 L
3067 2141 L
3068 2212 L
3070 2214 L
3071 2141 L
3072 2131 L
3073 2076 L
3075 2252 L
3076 2111 L
3077 2110 L
3078 2258 L
3079 2114 L
3081 2116 L
3082 2091 L
3083 2154 L
3084 2047 L
3085 2049 L
3087 2238 L
3088 1999 L
3089 1897 L
3090 2121 L
3091 1921 L
3092 2171 L
3094 2076 L
3095 2081 L
3096 2211 L
3097 2089 L
3098 2049 L
3099 1983 L
3100 2084 L
3101 2089 L
3103 2146 L
3104 2075 L
3105 2111 L
3106 1921 L
3107 2121 L
3108 2032 L
3109 2171 L
3110 1911 L
3111 2100 L
3112 2051 L
3113 1885 L
3114 2115 L
3115 2021 L
3116 1929 L
3117 2108 L
3119 2021 L
3120 1979 L
3121 2116 L
3122 2039 L
3123 2059 L
3124 1961 L
3125 2120 L
3126 2104 L
3127 2174 L
3128 2099 L
3129 2141 L
3130 1913 L
3131 2075 L
3132 1999 L
3133 1941 L
3134 2129 L
3135 2079 L
3136 1837 L
3136 1866 L
3137 1873 L
3138 2042 L
3139 2026 L
3140 2115 L
3141 1996 L
3142 1929 L
3143 2074 L
3144 2112 L
3145 1950 L
3146 1929 L
3147 1850 L
3148 2066 L
3149 2039 L
3150 2081 L
3151 1898 L
3151 1970 L
3152 2058 L
3153 2162 L
3154 1963 L
3155 2007 L
3156 1871 L
3157 2007 L
3158 2183 L
3159 2054 L
3160 2003 L
3160 2112 L
3161 2019 L
3162 1890 L
3163 2235 L
3164 1880 L
3165 2057 L
3166 2106 L
3166 1848 L
3167 2090 L
3168 2057 L
3169 2077 L
3170 2152 L
3171 1861 L
3172 2089 L
3172 2131 L
3173 2016 L
3174 1900 L
3175 2230 L
3176 2015 L
3177 1980 L
3177 2132 L
3178 2254 L
3179 2106 L
3180 1954 L
3181 2209 L
3181 2173 L
3182 2202 L
3183 1937 L
3184 2061 L
3185 1871 L
3185 1950 L
3186 2039 L
3187 1885 L
3188 2160 L
3189 2064 L
3189 2039 L
3190 2176 L
3191 2124 L
3192 2084 L
3193 1926 L
3193 2138 L
3194 2123 L
3195 2104 L
3196 2118 L
3196 2086 L
3197 1954 L
3198 2052 L
3199 2079 L
3199 2185 L
3200 1907 L
3201 2242 L
3202 2026 L
3202 1989 L
3203 1876 L
3204 2056 L
3205 2048 L
3205 1923 L
3206 2206 L
3207 2081 L
3208 2039 L
3208 1944 L
3209 1954 L
3210 2371 L
3210 1986 L
3211 2151 L
3212 2184 L
3213 2268 L
3213 1960 L
3214 2100 L
3215 2339 L
3215 2200 L
3216 2126 L
3217 2101 L
3218 1914 L
3218 2226 L
3219 2186 L
3220 2024 L
3220 2217 L
3221 2155 L
3222 2106 L
3222 2076 L
3223 2219 L
3224 2216 L
3224 2173 L
3225 2060 L
3226 1865 L
3227 1949 L
3227 2327 L
3228 2149 L
3229 1909 L
3229 2267 L
3230 1987 L
3231 2324 L
3231 1833 L
3232 2182 L
3233 2098 L
3233 1956 L
3234 2209 L
3235 2082 L
3235 2334 L
3236 2055 L
3236 2251 L
3237 2169 L
3238 2110 L
3238 2031 L
3239 2034 L
3240 2129 L
3240 2152 L
3241 1967 L
3242 2218 L
3242 2264 L
3243 2330 L
3244 1965 L
3244 2004 L
3245 2178 L
3245 2126 L
3246 2054 L
3247 2153 L
3247 2107 L
3248 2224 L
3249 2101 L
3249 2114 L
3250 2063 L
3250 2124 L
3251 2048 L
3252 2386 L
3252 2017 L
3253 2149 L
3253 2079 L
3254 2141 L
3255 2007 L
3255 2219 L
3256 2073 L
3257 2220 L
3257 2178 L
3258 1984 L
3258 2191 L
3259 1954 L
3259 2240 L
3260 2245 L
3261 2118 L
3261 2149 L
3262 2149 L
3262 2086 L
3263 2135 L
3264 2107 L
3264 2204 L
3265 2084 L
3265 2106 L
3266 2088 L
3267 2156 L
3267 2281 L
3268 2119 L
3268 2131 L
3269 2129 L
3269 2082 L
3270 2224 L
3271 1994 L
3271 2289 L
3272 2025 L
3272 1981 L
3273 2087 L
3273 2261 L
3274 1990 L
3275 2268 L
3275 2164 L
3276 2103 L
3276 2318 L
3277 2372 L
3277 2293 L
3278 2273 L
3278 2347 L
3279 2296 L
3280 2064 L
3280 1999 L
3281 2168 L
3281 1894 L
3282 2295 L
3282 1974 L
3283 2176 L
3283 2141 L
3284 2486 L
3284 2041 L
3285 2252 L
3285 2326 L
3286 2076 L
3287 2248 L
3287 2100 L
3288 2289 L
3288 2252 L
3289 2049 L
3289 2202 L
3290 2149 L
3290 2250 L
3291 2211 L
3291 2317 L
3292 2234 L
3292 2331 L
3293 2158 L
3293 2114 L
3294 2189 L
3294 2346 L
3295 2058 L
3295 2195 L
3296 2287 L
3297 2039 L
3297 2174 L
3298 2069 L
3298 2111 L
3299 2322 L
3299 2259 L
3300 2172 L
3300 2225 L
3301 2300 L
3301 2251 L
3302 2100 L
3302 2140 L
3303 2132 L
3303 2090 L
3304 2041 L
3304 2108 L
3305 2117 L
3305 2169 L
3306 2072 L
3306 2322 L
3307 2334 L
3307 2184 L
3308 2299 L
3308 2397 L
3309 2188 L
3309 2167 L
3310 2314 L
3310 2166 L
3311 2099 L
3311 2164 L
3312 2167 L
3312 2284 L
3312 2384 L
3313 2205 L
3313 2219 L
3314 2393 L
3314 2287 L
3315 2451 L
3315 2178 L
3316 2114 L
3316 2244 L
3317 2297 L
3317 2194 L
3318 2058 L
3318 2387 L
3319 2199 L
3319 2283 L
3320 2382 L
3320 2281 L
3321 2200 L
3321 2311 L
3321 2342 L
3322 2076 L
3322 2095 L
3323 2227 L
3323 2354 L
3324 2432 L
3324 2347 L
3325 2307 L
3325 2350 L
3326 2257 L
3326 2342 L
3327 2186 L
3327 2111 L
3327 2409 L
3328 2154 L
3328 2169 L
3329 2161 L
3329 2499 L
3330 2349 L
3330 2249 L
3331 2287 L
3331 2253 L
3332 2305 L
3332 2282 L
3332 2462 L
3333 2355 L
3333 2116 L
3334 2335 L
3334 2224 L
3335 2348 L
3335 2194 L
3336 1985 L
3336 2204 L
3336 2308 L
3337 2154 L
3337 2283 L
3338 2335 L
3338 2213 L
3339 2359 L
3339 2427 L
3339 2274 L
3340 2266 L
3340 2190 L
3341 2385 L
3341 2397 L
3342 2200 L
3342 2404 L
3343 2299 L
3343 1992 L
3343 2250 L
3344 2194 L
3344 2327 L
3345 2195 L
3345 2292 L
3346 2139 L
3346 2287 L
3346 2201 L
3347 2493 L
3347 2431 L
3348 2411 L
3348 2316 L
3348 2378 L
3349 2253 L
3349 2289 L
3350 2425 L
3350 2341 L
3351 2158 L
3351 2284 L
3351 2273 L
3352 2297 L
3352 2111 L
3353 2579 L
3353 2467 L
3353 2503 L
3354 2094 L
3354 2557 L
3355 2284 L
3355 2422 L
3355 2229 L
3356 2414 L
3356 2301 L
3357 2478 L
3357 2243 L
3358 2278 L
3358 2334 L
3358 2457 L
3359 2338 L
3359 2322 L
3360 2432 L
3360 2362 L
3360 2317 L
3361 2482 L
3361 2424 L
3362 2249 L
3362 2530 L
3362 2186 L
3363 2450 L
3363 2456 L
3364 2357 L
3364 2314 L
3364 2328 L
3365 2510 L
3365 2298 L
3365 2250 L
3366 2393 L
3366 2272 L
3367 2195 L
3367 2540 L
3367 2403 L
3368 2484 L
3368 2342 L
3369 2306 L
3369 2311 L
3369 2364 L
3370 2322 L
3370 2287 L
3371 2438 L
3371 2292 L
3371 2382 L
3372 2382 L
3372 2519 L
3372 2377 L
3373 2334 L
3373 2421 L
3374 2334 L
3374 2592 L
3374 2379 L
3375 2491 L
3375 2382 L
3375 2454 L
3376 2420 L
3376 2474 L
3377 2524 L
3377 2432 L
3377 2483 L
3378 2474 L
3378 2422 L
3378 2387 L
3379 2328 L
3379 2385 L
3380 2271 L
3380 2296 L
3380 2461 L
3381 2372 L
3381 2333 L
3381 2570 L
3382 2543 L
3382 2313 L
3383 2392 L
3383 2320 L
3383 2335 L
3384 2512 L
3384 2414 L
3384 2406 L
3385 2341 L
3385 2393 L
3385 2253 L
3386 2349 L
3386 2589 L
3387 2434 L
3387 2388 L
3387 2502 L
3388 2504 L
3388 2367 L
3388 2585 L
3389 2519 L
3389 2466 L
3389 2655 L
3390 2457 L
3390 2416 L
3391 2249 L
3391 2522 L
3391 2385 L
3392 2630 L
3392 2474 L
3392 2283 L
3393 2361 L
3393 2574 L
3393 2434 L
3394 2226 L
3394 2370 L
3394 2516 L
3395 2466 L
3395 2632 L
3395 2509 L
3396 2306 L
3396 2572 L
3396 2574 L
3397 2427 L
3397 2372 L
3398 2642 L
3398 2452 L
3398 2614 L
3399 2617 L
3399 2507 L
3399 2394 L
3400 2538 L
3400 2592 L
3400 2424 L
3401 2436 L
3401 2394 L
3401 2417 L
3402 2477 L
3402 2619 L
3402 2367 L
3403 2467 L
3403 2516 L
3403 2593 L
3404 2529 L
3404 2595 L
3404 2557 L
3405 2559 L
3405 2477 L
3405 2355 L
3406 2576 L
3406 2385 L
3406 2398 L
3407 2352 L
3407 2537 L
3407 2392 L
3408 2527 L
3408 2547 L
3408 2375 L
3409 2552 L
3409 2467 L
3409 2508 L
3410 2545 L
3410 2592 L
3410 2578 L
3411 2535 L
3411 2523 L
3411 2680 L
3412 2539 L
3412 2454 L
3412 2598 L
3413 2644 L
3413 2513 L
3413 2349 L
3414 2487 L
3414 2399 L
3414 2309 L
3415 2442 L
3415 2358 L
3415 2544 L
3416 2568 L
3416 2418 L
3416 2395 L
3417 2575 L
3417 2364 L
3417 2630 L
3417 2501 L
3418 2442 L
3418 2506 L
3418 2586 L
3419 2527 L
3419 2525 L
3419 2352 L
3420 2579 L
3420 2456 L
3420 2492 L
3421 2524 L
3421 2660 L
3421 2419 L
3422 2418 L
3422 2347 L
3422 2580 L
3423 2426 L
3423 2402 L
3423 2468 L
3423 2542 L
3424 2539 L
3424 2591 L
3424 2413 L
3425 2467 L
3425 2360 L
3425 2422 L
3426 2481 L
3426 2474 L
3426 2561 L
3427 2495 L
3427 2597 L
3427 2639 L
3428 2557 L
3428 2654 L
3428 2552 L
3428 2524 L
3429 2355 L
3429 2346 L
3429 2570 L
3430 2542 L
3430 2412 L
3430 2472 L
3431 2495 L
3431 2499 L
3431 2604 L
3431 2650 L
3432 2732 L
3432 2742 L
3432 2612 L
3433 2578 L
3433 2520 L
3433 2514 L
3434 2656 L
3434 2709 L
3434 2433 L
3434 2622 L
3435 2631 L
3435 2688 L
3435 2550 L
3436 2727 L
3436 2529 L
3436 2571 L
3437 2647 L
3437 2626 L
3437 2482 L
3437 2629 L
3438 2590 L
3438 2592 L
3438 2518 L
3439 2462 L
3439 2581 L
3439 2564 L
3440 2524 L
3440 2472 L
3440 2697 L
3440 2396 L
3441 2588 L
3441 2716 L
3441 2604 L
3442 2560 L
3442 2667 L
3442 2599 L
3442 2481 L
3443 2523 L
3443 2539 L
3443 2664 L
3444 2547 L
3444 2604 L
3444 2447 L
3444 2581 L
3445 2522 L
3445 2539 L
3445 2381 L
3446 2636 L
3446 2383 L
3446 2619 L
3446 2437 L
3447 2536 L
3447 2677 L
3447 2450 L
3448 2387 L
3448 2765 L
3448 2745 L
3448 2502 L
3449 2731 L
3449 2613 L
3449 2496 L
3450 2694 L
3450 2491 L
3450 2674 L
3450 2677 L
3451 2510 L
3451 2595 L
3451 2639 L
3452 2624 L
3452 2662 L
3452 2652 L
3452 2734 L
3453 2455 L
3453 2752 L
3453 2662 L
3454 2640 L
3454 2556 L
3454 2439 L
3454 2529 L
3455 2416 L
3455 2357 L
3455 2617 L
3455 2788 L
3456 2466 L
3456 2503 L
3456 2587 L
3457 2709 L
3457 2684 L
3457 2513 L
3457 2630 L
3458 2547 L
3458 2607 L
3458 2650 L
3458 2743 L
3459 2604 L
3459 2664 L
3459 2564 L
3460 2509 L
3460 2639 L
3460 2621 L
3460 2508 L
3461 2682 L
3461 2627 L
3461 2512 L
3461 2780 L
3462 2733 L
3462 2638 L
3462 2559 L
3463 2569 L
3463 2707 L
3463 2306 L
3463 2579 L
3464 2596 L
3464 2694 L
3464 2660 L
3464 2433 L
3465 2485 L
3465 2423 L
3465 2619 L
3465 2721 L
3466 2606 L
3466 2524 L
3466 2454 L
3466 2623 L
3467 2720 L
3467 2710 L
3467 2642 L
3468 2663 L
3468 2450 L
3468 2639 L
3468 2585 L
3469 2768 L
3469 2657 L
3469 2697 L
3469 2642 L
3470 2512 L
3470 2489 L
3470 2622 L
3470 2787 L
3471 2672 L
3471 2504 L
3471 2504 L
3471 2519 L
3472 2604 L
3472 2489 L
3472 2639 L
3472 2376 L
3473 2690 L
3473 2579 L
3473 2600 L
3474 2769 L
3474 2744 L
3474 2640 L
3474 2621 L
3475 2848 L
3475 2757 L
3475 2728 L
3475 2733 L
3476 2669 L
3476 2650 L
3476 2812 L
3476 2540 L
3477 2642 L
3477 2622 L
3477 2627 L
3477 2617 L
3478 2654 L
3478 2662 L
3478 2640 L
3478 2642 L
3479 2492 L
3479 2512 L
3479 2724 L
3479 2674 L
3480 2627 L
3480 2659 L
3480 2639 L
3480 2589 L
3481 2487 L
3481 2654 L
3481 2781 L
3481 2584 L
3482 2648 L
3482 2749 L
3482 2644 L
3482 2508 L
3483 2516 L
3483 2771 L
3483 2679 L
3483 2609 L
3484 2676 L
3484 2645 L
3484 2615 L
3484 2634 L
3485 2460 L
3485 2625 L
3485 2668 L
3485 2939 L
3486 2684 L
3486 2667 L
3486 2657 L
3486 2534 L
3487 2526 L
3487 2769 L
3487 2702 L
3487 2797 L
3488 2618 L
3488 2697 L
3488 2457 L
3488 2738 L
3488 2800 L
3489 2711 L
3489 2381 L
3489 2577 L
3489 2849 L
3490 2678 L
3490 2745 L
3490 2644 L
3490 2649 L
3491 2649 L
3491 2487 L
3491 2696 L
3491 2662 L
3492 2777 L
3492 2517 L
3492 2606 L
3492 2624 L
3493 2624 L
3493 2613 L
3493 2759 L
3493 2720 L
3494 2771 L
3494 2605 L
3494 2698 L
3494 2652 L
3494 2536 L
3495 2728 L
3495 2596 L
3495 2642 L
3495 2569 L
3496 2612 L
3496 2513 L
3496 2674 L
3496 2697 L
3497 2725 L
3497 2817 L
3497 2754 L
3497 2574 L
3498 2701 L
3498 2717 L
3498 2738 L
3498 2578 L
3498 2671 L
3499 2435 L
3499 2678 L
3499 2702 L
3499 2570 L
3500 2674 L
3500 2830 L
3506 2401 L
3511 2694 L
3517 2526 L
3522 2712 L
3527 2717 L
3532 2912 L
3537 2607 L
3542 2776 L
3547 2762 L
3552 2899 L
3557 2856 L
3561 2837 L
3566 2818 L
3570 2915 L
3575 2735 L
3579 2870 L
3583 2837 L
3587 2795 L
3591 2751 L
3595 2705 L
3599 2710 L
3603 3003 L
3607 2860 L
3611 2936 L
3614 2947 L
3618 2632 L
3622 2775 L
3625 2862 L
3629 2906 L
3632 2940 L
3636 2805 L
3639 2870 L
3642 2952 L
3646 2803 L
3649 2842 L
3652 2932 L
3655 2859 L
3658 2771 L
3661 2904 L
3664 2797 L
3667 3124 L
3670 2949 L
3673 2772 L
3676 2948 L
3679 3016 L
3682 2862 L
3685 2947 L
3688 2765 L
3690 2877 L
3693 2882 L
3696 3045 L
3698 2779 L
3701 2780 L
3704 3143 L
3706 2948 L
3709 3016 L
3711 3029 L
3714 2950 L
3716 2829 L
3719 2755 L
3721 3141 L
3724 2719 L
3726 2870 L
3728 2950 L
3731 2916 L
3733 2797 L
3735 3115 L
3738 2802 L
3740 2841 L
3742 2864 L
3744 2978 L
3747 3050 L
3749 2843 L
3751 2863 L
3753 2926 L
3755 2840 L
3757 2885 L
3760 3033 L
3762 2859 L
3764 2900 L
3766 2850 L
3768 2930 L
3770 2811 L
3772 2832 L
3774 2978 L
3776 3046 L
3778 2917 L
3780 2861 L
3781 2953 L
3783 2912 L
3785 2900 L
3787 2975 L
3789 2927 L
3791 2926 L
3793 2842 L
3795 2917 L
3796 2865 L
3798 2790 L
3800 2979 L
3802 2984 L
3803 2947 L
3805 2880 L
3807 2818 L
3809 2989 L
3810 2903 L
3812 2959 L
3814 2952 L
3816 2910 L
3817 2955 L
3819 2918 L
3820 2672 L
3822 2895 L
3824 3009 L
3825 3045 L
3827 2950 L
3829 2887 L
3830 2982 L
3832 2970 L
3833 2932 L
3835 2999 L
3836 3029 L
3838 3173 L
3839 3003 L
3841 3089 L
3842 2915 L
3844 3023 L
3845 3018 L
3847 3030 L
3848 2993 L
3850 2830 L
3851 2843 L
3853 3001 L
3854 2801 L
3856 2949 L
3857 3022 L
3859 2957 L
3860 2950 L
3861 3180 L
3863 2784 L
3864 2898 L
3866 2860 L
3867 2855 L
3868 2934 L
3870 2917 L
3871 3095 L
3872 3006 L
3874 2942 L
3875 2987 L
3876 3108 L
3878 3221 L
3879 2864 L
3880 3013 L
3882 2988 L
3883 2890 L
3884 3022 L
3885 2942 L
3887 2991 L
3888 2898 L
3889 2858 L
3890 2938 L
3892 2903 L
3893 2986 L
3894 3126 L
3895 3024 L
3897 2863 L
3898 3067 L
3899 2598 L
3900 2827 L
3901 2903 L
3903 3080 L
3904 2948 L
3905 2770 L
3906 2885 L
3907 2911 L
3908 2998 L
3910 3100 L
3911 2881 L
3912 3183 L
3913 2990 L
3914 2842 L
3915 2864 L
3917 3017 L
3918 3103 L
3919 2973 L
3920 2915 L
3921 3022 L
3922 2878 L
3923 2978 L
3924 3046 L
3925 2963 L
3926 3005 L
3928 3038 L
3929 3078 L
3930 2820 L
3931 3107 L
3932 3130 L
3933 2988 L
3934 2795 L
3935 3120 L
3936 3153 L
3937 2932 L
3938 2908 L
3939 3165 L
3940 3040 L
3941 2863 L
3942 2895 L
3943 2900 L
3944 3030 L
3945 2772 L
3946 2854 L
3947 2945 L
3948 2827 L
3949 2795 L
3950 2955 L
3951 2900 L
3952 2705 L
3953 2913 L
3954 2906 L
3955 2826 L
3956 3020 L
3957 2825 L
3958 2908 L
3959 2960 L
3960 2932 L
3961 2936 L
3962 3043 L
3963 2806 L
3964 2972 L
3965 2860 L
3966 3055 L
3966 2897 L
3967 2877 L
3968 3118 L
3969 2741 L
3970 3013 L
3971 2787 L
3972 3025 L
3973 2822 L
3974 2892 L
3975 2926 L
3976 3117 L
3976 2867 L
3977 2950 L
3978 3010 L
3979 2937 L
3980 2845 L
3981 3111 L
3982 2885 L
3983 2932 L
3983 2922 L
3984 2980 L
3985 3067 L
3986 3023 L
3987 2959 L
3988 2932 L
3989 2944 L
3989 2982 L
3990 2802 L
3991 2981 L
3992 2942 L
3993 3072 L
3994 2826 L
3995 2843 L
3995 3002 L
3996 2824 L
3997 2834 L
3998 2923 L
3999 2891 L
3999 2857 L
4000 2885 L
4001 2944 L
4002 2830 L
4003 3017 L
4003 2930 L
4004 3176 L
4005 2959 L
4006 2790 L
4007 3163 L
4007 2938 L
4008 2890 L
4009 2892 L
4010 3016 L
4011 2814 L
4011 3046 L
4012 2956 L
4013 2904 L
4014 2862 L
4014 3037 L
4015 3062 L
4016 2801 L
4017 2766 L
4017 2949 L
4018 2849 L
4019 3073 L
4020 2822 L
4021 2884 L
4021 2935 L
4022 2875 L
4023 2931 L
4023 2943 L
4024 3033 L
4025 2935 L
4026 2845 L
4026 3016 L
4027 2877 L
4028 2907 L
4029 2835 L
4029 2914 L
4030 2993 L
4031 2907 L
4032 2899 L
4032 3049 L
4033 3211 L
4034 2948 L
4034 2861 L
4035 3030 L
4036 2707 L
4036 2912 L
4037 2969 L
4038 2952 L
4039 3003 L
4039 2785 L
4040 2950 L
4041 2899 L
4041 3037 L
4042 2993 L
4043 2864 L
4043 2868 L
4044 3018 L
4045 2831 L
4045 3001 L
4046 3007 L
4047 2927 L
4047 2816 L
4048 3164 L
4049 2880 L
4050 2918 L
4050 2939 L
4051 3111 L
4052 2876 L
4052 2953 L
4053 2892 L
4053 2998 L
4054 3058 L
4055 2911 L
4055 2647 L
4056 2971 L
4057 3010 L
4057 2953 L
4058 3007 L
4059 2885 L
4059 3083 L
4060 2947 L
4061 2765 L
4061 2827 L
4062 2988 L
L2 C06 COSGR

%
%================
% Legend - Begin
%================
%
GSN 4240 5180 M
4480 5180 L
LWMC SL  C06 COSGR
GSN 4540 5141 M helvM (3.0 uM) show grestore
%
%================
% Legend - End
%================
%

%
% Residuals:
%
GSN 777 750 M
1388 1054 L
1552 1114 L
1652 1569 L
1723 1230 L
1778 1352 L
1824 1123 L
1863 1235 L
1896 1288 L
1926 1283 L
1952 1301 L
1976 1293 L
1998 1139 L
2019 1208 L
2037 1215 L
2055 1150 L
2071 1282 L
2086 985 L
2101 1222 L
2115 1239 L
2128 1270 L
2140 1194 L
2152 1136 L
2163 1294 L
2174 1266 L
2184 1217 L
2194 1189 L
2204 1195 L
2213 1225 L
2222 1146 L
2230 1129 L
2239 1187 L
2247 1247 L
2255 1237 L
2262 1238 L
2270 1172 L
2277 1227 L
2284 1155 L
2290 1024 L
2297 1071 L
2303 1088 L
2310 1320 L
2316 1179 L
2322 1207 L
2328 1197 L
2333 1080 L
2339 1153 L
2344 1177 L
2350 1046 L
2355 1030 L
2360 1191 L
2365 1222 L
2370 1235 L
2375 1335 L
2380 1221 L
2384 1114 L
2389 1258 L
2393 1012 L
2398 1205 L
2402 1136 L
2407 1081 L
2411 1181 L
2415 1093 L
2419 1204 L
2423 1148 L
2427 1155 L
2431 1114 L
2435 1240 L
2438 1205 L
2442 1176 L
2446 1146 L
2449 1140 L
2453 1183 L
2456 1238 L
2460 1034 L
2463 1097 L
2467 1175 L
2470 1132 L
2473 1090 L
2476 1174 L
2480 1142 L
2483 1189 L
2486 1099 L
2489 1065 L
2492 1249 L
2495 1055 L
2498 1163 L
2501 1095 L
2504 1063 L
2507 1149 L
2510 1113 L
2512 1195 L
2515 1191 L
2518 1233 L
2521 1137 L
2523 1143 L
2526 1092 L
2529 1190 L
2531 1080 L
2534 1065 L
2536 1190 L
2539 1170 L
2541 1081 L
2544 1284 L
2546 1154 L
2549 1231 L
2551 1107 L
2554 1060 L
2556 1066 L
2558 1137 L
2561 1119 L
2563 1365 L
2565 1220 L
2568 1265 L
2570 1122 L
2572 1108 L
2574 1299 L
2576 1162 L
2579 1194 L
2581 1177 L
2583 1076 L
2585 1060 L
2587 1229 L
2589 1232 L
2591 1134 L
2593 1130 L
2595 1125 L
2597 1190 L
2599 1190 L
2601 1296 L
2603 1298 L
2605 1045 L
2607 1126 L
2609 1124 L
2611 1124 L
2613 1272 L
2615 1265 L
2617 1279 L
2618 1177 L
2620 1145 L
2622 1177 L
2624 1171 L
2626 1085 L
2627 1117 L
2629 1201 L
2631 1185 L
2633 1113 L
2634 1265 L
2636 1118 L
2638 1088 L
2640 1174 L
2641 1217 L
2643 1121 L
2645 1118 L
2646 1172 L
2648 1184 L
2650 1219 L
2651 1084 L
2653 1216 L
2654 1212 L
2656 1205 L
2658 1335 L
2659 1119 L
2661 1094 L
2662 1128 L
2664 1269 L
2665 1105 L
2667 1191 L
2668 1131 L
2670 1203 L
2671 1050 L
2673 1159 L
2674 1182 L
2676 1272 L
2677 1110 L
2679 1300 L
2680 1127 L
2682 1001 L
2683 1085 L
2685 1096 L
2686 1128 L
2687 1124 L
2689 1267 L
2690 1174 L
2692 1097 L
2693 1144 L
2694 1156 L
2696 1240 L
2697 1086 L
2698 1136 L
2700 1108 L
2701 1163 L
2702 1132 L
2704 1097 L
2705 1149 L
2706 1194 L
2708 1041 L
2709 1087 L
2710 1097 L
2712 1220 L
2713 1204 L
2714 1098 L
2715 1277 L
2717 1044 L
2718 1189 L
2719 1048 L
2720 1159 L
2722 1168 L
2723 1058 L
2724 1158 L
2725 1202 L
2726 1074 L
2728 1200 L
2729 1231 L
2730 1242 L
2731 1209 L
2732 1182 L
2734 1196 L
2735 1224 L
2736 1043 L
2737 1118 L
2738 1116 L
2739 1112 L
2741 1263 L
2742 1282 L
2743 1195 L
2744 1190 L
2745 1202 L
2746 971 L
2747 1120 L
2748 1276 L
2749 1295 L
2751 1175 L
2752 1162 L
2753 1133 L
2754 1271 L
2755 1207 L
2756 1304 L
2757 1188 L
2758 1095 L
2759 1126 L
2760 1196 L
2761 1191 L
2762 1169 L
2763 1269 L
2764 1172 L
2765 1124 L
2767 1121 L
2768 1209 L
2769 1159 L
2770 1198 L
2771 1249 L
2772 1168 L
2773 1239 L
2774 1171 L
2775 1142 L
2776 1108 L
2777 1181 L
2778 1208 L
2779 1218 L
2780 1133 L
2781 1058 L
2782 1235 L
2783 1259 L
2783 1138 L
2784 1211 L
2785 1159 L
2786 1053 L
2787 1141 L
2788 1234 L
2789 1243 L
2790 1195 L
2791 1161 L
2792 1316 L
2793 1129 L
2794 1170 L
2795 1235 L
2796 1158 L
2797 1259 L
2798 1229 L
2798 1123 L
2799 1084 L
2800 1054 L
2801 1219 L
2802 1077 L
2803 1142 L
2804 1164 L
2805 1283 L
2806 1181 L
2807 1244 L
2807 1149 L
2808 1210 L
2809 1188 L
2810 1150 L
2811 1105 L
2812 1282 L
2813 1058 L
2813 1212 L
2814 1100 L
2815 1274 L
2816 1189 L
2817 1265 L
2818 1334 L
2819 1114 L
2819 1164 L
2820 1284 L
2821 1169 L
2822 1107 L
2823 1159 L
2824 1266 L
2824 1293 L
2825 1179 L
2826 1267 L
2827 1233 L
2828 1111 L
2828 1202 L
2829 1284 L
2830 1250 L
2831 1203 L
2832 1160 L
2832 1219 L
2833 1236 L
2834 1165 L
2835 1183 L
2836 1253 L
2836 1153 L
2837 1214 L
2838 1255 L
2839 1179 L
2840 1153 L
2840 1149 L
2841 1075 L
2842 1291 L
2843 1080 L
2843 1162 L
2844 1295 L
2845 1202 L
2846 1177 L
2846 1120 L
2847 1168 L
2848 1248 L
2849 1204 L
2849 1194 L
2850 1281 L
2851 1190 L
2852 1318 L
2852 1235 L
2853 1266 L
2854 1205 L
2855 1234 L
2855 1150 L
2856 1234 L
2857 1358 L
2857 1148 L
2858 1324 L
2859 1232 L
2860 1188 L
2860 1170 L
2861 1267 L
2862 1193 L
2862 1266 L
2863 1273 L
2864 1155 L
2865 1246 L
2865 1340 L
2866 1289 L
2867 1238 L
2867 1121 L
2868 1158 L
2869 1227 L
2869 1272 L
2870 1280 L
2871 1148 L
2871 1191 L
2872 1170 L
2873 1255 L
2873 1199 L
2874 1133 L
2875 1359 L
2876 1278 L
2876 1192 L
2877 1192 L
2878 1355 L
2878 1173 L
2879 1105 L
2880 1199 L
2880 1263 L
2881 1294 L
2881 1308 L
2882 1189 L
2883 1266 L
2883 1278 L
2884 1156 L
2885 1240 L
2885 1118 L
2886 1286 L
2887 1225 L
2887 1160 L
2888 1368 L
2889 1326 L
2889 1314 L
2892 1283 L
2894 1215 L
2897 1213 L
2899 1165 L
2902 1205 L
2904 1316 L
2907 1201 L
2909 1107 L
2911 1228 L
2914 1193 L
2916 1190 L
2918 1285 L
2921 1181 L
2923 1288 L
2925 1199 L
2927 1220 L
2929 1240 L
2932 1229 L
2934 1171 L
2936 1093 L
2938 1239 L
2940 1300 L
2942 1155 L
2944 1028 L
2946 1244 L
2948 1230 L
2950 1120 L
2952 1296 L
2954 1215 L
2956 1308 L
2958 1119 L
2960 1207 L
2962 1172 L
2964 1062 L
2966 1233 L
2968 1174 L
2970 1371 L
2971 1210 L
2973 1193 L
2975 1257 L
2977 1355 L
2979 1257 L
2980 1194 L
2982 1310 L
2984 1237 L
2986 1145 L
2987 1229 L
2989 1194 L
2991 1170 L
2993 1315 L
2994 1268 L
2996 1210 L
2998 1228 L
2999 1157 L
3001 1108 L
3003 1229 L
3004 1262 L
3006 1125 L
3007 1256 L
3009 1297 L
3011 1220 L
3012 1120 L
3014 1145 L
3015 1308 L
3017 1212 L
3018 1207 L
3020 1261 L
3021 1207 L
3023 1221 L
3024 1191 L
3026 1164 L
3027 1342 L
3029 1273 L
3030 1176 L
3032 1131 L
3033 1092 L
3035 1270 L
3036 1187 L
3038 1176 L
3039 1153 L
3040 1223 L
3042 1208 L
3043 1180 L
3045 1142 L
3046 1215 L
3047 1191 L
3049 1302 L
3050 1223 L
3051 1225 L
3053 1195 L
3054 1208 L
3055 1181 L
3057 1158 L
3058 1032 L
3059 1125 L
3061 1089 L
3062 1170 L
3063 1268 L
3065 1152 L
3066 1184 L
3067 1220 L
3068 1268 L
3070 1270 L
3071 1223 L
3072 1217 L
3073 1181 L
3075 1299 L
3076 1206 L
3077 1206 L
3078 1305 L
3079 1210 L
3081 1212 L
3082 1196 L
3083 1238 L
3084 1168 L
3085 1170 L
3087 1296 L
3088 1138 L
3089 1071 L
3090 1221 L
3091 1088 L
3092 1254 L
3094 1192 L
3095 1196 L
3096 1282 L
3097 1202 L
3098 1175 L
3099 1132 L
3100 1200 L
3101 1203 L
3103 1242 L
3104 1195 L
3105 1219 L
3106 1093 L
3107 1226 L
3108 1167 L
3109 1260 L
3110 1088 L
3111 1213 L
3112 1180 L
3113 1071 L
3114 1224 L
3115 1161 L
3116 1101 L
3117 1219 L
3119 1162 L
3120 1134 L
3121 1225 L
3122 1174 L
3123 1187 L
3124 1122 L
3125 1228 L
3126 1217 L
3127 1263 L
3128 1214 L
3129 1242 L
3130 1090 L
3131 1198 L
3132 1148 L
3133 1109 L
3134 1233 L
3135 1200 L
3136 1040 L
3136 1059 L
3137 1063 L
3138 1175 L
3139 1165 L
3140 1224 L
3141 1144 L
3142 1100 L
3143 1196 L
3144 1221 L
3145 1113 L
3146 1099 L
3147 1046 L
3148 1189 L
3149 1172 L
3150 1199 L
3151 1077 L
3151 1125 L
3152 1183 L
3153 1252 L
3154 1120 L
3155 1149 L
3156 1058 L
3157 1148 L
3158 1265 L
3159 1179 L
3160 1144 L
3160 1217 L
3161 1155 L
3162 1069 L
3163 1297 L
3164 1061 L
3165 1179 L
3166 1211 L
3166 1039 L
3167 1199 L
3168 1177 L
3169 1190 L
3170 1240 L
3171 1046 L
3172 1197 L
3172 1224 L
3173 1147 L
3174 1070 L
3175 1289 L
3176 1146 L
3177 1122 L
3177 1223 L
3178 1303 L
3179 1204 L
3180 1103 L
3181 1272 L
3181 1248 L
3182 1267 L
3183 1090 L
3184 1172 L
3185 1046 L
3185 1097 L
3186 1156 L
3187 1053 L
3188 1235 L
3189 1171 L
3189 1154 L
3190 1245 L
3191 1210 L
3192 1182 L
3193 1077 L
3193 1217 L
3194 1207 L
3195 1194 L
3196 1203 L
3196 1181 L
3197 1093 L
3198 1158 L
3199 1175 L
3199 1245 L
3200 1060 L
3201 1282 L
3202 1137 L
3202 1113 L
3203 1037 L
3204 1156 L
3205 1150 L
3205 1066 L
3206 1254 L
3207 1170 L
3208 1142 L
3208 1079 L
3209 1084 L
3210 1361 L
3210 1105 L
3211 1213 L
3212 1235 L
3213 1290 L
3213 1085 L
3214 1178 L
3215 1335 L
3215 1243 L
3216 1193 L
3217 1176 L
3218 1051 L
3218 1258 L
3219 1230 L
3220 1123 L
3220 1250 L
3221 1208 L
3222 1175 L
3222 1155 L
3223 1249 L
3224 1247 L
3224 1217 L
3225 1142 L
3226 1012 L
3227 1067 L
3227 1317 L
3228 1198 L
3229 1038 L
3229 1276 L
3230 1089 L
3231 1313 L
3231 986 L
3232 1217 L
3233 1160 L
3233 1066 L
3234 1233 L
3235 1148 L
3235 1314 L
3236 1129 L
3236 1259 L
3237 1203 L
3238 1164 L
3238 1110 L
3239 1112 L
3240 1175 L
3240 1189 L
3241 1066 L
3242 1232 L
3242 1262 L
3243 1305 L
3244 1062 L
3244 1087 L
3245 1202 L
3245 1167 L
3246 1118 L
3247 1184 L
3247 1153 L
3248 1229 L
3249 1147 L
3249 1155 L
3250 1121 L
3250 1160 L
3251 1110 L
3252 1333 L
3252 1088 L
3253 1175 L
3253 1128 L
3254 1168 L
3255 1079 L
3255 1219 L
3256 1121 L
3257 1218 L
3257 1190 L
3258 1060 L
3258 1197 L
3259 1039 L
3259 1228 L
3260 1231 L
3261 1146 L
3261 1166 L
3262 1165 L
3262 1123 L
3263 1155 L
3264 1136 L
3264 1200 L
3265 1119 L
3265 1133 L
3266 1121 L
3267 1165 L
3267 1247 L
3268 1140 L
3268 1147 L
3269 1145 L
3269 1113 L
3270 1207 L
3271 1053 L
3271 1249 L
3272 1073 L
3272 1043 L
3273 1113 L
3273 1227 L
3274 1047 L
3275 1231 L
3275 1161 L
3276 1120 L
3276 1262 L
3277 1297 L
3277 1244 L
3278 1230 L
3278 1279 L
3279 1244 L
3280 1089 L
3280 1046 L
3281 1157 L
3281 975 L
3282 1241 L
3282 1027 L
3283 1161 L
3283 1137 L
3284 1365 L
3284 1069 L
3285 1208 L
3285 1257 L
3286 1090 L
3287 1204 L
3287 1105 L
3288 1229 L
3288 1205 L
3289 1069 L
3289 1170 L
3290 1134 L
3290 1201 L
3291 1174 L
3291 1244 L
3292 1188 L
3292 1252 L
3293 1137 L
3293 1107 L
3294 1156 L
3294 1259 L
3295 1068 L
3295 1158 L
3296 1219 L
3297 1053 L
3297 1143 L
3298 1072 L
3298 1100 L
3299 1238 L
3299 1196 L
3300 1138 L
3300 1173 L
3301 1222 L
3301 1188 L
3302 1088 L
3302 1114 L
3303 1108 L
3303 1079 L
3304 1046 L
3304 1090 L
3305 1095 L
3305 1129 L
3306 1064 L
3306 1230 L
3307 1237 L
3307 1137 L
3308 1212 L
3308 1277 L
3309 1138 L
3309 1123 L
3310 1220 L
3310 1122 L
3311 1076 L
3311 1119 L
3312 1120 L
3312 1197 L
3312 1263 L
3313 1144 L
3313 1152 L
3314 1267 L
3314 1196 L
3315 1304 L
3315 1123 L
3316 1079 L
3316 1165 L
3317 1200 L
3317 1131 L
3318 1040 L
3318 1257 L
3319 1133 L
3319 1188 L
3320 1252 L
3320 1185 L
3321 1131 L
3321 1204 L
3321 1223 L
3322 1047 L
3322 1059 L
3323 1145 L
3323 1230 L
3324 1280 L
3324 1223 L
3325 1197 L
3325 1224 L
3326 1162 L
3326 1218 L
3327 1114 L
3327 1063 L
3327 1261 L
3328 1091 L
3328 1100 L
3329 1094 L
3329 1318 L
3330 1218 L
3330 1151 L
3331 1175 L
3331 1152 L
3332 1187 L
3332 1170 L
3332 1289 L
3333 1218 L
3333 1059 L
3334 1204 L
3334 1129 L
3335 1211 L
3335 1108 L
3336 969 L
3336 1114 L
3336 1182 L
3337 1080 L
3337 1164 L
3338 1198 L
3338 1117 L
3339 1213 L
3339 1257 L
3339 1155 L
3340 1150 L
3340 1099 L
3341 1228 L
3341 1235 L
3342 1104 L
3342 1239 L
3343 1169 L
3343 964 L
3343 1135 L
3344 1097 L
3344 1185 L
3345 1097 L
3345 1161 L
3346 1058 L
3346 1156 L
3346 1098 L
3347 1292 L
3347 1250 L
3348 1236 L
3348 1172 L
3348 1213 L
3349 1130 L
3349 1153 L
3350 1243 L
3350 1186 L
3351 1064 L
3351 1147 L
3351 1140 L
3352 1155 L
3352 1031 L
3353 1341 L
3353 1266 L
3353 1290 L
3354 1017 L
3354 1325 L
3355 1143 L
3355 1233 L
3355 1105 L
3356 1227 L
3356 1152 L
3357 1269 L
3357 1112 L
3358 1135 L
3358 1171 L
3358 1253 L
3359 1173 L
3359 1162 L
3360 1235 L
3360 1188 L
3360 1157 L
3361 1266 L
3361 1227 L
3362 1110 L
3362 1296 L
3362 1068 L
3363 1242 L
3363 1246 L
3364 1179 L
3364 1150 L
3364 1159 L
3365 1280 L
3365 1138 L
3365 1106 L
3366 1200 L
3366 1119 L
3367 1068 L
3367 1296 L
3367 1205 L
3368 1258 L
3368 1163 L
3369 1139 L
3369 1142 L
3369 1177 L
3370 1148 L
3370 1124 L
3371 1224 L
3371 1126 L
3371 1185 L
3372 1185 L
3372 1276 L
3372 1181 L
3373 1152 L
3373 1209 L
3374 1151 L
3374 1321 L
3374 1180 L
3375 1253 L
3375 1180 L
3375 1228 L
3376 1205 L
3376 1240 L
3377 1273 L
3377 1211 L
3377 1245 L
3378 1238 L
3378 1203 L
3378 1180 L
3379 1140 L
3379 1177 L
3380 1101 L
3380 1117 L
3380 1226 L
3381 1166 L
3381 1140 L
3381 1297 L
3382 1279 L
3382 1126 L
3383 1177 L
3383 1129 L
3383 1139 L
3384 1256 L
3384 1190 L
3384 1184 L
3385 1141 L
3385 1175 L
3385 1081 L
3386 1145 L
3386 1304 L
3387 1200 L
3387 1169 L
3387 1244 L
3388 1245 L
3388 1153 L
3388 1298 L
3389 1254 L
3389 1218 L
3389 1343 L
3390 1211 L
3390 1183 L
3391 1072 L
3391 1253 L
3391 1162 L
3392 1324 L
3392 1219 L
3392 1092 L
3393 1144 L
3393 1284 L
3393 1191 L
3394 1053 L
3394 1148 L
3394 1244 L
3395 1211 L
3395 1320 L
3395 1239 L
3396 1103 L
3396 1279 L
3396 1280 L
3397 1182 L
3397 1145 L
3398 1324 L
3398 1197 L
3398 1304 L
3399 1306 L
3399 1233 L
3399 1157 L
3400 1252 L
3400 1287 L
3400 1175 L
3401 1183 L
3401 1155 L
3401 1169 L
3402 1209 L
3402 1303 L
3402 1135 L
3403 1201 L
3403 1233 L
3403 1284 L
3404 1240 L
3404 1284 L
3404 1258 L
3405 1260 L
3405 1204 L
3405 1123 L
3406 1269 L
3406 1142 L
3406 1150 L
3407 1119 L
3407 1241 L
3407 1145 L
3408 1234 L
3408 1247 L
3408 1132 L
3409 1249 L
3409 1193 L
3409 1219 L
3410 1244 L
3410 1274 L
3410 1264 L
3411 1236 L
3411 1227 L
3411 1331 L
3412 1237 L
3412 1180 L
3412 1275 L
3413 1305 L
3413 1218 L
3413 1108 L
3414 1200 L
3414 1141 L
3414 1081 L
3415 1168 L
3415 1112 L
3415 1236 L
3416 1251 L
3416 1151 L
3416 1135 L
3417 1255 L
3417 1114 L
3417 1290 L
3417 1204 L
3418 1165 L
3418 1206 L
3418 1259 L
3419 1220 L
3419 1218 L
3419 1103 L
3420 1253 L
3420 1171 L
3420 1194 L
3421 1215 L
3421 1305 L
3421 1145 L
3422 1144 L
3422 1096 L
3422 1250 L
3423 1148 L
3423 1131 L
3423 1175 L
3423 1224 L
3424 1221 L
3424 1255 L
3424 1137 L
3425 1172 L
3425 1101 L
3425 1142 L
3426 1180 L
3426 1175 L
3426 1232 L
3427 1188 L
3427 1255 L
3427 1283 L
3428 1228 L
3428 1292 L
3428 1224 L
3428 1205 L
3429 1093 L
3429 1086 L
3429 1235 L
3430 1216 L
3430 1129 L
3430 1168 L
3431 1183 L
3431 1186 L
3431 1255 L
3431 1285 L
3432 1339 L
3432 1345 L
3432 1259 L
3433 1236 L
3433 1197 L
3433 1192 L
3434 1286 L
3434 1321 L
3434 1137 L
3434 1262 L
3435 1268 L
3435 1306 L
3435 1214 L
3436 1331 L
3436 1199 L
3436 1226 L
3437 1276 L
3437 1262 L
3437 1166 L
3437 1263 L
3438 1237 L
3438 1238 L
3438 1189 L
3439 1151 L
3439 1230 L
3439 1218 L
3440 1191 L
3440 1156 L
3440 1305 L
3440 1105 L
3441 1232 L
3441 1317 L
3441 1242 L
3442 1212 L
3442 1283 L
3442 1237 L
3442 1159 L
3443 1186 L
3443 1196 L
3443 1279 L
3444 1201 L
3444 1238 L
3444 1134 L
3444 1223 L
3445 1183 L
3445 1194 L
3445 1089 L
3446 1258 L
3446 1089 L
3446 1246 L
3446 1124 L
3447 1190 L
3447 1283 L
3447 1132 L
3448 1090 L
3448 1340 L
3448 1327 L
3448 1165 L
3449 1317 L
3449 1238 L
3449 1160 L
3450 1291 L
3450 1156 L
3450 1278 L
3450 1279 L
3451 1168 L
3451 1224 L
3451 1253 L
3452 1242 L
3452 1267 L
3452 1260 L
3452 1314 L
3453 1129 L
3453 1326 L
3453 1266 L
3454 1251 L
3454 1194 L
3454 1116 L
3454 1176 L
3455 1100 L
3455 1061 L
3455 1233 L
3455 1346 L
3456 1132 L
3456 1157 L
3456 1212 L
3457 1292 L
3457 1275 L
3457 1162 L
3457 1239 L
3458 1183 L
3458 1223 L
3458 1252 L
3458 1313 L
3459 1221 L
3459 1260 L
3459 1193 L
3460 1156 L
3460 1242 L
3460 1230 L
3460 1154 L
3461 1270 L
3461 1233 L
3461 1156 L
3461 1334 L
3462 1302 L
3462 1239 L
3462 1186 L
3463 1192 L
3463 1284 L
3463 1017 L
3463 1198 L
3464 1209 L
3464 1274 L
3464 1251 L
3464 1100 L
3465 1134 L
3465 1093 L
3465 1223 L
3465 1290 L
3466 1213 L
3466 1158 L
3466 1112 L
3466 1223 L
3467 1288 L
3467 1281 L
3467 1235 L
3468 1249 L
3468 1107 L
3468 1232 L
3468 1196 L
3469 1317 L
3469 1243 L
3469 1270 L
3469 1232 L
3470 1146 L
3470 1130 L
3470 1219 L
3470 1327 L
3471 1251 L
3471 1139 L
3471 1139 L
3471 1149 L
3472 1204 L
3472 1128 L
3472 1227 L
3472 1052 L
3473 1260 L
3473 1187 L
3473 1200 L
3474 1312 L
3474 1295 L
3474 1226 L
3474 1213 L
3475 1363 L
3475 1303 L
3475 1283 L
3475 1286 L
3476 1243 L
3476 1230 L
3476 1337 L
3476 1157 L
3477 1224 L
3477 1210 L
3477 1214 L
3477 1206 L
3478 1231 L
3478 1236 L
3478 1221 L
3478 1222 L
3479 1122 L
3479 1135 L
3479 1276 L
3479 1242 L
3480 1211 L
3480 1231 L
3480 1218 L
3480 1184 L
3481 1117 L
3481 1227 L
3481 1311 L
3481 1180 L
3482 1222 L
3482 1289 L
3482 1219 L
3482 1128 L
3483 1133 L
3483 1302 L
3483 1241 L
3483 1194 L
3484 1238 L
3484 1218 L
3484 1197 L
3484 1210 L
3485 1094 L
3485 1203 L
3485 1231 L
3485 1411 L
3486 1241 L
3486 1230 L
3486 1223 L
3486 1141 L
3487 1135 L
3487 1297 L
3487 1251 L
3487 1315 L
3488 1195 L
3488 1248 L
3488 1088 L
3488 1274 L
3488 1315 L
3489 1256 L
3489 1036 L
3489 1166 L
3489 1347 L
3490 1233 L
3490 1277 L
3490 1210 L
3490 1213 L
3491 1213 L
3491 1105 L
3491 1243 L
3491 1220 L
3492 1296 L
3492 1123 L
3492 1182 L
3492 1194 L
3493 1193 L
3493 1186 L
3493 1282 L
3493 1257 L
3494 1290 L
3494 1180 L
3494 1241 L
3494 1210 L
3494 1133 L
3495 1260 L
3495 1172 L
3495 1202 L
3495 1154 L
3496 1182 L
3496 1116 L
3496 1223 L
3496 1237 L
3497 1256 L
3497 1317 L
3497 1275 L
3497 1155 L
3498 1239 L
3498 1249 L
3498 1263 L
3498 1157 L
3498 1218 L
3499 1061 L
3499 1222 L
3499 1238 L
3499 1150 L
3500 1219 L
3500 1322 L
3506 1031 L
3511 1219 L
3517 1102 L
3522 1220 L
3527 1218 L
3532 1342 L
3537 1134 L
3542 1242 L
3547 1228 L
3552 1314 L
3557 1282 L
3561 1265 L
3566 1248 L
3570 1309 L
3575 1186 L
3579 1272 L
3583 1246 L
3587 1215 L
3591 1183 L
3595 1149 L
3599 1149 L
3603 1340 L
3607 1243 L
3611 1291 L
3614 1295 L
3618 1083 L
3622 1176 L
3625 1232 L
3629 1258 L
3632 1278 L
3636 1187 L
3639 1228 L
3642 1280 L
3646 1180 L
3649 1203 L
3652 1261 L
3655 1211 L
3658 1151 L
3661 1237 L
3664 1165 L
3667 1380 L
3670 1262 L
3673 1143 L
3676 1259 L
3679 1302 L
3682 1199 L
3685 1254 L
3688 1132 L
3690 1204 L
3693 1207 L
3696 1313 L
3698 1136 L
3701 1135 L
3704 1375 L
3706 1245 L
3709 1289 L
3711 1296 L
3714 1243 L
3716 1161 L
3719 1111 L
3721 1366 L
3724 1085 L
3726 1184 L
3728 1237 L
3731 1213 L
3733 1133 L
3735 1343 L
3738 1135 L
3740 1160 L
3742 1175 L
3744 1249 L
3747 1297 L
3749 1158 L
3751 1171 L
3753 1212 L
3755 1154 L
3757 1183 L
3760 1281 L
3762 1165 L
3764 1191 L
3766 1157 L
3768 1210 L
3770 1130 L
3772 1143 L
3774 1240 L
3776 1284 L
3778 1198 L
3780 1160 L
3781 1221 L
3783 1193 L
3785 1184 L
3787 1234 L
3789 1201 L
3791 1200 L
3793 1144 L
3795 1193 L
3796 1158 L
3798 1108 L
3800 1233 L
3802 1236 L
3803 1211 L
3805 1166 L
3807 1124 L
3809 1237 L
3810 1180 L
3812 1216 L
3814 1211 L
3816 1183 L
3817 1212 L
3819 1188 L
3820 1024 L
3822 1171 L
3824 1247 L
3825 1270 L
3827 1207 L
3829 1165 L
3830 1227 L
3832 1219 L
3833 1193 L
3835 1238 L
3836 1257 L
3838 1352 L
3839 1239 L
3841 1296 L
3842 1180 L
3844 1252 L
3845 1248 L
3847 1256 L
3848 1230 L
3850 1122 L
3851 1130 L
3853 1235 L
3854 1102 L
3856 1200 L
3857 1248 L
3859 1204 L
3860 1199 L
3861 1352 L
3863 1089 L
3864 1164 L
3866 1139 L
3867 1135 L
3868 1187 L
3870 1176 L
3871 1294 L
3872 1234 L
3874 1191 L
3875 1221 L
3876 1301 L
3878 1376 L
3879 1139 L
3880 1237 L
3882 1221 L
3883 1155 L
3884 1242 L
3885 1189 L
3887 1222 L
3888 1160 L
3889 1133 L
3890 1186 L
3892 1162 L
3893 1217 L
3894 1310 L
3895 1242 L
3897 1135 L
3898 1270 L
3899 958 L
3900 1110 L
3901 1160 L
3903 1277 L
3904 1190 L
3905 1071 L
3906 1148 L
3907 1165 L
3908 1222 L
3910 1289 L
3911 1144 L
3912 1345 L
3913 1216 L
3914 1118 L
3915 1132 L
3917 1233 L
3918 1290 L
3919 1204 L
3920 1165 L
3921 1236 L
3922 1140 L
3923 1207 L
3924 1251 L
3925 1196 L
3926 1224 L
3928 1245 L
3929 1272 L
3930 1101 L
3931 1291 L
3932 1306 L
3933 1212 L
3934 1083 L
3935 1299 L
3936 1320 L
3937 1174 L
3938 1158 L
3939 1328 L
3940 1245 L
3941 1127 L
3942 1149 L
3943 1151 L
3944 1238 L
3945 1066 L
3946 1120 L
3947 1181 L
3948 1103 L
3949 1081 L
3950 1187 L
3951 1150 L
3952 1020 L
3953 1158 L
3954 1154 L
3955 1101 L
3956 1229 L
3957 1099 L
3958 1155 L
3959 1189 L
3960 1170 L
3961 1173 L
3962 1244 L
3963 1086 L
3964 1196 L
3965 1122 L
3966 1251 L
3966 1146 L
3967 1133 L
3968 1293 L
3969 1042 L
3970 1222 L
3971 1072 L
3972 1231 L
3973 1095 L
3974 1142 L
3975 1164 L
3976 1291 L
3976 1125 L
3977 1180 L
3978 1219 L
3979 1171 L
3980 1110 L
3981 1286 L
3982 1136 L
3983 1167 L
3983 1160 L
3984 1199 L
3985 1256 L
3986 1227 L
3987 1184 L
3988 1166 L
3989 1174 L
3989 1199 L
3990 1080 L
3991 1199 L
3992 1172 L
3993 1259 L
3994 1095 L
3995 1107 L
3995 1212 L
3996 1094 L
3997 1100 L
3998 1159 L
3999 1138 L
3999 1116 L
4000 1133 L
4001 1173 L
4002 1097 L
4003 1221 L
4003 1163 L
4004 1326 L
4005 1182 L
4006 1070 L
4007 1318 L
4007 1168 L
4008 1136 L
4009 1137 L
4010 1220 L
4011 1085 L
4011 1239 L
4012 1179 L
4013 1145 L
4014 1117 L
4014 1233 L
4015 1249 L
4016 1076 L
4017 1053 L
4017 1174 L
4018 1108 L
4019 1256 L
4020 1089 L
4021 1131 L
4021 1165 L
4022 1125 L
4023 1162 L
4023 1169 L
4024 1229 L
4025 1164 L
4026 1104 L
4026 1218 L
4027 1126 L
4028 1145 L
4029 1097 L
4029 1149 L
4030 1202 L
4031 1145 L
4032 1139 L
4032 1239 L
4033 1346 L
4034 1171 L
4034 1114 L
4035 1226 L
4036 1011 L
4036 1147 L
4037 1185 L
4038 1174 L
4039 1207 L
4039 1063 L
4040 1172 L
4041 1138 L
4041 1230 L
4042 1200 L
4043 1115 L
4043 1118 L
4044 1217 L
4045 1093 L
4045 1206 L
4046 1209 L
4047 1157 L
4047 1083 L
4048 1313 L
4049 1125 L
4050 1150 L
4050 1164 L
4051 1278 L
4052 1122 L
4052 1173 L
4053 1132 L
4053 1202 L
4054 1242 L
4055 1145 L
4055 970 L
4056 1185 L
4057 1211 L
4057 1172 L
4058 1208 L
4059 1127 L
4059 1259 L
4060 1168 L
4061 1047 L
4061 1088 L
4062 1195 L
L2 C06 COSGR

%
% Main frame
%
L10
GSN 
620 1700 M
4220 1700 L
4220 5300 L
620 5300 L
closepath SGR

%
% X axis: large tics
%
L10
GSN 1130 1700 M 0  54 rL SGR
GSN 1130 5300 M 0 -54 rL SGR
helvS (0.0001) 1130 470 xlabel
GSN 1716 1700 M 0  54 rL SGR
GSN 1716 5300 M 0 -54 rL SGR
helvS (0.001) 1716 470 xlabel
GSN 2303 1700 M 0  54 rL SGR
GSN 2303 5300 M 0 -54 rL SGR
helvS (0.01) 2303 470 xlabel
GSN 2889 1700 M 0  54 rL SGR
GSN 2889 5300 M 0 -54 rL SGR
helvS (0.1) 2889 470 xlabel
GSN 3476 1700 M 0  54 rL SGR
GSN 3476 5300 M 0 -54 rL SGR
helvS (1) 3476 470 xlabel
GSN 4062 1700 M 0  54 rL SGR
GSN 4062 5300 M 0 -54 rL SGR
helvS (10) 4062 470 xlabel
%
% X axis: small tics
%
L5
GSN 720 1700 M 0  36 rL SGR
GSN 720 5300 M 0 -36 rL SGR
GSN 824 1700 M 0  36 rL SGR
GSN 824 5300 M 0 -36 rL SGR
GSN 897 1700 M 0  36 rL SGR
GSN 897 5300 M 0 -36 rL SGR
GSN 954 1700 M 0  36 rL SGR
GSN 954 5300 M 0 -36 rL SGR
GSN 1000 1700 M 0  36 rL SGR
GSN 1000 5300 M 0 -36 rL SGR
GSN 1039 1700 M 0  36 rL SGR
GSN 1039 5300 M 0 -36 rL SGR
GSN 1073 1700 M 0  36 rL SGR
GSN 1073 5300 M 0 -36 rL SGR
GSN 1103 1700 M 0  36 rL SGR
GSN 1103 5300 M 0 -36 rL SGR
GSN 1307 1700 M 0  36 rL SGR
GSN 1307 5300 M 0 -36 rL SGR
GSN 1410 1700 M 0  36 rL SGR
GSN 1410 5300 M 0 -36 rL SGR
GSN 1483 1700 M 0  36 rL SGR
GSN 1483 5300 M 0 -36 rL SGR
GSN 1540 1700 M 0  36 rL SGR
GSN 1540 5300 M 0 -36 rL SGR
GSN 1586 1700 M 0  36 rL SGR
GSN 1586 5300 M 0 -36 rL SGR
GSN 1626 1700 M 0  36 rL SGR
GSN 1626 5300 M 0 -36 rL SGR
GSN 1660 1700 M 0  36 rL SGR
GSN 1660 5300 M 0 -36 rL SGR
GSN 1690 1700 M 0  36 rL SGR
GSN 1690 5300 M 0 -36 rL SGR
GSN 1893 1700 M 0  36 rL SGR
GSN 1893 5300 M 0 -36 rL SGR
GSN 1996 1700 M 0  36 rL SGR
GSN 1996 5300 M 0 -36 rL SGR
GSN 2069 1700 M 0  36 rL SGR
GSN 2069 5300 M 0 -36 rL SGR
GSN 2126 1700 M 0  36 rL SGR
GSN 2126 5300 M 0 -36 rL SGR
GSN 2173 1700 M 0  36 rL SGR
GSN 2173 5300 M 0 -36 rL SGR
GSN 2212 1700 M 0  36 rL SGR
GSN 2212 5300 M 0 -36 rL SGR
GSN 2246 1700 M 0  36 rL SGR
GSN 2246 5300 M 0 -36 rL SGR
GSN 2276 1700 M 0  36 rL SGR
GSN 2276 5300 M 0 -36 rL SGR
GSN 2479 1700 M 0  36 rL SGR
GSN 2479 5300 M 0 -36 rL SGR
GSN 2583 1700 M 0  36 rL SGR
GSN 2583 5300 M 0 -36 rL SGR
GSN 2656 1700 M 0  36 rL SGR
GSN 2656 5300 M 0 -36 rL SGR
GSN 2713 1700 M 0  36 rL SGR
GSN 2713 5300 M 0 -36 rL SGR
GSN 2759 1700 M 0  36 rL SGR
GSN 2759 5300 M 0 -36 rL SGR
GSN 2798 1700 M 0  36 rL SGR
GSN 2798 5300 M 0 -36 rL SGR
GSN 2832 1700 M 0  36 rL SGR
GSN 2832 5300 M 0 -36 rL SGR
GSN 2862 1700 M 0  36 rL SGR
GSN 2862 5300 M 0 -36 rL SGR
GSN 3066 1700 M 0  36 rL SGR
GSN 3066 5300 M 0 -36 rL SGR
GSN 3169 1700 M 0  36 rL SGR
GSN 3169 5300 M 0 -36 rL SGR
GSN 3242 1700 M 0  36 rL SGR
GSN 3242 5300 M 0 -36 rL SGR
GSN 3299 1700 M 0  36 rL SGR
GSN 3299 5300 M 0 -36 rL SGR
GSN 3345 1700 M 0  36 rL SGR
GSN 3345 5300 M 0 -36 rL SGR
GSN 3385 1700 M 0  36 rL SGR
GSN 3385 5300 M 0 -36 rL SGR
GSN 3419 1700 M 0  36 rL SGR
GSN 3419 5300 M 0 -36 rL SGR
GSN 3449 1700 M 0  36 rL SGR
GSN 3449 5300 M 0 -36 rL SGR
GSN 3652 1700 M 0  36 rL SGR
GSN 3652 5300 M 0 -36 rL SGR
GSN 3755 1700 M 0  36 rL SGR
GSN 3755 5300 M 0 -36 rL SGR
GSN 3829 1700 M 0  36 rL SGR
GSN 3829 5300 M 0 -36 rL SGR
GSN 3885 1700 M 0  36 rL SGR
GSN 3885 5300 M 0 -36 rL SGR
GSN 3932 1700 M 0  36 rL SGR
GSN 3932 5300 M 0 -36 rL SGR
GSN 3971 1700 M 0  36 rL SGR
GSN 3971 5300 M 0 -36 rL SGR
GSN 4005 1700 M 0  36 rL SGR
GSN 4005 5300 M 0 -36 rL SGR
GSN 4035 1700 M 0  36 rL SGR
GSN 4035 5300 M 0 -36 rL SGR
%
% Y axis: large tics
%
L10
GSN 620 2320 M 54 0 rL SGR
GSN 4220 2320 M -54 0 rL SGR
helvS (0.92) 560 2320 ylabel
GSN 620 3069 M 54 0 rL SGR
GSN 4220 3069 M -54 0 rL SGR
helvS (0.94) 560 3069 ylabel
GSN 620 3819 M 54 0 rL SGR
GSN 4220 3819 M -54 0 rL SGR
helvS (0.96) 560 3819 ylabel
GSN 620 4568 M 54 0 rL SGR
GSN 4220 4568 M -54 0 rL SGR
helvS (0.98) 560 4568 ylabel
%
% Y axis: small tics
%
L5
GSN 620 1758 M 36 0 rL SGR
GSN 4220 1758 M -36 0 rL SGR
GSN 620 1946 M 36 0 rL SGR
GSN 4220 1946 M -36 0 rL SGR
GSN 620 2133 M 36 0 rL SGR
GSN 4220 2133 M -36 0 rL SGR
GSN 620 2320 M 36 0 rL SGR
GSN 4220 2320 M -36 0 rL SGR
GSN 620 2508 M 36 0 rL SGR
GSN 4220 2508 M -36 0 rL SGR
GSN 620 2695 M 36 0 rL SGR
GSN 4220 2695 M -36 0 rL SGR
GSN 620 2882 M 36 0 rL SGR
GSN 4220 2882 M -36 0 rL SGR
GSN 620 3069 M 36 0 rL SGR
GSN 4220 3069 M -36 0 rL SGR
GSN 620 3257 M 36 0 rL SGR
GSN 4220 3257 M -36 0 rL SGR
GSN 620 3444 M 36 0 rL SGR
GSN 4220 3444 M -36 0 rL SGR
GSN 620 3631 M 36 0 rL SGR
GSN 4220 3631 M -36 0 rL SGR
GSN 620 3819 M 36 0 rL SGR
GSN 4220 3819 M -36 0 rL SGR
GSN 620 4006 M 36 0 rL SGR
GSN 4220 4006 M -36 0 rL SGR
GSN 620 4193 M 36 0 rL SGR
GSN 4220 4193 M -36 0 rL SGR
GSN 620 4380 M 36 0 rL SGR
GSN 4220 4380 M -36 0 rL SGR
GSN 620 4568 M 36 0 rL SGR
GSN 4220 4568 M -36 0 rL SGR
GSN 620 4755 M 36 0 rL SGR
GSN 4220 4755 M -36 0 rL SGR
GSN 620 4942 M 36 0 rL SGR
GSN 4220 4942 M -36 0 rL SGR
GSN 620 5130 M 36 0 rL SGR
GSN 4220 5130 M -36 0 rL SGR

%
% X-Axis label:
%
gsave 2420 290 M 
[
[(Helvetica) 180 0 true true 0 (t)]
[(Helvetica) 180 0 true true 0 (i)]
[(Helvetica) 180 0 true true 0 (m)]
[(Helvetica) 180 0 true true 0 (e)]
] 0 MCshow grestore

%
% Y-Axis label:
%
gsave 234 3499 M 
currentpoint gsave translate 90 rotate 0 0 moveto
[
[(Helvetica) 180 0 true true 0 (s)]
[(Helvetica) 180 0 true true 0 (i)]
[(Helvetica) 180 0 true true 0 (g)]
[(Helvetica) 180 0 true true 0 (n)]
[(Helvetica) 180 0 true true 0 (a)]
[(Helvetica) 180 0 true true 0 (l)]
] 0 MCshow grestore

%
% Residuals:
%
gsave 129 1160 M 
currentpoint gsave translate 90 rotate 0 0 moveto
[
[(Helvetica) 150 0 true true 0 (r)]
[(Helvetica) 150 0 true true 0 (e)]
[(Helvetica) 150 0 true true 0 (s)]
[(Helvetica) 150 0 true true 0 (i)]
[(Helvetica) 150 0 true true 0 (d)]
[(Helvetica) 150 0 true true 0 (u)]
[(Helvetica) 150 0 true true 0 (a)]
[(Helvetica) 150 0 true true 0 (l)]
[(Helvetica) 150 0 true true 0 (s)]
] 0 MCshow grestore

%
% Residual frame
%
L10
GSN 
620 620 M
4220 620 L
4220 1700 L
620 1700 L
closepath SGR
%
% X axis: large tics - residual frame
%
L10
GSN 1130 620 M 0  54 rL SGR
GSN 1130 1700 M 0 -54 rL SGR
GSN 1716 620 M 0  54 rL SGR
GSN 1716 1700 M 0 -54 rL SGR
GSN 2303 620 M 0  54 rL SGR
GSN 2303 1700 M 0 -54 rL SGR
GSN 2889 620 M 0  54 rL SGR
GSN 2889 1700 M 0 -54 rL SGR
GSN 3476 620 M 0  54 rL SGR
GSN 3476 1700 M 0 -54 rL SGR
GSN 4062 620 M 0  54 rL SGR
GSN 4062 1700 M 0 -54 rL SGR
%
% X axis: small tics - residual frame
%
L5
GSN 720 620 M 0  36 rL SGR
GSN 720 1700 M 0 -36 rL SGR
GSN 824 620 M 0  36 rL SGR
GSN 824 1700 M 0 -36 rL SGR
GSN 897 620 M 0  36 rL SGR
GSN 897 1700 M 0 -36 rL SGR
GSN 954 620 M 0  36 rL SGR
GSN 954 1700 M 0 -36 rL SGR
GSN 1000 620 M 0  36 rL SGR
GSN 1000 1700 M 0 -36 rL SGR
GSN 1039 620 M 0  36 rL SGR
GSN 1039 1700 M 0 -36 rL SGR
GSN 1073 620 M 0  36 rL SGR
GSN 1073 1700 M 0 -36 rL SGR
GSN 1103 620 M 0  36 rL SGR
GSN 1103 1700 M 0 -36 rL SGR
GSN 1307 620 M 0  36 rL SGR
GSN 1307 1700 M 0 -36 rL SGR
GSN 1410 620 M 0  36 rL SGR
GSN 1410 1700 M 0 -36 rL SGR
GSN 1483 620 M 0  36 rL SGR
GSN 1483 1700 M 0 -36 rL SGR
GSN 1540 620 M 0  36 rL SGR
GSN 1540 1700 M 0 -36 rL SGR
GSN 1586 620 M 0  36 rL SGR
GSN 1586 1700 M 0 -36 rL SGR
GSN 1626 620 M 0  36 rL SGR
GSN 1626 1700 M 0 -36 rL SGR
GSN 1660 620 M 0  36 rL SGR
GSN 1660 1700 M 0 -36 rL SGR
GSN 1690 620 M 0  36 rL SGR
GSN 1690 1700 M 0 -36 rL SGR
GSN 1893 620 M 0  36 rL SGR
GSN 1893 1700 M 0 -36 rL SGR
GSN 1996 620 M 0  36 rL SGR
GSN 1996 1700 M 0 -36 rL SGR
GSN 2069 620 M 0  36 rL SGR
GSN 2069 1700 M 0 -36 rL SGR
GSN 2126 620 M 0  36 rL SGR
GSN 2126 1700 M 0 -36 rL SGR
GSN 2173 620 M 0  36 rL SGR
GSN 2173 1700 M 0 -36 rL SGR
GSN 2212 620 M 0  36 rL SGR
GSN 2212 1700 M 0 -36 rL SGR
GSN 2246 620 M 0  36 rL SGR
GSN 2246 1700 M 0 -36 rL SGR
GSN 2276 620 M 0  36 rL SGR
GSN 2276 1700 M 0 -36 rL SGR
GSN 2479 620 M 0  36 rL SGR
GSN 2479 1700 M 0 -36 rL SGR
GSN 2583 620 M 0  36 rL SGR
GSN 2583 1700 M 0 -36 rL SGR
GSN 2656 620 M 0  36 rL SGR
GSN 2656 1700 M 0 -36 rL SGR
GSN 2713 620 M 0  36 rL SGR
GSN 2713 1700 M 0 -36 rL SGR
GSN 2759 620 M 0  36 rL SGR
GSN 2759 1700 M 0 -36 rL SGR
GSN 2798 620 M 0  36 rL SGR
GSN 2798 1700 M 0 -36 rL SGR
GSN 2832 620 M 0  36 rL SGR
GSN 2832 1700 M 0 -36 rL SGR
GSN 2862 620 M 0  36 rL SGR
GSN 2862 1700 M 0 -36 rL SGR
GSN 3066 620 M 0  36 rL SGR
GSN 3066 1700 M 0 -36 rL SGR
GSN 3169 620 M 0  36 rL SGR
GSN 3169 1700 M 0 -36 rL SGR
GSN 3242 620 M 0  36 rL SGR
GSN 3242 1700 M 0 -36 rL SGR
GSN 3299 620 M 0  36 rL SGR
GSN 3299 1700 M 0 -36 rL SGR
GSN 3345 620 M 0  36 rL SGR
GSN 3345 1700 M 0 -36 rL SGR
GSN 3385 620 M 0  36 rL SGR
GSN 3385 1700 M 0 -36 rL SGR
GSN 3419 620 M 0  36 rL SGR
GSN 3419 1700 M 0 -36 rL SGR
GSN 3449 620 M 0  36 rL SGR
GSN 3449 1700 M 0 -36 rL SGR
GSN 3652 620 M 0  36 rL SGR
GSN 3652 1700 M 0 -36 rL SGR
GSN 3755 620 M 0  36 rL SGR
GSN 3755 1700 M 0 -36 rL SGR
GSN 3829 620 M 0  36 rL SGR
GSN 3829 1700 M 0 -36 rL SGR
GSN 3885 620 M 0  36 rL SGR
GSN 3885 1700 M 0 -36 rL SGR
GSN 3932 620 M 0  36 rL SGR
GSN 3932 1700 M 0 -36 rL SGR
GSN 3971 620 M 0  36 rL SGR
GSN 3971 1700 M 0 -36 rL SGR
GSN 4005 620 M 0  36 rL SGR
GSN 4005 1700 M 0 -36 rL SGR
GSN 4035 620 M 0  36 rL SGR
GSN 4035 1700 M 0 -36 rL SGR
%
% Y axis: large tics - residual frame
%
L10
GSN 620 692 M 54 0 rL SGR
GSN 4220 692 M -54 0 rL SGR
helvS (-0.02) 560 692 ylabelresid
GSN 620 940 M 54 0 rL SGR
GSN 4220 940 M -54 0 rL SGR
helvS (-0.01) 560 940 ylabelresid
GSN 620 1189 M 54 0 rL SGR
GSN 4220 1189 M -54 0 rL SGR
helvS (0) 560 1189 ylabelresid
GSN 620 1438 M 54 0 rL SGR
GSN 4220 1438 M -54 0 rL SGR
helvS (0.01) 560 1438 ylabelresid
GSN 620 1686 M 54 0 rL SGR
GSN 4220 1686 M -54 0 rL SGR
helvS (0.02) 560 1686 ylabelresid

%
% X axis - residual panel
%
GSN L5 620 1189 M 4220 1189 L SDA G50 SGR

end
showpage
%%Trailer
%%EOF
