%!PS-Adobe-3.0 EPSF-3.0
%%BoundingBox: 0 0 514 550
%%Creator: BioKin Ltd.
%%DocumentFonts: Symbol Helvetica
%%EndComments
%
/bkdict 256 dict def
bkdict begin
/M {moveto} def 
/R {rmoveto} def
/L {lineto} def
/rL {rlineto} def
/GSN {gsave newpath} def
/SGR {stroke grestore} def
/COSGR {gsave setrgbcolor stroke grestore grestore} def
/SL {setlinewidth} def
/LWMB {12} def             % line width - model curves, black & white
/LWMC {10} def             % line width - model curves, color
/L2 {2.5 setlinewidth} def
/L5 {5 setlinewidth} def
/L10 {10 setlinewidth} def
/G50 {0.5 setgray} def
/SDA {[10  20] 0 setdash} def % axes
/helvT {/Helvetica findfont 100 scalefont setfont} def % tiny
/helvS {/Helvetica findfont 125 scalefont setfont} def % small
/helvM {/Helvetica findfont 150 scalefont setfont} def % medium
/helvL {/Helvetica findfont 175 scalefont setfont} def % large
/xlabel {gsave M dup
   stringwidth exch -0.5 mul exch rmoveto show grestore} def 
/ylabel {gsave M 90 rotate dup
   stringwidth exch -0.5 mul exch rmoveto show grestore} def
/ylabelresid {gsave M dup
   stringwidth exch -1 mul exch rmoveto show grestore} def
% ======
% Shapes
% ======
% Circle:
/Circ {0 360 arc closepath} def
%
% Square:
/Squa {dup dup -0.5 mul dup dup R -2 mul 0 exch rL 1 mul 0 rL dup 0 exch -1 mul rL closepath} def
%
% Triangle Up:
/TriU {dup dup dup -0.4 mul exch -0.5 mul exch R dup 0.5 mul exch rL dup -1 mul exch 0.5 mul exch rL closepath} def 
%
% Triangle Down:
/TriD {dup dup dup 0.4 mul exch -0.5 mul exch R dup 0.5 mul exch -1 mul rL dup 0.5 mul exch rL closepath} def 
%
% Diamond:
/Diam {45 rotate Squa} def
% ======
% Fills
% ======
/GRF {gsave setgray fill grestore} def                    % gray-level Fill
/COF {gsave setrgbcolor fill grestore} def                % color fill
% ======
% Colors
% ======
/C01 {1.00	0.00	0.00} def      % Red
/C02 {0.00	0.00	1.00} def      % Blue
/C03 {0.00	0.39	0.00} def      % Dark Green
/C04 {0.78	0.08	0.52} def      % Medium Violet Red
/C05 {0.55	0.27	0.07} def      % Saddle Brown
/C06 {0.10	0.70	0.70} def      % (cyan)
/C07 {1.00	0.55	0.00} def      % Dark Orange
/C08 {0.63	0.13	0.94} def      % Purple
/C09 {0.00	0.75	1.00} def      % Deep Sky Blue
/C10 {0.20	0.80	0.20} def      % Lime Green
/C11 {0.47	0.53	0.60} def      % Light Slate Gray
/C12 {0.00	0.00	0.00} def      % Black            % or: {0.19	0.31	0.31} def      % Dark Slate Gray
%
/LGR {0.75} def % light gray
/DGR {0.33} def % dark gray
%
% =============
% Dash patterns
% =============
/dash01 { [80  20] 0 setdash } def
/dash02 { [40  20] 0 setdash } def
/dash03 { [80  20  10  20] 0 setdash } def
/dash04 { [40  20  10  20] 0 setdash } def
/dash05 { [80  20  10  10  10  20] 0 setdash } def
/dash06 { [40  20  10  10  10  20] 0 setdash } def
/dash07 { [10  10] 0 setdash } def
%
/MFshow {
   { dup 5 get 3 ge
     { 5 get 3 eq {gsave} {grestore} ifelse }
     {dup dup 0 get findfont exch 1 get scalefont setfont
     [ currentpoint ] exch dup 2 get 0 exch R dup 5 get 2 ne {dup dup 6
     get exch 4 get {show} {stringwidth pop 0 R} ifelse }if dup 5 get 0 eq
     {dup 3 get {2 get neg 0 exch R pop} {pop aload pop M} ifelse} {dup 5
     get 1 eq {dup 2 get exch dup 3 get exch 6 get stringwidth pop -2 div
     dup 0 R} {dup 6 get stringwidth pop -2 div 0 R 6 get
     show 2 index {aload pop M neg 3 -1 roll neg R pop pop} {pop pop pop
     pop aload pop M} ifelse }ifelse }ifelse }
     ifelse }
   forall} bind def
/MFwidth {0 exch {dup 3 get{dup dup 0 get findfont exch 1 get scalefont
     setfont 6 get stringwidth pop add} {pop} ifelse} forall} bind def
/MCshow { currentpoint stroke M
  exch dup MFwidth -2 div 3 -1 roll R MFshow } def
%
end
%%EndProlog
bkdict begin
0.1 0.1 scale
%
% Residuals:
%
GSN 620 2588 M
620 2136 L
620 3134 L
620 2767 L
620 3477 L
620 3086 L
620 3301 L
620 3349 L
620 3114 L
620 2928 L
620 3338 L
620 3229 L
620 3743 L
620 3266 L
620 3483 L
620 3475 L
620 3554 L
620 3448 L
620 3358 L
620 3435 L
620 3166 L
620 3301 L
620 3722 L
620 3463 L
620 3327 L
620 3916 L
620 3660 L
620 3753 L
620 3660 L
620 3883 L
620 3750 L
620 3356 L
620 3910 L
620 3402 L
620 4099 L
620 4127 L
620 3475 L
620 4182 L
620 3220 L
620 4284 L
620 3905 L
620 4184 L
620 3688 L
620 4188 L
620 4140 L
620 3825 L
620 3802 L
620 3917 L
620 4224 L
620 4047 L
620 3988 L
620 4279 L
620 3972 L
620 3962 L
620 4018 L
620 4087 L
620 3896 L
620 4301 L
620 4173 L
620 3862 L
620 3843 L
620 4500 L
620 3731 L
620 4394 L
620 3796 L
620 4272 L
620 3579 L
620 4007 L
620 3552 L
620 4040 L
620 4105 L
620 3831 L
620 3801 L
620 4236 L
620 3560 L
620 3535 L
620 4276 L
620 3625 L
620 3646 L
620 3924 L
620 4367 L
620 3578 L
620 3587 L
620 3942 L
620 3952 L
620 3894 L
620 4106 L
620 3999 L
620 3624 L
620 3528 L
620 3397 L
620 3651 L
620 3757 L
620 3855 L
620 3194 L
620 3409 L
620 3923 L
620 3736 L
620 3179 L
620 4060 L
620 3909 L
620 3706 L
620 3745 L
620 3600 L
620 3702 L
620 3359 L
620 2975 L
620 3337 L
620 3187 L
620 3649 L
620 3636 L
620 3701 L
620 3552 L
620 3217 L
620 3205 L
620 3676 L
620 2984 L
620 3471 L
620 2748 L
620 3591 L
620 2992 L
620 3048 L
620 3209 L
620 3706 L
620 3281 L
620 3832 L
620 3741 L
620 2825 L
620 3348 L
620 2865 L
620 3417 L
620 3240 L
620 3019 L
620 2500 L
620 3475 L
620 2979 L
620 3108 L
620 3470 L
620 3657 L
620 3188 L
620 3205 L
620 2806 L
620 2884 L
620 2826 L
620 3170 L
620 3254 L
620 3460 L
620 3084 L
620 3505 L
620 3224 L
620 3122 L
620 3120 L
620 2971 L
620 2773 L
620 2978 L
620 3047 L
620 2951 L
620 2861 L
620 3130 L
620 3064 L
620 3177 L
620 3462 L
620 3554 L
620 3617 L
620 3131 L
620 3487 L
620 3900 L
620 3230 L
620 3325 L
620 3181 L
620 3722 L
620 3071 L
620 3153 L
620 3475 L
620 3506 L
620 3362 L
620 3021 L
620 3522 L
620 3570 L
620 3287 L
620 3128 L
620 3531 L
620 3488 L
620 3404 L
620 2938 L
620 3530 L
620 3237 L
620 3375 L
620 3079 L
620 4113 L
620 3684 L
620 3060 L
620 3952 L
620 3104 L
620 3544 L
620 3905 L
620 3561 L
620 3680 L
620 3731 L
620 3896 L
620 3694 L
620 3910 L
620 2921 L
620 3215 L
620 3631 L
620 3442 L
620 3473 L
620 3365 L
620 3561 L
620 3385 L
620 3487 L
620 3555 L
620 3882 L
620 3731 L
620 3602 L
620 3812 L
620 3403 L
620 3559 L
620 3319 L
620 3495 L
620 3458 L
620 3914 L
620 3647 L
620 3488 L
620 3499 L
620 3837 L
620 4242 L
620 3597 L
620 3881 L
620 3226 L
620 3550 L
620 3607 L
620 3645 L
620 3533 L
620 3844 L
620 3963 L
620 3696 L
620 4057 L
620 3470 L
620 3027 L
620 3902 L
620 3355 L
620 4078 L
620 4125 L
620 3777 L
620 2960 L
620 3736 L
620 4159 L
620 3821 L
620 3446 L
620 3878 L
620 3976 L
620 4199 L
620 3703 L
620 3720 L
620 3879 L
620 3997 L
620 3818 L
620 3899 L
620 3828 L
620 3882 L
620 3558 L
620 3730 L
620 4055 L
620 3838 L
620 3646 L
620 3842 L
620 3751 L
620 3710 L
620 3616 L
620 3177 L
620 3464 L
620 3872 L
620 4119 L
620 3828 L
620 3919 L
620 4102 L
620 3656 L
620 4011 L
620 3839 L
620 3661 L
620 4134 L
620 4003 L
620 4728 L
620 4215 L
620 3954 L
620 3927 L
620 3733 L
620 4237 L
620 3954 L
620 4395 L
620 4089 L
620 4539 L
620 4503 L
620 4422 L
620 4760 L
620 4463 L
620 4350 L
620 4453 L
620 4715 L
620 4629 L
620 4224 L
620 4701 L
620 4341 L
620 4300 L
620 4764 L
620 3886 L
620 4535 L
620 4291 L
620 4562 L
620 4706 L
620 4003 L
620 4089 L
620 4629 L
620 4751 L
620 4598 L
620 4160 L
620 3710 L
620 4517 L
620 4030 L
620 3936 L
620 4327 L
620 4665 L
620 3917 L
620 4143 L
620 4399 L
620 4170 L
620 4463 L
620 4490 L
620 4863 L
620 4544 L
620 4791 L
620 4062 L
620 4544 L
620 4341 L
620 4773 L
620 4039 L
620 3810 L
620 3733 L
620 4634 L
620 4183 L
620 4710 L
620 4318 L
620 4314 L
620 4368 L
620 4408 L
620 4386 L
620 3976 L
620 4129 L
620 4404 L
620 4417 L
620 4089 L
620 3850 L
620 4111 L
620 4143 L
620 3927 L
620 3931 L
620 3958 L
620 4034 L
620 4386 L
620 4404 L
620 3980 L
620 4219 L
620 3648 L
620 3931 L
620 3886 L
620 4228 L
620 4440 L
620 3616 L
620 4215 L
620 3688 L
620 3688 L
620 3769 L
620 3886 L
620 3760 L
620 3729 L
620 3990 L
620 3828 L
620 4156 L
620 3688 L
620 3692 L
620 4237 L
620 3553 L
620 4192 L
620 3787 L
620 4089 L
620 3909 L
620 4129 L
620 3638 L
620 3917 L
620 3738 L
620 3656 L
620 3814 L
620 3868 L
620 4147 L
620 3175 L
620 4188 L
620 3702 L
620 3602 L
620 4084 L
620 3530 L
620 3729 L
620 3656 L
620 3634 L
620 3638 L
620 3458 L
620 4143 L
620 3436 L
620 3548 L
620 3620 L
620 3413 L
620 3332 L
620 3715 L
620 3994 L
620 3710 L
620 3805 L
620 3918 L
620 4287 L
620 3841 L
620 4062 L
620 4354 L
620 4044 L
620 3638 L
620 3733 L
620 4233 L
620 3760 L
620 3742 L
620 3139 L
620 4170 L
620 3328 L
620 3661 L
620 3864 L
620 3702 L
620 3440 L
620 3652 L
620 3998 L
620 3918 L
620 4107 L
620 4309 L
620 3629 L
620 4436 L
620 3724 L
620 3805 L
620 3467 L
620 3810 L
620 3517 L
620 3962 L
620 3571 L
620 3855 L
620 3647 L
620 3796 L
620 3846 L
620 3512 L
620 4062 L
620 3418 L
620 3999 L
620 3823 L
620 4039 L
620 3625 L
620 3291 L
620 3440 L
620 3409 L
620 3692 L
620 3872 L
620 3692 L
620 3544 L
620 4183 L
620 3445 L
620 4246 L
620 4125 L
620 2990 L
620 3413 L
620 3638 L
620 4210 L
620 3472 L
620 3918 L
620 3877 L
620 3372 L
620 3130 L
620 3566 L
620 3706 L
620 3841 L
620 3877 L
620 3629 L
620 3684 L
620 3972 L
620 3440 L
620 3440 L
620 3922 L
620 3855 L
620 3661 L
620 3440 L
620 3643 L
620 4093 L
620 3310 L
620 3076 L
620 3175 L
620 3877 L
620 3697 L
620 3427 L
620 4116 L
620 3841 L
620 3481 L
620 3332 L
620 3413 L
620 3544 L
620 3625 L
620 3454 L
620 3274 L
620 3958 L
620 3449 L
620 3589 L
620 4165 L
620 3544 L
620 3089 L
620 3774 L
620 3210 L
620 3940 L
620 3814 L
620 3661 L
620 3400 L
620 4066 L
620 3310 L
620 3733 L
620 3557 L
620 4080 L
620 3742 L
620 3584 L
620 3728 L
620 3796 L
620 4012 L
620 3652 L
620 3747 L
L2 C02 COSGR

%
%================
% Legend - Begin
%================
%
GSN 4240 5180 M
4480 5180 L
LWMC SL  C02 COSGR
GSN 4540 5141 M helvM (1.0 uM) show grestore
%
%================
% Legend - End
%================
%

%
% Main frame
%
L10
GSN 
620 1700 M
4220 1700 L
4220 5300 L
620 5300 L
closepath SGR

%
% X axis: large tics
%
L10
%
% X axis: small tics
%
L5
%
% Y axis: large tics
%
L10
GSN 620 1966 M 54 0 rL SGR
GSN 4220 1966 M -54 0 rL SGR
helvS (-0.02) 560 1966 ylabel
GSN 620 2852 M 54 0 rL SGR
GSN 4220 2852 M -54 0 rL SGR
helvS (-0.01) 560 2852 ylabel
GSN 620 3737 M 54 0 rL SGR
GSN 4220 3737 M -54 0 rL SGR
helvS (0) 560 3737 ylabel
GSN 620 4622 M 54 0 rL SGR
GSN 4220 4622 M -54 0 rL SGR
helvS (0.01) 560 4622 ylabel
%
% Y axis: small tics
%
L5
GSN 620 1745 M 36 0 rL SGR
GSN 4220 1745 M -36 0 rL SGR
GSN 620 1966 M 36 0 rL SGR
GSN 4220 1966 M -36 0 rL SGR
GSN 620 2188 M 36 0 rL SGR
GSN 4220 2188 M -36 0 rL SGR
GSN 620 2409 M 36 0 rL SGR
GSN 4220 2409 M -36 0 rL SGR
GSN 620 2630 M 36 0 rL SGR
GSN 4220 2630 M -36 0 rL SGR
GSN 620 2852 M 36 0 rL SGR
GSN 4220 2852 M -36 0 rL SGR
GSN 620 3073 M 36 0 rL SGR
GSN 4220 3073 M -36 0 rL SGR
GSN 620 3294 M 36 0 rL SGR
GSN 4220 3294 M -36 0 rL SGR
GSN 620 3516 M 36 0 rL SGR
GSN 4220 3516 M -36 0 rL SGR
GSN 620 3737 M 36 0 rL SGR
GSN 4220 3737 M -36 0 rL SGR
GSN 620 3958 M 36 0 rL SGR
GSN 4220 3958 M -36 0 rL SGR
GSN 620 4180 M 36 0 rL SGR
GSN 4220 4180 M -36 0 rL SGR
GSN 620 4401 M 36 0 rL SGR
GSN 4220 4401 M -36 0 rL SGR
GSN 620 4622 M 36 0 rL SGR
GSN 4220 4622 M -36 0 rL SGR
GSN 620 4844 M 36 0 rL SGR
GSN 4220 4844 M -36 0 rL SGR
GSN 620 5065 M 36 0 rL SGR
GSN 4220 5065 M -36 0 rL SGR
GSN 620 5286 M 36 0 rL SGR
GSN 4220 5286 M -36 0 rL SGR

%
% X axis - residual panel
%
GSN L5 620 3737 M 4220 3737 L SDA G50 SGR

%
% X-Axis label:
%
gsave 620 1370 M 
[
[(Helvetica) 180 0 true true 0 (t)]
[(Helvetica) 180 0 true true 0 (i)]
[(Helvetica) 180 0 true true 0 (m)]
[(Helvetica) 180 0 true true 0 (e)]
] 0 MCshow grestore

%
% Y-Axis label:
%
gsave 234 3500 M 
currentpoint gsave translate 90 rotate 0 0 moveto
[
[(Helvetica) 180 0 true true 0 (r)]
[(Helvetica) 180 0 true true 0 (e)]
[(Helvetica) 180 0 true true 0 (s)]
[(Helvetica) 180 0 true true 0 (i)]
[(Helvetica) 180 0 true true 0 (d)]
[(Helvetica) 180 0 true true 0 (u)]
[(Helvetica) 180 0 true true 0 (a)]
[(Helvetica) 180 0 true true 0 (l)]
[(Helvetica) 180 0 true true 0 (s)]
] 0 MCshow grestore

end
showpage
%%Trailer
%%EOF
