%!PS-Adobe-3.0 EPSF-3.0
%%BoundingBox: 0 0 514 550
%%Creator: BioKin Ltd.
%%DocumentFonts: Symbol Helvetica
%%EndComments
%
/bkdict 256 dict def
bkdict begin
/M {moveto} def 
/R {rmoveto} def
/L {lineto} def
/rL {rlineto} def
/GSN {gsave newpath} def
/SGR {stroke grestore} def
/COSGR {gsave setrgbcolor stroke grestore grestore} def
/SL {setlinewidth} def
/LWMB {12} def             % line width - model curves, black & white
/LWMC {10} def             % line width - model curves, color
/L2 {2.5 setlinewidth} def
/L5 {5 setlinewidth} def
/L10 {10 setlinewidth} def
/G50 {0.5 setgray} def
/SDA {[10  20] 0 setdash} def % axes
/helvT {/Helvetica findfont 100 scalefont setfont} def % tiny
/helvS {/Helvetica findfont 125 scalefont setfont} def % small
/helvM {/Helvetica findfont 150 scalefont setfont} def % medium
/helvL {/Helvetica findfont 175 scalefont setfont} def % large
/xlabel {gsave M dup
   stringwidth exch -0.5 mul exch rmoveto show grestore} def 
/ylabel {gsave M 90 rotate dup
   stringwidth exch -0.5 mul exch rmoveto show grestore} def
/ylabelresid {gsave M dup
   stringwidth exch -1 mul exch rmoveto show grestore} def
% ======
% Shapes
% ======
% Circle:
/Circ {0 360 arc closepath} def
%
% Square:
/Squa {dup dup -0.5 mul dup dup R -2 mul 0 exch rL 1 mul 0 rL dup 0 exch -1 mul rL closepath} def
%
% Triangle Up:
/TriU {dup dup dup -0.4 mul exch -0.5 mul exch R dup 0.5 mul exch rL dup -1 mul exch 0.5 mul exch rL closepath} def 
%
% Triangle Down:
/TriD {dup dup dup 0.4 mul exch -0.5 mul exch R dup 0.5 mul exch -1 mul rL dup 0.5 mul exch rL closepath} def 
%
% Diamond:
/Diam {45 rotate Squa} def
% ======
% Fills
% ======
/GRF {gsave setgray fill grestore} def                    % gray-level Fill
/COF {gsave setrgbcolor fill grestore} def                % color fill
% ======
% Colors
% ======
/C01 {1.00	0.00	0.00} def      % Red
/C02 {0.00	0.00	1.00} def      % Blue
/C03 {0.00	0.39	0.00} def      % Dark Green
/C04 {0.78	0.08	0.52} def      % Medium Violet Red
/C05 {0.55	0.27	0.07} def      % Saddle Brown
/C06 {0.10	0.70	0.70} def      % (cyan)
/C07 {1.00	0.55	0.00} def      % Dark Orange
/C08 {0.63	0.13	0.94} def      % Purple
/C09 {0.00	0.75	1.00} def      % Deep Sky Blue
/C10 {0.20	0.80	0.20} def      % Lime Green
/C11 {0.47	0.53	0.60} def      % Light Slate Gray
/C12 {0.00	0.00	0.00} def      % Black            % or: {0.19	0.31	0.31} def      % Dark Slate Gray
%
/LGR {0.75} def % light gray
/DGR {0.33} def % dark gray
%
% =============
% Dash patterns
% =============
/dash01 { [80  20] 0 setdash } def
/dash02 { [40  20] 0 setdash } def
/dash03 { [80  20  10  20] 0 setdash } def
/dash04 { [40  20  10  20] 0 setdash } def
/dash05 { [80  20  10  10  10  20] 0 setdash } def
/dash06 { [40  20  10  10  10  20] 0 setdash } def
/dash07 { [10  10] 0 setdash } def
%
/MFshow {
   { dup 5 get 3 ge
     { 5 get 3 eq {gsave} {grestore} ifelse }
     {dup dup 0 get findfont exch 1 get scalefont setfont
     [ currentpoint ] exch dup 2 get 0 exch R dup 5 get 2 ne {dup dup 6
     get exch 4 get {show} {stringwidth pop 0 R} ifelse }if dup 5 get 0 eq
     {dup 3 get {2 get neg 0 exch R pop} {pop aload pop M} ifelse} {dup 5
     get 1 eq {dup 2 get exch dup 3 get exch 6 get stringwidth pop -2 div
     dup 0 R} {dup 6 get stringwidth pop -2 div 0 R 6 get
     show 2 index {aload pop M neg 3 -1 roll neg R pop pop} {pop pop pop
     pop aload pop M} ifelse }ifelse }ifelse }
     ifelse }
   forall} bind def
/MFwidth {0 exch {dup 3 get{dup dup 0 get findfont exch 1 get scalefont
     setfont 6 get stringwidth pop add} {pop} ifelse} forall} bind def
/MCshow { currentpoint stroke M
  exch dup MFwidth -2 div 3 -1 roll R MFshow } def
%
end
%%EndProlog
bkdict begin
0.1 0.1 scale
%
% Model curves:
%

GSN 753 5166 M
753 5166 L
786 5140 L
820 5122 L
853 5109 L
886 5101 L
920 5095 L
929 5094 L
953 5092 L
986 5089 L
1020 5086 L
1053 5084 L
1086 5081 L
1106 5079 L
1120 5078 L
1153 5074 L
1186 5070 L
1220 5065 L
1253 5059 L
1282 5054 L
1286 5053 L
1319 5046 L
1353 5038 L
1386 5029 L
1419 5019 L
1453 5007 L
1459 5005 L
1486 4994 L
1519 4979 L
1553 4962 L
1586 4943 L
1619 4921 L
1635 4910 L
1653 4896 L
1686 4869 L
1719 4838 L
1753 4803 L
1786 4764 L
1812 4731 L
1819 4721 L
1853 4672 L
1886 4619 L
1919 4559 L
1953 4494 L
1986 4422 L
1988 4417 L
2019 4344 L
2053 4259 L
2086 4168 L
2119 4070 L
2153 3966 L
2165 3927 L
2186 3858 L
2219 3744 L
2253 3628 L
2286 3509 L
2319 3390 L
2341 3312 L
2353 3272 L
2386 3157 L
2419 3047 L
2453 2944 L
2486 2849 L
2518 2767 L
2519 2763 L
2553 2688 L
2586 2623 L
2619 2570 L
2653 2528 L
2686 2495 L
2694 2489 L
2719 2472 L
2753 2456 L
2786 2446 L
2819 2440 L
2853 2437 L
2871 2436 L
2886 2436 L
2919 2435 L
2953 2435 L
2986 2436 L
3019 2436 L
3047 2437 L
3053 2437 L
3086 2438 L
3119 2438 L
3153 2439 L
3186 2441 L
3219 2442 L
3224 2442 L
3253 2443 L
3286 2445 L
3319 2447 L
3353 2449 L
3386 2451 L
3400 2452 L
3419 2454 L
3453 2457 L
3476 2459 L
3486 2460 L
3519 2464 L
3553 2469 L
3577 2473 L
3586 2474 L
3619 2480 L
3653 2487 L
3686 2494 L
3719 2503 L
3753 2513 L
3754 2513 L
3786 2524 L
3819 2537 L
3853 2552 L
3886 2568 L
3919 2587 L
3930 2593 L
3953 2608 L
3986 2633 L
4019 2660 L
4053 2691 L
4086 2726 L
4086 2726 L
LWMC SL  C04 COSGR

%
% Experimental data:
%
GSN 777 4220 M
1388 4170 L
1552 3918 L
1652 3972 L
1723 4129 L
1778 4029 L
1824 3902 L
1863 3975 L
1896 3972 L
1926 3907 L
1952 3895 L
1976 3982 L
1998 3940 L
2019 3983 L
2037 4000 L
2055 4049 L
2071 3885 L
2086 3859 L
2101 3897 L
2115 3906 L
2128 3873 L
2140 3782 L
2152 4012 L
2163 3978 L
2174 3969 L
2184 4036 L
2194 3867 L
2204 3887 L
2213 3791 L
2222 3893 L
2230 3813 L
2239 3924 L
2247 3763 L
2255 3897 L
2262 3960 L
2270 3814 L
2277 3705 L
2284 3751 L
2290 3619 L
2297 3729 L
2303 3814 L
2310 3792 L
2316 3758 L
2322 3641 L
2328 3651 L
2333 3672 L
2339 3744 L
2344 3731 L
2350 3726 L
2355 3699 L
2360 3663 L
2365 3656 L
2370 3578 L
2375 3692 L
2380 3629 L
2384 3667 L
2389 3636 L
2393 3697 L
2398 3709 L
2402 3670 L
2407 3481 L
2411 3552 L
2415 3608 L
2419 3638 L
2423 3647 L
2427 3491 L
2431 3639 L
2435 3642 L
2438 3762 L
2442 3447 L
2446 3504 L
2449 3394 L
2453 3392 L
2456 3434 L
2460 3475 L
2463 3495 L
2467 3573 L
2470 3594 L
2473 3537 L
2476 3610 L
2480 3602 L
2483 3548 L
2486 3335 L
2489 3504 L
2492 3381 L
2495 3459 L
2498 3472 L
2501 3568 L
2504 3620 L
2507 3432 L
2510 3496 L
2512 3379 L
2515 3564 L
2518 3423 L
2521 3495 L
2523 3431 L
2526 3485 L
2529 3284 L
2531 3521 L
2534 3357 L
2536 3428 L
2539 3332 L
2541 3371 L
2544 3506 L
2546 3442 L
2549 3405 L
2551 3412 L
2554 3479 L
2556 3448 L
2558 3336 L
2561 3417 L
2563 3335 L
2565 3436 L
2568 3386 L
2570 3264 L
2572 3259 L
2574 3394 L
2576 3448 L
2579 3326 L
2581 3279 L
2583 3361 L
2585 3367 L
2587 3375 L
2589 3333 L
2591 3262 L
2593 3403 L
2595 3312 L
2597 3353 L
2599 3295 L
2601 3246 L
2603 3174 L
2605 3233 L
2607 3291 L
2609 3389 L
2611 3236 L
2613 3306 L
2615 3163 L
2617 3173 L
2618 3203 L
2620 3231 L
2622 3136 L
2624 3329 L
2626 3335 L
2627 3141 L
2629 3195 L
2631 3247 L
2633 3239 L
2634 3212 L
2636 3204 L
2638 3247 L
2640 3160 L
2641 3147 L
2643 3300 L
2645 3245 L
2646 3197 L
2648 3115 L
2650 3264 L
2651 3236 L
2653 3223 L
2654 3176 L
2656 3153 L
2658 3193 L
2659 3303 L
2661 3253 L
2662 3204 L
2664 3189 L
2665 2988 L
2667 3080 L
2668 3090 L
2670 3238 L
2671 3149 L
2673 3199 L
2674 3143 L
2676 3112 L
2677 3024 L
2679 3087 L
2680 3134 L
2682 3129 L
2683 3224 L
2685 3104 L
2686 3160 L
2687 2985 L
2689 3063 L
2690 3029 L
2692 3033 L
2693 3271 L
2694 3197 L
2696 3099 L
2697 3124 L
2698 3096 L
2700 3007 L
2701 3149 L
2702 3033 L
2704 3086 L
2705 3141 L
2706 3100 L
2708 3020 L
2709 3003 L
2710 3047 L
2712 3009 L
2713 3098 L
2714 2997 L
2715 3084 L
2717 3107 L
2718 2946 L
2719 3077 L
2720 3066 L
2722 2998 L
2723 3019 L
2724 2978 L
2725 3058 L
2726 3001 L
2728 2988 L
2729 2996 L
2730 3036 L
2731 2875 L
2732 3013 L
2734 2981 L
2735 2948 L
2736 3086 L
2737 3110 L
2738 2819 L
2739 2792 L
2741 2840 L
2742 3127 L
2743 3099 L
2744 3037 L
2745 3075 L
2746 2964 L
2747 3030 L
2748 2917 L
2749 2965 L
2751 3030 L
2752 3034 L
2753 3030 L
2754 2983 L
2755 2924 L
2756 2956 L
2757 2883 L
2758 2996 L
2759 2829 L
2760 2859 L
2761 2905 L
2762 3092 L
2763 2886 L
2764 2896 L
2765 2832 L
2767 2904 L
2768 2829 L
2769 2790 L
2770 2923 L
2771 3044 L
2772 2975 L
2773 2871 L
2774 2843 L
2775 3007 L
2776 2903 L
2777 2937 L
2778 2911 L
2779 2895 L
2780 3030 L
2781 2848 L
2782 3022 L
2783 2972 L
2783 2949 L
2784 2878 L
2785 2852 L
2786 2985 L
2787 2699 L
2788 2889 L
2789 2829 L
2790 2712 L
2791 2950 L
2792 2896 L
2793 2793 L
2794 2981 L
2795 2865 L
2796 2774 L
2797 2880 L
2798 2925 L
2798 2750 L
2799 2669 L
2800 2881 L
2801 2842 L
2802 2782 L
2803 2830 L
2804 2931 L
2805 2893 L
2806 2716 L
2807 2852 L
2807 2830 L
2808 2709 L
2809 2877 L
2810 2822 L
2811 2777 L
2812 2690 L
2813 2839 L
2813 2866 L
2814 2773 L
2815 2761 L
2816 2686 L
2817 2920 L
2818 2778 L
2819 2859 L
2819 2710 L
2820 2784 L
2821 2860 L
2822 2683 L
2823 2809 L
2824 2702 L
2824 2827 L
2825 2872 L
2826 2793 L
2827 2693 L
2828 2588 L
2828 2778 L
2829 2676 L
2830 2840 L
2831 2757 L
2832 2812 L
2832 2705 L
2833 2701 L
2834 2653 L
2835 2640 L
2836 2610 L
2836 2680 L
2837 2684 L
2838 2819 L
2839 2830 L
2840 2766 L
2840 2588 L
2841 2727 L
2842 2621 L
2843 2782 L
2843 2653 L
2844 2709 L
2845 2790 L
2846 2605 L
2846 2622 L
2847 2657 L
2848 2685 L
2849 2638 L
2849 2669 L
2850 2762 L
2851 2721 L
2852 2644 L
2852 2564 L
2853 2712 L
2854 2727 L
2855 2657 L
2855 2715 L
2856 2540 L
2857 2631 L
2857 2712 L
2858 2715 L
2859 2789 L
2860 2663 L
2860 2645 L
2861 2635 L
2862 2660 L
2862 2653 L
2863 2705 L
2864 2638 L
2865 2540 L
2865 2541 L
2866 2631 L
2867 2695 L
2867 2706 L
2868 2541 L
2869 2601 L
2869 2648 L
2870 2591 L
2871 2694 L
2871 2678 L
2872 2577 L
2873 2710 L
2873 2546 L
2874 2634 L
2875 2677 L
2876 2773 L
2876 2595 L
2877 2582 L
2878 2501 L
2878 2543 L
2879 2648 L
2880 2539 L
2880 2516 L
2881 2625 L
2881 2618 L
2882 2562 L
2883 2764 L
2883 2553 L
2884 2660 L
2885 2540 L
2885 2567 L
2886 2535 L
2887 2549 L
2887 2673 L
2888 2579 L
2889 2580 L
2889 2718 L
2892 2592 L
2894 2371 L
2897 2629 L
2899 2517 L
2902 2345 L
2904 2460 L
2907 2476 L
2909 2594 L
2911 2582 L
2914 2611 L
2916 2542 L
2918 2592 L
2921 2551 L
2923 2453 L
2925 2394 L
2927 2421 L
2929 2501 L
2932 2526 L
2934 2337 L
2936 2368 L
2938 2390 L
2940 2527 L
2942 2459 L
2944 2421 L
2946 2430 L
2948 2339 L
2950 2410 L
2952 2436 L
2954 2430 L
2956 2320 L
2958 2427 L
2960 2299 L
2962 2266 L
2964 2478 L
2966 2291 L
2968 2371 L
2970 2442 L
2971 2419 L
2973 2318 L
2975 2374 L
2977 2533 L
2979 2378 L
2980 2395 L
2982 2321 L
2984 2351 L
2986 2278 L
2987 2168 L
2989 2365 L
2991 2345 L
2993 2293 L
2994 2313 L
2996 2315 L
2998 2310 L
2999 2411 L
3001 2266 L
3003 2372 L
3004 2220 L
3006 2352 L
3007 2362 L
3009 2173 L
3011 2381 L
3012 2279 L
3014 2277 L
3015 2213 L
3017 2208 L
3018 2184 L
3020 2203 L
3021 2060 L
3023 2243 L
3024 2225 L
3026 2210 L
3027 2118 L
3029 2233 L
3030 2166 L
3032 2380 L
3033 2098 L
3035 2107 L
3036 2320 L
3038 2190 L
3039 2176 L
3040 2293 L
3042 2196 L
3043 2176 L
3045 2159 L
3046 2214 L
3047 2241 L
3049 2221 L
3050 2107 L
3051 2067 L
3053 2234 L
3054 2146 L
3055 2200 L
3057 2056 L
3058 2216 L
3059 2213 L
3061 2161 L
3062 2159 L
3063 2153 L
3065 2259 L
3066 1968 L
3067 2152 L
3068 2204 L
3070 2022 L
3071 2168 L
3072 2059 L
3073 2171 L
3075 2033 L
3076 2154 L
3077 2032 L
3078 2160 L
3079 2156 L
3081 2184 L
3082 2051 L
3083 2161 L
3084 2138 L
3085 2069 L
3087 2133 L
3088 2145 L
3089 2095 L
3090 2134 L
3091 2118 L
3092 2104 L
3094 2318 L
3095 2307 L
3096 2028 L
3097 2127 L
3098 2064 L
3099 2105 L
3100 2036 L
3101 2109 L
3103 2005 L
3104 2078 L
3105 2188 L
3106 2140 L
3107 2210 L
3108 1972 L
3109 2094 L
3110 2047 L
3111 2187 L
3112 2085 L
3113 2084 L
3114 2130 L
3115 2065 L
3116 1997 L
3117 2090 L
3119 2108 L
3120 2131 L
3121 1952 L
3122 2101 L
3123 2035 L
3124 2087 L
3125 1955 L
3126 2036 L
3127 2037 L
3128 1969 L
3129 2267 L
3130 2022 L
3131 2035 L
3132 1955 L
3133 2153 L
3134 1965 L
3135 2100 L
3136 2027 L
3136 2124 L
3137 2061 L
3138 2038 L
3139 2130 L
3140 1982 L
3141 2087 L
3142 2030 L
3143 2091 L
3144 1980 L
3145 2022 L
3146 2196 L
3147 2056 L
3148 2090 L
3149 2032 L
3150 2012 L
3151 2054 L
3151 2106 L
3152 2038 L
3153 1951 L
3154 2032 L
3155 2021 L
3156 1942 L
3157 2004 L
3158 2090 L
3159 2048 L
3160 1900 L
3160 2012 L
3161 2140 L
3162 2087 L
3163 2035 L
3164 2135 L
3165 2101 L
3166 2012 L
3166 2075 L
3167 2080 L
3168 2026 L
3169 2014 L
3170 2071 L
3171 2049 L
3172 2070 L
3172 2043 L
3173 2033 L
3174 1981 L
3175 2028 L
3176 2059 L
3177 2066 L
3177 2000 L
3178 2121 L
3179 2010 L
3180 2075 L
3181 2022 L
3181 2028 L
3182 2036 L
3183 2036 L
3184 1980 L
3185 1997 L
3185 2017 L
3186 2099 L
3187 2011 L
3188 1994 L
3189 2018 L
3189 2030 L
3190 1901 L
3191 2004 L
3192 2085 L
3193 2085 L
3193 2049 L
3194 2061 L
3195 2106 L
3196 2021 L
3196 2082 L
3197 2049 L
3198 2134 L
3199 2031 L
3199 2107 L
3200 2131 L
3201 2086 L
3202 2071 L
3202 2120 L
3203 2077 L
3204 2065 L
3205 1937 L
3205 2001 L
3206 2012 L
3207 2051 L
3208 2020 L
3208 2047 L
3209 1972 L
3210 1933 L
3210 2110 L
3211 1948 L
3212 2134 L
3213 1984 L
3213 2059 L
3214 2024 L
3215 2013 L
3215 2033 L
3216 2027 L
3217 2016 L
3218 1988 L
3218 2020 L
3219 2057 L
3220 1833 L
3220 2013 L
3221 2036 L
3222 2004 L
3222 2040 L
3223 2004 L
3224 2026 L
3224 2068 L
3225 2102 L
3226 2092 L
3227 1901 L
3227 2013 L
3228 2118 L
3229 2062 L
3229 2044 L
3230 1968 L
3231 2069 L
3231 2072 L
3232 2038 L
3233 2022 L
3233 2107 L
3234 2035 L
3235 1985 L
3235 2035 L
3236 2009 L
3236 2040 L
3237 1989 L
3238 2044 L
3238 2079 L
3239 2041 L
3240 1972 L
3240 2139 L
3241 1934 L
3242 1922 L
3242 2076 L
3243 2041 L
3244 1912 L
3244 2146 L
3245 2082 L
3245 2072 L
3246 2092 L
3247 2127 L
3247 2040 L
3248 2044 L
3249 2059 L
3249 2203 L
3250 2117 L
3250 2063 L
3251 2130 L
3252 2093 L
3252 2088 L
3253 2023 L
3253 2137 L
3254 2250 L
3255 2089 L
3255 2074 L
3256 1945 L
3257 2072 L
3257 2112 L
3258 2158 L
3258 2083 L
3259 2135 L
3259 2011 L
3260 2078 L
3261 2188 L
3261 2076 L
3262 2101 L
3262 1997 L
3263 2156 L
3264 1885 L
3264 2192 L
3265 1985 L
3265 2111 L
3266 2194 L
3267 1948 L
3267 2199 L
3268 2061 L
3268 2184 L
3269 2064 L
3269 2037 L
3270 2114 L
3271 2123 L
3271 2147 L
3272 2105 L
3272 2185 L
3273 2160 L
3273 2062 L
3274 2099 L
3275 2064 L
3275 2144 L
3276 2059 L
3276 2107 L
3277 2059 L
3277 2169 L
3278 2040 L
3278 2096 L
3279 2286 L
3280 2107 L
3280 2055 L
3281 2108 L
3281 2202 L
3282 2144 L
3282 2160 L
3283 1885 L
3283 2112 L
3284 2023 L
3284 2127 L
3285 2158 L
3285 2108 L
3286 2102 L
3287 2177 L
3287 2252 L
3288 2019 L
3288 2190 L
3289 2081 L
3289 2059 L
3290 2113 L
3290 2169 L
3291 2099 L
3291 2160 L
3292 2157 L
3292 2087 L
3293 2140 L
3293 2097 L
3294 2066 L
3294 2168 L
3295 2054 L
3295 2154 L
3296 2188 L
3297 2110 L
3297 2051 L
3298 2020 L
3298 2212 L
3299 2017 L
3299 2016 L
3300 2040 L
3300 2173 L
3301 2055 L
3301 2179 L
3302 2106 L
3302 2210 L
3303 2149 L
3303 2176 L
3304 2178 L
3304 2193 L
3305 2059 L
3305 2143 L
3306 2264 L
3306 2086 L
3307 2053 L
3307 2154 L
3308 2231 L
3308 2093 L
3309 2040 L
3309 2169 L
3310 2153 L
3310 2158 L
3311 2245 L
3311 2127 L
3312 2123 L
3312 2120 L
3312 2187 L
3313 2160 L
3313 2124 L
3314 2115 L
3314 2223 L
3315 2153 L
3315 2103 L
3316 2086 L
3316 2106 L
3317 2277 L
3317 2211 L
3318 2109 L
3318 2213 L
3319 2247 L
3319 2179 L
3320 2085 L
3320 2056 L
3321 2108 L
3321 2120 L
3321 2259 L
3322 2145 L
3322 2228 L
3323 2144 L
3323 2239 L
3324 2134 L
3324 2094 L
3325 2099 L
3325 2022 L
3326 2185 L
3326 2190 L
3327 2186 L
3327 2258 L
3327 2144 L
3328 2201 L
3328 2328 L
3329 2152 L
3329 2175 L
3330 2251 L
3330 2251 L
3331 2278 L
3331 2129 L
3332 2165 L
3332 2027 L
3332 2131 L
3333 2129 L
3333 2160 L
3334 2210 L
3334 2113 L
3335 2131 L
3335 2194 L
3336 2258 L
3336 2116 L
3336 2209 L
3337 2239 L
3337 2257 L
3338 2204 L
3338 2064 L
3339 2147 L
3339 2211 L
3339 2184 L
3340 2083 L
3340 2246 L
3341 2243 L
3341 2137 L
3342 2176 L
3342 2267 L
3343 2159 L
3343 2162 L
3343 2161 L
3344 2236 L
3344 2267 L
3345 2267 L
3345 2238 L
3346 2169 L
3346 2235 L
3346 2261 L
3347 2101 L
3347 2341 L
3348 2226 L
3348 2255 L
3348 2155 L
3349 2165 L
3349 2173 L
3350 2312 L
3350 2150 L
3351 2199 L
3351 2141 L
3351 2216 L
3352 2199 L
3352 2194 L
3353 2168 L
3353 2157 L
3353 2210 L
3354 2264 L
3354 2200 L
3355 2281 L
3355 2267 L
3355 2277 L
3356 2182 L
3356 2172 L
3357 2287 L
3357 2147 L
3358 2136 L
3358 2280 L
3358 2141 L
3359 2130 L
3359 2196 L
3360 2186 L
3360 2280 L
3360 2173 L
3361 2212 L
3361 2232 L
3362 2235 L
3362 2153 L
3362 2224 L
3363 2200 L
3363 2262 L
3364 2298 L
3364 2211 L
3364 2212 L
3365 2166 L
3365 2303 L
3365 2168 L
3366 2231 L
3366 2327 L
3367 2308 L
3367 2319 L
3367 2196 L
3368 2299 L
3368 2272 L
3369 2161 L
3369 2242 L
3369 2172 L
3370 2135 L
3370 2258 L
3371 2227 L
3371 2179 L
3371 2270 L
3372 2206 L
3372 2248 L
3372 2234 L
3373 2140 L
3373 2213 L
3374 2268 L
3374 2173 L
3374 2417 L
3375 2233 L
3375 2225 L
3375 2261 L
3376 2292 L
3376 2270 L
3377 2252 L
3377 2253 L
3377 2167 L
3378 2218 L
3378 2268 L
3378 2296 L
3379 2319 L
3379 2204 L
3380 2153 L
3380 2281 L
3380 2361 L
3381 2313 L
3381 2188 L
3381 2274 L
3382 2238 L
3382 2282 L
3383 2258 L
3383 2282 L
3383 2222 L
3384 2289 L
3384 2369 L
3384 2309 L
3385 2233 L
3385 2270 L
3385 2290 L
3386 2249 L
3386 2297 L
3387 2292 L
3387 2244 L
3387 2366 L
3388 2267 L
3388 2334 L
3388 2130 L
3389 2276 L
3389 2239 L
3389 2248 L
3390 2210 L
3390 2399 L
3391 2273 L
3391 2303 L
3391 2308 L
3392 2238 L
3392 2244 L
3392 2365 L
3393 2314 L
3393 2072 L
3393 2291 L
3394 2256 L
3394 2255 L
3394 2207 L
3395 2339 L
3395 2278 L
3395 2291 L
3396 2331 L
3396 2248 L
3396 2340 L
3397 2232 L
3397 2234 L
3398 2191 L
3398 2337 L
3398 2244 L
3399 2254 L
3399 2284 L
3399 2247 L
3400 2235 L
3400 2274 L
3400 2252 L
3401 2332 L
3401 2365 L
3401 2326 L
3402 2214 L
3402 2374 L
3402 2269 L
3403 2413 L
3403 2295 L
3403 2296 L
3404 2335 L
3404 2254 L
3404 2227 L
3405 2413 L
3405 2230 L
3405 2310 L
3406 2323 L
3406 2335 L
3406 2322 L
3407 2322 L
3407 2422 L
3407 2174 L
3408 2159 L
3408 2157 L
3408 2310 L
3409 2277 L
3409 2260 L
3409 2298 L
3410 2299 L
3410 2345 L
3410 2437 L
3411 2319 L
3411 2371 L
3411 2345 L
3412 2250 L
3412 2244 L
3412 2388 L
3413 2412 L
3413 2311 L
3413 2315 L
3414 2365 L
3414 2354 L
3414 2297 L
3415 2365 L
3415 2276 L
3415 2424 L
3416 2334 L
3416 2257 L
3416 2180 L
3417 2404 L
3417 2416 L
3417 2332 L
3417 2234 L
3418 2329 L
3418 2366 L
3418 2256 L
3419 2336 L
3419 2428 L
3419 2206 L
3420 2356 L
3420 2326 L
3420 2320 L
3421 2363 L
3421 2298 L
3421 2316 L
3422 2307 L
3422 2426 L
3422 2224 L
3423 2256 L
3423 2381 L
3423 2323 L
3423 2403 L
3424 2370 L
3424 2370 L
3424 2222 L
3425 2310 L
3425 2412 L
3425 2359 L
3426 2444 L
3426 2458 L
3426 2492 L
3427 2228 L
3427 2367 L
3427 2253 L
3428 2236 L
3428 2282 L
3428 2331 L
3428 2425 L
3429 2210 L
3429 2363 L
3429 2413 L
3430 2491 L
3430 2270 L
3430 2284 L
3431 2238 L
3431 2278 L
3431 2394 L
3431 2331 L
3432 2317 L
3432 2303 L
3432 2364 L
3433 2409 L
3433 2425 L
3433 2395 L
3434 2347 L
3434 2399 L
3434 2340 L
3434 2326 L
3435 2287 L
3435 2309 L
3435 2377 L
3436 2409 L
3436 2452 L
3436 2359 L
3437 2388 L
3437 2365 L
3437 2383 L
3437 2303 L
3438 2303 L
3438 2296 L
3438 2365 L
3439 2297 L
3439 2327 L
3439 2366 L
3440 2436 L
3440 2409 L
3440 2406 L
3440 2367 L
3441 2426 L
3441 2397 L
3441 2345 L
3442 2347 L
3442 2342 L
3442 2414 L
3442 2362 L
3443 2451 L
3443 2512 L
3443 2366 L
3444 2404 L
3444 2382 L
3444 2384 L
3444 2503 L
3445 2362 L
3445 2355 L
3445 2442 L
3446 2322 L
3446 2319 L
3446 2413 L
3446 2359 L
3447 2215 L
3447 2328 L
3447 2470 L
3448 2370 L
3448 2370 L
3448 2337 L
3448 2339 L
3449 2371 L
3449 2364 L
3449 2335 L
3450 2341 L
3450 2472 L
3450 2418 L
3450 2373 L
3451 2404 L
3451 2382 L
3451 2312 L
3452 2374 L
3452 2382 L
3452 2270 L
3452 2394 L
3453 2538 L
3453 2497 L
3453 2566 L
3454 2338 L
3454 2353 L
3454 2305 L
3454 2371 L
3455 2312 L
3455 2348 L
3455 2304 L
3455 2423 L
3456 2318 L
3456 2346 L
3456 2354 L
3457 2523 L
3457 2410 L
3457 2277 L
3457 2287 L
3458 2247 L
3458 2404 L
3458 2360 L
3458 2484 L
3459 2348 L
3459 2349 L
3459 2315 L
3460 2399 L
3460 2338 L
3460 2331 L
3460 2526 L
3461 2403 L
3461 2475 L
3461 2341 L
3461 2619 L
3462 2367 L
3462 2477 L
3462 2416 L
3463 2327 L
3463 2311 L
3463 2359 L
3463 2381 L
3464 2260 L
3464 2339 L
3464 2401 L
3464 2459 L
3465 2394 L
3465 2357 L
3465 2397 L
3465 2444 L
3466 2241 L
3466 2365 L
3466 2472 L
3466 2458 L
3467 2272 L
3467 2461 L
3467 2368 L
3468 2381 L
3468 2485 L
3468 2463 L
3468 2437 L
3469 2315 L
3469 2373 L
3469 2383 L
3469 2397 L
3470 2462 L
3470 2469 L
3470 2394 L
3470 2387 L
3471 2377 L
3471 2654 L
3471 2400 L
3471 2366 L
3472 2393 L
3472 2571 L
3472 2610 L
3472 2388 L
3473 2379 L
3473 2471 L
3473 2517 L
3474 2431 L
3474 2481 L
3474 2462 L
3474 2324 L
3475 2411 L
3475 2411 L
3475 2445 L
3475 2497 L
3476 2347 L
3476 2500 L
3476 2416 L
3476 2516 L
3477 2439 L
3477 2588 L
3477 2454 L
3477 2421 L
3478 2385 L
3478 2546 L
3478 2486 L
3478 2373 L
3479 2531 L
3479 2376 L
3479 2519 L
3479 2483 L
3480 2387 L
3480 2425 L
3480 2445 L
3480 2386 L
3481 2523 L
3481 2393 L
3481 2439 L
3481 2464 L
3482 2348 L
3482 2473 L
3482 2486 L
3482 2506 L
3483 2398 L
3483 2494 L
3483 2466 L
3483 2521 L
3484 2477 L
3484 2476 L
3484 2534 L
3484 2426 L
3485 2492 L
3485 2452 L
3485 2341 L
3485 2290 L
3486 2347 L
3486 2397 L
3486 2452 L
3486 2360 L
3487 2398 L
3487 2463 L
3487 2501 L
3487 2474 L
3488 2471 L
3488 2493 L
3488 2545 L
3488 2567 L
3488 2483 L
3489 2440 L
3489 2401 L
3489 2416 L
3489 2498 L
3490 2525 L
3490 2449 L
3490 2426 L
3490 2260 L
3491 2442 L
3491 2504 L
3491 2383 L
3491 2474 L
3492 2482 L
3492 2427 L
3492 2494 L
3492 2414 L
3493 2381 L
3493 2439 L
3493 2367 L
3493 2448 L
3494 2486 L
3494 2445 L
3494 2455 L
3494 2434 L
3494 2582 L
3495 2460 L
3495 2322 L
3495 2536 L
3495 2520 L
3496 2448 L
3496 2559 L
3496 2418 L
3496 2400 L
3497 2531 L
3497 2423 L
3497 2319 L
3497 2417 L
3498 2489 L
3498 2368 L
3498 2591 L
3498 2403 L
3498 2462 L
3499 2494 L
3499 2532 L
3499 2525 L
3499 2447 L
3500 2366 L
3500 2574 L
3506 2411 L
3511 2445 L
3517 2555 L
3522 2464 L
3527 2582 L
3532 2494 L
3537 2528 L
3542 2478 L
3547 2608 L
3552 2593 L
3557 2486 L
3561 2563 L
3566 2561 L
3570 2644 L
3575 2607 L
3579 2635 L
3583 2703 L
3587 2566 L
3591 2611 L
3595 2705 L
3599 2713 L
3603 2599 L
3607 2552 L
3611 2613 L
3614 2511 L
3618 2648 L
3622 2704 L
3625 2730 L
3629 2600 L
3632 2652 L
3636 2594 L
3639 2636 L
3642 2707 L
3646 2593 L
3649 2786 L
3652 2501 L
3655 2564 L
3658 2698 L
3661 2743 L
3664 2678 L
3667 2499 L
3670 2736 L
3673 2698 L
3676 2783 L
3679 2726 L
3682 2730 L
3685 2658 L
3688 2673 L
3690 2531 L
3693 2592 L
3696 2760 L
3698 2575 L
3701 2713 L
3704 2589 L
3706 2713 L
3709 2574 L
3711 2779 L
3714 2701 L
3716 2673 L
3719 2720 L
3721 2646 L
3724 2524 L
3726 2624 L
3728 2715 L
3731 2710 L
3733 2626 L
3735 2748 L
3738 2624 L
3740 2621 L
3742 2733 L
3744 2857 L
3747 2705 L
3749 2564 L
3751 2708 L
3753 2727 L
3755 2506 L
3757 2540 L
3760 2818 L
3762 2640 L
3764 2562 L
3766 2783 L
3768 2675 L
3770 2584 L
3772 2784 L
3774 2752 L
3776 2649 L
3778 2695 L
3780 2747 L
3781 2628 L
3783 2711 L
3785 2644 L
3787 2807 L
3789 2626 L
3791 2755 L
3793 2679 L
3795 2731 L
3796 2747 L
3798 2638 L
3800 2622 L
3802 2697 L
3803 2755 L
3805 2629 L
3807 2759 L
3809 2736 L
3810 2764 L
3812 2764 L
3814 2668 L
3816 2712 L
3817 2739 L
3819 2691 L
3820 2517 L
3822 2780 L
3824 2477 L
3825 2761 L
3827 2657 L
3829 2635 L
3830 2658 L
3832 2709 L
3833 2795 L
3835 2805 L
3836 2546 L
3838 2734 L
3839 2682 L
3841 2767 L
3842 2577 L
3844 2690 L
3845 2702 L
3847 2590 L
3848 2849 L
3850 2814 L
3851 2691 L
3853 2647 L
3854 2690 L
3856 2688 L
3857 2709 L
3859 2729 L
3860 2715 L
3861 2586 L
3863 2699 L
3864 2710 L
3866 2631 L
3867 2617 L
3868 2888 L
3870 2626 L
3871 2672 L
3872 2727 L
3874 2710 L
3875 2713 L
3876 2637 L
3878 2684 L
3879 2808 L
3880 2654 L
3882 2545 L
3883 2594 L
3884 2737 L
3885 2776 L
3887 2653 L
3888 2780 L
3889 2727 L
3890 2664 L
3892 2771 L
3893 2764 L
3894 2703 L
3895 2779 L
3897 2648 L
3898 2649 L
3899 2779 L
3900 2826 L
3901 2608 L
3903 2657 L
3904 2866 L
3905 2710 L
3906 2633 L
3907 2855 L
3908 2726 L
3910 2687 L
3911 2738 L
3912 2657 L
3913 2631 L
3914 2700 L
3915 2602 L
3917 2666 L
3918 2728 L
3919 2646 L
3920 2632 L
3921 2541 L
3922 2557 L
3923 2680 L
3924 2752 L
3925 2682 L
3926 2613 L
3928 2584 L
3929 2728 L
3930 2613 L
3931 2678 L
3932 2579 L
3933 2627 L
3934 2635 L
3935 2720 L
3936 2597 L
3937 2691 L
3938 2775 L
3939 2798 L
3940 2686 L
3941 2627 L
3942 2829 L
3943 2690 L
3944 2744 L
3945 2654 L
3946 2680 L
3947 2431 L
3948 2683 L
3949 2716 L
3950 2749 L
3951 2735 L
3952 2594 L
3953 2718 L
3954 2716 L
3955 2800 L
3956 2683 L
3957 2613 L
3958 2703 L
3959 2718 L
3960 2667 L
3961 2684 L
3962 2698 L
3963 2749 L
3964 2613 L
3965 2619 L
3966 2618 L
3966 2571 L
3967 2754 L
3968 2839 L
3969 2748 L
3970 2634 L
3971 2658 L
3972 2554 L
3973 2785 L
3974 2727 L
3975 2606 L
3976 2617 L
3976 2735 L
3977 2656 L
3978 2648 L
3979 2673 L
3980 2710 L
3981 2567 L
3982 2601 L
3983 2797 L
3983 2750 L
3984 2783 L
3985 2637 L
3986 2695 L
3987 2720 L
3988 2640 L
3989 2853 L
3989 2570 L
3990 2690 L
3991 2660 L
3992 2794 L
3993 2673 L
3994 2745 L
3995 2565 L
3995 2680 L
3996 2779 L
3997 2751 L
3998 2767 L
3999 2769 L
3999 2589 L
4000 2637 L
4001 2462 L
4002 2642 L
4003 2609 L
4003 2588 L
4004 2731 L
4005 2611 L
4006 2736 L
4007 2721 L
4007 2616 L
4008 2696 L
4009 2605 L
4010 2753 L
4011 2622 L
4011 2572 L
4012 2622 L
4013 2678 L
4014 2652 L
4014 2746 L
4015 2656 L
4016 2673 L
4017 2698 L
4017 2709 L
4018 2606 L
4019 2671 L
4020 2911 L
4021 2674 L
4021 2648 L
4022 2700 L
4023 2600 L
4023 2673 L
4024 2632 L
4025 2521 L
4026 2648 L
4026 2752 L
4027 2738 L
4028 2628 L
4029 2661 L
4029 2732 L
4030 2679 L
4031 2606 L
4032 2624 L
4032 2987 L
4033 2614 L
4034 2731 L
4034 2575 L
4035 2732 L
4036 2693 L
4036 2694 L
4037 2593 L
4038 2640 L
4039 2751 L
4039 2565 L
4040 2831 L
4041 2735 L
4041 2607 L
4042 2731 L
4043 2641 L
4043 2713 L
4044 2717 L
4045 2668 L
4045 2754 L
4046 2729 L
4047 2594 L
4047 2770 L
4048 2738 L
4049 2723 L
4050 2573 L
4050 2551 L
4051 2750 L
4052 2620 L
4052 2726 L
4053 2649 L
4053 2819 L
4054 2640 L
4055 2679 L
4055 2627 L
4056 2633 L
4057 2557 L
4057 2778 L
4058 2595 L
4059 2821 L
4059 2688 L
4060 2640 L
4061 2745 L
4061 2570 L
4062 2651 L
L2 C04 COSGR

%
%================
% Legend - Begin
%================
%
GSN 4240 5180 M
4480 5180 L
LWMC SL  C04 COSGR
GSN 4540 5141 M helvM (2.0 uM) show grestore
%
%================
% Legend - End
%================
%

%
% Residuals:
%
GSN 777 802 M
1388 832 L
1552 750 L
1652 802 L
1723 899 L
1778 882 L
1824 852 L
1863 909 L
1896 933 L
1926 928 L
1952 945 L
1976 1006 L
1998 1009 L
2019 1050 L
2037 1078 L
2055 1119 L
2071 1066 L
2086 1074 L
2101 1109 L
2115 1131 L
2128 1133 L
2140 1110 L
2152 1228 L
2163 1229 L
2174 1240 L
2184 1285 L
2194 1225 L
2204 1248 L
2213 1220 L
2222 1278 L
2230 1256 L
2239 1318 L
2247 1259 L
2255 1330 L
2262 1370 L
2270 1317 L
2277 1281 L
2284 1311 L
2290 1264 L
2297 1323 L
2303 1370 L
2310 1371 L
2316 1365 L
2322 1323 L
2328 1337 L
2333 1355 L
2339 1395 L
2344 1398 L
2350 1404 L
2355 1400 L
2360 1392 L
2365 1397 L
2370 1370 L
2375 1427 L
2380 1407 L
2384 1431 L
2389 1424 L
2393 1457 L
2398 1469 L
2402 1458 L
2407 1381 L
2411 1419 L
2415 1449 L
2419 1468 L
2423 1477 L
2427 1414 L
2431 1485 L
2435 1492 L
2438 1549 L
2442 1416 L
2446 1446 L
2449 1402 L
2453 1406 L
2456 1429 L
2460 1452 L
2463 1465 L
2467 1503 L
2470 1517 L
2473 1496 L
2476 1532 L
2480 1532 L
2483 1512 L
2486 1422 L
2489 1500 L
2492 1450 L
2495 1488 L
2498 1497 L
2501 1542 L
2504 1569 L
2507 1489 L
2510 1521 L
2512 1472 L
2515 1557 L
2518 1498 L
2521 1532 L
2523 1507 L
2526 1533 L
2529 1448 L
2531 1555 L
2534 1485 L
2536 1519 L
2539 1479 L
2541 1499 L
2544 1561 L
2546 1535 L
2549 1521 L
2551 1526 L
2554 1558 L
2556 1546 L
2558 1499 L
2561 1537 L
2563 1503 L
2565 1549 L
2568 1529 L
2570 1478 L
2572 1477 L
2574 1538 L
2576 1564 L
2579 1512 L
2581 1493 L
2583 1531 L
2585 1535 L
2587 1540 L
2589 1523 L
2591 1494 L
2593 1557 L
2595 1519 L
2597 1538 L
2599 1514 L
2601 1494 L
2603 1464 L
2605 1491 L
2607 1518 L
2609 1562 L
2611 1496 L
2613 1528 L
2615 1467 L
2617 1472 L
2618 1487 L
2620 1500 L
2622 1459 L
2624 1545 L
2626 1549 L
2627 1465 L
2629 1490 L
2631 1514 L
2633 1511 L
2634 1500 L
2636 1498 L
2638 1518 L
2640 1480 L
2641 1476 L
2643 1544 L
2645 1520 L
2646 1500 L
2648 1465 L
2650 1531 L
2651 1520 L
2653 1515 L
2654 1495 L
2656 1486 L
2658 1504 L
2659 1553 L
2661 1532 L
2662 1511 L
2664 1505 L
2665 1417 L
2667 1458 L
2668 1463 L
2670 1529 L
2671 1491 L
2673 1513 L
2674 1489 L
2676 1476 L
2677 1438 L
2679 1466 L
2680 1488 L
2682 1486 L
2683 1528 L
2685 1476 L
2686 1501 L
2687 1425 L
2689 1460 L
2690 1445 L
2692 1447 L
2693 1553 L
2694 1520 L
2696 1478 L
2697 1489 L
2698 1477 L
2700 1439 L
2701 1502 L
2702 1451 L
2704 1475 L
2705 1499 L
2706 1481 L
2708 1447 L
2709 1440 L
2710 1460 L
2712 1443 L
2713 1483 L
2714 1439 L
2715 1477 L
2717 1487 L
2718 1417 L
2719 1475 L
2720 1470 L
2722 1441 L
2723 1451 L
2724 1432 L
2725 1468 L
2726 1443 L
2728 1438 L
2729 1442 L
2730 1459 L
2731 1389 L
2732 1450 L
2734 1436 L
2735 1422 L
2736 1483 L
2737 1494 L
2738 1366 L
2739 1354 L
2741 1376 L
2742 1502 L
2743 1490 L
2744 1463 L
2745 1480 L
2746 1431 L
2747 1460 L
2748 1411 L
2749 1432 L
2751 1461 L
2752 1463 L
2753 1461 L
2754 1441 L
2755 1415 L
2756 1429 L
2757 1398 L
2758 1447 L
2759 1374 L
2760 1388 L
2761 1408 L
2762 1490 L
2763 1400 L
2764 1404 L
2765 1376 L
2767 1408 L
2768 1375 L
2769 1358 L
2770 1417 L
2771 1470 L
2772 1440 L
2773 1394 L
2774 1382 L
2775 1454 L
2776 1409 L
2777 1424 L
2778 1413 L
2779 1406 L
2780 1465 L
2781 1385 L
2782 1462 L
2783 1440 L
2783 1430 L
2784 1399 L
2785 1388 L
2786 1446 L
2787 1320 L
2788 1404 L
2789 1378 L
2790 1327 L
2791 1431 L
2792 1407 L
2793 1362 L
2794 1445 L
2795 1394 L
2796 1354 L
2797 1401 L
2798 1421 L
2798 1344 L
2799 1308 L
2800 1402 L
2801 1385 L
2802 1358 L
2803 1379 L
2804 1424 L
2805 1407 L
2806 1330 L
2807 1390 L
2807 1380 L
2808 1327 L
2809 1401 L
2810 1376 L
2811 1357 L
2812 1319 L
2813 1384 L
2813 1396 L
2814 1355 L
2815 1350 L
2816 1317 L
2817 1420 L
2818 1358 L
2819 1393 L
2819 1328 L
2820 1360 L
2821 1394 L
2822 1316 L
2823 1372 L
2824 1324 L
2824 1380 L
2825 1400 L
2826 1365 L
2827 1321 L
2828 1275 L
2828 1358 L
2829 1313 L
2830 1386 L
2831 1349 L
2832 1373 L
2832 1326 L
2833 1325 L
2834 1303 L
2835 1298 L
2836 1285 L
2836 1316 L
2837 1317 L
2838 1377 L
2839 1382 L
2840 1353 L
2840 1275 L
2841 1336 L
2842 1290 L
2843 1360 L
2843 1304 L
2844 1328 L
2845 1364 L
2846 1283 L
2846 1290 L
2847 1306 L
2848 1318 L
2849 1298 L
2849 1311 L
2850 1352 L
2851 1334 L
2852 1300 L
2852 1265 L
2853 1330 L
2854 1337 L
2855 1306 L
2855 1332 L
2856 1255 L
2857 1294 L
2857 1330 L
2858 1332 L
2859 1364 L
2860 1309 L
2860 1301 L
2861 1296 L
2862 1308 L
2862 1305 L
2863 1327 L
2864 1298 L
2865 1255 L
2865 1255 L
2866 1295 L
2867 1323 L
2867 1328 L
2868 1255 L
2869 1282 L
2869 1302 L
2870 1277 L
2871 1323 L
2871 1316 L
2872 1271 L
2873 1330 L
2873 1258 L
2874 1296 L
2875 1315 L
2876 1357 L
2876 1279 L
2877 1274 L
2878 1238 L
2878 1256 L
2879 1303 L
2880 1255 L
2880 1244 L
2881 1293 L
2881 1289 L
2882 1265 L
2883 1354 L
2883 1261 L
2884 1308 L
2885 1255 L
2885 1267 L
2886 1253 L
2887 1259 L
2887 1314 L
2888 1272 L
2889 1273 L
2889 1333 L
2892 1278 L
2894 1181 L
2897 1294 L
2899 1245 L
2902 1170 L
2904 1220 L
2907 1227 L
2909 1279 L
2911 1274 L
2914 1287 L
2916 1256 L
2918 1278 L
2921 1260 L
2923 1217 L
2925 1191 L
2927 1203 L
2929 1238 L
2932 1249 L
2934 1166 L
2936 1180 L
2938 1190 L
2940 1250 L
2942 1220 L
2944 1203 L
2946 1207 L
2948 1167 L
2950 1198 L
2952 1210 L
2954 1207 L
2956 1158 L
2958 1206 L
2960 1149 L
2962 1135 L
2964 1228 L
2966 1146 L
2968 1181 L
2970 1212 L
2971 1202 L
2973 1158 L
2975 1182 L
2977 1252 L
2979 1184 L
2980 1192 L
2982 1159 L
2984 1172 L
2986 1140 L
2987 1091 L
2989 1178 L
2991 1169 L
2993 1146 L
2994 1155 L
2996 1156 L
2998 1154 L
2999 1198 L
3001 1134 L
3003 1181 L
3004 1114 L
3006 1172 L
3007 1177 L
3009 1094 L
3011 1185 L
3012 1140 L
3014 1139 L
3015 1111 L
3017 1109 L
3018 1098 L
3020 1107 L
3021 1044 L
3023 1124 L
3024 1117 L
3026 1110 L
3027 1069 L
3029 1120 L
3030 1090 L
3032 1184 L
3033 1061 L
3035 1064 L
3036 1158 L
3038 1101 L
3039 1095 L
3040 1146 L
3042 1104 L
3043 1095 L
3045 1087 L
3046 1111 L
3047 1123 L
3049 1114 L
3050 1064 L
3051 1047 L
3053 1120 L
3054 1081 L
3055 1105 L
3057 1042 L
3058 1112 L
3059 1111 L
3061 1088 L
3062 1087 L
3063 1084 L
3065 1131 L
3066 1003 L
3067 1084 L
3068 1107 L
3070 1027 L
3071 1091 L
3072 1043 L
3073 1092 L
3075 1032 L
3076 1085 L
3077 1031 L
3078 1087 L
3079 1086 L
3081 1098 L
3082 1039 L
3083 1088 L
3084 1078 L
3085 1047 L
3087 1075 L
3088 1081 L
3089 1059 L
3090 1076 L
3091 1069 L
3092 1062 L
3094 1156 L
3095 1152 L
3096 1029 L
3097 1073 L
3098 1045 L
3099 1063 L
3100 1033 L
3101 1065 L
3103 1019 L
3104 1051 L
3105 1099 L
3106 1078 L
3107 1109 L
3108 1005 L
3109 1058 L
3110 1037 L
3111 1099 L
3112 1054 L
3113 1054 L
3114 1074 L
3115 1045 L
3116 1015 L
3117 1056 L
3119 1064 L
3120 1074 L
3121 996 L
3122 1061 L
3123 1032 L
3124 1055 L
3125 997 L
3126 1032 L
3127 1033 L
3128 1003 L
3129 1134 L
3130 1026 L
3131 1032 L
3132 996 L
3133 1084 L
3134 1001 L
3135 1060 L
3136 1028 L
3136 1071 L
3137 1043 L
3138 1033 L
3139 1073 L
3140 1008 L
3141 1054 L
3142 1029 L
3143 1056 L
3144 1007 L
3145 1026 L
3146 1102 L
3147 1041 L
3148 1056 L
3149 1030 L
3150 1021 L
3151 1040 L
3151 1063 L
3152 1033 L
3153 994 L
3154 1030 L
3155 1026 L
3156 990 L
3157 1018 L
3158 1056 L
3159 1037 L
3160 972 L
3160 1021 L
3161 1077 L
3162 1054 L
3163 1031 L
3164 1075 L
3165 1060 L
3166 1021 L
3166 1049 L
3167 1051 L
3168 1027 L
3169 1022 L
3170 1047 L
3171 1038 L
3172 1047 L
3172 1035 L
3173 1031 L
3174 1008 L
3175 1028 L
3176 1042 L
3177 1045 L
3177 1016 L
3178 1069 L
3179 1020 L
3180 1049 L
3181 1026 L
3181 1028 L
3182 1032 L
3183 1032 L
3184 1007 L
3185 1014 L
3185 1023 L
3186 1059 L
3187 1020 L
3188 1013 L
3189 1023 L
3189 1029 L
3190 972 L
3191 1018 L
3192 1053 L
3193 1053 L
3193 1037 L
3194 1042 L
3195 1062 L
3196 1025 L
3196 1052 L
3197 1037 L
3198 1074 L
3199 1029 L
3199 1063 L
3200 1073 L
3201 1053 L
3202 1047 L
3202 1068 L
3203 1049 L
3204 1044 L
3205 988 L
3205 1016 L
3206 1021 L
3207 1038 L
3208 1024 L
3208 1036 L
3209 1003 L
3210 986 L
3210 1063 L
3211 992 L
3212 1074 L
3213 1008 L
3213 1041 L
3214 1026 L
3215 1021 L
3215 1030 L
3216 1027 L
3217 1022 L
3218 1010 L
3218 1024 L
3219 1040 L
3220 942 L
3220 1021 L
3221 1031 L
3222 1017 L
3222 1033 L
3223 1017 L
3224 1027 L
3224 1045 L
3225 1060 L
3226 1055 L
3227 971 L
3227 1021 L
3228 1067 L
3229 1042 L
3229 1034 L
3230 1001 L
3231 1045 L
3231 1047 L
3232 1032 L
3233 1024 L
3233 1062 L
3234 1030 L
3235 1008 L
3235 1030 L
3236 1019 L
3236 1032 L
3237 1010 L
3238 1034 L
3238 1049 L
3239 1033 L
3240 1002 L
3240 1076 L
3241 986 L
3242 981 L
3242 1048 L
3243 1033 L
3244 976 L
3244 1079 L
3245 1051 L
3245 1046 L
3246 1055 L
3247 1070 L
3247 1032 L
3248 1034 L
3249 1040 L
3249 1104 L
3250 1066 L
3250 1042 L
3251 1072 L
3252 1056 L
3252 1053 L
3253 1025 L
3253 1075 L
3254 1124 L
3255 1054 L
3255 1047 L
3256 990 L
3257 1046 L
3257 1064 L
3258 1084 L
3258 1051 L
3259 1074 L
3259 1019 L
3260 1048 L
3261 1097 L
3261 1048 L
3262 1059 L
3262 1013 L
3263 1083 L
3264 964 L
3264 1099 L
3265 1008 L
3265 1063 L
3266 1099 L
3267 991 L
3267 1102 L
3268 1041 L
3268 1095 L
3269 1042 L
3269 1031 L
3270 1064 L
3271 1068 L
3271 1079 L
3272 1060 L
3272 1095 L
3273 1084 L
3273 1041 L
3274 1058 L
3275 1042 L
3275 1077 L
3276 1040 L
3276 1061 L
3277 1040 L
3277 1088 L
3278 1032 L
3278 1056 L
3279 1140 L
3280 1061 L
3280 1038 L
3281 1061 L
3281 1102 L
3282 1077 L
3282 1084 L
3283 963 L
3283 1063 L
3284 1024 L
3284 1070 L
3285 1083 L
3285 1061 L
3286 1059 L
3287 1092 L
3287 1125 L
3288 1022 L
3288 1097 L
3289 1049 L
3289 1040 L
3290 1063 L
3290 1088 L
3291 1057 L
3291 1084 L
3292 1083 L
3292 1052 L
3293 1075 L
3293 1056 L
3294 1043 L
3294 1088 L
3295 1037 L
3295 1081 L
3296 1096 L
3297 1062 L
3297 1036 L
3298 1022 L
3298 1106 L
3299 1021 L
3299 1021 L
3300 1031 L
3300 1089 L
3301 1038 L
3301 1092 L
3302 1060 L
3302 1106 L
3303 1079 L
3303 1091 L
3304 1092 L
3304 1098 L
3305 1040 L
3305 1076 L
3306 1129 L
3306 1051 L
3307 1036 L
3307 1081 L
3308 1115 L
3308 1054 L
3309 1031 L
3309 1088 L
3310 1081 L
3310 1083 L
3311 1121 L
3311 1069 L
3312 1067 L
3312 1066 L
3312 1095 L
3313 1083 L
3313 1068 L
3314 1064 L
3314 1111 L
3315 1080 L
3315 1058 L
3316 1051 L
3316 1060 L
3317 1135 L
3317 1106 L
3318 1061 L
3318 1107 L
3319 1122 L
3319 1091 L
3320 1050 L
3320 1038 L
3321 1061 L
3321 1066 L
3321 1127 L
3322 1077 L
3322 1113 L
3323 1076 L
3323 1118 L
3324 1072 L
3324 1054 L
3325 1057 L
3325 1023 L
3326 1094 L
3326 1096 L
3327 1094 L
3327 1126 L
3327 1076 L
3328 1101 L
3328 1157 L
3329 1080 L
3329 1090 L
3330 1123 L
3330 1123 L
3331 1135 L
3331 1069 L
3332 1085 L
3332 1025 L
3332 1070 L
3333 1069 L
3333 1083 L
3334 1105 L
3334 1062 L
3335 1070 L
3335 1098 L
3336 1126 L
3336 1064 L
3336 1104 L
3337 1118 L
3337 1125 L
3338 1102 L
3338 1041 L
3339 1077 L
3339 1105 L
3339 1093 L
3340 1049 L
3340 1121 L
3341 1119 L
3341 1072 L
3342 1090 L
3342 1130 L
3343 1082 L
3343 1084 L
3343 1083 L
3344 1116 L
3344 1129 L
3345 1130 L
3345 1117 L
3346 1086 L
3346 1116 L
3346 1127 L
3347 1056 L
3347 1162 L
3348 1112 L
3348 1124 L
3348 1080 L
3349 1085 L
3349 1088 L
3350 1149 L
3350 1078 L
3351 1100 L
3351 1074 L
3351 1107 L
3352 1099 L
3352 1097 L
3353 1086 L
3353 1081 L
3353 1104 L
3354 1128 L
3354 1100 L
3355 1136 L
3355 1129 L
3355 1134 L
3356 1092 L
3356 1087 L
3357 1138 L
3357 1077 L
3358 1072 L
3358 1135 L
3358 1074 L
3359 1069 L
3359 1098 L
3360 1093 L
3360 1135 L
3360 1088 L
3361 1105 L
3361 1114 L
3362 1115 L
3362 1079 L
3362 1110 L
3363 1100 L
3363 1127 L
3364 1143 L
3364 1104 L
3364 1105 L
3365 1084 L
3365 1145 L
3365 1085 L
3366 1113 L
3366 1155 L
3367 1147 L
3367 1152 L
3367 1098 L
3368 1143 L
3368 1131 L
3369 1082 L
3369 1118 L
3369 1087 L
3370 1071 L
3370 1125 L
3371 1111 L
3371 1090 L
3371 1130 L
3372 1102 L
3372 1120 L
3372 1114 L
3373 1073 L
3373 1105 L
3374 1129 L
3374 1087 L
3374 1195 L
3375 1114 L
3375 1110 L
3375 1126 L
3376 1140 L
3376 1130 L
3377 1122 L
3377 1122 L
3377 1085 L
3378 1107 L
3378 1129 L
3378 1142 L
3379 1151 L
3379 1101 L
3380 1078 L
3380 1135 L
3380 1170 L
3381 1149 L
3381 1094 L
3381 1132 L
3382 1116 L
3382 1135 L
3383 1125 L
3383 1135 L
3383 1109 L
3384 1138 L
3384 1173 L
3384 1147 L
3385 1114 L
3385 1130 L
3385 1138 L
3386 1121 L
3386 1141 L
3387 1139 L
3387 1118 L
3387 1172 L
3388 1129 L
3388 1158 L
3388 1068 L
3389 1132 L
3389 1116 L
3389 1120 L
3390 1103 L
3390 1186 L
3391 1131 L
3391 1144 L
3391 1146 L
3392 1116 L
3392 1118 L
3392 1171 L
3393 1149 L
3393 1042 L
3393 1139 L
3394 1123 L
3394 1123 L
3394 1102 L
3395 1160 L
3395 1133 L
3395 1139 L
3396 1156 L
3396 1120 L
3396 1160 L
3397 1113 L
3397 1114 L
3398 1095 L
3398 1159 L
3398 1118 L
3399 1122 L
3399 1135 L
3399 1119 L
3400 1114 L
3400 1131 L
3400 1121 L
3401 1157 L
3401 1171 L
3401 1154 L
3402 1105 L
3402 1175 L
3402 1129 L
3403 1192 L
3403 1140 L
3403 1141 L
3404 1157 L
3404 1122 L
3404 1110 L
3405 1192 L
3405 1112 L
3405 1147 L
3406 1152 L
3406 1158 L
3406 1152 L
3407 1152 L
3407 1196 L
3407 1087 L
3408 1080 L
3408 1079 L
3408 1146 L
3409 1132 L
3409 1124 L
3409 1141 L
3410 1141 L
3410 1162 L
3410 1202 L
3411 1150 L
3411 1173 L
3411 1162 L
3412 1120 L
3412 1117 L
3412 1181 L
3413 1191 L
3413 1147 L
3413 1149 L
3414 1170 L
3414 1166 L
3414 1141 L
3415 1171 L
3415 1131 L
3415 1196 L
3416 1157 L
3416 1123 L
3416 1089 L
3417 1187 L
3417 1193 L
3417 1156 L
3417 1113 L
3418 1154 L
3418 1171 L
3418 1122 L
3419 1157 L
3419 1198 L
3419 1101 L
3420 1166 L
3420 1153 L
3420 1150 L
3421 1169 L
3421 1141 L
3421 1149 L
3422 1145 L
3422 1197 L
3422 1108 L
3423 1122 L
3423 1177 L
3423 1152 L
3423 1187 L
3424 1172 L
3424 1172 L
3424 1107 L
3425 1146 L
3425 1191 L
3425 1167 L
3426 1205 L
3426 1211 L
3426 1226 L
3427 1110 L
3427 1171 L
3427 1121 L
3428 1113 L
3428 1133 L
3428 1155 L
3428 1196 L
3429 1102 L
3429 1169 L
3429 1191 L
3430 1225 L
3430 1128 L
3430 1134 L
3431 1114 L
3431 1131 L
3431 1183 L
3431 1155 L
3432 1149 L
3432 1143 L
3432 1169 L
3433 1189 L
3433 1196 L
3433 1183 L
3434 1162 L
3434 1185 L
3434 1159 L
3434 1153 L
3435 1136 L
3435 1145 L
3435 1175 L
3436 1189 L
3436 1208 L
3436 1167 L
3437 1180 L
3437 1170 L
3437 1177 L
3437 1142 L
3438 1142 L
3438 1139 L
3438 1170 L
3439 1140 L
3439 1153 L
3439 1170 L
3440 1200 L
3440 1189 L
3440 1187 L
3440 1170 L
3441 1196 L
3441 1183 L
3441 1161 L
3442 1161 L
3442 1159 L
3442 1191 L
3442 1168 L
3443 1207 L
3443 1234 L
3443 1170 L
3444 1187 L
3444 1177 L
3444 1178 L
3444 1230 L
3445 1168 L
3445 1165 L
3445 1203 L
3446 1150 L
3446 1149 L
3446 1190 L
3446 1167 L
3447 1103 L
3447 1153 L
3447 1215 L
3448 1171 L
3448 1171 L
3448 1157 L
3448 1157 L
3449 1172 L
3449 1169 L
3449 1156 L
3450 1158 L
3450 1216 L
3450 1192 L
3450 1172 L
3451 1186 L
3451 1176 L
3451 1145 L
3452 1173 L
3452 1177 L
3452 1127 L
3452 1182 L
3453 1245 L
3453 1227 L
3453 1257 L
3454 1157 L
3454 1163 L
3454 1142 L
3454 1171 L
3455 1146 L
3455 1161 L
3455 1142 L
3455 1194 L
3456 1148 L
3456 1160 L
3456 1164 L
3457 1238 L
3457 1188 L
3457 1130 L
3457 1135 L
3458 1117 L
3458 1186 L
3458 1167 L
3458 1221 L
3459 1161 L
3459 1162 L
3459 1147 L
3460 1183 L
3460 1157 L
3460 1153 L
3460 1239 L
3461 1185 L
3461 1217 L
3461 1158 L
3461 1280 L
3462 1169 L
3462 1218 L
3462 1191 L
3463 1152 L
3463 1145 L
3463 1166 L
3463 1175 L
3464 1122 L
3464 1157 L
3464 1184 L
3464 1210 L
3465 1181 L
3465 1165 L
3465 1183 L
3465 1203 L
3466 1114 L
3466 1168 L
3466 1215 L
3466 1209 L
3467 1127 L
3467 1210 L
3467 1170 L
3468 1175 L
3468 1221 L
3468 1211 L
3468 1200 L
3469 1146 L
3469 1172 L
3469 1176 L
3469 1182 L
3470 1211 L
3470 1214 L
3470 1181 L
3470 1178 L
3471 1174 L
3471 1295 L
3471 1184 L
3471 1169 L
3472 1180 L
3472 1258 L
3472 1276 L
3472 1178 L
3473 1174 L
3473 1214 L
3473 1235 L
3474 1197 L
3474 1219 L
3474 1211 L
3474 1150 L
3475 1188 L
3475 1188 L
3475 1203 L
3475 1226 L
3476 1160 L
3476 1227 L
3476 1190 L
3476 1234 L
3477 1201 L
3477 1266 L
3477 1207 L
3477 1192 L
3478 1177 L
3478 1247 L
3478 1221 L
3478 1171 L
3479 1241 L
3479 1172 L
3479 1235 L
3479 1219 L
3480 1178 L
3480 1194 L
3480 1203 L
3480 1177 L
3481 1237 L
3481 1180 L
3481 1200 L
3481 1211 L
3482 1160 L
3482 1215 L
3482 1221 L
3482 1229 L
3483 1182 L
3483 1224 L
3483 1212 L
3483 1236 L
3484 1217 L
3484 1216 L
3484 1242 L
3484 1194 L
3485 1223 L
3485 1205 L
3485 1157 L
3485 1134 L
3486 1159 L
3486 1182 L
3486 1206 L
3486 1165 L
3487 1182 L
3487 1210 L
3487 1227 L
3487 1215 L
3488 1214 L
3488 1223 L
3488 1246 L
3488 1256 L
3488 1219 L
3489 1200 L
3489 1183 L
3489 1189 L
3489 1226 L
3490 1237 L
3490 1204 L
3490 1194 L
3490 1121 L
3491 1201 L
3491 1228 L
3491 1175 L
3491 1215 L
3492 1218 L
3492 1194 L
3492 1224 L
3492 1188 L
3493 1174 L
3493 1200 L
3493 1168 L
3493 1203 L
3494 1220 L
3494 1202 L
3494 1207 L
3494 1197 L
3494 1262 L
3495 1209 L
3495 1148 L
3495 1242 L
3495 1235 L
3496 1203 L
3496 1252 L
3496 1190 L
3496 1182 L
3497 1240 L
3497 1192 L
3497 1146 L
3497 1190 L
3498 1221 L
3498 1168 L
3498 1266 L
3498 1183 L
3498 1209 L
3499 1224 L
3499 1240 L
3499 1237 L
3499 1203 L
3500 1167 L
3500 1258 L
3506 1186 L
3511 1201 L
3517 1249 L
3522 1209 L
3527 1260 L
3532 1222 L
3537 1236 L
3542 1214 L
3547 1271 L
3552 1264 L
3557 1216 L
3561 1250 L
3566 1249 L
3570 1285 L
3575 1268 L
3579 1281 L
3583 1310 L
3587 1250 L
3591 1269 L
3595 1310 L
3599 1313 L
3603 1263 L
3607 1242 L
3611 1268 L
3614 1223 L
3618 1283 L
3622 1307 L
3625 1319 L
3629 1261 L
3632 1284 L
3636 1258 L
3639 1276 L
3642 1307 L
3646 1257 L
3649 1341 L
3652 1215 L
3655 1243 L
3658 1301 L
3661 1321 L
3664 1292 L
3667 1213 L
3670 1317 L
3673 1300 L
3676 1337 L
3679 1312 L
3682 1313 L
3685 1281 L
3688 1287 L
3690 1225 L
3693 1251 L
3696 1325 L
3698 1243 L
3701 1304 L
3704 1249 L
3706 1303 L
3709 1242 L
3711 1332 L
3714 1297 L
3716 1284 L
3719 1305 L
3721 1272 L
3724 1218 L
3726 1261 L
3728 1301 L
3731 1299 L
3733 1262 L
3735 1315 L
3738 1260 L
3740 1259 L
3742 1307 L
3744 1362 L
3747 1294 L
3749 1232 L
3751 1295 L
3753 1303 L
3755 1206 L
3757 1220 L
3760 1342 L
3762 1264 L
3764 1229 L
3766 1326 L
3768 1278 L
3770 1238 L
3772 1325 L
3774 1311 L
3776 1266 L
3778 1286 L
3780 1308 L
3781 1256 L
3783 1292 L
3785 1262 L
3787 1333 L
3789 1253 L
3791 1310 L
3793 1276 L
3795 1299 L
3796 1305 L
3798 1257 L
3800 1250 L
3802 1282 L
3803 1308 L
3805 1252 L
3807 1309 L
3809 1299 L
3810 1311 L
3812 1310 L
3814 1268 L
3816 1287 L
3817 1298 L
3819 1277 L
3820 1200 L
3822 1315 L
3824 1182 L
3825 1307 L
3827 1261 L
3829 1251 L
3830 1260 L
3832 1282 L
3833 1320 L
3835 1324 L
3836 1210 L
3838 1292 L
3839 1269 L
3841 1306 L
3842 1222 L
3844 1272 L
3845 1277 L
3847 1227 L
3848 1341 L
3850 1325 L
3851 1271 L
3853 1251 L
3854 1270 L
3856 1269 L
3857 1277 L
3859 1286 L
3860 1280 L
3861 1223 L
3863 1272 L
3864 1276 L
3866 1241 L
3867 1235 L
3868 1354 L
3870 1238 L
3871 1258 L
3872 1282 L
3874 1274 L
3875 1275 L
3876 1242 L
3878 1262 L
3879 1316 L
3880 1248 L
3882 1200 L
3883 1221 L
3884 1284 L
3885 1301 L
3887 1246 L
3888 1302 L
3889 1278 L
3890 1250 L
3892 1297 L
3893 1294 L
3894 1266 L
3895 1300 L
3897 1242 L
3898 1242 L
3899 1299 L
3900 1319 L
3901 1223 L
3903 1244 L
3904 1336 L
3905 1267 L
3906 1233 L
3907 1330 L
3908 1273 L
3910 1256 L
3911 1278 L
3912 1242 L
3913 1230 L
3914 1260 L
3915 1217 L
3917 1245 L
3918 1272 L
3919 1235 L
3920 1229 L
3921 1188 L
3922 1196 L
3923 1249 L
3924 1280 L
3925 1250 L
3926 1219 L
3928 1206 L
3929 1269 L
3930 1218 L
3931 1246 L
3932 1202 L
3933 1223 L
3934 1227 L
3935 1263 L
3936 1209 L
3937 1250 L
3938 1287 L
3939 1297 L
3940 1247 L
3941 1221 L
3942 1309 L
3943 1248 L
3944 1271 L
3945 1232 L
3946 1243 L
3947 1133 L
3948 1243 L
3949 1257 L
3950 1272 L
3951 1265 L
3952 1203 L
3953 1257 L
3954 1256 L
3955 1293 L
3956 1241 L
3957 1210 L
3958 1249 L
3959 1256 L
3960 1233 L
3961 1240 L
3962 1246 L
3963 1268 L
3964 1208 L
3965 1210 L
3966 1210 L
3966 1189 L
3967 1269 L
3968 1306 L
3969 1266 L
3970 1215 L
3971 1225 L
3972 1179 L
3973 1281 L
3974 1255 L
3975 1201 L
3976 1206 L
3976 1258 L
3977 1223 L
3978 1219 L
3979 1229 L
3980 1245 L
3981 1182 L
3982 1197 L
3983 1283 L
3983 1262 L
3984 1276 L
3985 1212 L
3986 1237 L
3987 1247 L
3988 1212 L
3989 1305 L
3989 1181 L
3990 1233 L
3991 1219 L
3992 1278 L
3993 1225 L
3994 1256 L
3995 1177 L
3995 1227 L
3996 1270 L
3997 1258 L
3998 1265 L
3999 1265 L
3999 1185 L
4000 1206 L
4001 1129 L
4002 1208 L
4003 1193 L
4003 1184 L
4004 1246 L
4005 1193 L
4006 1248 L
4007 1241 L
4007 1195 L
4008 1229 L
4009 1189 L
4010 1254 L
4011 1196 L
4011 1174 L
4012 1195 L
4013 1220 L
4014 1208 L
4014 1249 L
4015 1209 L
4016 1216 L
4017 1227 L
4017 1232 L
4018 1186 L
4019 1214 L
4020 1320 L
4021 1215 L
4021 1204 L
4022 1226 L
4023 1182 L
4023 1213 L
4024 1195 L
4025 1146 L
4026 1202 L
4026 1247 L
4027 1241 L
4028 1192 L
4029 1206 L
4029 1237 L
4030 1213 L
4031 1181 L
4032 1189 L
4032 1348 L
4033 1184 L
4034 1235 L
4034 1166 L
4035 1235 L
4036 1217 L
4036 1218 L
4037 1173 L
4038 1193 L
4039 1242 L
4039 1160 L
4040 1276 L
4041 1234 L
4041 1177 L
4042 1232 L
4043 1192 L
4043 1223 L
4044 1224 L
4045 1203 L
4045 1240 L
4046 1229 L
4047 1169 L
4047 1246 L
4048 1232 L
4049 1225 L
4050 1159 L
4050 1149 L
4051 1236 L
4052 1179 L
4052 1225 L
4053 1191 L
4053 1265 L
4054 1186 L
4055 1203 L
4055 1180 L
4056 1182 L
4057 1149 L
4057 1245 L
4058 1165 L
4059 1264 L
4059 1205 L
4060 1184 L
4061 1230 L
4061 1153 L
4062 1188 L
L2 C04 COSGR

%
% Main frame
%
L10
GSN 
620 1700 M
4220 1700 L
4220 5300 L
620 5300 L
closepath SGR

%
% X axis: large tics
%
L10
GSN 1130 1700 M 0  54 rL SGR
GSN 1130 5300 M 0 -54 rL SGR
helvS (0.0001) 1130 470 xlabel
GSN 1716 1700 M 0  54 rL SGR
GSN 1716 5300 M 0 -54 rL SGR
helvS (0.001) 1716 470 xlabel
GSN 2303 1700 M 0  54 rL SGR
GSN 2303 5300 M 0 -54 rL SGR
helvS (0.01) 2303 470 xlabel
GSN 2889 1700 M 0  54 rL SGR
GSN 2889 5300 M 0 -54 rL SGR
helvS (0.1) 2889 470 xlabel
GSN 3476 1700 M 0  54 rL SGR
GSN 3476 5300 M 0 -54 rL SGR
helvS (1) 3476 470 xlabel
GSN 4062 1700 M 0  54 rL SGR
GSN 4062 5300 M 0 -54 rL SGR
helvS (10) 4062 470 xlabel
%
% X axis: small tics
%
L5
GSN 720 1700 M 0  36 rL SGR
GSN 720 5300 M 0 -36 rL SGR
GSN 824 1700 M 0  36 rL SGR
GSN 824 5300 M 0 -36 rL SGR
GSN 897 1700 M 0  36 rL SGR
GSN 897 5300 M 0 -36 rL SGR
GSN 954 1700 M 0  36 rL SGR
GSN 954 5300 M 0 -36 rL SGR
GSN 1000 1700 M 0  36 rL SGR
GSN 1000 5300 M 0 -36 rL SGR
GSN 1039 1700 M 0  36 rL SGR
GSN 1039 5300 M 0 -36 rL SGR
GSN 1073 1700 M 0  36 rL SGR
GSN 1073 5300 M 0 -36 rL SGR
GSN 1103 1700 M 0  36 rL SGR
GSN 1103 5300 M 0 -36 rL SGR
GSN 1307 1700 M 0  36 rL SGR
GSN 1307 5300 M 0 -36 rL SGR
GSN 1410 1700 M 0  36 rL SGR
GSN 1410 5300 M 0 -36 rL SGR
GSN 1483 1700 M 0  36 rL SGR
GSN 1483 5300 M 0 -36 rL SGR
GSN 1540 1700 M 0  36 rL SGR
GSN 1540 5300 M 0 -36 rL SGR
GSN 1586 1700 M 0  36 rL SGR
GSN 1586 5300 M 0 -36 rL SGR
GSN 1626 1700 M 0  36 rL SGR
GSN 1626 5300 M 0 -36 rL SGR
GSN 1660 1700 M 0  36 rL SGR
GSN 1660 5300 M 0 -36 rL SGR
GSN 1690 1700 M 0  36 rL SGR
GSN 1690 5300 M 0 -36 rL SGR
GSN 1893 1700 M 0  36 rL SGR
GSN 1893 5300 M 0 -36 rL SGR
GSN 1996 1700 M 0  36 rL SGR
GSN 1996 5300 M 0 -36 rL SGR
GSN 2069 1700 M 0  36 rL SGR
GSN 2069 5300 M 0 -36 rL SGR
GSN 2126 1700 M 0  36 rL SGR
GSN 2126 5300 M 0 -36 rL SGR
GSN 2173 1700 M 0  36 rL SGR
GSN 2173 5300 M 0 -36 rL SGR
GSN 2212 1700 M 0  36 rL SGR
GSN 2212 5300 M 0 -36 rL SGR
GSN 2246 1700 M 0  36 rL SGR
GSN 2246 5300 M 0 -36 rL SGR
GSN 2276 1700 M 0  36 rL SGR
GSN 2276 5300 M 0 -36 rL SGR
GSN 2479 1700 M 0  36 rL SGR
GSN 2479 5300 M 0 -36 rL SGR
GSN 2583 1700 M 0  36 rL SGR
GSN 2583 5300 M 0 -36 rL SGR
GSN 2656 1700 M 0  36 rL SGR
GSN 2656 5300 M 0 -36 rL SGR
GSN 2713 1700 M 0  36 rL SGR
GSN 2713 5300 M 0 -36 rL SGR
GSN 2759 1700 M 0  36 rL SGR
GSN 2759 5300 M 0 -36 rL SGR
GSN 2798 1700 M 0  36 rL SGR
GSN 2798 5300 M 0 -36 rL SGR
GSN 2832 1700 M 0  36 rL SGR
GSN 2832 5300 M 0 -36 rL SGR
GSN 2862 1700 M 0  36 rL SGR
GSN 2862 5300 M 0 -36 rL SGR
GSN 3066 1700 M 0  36 rL SGR
GSN 3066 5300 M 0 -36 rL SGR
GSN 3169 1700 M 0  36 rL SGR
GSN 3169 5300 M 0 -36 rL SGR
GSN 3242 1700 M 0  36 rL SGR
GSN 3242 5300 M 0 -36 rL SGR
GSN 3299 1700 M 0  36 rL SGR
GSN 3299 5300 M 0 -36 rL SGR
GSN 3345 1700 M 0  36 rL SGR
GSN 3345 5300 M 0 -36 rL SGR
GSN 3385 1700 M 0  36 rL SGR
GSN 3385 5300 M 0 -36 rL SGR
GSN 3419 1700 M 0  36 rL SGR
GSN 3419 5300 M 0 -36 rL SGR
GSN 3449 1700 M 0  36 rL SGR
GSN 3449 5300 M 0 -36 rL SGR
GSN 3652 1700 M 0  36 rL SGR
GSN 3652 5300 M 0 -36 rL SGR
GSN 3755 1700 M 0  36 rL SGR
GSN 3755 5300 M 0 -36 rL SGR
GSN 3829 1700 M 0  36 rL SGR
GSN 3829 5300 M 0 -36 rL SGR
GSN 3885 1700 M 0  36 rL SGR
GSN 3885 5300 M 0 -36 rL SGR
GSN 3932 1700 M 0  36 rL SGR
GSN 3932 5300 M 0 -36 rL SGR
GSN 3971 1700 M 0  36 rL SGR
GSN 3971 5300 M 0 -36 rL SGR
GSN 4005 1700 M 0  36 rL SGR
GSN 4005 5300 M 0 -36 rL SGR
GSN 4035 1700 M 0  36 rL SGR
GSN 4035 5300 M 0 -36 rL SGR
%
% Y axis: large tics
%
L10
GSN 620 2203 M 54 0 rL SGR
GSN 4220 2203 M -54 0 rL SGR
helvS (1) 560 2203 ylabel
GSN 620 3623 M 54 0 rL SGR
GSN 4220 3623 M -54 0 rL SGR
helvS (1.05) 560 3623 ylabel
GSN 620 5043 M 54 0 rL SGR
GSN 4220 5043 M -54 0 rL SGR
helvS (1.1) 560 5043 ylabel
%
% Y axis: small tics
%
L5
GSN 620 1919 M 36 0 rL SGR
GSN 4220 1919 M -36 0 rL SGR
GSN 620 2203 M 36 0 rL SGR
GSN 4220 2203 M -36 0 rL SGR
GSN 620 2487 M 36 0 rL SGR
GSN 4220 2487 M -36 0 rL SGR
GSN 620 2771 M 36 0 rL SGR
GSN 4220 2771 M -36 0 rL SGR
GSN 620 3055 M 36 0 rL SGR
GSN 4220 3055 M -36 0 rL SGR
GSN 620 3339 M 36 0 rL SGR
GSN 4220 3339 M -36 0 rL SGR
GSN 620 3623 M 36 0 rL SGR
GSN 4220 3623 M -36 0 rL SGR
GSN 620 3907 M 36 0 rL SGR
GSN 4220 3907 M -36 0 rL SGR
GSN 620 4191 M 36 0 rL SGR
GSN 4220 4191 M -36 0 rL SGR
GSN 620 4475 M 36 0 rL SGR
GSN 4220 4475 M -36 0 rL SGR
GSN 620 4759 M 36 0 rL SGR
GSN 4220 4759 M -36 0 rL SGR
GSN 620 5043 M 36 0 rL SGR
GSN 4220 5043 M -36 0 rL SGR

%
% X-Axis label:
%
gsave 2420 290 M 
[
[(Helvetica) 180 0 true true 0 (t)]
[(Helvetica) 180 0 true true 0 (i)]
[(Helvetica) 180 0 true true 0 (m)]
[(Helvetica) 180 0 true true 0 (e)]
] 0 MCshow grestore

%
% Y-Axis label:
%
gsave 234 3499 M 
currentpoint gsave translate 90 rotate 0 0 moveto
[
[(Helvetica) 180 0 true true 0 (s)]
[(Helvetica) 180 0 true true 0 (i)]
[(Helvetica) 180 0 true true 0 (g)]
[(Helvetica) 180 0 true true 0 (n)]
[(Helvetica) 180 0 true true 0 (a)]
[(Helvetica) 180 0 true true 0 (l)]
] 0 MCshow grestore

%
% Residuals:
%
gsave 129 1160 M 
currentpoint gsave translate 90 rotate 0 0 moveto
[
[(Helvetica) 150 0 true true 0 (r)]
[(Helvetica) 150 0 true true 0 (e)]
[(Helvetica) 150 0 true true 0 (s)]
[(Helvetica) 150 0 true true 0 (i)]
[(Helvetica) 150 0 true true 0 (d)]
[(Helvetica) 150 0 true true 0 (u)]
[(Helvetica) 150 0 true true 0 (a)]
[(Helvetica) 150 0 true true 0 (l)]
[(Helvetica) 150 0 true true 0 (s)]
] 0 MCshow grestore

%
% Residual frame
%
L10
GSN 
620 620 M
4220 620 L
4220 1700 L
620 1700 L
closepath SGR
%
% X axis: large tics - residual frame
%
L10
GSN 1130 620 M 0  54 rL SGR
GSN 1130 1700 M 0 -54 rL SGR
GSN 1716 620 M 0  54 rL SGR
GSN 1716 1700 M 0 -54 rL SGR
GSN 2303 620 M 0  54 rL SGR
GSN 2303 1700 M 0 -54 rL SGR
GSN 2889 620 M 0  54 rL SGR
GSN 2889 1700 M 0 -54 rL SGR
GSN 3476 620 M 0  54 rL SGR
GSN 3476 1700 M 0 -54 rL SGR
GSN 4062 620 M 0  54 rL SGR
GSN 4062 1700 M 0 -54 rL SGR
%
% X axis: small tics - residual frame
%
L5
GSN 720 620 M 0  36 rL SGR
GSN 720 1700 M 0 -36 rL SGR
GSN 824 620 M 0  36 rL SGR
GSN 824 1700 M 0 -36 rL SGR
GSN 897 620 M 0  36 rL SGR
GSN 897 1700 M 0 -36 rL SGR
GSN 954 620 M 0  36 rL SGR
GSN 954 1700 M 0 -36 rL SGR
GSN 1000 620 M 0  36 rL SGR
GSN 1000 1700 M 0 -36 rL SGR
GSN 1039 620 M 0  36 rL SGR
GSN 1039 1700 M 0 -36 rL SGR
GSN 1073 620 M 0  36 rL SGR
GSN 1073 1700 M 0 -36 rL SGR
GSN 1103 620 M 0  36 rL SGR
GSN 1103 1700 M 0 -36 rL SGR
GSN 1307 620 M 0  36 rL SGR
GSN 1307 1700 M 0 -36 rL SGR
GSN 1410 620 M 0  36 rL SGR
GSN 1410 1700 M 0 -36 rL SGR
GSN 1483 620 M 0  36 rL SGR
GSN 1483 1700 M 0 -36 rL SGR
GSN 1540 620 M 0  36 rL SGR
GSN 1540 1700 M 0 -36 rL SGR
GSN 1586 620 M 0  36 rL SGR
GSN 1586 1700 M 0 -36 rL SGR
GSN 1626 620 M 0  36 rL SGR
GSN 1626 1700 M 0 -36 rL SGR
GSN 1660 620 M 0  36 rL SGR
GSN 1660 1700 M 0 -36 rL SGR
GSN 1690 620 M 0  36 rL SGR
GSN 1690 1700 M 0 -36 rL SGR
GSN 1893 620 M 0  36 rL SGR
GSN 1893 1700 M 0 -36 rL SGR
GSN 1996 620 M 0  36 rL SGR
GSN 1996 1700 M 0 -36 rL SGR
GSN 2069 620 M 0  36 rL SGR
GSN 2069 1700 M 0 -36 rL SGR
GSN 2126 620 M 0  36 rL SGR
GSN 2126 1700 M 0 -36 rL SGR
GSN 2173 620 M 0  36 rL SGR
GSN 2173 1700 M 0 -36 rL SGR
GSN 2212 620 M 0  36 rL SGR
GSN 2212 1700 M 0 -36 rL SGR
GSN 2246 620 M 0  36 rL SGR
GSN 2246 1700 M 0 -36 rL SGR
GSN 2276 620 M 0  36 rL SGR
GSN 2276 1700 M 0 -36 rL SGR
GSN 2479 620 M 0  36 rL SGR
GSN 2479 1700 M 0 -36 rL SGR
GSN 2583 620 M 0  36 rL SGR
GSN 2583 1700 M 0 -36 rL SGR
GSN 2656 620 M 0  36 rL SGR
GSN 2656 1700 M 0 -36 rL SGR
GSN 2713 620 M 0  36 rL SGR
GSN 2713 1700 M 0 -36 rL SGR
GSN 2759 620 M 0  36 rL SGR
GSN 2759 1700 M 0 -36 rL SGR
GSN 2798 620 M 0  36 rL SGR
GSN 2798 1700 M 0 -36 rL SGR
GSN 2832 620 M 0  36 rL SGR
GSN 2832 1700 M 0 -36 rL SGR
GSN 2862 620 M 0  36 rL SGR
GSN 2862 1700 M 0 -36 rL SGR
GSN 3066 620 M 0  36 rL SGR
GSN 3066 1700 M 0 -36 rL SGR
GSN 3169 620 M 0  36 rL SGR
GSN 3169 1700 M 0 -36 rL SGR
GSN 3242 620 M 0  36 rL SGR
GSN 3242 1700 M 0 -36 rL SGR
GSN 3299 620 M 0  36 rL SGR
GSN 3299 1700 M 0 -36 rL SGR
GSN 3345 620 M 0  36 rL SGR
GSN 3345 1700 M 0 -36 rL SGR
GSN 3385 620 M 0  36 rL SGR
GSN 3385 1700 M 0 -36 rL SGR
GSN 3419 620 M 0  36 rL SGR
GSN 3419 1700 M 0 -36 rL SGR
GSN 3449 620 M 0  36 rL SGR
GSN 3449 1700 M 0 -36 rL SGR
GSN 3652 620 M 0  36 rL SGR
GSN 3652 1700 M 0 -36 rL SGR
GSN 3755 620 M 0  36 rL SGR
GSN 3755 1700 M 0 -36 rL SGR
GSN 3829 620 M 0  36 rL SGR
GSN 3829 1700 M 0 -36 rL SGR
GSN 3885 620 M 0  36 rL SGR
GSN 3885 1700 M 0 -36 rL SGR
GSN 3932 620 M 0  36 rL SGR
GSN 3932 1700 M 0 -36 rL SGR
GSN 3971 620 M 0  36 rL SGR
GSN 3971 1700 M 0 -36 rL SGR
GSN 4005 620 M 0  36 rL SGR
GSN 4005 1700 M 0 -36 rL SGR
GSN 4035 620 M 0  36 rL SGR
GSN 4035 1700 M 0 -36 rL SGR
%
% Y axis: large tics - residual frame
%
L10
GSN 620 710 M 54 0 rL SGR
GSN 4220 710 M -54 0 rL SGR
helvS (-0.04) 560 710 ylabelresid
GSN 620 960 M 54 0 rL SGR
GSN 4220 960 M -54 0 rL SGR
helvS (-0.02) 560 960 ylabelresid
GSN 620 1209 M 54 0 rL SGR
GSN 4220 1209 M -54 0 rL SGR
helvS (0) 560 1209 ylabelresid
GSN 620 1459 M 54 0 rL SGR
GSN 4220 1459 M -54 0 rL SGR
helvS (0.02) 560 1459 ylabelresid

%
% X axis - residual panel
%
GSN L5 620 1209 M 4220 1209 L SDA G50 SGR

end
showpage
%%Trailer
%%EOF
