%!PS-Adobe-3.0 EPSF-3.0
%%BoundingBox: 0 0 514 550
%%Creator: BioKin Ltd.
%%DocumentFonts: Symbol Helvetica
%%EndComments
%
/bkdict 256 dict def
bkdict begin
/M {moveto} def 
/R {rmoveto} def
/L {lineto} def
/rL {rlineto} def
/GSN {gsave newpath} def
/SGR {stroke grestore} def
/COSGR {gsave setrgbcolor stroke grestore grestore} def
/SL {setlinewidth} def
/LWMB {12} def             % line width - model curves, black & white
/LWMC {10} def             % line width - model curves, color
/L2 {2.5 setlinewidth} def
/L5 {5 setlinewidth} def
/L10 {10 setlinewidth} def
/G50 {0.5 setgray} def
/SDA {[10  20] 0 setdash} def % axes
/helvT {/Helvetica findfont 100 scalefont setfont} def % tiny
/helvS {/Helvetica findfont 125 scalefont setfont} def % small
/helvM {/Helvetica findfont 150 scalefont setfont} def % medium
/helvL {/Helvetica findfont 175 scalefont setfont} def % large
/xlabel {gsave M dup
   stringwidth exch -0.5 mul exch rmoveto show grestore} def 
/ylabel {gsave M 90 rotate dup
   stringwidth exch -0.5 mul exch rmoveto show grestore} def
/ylabelresid {gsave M dup
   stringwidth exch -1 mul exch rmoveto show grestore} def
% ======
% Shapes
% ======
% Circle:
/Circ {0 360 arc closepath} def
%
% Square:
/Squa {dup dup -0.5 mul dup dup R -2 mul 0 exch rL 1 mul 0 rL dup 0 exch -1 mul rL closepath} def
%
% Triangle Up:
/TriU {dup dup dup -0.4 mul exch -0.5 mul exch R dup 0.5 mul exch rL dup -1 mul exch 0.5 mul exch rL closepath} def 
%
% Triangle Down:
/TriD {dup dup dup 0.4 mul exch -0.5 mul exch R dup 0.5 mul exch -1 mul rL dup 0.5 mul exch rL closepath} def 
%
% Diamond:
/Diam {45 rotate Squa} def
% ======
% Fills
% ======
/GRF {gsave setgray fill grestore} def                    % gray-level Fill
/COF {gsave setrgbcolor fill grestore} def                % color fill
% ======
% Colors
% ======
/C01 {1.00	0.00	0.00} def      % Red
/C02 {0.00	0.00	1.00} def      % Blue
/C03 {0.00	0.39	0.00} def      % Dark Green
/C04 {0.78	0.08	0.52} def      % Medium Violet Red
/C05 {0.55	0.27	0.07} def      % Saddle Brown
/C06 {0.10	0.70	0.70} def      % (cyan)
/C07 {1.00	0.55	0.00} def      % Dark Orange
/C08 {0.63	0.13	0.94} def      % Purple
/C09 {0.00	0.75	1.00} def      % Deep Sky Blue
/C10 {0.20	0.80	0.20} def      % Lime Green
/C11 {0.47	0.53	0.60} def      % Light Slate Gray
/C12 {0.00	0.00	0.00} def      % Black            % or: {0.19	0.31	0.31} def      % Dark Slate Gray
%
/LGR {0.75} def % light gray
/DGR {0.33} def % dark gray
%
% =============
% Dash patterns
% =============
/dash01 { [80  20] 0 setdash } def
/dash02 { [40  20] 0 setdash } def
/dash03 { [80  20  10  20] 0 setdash } def
/dash04 { [40  20  10  20] 0 setdash } def
/dash05 { [80  20  10  10  10  20] 0 setdash } def
/dash06 { [40  20  10  10  10  20] 0 setdash } def
/dash07 { [10  10] 0 setdash } def
%
/MFshow {
   { dup 5 get 3 ge
     { 5 get 3 eq {gsave} {grestore} ifelse }
     {dup dup 0 get findfont exch 1 get scalefont setfont
     [ currentpoint ] exch dup 2 get 0 exch R dup 5 get 2 ne {dup dup 6
     get exch 4 get {show} {stringwidth pop 0 R} ifelse }if dup 5 get 0 eq
     {dup 3 get {2 get neg 0 exch R pop} {pop aload pop M} ifelse} {dup 5
     get 1 eq {dup 2 get exch dup 3 get exch 6 get stringwidth pop -2 div
     dup 0 R} {dup 6 get stringwidth pop -2 div 0 R 6 get
     show 2 index {aload pop M neg 3 -1 roll neg R pop pop} {pop pop pop
     pop aload pop M} ifelse }ifelse }ifelse }
     ifelse }
   forall} bind def
/MFwidth {0 exch {dup 3 get{dup dup 0 get findfont exch 1 get scalefont
     setfont 6 get stringwidth pop add} {pop} ifelse} forall} bind def
/MCshow { currentpoint stroke M
  exch dup MFwidth -2 div 3 -1 roll R MFshow } def
%
end
%%EndProlog
bkdict begin
0.1 0.1 scale
%
% Model curves:
%

GSN 753 4231 M
753 4231 L
786 4231 L
820 4231 L
853 4231 L
886 4231 L
903 4231 L
919 4231 L
953 4231 L
986 4231 L
1020 4231 L
1053 4231 L
1053 4231 L
1086 4231 L
1120 4231 L
1153 4231 L
1186 4231 L
1203 4231 L
1220 4231 L
1253 4231 L
1286 4231 L
1320 4231 L
1353 4231 L
1353 4231 L
1386 4231 L
1420 4231 L
1453 4231 L
1486 4231 L
1503 4231 L
1520 4231 L
1553 4231 L
1586 4231 L
1620 4231 L
1653 4231 L
1653 4231 L
1686 4231 L
1720 4231 L
1753 4231 L
1786 4231 L
1804 4231 L
1820 4231 L
1853 4231 L
1886 4231 L
1920 4231 L
1953 4231 L
1954 4231 L
1986 4231 L
2020 4231 L
2053 4231 L
2086 4231 L
2104 4232 L
2120 4232 L
2153 4232 L
2186 4232 L
2220 4232 L
2253 4232 L
2254 4232 L
2286 4232 L
2320 4232 L
2353 4232 L
2386 4232 L
2404 4232 L
2420 4232 L
2453 4233 L
2486 4233 L
2520 4233 L
2553 4233 L
2554 4233 L
2586 4234 L
2620 4234 L
2653 4234 L
2686 4235 L
2704 4235 L
2720 4235 L
2753 4236 L
2786 4237 L
2820 4238 L
2853 4239 L
2854 4239 L
2886 4240 L
2920 4241 L
2953 4242 L
2986 4243 L
3004 4244 L
3020 4245 L
3053 4247 L
3068 4248 L
3086 4249 L
3120 4251 L
3153 4254 L
3155 4254 L
3186 4257 L
3220 4260 L
3253 4264 L
3286 4268 L
3305 4271 L
3320 4274 L
3353 4280 L
3386 4287 L
3420 4295 L
3453 4305 L
3455 4306 L
3486 4316 L
3520 4329 L
3553 4344 L
3586 4361 L
3605 4372 L
3620 4381 L
3653 4404 L
3686 4430 L
3720 4460 L
3753 4495 L
3755 4497 L
3786 4534 L
3820 4578 L
3853 4628 L
3886 4684 L
3905 4719 L
3920 4747 L
3953 4816 L
3986 4893 L
4020 4977 L
4053 5068 L
4086 5166 L
LWMC SL  C01 COSGR

%
% Experimental data:
%
GSN 773 4569 M
1625 4200 L
1773 4266 L
1860 4564 L
1922 4393 L
1970 4259 L
2009 4277 L
2043 4266 L
2072 4305 L
2097 4215 L
2120 4233 L
2140 3949 L
2159 4419 L
2176 4010 L
2192 4182 L
2207 4251 L
2221 4182 L
2234 4236 L
2247 3895 L
2259 4038 L
2270 3951 L
2280 3799 L
2290 3862 L
2300 3959 L
2309 3748 L
2318 4005 L
2326 4144 L
2335 3936 L
2342 4066 L
2350 3847 L
2357 3707 L
2364 3395 L
2371 3570 L
2378 3601 L
2384 3845 L
2391 3832 L
2397 3667 L
2403 3679 L
2409 3766 L
2414 3748 L
2420 3870 L
2425 4050 L
2430 3481 L
2435 3601 L
2440 3278 L
2445 3421 L
2450 3288 L
2455 3563 L
2459 3575 L
2464 3502 L
2468 3588 L
2472 3667 L
2476 3237 L
2481 2821 L
2485 3065 L
2489 3311 L
2492 3481 L
2496 3677 L
2500 3311 L
2504 3174 L
2507 3042 L
2511 3438 L
2514 2996 L
2518 3144 L
2521 3428 L
2525 3344 L
2528 2963 L
2531 3202 L
2534 3176 L
2538 3024 L
2541 2981 L
2544 3311 L
2547 3090 L
2550 3189 L
2553 2958 L
2556 3169 L
2559 3179 L
2561 3133 L
2564 3049 L
2567 3055 L
2570 3126 L
2580 2889 L
2590 2846 L
2600 2930 L
2609 3024 L
2618 2955 L
2627 2986 L
2635 3006 L
2643 2595 L
2650 2671 L
2658 2732 L
2665 3121 L
2672 2602 L
2678 2280 L
2685 2887 L
2691 2516 L
2697 2747 L
2703 2381 L
2709 2714 L
2714 2607 L
2720 2453 L
2725 2308 L
2730 2605 L
2735 2463 L
2740 1985 L
2745 2417 L
2750 2458 L
2755 2018 L
2759 2503 L
2764 2305 L
2768 2564 L
2772 2153 L
2777 2597 L
2781 2585 L
2785 2488 L
2789 2331 L
2793 2343 L
2796 2382 L
2800 2221 L
2804 2287 L
2808 2382 L
2811 2356 L
2815 2331 L
2818 2056 L
2822 2249 L
2825 2204 L
2828 2034 L
2831 2173 L
2835 2397 L
2838 2069 L
2841 2293 L
2844 2084 L
2847 2105 L
2850 2039 L
2853 2196 L
2856 2150 L
2859 2087 L
2862 2105 L
2864 2303 L
2867 2041 L
2870 2199 L
2873 2008 L
2875 2061 L
2878 2115 L
2880 2069 L
2883 2034 L
2886 1988 L
2888 2026 L
2891 2000 L
2893 2158 L
2895 2247 L
2898 2049 L
2900 2237 L
2902 2493 L
2905 2056 L
2907 1993 L
2909 2018 L
2912 2326 L
2914 2150 L
2916 2143 L
2918 2519 L
2920 2430 L
2922 1955 L
2925 2280 L
2927 2046 L
2929 2254 L
2931 2252 L
2933 2232 L
2935 2270 L
2937 2267 L
2939 2392 L
2941 2056 L
2943 2486 L
2945 2468 L
2947 2315 L
2948 2602 L
2950 1833 L
2952 2133 L
2954 2404 L
2956 2145 L
2958 2219 L
2959 2237 L
2961 2227 L
2963 2326 L
2965 1884 L
2966 2354 L
2968 2465 L
2970 2933 L
2972 2265 L
2973 2788 L
2975 2018 L
2977 2531 L
2978 2417 L
2980 2038 L
2982 2389 L
2983 2460 L
2985 2420 L
2986 2135 L
2988 2417 L
2989 2224 L
2991 2272 L
2993 2293 L
2994 2404 L
2996 2460 L
2997 2163 L
2999 2232 L
3000 2219 L
3002 2572 L
3003 2488 L
3005 2166 L
3006 2488 L
3007 2366 L
3009 2509 L
3010 2717 L
3012 2605 L
3013 2554 L
3014 2587 L
3016 2595 L
3017 2790 L
3019 2435 L
3020 2498 L
3021 2752 L
3023 2633 L
3024 2361 L
3025 2402 L
3027 2658 L
3028 2325 L
3029 2691 L
3031 2153 L
3032 2397 L
3033 2585 L
3034 2755 L
3036 2722 L
3037 2564 L
3038 2536 L
3039 2410 L
3041 2407 L
3042 2493 L
3043 2402 L
3044 2592 L
3045 2351 L
3047 2328 L
3048 2313 L
3049 2509 L
3050 2450 L
3051 2445 L
3053 2519 L
3054 2333 L
3055 2552 L
3056 2745 L
3057 2646 L
3058 2315 L
3059 2780 L
3061 2884 L
3062 2618 L
3063 2422 L
3064 2353 L
3065 2524 L
3066 2521 L
3067 2333 L
3068 2214 L
3069 2381 L
3070 2183 L
3071 2320 L
3073 2958 L
3074 2765 L
3075 2559 L
3076 2597 L
3077 2917 L
3078 2861 L
3079 2574 L
3080 2234 L
3081 2260 L
3082 2834 L
3083 2920 L
3084 2592 L
3085 2910 L
3086 2740 L
3087 2328 L
3088 2595 L
3089 2384 L
3112 2511 L
3133 2689 L
3152 2623 L
3170 2509 L
3186 2829 L
3201 2463 L
3216 2780 L
3229 2892 L
3241 2760 L
3253 2664 L
3264 2849 L
3275 2879 L
3285 2808 L
3295 2958 L
3304 3019 L
3313 2656 L
3322 2775 L
3330 2633 L
3338 2882 L
3346 2435 L
3353 2613 L
3360 2620 L
3367 2661 L
3374 2912 L
3380 2641 L
3387 2826 L
3393 3075 L
3399 2709 L
3405 2747 L
3410 2707 L
3416 2882 L
3421 2587 L
3426 2653 L
3431 2714 L
3436 2727 L
3441 2689 L
3446 2707 L
3451 2864 L
3455 2478 L
3460 3049 L
3464 3121 L
3469 2618 L
3473 2867 L
3477 2325 L
3481 2714 L
3485 3027 L
3489 2549 L
3493 2432 L
3496 2638 L
3500 2829 L
3504 3072 L
3507 2692 L
3511 2442 L
3514 2676 L
3518 2717 L
3521 2938 L
3525 2620 L
3528 2684 L
3531 2600 L
3534 2516 L
3537 2869 L
3540 2729 L
3543 2559 L
3546 2824 L
3549 2656 L
3552 2760 L
3555 2973 L
3558 2608 L
3561 2503 L
3564 2897 L
3566 2821 L
3575 2475 L
3586 2486 L
3595 2671 L
3605 2447 L
3613 2638 L
3622 2722 L
3630 2628 L
3638 3103 L
3646 2407 L
3653 2811 L
3660 2808 L
3667 3044 L
3674 2554 L
3681 2643 L
3687 2567 L
3693 2765 L
3699 2419 L
3705 2636 L
3710 2549 L
3716 2585 L
3721 2790 L
3727 2435 L
3732 2879 L
3737 2948 L
3742 2707 L
3746 2531 L
3751 2429 L
3756 2847 L
3760 2712 L
3764 2834 L
3769 2379 L
3773 2638 L
3777 2724 L
3781 2633 L
3785 2724 L
3789 2574 L
3793 2892 L
3797 2610 L
3800 2750 L
3804 2661 L
3808 2712 L
3811 2719 L
3815 2646 L
3818 2669 L
3821 2882 L
3825 2476 L
3828 2605 L
3831 2763 L
3834 2836 L
3838 2498 L
3841 2861 L
3844 2699 L
3847 2986 L
3850 2402 L
3853 2892 L
3855 2757 L
3858 2663 L
3861 2544 L
3864 2676 L
3867 2702 L
3869 2859 L
3872 2836 L
3875 2389 L
3877 2485 L
3880 2651 L
3882 2526 L
3885 2702 L
3887 2867 L
3890 2387 L
3892 2481 L
3895 2493 L
3897 2798 L
3899 2308 L
3902 2587 L
3904 2453 L
3906 2620 L
3908 2681 L
3911 2770 L
3913 2831 L
3915 2727 L
3917 2569 L
3919 2778 L
3921 2778 L
3923 2768 L
3926 2709 L
3928 2613 L
3930 2260 L
3932 2534 L
3934 2991 L
3936 2879 L
3938 2633 L
3940 2742 L
3942 2869 L
3943 2305 L
3945 2793 L
3947 2765 L
3949 2404 L
3951 2696 L
3953 2336 L
3955 2615 L
3956 2864 L
3958 2935 L
3960 2547 L
3962 3004 L
3963 2447 L
3965 2702 L
3967 2681 L
3969 2976 L
3970 2412 L
3972 2900 L
3974 2864 L
3975 2704 L
3977 2595 L
3978 2651 L
3980 2600 L
3982 2979 L
3983 2592 L
3985 2732 L
3986 2897 L
3988 2641 L
3990 2699 L
3991 2633 L
3993 3009 L
3994 2630 L
3996 2496 L
3997 2892 L
3999 2783 L
4000 2846 L
4001 2488 L
4003 2816 L
4004 2768 L
4006 2928 L
4007 2991 L
4009 2866 L
4010 2671 L
4011 2796 L
4013 2694 L
4014 2801 L
4016 3149 L
4017 2745 L
4018 2867 L
4020 2620 L
4021 2847 L
4022 2656 L
4024 2768 L
4025 2757 L
4026 2821 L
4028 2549 L
4029 2625 L
4030 2430 L
4031 2841 L
4033 3138 L
4034 2295 L
4035 2981 L
4036 2697 L
4038 2612 L
4039 2872 L
4040 2935 L
4041 2658 L
4042 3001 L
4044 2877 L
4045 2613 L
4046 2747 L
4047 2719 L
4048 2763 L
4050 2971 L
4051 2854 L
4052 2689 L
4053 3210 L
4054 2702 L
4055 2730 L
4056 2902 L
4058 2861 L
4059 2458 L
4060 2747 L
4061 2374 L
4062 2648 L
4063 2798 L
4064 2887 L
4065 2620 L
4066 2849 L
L2 C01 COSGR

%
%================
% Legend - Begin
%================
%
GSN 4240 5180 M
4480 5180 L
LWMC SL  C01 COSGR
GSN 4540 5141 M helvM (0.5 uM) show grestore
%
%================
% Legend - End
%================
%

%
% Residuals:
%
GSN 773 1569 M
1625 1470 L
1773 1488 L
1860 1567 L
1922 1522 L
1970 1486 L
2009 1490 L
2043 1488 L
2072 1498 L
2097 1474 L
2120 1479 L
2140 1403 L
2159 1528 L
2176 1419 L
2192 1465 L
2207 1484 L
2221 1465 L
2234 1479 L
2247 1388 L
2259 1426 L
2270 1403 L
2280 1362 L
2290 1379 L
2300 1405 L
2309 1349 L
2318 1418 L
2326 1455 L
2335 1399 L
2342 1434 L
2350 1375 L
2357 1338 L
2364 1254 L
2371 1301 L
2378 1309 L
2384 1375 L
2391 1371 L
2397 1327 L
2403 1330 L
2409 1354 L
2414 1349 L
2420 1381 L
2425 1430 L
2430 1277 L
2435 1309 L
2440 1223 L
2445 1261 L
2450 1226 L
2455 1299 L
2459 1302 L
2464 1283 L
2468 1306 L
2472 1327 L
2476 1212 L
2481 1101 L
2485 1166 L
2489 1232 L
2492 1277 L
2496 1330 L
2500 1232 L
2504 1195 L
2507 1160 L
2511 1266 L
2514 1147 L
2518 1187 L
2521 1263 L
2525 1241 L
2528 1139 L
2531 1202 L
2534 1196 L
2538 1155 L
2541 1143 L
2544 1232 L
2547 1172 L
2550 1199 L
2553 1137 L
2556 1194 L
2559 1196 L
2561 1184 L
2564 1162 L
2567 1163 L
2570 1182 L
2580 1119 L
2590 1107 L
2600 1129 L
2609 1155 L
2618 1136 L
2627 1144 L
2635 1150 L
2643 1040 L
2650 1060 L
2658 1076 L
2665 1180 L
2672 1042 L
2678 955 L
2685 1118 L
2691 1018 L
2697 1080 L
2703 982 L
2709 1071 L
2714 1043 L
2720 1001 L
2725 962 L
2730 1042 L
2735 1004 L
2740 876 L
2745 992 L
2750 1002 L
2755 885 L
2759 1015 L
2764 962 L
2768 1031 L
2772 921 L
2777 1040 L
2781 1036 L
2785 1010 L
2789 968 L
2793 972 L
2796 982 L
2800 939 L
2804 957 L
2808 982 L
2811 975 L
2815 968 L
2818 895 L
2822 946 L
2825 934 L
2828 889 L
2831 926 L
2835 986 L
2838 898 L
2841 958 L
2844 902 L
2847 907 L
2850 890 L
2853 932 L
2856 920 L
2859 903 L
2862 907 L
2864 960 L
2867 890 L
2870 932 L
2873 881 L
2875 896 L
2878 910 L
2880 898 L
2883 888 L
2886 876 L
2888 886 L
2891 879 L
2893 921 L
2895 945 L
2898 892 L
2900 942 L
2902 1011 L
2905 894 L
2907 877 L
2909 884 L
2912 966 L
2914 919 L
2916 917 L
2918 1018 L
2920 994 L
2922 867 L
2925 954 L
2927 891 L
2929 947 L
2931 946 L
2933 941 L
2935 951 L
2937 950 L
2939 983 L
2941 894 L
2943 1008 L
2945 1004 L
2947 963 L
2948 1040 L
2950 834 L
2952 914 L
2954 987 L
2956 917 L
2958 937 L
2959 942 L
2961 939 L
2963 965 L
2965 847 L
2966 973 L
2968 1003 L
2970 1128 L
2972 949 L
2973 1089 L
2975 883 L
2977 1020 L
2978 990 L
2980 888 L
2982 982 L
2983 1001 L
2985 990 L
2986 914 L
2988 990 L
2989 938 L
2991 951 L
2993 956 L
2994 986 L
2996 1001 L
2997 922 L
2999 940 L
3000 936 L
3002 1031 L
3003 1008 L
3005 922 L
3006 1008 L
3007 976 L
3009 1014 L
3010 1070 L
3012 1040 L
3013 1026 L
3014 1035 L
3016 1037 L
3017 1089 L
3019 994 L
3020 1011 L
3021 1079 L
3023 1047 L
3024 974 L
3025 985 L
3027 1054 L
3028 965 L
3029 1062 L
3031 918 L
3032 984 L
3033 1034 L
3034 1079 L
3036 1071 L
3037 1028 L
3038 1021 L
3039 987 L
3041 986 L
3042 1009 L
3043 985 L
3044 1036 L
3045 971 L
3047 965 L
3048 961 L
3049 1013 L
3050 998 L
3051 996 L
3053 1016 L
3054 966 L
3055 1025 L
3056 1076 L
3057 1050 L
3058 961 L
3059 1086 L
3061 1114 L
3062 1042 L
3063 990 L
3064 972 L
3065 1017 L
3066 1016 L
3067 966 L
3068 934 L
3069 979 L
3070 926 L
3071 963 L
3073 1133 L
3074 1082 L
3075 1026 L
3076 1037 L
3077 1122 L
3078 1107 L
3079 1030 L
3080 939 L
3081 946 L
3082 1100 L
3083 1123 L
3084 1035 L
3085 1120 L
3086 1075 L
3087 964 L
3088 1036 L
3089 979 L
3112 1013 L
3133 1060 L
3152 1042 L
3170 1011 L
3186 1096 L
3201 998 L
3216 1083 L
3229 1112 L
3241 1076 L
3253 1050 L
3264 1099 L
3275 1107 L
3285 1088 L
3295 1127 L
3304 1143 L
3313 1046 L
3322 1077 L
3330 1039 L
3338 1105 L
3346 985 L
3353 1032 L
3360 1034 L
3367 1044 L
3374 1111 L
3380 1038 L
3387 1087 L
3393 1154 L
3399 1055 L
3405 1065 L
3410 1054 L
3416 1100 L
3421 1021 L
3426 1038 L
3431 1054 L
3436 1057 L
3441 1047 L
3446 1051 L
3451 1093 L
3455 989 L
3460 1142 L
3464 1160 L
3469 1025 L
3473 1092 L
3477 947 L
3481 1050 L
3485 1133 L
3489 1005 L
3493 974 L
3496 1028 L
3500 1079 L
3504 1144 L
3507 1041 L
3511 974 L
3514 1037 L
3518 1047 L
3521 1106 L
3525 1021 L
3528 1037 L
3531 1014 L
3534 992 L
3537 1086 L
3540 1048 L
3543 1002 L
3546 1072 L
3549 1027 L
3552 1055 L
3555 1111 L
3558 1013 L
3561 985 L
3564 1090 L
3566 1069 L
3575 975 L
3586 977 L
3595 1025 L
3605 963 L
3613 1013 L
3622 1034 L
3630 1007 L
3638 1133 L
3646 945 L
3653 1052 L
3660 1050 L
3667 1112 L
3674 979 L
3681 1001 L
3687 980 L
3693 1031 L
3699 937 L
3705 994 L
3710 969 L
3716 977 L
3721 1031 L
3727 935 L
3732 1052 L
3737 1069 L
3742 1003 L
3746 955 L
3751 926 L
3756 1037 L
3760 999 L
3764 1030 L
3769 907 L
3773 975 L
3777 997 L
3781 971 L
3785 995 L
3789 953 L
3793 1037 L
3797 960 L
3800 996 L
3804 971 L
3808 983 L
3811 984 L
3815 963 L
3818 968 L
3821 1024 L
3825 914 L
3828 947 L
3831 988 L
3834 1006 L
3838 915 L
3841 1011 L
3844 966 L
3847 1042 L
3850 884 L
3853 1014 L
3855 977 L
3858 950 L
3861 917 L
3864 951 L
3867 957 L
3869 998 L
3872 991 L
3875 870 L
3877 894 L
3880 937 L
3882 903 L
3885 949 L
3887 992 L
3890 862 L
3892 886 L
3895 888 L
3897 968 L
3899 836 L
3902 910 L
3904 873 L
3906 916 L
3908 931 L
3911 954 L
3913 969 L
3915 940 L
3917 897 L
3919 952 L
3921 950 L
3923 947 L
3926 930 L
3928 903 L
3930 807 L
3932 880 L
3934 1001 L
3936 970 L
3938 903 L
3940 931 L
3942 964 L
3943 812 L
3945 941 L
3947 933 L
3949 835 L
3951 912 L
3953 815 L
3955 888 L
3956 954 L
3958 972 L
3960 867 L
3962 988 L
3963 838 L
3965 905 L
3967 899 L
3969 976 L
3970 825 L
3972 954 L
3974 943 L
3975 900 L
3977 869 L
3978 883 L
3980 869 L
3982 969 L
3983 865 L
3985 901 L
3986 944 L
3988 874 L
3990 889 L
3991 870 L
3993 970 L
3994 868 L
3996 831 L
3997 936 L
3999 906 L
4000 922 L
4001 825 L
4003 911 L
4004 898 L
4006 939 L
4007 955 L
4009 921 L
4010 868 L
4011 900 L
4013 872 L
4014 900 L
4016 992 L
4017 883 L
4018 914 L
4020 848 L
4021 907 L
4022 855 L
4024 884 L
4025 881 L
4026 897 L
4028 823 L
4029 842 L
4030 789 L
4031 898 L
4033 977 L
4034 750 L
4035 933 L
4036 856 L
4038 833 L
4039 901 L
4040 917 L
4041 842 L
4042 933 L
4044 899 L
4045 827 L
4046 862 L
4047 854 L
4048 865 L
4050 920 L
4051 887 L
4052 842 L
4053 981 L
4054 844 L
4055 851 L
4056 896 L
4058 884 L
4059 775 L
4060 852 L
4061 751 L
4062 824 L
4063 863 L
4064 886 L
4065 814 L
4066 875 L
L2 C01 COSGR

%
% Main frame
%
L10
GSN 
620 1700 M
4220 1700 L
4220 5300 L
620 5300 L
closepath SGR

%
% X axis: large tics
%
L10
GSN 1074 1700 M 0  54 rL SGR
GSN 1074 5300 M 0 -54 rL SGR
helvS (0.0001) 1074 470 xlabel
GSN 1572 1700 M 0  54 rL SGR
GSN 1572 5300 M 0 -54 rL SGR
helvS (0.001) 1572 470 xlabel
GSN 2071 1700 M 0  54 rL SGR
GSN 2071 5300 M 0 -54 rL SGR
helvS (0.01) 2071 470 xlabel
GSN 2570 1700 M 0  54 rL SGR
GSN 2570 5300 M 0 -54 rL SGR
helvS (0.1) 2570 470 xlabel
GSN 3068 1700 M 0  54 rL SGR
GSN 3068 5300 M 0 -54 rL SGR
helvS (1) 3068 470 xlabel
GSN 3567 1700 M 0  54 rL SGR
GSN 3567 5300 M 0 -54 rL SGR
helvS (10) 3567 470 xlabel
GSN 4066 1700 M 0  54 rL SGR
GSN 4066 5300 M 0 -54 rL SGR
helvS (100) 4066 470 xlabel
%
% X axis: small tics
%
L5
GSN 725 1700 M 0  36 rL SGR
GSN 725 5300 M 0 -36 rL SGR
GSN 813 1700 M 0  36 rL SGR
GSN 813 5300 M 0 -36 rL SGR
GSN 875 1700 M 0  36 rL SGR
GSN 875 5300 M 0 -36 rL SGR
GSN 924 1700 M 0  36 rL SGR
GSN 924 5300 M 0 -36 rL SGR
GSN 963 1700 M 0  36 rL SGR
GSN 963 5300 M 0 -36 rL SGR
GSN 996 1700 M 0  36 rL SGR
GSN 996 5300 M 0 -36 rL SGR
GSN 1025 1700 M 0  36 rL SGR
GSN 1025 5300 M 0 -36 rL SGR
GSN 1051 1700 M 0  36 rL SGR
GSN 1051 5300 M 0 -36 rL SGR
GSN 1224 1700 M 0  36 rL SGR
GSN 1224 5300 M 0 -36 rL SGR
GSN 1312 1700 M 0  36 rL SGR
GSN 1312 5300 M 0 -36 rL SGR
GSN 1374 1700 M 0  36 rL SGR
GSN 1374 5300 M 0 -36 rL SGR
GSN 1422 1700 M 0  36 rL SGR
GSN 1422 5300 M 0 -36 rL SGR
GSN 1462 1700 M 0  36 rL SGR
GSN 1462 5300 M 0 -36 rL SGR
GSN 1495 1700 M 0  36 rL SGR
GSN 1495 5300 M 0 -36 rL SGR
GSN 1524 1700 M 0  36 rL SGR
GSN 1524 5300 M 0 -36 rL SGR
GSN 1550 1700 M 0  36 rL SGR
GSN 1550 5300 M 0 -36 rL SGR
GSN 1722 1700 M 0  36 rL SGR
GSN 1722 5300 M 0 -36 rL SGR
GSN 1810 1700 M 0  36 rL SGR
GSN 1810 5300 M 0 -36 rL SGR
GSN 1873 1700 M 0  36 rL SGR
GSN 1873 5300 M 0 -36 rL SGR
GSN 1921 1700 M 0  36 rL SGR
GSN 1921 5300 M 0 -36 rL SGR
GSN 1960 1700 M 0  36 rL SGR
GSN 1960 5300 M 0 -36 rL SGR
GSN 1994 1700 M 0  36 rL SGR
GSN 1994 5300 M 0 -36 rL SGR
GSN 2023 1700 M 0  36 rL SGR
GSN 2023 5300 M 0 -36 rL SGR
GSN 2048 1700 M 0  36 rL SGR
GSN 2048 5300 M 0 -36 rL SGR
GSN 2221 1700 M 0  36 rL SGR
GSN 2221 5300 M 0 -36 rL SGR
GSN 2309 1700 M 0  36 rL SGR
GSN 2309 5300 M 0 -36 rL SGR
GSN 2371 1700 M 0  36 rL SGR
GSN 2371 5300 M 0 -36 rL SGR
GSN 2420 1700 M 0  36 rL SGR
GSN 2420 5300 M 0 -36 rL SGR
GSN 2459 1700 M 0  36 rL SGR
GSN 2459 5300 M 0 -36 rL SGR
GSN 2492 1700 M 0  36 rL SGR
GSN 2492 5300 M 0 -36 rL SGR
GSN 2521 1700 M 0  36 rL SGR
GSN 2521 5300 M 0 -36 rL SGR
GSN 2547 1700 M 0  36 rL SGR
GSN 2547 5300 M 0 -36 rL SGR
GSN 2720 1700 M 0  36 rL SGR
GSN 2720 5300 M 0 -36 rL SGR
GSN 2808 1700 M 0  36 rL SGR
GSN 2808 5300 M 0 -36 rL SGR
GSN 2870 1700 M 0  36 rL SGR
GSN 2870 5300 M 0 -36 rL SGR
GSN 2918 1700 M 0  36 rL SGR
GSN 2918 5300 M 0 -36 rL SGR
GSN 2958 1700 M 0  36 rL SGR
GSN 2958 5300 M 0 -36 rL SGR
GSN 2991 1700 M 0  36 rL SGR
GSN 2991 5300 M 0 -36 rL SGR
GSN 3020 1700 M 0  36 rL SGR
GSN 3020 5300 M 0 -36 rL SGR
GSN 3045 1700 M 0  36 rL SGR
GSN 3045 5300 M 0 -36 rL SGR
GSN 3218 1700 M 0  36 rL SGR
GSN 3218 5300 M 0 -36 rL SGR
GSN 3306 1700 M 0  36 rL SGR
GSN 3306 5300 M 0 -36 rL SGR
GSN 3368 1700 M 0  36 rL SGR
GSN 3368 5300 M 0 -36 rL SGR
GSN 3417 1700 M 0  36 rL SGR
GSN 3417 5300 M 0 -36 rL SGR
GSN 3456 1700 M 0  36 rL SGR
GSN 3456 5300 M 0 -36 rL SGR
GSN 3490 1700 M 0  36 rL SGR
GSN 3490 5300 M 0 -36 rL SGR
GSN 3519 1700 M 0  36 rL SGR
GSN 3519 5300 M 0 -36 rL SGR
GSN 3544 1700 M 0  36 rL SGR
GSN 3544 5300 M 0 -36 rL SGR
GSN 3717 1700 M 0  36 rL SGR
GSN 3717 5300 M 0 -36 rL SGR
GSN 3805 1700 M 0  36 rL SGR
GSN 3805 5300 M 0 -36 rL SGR
GSN 3867 1700 M 0  36 rL SGR
GSN 3867 5300 M 0 -36 rL SGR
GSN 3915 1700 M 0  36 rL SGR
GSN 3915 5300 M 0 -36 rL SGR
GSN 3955 1700 M 0  36 rL SGR
GSN 3955 5300 M 0 -36 rL SGR
GSN 3988 1700 M 0  36 rL SGR
GSN 3988 5300 M 0 -36 rL SGR
GSN 4017 1700 M 0  36 rL SGR
GSN 4017 5300 M 0 -36 rL SGR
GSN 4043 1700 M 0  36 rL SGR
GSN 4043 5300 M 0 -36 rL SGR
GSN 4216 1700 M 0  36 rL SGR
GSN 4216 5300 M 0 -36 rL SGR
%
% Y axis: large tics
%
L10
GSN 620 2606 M 54 0 rL SGR
GSN 4220 2606 M -54 0 rL SGR
helvS (1.14) 560 2606 ylabel
GSN 620 3605 M 54 0 rL SGR
GSN 4220 3605 M -54 0 rL SGR
helvS (1.16) 560 3605 ylabel
GSN 620 4604 M 54 0 rL SGR
GSN 4220 4604 M -54 0 rL SGR
helvS (1.18) 560 4604 ylabel
%
% Y axis: small tics
%
L5
GSN 620 1857 M 36 0 rL SGR
GSN 4220 1857 M -36 0 rL SGR
GSN 620 2106 M 36 0 rL SGR
GSN 4220 2106 M -36 0 rL SGR
GSN 620 2356 M 36 0 rL SGR
GSN 4220 2356 M -36 0 rL SGR
GSN 620 2606 M 36 0 rL SGR
GSN 4220 2606 M -36 0 rL SGR
GSN 620 2856 M 36 0 rL SGR
GSN 4220 2856 M -36 0 rL SGR
GSN 620 3105 M 36 0 rL SGR
GSN 4220 3105 M -36 0 rL SGR
GSN 620 3355 M 36 0 rL SGR
GSN 4220 3355 M -36 0 rL SGR
GSN 620 3605 M 36 0 rL SGR
GSN 4220 3605 M -36 0 rL SGR
GSN 620 3854 M 36 0 rL SGR
GSN 4220 3854 M -36 0 rL SGR
GSN 620 4104 M 36 0 rL SGR
GSN 4220 4104 M -36 0 rL SGR
GSN 620 4354 M 36 0 rL SGR
GSN 4220 4354 M -36 0 rL SGR
GSN 620 4604 M 36 0 rL SGR
GSN 4220 4604 M -36 0 rL SGR
GSN 620 4853 M 36 0 rL SGR
GSN 4220 4853 M -36 0 rL SGR
GSN 620 5103 M 36 0 rL SGR
GSN 4220 5103 M -36 0 rL SGR

%
% X-Axis label:
%
gsave 2420 290 M 
[
[(Helvetica) 180 0 true true 0 (t)]
[(Helvetica) 180 0 true true 0 (i)]
[(Helvetica) 180 0 true true 0 (m)]
[(Helvetica) 180 0 true true 0 (e)]
] 0 MCshow grestore

%
% Y-Axis label:
%
gsave 234 3500 M 
currentpoint gsave translate 90 rotate 0 0 moveto
[
[(Helvetica) 180 0 true true 0 (s)]
[(Helvetica) 180 0 true true 0 (i)]
[(Helvetica) 180 0 true true 0 (g)]
[(Helvetica) 180 0 true true 0 (n)]
[(Helvetica) 180 0 true true 0 (a)]
[(Helvetica) 180 0 true true 0 (l)]
] 0 MCshow grestore

%
% Residuals:
%
gsave 129 1160 M 
currentpoint gsave translate 90 rotate 0 0 moveto
[
[(Helvetica) 150 0 true true 0 (r)]
[(Helvetica) 150 0 true true 0 (e)]
[(Helvetica) 150 0 true true 0 (s)]
[(Helvetica) 150 0 true true 0 (i)]
[(Helvetica) 150 0 true true 0 (d)]
[(Helvetica) 150 0 true true 0 (u)]
[(Helvetica) 150 0 true true 0 (a)]
[(Helvetica) 150 0 true true 0 (l)]
[(Helvetica) 150 0 true true 0 (s)]
] 0 MCshow grestore

%
% Residual frame
%
L10
GSN 
620 620 M
4220 620 L
4220 1700 L
620 1700 L
closepath SGR
%
% X axis: large tics - residual frame
%
L10
GSN 1074 620 M 0  54 rL SGR
GSN 1074 1700 M 0 -54 rL SGR
GSN 1572 620 M 0  54 rL SGR
GSN 1572 1700 M 0 -54 rL SGR
GSN 2071 620 M 0  54 rL SGR
GSN 2071 1700 M 0 -54 rL SGR
GSN 2570 620 M 0  54 rL SGR
GSN 2570 1700 M 0 -54 rL SGR
GSN 3068 620 M 0  54 rL SGR
GSN 3068 1700 M 0 -54 rL SGR
GSN 3567 620 M 0  54 rL SGR
GSN 3567 1700 M 0 -54 rL SGR
GSN 4066 620 M 0  54 rL SGR
GSN 4066 1700 M 0 -54 rL SGR
%
% X axis: small tics - residual frame
%
L5
GSN 725 620 M 0  36 rL SGR
GSN 725 1700 M 0 -36 rL SGR
GSN 813 620 M 0  36 rL SGR
GSN 813 1700 M 0 -36 rL SGR
GSN 875 620 M 0  36 rL SGR
GSN 875 1700 M 0 -36 rL SGR
GSN 924 620 M 0  36 rL SGR
GSN 924 1700 M 0 -36 rL SGR
GSN 963 620 M 0  36 rL SGR
GSN 963 1700 M 0 -36 rL SGR
GSN 996 620 M 0  36 rL SGR
GSN 996 1700 M 0 -36 rL SGR
GSN 1025 620 M 0  36 rL SGR
GSN 1025 1700 M 0 -36 rL SGR
GSN 1051 620 M 0  36 rL SGR
GSN 1051 1700 M 0 -36 rL SGR
GSN 1224 620 M 0  36 rL SGR
GSN 1224 1700 M 0 -36 rL SGR
GSN 1312 620 M 0  36 rL SGR
GSN 1312 1700 M 0 -36 rL SGR
GSN 1374 620 M 0  36 rL SGR
GSN 1374 1700 M 0 -36 rL SGR
GSN 1422 620 M 0  36 rL SGR
GSN 1422 1700 M 0 -36 rL SGR
GSN 1462 620 M 0  36 rL SGR
GSN 1462 1700 M 0 -36 rL SGR
GSN 1495 620 M 0  36 rL SGR
GSN 1495 1700 M 0 -36 rL SGR
GSN 1524 620 M 0  36 rL SGR
GSN 1524 1700 M 0 -36 rL SGR
GSN 1550 620 M 0  36 rL SGR
GSN 1550 1700 M 0 -36 rL SGR
GSN 1722 620 M 0  36 rL SGR
GSN 1722 1700 M 0 -36 rL SGR
GSN 1810 620 M 0  36 rL SGR
GSN 1810 1700 M 0 -36 rL SGR
GSN 1873 620 M 0  36 rL SGR
GSN 1873 1700 M 0 -36 rL SGR
GSN 1921 620 M 0  36 rL SGR
GSN 1921 1700 M 0 -36 rL SGR
GSN 1960 620 M 0  36 rL SGR
GSN 1960 1700 M 0 -36 rL SGR
GSN 1994 620 M 0  36 rL SGR
GSN 1994 1700 M 0 -36 rL SGR
GSN 2023 620 M 0  36 rL SGR
GSN 2023 1700 M 0 -36 rL SGR
GSN 2048 620 M 0  36 rL SGR
GSN 2048 1700 M 0 -36 rL SGR
GSN 2221 620 M 0  36 rL SGR
GSN 2221 1700 M 0 -36 rL SGR
GSN 2309 620 M 0  36 rL SGR
GSN 2309 1700 M 0 -36 rL SGR
GSN 2371 620 M 0  36 rL SGR
GSN 2371 1700 M 0 -36 rL SGR
GSN 2420 620 M 0  36 rL SGR
GSN 2420 1700 M 0 -36 rL SGR
GSN 2459 620 M 0  36 rL SGR
GSN 2459 1700 M 0 -36 rL SGR
GSN 2492 620 M 0  36 rL SGR
GSN 2492 1700 M 0 -36 rL SGR
GSN 2521 620 M 0  36 rL SGR
GSN 2521 1700 M 0 -36 rL SGR
GSN 2547 620 M 0  36 rL SGR
GSN 2547 1700 M 0 -36 rL SGR
GSN 2720 620 M 0  36 rL SGR
GSN 2720 1700 M 0 -36 rL SGR
GSN 2808 620 M 0  36 rL SGR
GSN 2808 1700 M 0 -36 rL SGR
GSN 2870 620 M 0  36 rL SGR
GSN 2870 1700 M 0 -36 rL SGR
GSN 2918 620 M 0  36 rL SGR
GSN 2918 1700 M 0 -36 rL SGR
GSN 2958 620 M 0  36 rL SGR
GSN 2958 1700 M 0 -36 rL SGR
GSN 2991 620 M 0  36 rL SGR
GSN 2991 1700 M 0 -36 rL SGR
GSN 3020 620 M 0  36 rL SGR
GSN 3020 1700 M 0 -36 rL SGR
GSN 3045 620 M 0  36 rL SGR
GSN 3045 1700 M 0 -36 rL SGR
GSN 3218 620 M 0  36 rL SGR
GSN 3218 1700 M 0 -36 rL SGR
GSN 3306 620 M 0  36 rL SGR
GSN 3306 1700 M 0 -36 rL SGR
GSN 3368 620 M 0  36 rL SGR
GSN 3368 1700 M 0 -36 rL SGR
GSN 3417 620 M 0  36 rL SGR
GSN 3417 1700 M 0 -36 rL SGR
GSN 3456 620 M 0  36 rL SGR
GSN 3456 1700 M 0 -36 rL SGR
GSN 3490 620 M 0  36 rL SGR
GSN 3490 1700 M 0 -36 rL SGR
GSN 3519 620 M 0  36 rL SGR
GSN 3519 1700 M 0 -36 rL SGR
GSN 3544 620 M 0  36 rL SGR
GSN 3544 1700 M 0 -36 rL SGR
GSN 3717 620 M 0  36 rL SGR
GSN 3717 1700 M 0 -36 rL SGR
GSN 3805 620 M 0  36 rL SGR
GSN 3805 1700 M 0 -36 rL SGR
GSN 3867 620 M 0  36 rL SGR
GSN 3867 1700 M 0 -36 rL SGR
GSN 3915 620 M 0  36 rL SGR
GSN 3915 1700 M 0 -36 rL SGR
GSN 3955 620 M 0  36 rL SGR
GSN 3955 1700 M 0 -36 rL SGR
GSN 3988 620 M 0  36 rL SGR
GSN 3988 1700 M 0 -36 rL SGR
GSN 4017 620 M 0  36 rL SGR
GSN 4017 1700 M 0 -36 rL SGR
GSN 4043 620 M 0  36 rL SGR
GSN 4043 1700 M 0 -36 rL SGR
GSN 4216 620 M 0  36 rL SGR
GSN 4216 1700 M 0 -36 rL SGR
%
% Y axis: large tics - residual frame
%
L10
GSN 620 676 M 54 0 rL SGR
GSN 4220 676 M -54 0 rL SGR
helvS (-0.06) 560 676 ylabelresid
GSN 620 944 M 54 0 rL SGR
GSN 4220 944 M -54 0 rL SGR
helvS (-0.04) 560 944 ylabelresid
GSN 620 1211 M 54 0 rL SGR
GSN 4220 1211 M -54 0 rL SGR
helvS (-0.02) 560 1211 ylabelresid
GSN 620 1478 M 54 0 rL SGR
GSN 4220 1478 M -54 0 rL SGR
helvS (0) 560 1478 ylabelresid

%
% X axis - residual panel
%
GSN L5 620 1478 M 4220 1478 L SDA G50 SGR

end
showpage
%%Trailer
%%EOF
