%!PS-Adobe-3.0 EPSF-3.0
%%BoundingBox: 0 0 514 550
%%Creator: BioKin Ltd.
%%DocumentFonts: Symbol Helvetica
%%EndComments
%
/bkdict 256 dict def
bkdict begin
/M {moveto} def 
/R {rmoveto} def
/L {lineto} def
/rL {rlineto} def
/GSN {gsave newpath} def
/SGR {stroke grestore} def
/COSGR {gsave setrgbcolor stroke grestore grestore} def
/SL {setlinewidth} def
/LWMB {12} def             % line width - model curves, black & white
/LWMC {10} def             % line width - model curves, color
/L2 {2.5 setlinewidth} def
/L5 {5 setlinewidth} def
/L10 {10 setlinewidth} def
/G50 {0.5 setgray} def
/SDA {[10  20] 0 setdash} def % axes
/helvT {/Helvetica findfont 100 scalefont setfont} def % tiny
/helvS {/Helvetica findfont 125 scalefont setfont} def % small
/helvM {/Helvetica findfont 150 scalefont setfont} def % medium
/helvL {/Helvetica findfont 175 scalefont setfont} def % large
/xlabel {gsave M dup
   stringwidth exch -0.5 mul exch rmoveto show grestore} def 
/ylabel {gsave M 90 rotate dup
   stringwidth exch -0.5 mul exch rmoveto show grestore} def
/ylabelresid {gsave M dup
   stringwidth exch -1 mul exch rmoveto show grestore} def
% ======
% Shapes
% ======
% Circle:
/Circ {0 360 arc closepath} def
%
% Square:
/Squa {dup dup -0.5 mul dup dup R -2 mul 0 exch rL 1 mul 0 rL dup 0 exch -1 mul rL closepath} def
%
% Triangle Up:
/TriU {dup dup dup -0.4 mul exch -0.5 mul exch R dup 0.5 mul exch rL dup -1 mul exch 0.5 mul exch rL closepath} def 
%
% Triangle Down:
/TriD {dup dup dup 0.4 mul exch -0.5 mul exch R dup 0.5 mul exch -1 mul rL dup 0.5 mul exch rL closepath} def 
%
% Diamond:
/Diam {45 rotate Squa} def
% ======
% Fills
% ======
/GRF {gsave setgray fill grestore} def                    % gray-level Fill
/COF {gsave setrgbcolor fill grestore} def                % color fill
% ======
% Colors
% ======
/C01 {1.00	0.00	0.00} def      % Red
/C02 {0.00	0.00	1.00} def      % Blue
/C03 {0.00	0.39	0.00} def      % Dark Green
/C04 {0.78	0.08	0.52} def      % Medium Violet Red
/C05 {0.55	0.27	0.07} def      % Saddle Brown
/C06 {0.10	0.70	0.70} def      % (cyan)
/C07 {1.00	0.55	0.00} def      % Dark Orange
/C08 {0.63	0.13	0.94} def      % Purple
/C09 {0.00	0.75	1.00} def      % Deep Sky Blue
/C10 {0.20	0.80	0.20} def      % Lime Green
/C11 {0.47	0.53	0.60} def      % Light Slate Gray
/C12 {0.00	0.00	0.00} def      % Black            % or: {0.19	0.31	0.31} def      % Dark Slate Gray
%
/LGR {0.75} def % light gray
/DGR {0.33} def % dark gray
%
% =============
% Dash patterns
% =============
/dash01 { [80  20] 0 setdash } def
/dash02 { [40  20] 0 setdash } def
/dash03 { [80  20  10  20] 0 setdash } def
/dash04 { [40  20  10  20] 0 setdash } def
/dash05 { [80  20  10  10  10  20] 0 setdash } def
/dash06 { [40  20  10  10  10  20] 0 setdash } def
/dash07 { [10  10] 0 setdash } def
%
/MFshow {
   { dup 5 get 3 ge
     { 5 get 3 eq {gsave} {grestore} ifelse }
     {dup dup 0 get findfont exch 1 get scalefont setfont
     [ currentpoint ] exch dup 2 get 0 exch R dup 5 get 2 ne {dup dup 6
     get exch 4 get {show} {stringwidth pop 0 R} ifelse }if dup 5 get 0 eq
     {dup 3 get {2 get neg 0 exch R pop} {pop aload pop M} ifelse} {dup 5
     get 1 eq {dup 2 get exch dup 3 get exch 6 get stringwidth pop -2 div
     dup 0 R} {dup 6 get stringwidth pop -2 div 0 R 6 get
     show 2 index {aload pop M neg 3 -1 roll neg R pop pop} {pop pop pop
     pop aload pop M} ifelse }ifelse }ifelse }
     ifelse }
   forall} bind def
/MFwidth {0 exch {dup 3 get{dup dup 0 get findfont exch 1 get scalefont
     setfont 6 get stringwidth pop add} {pop} ifelse} forall} bind def
/MCshow { currentpoint stroke M
  exch dup MFwidth -2 div 3 -1 roll R MFshow } def
%
end
%%EndProlog
bkdict begin
0.1 0.1 scale
%
% Model curves:
%

GSN 753 3468 M
753 3468 L
786 3468 L
820 3468 L
853 3468 L
886 3468 L
903 3468 L
919 3468 L
953 3468 L
986 3468 L
1020 3468 L
1053 3468 L
1053 3468 L
1086 3468 L
1120 3468 L
1153 3468 L
1186 3468 L
1203 3468 L
1220 3468 L
1253 3468 L
1286 3468 L
1320 3468 L
1353 3468 L
1353 3468 L
1386 3468 L
1420 3468 L
1453 3468 L
1486 3468 L
1503 3468 L
1520 3468 L
1553 3468 L
1586 3468 L
1620 3468 L
1653 3468 L
1653 3468 L
1686 3468 L
1720 3468 L
1753 3468 L
1786 3468 L
1804 3468 L
1820 3468 L
1853 3468 L
1886 3468 L
1920 3468 L
1953 3468 L
1954 3468 L
1986 3468 L
2020 3468 L
2053 3468 L
2086 3469 L
2104 3469 L
2120 3469 L
2153 3469 L
2186 3469 L
2220 3469 L
2253 3469 L
2254 3469 L
2286 3469 L
2320 3470 L
2353 3470 L
2386 3470 L
2404 3470 L
2420 3471 L
2453 3471 L
2486 3472 L
2520 3472 L
2553 3473 L
2554 3473 L
2586 3474 L
2620 3475 L
2653 3476 L
2686 3477 L
2704 3477 L
2720 3478 L
2753 3480 L
2786 3481 L
2820 3483 L
2853 3485 L
2854 3485 L
2886 3488 L
2920 3490 L
2953 3493 L
2986 3497 L
3004 3499 L
3020 3500 L
3053 3505 L
3068 3507 L
3086 3509 L
3120 3515 L
3153 3521 L
3155 3521 L
3186 3527 L
3220 3535 L
3253 3545 L
3286 3555 L
3305 3562 L
3320 3567 L
3353 3582 L
3386 3598 L
3420 3617 L
3453 3639 L
3455 3640 L
3486 3664 L
3520 3693 L
3553 3726 L
3586 3764 L
3605 3788 L
3620 3807 L
3653 3856 L
3686 3912 L
3720 3975 L
3753 4045 L
3755 4049 L
3786 4123 L
3820 4209 L
3853 4304 L
3886 4407 L
3905 4469 L
3920 4518 L
3953 4637 L
3986 4763 L
4020 4894 L
4053 5029 L
4086 5166 L
LWMC SL  C04 COSGR

%
% Experimental data:
%
GSN 773 4318 M
1625 4114 L
1773 3971 L
1860 4135 L
1922 3948 L
1970 4122 L
2009 3884 L
2043 3885 L
2072 3885 L
2097 3734 L
2120 3725 L
2140 3729 L
2159 3531 L
2176 3541 L
2192 3555 L
2207 3546 L
2221 3659 L
2234 3507 L
2247 3547 L
2259 3478 L
2270 3475 L
2280 3450 L
2290 3463 L
2300 3295 L
2309 3404 L
2318 3448 L
2326 3204 L
2335 3345 L
2342 3164 L
2350 3282 L
2357 3189 L
2364 3142 L
2371 3182 L
2378 3220 L
2384 3178 L
2391 3111 L
2397 3189 L
2403 3308 L
2409 3026 L
2414 3125 L
2420 3123 L
2425 3101 L
2430 3081 L
2435 2886 L
2440 3136 L
2445 3124 L
2450 2930 L
2455 3001 L
2459 2837 L
2464 2908 L
2468 2937 L
2472 3026 L
2476 3051 L
2481 2889 L
2485 2837 L
2489 2998 L
2492 2753 L
2496 2838 L
2500 2838 L
2504 2690 L
2507 2685 L
2511 2789 L
2514 2835 L
2518 2783 L
2521 2705 L
2525 2679 L
2528 2581 L
2531 2709 L
2534 2684 L
2538 2640 L
2541 2716 L
2544 2795 L
2547 2650 L
2550 2626 L
2553 2644 L
2556 2710 L
2559 2589 L
2561 2529 L
2564 2768 L
2567 2524 L
2570 2719 L
2580 2322 L
2590 2606 L
2600 2375 L
2609 2347 L
2618 2413 L
2627 2295 L
2635 2265 L
2643 2353 L
2650 2328 L
2658 2267 L
2665 2238 L
2672 2139 L
2678 2176 L
2685 2195 L
2691 2359 L
2697 2143 L
2703 2183 L
2709 2204 L
2714 2181 L
2720 1921 L
2725 2018 L
2730 2125 L
2735 2102 L
2740 2097 L
2745 1985 L
2750 2071 L
2755 2178 L
2759 2045 L
2764 2051 L
2768 1992 L
2772 1922 L
2777 2118 L
2781 2020 L
2785 1986 L
2789 2015 L
2793 2068 L
2796 1893 L
2800 1968 L
2804 2062 L
2808 1969 L
2811 1991 L
2815 1955 L
2818 1985 L
2822 1973 L
2825 1987 L
2828 2007 L
2831 2008 L
2835 2047 L
2838 1888 L
2841 2005 L
2844 2098 L
2847 1990 L
2850 2015 L
2853 1997 L
2856 2053 L
2859 2002 L
2862 1978 L
2864 1964 L
2867 1998 L
2870 2036 L
2873 2031 L
2875 2017 L
2878 2054 L
2880 2050 L
2883 2123 L
2886 2155 L
2888 1833 L
2891 1900 L
2893 1995 L
2895 2152 L
2898 2108 L
2900 1997 L
2902 2070 L
2905 2074 L
2907 2063 L
2909 2041 L
2912 2125 L
2914 2025 L
2916 2072 L
2918 1972 L
2920 2068 L
2922 2160 L
2925 2011 L
2927 2135 L
2929 2086 L
2931 2078 L
2933 2068 L
2935 2218 L
2937 2083 L
2939 2209 L
2941 2151 L
2943 2169 L
2945 2222 L
2947 2094 L
2948 2094 L
2950 2210 L
2952 2179 L
2954 2100 L
2956 2126 L
2958 2134 L
2959 2196 L
2961 2287 L
2963 2166 L
2965 2236 L
2966 2149 L
2968 2252 L
2970 2253 L
2972 2118 L
2973 2179 L
2975 2200 L
2977 2273 L
2978 2099 L
2980 2174 L
2982 2240 L
2983 2233 L
2985 2133 L
2986 2172 L
2988 2155 L
2989 2255 L
2991 2203 L
2993 2265 L
2994 2093 L
2996 2380 L
2997 2214 L
2999 2228 L
3000 2265 L
3002 2204 L
3003 2257 L
3005 2309 L
3006 2241 L
3007 2225 L
3009 2299 L
3010 2140 L
3012 2231 L
3013 2294 L
3014 2368 L
3016 2332 L
3017 2311 L
3019 2309 L
3020 2312 L
3021 2295 L
3023 2409 L
3024 2384 L
3025 2393 L
3027 2198 L
3028 2307 L
3029 2477 L
3031 2374 L
3032 2390 L
3033 2317 L
3034 2390 L
3036 2362 L
3037 2271 L
3038 2387 L
3039 2324 L
3041 2500 L
3042 2490 L
3043 2294 L
3044 2455 L
3045 2350 L
3047 2400 L
3048 2352 L
3049 2483 L
3050 2350 L
3051 2293 L
3053 2249 L
3054 2470 L
3055 2315 L
3056 2318 L
3057 2303 L
3058 2316 L
3059 2378 L
3061 2442 L
3062 2472 L
3063 2362 L
3064 2367 L
3065 2373 L
3066 2456 L
3067 2300 L
3068 2324 L
3069 2580 L
3070 2472 L
3071 2469 L
3073 2512 L
3074 2458 L
3075 2451 L
3076 2409 L
3077 2324 L
3078 2448 L
3079 2535 L
3080 2397 L
3081 2232 L
3082 2468 L
3083 2423 L
3084 2440 L
3085 2525 L
3086 2381 L
3087 2475 L
3088 2481 L
3089 2565 L
3112 2574 L
3133 2586 L
3152 2601 L
3170 2705 L
3186 2498 L
3201 2649 L
3216 2791 L
3229 2676 L
3241 2727 L
3253 2584 L
3264 2714 L
3275 2722 L
3285 2710 L
3295 2735 L
3304 2728 L
3313 2553 L
3322 2755 L
3330 2712 L
3338 2677 L
3346 2696 L
3353 2768 L
3360 2690 L
3367 2654 L
3374 2812 L
3380 2569 L
3387 2821 L
3393 2709 L
3399 2710 L
3405 2670 L
3410 2683 L
3416 2739 L
3421 2661 L
3426 2644 L
3431 2654 L
3436 2727 L
3441 2700 L
3446 2627 L
3451 2681 L
3455 2677 L
3460 2590 L
3464 2622 L
3469 2678 L
3473 2737 L
3477 2682 L
3481 2682 L
3485 2613 L
3489 2629 L
3493 2600 L
3496 2671 L
3500 2753 L
3504 2636 L
3507 2800 L
3511 2784 L
3514 2633 L
3518 2733 L
3521 2696 L
3525 2617 L
3528 2671 L
3531 2925 L
3534 2671 L
3537 2741 L
3540 2600 L
3543 2567 L
3546 2636 L
3549 2601 L
3552 2666 L
3555 2741 L
3558 2614 L
3561 2678 L
3564 2588 L
3566 2562 L
3575 2569 L
3586 2456 L
3595 2748 L
3605 2519 L
3613 2629 L
3622 2587 L
3630 2692 L
3638 2610 L
3646 2596 L
3653 2655 L
3660 2692 L
3667 2635 L
3674 2479 L
3681 2644 L
3687 2640 L
3693 2540 L
3699 2489 L
3705 2576 L
3710 2493 L
3716 2719 L
3721 2584 L
3727 2592 L
3732 2517 L
3737 2601 L
3742 2481 L
3746 2616 L
3751 2621 L
3756 2451 L
3760 2348 L
3764 2570 L
3769 2649 L
3773 2489 L
3777 2437 L
3781 2518 L
3785 2477 L
3789 2550 L
3793 2397 L
3797 2549 L
3800 2567 L
3804 2577 L
3808 2481 L
3811 2514 L
3815 2619 L
3818 2411 L
3821 2372 L
3825 2591 L
3828 2398 L
3831 2517 L
3834 2308 L
3838 2450 L
3841 2364 L
3844 2508 L
3847 2673 L
3850 2467 L
3853 2408 L
3855 2499 L
3858 2256 L
3861 2428 L
3864 2488 L
3867 2534 L
3869 2381 L
3872 2548 L
3875 2387 L
3877 2490 L
3880 2480 L
3882 2495 L
3885 2553 L
3887 2334 L
3890 2512 L
3892 2353 L
3895 2413 L
3897 2436 L
3899 2515 L
3902 2444 L
3904 2395 L
3906 2499 L
3908 2357 L
3911 2414 L
3913 2444 L
3915 2490 L
3917 2446 L
3919 2563 L
3921 2452 L
3923 2601 L
3926 2395 L
3928 2532 L
3930 2480 L
3932 2463 L
3934 2458 L
3936 2465 L
3938 2451 L
3940 2393 L
3942 2405 L
3943 2650 L
3945 2450 L
3947 2365 L
3949 2483 L
3951 2444 L
3953 2605 L
3955 2399 L
3956 2576 L
3958 2583 L
3960 2403 L
3962 2538 L
3963 2435 L
3965 2508 L
3967 2520 L
3969 2550 L
3970 2299 L
3972 2568 L
3974 2344 L
3975 2427 L
3977 2411 L
3978 2507 L
3980 2516 L
3982 2244 L
3983 2368 L
3985 2373 L
3986 2469 L
3988 2562 L
3990 2376 L
3991 2405 L
3993 2192 L
3994 2474 L
3996 2370 L
3997 2490 L
3999 2199 L
4000 2415 L
4001 2556 L
4003 2295 L
4004 2317 L
4006 2353 L
4007 2328 L
4009 2413 L
4010 2432 L
4011 2462 L
4013 2440 L
4014 2399 L
4016 2401 L
4017 2305 L
4018 2461 L
4020 2454 L
4021 2174 L
4022 2423 L
4024 2354 L
4025 2442 L
4026 2381 L
4028 2414 L
4029 2498 L
4030 2426 L
4031 2331 L
4033 2282 L
4034 2414 L
4035 2438 L
4036 2298 L
4038 2281 L
4039 2428 L
4040 2467 L
4041 2306 L
4042 2454 L
4044 2399 L
4045 2284 L
4046 2413 L
4047 2418 L
4048 2661 L
4050 2378 L
4051 2369 L
4052 2474 L
4053 2345 L
4054 2424 L
4055 2505 L
4056 2436 L
4058 2435 L
4059 2331 L
4060 2420 L
4061 2455 L
4062 2419 L
4063 2349 L
4064 2334 L
4065 2391 L
4066 2362 L
L2 C04 COSGR

%
%================
% Legend - Begin
%================
%
GSN 4240 5180 M
4480 5180 L
LWMC SL  C04 COSGR
GSN 4540 5141 M helvM (2.0 uM) show grestore
%
%================
% Legend - End
%================
%

%
% Residuals:
%
GSN 773 1569 M
1625 1522 L
1773 1490 L
1860 1527 L
1922 1484 L
1970 1524 L
2009 1470 L
2043 1470 L
2072 1470 L
2097 1435 L
2120 1433 L
2140 1434 L
2159 1389 L
2176 1392 L
2192 1395 L
2207 1393 L
2221 1418 L
2234 1384 L
2247 1393 L
2259 1377 L
2270 1376 L
2280 1371 L
2290 1374 L
2300 1335 L
2309 1360 L
2318 1370 L
2326 1315 L
2335 1347 L
2342 1305 L
2350 1332 L
2357 1311 L
2364 1300 L
2371 1309 L
2378 1318 L
2384 1308 L
2391 1293 L
2397 1311 L
2403 1338 L
2409 1274 L
2414 1296 L
2420 1296 L
2425 1291 L
2430 1286 L
2435 1242 L
2440 1299 L
2445 1296 L
2450 1252 L
2455 1268 L
2459 1230 L
2464 1247 L
2468 1253 L
2472 1274 L
2476 1279 L
2481 1242 L
2485 1230 L
2489 1267 L
2492 1211 L
2496 1231 L
2500 1231 L
2504 1197 L
2507 1196 L
2511 1219 L
2514 1230 L
2518 1218 L
2521 1200 L
2525 1194 L
2528 1172 L
2531 1201 L
2534 1195 L
2538 1185 L
2541 1203 L
2544 1221 L
2547 1188 L
2550 1182 L
2553 1186 L
2556 1201 L
2559 1174 L
2561 1160 L
2564 1214 L
2567 1159 L
2570 1203 L
2580 1113 L
2590 1177 L
2600 1125 L
2609 1118 L
2618 1133 L
2627 1106 L
2635 1099 L
2643 1119 L
2650 1114 L
2658 1100 L
2665 1093 L
2672 1071 L
2678 1079 L
2685 1083 L
2691 1120 L
2697 1071 L
2703 1080 L
2709 1085 L
2714 1080 L
2720 1020 L
2725 1042 L
2730 1067 L
2735 1061 L
2740 1060 L
2745 1035 L
2750 1054 L
2755 1079 L
2759 1048 L
2764 1049 L
2768 1036 L
2772 1020 L
2777 1065 L
2781 1042 L
2785 1035 L
2789 1041 L
2793 1053 L
2796 1013 L
2800 1030 L
2804 1052 L
2808 1030 L
2811 1035 L
2815 1027 L
2818 1034 L
2822 1031 L
2825 1034 L
2828 1039 L
2831 1039 L
2835 1048 L
2838 1011 L
2841 1038 L
2844 1059 L
2847 1034 L
2850 1040 L
2853 1036 L
2856 1049 L
2859 1037 L
2862 1032 L
2864 1028 L
2867 1036 L
2870 1045 L
2873 1043 L
2875 1040 L
2878 1049 L
2880 1048 L
2883 1064 L
2886 1071 L
2888 998 L
2891 1013 L
2893 1035 L
2895 1071 L
2898 1060 L
2900 1035 L
2902 1052 L
2905 1053 L
2907 1050 L
2909 1045 L
2912 1064 L
2914 1041 L
2916 1052 L
2918 1029 L
2920 1051 L
2922 1072 L
2925 1038 L
2927 1066 L
2929 1055 L
2931 1053 L
2933 1051 L
2935 1085 L
2937 1054 L
2939 1083 L
2941 1070 L
2943 1074 L
2945 1085 L
2947 1056 L
2948 1056 L
2950 1083 L
2952 1076 L
2954 1058 L
2956 1064 L
2958 1065 L
2959 1079 L
2961 1100 L
2963 1072 L
2965 1088 L
2966 1068 L
2968 1092 L
2970 1092 L
2972 1061 L
2973 1075 L
2975 1080 L
2977 1096 L
2978 1057 L
2980 1074 L
2982 1089 L
2983 1087 L
2985 1064 L
2986 1073 L
2988 1069 L
2989 1092 L
2991 1080 L
2993 1094 L
2994 1055 L
2996 1120 L
2997 1083 L
2999 1086 L
3000 1094 L
3002 1080 L
3003 1092 L
3005 1104 L
3006 1088 L
3007 1085 L
3009 1102 L
3010 1065 L
3012 1086 L
3013 1100 L
3014 1117 L
3016 1109 L
3017 1104 L
3019 1104 L
3020 1104 L
3021 1100 L
3023 1126 L
3024 1121 L
3025 1123 L
3027 1078 L
3028 1103 L
3029 1142 L
3031 1118 L
3032 1122 L
3033 1105 L
3034 1122 L
3036 1115 L
3037 1095 L
3038 1121 L
3039 1106 L
3041 1147 L
3042 1144 L
3043 1100 L
3044 1136 L
3045 1112 L
3047 1124 L
3048 1113 L
3049 1143 L
3050 1112 L
3051 1099 L
3053 1089 L
3054 1139 L
3055 1104 L
3056 1105 L
3057 1101 L
3058 1104 L
3059 1118 L
3061 1133 L
3062 1139 L
3063 1114 L
3064 1116 L
3065 1117 L
3066 1136 L
3067 1100 L
3068 1106 L
3069 1164 L
3070 1139 L
3071 1138 L
3073 1148 L
3074 1136 L
3075 1134 L
3076 1125 L
3077 1105 L
3078 1133 L
3079 1153 L
3080 1122 L
3081 1084 L
3082 1138 L
3083 1128 L
3084 1131 L
3085 1151 L
3086 1118 L
3087 1139 L
3088 1141 L
3089 1160 L
3112 1161 L
3133 1163 L
3152 1165 L
3170 1189 L
3186 1141 L
3201 1174 L
3216 1206 L
3229 1179 L
3241 1190 L
3253 1156 L
3264 1185 L
3275 1186 L
3285 1183 L
3295 1188 L
3304 1185 L
3313 1144 L
3322 1190 L
3330 1179 L
3338 1170 L
3346 1174 L
3353 1190 L
3360 1171 L
3367 1162 L
3374 1197 L
3380 1141 L
3387 1198 L
3393 1172 L
3399 1171 L
3405 1161 L
3410 1164 L
3416 1176 L
3421 1157 L
3426 1152 L
3431 1154 L
3436 1170 L
3441 1163 L
3446 1146 L
3451 1157 L
3455 1155 L
3460 1135 L
3464 1141 L
3469 1154 L
3473 1166 L
3477 1153 L
3481 1152 L
3485 1136 L
3489 1139 L
3493 1131 L
3496 1147 L
3500 1165 L
3504 1137 L
3507 1174 L
3511 1170 L
3514 1135 L
3518 1157 L
3521 1147 L
3525 1129 L
3528 1140 L
3531 1197 L
3534 1139 L
3537 1154 L
3540 1121 L
3543 1113 L
3546 1128 L
3549 1119 L
3552 1134 L
3555 1150 L
3558 1120 L
3561 1134 L
3564 1113 L
3566 1106 L
3575 1106 L
3586 1077 L
3595 1141 L
3605 1086 L
3613 1108 L
3622 1096 L
3630 1118 L
3638 1096 L
3646 1090 L
3653 1101 L
3660 1107 L
3667 1091 L
3674 1053 L
3681 1089 L
3687 1085 L
3693 1060 L
3699 1046 L
3705 1063 L
3710 1042 L
3716 1091 L
3721 1057 L
3727 1057 L
3732 1037 L
3737 1054 L
3742 1024 L
3746 1053 L
3751 1052 L
3756 1011 L
3760 985 L
3764 1033 L
3769 1049 L
3773 1010 L
3777 996 L
3781 1012 L
3785 1001 L
3789 1015 L
3793 978 L
3797 1010 L
3800 1013 L
3804 1013 L
3808 989 L
3811 994 L
3815 1016 L
3818 966 L
3821 955 L
3825 1003 L
3828 957 L
3831 982 L
3834 933 L
3838 963 L
3841 941 L
3844 972 L
3847 1008 L
3850 959 L
3853 943 L
3855 962 L
3858 905 L
3861 942 L
3864 954 L
3867 962 L
3869 926 L
3872 962 L
3875 923 L
3877 945 L
3880 941 L
3882 942 L
3885 954 L
3887 902 L
3890 941 L
3892 903 L
3895 915 L
3897 918 L
3899 934 L
3902 916 L
3904 904 L
3906 925 L
3908 891 L
3911 903 L
3913 908 L
3915 917 L
3917 905 L
3919 930 L
3921 903 L
3923 935 L
3926 887 L
3928 916 L
3930 903 L
3932 897 L
3934 894 L
3936 894 L
3938 890 L
3940 875 L
3942 876 L
3943 930 L
3945 883 L
3947 862 L
3949 888 L
3951 877 L
3953 912 L
3955 864 L
3956 903 L
3958 903 L
3960 860 L
3962 889 L
3963 865 L
3965 880 L
3967 881 L
3969 886 L
3970 828 L
3972 887 L
3974 835 L
3975 853 L
3977 848 L
3978 868 L
3980 869 L
3982 805 L
3983 832 L
3985 832 L
3986 852 L
3988 872 L
3990 828 L
3991 834 L
3993 784 L
3994 847 L
3996 822 L
3997 848 L
3999 780 L
4000 828 L
4001 859 L
4003 798 L
4004 802 L
4006 809 L
4007 802 L
4009 820 L
4010 823 L
4011 828 L
4013 822 L
4014 811 L
4016 811 L
4017 788 L
4018 822 L
4020 819 L
4021 754 L
4022 810 L
4024 793 L
4025 812 L
4026 796 L
4028 803 L
4029 821 L
4030 803 L
4031 780 L
4033 768 L
4034 797 L
4035 801 L
4036 768 L
4038 763 L
4039 795 L
4040 803 L
4041 766 L
4042 798 L
4044 785 L
4045 757 L
4046 786 L
4047 786 L
4048 840 L
4050 774 L
4051 771 L
4052 794 L
4053 763 L
4054 780 L
4055 798 L
4056 781 L
4058 780 L
4059 755 L
4060 774 L
4061 781 L
4062 772 L
4063 755 L
4064 750 L
4065 762 L
4066 756 L
L2 C04 COSGR

%
% Main frame
%
L10
GSN 
620 1700 M
4220 1700 L
4220 5300 L
620 5300 L
closepath SGR

%
% X axis: large tics
%
L10
GSN 1074 1700 M 0  54 rL SGR
GSN 1074 5300 M 0 -54 rL SGR
helvS (0.0001) 1074 470 xlabel
GSN 1572 1700 M 0  54 rL SGR
GSN 1572 5300 M 0 -54 rL SGR
helvS (0.001) 1572 470 xlabel
GSN 2071 1700 M 0  54 rL SGR
GSN 2071 5300 M 0 -54 rL SGR
helvS (0.01) 2071 470 xlabel
GSN 2570 1700 M 0  54 rL SGR
GSN 2570 5300 M 0 -54 rL SGR
helvS (0.1) 2570 470 xlabel
GSN 3068 1700 M 0  54 rL SGR
GSN 3068 5300 M 0 -54 rL SGR
helvS (1) 3068 470 xlabel
GSN 3567 1700 M 0  54 rL SGR
GSN 3567 5300 M 0 -54 rL SGR
helvS (10) 3567 470 xlabel
GSN 4066 1700 M 0  54 rL SGR
GSN 4066 5300 M 0 -54 rL SGR
helvS (100) 4066 470 xlabel
%
% X axis: small tics
%
L5
GSN 725 1700 M 0  36 rL SGR
GSN 725 5300 M 0 -36 rL SGR
GSN 813 1700 M 0  36 rL SGR
GSN 813 5300 M 0 -36 rL SGR
GSN 875 1700 M 0  36 rL SGR
GSN 875 5300 M 0 -36 rL SGR
GSN 924 1700 M 0  36 rL SGR
GSN 924 5300 M 0 -36 rL SGR
GSN 963 1700 M 0  36 rL SGR
GSN 963 5300 M 0 -36 rL SGR
GSN 996 1700 M 0  36 rL SGR
GSN 996 5300 M 0 -36 rL SGR
GSN 1025 1700 M 0  36 rL SGR
GSN 1025 5300 M 0 -36 rL SGR
GSN 1051 1700 M 0  36 rL SGR
GSN 1051 5300 M 0 -36 rL SGR
GSN 1224 1700 M 0  36 rL SGR
GSN 1224 5300 M 0 -36 rL SGR
GSN 1312 1700 M 0  36 rL SGR
GSN 1312 5300 M 0 -36 rL SGR
GSN 1374 1700 M 0  36 rL SGR
GSN 1374 5300 M 0 -36 rL SGR
GSN 1422 1700 M 0  36 rL SGR
GSN 1422 5300 M 0 -36 rL SGR
GSN 1462 1700 M 0  36 rL SGR
GSN 1462 5300 M 0 -36 rL SGR
GSN 1495 1700 M 0  36 rL SGR
GSN 1495 5300 M 0 -36 rL SGR
GSN 1524 1700 M 0  36 rL SGR
GSN 1524 5300 M 0 -36 rL SGR
GSN 1550 1700 M 0  36 rL SGR
GSN 1550 5300 M 0 -36 rL SGR
GSN 1722 1700 M 0  36 rL SGR
GSN 1722 5300 M 0 -36 rL SGR
GSN 1810 1700 M 0  36 rL SGR
GSN 1810 5300 M 0 -36 rL SGR
GSN 1873 1700 M 0  36 rL SGR
GSN 1873 5300 M 0 -36 rL SGR
GSN 1921 1700 M 0  36 rL SGR
GSN 1921 5300 M 0 -36 rL SGR
GSN 1960 1700 M 0  36 rL SGR
GSN 1960 5300 M 0 -36 rL SGR
GSN 1994 1700 M 0  36 rL SGR
GSN 1994 5300 M 0 -36 rL SGR
GSN 2023 1700 M 0  36 rL SGR
GSN 2023 5300 M 0 -36 rL SGR
GSN 2048 1700 M 0  36 rL SGR
GSN 2048 5300 M 0 -36 rL SGR
GSN 2221 1700 M 0  36 rL SGR
GSN 2221 5300 M 0 -36 rL SGR
GSN 2309 1700 M 0  36 rL SGR
GSN 2309 5300 M 0 -36 rL SGR
GSN 2371 1700 M 0  36 rL SGR
GSN 2371 5300 M 0 -36 rL SGR
GSN 2420 1700 M 0  36 rL SGR
GSN 2420 5300 M 0 -36 rL SGR
GSN 2459 1700 M 0  36 rL SGR
GSN 2459 5300 M 0 -36 rL SGR
GSN 2492 1700 M 0  36 rL SGR
GSN 2492 5300 M 0 -36 rL SGR
GSN 2521 1700 M 0  36 rL SGR
GSN 2521 5300 M 0 -36 rL SGR
GSN 2547 1700 M 0  36 rL SGR
GSN 2547 5300 M 0 -36 rL SGR
GSN 2720 1700 M 0  36 rL SGR
GSN 2720 5300 M 0 -36 rL SGR
GSN 2808 1700 M 0  36 rL SGR
GSN 2808 5300 M 0 -36 rL SGR
GSN 2870 1700 M 0  36 rL SGR
GSN 2870 5300 M 0 -36 rL SGR
GSN 2918 1700 M 0  36 rL SGR
GSN 2918 5300 M 0 -36 rL SGR
GSN 2958 1700 M 0  36 rL SGR
GSN 2958 5300 M 0 -36 rL SGR
GSN 2991 1700 M 0  36 rL SGR
GSN 2991 5300 M 0 -36 rL SGR
GSN 3020 1700 M 0  36 rL SGR
GSN 3020 5300 M 0 -36 rL SGR
GSN 3045 1700 M 0  36 rL SGR
GSN 3045 5300 M 0 -36 rL SGR
GSN 3218 1700 M 0  36 rL SGR
GSN 3218 5300 M 0 -36 rL SGR
GSN 3306 1700 M 0  36 rL SGR
GSN 3306 5300 M 0 -36 rL SGR
GSN 3368 1700 M 0  36 rL SGR
GSN 3368 5300 M 0 -36 rL SGR
GSN 3417 1700 M 0  36 rL SGR
GSN 3417 5300 M 0 -36 rL SGR
GSN 3456 1700 M 0  36 rL SGR
GSN 3456 5300 M 0 -36 rL SGR
GSN 3490 1700 M 0  36 rL SGR
GSN 3490 5300 M 0 -36 rL SGR
GSN 3519 1700 M 0  36 rL SGR
GSN 3519 5300 M 0 -36 rL SGR
GSN 3544 1700 M 0  36 rL SGR
GSN 3544 5300 M 0 -36 rL SGR
GSN 3717 1700 M 0  36 rL SGR
GSN 3717 5300 M 0 -36 rL SGR
GSN 3805 1700 M 0  36 rL SGR
GSN 3805 5300 M 0 -36 rL SGR
GSN 3867 1700 M 0  36 rL SGR
GSN 3867 5300 M 0 -36 rL SGR
GSN 3915 1700 M 0  36 rL SGR
GSN 3915 5300 M 0 -36 rL SGR
GSN 3955 1700 M 0  36 rL SGR
GSN 3955 5300 M 0 -36 rL SGR
GSN 3988 1700 M 0  36 rL SGR
GSN 3988 5300 M 0 -36 rL SGR
GSN 4017 1700 M 0  36 rL SGR
GSN 4017 5300 M 0 -36 rL SGR
GSN 4043 1700 M 0  36 rL SGR
GSN 4043 5300 M 0 -36 rL SGR
GSN 4216 1700 M 0  36 rL SGR
GSN 4216 5300 M 0 -36 rL SGR
%
% Y axis: large tics
%
L10
GSN 620 2171 M 54 0 rL SGR
GSN 4220 2171 M -54 0 rL SGR
helvS (1) 560 2171 ylabel
GSN 620 3682 M 54 0 rL SGR
GSN 4220 3682 M -54 0 rL SGR
helvS (1.05) 560 3682 ylabel
GSN 620 5193 M 54 0 rL SGR
GSN 4220 5193 M -54 0 rL SGR
helvS (1.1) 560 5193 ylabel
%
% Y axis: small tics
%
L5
GSN 620 1869 M 36 0 rL SGR
GSN 4220 1869 M -36 0 rL SGR
GSN 620 2171 M 36 0 rL SGR
GSN 4220 2171 M -36 0 rL SGR
GSN 620 2473 M 36 0 rL SGR
GSN 4220 2473 M -36 0 rL SGR
GSN 620 2776 M 36 0 rL SGR
GSN 4220 2776 M -36 0 rL SGR
GSN 620 3078 M 36 0 rL SGR
GSN 4220 3078 M -36 0 rL SGR
GSN 620 3380 M 36 0 rL SGR
GSN 4220 3380 M -36 0 rL SGR
GSN 620 3682 M 36 0 rL SGR
GSN 4220 3682 M -36 0 rL SGR
GSN 620 3984 M 36 0 rL SGR
GSN 4220 3984 M -36 0 rL SGR
GSN 620 4287 M 36 0 rL SGR
GSN 4220 4287 M -36 0 rL SGR
GSN 620 4589 M 36 0 rL SGR
GSN 4220 4589 M -36 0 rL SGR
GSN 620 4891 M 36 0 rL SGR
GSN 4220 4891 M -36 0 rL SGR
GSN 620 5193 M 36 0 rL SGR
GSN 4220 5193 M -36 0 rL SGR

%
% X-Axis label:
%
gsave 2420 290 M 
[
[(Helvetica) 180 0 true true 0 (t)]
[(Helvetica) 180 0 true true 0 (i)]
[(Helvetica) 180 0 true true 0 (m)]
[(Helvetica) 180 0 true true 0 (e)]
] 0 MCshow grestore

%
% Y-Axis label:
%
gsave 234 3500 M 
currentpoint gsave translate 90 rotate 0 0 moveto
[
[(Helvetica) 180 0 true true 0 (s)]
[(Helvetica) 180 0 true true 0 (i)]
[(Helvetica) 180 0 true true 0 (g)]
[(Helvetica) 180 0 true true 0 (n)]
[(Helvetica) 180 0 true true 0 (a)]
[(Helvetica) 180 0 true true 0 (l)]
] 0 MCshow grestore

%
% Residuals:
%
gsave 129 1160 M 
currentpoint gsave translate 90 rotate 0 0 moveto
[
[(Helvetica) 150 0 true true 0 (r)]
[(Helvetica) 150 0 true true 0 (e)]
[(Helvetica) 150 0 true true 0 (s)]
[(Helvetica) 150 0 true true 0 (i)]
[(Helvetica) 150 0 true true 0 (d)]
[(Helvetica) 150 0 true true 0 (u)]
[(Helvetica) 150 0 true true 0 (a)]
[(Helvetica) 150 0 true true 0 (l)]
[(Helvetica) 150 0 true true 0 (s)]
] 0 MCshow grestore

%
% Residual frame
%
L10
GSN 
620 620 M
4220 620 L
4220 1700 L
620 1700 L
closepath SGR
%
% X axis: large tics - residual frame
%
L10
GSN 1074 620 M 0  54 rL SGR
GSN 1074 1700 M 0 -54 rL SGR
GSN 1572 620 M 0  54 rL SGR
GSN 1572 1700 M 0 -54 rL SGR
GSN 2071 620 M 0  54 rL SGR
GSN 2071 1700 M 0 -54 rL SGR
GSN 2570 620 M 0  54 rL SGR
GSN 2570 1700 M 0 -54 rL SGR
GSN 3068 620 M 0  54 rL SGR
GSN 3068 1700 M 0 -54 rL SGR
GSN 3567 620 M 0  54 rL SGR
GSN 3567 1700 M 0 -54 rL SGR
GSN 4066 620 M 0  54 rL SGR
GSN 4066 1700 M 0 -54 rL SGR
%
% X axis: small tics - residual frame
%
L5
GSN 725 620 M 0  36 rL SGR
GSN 725 1700 M 0 -36 rL SGR
GSN 813 620 M 0  36 rL SGR
GSN 813 1700 M 0 -36 rL SGR
GSN 875 620 M 0  36 rL SGR
GSN 875 1700 M 0 -36 rL SGR
GSN 924 620 M 0  36 rL SGR
GSN 924 1700 M 0 -36 rL SGR
GSN 963 620 M 0  36 rL SGR
GSN 963 1700 M 0 -36 rL SGR
GSN 996 620 M 0  36 rL SGR
GSN 996 1700 M 0 -36 rL SGR
GSN 1025 620 M 0  36 rL SGR
GSN 1025 1700 M 0 -36 rL SGR
GSN 1051 620 M 0  36 rL SGR
GSN 1051 1700 M 0 -36 rL SGR
GSN 1224 620 M 0  36 rL SGR
GSN 1224 1700 M 0 -36 rL SGR
GSN 1312 620 M 0  36 rL SGR
GSN 1312 1700 M 0 -36 rL SGR
GSN 1374 620 M 0  36 rL SGR
GSN 1374 1700 M 0 -36 rL SGR
GSN 1422 620 M 0  36 rL SGR
GSN 1422 1700 M 0 -36 rL SGR
GSN 1462 620 M 0  36 rL SGR
GSN 1462 1700 M 0 -36 rL SGR
GSN 1495 620 M 0  36 rL SGR
GSN 1495 1700 M 0 -36 rL SGR
GSN 1524 620 M 0  36 rL SGR
GSN 1524 1700 M 0 -36 rL SGR
GSN 1550 620 M 0  36 rL SGR
GSN 1550 1700 M 0 -36 rL SGR
GSN 1722 620 M 0  36 rL SGR
GSN 1722 1700 M 0 -36 rL SGR
GSN 1810 620 M 0  36 rL SGR
GSN 1810 1700 M 0 -36 rL SGR
GSN 1873 620 M 0  36 rL SGR
GSN 1873 1700 M 0 -36 rL SGR
GSN 1921 620 M 0  36 rL SGR
GSN 1921 1700 M 0 -36 rL SGR
GSN 1960 620 M 0  36 rL SGR
GSN 1960 1700 M 0 -36 rL SGR
GSN 1994 620 M 0  36 rL SGR
GSN 1994 1700 M 0 -36 rL SGR
GSN 2023 620 M 0  36 rL SGR
GSN 2023 1700 M 0 -36 rL SGR
GSN 2048 620 M 0  36 rL SGR
GSN 2048 1700 M 0 -36 rL SGR
GSN 2221 620 M 0  36 rL SGR
GSN 2221 1700 M 0 -36 rL SGR
GSN 2309 620 M 0  36 rL SGR
GSN 2309 1700 M 0 -36 rL SGR
GSN 2371 620 M 0  36 rL SGR
GSN 2371 1700 M 0 -36 rL SGR
GSN 2420 620 M 0  36 rL SGR
GSN 2420 1700 M 0 -36 rL SGR
GSN 2459 620 M 0  36 rL SGR
GSN 2459 1700 M 0 -36 rL SGR
GSN 2492 620 M 0  36 rL SGR
GSN 2492 1700 M 0 -36 rL SGR
GSN 2521 620 M 0  36 rL SGR
GSN 2521 1700 M 0 -36 rL SGR
GSN 2547 620 M 0  36 rL SGR
GSN 2547 1700 M 0 -36 rL SGR
GSN 2720 620 M 0  36 rL SGR
GSN 2720 1700 M 0 -36 rL SGR
GSN 2808 620 M 0  36 rL SGR
GSN 2808 1700 M 0 -36 rL SGR
GSN 2870 620 M 0  36 rL SGR
GSN 2870 1700 M 0 -36 rL SGR
GSN 2918 620 M 0  36 rL SGR
GSN 2918 1700 M 0 -36 rL SGR
GSN 2958 620 M 0  36 rL SGR
GSN 2958 1700 M 0 -36 rL SGR
GSN 2991 620 M 0  36 rL SGR
GSN 2991 1700 M 0 -36 rL SGR
GSN 3020 620 M 0  36 rL SGR
GSN 3020 1700 M 0 -36 rL SGR
GSN 3045 620 M 0  36 rL SGR
GSN 3045 1700 M 0 -36 rL SGR
GSN 3218 620 M 0  36 rL SGR
GSN 3218 1700 M 0 -36 rL SGR
GSN 3306 620 M 0  36 rL SGR
GSN 3306 1700 M 0 -36 rL SGR
GSN 3368 620 M 0  36 rL SGR
GSN 3368 1700 M 0 -36 rL SGR
GSN 3417 620 M 0  36 rL SGR
GSN 3417 1700 M 0 -36 rL SGR
GSN 3456 620 M 0  36 rL SGR
GSN 3456 1700 M 0 -36 rL SGR
GSN 3490 620 M 0  36 rL SGR
GSN 3490 1700 M 0 -36 rL SGR
GSN 3519 620 M 0  36 rL SGR
GSN 3519 1700 M 0 -36 rL SGR
GSN 3544 620 M 0  36 rL SGR
GSN 3544 1700 M 0 -36 rL SGR
GSN 3717 620 M 0  36 rL SGR
GSN 3717 1700 M 0 -36 rL SGR
GSN 3805 620 M 0  36 rL SGR
GSN 3805 1700 M 0 -36 rL SGR
GSN 3867 620 M 0  36 rL SGR
GSN 3867 1700 M 0 -36 rL SGR
GSN 3915 620 M 0  36 rL SGR
GSN 3915 1700 M 0 -36 rL SGR
GSN 3955 620 M 0  36 rL SGR
GSN 3955 1700 M 0 -36 rL SGR
GSN 3988 620 M 0  36 rL SGR
GSN 3988 1700 M 0 -36 rL SGR
GSN 4017 620 M 0  36 rL SGR
GSN 4017 1700 M 0 -36 rL SGR
GSN 4043 620 M 0  36 rL SGR
GSN 4043 1700 M 0 -36 rL SGR
GSN 4216 620 M 0  36 rL SGR
GSN 4216 1700 M 0 -36 rL SGR
%
% Y axis: large tics - residual frame
%
L10
GSN 620 687 M 54 0 rL SGR
GSN 4220 687 M -54 0 rL SGR
helvS (-0.1) 560 687 ylabelresid
GSN 620 1031 M 54 0 rL SGR
GSN 4220 1031 M -54 0 rL SGR
helvS (-0.05) 560 1031 ylabelresid
GSN 620 1375 M 54 0 rL SGR
GSN 4220 1375 M -54 0 rL SGR
helvS (0) 560 1375 ylabelresid

%
% X axis - residual panel
%
GSN L5 620 1375 M 4220 1375 L SDA G50 SGR

end
showpage
%%Trailer
%%EOF
