%!PS-Adobe-3.0 EPSF-3.0
%%BoundingBox: 0 0 514 550
%%Creator: BioKin Ltd.
%%DocumentFonts: Symbol Helvetica
%%EndComments
%
/bkdict 256 dict def
bkdict begin
/M {moveto} def 
/R {rmoveto} def
/L {lineto} def
/rL {rlineto} def
/GSN {gsave newpath} def
/SGR {stroke grestore} def
/COSGR {gsave setrgbcolor stroke grestore grestore} def
/SL {setlinewidth} def
/LWMB {12} def             % line width - model curves, black & white
/LWMC {10} def             % line width - model curves, color
/L2 {2.5 setlinewidth} def
/L5 {5 setlinewidth} def
/L10 {10 setlinewidth} def
/G50 {0.5 setgray} def
/SDA {[10  20] 0 setdash} def % axes
/helvT {/Helvetica findfont 100 scalefont setfont} def % tiny
/helvS {/Helvetica findfont 125 scalefont setfont} def % small
/helvM {/Helvetica findfont 150 scalefont setfont} def % medium
/helvL {/Helvetica findfont 175 scalefont setfont} def % large
/xlabel {gsave M dup
   stringwidth exch -0.5 mul exch rmoveto show grestore} def 
/ylabel {gsave M 90 rotate dup
   stringwidth exch -0.5 mul exch rmoveto show grestore} def
/ylabelresid {gsave M dup
   stringwidth exch -1 mul exch rmoveto show grestore} def
% ======
% Shapes
% ======
% Circle:
/Circ {0 360 arc closepath} def
%
% Square:
/Squa {dup dup -0.5 mul dup dup R -2 mul 0 exch rL 1 mul 0 rL dup 0 exch -1 mul rL closepath} def
%
% Triangle Up:
/TriU {dup dup dup -0.4 mul exch -0.5 mul exch R dup 0.5 mul exch rL dup -1 mul exch 0.5 mul exch rL closepath} def 
%
% Triangle Down:
/TriD {dup dup dup 0.4 mul exch -0.5 mul exch R dup 0.5 mul exch -1 mul rL dup 0.5 mul exch rL closepath} def 
%
% Diamond:
/Diam {45 rotate Squa} def
% ======
% Fills
% ======
/GRF {gsave setgray fill grestore} def                    % gray-level Fill
/COF {gsave setrgbcolor fill grestore} def                % color fill
% ======
% Colors
% ======
/C01 {1.00	0.00	0.00} def      % Red
/C02 {0.00	0.00	1.00} def      % Blue
/C03 {0.00	0.39	0.00} def      % Dark Green
/C04 {0.78	0.08	0.52} def      % Medium Violet Red
/C05 {0.55	0.27	0.07} def      % Saddle Brown
/C06 {0.10	0.70	0.70} def      % (cyan)
/C07 {1.00	0.55	0.00} def      % Dark Orange
/C08 {0.63	0.13	0.94} def      % Purple
/C09 {0.00	0.75	1.00} def      % Deep Sky Blue
/C10 {0.20	0.80	0.20} def      % Lime Green
/C11 {0.47	0.53	0.60} def      % Light Slate Gray
/C12 {0.00	0.00	0.00} def      % Black            % or: {0.19	0.31	0.31} def      % Dark Slate Gray
%
/LGR {0.75} def % light gray
/DGR {0.33} def % dark gray
%
% =============
% Dash patterns
% =============
/dash01 { [80  20] 0 setdash } def
/dash02 { [40  20] 0 setdash } def
/dash03 { [80  20  10  20] 0 setdash } def
/dash04 { [40  20  10  20] 0 setdash } def
/dash05 { [80  20  10  10  10  20] 0 setdash } def
/dash06 { [40  20  10  10  10  20] 0 setdash } def
/dash07 { [10  10] 0 setdash } def
%
/MFshow {
   { dup 5 get 3 ge
     { 5 get 3 eq {gsave} {grestore} ifelse }
     {dup dup 0 get findfont exch 1 get scalefont setfont
     [ currentpoint ] exch dup 2 get 0 exch R dup 5 get 2 ne {dup dup 6
     get exch 4 get {show} {stringwidth pop 0 R} ifelse }if dup 5 get 0 eq
     {dup 3 get {2 get neg 0 exch R pop} {pop aload pop M} ifelse} {dup 5
     get 1 eq {dup 2 get exch dup 3 get exch 6 get stringwidth pop -2 div
     dup 0 R} {dup 6 get stringwidth pop -2 div 0 R 6 get
     show 2 index {aload pop M neg 3 -1 roll neg R pop pop} {pop pop pop
     pop aload pop M} ifelse }ifelse }ifelse }
     ifelse }
   forall} bind def
/MFwidth {0 exch {dup 3 get{dup dup 0 get findfont exch 1 get scalefont
     setfont 6 get stringwidth pop add} {pop} ifelse} forall} bind def
/MCshow { currentpoint stroke M
  exch dup MFwidth -2 div 3 -1 roll R MFshow } def
%
end
%%EndProlog
bkdict begin
0.1 0.1 scale
%
% Model curves:
%

GSN 753 2703 M
753 2703 L
786 2703 L
820 2703 L
853 2703 L
886 2703 L
903 2703 L
919 2703 L
953 2703 L
986 2703 L
1020 2703 L
1053 2703 L
1053 2703 L
1086 2703 L
1120 2703 L
1153 2703 L
1186 2703 L
1203 2703 L
1220 2703 L
1253 2703 L
1286 2703 L
1320 2703 L
1353 2703 L
1353 2703 L
1386 2703 L
1420 2703 L
1453 2703 L
1486 2703 L
1503 2703 L
1520 2703 L
1553 2703 L
1586 2703 L
1620 2703 L
1653 2703 L
1653 2703 L
1686 2703 L
1720 2703 L
1753 2703 L
1786 2703 L
1804 2703 L
1820 2703 L
1853 2703 L
1886 2703 L
1920 2703 L
1953 2703 L
1954 2703 L
1986 2703 L
2020 2703 L
2053 2703 L
2086 2703 L
2104 2703 L
2120 2703 L
2153 2703 L
2186 2703 L
2220 2703 L
2253 2703 L
2254 2703 L
2286 2703 L
2320 2703 L
2353 2703 L
2386 2703 L
2404 2703 L
2420 2703 L
2453 2703 L
2486 2703 L
2520 2703 L
2553 2703 L
2554 2703 L
2586 2703 L
2620 2703 L
2653 2703 L
2686 2703 L
2704 2703 L
2720 2703 L
2753 2702 L
2786 2702 L
2820 2702 L
2853 2702 L
2854 2702 L
2886 2702 L
2920 2702 L
2953 2702 L
2986 2702 L
3004 2702 L
3020 2702 L
3053 2702 L
3068 2702 L
3086 2701 L
3120 2701 L
3153 2701 L
3155 2701 L
3186 2701 L
3220 2700 L
3253 2700 L
3286 2699 L
3305 2699 L
3320 2699 L
3353 2698 L
3386 2697 L
3420 2696 L
3453 2695 L
3455 2695 L
3486 2694 L
3520 2693 L
3553 2691 L
3586 2689 L
3605 2688 L
3620 2687 L
3653 2684 L
3686 2681 L
3720 2678 L
3753 2673 L
3755 2673 L
3786 2668 L
3820 2663 L
3853 2656 L
3886 2648 L
3905 2644 L
3920 2639 L
3953 2629 L
3986 2617 L
4020 2603 L
4053 2586 L
4086 2567 L
LWMC SL  C03 COSGR

%
% Experimental data:
%
GSN 773 4936 M
1625 4728 L
1773 4804 L
1860 5166 L
1922 5101 L
1970 4881 L
2009 4816 L
2043 4688 L
2072 4661 L
2097 4630 L
2120 4530 L
2140 4668 L
2159 4418 L
2176 4548 L
2192 4526 L
2207 4377 L
2221 4322 L
2234 4344 L
2247 4234 L
2259 4309 L
2270 4209 L
2280 4188 L
2290 4249 L
2300 4278 L
2309 3975 L
2318 4115 L
2326 4309 L
2335 4068 L
2342 4086 L
2350 4026 L
2357 3965 L
2364 3947 L
2371 3803 L
2378 4020 L
2384 3933 L
2391 3880 L
2397 3728 L
2403 3931 L
2409 3892 L
2414 3694 L
2420 3710 L
2425 3705 L
2430 3727 L
2435 3527 L
2440 3464 L
2445 3736 L
2450 3557 L
2455 3433 L
2459 3469 L
2464 3596 L
2468 3263 L
2472 3311 L
2476 3449 L
2481 3497 L
2485 3309 L
2489 3473 L
2492 3453 L
2496 3376 L
2500 3199 L
2504 3431 L
2507 3541 L
2511 3397 L
2514 3142 L
2518 3024 L
2521 3255 L
2525 3152 L
2528 3137 L
2531 3178 L
2534 3222 L
2538 2979 L
2541 3373 L
2544 3115 L
2547 3065 L
2550 3040 L
2553 3171 L
2556 2895 L
2559 3289 L
2561 3144 L
2564 3224 L
2567 2960 L
2570 3050 L
2580 2937 L
2590 2899 L
2600 2798 L
2609 2727 L
2618 2706 L
2627 2712 L
2635 2837 L
2643 2552 L
2650 2566 L
2658 2762 L
2665 2568 L
2672 2584 L
2678 2512 L
2685 2484 L
2691 2519 L
2697 2196 L
2703 2460 L
2709 2376 L
2714 2318 L
2720 2369 L
2725 2312 L
2730 2076 L
2735 2176 L
2740 2433 L
2745 2149 L
2750 2271 L
2755 2411 L
2759 2167 L
2764 2194 L
2768 2026 L
2772 1964 L
2777 2063 L
2781 2013 L
2785 2053 L
2789 2024 L
2793 2088 L
2796 2025 L
2800 2017 L
2804 2135 L
2808 1918 L
2811 2004 L
2815 2030 L
2818 2005 L
2822 1891 L
2825 1963 L
2828 2173 L
2831 2009 L
2835 2052 L
2838 1890 L
2841 2078 L
2844 2057 L
2847 1932 L
2850 1848 L
2853 2329 L
2856 2053 L
2859 1915 L
2862 1833 L
2864 2038 L
2867 2137 L
2870 1922 L
2873 1974 L
2875 2245 L
2878 2043 L
2880 2083 L
2883 2138 L
2886 2012 L
2888 2159 L
2891 1922 L
2893 1999 L
2895 2156 L
2898 2091 L
2900 2127 L
2902 1996 L
2905 2166 L
2907 2299 L
2909 2040 L
2912 2236 L
2914 1995 L
2916 2037 L
2918 2178 L
2920 1960 L
2922 2220 L
2925 2266 L
2927 2137 L
2929 2142 L
2931 2061 L
2933 2235 L
2935 2162 L
2937 1902 L
2939 2070 L
2941 2298 L
2943 2183 L
2945 2021 L
2947 2031 L
2948 2213 L
2950 2252 L
2952 1997 L
2954 2215 L
2956 2048 L
2958 2135 L
2959 2145 L
2961 1956 L
2963 2343 L
2965 2148 L
2966 2163 L
2968 2483 L
2970 2298 L
2972 2345 L
2973 2351 L
2975 2342 L
2977 2171 L
2978 2208 L
2980 2236 L
2982 1911 L
2983 2123 L
2985 2320 L
2986 2334 L
2988 2126 L
2989 2141 L
2991 2342 L
2993 2229 L
2994 2287 L
2996 2411 L
2997 2197 L
2999 2305 L
3000 2224 L
3002 2269 L
3003 2226 L
3005 2389 L
3006 2435 L
3007 2423 L
3009 2248 L
3010 2313 L
3012 2187 L
3013 2435 L
3014 2222 L
3016 2327 L
3017 2480 L
3019 2331 L
3020 2387 L
3021 2420 L
3023 2310 L
3024 2253 L
3025 2322 L
3027 2489 L
3028 2449 L
3029 2385 L
3031 2493 L
3032 2372 L
3033 2226 L
3034 2379 L
3036 2279 L
3037 2428 L
3038 2355 L
3039 2427 L
3041 2452 L
3042 2540 L
3043 2377 L
3044 2417 L
3045 2502 L
3047 2339 L
3048 2499 L
3049 2416 L
3050 2429 L
3051 2276 L
3053 2199 L
3054 2612 L
3055 2566 L
3056 2540 L
3057 2502 L
3058 2338 L
3059 2580 L
3061 2332 L
3062 2510 L
3063 2551 L
3064 2600 L
3065 2652 L
3066 2530 L
3067 2478 L
3068 2486 L
3069 2378 L
3070 2535 L
3071 2526 L
3073 2593 L
3074 2543 L
3075 2648 L
3076 2371 L
3077 2618 L
3078 2381 L
3079 2660 L
3080 2342 L
3081 2405 L
3082 2337 L
3083 2625 L
3084 2393 L
3085 2596 L
3086 2320 L
3087 2559 L
3088 2685 L
3089 2544 L
3112 2767 L
3133 2767 L
3152 2840 L
3170 2687 L
3186 2655 L
3201 2910 L
3216 2872 L
3229 2535 L
3241 2759 L
3253 2799 L
3264 2767 L
3275 2884 L
3285 3001 L
3295 2855 L
3304 2873 L
3313 2881 L
3322 2912 L
3330 2903 L
3338 2947 L
3346 2886 L
3353 2684 L
3360 2709 L
3367 2749 L
3374 2776 L
3380 3016 L
3387 2829 L
3393 2966 L
3399 2884 L
3405 3048 L
3410 2995 L
3416 2877 L
3421 3034 L
3426 2825 L
3431 3050 L
3436 2822 L
3441 3057 L
3446 2849 L
3451 2983 L
3455 2990 L
3460 2816 L
3464 2847 L
3469 2871 L
3473 2853 L
3477 2951 L
3481 2762 L
3485 3035 L
3489 2807 L
3493 2660 L
3496 2906 L
3500 2577 L
3504 2824 L
3507 2766 L
3511 2815 L
3514 2640 L
3518 3079 L
3521 2588 L
3525 2778 L
3528 2829 L
3531 2906 L
3534 2721 L
3537 2804 L
3540 2860 L
3543 2864 L
3546 2890 L
3549 2867 L
3552 2825 L
3555 2775 L
3558 2561 L
3561 2520 L
3564 2880 L
3566 2860 L
3575 2759 L
3586 2638 L
3595 2727 L
3605 2836 L
3613 2808 L
3622 2810 L
3630 2773 L
3638 2830 L
3646 2756 L
3653 2840 L
3660 2675 L
3667 2499 L
3674 2674 L
3681 2704 L
3687 2825 L
3693 2699 L
3699 2668 L
3705 2827 L
3710 3014 L
3716 2627 L
3721 2717 L
3727 2755 L
3732 2785 L
3737 2662 L
3742 2578 L
3746 2532 L
3751 2624 L
3756 2908 L
3760 2836 L
3764 2578 L
3769 2658 L
3773 2619 L
3777 2588 L
3781 2483 L
3785 2760 L
3789 2516 L
3793 2584 L
3797 2740 L
3800 2827 L
3804 2459 L
3808 2652 L
3811 2696 L
3815 2550 L
3818 2491 L
3821 2654 L
3825 2613 L
3828 2411 L
3831 2596 L
3834 2494 L
3838 2706 L
3841 2758 L
3844 2515 L
3847 2415 L
3850 2766 L
3853 2400 L
3855 2530 L
3858 2706 L
3861 2626 L
3864 2547 L
3867 2567 L
3869 2548 L
3872 2574 L
3875 2698 L
3877 2498 L
3880 2448 L
3882 2509 L
3885 2578 L
3887 2660 L
3890 2396 L
3892 2575 L
3895 2474 L
3897 2549 L
3899 2520 L
3902 2554 L
3904 2556 L
3906 2361 L
3908 2774 L
3911 2532 L
3913 2563 L
3915 2563 L
3917 2242 L
3919 2580 L
3921 2439 L
3923 2662 L
3926 2486 L
3928 2593 L
3930 2569 L
3932 2620 L
3934 2573 L
3936 2576 L
3938 2593 L
3940 2430 L
3942 2582 L
3943 2386 L
3945 2453 L
3947 2668 L
3949 2463 L
3951 2586 L
3953 2612 L
3955 2624 L
3956 2439 L
3958 2331 L
3960 2433 L
3962 2324 L
3963 2550 L
3965 2554 L
3967 2461 L
3969 2429 L
3970 2412 L
3972 2396 L
3974 2449 L
3975 2537 L
3977 2489 L
3978 2281 L
3980 2476 L
3982 2523 L
3983 2442 L
3985 2238 L
3986 2358 L
3988 2646 L
3990 2533 L
3991 2490 L
3993 2309 L
3994 2293 L
3996 2382 L
3997 2338 L
3999 2520 L
4000 2325 L
4001 2283 L
4003 2485 L
4004 2453 L
4006 2458 L
4007 2662 L
4009 2324 L
4010 2536 L
4011 2449 L
4013 2246 L
4014 2296 L
4016 2438 L
4017 2492 L
4018 2390 L
4020 2394 L
4021 2479 L
4022 2493 L
4024 2673 L
4025 2575 L
4026 2641 L
4028 2353 L
4029 2393 L
4030 2503 L
4031 2522 L
4033 2392 L
4034 2442 L
4035 2351 L
4036 2557 L
4038 2387 L
4039 2427 L
4040 2587 L
4041 2625 L
4042 2441 L
4044 2501 L
4045 2531 L
4046 2499 L
4047 2306 L
4048 2483 L
4050 2570 L
4051 2364 L
4052 2458 L
4053 2439 L
4054 2482 L
4055 2298 L
4056 2478 L
4058 2506 L
4059 2614 L
4060 2382 L
4061 2504 L
4062 2336 L
4063 2516 L
4064 2426 L
4065 2489 L
4066 2471 L
L2 C03 COSGR

%
%================
% Legend - Begin
%================
%
GSN 4240 5180 M
4480 5180 L
LWMC SL  C03 COSGR
GSN 4540 5141 M helvM (1.5 uM) show grestore
%
%================
% Legend - End
%================
%

%
% Residuals:
%
GSN 773 1512 M
1625 1461 L
1773 1480 L
1860 1569 L
1922 1553 L
1970 1499 L
2009 1483 L
2043 1451 L
2072 1444 L
2097 1437 L
2120 1412 L
2140 1446 L
2159 1385 L
2176 1417 L
2192 1411 L
2207 1375 L
2221 1361 L
2234 1367 L
2247 1340 L
2259 1358 L
2270 1334 L
2280 1329 L
2290 1343 L
2300 1350 L
2309 1276 L
2318 1311 L
2326 1358 L
2335 1299 L
2342 1303 L
2350 1289 L
2357 1274 L
2364 1269 L
2371 1234 L
2378 1287 L
2384 1266 L
2391 1253 L
2397 1216 L
2403 1265 L
2409 1256 L
2414 1207 L
2420 1211 L
2425 1210 L
2430 1215 L
2435 1166 L
2440 1151 L
2445 1217 L
2450 1173 L
2455 1143 L
2459 1152 L
2464 1183 L
2468 1101 L
2472 1113 L
2476 1147 L
2481 1159 L
2485 1113 L
2489 1153 L
2492 1148 L
2496 1129 L
2500 1086 L
2504 1143 L
2507 1170 L
2511 1134 L
2514 1072 L
2518 1043 L
2521 1099 L
2525 1074 L
2528 1070 L
2531 1080 L
2534 1091 L
2538 1032 L
2541 1128 L
2544 1065 L
2547 1053 L
2550 1047 L
2553 1079 L
2556 1011 L
2559 1108 L
2561 1072 L
2564 1092 L
2567 1027 L
2570 1049 L
2580 1021 L
2590 1012 L
2600 987 L
2609 970 L
2618 965 L
2627 966 L
2635 997 L
2643 927 L
2650 930 L
2658 979 L
2665 931 L
2672 935 L
2678 917 L
2685 910 L
2691 919 L
2697 839 L
2703 904 L
2709 884 L
2714 870 L
2720 882 L
2725 868 L
2730 810 L
2735 835 L
2740 898 L
2745 828 L
2750 858 L
2755 892 L
2759 833 L
2764 839 L
2768 798 L
2772 783 L
2777 807 L
2781 794 L
2785 804 L
2789 797 L
2793 813 L
2796 798 L
2800 796 L
2804 825 L
2808 771 L
2811 792 L
2815 799 L
2818 793 L
2822 765 L
2825 782 L
2828 834 L
2831 794 L
2835 804 L
2838 764 L
2841 811 L
2844 805 L
2847 775 L
2850 754 L
2853 872 L
2856 804 L
2859 771 L
2862 750 L
2864 801 L
2867 825 L
2870 772 L
2873 785 L
2875 852 L
2878 802 L
2880 812 L
2883 825 L
2886 794 L
2888 831 L
2891 772 L
2893 791 L
2895 830 L
2898 814 L
2900 823 L
2902 790 L
2905 832 L
2907 865 L
2909 801 L
2912 849 L
2914 790 L
2916 801 L
2918 835 L
2920 782 L
2922 845 L
2925 857 L
2927 825 L
2929 826 L
2931 806 L
2933 849 L
2935 831 L
2937 767 L
2939 809 L
2941 865 L
2943 836 L
2945 797 L
2947 799 L
2948 844 L
2950 853 L
2952 791 L
2954 844 L
2956 803 L
2958 825 L
2959 827 L
2961 781 L
2963 876 L
2965 828 L
2966 832 L
2968 910 L
2970 865 L
2972 876 L
2973 878 L
2975 875 L
2977 834 L
2978 843 L
2980 849 L
2982 770 L
2983 822 L
2985 870 L
2986 874 L
2988 822 L
2989 826 L
2991 875 L
2993 848 L
2994 862 L
2996 892 L
2997 840 L
2999 866 L
3000 847 L
3002 858 L
3003 847 L
3005 887 L
3006 898 L
3007 895 L
3009 852 L
3010 869 L
3012 838 L
3013 898 L
3014 846 L
3016 872 L
3017 909 L
3019 873 L
3020 886 L
3021 895 L
3023 868 L
3024 854 L
3025 871 L
3027 912 L
3028 902 L
3029 886 L
3031 913 L
3032 883 L
3033 847 L
3034 885 L
3036 860 L
3037 897 L
3038 879 L
3039 896 L
3041 903 L
3042 924 L
3043 884 L
3044 894 L
3045 915 L
3047 875 L
3048 914 L
3049 894 L
3050 897 L
3051 859 L
3053 841 L
3054 942 L
3055 931 L
3056 924 L
3057 915 L
3058 875 L
3059 934 L
3061 873 L
3062 917 L
3063 927 L
3064 939 L
3065 952 L
3066 922 L
3067 909 L
3068 911 L
3069 884 L
3070 923 L
3071 921 L
3073 937 L
3074 925 L
3075 951 L
3076 883 L
3077 943 L
3078 885 L
3079 954 L
3080 876 L
3081 891 L
3082 874 L
3083 945 L
3084 888 L
3085 938 L
3086 870 L
3087 929 L
3088 960 L
3089 925 L
3112 980 L
3133 980 L
3152 998 L
3170 960 L
3186 953 L
3201 1015 L
3216 1006 L
3229 923 L
3241 978 L
3253 988 L
3264 980 L
3275 1009 L
3285 1038 L
3295 1002 L
3304 1007 L
3313 1009 L
3322 1016 L
3330 1014 L
3338 1025 L
3346 1010 L
3353 960 L
3360 967 L
3367 976 L
3374 983 L
3380 1042 L
3387 996 L
3393 1030 L
3399 1010 L
3405 1050 L
3410 1037 L
3416 1008 L
3421 1047 L
3426 995 L
3431 1051 L
3436 995 L
3441 1052 L
3446 1002 L
3451 1034 L
3455 1036 L
3460 994 L
3464 1001 L
3469 1007 L
3473 1003 L
3477 1027 L
3481 981 L
3485 1048 L
3489 992 L
3493 955 L
3496 1016 L
3500 935 L
3504 996 L
3507 982 L
3511 994 L
3514 951 L
3518 1059 L
3521 938 L
3525 985 L
3528 997 L
3531 1016 L
3534 971 L
3537 991 L
3540 1005 L
3543 1006 L
3546 1013 L
3549 1007 L
3552 997 L
3555 985 L
3558 932 L
3561 922 L
3564 1010 L
3566 1005 L
3575 981 L
3586 951 L
3595 973 L
3605 1000 L
3613 993 L
3622 994 L
3630 985 L
3638 999 L
3646 981 L
3653 1002 L
3660 962 L
3667 919 L
3674 962 L
3681 969 L
3687 999 L
3693 968 L
3699 961 L
3705 1000 L
3710 1046 L
3716 951 L
3721 973 L
3727 983 L
3732 991 L
3737 960 L
3742 940 L
3746 929 L
3751 952 L
3756 1021 L
3760 1004 L
3764 941 L
3769 961 L
3773 951 L
3777 944 L
3781 918 L
3785 986 L
3789 927 L
3793 943 L
3797 982 L
3800 1003 L
3804 913 L
3808 961 L
3811 972 L
3815 936 L
3818 922 L
3821 962 L
3825 952 L
3828 902 L
3831 948 L
3834 923 L
3838 975 L
3841 988 L
3844 929 L
3847 904 L
3850 991 L
3853 901 L
3855 933 L
3858 976 L
3861 957 L
3864 938 L
3867 943 L
3869 938 L
3872 945 L
3875 975 L
3877 926 L
3880 914 L
3882 929 L
3885 946 L
3887 967 L
3890 902 L
3892 946 L
3895 921 L
3897 940 L
3899 933 L
3902 942 L
3904 942 L
3906 895 L
3908 996 L
3911 937 L
3913 945 L
3915 945 L
3917 866 L
3919 949 L
3921 915 L
3923 970 L
3926 927 L
3928 953 L
3930 947 L
3932 960 L
3934 949 L
3936 950 L
3938 954 L
3940 914 L
3942 951 L
3943 903 L
3945 920 L
3947 973 L
3949 923 L
3951 953 L
3953 960 L
3955 963 L
3956 918 L
3958 891 L
3960 916 L
3962 890 L
3963 945 L
3965 946 L
3967 924 L
3969 916 L
3970 912 L
3972 908 L
3974 921 L
3975 943 L
3977 931 L
3978 881 L
3980 929 L
3982 940 L
3983 921 L
3985 871 L
3986 900 L
3988 971 L
3990 944 L
3991 933 L
3993 889 L
3994 885 L
3996 907 L
3997 896 L
3999 941 L
4000 894 L
4001 883 L
4003 933 L
4004 926 L
4006 927 L
4007 977 L
4009 894 L
4010 946 L
4011 925 L
4013 876 L
4014 888 L
4016 923 L
4017 936 L
4018 912 L
4020 913 L
4021 934 L
4022 937 L
4024 982 L
4025 958 L
4026 974 L
4028 904 L
4029 913 L
4030 941 L
4031 945 L
4033 914 L
4034 926 L
4035 904 L
4036 955 L
4038 913 L
4039 923 L
4040 962 L
4041 972 L
4042 927 L
4044 942 L
4045 949 L
4046 942 L
4047 894 L
4048 938 L
4050 960 L
4051 909 L
4052 932 L
4053 928 L
4054 938 L
4055 893 L
4056 938 L
4058 945 L
4059 971 L
4060 915 L
4061 945 L
4062 904 L
4063 948 L
4064 926 L
4065 942 L
4066 937 L
L2 C03 COSGR

%
% Main frame
%
L10
GSN 
620 1700 M
4220 1700 L
4220 5300 L
620 5300 L
closepath SGR

%
% X axis: large tics
%
L10
GSN 1074 1700 M 0  54 rL SGR
GSN 1074 5300 M 0 -54 rL SGR
helvS (0.0001) 1074 470 xlabel
GSN 1572 1700 M 0  54 rL SGR
GSN 1572 5300 M 0 -54 rL SGR
helvS (0.001) 1572 470 xlabel
GSN 2071 1700 M 0  54 rL SGR
GSN 2071 5300 M 0 -54 rL SGR
helvS (0.01) 2071 470 xlabel
GSN 2570 1700 M 0  54 rL SGR
GSN 2570 5300 M 0 -54 rL SGR
helvS (0.1) 2570 470 xlabel
GSN 3068 1700 M 0  54 rL SGR
GSN 3068 5300 M 0 -54 rL SGR
helvS (1) 3068 470 xlabel
GSN 3567 1700 M 0  54 rL SGR
GSN 3567 5300 M 0 -54 rL SGR
helvS (10) 3567 470 xlabel
GSN 4066 1700 M 0  54 rL SGR
GSN 4066 5300 M 0 -54 rL SGR
helvS (100) 4066 470 xlabel
%
% X axis: small tics
%
L5
GSN 725 1700 M 0  36 rL SGR
GSN 725 5300 M 0 -36 rL SGR
GSN 813 1700 M 0  36 rL SGR
GSN 813 5300 M 0 -36 rL SGR
GSN 875 1700 M 0  36 rL SGR
GSN 875 5300 M 0 -36 rL SGR
GSN 924 1700 M 0  36 rL SGR
GSN 924 5300 M 0 -36 rL SGR
GSN 963 1700 M 0  36 rL SGR
GSN 963 5300 M 0 -36 rL SGR
GSN 996 1700 M 0  36 rL SGR
GSN 996 5300 M 0 -36 rL SGR
GSN 1025 1700 M 0  36 rL SGR
GSN 1025 5300 M 0 -36 rL SGR
GSN 1051 1700 M 0  36 rL SGR
GSN 1051 5300 M 0 -36 rL SGR
GSN 1224 1700 M 0  36 rL SGR
GSN 1224 5300 M 0 -36 rL SGR
GSN 1312 1700 M 0  36 rL SGR
GSN 1312 5300 M 0 -36 rL SGR
GSN 1374 1700 M 0  36 rL SGR
GSN 1374 5300 M 0 -36 rL SGR
GSN 1422 1700 M 0  36 rL SGR
GSN 1422 5300 M 0 -36 rL SGR
GSN 1462 1700 M 0  36 rL SGR
GSN 1462 5300 M 0 -36 rL SGR
GSN 1495 1700 M 0  36 rL SGR
GSN 1495 5300 M 0 -36 rL SGR
GSN 1524 1700 M 0  36 rL SGR
GSN 1524 5300 M 0 -36 rL SGR
GSN 1550 1700 M 0  36 rL SGR
GSN 1550 5300 M 0 -36 rL SGR
GSN 1722 1700 M 0  36 rL SGR
GSN 1722 5300 M 0 -36 rL SGR
GSN 1810 1700 M 0  36 rL SGR
GSN 1810 5300 M 0 -36 rL SGR
GSN 1873 1700 M 0  36 rL SGR
GSN 1873 5300 M 0 -36 rL SGR
GSN 1921 1700 M 0  36 rL SGR
GSN 1921 5300 M 0 -36 rL SGR
GSN 1960 1700 M 0  36 rL SGR
GSN 1960 5300 M 0 -36 rL SGR
GSN 1994 1700 M 0  36 rL SGR
GSN 1994 5300 M 0 -36 rL SGR
GSN 2023 1700 M 0  36 rL SGR
GSN 2023 5300 M 0 -36 rL SGR
GSN 2048 1700 M 0  36 rL SGR
GSN 2048 5300 M 0 -36 rL SGR
GSN 2221 1700 M 0  36 rL SGR
GSN 2221 5300 M 0 -36 rL SGR
GSN 2309 1700 M 0  36 rL SGR
GSN 2309 5300 M 0 -36 rL SGR
GSN 2371 1700 M 0  36 rL SGR
GSN 2371 5300 M 0 -36 rL SGR
GSN 2420 1700 M 0  36 rL SGR
GSN 2420 5300 M 0 -36 rL SGR
GSN 2459 1700 M 0  36 rL SGR
GSN 2459 5300 M 0 -36 rL SGR
GSN 2492 1700 M 0  36 rL SGR
GSN 2492 5300 M 0 -36 rL SGR
GSN 2521 1700 M 0  36 rL SGR
GSN 2521 5300 M 0 -36 rL SGR
GSN 2547 1700 M 0  36 rL SGR
GSN 2547 5300 M 0 -36 rL SGR
GSN 2720 1700 M 0  36 rL SGR
GSN 2720 5300 M 0 -36 rL SGR
GSN 2808 1700 M 0  36 rL SGR
GSN 2808 5300 M 0 -36 rL SGR
GSN 2870 1700 M 0  36 rL SGR
GSN 2870 5300 M 0 -36 rL SGR
GSN 2918 1700 M 0  36 rL SGR
GSN 2918 5300 M 0 -36 rL SGR
GSN 2958 1700 M 0  36 rL SGR
GSN 2958 5300 M 0 -36 rL SGR
GSN 2991 1700 M 0  36 rL SGR
GSN 2991 5300 M 0 -36 rL SGR
GSN 3020 1700 M 0  36 rL SGR
GSN 3020 5300 M 0 -36 rL SGR
GSN 3045 1700 M 0  36 rL SGR
GSN 3045 5300 M 0 -36 rL SGR
GSN 3218 1700 M 0  36 rL SGR
GSN 3218 5300 M 0 -36 rL SGR
GSN 3306 1700 M 0  36 rL SGR
GSN 3306 5300 M 0 -36 rL SGR
GSN 3368 1700 M 0  36 rL SGR
GSN 3368 5300 M 0 -36 rL SGR
GSN 3417 1700 M 0  36 rL SGR
GSN 3417 5300 M 0 -36 rL SGR
GSN 3456 1700 M 0  36 rL SGR
GSN 3456 5300 M 0 -36 rL SGR
GSN 3490 1700 M 0  36 rL SGR
GSN 3490 5300 M 0 -36 rL SGR
GSN 3519 1700 M 0  36 rL SGR
GSN 3519 5300 M 0 -36 rL SGR
GSN 3544 1700 M 0  36 rL SGR
GSN 3544 5300 M 0 -36 rL SGR
GSN 3717 1700 M 0  36 rL SGR
GSN 3717 5300 M 0 -36 rL SGR
GSN 3805 1700 M 0  36 rL SGR
GSN 3805 5300 M 0 -36 rL SGR
GSN 3867 1700 M 0  36 rL SGR
GSN 3867 5300 M 0 -36 rL SGR
GSN 3915 1700 M 0  36 rL SGR
GSN 3915 5300 M 0 -36 rL SGR
GSN 3955 1700 M 0  36 rL SGR
GSN 3955 5300 M 0 -36 rL SGR
GSN 3988 1700 M 0  36 rL SGR
GSN 3988 5300 M 0 -36 rL SGR
GSN 4017 1700 M 0  36 rL SGR
GSN 4017 5300 M 0 -36 rL SGR
GSN 4043 1700 M 0  36 rL SGR
GSN 4043 5300 M 0 -36 rL SGR
GSN 4216 1700 M 0  36 rL SGR
GSN 4216 5300 M 0 -36 rL SGR
%
% Y axis: large tics
%
L10
GSN 620 2070 M 54 0 rL SGR
GSN 4220 2070 M -54 0 rL SGR
helvS (1.04) 560 2070 ylabel
GSN 620 2972 M 54 0 rL SGR
GSN 4220 2972 M -54 0 rL SGR
helvS (1.06) 560 2972 ylabel
GSN 620 3875 M 54 0 rL SGR
GSN 4220 3875 M -54 0 rL SGR
helvS (1.08) 560 3875 ylabel
GSN 620 4778 M 54 0 rL SGR
GSN 4220 4778 M -54 0 rL SGR
helvS (1.1) 560 4778 ylabel
%
% Y axis: small tics
%
L5
GSN 620 1844 M 36 0 rL SGR
GSN 4220 1844 M -36 0 rL SGR
GSN 620 2070 M 36 0 rL SGR
GSN 4220 2070 M -36 0 rL SGR
GSN 620 2295 M 36 0 rL SGR
GSN 4220 2295 M -36 0 rL SGR
GSN 620 2521 M 36 0 rL SGR
GSN 4220 2521 M -36 0 rL SGR
GSN 620 2747 M 36 0 rL SGR
GSN 4220 2747 M -36 0 rL SGR
GSN 620 2972 M 36 0 rL SGR
GSN 4220 2972 M -36 0 rL SGR
GSN 620 3198 M 36 0 rL SGR
GSN 4220 3198 M -36 0 rL SGR
GSN 620 3424 M 36 0 rL SGR
GSN 4220 3424 M -36 0 rL SGR
GSN 620 3649 M 36 0 rL SGR
GSN 4220 3649 M -36 0 rL SGR
GSN 620 3875 M 36 0 rL SGR
GSN 4220 3875 M -36 0 rL SGR
GSN 620 4101 M 36 0 rL SGR
GSN 4220 4101 M -36 0 rL SGR
GSN 620 4326 M 36 0 rL SGR
GSN 4220 4326 M -36 0 rL SGR
GSN 620 4552 M 36 0 rL SGR
GSN 4220 4552 M -36 0 rL SGR
GSN 620 4778 M 36 0 rL SGR
GSN 4220 4778 M -36 0 rL SGR
GSN 620 5003 M 36 0 rL SGR
GSN 4220 5003 M -36 0 rL SGR
GSN 620 5229 M 36 0 rL SGR
GSN 4220 5229 M -36 0 rL SGR

%
% X-Axis label:
%
gsave 2420 290 M 
[
[(Helvetica) 180 0 true true 0 (t)]
[(Helvetica) 180 0 true true 0 (i)]
[(Helvetica) 180 0 true true 0 (m)]
[(Helvetica) 180 0 true true 0 (e)]
] 0 MCshow grestore

%
% Y-Axis label:
%
gsave 234 3500 M 
currentpoint gsave translate 90 rotate 0 0 moveto
[
[(Helvetica) 180 0 true true 0 (s)]
[(Helvetica) 180 0 true true 0 (i)]
[(Helvetica) 180 0 true true 0 (g)]
[(Helvetica) 180 0 true true 0 (n)]
[(Helvetica) 180 0 true true 0 (a)]
[(Helvetica) 180 0 true true 0 (l)]
] 0 MCshow grestore

%
% Residuals:
%
gsave 129 1160 M 
currentpoint gsave translate 90 rotate 0 0 moveto
[
[(Helvetica) 150 0 true true 0 (r)]
[(Helvetica) 150 0 true true 0 (e)]
[(Helvetica) 150 0 true true 0 (s)]
[(Helvetica) 150 0 true true 0 (i)]
[(Helvetica) 150 0 true true 0 (d)]
[(Helvetica) 150 0 true true 0 (u)]
[(Helvetica) 150 0 true true 0 (a)]
[(Helvetica) 150 0 true true 0 (l)]
[(Helvetica) 150 0 true true 0 (s)]
] 0 MCshow grestore

%
% Residual frame
%
L10
GSN 
620 620 M
4220 620 L
4220 1700 L
620 1700 L
closepath SGR
%
% X axis: large tics - residual frame
%
L10
GSN 1074 620 M 0  54 rL SGR
GSN 1074 1700 M 0 -54 rL SGR
GSN 1572 620 M 0  54 rL SGR
GSN 1572 1700 M 0 -54 rL SGR
GSN 2071 620 M 0  54 rL SGR
GSN 2071 1700 M 0 -54 rL SGR
GSN 2570 620 M 0  54 rL SGR
GSN 2570 1700 M 0 -54 rL SGR
GSN 3068 620 M 0  54 rL SGR
GSN 3068 1700 M 0 -54 rL SGR
GSN 3567 620 M 0  54 rL SGR
GSN 3567 1700 M 0 -54 rL SGR
GSN 4066 620 M 0  54 rL SGR
GSN 4066 1700 M 0 -54 rL SGR
%
% X axis: small tics - residual frame
%
L5
GSN 725 620 M 0  36 rL SGR
GSN 725 1700 M 0 -36 rL SGR
GSN 813 620 M 0  36 rL SGR
GSN 813 1700 M 0 -36 rL SGR
GSN 875 620 M 0  36 rL SGR
GSN 875 1700 M 0 -36 rL SGR
GSN 924 620 M 0  36 rL SGR
GSN 924 1700 M 0 -36 rL SGR
GSN 963 620 M 0  36 rL SGR
GSN 963 1700 M 0 -36 rL SGR
GSN 996 620 M 0  36 rL SGR
GSN 996 1700 M 0 -36 rL SGR
GSN 1025 620 M 0  36 rL SGR
GSN 1025 1700 M 0 -36 rL SGR
GSN 1051 620 M 0  36 rL SGR
GSN 1051 1700 M 0 -36 rL SGR
GSN 1224 620 M 0  36 rL SGR
GSN 1224 1700 M 0 -36 rL SGR
GSN 1312 620 M 0  36 rL SGR
GSN 1312 1700 M 0 -36 rL SGR
GSN 1374 620 M 0  36 rL SGR
GSN 1374 1700 M 0 -36 rL SGR
GSN 1422 620 M 0  36 rL SGR
GSN 1422 1700 M 0 -36 rL SGR
GSN 1462 620 M 0  36 rL SGR
GSN 1462 1700 M 0 -36 rL SGR
GSN 1495 620 M 0  36 rL SGR
GSN 1495 1700 M 0 -36 rL SGR
GSN 1524 620 M 0  36 rL SGR
GSN 1524 1700 M 0 -36 rL SGR
GSN 1550 620 M 0  36 rL SGR
GSN 1550 1700 M 0 -36 rL SGR
GSN 1722 620 M 0  36 rL SGR
GSN 1722 1700 M 0 -36 rL SGR
GSN 1810 620 M 0  36 rL SGR
GSN 1810 1700 M 0 -36 rL SGR
GSN 1873 620 M 0  36 rL SGR
GSN 1873 1700 M 0 -36 rL SGR
GSN 1921 620 M 0  36 rL SGR
GSN 1921 1700 M 0 -36 rL SGR
GSN 1960 620 M 0  36 rL SGR
GSN 1960 1700 M 0 -36 rL SGR
GSN 1994 620 M 0  36 rL SGR
GSN 1994 1700 M 0 -36 rL SGR
GSN 2023 620 M 0  36 rL SGR
GSN 2023 1700 M 0 -36 rL SGR
GSN 2048 620 M 0  36 rL SGR
GSN 2048 1700 M 0 -36 rL SGR
GSN 2221 620 M 0  36 rL SGR
GSN 2221 1700 M 0 -36 rL SGR
GSN 2309 620 M 0  36 rL SGR
GSN 2309 1700 M 0 -36 rL SGR
GSN 2371 620 M 0  36 rL SGR
GSN 2371 1700 M 0 -36 rL SGR
GSN 2420 620 M 0  36 rL SGR
GSN 2420 1700 M 0 -36 rL SGR
GSN 2459 620 M 0  36 rL SGR
GSN 2459 1700 M 0 -36 rL SGR
GSN 2492 620 M 0  36 rL SGR
GSN 2492 1700 M 0 -36 rL SGR
GSN 2521 620 M 0  36 rL SGR
GSN 2521 1700 M 0 -36 rL SGR
GSN 2547 620 M 0  36 rL SGR
GSN 2547 1700 M 0 -36 rL SGR
GSN 2720 620 M 0  36 rL SGR
GSN 2720 1700 M 0 -36 rL SGR
GSN 2808 620 M 0  36 rL SGR
GSN 2808 1700 M 0 -36 rL SGR
GSN 2870 620 M 0  36 rL SGR
GSN 2870 1700 M 0 -36 rL SGR
GSN 2918 620 M 0  36 rL SGR
GSN 2918 1700 M 0 -36 rL SGR
GSN 2958 620 M 0  36 rL SGR
GSN 2958 1700 M 0 -36 rL SGR
GSN 2991 620 M 0  36 rL SGR
GSN 2991 1700 M 0 -36 rL SGR
GSN 3020 620 M 0  36 rL SGR
GSN 3020 1700 M 0 -36 rL SGR
GSN 3045 620 M 0  36 rL SGR
GSN 3045 1700 M 0 -36 rL SGR
GSN 3218 620 M 0  36 rL SGR
GSN 3218 1700 M 0 -36 rL SGR
GSN 3306 620 M 0  36 rL SGR
GSN 3306 1700 M 0 -36 rL SGR
GSN 3368 620 M 0  36 rL SGR
GSN 3368 1700 M 0 -36 rL SGR
GSN 3417 620 M 0  36 rL SGR
GSN 3417 1700 M 0 -36 rL SGR
GSN 3456 620 M 0  36 rL SGR
GSN 3456 1700 M 0 -36 rL SGR
GSN 3490 620 M 0  36 rL SGR
GSN 3490 1700 M 0 -36 rL SGR
GSN 3519 620 M 0  36 rL SGR
GSN 3519 1700 M 0 -36 rL SGR
GSN 3544 620 M 0  36 rL SGR
GSN 3544 1700 M 0 -36 rL SGR
GSN 3717 620 M 0  36 rL SGR
GSN 3717 1700 M 0 -36 rL SGR
GSN 3805 620 M 0  36 rL SGR
GSN 3805 1700 M 0 -36 rL SGR
GSN 3867 620 M 0  36 rL SGR
GSN 3867 1700 M 0 -36 rL SGR
GSN 3915 620 M 0  36 rL SGR
GSN 3915 1700 M 0 -36 rL SGR
GSN 3955 620 M 0  36 rL SGR
GSN 3955 1700 M 0 -36 rL SGR
GSN 3988 620 M 0  36 rL SGR
GSN 3988 1700 M 0 -36 rL SGR
GSN 4017 620 M 0  36 rL SGR
GSN 4017 1700 M 0 -36 rL SGR
GSN 4043 620 M 0  36 rL SGR
GSN 4043 1700 M 0 -36 rL SGR
GSN 4216 620 M 0  36 rL SGR
GSN 4216 1700 M 0 -36 rL SGR
%
% Y axis: large tics - residual frame
%
L10
GSN 620 742 M 54 0 rL SGR
GSN 4220 742 M -54 0 rL SGR
helvS (-0.02) 560 742 ylabelresid
GSN 620 964 M 54 0 rL SGR
GSN 4220 964 M -54 0 rL SGR
helvS (0) 560 964 ylabelresid
GSN 620 1185 M 54 0 rL SGR
GSN 4220 1185 M -54 0 rL SGR
helvS (0.02) 560 1185 ylabelresid
GSN 620 1407 M 54 0 rL SGR
GSN 4220 1407 M -54 0 rL SGR
helvS (0.04) 560 1407 ylabelresid
GSN 620 1629 M 54 0 rL SGR
GSN 4220 1629 M -54 0 rL SGR
helvS (0.06) 560 1629 ylabelresid

%
% X axis - residual panel
%
GSN L5 620 964 M 4220 964 L SDA G50 SGR

end
showpage
%%Trailer
%%EOF
