%!PS-Adobe-3.0 EPSF-3.0
%%BoundingBox: 0 0 514 550
%%Creator: BioKin Ltd.
%%DocumentFonts: Symbol Helvetica
%%EndComments
%
/bkdict 256 dict def
bkdict begin
/M {moveto} def 
/R {rmoveto} def
/L {lineto} def
/rL {rlineto} def
/GSN {gsave newpath} def
/SGR {stroke grestore} def
/COSGR {gsave setrgbcolor stroke grestore grestore} def
/SL {setlinewidth} def
/LWMB {12} def             % line width - model curves, black & white
/LWMC {10} def             % line width - model curves, color
/L2 {2.5 setlinewidth} def
/L5 {5 setlinewidth} def
/L10 {10 setlinewidth} def
/G50 {0.5 setgray} def
/SDA {[10  20] 0 setdash} def % axes
/helvT {/Helvetica findfont 100 scalefont setfont} def % tiny
/helvS {/Helvetica findfont 125 scalefont setfont} def % small
/helvM {/Helvetica findfont 150 scalefont setfont} def % medium
/helvL {/Helvetica findfont 175 scalefont setfont} def % large
/xlabel {gsave M dup
   stringwidth exch -0.5 mul exch rmoveto show grestore} def 
/ylabel {gsave M 90 rotate dup
   stringwidth exch -0.5 mul exch rmoveto show grestore} def
/ylabelresid {gsave M dup
   stringwidth exch -1 mul exch rmoveto show grestore} def
% ======
% Shapes
% ======
% Circle:
/Circ {0 360 arc closepath} def
%
% Square:
/Squa {dup dup -0.5 mul dup dup R -2 mul 0 exch rL 1 mul 0 rL dup 0 exch -1 mul rL closepath} def
%
% Triangle Up:
/TriU {dup dup dup -0.4 mul exch -0.5 mul exch R dup 0.5 mul exch rL dup -1 mul exch 0.5 mul exch rL closepath} def 
%
% Triangle Down:
/TriD {dup dup dup 0.4 mul exch -0.5 mul exch R dup 0.5 mul exch -1 mul rL dup 0.5 mul exch rL closepath} def 
%
% Diamond:
/Diam {45 rotate Squa} def
% ======
% Fills
% ======
/GRF {gsave setgray fill grestore} def                    % gray-level Fill
/COF {gsave setrgbcolor fill grestore} def                % color fill
% ======
% Colors
% ======
/C01 {1.00	0.00	0.00} def      % Red
/C02 {0.00	0.00	1.00} def      % Blue
/C03 {0.00	0.39	0.00} def      % Dark Green
/C04 {0.78	0.08	0.52} def      % Medium Violet Red
/C05 {0.55	0.27	0.07} def      % Saddle Brown
/C06 {0.10	0.70	0.70} def      % (cyan)
/C07 {1.00	0.55	0.00} def      % Dark Orange
/C08 {0.63	0.13	0.94} def      % Purple
/C09 {0.00	0.75	1.00} def      % Deep Sky Blue
/C10 {0.20	0.80	0.20} def      % Lime Green
/C11 {0.47	0.53	0.60} def      % Light Slate Gray
/C12 {0.00	0.00	0.00} def      % Black            % or: {0.19	0.31	0.31} def      % Dark Slate Gray
%
/LGR {0.75} def % light gray
/DGR {0.33} def % dark gray
%
% =============
% Dash patterns
% =============
/dash01 { [80  20] 0 setdash } def
/dash02 { [40  20] 0 setdash } def
/dash03 { [80  20  10  20] 0 setdash } def
/dash04 { [40  20  10  20] 0 setdash } def
/dash05 { [80  20  10  10  10  20] 0 setdash } def
/dash06 { [40  20  10  10  10  20] 0 setdash } def
/dash07 { [10  10] 0 setdash } def
%
/MFshow {
   { dup 5 get 3 ge
     { 5 get 3 eq {gsave} {grestore} ifelse }
     {dup dup 0 get findfont exch 1 get scalefont setfont
     [ currentpoint ] exch dup 2 get 0 exch R dup 5 get 2 ne {dup dup 6
     get exch 4 get {show} {stringwidth pop 0 R} ifelse }if dup 5 get 0 eq
     {dup 3 get {2 get neg 0 exch R pop} {pop aload pop M} ifelse} {dup 5
     get 1 eq {dup 2 get exch dup 3 get exch 6 get stringwidth pop -2 div
     dup 0 R} {dup 6 get stringwidth pop -2 div 0 R 6 get
     show 2 index {aload pop M neg 3 -1 roll neg R pop pop} {pop pop pop
     pop aload pop M} ifelse }ifelse }ifelse }
     ifelse }
   forall} bind def
/MFwidth {0 exch {dup 3 get{dup dup 0 get findfont exch 1 get scalefont
     setfont 6 get stringwidth pop add} {pop} ifelse} forall} bind def
/MCshow { currentpoint stroke M
  exch dup MFwidth -2 div 3 -1 roll R MFshow } def
%
end
%%EndProlog
bkdict begin
0.1 0.1 scale
%
% Residuals:
%
GSN 620 4863 M
620 4490 L
620 4347 L
620 4309 L
620 4305 L
620 4018 L
620 4312 L
620 4125 L
620 4115 L
620 4023 L
620 3798 L
620 3986 L
620 3804 L
620 3733 L
620 3801 L
620 3677 L
620 3628 L
620 3726 L
620 3500 L
620 3641 L
620 3677 L
620 3565 L
620 3675 L
620 3472 L
620 3589 L
620 3630 L
620 3386 L
620 3473 L
620 3445 L
620 3530 L
620 3323 L
620 3198 L
620 3519 L
620 3253 L
620 3395 L
620 3306 L
620 3253 L
620 3263 L
620 3225 L
620 3183 L
620 3041 L
620 3227 L
620 3134 L
620 3124 L
620 3122 L
620 3020 L
620 3122 L
620 2942 L
620 2946 L
620 3005 L
620 3004 L
620 2870 L
620 2814 L
620 2782 L
620 2997 L
620 2880 L
620 2973 L
620 2855 L
620 2932 L
620 2946 L
620 2816 L
620 2934 L
620 2925 L
620 2992 L
620 2822 L
620 2731 L
620 2731 L
620 2763 L
620 2566 L
620 2791 L
620 2749 L
620 2679 L
620 2929 L
620 2597 L
620 2710 L
620 2835 L
620 2558 L
620 2541 L
620 2723 L
620 2654 L
620 2648 L
620 2598 L
620 2620 L
620 2697 L
620 2535 L
620 2434 L
620 2555 L
620 2368 L
620 2415 L
620 2423 L
620 2545 L
620 2325 L
620 2496 L
620 2396 L
620 2312 L
620 2333 L
620 2278 L
620 2266 L
620 2367 L
620 2273 L
620 2436 L
620 2296 L
620 2364 L
620 2216 L
620 2345 L
620 2212 L
620 2304 L
620 2258 L
620 2383 L
620 2342 L
620 2356 L
620 2254 L
620 2165 L
620 2136 L
620 2271 L
620 2249 L
620 2299 L
620 2425 L
620 2353 L
620 2280 L
620 2280 L
620 2249 L
620 2301 L
620 2201 L
620 2345 L
620 2302 L
620 2189 L
620 2233 L
620 2287 L
620 2292 L
620 2264 L
620 2355 L
620 2279 L
620 2383 L
620 2161 L
620 2400 L
620 2220 L
620 2515 L
620 2378 L
620 2439 L
620 2384 L
620 2206 L
620 2428 L
620 2431 L
620 2415 L
620 2363 L
620 2472 L
620 2257 L
620 2358 L
620 2315 L
620 2440 L
620 2369 L
620 2416 L
620 2379 L
620 2287 L
620 2579 L
620 2414 L
620 2386 L
620 2495 L
620 2245 L
620 2496 L
620 2538 L
620 2473 L
620 2432 L
620 2487 L
620 2432 L
620 2451 L
620 2436 L
620 2489 L
620 2527 L
620 2510 L
620 2423 L
620 2508 L
620 2593 L
620 2535 L
620 2456 L
620 2539 L
620 2418 L
620 2575 L
620 2553 L
620 2476 L
620 2636 L
620 2520 L
620 2556 L
620 2498 L
620 2454 L
620 2487 L
620 2529 L
620 2480 L
620 2790 L
620 2637 L
620 2517 L
620 2649 L
620 2463 L
620 2669 L
620 2695 L
620 2714 L
620 2630 L
620 2593 L
620 2624 L
620 2559 L
620 2573 L
620 2696 L
620 2630 L
620 2639 L
620 2624 L
620 2727 L
620 2663 L
620 2579 L
620 2645 L
620 2544 L
620 2761 L
620 2432 L
620 2690 L
620 2607 L
620 2723 L
620 2643 L
620 2632 L
620 2668 L
620 2674 L
620 2718 L
620 2768 L
620 2571 L
620 2653 L
620 2638 L
620 2702 L
620 2560 L
620 2737 L
620 2705 L
620 2612 L
620 2741 L
620 2635 L
620 2716 L
620 2648 L
620 2642 L
620 2730 L
620 2765 L
620 2799 L
620 2641 L
620 2730 L
620 2795 L
620 2682 L
620 2794 L
620 2678 L
620 2537 L
620 2740 L
620 2795 L
620 2746 L
620 2642 L
620 2667 L
620 2876 L
620 2702 L
620 2723 L
620 2783 L
620 2896 L
620 2620 L
620 2604 L
620 2735 L
620 2837 L
620 2937 L
620 2762 L
620 2710 L
620 2867 L
620 2745 L
620 2798 L
620 2670 L
620 2736 L
620 2569 L
620 2722 L
620 2664 L
620 2901 L
620 2841 L
620 2963 L
620 2706 L
620 2732 L
620 2889 L
620 2837 L
620 2846 L
620 2710 L
620 2622 L
620 2770 L
620 2893 L
620 2601 L
620 3027 L
620 2899 L
620 2945 L
620 2870 L
620 2981 L
620 2904 L
620 2759 L
620 2739 L
620 2919 L
620 2911 L
620 2886 L
620 2919 L
620 2884 L
620 3034 L
620 2910 L
620 2811 L
620 2991 L
620 2919 L
620 3027 L
620 3090 L
620 2931 L
620 2853 L
620 2885 L
620 2923 L
620 2978 L
620 2808 L
620 2753 L
620 2944 L
620 2912 L
620 3111 L
620 3005 L
620 2950 L
620 2906 L
620 2924 L
620 2980 L
620 3138 L
620 3028 L
620 3055 L
620 2990 L
620 2840 L
620 3003 L
620 2989 L
620 2862 L
620 2944 L
620 3058 L
620 2996 L
620 2906 L
620 3105 L
620 2889 L
620 2946 L
620 2963 L
620 3134 L
620 2816 L
620 2973 L
620 2947 L
620 2923 L
620 2930 L
620 2918 L
620 2877 L
620 2853 L
620 2962 L
620 2979 L
620 3103 L
620 2754 L
620 2993 L
620 2996 L
620 2946 L
620 2974 L
620 2959 L
620 2967 L
620 3056 L
620 2900 L
620 3036 L
620 2853 L
620 2870 L
620 2858 L
620 2809 L
620 2927 L
620 2864 L
620 2824 L
620 2865 L
620 3090 L
620 2818 L
620 2926 L
620 2858 L
620 2837 L
620 2873 L
620 3098 L
620 2781 L
620 2818 L
620 2781 L
620 2842 L
620 2782 L
620 2772 L
620 2772 L
620 2818 L
620 2868 L
620 2679 L
620 2854 L
620 2763 L
620 2932 L
620 2902 L
620 2798 L
620 2857 L
620 2720 L
620 2714 L
620 2802 L
620 2747 L
620 2862 L
620 2755 L
620 2906 L
620 2766 L
620 2842 L
620 2951 L
620 2741 L
620 2773 L
620 2807 L
620 2691 L
620 2693 L
620 2901 L
620 2882 L
620 2565 L
620 2768 L
620 2943 L
620 2768 L
620 2880 L
620 2918 L
620 2920 L
620 2690 L
620 2921 L
620 2716 L
620 2901 L
620 2689 L
620 2706 L
620 2686 L
620 2800 L
620 2846 L
620 2913 L
620 2798 L
620 2816 L
620 2822 L
620 2802 L
620 2816 L
620 2864 L
620 2763 L
620 2781 L
620 2909 L
620 2579 L
620 2622 L
620 2818 L
620 2802 L
620 2819 L
620 2892 L
620 2714 L
620 2893 L
620 2846 L
620 2733 L
620 2929 L
620 2910 L
620 2809 L
620 2890 L
620 2792 L
620 2831 L
620 2786 L
620 2848 L
620 2908 L
620 2851 L
620 2786 L
620 2579 L
620 2889 L
620 2933 L
620 2890 L
620 2690 L
620 2703 L
620 2826 L
620 2930 L
620 2756 L
620 2714 L
620 2924 L
620 2873 L
620 2801 L
620 2708 L
620 2704 L
620 2822 L
620 2779 L
620 2731 L
620 2741 L
620 2647 L
620 2833 L
620 2676 L
620 2807 L
620 2811 L
620 2904 L
620 2757 L
620 2769 L
620 2917 L
620 2879 L
620 2781 L
620 2667 L
620 2730 L
620 2792 L
620 2802 L
620 2699 L
620 2838 L
620 2851 L
620 2852 L
620 2839 L
620 2866 L
620 2601 L
620 2772 L
620 2675 L
620 2803 L
620 2866 L
620 2657 L
620 3008 L
620 2801 L
620 2915 L
620 2862 L
620 2656 L
620 2693 L
620 2699 L
620 2862 L
620 2705 L
620 2613 L
620 2908 L
620 2735 L
620 2757 L
620 2806 L
620 2688 L
620 2723 L
620 2912 L
620 2728 L
620 2868 L
620 2763 L
620 2793 L
620 2972 L
620 2840 L
620 2910 L
620 2650 L
620 2784 L
620 2820 L
620 2897 L
620 2739 L
620 2776 L
620 2857 L
620 2664 L
620 2838 L
620 2808 L
620 2850 L
620 2961 L
L2 C07 COSGR

%
%================
% Legend - Begin
%================
%
GSN 4240 5180 M
4480 5180 L
LWMC SL  C07 COSGR
GSN 4540 5141 M helvM (4.0 uM) show grestore
%
%================
% Legend - End
%================
%

%
% Main frame
%
L10
GSN 
620 1700 M
4220 1700 L
4220 5300 L
620 5300 L
closepath SGR

%
% X axis: large tics
%
L10
%
% X axis: small tics
%
L5
%
% Y axis: large tics
%
L10
GSN 620 1945 M 54 0 rL SGR
GSN 4220 1945 M -54 0 rL SGR
helvS (-0.025) 560 1945 ylabel
GSN 620 2796 M 54 0 rL SGR
GSN 4220 2796 M -54 0 rL SGR
helvS (0) 560 2796 ylabel
GSN 620 3647 M 54 0 rL SGR
GSN 4220 3647 M -54 0 rL SGR
helvS (0.025) 560 3647 ylabel
GSN 620 4498 M 54 0 rL SGR
GSN 4220 4498 M -54 0 rL SGR
helvS (0.05) 560 4498 ylabel
%
% Y axis: small tics
%
L5
GSN 620 1774 M 36 0 rL SGR
GSN 4220 1774 M -36 0 rL SGR
GSN 620 2200 M 36 0 rL SGR
GSN 4220 2200 M -36 0 rL SGR
GSN 620 2625 M 36 0 rL SGR
GSN 4220 2625 M -36 0 rL SGR
GSN 620 3051 M 36 0 rL SGR
GSN 4220 3051 M -36 0 rL SGR
GSN 620 3476 M 36 0 rL SGR
GSN 4220 3476 M -36 0 rL SGR
GSN 620 3902 M 36 0 rL SGR
GSN 4220 3902 M -36 0 rL SGR
GSN 620 4327 M 36 0 rL SGR
GSN 4220 4327 M -36 0 rL SGR
GSN 620 4753 M 36 0 rL SGR
GSN 4220 4753 M -36 0 rL SGR
GSN 620 5178 M 36 0 rL SGR
GSN 4220 5178 M -36 0 rL SGR

%
% X axis - residual panel
%
GSN L5 620 2796 M 4220 2796 L SDA G50 SGR

%
% X-Axis label:
%
gsave 620 1370 M 
[
[(Helvetica) 180 0 true true 0 (t)]
[(Helvetica) 180 0 true true 0 (i)]
[(Helvetica) 180 0 true true 0 (m)]
[(Helvetica) 180 0 true true 0 (e)]
] 0 MCshow grestore

%
% Y-Axis label:
%
gsave 234 3499 M 
currentpoint gsave translate 90 rotate 0 0 moveto
[
[(Helvetica) 180 0 true true 0 (r)]
[(Helvetica) 180 0 true true 0 (e)]
[(Helvetica) 180 0 true true 0 (s)]
[(Helvetica) 180 0 true true 0 (i)]
[(Helvetica) 180 0 true true 0 (d)]
[(Helvetica) 180 0 true true 0 (u)]
[(Helvetica) 180 0 true true 0 (a)]
[(Helvetica) 180 0 true true 0 (l)]
[(Helvetica) 180 0 true true 0 (s)]
] 0 MCshow grestore

end
showpage
%%Trailer
%%EOF
