%!PS-Adobe-3.0 EPSF-3.0
%%BoundingBox: 0 0 514 550
%%Creator: BioKin Ltd.
%%DocumentFonts: Symbol Helvetica
%%EndComments
%
/bkdict 256 dict def
bkdict begin
/M {moveto} def 
/R {rmoveto} def
/L {lineto} def
/rL {rlineto} def
/GSN {gsave newpath} def
/SGR {stroke grestore} def
/COSGR {gsave setrgbcolor stroke grestore grestore} def
/SL {setlinewidth} def
/LWMB {12} def             % line width - model curves, black & white
/LWMC {10} def             % line width - model curves, color
/L2 {2.5 setlinewidth} def
/L5 {5 setlinewidth} def
/L10 {10 setlinewidth} def
/G50 {0.5 setgray} def
/SDA {[10  20] 0 setdash} def % axes
/helvT {/Helvetica findfont 100 scalefont setfont} def % tiny
/helvS {/Helvetica findfont 125 scalefont setfont} def % small
/helvM {/Helvetica findfont 150 scalefont setfont} def % medium
/helvL {/Helvetica findfont 175 scalefont setfont} def % large
/xlabel {gsave M dup
   stringwidth exch -0.5 mul exch rmoveto show grestore} def 
/ylabel {gsave M 90 rotate dup
   stringwidth exch -0.5 mul exch rmoveto show grestore} def
/ylabelresid {gsave M dup
   stringwidth exch -1 mul exch rmoveto show grestore} def
% ======
% Shapes
% ======
% Circle:
/Circ {0 360 arc closepath} def
%
% Square:
/Squa {dup dup -0.5 mul dup dup R -2 mul 0 exch rL 1 mul 0 rL dup 0 exch -1 mul rL closepath} def
%
% Triangle Up:
/TriU {dup dup dup -0.4 mul exch -0.5 mul exch R dup 0.5 mul exch rL dup -1 mul exch 0.5 mul exch rL closepath} def 
%
% Triangle Down:
/TriD {dup dup dup 0.4 mul exch -0.5 mul exch R dup 0.5 mul exch -1 mul rL dup 0.5 mul exch rL closepath} def 
%
% Diamond:
/Diam {45 rotate Squa} def
% ======
% Fills
% ======
/GRF {gsave setgray fill grestore} def                    % gray-level Fill
/COF {gsave setrgbcolor fill grestore} def                % color fill
% ======
% Colors
% ======
/C01 {1.00	0.00	0.00} def      % Red
/C02 {0.00	0.00	1.00} def      % Blue
/C03 {0.00	0.39	0.00} def      % Dark Green
/C04 {0.78	0.08	0.52} def      % Medium Violet Red
/C05 {0.55	0.27	0.07} def      % Saddle Brown
/C06 {0.10	0.70	0.70} def      % (cyan)
/C07 {1.00	0.55	0.00} def      % Dark Orange
/C08 {0.63	0.13	0.94} def      % Purple
/C09 {0.00	0.75	1.00} def      % Deep Sky Blue
/C10 {0.20	0.80	0.20} def      % Lime Green
/C11 {0.47	0.53	0.60} def      % Light Slate Gray
/C12 {0.00	0.00	0.00} def      % Black            % or: {0.19	0.31	0.31} def      % Dark Slate Gray
%
/LGR {0.75} def % light gray
/DGR {0.33} def % dark gray
%
% =============
% Dash patterns
% =============
/dash01 { [80  20] 0 setdash } def
/dash02 { [40  20] 0 setdash } def
/dash03 { [80  20  10  20] 0 setdash } def
/dash04 { [40  20  10  20] 0 setdash } def
/dash05 { [80  20  10  10  10  20] 0 setdash } def
/dash06 { [40  20  10  10  10  20] 0 setdash } def
/dash07 { [10  10] 0 setdash } def
%
/MFshow {
   { dup 5 get 3 ge
     { 5 get 3 eq {gsave} {grestore} ifelse }
     {dup dup 0 get findfont exch 1 get scalefont setfont
     [ currentpoint ] exch dup 2 get 0 exch R dup 5 get 2 ne {dup dup 6
     get exch 4 get {show} {stringwidth pop 0 R} ifelse }if dup 5 get 0 eq
     {dup 3 get {2 get neg 0 exch R pop} {pop aload pop M} ifelse} {dup 5
     get 1 eq {dup 2 get exch dup 3 get exch 6 get stringwidth pop -2 div
     dup 0 R} {dup 6 get stringwidth pop -2 div 0 R 6 get
     show 2 index {aload pop M neg 3 -1 roll neg R pop pop} {pop pop pop
     pop aload pop M} ifelse }ifelse }ifelse }
     ifelse }
   forall} bind def
/MFwidth {0 exch {dup 3 get{dup dup 0 get findfont exch 1 get scalefont
     setfont 6 get stringwidth pop add} {pop} ifelse} forall} bind def
/MCshow { currentpoint stroke M
  exch dup MFwidth -2 div 3 -1 roll R MFshow } def
%
end
%%EndProlog
bkdict begin
0.1 0.1 scale
%
% Residuals:
%
GSN 620 4629 M
620 4367 L
620 4792 L
620 4573 L
620 4863 L
620 4635 L
620 4694 L
620 4675 L
620 4523 L
620 4396 L
620 4551 L
620 4461 L
620 4667 L
620 4405 L
620 4472 L
620 4434 L
620 4437 L
620 4354 L
620 4279 L
620 4284 L
620 4126 L
620 4160 L
620 4329 L
620 4177 L
620 4085 L
620 4335 L
620 4187 L
620 4204 L
620 4134 L
620 4214 L
620 4126 L
620 3916 L
620 4153 L
620 3890 L
620 4196 L
620 4187 L
620 3857 L
620 4169 L
620 3694 L
620 4176 L
620 3976 L
620 4088 L
620 3834 L
620 4051 L
620 4010 L
620 3842 L
620 3814 L
620 3850 L
620 3978 L
620 3877 L
620 3833 L
620 3954 L
620 3793 L
620 3772 L
620 3783 L
620 3801 L
620 3696 L
620 3873 L
620 3798 L
620 3637 L
620 3614 L
620 3911 L
620 3535 L
620 3834 L
620 3539 L
620 3751 L
620 3412 L
620 3602 L
620 3375 L
620 3594 L
620 3613 L
620 3472 L
620 3447 L
620 3641 L
620 3311 L
620 3289 L
620 3629 L
620 3311 L
620 3311 L
620 3432 L
620 3632 L
620 3222 L
620 3192 L
620 3327 L
620 3302 L
620 3246 L
620 3319 L
620 3244 L
620 3043 L
620 2976 L
620 2893 L
620 2994 L
620 3026 L
620 3054 L
620 2726 L
620 2812 L
620 3040 L
620 2938 L
620 2662 L
620 3066 L
620 2983 L
620 2876 L
620 2884 L
620 2806 L
620 2844 L
620 2673 L
620 2484 L
620 2646 L
620 2568 L
620 2779 L
620 2766 L
620 2790 L
620 2713 L
620 2549 L
620 2538 L
620 2755 L
620 2423 L
620 2648 L
620 2302 L
620 2696 L
620 2408 L
620 2431 L
620 2503 L
620 2734 L
620 2530 L
620 2787 L
620 2740 L
620 2305 L
620 2549 L
620 2318 L
620 2576 L
620 2490 L
620 2383 L
620 2136 L
620 2594 L
620 2358 L
620 2417 L
620 2586 L
620 2672 L
620 2449 L
620 2455 L
620 2265 L
620 2300 L
620 2271 L
620 2433 L
620 2471 L
620 2567 L
620 2388 L
620 2586 L
620 2452 L
620 2402 L
620 2401 L
620 2329 L
620 2235 L
620 2330 L
620 2363 L
620 2316 L
620 2273 L
620 2399 L
620 2367 L
620 2420 L
620 2554 L
620 2597 L
620 2626 L
620 2396 L
620 2563 L
620 2758 L
620 2441 L
620 2485 L
620 2417 L
620 2672 L
620 2364 L
620 2402 L
620 2554 L
620 2568 L
620 2500 L
620 2339 L
620 2575 L
620 2597 L
620 2463 L
620 2388 L
620 2578 L
620 2557 L
620 2517 L
620 2297 L
620 2576 L
620 2438 L
620 2503 L
620 2363 L
620 2851 L
620 2648 L
620 2353 L
620 2774 L
620 2374 L
620 2581 L
620 2752 L
620 2589 L
620 2645 L
620 2669 L
620 2747 L
620 2651 L
620 2753 L
620 2286 L
620 2425 L
620 2621 L
620 2532 L
620 2546 L
620 2495 L
620 2588 L
620 2505 L
620 2553 L
620 2584 L
620 2739 L
620 2667 L
620 2607 L
620 2706 L
620 2513 L
620 2586 L
620 2473 L
620 2556 L
620 2538 L
620 2754 L
620 2627 L
620 2552 L
620 2557 L
620 2717 L
620 2908 L
620 2604 L
620 2738 L
620 2428 L
620 2581 L
620 2608 L
620 2626 L
620 2573 L
620 2720 L
620 2776 L
620 2650 L
620 2820 L
620 2543 L
620 2334 L
620 2747 L
620 2489 L
620 2830 L
620 2853 L
620 2688 L
620 2302 L
620 2669 L
620 2868 L
620 2709 L
620 2532 L
620 2736 L
620 2782 L
620 2888 L
620 2653 L
620 2661 L
620 2736 L
620 2792 L
620 2707 L
620 2746 L
620 2712 L
620 2738 L
620 2585 L
620 2666 L
620 2819 L
620 2717 L
620 2626 L
620 2719 L
620 2676 L
620 2656 L
620 2612 L
620 2404 L
620 2540 L
620 2733 L
620 2849 L
620 2712 L
620 2755 L
620 2842 L
620 2631 L
620 2798 L
620 2717 L
620 2633 L
620 2856 L
620 2795 L
620 3138 L
620 2895 L
620 2772 L
620 2759 L
620 2668 L
620 2906 L
620 2772 L
620 2981 L
620 2836 L
620 3049 L
620 3032 L
620 2994 L
620 3154 L
620 3013 L
620 2960 L
620 3009 L
620 3133 L
620 3092 L
620 2901 L
620 3127 L
620 2957 L
620 2938 L
620 3157 L
620 2742 L
620 3048 L
620 2934 L
620 3061 L
620 3130 L
620 2798 L
620 2838 L
620 3094 L
620 3151 L
620 3079 L
620 2873 L
620 2660 L
620 3041 L
620 2811 L
620 2767 L
620 2952 L
620 3112 L
620 2759 L
620 2865 L
620 2986 L
620 2878 L
620 3016 L
620 3029 L
620 3206 L
620 3055 L
620 3172 L
620 2828 L
620 3055 L
620 2960 L
620 3164 L
620 2817 L
620 2709 L
620 2673 L
620 3098 L
620 2886 L
620 3135 L
620 2950 L
620 2948 L
620 2974 L
620 2993 L
620 2982 L
620 2789 L
620 2861 L
620 2991 L
620 2997 L
620 2842 L
620 2730 L
620 2854 L
620 2869 L
620 2767 L
620 2770 L
620 2783 L
620 2819 L
620 2986 L
620 2995 L
620 2795 L
620 2908 L
620 2639 L
620 2773 L
620 2752 L
620 2914 L
620 3015 L
620 2626 L
620 2909 L
620 2661 L
620 2661 L
620 2700 L
620 2755 L
620 2696 L
620 2682 L
620 2805 L
620 2729 L
620 2885 L
620 2664 L
620 2667 L
620 2924 L
620 2602 L
620 2904 L
620 2713 L
620 2856 L
620 2771 L
620 2876 L
620 2644 L
620 2776 L
620 2692 L
620 2654 L
620 2729 L
620 2755 L
620 2887 L
620 2428 L
620 2907 L
620 2678 L
620 2631 L
620 2859 L
620 2598 L
620 2692 L
620 2658 L
620 2648 L
620 2651 L
620 2566 L
620 2890 L
620 2556 L
620 2610 L
620 2644 L
620 2547 L
620 2509 L
620 2690 L
620 2822 L
620 2689 L
620 2734 L
620 2787 L
620 2962 L
620 2752 L
620 2857 L
620 2995 L
620 2849 L
620 2658 L
620 2703 L
620 2939 L
620 2717 L
620 2708 L
620 2424 L
620 2911 L
620 2514 L
620 2672 L
620 2768 L
620 2692 L
620 2569 L
620 2669 L
620 2833 L
620 2795 L
620 2885 L
620 2981 L
620 2660 L
620 3042 L
620 2706 L
620 2745 L
620 2585 L
620 2747 L
620 2610 L
620 2820 L
620 2636 L
620 2770 L
620 2673 L
620 2743 L
620 2767 L
620 2610 L
620 2870 L
620 2566 L
620 2841 L
620 2759 L
620 2861 L
620 2666 L
620 2509 L
620 2579 L
620 2565 L
620 2699 L
620 2785 L
620 2700 L
620 2630 L
620 2933 L
620 2584 L
620 2963 L
620 2906 L
620 2371 L
620 2571 L
620 2678 L
620 2948 L
620 2600 L
620 2811 L
620 2792 L
620 2554 L
620 2440 L
620 2647 L
620 2713 L
620 2777 L
620 2794 L
620 2678 L
620 2704 L
620 2840 L
620 2590 L
620 2590 L
620 2818 L
620 2787 L
620 2695 L
620 2592 L
620 2688 L
620 2901 L
620 2531 L
620 2421 L
620 2468 L
620 2800 L
620 2716 L
620 2588 L
620 2914 L
620 2785 L
620 2615 L
620 2545 L
620 2584 L
620 2646 L
620 2685 L
620 2604 L
620 2520 L
620 2843 L
620 2603 L
620 2670 L
620 2942 L
620 2649 L
620 2435 L
620 2759 L
620 2493 L
620 2838 L
620 2779 L
620 2707 L
620 2584 L
620 2899 L
620 2542 L
620 2742 L
620 2660 L
620 2907 L
620 2748 L
620 2674 L
620 2742 L
620 2775 L
620 2877 L
620 2707 L
620 2752 L
L2 C02 COSGR

%
%================
% Legend - Begin
%================
%
GSN 4240 5180 M
4480 5180 L
LWMC SL  C02 COSGR
GSN 4540 5141 M helvM (1.0 uM) show grestore
%
%================
% Legend - End
%================
%

%
% Main frame
%
L10
GSN 
620 1700 M
4220 1700 L
4220 5300 L
620 5300 L
closepath SGR

%
% X axis: large tics
%
L10
%
% X axis: small tics
%
L5
%
% Y axis: large tics
%
L10
GSN 620 2076 M 54 0 rL SGR
GSN 4220 2076 M -54 0 rL SGR
helvS (-0.02) 560 2076 ylabel
GSN 620 2913 M 54 0 rL SGR
GSN 4220 2913 M -54 0 rL SGR
helvS (0) 560 2913 ylabel
GSN 620 3749 M 54 0 rL SGR
GSN 4220 3749 M -54 0 rL SGR
helvS (0.02) 560 3749 ylabel
GSN 620 4585 M 54 0 rL SGR
GSN 4220 4585 M -54 0 rL SGR
helvS (0.04) 560 4585 ylabel
%
% Y axis: small tics
%
L5
GSN 620 1867 M 36 0 rL SGR
GSN 4220 1867 M -36 0 rL SGR
GSN 620 2076 M 36 0 rL SGR
GSN 4220 2076 M -36 0 rL SGR
GSN 620 2286 M 36 0 rL SGR
GSN 4220 2286 M -36 0 rL SGR
GSN 620 2495 M 36 0 rL SGR
GSN 4220 2495 M -36 0 rL SGR
GSN 620 2704 M 36 0 rL SGR
GSN 4220 2704 M -36 0 rL SGR
GSN 620 2913 M 36 0 rL SGR
GSN 4220 2913 M -36 0 rL SGR
GSN 620 3122 M 36 0 rL SGR
GSN 4220 3122 M -36 0 rL SGR
GSN 620 3331 M 36 0 rL SGR
GSN 4220 3331 M -36 0 rL SGR
GSN 620 3540 M 36 0 rL SGR
GSN 4220 3540 M -36 0 rL SGR
GSN 620 3749 M 36 0 rL SGR
GSN 4220 3749 M -36 0 rL SGR
GSN 620 3958 M 36 0 rL SGR
GSN 4220 3958 M -36 0 rL SGR
GSN 620 4167 M 36 0 rL SGR
GSN 4220 4167 M -36 0 rL SGR
GSN 620 4376 M 36 0 rL SGR
GSN 4220 4376 M -36 0 rL SGR
GSN 620 4585 M 36 0 rL SGR
GSN 4220 4585 M -36 0 rL SGR
GSN 620 4794 M 36 0 rL SGR
GSN 4220 4794 M -36 0 rL SGR
GSN 620 5003 M 36 0 rL SGR
GSN 4220 5003 M -36 0 rL SGR
GSN 620 5213 M 36 0 rL SGR
GSN 4220 5213 M -36 0 rL SGR

%
% X axis - residual panel
%
GSN L5 620 2913 M 4220 2913 L SDA G50 SGR

%
% X-Axis label:
%
gsave 620 1370 M 
[
[(Helvetica) 180 0 true true 0 (t)]
[(Helvetica) 180 0 true true 0 (i)]
[(Helvetica) 180 0 true true 0 (m)]
[(Helvetica) 180 0 true true 0 (e)]
] 0 MCshow grestore

%
% Y-Axis label:
%
gsave 234 3500 M 
currentpoint gsave translate 90 rotate 0 0 moveto
[
[(Helvetica) 180 0 true true 0 (r)]
[(Helvetica) 180 0 true true 0 (e)]
[(Helvetica) 180 0 true true 0 (s)]
[(Helvetica) 180 0 true true 0 (i)]
[(Helvetica) 180 0 true true 0 (d)]
[(Helvetica) 180 0 true true 0 (u)]
[(Helvetica) 180 0 true true 0 (a)]
[(Helvetica) 180 0 true true 0 (l)]
[(Helvetica) 180 0 true true 0 (s)]
] 0 MCshow grestore

end
showpage
%%Trailer
%%EOF
