%!PS-Adobe-3.0 EPSF-3.0
%%BoundingBox: 0 0 514 550
%%Creator: BioKin Ltd.
%%DocumentFonts: Symbol Helvetica
%%EndComments
%
/bkdict 256 dict def
bkdict begin
/M {moveto} def 
/R {rmoveto} def
/L {lineto} def
/rL {rlineto} def
/GSN {gsave newpath} def
/SGR {stroke grestore} def
/COSGR {gsave setrgbcolor stroke grestore grestore} def
/SL {setlinewidth} def
/LWMB {12} def             % line width - model curves, black & white
/LWMC {10} def             % line width - model curves, color
/L2 {2.5 setlinewidth} def
/L5 {5 setlinewidth} def
/L10 {10 setlinewidth} def
/G50 {0.5 setgray} def
/SDA {[10  20] 0 setdash} def % axes
/helvT {/Helvetica findfont 100 scalefont setfont} def % tiny
/helvS {/Helvetica findfont 125 scalefont setfont} def % small
/helvM {/Helvetica findfont 150 scalefont setfont} def % medium
/helvL {/Helvetica findfont 175 scalefont setfont} def % large
/xlabel {gsave M dup
   stringwidth exch -0.5 mul exch rmoveto show grestore} def 
/ylabel {gsave M 90 rotate dup
   stringwidth exch -0.5 mul exch rmoveto show grestore} def
/ylabelresid {gsave M dup
   stringwidth exch -1 mul exch rmoveto show grestore} def
% ======
% Shapes
% ======
% Circle:
/Circ {0 360 arc closepath} def
%
% Square:
/Squa {dup dup -0.5 mul dup dup R -2 mul 0 exch rL 1 mul 0 rL dup 0 exch -1 mul rL closepath} def
%
% Triangle Up:
/TriU {dup dup dup -0.4 mul exch -0.5 mul exch R dup 0.5 mul exch rL dup -1 mul exch 0.5 mul exch rL closepath} def 
%
% Triangle Down:
/TriD {dup dup dup 0.4 mul exch -0.5 mul exch R dup 0.5 mul exch -1 mul rL dup 0.5 mul exch rL closepath} def 
%
% Diamond:
/Diam {45 rotate Squa} def
% ======
% Fills
% ======
/GRF {gsave setgray fill grestore} def                    % gray-level Fill
/COF {gsave setrgbcolor fill grestore} def                % color fill
% ======
% Colors
% ======
/C01 {1.00	0.00	0.00} def      % Red
/C02 {0.00	0.00	1.00} def      % Blue
/C03 {0.00	0.39	0.00} def      % Dark Green
/C04 {0.78	0.08	0.52} def      % Medium Violet Red
/C05 {0.55	0.27	0.07} def      % Saddle Brown
/C06 {0.10	0.70	0.70} def      % (cyan)
/C07 {1.00	0.55	0.00} def      % Dark Orange
/C08 {0.63	0.13	0.94} def      % Purple
/C09 {0.00	0.75	1.00} def      % Deep Sky Blue
/C10 {0.20	0.80	0.20} def      % Lime Green
/C11 {0.47	0.53	0.60} def      % Light Slate Gray
/C12 {0.00	0.00	0.00} def      % Black            % or: {0.19	0.31	0.31} def      % Dark Slate Gray
%
/LGR {0.75} def % light gray
/DGR {0.33} def % dark gray
%
% =============
% Dash patterns
% =============
/dash01 { [80  20] 0 setdash } def
/dash02 { [40  20] 0 setdash } def
/dash03 { [80  20  10  20] 0 setdash } def
/dash04 { [40  20  10  20] 0 setdash } def
/dash05 { [80  20  10  10  10  20] 0 setdash } def
/dash06 { [40  20  10  10  10  20] 0 setdash } def
/dash07 { [10  10] 0 setdash } def
%
/MFshow {
   { dup 5 get 3 ge
     { 5 get 3 eq {gsave} {grestore} ifelse }
     {dup dup 0 get findfont exch 1 get scalefont setfont
     [ currentpoint ] exch dup 2 get 0 exch R dup 5 get 2 ne {dup dup 6
     get exch 4 get {show} {stringwidth pop 0 R} ifelse }if dup 5 get 0 eq
     {dup 3 get {2 get neg 0 exch R pop} {pop aload pop M} ifelse} {dup 5
     get 1 eq {dup 2 get exch dup 3 get exch 6 get stringwidth pop -2 div
     dup 0 R} {dup 6 get stringwidth pop -2 div 0 R 6 get
     show 2 index {aload pop M neg 3 -1 roll neg R pop pop} {pop pop pop
     pop aload pop M} ifelse }ifelse }ifelse }
     ifelse }
   forall} bind def
/MFwidth {0 exch {dup 3 get{dup dup 0 get findfont exch 1 get scalefont
     setfont 6 get stringwidth pop add} {pop} ifelse} forall} bind def
/MCshow { currentpoint stroke M
  exch dup MFwidth -2 div 3 -1 roll R MFshow } def
%
end
%%EndProlog
bkdict begin
0.1 0.1 scale
%
% Model curves:
%

GSN 753 4947 M
753 4947 L
786 4947 L
820 4947 L
853 4946 L
886 4946 L
920 4946 L
929 4946 L
953 4946 L
986 4946 L
1020 4945 L
1053 4945 L
1086 4945 L
1106 4945 L
1120 4944 L
1153 4944 L
1186 4943 L
1220 4943 L
1253 4942 L
1282 4942 L
1286 4941 L
1319 4941 L
1353 4940 L
1386 4939 L
1419 4937 L
1453 4936 L
1459 4935 L
1486 4934 L
1519 4932 L
1553 4930 L
1586 4928 L
1619 4925 L
1635 4923 L
1653 4922 L
1686 4918 L
1719 4914 L
1753 4909 L
1786 4904 L
1812 4899 L
1819 4898 L
1853 4891 L
1886 4883 L
1919 4874 L
1953 4864 L
1986 4853 L
1988 4852 L
2019 4840 L
2053 4825 L
2086 4809 L
2119 4790 L
2153 4769 L
2165 4761 L
2186 4745 L
2219 4718 L
2253 4688 L
2286 4654 L
2319 4616 L
2341 4589 L
2353 4574 L
2386 4526 L
2419 4474 L
2453 4416 L
2486 4351 L
2518 4284 L
2519 4281 L
2553 4204 L
2586 4119 L
2619 4028 L
2653 3930 L
2686 3826 L
2694 3799 L
2719 3715 L
2753 3598 L
2786 3476 L
2819 3351 L
2853 3223 L
2871 3152 L
2886 3093 L
2919 2965 L
2953 2839 L
2986 2718 L
3019 2604 L
3047 2515 L
3053 2498 L
3086 2404 L
3119 2324 L
3153 2258 L
3186 2208 L
3219 2176 L
3224 2174 L
3253 2163 L
3286 2167 L
3319 2189 L
3353 2227 L
3386 2279 L
3400 2305 L
3419 2342 L
3453 2413 L
3476 2465 L
3486 2489 L
3519 2564 L
3553 2636 L
3577 2683 L
3586 2700 L
3619 2756 L
3653 2801 L
3686 2835 L
3719 2860 L
3753 2877 L
3754 2877 L
3786 2887 L
3819 2893 L
3853 2896 L
3886 2898 L
3919 2898 L
3930 2898 L
3953 2898 L
3986 2898 L
4019 2898 L
4053 2898 L
4086 2898 L
4086 2898 L
LWMC SL  C03 COSGR

%
% Experimental data:
%
GSN 777 4939 M
1388 4928 L
1552 4963 L
1652 5100 L
1723 4882 L
1778 4734 L
1824 4750 L
1863 4702 L
1896 4676 L
1926 4723 L
1952 4809 L
1976 4874 L
1998 5069 L
2019 5163 L
2037 4832 L
2055 5165 L
2071 5006 L
2086 4845 L
2101 4817 L
2115 4840 L
2128 5101 L
2140 4872 L
2152 4794 L
2163 5166 L
2174 5093 L
2184 4884 L
2194 4699 L
2204 4604 L
2213 4851 L
2222 4880 L
2230 4821 L
2239 4918 L
2247 4752 L
2255 4740 L
2262 4932 L
2270 4695 L
2277 4768 L
2284 4685 L
2290 4906 L
2297 4810 L
2303 4668 L
2310 4501 L
2316 4608 L
2322 4545 L
2328 4591 L
2333 4638 L
2339 4699 L
2344 4672 L
2350 4780 L
2355 4526 L
2360 4539 L
2365 4625 L
2370 4684 L
2375 4585 L
2380 4409 L
2384 4675 L
2389 4597 L
2393 4832 L
2398 4603 L
2402 4436 L
2407 4430 L
2411 4619 L
2415 4550 L
2419 4508 L
2423 4677 L
2427 4557 L
2431 4805 L
2435 4541 L
2438 4428 L
2442 4589 L
2446 4535 L
2449 4412 L
2453 4443 L
2456 4539 L
2460 4477 L
2463 4389 L
2467 4279 L
2470 4336 L
2473 4457 L
2476 4518 L
2480 4335 L
2483 4374 L
2486 4598 L
2489 4378 L
2492 4509 L
2495 4356 L
2498 4440 L
2501 4275 L
2504 4511 L
2507 4420 L
2510 4248 L
2512 4415 L
2515 4503 L
2518 4378 L
2521 4427 L
2523 4323 L
2526 4362 L
2529 4216 L
2531 4029 L
2534 4239 L
2536 4224 L
2539 4289 L
2541 4256 L
2544 4147 L
2546 4034 L
2549 4203 L
2551 4263 L
2554 4226 L
2556 4147 L
2558 4214 L
2561 4263 L
2563 4063 L
2565 4046 L
2568 4421 L
2570 4346 L
2572 4291 L
2574 4172 L
2576 3977 L
2579 4557 L
2581 4117 L
2583 3994 L
2585 4189 L
2587 4295 L
2589 4168 L
2591 4071 L
2593 4132 L
2595 4042 L
2597 4168 L
2599 4075 L
2601 4083 L
2603 4323 L
2605 3893 L
2607 3999 L
2609 4048 L
2611 4126 L
2613 4086 L
2615 3872 L
2617 3942 L
2618 4061 L
2620 4101 L
2622 4103 L
2624 4153 L
2626 4102 L
2627 3853 L
2629 3918 L
2631 4044 L
2633 4055 L
2634 3975 L
2636 4129 L
2638 3941 L
2640 3984 L
2641 3922 L
2643 4050 L
2645 3883 L
2646 4063 L
2648 3967 L
2650 3601 L
2651 3965 L
2653 3860 L
2654 3983 L
2656 3824 L
2658 3983 L
2659 3822 L
2661 3673 L
2662 3812 L
2664 4038 L
2665 4011 L
2667 3786 L
2668 3891 L
2670 3969 L
2671 3953 L
2673 3758 L
2674 3896 L
2676 3902 L
2677 3774 L
2679 3900 L
2680 3855 L
2682 3828 L
2683 3827 L
2685 3769 L
2686 3751 L
2687 3873 L
2689 3753 L
2690 3795 L
2692 3478 L
2693 3950 L
2694 3850 L
2696 3684 L
2697 3646 L
2698 3869 L
2700 3912 L
2701 3755 L
2702 3902 L
2704 3711 L
2705 3681 L
2706 3717 L
2708 3614 L
2709 3835 L
2710 3701 L
2712 3810 L
2713 3734 L
2714 3774 L
2715 3831 L
2717 3632 L
2718 3643 L
2719 3728 L
2720 3868 L
2722 3700 L
2723 3583 L
2724 3823 L
2725 3750 L
2726 3604 L
2728 3690 L
2729 3556 L
2730 3651 L
2731 3554 L
2732 3761 L
2734 3600 L
2735 3715 L
2736 3487 L
2737 3491 L
2738 3664 L
2739 3563 L
2741 3514 L
2742 3410 L
2743 3759 L
2744 3472 L
2745 3642 L
2746 3526 L
2747 3844 L
2748 3583 L
2749 3599 L
2751 3618 L
2752 3506 L
2753 3815 L
2754 3462 L
2755 3553 L
2756 3588 L
2757 3468 L
2758 3599 L
2759 3497 L
2760 3553 L
2761 3733 L
2762 3612 L
2763 3575 L
2764 3621 L
2765 3386 L
2767 3757 L
2768 3799 L
2769 3612 L
2770 3294 L
2771 3604 L
2772 3490 L
2773 3476 L
2774 3643 L
2775 3342 L
2776 3548 L
2777 3425 L
2778 3648 L
2779 3470 L
2780 3477 L
2781 3560 L
2782 3309 L
2783 3553 L
2783 3575 L
2784 3525 L
2785 3409 L
2786 3514 L
2787 3305 L
2788 3404 L
2789 3340 L
2790 3442 L
2791 3244 L
2792 3599 L
2793 3455 L
2794 3500 L
2795 3433 L
2796 3424 L
2797 3286 L
2798 3614 L
2798 3480 L
2799 3643 L
2800 3463 L
2801 3632 L
2802 3484 L
2803 3405 L
2804 3298 L
2805 3473 L
2806 3307 L
2807 3426 L
2807 3231 L
2808 3476 L
2809 3498 L
2810 3344 L
2811 3334 L
2812 3459 L
2813 3275 L
2813 3241 L
2814 3114 L
2815 3388 L
2816 3567 L
2817 3273 L
2818 3421 L
2819 3463 L
2819 3350 L
2820 3426 L
2821 3107 L
2822 3314 L
2823 3549 L
2824 3265 L
2824 3175 L
2825 3298 L
2826 3314 L
2827 3700 L
2828 3271 L
2828 3059 L
2829 3255 L
2830 3200 L
2831 3281 L
2832 3147 L
2832 3286 L
2833 3172 L
2834 3262 L
2835 3391 L
2836 3189 L
2836 3185 L
2837 3106 L
2838 3299 L
2839 3151 L
2840 3117 L
2840 3170 L
2841 3143 L
2842 3231 L
2843 3400 L
2843 3157 L
2844 3210 L
2845 3177 L
2846 3001 L
2846 3206 L
2847 3047 L
2848 3254 L
2849 3490 L
2849 3053 L
2850 3103 L
2851 3336 L
2852 3015 L
2852 3204 L
2853 3227 L
2854 3259 L
2855 3299 L
2855 3402 L
2856 3151 L
2857 3236 L
2857 3177 L
2858 3116 L
2859 3149 L
2860 3201 L
2860 3028 L
2861 3079 L
2862 3032 L
2862 3099 L
2863 3007 L
2864 3312 L
2865 3017 L
2865 3413 L
2866 3075 L
2867 2941 L
2867 3082 L
2868 3181 L
2869 3285 L
2869 3204 L
2870 3130 L
2871 3320 L
2871 3156 L
2872 3067 L
2873 2932 L
2873 3104 L
2874 3292 L
2875 3007 L
2876 3143 L
2876 3320 L
2877 3065 L
2878 3040 L
2878 3025 L
2879 3214 L
2880 3177 L
2880 3001 L
2881 3131 L
2881 3009 L
2882 3070 L
2883 3256 L
2883 3084 L
2884 3214 L
2885 3275 L
2885 2943 L
2886 2996 L
2887 3280 L
2887 3217 L
2888 3003 L
2889 3099 L
2889 3084 L
2892 3308 L
2894 3167 L
2897 3082 L
2899 3221 L
2902 2973 L
2904 3209 L
2907 3193 L
2909 2810 L
2911 2913 L
2914 2936 L
2916 2992 L
2918 2871 L
2921 3133 L
2923 2850 L
2925 2837 L
2927 2883 L
2929 2870 L
2932 2875 L
2934 2924 L
2936 2767 L
2938 2915 L
2940 2897 L
2942 2866 L
2944 2893 L
2946 2747 L
2948 2919 L
2950 2847 L
2952 2708 L
2954 2748 L
2956 2752 L
2958 2819 L
2960 2542 L
2962 2797 L
2964 2872 L
2966 2875 L
2968 2776 L
2970 2848 L
2971 2774 L
2973 2722 L
2975 2595 L
2977 2562 L
2979 2713 L
2980 2588 L
2982 2802 L
2984 2609 L
2986 2703 L
2987 2680 L
2989 2832 L
2991 2684 L
2993 2802 L
2994 2607 L
2996 2751 L
2998 2695 L
2999 2596 L
3001 2611 L
3003 2398 L
3004 2753 L
3006 2499 L
3007 2582 L
3009 2627 L
3011 2575 L
3012 2517 L
3014 2403 L
3015 2650 L
3017 2556 L
3018 2446 L
3020 2480 L
3021 2390 L
3023 2607 L
3024 2528 L
3026 2529 L
3027 2467 L
3029 2304 L
3030 2556 L
3032 2563 L
3033 2556 L
3035 2451 L
3036 2485 L
3038 2675 L
3039 2245 L
3040 2626 L
3042 2363 L
3043 2512 L
3045 2521 L
3046 2505 L
3047 2352 L
3049 2654 L
3050 2476 L
3051 2579 L
3053 2422 L
3054 2252 L
3055 2377 L
3057 2387 L
3058 2467 L
3059 2365 L
3061 2376 L
3062 2313 L
3063 2165 L
3065 2283 L
3066 2415 L
3067 2366 L
3068 2243 L
3070 2420 L
3071 2390 L
3072 2359 L
3073 2531 L
3075 2196 L
3076 2287 L
3077 2464 L
3078 2127 L
3079 2380 L
3081 2448 L
3082 2402 L
3083 2399 L
3084 2226 L
3085 2400 L
3087 2276 L
3088 2415 L
3089 1953 L
3090 2478 L
3091 2259 L
3092 2183 L
3094 2301 L
3095 2185 L
3096 2199 L
3097 2300 L
3098 2322 L
3099 2322 L
3100 2245 L
3101 2319 L
3103 2265 L
3104 2189 L
3105 2370 L
3106 2165 L
3107 2457 L
3108 2195 L
3109 2109 L
3110 2343 L
3111 2235 L
3112 2217 L
3113 2343 L
3114 2423 L
3115 2218 L
3116 2252 L
3117 2243 L
3119 2170 L
3120 2224 L
3121 2022 L
3122 2220 L
3123 2078 L
3124 2001 L
3125 2103 L
3126 2171 L
3127 2103 L
3128 2018 L
3129 2248 L
3130 2180 L
3131 1967 L
3132 2217 L
3133 2115 L
3134 2447 L
3135 2101 L
3136 2098 L
3136 2021 L
3137 2065 L
3138 2146 L
3139 2328 L
3140 2304 L
3141 2222 L
3142 2105 L
3143 2192 L
3144 2133 L
3145 2240 L
3146 2074 L
3147 2076 L
3148 2349 L
3149 2042 L
3150 2104 L
3151 2121 L
3151 2139 L
3152 2257 L
3153 2170 L
3154 1997 L
3155 2080 L
3156 2077 L
3157 2166 L
3158 2206 L
3159 2061 L
3160 2060 L
3160 2069 L
3161 1984 L
3162 2045 L
3163 2102 L
3164 2152 L
3165 2185 L
3166 2001 L
3166 2100 L
3167 2070 L
3168 2001 L
3169 1972 L
3170 1984 L
3171 2060 L
3172 2148 L
3172 2208 L
3173 2057 L
3174 2250 L
3175 2105 L
3176 2292 L
3177 2016 L
3177 2082 L
3178 2144 L
3179 2317 L
3180 2153 L
3181 1870 L
3181 2058 L
3182 2160 L
3183 2002 L
3184 2116 L
3185 2112 L
3185 1946 L
3186 2092 L
3187 2070 L
3188 2093 L
3189 2213 L
3189 2016 L
3190 2043 L
3191 2229 L
3192 2148 L
3193 2033 L
3193 2223 L
3194 2066 L
3195 2021 L
3196 2062 L
3196 1977 L
3197 2062 L
3198 2032 L
3199 1842 L
3199 2158 L
3200 2071 L
3201 2104 L
3202 2016 L
3202 2228 L
3203 2035 L
3204 1893 L
3205 1944 L
3205 1902 L
3206 1994 L
3207 2241 L
3208 2009 L
3208 2129 L
3209 2174 L
3210 2173 L
3210 1846 L
3211 1957 L
3212 2108 L
3213 2222 L
3213 2084 L
3214 2089 L
3215 2152 L
3215 1986 L
3216 2039 L
3217 2217 L
3218 2140 L
3218 2034 L
3219 1903 L
3220 2222 L
3220 2078 L
3221 2417 L
3222 2136 L
3222 2376 L
3223 2146 L
3224 2328 L
3224 1860 L
3225 2036 L
3226 2105 L
3227 1990 L
3227 2244 L
3228 1916 L
3229 2195 L
3229 1970 L
3230 2131 L
3231 2103 L
3231 1900 L
3232 2181 L
3233 1888 L
3233 2177 L
3234 2007 L
3235 2248 L
3235 2057 L
3236 2090 L
3236 2109 L
3237 2064 L
3238 1959 L
3238 2070 L
3239 2187 L
3240 2091 L
3240 2066 L
3241 2140 L
3242 2015 L
3242 1976 L
3243 1884 L
3244 2127 L
3244 1982 L
3245 2202 L
3245 2027 L
3246 2083 L
3247 2072 L
3247 1833 L
3248 2016 L
3249 2293 L
3249 2127 L
3250 1943 L
3250 2029 L
3251 2135 L
3252 2095 L
3252 2120 L
3253 2015 L
3253 2001 L
3254 2106 L
3255 2135 L
3255 2142 L
3256 1894 L
3257 2262 L
3257 1983 L
3258 2188 L
3258 2058 L
3259 2354 L
3259 1944 L
3260 2175 L
3261 2064 L
3261 2024 L
3262 2048 L
3262 2165 L
3263 2232 L
3264 2209 L
3264 2129 L
3265 2095 L
3265 2240 L
3266 1942 L
3267 1976 L
3267 2138 L
3268 1978 L
3268 2147 L
3269 2232 L
3269 2052 L
3270 2172 L
3271 2005 L
3271 2117 L
3272 1999 L
3272 2206 L
3273 2041 L
3273 2188 L
3274 2134 L
3275 2201 L
3275 2142 L
3276 2067 L
3276 1986 L
3277 2237 L
3277 2223 L
3278 2177 L
3278 2009 L
3279 2079 L
3280 2222 L
3280 2238 L
3281 2049 L
3281 2147 L
3282 2137 L
3282 2137 L
3283 2114 L
3283 2216 L
3284 2049 L
3284 2145 L
3285 2138 L
3285 2072 L
3286 2347 L
3287 2037 L
3287 2182 L
3288 2198 L
3288 2225 L
3289 2092 L
3289 2107 L
3290 2152 L
3290 2318 L
3291 1991 L
3291 2284 L
3292 2048 L
3292 2173 L
3293 2267 L
3293 2009 L
3294 2047 L
3294 2201 L
3295 2141 L
3295 2185 L
3296 2133 L
3297 2089 L
3297 2192 L
3298 2074 L
3298 2254 L
3299 2179 L
3299 2227 L
3300 1995 L
3300 2078 L
3301 2108 L
3301 2127 L
3302 2013 L
3302 2088 L
3303 1919 L
3303 2311 L
3304 2055 L
3304 2269 L
3305 2278 L
3305 2079 L
3306 2014 L
3306 2257 L
3307 2314 L
3307 2171 L
3308 2047 L
3308 2070 L
3309 2120 L
3309 2188 L
3310 2079 L
3310 2330 L
3311 2105 L
3311 2177 L
3312 2192 L
3312 2305 L
3312 1932 L
3313 2370 L
3313 2067 L
3314 2112 L
3314 2275 L
3315 2030 L
3315 2122 L
3316 2157 L
3316 2284 L
3317 2215 L
3317 2412 L
3318 2030 L
3318 2125 L
3319 2212 L
3319 2028 L
3320 2181 L
3320 2153 L
3321 2133 L
3321 1956 L
3321 2138 L
3322 2164 L
3322 2147 L
3323 2152 L
3323 2121 L
3324 2420 L
3324 2159 L
3325 2269 L
3325 2313 L
3326 2346 L
3326 2296 L
3327 2106 L
3327 2256 L
3327 2433 L
3328 2232 L
3328 2098 L
3329 2275 L
3329 2031 L
3330 2258 L
3330 2074 L
3331 2240 L
3331 2239 L
3332 2420 L
3332 2167 L
3332 2083 L
3333 2238 L
3333 2556 L
3334 2064 L
3334 1974 L
3335 2262 L
3335 2171 L
3336 2195 L
3336 2179 L
3336 2102 L
3337 2300 L
3337 1997 L
3338 2359 L
3338 2085 L
3339 2387 L
3339 2049 L
3339 2361 L
3340 2214 L
3340 2089 L
3341 2259 L
3341 2264 L
3342 2325 L
3342 2165 L
3343 2246 L
3343 2224 L
3343 2099 L
3344 2259 L
3344 2112 L
3345 2072 L
3345 2224 L
3346 2186 L
3346 2077 L
3346 2269 L
3347 2336 L
3347 2218 L
3348 2195 L
3348 2299 L
3348 2290 L
3349 2074 L
3349 2278 L
3350 2009 L
3350 2165 L
3351 2131 L
3351 2289 L
3351 2312 L
3352 2390 L
3352 2133 L
3353 2118 L
3353 2212 L
3353 2200 L
3354 2198 L
3354 2129 L
3355 2147 L
3355 2228 L
3355 2335 L
3356 2213 L
3356 2263 L
3357 2187 L
3357 2259 L
3358 2179 L
3358 2527 L
3358 2200 L
3359 2311 L
3359 2355 L
3360 2177 L
3360 2346 L
3360 2191 L
3361 2532 L
3361 2218 L
3362 2267 L
3362 2392 L
3362 2201 L
3363 1974 L
3363 2305 L
3364 2198 L
3364 2397 L
3364 2324 L
3365 1995 L
3365 2330 L
3365 2407 L
3366 2389 L
3366 2369 L
3367 2224 L
3367 2238 L
3367 2244 L
3368 2221 L
3368 2438 L
3369 2168 L
3369 2357 L
3369 2329 L
3370 2257 L
3370 2326 L
3371 2270 L
3371 2351 L
3371 2315 L
3372 2284 L
3372 2207 L
3372 2192 L
3373 1974 L
3373 2208 L
3374 1965 L
3374 2306 L
3374 2022 L
3375 2351 L
3375 2368 L
3375 2174 L
3376 2343 L
3376 2182 L
3377 2290 L
3377 2661 L
3377 2368 L
3378 2244 L
3378 2035 L
3378 2296 L
3379 2194 L
3379 2381 L
3380 2214 L
3380 2221 L
3380 2305 L
3381 2495 L
3381 2176 L
3381 2324 L
3382 2295 L
3382 2143 L
3383 2277 L
3383 2192 L
3383 2426 L
3384 2182 L
3384 2630 L
3384 2227 L
3385 2389 L
3385 2381 L
3385 2329 L
3386 2221 L
3386 2477 L
3387 2278 L
3387 2322 L
3387 2483 L
3388 2131 L
3388 2255 L
3388 2335 L
3389 2247 L
3389 2397 L
3389 2239 L
3390 2217 L
3390 2457 L
3391 2250 L
3391 2357 L
3391 2218 L
3392 2333 L
3392 2246 L
3392 2447 L
3393 2219 L
3393 2466 L
3393 2384 L
3394 2353 L
3394 2127 L
3394 2199 L
3395 2256 L
3395 2169 L
3395 2273 L
3396 2416 L
3396 2229 L
3396 2273 L
3397 2222 L
3397 2317 L
3398 2328 L
3398 2229 L
3398 2303 L
3399 2250 L
3399 2275 L
3399 2231 L
3400 2266 L
3400 2262 L
3400 2234 L
3401 2435 L
3401 2186 L
3401 2359 L
3402 2495 L
3402 2376 L
3402 2481 L
3403 2383 L
3403 2327 L
3403 2460 L
3404 2391 L
3404 2469 L
3404 2524 L
3405 2483 L
3405 2227 L
3405 2345 L
3406 2297 L
3406 2242 L
3406 2315 L
3407 2335 L
3407 2328 L
3407 2361 L
3408 2375 L
3408 2357 L
3408 2430 L
3409 2461 L
3409 2237 L
3409 2420 L
3410 2207 L
3410 2296 L
3410 2477 L
3411 2481 L
3411 2264 L
3411 2371 L
3412 2541 L
3412 2490 L
3412 2271 L
3413 2430 L
3413 2272 L
3413 2277 L
3414 2439 L
3414 2374 L
3414 2357 L
3415 2320 L
3415 2104 L
3415 2417 L
3416 2525 L
3416 2249 L
3416 2450 L
3417 2203 L
3417 2394 L
3417 2378 L
3417 2316 L
3418 2410 L
3418 2466 L
3418 2414 L
3419 2433 L
3419 2317 L
3419 2185 L
3420 2387 L
3420 2709 L
3420 2465 L
3421 2398 L
3421 2317 L
3421 2390 L
3422 2286 L
3422 2357 L
3422 2372 L
3423 2550 L
3423 2288 L
3423 2473 L
3423 2301 L
3424 2498 L
3424 2496 L
3424 2462 L
3425 2527 L
3425 2369 L
3425 2363 L
3426 2330 L
3426 2272 L
3426 2460 L
3427 2533 L
3427 2274 L
3427 2431 L
3428 2324 L
3428 2889 L
3428 2494 L
3428 2298 L
3429 2261 L
3429 2375 L
3429 2642 L
3430 2431 L
3430 2391 L
3430 2349 L
3431 2462 L
3431 2287 L
3431 2538 L
3431 2497 L
3432 2391 L
3432 2371 L
3432 2341 L
3433 2418 L
3433 2494 L
3433 2331 L
3434 2402 L
3434 2539 L
3434 2275 L
3434 2611 L
3435 2508 L
3435 2581 L
3435 2549 L
3436 2425 L
3436 2401 L
3436 2453 L
3437 2389 L
3437 2440 L
3437 2327 L
3437 2374 L
3438 2524 L
3438 2515 L
3438 2527 L
3439 2473 L
3439 2484 L
3439 2615 L
3440 2630 L
3440 2339 L
3440 2401 L
3440 2505 L
3441 2508 L
3441 2319 L
3441 2353 L
3442 2472 L
3442 2636 L
3442 2590 L
3442 2762 L
3443 2579 L
3443 2497 L
3443 2452 L
3444 2456 L
3444 2447 L
3444 2382 L
3444 2584 L
3445 2175 L
3445 2725 L
3445 2391 L
3446 2327 L
3446 2424 L
3446 2624 L
3446 2316 L
3447 2462 L
3447 2367 L
3447 2463 L
3448 2525 L
3448 2561 L
3448 2519 L
3448 2403 L
3449 2546 L
3449 2623 L
3449 2612 L
3450 2243 L
3450 2340 L
3450 2386 L
3450 2502 L
3451 2267 L
3451 2368 L
3451 2410 L
3452 2544 L
3452 2472 L
3452 2427 L
3452 2483 L
3453 2273 L
3453 2462 L
3453 2384 L
3454 2573 L
3454 2501 L
3454 2523 L
3454 2474 L
3455 2613 L
3455 2418 L
3455 2505 L
3455 2447 L
3456 2324 L
3456 2512 L
3456 2589 L
3457 2336 L
3457 2431 L
3457 2248 L
3457 2512 L
3458 2337 L
3458 2514 L
3458 2468 L
3458 2654 L
3459 2454 L
3459 2631 L
3459 2444 L
3460 2605 L
3460 2609 L
3460 2385 L
3460 2397 L
3461 2424 L
3461 2543 L
3461 2584 L
3461 2345 L
3462 2487 L
3462 2517 L
3462 2471 L
3463 2546 L
3463 2356 L
3463 2395 L
3463 2530 L
3464 2483 L
3464 2385 L
3464 2447 L
3464 2531 L
3465 2675 L
3465 2344 L
3465 2623 L
3465 2436 L
3466 2446 L
3466 2586 L
3466 2551 L
3466 2379 L
3467 2482 L
3467 2479 L
3467 2583 L
3468 2597 L
3468 2554 L
3468 2518 L
3468 2611 L
3469 2634 L
3469 2634 L
3469 2594 L
3469 2468 L
3470 2548 L
3470 2432 L
3470 2612 L
3470 2643 L
3471 2567 L
3471 2743 L
3471 2535 L
3471 2693 L
3472 2693 L
3472 2548 L
3472 2460 L
3472 2632 L
3473 2577 L
3473 2574 L
3473 2370 L
3474 2726 L
3474 2498 L
3474 2582 L
3474 2523 L
3475 2347 L
3475 2554 L
3475 2482 L
3475 2541 L
3476 2531 L
3476 2626 L
3476 2426 L
3476 2467 L
3477 2468 L
3477 2424 L
3477 2571 L
3477 2544 L
3478 2515 L
3478 2601 L
3478 2578 L
3478 2457 L
3479 2507 L
3479 2531 L
3479 2584 L
3479 2569 L
3480 2550 L
3480 2609 L
3480 2498 L
3480 2559 L
3481 2636 L
3481 2515 L
3481 2682 L
3481 2705 L
3482 2625 L
3482 2586 L
3482 2521 L
3482 2647 L
3483 2667 L
3483 2659 L
3483 2689 L
3483 2490 L
3484 2601 L
3484 2532 L
3484 2448 L
3484 2418 L
3485 2582 L
3485 2492 L
3485 2539 L
3485 2342 L
3486 2660 L
3486 2419 L
3486 2396 L
3486 2548 L
3487 2606 L
3487 2427 L
3487 2505 L
3487 2499 L
3488 2632 L
3488 2637 L
3488 2701 L
3488 2447 L
3488 2731 L
3489 2545 L
3489 2454 L
3489 2389 L
3489 2724 L
3490 2600 L
3490 2678 L
3490 2433 L
3490 2451 L
3491 2818 L
3491 2734 L
3491 2378 L
3491 2527 L
3492 2384 L
3492 2536 L
3492 2629 L
3492 2489 L
3493 2633 L
3493 2667 L
3493 2595 L
3493 2535 L
3494 2521 L
3494 2538 L
3494 2439 L
3494 2590 L
3494 2387 L
3495 2557 L
3495 2603 L
3495 2638 L
3495 2495 L
3496 2452 L
3496 2479 L
3496 2843 L
3496 2368 L
3497 2653 L
3497 2583 L
3497 2585 L
3497 2646 L
3498 2602 L
3498 2715 L
3498 2569 L
3498 2476 L
3498 2639 L
3499 2726 L
3499 2748 L
3499 2628 L
3499 2793 L
3500 2528 L
3500 2587 L
3506 2735 L
3511 2505 L
3517 2669 L
3522 2722 L
3527 2806 L
3532 2657 L
3537 2727 L
3542 2735 L
3547 2651 L
3552 2806 L
3557 2732 L
3561 2633 L
3566 2717 L
3570 2917 L
3575 2879 L
3579 2795 L
3583 2991 L
3587 2985 L
3591 3035 L
3595 2728 L
3599 2831 L
3603 2802 L
3607 2775 L
3611 2832 L
3614 2696 L
3618 2914 L
3622 2800 L
3625 2683 L
3629 2699 L
3632 2947 L
3636 3051 L
3639 2887 L
3642 2778 L
3646 2825 L
3649 2909 L
3652 2982 L
3655 2915 L
3658 3176 L
3661 2766 L
3664 2578 L
3667 2834 L
3670 2765 L
3673 2890 L
3676 2901 L
3679 2799 L
3682 2859 L
3685 3020 L
3688 2705 L
3690 2943 L
3693 2838 L
3696 2808 L
3698 2990 L
3701 2704 L
3704 2706 L
3706 2806 L
3709 2837 L
3711 2920 L
3714 2928 L
3716 2901 L
3719 2921 L
3721 2718 L
3724 3030 L
3726 2541 L
3728 2971 L
3731 3036 L
3733 2916 L
3735 2814 L
3738 2920 L
3740 2953 L
3742 2893 L
3744 3012 L
3747 2887 L
3749 3172 L
3751 2876 L
3753 2911 L
3755 3095 L
3757 2967 L
3760 2958 L
3762 3223 L
3764 2919 L
3766 2966 L
3768 2755 L
3770 2892 L
3772 2911 L
3774 2949 L
3776 2924 L
3778 3032 L
3780 2885 L
3781 2875 L
3783 2940 L
3785 2789 L
3787 2985 L
3789 2858 L
3791 2939 L
3793 2983 L
3795 2905 L
3796 2816 L
3798 2714 L
3800 3057 L
3802 2924 L
3803 2864 L
3805 2913 L
3807 3028 L
3809 3012 L
3810 2725 L
3812 2786 L
3814 3061 L
3816 2990 L
3817 2715 L
3819 2749 L
3820 2682 L
3822 2963 L
3824 2979 L
3825 2851 L
3827 2789 L
3829 3080 L
3830 2896 L
3832 3008 L
3833 2904 L
3835 2815 L
3836 2931 L
3838 2824 L
3839 2977 L
3841 3158 L
3842 3051 L
3844 2804 L
3845 2969 L
3847 3114 L
3848 2867 L
3850 2868 L
3851 3113 L
3853 2726 L
3854 2955 L
3856 2755 L
3857 3002 L
3859 2951 L
3860 3044 L
3861 2943 L
3863 2906 L
3864 2921 L
3866 2880 L
3867 2857 L
3868 2931 L
3870 2839 L
3871 3083 L
3872 3072 L
3874 2980 L
3875 2752 L
3876 3310 L
3878 3030 L
3879 2843 L
3880 3057 L
3882 2754 L
3883 2832 L
3884 2915 L
3885 3102 L
3887 2942 L
3888 2947 L
3889 2936 L
3890 3069 L
3892 3098 L
3893 3112 L
3894 2892 L
3895 2874 L
3897 2864 L
3898 2985 L
3899 2955 L
3900 2858 L
3901 3038 L
3903 3085 L
3904 2923 L
3905 2940 L
3906 2702 L
3907 2788 L
3908 2860 L
3910 2616 L
3911 2962 L
3912 2836 L
3913 2986 L
3914 3091 L
3915 2673 L
3917 2778 L
3918 2571 L
3919 2980 L
3920 2887 L
3921 3029 L
3922 2856 L
3923 2981 L
3924 3121 L
3925 3019 L
3926 2980 L
3928 3022 L
3929 2944 L
3930 2909 L
3931 3026 L
3932 2905 L
3933 2788 L
3934 2732 L
3935 3041 L
3936 2855 L
3937 3026 L
3938 2899 L
3939 3086 L
3940 2794 L
3941 2885 L
3942 3025 L
3943 3005 L
3944 2918 L
3945 3225 L
3946 2909 L
3947 2698 L
3948 2797 L
3949 2795 L
3950 3140 L
3951 2891 L
3952 2851 L
3953 2860 L
3954 2831 L
3955 2859 L
3956 2987 L
3957 3074 L
3958 2900 L
3959 2947 L
3960 2772 L
3961 2802 L
3962 2811 L
3963 3088 L
3964 2849 L
3965 2958 L
3966 3070 L
3966 2744 L
3967 2842 L
3968 2879 L
3969 2798 L
3970 2846 L
3971 2831 L
3972 2845 L
3973 2889 L
3974 2946 L
3975 2701 L
3976 2800 L
3976 2817 L
3977 2614 L
3978 2906 L
3979 2943 L
3980 2958 L
3981 2996 L
3982 2997 L
3983 2854 L
3983 2620 L
3984 2620 L
3985 3007 L
3986 2751 L
3987 2986 L
3988 2863 L
3989 2826 L
3989 2933 L
3990 2703 L
3991 2782 L
3992 2805 L
3993 2848 L
3994 2864 L
3995 2876 L
3995 2728 L
3996 2854 L
3997 2753 L
3998 2841 L
3999 2968 L
3999 2929 L
4000 2682 L
4001 2673 L
4002 2770 L
4003 2919 L
4003 2905 L
4004 3113 L
4005 3000 L
4006 2791 L
4007 3002 L
4007 2874 L
4008 2631 L
4009 2851 L
4010 2906 L
4011 2933 L
4011 2618 L
4012 2817 L
4013 2707 L
4014 3036 L
4014 2749 L
4015 2901 L
4016 2867 L
4017 2875 L
4017 2964 L
4018 3007 L
4019 3085 L
4020 2943 L
4021 3075 L
4021 2838 L
4022 2974 L
4023 2866 L
4023 2761 L
4024 2920 L
4025 3118 L
4026 2780 L
4026 2889 L
4027 2843 L
4028 2864 L
4029 3001 L
4029 2920 L
4030 2981 L
4031 2898 L
4032 2777 L
4032 3003 L
4033 2924 L
4034 2859 L
4034 2902 L
4035 3106 L
4036 2825 L
4036 2746 L
4037 3070 L
4038 2927 L
4039 2875 L
4039 2979 L
4040 2829 L
4041 2952 L
4041 2905 L
4042 2720 L
4043 2721 L
4043 2798 L
4044 2948 L
4045 2864 L
4045 2730 L
4046 2751 L
4047 2909 L
4047 2867 L
4048 2815 L
4049 2916 L
4050 3102 L
4050 2876 L
4051 3080 L
4052 2604 L
4052 2969 L
4053 2685 L
4053 3063 L
4054 3097 L
4055 2564 L
4055 2863 L
4056 2981 L
4057 2761 L
4057 3005 L
4058 2918 L
4059 2844 L
4059 2631 L
4060 2884 L
4061 2474 L
4061 2898 L
4062 2608 L
L2 C03 COSGR

%
%================
% Legend - Begin
%================
%
GSN 4240 5180 M
4480 5180 L
LWMC SL  C03 COSGR
GSN 4540 5141 M helvM (1.5 uM) show grestore
%
%================
% Legend - End
%================
%

%
% Residuals:
%
GSN 777 1117 M
1388 1115 L
1552 1151 L
1652 1273 L
1723 1097 L
1778 980 L
1824 1000 L
1863 966 L
1896 951 L
1926 998 L
1952 1077 L
1976 1138 L
1998 1309 L
2019 1395 L
2037 1123 L
2055 1410 L
2071 1283 L
2086 1154 L
2101 1137 L
2115 1163 L
2128 1389 L
2140 1203 L
2152 1144 L
2163 1463 L
2174 1408 L
2184 1239 L
2194 1090 L
2204 1017 L
2213 1230 L
2222 1262 L
2230 1218 L
2239 1306 L
2247 1172 L
2255 1168 L
2262 1336 L
2270 1143 L
2277 1211 L
2284 1148 L
2290 1339 L
2297 1265 L
2303 1151 L
2310 1017 L
2316 1113 L
2322 1066 L
2328 1111 L
2333 1156 L
2339 1213 L
2344 1197 L
2350 1294 L
2355 1086 L
2360 1103 L
2365 1181 L
2370 1236 L
2375 1159 L
2380 1017 L
2384 1246 L
2389 1187 L
2393 1389 L
2398 1203 L
2402 1068 L
2407 1068 L
2411 1234 L
2415 1181 L
2419 1151 L
2423 1299 L
2427 1204 L
2431 1417 L
2435 1201 L
2438 1112 L
2442 1253 L
2446 1213 L
2449 1115 L
2453 1147 L
2456 1233 L
2460 1186 L
2463 1117 L
2467 1031 L
2470 1084 L
2473 1190 L
2476 1247 L
2480 1099 L
2483 1137 L
2486 1330 L
2489 1151 L
2492 1266 L
2495 1143 L
2498 1219 L
2501 1085 L
2504 1288 L
2507 1217 L
2510 1078 L
2512 1223 L
2515 1302 L
2518 1202 L
2521 1249 L
2523 1166 L
2526 1204 L
2529 1086 L
2531 934 L
2534 1115 L
2536 1108 L
2539 1167 L
2541 1145 L
2544 1058 L
2546 968 L
2549 1115 L
2551 1170 L
2554 1144 L
2556 1082 L
2558 1144 L
2561 1190 L
2563 1026 L
2565 1017 L
2568 1337 L
2570 1278 L
2572 1237 L
2574 1142 L
2576 983 L
2579 1474 L
2581 1109 L
2583 1010 L
2585 1179 L
2587 1273 L
2589 1171 L
2591 1094 L
2593 1149 L
2595 1079 L
2597 1189 L
2599 1115 L
2601 1127 L
2603 1333 L
2605 976 L
2607 1070 L
2609 1115 L
2611 1186 L
2613 1156 L
2615 980 L
2617 1044 L
2618 1148 L
2620 1186 L
2622 1193 L
2624 1239 L
2626 1200 L
2627 995 L
2629 1054 L
2631 1164 L
2633 1177 L
2634 1115 L
2636 1248 L
2638 1095 L
2640 1135 L
2641 1087 L
2643 1199 L
2645 1063 L
2646 1218 L
2648 1141 L
2650 838 L
2651 1148 L
2653 1064 L
2654 1172 L
2656 1043 L
2658 1180 L
2659 1048 L
2661 927 L
2662 1049 L
2664 1243 L
2665 1224 L
2667 1039 L
2668 1131 L
2670 1201 L
2671 1191 L
2673 1031 L
2674 1151 L
2676 1159 L
2677 1056 L
2679 1166 L
2680 1133 L
2682 1114 L
2683 1116 L
2685 1071 L
2686 1060 L
2687 1167 L
2689 1069 L
2690 1108 L
2692 846 L
2693 1247 L
2694 1166 L
2696 1030 L
2697 1002 L
2698 1194 L
2700 1234 L
2701 1105 L
2702 1232 L
2704 1075 L
2705 1054 L
2706 1088 L
2708 1006 L
2709 1195 L
2710 1086 L
2712 1180 L
2713 1120 L
2714 1158 L
2715 1209 L
2717 1046 L
2718 1058 L
2719 1134 L
2720 1254 L
2722 1117 L
2723 1023 L
2724 1227 L
2725 1169 L
2726 1050 L
2728 1127 L
2729 1017 L
2730 1101 L
2731 1022 L
2732 1200 L
2734 1068 L
2735 1168 L
2736 980 L
2737 987 L
2738 1135 L
2739 1054 L
2741 1016 L
2742 932 L
2743 1229 L
2744 991 L
2745 1137 L
2746 1043 L
2747 1314 L
2748 1097 L
2749 1114 L
2751 1134 L
2752 1043 L
2753 1306 L
2754 1012 L
2755 1092 L
2756 1125 L
2757 1027 L
2758 1140 L
2759 1058 L
2760 1108 L
2761 1263 L
2762 1165 L
2763 1136 L
2764 1178 L
2765 983 L
2767 1299 L
2768 1338 L
2769 1183 L
2770 919 L
2771 1182 L
2772 1090 L
2773 1082 L
2774 1225 L
2775 975 L
2776 1151 L
2777 1051 L
2778 1242 L
2779 1094 L
2780 1104 L
2781 1177 L
2782 969 L
2783 1176 L
2783 1198 L
2784 1159 L
2785 1065 L
2786 1156 L
2787 983 L
2788 1069 L
2789 1018 L
2790 1107 L
2791 943 L
2792 1245 L
2793 1127 L
2794 1168 L
2795 1114 L
2796 1109 L
2797 996 L
2798 1275 L
2798 1166 L
2799 1305 L
2800 1156 L
2801 1302 L
2802 1180 L
2803 1116 L
2804 1029 L
2805 1179 L
2806 1043 L
2807 1145 L
2807 984 L
2808 1193 L
2809 1214 L
2810 1088 L
2811 1082 L
2812 1190 L
2813 1038 L
2813 1012 L
2814 908 L
2815 1141 L
2816 1294 L
2817 1050 L
2818 1177 L
2819 1215 L
2819 1122 L
2820 1189 L
2821 924 L
2822 1100 L
2823 1300 L
2824 1064 L
2824 992 L
2825 1097 L
2826 1113 L
2827 1440 L
2828 1083 L
2828 907 L
2829 1074 L
2830 1030 L
2831 1102 L
2832 992 L
2832 1111 L
2833 1018 L
2834 1096 L
2835 1207 L
2836 1039 L
2836 1038 L
2837 975 L
2838 1140 L
2839 1017 L
2840 992 L
2840 1038 L
2841 1018 L
2842 1095 L
2843 1239 L
2843 1038 L
2844 1085 L
2845 1060 L
2846 914 L
2846 1089 L
2847 958 L
2848 1134 L
2849 1335 L
2849 969 L
2850 1015 L
2851 1212 L
2852 945 L
2852 1107 L
2853 1128 L
2854 1157 L
2855 1193 L
2855 1282 L
2856 1073 L
2857 1148 L
2857 1100 L
2858 1051 L
2859 1081 L
2860 1127 L
2860 984 L
2861 1030 L
2862 992 L
2862 1051 L
2863 976 L
2864 1234 L
2865 989 L
2865 1324 L
2866 1042 L
2867 932 L
2867 1052 L
2868 1138 L
2869 1228 L
2869 1162 L
2870 1102 L
2871 1264 L
2871 1128 L
2872 1056 L
2873 945 L
2873 1091 L
2874 1252 L
2875 1014 L
2876 1131 L
2876 1282 L
2877 1069 L
2878 1050 L
2878 1040 L
2879 1201 L
2880 1172 L
2880 1027 L
2881 1137 L
2881 1038 L
2882 1091 L
2883 1249 L
2883 1107 L
2884 1219 L
2885 1272 L
2885 995 L
2886 1041 L
2887 1282 L
2887 1231 L
2888 1054 L
2889 1136 L
2889 1127 L
2892 1323 L
2894 1212 L
2897 1149 L
2899 1274 L
2902 1074 L
2904 1280 L
2907 1274 L
2909 960 L
2911 1054 L
2914 1081 L
2916 1135 L
2918 1041 L
2921 1268 L
2923 1037 L
2925 1033 L
2927 1080 L
2929 1075 L
2932 1087 L
2934 1135 L
2936 1009 L
2938 1141 L
2940 1132 L
2942 1113 L
2944 1142 L
2946 1025 L
2948 1177 L
2950 1123 L
2952 1012 L
2954 1051 L
2956 1061 L
2958 1123 L
2960 897 L
2962 1117 L
2964 1186 L
2966 1194 L
2968 1116 L
2970 1183 L
2971 1126 L
2973 1088 L
2975 987 L
2977 964 L
2979 1097 L
2980 997 L
2982 1182 L
2984 1025 L
2986 1110 L
2987 1095 L
2989 1228 L
2991 1109 L
2993 1213 L
2994 1054 L
2996 1181 L
2998 1138 L
2999 1060 L
3001 1077 L
3003 903 L
3004 1206 L
3006 997 L
3007 1072 L
3009 1114 L
3011 1075 L
3012 1030 L
3014 939 L
3015 1151 L
3017 1076 L
3018 988 L
3020 1021 L
3021 949 L
3023 1136 L
3024 1074 L
3026 1078 L
3027 1031 L
3029 897 L
3030 1113 L
3032 1123 L
3033 1121 L
3035 1037 L
3036 1069 L
3038 1233 L
3039 875 L
3040 1198 L
3042 982 L
3043 1111 L
3045 1122 L
3046 1112 L
3047 987 L
3049 1244 L
3050 1098 L
3051 1188 L
3053 1059 L
3054 919 L
3055 1028 L
3057 1040 L
3058 1110 L
3059 1028 L
3061 1040 L
3062 990 L
3063 869 L
3065 971 L
3066 1085 L
3067 1047 L
3068 947 L
3070 1099 L
3071 1076 L
3072 1054 L
3073 1201 L
3075 922 L
3076 1001 L
3077 1153 L
3078 873 L
3079 1088 L
3081 1148 L
3082 1112 L
3083 1112 L
3084 969 L
3085 1118 L
3087 1016 L
3088 1136 L
3089 750 L
3090 1194 L
3091 1013 L
3092 951 L
3094 1053 L
3095 958 L
3096 972 L
3097 1059 L
3098 1079 L
3099 1082 L
3100 1020 L
3101 1084 L
3103 1041 L
3104 979 L
3105 1134 L
3106 964 L
3107 1211 L
3108 993 L
3109 923 L
3110 1122 L
3111 1033 L
3112 1020 L
3113 1128 L
3114 1197 L
3115 1027 L
3116 1058 L
3117 1052 L
3119 992 L
3120 1040 L
3121 872 L
3122 1040 L
3123 923 L
3124 860 L
3125 947 L
3126 1006 L
3127 951 L
3128 881 L
3129 1077 L
3130 1021 L
3131 844 L
3132 1056 L
3133 972 L
3134 1252 L
3135 963 L
3136 962 L
3136 899 L
3137 938 L
3138 1007 L
3139 1162 L
3140 1143 L
3141 1076 L
3142 979 L
3143 1054 L
3144 1006 L
3145 1096 L
3146 959 L
3147 962 L
3148 1192 L
3149 936 L
3150 990 L
3151 1005 L
3151 1021 L
3152 1122 L
3153 1050 L
3154 906 L
3155 977 L
3156 976 L
3157 1052 L
3158 1087 L
3159 966 L
3160 966 L
3160 976 L
3161 906 L
3162 957 L
3163 1007 L
3164 1050 L
3165 1079 L
3166 925 L
3166 1010 L
3167 985 L
3168 929 L
3169 905 L
3170 917 L
3171 981 L
3172 1056 L
3172 1108 L
3173 982 L
3174 1146 L
3175 1024 L
3176 1182 L
3177 951 L
3177 1008 L
3178 1061 L
3179 1208 L
3180 1070 L
3181 833 L
3181 992 L
3182 1079 L
3183 947 L
3184 1044 L
3185 1041 L
3185 902 L
3186 1026 L
3187 1008 L
3188 1029 L
3189 1130 L
3189 965 L
3190 988 L
3191 1146 L
3192 1079 L
3193 982 L
3193 1143 L
3194 1011 L
3195 974 L
3196 1009 L
3196 939 L
3197 1011 L
3198 987 L
3199 827 L
3199 1094 L
3200 1021 L
3201 1049 L
3202 976 L
3202 1155 L
3203 994 L
3204 875 L
3205 918 L
3205 883 L
3206 961 L
3207 1169 L
3208 975 L
3208 1077 L
3209 1115 L
3210 1114 L
3210 840 L
3211 934 L
3212 1061 L
3213 1158 L
3213 1042 L
3214 1047 L
3215 1100 L
3215 961 L
3216 1006 L
3217 1156 L
3218 1092 L
3218 1003 L
3219 893 L
3220 1162 L
3220 1041 L
3221 1327 L
3222 1091 L
3222 1293 L
3223 1100 L
3224 1254 L
3224 860 L
3225 1008 L
3226 1067 L
3227 971 L
3227 1184 L
3228 909 L
3229 1144 L
3229 955 L
3230 1090 L
3231 1067 L
3231 897 L
3232 1134 L
3233 888 L
3233 1130 L
3234 988 L
3235 1191 L
3235 1030 L
3236 1058 L
3236 1075 L
3237 1037 L
3238 949 L
3238 1043 L
3239 1141 L
3240 1061 L
3240 1040 L
3241 1102 L
3242 997 L
3242 964 L
3243 888 L
3244 1092 L
3244 970 L
3245 1155 L
3245 1008 L
3246 1056 L
3247 1046 L
3247 845 L
3248 1000 L
3249 1233 L
3249 1093 L
3250 939 L
3250 1011 L
3251 1100 L
3252 1066 L
3252 1088 L
3253 999 L
3253 987 L
3254 1076 L
3255 1100 L
3255 1107 L
3256 898 L
3257 1207 L
3257 973 L
3258 1145 L
3258 1036 L
3259 1285 L
3259 940 L
3260 1134 L
3261 1041 L
3261 1008 L
3262 1028 L
3262 1126 L
3263 1182 L
3264 1163 L
3264 1096 L
3265 1067 L
3265 1189 L
3266 939 L
3267 967 L
3267 1103 L
3268 968 L
3268 1110 L
3269 1182 L
3269 1031 L
3270 1131 L
3271 991 L
3271 1085 L
3272 985 L
3272 1160 L
3273 1021 L
3273 1145 L
3274 1099 L
3275 1155 L
3275 1106 L
3276 1042 L
3276 974 L
3277 1185 L
3277 1173 L
3278 1135 L
3278 993 L
3279 1052 L
3280 1172 L
3280 1185 L
3281 1026 L
3281 1108 L
3282 1100 L
3282 1099 L
3283 1080 L
3283 1166 L
3284 1025 L
3284 1106 L
3285 1100 L
3285 1044 L
3286 1275 L
3287 1014 L
3287 1136 L
3288 1149 L
3288 1172 L
3289 1060 L
3289 1072 L
3290 1110 L
3290 1249 L
3291 974 L
3291 1220 L
3292 1021 L
3292 1126 L
3293 1205 L
3293 988 L
3294 1020 L
3294 1149 L
3295 1098 L
3295 1135 L
3296 1091 L
3297 1054 L
3297 1140 L
3298 1041 L
3298 1192 L
3299 1128 L
3299 1169 L
3300 973 L
3300 1043 L
3301 1067 L
3301 1083 L
3302 987 L
3302 1050 L
3303 908 L
3303 1237 L
3304 1022 L
3304 1201 L
3305 1208 L
3305 1040 L
3306 986 L
3306 1190 L
3307 1238 L
3307 1117 L
3308 1013 L
3308 1032 L
3309 1074 L
3309 1130 L
3310 1038 L
3310 1249 L
3311 1059 L
3311 1120 L
3312 1132 L
3312 1226 L
3312 913 L
3313 1280 L
3313 1026 L
3314 1063 L
3314 1200 L
3315 993 L
3315 1070 L
3316 1100 L
3316 1206 L
3317 1148 L
3317 1313 L
3318 991 L
3318 1070 L
3319 1144 L
3319 988 L
3320 1117 L
3320 1093 L
3321 1076 L
3321 927 L
3321 1079 L
3322 1101 L
3322 1086 L
3323 1090 L
3323 1064 L
3324 1314 L
3324 1095 L
3325 1187 L
3325 1223 L
3326 1251 L
3326 1209 L
3327 1048 L
3327 1174 L
3327 1323 L
3328 1153 L
3328 1040 L
3329 1188 L
3329 982 L
3330 1173 L
3330 1018 L
3331 1158 L
3331 1156 L
3332 1308 L
3332 1094 L
3332 1024 L
3333 1153 L
3333 1421 L
3334 1007 L
3334 931 L
3335 1172 L
3335 1095 L
3336 1115 L
3336 1101 L
3336 1036 L
3337 1202 L
3337 947 L
3338 1251 L
3338 1020 L
3339 1274 L
3339 989 L
3339 1251 L
3340 1127 L
3340 1021 L
3341 1163 L
3341 1167 L
3342 1218 L
3342 1083 L
3343 1151 L
3343 1132 L
3343 1027 L
3344 1161 L
3344 1036 L
3345 1003 L
3345 1130 L
3346 1097 L
3346 1005 L
3346 1167 L
3347 1222 L
3347 1122 L
3348 1103 L
3348 1190 L
3348 1181 L
3349 1000 L
3349 1170 L
3350 944 L
3350 1075 L
3351 1046 L
3351 1178 L
3351 1197 L
3352 1262 L
3352 1046 L
3353 1032 L
3353 1111 L
3353 1100 L
3354 1098 L
3354 1040 L
3355 1054 L
3355 1122 L
3355 1212 L
3356 1109 L
3356 1150 L
3357 1085 L
3357 1145 L
3358 1078 L
3358 1370 L
3358 1094 L
3359 1188 L
3359 1224 L
3360 1073 L
3360 1215 L
3360 1084 L
3361 1371 L
3361 1106 L
3362 1147 L
3362 1251 L
3362 1090 L
3363 899 L
3363 1176 L
3364 1087 L
3364 1253 L
3364 1191 L
3365 915 L
3365 1196 L
3365 1259 L
3366 1244 L
3366 1227 L
3367 1104 L
3367 1116 L
3367 1120 L
3368 1100 L
3368 1282 L
3369 1055 L
3369 1213 L
3369 1189 L
3370 1128 L
3370 1186 L
3371 1138 L
3371 1206 L
3371 1175 L
3372 1148 L
3372 1083 L
3372 1070 L
3373 886 L
3373 1083 L
3374 877 L
3374 1164 L
3374 924 L
3375 1200 L
3375 1214 L
3375 1051 L
3376 1192 L
3376 1056 L
3377 1146 L
3377 1458 L
3377 1211 L
3378 1107 L
3378 930 L
3378 1149 L
3379 1062 L
3379 1219 L
3380 1078 L
3380 1084 L
3380 1154 L
3381 1313 L
3381 1044 L
3381 1168 L
3382 1144 L
3382 1015 L
3383 1127 L
3383 1055 L
3383 1252 L
3384 1046 L
3384 1422 L
3384 1082 L
3385 1218 L
3385 1211 L
3385 1167 L
3386 1076 L
3386 1290 L
3387 1122 L
3387 1159 L
3387 1294 L
3388 997 L
3388 1100 L
3388 1168 L
3389 1093 L
3389 1219 L
3389 1085 L
3390 1066 L
3390 1267 L
3391 1093 L
3391 1182 L
3391 1065 L
3392 1161 L
3392 1088 L
3392 1256 L
3393 1063 L
3393 1271 L
3393 1202 L
3394 1174 L
3394 984 L
3394 1044 L
3395 1091 L
3395 1018 L
3395 1104 L
3396 1224 L
3396 1066 L
3396 1103 L
3397 1060 L
3397 1139 L
3398 1147 L
3398 1064 L
3398 1126 L
3399 1080 L
3399 1101 L
3399 1063 L
3400 1092 L
3400 1088 L
3400 1064 L
3401 1232 L
3401 1022 L
3401 1168 L
3402 1281 L
3402 1181 L
3402 1268 L
3403 1186 L
3403 1138 L
3403 1250 L
3404 1191 L
3404 1255 L
3404 1301 L
3405 1267 L
3405 1051 L
3405 1150 L
3406 1108 L
3406 1062 L
3406 1123 L
3407 1139 L
3407 1132 L
3407 1159 L
3408 1171 L
3408 1155 L
3408 1216 L
3409 1242 L
3409 1053 L
3409 1206 L
3410 1026 L
3410 1101 L
3410 1252 L
3411 1255 L
3411 1072 L
3411 1161 L
3412 1304 L
3412 1261 L
3412 1076 L
3413 1209 L
3413 1076 L
3413 1079 L
3414 1215 L
3414 1159 L
3414 1145 L
3415 1113 L
3415 931 L
3415 1194 L
3416 1284 L
3416 1051 L
3416 1219 L
3417 1012 L
3417 1172 L
3417 1157 L
3417 1105 L
3418 1183 L
3418 1230 L
3418 1186 L
3419 1201 L
3419 1103 L
3419 991 L
3420 1160 L
3420 1431 L
3420 1225 L
3421 1169 L
3421 1100 L
3421 1161 L
3422 1072 L
3422 1132 L
3422 1144 L
3423 1293 L
3423 1072 L
3423 1227 L
3423 1082 L
3424 1247 L
3424 1245 L
3424 1215 L
3425 1270 L
3425 1136 L
3425 1131 L
3426 1102 L
3426 1053 L
3426 1211 L
3427 1272 L
3427 1053 L
3427 1184 L
3428 1095 L
3428 1569 L
3428 1236 L
3428 1071 L
3429 1039 L
3429 1135 L
3429 1358 L
3430 1181 L
3430 1146 L
3430 1111 L
3431 1205 L
3431 1057 L
3431 1267 L
3431 1233 L
3432 1143 L
3432 1126 L
3432 1100 L
3433 1164 L
3433 1228 L
3433 1090 L
3434 1149 L
3434 1264 L
3434 1041 L
3434 1323 L
3435 1236 L
3435 1297 L
3435 1269 L
3436 1165 L
3436 1144 L
3436 1187 L
3437 1133 L
3437 1175 L
3437 1080 L
3437 1119 L
3438 1244 L
3438 1236 L
3438 1246 L
3439 1200 L
3439 1208 L
3439 1318 L
3440 1330 L
3440 1085 L
3440 1137 L
3440 1223 L
3441 1226 L
3441 1066 L
3441 1094 L
3442 1193 L
3442 1331 L
3442 1292 L
3442 1435 L
3443 1282 L
3443 1212 L
3443 1174 L
3444 1176 L
3444 1169 L
3444 1113 L
3444 1282 L
3445 938 L
3445 1400 L
3445 1119 L
3446 1064 L
3446 1145 L
3446 1312 L
3446 1054 L
3447 1175 L
3447 1095 L
3447 1175 L
3448 1227 L
3448 1257 L
3448 1221 L
3448 1123 L
3449 1243 L
3449 1307 L
3449 1297 L
3450 986 L
3450 1067 L
3450 1105 L
3450 1202 L
3451 1005 L
3451 1089 L
3451 1123 L
3452 1235 L
3452 1175 L
3452 1136 L
3452 1183 L
3453 1006 L
3453 1164 L
3453 1098 L
3454 1257 L
3454 1195 L
3454 1213 L
3454 1172 L
3455 1288 L
3455 1123 L
3455 1196 L
3455 1147 L
3456 1043 L
3456 1201 L
3456 1265 L
3457 1052 L
3457 1131 L
3457 977 L
3457 1198 L
3458 1050 L
3458 1199 L
3458 1159 L
3458 1315 L
3459 1146 L
3459 1295 L
3459 1137 L
3460 1272 L
3460 1275 L
3460 1086 L
3460 1096 L
3461 1118 L
3461 1217 L
3461 1251 L
3461 1050 L
3462 1169 L
3462 1194 L
3462 1154 L
3463 1217 L
3463 1057 L
3463 1089 L
3463 1202 L
3464 1162 L
3464 1079 L
3464 1130 L
3464 1200 L
3465 1321 L
3465 1043 L
3465 1276 L
3465 1119 L
3466 1127 L
3466 1244 L
3466 1214 L
3466 1069 L
3467 1155 L
3467 1152 L
3467 1239 L
3468 1250 L
3468 1213 L
3468 1183 L
3468 1261 L
3469 1279 L
3469 1278 L
3469 1245 L
3469 1138 L
3470 1205 L
3470 1107 L
3470 1258 L
3470 1283 L
3471 1219 L
3471 1366 L
3471 1191 L
3471 1324 L
3472 1323 L
3472 1201 L
3472 1126 L
3472 1270 L
3473 1223 L
3473 1220 L
3473 1048 L
3474 1347 L
3474 1155 L
3474 1225 L
3474 1175 L
3475 1026 L
3475 1200 L
3475 1139 L
3475 1189 L
3476 1179 L
3476 1259 L
3476 1090 L
3476 1124 L
3477 1125 L
3477 1087 L
3477 1210 L
3477 1187 L
3478 1162 L
3478 1234 L
3478 1214 L
3478 1112 L
3479 1153 L
3479 1173 L
3479 1217 L
3479 1204 L
3480 1187 L
3480 1237 L
3480 1143 L
3480 1194 L
3481 1258 L
3481 1155 L
3481 1295 L
3481 1315 L
3482 1247 L
3482 1214 L
3482 1159 L
3482 1264 L
3483 1281 L
3483 1273 L
3483 1298 L
3483 1130 L
3484 1222 L
3484 1164 L
3484 1093 L
3484 1067 L
3485 1205 L
3485 1129 L
3485 1168 L
3485 1002 L
3486 1269 L
3486 1066 L
3486 1046 L
3486 1173 L
3487 1221 L
3487 1071 L
3487 1136 L
3487 1130 L
3488 1242 L
3488 1245 L
3488 1299 L
3488 1084 L
3488 1323 L
3489 1166 L
3489 1089 L
3489 1034 L
3489 1315 L
3490 1210 L
3490 1276 L
3490 1069 L
3490 1084 L
3491 1392 L
3491 1321 L
3491 1021 L
3491 1146 L
3492 1025 L
3492 1152 L
3492 1231 L
3492 1112 L
3493 1233 L
3493 1261 L
3493 1200 L
3493 1149 L
3494 1136 L
3494 1151 L
3494 1067 L
3494 1193 L
3494 1022 L
3495 1165 L
3495 1203 L
3495 1232 L
3495 1111 L
3496 1074 L
3496 1097 L
3496 1402 L
3496 1002 L
3497 1242 L
3497 1182 L
3497 1184 L
3497 1235 L
3498 1197 L
3498 1291 L
3498 1168 L
3498 1090 L
3498 1226 L
3499 1299 L
3499 1317 L
3499 1215 L
3499 1354 L
3500 1131 L
3500 1180 L
3506 1294 L
3511 1090 L
3517 1217 L
3522 1252 L
3527 1313 L
3532 1178 L
3537 1227 L
3542 1226 L
3547 1147 L
3552 1268 L
3557 1198 L
3561 1107 L
3566 1170 L
3570 1331 L
3575 1292 L
3579 1215 L
3583 1373 L
3587 1361 L
3591 1397 L
3595 1133 L
3599 1214 L
3603 1184 L
3607 1156 L
3611 1199 L
3614 1080 L
3618 1259 L
3622 1158 L
3625 1055 L
3629 1064 L
3632 1268 L
3636 1353 L
3639 1210 L
3642 1115 L
3646 1151 L
3649 1219 L
3652 1277 L
3655 1217 L
3658 1433 L
3661 1085 L
3664 925 L
3667 1138 L
3670 1077 L
3673 1179 L
3676 1186 L
3679 1098 L
3682 1146 L
3685 1280 L
3688 1012 L
3690 1211 L
3693 1120 L
3696 1093 L
3698 1245 L
3701 1002 L
3704 1003 L
3706 1085 L
3709 1110 L
3711 1178 L
3714 1183 L
3716 1159 L
3719 1175 L
3721 1003 L
3724 1264 L
3726 852 L
3728 1212 L
3731 1266 L
3733 1164 L
3735 1078 L
3738 1166 L
3740 1192 L
3742 1141 L
3744 1240 L
3747 1135 L
3749 1373 L
3751 1124 L
3753 1152 L
3755 1306 L
3757 1198 L
3760 1190 L
3762 1411 L
3764 1155 L
3766 1195 L
3768 1016 L
3770 1132 L
3772 1147 L
3774 1178 L
3776 1157 L
3778 1247 L
3780 1123 L
3781 1115 L
3783 1168 L
3785 1041 L
3787 1206 L
3789 1098 L
3791 1166 L
3793 1203 L
3795 1137 L
3796 1062 L
3798 976 L
3800 1263 L
3802 1151 L
3803 1101 L
3805 1142 L
3807 1238 L
3809 1225 L
3810 983 L
3812 1034 L
3814 1265 L
3816 1205 L
3817 974 L
3819 1003 L
3820 946 L
3822 1182 L
3824 1195 L
3825 1087 L
3827 1035 L
3829 1279 L
3830 1125 L
3832 1219 L
3833 1132 L
3835 1057 L
3836 1154 L
3838 1064 L
3839 1192 L
3841 1344 L
3842 1254 L
3844 1047 L
3845 1185 L
3847 1307 L
3848 1099 L
3850 1100 L
3851 1306 L
3853 980 L
3854 1173 L
3856 1004 L
3857 1212 L
3859 1169 L
3860 1247 L
3861 1163 L
3863 1131 L
3864 1144 L
3866 1109 L
3867 1090 L
3868 1152 L
3870 1075 L
3871 1280 L
3872 1270 L
3874 1193 L
3875 1001 L
3876 1471 L
3878 1235 L
3879 1077 L
3880 1257 L
3882 1003 L
3883 1068 L
3884 1138 L
3885 1295 L
3887 1160 L
3888 1165 L
3889 1155 L
3890 1268 L
3892 1292 L
3893 1304 L
3894 1118 L
3895 1103 L
3897 1095 L
3898 1197 L
3899 1172 L
3900 1090 L
3901 1241 L
3903 1280 L
3904 1144 L
3905 1159 L
3906 959 L
3907 1031 L
3908 1092 L
3910 886 L
3911 1177 L
3912 1071 L
3913 1198 L
3914 1286 L
3915 935 L
3917 1023 L
3918 849 L
3919 1193 L
3920 1114 L
3921 1233 L
3922 1088 L
3923 1193 L
3924 1311 L
3925 1225 L
3926 1192 L
3928 1228 L
3929 1162 L
3930 1132 L
3931 1231 L
3932 1129 L
3933 1031 L
3934 984 L
3935 1243 L
3936 1087 L
3937 1231 L
3938 1124 L
3939 1281 L
3940 1036 L
3941 1112 L
3942 1230 L
3943 1213 L
3944 1140 L
3945 1398 L
3946 1132 L
3947 955 L
3948 1038 L
3949 1037 L
3950 1326 L
3951 1117 L
3952 1084 L
3953 1091 L
3954 1067 L
3955 1090 L
3956 1198 L
3957 1271 L
3958 1125 L
3959 1164 L
3960 1018 L
3961 1042 L
3962 1050 L
3963 1283 L
3964 1082 L
3965 1173 L
3966 1268 L
3966 994 L
3967 1076 L
3968 1107 L
3969 1039 L
3970 1079 L
3971 1067 L
3972 1079 L
3973 1116 L
3974 1163 L
3975 958 L
3976 1041 L
3976 1055 L
3977 884 L
3978 1130 L
3979 1161 L
3980 1173 L
3981 1205 L
3982 1207 L
3983 1086 L
3983 889 L
3984 889 L
3985 1214 L
3986 1000 L
3987 1197 L
3988 1094 L
3989 1063 L
3989 1152 L
3990 959 L
3991 1026 L
3992 1045 L
3993 1081 L
3994 1095 L
3995 1104 L
3995 980 L
3996 1086 L
3997 1001 L
3998 1075 L
3999 1182 L
3999 1149 L
4000 941 L
4001 934 L
4002 1015 L
4003 1140 L
4003 1129 L
4004 1304 L
4005 1209 L
4006 1033 L
4007 1210 L
4007 1103 L
4008 899 L
4009 1084 L
4010 1130 L
4011 1153 L
4011 888 L
4012 1055 L
4013 963 L
4014 1239 L
4014 998 L
4015 1126 L
4016 1097 L
4017 1104 L
4017 1179 L
4018 1214 L
4019 1281 L
4020 1161 L
4021 1272 L
4021 1072 L
4022 1187 L
4023 1096 L
4023 1008 L
4024 1141 L
4025 1308 L
4026 1024 L
4026 1116 L
4027 1077 L
4028 1094 L
4029 1210 L
4029 1142 L
4030 1192 L
4031 1123 L
4032 1022 L
4032 1212 L
4033 1145 L
4034 1091 L
4034 1126 L
4035 1298 L
4036 1062 L
4036 995 L
4037 1268 L
4038 1148 L
4039 1104 L
4039 1191 L
4040 1065 L
4041 1168 L
4041 1129 L
4042 973 L
4043 975 L
4043 1039 L
4044 1165 L
4045 1094 L
4045 982 L
4046 1000 L
4047 1133 L
4047 1097 L
4048 1053 L
4049 1138 L
4050 1294 L
4050 1104 L
4051 1276 L
4052 876 L
4052 1183 L
4053 944 L
4053 1261 L
4054 1291 L
4055 843 L
4055 1094 L
4056 1193 L
4057 1008 L
4057 1213 L
4058 1140 L
4059 1077 L
4059 899 L
4060 1111 L
4061 766 L
4061 1123 L
4062 879 L
L2 C03 COSGR

%
% Main frame
%
L10
GSN 
620 1700 M
4220 1700 L
4220 5300 L
620 5300 L
closepath SGR

%
% X axis: large tics
%
L10
GSN 1130 1700 M 0  54 rL SGR
GSN 1130 5300 M 0 -54 rL SGR
helvS (0.0001) 1130 470 xlabel
GSN 1716 1700 M 0  54 rL SGR
GSN 1716 5300 M 0 -54 rL SGR
helvS (0.001) 1716 470 xlabel
GSN 2303 1700 M 0  54 rL SGR
GSN 2303 5300 M 0 -54 rL SGR
helvS (0.01) 2303 470 xlabel
GSN 2889 1700 M 0  54 rL SGR
GSN 2889 5300 M 0 -54 rL SGR
helvS (0.1) 2889 470 xlabel
GSN 3476 1700 M 0  54 rL SGR
GSN 3476 5300 M 0 -54 rL SGR
helvS (1) 3476 470 xlabel
GSN 4062 1700 M 0  54 rL SGR
GSN 4062 5300 M 0 -54 rL SGR
helvS (10) 4062 470 xlabel
%
% X axis: small tics
%
L5
GSN 720 1700 M 0  36 rL SGR
GSN 720 5300 M 0 -36 rL SGR
GSN 824 1700 M 0  36 rL SGR
GSN 824 5300 M 0 -36 rL SGR
GSN 897 1700 M 0  36 rL SGR
GSN 897 5300 M 0 -36 rL SGR
GSN 954 1700 M 0  36 rL SGR
GSN 954 5300 M 0 -36 rL SGR
GSN 1000 1700 M 0  36 rL SGR
GSN 1000 5300 M 0 -36 rL SGR
GSN 1039 1700 M 0  36 rL SGR
GSN 1039 5300 M 0 -36 rL SGR
GSN 1073 1700 M 0  36 rL SGR
GSN 1073 5300 M 0 -36 rL SGR
GSN 1103 1700 M 0  36 rL SGR
GSN 1103 5300 M 0 -36 rL SGR
GSN 1307 1700 M 0  36 rL SGR
GSN 1307 5300 M 0 -36 rL SGR
GSN 1410 1700 M 0  36 rL SGR
GSN 1410 5300 M 0 -36 rL SGR
GSN 1483 1700 M 0  36 rL SGR
GSN 1483 5300 M 0 -36 rL SGR
GSN 1540 1700 M 0  36 rL SGR
GSN 1540 5300 M 0 -36 rL SGR
GSN 1586 1700 M 0  36 rL SGR
GSN 1586 5300 M 0 -36 rL SGR
GSN 1626 1700 M 0  36 rL SGR
GSN 1626 5300 M 0 -36 rL SGR
GSN 1660 1700 M 0  36 rL SGR
GSN 1660 5300 M 0 -36 rL SGR
GSN 1690 1700 M 0  36 rL SGR
GSN 1690 5300 M 0 -36 rL SGR
GSN 1893 1700 M 0  36 rL SGR
GSN 1893 5300 M 0 -36 rL SGR
GSN 1996 1700 M 0  36 rL SGR
GSN 1996 5300 M 0 -36 rL SGR
GSN 2069 1700 M 0  36 rL SGR
GSN 2069 5300 M 0 -36 rL SGR
GSN 2126 1700 M 0  36 rL SGR
GSN 2126 5300 M 0 -36 rL SGR
GSN 2173 1700 M 0  36 rL SGR
GSN 2173 5300 M 0 -36 rL SGR
GSN 2212 1700 M 0  36 rL SGR
GSN 2212 5300 M 0 -36 rL SGR
GSN 2246 1700 M 0  36 rL SGR
GSN 2246 5300 M 0 -36 rL SGR
GSN 2276 1700 M 0  36 rL SGR
GSN 2276 5300 M 0 -36 rL SGR
GSN 2479 1700 M 0  36 rL SGR
GSN 2479 5300 M 0 -36 rL SGR
GSN 2583 1700 M 0  36 rL SGR
GSN 2583 5300 M 0 -36 rL SGR
GSN 2656 1700 M 0  36 rL SGR
GSN 2656 5300 M 0 -36 rL SGR
GSN 2713 1700 M 0  36 rL SGR
GSN 2713 5300 M 0 -36 rL SGR
GSN 2759 1700 M 0  36 rL SGR
GSN 2759 5300 M 0 -36 rL SGR
GSN 2798 1700 M 0  36 rL SGR
GSN 2798 5300 M 0 -36 rL SGR
GSN 2832 1700 M 0  36 rL SGR
GSN 2832 5300 M 0 -36 rL SGR
GSN 2862 1700 M 0  36 rL SGR
GSN 2862 5300 M 0 -36 rL SGR
GSN 3066 1700 M 0  36 rL SGR
GSN 3066 5300 M 0 -36 rL SGR
GSN 3169 1700 M 0  36 rL SGR
GSN 3169 5300 M 0 -36 rL SGR
GSN 3242 1700 M 0  36 rL SGR
GSN 3242 5300 M 0 -36 rL SGR
GSN 3299 1700 M 0  36 rL SGR
GSN 3299 5300 M 0 -36 rL SGR
GSN 3345 1700 M 0  36 rL SGR
GSN 3345 5300 M 0 -36 rL SGR
GSN 3385 1700 M 0  36 rL SGR
GSN 3385 5300 M 0 -36 rL SGR
GSN 3419 1700 M 0  36 rL SGR
GSN 3419 5300 M 0 -36 rL SGR
GSN 3449 1700 M 0  36 rL SGR
GSN 3449 5300 M 0 -36 rL SGR
GSN 3652 1700 M 0  36 rL SGR
GSN 3652 5300 M 0 -36 rL SGR
GSN 3755 1700 M 0  36 rL SGR
GSN 3755 5300 M 0 -36 rL SGR
GSN 3829 1700 M 0  36 rL SGR
GSN 3829 5300 M 0 -36 rL SGR
GSN 3885 1700 M 0  36 rL SGR
GSN 3885 5300 M 0 -36 rL SGR
GSN 3932 1700 M 0  36 rL SGR
GSN 3932 5300 M 0 -36 rL SGR
GSN 3971 1700 M 0  36 rL SGR
GSN 3971 5300 M 0 -36 rL SGR
GSN 4005 1700 M 0  36 rL SGR
GSN 4005 5300 M 0 -36 rL SGR
GSN 4035 1700 M 0  36 rL SGR
GSN 4035 5300 M 0 -36 rL SGR
%
% Y axis: large tics
%
L10
GSN 620 2121 M 54 0 rL SGR
GSN 4220 2121 M -54 0 rL SGR
helvS (1.04) 560 2121 ylabel
GSN 620 3008 M 54 0 rL SGR
GSN 4220 3008 M -54 0 rL SGR
helvS (1.06) 560 3008 ylabel
GSN 620 3896 M 54 0 rL SGR
GSN 4220 3896 M -54 0 rL SGR
helvS (1.08) 560 3896 ylabel
GSN 620 4783 M 54 0 rL SGR
GSN 4220 4783 M -54 0 rL SGR
helvS (1.1) 560 4783 ylabel
%
% Y axis: small tics
%
L5
GSN 620 1899 M 36 0 rL SGR
GSN 4220 1899 M -36 0 rL SGR
GSN 620 2121 M 36 0 rL SGR
GSN 4220 2121 M -36 0 rL SGR
GSN 620 2343 M 36 0 rL SGR
GSN 4220 2343 M -36 0 rL SGR
GSN 620 2565 M 36 0 rL SGR
GSN 4220 2565 M -36 0 rL SGR
GSN 620 2787 M 36 0 rL SGR
GSN 4220 2787 M -36 0 rL SGR
GSN 620 3008 M 36 0 rL SGR
GSN 4220 3008 M -36 0 rL SGR
GSN 620 3230 M 36 0 rL SGR
GSN 4220 3230 M -36 0 rL SGR
GSN 620 3452 M 36 0 rL SGR
GSN 4220 3452 M -36 0 rL SGR
GSN 620 3674 M 36 0 rL SGR
GSN 4220 3674 M -36 0 rL SGR
GSN 620 3896 M 36 0 rL SGR
GSN 4220 3896 M -36 0 rL SGR
GSN 620 4118 M 36 0 rL SGR
GSN 4220 4118 M -36 0 rL SGR
GSN 620 4339 M 36 0 rL SGR
GSN 4220 4339 M -36 0 rL SGR
GSN 620 4561 M 36 0 rL SGR
GSN 4220 4561 M -36 0 rL SGR
GSN 620 4783 M 36 0 rL SGR
GSN 4220 4783 M -36 0 rL SGR
GSN 620 5005 M 36 0 rL SGR
GSN 4220 5005 M -36 0 rL SGR
GSN 620 5227 M 36 0 rL SGR
GSN 4220 5227 M -36 0 rL SGR

%
% X-Axis label:
%
gsave 2420 290 M 
[
[(Helvetica) 180 0 true true 0 (t)]
[(Helvetica) 180 0 true true 0 (i)]
[(Helvetica) 180 0 true true 0 (m)]
[(Helvetica) 180 0 true true 0 (e)]
] 0 MCshow grestore

%
% Y-Axis label:
%
gsave 234 3500 M 
currentpoint gsave translate 90 rotate 0 0 moveto
[
[(Helvetica) 180 0 true true 0 (s)]
[(Helvetica) 180 0 true true 0 (i)]
[(Helvetica) 180 0 true true 0 (g)]
[(Helvetica) 180 0 true true 0 (n)]
[(Helvetica) 180 0 true true 0 (a)]
[(Helvetica) 180 0 true true 0 (l)]
] 0 MCshow grestore

%
% Residuals:
%
gsave 129 1160 M 
currentpoint gsave translate 90 rotate 0 0 moveto
[
[(Helvetica) 150 0 true true 0 (r)]
[(Helvetica) 150 0 true true 0 (e)]
[(Helvetica) 150 0 true true 0 (s)]
[(Helvetica) 150 0 true true 0 (i)]
[(Helvetica) 150 0 true true 0 (d)]
[(Helvetica) 150 0 true true 0 (u)]
[(Helvetica) 150 0 true true 0 (a)]
[(Helvetica) 150 0 true true 0 (l)]
[(Helvetica) 150 0 true true 0 (s)]
] 0 MCshow grestore

%
% Residual frame
%
L10
GSN 
620 620 M
4220 620 L
4220 1700 L
620 1700 L
closepath SGR
%
% X axis: large tics - residual frame
%
L10
GSN 1130 620 M 0  54 rL SGR
GSN 1130 1700 M 0 -54 rL SGR
GSN 1716 620 M 0  54 rL SGR
GSN 1716 1700 M 0 -54 rL SGR
GSN 2303 620 M 0  54 rL SGR
GSN 2303 1700 M 0 -54 rL SGR
GSN 2889 620 M 0  54 rL SGR
GSN 2889 1700 M 0 -54 rL SGR
GSN 3476 620 M 0  54 rL SGR
GSN 3476 1700 M 0 -54 rL SGR
GSN 4062 620 M 0  54 rL SGR
GSN 4062 1700 M 0 -54 rL SGR
%
% X axis: small tics - residual frame
%
L5
GSN 720 620 M 0  36 rL SGR
GSN 720 1700 M 0 -36 rL SGR
GSN 824 620 M 0  36 rL SGR
GSN 824 1700 M 0 -36 rL SGR
GSN 897 620 M 0  36 rL SGR
GSN 897 1700 M 0 -36 rL SGR
GSN 954 620 M 0  36 rL SGR
GSN 954 1700 M 0 -36 rL SGR
GSN 1000 620 M 0  36 rL SGR
GSN 1000 1700 M 0 -36 rL SGR
GSN 1039 620 M 0  36 rL SGR
GSN 1039 1700 M 0 -36 rL SGR
GSN 1073 620 M 0  36 rL SGR
GSN 1073 1700 M 0 -36 rL SGR
GSN 1103 620 M 0  36 rL SGR
GSN 1103 1700 M 0 -36 rL SGR
GSN 1307 620 M 0  36 rL SGR
GSN 1307 1700 M 0 -36 rL SGR
GSN 1410 620 M 0  36 rL SGR
GSN 1410 1700 M 0 -36 rL SGR
GSN 1483 620 M 0  36 rL SGR
GSN 1483 1700 M 0 -36 rL SGR
GSN 1540 620 M 0  36 rL SGR
GSN 1540 1700 M 0 -36 rL SGR
GSN 1586 620 M 0  36 rL SGR
GSN 1586 1700 M 0 -36 rL SGR
GSN 1626 620 M 0  36 rL SGR
GSN 1626 1700 M 0 -36 rL SGR
GSN 1660 620 M 0  36 rL SGR
GSN 1660 1700 M 0 -36 rL SGR
GSN 1690 620 M 0  36 rL SGR
GSN 1690 1700 M 0 -36 rL SGR
GSN 1893 620 M 0  36 rL SGR
GSN 1893 1700 M 0 -36 rL SGR
GSN 1996 620 M 0  36 rL SGR
GSN 1996 1700 M 0 -36 rL SGR
GSN 2069 620 M 0  36 rL SGR
GSN 2069 1700 M 0 -36 rL SGR
GSN 2126 620 M 0  36 rL SGR
GSN 2126 1700 M 0 -36 rL SGR
GSN 2173 620 M 0  36 rL SGR
GSN 2173 1700 M 0 -36 rL SGR
GSN 2212 620 M 0  36 rL SGR
GSN 2212 1700 M 0 -36 rL SGR
GSN 2246 620 M 0  36 rL SGR
GSN 2246 1700 M 0 -36 rL SGR
GSN 2276 620 M 0  36 rL SGR
GSN 2276 1700 M 0 -36 rL SGR
GSN 2479 620 M 0  36 rL SGR
GSN 2479 1700 M 0 -36 rL SGR
GSN 2583 620 M 0  36 rL SGR
GSN 2583 1700 M 0 -36 rL SGR
GSN 2656 620 M 0  36 rL SGR
GSN 2656 1700 M 0 -36 rL SGR
GSN 2713 620 M 0  36 rL SGR
GSN 2713 1700 M 0 -36 rL SGR
GSN 2759 620 M 0  36 rL SGR
GSN 2759 1700 M 0 -36 rL SGR
GSN 2798 620 M 0  36 rL SGR
GSN 2798 1700 M 0 -36 rL SGR
GSN 2832 620 M 0  36 rL SGR
GSN 2832 1700 M 0 -36 rL SGR
GSN 2862 620 M 0  36 rL SGR
GSN 2862 1700 M 0 -36 rL SGR
GSN 3066 620 M 0  36 rL SGR
GSN 3066 1700 M 0 -36 rL SGR
GSN 3169 620 M 0  36 rL SGR
GSN 3169 1700 M 0 -36 rL SGR
GSN 3242 620 M 0  36 rL SGR
GSN 3242 1700 M 0 -36 rL SGR
GSN 3299 620 M 0  36 rL SGR
GSN 3299 1700 M 0 -36 rL SGR
GSN 3345 620 M 0  36 rL SGR
GSN 3345 1700 M 0 -36 rL SGR
GSN 3385 620 M 0  36 rL SGR
GSN 3385 1700 M 0 -36 rL SGR
GSN 3419 620 M 0  36 rL SGR
GSN 3419 1700 M 0 -36 rL SGR
GSN 3449 620 M 0  36 rL SGR
GSN 3449 1700 M 0 -36 rL SGR
GSN 3652 620 M 0  36 rL SGR
GSN 3652 1700 M 0 -36 rL SGR
GSN 3755 620 M 0  36 rL SGR
GSN 3755 1700 M 0 -36 rL SGR
GSN 3829 620 M 0  36 rL SGR
GSN 3829 1700 M 0 -36 rL SGR
GSN 3885 620 M 0  36 rL SGR
GSN 3885 1700 M 0 -36 rL SGR
GSN 3932 620 M 0  36 rL SGR
GSN 3932 1700 M 0 -36 rL SGR
GSN 3971 620 M 0  36 rL SGR
GSN 3971 1700 M 0 -36 rL SGR
GSN 4005 620 M 0  36 rL SGR
GSN 4005 1700 M 0 -36 rL SGR
GSN 4035 620 M 0  36 rL SGR
GSN 4035 1700 M 0 -36 rL SGR
%
% Y axis: large tics - residual frame
%
L10
GSN 620 751 M 54 0 rL SGR
GSN 4220 751 M -54 0 rL SGR
helvS (-0.01) 560 751 ylabelresid
GSN 620 1124 M 54 0 rL SGR
GSN 4220 1124 M -54 0 rL SGR
helvS (0) 560 1124 ylabelresid
GSN 620 1496 M 54 0 rL SGR
GSN 4220 1496 M -54 0 rL SGR
helvS (0.01) 560 1496 ylabelresid

%
% X axis - residual panel
%
GSN L5 620 1124 M 4220 1124 L SDA G50 SGR

end
showpage
%%Trailer
%%EOF
