%!PS-Adobe-3.0 EPSF-3.0
%%BoundingBox: 0 0 514 550
%%Creator: BioKin Ltd.
%%DocumentFonts: Symbol Helvetica
%%EndComments
%
/bkdict 256 dict def
bkdict begin
/M {moveto} def 
/R {rmoveto} def
/L {lineto} def
/rL {rlineto} def
/GSN {gsave newpath} def
/SGR {stroke grestore} def
/COSGR {gsave setrgbcolor stroke grestore grestore} def
/SL {setlinewidth} def
/LWMB {12} def             % line width - model curves, black & white
/LWMC {10} def             % line width - model curves, color
/L2 {2.5 setlinewidth} def
/L5 {5 setlinewidth} def
/L10 {10 setlinewidth} def
/G50 {0.5 setgray} def
/SDA {[10  20] 0 setdash} def % axes
/helvT {/Helvetica findfont 100 scalefont setfont} def % tiny
/helvS {/Helvetica findfont 125 scalefont setfont} def % small
/helvM {/Helvetica findfont 150 scalefont setfont} def % medium
/helvL {/Helvetica findfont 175 scalefont setfont} def % large
/xlabel {gsave M dup
   stringwidth exch -0.5 mul exch rmoveto show grestore} def 
/ylabel {gsave M 90 rotate dup
   stringwidth exch -0.5 mul exch rmoveto show grestore} def
/ylabelresid {gsave M dup
   stringwidth exch -1 mul exch rmoveto show grestore} def
% ======
% Shapes
% ======
% Circle:
/Circ {0 360 arc closepath} def
%
% Square:
/Squa {dup dup -0.5 mul dup dup R -2 mul 0 exch rL 1 mul 0 rL dup 0 exch -1 mul rL closepath} def
%
% Triangle Up:
/TriU {dup dup dup -0.4 mul exch -0.5 mul exch R dup 0.5 mul exch rL dup -1 mul exch 0.5 mul exch rL closepath} def 
%
% Triangle Down:
/TriD {dup dup dup 0.4 mul exch -0.5 mul exch R dup 0.5 mul exch -1 mul rL dup 0.5 mul exch rL closepath} def 
%
% Diamond:
/Diam {45 rotate Squa} def
% ======
% Fills
% ======
/GRF {gsave setgray fill grestore} def                    % gray-level Fill
/COF {gsave setrgbcolor fill grestore} def                % color fill
% ======
% Colors
% ======
/C01 {1.00	0.00	0.00} def      % Red
/C02 {0.00	0.00	1.00} def      % Blue
/C03 {0.00	0.39	0.00} def      % Dark Green
/C04 {0.78	0.08	0.52} def      % Medium Violet Red
/C05 {0.55	0.27	0.07} def      % Saddle Brown
/C06 {0.10	0.70	0.70} def      % (cyan)
/C07 {1.00	0.55	0.00} def      % Dark Orange
/C08 {0.63	0.13	0.94} def      % Purple
/C09 {0.00	0.75	1.00} def      % Deep Sky Blue
/C10 {0.20	0.80	0.20} def      % Lime Green
/C11 {0.47	0.53	0.60} def      % Light Slate Gray
/C12 {0.00	0.00	0.00} def      % Black            % or: {0.19	0.31	0.31} def      % Dark Slate Gray
%
/LGR {0.75} def % light gray
/DGR {0.33} def % dark gray
%
% =============
% Dash patterns
% =============
/dash01 { [80  20] 0 setdash } def
/dash02 { [40  20] 0 setdash } def
/dash03 { [80  20  10  20] 0 setdash } def
/dash04 { [40  20  10  20] 0 setdash } def
/dash05 { [80  20  10  10  10  20] 0 setdash } def
/dash06 { [40  20  10  10  10  20] 0 setdash } def
/dash07 { [10  10] 0 setdash } def
%
/MFshow {
   { dup 5 get 3 ge
     { 5 get 3 eq {gsave} {grestore} ifelse }
     {dup dup 0 get findfont exch 1 get scalefont setfont
     [ currentpoint ] exch dup 2 get 0 exch R dup 5 get 2 ne {dup dup 6
     get exch 4 get {show} {stringwidth pop 0 R} ifelse }if dup 5 get 0 eq
     {dup 3 get {2 get neg 0 exch R pop} {pop aload pop M} ifelse} {dup 5
     get 1 eq {dup 2 get exch dup 3 get exch 6 get stringwidth pop -2 div
     dup 0 R} {dup 6 get stringwidth pop -2 div 0 R 6 get
     show 2 index {aload pop M neg 3 -1 roll neg R pop pop} {pop pop pop
     pop aload pop M} ifelse }ifelse }ifelse }
     ifelse }
   forall} bind def
/MFwidth {0 exch {dup 3 get{dup dup 0 get findfont exch 1 get scalefont
     setfont 6 get stringwidth pop add} {pop} ifelse} forall} bind def
/MCshow { currentpoint stroke M
  exch dup MFwidth -2 div 3 -1 roll R MFshow } def
%
end
%%EndProlog
bkdict begin
0.1 0.1 scale
%
% Residuals:
%
GSN 620 4626 M
620 4863 L
620 4749 L
620 4495 L
620 4628 L
620 4514 L
620 4350 L
620 4374 L
620 4219 L
620 4171 L
620 4293 L
620 4149 L
620 4067 L
620 4140 L
620 4093 L
620 3990 L
620 4022 L
620 3866 L
620 3918 L
620 3931 L
620 3967 L
620 3996 L
620 3807 L
620 3761 L
620 3688 L
620 3737 L
620 3949 L
620 3884 L
620 3722 L
620 3708 L
620 3666 L
620 3654 L
620 3660 L
620 3727 L
620 3389 L
620 3722 L
620 3452 L
620 3452 L
620 3379 L
620 3479 L
620 3470 L
620 3226 L
620 3426 L
620 3414 L
620 3264 L
620 3353 L
620 3449 L
620 3422 L
620 3195 L
620 3242 L
620 3260 L
620 3162 L
620 3131 L
620 3224 L
620 3253 L
620 3131 L
620 3046 L
620 3058 L
620 3050 L
620 3224 L
620 3077 L
620 3196 L
620 3193 L
620 3048 L
620 3058 L
620 2949 L
620 2930 L
620 3124 L
620 3043 L
620 3129 L
620 2876 L
620 2979 L
620 3016 L
620 3035 L
620 2998 L
620 2962 L
620 2860 L
620 2858 L
620 2943 L
620 2960 L
620 2988 L
620 2789 L
620 2732 L
620 2704 L
620 2518 L
620 2702 L
620 2765 L
620 2630 L
620 2639 L
620 2587 L
620 2679 L
620 2363 L
620 2616 L
620 2479 L
620 2434 L
620 2335 L
620 2354 L
620 2432 L
620 2395 L
620 2286 L
620 2363 L
620 2403 L
620 2523 L
620 2323 L
620 2394 L
620 2478 L
620 2363 L
620 2394 L
620 2326 L
620 2381 L
620 2334 L
620 2372 L
620 2222 L
620 2158 L
620 2211 L
620 2136 L
620 2250 L
620 2156 L
620 2384 L
620 2332 L
620 2351 L
620 2293 L
620 2403 L
620 2442 L
620 2230 L
620 2314 L
620 2408 L
620 2234 L
620 2507 L
620 2323 L
620 2225 L
620 2452 L
620 2467 L
620 2453 L
620 2349 L
620 2149 L
620 2531 L
620 2370 L
620 2329 L
620 2309 L
620 2528 L
620 2396 L
620 2372 L
620 2643 L
620 2284 L
620 2261 L
620 2389 L
620 2378 L
620 2424 L
620 2355 L
620 2258 L
620 2432 L
620 2535 L
620 2436 L
620 2411 L
620 2349 L
620 2323 L
620 2577 L
620 2455 L
620 2313 L
620 2522 L
620 2371 L
620 2378 L
620 2593 L
620 2435 L
620 2435 L
620 2649 L
620 2508 L
620 2465 L
620 2571 L
620 2612 L
620 2520 L
620 2422 L
620 2511 L
620 2713 L
620 2606 L
620 2422 L
620 2680 L
620 2652 L
620 2513 L
620 2407 L
620 2665 L
620 2678 L
620 2557 L
620 2364 L
620 2667 L
620 2592 L
620 2619 L
620 2778 L
620 2572 L
620 2648 L
620 2734 L
620 2581 L
620 2637 L
620 2591 L
620 2706 L
620 2733 L
620 2640 L
620 2590 L
620 2578 L
620 2598 L
620 2687 L
620 2829 L
620 2669 L
620 2724 L
620 2489 L
620 2757 L
620 2627 L
620 2755 L
620 2688 L
620 2622 L
620 2838 L
620 2820 L
620 2645 L
620 2717 L
620 2781 L
620 2841 L
620 2653 L
620 2813 L
620 2871 L
620 2774 L
620 2740 L
620 2602 L
620 2788 L
620 2615 L
620 2743 L
620 2797 L
620 2788 L
620 2846 L
620 2822 L
620 2684 L
620 2963 L
620 2730 L
620 2712 L
620 2935 L
620 2804 L
620 2784 L
620 2824 L
620 2636 L
620 2700 L
620 2966 L
620 2913 L
620 2864 L
620 2986 L
620 2774 L
620 2715 L
620 2759 L
620 2977 L
620 2879 L
620 2758 L
620 2812 L
620 2931 L
620 2860 L
620 2863 L
620 2699 L
620 2934 L
620 3018 L
620 2845 L
620 2822 L
620 2861 L
620 2907 L
620 2862 L
620 2879 L
620 2912 L
620 2734 L
620 2982 L
620 2916 L
620 2874 L
620 2920 L
620 3002 L
620 2705 L
620 2819 L
620 2888 L
620 3008 L
620 2853 L
620 2934 L
620 2880 L
620 2932 L
620 2936 L
620 2684 L
620 3058 L
620 2950 L
620 3122 L
620 2967 L
620 2937 L
620 3165 L
620 3158 L
620 3065 L
620 3022 L
620 3228 L
620 3101 L
620 3163 L
620 2979 L
620 3131 L
620 3081 L
620 3140 L
620 3114 L
620 3187 L
620 3124 L
620 3058 L
620 3192 L
620 3115 L
620 3129 L
620 3159 L
620 3204 L
620 3124 L
620 3044 L
620 3225 L
620 3108 L
620 3294 L
620 3413 L
620 3224 L
620 3144 L
620 3073 L
620 3278 L
620 3200 L
620 3052 L
620 3121 L
620 3166 L
620 3302 L
620 3345 L
620 3071 L
620 3062 L
620 3105 L
620 3219 L
620 3139 L
620 3252 L
620 3212 L
620 3129 L
620 3139 L
620 3125 L
620 3135 L
620 3144 L
620 3032 L
620 3090 L
620 3366 L
620 3095 L
620 3157 L
620 3010 L
620 3030 L
620 3144 L
620 3082 L
620 3110 L
620 3067 L
620 3153 L
620 3233 L
620 3038 L
620 3354 L
620 3081 L
620 3114 L
620 3205 L
620 3034 L
620 2993 L
620 3191 L
620 3239 L
620 2965 L
620 3135 L
620 2982 L
620 3018 L
620 3212 L
620 3101 L
620 3068 L
620 2965 L
620 3059 L
620 3084 L
620 3217 L
620 3148 L
620 3001 L
620 3068 L
620 3067 L
620 3141 L
620 2912 L
620 3019 L
620 2977 L
620 2960 L
620 3071 L
620 2985 L
620 2966 L
620 3118 L
620 3275 L
620 3162 L
620 3062 L
620 2909 L
620 3126 L
620 2888 L
620 3046 L
620 3102 L
620 2999 L
620 3039 L
620 3095 L
620 3103 L
620 2968 L
620 2910 L
620 2906 L
620 2908 L
620 2993 L
620 2996 L
620 2888 L
620 2961 L
620 2968 L
620 2800 L
620 2965 L
620 3036 L
620 3022 L
620 2936 L
620 2972 L
620 2936 L
620 3050 L
620 2945 L
620 3020 L
620 3160 L
620 3054 L
620 2949 L
620 3060 L
620 3005 L
620 3011 L
620 3035 L
620 2817 L
620 2860 L
620 2981 L
620 3059 L
620 3011 L
620 2919 L
620 2942 L
620 2973 L
620 3048 L
620 2968 L
620 3131 L
620 3042 L
620 2998 L
620 3154 L
620 3064 L
620 2992 L
620 3006 L
620 3007 L
620 2964 L
620 2868 L
620 3085 L
620 2907 L
620 3102 L
620 3124 L
620 3024 L
620 2952 L
620 2959 L
620 3092 L
620 3119 L
620 2981 L
620 3033 L
620 3110 L
620 3016 L
620 2986 L
620 2993 L
620 2915 L
620 2798 L
620 2860 L
620 2872 L
620 2874 L
620 2957 L
620 2937 L
620 3016 L
620 3086 L
620 2963 L
620 2978 L
620 3140 L
620 3043 L
620 2916 L
620 3044 L
620 3224 L
620 2912 L
620 2990 L
620 3074 L
620 2809 L
620 2852 L
620 2867 L
620 3141 L
620 3047 L
620 2922 L
620 2983 L
620 2864 L
620 2973 L
620 2721 L
620 3075 L
620 2945 L
620 2848 L
620 2822 L
620 3087 L
620 2970 L
620 2785 L
620 3079 L
620 3041 L
620 3081 L
620 2855 L
620 2972 L
620 2862 L
620 2913 L
620 3075 L
620 2865 L
620 2999 L
620 2853 L
620 2782 L
620 2941 L
620 2964 L
620 3015 L
620 2990 L
620 3016 L
620 3014 L
620 3121 L
620 3068 L
620 3039 L
620 2948 L
620 2947 L
620 2836 L
620 2882 L
620 2978 L
620 2961 L
620 2987 L
620 2935 L
620 3047 L
620 2905 L
620 3191 L
620 2889 L
620 3032 L
620 2908 L
620 2891 L
620 3139 L
620 2954 L
620 2967 L
620 2948 L
620 3087 L
620 3112 L
620 2941 L
620 2984 L
620 2870 L
L2 C06 COSGR

%
%================
% Legend - Begin
%================
%
GSN 4240 5180 M
4480 5180 L
LWMC SL  C06 COSGR
GSN 4540 5141 M helvM (3.0 uM) show grestore
%
%================
% Legend - End
%================
%

%
% Main frame
%
L10
GSN 
620 1700 M
4220 1700 L
4220 5300 L
620 5300 L
closepath SGR

%
% X axis: large tics
%
L10
%
% X axis: small tics
%
L5
%
% Y axis: large tics
%
L10
GSN 620 2064 M 54 0 rL SGR
GSN 4220 2064 M -54 0 rL SGR
helvS (-0.025) 560 2064 ylabel
GSN 620 2952 M 54 0 rL SGR
GSN 4220 2952 M -54 0 rL SGR
helvS (0) 560 2952 ylabel
GSN 620 3840 M 54 0 rL SGR
GSN 4220 3840 M -54 0 rL SGR
helvS (0.025) 560 3840 ylabel
GSN 620 4727 M 54 0 rL SGR
GSN 4220 4727 M -54 0 rL SGR
helvS (0.05) 560 4727 ylabel
%
% Y axis: small tics
%
L5
GSN 620 1887 M 36 0 rL SGR
GSN 4220 1887 M -36 0 rL SGR
GSN 620 2331 M 36 0 rL SGR
GSN 4220 2331 M -36 0 rL SGR
GSN 620 2774 M 36 0 rL SGR
GSN 4220 2774 M -36 0 rL SGR
GSN 620 3218 M 36 0 rL SGR
GSN 4220 3218 M -36 0 rL SGR
GSN 620 3662 M 36 0 rL SGR
GSN 4220 3662 M -36 0 rL SGR
GSN 620 4106 M 36 0 rL SGR
GSN 4220 4106 M -36 0 rL SGR
GSN 620 4550 M 36 0 rL SGR
GSN 4220 4550 M -36 0 rL SGR
GSN 620 4993 M 36 0 rL SGR
GSN 4220 4993 M -36 0 rL SGR

%
% X axis - residual panel
%
GSN L5 620 2952 M 4220 2952 L SDA G50 SGR

%
% X-Axis label:
%
gsave 620 1370 M 
[
[(Helvetica) 180 0 true true 0 (t)]
[(Helvetica) 180 0 true true 0 (i)]
[(Helvetica) 180 0 true true 0 (m)]
[(Helvetica) 180 0 true true 0 (e)]
] 0 MCshow grestore

%
% Y-Axis label:
%
gsave 234 3500 M 
currentpoint gsave translate 90 rotate 0 0 moveto
[
[(Helvetica) 180 0 true true 0 (r)]
[(Helvetica) 180 0 true true 0 (e)]
[(Helvetica) 180 0 true true 0 (s)]
[(Helvetica) 180 0 true true 0 (i)]
[(Helvetica) 180 0 true true 0 (d)]
[(Helvetica) 180 0 true true 0 (u)]
[(Helvetica) 180 0 true true 0 (a)]
[(Helvetica) 180 0 true true 0 (l)]
[(Helvetica) 180 0 true true 0 (s)]
] 0 MCshow grestore

end
showpage
%%Trailer
%%EOF
