%!PS-Adobe-3.0 EPSF-3.0
%%BoundingBox: 0 0 514 550
%%Creator: BioKin Ltd.
%%DocumentFonts: Symbol Helvetica
%%EndComments
%
/bkdict 256 dict def
bkdict begin
/M {moveto} def 
/R {rmoveto} def
/L {lineto} def
/rL {rlineto} def
/GSN {gsave newpath} def
/SGR {stroke grestore} def
/COSGR {gsave setrgbcolor stroke grestore grestore} def
/SL {setlinewidth} def
/LWMB {12} def             % line width - model curves, black & white
/LWMC {10} def             % line width - model curves, color
/L2 {2.5 setlinewidth} def
/L5 {5 setlinewidth} def
/L10 {10 setlinewidth} def
/G50 {0.5 setgray} def
/SDA {[10  20] 0 setdash} def % axes
/helvT {/Helvetica findfont 100 scalefont setfont} def % tiny
/helvS {/Helvetica findfont 125 scalefont setfont} def % small
/helvM {/Helvetica findfont 150 scalefont setfont} def % medium
/helvL {/Helvetica findfont 175 scalefont setfont} def % large
/xlabel {gsave M dup
   stringwidth exch -0.5 mul exch rmoveto show grestore} def 
/ylabel {gsave M 90 rotate dup
   stringwidth exch -0.5 mul exch rmoveto show grestore} def
/ylabelresid {gsave M dup
   stringwidth exch -1 mul exch rmoveto show grestore} def
% ======
% Shapes
% ======
% Circle:
/Circ {0 360 arc closepath} def
%
% Square:
/Squa {dup dup -0.5 mul dup dup R -2 mul 0 exch rL 1 mul 0 rL dup 0 exch -1 mul rL closepath} def
%
% Triangle Up:
/TriU {dup dup dup -0.4 mul exch -0.5 mul exch R dup 0.5 mul exch rL dup -1 mul exch 0.5 mul exch rL closepath} def 
%
% Triangle Down:
/TriD {dup dup dup 0.4 mul exch -0.5 mul exch R dup 0.5 mul exch -1 mul rL dup 0.5 mul exch rL closepath} def 
%
% Diamond:
/Diam {45 rotate Squa} def
% ======
% Fills
% ======
/GRF {gsave setgray fill grestore} def                    % gray-level Fill
/COF {gsave setrgbcolor fill grestore} def                % color fill
% ======
% Colors
% ======
/C01 {1.00	0.00	0.00} def      % Red
/C02 {0.00	0.00	1.00} def      % Blue
/C03 {0.00	0.39	0.00} def      % Dark Green
/C04 {0.78	0.08	0.52} def      % Medium Violet Red
/C05 {0.55	0.27	0.07} def      % Saddle Brown
/C06 {0.10	0.70	0.70} def      % (cyan)
/C07 {1.00	0.55	0.00} def      % Dark Orange
/C08 {0.63	0.13	0.94} def      % Purple
/C09 {0.00	0.75	1.00} def      % Deep Sky Blue
/C10 {0.20	0.80	0.20} def      % Lime Green
/C11 {0.47	0.53	0.60} def      % Light Slate Gray
/C12 {0.00	0.00	0.00} def      % Black            % or: {0.19	0.31	0.31} def      % Dark Slate Gray
%
/LGR {0.75} def % light gray
/DGR {0.33} def % dark gray
%
% =============
% Dash patterns
% =============
/dash01 { [80  20] 0 setdash } def
/dash02 { [40  20] 0 setdash } def
/dash03 { [80  20  10  20] 0 setdash } def
/dash04 { [40  20  10  20] 0 setdash } def
/dash05 { [80  20  10  10  10  20] 0 setdash } def
/dash06 { [40  20  10  10  10  20] 0 setdash } def
/dash07 { [10  10] 0 setdash } def
%
/MFshow {
   { dup 5 get 3 ge
     { 5 get 3 eq {gsave} {grestore} ifelse }
     {dup dup 0 get findfont exch 1 get scalefont setfont
     [ currentpoint ] exch dup 2 get 0 exch R dup 5 get 2 ne {dup dup 6
     get exch 4 get {show} {stringwidth pop 0 R} ifelse }if dup 5 get 0 eq
     {dup 3 get {2 get neg 0 exch R pop} {pop aload pop M} ifelse} {dup 5
     get 1 eq {dup 2 get exch dup 3 get exch 6 get stringwidth pop -2 div
     dup 0 R} {dup 6 get stringwidth pop -2 div 0 R 6 get
     show 2 index {aload pop M neg 3 -1 roll neg R pop pop} {pop pop pop
     pop aload pop M} ifelse }ifelse }ifelse }
     ifelse }
   forall} bind def
/MFwidth {0 exch {dup 3 get{dup dup 0 get findfont exch 1 get scalefont
     setfont 6 get stringwidth pop add} {pop} ifelse} forall} bind def
/MCshow { currentpoint stroke M
  exch dup MFwidth -2 div 3 -1 roll R MFshow } def
%
end
%%EndProlog
bkdict begin
0.1 0.1 scale
%
% Model curves:
%

GSN 753 5166 M
753 5166 L
786 5151 L
820 5133 L
853 5113 L
886 5090 L
903 5077 L
919 5063 L
953 5033 L
986 4998 L
1020 4958 L
1053 4913 L
1053 4913 L
1086 4863 L
1120 4807 L
1153 4744 L
1186 4674 L
1203 4636 L
1220 4597 L
1253 4513 L
1286 4423 L
1320 4325 L
1353 4222 L
1353 4221 L
1386 4113 L
1420 4001 L
1453 3884 L
1486 3767 L
1503 3706 L
1520 3648 L
1553 3531 L
1586 3417 L
1620 3306 L
1653 3200 L
1653 3198 L
1686 3100 L
1720 3007 L
1753 2922 L
1786 2844 L
1804 2807 L
1820 2774 L
1853 2713 L
1886 2659 L
1920 2613 L
1953 2575 L
1954 2574 L
1986 2543 L
2020 2518 L
2053 2499 L
2086 2485 L
2104 2480 L
2120 2476 L
2153 2469 L
2186 2466 L
2220 2464 L
2253 2463 L
2254 2463 L
2286 2462 L
2320 2462 L
2353 2462 L
2386 2462 L
2404 2462 L
2420 2462 L
2453 2462 L
2486 2462 L
2520 2462 L
2553 2462 L
2554 2462 L
2586 2462 L
2620 2462 L
2653 2462 L
2686 2462 L
2704 2462 L
2720 2462 L
2753 2462 L
2786 2462 L
2820 2462 L
2853 2462 L
2854 2462 L
2886 2461 L
2920 2461 L
2953 2461 L
2986 2461 L
3004 2461 L
3020 2461 L
3053 2460 L
3068 2460 L
3086 2460 L
3120 2460 L
3153 2459 L
3155 2459 L
3186 2459 L
3220 2458 L
3253 2457 L
3286 2457 L
3305 2456 L
3320 2456 L
3353 2454 L
3386 2453 L
3420 2452 L
3453 2450 L
3455 2450 L
3486 2448 L
3520 2446 L
3553 2443 L
3586 2440 L
3605 2438 L
3620 2436 L
3653 2432 L
3686 2427 L
3720 2422 L
3753 2416 L
3755 2415 L
3786 2408 L
3820 2400 L
3853 2391 L
3886 2381 L
3905 2375 L
3920 2370 L
3953 2358 L
3986 2344 L
4020 2330 L
4053 2314 L
4086 2297 L
LWMC SL  C03 COSGR

%
% Experimental data:
%
GSN 773 4043 M
1625 3895 L
1773 3949 L
1860 4207 L
1922 4161 L
1970 4004 L
2009 3958 L
2043 3866 L
2072 3847 L
2097 3825 L
2120 3754 L
2140 3852 L
2159 3674 L
2176 3766 L
2192 3751 L
2207 3645 L
2221 3605 L
2234 3621 L
2247 3543 L
2259 3596 L
2270 3525 L
2280 3510 L
2290 3553 L
2300 3574 L
2309 3358 L
2318 3458 L
2326 3596 L
2335 3425 L
2342 3438 L
2350 3394 L
2357 3351 L
2364 3339 L
2371 3236 L
2378 3391 L
2384 3329 L
2391 3290 L
2397 3183 L
2403 3327 L
2409 3299 L
2414 3158 L
2420 3170 L
2425 3166 L
2430 3182 L
2435 3039 L
2440 2994 L
2445 3188 L
2450 3060 L
2455 2973 L
2459 2998 L
2464 3088 L
2468 2851 L
2472 2886 L
2476 2984 L
2481 3018 L
2485 2884 L
2489 3001 L
2492 2986 L
2496 2932 L
2500 2805 L
2504 2971 L
2507 3049 L
2511 2947 L
2514 2765 L
2518 2681 L
2521 2846 L
2525 2772 L
2528 2761 L
2531 2791 L
2534 2822 L
2538 2649 L
2541 2930 L
2544 2746 L
2547 2710 L
2550 2693 L
2553 2786 L
2556 2589 L
2559 2870 L
2561 2767 L
2564 2824 L
2567 2635 L
2570 2699 L
2580 2619 L
2590 2592 L
2600 2520 L
2609 2469 L
2618 2455 L
2627 2459 L
2635 2548 L
2643 2345 L
2650 2355 L
2658 2495 L
2665 2356 L
2672 2368 L
2678 2317 L
2685 2296 L
2691 2322 L
2697 2091 L
2703 2280 L
2709 2220 L
2714 2179 L
2720 2214 L
2725 2174 L
2730 2006 L
2735 2078 L
2740 2260 L
2745 2058 L
2750 2145 L
2755 2245 L
2759 2071 L
2764 2090 L
2768 1970 L
2772 1926 L
2777 1997 L
2781 1961 L
2785 1990 L
2789 1969 L
2793 2014 L
2796 1970 L
2800 1964 L
2804 2048 L
2808 1893 L
2811 1955 L
2815 1973 L
2818 1955 L
2822 1874 L
2825 1925 L
2828 2075 L
2831 1958 L
2835 1989 L
2838 1874 L
2841 2007 L
2844 1992 L
2847 1903 L
2850 1844 L
2853 2186 L
2856 1990 L
2859 1892 L
2862 1833 L
2864 1979 L
2867 2050 L
2870 1896 L
2873 1933 L
2875 2126 L
2878 1982 L
2880 2011 L
2883 2050 L
2886 1960 L
2888 2065 L
2891 1896 L
2893 1951 L
2895 2063 L
2898 2017 L
2900 2042 L
2902 1949 L
2905 2070 L
2907 2165 L
2909 1980 L
2912 2120 L
2914 1948 L
2916 1979 L
2918 2079 L
2920 1923 L
2922 2108 L
2925 2141 L
2927 2050 L
2929 2053 L
2931 1995 L
2933 2119 L
2935 2067 L
2937 1882 L
2939 2001 L
2941 2164 L
2943 2082 L
2945 1967 L
2947 1974 L
2948 2104 L
2950 2131 L
2952 1949 L
2954 2105 L
2956 1986 L
2958 2048 L
2959 2055 L
2961 1921 L
2963 2196 L
2965 2057 L
2966 2068 L
2968 2296 L
2970 2164 L
2972 2198 L
2973 2202 L
2975 2195 L
2977 2074 L
2978 2100 L
2980 2120 L
2982 1888 L
2983 2040 L
2985 2180 L
2986 2190 L
2988 2041 L
2989 2053 L
2991 2195 L
2993 2115 L
2994 2157 L
2996 2245 L
2997 2092 L
2999 2169 L
3000 2111 L
3002 2144 L
3003 2113 L
3005 2229 L
3006 2262 L
3007 2253 L
3009 2129 L
3010 2175 L
3012 2085 L
3013 2262 L
3014 2110 L
3016 2185 L
3017 2294 L
3019 2187 L
3020 2227 L
3021 2251 L
3023 2173 L
3024 2132 L
3025 2181 L
3027 2300 L
3028 2271 L
3029 2226 L
3031 2303 L
3032 2217 L
3033 2113 L
3034 2222 L
3036 2151 L
3037 2257 L
3038 2205 L
3039 2256 L
3041 2274 L
3042 2336 L
3043 2221 L
3044 2249 L
3045 2310 L
3047 2193 L
3048 2308 L
3049 2248 L
3050 2257 L
3051 2148 L
3053 2094 L
3054 2388 L
3055 2355 L
3056 2336 L
3057 2309 L
3058 2193 L
3059 2365 L
3061 2188 L
3062 2315 L
3063 2344 L
3064 2379 L
3065 2416 L
3066 2330 L
3067 2292 L
3068 2298 L
3069 2221 L
3070 2333 L
3071 2326 L
3073 2374 L
3074 2338 L
3075 2413 L
3076 2216 L
3077 2392 L
3078 2223 L
3079 2422 L
3080 2195 L
3081 2240 L
3082 2192 L
3083 2397 L
3084 2232 L
3085 2376 L
3086 2180 L
3087 2350 L
3088 2440 L
3089 2339 L
3112 2498 L
3133 2498 L
3152 2550 L
3170 2441 L
3186 2418 L
3201 2600 L
3216 2573 L
3229 2333 L
3241 2492 L
3253 2521 L
3264 2498 L
3275 2581 L
3285 2665 L
3295 2561 L
3304 2574 L
3313 2579 L
3322 2601 L
3330 2595 L
3338 2626 L
3346 2583 L
3353 2439 L
3360 2457 L
3367 2486 L
3374 2505 L
3380 2675 L
3387 2543 L
3393 2639 L
3399 2581 L
3405 2698 L
3410 2660 L
3416 2576 L
3421 2688 L
3426 2540 L
3431 2700 L
3436 2537 L
3441 2704 L
3446 2557 L
3451 2652 L
3455 2657 L
3460 2533 L
3464 2555 L
3469 2572 L
3473 2559 L
3477 2629 L
3481 2495 L
3485 2689 L
3489 2527 L
3493 2422 L
3496 2597 L
3500 2363 L
3504 2539 L
3507 2497 L
3511 2532 L
3514 2408 L
3518 2720 L
3521 2371 L
3525 2506 L
3528 2542 L
3531 2597 L
3534 2465 L
3537 2524 L
3540 2564 L
3543 2567 L
3546 2585 L
3549 2569 L
3552 2540 L
3555 2504 L
3558 2351 L
3561 2322 L
3564 2579 L
3566 2564 L
3575 2492 L
3586 2406 L
3595 2470 L
3605 2547 L
3613 2527 L
3622 2529 L
3630 2503 L
3638 2543 L
3646 2490 L
3653 2550 L
3660 2432 L
3667 2307 L
3674 2432 L
3681 2453 L
3687 2540 L
3693 2449 L
3699 2427 L
3705 2541 L
3710 2674 L
3716 2398 L
3721 2462 L
3727 2489 L
3732 2511 L
3737 2423 L
3742 2364 L
3746 2331 L
3751 2396 L
3756 2598 L
3760 2547 L
3764 2364 L
3769 2421 L
3773 2392 L
3777 2371 L
3781 2296 L
3785 2493 L
3789 2319 L
3793 2368 L
3797 2479 L
3800 2541 L
3804 2279 L
3808 2416 L
3811 2448 L
3815 2343 L
3818 2302 L
3821 2417 L
3825 2389 L
3828 2245 L
3831 2376 L
3834 2303 L
3838 2455 L
3841 2492 L
3844 2319 L
3847 2248 L
3850 2497 L
3853 2237 L
3855 2329 L
3858 2455 L
3861 2398 L
3864 2341 L
3867 2356 L
3869 2342 L
3872 2360 L
3875 2449 L
3877 2307 L
3880 2271 L
3882 2314 L
3885 2364 L
3887 2422 L
3890 2234 L
3892 2362 L
3895 2289 L
3897 2343 L
3899 2322 L
3902 2346 L
3904 2348 L
3906 2209 L
3908 2503 L
3911 2331 L
3913 2353 L
3915 2353 L
3917 2124 L
3919 2365 L
3921 2265 L
3923 2423 L
3926 2298 L
3928 2374 L
3930 2357 L
3932 2394 L
3934 2360 L
3936 2362 L
3938 2374 L
3940 2258 L
3942 2366 L
3943 2227 L
3945 2275 L
3947 2427 L
3949 2282 L
3951 2369 L
3953 2387 L
3955 2396 L
3956 2265 L
3958 2188 L
3960 2261 L
3962 2183 L
3963 2343 L
3965 2346 L
3967 2280 L
3969 2257 L
3970 2245 L
3972 2234 L
3974 2272 L
3975 2334 L
3977 2300 L
3978 2152 L
3980 2291 L
3982 2324 L
3983 2267 L
3985 2121 L
3986 2207 L
3988 2412 L
3990 2332 L
3991 2301 L
3993 2172 L
3994 2161 L
3996 2224 L
3997 2192 L
3999 2323 L
4000 2183 L
4001 2153 L
4003 2297 L
4004 2275 L
4006 2278 L
4007 2423 L
4009 2183 L
4010 2333 L
4011 2272 L
4013 2127 L
4014 2162 L
4016 2264 L
4017 2302 L
4018 2230 L
4020 2232 L
4021 2293 L
4022 2303 L
4024 2431 L
4025 2361 L
4026 2408 L
4028 2204 L
4029 2232 L
4030 2310 L
4031 2324 L
4033 2231 L
4034 2267 L
4035 2202 L
4036 2349 L
4038 2227 L
4039 2256 L
4040 2370 L
4041 2397 L
4042 2266 L
4044 2308 L
4045 2330 L
4046 2307 L
4047 2170 L
4048 2296 L
4050 2358 L
4051 2211 L
4052 2278 L
4053 2265 L
4054 2295 L
4055 2164 L
4056 2292 L
4058 2312 L
4059 2389 L
4060 2224 L
4061 2311 L
4062 2191 L
4063 2319 L
4064 2256 L
4065 2300 L
4066 2288 L
L2 C03 COSGR

%
%================
% Legend - Begin
%================
%
GSN 4240 5180 M
4480 5180 L
LWMC SL  C03 COSGR
GSN 4540 5141 M helvM (1.5 uM) show grestore
%
%================
% Legend - End
%================
%

%
% Residuals:
%
GSN 773 750 M
1625 1279 L
1773 1423 L
1860 1555 L
1922 1569 L
1970 1537 L
2009 1532 L
2043 1511 L
2072 1509 L
2097 1505 L
2120 1485 L
2140 1516 L
2159 1463 L
2176 1492 L
2192 1487 L
2207 1455 L
2221 1443 L
2234 1448 L
2247 1424 L
2259 1441 L
2270 1419 L
2280 1414 L
2290 1427 L
2300 1434 L
2309 1368 L
2318 1398 L
2326 1441 L
2335 1388 L
2342 1392 L
2350 1379 L
2357 1365 L
2364 1362 L
2371 1330 L
2378 1378 L
2384 1359 L
2391 1347 L
2397 1314 L
2403 1358 L
2409 1350 L
2414 1306 L
2420 1310 L
2425 1309 L
2430 1313 L
2435 1270 L
2440 1256 L
2445 1315 L
2450 1276 L
2455 1249 L
2459 1257 L
2464 1285 L
2468 1212 L
2472 1223 L
2476 1253 L
2481 1263 L
2485 1222 L
2489 1258 L
2492 1253 L
2496 1237 L
2500 1198 L
2504 1249 L
2507 1273 L
2511 1241 L
2514 1186 L
2518 1160 L
2521 1210 L
2525 1188 L
2528 1184 L
2531 1193 L
2534 1203 L
2538 1150 L
2541 1236 L
2544 1180 L
2547 1169 L
2550 1163 L
2553 1192 L
2556 1132 L
2559 1218 L
2561 1186 L
2564 1203 L
2567 1146 L
2570 1165 L
2580 1141 L
2590 1132 L
2600 1110 L
2609 1095 L
2618 1090 L
2627 1091 L
2635 1119 L
2643 1057 L
2650 1060 L
2658 1103 L
2665 1060 L
2672 1064 L
2678 1048 L
2685 1042 L
2691 1049 L
2697 979 L
2703 1037 L
2709 1018 L
2714 1005 L
2720 1016 L
2725 1004 L
2730 952 L
2735 974 L
2740 1031 L
2745 968 L
2750 995 L
2755 1026 L
2759 973 L
2764 978 L
2768 942 L
2772 928 L
2777 950 L
2781 939 L
2785 948 L
2789 941 L
2793 955 L
2796 941 L
2800 940 L
2804 965 L
2808 918 L
2811 937 L
2815 942 L
2818 937 L
2822 912 L
2825 928 L
2828 974 L
2831 938 L
2835 947 L
2838 912 L
2841 953 L
2844 948 L
2847 921 L
2850 903 L
2853 1008 L
2856 948 L
2859 918 L
2862 899 L
2864 944 L
2867 966 L
2870 919 L
2873 930 L
2875 990 L
2878 945 L
2880 954 L
2883 966 L
2886 939 L
2888 971 L
2891 919 L
2893 936 L
2895 970 L
2898 956 L
2900 964 L
2902 935 L
2905 972 L
2907 1001 L
2909 945 L
2912 988 L
2914 935 L
2916 944 L
2918 975 L
2920 927 L
2922 984 L
2925 994 L
2927 966 L
2929 967 L
2931 949 L
2933 988 L
2935 972 L
2937 915 L
2939 951 L
2941 1001 L
2943 976 L
2945 941 L
2947 943 L
2948 983 L
2950 991 L
2952 935 L
2954 983 L
2956 947 L
2958 966 L
2959 968 L
2961 927 L
2963 1011 L
2965 969 L
2966 972 L
2968 1042 L
2970 1001 L
2972 1012 L
2973 1013 L
2975 1011 L
2977 974 L
2978 982 L
2980 988 L
2982 917 L
2983 963 L
2985 1006 L
2986 1009 L
2988 964 L
2989 967 L
2991 1011 L
2993 986 L
2994 999 L
2996 1026 L
2997 979 L
2999 1003 L
3000 985 L
3002 995 L
3003 986 L
3005 1021 L
3006 1031 L
3007 1029 L
3009 991 L
3010 1005 L
3012 977 L
3013 1031 L
3014 985 L
3016 1008 L
3017 1041 L
3019 1009 L
3020 1021 L
3021 1028 L
3023 1004 L
3024 992 L
3025 1007 L
3027 1043 L
3028 1034 L
3029 1021 L
3031 1044 L
3032 1018 L
3033 986 L
3034 1019 L
3036 997 L
3037 1030 L
3038 1014 L
3039 1030 L
3041 1035 L
3042 1054 L
3043 1019 L
3044 1028 L
3045 1046 L
3047 1010 L
3048 1046 L
3049 1027 L
3050 1030 L
3051 997 L
3053 980 L
3054 1070 L
3055 1060 L
3056 1054 L
3057 1046 L
3058 1010 L
3059 1063 L
3061 1009 L
3062 1048 L
3063 1057 L
3064 1068 L
3065 1079 L
3066 1052 L
3067 1041 L
3068 1043 L
3069 1019 L
3070 1053 L
3071 1051 L
3073 1066 L
3074 1055 L
3075 1078 L
3076 1018 L
3077 1072 L
3078 1020 L
3079 1081 L
3080 1011 L
3081 1025 L
3082 1010 L
3083 1073 L
3084 1022 L
3085 1067 L
3086 1007 L
3087 1059 L
3088 1086 L
3089 1055 L
3112 1104 L
3133 1104 L
3152 1121 L
3170 1087 L
3186 1080 L
3201 1136 L
3216 1128 L
3229 1054 L
3241 1103 L
3253 1112 L
3264 1105 L
3275 1131 L
3285 1156 L
3295 1125 L
3304 1129 L
3313 1130 L
3322 1137 L
3330 1135 L
3338 1145 L
3346 1132 L
3353 1088 L
3360 1093 L
3367 1102 L
3374 1108 L
3380 1161 L
3387 1120 L
3393 1150 L
3399 1132 L
3405 1168 L
3410 1156 L
3416 1131 L
3421 1165 L
3426 1120 L
3431 1169 L
3436 1119 L
3441 1170 L
3446 1125 L
3451 1154 L
3455 1156 L
3460 1118 L
3464 1125 L
3469 1130 L
3473 1126 L
3477 1148 L
3481 1107 L
3485 1167 L
3489 1117 L
3493 1085 L
3496 1139 L
3500 1067 L
3504 1121 L
3507 1108 L
3511 1119 L
3514 1081 L
3518 1177 L
3521 1070 L
3525 1111 L
3528 1122 L
3531 1139 L
3534 1099 L
3537 1117 L
3540 1129 L
3543 1130 L
3546 1136 L
3549 1131 L
3552 1122 L
3555 1111 L
3558 1065 L
3561 1056 L
3564 1135 L
3566 1130 L
3575 1108 L
3586 1082 L
3595 1102 L
3605 1126 L
3613 1120 L
3622 1121 L
3630 1113 L
3638 1126 L
3646 1110 L
3653 1129 L
3660 1093 L
3667 1055 L
3674 1093 L
3681 1100 L
3687 1127 L
3693 1100 L
3699 1093 L
3705 1128 L
3710 1169 L
3716 1085 L
3721 1105 L
3727 1114 L
3732 1120 L
3737 1094 L
3742 1076 L
3746 1066 L
3751 1086 L
3756 1149 L
3760 1133 L
3764 1077 L
3769 1095 L
3773 1087 L
3777 1080 L
3781 1057 L
3785 1119 L
3789 1065 L
3793 1080 L
3797 1115 L
3800 1134 L
3804 1054 L
3808 1096 L
3811 1106 L
3815 1075 L
3818 1062 L
3821 1098 L
3825 1089 L
3828 1045 L
3831 1086 L
3834 1064 L
3838 1111 L
3841 1122 L
3844 1069 L
3847 1048 L
3850 1125 L
3853 1045 L
3855 1074 L
3858 1112 L
3861 1095 L
3864 1078 L
3867 1083 L
3869 1079 L
3872 1085 L
3875 1112 L
3877 1069 L
3880 1058 L
3882 1072 L
3885 1087 L
3887 1105 L
3890 1048 L
3892 1087 L
3895 1065 L
3897 1082 L
3899 1076 L
3902 1083 L
3904 1084 L
3906 1042 L
3908 1132 L
3911 1080 L
3913 1086 L
3915 1087 L
3917 1017 L
3919 1091 L
3921 1060 L
3923 1109 L
3926 1071 L
3928 1095 L
3930 1090 L
3932 1101 L
3934 1091 L
3936 1092 L
3938 1096 L
3940 1060 L
3942 1094 L
3943 1051 L
3945 1066 L
3947 1113 L
3949 1069 L
3951 1096 L
3953 1102 L
3955 1104 L
3956 1064 L
3958 1041 L
3960 1064 L
3962 1040 L
3963 1089 L
3965 1091 L
3967 1070 L
3969 1064 L
3970 1060 L
3972 1057 L
3974 1069 L
3975 1088 L
3977 1078 L
3978 1033 L
3980 1075 L
3982 1086 L
3983 1068 L
3985 1024 L
3986 1050 L
3988 1114 L
3990 1089 L
3991 1080 L
3993 1040 L
3994 1037 L
3996 1057 L
3997 1047 L
3999 1087 L
4000 1045 L
4001 1036 L
4003 1080 L
4004 1074 L
4006 1075 L
4007 1120 L
4009 1046 L
4010 1092 L
4011 1074 L
4013 1029 L
4014 1040 L
4016 1072 L
4017 1084 L
4018 1062 L
4020 1063 L
4021 1081 L
4022 1085 L
4024 1124 L
4025 1103 L
4026 1118 L
4028 1055 L
4029 1064 L
4030 1088 L
4031 1092 L
4033 1064 L
4034 1075 L
4035 1055 L
4036 1101 L
4038 1064 L
4039 1073 L
4040 1108 L
4041 1116 L
4042 1076 L
4044 1089 L
4045 1096 L
4046 1089 L
4047 1047 L
4048 1086 L
4050 1106 L
4051 1061 L
4052 1081 L
4053 1078 L
4054 1087 L
4055 1047 L
4056 1086 L
4058 1093 L
4059 1117 L
4060 1066 L
4061 1093 L
4062 1056 L
4063 1096 L
4064 1076 L
4065 1090 L
4066 1086 L
L2 C03 COSGR

%
% Main frame
%
L10
GSN 
620 1700 M
4220 1700 L
4220 5300 L
620 5300 L
closepath SGR

%
% X axis: large tics
%
L10
GSN 1074 1700 M 0  54 rL SGR
GSN 1074 5300 M 0 -54 rL SGR
helvS (0.0001) 1074 470 xlabel
GSN 1572 1700 M 0  54 rL SGR
GSN 1572 5300 M 0 -54 rL SGR
helvS (0.001) 1572 470 xlabel
GSN 2071 1700 M 0  54 rL SGR
GSN 2071 5300 M 0 -54 rL SGR
helvS (0.01) 2071 470 xlabel
GSN 2570 1700 M 0  54 rL SGR
GSN 2570 5300 M 0 -54 rL SGR
helvS (0.1) 2570 470 xlabel
GSN 3068 1700 M 0  54 rL SGR
GSN 3068 5300 M 0 -54 rL SGR
helvS (1) 3068 470 xlabel
GSN 3567 1700 M 0  54 rL SGR
GSN 3567 5300 M 0 -54 rL SGR
helvS (10) 3567 470 xlabel
GSN 4066 1700 M 0  54 rL SGR
GSN 4066 5300 M 0 -54 rL SGR
helvS (100) 4066 470 xlabel
%
% X axis: small tics
%
L5
GSN 725 1700 M 0  36 rL SGR
GSN 725 5300 M 0 -36 rL SGR
GSN 813 1700 M 0  36 rL SGR
GSN 813 5300 M 0 -36 rL SGR
GSN 875 1700 M 0  36 rL SGR
GSN 875 5300 M 0 -36 rL SGR
GSN 924 1700 M 0  36 rL SGR
GSN 924 5300 M 0 -36 rL SGR
GSN 963 1700 M 0  36 rL SGR
GSN 963 5300 M 0 -36 rL SGR
GSN 996 1700 M 0  36 rL SGR
GSN 996 5300 M 0 -36 rL SGR
GSN 1025 1700 M 0  36 rL SGR
GSN 1025 5300 M 0 -36 rL SGR
GSN 1051 1700 M 0  36 rL SGR
GSN 1051 5300 M 0 -36 rL SGR
GSN 1224 1700 M 0  36 rL SGR
GSN 1224 5300 M 0 -36 rL SGR
GSN 1312 1700 M 0  36 rL SGR
GSN 1312 5300 M 0 -36 rL SGR
GSN 1374 1700 M 0  36 rL SGR
GSN 1374 5300 M 0 -36 rL SGR
GSN 1422 1700 M 0  36 rL SGR
GSN 1422 5300 M 0 -36 rL SGR
GSN 1462 1700 M 0  36 rL SGR
GSN 1462 5300 M 0 -36 rL SGR
GSN 1495 1700 M 0  36 rL SGR
GSN 1495 5300 M 0 -36 rL SGR
GSN 1524 1700 M 0  36 rL SGR
GSN 1524 5300 M 0 -36 rL SGR
GSN 1550 1700 M 0  36 rL SGR
GSN 1550 5300 M 0 -36 rL SGR
GSN 1722 1700 M 0  36 rL SGR
GSN 1722 5300 M 0 -36 rL SGR
GSN 1810 1700 M 0  36 rL SGR
GSN 1810 5300 M 0 -36 rL SGR
GSN 1873 1700 M 0  36 rL SGR
GSN 1873 5300 M 0 -36 rL SGR
GSN 1921 1700 M 0  36 rL SGR
GSN 1921 5300 M 0 -36 rL SGR
GSN 1960 1700 M 0  36 rL SGR
GSN 1960 5300 M 0 -36 rL SGR
GSN 1994 1700 M 0  36 rL SGR
GSN 1994 5300 M 0 -36 rL SGR
GSN 2023 1700 M 0  36 rL SGR
GSN 2023 5300 M 0 -36 rL SGR
GSN 2048 1700 M 0  36 rL SGR
GSN 2048 5300 M 0 -36 rL SGR
GSN 2221 1700 M 0  36 rL SGR
GSN 2221 5300 M 0 -36 rL SGR
GSN 2309 1700 M 0  36 rL SGR
GSN 2309 5300 M 0 -36 rL SGR
GSN 2371 1700 M 0  36 rL SGR
GSN 2371 5300 M 0 -36 rL SGR
GSN 2420 1700 M 0  36 rL SGR
GSN 2420 5300 M 0 -36 rL SGR
GSN 2459 1700 M 0  36 rL SGR
GSN 2459 5300 M 0 -36 rL SGR
GSN 2492 1700 M 0  36 rL SGR
GSN 2492 5300 M 0 -36 rL SGR
GSN 2521 1700 M 0  36 rL SGR
GSN 2521 5300 M 0 -36 rL SGR
GSN 2547 1700 M 0  36 rL SGR
GSN 2547 5300 M 0 -36 rL SGR
GSN 2720 1700 M 0  36 rL SGR
GSN 2720 5300 M 0 -36 rL SGR
GSN 2808 1700 M 0  36 rL SGR
GSN 2808 5300 M 0 -36 rL SGR
GSN 2870 1700 M 0  36 rL SGR
GSN 2870 5300 M 0 -36 rL SGR
GSN 2918 1700 M 0  36 rL SGR
GSN 2918 5300 M 0 -36 rL SGR
GSN 2958 1700 M 0  36 rL SGR
GSN 2958 5300 M 0 -36 rL SGR
GSN 2991 1700 M 0  36 rL SGR
GSN 2991 5300 M 0 -36 rL SGR
GSN 3020 1700 M 0  36 rL SGR
GSN 3020 5300 M 0 -36 rL SGR
GSN 3045 1700 M 0  36 rL SGR
GSN 3045 5300 M 0 -36 rL SGR
GSN 3218 1700 M 0  36 rL SGR
GSN 3218 5300 M 0 -36 rL SGR
GSN 3306 1700 M 0  36 rL SGR
GSN 3306 5300 M 0 -36 rL SGR
GSN 3368 1700 M 0  36 rL SGR
GSN 3368 5300 M 0 -36 rL SGR
GSN 3417 1700 M 0  36 rL SGR
GSN 3417 5300 M 0 -36 rL SGR
GSN 3456 1700 M 0  36 rL SGR
GSN 3456 5300 M 0 -36 rL SGR
GSN 3490 1700 M 0  36 rL SGR
GSN 3490 5300 M 0 -36 rL SGR
GSN 3519 1700 M 0  36 rL SGR
GSN 3519 5300 M 0 -36 rL SGR
GSN 3544 1700 M 0  36 rL SGR
GSN 3544 5300 M 0 -36 rL SGR
GSN 3717 1700 M 0  36 rL SGR
GSN 3717 5300 M 0 -36 rL SGR
GSN 3805 1700 M 0  36 rL SGR
GSN 3805 5300 M 0 -36 rL SGR
GSN 3867 1700 M 0  36 rL SGR
GSN 3867 5300 M 0 -36 rL SGR
GSN 3915 1700 M 0  36 rL SGR
GSN 3915 5300 M 0 -36 rL SGR
GSN 3955 1700 M 0  36 rL SGR
GSN 3955 5300 M 0 -36 rL SGR
GSN 3988 1700 M 0  36 rL SGR
GSN 3988 5300 M 0 -36 rL SGR
GSN 4017 1700 M 0  36 rL SGR
GSN 4017 5300 M 0 -36 rL SGR
GSN 4043 1700 M 0  36 rL SGR
GSN 4043 5300 M 0 -36 rL SGR
GSN 4216 1700 M 0  36 rL SGR
GSN 4216 5300 M 0 -36 rL SGR
%
% Y axis: large tics
%
L10
GSN 620 2323 M 54 0 rL SGR
GSN 4220 2323 M -54 0 rL SGR
helvS (1.05) 560 2323 ylabel
GSN 620 3127 M 54 0 rL SGR
GSN 4220 3127 M -54 0 rL SGR
helvS (1.075) 560 3127 ylabel
GSN 620 3930 M 54 0 rL SGR
GSN 4220 3930 M -54 0 rL SGR
helvS (1.1) 560 3930 ylabel
GSN 620 4734 M 54 0 rL SGR
GSN 4220 4734 M -54 0 rL SGR
helvS (1.125) 560 4734 ylabel
%
% Y axis: small tics
%
L5
GSN 620 1921 M 36 0 rL SGR
GSN 4220 1921 M -36 0 rL SGR
GSN 620 2323 M 36 0 rL SGR
GSN 4220 2323 M -36 0 rL SGR
GSN 620 2725 M 36 0 rL SGR
GSN 4220 2725 M -36 0 rL SGR
GSN 620 3127 M 36 0 rL SGR
GSN 4220 3127 M -36 0 rL SGR
GSN 620 3528 M 36 0 rL SGR
GSN 4220 3528 M -36 0 rL SGR
GSN 620 3930 M 36 0 rL SGR
GSN 4220 3930 M -36 0 rL SGR
GSN 620 4332 M 36 0 rL SGR
GSN 4220 4332 M -36 0 rL SGR
GSN 620 4734 M 36 0 rL SGR
GSN 4220 4734 M -36 0 rL SGR
GSN 620 5136 M 36 0 rL SGR
GSN 4220 5136 M -36 0 rL SGR

%
% X-Axis label:
%
gsave 2420 290 M 
[
[(Helvetica) 180 0 true true 0 (t)]
[(Helvetica) 180 0 true true 0 (i)]
[(Helvetica) 180 0 true true 0 (m)]
[(Helvetica) 180 0 true true 0 (e)]
] 0 MCshow grestore

%
% Y-Axis label:
%
gsave 234 3500 M 
currentpoint gsave translate 90 rotate 0 0 moveto
[
[(Helvetica) 180 0 true true 0 (s)]
[(Helvetica) 180 0 true true 0 (i)]
[(Helvetica) 180 0 true true 0 (g)]
[(Helvetica) 180 0 true true 0 (n)]
[(Helvetica) 180 0 true true 0 (a)]
[(Helvetica) 180 0 true true 0 (l)]
] 0 MCshow grestore

%
% Residuals:
%
gsave 129 1160 M 
currentpoint gsave translate 90 rotate 0 0 moveto
[
[(Helvetica) 150 0 true true 0 (r)]
[(Helvetica) 150 0 true true 0 (e)]
[(Helvetica) 150 0 true true 0 (s)]
[(Helvetica) 150 0 true true 0 (i)]
[(Helvetica) 150 0 true true 0 (d)]
[(Helvetica) 150 0 true true 0 (u)]
[(Helvetica) 150 0 true true 0 (a)]
[(Helvetica) 150 0 true true 0 (l)]
[(Helvetica) 150 0 true true 0 (s)]
] 0 MCshow grestore

%
% Residual frame
%
L10
GSN 
620 620 M
4220 620 L
4220 1700 L
620 1700 L
closepath SGR
%
% X axis: large tics - residual frame
%
L10
GSN 1074 620 M 0  54 rL SGR
GSN 1074 1700 M 0 -54 rL SGR
GSN 1572 620 M 0  54 rL SGR
GSN 1572 1700 M 0 -54 rL SGR
GSN 2071 620 M 0  54 rL SGR
GSN 2071 1700 M 0 -54 rL SGR
GSN 2570 620 M 0  54 rL SGR
GSN 2570 1700 M 0 -54 rL SGR
GSN 3068 620 M 0  54 rL SGR
GSN 3068 1700 M 0 -54 rL SGR
GSN 3567 620 M 0  54 rL SGR
GSN 3567 1700 M 0 -54 rL SGR
GSN 4066 620 M 0  54 rL SGR
GSN 4066 1700 M 0 -54 rL SGR
%
% X axis: small tics - residual frame
%
L5
GSN 725 620 M 0  36 rL SGR
GSN 725 1700 M 0 -36 rL SGR
GSN 813 620 M 0  36 rL SGR
GSN 813 1700 M 0 -36 rL SGR
GSN 875 620 M 0  36 rL SGR
GSN 875 1700 M 0 -36 rL SGR
GSN 924 620 M 0  36 rL SGR
GSN 924 1700 M 0 -36 rL SGR
GSN 963 620 M 0  36 rL SGR
GSN 963 1700 M 0 -36 rL SGR
GSN 996 620 M 0  36 rL SGR
GSN 996 1700 M 0 -36 rL SGR
GSN 1025 620 M 0  36 rL SGR
GSN 1025 1700 M 0 -36 rL SGR
GSN 1051 620 M 0  36 rL SGR
GSN 1051 1700 M 0 -36 rL SGR
GSN 1224 620 M 0  36 rL SGR
GSN 1224 1700 M 0 -36 rL SGR
GSN 1312 620 M 0  36 rL SGR
GSN 1312 1700 M 0 -36 rL SGR
GSN 1374 620 M 0  36 rL SGR
GSN 1374 1700 M 0 -36 rL SGR
GSN 1422 620 M 0  36 rL SGR
GSN 1422 1700 M 0 -36 rL SGR
GSN 1462 620 M 0  36 rL SGR
GSN 1462 1700 M 0 -36 rL SGR
GSN 1495 620 M 0  36 rL SGR
GSN 1495 1700 M 0 -36 rL SGR
GSN 1524 620 M 0  36 rL SGR
GSN 1524 1700 M 0 -36 rL SGR
GSN 1550 620 M 0  36 rL SGR
GSN 1550 1700 M 0 -36 rL SGR
GSN 1722 620 M 0  36 rL SGR
GSN 1722 1700 M 0 -36 rL SGR
GSN 1810 620 M 0  36 rL SGR
GSN 1810 1700 M 0 -36 rL SGR
GSN 1873 620 M 0  36 rL SGR
GSN 1873 1700 M 0 -36 rL SGR
GSN 1921 620 M 0  36 rL SGR
GSN 1921 1700 M 0 -36 rL SGR
GSN 1960 620 M 0  36 rL SGR
GSN 1960 1700 M 0 -36 rL SGR
GSN 1994 620 M 0  36 rL SGR
GSN 1994 1700 M 0 -36 rL SGR
GSN 2023 620 M 0  36 rL SGR
GSN 2023 1700 M 0 -36 rL SGR
GSN 2048 620 M 0  36 rL SGR
GSN 2048 1700 M 0 -36 rL SGR
GSN 2221 620 M 0  36 rL SGR
GSN 2221 1700 M 0 -36 rL SGR
GSN 2309 620 M 0  36 rL SGR
GSN 2309 1700 M 0 -36 rL SGR
GSN 2371 620 M 0  36 rL SGR
GSN 2371 1700 M 0 -36 rL SGR
GSN 2420 620 M 0  36 rL SGR
GSN 2420 1700 M 0 -36 rL SGR
GSN 2459 620 M 0  36 rL SGR
GSN 2459 1700 M 0 -36 rL SGR
GSN 2492 620 M 0  36 rL SGR
GSN 2492 1700 M 0 -36 rL SGR
GSN 2521 620 M 0  36 rL SGR
GSN 2521 1700 M 0 -36 rL SGR
GSN 2547 620 M 0  36 rL SGR
GSN 2547 1700 M 0 -36 rL SGR
GSN 2720 620 M 0  36 rL SGR
GSN 2720 1700 M 0 -36 rL SGR
GSN 2808 620 M 0  36 rL SGR
GSN 2808 1700 M 0 -36 rL SGR
GSN 2870 620 M 0  36 rL SGR
GSN 2870 1700 M 0 -36 rL SGR
GSN 2918 620 M 0  36 rL SGR
GSN 2918 1700 M 0 -36 rL SGR
GSN 2958 620 M 0  36 rL SGR
GSN 2958 1700 M 0 -36 rL SGR
GSN 2991 620 M 0  36 rL SGR
GSN 2991 1700 M 0 -36 rL SGR
GSN 3020 620 M 0  36 rL SGR
GSN 3020 1700 M 0 -36 rL SGR
GSN 3045 620 M 0  36 rL SGR
GSN 3045 1700 M 0 -36 rL SGR
GSN 3218 620 M 0  36 rL SGR
GSN 3218 1700 M 0 -36 rL SGR
GSN 3306 620 M 0  36 rL SGR
GSN 3306 1700 M 0 -36 rL SGR
GSN 3368 620 M 0  36 rL SGR
GSN 3368 1700 M 0 -36 rL SGR
GSN 3417 620 M 0  36 rL SGR
GSN 3417 1700 M 0 -36 rL SGR
GSN 3456 620 M 0  36 rL SGR
GSN 3456 1700 M 0 -36 rL SGR
GSN 3490 620 M 0  36 rL SGR
GSN 3490 1700 M 0 -36 rL SGR
GSN 3519 620 M 0  36 rL SGR
GSN 3519 1700 M 0 -36 rL SGR
GSN 3544 620 M 0  36 rL SGR
GSN 3544 1700 M 0 -36 rL SGR
GSN 3717 620 M 0  36 rL SGR
GSN 3717 1700 M 0 -36 rL SGR
GSN 3805 620 M 0  36 rL SGR
GSN 3805 1700 M 0 -36 rL SGR
GSN 3867 620 M 0  36 rL SGR
GSN 3867 1700 M 0 -36 rL SGR
GSN 3915 620 M 0  36 rL SGR
GSN 3915 1700 M 0 -36 rL SGR
GSN 3955 620 M 0  36 rL SGR
GSN 3955 1700 M 0 -36 rL SGR
GSN 3988 620 M 0  36 rL SGR
GSN 3988 1700 M 0 -36 rL SGR
GSN 4017 620 M 0  36 rL SGR
GSN 4017 1700 M 0 -36 rL SGR
GSN 4043 620 M 0  36 rL SGR
GSN 4043 1700 M 0 -36 rL SGR
GSN 4216 620 M 0  36 rL SGR
GSN 4216 1700 M 0 -36 rL SGR
%
% Y axis: large tics - residual frame
%
L10
GSN 620 846 M 54 0 rL SGR
GSN 4220 846 M -54 0 rL SGR
helvS (-0.025) 560 846 ylabelresid
GSN 620 1093 M 54 0 rL SGR
GSN 4220 1093 M -54 0 rL SGR
helvS (0) 560 1093 ylabelresid
GSN 620 1339 M 54 0 rL SGR
GSN 4220 1339 M -54 0 rL SGR
helvS (0.025) 560 1339 ylabelresid
GSN 620 1586 M 54 0 rL SGR
GSN 4220 1586 M -54 0 rL SGR
helvS (0.05) 560 1586 ylabelresid

%
% X axis - residual panel
%
GSN L5 620 1093 M 4220 1093 L SDA G50 SGR

end
showpage
%%Trailer
%%EOF
