%!PS-Adobe-3.0 EPSF-3.0
%%BoundingBox: 0 0 514 550
%%Creator: BioKin Ltd.
%%DocumentFonts: Symbol Helvetica
%%EndComments
%
/bkdict 256 dict def
bkdict begin
/M {moveto} def 
/R {rmoveto} def
/L {lineto} def
/rL {rlineto} def
/GSN {gsave newpath} def
/SGR {stroke grestore} def
/COSGR {gsave setrgbcolor stroke grestore grestore} def
/SL {setlinewidth} def
/LWMB {12} def             % line width - model curves, black & white
/LWMC {10} def             % line width - model curves, color
/L2 {2.5 setlinewidth} def
/L5 {5 setlinewidth} def
/L10 {10 setlinewidth} def
/G50 {0.5 setgray} def
/SDA {[10  20] 0 setdash} def % axes
/helvT {/Helvetica findfont 100 scalefont setfont} def % tiny
/helvS {/Helvetica findfont 125 scalefont setfont} def % small
/helvM {/Helvetica findfont 150 scalefont setfont} def % medium
/helvL {/Helvetica findfont 175 scalefont setfont} def % large
/xlabel {gsave M dup
   stringwidth exch -0.5 mul exch rmoveto show grestore} def 
/ylabel {gsave M 90 rotate dup
   stringwidth exch -0.5 mul exch rmoveto show grestore} def
/ylabelresid {gsave M dup
   stringwidth exch -1 mul exch rmoveto show grestore} def
% ======
% Shapes
% ======
% Circle:
/Circ {0 360 arc closepath} def
%
% Square:
/Squa {dup dup -0.5 mul dup dup R -2 mul 0 exch rL 1 mul 0 rL dup 0 exch -1 mul rL closepath} def
%
% Triangle Up:
/TriU {dup dup dup -0.4 mul exch -0.5 mul exch R dup 0.5 mul exch rL dup -1 mul exch 0.5 mul exch rL closepath} def 
%
% Triangle Down:
/TriD {dup dup dup 0.4 mul exch -0.5 mul exch R dup 0.5 mul exch -1 mul rL dup 0.5 mul exch rL closepath} def 
%
% Diamond:
/Diam {45 rotate Squa} def
% ======
% Fills
% ======
/GRF {gsave setgray fill grestore} def                    % gray-level Fill
/COF {gsave setrgbcolor fill grestore} def                % color fill
% ======
% Colors
% ======
/C01 {1.00	0.00	0.00} def      % Red
/C02 {0.00	0.00	1.00} def      % Blue
/C03 {0.00	0.39	0.00} def      % Dark Green
/C04 {0.78	0.08	0.52} def      % Medium Violet Red
/C05 {0.55	0.27	0.07} def      % Saddle Brown
/C06 {0.10	0.70	0.70} def      % (cyan)
/C07 {1.00	0.55	0.00} def      % Dark Orange
/C08 {0.63	0.13	0.94} def      % Purple
/C09 {0.00	0.75	1.00} def      % Deep Sky Blue
/C10 {0.20	0.80	0.20} def      % Lime Green
/C11 {0.47	0.53	0.60} def      % Light Slate Gray
/C12 {0.00	0.00	0.00} def      % Black            % or: {0.19	0.31	0.31} def      % Dark Slate Gray
%
/LGR {0.75} def % light gray
/DGR {0.33} def % dark gray
%
% =============
% Dash patterns
% =============
/dash01 { [80  20] 0 setdash } def
/dash02 { [40  20] 0 setdash } def
/dash03 { [80  20  10  20] 0 setdash } def
/dash04 { [40  20  10  20] 0 setdash } def
/dash05 { [80  20  10  10  10  20] 0 setdash } def
/dash06 { [40  20  10  10  10  20] 0 setdash } def
/dash07 { [10  10] 0 setdash } def
%
/MFshow {
   { dup 5 get 3 ge
     { 5 get 3 eq {gsave} {grestore} ifelse }
     {dup dup 0 get findfont exch 1 get scalefont setfont
     [ currentpoint ] exch dup 2 get 0 exch R dup 5 get 2 ne {dup dup 6
     get exch 4 get {show} {stringwidth pop 0 R} ifelse }if dup 5 get 0 eq
     {dup 3 get {2 get neg 0 exch R pop} {pop aload pop M} ifelse} {dup 5
     get 1 eq {dup 2 get exch dup 3 get exch 6 get stringwidth pop -2 div
     dup 0 R} {dup 6 get stringwidth pop -2 div 0 R 6 get
     show 2 index {aload pop M neg 3 -1 roll neg R pop pop} {pop pop pop
     pop aload pop M} ifelse }ifelse }ifelse }
     ifelse }
   forall} bind def
/MFwidth {0 exch {dup 3 get{dup dup 0 get findfont exch 1 get scalefont
     setfont 6 get stringwidth pop add} {pop} ifelse} forall} bind def
/MCshow { currentpoint stroke M
  exch dup MFwidth -2 div 3 -1 roll R MFshow } def
%
end
%%EndProlog
bkdict begin
0.1 0.1 scale
%
% Residuals:
%
GSN 620 2261 M
620 4859 L
620 4863 L
620 4605 L
620 4745 L
620 4626 L
620 4454 L
620 4480 L
620 4317 L
620 4267 L
620 4395 L
620 4244 L
620 4158 L
620 4234 L
620 4185 L
620 4077 L
620 4111 L
620 3947 L
620 4002 L
620 4015 L
620 4053 L
620 4084 L
620 3885 L
620 3837 L
620 3761 L
620 3812 L
620 4034 L
620 3966 L
620 3797 L
620 3781 L
620 3737 L
620 3725 L
620 3731 L
620 3801 L
620 3448 L
620 3797 L
620 3514 L
620 3513 L
620 3437 L
620 3541 L
620 3533 L
620 3276 L
620 3486 L
620 3474 L
620 3316 L
620 3409 L
620 3510 L
620 3482 L
620 3244 L
620 3293 L
620 3312 L
620 3210 L
620 3177 L
620 3275 L
620 3305 L
620 3177 L
620 3088 L
620 3100 L
620 3093 L
620 3275 L
620 3120 L
620 3245 L
620 3242 L
620 3090 L
620 3101 L
620 2987 L
620 2966 L
620 3170 L
620 3085 L
620 3175 L
620 2909 L
620 3018 L
620 3056 L
620 3077 L
620 3038 L
620 3000 L
620 2893 L
620 2891 L
620 2980 L
620 2998 L
620 3027 L
620 2819 L
620 2759 L
620 2730 L
620 2535 L
620 2728 L
620 2794 L
620 2652 L
620 2662 L
620 2608 L
620 2704 L
620 2373 L
620 2638 L
620 2494 L
620 2447 L
620 2344 L
620 2364 L
620 2445 L
620 2406 L
620 2293 L
620 2373 L
620 2415 L
620 2541 L
620 2332 L
620 2406 L
620 2494 L
620 2374 L
620 2406 L
620 2335 L
620 2392 L
620 2344 L
620 2384 L
620 2226 L
620 2159 L
620 2215 L
620 2136 L
620 2255 L
620 2157 L
620 2396 L
620 2342 L
620 2362 L
620 2301 L
620 2416 L
620 2457 L
620 2235 L
620 2323 L
620 2422 L
620 2240 L
620 2526 L
620 2333 L
620 2230 L
620 2468 L
620 2484 L
620 2470 L
620 2360 L
620 2151 L
620 2551 L
620 2382 L
620 2340 L
620 2319 L
620 2548 L
620 2410 L
620 2385 L
620 2669 L
620 2292 L
620 2269 L
620 2402 L
620 2392 L
620 2440 L
620 2367 L
620 2266 L
620 2449 L
620 2557 L
620 2452 L
620 2426 L
620 2361 L
620 2334 L
620 2601 L
620 2473 L
620 2324 L
620 2543 L
620 2385 L
620 2393 L
620 2618 L
620 2452 L
620 2452 L
620 2676 L
620 2528 L
620 2484 L
620 2594 L
620 2638 L
620 2541 L
620 2439 L
620 2533 L
620 2744 L
620 2631 L
620 2439 L
620 2709 L
620 2680 L
620 2534 L
620 2423 L
620 2694 L
620 2708 L
620 2581 L
620 2379 L
620 2697 L
620 2617 L
620 2646 L
620 2813 L
620 2597 L
620 2676 L
620 2767 L
620 2606 L
620 2666 L
620 2617 L
620 2737 L
620 2766 L
620 2669 L
620 2617 L
620 2604 L
620 2625 L
620 2718 L
620 2867 L
620 2699 L
620 2757 L
620 2510 L
620 2792 L
620 2655 L
620 2790 L
620 2719 L
620 2650 L
620 2877 L
620 2858 L
620 2675 L
620 2750 L
620 2818 L
620 2880 L
620 2683 L
620 2850 L
620 2912 L
620 2810 L
620 2775 L
620 2630 L
620 2825 L
620 2644 L
620 2778 L
620 2834 L
620 2825 L
620 2886 L
620 2861 L
620 2716 L
620 3009 L
620 2765 L
620 2746 L
620 2979 L
620 2843 L
620 2822 L
620 2863 L
620 2667 L
620 2734 L
620 3013 L
620 2957 L
620 2906 L
620 3034 L
620 2812 L
620 2749 L
620 2796 L
620 3025 L
620 2922 L
620 2795 L
620 2852 L
620 2977 L
620 2902 L
620 2906 L
620 2734 L
620 2979 L
620 3068 L
620 2886 L
620 2862 L
620 2903 L
620 2952 L
620 2904 L
620 2923 L
620 2957 L
620 2771 L
620 3031 L
620 2962 L
620 2917 L
620 2966 L
620 3051 L
620 2740 L
620 2860 L
620 2932 L
620 3058 L
620 2896 L
620 2980 L
620 2924 L
620 2979 L
620 2983 L
620 2719 L
620 3111 L
620 2999 L
620 3180 L
620 3018 L
620 2989 L
620 3229 L
620 3222 L
620 3125 L
620 3081 L
620 3299 L
620 3166 L
620 3232 L
620 3040 L
620 3200 L
620 3149 L
620 3211 L
620 3185 L
620 3262 L
620 3197 L
620 3129 L
620 3270 L
620 3190 L
620 3205 L
620 3237 L
620 3285 L
620 3202 L
620 3118 L
620 3309 L
620 3186 L
620 3383 L
620 3508 L
620 3310 L
620 3227 L
620 3153 L
620 3368 L
620 3287 L
620 3133 L
620 3206 L
620 3253 L
620 3396 L
620 3442 L
620 3155 L
620 3146 L
620 3191 L
620 3311 L
620 3228 L
620 3346 L
620 3305 L
620 3219 L
620 3230 L
620 3215 L
620 3225 L
620 3236 L
620 3119 L
620 3179 L
620 3469 L
620 3185 L
620 3251 L
620 3097 L
620 3118 L
620 3238 L
620 3174 L
620 3203 L
620 3158 L
620 3248 L
620 3333 L
620 3129 L
620 3460 L
620 3174 L
620 3209 L
620 3305 L
620 3126 L
620 3083 L
620 3292 L
620 3342 L
620 3056 L
620 3235 L
620 3075 L
620 3113 L
620 3316 L
620 3201 L
620 3166 L
620 3059 L
620 3158 L
620 3184 L
620 3323 L
620 3251 L
620 3097 L
620 3167 L
620 3167 L
620 3244 L
620 3004 L
620 3116 L
620 3072 L
620 3055 L
620 3171 L
620 3081 L
620 3060 L
620 3220 L
620 3385 L
620 3267 L
620 3161 L
620 3001 L
620 3229 L
620 2979 L
620 3144 L
620 3204 L
620 3095 L
620 3137 L
620 3196 L
620 3204 L
620 3062 L
620 3002 L
620 2998 L
620 2999 L
620 3089 L
620 3093 L
620 2979 L
620 3055 L
620 3062 L
620 2887 L
620 3060 L
620 3134 L
620 3120 L
620 3030 L
620 3067 L
620 3030 L
620 3150 L
620 3039 L
620 3119 L
620 3265 L
620 3154 L
620 3044 L
620 3161 L
620 3103 L
620 3109 L
620 3135 L
620 2907 L
620 2952 L
620 3079 L
620 3161 L
620 3111 L
620 3014 L
620 3039 L
620 3071 L
620 3150 L
620 3066 L
620 3238 L
620 3145 L
620 3098 L
620 3262 L
620 3168 L
620 3093 L
620 3108 L
620 3110 L
620 3065 L
620 2964 L
620 3192 L
620 3006 L
620 3211 L
620 3233 L
620 3129 L
620 3054 L
620 3062 L
620 3201 L
620 3230 L
620 3086 L
620 3141 L
620 3221 L
620 3123 L
620 3093 L
620 3100 L
620 3019 L
620 2896 L
620 2961 L
620 2974 L
620 2977 L
620 3065 L
620 3044 L
620 3126 L
620 3201 L
620 3072 L
620 3088 L
620 3258 L
620 3157 L
620 3024 L
620 3159 L
620 3347 L
620 3021 L
620 3103 L
620 3192 L
620 2914 L
620 2959 L
620 2976 L
620 3264 L
620 3165 L
620 3035 L
620 3099 L
620 2975 L
620 3089 L
620 2826 L
620 3197 L
620 3061 L
620 2960 L
620 2933 L
620 3211 L
620 3089 L
620 2896 L
620 3204 L
620 3165 L
620 3207 L
620 2970 L
620 3093 L
620 2979 L
620 3033 L
620 3203 L
620 2983 L
620 3124 L
620 2971 L
620 2897 L
620 3064 L
620 3089 L
620 3143 L
620 3118 L
620 3144 L
620 3144 L
620 3256 L
620 3201 L
620 3171 L
620 3076 L
620 3075 L
620 2959 L
620 3008 L
620 3109 L
620 3092 L
620 3119 L
620 3065 L
620 3183 L
620 3035 L
620 3335 L
620 3018 L
620 3169 L
620 3039 L
620 3022 L
620 3282 L
620 3089 L
620 3103 L
620 3084 L
620 3229 L
620 3257 L
620 3077 L
620 3123 L
620 3003 L
L2 C06 COSGR

%
%================
% Legend - Begin
%================
%
GSN 4240 5180 M
4480 5180 L
LWMC SL  C06 COSGR
GSN 4540 5141 M helvM (3.0 uM) show grestore
%
%================
% Legend - End
%================
%

%
% Main frame
%
L10
GSN 
620 1700 M
4220 1700 L
4220 5300 L
620 5300 L
closepath SGR

%
% X axis: large tics
%
L10
%
% X axis: small tics
%
L5
%
% Y axis: large tics
%
L10
GSN 620 2272 M 54 0 rL SGR
GSN 4220 2272 M -54 0 rL SGR
helvS (-0.02) 560 2272 ylabel
GSN 620 3017 M 54 0 rL SGR
GSN 4220 3017 M -54 0 rL SGR
helvS (0) 560 3017 ylabel
GSN 620 3761 M 54 0 rL SGR
GSN 4220 3761 M -54 0 rL SGR
helvS (0.02) 560 3761 ylabel
GSN 620 4506 M 54 0 rL SGR
GSN 4220 4506 M -54 0 rL SGR
helvS (0.04) 560 4506 ylabel
GSN 620 5250 M 54 0 rL SGR
GSN 4220 5250 M -54 0 rL SGR
helvS (0.06) 560 5250 ylabel
%
% Y axis: small tics
%
L5
GSN 620 1714 M 36 0 rL SGR
GSN 4220 1714 M -36 0 rL SGR
GSN 620 1900 M 36 0 rL SGR
GSN 4220 1900 M -36 0 rL SGR
GSN 620 2086 M 36 0 rL SGR
GSN 4220 2086 M -36 0 rL SGR
GSN 620 2272 M 36 0 rL SGR
GSN 4220 2272 M -36 0 rL SGR
GSN 620 2458 M 36 0 rL SGR
GSN 4220 2458 M -36 0 rL SGR
GSN 620 2644 M 36 0 rL SGR
GSN 4220 2644 M -36 0 rL SGR
GSN 620 2830 M 36 0 rL SGR
GSN 4220 2830 M -36 0 rL SGR
GSN 620 3017 M 36 0 rL SGR
GSN 4220 3017 M -36 0 rL SGR
GSN 620 3203 M 36 0 rL SGR
GSN 4220 3203 M -36 0 rL SGR
GSN 620 3389 M 36 0 rL SGR
GSN 4220 3389 M -36 0 rL SGR
GSN 620 3575 M 36 0 rL SGR
GSN 4220 3575 M -36 0 rL SGR
GSN 620 3761 M 36 0 rL SGR
GSN 4220 3761 M -36 0 rL SGR
GSN 620 3947 M 36 0 rL SGR
GSN 4220 3947 M -36 0 rL SGR
GSN 620 4133 M 36 0 rL SGR
GSN 4220 4133 M -36 0 rL SGR
GSN 620 4320 M 36 0 rL SGR
GSN 4220 4320 M -36 0 rL SGR
GSN 620 4506 M 36 0 rL SGR
GSN 4220 4506 M -36 0 rL SGR
GSN 620 4692 M 36 0 rL SGR
GSN 4220 4692 M -36 0 rL SGR
GSN 620 4878 M 36 0 rL SGR
GSN 4220 4878 M -36 0 rL SGR
GSN 620 5064 M 36 0 rL SGR
GSN 4220 5064 M -36 0 rL SGR
GSN 620 5250 M 36 0 rL SGR
GSN 4220 5250 M -36 0 rL SGR

%
% X axis - residual panel
%
GSN L5 620 3017 M 4220 3017 L SDA G50 SGR

%
% X-Axis label:
%
gsave 620 1370 M 
[
[(Helvetica) 180 0 true true 0 (t)]
[(Helvetica) 180 0 true true 0 (i)]
[(Helvetica) 180 0 true true 0 (m)]
[(Helvetica) 180 0 true true 0 (e)]
] 0 MCshow grestore

%
% Y-Axis label:
%
gsave 234 3500 M 
currentpoint gsave translate 90 rotate 0 0 moveto
[
[(Helvetica) 180 0 true true 0 (r)]
[(Helvetica) 180 0 true true 0 (e)]
[(Helvetica) 180 0 true true 0 (s)]
[(Helvetica) 180 0 true true 0 (i)]
[(Helvetica) 180 0 true true 0 (d)]
[(Helvetica) 180 0 true true 0 (u)]
[(Helvetica) 180 0 true true 0 (a)]
[(Helvetica) 180 0 true true 0 (l)]
[(Helvetica) 180 0 true true 0 (s)]
] 0 MCshow grestore

end
showpage
%%Trailer
%%EOF
