%!PS-Adobe-3.0 EPSF-3.0
%%BoundingBox: 0 0 514 550
%%Creator: BioKin Ltd.
%%DocumentFonts: Symbol Helvetica
%%EndComments
%
/bkdict 256 dict def
bkdict begin
/M {moveto} def 
/R {rmoveto} def
/L {lineto} def
/rL {rlineto} def
/GSN {gsave newpath} def
/SGR {stroke grestore} def
/COSGR {gsave setrgbcolor stroke grestore grestore} def
/SL {setlinewidth} def
/LWMB {12} def             % line width - model curves, black & white
/LWMC {10} def             % line width - model curves, color
/L2 {2.5 setlinewidth} def
/L5 {5 setlinewidth} def
/L10 {10 setlinewidth} def
/G50 {0.5 setgray} def
/SDA {[10  20] 0 setdash} def % axes
/helvT {/Helvetica findfont 100 scalefont setfont} def % tiny
/helvS {/Helvetica findfont 125 scalefont setfont} def % small
/helvM {/Helvetica findfont 150 scalefont setfont} def % medium
/helvL {/Helvetica findfont 175 scalefont setfont} def % large
/xlabel {gsave M dup
   stringwidth exch -0.5 mul exch rmoveto show grestore} def 
/ylabel {gsave M 90 rotate dup
   stringwidth exch -0.5 mul exch rmoveto show grestore} def
/ylabelresid {gsave M dup
   stringwidth exch -1 mul exch rmoveto show grestore} def
% ======
% Shapes
% ======
% Circle:
/Circ {0 360 arc closepath} def
%
% Square:
/Squa {dup dup -0.5 mul dup dup R -2 mul 0 exch rL 1 mul 0 rL dup 0 exch -1 mul rL closepath} def
%
% Triangle Up:
/TriU {dup dup dup -0.4 mul exch -0.5 mul exch R dup 0.5 mul exch rL dup -1 mul exch 0.5 mul exch rL closepath} def 
%
% Triangle Down:
/TriD {dup dup dup 0.4 mul exch -0.5 mul exch R dup 0.5 mul exch -1 mul rL dup 0.5 mul exch rL closepath} def 
%
% Diamond:
/Diam {45 rotate Squa} def
% ======
% Fills
% ======
/GRF {gsave setgray fill grestore} def                    % gray-level Fill
/COF {gsave setrgbcolor fill grestore} def                % color fill
% ======
% Colors
% ======
/C01 {1.00	0.00	0.00} def      % Red
/C02 {0.00	0.00	1.00} def      % Blue
/C03 {0.00	0.39	0.00} def      % Dark Green
/C04 {0.78	0.08	0.52} def      % Medium Violet Red
/C05 {0.55	0.27	0.07} def      % Saddle Brown
/C06 {0.10	0.70	0.70} def      % (cyan)
/C07 {1.00	0.55	0.00} def      % Dark Orange
/C08 {0.63	0.13	0.94} def      % Purple
/C09 {0.00	0.75	1.00} def      % Deep Sky Blue
/C10 {0.20	0.80	0.20} def      % Lime Green
/C11 {0.47	0.53	0.60} def      % Light Slate Gray
/C12 {0.00	0.00	0.00} def      % Black            % or: {0.19	0.31	0.31} def      % Dark Slate Gray
%
/LGR {0.75} def % light gray
/DGR {0.33} def % dark gray
%
% =============
% Dash patterns
% =============
/dash01 { [80  20] 0 setdash } def
/dash02 { [40  20] 0 setdash } def
/dash03 { [80  20  10  20] 0 setdash } def
/dash04 { [40  20  10  20] 0 setdash } def
/dash05 { [80  20  10  10  10  20] 0 setdash } def
/dash06 { [40  20  10  10  10  20] 0 setdash } def
/dash07 { [10  10] 0 setdash } def
%
/MFshow {
   { dup 5 get 3 ge
     { 5 get 3 eq {gsave} {grestore} ifelse }
     {dup dup 0 get findfont exch 1 get scalefont setfont
     [ currentpoint ] exch dup 2 get 0 exch R dup 5 get 2 ne {dup dup 6
     get exch 4 get {show} {stringwidth pop 0 R} ifelse }if dup 5 get 0 eq
     {dup 3 get {2 get neg 0 exch R pop} {pop aload pop M} ifelse} {dup 5
     get 1 eq {dup 2 get exch dup 3 get exch 6 get stringwidth pop -2 div
     dup 0 R} {dup 6 get stringwidth pop -2 div 0 R 6 get
     show 2 index {aload pop M neg 3 -1 roll neg R pop pop} {pop pop pop
     pop aload pop M} ifelse }ifelse }ifelse }
     ifelse }
   forall} bind def
/MFwidth {0 exch {dup 3 get{dup dup 0 get findfont exch 1 get scalefont
     setfont 6 get stringwidth pop add} {pop} ifelse} forall} bind def
/MCshow { currentpoint stroke M
  exch dup MFwidth -2 div 3 -1 roll R MFshow } def
%
end
%%EndProlog
bkdict begin
0.1 0.1 scale
%
% Residuals:
%
GSN 620 4863 M
620 4629 L
620 4470 L
620 4690 L
620 4474 L
620 4704 L
620 4424 L
620 4438 L
620 4451 L
620 4276 L
620 4275 L
620 4292 L
620 4057 L
620 4079 L
620 4105 L
620 4102 L
620 4251 L
620 4070 L
620 4127 L
620 4048 L
620 4051 L
620 4026 L
620 4048 L
620 3846 L
620 3986 L
620 4045 L
620 3749 L
620 3928 L
620 3707 L
620 3858 L
620 3746 L
620 3692 L
620 3745 L
620 3795 L
620 3746 L
620 3667 L
620 3766 L
620 3916 L
620 3569 L
620 3694 L
620 3694 L
620 3669 L
620 3646 L
620 3406 L
620 3718 L
620 3705 L
620 3466 L
620 3555 L
620 3353 L
620 3443 L
620 3480 L
620 3592 L
620 3623 L
620 3424 L
620 3360 L
620 3562 L
620 3259 L
620 3365 L
620 3366 L
620 3182 L
620 3178 L
620 3307 L
620 3364 L
620 3301 L
620 3205 L
620 3173 L
620 3052 L
620 3211 L
620 3181 L
620 3127 L
620 3221 L
620 3320 L
620 3141 L
620 3111 L
620 3134 L
620 3216 L
620 3066 L
620 2992 L
620 3289 L
620 2987 L
620 3228 L
620 2738 L
620 3090 L
620 2804 L
620 2771 L
620 2853 L
620 2707 L
620 2670 L
620 2779 L
620 2748 L
620 2673 L
620 2637 L
620 2515 L
620 2560 L
620 2584 L
620 2788 L
620 2519 L
620 2569 L
620 2596 L
620 2567 L
620 2245 L
620 2365 L
620 2497 L
620 2469 L
620 2463 L
620 2324 L
620 2431 L
620 2564 L
620 2399 L
620 2406 L
620 2333 L
620 2247 L
620 2489 L
620 2368 L
620 2326 L
620 2361 L
620 2427 L
620 2210 L
620 2303 L
620 2420 L
620 2305 L
620 2331 L
620 2287 L
620 2324 L
620 2309 L
620 2327 L
620 2351 L
620 2352 L
620 2401 L
620 2204 L
620 2349 L
620 2464 L
620 2330 L
620 2362 L
620 2340 L
620 2408 L
620 2345 L
620 2316 L
620 2299 L
620 2341 L
620 2387 L
620 2381 L
620 2364 L
620 2410 L
620 2405 L
620 2495 L
620 2535 L
620 2136 L
620 2219 L
620 2336 L
620 2531 L
620 2476 L
620 2340 L
620 2429 L
620 2435 L
620 2421 L
620 2394 L
620 2498 L
620 2374 L
620 2432 L
620 2308 L
620 2427 L
620 2541 L
620 2356 L
620 2510 L
620 2449 L
620 2439 L
620 2427 L
620 2613 L
620 2445 L
620 2602 L
620 2531 L
620 2552 L
620 2617 L
620 2460 L
620 2460 L
620 2602 L
620 2565 L
620 2467 L
620 2499 L
620 2509 L
620 2585 L
620 2698 L
620 2549 L
620 2635 L
620 2527 L
620 2656 L
620 2656 L
620 2489 L
620 2565 L
620 2591 L
620 2681 L
620 2465 L
620 2559 L
620 2641 L
620 2632 L
620 2508 L
620 2556 L
620 2535 L
620 2659 L
620 2595 L
620 2672 L
620 2458 L
620 2813 L
620 2608 L
620 2625 L
620 2671 L
620 2596 L
620 2661 L
620 2725 L
620 2641 L
620 2621 L
620 2713 L
620 2517 L
620 2629 L
620 2707 L
620 2798 L
620 2754 L
620 2728 L
620 2725 L
620 2730 L
620 2709 L
620 2849 L
620 2819 L
620 2830 L
620 2588 L
620 2724 L
620 2934 L
620 2807 L
620 2826 L
620 2735 L
620 2826 L
620 2792 L
620 2679 L
620 2822 L
620 2744 L
620 2962 L
620 2950 L
620 2707 L
620 2907 L
620 2777 L
620 2838 L
620 2780 L
620 2942 L
620 2776 L
620 2706 L
620 2652 L
620 2925 L
620 2733 L
620 2737 L
620 2718 L
620 2734 L
620 2811 L
620 2891 L
620 2927 L
620 2792 L
620 2797 L
620 2805 L
620 2908 L
620 2715 L
620 2744 L
620 3062 L
620 2928 L
620 2924 L
620 2977 L
620 2910 L
620 2902 L
620 2849 L
620 2744 L
620 2897 L
620 3006 L
620 2835 L
620 2631 L
620 2922 L
620 2867 L
620 2888 L
620 2993 L
620 2815 L
620 2932 L
620 2939 L
620 3043 L
620 3054 L
620 3069 L
620 3087 L
620 3217 L
620 2961 L
620 3147 L
620 3324 L
620 3181 L
620 3244 L
620 3068 L
620 3228 L
620 3238 L
620 3223 L
620 3255 L
620 3246 L
620 3029 L
620 3279 L
620 3226 L
620 3183 L
620 3206 L
620 3296 L
620 3199 L
620 3155 L
620 3350 L
620 3049 L
620 3362 L
620 3223 L
620 3224 L
620 3175 L
620 3191 L
620 3261 L
620 3164 L
620 3143 L
620 3155 L
620 3246 L
620 3212 L
620 3122 L
620 3189 L
620 3183 L
620 3076 L
620 3116 L
620 3186 L
620 3258 L
620 3190 L
620 3191 L
620 3105 L
620 3125 L
620 3089 L
620 3177 L
620 3278 L
620 3133 L
620 3337 L
620 3318 L
620 3130 L
620 3253 L
620 3208 L
620 3110 L
620 3177 L
620 3491 L
620 3177 L
620 3264 L
620 3090 L
620 3049 L
620 3134 L
620 3091 L
620 3172 L
620 3264 L
620 3108 L
620 3186 L
620 3075 L
620 3043 L
620 3052 L
620 2912 L
620 3274 L
620 2991 L
620 3127 L
620 3076 L
620 3206 L
620 3105 L
620 3088 L
620 3161 L
620 3206 L
620 3136 L
620 2943 L
620 3148 L
620 3143 L
620 3019 L
620 2957 L
620 3064 L
620 2962 L
620 3241 L
620 3075 L
620 3085 L
620 2992 L
620 3097 L
620 2948 L
620 3115 L
620 3122 L
620 2912 L
620 2784 L
620 3059 L
620 3157 L
620 2960 L
620 2896 L
620 2996 L
620 2945 L
620 3036 L
620 2846 L
620 3035 L
620 3058 L
620 3070 L
620 2952 L
620 2993 L
620 3123 L
620 2866 L
620 2817 L
620 3089 L
620 2850 L
620 2998 L
620 2739 L
620 2915 L
620 2808 L
620 2987 L
620 3192 L
620 2937 L
620 2864 L
620 2977 L
620 2676 L
620 2889 L
620 2964 L
620 3021 L
620 2832 L
620 3038 L
620 2840 L
620 2968 L
620 2955 L
620 2974 L
620 3046 L
620 2775 L
620 2996 L
620 2800 L
620 2873 L
620 2903 L
620 3001 L
620 2913 L
620 2853 L
620 2981 L
620 2806 L
620 2876 L
620 2914 L
620 2972 L
620 2917 L
620 3061 L
620 2925 L
620 3110 L
620 2855 L
620 3024 L
620 2960 L
620 2939 L
620 2934 L
620 2942 L
620 2925 L
620 2854 L
620 2869 L
620 3172 L
620 2924 L
620 2820 L
620 2966 L
620 2918 L
620 3118 L
620 2863 L
620 3082 L
620 3091 L
620 2869 L
620 3035 L
620 2908 L
620 2999 L
620 3014 L
620 3051 L
620 2741 L
620 3074 L
620 2797 L
620 2900 L
620 2881 L
620 3000 L
620 3011 L
620 2674 L
620 2827 L
620 2834 L
620 2954 L
620 3069 L
620 2838 L
620 2875 L
620 2611 L
620 2961 L
620 2832 L
620 2981 L
620 2620 L
620 2888 L
620 3063 L
620 2740 L
620 2768 L
620 2812 L
620 2782 L
620 2887 L
620 2910 L
620 2949 L
620 2921 L
620 2870 L
620 2873 L
620 2755 L
620 2948 L
620 2940 L
620 2593 L
620 2902 L
620 2816 L
620 2926 L
620 2850 L
620 2892 L
620 2996 L
620 2907 L
620 2789 L
620 2729 L
620 2892 L
620 2922 L
620 2749 L
620 2728 L
620 2910 L
620 2960 L
620 2760 L
620 2944 L
620 2876 L
620 2733 L
620 2894 L
620 2900 L
620 3200 L
620 2851 L
620 2840 L
620 2970 L
620 2810 L
620 2908 L
620 3010 L
620 2924 L
620 2923 L
620 2794 L
620 2905 L
620 2948 L
620 2904 L
620 2817 L
620 2798 L
620 2869 L
620 2834 L
L2 C04 COSGR

%
%================
% Legend - Begin
%================
%
GSN 4240 5180 M
4480 5180 L
LWMC SL  C04 COSGR
GSN 4540 5141 M helvM (2.0 uM) show grestore
%
%================
% Legend - End
%================
%

%
% Main frame
%
L10
GSN 
620 1700 M
4220 1700 L
4220 5300 L
620 5300 L
closepath SGR

%
% X axis: large tics
%
L10
%
% X axis: small tics
%
L5
%
% Y axis: large tics
%
L10
GSN 620 2243 M 54 0 rL SGR
GSN 4220 2243 M -54 0 rL SGR
helvS (-0.38) 560 2243 ylabel
GSN 620 2991 M 54 0 rL SGR
GSN 4220 2991 M -54 0 rL SGR
helvS (-0.36) 560 2991 ylabel
GSN 620 3740 M 54 0 rL SGR
GSN 4220 3740 M -54 0 rL SGR
helvS (-0.34) 560 3740 ylabel
GSN 620 4488 M 54 0 rL SGR
GSN 4220 4488 M -54 0 rL SGR
helvS (-0.32) 560 4488 ylabel
GSN 620 5237 M 54 0 rL SGR
GSN 4220 5237 M -54 0 rL SGR
helvS (-0.3) 560 5237 ylabel
%
% Y axis: small tics
%
L5
GSN 620 1869 M 36 0 rL SGR
GSN 4220 1869 M -36 0 rL SGR
GSN 620 2056 M 36 0 rL SGR
GSN 4220 2056 M -36 0 rL SGR
GSN 620 2243 M 36 0 rL SGR
GSN 4220 2243 M -36 0 rL SGR
GSN 620 2430 M 36 0 rL SGR
GSN 4220 2430 M -36 0 rL SGR
GSN 620 2617 M 36 0 rL SGR
GSN 4220 2617 M -36 0 rL SGR
GSN 620 2804 M 36 0 rL SGR
GSN 4220 2804 M -36 0 rL SGR
GSN 620 2991 M 36 0 rL SGR
GSN 4220 2991 M -36 0 rL SGR
GSN 620 3179 M 36 0 rL SGR
GSN 4220 3179 M -36 0 rL SGR
GSN 620 3366 M 36 0 rL SGR
GSN 4220 3366 M -36 0 rL SGR
GSN 620 3553 M 36 0 rL SGR
GSN 4220 3553 M -36 0 rL SGR
GSN 620 3740 M 36 0 rL SGR
GSN 4220 3740 M -36 0 rL SGR
GSN 620 3927 M 36 0 rL SGR
GSN 4220 3927 M -36 0 rL SGR
GSN 620 4114 M 36 0 rL SGR
GSN 4220 4114 M -36 0 rL SGR
GSN 620 4301 M 36 0 rL SGR
GSN 4220 4301 M -36 0 rL SGR
GSN 620 4488 M 36 0 rL SGR
GSN 4220 4488 M -36 0 rL SGR
GSN 620 4676 M 36 0 rL SGR
GSN 4220 4676 M -36 0 rL SGR
GSN 620 4863 M 36 0 rL SGR
GSN 4220 4863 M -36 0 rL SGR
GSN 620 5050 M 36 0 rL SGR
GSN 4220 5050 M -36 0 rL SGR
GSN 620 5237 M 36 0 rL SGR
GSN 4220 5237 M -36 0 rL SGR

%
% X-Axis label:
%
gsave 620 1370 M 
[
[(Helvetica) 180 0 true true 0 (t)]
[(Helvetica) 180 0 true true 0 (i)]
[(Helvetica) 180 0 true true 0 (m)]
[(Helvetica) 180 0 true true 0 (e)]
] 0 MCshow grestore

%
% Y-Axis label:
%
gsave 234 3500 M 
currentpoint gsave translate 90 rotate 0 0 moveto
[
[(Helvetica) 180 0 true true 0 (r)]
[(Helvetica) 180 0 true true 0 (e)]
[(Helvetica) 180 0 true true 0 (s)]
[(Helvetica) 180 0 true true 0 (i)]
[(Helvetica) 180 0 true true 0 (d)]
[(Helvetica) 180 0 true true 0 (u)]
[(Helvetica) 180 0 true true 0 (a)]
[(Helvetica) 180 0 true true 0 (l)]
[(Helvetica) 180 0 true true 0 (s)]
] 0 MCshow grestore

end
showpage
%%Trailer
%%EOF
