%!PS-Adobe-3.0 EPSF-3.0
%%BoundingBox: 0 0 514 550
%%Creator: BioKin Ltd.
%%DocumentFonts: Symbol Helvetica
%%EndComments
%
/bkdict 256 dict def
bkdict begin
/M {moveto} def 
/R {rmoveto} def
/L {lineto} def
/rL {rlineto} def
/GSN {gsave newpath} def
/SGR {stroke grestore} def
/COSGR {gsave setrgbcolor stroke grestore grestore} def
/SL {setlinewidth} def
/LWMB {12} def             % line width - model curves, black & white
/LWMC {10} def             % line width - model curves, color
/L2 {2.5 setlinewidth} def
/L5 {5 setlinewidth} def
/L10 {10 setlinewidth} def
/G50 {0.5 setgray} def
/SDA {[10  20] 0 setdash} def % axes
/helvT {/Helvetica findfont 100 scalefont setfont} def % tiny
/helvS {/Helvetica findfont 125 scalefont setfont} def % small
/helvM {/Helvetica findfont 150 scalefont setfont} def % medium
/helvL {/Helvetica findfont 175 scalefont setfont} def % large
/xlabel {gsave M dup
   stringwidth exch -0.5 mul exch rmoveto show grestore} def 
/ylabel {gsave M 90 rotate dup
   stringwidth exch -0.5 mul exch rmoveto show grestore} def
/ylabelresid {gsave M dup
   stringwidth exch -1 mul exch rmoveto show grestore} def
% ======
% Shapes
% ======
% Circle:
/Circ {0 360 arc closepath} def
%
% Square:
/Squa {dup dup -0.5 mul dup dup R -2 mul 0 exch rL 1 mul 0 rL dup 0 exch -1 mul rL closepath} def
%
% Triangle Up:
/TriU {dup dup dup -0.4 mul exch -0.5 mul exch R dup 0.5 mul exch rL dup -1 mul exch 0.5 mul exch rL closepath} def 
%
% Triangle Down:
/TriD {dup dup dup 0.4 mul exch -0.5 mul exch R dup 0.5 mul exch -1 mul rL dup 0.5 mul exch rL closepath} def 
%
% Diamond:
/Diam {45 rotate Squa} def
% ======
% Fills
% ======
/GRF {gsave setgray fill grestore} def                    % gray-level Fill
/COF {gsave setrgbcolor fill grestore} def                % color fill
% ======
% Colors
% ======
/C01 {1.00	0.00	0.00} def      % Red
/C02 {0.00	0.00	1.00} def      % Blue
/C03 {0.00	0.39	0.00} def      % Dark Green
/C04 {0.78	0.08	0.52} def      % Medium Violet Red
/C05 {0.55	0.27	0.07} def      % Saddle Brown
/C06 {0.10	0.70	0.70} def      % (cyan)
/C07 {1.00	0.55	0.00} def      % Dark Orange
/C08 {0.63	0.13	0.94} def      % Purple
/C09 {0.00	0.75	1.00} def      % Deep Sky Blue
/C10 {0.20	0.80	0.20} def      % Lime Green
/C11 {0.47	0.53	0.60} def      % Light Slate Gray
/C12 {0.00	0.00	0.00} def      % Black            % or: {0.19	0.31	0.31} def      % Dark Slate Gray
%
/LGR {0.75} def % light gray
/DGR {0.33} def % dark gray
%
% =============
% Dash patterns
% =============
/dash01 { [80  20] 0 setdash } def
/dash02 { [40  20] 0 setdash } def
/dash03 { [80  20  10  20] 0 setdash } def
/dash04 { [40  20  10  20] 0 setdash } def
/dash05 { [80  20  10  10  10  20] 0 setdash } def
/dash06 { [40  20  10  10  10  20] 0 setdash } def
/dash07 { [10  10] 0 setdash } def
%
/MFshow {
   { dup 5 get 3 ge
     { 5 get 3 eq {gsave} {grestore} ifelse }
     {dup dup 0 get findfont exch 1 get scalefont setfont
     [ currentpoint ] exch dup 2 get 0 exch R dup 5 get 2 ne {dup dup 6
     get exch 4 get {show} {stringwidth pop 0 R} ifelse }if dup 5 get 0 eq
     {dup 3 get {2 get neg 0 exch R pop} {pop aload pop M} ifelse} {dup 5
     get 1 eq {dup 2 get exch dup 3 get exch 6 get stringwidth pop -2 div
     dup 0 R} {dup 6 get stringwidth pop -2 div 0 R 6 get
     show 2 index {aload pop M neg 3 -1 roll neg R pop pop} {pop pop pop
     pop aload pop M} ifelse }ifelse }ifelse }
     ifelse }
   forall} bind def
/MFwidth {0 exch {dup 3 get{dup dup 0 get findfont exch 1 get scalefont
     setfont 6 get stringwidth pop add} {pop} ifelse} forall} bind def
/MCshow { currentpoint stroke M
  exch dup MFwidth -2 div 3 -1 roll R MFshow } def
%
end
%%EndProlog
bkdict begin
0.1 0.1 scale
%
% Model curves:
%

GSN 753 5028 M
753 5028 L
786 5028 L
820 5028 L
853 5028 L
886 5028 L
920 5027 L
929 5027 L
953 5027 L
986 5027 L
1020 5027 L
1053 5026 L
1086 5026 L
1106 5026 L
1120 5025 L
1153 5025 L
1186 5024 L
1220 5023 L
1253 5023 L
1282 5022 L
1286 5022 L
1319 5021 L
1353 5020 L
1386 5018 L
1419 5017 L
1453 5015 L
1459 5015 L
1486 5013 L
1519 5011 L
1553 5008 L
1586 5005 L
1619 5002 L
1635 5000 L
1653 4998 L
1686 4994 L
1719 4989 L
1753 4984 L
1786 4977 L
1812 4972 L
1819 4970 L
1853 4962 L
1886 4953 L
1919 4942 L
1953 4931 L
1986 4917 L
1988 4916 L
2019 4902 L
2053 4885 L
2086 4865 L
2119 4843 L
2153 4818 L
2165 4808 L
2186 4790 L
2219 4758 L
2253 4723 L
2286 4683 L
2319 4639 L
2341 4607 L
2353 4589 L
2386 4534 L
2419 4473 L
2453 4405 L
2486 4331 L
2518 4253 L
2519 4249 L
2553 4161 L
2586 4065 L
2619 3962 L
2653 3852 L
2686 3735 L
2694 3705 L
2719 3612 L
2753 3485 L
2786 3354 L
2819 3221 L
2853 3088 L
2871 3017 L
2886 2957 L
2919 2830 L
2953 2709 L
2986 2597 L
3019 2495 L
3047 2419 L
3053 2406 L
3086 2330 L
3119 2270 L
3153 2225 L
3186 2196 L
3219 2183 L
3224 2182 L
3253 2185 L
3286 2201 L
3319 2231 L
3353 2274 L
3386 2329 L
3400 2356 L
3419 2395 L
3453 2471 L
3476 2527 L
3486 2554 L
3519 2640 L
3553 2723 L
3577 2776 L
3586 2795 L
3619 2852 L
3653 2891 L
3686 2915 L
3719 2927 L
3753 2932 L
3754 2932 L
3786 2934 L
3819 2934 L
3853 2934 L
3886 2934 L
3919 2934 L
3930 2934 L
3953 2934 L
3986 2934 L
4019 2934 L
4053 2934 L
4086 2934 L
4086 2934 L
LWMC SL  C03 COSGR

%
% Experimental data:
%
GSN 777 4939 M
1388 4928 L
1552 4963 L
1652 5100 L
1723 4882 L
1778 4734 L
1824 4750 L
1863 4702 L
1896 4676 L
1926 4723 L
1952 4809 L
1976 4874 L
1998 5069 L
2019 5163 L
2037 4832 L
2055 5165 L
2071 5006 L
2086 4845 L
2101 4817 L
2115 4840 L
2128 5101 L
2140 4872 L
2152 4794 L
2163 5166 L
2174 5093 L
2184 4884 L
2194 4699 L
2204 4604 L
2213 4851 L
2222 4880 L
2230 4821 L
2239 4918 L
2247 4752 L
2255 4740 L
2262 4932 L
2270 4695 L
2277 4768 L
2284 4685 L
2290 4906 L
2297 4810 L
2303 4668 L
2310 4501 L
2316 4608 L
2322 4545 L
2328 4591 L
2333 4638 L
2339 4699 L
2344 4672 L
2350 4780 L
2355 4526 L
2360 4539 L
2365 4625 L
2370 4684 L
2375 4585 L
2380 4409 L
2384 4675 L
2389 4597 L
2393 4832 L
2398 4603 L
2402 4436 L
2407 4430 L
2411 4619 L
2415 4550 L
2419 4508 L
2423 4677 L
2427 4557 L
2431 4805 L
2435 4541 L
2438 4428 L
2442 4589 L
2446 4535 L
2449 4412 L
2453 4443 L
2456 4539 L
2460 4477 L
2463 4389 L
2467 4279 L
2470 4336 L
2473 4457 L
2476 4518 L
2480 4335 L
2483 4374 L
2486 4598 L
2489 4378 L
2492 4509 L
2495 4356 L
2498 4440 L
2501 4275 L
2504 4511 L
2507 4420 L
2510 4248 L
2512 4415 L
2515 4503 L
2518 4378 L
2521 4427 L
2523 4323 L
2526 4362 L
2529 4216 L
2531 4029 L
2534 4239 L
2536 4224 L
2539 4289 L
2541 4256 L
2544 4147 L
2546 4034 L
2549 4203 L
2551 4263 L
2554 4226 L
2556 4147 L
2558 4214 L
2561 4263 L
2563 4063 L
2565 4046 L
2568 4421 L
2570 4346 L
2572 4291 L
2574 4172 L
2576 3977 L
2579 4557 L
2581 4117 L
2583 3994 L
2585 4189 L
2587 4295 L
2589 4168 L
2591 4071 L
2593 4132 L
2595 4042 L
2597 4168 L
2599 4075 L
2601 4083 L
2603 4323 L
2605 3893 L
2607 3999 L
2609 4048 L
2611 4126 L
2613 4086 L
2615 3872 L
2617 3942 L
2618 4061 L
2620 4101 L
2622 4103 L
2624 4153 L
2626 4102 L
2627 3853 L
2629 3918 L
2631 4044 L
2633 4055 L
2634 3975 L
2636 4129 L
2638 3941 L
2640 3984 L
2641 3922 L
2643 4050 L
2645 3883 L
2646 4063 L
2648 3967 L
2650 3601 L
2651 3965 L
2653 3860 L
2654 3983 L
2656 3824 L
2658 3983 L
2659 3822 L
2661 3673 L
2662 3812 L
2664 4038 L
2665 4011 L
2667 3786 L
2668 3891 L
2670 3969 L
2671 3953 L
2673 3758 L
2674 3896 L
2676 3902 L
2677 3774 L
2679 3900 L
2680 3855 L
2682 3828 L
2683 3827 L
2685 3769 L
2686 3751 L
2687 3873 L
2689 3753 L
2690 3795 L
2692 3478 L
2693 3950 L
2694 3850 L
2696 3684 L
2697 3646 L
2698 3869 L
2700 3912 L
2701 3755 L
2702 3902 L
2704 3711 L
2705 3681 L
2706 3717 L
2708 3614 L
2709 3835 L
2710 3701 L
2712 3810 L
2713 3734 L
2714 3774 L
2715 3831 L
2717 3632 L
2718 3643 L
2719 3728 L
2720 3868 L
2722 3700 L
2723 3583 L
2724 3823 L
2725 3750 L
2726 3604 L
2728 3690 L
2729 3556 L
2730 3651 L
2731 3554 L
2732 3761 L
2734 3600 L
2735 3715 L
2736 3487 L
2737 3491 L
2738 3664 L
2739 3563 L
2741 3514 L
2742 3410 L
2743 3759 L
2744 3472 L
2745 3642 L
2746 3526 L
2747 3844 L
2748 3583 L
2749 3599 L
2751 3618 L
2752 3506 L
2753 3815 L
2754 3462 L
2755 3553 L
2756 3588 L
2757 3468 L
2758 3599 L
2759 3497 L
2760 3553 L
2761 3733 L
2762 3612 L
2763 3575 L
2764 3621 L
2765 3386 L
2767 3757 L
2768 3799 L
2769 3612 L
2770 3294 L
2771 3604 L
2772 3490 L
2773 3476 L
2774 3643 L
2775 3342 L
2776 3548 L
2777 3425 L
2778 3648 L
2779 3470 L
2780 3477 L
2781 3560 L
2782 3309 L
2783 3553 L
2783 3575 L
2784 3525 L
2785 3409 L
2786 3514 L
2787 3305 L
2788 3404 L
2789 3340 L
2790 3442 L
2791 3244 L
2792 3599 L
2793 3455 L
2794 3500 L
2795 3433 L
2796 3424 L
2797 3286 L
2798 3614 L
2798 3480 L
2799 3643 L
2800 3463 L
2801 3632 L
2802 3484 L
2803 3405 L
2804 3298 L
2805 3473 L
2806 3307 L
2807 3426 L
2807 3231 L
2808 3476 L
2809 3498 L
2810 3344 L
2811 3334 L
2812 3459 L
2813 3275 L
2813 3241 L
2814 3114 L
2815 3388 L
2816 3567 L
2817 3273 L
2818 3421 L
2819 3463 L
2819 3350 L
2820 3426 L
2821 3107 L
2822 3314 L
2823 3549 L
2824 3265 L
2824 3175 L
2825 3298 L
2826 3314 L
2827 3700 L
2828 3271 L
2828 3059 L
2829 3255 L
2830 3200 L
2831 3281 L
2832 3147 L
2832 3286 L
2833 3172 L
2834 3262 L
2835 3391 L
2836 3189 L
2836 3185 L
2837 3106 L
2838 3299 L
2839 3151 L
2840 3117 L
2840 3170 L
2841 3143 L
2842 3231 L
2843 3400 L
2843 3157 L
2844 3210 L
2845 3177 L
2846 3001 L
2846 3206 L
2847 3047 L
2848 3254 L
2849 3490 L
2849 3053 L
2850 3103 L
2851 3336 L
2852 3015 L
2852 3204 L
2853 3227 L
2854 3259 L
2855 3299 L
2855 3402 L
2856 3151 L
2857 3236 L
2857 3177 L
2858 3116 L
2859 3149 L
2860 3201 L
2860 3028 L
2861 3079 L
2862 3032 L
2862 3099 L
2863 3007 L
2864 3312 L
2865 3017 L
2865 3413 L
2866 3075 L
2867 2941 L
2867 3082 L
2868 3181 L
2869 3285 L
2869 3204 L
2870 3130 L
2871 3320 L
2871 3156 L
2872 3067 L
2873 2932 L
2873 3104 L
2874 3292 L
2875 3007 L
2876 3143 L
2876 3320 L
2877 3065 L
2878 3040 L
2878 3025 L
2879 3214 L
2880 3177 L
2880 3001 L
2881 3131 L
2881 3009 L
2882 3070 L
2883 3256 L
2883 3084 L
2884 3214 L
2885 3275 L
2885 2943 L
2886 2996 L
2887 3280 L
2887 3217 L
2888 3003 L
2889 3099 L
2889 3084 L
2892 3308 L
2894 3167 L
2897 3082 L
2899 3221 L
2902 2973 L
2904 3209 L
2907 3193 L
2909 2810 L
2911 2913 L
2914 2936 L
2916 2992 L
2918 2871 L
2921 3133 L
2923 2850 L
2925 2837 L
2927 2883 L
2929 2870 L
2932 2875 L
2934 2924 L
2936 2767 L
2938 2915 L
2940 2897 L
2942 2866 L
2944 2893 L
2946 2747 L
2948 2919 L
2950 2847 L
2952 2708 L
2954 2748 L
2956 2752 L
2958 2819 L
2960 2542 L
2962 2797 L
2964 2872 L
2966 2875 L
2968 2776 L
2970 2848 L
2971 2774 L
2973 2722 L
2975 2595 L
2977 2562 L
2979 2713 L
2980 2588 L
2982 2802 L
2984 2609 L
2986 2703 L
2987 2680 L
2989 2832 L
2991 2684 L
2993 2802 L
2994 2607 L
2996 2751 L
2998 2695 L
2999 2596 L
3001 2611 L
3003 2398 L
3004 2753 L
3006 2499 L
3007 2582 L
3009 2627 L
3011 2575 L
3012 2517 L
3014 2403 L
3015 2650 L
3017 2556 L
3018 2446 L
3020 2480 L
3021 2390 L
3023 2607 L
3024 2528 L
3026 2529 L
3027 2467 L
3029 2304 L
3030 2556 L
3032 2563 L
3033 2556 L
3035 2451 L
3036 2485 L
3038 2675 L
3039 2245 L
3040 2626 L
3042 2363 L
3043 2512 L
3045 2521 L
3046 2505 L
3047 2352 L
3049 2654 L
3050 2476 L
3051 2579 L
3053 2422 L
3054 2252 L
3055 2377 L
3057 2387 L
3058 2467 L
3059 2365 L
3061 2376 L
3062 2313 L
3063 2165 L
3065 2283 L
3066 2415 L
3067 2366 L
3068 2243 L
3070 2420 L
3071 2390 L
3072 2359 L
3073 2531 L
3075 2196 L
3076 2287 L
3077 2464 L
3078 2127 L
3079 2380 L
3081 2448 L
3082 2402 L
3083 2399 L
3084 2226 L
3085 2400 L
3087 2276 L
3088 2415 L
3089 1953 L
3090 2478 L
3091 2259 L
3092 2183 L
3094 2301 L
3095 2185 L
3096 2199 L
3097 2300 L
3098 2322 L
3099 2322 L
3100 2245 L
3101 2319 L
3103 2265 L
3104 2189 L
3105 2370 L
3106 2165 L
3107 2457 L
3108 2195 L
3109 2109 L
3110 2343 L
3111 2235 L
3112 2217 L
3113 2343 L
3114 2423 L
3115 2218 L
3116 2252 L
3117 2243 L
3119 2170 L
3120 2224 L
3121 2022 L
3122 2220 L
3123 2078 L
3124 2001 L
3125 2103 L
3126 2171 L
3127 2103 L
3128 2018 L
3129 2248 L
3130 2180 L
3131 1967 L
3132 2217 L
3133 2115 L
3134 2447 L
3135 2101 L
3136 2098 L
3136 2021 L
3137 2065 L
3138 2146 L
3139 2328 L
3140 2304 L
3141 2222 L
3142 2105 L
3143 2192 L
3144 2133 L
3145 2240 L
3146 2074 L
3147 2076 L
3148 2349 L
3149 2042 L
3150 2104 L
3151 2121 L
3151 2139 L
3152 2257 L
3153 2170 L
3154 1997 L
3155 2080 L
3156 2077 L
3157 2166 L
3158 2206 L
3159 2061 L
3160 2060 L
3160 2069 L
3161 1984 L
3162 2045 L
3163 2102 L
3164 2152 L
3165 2185 L
3166 2001 L
3166 2100 L
3167 2070 L
3168 2001 L
3169 1972 L
3170 1984 L
3171 2060 L
3172 2148 L
3172 2208 L
3173 2057 L
3174 2250 L
3175 2105 L
3176 2292 L
3177 2016 L
3177 2082 L
3178 2144 L
3179 2317 L
3180 2153 L
3181 1870 L
3181 2058 L
3182 2160 L
3183 2002 L
3184 2116 L
3185 2112 L
3185 1946 L
3186 2092 L
3187 2070 L
3188 2093 L
3189 2213 L
3189 2016 L
3190 2043 L
3191 2229 L
3192 2148 L
3193 2033 L
3193 2223 L
3194 2066 L
3195 2021 L
3196 2062 L
3196 1977 L
3197 2062 L
3198 2032 L
3199 1842 L
3199 2158 L
3200 2071 L
3201 2104 L
3202 2016 L
3202 2228 L
3203 2035 L
3204 1893 L
3205 1944 L
3205 1902 L
3206 1994 L
3207 2241 L
3208 2009 L
3208 2129 L
3209 2174 L
3210 2173 L
3210 1846 L
3211 1957 L
3212 2108 L
3213 2222 L
3213 2084 L
3214 2089 L
3215 2152 L
3215 1986 L
3216 2039 L
3217 2217 L
3218 2140 L
3218 2034 L
3219 1903 L
3220 2222 L
3220 2078 L
3221 2417 L
3222 2136 L
3222 2376 L
3223 2146 L
3224 2328 L
3224 1860 L
3225 2036 L
3226 2105 L
3227 1990 L
3227 2244 L
3228 1916 L
3229 2195 L
3229 1970 L
3230 2131 L
3231 2103 L
3231 1900 L
3232 2181 L
3233 1888 L
3233 2177 L
3234 2007 L
3235 2248 L
3235 2057 L
3236 2090 L
3236 2109 L
3237 2064 L
3238 1959 L
3238 2070 L
3239 2187 L
3240 2091 L
3240 2066 L
3241 2140 L
3242 2015 L
3242 1976 L
3243 1884 L
3244 2127 L
3244 1982 L
3245 2202 L
3245 2027 L
3246 2083 L
3247 2072 L
3247 1833 L
3248 2016 L
3249 2293 L
3249 2127 L
3250 1943 L
3250 2029 L
3251 2135 L
3252 2095 L
3252 2120 L
3253 2015 L
3253 2001 L
3254 2106 L
3255 2135 L
3255 2142 L
3256 1894 L
3257 2262 L
3257 1983 L
3258 2188 L
3258 2058 L
3259 2354 L
3259 1944 L
3260 2175 L
3261 2064 L
3261 2024 L
3262 2048 L
3262 2165 L
3263 2232 L
3264 2209 L
3264 2129 L
3265 2095 L
3265 2240 L
3266 1942 L
3267 1976 L
3267 2138 L
3268 1978 L
3268 2147 L
3269 2232 L
3269 2052 L
3270 2172 L
3271 2005 L
3271 2117 L
3272 1999 L
3272 2206 L
3273 2041 L
3273 2188 L
3274 2134 L
3275 2201 L
3275 2142 L
3276 2067 L
3276 1986 L
3277 2237 L
3277 2223 L
3278 2177 L
3278 2009 L
3279 2079 L
3280 2222 L
3280 2238 L
3281 2049 L
3281 2147 L
3282 2137 L
3282 2137 L
3283 2114 L
3283 2216 L
3284 2049 L
3284 2145 L
3285 2138 L
3285 2072 L
3286 2347 L
3287 2037 L
3287 2182 L
3288 2198 L
3288 2225 L
3289 2092 L
3289 2107 L
3290 2152 L
3290 2318 L
3291 1991 L
3291 2284 L
3292 2048 L
3292 2173 L
3293 2267 L
3293 2009 L
3294 2047 L
3294 2201 L
3295 2141 L
3295 2185 L
3296 2133 L
3297 2089 L
3297 2192 L
3298 2074 L
3298 2254 L
3299 2179 L
3299 2227 L
3300 1995 L
3300 2078 L
3301 2108 L
3301 2127 L
3302 2013 L
3302 2088 L
3303 1919 L
3303 2311 L
3304 2055 L
3304 2269 L
3305 2278 L
3305 2079 L
3306 2014 L
3306 2257 L
3307 2314 L
3307 2171 L
3308 2047 L
3308 2070 L
3309 2120 L
3309 2188 L
3310 2079 L
3310 2330 L
3311 2105 L
3311 2177 L
3312 2192 L
3312 2305 L
3312 1932 L
3313 2370 L
3313 2067 L
3314 2112 L
3314 2275 L
3315 2030 L
3315 2122 L
3316 2157 L
3316 2284 L
3317 2215 L
3317 2412 L
3318 2030 L
3318 2125 L
3319 2212 L
3319 2028 L
3320 2181 L
3320 2153 L
3321 2133 L
3321 1956 L
3321 2138 L
3322 2164 L
3322 2147 L
3323 2152 L
3323 2121 L
3324 2420 L
3324 2159 L
3325 2269 L
3325 2313 L
3326 2346 L
3326 2296 L
3327 2106 L
3327 2256 L
3327 2433 L
3328 2232 L
3328 2098 L
3329 2275 L
3329 2031 L
3330 2258 L
3330 2074 L
3331 2240 L
3331 2239 L
3332 2420 L
3332 2167 L
3332 2083 L
3333 2238 L
3333 2556 L
3334 2064 L
3334 1974 L
3335 2262 L
3335 2171 L
3336 2195 L
3336 2179 L
3336 2102 L
3337 2300 L
3337 1997 L
3338 2359 L
3338 2085 L
3339 2387 L
3339 2049 L
3339 2361 L
3340 2214 L
3340 2089 L
3341 2259 L
3341 2264 L
3342 2325 L
3342 2165 L
3343 2246 L
3343 2224 L
3343 2099 L
3344 2259 L
3344 2112 L
3345 2072 L
3345 2224 L
3346 2186 L
3346 2077 L
3346 2269 L
3347 2336 L
3347 2218 L
3348 2195 L
3348 2299 L
3348 2290 L
3349 2074 L
3349 2278 L
3350 2009 L
3350 2165 L
3351 2131 L
3351 2289 L
3351 2312 L
3352 2390 L
3352 2133 L
3353 2118 L
3353 2212 L
3353 2200 L
3354 2198 L
3354 2129 L
3355 2147 L
3355 2228 L
3355 2335 L
3356 2213 L
3356 2263 L
3357 2187 L
3357 2259 L
3358 2179 L
3358 2527 L
3358 2200 L
3359 2311 L
3359 2355 L
3360 2177 L
3360 2346 L
3360 2191 L
3361 2532 L
3361 2218 L
3362 2267 L
3362 2392 L
3362 2201 L
3363 1974 L
3363 2305 L
3364 2198 L
3364 2397 L
3364 2324 L
3365 1995 L
3365 2330 L
3365 2407 L
3366 2389 L
3366 2369 L
3367 2224 L
3367 2238 L
3367 2244 L
3368 2221 L
3368 2438 L
3369 2168 L
3369 2357 L
3369 2329 L
3370 2257 L
3370 2326 L
3371 2270 L
3371 2351 L
3371 2315 L
3372 2284 L
3372 2207 L
3372 2192 L
3373 1974 L
3373 2208 L
3374 1965 L
3374 2306 L
3374 2022 L
3375 2351 L
3375 2368 L
3375 2174 L
3376 2343 L
3376 2182 L
3377 2290 L
3377 2661 L
3377 2368 L
3378 2244 L
3378 2035 L
3378 2296 L
3379 2194 L
3379 2381 L
3380 2214 L
3380 2221 L
3380 2305 L
3381 2495 L
3381 2176 L
3381 2324 L
3382 2295 L
3382 2143 L
3383 2277 L
3383 2192 L
3383 2426 L
3384 2182 L
3384 2630 L
3384 2227 L
3385 2389 L
3385 2381 L
3385 2329 L
3386 2221 L
3386 2477 L
3387 2278 L
3387 2322 L
3387 2483 L
3388 2131 L
3388 2255 L
3388 2335 L
3389 2247 L
3389 2397 L
3389 2239 L
3390 2217 L
3390 2457 L
3391 2250 L
3391 2357 L
3391 2218 L
3392 2333 L
3392 2246 L
3392 2447 L
3393 2219 L
3393 2466 L
3393 2384 L
3394 2353 L
3394 2127 L
3394 2199 L
3395 2256 L
3395 2169 L
3395 2273 L
3396 2416 L
3396 2229 L
3396 2273 L
3397 2222 L
3397 2317 L
3398 2328 L
3398 2229 L
3398 2303 L
3399 2250 L
3399 2275 L
3399 2231 L
3400 2266 L
3400 2262 L
3400 2234 L
3401 2435 L
3401 2186 L
3401 2359 L
3402 2495 L
3402 2376 L
3402 2481 L
3403 2383 L
3403 2327 L
3403 2460 L
3404 2391 L
3404 2469 L
3404 2524 L
3405 2483 L
3405 2227 L
3405 2345 L
3406 2297 L
3406 2242 L
3406 2315 L
3407 2335 L
3407 2328 L
3407 2361 L
3408 2375 L
3408 2357 L
3408 2430 L
3409 2461 L
3409 2237 L
3409 2420 L
3410 2207 L
3410 2296 L
3410 2477 L
3411 2481 L
3411 2264 L
3411 2371 L
3412 2541 L
3412 2490 L
3412 2271 L
3413 2430 L
3413 2272 L
3413 2277 L
3414 2439 L
3414 2374 L
3414 2357 L
3415 2320 L
3415 2104 L
3415 2417 L
3416 2525 L
3416 2249 L
3416 2450 L
3417 2203 L
3417 2394 L
3417 2378 L
3417 2316 L
3418 2410 L
3418 2466 L
3418 2414 L
3419 2433 L
3419 2317 L
3419 2185 L
3420 2387 L
3420 2709 L
3420 2465 L
3421 2398 L
3421 2317 L
3421 2390 L
3422 2286 L
3422 2357 L
3422 2372 L
3423 2550 L
3423 2288 L
3423 2473 L
3423 2301 L
3424 2498 L
3424 2496 L
3424 2462 L
3425 2527 L
3425 2369 L
3425 2363 L
3426 2330 L
3426 2272 L
3426 2460 L
3427 2533 L
3427 2274 L
3427 2431 L
3428 2324 L
3428 2889 L
3428 2494 L
3428 2298 L
3429 2261 L
3429 2375 L
3429 2642 L
3430 2431 L
3430 2391 L
3430 2349 L
3431 2462 L
3431 2287 L
3431 2538 L
3431 2497 L
3432 2391 L
3432 2371 L
3432 2341 L
3433 2418 L
3433 2494 L
3433 2331 L
3434 2402 L
3434 2539 L
3434 2275 L
3434 2611 L
3435 2508 L
3435 2581 L
3435 2549 L
3436 2425 L
3436 2401 L
3436 2453 L
3437 2389 L
3437 2440 L
3437 2327 L
3437 2374 L
3438 2524 L
3438 2515 L
3438 2527 L
3439 2473 L
3439 2484 L
3439 2615 L
3440 2630 L
3440 2339 L
3440 2401 L
3440 2505 L
3441 2508 L
3441 2319 L
3441 2353 L
3442 2472 L
3442 2636 L
3442 2590 L
3442 2762 L
3443 2579 L
3443 2497 L
3443 2452 L
3444 2456 L
3444 2447 L
3444 2382 L
3444 2584 L
3445 2175 L
3445 2725 L
3445 2391 L
3446 2327 L
3446 2424 L
3446 2624 L
3446 2316 L
3447 2462 L
3447 2367 L
3447 2463 L
3448 2525 L
3448 2561 L
3448 2519 L
3448 2403 L
3449 2546 L
3449 2623 L
3449 2612 L
3450 2243 L
3450 2340 L
3450 2386 L
3450 2502 L
3451 2267 L
3451 2368 L
3451 2410 L
3452 2544 L
3452 2472 L
3452 2427 L
3452 2483 L
3453 2273 L
3453 2462 L
3453 2384 L
3454 2573 L
3454 2501 L
3454 2523 L
3454 2474 L
3455 2613 L
3455 2418 L
3455 2505 L
3455 2447 L
3456 2324 L
3456 2512 L
3456 2589 L
3457 2336 L
3457 2431 L
3457 2248 L
3457 2512 L
3458 2337 L
3458 2514 L
3458 2468 L
3458 2654 L
3459 2454 L
3459 2631 L
3459 2444 L
3460 2605 L
3460 2609 L
3460 2385 L
3460 2397 L
3461 2424 L
3461 2543 L
3461 2584 L
3461 2345 L
3462 2487 L
3462 2517 L
3462 2471 L
3463 2546 L
3463 2356 L
3463 2395 L
3463 2530 L
3464 2483 L
3464 2385 L
3464 2447 L
3464 2531 L
3465 2675 L
3465 2344 L
3465 2623 L
3465 2436 L
3466 2446 L
3466 2586 L
3466 2551 L
3466 2379 L
3467 2482 L
3467 2479 L
3467 2583 L
3468 2597 L
3468 2554 L
3468 2518 L
3468 2611 L
3469 2634 L
3469 2634 L
3469 2594 L
3469 2468 L
3470 2548 L
3470 2432 L
3470 2612 L
3470 2643 L
3471 2567 L
3471 2743 L
3471 2535 L
3471 2693 L
3472 2693 L
3472 2548 L
3472 2460 L
3472 2632 L
3473 2577 L
3473 2574 L
3473 2370 L
3474 2726 L
3474 2498 L
3474 2582 L
3474 2523 L
3475 2347 L
3475 2554 L
3475 2482 L
3475 2541 L
3476 2531 L
3476 2626 L
3476 2426 L
3476 2467 L
3477 2468 L
3477 2424 L
3477 2571 L
3477 2544 L
3478 2515 L
3478 2601 L
3478 2578 L
3478 2457 L
3479 2507 L
3479 2531 L
3479 2584 L
3479 2569 L
3480 2550 L
3480 2609 L
3480 2498 L
3480 2559 L
3481 2636 L
3481 2515 L
3481 2682 L
3481 2705 L
3482 2625 L
3482 2586 L
3482 2521 L
3482 2647 L
3483 2667 L
3483 2659 L
3483 2689 L
3483 2490 L
3484 2601 L
3484 2532 L
3484 2448 L
3484 2418 L
3485 2582 L
3485 2492 L
3485 2539 L
3485 2342 L
3486 2660 L
3486 2419 L
3486 2396 L
3486 2548 L
3487 2606 L
3487 2427 L
3487 2505 L
3487 2499 L
3488 2632 L
3488 2637 L
3488 2701 L
3488 2447 L
3488 2731 L
3489 2545 L
3489 2454 L
3489 2389 L
3489 2724 L
3490 2600 L
3490 2678 L
3490 2433 L
3490 2451 L
3491 2818 L
3491 2734 L
3491 2378 L
3491 2527 L
3492 2384 L
3492 2536 L
3492 2629 L
3492 2489 L
3493 2633 L
3493 2667 L
3493 2595 L
3493 2535 L
3494 2521 L
3494 2538 L
3494 2439 L
3494 2590 L
3494 2387 L
3495 2557 L
3495 2603 L
3495 2638 L
3495 2495 L
3496 2452 L
3496 2479 L
3496 2843 L
3496 2368 L
3497 2653 L
3497 2583 L
3497 2585 L
3497 2646 L
3498 2602 L
3498 2715 L
3498 2569 L
3498 2476 L
3498 2639 L
3499 2726 L
3499 2748 L
3499 2628 L
3499 2793 L
3500 2528 L
3500 2587 L
3506 2735 L
3511 2505 L
3517 2669 L
3522 2722 L
3527 2806 L
3532 2657 L
3537 2727 L
3542 2735 L
3547 2651 L
3552 2806 L
3557 2732 L
3561 2633 L
3566 2717 L
3570 2917 L
3575 2879 L
3579 2795 L
3583 2991 L
3587 2985 L
3591 3035 L
3595 2728 L
3599 2831 L
3603 2802 L
3607 2775 L
3611 2832 L
3614 2696 L
3618 2914 L
3622 2800 L
3625 2683 L
3629 2699 L
3632 2947 L
3636 3051 L
3639 2887 L
3642 2778 L
3646 2825 L
3649 2909 L
3652 2982 L
3655 2915 L
3658 3176 L
3661 2766 L
3664 2578 L
3667 2834 L
3670 2765 L
3673 2890 L
3676 2901 L
3679 2799 L
3682 2859 L
3685 3020 L
3688 2705 L
3690 2943 L
3693 2838 L
3696 2808 L
3698 2990 L
3701 2704 L
3704 2706 L
3706 2806 L
3709 2837 L
3711 2920 L
3714 2928 L
3716 2901 L
3719 2921 L
3721 2718 L
3724 3030 L
3726 2541 L
3728 2971 L
3731 3036 L
3733 2916 L
3735 2814 L
3738 2920 L
3740 2953 L
3742 2893 L
3744 3012 L
3747 2887 L
3749 3172 L
3751 2876 L
3753 2911 L
3755 3095 L
3757 2967 L
3760 2958 L
3762 3223 L
3764 2919 L
3766 2966 L
3768 2755 L
3770 2892 L
3772 2911 L
3774 2949 L
3776 2924 L
3778 3032 L
3780 2885 L
3781 2875 L
3783 2940 L
3785 2789 L
3787 2985 L
3789 2858 L
3791 2939 L
3793 2983 L
3795 2905 L
3796 2816 L
3798 2714 L
3800 3057 L
3802 2924 L
3803 2864 L
3805 2913 L
3807 3028 L
3809 3012 L
3810 2725 L
3812 2786 L
3814 3061 L
3816 2990 L
3817 2715 L
3819 2749 L
3820 2682 L
3822 2963 L
3824 2979 L
3825 2851 L
3827 2789 L
3829 3080 L
3830 2896 L
3832 3008 L
3833 2904 L
3835 2815 L
3836 2931 L
3838 2824 L
3839 2977 L
3841 3158 L
3842 3051 L
3844 2804 L
3845 2969 L
3847 3114 L
3848 2867 L
3850 2868 L
3851 3113 L
3853 2726 L
3854 2955 L
3856 2755 L
3857 3002 L
3859 2951 L
3860 3044 L
3861 2943 L
3863 2906 L
3864 2921 L
3866 2880 L
3867 2857 L
3868 2931 L
3870 2839 L
3871 3083 L
3872 3072 L
3874 2980 L
3875 2752 L
3876 3310 L
3878 3030 L
3879 2843 L
3880 3057 L
3882 2754 L
3883 2832 L
3884 2915 L
3885 3102 L
3887 2942 L
3888 2947 L
3889 2936 L
3890 3069 L
3892 3098 L
3893 3112 L
3894 2892 L
3895 2874 L
3897 2864 L
3898 2985 L
3899 2955 L
3900 2858 L
3901 3038 L
3903 3085 L
3904 2923 L
3905 2940 L
3906 2702 L
3907 2788 L
3908 2860 L
3910 2616 L
3911 2962 L
3912 2836 L
3913 2986 L
3914 3091 L
3915 2673 L
3917 2778 L
3918 2571 L
3919 2980 L
3920 2887 L
3921 3029 L
3922 2856 L
3923 2981 L
3924 3121 L
3925 3019 L
3926 2980 L
3928 3022 L
3929 2944 L
3930 2909 L
3931 3026 L
3932 2905 L
3933 2788 L
3934 2732 L
3935 3041 L
3936 2855 L
3937 3026 L
3938 2899 L
3939 3086 L
3940 2794 L
3941 2885 L
3942 3025 L
3943 3005 L
3944 2918 L
3945 3225 L
3946 2909 L
3947 2698 L
3948 2797 L
3949 2795 L
3950 3140 L
3951 2891 L
3952 2851 L
3953 2860 L
3954 2831 L
3955 2859 L
3956 2987 L
3957 3074 L
3958 2900 L
3959 2947 L
3960 2772 L
3961 2802 L
3962 2811 L
3963 3088 L
3964 2849 L
3965 2958 L
3966 3070 L
3966 2744 L
3967 2842 L
3968 2879 L
3969 2798 L
3970 2846 L
3971 2831 L
3972 2845 L
3973 2889 L
3974 2946 L
3975 2701 L
3976 2800 L
3976 2817 L
3977 2614 L
3978 2906 L
3979 2943 L
3980 2958 L
3981 2996 L
3982 2997 L
3983 2854 L
3983 2620 L
3984 2620 L
3985 3007 L
3986 2751 L
3987 2986 L
3988 2863 L
3989 2826 L
3989 2933 L
3990 2703 L
3991 2782 L
3992 2805 L
3993 2848 L
3994 2864 L
3995 2876 L
3995 2728 L
3996 2854 L
3997 2753 L
3998 2841 L
3999 2968 L
3999 2929 L
4000 2682 L
4001 2673 L
4002 2770 L
4003 2919 L
4003 2905 L
4004 3113 L
4005 3000 L
4006 2791 L
4007 3002 L
4007 2874 L
4008 2631 L
4009 2851 L
4010 2906 L
4011 2933 L
4011 2618 L
4012 2817 L
4013 2707 L
4014 3036 L
4014 2749 L
4015 2901 L
4016 2867 L
4017 2875 L
4017 2964 L
4018 3007 L
4019 3085 L
4020 2943 L
4021 3075 L
4021 2838 L
4022 2974 L
4023 2866 L
4023 2761 L
4024 2920 L
4025 3118 L
4026 2780 L
4026 2889 L
4027 2843 L
4028 2864 L
4029 3001 L
4029 2920 L
4030 2981 L
4031 2898 L
4032 2777 L
4032 3003 L
4033 2924 L
4034 2859 L
4034 2902 L
4035 3106 L
4036 2825 L
4036 2746 L
4037 3070 L
4038 2927 L
4039 2875 L
4039 2979 L
4040 2829 L
4041 2952 L
4041 2905 L
4042 2720 L
4043 2721 L
4043 2798 L
4044 2948 L
4045 2864 L
4045 2730 L
4046 2751 L
4047 2909 L
4047 2867 L
4048 2815 L
4049 2916 L
4050 3102 L
4050 2876 L
4051 3080 L
4052 2604 L
4052 2969 L
4053 2685 L
4053 3063 L
4054 3097 L
4055 2564 L
4055 2863 L
4056 2981 L
4057 2761 L
4057 3005 L
4058 2918 L
4059 2844 L
4059 2631 L
4060 2884 L
4061 2474 L
4061 2898 L
4062 2608 L
L2 C03 COSGR

%
%================
% Legend - Begin
%================
%
GSN 4240 5180 M
4480 5180 L
LWMC SL  C03 COSGR
GSN 4540 5141 M helvM (1.5 uM) show grestore
%
%================
% Legend - End
%================
%

%
% Residuals:
%
GSN 777 1064 M
1388 1063 L
1552 1101 L
1652 1225 L
1723 1049 L
1778 933 L
1824 955 L
1863 922 L
1896 908 L
1926 956 L
1952 1036 L
1976 1100 L
1998 1272 L
2019 1360 L
2037 1088 L
2055 1377 L
2071 1251 L
2086 1123 L
2101 1107 L
2115 1134 L
2128 1363 L
2140 1177 L
2152 1118 L
2163 1441 L
2174 1386 L
2184 1218 L
2194 1069 L
2204 996 L
2213 1212 L
2222 1245 L
2230 1202 L
2239 1292 L
2247 1158 L
2255 1156 L
2262 1325 L
2270 1132 L
2277 1201 L
2284 1139 L
2290 1333 L
2297 1259 L
2303 1146 L
2310 1012 L
2316 1110 L
2322 1063 L
2328 1109 L
2333 1156 L
2339 1215 L
2344 1199 L
2350 1297 L
2355 1089 L
2360 1107 L
2365 1186 L
2370 1243 L
2375 1167 L
2380 1025 L
2384 1256 L
2389 1197 L
2393 1402 L
2398 1216 L
2402 1081 L
2407 1082 L
2411 1249 L
2415 1198 L
2419 1169 L
2423 1318 L
2427 1223 L
2431 1439 L
2435 1222 L
2438 1134 L
2442 1276 L
2446 1237 L
2449 1139 L
2453 1172 L
2456 1259 L
2460 1213 L
2463 1145 L
2467 1059 L
2470 1113 L
2473 1221 L
2476 1279 L
2480 1130 L
2483 1170 L
2486 1365 L
2489 1185 L
2492 1302 L
2495 1179 L
2498 1256 L
2501 1123 L
2504 1327 L
2507 1257 L
2510 1117 L
2512 1264 L
2515 1344 L
2518 1245 L
2521 1292 L
2523 1210 L
2526 1249 L
2529 1131 L
2531 979 L
2534 1162 L
2536 1155 L
2539 1216 L
2541 1194 L
2544 1107 L
2546 1018 L
2549 1166 L
2551 1222 L
2554 1197 L
2556 1135 L
2558 1198 L
2561 1244 L
2563 1081 L
2565 1072 L
2568 1395 L
2570 1336 L
2572 1296 L
2574 1201 L
2576 1041 L
2579 1536 L
2581 1170 L
2583 1071 L
2585 1241 L
2587 1337 L
2589 1234 L
2591 1157 L
2593 1214 L
2595 1144 L
2597 1255 L
2599 1182 L
2601 1194 L
2603 1401 L
2605 1044 L
2607 1138 L
2609 1184 L
2611 1256 L
2613 1226 L
2615 1051 L
2617 1115 L
2618 1221 L
2620 1259 L
2622 1266 L
2624 1313 L
2626 1275 L
2627 1069 L
2629 1129 L
2631 1240 L
2633 1254 L
2634 1192 L
2636 1327 L
2638 1173 L
2640 1214 L
2641 1166 L
2643 1280 L
2645 1142 L
2646 1299 L
2648 1223 L
2650 919 L
2651 1231 L
2653 1146 L
2654 1255 L
2656 1126 L
2658 1264 L
2659 1133 L
2661 1012 L
2662 1134 L
2664 1329 L
2665 1311 L
2667 1126 L
2668 1218 L
2670 1289 L
2671 1280 L
2673 1120 L
2674 1241 L
2676 1250 L
2677 1146 L
2679 1257 L
2680 1224 L
2682 1205 L
2683 1208 L
2685 1164 L
2686 1153 L
2687 1260 L
2689 1163 L
2690 1202 L
2692 939 L
2693 1342 L
2694 1262 L
2696 1126 L
2697 1098 L
2698 1291 L
2700 1331 L
2701 1203 L
2702 1330 L
2704 1173 L
2705 1152 L
2706 1187 L
2708 1104 L
2709 1295 L
2710 1186 L
2712 1281 L
2713 1221 L
2714 1259 L
2715 1311 L
2717 1147 L
2718 1160 L
2719 1236 L
2720 1358 L
2722 1220 L
2723 1126 L
2724 1332 L
2725 1274 L
2726 1155 L
2728 1232 L
2729 1122 L
2730 1206 L
2731 1128 L
2732 1306 L
2734 1174 L
2735 1275 L
2736 1086 L
2737 1094 L
2738 1243 L
2739 1162 L
2741 1124 L
2742 1039 L
2743 1338 L
2744 1099 L
2745 1246 L
2746 1152 L
2747 1425 L
2748 1208 L
2749 1225 L
2751 1245 L
2752 1154 L
2753 1418 L
2754 1123 L
2755 1204 L
2756 1237 L
2757 1139 L
2758 1253 L
2759 1171 L
2760 1221 L
2761 1377 L
2762 1279 L
2763 1250 L
2764 1293 L
2765 1097 L
2767 1415 L
2768 1454 L
2769 1299 L
2770 1033 L
2771 1299 L
2772 1206 L
2773 1198 L
2774 1342 L
2775 1091 L
2776 1268 L
2777 1168 L
2778 1360 L
2779 1212 L
2780 1222 L
2781 1295 L
2782 1086 L
2783 1295 L
2783 1317 L
2784 1278 L
2785 1184 L
2786 1275 L
2787 1102 L
2788 1189 L
2789 1138 L
2790 1227 L
2791 1063 L
2792 1366 L
2793 1248 L
2794 1289 L
2795 1235 L
2796 1230 L
2797 1117 L
2798 1397 L
2798 1288 L
2799 1428 L
2800 1279 L
2801 1425 L
2802 1303 L
2803 1239 L
2804 1151 L
2805 1303 L
2806 1165 L
2807 1268 L
2807 1107 L
2808 1317 L
2809 1338 L
2810 1212 L
2811 1205 L
2812 1314 L
2813 1162 L
2813 1136 L
2814 1031 L
2815 1266 L
2816 1420 L
2817 1175 L
2818 1302 L
2819 1341 L
2819 1248 L
2820 1315 L
2821 1048 L
2822 1226 L
2823 1427 L
2824 1190 L
2824 1117 L
2825 1223 L
2826 1240 L
2827 1569 L
2828 1209 L
2828 1033 L
2829 1201 L
2830 1157 L
2831 1229 L
2832 1118 L
2832 1238 L
2833 1145 L
2834 1223 L
2835 1335 L
2836 1166 L
2836 1166 L
2837 1102 L
2838 1268 L
2839 1145 L
2840 1119 L
2840 1166 L
2841 1146 L
2842 1223 L
2843 1368 L
2843 1166 L
2844 1213 L
2845 1188 L
2846 1042 L
2846 1218 L
2847 1086 L
2848 1263 L
2849 1465 L
2849 1098 L
2850 1143 L
2851 1342 L
2852 1074 L
2852 1236 L
2853 1257 L
2854 1287 L
2855 1323 L
2855 1413 L
2856 1203 L
2857 1277 L
2857 1230 L
2858 1181 L
2859 1211 L
2860 1257 L
2860 1114 L
2861 1159 L
2862 1121 L
2862 1181 L
2863 1106 L
2864 1365 L
2865 1118 L
2865 1455 L
2866 1172 L
2867 1061 L
2867 1183 L
2868 1269 L
2869 1359 L
2869 1292 L
2870 1232 L
2871 1395 L
2871 1259 L
2872 1186 L
2873 1074 L
2873 1222 L
2874 1383 L
2875 1144 L
2876 1262 L
2876 1413 L
2877 1200 L
2878 1181 L
2878 1171 L
2879 1332 L
2880 1304 L
2880 1157 L
2881 1269 L
2881 1168 L
2882 1222 L
2883 1381 L
2883 1238 L
2884 1350 L
2885 1404 L
2885 1125 L
2886 1172 L
2887 1414 L
2887 1363 L
2888 1184 L
2889 1267 L
2889 1258 L
2892 1455 L
2894 1344 L
2897 1280 L
2899 1406 L
2902 1204 L
2904 1411 L
2907 1405 L
2909 1090 L
2911 1184 L
2914 1211 L
2916 1265 L
2918 1171 L
2921 1399 L
2923 1166 L
2925 1163 L
2927 1209 L
2929 1204 L
2932 1215 L
2934 1263 L
2936 1137 L
2938 1269 L
2940 1260 L
2942 1240 L
2944 1269 L
2946 1151 L
2948 1303 L
2950 1249 L
2952 1137 L
2954 1177 L
2956 1186 L
2958 1248 L
2960 1020 L
2962 1241 L
2964 1309 L
2966 1318 L
2968 1239 L
2970 1306 L
2971 1248 L
2973 1210 L
2975 1107 L
2977 1084 L
2979 1217 L
2980 1117 L
2982 1302 L
2984 1143 L
2986 1228 L
2987 1213 L
2989 1346 L
2991 1226 L
2993 1330 L
2994 1170 L
2996 1297 L
2998 1253 L
2999 1174 L
3001 1191 L
3003 1015 L
3004 1320 L
3006 1109 L
3007 1183 L
3009 1225 L
3011 1186 L
3012 1140 L
3014 1048 L
3015 1260 L
3017 1185 L
3018 1096 L
3020 1128 L
3021 1056 L
3023 1242 L
3024 1179 L
3026 1184 L
3027 1135 L
3029 1001 L
3030 1217 L
3032 1226 L
3033 1223 L
3035 1139 L
3036 1170 L
3038 1334 L
3039 974 L
3040 1299 L
3042 1080 L
3043 1209 L
3045 1220 L
3046 1209 L
3047 1083 L
3049 1341 L
3050 1193 L
3051 1283 L
3053 1154 L
3054 1012 L
3055 1121 L
3057 1132 L
3058 1202 L
3059 1119 L
3061 1130 L
3062 1080 L
3063 958 L
3065 1060 L
3066 1174 L
3067 1135 L
3068 1033 L
3070 1186 L
3071 1162 L
3072 1139 L
3073 1286 L
3075 1005 L
3076 1085 L
3077 1236 L
3078 954 L
3079 1170 L
3081 1230 L
3082 1193 L
3083 1193 L
3084 1048 L
3085 1197 L
3087 1094 L
3088 1214 L
3089 826 L
3090 1271 L
3091 1088 L
3092 1026 L
3094 1128 L
3095 1032 L
3096 1045 L
3097 1132 L
3098 1152 L
3099 1154 L
3100 1091 L
3101 1155 L
3103 1112 L
3104 1049 L
3105 1203 L
3106 1032 L
3107 1280 L
3108 1060 L
3109 989 L
3110 1188 L
3111 1099 L
3112 1085 L
3113 1193 L
3114 1262 L
3115 1090 L
3116 1121 L
3117 1114 L
3119 1054 L
3120 1101 L
3121 932 L
3122 1101 L
3123 982 L
3124 918 L
3125 1005 L
3126 1064 L
3127 1008 L
3128 937 L
3129 1133 L
3130 1077 L
3131 898 L
3132 1111 L
3133 1026 L
3134 1307 L
3135 1016 L
3136 1015 L
3136 951 L
3137 989 L
3138 1058 L
3139 1213 L
3140 1194 L
3141 1126 L
3142 1028 L
3143 1102 L
3144 1054 L
3145 1144 L
3146 1006 L
3147 1008 L
3148 1239 L
3149 981 L
3150 1035 L
3151 1049 L
3151 1066 L
3152 1167 L
3153 1094 L
3154 949 L
3155 1019 L
3156 1018 L
3157 1093 L
3158 1129 L
3159 1006 L
3160 1006 L
3160 1015 L
3161 944 L
3162 996 L
3163 1045 L
3164 1088 L
3165 1117 L
3166 961 L
3166 1046 L
3167 1021 L
3168 964 L
3169 939 L
3170 951 L
3171 1015 L
3172 1090 L
3172 1141 L
3173 1014 L
3174 1178 L
3175 1056 L
3176 1214 L
3177 982 L
3177 1038 L
3178 1091 L
3179 1238 L
3180 1100 L
3181 861 L
3181 1020 L
3182 1108 L
3183 974 L
3184 1071 L
3185 1068 L
3185 928 L
3186 1052 L
3187 1034 L
3188 1054 L
3189 1156 L
3189 990 L
3190 1012 L
3191 1170 L
3192 1102 L
3193 1005 L
3193 1166 L
3194 1033 L
3195 996 L
3196 1031 L
3196 960 L
3197 1031 L
3198 1007 L
3199 846 L
3199 1114 L
3200 1040 L
3201 1068 L
3202 994 L
3202 1174 L
3203 1011 L
3204 891 L
3205 935 L
3205 899 L
3206 977 L
3207 1186 L
3208 991 L
3208 1092 L
3209 1130 L
3210 1129 L
3210 853 L
3211 948 L
3212 1075 L
3213 1172 L
3213 1055 L
3214 1060 L
3215 1113 L
3215 973 L
3216 1017 L
3217 1168 L
3218 1103 L
3218 1014 L
3219 903 L
3220 1173 L
3220 1051 L
3221 1338 L
3222 1101 L
3222 1303 L
3223 1109 L
3224 1263 L
3224 868 L
3225 1016 L
3226 1075 L
3227 978 L
3227 1192 L
3228 915 L
3229 1151 L
3229 960 L
3230 1097 L
3231 1073 L
3231 902 L
3232 1139 L
3233 892 L
3233 1135 L
3234 992 L
3235 1196 L
3235 1034 L
3236 1062 L
3236 1078 L
3237 1040 L
3238 951 L
3238 1045 L
3239 1144 L
3240 1063 L
3240 1042 L
3241 1104 L
3242 998 L
3242 965 L
3243 888 L
3244 1092 L
3244 971 L
3245 1156 L
3245 1008 L
3246 1055 L
3247 1046 L
3247 844 L
3248 998 L
3249 1232 L
3249 1092 L
3250 936 L
3250 1009 L
3251 1098 L
3252 1064 L
3252 1086 L
3253 996 L
3253 984 L
3254 1073 L
3255 1097 L
3255 1103 L
3256 893 L
3257 1204 L
3257 968 L
3258 1142 L
3258 1031 L
3259 1281 L
3259 934 L
3260 1129 L
3261 1036 L
3261 1002 L
3262 1022 L
3262 1120 L
3263 1176 L
3264 1157 L
3264 1090 L
3265 1060 L
3265 1182 L
3266 931 L
3267 959 L
3267 1095 L
3268 960 L
3268 1103 L
3269 1175 L
3269 1022 L
3270 1123 L
3271 982 L
3271 1077 L
3272 976 L
3272 1152 L
3273 1012 L
3273 1136 L
3274 1090 L
3275 1146 L
3275 1096 L
3276 1032 L
3276 964 L
3277 1175 L
3277 1164 L
3278 1124 L
3278 982 L
3279 1041 L
3280 1161 L
3280 1174 L
3281 1014 L
3281 1097 L
3282 1089 L
3282 1088 L
3283 1068 L
3283 1154 L
3284 1012 L
3284 1093 L
3285 1087 L
3285 1031 L
3286 1263 L
3287 1001 L
3287 1123 L
3288 1137 L
3288 1159 L
3289 1046 L
3289 1058 L
3290 1096 L
3290 1236 L
3291 960 L
3291 1207 L
3292 1007 L
3292 1112 L
3293 1191 L
3293 973 L
3294 1005 L
3294 1135 L
3295 1083 L
3295 1120 L
3296 1076 L
3297 1039 L
3297 1125 L
3298 1025 L
3298 1177 L
3299 1113 L
3299 1154 L
3300 957 L
3300 1027 L
3301 1051 L
3301 1067 L
3302 970 L
3302 1034 L
3303 891 L
3303 1221 L
3304 1005 L
3304 1185 L
3305 1192 L
3305 1023 L
3306 968 L
3306 1173 L
3307 1221 L
3307 1099 L
3308 995 L
3308 1014 L
3309 1056 L
3309 1112 L
3310 1020 L
3310 1231 L
3311 1041 L
3311 1102 L
3312 1114 L
3312 1209 L
3312 894 L
3313 1263 L
3313 1007 L
3314 1045 L
3314 1181 L
3315 974 L
3315 1051 L
3316 1081 L
3316 1187 L
3317 1129 L
3317 1295 L
3318 971 L
3318 1051 L
3319 1124 L
3319 968 L
3320 1098 L
3320 1073 L
3321 1056 L
3321 906 L
3321 1059 L
3322 1081 L
3322 1066 L
3323 1069 L
3323 1043 L
3324 1295 L
3324 1074 L
3325 1167 L
3325 1203 L
3326 1231 L
3326 1189 L
3327 1027 L
3327 1153 L
3327 1303 L
3328 1133 L
3328 1018 L
3329 1168 L
3329 961 L
3330 1152 L
3330 996 L
3331 1137 L
3331 1135 L
3332 1288 L
3332 1073 L
3332 1002 L
3333 1132 L
3333 1401 L
3334 985 L
3334 908 L
3335 1151 L
3335 1073 L
3336 1093 L
3336 1079 L
3336 1014 L
3337 1180 L
3337 924 L
3338 1229 L
3338 998 L
3339 1252 L
3339 966 L
3339 1229 L
3340 1104 L
3340 998 L
3341 1141 L
3341 1145 L
3342 1196 L
3342 1061 L
3343 1129 L
3343 1109 L
3343 1004 L
3344 1138 L
3344 1013 L
3345 979 L
3345 1107 L
3346 1074 L
3346 981 L
3346 1144 L
3347 1200 L
3347 1099 L
3348 1079 L
3348 1167 L
3348 1158 L
3349 976 L
3349 1147 L
3350 920 L
3350 1051 L
3351 1022 L
3351 1155 L
3351 1174 L
3352 1239 L
3352 1022 L
3353 1008 L
3353 1087 L
3353 1076 L
3354 1074 L
3354 1016 L
3355 1030 L
3355 1098 L
3355 1188 L
3356 1085 L
3356 1126 L
3357 1061 L
3357 1121 L
3358 1054 L
3358 1347 L
3358 1070 L
3359 1164 L
3359 1200 L
3360 1049 L
3360 1191 L
3360 1060 L
3361 1348 L
3361 1082 L
3362 1123 L
3362 1228 L
3362 1066 L
3363 873 L
3363 1152 L
3364 1062 L
3364 1230 L
3364 1167 L
3365 889 L
3365 1171 L
3365 1235 L
3366 1219 L
3366 1202 L
3367 1079 L
3367 1091 L
3367 1096 L
3368 1075 L
3368 1258 L
3369 1029 L
3369 1188 L
3369 1164 L
3370 1103 L
3370 1161 L
3371 1113 L
3371 1181 L
3371 1150 L
3372 1123 L
3372 1058 L
3372 1045 L
3373 860 L
3373 1057 L
3374 851 L
3374 1138 L
3374 898 L
3375 1175 L
3375 1189 L
3375 1025 L
3376 1167 L
3376 1030 L
3377 1121 L
3377 1434 L
3377 1185 L
3378 1081 L
3378 903 L
3378 1124 L
3379 1036 L
3379 1194 L
3380 1052 L
3380 1058 L
3380 1128 L
3381 1288 L
3381 1018 L
3381 1142 L
3382 1118 L
3382 989 L
3383 1101 L
3383 1028 L
3383 1226 L
3384 1019 L
3384 1397 L
3384 1056 L
3385 1192 L
3385 1185 L
3385 1141 L
3386 1049 L
3386 1265 L
3387 1096 L
3387 1133 L
3387 1268 L
3388 970 L
3388 1074 L
3388 1141 L
3389 1066 L
3389 1193 L
3389 1059 L
3390 1039 L
3390 1241 L
3391 1067 L
3391 1156 L
3391 1038 L
3392 1135 L
3392 1061 L
3392 1230 L
3393 1036 L
3393 1245 L
3393 1175 L
3394 1148 L
3394 957 L
3394 1017 L
3395 1064 L
3395 991 L
3395 1077 L
3396 1198 L
3396 1039 L
3396 1076 L
3397 1032 L
3397 1112 L
3398 1120 L
3398 1036 L
3398 1099 L
3399 1053 L
3399 1074 L
3399 1036 L
3400 1065 L
3400 1061 L
3400 1037 L
3401 1206 L
3401 995 L
3401 1141 L
3402 1255 L
3402 1154 L
3402 1242 L
3403 1159 L
3403 1111 L
3403 1223 L
3404 1164 L
3404 1229 L
3404 1275 L
3405 1240 L
3405 1023 L
3405 1122 L
3406 1080 L
3406 1034 L
3406 1095 L
3407 1111 L
3407 1104 L
3407 1132 L
3408 1143 L
3408 1127 L
3408 1188 L
3409 1214 L
3409 1024 L
3409 1178 L
3410 998 L
3410 1073 L
3410 1225 L
3411 1227 L
3411 1044 L
3411 1134 L
3412 1277 L
3412 1233 L
3412 1047 L
3413 1182 L
3413 1047 L
3413 1051 L
3414 1187 L
3414 1131 L
3414 1117 L
3415 1085 L
3415 902 L
3415 1166 L
3416 1256 L
3416 1023 L
3416 1191 L
3417 983 L
3417 1143 L
3417 1129 L
3417 1076 L
3418 1155 L
3418 1202 L
3418 1158 L
3419 1172 L
3419 1075 L
3419 962 L
3420 1132 L
3420 1404 L
3420 1197 L
3421 1140 L
3421 1071 L
3421 1132 L
3422 1043 L
3422 1103 L
3422 1115 L
3423 1264 L
3423 1043 L
3423 1198 L
3423 1053 L
3424 1219 L
3424 1216 L
3424 1187 L
3425 1241 L
3425 1107 L
3425 1101 L
3426 1073 L
3426 1024 L
3426 1182 L
3427 1243 L
3427 1023 L
3427 1155 L
3428 1065 L
3428 1541 L
3428 1207 L
3428 1041 L
3429 1009 L
3429 1105 L
3429 1330 L
3430 1151 L
3430 1116 L
3430 1081 L
3431 1176 L
3431 1027 L
3431 1238 L
3431 1204 L
3432 1113 L
3432 1096 L
3432 1070 L
3433 1135 L
3433 1198 L
3433 1060 L
3434 1119 L
3434 1234 L
3434 1010 L
3434 1294 L
3435 1206 L
3435 1268 L
3435 1240 L
3436 1134 L
3436 1113 L
3436 1157 L
3437 1102 L
3437 1145 L
3437 1049 L
3437 1088 L
3438 1214 L
3438 1206 L
3438 1216 L
3439 1169 L
3439 1178 L
3439 1288 L
3440 1300 L
3440 1054 L
3440 1106 L
3440 1193 L
3441 1195 L
3441 1034 L
3441 1063 L
3442 1163 L
3442 1301 L
3442 1261 L
3442 1406 L
3443 1251 L
3443 1181 L
3443 1142 L
3444 1145 L
3444 1137 L
3444 1081 L
3444 1251 L
3445 905 L
3445 1370 L
3445 1087 L
3446 1032 L
3446 1113 L
3446 1282 L
3446 1021 L
3447 1144 L
3447 1063 L
3447 1144 L
3448 1196 L
3448 1226 L
3448 1189 L
3448 1091 L
3449 1211 L
3449 1275 L
3449 1265 L
3450 953 L
3450 1035 L
3450 1073 L
3450 1170 L
3451 972 L
3451 1056 L
3451 1091 L
3452 1203 L
3452 1142 L
3452 1104 L
3452 1151 L
3453 972 L
3453 1131 L
3453 1065 L
3454 1224 L
3454 1163 L
3454 1180 L
3454 1139 L
3455 1255 L
3455 1090 L
3455 1163 L
3455 1114 L
3456 1009 L
3456 1168 L
3456 1232 L
3457 1018 L
3457 1098 L
3457 943 L
3457 1165 L
3458 1016 L
3458 1166 L
3458 1126 L
3458 1282 L
3459 1112 L
3459 1262 L
3459 1103 L
3460 1239 L
3460 1242 L
3460 1052 L
3460 1062 L
3461 1083 L
3461 1184 L
3461 1217 L
3461 1015 L
3462 1134 L
3462 1160 L
3462 1120 L
3463 1183 L
3463 1022 L
3463 1054 L
3463 1168 L
3464 1127 L
3464 1044 L
3464 1096 L
3464 1166 L
3465 1287 L
3465 1008 L
3465 1242 L
3465 1084 L
3466 1092 L
3466 1210 L
3466 1179 L
3466 1033 L
3467 1120 L
3467 1117 L
3467 1204 L
3468 1215 L
3468 1178 L
3468 1147 L
3468 1226 L
3469 1244 L
3469 1244 L
3469 1210 L
3469 1102 L
3470 1170 L
3470 1071 L
3470 1222 L
3470 1248 L
3471 1183 L
3471 1331 L
3471 1155 L
3471 1288 L
3472 1288 L
3472 1165 L
3472 1089 L
3472 1235 L
3473 1187 L
3473 1184 L
3473 1011 L
3474 1312 L
3474 1118 L
3474 1189 L
3474 1138 L
3475 989 L
3475 1163 L
3475 1102 L
3475 1152 L
3476 1142 L
3476 1222 L
3476 1053 L
3476 1087 L
3477 1088 L
3477 1050 L
3477 1173 L
3477 1149 L
3478 1125 L
3478 1197 L
3478 1177 L
3478 1074 L
3479 1116 L
3479 1135 L
3479 1179 L
3479 1167 L
3480 1150 L
3480 1200 L
3480 1105 L
3480 1156 L
3481 1220 L
3481 1117 L
3481 1258 L
3481 1277 L
3482 1209 L
3482 1176 L
3482 1120 L
3482 1226 L
3483 1243 L
3483 1235 L
3483 1260 L
3483 1091 L
3484 1184 L
3484 1126 L
3484 1054 L
3484 1028 L
3485 1166 L
3485 1090 L
3485 1129 L
3485 962 L
3486 1230 L
3486 1026 L
3486 1006 L
3486 1134 L
3487 1182 L
3487 1031 L
3487 1096 L
3487 1090 L
3488 1202 L
3488 1206 L
3488 1260 L
3488 1044 L
3488 1284 L
3489 1126 L
3489 1048 L
3489 993 L
3489 1276 L
3490 1170 L
3490 1236 L
3490 1028 L
3490 1043 L
3491 1352 L
3491 1281 L
3491 980 L
3491 1105 L
3492 984 L
3492 1112 L
3492 1190 L
3492 1071 L
3493 1192 L
3493 1220 L
3493 1159 L
3493 1108 L
3494 1095 L
3494 1109 L
3494 1025 L
3494 1152 L
3494 980 L
3495 1123 L
3495 1162 L
3495 1191 L
3495 1069 L
3496 1032 L
3496 1055 L
3496 1362 L
3496 960 L
3497 1201 L
3497 1141 L
3497 1142 L
3497 1193 L
3498 1156 L
3498 1250 L
3498 1126 L
3498 1047 L
3498 1184 L
3499 1258 L
3499 1276 L
3499 1173 L
3499 1313 L
3500 1088 L
3500 1137 L
3506 1250 L
3511 1044 L
3517 1170 L
3522 1204 L
3527 1263 L
3532 1127 L
3537 1175 L
3542 1171 L
3547 1091 L
3552 1212 L
3557 1140 L
3561 1047 L
3566 1110 L
3570 1271 L
3575 1231 L
3579 1152 L
3583 1311 L
3587 1298 L
3591 1334 L
3595 1068 L
3599 1149 L
3603 1119 L
3607 1091 L
3611 1135 L
3614 1015 L
3618 1194 L
3622 1093 L
3625 991 L
3629 1000 L
3632 1205 L
3636 1290 L
3639 1148 L
3642 1053 L
3646 1090 L
3649 1158 L
3652 1217 L
3655 1158 L
3658 1376 L
3661 1027 L
3664 867 L
3667 1081 L
3670 1021 L
3673 1125 L
3676 1133 L
3679 1045 L
3682 1094 L
3685 1230 L
3688 962 L
3690 1162 L
3693 1072 L
3696 1046 L
3698 1199 L
3701 956 L
3704 958 L
3706 1041 L
3709 1067 L
3711 1136 L
3714 1142 L
3716 1119 L
3719 1135 L
3721 963 L
3724 1227 L
3726 813 L
3728 1176 L
3731 1230 L
3733 1129 L
3735 1042 L
3738 1132 L
3740 1159 L
3742 1108 L
3744 1208 L
3747 1103 L
3749 1343 L
3751 1093 L
3753 1122 L
3755 1277 L
3757 1169 L
3760 1162 L
3762 1385 L
3764 1128 L
3766 1168 L
3768 989 L
3770 1105 L
3772 1121 L
3774 1153 L
3776 1132 L
3778 1223 L
3780 1099 L
3781 1091 L
3783 1145 L
3785 1018 L
3787 1183 L
3789 1076 L
3791 1144 L
3793 1181 L
3795 1115 L
3796 1040 L
3798 954 L
3800 1243 L
3802 1131 L
3803 1080 L
3805 1122 L
3807 1219 L
3809 1205 L
3810 963 L
3812 1014 L
3814 1247 L
3816 1187 L
3817 954 L
3819 984 L
3820 926 L
3822 1164 L
3824 1177 L
3825 1069 L
3827 1017 L
3829 1262 L
3830 1107 L
3832 1202 L
3833 1114 L
3835 1039 L
3836 1137 L
3838 1046 L
3839 1176 L
3841 1329 L
3842 1238 L
3844 1030 L
3845 1169 L
3847 1292 L
3848 1083 L
3850 1084 L
3851 1291 L
3853 963 L
3854 1157 L
3856 988 L
3857 1197 L
3859 1154 L
3860 1232 L
3861 1147 L
3863 1116 L
3864 1129 L
3866 1094 L
3867 1074 L
3868 1137 L
3870 1059 L
3871 1265 L
3872 1256 L
3874 1178 L
3875 986 L
3876 1457 L
3878 1221 L
3879 1062 L
3880 1243 L
3882 987 L
3883 1053 L
3884 1123 L
3885 1281 L
3887 1146 L
3888 1151 L
3889 1141 L
3890 1254 L
3892 1278 L
3893 1290 L
3894 1104 L
3895 1089 L
3897 1080 L
3898 1182 L
3899 1157 L
3900 1075 L
3901 1227 L
3903 1267 L
3904 1130 L
3905 1144 L
3906 944 L
3907 1016 L
3908 1077 L
3910 871 L
3911 1163 L
3912 1056 L
3913 1184 L
3914 1272 L
3915 919 L
3917 1008 L
3918 833 L
3919 1179 L
3920 1100 L
3921 1219 L
3922 1074 L
3923 1179 L
3924 1297 L
3925 1211 L
3926 1178 L
3928 1214 L
3929 1148 L
3930 1118 L
3931 1217 L
3932 1115 L
3933 1016 L
3934 969 L
3935 1229 L
3936 1073 L
3937 1217 L
3938 1110 L
3939 1268 L
3940 1021 L
3941 1098 L
3942 1216 L
3943 1199 L
3944 1126 L
3945 1385 L
3946 1118 L
3947 940 L
3948 1024 L
3949 1022 L
3950 1313 L
3951 1103 L
3952 1069 L
3953 1076 L
3954 1052 L
3955 1076 L
3956 1184 L
3957 1257 L
3958 1111 L
3959 1150 L
3960 1003 L
3961 1028 L
3962 1036 L
3963 1269 L
3964 1068 L
3965 1159 L
3966 1254 L
3966 979 L
3967 1061 L
3968 1093 L
3969 1024 L
3970 1065 L
3971 1052 L
3972 1064 L
3973 1101 L
3974 1149 L
3975 943 L
3976 1026 L
3976 1041 L
3977 869 L
3978 1116 L
3979 1147 L
3980 1159 L
3981 1192 L
3982 1193 L
3983 1072 L
3983 874 L
3984 874 L
3985 1201 L
3986 985 L
3987 1184 L
3988 1079 L
3989 1049 L
3989 1138 L
3990 944 L
3991 1011 L
3992 1031 L
3993 1066 L
3994 1081 L
3995 1090 L
3995 966 L
3996 1071 L
3997 986 L
3998 1061 L
3999 1168 L
3999 1135 L
4000 926 L
4001 919 L
4002 1001 L
4003 1126 L
4003 1115 L
4004 1291 L
4005 1195 L
4006 1019 L
4007 1197 L
4007 1089 L
4008 883 L
4009 1069 L
4010 1116 L
4011 1139 L
4011 873 L
4012 1041 L
4013 948 L
4014 1226 L
4014 983 L
4015 1111 L
4016 1083 L
4017 1089 L
4017 1165 L
4018 1201 L
4019 1267 L
4020 1147 L
4021 1259 L
4021 1058 L
4022 1173 L
4023 1082 L
4023 993 L
4024 1127 L
4025 1295 L
4026 1009 L
4026 1101 L
4027 1062 L
4028 1080 L
4029 1196 L
4029 1128 L
4030 1179 L
4031 1109 L
4032 1007 L
4032 1198 L
4033 1131 L
4034 1076 L
4034 1112 L
4035 1284 L
4036 1047 L
4036 981 L
4037 1254 L
4038 1134 L
4039 1090 L
4039 1177 L
4040 1051 L
4041 1154 L
4041 1115 L
4042 958 L
4043 960 L
4043 1024 L
4044 1151 L
4045 1080 L
4045 967 L
4046 985 L
4047 1119 L
4047 1083 L
4048 1039 L
4049 1124 L
4050 1281 L
4050 1090 L
4051 1263 L
4052 860 L
4052 1169 L
4053 929 L
4053 1248 L
4054 1277 L
4055 827 L
4055 1079 L
4056 1179 L
4057 994 L
4057 1199 L
4058 1126 L
4059 1063 L
4059 883 L
4060 1097 L
4061 750 L
4061 1109 L
4062 864 L
L2 C03 COSGR

%
% Main frame
%
L10
GSN 
620 1700 M
4220 1700 L
4220 5300 L
620 5300 L
closepath SGR

%
% X axis: large tics
%
L10
GSN 1130 1700 M 0  54 rL SGR
GSN 1130 5300 M 0 -54 rL SGR
helvS (0.0001) 1130 470 xlabel
GSN 1716 1700 M 0  54 rL SGR
GSN 1716 5300 M 0 -54 rL SGR
helvS (0.001) 1716 470 xlabel
GSN 2303 1700 M 0  54 rL SGR
GSN 2303 5300 M 0 -54 rL SGR
helvS (0.01) 2303 470 xlabel
GSN 2889 1700 M 0  54 rL SGR
GSN 2889 5300 M 0 -54 rL SGR
helvS (0.1) 2889 470 xlabel
GSN 3476 1700 M 0  54 rL SGR
GSN 3476 5300 M 0 -54 rL SGR
helvS (1) 3476 470 xlabel
GSN 4062 1700 M 0  54 rL SGR
GSN 4062 5300 M 0 -54 rL SGR
helvS (10) 4062 470 xlabel
%
% X axis: small tics
%
L5
GSN 720 1700 M 0  36 rL SGR
GSN 720 5300 M 0 -36 rL SGR
GSN 824 1700 M 0  36 rL SGR
GSN 824 5300 M 0 -36 rL SGR
GSN 897 1700 M 0  36 rL SGR
GSN 897 5300 M 0 -36 rL SGR
GSN 954 1700 M 0  36 rL SGR
GSN 954 5300 M 0 -36 rL SGR
GSN 1000 1700 M 0  36 rL SGR
GSN 1000 5300 M 0 -36 rL SGR
GSN 1039 1700 M 0  36 rL SGR
GSN 1039 5300 M 0 -36 rL SGR
GSN 1073 1700 M 0  36 rL SGR
GSN 1073 5300 M 0 -36 rL SGR
GSN 1103 1700 M 0  36 rL SGR
GSN 1103 5300 M 0 -36 rL SGR
GSN 1307 1700 M 0  36 rL SGR
GSN 1307 5300 M 0 -36 rL SGR
GSN 1410 1700 M 0  36 rL SGR
GSN 1410 5300 M 0 -36 rL SGR
GSN 1483 1700 M 0  36 rL SGR
GSN 1483 5300 M 0 -36 rL SGR
GSN 1540 1700 M 0  36 rL SGR
GSN 1540 5300 M 0 -36 rL SGR
GSN 1586 1700 M 0  36 rL SGR
GSN 1586 5300 M 0 -36 rL SGR
GSN 1626 1700 M 0  36 rL SGR
GSN 1626 5300 M 0 -36 rL SGR
GSN 1660 1700 M 0  36 rL SGR
GSN 1660 5300 M 0 -36 rL SGR
GSN 1690 1700 M 0  36 rL SGR
GSN 1690 5300 M 0 -36 rL SGR
GSN 1893 1700 M 0  36 rL SGR
GSN 1893 5300 M 0 -36 rL SGR
GSN 1996 1700 M 0  36 rL SGR
GSN 1996 5300 M 0 -36 rL SGR
GSN 2069 1700 M 0  36 rL SGR
GSN 2069 5300 M 0 -36 rL SGR
GSN 2126 1700 M 0  36 rL SGR
GSN 2126 5300 M 0 -36 rL SGR
GSN 2173 1700 M 0  36 rL SGR
GSN 2173 5300 M 0 -36 rL SGR
GSN 2212 1700 M 0  36 rL SGR
GSN 2212 5300 M 0 -36 rL SGR
GSN 2246 1700 M 0  36 rL SGR
GSN 2246 5300 M 0 -36 rL SGR
GSN 2276 1700 M 0  36 rL SGR
GSN 2276 5300 M 0 -36 rL SGR
GSN 2479 1700 M 0  36 rL SGR
GSN 2479 5300 M 0 -36 rL SGR
GSN 2583 1700 M 0  36 rL SGR
GSN 2583 5300 M 0 -36 rL SGR
GSN 2656 1700 M 0  36 rL SGR
GSN 2656 5300 M 0 -36 rL SGR
GSN 2713 1700 M 0  36 rL SGR
GSN 2713 5300 M 0 -36 rL SGR
GSN 2759 1700 M 0  36 rL SGR
GSN 2759 5300 M 0 -36 rL SGR
GSN 2798 1700 M 0  36 rL SGR
GSN 2798 5300 M 0 -36 rL SGR
GSN 2832 1700 M 0  36 rL SGR
GSN 2832 5300 M 0 -36 rL SGR
GSN 2862 1700 M 0  36 rL SGR
GSN 2862 5300 M 0 -36 rL SGR
GSN 3066 1700 M 0  36 rL SGR
GSN 3066 5300 M 0 -36 rL SGR
GSN 3169 1700 M 0  36 rL SGR
GSN 3169 5300 M 0 -36 rL SGR
GSN 3242 1700 M 0  36 rL SGR
GSN 3242 5300 M 0 -36 rL SGR
GSN 3299 1700 M 0  36 rL SGR
GSN 3299 5300 M 0 -36 rL SGR
GSN 3345 1700 M 0  36 rL SGR
GSN 3345 5300 M 0 -36 rL SGR
GSN 3385 1700 M 0  36 rL SGR
GSN 3385 5300 M 0 -36 rL SGR
GSN 3419 1700 M 0  36 rL SGR
GSN 3419 5300 M 0 -36 rL SGR
GSN 3449 1700 M 0  36 rL SGR
GSN 3449 5300 M 0 -36 rL SGR
GSN 3652 1700 M 0  36 rL SGR
GSN 3652 5300 M 0 -36 rL SGR
GSN 3755 1700 M 0  36 rL SGR
GSN 3755 5300 M 0 -36 rL SGR
GSN 3829 1700 M 0  36 rL SGR
GSN 3829 5300 M 0 -36 rL SGR
GSN 3885 1700 M 0  36 rL SGR
GSN 3885 5300 M 0 -36 rL SGR
GSN 3932 1700 M 0  36 rL SGR
GSN 3932 5300 M 0 -36 rL SGR
GSN 3971 1700 M 0  36 rL SGR
GSN 3971 5300 M 0 -36 rL SGR
GSN 4005 1700 M 0  36 rL SGR
GSN 4005 5300 M 0 -36 rL SGR
GSN 4035 1700 M 0  36 rL SGR
GSN 4035 5300 M 0 -36 rL SGR
%
% Y axis: large tics
%
L10
GSN 620 2121 M 54 0 rL SGR
GSN 4220 2121 M -54 0 rL SGR
helvS (1.04) 560 2121 ylabel
GSN 620 3008 M 54 0 rL SGR
GSN 4220 3008 M -54 0 rL SGR
helvS (1.06) 560 3008 ylabel
GSN 620 3896 M 54 0 rL SGR
GSN 4220 3896 M -54 0 rL SGR
helvS (1.08) 560 3896 ylabel
GSN 620 4783 M 54 0 rL SGR
GSN 4220 4783 M -54 0 rL SGR
helvS (1.1) 560 4783 ylabel
%
% Y axis: small tics
%
L5
GSN 620 1899 M 36 0 rL SGR
GSN 4220 1899 M -36 0 rL SGR
GSN 620 2121 M 36 0 rL SGR
GSN 4220 2121 M -36 0 rL SGR
GSN 620 2343 M 36 0 rL SGR
GSN 4220 2343 M -36 0 rL SGR
GSN 620 2565 M 36 0 rL SGR
GSN 4220 2565 M -36 0 rL SGR
GSN 620 2787 M 36 0 rL SGR
GSN 4220 2787 M -36 0 rL SGR
GSN 620 3008 M 36 0 rL SGR
GSN 4220 3008 M -36 0 rL SGR
GSN 620 3230 M 36 0 rL SGR
GSN 4220 3230 M -36 0 rL SGR
GSN 620 3452 M 36 0 rL SGR
GSN 4220 3452 M -36 0 rL SGR
GSN 620 3674 M 36 0 rL SGR
GSN 4220 3674 M -36 0 rL SGR
GSN 620 3896 M 36 0 rL SGR
GSN 4220 3896 M -36 0 rL SGR
GSN 620 4118 M 36 0 rL SGR
GSN 4220 4118 M -36 0 rL SGR
GSN 620 4339 M 36 0 rL SGR
GSN 4220 4339 M -36 0 rL SGR
GSN 620 4561 M 36 0 rL SGR
GSN 4220 4561 M -36 0 rL SGR
GSN 620 4783 M 36 0 rL SGR
GSN 4220 4783 M -36 0 rL SGR
GSN 620 5005 M 36 0 rL SGR
GSN 4220 5005 M -36 0 rL SGR
GSN 620 5227 M 36 0 rL SGR
GSN 4220 5227 M -36 0 rL SGR

%
% X-Axis label:
%
gsave 2420 290 M 
[
[(Helvetica) 180 0 true true 0 (t)]
[(Helvetica) 180 0 true true 0 (i)]
[(Helvetica) 180 0 true true 0 (m)]
[(Helvetica) 180 0 true true 0 (e)]
] 0 MCshow grestore

%
% Y-Axis label:
%
gsave 234 3500 M 
currentpoint gsave translate 90 rotate 0 0 moveto
[
[(Helvetica) 180 0 true true 0 (s)]
[(Helvetica) 180 0 true true 0 (i)]
[(Helvetica) 180 0 true true 0 (g)]
[(Helvetica) 180 0 true true 0 (n)]
[(Helvetica) 180 0 true true 0 (a)]
[(Helvetica) 180 0 true true 0 (l)]
] 0 MCshow grestore

%
% Residuals:
%
gsave 129 1160 M 
currentpoint gsave translate 90 rotate 0 0 moveto
[
[(Helvetica) 150 0 true true 0 (r)]
[(Helvetica) 150 0 true true 0 (e)]
[(Helvetica) 150 0 true true 0 (s)]
[(Helvetica) 150 0 true true 0 (i)]
[(Helvetica) 150 0 true true 0 (d)]
[(Helvetica) 150 0 true true 0 (u)]
[(Helvetica) 150 0 true true 0 (a)]
[(Helvetica) 150 0 true true 0 (l)]
[(Helvetica) 150 0 true true 0 (s)]
] 0 MCshow grestore

%
% Residual frame
%
L10
GSN 
620 620 M
4220 620 L
4220 1700 L
620 1700 L
closepath SGR
%
% X axis: large tics - residual frame
%
L10
GSN 1130 620 M 0  54 rL SGR
GSN 1130 1700 M 0 -54 rL SGR
GSN 1716 620 M 0  54 rL SGR
GSN 1716 1700 M 0 -54 rL SGR
GSN 2303 620 M 0  54 rL SGR
GSN 2303 1700 M 0 -54 rL SGR
GSN 2889 620 M 0  54 rL SGR
GSN 2889 1700 M 0 -54 rL SGR
GSN 3476 620 M 0  54 rL SGR
GSN 3476 1700 M 0 -54 rL SGR
GSN 4062 620 M 0  54 rL SGR
GSN 4062 1700 M 0 -54 rL SGR
%
% X axis: small tics - residual frame
%
L5
GSN 720 620 M 0  36 rL SGR
GSN 720 1700 M 0 -36 rL SGR
GSN 824 620 M 0  36 rL SGR
GSN 824 1700 M 0 -36 rL SGR
GSN 897 620 M 0  36 rL SGR
GSN 897 1700 M 0 -36 rL SGR
GSN 954 620 M 0  36 rL SGR
GSN 954 1700 M 0 -36 rL SGR
GSN 1000 620 M 0  36 rL SGR
GSN 1000 1700 M 0 -36 rL SGR
GSN 1039 620 M 0  36 rL SGR
GSN 1039 1700 M 0 -36 rL SGR
GSN 1073 620 M 0  36 rL SGR
GSN 1073 1700 M 0 -36 rL SGR
GSN 1103 620 M 0  36 rL SGR
GSN 1103 1700 M 0 -36 rL SGR
GSN 1307 620 M 0  36 rL SGR
GSN 1307 1700 M 0 -36 rL SGR
GSN 1410 620 M 0  36 rL SGR
GSN 1410 1700 M 0 -36 rL SGR
GSN 1483 620 M 0  36 rL SGR
GSN 1483 1700 M 0 -36 rL SGR
GSN 1540 620 M 0  36 rL SGR
GSN 1540 1700 M 0 -36 rL SGR
GSN 1586 620 M 0  36 rL SGR
GSN 1586 1700 M 0 -36 rL SGR
GSN 1626 620 M 0  36 rL SGR
GSN 1626 1700 M 0 -36 rL SGR
GSN 1660 620 M 0  36 rL SGR
GSN 1660 1700 M 0 -36 rL SGR
GSN 1690 620 M 0  36 rL SGR
GSN 1690 1700 M 0 -36 rL SGR
GSN 1893 620 M 0  36 rL SGR
GSN 1893 1700 M 0 -36 rL SGR
GSN 1996 620 M 0  36 rL SGR
GSN 1996 1700 M 0 -36 rL SGR
GSN 2069 620 M 0  36 rL SGR
GSN 2069 1700 M 0 -36 rL SGR
GSN 2126 620 M 0  36 rL SGR
GSN 2126 1700 M 0 -36 rL SGR
GSN 2173 620 M 0  36 rL SGR
GSN 2173 1700 M 0 -36 rL SGR
GSN 2212 620 M 0  36 rL SGR
GSN 2212 1700 M 0 -36 rL SGR
GSN 2246 620 M 0  36 rL SGR
GSN 2246 1700 M 0 -36 rL SGR
GSN 2276 620 M 0  36 rL SGR
GSN 2276 1700 M 0 -36 rL SGR
GSN 2479 620 M 0  36 rL SGR
GSN 2479 1700 M 0 -36 rL SGR
GSN 2583 620 M 0  36 rL SGR
GSN 2583 1700 M 0 -36 rL SGR
GSN 2656 620 M 0  36 rL SGR
GSN 2656 1700 M 0 -36 rL SGR
GSN 2713 620 M 0  36 rL SGR
GSN 2713 1700 M 0 -36 rL SGR
GSN 2759 620 M 0  36 rL SGR
GSN 2759 1700 M 0 -36 rL SGR
GSN 2798 620 M 0  36 rL SGR
GSN 2798 1700 M 0 -36 rL SGR
GSN 2832 620 M 0  36 rL SGR
GSN 2832 1700 M 0 -36 rL SGR
GSN 2862 620 M 0  36 rL SGR
GSN 2862 1700 M 0 -36 rL SGR
GSN 3066 620 M 0  36 rL SGR
GSN 3066 1700 M 0 -36 rL SGR
GSN 3169 620 M 0  36 rL SGR
GSN 3169 1700 M 0 -36 rL SGR
GSN 3242 620 M 0  36 rL SGR
GSN 3242 1700 M 0 -36 rL SGR
GSN 3299 620 M 0  36 rL SGR
GSN 3299 1700 M 0 -36 rL SGR
GSN 3345 620 M 0  36 rL SGR
GSN 3345 1700 M 0 -36 rL SGR
GSN 3385 620 M 0  36 rL SGR
GSN 3385 1700 M 0 -36 rL SGR
GSN 3419 620 M 0  36 rL SGR
GSN 3419 1700 M 0 -36 rL SGR
GSN 3449 620 M 0  36 rL SGR
GSN 3449 1700 M 0 -36 rL SGR
GSN 3652 620 M 0  36 rL SGR
GSN 3652 1700 M 0 -36 rL SGR
GSN 3755 620 M 0  36 rL SGR
GSN 3755 1700 M 0 -36 rL SGR
GSN 3829 620 M 0  36 rL SGR
GSN 3829 1700 M 0 -36 rL SGR
GSN 3885 620 M 0  36 rL SGR
GSN 3885 1700 M 0 -36 rL SGR
GSN 3932 620 M 0  36 rL SGR
GSN 3932 1700 M 0 -36 rL SGR
GSN 3971 620 M 0  36 rL SGR
GSN 3971 1700 M 0 -36 rL SGR
GSN 4005 620 M 0  36 rL SGR
GSN 4005 1700 M 0 -36 rL SGR
GSN 4035 620 M 0  36 rL SGR
GSN 4035 1700 M 0 -36 rL SGR
%
% Y axis: large tics - residual frame
%
L10
GSN 620 765 M 54 0 rL SGR
GSN 4220 765 M -54 0 rL SGR
helvS (-0.01) 560 765 ylabelresid
GSN 620 1140 M 54 0 rL SGR
GSN 4220 1140 M -54 0 rL SGR
helvS (0) 560 1140 ylabelresid
GSN 620 1514 M 54 0 rL SGR
GSN 4220 1514 M -54 0 rL SGR
helvS (0.01) 560 1514 ylabelresid

%
% X axis - residual panel
%
GSN L5 620 1140 M 4220 1140 L SDA G50 SGR

end
showpage
%%Trailer
%%EOF
