# data set	./hsmug/series//U-Trp-R243A.1.csv:col(8)
# fraction of residuals inside model inference band	0.998124
#   x(mesh)	    y(mesh)	       rate	   y(mesh)-	   y(mesh)+	    x(data)	    y(data)	   y(model)	   y(error)	   residual	     weight	  residual*	   leverage	  y(model)-	  y(model)+	
2.27273e-005	    0.960614	    -2440.21	-2.51836e+009	2.51836e+009	    2.5e-005	     0.95791	    0.955299	           0	  0.00261145	           1	           0	-4.63775e+006	    0.955299	    0.955299	
2.27273e-005	    0.960614	    -2440.21	-2.51836e+009	2.51836e+009	    0.001275	    0.946939	     0.89575	           0	   0.0511893	           1	           0	5.45555e+006	    -52.1054	     53.8969	
2.65091e-005	    0.952012	    -2116.62	-2.68643e+009	2.68643e+009	    0.002525	    0.942758	     0.89575	           0	   0.0470085	           1	           0	3.85544e+006	    -43.6599	     45.4514	
3.09203e-005	    0.943409	    -1792.96	-2.85766e+009	2.85766e+009	    0.003775	    0.941629	     0.89575	           0	   0.0458791	           1	           0	3.85544e+006	    -43.6599	     45.4514	
3.60656e-005	    0.935022	    -1477.43	-2.98215e+009	2.98215e+009	    0.005025	    0.941507	     0.89575	           0	   0.0457569	           1	           0	3.85544e+006	    -43.6599	     45.4514	
 4.2067e-005	    0.927085	    -1178.83	-3.02531e+009	3.02531e+009	    0.006275	    0.933069	     0.89575	           0	   0.0373189	           1	           0	3.85544e+006	    -43.6599	     45.4514	
4.54545e-005	    0.923335	    -1037.78	-3.01017e+009	3.01017e+009	    0.007525	    0.941721	     0.89575	           0	   0.0459709	           1	           0	3.85544e+006	    -43.6599	     45.4514	
 4.9067e-005	     0.91983	    -905.904	-2.97009e+009	2.97009e+009	    0.008775	    0.936227	     0.89575	           0	   0.0404775	           1	           0	3.85544e+006	    -43.6599	     45.4514	
5.72319e-005	    0.913461	    -666.317	-2.81797e+009	2.81797e+009	    0.010025	    0.935922	     0.89575	           0	   0.0401721	           1	           0	3.85544e+006	    -43.6599	     45.4514	
6.67554e-005	    0.908128	    -465.673	-2.58837e+009	2.58837e+009	    0.011275	    0.933237	     0.89575	           0	   0.0374867	           1	           0	3.85544e+006	    -43.6599	     45.4514	
7.78637e-005	      0.9039	    -306.612	-2.31535e+009	2.31535e+009	    0.012525	     0.92663	     0.89575	           0	   0.0308797	           1	           0	3.85544e+006	    -43.6599	     45.4514	
9.08204e-005	    0.900756	     -188.32	-2.04037e+009	2.04037e+009	    0.013775	    0.932153	     0.89575	           0	   0.0364033	           1	           0	3.85544e+006	    -43.6599	     45.4514	
9.09091e-005	    0.900739	    -187.693	-2.0387e+009	 2.0387e+009	    0.015025	    0.926798	     0.89575	           0	   0.0310477	           1	           0	3.85544e+006	    -43.6599	     45.4514	
 0.000105933	    0.898585	    -106.654	-1.80142e+009	1.80142e+009	    0.016275	    0.924707	     0.89575	           0	   0.0289571	           1	           0	3.85544e+006	    -43.6599	     45.4514	
 0.000123561	    0.897211	    -54.9504	-1.62174e+009	1.62174e+009	    0.017525	    0.926706	     0.89575	           0	   0.0309561	           1	           0	3.85544e+006	    -43.6599	     45.4514	
 0.000144121	    0.896424	    -25.3536	-1.5044e+009	 1.5044e+009	    0.018775	    0.923074	     0.89575	           0	   0.0273245	           1	           0	3.85544e+006	    -43.6599	     45.4514	
 0.000168104	    0.896023	    -10.2851	-1.4373e+009	 1.4373e+009	    0.020025	    0.921625	     0.89575	           0	   0.0258747	           1	           0	3.85544e+006	    -43.6599	     45.4514	
 0.000181818	    0.895913	    -6.13951	-1.41694e+009	1.41694e+009	    0.021275	    0.924509	     0.89575	           0	   0.0287587	           1	           0	3.85544e+006	    -43.6599	     45.4514	
 0.000196077	    0.895845	    -3.59066	-1.40354e+009	1.40354e+009	    0.022525	    0.917871	     0.89575	           0	   0.0221213	           1	           0	3.85544e+006	    -43.6599	     45.4514	
 0.000228704	    0.895778	    -1.05218	-1.38876e+009	1.38876e+009	    0.023775	    0.922006	     0.89575	           0	   0.0262563	           1	           0	3.85544e+006	    -43.6599	     45.4514	
 0.000266761	    0.895757	   -0.251361	-1.3833e+009	 1.3833e+009	    0.025025	    0.923059	     0.89575	           0	   0.0273093	           1	           0	3.85544e+006	    -43.6599	     45.4514	
 0.000311151	    0.895751	  -0.0473192	-1.38165e+009	1.38165e+009	    0.026275	    0.919779	     0.89575	           0	   0.0240289	           1	           0	3.85544e+006	    -43.6599	     45.4514	
 0.000362927	     0.89575	 -0.00674673	-1.38126e+009	1.38126e+009	    0.027525	    0.922998	     0.89575	           0	   0.0272481	           1	           0	3.85544e+006	    -43.6599	     45.4514	
 0.000363636	     0.89575	 -0.00656911	-1.38126e+009	1.38126e+009	    0.028775	    0.917047	     0.89575	           0	   0.0212975	           1	           0	3.85544e+006	    -43.6599	     45.4514	
 0.000423319	     0.89575	-0.000695635	-1.3812e+009	 1.3812e+009	    0.030025	     0.92048	     0.89575	           0	   0.0247305	           1	           0	3.85544e+006	    -43.6599	     45.4514	
 0.000493761	     0.89575	-4.91449e-005	-1.38119e+009	1.38119e+009	    0.031275	    0.921671	     0.89575	           0	   0.0259207	           1	           0	3.85544e+006	    -43.6599	     45.4514	
 0.000575924	     0.89575	-2.23387e-006	-1.38119e+009	1.38119e+009	    0.032525	    0.914514	     0.89575	           0	   0.0187643	           1	           0	3.85544e+006	    -43.6599	     45.4514	
 0.000671759	     0.89575	-6.07574e-008	-1.38119e+009	1.38119e+009	    0.033775	    0.917062	     0.89575	           0	   0.0213123	           1	           0	3.85544e+006	    -43.6599	     45.4514	
 0.000727273	     0.89575	-7.55868e-009	-1.38119e+009	1.38119e+009	    0.035025	    0.916238	     0.89575	           0	   0.0204885	           1	           0	3.85544e+006	    -43.6599	     45.4514	
 0.000783541	     0.89575	-9.30996e-010	-1.38119e+009	1.38119e+009	    0.036275	    0.918756	     0.89575	           0	   0.0230063	           1	           0	3.85544e+006	    -43.6599	     45.4514	
 0.000913924	     0.89575	-3.37773e-012	-1.38119e+009	1.38119e+009	    0.037525	    0.912668	     0.89575	           0	   0.0169179	           1	           0	3.85544e+006	    -43.6599	     45.4514	
    0.001066	     0.89575	3.27757e-012	-1.38119e+009	1.38119e+009	    0.038775	     0.90899	     0.89575	           0	   0.0132405	           1	           0	3.85544e+006	    -43.6599	     45.4514	
  0.00124339	     0.89575	-7.20813e-012	-1.38119e+009	1.38119e+009	    0.040025	     0.91842	     0.89575	           0	   0.0226705	           1	           0	3.85544e+006	    -43.6599	     45.4514	
  0.00145029	     0.89575	 1.0887e-012	-1.38119e+009	1.38119e+009	    0.041275	    0.910593	     0.89575	           0	   0.0148429	           1	           0	3.85544e+006	    -43.6599	     45.4514	
  0.00145455	     0.89575	8.46114e-013	-1.38119e+009	1.38119e+009	    0.042525	    0.914773	     0.89575	           0	   0.0190235	           1	           0	3.85544e+006	    -43.6599	     45.4514	
  0.00169162	     0.89575	-9.58247e-013	-1.38119e+009	1.38119e+009	    0.043775	    0.912164	     0.89575	           0	   0.0164145	           1	           0	3.85544e+006	    -43.6599	     45.4514	
  0.00197312	     0.89575	-6.22236e-013	-1.38119e+009	1.38119e+009	    0.045025	    0.910608	     0.89575	           0	   0.0148581	           1	           0	3.85544e+006	    -43.6599	     45.4514	
  0.00230145	     0.89575	8.68525e-013	-1.38119e+009	1.38119e+009	    0.046275	    0.910913	     0.89575	           0	   0.0151631	           1	           0	3.85544e+006	    -43.6599	     45.4514	
  0.00268441	     0.89575	8.90786e-014	-1.38119e+009	1.38119e+009	    0.047525	    0.909784	     0.89575	           0	   0.0140339	           1	           0	3.85544e+006	    -43.6599	     45.4514	
  0.00290909	     0.89575	-1.51767e-014	-1.38119e+009	1.38119e+009	    0.048775	    0.908548	     0.89575	           0	   0.0127981	           1	           0	3.85544e+006	    -43.6599	     45.4514	
  0.00313111	     0.89575	-9.89366e-017	-1.38119e+009	1.38119e+009	    0.050025	    0.904382	     0.89575	           0	   0.0086321	           1	           0	3.85544e+006	    -43.6599	     45.4514	
  0.00365213	     0.89575	-9.89366e-017	-1.38119e+009	1.38119e+009	    0.051275	     0.90983	     0.89575	           0	   0.0140799	           1	           0	3.85544e+006	    -43.6599	     45.4514	
  0.00425985	     0.89575	-9.89366e-017	-1.38119e+009	1.38119e+009	    0.052525	    0.907098	     0.89575	           0	   0.0113483	           1	           0	3.85544e+006	    -43.6599	     45.4514	
   0.0049687	     0.89575	-9.89366e-017	-1.38119e+009	1.38119e+009	    0.053775	    0.906824	     0.89575	           0	   0.0110739	           1	           0	3.85544e+006	    -43.6599	     45.4514	
  0.00579551	     0.89575	-9.89366e-017	-1.38119e+009	1.38119e+009	    0.055025	    0.906748	     0.89575	           0	   0.0109977	           1	           0	3.85544e+006	    -43.6599	     45.4514	
  0.00581818	     0.89575	-9.89366e-017	-1.38119e+009	1.38119e+009	    0.056275	    0.903772	     0.89575	           0	   0.0080219	           1	           0	3.85544e+006	    -43.6599	     45.4514	
   0.0067599	     0.89575	-9.89366e-017	-1.38119e+009	1.38119e+009	    0.057525	    0.906763	     0.89575	           0	   0.0110129	           1	           0	3.85544e+006	    -43.6599	     45.4514	
  0.00788476	     0.89575	-6.44839e-019	-1.38119e+009	1.38119e+009	    0.058775	    0.901453	     0.89575	           0	   0.0057029	           1	           0	3.85544e+006	    -43.6599	     45.4514	
  0.00919681	     0.89575	-6.44839e-019	-1.38119e+009	1.38119e+009	    0.060025	    0.901575	     0.89575	           0	   0.0058249	           1	           0	3.85544e+006	    -43.6599	     45.4514	
   0.0107272	     0.89575	-6.44839e-019	-1.38119e+009	1.38119e+009	    0.061275	    0.903329	     0.89575	           0	   0.0075795	           1	           0	3.85544e+006	    -43.6599	     45.4514	
   0.0116364	     0.89575	-4.19274e-022	-1.38119e+009	1.38119e+009	    0.062525	    0.903284	     0.89575	           0	   0.0075337	           1	           0	3.85544e+006	    -43.6599	     45.4514	
   0.0125122	     0.89575	-4.19274e-022	-1.38119e+009	1.38119e+009	    0.063775	    0.899347	     0.89575	           0	   0.0035971	           1	           0	3.85544e+006	    -43.6599	     45.4514	
   0.0145943	     0.89575	-4.19274e-022	-1.38119e+009	1.38119e+009	    0.065025	    0.897699	     0.89575	           0	   0.0019489	           1	           0	3.85544e+006	    -43.6599	     45.4514	
   0.0170228	     0.89575	-4.19274e-022	-1.38119e+009	1.38119e+009	    0.066275	    0.896768	     0.89575	           0	   0.0010183	           1	           0	3.85544e+006	    -43.6599	     45.4514	
   0.0198554	     0.89575	-4.19274e-022	-1.38119e+009	1.38119e+009	    0.067525	     0.90307	     0.89575	           0	   0.0073203	           1	           0	3.85544e+006	    -43.6599	     45.4514	
   0.0231594	     0.89575	-4.19274e-022	-1.38119e+009	1.38119e+009	    0.068775	    0.899637	     0.89575	           0	   0.0038867	           1	           0	3.85544e+006	    -43.6599	     45.4514	
   0.0232727	     0.89575	-4.19274e-022	-1.38119e+009	1.38119e+009	    0.070025	    0.902383	     0.89575	           0	   0.0066335	           1	           0	3.85544e+006	    -43.6599	     45.4514	
   0.0270132	     0.89575	-4.19274e-022	-1.38119e+009	1.38119e+009	    0.071275	     0.89892	     0.89575	           0	   0.0031697	           1	           0	3.85544e+006	    -43.6599	     45.4514	
   0.0315083	     0.89575	-4.19274e-022	-1.38119e+009	1.38119e+009	    0.072525	    0.901163	     0.89575	           0	   0.0054129	           1	           0	3.85544e+006	    -43.6599	     45.4514	
   0.0367513	     0.89575	-4.19274e-022	-1.38119e+009	1.38119e+009	    0.073775	    0.901575	     0.89575	           0	   0.0058247	           1	           0	3.85544e+006	    -43.6599	     45.4514	
   0.0428668	     0.89575	-4.19274e-022	-1.38119e+009	1.38119e+009	    0.075025	     0.89776	     0.89575	           0	   0.0020103	           1	           0	3.85544e+006	    -43.6599	     45.4514	
   0.0465455	     0.89575	-4.19274e-022	-1.38119e+009	1.38119e+009	    0.076275	    0.901239	     0.89575	           0	   0.0054889	           1	           0	3.85544e+006	    -43.6599	     45.4514	
        0.05	     0.89575	-4.19274e-022	-1.38119e+009	1.38119e+009	    0.077525	    0.900964	     0.89575	           0	   0.0052145	           1	           0	3.85544e+006	    -43.6599	     45.4514	
   0.0583201	     0.89575	-2.85513e-025	-1.38119e+009	1.38119e+009	    0.078775	    0.902948	     0.89575	           0	   0.0071981	           1	           0	3.85544e+006	    -43.6599	     45.4514	
   0.0680247	     0.89575	-2.85513e-025	-1.38119e+009	1.38119e+009	    0.080025	    0.897928	     0.89575	           0	   0.0021779	           1	           0	3.85544e+006	    -43.6599	     45.4514	
   0.0793442	     0.89575	-2.85513e-025	-1.38119e+009	1.38119e+009	    0.081275	    0.895257	     0.89575	           0	-0.000492495	           1	           0	3.85544e+006	    -43.6599	     45.4514	
   0.0925473	     0.89575	-2.12072e-029	-1.38119e+009	1.38119e+009	    0.082525	    0.895258	     0.89575	           0	-0.000492295	           1	           0	3.85544e+006	    -43.6599	     45.4514	
   0.0930909	     0.89575	-2.12072e-029	-1.38119e+009	1.38119e+009	    0.083775	    0.896219	     0.89575	           0	 0.000469105	           1	           0	3.85544e+006	    -43.6599	     45.4514	
    0.107947	     0.89575	-2.12072e-029	-1.38119e+009	1.38119e+009	    0.085025	    0.890421	     0.89575	           0	  -0.0053291	           1	           0	3.85544e+006	    -43.6599	     45.4514	
     0.12591	     0.89575	-2.12072e-029	-1.38119e+009	1.38119e+009	    0.086275	    0.897028	     0.89575	           0	   0.0012777	           1	           0	3.85544e+006	    -43.6599	     45.4514	
    0.146862	     0.89575	-2.12072e-029	-1.38119e+009	1.38119e+009	    0.087525	    0.895791	     0.89575	           0	4.15049e-005	           1	           0	3.85544e+006	    -43.6599	     45.4514	
      0.1713	     0.89575	-2.12072e-029	-1.38119e+009	1.38119e+009	    0.088775	    0.893732	     0.89575	           0	  -0.0020179	           1	           0	3.85544e+006	    -43.6599	     45.4514	
    0.186182	     0.89575	-2.12072e-029	-1.38119e+009	1.38119e+009	    0.090025	    0.901071	     0.89575	           0	   0.0053213	           1	           0	3.85544e+006	    -43.6599	     45.4514	
    0.199805	     0.89575	-2.12072e-029	-1.38119e+009	1.38119e+009	    0.091275	    0.891321	     0.89575	           0	  -0.0044293	           1	           0	3.85544e+006	    -43.6599	     45.4514	
    0.233053	     0.89575	-2.12072e-029	-1.38119e+009	1.38119e+009	    0.092525	    0.894647	     0.89575	           0	  -0.0011027	           1	           0	3.85544e+006	    -43.6599	     45.4514	
    0.271834	     0.89575	-2.12072e-029	-1.38119e+009	1.38119e+009	    0.093775	    0.898309	     0.89575	           0	   0.0025595	           1	           0	3.85544e+006	    -43.6599	     45.4514	
    0.317067	     0.89575	-2.12072e-029	-1.38119e+009	1.38119e+009	    0.095025	    0.890177	     0.89575	           0	  -0.0055733	           1	           0	3.85544e+006	    -43.6599	     45.4514	
    0.369828	     0.89575	-2.12072e-029	-1.38119e+009	1.38119e+009	    0.096275	    0.889673	     0.89575	           0	  -0.0060769	           1	           0	3.85544e+006	    -43.6599	     45.4514	
    0.372364	     0.89575	-2.12072e-029	-1.38119e+009	1.38119e+009	    0.097525	    0.895044	     0.89575	           0	-0.000705895	           1	           0	3.85544e+006	    -43.6599	     45.4514	
    0.431368	     0.89575	-2.12072e-029	-1.38119e+009	1.38119e+009	    0.098775	    0.893014	     0.89575	           0	  -0.0027355	           1	           0	3.85544e+006	    -43.6599	     45.4514	
    0.503149	     0.89575	1.33227e-033	-1.38119e+009	1.38119e+009	      0.1001	    0.892831	     0.89575	           0	  -0.0029185	           1	           0	3.85544e+006	    -43.6599	     45.4514	
    0.586875	     0.89575	1.33227e-033	-1.38119e+009	1.38119e+009	      0.1051	    0.891367	     0.89575	           0	  -0.0043833	           1	           0	3.85544e+006	    -43.6599	     45.4514	
    0.684532	     0.89575	1.33227e-033	-1.38119e+009	1.38119e+009	      0.1101	    0.892007	     0.89575	           0	  -0.0037425	           1	           0	3.85544e+006	    -43.6599	     45.4514	
    0.744727	     0.89575	1.33227e-033	-1.38119e+009	1.38119e+009	      0.1151	    0.894266	     0.89575	           0	  -0.0014843	           1	           0	3.85544e+006	    -43.6599	     45.4514	
     0.79844	     0.89575	1.33227e-033	-1.38119e+009	1.38119e+009	      0.1201	     0.88952	     0.89575	           0	  -0.0062297	           1	           0	3.85544e+006	    -43.6599	     45.4514	
    0.931302	     0.89575	3.05455e-037	-1.38119e+009	1.38119e+009	      0.1251	     0.88653	     0.89575	           0	  -0.0092203	           1	           0	3.85544e+006	    -43.6599	     45.4514	
           1	     0.89575	3.05455e-037	-1.38119e+009	1.38119e+009	      0.1301	    0.890085	     0.89575	           0	  -0.0056653	           1	           0	3.85544e+006	    -43.6599	     45.4514	
     1.08627	     0.89575	3.05455e-037	-1.38119e+009	1.38119e+009	      0.1351	    0.884607	     0.89575	           0	  -0.0111431	           1	           0	3.85544e+006	    -43.6599	     45.4514	
     1.26703	     0.89575	3.05455e-037	-1.38119e+009	1.38119e+009	      0.1401	    0.885965	     0.89575	           0	  -0.0097847	           1	           0	3.85544e+006	    -43.6599	     45.4514	
     1.47787	     0.89575	3.05455e-037	-1.38119e+009	1.38119e+009	      0.1451	    0.886209	     0.89575	           0	  -0.0095411	           1	           0	3.85544e+006	    -43.6599	     45.4514	
     1.48945	     0.89575	3.05455e-037	-1.38119e+009	1.38119e+009	      0.1501	     0.88981	     0.89575	           0	  -0.0059397	           1	           0	3.85544e+006	    -43.6599	     45.4514	
     1.72379	     0.89575	3.05455e-037	-1.38119e+009	1.38119e+009	      0.1551	    0.883325	     0.89575	           0	  -0.0124249	           1	           0	3.85544e+006	    -43.6599	     45.4514	
     2.01063	     0.89575	3.05455e-037	-1.38119e+009	1.38119e+009	      0.1601	    0.888361	     0.89575	           0	  -0.0073891	           1	           0	3.85544e+006	    -43.6599	     45.4514	
     2.34521	     0.89575	3.05455e-037	-1.38119e+009	1.38119e+009	      0.1651	    0.885416	     0.89575	           0	  -0.0103341	           1	           0	3.85544e+006	    -43.6599	     45.4514	
     2.73546	     0.89575	3.05455e-037	-1.38119e+009	1.38119e+009	      0.1701	    0.882959	     0.89575	           0	  -0.0127909	           1	           0	3.85544e+006	    -43.6599	     45.4514	
     2.97891	     0.89575	3.05455e-037	-1.38119e+009	1.38119e+009	      0.1751	    0.883554	     0.89575	           0	  -0.0121957	           1	           0	3.85544e+006	    -43.6599	     45.4514	
     3.19064	     0.89575	3.05455e-037	-1.38119e+009	1.38119e+009	      0.1801	    0.881967	     0.89575	           0	  -0.0137829	           1	           0	3.85544e+006	    -43.6599	     45.4514	
     3.72157	     0.89575	3.05455e-037	-1.38119e+009	1.38119e+009	      0.1851	    0.881601	     0.89575	           0	  -0.0141491	           1	           0	3.85544e+006	    -43.6599	     45.4514	
     4.34085	     0.89575	3.05455e-037	-1.38119e+009	1.38119e+009	      0.1901	    0.884561	     0.89575	           0	  -0.0111887	           1	           0	3.85544e+006	    -43.6599	     45.4514	
     5.06318	     0.89575	2.14747e-042	-1.38119e+009	1.38119e+009	      0.1951	    0.881815	     0.89575	           0	  -0.0139353	           1	           0	3.85544e+006	    -43.6599	     45.4514	
     5.90571	     0.89575	2.14747e-042	-1.38119e+009	1.38119e+009	      0.2001	    0.886591	     0.89575	           0	  -0.0091593	           1	           0	3.85544e+006	    -43.6599	     45.4514	
     5.95782	     0.89575	2.14747e-042	-1.38119e+009	1.38119e+009	      0.2051	    0.882471	     0.89575	           0	  -0.0132793	           1	           0	3.85544e+006	    -43.6599	     45.4514	
     6.88843	     0.89575	2.14747e-042	-1.38119e+009	1.38119e+009	      0.2101	    0.884485	     0.89575	           0	  -0.0112653	           1	           0	3.85544e+006	    -43.6599	     45.4514	
     8.03469	     0.89575	2.14747e-042	-1.38119e+009	1.38119e+009	      0.2151	    0.880136	     0.89575	           0	  -0.0156139	           1	           0	3.85544e+006	    -43.6599	     45.4514	
     9.37168	     0.89575	1.87808e-047	-1.38119e+009	1.38119e+009	      0.2201	    0.883905	     0.89575	           0	  -0.0118447	           1	           0	3.85544e+006	    -43.6599	     45.4514	
     10.9312	     0.89575	1.87808e-047	-1.38119e+009	1.38119e+009	      0.2251	    0.879999	     0.89575	           0	  -0.0157511	           1	           0	3.85544e+006	    -43.6599	     45.4514	
     11.9156	     0.89575	1.87808e-047	-1.38119e+009	1.38119e+009	      0.2301	    0.882715	     0.89575	           0	  -0.0130351	           1	           0	3.85544e+006	    -43.6599	     45.4514	
     12.7501	     0.89575	1.87808e-047	-1.38119e+009	1.38119e+009	      0.2351	    0.881357	     0.89575	           0	  -0.0143933	           1	           0	3.85544e+006	    -43.6599	     45.4514	
     14.8718	     0.89575	1.87808e-047	-1.38119e+009	1.38119e+009	      0.2401	    0.885019	     0.89575	           0	  -0.0107311	           1	           0	3.85544e+006	    -43.6599	     45.4514	
     17.3465	     0.89575	1.87808e-047	-1.38119e+009	1.38119e+009	      0.2451	    0.883829	     0.89575	           0	  -0.0119213	           1	           0	3.85544e+006	    -43.6599	     45.4514	
      20.233	     0.89575	1.87808e-047	-1.38119e+009	1.38119e+009	      0.2501	    0.884241	     0.89575	           0	  -0.0115091	           1	           0	3.85544e+006	    -43.6599	     45.4514	
     23.5998	     0.89575	1.87808e-047	-1.38119e+009	1.38119e+009	      0.2551	    0.881235	     0.89575	           0	  -0.0145151	           1	           0	3.85544e+006	    -43.6599	     45.4514	
     23.8313	     0.89575	1.87808e-047	-1.38119e+009	1.38119e+009	      0.2601	    0.878625	     0.89575	           0	  -0.0171245	           1	           0	3.85544e+006	    -43.6599	     45.4514	
     27.5269	     0.89575	1.87808e-047	-1.38119e+009	1.38119e+009	      0.2651	    0.877771	     0.89575	           0	  -0.0179789	           1	           0	3.85544e+006	    -43.6599	     45.4514	
     32.1074	     0.89575	1.87808e-047	-1.38119e+009	1.38119e+009	      0.2701	    0.881738	     0.89575	           0	  -0.0140115	           1	           0	3.85544e+006	    -43.6599	     45.4514	
     37.4501	     0.89575	1.87808e-047	-1.38119e+009	1.38119e+009	      0.2751	    0.881097	     0.89575	           0	  -0.0146525	           1	           0	3.85544e+006	    -43.6599	     45.4514	
     43.6819	     0.89575	1.87808e-047	-1.38119e+009	1.38119e+009	      0.2801	    0.882562	     0.89575	           0	  -0.0131877	           1	           0	3.85544e+006	    -43.6599	     45.4514	
     47.6625	     0.89575	1.87808e-047	-1.38119e+009	1.38119e+009	      0.2851	     0.88627	     0.89575	           0	  -0.0094797	           1	           0	3.85544e+006	    -43.6599	     45.4514	
     50.9507	     0.89575	-5.43503e-052	-1.38119e+009	1.38119e+009	      0.2901	    0.884149	     0.89575	           0	  -0.0116009	           1	           0	3.85544e+006	    -43.6599	     45.4514	
     59.4291	     0.89575	-5.43503e-052	-1.38119e+009	1.38119e+009	      0.2951	    0.881998	     0.89575	           0	  -0.0137523	           1	           0	3.85544e+006	    -43.6599	     45.4514	
     69.3182	     0.89575	-5.43503e-052	-1.38119e+009	1.38119e+009	      0.3001	    0.882013	     0.89575	           0	  -0.0137369	           1	           0	3.85544e+006	    -43.6599	     45.4514	
     80.8529	     0.89575	-5.43503e-052	-1.38119e+009	1.38119e+009	      0.3051	    0.881097	     0.89575	           0	  -0.0146525	           1	           0	3.85544e+006	    -43.6599	     45.4514	
     94.3071	     0.89575	-1.87018e-056	-1.38119e+009	1.38119e+009	      0.3101	    0.882608	     0.89575	           0	  -0.0131417	           1	           0	3.85544e+006	    -43.6599	     45.4514	
         110	     0.89575	-1.87018e-056	-1.38119e+009	1.38119e+009	      0.3151	    0.879694	     0.89575	           0	  -0.0160563	           1	           0	3.85544e+006	    -43.6599	     45.4514	
 --	 --	 --	 --	 --	      0.3201	     0.88392	     0.89575	           0	  -0.0118297	           1	           0	3.85544e+006	    -43.6599	     45.4514	
 --	 --	 --	 --	 --	      0.3251	    0.882638	     0.89575	           0	  -0.0131115	           1	           0	3.85544e+006	    -43.6599	     45.4514	
 --	 --	 --	 --	 --	      0.3301	    0.879327	     0.89575	           0	  -0.0164227	           1	           0	3.85544e+006	    -43.6599	     45.4514	
 --	 --	 --	 --	 --	      0.3351	    0.880609	     0.89575	           0	  -0.0151407	           1	           0	3.85544e+006	    -43.6599	     45.4514	
 --	 --	 --	 --	 --	      0.3401	    0.882211	     0.89575	           0	  -0.0135387	           1	           0	3.85544e+006	    -43.6599	     45.4514	
 --	 --	 --	 --	 --	      0.3451	    0.882349	     0.89575	           0	  -0.0134011	           1	           0	3.85544e+006	    -43.6599	     45.4514	
 --	 --	 --	 --	 --	      0.3501	     0.88154	     0.89575	           0	  -0.0142099	           1	           0	3.85544e+006	    -43.6599	     45.4514	
 --	 --	 --	 --	 --	      0.3551	     0.88421	     0.89575	           0	  -0.0115397	           1	           0	3.85544e+006	    -43.6599	     45.4514	
 --	 --	 --	 --	 --	      0.3601	    0.881967	     0.89575	           0	  -0.0137829	           1	           0	3.85544e+006	    -43.6599	     45.4514	
 --	 --	 --	 --	 --	      0.3651	    0.885034	     0.89575	           0	  -0.0107157	           1	           0	3.85544e+006	    -43.6599	     45.4514	
 --	 --	 --	 --	 --	      0.3701	    0.878503	     0.89575	           0	  -0.0172465	           1	           0	3.85544e+006	    -43.6599	     45.4514	
 --	 --	 --	 --	 --	      0.3751	    0.885538	     0.89575	           0	  -0.0102123	           1	           0	3.85544e+006	    -43.6599	     45.4514	
 --	 --	 --	 --	 --	      0.3801	    0.880228	     0.89575	           0	  -0.0155219	           1	           0	3.85544e+006	    -43.6599	     45.4514	
 --	 --	 --	 --	 --	      0.3851	    0.888895	     0.89575	           0	  -0.0068553	           1	           0	3.85544e+006	    -43.6599	     45.4514	
 --	 --	 --	 --	 --	      0.3901	    0.884866	     0.89575	           0	  -0.0108835	           1	           0	3.85544e+006	    -43.6599	     45.4514	
 --	 --	 --	 --	 --	      0.3951	    0.886682	     0.89575	           0	  -0.0090679	           1	           0	3.85544e+006	    -43.6599	     45.4514	
 --	 --	 --	 --	 --	      0.4001	     0.88505	     0.89575	           0	  -0.0107003	           1	           0	3.85544e+006	    -43.6599	     45.4514	
 --	 --	 --	 --	 --	      0.4051	    0.879831	     0.89575	           0	  -0.0159189	           1	           0	3.85544e+006	    -43.6599	     45.4514	
 --	 --	 --	 --	 --	      0.4101	    0.886346	     0.89575	           0	  -0.0094035	           1	           0	3.85544e+006	    -43.6599	     45.4514	
 --	 --	 --	 --	 --	      0.4151	    0.886423	     0.89575	           0	  -0.0093273	           1	           0	3.85544e+006	    -43.6599	     45.4514	
 --	 --	 --	 --	 --	      0.4201	     0.88595	     0.89575	           0	  -0.0098003	           1	           0	3.85544e+006	    -43.6599	     45.4514	
 --	 --	 --	 --	 --	      0.4251	    0.884439	     0.89575	           0	  -0.0113109	           1	           0	3.85544e+006	    -43.6599	     45.4514	
 --	 --	 --	 --	 --	      0.4301	    0.887644	     0.89575	           0	  -0.0081063	           1	           0	3.85544e+006	    -43.6599	     45.4514	
 --	 --	 --	 --	 --	      0.4351	    0.881326	     0.89575	           0	  -0.0144235	           1	           0	3.85544e+006	    -43.6599	     45.4514	
 --	 --	 --	 --	 --	      0.4401	    0.884286	     0.89575	           0	  -0.0114635	           1	           0	3.85544e+006	    -43.6599	     45.4514	
 --	 --	 --	 --	 --	      0.4451	    0.883036	     0.89575	           0	  -0.0127143	           1	           0	3.85544e+006	    -43.6599	     45.4514	
 --	 --	 --	 --	 --	      0.4501	    0.886682	     0.89575	           0	  -0.0090677	           1	           0	3.85544e+006	    -43.6599	     45.4514	
 --	 --	 --	 --	 --	      0.4551	    0.884607	     0.89575	           0	  -0.0111431	           1	           0	3.85544e+006	    -43.6599	     45.4514	
 --	 --	 --	 --	 --	      0.4601	     0.88598	     0.89575	           0	  -0.0097697	           1	           0	3.85544e+006	    -43.6599	     45.4514	
 --	 --	 --	 --	 --	      0.4651	    0.884897	     0.89575	           0	  -0.0108531	           1	           0	3.85544e+006	    -43.6599	     45.4514	
 --	 --	 --	 --	 --	      0.4701	    0.882196	     0.89575	           0	  -0.0135537	           1	           0	3.85544e+006	    -43.6599	     45.4514	
 --	 --	 --	 --	 --	      0.4751	    0.890787	     0.89575	           0	  -0.0049631	           1	           0	3.85544e+006	    -43.6599	     45.4514	
 --	 --	 --	 --	 --	      0.4801	    0.885935	     0.89575	           0	  -0.0098153	           1	           0	3.85544e+006	    -43.6599	     45.4514	
 --	 --	 --	 --	 --	      0.4851	    0.885095	     0.89575	           0	  -0.0106549	           1	           0	3.85544e+006	    -43.6599	     45.4514	
 --	 --	 --	 --	 --	      0.4901	    0.888315	     0.89575	           0	  -0.0074351	           1	           0	3.85544e+006	    -43.6599	     45.4514	
 --	 --	 --	 --	 --	      0.4951	     0.88096	     0.89575	           0	  -0.0147897	           1	           0	3.85544e+006	    -43.6599	     45.4514	
 --	 --	 --	 --	 --	      0.5001	    0.888345	     0.89575	           0	  -0.0074047	           1	           0	3.85544e+006	    -43.6599	     45.4514	
 --	 --	 --	 --	 --	      0.5051	    0.889581	     0.89575	           0	  -0.0061687	           1	           0	3.85544e+006	    -43.6599	     45.4514	
 --	 --	 --	 --	 --	      0.5101	    0.887659	     0.89575	           0	  -0.0080909	           1	           0	3.85544e+006	    -43.6599	     45.4514	
 --	 --	 --	 --	 --	      0.5151	    0.886468	     0.89575	           0	  -0.0092815	           1	           0	3.85544e+006	    -43.6599	     45.4514	
 --	 --	 --	 --	 --	      0.5201	    0.888071	     0.89575	           0	  -0.0076791	           1	           0	3.85544e+006	    -43.6599	     45.4514	
 --	 --	 --	 --	 --	      0.5251	    0.886453	     0.89575	           0	  -0.0092967	           1	           0	3.85544e+006	    -43.6599	     45.4514	
 --	 --	 --	 --	 --	      0.5301	    0.887003	     0.89575	           0	  -0.0087473	           1	           0	3.85544e+006	    -43.6599	     45.4514	
 --	 --	 --	 --	 --	      0.5351	     0.88656	     0.89575	           0	  -0.0091899	           1	           0	3.85544e+006	    -43.6599	     45.4514	
 --	 --	 --	 --	 --	      0.5401	    0.888116	     0.89575	           0	  -0.0076335	           1	           0	3.85544e+006	    -43.6599	     45.4514	
 --	 --	 --	 --	 --	      0.5451	    0.889246	     0.89575	           0	  -0.0065043	           1	           0	3.85544e+006	    -43.6599	     45.4514	
 --	 --	 --	 --	 --	      0.5501	    0.888757	     0.89575	           0	  -0.0069927	           1	           0	3.85544e+006	    -43.6599	     45.4514	
 --	 --	 --	 --	 --	      0.5551	    0.886194	     0.89575	           0	  -0.0095559	           1	           0	3.85544e+006	    -43.6599	     45.4514	
 --	 --	 --	 --	 --	      0.5601	    0.888696	     0.89575	           0	  -0.0070535	           1	           0	3.85544e+006	    -43.6599	     45.4514	
 --	 --	 --	 --	 --	      0.5651	    0.891168	     0.89575	           0	  -0.0045819	           1	           0	3.85544e+006	    -43.6599	     45.4514	
 --	 --	 --	 --	 --	      0.5701	    0.889475	     0.89575	           0	  -0.0062753	           1	           0	3.85544e+006	    -43.6599	     45.4514	
 --	 --	 --	 --	 --	      0.5751	    0.887155	     0.89575	           0	  -0.0085949	           1	           0	3.85544e+006	    -43.6599	     45.4514	
 --	 --	 --	 --	 --	      0.5801	    0.889581	     0.89575	           0	  -0.0061689	           1	           0	3.85544e+006	    -43.6599	     45.4514	
 --	 --	 --	 --	 --	      0.5851	    0.886041	     0.89575	           0	  -0.0097085	           1	           0	3.85544e+006	    -43.6599	     45.4514	
 --	 --	 --	 --	 --	      0.5901	    0.890649	     0.89575	           0	  -0.0051005	           1	           0	3.85544e+006	    -43.6599	     45.4514	
 --	 --	 --	 --	 --	      0.5951	    0.889993	     0.89575	           0	  -0.0057565	           1	           0	3.85544e+006	    -43.6599	     45.4514	
 --	 --	 --	 --	 --	      0.6001	     0.88775	     0.89575	           0	  -0.0079997	           1	           0	3.85544e+006	    -43.6599	     45.4514	
 --	 --	 --	 --	 --	      0.6051	     0.89245	     0.89575	           0	  -0.0032999	           1	           0	3.85544e+006	    -43.6599	     45.4514	
 --	 --	 --	 --	 --	      0.6101	    0.889032	     0.89575	           0	  -0.0067181	           1	           0	3.85544e+006	    -43.6599	     45.4514	
 --	 --	 --	 --	 --	      0.6151	    0.890085	     0.89575	           0	  -0.0056651	           1	           0	3.85544e+006	    -43.6599	     45.4514	
 --	 --	 --	 --	 --	      0.6201	    0.888391	     0.89575	           0	  -0.0073587	           1	           0	3.85544e+006	    -43.6599	     45.4514	
 --	 --	 --	 --	 --	      0.6251	    0.887079	     0.89575	           0	  -0.0086709	           1	           0	3.85544e+006	    -43.6599	     45.4514	
 --	 --	 --	 --	 --	      0.6301	    0.888071	     0.89575	           0	  -0.0076791	           1	           0	3.85544e+006	    -43.6599	     45.4514	
 --	 --	 --	 --	 --	      0.6351	    0.889307	     0.89575	           0	  -0.0064431	           1	           0	3.85544e+006	    -43.6599	     45.4514	
 --	 --	 --	 --	 --	      0.6401	    0.887842	     0.89575	           0	  -0.0079081	           1	           0	3.85544e+006	    -43.6599	     45.4514	
 --	 --	 --	 --	 --	      0.6451	    0.896951	     0.89575	           0	   0.0012015	           1	           0	3.85544e+006	    -43.6599	     45.4514	
 --	 --	 --	 --	 --	      0.6501	     0.89248	     0.89575	           0	  -0.0032695	           1	           0	3.85544e+006	    -43.6599	     45.4514	
 --	 --	 --	 --	 --	      0.6551	    0.888956	     0.89575	           0	  -0.0067941	           1	           0	3.85544e+006	    -43.6599	     45.4514	
 --	 --	 --	 --	 --	      0.6601	    0.892831	     0.89575	           0	  -0.0029185	           1	           0	3.85544e+006	    -43.6599	     45.4514	
 --	 --	 --	 --	 --	      0.6651	    0.887369	     0.89575	           0	  -0.0083813	           1	           0	3.85544e+006	    -43.6599	     45.4514	
 --	 --	 --	 --	 --	      0.6701	    0.893396	     0.89575	           0	  -0.0023539	           1	           0	3.85544e+006	    -43.6599	     45.4514	
 --	 --	 --	 --	 --	      0.6751	    0.894159	     0.89575	           0	  -0.0015909	           1	           0	3.85544e+006	    -43.6599	     45.4514	
 --	 --	 --	 --	 --	      0.6801	    0.894739	     0.89575	           0	  -0.0010111	           1	           0	3.85544e+006	    -43.6599	     45.4514	
 --	 --	 --	 --	 --	      0.6851	    0.892267	     0.89575	           0	  -0.0034831	           1	           0	3.85544e+006	    -43.6599	     45.4514	
 --	 --	 --	 --	 --	      0.6901	    0.891168	     0.89575	           0	  -0.0045815	           1	           0	3.85544e+006	    -43.6599	     45.4514	
 --	 --	 --	 --	 --	      0.6951	    0.892068	     0.89575	           0	  -0.0036815	           1	           0	3.85544e+006	    -43.6599	     45.4514	
 --	 --	 --	 --	 --	      0.7001	    0.890161	     0.89575	           0	  -0.0055889	           1	           0	3.85544e+006	    -43.6599	     45.4514	
 --	 --	 --	 --	 --	      0.7051	    0.890573	     0.89575	           0	  -0.0051769	           1	           0	3.85544e+006	    -43.6599	     45.4514	
 --	 --	 --	 --	 --	      0.7101	    0.894205	     0.89575	           0	  -0.0015451	           1	           0	3.85544e+006	    -43.6599	     45.4514	
 --	 --	 --	 --	 --	      0.7151	    0.892267	     0.89575	           0	  -0.0034831	           1	           0	3.85544e+006	    -43.6599	     45.4514	
 --	 --	 --	 --	 --	      0.7201	    0.892526	     0.89575	           0	  -0.0032237	           1	           0	3.85544e+006	    -43.6599	     45.4514	
 --	 --	 --	 --	 --	      0.7251	    0.892069	     0.89575	           0	  -0.0036813	           1	           0	3.85544e+006	    -43.6599	     45.4514	
 --	 --	 --	 --	 --	      0.7301	     0.89512	     0.89575	           0	-0.000629495	           1	           0	3.85544e+006	    -43.6599	     45.4514	
 --	 --	 --	 --	 --	      0.7351	    0.893213	     0.89575	           0	  -0.0025371	           1	           0	3.85544e+006	    -43.6599	     45.4514	
 --	 --	 --	 --	 --	      0.7401	    0.890756	     0.89575	           0	  -0.0049939	           1	           0	3.85544e+006	    -43.6599	     45.4514	
 --	 --	 --	 --	 --	      0.7451	    0.892709	     0.89575	           0	  -0.0030407	           1	           0	3.85544e+006	    -43.6599	     45.4514	
 --	 --	 --	 --	 --	      0.7501	    0.889734	     0.89575	           0	  -0.0060161	           1	           0	3.85544e+006	    -43.6599	     45.4514	
 --	 --	 --	 --	 --	      0.7551	    0.896112	     0.89575	           0	 0.000362305	           1	           0	3.85544e+006	    -43.6599	     45.4514	
 --	 --	 --	 --	 --	      0.7601	    0.886438	     0.89575	           0	  -0.0093119	           1	           0	3.85544e+006	    -43.6599	     45.4514	
 --	 --	 --	 --	 --	      0.7651	    0.894006	     0.89575	           0	  -0.0017435	           1	           0	3.85544e+006	    -43.6599	     45.4514	
 --	 --	 --	 --	 --	      0.7701	     0.89158	     0.89575	           0	  -0.0041695	           1	           0	3.85544e+006	    -43.6599	     45.4514	
 --	 --	 --	 --	 --	      0.7751	    0.894983	     0.89575	           0	-0.000766895	           1	           0	3.85544e+006	    -43.6599	     45.4514	
 --	 --	 --	 --	 --	      0.7801	    0.892633	     0.89575	           0	  -0.0031167	           1	           0	3.85544e+006	    -43.6599	     45.4514	
 --	 --	 --	 --	 --	      0.7851	    0.892297	     0.89575	           0	  -0.0034525	           1	           0	3.85544e+006	    -43.6599	     45.4514	
 --	 --	 --	 --	 --	      0.7901	    0.893381	     0.89575	           0	  -0.0023693	           1	           0	3.85544e+006	    -43.6599	     45.4514	
 --	 --	 --	 --	 --	      0.7951	    0.893533	     0.89575	           0	  -0.0022167	           1	           0	3.85544e+006	    -43.6599	     45.4514	
 --	 --	 --	 --	 --	      0.8001	    0.894845	     0.89575	           0	-0.000904495	           1	           0	3.85544e+006	    -43.6599	     45.4514	
 --	 --	 --	 --	 --	      0.8051	     0.89631	     0.89575	           0	 0.000560505	           1	           0	3.85544e+006	    -43.6599	     45.4514	
 --	 --	 --	 --	 --	      0.8101	    0.890527	     0.89575	           0	  -0.0052225	           1	           0	3.85544e+006	    -43.6599	     45.4514	
 --	 --	 --	 --	 --	      0.8151	    0.892938	     0.89575	           0	  -0.0028115	           1	           0	3.85544e+006	    -43.6599	     45.4514	
 --	 --	 --	 --	 --	      0.8201	     0.89248	     0.89575	           0	  -0.0032695	           1	           0	3.85544e+006	    -43.6599	     45.4514	
 --	 --	 --	 --	 --	      0.8251	    0.894373	     0.89575	           0	  -0.0013773	           1	           0	3.85544e+006	    -43.6599	     45.4514	
 --	 --	 --	 --	 --	      0.8301	    0.890192	     0.89575	           0	  -0.0055583	           1	           0	3.85544e+006	    -43.6599	     45.4514	
 --	 --	 --	 --	 --	      0.8351	    0.895395	     0.89575	           0	-0.000355095	           1	           0	3.85544e+006	    -43.6599	     45.4514	
 --	 --	 --	 --	 --	      0.8401	    0.894464	     0.89575	           0	  -0.0012857	           1	           0	3.85544e+006	    -43.6599	     45.4514	
 --	 --	 --	 --	 --	      0.8451	    0.891733	     0.89575	           0	  -0.0040173	           1	           0	3.85544e+006	    -43.6599	     45.4514	
 --	 --	 --	 --	 --	      0.8501	    0.895502	     0.89575	           0	-0.000248095	           1	           0	3.85544e+006	    -43.6599	     45.4514	
 --	 --	 --	 --	 --	      0.8551	    0.892404	     0.89575	           0	  -0.0033457	           1	           0	3.85544e+006	    -43.6599	     45.4514	
 --	 --	 --	 --	 --	      0.8601	    0.894769	     0.89575	           0	-0.000980695	           1	           0	3.85544e+006	    -43.6599	     45.4514	
 --	 --	 --	 --	 --	      0.8651	    0.892786	     0.89575	           0	  -0.0029641	           1	           0	3.85544e+006	    -43.6599	     45.4514	
 --	 --	 --	 --	 --	      0.8701	    0.892603	     0.89575	           0	  -0.0031473	           1	           0	3.85544e+006	    -43.6599	     45.4514	
 --	 --	 --	 --	 --	      0.8751	    0.895196	     0.89575	           0	-0.000553495	           1	           0	3.85544e+006	    -43.6599	     45.4514	
 --	 --	 --	 --	 --	      0.8801	    0.896219	     0.89575	           0	 0.000469105	           1	           0	3.85544e+006	    -43.6599	     45.4514	
 --	 --	 --	 --	 --	      0.8851	    0.897211	     0.89575	           0	   0.0014609	           1	           0	3.85544e+006	    -43.6599	     45.4514	
 --	 --	 --	 --	 --	      0.8901	    0.892557	     0.89575	           0	  -0.0031929	           1	           0	3.85544e+006	    -43.6599	     45.4514	
 --	 --	 --	 --	 --	      0.8951	    0.895196	     0.89575	           0	-0.000553495	           1	           0	3.85544e+006	    -43.6599	     45.4514	
 --	 --	 --	 --	 --	      0.9001	    0.897089	     0.89575	           0	   0.0013387	           1	           0	3.85544e+006	    -43.6599	     45.4514	
 --	 --	 --	 --	 --	      0.9051	    0.893778	     0.89575	           0	  -0.0019723	           1	           0	3.85544e+006	    -43.6599	     45.4514	
 --	 --	 --	 --	 --	      0.9101	    0.897073	     0.89575	           0	   0.0013235	           1	           0	3.85544e+006	    -43.6599	     45.4514	
 --	 --	 --	 --	 --	      0.9151	    0.893655	     0.89575	           0	  -0.0020945	           1	           0	3.85544e+006	    -43.6599	     45.4514	
 --	 --	 --	 --	 --	      0.9201	     0.88952	     0.89575	           0	  -0.0062295	           1	           0	3.85544e+006	    -43.6599	     45.4514	
 --	 --	 --	 --	 --	      0.9251	    0.895486	     0.89575	           0	-0.000263495	           1	           0	3.85544e+006	    -43.6599	     45.4514	
 --	 --	 --	 --	 --	      0.9301	    0.897089	     0.89575	           0	   0.0013387	           1	           0	3.85544e+006	    -43.6599	     45.4514	
 --	 --	 --	 --	 --	      0.9351	    0.895654	     0.89575	           0	-9.54951e-005	           1	           0	3.85544e+006	    -43.6599	     45.4514	
 --	 --	 --	 --	 --	      0.9401	    0.892587	     0.89575	           0	  -0.0031627	           1	           0	3.85544e+006	    -43.6599	     45.4514	
 --	 --	 --	 --	 --	      0.9451	     0.89332	     0.89575	           0	  -0.0024301	           1	           0	3.85544e+006	    -43.6599	     45.4514	
 --	 --	 --	 --	 --	      0.9501	    0.899469	     0.89575	           0	   0.0037191	           1	           0	3.85544e+006	    -43.6599	     45.4514	
 --	 --	 --	 --	 --	      0.9551	    0.894342	     0.89575	           0	  -0.0014079	           1	           0	3.85544e+006	    -43.6599	     45.4514	
 --	 --	 --	 --	 --	      0.9601	    0.894983	     0.89575	           0	-0.000766895	           1	           0	3.85544e+006	    -43.6599	     45.4514	
 --	 --	 --	 --	 --	      0.9651	    0.896738	     0.89575	           0	 0.000987905	           1	           0	3.85544e+006	    -43.6599	     45.4514	
 --	 --	 --	 --	 --	      0.9701	    0.900049	     0.89575	           0	   0.0042989	           1	           0	3.85544e+006	    -43.6599	     45.4514	
 --	 --	 --	 --	 --	      0.9751	    0.891946	     0.89575	           0	  -0.0038035	           1	           0	3.85544e+006	    -43.6599	     45.4514	
 --	 --	 --	 --	 --	      0.9801	    0.891473	     0.89575	           0	  -0.0042765	           1	           0	3.85544e+006	    -43.6599	     45.4514	
 --	 --	 --	 --	 --	      0.9851	    0.895334	     0.89575	           0	-0.000416295	           1	           0	3.85544e+006	    -43.6599	     45.4514	
 --	 --	 --	 --	 --	      0.9901	    0.898325	     0.89575	           0	   0.0025747	           1	           0	3.85544e+006	    -43.6599	     45.4514	
 --	 --	 --	 --	 --	      0.9951	    0.901254	     0.89575	           0	   0.0055045	           1	           0	3.85544e+006	    -43.6599	     45.4514	
 --	 --	 --	 --	 --	      1.0001	    0.896112	     0.89575	           0	 0.000362105	           1	           0	3.85544e+006	    -43.6599	     45.4514	
 --	 --	 --	 --	 --	      1.0051	    0.894602	     0.89575	           0	  -0.0011483	           1	           0	3.85544e+006	    -43.6599	     45.4514	
 --	 --	 --	 --	 --	      1.0101	     0.89921	     0.89575	           0	   0.0034597	           1	           0	3.85544e+006	    -43.6599	     45.4514	
 --	 --	 --	 --	 --	      1.0151	    0.895609	     0.89575	           0	-0.000141295	           1	           0	3.85544e+006	    -43.6599	     45.4514	
 --	 --	 --	 --	 --	      1.0201	     0.89718	     0.89575	           0	   0.0014303	           1	           0	3.85544e+006	    -43.6599	     45.4514	
 --	 --	 --	 --	 --	      1.0251	    0.893411	     0.89575	           0	  -0.0023387	           1	           0	3.85544e+006	    -43.6599	     45.4514	
 --	 --	 --	 --	 --	      1.0301	    0.895364	     0.89575	           0	-0.000385495	           1	           0	3.85544e+006	    -43.6599	     45.4514	
 --	 --	 --	 --	 --	      1.0351	    0.890436	     0.89575	           0	  -0.0053143	           1	           0	3.85544e+006	    -43.6599	     45.4514	
 --	 --	 --	 --	 --	      1.0401	    0.894937	     0.89575	           0	-0.000812695	           1	           0	3.85544e+006	    -43.6599	     45.4514	
 --	 --	 --	 --	 --	      1.0451	    0.893228	     0.89575	           0	  -0.0025215	           1	           0	3.85544e+006	    -43.6599	     45.4514	
 --	 --	 --	 --	 --	      1.0501	    0.900186	     0.89575	           0	   0.0044361	           1	           0	3.85544e+006	    -43.6599	     45.4514	
 --	 --	 --	 --	 --	      1.0551	    0.898431	     0.89575	           0	   0.0026815	           1	           0	3.85544e+006	    -43.6599	     45.4514	
 --	 --	 --	 --	 --	      1.0601	    0.902017	     0.89575	           0	   0.0062675	           1	           0	3.85544e+006	    -43.6599	     45.4514	
 --	 --	 --	 --	 --	      1.0651	    0.894464	     0.89575	           0	  -0.0012857	           1	           0	3.85544e+006	    -43.6599	     45.4514	
 --	 --	 --	 --	 --	      1.0701	    0.895227	     0.89575	           0	-0.000522895	           1	           0	3.85544e+006	    -43.6599	     45.4514	
 --	 --	 --	 --	 --	      1.0751	    0.899851	     0.89575	           0	   0.0041007	           1	           0	3.85544e+006	    -43.6599	     45.4514	
 --	 --	 --	 --	 --	      1.0801	    0.898324	     0.89575	           0	   0.0025745	           1	           0	3.85544e+006	    -43.6599	     45.4514	
 --	 --	 --	 --	 --	      1.0851	    0.898584	     0.89575	           0	   0.0028341	           1	           0	3.85544e+006	    -43.6599	     45.4514	
 --	 --	 --	 --	 --	      1.0901	    0.894586	     0.89575	           0	  -0.0011637	           1	           0	3.85544e+006	    -43.6599	     45.4514	
 --	 --	 --	 --	 --	      1.0951	    0.892007	     0.89575	           0	  -0.0037425	           1	           0	3.85544e+006	    -43.6599	     45.4514	
 --	 --	 --	 --	 --	         1.1	    0.896356	     0.89575	           0	 0.000605605	           1	           0	3.85544e+006	    -43.6599	     45.4514	
 --	 --	 --	 --	 --	       1.225	    0.899942	     0.89575	           0	   0.0041916	           1	           0	3.85544e+006	    -43.6599	     45.4514	
 --	 --	 --	 --	 --	        1.35	    0.891358	     0.89575	           0	 -0.00439165	           1	           0	3.85544e+006	    -43.6599	     45.4514	
 --	 --	 --	 --	 --	       1.475	    0.903871	     0.89575	           0	   0.0081206	           1	           0	3.85544e+006	    -43.6599	     45.4514	
 --	 --	 --	 --	 --	         1.6	    0.900113	     0.89575	           0	  0.00436335	           1	           0	3.85544e+006	    -43.6599	     45.4514	
 --	 --	 --	 --	 --	       1.725	    0.901429	     0.89575	           0	  0.00567935	           1	           0	3.85544e+006	    -43.6599	     45.4514	
 --	 --	 --	 --	 --	        1.85	    0.899235	     0.89575	           0	   0.0034856	           1	           0	3.85544e+006	    -43.6599	     45.4514	
 --	 --	 --	 --	 --	       1.975	    0.902497	     0.89575	           0	  0.00674735	           1	           0	3.85544e+006	    -43.6599	     45.4514	
 --	 --	 --	 --	 --	         2.1	    0.900208	     0.89575	           0	   0.0044586	           1	           0	3.85544e+006	    -43.6599	     45.4514	
 --	 --	 --	 --	 --	       2.225	    0.895955	     0.89575	           0	 0.000205355	           1	           0	3.85544e+006	    -43.6599	     45.4514	
 --	 --	 --	 --	 --	        2.35	    0.895344	     0.89575	           0	-0.000405395	           1	           0	3.85544e+006	    -43.6599	     45.4514	
 --	 --	 --	 --	 --	       2.475	    0.900628	     0.89575	           0	   0.0048781	           1	           0	3.85544e+006	    -43.6599	     45.4514	
 --	 --	 --	 --	 --	         2.6	      0.9004	     0.89575	           0	   0.0046496	           1	           0	3.85544e+006	    -43.6599	     45.4514	
 --	 --	 --	 --	 --	       2.725	    0.899655	     0.89575	           0	  0.00390535	           1	           0	3.85544e+006	    -43.6599	     45.4514	
 --	 --	 --	 --	 --	        2.85	     0.90059	     0.89575	           0	   0.0048401	           1	           0	3.85544e+006	    -43.6599	     45.4514	
 --	 --	 --	 --	 --	       2.975	    0.899579	     0.89575	           0	   0.0038291	           1	           0	3.85544e+006	    -43.6599	     45.4514	
 --	 --	 --	 --	 --	         3.1	    0.903966	     0.89575	           0	   0.0082161	           1	           0	3.85544e+006	    -43.6599	     45.4514	
 --	 --	 --	 --	 --	       3.225	    0.900323	     0.89575	           0	  0.00457285	           1	           0	3.85544e+006	    -43.6599	     45.4514	
 --	 --	 --	 --	 --	        3.35	    0.897386	     0.89575	           0	  0.00163585	           1	           0	3.85544e+006	    -43.6599	     45.4514	
 --	 --	 --	 --	 --	       3.475	    0.902669	     0.89575	           0	  0.00691885	           1	           0	3.85544e+006	    -43.6599	     45.4514	
 --	 --	 --	 --	 --	         3.6	    0.900551	     0.89575	           0	   0.0048016	           1	           0	3.85544e+006	    -43.6599	     45.4514	
 --	 --	 --	 --	 --	       3.725	    0.903718	     0.89575	           0	  0.00796785	           1	           0	3.85544e+006	    -43.6599	     45.4514	
 --	 --	 --	 --	 --	        3.85	    0.905549	     0.89575	           0	   0.0097991	           1	           0	3.85544e+006	    -43.6599	     45.4514	
 --	 --	 --	 --	 --	       3.975	    0.900876	     0.89575	           0	  0.00512635	           1	           0	3.85544e+006	    -43.6599	     45.4514	
 --	 --	 --	 --	 --	         4.1	    0.898587	     0.89575	           0	  0.00283735	           1	           0	3.85544e+006	    -43.6599	     45.4514	
 --	 --	 --	 --	 --	       4.225	    0.899522	     0.89575	           0	   0.0037721	           1	           0	3.85544e+006	    -43.6599	     45.4514	
 --	 --	 --	 --	 --	        4.35	    0.900628	     0.89575	           0	  0.00487835	           1	           0	3.85544e+006	    -43.6599	     45.4514	
 --	 --	 --	 --	 --	       4.475	    0.902231	     0.89575	           0	   0.0064806	           1	           0	3.85544e+006	    -43.6599	     45.4514	
 --	 --	 --	 --	 --	         4.6	    0.897214	     0.89575	           0	   0.0014641	           1	           0	3.85544e+006	    -43.6599	     45.4514	
 --	 --	 --	 --	 --	       4.725	    0.895593	     0.89575	           0	-0.000157145	           1	           0	3.85544e+006	    -43.6599	     45.4514	
 --	 --	 --	 --	 --	        4.85	      0.9012	     0.89575	           0	  0.00545035	           1	           0	3.85544e+006	    -43.6599	     45.4514	
 --	 --	 --	 --	 --	       4.975	    0.900266	     0.89575	           0	  0.00451585	           1	           0	3.85544e+006	    -43.6599	     45.4514	
 --	 --	 --	 --	 --	         5.1	    0.906102	     0.89575	           0	   0.0103524	           1	           0	3.85544e+006	    -43.6599	     45.4514	
 --	 --	 --	 --	 --	       5.225	    0.902974	     0.89575	           0	  0.00722435	           1	           0	3.85544e+006	    -43.6599	     45.4514	
 --	 --	 --	 --	 --	        5.35	    0.901334	     0.89575	           0	  0.00558385	           1	           0	3.85544e+006	    -43.6599	     45.4514	
 --	 --	 --	 --	 --	       5.475	    0.900056	     0.89575	           0	   0.0043061	           1	           0	3.85544e+006	    -43.6599	     45.4514	
 --	 --	 --	 --	 --	         5.6	    0.900571	     0.89575	           0	  0.00482085	           1	           0	3.85544e+006	    -43.6599	     45.4514	
 --	 --	 --	 --	 --	       5.725	    0.902192	     0.89575	           0	   0.0064421	           1	           0	3.85544e+006	    -43.6599	     45.4514	
 --	 --	 --	 --	 --	        5.85	    0.906827	     0.89575	           0	   0.0110774	           1	           0	3.85544e+006	    -43.6599	     45.4514	
 --	 --	 --	 --	 --	       5.975	    0.903604	     0.89575	           0	  0.00785385	           1	           0	3.85544e+006	    -43.6599	     45.4514	
 --	 --	 --	 --	 --	         6.1	    0.904385	     0.89575	           0	   0.0086356	           1	           0	3.85544e+006	    -43.6599	     45.4514	
 --	 --	 --	 --	 --	       6.225	    0.902459	     0.89575	           0	  0.00670935	           1	           0	3.85544e+006	    -43.6599	     45.4514	
 --	 --	 --	 --	 --	        6.35	    0.898034	     0.89575	           0	   0.0022841	           1	           0	3.85544e+006	    -43.6599	     45.4514	
 --	 --	 --	 --	 --	       6.475	    0.902841	     0.89575	           0	   0.0070906	           1	           0	3.85544e+006	    -43.6599	     45.4514	
 --	 --	 --	 --	 --	         6.6	    0.902421	     0.89575	           0	   0.0066711	           1	           0	3.85544e+006	    -43.6599	     45.4514	
 --	 --	 --	 --	 --	       6.725	    0.898683	     0.89575	           0	   0.0029326	           1	           0	3.85544e+006	    -43.6599	     45.4514	
 --	 --	 --	 --	 --	        6.85	    0.901067	     0.89575	           0	  0.00531685	           1	           0	3.85544e+006	    -43.6599	     45.4514	
 --	 --	 --	 --	 --	       6.975	    0.904405	     0.89575	           0	  0.00865485	           1	           0	3.85544e+006	    -43.6599	     45.4514	
 --	 --	 --	 --	 --	         7.1	    0.902574	     0.89575	           0	  0.00682385	           1	           0	3.85544e+006	    -43.6599	     45.4514	
 --	 --	 --	 --	 --	       7.225	    0.899922	     0.89575	           0	  0.00417235	           1	           0	3.85544e+006	    -43.6599	     45.4514	
 --	 --	 --	 --	 --	        7.35	    0.905778	     0.89575	           0	   0.0100279	           1	           0	3.85544e+006	    -43.6599	     45.4514	
 --	 --	 --	 --	 --	       7.475	    0.899426	     0.89575	           0	   0.0036766	           1	           0	3.85544e+006	    -43.6599	     45.4514	
 --	 --	 --	 --	 --	         7.6	    0.901086	     0.89575	           0	   0.0053361	           1	           0	3.85544e+006	    -43.6599	     45.4514	
 --	 --	 --	 --	 --	       7.725	    0.901563	     0.89575	           0	   0.0058126	           1	           0	3.85544e+006	    -43.6599	     45.4514	
 --	 --	 --	 --	 --	        7.85	    0.906598	     0.89575	           0	   0.0108484	           1	           0	3.85544e+006	    -43.6599	     45.4514	
 --	 --	 --	 --	 --	       7.975	    0.897233	     0.89575	           0	  0.00148335	           1	           0	3.85544e+006	    -43.6599	     45.4514	
 --	 --	 --	 --	 --	         8.1	    0.901829	     0.89575	           0	  0.00607935	           1	           0	3.85544e+006	    -43.6599	     45.4514	
 --	 --	 --	 --	 --	       8.225	    0.901067	     0.89575	           0	   0.0053171	           1	           0	3.85544e+006	    -43.6599	     45.4514	
 --	 --	 --	 --	 --	        8.35	    0.900361	     0.89575	           0	   0.0046111	           1	           0	3.85544e+006	    -43.6599	     45.4514	
 --	 --	 --	 --	 --	       8.475	    0.900552	     0.89575	           0	  0.00480185	           1	           0	3.85544e+006	    -43.6599	     45.4514	
 --	 --	 --	 --	 --	         8.6	     0.90019	     0.89575	           0	   0.0044396	           1	           0	3.85544e+006	    -43.6599	     45.4514	
 --	 --	 --	 --	 --	       8.725	    0.898988	     0.89575	           0	   0.0032381	           1	           0	3.85544e+006	    -43.6599	     45.4514	
 --	 --	 --	 --	 --	        8.85	    0.898263	     0.89575	           0	   0.0025131	           1	           0	3.85544e+006	    -43.6599	     45.4514	
 --	 --	 --	 --	 --	       8.975	    0.901448	     0.89575	           0	   0.0056981	           1	           0	3.85544e+006	    -43.6599	     45.4514	
 --	 --	 --	 --	 --	         9.1	    0.901944	     0.89575	           0	  0.00619435	           1	           0	3.85544e+006	    -43.6599	     45.4514	
 --	 --	 --	 --	 --	       9.225	    0.905568	     0.89575	           0	  0.00981835	           1	           0	3.85544e+006	    -43.6599	     45.4514	
 --	 --	 --	 --	 --	        9.35	    0.895307	     0.89575	           0	-0.000443395	           1	           0	3.85544e+006	    -43.6599	     45.4514	
 --	 --	 --	 --	 --	       9.475	    0.902325	     0.89575	           0	   0.0065756	           1	           0	3.85544e+006	    -43.6599	     45.4514	
 --	 --	 --	 --	 --	         9.6	    0.902421	     0.89575	           0	   0.0066711	           1	           0	3.85544e+006	    -43.6599	     45.4514	
 --	 --	 --	 --	 --	       9.725	    0.900933	     0.89575	           0	  0.00518335	           1	           0	3.85544e+006	    -43.6599	     45.4514	
 --	 --	 --	 --	 --	        9.85	    0.901753	     0.89575	           0	   0.0060036	           1	           0	3.85544e+006	    -43.6599	     45.4514	
 --	 --	 --	 --	 --	       9.975	    0.901315	     0.89575	           0	  0.00556485	           1	           0	3.85544e+006	    -43.6599	     45.4514	
 --	 --	 --	 --	 --	        10.4	    0.901505	     0.89575	           0	  0.00575535	           1	           0	3.85544e+006	    -43.6599	     45.4514	
 --	 --	 --	 --	 --	        10.9	      0.9041	     0.89575	           0	   0.0083496	           1	           0	3.85544e+006	    -43.6599	     45.4514	
 --	 --	 --	 --	 --	        11.4	    0.899484	     0.89575	           0	  0.00373385	           1	           0	3.85544e+006	    -43.6599	     45.4514	
 --	 --	 --	 --	 --	        11.9	    0.903432	     0.89575	           0	   0.0076821	           1	           0	3.85544e+006	    -43.6599	     45.4514	
 --	 --	 --	 --	 --	        12.4	    0.898034	     0.89575	           0	   0.0022841	           1	           0	3.85544e+006	    -43.6599	     45.4514	
 --	 --	 --	 --	 --	        12.9	    0.898492	     0.89575	           0	  0.00274185	           1	           0	3.85544e+006	    -43.6599	     45.4514	
 --	 --	 --	 --	 --	        13.4	     0.89811	     0.89575	           0	  0.00236035	           1	           0	3.85544e+006	    -43.6599	     45.4514	
 --	 --	 --	 --	 --	        13.9	    0.896622	     0.89575	           0	 0.000872605	           1	           0	3.85544e+006	    -43.6599	     45.4514	
 --	 --	 --	 --	 --	        14.4	    0.900056	     0.89575	           0	  0.00430585	           1	           0	3.85544e+006	    -43.6599	     45.4514	
 --	 --	 --	 --	 --	        14.9	    0.898167	     0.89575	           0	   0.0024176	           1	           0	3.85544e+006	    -43.6599	     45.4514	
 --	 --	 --	 --	 --	        15.4	    0.896966	     0.89575	           0	   0.0012161	           1	           0	3.85544e+006	    -43.6599	     45.4514	
 --	 --	 --	 --	 --	        15.9	    0.898149	     0.89575	           0	  0.00239885	           1	           0	3.85544e+006	    -43.6599	     45.4514	
 --	 --	 --	 --	 --	        16.4	    0.904729	     0.89575	           0	   0.0089791	           1	           0	3.85544e+006	    -43.6599	     45.4514	
 --	 --	 --	 --	 --	        16.9	    0.896699	     0.89575	           0	 0.000949105	           1	           0	3.85544e+006	    -43.6599	     45.4514	
 --	 --	 --	 --	 --	        17.4	    0.899846	     0.89575	           0	  0.00409635	           1	           0	3.85544e+006	    -43.6599	     45.4514	
 --	 --	 --	 --	 --	        17.9	    0.897805	     0.89575	           0	  0.00205535	           1	           0	3.85544e+006	    -43.6599	     45.4514	
 --	 --	 --	 --	 --	        18.4	    0.897157	     0.89575	           0	   0.0014071	           1	           0	3.85544e+006	    -43.6599	     45.4514	
 --	 --	 --	 --	 --	        18.9	    0.898167	     0.89575	           0	   0.0024176	           1	           0	3.85544e+006	    -43.6599	     45.4514	
 --	 --	 --	 --	 --	        19.4	    0.904767	     0.89575	           0	  0.00901735	           1	           0	3.85544e+006	    -43.6599	     45.4514	
 --	 --	 --	 --	 --	        19.9	    0.895421	     0.89575	           0	-0.000328895	           1	           0	3.85544e+006	    -43.6599	     45.4514	
 --	 --	 --	 --	 --	        20.4	     0.89647	     0.89575	           0	 0.000720105	           1	           0	3.85544e+006	    -43.6599	     45.4514	
 --	 --	 --	 --	 --	        20.9	    0.895345	     0.89575	           0	-0.000405145	           1	           0	3.85544e+006	    -43.6599	     45.4514	
 --	 --	 --	 --	 --	        21.4	      0.8971	     0.89575	           0	   0.0013496	           1	           0	3.85544e+006	    -43.6599	     45.4514	
 --	 --	 --	 --	 --	        21.9	    0.895307	     0.89575	           0	-0.000443395	           1	           0	3.85544e+006	    -43.6599	     45.4514	
 --	 --	 --	 --	 --	        22.4	    0.894963	     0.89575	           0	-0.000786645	           1	           0	3.85544e+006	    -43.6599	     45.4514	
 --	 --	 --	 --	 --	        22.9	    0.894944	     0.89575	           0	-0.000805645	           1	           0	3.85544e+006	    -43.6599	     45.4514	
 --	 --	 --	 --	 --	        23.4	     0.89626	     0.89575	           0	 0.000510355	           1	           0	3.85544e+006	    -43.6599	     45.4514	
 --	 --	 --	 --	 --	        23.9	    0.897691	     0.89575	           0	  0.00194085	           1	           0	3.85544e+006	    -43.6599	     45.4514	
 --	 --	 --	 --	 --	        24.4	    0.892102	     0.89575	           0	  -0.0036479	           1	           0	3.85544e+006	    -43.6599	     45.4514	
 --	 --	 --	 --	 --	        24.9	    0.897233	     0.89575	           0	   0.0014831	           1	           0	3.85544e+006	    -43.6599	     45.4514	
 --	 --	 --	 --	 --	        25.4	    0.894506	     0.89575	           0	  -0.0012444	           1	           0	3.85544e+006	    -43.6599	     45.4514	
 --	 --	 --	 --	 --	        25.9	    0.899446	     0.89575	           0	  0.00369585	           1	           0	3.85544e+006	    -43.6599	     45.4514	
 --	 --	 --	 --	 --	        26.4	     0.89853	     0.89575	           0	   0.0027801	           1	           0	3.85544e+006	    -43.6599	     45.4514	
 --	 --	 --	 --	 --	        26.9	     0.89544	     0.89575	           0	-0.000309645	           1	           0	3.85544e+006	    -43.6599	     45.4514	
 --	 --	 --	 --	 --	        27.4	    0.897138	     0.89575	           0	  0.00138785	           1	           0	3.85544e+006	    -43.6599	     45.4514	
 --	 --	 --	 --	 --	        27.9	    0.893075	     0.89575	           0	 -0.00267465	           1	           0	3.85544e+006	    -43.6599	     45.4514	
 --	 --	 --	 --	 --	        28.4	    0.892865	     0.89575	           0	 -0.00288465	           1	           0	3.85544e+006	    -43.6599	     45.4514	
 --	 --	 --	 --	 --	        28.9	    0.895421	     0.89575	           0	-0.000329145	           1	           0	3.85544e+006	    -43.6599	     45.4514	
 --	 --	 --	 --	 --	        29.4	     0.89378	     0.89575	           0	  -0.0019694	           1	           0	3.85544e+006	    -43.6599	     45.4514	
 --	 --	 --	 --	 --	        29.9	    0.897138	     0.89575	           0	   0.0013876	           1	           0	3.85544e+006	    -43.6599	     45.4514	
 --	 --	 --	 --	 --	        30.4	    0.893952	     0.89575	           0	  -0.0017974	           1	           0	3.85544e+006	    -43.6599	     45.4514	
 --	 --	 --	 --	 --	        30.9	    0.898358	     0.89575	           0	  0.00260835	           1	           0	3.85544e+006	    -43.6599	     45.4514	
 --	 --	 --	 --	 --	        31.4	      0.8942	     0.89575	           0	 -0.00154965	           1	           0	3.85544e+006	    -43.6599	     45.4514	
 --	 --	 --	 --	 --	        31.9	    0.896413	     0.89575	           0	 0.000663105	           1	           0	3.85544e+006	    -43.6599	     45.4514	
 --	 --	 --	 --	 --	        32.4	    0.899579	     0.89575	           0	   0.0038291	           1	           0	3.85544e+006	    -43.6599	     45.4514	
 --	 --	 --	 --	 --	        32.9	    0.893361	     0.89575	           0	  -0.0023889	           1	           0	3.85544e+006	    -43.6599	     45.4514	
 --	 --	 --	 --	 --	        33.4	    0.894277	     0.89575	           0	 -0.00147315	           1	           0	3.85544e+006	    -43.6599	     45.4514	
 --	 --	 --	 --	 --	        33.9	    0.895231	     0.89575	           0	-0.000519395	           1	           0	3.85544e+006	    -43.6599	     45.4514	
 --	 --	 --	 --	 --	        34.4	    0.891797	     0.89575	           0	  -0.0039529	           1	           0	3.85544e+006	    -43.6599	     45.4514	
 --	 --	 --	 --	 --	        34.9	    0.891836	     0.89575	           0	  -0.0039144	           1	           0	3.85544e+006	    -43.6599	     45.4514	
 --	 --	 --	 --	 --	        35.4	    0.897901	     0.89575	           0	  0.00215085	           1	           0	3.85544e+006	    -43.6599	     45.4514	
 --	 --	 --	 --	 --	        35.9	    0.897328	     0.89575	           0	   0.0015786	           1	           0	3.85544e+006	    -43.6599	     45.4514	
 --	 --	 --	 --	 --	        36.4	    0.887963	     0.89575	           0	 -0.00778665	           1	           0	3.85544e+006	    -43.6599	     45.4514	
 --	 --	 --	 --	 --	        36.9	    0.893895	     0.89575	           0	  -0.0018549	           1	           0	3.85544e+006	    -43.6599	     45.4514	
 --	 --	 --	 --	 --	        37.4	    0.899007	     0.89575	           0	  0.00325685	           1	           0	3.85544e+006	    -43.6599	     45.4514	
 --	 --	 --	 --	 --	        37.9	    0.893819	     0.89575	           0	 -0.00193115	           1	           0	3.85544e+006	    -43.6599	     45.4514	
 --	 --	 --	 --	 --	        38.4	      0.8971	     0.89575	           0	   0.0013496	           1	           0	3.85544e+006	    -43.6599	     45.4514	
 --	 --	 --	 --	 --	        38.9	    0.898168	     0.89575	           0	  0.00241785	           1	           0	3.85544e+006	    -43.6599	     45.4514	
 --	 --	 --	 --	 --	        39.4	    0.898206	     0.89575	           0	  0.00245585	           1	           0	3.85544e+006	    -43.6599	     45.4514	
 --	 --	 --	 --	 --	        39.9	    0.891397	     0.89575	           0	  -0.0043534	           1	           0	3.85544e+006	    -43.6599	     45.4514	
 --	 --	 --	 --	 --	        40.4	    0.898149	     0.89575	           0	   0.0023986	           1	           0	3.85544e+006	    -43.6599	     45.4514	
 --	 --	 --	 --	 --	        40.9	    0.892121	     0.89575	           0	 -0.00362865	           1	           0	3.85544e+006	    -43.6599	     45.4514	
 --	 --	 --	 --	 --	        41.4	    0.897519	     0.89575	           0	   0.0017691	           1	           0	3.85544e+006	    -43.6599	     45.4514	
 --	 --	 --	 --	 --	        41.9	    0.891263	     0.89575	           0	 -0.00448715	           1	           0	3.85544e+006	    -43.6599	     45.4514	
 --	 --	 --	 --	 --	        42.4	    0.891701	     0.89575	           0	  -0.0040484	           1	           0	3.85544e+006	    -43.6599	     45.4514	
 --	 --	 --	 --	 --	        42.9	    0.891092	     0.89575	           0	  -0.0046584	           1	           0	3.85544e+006	    -43.6599	     45.4514	
 --	 --	 --	 --	 --	        43.4	     0.89441	     0.89575	           0	 -0.00133965	           1	           0	3.85544e+006	    -43.6599	     45.4514	
 --	 --	 --	 --	 --	        43.9	    0.895726	     0.89575	           0	-2.36451e-005	           1	           0	3.85544e+006	    -43.6599	     45.4514	
 --	 --	 --	 --	 --	        44.4	    0.897653	     0.89575	           0	  0.00190285	           1	           0	3.85544e+006	    -43.6599	     45.4514	
 --	 --	 --	 --	 --	        44.9	    0.894258	     0.89575	           0	  -0.0014924	           1	           0	3.85544e+006	    -43.6599	     45.4514	
 --	 --	 --	 --	 --	        45.4	    0.894734	     0.89575	           0	 -0.00101565	           1	           0	3.85544e+006	    -43.6599	     45.4514	
 --	 --	 --	 --	 --	        45.9	    0.894906	     0.89575	           0	-0.000843895	           1	           0	3.85544e+006	    -43.6599	     45.4514	
 --	 --	 --	 --	 --	        46.4	    0.894276	     0.89575	           0	  -0.0014734	           1	           0	3.85544e+006	    -43.6599	     45.4514	
 --	 --	 --	 --	 --	        46.9	    0.894658	     0.89575	           0	  -0.0010919	           1	           0	3.85544e+006	    -43.6599	     45.4514	
 --	 --	 --	 --	 --	        47.4	    0.896032	     0.89575	           0	 0.000281605	           1	           0	3.85544e+006	    -43.6599	     45.4514	
 --	 --	 --	 --	 --	        47.9	    0.893018	     0.89575	           0	  -0.0027319	           1	           0	3.85544e+006	    -43.6599	     45.4514	
 --	 --	 --	 --	 --	        48.4	    0.893533	     0.89575	           0	  -0.0022174	           1	           0	3.85544e+006	    -43.6599	     45.4514	
 --	 --	 --	 --	 --	        48.9	    0.897252	     0.89575	           0	  0.00150235	           1	           0	3.85544e+006	    -43.6599	     45.4514	
 --	 --	 --	 --	 --	        49.4	    0.887525	     0.89575	           0	  -0.0082254	           1	           0	3.85544e+006	    -43.6599	     45.4514	
 --	 --	 --	 --	 --	        49.9	    0.888745	     0.89575	           0	  -0.0070044	           1	           0	3.85544e+006	    -43.6599	     45.4514	
 --	 --	 --	 --	 --	        50.4	    0.894467	     0.89575	           0	 -0.00128265	           1	           0	3.85544e+006	    -43.6599	     45.4514	
 --	 --	 --	 --	 --	        50.9	    0.893972	     0.89575	           0	  -0.0017784	           1	           0	3.85544e+006	    -43.6599	     45.4514	
 --	 --	 --	 --	 --	        51.4	    0.894448	     0.89575	           0	 -0.00130165	           1	           0	3.85544e+006	    -43.6599	     45.4514	
 --	 --	 --	 --	 --	        51.9	    0.896546	     0.89575	           0	 0.000796355	           1	           0	3.85544e+006	    -43.6599	     45.4514	
 --	 --	 --	 --	 --	        52.4	    0.891301	     0.89575	           0	  -0.0044489	           1	           0	3.85544e+006	    -43.6599	     45.4514	
 --	 --	 --	 --	 --	        52.9	    0.896508	     0.89575	           0	 0.000758355	           1	           0	3.85544e+006	    -43.6599	     45.4514	
 --	 --	 --	 --	 --	        53.4	    0.895116	     0.89575	           0	-0.000634395	           1	           0	3.85544e+006	    -43.6599	     45.4514	
 --	 --	 --	 --	 --	        53.9	     0.89174	     0.89575	           0	  -0.0040099	           1	           0	3.85544e+006	    -43.6599	     45.4514	
 --	 --	 --	 --	 --	        54.4	    0.897481	     0.89575	           0	   0.0017311	           1	           0	3.85544e+006	    -43.6599	     45.4514	
 --	 --	 --	 --	 --	        54.9	     0.89689	     0.89575	           0	   0.0011396	           1	           0	3.85544e+006	    -43.6599	     45.4514	
 --	 --	 --	 --	 --	        55.4	    0.893895	     0.89575	           0	 -0.00185465	           1	           0	3.85544e+006	    -43.6599	     45.4514	
 --	 --	 --	 --	 --	        55.9	    0.896222	     0.89575	           0	 0.000472355	           1	           0	3.85544e+006	    -43.6599	     45.4514	
 --	 --	 --	 --	 --	        56.4	    0.893323	     0.89575	           0	 -0.00242715	           1	           0	3.85544e+006	    -43.6599	     45.4514	
 --	 --	 --	 --	 --	        56.9	    0.894429	     0.89575	           0	  -0.0013209	           1	           0	3.85544e+006	    -43.6599	     45.4514	
 --	 --	 --	 --	 --	        57.4	    0.893075	     0.89575	           0	  -0.0026749	           1	           0	3.85544e+006	    -43.6599	     45.4514	
 --	 --	 --	 --	 --	        57.9	    0.894868	     0.89575	           0	-0.000881895	           1	           0	3.85544e+006	    -43.6599	     45.4514	
 --	 --	 --	 --	 --	        58.4	    0.896604	     0.89575	           0	 0.000853605	           1	           0	3.85544e+006	    -43.6599	     45.4514	
 --	 --	 --	 --	 --	        58.9	    0.894887	     0.89575	           0	-0.000862895	           1	           0	3.85544e+006	    -43.6599	     45.4514	
 --	 --	 --	 --	 --	        59.4	     0.89296	     0.89575	           0	  -0.0027894	           1	           0	3.85544e+006	    -43.6599	     45.4514	
 --	 --	 --	 --	 --	        59.9	    0.886838	     0.89575	           0	  -0.0089119	           1	           0	3.85544e+006	    -43.6599	     45.4514	
 --	 --	 --	 --	 --	        60.4	    0.895898	     0.89575	           0	 0.000148105	           1	           0	3.85544e+006	    -43.6599	     45.4514	
 --	 --	 --	 --	 --	        60.9	    0.897176	     0.89575	           0	  0.00142585	           1	           0	3.85544e+006	    -43.6599	     45.4514	
 --	 --	 --	 --	 --	        61.4	    0.895879	     0.89575	           0	 0.000128855	           1	           0	3.85544e+006	    -43.6599	     45.4514	
 --	 --	 --	 --	 --	        61.9	    0.889966	     0.89575	           0	  -0.0057839	           1	           0	3.85544e+006	    -43.6599	     45.4514	
 --	 --	 --	 --	 --	        62.4	    0.890328	     0.89575	           0	 -0.00542165	           1	           0	3.85544e+006	    -43.6599	     45.4514	
 --	 --	 --	 --	 --	        62.9	    0.893895	     0.89575	           0	 -0.00185465	           1	           0	3.85544e+006	    -43.6599	     45.4514	
 --	 --	 --	 --	 --	        63.4	    0.896927	     0.89575	           0	   0.0011776	           1	           0	3.85544e+006	    -43.6599	     45.4514	
 --	 --	 --	 --	 --	        63.9	    0.891778	     0.89575	           0	  -0.0039719	           1	           0	3.85544e+006	    -43.6599	     45.4514	
 --	 --	 --	 --	 --	        64.4	      0.8905	     0.89575	           0	  -0.0052499	           1	           0	3.85544e+006	    -43.6599	     45.4514	
 --	 --	 --	 --	 --	        64.9	     0.89666	     0.89575	           0	 0.000910605	           1	           0	3.85544e+006	    -43.6599	     45.4514	
 --	 --	 --	 --	 --	        65.4	    0.895116	     0.89575	           0	-0.000634145	           1	           0	3.85544e+006	    -43.6599	     45.4514	
 --	 --	 --	 --	 --	        65.9	     0.89298	     0.89575	           0	  -0.0027704	           1	           0	3.85544e+006	    -43.6599	     45.4514	
 --	 --	 --	 --	 --	        66.4	    0.890195	     0.89575	           0	  -0.0055549	           1	           0	3.85544e+006	    -43.6599	     45.4514	
 --	 --	 --	 --	 --	        66.9	    0.890061	     0.89575	           0	  -0.0056884	           1	           0	3.85544e+006	    -43.6599	     45.4514	
 --	 --	 --	 --	 --	        67.4	    0.893475	     0.89575	           0	  -0.0022744	           1	           0	3.85544e+006	    -43.6599	     45.4514	
 --	 --	 --	 --	 --	        67.9	    0.892179	     0.89575	           0	 -0.00357115	           1	           0	3.85544e+006	    -43.6599	     45.4514	
 --	 --	 --	 --	 --	        68.4	    0.890748	     0.89575	           0	  -0.0050019	           1	           0	3.85544e+006	    -43.6599	     45.4514	
 --	 --	 --	 --	 --	        68.9	    0.890996	     0.89575	           0	  -0.0047539	           1	           0	3.85544e+006	    -43.6599	     45.4514	
 --	 --	 --	 --	 --	        69.4	    0.888211	     0.89575	           0	  -0.0075389	           1	           0	3.85544e+006	    -43.6599	     45.4514	
 --	 --	 --	 --	 --	        69.9	    0.893647	     0.89575	           0	  -0.0021029	           1	           0	3.85544e+006	    -43.6599	     45.4514	
 --	 --	 --	 --	 --	        70.4	    0.889012	     0.89575	           0	 -0.00673765	           1	           0	3.85544e+006	    -43.6599	     45.4514	
 --	 --	 --	 --	 --	        70.9	    0.892827	     0.89575	           0	  -0.0029229	           1	           0	3.85544e+006	    -43.6599	     45.4514	
 --	 --	 --	 --	 --	        71.4	    0.892903	     0.89575	           0	 -0.00284665	           1	           0	3.85544e+006	    -43.6599	     45.4514	
 --	 --	 --	 --	 --	        71.9	    0.895592	     0.89575	           0	-0.000157395	           1	           0	3.85544e+006	    -43.6599	     45.4514	
 --	 --	 --	 --	 --	        72.4	    0.891244	     0.89575	           0	 -0.00450615	           1	           0	3.85544e+006	    -43.6599	     45.4514	
 --	 --	 --	 --	 --	        72.9	    0.891587	     0.89575	           0	  -0.0041624	           1	           0	3.85544e+006	    -43.6599	     45.4514	
 --	 --	 --	 --	 --	        73.4	    0.895898	     0.89575	           0	 0.000147855	           1	           0	3.85544e+006	    -43.6599	     45.4514	
 --	 --	 --	 --	 --	        73.9	    0.894734	     0.89575	           0	 -0.00101565	           1	           0	3.85544e+006	    -43.6599	     45.4514	
 --	 --	 --	 --	 --	        74.4	    0.891835	     0.89575	           0	 -0.00391465	           1	           0	3.85544e+006	    -43.6599	     45.4514	
 --	 --	 --	 --	 --	        74.9	     0.88844	     0.89575	           0	 -0.00730965	           1	           0	3.85544e+006	    -43.6599	     45.4514	
 --	 --	 --	 --	 --	        75.4	    0.890252	     0.89575	           0	 -0.00549765	           1	           0	3.85544e+006	    -43.6599	     45.4514	
 --	 --	 --	 --	 --	        75.9	    0.892045	     0.89575	           0	  -0.0037049	           1	           0	3.85544e+006	    -43.6599	     45.4514	
 --	 --	 --	 --	 --	        76.4	    0.892312	     0.89575	           0	  -0.0034379	           1	           0	3.85544e+006	    -43.6599	     45.4514	
 --	 --	 --	 --	 --	        76.9	     0.88926	     0.89575	           0	 -0.00648965	           1	           0	3.85544e+006	    -43.6599	     45.4514	
 --	 --	 --	 --	 --	        77.4	    0.893323	     0.89575	           0	  -0.0024269	           1	           0	3.85544e+006	    -43.6599	     45.4514	
 --	 --	 --	 --	 --	        77.9	    0.893666	     0.89575	           0	 -0.00208365	           1	           0	3.85544e+006	    -43.6599	     45.4514	
 --	 --	 --	 --	 --	        78.4	    0.893648	     0.89575	           0	  -0.0021024	           1	           0	3.85544e+006	    -43.6599	     45.4514	
 --	 --	 --	 --	 --	        78.9	    0.893247	     0.89575	           0	 -0.00250315	           1	           0	3.85544e+006	    -43.6599	     45.4514	
 --	 --	 --	 --	 --	        79.4	    0.893991	     0.89575	           0	  -0.0017594	           1	           0	3.85544e+006	    -43.6599	     45.4514	
 --	 --	 --	 --	 --	        79.9	    0.886189	     0.89575	           0	 -0.00956065	           1	           0	3.85544e+006	    -43.6599	     45.4514	
 --	 --	 --	 --	 --	        80.4	    0.891187	     0.89575	           0	  -0.0045629	           1	           0	3.85544e+006	    -43.6599	     45.4514	
 --	 --	 --	 --	 --	        80.9	    0.888307	     0.89575	           0	 -0.00744315	           1	           0	3.85544e+006	    -43.6599	     45.4514	
 --	 --	 --	 --	 --	        81.4	    0.892026	     0.89575	           0	 -0.00372415	           1	           0	3.85544e+006	    -43.6599	     45.4514	
 --	 --	 --	 --	 --	        81.9	    0.893838	     0.89575	           0	  -0.0019119	           1	           0	3.85544e+006	    -43.6599	     45.4514	
 --	 --	 --	 --	 --	        82.4	    0.887658	     0.89575	           0	 -0.00809165	           1	           0	3.85544e+006	    -43.6599	     45.4514	
 --	 --	 --	 --	 --	        82.9	    0.897938	     0.89575	           0	   0.0021886	           1	           0	3.85544e+006	    -43.6599	     45.4514	
 --	 --	 --	 --	 --	        83.4	    0.891835	     0.89575	           0	  -0.0039149	           1	           0	3.85544e+006	    -43.6599	     45.4514	
 --	 --	 --	 --	 --	        83.9	    0.895154	     0.89575	           0	-0.000595645	           1	           0	3.85544e+006	    -43.6599	     45.4514	
 --	 --	 --	 --	 --	        84.4	    0.893571	     0.89575	           0	 -0.00217915	           1	           0	3.85544e+006	    -43.6599	     45.4514	
 --	 --	 --	 --	 --	        84.9	    0.887467	     0.89575	           0	 -0.00828265	           1	           0	3.85544e+006	    -43.6599	     45.4514	
 --	 --	 --	 --	 --	        85.4	    0.888535	     0.89575	           0	  -0.0072144	           1	           0	3.85544e+006	    -43.6599	     45.4514	
 --	 --	 --	 --	 --	        85.9	    0.888688	     0.89575	           0	 -0.00706165	           1	           0	3.85544e+006	    -43.6599	     45.4514	
 --	 --	 --	 --	 --	        86.4	    0.893437	     0.89575	           0	 -0.00231265	           1	           0	3.85544e+006	    -43.6599	     45.4514	
 --	 --	 --	 --	 --	        86.9	    0.888783	     0.89575	           0	  -0.0069664	           1	           0	3.85544e+006	    -43.6599	     45.4514	
 --	 --	 --	 --	 --	        87.4	    0.886056	     0.89575	           0	  -0.0096939	           1	           0	3.85544e+006	    -43.6599	     45.4514	
 --	 --	 --	 --	 --	        87.9	    0.894677	     0.89575	           0	  -0.0010729	           1	           0	3.85544e+006	    -43.6599	     45.4514	
 --	 --	 --	 --	 --	        88.4	    0.889584	     0.89575	           0	  -0.0061654	           1	           0	3.85544e+006	    -43.6599	     45.4514	
 --	 --	 --	 --	 --	        88.9	    0.890176	     0.89575	           0	 -0.00557415	           1	           0	3.85544e+006	    -43.6599	     45.4514	
 --	 --	 --	 --	 --	        89.4	    0.891607	     0.89575	           0	  -0.0041434	           1	           0	3.85544e+006	    -43.6599	     45.4514	
 --	 --	 --	 --	 --	        89.9	    0.888097	     0.89575	           0	  -0.0076529	           1	           0	3.85544e+006	    -43.6599	     45.4514	
 --	 --	 --	 --	 --	        90.4	    0.889108	     0.89575	           0	 -0.00664215	           1	           0	3.85544e+006	    -43.6599	     45.4514	
 --	 --	 --	 --	 --	        90.9	     0.89462	     0.89575	           0	 -0.00113015	           1	           0	3.85544e+006	    -43.6599	     45.4514	
 --	 --	 --	 --	 --	        91.4	    0.889165	     0.89575	           0	  -0.0065849	           1	           0	3.85544e+006	    -43.6599	     45.4514	
 --	 --	 --	 --	 --	        91.9	    0.893247	     0.89575	           0	  -0.0025034	           1	           0	3.85544e+006	    -43.6599	     45.4514	
 --	 --	 --	 --	 --	        92.4	    0.890138	     0.89575	           0	  -0.0056124	           1	           0	3.85544e+006	    -43.6599	     45.4514	
 --	 --	 --	 --	 --	        92.9	    0.890977	     0.89575	           0	 -0.00477315	           1	           0	3.85544e+006	    -43.6599	     45.4514	
 --	 --	 --	 --	 --	        93.4	    0.896203	     0.89575	           0	 0.000453105	           1	           0	3.85544e+006	    -43.6599	     45.4514	
 --	 --	 --	 --	 --	        93.9	    0.892293	     0.89575	           0	  -0.0034569	           1	           0	3.85544e+006	    -43.6599	     45.4514	
 --	 --	 --	 --	 --	        94.4	    0.894334	     0.89575	           0	  -0.0014159	           1	           0	3.85544e+006	    -43.6599	     45.4514	
 --	 --	 --	 --	 --	        94.9	    0.886667	     0.89575	           0	  -0.0090834	           1	           0	3.85544e+006	    -43.6599	     45.4514	
 --	 --	 --	 --	 --	        95.4	    0.890576	     0.89575	           0	 -0.00517365	           1	           0	3.85544e+006	    -43.6599	     45.4514	
 --	 --	 --	 --	 --	        95.9	    0.891587	     0.89575	           0	 -0.00416265	           1	           0	3.85544e+006	    -43.6599	     45.4514	
 --	 --	 --	 --	 --	        96.4	    0.893819	     0.89575	           0	 -0.00193115	           1	           0	3.85544e+006	    -43.6599	     45.4514	
 --	 --	 --	 --	 --	        96.9	    0.889146	     0.89575	           0	 -0.00660415	           1	           0	3.85544e+006	    -43.6599	     45.4514	
 --	 --	 --	 --	 --	        97.4	    0.890195	     0.89575	           0	  -0.0055549	           1	           0	3.85544e+006	    -43.6599	     45.4514	
 --	 --	 --	 --	 --	        97.9	     0.89256	     0.89575	           0	  -0.0031899	           1	           0	3.85544e+006	    -43.6599	     45.4514	
 --	 --	 --	 --	 --	        98.4	    0.886838	     0.89575	           0	  -0.0089119	           1	           0	3.85544e+006	    -43.6599	     45.4514	
 --	 --	 --	 --	 --	        98.9	    0.891931	     0.89575	           0	  -0.0038194	           1	           0	3.85544e+006	    -43.6599	     45.4514	
 --	 --	 --	 --	 --	        99.4	    0.891015	     0.89575	           0	  -0.0047349	           1	           0	3.85544e+006	    -43.6599	     45.4514	
 --	 --	 --	 --	 --	        99.9	    0.892217	     0.89575	           0	  -0.0035334	           1	           0	3.85544e+006	    -43.6599	     45.4514	
 --	 --	 --	 --	 --	         100	    0.895459	     0.89575	           0	-0.000290895	           1	           0	3.85544e+006	    -43.6599	     45.4514	
