%!PS-Adobe-3.0 EPSF-3.0
%%BoundingBox: 0 0 514 550
%%Creator: BioKin Ltd.
%%DocumentFonts: Symbol Helvetica
%%EndComments
%
/bkdict 256 dict def
bkdict begin
/M {moveto} def 
/R {rmoveto} def
/L {lineto} def
/rL {rlineto} def
/GSN {gsave newpath} def
/SGR {stroke grestore} def
/COSGR {gsave setrgbcolor stroke grestore grestore} def
/SL {setlinewidth} def
/LWMB {12} def             % line width - model curves, black & white
/LWMC {10} def             % line width - model curves, color
/L2 {2.5 setlinewidth} def
/L5 {5 setlinewidth} def
/L10 {10 setlinewidth} def
/G50 {0.5 setgray} def
/SDA {[10  20] 0 setdash} def % axes
/helvT {/Helvetica findfont 100 scalefont setfont} def % tiny
/helvS {/Helvetica findfont 125 scalefont setfont} def % small
/helvM {/Helvetica findfont 150 scalefont setfont} def % medium
/helvL {/Helvetica findfont 175 scalefont setfont} def % large
/xlabel {gsave M dup
   stringwidth exch -0.5 mul exch rmoveto show grestore} def 
/ylabel {gsave M 90 rotate dup
   stringwidth exch -0.5 mul exch rmoveto show grestore} def
/ylabelresid {gsave M dup
   stringwidth exch -1 mul exch rmoveto show grestore} def
% ======
% Shapes
% ======
% Circle:
/Circ {0 360 arc closepath} def
%
% Square:
/Squa {dup dup -0.5 mul dup dup R -2 mul 0 exch rL 1 mul 0 rL dup 0 exch -1 mul rL closepath} def
%
% Triangle Up:
/TriU {dup dup dup -0.4 mul exch -0.5 mul exch R dup 0.5 mul exch rL dup -1 mul exch 0.5 mul exch rL closepath} def 
%
% Triangle Down:
/TriD {dup dup dup 0.4 mul exch -0.5 mul exch R dup 0.5 mul exch -1 mul rL dup 0.5 mul exch rL closepath} def 
%
% Diamond:
/Diam {45 rotate Squa} def
% ======
% Fills
% ======
/GRF {gsave setgray fill grestore} def                    % gray-level Fill
/COF {gsave setrgbcolor fill grestore} def                % color fill
% ======
% Colors
% ======
/C01 {1.00	0.00	0.00} def      % Red
/C02 {0.00	0.00	1.00} def      % Blue
/C03 {0.00	0.39	0.00} def      % Dark Green
/C04 {0.78	0.08	0.52} def      % Medium Violet Red
/C05 {0.55	0.27	0.07} def      % Saddle Brown
/C06 {0.10	0.70	0.70} def      % (cyan)
/C07 {1.00	0.55	0.00} def      % Dark Orange
/C08 {0.63	0.13	0.94} def      % Purple
/C09 {0.00	0.75	1.00} def      % Deep Sky Blue
/C10 {0.20	0.80	0.20} def      % Lime Green
/C11 {0.47	0.53	0.60} def      % Light Slate Gray
/C12 {0.00	0.00	0.00} def      % Black            % or: {0.19	0.31	0.31} def      % Dark Slate Gray
%
/LGR {0.75} def % light gray
/DGR {0.33} def % dark gray
%
% =============
% Dash patterns
% =============
/dash01 { [80  20] 0 setdash } def
/dash02 { [40  20] 0 setdash } def
/dash03 { [80  20  10  20] 0 setdash } def
/dash04 { [40  20  10  20] 0 setdash } def
/dash05 { [80  20  10  10  10  20] 0 setdash } def
/dash06 { [40  20  10  10  10  20] 0 setdash } def
/dash07 { [10  10] 0 setdash } def
%
/MFshow {
   { dup 5 get 3 ge
     { 5 get 3 eq {gsave} {grestore} ifelse }
     {dup dup 0 get findfont exch 1 get scalefont setfont
     [ currentpoint ] exch dup 2 get 0 exch R dup 5 get 2 ne {dup dup 6
     get exch 4 get {show} {stringwidth pop 0 R} ifelse }if dup 5 get 0 eq
     {dup 3 get {2 get neg 0 exch R pop} {pop aload pop M} ifelse} {dup 5
     get 1 eq {dup 2 get exch dup 3 get exch 6 get stringwidth pop -2 div
     dup 0 R} {dup 6 get stringwidth pop -2 div 0 R 6 get
     show 2 index {aload pop M neg 3 -1 roll neg R pop pop} {pop pop pop
     pop aload pop M} ifelse }ifelse }ifelse }
     ifelse }
   forall} bind def
/MFwidth {0 exch {dup 3 get{dup dup 0 get findfont exch 1 get scalefont
     setfont 6 get stringwidth pop add} {pop} ifelse} forall} bind def
/MCshow { currentpoint stroke M
  exch dup MFwidth -2 div 3 -1 roll R MFshow } def
%
end
%%EndProlog
bkdict begin
0.1 0.1 scale
%
% Residuals:
%
GSN 620 2547 M
620 2136 L
620 2552 L
620 3805 L
620 3797 L
620 3326 L
620 3307 L
620 3096 L
620 3177 L
620 3244 L
620 3101 L
620 3654 L
620 3064 L
620 3585 L
620 3656 L
620 3352 L
620 3318 L
620 3509 L
620 3307 L
620 3649 L
620 3469 L
620 3522 L
620 3810 L
620 4003 L
620 3217 L
620 3732 L
620 4403 L
620 3793 L
620 3941 L
620 3855 L
620 3768 L
620 3805 L
620 3467 L
620 4191 L
620 4019 L
620 3942 L
620 3576 L
620 4249 L
620 4212 L
620 3703 L
620 3825 L
620 3880 L
620 4014 L
620 3496 L
620 3377 L
620 4242 L
620 3780 L
620 3480 L
620 3648 L
620 4080 L
620 3160 L
620 3362 L
620 3824 L
620 4022 L
620 3524 L
620 4057 L
620 4052 L
620 3877 L
620 3407 L
620 4139 L
620 4512 L
620 4137 L
620 3435 L
620 3135 L
620 3859 L
620 3600 L
620 3600 L
620 3764 L
620 3936 L
620 3265 L
620 4462 L
620 3745 L
620 3637 L
620 3602 L
620 4026 L
620 3251 L
620 4448 L
620 4057 L
620 4328 L
620 3586 L
620 3887 L
620 3687 L
620 3699 L
620 3518 L
620 3418 L
620 3459 L
620 3572 L
620 4031 L
620 3277 L
620 3398 L
620 4052 L
620 3551 L
620 3667 L
620 3519 L
620 3494 L
620 3656 L
620 2758 L
620 3586 L
620 3386 L
620 3261 L
620 3452 L
620 3326 L
620 2670 L
620 3002 L
620 3789 L
620 2987 L
620 3376 L
620 3817 L
620 3128 L
620 3230 L
620 2761 L
620 2603 L
620 2917 L
620 2787 L
620 2926 L
620 2857 L
620 3062 L
620 2894 L
620 2885 L
620 3247 L
620 2620 L
620 2888 L
620 2974 L
620 2912 L
620 2588 L
620 2808 L
620 3434 L
620 2960 L
620 3093 L
620 2624 L
620 3183 L
620 3126 L
620 2765 L
620 2523 L
620 3940 L
620 3134 L
620 2733 L
620 2493 L
620 3098 L
620 3392 L
620 2760 L
620 2916 L
620 3712 L
620 3120 L
620 3239 L
620 3400 L
620 3029 L
620 3462 L
620 2763 L
620 2991 L
620 3452 L
620 3258 L
620 3362 L
620 2975 L
620 3473 L
620 3862 L
620 3098 L
620 3671 L
620 2959 L
620 3083 L
620 3492 L
620 2848 L
620 3609 L
620 3742 L
620 3360 L
620 3370 L
620 3127 L
620 3636 L
620 3417 L
620 2648 L
620 3138 L
620 3806 L
620 3461 L
620 2983 L
620 3007 L
620 3537 L
620 3645 L
620 2891 L
620 3528 L
620 3031 L
620 3284 L
620 3307 L
620 2748 L
620 3880 L
620 3302 L
620 3341 L
620 4276 L
620 3728 L
620 3860 L
620 3871 L
620 3839 L
620 3332 L
620 3436 L
620 3511 L
620 2551 L
620 3171 L
620 3744 L
620 3779 L
620 3161 L
620 3202 L
620 3785 L
620 3448 L
620 3614 L
620 3973 L
620 3338 L
620 3650 L
620 3406 L
620 3534 L
620 3401 L
620 3873 L
620 4005 L
620 3963 L
620 3443 L
620 3630 L
620 3254 L
620 3977 L
620 3344 L
620 3647 L
620 4092 L
620 3647 L
620 3806 L
620 3898 L
620 3570 L
620 3397 L
620 3594 L
620 4080 L
620 3956 L
620 3764 L
620 4076 L
620 3715 L
620 3280 L
620 3724 L
620 3425 L
620 3857 L
620 3637 L
620 3843 L
620 3912 L
620 4166 L
620 3683 L
620 3795 L
620 4039 L
620 3554 L
620 4021 L
620 3770 L
620 3802 L
620 3348 L
620 3118 L
620 4325 L
620 4187 L
620 4105 L
620 3987 L
620 3502 L
620 4208 L
620 3474 L
620 3991 L
620 4108 L
620 4247 L
620 4394 L
620 4033 L
620 3874 L
620 3894 L
620 3571 L
620 4026 L
620 3995 L
620 4189 L
620 4036 L
620 4339 L
620 3523 L
620 4243 L
620 3542 L
620 4358 L
620 3418 L
620 3600 L
620 3395 L
620 4236 L
620 3552 L
620 4143 L
620 3329 L
620 4027 L
620 4393 L
620 3972 L
620 4528 L
620 4442 L
620 4586 L
620 4071 L
620 3924 L
620 4627 L
620 4476 L
620 3454 L
620 4084 L
620 4176 L
620 4062 L
620 4388 L
620 4718 L
620 4277 L
620 4320 L
620 4333 L
620 4417 L
620 4382 L
620 4506 L
620 4323 L
620 3725 L
620 3795 L
620 3911 L
620 3987 L
620 4688 L
620 4140 L
620 4538 L
620 4296 L
620 4778 L
620 4620 L
620 4273 L
620 4735 L
620 4120 L
620 4780 L
620 4109 L
620 4799 L
620 4189 L
620 4581 L
620 4604 L
620 4092 L
620 4181 L
620 4251 L
620 4198 L
620 4487 L
620 3932 L
620 4734 L
620 4064 L
620 3631 L
620 4355 L
620 3388 L
620 4114 L
620 3942 L
620 4086 L
620 3572 L
620 4863 L
620 3421 L
620 3977 L
620 4126 L
620 4354 L
620 3810 L
620 4053 L
620 4218 L
620 4230 L
620 4306 L
620 4240 L
620 4116 L
620 3970 L
620 3339 L
620 3221 L
620 4279 L
620 4218 L
620 3922 L
620 3567 L
620 3828 L
620 4147 L
620 4066 L
620 4071 L
620 3965 L
620 4131 L
620 3914 L
620 4159 L
620 3674 L
620 3157 L
620 3673 L
620 3759 L
620 4116 L
620 3744 L
620 3653 L
620 4122 L
620 4670 L
620 3534 L
620 3797 L
620 3909 L
620 3997 L
620 3636 L
620 3390 L
620 3256 L
620 3524 L
620 4359 L
620 4147 L
620 3390 L
620 3626 L
620 3509 L
620 3420 L
620 3109 L
620 3926 L
620 3208 L
620 3408 L
620 3866 L
620 4122 L
620 3041 L
620 3607 L
620 3737 L
620 3306 L
620 3135 L
620 3613 L
620 3494 L
620 2900 L
620 3443 L
620 3142 L
620 3767 L
620 3919 L
620 3205 L
620 2912 L
620 3942 L
620 2867 L
620 3249 L
620 3767 L
620 3532 L
620 3299 L
620 3357 L
620 3302 L
620 3377 L
620 3742 L
620 3155 L
620 3008 L
620 3188 L
620 3390 L
620 3631 L
620 2856 L
620 3382 L
620 3084 L
620 3304 L
620 3220 L
620 3319 L
620 3324 L
620 2752 L
620 3967 L
620 3256 L
620 3345 L
620 3347 L
620 2403 L
620 3395 L
620 2982 L
620 3636 L
620 3119 L
620 3433 L
620 3365 L
620 3514 L
620 3375 L
620 3385 L
620 3433 L
620 2955 L
620 3400 L
620 2826 L
620 3024 L
620 3653 L
620 3053 L
620 3413 L
620 3489 L
620 3524 L
620 2983 L
620 2664 L
620 2965 L
620 2644 L
620 3307 L
620 3319 L
620 3046 L
620 2952 L
620 2902 L
620 2856 L
620 3011 L
620 3269 L
620 3127 L
620 2517 L
620 3091 L
620 3228 L
620 2990 L
620 2390 L
620 2742 L
620 3590 L
620 3259 L
620 3132 L
620 2598 L
620 2553 L
620 2813 L
620 2684 L
620 3221 L
620 2646 L
620 2522 L
620 3117 L
620 3023 L
620 3038 L
620 3636 L
620 2644 L
620 3266 L
620 3011 L
620 2414 L
620 2560 L
620 2977 L
620 3137 L
620 2839 L
620 2849 L
620 3099 L
620 3140 L
620 3668 L
620 3380 L
620 3575 L
620 2730 L
620 2846 L
620 3170 L
620 3226 L
620 2843 L
620 2990 L
620 2722 L
620 3329 L
620 2829 L
620 2945 L
620 3415 L
620 3527 L
620 2988 L
620 3162 L
620 3251 L
620 3158 L
620 2590 L
620 3109 L
620 3368 L
620 2760 L
620 3038 L
620 2983 L
620 3107 L
620 2567 L
620 3096 L
620 3177 L
620 3496 L
620 2813 L
620 3173 L
620 2679 L
620 3208 L
620 2945 L
620 3129 L
620 3076 L
L2 C03 COSGR

%
%================
% Legend - Begin
%================
%
GSN 4240 5180 M
4480 5180 L
LWMC SL  C03 COSGR
GSN 4540 5141 M helvM (1.5 uM) show grestore
%
%================
% Legend - End
%================
%

%
% Main frame
%
L10
GSN 
620 1700 M
4220 1700 L
4220 5300 L
620 5300 L
closepath SGR

%
% X axis: large tics
%
L10
%
% X axis: small tics
%
L5
%
% Y axis: large tics
%
L10
GSN 620 2212 M 54 0 rL SGR
GSN 4220 2212 M -54 0 rL SGR
helvS (-0.01) 560 2212 ylabel
GSN 620 3539 M 54 0 rL SGR
GSN 4220 3539 M -54 0 rL SGR
helvS (0) 560 3539 ylabel
GSN 620 4865 M 54 0 rL SGR
GSN 4220 4865 M -54 0 rL SGR
helvS (0.01) 560 4865 ylabel
%
% Y axis: small tics
%
L5
GSN 620 1880 M 36 0 rL SGR
GSN 4220 1880 M -36 0 rL SGR
GSN 620 2212 M 36 0 rL SGR
GSN 4220 2212 M -36 0 rL SGR
GSN 620 2543 M 36 0 rL SGR
GSN 4220 2543 M -36 0 rL SGR
GSN 620 2875 M 36 0 rL SGR
GSN 4220 2875 M -36 0 rL SGR
GSN 620 3207 M 36 0 rL SGR
GSN 4220 3207 M -36 0 rL SGR
GSN 620 3539 M 36 0 rL SGR
GSN 4220 3539 M -36 0 rL SGR
GSN 620 3870 M 36 0 rL SGR
GSN 4220 3870 M -36 0 rL SGR
GSN 620 4202 M 36 0 rL SGR
GSN 4220 4202 M -36 0 rL SGR
GSN 620 4534 M 36 0 rL SGR
GSN 4220 4534 M -36 0 rL SGR
GSN 620 4865 M 36 0 rL SGR
GSN 4220 4865 M -36 0 rL SGR
GSN 620 5197 M 36 0 rL SGR
GSN 4220 5197 M -36 0 rL SGR

%
% X axis - residual panel
%
GSN L5 620 3539 M 4220 3539 L SDA G50 SGR

%
% X-Axis label:
%
gsave 620 1370 M 
[
[(Helvetica) 180 0 true true 0 (t)]
[(Helvetica) 180 0 true true 0 (i)]
[(Helvetica) 180 0 true true 0 (m)]
[(Helvetica) 180 0 true true 0 (e)]
] 0 MCshow grestore

%
% Y-Axis label:
%
gsave 234 3500 M 
currentpoint gsave translate 90 rotate 0 0 moveto
[
[(Helvetica) 180 0 true true 0 (r)]
[(Helvetica) 180 0 true true 0 (e)]
[(Helvetica) 180 0 true true 0 (s)]
[(Helvetica) 180 0 true true 0 (i)]
[(Helvetica) 180 0 true true 0 (d)]
[(Helvetica) 180 0 true true 0 (u)]
[(Helvetica) 180 0 true true 0 (a)]
[(Helvetica) 180 0 true true 0 (l)]
[(Helvetica) 180 0 true true 0 (s)]
] 0 MCshow grestore

end
showpage
%%Trailer
%%EOF
