%!PS-Adobe-3.0 EPSF-3.0
%%BoundingBox: 0 0 514 550
%%Creator: BioKin Ltd.
%%DocumentFonts: Symbol Helvetica
%%EndComments
%
/bkdict 256 dict def
bkdict begin
/M {moveto} def 
/R {rmoveto} def
/L {lineto} def
/rL {rlineto} def
/GSN {gsave newpath} def
/SGR {stroke grestore} def
/COSGR {gsave setrgbcolor stroke grestore grestore} def
/SL {setlinewidth} def
/LWMB {12} def             % line width - model curves, black & white
/LWMC {10} def             % line width - model curves, color
/L2 {2.5 setlinewidth} def
/L5 {5 setlinewidth} def
/L10 {10 setlinewidth} def
/G50 {0.5 setgray} def
/SDA {[10  20] 0 setdash} def % axes
/helvT {/Helvetica findfont 100 scalefont setfont} def % tiny
/helvS {/Helvetica findfont 125 scalefont setfont} def % small
/helvM {/Helvetica findfont 150 scalefont setfont} def % medium
/helvL {/Helvetica findfont 175 scalefont setfont} def % large
/xlabel {gsave M dup
   stringwidth exch -0.5 mul exch rmoveto show grestore} def 
/ylabel {gsave M 90 rotate dup
   stringwidth exch -0.5 mul exch rmoveto show grestore} def
/ylabelresid {gsave M dup
   stringwidth exch -1 mul exch rmoveto show grestore} def
% ======
% Shapes
% ======
% Circle:
/Circ {0 360 arc closepath} def
%
% Square:
/Squa {dup dup -0.5 mul dup dup R -2 mul 0 exch rL 1 mul 0 rL dup 0 exch -1 mul rL closepath} def
%
% Triangle Up:
/TriU {dup dup dup -0.4 mul exch -0.5 mul exch R dup 0.5 mul exch rL dup -1 mul exch 0.5 mul exch rL closepath} def 
%
% Triangle Down:
/TriD {dup dup dup 0.4 mul exch -0.5 mul exch R dup 0.5 mul exch -1 mul rL dup 0.5 mul exch rL closepath} def 
%
% Diamond:
/Diam {45 rotate Squa} def
% ======
% Fills
% ======
/GRF {gsave setgray fill grestore} def                    % gray-level Fill
/COF {gsave setrgbcolor fill grestore} def                % color fill
% ======
% Colors
% ======
/C01 {1.00	0.00	0.00} def      % Red
/C02 {0.00	0.00	1.00} def      % Blue
/C03 {0.00	0.39	0.00} def      % Dark Green
/C04 {0.78	0.08	0.52} def      % Medium Violet Red
/C05 {0.55	0.27	0.07} def      % Saddle Brown
/C06 {0.10	0.70	0.70} def      % (cyan)
/C07 {1.00	0.55	0.00} def      % Dark Orange
/C08 {0.63	0.13	0.94} def      % Purple
/C09 {0.00	0.75	1.00} def      % Deep Sky Blue
/C10 {0.20	0.80	0.20} def      % Lime Green
/C11 {0.47	0.53	0.60} def      % Light Slate Gray
/C12 {0.00	0.00	0.00} def      % Black            % or: {0.19	0.31	0.31} def      % Dark Slate Gray
%
/LGR {0.75} def % light gray
/DGR {0.33} def % dark gray
%
% =============
% Dash patterns
% =============
/dash01 { [80  20] 0 setdash } def
/dash02 { [40  20] 0 setdash } def
/dash03 { [80  20  10  20] 0 setdash } def
/dash04 { [40  20  10  20] 0 setdash } def
/dash05 { [80  20  10  10  10  20] 0 setdash } def
/dash06 { [40  20  10  10  10  20] 0 setdash } def
/dash07 { [10  10] 0 setdash } def
%
/MFshow {
   { dup 5 get 3 ge
     { 5 get 3 eq {gsave} {grestore} ifelse }
     {dup dup 0 get findfont exch 1 get scalefont setfont
     [ currentpoint ] exch dup 2 get 0 exch R dup 5 get 2 ne {dup dup 6
     get exch 4 get {show} {stringwidth pop 0 R} ifelse }if dup 5 get 0 eq
     {dup 3 get {2 get neg 0 exch R pop} {pop aload pop M} ifelse} {dup 5
     get 1 eq {dup 2 get exch dup 3 get exch 6 get stringwidth pop -2 div
     dup 0 R} {dup 6 get stringwidth pop -2 div 0 R 6 get
     show 2 index {aload pop M neg 3 -1 roll neg R pop pop} {pop pop pop
     pop aload pop M} ifelse }ifelse }ifelse }
     ifelse }
   forall} bind def
/MFwidth {0 exch {dup 3 get{dup dup 0 get findfont exch 1 get scalefont
     setfont 6 get stringwidth pop add} {pop} ifelse} forall} bind def
/MCshow { currentpoint stroke M
  exch dup MFwidth -2 div 3 -1 roll R MFshow } def
%
end
%%EndProlog
bkdict begin
0.1 0.1 scale
%
% Residuals:
%
GSN 620 4137 M
620 3372 L
620 3586 L
620 4320 L
620 3997 L
620 3755 L
620 3855 L
620 3890 L
620 4033 L
620 3888 L
620 3984 L
620 3396 L
620 4509 L
620 3638 L
620 4079 L
620 4284 L
620 4178 L
620 4347 L
620 3626 L
620 3993 L
620 3844 L
620 3545 L
620 3732 L
620 3993 L
620 3560 L
620 4181 L
620 4537 L
620 4107 L
620 4439 L
620 3985 L
620 3708 L
620 3041 L
620 3473 L
620 3578 L
620 4164 L
620 4171 L
620 3833 L
620 3895 L
620 4124 L
620 4117 L
620 4425 L
620 4863 L
620 3611 L
620 3911 L
620 3214 L
620 3565 L
620 3296 L
620 3944 L
620 4001 L
620 3863 L
620 4086 L
620 4291 L
620 3349 L
620 2436 L
620 3012 L
620 3594 L
620 4003 L
620 4469 L
620 3669 L
620 3383 L
620 3109 L
620 4026 L
620 3053 L
620 3408 L
620 4072 L
620 3906 L
620 3068 L
620 3628 L
620 3592 L
620 3269 L
620 3192 L
620 3958 L
620 3480 L
620 3722 L
620 3221 L
620 3716 L
620 3758 L
620 3673 L
620 3503 L
620 3533 L
620 3712 L
620 3248 L
620 3218 L
620 3469 L
620 3741 L
620 3642 L
620 3765 L
620 3862 L
620 2982 L
620 3200 L
620 3382 L
620 4300 L
620 3171 L
620 2482 L
620 3888 L
620 3086 L
620 3640 L
620 2846 L
620 3627 L
620 3415 L
620 3093 L
620 2792 L
620 3487 L
620 3190 L
620 2136 L
620 3132 L
620 3244 L
620 2273 L
620 3386 L
620 2957 L
620 3559 L
620 2647 L
620 3665 L
620 3652 L
620 3448 L
620 3107 L
620 3148 L
620 3247 L
620 2897 L
620 3058 L
620 3281 L
620 3233 L
620 3186 L
620 2576 L
620 3020 L
620 2925 L
620 2550 L
620 2873 L
620 3383 L
620 2651 L
620 3162 L
620 2698 L
620 2750 L
620 2606 L
620 2967 L
620 2868 L
620 2730 L
620 2774 L
620 3225 L
620 2639 L
620 2997 L
620 2571 L
620 2694 L
620 2817 L
620 2717 L
620 2639 L
620 2538 L
620 2626 L
620 2571 L
620 2928 L
620 3130 L
620 2684 L
620 3110 L
620 3689 L
620 2704 L
620 2562 L
620 2620 L
620 3314 L
620 2919 L
620 2902 L
620 3750 L
620 3550 L
620 2478 L
620 3211 L
620 2684 L
620 3153 L
620 3148 L
620 3101 L
620 3186 L
620 3180 L
620 3460 L
620 2702 L
620 3670 L
620 3629 L
620 3284 L
620 3930 L
620 2193 L
620 2868 L
620 3479 L
620 2894 L
620 3059 L
620 3097 L
620 3073 L
620 3295 L
620 2296 L
620 3355 L
620 3605 L
620 4658 L
620 3149 L
620 4327 L
620 2589 L
620 3745 L
620 3485 L
620 2629 L
620 3418 L
620 3576 L
620 3483 L
620 2839 L
620 3473 L
620 3035 L
620 3142 L
620 3186 L
620 3436 L
620 3560 L
620 2887 L
620 3040 L
620 3009 L
620 3803 L
620 3612 L
620 2882 L
620 3607 L
620 3330 L
620 3649 L
620 4116 L
620 3862 L
620 3745 L
620 3817 L
620 3832 L
620 4271 L
620 3466 L
620 3607 L
620 4178 L
620 3906 L
620 3291 L
620 3380 L
620 3957 L
620 3203 L
620 4026 L
620 2809 L
620 3356 L
620 3778 L
620 4160 L
620 4084 L
620 3726 L
620 3660 L
620 3372 L
620 3363 L
620 3556 L
620 3347 L
620 3775 L
620 3228 L
620 3174 L
620 3138 L
620 3577 L
620 3442 L
620 3428 L
620 3592 L
620 3172 L
620 3662 L
620 4095 L
620 3870 L
620 3122 L
620 4169 L
620 4401 L
620 3797 L
620 3354 L
620 3197 L
620 3579 L
620 3571 L
620 3145 L
620 2874 L
620 3249 L
620 2800 L
620 3107 L
620 4543 L
620 4106 L
620 3640 L
620 3723 L
620 4443 L
620 4315 L
620 3665 L
620 2895 L
620 2951 L
620 4243 L
620 4436 L
620 3695 L
620 4410 L
620 4023 L
620 3093 L
620 3693 L
620 3215 L
620 3454 L
620 3814 L
620 3629 L
620 3341 L
620 4036 L
620 3189 L
620 3886 L
620 4121 L
620 3810 L
620 3581 L
620 3988 L
620 4049 L
620 3881 L
620 4213 L
620 4345 L
620 3521 L
620 3787 L
620 3462 L
620 4021 L
620 3011 L
620 3409 L
620 3425 L
620 3515 L
620 4081 L
620 3467 L
620 3884 L
620 4445 L
620 3619 L
620 3705 L
620 3613 L
620 4007 L
620 3342 L
620 3491 L
620 3629 L
620 3657 L
620 3571 L
620 3610 L
620 3966 L
620 3095 L
620 4384 L
620 4544 L
620 3409 L
620 3971 L
620 2750 L
620 3627 L
620 4332 L
620 3255 L
620 2991 L
620 3455 L
620 3885 L
620 4435 L
620 3576 L
620 3014 L
620 3541 L
620 3633 L
620 4131 L
620 3415 L
620 3558 L
620 3369 L
620 3180 L
620 3976 L
620 3661 L
620 3277 L
620 3874 L
620 3495 L
620 3730 L
620 4212 L
620 3386 L
620 3151 L
620 4040 L
620 3868 L
620 3088 L
620 3111 L
620 3529 L
620 3025 L
620 3455 L
620 3644 L
620 3432 L
620 4504 L
620 2934 L
620 3845 L
620 3839 L
620 4372 L
620 3266 L
620 3466 L
620 3294 L
620 3742 L
620 2962 L
620 3450 L
620 3254 L
620 3335 L
620 3799 L
620 2997 L
620 3999 L
620 4154 L
620 3610 L
620 3214 L
620 2985 L
620 3925 L
620 3621 L
620 3896 L
620 2870 L
620 3455 L
620 3650 L
620 3444 L
620 3650 L
620 3312 L
620 4028 L
620 3392 L
620 3707 L
620 3507 L
620 3621 L
620 3638 L
620 3472 L
620 3524 L
620 4005 L
620 3089 L
620 3380 L
620 3736 L
620 3902 L
620 3140 L
620 3959 L
620 3593 L
620 4240 L
620 2922 L
620 4028 L
620 3724 L
620 3512 L
620 3243 L
620 3541 L
620 3599 L
620 3954 L
620 3902 L
620 2893 L
620 3111 L
620 3483 L
620 3203 L
620 3599 L
620 3971 L
620 2888 L
620 3100 L
620 3128 L
620 3816 L
620 2710 L
620 3340 L
620 3037 L
620 3415 L
620 3553 L
620 3753 L
620 3890 L
620 3656 L
620 3300 L
620 3771 L
620 3770 L
620 3747 L
620 3616 L
620 3398 L
620 2601 L
620 3220 L
620 4251 L
620 3999 L
620 3444 L
620 3690 L
620 3977 L
620 2704 L
620 3804 L
620 3741 L
620 2928 L
620 3587 L
620 2773 L
620 3403 L
620 3965 L
620 4126 L
620 3249 L
620 4280 L
620 3025 L
620 3598 L
620 3552 L
620 4217 L
620 2945 L
620 4045 L
620 3965 L
620 3604 L
620 3358 L
620 3483 L
620 3369 L
620 4223 L
620 3352 L
620 3667 L
620 4040 L
620 3461 L
620 3592 L
620 3444 L
620 4292 L
620 3438 L
620 3134 L
620 4028 L
620 3782 L
620 3925 L
620 3117 L
620 3856 L
620 3747 L
620 4108 L
620 4251 L
620 3970 L
620 3529 L
620 3810 L
620 3581 L
620 3822 L
620 4607 L
620 3696 L
620 3971 L
620 3415 L
620 3925 L
620 3495 L
620 3747 L
620 3724 L
620 3868 L
620 3255 L
620 3426 L
620 2985 L
620 3914 L
620 4584 L
620 2682 L
620 4229 L
620 3587 L
620 3397 L
620 3982 L
620 4125 L
620 3501 L
620 4274 L
620 3994 L
620 3398 L
620 3702 L
620 3638 L
620 3736 L
620 4205 L
620 3942 L
620 3570 L
620 4744 L
620 3598 L
620 3662 L
620 4051 L
620 3959 L
620 3048 L
620 3702 L
620 2859 L
620 3478 L
620 3816 L
620 4017 L
620 3415 L
620 3931 L
L2 C01 COSGR

%
%================
% Legend - Begin
%================
%
GSN 4240 5180 M
4480 5180 L
LWMC SL  C01 COSGR
GSN 4540 5141 M helvM (0.5 uM) show grestore
%
%================
% Legend - End
%================
%

%
% Main frame
%
L10
GSN 
620 1700 M
4220 1700 L
4220 5300 L
620 5300 L
closepath SGR

%
% X axis: large tics
%
L10
%
% X axis: small tics
%
L5
%
% Y axis: large tics
%
L10
GSN 620 2406 M 54 0 rL SGR
GSN 4220 2406 M -54 0 rL SGR
helvS (-0.01) 560 2406 ylabel
GSN 620 3533 M 54 0 rL SGR
GSN 4220 3533 M -54 0 rL SGR
helvS (0) 560 3533 ylabel
GSN 620 4660 M 54 0 rL SGR
GSN 4220 4660 M -54 0 rL SGR
helvS (0.01) 560 4660 ylabel
%
% Y axis: small tics
%
L5
GSN 620 1843 M 36 0 rL SGR
GSN 4220 1843 M -36 0 rL SGR
GSN 620 2125 M 36 0 rL SGR
GSN 4220 2125 M -36 0 rL SGR
GSN 620 2406 M 36 0 rL SGR
GSN 4220 2406 M -36 0 rL SGR
GSN 620 2688 M 36 0 rL SGR
GSN 4220 2688 M -36 0 rL SGR
GSN 620 2970 M 36 0 rL SGR
GSN 4220 2970 M -36 0 rL SGR
GSN 620 3251 M 36 0 rL SGR
GSN 4220 3251 M -36 0 rL SGR
GSN 620 3533 M 36 0 rL SGR
GSN 4220 3533 M -36 0 rL SGR
GSN 620 3815 M 36 0 rL SGR
GSN 4220 3815 M -36 0 rL SGR
GSN 620 4096 M 36 0 rL SGR
GSN 4220 4096 M -36 0 rL SGR
GSN 620 4378 M 36 0 rL SGR
GSN 4220 4378 M -36 0 rL SGR
GSN 620 4660 M 36 0 rL SGR
GSN 4220 4660 M -36 0 rL SGR
GSN 620 4941 M 36 0 rL SGR
GSN 4220 4941 M -36 0 rL SGR
GSN 620 5223 M 36 0 rL SGR
GSN 4220 5223 M -36 0 rL SGR

%
% X axis - residual panel
%
GSN L5 620 3533 M 4220 3533 L SDA G50 SGR

%
% X-Axis label:
%
gsave 620 1370 M 
[
[(Helvetica) 180 0 true true 0 (t)]
[(Helvetica) 180 0 true true 0 (i)]
[(Helvetica) 180 0 true true 0 (m)]
[(Helvetica) 180 0 true true 0 (e)]
] 0 MCshow grestore

%
% Y-Axis label:
%
gsave 234 3500 M 
currentpoint gsave translate 90 rotate 0 0 moveto
[
[(Helvetica) 180 0 true true 0 (r)]
[(Helvetica) 180 0 true true 0 (e)]
[(Helvetica) 180 0 true true 0 (s)]
[(Helvetica) 180 0 true true 0 (i)]
[(Helvetica) 180 0 true true 0 (d)]
[(Helvetica) 180 0 true true 0 (u)]
[(Helvetica) 180 0 true true 0 (a)]
[(Helvetica) 180 0 true true 0 (l)]
[(Helvetica) 180 0 true true 0 (s)]
] 0 MCshow grestore

end
showpage
%%Trailer
%%EOF
