%!PS-Adobe-3.0 EPSF-3.0
%%BoundingBox: 0 0 514 550
%%Creator: BioKin Ltd.
%%DocumentFonts: Symbol Helvetica
%%EndComments
%
/bkdict 256 dict def
bkdict begin
/M {moveto} def 
/R {rmoveto} def
/L {lineto} def
/rL {rlineto} def
/GSN {gsave newpath} def
/SGR {stroke grestore} def
/COSGR {gsave setrgbcolor stroke grestore grestore} def
/SL {setlinewidth} def
/LWMB {12} def             % line width - model curves, black & white
/LWMC {10} def             % line width - model curves, color
/L2 {2.5 setlinewidth} def
/L5 {5 setlinewidth} def
/L10 {10 setlinewidth} def
/G50 {0.5 setgray} def
/SDA {[10  20] 0 setdash} def % axes
/helvT {/Helvetica findfont 100 scalefont setfont} def % tiny
/helvS {/Helvetica findfont 125 scalefont setfont} def % small
/helvM {/Helvetica findfont 150 scalefont setfont} def % medium
/helvL {/Helvetica findfont 175 scalefont setfont} def % large
/xlabel {gsave M dup
   stringwidth exch -0.5 mul exch rmoveto show grestore} def 
/ylabel {gsave M 90 rotate dup
   stringwidth exch -0.5 mul exch rmoveto show grestore} def
/ylabelresid {gsave M dup
   stringwidth exch -1 mul exch rmoveto show grestore} def
% ======
% Shapes
% ======
% Circle:
/Circ {0 360 arc closepath} def
%
% Square:
/Squa {dup dup -0.5 mul dup dup R -2 mul 0 exch rL 1 mul 0 rL dup 0 exch -1 mul rL closepath} def
%
% Triangle Up:
/TriU {dup dup dup -0.4 mul exch -0.5 mul exch R dup 0.5 mul exch rL dup -1 mul exch 0.5 mul exch rL closepath} def 
%
% Triangle Down:
/TriD {dup dup dup 0.4 mul exch -0.5 mul exch R dup 0.5 mul exch -1 mul rL dup 0.5 mul exch rL closepath} def 
%
% Diamond:
/Diam {45 rotate Squa} def
% ======
% Fills
% ======
/GRF {gsave setgray fill grestore} def                    % gray-level Fill
/COF {gsave setrgbcolor fill grestore} def                % color fill
% ======
% Colors
% ======
/C01 {1.00	0.00	0.00} def      % Red
/C02 {0.00	0.00	1.00} def      % Blue
/C03 {0.00	0.39	0.00} def      % Dark Green
/C04 {0.78	0.08	0.52} def      % Medium Violet Red
/C05 {0.55	0.27	0.07} def      % Saddle Brown
/C06 {0.10	0.70	0.70} def      % (cyan)
/C07 {1.00	0.55	0.00} def      % Dark Orange
/C08 {0.63	0.13	0.94} def      % Purple
/C09 {0.00	0.75	1.00} def      % Deep Sky Blue
/C10 {0.20	0.80	0.20} def      % Lime Green
/C11 {0.47	0.53	0.60} def      % Light Slate Gray
/C12 {0.00	0.00	0.00} def      % Black            % or: {0.19	0.31	0.31} def      % Dark Slate Gray
%
/LGR {0.75} def % light gray
/DGR {0.33} def % dark gray
%
% =============
% Dash patterns
% =============
/dash01 { [80  20] 0 setdash } def
/dash02 { [40  20] 0 setdash } def
/dash03 { [80  20  10  20] 0 setdash } def
/dash04 { [40  20  10  20] 0 setdash } def
/dash05 { [80  20  10  10  10  20] 0 setdash } def
/dash06 { [40  20  10  10  10  20] 0 setdash } def
/dash07 { [10  10] 0 setdash } def
%
/MFshow {
   { dup 5 get 3 ge
     { 5 get 3 eq {gsave} {grestore} ifelse }
     {dup dup 0 get findfont exch 1 get scalefont setfont
     [ currentpoint ] exch dup 2 get 0 exch R dup 5 get 2 ne {dup dup 6
     get exch 4 get {show} {stringwidth pop 0 R} ifelse }if dup 5 get 0 eq
     {dup 3 get {2 get neg 0 exch R pop} {pop aload pop M} ifelse} {dup 5
     get 1 eq {dup 2 get exch dup 3 get exch 6 get stringwidth pop -2 div
     dup 0 R} {dup 6 get stringwidth pop -2 div 0 R 6 get
     show 2 index {aload pop M neg 3 -1 roll neg R pop pop} {pop pop pop
     pop aload pop M} ifelse }ifelse }ifelse }
     ifelse }
   forall} bind def
/MFwidth {0 exch {dup 3 get{dup dup 0 get findfont exch 1 get scalefont
     setfont 6 get stringwidth pop add} {pop} ifelse} forall} bind def
/MCshow { currentpoint stroke M
  exch dup MFwidth -2 div 3 -1 roll R MFshow } def
%
end
%%EndProlog
bkdict begin
0.1 0.1 scale
%
% Model curves:
%

GSN 753 5166 M
753 5166 L
786 5052 L
820 4933 L
853 4809 L
886 4682 L
920 4552 L
929 4513 L
953 4421 L
986 4291 L
1020 4162 L
1053 4036 L
1086 3914 L
1106 3843 L
1120 3796 L
1153 3684 L
1186 3577 L
1220 3477 L
1253 3383 L
1282 3306 L
1286 3296 L
1319 3216 L
1353 3142 L
1386 3074 L
1419 3013 L
1453 2957 L
1459 2947 L
1486 2907 L
1519 2861 L
1553 2820 L
1586 2784 L
1619 2751 L
1635 2737 L
1653 2722 L
1686 2696 L
1719 2673 L
1753 2652 L
1786 2634 L
1812 2622 L
1819 2618 L
1853 2604 L
1886 2591 L
1919 2580 L
1953 2571 L
1986 2562 L
1988 2562 L
2019 2555 L
2053 2548 L
2086 2542 L
2119 2537 L
2153 2532 L
2165 2531 L
2186 2528 L
2219 2525 L
2253 2522 L
2286 2519 L
2319 2517 L
2341 2515 L
2353 2515 L
2386 2513 L
2419 2511 L
2453 2510 L
2486 2509 L
2518 2507 L
2519 2507 L
2553 2506 L
2586 2506 L
2619 2505 L
2653 2504 L
2686 2504 L
2694 2504 L
2719 2503 L
2753 2503 L
2786 2502 L
2819 2502 L
2853 2502 L
2871 2502 L
2886 2502 L
2919 2501 L
2953 2501 L
2986 2501 L
3019 2501 L
3047 2501 L
3053 2501 L
3086 2501 L
3119 2500 L
3153 2500 L
3186 2500 L
3219 2500 L
3224 2500 L
3253 2500 L
3286 2500 L
3319 2500 L
3353 2500 L
3386 2500 L
3400 2500 L
3419 2500 L
3453 2500 L
3476 2500 L
3486 2500 L
3519 2500 L
3553 2500 L
3577 2500 L
3586 2500 L
3619 2500 L
3653 2500 L
3686 2500 L
3719 2500 L
3753 2500 L
3754 2500 L
3786 2500 L
3819 2500 L
3853 2500 L
3886 2500 L
3919 2500 L
3930 2500 L
3953 2500 L
3986 2500 L
4019 2500 L
4053 2500 L
4086 2500 L
4086 2500 L
LWMC SL  C02 COSGR

%
% Experimental data:
%
GSN 777 3651 M
1388 4025 L
1552 3875 L
1652 3553 L
1723 3415 L
1778 3466 L
1824 3752 L
1863 3610 L
1896 3665 L
1926 3659 L
1952 3766 L
1976 3704 L
1998 3814 L
2019 3618 L
2037 3549 L
2055 3612 L
2071 3720 L
2086 3595 L
2101 3684 L
2115 3802 L
2128 3817 L
2140 3710 L
2152 3610 L
2163 3675 L
2174 3726 L
2184 3656 L
2194 3723 L
2204 3674 L
2213 3524 L
2222 3781 L
2230 3697 L
2239 3727 L
2247 3761 L
2255 3594 L
2262 3488 L
2270 3684 L
2277 3625 L
2284 3479 L
2290 3689 L
2297 3622 L
2303 3577 L
2310 3641 L
2316 3670 L
2322 3653 L
2328 3551 L
2333 3486 L
2339 3565 L
2344 3737 L
2350 3636 L
2355 3676 L
2360 3596 L
2365 3662 L
2370 3520 L
2375 3595 L
2380 3658 L
2384 3533 L
2389 3502 L
2393 3543 L
2398 3572 L
2402 3590 L
2407 3678 L
2411 3520 L
2415 3522 L
2419 3363 L
2423 3598 L
2427 3493 L
2431 3532 L
2435 3467 L
2438 3539 L
2442 3532 L
2446 3540 L
2449 3368 L
2453 3545 L
2456 3560 L
2460 3649 L
2463 3513 L
2467 3510 L
2470 3474 L
2473 3349 L
2476 3406 L
2480 3516 L
2483 3520 L
2486 3620 L
2489 3596 L
2492 3438 L
2495 3457 L
2498 3495 L
2501 3490 L
2504 3427 L
2507 3537 L
2510 3404 L
2512 3330 L
2515 3392 L
2518 3357 L
2521 3403 L
2523 3407 L
2526 3553 L
2529 3432 L
2531 3353 L
2534 3492 L
2536 3295 L
2539 3369 L
2541 3390 L
2544 3457 L
2546 3424 L
2549 3319 L
2551 3337 L
2554 3351 L
2556 3418 L
2558 3527 L
2561 3439 L
2563 3364 L
2565 3220 L
2568 3360 L
2570 3348 L
2572 3332 L
2574 3293 L
2576 3662 L
2579 3395 L
2581 3446 L
2583 3266 L
2585 3450 L
2587 3335 L
2589 3321 L
2591 3459 L
2593 3443 L
2595 3408 L
2597 3294 L
2599 3386 L
2601 3453 L
2603 3338 L
2605 3220 L
2607 3229 L
2609 3285 L
2611 3353 L
2613 3351 L
2615 3435 L
2617 3329 L
2618 3340 L
2620 3308 L
2622 3301 L
2624 3276 L
2626 3264 L
2627 3291 L
2629 3149 L
2631 3357 L
2633 3421 L
2634 3248 L
2636 3345 L
2638 3186 L
2640 3295 L
2641 3347 L
2643 3170 L
2645 3317 L
2646 3181 L
2648 3146 L
2650 3263 L
2651 3284 L
2653 3319 L
2654 3281 L
2656 3315 L
2658 3169 L
2659 3298 L
2661 3215 L
2662 3109 L
2664 3128 L
2665 3340 L
2667 3213 L
2668 3293 L
2670 3374 L
2671 3345 L
2673 3151 L
2674 3389 L
2676 3269 L
2677 3231 L
2679 3338 L
2680 3212 L
2682 3106 L
2683 3144 L
2685 3188 L
2686 3105 L
2687 3117 L
2689 3050 L
2690 3319 L
2692 3239 L
2693 3326 L
2694 3243 L
2696 3187 L
2697 3214 L
2698 3272 L
2700 2989 L
2701 3116 L
2702 3241 L
2704 3144 L
2705 3238 L
2706 3330 L
2708 3175 L
2709 3153 L
2710 3199 L
2712 3125 L
2713 3189 L
2714 3223 L
2715 3217 L
2717 3103 L
2718 3242 L
2719 3268 L
2720 3037 L
2722 3153 L
2723 3200 L
2724 3229 L
2725 3089 L
2726 3255 L
2728 3153 L
2729 3139 L
2730 3238 L
2731 3242 L
2732 2996 L
2734 3060 L
2735 3280 L
2736 3241 L
2737 3213 L
2738 3032 L
2739 3112 L
2741 3142 L
2742 3178 L
2743 3094 L
2744 3223 L
2745 3245 L
2746 3030 L
2747 3004 L
2748 3074 L
2749 3052 L
2751 2989 L
2752 3143 L
2753 3094 L
2754 3100 L
2755 3060 L
2756 3142 L
2757 3095 L
2758 3080 L
2759 3190 L
2760 3182 L
2761 2964 L
2762 2972 L
2763 2980 L
2764 3119 L
2765 3108 L
2767 3186 L
2768 3041 L
2769 3142 L
2770 3088 L
2771 3112 L
2772 3241 L
2773 2837 L
2774 3040 L
2775 3173 L
2776 3083 L
2777 2906 L
2778 2975 L
2779 3111 L
2780 3059 L
2781 2963 L
2782 3133 L
2783 3011 L
2783 3023 L
2784 3045 L
2785 3101 L
2786 3008 L
2787 3144 L
2788 3163 L
2789 3052 L
2790 3066 L
2791 3058 L
2792 3006 L
2793 3001 L
2794 3065 L
2795 3080 L
2796 3040 L
2797 2973 L
2798 3112 L
2798 2990 L
2799 2978 L
2800 2877 L
2801 3064 L
2802 3068 L
2803 3116 L
2804 2890 L
2805 3006 L
2806 3207 L
2807 3004 L
2807 3063 L
2808 2840 L
2809 2820 L
2810 2846 L
2811 2994 L
2812 2949 L
2813 2967 L
2813 2980 L
2814 3092 L
2815 2928 L
2816 2933 L
2817 2949 L
2818 3051 L
2819 2830 L
2819 2960 L
2820 3143 L
2821 2989 L
2822 2846 L
2823 2996 L
2824 3031 L
2824 2876 L
2825 2937 L
2826 2891 L
2827 2943 L
2828 2873 L
2828 3089 L
2829 2990 L
2830 2815 L
2831 2903 L
2832 2930 L
2832 2880 L
2833 2829 L
2834 2907 L
2835 2860 L
2836 2873 L
2836 3030 L
2837 3040 L
2838 2929 L
2839 2819 L
2840 2972 L
2840 2789 L
2841 2876 L
2842 3048 L
2843 2819 L
2843 3074 L
2844 2924 L
2845 3092 L
2846 3080 L
2846 2842 L
2847 2895 L
2848 2763 L
2849 2899 L
2849 2943 L
2850 3110 L
2851 2741 L
2852 2918 L
2852 2870 L
2853 2837 L
2854 2853 L
2855 2776 L
2855 2932 L
2856 2715 L
2857 3063 L
2857 2814 L
2858 2928 L
2859 2832 L
2860 2874 L
2860 2967 L
2861 3094 L
2862 2836 L
2862 2814 L
2863 3087 L
2864 2845 L
2865 2883 L
2865 2903 L
2866 2952 L
2867 2877 L
2867 2886 L
2868 2870 L
2869 2911 L
2869 2718 L
2870 2899 L
2871 2883 L
2871 2759 L
2872 2891 L
2873 2702 L
2873 2740 L
2874 2934 L
2875 2818 L
2876 2837 L
2876 2943 L
2877 2784 L
2878 2863 L
2878 2789 L
2879 2933 L
2880 2718 L
2880 2785 L
2881 2946 L
2881 2697 L
2882 2915 L
2883 2718 L
2883 2763 L
2884 2857 L
2885 2820 L
2885 2965 L
2886 2804 L
2887 2814 L
2887 2756 L
2888 2705 L
2889 2883 L
2889 2945 L
2892 2734 L
2894 2807 L
2897 2793 L
2899 2774 L
2902 2655 L
2904 2735 L
2907 2962 L
2909 2724 L
2911 2771 L
2914 2633 L
2916 2805 L
2918 2736 L
2921 2702 L
2923 2638 L
2925 2730 L
2927 2796 L
2929 2833 L
2932 2654 L
2934 2693 L
2936 2711 L
2938 2572 L
2940 2721 L
2942 2774 L
2944 2571 L
2946 2672 L
2948 2799 L
2950 2578 L
2952 2566 L
2954 2699 L
2956 2724 L
2958 2526 L
2960 2530 L
2962 2759 L
2964 2547 L
2966 2671 L
2968 2569 L
2970 2595 L
2971 2667 L
2973 2460 L
2975 2529 L
2977 2731 L
2979 2497 L
2980 2597 L
2982 2575 L
2984 2481 L
2986 2664 L
2987 2521 L
2989 2484 L
2991 2462 L
2993 2422 L
2994 2570 L
2996 2462 L
2998 2348 L
2999 2567 L
3001 2493 L
3003 2419 L
3004 2303 L
3006 2657 L
3007 2618 L
3009 2516 L
3011 2594 L
3012 2574 L
3014 2378 L
3015 2535 L
3017 2536 L
3018 2438 L
3020 2579 L
3021 2439 L
3023 2596 L
3024 2304 L
3026 2532 L
3027 2531 L
3029 2342 L
3030 2314 L
3032 2365 L
3033 2470 L
3035 2466 L
3036 2412 L
3038 2613 L
3039 2526 L
3040 2502 L
3042 2390 L
3043 2448 L
3045 2427 L
3046 2454 L
3047 2456 L
3049 2492 L
3050 2395 L
3051 2488 L
3053 2258 L
3054 2355 L
3055 2550 L
3057 2282 L
3058 2450 L
3059 2544 L
3061 2427 L
3062 2431 L
3063 2321 L
3065 2226 L
3066 2486 L
3067 2355 L
3068 2384 L
3070 2290 L
3071 2420 L
3072 2410 L
3073 2317 L
3075 2350 L
3076 2369 L
3077 2422 L
3078 2416 L
3079 2316 L
3081 2360 L
3082 2216 L
3083 2334 L
3084 2360 L
3085 2297 L
3087 2297 L
3088 2358 L
3089 2327 L
3090 2387 L
3091 2260 L
3092 2259 L
3094 2323 L
3095 2250 L
3096 2266 L
3097 2373 L
3098 2235 L
3099 2524 L
3100 2184 L
3101 2132 L
3103 2478 L
3104 2142 L
3105 2291 L
3106 2342 L
3107 2247 L
3108 2309 L
3109 2325 L
3110 2422 L
3111 2269 L
3112 2192 L
3113 2245 L
3114 2371 L
3115 2342 L
3116 2273 L
3117 2341 L
3119 2182 L
3120 2228 L
3121 2320 L
3122 2256 L
3123 2332 L
3124 2263 L
3125 2362 L
3126 2274 L
3127 2128 L
3128 2349 L
3129 2167 L
3130 2161 L
3131 2411 L
3132 2061 L
3133 2295 L
3134 2256 L
3135 2115 L
3136 2258 L
3136 2243 L
3137 2178 L
3138 2181 L
3139 2241 L
3140 2268 L
3141 2074 L
3142 2170 L
3143 2126 L
3144 2269 L
3145 2355 L
3146 2286 L
3147 2324 L
3148 2142 L
3149 2074 L
3150 2244 L
3151 2207 L
3151 2089 L
3152 2134 L
3153 2100 L
3154 2226 L
3155 2045 L
3156 2248 L
3157 2340 L
3158 2279 L
3159 2160 L
3160 2209 L
3160 2003 L
3161 2148 L
3162 2121 L
3163 2211 L
3164 2189 L
3165 2282 L
3166 2163 L
3166 2110 L
3167 2243 L
3168 2225 L
3169 2079 L
3170 2211 L
3171 2186 L
3172 2310 L
3172 2150 L
3173 2095 L
3174 2086 L
3175 2073 L
3176 2167 L
3177 2215 L
3177 2146 L
3178 2182 L
3179 2142 L
3180 2138 L
3181 2204 L
3181 2309 L
3182 2229 L
3183 2013 L
3184 2261 L
3185 2207 L
3185 2165 L
3186 2290 L
3187 2056 L
3188 2204 L
3189 2191 L
3189 2347 L
3190 2245 L
3191 2133 L
3192 2041 L
3193 2164 L
3193 2314 L
3194 2068 L
3195 2139 L
3196 2166 L
3196 2072 L
3197 2006 L
3198 2226 L
3199 2021 L
3199 1989 L
3200 2234 L
3201 2178 L
3202 2085 L
3202 2151 L
3203 2164 L
3204 2161 L
3205 2015 L
3205 2303 L
3206 2122 L
3207 2092 L
3208 2068 L
3208 2198 L
3209 2151 L
3210 2090 L
3210 2202 L
3211 2055 L
3212 2137 L
3213 2147 L
3213 2160 L
3214 2174 L
3215 2220 L
3215 2061 L
3216 2090 L
3217 2164 L
3218 2113 L
3218 1960 L
3219 1886 L
3220 2222 L
3220 2124 L
3221 2106 L
3222 2096 L
3222 2210 L
3223 2039 L
3224 2238 L
3224 2029 L
3225 2147 L
3226 2043 L
3227 2039 L
3227 2038 L
3228 2044 L
3229 2157 L
3229 2085 L
3230 2006 L
3231 2130 L
3231 2150 L
3232 2079 L
3233 2204 L
3233 2087 L
3234 2049 L
3235 2239 L
3235 2032 L
3236 2265 L
3236 2156 L
3237 2080 L
3238 2140 L
3238 2054 L
3239 2107 L
3240 2188 L
3240 2084 L
3241 2119 L
3242 2093 L
3242 2112 L
3243 2098 L
3244 2050 L
3244 2082 L
3245 2151 L
3245 1977 L
3246 2064 L
3247 2003 L
3247 1916 L
3248 2148 L
3249 2002 L
3249 2158 L
3250 2170 L
3250 2019 L
3251 2077 L
3252 1982 L
3252 2198 L
3253 1997 L
3253 2225 L
3254 2135 L
3255 2096 L
3255 2084 L
3256 2172 L
3257 2115 L
3257 2177 L
3258 2123 L
3258 2123 L
3259 2063 L
3259 1976 L
3260 2053 L
3261 2191 L
3261 2151 L
3262 2069 L
3262 2020 L
3263 2132 L
3264 2064 L
3264 2120 L
3265 2190 L
3265 2172 L
3266 2103 L
3267 2204 L
3267 2080 L
3268 2138 L
3268 2135 L
3269 2177 L
3269 2110 L
3270 2160 L
3271 2077 L
3271 2155 L
3272 2007 L
3272 2074 L
3273 2008 L
3273 2248 L
3274 2274 L
3275 2227 L
3275 2073 L
3276 2191 L
3276 2144 L
3277 2167 L
3277 2060 L
3278 2023 L
3278 2086 L
3279 2043 L
3280 2233 L
3280 2053 L
3281 1956 L
3281 2227 L
3282 2254 L
3282 2142 L
3283 2111 L
3283 2024 L
3284 2051 L
3284 1943 L
3285 2087 L
3285 1904 L
3286 2046 L
3287 2122 L
3287 2019 L
3288 2207 L
3288 2069 L
3289 2013 L
3289 1833 L
3290 2157 L
3290 2141 L
3291 2002 L
3291 1983 L
3292 2148 L
3292 2172 L
3293 2033 L
3293 2055 L
3294 2072 L
3294 2061 L
3295 2056 L
3295 2008 L
3296 2184 L
3297 2050 L
3297 2120 L
3298 2055 L
3298 2192 L
3299 2092 L
3299 2087 L
3300 2028 L
3300 2120 L
3301 2112 L
3301 2118 L
3302 2182 L
3302 2050 L
3303 2093 L
3303 2358 L
3304 2177 L
3304 2212 L
3305 2239 L
3305 2130 L
3306 2020 L
3306 2060 L
3307 2233 L
3307 2225 L
3308 2220 L
3308 2046 L
3309 2160 L
3309 2070 L
3310 2110 L
3310 2108 L
3311 2193 L
3311 2153 L
3312 2188 L
3312 2082 L
3312 2159 L
3313 2083 L
3313 2195 L
3314 2326 L
3314 2127 L
3315 2096 L
3315 2106 L
3316 2201 L
3316 2102 L
3317 2159 L
3317 2175 L
3318 1915 L
3318 2094 L
3319 2133 L
3319 2077 L
3320 2172 L
3320 2138 L
3321 2174 L
3321 2085 L
3321 2202 L
3322 2125 L
3322 2177 L
3323 2120 L
3323 2265 L
3324 2135 L
3324 2154 L
3325 2107 L
3325 2120 L
3326 2047 L
3326 2036 L
3327 2175 L
3327 2344 L
3327 2096 L
3328 2074 L
3328 1980 L
3329 2109 L
3329 2238 L
3330 2262 L
3330 2182 L
3331 2219 L
3331 2133 L
3332 2140 L
3332 2167 L
3332 2192 L
3333 2027 L
3333 2202 L
3334 2201 L
3334 2236 L
3335 2143 L
3335 2194 L
3336 2200 L
3336 2235 L
3336 2254 L
3337 2029 L
3337 2174 L
3338 2115 L
3338 2243 L
3339 2152 L
3339 2196 L
3339 2087 L
3340 1881 L
3340 2038 L
3341 2183 L
3341 2212 L
3342 2140 L
3342 2266 L
3343 2272 L
3343 2129 L
3343 2117 L
3344 2114 L
3344 2439 L
3345 2124 L
3345 2207 L
3346 2064 L
3346 2156 L
3346 2012 L
3347 2247 L
3347 2013 L
3348 2199 L
3348 2051 L
3348 2155 L
3349 2282 L
3349 2126 L
3350 2184 L
3350 2216 L
3351 2156 L
3351 2143 L
3351 2002 L
3352 2156 L
3352 2256 L
3353 2236 L
3353 2223 L
3353 2110 L
3354 2000 L
3354 2051 L
3355 2008 L
3355 2077 L
3355 2450 L
3356 2198 L
3356 2164 L
3357 2123 L
3357 2185 L
3358 2360 L
3358 2099 L
3358 2280 L
3359 2035 L
3359 2169 L
3360 2033 L
3360 2145 L
3360 2090 L
3361 2150 L
3361 2203 L
3362 2148 L
3362 2046 L
3362 2251 L
3363 2084 L
3363 2257 L
3364 2210 L
3364 2392 L
3364 1914 L
3365 2134 L
3365 2187 L
3365 2217 L
3366 2248 L
3366 1995 L
3367 2230 L
3367 2294 L
3367 2245 L
3368 2039 L
3368 2008 L
3369 2088 L
3369 2121 L
3369 2194 L
3370 2338 L
3370 2281 L
3371 2291 L
3371 2179 L
3371 1998 L
3372 2054 L
3372 2044 L
3372 2094 L
3373 2116 L
3373 2120 L
3374 2201 L
3374 2096 L
3374 2204 L
3375 2135 L
3375 2161 L
3375 2322 L
3376 2089 L
3376 2086 L
3377 2153 L
3377 2152 L
3377 2207 L
3378 2096 L
3378 2114 L
3378 2279 L
3379 2065 L
3379 2246 L
3380 2118 L
3380 2307 L
3380 2244 L
3381 2326 L
3381 2263 L
3381 2081 L
3382 2037 L
3382 2180 L
3383 2217 L
3383 2318 L
3383 2163 L
3384 2202 L
3384 2122 L
3384 2126 L
3385 2251 L
3385 2169 L
3385 2055 L
3386 2002 L
3386 2062 L
3387 2323 L
3387 2103 L
3387 2245 L
3388 2199 L
3388 2265 L
3388 1992 L
3389 2144 L
3389 2024 L
3389 2270 L
3390 2285 L
3390 2090 L
3391 2163 L
3391 2123 L
3391 2274 L
3392 2138 L
3392 2229 L
3392 2226 L
3393 2094 L
3393 2202 L
3393 2146 L
3394 2166 L
3394 2334 L
3394 2125 L
3395 2042 L
3395 2239 L
3395 2176 L
3396 2233 L
3396 2183 L
3396 2132 L
3397 2270 L
3397 2140 L
3398 2344 L
3398 2118 L
3398 2252 L
3399 2182 L
3399 2206 L
3399 2299 L
3400 2256 L
3400 2278 L
3400 2242 L
3401 2147 L
3401 2236 L
3401 2082 L
3402 2167 L
3402 2194 L
3402 2181 L
3403 2099 L
3403 2296 L
3403 2089 L
3404 2217 L
3404 2203 L
3404 2207 L
3405 2359 L
3405 2166 L
3405 2129 L
3406 2313 L
3406 2151 L
3406 2150 L
3407 2228 L
3407 2265 L
3407 2262 L
3408 2390 L
3408 2231 L
3408 2305 L
3409 2157 L
3409 2219 L
3409 2106 L
3410 2273 L
3410 2167 L
3410 2169 L
3411 2289 L
3411 2185 L
3411 2312 L
3412 2193 L
3412 2314 L
3412 2152 L
3413 2322 L
3413 2154 L
3413 2166 L
3414 2219 L
3414 2204 L
3414 2150 L
3415 2317 L
3415 2222 L
3415 2268 L
3416 2124 L
3416 2211 L
3416 2183 L
3417 2262 L
3417 2112 L
3417 2183 L
3417 2281 L
3418 2190 L
3418 2210 L
3418 2288 L
3419 2170 L
3419 2217 L
3419 2368 L
3420 2196 L
3420 2234 L
3420 2323 L
3421 2295 L
3421 2318 L
3421 2194 L
3422 2192 L
3422 2234 L
3422 2160 L
3423 2229 L
3423 2207 L
3423 2178 L
3423 2181 L
3424 2290 L
3424 2159 L
3424 2170 L
3425 2307 L
3425 2184 L
3425 2313 L
3426 2323 L
3426 2290 L
3426 2160 L
3427 2297 L
3427 2202 L
3427 2192 L
3428 2376 L
3428 2205 L
3428 2433 L
3428 2438 L
3429 2076 L
3429 2269 L
3429 2271 L
3430 2217 L
3430 2209 L
3430 2211 L
3431 2234 L
3431 2223 L
3431 2312 L
3431 2317 L
3432 2258 L
3432 2176 L
3432 2138 L
3433 2092 L
3433 2338 L
3433 2313 L
3434 2290 L
3434 2332 L
3434 2201 L
3434 2121 L
3435 2280 L
3435 2114 L
3435 2392 L
3436 2220 L
3436 2337 L
3436 2187 L
3437 2224 L
3437 2244 L
3437 2233 L
3437 2265 L
3438 2253 L
3438 2126 L
3438 2244 L
3439 2195 L
3439 2333 L
3439 2241 L
3440 2356 L
3440 2349 L
3440 2299 L
3440 2208 L
3441 2150 L
3441 2237 L
3441 2264 L
3442 2339 L
3442 2367 L
3442 2169 L
3442 2240 L
3443 2263 L
3443 2250 L
3443 2273 L
3444 2208 L
3444 2330 L
3444 2394 L
3444 2370 L
3445 2321 L
3445 2242 L
3445 2206 L
3446 2341 L
3446 2174 L
3446 2254 L
3446 2202 L
3447 2306 L
3447 2263 L
3447 2026 L
3448 2308 L
3448 2308 L
3448 2265 L
3448 2135 L
3449 2318 L
3449 2303 L
3449 2246 L
3450 2314 L
3450 2210 L
3450 2135 L
3450 2248 L
3451 2222 L
3451 2180 L
3451 2265 L
3452 2377 L
3452 2253 L
3452 2332 L
3452 2270 L
3453 2230 L
3453 2393 L
3453 2292 L
3454 2303 L
3454 2186 L
3454 2212 L
3454 2277 L
3455 2245 L
3455 2393 L
3455 2371 L
3455 2348 L
3456 2003 L
3456 2340 L
3456 2331 L
3457 2327 L
3457 2401 L
3457 2263 L
3457 2280 L
3458 2214 L
3458 2378 L
3458 2294 L
3458 2404 L
3459 2299 L
3459 2281 L
3459 2445 L
3460 2303 L
3460 2291 L
3460 2326 L
3460 2373 L
3461 2213 L
3461 2227 L
3461 2166 L
3461 2292 L
3462 2294 L
3462 2147 L
3462 2284 L
3463 2310 L
3463 2350 L
3463 2371 L
3463 2400 L
3464 2087 L
3464 2343 L
3464 2339 L
3464 2216 L
3465 2379 L
3465 2252 L
3465 2418 L
3465 2103 L
3466 2315 L
3466 2263 L
3466 2409 L
3466 2252 L
3467 2290 L
3467 2317 L
3467 2342 L
3468 2316 L
3468 2257 L
3468 2324 L
3468 2453 L
3469 2470 L
3469 2282 L
3469 2310 L
3469 2199 L
3470 2278 L
3470 2278 L
3470 2203 L
3470 2350 L
3471 2376 L
3471 2428 L
3471 2452 L
3471 2096 L
3472 2290 L
3472 2470 L
3472 2192 L
3472 2246 L
3473 2228 L
3473 2317 L
3473 2262 L
3474 2262 L
3474 2239 L
3474 2348 L
3474 2294 L
3475 2169 L
3475 2326 L
3475 2091 L
3475 2156 L
3476 2312 L
3476 2262 L
3476 2332 L
3476 2187 L
3477 2212 L
3477 2203 L
3477 2401 L
3477 2262 L
3478 2322 L
3478 2423 L
3478 2261 L
3478 2314 L
3479 2204 L
3479 2375 L
3479 2399 L
3479 2369 L
3480 2161 L
3480 2202 L
3480 2237 L
3480 2298 L
3481 2297 L
3481 2227 L
3481 2308 L
3481 2222 L
3482 2264 L
3482 2233 L
3482 2347 L
3482 2402 L
3483 2319 L
3483 2277 L
3483 2298 L
3483 2314 L
3484 2452 L
3484 2260 L
3484 2349 L
3484 2268 L
3485 2261 L
3485 2349 L
3485 2201 L
3485 2441 L
3486 2254 L
3486 2501 L
3486 2447 L
3486 2246 L
3487 2332 L
3487 2222 L
3487 2329 L
3487 2256 L
3488 2452 L
3488 2333 L
3488 2076 L
3488 2419 L
3488 2358 L
3489 2152 L
3489 2335 L
3489 2172 L
3489 2324 L
3490 2429 L
3490 2331 L
3490 2307 L
3490 2308 L
3491 2334 L
3491 2348 L
3491 2367 L
3491 2324 L
3492 2391 L
3492 2352 L
3492 2290 L
3492 2359 L
3493 2277 L
3493 2294 L
3493 2348 L
3493 2207 L
3494 2260 L
3494 2380 L
3494 2324 L
3494 2163 L
3494 2213 L
3495 2231 L
3495 2444 L
3495 2385 L
3495 2277 L
3496 2071 L
3496 2338 L
3496 2388 L
3496 2236 L
3497 2349 L
3497 2113 L
3497 2312 L
3497 2264 L
3498 2354 L
3498 2484 L
3498 2295 L
3498 2336 L
3498 2433 L
3499 2297 L
3499 2377 L
3499 2172 L
3499 2504 L
3500 2222 L
3500 2237 L
3506 2343 L
3511 2305 L
3517 2415 L
3522 2320 L
3527 2396 L
3532 2236 L
3537 2567 L
3542 2284 L
3547 2412 L
3552 2352 L
3557 2343 L
3561 2478 L
3566 2179 L
3570 2480 L
3575 2594 L
3579 2429 L
3583 2146 L
3587 2334 L
3591 2377 L
3595 2423 L
3599 2433 L
3603 2438 L
3607 2614 L
3611 2362 L
3614 2335 L
3618 2396 L
3622 2305 L
3625 2241 L
3629 2442 L
3632 2326 L
3636 2497 L
3639 2183 L
3642 2652 L
3646 2519 L
3649 2262 L
3652 2344 L
3655 2492 L
3658 2530 L
3661 2377 L
3664 2430 L
3667 2323 L
3670 2421 L
3673 2582 L
3676 2504 L
3679 2335 L
3682 2457 L
3685 2436 L
3688 2519 L
3690 2380 L
3693 2483 L
3696 2519 L
3698 2450 L
3701 2411 L
3704 2536 L
3706 2381 L
3709 2396 L
3711 2500 L
3714 2445 L
3716 2509 L
3719 2531 L
3721 2528 L
3724 2527 L
3726 2469 L
3728 2430 L
3731 2519 L
3733 2477 L
3735 2429 L
3738 2453 L
3740 2441 L
3742 2492 L
3744 2516 L
3747 2400 L
3749 2558 L
3751 2498 L
3753 2605 L
3755 2599 L
3757 2412 L
3760 2466 L
3762 2481 L
3764 2506 L
3766 2388 L
3768 2498 L
3770 2338 L
3772 2629 L
3774 2468 L
3776 2549 L
3778 2539 L
3780 2552 L
3781 2555 L
3783 2502 L
3785 2474 L
3787 2709 L
3789 2397 L
3791 2350 L
3793 2590 L
3795 2456 L
3796 2453 L
3798 2490 L
3800 2606 L
3802 2561 L
3803 2490 L
3805 2454 L
3807 2445 L
3809 2533 L
3810 2426 L
3812 2543 L
3814 2408 L
3816 2450 L
3817 2528 L
3819 2585 L
3820 2516 L
3822 2567 L
3824 2626 L
3825 2457 L
3827 2465 L
3829 2457 L
3830 2490 L
3832 2510 L
3833 2487 L
3835 2451 L
3836 2475 L
3838 2325 L
3839 2251 L
3841 2609 L
3842 2606 L
3844 2408 L
3845 2671 L
3847 2379 L
3848 2587 L
3850 2313 L
3851 2679 L
3853 2444 L
3854 2551 L
3856 2608 L
3857 2530 L
3859 2371 L
3860 2456 L
3861 2549 L
3863 2573 L
3864 2448 L
3866 2513 L
3867 2590 L
3868 2503 L
3870 2537 L
3871 2539 L
3872 2391 L
3874 2439 L
3875 2493 L
3876 2233 L
3878 2587 L
3879 2346 L
3880 2323 L
3882 2453 L
3883 2498 L
3884 2352 L
3885 2329 L
3887 2402 L
3888 2552 L
3889 2456 L
3890 2381 L
3892 2430 L
3893 2460 L
3894 2316 L
3895 2548 L
3897 2561 L
3898 2480 L
3899 2566 L
3900 2545 L
3901 2620 L
3903 2602 L
3904 2390 L
3905 2483 L
3906 2432 L
3907 2408 L
3908 2551 L
3910 2641 L
3911 2350 L
3912 2397 L
3913 2466 L
3914 2405 L
3915 2612 L
3917 2204 L
3918 2492 L
3919 2462 L
3920 2254 L
3921 2557 L
3922 2615 L
3923 2688 L
3924 2655 L
3925 2524 L
3926 2704 L
3928 2483 L
3929 2524 L
3930 2507 L
3931 2361 L
3932 2412 L
3933 2402 L
3934 2627 L
3935 2350 L
3936 2329 L
3937 2451 L
3938 2531 L
3939 2399 L
3940 2502 L
3941 2460 L
3942 2340 L
3943 2274 L
3944 2528 L
3945 2382 L
3946 2573 L
3947 2301 L
3948 2534 L
3949 2615 L
3950 2444 L
3951 2323 L
3952 2450 L
3953 2394 L
3954 2498 L
3955 2527 L
3956 2399 L
3957 2445 L
3958 2367 L
3959 2664 L
3960 2448 L
3961 2484 L
3962 2472 L
3963 2610 L
3964 2356 L
3965 2466 L
3966 2408 L
3966 2513 L
3967 2406 L
3968 2424 L
3969 2320 L
3970 2506 L
3971 2411 L
3972 2459 L
3973 2490 L
3974 2453 L
3975 2515 L
3976 2445 L
3976 2475 L
3977 2466 L
3978 2503 L
3979 2640 L
3980 2453 L
3981 2403 L
3982 2584 L
3983 2463 L
3983 2533 L
3984 2546 L
3985 2384 L
3986 2521 L
3987 2349 L
3988 2615 L
3989 2317 L
3989 2359 L
3990 2313 L
3991 2539 L
3992 2371 L
3993 2572 L
3994 2500 L
3995 2180 L
3995 2436 L
3996 2533 L
3997 2379 L
3998 2581 L
3999 2442 L
3999 2528 L
4000 2465 L
4001 2411 L
4002 2173 L
4003 2531 L
4003 2341 L
4004 2609 L
4005 2457 L
4006 2507 L
4007 2572 L
4007 2195 L
4008 2364 L
4009 2353 L
4010 2429 L
4011 2555 L
4011 2414 L
4012 2287 L
4013 2531 L
4014 2391 L
4014 2320 L
4015 2378 L
4016 2262 L
4017 2450 L
4017 2514 L
4018 2543 L
4019 2438 L
4020 2563 L
4021 2552 L
4021 2341 L
4022 2525 L
4023 2375 L
4023 2412 L
4024 2548 L
4025 2299 L
4026 2367 L
4026 2468 L
4027 2588 L
4028 2377 L
4029 2334 L
4029 2322 L
4030 2408 L
4031 2457 L
4032 2465 L
4032 2328 L
4033 2435 L
4034 2489 L
4034 2456 L
4035 2546 L
4036 2519 L
4036 2495 L
4037 2227 L
4038 2474 L
4039 2341 L
4039 2664 L
4040 2487 L
4041 2459 L
4041 2487 L
4042 2439 L
4043 2289 L
4043 2475 L
4044 2522 L
4045 2480 L
4045 2480 L
4046 2325 L
4047 2343 L
4047 2438 L
4048 2343 L
4049 2426 L
4050 2329 L
4050 2373 L
4051 2427 L
4052 2394 L
4052 2424 L
4053 2441 L
4053 2438 L
4054 2382 L
4055 2486 L
4055 2521 L
4056 2444 L
4057 2492 L
4057 2521 L
4058 2490 L
4059 2390 L
4059 2480 L
4060 2421 L
4061 2350 L
4061 2381 L
4062 2540 L
L2 C02 COSGR

%
%================
% Legend - Begin
%================
%
GSN 4240 5180 M
4480 5180 L
LWMC SL  C02 COSGR
GSN 4540 5141 M helvM (1.0 uM) show grestore
%
%================
% Legend - End
%================
%

%
% Residuals:
%
GSN 777 750 M
1388 1470 L
1552 1500 L
1652 1433 L
1723 1407 L
1778 1432 L
1824 1525 L
1863 1487 L
1896 1507 L
1926 1508 L
1952 1543 L
1976 1526 L
1998 1561 L
2019 1503 L
2037 1483 L
2055 1503 L
2071 1537 L
2086 1500 L
2101 1527 L
2115 1564 L
2128 1569 L
2140 1537 L
2152 1507 L
2163 1527 L
2174 1543 L
2184 1522 L
2194 1543 L
2204 1528 L
2213 1483 L
2222 1561 L
2230 1536 L
2239 1545 L
2247 1556 L
2255 1505 L
2262 1474 L
2270 1533 L
2277 1516 L
2284 1472 L
2290 1535 L
2297 1515 L
2303 1501 L
2310 1521 L
2316 1530 L
2322 1525 L
2328 1494 L
2333 1475 L
2339 1499 L
2344 1551 L
2350 1520 L
2355 1532 L
2360 1508 L
2365 1529 L
2370 1486 L
2375 1508 L
2380 1527 L
2384 1490 L
2389 1481 L
2393 1493 L
2398 1502 L
2402 1507 L
2407 1534 L
2411 1486 L
2415 1487 L
2419 1439 L
2423 1510 L
2427 1478 L
2431 1490 L
2435 1471 L
2438 1492 L
2442 1490 L
2446 1493 L
2449 1441 L
2453 1494 L
2456 1499 L
2460 1526 L
2463 1485 L
2467 1484 L
2470 1473 L
2473 1436 L
2476 1453 L
2480 1486 L
2483 1487 L
2486 1517 L
2489 1510 L
2492 1462 L
2495 1468 L
2498 1480 L
2501 1478 L
2504 1460 L
2507 1493 L
2510 1452 L
2512 1430 L
2515 1449 L
2518 1439 L
2521 1452 L
2523 1454 L
2526 1498 L
2529 1461 L
2531 1437 L
2534 1479 L
2536 1420 L
2539 1442 L
2541 1449 L
2544 1469 L
2546 1459 L
2549 1427 L
2551 1433 L
2554 1437 L
2556 1457 L
2558 1490 L
2561 1463 L
2563 1441 L
2565 1397 L
2568 1440 L
2570 1436 L
2572 1431 L
2574 1420 L
2576 1531 L
2579 1450 L
2581 1466 L
2583 1411 L
2585 1467 L
2587 1432 L
2589 1428 L
2591 1470 L
2593 1465 L
2595 1454 L
2597 1420 L
2599 1448 L
2601 1468 L
2603 1433 L
2605 1398 L
2607 1400 L
2609 1417 L
2611 1438 L
2613 1437 L
2615 1463 L
2617 1431 L
2618 1434 L
2620 1424 L
2622 1422 L
2624 1415 L
2626 1411 L
2627 1419 L
2629 1376 L
2631 1439 L
2633 1458 L
2634 1406 L
2636 1436 L
2638 1388 L
2640 1421 L
2641 1436 L
2643 1383 L
2645 1427 L
2646 1386 L
2648 1376 L
2650 1411 L
2651 1417 L
2653 1428 L
2654 1416 L
2656 1427 L
2658 1383 L
2659 1422 L
2661 1397 L
2662 1365 L
2664 1370 L
2665 1434 L
2667 1396 L
2668 1420 L
2670 1445 L
2671 1436 L
2673 1377 L
2674 1449 L
2676 1413 L
2677 1402 L
2679 1434 L
2680 1396 L
2682 1364 L
2683 1375 L
2685 1389 L
2686 1363 L
2687 1367 L
2689 1347 L
2690 1428 L
2692 1404 L
2693 1430 L
2694 1405 L
2696 1388 L
2697 1396 L
2698 1414 L
2700 1329 L
2701 1367 L
2702 1405 L
2704 1375 L
2705 1404 L
2706 1432 L
2708 1385 L
2709 1378 L
2710 1392 L
2712 1370 L
2713 1389 L
2714 1399 L
2715 1398 L
2717 1363 L
2718 1405 L
2719 1413 L
2720 1343 L
2722 1378 L
2723 1393 L
2724 1401 L
2725 1359 L
2726 1409 L
2728 1378 L
2729 1374 L
2730 1404 L
2731 1405 L
2732 1331 L
2734 1350 L
2735 1416 L
2736 1405 L
2737 1396 L
2738 1342 L
2739 1366 L
2741 1375 L
2742 1386 L
2743 1361 L
2744 1399 L
2745 1406 L
2746 1341 L
2747 1333 L
2748 1355 L
2749 1348 L
2751 1329 L
2752 1375 L
2753 1361 L
2754 1362 L
2755 1350 L
2756 1375 L
2757 1361 L
2758 1356 L
2759 1390 L
2760 1387 L
2761 1322 L
2762 1324 L
2763 1326 L
2764 1368 L
2765 1365 L
2767 1388 L
2768 1345 L
2769 1375 L
2770 1359 L
2771 1366 L
2772 1405 L
2773 1283 L
2774 1344 L
2775 1385 L
2776 1357 L
2777 1304 L
2778 1325 L
2779 1366 L
2780 1350 L
2781 1321 L
2782 1372 L
2783 1336 L
2783 1339 L
2784 1346 L
2785 1363 L
2786 1335 L
2787 1376 L
2788 1382 L
2789 1348 L
2790 1352 L
2791 1350 L
2792 1334 L
2793 1333 L
2794 1352 L
2795 1356 L
2796 1344 L
2797 1324 L
2798 1366 L
2798 1329 L
2799 1326 L
2800 1295 L
2801 1352 L
2802 1353 L
2803 1367 L
2804 1299 L
2805 1334 L
2806 1395 L
2807 1334 L
2807 1351 L
2808 1284 L
2809 1278 L
2810 1286 L
2811 1331 L
2812 1317 L
2813 1322 L
2813 1326 L
2814 1360 L
2815 1311 L
2816 1312 L
2817 1317 L
2818 1348 L
2819 1281 L
2819 1320 L
2820 1375 L
2821 1329 L
2822 1286 L
2823 1331 L
2824 1342 L
2824 1295 L
2825 1314 L
2826 1300 L
2827 1315 L
2828 1294 L
2828 1359 L
2829 1330 L
2830 1277 L
2831 1303 L
2832 1312 L
2832 1296 L
2833 1281 L
2834 1304 L
2835 1290 L
2836 1294 L
2836 1341 L
2837 1345 L
2838 1311 L
2839 1278 L
2840 1324 L
2840 1269 L
2841 1295 L
2842 1347 L
2843 1278 L
2843 1355 L
2844 1310 L
2845 1360 L
2846 1357 L
2846 1285 L
2847 1301 L
2848 1261 L
2849 1302 L
2849 1315 L
2850 1366 L
2851 1254 L
2852 1308 L
2852 1293 L
2853 1283 L
2854 1288 L
2855 1265 L
2855 1312 L
2856 1247 L
2857 1351 L
2857 1277 L
2858 1311 L
2859 1282 L
2860 1295 L
2860 1322 L
2861 1361 L
2862 1283 L
2862 1277 L
2863 1359 L
2864 1286 L
2865 1297 L
2865 1303 L
2866 1318 L
2867 1296 L
2867 1298 L
2868 1293 L
2869 1306 L
2869 1248 L
2870 1302 L
2871 1297 L
2871 1260 L
2872 1300 L
2873 1243 L
2873 1254 L
2874 1313 L
2875 1278 L
2876 1283 L
2876 1315 L
2877 1267 L
2878 1291 L
2878 1269 L
2879 1312 L
2880 1248 L
2880 1268 L
2881 1316 L
2881 1241 L
2882 1307 L
2883 1248 L
2883 1261 L
2884 1290 L
2885 1278 L
2885 1322 L
2886 1274 L
2887 1277 L
2887 1259 L
2888 1244 L
2889 1297 L
2889 1316 L
2892 1252 L
2894 1275 L
2897 1270 L
2899 1264 L
2902 1229 L
2904 1253 L
2907 1321 L
2909 1249 L
2911 1264 L
2914 1222 L
2916 1274 L
2918 1253 L
2921 1243 L
2923 1224 L
2925 1251 L
2927 1271 L
2929 1282 L
2932 1228 L
2934 1240 L
2936 1246 L
2938 1204 L
2940 1248 L
2942 1264 L
2944 1204 L
2946 1234 L
2948 1272 L
2950 1206 L
2952 1202 L
2954 1242 L
2956 1249 L
2958 1190 L
2960 1191 L
2962 1260 L
2964 1196 L
2966 1233 L
2968 1203 L
2970 1211 L
2971 1232 L
2973 1170 L
2975 1191 L
2977 1252 L
2979 1181 L
2980 1211 L
2982 1205 L
2984 1176 L
2986 1232 L
2987 1188 L
2989 1177 L
2991 1171 L
2993 1159 L
2994 1203 L
2996 1171 L
2998 1136 L
2999 1202 L
3001 1180 L
3003 1158 L
3004 1123 L
3006 1229 L
3007 1218 L
3009 1187 L
3011 1210 L
3012 1204 L
3014 1145 L
3015 1193 L
3017 1193 L
3018 1163 L
3020 1206 L
3021 1164 L
3023 1211 L
3024 1123 L
3026 1192 L
3027 1191 L
3029 1135 L
3030 1126 L
3032 1141 L
3033 1173 L
3035 1172 L
3036 1156 L
3038 1216 L
3039 1190 L
3040 1183 L
3042 1149 L
3043 1167 L
3045 1160 L
3046 1168 L
3047 1169 L
3049 1180 L
3050 1151 L
3051 1178 L
3053 1109 L
3054 1138 L
3055 1197 L
3057 1117 L
3058 1167 L
3059 1195 L
3061 1160 L
3062 1161 L
3063 1128 L
3065 1100 L
3066 1178 L
3067 1138 L
3068 1147 L
3070 1119 L
3071 1158 L
3072 1155 L
3073 1127 L
3075 1137 L
3076 1143 L
3077 1159 L
3078 1157 L
3079 1127 L
3081 1140 L
3082 1096 L
3083 1132 L
3084 1140 L
3085 1121 L
3087 1121 L
3088 1139 L
3089 1130 L
3090 1148 L
3091 1110 L
3092 1109 L
3094 1129 L
3095 1107 L
3096 1112 L
3097 1144 L
3098 1102 L
3099 1189 L
3100 1087 L
3101 1071 L
3103 1175 L
3104 1074 L
3105 1119 L
3106 1135 L
3107 1106 L
3108 1125 L
3109 1130 L
3110 1159 L
3111 1112 L
3112 1089 L
3113 1105 L
3114 1143 L
3115 1135 L
3116 1114 L
3117 1134 L
3119 1086 L
3120 1100 L
3121 1128 L
3122 1109 L
3123 1132 L
3124 1111 L
3125 1141 L
3126 1114 L
3127 1070 L
3128 1137 L
3129 1082 L
3130 1080 L
3131 1155 L
3132 1050 L
3133 1120 L
3134 1109 L
3135 1066 L
3136 1109 L
3136 1105 L
3137 1085 L
3138 1086 L
3139 1104 L
3140 1112 L
3141 1054 L
3142 1083 L
3143 1070 L
3144 1113 L
3145 1138 L
3146 1118 L
3147 1129 L
3148 1074 L
3149 1054 L
3150 1105 L
3151 1094 L
3151 1058 L
3152 1072 L
3153 1062 L
3154 1100 L
3155 1045 L
3156 1106 L
3157 1134 L
3158 1116 L
3159 1080 L
3160 1094 L
3160 1032 L
3161 1076 L
3162 1068 L
3163 1095 L
3164 1088 L
3165 1117 L
3166 1081 L
3166 1065 L
3167 1105 L
3168 1099 L
3169 1055 L
3170 1095 L
3171 1088 L
3172 1125 L
3172 1077 L
3173 1060 L
3174 1057 L
3175 1054 L
3176 1082 L
3177 1096 L
3177 1075 L
3178 1086 L
3179 1074 L
3180 1073 L
3181 1093 L
3181 1125 L
3182 1101 L
3183 1036 L
3184 1110 L
3185 1094 L
3185 1081 L
3186 1119 L
3187 1049 L
3188 1093 L
3189 1089 L
3189 1136 L
3190 1105 L
3191 1072 L
3192 1044 L
3193 1081 L
3193 1126 L
3194 1052 L
3195 1073 L
3196 1082 L
3196 1053 L
3197 1033 L
3198 1100 L
3199 1038 L
3199 1028 L
3200 1102 L
3201 1085 L
3202 1057 L
3202 1077 L
3203 1081 L
3204 1080 L
3205 1036 L
3205 1123 L
3206 1068 L
3207 1059 L
3208 1052 L
3208 1091 L
3209 1077 L
3210 1059 L
3210 1092 L
3211 1048 L
3212 1073 L
3213 1076 L
3213 1080 L
3214 1084 L
3215 1098 L
3215 1050 L
3216 1059 L
3217 1081 L
3218 1066 L
3218 1020 L
3219 997 L
3220 1099 L
3220 1069 L
3221 1064 L
3222 1060 L
3222 1095 L
3223 1043 L
3224 1103 L
3224 1040 L
3225 1076 L
3226 1044 L
3227 1043 L
3227 1043 L
3228 1045 L
3229 1079 L
3229 1057 L
3230 1033 L
3231 1071 L
3231 1077 L
3232 1055 L
3233 1093 L
3233 1058 L
3234 1046 L
3235 1104 L
3235 1041 L
3236 1112 L
3236 1079 L
3237 1056 L
3238 1074 L
3238 1048 L
3239 1064 L
3240 1088 L
3240 1057 L
3241 1067 L
3242 1059 L
3242 1065 L
3243 1061 L
3244 1047 L
3244 1056 L
3245 1077 L
3245 1025 L
3246 1051 L
3247 1033 L
3247 1006 L
3248 1076 L
3249 1032 L
3249 1079 L
3250 1083 L
3250 1037 L
3251 1055 L
3252 1026 L
3252 1091 L
3253 1031 L
3253 1099 L
3254 1072 L
3255 1061 L
3255 1057 L
3256 1083 L
3257 1066 L
3257 1085 L
3258 1069 L
3258 1069 L
3259 1051 L
3259 1024 L
3260 1048 L
3261 1089 L
3261 1077 L
3262 1052 L
3262 1038 L
3263 1071 L
3264 1051 L
3264 1068 L
3265 1089 L
3265 1083 L
3266 1063 L
3267 1093 L
3267 1056 L
3268 1073 L
3268 1072 L
3269 1085 L
3269 1065 L
3270 1080 L
3271 1055 L
3271 1078 L
3272 1034 L
3272 1054 L
3273 1034 L
3273 1106 L
3274 1114 L
3275 1100 L
3275 1054 L
3276 1089 L
3276 1075 L
3277 1082 L
3277 1050 L
3278 1038 L
3278 1057 L
3279 1044 L
3280 1102 L
3280 1048 L
3281 1018 L
3281 1100 L
3282 1108 L
3282 1074 L
3283 1065 L
3283 1039 L
3284 1047 L
3284 1015 L
3285 1058 L
3285 1003 L
3286 1046 L
3287 1068 L
3287 1037 L
3288 1094 L
3288 1052 L
3289 1036 L
3289 981 L
3290 1079 L
3290 1074 L
3291 1032 L
3291 1026 L
3292 1076 L
3292 1083 L
3293 1041 L
3293 1048 L
3294 1053 L
3294 1050 L
3295 1049 L
3295 1034 L
3296 1087 L
3297 1047 L
3297 1068 L
3298 1048 L
3298 1089 L
3299 1059 L
3299 1058 L
3300 1040 L
3300 1068 L
3301 1065 L
3301 1067 L
3302 1086 L
3302 1047 L
3303 1059 L
3303 1140 L
3304 1085 L
3304 1096 L
3305 1104 L
3305 1071 L
3306 1038 L
3306 1050 L
3307 1102 L
3307 1099 L
3308 1098 L
3308 1046 L
3309 1080 L
3309 1053 L
3310 1065 L
3310 1064 L
3311 1090 L
3311 1078 L
3312 1088 L
3312 1056 L
3312 1080 L
3313 1057 L
3313 1090 L
3314 1130 L
3314 1070 L
3315 1061 L
3315 1064 L
3316 1092 L
3316 1062 L
3317 1080 L
3317 1084 L
3318 1006 L
3318 1060 L
3319 1072 L
3319 1055 L
3320 1083 L
3320 1073 L
3321 1084 L
3321 1057 L
3321 1093 L
3322 1069 L
3322 1085 L
3323 1068 L
3323 1112 L
3324 1072 L
3324 1078 L
3325 1064 L
3325 1068 L
3326 1046 L
3326 1042 L
3327 1084 L
3327 1135 L
3327 1061 L
3328 1054 L
3328 1025 L
3329 1065 L
3329 1103 L
3330 1111 L
3330 1086 L
3331 1098 L
3331 1072 L
3332 1074 L
3332 1082 L
3332 1089 L
3333 1040 L
3333 1093 L
3334 1092 L
3334 1103 L
3335 1075 L
3335 1090 L
3336 1092 L
3336 1102 L
3336 1108 L
3337 1040 L
3337 1084 L
3338 1066 L
3338 1105 L
3339 1078 L
3339 1091 L
3339 1058 L
3340 996 L
3340 1043 L
3341 1087 L
3341 1096 L
3342 1074 L
3342 1112 L
3343 1114 L
3343 1070 L
3343 1067 L
3344 1066 L
3344 1164 L
3345 1069 L
3345 1094 L
3346 1051 L
3346 1079 L
3346 1035 L
3347 1106 L
3347 1036 L
3348 1092 L
3348 1047 L
3348 1078 L
3349 1117 L
3349 1070 L
3350 1087 L
3350 1097 L
3351 1079 L
3351 1075 L
3351 1032 L
3352 1079 L
3352 1109 L
3353 1103 L
3353 1099 L
3353 1065 L
3354 1032 L
3354 1047 L
3355 1034 L
3355 1055 L
3355 1167 L
3356 1091 L
3356 1081 L
3357 1069 L
3357 1087 L
3358 1140 L
3358 1062 L
3358 1116 L
3359 1042 L
3359 1083 L
3360 1041 L
3360 1075 L
3360 1059 L
3361 1077 L
3361 1093 L
3362 1076 L
3362 1046 L
3362 1107 L
3363 1057 L
3363 1109 L
3364 1095 L
3364 1150 L
3364 1006 L
3365 1072 L
3365 1088 L
3365 1097 L
3366 1106 L
3366 1030 L
3367 1101 L
3367 1120 L
3367 1105 L
3368 1044 L
3368 1034 L
3369 1058 L
3369 1068 L
3369 1090 L
3370 1133 L
3370 1116 L
3371 1119 L
3371 1086 L
3371 1031 L
3372 1048 L
3372 1045 L
3372 1060 L
3373 1067 L
3373 1068 L
3374 1092 L
3374 1061 L
3374 1093 L
3375 1072 L
3375 1080 L
3375 1129 L
3376 1058 L
3376 1057 L
3377 1078 L
3377 1078 L
3377 1094 L
3378 1061 L
3378 1066 L
3378 1116 L
3379 1051 L
3379 1106 L
3380 1067 L
3380 1124 L
3380 1105 L
3381 1130 L
3381 1111 L
3381 1056 L
3382 1043 L
3382 1086 L
3383 1097 L
3383 1128 L
3383 1081 L
3384 1093 L
3384 1068 L
3384 1070 L
3385 1107 L
3385 1083 L
3385 1048 L
3386 1032 L
3386 1050 L
3387 1129 L
3387 1063 L
3387 1105 L
3388 1092 L
3388 1112 L
3388 1029 L
3389 1075 L
3389 1039 L
3389 1113 L
3390 1117 L
3390 1059 L
3391 1081 L
3391 1069 L
3391 1114 L
3392 1073 L
3392 1101 L
3392 1100 L
3393 1060 L
3393 1093 L
3393 1076 L
3394 1082 L
3394 1132 L
3394 1069 L
3395 1044 L
3395 1104 L
3395 1085 L
3396 1102 L
3396 1087 L
3396 1071 L
3397 1113 L
3397 1074 L
3398 1135 L
3398 1067 L
3398 1108 L
3399 1086 L
3399 1094 L
3399 1122 L
3400 1109 L
3400 1115 L
3400 1104 L
3401 1076 L
3401 1103 L
3401 1056 L
3402 1082 L
3402 1090 L
3402 1086 L
3403 1062 L
3403 1121 L
3403 1059 L
3404 1097 L
3404 1093 L
3404 1094 L
3405 1140 L
3405 1082 L
3405 1070 L
3406 1126 L
3406 1077 L
3406 1077 L
3407 1100 L
3407 1112 L
3407 1111 L
3408 1149 L
3408 1101 L
3408 1124 L
3409 1079 L
3409 1098 L
3409 1064 L
3410 1114 L
3410 1082 L
3410 1083 L
3411 1119 L
3411 1087 L
3411 1126 L
3412 1090 L
3412 1126 L
3412 1078 L
3413 1129 L
3413 1078 L
3413 1082 L
3414 1098 L
3414 1093 L
3414 1077 L
3415 1127 L
3415 1099 L
3415 1112 L
3416 1069 L
3416 1095 L
3416 1087 L
3417 1111 L
3417 1065 L
3417 1087 L
3417 1116 L
3418 1089 L
3418 1095 L
3418 1118 L
3419 1083 L
3419 1097 L
3419 1143 L
3420 1091 L
3420 1102 L
3420 1129 L
3421 1120 L
3421 1128 L
3421 1090 L
3422 1089 L
3422 1102 L
3422 1080 L
3423 1101 L
3423 1094 L
3423 1085 L
3423 1086 L
3424 1119 L
3424 1080 L
3424 1083 L
3425 1124 L
3425 1087 L
3425 1126 L
3426 1129 L
3426 1119 L
3426 1080 L
3427 1121 L
3427 1093 L
3427 1089 L
3428 1145 L
3428 1094 L
3428 1162 L
3428 1164 L
3429 1054 L
3429 1113 L
3429 1113 L
3430 1097 L
3430 1095 L
3430 1095 L
3431 1102 L
3431 1099 L
3431 1126 L
3431 1127 L
3432 1110 L
3432 1085 L
3432 1073 L
3433 1060 L
3433 1133 L
3433 1126 L
3434 1119 L
3434 1132 L
3434 1092 L
3434 1068 L
3435 1116 L
3435 1066 L
3435 1150 L
3436 1098 L
3436 1133 L
3436 1088 L
3437 1099 L
3437 1105 L
3437 1102 L
3437 1112 L
3438 1108 L
3438 1070 L
3438 1105 L
3439 1091 L
3439 1132 L
3439 1104 L
3440 1139 L
3440 1137 L
3440 1122 L
3440 1094 L
3441 1077 L
3441 1103 L
3441 1111 L
3442 1134 L
3442 1142 L
3442 1083 L
3442 1104 L
3443 1111 L
3443 1107 L
3443 1114 L
3444 1094 L
3444 1131 L
3444 1150 L
3444 1143 L
3445 1128 L
3445 1104 L
3445 1094 L
3446 1134 L
3446 1084 L
3446 1108 L
3446 1093 L
3447 1124 L
3447 1111 L
3447 1039 L
3448 1125 L
3448 1125 L
3448 1112 L
3448 1072 L
3449 1128 L
3449 1123 L
3449 1106 L
3450 1126 L
3450 1095 L
3450 1072 L
3450 1107 L
3451 1099 L
3451 1086 L
3451 1112 L
3452 1145 L
3452 1108 L
3452 1132 L
3452 1113 L
3453 1101 L
3453 1150 L
3453 1120 L
3454 1123 L
3454 1088 L
3454 1096 L
3454 1115 L
3455 1105 L
3455 1150 L
3455 1144 L
3455 1136 L
3456 1033 L
3456 1134 L
3456 1131 L
3457 1130 L
3457 1152 L
3457 1111 L
3457 1116 L
3458 1096 L
3458 1146 L
3458 1120 L
3458 1153 L
3459 1122 L
3459 1116 L
3459 1166 L
3460 1123 L
3460 1119 L
3460 1130 L
3460 1144 L
3461 1096 L
3461 1100 L
3461 1082 L
3461 1120 L
3462 1120 L
3462 1076 L
3462 1117 L
3463 1125 L
3463 1137 L
3463 1144 L
3463 1152 L
3464 1058 L
3464 1135 L
3464 1134 L
3464 1097 L
3465 1146 L
3465 1108 L
3465 1158 L
3465 1063 L
3466 1127 L
3466 1111 L
3466 1155 L
3466 1108 L
3467 1119 L
3467 1127 L
3467 1135 L
3468 1127 L
3468 1109 L
3468 1129 L
3468 1168 L
3469 1173 L
3469 1117 L
3469 1125 L
3469 1092 L
3470 1115 L
3470 1115 L
3470 1093 L
3470 1137 L
3471 1145 L
3471 1161 L
3471 1168 L
3471 1061 L
3472 1119 L
3472 1173 L
3472 1089 L
3472 1106 L
3473 1100 L
3473 1127 L
3473 1111 L
3474 1111 L
3474 1104 L
3474 1136 L
3474 1120 L
3475 1083 L
3475 1130 L
3475 1059 L
3475 1079 L
3476 1126 L
3476 1111 L
3476 1132 L
3476 1088 L
3477 1096 L
3477 1093 L
3477 1153 L
3477 1111 L
3478 1129 L
3478 1159 L
3478 1110 L
3478 1126 L
3479 1093 L
3479 1145 L
3479 1152 L
3479 1143 L
3480 1080 L
3480 1093 L
3480 1103 L
3480 1122 L
3481 1121 L
3481 1100 L
3481 1125 L
3481 1099 L
3482 1111 L
3482 1102 L
3482 1136 L
3482 1153 L
3483 1128 L
3483 1115 L
3483 1122 L
3483 1126 L
3484 1168 L
3484 1110 L
3484 1137 L
3484 1112 L
3485 1110 L
3485 1137 L
3485 1092 L
3485 1165 L
3486 1108 L
3486 1183 L
3486 1166 L
3486 1106 L
3487 1132 L
3487 1099 L
3487 1131 L
3487 1109 L
3488 1168 L
3488 1132 L
3488 1054 L
3488 1158 L
3488 1140 L
3489 1078 L
3489 1133 L
3489 1083 L
3489 1129 L
3490 1161 L
3490 1131 L
3490 1124 L
3490 1125 L
3491 1132 L
3491 1137 L
3491 1142 L
3491 1129 L
3492 1149 L
3492 1138 L
3492 1119 L
3492 1140 L
3493 1115 L
3493 1120 L
3493 1136 L
3493 1094 L
3494 1110 L
3494 1146 L
3494 1129 L
3494 1081 L
3494 1096 L
3495 1101 L
3495 1165 L
3495 1148 L
3495 1115 L
3496 1053 L
3496 1133 L
3496 1149 L
3496 1103 L
3497 1137 L
3497 1066 L
3497 1126 L
3497 1111 L
3498 1139 L
3498 1178 L
3498 1120 L
3498 1133 L
3498 1162 L
3499 1121 L
3499 1145 L
3499 1083 L
3499 1183 L
3500 1099 L
3500 1103 L
3506 1135 L
3511 1124 L
3517 1157 L
3522 1128 L
3527 1151 L
3532 1103 L
3537 1203 L
3542 1117 L
3547 1156 L
3552 1138 L
3557 1135 L
3561 1176 L
3566 1086 L
3570 1176 L
3575 1211 L
3579 1161 L
3583 1076 L
3587 1132 L
3591 1145 L
3595 1159 L
3599 1162 L
3603 1164 L
3607 1217 L
3611 1141 L
3614 1133 L
3618 1151 L
3622 1124 L
3625 1104 L
3629 1165 L
3632 1130 L
3636 1181 L
3639 1087 L
3642 1228 L
3646 1188 L
3649 1111 L
3652 1136 L
3655 1180 L
3658 1191 L
3661 1145 L
3664 1161 L
3667 1129 L
3670 1159 L
3673 1207 L
3676 1184 L
3679 1133 L
3682 1170 L
3685 1163 L
3688 1188 L
3690 1146 L
3693 1177 L
3696 1188 L
3698 1167 L
3701 1156 L
3704 1193 L
3706 1146 L
3709 1151 L
3711 1182 L
3714 1166 L
3716 1185 L
3719 1192 L
3721 1191 L
3724 1190 L
3726 1173 L
3728 1161 L
3731 1188 L
3733 1175 L
3735 1161 L
3738 1168 L
3740 1165 L
3742 1180 L
3744 1187 L
3747 1152 L
3749 1200 L
3751 1182 L
3753 1214 L
3755 1212 L
3757 1156 L
3760 1172 L
3762 1177 L
3764 1184 L
3766 1149 L
3768 1182 L
3770 1134 L
3772 1221 L
3774 1173 L
3776 1197 L
3778 1194 L
3780 1198 L
3781 1199 L
3783 1183 L
3785 1175 L
3787 1245 L
3789 1151 L
3791 1137 L
3793 1210 L
3795 1169 L
3796 1168 L
3798 1180 L
3800 1214 L
3802 1201 L
3803 1180 L
3805 1169 L
3807 1166 L
3809 1192 L
3810 1160 L
3812 1195 L
3814 1155 L
3816 1167 L
3817 1191 L
3819 1208 L
3820 1187 L
3822 1203 L
3824 1220 L
3825 1170 L
3827 1172 L
3829 1170 L
3830 1180 L
3832 1185 L
3833 1179 L
3835 1168 L
3836 1175 L
3838 1130 L
3839 1107 L
3841 1215 L
3842 1215 L
3844 1155 L
3845 1234 L
3847 1146 L
3848 1209 L
3850 1126 L
3851 1236 L
3853 1165 L
3854 1198 L
3856 1215 L
3857 1191 L
3859 1144 L
3860 1169 L
3861 1197 L
3863 1205 L
3864 1167 L
3866 1186 L
3867 1209 L
3868 1183 L
3870 1194 L
3871 1194 L
3872 1150 L
3874 1164 L
3875 1180 L
3876 1102 L
3878 1209 L
3879 1136 L
3880 1129 L
3882 1168 L
3883 1182 L
3884 1138 L
3885 1131 L
3887 1153 L
3888 1198 L
3889 1169 L
3890 1146 L
3892 1161 L
3893 1170 L
3894 1127 L
3895 1197 L
3897 1201 L
3898 1176 L
3899 1202 L
3900 1196 L
3901 1219 L
3903 1213 L
3904 1149 L
3905 1177 L
3906 1162 L
3907 1155 L
3908 1198 L
3910 1225 L
3911 1137 L
3912 1151 L
3913 1172 L
3914 1154 L
3915 1216 L
3917 1093 L
3918 1180 L
3919 1171 L
3920 1108 L
3921 1200 L
3922 1217 L
3923 1239 L
3924 1229 L
3925 1190 L
3926 1244 L
3928 1177 L
3929 1190 L
3930 1185 L
3931 1140 L
3932 1156 L
3933 1153 L
3934 1221 L
3935 1137 L
3936 1131 L
3937 1168 L
3938 1192 L
3939 1152 L
3940 1183 L
3941 1170 L
3942 1134 L
3943 1114 L
3944 1191 L
3945 1147 L
3946 1205 L
3947 1122 L
3948 1193 L
3949 1217 L
3950 1165 L
3951 1129 L
3952 1167 L
3953 1150 L
3954 1182 L
3955 1190 L
3956 1152 L
3957 1166 L
3958 1142 L
3959 1232 L
3960 1167 L
3961 1178 L
3962 1174 L
3963 1215 L
3964 1139 L
3965 1172 L
3966 1155 L
3966 1186 L
3967 1154 L
3968 1160 L
3969 1128 L
3970 1184 L
3971 1155 L
3972 1170 L
3973 1180 L
3974 1168 L
3975 1187 L
3976 1166 L
3976 1175 L
3977 1172 L
3978 1183 L
3979 1224 L
3980 1168 L
3981 1153 L
3982 1208 L
3983 1171 L
3983 1192 L
3984 1196 L
3985 1147 L
3986 1189 L
3987 1137 L
3988 1217 L
3989 1127 L
3989 1140 L
3990 1126 L
3991 1194 L
3992 1144 L
3993 1204 L
3994 1182 L
3995 1086 L
3995 1163 L
3996 1192 L
3997 1146 L
3998 1207 L
3999 1165 L
3999 1191 L
4000 1172 L
4001 1155 L
4002 1084 L
4003 1192 L
4003 1135 L
4004 1215 L
4005 1170 L
4006 1185 L
4007 1204 L
4007 1091 L
4008 1141 L
4009 1138 L
4010 1161 L
4011 1199 L
4011 1156 L
4012 1118 L
4013 1192 L
4014 1150 L
4014 1128 L
4015 1146 L
4016 1111 L
4017 1167 L
4017 1187 L
4018 1195 L
4019 1164 L
4020 1201 L
4021 1198 L
4021 1135 L
4022 1190 L
4023 1145 L
4023 1156 L
4024 1197 L
4025 1122 L
4026 1142 L
4026 1173 L
4027 1209 L
4028 1145 L
4029 1132 L
4029 1129 L
4030 1155 L
4031 1170 L
4032 1172 L
4032 1131 L
4033 1163 L
4034 1179 L
4034 1169 L
4035 1196 L
4036 1188 L
4036 1181 L
4037 1100 L
4038 1175 L
4039 1135 L
4039 1232 L
4040 1179 L
4041 1170 L
4041 1179 L
4042 1164 L
4043 1119 L
4043 1175 L
4044 1189 L
4045 1176 L
4045 1176 L
4046 1130 L
4047 1135 L
4047 1164 L
4048 1135 L
4049 1160 L
4050 1131 L
4050 1144 L
4051 1161 L
4052 1150 L
4052 1160 L
4053 1165 L
4053 1164 L
4054 1147 L
4055 1178 L
4055 1189 L
4056 1165 L
4057 1180 L
4057 1189 L
4058 1180 L
4059 1149 L
4059 1176 L
4060 1159 L
4061 1137 L
4061 1146 L
4062 1195 L
L2 C02 COSGR

%
% Main frame
%
L10
GSN 
620 1700 M
4220 1700 L
4220 5300 L
620 5300 L
closepath SGR

%
% X axis: large tics
%
L10
GSN 1130 1700 M 0  54 rL SGR
GSN 1130 5300 M 0 -54 rL SGR
helvS (0.0001) 1130 470 xlabel
GSN 1716 1700 M 0  54 rL SGR
GSN 1716 5300 M 0 -54 rL SGR
helvS (0.001) 1716 470 xlabel
GSN 2303 1700 M 0  54 rL SGR
GSN 2303 5300 M 0 -54 rL SGR
helvS (0.01) 2303 470 xlabel
GSN 2889 1700 M 0  54 rL SGR
GSN 2889 5300 M 0 -54 rL SGR
helvS (0.1) 2889 470 xlabel
GSN 3476 1700 M 0  54 rL SGR
GSN 3476 5300 M 0 -54 rL SGR
helvS (1) 3476 470 xlabel
GSN 4062 1700 M 0  54 rL SGR
GSN 4062 5300 M 0 -54 rL SGR
helvS (10) 4062 470 xlabel
%
% X axis: small tics
%
L5
GSN 720 1700 M 0  36 rL SGR
GSN 720 5300 M 0 -36 rL SGR
GSN 824 1700 M 0  36 rL SGR
GSN 824 5300 M 0 -36 rL SGR
GSN 897 1700 M 0  36 rL SGR
GSN 897 5300 M 0 -36 rL SGR
GSN 954 1700 M 0  36 rL SGR
GSN 954 5300 M 0 -36 rL SGR
GSN 1000 1700 M 0  36 rL SGR
GSN 1000 5300 M 0 -36 rL SGR
GSN 1039 1700 M 0  36 rL SGR
GSN 1039 5300 M 0 -36 rL SGR
GSN 1073 1700 M 0  36 rL SGR
GSN 1073 5300 M 0 -36 rL SGR
GSN 1103 1700 M 0  36 rL SGR
GSN 1103 5300 M 0 -36 rL SGR
GSN 1307 1700 M 0  36 rL SGR
GSN 1307 5300 M 0 -36 rL SGR
GSN 1410 1700 M 0  36 rL SGR
GSN 1410 5300 M 0 -36 rL SGR
GSN 1483 1700 M 0  36 rL SGR
GSN 1483 5300 M 0 -36 rL SGR
GSN 1540 1700 M 0  36 rL SGR
GSN 1540 5300 M 0 -36 rL SGR
GSN 1586 1700 M 0  36 rL SGR
GSN 1586 5300 M 0 -36 rL SGR
GSN 1626 1700 M 0  36 rL SGR
GSN 1626 5300 M 0 -36 rL SGR
GSN 1660 1700 M 0  36 rL SGR
GSN 1660 5300 M 0 -36 rL SGR
GSN 1690 1700 M 0  36 rL SGR
GSN 1690 5300 M 0 -36 rL SGR
GSN 1893 1700 M 0  36 rL SGR
GSN 1893 5300 M 0 -36 rL SGR
GSN 1996 1700 M 0  36 rL SGR
GSN 1996 5300 M 0 -36 rL SGR
GSN 2069 1700 M 0  36 rL SGR
GSN 2069 5300 M 0 -36 rL SGR
GSN 2126 1700 M 0  36 rL SGR
GSN 2126 5300 M 0 -36 rL SGR
GSN 2173 1700 M 0  36 rL SGR
GSN 2173 5300 M 0 -36 rL SGR
GSN 2212 1700 M 0  36 rL SGR
GSN 2212 5300 M 0 -36 rL SGR
GSN 2246 1700 M 0  36 rL SGR
GSN 2246 5300 M 0 -36 rL SGR
GSN 2276 1700 M 0  36 rL SGR
GSN 2276 5300 M 0 -36 rL SGR
GSN 2479 1700 M 0  36 rL SGR
GSN 2479 5300 M 0 -36 rL SGR
GSN 2583 1700 M 0  36 rL SGR
GSN 2583 5300 M 0 -36 rL SGR
GSN 2656 1700 M 0  36 rL SGR
GSN 2656 5300 M 0 -36 rL SGR
GSN 2713 1700 M 0  36 rL SGR
GSN 2713 5300 M 0 -36 rL SGR
GSN 2759 1700 M 0  36 rL SGR
GSN 2759 5300 M 0 -36 rL SGR
GSN 2798 1700 M 0  36 rL SGR
GSN 2798 5300 M 0 -36 rL SGR
GSN 2832 1700 M 0  36 rL SGR
GSN 2832 5300 M 0 -36 rL SGR
GSN 2862 1700 M 0  36 rL SGR
GSN 2862 5300 M 0 -36 rL SGR
GSN 3066 1700 M 0  36 rL SGR
GSN 3066 5300 M 0 -36 rL SGR
GSN 3169 1700 M 0  36 rL SGR
GSN 3169 5300 M 0 -36 rL SGR
GSN 3242 1700 M 0  36 rL SGR
GSN 3242 5300 M 0 -36 rL SGR
GSN 3299 1700 M 0  36 rL SGR
GSN 3299 5300 M 0 -36 rL SGR
GSN 3345 1700 M 0  36 rL SGR
GSN 3345 5300 M 0 -36 rL SGR
GSN 3385 1700 M 0  36 rL SGR
GSN 3385 5300 M 0 -36 rL SGR
GSN 3419 1700 M 0  36 rL SGR
GSN 3419 5300 M 0 -36 rL SGR
GSN 3449 1700 M 0  36 rL SGR
GSN 3449 5300 M 0 -36 rL SGR
GSN 3652 1700 M 0  36 rL SGR
GSN 3652 5300 M 0 -36 rL SGR
GSN 3755 1700 M 0  36 rL SGR
GSN 3755 5300 M 0 -36 rL SGR
GSN 3829 1700 M 0  36 rL SGR
GSN 3829 5300 M 0 -36 rL SGR
GSN 3885 1700 M 0  36 rL SGR
GSN 3885 5300 M 0 -36 rL SGR
GSN 3932 1700 M 0  36 rL SGR
GSN 3932 5300 M 0 -36 rL SGR
GSN 3971 1700 M 0  36 rL SGR
GSN 3971 5300 M 0 -36 rL SGR
GSN 4005 1700 M 0  36 rL SGR
GSN 4005 5300 M 0 -36 rL SGR
GSN 4035 1700 M 0  36 rL SGR
GSN 4035 5300 M 0 -36 rL SGR
%
% Y axis: large tics
%
L10
GSN 620 2370 M 54 0 rL SGR
GSN 4220 2370 M -54 0 rL SGR
helvS (1.1) 560 2370 ylabel
GSN 620 3111 M 54 0 rL SGR
GSN 4220 3111 M -54 0 rL SGR
helvS (1.125) 560 3111 ylabel
GSN 620 3851 M 54 0 rL SGR
GSN 4220 3851 M -54 0 rL SGR
helvS (1.15) 560 3851 ylabel
GSN 620 4591 M 54 0 rL SGR
GSN 4220 4591 M -54 0 rL SGR
helvS (1.175) 560 4591 ylabel
%
% Y axis: small tics
%
L5
GSN 620 1778 M 36 0 rL SGR
GSN 4220 1778 M -36 0 rL SGR
GSN 620 2148 M 36 0 rL SGR
GSN 4220 2148 M -36 0 rL SGR
GSN 620 2519 M 36 0 rL SGR
GSN 4220 2519 M -36 0 rL SGR
GSN 620 2889 M 36 0 rL SGR
GSN 4220 2889 M -36 0 rL SGR
GSN 620 3259 M 36 0 rL SGR
GSN 4220 3259 M -36 0 rL SGR
GSN 620 3629 M 36 0 rL SGR
GSN 4220 3629 M -36 0 rL SGR
GSN 620 3999 M 36 0 rL SGR
GSN 4220 3999 M -36 0 rL SGR
GSN 620 4369 M 36 0 rL SGR
GSN 4220 4369 M -36 0 rL SGR
GSN 620 4739 M 36 0 rL SGR
GSN 4220 4739 M -36 0 rL SGR
GSN 620 5109 M 36 0 rL SGR
GSN 4220 5109 M -36 0 rL SGR

%
% X-Axis label:
%
gsave 2420 290 M 
[
[(Helvetica) 180 0 true true 0 (t)]
[(Helvetica) 180 0 true true 0 (i)]
[(Helvetica) 180 0 true true 0 (m)]
[(Helvetica) 180 0 true true 0 (e)]
] 0 MCshow grestore

%
% Y-Axis label:
%
gsave 234 3500 M 
currentpoint gsave translate 90 rotate 0 0 moveto
[
[(Helvetica) 180 0 true true 0 (s)]
[(Helvetica) 180 0 true true 0 (i)]
[(Helvetica) 180 0 true true 0 (g)]
[(Helvetica) 180 0 true true 0 (n)]
[(Helvetica) 180 0 true true 0 (a)]
[(Helvetica) 180 0 true true 0 (l)]
] 0 MCshow grestore

%
% Residuals:
%
gsave 129 1160 M 
currentpoint gsave translate 90 rotate 0 0 moveto
[
[(Helvetica) 150 0 true true 0 (r)]
[(Helvetica) 150 0 true true 0 (e)]
[(Helvetica) 150 0 true true 0 (s)]
[(Helvetica) 150 0 true true 0 (i)]
[(Helvetica) 150 0 true true 0 (d)]
[(Helvetica) 150 0 true true 0 (u)]
[(Helvetica) 150 0 true true 0 (a)]
[(Helvetica) 150 0 true true 0 (l)]
[(Helvetica) 150 0 true true 0 (s)]
] 0 MCshow grestore

%
% Residual frame
%
L10
GSN 
620 620 M
4220 620 L
4220 1700 L
620 1700 L
closepath SGR
%
% X axis: large tics - residual frame
%
L10
GSN 1130 620 M 0  54 rL SGR
GSN 1130 1700 M 0 -54 rL SGR
GSN 1716 620 M 0  54 rL SGR
GSN 1716 1700 M 0 -54 rL SGR
GSN 2303 620 M 0  54 rL SGR
GSN 2303 1700 M 0 -54 rL SGR
GSN 2889 620 M 0  54 rL SGR
GSN 2889 1700 M 0 -54 rL SGR
GSN 3476 620 M 0  54 rL SGR
GSN 3476 1700 M 0 -54 rL SGR
GSN 4062 620 M 0  54 rL SGR
GSN 4062 1700 M 0 -54 rL SGR
%
% X axis: small tics - residual frame
%
L5
GSN 720 620 M 0  36 rL SGR
GSN 720 1700 M 0 -36 rL SGR
GSN 824 620 M 0  36 rL SGR
GSN 824 1700 M 0 -36 rL SGR
GSN 897 620 M 0  36 rL SGR
GSN 897 1700 M 0 -36 rL SGR
GSN 954 620 M 0  36 rL SGR
GSN 954 1700 M 0 -36 rL SGR
GSN 1000 620 M 0  36 rL SGR
GSN 1000 1700 M 0 -36 rL SGR
GSN 1039 620 M 0  36 rL SGR
GSN 1039 1700 M 0 -36 rL SGR
GSN 1073 620 M 0  36 rL SGR
GSN 1073 1700 M 0 -36 rL SGR
GSN 1103 620 M 0  36 rL SGR
GSN 1103 1700 M 0 -36 rL SGR
GSN 1307 620 M 0  36 rL SGR
GSN 1307 1700 M 0 -36 rL SGR
GSN 1410 620 M 0  36 rL SGR
GSN 1410 1700 M 0 -36 rL SGR
GSN 1483 620 M 0  36 rL SGR
GSN 1483 1700 M 0 -36 rL SGR
GSN 1540 620 M 0  36 rL SGR
GSN 1540 1700 M 0 -36 rL SGR
GSN 1586 620 M 0  36 rL SGR
GSN 1586 1700 M 0 -36 rL SGR
GSN 1626 620 M 0  36 rL SGR
GSN 1626 1700 M 0 -36 rL SGR
GSN 1660 620 M 0  36 rL SGR
GSN 1660 1700 M 0 -36 rL SGR
GSN 1690 620 M 0  36 rL SGR
GSN 1690 1700 M 0 -36 rL SGR
GSN 1893 620 M 0  36 rL SGR
GSN 1893 1700 M 0 -36 rL SGR
GSN 1996 620 M 0  36 rL SGR
GSN 1996 1700 M 0 -36 rL SGR
GSN 2069 620 M 0  36 rL SGR
GSN 2069 1700 M 0 -36 rL SGR
GSN 2126 620 M 0  36 rL SGR
GSN 2126 1700 M 0 -36 rL SGR
GSN 2173 620 M 0  36 rL SGR
GSN 2173 1700 M 0 -36 rL SGR
GSN 2212 620 M 0  36 rL SGR
GSN 2212 1700 M 0 -36 rL SGR
GSN 2246 620 M 0  36 rL SGR
GSN 2246 1700 M 0 -36 rL SGR
GSN 2276 620 M 0  36 rL SGR
GSN 2276 1700 M 0 -36 rL SGR
GSN 2479 620 M 0  36 rL SGR
GSN 2479 1700 M 0 -36 rL SGR
GSN 2583 620 M 0  36 rL SGR
GSN 2583 1700 M 0 -36 rL SGR
GSN 2656 620 M 0  36 rL SGR
GSN 2656 1700 M 0 -36 rL SGR
GSN 2713 620 M 0  36 rL SGR
GSN 2713 1700 M 0 -36 rL SGR
GSN 2759 620 M 0  36 rL SGR
GSN 2759 1700 M 0 -36 rL SGR
GSN 2798 620 M 0  36 rL SGR
GSN 2798 1700 M 0 -36 rL SGR
GSN 2832 620 M 0  36 rL SGR
GSN 2832 1700 M 0 -36 rL SGR
GSN 2862 620 M 0  36 rL SGR
GSN 2862 1700 M 0 -36 rL SGR
GSN 3066 620 M 0  36 rL SGR
GSN 3066 1700 M 0 -36 rL SGR
GSN 3169 620 M 0  36 rL SGR
GSN 3169 1700 M 0 -36 rL SGR
GSN 3242 620 M 0  36 rL SGR
GSN 3242 1700 M 0 -36 rL SGR
GSN 3299 620 M 0  36 rL SGR
GSN 3299 1700 M 0 -36 rL SGR
GSN 3345 620 M 0  36 rL SGR
GSN 3345 1700 M 0 -36 rL SGR
GSN 3385 620 M 0  36 rL SGR
GSN 3385 1700 M 0 -36 rL SGR
GSN 3419 620 M 0  36 rL SGR
GSN 3419 1700 M 0 -36 rL SGR
GSN 3449 620 M 0  36 rL SGR
GSN 3449 1700 M 0 -36 rL SGR
GSN 3652 620 M 0  36 rL SGR
GSN 3652 1700 M 0 -36 rL SGR
GSN 3755 620 M 0  36 rL SGR
GSN 3755 1700 M 0 -36 rL SGR
GSN 3829 620 M 0  36 rL SGR
GSN 3829 1700 M 0 -36 rL SGR
GSN 3885 620 M 0  36 rL SGR
GSN 3885 1700 M 0 -36 rL SGR
GSN 3932 620 M 0  36 rL SGR
GSN 3932 1700 M 0 -36 rL SGR
GSN 3971 620 M 0  36 rL SGR
GSN 3971 1700 M 0 -36 rL SGR
GSN 4005 620 M 0  36 rL SGR
GSN 4005 1700 M 0 -36 rL SGR
GSN 4035 620 M 0  36 rL SGR
GSN 4035 1700 M 0 -36 rL SGR
%
% Y axis: large tics - residual frame
%
L10
GSN 620 736 M 54 0 rL SGR
GSN 4220 736 M -54 0 rL SGR
helvS (-0.05) 560 736 ylabelresid
GSN 620 1182 M 54 0 rL SGR
GSN 4220 1182 M -54 0 rL SGR
helvS (0) 560 1182 ylabelresid
GSN 620 1629 M 54 0 rL SGR
GSN 4220 1629 M -54 0 rL SGR
helvS (0.05) 560 1629 ylabelresid

%
% X axis - residual panel
%
GSN L5 620 1182 M 4220 1182 L SDA G50 SGR

end
showpage
%%Trailer
%%EOF
