%!PS-Adobe-3.0 EPSF-3.0
%%BoundingBox: 0 0 514 550
%%Creator: BioKin Ltd.
%%DocumentFonts: Symbol Helvetica
%%EndComments
%
/bkdict 256 dict def
bkdict begin
/M {moveto} def 
/R {rmoveto} def
/L {lineto} def
/rL {rlineto} def
/GSN {gsave newpath} def
/SGR {stroke grestore} def
/COSGR {gsave setrgbcolor stroke grestore grestore} def
/SL {setlinewidth} def
/LWMB {12} def             % line width - model curves, black & white
/LWMC {10} def             % line width - model curves, color
/L2 {2.5 setlinewidth} def
/L5 {5 setlinewidth} def
/L10 {10 setlinewidth} def
/G50 {0.5 setgray} def
/SDA {[10  20] 0 setdash} def % axes
/helvT {/Helvetica findfont 100 scalefont setfont} def % tiny
/helvS {/Helvetica findfont 125 scalefont setfont} def % small
/helvM {/Helvetica findfont 150 scalefont setfont} def % medium
/helvL {/Helvetica findfont 175 scalefont setfont} def % large
/xlabel {gsave M dup
   stringwidth exch -0.5 mul exch rmoveto show grestore} def 
/ylabel {gsave M 90 rotate dup
   stringwidth exch -0.5 mul exch rmoveto show grestore} def
/ylabelresid {gsave M dup
   stringwidth exch -1 mul exch rmoveto show grestore} def
% ======
% Shapes
% ======
% Circle:
/Circ {0 360 arc closepath} def
%
% Square:
/Squa {dup dup -0.5 mul dup dup R -2 mul 0 exch rL 1 mul 0 rL dup 0 exch -1 mul rL closepath} def
%
% Triangle Up:
/TriU {dup dup dup -0.4 mul exch -0.5 mul exch R dup 0.5 mul exch rL dup -1 mul exch 0.5 mul exch rL closepath} def 
%
% Triangle Down:
/TriD {dup dup dup 0.4 mul exch -0.5 mul exch R dup 0.5 mul exch -1 mul rL dup 0.5 mul exch rL closepath} def 
%
% Diamond:
/Diam {45 rotate Squa} def
% ======
% Fills
% ======
/GRF {gsave setgray fill grestore} def                    % gray-level Fill
/COF {gsave setrgbcolor fill grestore} def                % color fill
% ======
% Colors
% ======
/C01 {1.00	0.00	0.00} def      % Red
/C02 {0.00	0.00	1.00} def      % Blue
/C03 {0.00	0.39	0.00} def      % Dark Green
/C04 {0.78	0.08	0.52} def      % Medium Violet Red
/C05 {0.55	0.27	0.07} def      % Saddle Brown
/C06 {0.10	0.70	0.70} def      % (cyan)
/C07 {1.00	0.55	0.00} def      % Dark Orange
/C08 {0.63	0.13	0.94} def      % Purple
/C09 {0.00	0.75	1.00} def      % Deep Sky Blue
/C10 {0.20	0.80	0.20} def      % Lime Green
/C11 {0.47	0.53	0.60} def      % Light Slate Gray
/C12 {0.00	0.00	0.00} def      % Black            % or: {0.19	0.31	0.31} def      % Dark Slate Gray
%
/LGR {0.75} def % light gray
/DGR {0.33} def % dark gray
%
% =============
% Dash patterns
% =============
/dash01 { [80  20] 0 setdash } def
/dash02 { [40  20] 0 setdash } def
/dash03 { [80  20  10  20] 0 setdash } def
/dash04 { [40  20  10  20] 0 setdash } def
/dash05 { [80  20  10  10  10  20] 0 setdash } def
/dash06 { [40  20  10  10  10  20] 0 setdash } def
/dash07 { [10  10] 0 setdash } def
%
/MFshow {
   { dup 5 get 3 ge
     { 5 get 3 eq {gsave} {grestore} ifelse }
     {dup dup 0 get findfont exch 1 get scalefont setfont
     [ currentpoint ] exch dup 2 get 0 exch R dup 5 get 2 ne {dup dup 6
     get exch 4 get {show} {stringwidth pop 0 R} ifelse }if dup 5 get 0 eq
     {dup 3 get {2 get neg 0 exch R pop} {pop aload pop M} ifelse} {dup 5
     get 1 eq {dup 2 get exch dup 3 get exch 6 get stringwidth pop -2 div
     dup 0 R} {dup 6 get stringwidth pop -2 div 0 R 6 get
     show 2 index {aload pop M neg 3 -1 roll neg R pop pop} {pop pop pop
     pop aload pop M} ifelse }ifelse }ifelse }
     ifelse }
   forall} bind def
/MFwidth {0 exch {dup 3 get{dup dup 0 get findfont exch 1 get scalefont
     setfont 6 get stringwidth pop add} {pop} ifelse} forall} bind def
/MCshow { currentpoint stroke M
  exch dup MFwidth -2 div 3 -1 roll R MFshow } def
%
end
%%EndProlog
bkdict begin
0.1 0.1 scale
%
% Residuals:
%
GSN 620 2136 M
620 4534 L
620 4635 L
620 4410 L
620 4324 L
620 4407 L
620 4717 L
620 4591 L
620 4657 L
620 4661 L
620 4777 L
620 4721 L
620 4836 L
620 4644 L
620 4579 L
620 4645 L
620 4757 L
620 4633 L
620 4725 L
620 4847 L
620 4863 L
620 4757 L
620 4659 L
620 4725 L
620 4777 L
620 4708 L
620 4777 L
620 4728 L
620 4578 L
620 4838 L
620 4755 L
620 4785 L
620 4820 L
620 4653 L
620 4548 L
620 4745 L
620 4686 L
620 4540 L
620 4752 L
620 4684 L
620 4639 L
620 4705 L
620 4734 L
620 4718 L
620 4615 L
620 4551 L
620 4630 L
620 4803 L
620 4703 L
620 4743 L
620 4662 L
620 4730 L
620 4587 L
620 4662 L
620 4726 L
620 4600 L
620 4570 L
620 4611 L
620 4641 L
620 4659 L
620 4748 L
620 4589 L
620 4591 L
620 4432 L
620 4668 L
620 4562 L
620 4602 L
620 4537 L
620 4609 L
620 4603 L
620 4611 L
620 4437 L
620 4616 L
620 4631 L
620 4720 L
620 4584 L
620 4581 L
620 4545 L
620 4420 L
620 4477 L
620 4587 L
620 4592 L
620 4692 L
620 4668 L
620 4509 L
620 4529 L
620 4567 L
620 4562 L
620 4500 L
620 4610 L
620 4476 L
620 4402 L
620 4465 L
620 4430 L
620 4475 L
620 4480 L
620 4626 L
620 4505 L
620 4426 L
620 4565 L
620 4368 L
620 4442 L
620 4463 L
620 4530 L
620 4497 L
620 4392 L
620 4410 L
620 4424 L
620 4492 L
620 4601 L
620 4513 L
620 4438 L
620 4293 L
620 4433 L
620 4422 L
620 4405 L
620 4367 L
620 4738 L
620 4469 L
620 4520 L
620 4339 L
620 4525 L
620 4409 L
620 4395 L
620 4534 L
620 4518 L
620 4483 L
620 4368 L
620 4460 L
620 4528 L
620 4413 L
620 4293 L
620 4303 L
620 4359 L
620 4427 L
620 4425 L
620 4511 L
620 4404 L
620 4415 L
620 4382 L
620 4376 L
620 4351 L
620 4338 L
620 4365 L
620 4223 L
620 4432 L
620 4496 L
620 4322 L
620 4420 L
620 4260 L
620 4370 L
620 4422 L
620 4244 L
620 4392 L
620 4256 L
620 4221 L
620 4338 L
620 4359 L
620 4394 L
620 4356 L
620 4390 L
620 4243 L
620 4373 L
620 4290 L
620 4183 L
620 4203 L
620 4416 L
620 4288 L
620 4369 L
620 4450 L
620 4421 L
620 4225 L
620 4465 L
620 4345 L
620 4306 L
620 4414 L
620 4287 L
620 4180 L
620 4219 L
620 4263 L
620 4179 L
620 4192 L
620 4125 L
620 4395 L
620 4314 L
620 4402 L
620 4319 L
620 4262 L
620 4289 L
620 4347 L
620 4064 L
620 4191 L
620 4317 L
620 4219 L
620 4313 L
620 4407 L
620 4250 L
620 4228 L
620 4275 L
620 4200 L
620 4265 L
620 4299 L
620 4293 L
620 4179 L
620 4318 L
620 4344 L
620 4112 L
620 4229 L
620 4276 L
620 4305 L
620 4164 L
620 4331 L
620 4229 L
620 4215 L
620 4314 L
620 4318 L
620 4071 L
620 4136 L
620 4356 L
620 4317 L
620 4289 L
620 4107 L
620 4188 L
620 4217 L
620 4254 L
620 4170 L
620 4299 L
620 4321 L
620 4105 L
620 4079 L
620 4150 L
620 4128 L
620 4064 L
620 4219 L
620 4170 L
620 4176 L
620 4136 L
620 4218 L
620 4171 L
620 4155 L
620 4267 L
620 4258 L
620 4040 L
620 4048 L
620 4055 L
620 4195 L
620 4184 L
620 4262 L
620 4117 L
620 4218 L
620 4163 L
620 4188 L
620 4318 L
620 3911 L
620 4116 L
620 4250 L
620 4159 L
620 3981 L
620 4050 L
620 4187 L
620 4135 L
620 4039 L
620 4209 L
620 4086 L
620 4099 L
620 4120 L
620 4177 L
620 4084 L
620 4220 L
620 4240 L
620 4128 L
620 4142 L
620 4134 L
620 4082 L
620 4076 L
620 4141 L
620 4156 L
620 4116 L
620 4049 L
620 4189 L
620 4066 L
620 4054 L
620 3953 L
620 4140 L
620 4144 L
620 4192 L
620 3965 L
620 4082 L
620 4284 L
620 4080 L
620 4139 L
620 3915 L
620 3895 L
620 3921 L
620 4070 L
620 4024 L
620 4042 L
620 4056 L
620 4168 L
620 4004 L
620 4008 L
620 4024 L
620 4127 L
620 3905 L
620 4036 L
620 4219 L
620 4065 L
620 3921 L
620 4072 L
620 4107 L
620 3952 L
620 4013 L
620 3966 L
620 4019 L
620 3948 L
620 4165 L
620 4066 L
620 3890 L
620 3979 L
620 4006 L
620 3955 L
620 3904 L
620 3983 L
620 3936 L
620 3948 L
620 4106 L
620 4116 L
620 4005 L
620 3894 L
620 4048 L
620 3864 L
620 3952 L
620 4124 L
620 3894 L
620 4151 L
620 4000 L
620 4169 L
620 4156 L
620 3918 L
620 3971 L
620 3838 L
620 3975 L
620 4019 L
620 4187 L
620 3816 L
620 3994 L
620 3945 L
620 3912 L
620 3928 L
620 3851 L
620 4008 L
620 3790 L
620 4139 L
620 3890 L
620 4004 L
620 3908 L
620 3950 L
620 4043 L
620 4171 L
620 3911 L
620 3890 L
620 4164 L
620 3920 L
620 3959 L
620 3979 L
620 4028 L
620 3953 L
620 3962 L
620 3945 L
620 3987 L
620 3793 L
620 3975 L
620 3959 L
620 3834 L
620 3967 L
620 3777 L
620 3815 L
620 4010 L
620 3893 L
620 3912 L
620 4019 L
620 3859 L
620 3939 L
620 3865 L
620 4009 L
620 3793 L
620 3860 L
620 4023 L
620 3772 L
620 3991 L
620 3793 L
620 3839 L
620 3933 L
620 3896 L
620 4042 L
620 3880 L
620 3890 L
620 3831 L
620 3780 L
620 3959 L
620 4021 L
620 3809 L
620 3883 L
620 3868 L
620 3849 L
620 3730 L
620 3811 L
620 4039 L
620 3799 L
620 3847 L
620 3708 L
620 3881 L
620 3812 L
620 3778 L
620 3713 L
620 3805 L
620 3872 L
620 3909 L
620 3729 L
620 3769 L
620 3787 L
620 3647 L
620 3796 L
620 3849 L
620 3646 L
620 3747 L
620 3875 L
620 3653 L
620 3641 L
620 3774 L
620 3799 L
620 3601 L
620 3604 L
620 3835 L
620 3621 L
620 3746 L
620 3644 L
620 3670 L
620 3743 L
620 3534 L
620 3603 L
620 3806 L
620 3571 L
620 3672 L
620 3650 L
620 3556 L
620 3740 L
620 3595 L
620 3559 L
620 3536 L
620 3497 L
620 3645 L
620 3536 L
620 3422 L
620 3642 L
620 3568 L
620 3493 L
620 3376 L
620 3733 L
620 3693 L
620 3591 L
620 3669 L
620 3649 L
620 3452 L
620 3610 L
620 3611 L
620 3513 L
620 3655 L
620 3514 L
620 3672 L
620 3378 L
620 3607 L
620 3606 L
620 3416 L
620 3388 L
620 3439 L
620 3544 L
620 3541 L
620 3487 L
620 3689 L
620 3601 L
620 3577 L
620 3464 L
620 3523 L
620 3501 L
620 3529 L
620 3531 L
620 3567 L
620 3470 L
620 3563 L
620 3332 L
620 3429 L
620 3625 L
620 3356 L
620 3525 L
620 3619 L
620 3501 L
620 3506 L
620 3395 L
620 3300 L
620 3561 L
620 3429 L
620 3458 L
620 3364 L
620 3495 L
620 3485 L
620 3391 L
620 3424 L
620 3444 L
620 3497 L
620 3490 L
620 3390 L
620 3435 L
620 3289 L
620 3409 L
620 3435 L
620 3371 L
620 3371 L
620 3432 L
620 3402 L
620 3462 L
620 3334 L
620 3333 L
620 3397 L
620 3323 L
620 3340 L
620 3447 L
620 3309 L
620 3599 L
620 3258 L
620 3205 L
620 3553 L
620 3216 L
620 3365 L
620 3416 L
620 3321 L
620 3384 L
620 3400 L
620 3497 L
620 3343 L
620 3266 L
620 3319 L
620 3446 L
620 3417 L
620 3347 L
620 3415 L
620 3255 L
620 3302 L
620 3394 L
620 3330 L
620 3406 L
620 3337 L
620 3437 L
620 3348 L
620 3201 L
620 3423 L
620 3241 L
620 3235 L
620 3486 L
620 3134 L
620 3369 L
620 3330 L
620 3188 L
620 3333 L
620 3317 L
620 3252 L
620 3254 L
620 3315 L
620 3342 L
620 3148 L
620 3244 L
620 3200 L
620 3343 L
620 3429 L
620 3360 L
620 3398 L
620 3216 L
620 3148 L
620 3318 L
620 3280 L
620 3162 L
620 3208 L
620 3174 L
620 3300 L
620 3118 L
620 3322 L
620 3414 L
620 3353 L
620 3234 L
620 3283 L
620 3076 L
620 3222 L
620 3194 L
620 3285 L
620 3262 L
620 3356 L
620 3236 L
620 3183 L
620 3317 L
620 3299 L
620 3152 L
620 3285 L
620 3260 L
620 3385 L
620 3224 L
620 3168 L
620 3159 L
620 3147 L
620 3241 L
620 3288 L
620 3219 L
620 3256 L
620 3216 L
620 3211 L
620 3278 L
620 3384 L
620 3303 L
620 3086 L
620 3335 L
620 3280 L
620 3239 L
620 3365 L
620 3130 L
620 3278 L
620 3265 L
620 3421 L
620 3319 L
620 3207 L
620 3114 L
620 3237 L
620 3388 L
620 3141 L
620 3213 L
620 3240 L
620 3146 L
620 3079 L
620 3300 L
620 3095 L
620 3062 L
620 3308 L
620 3252 L
620 3158 L
620 3225 L
620 3237 L
620 3235 L
620 3088 L
620 3377 L
620 3196 L
620 3166 L
620 3141 L
620 3272 L
620 3225 L
620 3164 L
620 3276 L
620 3129 L
620 3210 L
620 3220 L
620 3234 L
620 3248 L
620 3294 L
620 3134 L
620 3164 L
620 3237 L
620 3186 L
620 3033 L
620 2958 L
620 3296 L
620 3198 L
620 3180 L
620 3169 L
620 3284 L
620 3113 L
620 3312 L
620 3102 L
620 3220 L
620 3116 L
620 3113 L
620 3112 L
620 3117 L
620 3231 L
620 3158 L
620 3079 L
620 3203 L
620 3224 L
620 3152 L
620 3278 L
620 3160 L
620 3122 L
620 3314 L
620 3105 L
620 3340 L
620 3230 L
620 3153 L
620 3214 L
620 3127 L
620 3181 L
620 3262 L
620 3157 L
620 3192 L
620 3166 L
620 3185 L
620 3172 L
620 3123 L
620 3156 L
620 3225 L
620 3050 L
620 3138 L
620 3076 L
620 2989 L
620 3222 L
620 3075 L
620 3232 L
620 3244 L
620 3092 L
620 3150 L
620 3055 L
620 3272 L
620 3070 L
620 3299 L
620 3209 L
620 3170 L
620 3157 L
620 3246 L
620 3189 L
620 3251 L
620 3197 L
620 3197 L
620 3136 L
620 3049 L
620 3126 L
620 3265 L
620 3225 L
620 3142 L
620 3093 L
620 3206 L
620 3138 L
620 3193 L
620 3264 L
620 3246 L
620 3176 L
620 3278 L
620 3154 L
620 3211 L
620 3209 L
620 3251 L
620 3183 L
620 3234 L
620 3150 L
620 3229 L
620 3080 L
620 3148 L
620 3081 L
620 3323 L
620 3349 L
620 3301 L
620 3147 L
620 3265 L
620 3218 L
620 3241 L
620 3133 L
620 3096 L
620 3159 L
620 3116 L
620 3307 L
620 3126 L
620 3029 L
620 3301 L
620 3328 L
620 3216 L
620 3184 L
620 3097 L
620 3124 L
620 3016 L
620 3160 L
620 2977 L
620 3120 L
620 3196 L
620 3092 L
620 3281 L
620 3142 L
620 3087 L
620 2905 L
620 3231 L
620 3215 L
620 3075 L
620 3056 L
620 3222 L
620 3246 L
620 3106 L
620 3129 L
620 3146 L
620 3134 L
620 3130 L
620 3081 L
620 3258 L
620 3123 L
620 3193 L
620 3129 L
620 3266 L
620 3166 L
620 3161 L
620 3101 L
620 3193 L
620 3185 L
620 3192 L
620 3256 L
620 3123 L
620 3166 L
620 3433 L
620 3251 L
620 3286 L
620 3314 L
620 3204 L
620 3094 L
620 3133 L
620 3307 L
620 3299 L
620 3294 L
620 3120 L
620 3234 L
620 3143 L
620 3183 L
620 3182 L
620 3267 L
620 3227 L
620 3263 L
620 3156 L
620 3233 L
620 3157 L
620 3269 L
620 3401 L
620 3201 L
620 3170 L
620 3180 L
620 3275 L
620 3175 L
620 3233 L
620 3249 L
620 2988 L
620 3167 L
620 3207 L
620 3150 L
620 3246 L
620 3212 L
620 3248 L
620 3158 L
620 3276 L
620 3199 L
620 3251 L
620 3193 L
620 3340 L
620 3209 L
620 3227 L
620 3181 L
620 3193 L
620 3121 L
620 3109 L
620 3249 L
620 3419 L
620 3170 L
620 3148 L
620 3053 L
620 3183 L
620 3313 L
620 3336 L
620 3256 L
620 3293 L
620 3207 L
620 3214 L
620 3241 L
620 3266 L
620 3100 L
620 3276 L
620 3275 L
620 3310 L
620 3217 L
620 3268 L
620 3274 L
620 3309 L
620 3328 L
620 3103 L
620 3248 L
620 3189 L
620 3317 L
620 3226 L
620 3270 L
620 3160 L
620 2954 L
620 3112 L
620 3257 L
620 3286 L
620 3214 L
620 3341 L
620 3347 L
620 3202 L
620 3191 L
620 3188 L
620 3515 L
620 3198 L
620 3281 L
620 3138 L
620 3230 L
620 3086 L
620 3322 L
620 3087 L
620 3273 L
620 3124 L
620 3229 L
620 3357 L
620 3200 L
620 3258 L
620 3290 L
620 3230 L
620 3217 L
620 3075 L
620 3230 L
620 3331 L
620 3310 L
620 3298 L
620 3183 L
620 3073 L
620 3124 L
620 3081 L
620 3150 L
620 3526 L
620 3272 L
620 3238 L
620 3197 L
620 3259 L
620 3435 L
620 3173 L
620 3355 L
620 3108 L
620 3243 L
620 3106 L
620 3219 L
620 3164 L
620 3224 L
620 3277 L
620 3222 L
620 3120 L
620 3325 L
620 3157 L
620 3332 L
620 3284 L
620 3467 L
620 2987 L
620 3208 L
620 3262 L
620 3291 L
620 3323 L
620 3069 L
620 3305 L
620 3368 L
620 3319 L
620 3113 L
620 3081 L
620 3162 L
620 3195 L
620 3268 L
620 3412 L
620 3356 L
620 3366 L
620 3254 L
620 3071 L
620 3128 L
620 3117 L
620 3167 L
620 3190 L
620 3193 L
620 3275 L
620 3170 L
620 3279 L
620 3209 L
620 3235 L
620 3397 L
620 3163 L
620 3159 L
620 3227 L
620 3226 L
620 3281 L
620 3170 L
620 3188 L
620 3354 L
620 3139 L
620 3321 L
620 3192 L
620 3382 L
620 3318 L
620 3401 L
620 3338 L
620 3155 L
620 3111 L
620 3254 L
620 3291 L
620 3393 L
620 3237 L
620 3276 L
620 3196 L
620 3200 L
620 3325 L
620 3243 L
620 3129 L
620 3075 L
620 3136 L
620 3398 L
620 3176 L
620 3319 L
620 3273 L
620 3340 L
620 3065 L
620 3218 L
620 3097 L
620 3344 L
620 3359 L
620 3164 L
620 3237 L
620 3197 L
620 3349 L
620 3212 L
620 3304 L
620 3300 L
620 3167 L
620 3276 L
620 3220 L
620 3240 L
620 3409 L
620 3199 L
620 3115 L
620 3314 L
620 3250 L
620 3307 L
620 3257 L
620 3206 L
620 3344 L
620 3214 L
620 3419 L
620 3192 L
620 3326 L
620 3256 L
620 3280 L
620 3374 L
620 3331 L
620 3352 L
620 3316 L
620 3221 L
620 3310 L
620 3156 L
620 3241 L
620 3268 L
620 3255 L
620 3173 L
620 3371 L
620 3163 L
620 3291 L
620 3277 L
620 3281 L
620 3434 L
620 3240 L
620 3203 L
620 3387 L
620 3225 L
620 3224 L
620 3303 L
620 3340 L
620 3337 L
620 3465 L
620 3306 L
620 3380 L
620 3231 L
620 3293 L
620 3180 L
620 3348 L
620 3241 L
620 3243 L
620 3364 L
620 3259 L
620 3386 L
620 3267 L
620 3389 L
620 3226 L
620 3397 L
620 3228 L
620 3240 L
620 3293 L
620 3279 L
620 3224 L
620 3392 L
620 3297 L
620 3342 L
620 3198 L
620 3285 L
620 3257 L
620 3336 L
620 3186 L
620 3257 L
620 3356 L
620 3264 L
620 3284 L
620 3363 L
620 3245 L
620 3291 L
620 3443 L
620 3271 L
620 3308 L
620 3398 L
620 3369 L
620 3393 L
620 3268 L
620 3266 L
620 3308 L
620 3234 L
620 3304 L
620 3281 L
620 3252 L
620 3255 L
620 3365 L
620 3233 L
620 3245 L
620 3382 L
620 3258 L
620 3388 L
620 3398 L
620 3365 L
620 3234 L
620 3372 L
620 3276 L
620 3266 L
620 3451 L
620 3280 L
620 3508 L
620 3513 L
620 3149 L
620 3343 L
620 3346 L
620 3291 L
620 3283 L
620 3285 L
620 3308 L
620 3298 L
620 3386 L
620 3392 L
620 3333 L
620 3250 L
620 3212 L
620 3166 L
620 3412 L
620 3387 L
620 3365 L
620 3407 L
620 3275 L
620 3195 L
620 3355 L
620 3188 L
620 3467 L
620 3295 L
620 3411 L
620 3262 L
620 3298 L
620 3318 L
620 3307 L
620 3340 L
620 3327 L
620 3200 L
620 3318 L
620 3270 L
620 3408 L
620 3315 L
620 3431 L
620 3424 L
620 3374 L
620 3282 L
620 3224 L
620 3311 L
620 3339 L
620 3414 L
620 3442 L
620 3243 L
620 3315 L
620 3338 L
620 3324 L
620 3348 L
620 3282 L
620 3405 L
620 3469 L
620 3445 L
620 3396 L
620 3316 L
620 3281 L
620 3416 L
620 3248 L
620 3329 L
620 3276 L
620 3381 L
620 3338 L
620 3099 L
620 3383 L
620 3383 L
620 3340 L
620 3209 L
620 3393 L
620 3377 L
620 3321 L
620 3389 L
620 3284 L
620 3209 L
620 3323 L
620 3297 L
620 3254 L
620 3340 L
620 3452 L
620 3327 L
620 3407 L
620 3344 L
620 3305 L
620 3468 L
620 3367 L
620 3377 L
620 3260 L
620 3287 L
620 3351 L
620 3319 L
620 3468 L
620 3447 L
620 3423 L
620 3077 L
620 3415 L
620 3406 L
620 3402 L
620 3476 L
620 3338 L
620 3355 L
620 3289 L
620 3453 L
620 3368 L
620 3479 L
620 3374 L
620 3356 L
620 3520 L
620 3377 L
620 3366 L
620 3401 L
620 3448 L
620 3288 L
620 3301 L
620 3240 L
620 3367 L
620 3368 L
620 3221 L
620 3359 L
620 3385 L
620 3425 L
620 3447 L
620 3475 L
620 3161 L
620 3418 L
620 3414 L
620 3290 L
620 3455 L
620 3326 L
620 3493 L
620 3176 L
620 3390 L
620 3338 L
620 3484 L
620 3326 L
620 3365 L
620 3392 L
620 3417 L
620 3391 L
620 3332 L
620 3399 L
620 3528 L
620 3545 L
620 3357 L
620 3385 L
620 3273 L
620 3352 L
620 3352 L
620 3278 L
620 3425 L
620 3451 L
620 3503 L
620 3527 L
620 3170 L
620 3365 L
620 3545 L
620 3266 L
620 3321 L
620 3303 L
620 3392 L
620 3337 L
620 3336 L
620 3314 L
620 3423 L
620 3368 L
620 3243 L
620 3401 L
620 3165 L
620 3230 L
620 3386 L
620 3337 L
620 3407 L
620 3262 L
620 3287 L
620 3278 L
620 3476 L
620 3337 L
620 3397 L
620 3499 L
620 3335 L
620 3389 L
620 3279 L
620 3450 L
620 3474 L
620 3444 L
620 3236 L
620 3276 L
620 3312 L
620 3373 L
620 3372 L
620 3301 L
620 3383 L
620 3297 L
620 3339 L
620 3307 L
620 3422 L
620 3477 L
620 3394 L
620 3351 L
620 3373 L
620 3389 L
620 3527 L
620 3334 L
620 3424 L
620 3342 L
620 3335 L
620 3424 L
620 3275 L
620 3517 L
620 3329 L
620 3577 L
620 3523 L
620 3321 L
620 3407 L
620 3297 L
620 3403 L
620 3331 L
620 3527 L
620 3408 L
620 3149 L
620 3494 L
620 3433 L
620 3226 L
620 3410 L
620 3246 L
620 3399 L
620 3505 L
620 3406 L
620 3382 L
620 3383 L
620 3409 L
620 3423 L
620 3442 L
620 3399 L
620 3466 L
620 3427 L
620 3365 L
620 3434 L
620 3351 L
620 3368 L
620 3423 L
620 3281 L
620 3334 L
620 3456 L
620 3399 L
620 3237 L
620 3288 L
620 3306 L
620 3519 L
620 3460 L
620 3351 L
620 3145 L
620 3413 L
620 3464 L
620 3310 L
620 3424 L
620 3187 L
620 3386 L
620 3339 L
620 3430 L
620 3560 L
620 3369 L
620 3411 L
620 3508 L
620 3372 L
620 3452 L
620 3246 L
620 3579 L
620 3297 L
620 3312 L
620 3418 L
620 3380 L
620 3491 L
620 3395 L
620 3471 L
620 3310 L
620 3643 L
620 3359 L
620 3488 L
620 3427 L
620 3418 L
620 3554 L
620 3253 L
620 3556 L
620 3671 L
620 3504 L
620 3220 L
620 3409 L
620 3453 L
620 3498 L
620 3509 L
620 3513 L
620 3690 L
620 3438 L
620 3410 L
620 3471 L
620 3380 L
620 3315 L
620 3518 L
620 3401 L
620 3572 L
620 3258 L
620 3728 L
620 3595 L
620 3336 L
620 3420 L
620 3568 L
620 3606 L
620 3453 L
620 3506 L
620 3398 L
620 3497 L
620 3659 L
620 3580 L
620 3410 L
620 3533 L
620 3512 L
620 3595 L
620 3456 L
620 3559 L
620 3595 L
620 3525 L
620 3486 L
620 3612 L
620 3456 L
620 3471 L
620 3575 L
620 3521 L
620 3584 L
620 3607 L
620 3604 L
620 3603 L
620 3545 L
620 3506 L
620 3595 L
620 3553 L
620 3504 L
620 3529 L
620 3516 L
620 3568 L
620 3592 L
620 3475 L
620 3634 L
620 3574 L
620 3681 L
620 3675 L
620 3488 L
620 3542 L
620 3557 L
620 3581 L
620 3463 L
620 3574 L
620 3414 L
620 3705 L
620 3544 L
620 3625 L
620 3615 L
620 3628 L
620 3631 L
620 3578 L
620 3550 L
620 3786 L
620 3473 L
620 3426 L
620 3666 L
620 3532 L
620 3529 L
620 3566 L
620 3683 L
620 3637 L
620 3566 L
620 3530 L
620 3521 L
620 3609 L
620 3501 L
620 3619 L
620 3483 L
620 3525 L
620 3604 L
620 3662 L
620 3592 L
620 3643 L
620 3702 L
620 3533 L
620 3541 L
620 3533 L
620 3566 L
620 3586 L
620 3563 L
620 3527 L
620 3551 L
620 3400 L
620 3326 L
620 3686 L
620 3683 L
620 3483 L
620 3748 L
620 3454 L
620 3663 L
620 3388 L
620 3755 L
620 3519 L
620 3627 L
620 3684 L
620 3606 L
620 3447 L
620 3531 L
620 3625 L
620 3650 L
620 3524 L
620 3589 L
620 3666 L
620 3578 L
620 3613 L
620 3615 L
620 3466 L
620 3515 L
620 3569 L
620 3308 L
620 3663 L
620 3421 L
620 3398 L
620 3529 L
620 3574 L
620 3427 L
620 3404 L
620 3477 L
620 3628 L
620 3532 L
620 3456 L
620 3506 L
620 3536 L
620 3391 L
620 3624 L
620 3637 L
620 3556 L
620 3642 L
620 3621 L
620 3696 L
620 3678 L
620 3465 L
620 3559 L
620 3507 L
620 3483 L
620 3627 L
620 3718 L
620 3426 L
620 3473 L
620 3542 L
620 3480 L
620 3689 L
620 3279 L
620 3568 L
620 3538 L
620 3329 L
620 3633 L
620 3692 L
620 3765 L
620 3731 L
620 3600 L
620 3781 L
620 3559 L
620 3600 L
620 3583 L
620 3436 L
620 3488 L
620 3477 L
620 3704 L
620 3426 L
620 3404 L
620 3527 L
620 3607 L
620 3474 L
620 3578 L
620 3536 L
620 3415 L
620 3348 L
620 3604 L
620 3457 L
620 3650 L
620 3376 L
620 3610 L
620 3692 L
620 3519 L
620 3398 L
620 3525 L
620 3469 L
620 3574 L
620 3603 L
620 3474 L
620 3521 L
620 3442 L
620 3740 L
620 3524 L
620 3560 L
620 3548 L
620 3686 L
620 3432 L
620 3542 L
620 3483 L
620 3589 L
620 3482 L
620 3500 L
620 3395 L
620 3582 L
620 3486 L
620 3534 L
620 3566 L
620 3528 L
620 3591 L
620 3521 L
620 3551 L
620 3542 L
620 3579 L
620 3716 L
620 3528 L
620 3479 L
620 3660 L
620 3539 L
620 3609 L
620 3622 L
620 3459 L
620 3597 L
620 3424 L
620 3692 L
620 3392 L
620 3435 L
620 3388 L
620 3615 L
620 3447 L
620 3648 L
620 3575 L
620 3255 L
620 3512 L
620 3609 L
620 3454 L
620 3657 L
620 3518 L
620 3604 L
620 3541 L
620 3486 L
620 3247 L
620 3607 L
620 3416 L
620 3686 L
620 3533 L
620 3583 L
620 3648 L
620 3270 L
620 3439 L
620 3429 L
620 3504 L
620 3631 L
620 3489 L
620 3362 L
620 3607 L
620 3466 L
620 3395 L
620 3453 L
620 3336 L
620 3525 L
620 3590 L
620 3619 L
620 3513 L
620 3639 L
620 3628 L
620 3416 L
620 3601 L
620 3450 L
620 3488 L
620 3624 L
620 3374 L
620 3442 L
620 3544 L
620 3665 L
620 3453 L
620 3409 L
620 3397 L
620 3483 L
620 3533 L
620 3541 L
620 3403 L
620 3510 L
620 3565 L
620 3532 L
620 3622 L
620 3595 L
620 3571 L
620 3301 L
620 3550 L
620 3416 L
620 3740 L
620 3563 L
620 3535 L
620 3563 L
620 3515 L
620 3364 L
620 3551 L
620 3598 L
620 3556 L
620 3556 L
620 3400 L
620 3418 L
620 3513 L
620 3418 L
620 3501 L
620 3404 L
620 3448 L
620 3503 L
620 3469 L
620 3500 L
620 3516 L
620 3513 L
620 3457 L
620 3562 L
620 3597 L
620 3519 L
620 3568 L
620 3597 L
620 3566 L
620 3465 L
620 3556 L
620 3497 L
620 3426 L
620 3456 L
620 3616 L
L2 C02 COSGR

%
%================
% Legend - Begin
%================
%
GSN 4240 5180 M
4480 5180 L
LWMC SL  C02 COSGR
GSN 4540 5141 M helvM (1.0 uM) show grestore
%
%================
% Legend - End
%================
%

%
% Main frame
%
L10
GSN 
620 1700 M
4220 1700 L
4220 5300 L
620 5300 L
closepath SGR

%
% X axis: large tics
%
L10
%
% X axis: small tics
%
L5
%
% Y axis: large tics
%
L10
GSN 620 2088 M 54 0 rL SGR
GSN 4220 2088 M -54 0 rL SGR
helvS (-0.05) 560 2088 ylabel
GSN 620 3576 M 54 0 rL SGR
GSN 4220 3576 M -54 0 rL SGR
helvS (0) 560 3576 ylabel
GSN 620 5063 M 54 0 rL SGR
GSN 4220 5063 M -54 0 rL SGR
helvS (0.05) 560 5063 ylabel
%
% Y axis: small tics
%
L5
GSN 620 1791 M 36 0 rL SGR
GSN 4220 1791 M -36 0 rL SGR
GSN 620 2088 M 36 0 rL SGR
GSN 4220 2088 M -36 0 rL SGR
GSN 620 2386 M 36 0 rL SGR
GSN 4220 2386 M -36 0 rL SGR
GSN 620 2683 M 36 0 rL SGR
GSN 4220 2683 M -36 0 rL SGR
GSN 620 2981 M 36 0 rL SGR
GSN 4220 2981 M -36 0 rL SGR
GSN 620 3278 M 36 0 rL SGR
GSN 4220 3278 M -36 0 rL SGR
GSN 620 3576 M 36 0 rL SGR
GSN 4220 3576 M -36 0 rL SGR
GSN 620 3873 M 36 0 rL SGR
GSN 4220 3873 M -36 0 rL SGR
GSN 620 4171 M 36 0 rL SGR
GSN 4220 4171 M -36 0 rL SGR
GSN 620 4468 M 36 0 rL SGR
GSN 4220 4468 M -36 0 rL SGR
GSN 620 4766 M 36 0 rL SGR
GSN 4220 4766 M -36 0 rL SGR
GSN 620 5063 M 36 0 rL SGR
GSN 4220 5063 M -36 0 rL SGR

%
% X axis - residual panel
%
GSN L5 620 3576 M 4220 3576 L SDA G50 SGR

%
% X-Axis label:
%
gsave 620 1370 M 
[
[(Helvetica) 180 0 true true 0 (t)]
[(Helvetica) 180 0 true true 0 (i)]
[(Helvetica) 180 0 true true 0 (m)]
[(Helvetica) 180 0 true true 0 (e)]
] 0 MCshow grestore

%
% Y-Axis label:
%
gsave 234 3500 M 
currentpoint gsave translate 90 rotate 0 0 moveto
[
[(Helvetica) 180 0 true true 0 (r)]
[(Helvetica) 180 0 true true 0 (e)]
[(Helvetica) 180 0 true true 0 (s)]
[(Helvetica) 180 0 true true 0 (i)]
[(Helvetica) 180 0 true true 0 (d)]
[(Helvetica) 180 0 true true 0 (u)]
[(Helvetica) 180 0 true true 0 (a)]
[(Helvetica) 180 0 true true 0 (l)]
[(Helvetica) 180 0 true true 0 (s)]
] 0 MCshow grestore

end
showpage
%%Trailer
%%EOF
