%!PS-Adobe-3.0 EPSF-3.0
%%BoundingBox: 0 0 514 550
%%Creator: BioKin Ltd.
%%DocumentFonts: Symbol Helvetica
%%EndComments
%
/bkdict 256 dict def
bkdict begin
/M {moveto} def 
/R {rmoveto} def
/L {lineto} def
/rL {rlineto} def
/GSN {gsave newpath} def
/SGR {stroke grestore} def
/COSGR {gsave setrgbcolor stroke grestore grestore} def
/SL {setlinewidth} def
/LWMB {12} def             % line width - model curves, black & white
/LWMC {10} def             % line width - model curves, color
/L2 {2.5 setlinewidth} def
/L5 {5 setlinewidth} def
/L10 {10 setlinewidth} def
/G50 {0.5 setgray} def
/SDA {[10  20] 0 setdash} def % axes
/helvT {/Helvetica findfont 100 scalefont setfont} def % tiny
/helvS {/Helvetica findfont 125 scalefont setfont} def % small
/helvM {/Helvetica findfont 150 scalefont setfont} def % medium
/helvL {/Helvetica findfont 175 scalefont setfont} def % large
/xlabel {gsave M dup
   stringwidth exch -0.5 mul exch rmoveto show grestore} def 
/ylabel {gsave M 90 rotate dup
   stringwidth exch -0.5 mul exch rmoveto show grestore} def
/ylabelresid {gsave M dup
   stringwidth exch -1 mul exch rmoveto show grestore} def
% ======
% Shapes
% ======
% Circle:
/Circ {0 360 arc closepath} def
%
% Square:
/Squa {dup dup -0.5 mul dup dup R -2 mul 0 exch rL 1 mul 0 rL dup 0 exch -1 mul rL closepath} def
%
% Triangle Up:
/TriU {dup dup dup -0.4 mul exch -0.5 mul exch R dup 0.5 mul exch rL dup -1 mul exch 0.5 mul exch rL closepath} def 
%
% Triangle Down:
/TriD {dup dup dup 0.4 mul exch -0.5 mul exch R dup 0.5 mul exch -1 mul rL dup 0.5 mul exch rL closepath} def 
%
% Diamond:
/Diam {45 rotate Squa} def
% ======
% Fills
% ======
/GRF {gsave setgray fill grestore} def                    % gray-level Fill
/COF {gsave setrgbcolor fill grestore} def                % color fill
% ======
% Colors
% ======
/C01 {1.00	0.00	0.00} def      % Red
/C02 {0.00	0.00	1.00} def      % Blue
/C03 {0.00	0.39	0.00} def      % Dark Green
/C04 {0.78	0.08	0.52} def      % Medium Violet Red
/C05 {0.55	0.27	0.07} def      % Saddle Brown
/C06 {0.10	0.70	0.70} def      % (cyan)
/C07 {1.00	0.55	0.00} def      % Dark Orange
/C08 {0.63	0.13	0.94} def      % Purple
/C09 {0.00	0.75	1.00} def      % Deep Sky Blue
/C10 {0.20	0.80	0.20} def      % Lime Green
/C11 {0.47	0.53	0.60} def      % Light Slate Gray
/C12 {0.00	0.00	0.00} def      % Black            % or: {0.19	0.31	0.31} def      % Dark Slate Gray
%
/LGR {0.75} def % light gray
/DGR {0.33} def % dark gray
%
% =============
% Dash patterns
% =============
/dash01 { [80  20] 0 setdash } def
/dash02 { [40  20] 0 setdash } def
/dash03 { [80  20  10  20] 0 setdash } def
/dash04 { [40  20  10  20] 0 setdash } def
/dash05 { [80  20  10  10  10  20] 0 setdash } def
/dash06 { [40  20  10  10  10  20] 0 setdash } def
/dash07 { [10  10] 0 setdash } def
%
/MFshow {
   { dup 5 get 3 ge
     { 5 get 3 eq {gsave} {grestore} ifelse }
     {dup dup 0 get findfont exch 1 get scalefont setfont
     [ currentpoint ] exch dup 2 get 0 exch R dup 5 get 2 ne {dup dup 6
     get exch 4 get {show} {stringwidth pop 0 R} ifelse }if dup 5 get 0 eq
     {dup 3 get {2 get neg 0 exch R pop} {pop aload pop M} ifelse} {dup 5
     get 1 eq {dup 2 get exch dup 3 get exch 6 get stringwidth pop -2 div
     dup 0 R} {dup 6 get stringwidth pop -2 div 0 R 6 get
     show 2 index {aload pop M neg 3 -1 roll neg R pop pop} {pop pop pop
     pop aload pop M} ifelse }ifelse }ifelse }
     ifelse }
   forall} bind def
/MFwidth {0 exch {dup 3 get{dup dup 0 get findfont exch 1 get scalefont
     setfont 6 get stringwidth pop add} {pop} ifelse} forall} bind def
/MCshow { currentpoint stroke M
  exch dup MFwidth -2 div 3 -1 roll R MFshow } def
%
end
%%EndProlog
bkdict begin
0.1 0.1 scale
%
% Model curves:
%

GSN 753 5166 M
753 5166 L
786 5165 L
820 5163 L
853 5161 L
886 5159 L
920 5157 L
929 5156 L
953 5154 L
986 5151 L
1020 5147 L
1053 5143 L
1086 5138 L
1106 5135 L
1120 5133 L
1153 5127 L
1186 5120 L
1220 5112 L
1253 5104 L
1282 5095 L
1286 5094 L
1319 5083 L
1353 5070 L
1386 5055 L
1419 5039 L
1453 5021 L
1459 5017 L
1486 5000 L
1519 4977 L
1553 4951 L
1586 4923 L
1619 4890 L
1635 4874 L
1653 4854 L
1686 4814 L
1719 4770 L
1753 4721 L
1786 4668 L
1812 4623 L
1819 4610 L
1853 4546 L
1886 4477 L
1919 4403 L
1953 4324 L
1986 4241 L
1988 4235 L
2019 4152 L
2053 4059 L
2086 3963 L
2119 3864 L
2153 3763 L
2165 3726 L
2186 3660 L
2219 3557 L
2253 3455 L
2286 3354 L
2319 3255 L
2341 3192 L
2353 3159 L
2386 3067 L
2419 2980 L
2453 2898 L
2486 2821 L
2518 2753 L
2519 2750 L
2553 2685 L
2586 2625 L
2619 2572 L
2653 2525 L
2686 2484 L
2694 2474 L
2719 2448 L
2753 2418 L
2786 2392 L
2819 2372 L
2853 2356 L
2871 2349 L
2886 2343 L
2919 2334 L
2953 2328 L
2986 2324 L
3019 2321 L
3047 2320 L
3053 2320 L
3086 2319 L
3119 2319 L
3153 2319 L
3186 2319 L
3219 2319 L
3224 2319 L
3253 2319 L
3286 2319 L
3319 2319 L
3353 2319 L
3386 2319 L
3400 2319 L
3419 2319 L
3453 2319 L
3476 2319 L
3486 2319 L
3519 2319 L
3553 2319 L
3577 2319 L
3586 2319 L
3619 2319 L
3653 2319 L
3686 2319 L
3719 2319 L
3753 2319 L
3754 2319 L
3786 2319 L
3819 2319 L
3853 2319 L
3886 2319 L
3919 2319 L
3930 2319 L
3953 2319 L
3986 2319 L
4019 2319 L
4053 2319 L
4086 2319 L
4086 2319 L
LWMC SL  C03 COSGR

%
% Experimental data:
%
GSN 777 3631 M
1388 3625 L
1552 3646 L
1652 3725 L
1723 3598 L
1778 3513 L
1824 3522 L
1863 3494 L
1896 3479 L
1926 3507 L
1952 3556 L
1976 3594 L
1998 3707 L
2019 3762 L
2037 3569 L
2055 3762 L
2071 3671 L
2086 3577 L
2101 3561 L
2115 3574 L
2128 3725 L
2140 3593 L
2152 3547 L
2163 3763 L
2174 3721 L
2184 3600 L
2194 3493 L
2204 3438 L
2213 3580 L
2222 3598 L
2230 3563 L
2239 3620 L
2247 3523 L
2255 3516 L
2262 3627 L
2270 3490 L
2277 3533 L
2284 3485 L
2290 3613 L
2297 3557 L
2303 3475 L
2310 3378 L
2316 3440 L
2322 3403 L
2328 3430 L
2333 3457 L
2339 3493 L
2344 3477 L
2350 3540 L
2355 3392 L
2360 3400 L
2365 3449 L
2370 3484 L
2375 3427 L
2380 3325 L
2384 3478 L
2389 3434 L
2393 3569 L
2398 3437 L
2402 3340 L
2407 3337 L
2411 3446 L
2415 3406 L
2419 3382 L
2423 3480 L
2427 3410 L
2431 3554 L
2435 3401 L
2438 3336 L
2442 3429 L
2446 3398 L
2449 3326 L
2453 3344 L
2456 3400 L
2460 3364 L
2463 3313 L
2467 3250 L
2470 3282 L
2473 3352 L
2476 3388 L
2480 3282 L
2483 3304 L
2486 3434 L
2489 3307 L
2492 3383 L
2495 3294 L
2498 3343 L
2501 3247 L
2504 3384 L
2507 3331 L
2510 3231 L
2512 3328 L
2515 3379 L
2518 3307 L
2521 3335 L
2523 3275 L
2526 3297 L
2529 3213 L
2531 3104 L
2534 3226 L
2536 3217 L
2539 3255 L
2541 3236 L
2544 3173 L
2546 3108 L
2549 3206 L
2551 3240 L
2554 3219 L
2556 3173 L
2558 3212 L
2561 3240 L
2563 3124 L
2565 3115 L
2568 3332 L
2570 3288 L
2572 3257 L
2574 3188 L
2576 3075 L
2579 3410 L
2581 3155 L
2583 3084 L
2585 3197 L
2587 3259 L
2589 3185 L
2591 3129 L
2593 3164 L
2595 3112 L
2597 3185 L
2599 3131 L
2601 3136 L
2603 3275 L
2605 3026 L
2607 3087 L
2609 3116 L
2611 3161 L
2613 3137 L
2615 3014 L
2617 3054 L
2618 3123 L
2620 3146 L
2622 3148 L
2624 3177 L
2626 3147 L
2627 3003 L
2629 3040 L
2631 3113 L
2633 3119 L
2634 3073 L
2636 3162 L
2638 3054 L
2640 3079 L
2641 3043 L
2643 3117 L
2645 3020 L
2646 3124 L
2648 3068 L
2650 2857 L
2651 3068 L
2653 3007 L
2654 3078 L
2656 2986 L
2658 3078 L
2659 2985 L
2661 2898 L
2662 2979 L
2664 3110 L
2665 3094 L
2667 2964 L
2668 3025 L
2670 3070 L
2671 3061 L
2673 2948 L
2674 3028 L
2676 3031 L
2677 2957 L
2679 3030 L
2680 3004 L
2682 2988 L
2683 2988 L
2685 2954 L
2686 2944 L
2687 3014 L
2689 2945 L
2690 2969 L
2692 2785 L
2693 3059 L
2694 3001 L
2696 2905 L
2697 2883 L
2698 3012 L
2700 3037 L
2701 2946 L
2702 3031 L
2704 2920 L
2705 2903 L
2706 2924 L
2708 2865 L
2709 2992 L
2710 2915 L
2712 2977 L
2713 2934 L
2714 2957 L
2715 2990 L
2717 2875 L
2718 2881 L
2719 2930 L
2720 3011 L
2722 2914 L
2723 2847 L
2724 2985 L
2725 2943 L
2726 2858 L
2728 2908 L
2729 2831 L
2730 2886 L
2731 2829 L
2732 2949 L
2734 2856 L
2735 2923 L
2736 2791 L
2737 2793 L
2738 2893 L
2739 2835 L
2741 2807 L
2742 2746 L
2743 2948 L
2744 2782 L
2745 2880 L
2746 2813 L
2747 2997 L
2748 2846 L
2749 2856 L
2751 2867 L
2752 2802 L
2753 2981 L
2754 2776 L
2755 2829 L
2756 2849 L
2757 2780 L
2758 2856 L
2759 2796 L
2760 2829 L
2761 2933 L
2762 2863 L
2763 2841 L
2764 2868 L
2765 2732 L
2767 2947 L
2768 2972 L
2769 2863 L
2770 2679 L
2771 2858 L
2772 2792 L
2773 2785 L
2774 2881 L
2775 2707 L
2776 2826 L
2777 2755 L
2778 2884 L
2779 2781 L
2780 2785 L
2781 2833 L
2782 2688 L
2783 2829 L
2783 2842 L
2784 2812 L
2785 2746 L
2786 2806 L
2787 2685 L
2788 2743 L
2789 2705 L
2790 2765 L
2791 2650 L
2792 2856 L
2793 2772 L
2794 2798 L
2795 2760 L
2796 2754 L
2797 2674 L
2798 2864 L
2798 2787 L
2799 2881 L
2800 2777 L
2801 2875 L
2802 2789 L
2803 2743 L
2804 2681 L
2805 2783 L
2806 2687 L
2807 2755 L
2807 2642 L
2808 2784 L
2809 2797 L
2810 2708 L
2811 2702 L
2812 2774 L
2813 2668 L
2813 2648 L
2814 2574 L
2815 2733 L
2816 2837 L
2817 2667 L
2818 2752 L
2819 2777 L
2819 2711 L
2820 2755 L
2821 2571 L
2822 2691 L
2823 2827 L
2824 2662 L
2824 2610 L
2825 2681 L
2826 2691 L
2827 2914 L
2828 2666 L
2828 2543 L
2829 2656 L
2830 2624 L
2831 2672 L
2832 2594 L
2832 2674 L
2833 2609 L
2834 2661 L
2835 2735 L
2836 2618 L
2836 2616 L
2837 2570 L
2838 2682 L
2839 2596 L
2840 2576 L
2840 2607 L
2841 2591 L
2842 2642 L
2843 2740 L
2843 2600 L
2844 2631 L
2845 2611 L
2846 2509 L
2846 2628 L
2847 2536 L
2848 2656 L
2849 2792 L
2849 2539 L
2850 2569 L
2851 2703 L
2852 2518 L
2852 2627 L
2853 2640 L
2854 2659 L
2855 2682 L
2855 2741 L
2856 2596 L
2857 2645 L
2857 2611 L
2858 2576 L
2859 2595 L
2860 2625 L
2860 2525 L
2861 2555 L
2862 2527 L
2862 2566 L
2863 2513 L
2864 2689 L
2865 2518 L
2865 2748 L
2866 2552 L
2867 2475 L
2867 2556 L
2868 2614 L
2869 2674 L
2869 2627 L
2870 2584 L
2871 2694 L
2871 2599 L
2872 2547 L
2873 2469 L
2873 2569 L
2874 2678 L
2875 2513 L
2876 2592 L
2876 2694 L
2877 2546 L
2878 2532 L
2878 2523 L
2879 2633 L
2880 2611 L
2880 2509 L
2881 2584 L
2881 2514 L
2882 2549 L
2883 2657 L
2883 2557 L
2884 2633 L
2885 2668 L
2885 2476 L
2886 2506 L
2887 2671 L
2887 2635 L
2888 2511 L
2889 2566 L
2889 2558 L
2892 2687 L
2894 2605 L
2897 2556 L
2899 2637 L
2902 2493 L
2904 2630 L
2907 2620 L
2909 2399 L
2911 2458 L
2914 2472 L
2916 2504 L
2918 2434 L
2921 2586 L
2923 2422 L
2925 2414 L
2927 2441 L
2929 2433 L
2932 2436 L
2934 2465 L
2936 2374 L
2938 2460 L
2940 2449 L
2942 2431 L
2944 2447 L
2946 2362 L
2948 2462 L
2950 2420 L
2952 2340 L
2954 2363 L
2956 2365 L
2958 2404 L
2960 2244 L
2962 2391 L
2964 2435 L
2966 2436 L
2968 2379 L
2970 2421 L
2971 2378 L
2973 2348 L
2975 2274 L
2977 2255 L
2979 2343 L
2980 2270 L
2982 2394 L
2984 2282 L
2986 2337 L
2987 2323 L
2989 2411 L
2991 2326 L
2993 2394 L
2994 2281 L
2996 2365 L
2998 2332 L
2999 2275 L
3001 2283 L
3003 2160 L
3004 2366 L
3006 2219 L
3007 2267 L
3009 2293 L
3011 2263 L
3012 2229 L
3014 2163 L
3015 2306 L
3017 2252 L
3018 2188 L
3020 2208 L
3021 2155 L
3023 2281 L
3024 2235 L
3026 2236 L
3027 2200 L
3029 2106 L
3030 2251 L
3032 2256 L
3033 2251 L
3035 2191 L
3036 2210 L
3038 2320 L
3039 2072 L
3040 2292 L
3042 2140 L
3043 2226 L
3045 2232 L
3046 2222 L
3047 2134 L
3049 2308 L
3050 2205 L
3051 2265 L
3053 2174 L
3054 2075 L
3055 2148 L
3057 2154 L
3058 2200 L
3059 2141 L
3061 2147 L
3062 2111 L
3063 2025 L
3065 2094 L
3066 2170 L
3067 2142 L
3068 2070 L
3070 2173 L
3071 2155 L
3072 2138 L
3073 2237 L
3075 2043 L
3076 2096 L
3077 2198 L
3078 2003 L
3079 2150 L
3081 2189 L
3082 2163 L
3083 2161 L
3084 2061 L
3085 2161 L
3087 2089 L
3088 2170 L
3089 1903 L
3090 2206 L
3091 2080 L
3092 2036 L
3094 2104 L
3095 2037 L
3096 2045 L
3097 2103 L
3098 2116 L
3099 2116 L
3100 2072 L
3101 2114 L
3103 2083 L
3104 2039 L
3105 2144 L
3106 2025 L
3107 2194 L
3108 2043 L
3109 1993 L
3110 2128 L
3111 2066 L
3112 2055 L
3113 2128 L
3114 2175 L
3115 2056 L
3116 2076 L
3117 2070 L
3119 2028 L
3120 2059 L
3121 1942 L
3122 2057 L
3123 1975 L
3124 1930 L
3125 1989 L
3126 2028 L
3127 1989 L
3128 1940 L
3129 2074 L
3130 2034 L
3131 1910 L
3132 2055 L
3133 1996 L
3134 2188 L
3135 1988 L
3136 1986 L
3136 1942 L
3137 1967 L
3138 2014 L
3139 2120 L
3140 2106 L
3141 2058 L
3142 1990 L
3143 2041 L
3144 2007 L
3145 2068 L
3146 1973 L
3147 1974 L
3148 2132 L
3149 1954 L
3150 1990 L
3151 1999 L
3151 2010 L
3152 2079 L
3153 2028 L
3154 1928 L
3155 1976 L
3156 1974 L
3157 2026 L
3158 2049 L
3159 1965 L
3160 1964 L
3160 1970 L
3161 1921 L
3162 1955 L
3163 1989 L
3164 2018 L
3165 2037 L
3166 1930 L
3166 1988 L
3167 1970 L
3168 1930 L
3169 1913 L
3170 1921 L
3171 1964 L
3172 2015 L
3172 2050 L
3173 1963 L
3174 2075 L
3175 1990 L
3176 2099 L
3177 1939 L
3177 1977 L
3178 2013 L
3179 2113 L
3180 2018 L
3181 1854 L
3181 1963 L
3182 2023 L
3183 1931 L
3184 1997 L
3185 1995 L
3185 1898 L
3186 1983 L
3187 1970 L
3188 1984 L
3189 2053 L
3189 1939 L
3190 1954 L
3191 2062 L
3192 2015 L
3193 1948 L
3193 2059 L
3194 1968 L
3195 1942 L
3196 1965 L
3196 1916 L
3197 1965 L
3198 1948 L
3199 1838 L
3199 2021 L
3200 1971 L
3201 1990 L
3202 1939 L
3202 2062 L
3203 1950 L
3204 1868 L
3205 1897 L
3205 1873 L
3206 1926 L
3207 2069 L
3208 1935 L
3208 2005 L
3209 2030 L
3210 2030 L
3210 1840 L
3211 1905 L
3212 1992 L
3213 2058 L
3213 1978 L
3214 1981 L
3215 2018 L
3215 1921 L
3216 1952 L
3217 2055 L
3218 2011 L
3218 1950 L
3219 1874 L
3220 2058 L
3220 1975 L
3221 2171 L
3222 2008 L
3222 2147 L
3223 2014 L
3224 2120 L
3224 1849 L
3225 1950 L
3226 1990 L
3227 1924 L
3227 2071 L
3228 1881 L
3229 2043 L
3229 1912 L
3230 2005 L
3231 1989 L
3231 1872 L
3232 2035 L
3233 1865 L
3233 2032 L
3234 1934 L
3235 2073 L
3235 1963 L
3236 1982 L
3236 1993 L
3237 1967 L
3238 1906 L
3238 1970 L
3239 2038 L
3240 1983 L
3240 1968 L
3241 2011 L
3242 1938 L
3242 1916 L
3243 1863 L
3244 2003 L
3244 1919 L
3245 2047 L
3245 1945 L
3246 1978 L
3247 1971 L
3247 1833 L
3248 1939 L
3249 2099 L
3249 2003 L
3250 1897 L
3250 1946 L
3251 2008 L
3252 1984 L
3252 1999 L
3253 1938 L
3253 1930 L
3254 1991 L
3255 2008 L
3255 2012 L
3256 1868 L
3257 2081 L
3257 1920 L
3258 2039 L
3258 1963 L
3259 2135 L
3259 1897 L
3260 2031 L
3261 1967 L
3261 1944 L
3262 1957 L
3262 2025 L
3263 2064 L
3264 2051 L
3264 2005 L
3265 1985 L
3265 2068 L
3266 1896 L
3267 1916 L
3267 2009 L
3268 1917 L
3268 2015 L
3269 2064 L
3269 1960 L
3270 2029 L
3271 1933 L
3271 1997 L
3272 1929 L
3272 2049 L
3273 1954 L
3273 2039 L
3274 2007 L
3275 2046 L
3275 2012 L
3276 1968 L
3276 1922 L
3277 2067 L
3277 2059 L
3278 2032 L
3278 1935 L
3279 1975 L
3280 2058 L
3280 2067 L
3281 1958 L
3281 2015 L
3282 2009 L
3282 2009 L
3283 1995 L
3283 2055 L
3284 1958 L
3284 2014 L
3285 2010 L
3285 1971 L
3286 2130 L
3287 1951 L
3287 2035 L
3288 2044 L
3288 2060 L
3289 1983 L
3289 1992 L
3290 2018 L
3290 2113 L
3291 1925 L
3291 2094 L
3292 1957 L
3292 2030 L
3293 2084 L
3293 1935 L
3294 1957 L
3294 2046 L
3295 2011 L
3295 2037 L
3296 2006 L
3297 1981 L
3297 2041 L
3298 1972 L
3298 2077 L
3299 2033 L
3299 2061 L
3300 1927 L
3300 1975 L
3301 1992 L
3301 2003 L
3302 1937 L
3302 1981 L
3303 1883 L
3303 2110 L
3304 1962 L
3304 2085 L
3305 2090 L
3305 1975 L
3306 1937 L
3306 2078 L
3307 2112 L
3307 2028 L
3308 1957 L
3308 1970 L
3309 1999 L
3309 2038 L
3310 1975 L
3310 2121 L
3311 1990 L
3311 2032 L
3312 2041 L
3312 2106 L
3312 1890 L
3313 2144 L
3313 1968 L
3314 1995 L
3314 2089 L
3315 1947 L
3315 2000 L
3316 2021 L
3316 2094 L
3317 2054 L
3317 2168 L
3318 1947 L
3318 2002 L
3319 2052 L
3319 1946 L
3320 2035 L
3320 2018 L
3321 2007 L
3321 1904 L
3321 2010 L
3322 2025 L
3322 2015 L
3323 2017 L
3323 2000 L
3324 2173 L
3324 2022 L
3325 2085 L
3325 2111 L
3326 2130 L
3326 2101 L
3327 1991 L
3327 2078 L
3327 2181 L
3328 2064 L
3328 1986 L
3329 2089 L
3329 1947 L
3330 2079 L
3330 1972 L
3331 2069 L
3331 2068 L
3332 2173 L
3332 2026 L
3332 1978 L
3333 2067 L
3333 2252 L
3334 1967 L
3334 1915 L
3335 2081 L
3335 2028 L
3336 2043 L
3336 2033 L
3336 1989 L
3337 2103 L
3337 1928 L
3338 2137 L
3338 1979 L
3339 2154 L
3339 1958 L
3339 2139 L
3340 2053 L
3340 1981 L
3341 2079 L
3341 2083 L
3342 2118 L
3342 2025 L
3343 2072 L
3343 2059 L
3343 1987 L
3344 2080 L
3344 1994 L
3345 1972 L
3345 2059 L
3346 2037 L
3346 1974 L
3346 2086 L
3347 2124 L
3347 2056 L
3348 2043 L
3348 2103 L
3348 2097 L
3349 1973 L
3349 2090 L
3350 1935 L
3350 2025 L
3351 2006 L
3351 2097 L
3351 2110 L
3352 2155 L
3352 2007 L
3353 1998 L
3353 2052 L
3353 2045 L
3354 2044 L
3354 2005 L
3355 2015 L
3355 2062 L
3355 2124 L
3356 2053 L
3356 2082 L
3357 2038 L
3357 2079 L
3358 2034 L
3358 2235 L
3358 2045 L
3359 2110 L
3359 2135 L
3360 2032 L
3360 2130 L
3360 2040 L
3361 2238 L
3361 2056 L
3362 2084 L
3362 2157 L
3362 2046 L
3363 1914 L
3363 2106 L
3364 2045 L
3364 2160 L
3364 2117 L
3365 1927 L
3365 2121 L
3365 2165 L
3366 2155 L
3366 2143 L
3367 2059 L
3367 2068 L
3367 2071 L
3368 2057 L
3368 2183 L
3369 2027 L
3369 2136 L
3369 2120 L
3370 2079 L
3370 2119 L
3371 2086 L
3371 2133 L
3371 2112 L
3372 2094 L
3372 2050 L
3372 2041 L
3373 1915 L
3373 2050 L
3374 1909 L
3374 2107 L
3374 1942 L
3375 2133 L
3375 2143 L
3375 2030 L
3376 2128 L
3376 2035 L
3377 2097 L
3377 2312 L
3377 2142 L
3378 2071 L
3378 1950 L
3378 2101 L
3379 2042 L
3379 2150 L
3380 2053 L
3380 2057 L
3380 2106 L
3381 2216 L
3381 2032 L
3381 2117 L
3382 2101 L
3382 2013 L
3383 2090 L
3383 2041 L
3383 2177 L
3384 2035 L
3384 2295 L
3384 2061 L
3385 2155 L
3385 2150 L
3385 2120 L
3386 2058 L
3386 2206 L
3387 2090 L
3387 2116 L
3387 2210 L
3388 2005 L
3388 2077 L
3388 2124 L
3389 2073 L
3389 2160 L
3389 2068 L
3390 2055 L
3390 2194 L
3391 2075 L
3391 2136 L
3391 2056 L
3392 2122 L
3392 2072 L
3392 2189 L
3393 2056 L
3393 2200 L
3393 2152 L
3394 2134 L
3394 2003 L
3394 2045 L
3395 2078 L
3395 2028 L
3395 2088 L
3396 2170 L
3396 2062 L
3396 2088 L
3397 2058 L
3397 2113 L
3398 2119 L
3398 2062 L
3398 2105 L
3399 2074 L
3399 2089 L
3399 2063 L
3400 2084 L
3400 2081 L
3400 2065 L
3401 2181 L
3401 2037 L
3401 2138 L
3402 2216 L
3402 2148 L
3402 2208 L
3403 2151 L
3403 2119 L
3403 2196 L
3404 2156 L
3404 2201 L
3404 2233 L
3405 2209 L
3405 2061 L
3405 2130 L
3406 2101 L
3406 2070 L
3406 2112 L
3407 2124 L
3407 2119 L
3407 2139 L
3408 2147 L
3408 2136 L
3408 2179 L
3409 2197 L
3409 2067 L
3409 2173 L
3410 2050 L
3410 2101 L
3410 2206 L
3411 2208 L
3411 2083 L
3411 2144 L
3412 2243 L
3412 2213 L
3412 2086 L
3413 2179 L
3413 2087 L
3413 2090 L
3414 2184 L
3414 2146 L
3414 2137 L
3415 2115 L
3415 1990 L
3415 2171 L
3416 2233 L
3416 2074 L
3416 2190 L
3417 2047 L
3417 2158 L
3417 2148 L
3417 2113 L
3418 2167 L
3418 2199 L
3418 2170 L
3419 2180 L
3419 2113 L
3419 2037 L
3420 2153 L
3420 2340 L
3420 2199 L
3421 2160 L
3421 2113 L
3421 2155 L
3422 2095 L
3422 2137 L
3422 2145 L
3423 2248 L
3423 2096 L
3423 2203 L
3423 2104 L
3424 2218 L
3424 2217 L
3424 2197 L
3425 2235 L
3425 2143 L
3425 2140 L
3426 2121 L
3426 2087 L
3426 2196 L
3427 2239 L
3427 2088 L
3427 2179 L
3428 2117 L
3428 2444 L
3428 2215 L
3428 2102 L
3429 2081 L
3429 2147 L
3429 2301 L
3430 2179 L
3430 2156 L
3430 2132 L
3431 2197 L
3431 2096 L
3431 2241 L
3431 2218 L
3432 2156 L
3432 2144 L
3432 2127 L
3433 2172 L
3433 2216 L
3433 2121 L
3434 2162 L
3434 2242 L
3434 2089 L
3434 2283 L
3435 2224 L
3435 2266 L
3435 2248 L
3436 2176 L
3436 2162 L
3436 2192 L
3437 2155 L
3437 2184 L
3437 2119 L
3437 2146 L
3438 2233 L
3438 2228 L
3438 2235 L
3439 2204 L
3439 2210 L
3439 2286 L
3440 2294 L
3440 2126 L
3440 2162 L
3440 2222 L
3441 2224 L
3441 2114 L
3441 2134 L
3442 2203 L
3442 2298 L
3442 2271 L
3442 2371 L
3443 2265 L
3443 2217 L
3443 2191 L
3444 2193 L
3444 2189 L
3444 2151 L
3444 2268 L
3445 2031 L
3445 2350 L
3445 2156 L
3446 2119 L
3446 2175 L
3446 2291 L
3446 2113 L
3447 2197 L
3447 2142 L
3447 2198 L
3448 2234 L
3448 2255 L
3448 2230 L
3448 2163 L
3449 2246 L
3449 2290 L
3449 2284 L
3450 2070 L
3450 2126 L
3450 2153 L
3450 2220 L
3451 2084 L
3451 2143 L
3451 2167 L
3452 2244 L
3452 2203 L
3452 2177 L
3452 2210 L
3453 2088 L
3453 2197 L
3453 2152 L
3454 2262 L
3454 2220 L
3454 2232 L
3454 2204 L
3455 2284 L
3455 2172 L
3455 2222 L
3455 2188 L
3456 2117 L
3456 2226 L
3456 2271 L
3457 2124 L
3457 2179 L
3457 2073 L
3457 2226 L
3458 2125 L
3458 2228 L
3458 2201 L
3458 2308 L
3459 2192 L
3459 2295 L
3459 2187 L
3460 2280 L
3460 2282 L
3460 2153 L
3460 2160 L
3461 2175 L
3461 2244 L
3461 2268 L
3461 2130 L
3462 2212 L
3462 2229 L
3462 2202 L
3463 2246 L
3463 2136 L
3463 2158 L
3463 2237 L
3464 2209 L
3464 2153 L
3464 2188 L
3464 2237 L
3465 2320 L
3465 2129 L
3465 2290 L
3465 2182 L
3466 2188 L
3466 2269 L
3466 2249 L
3466 2149 L
3467 2209 L
3467 2207 L
3467 2267 L
3468 2275 L
3468 2250 L
3468 2230 L
3468 2284 L
3469 2297 L
3469 2297 L
3469 2274 L
3469 2201 L
3470 2247 L
3470 2180 L
3470 2284 L
3470 2302 L
3471 2258 L
3471 2360 L
3471 2239 L
3471 2331 L
3472 2331 L
3472 2247 L
3472 2196 L
3472 2296 L
3473 2264 L
3473 2262 L
3473 2144 L
3474 2350 L
3474 2218 L
3474 2266 L
3474 2232 L
3475 2130 L
3475 2250 L
3475 2209 L
3475 2243 L
3476 2237 L
3476 2292 L
3476 2176 L
3476 2200 L
3477 2201 L
3477 2175 L
3477 2260 L
3477 2244 L
3478 2228 L
3478 2278 L
3478 2264 L
3478 2194 L
3479 2223 L
3479 2237 L
3479 2268 L
3479 2259 L
3480 2248 L
3480 2282 L
3480 2218 L
3480 2253 L
3481 2298 L
3481 2228 L
3481 2324 L
3481 2338 L
3482 2292 L
3482 2269 L
3482 2231 L
3482 2304 L
3483 2316 L
3483 2311 L
3483 2329 L
3483 2213 L
3484 2277 L
3484 2238 L
3484 2189 L
3484 2171 L
3485 2267 L
3485 2215 L
3485 2242 L
3485 2128 L
3486 2312 L
3486 2172 L
3486 2159 L
3486 2247 L
3487 2280 L
3487 2177 L
3487 2222 L
3487 2219 L
3488 2296 L
3488 2299 L
3488 2336 L
3488 2188 L
3488 2353 L
3489 2245 L
3489 2192 L
3489 2155 L
3489 2349 L
3490 2277 L
3490 2322 L
3490 2180 L
3490 2191 L
3491 2403 L
3491 2355 L
3491 2149 L
3491 2235 L
3492 2152 L
3492 2240 L
3492 2294 L
3492 2213 L
3493 2296 L
3493 2316 L
3493 2274 L
3493 2239 L
3494 2231 L
3494 2241 L
3494 2184 L
3494 2271 L
3494 2153 L
3495 2252 L
3495 2279 L
3495 2299 L
3495 2216 L
3496 2191 L
3496 2207 L
3496 2418 L
3496 2143 L
3497 2308 L
3497 2267 L
3497 2268 L
3497 2304 L
3498 2279 L
3498 2344 L
3498 2259 L
3498 2205 L
3498 2300 L
3499 2350 L
3499 2363 L
3499 2293 L
3499 2389 L
3500 2235 L
3500 2270 L
3506 2355 L
3511 2222 L
3517 2317 L
3522 2348 L
3527 2396 L
3532 2310 L
3537 2350 L
3542 2355 L
3547 2307 L
3552 2396 L
3557 2354 L
3561 2296 L
3566 2345 L
3570 2461 L
3575 2439 L
3579 2390 L
3583 2504 L
3587 2500 L
3591 2529 L
3595 2351 L
3599 2411 L
3603 2394 L
3607 2378 L
3611 2412 L
3614 2333 L
3618 2459 L
3622 2393 L
3625 2325 L
3629 2334 L
3632 2478 L
3636 2539 L
3639 2443 L
3642 2380 L
3646 2407 L
3649 2456 L
3652 2498 L
3655 2460 L
3658 2611 L
3661 2373 L
3664 2265 L
3667 2413 L
3670 2372 L
3673 2445 L
3676 2451 L
3679 2392 L
3682 2427 L
3685 2520 L
3688 2338 L
3690 2476 L
3693 2415 L
3696 2397 L
3698 2503 L
3701 2337 L
3704 2339 L
3706 2396 L
3709 2415 L
3711 2463 L
3714 2467 L
3716 2451 L
3719 2463 L
3721 2345 L
3724 2526 L
3726 2243 L
3728 2492 L
3731 2530 L
3733 2460 L
3735 2401 L
3738 2463 L
3740 2481 L
3742 2447 L
3744 2515 L
3747 2444 L
3749 2608 L
3751 2437 L
3753 2457 L
3755 2564 L
3757 2490 L
3760 2485 L
3762 2638 L
3764 2462 L
3766 2489 L
3768 2367 L
3770 2446 L
3772 2457 L
3774 2479 L
3776 2465 L
3778 2527 L
3780 2442 L
3781 2437 L
3783 2474 L
3785 2387 L
3787 2500 L
3789 2426 L
3791 2473 L
3793 2499 L
3795 2454 L
3796 2402 L
3798 2343 L
3800 2541 L
3802 2465 L
3803 2430 L
3805 2458 L
3807 2525 L
3809 2516 L
3810 2349 L
3812 2385 L
3814 2544 L
3816 2503 L
3817 2344 L
3819 2364 L
3820 2324 L
3822 2487 L
3824 2496 L
3825 2422 L
3827 2387 L
3829 2555 L
3830 2448 L
3832 2514 L
3833 2453 L
3835 2402 L
3836 2469 L
3838 2407 L
3839 2495 L
3841 2600 L
3842 2538 L
3844 2395 L
3845 2491 L
3847 2575 L
3848 2432 L
3850 2432 L
3851 2574 L
3853 2350 L
3854 2483 L
3856 2367 L
3857 2510 L
3859 2480 L
3860 2534 L
3861 2476 L
3863 2454 L
3864 2463 L
3866 2439 L
3867 2426 L
3868 2469 L
3870 2416 L
3871 2557 L
3872 2550 L
3874 2497 L
3875 2365 L
3876 2689 L
3878 2526 L
3879 2418 L
3880 2542 L
3882 2366 L
3883 2411 L
3884 2459 L
3885 2568 L
3887 2475 L
3888 2478 L
3889 2471 L
3890 2549 L
3892 2566 L
3893 2574 L
3894 2446 L
3895 2436 L
3897 2430 L
3898 2500 L
3899 2483 L
3900 2426 L
3901 2531 L
3903 2558 L
3904 2464 L
3905 2474 L
3906 2336 L
3907 2386 L
3908 2428 L
3910 2286 L
3911 2487 L
3912 2414 L
3913 2501 L
3914 2562 L
3915 2320 L
3917 2380 L
3918 2260 L
3919 2497 L
3920 2443 L
3921 2525 L
3922 2425 L
3923 2497 L
3924 2579 L
3925 2519 L
3926 2497 L
3928 2521 L
3929 2476 L
3930 2456 L
3931 2524 L
3932 2454 L
3933 2386 L
3934 2353 L
3935 2532 L
3936 2425 L
3937 2524 L
3938 2450 L
3939 2559 L
3940 2390 L
3941 2442 L
3942 2523 L
3943 2512 L
3944 2461 L
3945 2639 L
3946 2456 L
3947 2334 L
3948 2391 L
3949 2390 L
3950 2590 L
3951 2445 L
3952 2422 L
3953 2427 L
3954 2411 L
3955 2427 L
3956 2501 L
3957 2551 L
3958 2451 L
3959 2478 L
3960 2377 L
3961 2394 L
3962 2399 L
3963 2560 L
3964 2421 L
3965 2484 L
3966 2549 L
3966 2361 L
3967 2417 L
3968 2439 L
3969 2392 L
3970 2419 L
3971 2411 L
3972 2419 L
3973 2445 L
3974 2477 L
3975 2336 L
3976 2393 L
3976 2403 L
3977 2285 L
3978 2454 L
3979 2476 L
3980 2484 L
3981 2506 L
3982 2507 L
3983 2424 L
3983 2289 L
3984 2289 L
3985 2513 L
3986 2365 L
3987 2501 L
3988 2429 L
3989 2408 L
3989 2470 L
3990 2337 L
3991 2383 L
3992 2396 L
3993 2420 L
3994 2430 L
3995 2437 L
3995 2351 L
3996 2424 L
3997 2366 L
3998 2417 L
3999 2490 L
3999 2467 L
4000 2324 L
4001 2320 L
4002 2375 L
4003 2462 L
4003 2454 L
4004 2574 L
4005 2509 L
4006 2388 L
4007 2510 L
4007 2436 L
4008 2295 L
4009 2422 L
4010 2454 L
4011 2470 L
4011 2288 L
4012 2403 L
4013 2339 L
4014 2530 L
4014 2363 L
4015 2451 L
4016 2432 L
4017 2436 L
4017 2488 L
4018 2513 L
4019 2558 L
4020 2476 L
4021 2552 L
4021 2415 L
4022 2493 L
4023 2431 L
4023 2370 L
4024 2462 L
4025 2577 L
4026 2381 L
4026 2444 L
4027 2418 L
4028 2430 L
4029 2509 L
4029 2463 L
4030 2497 L
4031 2449 L
4032 2380 L
4032 2511 L
4033 2465 L
4034 2427 L
4034 2452 L
4035 2570 L
4036 2407 L
4036 2362 L
4037 2549 L
4038 2467 L
4039 2437 L
4039 2496 L
4040 2410 L
4041 2481 L
4041 2454 L
4042 2346 L
4043 2347 L
4043 2392 L
4044 2479 L
4045 2430 L
4045 2352 L
4046 2365 L
4047 2456 L
4047 2432 L
4048 2401 L
4049 2460 L
4050 2568 L
4050 2437 L
4051 2555 L
4052 2279 L
4052 2491 L
4053 2326 L
4053 2545 L
4054 2565 L
4055 2256 L
4055 2429 L
4056 2498 L
4057 2371 L
4057 2512 L
4058 2461 L
4059 2418 L
4059 2295 L
4060 2442 L
4061 2204 L
4061 2449 L
4062 2282 L
L2 C03 COSGR

%
%================
% Legend - Begin
%================
%
GSN 4240 5180 M
4480 5180 L
LWMC SL  C03 COSGR
GSN 4540 5141 M helvM (1.5 uM) show grestore
%
%================
% Legend - End
%================
%

%
% Residuals:
%
GSN 777 750 M
1388 787 L
1552 831 L
1652 893 L
1723 881 L
1778 880 L
1824 912 L
1863 928 L
1896 948 L
1926 982 L
1952 1022 L
1976 1056 L
1998 1117 L
2019 1155 L
2037 1105 L
2055 1191 L
2071 1175 L
2086 1158 L
2101 1167 L
2115 1187 L
2128 1254 L
2140 1220 L
2152 1217 L
2163 1306 L
2174 1303 L
2184 1271 L
2194 1244 L
2204 1235 L
2213 1296 L
2222 1312 L
2230 1309 L
2239 1338 L
2247 1312 L
2255 1318 L
2262 1366 L
2270 1325 L
2277 1348 L
2284 1339 L
2290 1391 L
2297 1378 L
2303 1356 L
2310 1328 L
2316 1357 L
2322 1350 L
2328 1365 L
2333 1381 L
2339 1399 L
2344 1399 L
2350 1427 L
2355 1380 L
2360 1388 L
2365 1410 L
2370 1427 L
2375 1411 L
2380 1380 L
2384 1439 L
2389 1427 L
2393 1480 L
2398 1437 L
2402 1407 L
2407 1409 L
2411 1452 L
2415 1442 L
2419 1437 L
2423 1475 L
2427 1454 L
2431 1508 L
2435 1457 L
2438 1438 L
2442 1474 L
2446 1466 L
2449 1444 L
2453 1453 L
2456 1476 L
2460 1466 L
2463 1451 L
2467 1431 L
2470 1445 L
2473 1473 L
2476 1488 L
2480 1453 L
2483 1464 L
2486 1512 L
2489 1469 L
2492 1499 L
2495 1470 L
2498 1489 L
2501 1457 L
2504 1508 L
2507 1492 L
2510 1458 L
2512 1495 L
2515 1515 L
2518 1491 L
2521 1503 L
2523 1484 L
2526 1494 L
2529 1466 L
2531 1429 L
2534 1474 L
2536 1473 L
2539 1488 L
2541 1483 L
2544 1462 L
2546 1441 L
2549 1477 L
2551 1491 L
2554 1485 L
2556 1470 L
2558 1485 L
2561 1497 L
2563 1457 L
2565 1455 L
2568 1534 L
2570 1520 L
2572 1510 L
2574 1487 L
2576 1448 L
2579 1569 L
2581 1479 L
2583 1455 L
2585 1497 L
2587 1520 L
2589 1495 L
2591 1476 L
2593 1490 L
2595 1473 L
2597 1500 L
2599 1482 L
2601 1485 L
2603 1535 L
2605 1448 L
2607 1471 L
2609 1482 L
2611 1499 L
2613 1492 L
2615 1449 L
2617 1464 L
2618 1490 L
2620 1499 L
2622 1500 L
2624 1511 L
2626 1502 L
2627 1452 L
2629 1466 L
2631 1493 L
2633 1496 L
2634 1480 L
2636 1513 L
2638 1475 L
2640 1485 L
2641 1473 L
2643 1500 L
2645 1466 L
2646 1504 L
2648 1485 L
2650 1411 L
2651 1486 L
2653 1466 L
2654 1492 L
2656 1460 L
2658 1493 L
2659 1461 L
2661 1431 L
2662 1460 L
2664 1507 L
2665 1502 L
2667 1457 L
2668 1479 L
2670 1496 L
2671 1493 L
2673 1454 L
2674 1483 L
2676 1485 L
2677 1459 L
2679 1486 L
2680 1477 L
2682 1472 L
2683 1472 L
2685 1461 L
2686 1458 L
2687 1484 L
2689 1459 L
2690 1468 L
2692 1404 L
2693 1502 L
2694 1482 L
2696 1448 L
2697 1441 L
2698 1487 L
2700 1496 L
2701 1465 L
2702 1495 L
2704 1457 L
2705 1451 L
2706 1459 L
2708 1438 L
2709 1484 L
2710 1457 L
2712 1480 L
2713 1465 L
2714 1473 L
2715 1486 L
2717 1445 L
2718 1448 L
2719 1466 L
2720 1495 L
2722 1461 L
2723 1437 L
2724 1487 L
2725 1472 L
2726 1443 L
2728 1461 L
2729 1434 L
2730 1454 L
2731 1434 L
2732 1477 L
2734 1444 L
2735 1468 L
2736 1422 L
2737 1423 L
2738 1459 L
2739 1439 L
2741 1429 L
2742 1408 L
2743 1480 L
2744 1421 L
2745 1457 L
2746 1433 L
2747 1499 L
2748 1445 L
2749 1449 L
2751 1453 L
2752 1431 L
2753 1494 L
2754 1422 L
2755 1441 L
2756 1449 L
2757 1424 L
2758 1452 L
2759 1431 L
2760 1443 L
2761 1480 L
2762 1456 L
2763 1448 L
2764 1458 L
2765 1410 L
2767 1487 L
2768 1495 L
2769 1457 L
2770 1392 L
2771 1456 L
2772 1433 L
2773 1430 L
2774 1465 L
2775 1403 L
2776 1446 L
2777 1421 L
2778 1467 L
2779 1431 L
2780 1432 L
2781 1450 L
2782 1398 L
2783 1449 L
2783 1454 L
2784 1443 L
2785 1420 L
2786 1442 L
2787 1399 L
2788 1420 L
2789 1407 L
2790 1428 L
2791 1387 L
2792 1460 L
2793 1431 L
2794 1441 L
2795 1427 L
2796 1425 L
2797 1397 L
2798 1465 L
2798 1438 L
2799 1471 L
2800 1434 L
2801 1469 L
2802 1439 L
2803 1423 L
2804 1401 L
2805 1437 L
2806 1404 L
2807 1428 L
2807 1388 L
2808 1439 L
2809 1444 L
2810 1412 L
2811 1410 L
2812 1436 L
2813 1398 L
2813 1392 L
2814 1366 L
2815 1422 L
2816 1459 L
2817 1399 L
2818 1429 L
2819 1438 L
2819 1415 L
2820 1431 L
2821 1366 L
2822 1408 L
2823 1457 L
2824 1398 L
2824 1380 L
2825 1406 L
2826 1409 L
2827 1488 L
2828 1401 L
2828 1357 L
2829 1398 L
2830 1386 L
2831 1403 L
2832 1376 L
2832 1404 L
2833 1381 L
2834 1400 L
2835 1427 L
2836 1385 L
2836 1384 L
2837 1368 L
2838 1408 L
2839 1378 L
2840 1371 L
2840 1382 L
2841 1376 L
2842 1395 L
2843 1430 L
2843 1380 L
2844 1391 L
2845 1384 L
2846 1348 L
2846 1390 L
2847 1358 L
2848 1400 L
2849 1449 L
2849 1359 L
2850 1370 L
2851 1418 L
2852 1352 L
2852 1391 L
2853 1396 L
2854 1402 L
2855 1411 L
2855 1432 L
2856 1381 L
2857 1398 L
2857 1386 L
2858 1374 L
2859 1380 L
2860 1391 L
2860 1356 L
2861 1366 L
2862 1357 L
2862 1371 L
2863 1352 L
2864 1415 L
2865 1354 L
2865 1436 L
2866 1366 L
2867 1339 L
2867 1368 L
2868 1388 L
2869 1410 L
2869 1393 L
2870 1378 L
2871 1417 L
2871 1384 L
2872 1365 L
2873 1338 L
2873 1373 L
2874 1412 L
2875 1353 L
2876 1382 L
2876 1418 L
2877 1366 L
2878 1361 L
2878 1358 L
2879 1396 L
2880 1389 L
2880 1353 L
2881 1380 L
2881 1355 L
2882 1367 L
2883 1406 L
2883 1370 L
2884 1397 L
2885 1410 L
2885 1342 L
2886 1353 L
2887 1411 L
2887 1398 L
2888 1354 L
2889 1374 L
2889 1371 L
2892 1417 L
2894 1389 L
2897 1371 L
2899 1400 L
2902 1350 L
2904 1398 L
2907 1395 L
2909 1317 L
2911 1338 L
2914 1343 L
2916 1355 L
2918 1330 L
2921 1384 L
2923 1326 L
2925 1324 L
2927 1333 L
2929 1331 L
2932 1332 L
2934 1342 L
2936 1310 L
2938 1341 L
2940 1337 L
2942 1331 L
2944 1336 L
2946 1306 L
2948 1342 L
2950 1327 L
2952 1299 L
2954 1307 L
2956 1308 L
2958 1322 L
2960 1265 L
2962 1318 L
2964 1333 L
2966 1334 L
2968 1314 L
2970 1328 L
2971 1313 L
2973 1303 L
2975 1277 L
2977 1270 L
2979 1301 L
2980 1275 L
2982 1319 L
2984 1280 L
2986 1299 L
2987 1295 L
2989 1326 L
2991 1295 L
2993 1320 L
2994 1280 L
2996 1310 L
2998 1298 L
2999 1278 L
3001 1281 L
3003 1237 L
3004 1310 L
3006 1258 L
3007 1275 L
3009 1284 L
3011 1274 L
3012 1262 L
3014 1238 L
3015 1289 L
3017 1270 L
3018 1247 L
3020 1254 L
3021 1236 L
3023 1280 L
3024 1264 L
3026 1264 L
3027 1252 L
3029 1218 L
3030 1270 L
3032 1272 L
3033 1270 L
3035 1249 L
3036 1256 L
3038 1295 L
3039 1206 L
3040 1285 L
3042 1231 L
3043 1261 L
3045 1263 L
3046 1260 L
3047 1229 L
3049 1291 L
3050 1254 L
3051 1275 L
3053 1243 L
3054 1208 L
3055 1234 L
3057 1236 L
3058 1252 L
3059 1231 L
3061 1233 L
3062 1221 L
3063 1190 L
3065 1214 L
3066 1242 L
3067 1232 L
3068 1206 L
3070 1243 L
3071 1237 L
3072 1230 L
3073 1265 L
3075 1197 L
3076 1215 L
3077 1252 L
3078 1183 L
3079 1234 L
3081 1249 L
3082 1239 L
3083 1239 L
3084 1203 L
3085 1239 L
3087 1213 L
3088 1242 L
3089 1147 L
3090 1255 L
3091 1210 L
3092 1194 L
3094 1218 L
3095 1195 L
3096 1197 L
3097 1218 L
3098 1223 L
3099 1223 L
3100 1207 L
3101 1222 L
3103 1211 L
3104 1195 L
3105 1233 L
3106 1191 L
3107 1250 L
3108 1197 L
3109 1179 L
3110 1227 L
3111 1205 L
3112 1201 L
3113 1227 L
3114 1244 L
3115 1201 L
3116 1208 L
3117 1207 L
3119 1192 L
3120 1203 L
3121 1161 L
3122 1202 L
3123 1173 L
3124 1157 L
3125 1178 L
3126 1192 L
3127 1178 L
3128 1160 L
3129 1208 L
3130 1194 L
3131 1150 L
3132 1201 L
3133 1180 L
3134 1248 L
3135 1177 L
3136 1177 L
3136 1161 L
3137 1170 L
3138 1187 L
3139 1224 L
3140 1219 L
3141 1202 L
3142 1178 L
3143 1196 L
3144 1184 L
3145 1206 L
3146 1172 L
3147 1172 L
3148 1228 L
3149 1165 L
3150 1178 L
3151 1181 L
3151 1185 L
3152 1209 L
3153 1192 L
3154 1156 L
3155 1173 L
3156 1173 L
3157 1191 L
3158 1199 L
3159 1169 L
3160 1169 L
3160 1171 L
3161 1153 L
3162 1166 L
3163 1178 L
3164 1188 L
3165 1195 L
3166 1157 L
3166 1177 L
3167 1171 L
3168 1157 L
3169 1151 L
3170 1153 L
3171 1169 L
3172 1187 L
3172 1199 L
3173 1168 L
3174 1208 L
3175 1178 L
3176 1217 L
3177 1160 L
3177 1173 L
3178 1186 L
3179 1222 L
3180 1188 L
3181 1130 L
3181 1168 L
3182 1190 L
3183 1157 L
3184 1181 L
3185 1180 L
3185 1146 L
3186 1176 L
3187 1171 L
3188 1176 L
3189 1200 L
3189 1160 L
3190 1165 L
3191 1204 L
3192 1187 L
3193 1163 L
3193 1202 L
3194 1170 L
3195 1161 L
3196 1169 L
3196 1152 L
3197 1169 L
3198 1163 L
3199 1124 L
3199 1189 L
3200 1171 L
3201 1178 L
3202 1160 L
3202 1204 L
3203 1164 L
3204 1135 L
3205 1145 L
3205 1136 L
3206 1155 L
3207 1206 L
3208 1159 L
3208 1183 L
3209 1192 L
3210 1192 L
3210 1125 L
3211 1148 L
3212 1179 L
3213 1202 L
3213 1174 L
3214 1175 L
3215 1188 L
3215 1154 L
3216 1165 L
3217 1201 L
3218 1185 L
3218 1164 L
3219 1137 L
3220 1202 L
3220 1173 L
3221 1242 L
3222 1185 L
3222 1234 L
3223 1187 L
3224 1224 L
3224 1128 L
3225 1164 L
3226 1178 L
3227 1155 L
3227 1207 L
3228 1139 L
3229 1197 L
3229 1150 L
3230 1184 L
3231 1178 L
3231 1136 L
3232 1194 L
3233 1134 L
3233 1193 L
3234 1158 L
3235 1208 L
3235 1168 L
3236 1175 L
3236 1179 L
3237 1170 L
3238 1148 L
3238 1171 L
3239 1195 L
3240 1175 L
3240 1170 L
3241 1185 L
3242 1160 L
3242 1152 L
3243 1133 L
3244 1183 L
3244 1153 L
3245 1198 L
3245 1162 L
3246 1174 L
3247 1171 L
3247 1122 L
3248 1160 L
3249 1217 L
3249 1183 L
3250 1145 L
3250 1163 L
3251 1184 L
3252 1176 L
3252 1181 L
3253 1160 L
3253 1157 L
3254 1178 L
3255 1184 L
3255 1186 L
3256 1135 L
3257 1211 L
3257 1153 L
3258 1195 L
3258 1168 L
3259 1229 L
3259 1145 L
3260 1193 L
3261 1170 L
3261 1162 L
3262 1167 L
3262 1190 L
3263 1204 L
3264 1200 L
3264 1183 L
3265 1176 L
3265 1206 L
3266 1145 L
3267 1152 L
3267 1185 L
3268 1152 L
3268 1187 L
3269 1204 L
3269 1167 L
3270 1192 L
3271 1158 L
3271 1181 L
3272 1156 L
3272 1199 L
3273 1165 L
3273 1195 L
3274 1184 L
3275 1198 L
3275 1186 L
3276 1170 L
3276 1154 L
3277 1205 L
3277 1203 L
3278 1193 L
3278 1158 L
3279 1173 L
3280 1202 L
3280 1205 L
3281 1167 L
3281 1187 L
3282 1185 L
3282 1185 L
3283 1180 L
3283 1201 L
3284 1167 L
3284 1186 L
3285 1185 L
3285 1171 L
3286 1228 L
3287 1164 L
3287 1194 L
3288 1197 L
3288 1203 L
3289 1176 L
3289 1179 L
3290 1188 L
3290 1222 L
3291 1155 L
3291 1215 L
3292 1167 L
3292 1192 L
3293 1211 L
3293 1158 L
3294 1166 L
3294 1198 L
3295 1186 L
3295 1195 L
3296 1184 L
3297 1175 L
3297 1196 L
3298 1172 L
3298 1209 L
3299 1193 L
3299 1203 L
3300 1156 L
3300 1173 L
3301 1179 L
3301 1183 L
3302 1159 L
3302 1175 L
3303 1140 L
3303 1221 L
3304 1168 L
3304 1212 L
3305 1214 L
3305 1173 L
3306 1159 L
3306 1209 L
3307 1221 L
3307 1192 L
3308 1166 L
3308 1171 L
3309 1181 L
3309 1195 L
3310 1173 L
3310 1224 L
3311 1178 L
3311 1193 L
3312 1196 L
3312 1219 L
3312 1143 L
3313 1233 L
3313 1170 L
3314 1180 L
3314 1213 L
3315 1163 L
3315 1182 L
3316 1189 L
3316 1215 L
3317 1201 L
3317 1241 L
3318 1163 L
3318 1182 L
3319 1200 L
3319 1162 L
3320 1194 L
3320 1188 L
3321 1184 L
3321 1148 L
3321 1185 L
3322 1190 L
3322 1187 L
3323 1188 L
3323 1182 L
3324 1243 L
3324 1189 L
3325 1212 L
3325 1221 L
3326 1228 L
3326 1218 L
3327 1178 L
3327 1209 L
3327 1246 L
3328 1204 L
3328 1177 L
3329 1213 L
3329 1163 L
3330 1210 L
3330 1172 L
3331 1206 L
3331 1206 L
3332 1243 L
3332 1191 L
3332 1174 L
3333 1206 L
3333 1271 L
3334 1170 L
3334 1151 L
3335 1211 L
3335 1192 L
3336 1197 L
3336 1193 L
3336 1178 L
3337 1218 L
3337 1156 L
3338 1230 L
3338 1174 L
3339 1236 L
3339 1167 L
3339 1231 L
3340 1201 L
3340 1175 L
3341 1210 L
3341 1211 L
3342 1223 L
3342 1191 L
3343 1207 L
3343 1203 L
3343 1177 L
3344 1210 L
3344 1180 L
3345 1172 L
3345 1203 L
3346 1195 L
3346 1172 L
3346 1212 L
3347 1226 L
3347 1201 L
3348 1197 L
3348 1218 L
3348 1216 L
3349 1172 L
3349 1214 L
3350 1159 L
3350 1191 L
3351 1184 L
3351 1216 L
3351 1221 L
3352 1237 L
3352 1184 L
3353 1181 L
3353 1200 L
3353 1198 L
3354 1197 L
3354 1183 L
3355 1187 L
3355 1204 L
3355 1226 L
3356 1200 L
3356 1211 L
3357 1195 L
3357 1210 L
3358 1194 L
3358 1265 L
3358 1198 L
3359 1221 L
3359 1230 L
3360 1193 L
3360 1228 L
3360 1196 L
3361 1266 L
3361 1201 L
3362 1212 L
3362 1237 L
3362 1198 L
3363 1151 L
3363 1219 L
3364 1197 L
3364 1238 L
3364 1223 L
3365 1156 L
3365 1225 L
3365 1240 L
3366 1237 L
3366 1232 L
3367 1203 L
3367 1206 L
3367 1207 L
3368 1202 L
3368 1247 L
3369 1191 L
3369 1230 L
3369 1224 L
3370 1210 L
3370 1224 L
3371 1212 L
3371 1229 L
3371 1221 L
3372 1215 L
3372 1199 L
3372 1196 L
3373 1151 L
3373 1200 L
3374 1149 L
3374 1220 L
3374 1161 L
3375 1229 L
3375 1232 L
3375 1192 L
3376 1227 L
3376 1194 L
3377 1216 L
3377 1292 L
3377 1232 L
3378 1207 L
3378 1164 L
3378 1218 L
3379 1196 L
3379 1235 L
3380 1201 L
3380 1202 L
3380 1219 L
3381 1258 L
3381 1193 L
3381 1223 L
3382 1217 L
3382 1186 L
3383 1214 L
3383 1196 L
3383 1244 L
3384 1194 L
3384 1286 L
3384 1203 L
3385 1237 L
3385 1235 L
3385 1224 L
3386 1202 L
3386 1255 L
3387 1214 L
3387 1223 L
3387 1256 L
3388 1184 L
3388 1209 L
3388 1226 L
3389 1207 L
3389 1238 L
3389 1206 L
3390 1201 L
3390 1251 L
3391 1208 L
3391 1230 L
3391 1201 L
3392 1225 L
3392 1207 L
3392 1249 L
3393 1202 L
3393 1253 L
3393 1236 L
3394 1229 L
3394 1183 L
3394 1198 L
3395 1209 L
3395 1191 L
3395 1213 L
3396 1242 L
3396 1204 L
3396 1213 L
3397 1202 L
3397 1222 L
3398 1224 L
3398 1204 L
3398 1219 L
3399 1208 L
3399 1213 L
3399 1204 L
3400 1211 L
3400 1210 L
3400 1205 L
3401 1246 L
3401 1195 L
3401 1231 L
3402 1258 L
3402 1234 L
3402 1255 L
3403 1235 L
3403 1224 L
3403 1251 L
3404 1237 L
3404 1253 L
3404 1264 L
3405 1256 L
3405 1203 L
3405 1228 L
3406 1218 L
3406 1206 L
3406 1221 L
3407 1226 L
3407 1224 L
3407 1231 L
3408 1234 L
3408 1230 L
3408 1245 L
3409 1251 L
3409 1205 L
3409 1243 L
3410 1199 L
3410 1218 L
3410 1255 L
3411 1255 L
3411 1211 L
3411 1233 L
3412 1268 L
3412 1257 L
3412 1212 L
3413 1245 L
3413 1213 L
3413 1214 L
3414 1247 L
3414 1233 L
3414 1230 L
3415 1222 L
3415 1178 L
3415 1242 L
3416 1264 L
3416 1208 L
3416 1249 L
3417 1198 L
3417 1238 L
3417 1234 L
3417 1222 L
3418 1241 L
3418 1252 L
3418 1242 L
3419 1246 L
3419 1222 L
3419 1195 L
3420 1236 L
3420 1302 L
3420 1252 L
3421 1238 L
3421 1222 L
3421 1237 L
3422 1215 L
3422 1230 L
3422 1233 L
3423 1270 L
3423 1216 L
3423 1254 L
3423 1219 L
3424 1259 L
3424 1259 L
3424 1252 L
3425 1265 L
3425 1232 L
3425 1231 L
3426 1224 L
3426 1213 L
3426 1251 L
3427 1266 L
3427 1213 L
3427 1245 L
3428 1223 L
3428 1339 L
3428 1258 L
3428 1218 L
3429 1210 L
3429 1234 L
3429 1289 L
3430 1245 L
3430 1237 L
3430 1228 L
3431 1252 L
3431 1216 L
3431 1267 L
3431 1259 L
3432 1237 L
3432 1233 L
3432 1227 L
3433 1243 L
3433 1258 L
3433 1225 L
3434 1239 L
3434 1267 L
3434 1213 L
3434 1282 L
3435 1261 L
3435 1276 L
3435 1269 L
3436 1244 L
3436 1239 L
3436 1250 L
3437 1237 L
3437 1247 L
3437 1224 L
3437 1234 L
3438 1264 L
3438 1263 L
3438 1265 L
3439 1254 L
3439 1256 L
3439 1283 L
3440 1286 L
3440 1226 L
3440 1239 L
3440 1260 L
3441 1261 L
3441 1222 L
3441 1229 L
3442 1254 L
3442 1287 L
3442 1278 L
3442 1313 L
3443 1276 L
3443 1259 L
3443 1250 L
3444 1250 L
3444 1249 L
3444 1235 L
3444 1277 L
3445 1193 L
3445 1306 L
3445 1237 L
3446 1224 L
3446 1244 L
3446 1285 L
3446 1222 L
3447 1252 L
3447 1232 L
3447 1252 L
3448 1265 L
3448 1272 L
3448 1263 L
3448 1239 L
3449 1269 L
3449 1285 L
3449 1282 L
3450 1207 L
3450 1227 L
3450 1236 L
3450 1260 L
3451 1212 L
3451 1232 L
3451 1241 L
3452 1268 L
3452 1254 L
3452 1244 L
3452 1256 L
3453 1213 L
3453 1252 L
3453 1236 L
3454 1274 L
3454 1260 L
3454 1264 L
3454 1254 L
3455 1283 L
3455 1243 L
3455 1260 L
3455 1248 L
3456 1223 L
3456 1262 L
3456 1278 L
3457 1226 L
3457 1245 L
3457 1208 L
3457 1262 L
3458 1226 L
3458 1262 L
3458 1253 L
3458 1291 L
3459 1250 L
3459 1286 L
3459 1248 L
3460 1281 L
3460 1282 L
3460 1236 L
3460 1238 L
3461 1244 L
3461 1268 L
3461 1277 L
3461 1228 L
3462 1257 L
3462 1263 L
3462 1253 L
3463 1269 L
3463 1230 L
3463 1238 L
3463 1266 L
3464 1256 L
3464 1236 L
3464 1248 L
3464 1266 L
3465 1295 L
3465 1227 L
3465 1285 L
3465 1246 L
3466 1248 L
3466 1277 L
3466 1270 L
3466 1235 L
3467 1256 L
3467 1255 L
3467 1276 L
3468 1279 L
3468 1270 L
3468 1263 L
3468 1282 L
3469 1287 L
3469 1287 L
3469 1279 L
3469 1253 L
3470 1269 L
3470 1245 L
3470 1282 L
3470 1289 L
3471 1273 L
3471 1309 L
3471 1267 L
3471 1299 L
3472 1299 L
3472 1269 L
3472 1251 L
3472 1287 L
3473 1275 L
3473 1275 L
3473 1233 L
3474 1306 L
3474 1259 L
3474 1276 L
3474 1264 L
3475 1228 L
3475 1270 L
3475 1256 L
3475 1268 L
3476 1266 L
3476 1285 L
3476 1244 L
3476 1253 L
3477 1253 L
3477 1244 L
3477 1274 L
3477 1268 L
3478 1263 L
3478 1280 L
3478 1275 L
3478 1251 L
3479 1261 L
3479 1266 L
3479 1277 L
3479 1274 L
3480 1270 L
3480 1282 L
3480 1259 L
3480 1272 L
3481 1287 L
3481 1262 L
3481 1297 L
3481 1302 L
3482 1285 L
3482 1277 L
3482 1264 L
3482 1290 L
3483 1294 L
3483 1292 L
3483 1298 L
3483 1257 L
3484 1280 L
3484 1266 L
3484 1249 L
3484 1242 L
3485 1276 L
3485 1258 L
3485 1267 L
3485 1227 L
3486 1292 L
3486 1243 L
3486 1238 L
3486 1269 L
3487 1281 L
3487 1244 L
3487 1260 L
3487 1259 L
3488 1287 L
3488 1288 L
3488 1301 L
3488 1248 L
3488 1307 L
3489 1269 L
3489 1250 L
3489 1237 L
3489 1305 L
3490 1280 L
3490 1296 L
3490 1246 L
3490 1249 L
3491 1325 L
3491 1307 L
3491 1234 L
3491 1265 L
3492 1236 L
3492 1267 L
3492 1286 L
3492 1257 L
3493 1287 L
3493 1294 L
3493 1279 L
3493 1267 L
3494 1264 L
3494 1267 L
3494 1247 L
3494 1278 L
3494 1236 L
3495 1271 L
3495 1281 L
3495 1288 L
3495 1258 L
3496 1249 L
3496 1255 L
3496 1330 L
3496 1232 L
3497 1291 L
3497 1276 L
3497 1277 L
3497 1290 L
3498 1280 L
3498 1304 L
3498 1274 L
3498 1254 L
3498 1288 L
3499 1306 L
3499 1310 L
3499 1286 L
3499 1320 L
3500 1265 L
3500 1277 L
3506 1308 L
3511 1260 L
3517 1294 L
3522 1305 L
3527 1322 L
3532 1292 L
3537 1306 L
3542 1308 L
3547 1291 L
3552 1322 L
3557 1307 L
3561 1287 L
3566 1304 L
3570 1345 L
3575 1337 L
3579 1320 L
3583 1360 L
3587 1359 L
3591 1369 L
3595 1306 L
3599 1327 L
3603 1321 L
3607 1316 L
3611 1328 L
3614 1300 L
3618 1345 L
3622 1321 L
3625 1297 L
3629 1300 L
3632 1351 L
3636 1373 L
3639 1339 L
3642 1317 L
3646 1326 L
3649 1344 L
3652 1358 L
3655 1345 L
3658 1398 L
3661 1314 L
3664 1276 L
3667 1328 L
3670 1314 L
3673 1340 L
3676 1342 L
3679 1321 L
3682 1333 L
3685 1366 L
3688 1301 L
3690 1351 L
3693 1329 L
3696 1323 L
3698 1360 L
3701 1301 L
3704 1302 L
3706 1322 L
3709 1329 L
3711 1346 L
3714 1347 L
3716 1342 L
3719 1346 L
3721 1304 L
3724 1368 L
3726 1268 L
3728 1356 L
3731 1370 L
3733 1345 L
3735 1324 L
3738 1346 L
3740 1352 L
3742 1340 L
3744 1365 L
3747 1339 L
3749 1397 L
3751 1337 L
3753 1344 L
3755 1382 L
3757 1355 L
3760 1354 L
3762 1408 L
3764 1345 L
3766 1355 L
3768 1312 L
3770 1340 L
3772 1344 L
3774 1352 L
3776 1347 L
3778 1369 L
3780 1338 L
3781 1337 L
3783 1350 L
3785 1319 L
3787 1359 L
3789 1333 L
3791 1350 L
3793 1359 L
3795 1343 L
3796 1324 L
3798 1303 L
3800 1374 L
3802 1346 L
3803 1334 L
3805 1344 L
3807 1368 L
3809 1365 L
3810 1306 L
3812 1318 L
3814 1375 L
3816 1360 L
3817 1304 L
3819 1311 L
3820 1297 L
3822 1355 L
3824 1358 L
3825 1332 L
3827 1319 L
3829 1379 L
3830 1341 L
3832 1364 L
3833 1343 L
3835 1324 L
3836 1348 L
3838 1326 L
3839 1357 L
3841 1395 L
3842 1373 L
3844 1322 L
3845 1356 L
3847 1386 L
3848 1335 L
3850 1335 L
3851 1385 L
3853 1306 L
3854 1353 L
3856 1312 L
3857 1363 L
3859 1352 L
3860 1371 L
3861 1351 L
3863 1343 L
3864 1346 L
3866 1337 L
3867 1333 L
3868 1348 L
3870 1329 L
3871 1379 L
3872 1377 L
3874 1358 L
3875 1311 L
3876 1426 L
3878 1368 L
3879 1330 L
3880 1374 L
3882 1312 L
3883 1328 L
3884 1345 L
3885 1383 L
3887 1350 L
3888 1351 L
3889 1349 L
3890 1376 L
3892 1382 L
3893 1385 L
3894 1340 L
3895 1336 L
3897 1334 L
3898 1359 L
3899 1353 L
3900 1333 L
3901 1370 L
3903 1380 L
3904 1346 L
3905 1350 L
3906 1301 L
3907 1319 L
3908 1333 L
3910 1283 L
3911 1354 L
3912 1328 L
3913 1359 L
3914 1381 L
3915 1295 L
3917 1317 L
3918 1274 L
3919 1358 L
3920 1339 L
3921 1368 L
3922 1333 L
3923 1358 L
3924 1387 L
3925 1366 L
3926 1358 L
3928 1367 L
3929 1351 L
3930 1343 L
3931 1368 L
3932 1343 L
3933 1319 L
3934 1307 L
3935 1371 L
3936 1332 L
3937 1368 L
3938 1341 L
3939 1380 L
3940 1320 L
3941 1339 L
3942 1367 L
3943 1363 L
3944 1345 L
3945 1408 L
3946 1343 L
3947 1300 L
3948 1320 L
3949 1320 L
3950 1391 L
3951 1340 L
3952 1332 L
3953 1333 L
3954 1327 L
3955 1333 L
3956 1360 L
3957 1377 L
3958 1342 L
3959 1351 L
3960 1315 L
3961 1321 L
3962 1323 L
3963 1380 L
3964 1331 L
3965 1353 L
3966 1377 L
3966 1310 L
3967 1330 L
3968 1337 L
3969 1321 L
3970 1331 L
3971 1327 L
3972 1330 L
3973 1339 L
3974 1351 L
3975 1301 L
3976 1321 L
3976 1325 L
3977 1283 L
3978 1343 L
3979 1351 L
3980 1353 L
3981 1361 L
3982 1362 L
3983 1332 L
3983 1284 L
3984 1284 L
3985 1364 L
3986 1311 L
3987 1359 L
3988 1334 L
3989 1327 L
3989 1348 L
3990 1301 L
3991 1317 L
3992 1322 L
3993 1331 L
3994 1334 L
3995 1337 L
3995 1306 L
3996 1332 L
3997 1311 L
3998 1329 L
3999 1356 L
3999 1348 L
4000 1297 L
4001 1295 L
4002 1315 L
4003 1345 L
4003 1343 L
4004 1385 L
4005 1362 L
4006 1319 L
4007 1363 L
4007 1336 L
4008 1286 L
4009 1332 L
4010 1343 L
4011 1348 L
4011 1284 L
4012 1325 L
4013 1302 L
4014 1370 L
4014 1311 L
4015 1342 L
4016 1335 L
4017 1336 L
4017 1355 L
4018 1364 L
4019 1380 L
4020 1351 L
4021 1378 L
4021 1329 L
4022 1357 L
4023 1335 L
4023 1313 L
4024 1346 L
4025 1386 L
4026 1317 L
4026 1339 L
4027 1330 L
4028 1334 L
4029 1362 L
4029 1346 L
4030 1358 L
4031 1341 L
4032 1316 L
4032 1363 L
4033 1347 L
4034 1333 L
4034 1342 L
4035 1384 L
4036 1326 L
4036 1310 L
4037 1377 L
4038 1347 L
4039 1337 L
4039 1358 L
4040 1327 L
4041 1352 L
4041 1343 L
4042 1305 L
4043 1305 L
4043 1321 L
4044 1352 L
4045 1334 L
4045 1307 L
4046 1311 L
4047 1344 L
4047 1335 L
4048 1324 L
4049 1345 L
4050 1383 L
4050 1337 L
4051 1379 L
4052 1281 L
4052 1356 L
4053 1297 L
4053 1375 L
4054 1382 L
4055 1273 L
4055 1334 L
4056 1358 L
4057 1313 L
4057 1363 L
4058 1345 L
4059 1330 L
4059 1286 L
4060 1338 L
4061 1254 L
4061 1341 L
4062 1282 L
L2 C03 COSGR

%
% Main frame
%
L10
GSN 
620 1700 M
4220 1700 L
4220 5300 L
620 5300 L
closepath SGR

%
% X axis: large tics
%
L10
GSN 1130 1700 M 0  54 rL SGR
GSN 1130 5300 M 0 -54 rL SGR
helvS (0.0001) 1130 470 xlabel
GSN 1716 1700 M 0  54 rL SGR
GSN 1716 5300 M 0 -54 rL SGR
helvS (0.001) 1716 470 xlabel
GSN 2303 1700 M 0  54 rL SGR
GSN 2303 5300 M 0 -54 rL SGR
helvS (0.01) 2303 470 xlabel
GSN 2889 1700 M 0  54 rL SGR
GSN 2889 5300 M 0 -54 rL SGR
helvS (0.1) 2889 470 xlabel
GSN 3476 1700 M 0  54 rL SGR
GSN 3476 5300 M 0 -54 rL SGR
helvS (1) 3476 470 xlabel
GSN 4062 1700 M 0  54 rL SGR
GSN 4062 5300 M 0 -54 rL SGR
helvS (10) 4062 470 xlabel
%
% X axis: small tics
%
L5
GSN 720 1700 M 0  36 rL SGR
GSN 720 5300 M 0 -36 rL SGR
GSN 824 1700 M 0  36 rL SGR
GSN 824 5300 M 0 -36 rL SGR
GSN 897 1700 M 0  36 rL SGR
GSN 897 5300 M 0 -36 rL SGR
GSN 954 1700 M 0  36 rL SGR
GSN 954 5300 M 0 -36 rL SGR
GSN 1000 1700 M 0  36 rL SGR
GSN 1000 5300 M 0 -36 rL SGR
GSN 1039 1700 M 0  36 rL SGR
GSN 1039 5300 M 0 -36 rL SGR
GSN 1073 1700 M 0  36 rL SGR
GSN 1073 5300 M 0 -36 rL SGR
GSN 1103 1700 M 0  36 rL SGR
GSN 1103 5300 M 0 -36 rL SGR
GSN 1307 1700 M 0  36 rL SGR
GSN 1307 5300 M 0 -36 rL SGR
GSN 1410 1700 M 0  36 rL SGR
GSN 1410 5300 M 0 -36 rL SGR
GSN 1483 1700 M 0  36 rL SGR
GSN 1483 5300 M 0 -36 rL SGR
GSN 1540 1700 M 0  36 rL SGR
GSN 1540 5300 M 0 -36 rL SGR
GSN 1586 1700 M 0  36 rL SGR
GSN 1586 5300 M 0 -36 rL SGR
GSN 1626 1700 M 0  36 rL SGR
GSN 1626 5300 M 0 -36 rL SGR
GSN 1660 1700 M 0  36 rL SGR
GSN 1660 5300 M 0 -36 rL SGR
GSN 1690 1700 M 0  36 rL SGR
GSN 1690 5300 M 0 -36 rL SGR
GSN 1893 1700 M 0  36 rL SGR
GSN 1893 5300 M 0 -36 rL SGR
GSN 1996 1700 M 0  36 rL SGR
GSN 1996 5300 M 0 -36 rL SGR
GSN 2069 1700 M 0  36 rL SGR
GSN 2069 5300 M 0 -36 rL SGR
GSN 2126 1700 M 0  36 rL SGR
GSN 2126 5300 M 0 -36 rL SGR
GSN 2173 1700 M 0  36 rL SGR
GSN 2173 5300 M 0 -36 rL SGR
GSN 2212 1700 M 0  36 rL SGR
GSN 2212 5300 M 0 -36 rL SGR
GSN 2246 1700 M 0  36 rL SGR
GSN 2246 5300 M 0 -36 rL SGR
GSN 2276 1700 M 0  36 rL SGR
GSN 2276 5300 M 0 -36 rL SGR
GSN 2479 1700 M 0  36 rL SGR
GSN 2479 5300 M 0 -36 rL SGR
GSN 2583 1700 M 0  36 rL SGR
GSN 2583 5300 M 0 -36 rL SGR
GSN 2656 1700 M 0  36 rL SGR
GSN 2656 5300 M 0 -36 rL SGR
GSN 2713 1700 M 0  36 rL SGR
GSN 2713 5300 M 0 -36 rL SGR
GSN 2759 1700 M 0  36 rL SGR
GSN 2759 5300 M 0 -36 rL SGR
GSN 2798 1700 M 0  36 rL SGR
GSN 2798 5300 M 0 -36 rL SGR
GSN 2832 1700 M 0  36 rL SGR
GSN 2832 5300 M 0 -36 rL SGR
GSN 2862 1700 M 0  36 rL SGR
GSN 2862 5300 M 0 -36 rL SGR
GSN 3066 1700 M 0  36 rL SGR
GSN 3066 5300 M 0 -36 rL SGR
GSN 3169 1700 M 0  36 rL SGR
GSN 3169 5300 M 0 -36 rL SGR
GSN 3242 1700 M 0  36 rL SGR
GSN 3242 5300 M 0 -36 rL SGR
GSN 3299 1700 M 0  36 rL SGR
GSN 3299 5300 M 0 -36 rL SGR
GSN 3345 1700 M 0  36 rL SGR
GSN 3345 5300 M 0 -36 rL SGR
GSN 3385 1700 M 0  36 rL SGR
GSN 3385 5300 M 0 -36 rL SGR
GSN 3419 1700 M 0  36 rL SGR
GSN 3419 5300 M 0 -36 rL SGR
GSN 3449 1700 M 0  36 rL SGR
GSN 3449 5300 M 0 -36 rL SGR
GSN 3652 1700 M 0  36 rL SGR
GSN 3652 5300 M 0 -36 rL SGR
GSN 3755 1700 M 0  36 rL SGR
GSN 3755 5300 M 0 -36 rL SGR
GSN 3829 1700 M 0  36 rL SGR
GSN 3829 5300 M 0 -36 rL SGR
GSN 3885 1700 M 0  36 rL SGR
GSN 3885 5300 M 0 -36 rL SGR
GSN 3932 1700 M 0  36 rL SGR
GSN 3932 5300 M 0 -36 rL SGR
GSN 3971 1700 M 0  36 rL SGR
GSN 3971 5300 M 0 -36 rL SGR
GSN 4005 1700 M 0  36 rL SGR
GSN 4005 5300 M 0 -36 rL SGR
GSN 4035 1700 M 0  36 rL SGR
GSN 4035 5300 M 0 -36 rL SGR
%
% Y axis: large tics
%
L10
GSN 620 2257 M 54 0 rL SGR
GSN 4220 2257 M -54 0 rL SGR
helvS (1.05) 560 2257 ylabel
GSN 620 3541 M 54 0 rL SGR
GSN 4220 3541 M -54 0 rL SGR
helvS (1.1) 560 3541 ylabel
GSN 620 4826 M 54 0 rL SGR
GSN 4220 4826 M -54 0 rL SGR
helvS (1.15) 560 4826 ylabel
%
% Y axis: small tics
%
L5
GSN 620 1743 M 36 0 rL SGR
GSN 4220 1743 M -36 0 rL SGR
GSN 620 2000 M 36 0 rL SGR
GSN 4220 2000 M -36 0 rL SGR
GSN 620 2257 M 36 0 rL SGR
GSN 4220 2257 M -36 0 rL SGR
GSN 620 2514 M 36 0 rL SGR
GSN 4220 2514 M -36 0 rL SGR
GSN 620 2771 M 36 0 rL SGR
GSN 4220 2771 M -36 0 rL SGR
GSN 620 3027 M 36 0 rL SGR
GSN 4220 3027 M -36 0 rL SGR
GSN 620 3284 M 36 0 rL SGR
GSN 4220 3284 M -36 0 rL SGR
GSN 620 3541 M 36 0 rL SGR
GSN 4220 3541 M -36 0 rL SGR
GSN 620 3798 M 36 0 rL SGR
GSN 4220 3798 M -36 0 rL SGR
GSN 620 4055 M 36 0 rL SGR
GSN 4220 4055 M -36 0 rL SGR
GSN 620 4312 M 36 0 rL SGR
GSN 4220 4312 M -36 0 rL SGR
GSN 620 4569 M 36 0 rL SGR
GSN 4220 4569 M -36 0 rL SGR
GSN 620 4826 M 36 0 rL SGR
GSN 4220 4826 M -36 0 rL SGR
GSN 620 5083 M 36 0 rL SGR
GSN 4220 5083 M -36 0 rL SGR

%
% X-Axis label:
%
gsave 2420 290 M 
[
[(Helvetica) 180 0 true true 0 (t)]
[(Helvetica) 180 0 true true 0 (i)]
[(Helvetica) 180 0 true true 0 (m)]
[(Helvetica) 180 0 true true 0 (e)]
] 0 MCshow grestore

%
% Y-Axis label:
%
gsave 234 3499 M 
currentpoint gsave translate 90 rotate 0 0 moveto
[
[(Helvetica) 180 0 true true 0 (s)]
[(Helvetica) 180 0 true true 0 (i)]
[(Helvetica) 180 0 true true 0 (g)]
[(Helvetica) 180 0 true true 0 (n)]
[(Helvetica) 180 0 true true 0 (a)]
[(Helvetica) 180 0 true true 0 (l)]
] 0 MCshow grestore

%
% Residuals:
%
gsave 129 1160 M 
currentpoint gsave translate 90 rotate 0 0 moveto
[
[(Helvetica) 150 0 true true 0 (r)]
[(Helvetica) 150 0 true true 0 (e)]
[(Helvetica) 150 0 true true 0 (s)]
[(Helvetica) 150 0 true true 0 (i)]
[(Helvetica) 150 0 true true 0 (d)]
[(Helvetica) 150 0 true true 0 (u)]
[(Helvetica) 150 0 true true 0 (a)]
[(Helvetica) 150 0 true true 0 (l)]
[(Helvetica) 150 0 true true 0 (s)]
] 0 MCshow grestore

%
% Residual frame
%
L10
GSN 
620 620 M
4220 620 L
4220 1700 L
620 1700 L
closepath SGR
%
% X axis: large tics - residual frame
%
L10
GSN 1130 620 M 0  54 rL SGR
GSN 1130 1700 M 0 -54 rL SGR
GSN 1716 620 M 0  54 rL SGR
GSN 1716 1700 M 0 -54 rL SGR
GSN 2303 620 M 0  54 rL SGR
GSN 2303 1700 M 0 -54 rL SGR
GSN 2889 620 M 0  54 rL SGR
GSN 2889 1700 M 0 -54 rL SGR
GSN 3476 620 M 0  54 rL SGR
GSN 3476 1700 M 0 -54 rL SGR
GSN 4062 620 M 0  54 rL SGR
GSN 4062 1700 M 0 -54 rL SGR
%
% X axis: small tics - residual frame
%
L5
GSN 720 620 M 0  36 rL SGR
GSN 720 1700 M 0 -36 rL SGR
GSN 824 620 M 0  36 rL SGR
GSN 824 1700 M 0 -36 rL SGR
GSN 897 620 M 0  36 rL SGR
GSN 897 1700 M 0 -36 rL SGR
GSN 954 620 M 0  36 rL SGR
GSN 954 1700 M 0 -36 rL SGR
GSN 1000 620 M 0  36 rL SGR
GSN 1000 1700 M 0 -36 rL SGR
GSN 1039 620 M 0  36 rL SGR
GSN 1039 1700 M 0 -36 rL SGR
GSN 1073 620 M 0  36 rL SGR
GSN 1073 1700 M 0 -36 rL SGR
GSN 1103 620 M 0  36 rL SGR
GSN 1103 1700 M 0 -36 rL SGR
GSN 1307 620 M 0  36 rL SGR
GSN 1307 1700 M 0 -36 rL SGR
GSN 1410 620 M 0  36 rL SGR
GSN 1410 1700 M 0 -36 rL SGR
GSN 1483 620 M 0  36 rL SGR
GSN 1483 1700 M 0 -36 rL SGR
GSN 1540 620 M 0  36 rL SGR
GSN 1540 1700 M 0 -36 rL SGR
GSN 1586 620 M 0  36 rL SGR
GSN 1586 1700 M 0 -36 rL SGR
GSN 1626 620 M 0  36 rL SGR
GSN 1626 1700 M 0 -36 rL SGR
GSN 1660 620 M 0  36 rL SGR
GSN 1660 1700 M 0 -36 rL SGR
GSN 1690 620 M 0  36 rL SGR
GSN 1690 1700 M 0 -36 rL SGR
GSN 1893 620 M 0  36 rL SGR
GSN 1893 1700 M 0 -36 rL SGR
GSN 1996 620 M 0  36 rL SGR
GSN 1996 1700 M 0 -36 rL SGR
GSN 2069 620 M 0  36 rL SGR
GSN 2069 1700 M 0 -36 rL SGR
GSN 2126 620 M 0  36 rL SGR
GSN 2126 1700 M 0 -36 rL SGR
GSN 2173 620 M 0  36 rL SGR
GSN 2173 1700 M 0 -36 rL SGR
GSN 2212 620 M 0  36 rL SGR
GSN 2212 1700 M 0 -36 rL SGR
GSN 2246 620 M 0  36 rL SGR
GSN 2246 1700 M 0 -36 rL SGR
GSN 2276 620 M 0  36 rL SGR
GSN 2276 1700 M 0 -36 rL SGR
GSN 2479 620 M 0  36 rL SGR
GSN 2479 1700 M 0 -36 rL SGR
GSN 2583 620 M 0  36 rL SGR
GSN 2583 1700 M 0 -36 rL SGR
GSN 2656 620 M 0  36 rL SGR
GSN 2656 1700 M 0 -36 rL SGR
GSN 2713 620 M 0  36 rL SGR
GSN 2713 1700 M 0 -36 rL SGR
GSN 2759 620 M 0  36 rL SGR
GSN 2759 1700 M 0 -36 rL SGR
GSN 2798 620 M 0  36 rL SGR
GSN 2798 1700 M 0 -36 rL SGR
GSN 2832 620 M 0  36 rL SGR
GSN 2832 1700 M 0 -36 rL SGR
GSN 2862 620 M 0  36 rL SGR
GSN 2862 1700 M 0 -36 rL SGR
GSN 3066 620 M 0  36 rL SGR
GSN 3066 1700 M 0 -36 rL SGR
GSN 3169 620 M 0  36 rL SGR
GSN 3169 1700 M 0 -36 rL SGR
GSN 3242 620 M 0  36 rL SGR
GSN 3242 1700 M 0 -36 rL SGR
GSN 3299 620 M 0  36 rL SGR
GSN 3299 1700 M 0 -36 rL SGR
GSN 3345 620 M 0  36 rL SGR
GSN 3345 1700 M 0 -36 rL SGR
GSN 3385 620 M 0  36 rL SGR
GSN 3385 1700 M 0 -36 rL SGR
GSN 3419 620 M 0  36 rL SGR
GSN 3419 1700 M 0 -36 rL SGR
GSN 3449 620 M 0  36 rL SGR
GSN 3449 1700 M 0 -36 rL SGR
GSN 3652 620 M 0  36 rL SGR
GSN 3652 1700 M 0 -36 rL SGR
GSN 3755 620 M 0  36 rL SGR
GSN 3755 1700 M 0 -36 rL SGR
GSN 3829 620 M 0  36 rL SGR
GSN 3829 1700 M 0 -36 rL SGR
GSN 3885 620 M 0  36 rL SGR
GSN 3885 1700 M 0 -36 rL SGR
GSN 3932 620 M 0  36 rL SGR
GSN 3932 1700 M 0 -36 rL SGR
GSN 3971 620 M 0  36 rL SGR
GSN 3971 1700 M 0 -36 rL SGR
GSN 4005 620 M 0  36 rL SGR
GSN 4005 1700 M 0 -36 rL SGR
GSN 4035 620 M 0  36 rL SGR
GSN 4035 1700 M 0 -36 rL SGR
%
% Y axis: large tics - residual frame
%
L10
GSN 620 839 M 54 0 rL SGR
GSN 4220 839 M -54 0 rL SGR
helvS (-0.05) 560 839 ylabelresid
GSN 620 1067 M 54 0 rL SGR
GSN 4220 1067 M -54 0 rL SGR
helvS (-0.025) 560 1067 ylabelresid
GSN 620 1295 M 54 0 rL SGR
GSN 4220 1295 M -54 0 rL SGR
helvS (0) 560 1295 ylabelresid
GSN 620 1523 M 54 0 rL SGR
GSN 4220 1523 M -54 0 rL SGR
helvS (0.025) 560 1523 ylabelresid

%
% X axis - residual panel
%
GSN L5 620 1295 M 4220 1295 L SDA G50 SGR

end
showpage
%%Trailer
%%EOF
