%!PS-Adobe-3.0 EPSF-3.0
%%BoundingBox: 0 0 514 550
%%Creator: BioKin Ltd.
%%DocumentFonts: Symbol Helvetica
%%EndComments
%
/bkdict 256 dict def
bkdict begin
/M {moveto} def 
/R {rmoveto} def
/L {lineto} def
/rL {rlineto} def
/GSN {gsave newpath} def
/SGR {stroke grestore} def
/COSGR {gsave setrgbcolor stroke grestore grestore} def
/SL {setlinewidth} def
/LWMB {12} def             % line width - model curves, black & white
/LWMC {10} def             % line width - model curves, color
/L2 {2.5 setlinewidth} def
/L5 {5 setlinewidth} def
/L10 {10 setlinewidth} def
/G50 {0.5 setgray} def
/SDA {[10  20] 0 setdash} def % axes
/helvT {/Helvetica findfont 100 scalefont setfont} def % tiny
/helvS {/Helvetica findfont 125 scalefont setfont} def % small
/helvM {/Helvetica findfont 150 scalefont setfont} def % medium
/helvL {/Helvetica findfont 175 scalefont setfont} def % large
/xlabel {gsave M dup
   stringwidth exch -0.5 mul exch rmoveto show grestore} def 
/ylabel {gsave M 90 rotate dup
   stringwidth exch -0.5 mul exch rmoveto show grestore} def
/ylabelresid {gsave M dup
   stringwidth exch -1 mul exch rmoveto show grestore} def
% ======
% Shapes
% ======
% Circle:
/Circ {0 360 arc closepath} def
%
% Square:
/Squa {dup dup -0.5 mul dup dup R -2 mul 0 exch rL 1 mul 0 rL dup 0 exch -1 mul rL closepath} def
%
% Triangle Up:
/TriU {dup dup dup -0.4 mul exch -0.5 mul exch R dup 0.5 mul exch rL dup -1 mul exch 0.5 mul exch rL closepath} def 
%
% Triangle Down:
/TriD {dup dup dup 0.4 mul exch -0.5 mul exch R dup 0.5 mul exch -1 mul rL dup 0.5 mul exch rL closepath} def 
%
% Diamond:
/Diam {45 rotate Squa} def
% ======
% Fills
% ======
/GRF {gsave setgray fill grestore} def                    % gray-level Fill
/COF {gsave setrgbcolor fill grestore} def                % color fill
% ======
% Colors
% ======
/C01 {1.00	0.00	0.00} def      % Red
/C02 {0.00	0.00	1.00} def      % Blue
/C03 {0.00	0.39	0.00} def      % Dark Green
/C04 {0.78	0.08	0.52} def      % Medium Violet Red
/C05 {0.55	0.27	0.07} def      % Saddle Brown
/C06 {0.10	0.70	0.70} def      % (cyan)
/C07 {1.00	0.55	0.00} def      % Dark Orange
/C08 {0.63	0.13	0.94} def      % Purple
/C09 {0.00	0.75	1.00} def      % Deep Sky Blue
/C10 {0.20	0.80	0.20} def      % Lime Green
/C11 {0.47	0.53	0.60} def      % Light Slate Gray
/C12 {0.00	0.00	0.00} def      % Black            % or: {0.19	0.31	0.31} def      % Dark Slate Gray
%
/LGR {0.75} def % light gray
/DGR {0.33} def % dark gray
%
% =============
% Dash patterns
% =============
/dash01 { [80  20] 0 setdash } def
/dash02 { [40  20] 0 setdash } def
/dash03 { [80  20  10  20] 0 setdash } def
/dash04 { [40  20  10  20] 0 setdash } def
/dash05 { [80  20  10  10  10  20] 0 setdash } def
/dash06 { [40  20  10  10  10  20] 0 setdash } def
/dash07 { [10  10] 0 setdash } def
%
/MFshow {
   { dup 5 get 3 ge
     { 5 get 3 eq {gsave} {grestore} ifelse }
     {dup dup 0 get findfont exch 1 get scalefont setfont
     [ currentpoint ] exch dup 2 get 0 exch R dup 5 get 2 ne {dup dup 6
     get exch 4 get {show} {stringwidth pop 0 R} ifelse }if dup 5 get 0 eq
     {dup 3 get {2 get neg 0 exch R pop} {pop aload pop M} ifelse} {dup 5
     get 1 eq {dup 2 get exch dup 3 get exch 6 get stringwidth pop -2 div
     dup 0 R} {dup 6 get stringwidth pop -2 div 0 R 6 get
     show 2 index {aload pop M neg 3 -1 roll neg R pop pop} {pop pop pop
     pop aload pop M} ifelse }ifelse }ifelse }
     ifelse }
   forall} bind def
/MFwidth {0 exch {dup 3 get{dup dup 0 get findfont exch 1 get scalefont
     setfont 6 get stringwidth pop add} {pop} ifelse} forall} bind def
/MCshow { currentpoint stroke M
  exch dup MFwidth -2 div 3 -1 roll R MFshow } def
%
end
%%EndProlog
bkdict begin
0.1 0.1 scale
%
% Model curves:
%

GSN 753 5166 M
753 5166 L
786 5166 L
820 5166 L
853 5166 L
886 5166 L
903 5165 L
919 5165 L
953 5165 L
986 5165 L
1020 5164 L
1053 5164 L
1053 5164 L
1086 5163 L
1120 5163 L
1153 5162 L
1186 5161 L
1203 5161 L
1220 5160 L
1253 5159 L
1286 5158 L
1320 5156 L
1353 5155 L
1353 5155 L
1386 5153 L
1420 5150 L
1453 5148 L
1486 5144 L
1503 5142 L
1520 5141 L
1553 5136 L
1586 5131 L
1620 5125 L
1653 5118 L
1653 5118 L
1686 5111 L
1720 5101 L
1753 5091 L
1786 5078 L
1804 5071 L
1820 5064 L
1853 5047 L
1886 5028 L
1920 5006 L
1953 4980 L
1954 4980 L
1986 4951 L
2020 4917 L
2053 4879 L
2086 4835 L
2104 4810 L
2120 4785 L
2153 4729 L
2186 4666 L
2220 4595 L
2253 4516 L
2254 4514 L
2286 4429 L
2320 4333 L
2353 4229 L
2386 4117 L
2404 4053 L
2420 3996 L
2453 3869 L
2486 3736 L
2520 3599 L
2553 3460 L
2554 3454 L
2586 3320 L
2620 3182 L
2653 3047 L
2686 2919 L
2704 2853 L
2720 2800 L
2753 2691 L
2786 2594 L
2820 2510 L
2853 2442 L
2854 2439 L
2886 2388 L
2920 2350 L
2953 2327 L
2986 2318 L
3004 2318 L
3020 2321 L
3053 2335 L
3068 2345 L
3086 2358 L
3120 2386 L
3153 2417 L
3155 2419 L
3186 2448 L
3220 2476 L
3253 2501 L
3286 2519 L
3305 2527 L
3320 2533 L
3353 2541 L
3386 2546 L
3420 2549 L
3453 2550 L
3455 2550 L
3486 2550 L
3520 2550 L
3553 2550 L
3586 2550 L
3605 2550 L
3620 2550 L
3653 2550 L
3686 2550 L
3720 2550 L
3753 2550 L
3755 2550 L
3786 2550 L
3820 2550 L
3853 2550 L
3886 2550 L
3905 2550 L
3920 2550 L
3953 2550 L
3986 2550 L
4020 2550 L
4053 2550 L
4086 2550 L
LWMC SL  C02 COSGR

%
% Experimental data:
%
GSN 773 4819 M
1625 4505 L
1773 5013 L
1860 4752 L
1922 5099 L
1970 4826 L
2009 4897 L
2043 4874 L
2072 4692 L
2097 4540 L
2120 4725 L
2140 4618 L
2159 4864 L
2176 4551 L
2192 4631 L
2207 4585 L
2221 4589 L
2234 4490 L
2247 4400 L
2259 4406 L
2270 4217 L
2280 4257 L
2290 4459 L
2300 4278 L
2309 4167 L
2318 4467 L
2326 4289 L
2335 4310 L
2342 4226 L
2350 4322 L
2357 4217 L
2364 3965 L
2371 4249 L
2378 3934 L
2384 4301 L
2391 4289 L
2397 3894 L
2403 4268 L
2409 3699 L
2414 4276 L
2420 4037 L
2425 4171 L
2430 3867 L
2435 4127 L
2440 4077 L
2445 3877 L
2450 3842 L
2455 3886 L
2459 4039 L
2464 3919 L
2468 3865 L
2472 4010 L
2476 3818 L
2481 3793 L
2485 3806 L
2489 3827 L
2492 3701 L
2496 3913 L
2500 3823 L
2504 3631 L
2507 3603 L
2511 3959 L
2514 3508 L
2518 3867 L
2521 3514 L
2525 3768 L
2528 3361 L
2531 3588 L
2534 3317 L
2538 3579 L
2541 3602 L
2544 3434 L
2547 3403 L
2550 3636 L
2553 3241 L
2556 3214 L
2559 3621 L
2561 3241 L
2564 3241 L
2567 3386 L
2570 3625 L
2580 3134 L
2590 3097 L
2600 3260 L
2609 3229 L
2618 3162 L
2627 3250 L
2635 3160 L
2643 2920 L
2650 2839 L
2658 2740 L
2665 2860 L
2672 2899 L
2678 2933 L
2685 2540 L
2691 2643 L
2697 2916 L
2703 2794 L
2709 2463 L
2714 2946 L
2720 2847 L
2725 2719 L
2730 2729 L
2735 2635 L
2740 2681 L
2745 2477 L
2750 2249 L
2755 2444 L
2759 2350 L
2764 2603 L
2768 2587 L
2772 2616 L
2777 2524 L
2781 2328 L
2785 2314 L
2789 2574 L
2793 2177 L
2796 2446 L
2800 2031 L
2804 2503 L
2808 2159 L
2811 2186 L
2815 2272 L
2818 2549 L
2822 2305 L
2825 2612 L
2828 2557 L
2831 2035 L
2835 2328 L
2838 2051 L
2841 2360 L
2844 2257 L
2847 2129 L
2850 1833 L
2853 2381 L
2856 2098 L
2859 2169 L
2862 2372 L
2864 2475 L
2867 2207 L
2870 2215 L
2873 1988 L
2875 2030 L
2878 1995 L
2880 2188 L
2883 2234 L
2886 2349 L
2888 2135 L
2891 2372 L
2893 2211 L
2895 2152 L
2898 2150 L
2900 2064 L
2902 1951 L
2905 2066 L
2907 2104 L
2909 2049 L
2912 1997 L
2914 2148 L
2916 2110 L
2918 2173 L
2920 2333 L
2922 2385 L
2925 2419 L
2927 2144 L
2929 2345 L
2931 2578 L
2933 2198 L
2935 2251 L
2937 2169 L
2939 2475 L
2941 2106 L
2943 2152 L
2945 2333 L
2947 2350 L
2948 2268 L
2950 2075 L
2952 2358 L
2954 2385 L
2956 2225 L
2958 2135 L
2959 2362 L
2961 2337 L
2963 2289 L
2965 2026 L
2966 2360 L
2968 2194 L
2970 2272 L
2972 2104 L
2973 2689 L
2975 2446 L
2977 2093 L
2978 2597 L
2980 2118 L
2982 2366 L
2983 2570 L
2985 2375 L
2986 2442 L
2988 2471 L
2989 2564 L
2991 2450 L
2993 2572 L
2994 2012 L
2996 2178 L
2997 2414 L
2999 2307 L
3000 2324 L
3002 2263 L
3003 2374 L
3005 2274 L
3006 2331 L
3007 2370 L
3009 2555 L
3010 2469 L
3012 2396 L
3013 2515 L
3014 2284 L
3016 2372 L
3017 2236 L
3019 2335 L
3020 2314 L
3021 2572 L
3023 2421 L
3024 2331 L
3025 2337 L
3027 2528 L
3028 2757 L
3029 2393 L
3031 2553 L
3032 2182 L
3033 2366 L
3034 2398 L
3036 2419 L
3037 2356 L
3038 2532 L
3039 2599 L
3041 2448 L
3042 2652 L
3043 2320 L
3044 2070 L
3045 2564 L
3047 2255 L
3048 2664 L
3049 2691 L
3050 2494 L
3051 2032 L
3053 2471 L
3054 2710 L
3055 2519 L
3056 2307 L
3057 2551 L
3058 2606 L
3059 2732 L
3061 2452 L
3062 2461 L
3063 2551 L
3064 2618 L
3065 2517 L
3066 2563 L
3067 2522 L
3068 2553 L
3069 2370 L
3070 2467 L
3071 2651 L
3073 2528 L
3074 2419 L
3075 2530 L
3076 2479 L
3077 2456 L
3078 2402 L
3079 2154 L
3080 2316 L
3081 2547 L
3082 2687 L
3083 2522 L
3084 2574 L
3085 2677 L
3086 2425 L
3087 2626 L
3088 2528 L
3089 2428 L
3112 2695 L
3133 2621 L
3152 3031 L
3170 2741 L
3186 2593 L
3201 2578 L
3216 2468 L
3229 2754 L
3241 2593 L
3253 2843 L
3264 2670 L
3275 2924 L
3285 2904 L
3295 2858 L
3304 3049 L
3313 2881 L
3322 2817 L
3330 2876 L
3338 3024 L
3346 2975 L
3353 2746 L
3360 3016 L
3367 2812 L
3374 2789 L
3380 3052 L
3387 2555 L
3393 2922 L
3399 2784 L
3405 2937 L
3410 3019 L
3416 2621 L
3421 2670 L
3426 2975 L
3431 3044 L
3436 2957 L
3441 2710 L
3446 2456 L
3451 2912 L
3455 2636 L
3460 2583 L
3464 2805 L
3469 2996 L
3473 2573 L
3477 2700 L
3481 2845 L
3485 2715 L
3489 2881 L
3493 2896 L
3496 3108 L
3500 2927 L
3504 3067 L
3507 2654 L
3511 2927 L
3514 2812 L
3518 3056 L
3521 2642 L
3525 2512 L
3528 2468 L
3531 2978 L
3534 2723 L
3537 3021 L
3540 2799 L
3543 2797 L
3546 2828 L
3549 2850 L
3552 2838 L
3555 2606 L
3558 2692 L
3561 2848 L
3564 2855 L
3566 2670 L
3575 2535 L
3586 2682 L
3595 2700 L
3605 2578 L
3613 2580 L
3622 2596 L
3630 2639 L
3638 2838 L
3646 2848 L
3653 2608 L
3660 2744 L
3667 2420 L
3674 2580 L
3681 2555 L
3687 2749 L
3693 2868 L
3699 2402 L
3705 2741 L
3710 2443 L
3716 2443 L
3721 2489 L
3727 2555 L
3732 2484 L
3737 2466 L
3742 2614 L
3746 2522 L
3751 2708 L
3756 2443 L
3760 2445 L
3764 2754 L
3769 2366 L
3773 2728 L
3777 2499 L
3781 2670 L
3785 2568 L
3789 2692 L
3793 2415 L
3797 2573 L
3800 2471 L
3804 2425 L
3808 2514 L
3811 2545 L
3815 2703 L
3818 2153 L
3821 2726 L
3825 2451 L
3828 2395 L
3831 2667 L
3834 2354 L
3838 2466 L
3841 2425 L
3844 2412 L
3847 2415 L
3850 2313 L
3853 2700 L
3855 2300 L
3858 2364 L
3861 2405 L
3864 2288 L
3867 2242 L
3869 2458 L
3872 2616 L
3875 2456 L
3877 2509 L
3880 2573 L
3882 2782 L
3885 2529 L
3887 2654 L
3890 2820 L
3892 2644 L
3895 2415 L
3897 2468 L
3899 2751 L
3902 2484 L
3904 2473 L
3906 2132 L
3908 2715 L
3911 2239 L
3913 2428 L
3915 2542 L
3917 2451 L
3919 2303 L
3921 2422 L
3923 2619 L
3926 2573 L
3928 2680 L
3930 2794 L
3932 2410 L
3934 2866 L
3936 2463 L
3938 2509 L
3940 2318 L
3942 2512 L
3943 2346 L
3945 2598 L
3947 2377 L
3949 2537 L
3951 2420 L
3953 2504 L
3955 2532 L
3956 2343 L
3958 2654 L
3960 2290 L
3962 2619 L
3963 2519 L
3965 2642 L
3967 2407 L
3969 2219 L
3970 2303 L
3972 2285 L
3974 2445 L
3975 2547 L
3977 2445 L
3978 2361 L
3980 2723 L
3982 2305 L
3983 2759 L
3985 2690 L
3986 2048 L
3988 2288 L
3990 2415 L
3991 2738 L
3993 2321 L
3994 2573 L
3996 2550 L
3997 2264 L
3999 2127 L
4000 2374 L
4001 2453 L
4003 2529 L
4004 2550 L
4006 2410 L
4007 2440 L
4009 2603 L
4010 2303 L
4011 2303 L
4013 2575 L
4014 2537 L
4016 2428 L
4017 2303 L
4018 2417 L
4020 2672 L
4021 2229 L
4022 2097 L
4024 2153 L
4025 2550 L
4026 2448 L
4028 2295 L
4029 2685 L
4030 2530 L
4031 2326 L
4033 2242 L
4034 2288 L
4035 2361 L
4036 2407 L
4038 2310 L
4039 2209 L
4040 2596 L
4041 2308 L
4042 2387 L
4044 2713 L
4045 2361 L
4046 2104 L
4047 2491 L
4048 2173 L
4050 2586 L
4051 2514 L
4052 2428 L
4053 2280 L
4054 2657 L
4055 2229 L
4056 2468 L
4058 2369 L
4059 2664 L
4060 2473 L
4061 2384 L
4062 2466 L
4063 2504 L
4064 2626 L
4065 2423 L
4066 2476 L
L2 C02 COSGR

%
%================
% Legend - Begin
%================
%
GSN 4240 5180 M
4480 5180 L
LWMC SL  C02 COSGR
GSN 4540 5141 M helvM (1.0 uM) show grestore
%
%================
% Legend - End
%================
%

%
% Residuals:
%
GSN 773 930 M
1625 750 L
1773 1115 L
1860 968 L
1922 1224 L
1970 1069 L
2009 1140 L
2043 1150 L
2072 1053 L
2097 975 L
2120 1121 L
2140 1073 L
2159 1258 L
2176 1072 L
2192 1147 L
2207 1137 L
2221 1160 L
2234 1114 L
2247 1074 L
2259 1097 L
2270 991 L
2280 1036 L
2290 1189 L
2300 1086 L
2309 1030 L
2318 1246 L
2326 1146 L
2335 1176 L
2342 1137 L
2350 1216 L
2357 1163 L
2364 1011 L
2371 1215 L
2378 1021 L
2384 1279 L
2391 1286 L
2397 1038 L
2403 1301 L
2409 937 L
2414 1333 L
2420 1188 L
2425 1290 L
2430 1102 L
2435 1287 L
2440 1267 L
2445 1146 L
2450 1136 L
2455 1177 L
2459 1290 L
2464 1222 L
2468 1198 L
2472 1306 L
2476 1189 L
2481 1183 L
2485 1203 L
2489 1228 L
2492 1154 L
2496 1306 L
2500 1256 L
2504 1138 L
2507 1130 L
2511 1376 L
2514 1087 L
2518 1334 L
2521 1109 L
2525 1287 L
2528 1026 L
2531 1186 L
2534 1015 L
2538 1198 L
2541 1222 L
2544 1119 L
2547 1107 L
2550 1270 L
2553 1016 L
2556 1006 L
2559 1284 L
2561 1040 L
2564 1047 L
2567 1151 L
2570 1318 L
2580 1022 L
2590 1025 L
2600 1160 L
2609 1165 L
2618 1144 L
2627 1226 L
2635 1188 L
2643 1050 L
2650 1016 L
2658 970 L
2665 1068 L
2672 1111 L
2678 1150 L
2685 905 L
2691 989 L
2697 1185 L
2703 1118 L
2709 913 L
2714 1247 L
2720 1193 L
2725 1120 L
2730 1138 L
2735 1087 L
2740 1129 L
2745 1003 L
2750 863 L
2755 1001 L
2759 949 L
2764 1125 L
2768 1123 L
2772 1150 L
2777 1098 L
2781 975 L
2785 973 L
2789 1153 L
2793 896 L
2796 1081 L
2800 813 L
2804 1132 L
2808 910 L
2811 933 L
2815 996 L
2818 1185 L
2822 1028 L
2825 1237 L
2828 1205 L
2831 864 L
2835 1062 L
2838 883 L
2841 1092 L
2844 1027 L
2847 947 L
2850 754 L
2853 1121 L
2856 937 L
2859 987 L
2862 1125 L
2864 1196 L
2867 1022 L
2870 1030 L
2873 882 L
2875 913 L
2878 893 L
2880 1023 L
2883 1056 L
2886 1134 L
2888 995 L
2891 1154 L
2893 1050 L
2895 1012 L
2898 1013 L
2900 958 L
2902 885 L
2905 963 L
2907 990 L
2909 955 L
2912 922 L
2914 1024 L
2916 1000 L
2918 1043 L
2920 1151 L
2922 1186 L
2925 1210 L
2927 1029 L
2929 1163 L
2931 1319 L
2933 1067 L
2935 1104 L
2937 1050 L
2939 1254 L
2941 1010 L
2943 1041 L
2945 1163 L
2947 1175 L
2948 1121 L
2950 993 L
2952 1182 L
2954 1200 L
2956 1094 L
2958 1035 L
2959 1186 L
2961 1170 L
2963 1139 L
2965 965 L
2966 1187 L
2968 1077 L
2970 1129 L
2972 1018 L
2973 1406 L
2975 1245 L
2977 1011 L
2978 1346 L
2980 1028 L
2982 1193 L
2983 1328 L
2985 1199 L
2986 1244 L
2988 1263 L
2989 1325 L
2991 1249 L
2993 1330 L
2994 959 L
2996 1069 L
2997 1225 L
2999 1154 L
3000 1165 L
3002 1124 L
3003 1198 L
3005 1132 L
3006 1170 L
3007 1195 L
3009 1318 L
3010 1261 L
3012 1212 L
3013 1290 L
3014 1137 L
3016 1195 L
3017 1105 L
3019 1171 L
3020 1156 L
3021 1327 L
3023 1227 L
3024 1167 L
3025 1170 L
3027 1297 L
3028 1449 L
3029 1206 L
3031 1312 L
3032 1066 L
3033 1188 L
3034 1209 L
3036 1222 L
3037 1180 L
3038 1296 L
3039 1340 L
3041 1240 L
3042 1375 L
3043 1154 L
3044 988 L
3045 1316 L
3047 1110 L
3048 1381 L
3049 1398 L
3050 1267 L
3051 960 L
3053 1251 L
3054 1409 L
3055 1282 L
3056 1141 L
3057 1302 L
3058 1339 L
3059 1422 L
3061 1235 L
3062 1241 L
3063 1300 L
3064 1344 L
3065 1276 L
3066 1306 L
3067 1279 L
3068 1299 L
3069 1177 L
3070 1241 L
3071 1362 L
3073 1280 L
3074 1208 L
3075 1281 L
3076 1246 L
3077 1230 L
3078 1194 L
3079 1029 L
3080 1136 L
3081 1289 L
3082 1381 L
3083 1272 L
3084 1305 L
3085 1373 L
3086 1205 L
3087 1338 L
3088 1273 L
3089 1206 L
3112 1370 L
3133 1308 L
3152 1569 L
3170 1365 L
3186 1257 L
3201 1238 L
3216 1158 L
3229 1340 L
3241 1228 L
3253 1388 L
3264 1268 L
3275 1433 L
3285 1416 L
3295 1383 L
3304 1507 L
3313 1393 L
3322 1349 L
3330 1386 L
3338 1483 L
3346 1450 L
3353 1297 L
3360 1475 L
3367 1339 L
3374 1323 L
3380 1497 L
3387 1167 L
3393 1410 L
3399 1318 L
3405 1419 L
3410 1473 L
3416 1209 L
3421 1241 L
3426 1444 L
3431 1489 L
3436 1432 L
3441 1267 L
3446 1099 L
3451 1401 L
3455 1218 L
3460 1183 L
3464 1330 L
3469 1456 L
3473 1176 L
3477 1260 L
3481 1357 L
3485 1270 L
3489 1380 L
3493 1390 L
3496 1531 L
3500 1411 L
3504 1504 L
3507 1230 L
3511 1411 L
3514 1335 L
3518 1497 L
3521 1221 L
3525 1135 L
3528 1107 L
3531 1444 L
3534 1276 L
3537 1473 L
3540 1326 L
3543 1325 L
3546 1345 L
3549 1360 L
3552 1352 L
3555 1198 L
3558 1255 L
3561 1358 L
3564 1363 L
3566 1240 L
3575 1150 L
3586 1248 L
3595 1260 L
3605 1179 L
3613 1181 L
3622 1191 L
3630 1220 L
3638 1352 L
3646 1358 L
3653 1199 L
3660 1289 L
3667 1075 L
3674 1181 L
3681 1164 L
3687 1292 L
3693 1372 L
3699 1063 L
3705 1287 L
3710 1090 L
3716 1090 L
3721 1120 L
3727 1164 L
3732 1117 L
3737 1105 L
3742 1203 L
3746 1142 L
3751 1265 L
3756 1090 L
3760 1091 L
3764 1296 L
3769 1039 L
3773 1279 L
3777 1127 L
3781 1240 L
3785 1173 L
3789 1255 L
3793 1071 L
3797 1176 L
3800 1108 L
3804 1078 L
3808 1137 L
3811 1157 L
3815 1262 L
3818 897 L
3821 1277 L
3825 1095 L
3828 1058 L
3831 1238 L
3834 1031 L
3838 1105 L
3841 1078 L
3844 1069 L
3847 1071 L
3850 1004 L
3853 1260 L
3855 995 L
3858 1037 L
3861 1064 L
3864 987 L
3867 956 L
3869 1100 L
3872 1205 L
3875 1098 L
3877 1134 L
3880 1176 L
3882 1314 L
3885 1147 L
3887 1230 L
3890 1340 L
3892 1223 L
3895 1071 L
3897 1107 L
3899 1294 L
3902 1117 L
3904 1110 L
3906 884 L
3908 1271 L
3911 955 L
3913 1080 L
3915 1156 L
3917 1095 L
3919 997 L
3921 1076 L
3923 1206 L
3926 1176 L
3928 1247 L
3930 1323 L
3932 1068 L
3934 1370 L
3936 1103 L
3938 1134 L
3940 1007 L
3942 1135 L
3943 1025 L
3945 1193 L
3947 1046 L
3949 1152 L
3951 1074 L
3953 1130 L
3955 1149 L
3956 1024 L
3958 1230 L
3960 988 L
3962 1206 L
3963 1140 L
3965 1221 L
3967 1066 L
3969 941 L
3970 997 L
3972 985 L
3974 1091 L
3975 1159 L
3977 1091 L
3978 1036 L
3980 1276 L
3982 998 L
3983 1299 L
3985 1254 L
3986 828 L
3988 987 L
3990 1071 L
3991 1286 L
3993 1009 L
3994 1176 L
3996 1161 L
3997 971 L
3999 880 L
4000 1044 L
4001 1096 L
4003 1147 L
4004 1161 L
4006 1068 L
4007 1088 L
4009 1196 L
4010 997 L
4011 997 L
4013 1177 L
4014 1152 L
4016 1080 L
4017 997 L
4018 1073 L
4020 1242 L
4021 948 L
4022 860 L
4024 897 L
4025 1161 L
4026 1093 L
4028 992 L
4029 1250 L
4030 1147 L
4031 1012 L
4033 956 L
4034 987 L
4035 1036 L
4036 1066 L
4038 1002 L
4039 934 L
4040 1191 L
4041 1000 L
4042 1053 L
4044 1269 L
4045 1036 L
4046 865 L
4047 1122 L
4048 910 L
4050 1184 L
4051 1137 L
4052 1080 L
4053 982 L
4054 1232 L
4055 948 L
4056 1107 L
4058 1041 L
4059 1237 L
4060 1110 L
4061 1051 L
4062 1105 L
4063 1130 L
4064 1211 L
4065 1076 L
4066 1112 L
L2 C02 COSGR

%
% Main frame
%
L10
GSN 
620 1700 M
4220 1700 L
4220 5300 L
620 5300 L
closepath SGR

%
% X axis: large tics
%
L10
GSN 1074 1700 M 0  54 rL SGR
GSN 1074 5300 M 0 -54 rL SGR
helvS (0.0001) 1074 470 xlabel
GSN 1572 1700 M 0  54 rL SGR
GSN 1572 5300 M 0 -54 rL SGR
helvS (0.001) 1572 470 xlabel
GSN 2071 1700 M 0  54 rL SGR
GSN 2071 5300 M 0 -54 rL SGR
helvS (0.01) 2071 470 xlabel
GSN 2570 1700 M 0  54 rL SGR
GSN 2570 5300 M 0 -54 rL SGR
helvS (0.1) 2570 470 xlabel
GSN 3068 1700 M 0  54 rL SGR
GSN 3068 5300 M 0 -54 rL SGR
helvS (1) 3068 470 xlabel
GSN 3567 1700 M 0  54 rL SGR
GSN 3567 5300 M 0 -54 rL SGR
helvS (10) 3567 470 xlabel
GSN 4066 1700 M 0  54 rL SGR
GSN 4066 5300 M 0 -54 rL SGR
helvS (100) 4066 470 xlabel
%
% X axis: small tics
%
L5
GSN 725 1700 M 0  36 rL SGR
GSN 725 5300 M 0 -36 rL SGR
GSN 813 1700 M 0  36 rL SGR
GSN 813 5300 M 0 -36 rL SGR
GSN 875 1700 M 0  36 rL SGR
GSN 875 5300 M 0 -36 rL SGR
GSN 924 1700 M 0  36 rL SGR
GSN 924 5300 M 0 -36 rL SGR
GSN 963 1700 M 0  36 rL SGR
GSN 963 5300 M 0 -36 rL SGR
GSN 996 1700 M 0  36 rL SGR
GSN 996 5300 M 0 -36 rL SGR
GSN 1025 1700 M 0  36 rL SGR
GSN 1025 5300 M 0 -36 rL SGR
GSN 1051 1700 M 0  36 rL SGR
GSN 1051 5300 M 0 -36 rL SGR
GSN 1224 1700 M 0  36 rL SGR
GSN 1224 5300 M 0 -36 rL SGR
GSN 1312 1700 M 0  36 rL SGR
GSN 1312 5300 M 0 -36 rL SGR
GSN 1374 1700 M 0  36 rL SGR
GSN 1374 5300 M 0 -36 rL SGR
GSN 1422 1700 M 0  36 rL SGR
GSN 1422 5300 M 0 -36 rL SGR
GSN 1462 1700 M 0  36 rL SGR
GSN 1462 5300 M 0 -36 rL SGR
GSN 1495 1700 M 0  36 rL SGR
GSN 1495 5300 M 0 -36 rL SGR
GSN 1524 1700 M 0  36 rL SGR
GSN 1524 5300 M 0 -36 rL SGR
GSN 1550 1700 M 0  36 rL SGR
GSN 1550 5300 M 0 -36 rL SGR
GSN 1722 1700 M 0  36 rL SGR
GSN 1722 5300 M 0 -36 rL SGR
GSN 1810 1700 M 0  36 rL SGR
GSN 1810 5300 M 0 -36 rL SGR
GSN 1873 1700 M 0  36 rL SGR
GSN 1873 5300 M 0 -36 rL SGR
GSN 1921 1700 M 0  36 rL SGR
GSN 1921 5300 M 0 -36 rL SGR
GSN 1960 1700 M 0  36 rL SGR
GSN 1960 5300 M 0 -36 rL SGR
GSN 1994 1700 M 0  36 rL SGR
GSN 1994 5300 M 0 -36 rL SGR
GSN 2023 1700 M 0  36 rL SGR
GSN 2023 5300 M 0 -36 rL SGR
GSN 2048 1700 M 0  36 rL SGR
GSN 2048 5300 M 0 -36 rL SGR
GSN 2221 1700 M 0  36 rL SGR
GSN 2221 5300 M 0 -36 rL SGR
GSN 2309 1700 M 0  36 rL SGR
GSN 2309 5300 M 0 -36 rL SGR
GSN 2371 1700 M 0  36 rL SGR
GSN 2371 5300 M 0 -36 rL SGR
GSN 2420 1700 M 0  36 rL SGR
GSN 2420 5300 M 0 -36 rL SGR
GSN 2459 1700 M 0  36 rL SGR
GSN 2459 5300 M 0 -36 rL SGR
GSN 2492 1700 M 0  36 rL SGR
GSN 2492 5300 M 0 -36 rL SGR
GSN 2521 1700 M 0  36 rL SGR
GSN 2521 5300 M 0 -36 rL SGR
GSN 2547 1700 M 0  36 rL SGR
GSN 2547 5300 M 0 -36 rL SGR
GSN 2720 1700 M 0  36 rL SGR
GSN 2720 5300 M 0 -36 rL SGR
GSN 2808 1700 M 0  36 rL SGR
GSN 2808 5300 M 0 -36 rL SGR
GSN 2870 1700 M 0  36 rL SGR
GSN 2870 5300 M 0 -36 rL SGR
GSN 2918 1700 M 0  36 rL SGR
GSN 2918 5300 M 0 -36 rL SGR
GSN 2958 1700 M 0  36 rL SGR
GSN 2958 5300 M 0 -36 rL SGR
GSN 2991 1700 M 0  36 rL SGR
GSN 2991 5300 M 0 -36 rL SGR
GSN 3020 1700 M 0  36 rL SGR
GSN 3020 5300 M 0 -36 rL SGR
GSN 3045 1700 M 0  36 rL SGR
GSN 3045 5300 M 0 -36 rL SGR
GSN 3218 1700 M 0  36 rL SGR
GSN 3218 5300 M 0 -36 rL SGR
GSN 3306 1700 M 0  36 rL SGR
GSN 3306 5300 M 0 -36 rL SGR
GSN 3368 1700 M 0  36 rL SGR
GSN 3368 5300 M 0 -36 rL SGR
GSN 3417 1700 M 0  36 rL SGR
GSN 3417 5300 M 0 -36 rL SGR
GSN 3456 1700 M 0  36 rL SGR
GSN 3456 5300 M 0 -36 rL SGR
GSN 3490 1700 M 0  36 rL SGR
GSN 3490 5300 M 0 -36 rL SGR
GSN 3519 1700 M 0  36 rL SGR
GSN 3519 5300 M 0 -36 rL SGR
GSN 3544 1700 M 0  36 rL SGR
GSN 3544 5300 M 0 -36 rL SGR
GSN 3717 1700 M 0  36 rL SGR
GSN 3717 5300 M 0 -36 rL SGR
GSN 3805 1700 M 0  36 rL SGR
GSN 3805 5300 M 0 -36 rL SGR
GSN 3867 1700 M 0  36 rL SGR
GSN 3867 5300 M 0 -36 rL SGR
GSN 3915 1700 M 0  36 rL SGR
GSN 3915 5300 M 0 -36 rL SGR
GSN 3955 1700 M 0  36 rL SGR
GSN 3955 5300 M 0 -36 rL SGR
GSN 3988 1700 M 0  36 rL SGR
GSN 3988 5300 M 0 -36 rL SGR
GSN 4017 1700 M 0  36 rL SGR
GSN 4017 5300 M 0 -36 rL SGR
GSN 4043 1700 M 0  36 rL SGR
GSN 4043 5300 M 0 -36 rL SGR
GSN 4216 1700 M 0  36 rL SGR
GSN 4216 5300 M 0 -36 rL SGR
%
% Y axis: large tics
%
L10
GSN 620 2653 M 54 0 rL SGR
GSN 4220 2653 M -54 0 rL SGR
helvS (1.1) 560 2653 ylabel
GSN 620 3654 M 54 0 rL SGR
GSN 4220 3654 M -54 0 rL SGR
helvS (1.12) 560 3654 ylabel
GSN 620 4656 M 54 0 rL SGR
GSN 4220 4656 M -54 0 rL SGR
helvS (1.14) 560 4656 ylabel
%
% Y axis: small tics
%
L5
GSN 620 1901 M 36 0 rL SGR
GSN 4220 1901 M -36 0 rL SGR
GSN 620 2152 M 36 0 rL SGR
GSN 4220 2152 M -36 0 rL SGR
GSN 620 2402 M 36 0 rL SGR
GSN 4220 2402 M -36 0 rL SGR
GSN 620 2653 M 36 0 rL SGR
GSN 4220 2653 M -36 0 rL SGR
GSN 620 2903 M 36 0 rL SGR
GSN 4220 2903 M -36 0 rL SGR
GSN 620 3153 M 36 0 rL SGR
GSN 4220 3153 M -36 0 rL SGR
GSN 620 3404 M 36 0 rL SGR
GSN 4220 3404 M -36 0 rL SGR
GSN 620 3654 M 36 0 rL SGR
GSN 4220 3654 M -36 0 rL SGR
GSN 620 3904 M 36 0 rL SGR
GSN 4220 3904 M -36 0 rL SGR
GSN 620 4155 M 36 0 rL SGR
GSN 4220 4155 M -36 0 rL SGR
GSN 620 4405 M 36 0 rL SGR
GSN 4220 4405 M -36 0 rL SGR
GSN 620 4656 M 36 0 rL SGR
GSN 4220 4656 M -36 0 rL SGR
GSN 620 4906 M 36 0 rL SGR
GSN 4220 4906 M -36 0 rL SGR
GSN 620 5156 M 36 0 rL SGR
GSN 4220 5156 M -36 0 rL SGR

%
% X-Axis label:
%
gsave 2420 290 M 
[
[(Helvetica) 180 0 true true 0 (t)]
[(Helvetica) 180 0 true true 0 (i)]
[(Helvetica) 180 0 true true 0 (m)]
[(Helvetica) 180 0 true true 0 (e)]
] 0 MCshow grestore

%
% Y-Axis label:
%
gsave 234 3500 M 
currentpoint gsave translate 90 rotate 0 0 moveto
[
[(Helvetica) 180 0 true true 0 (s)]
[(Helvetica) 180 0 true true 0 (i)]
[(Helvetica) 180 0 true true 0 (g)]
[(Helvetica) 180 0 true true 0 (n)]
[(Helvetica) 180 0 true true 0 (a)]
[(Helvetica) 180 0 true true 0 (l)]
] 0 MCshow grestore

%
% Residuals:
%
gsave 129 1160 M 
currentpoint gsave translate 90 rotate 0 0 moveto
[
[(Helvetica) 150 0 true true 0 (r)]
[(Helvetica) 150 0 true true 0 (e)]
[(Helvetica) 150 0 true true 0 (s)]
[(Helvetica) 150 0 true true 0 (i)]
[(Helvetica) 150 0 true true 0 (d)]
[(Helvetica) 150 0 true true 0 (u)]
[(Helvetica) 150 0 true true 0 (a)]
[(Helvetica) 150 0 true true 0 (l)]
[(Helvetica) 150 0 true true 0 (s)]
] 0 MCshow grestore

%
% Residual frame
%
L10
GSN 
620 620 M
4220 620 L
4220 1700 L
620 1700 L
closepath SGR
%
% X axis: large tics - residual frame
%
L10
GSN 1074 620 M 0  54 rL SGR
GSN 1074 1700 M 0 -54 rL SGR
GSN 1572 620 M 0  54 rL SGR
GSN 1572 1700 M 0 -54 rL SGR
GSN 2071 620 M 0  54 rL SGR
GSN 2071 1700 M 0 -54 rL SGR
GSN 2570 620 M 0  54 rL SGR
GSN 2570 1700 M 0 -54 rL SGR
GSN 3068 620 M 0  54 rL SGR
GSN 3068 1700 M 0 -54 rL SGR
GSN 3567 620 M 0  54 rL SGR
GSN 3567 1700 M 0 -54 rL SGR
GSN 4066 620 M 0  54 rL SGR
GSN 4066 1700 M 0 -54 rL SGR
%
% X axis: small tics - residual frame
%
L5
GSN 725 620 M 0  36 rL SGR
GSN 725 1700 M 0 -36 rL SGR
GSN 813 620 M 0  36 rL SGR
GSN 813 1700 M 0 -36 rL SGR
GSN 875 620 M 0  36 rL SGR
GSN 875 1700 M 0 -36 rL SGR
GSN 924 620 M 0  36 rL SGR
GSN 924 1700 M 0 -36 rL SGR
GSN 963 620 M 0  36 rL SGR
GSN 963 1700 M 0 -36 rL SGR
GSN 996 620 M 0  36 rL SGR
GSN 996 1700 M 0 -36 rL SGR
GSN 1025 620 M 0  36 rL SGR
GSN 1025 1700 M 0 -36 rL SGR
GSN 1051 620 M 0  36 rL SGR
GSN 1051 1700 M 0 -36 rL SGR
GSN 1224 620 M 0  36 rL SGR
GSN 1224 1700 M 0 -36 rL SGR
GSN 1312 620 M 0  36 rL SGR
GSN 1312 1700 M 0 -36 rL SGR
GSN 1374 620 M 0  36 rL SGR
GSN 1374 1700 M 0 -36 rL SGR
GSN 1422 620 M 0  36 rL SGR
GSN 1422 1700 M 0 -36 rL SGR
GSN 1462 620 M 0  36 rL SGR
GSN 1462 1700 M 0 -36 rL SGR
GSN 1495 620 M 0  36 rL SGR
GSN 1495 1700 M 0 -36 rL SGR
GSN 1524 620 M 0  36 rL SGR
GSN 1524 1700 M 0 -36 rL SGR
GSN 1550 620 M 0  36 rL SGR
GSN 1550 1700 M 0 -36 rL SGR
GSN 1722 620 M 0  36 rL SGR
GSN 1722 1700 M 0 -36 rL SGR
GSN 1810 620 M 0  36 rL SGR
GSN 1810 1700 M 0 -36 rL SGR
GSN 1873 620 M 0  36 rL SGR
GSN 1873 1700 M 0 -36 rL SGR
GSN 1921 620 M 0  36 rL SGR
GSN 1921 1700 M 0 -36 rL SGR
GSN 1960 620 M 0  36 rL SGR
GSN 1960 1700 M 0 -36 rL SGR
GSN 1994 620 M 0  36 rL SGR
GSN 1994 1700 M 0 -36 rL SGR
GSN 2023 620 M 0  36 rL SGR
GSN 2023 1700 M 0 -36 rL SGR
GSN 2048 620 M 0  36 rL SGR
GSN 2048 1700 M 0 -36 rL SGR
GSN 2221 620 M 0  36 rL SGR
GSN 2221 1700 M 0 -36 rL SGR
GSN 2309 620 M 0  36 rL SGR
GSN 2309 1700 M 0 -36 rL SGR
GSN 2371 620 M 0  36 rL SGR
GSN 2371 1700 M 0 -36 rL SGR
GSN 2420 620 M 0  36 rL SGR
GSN 2420 1700 M 0 -36 rL SGR
GSN 2459 620 M 0  36 rL SGR
GSN 2459 1700 M 0 -36 rL SGR
GSN 2492 620 M 0  36 rL SGR
GSN 2492 1700 M 0 -36 rL SGR
GSN 2521 620 M 0  36 rL SGR
GSN 2521 1700 M 0 -36 rL SGR
GSN 2547 620 M 0  36 rL SGR
GSN 2547 1700 M 0 -36 rL SGR
GSN 2720 620 M 0  36 rL SGR
GSN 2720 1700 M 0 -36 rL SGR
GSN 2808 620 M 0  36 rL SGR
GSN 2808 1700 M 0 -36 rL SGR
GSN 2870 620 M 0  36 rL SGR
GSN 2870 1700 M 0 -36 rL SGR
GSN 2918 620 M 0  36 rL SGR
GSN 2918 1700 M 0 -36 rL SGR
GSN 2958 620 M 0  36 rL SGR
GSN 2958 1700 M 0 -36 rL SGR
GSN 2991 620 M 0  36 rL SGR
GSN 2991 1700 M 0 -36 rL SGR
GSN 3020 620 M 0  36 rL SGR
GSN 3020 1700 M 0 -36 rL SGR
GSN 3045 620 M 0  36 rL SGR
GSN 3045 1700 M 0 -36 rL SGR
GSN 3218 620 M 0  36 rL SGR
GSN 3218 1700 M 0 -36 rL SGR
GSN 3306 620 M 0  36 rL SGR
GSN 3306 1700 M 0 -36 rL SGR
GSN 3368 620 M 0  36 rL SGR
GSN 3368 1700 M 0 -36 rL SGR
GSN 3417 620 M 0  36 rL SGR
GSN 3417 1700 M 0 -36 rL SGR
GSN 3456 620 M 0  36 rL SGR
GSN 3456 1700 M 0 -36 rL SGR
GSN 3490 620 M 0  36 rL SGR
GSN 3490 1700 M 0 -36 rL SGR
GSN 3519 620 M 0  36 rL SGR
GSN 3519 1700 M 0 -36 rL SGR
GSN 3544 620 M 0  36 rL SGR
GSN 3544 1700 M 0 -36 rL SGR
GSN 3717 620 M 0  36 rL SGR
GSN 3717 1700 M 0 -36 rL SGR
GSN 3805 620 M 0  36 rL SGR
GSN 3805 1700 M 0 -36 rL SGR
GSN 3867 620 M 0  36 rL SGR
GSN 3867 1700 M 0 -36 rL SGR
GSN 3915 620 M 0  36 rL SGR
GSN 3915 1700 M 0 -36 rL SGR
GSN 3955 620 M 0  36 rL SGR
GSN 3955 1700 M 0 -36 rL SGR
GSN 3988 620 M 0  36 rL SGR
GSN 3988 1700 M 0 -36 rL SGR
GSN 4017 620 M 0  36 rL SGR
GSN 4017 1700 M 0 -36 rL SGR
GSN 4043 620 M 0  36 rL SGR
GSN 4043 1700 M 0 -36 rL SGR
GSN 4216 620 M 0  36 rL SGR
GSN 4216 1700 M 0 -36 rL SGR
%
% Y axis: large tics - residual frame
%
L10
GSN 620 829 M 54 0 rL SGR
GSN 4220 829 M -54 0 rL SGR
helvS (-0.01) 560 829 ylabelresid
GSN 620 1161 M 54 0 rL SGR
GSN 4220 1161 M -54 0 rL SGR
helvS (0) 560 1161 ylabelresid
GSN 620 1493 M 54 0 rL SGR
GSN 4220 1493 M -54 0 rL SGR
helvS (0.01) 560 1493 ylabelresid

%
% X axis - residual panel
%
GSN L5 620 1161 M 4220 1161 L SDA G50 SGR

end
showpage
%%Trailer
%%EOF
