%!PS-Adobe-3.0 EPSF-3.0
%%BoundingBox: 0 0 514 550
%%Creator: BioKin Ltd.
%%DocumentFonts: Symbol Helvetica
%%EndComments
%
/bkdict 256 dict def
bkdict begin
/M {moveto} def 
/R {rmoveto} def
/L {lineto} def
/rL {rlineto} def
/GSN {gsave newpath} def
/SGR {stroke grestore} def
/COSGR {gsave setrgbcolor stroke grestore grestore} def
/SL {setlinewidth} def
/LWMB {12} def             % line width - model curves, black & white
/LWMC {10} def             % line width - model curves, color
/L2 {2.5 setlinewidth} def
/L5 {5 setlinewidth} def
/L10 {10 setlinewidth} def
/G50 {0.5 setgray} def
/SDA {[10  20] 0 setdash} def % axes
/helvT {/Helvetica findfont 100 scalefont setfont} def % tiny
/helvS {/Helvetica findfont 125 scalefont setfont} def % small
/helvM {/Helvetica findfont 150 scalefont setfont} def % medium
/helvL {/Helvetica findfont 175 scalefont setfont} def % large
/xlabel {gsave M dup
   stringwidth exch -0.5 mul exch rmoveto show grestore} def 
/ylabel {gsave M 90 rotate dup
   stringwidth exch -0.5 mul exch rmoveto show grestore} def
/ylabelresid {gsave M dup
   stringwidth exch -1 mul exch rmoveto show grestore} def
% ======
% Shapes
% ======
% Circle:
/Circ {0 360 arc closepath} def
%
% Square:
/Squa {dup dup -0.5 mul dup dup R -2 mul 0 exch rL 1 mul 0 rL dup 0 exch -1 mul rL closepath} def
%
% Triangle Up:
/TriU {dup dup dup -0.4 mul exch -0.5 mul exch R dup 0.5 mul exch rL dup -1 mul exch 0.5 mul exch rL closepath} def 
%
% Triangle Down:
/TriD {dup dup dup 0.4 mul exch -0.5 mul exch R dup 0.5 mul exch -1 mul rL dup 0.5 mul exch rL closepath} def 
%
% Diamond:
/Diam {45 rotate Squa} def
% ======
% Fills
% ======
/GRF {gsave setgray fill grestore} def                    % gray-level Fill
/COF {gsave setrgbcolor fill grestore} def                % color fill
% ======
% Colors
% ======
/C01 {1.00	0.00	0.00} def      % Red
/C02 {0.00	0.00	1.00} def      % Blue
/C03 {0.00	0.39	0.00} def      % Dark Green
/C04 {0.78	0.08	0.52} def      % Medium Violet Red
/C05 {0.55	0.27	0.07} def      % Saddle Brown
/C06 {0.10	0.70	0.70} def      % (cyan)
/C07 {1.00	0.55	0.00} def      % Dark Orange
/C08 {0.63	0.13	0.94} def      % Purple
/C09 {0.00	0.75	1.00} def      % Deep Sky Blue
/C10 {0.20	0.80	0.20} def      % Lime Green
/C11 {0.47	0.53	0.60} def      % Light Slate Gray
/C12 {0.00	0.00	0.00} def      % Black            % or: {0.19	0.31	0.31} def      % Dark Slate Gray
%
/LGR {0.75} def % light gray
/DGR {0.33} def % dark gray
%
% =============
% Dash patterns
% =============
/dash01 { [80  20] 0 setdash } def
/dash02 { [40  20] 0 setdash } def
/dash03 { [80  20  10  20] 0 setdash } def
/dash04 { [40  20  10  20] 0 setdash } def
/dash05 { [80  20  10  10  10  20] 0 setdash } def
/dash06 { [40  20  10  10  10  20] 0 setdash } def
/dash07 { [10  10] 0 setdash } def
%
/MFshow {
   { dup 5 get 3 ge
     { 5 get 3 eq {gsave} {grestore} ifelse }
     {dup dup 0 get findfont exch 1 get scalefont setfont
     [ currentpoint ] exch dup 2 get 0 exch R dup 5 get 2 ne {dup dup 6
     get exch 4 get {show} {stringwidth pop 0 R} ifelse }if dup 5 get 0 eq
     {dup 3 get {2 get neg 0 exch R pop} {pop aload pop M} ifelse} {dup 5
     get 1 eq {dup 2 get exch dup 3 get exch 6 get stringwidth pop -2 div
     dup 0 R} {dup 6 get stringwidth pop -2 div 0 R 6 get
     show 2 index {aload pop M neg 3 -1 roll neg R pop pop} {pop pop pop
     pop aload pop M} ifelse }ifelse }ifelse }
     ifelse }
   forall} bind def
/MFwidth {0 exch {dup 3 get{dup dup 0 get findfont exch 1 get scalefont
     setfont 6 get stringwidth pop add} {pop} ifelse} forall} bind def
/MCshow { currentpoint stroke M
  exch dup MFwidth -2 div 3 -1 roll R MFshow } def
%
end
%%EndProlog
bkdict begin
0.1 0.1 scale
%
% Model curves:
%

GSN 753 5166 M
753 5166 L
786 5166 L
820 5166 L
853 5165 L
886 5165 L
903 5165 L
919 5164 L
953 5164 L
986 5163 L
1020 5163 L
1053 5162 L
1053 5162 L
1086 5161 L
1120 5160 L
1153 5158 L
1186 5157 L
1203 5156 L
1220 5155 L
1253 5153 L
1286 5150 L
1320 5147 L
1353 5144 L
1353 5144 L
1386 5140 L
1420 5136 L
1453 5131 L
1486 5124 L
1503 5121 L
1520 5117 L
1553 5109 L
1586 5100 L
1620 5088 L
1653 5076 L
1653 5075 L
1686 5061 L
1720 5044 L
1753 5024 L
1786 5001 L
1804 4988 L
1820 4975 L
1853 4945 L
1886 4911 L
1920 4872 L
1953 4828 L
1954 4826 L
1986 4778 L
2020 4721 L
2053 4658 L
2086 4588 L
2104 4548 L
2120 4510 L
2153 4425 L
2186 4332 L
2220 4232 L
2253 4124 L
2254 4121 L
2286 4011 L
2320 3892 L
2353 3770 L
2386 3644 L
2404 3577 L
2420 3518 L
2453 3393 L
2486 3271 L
2520 3153 L
2553 3041 L
2554 3037 L
2586 2938 L
2620 2843 L
2653 2759 L
2686 2686 L
2704 2651 L
2720 2624 L
2753 2573 L
2786 2533 L
2820 2504 L
2853 2483 L
2854 2482 L
2886 2469 L
2920 2460 L
2953 2456 L
2986 2454 L
3004 2453 L
3020 2453 L
3053 2452 L
3068 2452 L
3086 2452 L
3120 2452 L
3153 2452 L
3155 2452 L
3186 2452 L
3220 2452 L
3253 2452 L
3286 2452 L
3305 2452 L
3320 2452 L
3353 2452 L
3386 2452 L
3420 2452 L
3453 2452 L
3455 2452 L
3486 2452 L
3520 2452 L
3553 2452 L
3586 2452 L
3605 2452 L
3620 2452 L
3653 2452 L
3686 2452 L
3720 2452 L
3753 2452 L
3755 2452 L
3786 2452 L
3820 2452 L
3853 2452 L
3886 2452 L
3905 2452 L
3920 2452 L
3953 2452 L
3986 2452 L
4020 2452 L
4053 2452 L
4086 2452 L
LWMC SL  C03 COSGR

%
% Experimental data:
%
GSN 773 4862 M
1625 4659 L
1773 4733 L
1860 5086 L
1922 5023 L
1970 4808 L
2009 4745 L
2043 4620 L
2072 4593 L
2097 4563 L
2120 4465 L
2140 4599 L
2159 4356 L
2176 4482 L
2192 4461 L
2207 4316 L
2221 4262 L
2234 4284 L
2247 4176 L
2259 4250 L
2270 4152 L
2280 4132 L
2290 4191 L
2300 4219 L
2309 3923 L
2318 4060 L
2326 4250 L
2335 4015 L
2342 4032 L
2350 3973 L
2357 3914 L
2364 3896 L
2371 3755 L
2378 3968 L
2384 3883 L
2391 3831 L
2397 3683 L
2403 3880 L
2409 3843 L
2414 3649 L
2420 3665 L
2425 3660 L
2430 3681 L
2435 3486 L
2440 3425 L
2445 3690 L
2450 3515 L
2455 3395 L
2459 3430 L
2464 3554 L
2468 3228 L
2472 3276 L
2476 3410 L
2481 3457 L
2485 3274 L
2489 3433 L
2492 3414 L
2496 3339 L
2500 3166 L
2504 3392 L
2507 3500 L
2511 3359 L
2514 3111 L
2518 2996 L
2521 3221 L
2525 3120 L
2528 3105 L
2531 3146 L
2534 3189 L
2538 2952 L
2541 3336 L
2544 3084 L
2547 3035 L
2550 3011 L
2553 3139 L
2556 2869 L
2559 3254 L
2561 3113 L
2564 3191 L
2567 2933 L
2570 3021 L
2580 2910 L
2590 2873 L
2600 2775 L
2609 2705 L
2618 2685 L
2627 2690 L
2635 2813 L
2643 2535 L
2650 2548 L
2658 2740 L
2665 2550 L
2672 2566 L
2678 2496 L
2685 2468 L
2691 2503 L
2697 2187 L
2703 2445 L
2709 2363 L
2714 2307 L
2720 2356 L
2725 2301 L
2730 2070 L
2735 2168 L
2740 2418 L
2745 2141 L
2750 2260 L
2755 2397 L
2759 2159 L
2764 2185 L
2768 2021 L
2772 1961 L
2777 2058 L
2781 2008 L
2785 2048 L
2789 2019 L
2793 2081 L
2796 2020 L
2800 2012 L
2804 2128 L
2808 1915 L
2811 2000 L
2815 2025 L
2818 2001 L
2822 1890 L
2825 1960 L
2828 2165 L
2831 2005 L
2835 2047 L
2838 1889 L
2841 2072 L
2844 2051 L
2847 1930 L
2850 1847 L
2853 2317 L
2856 2048 L
2859 1913 L
2862 1833 L
2864 2033 L
2867 2130 L
2870 1919 L
2873 1971 L
2875 2235 L
2878 2038 L
2880 2077 L
2883 2131 L
2886 2008 L
2888 2151 L
2891 1920 L
2893 1995 L
2895 2149 L
2898 2085 L
2900 2120 L
2902 1992 L
2905 2158 L
2907 2288 L
2909 2035 L
2912 2226 L
2914 1991 L
2916 2032 L
2918 2170 L
2920 1956 L
2922 2211 L
2925 2256 L
2927 2130 L
2929 2135 L
2931 2055 L
2933 2225 L
2935 2154 L
2937 1900 L
2939 2064 L
2941 2287 L
2943 2174 L
2945 2017 L
2947 2026 L
2948 2204 L
2950 2242 L
2952 1993 L
2954 2206 L
2956 2042 L
2958 2128 L
2959 2137 L
2961 1953 L
2963 2331 L
2965 2141 L
2966 2155 L
2968 2467 L
2970 2287 L
2972 2333 L
2973 2338 L
2975 2329 L
2977 2163 L
2978 2199 L
2980 2226 L
2982 1909 L
2983 2116 L
2985 2309 L
2986 2322 L
2988 2119 L
2989 2134 L
2991 2330 L
2993 2219 L
2994 2276 L
2996 2397 L
2997 2188 L
2999 2294 L
3000 2215 L
3002 2259 L
3003 2217 L
3005 2375 L
3006 2421 L
3007 2409 L
3009 2238 L
3010 2302 L
3012 2179 L
3013 2421 L
3014 2213 L
3016 2315 L
3017 2465 L
3019 2319 L
3020 2373 L
3021 2406 L
3023 2299 L
3024 2243 L
3025 2310 L
3027 2473 L
3028 2434 L
3029 2372 L
3031 2477 L
3032 2359 L
3033 2217 L
3034 2366 L
3036 2268 L
3037 2414 L
3038 2342 L
3039 2412 L
3041 2437 L
3042 2523 L
3043 2364 L
3044 2403 L
3045 2486 L
3047 2327 L
3048 2483 L
3049 2402 L
3050 2414 L
3051 2265 L
3053 2190 L
3054 2593 L
3055 2549 L
3056 2523 L
3057 2486 L
3058 2326 L
3059 2562 L
3061 2320 L
3062 2493 L
3063 2534 L
3064 2582 L
3065 2632 L
3066 2514 L
3067 2463 L
3068 2471 L
3069 2365 L
3070 2518 L
3071 2509 L
3073 2575 L
3074 2526 L
3075 2628 L
3076 2358 L
3077 2599 L
3078 2368 L
3079 2640 L
3080 2330 L
3081 2391 L
3082 2325 L
3083 2606 L
3084 2380 L
3085 2578 L
3086 2309 L
3087 2542 L
3088 2665 L
3089 2527 L
3112 2744 L
3133 2744 L
3152 2816 L
3170 2666 L
3186 2635 L
3201 2884 L
3216 2847 L
3229 2518 L
3241 2737 L
3253 2775 L
3264 2744 L
3275 2858 L
3285 2973 L
3295 2831 L
3304 2848 L
3313 2856 L
3322 2886 L
3330 2877 L
3338 2920 L
3346 2861 L
3353 2663 L
3360 2688 L
3367 2727 L
3374 2753 L
3380 2987 L
3387 2806 L
3393 2938 L
3399 2858 L
3405 3019 L
3410 2967 L
3416 2852 L
3421 3005 L
3426 2801 L
3431 3021 L
3436 2798 L
3441 3027 L
3446 2825 L
3451 2955 L
3455 2963 L
3460 2793 L
3464 2822 L
3469 2846 L
3473 2828 L
3477 2924 L
3481 2740 L
3485 3006 L
3489 2784 L
3493 2640 L
3496 2880 L
3500 2559 L
3504 2800 L
3507 2743 L
3511 2791 L
3514 2621 L
3518 3049 L
3521 2570 L
3525 2755 L
3528 2805 L
3531 2880 L
3534 2700 L
3537 2780 L
3540 2835 L
3543 2839 L
3546 2864 L
3549 2842 L
3552 2801 L
3555 2753 L
3558 2543 L
3561 2504 L
3564 2855 L
3566 2835 L
3575 2737 L
3586 2619 L
3595 2706 L
3605 2811 L
3613 2785 L
3622 2786 L
3630 2751 L
3638 2806 L
3646 2734 L
3653 2816 L
3660 2654 L
3667 2483 L
3674 2654 L
3681 2683 L
3687 2801 L
3693 2678 L
3699 2648 L
3705 2803 L
3710 2985 L
3716 2608 L
3721 2695 L
3727 2732 L
3732 2762 L
3737 2642 L
3742 2560 L
3746 2516 L
3751 2605 L
3756 2882 L
3760 2811 L
3764 2560 L
3769 2638 L
3773 2600 L
3777 2570 L
3781 2467 L
3785 2738 L
3789 2500 L
3793 2566 L
3797 2718 L
3800 2803 L
3804 2444 L
3808 2632 L
3811 2675 L
3815 2532 L
3818 2475 L
3821 2634 L
3825 2595 L
3828 2397 L
3831 2578 L
3834 2478 L
3838 2685 L
3841 2736 L
3844 2499 L
3847 2401 L
3850 2743 L
3853 2386 L
3855 2513 L
3858 2685 L
3861 2607 L
3864 2530 L
3867 2549 L
3869 2531 L
3872 2556 L
3875 2677 L
3877 2482 L
3880 2433 L
3882 2493 L
3885 2560 L
3887 2640 L
3890 2383 L
3892 2558 L
3895 2458 L
3897 2532 L
3899 2504 L
3902 2537 L
3904 2538 L
3906 2348 L
3908 2752 L
3911 2516 L
3913 2545 L
3915 2546 L
3917 2232 L
3919 2562 L
3921 2425 L
3923 2642 L
3926 2470 L
3928 2574 L
3930 2552 L
3932 2601 L
3934 2555 L
3936 2558 L
3938 2574 L
3940 2416 L
3942 2564 L
3943 2373 L
3945 2438 L
3947 2647 L
3949 2448 L
3951 2568 L
3953 2593 L
3955 2605 L
3956 2425 L
3958 2319 L
3960 2419 L
3962 2312 L
3963 2532 L
3965 2537 L
3967 2446 L
3969 2415 L
3970 2398 L
3972 2383 L
3974 2434 L
3975 2520 L
3977 2473 L
3978 2270 L
3980 2461 L
3982 2506 L
3983 2427 L
3985 2228 L
3986 2345 L
3988 2626 L
3990 2516 L
3991 2475 L
3993 2297 L
3994 2282 L
3996 2369 L
3997 2326 L
3999 2504 L
4000 2313 L
4001 2272 L
4003 2469 L
4004 2438 L
4006 2443 L
4007 2642 L
4009 2312 L
4010 2519 L
4011 2434 L
4013 2236 L
4014 2285 L
4016 2423 L
4017 2476 L
4018 2377 L
4020 2380 L
4021 2463 L
4022 2477 L
4024 2653 L
4025 2557 L
4026 2621 L
4028 2341 L
4029 2380 L
4030 2487 L
4031 2506 L
4033 2379 L
4034 2427 L
4035 2338 L
4036 2540 L
4038 2374 L
4039 2412 L
4040 2569 L
4041 2606 L
4042 2427 L
4044 2484 L
4045 2514 L
4046 2483 L
4047 2295 L
4048 2467 L
4050 2553 L
4051 2351 L
4052 2443 L
4053 2425 L
4054 2466 L
4055 2287 L
4056 2463 L
4058 2490 L
4059 2595 L
4060 2368 L
4061 2488 L
4062 2324 L
4063 2500 L
4064 2412 L
4065 2474 L
4066 2456 L
L2 C03 COSGR

%
%================
% Legend - Begin
%================
%
GSN 4240 5180 M
4480 5180 L
LWMC SL  C03 COSGR
GSN 4540 5141 M helvM (1.5 uM) show grestore
%
%================
% Legend - End
%================
%

%
% Residuals:
%
GSN 773 975 M
1625 894 L
1773 992 L
1860 1273 L
1922 1277 L
1970 1179 L
2009 1179 L
2043 1137 L
2072 1158 L
2097 1175 L
2120 1146 L
2140 1269 L
2159 1141 L
2176 1256 L
2192 1273 L
2207 1206 L
2221 1199 L
2234 1241 L
2247 1196 L
2259 1271 L
2270 1231 L
2280 1241 L
2290 1303 L
2300 1344 L
2309 1171 L
2318 1282 L
2326 1427 L
2335 1292 L
2342 1323 L
2350 1302 L
2357 1282 L
2364 1288 L
2371 1212 L
2378 1368 L
2384 1328 L
2391 1309 L
2397 1227 L
2403 1372 L
2409 1362 L
2414 1248 L
2420 1273 L
2425 1282 L
2430 1309 L
2435 1194 L
2440 1165 L
2445 1352 L
2450 1249 L
2455 1181 L
2459 1215 L
2464 1307 L
2468 1104 L
2472 1145 L
2476 1244 L
2481 1285 L
2485 1174 L
2489 1288 L
2492 1285 L
2496 1244 L
2500 1139 L
2504 1297 L
2507 1376 L
2511 1292 L
2514 1136 L
2518 1068 L
2521 1224 L
2525 1166 L
2528 1163 L
2531 1197 L
2534 1233 L
2538 1084 L
2541 1343 L
2544 1184 L
2547 1159 L
2550 1149 L
2553 1240 L
2556 1068 L
2559 1328 L
2561 1240 L
2564 1298 L
2567 1133 L
2570 1197 L
2580 1146 L
2590 1141 L
2600 1095 L
2609 1066 L
2618 1069 L
2627 1087 L
2635 1182 L
2643 1011 L
2650 1032 L
2658 1170 L
2665 1056 L
2672 1076 L
2678 1040 L
2685 1030 L
2691 1061 L
2697 861 L
2703 1038 L
2709 991 L
2714 961 L
2720 999 L
2725 969 L
2730 822 L
2735 892 L
2740 1062 L
2745 884 L
2750 967 L
2755 1061 L
2759 909 L
2764 929 L
2768 825 L
2772 789 L
2777 856 L
2781 826 L
2785 855 L
2789 838 L
2793 882 L
2796 844 L
2800 841 L
2804 920 L
2808 782 L
2811 840 L
2815 858 L
2818 844 L
2822 772 L
2825 820 L
2828 956 L
2831 853 L
2835 881 L
2838 779 L
2841 901 L
2844 888 L
2847 809 L
2850 756 L
2853 1066 L
2856 890 L
2859 803 L
2862 750 L
2864 883 L
2867 948 L
2870 810 L
2873 844 L
2875 1019 L
2878 890 L
2880 916 L
2883 952 L
2886 872 L
2888 967 L
2891 815 L
2893 865 L
2895 967 L
2898 925 L
2900 948 L
2902 865 L
2905 974 L
2907 1060 L
2909 894 L
2912 1020 L
2914 865 L
2916 893 L
2918 984 L
2920 844 L
2922 1011 L
2925 1041 L
2927 959 L
2929 962 L
2931 910 L
2933 1022 L
2935 975 L
2937 808 L
2939 916 L
2941 1064 L
2943 989 L
2945 886 L
2947 892 L
2948 1009 L
2950 1034 L
2952 870 L
2954 1011 L
2956 903 L
2958 960 L
2959 966 L
2961 845 L
2963 1094 L
2965 969 L
2966 978 L
2968 1184 L
2970 1065 L
2972 1095 L
2973 1099 L
2975 1093 L
2977 984 L
2978 1008 L
2980 1025 L
2982 817 L
2983 953 L
2985 1080 L
2986 1089 L
2988 955 L
2989 965 L
2991 1094 L
2993 1021 L
2994 1059 L
2996 1139 L
2997 1001 L
2999 1071 L
3000 1018 L
3002 1048 L
3003 1020 L
3005 1124 L
3006 1154 L
3007 1146 L
3009 1034 L
3010 1076 L
3012 995 L
3013 1154 L
3014 1017 L
3016 1085 L
3017 1183 L
3019 1087 L
3020 1123 L
3021 1144 L
3023 1074 L
3024 1037 L
3025 1082 L
3027 1189 L
3028 1163 L
3029 1122 L
3031 1192 L
3032 1114 L
3033 1020 L
3034 1118 L
3036 1054 L
3037 1150 L
3038 1103 L
3039 1149 L
3041 1165 L
3042 1222 L
3043 1118 L
3044 1143 L
3045 1198 L
3047 1093 L
3048 1196 L
3049 1142 L
3050 1150 L
3051 1052 L
3053 1003 L
3054 1268 L
3055 1239 L
3056 1222 L
3057 1197 L
3058 1092 L
3059 1248 L
3061 1088 L
3062 1203 L
3063 1229 L
3064 1261 L
3065 1294 L
3066 1216 L
3067 1182 L
3068 1188 L
3069 1118 L
3070 1219 L
3071 1213 L
3073 1256 L
3074 1224 L
3075 1291 L
3076 1114 L
3077 1272 L
3078 1120 L
3079 1299 L
3080 1095 L
3081 1135 L
3082 1092 L
3083 1277 L
3084 1128 L
3085 1258 L
3086 1081 L
3087 1235 L
3088 1316 L
3089 1224 L
3112 1368 L
3133 1368 L
3152 1415 L
3170 1316 L
3186 1296 L
3201 1460 L
3216 1435 L
3229 1219 L
3241 1363 L
3253 1388 L
3264 1368 L
3275 1443 L
3285 1518 L
3295 1425 L
3304 1436 L
3313 1441 L
3322 1461 L
3330 1455 L
3338 1483 L
3346 1445 L
3353 1315 L
3360 1331 L
3367 1357 L
3374 1374 L
3380 1528 L
3387 1408 L
3393 1496 L
3399 1443 L
3405 1549 L
3410 1514 L
3416 1439 L
3421 1540 L
3426 1405 L
3431 1550 L
3436 1403 L
3441 1554 L
3446 1421 L
3451 1507 L
3455 1512 L
3460 1400 L
3464 1419 L
3469 1435 L
3473 1423 L
3477 1486 L
3481 1365 L
3485 1540 L
3489 1394 L
3493 1299 L
3496 1457 L
3500 1246 L
3504 1405 L
3507 1367 L
3511 1399 L
3514 1286 L
3518 1569 L
3521 1253 L
3525 1375 L
3528 1408 L
3531 1457 L
3534 1338 L
3537 1392 L
3540 1427 L
3543 1430 L
3546 1447 L
3549 1432 L
3552 1405 L
3555 1373 L
3558 1235 L
3561 1209 L
3564 1441 L
3566 1427 L
3575 1363 L
3586 1285 L
3595 1342 L
3605 1412 L
3613 1394 L
3622 1395 L
3630 1372 L
3638 1409 L
3646 1361 L
3653 1415 L
3660 1309 L
3667 1196 L
3674 1308 L
3681 1327 L
3687 1405 L
3693 1324 L
3699 1304 L
3705 1407 L
3710 1526 L
3716 1278 L
3721 1336 L
3727 1360 L
3732 1379 L
3737 1300 L
3742 1247 L
3746 1217 L
3751 1276 L
3756 1458 L
3760 1412 L
3764 1247 L
3769 1298 L
3773 1273 L
3777 1253 L
3781 1185 L
3785 1364 L
3789 1207 L
3793 1250 L
3797 1351 L
3800 1407 L
3804 1170 L
3808 1294 L
3811 1322 L
3815 1228 L
3818 1191 L
3821 1295 L
3825 1269 L
3828 1139 L
3831 1258 L
3834 1192 L
3838 1329 L
3841 1362 L
3844 1206 L
3847 1142 L
3850 1367 L
3853 1132 L
3855 1216 L
3858 1329 L
3861 1278 L
3864 1227 L
3867 1239 L
3869 1227 L
3872 1244 L
3875 1323 L
3877 1195 L
3880 1163 L
3882 1202 L
3885 1247 L
3887 1299 L
3890 1130 L
3892 1245 L
3895 1180 L
3897 1228 L
3899 1209 L
3902 1231 L
3904 1232 L
3906 1107 L
3908 1373 L
3911 1217 L
3913 1237 L
3915 1237 L
3917 1031 L
3919 1248 L
3921 1157 L
3923 1300 L
3926 1187 L
3928 1256 L
3930 1241 L
3932 1274 L
3934 1243 L
3936 1245 L
3938 1256 L
3940 1151 L
3942 1249 L
3943 1123 L
3945 1166 L
3947 1304 L
3949 1173 L
3951 1252 L
3953 1268 L
3955 1276 L
3956 1157 L
3958 1088 L
3960 1154 L
3962 1083 L
3963 1228 L
3965 1231 L
3967 1171 L
3969 1151 L
3970 1140 L
3972 1130 L
3974 1164 L
3975 1220 L
3977 1189 L
3978 1056 L
3980 1181 L
3982 1211 L
3983 1159 L
3985 1028 L
3986 1105 L
3988 1290 L
3990 1218 L
3991 1190 L
3993 1073 L
3994 1063 L
3996 1120 L
3997 1092 L
3999 1210 L
4000 1084 L
4001 1057 L
4003 1187 L
4004 1166 L
4006 1170 L
4007 1300 L
4009 1083 L
4010 1219 L
4011 1164 L
4013 1033 L
4014 1065 L
4016 1156 L
4017 1191 L
4018 1126 L
4020 1128 L
4021 1183 L
4022 1192 L
4024 1307 L
4025 1244 L
4026 1287 L
4028 1102 L
4029 1128 L
4030 1198 L
4031 1211 L
4033 1127 L
4034 1159 L
4035 1100 L
4036 1233 L
4038 1124 L
4039 1149 L
4040 1252 L
4041 1276 L
4042 1159 L
4044 1197 L
4045 1216 L
4046 1196 L
4047 1072 L
4048 1185 L
4050 1242 L
4051 1109 L
4052 1170 L
4053 1157 L
4054 1185 L
4055 1067 L
4056 1182 L
4058 1200 L
4059 1270 L
4060 1120 L
4061 1199 L
4062 1091 L
4063 1207 L
4064 1149 L
4065 1190 L
4066 1178 L
L2 C03 COSGR

%
% Main frame
%
L10
GSN 
620 1700 M
4220 1700 L
4220 5300 L
620 5300 L
closepath SGR

%
% X axis: large tics
%
L10
GSN 1074 1700 M 0  54 rL SGR
GSN 1074 5300 M 0 -54 rL SGR
helvS (0.0001) 1074 470 xlabel
GSN 1572 1700 M 0  54 rL SGR
GSN 1572 5300 M 0 -54 rL SGR
helvS (0.001) 1572 470 xlabel
GSN 2071 1700 M 0  54 rL SGR
GSN 2071 5300 M 0 -54 rL SGR
helvS (0.01) 2071 470 xlabel
GSN 2570 1700 M 0  54 rL SGR
GSN 2570 5300 M 0 -54 rL SGR
helvS (0.1) 2570 470 xlabel
GSN 3068 1700 M 0  54 rL SGR
GSN 3068 5300 M 0 -54 rL SGR
helvS (1) 3068 470 xlabel
GSN 3567 1700 M 0  54 rL SGR
GSN 3567 5300 M 0 -54 rL SGR
helvS (10) 3567 470 xlabel
GSN 4066 1700 M 0  54 rL SGR
GSN 4066 5300 M 0 -54 rL SGR
helvS (100) 4066 470 xlabel
%
% X axis: small tics
%
L5
GSN 725 1700 M 0  36 rL SGR
GSN 725 5300 M 0 -36 rL SGR
GSN 813 1700 M 0  36 rL SGR
GSN 813 5300 M 0 -36 rL SGR
GSN 875 1700 M 0  36 rL SGR
GSN 875 5300 M 0 -36 rL SGR
GSN 924 1700 M 0  36 rL SGR
GSN 924 5300 M 0 -36 rL SGR
GSN 963 1700 M 0  36 rL SGR
GSN 963 5300 M 0 -36 rL SGR
GSN 996 1700 M 0  36 rL SGR
GSN 996 5300 M 0 -36 rL SGR
GSN 1025 1700 M 0  36 rL SGR
GSN 1025 5300 M 0 -36 rL SGR
GSN 1051 1700 M 0  36 rL SGR
GSN 1051 5300 M 0 -36 rL SGR
GSN 1224 1700 M 0  36 rL SGR
GSN 1224 5300 M 0 -36 rL SGR
GSN 1312 1700 M 0  36 rL SGR
GSN 1312 5300 M 0 -36 rL SGR
GSN 1374 1700 M 0  36 rL SGR
GSN 1374 5300 M 0 -36 rL SGR
GSN 1422 1700 M 0  36 rL SGR
GSN 1422 5300 M 0 -36 rL SGR
GSN 1462 1700 M 0  36 rL SGR
GSN 1462 5300 M 0 -36 rL SGR
GSN 1495 1700 M 0  36 rL SGR
GSN 1495 5300 M 0 -36 rL SGR
GSN 1524 1700 M 0  36 rL SGR
GSN 1524 5300 M 0 -36 rL SGR
GSN 1550 1700 M 0  36 rL SGR
GSN 1550 5300 M 0 -36 rL SGR
GSN 1722 1700 M 0  36 rL SGR
GSN 1722 5300 M 0 -36 rL SGR
GSN 1810 1700 M 0  36 rL SGR
GSN 1810 5300 M 0 -36 rL SGR
GSN 1873 1700 M 0  36 rL SGR
GSN 1873 5300 M 0 -36 rL SGR
GSN 1921 1700 M 0  36 rL SGR
GSN 1921 5300 M 0 -36 rL SGR
GSN 1960 1700 M 0  36 rL SGR
GSN 1960 5300 M 0 -36 rL SGR
GSN 1994 1700 M 0  36 rL SGR
GSN 1994 5300 M 0 -36 rL SGR
GSN 2023 1700 M 0  36 rL SGR
GSN 2023 5300 M 0 -36 rL SGR
GSN 2048 1700 M 0  36 rL SGR
GSN 2048 5300 M 0 -36 rL SGR
GSN 2221 1700 M 0  36 rL SGR
GSN 2221 5300 M 0 -36 rL SGR
GSN 2309 1700 M 0  36 rL SGR
GSN 2309 5300 M 0 -36 rL SGR
GSN 2371 1700 M 0  36 rL SGR
GSN 2371 5300 M 0 -36 rL SGR
GSN 2420 1700 M 0  36 rL SGR
GSN 2420 5300 M 0 -36 rL SGR
GSN 2459 1700 M 0  36 rL SGR
GSN 2459 5300 M 0 -36 rL SGR
GSN 2492 1700 M 0  36 rL SGR
GSN 2492 5300 M 0 -36 rL SGR
GSN 2521 1700 M 0  36 rL SGR
GSN 2521 5300 M 0 -36 rL SGR
GSN 2547 1700 M 0  36 rL SGR
GSN 2547 5300 M 0 -36 rL SGR
GSN 2720 1700 M 0  36 rL SGR
GSN 2720 5300 M 0 -36 rL SGR
GSN 2808 1700 M 0  36 rL SGR
GSN 2808 5300 M 0 -36 rL SGR
GSN 2870 1700 M 0  36 rL SGR
GSN 2870 5300 M 0 -36 rL SGR
GSN 2918 1700 M 0  36 rL SGR
GSN 2918 5300 M 0 -36 rL SGR
GSN 2958 1700 M 0  36 rL SGR
GSN 2958 5300 M 0 -36 rL SGR
GSN 2991 1700 M 0  36 rL SGR
GSN 2991 5300 M 0 -36 rL SGR
GSN 3020 1700 M 0  36 rL SGR
GSN 3020 5300 M 0 -36 rL SGR
GSN 3045 1700 M 0  36 rL SGR
GSN 3045 5300 M 0 -36 rL SGR
GSN 3218 1700 M 0  36 rL SGR
GSN 3218 5300 M 0 -36 rL SGR
GSN 3306 1700 M 0  36 rL SGR
GSN 3306 5300 M 0 -36 rL SGR
GSN 3368 1700 M 0  36 rL SGR
GSN 3368 5300 M 0 -36 rL SGR
GSN 3417 1700 M 0  36 rL SGR
GSN 3417 5300 M 0 -36 rL SGR
GSN 3456 1700 M 0  36 rL SGR
GSN 3456 5300 M 0 -36 rL SGR
GSN 3490 1700 M 0  36 rL SGR
GSN 3490 5300 M 0 -36 rL SGR
GSN 3519 1700 M 0  36 rL SGR
GSN 3519 5300 M 0 -36 rL SGR
GSN 3544 1700 M 0  36 rL SGR
GSN 3544 5300 M 0 -36 rL SGR
GSN 3717 1700 M 0  36 rL SGR
GSN 3717 5300 M 0 -36 rL SGR
GSN 3805 1700 M 0  36 rL SGR
GSN 3805 5300 M 0 -36 rL SGR
GSN 3867 1700 M 0  36 rL SGR
GSN 3867 5300 M 0 -36 rL SGR
GSN 3915 1700 M 0  36 rL SGR
GSN 3915 5300 M 0 -36 rL SGR
GSN 3955 1700 M 0  36 rL SGR
GSN 3955 5300 M 0 -36 rL SGR
GSN 3988 1700 M 0  36 rL SGR
GSN 3988 5300 M 0 -36 rL SGR
GSN 4017 1700 M 0  36 rL SGR
GSN 4017 5300 M 0 -36 rL SGR
GSN 4043 1700 M 0  36 rL SGR
GSN 4043 5300 M 0 -36 rL SGR
GSN 4216 1700 M 0  36 rL SGR
GSN 4216 5300 M 0 -36 rL SGR
%
% Y axis: large tics
%
L10
GSN 620 2064 M 54 0 rL SGR
GSN 4220 2064 M -54 0 rL SGR
helvS (1.04) 560 2064 ylabel
GSN 620 2945 M 54 0 rL SGR
GSN 4220 2945 M -54 0 rL SGR
helvS (1.06) 560 2945 ylabel
GSN 620 3826 M 54 0 rL SGR
GSN 4220 3826 M -54 0 rL SGR
helvS (1.08) 560 3826 ylabel
GSN 620 4707 M 54 0 rL SGR
GSN 4220 4707 M -54 0 rL SGR
helvS (1.1) 560 4707 ylabel
%
% Y axis: small tics
%
L5
GSN 620 1844 M 36 0 rL SGR
GSN 4220 1844 M -36 0 rL SGR
GSN 620 2064 M 36 0 rL SGR
GSN 4220 2064 M -36 0 rL SGR
GSN 620 2284 M 36 0 rL SGR
GSN 4220 2284 M -36 0 rL SGR
GSN 620 2505 M 36 0 rL SGR
GSN 4220 2505 M -36 0 rL SGR
GSN 620 2725 M 36 0 rL SGR
GSN 4220 2725 M -36 0 rL SGR
GSN 620 2945 M 36 0 rL SGR
GSN 4220 2945 M -36 0 rL SGR
GSN 620 3165 M 36 0 rL SGR
GSN 4220 3165 M -36 0 rL SGR
GSN 620 3386 M 36 0 rL SGR
GSN 4220 3386 M -36 0 rL SGR
GSN 620 3606 M 36 0 rL SGR
GSN 4220 3606 M -36 0 rL SGR
GSN 620 3826 M 36 0 rL SGR
GSN 4220 3826 M -36 0 rL SGR
GSN 620 4046 M 36 0 rL SGR
GSN 4220 4046 M -36 0 rL SGR
GSN 620 4267 M 36 0 rL SGR
GSN 4220 4267 M -36 0 rL SGR
GSN 620 4487 M 36 0 rL SGR
GSN 4220 4487 M -36 0 rL SGR
GSN 620 4707 M 36 0 rL SGR
GSN 4220 4707 M -36 0 rL SGR
GSN 620 4927 M 36 0 rL SGR
GSN 4220 4927 M -36 0 rL SGR
GSN 620 5148 M 36 0 rL SGR
GSN 4220 5148 M -36 0 rL SGR

%
% X-Axis label:
%
gsave 2420 290 M 
[
[(Helvetica) 180 0 true true 0 (t)]
[(Helvetica) 180 0 true true 0 (i)]
[(Helvetica) 180 0 true true 0 (m)]
[(Helvetica) 180 0 true true 0 (e)]
] 0 MCshow grestore

%
% Y-Axis label:
%
gsave 234 3500 M 
currentpoint gsave translate 90 rotate 0 0 moveto
[
[(Helvetica) 180 0 true true 0 (s)]
[(Helvetica) 180 0 true true 0 (i)]
[(Helvetica) 180 0 true true 0 (g)]
[(Helvetica) 180 0 true true 0 (n)]
[(Helvetica) 180 0 true true 0 (a)]
[(Helvetica) 180 0 true true 0 (l)]
] 0 MCshow grestore

%
% Residuals:
%
gsave 129 1160 M 
currentpoint gsave translate 90 rotate 0 0 moveto
[
[(Helvetica) 150 0 true true 0 (r)]
[(Helvetica) 150 0 true true 0 (e)]
[(Helvetica) 150 0 true true 0 (s)]
[(Helvetica) 150 0 true true 0 (i)]
[(Helvetica) 150 0 true true 0 (d)]
[(Helvetica) 150 0 true true 0 (u)]
[(Helvetica) 150 0 true true 0 (a)]
[(Helvetica) 150 0 true true 0 (l)]
[(Helvetica) 150 0 true true 0 (s)]
] 0 MCshow grestore

%
% Residual frame
%
L10
GSN 
620 620 M
4220 620 L
4220 1700 L
620 1700 L
closepath SGR
%
% X axis: large tics - residual frame
%
L10
GSN 1074 620 M 0  54 rL SGR
GSN 1074 1700 M 0 -54 rL SGR
GSN 1572 620 M 0  54 rL SGR
GSN 1572 1700 M 0 -54 rL SGR
GSN 2071 620 M 0  54 rL SGR
GSN 2071 1700 M 0 -54 rL SGR
GSN 2570 620 M 0  54 rL SGR
GSN 2570 1700 M 0 -54 rL SGR
GSN 3068 620 M 0  54 rL SGR
GSN 3068 1700 M 0 -54 rL SGR
GSN 3567 620 M 0  54 rL SGR
GSN 3567 1700 M 0 -54 rL SGR
GSN 4066 620 M 0  54 rL SGR
GSN 4066 1700 M 0 -54 rL SGR
%
% X axis: small tics - residual frame
%
L5
GSN 725 620 M 0  36 rL SGR
GSN 725 1700 M 0 -36 rL SGR
GSN 813 620 M 0  36 rL SGR
GSN 813 1700 M 0 -36 rL SGR
GSN 875 620 M 0  36 rL SGR
GSN 875 1700 M 0 -36 rL SGR
GSN 924 620 M 0  36 rL SGR
GSN 924 1700 M 0 -36 rL SGR
GSN 963 620 M 0  36 rL SGR
GSN 963 1700 M 0 -36 rL SGR
GSN 996 620 M 0  36 rL SGR
GSN 996 1700 M 0 -36 rL SGR
GSN 1025 620 M 0  36 rL SGR
GSN 1025 1700 M 0 -36 rL SGR
GSN 1051 620 M 0  36 rL SGR
GSN 1051 1700 M 0 -36 rL SGR
GSN 1224 620 M 0  36 rL SGR
GSN 1224 1700 M 0 -36 rL SGR
GSN 1312 620 M 0  36 rL SGR
GSN 1312 1700 M 0 -36 rL SGR
GSN 1374 620 M 0  36 rL SGR
GSN 1374 1700 M 0 -36 rL SGR
GSN 1422 620 M 0  36 rL SGR
GSN 1422 1700 M 0 -36 rL SGR
GSN 1462 620 M 0  36 rL SGR
GSN 1462 1700 M 0 -36 rL SGR
GSN 1495 620 M 0  36 rL SGR
GSN 1495 1700 M 0 -36 rL SGR
GSN 1524 620 M 0  36 rL SGR
GSN 1524 1700 M 0 -36 rL SGR
GSN 1550 620 M 0  36 rL SGR
GSN 1550 1700 M 0 -36 rL SGR
GSN 1722 620 M 0  36 rL SGR
GSN 1722 1700 M 0 -36 rL SGR
GSN 1810 620 M 0  36 rL SGR
GSN 1810 1700 M 0 -36 rL SGR
GSN 1873 620 M 0  36 rL SGR
GSN 1873 1700 M 0 -36 rL SGR
GSN 1921 620 M 0  36 rL SGR
GSN 1921 1700 M 0 -36 rL SGR
GSN 1960 620 M 0  36 rL SGR
GSN 1960 1700 M 0 -36 rL SGR
GSN 1994 620 M 0  36 rL SGR
GSN 1994 1700 M 0 -36 rL SGR
GSN 2023 620 M 0  36 rL SGR
GSN 2023 1700 M 0 -36 rL SGR
GSN 2048 620 M 0  36 rL SGR
GSN 2048 1700 M 0 -36 rL SGR
GSN 2221 620 M 0  36 rL SGR
GSN 2221 1700 M 0 -36 rL SGR
GSN 2309 620 M 0  36 rL SGR
GSN 2309 1700 M 0 -36 rL SGR
GSN 2371 620 M 0  36 rL SGR
GSN 2371 1700 M 0 -36 rL SGR
GSN 2420 620 M 0  36 rL SGR
GSN 2420 1700 M 0 -36 rL SGR
GSN 2459 620 M 0  36 rL SGR
GSN 2459 1700 M 0 -36 rL SGR
GSN 2492 620 M 0  36 rL SGR
GSN 2492 1700 M 0 -36 rL SGR
GSN 2521 620 M 0  36 rL SGR
GSN 2521 1700 M 0 -36 rL SGR
GSN 2547 620 M 0  36 rL SGR
GSN 2547 1700 M 0 -36 rL SGR
GSN 2720 620 M 0  36 rL SGR
GSN 2720 1700 M 0 -36 rL SGR
GSN 2808 620 M 0  36 rL SGR
GSN 2808 1700 M 0 -36 rL SGR
GSN 2870 620 M 0  36 rL SGR
GSN 2870 1700 M 0 -36 rL SGR
GSN 2918 620 M 0  36 rL SGR
GSN 2918 1700 M 0 -36 rL SGR
GSN 2958 620 M 0  36 rL SGR
GSN 2958 1700 M 0 -36 rL SGR
GSN 2991 620 M 0  36 rL SGR
GSN 2991 1700 M 0 -36 rL SGR
GSN 3020 620 M 0  36 rL SGR
GSN 3020 1700 M 0 -36 rL SGR
GSN 3045 620 M 0  36 rL SGR
GSN 3045 1700 M 0 -36 rL SGR
GSN 3218 620 M 0  36 rL SGR
GSN 3218 1700 M 0 -36 rL SGR
GSN 3306 620 M 0  36 rL SGR
GSN 3306 1700 M 0 -36 rL SGR
GSN 3368 620 M 0  36 rL SGR
GSN 3368 1700 M 0 -36 rL SGR
GSN 3417 620 M 0  36 rL SGR
GSN 3417 1700 M 0 -36 rL SGR
GSN 3456 620 M 0  36 rL SGR
GSN 3456 1700 M 0 -36 rL SGR
GSN 3490 620 M 0  36 rL SGR
GSN 3490 1700 M 0 -36 rL SGR
GSN 3519 620 M 0  36 rL SGR
GSN 3519 1700 M 0 -36 rL SGR
GSN 3544 620 M 0  36 rL SGR
GSN 3544 1700 M 0 -36 rL SGR
GSN 3717 620 M 0  36 rL SGR
GSN 3717 1700 M 0 -36 rL SGR
GSN 3805 620 M 0  36 rL SGR
GSN 3805 1700 M 0 -36 rL SGR
GSN 3867 620 M 0  36 rL SGR
GSN 3867 1700 M 0 -36 rL SGR
GSN 3915 620 M 0  36 rL SGR
GSN 3915 1700 M 0 -36 rL SGR
GSN 3955 620 M 0  36 rL SGR
GSN 3955 1700 M 0 -36 rL SGR
GSN 3988 620 M 0  36 rL SGR
GSN 3988 1700 M 0 -36 rL SGR
GSN 4017 620 M 0  36 rL SGR
GSN 4017 1700 M 0 -36 rL SGR
GSN 4043 620 M 0  36 rL SGR
GSN 4043 1700 M 0 -36 rL SGR
GSN 4216 620 M 0  36 rL SGR
GSN 4216 1700 M 0 -36 rL SGR
%
% Y axis: large tics - residual frame
%
L10
GSN 620 885 M 54 0 rL SGR
GSN 4220 885 M -54 0 rL SGR
helvS (-0.01) 560 885 ylabelresid
GSN 620 1175 M 54 0 rL SGR
GSN 4220 1175 M -54 0 rL SGR
helvS (0) 560 1175 ylabelresid
GSN 620 1466 M 54 0 rL SGR
GSN 4220 1466 M -54 0 rL SGR
helvS (0.01) 560 1466 ylabelresid

%
% X axis - residual panel
%
GSN L5 620 1175 M 4220 1175 L SDA G50 SGR

end
showpage
%%Trailer
%%EOF
