%!PS-Adobe-3.0 EPSF-3.0
%%BoundingBox: 0 0 514 550
%%Creator: BioKin Ltd.
%%DocumentFonts: Symbol Helvetica
%%EndComments
%
/bkdict 256 dict def
bkdict begin
/M {moveto} def 
/R {rmoveto} def
/L {lineto} def
/rL {rlineto} def
/GSN {gsave newpath} def
/SGR {stroke grestore} def
/COSGR {gsave setrgbcolor stroke grestore grestore} def
/SL {setlinewidth} def
/LWMB {12} def             % line width - model curves, black & white
/LWMC {10} def             % line width - model curves, color
/L2 {2.5 setlinewidth} def
/L5 {5 setlinewidth} def
/L10 {10 setlinewidth} def
/G50 {0.5 setgray} def
/SDA {[10  20] 0 setdash} def % axes
/helvT {/Helvetica findfont 100 scalefont setfont} def % tiny
/helvS {/Helvetica findfont 125 scalefont setfont} def % small
/helvM {/Helvetica findfont 150 scalefont setfont} def % medium
/helvL {/Helvetica findfont 175 scalefont setfont} def % large
/xlabel {gsave M dup
   stringwidth exch -0.5 mul exch rmoveto show grestore} def 
/ylabel {gsave M 90 rotate dup
   stringwidth exch -0.5 mul exch rmoveto show grestore} def
/ylabelresid {gsave M dup
   stringwidth exch -1 mul exch rmoveto show grestore} def
% ======
% Shapes
% ======
% Circle:
/Circ {0 360 arc closepath} def
%
% Square:
/Squa {dup dup -0.5 mul dup dup R -2 mul 0 exch rL 1 mul 0 rL dup 0 exch -1 mul rL closepath} def
%
% Triangle Up:
/TriU {dup dup dup -0.4 mul exch -0.5 mul exch R dup 0.5 mul exch rL dup -1 mul exch 0.5 mul exch rL closepath} def 
%
% Triangle Down:
/TriD {dup dup dup 0.4 mul exch -0.5 mul exch R dup 0.5 mul exch -1 mul rL dup 0.5 mul exch rL closepath} def 
%
% Diamond:
/Diam {45 rotate Squa} def
% ======
% Fills
% ======
/GRF {gsave setgray fill grestore} def                    % gray-level Fill
/COF {gsave setrgbcolor fill grestore} def                % color fill
% ======
% Colors
% ======
/C01 {1.00	0.00	0.00} def      % Red
/C02 {0.00	0.00	1.00} def      % Blue
/C03 {0.00	0.39	0.00} def      % Dark Green
/C04 {0.78	0.08	0.52} def      % Medium Violet Red
/C05 {0.55	0.27	0.07} def      % Saddle Brown
/C06 {0.10	0.70	0.70} def      % (cyan)
/C07 {1.00	0.55	0.00} def      % Dark Orange
/C08 {0.63	0.13	0.94} def      % Purple
/C09 {0.00	0.75	1.00} def      % Deep Sky Blue
/C10 {0.20	0.80	0.20} def      % Lime Green
/C11 {0.47	0.53	0.60} def      % Light Slate Gray
/C12 {0.00	0.00	0.00} def      % Black            % or: {0.19	0.31	0.31} def      % Dark Slate Gray
%
/LGR {0.75} def % light gray
/DGR {0.33} def % dark gray
%
% =============
% Dash patterns
% =============
/dash01 { [80  20] 0 setdash } def
/dash02 { [40  20] 0 setdash } def
/dash03 { [80  20  10  20] 0 setdash } def
/dash04 { [40  20  10  20] 0 setdash } def
/dash05 { [80  20  10  10  10  20] 0 setdash } def
/dash06 { [40  20  10  10  10  20] 0 setdash } def
/dash07 { [10  10] 0 setdash } def
%
/MFshow {
   { dup 5 get 3 ge
     { 5 get 3 eq {gsave} {grestore} ifelse }
     {dup dup 0 get findfont exch 1 get scalefont setfont
     [ currentpoint ] exch dup 2 get 0 exch R dup 5 get 2 ne {dup dup 6
     get exch 4 get {show} {stringwidth pop 0 R} ifelse }if dup 5 get 0 eq
     {dup 3 get {2 get neg 0 exch R pop} {pop aload pop M} ifelse} {dup 5
     get 1 eq {dup 2 get exch dup 3 get exch 6 get stringwidth pop -2 div
     dup 0 R} {dup 6 get stringwidth pop -2 div 0 R 6 get
     show 2 index {aload pop M neg 3 -1 roll neg R pop pop} {pop pop pop
     pop aload pop M} ifelse }ifelse }ifelse }
     ifelse }
   forall} bind def
/MFwidth {0 exch {dup 3 get{dup dup 0 get findfont exch 1 get scalefont
     setfont 6 get stringwidth pop add} {pop} ifelse} forall} bind def
/MCshow { currentpoint stroke M
  exch dup MFwidth -2 div 3 -1 roll R MFshow } def
%
end
%%EndProlog
bkdict begin
0.1 0.1 scale
%
% Residuals:
%
GSN 620 2411 M
620 2778 L
620 3354 L
620 4035 L
620 4089 L
620 4122 L
620 4284 L
620 4384 L
620 4516 L
620 4486 L
620 4565 L
620 4289 L
620 4863 L
620 4431 L
620 4655 L
620 4756 L
620 4697 L
620 4774 L
620 4401 L
620 4575 L
620 4487 L
620 4322 L
620 4401 L
620 4517 L
620 4283 L
620 4579 L
620 4742 L
620 4508 L
620 4658 L
620 4412 L
620 4255 L
620 3902 L
620 4103 L
620 4138 L
620 4417 L
620 4403 L
620 4216 L
620 4231 L
620 4331 L
620 4311 L
620 4450 L
620 4655 L
620 4008 L
620 4145 L
620 3778 L
620 3940 L
620 3790 L
620 4102 L
620 4117 L
620 4033 L
620 4131 L
620 4221 L
620 3733 L
620 3259 L
620 3537 L
620 3817 L
620 4010 L
620 4233 L
620 3817 L
620 3661 L
620 3511 L
620 3961 L
620 3459 L
620 3626 L
620 3950 L
620 3855 L
620 3421 L
620 3693 L
620 3664 L
620 3490 L
620 3441 L
620 3817 L
620 3566 L
620 3678 L
620 3415 L
620 3655 L
620 3667 L
620 3615 L
620 3519 L
620 3525 L
620 3606 L
620 3337 L
620 3288 L
620 3384 L
620 3491 L
620 3412 L
620 3447 L
620 3470 L
620 3002 L
620 3089 L
620 3158 L
620 3600 L
620 3011 L
620 2644 L
620 3335 L
620 2913 L
620 3176 L
620 2760 L
620 3138 L
620 3017 L
620 2841 L
620 2676 L
620 3014 L
620 2852 L
620 2309 L
620 2800 L
620 2846 L
620 2347 L
620 2898 L
620 2673 L
620 2968 L
620 2500 L
620 3005 L
620 2991 L
620 2881 L
620 2702 L
620 2716 L
620 2760 L
620 2578 L
620 2653 L
620 2760 L
620 2731 L
620 2702 L
620 2390 L
620 2609 L
620 2557 L
620 2364 L
620 2523 L
620 2777 L
620 2404 L
620 2659 L
620 2422 L
620 2445 L
620 2370 L
620 2549 L
620 2497 L
620 2425 L
620 2445 L
620 2670 L
620 2373 L
620 2552 L
620 2335 L
620 2396 L
620 2456 L
620 2404 L
620 2364 L
620 2312 L
620 2355 L
620 2326 L
620 2506 L
620 2607 L
620 2381 L
620 2595 L
620 2887 L
620 2390 L
620 2318 L
620 2347 L
620 2696 L
620 2497 L
620 2488 L
620 2916 L
620 2815 L
620 2274 L
620 2644 L
620 2379 L
620 2615 L
620 2613 L
620 2589 L
620 2633 L
620 2630 L
620 2771 L
620 2390 L
620 2878 L
620 2858 L
620 2685 L
620 3011 L
620 2136 L
620 2477 L
620 2786 L
620 2491 L
620 2575 L
620 2595 L
620 2584 L
620 2696 L
620 2194 L
620 2728 L
620 2855 L
620 3387 L
620 2627 L
620 3222 L
620 2347 L
620 2930 L
620 2800 L
620 2370 L
620 2768 L
620 2849 L
620 2803 L
620 2479 L
620 2800 L
620 2581 L
620 2636 L
620 2659 L
620 2786 L
620 2849 L
620 2511 L
620 2589 L
620 2575 L
620 2976 L
620 2881 L
620 2514 L
620 2881 L
620 2742 L
620 2904 L
620 3141 L
620 3014 L
620 2956 L
620 2994 L
620 3003 L
620 3225 L
620 2820 L
620 2893 L
620 3182 L
620 3045 L
620 2737 L
620 2783 L
620 3075 L
620 2696 L
620 3112 L
620 2500 L
620 2777 L
620 2991 L
620 3184 L
620 3147 L
620 2968 L
620 2936 L
620 2792 L
620 2789 L
620 2887 L
620 2783 L
620 2999 L
620 2725 L
620 2699 L
620 2682 L
620 2904 L
620 2838 L
620 2832 L
620 2916 L
620 2705 L
620 2953 L
620 3173 L
620 3060 L
620 2684 L
620 3213 L
620 3332 L
620 3028 L
620 2806 L
620 2728 L
620 2921 L
620 2919 L
620 2705 L
620 2569 L
620 2760 L
620 2534 L
620 2690 L
620 3415 L
620 3196 L
620 2962 L
620 3005 L
620 3369 L
620 3306 L
620 2979 L
620 2592 L
620 2621 L
620 3274 L
620 3372 L
620 2999 L
620 3361 L
620 3167 L
620 2699 L
620 3002 L
620 2762 L
620 2907 L
620 3109 L
620 3034 L
620 2904 L
620 3268 L
620 2852 L
620 3213 L
620 3340 L
620 3190 L
620 3080 L
620 3291 L
620 3326 L
620 3245 L
620 3415 L
620 3485 L
620 3072 L
620 3208 L
620 3046 L
620 3329 L
620 2821 L
620 3023 L
620 3031 L
620 3077 L
620 3364 L
620 3054 L
620 3265 L
620 3548 L
620 3132 L
620 3176 L
620 3130 L
620 3329 L
620 2994 L
620 3069 L
620 3138 L
620 3153 L
620 3109 L
620 3129 L
620 3308 L
620 2869 L
620 3519 L
620 3600 L
620 3028 L
620 3311 L
620 2696 L
620 3138 L
620 3493 L
620 2950 L
620 2818 L
620 3052 L
620 3268 L
620 3545 L
620 3112 L
620 2829 L
620 3095 L
620 3141 L
620 3392 L
620 3031 L
620 3103 L
620 3008 L
620 2913 L
620 3314 L
620 3155 L
620 2962 L
620 3262 L
620 3072 L
620 3190 L
620 3433 L
620 3017 L
620 2898 L
620 3346 L
620 3259 L
620 2866 L
620 2878 L
620 3089 L
620 2835 L
620 3052 L
620 3147 L
620 3040 L
620 3580 L
620 2789 L
620 3248 L
620 3245 L
620 3514 L
620 2956 L
620 3057 L
620 2971 L
620 3196 L
620 2803 L
620 3049 L
620 2950 L
620 2991 L
620 3225 L
620 2820 L
620 3326 L
620 3404 L
620 3130 L
620 2930 L
620 2814 L
620 3289 L
620 3135 L
620 3274 L
620 2757 L
620 3051 L
620 3150 L
620 3046 L
620 3150 L
620 2979 L
620 3340 L
620 3020 L
620 3179 L
620 3077 L
620 3135 L
620 3144 L
620 3060 L
620 3086 L
620 3329 L
620 2867 L
620 3014 L
620 3193 L
620 3277 L
620 2893 L
620 3306 L
620 3121 L
620 3447 L
620 2783 L
620 3340 L
620 3187 L
620 3080 L
620 2945 L
620 3095 L
620 3124 L
620 3303 L
620 3277 L
620 2768 L
620 2878 L
620 3066 L
620 2924 L
620 3124 L
620 3311 L
620 2765 L
620 2872 L
620 2887 L
620 3233 L
620 2676 L
620 2994 L
620 2841 L
620 3031 L
620 3101 L
620 3202 L
620 3271 L
620 3153 L
620 2974 L
620 3211 L
620 3210 L
620 3199 L
620 3132 L
620 3023 L
620 2621 L
620 2933 L
620 3453 L
620 3326 L
620 3046 L
620 3170 L
620 3314 L
620 2673 L
620 3228 L
620 3196 L
620 2786 L
620 3118 L
620 2708 L
620 3025 L
620 3309 L
620 3390 L
620 2947 L
620 3467 L
620 2835 L
620 3124 L
620 3101 L
620 3436 L
620 2794 L
620 3349 L
620 3309 L
620 3127 L
620 3002 L
620 3066 L
620 3008 L
620 3439 L
620 2999 L
620 3158 L
620 3346 L
620 3054 L
620 3121 L
620 3046 L
620 3473 L
620 3043 L
620 2889 L
620 3340 L
620 3216 L
620 3288 L
620 2881 L
620 3254 L
620 3199 L
620 3381 L
620 3453 L
620 3311 L
620 3089 L
620 3231 L
620 3115 L
620 3236 L
620 3632 L
620 3173 L
620 3311 L
620 3031 L
620 3289 L
620 3072 L
620 3199 L
620 3187 L
620 3259 L
620 2950 L
620 3037 L
620 2815 L
620 3283 L
620 3620 L
620 2662 L
620 3441 L
620 3118 L
620 3022 L
620 3317 L
620 3389 L
620 3074 L
620 3464 L
620 3323 L
620 3023 L
620 3176 L
620 3144 L
620 3193 L
620 3430 L
620 3297 L
620 3109 L
620 3701 L
620 3124 L
620 3156 L
620 3352 L
620 3306 L
620 2846 L
620 3176 L
620 2751 L
620 3063 L
620 3233 L
620 3335 L
620 3031 L
620 3291 L
L2 C01 COSGR

%
%================
% Legend - Begin
%================
%
GSN 4240 5180 M
4480 5180 L
LWMC SL  C01 COSGR
GSN 4540 5141 M helvM (0.5 uM) show grestore
%
%================
% Legend - End
%================
%

%
% Main frame
%
L10
GSN 
620 1700 M
4220 1700 L
4220 5300 L
620 5300 L
closepath SGR

%
% X axis: large tics
%
L10
%
% X axis: small tics
%
L5
%
% Y axis: large tics
%
L10
GSN 620 2007 M 54 0 rL SGR
GSN 4220 2007 M -54 0 rL SGR
helvS (-0.02) 560 2007 ylabel
GSN 620 3142 M 54 0 rL SGR
GSN 4220 3142 M -54 0 rL SGR
helvS (0) 560 3142 ylabel
GSN 620 4278 M 54 0 rL SGR
GSN 4220 4278 M -54 0 rL SGR
helvS (0.02) 560 4278 ylabel
%
% Y axis: small tics
%
L5
GSN 620 1723 M 36 0 rL SGR
GSN 4220 1723 M -36 0 rL SGR
GSN 620 2007 M 36 0 rL SGR
GSN 4220 2007 M -36 0 rL SGR
GSN 620 2291 M 36 0 rL SGR
GSN 4220 2291 M -36 0 rL SGR
GSN 620 2574 M 36 0 rL SGR
GSN 4220 2574 M -36 0 rL SGR
GSN 620 2858 M 36 0 rL SGR
GSN 4220 2858 M -36 0 rL SGR
GSN 620 3142 M 36 0 rL SGR
GSN 4220 3142 M -36 0 rL SGR
GSN 620 3426 M 36 0 rL SGR
GSN 4220 3426 M -36 0 rL SGR
GSN 620 3710 M 36 0 rL SGR
GSN 4220 3710 M -36 0 rL SGR
GSN 620 3994 M 36 0 rL SGR
GSN 4220 3994 M -36 0 rL SGR
GSN 620 4278 M 36 0 rL SGR
GSN 4220 4278 M -36 0 rL SGR
GSN 620 4562 M 36 0 rL SGR
GSN 4220 4562 M -36 0 rL SGR
GSN 620 4846 M 36 0 rL SGR
GSN 4220 4846 M -36 0 rL SGR
GSN 620 5130 M 36 0 rL SGR
GSN 4220 5130 M -36 0 rL SGR

%
% X axis - residual panel
%
GSN L5 620 3142 M 4220 3142 L SDA G50 SGR

%
% X-Axis label:
%
gsave 620 1370 M 
[
[(Helvetica) 180 0 true true 0 (t)]
[(Helvetica) 180 0 true true 0 (i)]
[(Helvetica) 180 0 true true 0 (m)]
[(Helvetica) 180 0 true true 0 (e)]
] 0 MCshow grestore

%
% Y-Axis label:
%
gsave 234 3499 M 
currentpoint gsave translate 90 rotate 0 0 moveto
[
[(Helvetica) 180 0 true true 0 (r)]
[(Helvetica) 180 0 true true 0 (e)]
[(Helvetica) 180 0 true true 0 (s)]
[(Helvetica) 180 0 true true 0 (i)]
[(Helvetica) 180 0 true true 0 (d)]
[(Helvetica) 180 0 true true 0 (u)]
[(Helvetica) 180 0 true true 0 (a)]
[(Helvetica) 180 0 true true 0 (l)]
[(Helvetica) 180 0 true true 0 (s)]
] 0 MCshow grestore

end
showpage
%%Trailer
%%EOF
