%!PS-Adobe-3.0 EPSF-3.0
%%BoundingBox: 0 0 514 550
%%Creator: BioKin Ltd.
%%DocumentFonts: Symbol Helvetica
%%EndComments
%
/bkdict 256 dict def
bkdict begin
/M {moveto} def 
/R {rmoveto} def
/L {lineto} def
/rL {rlineto} def
/GSN {gsave newpath} def
/SGR {stroke grestore} def
/COSGR {gsave setrgbcolor stroke grestore grestore} def
/SL {setlinewidth} def
/LWMB {12} def             % line width - model curves, black & white
/LWMC {10} def             % line width - model curves, color
/L2 {2.5 setlinewidth} def
/L5 {5 setlinewidth} def
/L10 {10 setlinewidth} def
/G50 {0.5 setgray} def
/SDA {[10  20] 0 setdash} def % axes
/helvT {/Helvetica findfont 100 scalefont setfont} def % tiny
/helvS {/Helvetica findfont 125 scalefont setfont} def % small
/helvM {/Helvetica findfont 150 scalefont setfont} def % medium
/helvL {/Helvetica findfont 175 scalefont setfont} def % large
/xlabel {gsave M dup
   stringwidth exch -0.5 mul exch rmoveto show grestore} def 
/ylabel {gsave M 90 rotate dup
   stringwidth exch -0.5 mul exch rmoveto show grestore} def
/ylabelresid {gsave M dup
   stringwidth exch -1 mul exch rmoveto show grestore} def
% ======
% Shapes
% ======
% Circle:
/Circ {0 360 arc closepath} def
%
% Square:
/Squa {dup dup -0.5 mul dup dup R -2 mul 0 exch rL 1 mul 0 rL dup 0 exch -1 mul rL closepath} def
%
% Triangle Up:
/TriU {dup dup dup -0.4 mul exch -0.5 mul exch R dup 0.5 mul exch rL dup -1 mul exch 0.5 mul exch rL closepath} def 
%
% Triangle Down:
/TriD {dup dup dup 0.4 mul exch -0.5 mul exch R dup 0.5 mul exch -1 mul rL dup 0.5 mul exch rL closepath} def 
%
% Diamond:
/Diam {45 rotate Squa} def
% ======
% Fills
% ======
/GRF {gsave setgray fill grestore} def                    % gray-level Fill
/COF {gsave setrgbcolor fill grestore} def                % color fill
% ======
% Colors
% ======
/C01 {1.00	0.00	0.00} def      % Red
/C02 {0.00	0.00	1.00} def      % Blue
/C03 {0.00	0.39	0.00} def      % Dark Green
/C04 {0.78	0.08	0.52} def      % Medium Violet Red
/C05 {0.55	0.27	0.07} def      % Saddle Brown
/C06 {0.10	0.70	0.70} def      % (cyan)
/C07 {1.00	0.55	0.00} def      % Dark Orange
/C08 {0.63	0.13	0.94} def      % Purple
/C09 {0.00	0.75	1.00} def      % Deep Sky Blue
/C10 {0.20	0.80	0.20} def      % Lime Green
/C11 {0.47	0.53	0.60} def      % Light Slate Gray
/C12 {0.00	0.00	0.00} def      % Black            % or: {0.19	0.31	0.31} def      % Dark Slate Gray
%
/LGR {0.75} def % light gray
/DGR {0.33} def % dark gray
%
% =============
% Dash patterns
% =============
/dash01 { [80  20] 0 setdash } def
/dash02 { [40  20] 0 setdash } def
/dash03 { [80  20  10  20] 0 setdash } def
/dash04 { [40  20  10  20] 0 setdash } def
/dash05 { [80  20  10  10  10  20] 0 setdash } def
/dash06 { [40  20  10  10  10  20] 0 setdash } def
/dash07 { [10  10] 0 setdash } def
%
/MFshow {
   { dup 5 get 3 ge
     { 5 get 3 eq {gsave} {grestore} ifelse }
     {dup dup 0 get findfont exch 1 get scalefont setfont
     [ currentpoint ] exch dup 2 get 0 exch R dup 5 get 2 ne {dup dup 6
     get exch 4 get {show} {stringwidth pop 0 R} ifelse }if dup 5 get 0 eq
     {dup 3 get {2 get neg 0 exch R pop} {pop aload pop M} ifelse} {dup 5
     get 1 eq {dup 2 get exch dup 3 get exch 6 get stringwidth pop -2 div
     dup 0 R} {dup 6 get stringwidth pop -2 div 0 R 6 get
     show 2 index {aload pop M neg 3 -1 roll neg R pop pop} {pop pop pop
     pop aload pop M} ifelse }ifelse }ifelse }
     ifelse }
   forall} bind def
/MFwidth {0 exch {dup 3 get{dup dup 0 get findfont exch 1 get scalefont
     setfont 6 get stringwidth pop add} {pop} ifelse} forall} bind def
/MCshow { currentpoint stroke M
  exch dup MFwidth -2 div 3 -1 roll R MFshow } def
%
end
%%EndProlog
bkdict begin
0.1 0.1 scale
%
% Model curves:
%

GSN 753 5166 M
753 5166 L
786 5166 L
820 5165 L
853 5164 L
886 5163 L
903 5163 L
919 5162 L
953 5161 L
986 5160 L
1020 5158 L
1053 5156 L
1053 5156 L
1086 5154 L
1120 5151 L
1153 5148 L
1186 5144 L
1203 5142 L
1220 5140 L
1253 5135 L
1286 5129 L
1320 5122 L
1353 5115 L
1353 5115 L
1386 5106 L
1420 5095 L
1453 5083 L
1486 5069 L
1503 5061 L
1520 5052 L
1553 5034 L
1586 5012 L
1620 4987 L
1653 4958 L
1653 4957 L
1686 4924 L
1720 4886 L
1753 4843 L
1786 4793 L
1804 4765 L
1820 4737 L
1853 4674 L
1886 4603 L
1920 4523 L
1953 4435 L
1954 4433 L
1986 4338 L
2020 4232 L
2053 4117 L
2086 3994 L
2104 3926 L
2120 3864 L
2153 3728 L
2186 3589 L
2220 3447 L
2253 3307 L
2254 3303 L
2286 3171 L
2320 3042 L
2353 2923 L
2386 2816 L
2404 2765 L
2420 2723 L
2453 2647 L
2486 2587 L
2520 2542 L
2553 2510 L
2554 2509 L
2586 2490 L
2620 2478 L
2653 2472 L
2686 2469 L
2704 2469 L
2720 2468 L
2753 2468 L
2786 2468 L
2820 2468 L
2853 2468 L
2854 2468 L
2886 2468 L
2920 2468 L
2953 2468 L
2986 2468 L
3004 2468 L
3020 2468 L
3053 2468 L
3068 2468 L
3086 2468 L
3120 2468 L
3153 2468 L
3155 2468 L
3186 2468 L
3220 2468 L
3253 2468 L
3286 2468 L
3305 2468 L
3320 2468 L
3353 2468 L
3386 2468 L
3420 2468 L
3453 2468 L
3455 2468 L
3486 2468 L
3520 2468 L
3553 2468 L
3586 2468 L
3605 2468 L
3620 2468 L
3653 2468 L
3686 2468 L
3720 2468 L
3753 2468 L
3755 2468 L
3786 2468 L
3820 2468 L
3853 2468 L
3886 2468 L
3905 2468 L
3920 2468 L
3953 2468 L
3986 2468 L
4020 2468 L
4053 2468 L
4086 2468 L
LWMC SL  C07 COSGR

%
% Experimental data:
%
GSN 773 5021 M
1625 4584 L
1773 4418 L
1860 4373 L
1922 4368 L
1970 4033 L
2009 4377 L
2043 4158 L
2072 4146 L
2097 4039 L
2120 3776 L
2140 3996 L
2159 3783 L
2176 3700 L
2192 3779 L
2207 3635 L
2221 3577 L
2234 3692 L
2247 3428 L
2259 3592 L
2270 3634 L
2280 3504 L
2290 3632 L
2300 3395 L
2309 3532 L
2318 3579 L
2326 3294 L
2335 3396 L
2342 3363 L
2350 3463 L
2357 3221 L
2364 3075 L
2371 3450 L
2378 3138 L
2384 3305 L
2391 3201 L
2397 3139 L
2403 3151 L
2409 3106 L
2414 3057 L
2420 2891 L
2425 3108 L
2430 2999 L
2435 2989 L
2440 2985 L
2445 2867 L
2450 2986 L
2455 2775 L
2459 2780 L
2464 2850 L
2468 2848 L
2472 2691 L
2476 2626 L
2481 2589 L
2485 2839 L
2489 2703 L
2492 2812 L
2496 2674 L
2500 2763 L
2504 2780 L
2507 2628 L
2511 2766 L
2514 2755 L
2518 2834 L
2521 2635 L
2525 2528 L
2528 2528 L
2531 2567 L
2534 2336 L
2538 2599 L
2541 2550 L
2544 2468 L
2547 2760 L
2550 2372 L
2553 2504 L
2556 2650 L
2559 2326 L
2561 2306 L
2564 2520 L
2567 2439 L
2570 2432 L
2580 2374 L
2590 2399 L
2600 2489 L
2609 2300 L
2618 2181 L
2627 2323 L
2635 2105 L
2643 2159 L
2650 2168 L
2658 2312 L
2665 2054 L
2672 2254 L
2678 2137 L
2685 2039 L
2691 2063 L
2697 2000 L
2703 1985 L
2709 2103 L
2714 1994 L
2720 2184 L
2725 2020 L
2730 2100 L
2735 1927 L
2740 2077 L
2745 1921 L
2750 2029 L
2755 1975 L
2759 2121 L
2764 2074 L
2768 2090 L
2772 1971 L
2777 1867 L
2781 1833 L
2785 1991 L
2789 1965 L
2793 2023 L
2796 2171 L
2800 2087 L
2804 2001 L
2808 2002 L
2811 1965 L
2815 2025 L
2818 1909 L
2822 2077 L
2825 2026 L
2828 1895 L
2831 1946 L
2835 2009 L
2838 2015 L
2841 1983 L
2844 2089 L
2847 2000 L
2850 2122 L
2853 1862 L
2856 2142 L
2859 1931 L
2862 2275 L
2864 2115 L
2867 2187 L
2870 2122 L
2873 1915 L
2875 2174 L
2878 2177 L
2880 2158 L
2883 2098 L
2886 2226 L
2888 1974 L
2891 2092 L
2893 2042 L
2895 2187 L
2898 2105 L
2900 2159 L
2902 2116 L
2905 2009 L
2907 2351 L
2909 2158 L
2912 2124 L
2914 2252 L
2916 1960 L
2918 2253 L
2920 2303 L
2922 2226 L
2925 2179 L
2927 2243 L
2929 2178 L
2931 2200 L
2933 2182 L
2935 2244 L
2937 2289 L
2939 2270 L
2941 2168 L
2943 2267 L
2945 2366 L
2947 2298 L
2948 2206 L
2950 2303 L
2952 2162 L
2954 2345 L
2956 2319 L
2958 2230 L
2959 2417 L
2961 2281 L
2963 2323 L
2965 2255 L
2966 2203 L
2968 2243 L
2970 2292 L
2972 2233 L
2973 2596 L
2975 2418 L
2977 2278 L
2978 2432 L
2980 2215 L
2982 2454 L
2983 2485 L
2985 2508 L
2986 2409 L
2988 2366 L
2989 2402 L
2991 2326 L
2993 2342 L
2994 2487 L
2996 2409 L
2997 2420 L
2999 2402 L
3000 2523 L
3002 2447 L
3003 2349 L
3005 2427 L
3006 2309 L
3007 2562 L
3009 2178 L
3010 2479 L
3012 2382 L
3013 2518 L
3014 2424 L
3016 2411 L
3017 2454 L
3019 2460 L
3020 2512 L
3021 2570 L
3023 2340 L
3024 2436 L
3025 2418 L
3027 2493 L
3028 2327 L
3029 2534 L
3031 2497 L
3032 2388 L
3033 2538 L
3034 2415 L
3036 2509 L
3037 2430 L
3038 2423 L
3039 2526 L
3041 2567 L
3042 2606 L
3043 2421 L
3044 2526 L
3045 2601 L
3047 2470 L
3048 2601 L
3049 2465 L
3050 2300 L
3051 2538 L
3053 2601 L
3054 2544 L
3055 2422 L
3056 2451 L
3057 2696 L
3058 2492 L
3059 2518 L
3061 2587 L
3062 2719 L
3063 2397 L
3064 2378 L
3065 2531 L
3066 2650 L
3067 2767 L
3068 2562 L
3069 2502 L
3070 2686 L
3071 2542 L
3073 2605 L
3074 2455 L
3075 2533 L
3076 2337 L
3077 2516 L
3078 2448 L
3079 2724 L
3080 2655 L
3081 2797 L
3082 2497 L
3083 2527 L
3084 2711 L
3085 2650 L
3086 2661 L
3087 2502 L
3088 2399 L
3089 2572 L
3112 2715 L
3133 2373 L
3152 2871 L
3170 2722 L
3186 2774 L
3201 2687 L
3216 2816 L
3229 2725 L
3241 2556 L
3253 2532 L
3264 2742 L
3275 2733 L
3285 2703 L
3295 2741 L
3304 2700 L
3313 2875 L
3322 2730 L
3330 2613 L
3338 2823 L
3346 2739 L
3353 2865 L
3360 2938 L
3367 2752 L
3374 2661 L
3380 2698 L
3387 2742 L
3393 2806 L
3399 2606 L
3405 2542 L
3410 2765 L
3416 2728 L
3421 2960 L
3426 2835 L
3431 2770 L
3436 2719 L
3441 2740 L
3446 2804 L
3451 2989 L
3455 2860 L
3460 2892 L
3464 2815 L
3469 2639 L
3473 2830 L
3477 2813 L
3481 2665 L
3485 2760 L
3489 2892 L
3493 2819 L
3496 2714 L
3500 2947 L
3504 2694 L
3507 2760 L
3511 2779 L
3514 2980 L
3518 2607 L
3521 2790 L
3525 2760 L
3528 2731 L
3531 2739 L
3534 2725 L
3537 2677 L
3540 2648 L
3543 2775 L
3546 2794 L
3549 2939 L
3552 2530 L
3555 2810 L
3558 2813 L
3561 2754 L
3564 2787 L
3566 2769 L
3575 2777 L
3586 2880 L
3595 2697 L
3605 2854 L
3613 2639 L
3622 2657 L
3630 2642 L
3638 2583 L
3646 2719 L
3653 2644 L
3660 2596 L
3667 2643 L
3674 2905 L
3681 2586 L
3687 2711 L
3693 2630 L
3699 2604 L
3705 2644 L
3710 2907 L
3716 2535 L
3721 2577 L
3727 2532 L
3732 2602 L
3737 2530 L
3742 2517 L
3746 2516 L
3751 2568 L
3756 2625 L
3760 2403 L
3764 2607 L
3769 2499 L
3773 2695 L
3777 2659 L
3781 2536 L
3785 2603 L
3789 2442 L
3793 2433 L
3797 2535 L
3800 2470 L
3804 2603 L
3808 2477 L
3811 2652 L
3815 2486 L
3818 2574 L
3821 2700 L
3825 2453 L
3828 2489 L
3831 2527 L
3834 2391 L
3838 2392 L
3841 2634 L
3844 2611 L
3847 2238 L
3850 2474 L
3853 2678 L
3855 2471 L
3858 2602 L
3861 2644 L
3864 2646 L
3867 2375 L
3869 2643 L
3872 2404 L
3875 2618 L
3877 2370 L
3880 2387 L
3882 2363 L
3885 2495 L
3887 2547 L
3890 2624 L
3892 2489 L
3895 2508 L
3897 2514 L
3899 2489 L
3902 2505 L
3904 2559 L
3906 2439 L
3908 2460 L
3911 2608 L
3913 2221 L
3915 2269 L
3917 2497 L
3919 2477 L
3921 2496 L
3923 2580 L
3926 2371 L
3928 2578 L
3930 2523 L
3932 2389 L
3934 2617 L
3936 2593 L
3938 2474 L
3940 2567 L
3942 2451 L
3943 2495 L
3945 2442 L
3947 2513 L
3949 2582 L
3951 2514 L
3953 2437 L
3955 2194 L
3956 2554 L
3958 2605 L
3960 2553 L
3962 2318 L
3963 2332 L
3965 2474 L
3967 2595 L
3969 2390 L
3970 2339 L
3972 2584 L
3974 2523 L
3975 2438 L
3977 2327 L
3978 2322 L
3980 2458 L
3982 2406 L
3983 2349 L
3985 2359 L
3986 2248 L
3988 2464 L
3990 2280 L
3991 2432 L
3993 2435 L
3994 2542 L
3996 2369 L
3997 2382 L
3999 2554 L
4000 2508 L
4001 2392 L
4003 2257 L
4004 2329 L
4006 2401 L
4007 2411 L
4009 2290 L
4010 2451 L
4011 2465 L
4013 2464 L
4014 2448 L
4016 2478 L
4017 2168 L
4018 2367 L
4020 2252 L
4021 2400 L
4022 2472 L
4024 2226 L
4025 2635 L
4026 2392 L
4028 2524 L
4029 2461 L
4030 2219 L
4031 2261 L
4033 2267 L
4034 2456 L
4035 2271 L
4036 2162 L
4038 2505 L
4039 2303 L
4040 2326 L
4041 2383 L
4042 2244 L
4044 2284 L
4045 2503 L
4046 2286 L
4047 2448 L
4048 2325 L
4050 2358 L
4051 2566 L
4052 2410 L
4053 2492 L
4054 2187 L
4055 2342 L
4056 2382 L
4058 2471 L
4059 2285 L
4060 2327 L
4061 2421 L
4062 2194 L
4063 2396 L
4064 2360 L
4065 2407 L
4066 2536 L
L2 C07 COSGR

%
%================
% Legend - Begin
%================
%
GSN 4240 5180 M
4480 5180 L
LWMC SL  C07 COSGR
GSN 4540 5141 M helvM (4.0 uM) show grestore
%
%================
% Legend - End
%================
%

%
% Residuals:
%
GSN 773 1078 M
1625 909 L
1773 910 L
1860 984 L
1922 1076 L
1970 939 L
2009 1250 L
2043 1179 L
2072 1240 L
2097 1233 L
2120 1117 L
2140 1320 L
2159 1229 L
2176 1222 L
2192 1321 L
2207 1266 L
2221 1267 L
2234 1381 L
2247 1239 L
2259 1382 L
2270 1440 L
2280 1382 L
2290 1494 L
2300 1361 L
2309 1476 L
2318 1530 L
2326 1361 L
2335 1449 L
2342 1446 L
2350 1530 L
2357 1385 L
2364 1303 L
2371 1569 L
2378 1374 L
2384 1499 L
2391 1442 L
2397 1412 L
2403 1432 L
2409 1412 L
2414 1389 L
2420 1288 L
2425 1442 L
2430 1377 L
2435 1378 L
2440 1384 L
2445 1312 L
2450 1398 L
2455 1263 L
2459 1272 L
2464 1325 L
2468 1329 L
2472 1229 L
2476 1191 L
2481 1170 L
2485 1342 L
2489 1255 L
2492 1332 L
2496 1244 L
2500 1307 L
2504 1321 L
2507 1223 L
2511 1319 L
2514 1314 L
2518 1370 L
2521 1239 L
2525 1170 L
2528 1173 L
2531 1200 L
2534 1048 L
2538 1226 L
2541 1195 L
2544 1142 L
2547 1339 L
2550 1081 L
2553 1171 L
2556 1270 L
2559 1055 L
2561 1043 L
2564 1187 L
2567 1134 L
2570 1130 L
2580 1095 L
2590 1116 L
2600 1178 L
2609 1054 L
2618 976 L
2627 1072 L
2635 927 L
2643 965 L
2650 972 L
2658 1068 L
2665 896 L
2672 1031 L
2678 952 L
2685 887 L
2691 903 L
2697 861 L
2703 852 L
2709 931 L
2714 858 L
2720 985 L
2725 875 L
2730 929 L
2735 813 L
2740 914 L
2745 810 L
2750 882 L
2755 846 L
2759 943 L
2764 912 L
2768 923 L
2772 843 L
2777 773 L
2781 750 L
2785 856 L
2789 839 L
2793 878 L
2796 977 L
2800 920 L
2804 863 L
2808 863 L
2811 839 L
2815 879 L
2818 802 L
2822 914 L
2825 880 L
2828 792 L
2831 826 L
2835 869 L
2838 872 L
2841 851 L
2844 922 L
2847 862 L
2850 944 L
2853 770 L
2856 957 L
2859 816 L
2862 1046 L
2864 939 L
2867 988 L
2870 944 L
2873 805 L
2875 979 L
2878 981 L
2880 968 L
2883 928 L
2886 1013 L
2888 845 L
2891 924 L
2893 891 L
2895 988 L
2898 932 L
2900 969 L
2902 940 L
2905 868 L
2907 1097 L
2909 968 L
2912 945 L
2914 1031 L
2916 835 L
2918 1032 L
2920 1065 L
2922 1014 L
2925 982 L
2927 1025 L
2929 981 L
2931 996 L
2933 984 L
2935 1026 L
2937 1056 L
2939 1043 L
2941 975 L
2943 1041 L
2945 1107 L
2947 1062 L
2948 1000 L
2950 1065 L
2952 971 L
2954 1093 L
2956 1076 L
2958 1016 L
2959 1141 L
2961 1050 L
2963 1078 L
2965 1033 L
2966 998 L
2968 1025 L
2970 1057 L
2972 1018 L
2973 1261 L
2975 1142 L
2977 1048 L
2978 1151 L
2980 1006 L
2982 1166 L
2983 1187 L
2985 1202 L
2986 1136 L
2988 1107 L
2989 1131 L
2991 1080 L
2993 1091 L
2994 1188 L
2996 1136 L
2997 1143 L
2999 1131 L
3000 1212 L
3002 1161 L
3003 1096 L
3005 1148 L
3006 1069 L
3007 1238 L
3009 981 L
3010 1182 L
3012 1118 L
3013 1208 L
3014 1146 L
3016 1137 L
3017 1166 L
3019 1170 L
3020 1205 L
3021 1244 L
3023 1090 L
3024 1154 L
3025 1142 L
3027 1192 L
3028 1081 L
3029 1219 L
3031 1195 L
3032 1122 L
3033 1222 L
3034 1140 L
3036 1203 L
3037 1150 L
3038 1145 L
3039 1214 L
3041 1241 L
3042 1268 L
3043 1144 L
3044 1214 L
3045 1264 L
3047 1176 L
3048 1264 L
3049 1173 L
3050 1063 L
3051 1222 L
3053 1264 L
3054 1226 L
3055 1145 L
3056 1164 L
3057 1328 L
3058 1191 L
3059 1208 L
3061 1255 L
3062 1343 L
3063 1128 L
3064 1115 L
3065 1218 L
3066 1297 L
3067 1375 L
3068 1238 L
3069 1198 L
3070 1321 L
3071 1225 L
3073 1267 L
3074 1167 L
3075 1219 L
3076 1087 L
3077 1207 L
3078 1162 L
3079 1347 L
3080 1300 L
3081 1396 L
3082 1195 L
3083 1215 L
3084 1338 L
3085 1297 L
3086 1304 L
3087 1198 L
3088 1129 L
3089 1245 L
3112 1340 L
3133 1112 L
3152 1445 L
3170 1345 L
3186 1380 L
3201 1322 L
3216 1408 L
3229 1347 L
3241 1234 L
3253 1218 L
3264 1359 L
3275 1353 L
3285 1333 L
3295 1358 L
3304 1331 L
3313 1447 L
3322 1351 L
3330 1272 L
3338 1413 L
3346 1357 L
3353 1441 L
3360 1490 L
3367 1365 L
3374 1304 L
3380 1329 L
3387 1359 L
3393 1401 L
3399 1268 L
3405 1225 L
3410 1374 L
3416 1349 L
3421 1504 L
3426 1421 L
3431 1377 L
3436 1343 L
3441 1357 L
3446 1400 L
3451 1524 L
3455 1438 L
3460 1459 L
3464 1407 L
3469 1290 L
3473 1418 L
3477 1406 L
3481 1307 L
3485 1370 L
3489 1459 L
3493 1410 L
3496 1340 L
3500 1496 L
3504 1327 L
3507 1371 L
3511 1384 L
3514 1518 L
3518 1268 L
3521 1391 L
3525 1370 L
3528 1352 L
3531 1357 L
3534 1347 L
3537 1315 L
3540 1296 L
3543 1380 L
3546 1394 L
3549 1490 L
3552 1217 L
3555 1404 L
3558 1406 L
3561 1367 L
3564 1389 L
3566 1377 L
3575 1382 L
3586 1451 L
3595 1328 L
3605 1433 L
3613 1290 L
3622 1302 L
3630 1292 L
3638 1252 L
3646 1343 L
3653 1293 L
3660 1261 L
3667 1293 L
3674 1468 L
3681 1254 L
3687 1338 L
3693 1284 L
3699 1266 L
3705 1293 L
3710 1469 L
3716 1220 L
3721 1248 L
3727 1218 L
3732 1265 L
3737 1217 L
3742 1208 L
3746 1207 L
3751 1242 L
3756 1280 L
3760 1132 L
3764 1268 L
3769 1196 L
3773 1327 L
3777 1303 L
3781 1221 L
3785 1266 L
3789 1158 L
3793 1152 L
3797 1220 L
3800 1176 L
3804 1266 L
3808 1181 L
3811 1298 L
3815 1188 L
3818 1246 L
3821 1331 L
3825 1165 L
3828 1190 L
3831 1215 L
3834 1124 L
3838 1125 L
3841 1286 L
3844 1271 L
3847 1022 L
3850 1179 L
3853 1316 L
3855 1177 L
3858 1265 L
3861 1293 L
3864 1294 L
3867 1113 L
3869 1293 L
3872 1132 L
3875 1276 L
3877 1109 L
3880 1121 L
3882 1105 L
3885 1193 L
3887 1228 L
3890 1279 L
3892 1189 L
3895 1202 L
3897 1206 L
3899 1190 L
3902 1200 L
3904 1236 L
3906 1156 L
3908 1170 L
3911 1269 L
3913 1010 L
3915 1042 L
3917 1195 L
3919 1182 L
3921 1194 L
3923 1250 L
3926 1110 L
3928 1249 L
3930 1212 L
3932 1122 L
3934 1275 L
3936 1259 L
3938 1179 L
3940 1241 L
3942 1164 L
3943 1194 L
3945 1158 L
3947 1205 L
3949 1252 L
3951 1206 L
3953 1155 L
3955 992 L
3956 1233 L
3958 1267 L
3960 1232 L
3962 1075 L
3963 1085 L
3965 1179 L
3967 1260 L
3969 1123 L
3970 1089 L
3972 1253 L
3974 1212 L
3975 1155 L
3977 1081 L
3978 1077 L
3980 1168 L
3982 1134 L
3983 1096 L
3985 1102 L
3986 1028 L
3988 1173 L
3990 1050 L
3991 1151 L
3993 1153 L
3994 1225 L
3996 1109 L
3997 1118 L
3999 1233 L
4000 1202 L
4001 1125 L
4003 1034 L
4004 1083 L
4006 1130 L
4007 1137 L
4009 1056 L
4010 1164 L
4011 1173 L
4013 1173 L
4014 1162 L
4016 1182 L
4017 974 L
4018 1107 L
4020 1031 L
4021 1130 L
4022 1178 L
4024 1014 L
4025 1287 L
4026 1125 L
4028 1213 L
4029 1171 L
4030 1008 L
4031 1037 L
4033 1041 L
4034 1167 L
4035 1043 L
4036 971 L
4038 1200 L
4039 1065 L
4040 1081 L
4041 1119 L
4042 1025 L
4044 1052 L
4045 1199 L
4046 1054 L
4047 1162 L
4048 1080 L
4050 1102 L
4051 1241 L
4052 1137 L
4053 1191 L
4054 987 L
4055 1091 L
4056 1118 L
4058 1177 L
4059 1053 L
4060 1081 L
4061 1144 L
4062 992 L
4063 1127 L
4064 1103 L
4065 1135 L
4066 1221 L
L2 C07 COSGR

%
% Main frame
%
L10
GSN 
620 1700 M
4220 1700 L
4220 5300 L
620 5300 L
closepath SGR

%
% X axis: large tics
%
L10
GSN 1074 1700 M 0  54 rL SGR
GSN 1074 5300 M 0 -54 rL SGR
helvS (0.0001) 1074 470 xlabel
GSN 1572 1700 M 0  54 rL SGR
GSN 1572 5300 M 0 -54 rL SGR
helvS (0.001) 1572 470 xlabel
GSN 2071 1700 M 0  54 rL SGR
GSN 2071 5300 M 0 -54 rL SGR
helvS (0.01) 2071 470 xlabel
GSN 2570 1700 M 0  54 rL SGR
GSN 2570 5300 M 0 -54 rL SGR
helvS (0.1) 2570 470 xlabel
GSN 3068 1700 M 0  54 rL SGR
GSN 3068 5300 M 0 -54 rL SGR
helvS (1) 3068 470 xlabel
GSN 3567 1700 M 0  54 rL SGR
GSN 3567 5300 M 0 -54 rL SGR
helvS (10) 3567 470 xlabel
GSN 4066 1700 M 0  54 rL SGR
GSN 4066 5300 M 0 -54 rL SGR
helvS (100) 4066 470 xlabel
%
% X axis: small tics
%
L5
GSN 725 1700 M 0  36 rL SGR
GSN 725 5300 M 0 -36 rL SGR
GSN 813 1700 M 0  36 rL SGR
GSN 813 5300 M 0 -36 rL SGR
GSN 875 1700 M 0  36 rL SGR
GSN 875 5300 M 0 -36 rL SGR
GSN 924 1700 M 0  36 rL SGR
GSN 924 5300 M 0 -36 rL SGR
GSN 963 1700 M 0  36 rL SGR
GSN 963 5300 M 0 -36 rL SGR
GSN 996 1700 M 0  36 rL SGR
GSN 996 5300 M 0 -36 rL SGR
GSN 1025 1700 M 0  36 rL SGR
GSN 1025 5300 M 0 -36 rL SGR
GSN 1051 1700 M 0  36 rL SGR
GSN 1051 5300 M 0 -36 rL SGR
GSN 1224 1700 M 0  36 rL SGR
GSN 1224 5300 M 0 -36 rL SGR
GSN 1312 1700 M 0  36 rL SGR
GSN 1312 5300 M 0 -36 rL SGR
GSN 1374 1700 M 0  36 rL SGR
GSN 1374 5300 M 0 -36 rL SGR
GSN 1422 1700 M 0  36 rL SGR
GSN 1422 5300 M 0 -36 rL SGR
GSN 1462 1700 M 0  36 rL SGR
GSN 1462 5300 M 0 -36 rL SGR
GSN 1495 1700 M 0  36 rL SGR
GSN 1495 5300 M 0 -36 rL SGR
GSN 1524 1700 M 0  36 rL SGR
GSN 1524 5300 M 0 -36 rL SGR
GSN 1550 1700 M 0  36 rL SGR
GSN 1550 5300 M 0 -36 rL SGR
GSN 1722 1700 M 0  36 rL SGR
GSN 1722 5300 M 0 -36 rL SGR
GSN 1810 1700 M 0  36 rL SGR
GSN 1810 5300 M 0 -36 rL SGR
GSN 1873 1700 M 0  36 rL SGR
GSN 1873 5300 M 0 -36 rL SGR
GSN 1921 1700 M 0  36 rL SGR
GSN 1921 5300 M 0 -36 rL SGR
GSN 1960 1700 M 0  36 rL SGR
GSN 1960 5300 M 0 -36 rL SGR
GSN 1994 1700 M 0  36 rL SGR
GSN 1994 5300 M 0 -36 rL SGR
GSN 2023 1700 M 0  36 rL SGR
GSN 2023 5300 M 0 -36 rL SGR
GSN 2048 1700 M 0  36 rL SGR
GSN 2048 5300 M 0 -36 rL SGR
GSN 2221 1700 M 0  36 rL SGR
GSN 2221 5300 M 0 -36 rL SGR
GSN 2309 1700 M 0  36 rL SGR
GSN 2309 5300 M 0 -36 rL SGR
GSN 2371 1700 M 0  36 rL SGR
GSN 2371 5300 M 0 -36 rL SGR
GSN 2420 1700 M 0  36 rL SGR
GSN 2420 5300 M 0 -36 rL SGR
GSN 2459 1700 M 0  36 rL SGR
GSN 2459 5300 M 0 -36 rL SGR
GSN 2492 1700 M 0  36 rL SGR
GSN 2492 5300 M 0 -36 rL SGR
GSN 2521 1700 M 0  36 rL SGR
GSN 2521 5300 M 0 -36 rL SGR
GSN 2547 1700 M 0  36 rL SGR
GSN 2547 5300 M 0 -36 rL SGR
GSN 2720 1700 M 0  36 rL SGR
GSN 2720 5300 M 0 -36 rL SGR
GSN 2808 1700 M 0  36 rL SGR
GSN 2808 5300 M 0 -36 rL SGR
GSN 2870 1700 M 0  36 rL SGR
GSN 2870 5300 M 0 -36 rL SGR
GSN 2918 1700 M 0  36 rL SGR
GSN 2918 5300 M 0 -36 rL SGR
GSN 2958 1700 M 0  36 rL SGR
GSN 2958 5300 M 0 -36 rL SGR
GSN 2991 1700 M 0  36 rL SGR
GSN 2991 5300 M 0 -36 rL SGR
GSN 3020 1700 M 0  36 rL SGR
GSN 3020 5300 M 0 -36 rL SGR
GSN 3045 1700 M 0  36 rL SGR
GSN 3045 5300 M 0 -36 rL SGR
GSN 3218 1700 M 0  36 rL SGR
GSN 3218 5300 M 0 -36 rL SGR
GSN 3306 1700 M 0  36 rL SGR
GSN 3306 5300 M 0 -36 rL SGR
GSN 3368 1700 M 0  36 rL SGR
GSN 3368 5300 M 0 -36 rL SGR
GSN 3417 1700 M 0  36 rL SGR
GSN 3417 5300 M 0 -36 rL SGR
GSN 3456 1700 M 0  36 rL SGR
GSN 3456 5300 M 0 -36 rL SGR
GSN 3490 1700 M 0  36 rL SGR
GSN 3490 5300 M 0 -36 rL SGR
GSN 3519 1700 M 0  36 rL SGR
GSN 3519 5300 M 0 -36 rL SGR
GSN 3544 1700 M 0  36 rL SGR
GSN 3544 5300 M 0 -36 rL SGR
GSN 3717 1700 M 0  36 rL SGR
GSN 3717 5300 M 0 -36 rL SGR
GSN 3805 1700 M 0  36 rL SGR
GSN 3805 5300 M 0 -36 rL SGR
GSN 3867 1700 M 0  36 rL SGR
GSN 3867 5300 M 0 -36 rL SGR
GSN 3915 1700 M 0  36 rL SGR
GSN 3915 5300 M 0 -36 rL SGR
GSN 3955 1700 M 0  36 rL SGR
GSN 3955 5300 M 0 -36 rL SGR
GSN 3988 1700 M 0  36 rL SGR
GSN 3988 5300 M 0 -36 rL SGR
GSN 4017 1700 M 0  36 rL SGR
GSN 4017 5300 M 0 -36 rL SGR
GSN 4043 1700 M 0  36 rL SGR
GSN 4043 5300 M 0 -36 rL SGR
GSN 4216 1700 M 0  36 rL SGR
GSN 4216 5300 M 0 -36 rL SGR
%
% Y axis: large tics
%
L10
GSN 620 1921 M 54 0 rL SGR
GSN 4220 1921 M -54 0 rL SGR
helvS (0.88) 560 1921 ylabel
GSN 620 2717 M 54 0 rL SGR
GSN 4220 2717 M -54 0 rL SGR
helvS (0.9) 560 2717 ylabel
GSN 620 3513 M 54 0 rL SGR
GSN 4220 3513 M -54 0 rL SGR
helvS (0.92) 560 3513 ylabel
GSN 620 4308 M 54 0 rL SGR
GSN 4220 4308 M -54 0 rL SGR
helvS (0.94) 560 4308 ylabel
GSN 620 5104 M 54 0 rL SGR
GSN 4220 5104 M -54 0 rL SGR
helvS (0.96) 560 5104 ylabel
%
% Y axis: small tics
%
L5
GSN 620 1723 M 36 0 rL SGR
GSN 4220 1723 M -36 0 rL SGR
GSN 620 1921 M 36 0 rL SGR
GSN 4220 1921 M -36 0 rL SGR
GSN 620 2120 M 36 0 rL SGR
GSN 4220 2120 M -36 0 rL SGR
GSN 620 2319 M 36 0 rL SGR
GSN 4220 2319 M -36 0 rL SGR
GSN 620 2518 M 36 0 rL SGR
GSN 4220 2518 M -36 0 rL SGR
GSN 620 2717 M 36 0 rL SGR
GSN 4220 2717 M -36 0 rL SGR
GSN 620 2916 M 36 0 rL SGR
GSN 4220 2916 M -36 0 rL SGR
GSN 620 3115 M 36 0 rL SGR
GSN 4220 3115 M -36 0 rL SGR
GSN 620 3314 M 36 0 rL SGR
GSN 4220 3314 M -36 0 rL SGR
GSN 620 3513 M 36 0 rL SGR
GSN 4220 3513 M -36 0 rL SGR
GSN 620 3712 M 36 0 rL SGR
GSN 4220 3712 M -36 0 rL SGR
GSN 620 3910 M 36 0 rL SGR
GSN 4220 3910 M -36 0 rL SGR
GSN 620 4109 M 36 0 rL SGR
GSN 4220 4109 M -36 0 rL SGR
GSN 620 4308 M 36 0 rL SGR
GSN 4220 4308 M -36 0 rL SGR
GSN 620 4507 M 36 0 rL SGR
GSN 4220 4507 M -36 0 rL SGR
GSN 620 4706 M 36 0 rL SGR
GSN 4220 4706 M -36 0 rL SGR
GSN 620 4905 M 36 0 rL SGR
GSN 4220 4905 M -36 0 rL SGR
GSN 620 5104 M 36 0 rL SGR
GSN 4220 5104 M -36 0 rL SGR

%
% X-Axis label:
%
gsave 2420 290 M 
[
[(Helvetica) 180 0 true true 0 (t)]
[(Helvetica) 180 0 true true 0 (i)]
[(Helvetica) 180 0 true true 0 (m)]
[(Helvetica) 180 0 true true 0 (e)]
] 0 MCshow grestore

%
% Y-Axis label:
%
gsave 234 3500 M 
currentpoint gsave translate 90 rotate 0 0 moveto
[
[(Helvetica) 180 0 true true 0 (s)]
[(Helvetica) 180 0 true true 0 (i)]
[(Helvetica) 180 0 true true 0 (g)]
[(Helvetica) 180 0 true true 0 (n)]
[(Helvetica) 180 0 true true 0 (a)]
[(Helvetica) 180 0 true true 0 (l)]
] 0 MCshow grestore

%
% Residuals:
%
gsave 129 1160 M 
currentpoint gsave translate 90 rotate 0 0 moveto
[
[(Helvetica) 150 0 true true 0 (r)]
[(Helvetica) 150 0 true true 0 (e)]
[(Helvetica) 150 0 true true 0 (s)]
[(Helvetica) 150 0 true true 0 (i)]
[(Helvetica) 150 0 true true 0 (d)]
[(Helvetica) 150 0 true true 0 (u)]
[(Helvetica) 150 0 true true 0 (a)]
[(Helvetica) 150 0 true true 0 (l)]
[(Helvetica) 150 0 true true 0 (s)]
] 0 MCshow grestore

%
% Residual frame
%
L10
GSN 
620 620 M
4220 620 L
4220 1700 L
620 1700 L
closepath SGR
%
% X axis: large tics - residual frame
%
L10
GSN 1074 620 M 0  54 rL SGR
GSN 1074 1700 M 0 -54 rL SGR
GSN 1572 620 M 0  54 rL SGR
GSN 1572 1700 M 0 -54 rL SGR
GSN 2071 620 M 0  54 rL SGR
GSN 2071 1700 M 0 -54 rL SGR
GSN 2570 620 M 0  54 rL SGR
GSN 2570 1700 M 0 -54 rL SGR
GSN 3068 620 M 0  54 rL SGR
GSN 3068 1700 M 0 -54 rL SGR
GSN 3567 620 M 0  54 rL SGR
GSN 3567 1700 M 0 -54 rL SGR
GSN 4066 620 M 0  54 rL SGR
GSN 4066 1700 M 0 -54 rL SGR
%
% X axis: small tics - residual frame
%
L5
GSN 725 620 M 0  36 rL SGR
GSN 725 1700 M 0 -36 rL SGR
GSN 813 620 M 0  36 rL SGR
GSN 813 1700 M 0 -36 rL SGR
GSN 875 620 M 0  36 rL SGR
GSN 875 1700 M 0 -36 rL SGR
GSN 924 620 M 0  36 rL SGR
GSN 924 1700 M 0 -36 rL SGR
GSN 963 620 M 0  36 rL SGR
GSN 963 1700 M 0 -36 rL SGR
GSN 996 620 M 0  36 rL SGR
GSN 996 1700 M 0 -36 rL SGR
GSN 1025 620 M 0  36 rL SGR
GSN 1025 1700 M 0 -36 rL SGR
GSN 1051 620 M 0  36 rL SGR
GSN 1051 1700 M 0 -36 rL SGR
GSN 1224 620 M 0  36 rL SGR
GSN 1224 1700 M 0 -36 rL SGR
GSN 1312 620 M 0  36 rL SGR
GSN 1312 1700 M 0 -36 rL SGR
GSN 1374 620 M 0  36 rL SGR
GSN 1374 1700 M 0 -36 rL SGR
GSN 1422 620 M 0  36 rL SGR
GSN 1422 1700 M 0 -36 rL SGR
GSN 1462 620 M 0  36 rL SGR
GSN 1462 1700 M 0 -36 rL SGR
GSN 1495 620 M 0  36 rL SGR
GSN 1495 1700 M 0 -36 rL SGR
GSN 1524 620 M 0  36 rL SGR
GSN 1524 1700 M 0 -36 rL SGR
GSN 1550 620 M 0  36 rL SGR
GSN 1550 1700 M 0 -36 rL SGR
GSN 1722 620 M 0  36 rL SGR
GSN 1722 1700 M 0 -36 rL SGR
GSN 1810 620 M 0  36 rL SGR
GSN 1810 1700 M 0 -36 rL SGR
GSN 1873 620 M 0  36 rL SGR
GSN 1873 1700 M 0 -36 rL SGR
GSN 1921 620 M 0  36 rL SGR
GSN 1921 1700 M 0 -36 rL SGR
GSN 1960 620 M 0  36 rL SGR
GSN 1960 1700 M 0 -36 rL SGR
GSN 1994 620 M 0  36 rL SGR
GSN 1994 1700 M 0 -36 rL SGR
GSN 2023 620 M 0  36 rL SGR
GSN 2023 1700 M 0 -36 rL SGR
GSN 2048 620 M 0  36 rL SGR
GSN 2048 1700 M 0 -36 rL SGR
GSN 2221 620 M 0  36 rL SGR
GSN 2221 1700 M 0 -36 rL SGR
GSN 2309 620 M 0  36 rL SGR
GSN 2309 1700 M 0 -36 rL SGR
GSN 2371 620 M 0  36 rL SGR
GSN 2371 1700 M 0 -36 rL SGR
GSN 2420 620 M 0  36 rL SGR
GSN 2420 1700 M 0 -36 rL SGR
GSN 2459 620 M 0  36 rL SGR
GSN 2459 1700 M 0 -36 rL SGR
GSN 2492 620 M 0  36 rL SGR
GSN 2492 1700 M 0 -36 rL SGR
GSN 2521 620 M 0  36 rL SGR
GSN 2521 1700 M 0 -36 rL SGR
GSN 2547 620 M 0  36 rL SGR
GSN 2547 1700 M 0 -36 rL SGR
GSN 2720 620 M 0  36 rL SGR
GSN 2720 1700 M 0 -36 rL SGR
GSN 2808 620 M 0  36 rL SGR
GSN 2808 1700 M 0 -36 rL SGR
GSN 2870 620 M 0  36 rL SGR
GSN 2870 1700 M 0 -36 rL SGR
GSN 2918 620 M 0  36 rL SGR
GSN 2918 1700 M 0 -36 rL SGR
GSN 2958 620 M 0  36 rL SGR
GSN 2958 1700 M 0 -36 rL SGR
GSN 2991 620 M 0  36 rL SGR
GSN 2991 1700 M 0 -36 rL SGR
GSN 3020 620 M 0  36 rL SGR
GSN 3020 1700 M 0 -36 rL SGR
GSN 3045 620 M 0  36 rL SGR
GSN 3045 1700 M 0 -36 rL SGR
GSN 3218 620 M 0  36 rL SGR
GSN 3218 1700 M 0 -36 rL SGR
GSN 3306 620 M 0  36 rL SGR
GSN 3306 1700 M 0 -36 rL SGR
GSN 3368 620 M 0  36 rL SGR
GSN 3368 1700 M 0 -36 rL SGR
GSN 3417 620 M 0  36 rL SGR
GSN 3417 1700 M 0 -36 rL SGR
GSN 3456 620 M 0  36 rL SGR
GSN 3456 1700 M 0 -36 rL SGR
GSN 3490 620 M 0  36 rL SGR
GSN 3490 1700 M 0 -36 rL SGR
GSN 3519 620 M 0  36 rL SGR
GSN 3519 1700 M 0 -36 rL SGR
GSN 3544 620 M 0  36 rL SGR
GSN 3544 1700 M 0 -36 rL SGR
GSN 3717 620 M 0  36 rL SGR
GSN 3717 1700 M 0 -36 rL SGR
GSN 3805 620 M 0  36 rL SGR
GSN 3805 1700 M 0 -36 rL SGR
GSN 3867 620 M 0  36 rL SGR
GSN 3867 1700 M 0 -36 rL SGR
GSN 3915 620 M 0  36 rL SGR
GSN 3915 1700 M 0 -36 rL SGR
GSN 3955 620 M 0  36 rL SGR
GSN 3955 1700 M 0 -36 rL SGR
GSN 3988 620 M 0  36 rL SGR
GSN 3988 1700 M 0 -36 rL SGR
GSN 4017 620 M 0  36 rL SGR
GSN 4017 1700 M 0 -36 rL SGR
GSN 4043 620 M 0  36 rL SGR
GSN 4043 1700 M 0 -36 rL SGR
GSN 4216 620 M 0  36 rL SGR
GSN 4216 1700 M 0 -36 rL SGR
%
% Y axis: large tics - residual frame
%
L10
GSN 620 643 M 54 0 rL SGR
GSN 4220 643 M -54 0 rL SGR
helvS (-0.02) 560 643 ylabelresid
GSN 620 909 M 54 0 rL SGR
GSN 4220 909 M -54 0 rL SGR
helvS (-0.01) 560 909 ylabelresid
GSN 620 1175 M 54 0 rL SGR
GSN 4220 1175 M -54 0 rL SGR
helvS (0) 560 1175 ylabelresid
GSN 620 1441 M 54 0 rL SGR
GSN 4220 1441 M -54 0 rL SGR
helvS (0.01) 560 1441 ylabelresid

%
% X axis - residual panel
%
GSN L5 620 1175 M 4220 1175 L SDA G50 SGR

end
showpage
%%Trailer
%%EOF
