%!PS-Adobe-3.0 EPSF-3.0
%%BoundingBox: 0 0 514 550
%%Creator: BioKin Ltd.
%%DocumentFonts: Symbol Helvetica
%%EndComments
%
/bkdict 256 dict def
bkdict begin
/M {moveto} def 
/R {rmoveto} def
/L {lineto} def
/rL {rlineto} def
/GSN {gsave newpath} def
/SGR {stroke grestore} def
/COSGR {gsave setrgbcolor stroke grestore grestore} def
/SL {setlinewidth} def
/LWMB {12} def             % line width - model curves, black & white
/LWMC {10} def             % line width - model curves, color
/L2 {2.5 setlinewidth} def
/L5 {5 setlinewidth} def
/L10 {10 setlinewidth} def
/G50 {0.5 setgray} def
/SDA {[10  20] 0 setdash} def % axes
/helvT {/Helvetica findfont 100 scalefont setfont} def % tiny
/helvS {/Helvetica findfont 125 scalefont setfont} def % small
/helvM {/Helvetica findfont 150 scalefont setfont} def % medium
/helvL {/Helvetica findfont 175 scalefont setfont} def % large
/xlabel {gsave M dup
   stringwidth exch -0.5 mul exch rmoveto show grestore} def 
/ylabel {gsave M 90 rotate dup
   stringwidth exch -0.5 mul exch rmoveto show grestore} def
/ylabelresid {gsave M dup
   stringwidth exch -1 mul exch rmoveto show grestore} def
% ======
% Shapes
% ======
% Circle:
/Circ {0 360 arc closepath} def
%
% Square:
/Squa {dup dup -0.5 mul dup dup R -2 mul 0 exch rL 1 mul 0 rL dup 0 exch -1 mul rL closepath} def
%
% Triangle Up:
/TriU {dup dup dup -0.4 mul exch -0.5 mul exch R dup 0.5 mul exch rL dup -1 mul exch 0.5 mul exch rL closepath} def 
%
% Triangle Down:
/TriD {dup dup dup 0.4 mul exch -0.5 mul exch R dup 0.5 mul exch -1 mul rL dup 0.5 mul exch rL closepath} def 
%
% Diamond:
/Diam {45 rotate Squa} def
% ======
% Fills
% ======
/GRF {gsave setgray fill grestore} def                    % gray-level Fill
/COF {gsave setrgbcolor fill grestore} def                % color fill
% ======
% Colors
% ======
/C01 {1.00	0.00	0.00} def      % Red
/C02 {0.00	0.00	1.00} def      % Blue
/C03 {0.00	0.39	0.00} def      % Dark Green
/C04 {0.78	0.08	0.52} def      % Medium Violet Red
/C05 {0.55	0.27	0.07} def      % Saddle Brown
/C06 {0.10	0.70	0.70} def      % (cyan)
/C07 {1.00	0.55	0.00} def      % Dark Orange
/C08 {0.63	0.13	0.94} def      % Purple
/C09 {0.00	0.75	1.00} def      % Deep Sky Blue
/C10 {0.20	0.80	0.20} def      % Lime Green
/C11 {0.47	0.53	0.60} def      % Light Slate Gray
/C12 {0.00	0.00	0.00} def      % Black            % or: {0.19	0.31	0.31} def      % Dark Slate Gray
%
/LGR {0.75} def % light gray
/DGR {0.33} def % dark gray
%
% =============
% Dash patterns
% =============
/dash01 { [80  20] 0 setdash } def
/dash02 { [40  20] 0 setdash } def
/dash03 { [80  20  10  20] 0 setdash } def
/dash04 { [40  20  10  20] 0 setdash } def
/dash05 { [80  20  10  10  10  20] 0 setdash } def
/dash06 { [40  20  10  10  10  20] 0 setdash } def
/dash07 { [10  10] 0 setdash } def
%
/MFshow {
   { dup 5 get 3 ge
     { 5 get 3 eq {gsave} {grestore} ifelse }
     {dup dup 0 get findfont exch 1 get scalefont setfont
     [ currentpoint ] exch dup 2 get 0 exch R dup 5 get 2 ne {dup dup 6
     get exch 4 get {show} {stringwidth pop 0 R} ifelse }if dup 5 get 0 eq
     {dup 3 get {2 get neg 0 exch R pop} {pop aload pop M} ifelse} {dup 5
     get 1 eq {dup 2 get exch dup 3 get exch 6 get stringwidth pop -2 div
     dup 0 R} {dup 6 get stringwidth pop -2 div 0 R 6 get
     show 2 index {aload pop M neg 3 -1 roll neg R pop pop} {pop pop pop
     pop aload pop M} ifelse }ifelse }ifelse }
     ifelse }
   forall} bind def
/MFwidth {0 exch {dup 3 get{dup dup 0 get findfont exch 1 get scalefont
     setfont 6 get stringwidth pop add} {pop} ifelse} forall} bind def
/MCshow { currentpoint stroke M
  exch dup MFwidth -2 div 3 -1 roll R MFshow } def
%
end
%%EndProlog
bkdict begin
0.1 0.1 scale
%
% Residuals:
%
GSN 620 2549 M
620 2136 L
620 3055 L
620 2719 L
620 3371 L
620 3010 L
620 3206 L
620 3246 L
620 3027 L
620 2851 L
620 3224 L
620 3119 L
620 3586 L
620 3141 L
620 3334 L
620 3320 L
620 3386 L
620 3282 L
620 3191 L
620 3255 L
620 3000 L
620 3117 L
620 3496 L
620 3250 L
620 3117 L
620 3651 L
620 3408 L
620 3486 L
620 3392 L
620 3589 L
620 3460 L
620 3089 L
620 3591 L
620 3117 L
620 3750 L
620 3768 L
620 3161 L
620 3805 L
620 2913 L
620 3884 L
620 3529 L
620 3778 L
620 3316 L
620 3769 L
620 3718 L
620 3421 L
620 3394 L
620 3494 L
620 3770 L
620 3601 L
620 3541 L
620 3803 L
620 3515 L
620 3500 L
620 3546 L
620 3604 L
620 3423 L
620 3791 L
620 3668 L
620 3377 L
620 3355 L
620 3955 L
620 3243 L
620 3848 L
620 3294 L
620 3728 L
620 3086 L
620 3475 L
620 3053 L
620 3498 L
620 3554 L
620 3299 L
620 3267 L
620 3664 L
620 3039 L
620 3013 L
620 3691 L
620 3090 L
620 3106 L
620 3358 L
620 3763 L
620 3027 L
620 3026 L
620 3345 L
620 3347 L
620 3287 L
620 3477 L
620 3375 L
620 3026 L
620 2936 L
620 2813 L
620 3045 L
620 3142 L
620 3232 L
620 2624 L
620 2822 L
620 3296 L
620 3125 L
620 2615 L
620 3427 L
620 3291 L
620 3107 L
620 3146 L
620 3016 L
620 3113 L
620 2801 L
620 2452 L
620 2789 L
620 2655 L
620 3084 L
620 3077 L
620 3140 L
620 3008 L
620 2704 L
620 2698 L
620 3136 L
620 2505 L
620 2957 L
620 2297 L
620 3078 L
620 2532 L
620 2588 L
620 2741 L
620 3203 L
620 2817 L
620 3329 L
620 3250 L
620 2413 L
620 2899 L
620 2459 L
620 2972 L
620 2814 L
620 2616 L
620 2144 L
620 3045 L
620 2594 L
620 2718 L
620 3056 L
620 3232 L
620 2805 L
620 2826 L
620 2464 L
620 2540 L
620 2492 L
620 2813 L
620 2895 L
620 3088 L
620 2747 L
620 3139 L
620 2885 L
620 2795 L
620 2799 L
620 2665 L
620 2488 L
620 2680 L
620 2749 L
620 2664 L
620 2586 L
620 2837 L
620 2781 L
620 2889 L
620 3155 L
620 3244 L
620 3305 L
620 2862 L
620 3193 L
620 3577 L
620 2964 L
620 3056 L
620 2927 L
620 3428 L
620 2833 L
620 2912 L
620 3212 L
620 3244 L
620 3114 L
620 2805 L
620 3268 L
620 3316 L
620 3059 L
620 2917 L
620 3290 L
620 3254 L
620 3180 L
620 2755 L
620 3302 L
620 3035 L
620 3166 L
620 2896 L
620 3850 L
620 3459 L
620 2887 L
620 3710 L
620 2934 L
620 3341 L
620 3676 L
620 3363 L
620 3474 L
620 3524 L
620 3679 L
620 3495 L
620 3697 L
620 2790 L
620 3063 L
620 3448 L
620 3276 L
620 3307 L
620 3210 L
620 3393 L
620 3234 L
620 3330 L
620 3394 L
620 3698 L
620 3561 L
620 3445 L
620 3640 L
620 3266 L
620 3412 L
620 3193 L
620 3358 L
620 3325 L
620 3747 L
620 3503 L
620 3360 L
620 3371 L
620 3684 L
620 4059 L
620 3467 L
620 3730 L
620 3130 L
620 3430 L
620 3485 L
620 3521 L
620 3420 L
620 3708 L
620 3818 L
620 3575 L
620 3909 L
620 3370 L
620 2965 L
620 3771 L
620 3270 L
620 3936 L
620 3982 L
620 3663 L
620 2913 L
620 3629 L
620 4019 L
620 3710 L
620 3367 L
620 3766 L
620 3858 L
620 4064 L
620 3609 L
620 3626 L
620 3773 L
620 3884 L
620 3721 L
620 3797 L
620 3733 L
620 3784 L
620 3487 L
620 3647 L
620 3947 L
620 3749 L
620 3573 L
620 3755 L
620 3672 L
620 3636 L
620 3551 L
620 3148 L
620 3413 L
620 3790 L
620 4018 L
620 3753 L
620 3837 L
620 4007 L
620 3598 L
620 3925 L
620 3768 L
620 3605 L
620 4066 L
620 3966 L
620 4649 L
620 4191 L
620 3962 L
620 3946 L
620 3776 L
620 4247 L
620 3991 L
620 4402 L
620 4125 L
620 4542 L
620 4512 L
620 4441 L
620 4753 L
620 4482 L
620 4380 L
620 4476 L
620 4718 L
620 4641 L
620 4269 L
620 4709 L
620 4378 L
620 4341 L
620 4769 L
620 3961 L
620 4558 L
620 4335 L
620 4584 L
620 4717 L
620 4070 L
620 4150 L
620 4647 L
620 4759 L
620 4618 L
620 4216 L
620 3802 L
620 4544 L
620 4096 L
620 4010 L
620 4370 L
620 4681 L
620 3993 L
620 4200 L
620 4436 L
620 4225 L
620 4495 L
620 4519 L
620 4863 L
620 4569 L
620 4797 L
620 4126 L
620 4569 L
620 4383 L
620 4780 L
620 4105 L
620 3894 L
620 3824 L
620 4652 L
620 4238 L
620 4723 L
620 4362 L
620 4358 L
620 4408 L
620 4445 L
620 4424 L
620 4047 L
620 4188 L
620 4441 L
620 4453 L
620 4151 L
620 3931 L
620 4172 L
620 4201 L
620 4002 L
620 4006 L
620 4031 L
620 4101 L
620 4424 L
620 4441 L
620 4051 L
620 4271 L
620 3745 L
620 4006 L
620 3965 L
620 4279 L
620 4474 L
620 3716 L
620 4267 L
620 3782 L
620 3782 L
620 3857 L
620 3965 L
620 3849 L
620 3820 L
620 4060 L
620 3911 L
620 4213 L
620 3782 L
620 3787 L
620 4288 L
620 3658 L
620 4246 L
620 3874 L
620 4151 L
620 3985 L
620 4188 L
620 3737 L
620 3993 L
620 3828 L
620 3753 L
620 3898 L
620 3948 L
620 4205 L
620 3310 L
620 4242 L
620 3795 L
620 3704 L
620 4147 L
620 3638 L
620 3820 L
620 3753 L
620 3733 L
620 3737 L
620 3571 L
620 4201 L
620 3550 L
620 3654 L
620 3720 L
620 3530 L
620 3455 L
620 3807 L
620 4064 L
620 3803 L
620 3890 L
620 3994 L
620 4333 L
620 3923 L
620 4126 L
620 4395 L
620 4110 L
620 3737 L
620 3824 L
620 4284 L
620 3849 L
620 3832 L
620 3277 L
620 4226 L
620 3451 L
620 3757 L
620 3944 L
620 3795 L
620 3555 L
620 3749 L
620 4068 L
620 3994 L
620 4168 L
620 4354 L
620 3728 L
620 4470 L
620 3816 L
620 3890 L
620 3579 L
620 3894 L
620 3625 L
620 4035 L
620 3675 L
620 3936 L
620 3745 L
620 3882 L
620 3927 L
620 3621 L
620 4126 L
620 3534 L
620 4068 L
620 3907 L
620 4105 L
620 3724 L
620 3418 L
620 3555 L
620 3526 L
620 3787 L
620 3952 L
620 3787 L
620 3650 L
620 4238 L
620 3559 L
620 4296 L
620 4184 L
620 3141 L
620 3530 L
620 3737 L
620 4263 L
620 3584 L
620 3994 L
620 3956 L
620 3492 L
620 3269 L
620 3671 L
620 3799 L
620 3923 L
620 3956 L
620 3728 L
620 3778 L
620 4043 L
620 3554 L
620 3554 L
620 3998 L
620 3936 L
620 3757 L
620 3554 L
620 3741 L
620 4155 L
620 3434 L
620 3219 L
620 3310 L
620 3956 L
620 3791 L
620 3542 L
620 4176 L
620 3923 L
620 3592 L
620 3455 L
620 3530 L
620 3650 L
620 3724 L
620 3567 L
620 3401 L
620 4031 L
620 3563 L
620 3691 L
620 4221 L
620 3650 L
620 3232 L
620 3861 L
620 3343 L
620 4015 L
620 3899 L
620 3757 L
620 3517 L
620 4130 L
620 3434 L
620 3824 L
620 3662 L
620 4143 L
620 3832 L
620 3687 L
620 3820 L
620 3882 L
620 4081 L
620 3749 L
620 3836 L
L2 C02 COSGR

%
%================
% Legend - Begin
%================
%
GSN 4240 5180 M
4480 5180 L
LWMC SL  C02 COSGR
GSN 4540 5141 M helvM (1.0 uM) show grestore
%
%================
% Legend - End
%================
%

%
% Main frame
%
L10
GSN 
620 1700 M
4220 1700 L
4220 5300 L
620 5300 L
closepath SGR

%
% X axis: large tics
%
L10
%
% X axis: small tics
%
L5
%
% Y axis: large tics
%
L10
GSN 620 1984 M 54 0 rL SGR
GSN 4220 1984 M -54 0 rL SGR
helvS (-0.02) 560 1984 ylabel
GSN 620 2798 M 54 0 rL SGR
GSN 4220 2798 M -54 0 rL SGR
helvS (-0.01) 560 2798 ylabel
GSN 620 3613 M 54 0 rL SGR
GSN 4220 3613 M -54 0 rL SGR
helvS (0) 560 3613 ylabel
GSN 620 4427 M 54 0 rL SGR
GSN 4220 4427 M -54 0 rL SGR
helvS (0.01) 560 4427 ylabel
GSN 620 5241 M 54 0 rL SGR
GSN 4220 5241 M -54 0 rL SGR
helvS (0.02) 560 5241 ylabel
%
% Y axis: small tics
%
L5
GSN 620 1781 M 36 0 rL SGR
GSN 4220 1781 M -36 0 rL SGR
GSN 620 1984 M 36 0 rL SGR
GSN 4220 1984 M -36 0 rL SGR
GSN 620 2188 M 36 0 rL SGR
GSN 4220 2188 M -36 0 rL SGR
GSN 620 2391 M 36 0 rL SGR
GSN 4220 2391 M -36 0 rL SGR
GSN 620 2595 M 36 0 rL SGR
GSN 4220 2595 M -36 0 rL SGR
GSN 620 2798 M 36 0 rL SGR
GSN 4220 2798 M -36 0 rL SGR
GSN 620 3002 M 36 0 rL SGR
GSN 4220 3002 M -36 0 rL SGR
GSN 620 3206 M 36 0 rL SGR
GSN 4220 3206 M -36 0 rL SGR
GSN 620 3409 M 36 0 rL SGR
GSN 4220 3409 M -36 0 rL SGR
GSN 620 3613 M 36 0 rL SGR
GSN 4220 3613 M -36 0 rL SGR
GSN 620 3816 M 36 0 rL SGR
GSN 4220 3816 M -36 0 rL SGR
GSN 620 4020 M 36 0 rL SGR
GSN 4220 4020 M -36 0 rL SGR
GSN 620 4223 M 36 0 rL SGR
GSN 4220 4223 M -36 0 rL SGR
GSN 620 4427 M 36 0 rL SGR
GSN 4220 4427 M -36 0 rL SGR
GSN 620 4631 M 36 0 rL SGR
GSN 4220 4631 M -36 0 rL SGR
GSN 620 4834 M 36 0 rL SGR
GSN 4220 4834 M -36 0 rL SGR
GSN 620 5038 M 36 0 rL SGR
GSN 4220 5038 M -36 0 rL SGR
GSN 620 5241 M 36 0 rL SGR
GSN 4220 5241 M -36 0 rL SGR

%
% X axis - residual panel
%
GSN L5 620 3613 M 4220 3613 L SDA G50 SGR

%
% X-Axis label:
%
gsave 620 1370 M 
[
[(Helvetica) 180 0 true true 0 (t)]
[(Helvetica) 180 0 true true 0 (i)]
[(Helvetica) 180 0 true true 0 (m)]
[(Helvetica) 180 0 true true 0 (e)]
] 0 MCshow grestore

%
% Y-Axis label:
%
gsave 234 3500 M 
currentpoint gsave translate 90 rotate 0 0 moveto
[
[(Helvetica) 180 0 true true 0 (r)]
[(Helvetica) 180 0 true true 0 (e)]
[(Helvetica) 180 0 true true 0 (s)]
[(Helvetica) 180 0 true true 0 (i)]
[(Helvetica) 180 0 true true 0 (d)]
[(Helvetica) 180 0 true true 0 (u)]
[(Helvetica) 180 0 true true 0 (a)]
[(Helvetica) 180 0 true true 0 (l)]
[(Helvetica) 180 0 true true 0 (s)]
] 0 MCshow grestore

end
showpage
%%Trailer
%%EOF
