%!PS-Adobe-3.0 EPSF-3.0
%%BoundingBox: 0 0 514 550
%%Creator: BioKin Ltd.
%%DocumentFonts: Symbol Helvetica
%%EndComments
%
/bkdict 256 dict def
bkdict begin
/M {moveto} def 
/R {rmoveto} def
/L {lineto} def
/rL {rlineto} def
/GSN {gsave newpath} def
/SGR {stroke grestore} def
/COSGR {gsave setrgbcolor stroke grestore grestore} def
/SL {setlinewidth} def
/LWMB {12} def             % line width - model curves, black & white
/LWMC {10} def             % line width - model curves, color
/L2 {2.5 setlinewidth} def
/L5 {5 setlinewidth} def
/L10 {10 setlinewidth} def
/G50 {0.5 setgray} def
/SDA {[10  20] 0 setdash} def % axes
/helvT {/Helvetica findfont 100 scalefont setfont} def % tiny
/helvS {/Helvetica findfont 125 scalefont setfont} def % small
/helvM {/Helvetica findfont 150 scalefont setfont} def % medium
/helvL {/Helvetica findfont 175 scalefont setfont} def % large
/xlabel {gsave M dup
   stringwidth exch -0.5 mul exch rmoveto show grestore} def 
/ylabel {gsave M 90 rotate dup
   stringwidth exch -0.5 mul exch rmoveto show grestore} def
/ylabelresid {gsave M dup
   stringwidth exch -1 mul exch rmoveto show grestore} def
% ======
% Shapes
% ======
% Circle:
/Circ {0 360 arc closepath} def
%
% Square:
/Squa {dup dup -0.5 mul dup dup R -2 mul 0 exch rL 1 mul 0 rL dup 0 exch -1 mul rL closepath} def
%
% Triangle Up:
/TriU {dup dup dup -0.4 mul exch -0.5 mul exch R dup 0.5 mul exch rL dup -1 mul exch 0.5 mul exch rL closepath} def 
%
% Triangle Down:
/TriD {dup dup dup 0.4 mul exch -0.5 mul exch R dup 0.5 mul exch -1 mul rL dup 0.5 mul exch rL closepath} def 
%
% Diamond:
/Diam {45 rotate Squa} def
% ======
% Fills
% ======
/GRF {gsave setgray fill grestore} def                    % gray-level Fill
/COF {gsave setrgbcolor fill grestore} def                % color fill
% ======
% Colors
% ======
/C01 {1.00	0.00	0.00} def      % Red
/C02 {0.00	0.00	1.00} def      % Blue
/C03 {0.00	0.39	0.00} def      % Dark Green
/C04 {0.78	0.08	0.52} def      % Medium Violet Red
/C05 {0.55	0.27	0.07} def      % Saddle Brown
/C06 {0.10	0.70	0.70} def      % (cyan)
/C07 {1.00	0.55	0.00} def      % Dark Orange
/C08 {0.63	0.13	0.94} def      % Purple
/C09 {0.00	0.75	1.00} def      % Deep Sky Blue
/C10 {0.20	0.80	0.20} def      % Lime Green
/C11 {0.47	0.53	0.60} def      % Light Slate Gray
/C12 {0.00	0.00	0.00} def      % Black            % or: {0.19	0.31	0.31} def      % Dark Slate Gray
%
/LGR {0.75} def % light gray
/DGR {0.33} def % dark gray
%
% =============
% Dash patterns
% =============
/dash01 { [80  20] 0 setdash } def
/dash02 { [40  20] 0 setdash } def
/dash03 { [80  20  10  20] 0 setdash } def
/dash04 { [40  20  10  20] 0 setdash } def
/dash05 { [80  20  10  10  10  20] 0 setdash } def
/dash06 { [40  20  10  10  10  20] 0 setdash } def
/dash07 { [10  10] 0 setdash } def
%
/MFshow {
   { dup 5 get 3 ge
     { 5 get 3 eq {gsave} {grestore} ifelse }
     {dup dup 0 get findfont exch 1 get scalefont setfont
     [ currentpoint ] exch dup 2 get 0 exch R dup 5 get 2 ne {dup dup 6
     get exch 4 get {show} {stringwidth pop 0 R} ifelse }if dup 5 get 0 eq
     {dup 3 get {2 get neg 0 exch R pop} {pop aload pop M} ifelse} {dup 5
     get 1 eq {dup 2 get exch dup 3 get exch 6 get stringwidth pop -2 div
     dup 0 R} {dup 6 get stringwidth pop -2 div 0 R 6 get
     show 2 index {aload pop M neg 3 -1 roll neg R pop pop} {pop pop pop
     pop aload pop M} ifelse }ifelse }ifelse }
     ifelse }
   forall} bind def
/MFwidth {0 exch {dup 3 get{dup dup 0 get findfont exch 1 get scalefont
     setfont 6 get stringwidth pop add} {pop} ifelse} forall} bind def
/MCshow { currentpoint stroke M
  exch dup MFwidth -2 div 3 -1 roll R MFshow } def
%
end
%%EndProlog
bkdict begin
0.1 0.1 scale
%
% Residuals:
%
GSN 620 3064 M
620 2477 L
620 3516 L
620 3038 L
620 3766 L
620 3272 L
620 3459 L
620 3463 L
620 3156 L
620 2908 L
620 3328 L
620 3173 L
620 3715 L
620 3155 L
620 3371 L
620 3339 L
620 3406 L
620 3269 L
620 3151 L
620 3222 L
620 2909 L
620 3047 L
620 3506 L
620 3207 L
620 3047 L
620 3697 L
620 3404 L
620 3503 L
620 3394 L
620 3639 L
620 3488 L
620 3045 L
620 3662 L
620 3093 L
620 3870 L
620 3900 L
620 3172 L
620 3962 L
620 2888 L
620 4077 L
620 3654 L
620 3966 L
620 3415 L
620 3974 L
620 3922 L
620 3571 L
620 3548 L
620 3678 L
620 4023 L
620 3827 L
620 3764 L
620 4091 L
620 3750 L
620 3741 L
620 3806 L
620 3885 L
620 3674 L
620 4129 L
620 3988 L
620 3643 L
620 3624 L
620 4359 L
620 3503 L
620 4245 L
620 3580 L
620 4113 L
620 3341 L
620 3820 L
620 3314 L
620 3860 L
620 3934 L
620 3631 L
620 3598 L
620 4085 L
620 3332 L
620 3305 L
620 4134 L
620 3409 L
620 3433 L
620 3744 L
620 4240 L
620 3363 L
620 3375 L
620 3774 L
620 3787 L
620 3722 L
620 3958 L
620 3840 L
620 3420 L
620 3312 L
620 3164 L
620 3446 L
620 3563 L
620 3670 L
620 2930 L
620 3169 L
620 3740 L
620 3529 L
620 2906 L
620 3887 L
620 3717 L
620 3489 L
620 3531 L
620 3368 L
620 3479 L
620 3096 L
620 2666 L
620 3068 L
620 2901 L
620 3415 L
620 3400 L
620 3471 L
620 3305 L
620 2930 L
620 2917 L
620 3442 L
620 2669 L
620 3212 L
620 2405 L
620 3347 L
620 2678 L
620 2741 L
620 2920 L
620 3476 L
620 3002 L
620 3617 L
620 3516 L
620 2494 L
620 3079 L
620 2539 L
620 3157 L
620 2960 L
620 2714 L
620 2136 L
620 3224 L
620 2672 L
620 2817 L
620 3222 L
620 3431 L
620 2908 L
620 2928 L
620 2484 L
620 2572 L
620 2509 L
620 2894 L
620 2989 L
620 3219 L
620 2801 L
620 3272 L
620 2959 L
620 2846 L
620 2846 L
620 2679 L
620 2460 L
620 2689 L
620 2768 L
620 2662 L
620 2563 L
620 2864 L
620 2791 L
620 2918 L
620 3237 L
620 3342 L
620 3412 L
620 2871 L
620 3270 L
620 3732 L
620 2984 L
620 3091 L
620 2932 L
620 3537 L
620 2811 L
620 2904 L
620 3264 L
620 3299 L
620 3139 L
620 2760 L
620 3319 L
620 3374 L
620 3059 L
620 2883 L
620 3333 L
620 3286 L
620 3193 L
620 2674 L
620 3335 L
620 3009 L
620 3164 L
620 2834 L
620 3989 L
620 3511 L
620 2815 L
620 3811 L
620 2866 L
620 3357 L
620 3762 L
620 3378 L
620 3511 L
620 3569 L
620 3754 L
620 3529 L
620 3771 L
620 2667 L
620 2996 L
620 3461 L
620 3250 L
620 3285 L
620 3165 L
620 3385 L
620 3189 L
620 3303 L
620 3379 L
620 3745 L
620 3577 L
620 3434 L
620 3668 L
620 3213 L
620 3387 L
620 3120 L
620 3317 L
620 3276 L
620 3785 L
620 3487 L
620 3311 L
620 3323 L
620 3700 L
620 4153 L
620 3434 L
620 3750 L
620 3020 L
620 3382 L
620 3447 L
620 3489 L
620 3364 L
620 3712 L
620 3844 L
620 3547 L
620 3950 L
620 3295 L
620 2801 L
620 3778 L
620 3167 L
620 3975 L
620 4028 L
620 3639 L
620 2728 L
620 3595 L
620 4066 L
620 3690 L
620 3271 L
620 3754 L
620 3864 L
620 4113 L
620 3559 L
620 3578 L
620 3755 L
620 3888 L
620 3688 L
620 3779 L
620 3700 L
620 3760 L
620 3399 L
620 3591 L
620 3954 L
620 3712 L
620 3498 L
620 3716 L
620 3615 L
620 3569 L
620 3464 L
620 2974 L
620 3295 L
620 3751 L
620 4027 L
620 3703 L
620 3804 L
620 4008 L
620 3511 L
620 3906 L
620 3715 L
620 3516 L
620 4046 L
620 3902 L
620 4712 L
620 4139 L
620 3848 L
620 3818 L
620 3601 L
620 4165 L
620 3848 L
620 4340 L
620 3999 L
620 4501 L
620 4461 L
620 4371 L
620 4748 L
620 4416 L
620 4290 L
620 4406 L
620 4697 L
620 4602 L
620 4150 L
620 4682 L
620 4280 L
620 4235 L
620 4753 L
620 3772 L
620 4496 L
620 4225 L
620 4526 L
620 4688 L
620 3903 L
620 3999 L
620 4602 L
620 4738 L
620 4567 L
620 4079 L
620 3576 L
620 4476 L
620 3933 L
620 3828 L
620 4265 L
620 4642 L
620 3807 L
620 4059 L
620 4345 L
620 4089 L
620 4416 L
620 4446 L
620 4863 L
620 4506 L
620 4783 L
620 3968 L
620 4506 L
620 4280 L
620 4762 L
620 3943 L
620 3687 L
620 3602 L
620 4607 L
620 4104 L
620 4692 L
620 4255 L
620 4250 L
620 4311 L
620 4356 L
620 4330 L
620 3873 L
620 4044 L
620 4351 L
620 4365 L
620 3999 L
620 3732 L
620 4024 L
620 4059 L
620 3818 L
620 3823 L
620 3853 L
620 3938 L
620 4330 L
620 4351 L
620 3878 L
620 4145 L
620 3506 L
620 3823 L
620 3773 L
620 4155 L
620 4391 L
620 3471 L
620 4140 L
620 3551 L
620 3551 L
620 3642 L
620 3772 L
620 3632 L
620 3597 L
620 3888 L
620 3707 L
620 4074 L
620 3551 L
620 3556 L
620 4164 L
620 3401 L
620 4114 L
620 3662 L
620 3999 L
620 3798 L
620 4044 L
620 3496 L
620 3807 L
620 3607 L
620 3516 L
620 3692 L
620 3752 L
620 4064 L
620 2979 L
620 4109 L
620 3567 L
620 3456 L
620 3994 L
620 3375 L
620 3597 L
620 3516 L
620 3491 L
620 3496 L
620 3295 L
620 4059 L
620 3270 L
620 3395 L
620 3476 L
620 3245 L
620 3154 L
620 3581 L
620 3893 L
620 3576 L
620 3682 L
620 3808 L
620 4220 L
620 3722 L
620 3968 L
620 4295 L
620 3948 L
620 3496 L
620 3602 L
620 4160 L
620 3632 L
620 3612 L
620 2938 L
620 4089 L
620 3149 L
620 3521 L
620 3747 L
620 3567 L
620 3275 L
620 3511 L
620 3898 L
620 3808 L
620 4019 L
620 4245 L
620 3486 L
620 4386 L
620 3592 L
620 3682 L
620 3305 L
620 3687 L
620 3360 L
620 3858 L
620 3421 L
620 3738 L
620 3506 L
620 3672 L
620 3727 L
620 3355 L
620 3968 L
620 3250 L
620 3898 L
620 3702 L
620 3943 L
620 3481 L
620 3109 L
620 3275 L
620 3240 L
620 3556 L
620 3757 L
620 3556 L
620 3390 L
620 4104 L
620 3280 L
620 4174 L
620 4039 L
620 2772 L
620 3245 L
620 3496 L
620 4134 L
620 3310 L
620 3808 L
620 3762 L
620 3199 L
620 2928 L
620 3416 L
620 3571 L
620 3722 L
620 3763 L
620 3486 L
620 3546 L
620 3868 L
620 3275 L
620 3275 L
620 3813 L
620 3738 L
620 3521 L
620 3275 L
620 3501 L
620 4004 L
620 3129 L
620 2868 L
620 2979 L
620 3762 L
620 3561 L
620 3260 L
620 4029 L
620 3722 L
620 3320 L
620 3154 L
620 3245 L
620 3391 L
620 3481 L
620 3290 L
620 3089 L
620 3853 L
620 3285 L
620 3441 L
620 4084 L
620 3390 L
620 2883 L
620 3647 L
620 3018 L
620 3833 L
620 3692 L
620 3521 L
620 3230 L
620 3973 L
620 3129 L
620 3601 L
620 3405 L
620 3989 L
620 3612 L
620 3436 L
620 3597 L
620 3672 L
620 3913 L
620 3511 L
620 3617 L
L2 C02 COSGR

%
%================
% Legend - Begin
%================
%
GSN 4240 5180 M
4480 5180 L
LWMC SL  C02 COSGR
GSN 4540 5141 M helvM (1.0 uM) show grestore
%
%================
% Legend - End
%================
%

%
% Main frame
%
L10
GSN 
620 1700 M
4220 1700 L
4220 5300 L
620 5300 L
closepath SGR

%
% X axis: large tics
%
L10
%
% X axis: small tics
%
L5
%
% Y axis: large tics
%
L10
GSN 620 2597 M 54 0 rL SGR
GSN 4220 2597 M -54 0 rL SGR
helvS (-0.01) 560 2597 ylabel
GSN 620 3585 M 54 0 rL SGR
GSN 4220 3585 M -54 0 rL SGR
helvS (0) 560 3585 ylabel
GSN 620 4574 M 54 0 rL SGR
GSN 4220 4574 M -54 0 rL SGR
helvS (0.01) 560 4574 ylabel
%
% Y axis: small tics
%
L5
GSN 620 1856 M 36 0 rL SGR
GSN 4220 1856 M -36 0 rL SGR
GSN 620 2103 M 36 0 rL SGR
GSN 4220 2103 M -36 0 rL SGR
GSN 620 2350 M 36 0 rL SGR
GSN 4220 2350 M -36 0 rL SGR
GSN 620 2597 M 36 0 rL SGR
GSN 4220 2597 M -36 0 rL SGR
GSN 620 2844 M 36 0 rL SGR
GSN 4220 2844 M -36 0 rL SGR
GSN 620 3091 M 36 0 rL SGR
GSN 4220 3091 M -36 0 rL SGR
GSN 620 3338 M 36 0 rL SGR
GSN 4220 3338 M -36 0 rL SGR
GSN 620 3585 M 36 0 rL SGR
GSN 4220 3585 M -36 0 rL SGR
GSN 620 3832 M 36 0 rL SGR
GSN 4220 3832 M -36 0 rL SGR
GSN 620 4079 M 36 0 rL SGR
GSN 4220 4079 M -36 0 rL SGR
GSN 620 4326 M 36 0 rL SGR
GSN 4220 4326 M -36 0 rL SGR
GSN 620 4574 M 36 0 rL SGR
GSN 4220 4574 M -36 0 rL SGR
GSN 620 4821 M 36 0 rL SGR
GSN 4220 4821 M -36 0 rL SGR
GSN 620 5068 M 36 0 rL SGR
GSN 4220 5068 M -36 0 rL SGR

%
% X axis - residual panel
%
GSN L5 620 3585 M 4220 3585 L SDA G50 SGR

%
% X-Axis label:
%
gsave 620 1370 M 
[
[(Helvetica) 180 0 true true 0 (t)]
[(Helvetica) 180 0 true true 0 (i)]
[(Helvetica) 180 0 true true 0 (m)]
[(Helvetica) 180 0 true true 0 (e)]
] 0 MCshow grestore

%
% Y-Axis label:
%
gsave 234 3500 M 
currentpoint gsave translate 90 rotate 0 0 moveto
[
[(Helvetica) 180 0 true true 0 (r)]
[(Helvetica) 180 0 true true 0 (e)]
[(Helvetica) 180 0 true true 0 (s)]
[(Helvetica) 180 0 true true 0 (i)]
[(Helvetica) 180 0 true true 0 (d)]
[(Helvetica) 180 0 true true 0 (u)]
[(Helvetica) 180 0 true true 0 (a)]
[(Helvetica) 180 0 true true 0 (l)]
[(Helvetica) 180 0 true true 0 (s)]
] 0 MCshow grestore

end
showpage
%%Trailer
%%EOF
