%!PS-Adobe-3.0 EPSF-3.0
%%BoundingBox: 0 0 514 550
%%Creator: BioKin Ltd.
%%DocumentFonts: Symbol Helvetica
%%EndComments
%
/bkdict 256 dict def
bkdict begin
/M {moveto} def 
/R {rmoveto} def
/L {lineto} def
/rL {rlineto} def
/GSN {gsave newpath} def
/SGR {stroke grestore} def
/COSGR {gsave setrgbcolor stroke grestore grestore} def
/SL {setlinewidth} def
/LWMB {12} def             % line width - model curves, black & white
/LWMC {10} def             % line width - model curves, color
/L2 {2.5 setlinewidth} def
/L5 {5 setlinewidth} def
/L10 {10 setlinewidth} def
/G50 {0.5 setgray} def
/SDA {[10  20] 0 setdash} def % axes
/helvT {/Helvetica findfont 100 scalefont setfont} def % tiny
/helvS {/Helvetica findfont 125 scalefont setfont} def % small
/helvM {/Helvetica findfont 150 scalefont setfont} def % medium
/helvL {/Helvetica findfont 175 scalefont setfont} def % large
/xlabel {gsave M dup
   stringwidth exch -0.5 mul exch rmoveto show grestore} def 
/ylabel {gsave M 90 rotate dup
   stringwidth exch -0.5 mul exch rmoveto show grestore} def
/ylabelresid {gsave M dup
   stringwidth exch -1 mul exch rmoveto show grestore} def
% ======
% Shapes
% ======
% Circle:
/Circ {0 360 arc closepath} def
%
% Square:
/Squa {dup dup -0.5 mul dup dup R -2 mul 0 exch rL 1 mul 0 rL dup 0 exch -1 mul rL closepath} def
%
% Triangle Up:
/TriU {dup dup dup -0.4 mul exch -0.5 mul exch R dup 0.5 mul exch rL dup -1 mul exch 0.5 mul exch rL closepath} def 
%
% Triangle Down:
/TriD {dup dup dup 0.4 mul exch -0.5 mul exch R dup 0.5 mul exch -1 mul rL dup 0.5 mul exch rL closepath} def 
%
% Diamond:
/Diam {45 rotate Squa} def
% ======
% Fills
% ======
/GRF {gsave setgray fill grestore} def                    % gray-level Fill
/COF {gsave setrgbcolor fill grestore} def                % color fill
% ======
% Colors
% ======
/C01 {1.00	0.00	0.00} def      % Red
/C02 {0.00	0.00	1.00} def      % Blue
/C03 {0.00	0.39	0.00} def      % Dark Green
/C04 {0.78	0.08	0.52} def      % Medium Violet Red
/C05 {0.55	0.27	0.07} def      % Saddle Brown
/C06 {0.10	0.70	0.70} def      % (cyan)
/C07 {1.00	0.55	0.00} def      % Dark Orange
/C08 {0.63	0.13	0.94} def      % Purple
/C09 {0.00	0.75	1.00} def      % Deep Sky Blue
/C10 {0.20	0.80	0.20} def      % Lime Green
/C11 {0.47	0.53	0.60} def      % Light Slate Gray
/C12 {0.00	0.00	0.00} def      % Black            % or: {0.19	0.31	0.31} def      % Dark Slate Gray
%
/LGR {0.75} def % light gray
/DGR {0.33} def % dark gray
%
% =============
% Dash patterns
% =============
/dash01 { [80  20] 0 setdash } def
/dash02 { [40  20] 0 setdash } def
/dash03 { [80  20  10  20] 0 setdash } def
/dash04 { [40  20  10  20] 0 setdash } def
/dash05 { [80  20  10  10  10  20] 0 setdash } def
/dash06 { [40  20  10  10  10  20] 0 setdash } def
/dash07 { [10  10] 0 setdash } def
%
/MFshow {
   { dup 5 get 3 ge
     { 5 get 3 eq {gsave} {grestore} ifelse }
     {dup dup 0 get findfont exch 1 get scalefont setfont
     [ currentpoint ] exch dup 2 get 0 exch R dup 5 get 2 ne {dup dup 6
     get exch 4 get {show} {stringwidth pop 0 R} ifelse }if dup 5 get 0 eq
     {dup 3 get {2 get neg 0 exch R pop} {pop aload pop M} ifelse} {dup 5
     get 1 eq {dup 2 get exch dup 3 get exch 6 get stringwidth pop -2 div
     dup 0 R} {dup 6 get stringwidth pop -2 div 0 R 6 get
     show 2 index {aload pop M neg 3 -1 roll neg R pop pop} {pop pop pop
     pop aload pop M} ifelse }ifelse }ifelse }
     ifelse }
   forall} bind def
/MFwidth {0 exch {dup 3 get{dup dup 0 get findfont exch 1 get scalefont
     setfont 6 get stringwidth pop add} {pop} ifelse} forall} bind def
/MCshow { currentpoint stroke M
  exch dup MFwidth -2 div 3 -1 roll R MFshow } def
%
end
%%EndProlog
bkdict begin
0.1 0.1 scale
%
% Residuals:
%
GSN 620 4420 M
620 3710 L
620 3861 L
620 4473 L
620 4161 L
620 3922 L
620 3986 L
620 3996 L
620 4103 L
620 3959 L
620 4028 L
620 3500 L
620 4466 L
620 3691 L
620 4070 L
620 4243 L
620 4144 L
620 4288 L
620 3651 L
620 3971 L
620 3838 L
620 3574 L
620 3738 L
620 3967 L
620 3588 L
620 4133 L
620 4448 L
620 4072 L
620 4366 L
620 3971 L
620 3730 L
620 3147 L
620 3531 L
620 3626 L
620 4144 L
620 4153 L
620 3861 L
620 3920 L
620 4124 L
620 4122 L
620 4396 L
620 4785 L
620 3690 L
620 3958 L
620 3349 L
620 3661 L
620 3429 L
620 4002 L
620 4056 L
620 3938 L
620 4137 L
620 4321 L
620 3497 L
620 2699 L
620 3208 L
620 3721 L
620 4083 L
620 4495 L
620 3796 L
620 3548 L
620 3310 L
620 4117 L
620 3265 L
620 3579 L
620 4164 L
620 4019 L
620 3286 L
620 3779 L
620 3749 L
620 3466 L
620 3401 L
620 4074 L
620 3655 L
620 3869 L
620 3429 L
620 3865 L
620 3902 L
620 3828 L
620 3679 L
620 3706 L
620 3863 L
620 3456 L
620 3427 L
620 3645 L
620 3879 L
620 3787 L
620 3889 L
620 3968 L
620 3187 L
620 3371 L
620 3521 L
620 4318 L
620 3318 L
620 2704 L
620 3927 L
620 3214 L
620 3690 L
620 2983 L
620 3658 L
620 3462 L
620 3170 L
620 2896 L
620 3496 L
620 3226 L
620 2291 L
620 3156 L
620 3245 L
620 2384 L
620 3352 L
620 2967 L
620 3487 L
620 2679 L
620 3565 L
620 3545 L
620 3359 L
620 3052 L
620 3082 L
620 3162 L
620 2849 L
620 2983 L
620 3173 L
620 3126 L
620 3079 L
620 2538 L
620 2922 L
620 2835 L
620 2500 L
620 2779 L
620 3223 L
620 2577 L
620 3021 L
620 2610 L
620 2652 L
620 2523 L
620 2836 L
620 2747 L
620 2622 L
620 2658 L
620 3052 L
620 2535 L
620 2848 L
620 2471 L
620 2577 L
620 2684 L
620 2594 L
620 2525 L
620 2434 L
620 2510 L
620 2461 L
620 2773 L
620 2950 L
620 2558 L
620 2930 L
620 3439 L
620 2574 L
620 2449 L
620 2499 L
620 3108 L
620 2761 L
620 2747 L
620 3491 L
620 3315 L
620 2375 L
620 3019 L
620 2557 L
620 2969 L
620 2965 L
620 2925 L
620 3000 L
620 2995 L
620 3241 L
620 2578 L
620 3428 L
620 3393 L
620 3091 L
620 3660 L
620 2136 L
620 2730 L
620 3267 L
620 2754 L
620 2901 L
620 2936 L
620 2916 L
620 3112 L
620 2237 L
620 3167 L
620 3389 L
620 4314 L
620 2992 L
620 4027 L
620 2504 L
620 3520 L
620 3293 L
620 2544 L
620 3238 L
620 3379 L
620 3299 L
620 2735 L
620 3294 L
620 2911 L
620 3007 L
620 3047 L
620 3269 L
620 3379 L
620 2791 L
620 2927 L
620 2901 L
620 3601 L
620 3435 L
620 2796 L
620 3434 L
620 3193 L
620 3475 L
620 3887 L
620 3666 L
620 3565 L
620 3631 L
620 3646 L
620 4033 L
620 3329 L
620 3455 L
620 3958 L
620 3721 L
620 3183 L
620 3263 L
620 3772 L
620 3113 L
620 3837 L
620 2771 L
620 3253 L
620 3626 L
620 3963 L
620 3898 L
620 3586 L
620 3530 L
620 3279 L
620 3274 L
620 3444 L
620 3264 L
620 3641 L
620 3163 L
620 3118 L
620 3088 L
620 3475 L
620 3359 L
620 3349 L
620 3495 L
620 3128 L
620 3560 L
620 3943 L
620 3746 L
620 3092 L
620 4013 L
620 4219 L
620 3691 L
620 3304 L
620 3168 L
620 3505 L
620 3500 L
620 3128 L
620 2892 L
620 3223 L
620 2831 L
620 3103 L
620 4365 L
620 3983 L
620 3576 L
620 3651 L
620 4285 L
620 4174 L
620 3606 L
620 2932 L
620 2982 L
620 4119 L
620 4290 L
620 3641 L
620 4270 L
620 3933 L
620 3118 L
620 3646 L
620 3228 L
620 3480 L
620 3832 L
620 3701 L
620 3475 L
620 4109 L
620 3384 L
620 4013 L
620 4234 L
620 3973 L
620 3782 L
620 4149 L
620 4209 L
620 4068 L
620 4365 L
620 4486 L
620 3767 L
620 4003 L
620 3721 L
620 4214 L
620 3329 L
620 3681 L
620 3696 L
620 3777 L
620 4275 L
620 3737 L
620 4104 L
620 4596 L
620 3872 L
620 3948 L
620 3867 L
620 4214 L
620 3631 L
620 3762 L
620 3883 L
620 3908 L
620 3832 L
620 3867 L
620 4179 L
620 3414 L
620 4546 L
620 4687 L
620 3691 L
620 4184 L
620 3113 L
620 3882 L
620 4501 L
620 3556 L
620 3324 L
620 3732 L
620 4109 L
620 4592 L
620 3837 L
620 3344 L
620 3807 L
620 3887 L
620 4325 L
620 3696 L
620 3822 L
620 3656 L
620 3490 L
620 4189 L
620 3912 L
620 3575 L
620 4099 L
620 3767 L
620 3973 L
620 4395 L
620 3671 L
620 3465 L
620 4244 L
620 4093 L
620 3409 L
620 3430 L
620 3797 L
620 3354 L
620 3732 L
620 3897 L
620 3711 L
620 4652 L
620 3274 L
620 4073 L
620 4068 L
620 4536 L
620 3565 L
620 3741 L
620 3591 L
620 3983 L
620 3299 L
620 3727 L
620 3555 L
620 3626 L
620 4033 L
620 3329 L
620 4209 L
620 4345 L
620 3867 L
620 3520 L
620 3319 L
620 4144 L
620 3877 L
620 4119 L
620 3218 L
620 3731 L
620 3902 L
620 3721 L
620 3903 L
620 3606 L
620 4235 L
620 3676 L
620 3953 L
620 3777 L
620 3877 L
620 3892 L
620 3747 L
620 3792 L
620 4214 L
620 3410 L
620 3666 L
620 3978 L
620 4124 L
620 3455 L
620 4174 L
620 3852 L
620 4420 L
620 3264 L
620 4235 L
620 3968 L
620 3782 L
620 3545 L
620 3807 L
620 3857 L
620 4169 L
620 4124 L
620 3238 L
620 3429 L
620 3756 L
620 3510 L
620 3857 L
620 4184 L
620 3234 L
620 3420 L
620 3445 L
620 4048 L
620 3078 L
620 3631 L
620 3364 L
620 3696 L
620 3817 L
620 3993 L
620 4114 L
620 3908 L
620 3596 L
620 4008 L
620 4008 L
620 3988 L
620 3872 L
620 3681 L
620 2982 L
620 3525 L
620 4430 L
620 4209 L
620 3721 L
620 3938 L
620 4189 L
620 3073 L
620 4038 L
620 3983 L
620 3269 L
620 3847 L
620 3133 L
620 3686 L
620 4179 L
620 4320 L
620 3550 L
620 4456 L
620 3354 L
620 3857 L
620 3817 L
620 4400 L
620 3284 L
620 4249 L
620 4179 L
620 3862 L
620 3646 L
620 3756 L
620 3656 L
620 4406 L
620 3641 L
620 3917 L
620 4245 L
620 3737 L
620 3852 L
620 3721 L
620 4466 L
620 3716 L
620 3449 L
620 4235 L
620 4018 L
620 4144 L
620 3435 L
620 4084 L
620 3988 L
620 4305 L
620 4430 L
620 4184 L
620 3797 L
620 4043 L
620 3842 L
620 4053 L
620 4742 L
620 3943 L
620 4184 L
620 3696 L
620 4144 L
620 3767 L
620 3988 L
620 3968 L
620 4093 L
620 3556 L
620 3706 L
620 3319 L
620 4134 L
620 4722 L
620 3053 L
620 4411 L
620 3847 L
620 3681 L
620 4194 L
620 4320 L
620 3771 L
620 4450 L
620 4204 L
620 3681 L
620 3948 L
620 3892 L
620 3978 L
620 4390 L
620 4159 L
620 3832 L
620 4863 L
620 3857 L
620 3913 L
620 4254 L
620 4174 L
620 3375 L
620 3948 L
620 3208 L
620 3752 L
620 4048 L
620 4224 L
620 3696 L
620 4149 L
L2 C01 COSGR

%
%================
% Legend - Begin
%================
%
GSN 4240 5180 M
4480 5180 L
LWMC SL  C01 COSGR
GSN 4540 5141 M helvM (0.5 uM) show grestore
%
%================
% Legend - End
%================
%

%
% Main frame
%
L10
GSN 
620 1700 M
4220 1700 L
4220 5300 L
620 5300 L
closepath SGR

%
% X axis: large tics
%
L10
%
% X axis: small tics
%
L5
%
% Y axis: large tics
%
L10
GSN 620 2640 M 54 0 rL SGR
GSN 4220 2640 M -54 0 rL SGR
helvS (-0.01) 560 2640 ylabel
GSN 620 3629 M 54 0 rL SGR
GSN 4220 3629 M -54 0 rL SGR
helvS (0) 560 3629 ylabel
GSN 620 4617 M 54 0 rL SGR
GSN 4220 4617 M -54 0 rL SGR
helvS (0.01) 560 4617 ylabel
%
% Y axis: small tics
%
L5
GSN 620 1898 M 36 0 rL SGR
GSN 4220 1898 M -36 0 rL SGR
GSN 620 2145 M 36 0 rL SGR
GSN 4220 2145 M -36 0 rL SGR
GSN 620 2393 M 36 0 rL SGR
GSN 4220 2393 M -36 0 rL SGR
GSN 620 2640 M 36 0 rL SGR
GSN 4220 2640 M -36 0 rL SGR
GSN 620 2887 M 36 0 rL SGR
GSN 4220 2887 M -36 0 rL SGR
GSN 620 3134 M 36 0 rL SGR
GSN 4220 3134 M -36 0 rL SGR
GSN 620 3381 M 36 0 rL SGR
GSN 4220 3381 M -36 0 rL SGR
GSN 620 3629 M 36 0 rL SGR
GSN 4220 3629 M -36 0 rL SGR
GSN 620 3876 M 36 0 rL SGR
GSN 4220 3876 M -36 0 rL SGR
GSN 620 4123 M 36 0 rL SGR
GSN 4220 4123 M -36 0 rL SGR
GSN 620 4370 M 36 0 rL SGR
GSN 4220 4370 M -36 0 rL SGR
GSN 620 4617 M 36 0 rL SGR
GSN 4220 4617 M -36 0 rL SGR
GSN 620 4865 M 36 0 rL SGR
GSN 4220 4865 M -36 0 rL SGR
GSN 620 5112 M 36 0 rL SGR
GSN 4220 5112 M -36 0 rL SGR

%
% X axis - residual panel
%
GSN L5 620 3629 M 4220 3629 L SDA G50 SGR

%
% X-Axis label:
%
gsave 620 1370 M 
[
[(Helvetica) 180 0 true true 0 (t)]
[(Helvetica) 180 0 true true 0 (i)]
[(Helvetica) 180 0 true true 0 (m)]
[(Helvetica) 180 0 true true 0 (e)]
] 0 MCshow grestore

%
% Y-Axis label:
%
gsave 234 3500 M 
currentpoint gsave translate 90 rotate 0 0 moveto
[
[(Helvetica) 180 0 true true 0 (r)]
[(Helvetica) 180 0 true true 0 (e)]
[(Helvetica) 180 0 true true 0 (s)]
[(Helvetica) 180 0 true true 0 (i)]
[(Helvetica) 180 0 true true 0 (d)]
[(Helvetica) 180 0 true true 0 (u)]
[(Helvetica) 180 0 true true 0 (a)]
[(Helvetica) 180 0 true true 0 (l)]
[(Helvetica) 180 0 true true 0 (s)]
] 0 MCshow grestore

end
showpage
%%Trailer
%%EOF
