%!PS-Adobe-3.0 EPSF-3.0
%%BoundingBox: 0 0 514 550
%%Creator: BioKin Ltd.
%%DocumentFonts: Symbol Helvetica
%%EndComments
%
/bkdict 256 dict def
bkdict begin
/M {moveto} def 
/R {rmoveto} def
/L {lineto} def
/rL {rlineto} def
/GSN {gsave newpath} def
/SGR {stroke grestore} def
/COSGR {gsave setrgbcolor stroke grestore grestore} def
/SL {setlinewidth} def
/LWMB {12} def             % line width - model curves, black & white
/LWMC {10} def             % line width - model curves, color
/L2 {2.5 setlinewidth} def
/L5 {5 setlinewidth} def
/L10 {10 setlinewidth} def
/G50 {0.5 setgray} def
/SDA {[10  20] 0 setdash} def % axes
/helvT {/Helvetica findfont 100 scalefont setfont} def % tiny
/helvS {/Helvetica findfont 125 scalefont setfont} def % small
/helvM {/Helvetica findfont 150 scalefont setfont} def % medium
/helvL {/Helvetica findfont 175 scalefont setfont} def % large
/xlabel {gsave M dup
   stringwidth exch -0.5 mul exch rmoveto show grestore} def 
/ylabel {gsave M 90 rotate dup
   stringwidth exch -0.5 mul exch rmoveto show grestore} def
/ylabelresid {gsave M dup
   stringwidth exch -1 mul exch rmoveto show grestore} def
% ======
% Shapes
% ======
% Circle:
/Circ {0 360 arc closepath} def
%
% Square:
/Squa {dup dup -0.5 mul dup dup R -2 mul 0 exch rL 1 mul 0 rL dup 0 exch -1 mul rL closepath} def
%
% Triangle Up:
/TriU {dup dup dup -0.4 mul exch -0.5 mul exch R dup 0.5 mul exch rL dup -1 mul exch 0.5 mul exch rL closepath} def 
%
% Triangle Down:
/TriD {dup dup dup 0.4 mul exch -0.5 mul exch R dup 0.5 mul exch -1 mul rL dup 0.5 mul exch rL closepath} def 
%
% Diamond:
/Diam {45 rotate Squa} def
% ======
% Fills
% ======
/GRF {gsave setgray fill grestore} def                    % gray-level Fill
/COF {gsave setrgbcolor fill grestore} def                % color fill
% ======
% Colors
% ======
/C01 {1.00	0.00	0.00} def      % Red
/C02 {0.00	0.00	1.00} def      % Blue
/C03 {0.00	0.39	0.00} def      % Dark Green
/C04 {0.78	0.08	0.52} def      % Medium Violet Red
/C05 {0.55	0.27	0.07} def      % Saddle Brown
/C06 {0.10	0.70	0.70} def      % (cyan)
/C07 {1.00	0.55	0.00} def      % Dark Orange
/C08 {0.63	0.13	0.94} def      % Purple
/C09 {0.00	0.75	1.00} def      % Deep Sky Blue
/C10 {0.20	0.80	0.20} def      % Lime Green
/C11 {0.47	0.53	0.60} def      % Light Slate Gray
/C12 {0.00	0.00	0.00} def      % Black            % or: {0.19	0.31	0.31} def      % Dark Slate Gray
%
/LGR {0.75} def % light gray
/DGR {0.33} def % dark gray
%
% =============
% Dash patterns
% =============
/dash01 { [80  20] 0 setdash } def
/dash02 { [40  20] 0 setdash } def
/dash03 { [80  20  10  20] 0 setdash } def
/dash04 { [40  20  10  20] 0 setdash } def
/dash05 { [80  20  10  10  10  20] 0 setdash } def
/dash06 { [40  20  10  10  10  20] 0 setdash } def
/dash07 { [10  10] 0 setdash } def
%
/MFshow {
   { dup 5 get 3 ge
     { 5 get 3 eq {gsave} {grestore} ifelse }
     {dup dup 0 get findfont exch 1 get scalefont setfont
     [ currentpoint ] exch dup 2 get 0 exch R dup 5 get 2 ne {dup dup 6
     get exch 4 get {show} {stringwidth pop 0 R} ifelse }if dup 5 get 0 eq
     {dup 3 get {2 get neg 0 exch R pop} {pop aload pop M} ifelse} {dup 5
     get 1 eq {dup 2 get exch dup 3 get exch 6 get stringwidth pop -2 div
     dup 0 R} {dup 6 get stringwidth pop -2 div 0 R 6 get
     show 2 index {aload pop M neg 3 -1 roll neg R pop pop} {pop pop pop
     pop aload pop M} ifelse }ifelse }ifelse }
     ifelse }
   forall} bind def
/MFwidth {0 exch {dup 3 get{dup dup 0 get findfont exch 1 get scalefont
     setfont 6 get stringwidth pop add} {pop} ifelse} forall} bind def
/MCshow { currentpoint stroke M
  exch dup MFwidth -2 div 3 -1 roll R MFshow } def
%
end
%%EndProlog
bkdict begin
0.1 0.1 scale
%
% Residuals:
%
GSN 620 2997 M
620 4833 L
620 4669 L
620 4863 L
620 4641 L
620 4848 L
620 4566 L
620 4567 L
620 4567 L
620 4388 L
620 4377 L
620 4382 L
620 4148 L
620 4160 L
620 4176 L
620 4165 L
620 4299 L
620 4119 L
620 4166 L
620 4084 L
620 4081 L
620 4051 L
620 4067 L
620 3868 L
620 3997 L
620 4049 L
620 3760 L
620 3927 L
620 3712 L
620 3853 L
620 3742 L
620 3687 L
620 3734 L
620 3779 L
620 3729 L
620 3651 L
620 3743 L
620 3883 L
620 3550 L
620 3667 L
620 3665 L
620 3639 L
620 3614 L
620 3383 L
620 3680 L
620 3666 L
620 3436 L
620 3519 L
620 3325 L
620 3410 L
620 3443 L
620 3549 L
620 3579 L
620 3387 L
620 3325 L
620 3517 L
620 3226 L
620 3327 L
620 3327 L
620 3151 L
620 3146 L
620 3269 L
620 3323 L
620 3261 L
620 3169 L
620 3138 L
620 3022 L
620 3174 L
620 3144 L
620 3092 L
620 3182 L
620 3275 L
620 3104 L
620 3075 L
620 3097 L
620 3175 L
620 3031 L
620 2960 L
620 3244 L
620 2955 L
620 3185 L
620 2715 L
620 3051 L
620 2778 L
620 2745 L
620 2823 L
620 2684 L
620 2648 L
620 2751 L
620 2722 L
620 2650 L
620 2615 L
620 2499 L
620 2542 L
620 2565 L
620 2760 L
620 2503 L
620 2550 L
620 2576 L
620 2549 L
620 2240 L
620 2355 L
620 2482 L
620 2455 L
620 2449 L
620 2316 L
620 2418 L
620 2545 L
620 2388 L
620 2394 L
620 2324 L
620 2242 L
620 2474 L
620 2358 L
620 2318 L
620 2351 L
620 2414 L
620 2207 L
620 2296 L
620 2408 L
620 2298 L
620 2323 L
620 2280 L
620 2316 L
620 2302 L
620 2318 L
620 2342 L
620 2343 L
620 2389 L
620 2201 L
620 2340 L
620 2450 L
620 2322 L
620 2352 L
620 2331 L
620 2396 L
620 2336 L
620 2308 L
620 2292 L
620 2332 L
620 2376 L
620 2371 L
620 2354 L
620 2398 L
620 2393 L
620 2479 L
620 2518 L
620 2136 L
620 2215 L
620 2328 L
620 2514 L
620 2461 L
620 2331 L
620 2417 L
620 2422 L
620 2409 L
620 2383 L
620 2482 L
620 2364 L
620 2419 L
620 2301 L
620 2414 L
620 2524 L
620 2347 L
620 2494 L
620 2436 L
620 2426 L
620 2414 L
620 2593 L
620 2432 L
620 2582 L
620 2513 L
620 2534 L
620 2596 L
620 2446 L
620 2446 L
620 2582 L
620 2546 L
620 2453 L
620 2483 L
620 2493 L
620 2566 L
620 2673 L
620 2531 L
620 2613 L
620 2510 L
620 2633 L
620 2633 L
620 2473 L
620 2546 L
620 2571 L
620 2657 L
620 2451 L
620 2540 L
620 2619 L
620 2610 L
620 2491 L
620 2538 L
620 2518 L
620 2636 L
620 2574 L
620 2648 L
620 2444 L
620 2784 L
620 2588 L
620 2603 L
620 2648 L
620 2576 L
620 2638 L
620 2700 L
620 2619 L
620 2600 L
620 2688 L
620 2500 L
620 2608 L
620 2682 L
620 2769 L
620 2727 L
620 2702 L
620 2700 L
620 2704 L
620 2684 L
620 2818 L
620 2789 L
620 2800 L
620 2568 L
620 2698 L
620 2900 L
620 2777 L
620 2796 L
620 2709 L
620 2796 L
620 2763 L
620 2655 L
620 2792 L
620 2718 L
620 2926 L
620 2914 L
620 2682 L
620 2873 L
620 2749 L
620 2808 L
620 2751 L
620 2907 L
620 2748 L
620 2681 L
620 2629 L
620 2890 L
620 2707 L
620 2711 L
620 2693 L
620 2708 L
620 2782 L
620 2858 L
620 2892 L
620 2763 L
620 2768 L
620 2776 L
620 2874 L
620 2689 L
620 2718 L
620 3021 L
620 2893 L
620 2889 L
620 2940 L
620 2877 L
620 2868 L
620 2818 L
620 2718 L
620 2864 L
620 2968 L
620 2804 L
620 2609 L
620 2888 L
620 2834 L
620 2855 L
620 2956 L
620 2785 L
620 2897 L
620 2904 L
620 3004 L
620 3014 L
620 3028 L
620 3045 L
620 3170 L
620 2924 L
620 3103 L
620 3271 L
620 3135 L
620 3195 L
620 3026 L
620 3180 L
620 3189 L
620 3175 L
620 3205 L
620 3197 L
620 2989 L
620 3228 L
620 3177 L
620 3136 L
620 3159 L
620 3244 L
620 3151 L
620 3109 L
620 3296 L
620 3008 L
620 3307 L
620 3174 L
620 3175 L
620 3128 L
620 3143 L
620 3210 L
620 3117 L
620 3097 L
620 3109 L
620 3196 L
620 3163 L
620 3077 L
620 3141 L
620 3135 L
620 3033 L
620 3071 L
620 3137 L
620 3207 L
620 3142 L
620 3142 L
620 3060 L
620 3079 L
620 3045 L
620 3129 L
620 3226 L
620 3087 L
620 3282 L
620 3263 L
620 3084 L
620 3202 L
620 3158 L
620 3064 L
620 3129 L
620 3429 L
620 3129 L
620 3211 L
620 3045 L
620 3006 L
620 3087 L
620 3045 L
620 3123 L
620 3211 L
620 3062 L
620 3137 L
620 3030 L
620 3000 L
620 3008 L
620 2874 L
620 3220 L
620 2949 L
620 3079 L
620 3030 L
620 3154 L
620 3057 L
620 3040 L
620 3110 L
620 3153 L
620 3086 L
620 2901 L
620 3097 L
620 3092 L
620 2974 L
620 2913 L
620 3016 L
620 2918 L
620 3185 L
620 3026 L
620 3035 L
620 2946 L
620 3046 L
620 2903 L
620 3063 L
620 3070 L
620 2868 L
620 2746 L
620 3009 L
620 3103 L
620 2913 L
620 2852 L
620 2948 L
620 2899 L
620 2986 L
620 2804 L
620 2984 L
620 3006 L
620 3017 L
620 2904 L
620 2943 L
620 3067 L
620 2821 L
620 2774 L
620 3034 L
620 2806 L
620 2946 L
620 2699 L
620 2867 L
620 2765 L
620 2935 L
620 3131 L
620 2887 L
620 2817 L
620 2925 L
620 2637 L
620 2840 L
620 2911 L
620 2966 L
620 2785 L
620 2982 L
620 2792 L
620 2915 L
620 2902 L
620 2920 L
620 2989 L
620 2729 L
620 2940 L
620 2752 L
620 2823 L
620 2851 L
620 2944 L
620 2860 L
620 2802 L
620 2925 L
620 2757 L
620 2824 L
620 2860 L
620 2915 L
620 2862 L
620 3000 L
620 2870 L
620 3046 L
620 2802 L
620 2964 L
620 2903 L
620 2882 L
620 2877 L
620 2884 L
620 2868 L
620 2799 L
620 2814 L
620 3104 L
620 2866 L
620 2767 L
620 2906 L
620 2860 L
620 3051 L
620 2807 L
620 3016 L
620 3025 L
620 2812 L
620 2971 L
620 2849 L
620 2935 L
620 2950 L
620 2985 L
620 2688 L
620 3006 L
620 2741 L
620 2840 L
620 2821 L
620 2935 L
620 2946 L
620 2623 L
620 2769 L
620 2776 L
620 2890 L
620 3000 L
620 2779 L
620 2814 L
620 2561 L
620 2896 L
620 2772 L
620 2914 L
620 2569 L
620 2825 L
620 2992 L
620 2683 L
620 2709 L
620 2752 L
620 2723 L
620 2823 L
620 2845 L
620 2881 L
620 2855 L
620 2806 L
620 2808 L
620 2695 L
620 2879 L
620 2872 L
620 2540 L
620 2835 L
620 2753 L
620 2858 L
620 2785 L
620 2825 L
620 2924 L
620 2838 L
620 2726 L
620 2668 L
620 2824 L
620 2853 L
620 2687 L
620 2666 L
620 2840 L
620 2888 L
620 2696 L
620 2872 L
620 2807 L
620 2670 L
620 2823 L
620 2829 L
620 3116 L
620 2782 L
620 2772 L
620 2895 L
620 2742 L
620 2836 L
620 2933 L
620 2851 L
620 2849 L
620 2726 L
620 2832 L
620 2872 L
620 2830 L
620 2747 L
620 2729 L
620 2797 L
620 2763 L
L2 C04 COSGR

%
%================
% Legend - Begin
%================
%
GSN 4240 5180 M
4480 5180 L
LWMC SL  C04 COSGR
GSN 4540 5141 M helvM (2.0 uM) show grestore
%
%================
% Legend - End
%================
%

%
% Main frame
%
L10
GSN 
620 1700 M
4220 1700 L
4220 5300 L
620 5300 L
closepath SGR

%
% X axis: large tics
%
L10
%
% X axis: small tics
%
L5
%
% Y axis: large tics
%
L10
GSN 620 2031 M 54 0 rL SGR
GSN 4220 2031 M -54 0 rL SGR
helvS (-0.025) 560 2031 ylabel
GSN 620 2926 M 54 0 rL SGR
GSN 4220 2926 M -54 0 rL SGR
helvS (0) 560 2926 ylabel
GSN 620 3821 M 54 0 rL SGR
GSN 4220 3821 M -54 0 rL SGR
helvS (0.025) 560 3821 ylabel
GSN 620 4716 M 54 0 rL SGR
GSN 4220 4716 M -54 0 rL SGR
helvS (0.05) 560 4716 ylabel
%
% Y axis: small tics
%
L5
GSN 620 1852 M 36 0 rL SGR
GSN 4220 1852 M -36 0 rL SGR
GSN 620 2300 M 36 0 rL SGR
GSN 4220 2300 M -36 0 rL SGR
GSN 620 2747 M 36 0 rL SGR
GSN 4220 2747 M -36 0 rL SGR
GSN 620 3195 M 36 0 rL SGR
GSN 4220 3195 M -36 0 rL SGR
GSN 620 3642 M 36 0 rL SGR
GSN 4220 3642 M -36 0 rL SGR
GSN 620 4089 M 36 0 rL SGR
GSN 4220 4089 M -36 0 rL SGR
GSN 620 4537 M 36 0 rL SGR
GSN 4220 4537 M -36 0 rL SGR
GSN 620 4984 M 36 0 rL SGR
GSN 4220 4984 M -36 0 rL SGR

%
% X axis - residual panel
%
GSN L5 620 2926 M 4220 2926 L SDA G50 SGR

%
% X-Axis label:
%
gsave 620 1370 M 
[
[(Helvetica) 180 0 true true 0 (t)]
[(Helvetica) 180 0 true true 0 (i)]
[(Helvetica) 180 0 true true 0 (m)]
[(Helvetica) 180 0 true true 0 (e)]
] 0 MCshow grestore

%
% Y-Axis label:
%
gsave 234 3499 M 
currentpoint gsave translate 90 rotate 0 0 moveto
[
[(Helvetica) 180 0 true true 0 (r)]
[(Helvetica) 180 0 true true 0 (e)]
[(Helvetica) 180 0 true true 0 (s)]
[(Helvetica) 180 0 true true 0 (i)]
[(Helvetica) 180 0 true true 0 (d)]
[(Helvetica) 180 0 true true 0 (u)]
[(Helvetica) 180 0 true true 0 (a)]
[(Helvetica) 180 0 true true 0 (l)]
[(Helvetica) 180 0 true true 0 (s)]
] 0 MCshow grestore

end
showpage
%%Trailer
%%EOF
