%!PS-Adobe-3.0 EPSF-3.0
%%BoundingBox: 0 0 514 550
%%Creator: BioKin Ltd.
%%DocumentFonts: Symbol Helvetica
%%EndComments
%
/bkdict 256 dict def
bkdict begin
/M {moveto} def 
/R {rmoveto} def
/L {lineto} def
/rL {rlineto} def
/GSN {gsave newpath} def
/SGR {stroke grestore} def
/COSGR {gsave setrgbcolor stroke grestore grestore} def
/SL {setlinewidth} def
/LWMB {12} def             % line width - model curves, black & white
/LWMC {10} def             % line width - model curves, color
/L2 {2.5 setlinewidth} def
/L5 {5 setlinewidth} def
/L10 {10 setlinewidth} def
/G50 {0.5 setgray} def
/SDA {[10  20] 0 setdash} def % axes
/helvT {/Helvetica findfont 100 scalefont setfont} def % tiny
/helvS {/Helvetica findfont 125 scalefont setfont} def % small
/helvM {/Helvetica findfont 150 scalefont setfont} def % medium
/helvL {/Helvetica findfont 175 scalefont setfont} def % large
/xlabel {gsave M dup
   stringwidth exch -0.5 mul exch rmoveto show grestore} def 
/ylabel {gsave M 90 rotate dup
   stringwidth exch -0.5 mul exch rmoveto show grestore} def
/ylabelresid {gsave M dup
   stringwidth exch -1 mul exch rmoveto show grestore} def
% ======
% Shapes
% ======
% Circle:
/Circ {0 360 arc closepath} def
%
% Square:
/Squa {dup dup -0.5 mul dup dup R -2 mul 0 exch rL 1 mul 0 rL dup 0 exch -1 mul rL closepath} def
%
% Triangle Up:
/TriU {dup dup dup -0.4 mul exch -0.5 mul exch R dup 0.5 mul exch rL dup -1 mul exch 0.5 mul exch rL closepath} def 
%
% Triangle Down:
/TriD {dup dup dup 0.4 mul exch -0.5 mul exch R dup 0.5 mul exch -1 mul rL dup 0.5 mul exch rL closepath} def 
%
% Diamond:
/Diam {45 rotate Squa} def
% ======
% Fills
% ======
/GRF {gsave setgray fill grestore} def                    % gray-level Fill
/COF {gsave setrgbcolor fill grestore} def                % color fill
% ======
% Colors
% ======
/C01 {1.00	0.00	0.00} def      % Red
/C02 {0.00	0.00	1.00} def      % Blue
/C03 {0.00	0.39	0.00} def      % Dark Green
/C04 {0.78	0.08	0.52} def      % Medium Violet Red
/C05 {0.55	0.27	0.07} def      % Saddle Brown
/C06 {0.10	0.70	0.70} def      % (cyan)
/C07 {1.00	0.55	0.00} def      % Dark Orange
/C08 {0.63	0.13	0.94} def      % Purple
/C09 {0.00	0.75	1.00} def      % Deep Sky Blue
/C10 {0.20	0.80	0.20} def      % Lime Green
/C11 {0.47	0.53	0.60} def      % Light Slate Gray
/C12 {0.00	0.00	0.00} def      % Black            % or: {0.19	0.31	0.31} def      % Dark Slate Gray
%
/LGR {0.75} def % light gray
/DGR {0.33} def % dark gray
%
% =============
% Dash patterns
% =============
/dash01 { [80  20] 0 setdash } def
/dash02 { [40  20] 0 setdash } def
/dash03 { [80  20  10  20] 0 setdash } def
/dash04 { [40  20  10  20] 0 setdash } def
/dash05 { [80  20  10  10  10  20] 0 setdash } def
/dash06 { [40  20  10  10  10  20] 0 setdash } def
/dash07 { [10  10] 0 setdash } def
%
/MFshow {
   { dup 5 get 3 ge
     { 5 get 3 eq {gsave} {grestore} ifelse }
     {dup dup 0 get findfont exch 1 get scalefont setfont
     [ currentpoint ] exch dup 2 get 0 exch R dup 5 get 2 ne {dup dup 6
     get exch 4 get {show} {stringwidth pop 0 R} ifelse }if dup 5 get 0 eq
     {dup 3 get {2 get neg 0 exch R pop} {pop aload pop M} ifelse} {dup 5
     get 1 eq {dup 2 get exch dup 3 get exch 6 get stringwidth pop -2 div
     dup 0 R} {dup 6 get stringwidth pop -2 div 0 R 6 get
     show 2 index {aload pop M neg 3 -1 roll neg R pop pop} {pop pop pop
     pop aload pop M} ifelse }ifelse }ifelse }
     ifelse }
   forall} bind def
/MFwidth {0 exch {dup 3 get{dup dup 0 get findfont exch 1 get scalefont
     setfont 6 get stringwidth pop add} {pop} ifelse} forall} bind def
/MCshow { currentpoint stroke M
  exch dup MFwidth -2 div 3 -1 roll R MFshow } def
%
end
%%EndProlog
bkdict begin
0.1 0.1 scale
%
% Model curves:
%

GSN 753 4293 M
753 4293 L
786 4397 L
820 4501 L
853 4602 L
886 4700 L
920 4791 L
929 4817 L
953 4874 L
986 4947 L
1020 5010 L
1053 5060 L
1086 5099 L
1106 5117 L
1120 5128 L
1153 5147 L
1186 5158 L
1220 5164 L
1253 5166 L
1282 5166 L
1286 5165 L
1319 5163 L
1353 5159 L
1386 5155 L
1419 5149 L
1453 5143 L
1459 5142 L
1486 5137 L
1519 5129 L
1553 5120 L
1586 5111 L
1619 5100 L
1635 5094 L
1653 5087 L
1686 5073 L
1719 5058 L
1753 5040 L
1786 5021 L
1812 5004 L
1819 4999 L
1853 4975 L
1886 4949 L
1919 4919 L
1953 4887 L
1986 4852 L
1988 4850 L
2019 4814 L
2053 4773 L
2086 4728 L
2119 4680 L
2153 4630 L
2165 4611 L
2186 4576 L
2219 4520 L
2253 4461 L
2286 4399 L
2319 4336 L
2341 4293 L
2353 4270 L
2386 4202 L
2419 4132 L
2453 4059 L
2486 3983 L
2518 3908 L
2519 3904 L
2553 3822 L
2586 3735 L
2619 3643 L
2653 3545 L
2686 3443 L
2694 3417 L
2719 3336 L
2753 3225 L
2786 3112 L
2819 2998 L
2853 2885 L
2871 2826 L
2886 2777 L
2919 2675 L
2953 2581 L
2986 2498 L
3019 2428 L
3047 2379 L
3053 2370 L
3086 2325 L
3119 2293 L
3153 2270 L
3186 2256 L
3219 2249 L
3224 2249 L
3253 2247 L
3286 2247 L
3319 2250 L
3353 2255 L
3386 2263 L
3400 2267 L
3419 2276 L
3453 2306 L
3476 2352 L
3486 2384 L
3519 2525 L
3553 2668 L
3577 2742 L
3586 2762 L
3619 2808 L
3653 2827 L
3686 2833 L
3719 2835 L
3753 2835 L
3754 2835 L
3786 2835 L
3819 2835 L
3853 2835 L
3886 2835 L
3919 2835 L
3930 2835 L
3953 2835 L
3986 2835 L
4019 2835 L
4053 2835 L
4086 2835 L
4086 2835 L
LWMC SL  C06 COSGR

%
% Experimental data:
%
GSN 777 4471 M
1388 4311 L
1552 4388 L
1652 5063 L
1723 4545 L
1778 4721 L
1824 4367 L
1863 4528 L
1896 4598 L
1926 4583 L
1952 4601 L
1976 4581 L
1998 4341 L
2019 4437 L
2037 4438 L
2055 4333 L
2071 4523 L
2086 4069 L
2101 4417 L
2115 4434 L
2128 4473 L
2140 4350 L
2152 4254 L
2163 4484 L
2174 4434 L
2184 4353 L
2194 4303 L
2204 4303 L
2213 4340 L
2222 4214 L
2230 4180 L
2239 4260 L
2247 4343 L
2255 4320 L
2262 4313 L
2270 4206 L
2277 4281 L
2284 4164 L
2290 3960 L
2297 4023 L
2303 4042 L
2310 4383 L
2316 4163 L
2322 4197 L
2328 4174 L
2333 3992 L
2339 4093 L
2344 4122 L
2350 3918 L
2355 3886 L
2360 4120 L
2365 4160 L
2370 4173 L
2375 4316 L
2380 4137 L
2384 3969 L
2389 4177 L
2393 3801 L
2398 4083 L
2402 3972 L
2407 3883 L
2411 4025 L
2415 3887 L
2419 4047 L
2423 3955 L
2427 3959 L
2431 3889 L
2435 4072 L
2438 4012 L
2442 3962 L
2446 3910 L
2449 3893 L
2453 3952 L
2456 4027 L
2460 3713 L
2463 3801 L
2467 3912 L
2470 3841 L
2473 3770 L
2476 3890 L
2480 3835 L
2483 3900 L
2486 3758 L
2489 3699 L
2492 3969 L
2495 3671 L
2498 3827 L
2501 3717 L
2504 3664 L
2507 3786 L
2510 3726 L
2512 3843 L
2515 3829 L
2518 3885 L
2521 3736 L
2523 3739 L
2526 3655 L
2529 3796 L
2531 3624 L
2534 3595 L
2536 3777 L
2539 3740 L
2541 3599 L
2544 3899 L
2546 3697 L
2549 3808 L
2551 3614 L
2554 3537 L
2556 3539 L
2558 3640 L
2561 3608 L
2563 3971 L
2565 3747 L
2568 3808 L
2570 3587 L
2572 3560 L
2574 3842 L
2576 3629 L
2579 3671 L
2581 3640 L
2583 3483 L
2585 3452 L
2587 3701 L
2589 3700 L
2591 3546 L
2593 3534 L
2595 3521 L
2597 3613 L
2599 3607 L
2601 3761 L
2603 3758 L
2605 3371 L
2607 3488 L
2609 3479 L
2611 3473 L
2613 3690 L
2615 3673 L
2617 3689 L
2618 3531 L
2620 3477 L
2622 3519 L
2624 3505 L
2626 3370 L
2627 3412 L
2629 3533 L
2631 3504 L
2633 3389 L
2634 3612 L
2636 3386 L
2638 3336 L
2640 3459 L
2641 3518 L
2643 3370 L
2645 3360 L
2646 3435 L
2648 3447 L
2650 3495 L
2651 3287 L
2653 3480 L
2654 3468 L
2656 3453 L
2658 3643 L
2659 3313 L
2661 3270 L
2662 3317 L
2664 3524 L
2665 3271 L
2667 3395 L
2668 3300 L
2670 3403 L
2671 3168 L
2673 3327 L
2674 3357 L
2676 3487 L
2677 3238 L
2679 3519 L
2680 3254 L
2682 3059 L
2683 3180 L
2685 3193 L
2686 3235 L
2687 3224 L
2689 3435 L
2690 3290 L
2692 3169 L
2693 3235 L
2694 3248 L
2696 3370 L
2697 3133 L
2698 3203 L
2700 3158 L
2701 3235 L
2702 3184 L
2704 3126 L
2705 3200 L
2706 3263 L
2708 3028 L
2709 3092 L
2710 3104 L
2712 3283 L
2713 3254 L
2714 3090 L
2715 3355 L
2717 3001 L
2718 3213 L
2719 2997 L
2720 3160 L
2722 3169 L
2723 2999 L
2724 3145 L
2725 3207 L
2726 3009 L
2728 3194 L
2729 3237 L
2730 3249 L
2731 3195 L
2732 3149 L
2734 3166 L
2735 3204 L
2736 2927 L
2737 3036 L
2738 3029 L
2739 3019 L
2741 3241 L
2742 3266 L
2743 3130 L
2744 3118 L
2745 3132 L
2746 2781 L
2747 3001 L
2748 3231 L
2749 3255 L
2751 3071 L
2752 3047 L
2753 2999 L
2754 3203 L
2755 3103 L
2756 3245 L
2757 3065 L
2758 2922 L
2759 2964 L
2760 3066 L
2761 3054 L
2762 3017 L
2763 3163 L
2764 3014 L
2765 2938 L
2767 2929 L
2768 3058 L
2769 2979 L
2770 3032 L
2771 3106 L
2772 2979 L
2773 3083 L
2774 2977 L
2775 2929 L
2776 2874 L
2777 2980 L
2778 3016 L
2779 3029 L
2780 2897 L
2781 2780 L
2782 3043 L
2783 3074 L
2783 2889 L
2784 2995 L
2785 2914 L
2786 2750 L
2787 2879 L
2788 3014 L
2789 3025 L
2790 2949 L
2791 2894 L
2792 3123 L
2793 2838 L
2794 2897 L
2795 2991 L
2796 2872 L
2797 3020 L
2798 2971 L
2798 2807 L
2799 2746 L
2800 2697 L
2801 2942 L
2802 2725 L
2803 2820 L
2804 2848 L
2805 3024 L
2806 2868 L
2807 2959 L
2807 2812 L
2808 2901 L
2809 2864 L
2810 2804 L
2811 2733 L
2812 2995 L
2813 2655 L
2813 2883 L
2814 2711 L
2815 2970 L
2816 2840 L
2817 2949 L
2818 3051 L
2819 2717 L
2819 2788 L
2820 2965 L
2821 2790 L
2822 2692 L
2823 2768 L
2824 2926 L
2824 2962 L
2825 2788 L
2826 2917 L
2827 2862 L
2828 2675 L
2828 2810 L
2829 2931 L
2830 2876 L
2831 2802 L
2832 2735 L
2832 2820 L
2833 2842 L
2834 2732 L
2835 2757 L
2836 2859 L
2836 2705 L
2837 2794 L
2838 2853 L
2839 2735 L
2840 2693 L
2840 2685 L
2841 2569 L
2842 2892 L
2843 2572 L
2843 2692 L
2844 2890 L
2845 2746 L
2846 2706 L
2846 2617 L
2847 2686 L
2848 2804 L
2849 2734 L
2849 2717 L
2850 2845 L
2851 2705 L
2852 2894 L
2852 2767 L
2853 2811 L
2854 2717 L
2855 2757 L
2855 2628 L
2856 2752 L
2857 2935 L
2857 2616 L
2858 2878 L
2859 2737 L
2860 2669 L
2860 2639 L
2861 2782 L
2862 2668 L
2862 2775 L
2863 2783 L
2864 2603 L
2865 2737 L
2865 2875 L
2866 2796 L
2867 2717 L
2867 2538 L
2868 2591 L
2869 2692 L
2869 2757 L
2870 2767 L
2871 2566 L
2871 2628 L
2872 2593 L
2873 2718 L
2873 2633 L
2874 2530 L
2875 2868 L
2876 2743 L
2876 2611 L
2877 2608 L
2878 2851 L
2878 2576 L
2879 2471 L
2880 2609 L
2880 2704 L
2881 2747 L
2881 2767 L
2882 2584 L
2883 2698 L
2883 2713 L
2884 2528 L
2885 2651 L
2885 2466 L
2886 2717 L
2887 2622 L
2887 2522 L
2888 2833 L
2889 2767 L
2889 2746 L
2892 2690 L
2894 2578 L
2897 2566 L
2899 2486 L
2902 2536 L
2904 2695 L
2907 2513 L
2909 2364 L
2911 2537 L
2914 2476 L
2916 2464 L
2918 2599 L
2921 2435 L
2923 2588 L
2925 2447 L
2927 2471 L
2929 2494 L
2932 2471 L
2934 2376 L
2936 2251 L
2938 2464 L
2940 2550 L
2942 2324 L
2944 2127 L
2946 2445 L
2948 2418 L
2950 2246 L
2952 2505 L
2954 2376 L
2956 2511 L
2958 2221 L
2960 2347 L
2962 2288 L
2964 2118 L
2966 2369 L
2968 2274 L
2970 2566 L
2971 2319 L
2973 2288 L
2975 2379 L
2977 2521 L
2979 2370 L
2980 2269 L
2982 2440 L
2984 2324 L
2986 2182 L
2987 2304 L
2989 2247 L
2991 2207 L
2993 2421 L
2994 2346 L
2996 2254 L
2998 2277 L
2999 2167 L
3001 2088 L
3003 2267 L
3004 2312 L
3006 2103 L
3007 2296 L
3009 2355 L
3011 2235 L
3012 2082 L
3014 2115 L
3015 2357 L
3017 2210 L
3018 2200 L
3020 2277 L
3021 2192 L
3023 2211 L
3024 2163 L
3026 2120 L
3027 2385 L
3029 2277 L
3030 2129 L
3032 2059 L
3033 1997 L
3035 2262 L
3036 2136 L
3038 2117 L
3039 2079 L
3040 2182 L
3042 2157 L
3043 2113 L
3045 2054 L
3046 2161 L
3047 2124 L
3049 2289 L
3050 2167 L
3051 2169 L
3053 2122 L
3054 2140 L
3055 2098 L
3057 2061 L
3058 1869 L
3059 2008 L
3061 1952 L
3062 2072 L
3063 2217 L
3065 2041 L
3066 2088 L
3067 2140 L
3068 2212 L
3070 2213 L
3071 2141 L
3072 2131 L
3073 2075 L
3075 2252 L
3076 2110 L
3077 2110 L
3078 2257 L
3079 2114 L
3081 2116 L
3082 2091 L
3083 2153 L
3084 2047 L
3085 2049 L
3087 2237 L
3088 1998 L
3089 1897 L
3090 2121 L
3091 1921 L
3092 2170 L
3094 2075 L
3095 2081 L
3096 2210 L
3097 2089 L
3098 2048 L
3099 1983 L
3100 2084 L
3101 2089 L
3103 2146 L
3104 2075 L
3105 2110 L
3106 1921 L
3107 2121 L
3108 2032 L
3109 2170 L
3110 1911 L
3111 2100 L
3112 2050 L
3113 1885 L
3114 2115 L
3115 2020 L
3116 1929 L
3117 2108 L
3119 2021 L
3120 1978 L
3121 2115 L
3122 2039 L
3123 2059 L
3124 1961 L
3125 2120 L
3126 2103 L
3127 2173 L
3128 2099 L
3129 2141 L
3130 1913 L
3131 2075 L
3132 1999 L
3133 1941 L
3134 2128 L
3135 2079 L
3136 1837 L
3136 1866 L
3137 1873 L
3138 2042 L
3139 2026 L
3140 2115 L
3141 1996 L
3142 1929 L
3143 2074 L
3144 2112 L
3145 1950 L
3146 1928 L
3147 1850 L
3148 2065 L
3149 2039 L
3150 2080 L
3151 1898 L
3151 1970 L
3152 2058 L
3153 2162 L
3154 1963 L
3155 2007 L
3156 1871 L
3157 2007 L
3158 2182 L
3159 2054 L
3160 2003 L
3160 2112 L
3161 2019 L
3162 1890 L
3163 2235 L
3164 1880 L
3165 2057 L
3166 2106 L
3166 1848 L
3167 2090 L
3168 2057 L
3169 2077 L
3170 2152 L
3171 1861 L
3172 2088 L
3172 2130 L
3173 2015 L
3174 1900 L
3175 2230 L
3176 2015 L
3177 1980 L
3177 2132 L
3178 2253 L
3179 2105 L
3180 1954 L
3181 2208 L
3181 2172 L
3182 2202 L
3183 1937 L
3184 2061 L
3185 1871 L
3185 1950 L
3186 2038 L
3187 1885 L
3188 2160 L
3189 2063 L
3189 2038 L
3190 2175 L
3191 2124 L
3192 2083 L
3193 1926 L
3193 2137 L
3194 2123 L
3195 2103 L
3196 2118 L
3196 2085 L
3197 1954 L
3198 2052 L
3199 2078 L
3199 2185 L
3200 1907 L
3201 2242 L
3202 2025 L
3202 1989 L
3203 1876 L
3204 2055 L
3205 2048 L
3205 1923 L
3206 2205 L
3207 2080 L
3208 2039 L
3208 1944 L
3209 1953 L
3210 2370 L
3210 1986 L
3211 2150 L
3212 2184 L
3213 2267 L
3213 1960 L
3214 2100 L
3215 2338 L
3215 2200 L
3216 2126 L
3217 2101 L
3218 1913 L
3218 2226 L
3219 2185 L
3220 2024 L
3220 2217 L
3221 2155 L
3222 2105 L
3222 2075 L
3223 2219 L
3224 2216 L
3224 2172 L
3225 2060 L
3226 1865 L
3227 1949 L
3227 2327 L
3228 2148 L
3229 1908 L
3229 2267 L
3230 1987 L
3231 2324 L
3231 1833 L
3232 2182 L
3233 2098 L
3233 1956 L
3234 2209 L
3235 2082 L
3235 2333 L
3236 2055 L
3236 2251 L
3237 2168 L
3238 2110 L
3238 2030 L
3239 2033 L
3240 2129 L
3240 2152 L
3241 1967 L
3242 2217 L
3242 2264 L
3243 2329 L
3244 1965 L
3244 2003 L
3245 2177 L
3245 2125 L
3246 2053 L
3247 2152 L
3247 2107 L
3248 2223 L
3249 2100 L
3249 2114 L
3250 2063 L
3250 2123 L
3251 2048 L
3252 2385 L
3252 2017 L
3253 2149 L
3253 2079 L
3254 2140 L
3255 2007 L
3255 2218 L
3256 2073 L
3257 2220 L
3257 2177 L
3258 1983 L
3258 2190 L
3259 1954 L
3259 2239 L
3260 2245 L
3261 2118 L
3261 2148 L
3262 2148 L
3262 2086 L
3263 2135 L
3264 2107 L
3264 2204 L
3265 2083 L
3265 2106 L
3266 2088 L
3267 2155 L
3267 2280 L
3268 2119 L
3268 2131 L
3269 2129 L
3269 2082 L
3270 2224 L
3271 1994 L
3271 2289 L
3272 2025 L
3272 1981 L
3273 2087 L
3273 2260 L
3274 1990 L
3275 2267 L
3275 2164 L
3276 2103 L
3276 2317 L
3277 2371 L
3277 2292 L
3278 2272 L
3278 2347 L
3279 2295 L
3280 2063 L
3280 1999 L
3281 2167 L
3281 1893 L
3282 2294 L
3282 1973 L
3283 2176 L
3283 2141 L
3284 2485 L
3284 2040 L
3285 2251 L
3285 2325 L
3286 2076 L
3287 2247 L
3287 2100 L
3288 2288 L
3288 2252 L
3289 2049 L
3289 2202 L
3290 2148 L
3290 2249 L
3291 2210 L
3291 2317 L
3292 2234 L
3292 2330 L
3293 2157 L
3293 2113 L
3294 2188 L
3294 2345 L
3295 2058 L
3295 2195 L
3296 2287 L
3297 2038 L
3297 2174 L
3298 2068 L
3298 2111 L
3299 2321 L
3299 2259 L
3300 2172 L
3300 2225 L
3301 2299 L
3301 2250 L
3302 2100 L
3302 2140 L
3303 2132 L
3303 2090 L
3304 2040 L
3304 2108 L
3305 2117 L
3305 2169 L
3306 2072 L
3306 2322 L
3307 2334 L
3307 2184 L
3308 2298 L
3308 2396 L
3309 2187 L
3309 2167 L
3310 2313 L
3310 2166 L
3311 2098 L
3311 2164 L
3312 2167 L
3312 2284 L
3312 2383 L
3313 2205 L
3313 2219 L
3314 2392 L
3314 2286 L
3315 2450 L
3315 2177 L
3316 2113 L
3316 2244 L
3317 2297 L
3317 2193 L
3318 2058 L
3318 2386 L
3319 2199 L
3319 2282 L
3320 2381 L
3320 2280 L
3321 2200 L
3321 2310 L
3321 2341 L
3322 2076 L
3322 2095 L
3323 2226 L
3323 2354 L
3324 2431 L
3324 2346 L
3325 2307 L
3325 2349 L
3326 2257 L
3326 2342 L
3327 2186 L
3327 2110 L
3327 2409 L
3328 2154 L
3328 2169 L
3329 2160 L
3329 2498 L
3330 2348 L
3330 2248 L
3331 2286 L
3331 2252 L
3332 2304 L
3332 2281 L
3332 2461 L
3333 2354 L
3333 2115 L
3334 2334 L
3334 2223 L
3335 2347 L
3335 2194 L
3336 1985 L
3336 2204 L
3336 2307 L
3337 2154 L
3337 2282 L
3338 2334 L
3338 2212 L
3339 2359 L
3339 2426 L
3339 2273 L
3340 2265 L
3340 2190 L
3341 2384 L
3341 2396 L
3342 2200 L
3342 2404 L
3343 2299 L
3343 1992 L
3343 2250 L
3344 2193 L
3344 2327 L
3345 2195 L
3345 2292 L
3346 2138 L
3346 2286 L
3346 2200 L
3347 2492 L
3347 2430 L
3348 2410 L
3348 2315 L
3348 2377 L
3349 2252 L
3349 2288 L
3350 2424 L
3350 2340 L
3351 2157 L
3351 2283 L
3351 2272 L
3352 2297 L
3352 2111 L
3353 2578 L
3353 2466 L
3353 2502 L
3354 2093 L
3354 2556 L
3355 2284 L
3355 2421 L
3355 2228 L
3356 2413 L
3356 2300 L
3357 2477 L
3357 2242 L
3358 2277 L
3358 2333 L
3358 2456 L
3359 2337 L
3359 2321 L
3360 2431 L
3360 2362 L
3360 2316 L
3361 2481 L
3361 2423 L
3362 2248 L
3362 2529 L
3362 2186 L
3363 2449 L
3363 2455 L
3364 2356 L
3364 2313 L
3364 2327 L
3365 2509 L
3365 2297 L
3365 2249 L
3366 2392 L
3366 2271 L
3367 2195 L
3367 2539 L
3367 2402 L
3368 2484 L
3368 2341 L
3369 2305 L
3369 2310 L
3369 2364 L
3370 2322 L
3370 2286 L
3371 2437 L
3371 2291 L
3371 2381 L
3372 2381 L
3372 2518 L
3372 2376 L
3373 2333 L
3373 2420 L
3374 2333 L
3374 2591 L
3374 2378 L
3375 2490 L
3375 2381 L
3375 2454 L
3376 2419 L
3376 2473 L
3377 2523 L
3377 2431 L
3377 2482 L
3378 2473 L
3378 2421 L
3378 2386 L
3379 2327 L
3379 2384 L
3380 2270 L
3380 2295 L
3380 2460 L
3381 2371 L
3381 2332 L
3381 2569 L
3382 2542 L
3382 2312 L
3383 2391 L
3383 2319 L
3383 2334 L
3384 2511 L
3384 2414 L
3384 2405 L
3385 2340 L
3385 2392 L
3385 2252 L
3386 2349 L
3386 2588 L
3387 2434 L
3387 2387 L
3387 2501 L
3388 2503 L
3388 2366 L
3388 2584 L
3389 2518 L
3389 2465 L
3389 2654 L
3390 2456 L
3390 2415 L
3391 2248 L
3391 2521 L
3391 2384 L
3392 2629 L
3392 2473 L
3392 2282 L
3393 2360 L
3393 2573 L
3393 2434 L
3394 2225 L
3394 2369 L
3394 2515 L
3395 2465 L
3395 2630 L
3395 2508 L
3396 2305 L
3396 2571 L
3396 2573 L
3397 2426 L
3397 2371 L
3398 2641 L
3398 2451 L
3398 2613 L
3399 2615 L
3399 2506 L
3399 2393 L
3400 2537 L
3400 2591 L
3400 2423 L
3401 2435 L
3401 2394 L
3401 2416 L
3402 2476 L
3402 2618 L
3402 2366 L
3403 2466 L
3403 2515 L
3403 2592 L
3404 2528 L
3404 2594 L
3404 2556 L
3405 2558 L
3405 2476 L
3405 2354 L
3406 2575 L
3406 2384 L
3406 2397 L
3407 2352 L
3407 2536 L
3407 2391 L
3408 2526 L
3408 2546 L
3408 2374 L
3409 2551 L
3409 2466 L
3409 2507 L
3410 2544 L
3410 2591 L
3410 2577 L
3411 2534 L
3411 2522 L
3411 2679 L
3412 2538 L
3412 2453 L
3412 2597 L
3413 2643 L
3413 2512 L
3413 2348 L
3414 2486 L
3414 2399 L
3414 2308 L
3415 2441 L
3415 2357 L
3415 2543 L
3416 2567 L
3416 2417 L
3416 2394 L
3417 2574 L
3417 2363 L
3417 2629 L
3417 2500 L
3418 2441 L
3418 2505 L
3418 2585 L
3419 2526 L
3419 2524 L
3419 2352 L
3420 2578 L
3420 2455 L
3420 2491 L
3421 2523 L
3421 2659 L
3421 2419 L
3422 2417 L
3422 2346 L
3422 2579 L
3423 2425 L
3423 2401 L
3423 2467 L
3423 2541 L
3424 2538 L
3424 2590 L
3424 2412 L
3425 2466 L
3425 2359 L
3425 2421 L
3426 2480 L
3426 2473 L
3426 2560 L
3427 2494 L
3427 2596 L
3427 2638 L
3428 2556 L
3428 2653 L
3428 2551 L
3428 2523 L
3429 2354 L
3429 2345 L
3429 2569 L
3430 2541 L
3430 2411 L
3430 2471 L
3431 2494 L
3431 2498 L
3431 2603 L
3431 2649 L
3432 2731 L
3432 2740 L
3432 2611 L
3433 2577 L
3433 2519 L
3433 2513 L
3434 2655 L
3434 2708 L
3434 2432 L
3434 2620 L
3435 2630 L
3435 2687 L
3435 2549 L
3436 2726 L
3436 2528 L
3436 2570 L
3437 2645 L
3437 2625 L
3437 2481 L
3437 2628 L
3438 2589 L
3438 2591 L
3438 2517 L
3439 2461 L
3439 2580 L
3439 2563 L
3440 2523 L
3440 2471 L
3440 2696 L
3440 2395 L
3441 2587 L
3441 2715 L
3441 2603 L
3442 2559 L
3442 2666 L
3442 2598 L
3442 2480 L
3443 2522 L
3443 2538 L
3443 2663 L
3444 2546 L
3444 2603 L
3444 2446 L
3444 2580 L
3445 2521 L
3445 2538 L
3445 2380 L
3446 2635 L
3446 2382 L
3446 2618 L
3446 2436 L
3447 2535 L
3447 2676 L
3447 2449 L
3448 2386 L
3448 2763 L
3448 2744 L
3448 2501 L
3449 2730 L
3449 2612 L
3449 2495 L
3450 2693 L
3450 2490 L
3450 2673 L
3450 2675 L
3451 2509 L
3451 2594 L
3451 2638 L
3452 2623 L
3452 2660 L
3452 2650 L
3452 2733 L
3453 2454 L
3453 2751 L
3453 2661 L
3454 2639 L
3454 2555 L
3454 2438 L
3454 2528 L
3455 2415 L
3455 2357 L
3455 2616 L
3455 2787 L
3456 2465 L
3456 2502 L
3456 2586 L
3457 2708 L
3457 2683 L
3457 2512 L
3457 2629 L
3458 2546 L
3458 2606 L
3458 2649 L
3458 2742 L
3459 2603 L
3459 2663 L
3459 2563 L
3460 2508 L
3460 2638 L
3460 2620 L
3460 2507 L
3461 2681 L
3461 2625 L
3461 2511 L
3461 2779 L
3462 2732 L
3462 2637 L
3462 2558 L
3463 2568 L
3463 2706 L
3463 2305 L
3463 2578 L
3464 2595 L
3464 2693 L
3464 2659 L
3464 2432 L
3465 2484 L
3465 2422 L
3465 2618 L
3465 2720 L
3466 2605 L
3466 2523 L
3466 2454 L
3466 2622 L
3467 2719 L
3467 2709 L
3467 2641 L
3468 2662 L
3468 2449 L
3468 2638 L
3468 2584 L
3469 2767 L
3469 2655 L
3469 2696 L
3469 2640 L
3470 2511 L
3470 2488 L
3470 2621 L
3470 2785 L
3471 2671 L
3471 2503 L
3471 2503 L
3471 2518 L
3472 2603 L
3472 2488 L
3472 2638 L
3472 2375 L
3473 2689 L
3473 2578 L
3473 2599 L
3474 2768 L
3474 2743 L
3474 2639 L
3474 2620 L
3475 2847 L
3475 2756 L
3475 2727 L
3475 2732 L
3476 2668 L
3476 2649 L
3476 2810 L
3476 2539 L
3477 2641 L
3477 2620 L
3477 2626 L
3477 2615 L
3478 2653 L
3478 2661 L
3478 2639 L
3478 2640 L
3479 2491 L
3479 2511 L
3479 2723 L
3479 2673 L
3480 2626 L
3480 2658 L
3480 2638 L
3480 2588 L
3481 2486 L
3481 2653 L
3481 2780 L
3481 2583 L
3482 2647 L
3482 2747 L
3482 2643 L
3482 2507 L
3483 2515 L
3483 2770 L
3483 2678 L
3483 2608 L
3484 2675 L
3484 2644 L
3484 2614 L
3484 2633 L
3485 2459 L
3485 2624 L
3485 2667 L
3485 2937 L
3486 2683 L
3486 2665 L
3486 2656 L
3486 2533 L
3487 2525 L
3487 2768 L
3487 2700 L
3487 2796 L
3488 2617 L
3488 2696 L
3488 2456 L
3488 2737 L
3488 2799 L
3489 2710 L
3489 2380 L
3489 2576 L
3489 2848 L
3490 2677 L
3490 2744 L
3490 2643 L
3490 2648 L
3491 2648 L
3491 2486 L
3491 2695 L
3491 2661 L
3492 2775 L
3492 2516 L
3492 2605 L
3492 2623 L
3493 2623 L
3493 2612 L
3493 2757 L
3493 2719 L
3494 2770 L
3494 2604 L
3494 2697 L
3494 2650 L
3494 2535 L
3495 2727 L
3495 2595 L
3495 2640 L
3495 2568 L
3496 2611 L
3496 2512 L
3496 2673 L
3496 2695 L
3497 2724 L
3497 2816 L
3497 2752 L
3497 2573 L
3498 2700 L
3498 2715 L
3498 2737 L
3498 2577 L
3498 2670 L
3499 2434 L
3499 2677 L
3499 2701 L
3499 2569 L
3500 2673 L
3500 2828 L
3506 2400 L
3511 2693 L
3517 2525 L
3522 2711 L
3527 2715 L
3532 2910 L
3537 2606 L
3542 2775 L
3547 2760 L
3552 2897 L
3557 2855 L
3561 2835 L
3566 2817 L
3570 2914 L
3575 2734 L
3579 2869 L
3583 2835 L
3587 2794 L
3591 2750 L
3595 2704 L
3599 2708 L
3603 3001 L
3607 2859 L
3611 2935 L
3614 2945 L
3618 2631 L
3622 2774 L
3625 2861 L
3629 2905 L
3632 2938 L
3636 2804 L
3639 2869 L
3642 2950 L
3646 2802 L
3649 2840 L
3652 2930 L
3655 2857 L
3658 2770 L
3661 2902 L
3664 2796 L
3667 3122 L
3670 2947 L
3673 2770 L
3676 2947 L
3679 3014 L
3682 2861 L
3685 2945 L
3688 2764 L
3690 2875 L
3693 2881 L
3696 3043 L
3698 2778 L
3701 2778 L
3704 3141 L
3706 2947 L
3709 3014 L
3711 3027 L
3714 2949 L
3716 2828 L
3719 2754 L
3721 3139 L
3724 2718 L
3726 2868 L
3728 2949 L
3731 2915 L
3733 2795 L
3735 3113 L
3738 2800 L
3740 2840 L
3742 2862 L
3744 2976 L
3747 3049 L
3749 2842 L
3751 2862 L
3753 2925 L
3755 2838 L
3757 2883 L
3760 3031 L
3762 2857 L
3764 2898 L
3766 2848 L
3768 2928 L
3770 2810 L
3772 2830 L
3774 2976 L
3776 3044 L
3778 2915 L
3780 2860 L
3781 2951 L
3783 2910 L
3785 2898 L
3787 2973 L
3789 2925 L
3791 2925 L
3793 2841 L
3795 2915 L
3796 2863 L
3798 2789 L
3800 2977 L
3802 2982 L
3803 2945 L
3805 2878 L
3807 2817 L
3809 2987 L
3810 2902 L
3812 2957 L
3814 2950 L
3816 2908 L
3817 2953 L
3819 2917 L
3820 2671 L
3822 2893 L
3824 3007 L
3825 3043 L
3827 2949 L
3829 2886 L
3830 2980 L
3832 2968 L
3833 2930 L
3835 2997 L
3836 3027 L
3838 3171 L
3839 3001 L
3841 3087 L
3842 2913 L
3844 3022 L
3845 3017 L
3847 3029 L
3848 2991 L
3850 2829 L
3851 2842 L
3853 2999 L
3854 2800 L
3856 2947 L
3857 3020 L
3859 2955 L
3860 2948 L
3861 3178 L
3863 2783 L
3864 2897 L
3866 2859 L
3867 2854 L
3868 2932 L
3870 2915 L
3871 3094 L
3872 3004 L
3874 2940 L
3875 2985 L
3876 3106 L
3878 3219 L
3879 2862 L
3880 3011 L
3882 2987 L
3883 2888 L
3884 3020 L
3885 2940 L
3887 2989 L
3888 2897 L
3889 2857 L
3890 2937 L
3892 2902 L
3893 2984 L
3894 3124 L
3895 3022 L
3897 2862 L
3898 3065 L
3899 2597 L
3900 2826 L
3901 2902 L
3903 3078 L
3904 2947 L
3905 2768 L
3906 2884 L
3907 2910 L
3908 2997 L
3910 3098 L
3911 2880 L
3912 3181 L
3913 2989 L
3914 2841 L
3915 2862 L
3917 3015 L
3918 3101 L
3919 2972 L
3920 2914 L
3921 3020 L
3922 2877 L
3923 2977 L
3924 3044 L
3925 2961 L
3926 3004 L
3928 3036 L
3929 3077 L
3930 2819 L
3931 3105 L
3932 3129 L
3933 2987 L
3934 2793 L
3935 3118 L
3936 3151 L
3937 2931 L
3938 2907 L
3939 3163 L
3940 3038 L
3941 2862 L
3942 2894 L
3943 2898 L
3944 3029 L
3945 2770 L
3946 2852 L
3947 2944 L
3948 2826 L
3949 2794 L
3950 2953 L
3951 2898 L
3952 2703 L
3953 2911 L
3954 2905 L
3955 2825 L
3956 3018 L
3957 2823 L
3958 2907 L
3959 2958 L
3960 2930 L
3961 2935 L
3962 3042 L
3963 2805 L
3964 2970 L
3965 2858 L
3966 3053 L
3966 2895 L
3967 2875 L
3968 3116 L
3969 2740 L
3970 3011 L
3971 2785 L
3972 3024 L
3973 2820 L
3974 2891 L
3975 2925 L
3976 3115 L
3976 2866 L
3977 2948 L
3978 3008 L
3979 2935 L
3980 2844 L
3981 3109 L
3982 2883 L
3983 2931 L
3983 2920 L
3984 2979 L
3985 3065 L
3986 3021 L
3987 2957 L
3988 2930 L
3989 2942 L
3989 2980 L
3990 2800 L
3991 2979 L
3992 2940 L
3993 3070 L
3994 2825 L
3995 2842 L
3995 3000 L
3996 2823 L
3997 2833 L
3998 2922 L
3999 2890 L
3999 2856 L
4000 2883 L
4001 2942 L
4002 2828 L
4003 3015 L
4003 2928 L
4004 3174 L
4005 2957 L
4006 2789 L
4007 3161 L
4007 2937 L
4008 2889 L
4009 2890 L
4010 3014 L
4011 2813 L
4011 3044 L
4012 2955 L
4013 2902 L
4014 2860 L
4014 3035 L
4015 3060 L
4016 2800 L
4017 2765 L
4017 2947 L
4018 2847 L
4019 3071 L
4020 2820 L
4021 2882 L
4021 2934 L
4022 2874 L
4023 2930 L
4023 2941 L
4024 3032 L
4025 2933 L
4026 2844 L
4026 3014 L
4027 2876 L
4028 2905 L
4029 2834 L
4029 2912 L
4030 2992 L
4031 2905 L
4032 2897 L
4032 3047 L
4033 3209 L
4034 2946 L
4034 2860 L
4035 3029 L
4036 2706 L
4036 2910 L
4037 2967 L
4038 2950 L
4039 3001 L
4039 2784 L
4040 2948 L
4041 2897 L
4041 3035 L
4042 2991 L
4043 2862 L
4043 2867 L
4044 3016 L
4045 2830 L
4045 2999 L
4046 3005 L
4047 2926 L
4047 2815 L
4048 3162 L
4049 2878 L
4050 2917 L
4050 2937 L
4051 3109 L
4052 2875 L
4052 2952 L
4053 2890 L
4053 2996 L
4054 3056 L
4055 2910 L
4055 2646 L
4056 2969 L
4057 3009 L
4057 2951 L
4058 3005 L
4059 2883 L
4059 3082 L
4060 2945 L
4061 2764 L
4061 2825 L
4062 2987 L
L2 C06 COSGR

%
%================
% Legend - Begin
%================
%
GSN 4240 5180 M
4480 5180 L
LWMC SL  C06 COSGR
GSN 4540 5141 M helvM (3.0 uM) show grestore
%
%================
% Legend - End
%================
%

%
% Residuals:
%
GSN 777 1304 M
1388 750 L
1552 815 L
1652 1229 L
1723 945 L
1778 1065 L
1824 875 L
1863 986 L
1896 1043 L
1926 1050 L
1952 1076 L
1976 1079 L
1998 953 L
2019 1022 L
2037 1036 L
2055 988 L
2071 1111 L
2086 858 L
2101 1074 L
2115 1095 L
2128 1129 L
2140 1068 L
2152 1023 L
2163 1168 L
2174 1149 L
2184 1111 L
2194 1091 L
2204 1101 L
2213 1132 L
2222 1067 L
2230 1056 L
2239 1111 L
2247 1168 L
2255 1163 L
2262 1167 L
2270 1112 L
2277 1164 L
2284 1103 L
2290 991 L
2297 1035 L
2303 1053 L
2310 1260 L
2316 1138 L
2322 1165 L
2328 1158 L
2333 1058 L
2339 1124 L
2344 1147 L
2350 1034 L
2355 1022 L
2360 1165 L
2365 1194 L
2370 1207 L
2375 1296 L
2380 1198 L
2384 1105 L
2389 1232 L
2393 1018 L
2398 1188 L
2402 1128 L
2407 1082 L
2411 1170 L
2415 1094 L
2419 1193 L
2423 1145 L
2427 1152 L
2431 1116 L
2435 1227 L
2438 1198 L
2442 1173 L
2446 1147 L
2449 1142 L
2453 1181 L
2456 1229 L
2460 1050 L
2463 1106 L
2467 1176 L
2470 1138 L
2473 1101 L
2476 1176 L
2480 1148 L
2483 1190 L
2486 1111 L
2489 1081 L
2492 1243 L
2495 1073 L
2498 1168 L
2501 1108 L
2504 1081 L
2507 1156 L
2510 1125 L
2512 1197 L
2515 1193 L
2518 1230 L
2521 1146 L
2523 1152 L
2526 1107 L
2529 1193 L
2531 1096 L
2534 1083 L
2536 1193 L
2539 1175 L
2541 1097 L
2544 1275 L
2546 1161 L
2549 1229 L
2551 1119 L
2554 1078 L
2556 1083 L
2558 1145 L
2561 1130 L
2563 1346 L
2565 1218 L
2568 1258 L
2570 1132 L
2572 1119 L
2574 1288 L
2576 1167 L
2579 1195 L
2581 1180 L
2583 1091 L
2585 1076 L
2587 1225 L
2589 1228 L
2591 1141 L
2593 1137 L
2595 1133 L
2597 1190 L
2599 1190 L
2601 1283 L
2603 1284 L
2605 1061 L
2607 1133 L
2609 1130 L
2611 1130 L
2613 1260 L
2615 1254 L
2617 1266 L
2618 1176 L
2620 1148 L
2622 1176 L
2624 1170 L
2626 1094 L
2627 1122 L
2629 1196 L
2631 1181 L
2633 1117 L
2634 1251 L
2636 1121 L
2638 1095 L
2640 1170 L
2641 1207 L
2643 1123 L
2645 1121 L
2646 1167 L
2648 1178 L
2650 1208 L
2651 1089 L
2653 1205 L
2654 1201 L
2656 1195 L
2658 1309 L
2659 1118 L
2661 1096 L
2662 1126 L
2664 1250 L
2665 1105 L
2667 1181 L
2668 1128 L
2670 1191 L
2671 1056 L
2673 1151 L
2674 1172 L
2676 1251 L
2677 1107 L
2679 1275 L
2680 1122 L
2682 1010 L
2683 1084 L
2685 1094 L
2686 1121 L
2687 1118 L
2689 1244 L
2690 1162 L
2692 1093 L
2693 1134 L
2694 1144 L
2696 1218 L
2697 1082 L
2698 1126 L
2700 1102 L
2701 1150 L
2702 1122 L
2704 1090 L
2705 1136 L
2706 1176 L
2708 1041 L
2709 1081 L
2710 1090 L
2712 1197 L
2713 1183 L
2714 1089 L
2715 1247 L
2717 1042 L
2718 1168 L
2719 1044 L
2720 1142 L
2722 1150 L
2723 1052 L
2724 1140 L
2725 1179 L
2726 1065 L
2728 1176 L
2729 1203 L
2730 1213 L
2731 1183 L
2732 1159 L
2734 1171 L
2735 1196 L
2736 1036 L
2737 1102 L
2738 1100 L
2739 1096 L
2741 1229 L
2742 1245 L
2743 1168 L
2744 1163 L
2745 1174 L
2746 970 L
2747 1101 L
2748 1238 L
2749 1254 L
2751 1149 L
2752 1137 L
2753 1111 L
2754 1232 L
2755 1176 L
2756 1261 L
2757 1158 L
2758 1077 L
2759 1103 L
2760 1165 L
2761 1160 L
2762 1141 L
2763 1228 L
2764 1143 L
2765 1100 L
2767 1097 L
2768 1175 L
2769 1130 L
2770 1164 L
2771 1209 L
2772 1137 L
2773 1199 L
2774 1139 L
2775 1114 L
2776 1083 L
2777 1147 L
2778 1170 L
2779 1180 L
2780 1104 L
2781 1038 L
2782 1194 L
2783 1214 L
2783 1107 L
2784 1172 L
2785 1126 L
2786 1032 L
2787 1109 L
2788 1191 L
2789 1199 L
2790 1156 L
2791 1126 L
2792 1262 L
2793 1097 L
2794 1133 L
2795 1190 L
2796 1122 L
2797 1211 L
2798 1184 L
2798 1090 L
2799 1056 L
2800 1029 L
2801 1174 L
2802 1049 L
2803 1106 L
2804 1124 L
2805 1229 L
2806 1140 L
2807 1195 L
2807 1110 L
2808 1164 L
2809 1145 L
2810 1111 L
2811 1071 L
2812 1226 L
2813 1029 L
2813 1164 L
2814 1065 L
2815 1219 L
2816 1144 L
2817 1210 L
2818 1271 L
2819 1077 L
2819 1121 L
2820 1226 L
2821 1125 L
2822 1069 L
2823 1115 L
2824 1209 L
2824 1232 L
2825 1132 L
2826 1209 L
2827 1179 L
2828 1071 L
2828 1151 L
2829 1224 L
2830 1193 L
2831 1151 L
2832 1114 L
2832 1165 L
2833 1179 L
2834 1117 L
2835 1133 L
2836 1194 L
2836 1106 L
2837 1159 L
2838 1195 L
2839 1128 L
2840 1105 L
2840 1101 L
2841 1035 L
2842 1226 L
2843 1040 L
2843 1112 L
2844 1229 L
2845 1146 L
2846 1124 L
2846 1074 L
2847 1116 L
2848 1186 L
2849 1147 L
2849 1138 L
2850 1215 L
2851 1134 L
2852 1246 L
2852 1173 L
2853 1200 L
2854 1147 L
2855 1172 L
2855 1097 L
2856 1171 L
2857 1280 L
2857 1095 L
2858 1249 L
2859 1168 L
2860 1130 L
2860 1114 L
2861 1199 L
2862 1133 L
2862 1198 L
2863 1204 L
2864 1099 L
2865 1179 L
2865 1261 L
2866 1217 L
2867 1172 L
2867 1068 L
2868 1101 L
2869 1161 L
2869 1200 L
2870 1207 L
2871 1091 L
2871 1129 L
2872 1110 L
2873 1184 L
2873 1135 L
2874 1077 L
2875 1276 L
2876 1204 L
2876 1128 L
2877 1128 L
2878 1271 L
2878 1111 L
2879 1051 L
2880 1133 L
2880 1190 L
2881 1216 L
2881 1229 L
2882 1123 L
2883 1191 L
2883 1201 L
2884 1094 L
2885 1167 L
2885 1060 L
2886 1208 L
2887 1154 L
2887 1097 L
2888 1280 L
2889 1243 L
2889 1232 L
2892 1204 L
2894 1143 L
2897 1140 L
2899 1097 L
2902 1131 L
2904 1229 L
2907 1127 L
2909 1044 L
2911 1149 L
2914 1117 L
2916 1114 L
2918 1197 L
2921 1105 L
2923 1199 L
2925 1120 L
2927 1137 L
2929 1155 L
2932 1145 L
2934 1093 L
2936 1023 L
2938 1151 L
2940 1205 L
2942 1076 L
2944 964 L
2946 1153 L
2948 1141 L
2950 1043 L
2952 1198 L
2954 1126 L
2956 1208 L
2958 1041 L
2960 1118 L
2962 1086 L
2964 989 L
2966 1139 L
2968 1087 L
2970 1260 L
2971 1118 L
2973 1102 L
2975 1158 L
2977 1244 L
2979 1158 L
2980 1102 L
2982 1204 L
2984 1139 L
2986 1058 L
2987 1131 L
2989 1101 L
2991 1079 L
2993 1207 L
2994 1165 L
2996 1114 L
2998 1129 L
2999 1067 L
3001 1023 L
3003 1130 L
3004 1158 L
3006 1038 L
3007 1152 L
3009 1189 L
3011 1120 L
3012 1033 L
3014 1054 L
3015 1197 L
3017 1113 L
3018 1109 L
3020 1156 L
3021 1108 L
3023 1120 L
3024 1094 L
3026 1070 L
3027 1227 L
3029 1166 L
3030 1080 L
3032 1041 L
3033 1006 L
3035 1163 L
3036 1091 L
3038 1081 L
3039 1060 L
3040 1122 L
3042 1109 L
3043 1084 L
3045 1051 L
3046 1115 L
3047 1094 L
3049 1192 L
3050 1122 L
3051 1124 L
3053 1098 L
3054 1110 L
3055 1086 L
3057 1066 L
3058 955 L
3059 1037 L
3061 1006 L
3062 1077 L
3063 1163 L
3065 1061 L
3066 1090 L
3067 1121 L
3068 1164 L
3070 1166 L
3071 1125 L
3072 1120 L
3073 1088 L
3075 1192 L
3076 1110 L
3077 1111 L
3078 1198 L
3079 1115 L
3081 1117 L
3082 1103 L
3083 1141 L
3084 1079 L
3085 1081 L
3087 1192 L
3088 1053 L
3089 995 L
3090 1127 L
3091 1010 L
3092 1157 L
3094 1102 L
3095 1106 L
3096 1182 L
3097 1112 L
3098 1089 L
3099 1051 L
3100 1111 L
3101 1115 L
3103 1149 L
3104 1108 L
3105 1129 L
3106 1019 L
3107 1137 L
3108 1085 L
3109 1167 L
3110 1016 L
3111 1126 L
3112 1098 L
3113 1002 L
3114 1137 L
3115 1082 L
3116 1029 L
3117 1134 L
3119 1084 L
3120 1060 L
3121 1140 L
3122 1096 L
3123 1108 L
3124 1052 L
3125 1145 L
3126 1136 L
3127 1177 L
3128 1134 L
3129 1159 L
3130 1026 L
3131 1121 L
3132 1077 L
3133 1043 L
3134 1154 L
3135 1125 L
3136 984 L
3136 1001 L
3137 1006 L
3138 1105 L
3139 1096 L
3140 1148 L
3141 1079 L
3142 1040 L
3143 1125 L
3144 1148 L
3145 1054 L
3146 1041 L
3147 996 L
3148 1122 L
3149 1107 L
3150 1131 L
3151 1025 L
3151 1067 L
3152 1119 L
3153 1180 L
3154 1064 L
3155 1090 L
3156 1011 L
3157 1091 L
3158 1194 L
3159 1119 L
3160 1089 L
3160 1153 L
3161 1099 L
3162 1024 L
3163 1226 L
3164 1018 L
3165 1122 L
3166 1151 L
3166 1000 L
3167 1142 L
3168 1123 L
3169 1135 L
3170 1179 L
3171 1009 L
3172 1142 L
3172 1167 L
3173 1100 L
3174 1033 L
3175 1226 L
3176 1100 L
3177 1080 L
3177 1169 L
3178 1240 L
3179 1154 L
3180 1065 L
3181 1214 L
3181 1194 L
3182 1211 L
3183 1056 L
3184 1129 L
3185 1018 L
3185 1064 L
3186 1116 L
3187 1026 L
3188 1187 L
3189 1131 L
3189 1116 L
3190 1197 L
3191 1167 L
3192 1143 L
3193 1051 L
3193 1175 L
3194 1166 L
3195 1155 L
3196 1164 L
3196 1145 L
3197 1068 L
3198 1126 L
3199 1141 L
3199 1204 L
3200 1041 L
3201 1237 L
3202 1111 L
3202 1090 L
3203 1023 L
3204 1129 L
3205 1124 L
3205 1051 L
3206 1217 L
3207 1144 L
3208 1119 L
3208 1064 L
3209 1070 L
3210 1313 L
3210 1089 L
3211 1185 L
3212 1205 L
3213 1254 L
3213 1074 L
3214 1156 L
3215 1295 L
3215 1214 L
3216 1171 L
3217 1157 L
3218 1047 L
3218 1230 L
3219 1206 L
3220 1112 L
3220 1225 L
3221 1188 L
3222 1160 L
3222 1142 L
3223 1226 L
3224 1224 L
3224 1199 L
3225 1133 L
3226 1019 L
3227 1069 L
3227 1289 L
3228 1185 L
3229 1045 L
3229 1254 L
3230 1091 L
3231 1288 L
3231 1001 L
3232 1205 L
3233 1156 L
3233 1073 L
3234 1221 L
3235 1147 L
3235 1294 L
3236 1131 L
3236 1246 L
3237 1197 L
3238 1163 L
3238 1117 L
3239 1118 L
3240 1174 L
3240 1188 L
3241 1080 L
3242 1226 L
3242 1253 L
3243 1292 L
3244 1078 L
3244 1101 L
3245 1203 L
3245 1172 L
3246 1130 L
3247 1188 L
3247 1162 L
3248 1230 L
3249 1158 L
3249 1166 L
3250 1136 L
3250 1171 L
3251 1127 L
3252 1324 L
3252 1109 L
3253 1186 L
3253 1145 L
3254 1181 L
3255 1103 L
3255 1227 L
3256 1142 L
3257 1228 L
3257 1203 L
3258 1090 L
3258 1211 L
3259 1072 L
3259 1239 L
3260 1242 L
3261 1168 L
3261 1186 L
3262 1186 L
3262 1150 L
3263 1178 L
3264 1162 L
3264 1219 L
3265 1148 L
3265 1161 L
3266 1151 L
3267 1190 L
3267 1263 L
3268 1169 L
3268 1176 L
3269 1175 L
3269 1147 L
3270 1230 L
3271 1096 L
3271 1268 L
3272 1114 L
3272 1088 L
3273 1150 L
3273 1251 L
3274 1093 L
3275 1256 L
3275 1195 L
3276 1159 L
3276 1285 L
3277 1316 L
3277 1270 L
3278 1258 L
3278 1302 L
3279 1272 L
3280 1136 L
3280 1099 L
3281 1197 L
3281 1037 L
3282 1271 L
3282 1083 L
3283 1202 L
3283 1181 L
3284 1383 L
3284 1123 L
3285 1246 L
3285 1289 L
3286 1143 L
3287 1244 L
3287 1157 L
3288 1267 L
3288 1246 L
3289 1127 L
3289 1217 L
3290 1185 L
3290 1245 L
3291 1222 L
3291 1284 L
3292 1235 L
3292 1292 L
3293 1191 L
3293 1165 L
3294 1209 L
3294 1300 L
3295 1132 L
3295 1212 L
3296 1266 L
3297 1121 L
3297 1200 L
3298 1138 L
3298 1163 L
3299 1286 L
3299 1250 L
3300 1199 L
3300 1230 L
3301 1273 L
3301 1245 L
3302 1156 L
3302 1180 L
3303 1175 L
3303 1151 L
3304 1122 L
3304 1161 L
3305 1166 L
3305 1197 L
3306 1140 L
3306 1286 L
3307 1293 L
3307 1205 L
3308 1272 L
3308 1329 L
3309 1207 L
3309 1195 L
3310 1281 L
3310 1195 L
3311 1155 L
3311 1194 L
3312 1195 L
3312 1264 L
3312 1322 L
3313 1217 L
3313 1226 L
3314 1327 L
3314 1265 L
3315 1361 L
3315 1201 L
3316 1164 L
3316 1240 L
3317 1271 L
3317 1210 L
3318 1131 L
3318 1323 L
3319 1213 L
3319 1262 L
3320 1320 L
3320 1261 L
3321 1214 L
3321 1278 L
3321 1296 L
3322 1141 L
3322 1152 L
3323 1229 L
3323 1304 L
3324 1349 L
3324 1299 L
3325 1276 L
3325 1301 L
3326 1247 L
3326 1296 L
3327 1205 L
3327 1161 L
3327 1336 L
3328 1187 L
3328 1195 L
3329 1190 L
3329 1388 L
3330 1300 L
3330 1241 L
3331 1264 L
3331 1244 L
3332 1274 L
3332 1260 L
3332 1366 L
3333 1303 L
3333 1164 L
3334 1292 L
3334 1226 L
3335 1299 L
3335 1209 L
3336 1087 L
3336 1215 L
3336 1276 L
3337 1186 L
3337 1261 L
3338 1291 L
3338 1220 L
3339 1305 L
3339 1345 L
3339 1255 L
3340 1251 L
3340 1206 L
3341 1320 L
3341 1327 L
3342 1212 L
3342 1331 L
3343 1270 L
3343 1090 L
3343 1241 L
3344 1208 L
3344 1286 L
3345 1209 L
3345 1266 L
3346 1176 L
3346 1262 L
3346 1212 L
3347 1383 L
3347 1346 L
3348 1335 L
3348 1279 L
3348 1315 L
3349 1242 L
3349 1263 L
3350 1343 L
3350 1293 L
3351 1187 L
3351 1260 L
3351 1254 L
3352 1268 L
3352 1159 L
3353 1433 L
3353 1367 L
3353 1388 L
3354 1149 L
3354 1419 L
3355 1260 L
3355 1340 L
3355 1227 L
3356 1335 L
3356 1269 L
3357 1373 L
3357 1236 L
3358 1256 L
3358 1288 L
3358 1361 L
3359 1291 L
3359 1281 L
3360 1346 L
3360 1305 L
3360 1278 L
3361 1375 L
3361 1341 L
3362 1238 L
3362 1403 L
3362 1202 L
3363 1356 L
3363 1359 L
3364 1301 L
3364 1276 L
3364 1284 L
3365 1391 L
3365 1267 L
3365 1239 L
3366 1322 L
3366 1251 L
3367 1206 L
3367 1408 L
3367 1328 L
3368 1375 L
3368 1292 L
3369 1271 L
3369 1274 L
3369 1305 L
3370 1280 L
3370 1259 L
3371 1348 L
3371 1262 L
3371 1315 L
3372 1315 L
3372 1395 L
3372 1312 L
3373 1287 L
3373 1337 L
3374 1286 L
3374 1437 L
3374 1313 L
3375 1378 L
3375 1314 L
3375 1357 L
3376 1337 L
3376 1368 L
3377 1397 L
3377 1343 L
3377 1373 L
3378 1368 L
3378 1337 L
3378 1317 L
3379 1282 L
3379 1316 L
3380 1249 L
3380 1263 L
3380 1360 L
3381 1308 L
3381 1285 L
3381 1423 L
3382 1408 L
3382 1273 L
3383 1319 L
3383 1277 L
3383 1286 L
3384 1389 L
3384 1332 L
3384 1327 L
3385 1289 L
3385 1319 L
3385 1238 L
3386 1294 L
3386 1434 L
3387 1343 L
3387 1316 L
3387 1383 L
3388 1384 L
3388 1304 L
3388 1431 L
3389 1392 L
3389 1361 L
3389 1472 L
3390 1356 L
3390 1332 L
3391 1234 L
3391 1394 L
3391 1314 L
3392 1457 L
3392 1365 L
3392 1254 L
3393 1299 L
3393 1424 L
3393 1342 L
3394 1220 L
3394 1305 L
3394 1390 L
3395 1360 L
3395 1457 L
3395 1386 L
3396 1267 L
3396 1422 L
3396 1423 L
3397 1337 L
3397 1305 L
3398 1463 L
3398 1352 L
3398 1446 L
3399 1448 L
3399 1384 L
3399 1317 L
3400 1402 L
3400 1433 L
3400 1335 L
3401 1342 L
3401 1317 L
3401 1330 L
3402 1365 L
3402 1449 L
3402 1301 L
3403 1359 L
3403 1388 L
3403 1433 L
3404 1395 L
3404 1434 L
3404 1411 L
3405 1413 L
3405 1364 L
3405 1293 L
3406 1422 L
3406 1311 L
3406 1318 L
3407 1291 L
3407 1399 L
3407 1314 L
3408 1393 L
3408 1405 L
3408 1304 L
3409 1407 L
3409 1358 L
3409 1382 L
3410 1403 L
3410 1431 L
3410 1422 L
3411 1397 L
3411 1390 L
3411 1482 L
3412 1399 L
3412 1349 L
3412 1434 L
3413 1460 L
3413 1384 L
3413 1288 L
3414 1369 L
3414 1317 L
3414 1264 L
3415 1342 L
3415 1293 L
3415 1401 L
3416 1415 L
3416 1327 L
3416 1314 L
3417 1419 L
3417 1295 L
3417 1451 L
3417 1375 L
3418 1341 L
3418 1378 L
3418 1425 L
3419 1390 L
3419 1389 L
3419 1288 L
3420 1421 L
3420 1348 L
3420 1369 L
3421 1388 L
3421 1467 L
3421 1327 L
3422 1326 L
3422 1284 L
3422 1420 L
3423 1330 L
3423 1316 L
3423 1354 L
3423 1398 L
3424 1395 L
3424 1426 L
3424 1322 L
3425 1353 L
3425 1291 L
3425 1327 L
3426 1361 L
3426 1357 L
3426 1407 L
3427 1369 L
3427 1428 L
3427 1453 L
3428 1405 L
3428 1461 L
3428 1401 L
3428 1385 L
3429 1286 L
3429 1281 L
3429 1412 L
3430 1395 L
3430 1319 L
3430 1354 L
3431 1367 L
3431 1370 L
3431 1430 L
3431 1457 L
3432 1505 L
3432 1511 L
3432 1435 L
3433 1415 L
3433 1381 L
3433 1377 L
3434 1460 L
3434 1491 L
3434 1329 L
3434 1439 L
3435 1445 L
3435 1478 L
3435 1397 L
3436 1501 L
3436 1384 L
3436 1409 L
3437 1453 L
3437 1441 L
3437 1356 L
3437 1442 L
3438 1419 L
3438 1420 L
3438 1377 L
3439 1344 L
3439 1413 L
3439 1404 L
3440 1380 L
3440 1349 L
3440 1481 L
3440 1304 L
3441 1416 L
3441 1491 L
3441 1425 L
3442 1400 L
3442 1462 L
3442 1422 L
3442 1353 L
3443 1377 L
3443 1386 L
3443 1459 L
3444 1391 L
3444 1424 L
3444 1332 L
3444 1410 L
3445 1375 L
3445 1385 L
3445 1293 L
3446 1441 L
3446 1293 L
3446 1431 L
3446 1324 L
3447 1382 L
3447 1465 L
3447 1332 L
3448 1294 L
3448 1515 L
3448 1503 L
3448 1361 L
3449 1495 L
3449 1426 L
3449 1357 L
3450 1472 L
3450 1354 L
3450 1461 L
3450 1462 L
3451 1364 L
3451 1414 L
3451 1439 L
3452 1430 L
3452 1452 L
3452 1446 L
3452 1493 L
3453 1330 L
3453 1504 L
3453 1451 L
3454 1438 L
3454 1388 L
3454 1320 L
3454 1372 L
3455 1306 L
3455 1271 L
3455 1423 L
3455 1523 L
3456 1334 L
3456 1355 L
3456 1404 L
3457 1475 L
3457 1460 L
3457 1360 L
3457 1428 L
3458 1379 L
3458 1415 L
3458 1439 L
3458 1493 L
3459 1412 L
3459 1447 L
3459 1388 L
3460 1356 L
3460 1431 L
3460 1420 L
3460 1354 L
3461 1456 L
3461 1423 L
3461 1355 L
3461 1512 L
3462 1484 L
3462 1428 L
3462 1382 L
3463 1387 L
3463 1468 L
3463 1233 L
3463 1393 L
3464 1402 L
3464 1459 L
3464 1439 L
3464 1306 L
3465 1336 L
3465 1299 L
3465 1414 L
3465 1473 L
3466 1405 L
3466 1357 L
3466 1316 L
3466 1414 L
3467 1471 L
3467 1464 L
3467 1425 L
3468 1436 L
3468 1312 L
3468 1421 L
3468 1390 L
3469 1496 L
3469 1431 L
3469 1454 L
3469 1421 L
3470 1345 L
3470 1331 L
3470 1409 L
3470 1505 L
3471 1437 L
3471 1339 L
3471 1339 L
3471 1347 L
3472 1396 L
3472 1328 L
3472 1416 L
3472 1262 L
3473 1445 L
3473 1380 L
3473 1392 L
3474 1490 L
3474 1475 L
3474 1414 L
3474 1402 L
3475 1534 L
3475 1481 L
3475 1464 L
3475 1466 L
3476 1429 L
3476 1417 L
3476 1511 L
3476 1352 L
3477 1411 L
3477 1399 L
3477 1401 L
3477 1395 L
3478 1416 L
3478 1421 L
3478 1407 L
3478 1408 L
3479 1320 L
3479 1331 L
3479 1455 L
3479 1425 L
3480 1397 L
3480 1415 L
3480 1403 L
3480 1373 L
3481 1314 L
3481 1410 L
3481 1484 L
3481 1369 L
3482 1406 L
3482 1464 L
3482 1403 L
3482 1323 L
3483 1327 L
3483 1475 L
3483 1421 L
3483 1380 L
3484 1418 L
3484 1400 L
3484 1382 L
3484 1393 L
3485 1290 L
3485 1386 L
3485 1411 L
3485 1569 L
3486 1419 L
3486 1409 L
3486 1403 L
3486 1330 L
3487 1325 L
3487 1467 L
3487 1427 L
3487 1482 L
3488 1377 L
3488 1423 L
3488 1282 L
3488 1445 L
3488 1481 L
3489 1429 L
3489 1235 L
3489 1350 L
3489 1508 L
3490 1407 L
3490 1446 L
3490 1387 L
3490 1389 L
3491 1389 L
3491 1293 L
3491 1415 L
3491 1395 L
3492 1461 L
3492 1309 L
3492 1360 L
3492 1370 L
3493 1369 L
3493 1363 L
3493 1447 L
3493 1424 L
3494 1453 L
3494 1356 L
3494 1410 L
3494 1382 L
3494 1314 L
3495 1426 L
3495 1348 L
3495 1374 L
3495 1331 L
3496 1355 L
3496 1297 L
3496 1391 L
3496 1403 L
3497 1419 L
3497 1473 L
3497 1435 L
3497 1330 L
3498 1403 L
3498 1412 L
3498 1424 L
3498 1330 L
3498 1383 L
3499 1245 L
3499 1386 L
3499 1400 L
3499 1322 L
3500 1383 L
3500 1473 L
3506 1208 L
3511 1364 L
3517 1251 L
3522 1345 L
3527 1334 L
3532 1434 L
3537 1243 L
3542 1330 L
3547 1310 L
3552 1379 L
3557 1344 L
3561 1324 L
3566 1305 L
3570 1354 L
3575 1243 L
3579 1315 L
3583 1290 L
3587 1261 L
3591 1231 L
3595 1200 L
3599 1199 L
3603 1367 L
3607 1281 L
3611 1323 L
3614 1327 L
3618 1140 L
3622 1222 L
3625 1272 L
3629 1296 L
3632 1314 L
3636 1234 L
3639 1271 L
3642 1318 L
3646 1230 L
3649 1252 L
3652 1304 L
3655 1261 L
3658 1209 L
3661 1286 L
3664 1224 L
3667 1414 L
3670 1312 L
3673 1208 L
3676 1311 L
3679 1350 L
3682 1260 L
3685 1309 L
3688 1203 L
3690 1268 L
3693 1271 L
3696 1366 L
3698 1211 L
3701 1211 L
3704 1423 L
3706 1309 L
3709 1349 L
3711 1356 L
3714 1310 L
3716 1239 L
3719 1196 L
3721 1422 L
3724 1175 L
3726 1263 L
3728 1310 L
3731 1290 L
3733 1220 L
3735 1406 L
3738 1223 L
3740 1246 L
3742 1260 L
3744 1326 L
3747 1368 L
3749 1247 L
3751 1259 L
3753 1296 L
3755 1245 L
3757 1272 L
3760 1358 L
3762 1257 L
3764 1280 L
3766 1251 L
3768 1298 L
3770 1229 L
3772 1241 L
3774 1326 L
3776 1366 L
3778 1290 L
3780 1258 L
3781 1311 L
3783 1287 L
3785 1280 L
3787 1324 L
3789 1296 L
3791 1296 L
3793 1247 L
3795 1290 L
3796 1260 L
3798 1216 L
3800 1327 L
3802 1330 L
3803 1308 L
3805 1269 L
3807 1233 L
3809 1332 L
3810 1282 L
3812 1315 L
3814 1311 L
3816 1286 L
3817 1312 L
3819 1291 L
3820 1147 L
3822 1277 L
3824 1344 L
3825 1365 L
3827 1310 L
3829 1273 L
3830 1328 L
3832 1321 L
3833 1299 L
3835 1338 L
3836 1356 L
3838 1440 L
3839 1340 L
3841 1391 L
3842 1289 L
3844 1352 L
3845 1350 L
3847 1357 L
3848 1335 L
3850 1240 L
3851 1247 L
3853 1340 L
3854 1223 L
3856 1309 L
3857 1352 L
3859 1314 L
3860 1309 L
3861 1444 L
3863 1213 L
3864 1279 L
3866 1257 L
3867 1254 L
3868 1300 L
3870 1290 L
3871 1395 L
3872 1342 L
3874 1305 L
3875 1331 L
3876 1402 L
3878 1468 L
3879 1259 L
3880 1346 L
3882 1332 L
3883 1274 L
3884 1352 L
3885 1305 L
3887 1334 L
3888 1279 L
3889 1256 L
3890 1303 L
3892 1282 L
3893 1331 L
3894 1413 L
3895 1353 L
3897 1259 L
3898 1378 L
3899 1104 L
3900 1238 L
3901 1282 L
3903 1385 L
3904 1309 L
3905 1204 L
3906 1272 L
3907 1287 L
3908 1338 L
3910 1397 L
3911 1269 L
3912 1446 L
3913 1333 L
3914 1247 L
3915 1259 L
3917 1349 L
3918 1399 L
3919 1323 L
3920 1289 L
3921 1352 L
3922 1268 L
3923 1326 L
3924 1366 L
3925 1317 L
3926 1342 L
3928 1361 L
3929 1385 L
3930 1234 L
3931 1401 L
3932 1415 L
3933 1332 L
3934 1219 L
3935 1409 L
3936 1428 L
3937 1299 L
3938 1285 L
3939 1435 L
3940 1362 L
3941 1259 L
3942 1278 L
3943 1280 L
3944 1357 L
3945 1206 L
3946 1254 L
3947 1307 L
3948 1238 L
3949 1219 L
3950 1312 L
3951 1280 L
3952 1166 L
3953 1288 L
3954 1284 L
3955 1237 L
3956 1350 L
3957 1236 L
3958 1285 L
3959 1315 L
3960 1299 L
3961 1302 L
3962 1364 L
3963 1226 L
3964 1322 L
3965 1257 L
3966 1371 L
3966 1279 L
3967 1267 L
3968 1408 L
3969 1188 L
3970 1346 L
3971 1214 L
3972 1354 L
3973 1235 L
3974 1276 L
3975 1296 L
3976 1407 L
3976 1261 L
3977 1309 L
3978 1345 L
3979 1302 L
3980 1249 L
3981 1404 L
3982 1272 L
3983 1299 L
3983 1293 L
3984 1327 L
3985 1378 L
3986 1352 L
3987 1315 L
3988 1299 L
3989 1306 L
3989 1328 L
3990 1223 L
3991 1328 L
3992 1305 L
3993 1381 L
3994 1237 L
3995 1247 L
3995 1340 L
3996 1236 L
3997 1242 L
3998 1294 L
3999 1275 L
3999 1256 L
4000 1272 L
4001 1306 L
4002 1239 L
4003 1349 L
4003 1298 L
4004 1442 L
4005 1315 L
4006 1216 L
4007 1434 L
4007 1303 L
4008 1275 L
4009 1276 L
4010 1348 L
4011 1230 L
4011 1366 L
4012 1313 L
4013 1283 L
4014 1258 L
4014 1360 L
4015 1375 L
4016 1223 L
4017 1202 L
4017 1309 L
4018 1251 L
4019 1381 L
4020 1235 L
4021 1271 L
4021 1301 L
4022 1266 L
4023 1299 L
4023 1305 L
4024 1358 L
4025 1301 L
4026 1249 L
4026 1348 L
4027 1267 L
4028 1284 L
4029 1243 L
4029 1289 L
4030 1335 L
4031 1284 L
4032 1280 L
4032 1368 L
4033 1462 L
4034 1308 L
4034 1258 L
4035 1357 L
4036 1168 L
4036 1287 L
4037 1321 L
4038 1311 L
4039 1340 L
4039 1214 L
4040 1309 L
4041 1280 L
4041 1360 L
4042 1335 L
4043 1259 L
4043 1262 L
4044 1349 L
4045 1240 L
4045 1340 L
4046 1343 L
4047 1297 L
4047 1231 L
4048 1435 L
4049 1269 L
4050 1291 L
4050 1303 L
4051 1404 L
4052 1267 L
4052 1312 L
4053 1276 L
4053 1337 L
4054 1373 L
4055 1287 L
4055 1133 L
4056 1322 L
4057 1345 L
4057 1311 L
4058 1343 L
4059 1272 L
4059 1388 L
4060 1308 L
4061 1202 L
4061 1238 L
4062 1332 L
L2 C06 COSGR

%
% Main frame
%
L10
GSN 
620 1700 M
4220 1700 L
4220 5300 L
620 5300 L
closepath SGR

%
% X axis: large tics
%
L10
GSN 1130 1700 M 0  54 rL SGR
GSN 1130 5300 M 0 -54 rL SGR
helvS (0.0001) 1130 470 xlabel
GSN 1716 1700 M 0  54 rL SGR
GSN 1716 5300 M 0 -54 rL SGR
helvS (0.001) 1716 470 xlabel
GSN 2303 1700 M 0  54 rL SGR
GSN 2303 5300 M 0 -54 rL SGR
helvS (0.01) 2303 470 xlabel
GSN 2889 1700 M 0  54 rL SGR
GSN 2889 5300 M 0 -54 rL SGR
helvS (0.1) 2889 470 xlabel
GSN 3476 1700 M 0  54 rL SGR
GSN 3476 5300 M 0 -54 rL SGR
helvS (1) 3476 470 xlabel
GSN 4062 1700 M 0  54 rL SGR
GSN 4062 5300 M 0 -54 rL SGR
helvS (10) 4062 470 xlabel
%
% X axis: small tics
%
L5
GSN 720 1700 M 0  36 rL SGR
GSN 720 5300 M 0 -36 rL SGR
GSN 824 1700 M 0  36 rL SGR
GSN 824 5300 M 0 -36 rL SGR
GSN 897 1700 M 0  36 rL SGR
GSN 897 5300 M 0 -36 rL SGR
GSN 954 1700 M 0  36 rL SGR
GSN 954 5300 M 0 -36 rL SGR
GSN 1000 1700 M 0  36 rL SGR
GSN 1000 5300 M 0 -36 rL SGR
GSN 1039 1700 M 0  36 rL SGR
GSN 1039 5300 M 0 -36 rL SGR
GSN 1073 1700 M 0  36 rL SGR
GSN 1073 5300 M 0 -36 rL SGR
GSN 1103 1700 M 0  36 rL SGR
GSN 1103 5300 M 0 -36 rL SGR
GSN 1307 1700 M 0  36 rL SGR
GSN 1307 5300 M 0 -36 rL SGR
GSN 1410 1700 M 0  36 rL SGR
GSN 1410 5300 M 0 -36 rL SGR
GSN 1483 1700 M 0  36 rL SGR
GSN 1483 5300 M 0 -36 rL SGR
GSN 1540 1700 M 0  36 rL SGR
GSN 1540 5300 M 0 -36 rL SGR
GSN 1586 1700 M 0  36 rL SGR
GSN 1586 5300 M 0 -36 rL SGR
GSN 1626 1700 M 0  36 rL SGR
GSN 1626 5300 M 0 -36 rL SGR
GSN 1660 1700 M 0  36 rL SGR
GSN 1660 5300 M 0 -36 rL SGR
GSN 1690 1700 M 0  36 rL SGR
GSN 1690 5300 M 0 -36 rL SGR
GSN 1893 1700 M 0  36 rL SGR
GSN 1893 5300 M 0 -36 rL SGR
GSN 1996 1700 M 0  36 rL SGR
GSN 1996 5300 M 0 -36 rL SGR
GSN 2069 1700 M 0  36 rL SGR
GSN 2069 5300 M 0 -36 rL SGR
GSN 2126 1700 M 0  36 rL SGR
GSN 2126 5300 M 0 -36 rL SGR
GSN 2173 1700 M 0  36 rL SGR
GSN 2173 5300 M 0 -36 rL SGR
GSN 2212 1700 M 0  36 rL SGR
GSN 2212 5300 M 0 -36 rL SGR
GSN 2246 1700 M 0  36 rL SGR
GSN 2246 5300 M 0 -36 rL SGR
GSN 2276 1700 M 0  36 rL SGR
GSN 2276 5300 M 0 -36 rL SGR
GSN 2479 1700 M 0  36 rL SGR
GSN 2479 5300 M 0 -36 rL SGR
GSN 2583 1700 M 0  36 rL SGR
GSN 2583 5300 M 0 -36 rL SGR
GSN 2656 1700 M 0  36 rL SGR
GSN 2656 5300 M 0 -36 rL SGR
GSN 2713 1700 M 0  36 rL SGR
GSN 2713 5300 M 0 -36 rL SGR
GSN 2759 1700 M 0  36 rL SGR
GSN 2759 5300 M 0 -36 rL SGR
GSN 2798 1700 M 0  36 rL SGR
GSN 2798 5300 M 0 -36 rL SGR
GSN 2832 1700 M 0  36 rL SGR
GSN 2832 5300 M 0 -36 rL SGR
GSN 2862 1700 M 0  36 rL SGR
GSN 2862 5300 M 0 -36 rL SGR
GSN 3066 1700 M 0  36 rL SGR
GSN 3066 5300 M 0 -36 rL SGR
GSN 3169 1700 M 0  36 rL SGR
GSN 3169 5300 M 0 -36 rL SGR
GSN 3242 1700 M 0  36 rL SGR
GSN 3242 5300 M 0 -36 rL SGR
GSN 3299 1700 M 0  36 rL SGR
GSN 3299 5300 M 0 -36 rL SGR
GSN 3345 1700 M 0  36 rL SGR
GSN 3345 5300 M 0 -36 rL SGR
GSN 3385 1700 M 0  36 rL SGR
GSN 3385 5300 M 0 -36 rL SGR
GSN 3419 1700 M 0  36 rL SGR
GSN 3419 5300 M 0 -36 rL SGR
GSN 3449 1700 M 0  36 rL SGR
GSN 3449 5300 M 0 -36 rL SGR
GSN 3652 1700 M 0  36 rL SGR
GSN 3652 5300 M 0 -36 rL SGR
GSN 3755 1700 M 0  36 rL SGR
GSN 3755 5300 M 0 -36 rL SGR
GSN 3829 1700 M 0  36 rL SGR
GSN 3829 5300 M 0 -36 rL SGR
GSN 3885 1700 M 0  36 rL SGR
GSN 3885 5300 M 0 -36 rL SGR
GSN 3932 1700 M 0  36 rL SGR
GSN 3932 5300 M 0 -36 rL SGR
GSN 3971 1700 M 0  36 rL SGR
GSN 3971 5300 M 0 -36 rL SGR
GSN 4005 1700 M 0  36 rL SGR
GSN 4005 5300 M 0 -36 rL SGR
GSN 4035 1700 M 0  36 rL SGR
GSN 4035 5300 M 0 -36 rL SGR
%
% Y axis: large tics
%
L10
GSN 620 2320 M 54 0 rL SGR
GSN 4220 2320 M -54 0 rL SGR
helvS (0.92) 560 2320 ylabel
GSN 620 3068 M 54 0 rL SGR
GSN 4220 3068 M -54 0 rL SGR
helvS (0.94) 560 3068 ylabel
GSN 620 3816 M 54 0 rL SGR
GSN 4220 3816 M -54 0 rL SGR
helvS (0.96) 560 3816 ylabel
GSN 620 4564 M 54 0 rL SGR
GSN 4220 4564 M -54 0 rL SGR
helvS (0.98) 560 4564 ylabel
%
% Y axis: small tics
%
L5
GSN 620 1758 M 36 0 rL SGR
GSN 4220 1758 M -36 0 rL SGR
GSN 620 1946 M 36 0 rL SGR
GSN 4220 1946 M -36 0 rL SGR
GSN 620 2133 M 36 0 rL SGR
GSN 4220 2133 M -36 0 rL SGR
GSN 620 2320 M 36 0 rL SGR
GSN 4220 2320 M -36 0 rL SGR
GSN 620 2507 M 36 0 rL SGR
GSN 4220 2507 M -36 0 rL SGR
GSN 620 2694 M 36 0 rL SGR
GSN 4220 2694 M -36 0 rL SGR
GSN 620 2881 M 36 0 rL SGR
GSN 4220 2881 M -36 0 rL SGR
GSN 620 3068 M 36 0 rL SGR
GSN 4220 3068 M -36 0 rL SGR
GSN 620 3255 M 36 0 rL SGR
GSN 4220 3255 M -36 0 rL SGR
GSN 620 3442 M 36 0 rL SGR
GSN 4220 3442 M -36 0 rL SGR
GSN 620 3629 M 36 0 rL SGR
GSN 4220 3629 M -36 0 rL SGR
GSN 620 3816 M 36 0 rL SGR
GSN 4220 3816 M -36 0 rL SGR
GSN 620 4003 M 36 0 rL SGR
GSN 4220 4003 M -36 0 rL SGR
GSN 620 4190 M 36 0 rL SGR
GSN 4220 4190 M -36 0 rL SGR
GSN 620 4377 M 36 0 rL SGR
GSN 4220 4377 M -36 0 rL SGR
GSN 620 4564 M 36 0 rL SGR
GSN 4220 4564 M -36 0 rL SGR
GSN 620 4751 M 36 0 rL SGR
GSN 4220 4751 M -36 0 rL SGR
GSN 620 4938 M 36 0 rL SGR
GSN 4220 4938 M -36 0 rL SGR
GSN 620 5125 M 36 0 rL SGR
GSN 4220 5125 M -36 0 rL SGR

%
% X-Axis label:
%
gsave 2420 290 M 
[
[(Helvetica) 180 0 true true 0 (t)]
[(Helvetica) 180 0 true true 0 (i)]
[(Helvetica) 180 0 true true 0 (m)]
[(Helvetica) 180 0 true true 0 (e)]
] 0 MCshow grestore

%
% Y-Axis label:
%
gsave 234 3499 M 
currentpoint gsave translate 90 rotate 0 0 moveto
[
[(Helvetica) 180 0 true true 0 (s)]
[(Helvetica) 180 0 true true 0 (i)]
[(Helvetica) 180 0 true true 0 (g)]
[(Helvetica) 180 0 true true 0 (n)]
[(Helvetica) 180 0 true true 0 (a)]
[(Helvetica) 180 0 true true 0 (l)]
] 0 MCshow grestore

%
% Residuals:
%
gsave 129 1160 M 
currentpoint gsave translate 90 rotate 0 0 moveto
[
[(Helvetica) 150 0 true true 0 (r)]
[(Helvetica) 150 0 true true 0 (e)]
[(Helvetica) 150 0 true true 0 (s)]
[(Helvetica) 150 0 true true 0 (i)]
[(Helvetica) 150 0 true true 0 (d)]
[(Helvetica) 150 0 true true 0 (u)]
[(Helvetica) 150 0 true true 0 (a)]
[(Helvetica) 150 0 true true 0 (l)]
[(Helvetica) 150 0 true true 0 (s)]
] 0 MCshow grestore

%
% Residual frame
%
L10
GSN 
620 620 M
4220 620 L
4220 1700 L
620 1700 L
closepath SGR
%
% X axis: large tics - residual frame
%
L10
GSN 1130 620 M 0  54 rL SGR
GSN 1130 1700 M 0 -54 rL SGR
GSN 1716 620 M 0  54 rL SGR
GSN 1716 1700 M 0 -54 rL SGR
GSN 2303 620 M 0  54 rL SGR
GSN 2303 1700 M 0 -54 rL SGR
GSN 2889 620 M 0  54 rL SGR
GSN 2889 1700 M 0 -54 rL SGR
GSN 3476 620 M 0  54 rL SGR
GSN 3476 1700 M 0 -54 rL SGR
GSN 4062 620 M 0  54 rL SGR
GSN 4062 1700 M 0 -54 rL SGR
%
% X axis: small tics - residual frame
%
L5
GSN 720 620 M 0  36 rL SGR
GSN 720 1700 M 0 -36 rL SGR
GSN 824 620 M 0  36 rL SGR
GSN 824 1700 M 0 -36 rL SGR
GSN 897 620 M 0  36 rL SGR
GSN 897 1700 M 0 -36 rL SGR
GSN 954 620 M 0  36 rL SGR
GSN 954 1700 M 0 -36 rL SGR
GSN 1000 620 M 0  36 rL SGR
GSN 1000 1700 M 0 -36 rL SGR
GSN 1039 620 M 0  36 rL SGR
GSN 1039 1700 M 0 -36 rL SGR
GSN 1073 620 M 0  36 rL SGR
GSN 1073 1700 M 0 -36 rL SGR
GSN 1103 620 M 0  36 rL SGR
GSN 1103 1700 M 0 -36 rL SGR
GSN 1307 620 M 0  36 rL SGR
GSN 1307 1700 M 0 -36 rL SGR
GSN 1410 620 M 0  36 rL SGR
GSN 1410 1700 M 0 -36 rL SGR
GSN 1483 620 M 0  36 rL SGR
GSN 1483 1700 M 0 -36 rL SGR
GSN 1540 620 M 0  36 rL SGR
GSN 1540 1700 M 0 -36 rL SGR
GSN 1586 620 M 0  36 rL SGR
GSN 1586 1700 M 0 -36 rL SGR
GSN 1626 620 M 0  36 rL SGR
GSN 1626 1700 M 0 -36 rL SGR
GSN 1660 620 M 0  36 rL SGR
GSN 1660 1700 M 0 -36 rL SGR
GSN 1690 620 M 0  36 rL SGR
GSN 1690 1700 M 0 -36 rL SGR
GSN 1893 620 M 0  36 rL SGR
GSN 1893 1700 M 0 -36 rL SGR
GSN 1996 620 M 0  36 rL SGR
GSN 1996 1700 M 0 -36 rL SGR
GSN 2069 620 M 0  36 rL SGR
GSN 2069 1700 M 0 -36 rL SGR
GSN 2126 620 M 0  36 rL SGR
GSN 2126 1700 M 0 -36 rL SGR
GSN 2173 620 M 0  36 rL SGR
GSN 2173 1700 M 0 -36 rL SGR
GSN 2212 620 M 0  36 rL SGR
GSN 2212 1700 M 0 -36 rL SGR
GSN 2246 620 M 0  36 rL SGR
GSN 2246 1700 M 0 -36 rL SGR
GSN 2276 620 M 0  36 rL SGR
GSN 2276 1700 M 0 -36 rL SGR
GSN 2479 620 M 0  36 rL SGR
GSN 2479 1700 M 0 -36 rL SGR
GSN 2583 620 M 0  36 rL SGR
GSN 2583 1700 M 0 -36 rL SGR
GSN 2656 620 M 0  36 rL SGR
GSN 2656 1700 M 0 -36 rL SGR
GSN 2713 620 M 0  36 rL SGR
GSN 2713 1700 M 0 -36 rL SGR
GSN 2759 620 M 0  36 rL SGR
GSN 2759 1700 M 0 -36 rL SGR
GSN 2798 620 M 0  36 rL SGR
GSN 2798 1700 M 0 -36 rL SGR
GSN 2832 620 M 0  36 rL SGR
GSN 2832 1700 M 0 -36 rL SGR
GSN 2862 620 M 0  36 rL SGR
GSN 2862 1700 M 0 -36 rL SGR
GSN 3066 620 M 0  36 rL SGR
GSN 3066 1700 M 0 -36 rL SGR
GSN 3169 620 M 0  36 rL SGR
GSN 3169 1700 M 0 -36 rL SGR
GSN 3242 620 M 0  36 rL SGR
GSN 3242 1700 M 0 -36 rL SGR
GSN 3299 620 M 0  36 rL SGR
GSN 3299 1700 M 0 -36 rL SGR
GSN 3345 620 M 0  36 rL SGR
GSN 3345 1700 M 0 -36 rL SGR
GSN 3385 620 M 0  36 rL SGR
GSN 3385 1700 M 0 -36 rL SGR
GSN 3419 620 M 0  36 rL SGR
GSN 3419 1700 M 0 -36 rL SGR
GSN 3449 620 M 0  36 rL SGR
GSN 3449 1700 M 0 -36 rL SGR
GSN 3652 620 M 0  36 rL SGR
GSN 3652 1700 M 0 -36 rL SGR
GSN 3755 620 M 0  36 rL SGR
GSN 3755 1700 M 0 -36 rL SGR
GSN 3829 620 M 0  36 rL SGR
GSN 3829 1700 M 0 -36 rL SGR
GSN 3885 620 M 0  36 rL SGR
GSN 3885 1700 M 0 -36 rL SGR
GSN 3932 620 M 0  36 rL SGR
GSN 3932 1700 M 0 -36 rL SGR
GSN 3971 620 M 0  36 rL SGR
GSN 3971 1700 M 0 -36 rL SGR
GSN 4005 620 M 0  36 rL SGR
GSN 4005 1700 M 0 -36 rL SGR
GSN 4035 620 M 0  36 rL SGR
GSN 4035 1700 M 0 -36 rL SGR
%
% Y axis: large tics - residual frame
%
L10
GSN 620 806 M 54 0 rL SGR
GSN 4220 806 M -54 0 rL SGR
helvS (-0.02) 560 806 ylabelresid
GSN 620 1025 M 54 0 rL SGR
GSN 4220 1025 M -54 0 rL SGR
helvS (-0.01) 560 1025 ylabelresid
GSN 620 1243 M 54 0 rL SGR
GSN 4220 1243 M -54 0 rL SGR
helvS (0) 560 1243 ylabelresid
GSN 620 1462 M 54 0 rL SGR
GSN 4220 1462 M -54 0 rL SGR
helvS (0.01) 560 1462 ylabelresid
GSN 620 1681 M 54 0 rL SGR
GSN 4220 1681 M -54 0 rL SGR
helvS (0.02) 560 1681 ylabelresid

%
% X axis - residual panel
%
GSN L5 620 1243 M 4220 1243 L SDA G50 SGR

end
showpage
%%Trailer
%%EOF
