%!PS-Adobe-3.0 EPSF-3.0
%%BoundingBox: 0 0 514 550
%%Creator: BioKin Ltd.
%%DocumentFonts: Symbol Helvetica
%%EndComments
%
/bkdict 256 dict def
bkdict begin
/M {moveto} def 
/R {rmoveto} def
/L {lineto} def
/rL {rlineto} def
/GSN {gsave newpath} def
/SGR {stroke grestore} def
/COSGR {gsave setrgbcolor stroke grestore grestore} def
/SL {setlinewidth} def
/LWMB {12} def             % line width - model curves, black & white
/LWMC {10} def             % line width - model curves, color
/L2 {2.5 setlinewidth} def
/L5 {5 setlinewidth} def
/L10 {10 setlinewidth} def
/G50 {0.5 setgray} def
/SDA {[10  20] 0 setdash} def % axes
/helvT {/Helvetica findfont 100 scalefont setfont} def % tiny
/helvS {/Helvetica findfont 125 scalefont setfont} def % small
/helvM {/Helvetica findfont 150 scalefont setfont} def % medium
/helvL {/Helvetica findfont 175 scalefont setfont} def % large
/xlabel {gsave M dup
   stringwidth exch -0.5 mul exch rmoveto show grestore} def 
/ylabel {gsave M 90 rotate dup
   stringwidth exch -0.5 mul exch rmoveto show grestore} def
/ylabelresid {gsave M dup
   stringwidth exch -1 mul exch rmoveto show grestore} def
% ======
% Shapes
% ======
% Circle:
/Circ {0 360 arc closepath} def
%
% Square:
/Squa {dup dup -0.5 mul dup dup R -2 mul 0 exch rL 1 mul 0 rL dup 0 exch -1 mul rL closepath} def
%
% Triangle Up:
/TriU {dup dup dup -0.4 mul exch -0.5 mul exch R dup 0.5 mul exch rL dup -1 mul exch 0.5 mul exch rL closepath} def 
%
% Triangle Down:
/TriD {dup dup dup 0.4 mul exch -0.5 mul exch R dup 0.5 mul exch -1 mul rL dup 0.5 mul exch rL closepath} def 
%
% Diamond:
/Diam {45 rotate Squa} def
% ======
% Fills
% ======
/GRF {gsave setgray fill grestore} def                    % gray-level Fill
/COF {gsave setrgbcolor fill grestore} def                % color fill
% ======
% Colors
% ======
/C01 {1.00	0.00	0.00} def      % Red
/C02 {0.00	0.00	1.00} def      % Blue
/C03 {0.00	0.39	0.00} def      % Dark Green
/C04 {0.78	0.08	0.52} def      % Medium Violet Red
/C05 {0.55	0.27	0.07} def      % Saddle Brown
/C06 {0.10	0.70	0.70} def      % (cyan)
/C07 {1.00	0.55	0.00} def      % Dark Orange
/C08 {0.63	0.13	0.94} def      % Purple
/C09 {0.00	0.75	1.00} def      % Deep Sky Blue
/C10 {0.20	0.80	0.20} def      % Lime Green
/C11 {0.47	0.53	0.60} def      % Light Slate Gray
/C12 {0.00	0.00	0.00} def      % Black            % or: {0.19	0.31	0.31} def      % Dark Slate Gray
%
/LGR {0.75} def % light gray
/DGR {0.33} def % dark gray
%
% =============
% Dash patterns
% =============
/dash01 { [80  20] 0 setdash } def
/dash02 { [40  20] 0 setdash } def
/dash03 { [80  20  10  20] 0 setdash } def
/dash04 { [40  20  10  20] 0 setdash } def
/dash05 { [80  20  10  10  10  20] 0 setdash } def
/dash06 { [40  20  10  10  10  20] 0 setdash } def
/dash07 { [10  10] 0 setdash } def
%
/MFshow {
   { dup 5 get 3 ge
     { 5 get 3 eq {gsave} {grestore} ifelse }
     {dup dup 0 get findfont exch 1 get scalefont setfont
     [ currentpoint ] exch dup 2 get 0 exch R dup 5 get 2 ne {dup dup 6
     get exch 4 get {show} {stringwidth pop 0 R} ifelse }if dup 5 get 0 eq
     {dup 3 get {2 get neg 0 exch R pop} {pop aload pop M} ifelse} {dup 5
     get 1 eq {dup 2 get exch dup 3 get exch 6 get stringwidth pop -2 div
     dup 0 R} {dup 6 get stringwidth pop -2 div 0 R 6 get
     show 2 index {aload pop M neg 3 -1 roll neg R pop pop} {pop pop pop
     pop aload pop M} ifelse }ifelse }ifelse }
     ifelse }
   forall} bind def
/MFwidth {0 exch {dup 3 get{dup dup 0 get findfont exch 1 get scalefont
     setfont 6 get stringwidth pop add} {pop} ifelse} forall} bind def
/MCshow { currentpoint stroke M
  exch dup MFwidth -2 div 3 -1 roll R MFshow } def
%
end
%%EndProlog
bkdict begin
0.1 0.1 scale
%
% Residuals:
%
GSN 620 2726 M
620 2800 L
620 3092 L
620 4000 L
620 3974 L
620 3605 L
620 3573 L
620 3401 L
620 3446 L
620 3482 L
620 3364 L
620 3763 L
620 3315 L
620 3692 L
620 3737 L
620 3503 L
620 3471 L
620 3606 L
620 3450 L
620 3698 L
620 3560 L
620 3595 L
620 3805 L
620 3944 L
620 3358 L
620 3737 L
620 4233 L
620 3777 L
620 3884 L
620 3819 L
620 3753 L
620 3778 L
620 3525 L
620 4062 L
620 3933 L
620 3874 L
620 3602 L
620 4100 L
620 4071 L
620 3693 L
620 3782 L
620 3822 L
620 3920 L
620 3535 L
620 3445 L
620 4086 L
620 3742 L
620 3519 L
620 3642 L
620 3962 L
620 3278 L
620 3426 L
620 3768 L
620 3913 L
620 3542 L
620 3937 L
620 3931 L
620 3800 L
620 3450 L
620 3991 L
620 4267 L
620 3986 L
620 3463 L
620 3239 L
620 3774 L
620 3580 L
620 3577 L
620 3697 L
620 3823 L
620 3322 L
620 4208 L
620 3673 L
620 3591 L
620 3563 L
620 3874 L
620 3297 L
620 4182 L
620 3889 L
620 4087 L
620 3533 L
620 3754 L
620 3593 L
620 3589 L
620 3440 L
620 3352 L
620 3367 L
620 3435 L
620 3760 L
620 3185 L
620 3258 L
620 3727 L
620 3338 L
620 3408 L
620 3282 L
620 3248 L
620 3352 L
620 2669 L
620 3268 L
620 3105 L
620 2997 L
620 3123 L
620 3016 L
620 2514 L
620 2747 L
620 3318 L
620 2710 L
620 2986 L
620 3302 L
620 2778 L
620 2843 L
620 2484 L
620 2357 L
620 2579 L
620 2474 L
620 2567 L
620 2507 L
620 2651 L
620 2519 L
620 2504 L
620 2766 L
620 2294 L
620 2487 L
620 2545 L
620 2493 L
620 2247 L
620 2405 L
620 2865 L
620 2510 L
620 2604 L
620 2253 L
620 2664 L
620 2619 L
620 2348 L
620 2165 L
620 3215 L
620 2615 L
620 2315 L
620 2136 L
620 2584 L
620 2801 L
620 2331 L
620 2446 L
620 3037 L
620 2597 L
620 2686 L
620 2805 L
620 2531 L
620 2853 L
620 2335 L
620 2505 L
620 2847 L
620 2705 L
620 2783 L
620 2498 L
620 2869 L
620 3159 L
620 2594 L
620 3021 L
620 2495 L
620 2589 L
620 2895 L
620 2419 L
620 2987 L
620 3088 L
620 2807 L
620 2818 L
620 2640 L
620 3021 L
620 2861 L
620 2293 L
620 2660 L
620 3159 L
620 2907 L
620 2555 L
620 2576 L
620 2973 L
620 3057 L
620 2501 L
620 2977 L
620 2612 L
620 2803 L
620 2824 L
620 2413 L
620 3257 L
620 2832 L
620 2865 L
620 3562 L
620 3159 L
620 3261 L
620 3273 L
620 3254 L
620 2882 L
620 2963 L
620 3023 L
620 2314 L
620 2778 L
620 3208 L
620 3238 L
620 2782 L
620 2817 L
620 3254 L
620 3008 L
620 3136 L
620 3406 L
620 2939 L
620 3175 L
620 2997 L
620 3096 L
620 3002 L
620 3356 L
620 3459 L
620 3432 L
620 3050 L
620 3193 L
620 2918 L
620 3459 L
620 2993 L
620 3221 L
620 3556 L
620 3230 L
620 3352 L
620 3424 L
620 3185 L
620 3060 L
620 3211 L
620 3576 L
620 3487 L
620 3349 L
620 3585 L
620 3320 L
620 3002 L
620 3335 L
620 3117 L
620 3442 L
620 3283 L
620 3439 L
620 3494 L
620 3687 L
620 3332 L
620 3420 L
620 3605 L
620 3248 L
620 3598 L
620 3416 L
620 3444 L
620 3110 L
620 2943 L
620 3843 L
620 3744 L
620 3687 L
620 3603 L
620 3247 L
620 3774 L
620 3233 L
620 3621 L
620 3711 L
620 3818 L
620 3931 L
620 3666 L
620 3552 L
620 3570 L
620 3334 L
620 3675 L
620 3655 L
620 3803 L
620 3693 L
620 3922 L
620 3319 L
620 3857 L
620 3340 L
620 3949 L
620 3254 L
620 3393 L
620 3244 L
620 3872 L
620 3367 L
620 3809 L
620 3208 L
620 3729 L
620 4004 L
620 3695 L
620 4181 L
620 4181 L
620 4342 L
620 4007 L
620 3937 L
620 4493 L
620 4410 L
620 3676 L
620 4164 L
620 4251 L
620 4181 L
620 4436 L
620 4692 L
620 4374 L
620 4414 L
620 4431 L
620 4499 L
620 4478 L
620 4574 L
620 4442 L
620 4001 L
620 4055 L
620 4144 L
620 4202 L
620 4724 L
620 4318 L
620 4615 L
620 4437 L
620 4795 L
620 4679 L
620 4422 L
620 4765 L
620 4309 L
620 4799 L
620 4302 L
620 4814 L
620 4361 L
620 4653 L
620 4670 L
620 4290 L
620 4356 L
620 4408 L
620 4369 L
620 4583 L
620 4172 L
620 4767 L
620 4269 L
620 3948 L
620 4485 L
620 3768 L
620 4307 L
620 4179 L
620 4286 L
620 3905 L
620 4863 L
620 3792 L
620 4206 L
620 4316 L
620 4485 L
620 4081 L
620 4262 L
620 4384 L
620 4393 L
620 4450 L
620 4401 L
620 4309 L
620 4200 L
620 3732 L
620 3644 L
620 4429 L
620 4384 L
620 4164 L
620 3901 L
620 4095 L
620 4332 L
620 4272 L
620 4275 L
620 4196 L
620 4320 L
620 4159 L
620 4341 L
620 3980 L
620 3597 L
620 3980 L
620 4044 L
620 4309 L
620 4033 L
620 3965 L
620 4313 L
620 4720 L
620 3877 L
620 4072 L
620 4155 L
620 4221 L
620 3952 L
620 3770 L
620 3670 L
620 3869 L
620 4489 L
620 4332 L
620 3770 L
620 3945 L
620 3858 L
620 3792 L
620 3562 L
620 4168 L
620 3635 L
620 3783 L
620 4123 L
620 4313 L
620 3511 L
620 3931 L
620 4027 L
620 3708 L
620 3580 L
620 3935 L
620 3847 L
620 3406 L
620 3809 L
620 3586 L
620 4050 L
620 4162 L
620 3633 L
620 3415 L
620 4179 L
620 3381 L
620 3665 L
620 4049 L
620 3875 L
620 3702 L
620 3745 L
620 3704 L
620 3760 L
620 4031 L
620 3595 L
620 3486 L
620 3619 L
620 3770 L
620 3948 L
620 3373 L
620 3764 L
620 3542 L
620 3706 L
620 3644 L
620 3717 L
620 3721 L
620 3296 L
620 4198 L
620 3670 L
620 3736 L
620 3738 L
620 3037 L
620 3773 L
620 3467 L
620 3952 L
620 3569 L
620 3802 L
620 3751 L
620 3862 L
620 3758 L
620 3766 L
620 3802 L
620 3447 L
620 3777 L
620 3351 L
620 3498 L
620 3965 L
620 3520 L
620 3787 L
620 3843 L
620 3869 L
620 3467 L
620 3231 L
620 3454 L
620 3216 L
620 3708 L
620 3717 L
620 3514 L
620 3445 L
620 3407 L
620 3374 L
620 3488 L
620 3680 L
620 3575 L
620 3122 L
620 3548 L
620 3649 L
620 3473 L
620 3028 L
620 3289 L
620 3918 L
620 3672 L
620 3578 L
620 3182 L
620 3148 L
620 3341 L
620 3246 L
620 3644 L
620 3217 L
620 3126 L
620 3567 L
620 3498 L
620 3509 L
620 3952 L
620 3216 L
620 3677 L
620 3488 L
620 3045 L
620 3154 L
620 3463 L
620 3582 L
620 3360 L
620 3368 L
620 3554 L
620 3584 L
620 3976 L
620 3762 L
620 3907 L
620 3280 L
620 3366 L
620 3606 L
620 3648 L
620 3364 L
620 3473 L
620 3274 L
620 3725 L
620 3353 L
620 3439 L
620 3789 L
620 3871 L
620 3471 L
620 3601 L
620 3666 L
620 3597 L
620 3176 L
620 3561 L
620 3753 L
620 3302 L
620 3509 L
620 3467 L
620 3559 L
620 3159 L
620 3552 L
620 3612 L
620 3849 L
620 3341 L
620 3609 L
620 3242 L
620 3635 L
620 3439 L
620 3576 L
620 3537 L
L2 C03 COSGR

%
%================
% Legend - Begin
%================
%
GSN 4240 5180 M
4480 5180 L
LWMC SL  C03 COSGR
GSN 4540 5141 M helvM (1.5 uM) show grestore
%
%================
% Legend - End
%================
%

%
% Main frame
%
L10
GSN 
620 1700 M
4220 1700 L
4220 5300 L
620 5300 L
closepath SGR

%
% X axis: large tics
%
L10
%
% X axis: small tics
%
L5
%
% Y axis: large tics
%
L10
GSN 620 2558 M 54 0 rL SGR
GSN 4220 2558 M -54 0 rL SGR
helvS (-0.01) 560 2558 ylabel
GSN 620 3543 M 54 0 rL SGR
GSN 4220 3543 M -54 0 rL SGR
helvS (0) 560 3543 ylabel
GSN 620 4528 M 54 0 rL SGR
GSN 4220 4528 M -54 0 rL SGR
helvS (0.01) 560 4528 ylabel
%
% Y axis: small tics
%
L5
GSN 620 1820 M 36 0 rL SGR
GSN 4220 1820 M -36 0 rL SGR
GSN 620 2066 M 36 0 rL SGR
GSN 4220 2066 M -36 0 rL SGR
GSN 620 2312 M 36 0 rL SGR
GSN 4220 2312 M -36 0 rL SGR
GSN 620 2558 M 36 0 rL SGR
GSN 4220 2558 M -36 0 rL SGR
GSN 620 2805 M 36 0 rL SGR
GSN 4220 2805 M -36 0 rL SGR
GSN 620 3051 M 36 0 rL SGR
GSN 4220 3051 M -36 0 rL SGR
GSN 620 3297 M 36 0 rL SGR
GSN 4220 3297 M -36 0 rL SGR
GSN 620 3543 M 36 0 rL SGR
GSN 4220 3543 M -36 0 rL SGR
GSN 620 3789 M 36 0 rL SGR
GSN 4220 3789 M -36 0 rL SGR
GSN 620 4036 M 36 0 rL SGR
GSN 4220 4036 M -36 0 rL SGR
GSN 620 4282 M 36 0 rL SGR
GSN 4220 4282 M -36 0 rL SGR
GSN 620 4528 M 36 0 rL SGR
GSN 4220 4528 M -36 0 rL SGR
GSN 620 4774 M 36 0 rL SGR
GSN 4220 4774 M -36 0 rL SGR
GSN 620 5020 M 36 0 rL SGR
GSN 4220 5020 M -36 0 rL SGR
GSN 620 5267 M 36 0 rL SGR
GSN 4220 5267 M -36 0 rL SGR

%
% X axis - residual panel
%
GSN L5 620 3543 M 4220 3543 L SDA G50 SGR

%
% X-Axis label:
%
gsave 620 1370 M 
[
[(Helvetica) 180 0 true true 0 (t)]
[(Helvetica) 180 0 true true 0 (i)]
[(Helvetica) 180 0 true true 0 (m)]
[(Helvetica) 180 0 true true 0 (e)]
] 0 MCshow grestore

%
% Y-Axis label:
%
gsave 234 3500 M 
currentpoint gsave translate 90 rotate 0 0 moveto
[
[(Helvetica) 180 0 true true 0 (r)]
[(Helvetica) 180 0 true true 0 (e)]
[(Helvetica) 180 0 true true 0 (s)]
[(Helvetica) 180 0 true true 0 (i)]
[(Helvetica) 180 0 true true 0 (d)]
[(Helvetica) 180 0 true true 0 (u)]
[(Helvetica) 180 0 true true 0 (a)]
[(Helvetica) 180 0 true true 0 (l)]
[(Helvetica) 180 0 true true 0 (s)]
] 0 MCshow grestore

end
showpage
%%Trailer
%%EOF
