%!PS-Adobe-3.0 EPSF-3.0
%%BoundingBox: 0 0 514 550
%%Creator: BioKin Ltd.
%%DocumentFonts: Symbol Helvetica
%%EndComments
%
/bkdict 256 dict def
bkdict begin
/M {moveto} def 
/R {rmoveto} def
/L {lineto} def
/rL {rlineto} def
/GSN {gsave newpath} def
/SGR {stroke grestore} def
/COSGR {gsave setrgbcolor stroke grestore grestore} def
/SL {setlinewidth} def
/LWMB {12} def             % line width - model curves, black & white
/LWMC {10} def             % line width - model curves, color
/L2 {2.5 setlinewidth} def
/L5 {5 setlinewidth} def
/L10 {10 setlinewidth} def
/G50 {0.5 setgray} def
/SDA {[10  20] 0 setdash} def % axes
/helvT {/Helvetica findfont 100 scalefont setfont} def % tiny
/helvS {/Helvetica findfont 125 scalefont setfont} def % small
/helvM {/Helvetica findfont 150 scalefont setfont} def % medium
/helvL {/Helvetica findfont 175 scalefont setfont} def % large
/xlabel {gsave M dup
   stringwidth exch -0.5 mul exch rmoveto show grestore} def 
/ylabel {gsave M 90 rotate dup
   stringwidth exch -0.5 mul exch rmoveto show grestore} def
/ylabelresid {gsave M dup
   stringwidth exch -1 mul exch rmoveto show grestore} def
% ======
% Shapes
% ======
% Circle:
/Circ {0 360 arc closepath} def
%
% Square:
/Squa {dup dup -0.5 mul dup dup R -2 mul 0 exch rL 1 mul 0 rL dup 0 exch -1 mul rL closepath} def
%
% Triangle Up:
/TriU {dup dup dup -0.4 mul exch -0.5 mul exch R dup 0.5 mul exch rL dup -1 mul exch 0.5 mul exch rL closepath} def 
%
% Triangle Down:
/TriD {dup dup dup 0.4 mul exch -0.5 mul exch R dup 0.5 mul exch -1 mul rL dup 0.5 mul exch rL closepath} def 
%
% Diamond:
/Diam {45 rotate Squa} def
% ======
% Fills
% ======
/GRF {gsave setgray fill grestore} def                    % gray-level Fill
/COF {gsave setrgbcolor fill grestore} def                % color fill
% ======
% Colors
% ======
/C01 {1.00	0.00	0.00} def      % Red
/C02 {0.00	0.00	1.00} def      % Blue
/C03 {0.00	0.39	0.00} def      % Dark Green
/C04 {0.78	0.08	0.52} def      % Medium Violet Red
/C05 {0.55	0.27	0.07} def      % Saddle Brown
/C06 {0.10	0.70	0.70} def      % (cyan)
/C07 {1.00	0.55	0.00} def      % Dark Orange
/C08 {0.63	0.13	0.94} def      % Purple
/C09 {0.00	0.75	1.00} def      % Deep Sky Blue
/C10 {0.20	0.80	0.20} def      % Lime Green
/C11 {0.47	0.53	0.60} def      % Light Slate Gray
/C12 {0.00	0.00	0.00} def      % Black            % or: {0.19	0.31	0.31} def      % Dark Slate Gray
%
/LGR {0.75} def % light gray
/DGR {0.33} def % dark gray
%
% =============
% Dash patterns
% =============
/dash01 { [80  20] 0 setdash } def
/dash02 { [40  20] 0 setdash } def
/dash03 { [80  20  10  20] 0 setdash } def
/dash04 { [40  20  10  20] 0 setdash } def
/dash05 { [80  20  10  10  10  20] 0 setdash } def
/dash06 { [40  20  10  10  10  20] 0 setdash } def
/dash07 { [10  10] 0 setdash } def
%
/MFshow {
   { dup 5 get 3 ge
     { 5 get 3 eq {gsave} {grestore} ifelse }
     {dup dup 0 get findfont exch 1 get scalefont setfont
     [ currentpoint ] exch dup 2 get 0 exch R dup 5 get 2 ne {dup dup 6
     get exch 4 get {show} {stringwidth pop 0 R} ifelse }if dup 5 get 0 eq
     {dup 3 get {2 get neg 0 exch R pop} {pop aload pop M} ifelse} {dup 5
     get 1 eq {dup 2 get exch dup 3 get exch 6 get stringwidth pop -2 div
     dup 0 R} {dup 6 get stringwidth pop -2 div 0 R 6 get
     show 2 index {aload pop M neg 3 -1 roll neg R pop pop} {pop pop pop
     pop aload pop M} ifelse }ifelse }ifelse }
     ifelse }
   forall} bind def
/MFwidth {0 exch {dup 3 get{dup dup 0 get findfont exch 1 get scalefont
     setfont 6 get stringwidth pop add} {pop} ifelse} forall} bind def
/MCshow { currentpoint stroke M
  exch dup MFwidth -2 div 3 -1 roll R MFshow } def
%
end
%%EndProlog
bkdict begin
0.1 0.1 scale
%
% Model curves:
%

GSN 753 5166 M
753 5166 L
786 5159 L
820 5150 L
853 5139 L
886 5127 L
903 5121 L
919 5114 L
953 5097 L
986 5079 L
1020 5058 L
1053 5033 L
1053 5033 L
1086 5004 L
1120 4972 L
1153 4935 L
1186 4892 L
1203 4868 L
1220 4844 L
1253 4789 L
1286 4727 L
1320 4658 L
1353 4580 L
1353 4579 L
1386 4495 L
1420 4400 L
1453 4297 L
1486 4186 L
1503 4125 L
1520 4066 L
1553 3940 L
1586 3809 L
1620 3673 L
1653 3535 L
1653 3533 L
1686 3398 L
1720 3264 L
1753 3136 L
1786 3017 L
1804 2958 L
1820 2908 L
1853 2812 L
1886 2730 L
1920 2664 L
1953 2612 L
1954 2611 L
1986 2575 L
2020 2549 L
2053 2533 L
2086 2523 L
2104 2521 L
2120 2519 L
2153 2517 L
2186 2516 L
2220 2516 L
2253 2516 L
2254 2516 L
2286 2516 L
2320 2516 L
2353 2516 L
2386 2516 L
2404 2516 L
2420 2516 L
2453 2516 L
2486 2516 L
2520 2516 L
2553 2516 L
2554 2516 L
2586 2516 L
2620 2515 L
2653 2515 L
2686 2515 L
2704 2515 L
2720 2515 L
2753 2515 L
2786 2515 L
2820 2515 L
2853 2515 L
2854 2515 L
2886 2515 L
2920 2515 L
2953 2515 L
2986 2515 L
3004 2515 L
3020 2515 L
3053 2515 L
3068 2515 L
3086 2515 L
3120 2514 L
3153 2514 L
3155 2514 L
3186 2514 L
3220 2514 L
3253 2513 L
3286 2513 L
3305 2513 L
3320 2512 L
3353 2512 L
3386 2511 L
3420 2511 L
3453 2510 L
3455 2510 L
3486 2509 L
3520 2508 L
3553 2506 L
3586 2505 L
3605 2504 L
3620 2503 L
3653 2501 L
3686 2498 L
3720 2496 L
3753 2492 L
3755 2492 L
3786 2488 L
3820 2484 L
3853 2479 L
3886 2473 L
3905 2469 L
3920 2465 L
3953 2457 L
3986 2447 L
4020 2436 L
4053 2423 L
4086 2408 L
LWMC SL  C06 COSGR

%
% Experimental data:
%
GSN 773 3892 M
1625 4088 L
1773 3994 L
1860 3783 L
1922 3893 L
1970 3799 L
2009 3663 L
2043 3683 L
2072 3554 L
2097 3515 L
2120 3616 L
2140 3497 L
2159 3429 L
2176 3489 L
2192 3451 L
2207 3365 L
2221 3392 L
2234 3263 L
2247 3306 L
2259 3316 L
2270 3346 L
2280 3370 L
2290 3214 L
2300 3176 L
2309 3116 L
2318 3156 L
2326 3331 L
2335 3278 L
2342 3144 L
2350 3132 L
2357 3097 L
2364 3088 L
2371 3092 L
2378 3148 L
2384 2868 L
2391 3144 L
2397 2921 L
2403 2921 L
2409 2860 L
2414 2942 L
2420 2936 L
2425 2733 L
2430 2899 L
2435 2889 L
2440 2765 L
2445 2838 L
2450 2918 L
2455 2895 L
2459 2708 L
2464 2747 L
2468 2761 L
2472 2681 L
2476 2655 L
2481 2732 L
2485 2756 L
2489 2655 L
2492 2585 L
2496 2594 L
2500 2588 L
2504 2732 L
2507 2610 L
2511 2709 L
2514 2707 L
2518 2587 L
2521 2595 L
2525 2505 L
2528 2489 L
2531 2649 L
2534 2582 L
2538 2653 L
2541 2444 L
2544 2529 L
2547 2560 L
2550 2576 L
2553 2545 L
2556 2515 L
2559 2431 L
2561 2429 L
2564 2499 L
2567 2514 L
2570 2537 L
2580 2372 L
2590 2325 L
2600 2302 L
2609 2148 L
2618 2300 L
2627 2352 L
2635 2241 L
2643 2248 L
2650 2206 L
2658 2281 L
2665 2020 L
2672 2230 L
2678 2116 L
2685 2079 L
2691 1997 L
2697 2013 L
2703 2077 L
2709 2046 L
2714 1957 L
2720 2020 L
2725 2054 L
2730 2153 L
2735 1988 L
2740 2046 L
2745 2116 L
2750 2021 L
2755 2046 L
2759 1990 L
2764 2035 L
2768 1997 L
2772 2028 L
2777 1904 L
2781 1851 L
2785 1895 L
2789 1833 L
2793 1927 L
2796 1850 L
2800 2039 L
2804 1995 L
2808 2011 L
2811 1963 L
2815 2054 L
2818 2086 L
2822 1911 L
2825 1981 L
2828 2059 L
2831 1915 L
2835 2140 L
2838 1988 L
2841 1907 L
2844 2095 L
2847 2107 L
2850 2096 L
2853 2010 L
2856 1845 L
2859 2160 L
2862 2027 L
2864 1994 L
2867 1977 L
2870 2158 L
2873 2049 L
2875 2030 L
2878 2253 L
2880 1956 L
2883 1938 L
2886 2043 L
2888 2035 L
2891 2073 L
2893 2015 L
2895 1935 L
2898 2079 L
2900 2165 L
2902 2082 L
2905 2061 L
2907 2010 L
2909 1989 L
2912 2199 L
2914 2098 L
2916 1981 L
2918 2154 L
2920 2029 L
2922 2035 L
2925 2213 L
2927 2082 L
2929 2082 L
2931 2259 L
2933 2142 L
2935 2107 L
2937 2194 L
2939 2228 L
2941 2152 L
2943 2072 L
2945 2146 L
2947 2313 L
2948 2223 L
2950 2072 L
2952 2285 L
2954 2262 L
2956 2147 L
2958 2059 L
2959 2273 L
2961 2284 L
2963 2184 L
2965 2024 L
2966 2275 L
2968 2212 L
2970 2235 L
2972 2366 L
2973 2197 L
2975 2259 L
2977 2330 L
2978 2203 L
2980 2250 L
2982 2212 L
2983 2307 L
2985 2329 L
2986 2253 L
2988 2212 L
2989 2202 L
2991 2218 L
2993 2291 L
2994 2409 L
2996 2277 L
2997 2322 L
2999 2128 L
3000 2350 L
3002 2242 L
3003 2348 L
3005 2292 L
3006 2238 L
3007 2417 L
3009 2402 L
3010 2258 L
3012 2317 L
3013 2370 L
3014 2420 L
3016 2264 L
3017 2396 L
3019 2445 L
3020 2364 L
3021 2336 L
3023 2222 L
3024 2376 L
3025 2233 L
3027 2339 L
3028 2383 L
3029 2376 L
3031 2424 L
3032 2404 L
3033 2290 L
3034 2521 L
3036 2328 L
3037 2313 L
3038 2497 L
3039 2390 L
3041 2373 L
3042 2406 L
3043 2251 L
3044 2304 L
3045 2524 L
3047 2480 L
3048 2440 L
3049 2541 L
3050 2365 L
3051 2316 L
3053 2353 L
3054 2533 L
3055 2452 L
3056 2352 L
3057 2397 L
3058 2495 L
3059 2436 L
3061 2439 L
3062 2304 L
3063 2497 L
3064 2567 L
3065 2424 L
3066 2405 L
3067 2438 L
3068 2476 L
3069 2438 L
3070 2453 L
3071 2480 L
3073 2333 L
3074 2538 L
3075 2483 L
3076 2448 L
3077 2487 L
3078 2554 L
3079 2309 L
3080 2403 L
3081 2460 L
3082 2560 L
3083 2431 L
3084 2498 L
3085 2454 L
3086 2497 L
3087 2500 L
3088 2292 L
3089 2601 L
3112 2513 L
3133 2656 L
3152 2527 L
3170 2504 L
3186 2693 L
3201 2688 L
3216 2611 L
3229 2576 L
3241 2748 L
3253 2643 L
3264 2694 L
3275 2543 L
3285 2669 L
3295 2628 L
3304 2677 L
3313 2656 L
3322 2717 L
3330 2666 L
3338 2611 L
3346 2722 L
3353 2659 L
3360 2671 L
3367 2696 L
3374 2734 L
3380 2668 L
3387 2602 L
3393 2752 L
3399 2655 L
3405 2810 L
3410 2908 L
3416 2752 L
3421 2686 L
3426 2628 L
3431 2797 L
3436 2733 L
3441 2611 L
3446 2668 L
3451 2705 L
3455 2819 L
3460 2855 L
3464 2628 L
3469 2620 L
3473 2656 L
3477 2750 L
3481 2685 L
3485 2778 L
3489 2745 L
3493 2677 L
3496 2685 L
3500 2674 L
3504 2681 L
3507 2689 L
3511 2597 L
3514 2644 L
3518 2873 L
3521 2649 L
3525 2700 L
3528 2579 L
3531 2595 L
3534 2690 L
3537 2639 L
3540 2662 L
3543 2626 L
3546 2697 L
3549 2764 L
3552 2602 L
3555 2863 L
3558 2638 L
3561 2665 L
3564 2740 L
3566 2599 L
3575 2565 L
3586 2728 L
3595 2768 L
3605 2541 L
3613 2681 L
3622 2554 L
3630 2584 L
3638 2744 L
3646 2652 L
3653 2624 L
3660 2538 L
3667 2615 L
3674 2635 L
3681 2744 L
3687 2686 L
3693 2564 L
3699 2619 L
3705 2618 L
3710 2679 L
3716 2489 L
3721 2576 L
3727 2541 L
3732 2526 L
3737 2617 L
3742 2545 L
3746 2528 L
3751 2654 L
3756 2783 L
3760 2689 L
3764 2605 L
3769 2478 L
3773 2657 L
3777 2459 L
3781 2589 L
3785 2635 L
3789 2549 L
3793 2582 L
3797 2628 L
3800 2633 L
3804 2521 L
3808 2472 L
3811 2468 L
3815 2469 L
3818 2539 L
3821 2541 L
3825 2451 L
3828 2510 L
3831 2515 L
3834 2377 L
3838 2512 L
3841 2570 L
3844 2559 L
3847 2486 L
3850 2515 L
3853 2486 L
3855 2579 L
3858 2491 L
3861 2554 L
3864 2668 L
3867 2581 L
3869 2493 L
3872 2584 L
3875 2538 L
3877 2542 L
3880 2563 L
3882 2382 L
3885 2416 L
3887 2516 L
3890 2581 L
3892 2540 L
3895 2463 L
3897 2482 L
3899 2507 L
3902 2569 L
3904 2502 L
3906 2637 L
3908 2563 L
3911 2526 L
3913 2654 L
3915 2579 L
3917 2519 L
3919 2531 L
3921 2532 L
3923 2496 L
3926 2416 L
3928 2595 L
3930 2448 L
3932 2609 L
3934 2626 L
3936 2543 L
3938 2484 L
3940 2489 L
3942 2598 L
3943 2620 L
3945 2506 L
3947 2549 L
3949 2612 L
3951 2534 L
3953 2509 L
3955 2514 L
3956 2450 L
3958 2353 L
3960 2403 L
3962 2414 L
3963 2415 L
3965 2484 L
3967 2467 L
3969 2531 L
3970 2589 L
3972 2487 L
3974 2499 L
3975 2633 L
3977 2553 L
3978 2447 L
3980 2554 L
3982 2702 L
3983 2444 L
3985 2508 L
3986 2577 L
3988 2357 L
3990 2393 L
3991 2406 L
3993 2632 L
3994 2554 L
3996 2450 L
3997 2500 L
3999 2402 L
4000 2492 L
4001 2283 L
4003 2576 L
4004 2468 L
4006 2388 L
4007 2366 L
4009 2586 L
4010 2489 L
4011 2336 L
4013 2578 L
4014 2547 L
4016 2580 L
4017 2392 L
4018 2489 L
4020 2398 L
4021 2440 L
4022 2574 L
4024 2400 L
4025 2511 L
4026 2390 L
4028 2331 L
4029 2462 L
4030 2481 L
4031 2524 L
4033 2503 L
4034 2524 L
4035 2523 L
4036 2611 L
4038 2567 L
4039 2543 L
4040 2468 L
4041 2467 L
4042 2375 L
4044 2413 L
4045 2492 L
4046 2478 L
4047 2499 L
4048 2456 L
4050 2549 L
4051 2431 L
4052 2668 L
4053 2417 L
4054 2536 L
4055 2433 L
4056 2419 L
4058 2624 L
4059 2471 L
4060 2482 L
4061 2466 L
4062 2581 L
4063 2602 L
4064 2460 L
4065 2495 L
4066 2401 L
L2 C06 COSGR

%
%================
% Legend - Begin
%================
%
GSN 4240 5180 M
4480 5180 L
LWMC SL  C06 COSGR
GSN 4540 5141 M helvM (3.0 uM) show grestore
%
%================
% Legend - End
%================
%

%
% Residuals:
%
GSN 773 750 M
1625 1308 L
1773 1470 L
1860 1489 L
1922 1569 L
1970 1560 L
2009 1527 L
2043 1540 L
2072 1501 L
2097 1490 L
2120 1524 L
2140 1486 L
2159 1464 L
2176 1484 L
2192 1471 L
2207 1443 L
2221 1452 L
2234 1410 L
2247 1424 L
2259 1427 L
2270 1437 L
2280 1445 L
2290 1394 L
2300 1381 L
2309 1362 L
2318 1375 L
2326 1432 L
2335 1415 L
2342 1371 L
2350 1367 L
2357 1356 L
2364 1352 L
2371 1354 L
2378 1372 L
2384 1281 L
2391 1371 L
2397 1298 L
2403 1298 L
2409 1278 L
2414 1305 L
2420 1303 L
2425 1237 L
2430 1291 L
2435 1288 L
2440 1247 L
2445 1271 L
2450 1297 L
2455 1290 L
2459 1228 L
2464 1241 L
2468 1246 L
2472 1219 L
2476 1211 L
2481 1236 L
2485 1244 L
2489 1211 L
2492 1188 L
2496 1191 L
2500 1189 L
2504 1236 L
2507 1196 L
2511 1229 L
2514 1228 L
2518 1189 L
2521 1191 L
2525 1162 L
2528 1157 L
2531 1209 L
2534 1187 L
2538 1210 L
2541 1142 L
2544 1170 L
2547 1180 L
2550 1185 L
2553 1175 L
2556 1165 L
2559 1138 L
2561 1137 L
2564 1160 L
2567 1165 L
2570 1172 L
2580 1119 L
2590 1103 L
2600 1096 L
2609 1045 L
2618 1095 L
2627 1112 L
2635 1076 L
2643 1078 L
2650 1064 L
2658 1089 L
2665 1004 L
2672 1072 L
2678 1035 L
2685 1023 L
2691 996 L
2697 1001 L
2703 1022 L
2709 1012 L
2714 983 L
2720 1004 L
2725 1015 L
2730 1047 L
2735 993 L
2740 1012 L
2745 1035 L
2750 1004 L
2755 1012 L
2759 994 L
2764 1009 L
2768 996 L
2772 1006 L
2777 966 L
2781 948 L
2785 963 L
2789 942 L
2793 973 L
2796 948 L
2800 1010 L
2804 996 L
2808 1001 L
2811 985 L
2815 1015 L
2818 1025 L
2822 968 L
2825 991 L
2828 1016 L
2831 969 L
2835 1043 L
2838 993 L
2841 967 L
2844 1028 L
2847 1032 L
2850 1029 L
2853 1000 L
2856 946 L
2859 1049 L
2862 1006 L
2864 995 L
2867 990 L
2870 1049 L
2873 1013 L
2875 1007 L
2878 1080 L
2880 983 L
2883 977 L
2886 1011 L
2888 1008 L
2891 1021 L
2893 1002 L
2895 976 L
2898 1023 L
2900 1051 L
2902 1024 L
2905 1017 L
2907 1001 L
2909 994 L
2912 1062 L
2914 1029 L
2916 991 L
2918 1047 L
2920 1007 L
2922 1009 L
2925 1067 L
2927 1024 L
2929 1024 L
2931 1082 L
2933 1044 L
2935 1032 L
2937 1061 L
2939 1072 L
2941 1047 L
2943 1021 L
2945 1045 L
2947 1099 L
2948 1070 L
2950 1021 L
2952 1090 L
2954 1083 L
2956 1045 L
2958 1016 L
2959 1086 L
2961 1090 L
2963 1057 L
2965 1005 L
2966 1087 L
2968 1067 L
2970 1074 L
2972 1117 L
2973 1061 L
2975 1082 L
2977 1105 L
2978 1064 L
2980 1079 L
2982 1067 L
2983 1097 L
2985 1105 L
2986 1080 L
2988 1066 L
2989 1063 L
2991 1068 L
2993 1092 L
2994 1131 L
2996 1088 L
2997 1102 L
2999 1039 L
3000 1112 L
3002 1076 L
3003 1111 L
3005 1093 L
3006 1075 L
3007 1134 L
3009 1129 L
3010 1081 L
3012 1101 L
3013 1118 L
3014 1134 L
3016 1083 L
3017 1127 L
3019 1143 L
3020 1116 L
3021 1107 L
3023 1070 L
3024 1120 L
3025 1073 L
3027 1108 L
3028 1122 L
3029 1120 L
3031 1136 L
3032 1129 L
3033 1092 L
3034 1168 L
3036 1105 L
3037 1100 L
3038 1160 L
3039 1125 L
3041 1119 L
3042 1130 L
3043 1079 L
3044 1096 L
3045 1168 L
3047 1154 L
3048 1141 L
3049 1174 L
3050 1117 L
3051 1100 L
3053 1113 L
3054 1172 L
3055 1145 L
3056 1112 L
3057 1127 L
3058 1159 L
3059 1140 L
3061 1141 L
3062 1096 L
3063 1160 L
3064 1183 L
3065 1136 L
3066 1130 L
3067 1140 L
3068 1153 L
3069 1140 L
3070 1145 L
3071 1154 L
3073 1106 L
3074 1173 L
3075 1155 L
3076 1144 L
3077 1156 L
3078 1178 L
3079 1098 L
3080 1129 L
3081 1148 L
3082 1180 L
3083 1138 L
3084 1160 L
3085 1146 L
3086 1160 L
3087 1161 L
3088 1093 L
3089 1194 L
3112 1165 L
3133 1212 L
3152 1170 L
3170 1162 L
3186 1224 L
3201 1222 L
3216 1197 L
3229 1186 L
3241 1242 L
3253 1208 L
3264 1225 L
3275 1175 L
3285 1217 L
3295 1203 L
3304 1219 L
3313 1212 L
3322 1232 L
3330 1216 L
3338 1198 L
3346 1234 L
3353 1214 L
3360 1217 L
3367 1226 L
3374 1238 L
3380 1217 L
3387 1195 L
3393 1244 L
3399 1213 L
3405 1263 L
3410 1295 L
3416 1244 L
3421 1223 L
3426 1204 L
3431 1259 L
3436 1238 L
3441 1199 L
3446 1217 L
3451 1229 L
3455 1266 L
3460 1278 L
3464 1204 L
3469 1202 L
3473 1214 L
3477 1244 L
3481 1223 L
3485 1253 L
3489 1243 L
3493 1220 L
3496 1223 L
3500 1219 L
3504 1222 L
3507 1225 L
3511 1194 L
3514 1210 L
3518 1285 L
3521 1212 L
3525 1229 L
3528 1189 L
3531 1194 L
3534 1225 L
3537 1209 L
3540 1216 L
3543 1204 L
3546 1228 L
3549 1250 L
3552 1197 L
3555 1282 L
3558 1208 L
3561 1217 L
3564 1242 L
3566 1196 L
3575 1185 L
3586 1239 L
3595 1252 L
3605 1178 L
3613 1224 L
3622 1182 L
3630 1192 L
3638 1244 L
3646 1215 L
3653 1206 L
3660 1178 L
3667 1203 L
3674 1210 L
3681 1246 L
3687 1227 L
3693 1187 L
3699 1205 L
3705 1205 L
3710 1225 L
3716 1163 L
3721 1192 L
3727 1180 L
3732 1176 L
3737 1206 L
3742 1182 L
3746 1177 L
3751 1218 L
3756 1261 L
3760 1230 L
3764 1203 L
3769 1161 L
3773 1220 L
3777 1156 L
3781 1198 L
3785 1213 L
3789 1185 L
3793 1196 L
3797 1211 L
3800 1213 L
3804 1177 L
3808 1161 L
3811 1160 L
3815 1160 L
3818 1183 L
3821 1184 L
3825 1155 L
3828 1175 L
3831 1176 L
3834 1131 L
3838 1176 L
3841 1195 L
3844 1191 L
3847 1168 L
3850 1177 L
3853 1168 L
3855 1199 L
3858 1170 L
3861 1190 L
3864 1228 L
3867 1200 L
3869 1171 L
3872 1201 L
3875 1186 L
3877 1188 L
3880 1194 L
3882 1135 L
3885 1147 L
3887 1180 L
3890 1201 L
3892 1188 L
3895 1163 L
3897 1169 L
3899 1178 L
3902 1198 L
3904 1176 L
3906 1221 L
3908 1197 L
3911 1184 L
3913 1227 L
3915 1202 L
3917 1183 L
3919 1187 L
3921 1187 L
3923 1176 L
3926 1150 L
3928 1208 L
3930 1160 L
3932 1213 L
3934 1219 L
3936 1192 L
3938 1173 L
3940 1175 L
3942 1211 L
3943 1218 L
3945 1181 L
3947 1195 L
3949 1216 L
3951 1190 L
3953 1183 L
3955 1184 L
3956 1163 L
3958 1132 L
3960 1149 L
3962 1152 L
3963 1153 L
3965 1175 L
3967 1170 L
3969 1191 L
3970 1210 L
3972 1177 L
3974 1181 L
3975 1225 L
3977 1199 L
3978 1165 L
3980 1200 L
3982 1248 L
3983 1164 L
3985 1185 L
3986 1208 L
3988 1136 L
3990 1148 L
3991 1152 L
3993 1226 L
3994 1201 L
3996 1167 L
3997 1184 L
3999 1152 L
4000 1181 L
4001 1114 L
4003 1209 L
4004 1174 L
4006 1148 L
4007 1141 L
4009 1213 L
4010 1182 L
4011 1132 L
4013 1211 L
4014 1201 L
4016 1212 L
4017 1151 L
4018 1183 L
4020 1153 L
4021 1167 L
4022 1211 L
4024 1154 L
4025 1191 L
4026 1151 L
4028 1132 L
4029 1175 L
4030 1182 L
4031 1196 L
4033 1189 L
4034 1196 L
4035 1196 L
4036 1225 L
4038 1210 L
4039 1203 L
4040 1178 L
4041 1178 L
4042 1148 L
4044 1161 L
4045 1187 L
4046 1182 L
4047 1190 L
4048 1176 L
4050 1206 L
4051 1168 L
4052 1245 L
4053 1164 L
4054 1203 L
4055 1169 L
4056 1165 L
4058 1232 L
4059 1182 L
4060 1186 L
4061 1181 L
4062 1218 L
4063 1225 L
4064 1179 L
4065 1191 L
4066 1160 L
L2 C06 COSGR

%
% Main frame
%
L10
GSN 
620 1700 M
4220 1700 L
4220 5300 L
620 5300 L
closepath SGR

%
% X axis: large tics
%
L10
GSN 1074 1700 M 0  54 rL SGR
GSN 1074 5300 M 0 -54 rL SGR
helvS (0.0001) 1074 470 xlabel
GSN 1572 1700 M 0  54 rL SGR
GSN 1572 5300 M 0 -54 rL SGR
helvS (0.001) 1572 470 xlabel
GSN 2071 1700 M 0  54 rL SGR
GSN 2071 5300 M 0 -54 rL SGR
helvS (0.01) 2071 470 xlabel
GSN 2570 1700 M 0  54 rL SGR
GSN 2570 5300 M 0 -54 rL SGR
helvS (0.1) 2570 470 xlabel
GSN 3068 1700 M 0  54 rL SGR
GSN 3068 5300 M 0 -54 rL SGR
helvS (1) 3068 470 xlabel
GSN 3567 1700 M 0  54 rL SGR
GSN 3567 5300 M 0 -54 rL SGR
helvS (10) 3567 470 xlabel
GSN 4066 1700 M 0  54 rL SGR
GSN 4066 5300 M 0 -54 rL SGR
helvS (100) 4066 470 xlabel
%
% X axis: small tics
%
L5
GSN 725 1700 M 0  36 rL SGR
GSN 725 5300 M 0 -36 rL SGR
GSN 813 1700 M 0  36 rL SGR
GSN 813 5300 M 0 -36 rL SGR
GSN 875 1700 M 0  36 rL SGR
GSN 875 5300 M 0 -36 rL SGR
GSN 924 1700 M 0  36 rL SGR
GSN 924 5300 M 0 -36 rL SGR
GSN 963 1700 M 0  36 rL SGR
GSN 963 5300 M 0 -36 rL SGR
GSN 996 1700 M 0  36 rL SGR
GSN 996 5300 M 0 -36 rL SGR
GSN 1025 1700 M 0  36 rL SGR
GSN 1025 5300 M 0 -36 rL SGR
GSN 1051 1700 M 0  36 rL SGR
GSN 1051 5300 M 0 -36 rL SGR
GSN 1224 1700 M 0  36 rL SGR
GSN 1224 5300 M 0 -36 rL SGR
GSN 1312 1700 M 0  36 rL SGR
GSN 1312 5300 M 0 -36 rL SGR
GSN 1374 1700 M 0  36 rL SGR
GSN 1374 5300 M 0 -36 rL SGR
GSN 1422 1700 M 0  36 rL SGR
GSN 1422 5300 M 0 -36 rL SGR
GSN 1462 1700 M 0  36 rL SGR
GSN 1462 5300 M 0 -36 rL SGR
GSN 1495 1700 M 0  36 rL SGR
GSN 1495 5300 M 0 -36 rL SGR
GSN 1524 1700 M 0  36 rL SGR
GSN 1524 5300 M 0 -36 rL SGR
GSN 1550 1700 M 0  36 rL SGR
GSN 1550 5300 M 0 -36 rL SGR
GSN 1722 1700 M 0  36 rL SGR
GSN 1722 5300 M 0 -36 rL SGR
GSN 1810 1700 M 0  36 rL SGR
GSN 1810 5300 M 0 -36 rL SGR
GSN 1873 1700 M 0  36 rL SGR
GSN 1873 5300 M 0 -36 rL SGR
GSN 1921 1700 M 0  36 rL SGR
GSN 1921 5300 M 0 -36 rL SGR
GSN 1960 1700 M 0  36 rL SGR
GSN 1960 5300 M 0 -36 rL SGR
GSN 1994 1700 M 0  36 rL SGR
GSN 1994 5300 M 0 -36 rL SGR
GSN 2023 1700 M 0  36 rL SGR
GSN 2023 5300 M 0 -36 rL SGR
GSN 2048 1700 M 0  36 rL SGR
GSN 2048 5300 M 0 -36 rL SGR
GSN 2221 1700 M 0  36 rL SGR
GSN 2221 5300 M 0 -36 rL SGR
GSN 2309 1700 M 0  36 rL SGR
GSN 2309 5300 M 0 -36 rL SGR
GSN 2371 1700 M 0  36 rL SGR
GSN 2371 5300 M 0 -36 rL SGR
GSN 2420 1700 M 0  36 rL SGR
GSN 2420 5300 M 0 -36 rL SGR
GSN 2459 1700 M 0  36 rL SGR
GSN 2459 5300 M 0 -36 rL SGR
GSN 2492 1700 M 0  36 rL SGR
GSN 2492 5300 M 0 -36 rL SGR
GSN 2521 1700 M 0  36 rL SGR
GSN 2521 5300 M 0 -36 rL SGR
GSN 2547 1700 M 0  36 rL SGR
GSN 2547 5300 M 0 -36 rL SGR
GSN 2720 1700 M 0  36 rL SGR
GSN 2720 5300 M 0 -36 rL SGR
GSN 2808 1700 M 0  36 rL SGR
GSN 2808 5300 M 0 -36 rL SGR
GSN 2870 1700 M 0  36 rL SGR
GSN 2870 5300 M 0 -36 rL SGR
GSN 2918 1700 M 0  36 rL SGR
GSN 2918 5300 M 0 -36 rL SGR
GSN 2958 1700 M 0  36 rL SGR
GSN 2958 5300 M 0 -36 rL SGR
GSN 2991 1700 M 0  36 rL SGR
GSN 2991 5300 M 0 -36 rL SGR
GSN 3020 1700 M 0  36 rL SGR
GSN 3020 5300 M 0 -36 rL SGR
GSN 3045 1700 M 0  36 rL SGR
GSN 3045 5300 M 0 -36 rL SGR
GSN 3218 1700 M 0  36 rL SGR
GSN 3218 5300 M 0 -36 rL SGR
GSN 3306 1700 M 0  36 rL SGR
GSN 3306 5300 M 0 -36 rL SGR
GSN 3368 1700 M 0  36 rL SGR
GSN 3368 5300 M 0 -36 rL SGR
GSN 3417 1700 M 0  36 rL SGR
GSN 3417 5300 M 0 -36 rL SGR
GSN 3456 1700 M 0  36 rL SGR
GSN 3456 5300 M 0 -36 rL SGR
GSN 3490 1700 M 0  36 rL SGR
GSN 3490 5300 M 0 -36 rL SGR
GSN 3519 1700 M 0  36 rL SGR
GSN 3519 5300 M 0 -36 rL SGR
GSN 3544 1700 M 0  36 rL SGR
GSN 3544 5300 M 0 -36 rL SGR
GSN 3717 1700 M 0  36 rL SGR
GSN 3717 5300 M 0 -36 rL SGR
GSN 3805 1700 M 0  36 rL SGR
GSN 3805 5300 M 0 -36 rL SGR
GSN 3867 1700 M 0  36 rL SGR
GSN 3867 5300 M 0 -36 rL SGR
GSN 3915 1700 M 0  36 rL SGR
GSN 3915 5300 M 0 -36 rL SGR
GSN 3955 1700 M 0  36 rL SGR
GSN 3955 5300 M 0 -36 rL SGR
GSN 3988 1700 M 0  36 rL SGR
GSN 3988 5300 M 0 -36 rL SGR
GSN 4017 1700 M 0  36 rL SGR
GSN 4017 5300 M 0 -36 rL SGR
GSN 4043 1700 M 0  36 rL SGR
GSN 4043 5300 M 0 -36 rL SGR
GSN 4216 1700 M 0  36 rL SGR
GSN 4216 5300 M 0 -36 rL SGR
%
% Y axis: large tics
%
L10
GSN 620 2349 M 54 0 rL SGR
GSN 4220 2349 M -54 0 rL SGR
helvS (0.925) 560 2349 ylabel
GSN 620 3083 M 54 0 rL SGR
GSN 4220 3083 M -54 0 rL SGR
helvS (0.95) 560 3083 ylabel
GSN 620 3818 M 54 0 rL SGR
GSN 4220 3818 M -54 0 rL SGR
helvS (0.975) 560 3818 ylabel
GSN 620 4552 M 54 0 rL SGR
GSN 4220 4552 M -54 0 rL SGR
helvS (1) 560 4552 ylabel
GSN 620 5287 M 54 0 rL SGR
GSN 4220 5287 M -54 0 rL SGR
helvS (1.025) 560 5287 ylabel
%
% Y axis: small tics
%
L5
GSN 620 1981 M 36 0 rL SGR
GSN 4220 1981 M -36 0 rL SGR
GSN 620 2349 M 36 0 rL SGR
GSN 4220 2349 M -36 0 rL SGR
GSN 620 2716 M 36 0 rL SGR
GSN 4220 2716 M -36 0 rL SGR
GSN 620 3083 M 36 0 rL SGR
GSN 4220 3083 M -36 0 rL SGR
GSN 620 3450 M 36 0 rL SGR
GSN 4220 3450 M -36 0 rL SGR
GSN 620 3818 M 36 0 rL SGR
GSN 4220 3818 M -36 0 rL SGR
GSN 620 4185 M 36 0 rL SGR
GSN 4220 4185 M -36 0 rL SGR
GSN 620 4552 M 36 0 rL SGR
GSN 4220 4552 M -36 0 rL SGR
GSN 620 4919 M 36 0 rL SGR
GSN 4220 4919 M -36 0 rL SGR
GSN 620 5287 M 36 0 rL SGR
GSN 4220 5287 M -36 0 rL SGR

%
% X-Axis label:
%
gsave 2420 290 M 
[
[(Helvetica) 180 0 true true 0 (t)]
[(Helvetica) 180 0 true true 0 (i)]
[(Helvetica) 180 0 true true 0 (m)]
[(Helvetica) 180 0 true true 0 (e)]
] 0 MCshow grestore

%
% Y-Axis label:
%
gsave 234 3499 M 
currentpoint gsave translate 90 rotate 0 0 moveto
[
[(Helvetica) 180 0 true true 0 (s)]
[(Helvetica) 180 0 true true 0 (i)]
[(Helvetica) 180 0 true true 0 (g)]
[(Helvetica) 180 0 true true 0 (n)]
[(Helvetica) 180 0 true true 0 (a)]
[(Helvetica) 180 0 true true 0 (l)]
] 0 MCshow grestore

%
% Residuals:
%
gsave 129 1160 M 
currentpoint gsave translate 90 rotate 0 0 moveto
[
[(Helvetica) 150 0 true true 0 (r)]
[(Helvetica) 150 0 true true 0 (e)]
[(Helvetica) 150 0 true true 0 (s)]
[(Helvetica) 150 0 true true 0 (i)]
[(Helvetica) 150 0 true true 0 (d)]
[(Helvetica) 150 0 true true 0 (u)]
[(Helvetica) 150 0 true true 0 (a)]
[(Helvetica) 150 0 true true 0 (l)]
[(Helvetica) 150 0 true true 0 (s)]
] 0 MCshow grestore

%
% Residual frame
%
L10
GSN 
620 620 M
4220 620 L
4220 1700 L
620 1700 L
closepath SGR
%
% X axis: large tics - residual frame
%
L10
GSN 1074 620 M 0  54 rL SGR
GSN 1074 1700 M 0 -54 rL SGR
GSN 1572 620 M 0  54 rL SGR
GSN 1572 1700 M 0 -54 rL SGR
GSN 2071 620 M 0  54 rL SGR
GSN 2071 1700 M 0 -54 rL SGR
GSN 2570 620 M 0  54 rL SGR
GSN 2570 1700 M 0 -54 rL SGR
GSN 3068 620 M 0  54 rL SGR
GSN 3068 1700 M 0 -54 rL SGR
GSN 3567 620 M 0  54 rL SGR
GSN 3567 1700 M 0 -54 rL SGR
GSN 4066 620 M 0  54 rL SGR
GSN 4066 1700 M 0 -54 rL SGR
%
% X axis: small tics - residual frame
%
L5
GSN 725 620 M 0  36 rL SGR
GSN 725 1700 M 0 -36 rL SGR
GSN 813 620 M 0  36 rL SGR
GSN 813 1700 M 0 -36 rL SGR
GSN 875 620 M 0  36 rL SGR
GSN 875 1700 M 0 -36 rL SGR
GSN 924 620 M 0  36 rL SGR
GSN 924 1700 M 0 -36 rL SGR
GSN 963 620 M 0  36 rL SGR
GSN 963 1700 M 0 -36 rL SGR
GSN 996 620 M 0  36 rL SGR
GSN 996 1700 M 0 -36 rL SGR
GSN 1025 620 M 0  36 rL SGR
GSN 1025 1700 M 0 -36 rL SGR
GSN 1051 620 M 0  36 rL SGR
GSN 1051 1700 M 0 -36 rL SGR
GSN 1224 620 M 0  36 rL SGR
GSN 1224 1700 M 0 -36 rL SGR
GSN 1312 620 M 0  36 rL SGR
GSN 1312 1700 M 0 -36 rL SGR
GSN 1374 620 M 0  36 rL SGR
GSN 1374 1700 M 0 -36 rL SGR
GSN 1422 620 M 0  36 rL SGR
GSN 1422 1700 M 0 -36 rL SGR
GSN 1462 620 M 0  36 rL SGR
GSN 1462 1700 M 0 -36 rL SGR
GSN 1495 620 M 0  36 rL SGR
GSN 1495 1700 M 0 -36 rL SGR
GSN 1524 620 M 0  36 rL SGR
GSN 1524 1700 M 0 -36 rL SGR
GSN 1550 620 M 0  36 rL SGR
GSN 1550 1700 M 0 -36 rL SGR
GSN 1722 620 M 0  36 rL SGR
GSN 1722 1700 M 0 -36 rL SGR
GSN 1810 620 M 0  36 rL SGR
GSN 1810 1700 M 0 -36 rL SGR
GSN 1873 620 M 0  36 rL SGR
GSN 1873 1700 M 0 -36 rL SGR
GSN 1921 620 M 0  36 rL SGR
GSN 1921 1700 M 0 -36 rL SGR
GSN 1960 620 M 0  36 rL SGR
GSN 1960 1700 M 0 -36 rL SGR
GSN 1994 620 M 0  36 rL SGR
GSN 1994 1700 M 0 -36 rL SGR
GSN 2023 620 M 0  36 rL SGR
GSN 2023 1700 M 0 -36 rL SGR
GSN 2048 620 M 0  36 rL SGR
GSN 2048 1700 M 0 -36 rL SGR
GSN 2221 620 M 0  36 rL SGR
GSN 2221 1700 M 0 -36 rL SGR
GSN 2309 620 M 0  36 rL SGR
GSN 2309 1700 M 0 -36 rL SGR
GSN 2371 620 M 0  36 rL SGR
GSN 2371 1700 M 0 -36 rL SGR
GSN 2420 620 M 0  36 rL SGR
GSN 2420 1700 M 0 -36 rL SGR
GSN 2459 620 M 0  36 rL SGR
GSN 2459 1700 M 0 -36 rL SGR
GSN 2492 620 M 0  36 rL SGR
GSN 2492 1700 M 0 -36 rL SGR
GSN 2521 620 M 0  36 rL SGR
GSN 2521 1700 M 0 -36 rL SGR
GSN 2547 620 M 0  36 rL SGR
GSN 2547 1700 M 0 -36 rL SGR
GSN 2720 620 M 0  36 rL SGR
GSN 2720 1700 M 0 -36 rL SGR
GSN 2808 620 M 0  36 rL SGR
GSN 2808 1700 M 0 -36 rL SGR
GSN 2870 620 M 0  36 rL SGR
GSN 2870 1700 M 0 -36 rL SGR
GSN 2918 620 M 0  36 rL SGR
GSN 2918 1700 M 0 -36 rL SGR
GSN 2958 620 M 0  36 rL SGR
GSN 2958 1700 M 0 -36 rL SGR
GSN 2991 620 M 0  36 rL SGR
GSN 2991 1700 M 0 -36 rL SGR
GSN 3020 620 M 0  36 rL SGR
GSN 3020 1700 M 0 -36 rL SGR
GSN 3045 620 M 0  36 rL SGR
GSN 3045 1700 M 0 -36 rL SGR
GSN 3218 620 M 0  36 rL SGR
GSN 3218 1700 M 0 -36 rL SGR
GSN 3306 620 M 0  36 rL SGR
GSN 3306 1700 M 0 -36 rL SGR
GSN 3368 620 M 0  36 rL SGR
GSN 3368 1700 M 0 -36 rL SGR
GSN 3417 620 M 0  36 rL SGR
GSN 3417 1700 M 0 -36 rL SGR
GSN 3456 620 M 0  36 rL SGR
GSN 3456 1700 M 0 -36 rL SGR
GSN 3490 620 M 0  36 rL SGR
GSN 3490 1700 M 0 -36 rL SGR
GSN 3519 620 M 0  36 rL SGR
GSN 3519 1700 M 0 -36 rL SGR
GSN 3544 620 M 0  36 rL SGR
GSN 3544 1700 M 0 -36 rL SGR
GSN 3717 620 M 0  36 rL SGR
GSN 3717 1700 M 0 -36 rL SGR
GSN 3805 620 M 0  36 rL SGR
GSN 3805 1700 M 0 -36 rL SGR
GSN 3867 620 M 0  36 rL SGR
GSN 3867 1700 M 0 -36 rL SGR
GSN 3915 620 M 0  36 rL SGR
GSN 3915 1700 M 0 -36 rL SGR
GSN 3955 620 M 0  36 rL SGR
GSN 3955 1700 M 0 -36 rL SGR
GSN 3988 620 M 0  36 rL SGR
GSN 3988 1700 M 0 -36 rL SGR
GSN 4017 620 M 0  36 rL SGR
GSN 4017 1700 M 0 -36 rL SGR
GSN 4043 620 M 0  36 rL SGR
GSN 4043 1700 M 0 -36 rL SGR
GSN 4216 620 M 0  36 rL SGR
GSN 4216 1700 M 0 -36 rL SGR
%
% Y axis: large tics - residual frame
%
L10
GSN 620 685 M 54 0 rL SGR
GSN 4220 685 M -54 0 rL SGR
helvS (-0.05) 560 685 ylabelresid
GSN 620 1165 M 54 0 rL SGR
GSN 4220 1165 M -54 0 rL SGR
helvS (0) 560 1165 ylabelresid
GSN 620 1646 M 54 0 rL SGR
GSN 4220 1646 M -54 0 rL SGR
helvS (0.05) 560 1646 ylabelresid

%
% X axis - residual panel
%
GSN L5 620 1165 M 4220 1165 L SDA G50 SGR

end
showpage
%%Trailer
%%EOF
