%!PS-Adobe-3.0 EPSF-3.0
%%BoundingBox: 0 0 514 550
%%Creator: BioKin Ltd.
%%DocumentFonts: Symbol Helvetica
%%EndComments
%
/bkdict 256 dict def
bkdict begin
/M {moveto} def 
/R {rmoveto} def
/L {lineto} def
/rL {rlineto} def
/GSN {gsave newpath} def
/SGR {stroke grestore} def
/COSGR {gsave setrgbcolor stroke grestore grestore} def
/SL {setlinewidth} def
/LWMB {12} def             % line width - model curves, black & white
/LWMC {10} def             % line width - model curves, color
/L2 {2.5 setlinewidth} def
/L5 {5 setlinewidth} def
/L10 {10 setlinewidth} def
/G50 {0.5 setgray} def
/SDA {[10  20] 0 setdash} def % axes
/helvT {/Helvetica findfont 100 scalefont setfont} def % tiny
/helvS {/Helvetica findfont 125 scalefont setfont} def % small
/helvM {/Helvetica findfont 150 scalefont setfont} def % medium
/helvL {/Helvetica findfont 175 scalefont setfont} def % large
/xlabel {gsave M dup
   stringwidth exch -0.5 mul exch rmoveto show grestore} def 
/ylabel {gsave M 90 rotate dup
   stringwidth exch -0.5 mul exch rmoveto show grestore} def
/ylabelresid {gsave M dup
   stringwidth exch -1 mul exch rmoveto show grestore} def
% ======
% Shapes
% ======
% Circle:
/Circ {0 360 arc closepath} def
%
% Square:
/Squa {dup dup -0.5 mul dup dup R -2 mul 0 exch rL 1 mul 0 rL dup 0 exch -1 mul rL closepath} def
%
% Triangle Up:
/TriU {dup dup dup -0.4 mul exch -0.5 mul exch R dup 0.5 mul exch rL dup -1 mul exch 0.5 mul exch rL closepath} def 
%
% Triangle Down:
/TriD {dup dup dup 0.4 mul exch -0.5 mul exch R dup 0.5 mul exch -1 mul rL dup 0.5 mul exch rL closepath} def 
%
% Diamond:
/Diam {45 rotate Squa} def
% ======
% Fills
% ======
/GRF {gsave setgray fill grestore} def                    % gray-level Fill
/COF {gsave setrgbcolor fill grestore} def                % color fill
% ======
% Colors
% ======
/C01 {1.00	0.00	0.00} def      % Red
/C02 {0.00	0.00	1.00} def      % Blue
/C03 {0.00	0.39	0.00} def      % Dark Green
/C04 {0.78	0.08	0.52} def      % Medium Violet Red
/C05 {0.55	0.27	0.07} def      % Saddle Brown
/C06 {0.10	0.70	0.70} def      % (cyan)
/C07 {1.00	0.55	0.00} def      % Dark Orange
/C08 {0.63	0.13	0.94} def      % Purple
/C09 {0.00	0.75	1.00} def      % Deep Sky Blue
/C10 {0.20	0.80	0.20} def      % Lime Green
/C11 {0.47	0.53	0.60} def      % Light Slate Gray
/C12 {0.00	0.00	0.00} def      % Black            % or: {0.19	0.31	0.31} def      % Dark Slate Gray
%
/LGR {0.75} def % light gray
/DGR {0.33} def % dark gray
%
% =============
% Dash patterns
% =============
/dash01 { [80  20] 0 setdash } def
/dash02 { [40  20] 0 setdash } def
/dash03 { [80  20  10  20] 0 setdash } def
/dash04 { [40  20  10  20] 0 setdash } def
/dash05 { [80  20  10  10  10  20] 0 setdash } def
/dash06 { [40  20  10  10  10  20] 0 setdash } def
/dash07 { [10  10] 0 setdash } def
%
/MFshow {
   { dup 5 get 3 ge
     { 5 get 3 eq {gsave} {grestore} ifelse }
     {dup dup 0 get findfont exch 1 get scalefont setfont
     [ currentpoint ] exch dup 2 get 0 exch R dup 5 get 2 ne {dup dup 6
     get exch 4 get {show} {stringwidth pop 0 R} ifelse }if dup 5 get 0 eq
     {dup 3 get {2 get neg 0 exch R pop} {pop aload pop M} ifelse} {dup 5
     get 1 eq {dup 2 get exch dup 3 get exch 6 get stringwidth pop -2 div
     dup 0 R} {dup 6 get stringwidth pop -2 div 0 R 6 get
     show 2 index {aload pop M neg 3 -1 roll neg R pop pop} {pop pop pop
     pop aload pop M} ifelse }ifelse }ifelse }
     ifelse }
   forall} bind def
/MFwidth {0 exch {dup 3 get{dup dup 0 get findfont exch 1 get scalefont
     setfont 6 get stringwidth pop add} {pop} ifelse} forall} bind def
/MCshow { currentpoint stroke M
  exch dup MFwidth -2 div 3 -1 roll R MFshow } def
%
end
%%EndProlog
bkdict begin
0.1 0.1 scale
%
% Residuals:
%
GSN 620 3711 M
620 3148 L
620 2956 L
620 3559 L
620 3606 L
620 3364 L
620 3416 L
620 3471 L
620 3631 L
620 3641 L
620 3429 L
620 3822 L
620 3455 L
620 3567 L
620 4150 L
620 3747 L
620 3865 L
620 3590 L
620 3719 L
620 3783 L
620 3811 L
620 3645 L
620 3521 L
620 3656 L
620 4095 L
620 3769 L
620 3934 L
620 3803 L
620 3972 L
620 3970 L
620 4014 L
620 3861 L
620 3711 L
620 3543 L
620 3773 L
620 3778 L
620 3631 L
620 3920 L
620 4127 L
620 3978 L
620 3929 L
620 3718 L
620 4001 L
620 3559 L
620 3636 L
620 3771 L
620 3872 L
620 3774 L
620 3801 L
620 3799 L
620 3582 L
620 3630 L
620 3651 L
620 3500 L
620 3138 L
620 3887 L
620 3551 L
620 3618 L
620 3520 L
620 3928 L
620 3576 L
620 3407 L
620 4141 L
620 3353 L
620 3729 L
620 3652 L
620 3446 L
620 3557 L
620 3488 L
620 3808 L
620 3578 L
620 3257 L
620 3751 L
620 4001 L
620 3581 L
620 3525 L
620 3692 L
620 3266 L
620 3503 L
620 3547 L
620 3489 L
620 3202 L
620 3308 L
620 3666 L
620 3093 L
620 3204 L
620 3385 L
620 3280 L
620 3085 L
620 2946 L
620 2950 L
620 3012 L
620 2458 L
620 2933 L
620 2716 L
620 3227 L
620 2694 L
620 2880 L
620 2379 L
620 2603 L
620 2645 L
620 2455 L
620 2780 L
620 2513 L
620 2817 L
620 2846 L
620 2605 L
620 2391 L
620 2398 L
620 2812 L
620 2535 L
620 2448 L
620 2491 L
620 2685 L
620 2475 L
620 2571 L
620 2405 L
620 2667 L
620 2692 L
620 2596 L
620 2643 L
620 2667 L
620 2362 L
620 2934 L
620 2783 L
620 2136 L
620 2701 L
620 2605 L
620 2785 L
620 2561 L
620 2642 L
620 2427 L
620 2679 L
620 2692 L
620 3012 L
620 2322 L
620 2654 L
620 2839 L
620 2883 L
620 2838 L
620 2807 L
620 2466 L
620 2517 L
620 2757 L
620 2627 L
620 2752 L
620 2821 L
620 2767 L
620 2834 L
620 2873 L
620 2593 L
620 2876 L
620 2733 L
620 2601 L
620 2998 L
620 3041 L
620 2655 L
620 2693 L
620 3091 L
620 3006 L
620 2984 L
620 2988 L
620 2652 L
620 2986 L
620 3097 L
620 3029 L
620 2792 L
620 2832 L
620 2849 L
620 3053 L
620 3069 L
620 3068 L
620 2855 L
620 3261 L
620 3143 L
620 2713 L
620 3296 L
620 2866 L
620 2917 L
620 3053 L
620 2995 L
620 3235 L
620 3045 L
620 3235 L
620 3231 L
620 3150 L
620 3074 L
620 3232 L
620 2941 L
620 3141 L
620 3454 L
620 2890 L
620 3487 L
620 3075 L
620 2816 L
620 3139 L
620 3489 L
620 2839 L
620 3007 L
620 3315 L
620 3406 L
620 3109 L
620 3044 L
620 3083 L
620 3533 L
620 3255 L
620 3364 L
620 3462 L
620 3466 L
620 3445 L
620 3684 L
620 3412 L
620 3613 L
620 3443 L
620 3477 L
620 3035 L
620 3262 L
620 3569 L
620 2993 L
620 3319 L
620 3363 L
620 3291 L
620 3633 L
620 3371 L
620 3499 L
620 3450 L
620 3466 L
620 3394 L
620 3443 L
620 3711 L
620 3274 L
620 3439 L
620 3280 L
620 3281 L
620 3516 L
620 3297 L
620 3569 L
620 3449 L
620 3641 L
620 3583 L
620 3826 L
620 3781 L
620 3636 L
620 3676 L
620 3459 L
620 3521 L
620 3304 L
620 3680 L
620 3580 L
620 3389 L
620 3687 L
620 3610 L
620 3743 L
620 3364 L
620 3405 L
620 4069 L
620 4010 L
620 3422 L
620 3698 L
620 3883 L
620 3679 L
620 3657 L
620 3759 L
620 3651 L
620 4016 L
620 3436 L
620 3676 L
620 3728 L
620 3577 L
620 3760 L
620 3791 L
620 3798 L
620 3691 L
620 3900 L
620 3807 L
620 3565 L
620 3591 L
620 3886 L
620 3813 L
620 3852 L
620 3639 L
620 4205 L
620 3833 L
620 3955 L
620 4387 L
620 4100 L
620 4417 L
620 4416 L
620 4595 L
620 4107 L
620 4498 L
620 4410 L
620 4522 L
620 4182 L
620 4294 L
620 4086 L
620 4209 L
620 4681 L
620 4358 L
620 4525 L
620 4252 L
620 4086 L
620 4118 L
620 3960 L
620 4249 L
620 4369 L
620 4515 L
620 4107 L
620 4278 L
620 4863 L
620 4156 L
620 4338 L
620 4177 L
620 4682 L
620 3935 L
620 4490 L
620 4378 L
620 4638 L
620 4288 L
620 4265 L
620 4299 L
620 4206 L
620 4688 L
620 4519 L
620 4176 L
620 4057 L
620 4089 L
620 4224 L
620 4661 L
620 4197 L
620 4278 L
620 4255 L
620 4583 L
620 4440 L
620 4107 L
620 4424 L
620 4197 L
620 4376 L
620 4147 L
620 4363 L
620 4410 L
620 4313 L
620 4171 L
620 4650 L
620 4157 L
620 4603 L
620 4223 L
620 4276 L
620 4396 L
620 3655 L
620 4080 L
620 4243 L
620 4259 L
620 4449 L
620 4402 L
620 4419 L
620 4195 L
620 3950 L
620 4270 L
620 4236 L
620 4375 L
620 4075 L
620 4109 L
620 3849 L
620 4278 L
620 4197 L
620 4005 L
620 4201 L
620 4027 L
620 4452 L
620 3981 L
620 4676 L
620 4284 L
620 3846 L
620 4249 L
620 4065 L
620 4141 L
620 4579 L
620 3877 L
620 3899 L
620 4235 L
620 4106 L
620 3943 L
620 4103 L
620 4253 L
620 4141 L
620 3776 L
620 4051 L
620 3497 L
620 3839 L
620 4122 L
620 4133 L
620 3937 L
620 3693 L
620 4221 L
620 3867 L
620 3515 L
620 4396 L
620 3739 L
620 3706 L
620 4445 L
620 3914 L
620 3728 L
620 4040 L
620 3877 L
620 3785 L
620 4203 L
620 4157 L
620 3957 L
620 3859 L
620 3929 L
620 3689 L
620 3698 L
620 3893 L
620 3776 L
620 3937 L
620 3982 L
620 3695 L
620 3797 L
620 4058 L
620 3455 L
620 4366 L
620 3856 L
620 4226 L
620 4142 L
620 3727 L
620 3882 L
620 3769 L
620 3964 L
620 3928 L
620 3614 L
620 3587 L
620 4124 L
620 3631 L
620 3859 L
620 3989 L
620 3716 L
620 3750 L
620 3794 L
620 3741 L
620 3640 L
620 3636 L
620 3950 L
620 3718 L
620 3847 L
620 3415 L
620 3818 L
620 3811 L
620 3611 L
620 3704 L
620 3741 L
620 4017 L
620 3973 L
620 3788 L
620 3628 L
620 3508 L
620 3864 L
620 3943 L
620 3710 L
620 3616 L
620 3649 L
620 4201 L
620 3963 L
620 3722 L
620 3497 L
620 3458 L
620 3931 L
620 3885 L
620 3885 L
620 3972 L
620 3859 L
620 3684 L
620 3543 L
620 3750 L
620 3529 L
620 3579 L
620 3862 L
620 4024 L
620 3633 L
620 3590 L
620 3675 L
620 4040 L
620 3642 L
620 3611 L
620 4004 L
620 4033 L
620 3748 L
620 4077 L
620 3198 L
620 3248 L
620 3982 L
620 3788 L
620 3372 L
620 3820 L
620 3738 L
620 4159 L
620 3801 L
620 4110 L
620 3444 L
620 4103 L
620 3760 L
620 3815 L
620 3786 L
620 3750 L
620 3587 L
620 3681 L
620 3666 L
620 3680 L
620 3759 L
620 3531 L
620 3225 L
620 3917 L
620 3537 L
620 3427 L
620 3598 L
620 3669 L
620 3826 L
620 3862 L
620 3345 L
620 3836 L
620 3795 L
620 3535 L
620 3803 L
620 3458 L
620 3497 L
620 3900 L
620 3668 L
620 3701 L
620 3380 L
620 3756 L
620 3131 L
620 3549 L
620 3760 L
L2 C05 COSGR

%
%================
% Legend - Begin
%================
%
GSN 4240 5180 M
4480 5180 L
LWMC SL  C05 COSGR
GSN 4540 5141 M helvM (2.5 uM) show grestore
%
%================
% Legend - End
%================
%

%
% Main frame
%
L10
GSN 
620 1700 M
4220 1700 L
4220 5300 L
620 5300 L
closepath SGR

%
% X axis: large tics
%
L10
%
% X axis: small tics
%
L5
%
% Y axis: large tics
%
L10
GSN 620 2022 M 54 0 rL SGR
GSN 4220 2022 M -54 0 rL SGR
helvS (-0.02) 560 2022 ylabel
GSN 620 2819 M 54 0 rL SGR
GSN 4220 2819 M -54 0 rL SGR
helvS (-0.01) 560 2819 ylabel
GSN 620 3616 M 54 0 rL SGR
GSN 4220 3616 M -54 0 rL SGR
helvS (0) 560 3616 ylabel
GSN 620 4414 M 54 0 rL SGR
GSN 4220 4414 M -54 0 rL SGR
helvS (0.01) 560 4414 ylabel
GSN 620 5211 M 54 0 rL SGR
GSN 4220 5211 M -54 0 rL SGR
helvS (0.02) 560 5211 ylabel
%
% Y axis: small tics
%
L5
GSN 620 1822 M 36 0 rL SGR
GSN 4220 1822 M -36 0 rL SGR
GSN 620 2022 M 36 0 rL SGR
GSN 4220 2022 M -36 0 rL SGR
GSN 620 2221 M 36 0 rL SGR
GSN 4220 2221 M -36 0 rL SGR
GSN 620 2420 M 36 0 rL SGR
GSN 4220 2420 M -36 0 rL SGR
GSN 620 2620 M 36 0 rL SGR
GSN 4220 2620 M -36 0 rL SGR
GSN 620 2819 M 36 0 rL SGR
GSN 4220 2819 M -36 0 rL SGR
GSN 620 3018 M 36 0 rL SGR
GSN 4220 3018 M -36 0 rL SGR
GSN 620 3218 M 36 0 rL SGR
GSN 4220 3218 M -36 0 rL SGR
GSN 620 3417 M 36 0 rL SGR
GSN 4220 3417 M -36 0 rL SGR
GSN 620 3616 M 36 0 rL SGR
GSN 4220 3616 M -36 0 rL SGR
GSN 620 3816 M 36 0 rL SGR
GSN 4220 3816 M -36 0 rL SGR
GSN 620 4015 M 36 0 rL SGR
GSN 4220 4015 M -36 0 rL SGR
GSN 620 4215 M 36 0 rL SGR
GSN 4220 4215 M -36 0 rL SGR
GSN 620 4414 M 36 0 rL SGR
GSN 4220 4414 M -36 0 rL SGR
GSN 620 4613 M 36 0 rL SGR
GSN 4220 4613 M -36 0 rL SGR
GSN 620 4813 M 36 0 rL SGR
GSN 4220 4813 M -36 0 rL SGR
GSN 620 5012 M 36 0 rL SGR
GSN 4220 5012 M -36 0 rL SGR
GSN 620 5211 M 36 0 rL SGR
GSN 4220 5211 M -36 0 rL SGR

%
% X axis - residual panel
%
GSN L5 620 3616 M 4220 3616 L SDA G50 SGR

%
% X-Axis label:
%
gsave 620 1370 M 
[
[(Helvetica) 180 0 true true 0 (t)]
[(Helvetica) 180 0 true true 0 (i)]
[(Helvetica) 180 0 true true 0 (m)]
[(Helvetica) 180 0 true true 0 (e)]
] 0 MCshow grestore

%
% Y-Axis label:
%
gsave 234 3499 M 
currentpoint gsave translate 90 rotate 0 0 moveto
[
[(Helvetica) 180 0 true true 0 (r)]
[(Helvetica) 180 0 true true 0 (e)]
[(Helvetica) 180 0 true true 0 (s)]
[(Helvetica) 180 0 true true 0 (i)]
[(Helvetica) 180 0 true true 0 (d)]
[(Helvetica) 180 0 true true 0 (u)]
[(Helvetica) 180 0 true true 0 (a)]
[(Helvetica) 180 0 true true 0 (l)]
[(Helvetica) 180 0 true true 0 (s)]
] 0 MCshow grestore

end
showpage
%%Trailer
%%EOF
