# data set	./hsmug/series//U-Trp-R243A.1.csv:col(7)
# fraction of residuals inside model inference band	0.564728
#   x(mesh)	    y(mesh)	       rate	   y(mesh)-	   y(mesh)+	    x(data)	    y(data)	   y(model)	   y(error)	   residual	     weight	  residual*	   leverage	  y(model)-	  y(model)+	
2.27273e-005	    0.983663	      -1.275	-1.48773e+006	1.48774e+006	    2.5e-005	     0.97752	     0.98366	           0	 -0.00614032	           1	           0	     22.6181	    0.945708	     1.02161	
2.27273e-005	    0.983663	      -1.275	-1.48773e+006	1.48774e+006	    0.001275	    0.984195	    0.982088	           0	  0.00210734	           1	           0	     503.082	    0.803097	     1.16108	
2.65091e-005	    0.983658	     -1.2749	-1.48773e+006	1.48774e+006	    0.002525	    0.980992	    0.980556	           0	 0.000436447	           1	           0	    -84.9005	    0.980556	    0.980556	
3.09203e-005	    0.983653	    -1.27478	-1.48773e+006	1.48774e+006	    0.003775	    0.973823	    0.979064	           0	 -0.00524161	           1	           0	     215.622	    0.861883	     1.09625	
3.60656e-005	    0.983646	    -1.27464	-1.48773e+006	1.48774e+006	    0.005025	     0.97756	     0.97761	           0	-5.04875e-005	           1	           0	     70.0352	    0.910827	     1.04439	
 4.2067e-005	    0.983639	    -1.27448	-1.48773e+006	1.48774e+006	    0.006275	    0.974355	    0.976194	           0	 -0.00183891	           1	           0	     202.974	    0.862502	     1.08989	
4.54545e-005	    0.983634	    -1.27438	-1.48773e+006	1.48774e+006	    0.007525	     0.96974	    0.974813	           0	 -0.00507315	           1	           0	     -136.19	    0.974813	    0.974813	
 4.9067e-005	     0.98363	    -1.27429	-1.48773e+006	1.48774e+006	    0.008775	    0.970425	    0.973467	           0	 -0.00304205	           1	           0	    -347.653	    0.973467	    0.973467	
5.72319e-005	    0.983619	    -1.27406	-1.48773e+006	1.48774e+006	    0.010025	    0.966042	    0.972154	           0	 -0.00611198	           1	           0	     290.781	    0.836075	     1.10823	
6.67554e-005	    0.983607	     -1.2738	-1.48773e+006	1.48774e+006	    0.011275	    0.964708	    0.970874	           0	 -0.00616687	           1	           0	    -52.4561	    0.970874	    0.970874	
7.78637e-005	    0.983593	     -1.2735	-1.48773e+006	1.48774e+006	    0.012525	    0.968137	    0.969626	           0	 -0.00148819	           1	           0	    -47.7907	    0.969626	    0.969626	
9.08204e-005	    0.983576	    -1.27315	-1.48773e+006	1.48774e+006	    0.013775	    0.964092	    0.968407	           0	 -0.00431496	           1	           0	     264.806	    0.838548	     1.09827	
9.09091e-005	    0.983576	    -1.27315	-1.48773e+006	1.48774e+006	    0.015025	    0.961788	    0.967219	           0	 -0.00543122	           1	           0	     186.149	    0.858341	      1.0761	
 0.000105933	    0.983557	    -1.27274	-1.48773e+006	1.48774e+006	    0.016275	    0.963827	    0.966059	           0	 -0.00223109	           1	           0	     102.441	    0.885289	     1.04683	
 0.000123561	    0.983535	    -1.27226	-1.48773e+006	1.48774e+006	    0.017525	     0.96251	    0.964926	           0	 -0.00241617	           1	           0	     484.784	    0.789221	     1.14063	
 0.000144121	    0.983509	     -1.2717	-1.48773e+006	1.48774e+006	    0.018775	     0.95961	    0.963821	           0	 -0.00421065	           1	           0	    -10.2855	    0.963821	    0.963821	
 0.000168104	    0.983478	    -1.27105	-1.48773e+006	1.48774e+006	    0.020025	    0.960508	    0.962741	           0	  -0.0022337	           1	           0	    -331.952	    0.962741	    0.962741	
 0.000181818	    0.983461	    -1.27068	-1.48773e+006	1.48774e+006	    0.021275	     0.95612	    0.961687	           0	 -0.00556707	           1	           0	    -144.959	    0.961687	    0.961687	
 0.000196077	    0.983443	     -1.2703	-1.48773e+006	1.48774e+006	    0.022525	    0.957588	    0.960658	           0	 -0.00307001	           1	           0	     78.2965	    0.890045	     1.03127	
 0.000228704	    0.983401	    -1.26941	-1.48773e+006	1.48774e+006	    0.023775	    0.957935	    0.959652	           0	 -0.00171681	           1	           0	    -170.831	    0.959652	    0.959652	
 0.000266761	    0.983353	    -1.26838	-1.48773e+006	1.48774e+006	    0.025025	    0.958963	    0.958669	           0	 0.000293225	           1	           0	    -209.724	    0.958669	    0.958669	
 0.000311151	    0.983297	    -1.26718	-1.48773e+006	1.48774e+006	    0.026275	     0.95978	    0.957709	           0	  0.00207075	           1	           0	    -406.984	    0.957709	    0.957709	
 0.000362927	    0.983231	    -1.26579	-1.48773e+006	1.48774e+006	    0.027525	    0.954442	    0.956771	           0	 -0.00232859	           1	           0	     32.6693	    0.911159	     1.00238	
 0.000363636	     0.98323	    -1.26577	-1.48773e+006	1.48774e+006	    0.028775	    0.953163	    0.955854	           0	 -0.00269169	           1	           0	    -246.083	    0.955854	    0.955854	
 0.000423319	    0.983155	    -1.26416	-1.48773e+006	1.48774e+006	    0.030025	    0.951103	    0.954958	           0	  -0.0038552	           1	           0	     195.574	    0.843358	     1.06656	
 0.000493761	    0.983066	    -1.26227	-1.48773e+006	1.48774e+006	    0.031275	    0.952477	    0.954082	           0	 -0.00160431	           1	           0	     -39.459	    0.954082	    0.954082	
 0.000575924	    0.982962	    -1.26006	-1.48773e+006	1.48774e+006	    0.032525	    0.958448	    0.953225	           0	  0.00522228	           1	           0	    -10.8757	    0.953225	    0.953225	
 0.000671759	    0.982841	     -1.2575	-1.48773e+006	1.48774e+006	    0.033775	    0.956635	    0.952388	           0	  0.00424736	           1	           0	     -367.23	    0.952388	    0.952388	
 0.000727273	    0.982772	    -1.25602	-1.48773e+006	1.48774e+006	    0.035025	    0.952076	    0.951569	           0	 0.000507689	           1	           0	     118.805	    0.864587	     1.03855	
 0.000783541	    0.982701	    -1.25452	-1.48773e+006	1.48774e+006	    0.036275	    0.951658	    0.950767	           0	 0.000890006	           1	           0	    -24.7197	    0.950767	    0.950767	
 0.000913924	    0.982538	    -1.25105	-1.48773e+006	1.48774e+006	    0.037525	    0.950475	    0.949984	           0	 0.000490541	           1	           0	    -82.1886	    0.949984	    0.949984	
    0.001066	    0.982348	    -1.24702	-1.48773e+006	1.48774e+006	    0.038775	     0.95015	    0.949217	           0	 0.000933004	           1	           0	     371.764	    0.795351	     1.10308	
  0.00124339	    0.982127	    -1.24235	-1.48773e+006	1.48774e+006	    0.040025	    0.950305	    0.948468	           0	  0.00183734	           1	           0	     129.268	    0.857737	      1.0392	
  0.00145029	     0.98187	    -1.23692	-1.48773e+006	1.48774e+006	    0.041275	    0.952192	    0.947734	           0	  0.00445848	           1	           0	     18.0705	    0.913811	    0.981657	
  0.00145455	    0.981865	    -1.23681	-1.48773e+006	1.48774e+006	    0.042525	    0.942694	    0.947016	           0	 -0.00432216	           1	           0	      374.93	    0.792496	     1.10154	
  0.00169162	    0.981573	    -1.23063	-1.48773e+006	1.48774e+006	    0.043775	    0.952076	    0.946314	           0	  0.00576282	           1	           0	    -470.071	    0.946314	    0.946314	
  0.00197312	    0.981227	    -1.22335	-1.48773e+006	1.48774e+006	    0.045025	    0.944467	    0.945626	           0	 -0.00115944	           1	           0	    -62.5055	    0.945626	    0.945626	
  0.00230145	    0.980827	    -1.21493	-1.48773e+006	1.48774e+006	    0.046275	    0.944466	    0.944953	           0	-0.000487556	           1	           0	    -57.0359	    0.944953	    0.944953	
  0.00268441	    0.980364	     -1.2052	-1.48773e+006	1.48774e+006	    0.047525	    0.942407	    0.944295	           0	 -0.00188792	           1	           0	     96.3901	    0.865947	     1.02264	
  0.00290909	    0.980093	    -1.19954	-1.48773e+006	1.48774e+006	    0.048775	    0.945213	     0.94365	           0	  0.00156306	           1	           0	     179.586	    0.836708	     1.05059	
  0.00313111	    0.979828	    -1.19398	-1.48773e+006	1.48774e+006	    0.050025	    0.944982	    0.943019	           0	  0.00196349	           1	           0	     81.0299	    0.871184	     1.01485	
  0.00365213	    0.979209	    -1.18107	-1.48773e+006	1.48774e+006	    0.051275	    0.938098	    0.942401	           0	 -0.00430305	           1	           0	    -523.241	    0.942401	    0.942401	
  0.00425985	    0.978496	    -1.16624	-1.48773e+006	1.48774e+006	    0.052525	    0.943721	    0.941796	           0	  0.00192501	           1	           0	    -201.686	    0.941796	    0.941796	
   0.0049687	    0.977675	    -1.14925	-1.48773e+006	1.48774e+006	    0.053775	    0.943399	    0.941203	           0	  0.00219572	           1	           0	      349.41	    0.792035	     1.09037	
  0.00579551	    0.976733	    -1.12984	-1.48773e+006	1.48774e+006	    0.055025	    0.939164	    0.940623	           0	 -0.00145936	           1	           0	     187.268	    0.831418	     1.04983	
  0.00581818	    0.976707	    -1.12931	-1.48773e+006	1.48774e+006	    0.056275	    0.941662	    0.940055	           0	  0.00160682	           1	           0	     -193.56	    0.940055	    0.940055	
   0.0067599	    0.975654	    -1.10773	-1.48773e+006	1.48774e+006	    0.057525	    0.944372	    0.939498	           0	  0.00487378	           1	           0	      243.77	    0.814903	     1.06409	
  0.00788476	    0.974422	    -1.08265	-1.48773e+006	1.48774e+006	    0.058775	    0.943608	    0.938953	           0	  0.00465404	           1	           0	     81.7138	    0.866816	     1.01109	
  0.00919681	     0.97302	    -1.05432	-1.48773e+006	1.48774e+006	    0.060025	    0.937237	     0.93842	           0	 -0.00118236	           1	           0	    -91.2323	     0.93842	     0.93842	
   0.0107272	    0.971431	    -1.02248	-1.48773e+006	1.48774e+006	    0.061275	    0.938554	    0.937897	           0	 0.000657814	           1	           0	    -30.3341	    0.937897	    0.937897	
   0.0116364	     0.97051	    -1.00415	-1.48773e+006	1.48774e+006	    0.062525	     0.93905	    0.937384	           0	  0.00166608	           1	           0	    -192.209	    0.937384	    0.937384	
   0.0125122	    0.969638	   -0.986886	-1.48773e+006	1.48774e+006	    0.063775	    0.936303	    0.936883	           0	-0.000579083	           1	           0	      51.874	    0.879407	    0.994358	
   0.0145943	    0.967625	   -0.947354	-1.48773e+006	1.48774e+006	    0.065025	    0.935426	    0.936391	           0	-0.000964926	           1	           0	    -333.213	    0.936391	    0.936391	
   0.0170228	    0.965378	   -0.903761	-1.48773e+006	1.48774e+006	    0.066275	    0.938058	    0.935909	           0	  0.00214878	           1	           0	    -16.3366	    0.935909	    0.935909	
   0.0198554	    0.962886	    -0.85608	-1.48773e+006	1.48774e+006	    0.067525	    0.938859	    0.935437	           0	    0.003422	           1	           0	     -487.58	    0.935437	    0.935437	
   0.0231594	    0.960144	   -0.804398	-1.48773e+006	1.48774e+006	    0.068775	    0.935426	    0.934975	           0	 0.000451457	           1	           0	    -85.5903	    0.934975	    0.934975	
   0.0232727	    0.960053	   -0.802696	-1.48773e+006	1.48774e+006	    0.070025	    0.933042	    0.934522	           0	 -0.00147964	           1	           0	    -311.493	    0.934522	    0.934522	
   0.0270132	    0.957153	   -0.748946	-1.48773e+006	1.48774e+006	    0.071275	    0.933366	    0.934078	           0	-0.000711328	           1	           0	     -135.83	    0.934078	    0.934078	
   0.0315083	     0.95392	   -0.690112	-1.48773e+006	1.48774e+006	    0.072525	    0.933157	    0.933642	           0	-0.000485918	           1	           0	    -523.057	    0.933642	    0.933642	
   0.0367513	    0.950467	   -0.628461	-1.48773e+006	1.48774e+006	    0.073775	    0.938059	    0.933216	           0	  0.00484354	           1	           0	    -8.55314	    0.933216	    0.933216	
   0.0428668	    0.946823	   -0.564731	-1.48773e+006	1.48774e+006	    0.075025	      0.9339	    0.932798	           0	  0.00110223	           1	           0	     28.3832	    0.890283	    0.975313	
   0.0465455	     0.94481	   -0.530097	-1.48773e+006	1.48774e+006	    0.076275	    0.937257	    0.932388	           0	  0.00486884	           1	           0	     151.243	    0.834248	     1.03053	
        0.05	    0.943031	   -0.499824	-1.48773e+006	1.48774e+006	    0.077525	    0.937182	    0.931987	           0	  0.00519455	           1	           0	     39.2673	    0.881981	    0.981993	
   0.0583201	     0.93915	   -0.434776	-1.48773e+006	1.48774e+006	    0.078775	    0.933099	    0.931593	           0	  0.00150553	           1	           0	     -217.83	    0.931593	    0.931593	
   0.0680247	    0.935251	   -0.370715	-1.48773e+006	1.48774e+006	    0.080025	    0.933385	    0.931208	           0	  0.00217744	           1	           0	     -129.48	    0.931208	    0.931208	
   0.0793442	    0.931417	   -0.308805	-1.48773e+006	1.48774e+006	    0.081275	    0.930314	     0.93083	           0	-0.000515532	           1	           0	     108.954	    0.847532	     1.01413	
   0.0925473	    0.927741	   -0.250186	-1.48773e+006	1.48774e+006	    0.082525	    0.929762	    0.930459	           0	-0.000697742	           1	           0	    -220.195	    0.930459	    0.930459	
   0.0930909	    0.927605	   -0.248035	-1.48773e+006	1.48774e+006	    0.083775	    0.935237	    0.930096	           0	  0.00514047	           1	           0	    -262.789	    0.930096	    0.930096	
    0.107947	    0.924323	   -0.195904	-1.48773e+006	1.48774e+006	    0.085025	    0.932947	     0.92974	           0	  0.00320676	           1	           0	    -27.9875	     0.92974	     0.92974	
     0.12591	    0.921264	   -0.146857	-1.48773e+006	1.48774e+006	    0.086275	    0.935369	    0.929391	           0	  0.00597801	           1	           0	     30.7472	    0.885141	    0.973641	
    0.146862	    0.918661	   -0.103743	-1.48773e+006	1.48774e+006	    0.087525	    0.928235	    0.929049	           0	-0.000813359	           1	           0	     31.7475	    0.884085	    0.974013	
      0.1713	    0.916599	    -0.06703	-1.48773e+006	1.48774e+006	    0.088775	    0.931153	    0.928713	           0	  0.00243928	           1	           0	     11.8874	    0.901199	    0.956227	
    0.186182	    0.915733	  -0.0499162	-1.48773e+006	1.48774e+006	    0.090025	    0.932183	    0.928385	           0	  0.00379881	           1	           0	    -170.103	    0.928385	    0.928385	
    0.199805	    0.915144	  -0.0369323	-1.48773e+006	1.48774e+006	    0.091275	    0.932737	    0.928062	           0	  0.00467437	           1	           0	     413.392	     0.76581	     1.09031	
    0.233053	    0.914336	  -0.0134021	-1.48773e+006	1.48774e+006	    0.092525	    0.931688	    0.927746	           0	  0.00394134	           1	           0	    -152.946	    0.927746	    0.927746	
    0.271834	    0.914179	  0.00386864	-1.48773e+006	1.48774e+006	    0.093775	    0.930658	    0.927437	           0	  0.00322135	           1	           0	     -226.29	    0.927437	    0.927437	
    0.317067	    0.914642	   0.0154369	-1.48773e+006	1.48774e+006	    0.095025	    0.927797	    0.927133	           0	 0.000663766	           1	           0	      -8.202	    0.927133	    0.927133	
    0.369828	    0.915656	     0.02208	-1.48773e+006	1.48774e+006	    0.096275	     0.92774	    0.926835	           0	 0.000904469	           1	           0	     299.157	     0.78881	     1.06486	
    0.372364	    0.915712	   0.0222752	-1.48773e+006	1.48774e+006	    0.097525	    0.930124	    0.926543	           0	  0.00358032	           1	           0	     415.792	    0.763821	     1.08927	
    0.431368	    0.917117	   0.0247424	-1.48773e+006	1.48774e+006	    0.098775	    0.930619	    0.926257	           0	   0.0043622	           1	           0	     -195.91	    0.926257	    0.926257	
    0.503149	    0.918897	   0.0244525	-1.48773e+006	1.48774e+006	      0.1001	    0.931401	     0.92596	           0	  0.00544135	           1	           0	     199.413	     0.81327	     1.03865	
    0.586875	    0.920858	   0.0222178	-1.48773e+006	1.48774e+006	      0.1051	    0.925794	    0.924893	           0	  0.00090029	           1	           0	    -134.831	    0.924893	    0.924893	
    0.684532	    0.922868	   0.0189209	-1.48773e+006	1.48774e+006	      0.1101	    0.924192	    0.923908	           0	 0.000283742	           1	           0	     217.821	    0.806131	     1.04169	
    0.744727	    0.923947	   0.0169219	-1.48773e+006	1.48774e+006	      0.1151	     0.92341	    0.922999	           0	 0.000411739	           1	           0	     397.005	    0.763994	       1.082	
     0.79844	     0.92481	   0.0152495	-1.48773e+006	1.48774e+006	      0.1201	    0.918165	    0.922159	           0	 -0.00399396	           1	           0	         321	    0.779183	     1.06513	
    0.931302	     0.92659	   0.0116769	-1.48773e+006	1.48774e+006	      0.1251	    0.923353	    0.921384	           0	  0.00196892	           1	           0	     64.7665	    0.857162	    0.985606	
           1	    0.927338	   0.0101439	-1.48773e+006	1.48774e+006	      0.1301	    0.925126	    0.920669	           0	  0.00445724	           1	           0	    -244.255	    0.920669	    0.920669	
     1.08627	     0.92814	  0.00849015	-1.48773e+006	1.48774e+006	      0.1351	    0.921331	    0.920011	           0	  0.00131998	           1	           0	    -173.655	    0.920011	    0.920011	
     1.26703	     0.92942	  0.00583641	-1.48773e+006	1.48774e+006	      0.1401	    0.921579	    0.919404	           0	  0.00217453	           1	           0	      65.956	    0.854595	    0.984214	
     1.47787	    0.930416	  0.00376562	-1.48773e+006	1.48774e+006	      0.1451	     0.92013	    0.918847	           0	   0.0012827	           1	           0	     6.36617	    0.898712	    0.938982	
     1.48945	    0.930459	  0.00367599	-1.48773e+006	1.48774e+006	      0.1501	    0.922704	    0.918334	           0	  0.00436955	           1	           0	    -37.5274	    0.918334	    0.918334	
     1.72379	    0.931141	  0.00225805	-1.48773e+006	1.48774e+006	      0.1551	    0.913816	    0.917864	           0	 -0.00404838	           1	           0	     41.9997	    0.866147	    0.969581	
     2.01063	    0.931629	  0.00124349	-1.48773e+006	1.48774e+006	      0.1601	     0.92095	    0.917434	           0	  0.00351597	           1	           0	     -57.557	    0.917434	    0.917434	
     2.34521	    0.931929	 0.000620065	-1.48773e+006	1.48774e+006	      0.1651	    0.917078	     0.91704	           0	3.77001e-005	           1	           0	    -67.7955	     0.91704	     0.91704	
     2.73546	    0.932095	 0.000275386	-1.48773e+006	1.48774e+006	      0.1701	    0.915818	    0.916681	           0	-0.000862267	           1	           0	    -153.853	    0.916681	    0.916681	
     2.97891	    0.932147	 0.000165974	-1.48773e+006	1.48774e+006	      0.1751	    0.913034	    0.916354	           0	  -0.0033197	           1	           0	    -79.5502	    0.916354	    0.916354	
     3.19064	    0.932176	 0.000106854	-1.48773e+006	1.48774e+006	      0.1801	    0.913568	    0.916057	           0	 -0.00248901	           1	           0	    -104.653	    0.916057	    0.916057	
     3.72157	     0.93221	3.54179e-005	-1.48773e+006	1.48774e+006	      0.1851	    0.915761	    0.915788	           0	-2.67712e-005	           1	           0	     250.284	    0.789539	     1.04204	
     4.34085	    0.932222	9.76908e-006	-1.48773e+006	1.48774e+006	      0.1901	    0.914713	    0.915546	           0	-0.000833181	           1	           0	     206.632	    0.800833	     1.03026	
     5.06318	    0.932226	2.17472e-006	-1.48773e+006	1.48774e+006	      0.1951	     0.91166	    0.915328	           0	 -0.00366756	           1	           0	     -210.23	    0.915328	    0.915328	
     5.90571	    0.932227	3.77038e-007	-1.48773e+006	1.48774e+006	      0.2001	    0.913816	    0.915134	           0	 -0.00131785	           1	           0	    -253.045	    0.915134	    0.915134	
     5.95782	    0.932227	3.38312e-007	-1.48773e+006	1.48774e+006	      0.2051	     0.91496	    0.914961	           0	-3.34319e-007	           1	           0	    -74.4544	    0.914961	    0.914961	
     6.88843	    0.932227	4.88349e-008	-1.48773e+006	1.48774e+006	      0.2101	    0.918336	    0.914808	           0	  0.00352785	           1	           0	     129.582	    0.823967	     1.00565	
     8.03469	    0.932227	4.50161e-009	-1.48773e+006	1.48774e+006	      0.2151	    0.912709	    0.914675	           0	 -0.00196553	           1	           0	     267.858	    0.784069	     1.04528	
     9.37168	    0.932227	2.79074e-010	-1.48773e+006	1.48774e+006	      0.2201	    0.914693	     0.91456	           0	 0.000133981	           1	           0	    -217.544	     0.91456	     0.91456	
     10.9312	    0.932227	1.08918e-011	-1.48773e+006	1.48774e+006	      0.2251	    0.917077	    0.914461	           0	  0.00261674	           1	           0	    -175.736	    0.914461	    0.914461	
     11.9156	    0.932227	1.40616e-012	-1.48773e+006	1.48774e+006	      0.2301	    0.913835	    0.914378	           0	-0.000542701	           1	           0	     -154.91	    0.914378	    0.914378	
     12.7501	    0.932227	2.48047e-013	-1.48773e+006	1.48774e+006	      0.2351	    0.914693	    0.914309	           0	 0.000384134	           1	           0	    -356.961	    0.914309	    0.914309	
     14.8718	    0.932227	2.94596e-015	-1.48773e+006	1.48774e+006	      0.2401	    0.912805	    0.914255	           0	 -0.00144983	           1	           0	     192.268	    0.803602	     1.02491	
     17.3465	    0.932227	2.55043e-016	-1.48773e+006	1.48774e+006	      0.2451	    0.914331	    0.914213	           0	 0.000117513	           1	           0	    -5.51589	    0.914213	    0.914213	
      20.233	    0.932227	-1.16884e-017	-1.48773e+006	1.48774e+006	      0.2501	    0.913034	    0.914184	           0	 -0.00114977	           1	           0	      10.746	    0.888024	    0.940344	
     23.5998	    0.932227	8.99882e-017	-1.48773e+006	1.48774e+006	      0.2551	    0.914102	    0.914166	           0	-6.36697e-005	           1	           0	    -5.90412	    0.914166	    0.914166	
     23.8313	    0.932227	6.54148e-017	-1.48773e+006	1.48774e+006	      0.2601	    0.909868	    0.914158	           0	 -0.00429047	           1	           0	    -104.515	    0.914158	    0.914158	
     27.5269	    0.932227	-4.36079e-017	-1.48773e+006	1.48774e+006	      0.2651	    0.908056	    0.914161	           0	   -0.006105	           1	           0	     28.5818	    0.871497	    0.956824	
     32.1074	    0.932227	7.50595e-018	-1.48773e+006	1.48774e+006	      0.2701	    0.909563	    0.914173	           0	 -0.00461012	           1	           0	    -18.1148	    0.914173	    0.914173	
     37.4501	    0.932227	3.76377e-018	-1.48773e+006	1.48774e+006	      0.2751	    0.907445	    0.914193	           0	   -0.006748	           1	           0	  -0.0672045	    0.914193	    0.914193	
     43.6819	    0.932227	-3.71827e-019	-1.48773e+006	1.48774e+006	      0.2801	     0.91065	    0.914222	           0	 -0.00357231	           1	           0	    -427.387	    0.914222	    0.914222	
     47.6625	    0.932227	-9.95026e-019	-1.48773e+006	1.48774e+006	      0.2851	    0.908017	    0.914259	           0	 -0.00624128	           1	           0	     56.6009	    0.854221	    0.974296	
     50.9507	    0.932227	2.12074e-019	-1.48773e+006	1.48774e+006	      0.2901	    0.914446	    0.914302	           0	 0.000143332	           1	           0	    -153.884	    0.914302	    0.914302	
     59.4291	    0.932227	 1.3559e-021	-1.48773e+006	1.48774e+006	      0.2951	    0.912976	    0.914352	           0	   -0.001376	           1	           0	    -1.30388	    0.914352	    0.914352	
     69.3182	    0.932227	 1.3559e-021	-1.48773e+006	1.48774e+006	      0.3001	    0.913511	    0.914409	           0	-0.000898581	           1	           0	     250.506	    0.788104	     1.04071	
     80.8529	    0.932227	 1.3559e-021	-1.48773e+006	1.48774e+006	      0.3051	     0.91187	    0.914471	           0	 -0.00260125	           1	           0	     35.9648	    0.866614	    0.962329	
     94.3071	    0.932227	 1.3559e-021	-1.48773e+006	1.48774e+006	      0.3101	     0.91498	    0.914539	           0	 0.000440139	           1	           0	      -269.5	    0.914539	    0.914539	
         110	    0.932227	 1.3559e-021	-1.48773e+006	1.48774e+006	      0.3151	    0.916067	    0.914612	           0	   0.0014542	           1	           0	    -215.169	    0.914612	    0.914612	
 --	 --	 --	 --	 --	      0.3201	    0.910116	     0.91469	           0	 -0.00457445	           1	           0	     15.7153	    0.883055	    0.946325	
 --	 --	 --	 --	 --	      0.3251	    0.912481	    0.914772	           0	 -0.00229151	           1	           0	    -77.1094	    0.914772	    0.914772	
 --	 --	 --	 --	 --	      0.3301	    0.915132	    0.914858	           0	  0.00027361	           1	           0	    -236.697	    0.914858	    0.914858	
 --	 --	 --	 --	 --	      0.3351	     0.91023	    0.914948	           0	 -0.00471806	           1	           0	    -9.09038	    0.914948	    0.914948	
 --	 --	 --	 --	 --	      0.3401	    0.917917	    0.915041	           0	  0.00287525	           1	           0	     108.084	    0.832077	    0.998006	
 --	 --	 --	 --	 --	      0.3451	    0.912729	    0.915138	           0	 -0.00240943	           1	           0	     435.446	    0.748614	     1.08166	
 --	 --	 --	 --	 --	      0.3501	    0.909963	    0.915238	           0	 -0.00527462	           1	           0	     277.589	    0.782281	     1.04819	
 --	 --	 --	 --	 --	      0.3551	    0.916372	     0.91534	           0	  0.00103142	           1	           0	     6.25799	    0.895377	    0.935303	
 --	 --	 --	 --	 --	      0.3601	    0.916791	    0.915445	           0	  0.00134591	           1	           0	     259.542	    0.786883	     1.04401	
 --	 --	 --	 --	 --	      0.3651	     0.91641	    0.915553	           0	 0.000857062	           1	           0	     39.5796	    0.865348	    0.965758	
 --	 --	 --	 --	 --	      0.3701	    0.913473	    0.915662	           0	 -0.00218968	           1	           0	    -24.9521	    0.915662	    0.915662	
 --	 --	 --	 --	 --	      0.3751	    0.907846	    0.915774	           0	 -0.00792789	           1	           0	      32.383	    0.870362	    0.961185	
 --	 --	 --	 --	 --	      0.3801	    0.918584	    0.915887	           0	  0.00269711	           1	           0	     35.7069	    0.868201	    0.963572	
 --	 --	 --	 --	 --	      0.3851	    0.914064	    0.916002	           0	 -0.00193775	           1	           0	    -92.0895	    0.916002	    0.916002	
 --	 --	 --	 --	 --	      0.3901	    0.912919	    0.916118	           0	 -0.00319858	           1	           0	    -30.7541	    0.916118	    0.916118	
 --	 --	 --	 --	 --	      0.3951	    0.912347	    0.916236	           0	 -0.00388848	           1	           0	     19.3467	    0.881135	    0.951336	
 --	 --	 --	 --	 --	      0.4001	    0.918508	    0.916355	           0	  0.00215345	           1	           0	    -10.0325	    0.916355	    0.916355	
 --	 --	 --	 --	 --	      0.4051	    0.914808	    0.916474	           0	 -0.00166668	           1	           0	     126.259	    0.826806	     1.00614	
 --	 --	 --	 --	 --	      0.4101	     0.91414	    0.916595	           0	 -0.00245498	           1	           0	    -109.788	    0.916595	    0.916595	
 --	 --	 --	 --	 --	      0.4151	     0.92175	    0.916717	           0	  0.00503367	           1	           0	    -268.847	    0.916717	    0.916717	
 --	 --	 --	 --	 --	      0.4201	    0.911642	    0.916839	           0	 -0.00519764	           1	           0	    -324.717	    0.916839	    0.916839	
 --	 --	 --	 --	 --	      0.4251	    0.911012	    0.916962	           0	 -0.00595004	           1	           0	    -127.861	    0.916962	    0.916962	
 --	 --	 --	 --	 --	      0.4301	    0.914598	    0.917085	           0	 -0.00248743	           1	           0	    -21.4716	    0.917085	    0.917085	
 --	 --	 --	 --	 --	      0.4351	    0.914312	    0.917209	           0	 -0.00289748	           1	           0	    -244.706	    0.917209	    0.917209	
 --	 --	 --	 --	 --	      0.4401	    0.915609	    0.917333	           0	  -0.0017246	           1	           0	     207.035	    0.802509	     1.03216	
 --	 --	 --	 --	 --	      0.4451	    0.913644	    0.917458	           0	  -0.0038132	           1	           0	     211.061	    0.801523	     1.03339	
 --	 --	 --	 --	 --	      0.4501	    0.910936	    0.917582	           0	 -0.00664646	           1	           0	    -226.216	    0.917582	    0.917582	
 --	 --	 --	 --	 --	      0.4551	    0.915838	    0.917707	           0	 -0.00186906	           1	           0	     -49.695	    0.917707	    0.917707	
 --	 --	 --	 --	 --	      0.4601	    0.918737	    0.917831	           0	 0.000905324	           1	           0	    -48.2424	    0.917831	    0.917831	
 --	 --	 --	 --	 --	      0.4651	    0.915933	    0.917956	           0	 -0.00202275	           1	           0	    -69.0108	    0.917956	    0.917956	
 --	 --	 --	 --	 --	      0.4701	    0.915227	     0.91808	           0	 -0.00285296	           1	           0	    -80.9523	     0.91808	     0.91808	
 --	 --	 --	 --	 --	      0.4751	    0.913492	    0.918205	           0	 -0.00471326	           1	           0	     327.408	    0.773809	      1.0626	
 --	 --	 --	 --	 --	      0.4801	    0.912767	    0.918329	           0	 -0.00556209	           1	           0	    -172.985	    0.918329	    0.918329	
 --	 --	 --	 --	 --	      0.4851	     0.91992	    0.918453	           0	  0.00146684	           1	           0	    -225.451	    0.918453	    0.918453	
 --	 --	 --	 --	 --	      0.4901	    0.916486	    0.918576	           0	 -0.00208991	           1	           0	    -109.073	    0.918576	    0.918576	
 --	 --	 --	 --	 --	      0.4951	    0.912481	    0.918699	           0	 -0.00621856	           1	           0	    -54.5796	    0.918699	    0.918699	
 --	 --	 --	 --	 --	      0.5001	    0.918374	    0.918822	           0	-0.000447807	           1	           0	     58.1147	    0.857987	    0.979657	
 --	 --	 --	 --	 --	      0.5051	    0.914121	    0.918944	           0	 -0.00482362	           1	           0	    -259.557	    0.918944	    0.918944	
 --	 --	 --	 --	 --	      0.5101	    0.914331	    0.919066	           0	 -0.00473571	           1	           0	    -240.095	    0.919066	    0.919066	
 --	 --	 --	 --	 --	      0.5151	    0.920377	    0.919188	           0	  0.00118946	           1	           0	     37.8912	    0.870065	     0.96831	
 --	 --	 --	 --	 --	      0.5201	    0.915914	    0.919308	           0	 -0.00339433	           1	           0	     20.5176	    0.883161	    0.955455	
 --	 --	 --	 --	 --	      0.5251	    0.915914	    0.919429	           0	 -0.00351481	           1	           0	    -121.134	    0.919429	    0.919429	
 --	 --	 --	 --	 --	      0.5301	    0.921941	    0.919548	           0	  0.00239281	           1	           0	     -195.86	    0.919548	    0.919548	
 --	 --	 --	 --	 --	      0.5351	    0.917974	    0.919667	           0	 -0.00169345	           1	           0	     60.8817	    0.857401	    0.981934	
 --	 --	 --	 --	 --	      0.5401	    0.916772	    0.919786	           0	 -0.00301307	           1	           0	    -5.09254	    0.919786	    0.919786	
 --	 --	 --	 --	 --	      0.5451	    0.919748	    0.919903	           0	-0.000155525	           1	           0	    -234.577	    0.919903	    0.919903	
 --	 --	 --	 --	 --	      0.5501	    0.920911	     0.92002	           0	 0.000890957	           1	           0	    -80.6896	     0.92002	     0.92002	
 --	 --	 --	 --	 --	      0.5551	    0.918317	    0.920137	           0	 -0.00181936	           1	           0	     20.9744	    0.883589	    0.956684	
 --	 --	 --	 --	 --	      0.5601	    0.915571	    0.920252	           0	  -0.0046812	           1	           0	    -223.053	    0.920252	    0.920252	
 --	 --	 --	 --	 --	      0.5651	    0.918088	    0.920367	           0	  -0.0022788	           1	           0	    -25.3591	    0.920367	    0.920367	
 --	 --	 --	 --	 --	      0.5701	    0.923772	    0.920481	           0	   0.0032911	           1	           0	    -153.221	    0.920481	    0.920481	
 --	 --	 --	 --	 --	      0.5751	     0.92074	    0.920594	           0	 0.000145259	           1	           0	    -92.9314	    0.920594	    0.920594	
 --	 --	 --	 --	 --	      0.5801	    0.915571	    0.920707	           0	  -0.0051363	           1	           0	    -230.347	    0.920707	    0.920707	
 --	 --	 --	 --	 --	      0.5851	    0.922837	    0.920819	           0	  0.00201868	           1	           0	    -29.1573	    0.920819	    0.920819	
 --	 --	 --	 --	 --	      0.5901	    0.922056	     0.92093	           0	  0.00112571	           1	           0	     69.6605	    0.854325	    0.987534	
 --	 --	 --	 --	 --	      0.5951	    0.918127	     0.92104	           0	 -0.00291321	           1	           0	    -354.508	     0.92104	     0.92104	
 --	 --	 --	 --	 --	      0.6001	    0.915151	    0.921149	           0	 -0.00599831	           1	           0	    -163.302	    0.921149	    0.921149	
 --	 --	 --	 --	 --	      0.6051	    0.922418	    0.921258	           0	  0.00116017	           1	           0	    -63.7907	    0.921258	    0.921258	
 --	 --	 --	 --	 --	      0.6101	    0.922799	    0.921366	           0	  0.00143372	           1	           0	    -194.106	    0.921366	    0.921366	
 --	 --	 --	 --	 --	      0.6151	    0.919385	    0.921472	           0	 -0.00208689	           1	           0	     53.5254	    0.863089	    0.979856	
 --	 --	 --	 --	 --	      0.6201	    0.913949	    0.921578	           0	 -0.00762916	           1	           0	    -49.2032	    0.921578	    0.921578	
 --	 --	 --	 --	 --	      0.6251	    0.922494	    0.921684	           0	 0.000810665	           1	           0	     60.4973	    0.859614	    0.983753	
 --	 --	 --	 --	 --	      0.6301	    0.920358	    0.921788	           0	 -0.00142966	           1	           0	    -202.052	    0.921788	    0.921788	
 --	 --	 --	 --	 --	      0.6351	    0.921121	    0.921891	           0	-0.000770393	           1	           0	     59.7105	    0.860227	    0.983556	
 --	 --	 --	 --	 --	      0.6401	    0.925603	    0.921994	           0	  0.00360923	           1	           0	     72.8698	    0.853873	    0.990115	
 --	 --	 --	 --	 --	      0.6451	    0.919824	    0.922096	           0	 -0.00227204	           1	           0	     205.349	     0.80774	     1.03645	
 --	 --	 --	 --	 --	      0.6501	    0.921941	    0.922197	           0	-0.000255708	           1	           0	     164.672	    0.819792	      1.0246	
 --	 --	 --	 --	 --	      0.6551	    0.924383	    0.922297	           0	  0.00208598	           1	           0	    -234.761	    0.922297	    0.922297	
 --	 --	 --	 --	 --	      0.6601	    0.920053	    0.922396	           0	 -0.00234297	           1	           0	    -90.9047	    0.922396	    0.922396	
 --	 --	 --	 --	 --	      0.6651	    0.921655	    0.922494	           0	-0.000839069	           1	           0	    -17.0243	    0.922494	    0.922494	
 --	 --	 --	 --	 --	      0.6701	    0.920358	    0.922592	           0	 -0.00223356	           1	           0	    -1.59896	    0.922592	    0.922592	
 --	 --	 --	 --	 --	      0.6751	    0.923582	    0.922688	           0	 0.000893051	           1	           0	    -105.088	    0.922688	    0.922688	
 --	 --	 --	 --	 --	      0.6801	    0.924345	    0.922784	           0	  0.00156052	           1	           0	    -373.018	    0.922784	    0.922784	
 --	 --	 --	 --	 --	      0.6851	    0.921731	    0.922879	           0	 -0.00114792	           1	           0	    -271.944	    0.922879	    0.922879	
 --	 --	 --	 --	 --	      0.6901	    0.920339	    0.922973	           0	  -0.0026345	           1	           0	    -276.489	    0.922973	    0.922973	
 --	 --	 --	 --	 --	      0.6951	    0.919996	    0.923066	           0	 -0.00307074	           1	           0	    -136.189	    0.923066	    0.923066	
 --	 --	 --	 --	 --	      0.7001	    0.920549	    0.923159	           0	 -0.00261013	           1	           0	    -25.9605	    0.923159	    0.923159	
 --	 --	 --	 --	 --	      0.7051	    0.923048	     0.92325	           0	-0.000202681	           1	           0	     143.846	     0.82754	     1.01896	
 --	 --	 --	 --	 --	      0.7101	    0.927072	    0.923341	           0	  0.00373086	           1	           0	    -226.387	    0.923341	    0.923341	
 --	 --	 --	 --	 --	      0.7151	    0.922552	    0.923431	           0	-0.000879273	           1	           0	     -262.87	    0.923431	    0.923431	
 --	 --	 --	 --	 --	      0.7201	    0.924096	     0.92352	           0	  0.00057643	           1	           0	    -439.951	     0.92352	     0.92352	
 --	 --	 --	 --	 --	      0.7251	    0.917478	    0.923608	           0	 -0.00613004	           1	           0	    -123.587	    0.923608	    0.923608	
 --	 --	 --	 --	 --	      0.7301	     0.92505	    0.923696	           0	  0.00135456	           1	           0	     227.648	    0.803291	      1.0441	
 --	 --	 --	 --	 --	      0.7351	    0.921369	    0.923782	           0	 -0.00241301	           1	           0	    -341.031	    0.923782	    0.923782	
 --	 --	 --	 --	 --	      0.7401	    0.924993	    0.923868	           0	  0.00112497	           1	           0	    -248.019	    0.923868	    0.923868	
 --	 --	 --	 --	 --	      0.7451	    0.923086	    0.923953	           0	-0.000867481	           1	           0	    -20.5852	    0.923953	    0.923953	
 --	 --	 --	 --	 --	      0.7501	    0.921235	    0.924037	           0	 -0.00280163	           1	           0	    -342.838	    0.924037	    0.924037	
 --	 --	 --	 --	 --	      0.7551	    0.927339	     0.92412	           0	  0.00321853	           1	           0	     68.6816	    0.857986	    0.990255	
 --	 --	 --	 --	 --	      0.7601	    0.926824	    0.924203	           0	  0.00262097	           1	           0	    -37.1332	    0.924203	    0.924203	
 --	 --	 --	 --	 --	      0.7651	    0.921903	    0.924285	           0	 -0.00238154	           1	           0	     95.3373	    0.846366	      1.0022	
 --	 --	 --	 --	 --	      0.7701	    0.923925	    0.924366	           0	-0.000440761	           1	           0	     -159.97	    0.924366	    0.924366	
 --	 --	 --	 --	 --	      0.7751	    0.925737	    0.924446	           0	  0.00129079	           1	           0	    -96.7242	    0.924446	    0.924446	
 --	 --	 --	 --	 --	      0.7801	    0.927416	    0.924525	           0	  0.00289013	           1	           0	    -195.925	    0.924525	    0.924525	
 --	 --	 --	 --	 --	      0.7851	    0.922113	    0.924604	           0	 -0.00249127	           1	           0	    -112.497	    0.924604	    0.924604	
 --	 --	 --	 --	 --	      0.7901	    0.926614	    0.924682	           0	  0.00193234	           1	           0	    -150.495	    0.924682	    0.924682	
 --	 --	 --	 --	 --	      0.7951	    0.928274	    0.924759	           0	  0.00351471	           1	           0	     33.8756	    0.878312	    0.971206	
 --	 --	 --	 --	 --	      0.8001	    0.925527	    0.924835	           0	  0.00069159	           1	           0	    -214.405	    0.924835	    0.924835	
 --	 --	 --	 --	 --	      0.8051	    0.924573	    0.924911	           0	-0.000337786	           1	           0	    -170.339	    0.924911	    0.924911	
 --	 --	 --	 --	 --	      0.8101	    0.920701	    0.924986	           0	 -0.00428442	           1	           0	    -139.681	    0.924986	    0.924986	
 --	 --	 --	 --	 --	      0.8151	    0.925928	     0.92506	           0	 0.000867682	           1	           0	    -25.7631	     0.92506	     0.92506	
 --	 --	 --	 --	 --	      0.8201	    0.921064	    0.925133	           0	 -0.00406974	           1	           0	    -421.029	    0.925133	    0.925133	
 --	 --	 --	 --	 --	      0.8251	    0.924669	    0.925206	           0	-0.000537179	           1	           0	    -374.115	    0.925206	    0.925206	
 --	 --	 --	 --	 --	      0.8301	    0.926176	    0.925278	           0	 0.000897597	           1	           0	     77.4363	    0.855055	    0.995502	
 --	 --	 --	 --	 --	      0.8351	    0.925928	    0.925349	           0	 0.000578085	           1	           0	     52.0525	    0.867775	    0.982924	
 --	 --	 --	 --	 --	      0.8401	    0.927568	     0.92542	           0	  0.00214803	           1	           0	     79.7779	    0.854143	    0.996697	
 --	 --	 --	 --	 --	      0.8451	    0.926881	     0.92549	           0	  0.00139143	           1	           0	     -298.74	     0.92549	     0.92549	
 --	 --	 --	 --	 --	      0.8501	    0.923009	    0.925559	           0	 -0.00254973	           1	           0	    -31.2488	    0.925559	    0.925559	
 --	 --	 --	 --	 --	      0.8551	    0.930868	    0.925627	           0	   0.0052408	           1	           0	    -14.3881	    0.925627	    0.925627	
 --	 --	 --	 --	 --	      0.8601	    0.924306	    0.925695	           0	 -0.00138923	           1	           0	    -5.11831	    0.925695	    0.925695	
 --	 --	 --	 --	 --	      0.8651	    0.923792	    0.925762	           0	 -0.00197084	           1	           0	    -415.382	    0.925762	    0.925762	
 --	 --	 --	 --	 --	      0.8701	    0.930067	    0.925829	           0	  0.00423772	           1	           0	     -44.501	    0.925829	    0.925829	
 --	 --	 --	 --	 --	      0.8751	    0.926404	    0.925895	           0	 0.000509704	           1	           0	    -298.821	    0.925895	    0.925895	
 --	 --	 --	 --	 --	      0.8801	    0.925832	     0.92596	           0	-0.000127405	           1	           0	     21.1392	    0.889269	     0.96265	
 --	 --	 --	 --	 --	      0.8851	    0.926957	    0.926024	           0	  0.00093314	           1	           0	     67.1295	    0.860641	    0.991407	
 --	 --	 --	 --	 --	      0.8901	    0.921674	    0.926088	           0	 -0.00441392	           1	           0	    -113.547	    0.926088	    0.926088	
 --	 --	 --	 --	 --	      0.8951	    0.923467	    0.926151	           0	 -0.00268433	           1	           0	     76.9941	    0.856128	    0.996174	
 --	 --	 --	 --	 --	      0.9001	    0.930963	    0.926214	           0	  0.00474964	           1	           0	     192.601	    0.815465	     1.03696	
 --	 --	 --	 --	 --	      0.9051	    0.929456	    0.926276	           0	  0.00318075	           1	           0	    -105.898	    0.926276	    0.926276	
 --	 --	 --	 --	 --	      0.9101	    0.928102	    0.926337	           0	  0.00176522	           1	           0	     104.707	    0.844679	     1.00799	
 --	 --	 --	 --	 --	      0.9151	    0.931535	    0.926397	           0	  0.00513757	           1	           0	    -137.344	    0.926397	    0.926397	
 --	 --	 --	 --	 --	      0.9201	    0.925565	    0.926457	           0	-0.000892215	           1	           0	     13.0075	    0.897676	    0.955239	
 --	 --	 --	 --	 --	      0.9251	    0.923887	    0.926517	           0	 -0.00263015	           1	           0	     76.1343	    0.856886	    0.996148	
 --	 --	 --	 --	 --	      0.9301	    0.925146	    0.926576	           0	 -0.00142997	           1	           0	      -225.8	    0.926576	    0.926576	
 --	 --	 --	 --	 --	      0.9351	    0.931287	    0.926634	           0	   0.0046533	           1	           0	    -192.888	    0.926634	    0.926634	
 --	 --	 --	 --	 --	      0.9401	    0.928521	    0.926692	           0	  0.00182966	           1	           0	    -183.067	    0.926692	    0.926692	
 --	 --	 --	 --	 --	      0.9451	    0.925108	    0.926749	           0	 -0.00164115	           1	           0	    -428.489	    0.926749	    0.926749	
 --	 --	 --	 --	 --	      0.9501	    0.926633	    0.926805	           0	 -0.00017187	           1	           0	    -355.318	    0.926805	    0.926805	
 --	 --	 --	 --	 --	      0.9551	     0.92999	    0.926861	           0	  0.00312923	           1	           0	    -249.895	    0.926861	    0.926861	
 --	 --	 --	 --	 --	      0.9601	    0.927987	    0.926916	           0	  0.00107115	           1	           0	     178.311	    0.820355	     1.03348	
 --	 --	 --	 --	 --	      0.9651	    0.928083	    0.926971	           0	  0.00111188	           1	           0	     7.10222	    0.905704	    0.948238	
 --	 --	 --	 --	 --	      0.9701	    0.923467	    0.927025	           0	 -0.00355832	           1	           0	      141.37	    0.832142	     1.02191	
 --	 --	 --	 --	 --	      0.9751	    0.930067	    0.927079	           0	  0.00298777	           1	           0	    -53.6275	    0.927079	    0.927079	
 --	 --	 --	 --	 --	      0.9801	     0.93245	    0.927132	           0	  0.00531791	           1	           0	    -175.087	    0.927132	    0.927132	
 --	 --	 --	 --	 --	      0.9851	    0.927568	    0.927185	           0	 0.000383097	           1	           0	    -161.503	    0.927185	    0.927185	
 --	 --	 --	 --	 --	      0.9901	    0.926919	    0.927237	           0	-0.000317431	           1	           0	    -67.3442	    0.927237	    0.927237	
 --	 --	 --	 --	 --	      0.9951	    0.928026	    0.927288	           0	 0.000737572	           1	           0	     187.567	    0.817996	     1.03658	
 --	 --	 --	 --	 --	      1.0001	    0.929323	    0.927339	           0	   0.0019836	           1	           0	    -229.233	    0.927339	    0.927339	
 --	 --	 --	 --	 --	      1.0051	    0.928045	     0.92739	           0	 0.000655152	           1	           0	    -318.483	     0.92739	     0.92739	
 --	 --	 --	 --	 --	      1.0101	    0.928541	     0.92744	           0	  0.00110097	           1	           0	    -359.905	     0.92744	     0.92744	
 --	 --	 --	 --	 --	      1.0151	    0.929457	    0.927489	           0	  0.00196755	           1	           0	     18.5955	    0.893077	    0.961901	
 --	 --	 --	 --	 --	      1.0201	    0.924459	    0.927538	           0	 -0.00307862	           1	           0	    -131.873	    0.927538	    0.927538	
 --	 --	 --	 --	 --	      1.0251	     0.93144	    0.927586	           0	  0.00385347	           1	           0	     28.5355	    0.884958	    0.970215	
 --	 --	 --	 --	 --	      1.0301	     0.92959	    0.927634	           0	  0.00195555	           1	           0	     -53.307	    0.927634	    0.927634	
 --	 --	 --	 --	 --	      1.0351	    0.928388	    0.927682	           0	 0.000706374	           1	           0	    -73.4629	    0.927682	    0.927682	
 --	 --	 --	 --	 --	      1.0401	    0.929704	    0.927729	           0	  0.00197543	           1	           0	    -392.138	    0.927729	    0.927729	
 --	 --	 --	 --	 --	      1.0451	    0.931993	    0.927775	           0	  0.00421798	           1	           0	    -163.895	    0.927775	    0.927775	
 --	 --	 --	 --	 --	      1.0501	    0.923639	    0.927821	           0	 -0.00418226	           1	           0	      198.26	    0.815457	     1.04019	
 --	 --	 --	 --	 --	      1.0551	    0.926862	    0.927867	           0	 -0.00100427	           1	           0	     37.3955	    0.879066	    0.976667	
 --	 --	 --	 --	 --	      1.0601	    0.928789	    0.927912	           0	 0.000876942	           1	           0	    -65.1941	    0.927912	    0.927912	
 --	 --	 --	 --	 --	      1.0651	    0.932184	    0.927956	           0	  0.00422836	           1	           0	    -118.838	    0.927956	    0.927956	
 --	 --	 --	 --	 --	      1.0701	    0.927816	       0.928	           0	-0.000184509	           1	           0	     226.491	    0.807902	      1.0481	
 --	 --	 --	 --	 --	      1.0751	    0.930086	    0.928044	           0	  0.00204157	           1	           0	     11.1318	    0.901419	    0.954669	
 --	 --	 --	 --	 --	      1.0801	    0.928579	    0.928087	           0	 0.000491604	           1	           0	    -557.085	    0.928087	    0.928087	
 --	 --	 --	 --	 --	      1.0851	    0.930048	     0.92813	           0	  0.00191758	           1	           0	    -378.003	     0.92813	     0.92813	
 --	 --	 --	 --	 --	      1.0901	    0.930162	    0.928172	           0	  0.00198974	           1	           0	    -232.388	    0.928172	    0.928172	
 --	 --	 --	 --	 --	      1.0951	    0.923067	    0.928214	           0	  -0.0051474	           1	           0	    -288.585	    0.928214	    0.928214	
 --	 --	 --	 --	 --	         1.1	    0.933599	    0.928255	           0	  0.00534395	           1	           0	     -135.38	    0.928255	    0.928255	
 --	 --	 --	 --	 --	       1.225	    0.930584	    0.929164	           0	   0.0014209	           1	           0	     90.8099	    0.853117	     1.00521	
 --	 --	 --	 --	 --	        1.35	    0.935449	    0.929865	           0	  0.00558376	           1	           0	    -260.009	    0.929865	    0.929865	
 --	 --	 --	 --	 --	       1.475	     0.93108	    0.930405	           0	 0.000675015	           1	           0	    -21.2018	    0.930405	    0.930405	
 --	 --	 --	 --	 --	         1.6	     0.93028	    0.930822	           0	-0.000542967	           1	           0	     179.847	    0.823803	     1.03784	
 --	 --	 --	 --	 --	       1.725	    0.936726	    0.931144	           0	   0.0055825	           1	           0	    -59.6642	    0.931144	    0.931144	
 --	 --	 --	 --	 --	        1.85	    0.936535	    0.931392	           0	  0.00514358	           1	           0	      108.68	    0.848199	     1.01458	
 --	 --	 --	 --	 --	       1.975	    0.933923	    0.931583	           0	  0.00233966	           1	           0	    -151.392	    0.931583	    0.931583	
 --	 --	 --	 --	 --	         2.1	     0.93274	     0.93173	           0	  0.00100975	           1	           0	    -164.194	     0.93173	     0.93173	
 --	 --	 --	 --	 --	       2.225	    0.938577	    0.931844	           0	   0.0067326	           1	           0	      -173.7	    0.931844	    0.931844	
 --	 --	 --	 --	 --	        2.35	     0.93501	    0.931932	           0	  0.00307821	           1	           0	    -216.425	    0.931932	    0.931932	
 --	 --	 --	 --	 --	       2.475	    0.936765	    0.931999	           0	  0.00476538	           1	           0	    -45.0525	    0.931999	    0.931999	
 --	 --	 --	 --	 --	         2.6	    0.931615	    0.932051	           0	-0.000436723	           1	           0	    -303.798	    0.932051	    0.932051	
 --	 --	 --	 --	 --	       2.725	    0.935906	    0.932092	           0	   0.0038146	           1	           0	    -160.322	    0.932092	    0.932092	
 --	 --	 --	 --	 --	        2.85	    0.934514	    0.932123	           0	  0.00239112	           1	           0	    -305.035	    0.932123	    0.932123	
 --	 --	 --	 --	 --	       2.975	    0.936174	    0.932147	           0	  0.00402698	           1	           0	    -334.476	    0.932147	    0.932147	
 --	 --	 --	 --	 --	         3.1	    0.935468	    0.932165	           0	  0.00330282	           1	           0	     78.5785	    0.861425	      1.0029	
 --	 --	 --	 --	 --	       3.225	    0.937547	    0.932179	           0	  0.00536761	           1	           0	    -235.495	    0.932179	    0.932179	
 --	 --	 --	 --	 --	        3.35	    0.935792	     0.93219	           0	  0.00360191	           1	           0	    -294.401	     0.93219	     0.93219	
 --	 --	 --	 --	 --	       3.475	    0.933942	    0.932199	           0	  0.00174322	           1	           0	     -483.75	    0.932199	    0.932199	
 --	 --	 --	 --	 --	         3.6	    0.937718	    0.932205	           0	  0.00551321	           1	           0	     -196.33	    0.932205	    0.932205	
 --	 --	 --	 --	 --	       3.725	    0.935563	     0.93221	           0	  0.00335294	           1	           0	    -460.559	     0.93221	     0.93221	
 --	 --	 --	 --	 --	        3.85	    0.935964	    0.932214	           0	  0.00374957	           1	           0	    -11.0588	    0.932214	    0.932214	
 --	 --	 --	 --	 --	       3.975	    0.936822	    0.932217	           0	  0.00460508	           1	           0	    -187.416	    0.932217	    0.932217	
 --	 --	 --	 --	 --	         4.1	    0.938119	    0.932219	           0	  0.00589953	           1	           0	     17.9758	    0.898385	    0.966053	
 --	 --	 --	 --	 --	       4.225	    0.935868	    0.932221	           0	  0.00364701	           1	           0	    -129.364	    0.932221	    0.932221	
 --	 --	 --	 --	 --	        4.35	    0.933617	    0.932222	           0	  0.00139514	           1	           0	     299.217	    0.794183	     1.07026	
 --	 --	 --	 --	 --	       4.475	    0.938729	    0.932223	           0	  0.00650533	           1	           0	     -345.97	    0.932223	    0.932223	
 --	 --	 --	 --	 --	         4.6	     0.93543	    0.932224	           0	  0.00320527	           1	           0	     37.0437	    0.883654	    0.980794	
 --	 --	 --	 --	 --	       4.725	    0.940694	    0.932225	           0	  0.00846964	           1	           0	    -495.845	    0.932225	    0.932225	
 --	 --	 --	 --	 --	        4.85	    0.944051	    0.932225	           0	   0.0118254	           1	           0	    -193.879	    0.932225	    0.932225	
 --	 --	 --	 --	 --	       4.975	    0.938729	    0.932226	           0	  0.00650354	           1	           0	    -110.459	    0.932226	    0.932226	
 --	 --	 --	 --	 --	         5.1	    0.936497	    0.932226	           0	   0.0042715	           1	           0	    -421.373	    0.932226	    0.932226	
 --	 --	 --	 --	 --	       5.225	    0.934495	    0.932226	           0	  0.00226853	           1	           0	      -226.1	    0.932226	    0.932226	
 --	 --	 --	 --	 --	        5.35	    0.940274	    0.932226	           0	  0.00804786	           1	           0	    -324.084	    0.932226	    0.932226	
 --	 --	 --	 --	 --	       5.475	      0.9381	    0.932227	           0	  0.00587298	           1	           0	    -188.908	    0.932227	    0.932227	
 --	 --	 --	 --	 --	         5.6	    0.933942	    0.932227	           0	  0.00171512	           1	           0	    -141.011	    0.932227	    0.932227	
 --	 --	 --	 --	 --	       5.725	    0.935887	    0.932227	           0	  0.00366055	           1	           0	    -216.234	    0.932227	    0.932227	
 --	 --	 --	 --	 --	        5.85	    0.937146	    0.932227	           0	  0.00491923	           1	           0	    -266.749	    0.932227	    0.932227	
 --	 --	 --	 --	 --	       5.975	    0.940999	    0.932227	           0	  0.00877194	           1	           0	     109.872	    0.848579	     1.01587	
 --	 --	 --	 --	 --	         6.1	     0.94222	    0.932227	           0	   0.0099929	           1	           0	    -199.592	    0.932227	    0.932227	
 --	 --	 --	 --	 --	       6.225	    0.934495	    0.932227	           0	  0.00226787	           1	           0	    -9.81243	    0.932227	    0.932227	
 --	 --	 --	 --	 --	        6.35	    0.934247	    0.932227	           0	   0.0020201	           1	           0	     14.9726	    0.901348	    0.963106	
 --	 --	 --	 --	 --	       6.475	    0.935468	    0.932227	           0	  0.00324084	           1	           0	    -291.102	    0.932227	    0.932227	
 --	 --	 --	 --	 --	         6.6	    0.938672	    0.932227	           0	  0.00644532	           1	           0	    -173.306	    0.932227	    0.932227	
 --	 --	 --	 --	 --	       6.725	    0.936441	    0.932227	           0	  0.00421356	           1	           0	    -120.671	    0.932227	    0.932227	
 --	 --	 --	 --	 --	        6.85	    0.939607	    0.932227	           0	  0.00737956	           1	           0	    -67.9622	    0.932227	    0.932227	
 --	 --	 --	 --	 --	       6.975	    0.938481	    0.932227	           0	  0.00625405	           1	           0	    -390.112	    0.932227	    0.932227	
 --	 --	 --	 --	 --	         7.1	    0.936173	    0.932227	           0	   0.0039463	           1	           0	    -141.497	    0.932227	    0.932227	
 --	 --	 --	 --	 --	       7.225	    0.936459	    0.932227	           0	  0.00423254	           1	           0	    -315.921	    0.932227	    0.932227	
 --	 --	 --	 --	 --	        7.35	    0.936059	    0.932227	           0	  0.00383179	           1	           0	     101.023	    0.852018	     1.01244	
 --	 --	 --	 --	 --	       7.475	    0.936326	    0.932227	           0	  0.00409904	           1	           0	     140.202	    0.837737	     1.02672	
 --	 --	 --	 --	 --	         7.6	    0.936593	    0.932227	           0	  0.00436604	           1	           0	     93.8989	    0.854898	     1.00956	
 --	 --	 --	 --	 --	       7.725	    0.933446	    0.932227	           0	  0.00121904	           1	           0	    -80.4456	    0.932227	    0.932227	
 --	 --	 --	 --	 --	        7.85	    0.935067	    0.932227	           0	  0.00284003	           1	           0	     35.8793	    0.884426	    0.980027	
 --	 --	 --	 --	 --	       7.975	    0.942849	    0.932227	           0	   0.0106223	           1	           0	      43.267	    0.879736	    0.984718	
 --	 --	 --	 --	 --	         8.1	    0.935219	    0.932227	           0	  0.00299253	           1	           0	    -321.453	    0.932227	    0.932227	
 --	 --	 --	 --	 --	       8.225	    0.936975	    0.932227	           0	  0.00474753	           1	           0	    -104.587	    0.932227	    0.932227	
 --	 --	 --	 --	 --	        8.35	    0.932835	    0.932227	           0	 0.000608283	           1	           0	    -438.538	    0.932227	    0.932227	
 --	 --	 --	 --	 --	       8.475	    0.933389	    0.932227	           0	  0.00116178	           1	           0	     178.048	    0.825744	     1.03871	
 --	 --	 --	 --	 --	         8.6	    0.936612	    0.932227	           0	  0.00438528	           1	           0	    -488.973	    0.932227	    0.932227	
 --	 --	 --	 --	 --	       8.725	    0.934876	    0.932227	           0	  0.00264953	           1	           0	    -54.6232	    0.932227	    0.932227	
 --	 --	 --	 --	 --	        8.85	    0.935658	    0.932227	           0	  0.00343128	           1	           0	    -184.218	    0.932227	    0.932227	
 --	 --	 --	 --	 --	       8.975	    0.934438	    0.932227	           0	  0.00221053	           1	           0	    -107.979	    0.932227	    0.932227	
 --	 --	 --	 --	 --	         9.1	     0.93686	    0.932227	           0	  0.00463303	           1	           0	     56.5672	    0.872207	    0.992247	
 --	 --	 --	 --	 --	       9.225	     0.93913	    0.932227	           0	  0.00690278	           1	           0	     185.436	    0.823558	      1.0409	
 --	 --	 --	 --	 --	        9.35	    0.933637	    0.932227	           0	  0.00140978	           1	           0	     -182.99	    0.932227	    0.932227	
 --	 --	 --	 --	 --	       9.475	    0.942525	    0.932227	           0	   0.0102975	           1	           0	    -7.64632	    0.932227	    0.932227	
 --	 --	 --	 --	 --	         9.6	    0.934838	    0.932227	           0	  0.00261103	           1	           0	    -40.6405	    0.932227	    0.932227	
 --	 --	 --	 --	 --	       9.725	    0.935773	    0.932227	           0	  0.00354578	           1	           0	    -200.179	    0.932227	    0.932227	
 --	 --	 --	 --	 --	        9.85	    0.938329	    0.932227	           0	  0.00610153	           1	           0	      -43.92	    0.932227	    0.932227	
 --	 --	 --	 --	 --	       9.975	    0.933522	    0.932227	           0	  0.00129528	           1	           0	    -83.1125	    0.932227	    0.932227	
 --	 --	 --	 --	 --	        10.4	    0.932358	    0.932227	           0	 0.000131531	           1	           0	     31.7307	    0.887275	    0.977179	
 --	 --	 --	 --	 --	        10.9	    0.937928	    0.932227	           0	  0.00570103	           1	           0	    -174.268	    0.932227	    0.932227	
 --	 --	 --	 --	 --	        11.4	    0.939264	    0.932227	           0	  0.00703653	           1	           0	     95.1206	    0.854397	     1.01006	
 --	 --	 --	 --	 --	        11.9	    0.931539	    0.932227	           0	-0.000688469	           1	           0	    -67.3544	    0.932227	    0.932227	
 --	 --	 --	 --	 --	        12.4	    0.936326	    0.932227	           0	  0.00409878	           1	           0	      -271.7	    0.932227	    0.932227	
 --	 --	 --	 --	 --	        12.9	    0.931996	    0.932227	           0	-0.000230719	           1	           0	     25.4847	    0.891941	    0.972513	
 --	 --	 --	 --	 --	        13.4	    0.933007	    0.932227	           0	 0.000780281	           1	           0	     218.674	     0.81422	     1.05023	
 --	 --	 --	 --	 --	        13.9	    0.938443	    0.932227	           0	  0.00621628	           1	           0	     25.4944	    0.891934	     0.97252	
 --	 --	 --	 --	 --	        14.4	    0.935315	    0.932227	           0	  0.00308803	           1	           0	     25.4944	    0.891934	     0.97252	
 --	 --	 --	 --	 --	        14.9	    0.934361	    0.932227	           0	  0.00213428	           1	           0	     218.674	     0.81422	     1.05023	
 --	 --	 --	 --	 --	        15.4	    0.931443	    0.932227	           0	-0.000784219	           1	           0	     25.4847	    0.891941	    0.972513	
 --	 --	 --	 --	 --	        15.9	    0.934075	    0.932227	           0	  0.00184828	           1	           0	     25.4847	    0.891941	    0.972513	
 --	 --	 --	 --	 --	        16.4	    0.934762	    0.932227	           0	  0.00253503	           1	           0	     218.683	    0.814217	     1.05024	
 --	 --	 --	 --	 --	        16.9	    0.938462	    0.932227	           0	  0.00623528	           1	           0	     218.674	     0.81422	     1.05023	
 --	 --	 --	 --	 --	        17.4	    0.936498	    0.932227	           0	  0.00427078	           1	           0	     218.683	    0.814217	     1.05024	
 --	 --	 --	 --	 --	        17.9	     0.93234	    0.932227	           0	 0.000112531	           1	           0	     25.4944	    0.891934	     0.97252	
 --	 --	 --	 --	 --	        18.4	    0.934209	    0.932227	           0	  0.00198178	           1	           0	     218.674	     0.81422	     1.05023	
 --	 --	 --	 --	 --	        18.9	    0.934171	    0.932227	           0	  0.00194353	           1	           0	     20.6139	    0.895995	    0.968459	
 --	 --	 --	 --	 --	        19.4	    0.936231	    0.932227	           0	  0.00400353	           1	           0	     25.5041	    0.891926	    0.972528	
 --	 --	 --	 --	 --	        19.9	    0.929765	    0.932227	           0	 -0.00246222	           1	           0	     25.4847	    0.891941	    0.972513	
 --	 --	 --	 --	 --	        20.4	     0.93274	    0.932227	           0	 0.000513281	           1	           0	     20.6139	    0.895995	    0.968459	
 --	 --	 --	 --	 --	        20.9	    0.931539	    0.932227	           0	-0.000688469	           1	           0	     218.683	    0.814217	     1.05024	
 --	 --	 --	 --	 --	        21.4	    0.931042	    0.932227	           0	 -0.00118447	           1	           0	     20.6139	    0.895995	    0.968459	
 --	 --	 --	 --	 --	        21.9	    0.934133	    0.932227	           0	  0.00190553	           1	           0	     25.4847	    0.891941	    0.972513	
 --	 --	 --	 --	 --	        22.4	    0.931691	    0.932227	           0	-0.000535969	           1	           0	     218.674	     0.81422	     1.05023	
 --	 --	 --	 --	 --	        22.9	    0.931119	    0.932227	           0	 -0.00110797	           1	           0	     218.693	    0.814215	     1.05024	
 --	 --	 --	 --	 --	        23.4	    0.935392	    0.932227	           0	  0.00316453	           1	           0	     218.674	     0.81422	     1.05023	
 --	 --	 --	 --	 --	        23.9	    0.939797	    0.932227	           0	  0.00757028	           1	           0	     25.5041	    0.891926	    0.972528	
 --	 --	 --	 --	 --	        24.4	    0.936593	    0.932227	           0	  0.00436603	           1	           0	     25.4847	    0.891941	    0.972513	
 --	 --	 --	 --	 --	        24.9	    0.933732	    0.932227	           0	  0.00150528	           1	           0	     218.683	    0.814217	     1.05024	
 --	 --	 --	 --	 --	        25.4	    0.929402	    0.932227	           0	 -0.00282472	           1	           0	     218.674	     0.81422	     1.05023	
 --	 --	 --	 --	 --	        25.9	    0.935506	    0.932227	           0	  0.00327878	           1	           0	     218.683	    0.814217	     1.05024	
 --	 --	 --	 --	 --	        26.4	    0.928773	    0.932227	           0	 -0.00345422	           1	           0	     25.4847	    0.891941	    0.972513	
 --	 --	 --	 --	 --	        26.9	    0.933198	    0.932227	           0	 0.000971031	           1	           0	     25.4847	    0.891941	    0.972513	
 --	 --	 --	 --	 --	        27.4	    0.934762	    0.932227	           0	  0.00253478	           1	           0	     25.4652	    0.891957	    0.972497	
 --	 --	 --	 --	 --	        27.9	    0.931825	    0.932227	           0	-0.000402469	           1	           0	     20.6041	    0.896004	     0.96845	
 --	 --	 --	 --	 --	        28.4	    0.932931	    0.932227	           0	 0.000704031	           1	           0	     25.4847	    0.891941	    0.972513	
 --	 --	 --	 --	 --	        28.9	    0.934495	    0.932227	           0	  0.00226803	           1	           0	     218.674	     0.81422	     1.05023	
 --	 --	 --	 --	 --	        29.4	    0.934686	    0.932227	           0	  0.00245878	           1	           0	     218.674	     0.81422	     1.05023	
 --	 --	 --	 --	 --	        29.9	    0.930852	    0.932227	           0	 -0.00137522	           1	           0	     25.4847	    0.891941	    0.972513	
 --	 --	 --	 --	 --	        30.4	    0.929211	    0.932227	           0	 -0.00301572	           1	           0	     20.6139	    0.895995	    0.968459	
 --	 --	 --	 --	 --	        30.9	    0.929078	    0.932227	           0	 -0.00314897	           1	           0	     25.4944	    0.891934	     0.97252	
 --	 --	 --	 --	 --	        31.4	    0.929097	    0.932227	           0	 -0.00312972	           1	           0	     25.5041	    0.891926	    0.972528	
 --	 --	 --	 --	 --	        31.9	    0.931481	    0.932227	           0	-0.000745719	           1	           0	     25.4944	    0.891934	     0.97252	
 --	 --	 --	 --	 --	        32.4	    0.931558	    0.932227	           0	-0.000669219	           1	           0	     25.4847	    0.891941	    0.972513	
 --	 --	 --	 --	 --	        32.9	    0.928487	    0.932227	           0	 -0.00374022	           1	           0	     218.674	     0.81422	     1.05023	
 --	 --	 --	 --	 --	        33.4	    0.930508	    0.932227	           0	 -0.00171847	           1	           0	     218.674	     0.81422	     1.05023	
 --	 --	 --	 --	 --	        33.9	     0.93068	    0.932227	           0	 -0.00154672	           1	           0	     218.674	     0.81422	     1.05023	
 --	 --	 --	 --	 --	        34.4	     0.92595	    0.932227	           0	 -0.00627697	           1	           0	     218.674	     0.81422	     1.05023	
 --	 --	 --	 --	 --	        34.9	    0.930566	    0.932227	           0	 -0.00166122	           1	           0	     218.674	     0.81422	     1.05023	
 --	 --	 --	 --	 --	        35.4	    0.932549	    0.932227	           0	 0.000322281	           1	           0	     218.674	     0.81422	     1.05023	
 --	 --	 --	 --	 --	        35.9	    0.932149	    0.932227	           0	-7.82186e-005	           1	           0	     218.674	     0.81422	     1.05023	
 --	 --	 --	 --	 --	        36.4	    0.929689	    0.932227	           0	 -0.00253847	           1	           0	     218.683	    0.814217	     1.05024	
 --	 --	 --	 --	 --	        36.9	     0.93068	    0.932227	           0	 -0.00154697	           1	           0	     25.4944	    0.891934	     0.97252	
 --	 --	 --	 --	 --	        37.4	    0.929669	    0.932227	           0	 -0.00255772	           1	           0	     25.4944	    0.891934	     0.97252	
 --	 --	 --	 --	 --	        37.9	    0.932855	    0.932227	           0	 0.000627531	           1	           0	     25.4944	    0.891934	     0.97252	
 --	 --	 --	 --	 --	        38.4	     0.92986	    0.932227	           0	 -0.00236697	           1	           0	     25.4944	    0.891934	     0.97252	
 --	 --	 --	 --	 --	        38.9	    0.931977	    0.932227	           0	-0.000249969	           1	           0	     25.4944	    0.891934	     0.97252	
 --	 --	 --	 --	 --	        39.4	    0.935887	    0.932227	           0	  0.00366003	           1	           0	     20.6139	    0.895995	    0.968459	
 --	 --	 --	 --	 --	        39.9	    0.932893	    0.932227	           0	 0.000666031	           1	           0	     25.4944	    0.891934	     0.97252	
 --	 --	 --	 --	 --	        40.4	    0.929917	    0.932227	           0	 -0.00230972	           1	           0	     25.4944	    0.891934	     0.97252	
 --	 --	 --	 --	 --	        40.9	    0.933026	    0.932227	           0	 0.000799281	           1	           0	     25.4944	    0.891934	     0.97252	
 --	 --	 --	 --	 --	        41.4	    0.931462	    0.932227	           0	-0.000764969	           1	           0	     25.4847	    0.891941	    0.972513	
 --	 --	 --	 --	 --	        41.9	    0.931596	    0.932227	           0	-0.000631219	           1	           0	     25.4847	    0.891941	    0.972513	
 --	 --	 --	 --	 --	        42.4	    0.932282	    0.932227	           0	5.52814e-005	           1	           0	     25.4847	    0.891941	    0.972513	
 --	 --	 --	 --	 --	        42.9	    0.926122	    0.932227	           0	 -0.00610522	           1	           0	     25.4847	    0.891941	    0.972513	
 --	 --	 --	 --	 --	        43.4	    0.927304	    0.932227	           0	 -0.00492272	           1	           0	     25.4847	    0.891941	    0.972513	
 --	 --	 --	 --	 --	        43.9	    0.930699	    0.932227	           0	 -0.00152797	           1	           0	     25.4847	    0.891941	    0.972513	
 --	 --	 --	 --	 --	        44.4	    0.932893	    0.932227	           0	 0.000665781	           1	           0	     25.4847	    0.891941	    0.972513	
 --	 --	 --	 --	 --	        44.9	    0.931519	    0.932227	           0	-0.000707469	           1	           0	     25.4847	    0.891941	    0.972513	
 --	 --	 --	 --	 --	        45.4	    0.928906	    0.932227	           0	 -0.00332072	           1	           0	     25.4847	    0.891941	    0.972513	
 --	 --	 --	 --	 --	        45.9	    0.929555	    0.932227	           0	 -0.00267197	           1	           0	     25.4847	    0.891941	    0.972513	
 --	 --	 --	 --	 --	        46.4	    0.930394	    0.932227	           0	 -0.00183297	           1	           0	     25.4847	    0.891941	    0.972513	
 --	 --	 --	 --	 --	        46.9	    0.932492	    0.932227	           0	 0.000265281	           1	           0	     25.4847	    0.891941	    0.972513	
 --	 --	 --	 --	 --	        47.4	    0.930223	    0.932227	           0	 -0.00200447	           1	           0	     25.4847	    0.891941	    0.972513	
 --	 --	 --	 --	 --	        47.9	    0.934819	    0.932227	           0	  0.00259228	           1	           0	     25.4847	    0.891941	    0.972513	
 --	 --	 --	 --	 --	        48.4	    0.932301	    0.932227	           0	7.45314e-005	           1	           0	     25.4847	    0.891941	    0.972513	
 --	 --	 --	 --	 --	        48.9	    0.931024	    0.932227	           0	 -0.00120347	           1	           0	     25.4847	    0.891941	    0.972513	
 --	 --	 --	 --	 --	        49.4	     0.93541	    0.932227	           0	  0.00318353	           1	           0	     25.4847	    0.891941	    0.972513	
 --	 --	 --	 --	 --	        49.9	    0.932855	    0.932227	           0	 0.000627531	           1	           0	     25.4847	    0.891941	    0.972513	
 --	 --	 --	 --	 --	        50.4	    0.930814	    0.932227	           0	 -0.00141322	           1	           0	     25.4847	    0.891941	    0.972513	
 --	 --	 --	 --	 --	        50.9	    0.931214	    0.932227	           0	 -0.00101297	           1	           0	     25.4847	    0.891941	    0.972513	
 --	 --	 --	 --	 --	        51.4	    0.931233	    0.932227	           0	-0.000993469	           1	           0	     25.4847	    0.891941	    0.972513	
 --	 --	 --	 --	 --	        51.9	    0.930013	    0.932227	           0	 -0.00221422	           1	           0	     25.4847	    0.891941	    0.972513	
 --	 --	 --	 --	 --	        52.4	    0.927285	    0.932227	           0	 -0.00494197	           1	           0	     25.4847	    0.891941	    0.972513	
 --	 --	 --	 --	 --	        52.9	    0.933389	    0.932227	           0	  0.00116153	           1	           0	     25.4847	    0.891941	    0.972513	
 --	 --	 --	 --	 --	        53.4	    0.928373	    0.932227	           0	 -0.00385447	           1	           0	     25.4847	    0.891941	    0.972513	
 --	 --	 --	 --	 --	        53.9	    0.933846	    0.932227	           0	  0.00161928	           1	           0	     25.4847	    0.891941	    0.972513	
 --	 --	 --	 --	 --	        54.4	    0.934438	    0.932227	           0	  0.00221078	           1	           0	     25.4847	    0.891941	    0.972513	
 --	 --	 --	 --	 --	        54.9	    0.931615	    0.932227	           0	-0.000611969	           1	           0	     25.4847	    0.891941	    0.972513	
 --	 --	 --	 --	 --	        55.4	    0.929593	    0.932227	           0	 -0.00263422	           1	           0	     25.4847	    0.891941	    0.972513	
 --	 --	 --	 --	 --	        55.9	    0.929783	    0.932227	           0	 -0.00244347	           1	           0	     25.4847	    0.891941	    0.972513	
 --	 --	 --	 --	 --	        56.4	    0.933503	    0.932227	           0	  0.00127603	           1	           0	     25.4847	    0.891941	    0.972513	
 --	 --	 --	 --	 --	        56.9	    0.934247	    0.932227	           0	  0.00201978	           1	           0	     25.4847	    0.891941	    0.972513	
 --	 --	 --	 --	 --	        57.4	    0.930356	    0.932227	           0	 -0.00187122	           1	           0	     25.4847	    0.891941	    0.972513	
 --	 --	 --	 --	 --	        57.9	    0.931825	    0.932227	           0	-0.000402219	           1	           0	     25.4847	    0.891941	    0.972513	
 --	 --	 --	 --	 --	        58.4	    0.933961	    0.932227	           0	  0.00173403	           1	           0	     25.4847	    0.891941	    0.972513	
 --	 --	 --	 --	 --	        58.9	    0.931309	    0.932227	           0	-0.000917469	           1	           0	     25.4847	    0.891941	    0.972513	
 --	 --	 --	 --	 --	        59.4	     0.93047	    0.932227	           0	 -0.00175647	           1	           0	     25.4847	    0.891941	    0.972513	
 --	 --	 --	 --	 --	        59.9	    0.930642	    0.932227	           0	 -0.00158472	           1	           0	     25.4847	    0.891941	    0.972513	
 --	 --	 --	 --	 --	        60.4	    0.928449	    0.932227	           0	 -0.00377847	           1	           0	     25.4847	    0.891941	    0.972513	
 --	 --	 --	 --	 --	        60.9	    0.925149	    0.932227	           0	 -0.00707822	           1	           0	     25.4847	    0.891941	    0.972513	
 --	 --	 --	 --	 --	        61.4	    0.926866	    0.932227	           0	 -0.00536147	           1	           0	     25.4944	    0.891934	     0.97252	
 --	 --	 --	 --	 --	        61.9	    0.927209	    0.932227	           0	 -0.00501797	           1	           0	     218.683	    0.814217	     1.05024	
 --	 --	 --	 --	 --	        62.4	    0.927266	    0.932227	           0	 -0.00496097	           1	           0	     218.683	    0.814217	     1.05024	
 --	 --	 --	 --	 --	        62.9	    0.929593	    0.932227	           0	 -0.00263422	           1	           0	     218.683	    0.814217	     1.05024	
 --	 --	 --	 --	 --	        63.4	    0.929021	    0.932227	           0	 -0.00320597	           1	           0	     218.683	    0.814217	     1.05024	
 --	 --	 --	 --	 --	        63.9	    0.931214	    0.932227	           0	 -0.00101272	           1	           0	     218.683	    0.814217	     1.05024	
 --	 --	 --	 --	 --	        64.4	    0.933198	    0.932227	           0	 0.000970781	           1	           0	     218.683	    0.814217	     1.05024	
 --	 --	 --	 --	 --	        64.9	    0.929727	    0.932227	           0	 -0.00250022	           1	           0	     218.683	    0.814217	     1.05024	
 --	 --	 --	 --	 --	        65.4	    0.930127	    0.932227	           0	 -0.00209997	           1	           0	     218.683	    0.814217	     1.05024	
 --	 --	 --	 --	 --	        65.9	    0.934685	    0.932227	           0	  0.00245853	           1	           0	     218.683	    0.814217	     1.05024	
 --	 --	 --	 --	 --	        66.4	    0.931958	    0.932227	           0	-0.000268719	           1	           0	     218.683	    0.814217	     1.05024	
 --	 --	 --	 --	 --	        66.9	    0.928353	    0.932227	           0	 -0.00387347	           1	           0	     218.683	    0.814217	     1.05024	
 --	 --	 --	 --	 --	        67.4	    0.931977	    0.932227	           0	-0.000249969	           1	           0	     218.683	    0.814217	     1.05024	
 --	 --	 --	 --	 --	        67.9	    0.937013	    0.932227	           0	  0.00478553	           1	           0	     218.683	    0.814217	     1.05024	
 --	 --	 --	 --	 --	        68.4	    0.928239	    0.932227	           0	 -0.00398822	           1	           0	     218.683	    0.814217	     1.05024	
 --	 --	 --	 --	 --	        68.9	    0.930413	    0.932227	           0	 -0.00181397	           1	           0	     218.683	    0.814217	     1.05024	
 --	 --	 --	 --	 --	        69.4	    0.932778	    0.932227	           0	 0.000551531	           1	           0	     218.683	    0.814217	     1.05024	
 --	 --	 --	 --	 --	        69.9	    0.925301	    0.932227	           0	 -0.00692572	           1	           0	     218.683	    0.814217	     1.05024	
 --	 --	 --	 --	 --	        70.4	    0.926503	    0.932227	           0	 -0.00572397	           1	           0	     218.683	    0.814217	     1.05024	
 --	 --	 --	 --	 --	        70.9	    0.926942	    0.932227	           0	 -0.00528522	           1	           0	     218.683	    0.814217	     1.05024	
 --	 --	 --	 --	 --	        71.4	    0.934647	    0.932227	           0	  0.00242028	           1	           0	     218.683	    0.814217	     1.05024	
 --	 --	 --	 --	 --	        71.9	    0.931977	    0.932227	           0	-0.000249719	           1	           0	     218.683	    0.814217	     1.05024	
 --	 --	 --	 --	 --	        72.4	    0.928468	    0.932227	           0	 -0.00375922	           1	           0	     218.683	    0.814217	     1.05024	
 --	 --	 --	 --	 --	        72.9	    0.930165	    0.932227	           0	 -0.00206197	           1	           0	     218.683	    0.814217	     1.05024	
 --	 --	 --	 --	 --	        73.4	    0.926827	    0.932227	           0	 -0.00539947	           1	           0	     218.683	    0.814217	     1.05024	
 --	 --	 --	 --	 --	        73.9	    0.929879	    0.932227	           0	 -0.00234797	           1	           0	     218.683	    0.814217	     1.05024	
 --	 --	 --	 --	 --	        74.4	    0.922784	    0.932227	           0	 -0.00944297	           1	           0	     218.683	    0.814217	     1.05024	
 --	 --	 --	 --	 --	        74.9	     0.93274	    0.932227	           0	 0.000513281	           1	           0	     218.683	    0.814217	     1.05024	
 --	 --	 --	 --	 --	        75.4	    0.929078	    0.932227	           0	 -0.00314897	           1	           0	     25.4847	    0.891941	    0.972513	
 --	 --	 --	 --	 --	        75.9	    0.926332	    0.932227	           0	 -0.00589547	           1	           0	     25.4847	    0.891941	    0.972513	
 --	 --	 --	 --	 --	        76.4	    0.925588	    0.932227	           0	 -0.00663947	           1	           0	     25.4847	    0.891941	    0.972513	
 --	 --	 --	 --	 --	        76.9	    0.933065	    0.932227	           0	 0.000837531	           1	           0	     25.4847	    0.891941	    0.972513	
 --	 --	 --	 --	 --	        77.4	    0.929765	    0.932227	           0	 -0.00246222	           1	           0	     25.4847	    0.891941	    0.972513	
 --	 --	 --	 --	 --	        77.9	    0.924558	    0.932227	           0	 -0.00766947	           1	           0	     25.4847	    0.891941	    0.972513	
 --	 --	 --	 --	 --	        78.4	    0.932817	    0.932227	           0	 0.000589531	           1	           0	     25.4847	    0.891941	    0.972513	
 --	 --	 --	 --	 --	        78.9	    0.931749	    0.932227	           0	-0.000478469	           1	           0	     25.4847	    0.891941	    0.972513	
 --	 --	 --	 --	 --	        79.4	    0.932874	    0.932227	           0	 0.000646781	           1	           0	     25.4847	    0.891941	    0.972513	
 --	 --	 --	 --	 --	        79.9	    0.926484	    0.932227	           0	 -0.00574297	           1	           0	     25.4847	    0.891941	    0.972513	
 --	 --	 --	 --	 --	        80.4	    0.929784	    0.932227	           0	 -0.00244322	           1	           0	     25.4847	    0.891941	    0.972513	
 --	 --	 --	 --	 --	        80.9	    0.926694	    0.932227	           0	 -0.00553297	           1	           0	     25.4847	    0.891941	    0.972513	
 --	 --	 --	 --	 --	        81.4	    0.928125	    0.932227	           0	 -0.00410247	           1	           0	     25.4847	    0.891941	    0.972513	
 --	 --	 --	 --	 --	        81.9	    0.932683	    0.932227	           0	 0.000455781	           1	           0	     25.4847	    0.891941	    0.972513	
 --	 --	 --	 --	 --	        82.4	    0.926751	    0.932227	           0	 -0.00547622	           1	           0	     25.4847	    0.891941	    0.972513	
 --	 --	 --	 --	 --	        82.9	    0.930527	    0.932227	           0	 -0.00169947	           1	           0	     25.4847	    0.891941	    0.972513	
 --	 --	 --	 --	 --	        83.4	    0.926408	    0.932227	           0	 -0.00581922	           1	           0	     25.4847	    0.891941	    0.972513	
 --	 --	 --	 --	 --	        83.9	    0.924405	    0.932227	           0	 -0.00782222	           1	           0	     25.4847	    0.891941	    0.972513	
 --	 --	 --	 --	 --	        84.4	    0.928868	    0.932227	           0	 -0.00335872	           1	           0	     25.4847	    0.891941	    0.972513	
 --	 --	 --	 --	 --	        84.9	    0.929517	    0.932227	           0	 -0.00271047	           1	           0	     25.4847	    0.891941	    0.972513	
 --	 --	 --	 --	 --	        85.4	    0.930966	    0.932227	           0	 -0.00126072	           1	           0	     25.4847	    0.891941	    0.972513	
 --	 --	 --	 --	 --	        85.9	     0.93026	    0.932227	           0	 -0.00196647	           1	           0	     25.4847	    0.891941	    0.972513	
 --	 --	 --	 --	 --	        86.4	    0.930967	    0.932227	           0	 -0.00126047	           1	           0	     25.4847	    0.891941	    0.972513	
 --	 --	 --	 --	 --	        86.9	    0.930928	    0.932227	           0	 -0.00129872	           1	           0	     25.4847	    0.891941	    0.972513	
 --	 --	 --	 --	 --	        87.4	    0.933942	    0.932227	           0	  0.00171478	           1	           0	     25.4847	    0.891941	    0.972513	
 --	 --	 --	 --	 --	        87.9	    0.932435	    0.932227	           0	 0.000207781	           1	           0	     25.4847	    0.891941	    0.972513	
 --	 --	 --	 --	 --	        88.4	    0.931615	    0.932227	           0	-0.000611969	           1	           0	     25.4847	    0.891941	    0.972513	
 --	 --	 --	 --	 --	        88.9	    0.929059	    0.932227	           0	 -0.00316822	           1	           0	     25.4847	    0.891941	    0.972513	
 --	 --	 --	 --	 --	        89.4	    0.929021	    0.932227	           0	 -0.00320597	           1	           0	     25.4847	    0.891941	    0.972513	
 --	 --	 --	 --	 --	        89.9	    0.925893	    0.932227	           0	 -0.00633422	           1	           0	     25.4847	    0.891941	    0.972513	
 --	 --	 --	 --	 --	        90.4	     0.92719	    0.932227	           0	 -0.00503747	           1	           0	     25.4847	    0.891941	    0.972513	
 --	 --	 --	 --	 --	        90.9	    0.929879	    0.932227	           0	 -0.00234822	           1	           0	     25.4847	    0.891941	    0.972513	
 --	 --	 --	 --	 --	        91.4	    0.929402	    0.932227	           0	 -0.00282472	           1	           0	     25.4847	    0.891941	    0.972513	
 --	 --	 --	 --	 --	        91.9	    0.930127	    0.932227	           0	 -0.00209997	           1	           0	     25.4847	    0.891941	    0.972513	
 --	 --	 --	 --	 --	        92.4	    0.928658	    0.932227	           0	 -0.00356847	           1	           0	     25.4847	    0.891941	    0.972513	
 --	 --	 --	 --	 --	        92.9	    0.931806	    0.932227	           0	-0.000421469	           1	           0	     25.4847	    0.891941	    0.972513	
 --	 --	 --	 --	 --	        93.4	    0.927819	    0.932227	           0	 -0.00440797	           1	           0	     25.4847	    0.891941	    0.972513	
 --	 --	 --	 --	 --	        93.9	    0.935868	    0.932227	           0	  0.00364128	           1	           0	     25.4847	    0.891941	    0.972513	
 --	 --	 --	 --	 --	        94.4	    0.927342	    0.932227	           0	 -0.00488447	           1	           0	     25.4847	    0.891941	    0.972513	
 --	 --	 --	 --	 --	        94.9	    0.931386	    0.932227	           0	-0.000841219	           1	           0	     25.4847	    0.891941	    0.972513	
 --	 --	 --	 --	 --	        95.4	    0.927876	    0.932227	           0	 -0.00435072	           1	           0	     25.4847	    0.891941	    0.972513	
 --	 --	 --	 --	 --	        95.9	      0.9274	    0.932227	           0	 -0.00482747	           1	           0	     25.4847	    0.891941	    0.972513	
 --	 --	 --	 --	 --	        96.4	    0.934381	    0.932227	           0	  0.00215353	           1	           0	     25.4847	    0.891941	    0.972513	
 --	 --	 --	 --	 --	        96.9	    0.929173	    0.932227	           0	 -0.00305372	           1	           0	     25.4847	    0.891941	    0.972513	
 --	 --	 --	 --	 --	        97.4	    0.929536	    0.932227	           0	 -0.00269097	           1	           0	     25.4847	    0.891941	    0.972513	
 --	 --	 --	 --	 --	        97.9	    0.929002	    0.932227	           0	 -0.00322497	           1	           0	     25.4847	    0.891941	    0.972513	
 --	 --	 --	 --	 --	        98.4	    0.932893	    0.932227	           0	 0.000665781	           1	           0	     25.4847	    0.891941	    0.972513	
 --	 --	 --	 --	 --	        98.9	    0.933617	    0.932227	           0	  0.00139053	           1	           0	     25.4847	    0.891941	    0.972513	
 --	 --	 --	 --	 --	        99.4	    0.928792	    0.932227	           0	 -0.00343497	           1	           0	     25.4847	    0.891941	    0.972513	
 --	 --	 --	 --	 --	        99.9	    0.929993	    0.932227	           0	 -0.00223347	           1	           0	     25.4847	    0.891941	    0.972513	
 --	 --	 --	 --	 --	         100	    0.926789	    0.932227	           0	 -0.00543772	           1	           0	     25.4847	    0.891941	    0.972513	
