%!PS-Adobe-3.0 EPSF-3.0
%%BoundingBox: 0 0 514 442
%%Creator: BioKin Ltd.
%%DocumentFonts: Symbol Helvetica
%%EndComments
%
/bkdict 256 dict def
bkdict begin
/M {moveto} def 
/R {rmoveto} def
/L {lineto} def
/rL {rlineto} def
/GSN {gsave newpath} def
/SGR {stroke grestore} def
/COSGR {gsave setrgbcolor stroke grestore grestore} def
/SL {setlinewidth} def
/LWMB {12} def             % line width - model curves, black & white
/LWMC {10} def             % line width - model curves, color
/L2 {2.5 setlinewidth} def
/L5 {5 setlinewidth} def
/L10 {10 setlinewidth} def
/G50 {0.5 setgray} def
/SDA {[10  20] 0 setdash} def % axes
/helvT {/Helvetica findfont 100 scalefont setfont} def % tiny
/helvS {/Helvetica findfont 125 scalefont setfont} def % small
/helvM {/Helvetica findfont 150 scalefont setfont} def % medium
/helvL {/Helvetica findfont 175 scalefont setfont} def % large
/xlabel {gsave M dup
   stringwidth exch -0.5 mul exch rmoveto show grestore} def 
/ylabel {gsave M 90 rotate dup
   stringwidth exch -0.5 mul exch rmoveto show grestore} def
/ylabelresid {gsave M dup
   stringwidth exch -1 mul exch rmoveto show grestore} def
% ======
% Shapes
% ======
% Circle:
/Circ {0 360 arc closepath} def
%
% Square:
/Squa {dup dup -0.5 mul dup dup R -2 mul 0 exch rL 1 mul 0 rL dup 0 exch -1 mul rL closepath} def
%
% Triangle Up:
/TriU {dup dup dup -0.4 mul exch -0.5 mul exch R dup 0.5 mul exch rL dup -1 mul exch 0.5 mul exch rL closepath} def 
%
% Triangle Down:
/TriD {dup dup dup 0.4 mul exch -0.5 mul exch R dup 0.5 mul exch -1 mul rL dup 0.5 mul exch rL closepath} def 
%
% Diamond:
/Diam {45 rotate Squa} def
% ======
% Fills
% ======
/GRF {gsave setgray fill grestore} def                    % gray-level Fill
/COF {gsave setrgbcolor fill grestore} def                % color fill
% ======
% Colors
% ======
/C01 {1.00	0.00	0.00} def      % Red
/C02 {0.00	0.00	1.00} def      % Blue
/C03 {0.00	0.39	0.00} def      % Dark Green
/C04 {0.78	0.08	0.52} def      % Medium Violet Red
/C05 {0.55	0.27	0.07} def      % Saddle Brown
/C06 {0.10	0.70	0.70} def      % (cyan)
/C07 {1.00	0.55	0.00} def      % Dark Orange
/C08 {0.63	0.13	0.94} def      % Purple
/C09 {0.00	0.75	1.00} def      % Deep Sky Blue
/C10 {0.20	0.80	0.20} def      % Lime Green
/C11 {0.47	0.53	0.60} def      % Light Slate Gray
/C12 {0.00	0.00	0.00} def      % Black            % or: {0.19	0.31	0.31} def      % Dark Slate Gray
%
/LGR {0.75} def % light gray
/DGR {0.33} def % dark gray
%
% =============
% Dash patterns
% =============
/dash01 { [80  20] 0 setdash } def
/dash02 { [40  20] 0 setdash } def
/dash03 { [80  20  10  20] 0 setdash } def
/dash04 { [40  20  10  20] 0 setdash } def
/dash05 { [80  20  10  10  10  20] 0 setdash } def
/dash06 { [40  20  10  10  10  20] 0 setdash } def
/dash07 { [10  10] 0 setdash } def
%
/MFshow {
   { dup 5 get 3 ge
     { 5 get 3 eq {gsave} {grestore} ifelse }
     {dup dup 0 get findfont exch 1 get scalefont setfont
     [ currentpoint ] exch dup 2 get 0 exch R dup 5 get 2 ne {dup dup 6
     get exch 4 get {show} {stringwidth pop 0 R} ifelse }if dup 5 get 0 eq
     {dup 3 get {2 get neg 0 exch R pop} {pop aload pop M} ifelse} {dup 5
     get 1 eq {dup 2 get exch dup 3 get exch 6 get stringwidth pop -2 div
     dup 0 R} {dup 6 get stringwidth pop -2 div 0 R 6 get
     show 2 index {aload pop M neg 3 -1 roll neg R pop pop} {pop pop pop
     pop aload pop M} ifelse }ifelse }ifelse }
     ifelse }
   forall} bind def
/MFwidth {0 exch {dup 3 get{dup dup 0 get findfont exch 1 get scalefont
     setfont 6 get stringwidth pop add} {pop} ifelse} forall} bind def
/MCshow { currentpoint stroke M
  exch dup MFwidth -2 div 3 -1 roll R MFshow } def
%
end
%%EndProlog
bkdict begin
0.1 0.1 scale
%
% Model curves:
%

GSN 753 3618 M
770 3618 L
803 3617 L
837 3617 L
870 3617 L
895 3617 L
911 3617 L
937 3617 L
970 3617 L
1003 3617 L
1037 3617 L
1053 3617 L
1070 3617 L
1103 3617 L
1137 3617 L
1170 3617 L
1195 3617 L
1211 3617 L
1237 3617 L
1270 3617 L
1303 3617 L
1337 3617 L
1353 3617 L
1370 3617 L
1403 3617 L
1437 3617 L
1470 3617 L
1495 3617 L
1512 3617 L
1537 3617 L
1570 3617 L
1603 3617 L
1637 3617 L
1653 3617 L
1670 3617 L
1703 3617 L
1737 3617 L
1770 3617 L
1795 3617 L
1812 3617 L
1837 3617 L
1870 3617 L
1903 3617 L
1937 3617 L
1953 3617 L
1971 3617 L
2003 3617 L
2037 3617 L
2070 3617 L
2095 3617 L
2112 3617 L
2137 3617 L
2170 3617 L
2203 3617 L
2237 3617 L
2253 3617 L
2271 3617 L
2303 3617 L
2337 3617 L
2370 3617 L
2395 3617 L
2412 3617 L
2437 3617 L
2470 3617 L
2503 3617 L
2537 3617 L
2553 3617 L
2571 3617 L
2603 3617 L
2637 3617 L
2670 3617 L
2695 3617 L
2712 3617 L
2737 3617 L
2770 3617 L
2803 3617 L
2837 3617 L
2854 3617 L
2871 3617 L
2903 3617 L
2937 3617 L
2970 3617 L
2995 3617 L
3012 3617 L
3037 3617 L
3061 3617 L
3077 3617 L
3103 3617 L
3137 3617 L
3154 3617 L
3171 3617 L
3203 3617 L
3237 3618 L
3270 3618 L
3296 3618 L
3312 3618 L
3337 3618 L
3370 3618 L
3403 3618 L
3437 3618 L
3454 3618 L
3471 3618 L
3503 3619 L
3537 3619 L
3570 3619 L
3596 3620 L
3612 3620 L
3637 3620 L
3670 3621 L
3703 3621 L
3737 3622 L
3754 3623 L
3771 3623 L
3803 3624 L
3837 3625 L
3870 3626 L
3896 3627 L
3912 3628 L
3937 3629 L
3970 3631 L
4003 3633 L
4037 3636 L
4070 3639 L
LWMC SL dash01 C01 COSGR

GSN 753 2966 M
770 2966 L
803 2964 L
837 2964 L
870 2964 L
895 2964 L
911 2964 L
937 2964 L
970 2964 L
1003 2964 L
1037 2964 L
1053 2964 L
1070 2964 L
1103 2964 L
1137 2964 L
1170 2964 L
1195 2964 L
1211 2964 L
1237 2964 L
1270 2964 L
1303 2964 L
1337 2964 L
1353 2964 L
1370 2964 L
1403 2964 L
1437 2964 L
1470 2964 L
1495 2964 L
1512 2964 L
1537 2964 L
1570 2964 L
1603 2964 L
1637 2964 L
1653 2964 L
1670 2964 L
1703 2964 L
1737 2964 L
1770 2964 L
1795 2964 L
1812 2964 L
1837 2964 L
1870 2964 L
1903 2964 L
1937 2964 L
1953 2964 L
1971 2964 L
2003 2964 L
2037 2964 L
2070 2964 L
2095 2964 L
2112 2964 L
2137 2964 L
2170 2964 L
2203 2964 L
2237 2964 L
2253 2964 L
2271 2964 L
2303 2964 L
2337 2964 L
2370 2964 L
2395 2964 L
2412 2964 L
2437 2964 L
2470 2964 L
2503 2964 L
2537 2964 L
2553 2964 L
2571 2964 L
2603 2964 L
2637 2964 L
2670 2964 L
2695 2964 L
2712 2964 L
2737 2964 L
2770 2964 L
2803 2964 L
2837 2964 L
2854 2965 L
2871 2965 L
2903 2965 L
2937 2965 L
2970 2965 L
2995 2965 L
3012 2965 L
3037 2965 L
3061 2965 L
3077 2965 L
3103 2965 L
3137 2965 L
3154 2965 L
3171 2965 L
3203 2966 L
3237 2966 L
3270 2966 L
3296 2967 L
3312 2967 L
3337 2967 L
3370 2967 L
3403 2968 L
3437 2969 L
3454 2969 L
3471 2969 L
3503 2970 L
3537 2971 L
3570 2972 L
3596 2973 L
3612 2974 L
3637 2975 L
3670 2977 L
3703 2979 L
3737 2981 L
3754 2984 L
3771 2984 L
3803 2987 L
3837 2991 L
3870 2996 L
3896 3001 L
3912 3004 L
3937 3006 L
3970 3013 L
4003 3021 L
4037 3030 L
4070 3041 L
LWMC SL dash02 C02 COSGR

GSN 753 2419 M
770 2419 L
803 2417 L
837 2417 L
870 2417 L
895 2417 L
911 2417 L
937 2417 L
970 2417 L
1003 2417 L
1037 2417 L
1053 2417 L
1070 2417 L
1103 2417 L
1137 2417 L
1170 2417 L
1195 2417 L
1211 2417 L
1237 2417 L
1270 2417 L
1303 2417 L
1337 2417 L
1353 2417 L
1370 2417 L
1403 2417 L
1437 2417 L
1470 2417 L
1495 2417 L
1512 2417 L
1537 2417 L
1570 2417 L
1603 2417 L
1637 2417 L
1653 2417 L
1670 2417 L
1703 2417 L
1737 2417 L
1770 2417 L
1795 2417 L
1812 2417 L
1837 2417 L
1870 2417 L
1903 2417 L
1937 2417 L
1953 2417 L
1971 2417 L
2003 2417 L
2037 2417 L
2070 2417 L
2095 2417 L
2112 2417 L
2137 2417 L
2170 2417 L
2203 2417 L
2237 2417 L
2253 2417 L
2271 2417 L
2303 2417 L
2337 2417 L
2370 2417 L
2395 2417 L
2412 2417 L
2437 2417 L
2470 2417 L
2503 2417 L
2537 2417 L
2553 2417 L
2571 2417 L
2603 2417 L
2637 2417 L
2670 2417 L
2695 2417 L
2712 2417 L
2737 2417 L
2770 2417 L
2803 2418 L
2837 2418 L
2854 2418 L
2871 2418 L
2903 2418 L
2937 2418 L
2970 2418 L
2995 2418 L
3012 2418 L
3037 2418 L
3061 2419 L
3077 2419 L
3103 2419 L
3137 2419 L
3154 2419 L
3171 2419 L
3203 2420 L
3237 2420 L
3270 2421 L
3296 2421 L
3312 2422 L
3337 2422 L
3370 2423 L
3403 2424 L
3437 2425 L
3454 2426 L
3471 2426 L
3503 2428 L
3537 2430 L
3570 2432 L
3596 2434 L
3612 2436 L
3637 2437 L
3670 2440 L
3703 2444 L
3737 2449 L
3754 2454 L
3771 2454 L
3803 2460 L
3837 2467 L
3870 2475 L
3896 2484 L
3912 2490 L
3937 2495 L
3970 2507 L
4003 2521 L
4037 2538 L
4070 2557 L
LWMC SL dash03 C03 COSGR

GSN 753 2041 M
770 2041 L
803 2038 L
837 2038 L
870 2038 L
895 2038 L
911 2038 L
937 2038 L
970 2038 L
1003 2038 L
1037 2038 L
1053 2038 L
1070 2038 L
1103 2038 L
1137 2039 L
1170 2038 L
1195 2038 L
1211 2038 L
1237 2038 L
1270 2038 L
1303 2038 L
1337 2038 L
1353 2038 L
1370 2038 L
1403 2038 L
1437 2038 L
1470 2038 L
1495 2038 L
1512 2038 L
1537 2038 L
1570 2038 L
1603 2038 L
1637 2038 L
1653 2038 L
1670 2038 L
1703 2038 L
1737 2038 L
1770 2038 L
1795 2038 L
1812 2038 L
1837 2038 L
1870 2038 L
1903 2038 L
1937 2038 L
1953 2038 L
1971 2038 L
2003 2038 L
2037 2038 L
2070 2038 L
2095 2038 L
2112 2038 L
2137 2038 L
2170 2038 L
2203 2038 L
2237 2038 L
2253 2038 L
2271 2038 L
2303 2038 L
2337 2038 L
2370 2038 L
2395 2038 L
2412 2038 L
2437 2038 L
2470 2038 L
2503 2038 L
2537 2038 L
2553 2038 L
2571 2038 L
2603 2038 L
2637 2038 L
2670 2038 L
2695 2039 L
2712 2039 L
2737 2039 L
2770 2039 L
2803 2039 L
2837 2039 L
2854 2039 L
2871 2039 L
2903 2039 L
2937 2039 L
2970 2039 L
2995 2040 L
3012 2040 L
3037 2040 L
3061 2040 L
3077 2040 L
3103 2041 L
3137 2041 L
3154 2041 L
3171 2041 L
3203 2042 L
3237 2043 L
3270 2043 L
3296 2044 L
3312 2045 L
3337 2045 L
3370 2046 L
3403 2048 L
3437 2049 L
3454 2051 L
3471 2051 L
3503 2053 L
3537 2056 L
3570 2059 L
3596 2062 L
3612 2064 L
3637 2066 L
3670 2071 L
3703 2076 L
3737 2082 L
3754 2090 L
3771 2090 L
3803 2098 L
3837 2108 L
3870 2119 L
3896 2132 L
3912 2140 L
3937 2147 L
3970 2164 L
4003 2184 L
4037 2207 L
4070 2233 L
LWMC SL dash04 C04 COSGR

GSN 753 2157 M
770 2157 L
803 2154 L
837 2154 L
870 2154 L
895 2154 L
911 2154 L
937 2154 L
970 2154 L
1003 2154 L
1037 2155 L
1053 2154 L
1070 2154 L
1103 2154 L
1137 2154 L
1170 2154 L
1195 2154 L
1211 2154 L
1237 2154 L
1270 2154 L
1303 2154 L
1337 2154 L
1353 2154 L
1370 2154 L
1403 2154 L
1437 2154 L
1470 2154 L
1495 2154 L
1512 2154 L
1537 2154 L
1570 2154 L
1603 2154 L
1637 2154 L
1653 2154 L
1670 2154 L
1703 2154 L
1737 2154 L
1770 2154 L
1795 2154 L
1812 2154 L
1837 2154 L
1870 2154 L
1903 2154 L
1937 2154 L
1953 2154 L
1971 2154 L
2003 2154 L
2037 2154 L
2070 2154 L
2095 2154 L
2112 2154 L
2137 2154 L
2170 2154 L
2203 2154 L
2237 2154 L
2253 2154 L
2271 2154 L
2303 2154 L
2337 2154 L
2370 2154 L
2395 2154 L
2412 2154 L
2437 2154 L
2470 2154 L
2503 2154 L
2537 2154 L
2553 2154 L
2571 2154 L
2603 2154 L
2637 2154 L
2670 2155 L
2695 2155 L
2712 2155 L
2737 2155 L
2770 2155 L
2803 2155 L
2837 2155 L
2854 2155 L
2871 2155 L
2903 2155 L
2937 2155 L
2970 2155 L
2995 2156 L
3012 2156 L
3037 2156 L
3061 2156 L
3077 2156 L
3103 2157 L
3137 2157 L
3154 2157 L
3171 2157 L
3203 2158 L
3237 2158 L
3270 2159 L
3296 2160 L
3312 2161 L
3337 2161 L
3370 2162 L
3403 2163 L
3437 2165 L
3454 2167 L
3471 2167 L
3503 2169 L
3537 2171 L
3570 2174 L
3596 2177 L
3612 2179 L
3637 2181 L
3670 2186 L
3703 2191 L
3737 2197 L
3754 2204 L
3771 2204 L
3803 2212 L
3837 2221 L
3870 2232 L
3896 2244 L
3912 2252 L
3937 2259 L
3970 2275 L
4003 2295 L
4037 2317 L
4070 2342 L
LWMC SL dash05 C05 COSGR

GSN 753 1790 M
770 1790 L
803 1787 L
837 1787 L
870 1787 L
895 1787 L
911 1787 L
937 1787 L
970 1787 L
1003 1787 L
1037 1787 L
1053 1787 L
1070 1787 L
1103 1787 L
1137 1787 L
1170 1787 L
1195 1787 L
1211 1787 L
1237 1787 L
1270 1787 L
1303 1787 L
1337 1787 L
1353 1787 L
1370 1787 L
1403 1787 L
1437 1787 L
1470 1787 L
1495 1787 L
1512 1787 L
1537 1787 L
1570 1787 L
1603 1787 L
1637 1787 L
1653 1787 L
1670 1787 L
1703 1787 L
1737 1787 L
1770 1787 L
1795 1787 L
1812 1787 L
1837 1787 L
1870 1787 L
1903 1787 L
1937 1787 L
1953 1787 L
1971 1787 L
2003 1787 L
2037 1787 L
2070 1787 L
2095 1787 L
2112 1787 L
2137 1787 L
2170 1787 L
2203 1787 L
2237 1787 L
2253 1787 L
2271 1787 L
2303 1787 L
2337 1787 L
2370 1787 L
2395 1787 L
2412 1787 L
2437 1787 L
2470 1787 L
2503 1787 L
2537 1787 L
2553 1787 L
2571 1787 L
2603 1788 L
2637 1788 L
2670 1788 L
2695 1788 L
2712 1788 L
2737 1788 L
2770 1788 L
2803 1788 L
2837 1788 L
2854 1788 L
2871 1788 L
2903 1788 L
2937 1789 L
2970 1789 L
2995 1789 L
3012 1789 L
3037 1790 L
3061 1790 L
3077 1790 L
3103 1790 L
3137 1791 L
3154 1791 L
3171 1792 L
3203 1792 L
3237 1793 L
3270 1794 L
3296 1795 L
3312 1796 L
3337 1796 L
3370 1798 L
3403 1800 L
3437 1802 L
3454 1804 L
3471 1804 L
3503 1807 L
3537 1810 L
3570 1814 L
3596 1819 L
3612 1821 L
3637 1824 L
3670 1830 L
3703 1837 L
3737 1845 L
3754 1854 L
3771 1855 L
3803 1865 L
3837 1878 L
3870 1892 L
3896 1909 L
3912 1920 L
3937 1928 L
3970 1951 L
4003 1976 L
4037 2006 L
4070 2039 L
LWMC SL dash06 C06 COSGR

GSN 753 758 M
770 758 L
803 753 L
837 753 L
870 753 L
895 753 L
911 753 L
937 753 L
970 753 L
1003 753 L
1037 753 L
1053 753 L
1070 753 L
1103 753 L
1137 753 L
1170 753 L
1195 753 L
1211 753 L
1237 753 L
1270 753 L
1303 753 L
1337 753 L
1353 753 L
1370 753 L
1403 753 L
1437 753 L
1470 753 L
1495 753 L
1512 753 L
1537 753 L
1570 753 L
1603 753 L
1637 753 L
1653 753 L
1670 753 L
1703 753 L
1737 753 L
1770 753 L
1795 753 L
1812 753 L
1837 753 L
1870 753 L
1903 753 L
1937 753 L
1953 753 L
1971 753 L
2003 753 L
2037 753 L
2070 753 L
2095 753 L
2112 753 L
2137 753 L
2170 753 L
2203 753 L
2237 753 L
2253 753 L
2271 753 L
2303 753 L
2337 753 L
2370 753 L
2395 753 L
2412 753 L
2437 753 L
2470 753 L
2503 753 L
2537 753 L
2553 753 L
2571 753 L
2603 754 L
2637 754 L
2670 754 L
2695 754 L
2712 754 L
2737 754 L
2770 754 L
2803 754 L
2837 755 L
2854 755 L
2871 755 L
2903 755 L
2937 756 L
2970 756 L
2995 757 L
3012 757 L
3037 757 L
3061 758 L
3077 759 L
3103 759 L
3137 760 L
3154 761 L
3171 761 L
3203 763 L
3237 764 L
3270 766 L
3296 768 L
3312 770 L
3337 771 L
3370 774 L
3403 777 L
3437 781 L
3454 786 L
3471 786 L
3503 791 L
3537 797 L
3570 805 L
3596 813 L
3612 819 L
3637 823 L
3670 835 L
3703 848 L
3737 863 L
3754 881 L
3771 883 L
3803 902 L
3837 926 L
3870 954 L
3896 986 L
3912 1006 L
3937 1022 L
3970 1064 L
4003 1112 L
4037 1167 L
4070 1230 L
LWMC SL dash07 C07 COSGR

%
%================
% Legend - Begin
%================
%
GSN 4240 4040 M
4480 4040 L
LWMC SL dash01 C01 COSGR
GSN 4540 4001 M helvM (0.5 uM) show grestore
GSN 4240 3860 M
4480 3860 L
LWMC SL dash02 C02 COSGR
GSN 4540 3821 M helvM (1.0 uM) show grestore
GSN 4240 3680 M
4480 3680 L
LWMC SL dash03 C03 COSGR
GSN 4540 3641 M helvM (1.5 uM) show grestore
GSN 4240 3500 M
4480 3500 L
LWMC SL dash04 C04 COSGR
GSN 4540 3461 M helvM (2.0 uM) show grestore
GSN 4240 3320 M
4480 3320 L
LWMC SL dash05 C05 COSGR
GSN 4540 3281 M helvM (2.5 uM) show grestore
GSN 4240 3140 M
4480 3140 L
LWMC SL dash06 C06 COSGR
GSN 4540 3101 M helvM (3.0 uM) show grestore
GSN 4240 2960 M
4480 2960 L
LWMC SL dash07 C07 COSGR
GSN 4540 2921 M helvM (4.0 uM) show grestore
%
%================
% Legend - End
%================
%

%
% Main frame
%
L10
GSN 
620 620 M
4220 620 L
4220 4220 L
620 4220 L
closepath SGR

%
% X axis: large tics
%
L10
GSN 1074 620 M 0  54 rL SGR
GSN 1074 4220 M 0 -54 rL SGR
helvS (0.0001) 1074 470 xlabel
GSN 1572 620 M 0  54 rL SGR
GSN 1572 4220 M 0 -54 rL SGR
helvS (0.001) 1572 470 xlabel
GSN 2071 620 M 0  54 rL SGR
GSN 2071 4220 M 0 -54 rL SGR
helvS (0.01) 2071 470 xlabel
GSN 2570 620 M 0  54 rL SGR
GSN 2570 4220 M 0 -54 rL SGR
helvS (0.1) 2570 470 xlabel
GSN 3068 620 M 0  54 rL SGR
GSN 3068 4220 M 0 -54 rL SGR
helvS (1) 3068 470 xlabel
GSN 3567 620 M 0  54 rL SGR
GSN 3567 4220 M 0 -54 rL SGR
helvS (10) 3567 470 xlabel
GSN 4066 620 M 0  54 rL SGR
GSN 4066 4220 M 0 -54 rL SGR
helvS (100) 4066 470 xlabel
%
% X axis: small tics
%
L5
GSN 725 620 M 0  36 rL SGR
GSN 725 4220 M 0 -36 rL SGR
GSN 813 620 M 0  36 rL SGR
GSN 813 4220 M 0 -36 rL SGR
GSN 875 620 M 0  36 rL SGR
GSN 875 4220 M 0 -36 rL SGR
GSN 924 620 M 0  36 rL SGR
GSN 924 4220 M 0 -36 rL SGR
GSN 963 620 M 0  36 rL SGR
GSN 963 4220 M 0 -36 rL SGR
GSN 996 620 M 0  36 rL SGR
GSN 996 4220 M 0 -36 rL SGR
GSN 1025 620 M 0  36 rL SGR
GSN 1025 4220 M 0 -36 rL SGR
GSN 1051 620 M 0  36 rL SGR
GSN 1051 4220 M 0 -36 rL SGR
GSN 1224 620 M 0  36 rL SGR
GSN 1224 4220 M 0 -36 rL SGR
GSN 1312 620 M 0  36 rL SGR
GSN 1312 4220 M 0 -36 rL SGR
GSN 1374 620 M 0  36 rL SGR
GSN 1374 4220 M 0 -36 rL SGR
GSN 1422 620 M 0  36 rL SGR
GSN 1422 4220 M 0 -36 rL SGR
GSN 1462 620 M 0  36 rL SGR
GSN 1462 4220 M 0 -36 rL SGR
GSN 1495 620 M 0  36 rL SGR
GSN 1495 4220 M 0 -36 rL SGR
GSN 1524 620 M 0  36 rL SGR
GSN 1524 4220 M 0 -36 rL SGR
GSN 1550 620 M 0  36 rL SGR
GSN 1550 4220 M 0 -36 rL SGR
GSN 1722 620 M 0  36 rL SGR
GSN 1722 4220 M 0 -36 rL SGR
GSN 1810 620 M 0  36 rL SGR
GSN 1810 4220 M 0 -36 rL SGR
GSN 1873 620 M 0  36 rL SGR
GSN 1873 4220 M 0 -36 rL SGR
GSN 1921 620 M 0  36 rL SGR
GSN 1921 4220 M 0 -36 rL SGR
GSN 1960 620 M 0  36 rL SGR
GSN 1960 4220 M 0 -36 rL SGR
GSN 1994 620 M 0  36 rL SGR
GSN 1994 4220 M 0 -36 rL SGR
GSN 2023 620 M 0  36 rL SGR
GSN 2023 4220 M 0 -36 rL SGR
GSN 2048 620 M 0  36 rL SGR
GSN 2048 4220 M 0 -36 rL SGR
GSN 2221 620 M 0  36 rL SGR
GSN 2221 4220 M 0 -36 rL SGR
GSN 2309 620 M 0  36 rL SGR
GSN 2309 4220 M 0 -36 rL SGR
GSN 2371 620 M 0  36 rL SGR
GSN 2371 4220 M 0 -36 rL SGR
GSN 2420 620 M 0  36 rL SGR
GSN 2420 4220 M 0 -36 rL SGR
GSN 2459 620 M 0  36 rL SGR
GSN 2459 4220 M 0 -36 rL SGR
GSN 2492 620 M 0  36 rL SGR
GSN 2492 4220 M 0 -36 rL SGR
GSN 2521 620 M 0  36 rL SGR
GSN 2521 4220 M 0 -36 rL SGR
GSN 2547 620 M 0  36 rL SGR
GSN 2547 4220 M 0 -36 rL SGR
GSN 2720 620 M 0  36 rL SGR
GSN 2720 4220 M 0 -36 rL SGR
GSN 2808 620 M 0  36 rL SGR
GSN 2808 4220 M 0 -36 rL SGR
GSN 2870 620 M 0  36 rL SGR
GSN 2870 4220 M 0 -36 rL SGR
GSN 2918 620 M 0  36 rL SGR
GSN 2918 4220 M 0 -36 rL SGR
GSN 2958 620 M 0  36 rL SGR
GSN 2958 4220 M 0 -36 rL SGR
GSN 2991 620 M 0  36 rL SGR
GSN 2991 4220 M 0 -36 rL SGR
GSN 3020 620 M 0  36 rL SGR
GSN 3020 4220 M 0 -36 rL SGR
GSN 3045 620 M 0  36 rL SGR
GSN 3045 4220 M 0 -36 rL SGR
GSN 3218 620 M 0  36 rL SGR
GSN 3218 4220 M 0 -36 rL SGR
GSN 3306 620 M 0  36 rL SGR
GSN 3306 4220 M 0 -36 rL SGR
GSN 3368 620 M 0  36 rL SGR
GSN 3368 4220 M 0 -36 rL SGR
GSN 3417 620 M 0  36 rL SGR
GSN 3417 4220 M 0 -36 rL SGR
GSN 3456 620 M 0  36 rL SGR
GSN 3456 4220 M 0 -36 rL SGR
GSN 3490 620 M 0  36 rL SGR
GSN 3490 4220 M 0 -36 rL SGR
GSN 3519 620 M 0  36 rL SGR
GSN 3519 4220 M 0 -36 rL SGR
GSN 3544 620 M 0  36 rL SGR
GSN 3544 4220 M 0 -36 rL SGR
GSN 3717 620 M 0  36 rL SGR
GSN 3717 4220 M 0 -36 rL SGR
GSN 3805 620 M 0  36 rL SGR
GSN 3805 4220 M 0 -36 rL SGR
GSN 3867 620 M 0  36 rL SGR
GSN 3867 4220 M 0 -36 rL SGR
GSN 3915 620 M 0  36 rL SGR
GSN 3915 4220 M 0 -36 rL SGR
GSN 3955 620 M 0  36 rL SGR
GSN 3955 4220 M 0 -36 rL SGR
GSN 3988 620 M 0  36 rL SGR
GSN 3988 4220 M 0 -36 rL SGR
GSN 4017 620 M 0  36 rL SGR
GSN 4017 4220 M 0 -36 rL SGR
GSN 4043 620 M 0  36 rL SGR
GSN 4043 4220 M 0 -36 rL SGR
GSN 4216 620 M 0  36 rL SGR
GSN 4216 4220 M 0 -36 rL SGR
%
% Y axis: large tics
%
L10
GSN 620 1392 M 54 0 rL SGR
GSN 4220 1392 M -54 0 rL SGR
helvS (-6e-005) 560 1392 ylabel
GSN 620 2290 M 54 0 rL SGR
GSN 4220 2290 M -54 0 rL SGR
helvS (-4e-005) 560 2290 ylabel
GSN 620 3188 M 54 0 rL SGR
GSN 4220 3188 M -54 0 rL SGR
helvS (-2e-005) 560 3188 ylabel
GSN 620 4086 M 54 0 rL SGR
GSN 4220 4086 M -54 0 rL SGR
helvS (-6.77626e-021) 560 4086 ylabel
%
% Y axis: small tics
%
L5
GSN 620 718 M 36 0 rL SGR
GSN 4220 718 M -36 0 rL SGR
GSN 620 943 M 36 0 rL SGR
GSN 4220 943 M -36 0 rL SGR
GSN 620 1167 M 36 0 rL SGR
GSN 4220 1167 M -36 0 rL SGR
GSN 620 1392 M 36 0 rL SGR
GSN 4220 1392 M -36 0 rL SGR
GSN 620 1616 M 36 0 rL SGR
GSN 4220 1616 M -36 0 rL SGR
GSN 620 1841 M 36 0 rL SGR
GSN 4220 1841 M -36 0 rL SGR
GSN 620 2065 M 36 0 rL SGR
GSN 4220 2065 M -36 0 rL SGR
GSN 620 2290 M 36 0 rL SGR
GSN 4220 2290 M -36 0 rL SGR
GSN 620 2514 M 36 0 rL SGR
GSN 4220 2514 M -36 0 rL SGR
GSN 620 2739 M 36 0 rL SGR
GSN 4220 2739 M -36 0 rL SGR
GSN 620 2963 M 36 0 rL SGR
GSN 4220 2963 M -36 0 rL SGR
GSN 620 3188 M 36 0 rL SGR
GSN 4220 3188 M -36 0 rL SGR
GSN 620 3413 M 36 0 rL SGR
GSN 4220 3413 M -36 0 rL SGR
GSN 620 3637 M 36 0 rL SGR
GSN 4220 3637 M -36 0 rL SGR
GSN 620 3862 M 36 0 rL SGR
GSN 4220 3862 M -36 0 rL SGR
GSN 620 4086 M 36 0 rL SGR
GSN 4220 4086 M -36 0 rL SGR

%
% X axis
%
GSN L5 620 4086 M 4220 4086 L SDA G50 SGR

%
% X-Axis label:
%
gsave 2420 290 M 
[
[(Helvetica) 180 0 true true 0 (t)]
[(Helvetica) 180 0 true true 0 (i)]
[(Helvetica) 180 0 true true 0 (m)]
[(Helvetica) 180 0 true true 0 (e)]
] 0 MCshow grestore

%
% Y-Axis label:
%
gsave 234 2420 M 
currentpoint gsave translate 90 rotate 0 0 moveto
[
[(Helvetica) 180 0 true true 0 (d)]
[(Helvetica) 180 0 true true 0 (\()]
[(Helvetica) 180 0 true true 0 (s)]
[(Helvetica) 180 0 true true 0 (i)]
[(Helvetica) 180 0 true true 0 (g)]
[(Helvetica) 180 0 true true 0 (n)]
[(Helvetica) 180 0 true true 0 (a)]
[(Helvetica) 180 0 true true 0 (l)]
[(Helvetica) 180 0 true true 0 (\))]
[(Helvetica) 180 0 true true 0 ( )]
[(Helvetica) 180 0 true true 0 (/)]
[(Helvetica) 180 0 true true 0 ( )]
[(Helvetica) 180 0 true true 0 (d)]
[(Helvetica) 180 0 true true 0 (t)]
] 0 MCshow grestore

end
showpage
%%Trailer
%%EOF
