%!PS-Adobe-3.0 EPSF-3.0
%%BoundingBox: 0 0 514 550
%%Creator: BioKin Ltd.
%%DocumentFonts: Symbol Helvetica
%%EndComments
%
/bkdict 256 dict def
bkdict begin
/M {moveto} def 
/R {rmoveto} def
/L {lineto} def
/rL {rlineto} def
/GSN {gsave newpath} def
/SGR {stroke grestore} def
/COSGR {gsave setrgbcolor stroke grestore grestore} def
/SL {setlinewidth} def
/LWMB {12} def             % line width - model curves, black & white
/LWMC {10} def             % line width - model curves, color
/L2 {2.5 setlinewidth} def
/L5 {5 setlinewidth} def
/L10 {10 setlinewidth} def
/G50 {0.5 setgray} def
/SDA {[10  20] 0 setdash} def % axes
/helvT {/Helvetica findfont 100 scalefont setfont} def % tiny
/helvS {/Helvetica findfont 125 scalefont setfont} def % small
/helvM {/Helvetica findfont 150 scalefont setfont} def % medium
/helvL {/Helvetica findfont 175 scalefont setfont} def % large
/xlabel {gsave M dup
   stringwidth exch -0.5 mul exch rmoveto show grestore} def 
/ylabel {gsave M 90 rotate dup
   stringwidth exch -0.5 mul exch rmoveto show grestore} def
/ylabelresid {gsave M dup
   stringwidth exch -1 mul exch rmoveto show grestore} def
% ======
% Shapes
% ======
% Circle:
/Circ {0 360 arc closepath} def
%
% Square:
/Squa {dup dup -0.5 mul dup dup R -2 mul 0 exch rL 1 mul 0 rL dup 0 exch -1 mul rL closepath} def
%
% Triangle Up:
/TriU {dup dup dup -0.4 mul exch -0.5 mul exch R dup 0.5 mul exch rL dup -1 mul exch 0.5 mul exch rL closepath} def 
%
% Triangle Down:
/TriD {dup dup dup 0.4 mul exch -0.5 mul exch R dup 0.5 mul exch -1 mul rL dup 0.5 mul exch rL closepath} def 
%
% Diamond:
/Diam {45 rotate Squa} def
% ======
% Fills
% ======
/GRF {gsave setgray fill grestore} def                    % gray-level Fill
/COF {gsave setrgbcolor fill grestore} def                % color fill
% ======
% Colors
% ======
/C01 {1.00	0.00	0.00} def      % Red
/C02 {0.00	0.00	1.00} def      % Blue
/C03 {0.00	0.39	0.00} def      % Dark Green
/C04 {0.78	0.08	0.52} def      % Medium Violet Red
/C05 {0.55	0.27	0.07} def      % Saddle Brown
/C06 {0.10	0.70	0.70} def      % (cyan)
/C07 {1.00	0.55	0.00} def      % Dark Orange
/C08 {0.63	0.13	0.94} def      % Purple
/C09 {0.00	0.75	1.00} def      % Deep Sky Blue
/C10 {0.20	0.80	0.20} def      % Lime Green
/C11 {0.47	0.53	0.60} def      % Light Slate Gray
/C12 {0.00	0.00	0.00} def      % Black            % or: {0.19	0.31	0.31} def      % Dark Slate Gray
%
/LGR {0.75} def % light gray
/DGR {0.33} def % dark gray
%
% =============
% Dash patterns
% =============
/dash01 { [80  20] 0 setdash } def
/dash02 { [40  20] 0 setdash } def
/dash03 { [80  20  10  20] 0 setdash } def
/dash04 { [40  20  10  20] 0 setdash } def
/dash05 { [80  20  10  10  10  20] 0 setdash } def
/dash06 { [40  20  10  10  10  20] 0 setdash } def
/dash07 { [10  10] 0 setdash } def
%
/MFshow {
   { dup 5 get 3 ge
     { 5 get 3 eq {gsave} {grestore} ifelse }
     {dup dup 0 get findfont exch 1 get scalefont setfont
     [ currentpoint ] exch dup 2 get 0 exch R dup 5 get 2 ne {dup dup 6
     get exch 4 get {show} {stringwidth pop 0 R} ifelse }if dup 5 get 0 eq
     {dup 3 get {2 get neg 0 exch R pop} {pop aload pop M} ifelse} {dup 5
     get 1 eq {dup 2 get exch dup 3 get exch 6 get stringwidth pop -2 div
     dup 0 R} {dup 6 get stringwidth pop -2 div 0 R 6 get
     show 2 index {aload pop M neg 3 -1 roll neg R pop pop} {pop pop pop
     pop aload pop M} ifelse }ifelse }ifelse }
     ifelse }
   forall} bind def
/MFwidth {0 exch {dup 3 get{dup dup 0 get findfont exch 1 get scalefont
     setfont 6 get stringwidth pop add} {pop} ifelse} forall} bind def
/MCshow { currentpoint stroke M
  exch dup MFwidth -2 div 3 -1 roll R MFshow } def
%
end
%%EndProlog
bkdict begin
0.1 0.1 scale
%
% Residuals:
%
GSN 620 3121 M
620 2530 L
620 3554 L
620 3075 L
620 3794 L
620 3302 L
620 3486 L
620 3490 L
620 3186 L
620 2940 L
620 3359 L
620 3207 L
620 3748 L
620 3195 L
620 3413 L
620 3385 L
620 3454 L
620 3322 L
620 3209 L
620 3283 L
620 2975 L
620 3116 L
620 3575 L
620 3282 L
620 3126 L
620 3775 L
620 3487 L
620 3588 L
620 3483 L
620 3728 L
620 3580 L
620 3143 L
620 3757 L
620 3195 L
620 3968 L
620 3999 L
620 3278 L
620 4063 L
620 2999 L
620 4179 L
620 3761 L
620 4072 L
620 3524 L
620 4080 L
620 4028 L
620 3680 L
620 3657 L
620 3786 L
620 4128 L
620 3934 L
620 3870 L
620 4194 L
620 3856 L
620 3845 L
620 3909 L
620 3987 L
620 3776 L
620 4227 L
620 4086 L
620 3742 L
620 3723 L
620 4452 L
620 3600 L
620 4335 L
620 3673 L
620 4201 L
620 3433 L
620 3908 L
620 3404 L
620 3945 L
620 4017 L
620 3714 L
620 3680 L
620 4162 L
620 3412 L
620 3384 L
620 4205 L
620 3484 L
620 3507 L
620 3814 L
620 4305 L
620 3427 L
620 3434 L
620 3824 L
620 3831 L
620 3761 L
620 3991 L
620 3868 L
620 3447 L
620 3336 L
620 3186 L
620 3462 L
620 3575 L
620 3679 L
620 2942 L
620 3176 L
620 3741 L
620 3530 L
620 2909 L
620 3882 L
620 3712 L
620 3484 L
620 3525 L
620 3362 L
620 3472 L
620 3090 L
620 2663 L
620 3062 L
620 2895 L
620 3405 L
620 3390 L
620 3460 L
620 3295 L
620 2922 L
620 2909 L
620 3430 L
620 2664 L
620 3203 L
620 2401 L
620 3336 L
620 2672 L
620 2735 L
620 2913 L
620 3464 L
620 2994 L
620 3605 L
620 3505 L
620 2491 L
620 3071 L
620 2536 L
620 3149 L
620 2954 L
620 2710 L
620 2136 L
620 3216 L
620 2668 L
620 2813 L
620 3215 L
620 3423 L
620 2904 L
620 2924 L
620 2484 L
620 2571 L
620 2508 L
620 2891 L
620 2985 L
620 3214 L
620 2799 L
620 3267 L
620 2957 L
620 2844 L
620 2844 L
620 2680 L
620 2462 L
620 2690 L
620 2768 L
620 2663 L
620 2565 L
620 2864 L
620 2792 L
620 2918 L
620 3235 L
620 3339 L
620 3409 L
620 2873 L
620 3268 L
620 3727 L
620 2985 L
620 3092 L
620 2934 L
620 3535 L
620 2814 L
620 2906 L
620 3264 L
620 3299 L
620 3140 L
620 2764 L
620 3320 L
620 3374 L
620 3062 L
620 2887 L
620 3334 L
620 3287 L
620 3195 L
620 2680 L
620 3337 L
620 3013 L
620 3167 L
620 2839 L
620 3986 L
620 3512 L
620 2821 L
620 3810 L
620 2872 L
620 3360 L
620 3762 L
620 3381 L
620 3513 L
620 3570 L
620 3755 L
620 3531 L
620 3772 L
620 2676 L
620 3002 L
620 3464 L
620 3255 L
620 3290 L
620 3171 L
620 3389 L
620 3195 L
620 3308 L
620 3384 L
620 3747 L
620 3580 L
620 3439 L
620 3671 L
620 3219 L
620 3392 L
620 3127 L
620 3322 L
620 3282 L
620 3787 L
620 3492 L
620 3317 L
620 3329 L
620 3704 L
620 4153 L
620 3439 L
620 3754 L
620 3028 L
620 3388 L
620 3452 L
620 3494 L
620 3371 L
620 3716 L
620 3847 L
620 3552 L
620 3952 L
620 3302 L
620 2812 L
620 3782 L
620 3176 L
620 3977 L
620 4030 L
620 3645 L
620 2739 L
620 3600 L
620 4069 L
620 3695 L
620 3280 L
620 3759 L
620 3868 L
620 4115 L
620 3565 L
620 3585 L
620 3760 L
620 3892 L
620 3694 L
620 3784 L
620 3705 L
620 3766 L
620 3407 L
620 3598 L
620 3958 L
620 3718 L
620 3505 L
620 3722 L
620 3621 L
620 3576 L
620 3472 L
620 2986 L
620 3304 L
620 3757 L
620 4030 L
620 3709 L
620 3810 L
620 4012 L
620 3518 L
620 3911 L
620 3721 L
620 3524 L
620 4051 L
620 3908 L
620 4712 L
620 4144 L
620 3855 L
620 3825 L
620 3610 L
620 4170 L
620 3855 L
620 4344 L
620 4005 L
620 4504 L
620 4464 L
620 4375 L
620 4749 L
620 4419 L
620 4294 L
620 4409 L
620 4699 L
620 4604 L
620 4155 L
620 4684 L
620 4284 L
620 4239 L
620 4754 L
620 3780 L
620 4499 L
620 4229 L
620 4529 L
620 4689 L
620 3910 L
620 4005 L
620 4604 L
620 4739 L
620 4569 L
620 4084 L
620 3586 L
620 4479 L
620 3940 L
620 3835 L
620 4270 L
620 4644 L
620 3815 L
620 4065 L
620 4349 L
620 4095 L
620 4419 L
620 4449 L
620 4863 L
620 4509 L
620 4783 L
620 3975 L
620 4509 L
620 4284 L
620 4763 L
620 3950 L
620 3696 L
620 3611 L
620 4609 L
620 4110 L
620 4694 L
620 4259 L
620 4254 L
620 4315 L
620 4359 L
620 4334 L
620 3880 L
620 4050 L
620 4354 L
620 4369 L
620 4005 L
620 3740 L
620 4030 L
620 4065 L
620 3825 L
620 3830 L
620 3860 L
620 3945 L
620 4334 L
620 4355 L
620 3885 L
620 4150 L
620 3516 L
620 3830 L
620 3781 L
620 4160 L
620 4394 L
620 3481 L
620 4145 L
620 3561 L
620 3560 L
620 3650 L
620 3780 L
620 3641 L
620 3606 L
620 3895 L
620 3716 L
620 4080 L
620 3560 L
620 3566 L
620 4169 L
620 3411 L
620 4119 L
620 3671 L
620 4005 L
620 3805 L
620 4050 L
620 3506 L
620 3815 L
620 3616 L
620 3525 L
620 3700 L
620 3760 L
620 4070 L
620 2992 L
620 4115 L
620 3576 L
620 3466 L
620 4000 L
620 3386 L
620 3606 L
620 3526 L
620 3501 L
620 3506 L
620 3306 L
620 4065 L
620 3281 L
620 3406 L
620 3486 L
620 3256 L
620 3167 L
620 3591 L
620 3900 L
620 3586 L
620 3690 L
620 3815 L
620 4224 L
620 3730 L
620 3975 L
620 4299 L
620 3955 L
620 3506 L
620 3611 L
620 4165 L
620 3641 L
620 3621 L
620 2952 L
620 4095 L
620 3161 L
620 3531 L
620 3755 L
620 3576 L
620 3286 L
620 3521 L
620 3905 L
620 3815 L
620 4025 L
620 4250 L
620 3496 L
620 4389 L
620 3601 L
620 3691 L
620 3316 L
620 3696 L
620 3371 L
620 3865 L
620 3431 L
620 3746 L
620 3516 L
620 3680 L
620 3735 L
620 3366 L
620 3975 L
620 3261 L
620 3905 L
620 3710 L
620 3950 L
620 3491 L
620 3121 L
620 3286 L
620 3251 L
620 3566 L
620 3765 L
620 3566 L
620 3401 L
620 4110 L
620 3291 L
620 4179 L
620 4045 L
620 2787 L
620 3256 L
620 3506 L
620 4140 L
620 3321 L
620 3815 L
620 3770 L
620 3211 L
620 2942 L
620 3426 L
620 3580 L
620 3730 L
620 3770 L
620 3496 L
620 3556 L
620 3875 L
620 3286 L
620 3286 L
620 3820 L
620 3746 L
620 3531 L
620 3286 L
620 3511 L
620 4010 L
620 3142 L
620 2882 L
620 2992 L
620 3770 L
620 3571 L
620 3271 L
620 4035 L
620 3731 L
620 3331 L
620 3166 L
620 3256 L
620 3401 L
620 3491 L
620 3301 L
620 3102 L
620 3860 L
620 3296 L
620 3451 L
620 4090 L
620 3401 L
620 2897 L
620 3656 L
620 3031 L
620 3840 L
620 3701 L
620 3531 L
620 3241 L
620 3980 L
620 3142 L
620 3611 L
620 3416 L
620 3995 L
620 3621 L
620 3446 L
620 3606 L
620 3681 L
620 3920 L
620 3521 L
620 3626 L
L2 C02 COSGR

%
%================
% Legend - Begin
%================
%
GSN 4240 5180 M
4480 5180 L
LWMC SL  C02 COSGR
GSN 4540 5141 M helvM (1.0 uM) show grestore
%
%================
% Legend - End
%================
%

%
% Main frame
%
L10
GSN 
620 1700 M
4220 1700 L
4220 5300 L
620 5300 L
closepath SGR

%
% X axis: large tics
%
L10
%
% X axis: small tics
%
L5
%
% Y axis: large tics
%
L10
GSN 620 2621 M 54 0 rL SGR
GSN 4220 2621 M -54 0 rL SGR
helvS (-0.01) 560 2621 ylabel
GSN 620 3602 M 54 0 rL SGR
GSN 4220 3602 M -54 0 rL SGR
helvS (0) 560 3602 ylabel
GSN 620 4583 M 54 0 rL SGR
GSN 4220 4583 M -54 0 rL SGR
helvS (0.01) 560 4583 ylabel
%
% Y axis: small tics
%
L5
GSN 620 1885 M 36 0 rL SGR
GSN 4220 1885 M -36 0 rL SGR
GSN 620 2130 M 36 0 rL SGR
GSN 4220 2130 M -36 0 rL SGR
GSN 620 2376 M 36 0 rL SGR
GSN 4220 2376 M -36 0 rL SGR
GSN 620 2621 M 36 0 rL SGR
GSN 4220 2621 M -36 0 rL SGR
GSN 620 2866 M 36 0 rL SGR
GSN 4220 2866 M -36 0 rL SGR
GSN 620 3112 M 36 0 rL SGR
GSN 4220 3112 M -36 0 rL SGR
GSN 620 3357 M 36 0 rL SGR
GSN 4220 3357 M -36 0 rL SGR
GSN 620 3602 M 36 0 rL SGR
GSN 4220 3602 M -36 0 rL SGR
GSN 620 3847 M 36 0 rL SGR
GSN 4220 3847 M -36 0 rL SGR
GSN 620 4093 M 36 0 rL SGR
GSN 4220 4093 M -36 0 rL SGR
GSN 620 4338 M 36 0 rL SGR
GSN 4220 4338 M -36 0 rL SGR
GSN 620 4583 M 36 0 rL SGR
GSN 4220 4583 M -36 0 rL SGR
GSN 620 4829 M 36 0 rL SGR
GSN 4220 4829 M -36 0 rL SGR
GSN 620 5074 M 36 0 rL SGR
GSN 4220 5074 M -36 0 rL SGR

%
% X axis - residual panel
%
GSN L5 620 3602 M 4220 3602 L SDA G50 SGR

%
% X-Axis label:
%
gsave 620 1370 M 
[
[(Helvetica) 180 0 true true 0 (t)]
[(Helvetica) 180 0 true true 0 (i)]
[(Helvetica) 180 0 true true 0 (m)]
[(Helvetica) 180 0 true true 0 (e)]
] 0 MCshow grestore

%
% Y-Axis label:
%
gsave 234 3500 M 
currentpoint gsave translate 90 rotate 0 0 moveto
[
[(Helvetica) 180 0 true true 0 (r)]
[(Helvetica) 180 0 true true 0 (e)]
[(Helvetica) 180 0 true true 0 (s)]
[(Helvetica) 180 0 true true 0 (i)]
[(Helvetica) 180 0 true true 0 (d)]
[(Helvetica) 180 0 true true 0 (u)]
[(Helvetica) 180 0 true true 0 (a)]
[(Helvetica) 180 0 true true 0 (l)]
[(Helvetica) 180 0 true true 0 (s)]
] 0 MCshow grestore

end
showpage
%%Trailer
%%EOF
