%!PS-Adobe-3.0 EPSF-3.0
%%BoundingBox: 0 0 514 550
%%Creator: BioKin Ltd.
%%DocumentFonts: Symbol Helvetica
%%EndComments
%
/bkdict 256 dict def
bkdict begin
/M {moveto} def 
/R {rmoveto} def
/L {lineto} def
/rL {rlineto} def
/GSN {gsave newpath} def
/SGR {stroke grestore} def
/COSGR {gsave setrgbcolor stroke grestore grestore} def
/SL {setlinewidth} def
/LWMB {12} def             % line width - model curves, black & white
/LWMC {10} def             % line width - model curves, color
/L2 {2.5 setlinewidth} def
/L5 {5 setlinewidth} def
/L10 {10 setlinewidth} def
/G50 {0.5 setgray} def
/SDA {[10  20] 0 setdash} def % axes
/helvT {/Helvetica findfont 100 scalefont setfont} def % tiny
/helvS {/Helvetica findfont 125 scalefont setfont} def % small
/helvM {/Helvetica findfont 150 scalefont setfont} def % medium
/helvL {/Helvetica findfont 175 scalefont setfont} def % large
/xlabel {gsave M dup
   stringwidth exch -0.5 mul exch rmoveto show grestore} def 
/ylabel {gsave M 90 rotate dup
   stringwidth exch -0.5 mul exch rmoveto show grestore} def
/ylabelresid {gsave M dup
   stringwidth exch -1 mul exch rmoveto show grestore} def
% ======
% Shapes
% ======
% Circle:
/Circ {0 360 arc closepath} def
%
% Square:
/Squa {dup dup -0.5 mul dup dup R -2 mul 0 exch rL 1 mul 0 rL dup 0 exch -1 mul rL closepath} def
%
% Triangle Up:
/TriU {dup dup dup -0.4 mul exch -0.5 mul exch R dup 0.5 mul exch rL dup -1 mul exch 0.5 mul exch rL closepath} def 
%
% Triangle Down:
/TriD {dup dup dup 0.4 mul exch -0.5 mul exch R dup 0.5 mul exch -1 mul rL dup 0.5 mul exch rL closepath} def 
%
% Diamond:
/Diam {45 rotate Squa} def
% ======
% Fills
% ======
/GRF {gsave setgray fill grestore} def                    % gray-level Fill
/COF {gsave setrgbcolor fill grestore} def                % color fill
% ======
% Colors
% ======
/C01 {1.00	0.00	0.00} def      % Red
/C02 {0.00	0.00	1.00} def      % Blue
/C03 {0.00	0.39	0.00} def      % Dark Green
/C04 {0.78	0.08	0.52} def      % Medium Violet Red
/C05 {0.55	0.27	0.07} def      % Saddle Brown
/C06 {0.10	0.70	0.70} def      % (cyan)
/C07 {1.00	0.55	0.00} def      % Dark Orange
/C08 {0.63	0.13	0.94} def      % Purple
/C09 {0.00	0.75	1.00} def      % Deep Sky Blue
/C10 {0.20	0.80	0.20} def      % Lime Green
/C11 {0.47	0.53	0.60} def      % Light Slate Gray
/C12 {0.00	0.00	0.00} def      % Black            % or: {0.19	0.31	0.31} def      % Dark Slate Gray
%
/LGR {0.75} def % light gray
/DGR {0.33} def % dark gray
%
% =============
% Dash patterns
% =============
/dash01 { [80  20] 0 setdash } def
/dash02 { [40  20] 0 setdash } def
/dash03 { [80  20  10  20] 0 setdash } def
/dash04 { [40  20  10  20] 0 setdash } def
/dash05 { [80  20  10  10  10  20] 0 setdash } def
/dash06 { [40  20  10  10  10  20] 0 setdash } def
/dash07 { [10  10] 0 setdash } def
%
/MFshow {
   { dup 5 get 3 ge
     { 5 get 3 eq {gsave} {grestore} ifelse }
     {dup dup 0 get findfont exch 1 get scalefont setfont
     [ currentpoint ] exch dup 2 get 0 exch R dup 5 get 2 ne {dup dup 6
     get exch 4 get {show} {stringwidth pop 0 R} ifelse }if dup 5 get 0 eq
     {dup 3 get {2 get neg 0 exch R pop} {pop aload pop M} ifelse} {dup 5
     get 1 eq {dup 2 get exch dup 3 get exch 6 get stringwidth pop -2 div
     dup 0 R} {dup 6 get stringwidth pop -2 div 0 R 6 get
     show 2 index {aload pop M neg 3 -1 roll neg R pop pop} {pop pop pop
     pop aload pop M} ifelse }ifelse }ifelse }
     ifelse }
   forall} bind def
/MFwidth {0 exch {dup 3 get{dup dup 0 get findfont exch 1 get scalefont
     setfont 6 get stringwidth pop add} {pop} ifelse} forall} bind def
/MCshow { currentpoint stroke M
  exch dup MFwidth -2 div 3 -1 roll R MFshow } def
%
end
%%EndProlog
bkdict begin
0.1 0.1 scale
%
% Residuals:
%
GSN 620 2514 M
620 2136 L
620 2549 L
620 3764 L
620 3768 L
620 3327 L
620 3320 L
620 3127 L
620 3213 L
620 3286 L
620 3156 L
620 3693 L
620 3134 L
620 3639 L
620 3712 L
620 3425 L
620 3397 L
620 3584 L
620 3394 L
620 3725 L
620 3556 L
620 3609 L
620 3888 L
620 4074 L
620 3323 L
620 3819 L
620 4463 L
620 3879 L
620 4022 L
620 3941 L
620 3859 L
620 3894 L
620 3570 L
620 4265 L
620 4101 L
620 4027 L
620 3676 L
620 4321 L
620 4285 L
620 3797 L
620 3914 L
620 3966 L
620 4094 L
620 3597 L
620 3482 L
620 4311 L
620 3866 L
620 3579 L
620 3738 L
620 4152 L
620 3269 L
620 3461 L
620 3904 L
620 4092 L
620 3614 L
620 4124 L
620 4118 L
620 3949 L
620 3498 L
620 4198 L
620 4555 L
620 4194 L
620 3520 L
620 3231 L
620 3924 L
620 3674 L
620 3673 L
620 3829 L
620 3993 L
620 3348 L
620 4494 L
620 3806 L
620 3701 L
620 3666 L
620 4071 L
620 3327 L
620 4473 L
620 4097 L
620 4356 L
620 3643 L
620 3931 L
620 3734 L
620 3741 L
620 3562 L
620 3462 L
620 3498 L
620 3601 L
620 4037 L
620 3311 L
620 3423 L
620 4046 L
620 3562 L
620 3670 L
620 3526 L
620 3499 L
620 3651 L
620 2788 L
620 3579 L
620 3385 L
620 3263 L
620 3444 L
620 3321 L
620 2690 L
620 3007 L
620 3760 L
620 2989 L
620 3361 L
620 3783 L
620 3121 L
620 3218 L
620 2767 L
620 2615 L
620 2914 L
620 2790 L
620 2922 L
620 2855 L
620 3051 L
620 2890 L
620 2880 L
620 3227 L
620 2626 L
620 2883 L
620 2965 L
620 2906 L
620 2595 L
620 2806 L
620 3406 L
620 2952 L
620 3080 L
620 2631 L
620 3167 L
620 3112 L
620 2766 L
620 2534 L
620 3893 L
620 3121 L
620 2737 L
620 2508 L
620 3089 L
620 3371 L
620 2766 L
620 2916 L
620 3680 L
620 3112 L
620 3228 L
620 3383 L
620 3028 L
620 3444 L
620 2775 L
620 2994 L
620 3436 L
620 3251 L
620 3351 L
620 2982 L
620 3460 L
620 3834 L
620 3103 L
620 3652 L
620 2971 L
620 3090 L
620 3484 L
620 2867 L
620 3598 L
620 3726 L
620 3361 L
620 3372 L
620 3140 L
620 3629 L
620 3420 L
620 2683 L
620 3154 L
620 3795 L
620 3466 L
620 3009 L
620 3033 L
620 3542 L
620 3647 L
620 2925 L
620 3537 L
620 3062 L
620 3305 L
620 3328 L
620 2793 L
620 3879 L
620 3326 L
620 3365 L
620 4262 L
620 3738 L
620 3865 L
620 3877 L
620 3848 L
620 3363 L
620 3463 L
620 3536 L
620 2616 L
620 3212 L
620 3763 L
620 3797 L
620 3205 L
620 3245 L
620 3806 L
620 3483 L
620 3644 L
620 3989 L
620 3381 L
620 3681 L
620 3448 L
620 3572 L
620 3445 L
620 3899 L
620 4026 L
620 3987 L
620 3490 L
620 3670 L
620 3310 L
620 4004 L
620 3399 L
620 3689 L
620 4118 L
620 3692 L
620 3845 L
620 3934 L
620 3621 L
620 3455 L
620 3645 L
620 4112 L
620 3994 L
620 3811 L
620 4111 L
620 3765 L
620 3349 L
620 3776 L
620 3490 L
620 3905 L
620 3695 L
620 3893 L
620 3960 L
620 4204 L
620 3742 L
620 3851 L
620 4085 L
620 3621 L
620 4069 L
620 3830 L
620 3861 L
620 3426 L
620 3206 L
620 4365 L
620 4233 L
620 4155 L
620 4042 L
620 3578 L
620 4255 L
620 3552 L
620 4049 L
620 4161 L
620 4296 L
620 4437 L
620 4092 L
620 3940 L
620 3960 L
620 3651 L
620 4088 L
620 4059 L
620 4245 L
620 4099 L
620 4391 L
620 3608 L
620 4300 L
620 3628 L
620 4411 L
620 3510 L
620 3685 L
620 3489 L
620 4297 L
620 3641 L
620 4208 L
620 3428 L
620 4097 L
620 4449 L
620 4046 L
620 4590 L
620 4515 L
620 4657 L
620 4166 L
620 4025 L
620 4699 L
620 4553 L
620 3570 L
620 4171 L
620 4257 L
620 4144 L
620 4454 L
620 4766 L
620 4340 L
620 4378 L
620 4388 L
620 4465 L
620 4429 L
620 4545 L
620 4368 L
620 3792 L
620 3857 L
620 3966 L
620 4038 L
620 4709 L
620 4181 L
620 4562 L
620 4329 L
620 4790 L
620 4638 L
620 4304 L
620 4746 L
620 4156 L
620 4788 L
620 4144 L
620 4805 L
620 4220 L
620 4595 L
620 4617 L
620 4126 L
620 4211 L
620 4278 L
620 4227 L
620 4503 L
620 3971 L
620 4741 L
620 4097 L
620 3682 L
620 4376 L
620 3449 L
620 4145 L
620 3980 L
620 4118 L
620 3626 L
620 4863 L
620 3480 L
620 4014 L
620 4157 L
620 4375 L
620 3853 L
620 4086 L
620 4244 L
620 4256 L
620 4329 L
620 4266 L
620 4147 L
620 4006 L
620 3402 L
620 3288 L
620 4302 L
620 4244 L
620 3960 L
620 3620 L
620 3870 L
620 4176 L
620 4099 L
620 4103 L
620 4001 L
620 4161 L
620 3953 L
620 4188 L
620 3723 L
620 3227 L
620 3722 L
620 3804 L
620 4147 L
620 3790 L
620 3703 L
620 4152 L
620 4678 L
620 3589 L
620 3841 L
620 3948 L
620 4033 L
620 3686 L
620 3451 L
620 3322 L
620 3579 L
620 4379 L
620 4176 L
620 3451 L
620 3676 L
620 3565 L
620 3480 L
620 3182 L
620 3965 L
620 3276 L
620 3467 L
620 3907 L
620 4152 L
620 3116 L
620 3659 L
620 3783 L
620 3370 L
620 3206 L
620 3664 L
620 3550 L
620 2980 L
620 3501 L
620 3213 L
620 3812 L
620 3958 L
620 3273 L
620 2992 L
620 3979 L
620 2949 L
620 3315 L
620 3812 L
620 3587 L
620 3363 L
620 3419 L
620 3366 L
620 3438 L
620 3788 L
620 3225 L
620 3085 L
620 3256 L
620 3450 L
620 3681 L
620 2938 L
620 3443 L
620 3157 L
620 3368 L
620 3288 L
620 3383 L
620 3388 L
620 2839 L
620 4004 L
620 3322 L
620 3407 L
620 3409 L
620 2504 L
620 3455 L
620 3060 L
620 3686 L
620 3191 L
620 3492 L
620 3426 L
620 3569 L
620 3436 L
620 3446 L
620 3492 L
620 3034 L
620 3460 L
620 2910 L
620 3099 L
620 3703 L
620 3128 L
620 3473 L
620 3545 L
620 3579 L
620 3060 L
620 2754 L
620 3043 L
620 2735 L
620 3370 L
620 3383 L
620 3121 L
620 3031 L
620 2982 L
620 2939 L
620 3087 L
620 3334 L
620 3198 L
620 2613 L
620 3164 L
620 3295 L
620 3067 L
620 2492 L
620 2830 L
620 3642 L
620 3324 L
620 3203 L
620 2691 L
620 2648 L
620 2897 L
620 2774 L
620 3288 L
620 2737 L
620 2618 L
620 3188 L
620 3099 L
620 3113 L
620 3686 L
620 2735 L
620 3331 L
620 3087 L
620 2514 L
620 2655 L
620 3055 L
620 3208 L
620 2922 L
620 2931 L
620 3171 L
620 3210 L
620 3717 L
620 3441 L
620 3628 L
620 2817 L
620 2929 L
620 3239 L
620 3293 L
620 2926 L
620 3067 L
620 2810 L
620 3392 L
620 2912 L
620 3024 L
620 3475 L
620 3582 L
620 3065 L
620 3232 L
620 3317 L
620 3228 L
620 2684 L
620 3181 L
620 3429 L
620 2846 L
620 3113 L
620 3060 L
620 3179 L
620 2662 L
620 3169 L
620 3247 L
620 3552 L
620 2897 L
620 3242 L
620 2769 L
620 3276 L
620 3023 L
620 3201 L
620 3150 L
L2 C03 COSGR

%
%================
% Legend - Begin
%================
%
GSN 4240 5180 M
4480 5180 L
LWMC SL  C03 COSGR
GSN 4540 5141 M helvM (1.5 uM) show grestore
%
%================
% Legend - End
%================
%

%
% Main frame
%
L10
GSN 
620 1700 M
4220 1700 L
4220 5300 L
620 5300 L
closepath SGR

%
% X axis: large tics
%
L10
%
% X axis: small tics
%
L5
%
% Y axis: large tics
%
L10
GSN 620 2314 M 54 0 rL SGR
GSN 4220 2314 M -54 0 rL SGR
helvS (-0.01) 560 2314 ylabel
GSN 620 3585 M 54 0 rL SGR
GSN 4220 3585 M -54 0 rL SGR
helvS (0) 560 3585 ylabel
GSN 620 4857 M 54 0 rL SGR
GSN 4220 4857 M -54 0 rL SGR
helvS (0.01) 560 4857 ylabel
%
% Y axis: small tics
%
L5
GSN 620 1996 M 36 0 rL SGR
GSN 4220 1996 M -36 0 rL SGR
GSN 620 2314 M 36 0 rL SGR
GSN 4220 2314 M -36 0 rL SGR
GSN 620 2632 M 36 0 rL SGR
GSN 4220 2632 M -36 0 rL SGR
GSN 620 2950 M 36 0 rL SGR
GSN 4220 2950 M -36 0 rL SGR
GSN 620 3268 M 36 0 rL SGR
GSN 4220 3268 M -36 0 rL SGR
GSN 620 3585 M 36 0 rL SGR
GSN 4220 3585 M -36 0 rL SGR
GSN 620 3903 M 36 0 rL SGR
GSN 4220 3903 M -36 0 rL SGR
GSN 620 4221 M 36 0 rL SGR
GSN 4220 4221 M -36 0 rL SGR
GSN 620 4539 M 36 0 rL SGR
GSN 4220 4539 M -36 0 rL SGR
GSN 620 4857 M 36 0 rL SGR
GSN 4220 4857 M -36 0 rL SGR
GSN 620 5175 M 36 0 rL SGR
GSN 4220 5175 M -36 0 rL SGR

%
% X axis - residual panel
%
GSN L5 620 3585 M 4220 3585 L SDA G50 SGR

%
% X-Axis label:
%
gsave 620 1370 M 
[
[(Helvetica) 180 0 true true 0 (t)]
[(Helvetica) 180 0 true true 0 (i)]
[(Helvetica) 180 0 true true 0 (m)]
[(Helvetica) 180 0 true true 0 (e)]
] 0 MCshow grestore

%
% Y-Axis label:
%
gsave 234 3499 M 
currentpoint gsave translate 90 rotate 0 0 moveto
[
[(Helvetica) 180 0 true true 0 (r)]
[(Helvetica) 180 0 true true 0 (e)]
[(Helvetica) 180 0 true true 0 (s)]
[(Helvetica) 180 0 true true 0 (i)]
[(Helvetica) 180 0 true true 0 (d)]
[(Helvetica) 180 0 true true 0 (u)]
[(Helvetica) 180 0 true true 0 (a)]
[(Helvetica) 180 0 true true 0 (l)]
[(Helvetica) 180 0 true true 0 (s)]
] 0 MCshow grestore

end
showpage
%%Trailer
%%EOF
