%!PS-Adobe-3.0 EPSF-3.0
%%BoundingBox: 0 0 514 550
%%Creator: BioKin Ltd.
%%DocumentFonts: Symbol Helvetica
%%EndComments
%
/bkdict 256 dict def
bkdict begin
/M {moveto} def 
/R {rmoveto} def
/L {lineto} def
/rL {rlineto} def
/GSN {gsave newpath} def
/SGR {stroke grestore} def
/COSGR {gsave setrgbcolor stroke grestore grestore} def
/SL {setlinewidth} def
/LWMB {12} def             % line width - model curves, black & white
/LWMC {10} def             % line width - model curves, color
/L2 {2.5 setlinewidth} def
/L5 {5 setlinewidth} def
/L10 {10 setlinewidth} def
/G50 {0.5 setgray} def
/SDA {[10  20] 0 setdash} def % axes
/helvT {/Helvetica findfont 100 scalefont setfont} def % tiny
/helvS {/Helvetica findfont 125 scalefont setfont} def % small
/helvM {/Helvetica findfont 150 scalefont setfont} def % medium
/helvL {/Helvetica findfont 175 scalefont setfont} def % large
/xlabel {gsave M dup
   stringwidth exch -0.5 mul exch rmoveto show grestore} def 
/ylabel {gsave M 90 rotate dup
   stringwidth exch -0.5 mul exch rmoveto show grestore} def
/ylabelresid {gsave M dup
   stringwidth exch -1 mul exch rmoveto show grestore} def
% ======
% Shapes
% ======
% Circle:
/Circ {0 360 arc closepath} def
%
% Square:
/Squa {dup dup -0.5 mul dup dup R -2 mul 0 exch rL 1 mul 0 rL dup 0 exch -1 mul rL closepath} def
%
% Triangle Up:
/TriU {dup dup dup -0.4 mul exch -0.5 mul exch R dup 0.5 mul exch rL dup -1 mul exch 0.5 mul exch rL closepath} def 
%
% Triangle Down:
/TriD {dup dup dup 0.4 mul exch -0.5 mul exch R dup 0.5 mul exch -1 mul rL dup 0.5 mul exch rL closepath} def 
%
% Diamond:
/Diam {45 rotate Squa} def
% ======
% Fills
% ======
/GRF {gsave setgray fill grestore} def                    % gray-level Fill
/COF {gsave setrgbcolor fill grestore} def                % color fill
% ======
% Colors
% ======
/C01 {1.00	0.00	0.00} def      % Red
/C02 {0.00	0.00	1.00} def      % Blue
/C03 {0.00	0.39	0.00} def      % Dark Green
/C04 {0.78	0.08	0.52} def      % Medium Violet Red
/C05 {0.55	0.27	0.07} def      % Saddle Brown
/C06 {0.10	0.70	0.70} def      % (cyan)
/C07 {1.00	0.55	0.00} def      % Dark Orange
/C08 {0.63	0.13	0.94} def      % Purple
/C09 {0.00	0.75	1.00} def      % Deep Sky Blue
/C10 {0.20	0.80	0.20} def      % Lime Green
/C11 {0.47	0.53	0.60} def      % Light Slate Gray
/C12 {0.00	0.00	0.00} def      % Black            % or: {0.19	0.31	0.31} def      % Dark Slate Gray
%
/LGR {0.75} def % light gray
/DGR {0.33} def % dark gray
%
% =============
% Dash patterns
% =============
/dash01 { [80  20] 0 setdash } def
/dash02 { [40  20] 0 setdash } def
/dash03 { [80  20  10  20] 0 setdash } def
/dash04 { [40  20  10  20] 0 setdash } def
/dash05 { [80  20  10  10  10  20] 0 setdash } def
/dash06 { [40  20  10  10  10  20] 0 setdash } def
/dash07 { [10  10] 0 setdash } def
%
/MFshow {
   { dup 5 get 3 ge
     { 5 get 3 eq {gsave} {grestore} ifelse }
     {dup dup 0 get findfont exch 1 get scalefont setfont
     [ currentpoint ] exch dup 2 get 0 exch R dup 5 get 2 ne {dup dup 6
     get exch 4 get {show} {stringwidth pop 0 R} ifelse }if dup 5 get 0 eq
     {dup 3 get {2 get neg 0 exch R pop} {pop aload pop M} ifelse} {dup 5
     get 1 eq {dup 2 get exch dup 3 get exch 6 get stringwidth pop -2 div
     dup 0 R} {dup 6 get stringwidth pop -2 div 0 R 6 get
     show 2 index {aload pop M neg 3 -1 roll neg R pop pop} {pop pop pop
     pop aload pop M} ifelse }ifelse }ifelse }
     ifelse }
   forall} bind def
/MFwidth {0 exch {dup 3 get{dup dup 0 get findfont exch 1 get scalefont
     setfont 6 get stringwidth pop add} {pop} ifelse} forall} bind def
/MCshow { currentpoint stroke M
  exch dup MFwidth -2 div 3 -1 roll R MFshow } def
%
end
%%EndProlog
bkdict begin
0.1 0.1 scale
%
% Residuals:
%
GSN 620 3945 M
620 3191 L
620 3414 L
620 4156 L
620 3843 L
620 3609 L
620 3716 L
620 3759 L
620 3909 L
620 3772 L
620 3874 L
620 3293 L
620 4411 L
620 3547 L
620 3993 L
620 4202 L
620 4102 L
620 4276 L
620 3561 L
620 3932 L
620 3787 L
620 3493 L
620 3683 L
620 3948 L
620 3519 L
620 4142 L
620 4501 L
620 4075 L
620 4410 L
620 3960 L
620 3686 L
620 3022 L
620 3457 L
620 3564 L
620 4151 L
620 4160 L
620 3825 L
620 3889 L
620 4120 L
620 4114 L
620 4423 L
620 4863 L
620 3614 L
620 3916 L
620 3221 L
620 3573 L
620 3306 L
620 3954 L
620 4012 L
620 3876 L
620 4099 L
620 4305 L
620 3365 L
620 2455 L
620 3031 L
620 3612 L
620 4022 L
620 4488 L
620 3690 L
620 3405 L
620 3132 L
620 4048 L
620 3077 L
620 3432 L
620 4096 L
620 3930 L
620 3094 L
620 3653 L
620 3618 L
620 3295 L
620 3219 L
620 3984 L
620 3507 L
620 3749 L
620 3249 L
620 3743 L
620 3785 L
620 3701 L
620 3531 L
620 3561 L
620 3740 L
620 3277 L
620 3246 L
620 3497 L
620 3767 L
620 3668 L
620 3790 L
620 3886 L
620 3006 L
620 3222 L
620 3402 L
620 4318 L
620 3189 L
620 2499 L
620 3901 L
620 3099 L
620 3651 L
620 2856 L
620 3634 L
620 3421 L
620 3098 L
620 2796 L
620 3489 L
620 3190 L
620 2136 L
620 3129 L
620 3239 L
620 2268 L
620 3378 L
620 2948 L
620 3548 L
620 2636 L
620 3651 L
620 3636 L
620 3432 L
620 3090 L
620 3130 L
620 3227 L
620 2877 L
620 3036 L
620 3257 L
620 3209 L
620 3160 L
620 2550 L
620 2992 L
620 2897 L
620 2521 L
620 2842 L
620 3351 L
620 2620 L
620 3129 L
620 2664 L
620 2715 L
620 2571 L
620 2930 L
620 2831 L
620 2692 L
620 2736 L
620 3186 L
620 2599 L
620 2957 L
620 2530 L
620 2652 L
620 2775 L
620 2674 L
620 2596 L
620 2495 L
620 2582 L
620 2526 L
620 2883 L
620 3084 L
620 2638 L
620 3063 L
620 3641 L
620 2658 L
620 2515 L
620 2573 L
620 3265 L
620 2871 L
620 2853 L
620 3700 L
620 3500 L
620 2429 L
620 3162 L
620 2635 L
620 3103 L
620 3097 L
620 3051 L
620 3136 L
620 3129 L
620 3408 L
620 2652 L
620 3618 L
620 3578 L
620 3233 L
620 3878 L
620 2143 L
620 2817 L
620 3428 L
620 2843 L
620 3008 L
620 3046 L
620 3022 L
620 3244 L
620 2246 L
620 3303 L
620 3553 L
620 4605 L
620 3098 L
620 4275 L
620 2540 L
620 3694 L
620 3434 L
620 2580 L
620 3368 L
620 3526 L
620 3433 L
620 2790 L
620 3423 L
620 2986 L
620 3093 L
620 3137 L
620 3387 L
620 3511 L
620 2839 L
620 2992 L
620 2961 L
620 3754 L
620 3564 L
620 2835 L
620 3559 L
620 3282 L
620 3601 L
620 4068 L
620 3815 L
620 3698 L
620 3770 L
620 3785 L
620 4224 L
620 3420 L
620 3561 L
620 4132 L
620 3860 L
620 3246 L
620 3335 L
620 3911 L
620 3159 L
620 3981 L
620 2766 L
620 3313 L
620 3735 L
620 4116 L
620 4040 L
620 3683 L
620 3618 L
620 3330 L
620 3322 L
620 3514 L
620 3306 L
620 3733 L
620 3187 L
620 3134 L
620 3098 L
620 3536 L
620 3402 L
620 3389 L
620 3552 L
620 3133 L
620 3623 L
620 4056 L
620 3830 L
620 3084 L
620 4130 L
620 4362 L
620 3759 L
620 3317 L
620 3160 L
620 3542 L
620 3534 L
620 3109 L
620 2838 L
620 3213 L
620 2765 L
620 3072 L
620 4507 L
620 4070 L
620 3605 L
620 3688 L
620 4407 L
620 4280 L
620 3631 L
620 2862 L
620 2918 L
620 4209 L
620 4402 L
620 3662 L
620 4376 L
620 3990 L
620 3061 L
620 3660 L
620 3183 L
620 3427 L
620 3789 L
620 3606 L
620 3319 L
620 4014 L
620 3168 L
620 3863 L
620 4097 L
620 3784 L
620 3554 L
620 3959 L
620 4018 L
620 3848 L
620 4178 L
620 4308 L
620 3484 L
620 3748 L
620 3423 L
620 3980 L
620 2969 L
620 3366 L
620 3381 L
620 3470 L
620 4034 L
620 3420 L
620 3836 L
620 4395 L
620 3570 L
620 3655 L
620 3563 L
620 3956 L
620 3292 L
620 3440 L
620 3577 L
620 3605 L
620 3519 L
620 3558 L
620 3913 L
620 3043 L
620 4330 L
620 4490 L
620 3357 L
620 3917 L
620 2698 L
620 3574 L
620 4277 L
620 3202 L
620 2938 L
620 3402 L
620 3831 L
620 4380 L
620 3522 L
620 2961 L
620 3487 L
620 3579 L
620 4077 L
620 3361 L
620 3504 L
620 3316 L
620 3127 L
620 3922 L
620 3607 L
620 3224 L
620 3819 L
620 3442 L
620 3676 L
620 4157 L
620 3333 L
620 3098 L
620 3985 L
620 3813 L
620 3035 L
620 3058 L
620 3475 L
620 2972 L
620 3401 L
620 3590 L
620 3378 L
620 4448 L
620 2880 L
620 3790 L
620 3785 L
620 4317 L
620 3212 L
620 3413 L
620 3241 L
620 3687 L
620 2909 L
620 3396 L
620 3201 L
620 3281 L
620 3744 L
620 2943 L
620 3945 L
620 4099 L
620 3556 L
620 3161 L
620 2931 L
620 3871 L
620 3567 L
620 3842 L
620 2817 L
620 3401 L
620 3596 L
620 3390 L
620 3596 L
620 3258 L
620 3974 L
620 3338 L
620 3653 L
620 3453 L
620 3567 L
620 3584 L
620 3419 L
620 3470 L
620 3950 L
620 3035 L
620 3327 L
620 3682 L
620 3848 L
620 3087 L
620 3905 L
620 3539 L
620 4185 L
620 2869 L
620 3974 L
620 3670 L
620 3458 L
620 3189 L
620 3487 L
620 3545 L
620 3899 L
620 3848 L
620 2840 L
620 3057 L
620 3429 L
620 3149 L
620 3545 L
620 3916 L
620 2835 L
620 3047 L
620 3075 L
620 3762 L
620 2657 L
620 3287 L
620 2984 L
620 3361 L
620 3499 L
620 3699 L
620 3836 L
620 3602 L
620 3247 L
620 3716 L
620 3716 L
620 3693 L
620 3561 L
620 3344 L
620 2549 L
620 3166 L
620 4196 L
620 3945 L
620 3390 L
620 3636 L
620 3922 L
620 2652 L
620 3750 L
620 3687 L
620 2875 L
620 3533 L
620 2720 L
620 3350 L
620 3911 L
620 4071 L
620 3195 L
620 4225 L
620 2972 L
620 3544 L
620 3498 L
620 4162 L
620 2892 L
620 3990 L
620 3911 L
620 3550 L
620 3304 L
620 3429 L
620 3315 L
620 4168 L
620 3298 L
620 3613 L
620 3985 L
620 3407 L
620 3538 L
620 3390 L
620 4237 L
620 3384 L
620 3080 L
620 3974 L
620 3727 L
620 3870 L
620 3064 L
620 3802 L
620 3693 L
620 4053 L
620 4196 L
620 3916 L
620 3475 L
620 3756 L
620 3527 L
620 3767 L
620 4552 L
620 3642 L
620 3916 L
620 3361 L
620 3871 L
620 3441 L
620 3693 L
620 3670 L
620 3813 L
620 3201 L
620 3372 L
620 2932 L
620 3859 L
620 4528 L
620 2629 L
620 4174 L
620 3533 L
620 3344 L
620 3928 L
620 4071 L
620 3447 L
620 4219 L
620 3939 L
620 3344 L
620 3647 L
620 3584 L
620 3682 L
620 4151 L
620 3888 L
620 3516 L
620 4689 L
620 3544 L
620 3608 L
620 3996 L
620 3905 L
620 2995 L
620 3647 L
620 2806 L
620 3424 L
620 3762 L
620 3962 L
620 3361 L
620 3876 L
L2 C01 COSGR

%
%================
% Legend - Begin
%================
%
GSN 4240 5180 M
4480 5180 L
LWMC SL  C01 COSGR
GSN 4540 5141 M helvM (0.5 uM) show grestore
%
%================
% Legend - End
%================
%

%
% Main frame
%
L10
GSN 
620 1700 M
4220 1700 L
4220 5300 L
620 5300 L
closepath SGR

%
% X axis: large tics
%
L10
%
% X axis: small tics
%
L5
%
% Y axis: large tics
%
L10
GSN 620 2367 M 54 0 rL SGR
GSN 4220 2367 M -54 0 rL SGR
helvS (-0.01) 560 2367 ylabel
GSN 620 3492 M 54 0 rL SGR
GSN 4220 3492 M -54 0 rL SGR
helvS (0) 560 3492 ylabel
GSN 620 4617 M 54 0 rL SGR
GSN 4220 4617 M -54 0 rL SGR
helvS (0.01) 560 4617 ylabel
%
% Y axis: small tics
%
L5
GSN 620 1804 M 36 0 rL SGR
GSN 4220 1804 M -36 0 rL SGR
GSN 620 2086 M 36 0 rL SGR
GSN 4220 2086 M -36 0 rL SGR
GSN 620 2367 M 36 0 rL SGR
GSN 4220 2367 M -36 0 rL SGR
GSN 620 2648 M 36 0 rL SGR
GSN 4220 2648 M -36 0 rL SGR
GSN 620 2929 M 36 0 rL SGR
GSN 4220 2929 M -36 0 rL SGR
GSN 620 3211 M 36 0 rL SGR
GSN 4220 3211 M -36 0 rL SGR
GSN 620 3492 M 36 0 rL SGR
GSN 4220 3492 M -36 0 rL SGR
GSN 620 3773 M 36 0 rL SGR
GSN 4220 3773 M -36 0 rL SGR
GSN 620 4055 M 36 0 rL SGR
GSN 4220 4055 M -36 0 rL SGR
GSN 620 4336 M 36 0 rL SGR
GSN 4220 4336 M -36 0 rL SGR
GSN 620 4617 M 36 0 rL SGR
GSN 4220 4617 M -36 0 rL SGR
GSN 620 4898 M 36 0 rL SGR
GSN 4220 4898 M -36 0 rL SGR
GSN 620 5180 M 36 0 rL SGR
GSN 4220 5180 M -36 0 rL SGR

%
% X axis - residual panel
%
GSN L5 620 3492 M 4220 3492 L SDA G50 SGR

%
% X-Axis label:
%
gsave 620 1370 M 
[
[(Helvetica) 180 0 true true 0 (t)]
[(Helvetica) 180 0 true true 0 (i)]
[(Helvetica) 180 0 true true 0 (m)]
[(Helvetica) 180 0 true true 0 (e)]
] 0 MCshow grestore

%
% Y-Axis label:
%
gsave 234 3500 M 
currentpoint gsave translate 90 rotate 0 0 moveto
[
[(Helvetica) 180 0 true true 0 (r)]
[(Helvetica) 180 0 true true 0 (e)]
[(Helvetica) 180 0 true true 0 (s)]
[(Helvetica) 180 0 true true 0 (i)]
[(Helvetica) 180 0 true true 0 (d)]
[(Helvetica) 180 0 true true 0 (u)]
[(Helvetica) 180 0 true true 0 (a)]
[(Helvetica) 180 0 true true 0 (l)]
[(Helvetica) 180 0 true true 0 (s)]
] 0 MCshow grestore

end
showpage
%%Trailer
%%EOF
