%!PS-Adobe-3.0 EPSF-3.0
%%BoundingBox: 0 0 514 550
%%Creator: BioKin Ltd.
%%DocumentFonts: Symbol Helvetica
%%EndComments
%
/bkdict 256 dict def
bkdict begin
/M {moveto} def 
/R {rmoveto} def
/L {lineto} def
/rL {rlineto} def
/GSN {gsave newpath} def
/SGR {stroke grestore} def
/COSGR {gsave setrgbcolor stroke grestore grestore} def
/SL {setlinewidth} def
/LWMB {12} def             % line width - model curves, black & white
/LWMC {10} def             % line width - model curves, color
/L2 {2.5 setlinewidth} def
/L5 {5 setlinewidth} def
/L10 {10 setlinewidth} def
/G50 {0.5 setgray} def
/SDA {[10  20] 0 setdash} def % axes
/helvT {/Helvetica findfont 100 scalefont setfont} def % tiny
/helvS {/Helvetica findfont 125 scalefont setfont} def % small
/helvM {/Helvetica findfont 150 scalefont setfont} def % medium
/helvL {/Helvetica findfont 175 scalefont setfont} def % large
/xlabel {gsave M dup
   stringwidth exch -0.5 mul exch rmoveto show grestore} def 
/ylabel {gsave M 90 rotate dup
   stringwidth exch -0.5 mul exch rmoveto show grestore} def
/ylabelresid {gsave M dup
   stringwidth exch -1 mul exch rmoveto show grestore} def
% ======
% Shapes
% ======
% Circle:
/Circ {0 360 arc closepath} def
%
% Square:
/Squa {dup dup -0.5 mul dup dup R -2 mul 0 exch rL 1 mul 0 rL dup 0 exch -1 mul rL closepath} def
%
% Triangle Up:
/TriU {dup dup dup -0.4 mul exch -0.5 mul exch R dup 0.5 mul exch rL dup -1 mul exch 0.5 mul exch rL closepath} def 
%
% Triangle Down:
/TriD {dup dup dup 0.4 mul exch -0.5 mul exch R dup 0.5 mul exch -1 mul rL dup 0.5 mul exch rL closepath} def 
%
% Diamond:
/Diam {45 rotate Squa} def
% ======
% Fills
% ======
/GRF {gsave setgray fill grestore} def                    % gray-level Fill
/COF {gsave setrgbcolor fill grestore} def                % color fill
% ======
% Colors
% ======
/C01 {1.00	0.00	0.00} def      % Red
/C02 {0.00	0.00	1.00} def      % Blue
/C03 {0.00	0.39	0.00} def      % Dark Green
/C04 {0.78	0.08	0.52} def      % Medium Violet Red
/C05 {0.55	0.27	0.07} def      % Saddle Brown
/C06 {0.10	0.70	0.70} def      % (cyan)
/C07 {1.00	0.55	0.00} def      % Dark Orange
/C08 {0.63	0.13	0.94} def      % Purple
/C09 {0.00	0.75	1.00} def      % Deep Sky Blue
/C10 {0.20	0.80	0.20} def      % Lime Green
/C11 {0.47	0.53	0.60} def      % Light Slate Gray
/C12 {0.00	0.00	0.00} def      % Black            % or: {0.19	0.31	0.31} def      % Dark Slate Gray
%
/LGR {0.75} def % light gray
/DGR {0.33} def % dark gray
%
% =============
% Dash patterns
% =============
/dash01 { [80  20] 0 setdash } def
/dash02 { [40  20] 0 setdash } def
/dash03 { [80  20  10  20] 0 setdash } def
/dash04 { [40  20  10  20] 0 setdash } def
/dash05 { [80  20  10  10  10  20] 0 setdash } def
/dash06 { [40  20  10  10  10  20] 0 setdash } def
/dash07 { [10  10] 0 setdash } def
%
/MFshow {
   { dup 5 get 3 ge
     { 5 get 3 eq {gsave} {grestore} ifelse }
     {dup dup 0 get findfont exch 1 get scalefont setfont
     [ currentpoint ] exch dup 2 get 0 exch R dup 5 get 2 ne {dup dup 6
     get exch 4 get {show} {stringwidth pop 0 R} ifelse }if dup 5 get 0 eq
     {dup 3 get {2 get neg 0 exch R pop} {pop aload pop M} ifelse} {dup 5
     get 1 eq {dup 2 get exch dup 3 get exch 6 get stringwidth pop -2 div
     dup 0 R} {dup 6 get stringwidth pop -2 div 0 R 6 get
     show 2 index {aload pop M neg 3 -1 roll neg R pop pop} {pop pop pop
     pop aload pop M} ifelse }ifelse }ifelse }
     ifelse }
   forall} bind def
/MFwidth {0 exch {dup 3 get{dup dup 0 get findfont exch 1 get scalefont
     setfont 6 get stringwidth pop add} {pop} ifelse} forall} bind def
/MCshow { currentpoint stroke M
  exch dup MFwidth -2 div 3 -1 roll R MFshow } def
%
end
%%EndProlog
bkdict begin
0.1 0.1 scale
%
% Residuals:
%
GSN 620 2136 M
620 3131 L
620 3655 L
620 4268 L
620 4349 L
620 4749 L
620 4634 L
620 4749 L
620 4837 L
620 4735 L
620 4778 L
620 4826 L
620 4638 L
620 4677 L
620 4714 L
620 4722 L
620 4863 L
620 4705 L
620 4759 L
620 4689 L
620 4693 L
620 4670 L
620 4689 L
620 4505 L
620 4629 L
620 4681 L
620 4410 L
620 4570 L
620 4368 L
620 4501 L
620 4398 L
620 4346 L
620 4392 L
620 4435 L
620 4388 L
620 4314 L
620 4402 L
620 4534 L
620 4219 L
620 4330 L
620 4328 L
620 4304 L
620 4281 L
620 4063 L
620 4343 L
620 4330 L
620 4113 L
620 4192 L
620 4008 L
620 4088 L
620 4120 L
620 4220 L
620 4248 L
620 4067 L
620 4008 L
620 4189 L
620 3915 L
620 4010 L
620 4010 L
620 3844 L
620 3839 L
620 3955 L
620 4006 L
620 3948 L
620 3861 L
620 3832 L
620 3722 L
620 3865 L
620 3837 L
620 3789 L
620 3873 L
620 3961 L
620 3800 L
620 3773 L
620 3793 L
620 3867 L
620 3731 L
620 3664 L
620 3932 L
620 3659 L
620 3876 L
620 3433 L
620 3750 L
620 3492 L
620 3461 L
620 3534 L
620 3403 L
620 3369 L
620 3467 L
620 3440 L
620 3371 L
620 3339 L
620 3229 L
620 3269 L
620 3291 L
620 3475 L
620 3232 L
620 3277 L
620 3301 L
620 3276 L
620 2984 L
620 3093 L
620 3212 L
620 3187 L
620 3181 L
620 3055 L
620 3152 L
620 3272 L
620 3124 L
620 3130 L
620 3064 L
620 2986 L
620 3205 L
620 3095 L
620 3058 L
620 3089 L
620 3149 L
620 2953 L
620 3037 L
620 3143 L
620 3039 L
620 3062 L
620 3022 L
620 3056 L
620 3043 L
620 3058 L
620 3080 L
620 3081 L
620 3125 L
620 2948 L
620 3078 L
620 3182 L
620 3061 L
620 3090 L
620 3070 L
620 3132 L
620 3075 L
620 3048 L
620 3033 L
620 3071 L
620 3113 L
620 3108 L
620 3092 L
620 3134 L
620 3129 L
620 3210 L
620 3247 L
620 2886 L
620 2961 L
620 3067 L
620 3243 L
620 3193 L
620 3070 L
620 3151 L
620 3156 L
620 3144 L
620 3119 L
620 3213 L
620 3101 L
620 3154 L
620 3042 L
620 3149 L
620 3252 L
620 3085 L
620 3224 L
620 3169 L
620 3160 L
620 3149 L
620 3317 L
620 3166 L
620 3307 L
620 3243 L
620 3262 L
620 3321 L
620 3179 L
620 3179 L
620 3308 L
620 3274 L
620 3185 L
620 3214 L
620 3224 L
620 3292 L
620 3394 L
620 3259 L
620 3337 L
620 3240 L
620 3356 L
620 3356 L
620 3205 L
620 3274 L
620 3297 L
620 3378 L
620 3184 L
620 3268 L
620 3342 L
620 3334 L
620 3222 L
620 3266 L
620 3247 L
620 3359 L
620 3301 L
620 3370 L
620 3177 L
620 3498 L
620 3313 L
620 3328 L
620 3370 L
620 3302 L
620 3361 L
620 3419 L
620 3343 L
620 3325 L
620 3408 L
620 3230 L
620 3332 L
620 3402 L
620 3485 L
620 3444 L
620 3421 L
620 3419 L
620 3423 L
620 3404 L
620 3531 L
620 3503 L
620 3513 L
620 3294 L
620 3417 L
620 3608 L
620 3492 L
620 3510 L
620 3428 L
620 3510 L
620 3479 L
620 3377 L
620 3506 L
620 3436 L
620 3633 L
620 3621 L
620 3402 L
620 3583 L
620 3465 L
620 3521 L
620 3468 L
620 3614 L
620 3465 L
620 3401 L
620 3352 L
620 3599 L
620 3426 L
620 3429 L
620 3412 L
620 3427 L
620 3496 L
620 3568 L
620 3601 L
620 3479 L
620 3484 L
620 3491 L
620 3583 L
620 3409 L
620 3436 L
620 3723 L
620 3602 L
620 3598 L
620 3646 L
620 3586 L
620 3578 L
620 3531 L
620 3436 L
620 3574 L
620 3672 L
620 3518 L
620 3333 L
620 3597 L
620 3546 L
620 3566 L
620 3661 L
620 3500 L
620 3605 L
620 3612 L
620 3706 L
620 3716 L
620 3729 L
620 3746 L
620 3863 L
620 3632 L
620 3801 L
620 3960 L
620 3831 L
620 3889 L
620 3729 L
620 3874 L
620 3883 L
620 3870 L
620 3898 L
620 3891 L
620 3694 L
620 3921 L
620 3873 L
620 3834 L
620 3855 L
620 3936 L
620 3849 L
620 3809 L
620 3986 L
620 3714 L
620 3996 L
620 3871 L
620 3872 L
620 3828 L
620 3842 L
620 3906 L
620 3818 L
620 3799 L
620 3810 L
620 3893 L
620 3862 L
620 3781 L
620 3841 L
620 3836 L
620 3740 L
620 3775 L
620 3839 L
620 3905 L
620 3843 L
620 3844 L
620 3766 L
620 3785 L
620 3752 L
620 3831 L
620 3923 L
620 3792 L
620 3976 L
620 3959 L
620 3790 L
620 3901 L
620 3860 L
620 3772 L
620 3833 L
620 4117 L
620 3833 L
620 3911 L
620 3754 L
620 3717 L
620 3794 L
620 3755 L
620 3829 L
620 3912 L
620 3771 L
620 3842 L
620 3742 L
620 3713 L
620 3722 L
620 3595 L
620 3923 L
620 3667 L
620 3790 L
620 3745 L
620 3863 L
620 3772 L
620 3757 L
620 3823 L
620 3864 L
620 3801 L
620 3628 L
620 3813 L
620 3809 L
620 3698 L
620 3641 L
620 3739 L
620 3647 L
620 3900 L
620 3750 L
620 3759 L
620 3676 L
620 3771 L
620 3636 L
620 3788 L
620 3795 L
620 3605 L
620 3490 L
620 3739 L
620 3828 L
620 3650 L
620 3593 L
620 3683 L
620 3638 L
620 3721 L
620 3549 L
620 3720 L
620 3741 L
620 3753 L
620 3646 L
620 3684 L
620 3802 L
620 3570 L
620 3526 L
620 3772 L
620 3557 L
620 3690 L
620 3457 L
620 3617 L
620 3520 L
620 3682 L
620 3868 L
620 3638 L
620 3572 L
620 3675 L
620 3403 L
620 3596 L
620 3664 L
620 3716 L
620 3545 L
620 3732 L
620 3553 L
620 3670 L
620 3658 L
620 3676 L
620 3741 L
620 3497 L
620 3696 L
620 3520 L
620 3586 L
620 3613 L
620 3702 L
620 3623 L
620 3569 L
620 3686 L
620 3528 L
620 3592 L
620 3626 L
620 3679 L
620 3629 L
620 3760 L
620 3638 L
620 3805 L
620 3575 L
620 3728 L
620 3671 L
620 3652 L
620 3647 L
620 3655 L
620 3641 L
620 3576 L
620 3590 L
620 3865 L
620 3641 L
620 3547 L
620 3680 L
620 3636 L
620 3817 L
620 3588 L
620 3786 L
620 3794 L
620 3594 L
620 3745 L
620 3630 L
620 3712 L
620 3726 L
620 3760 L
620 3480 L
620 3781 L
620 3532 L
620 3625 L
620 3608 L
620 3716 L
620 3727 L
620 3423 L
620 3561 L
620 3568 L
620 3676 L
620 3780 L
620 3573 L
620 3606 L
620 3368 L
620 3684 L
620 3568 L
620 3703 L
620 3378 L
620 3620 L
620 3778 L
620 3487 L
620 3512 L
620 3553 L
620 3526 L
620 3621 L
620 3643 L
620 3677 L
620 3653 L
620 3607 L
620 3610 L
620 3503 L
620 3678 L
620 3671 L
620 3359 L
620 3638 L
620 3561 L
620 3660 L
620 3592 L
620 3630 L
620 3725 L
620 3644 L
620 3538 L
620 3485 L
620 3632 L
620 3660 L
620 3504 L
620 3485 L
620 3650 L
620 3695 L
620 3515 L
620 3681 L
620 3620 L
620 3491 L
620 3637 L
620 3643 L
620 3914 L
620 3599 L
620 3590 L
620 3707 L
620 3563 L
620 3652 L
620 3744 L
620 3667 L
620 3666 L
620 3550 L
620 3651 L
620 3690 L
620 3650 L
620 3572 L
620 3556 L
620 3620 L
620 3588 L
L2 C04 COSGR

%
%================
% Legend - Begin
%================
%
GSN 4240 5180 M
4480 5180 L
LWMC SL  C04 COSGR
GSN 4540 5141 M helvM (2.0 uM) show grestore
%
%================
% Legend - End
%================
%

%
% Main frame
%
L10
GSN 
620 1700 M
4220 1700 L
4220 5300 L
620 5300 L
closepath SGR

%
% X axis: large tics
%
L10
%
% X axis: small tics
%
L5
%
% Y axis: large tics
%
L10
GSN 620 1947 M 54 0 rL SGR
GSN 4220 1947 M -54 0 rL SGR
helvS (-0.05) 560 1947 ylabel
GSN 620 2792 M 54 0 rL SGR
GSN 4220 2792 M -54 0 rL SGR
helvS (-0.025) 560 2792 ylabel
GSN 620 3637 M 54 0 rL SGR
GSN 4220 3637 M -54 0 rL SGR
helvS (0) 560 3637 ylabel
GSN 620 4482 M 54 0 rL SGR
GSN 4220 4482 M -54 0 rL SGR
helvS (0.025) 560 4482 ylabel
%
% Y axis: small tics
%
L5
GSN 620 1526 M 36 0 rL SGR
GSN 4220 1526 M -36 0 rL SGR
GSN 620 1947 M 36 0 rL SGR
GSN 4220 1947 M -36 0 rL SGR
GSN 620 2370 M 36 0 rL SGR
GSN 4220 2370 M -36 0 rL SGR
GSN 620 2792 M 36 0 rL SGR
GSN 4220 2792 M -36 0 rL SGR
GSN 620 3215 M 36 0 rL SGR
GSN 4220 3215 M -36 0 rL SGR
GSN 620 3637 M 36 0 rL SGR
GSN 4220 3637 M -36 0 rL SGR
GSN 620 4060 M 36 0 rL SGR
GSN 4220 4060 M -36 0 rL SGR
GSN 620 4482 M 36 0 rL SGR
GSN 4220 4482 M -36 0 rL SGR
GSN 620 4905 M 36 0 rL SGR
GSN 4220 4905 M -36 0 rL SGR

%
% X axis - residual panel
%
GSN L5 620 3637 M 4220 3637 L SDA G50 SGR

%
% X-Axis label:
%
gsave 620 1370 M 
[
[(Helvetica) 180 0 true true 0 (t)]
[(Helvetica) 180 0 true true 0 (i)]
[(Helvetica) 180 0 true true 0 (m)]
[(Helvetica) 180 0 true true 0 (e)]
] 0 MCshow grestore

%
% Y-Axis label:
%
gsave 234 3499 M 
currentpoint gsave translate 90 rotate 0 0 moveto
[
[(Helvetica) 180 0 true true 0 (r)]
[(Helvetica) 180 0 true true 0 (e)]
[(Helvetica) 180 0 true true 0 (s)]
[(Helvetica) 180 0 true true 0 (i)]
[(Helvetica) 180 0 true true 0 (d)]
[(Helvetica) 180 0 true true 0 (u)]
[(Helvetica) 180 0 true true 0 (a)]
[(Helvetica) 180 0 true true 0 (l)]
[(Helvetica) 180 0 true true 0 (s)]
] 0 MCshow grestore

end
showpage
%%Trailer
%%EOF
