%!PS-Adobe-3.0 EPSF-3.0
%%BoundingBox: 0 0 514 550
%%Creator: BioKin Ltd.
%%DocumentFonts: Symbol Helvetica
%%EndComments
%
/bkdict 256 dict def
bkdict begin
/M {moveto} def 
/R {rmoveto} def
/L {lineto} def
/rL {rlineto} def
/GSN {gsave newpath} def
/SGR {stroke grestore} def
/COSGR {gsave setrgbcolor stroke grestore grestore} def
/SL {setlinewidth} def
/LWMB {12} def             % line width - model curves, black & white
/LWMC {10} def             % line width - model curves, color
/L2 {2.5 setlinewidth} def
/L5 {5 setlinewidth} def
/L10 {10 setlinewidth} def
/G50 {0.5 setgray} def
/SDA {[10  20] 0 setdash} def % axes
/helvT {/Helvetica findfont 100 scalefont setfont} def % tiny
/helvS {/Helvetica findfont 125 scalefont setfont} def % small
/helvM {/Helvetica findfont 150 scalefont setfont} def % medium
/helvL {/Helvetica findfont 175 scalefont setfont} def % large
/xlabel {gsave M dup
   stringwidth exch -0.5 mul exch rmoveto show grestore} def 
/ylabel {gsave M 90 rotate dup
   stringwidth exch -0.5 mul exch rmoveto show grestore} def
/ylabelresid {gsave M dup
   stringwidth exch -1 mul exch rmoveto show grestore} def
% ======
% Shapes
% ======
% Circle:
/Circ {0 360 arc closepath} def
%
% Square:
/Squa {dup dup -0.5 mul dup dup R -2 mul 0 exch rL 1 mul 0 rL dup 0 exch -1 mul rL closepath} def
%
% Triangle Up:
/TriU {dup dup dup -0.4 mul exch -0.5 mul exch R dup 0.5 mul exch rL dup -1 mul exch 0.5 mul exch rL closepath} def 
%
% Triangle Down:
/TriD {dup dup dup 0.4 mul exch -0.5 mul exch R dup 0.5 mul exch -1 mul rL dup 0.5 mul exch rL closepath} def 
%
% Diamond:
/Diam {45 rotate Squa} def
% ======
% Fills
% ======
/GRF {gsave setgray fill grestore} def                    % gray-level Fill
/COF {gsave setrgbcolor fill grestore} def                % color fill
% ======
% Colors
% ======
/C01 {1.00	0.00	0.00} def      % Red
/C02 {0.00	0.00	1.00} def      % Blue
/C03 {0.00	0.39	0.00} def      % Dark Green
/C04 {0.78	0.08	0.52} def      % Medium Violet Red
/C05 {0.55	0.27	0.07} def      % Saddle Brown
/C06 {0.10	0.70	0.70} def      % (cyan)
/C07 {1.00	0.55	0.00} def      % Dark Orange
/C08 {0.63	0.13	0.94} def      % Purple
/C09 {0.00	0.75	1.00} def      % Deep Sky Blue
/C10 {0.20	0.80	0.20} def      % Lime Green
/C11 {0.47	0.53	0.60} def      % Light Slate Gray
/C12 {0.00	0.00	0.00} def      % Black            % or: {0.19	0.31	0.31} def      % Dark Slate Gray
%
/LGR {0.75} def % light gray
/DGR {0.33} def % dark gray
%
% =============
% Dash patterns
% =============
/dash01 { [80  20] 0 setdash } def
/dash02 { [40  20] 0 setdash } def
/dash03 { [80  20  10  20] 0 setdash } def
/dash04 { [40  20  10  20] 0 setdash } def
/dash05 { [80  20  10  10  10  20] 0 setdash } def
/dash06 { [40  20  10  10  10  20] 0 setdash } def
/dash07 { [10  10] 0 setdash } def
%
/MFshow {
   { dup 5 get 3 ge
     { 5 get 3 eq {gsave} {grestore} ifelse }
     {dup dup 0 get findfont exch 1 get scalefont setfont
     [ currentpoint ] exch dup 2 get 0 exch R dup 5 get 2 ne {dup dup 6
     get exch 4 get {show} {stringwidth pop 0 R} ifelse }if dup 5 get 0 eq
     {dup 3 get {2 get neg 0 exch R pop} {pop aload pop M} ifelse} {dup 5
     get 1 eq {dup 2 get exch dup 3 get exch 6 get stringwidth pop -2 div
     dup 0 R} {dup 6 get stringwidth pop -2 div 0 R 6 get
     show 2 index {aload pop M neg 3 -1 roll neg R pop pop} {pop pop pop
     pop aload pop M} ifelse }ifelse }ifelse }
     ifelse }
   forall} bind def
/MFwidth {0 exch {dup 3 get{dup dup 0 get findfont exch 1 get scalefont
     setfont 6 get stringwidth pop add} {pop} ifelse} forall} bind def
/MCshow { currentpoint stroke M
  exch dup MFwidth -2 div 3 -1 roll R MFshow } def
%
end
%%EndProlog
bkdict begin
0.1 0.1 scale
%
% Residuals:
%
GSN 620 3617 M
620 3253 L
620 2780 L
620 2307 L
620 2136 L
620 2229 L
620 2617 L
620 2540 L
620 2694 L
620 2784 L
620 3004 L
620 3032 L
620 3252 L
620 3127 L
620 3140 L
620 3298 L
620 3504 L
620 3443 L
620 3620 L
620 3826 L
620 3912 L
620 3856 L
620 3806 L
620 3936 L
620 4049 L
620 4022 L
620 4147 L
620 4137 L
620 4012 L
620 4343 L
620 4287 L
620 4356 L
620 4428 L
620 4272 L
620 4184 L
620 4432 L
620 4393 L
620 4254 L
620 4514 L
620 4460 L
620 4430 L
620 4522 L
620 4573 L
620 4571 L
620 4472 L
620 4414 L
620 4518 L
620 4725 L
620 4624 L
620 4681 L
620 4602 L
620 4687 L
620 4537 L
620 4630 L
620 4710 L
620 4577 L
620 4551 L
620 4604 L
620 4644 L
620 4671 L
620 4776 L
620 4604 L
620 4612 L
620 4437 L
620 4707 L
620 4593 L
620 4642 L
620 4572 L
620 4657 L
620 4653 L
620 4666 L
620 4474 L
620 4677 L
620 4697 L
620 4800 L
620 4650 L
620 4648 L
620 4610 L
620 4472 L
620 4538 L
620 4663 L
620 4670 L
620 4784 L
620 4759 L
620 4583 L
620 4606 L
620 4651 L
620 4646 L
620 4577 L
620 4702 L
620 4553 L
620 4471 L
620 4542 L
620 4504 L
620 4556 L
620 4562 L
620 4727 L
620 4592 L
620 4503 L
620 4661 L
620 4440 L
620 4524 L
620 4549 L
620 4624 L
620 4588 L
620 4470 L
620 4491 L
620 4507 L
620 4584 L
620 4707 L
620 4608 L
620 4524 L
620 4362 L
620 4520 L
620 4508 L
620 4489 L
620 4447 L
620 4863 L
620 4562 L
620 4620 L
620 4418 L
620 4625 L
620 4496 L
620 4481 L
620 4637 L
620 4619 L
620 4580 L
620 4452 L
620 4555 L
620 4632 L
620 4502 L
620 4369 L
620 4379 L
620 4443 L
620 4520 L
620 4517 L
620 4613 L
620 4494 L
620 4507 L
620 4470 L
620 4463 L
620 4435 L
620 4421 L
620 4452 L
620 4292 L
620 4527 L
620 4599 L
620 4404 L
620 4514 L
620 4335 L
620 4458 L
620 4517 L
620 4317 L
620 4483 L
620 4330 L
620 4291 L
620 4422 L
620 4447 L
620 4486 L
620 4443 L
620 4481 L
620 4317 L
620 4463 L
620 4370 L
620 4250 L
620 4272 L
620 4511 L
620 4368 L
620 4458 L
620 4550 L
620 4517 L
620 4298 L
620 4567 L
620 4432 L
620 4389 L
620 4510 L
620 4368 L
620 4248 L
620 4291 L
620 4341 L
620 4247 L
620 4261 L
620 4186 L
620 4489 L
620 4399 L
620 4497 L
620 4404 L
620 4341 L
620 4371 L
620 4436 L
620 4118 L
620 4261 L
620 4402 L
620 4293 L
620 4398 L
620 4503 L
620 4327 L
620 4303 L
620 4355 L
620 4272 L
620 4344 L
620 4382 L
620 4376 L
620 4248 L
620 4404 L
620 4434 L
620 4173 L
620 4304 L
620 4357 L
620 4389 L
620 4232 L
620 4419 L
620 4304 L
620 4289 L
620 4400 L
620 4405 L
620 4128 L
620 4200 L
620 4447 L
620 4404 L
620 4372 L
620 4169 L
620 4259 L
620 4292 L
620 4333 L
620 4239 L
620 4384 L
620 4408 L
620 4167 L
620 4137 L
620 4216 L
620 4192 L
620 4121 L
620 4294 L
620 4239 L
620 4246 L
620 4201 L
620 4293 L
620 4241 L
620 4223 L
620 4348 L
620 4339 L
620 4093 L
620 4102 L
620 4111 L
620 4268 L
620 4255 L
620 4343 L
620 4180 L
620 4293 L
620 4232 L
620 4260 L
620 4405 L
620 3950 L
620 4179 L
620 4329 L
620 4228 L
620 4028 L
620 4105 L
620 4259 L
620 4201 L
620 4093 L
620 4284 L
620 4146 L
620 4160 L
620 4185 L
620 4248 L
620 4144 L
620 4297 L
620 4318 L
620 4194 L
620 4209 L
620 4200 L
620 4141 L
620 4135 L
620 4208 L
620 4224 L
620 4180 L
620 4105 L
620 4261 L
620 4124 L
620 4110 L
620 3997 L
620 4207 L
620 4212 L
620 4265 L
620 4011 L
620 4142 L
620 4368 L
620 4139 L
620 4206 L
620 3955 L
620 3932 L
620 3961 L
620 4128 L
620 4077 L
620 4098 L
620 4113 L
620 4239 L
620 4054 L
620 4059 L
620 4077 L
620 4193 L
620 3944 L
620 4090 L
620 4296 L
620 4123 L
620 3962 L
620 4131 L
620 4170 L
620 3996 L
620 4065 L
620 4013 L
620 4071 L
620 3992 L
620 4235 L
620 4125 L
620 3927 L
620 4027 L
620 4057 L
620 4000 L
620 3943 L
620 4031 L
620 3978 L
620 3993 L
620 4169 L
620 4181 L
620 4056 L
620 3931 L
620 4105 L
620 3898 L
620 3996 L
620 4190 L
620 3932 L
620 4219 L
620 4050 L
620 4240 L
620 4226 L
620 3958 L
620 4018 L
620 3869 L
620 4022 L
620 4072 L
620 4260 L
620 3844 L
620 4044 L
620 3989 L
620 3952 L
620 3970 L
620 3884 L
620 4059 L
620 3815 L
620 4207 L
620 3927 L
620 4055 L
620 3947 L
620 3994 L
620 4099 L
620 4243 L
620 3951 L
620 3927 L
620 4235 L
620 3961 L
620 4005 L
620 4028 L
620 4082 L
620 3998 L
620 4008 L
620 3989 L
620 4036 L
620 3819 L
620 4023 L
620 4005 L
620 3865 L
620 4014 L
620 3801 L
620 3843 L
620 4062 L
620 3931 L
620 3953 L
620 4072 L
620 3893 L
620 3982 L
620 3899 L
620 4061 L
620 3819 L
620 3894 L
620 4076 L
620 3795 L
620 4040 L
620 3819 L
620 3870 L
620 3976 L
620 3934 L
620 4098 L
620 3916 L
620 3927 L
620 3861 L
620 3804 L
620 4005 L
620 4075 L
620 3837 L
620 3920 L
620 3903 L
620 3882 L
620 3748 L
620 3838 L
620 4094 L
620 3826 L
620 3879 L
620 3724 L
620 3918 L
620 3840 L
620 3802 L
620 3729 L
620 3832 L
620 3907 L
620 3949 L
620 3747 L
620 3792 L
620 3812 L
620 3656 L
620 3822 L
620 3882 L
620 3654 L
620 3768 L
620 3911 L
620 3662 L
620 3648 L
620 3798 L
620 3826 L
620 3603 L
620 3607 L
620 3866 L
620 3627 L
620 3766 L
620 3652 L
620 3681 L
620 3763 L
620 3529 L
620 3606 L
620 3834 L
620 3571 L
620 3684 L
620 3658 L
620 3553 L
620 3759 L
620 3597 L
620 3557 L
620 3531 L
620 3487 L
620 3653 L
620 3531 L
620 3403 L
620 3650 L
620 3567 L
620 3483 L
620 3352 L
620 3751 L
620 3707 L
620 3592 L
620 3680 L
620 3657 L
620 3437 L
620 3614 L
620 3615 L
620 3505 L
620 3664 L
620 3506 L
620 3683 L
620 3353 L
620 3610 L
620 3609 L
620 3396 L
620 3365 L
620 3422 L
620 3540 L
620 3536 L
620 3475 L
620 3702 L
620 3604 L
620 3577 L
620 3450 L
620 3516 L
620 3492 L
620 3522 L
620 3525 L
620 3566 L
620 3456 L
620 3561 L
620 3302 L
620 3411 L
620 3631 L
620 3329 L
620 3519 L
620 3624 L
620 3492 L
620 3497 L
620 3372 L
620 3266 L
620 3558 L
620 3411 L
620 3444 L
620 3338 L
620 3484 L
620 3473 L
620 3369 L
620 3405 L
620 3427 L
620 3487 L
620 3479 L
620 3367 L
620 3417 L
620 3254 L
620 3388 L
620 3417 L
620 3346 L
620 3346 L
620 3414 L
620 3380 L
620 3447 L
620 3304 L
620 3302 L
620 3375 L
620 3292 L
620 3311 L
620 3431 L
620 3276 L
620 3601 L
620 3218 L
620 3160 L
620 3549 L
620 3171 L
620 3339 L
620 3396 L
620 3290 L
620 3360 L
620 3377 L
620 3487 L
620 3314 L
620 3227 L
620 3287 L
620 3430 L
620 3397 L
620 3319 L
620 3395 L
620 3216 L
620 3268 L
620 3371 L
620 3300 L
620 3385 L
620 3307 L
620 3419 L
620 3320 L
620 3155 L
620 3404 L
620 3199 L
620 3193 L
620 3474 L
620 3080 L
620 3343 L
620 3300 L
620 3141 L
620 3302 L
620 3285 L
620 3212 L
620 3215 L
620 3282 L
620 3313 L
620 3095 L
620 3203 L
620 3153 L
620 3314 L
620 3411 L
620 3333 L
620 3376 L
620 3171 L
620 3095 L
620 3286 L
620 3244 L
620 3112 L
620 3162 L
620 3124 L
620 3265 L
620 3062 L
620 3291 L
620 3394 L
620 3325 L
620 3192 L
620 3246 L
620 3015 L
620 3178 L
620 3147 L
620 3249 L
620 3224 L
620 3329 L
620 3194 L
620 3134 L
620 3285 L
620 3264 L
620 3100 L
620 3249 L
620 3221 L
620 3361 L
620 3180 L
620 3118 L
620 3108 L
620 3094 L
620 3199 L
620 3253 L
620 3175 L
620 3216 L
620 3171 L
620 3166 L
620 3241 L
620 3360 L
620 3269 L
620 3026 L
620 3305 L
620 3244 L
620 3197 L
620 3338 L
620 3075 L
620 3241 L
620 3226 L
620 3402 L
620 3287 L
620 3161 L
620 3057 L
620 3196 L
620 3365 L
620 3087 L
620 3168 L
620 3198 L
620 3092 L
620 3017 L
620 3265 L
620 3035 L
620 2998 L
620 3274 L
620 3212 L
620 3106 L
620 3182 L
620 3196 L
620 3193 L
620 3028 L
620 3352 L
620 3148 L
620 3115 L
620 3087 L
620 3234 L
620 3181 L
620 3113 L
620 3239 L
620 3073 L
620 3165 L
620 3176 L
620 3192 L
620 3207 L
620 3259 L
620 3080 L
620 3113 L
620 3196 L
620 3138 L
620 2966 L
620 2882 L
620 3262 L
620 3151 L
620 3131 L
620 3119 L
620 3248 L
620 3056 L
620 3279 L
620 3044 L
620 3176 L
620 3059 L
620 3056 L
620 3054 L
620 3061 L
620 3188 L
620 3106 L
620 3017 L
620 3157 L
620 3180 L
620 3100 L
620 3241 L
620 3109 L
620 3066 L
620 3281 L
620 3047 L
620 3310 L
620 3187 L
620 3101 L
620 3169 L
620 3072 L
620 3132 L
620 3223 L
620 3105 L
620 3145 L
620 3115 L
620 3137 L
620 3122 L
620 3067 L
620 3104 L
620 3182 L
620 2986 L
620 3084 L
620 3015 L
620 2917 L
620 3178 L
620 3013 L
620 3189 L
620 3203 L
620 3033 L
620 3098 L
620 2991 L
620 3234 L
620 3007 L
620 3264 L
620 3164 L
620 3119 L
620 3105 L
620 3204 L
620 3141 L
620 3211 L
620 3150 L
620 3150 L
620 3082 L
620 2984 L
620 3071 L
620 3226 L
620 3182 L
620 3089 L
620 3034 L
620 3160 L
620 3084 L
620 3146 L
620 3225 L
620 3204 L
620 3127 L
620 3241 L
620 3101 L
620 3166 L
620 3164 L
620 3211 L
620 3134 L
620 3192 L
620 3098 L
620 3185 L
620 3019 L
620 3095 L
620 3020 L
620 3291 L
620 3320 L
620 3267 L
620 3094 L
620 3226 L
620 3174 L
620 3199 L
620 3078 L
620 3037 L
620 3108 L
620 3059 L
620 3273 L
620 3071 L
620 2961 L
620 3267 L
620 3297 L
620 3171 L
620 3136 L
620 3038 L
620 3068 L
620 2947 L
620 3109 L
620 2903 L
620 3063 L
620 3148 L
620 3033 L
620 3244 L
620 3089 L
620 3026 L
620 2823 L
620 3188 L
620 3170 L
620 3014 L
620 2992 L
620 3178 L
620 3204 L
620 3048 L
620 3073 L
620 3092 L
620 3080 L
620 3075 L
620 3020 L
620 3218 L
620 3067 L
620 3146 L
620 3073 L
620 3227 L
620 3115 L
620 3109 L
620 3043 L
620 3146 L
620 3137 L
620 3145 L
620 3216 L
620 3067 L
620 3115 L
620 3414 L
620 3211 L
620 3250 L
620 3281 L
620 3157 L
620 3034 L
620 3078 L
620 3273 L
620 3264 L
620 3259 L
620 3063 L
620 3192 L
620 3090 L
620 3134 L
620 3133 L
620 3229 L
620 3184 L
620 3223 L
620 3104 L
620 3191 L
620 3105 L
620 3231 L
620 3379 L
620 3155 L
620 3119 L
620 3131 L
620 3237 L
620 3126 L
620 3190 L
620 3208 L
620 2916 L
620 3117 L
620 3161 L
620 3098 L
620 3204 L
620 3166 L
620 3207 L
620 3107 L
620 3239 L
620 3152 L
620 3211 L
620 3146 L
620 3310 L
620 3164 L
620 3184 L
620 3132 L
620 3146 L
620 3065 L
620 3052 L
620 3208 L
620 3399 L
620 3119 L
620 3095 L
620 2988 L
620 3134 L
620 3279 L
620 3306 L
620 3216 L
620 3258 L
620 3161 L
620 3169 L
620 3199 L
620 3227 L
620 3042 L
620 3239 L
620 3237 L
620 3277 L
620 3173 L
620 3230 L
620 3236 L
620 3276 L
620 3297 L
620 3044 L
620 3207 L
620 3141 L
620 3284 L
620 3183 L
620 3232 L
620 3109 L
620 2877 L
620 3054 L
620 3217 L
620 3250 L
620 3169 L
620 3311 L
620 3318 L
620 3156 L
620 3143 L
620 3139 L
620 3506 L
620 3151 L
620 3244 L
620 3083 L
620 3187 L
620 3025 L
620 3290 L
620 3026 L
620 3235 L
620 3068 L
620 3185 L
620 3329 L
620 3153 L
620 3218 L
620 3254 L
620 3187 L
620 3173 L
620 3014 L
620 3187 L
620 3300 L
620 3277 L
620 3263 L
620 3134 L
620 3011 L
620 3068 L
620 3020 L
620 3097 L
620 3519 L
620 3234 L
620 3195 L
620 3150 L
620 3220 L
620 3417 L
620 3123 L
620 3327 L
620 3051 L
620 3202 L
620 3048 L
620 3175 L
620 3113 L
620 3180 L
620 3240 L
620 3178 L
620 3063 L
620 3293 L
620 3105 L
620 3301 L
620 3248 L
620 3453 L
620 2914 L
620 3162 L
620 3222 L
620 3255 L
620 3291 L
620 3006 L
620 3271 L
620 3342 L
620 3287 L
620 3056 L
620 3020 L
620 3110 L
620 3147 L
620 3230 L
620 3391 L
620 3328 L
620 3339 L
620 3213 L
620 3008 L
620 3072 L
620 3061 L
620 3117 L
620 3142 L
620 3146 L
620 3238 L
620 3119 L
620 3241 L
620 3164 L
620 3193 L
620 3374 L
620 3111 L
620 3108 L
620 3184 L
620 3183 L
620 3244 L
620 3119 L
620 3139 L
620 3325 L
620 3085 L
620 3288 L
620 3145 L
620 3357 L
620 3286 L
620 3379 L
620 3308 L
620 3103 L
620 3053 L
620 3213 L
620 3255 L
620 3370 L
620 3194 L
620 3239 L
620 3148 L
620 3153 L
620 3293 L
620 3202 L
620 3073 L
620 3014 L
620 3081 L
620 3375 L
620 3127 L
620 3287 L
620 3235 L
620 3310 L
620 3002 L
620 3174 L
620 3038 L
620 3315 L
620 3332 L
620 3113 L
620 3194 L
620 3150 L
620 3320 L
620 3166 L
620 3269 L
620 3265 L
620 3117 L
620 3239 L
620 3175 L
620 3198 L
620 3388 L
620 3152 L
620 3058 L
620 3281 L
620 3210 L
620 3273 L
620 3217 L
620 3160 L
620 3315 L
620 3169 L
620 3399 L
620 3145 L
620 3295 L
620 3216 L
620 3243 L
620 3348 L
620 3300 L
620 3324 L
620 3283 L
620 3176 L
620 3277 L
620 3104 L
620 3199 L
620 3230 L
620 3215 L
620 3123 L
620 3344 L
620 3112 L
620 3255 L
620 3240 L
620 3244 L
620 3416 L
620 3198 L
620 3156 L
620 3363 L
620 3182 L
620 3180 L
620 3268 L
620 3310 L
620 3306 L
620 3450 L
620 3272 L
620 3355 L
620 3188 L
620 3258 L
620 3131 L
620 3319 L
620 3199 L
620 3202 L
620 3337 L
620 3220 L
620 3362 L
620 3229 L
620 3365 L
620 3183 L
620 3374 L
620 3184 L
620 3198 L
620 3258 L
620 3241 L
620 3180 L
620 3368 L
620 3262 L
620 3313 L
620 3151 L
620 3249 L
620 3217 L
620 3306 L
620 3137 L
620 3217 L
620 3328 L
620 3225 L
620 3248 L
620 3336 L
620 3203 L
620 3255 L
620 3426 L
620 3232 L
620 3274 L
620 3375 L
620 3343 L
620 3370 L
620 3230 L
620 3227 L
620 3274 L
620 3192 L
620 3269 L
620 3244 L
620 3212 L
620 3215 L
620 3338 L
620 3191 L
620 3203 L
620 3357 L
620 3218 L
620 3364 L
620 3375 L
620 3338 L
620 3192 L
620 3346 L
620 3239 L
620 3227 L
620 3435 L
620 3243 L
620 3498 L
620 3505 L
620 3096 L
620 3314 L
620 3316 L
620 3255 L
620 3246 L
620 3249 L
620 3274 L
620 3263 L
620 3362 L
620 3369 L
620 3302 L
620 3210 L
620 3166 L
620 3115 L
620 3391 L
620 3363 L
620 3338 L
620 3385 L
620 3237 L
620 3147 L
620 3327 L
620 3139 L
620 3453 L
620 3259 L
620 3390 L
620 3222 L
620 3263 L
620 3286 L
620 3273 L
620 3310 L
620 3296 L
620 3153 L
620 3286 L
620 3231 L
620 3386 L
620 3282 L
620 3412 L
620 3404 L
620 3348 L
620 3245 L
620 3180 L
620 3278 L
620 3309 L
620 3393 L
620 3425 L
620 3202 L
620 3282 L
620 3307 L
620 3292 L
620 3319 L
620 3245 L
620 3383 L
620 3455 L
620 3428 L
620 3372 L
620 3283 L
620 3244 L
620 3395 L
620 3207 L
620 3297 L
620 3239 L
620 3356 L
620 3308 L
620 3040 L
620 3358 L
620 3358 L
620 3310 L
620 3164 L
620 3370 L
620 3352 L
620 3288 L
620 3365 L
620 3248 L
620 3164 L
620 3291 L
620 3262 L
620 3213 L
620 3310 L
620 3436 L
620 3296 L
620 3385 L
620 3315 L
620 3271 L
620 3454 L
620 3341 L
620 3352 L
620 3221 L
620 3250 L
620 3323 L
620 3287 L
620 3454 L
620 3430 L
620 3403 L
620 3015 L
620 3394 L
620 3384 L
620 3380 L
620 3463 L
620 3307 L
620 3326 L
620 3253 L
620 3437 L
620 3342 L
620 3466 L
620 3348 L
620 3328 L
620 3512 L
620 3352 L
620 3339 L
620 3379 L
620 3431 L
620 3251 L
620 3267 L
620 3198 L
620 3341 L
620 3342 L
620 3176 L
620 3332 L
620 3361 L
620 3405 L
620 3430 L
620 3461 L
620 3109 L
620 3398 L
620 3393 L
620 3254 L
620 3439 L
620 3295 L
620 3482 L
620 3127 L
620 3366 L
620 3307 L
620 3472 L
620 3295 L
620 3338 L
620 3368 L
620 3396 L
620 3367 L
620 3301 L
620 3376 L
620 3521 L
620 3540 L
620 3329 L
620 3361 L
620 3235 L
620 3324 L
620 3324 L
620 3240 L
620 3406 L
620 3435 L
620 3493 L
620 3520 L
620 3119 L
620 3338 L
620 3540 L
620 3227 L
620 3288 L
620 3268 L
620 3369 L
620 3306 L
620 3306 L
620 3281 L
620 3403 L
620 3342 L
620 3202 L
620 3379 L
620 3114 L
620 3187 L
620 3362 L
620 3306 L
620 3385 L
620 3222 L
620 3250 L
620 3240 L
620 3463 L
620 3306 L
620 3374 L
620 3488 L
620 3305 L
620 3365 L
620 3241 L
620 3433 L
620 3460 L
620 3427 L
620 3193 L
620 3239 L
620 3278 L
620 3347 L
620 3346 L
620 3267 L
620 3358 L
620 3262 L
620 3309 L
620 3273 L
620 3402 L
620 3464 L
620 3371 L
620 3323 L
620 3347 L
620 3365 L
620 3520 L
620 3304 L
620 3404 L
620 3313 L
620 3305 L
620 3404 L
620 3237 L
620 3508 L
620 3297 L
620 3576 L
620 3515 L
620 3288 L
620 3385 L
620 3262 L
620 3381 L
620 3300 L
620 3520 L
620 3386 L
620 3096 L
620 3483 L
620 3414 L
620 3183 L
620 3389 L
620 3204 L
620 3376 L
620 3495 L
620 3384 L
620 3357 L
620 3358 L
620 3388 L
620 3403 L
620 3425 L
620 3376 L
620 3451 L
620 3408 L
620 3338 L
620 3416 L
620 3323 L
620 3342 L
620 3403 L
620 3244 L
620 3304 L
620 3440 L
620 3376 L
620 3194 L
620 3251 L
620 3272 L
620 3511 L
620 3445 L
620 3323 L
620 3091 L
620 3391 L
620 3449 L
620 3277 L
620 3404 L
620 3138 L
620 3362 L
620 3309 L
620 3410 L
620 3557 L
620 3343 L
620 3390 L
620 3498 L
620 3346 L
620 3436 L
620 3204 L
620 3579 L
620 3262 L
620 3279 L
620 3397 L
620 3355 L
620 3479 L
620 3372 L
620 3457 L
620 3277 L
620 3650 L
620 3331 L
620 3475 L
620 3408 L
620 3397 L
620 3550 L
620 3212 L
620 3552 L
620 3681 L
620 3494 L
620 3175 L
620 3387 L
620 3436 L
620 3487 L
620 3499 L
620 3504 L
620 3703 L
620 3419 L
620 3389 L
620 3457 L
620 3355 L
620 3282 L
620 3509 L
620 3379 L
620 3570 L
620 3218 L
620 3745 L
620 3596 L
620 3306 L
620 3399 L
620 3565 L
620 3608 L
620 3436 L
620 3496 L
620 3375 L
620 3486 L
620 3667 L
620 3579 L
620 3389 L
620 3526 L
620 3503 L
620 3596 L
620 3440 L
620 3555 L
620 3596 L
620 3518 L
620 3474 L
620 3615 L
620 3440 L
620 3457 L
620 3574 L
620 3513 L
620 3584 L
620 3610 L
620 3606 L
620 3604 L
620 3540 L
620 3496 L
620 3596 L
620 3548 L
620 3494 L
620 3521 L
620 3508 L
620 3565 L
620 3593 L
620 3462 L
620 3640 L
620 3572 L
620 3693 L
620 3686 L
620 3475 L
620 3536 L
620 3553 L
620 3581 L
620 3448 L
620 3572 L
620 3392 L
620 3720 L
620 3538 L
620 3630 L
620 3618 L
620 3633 L
620 3637 L
620 3577 L
620 3545 L
620 3810 L
620 3459 L
620 3406 L
620 3676 L
620 3525 L
620 3521 L
620 3564 L
620 3694 L
620 3643 L
620 3564 L
620 3523 L
620 3513 L
620 3611 L
620 3491 L
620 3623 L
620 3470 L
620 3518 L
620 3606 L
620 3671 L
620 3593 L
620 3650 L
620 3716 L
620 3526 L
620 3535 L
620 3526 L
620 3564 L
620 3586 L
620 3560 L
620 3520 L
620 3547 L
620 3377 L
620 3294 L
620 3698 L
620 3694 L
620 3470 L
620 3767 L
620 3438 L
620 3672 L
620 3363 L
620 3776 L
620 3511 L
620 3632 L
620 3696 L
620 3608 L
620 3430 L
620 3525 L
620 3630 L
620 3657 L
620 3516 L
620 3589 L
620 3676 L
620 3577 L
620 3616 L
620 3618 L
620 3452 L
620 3506 L
620 3567 L
620 3274 L
620 3672 L
620 3401 L
620 3375 L
620 3521 L
620 3572 L
620 3407 L
620 3382 L
620 3464 L
620 3633 L
620 3525 L
620 3440 L
620 3496 L
620 3530 L
620 3367 L
620 3628 L
620 3643 L
620 3552 L
620 3649 L
620 3625 L
620 3710 L
620 3689 L
620 3450 L
620 3555 L
620 3498 L
620 3470 L
620 3632 L
620 3733 L
620 3406 L
620 3459 L
620 3537 L
620 3467 L
620 3701 L
620 3241 L
620 3565 L
620 3531 L
620 3297 L
620 3638 L
620 3704 L
620 3786 L
620 3749 L
620 3601 L
620 3805 L
620 3555 L
620 3601 L
620 3582 L
620 3418 L
620 3476 L
620 3464 L
620 3718 L
620 3406 L
620 3382 L
620 3520 L
620 3610 L
620 3460 L
620 3577 L
620 3530 L
620 3394 L
620 3319 L
620 3606 L
620 3442 L
620 3657 L
620 3350 L
620 3613 L
620 3704 L
620 3511 L
620 3375 L
620 3518 L
620 3455 L
620 3572 L
620 3604 L
620 3460 L
620 3513 L
620 3425 L
620 3759 L
620 3516 L
620 3557 L
620 3543 L
620 3698 L
620 3413 L
620 3537 L
620 3470 L
620 3589 L
620 3469 L
620 3489 L
620 3372 L
620 3581 L
620 3474 L
620 3528 L
620 3564 L
620 3521 L
620 3591 L
620 3513 L
620 3547 L
620 3537 L
620 3577 L
620 3732 L
620 3521 L
620 3465 L
620 3669 L
620 3533 L
620 3611 L
620 3626 L
620 3443 L
620 3598 L
620 3404 L
620 3704 L
620 3369 L
620 3416 L
620 3363 L
620 3618 L
620 3430 L
620 3655 L
620 3574 L
620 3214 L
620 3503 L
620 3611 L
620 3438 L
620 3666 L
620 3509 L
620 3606 L
620 3535 L
620 3474 L
620 3206 L
620 3610 L
620 3396 L
620 3698 L
620 3526 L
620 3582 L
620 3655 L
620 3231 L
620 3421 L
620 3409 L
620 3494 L
620 3637 L
620 3477 L
620 3335 L
620 3610 L
620 3452 L
620 3372 L
620 3437 L
620 3306 L
620 3518 L
620 3591 L
620 3623 L
620 3504 L
620 3645 L
620 3633 L
620 3396 L
620 3603 L
620 3433 L
620 3476 L
620 3628 L
620 3348 L
620 3425 L
620 3538 L
620 3674 L
620 3436 L
620 3387 L
620 3374 L
620 3470 L
620 3526 L
620 3535 L
620 3380 L
620 3501 L
620 3562 L
620 3525 L
620 3626 L
620 3596 L
620 3569 L
620 3267 L
620 3545 L
620 3396 L
620 3759 L
620 3560 L
620 3528 L
620 3560 L
620 3506 L
620 3336 L
620 3547 L
620 3599 L
620 3552 L
620 3552 L
620 3377 L
620 3397 L
620 3504 L
620 3397 L
620 3491 L
620 3382 L
620 3431 L
620 3493 L
620 3455 L
620 3489 L
620 3508 L
620 3504 L
620 3442 L
620 3559 L
620 3598 L
620 3511 L
620 3565 L
620 3598 L
620 3564 L
620 3450 L
620 3552 L
620 3486 L
620 3406 L
620 3440 L
620 3620 L
L2 C02 COSGR

%
%================
% Legend - Begin
%================
%
GSN 4240 5180 M
4480 5180 L
LWMC SL  C02 COSGR
GSN 4540 5141 M helvM (1.0 uM) show grestore
%
%================
% Legend - End
%================
%

%
% Main frame
%
L10
GSN 
620 1700 M
4220 1700 L
4220 5300 L
620 5300 L
closepath SGR

%
% X axis: large tics
%
L10
%
% X axis: small tics
%
L5
%
% Y axis: large tics
%
L10
GSN 620 1883 M 54 0 rL SGR
GSN 4220 1883 M -54 0 rL SGR
helvS (-0.05) 560 1883 ylabel
GSN 620 3551 M 54 0 rL SGR
GSN 4220 3551 M -54 0 rL SGR
helvS (0) 560 3551 ylabel
GSN 620 5219 M 54 0 rL SGR
GSN 4220 5219 M -54 0 rL SGR
helvS (0.05) 560 5219 ylabel
%
% Y axis: small tics
%
L5
GSN 620 1883 M 36 0 rL SGR
GSN 4220 1883 M -36 0 rL SGR
GSN 620 2217 M 36 0 rL SGR
GSN 4220 2217 M -36 0 rL SGR
GSN 620 2551 M 36 0 rL SGR
GSN 4220 2551 M -36 0 rL SGR
GSN 620 2884 M 36 0 rL SGR
GSN 4220 2884 M -36 0 rL SGR
GSN 620 3218 M 36 0 rL SGR
GSN 4220 3218 M -36 0 rL SGR
GSN 620 3551 M 36 0 rL SGR
GSN 4220 3551 M -36 0 rL SGR
GSN 620 3885 M 36 0 rL SGR
GSN 4220 3885 M -36 0 rL SGR
GSN 620 4218 M 36 0 rL SGR
GSN 4220 4218 M -36 0 rL SGR
GSN 620 4552 M 36 0 rL SGR
GSN 4220 4552 M -36 0 rL SGR
GSN 620 4885 M 36 0 rL SGR
GSN 4220 4885 M -36 0 rL SGR
GSN 620 5219 M 36 0 rL SGR
GSN 4220 5219 M -36 0 rL SGR

%
% X axis - residual panel
%
GSN L5 620 3551 M 4220 3551 L SDA G50 SGR

%
% X-Axis label:
%
gsave 620 1370 M 
[
[(Helvetica) 180 0 true true 0 (t)]
[(Helvetica) 180 0 true true 0 (i)]
[(Helvetica) 180 0 true true 0 (m)]
[(Helvetica) 180 0 true true 0 (e)]
] 0 MCshow grestore

%
% Y-Axis label:
%
gsave 234 3500 M 
currentpoint gsave translate 90 rotate 0 0 moveto
[
[(Helvetica) 180 0 true true 0 (r)]
[(Helvetica) 180 0 true true 0 (e)]
[(Helvetica) 180 0 true true 0 (s)]
[(Helvetica) 180 0 true true 0 (i)]
[(Helvetica) 180 0 true true 0 (d)]
[(Helvetica) 180 0 true true 0 (u)]
[(Helvetica) 180 0 true true 0 (a)]
[(Helvetica) 180 0 true true 0 (l)]
[(Helvetica) 180 0 true true 0 (s)]
] 0 MCshow grestore

end
showpage
%%Trailer
%%EOF
