%!PS-Adobe-3.0 EPSF-3.0
%%BoundingBox: 0 0 514 550
%%Creator: BioKin Ltd.
%%DocumentFonts: Symbol Helvetica
%%EndComments
%
/bkdict 256 dict def
bkdict begin
/M {moveto} def 
/R {rmoveto} def
/L {lineto} def
/rL {rlineto} def
/GSN {gsave newpath} def
/SGR {stroke grestore} def
/COSGR {gsave setrgbcolor stroke grestore grestore} def
/SL {setlinewidth} def
/LWMB {12} def             % line width - model curves, black & white
/LWMC {10} def             % line width - model curves, color
/L2 {2.5 setlinewidth} def
/L5 {5 setlinewidth} def
/L10 {10 setlinewidth} def
/G50 {0.5 setgray} def
/SDA {[10  20] 0 setdash} def % axes
/helvT {/Helvetica findfont 100 scalefont setfont} def % tiny
/helvS {/Helvetica findfont 125 scalefont setfont} def % small
/helvM {/Helvetica findfont 150 scalefont setfont} def % medium
/helvL {/Helvetica findfont 175 scalefont setfont} def % large
/xlabel {gsave M dup
   stringwidth exch -0.5 mul exch rmoveto show grestore} def 
/ylabel {gsave M 90 rotate dup
   stringwidth exch -0.5 mul exch rmoveto show grestore} def
/ylabelresid {gsave M dup
   stringwidth exch -1 mul exch rmoveto show grestore} def
% ======
% Shapes
% ======
% Circle:
/Circ {0 360 arc closepath} def
%
% Square:
/Squa {dup dup -0.5 mul dup dup R -2 mul 0 exch rL 1 mul 0 rL dup 0 exch -1 mul rL closepath} def
%
% Triangle Up:
/TriU {dup dup dup -0.4 mul exch -0.5 mul exch R dup 0.5 mul exch rL dup -1 mul exch 0.5 mul exch rL closepath} def 
%
% Triangle Down:
/TriD {dup dup dup 0.4 mul exch -0.5 mul exch R dup 0.5 mul exch -1 mul rL dup 0.5 mul exch rL closepath} def 
%
% Diamond:
/Diam {45 rotate Squa} def
% ======
% Fills
% ======
/GRF {gsave setgray fill grestore} def                    % gray-level Fill
/COF {gsave setrgbcolor fill grestore} def                % color fill
% ======
% Colors
% ======
/C01 {1.00	0.00	0.00} def      % Red
/C02 {0.00	0.00	1.00} def      % Blue
/C03 {0.00	0.39	0.00} def      % Dark Green
/C04 {0.78	0.08	0.52} def      % Medium Violet Red
/C05 {0.55	0.27	0.07} def      % Saddle Brown
/C06 {0.10	0.70	0.70} def      % (cyan)
/C07 {1.00	0.55	0.00} def      % Dark Orange
/C08 {0.63	0.13	0.94} def      % Purple
/C09 {0.00	0.75	1.00} def      % Deep Sky Blue
/C10 {0.20	0.80	0.20} def      % Lime Green
/C11 {0.47	0.53	0.60} def      % Light Slate Gray
/C12 {0.00	0.00	0.00} def      % Black            % or: {0.19	0.31	0.31} def      % Dark Slate Gray
%
/LGR {0.75} def % light gray
/DGR {0.33} def % dark gray
%
% =============
% Dash patterns
% =============
/dash01 { [80  20] 0 setdash } def
/dash02 { [40  20] 0 setdash } def
/dash03 { [80  20  10  20] 0 setdash } def
/dash04 { [40  20  10  20] 0 setdash } def
/dash05 { [80  20  10  10  10  20] 0 setdash } def
/dash06 { [40  20  10  10  10  20] 0 setdash } def
/dash07 { [10  10] 0 setdash } def
%
/MFshow {
   { dup 5 get 3 ge
     { 5 get 3 eq {gsave} {grestore} ifelse }
     {dup dup 0 get findfont exch 1 get scalefont setfont
     [ currentpoint ] exch dup 2 get 0 exch R dup 5 get 2 ne {dup dup 6
     get exch 4 get {show} {stringwidth pop 0 R} ifelse }if dup 5 get 0 eq
     {dup 3 get {2 get neg 0 exch R pop} {pop aload pop M} ifelse} {dup 5
     get 1 eq {dup 2 get exch dup 3 get exch 6 get stringwidth pop -2 div
     dup 0 R} {dup 6 get stringwidth pop -2 div 0 R 6 get
     show 2 index {aload pop M neg 3 -1 roll neg R pop pop} {pop pop pop
     pop aload pop M} ifelse }ifelse }ifelse }
     ifelse }
   forall} bind def
/MFwidth {0 exch {dup 3 get{dup dup 0 get findfont exch 1 get scalefont
     setfont 6 get stringwidth pop add} {pop} ifelse} forall} bind def
/MCshow { currentpoint stroke M
  exch dup MFwidth -2 div 3 -1 roll R MFshow } def
%
end
%%EndProlog
bkdict begin
0.1 0.1 scale
%
% Residuals:
%
GSN 620 4863 M
620 3988 L
620 3747 L
620 3787 L
620 3918 L
620 3264 L
620 4211 L
620 3826 L
620 3925 L
620 3796 L
620 3297 L
620 3933 L
620 3544 L
620 3459 L
620 3755 L
620 3519 L
620 3486 L
620 3856 L
620 3331 L
620 3814 L
620 4005 L
620 3787 L
620 4177 L
620 3704 L
620 4110 L
620 4303 L
620 3710 L
620 4027 L
620 4025 L
620 4335 L
620 3835 L
620 3560 L
620 4513 L
620 3845 L
620 4302 L
620 4121 L
620 4037 L
620 4126 L
620 4078 L
620 4020 L
620 3685 L
620 4251 L
620 4048 L
620 4074 L
620 4118 L
620 3888 L
620 4218 L
620 3766 L
620 3824 L
620 4034 L
620 4074 L
620 3747 L
620 3634 L
620 3588 L
620 4219 L
620 3936 L
620 4232 L
620 3944 L
620 4191 L
620 4265 L
620 3942 L
620 4302 L
620 4309 L
620 4528 L
620 4088 L
620 3868 L
620 3898 L
620 4017 L
620 3501 L
620 4149 L
620 4061 L
620 3894 L
620 4609 L
620 3719 L
620 4055 L
620 4423 L
620 3683 L
620 3659 L
620 4185 L
620 4017 L
620 4022 L
620 3964 L
620 4097 L
620 4374 L
620 3987 L
620 3759 L
620 4140 L
620 3668 L
620 3833 L
620 3889 L
620 4256 L
620 3673 L
620 4168 L
620 3911 L
620 3696 L
620 3766 L
620 3628 L
620 3603 L
620 3888 L
620 3635 L
620 4087 L
620 3702 L
620 3891 L
620 3482 L
620 3833 L
620 3463 L
620 3713 L
620 3580 L
620 3917 L
620 3798 L
620 3829 L
620 3538 L
620 3283 L
620 3193 L
620 3555 L
620 3484 L
620 3610 L
620 3946 L
620 3734 L
620 3520 L
620 3508 L
620 3409 L
620 3538 L
620 3251 L
620 3634 L
620 3499 L
620 3175 L
620 3281 L
620 3417 L
620 3416 L
620 3325 L
620 3562 L
620 3336 L
620 3610 L
620 2982 L
620 3628 L
620 3115 L
620 3915 L
620 3522 L
620 3678 L
620 3510 L
620 3006 L
620 3604 L
620 3597 L
620 3538 L
620 3382 L
620 3669 L
620 3062 L
620 3326 L
620 3195 L
620 3524 L
620 3316 L
620 3431 L
620 3316 L
620 3050 L
620 3843 L
620 3374 L
620 3283 L
620 3572 L
620 2869 L
620 3550 L
620 3653 L
620 3461 L
620 3336 L
620 3475 L
620 3311 L
620 3351 L
620 3297 L
620 3432 L
620 3526 L
620 3469 L
620 3217 L
620 3440 L
620 3661 L
620 3491 L
620 3262 L
620 3479 L
620 3136 L
620 3558 L
620 3486 L
620 3265 L
620 3696 L
620 3365 L
620 3454 L
620 3285 L
620 3152 L
620 3235 L
620 3341 L
620 3194 L
620 4040 L
620 3611 L
620 3271 L
620 3625 L
620 3103 L
620 3660 L
620 3723 L
620 3769 L
620 3528 L
620 3416 L
620 3492 L
620 3304 L
620 3335 L
620 3667 L
620 3477 L
620 3493 L
620 3442 L
620 3721 L
620 3534 L
620 3296 L
620 3471 L
620 3184 L
620 3776 L
620 2860 L
620 3563 L
620 3328 L
620 3640 L
620 3413 L
620 3374 L
620 3469 L
620 3476 L
620 3592 L
620 3723 L
620 3174 L
620 3393 L
620 3344 L
620 3515 L
620 3116 L
620 3598 L
620 3505 L
620 3242 L
620 3590 L
620 3293 L
620 3509 L
620 3317 L
620 3294 L
620 3531 L
620 3621 L
620 3709 L
620 3266 L
620 3509 L
620 3681 L
620 3364 L
620 3668 L
620 3342 L
620 2949 L
620 3504 L
620 3649 L
620 3509 L
620 3216 L
620 3280 L
620 3852 L
620 3366 L
620 3421 L
620 3581 L
620 3887 L
620 3122 L
620 3073 L
620 3431 L
620 3707 L
620 3977 L
620 3490 L
620 3344 L
620 3772 L
620 3430 L
620 3573 L
620 3215 L
620 3394 L
620 2928 L
620 3346 L
620 3182 L
620 3831 L
620 3662 L
620 3995 L
620 3282 L
620 3350 L
620 3780 L
620 3633 L
620 3654 L
620 3275 L
620 3029 L
620 3434 L
620 3692 L
620 2827 L
620 3956 L
620 3568 L
620 3665 L
620 3439 L
620 3729 L
620 3503 L
620 3094 L
620 3030 L
620 3521 L
620 3495 L
620 3422 L
620 3508 L
620 3411 L
620 3822 L
620 3479 L
620 3202 L
620 3697 L
620 3498 L
620 3795 L
620 3967 L
620 3528 L
620 3313 L
620 3400 L
620 3504 L
620 3655 L
620 3184 L
620 3031 L
620 3558 L
620 3470 L
620 4018 L
620 3724 L
620 3570 L
620 3450 L
620 3499 L
620 3651 L
620 4086 L
620 3783 L
620 3857 L
620 3676 L
620 3260 L
620 3712 L
620 3672 L
620 3321 L
620 3545 L
620 3858 L
620 3687 L
620 3438 L
620 3987 L
620 3391 L
620 3547 L
620 3592 L
620 4064 L
620 3185 L
620 3617 L
620 3545 L
620 3479 L
620 3497 L
620 3463 L
620 3350 L
620 3282 L
620 3581 L
620 3627 L
620 3968 L
620 3004 L
620 3663 L
620 3672 L
620 3533 L
620 3610 L
620 3568 L
620 3586 L
620 3830 L
620 3396 L
620 3767 L
620 3260 L
620 3303 L
620 3268 L
620 3128 L
620 3450 L
620 3273 L
620 3160 L
620 3271 L
620 3889 L
620 3135 L
620 3430 L
620 3239 L
620 3178 L
620 3273 L
620 3892 L
620 3015 L
620 3114 L
620 3008 L
620 3173 L
620 3004 L
620 2972 L
620 2970 L
620 3094 L
620 3228 L
620 2703 L
620 3185 L
620 2929 L
620 3393 L
620 3307 L
620 3017 L
620 3176 L
620 2795 L
620 2775 L
620 3015 L
620 2861 L
620 3176 L
620 2877 L
620 3291 L
620 2900 L
620 3108 L
620 3405 L
620 2822 L
620 2908 L
620 2997 L
620 2675 L
620 2678 L
620 3248 L
620 3194 L
620 2315 L
620 2872 L
620 3352 L
620 2865 L
620 3173 L
620 3273 L
620 3276 L
620 2637 L
620 3271 L
620 2705 L
620 3212 L
620 2625 L
620 2666 L
620 2609 L
620 2920 L
620 3044 L
620 3225 L
620 2906 L
620 2951 L
620 2967 L
620 2908 L
620 2943 L
620 3072 L
620 2789 L
620 2838 L
620 3187 L
620 2274 L
620 2388 L
620 2926 L
620 2879 L
620 2924 L
620 3121 L
620 2628 L
620 3117 L
620 2986 L
620 2669 L
620 3208 L
620 3153 L
620 2872 L
620 3090 L
620 2818 L
620 2922 L
620 2795 L
620 2963 L
620 3126 L
620 2965 L
620 2784 L
620 2209 L
620 3060 L
620 3180 L
620 3058 L
620 2503 L
620 2537 L
620 2872 L
620 3156 L
620 2673 L
620 2553 L
620 3131 L
620 2986 L
620 2786 L
620 2524 L
620 2512 L
620 2832 L
620 2711 L
620 2576 L
620 2600 L
620 2338 L
620 2848 L
620 2413 L
620 2772 L
620 2779 L
620 3031 L
620 2623 L
620 2655 L
620 3060 L
620 2951 L
620 2678 L
620 2360 L
620 2530 L
620 2698 L
620 2723 L
620 2437 L
620 2818 L
620 2850 L
620 2849 L
620 2811 L
620 2881 L
620 2148 L
620 2618 L
620 2347 L
620 2696 L
620 2866 L
620 2286 L
620 3251 L
620 2678 L
620 2990 L
620 2841 L
620 2268 L
620 2369 L
620 2383 L
620 2829 L
620 2392 L
620 2136 L
620 2945 L
620 2467 L
620 2523 L
620 2657 L
620 2327 L
620 2422 L
620 2940 L
620 2428 L
620 2811 L
620 2519 L
620 2598 L
620 3088 L
620 2721 L
620 2913 L
620 2193 L
620 2560 L
620 2655 L
620 2865 L
620 2426 L
620 2524 L
620 2746 L
620 2209 L
620 2687 L
620 2601 L
620 2714 L
620 3019 L
L2 C07 COSGR

%
%================
% Legend - Begin
%================
%
GSN 4240 5180 M
4480 5180 L
LWMC SL  C07 COSGR
GSN 4540 5141 M helvM (4.0 uM) show grestore
%
%================
% Legend - End
%================
%

%
% Main frame
%
L10
GSN 
620 1700 M
4220 1700 L
4220 5300 L
620 5300 L
closepath SGR

%
% X axis: large tics
%
L10
%
% X axis: small tics
%
L5
%
% Y axis: large tics
%
L10
GSN 620 2430 M 54 0 rL SGR
GSN 4220 2430 M -54 0 rL SGR
helvS (-0.01) 560 2430 ylabel
GSN 620 3369 M 54 0 rL SGR
GSN 4220 3369 M -54 0 rL SGR
helvS (0) 560 3369 ylabel
GSN 620 4307 M 54 0 rL SGR
GSN 4220 4307 M -54 0 rL SGR
helvS (0.01) 560 4307 ylabel
GSN 620 5246 M 54 0 rL SGR
GSN 4220 5246 M -54 0 rL SGR
helvS (0.02) 560 5246 ylabel
%
% Y axis: small tics
%
L5
GSN 620 1726 M 36 0 rL SGR
GSN 4220 1726 M -36 0 rL SGR
GSN 620 1960 M 36 0 rL SGR
GSN 4220 1960 M -36 0 rL SGR
GSN 620 2195 M 36 0 rL SGR
GSN 4220 2195 M -36 0 rL SGR
GSN 620 2430 M 36 0 rL SGR
GSN 4220 2430 M -36 0 rL SGR
GSN 620 2664 M 36 0 rL SGR
GSN 4220 2664 M -36 0 rL SGR
GSN 620 2899 M 36 0 rL SGR
GSN 4220 2899 M -36 0 rL SGR
GSN 620 3134 M 36 0 rL SGR
GSN 4220 3134 M -36 0 rL SGR
GSN 620 3369 M 36 0 rL SGR
GSN 4220 3369 M -36 0 rL SGR
GSN 620 3603 M 36 0 rL SGR
GSN 4220 3603 M -36 0 rL SGR
GSN 620 3838 M 36 0 rL SGR
GSN 4220 3838 M -36 0 rL SGR
GSN 620 4073 M 36 0 rL SGR
GSN 4220 4073 M -36 0 rL SGR
GSN 620 4307 M 36 0 rL SGR
GSN 4220 4307 M -36 0 rL SGR
GSN 620 4542 M 36 0 rL SGR
GSN 4220 4542 M -36 0 rL SGR
GSN 620 4777 M 36 0 rL SGR
GSN 4220 4777 M -36 0 rL SGR
GSN 620 5011 M 36 0 rL SGR
GSN 4220 5011 M -36 0 rL SGR
GSN 620 5246 M 36 0 rL SGR
GSN 4220 5246 M -36 0 rL SGR

%
% X axis - residual panel
%
GSN L5 620 3369 M 4220 3369 L SDA G50 SGR

%
% X-Axis label:
%
gsave 620 1370 M 
[
[(Helvetica) 180 0 true true 0 (t)]
[(Helvetica) 180 0 true true 0 (i)]
[(Helvetica) 180 0 true true 0 (m)]
[(Helvetica) 180 0 true true 0 (e)]
] 0 MCshow grestore

%
% Y-Axis label:
%
gsave 234 3499 M 
currentpoint gsave translate 90 rotate 0 0 moveto
[
[(Helvetica) 180 0 true true 0 (r)]
[(Helvetica) 180 0 true true 0 (e)]
[(Helvetica) 180 0 true true 0 (s)]
[(Helvetica) 180 0 true true 0 (i)]
[(Helvetica) 180 0 true true 0 (d)]
[(Helvetica) 180 0 true true 0 (u)]
[(Helvetica) 180 0 true true 0 (a)]
[(Helvetica) 180 0 true true 0 (l)]
[(Helvetica) 180 0 true true 0 (s)]
] 0 MCshow grestore

end
showpage
%%Trailer
%%EOF
