%!PS-Adobe-3.0 EPSF-3.0
%%BoundingBox: 0 0 514 442
%%Creator: BioKin Ltd.
%%DocumentFonts: Symbol Helvetica
%%EndComments
%
/bkdict 256 dict def
bkdict begin
/M {moveto} def 
/R {rmoveto} def
/L {lineto} def
/rL {rlineto} def
/GSN {gsave newpath} def
/SGR {stroke grestore} def
/COSGR {gsave setrgbcolor stroke grestore grestore} def
/SL {setlinewidth} def
/LWMB {12} def             % line width - model curves, black & white
/LWMC {10} def             % line width - model curves, color
/L2 {2.5 setlinewidth} def
/L5 {5 setlinewidth} def
/L10 {10 setlinewidth} def
/G50 {0.5 setgray} def
/SDA {[10  20] 0 setdash} def % axes
/helvT {/Helvetica findfont 100 scalefont setfont} def % tiny
/helvS {/Helvetica findfont 125 scalefont setfont} def % small
/helvM {/Helvetica findfont 150 scalefont setfont} def % medium
/helvL {/Helvetica findfont 175 scalefont setfont} def % large
/xlabel {gsave M dup
   stringwidth exch -0.5 mul exch rmoveto show grestore} def 
/ylabel {gsave M 90 rotate dup
   stringwidth exch -0.5 mul exch rmoveto show grestore} def
/ylabelresid {gsave M dup
   stringwidth exch -1 mul exch rmoveto show grestore} def
% ======
% Shapes
% ======
% Circle:
/Circ {0 360 arc closepath} def
%
% Square:
/Squa {dup dup -0.5 mul dup dup R -2 mul 0 exch rL 1 mul 0 rL dup 0 exch -1 mul rL closepath} def
%
% Triangle Up:
/TriU {dup dup dup -0.4 mul exch -0.5 mul exch R dup 0.5 mul exch rL dup -1 mul exch 0.5 mul exch rL closepath} def 
%
% Triangle Down:
/TriD {dup dup dup 0.4 mul exch -0.5 mul exch R dup 0.5 mul exch -1 mul rL dup 0.5 mul exch rL closepath} def 
%
% Diamond:
/Diam {45 rotate Squa} def
% ======
% Fills
% ======
/GRF {gsave setgray fill grestore} def                    % gray-level Fill
/COF {gsave setrgbcolor fill grestore} def                % color fill
% ======
% Colors
% ======
/C01 {1.00	0.00	0.00} def      % Red
/C02 {0.00	0.00	1.00} def      % Blue
/C03 {0.00	0.39	0.00} def      % Dark Green
/C04 {0.78	0.08	0.52} def      % Medium Violet Red
/C05 {0.55	0.27	0.07} def      % Saddle Brown
/C06 {0.10	0.70	0.70} def      % (cyan)
/C07 {1.00	0.55	0.00} def      % Dark Orange
/C08 {0.63	0.13	0.94} def      % Purple
/C09 {0.00	0.75	1.00} def      % Deep Sky Blue
/C10 {0.20	0.80	0.20} def      % Lime Green
/C11 {0.47	0.53	0.60} def      % Light Slate Gray
/C12 {0.00	0.00	0.00} def      % Black            % or: {0.19	0.31	0.31} def      % Dark Slate Gray
%
/LGR {0.75} def % light gray
/DGR {0.33} def % dark gray
%
% =============
% Dash patterns
% =============
/dash01 { [80  20] 0 setdash } def
/dash02 { [40  20] 0 setdash } def
/dash03 { [80  20  10  20] 0 setdash } def
/dash04 { [40  20  10  20] 0 setdash } def
/dash05 { [80  20  10  10  10  20] 0 setdash } def
/dash06 { [40  20  10  10  10  20] 0 setdash } def
/dash07 { [10  10] 0 setdash } def
%
/MFshow {
   { dup 5 get 3 ge
     { 5 get 3 eq {gsave} {grestore} ifelse }
     {dup dup 0 get findfont exch 1 get scalefont setfont
     [ currentpoint ] exch dup 2 get 0 exch R dup 5 get 2 ne {dup dup 6
     get exch 4 get {show} {stringwidth pop 0 R} ifelse }if dup 5 get 0 eq
     {dup 3 get {2 get neg 0 exch R pop} {pop aload pop M} ifelse} {dup 5
     get 1 eq {dup 2 get exch dup 3 get exch 6 get stringwidth pop -2 div
     dup 0 R} {dup 6 get stringwidth pop -2 div 0 R 6 get
     show 2 index {aload pop M neg 3 -1 roll neg R pop pop} {pop pop pop
     pop aload pop M} ifelse }ifelse }ifelse }
     ifelse }
   forall} bind def
/MFwidth {0 exch {dup 3 get{dup dup 0 get findfont exch 1 get scalefont
     setfont 6 get stringwidth pop add} {pop} ifelse} forall} bind def
/MCshow { currentpoint stroke M
  exch dup MFwidth -2 div 3 -1 roll R MFshow } def
%
end
%%EndProlog
bkdict begin
0.1 0.1 scale
%
% Model curves:
%

GSN 753 3586 M
770 3586 L
803 3591 L
837 3597 L
870 3604 L
903 3612 L
924 3621 L
941 3623 L
970 3630 L
1003 3641 L
1037 3653 L
1070 3666 L
1096 3681 L
1113 3690 L
1137 3697 L
1170 3714 L
1203 3733 L
1237 3753 L
1268 3775 L
1284 3795 L
1303 3798 L
1337 3822 L
1370 3846 L
1403 3871 L
1437 3897 L
1456 3922 L
1473 3926 L
1503 3946 L
1537 3968 L
1570 3989 L
1603 4008 L
1628 4024 L
1644 4030 L
1670 4037 L
1703 4048 L
1737 4055 L
1770 4061 L
1799 4065 L
1816 4067 L
1837 4067 L
1870 4069 L
1903 4069 L
1937 4070 L
1970 4070 L
1987 4070 L
2004 4070 L
2037 4070 L
2070 4070 L
2103 4070 L
2137 4070 L
2159 4070 L
2176 4070 L
2203 4070 L
2237 4071 L
2270 4071 L
2303 4071 L
2331 4071 L
2347 4071 L
2370 4071 L
2403 4071 L
2437 4072 L
2470 4072 L
2503 4072 L
2519 4072 L
2537 4072 L
2570 4073 L
2603 4073 L
2637 4073 L
2670 4074 L
2690 4074 L
2707 4074 L
2737 4075 L
2770 4075 L
2803 4076 L
2837 4076 L
2862 4077 L
2879 4077 L
2903 4078 L
2937 4078 L
2970 4079 L
3003 4080 L
3034 4080 L
3050 4081 L
3070 4081 L
3103 4082 L
3137 4082 L
3170 4083 L
3203 4083 L
3222 4084 L
3239 4084 L
3270 4084 L
3303 4084 L
3337 4084 L
3370 4085 L
3393 4085 L
3410 4085 L
3437 4085 L
3464 4085 L
3481 4085 L
3503 4085 L
3537 4085 L
3565 4085 L
3582 4085 L
3603 4085 L
3637 4085 L
3670 4085 L
3703 4085 L
3737 4085 L
3753 4085 L
3770 4085 L
3803 4085 L
3837 4085 L
3870 4085 L
3903 4085 L
3925 4085 L
3942 4085 L
3970 4085 L
4003 4085 L
4037 4085 L
4070 4085 L
4086 4085 L
LWMC SL dash01 C01 COSGR

GSN 753 3089 M
770 3089 L
803 3101 L
837 3113 L
870 3127 L
903 3143 L
924 3161 L
941 3166 L
970 3180 L
1003 3202 L
1037 3227 L
1070 3254 L
1096 3283 L
1113 3302 L
1137 3316 L
1170 3351 L
1203 3389 L
1237 3430 L
1268 3474 L
1284 3515 L
1303 3520 L
1337 3568 L
1370 3618 L
1403 3668 L
1437 3718 L
1456 3768 L
1473 3777 L
1503 3816 L
1537 3860 L
1570 3901 L
1603 3938 L
1628 3969 L
1644 3982 L
1670 3995 L
1703 4015 L
1737 4030 L
1770 4041 L
1799 4048 L
1816 4051 L
1837 4052 L
1870 4055 L
1903 4056 L
1937 4057 L
1970 4057 L
1987 4057 L
2004 4057 L
2037 4057 L
2070 4057 L
2103 4057 L
2137 4058 L
2159 4058 L
2176 4058 L
2203 4058 L
2237 4058 L
2270 4059 L
2303 4059 L
2331 4059 L
2347 4059 L
2370 4060 L
2403 4060 L
2437 4061 L
2470 4061 L
2503 4062 L
2519 4062 L
2537 4062 L
2570 4063 L
2603 4064 L
2637 4065 L
2670 4066 L
2690 4067 L
2707 4067 L
2737 4068 L
2770 4069 L
2803 4070 L
2837 4071 L
2862 4072 L
2879 4073 L
2903 4074 L
2937 4075 L
2970 4076 L
3003 4077 L
3034 4078 L
3050 4079 L
3070 4079 L
3103 4080 L
3137 4081 L
3170 4082 L
3203 4083 L
3222 4083 L
3239 4084 L
3270 4084 L
3303 4084 L
3337 4085 L
3370 4085 L
3393 4085 L
3410 4085 L
3437 4085 L
3464 4085 L
3481 4085 L
3503 4085 L
3537 4085 L
3565 4085 L
3582 4085 L
3603 4085 L
3637 4085 L
3670 4085 L
3703 4085 L
3737 4085 L
3753 4085 L
3770 4085 L
3803 4085 L
3837 4085 L
3870 4085 L
3903 4085 L
3925 4085 L
3942 4085 L
3970 4085 L
4003 4085 L
4037 4085 L
4070 4085 L
4086 4085 L
LWMC SL dash02 C02 COSGR

GSN 753 2596 M
770 2596 L
803 2613 L
837 2632 L
870 2654 L
903 2678 L
924 2705 L
941 2713 L
970 2735 L
1003 2769 L
1037 2806 L
1070 2847 L
1096 2892 L
1113 2921 L
1137 2941 L
1170 2995 L
1203 3053 L
1237 3115 L
1268 3181 L
1284 3243 L
1303 3251 L
1337 3323 L
1370 3398 L
1403 3474 L
1437 3549 L
1456 3623 L
1473 3636 L
1503 3694 L
1537 3760 L
1570 3821 L
1603 3874 L
1628 3920 L
1644 3938 L
1670 3957 L
1703 3986 L
1737 4008 L
1770 4023 L
1799 4033 L
1816 4038 L
1837 4039 L
1870 4042 L
1903 4044 L
1937 4045 L
1970 4045 L
1987 4045 L
2004 4045 L
2037 4046 L
2070 4046 L
2103 4046 L
2137 4046 L
2159 4047 L
2176 4047 L
2203 4047 L
2237 4048 L
2270 4048 L
2303 4049 L
2331 4049 L
2347 4050 L
2370 4050 L
2403 4051 L
2437 4051 L
2470 4052 L
2503 4053 L
2519 4054 L
2537 4054 L
2570 4056 L
2603 4057 L
2637 4058 L
2670 4060 L
2690 4061 L
2707 4062 L
2737 4063 L
2770 4064 L
2803 4066 L
2837 4068 L
2862 4070 L
2879 4071 L
2903 4072 L
2937 4073 L
2970 4075 L
3003 4077 L
3034 4078 L
3050 4079 L
3070 4079 L
3103 4081 L
3137 4082 L
3170 4083 L
3203 4084 L
3222 4084 L
3239 4084 L
3270 4085 L
3303 4085 L
3337 4085 L
3370 4085 L
3393 4085 L
3410 4085 L
3437 4085 L
3464 4085 L
3481 4085 L
3503 4085 L
3537 4085 L
3565 4085 L
3582 4085 L
3603 4085 L
3637 4085 L
3670 4085 L
3703 4085 L
3737 4085 L
3753 4085 L
3770 4085 L
3803 4085 L
3837 4085 L
3870 4085 L
3903 4085 L
3925 4085 L
3942 4085 L
3970 4085 L
4003 4085 L
4037 4085 L
4070 4085 L
4086 4085 L
LWMC SL dash03 C03 COSGR

GSN 753 2081 M
770 2081 L
803 2104 L
837 2131 L
870 2160 L
903 2193 L
924 2231 L
941 2242 L
970 2272 L
1003 2318 L
1037 2369 L
1070 2425 L
1096 2487 L
1113 2527 L
1137 2555 L
1170 2628 L
1203 2708 L
1237 2792 L
1268 2883 L
1284 2966 L
1303 2977 L
1337 3076 L
1370 3177 L
1403 3279 L
1437 3381 L
1456 3480 L
1473 3497 L
1503 3575 L
1537 3663 L
1570 3743 L
1603 3814 L
1628 3873 L
1644 3898 L
1670 3922 L
1703 3959 L
1737 3987 L
1770 4006 L
1799 4019 L
1816 4025 L
1837 4026 L
1870 4030 L
1903 4032 L
1937 4034 L
1970 4034 L
1987 4035 L
2004 4035 L
2037 4035 L
2070 4035 L
2103 4036 L
2137 4036 L
2159 4037 L
2176 4037 L
2203 4037 L
2237 4038 L
2270 4038 L
2303 4039 L
2331 4040 L
2347 4041 L
2370 4041 L
2403 4042 L
2437 4043 L
2470 4045 L
2503 4046 L
2519 4047 L
2537 4048 L
2570 4049 L
2603 4051 L
2637 4053 L
2670 4055 L
2690 4057 L
2707 4058 L
2737 4059 L
2770 4062 L
2803 4064 L
2837 4066 L
2862 4069 L
2879 4070 L
2903 4071 L
2937 4073 L
2970 4075 L
3003 4077 L
3034 4079 L
3050 4080 L
3070 4080 L
3103 4082 L
3137 4083 L
3170 4084 L
3203 4085 L
3222 4085 L
3239 4085 L
3270 4085 L
3303 4086 L
3337 4086 L
3370 4086 L
3393 4086 L
3410 4086 L
3437 4085 L
3464 4085 L
3481 4085 L
3503 4085 L
3537 4085 L
3565 4085 L
3582 4085 L
3603 4085 L
3637 4085 L
3670 4085 L
3703 4085 L
3737 4085 L
3753 4085 L
3770 4085 L
3803 4085 L
3837 4085 L
3870 4085 L
3903 4085 L
3925 4085 L
3942 4085 L
3970 4085 L
4003 4085 L
4037 4085 L
4070 4085 L
4086 4085 L
LWMC SL dash04 C04 COSGR

GSN 753 1751 M
770 1751 L
803 1779 L
837 1810 L
870 1845 L
903 1884 L
924 1928 L
941 1942 L
970 1977 L
1003 2032 L
1037 2092 L
1070 2158 L
1096 2231 L
1113 2277 L
1137 2310 L
1170 2397 L
1203 2490 L
1237 2590 L
1268 2695 L
1284 2794 L
1303 2806 L
1337 2922 L
1370 3040 L
1403 3159 L
1437 3277 L
1456 3393 L
1473 3413 L
1503 3503 L
1537 3605 L
1570 3697 L
1603 3778 L
1628 3846 L
1644 3874 L
1670 3902 L
1703 3944 L
1737 3975 L
1770 3997 L
1799 4011 L
1816 4018 L
1837 4019 L
1870 4024 L
1903 4026 L
1937 4027 L
1970 4028 L
1987 4028 L
2004 4028 L
2037 4029 L
2070 4029 L
2103 4030 L
2137 4030 L
2159 4031 L
2176 4031 L
2203 4031 L
2237 4032 L
2270 4033 L
2303 4034 L
2331 4035 L
2347 4036 L
2370 4036 L
2403 4037 L
2437 4039 L
2470 4040 L
2503 4042 L
2519 4044 L
2537 4044 L
2570 4046 L
2603 4048 L
2637 4050 L
2670 4053 L
2690 4055 L
2707 4056 L
2737 4058 L
2770 4061 L
2803 4063 L
2837 4066 L
2862 4069 L
2879 4070 L
2903 4071 L
2937 4073 L
2970 4076 L
3003 4078 L
3034 4080 L
3050 4081 L
3070 4081 L
3103 4083 L
3137 4084 L
3170 4084 L
3203 4085 L
3222 4085 L
3239 4086 L
3270 4086 L
3303 4086 L
3337 4086 L
3370 4086 L
3393 4086 L
3410 4086 L
3437 4085 L
3464 4085 L
3481 4085 L
3503 4085 L
3537 4085 L
3565 4085 L
3582 4085 L
3603 4085 L
3637 4085 L
3670 4085 L
3703 4085 L
3737 4085 L
3753 4085 L
3770 4085 L
3803 4085 L
3837 4085 L
3870 4085 L
3903 4085 L
3925 4085 L
3942 4085 L
3970 4085 L
4003 4085 L
4037 4085 L
4070 4085 L
4086 4085 L
LWMC SL dash05 C05 COSGR

GSN 753 1487 M
770 1487 L
803 1518 L
837 1553 L
870 1592 L
903 1636 L
924 1686 L
941 1701 L
970 1741 L
1003 1802 L
1037 1869 L
1070 1944 L
1096 2026 L
1113 2077 L
1137 2115 L
1170 2212 L
1203 2316 L
1237 2428 L
1268 2546 L
1284 2656 L
1303 2670 L
1337 2799 L
1370 2931 L
1403 3064 L
1437 3196 L
1456 3324 L
1473 3347 L
1503 3446 L
1537 3559 L
1570 3661 L
1603 3750 L
1628 3825 L
1644 3856 L
1670 3886 L
1703 3933 L
1737 3966 L
1770 3990 L
1799 4005 L
1816 4012 L
1837 4013 L
1870 4018 L
1903 4021 L
1937 4022 L
1970 4023 L
1987 4023 L
2004 4023 L
2037 4024 L
2070 4024 L
2103 4025 L
2137 4025 L
2159 4026 L
2176 4026 L
2203 4027 L
2237 4028 L
2270 4029 L
2303 4030 L
2331 4031 L
2347 4032 L
2370 4032 L
2403 4034 L
2437 4035 L
2470 4037 L
2503 4039 L
2519 4041 L
2537 4041 L
2570 4044 L
2603 4046 L
2637 4049 L
2670 4051 L
2690 4054 L
2707 4055 L
2737 4057 L
2770 4060 L
2803 4063 L
2837 4066 L
2862 4068 L
2879 4070 L
2903 4071 L
2937 4074 L
2970 4076 L
3003 4078 L
3034 4080 L
3050 4081 L
3070 4082 L
3103 4083 L
3137 4084 L
3170 4085 L
3203 4085 L
3222 4086 L
3239 4086 L
3270 4086 L
3303 4086 L
3337 4086 L
3370 4086 L
3393 4086 L
3410 4086 L
3437 4085 L
3464 4085 L
3481 4085 L
3503 4085 L
3537 4085 L
3565 4085 L
3582 4085 L
3603 4085 L
3637 4085 L
3670 4085 L
3703 4085 L
3737 4085 L
3753 4085 L
3770 4085 L
3803 4085 L
3837 4085 L
3870 4085 L
3903 4085 L
3925 4085 L
3942 4085 L
3970 4085 L
4003 4085 L
4037 4085 L
4070 4085 L
4086 4085 L
LWMC SL dash06 C06 COSGR

GSN 753 753 M
770 753 L
803 794 L
837 841 L
870 893 L
903 951 L
924 1016 L
941 1037 L
970 1089 L
1003 1169 L
1037 1258 L
1070 1356 L
1096 1464 L
1113 1532 L
1137 1581 L
1170 1708 L
1203 1844 L
1237 1990 L
1268 2144 L
1284 2287 L
1303 2306 L
1337 2472 L
1370 2643 L
1403 2814 L
1437 2983 L
1456 3146 L
1473 3175 L
1503 3301 L
1537 3444 L
1570 3572 L
1603 3683 L
1628 3775 L
1644 3813 L
1670 3849 L
1703 3905 L
1737 3946 L
1770 3973 L
1799 3990 L
1816 3998 L
1837 4000 L
1870 4006 L
1903 4008 L
1937 4010 L
1970 4011 L
1987 4011 L
2004 4011 L
2037 4012 L
2070 4013 L
2103 4013 L
2137 4014 L
2159 4015 L
2176 4016 L
2203 4016 L
2237 4018 L
2270 4019 L
2303 4020 L
2331 4022 L
2347 4023 L
2370 4024 L
2403 4026 L
2437 4028 L
2470 4031 L
2503 4033 L
2519 4036 L
2537 4036 L
2570 4039 L
2603 4042 L
2637 4045 L
2670 4049 L
2690 4052 L
2707 4053 L
2737 4056 L
2770 4060 L
2803 4063 L
2837 4067 L
2862 4070 L
2879 4072 L
2903 4073 L
2937 4076 L
2970 4078 L
3003 4080 L
3034 4082 L
3050 4083 L
3070 4083 L
3103 4085 L
3137 4085 L
3170 4086 L
3203 4086 L
3222 4086 L
3239 4086 L
3270 4086 L
3303 4086 L
3337 4086 L
3370 4086 L
3393 4086 L
3410 4086 L
3437 4085 L
3464 4085 L
3481 4085 L
3503 4085 L
3537 4085 L
3565 4085 L
3582 4085 L
3603 4085 L
3637 4085 L
3670 4085 L
3703 4085 L
3737 4085 L
3753 4085 L
3770 4085 L
3803 4085 L
3837 4085 L
3870 4085 L
3903 4085 L
3925 4085 L
3942 4085 L
3970 4085 L
4003 4085 L
4037 4085 L
4070 4085 L
4086 4085 L
LWMC SL dash07 C07 COSGR

%
%================
% Legend - Begin
%================
%
GSN 4240 4040 M
4480 4040 L
LWMC SL dash01 C01 COSGR
GSN 4540 4001 M helvM (0.5 uM) show grestore
GSN 4240 3860 M
4480 3860 L
LWMC SL dash02 C02 COSGR
GSN 4540 3821 M helvM (1.0 uM) show grestore
GSN 4240 3680 M
4480 3680 L
LWMC SL dash03 C03 COSGR
GSN 4540 3641 M helvM (1.5 uM) show grestore
GSN 4240 3500 M
4480 3500 L
LWMC SL dash04 C04 COSGR
GSN 4540 3461 M helvM (2.0 uM) show grestore
GSN 4240 3320 M
4480 3320 L
LWMC SL dash05 C05 COSGR
GSN 4540 3281 M helvM (2.5 uM) show grestore
GSN 4240 3140 M
4480 3140 L
LWMC SL dash06 C06 COSGR
GSN 4540 3101 M helvM (3.0 uM) show grestore
GSN 4240 2960 M
4480 2960 L
LWMC SL dash07 C07 COSGR
GSN 4540 2921 M helvM (4.0 uM) show grestore
%
%================
% Legend - End
%================
%

%
% Main frame
%
L10
GSN 
620 620 M
4220 620 L
4220 4220 L
620 4220 L
closepath SGR

%
% X axis: large tics
%
L10
GSN 1130 620 M 0  54 rL SGR
GSN 1130 4220 M 0 -54 rL SGR
helvS (0.0001) 1130 470 xlabel
GSN 1716 620 M 0  54 rL SGR
GSN 1716 4220 M 0 -54 rL SGR
helvS (0.001) 1716 470 xlabel
GSN 2303 620 M 0  54 rL SGR
GSN 2303 4220 M 0 -54 rL SGR
helvS (0.01) 2303 470 xlabel
GSN 2889 620 M 0  54 rL SGR
GSN 2889 4220 M 0 -54 rL SGR
helvS (0.1) 2889 470 xlabel
GSN 3476 620 M 0  54 rL SGR
GSN 3476 4220 M 0 -54 rL SGR
helvS (1) 3476 470 xlabel
GSN 4062 620 M 0  54 rL SGR
GSN 4062 4220 M 0 -54 rL SGR
helvS (10) 4062 470 xlabel
%
% X axis: small tics
%
L5
GSN 720 620 M 0  36 rL SGR
GSN 720 4220 M 0 -36 rL SGR
GSN 824 620 M 0  36 rL SGR
GSN 824 4220 M 0 -36 rL SGR
GSN 897 620 M 0  36 rL SGR
GSN 897 4220 M 0 -36 rL SGR
GSN 954 620 M 0  36 rL SGR
GSN 954 4220 M 0 -36 rL SGR
GSN 1000 620 M 0  36 rL SGR
GSN 1000 4220 M 0 -36 rL SGR
GSN 1039 620 M 0  36 rL SGR
GSN 1039 4220 M 0 -36 rL SGR
GSN 1073 620 M 0  36 rL SGR
GSN 1073 4220 M 0 -36 rL SGR
GSN 1103 620 M 0  36 rL SGR
GSN 1103 4220 M 0 -36 rL SGR
GSN 1307 620 M 0  36 rL SGR
GSN 1307 4220 M 0 -36 rL SGR
GSN 1410 620 M 0  36 rL SGR
GSN 1410 4220 M 0 -36 rL SGR
GSN 1483 620 M 0  36 rL SGR
GSN 1483 4220 M 0 -36 rL SGR
GSN 1540 620 M 0  36 rL SGR
GSN 1540 4220 M 0 -36 rL SGR
GSN 1586 620 M 0  36 rL SGR
GSN 1586 4220 M 0 -36 rL SGR
GSN 1626 620 M 0  36 rL SGR
GSN 1626 4220 M 0 -36 rL SGR
GSN 1660 620 M 0  36 rL SGR
GSN 1660 4220 M 0 -36 rL SGR
GSN 1690 620 M 0  36 rL SGR
GSN 1690 4220 M 0 -36 rL SGR
GSN 1893 620 M 0  36 rL SGR
GSN 1893 4220 M 0 -36 rL SGR
GSN 1996 620 M 0  36 rL SGR
GSN 1996 4220 M 0 -36 rL SGR
GSN 2069 620 M 0  36 rL SGR
GSN 2069 4220 M 0 -36 rL SGR
GSN 2126 620 M 0  36 rL SGR
GSN 2126 4220 M 0 -36 rL SGR
GSN 2173 620 M 0  36 rL SGR
GSN 2173 4220 M 0 -36 rL SGR
GSN 2212 620 M 0  36 rL SGR
GSN 2212 4220 M 0 -36 rL SGR
GSN 2246 620 M 0  36 rL SGR
GSN 2246 4220 M 0 -36 rL SGR
GSN 2276 620 M 0  36 rL SGR
GSN 2276 4220 M 0 -36 rL SGR
GSN 2479 620 M 0  36 rL SGR
GSN 2479 4220 M 0 -36 rL SGR
GSN 2583 620 M 0  36 rL SGR
GSN 2583 4220 M 0 -36 rL SGR
GSN 2656 620 M 0  36 rL SGR
GSN 2656 4220 M 0 -36 rL SGR
GSN 2713 620 M 0  36 rL SGR
GSN 2713 4220 M 0 -36 rL SGR
GSN 2759 620 M 0  36 rL SGR
GSN 2759 4220 M 0 -36 rL SGR
GSN 2798 620 M 0  36 rL SGR
GSN 2798 4220 M 0 -36 rL SGR
GSN 2832 620 M 0  36 rL SGR
GSN 2832 4220 M 0 -36 rL SGR
GSN 2862 620 M 0  36 rL SGR
GSN 2862 4220 M 0 -36 rL SGR
GSN 3066 620 M 0  36 rL SGR
GSN 3066 4220 M 0 -36 rL SGR
GSN 3169 620 M 0  36 rL SGR
GSN 3169 4220 M 0 -36 rL SGR
GSN 3242 620 M 0  36 rL SGR
GSN 3242 4220 M 0 -36 rL SGR
GSN 3299 620 M 0  36 rL SGR
GSN 3299 4220 M 0 -36 rL SGR
GSN 3345 620 M 0  36 rL SGR
GSN 3345 4220 M 0 -36 rL SGR
GSN 3385 620 M 0  36 rL SGR
GSN 3385 4220 M 0 -36 rL SGR
GSN 3419 620 M 0  36 rL SGR
GSN 3419 4220 M 0 -36 rL SGR
GSN 3449 620 M 0  36 rL SGR
GSN 3449 4220 M 0 -36 rL SGR
GSN 3652 620 M 0  36 rL SGR
GSN 3652 4220 M 0 -36 rL SGR
GSN 3755 620 M 0  36 rL SGR
GSN 3755 4220 M 0 -36 rL SGR
GSN 3829 620 M 0  36 rL SGR
GSN 3829 4220 M 0 -36 rL SGR
GSN 3885 620 M 0  36 rL SGR
GSN 3885 4220 M 0 -36 rL SGR
GSN 3932 620 M 0  36 rL SGR
GSN 3932 4220 M 0 -36 rL SGR
GSN 3971 620 M 0  36 rL SGR
GSN 3971 4220 M 0 -36 rL SGR
GSN 4005 620 M 0  36 rL SGR
GSN 4005 4220 M 0 -36 rL SGR
GSN 4035 620 M 0  36 rL SGR
GSN 4035 4220 M 0 -36 rL SGR
%
% Y axis: large tics
%
L10
GSN 620 759 M 54 0 rL SGR
GSN 4220 759 M -54 0 rL SGR
helvS (-60) 560 759 ylabel
GSN 620 1867 M 54 0 rL SGR
GSN 4220 1867 M -54 0 rL SGR
helvS (-40) 560 1867 ylabel
GSN 620 2976 M 54 0 rL SGR
GSN 4220 2976 M -54 0 rL SGR
helvS (-20) 560 2976 ylabel
GSN 620 4085 M 54 0 rL SGR
GSN 4220 4085 M -54 0 rL SGR
helvS (0) 560 4085 ylabel
%
% Y axis: small tics
%
L5
GSN 620 759 M 36 0 rL SGR
GSN 4220 759 M -36 0 rL SGR
GSN 620 1036 M 36 0 rL SGR
GSN 4220 1036 M -36 0 rL SGR
GSN 620 1313 M 36 0 rL SGR
GSN 4220 1313 M -36 0 rL SGR
GSN 620 1590 M 36 0 rL SGR
GSN 4220 1590 M -36 0 rL SGR
GSN 620 1867 M 36 0 rL SGR
GSN 4220 1867 M -36 0 rL SGR
GSN 620 2144 M 36 0 rL SGR
GSN 4220 2144 M -36 0 rL SGR
GSN 620 2422 M 36 0 rL SGR
GSN 4220 2422 M -36 0 rL SGR
GSN 620 2699 M 36 0 rL SGR
GSN 4220 2699 M -36 0 rL SGR
GSN 620 2976 M 36 0 rL SGR
GSN 4220 2976 M -36 0 rL SGR
GSN 620 3253 M 36 0 rL SGR
GSN 4220 3253 M -36 0 rL SGR
GSN 620 3530 M 36 0 rL SGR
GSN 4220 3530 M -36 0 rL SGR
GSN 620 3807 M 36 0 rL SGR
GSN 4220 3807 M -36 0 rL SGR
GSN 620 4085 M 36 0 rL SGR
GSN 4220 4085 M -36 0 rL SGR

%
% X axis
%
GSN L5 620 4085 M 4220 4085 L SDA G50 SGR

%
% X-Axis label:
%
gsave 2420 290 M 
[
[(Helvetica) 180 0 true true 0 (t)]
[(Helvetica) 180 0 true true 0 (i)]
[(Helvetica) 180 0 true true 0 (m)]
[(Helvetica) 180 0 true true 0 (e)]
] 0 MCshow grestore

%
% Y-Axis label:
%
gsave 234 2420 M 
currentpoint gsave translate 90 rotate 0 0 moveto
[
[(Helvetica) 180 0 true true 0 (d)]
[(Helvetica) 180 0 true true 0 (\()]
[(Helvetica) 180 0 true true 0 (s)]
[(Helvetica) 180 0 true true 0 (i)]
[(Helvetica) 180 0 true true 0 (g)]
[(Helvetica) 180 0 true true 0 (n)]
[(Helvetica) 180 0 true true 0 (a)]
[(Helvetica) 180 0 true true 0 (l)]
[(Helvetica) 180 0 true true 0 (\))]
[(Helvetica) 180 0 true true 0 ( )]
[(Helvetica) 180 0 true true 0 (/)]
[(Helvetica) 180 0 true true 0 ( )]
[(Helvetica) 180 0 true true 0 (d)]
[(Helvetica) 180 0 true true 0 (t)]
] 0 MCshow grestore

end
showpage
%%Trailer
%%EOF
