%!PS-Adobe-3.0 EPSF-3.0
%%BoundingBox: 0 0 514 550
%%Creator: BioKin Ltd.
%%DocumentFonts: Symbol Helvetica
%%EndComments
%
/bkdict 256 dict def
bkdict begin
/M {moveto} def 
/R {rmoveto} def
/L {lineto} def
/rL {rlineto} def
/GSN {gsave newpath} def
/SGR {stroke grestore} def
/COSGR {gsave setrgbcolor stroke grestore grestore} def
/SL {setlinewidth} def
/LWMB {12} def             % line width - model curves, black & white
/LWMC {10} def             % line width - model curves, color
/L2 {2.5 setlinewidth} def
/L5 {5 setlinewidth} def
/L10 {10 setlinewidth} def
/G50 {0.5 setgray} def
/SDA {[10  20] 0 setdash} def % axes
/helvT {/Helvetica findfont 100 scalefont setfont} def % tiny
/helvS {/Helvetica findfont 125 scalefont setfont} def % small
/helvM {/Helvetica findfont 150 scalefont setfont} def % medium
/helvL {/Helvetica findfont 175 scalefont setfont} def % large
/xlabel {gsave M dup
   stringwidth exch -0.5 mul exch rmoveto show grestore} def 
/ylabel {gsave M 90 rotate dup
   stringwidth exch -0.5 mul exch rmoveto show grestore} def
/ylabelresid {gsave M dup
   stringwidth exch -1 mul exch rmoveto show grestore} def
% ======
% Shapes
% ======
% Circle:
/Circ {0 360 arc closepath} def
%
% Square:
/Squa {dup dup -0.5 mul dup dup R -2 mul 0 exch rL 1 mul 0 rL dup 0 exch -1 mul rL closepath} def
%
% Triangle Up:
/TriU {dup dup dup -0.4 mul exch -0.5 mul exch R dup 0.5 mul exch rL dup -1 mul exch 0.5 mul exch rL closepath} def 
%
% Triangle Down:
/TriD {dup dup dup 0.4 mul exch -0.5 mul exch R dup 0.5 mul exch -1 mul rL dup 0.5 mul exch rL closepath} def 
%
% Diamond:
/Diam {45 rotate Squa} def
% ======
% Fills
% ======
/GRF {gsave setgray fill grestore} def                    % gray-level Fill
/COF {gsave setrgbcolor fill grestore} def                % color fill
% ======
% Colors
% ======
/C01 {1.00	0.00	0.00} def      % Red
/C02 {0.00	0.00	1.00} def      % Blue
/C03 {0.00	0.39	0.00} def      % Dark Green
/C04 {0.78	0.08	0.52} def      % Medium Violet Red
/C05 {0.55	0.27	0.07} def      % Saddle Brown
/C06 {0.10	0.70	0.70} def      % (cyan)
/C07 {1.00	0.55	0.00} def      % Dark Orange
/C08 {0.63	0.13	0.94} def      % Purple
/C09 {0.00	0.75	1.00} def      % Deep Sky Blue
/C10 {0.20	0.80	0.20} def      % Lime Green
/C11 {0.47	0.53	0.60} def      % Light Slate Gray
/C12 {0.00	0.00	0.00} def      % Black            % or: {0.19	0.31	0.31} def      % Dark Slate Gray
%
/LGR {0.75} def % light gray
/DGR {0.33} def % dark gray
%
% =============
% Dash patterns
% =============
/dash01 { [80  20] 0 setdash } def
/dash02 { [40  20] 0 setdash } def
/dash03 { [80  20  10  20] 0 setdash } def
/dash04 { [40  20  10  20] 0 setdash } def
/dash05 { [80  20  10  10  10  20] 0 setdash } def
/dash06 { [40  20  10  10  10  20] 0 setdash } def
/dash07 { [10  10] 0 setdash } def
%
/MFshow {
   { dup 5 get 3 ge
     { 5 get 3 eq {gsave} {grestore} ifelse }
     {dup dup 0 get findfont exch 1 get scalefont setfont
     [ currentpoint ] exch dup 2 get 0 exch R dup 5 get 2 ne {dup dup 6
     get exch 4 get {show} {stringwidth pop 0 R} ifelse }if dup 5 get 0 eq
     {dup 3 get {2 get neg 0 exch R pop} {pop aload pop M} ifelse} {dup 5
     get 1 eq {dup 2 get exch dup 3 get exch 6 get stringwidth pop -2 div
     dup 0 R} {dup 6 get stringwidth pop -2 div 0 R 6 get
     show 2 index {aload pop M neg 3 -1 roll neg R pop pop} {pop pop pop
     pop aload pop M} ifelse }ifelse }ifelse }
     ifelse }
   forall} bind def
/MFwidth {0 exch {dup 3 get{dup dup 0 get findfont exch 1 get scalefont
     setfont 6 get stringwidth pop add} {pop} ifelse} forall} bind def
/MCshow { currentpoint stroke M
  exch dup MFwidth -2 div 3 -1 roll R MFshow } def
%
end
%%EndProlog
bkdict begin
0.1 0.1 scale
%
% Residuals:
%
GSN 620 4770 M
620 4036 L
620 4208 L
620 4863 L
620 4541 L
620 4294 L
620 4364 L
620 4375 L
620 4487 L
620 4332 L
620 4401 L
620 3838 L
620 4850 L
620 4026 L
620 4416 L
620 4589 L
620 4475 L
620 4615 L
620 3933 L
620 4258 L
620 4106 L
620 3815 L
620 3975 L
620 4203 L
620 3790 L
620 4352 L
620 4670 L
620 4261 L
620 4556 L
620 4126 L
620 3858 L
620 3231 L
620 3621 L
620 3709 L
620 4242 L
620 4239 L
620 3917 L
620 3967 L
620 4170 L
620 4156 L
620 4433 L
620 4831 L
620 3665 L
620 3936 L
620 3284 L
620 3602 L
620 3347 L
620 3941 L
620 3987 L
620 3854 L
620 4054 L
620 4238 L
620 3361 L
620 2511 L
620 3040 L
620 3573 L
620 3947 L
620 4374 L
620 3629 L
620 3361 L
620 3103 L
620 3948 L
620 3043 L
620 3368 L
620 3979 L
620 3822 L
620 3043 L
620 3558 L
620 3522 L
620 3220 L
620 3146 L
620 3852 L
620 3406 L
620 3628 L
620 3162 L
620 3618 L
620 3654 L
620 3574 L
620 3413 L
620 3439 L
620 3603 L
620 3167 L
620 3132 L
620 3360 L
620 3607 L
620 3513 L
620 3624 L
620 3712 L
620 2896 L
620 3097 L
620 3265 L
620 4115 L
620 3070 L
620 2433 L
620 3735 L
620 2995 L
620 3509 L
620 2776 L
620 3501 L
620 3307 L
620 3011 L
620 2735 L
620 3381 L
620 3109 L
620 2136 L
620 3060 L
620 3167 L
620 2271 L
620 3304 L
620 2911 L
620 3470 L
620 2629 L
620 3575 L
620 3565 L
620 3380 L
620 3067 L
620 3109 L
620 3203 L
620 2882 L
620 3034 L
620 3243 L
620 3202 L
620 3161 L
620 2599 L
620 3013 L
620 2928 L
620 2584 L
620 2885 L
620 3360 L
620 2685 L
620 3161 L
620 2734 L
620 2784 L
620 2654 L
620 2990 L
620 2901 L
620 2775 L
620 2818 L
620 3238 L
620 2697 L
620 3031 L
620 2638 L
620 2754 L
620 2871 L
620 2779 L
620 2710 L
620 2618 L
620 2701 L
620 2651 L
620 2984 L
620 3172 L
620 2761 L
620 3157 L
620 3695 L
620 2785 L
620 2655 L
620 2710 L
620 3353 L
620 2989 L
620 2975 L
620 3761 L
620 3576 L
620 2586 L
620 3266 L
620 2779 L
620 3214 L
620 3210 L
620 3168 L
620 3248 L
620 3243 L
620 3503 L
620 2803 L
620 3699 L
620 3662 L
620 3344 L
620 3943 L
620 2335 L
620 2961 L
620 3527 L
620 2986 L
620 3139 L
620 3175 L
620 3154 L
620 3359 L
620 2436 L
620 3416 L
620 3648 L
620 4623 L
620 3227 L
620 4318 L
620 2710 L
620 3780 L
620 3540 L
620 2748 L
620 3478 L
620 3625 L
620 3539 L
620 2943 L
620 3530 L
620 3125 L
620 3225 L
620 3265 L
620 3497 L
620 3612 L
620 2989 L
620 3131 L
620 3102 L
620 3837 L
620 3660 L
620 2985 L
620 3656 L
620 3399 L
620 3695 L
620 4127 L
620 3892 L
620 3784 L
620 3850 L
620 3864 L
620 4270 L
620 3526 L
620 3656 L
620 4184 L
620 3932 L
620 3363 L
620 3445 L
620 3979 L
620 3282 L
620 4043 L
620 2917 L
620 3423 L
620 3814 L
620 4166 L
620 4096 L
620 3764 L
620 3704 L
620 3436 L
620 3428 L
620 3606 L
620 3413 L
620 3809 L
620 3302 L
620 3252 L
620 3218 L
620 3624 L
620 3500 L
620 3487 L
620 3638 L
620 3249 L
620 3703 L
620 4103 L
620 3894 L
620 3202 L
620 4171 L
620 4385 L
620 3826 L
620 3416 L
620 3270 L
620 3623 L
620 3616 L
620 3221 L
620 2970 L
620 3317 L
620 2901 L
620 3185 L
620 4514 L
620 4109 L
620 3677 L
620 3754 L
620 4420 L
620 4301 L
620 3700 L
620 2987 L
620 3038 L
620 4234 L
620 4412 L
620 3726 L
620 4387 L
620 4030 L
620 3168 L
620 3723 L
620 3280 L
620 3496 L
620 3824 L
620 3649 L
620 3380 L
620 4023 L
620 3240 L
620 3886 L
620 4106 L
620 3820 L
620 3611 L
620 3991 L
620 4050 L
620 3897 L
620 4207 L
620 4332 L
620 3572 L
620 3819 L
620 3521 L
620 4040 L
620 3106 L
620 3476 L
620 3492 L
620 3576 L
620 4101 L
620 3534 L
620 3921 L
620 4440 L
620 3676 L
620 3756 L
620 3671 L
620 4037 L
620 3421 L
620 3559 L
620 3687 L
620 3713 L
620 3634 L
620 3671 L
620 3999 L
620 3193 L
620 4386 L
620 4535 L
620 3485 L
620 4005 L
620 2875 L
620 3686 L
620 4339 L
620 3342 L
620 3098 L
620 3528 L
620 3925 L
620 4434 L
620 3639 L
620 3119 L
620 3607 L
620 3692 L
620 4153 L
620 3490 L
620 3623 L
620 3448 L
620 3273 L
620 4010 L
620 3718 L
620 3363 L
620 3915 L
620 3565 L
620 3782 L
620 4228 L
620 3464 L
620 3246 L
620 4068 L
620 3909 L
620 3188 L
620 3209 L
620 3596 L
620 3130 L
620 3528 L
620 3702 L
620 3506 L
620 4498 L
620 3045 L
620 3888 L
620 3883 L
620 4376 L
620 3352 L
620 3538 L
620 3379 L
620 3793 L
620 3071 L
620 3522 L
620 3342 L
620 3416 L
620 3846 L
620 3103 L
620 4031 L
620 4174 L
620 3671 L
620 3305 L
620 3092 L
620 3963 L
620 3681 L
620 3936 L
620 2987 L
620 3527 L
620 3708 L
620 3517 L
620 3708 L
620 3395 L
620 4058 L
620 3469 L
620 3761 L
620 3575 L
620 3681 L
620 3697 L
620 3544 L
620 3591 L
620 4036 L
620 3188 L
620 3458 L
620 3788 L
620 3941 L
620 3236 L
620 3994 L
620 3655 L
620 4254 L
620 3034 L
620 4058 L
620 3777 L
620 3580 L
620 3331 L
620 3607 L
620 3660 L
620 3989 L
620 3941 L
620 3008 L
620 3209 L
620 3554 L
620 3294 L
620 3660 L
620 4005 L
620 3002 L
620 3199 L
620 3225 L
620 3862 L
620 2838 L
620 3421 L
620 3140 L
620 3490 L
620 3618 L
620 3803 L
620 3930 L
620 3713 L
620 3384 L
620 3820 L
620 3819 L
620 3798 L
620 3676 L
620 3474 L
620 2737 L
620 3310 L
620 4264 L
620 4031 L
620 3517 L
620 3745 L
620 4010 L
620 2833 L
620 3851 L
620 3792 L
620 3040 L
620 3649 L
620 2896 L
620 3480 L
620 4000 L
620 4148 L
620 3336 L
620 4291 L
620 3130 L
620 3660 L
620 3618 L
620 4233 L
620 3056 L
620 4074 L
620 4000 L
620 3666 L
620 3437 L
620 3554 L
620 3448 L
620 4238 L
620 3432 L
620 3724 L
620 4069 L
620 3533 L
620 3655 L
620 3517 L
620 4302 L
620 3511 L
620 3230 L
620 4058 L
620 3830 L
620 3962 L
620 3215 L
620 3899 L
620 3798 L
620 4132 L
620 4264 L
620 4004 L
620 3596 L
620 3856 L
620 3644 L
620 3867 L
620 4594 L
620 3750 L
620 4005 L
620 3490 L
620 3963 L
620 3564 L
620 3798 L
620 3777 L
620 3909 L
620 3342 L
620 3501 L
620 3093 L
620 3952 L
620 4572 L
620 2812 L
620 4244 L
620 3650 L
620 3474 L
620 4016 L
620 4148 L
620 3570 L
620 4286 L
620 4026 L
620 3474 L
620 3756 L
620 3697 L
620 3788 L
620 4222 L
620 3978 L
620 3634 L
620 4721 L
620 3660 L
620 3719 L
620 4079 L
620 3994 L
620 3151 L
620 3756 L
620 2976 L
620 3549 L
620 3862 L
620 4047 L
620 3490 L
620 3968 L
L2 C01 COSGR

%
%================
% Legend - Begin
%================
%
GSN 4240 5180 M
4480 5180 L
LWMC SL  C01 COSGR
GSN 4540 5141 M helvM (0.5 uM) show grestore
%
%================
% Legend - End
%================
%

%
% Main frame
%
L10
GSN 
620 1700 M
4220 1700 L
4220 5300 L
620 5300 L
closepath SGR

%
% X axis: large tics
%
L10
%
% X axis: small tics
%
L5
%
% Y axis: large tics
%
L10
GSN 620 2545 M 54 0 rL SGR
GSN 4220 2545 M -54 0 rL SGR
helvS (-0.01) 560 2545 ylabel
GSN 620 3587 M 54 0 rL SGR
GSN 4220 3587 M -54 0 rL SGR
helvS (0) 560 3587 ylabel
GSN 620 4630 M 54 0 rL SGR
GSN 4220 4630 M -54 0 rL SGR
helvS (0.01) 560 4630 ylabel
%
% Y axis: small tics
%
L5
GSN 620 1763 M 36 0 rL SGR
GSN 4220 1763 M -36 0 rL SGR
GSN 620 2023 M 36 0 rL SGR
GSN 4220 2023 M -36 0 rL SGR
GSN 620 2284 M 36 0 rL SGR
GSN 4220 2284 M -36 0 rL SGR
GSN 620 2545 M 36 0 rL SGR
GSN 4220 2545 M -36 0 rL SGR
GSN 620 2805 M 36 0 rL SGR
GSN 4220 2805 M -36 0 rL SGR
GSN 620 3066 M 36 0 rL SGR
GSN 4220 3066 M -36 0 rL SGR
GSN 620 3327 M 36 0 rL SGR
GSN 4220 3327 M -36 0 rL SGR
GSN 620 3587 M 36 0 rL SGR
GSN 4220 3587 M -36 0 rL SGR
GSN 620 3848 M 36 0 rL SGR
GSN 4220 3848 M -36 0 rL SGR
GSN 620 4109 M 36 0 rL SGR
GSN 4220 4109 M -36 0 rL SGR
GSN 620 4369 M 36 0 rL SGR
GSN 4220 4369 M -36 0 rL SGR
GSN 620 4630 M 36 0 rL SGR
GSN 4220 4630 M -36 0 rL SGR
GSN 620 4891 M 36 0 rL SGR
GSN 4220 4891 M -36 0 rL SGR
GSN 620 5151 M 36 0 rL SGR
GSN 4220 5151 M -36 0 rL SGR

%
% X axis - residual panel
%
GSN L5 620 3587 M 4220 3587 L SDA G50 SGR

%
% X-Axis label:
%
gsave 620 1370 M 
[
[(Helvetica) 180 0 true true 0 (t)]
[(Helvetica) 180 0 true true 0 (i)]
[(Helvetica) 180 0 true true 0 (m)]
[(Helvetica) 180 0 true true 0 (e)]
] 0 MCshow grestore

%
% Y-Axis label:
%
gsave 234 3500 M 
currentpoint gsave translate 90 rotate 0 0 moveto
[
[(Helvetica) 180 0 true true 0 (r)]
[(Helvetica) 180 0 true true 0 (e)]
[(Helvetica) 180 0 true true 0 (s)]
[(Helvetica) 180 0 true true 0 (i)]
[(Helvetica) 180 0 true true 0 (d)]
[(Helvetica) 180 0 true true 0 (u)]
[(Helvetica) 180 0 true true 0 (a)]
[(Helvetica) 180 0 true true 0 (l)]
[(Helvetica) 180 0 true true 0 (s)]
] 0 MCshow grestore

end
showpage
%%Trailer
%%EOF
