%!PS-Adobe-3.0 EPSF-3.0
%%BoundingBox: 0 0 514 442
%%Creator: BioKin Ltd.
%%DocumentFonts: Symbol Helvetica
%%EndComments
%
/bkdict 256 dict def
bkdict begin
/M {moveto} def 
/R {rmoveto} def
/L {lineto} def
/rL {rlineto} def
/GSN {gsave newpath} def
/SGR {stroke grestore} def
/COSGR {gsave setrgbcolor stroke grestore grestore} def
/SL {setlinewidth} def
/LWMB {12} def             % line width - model curves, black & white
/LWMC {10} def             % line width - model curves, color
/L2 {2.5 setlinewidth} def
/L5 {5 setlinewidth} def
/L10 {10 setlinewidth} def
/G50 {0.5 setgray} def
/SDA {[10  20] 0 setdash} def % axes
/helvT {/Helvetica findfont 100 scalefont setfont} def % tiny
/helvS {/Helvetica findfont 125 scalefont setfont} def % small
/helvM {/Helvetica findfont 150 scalefont setfont} def % medium
/helvL {/Helvetica findfont 175 scalefont setfont} def % large
/xlabel {gsave M dup
   stringwidth exch -0.5 mul exch rmoveto show grestore} def 
/ylabel {gsave M 90 rotate dup
   stringwidth exch -0.5 mul exch rmoveto show grestore} def
/ylabelresid {gsave M dup
   stringwidth exch -1 mul exch rmoveto show grestore} def
% ======
% Shapes
% ======
% Circle:
/Circ {0 360 arc closepath} def
%
% Square:
/Squa {dup dup -0.5 mul dup dup R -2 mul 0 exch rL 1 mul 0 rL dup 0 exch -1 mul rL closepath} def
%
% Triangle Up:
/TriU {dup dup dup -0.4 mul exch -0.5 mul exch R dup 0.5 mul exch rL dup -1 mul exch 0.5 mul exch rL closepath} def 
%
% Triangle Down:
/TriD {dup dup dup 0.4 mul exch -0.5 mul exch R dup 0.5 mul exch -1 mul rL dup 0.5 mul exch rL closepath} def 
%
% Diamond:
/Diam {45 rotate Squa} def
% ======
% Fills
% ======
/GRF {gsave setgray fill grestore} def                    % gray-level Fill
/COF {gsave setrgbcolor fill grestore} def                % color fill
% ======
% Colors
% ======
/C01 {1.00	0.00	0.00} def      % Red
/C02 {0.00	0.00	1.00} def      % Blue
/C03 {0.00	0.39	0.00} def      % Dark Green
/C04 {0.78	0.08	0.52} def      % Medium Violet Red
/C05 {0.55	0.27	0.07} def      % Saddle Brown
/C06 {0.10	0.70	0.70} def      % (cyan)
/C07 {1.00	0.55	0.00} def      % Dark Orange
/C08 {0.63	0.13	0.94} def      % Purple
/C09 {0.00	0.75	1.00} def      % Deep Sky Blue
/C10 {0.20	0.80	0.20} def      % Lime Green
/C11 {0.47	0.53	0.60} def      % Light Slate Gray
/C12 {0.00	0.00	0.00} def      % Black            % or: {0.19	0.31	0.31} def      % Dark Slate Gray
%
/LGR {0.75} def % light gray
/DGR {0.33} def % dark gray
%
% =============
% Dash patterns
% =============
/dash01 { [80  20] 0 setdash } def
/dash02 { [40  20] 0 setdash } def
/dash03 { [80  20  10  20] 0 setdash } def
/dash04 { [40  20  10  20] 0 setdash } def
/dash05 { [80  20  10  10  10  20] 0 setdash } def
/dash06 { [40  20  10  10  10  20] 0 setdash } def
/dash07 { [10  10] 0 setdash } def
%
/MFshow {
   { dup 5 get 3 ge
     { 5 get 3 eq {gsave} {grestore} ifelse }
     {dup dup 0 get findfont exch 1 get scalefont setfont
     [ currentpoint ] exch dup 2 get 0 exch R dup 5 get 2 ne {dup dup 6
     get exch 4 get {show} {stringwidth pop 0 R} ifelse }if dup 5 get 0 eq
     {dup 3 get {2 get neg 0 exch R pop} {pop aload pop M} ifelse} {dup 5
     get 1 eq {dup 2 get exch dup 3 get exch 6 get stringwidth pop -2 div
     dup 0 R} {dup 6 get stringwidth pop -2 div 0 R 6 get
     show 2 index {aload pop M neg 3 -1 roll neg R pop pop} {pop pop pop
     pop aload pop M} ifelse }ifelse }ifelse }
     ifelse }
   forall} bind def
/MFwidth {0 exch {dup 3 get{dup dup 0 get findfont exch 1 get scalefont
     setfont 6 get stringwidth pop add} {pop} ifelse} forall} bind def
/MCshow { currentpoint stroke M
  exch dup MFwidth -2 div 3 -1 roll R MFshow } def
%
end
%%EndProlog
bkdict begin
0.1 0.1 scale
%
% Model curves:
%

GSN 753 3662 M
770 3662 L
803 3881 L
837 3938 L
870 3950 L
895 3952 L
911 3952 L
937 3952 L
970 3952 L
1003 3952 L
1037 3952 L
1053 3952 L
1070 3952 L
1103 3952 L
1137 3952 L
1170 3952 L
1195 3952 L
1211 3952 L
1237 3952 L
1270 3953 L
1303 3953 L
1337 3953 L
1353 3953 L
1370 3953 L
1403 3953 L
1437 3953 L
1470 3953 L
1495 3954 L
1512 3954 L
1537 3954 L
1570 3954 L
1603 3955 L
1637 3955 L
1653 3956 L
1670 3956 L
1703 3956 L
1737 3957 L
1770 3958 L
1795 3959 L
1812 3960 L
1837 3960 L
1870 3962 L
1903 3963 L
1937 3965 L
1953 3967 L
1971 3967 L
2003 3969 L
2037 3972 L
2070 3975 L
2095 3978 L
2112 3980 L
2137 3982 L
2170 3986 L
2203 3991 L
2237 3996 L
2253 4002 L
2271 4002 L
2303 4009 L
2337 4015 L
2370 4023 L
2395 4030 L
2412 4034 L
2437 4038 L
2470 4045 L
2503 4052 L
2537 4059 L
2553 4066 L
2571 4066 L
2603 4071 L
2637 4076 L
2670 4079 L
2695 4082 L
2712 4083 L
2737 4084 L
2770 4085 L
2803 4086 L
2837 4086 L
2854 4086 L
2871 4086 L
2903 4086 L
2937 4086 L
2970 4086 L
2995 4086 L
3012 4086 L
3037 4086 L
3061 4086 L
3077 4086 L
3103 4086 L
3137 4086 L
3154 4086 L
3171 4086 L
3203 4086 L
3237 4086 L
3270 4086 L
3296 4086 L
3312 4086 L
3337 4086 L
3370 4086 L
3403 4086 L
3437 4086 L
3454 4086 L
3471 4086 L
3503 4086 L
3537 4086 L
3570 4086 L
3596 4086 L
3612 4086 L
3637 4086 L
3670 4086 L
3703 4086 L
3737 4086 L
3754 4086 L
3771 4086 L
3803 4086 L
3837 4086 L
3870 4086 L
3896 4086 L
3912 4086 L
3937 4086 L
3970 4086 L
4003 4086 L
4037 4086 L
4070 4086 L
LWMC SL dash01 C01 COSGR

GSN 753 753 M
770 753 L
803 2635 L
837 3453 L
870 3757 L
895 3850 L
911 3866 L
937 3874 L
970 3878 L
1003 3879 L
1037 3879 L
1053 3879 L
1070 3879 L
1103 3879 L
1137 3879 L
1170 3879 L
1195 3879 L
1211 3879 L
1237 3880 L
1270 3880 L
1303 3880 L
1337 3880 L
1353 3880 L
1370 3880 L
1403 3880 L
1437 3881 L
1470 3881 L
1495 3881 L
1512 3882 L
1537 3882 L
1570 3882 L
1603 3883 L
1637 3884 L
1653 3884 L
1670 3884 L
1703 3885 L
1737 3886 L
1770 3888 L
1795 3889 L
1812 3890 L
1837 3891 L
1870 3893 L
1903 3895 L
1937 3897 L
1953 3900 L
1971 3900 L
2003 3904 L
2037 3907 L
2070 3912 L
2095 3917 L
2112 3920 L
2137 3922 L
2170 3929 L
2203 3936 L
2237 3943 L
2253 3952 L
2271 3952 L
2303 3961 L
2337 3971 L
2370 3981 L
2395 3992 L
2412 3998 L
2437 4004 L
2470 4015 L
2503 4026 L
2537 4037 L
2553 4046 L
2571 4047 L
2603 4055 L
2637 4063 L
2670 4069 L
2695 4074 L
2712 4076 L
2737 4078 L
2770 4081 L
2803 4083 L
2837 4084 L
2854 4085 L
2871 4085 L
2903 4085 L
2937 4086 L
2970 4086 L
2995 4086 L
3012 4086 L
3037 4086 L
3061 4086 L
3077 4086 L
3103 4086 L
3137 4086 L
3154 4086 L
3171 4086 L
3203 4086 L
3237 4086 L
3270 4086 L
3296 4086 L
3312 4086 L
3337 4086 L
3370 4086 L
3403 4086 L
3437 4086 L
3454 4086 L
3471 4086 L
3503 4086 L
3537 4086 L
3570 4086 L
3596 4086 L
3612 4086 L
3637 4086 L
3670 4086 L
3703 4086 L
3737 4086 L
3754 4086 L
3771 4086 L
3803 4086 L
3837 4086 L
3870 4086 L
3896 4086 L
3912 4086 L
3937 4086 L
3970 4086 L
4003 4086 L
4037 4086 L
4070 4086 L
LWMC SL dash02 C02 COSGR

GSN 753 3487 M
770 3487 L
803 3746 L
837 3812 L
870 3826 L
895 3828 L
911 3828 L
937 3828 L
970 3828 L
1003 3828 L
1037 3828 L
1053 3828 L
1070 3828 L
1103 3828 L
1137 3828 L
1170 3828 L
1195 3829 L
1211 3829 L
1237 3829 L
1270 3829 L
1303 3829 L
1337 3829 L
1353 3830 L
1370 3830 L
1403 3830 L
1437 3830 L
1470 3831 L
1495 3831 L
1512 3831 L
1537 3832 L
1570 3832 L
1603 3833 L
1637 3834 L
1653 3835 L
1670 3835 L
1703 3836 L
1737 3838 L
1770 3839 L
1795 3841 L
1812 3842 L
1837 3844 L
1870 3846 L
1903 3849 L
1937 3852 L
1953 3856 L
1971 3856 L
2003 3861 L
2037 3866 L
2070 3871 L
2095 3878 L
2112 3882 L
2137 3885 L
2170 3894 L
2203 3903 L
2237 3913 L
2253 3924 L
2271 3924 L
2303 3936 L
2337 3949 L
2370 3963 L
2395 3977 L
2412 3985 L
2437 3992 L
2470 4006 L
2503 4020 L
2537 4034 L
2553 4046 L
2571 4046 L
2603 4057 L
2637 4066 L
2670 4073 L
2695 4078 L
2712 4080 L
2737 4081 L
2770 4084 L
2803 4085 L
2837 4086 L
2854 4086 L
2871 4086 L
2903 4086 L
2937 4086 L
2970 4086 L
2995 4086 L
3012 4086 L
3037 4086 L
3061 4086 L
3077 4086 L
3103 4086 L
3137 4086 L
3154 4086 L
3171 4086 L
3203 4086 L
3237 4086 L
3270 4086 L
3296 4086 L
3312 4086 L
3337 4086 L
3370 4086 L
3403 4086 L
3437 4086 L
3454 4086 L
3471 4086 L
3503 4086 L
3537 4086 L
3570 4086 L
3596 4086 L
3612 4086 L
3637 4086 L
3670 4086 L
3703 4086 L
3737 4086 L
3754 4086 L
3771 4086 L
3803 4086 L
3837 4086 L
3870 4086 L
3896 4086 L
3912 4086 L
3937 4086 L
3970 4086 L
4003 4086 L
4037 4086 L
4070 4086 L
LWMC SL dash03 C03 COSGR

GSN 753 3831 M
770 3831 L
803 3831 L
837 3831 L
870 3831 L
895 3831 L
911 3831 L
937 3831 L
970 3831 L
1003 3831 L
1037 3831 L
1053 3832 L
1070 3832 L
1103 3832 L
1137 3832 L
1170 3832 L
1195 3832 L
1211 3832 L
1237 3832 L
1270 3832 L
1303 3832 L
1337 3833 L
1353 3833 L
1370 3833 L
1403 3833 L
1437 3834 L
1470 3834 L
1495 3835 L
1512 3835 L
1537 3835 L
1570 3836 L
1603 3837 L
1637 3838 L
1653 3839 L
1670 3839 L
1703 3840 L
1737 3841 L
1770 3843 L
1795 3845 L
1812 3846 L
1837 3847 L
1870 3850 L
1903 3853 L
1937 3857 L
1953 3861 L
1971 3861 L
2003 3865 L
2037 3870 L
2070 3876 L
2095 3883 L
2112 3887 L
2137 3890 L
2170 3899 L
2203 3908 L
2237 3919 L
2253 3930 L
2271 3930 L
2303 3942 L
2337 3955 L
2370 3969 L
2395 3983 L
2412 3991 L
2437 3998 L
2470 4012 L
2503 4026 L
2537 4039 L
2553 4050 L
2571 4051 L
2603 4060 L
2637 4068 L
2670 4075 L
2695 4079 L
2712 4081 L
2737 4082 L
2770 4084 L
2803 4085 L
2837 4086 L
2854 4086 L
2871 4086 L
2903 4086 L
2937 4086 L
2970 4086 L
2995 4086 L
3012 4086 L
3037 4086 L
3061 4086 L
3077 4086 L
3103 4086 L
3137 4086 L
3154 4086 L
3171 4086 L
3203 4086 L
3237 4086 L
3270 4086 L
3296 4086 L
3312 4086 L
3337 4086 L
3370 4086 L
3403 4086 L
3437 4086 L
3454 4086 L
3471 4086 L
3503 4086 L
3537 4086 L
3570 4086 L
3596 4086 L
3612 4086 L
3637 4086 L
3670 4086 L
3703 4086 L
3737 4086 L
3754 4086 L
3771 4086 L
3803 4086 L
3837 4086 L
3870 4086 L
3896 4086 L
3912 4086 L
3937 4086 L
3970 4086 L
4003 4086 L
4037 4086 L
4070 4086 L
LWMC SL dash04 C04 COSGR

GSN 753 3859 M
770 3859 L
803 3859 L
837 3859 L
870 3859 L
895 3859 L
911 3859 L
937 3859 L
970 3859 L
1003 3859 L
1037 3859 L
1053 3859 L
1070 3859 L
1103 3860 L
1137 3860 L
1170 3860 L
1195 3860 L
1211 3860 L
1237 3860 L
1270 3860 L
1303 3860 L
1337 3861 L
1353 3861 L
1370 3861 L
1403 3861 L
1437 3861 L
1470 3862 L
1495 3862 L
1512 3863 L
1537 3863 L
1570 3863 L
1603 3864 L
1637 3865 L
1653 3866 L
1670 3866 L
1703 3867 L
1737 3868 L
1770 3870 L
1795 3872 L
1812 3873 L
1837 3874 L
1870 3876 L
1903 3879 L
1937 3882 L
1953 3885 L
1971 3886 L
2003 3890 L
2037 3894 L
2070 3900 L
2095 3906 L
2112 3909 L
2137 3912 L
2170 3920 L
2203 3928 L
2237 3937 L
2253 3948 L
2271 3948 L
2303 3959 L
2337 3970 L
2370 3982 L
2395 3995 L
2412 4002 L
2437 4008 L
2470 4021 L
2503 4033 L
2537 4044 L
2553 4055 L
2571 4055 L
2603 4063 L
2637 4071 L
2670 4076 L
2695 4080 L
2712 4082 L
2737 4083 L
2770 4085 L
2803 4085 L
2837 4086 L
2854 4086 L
2871 4086 L
2903 4086 L
2937 4086 L
2970 4086 L
2995 4086 L
3012 4086 L
3037 4086 L
3061 4086 L
3077 4086 L
3103 4086 L
3137 4086 L
3154 4086 L
3171 4086 L
3203 4086 L
3237 4086 L
3270 4086 L
3296 4086 L
3312 4086 L
3337 4086 L
3370 4086 L
3403 4086 L
3437 4086 L
3454 4086 L
3471 4086 L
3503 4086 L
3537 4086 L
3570 4086 L
3596 4086 L
3612 4086 L
3637 4086 L
3670 4086 L
3703 4086 L
3737 4086 L
3754 4086 L
3771 4086 L
3803 4086 L
3837 4086 L
3870 4086 L
3896 4086 L
3912 4086 L
3937 4086 L
3970 4086 L
4003 4086 L
4037 4086 L
4070 4086 L
LWMC SL dash05 C05 COSGR

GSN 753 3866 M
770 3866 L
803 3866 L
837 3866 L
870 3866 L
895 3866 L
911 3866 L
937 3866 L
970 3866 L
1003 3866 L
1037 3866 L
1053 3866 L
1070 3866 L
1103 3866 L
1137 3866 L
1170 3867 L
1195 3867 L
1211 3867 L
1237 3867 L
1270 3867 L
1303 3867 L
1337 3867 L
1353 3868 L
1370 3868 L
1403 3868 L
1437 3868 L
1470 3869 L
1495 3869 L
1512 3869 L
1537 3870 L
1570 3870 L
1603 3871 L
1637 3872 L
1653 3873 L
1670 3873 L
1703 3874 L
1737 3875 L
1770 3876 L
1795 3878 L
1812 3879 L
1837 3880 L
1870 3882 L
1903 3885 L
1937 3888 L
1953 3892 L
1971 3892 L
2003 3896 L
2037 3900 L
2070 3905 L
2095 3911 L
2112 3914 L
2137 3918 L
2170 3925 L
2203 3933 L
2237 3942 L
2253 3952 L
2271 3952 L
2303 3963 L
2337 3974 L
2370 3986 L
2395 3998 L
2412 4005 L
2437 4011 L
2470 4023 L
2503 4035 L
2537 4046 L
2553 4056 L
2571 4056 L
2603 4064 L
2637 4071 L
2670 4077 L
2695 4081 L
2712 4082 L
2737 4083 L
2770 4085 L
2803 4086 L
2837 4086 L
2854 4086 L
2871 4086 L
2903 4086 L
2937 4086 L
2970 4086 L
2995 4086 L
3012 4086 L
3037 4086 L
3061 4086 L
3077 4086 L
3103 4086 L
3137 4086 L
3154 4086 L
3171 4086 L
3203 4086 L
3237 4086 L
3270 4086 L
3296 4086 L
3312 4086 L
3337 4086 L
3370 4086 L
3403 4086 L
3437 4086 L
3454 4086 L
3471 4086 L
3503 4086 L
3537 4086 L
3570 4086 L
3596 4086 L
3612 4086 L
3637 4086 L
3670 4086 L
3703 4086 L
3737 4086 L
3754 4086 L
3771 4086 L
3803 4086 L
3837 4086 L
3870 4086 L
3896 4086 L
3912 4086 L
3937 4086 L
3970 4086 L
4003 4086 L
4037 4086 L
4070 4086 L
LWMC SL dash06 C06 COSGR

GSN 753 3866 M
770 3866 L
803 3866 L
837 3866 L
870 3866 L
895 3866 L
911 3866 L
937 3866 L
970 3866 L
1003 3866 L
1037 3866 L
1053 3867 L
1070 3867 L
1103 3867 L
1137 3867 L
1170 3867 L
1195 3867 L
1211 3867 L
1237 3867 L
1270 3867 L
1303 3867 L
1337 3868 L
1353 3868 L
1370 3868 L
1403 3868 L
1437 3868 L
1470 3869 L
1495 3869 L
1512 3869 L
1537 3870 L
1570 3870 L
1603 3871 L
1637 3872 L
1653 3873 L
1670 3873 L
1703 3874 L
1737 3875 L
1770 3877 L
1795 3878 L
1812 3879 L
1837 3880 L
1870 3883 L
1903 3885 L
1937 3888 L
1953 3892 L
1971 3892 L
2003 3896 L
2037 3900 L
2070 3906 L
2095 3911 L
2112 3915 L
2137 3918 L
2170 3925 L
2203 3933 L
2237 3942 L
2253 3952 L
2271 3953 L
2303 3963 L
2337 3974 L
2370 3986 L
2395 3998 L
2412 4005 L
2437 4011 L
2470 4023 L
2503 4035 L
2537 4046 L
2553 4056 L
2571 4056 L
2603 4064 L
2637 4071 L
2670 4077 L
2695 4081 L
2712 4082 L
2737 4083 L
2770 4085 L
2803 4086 L
2837 4086 L
2854 4086 L
2871 4086 L
2903 4086 L
2937 4086 L
2970 4086 L
2995 4086 L
3012 4086 L
3037 4086 L
3061 4086 L
3077 4086 L
3103 4086 L
3137 4086 L
3154 4086 L
3171 4086 L
3203 4086 L
3237 4086 L
3270 4086 L
3296 4086 L
3312 4086 L
3337 4086 L
3370 4086 L
3403 4086 L
3437 4086 L
3454 4086 L
3471 4086 L
3503 4086 L
3537 4086 L
3570 4086 L
3596 4086 L
3612 4086 L
3637 4086 L
3670 4086 L
3703 4086 L
3737 4086 L
3754 4086 L
3771 4086 L
3803 4086 L
3837 4086 L
3870 4086 L
3896 4086 L
3912 4086 L
3937 4086 L
3970 4086 L
4003 4086 L
4037 4086 L
4070 4086 L
LWMC SL dash07 C07 COSGR

%
%================
% Legend - Begin
%================
%
GSN 4240 4040 M
4480 4040 L
LWMC SL dash01 C01 COSGR
GSN 4540 4001 M helvM (0.5 uM) show grestore
GSN 4240 3860 M
4480 3860 L
LWMC SL dash02 C02 COSGR
GSN 4540 3821 M helvM (1.0 uM) show grestore
GSN 4240 3680 M
4480 3680 L
LWMC SL dash03 C03 COSGR
GSN 4540 3641 M helvM (1.5 uM) show grestore
GSN 4240 3500 M
4480 3500 L
LWMC SL dash04 C04 COSGR
GSN 4540 3461 M helvM (2.0 uM) show grestore
GSN 4240 3320 M
4480 3320 L
LWMC SL dash05 C05 COSGR
GSN 4540 3281 M helvM (2.5 uM) show grestore
GSN 4240 3140 M
4480 3140 L
LWMC SL dash06 C06 COSGR
GSN 4540 3101 M helvM (3.0 uM) show grestore
GSN 4240 2960 M
4480 2960 L
LWMC SL dash07 C07 COSGR
GSN 4540 2921 M helvM (4.0 uM) show grestore
%
%================
% Legend - End
%================
%

%
% Main frame
%
L10
GSN 
620 620 M
4220 620 L
4220 4220 L
620 4220 L
closepath SGR

%
% X axis: large tics
%
L10
GSN 1074 620 M 0  54 rL SGR
GSN 1074 4220 M 0 -54 rL SGR
helvS (0.0001) 1074 470 xlabel
GSN 1572 620 M 0  54 rL SGR
GSN 1572 4220 M 0 -54 rL SGR
helvS (0.001) 1572 470 xlabel
GSN 2071 620 M 0  54 rL SGR
GSN 2071 4220 M 0 -54 rL SGR
helvS (0.01) 2071 470 xlabel
GSN 2570 620 M 0  54 rL SGR
GSN 2570 4220 M 0 -54 rL SGR
helvS (0.1) 2570 470 xlabel
GSN 3068 620 M 0  54 rL SGR
GSN 3068 4220 M 0 -54 rL SGR
helvS (1) 3068 470 xlabel
GSN 3567 620 M 0  54 rL SGR
GSN 3567 4220 M 0 -54 rL SGR
helvS (10) 3567 470 xlabel
GSN 4066 620 M 0  54 rL SGR
GSN 4066 4220 M 0 -54 rL SGR
helvS (100) 4066 470 xlabel
%
% X axis: small tics
%
L5
GSN 725 620 M 0  36 rL SGR
GSN 725 4220 M 0 -36 rL SGR
GSN 813 620 M 0  36 rL SGR
GSN 813 4220 M 0 -36 rL SGR
GSN 875 620 M 0  36 rL SGR
GSN 875 4220 M 0 -36 rL SGR
GSN 924 620 M 0  36 rL SGR
GSN 924 4220 M 0 -36 rL SGR
GSN 963 620 M 0  36 rL SGR
GSN 963 4220 M 0 -36 rL SGR
GSN 996 620 M 0  36 rL SGR
GSN 996 4220 M 0 -36 rL SGR
GSN 1025 620 M 0  36 rL SGR
GSN 1025 4220 M 0 -36 rL SGR
GSN 1051 620 M 0  36 rL SGR
GSN 1051 4220 M 0 -36 rL SGR
GSN 1224 620 M 0  36 rL SGR
GSN 1224 4220 M 0 -36 rL SGR
GSN 1312 620 M 0  36 rL SGR
GSN 1312 4220 M 0 -36 rL SGR
GSN 1374 620 M 0  36 rL SGR
GSN 1374 4220 M 0 -36 rL SGR
GSN 1422 620 M 0  36 rL SGR
GSN 1422 4220 M 0 -36 rL SGR
GSN 1462 620 M 0  36 rL SGR
GSN 1462 4220 M 0 -36 rL SGR
GSN 1495 620 M 0  36 rL SGR
GSN 1495 4220 M 0 -36 rL SGR
GSN 1524 620 M 0  36 rL SGR
GSN 1524 4220 M 0 -36 rL SGR
GSN 1550 620 M 0  36 rL SGR
GSN 1550 4220 M 0 -36 rL SGR
GSN 1722 620 M 0  36 rL SGR
GSN 1722 4220 M 0 -36 rL SGR
GSN 1810 620 M 0  36 rL SGR
GSN 1810 4220 M 0 -36 rL SGR
GSN 1873 620 M 0  36 rL SGR
GSN 1873 4220 M 0 -36 rL SGR
GSN 1921 620 M 0  36 rL SGR
GSN 1921 4220 M 0 -36 rL SGR
GSN 1960 620 M 0  36 rL SGR
GSN 1960 4220 M 0 -36 rL SGR
GSN 1994 620 M 0  36 rL SGR
GSN 1994 4220 M 0 -36 rL SGR
GSN 2023 620 M 0  36 rL SGR
GSN 2023 4220 M 0 -36 rL SGR
GSN 2048 620 M 0  36 rL SGR
GSN 2048 4220 M 0 -36 rL SGR
GSN 2221 620 M 0  36 rL SGR
GSN 2221 4220 M 0 -36 rL SGR
GSN 2309 620 M 0  36 rL SGR
GSN 2309 4220 M 0 -36 rL SGR
GSN 2371 620 M 0  36 rL SGR
GSN 2371 4220 M 0 -36 rL SGR
GSN 2420 620 M 0  36 rL SGR
GSN 2420 4220 M 0 -36 rL SGR
GSN 2459 620 M 0  36 rL SGR
GSN 2459 4220 M 0 -36 rL SGR
GSN 2492 620 M 0  36 rL SGR
GSN 2492 4220 M 0 -36 rL SGR
GSN 2521 620 M 0  36 rL SGR
GSN 2521 4220 M 0 -36 rL SGR
GSN 2547 620 M 0  36 rL SGR
GSN 2547 4220 M 0 -36 rL SGR
GSN 2720 620 M 0  36 rL SGR
GSN 2720 4220 M 0 -36 rL SGR
GSN 2808 620 M 0  36 rL SGR
GSN 2808 4220 M 0 -36 rL SGR
GSN 2870 620 M 0  36 rL SGR
GSN 2870 4220 M 0 -36 rL SGR
GSN 2918 620 M 0  36 rL SGR
GSN 2918 4220 M 0 -36 rL SGR
GSN 2958 620 M 0  36 rL SGR
GSN 2958 4220 M 0 -36 rL SGR
GSN 2991 620 M 0  36 rL SGR
GSN 2991 4220 M 0 -36 rL SGR
GSN 3020 620 M 0  36 rL SGR
GSN 3020 4220 M 0 -36 rL SGR
GSN 3045 620 M 0  36 rL SGR
GSN 3045 4220 M 0 -36 rL SGR
GSN 3218 620 M 0  36 rL SGR
GSN 3218 4220 M 0 -36 rL SGR
GSN 3306 620 M 0  36 rL SGR
GSN 3306 4220 M 0 -36 rL SGR
GSN 3368 620 M 0  36 rL SGR
GSN 3368 4220 M 0 -36 rL SGR
GSN 3417 620 M 0  36 rL SGR
GSN 3417 4220 M 0 -36 rL SGR
GSN 3456 620 M 0  36 rL SGR
GSN 3456 4220 M 0 -36 rL SGR
GSN 3490 620 M 0  36 rL SGR
GSN 3490 4220 M 0 -36 rL SGR
GSN 3519 620 M 0  36 rL SGR
GSN 3519 4220 M 0 -36 rL SGR
GSN 3544 620 M 0  36 rL SGR
GSN 3544 4220 M 0 -36 rL SGR
GSN 3717 620 M 0  36 rL SGR
GSN 3717 4220 M 0 -36 rL SGR
GSN 3805 620 M 0  36 rL SGR
GSN 3805 4220 M 0 -36 rL SGR
GSN 3867 620 M 0  36 rL SGR
GSN 3867 4220 M 0 -36 rL SGR
GSN 3915 620 M 0  36 rL SGR
GSN 3915 4220 M 0 -36 rL SGR
GSN 3955 620 M 0  36 rL SGR
GSN 3955 4220 M 0 -36 rL SGR
GSN 3988 620 M 0  36 rL SGR
GSN 3988 4220 M 0 -36 rL SGR
GSN 4017 620 M 0  36 rL SGR
GSN 4017 4220 M 0 -36 rL SGR
GSN 4043 620 M 0  36 rL SGR
GSN 4043 4220 M 0 -36 rL SGR
GSN 4216 620 M 0  36 rL SGR
GSN 4216 4220 M 0 -36 rL SGR
%
% Y axis: large tics
%
L10
GSN 620 1095 M 54 0 rL SGR
GSN 4220 1095 M -54 0 rL SGR
helvS (-15) 560 1095 ylabel
GSN 620 2092 M 54 0 rL SGR
GSN 4220 2092 M -54 0 rL SGR
helvS (-10) 560 2092 ylabel
GSN 620 3089 M 54 0 rL SGR
GSN 4220 3089 M -54 0 rL SGR
helvS (-5) 560 3089 ylabel
GSN 620 4086 M 54 0 rL SGR
GSN 4220 4086 M -54 0 rL SGR
helvS (0) 560 4086 ylabel
%
% Y axis: small tics
%
L5
GSN 620 696 M 36 0 rL SGR
GSN 4220 696 M -36 0 rL SGR
GSN 620 896 M 36 0 rL SGR
GSN 4220 896 M -36 0 rL SGR
GSN 620 1095 M 36 0 rL SGR
GSN 4220 1095 M -36 0 rL SGR
GSN 620 1294 M 36 0 rL SGR
GSN 4220 1294 M -36 0 rL SGR
GSN 620 1494 M 36 0 rL SGR
GSN 4220 1494 M -36 0 rL SGR
GSN 620 1693 M 36 0 rL SGR
GSN 4220 1693 M -36 0 rL SGR
GSN 620 1893 M 36 0 rL SGR
GSN 4220 1893 M -36 0 rL SGR
GSN 620 2092 M 36 0 rL SGR
GSN 4220 2092 M -36 0 rL SGR
GSN 620 2291 M 36 0 rL SGR
GSN 4220 2291 M -36 0 rL SGR
GSN 620 2491 M 36 0 rL SGR
GSN 4220 2491 M -36 0 rL SGR
GSN 620 2690 M 36 0 rL SGR
GSN 4220 2690 M -36 0 rL SGR
GSN 620 2890 M 36 0 rL SGR
GSN 4220 2890 M -36 0 rL SGR
GSN 620 3089 M 36 0 rL SGR
GSN 4220 3089 M -36 0 rL SGR
GSN 620 3289 M 36 0 rL SGR
GSN 4220 3289 M -36 0 rL SGR
GSN 620 3488 M 36 0 rL SGR
GSN 4220 3488 M -36 0 rL SGR
GSN 620 3687 M 36 0 rL SGR
GSN 4220 3687 M -36 0 rL SGR
GSN 620 3887 M 36 0 rL SGR
GSN 4220 3887 M -36 0 rL SGR
GSN 620 4086 M 36 0 rL SGR
GSN 4220 4086 M -36 0 rL SGR

%
% X axis
%
GSN L5 620 4086 M 4220 4086 L SDA G50 SGR

%
% X-Axis label:
%
gsave 2420 290 M 
[
[(Helvetica) 180 0 true true 0 (t)]
[(Helvetica) 180 0 true true 0 (i)]
[(Helvetica) 180 0 true true 0 (m)]
[(Helvetica) 180 0 true true 0 (e)]
] 0 MCshow grestore

%
% Y-Axis label:
%
gsave 234 2420 M 
currentpoint gsave translate 90 rotate 0 0 moveto
[
[(Helvetica) 180 0 true true 0 (d)]
[(Helvetica) 180 0 true true 0 (\()]
[(Helvetica) 180 0 true true 0 (s)]
[(Helvetica) 180 0 true true 0 (i)]
[(Helvetica) 180 0 true true 0 (g)]
[(Helvetica) 180 0 true true 0 (n)]
[(Helvetica) 180 0 true true 0 (a)]
[(Helvetica) 180 0 true true 0 (l)]
[(Helvetica) 180 0 true true 0 (\))]
[(Helvetica) 180 0 true true 0 ( )]
[(Helvetica) 180 0 true true 0 (/)]
[(Helvetica) 180 0 true true 0 ( )]
[(Helvetica) 180 0 true true 0 (d)]
[(Helvetica) 180 0 true true 0 (t)]
] 0 MCshow grestore

end
showpage
%%Trailer
%%EOF
