%!PS-Adobe-3.0 EPSF-3.0
%%BoundingBox: 0 0 514 550
%%Creator: BioKin Ltd.
%%DocumentFonts: Symbol Helvetica
%%EndComments
%
/bkdict 256 dict def
bkdict begin
/M {moveto} def 
/R {rmoveto} def
/L {lineto} def
/rL {rlineto} def
/GSN {gsave newpath} def
/SGR {stroke grestore} def
/COSGR {gsave setrgbcolor stroke grestore grestore} def
/SL {setlinewidth} def
/LWMB {12} def             % line width - model curves, black & white
/LWMC {10} def             % line width - model curves, color
/L2 {2.5 setlinewidth} def
/L5 {5 setlinewidth} def
/L10 {10 setlinewidth} def
/G50 {0.5 setgray} def
/SDA {[10  20] 0 setdash} def % axes
/helvT {/Helvetica findfont 100 scalefont setfont} def % tiny
/helvS {/Helvetica findfont 125 scalefont setfont} def % small
/helvM {/Helvetica findfont 150 scalefont setfont} def % medium
/helvL {/Helvetica findfont 175 scalefont setfont} def % large
/xlabel {gsave M dup
   stringwidth exch -0.5 mul exch rmoveto show grestore} def 
/ylabel {gsave M 90 rotate dup
   stringwidth exch -0.5 mul exch rmoveto show grestore} def
/ylabelresid {gsave M dup
   stringwidth exch -1 mul exch rmoveto show grestore} def
% ======
% Shapes
% ======
% Circle:
/Circ {0 360 arc closepath} def
%
% Square:
/Squa {dup dup -0.5 mul dup dup R -2 mul 0 exch rL 1 mul 0 rL dup 0 exch -1 mul rL closepath} def
%
% Triangle Up:
/TriU {dup dup dup -0.4 mul exch -0.5 mul exch R dup 0.5 mul exch rL dup -1 mul exch 0.5 mul exch rL closepath} def 
%
% Triangle Down:
/TriD {dup dup dup 0.4 mul exch -0.5 mul exch R dup 0.5 mul exch -1 mul rL dup 0.5 mul exch rL closepath} def 
%
% Diamond:
/Diam {45 rotate Squa} def
% ======
% Fills
% ======
/GRF {gsave setgray fill grestore} def                    % gray-level Fill
/COF {gsave setrgbcolor fill grestore} def                % color fill
% ======
% Colors
% ======
/C01 {1.00	0.00	0.00} def      % Red
/C02 {0.00	0.00	1.00} def      % Blue
/C03 {0.00	0.39	0.00} def      % Dark Green
/C04 {0.78	0.08	0.52} def      % Medium Violet Red
/C05 {0.55	0.27	0.07} def      % Saddle Brown
/C06 {0.10	0.70	0.70} def      % (cyan)
/C07 {1.00	0.55	0.00} def      % Dark Orange
/C08 {0.63	0.13	0.94} def      % Purple
/C09 {0.00	0.75	1.00} def      % Deep Sky Blue
/C10 {0.20	0.80	0.20} def      % Lime Green
/C11 {0.47	0.53	0.60} def      % Light Slate Gray
/C12 {0.00	0.00	0.00} def      % Black            % or: {0.19	0.31	0.31} def      % Dark Slate Gray
%
/LGR {0.75} def % light gray
/DGR {0.33} def % dark gray
%
% =============
% Dash patterns
% =============
/dash01 { [80  20] 0 setdash } def
/dash02 { [40  20] 0 setdash } def
/dash03 { [80  20  10  20] 0 setdash } def
/dash04 { [40  20  10  20] 0 setdash } def
/dash05 { [80  20  10  10  10  20] 0 setdash } def
/dash06 { [40  20  10  10  10  20] 0 setdash } def
/dash07 { [10  10] 0 setdash } def
%
/MFshow {
   { dup 5 get 3 ge
     { 5 get 3 eq {gsave} {grestore} ifelse }
     {dup dup 0 get findfont exch 1 get scalefont setfont
     [ currentpoint ] exch dup 2 get 0 exch R dup 5 get 2 ne {dup dup 6
     get exch 4 get {show} {stringwidth pop 0 R} ifelse }if dup 5 get 0 eq
     {dup 3 get {2 get neg 0 exch R pop} {pop aload pop M} ifelse} {dup 5
     get 1 eq {dup 2 get exch dup 3 get exch 6 get stringwidth pop -2 div
     dup 0 R} {dup 6 get stringwidth pop -2 div 0 R 6 get
     show 2 index {aload pop M neg 3 -1 roll neg R pop pop} {pop pop pop
     pop aload pop M} ifelse }ifelse }ifelse }
     ifelse }
   forall} bind def
/MFwidth {0 exch {dup 3 get{dup dup 0 get findfont exch 1 get scalefont
     setfont 6 get stringwidth pop add} {pop} ifelse} forall} bind def
/MCshow { currentpoint stroke M
  exch dup MFwidth -2 div 3 -1 roll R MFshow } def
%
end
%%EndProlog
bkdict begin
0.1 0.1 scale
%
% Model curves:
%

GSN 753 5166 M
753 5166 L
786 5166 L
820 5165 L
853 5164 L
886 5164 L
903 5163 L
919 5163 L
953 5162 L
986 5161 L
1020 5159 L
1053 5158 L
1053 5158 L
1086 5156 L
1120 5153 L
1153 5151 L
1186 5148 L
1203 5146 L
1220 5144 L
1253 5140 L
1286 5135 L
1320 5130 L
1353 5123 L
1353 5123 L
1386 5116 L
1420 5107 L
1453 5097 L
1486 5085 L
1503 5078 L
1520 5071 L
1553 5055 L
1586 5037 L
1620 5016 L
1653 4991 L
1653 4990 L
1686 4963 L
1720 4930 L
1753 4892 L
1786 4849 L
1804 4824 L
1820 4800 L
1853 4743 L
1886 4680 L
1920 4608 L
1953 4527 L
1954 4525 L
1986 4436 L
2020 4336 L
2053 4226 L
2086 4106 L
2104 4038 L
2120 3976 L
2153 3839 L
2186 3695 L
2220 3547 L
2253 3398 L
2254 3394 L
2286 3252 L
2320 3112 L
2353 2983 L
2386 2868 L
2404 2814 L
2420 2770 L
2453 2691 L
2486 2631 L
2520 2589 L
2553 2561 L
2554 2560 L
2586 2544 L
2620 2536 L
2653 2531 L
2686 2530 L
2704 2529 L
2720 2529 L
2753 2529 L
2786 2529 L
2820 2529 L
2853 2529 L
2854 2529 L
2886 2529 L
2920 2529 L
2953 2529 L
2986 2529 L
3004 2529 L
3020 2529 L
3053 2529 L
3068 2529 L
3086 2529 L
3120 2529 L
3153 2529 L
3155 2529 L
3186 2529 L
3220 2529 L
3253 2529 L
3286 2529 L
3305 2529 L
3320 2529 L
3353 2529 L
3386 2529 L
3420 2529 L
3453 2528 L
3455 2528 L
3486 2528 L
3520 2528 L
3553 2528 L
3586 2528 L
3605 2528 L
3620 2527 L
3653 2527 L
3686 2527 L
3720 2526 L
3753 2525 L
3755 2525 L
3786 2525 L
3820 2523 L
3853 2522 L
3886 2520 L
3905 2519 L
3920 2518 L
3953 2515 L
3986 2512 L
4020 2507 L
4053 2501 L
4086 2494 L
LWMC SL  C04 COSGR

%
% Experimental data:
%
GSN 773 4709 M
1625 4473 L
1773 4307 L
1860 4497 L
1922 4281 L
1970 4482 L
2009 4207 L
2043 4208 L
2072 4208 L
2097 4033 L
2120 4022 L
2140 4028 L
2159 3798 L
2176 3810 L
2192 3826 L
2207 3815 L
2221 3947 L
2234 3770 L
2247 3816 L
2259 3736 L
2270 3733 L
2280 3704 L
2290 3719 L
2300 3525 L
2309 3651 L
2318 3702 L
2326 3420 L
2335 3583 L
2342 3373 L
2350 3510 L
2357 3402 L
2364 3348 L
2371 3394 L
2378 3438 L
2384 3389 L
2391 3313 L
2397 3403 L
2403 3540 L
2409 3214 L
2414 3329 L
2420 3326 L
2425 3301 L
2430 3277 L
2435 3052 L
2440 3341 L
2445 3327 L
2450 3103 L
2455 3185 L
2459 2995 L
2464 3077 L
2468 3110 L
2472 3214 L
2476 3242 L
2481 3055 L
2485 2995 L
2489 3182 L
2492 2898 L
2496 2996 L
2500 2996 L
2504 2824 L
2507 2820 L
2511 2940 L
2514 2992 L
2518 2932 L
2521 2842 L
2525 2812 L
2528 2698 L
2531 2847 L
2534 2817 L
2538 2767 L
2541 2855 L
2544 2946 L
2547 2779 L
2550 2751 L
2553 2772 L
2556 2848 L
2559 2707 L
2561 2638 L
2564 2916 L
2567 2633 L
2570 2858 L
2580 2399 L
2590 2727 L
2600 2460 L
2609 2428 L
2618 2504 L
2627 2368 L
2635 2333 L
2643 2434 L
2650 2406 L
2658 2335 L
2665 2301 L
2672 2188 L
2678 2230 L
2685 2252 L
2691 2442 L
2697 2191 L
2703 2238 L
2709 2263 L
2714 2236 L
2720 1935 L
2725 2047 L
2730 2171 L
2735 2144 L
2740 2139 L
2745 2008 L
2750 2109 L
2755 2233 L
2759 2079 L
2764 2085 L
2768 2017 L
2772 1936 L
2777 2163 L
2781 2049 L
2785 2011 L
2789 2043 L
2793 2105 L
2796 1902 L
2800 1989 L
2804 2099 L
2808 1991 L
2811 2015 L
2815 1974 L
2818 2008 L
2822 1995 L
2825 2011 L
2828 2034 L
2831 2035 L
2835 2080 L
2838 1897 L
2841 2032 L
2844 2140 L
2847 2014 L
2850 2044 L
2853 2023 L
2856 2087 L
2859 2029 L
2862 2001 L
2864 1985 L
2867 2024 L
2870 2068 L
2873 2062 L
2875 2046 L
2878 2089 L
2880 2084 L
2883 2169 L
2886 2206 L
2888 1833 L
2891 1910 L
2893 2020 L
2895 2202 L
2898 2151 L
2900 2023 L
2902 2107 L
2905 2112 L
2907 2100 L
2909 2074 L
2912 2171 L
2914 2055 L
2916 2110 L
2918 1994 L
2920 2104 L
2922 2212 L
2925 2039 L
2927 2182 L
2929 2126 L
2931 2116 L
2933 2104 L
2935 2279 L
2937 2122 L
2939 2268 L
2941 2202 L
2943 2222 L
2945 2283 L
2947 2135 L
2948 2135 L
2950 2269 L
2952 2234 L
2954 2142 L
2956 2172 L
2958 2182 L
2959 2253 L
2961 2358 L
2963 2219 L
2965 2299 L
2966 2198 L
2968 2318 L
2970 2319 L
2972 2163 L
2973 2234 L
2975 2258 L
2977 2342 L
2978 2141 L
2980 2228 L
2982 2305 L
2983 2296 L
2985 2180 L
2986 2226 L
2988 2206 L
2989 2322 L
2991 2261 L
2993 2333 L
2994 2134 L
2996 2466 L
2997 2274 L
2999 2290 L
3000 2333 L
3002 2262 L
3003 2324 L
3005 2384 L
3006 2305 L
3007 2286 L
3009 2372 L
3010 2189 L
3012 2294 L
3013 2366 L
3014 2452 L
3016 2410 L
3017 2386 L
3019 2384 L
3020 2388 L
3021 2368 L
3023 2499 L
3024 2471 L
3025 2481 L
3027 2255 L
3028 2382 L
3029 2579 L
3031 2459 L
3032 2477 L
3033 2393 L
3034 2477 L
3036 2445 L
3037 2340 L
3038 2474 L
3039 2401 L
3041 2605 L
3042 2593 L
3043 2366 L
3044 2553 L
3045 2432 L
3047 2489 L
3048 2434 L
3049 2586 L
3050 2431 L
3051 2365 L
3053 2315 L
3054 2570 L
3055 2391 L
3056 2394 L
3057 2377 L
3058 2392 L
3059 2464 L
3061 2538 L
3062 2572 L
3063 2445 L
3064 2451 L
3065 2458 L
3066 2554 L
3067 2373 L
3068 2401 L
3069 2698 L
3070 2572 L
3071 2569 L
3073 2619 L
3074 2556 L
3075 2548 L
3076 2499 L
3077 2401 L
3078 2544 L
3079 2646 L
3080 2486 L
3081 2295 L
3082 2568 L
3083 2515 L
3084 2535 L
3085 2634 L
3086 2467 L
3087 2576 L
3088 2583 L
3089 2681 L
3112 2691 L
3133 2704 L
3152 2721 L
3170 2843 L
3186 2603 L
3201 2777 L
3216 2942 L
3229 2809 L
3241 2868 L
3253 2703 L
3264 2853 L
3275 2861 L
3285 2848 L
3295 2877 L
3304 2869 L
3313 2666 L
3322 2900 L
3330 2850 L
3338 2810 L
3346 2832 L
3353 2915 L
3360 2825 L
3367 2783 L
3374 2966 L
3380 2685 L
3387 2977 L
3393 2847 L
3399 2848 L
3405 2802 L
3410 2817 L
3416 2882 L
3421 2791 L
3426 2772 L
3431 2783 L
3436 2868 L
3441 2836 L
3446 2752 L
3451 2815 L
3455 2809 L
3460 2709 L
3464 2746 L
3469 2811 L
3473 2879 L
3477 2815 L
3481 2816 L
3485 2735 L
3489 2755 L
3493 2721 L
3496 2803 L
3500 2897 L
3504 2762 L
3507 2952 L
3511 2934 L
3514 2759 L
3518 2874 L
3521 2831 L
3525 2740 L
3528 2803 L
3531 3096 L
3534 2803 L
3537 2883 L
3540 2721 L
3543 2683 L
3546 2762 L
3549 2721 L
3552 2797 L
3555 2883 L
3558 2737 L
3561 2811 L
3564 2707 L
3566 2677 L
3575 2685 L
3586 2554 L
3595 2892 L
3605 2627 L
3613 2754 L
3622 2706 L
3630 2827 L
3638 2733 L
3646 2717 L
3653 2785 L
3660 2827 L
3667 2761 L
3674 2581 L
3681 2772 L
3687 2767 L
3693 2651 L
3699 2593 L
3705 2693 L
3710 2597 L
3716 2858 L
3721 2702 L
3727 2711 L
3732 2625 L
3737 2722 L
3742 2583 L
3746 2739 L
3751 2745 L
3756 2548 L
3760 2428 L
3764 2686 L
3769 2777 L
3773 2593 L
3777 2533 L
3781 2626 L
3785 2578 L
3789 2663 L
3793 2485 L
3797 2661 L
3800 2683 L
3804 2694 L
3808 2583 L
3811 2621 L
3815 2743 L
3818 2503 L
3821 2456 L
3825 2711 L
3828 2487 L
3831 2625 L
3834 2383 L
3838 2547 L
3841 2447 L
3844 2614 L
3847 2805 L
3850 2567 L
3853 2498 L
3855 2604 L
3858 2322 L
3861 2521 L
3864 2591 L
3867 2644 L
3869 2467 L
3872 2660 L
3875 2474 L
3877 2594 L
3880 2581 L
3882 2599 L
3885 2666 L
3887 2412 L
3890 2619 L
3892 2435 L
3895 2504 L
3897 2531 L
3899 2623 L
3902 2540 L
3904 2484 L
3906 2604 L
3908 2440 L
3911 2505 L
3913 2540 L
3915 2594 L
3917 2543 L
3919 2677 L
3921 2550 L
3923 2722 L
3926 2484 L
3928 2642 L
3930 2582 L
3932 2562 L
3934 2557 L
3936 2564 L
3938 2549 L
3940 2481 L
3942 2495 L
3943 2779 L
3945 2547 L
3947 2449 L
3949 2585 L
3951 2540 L
3953 2727 L
3955 2489 L
3956 2693 L
3958 2701 L
3960 2493 L
3962 2649 L
3963 2530 L
3965 2614 L
3967 2628 L
3969 2663 L
3970 2372 L
3972 2683 L
3974 2424 L
3975 2520 L
3977 2502 L
3978 2613 L
3980 2624 L
3982 2309 L
3983 2452 L
3985 2458 L
3986 2569 L
3988 2677 L
3990 2461 L
3991 2495 L
3993 2248 L
3994 2575 L
3996 2454 L
3997 2593 L
3999 2256 L
4000 2506 L
4001 2669 L
4003 2368 L
4004 2393 L
4006 2434 L
4007 2406 L
4009 2504 L
4010 2526 L
4011 2561 L
4013 2535 L
4014 2488 L
4016 2490 L
4017 2379 L
4018 2559 L
4020 2552 L
4021 2228 L
4022 2516 L
4024 2436 L
4025 2538 L
4026 2467 L
4028 2506 L
4029 2603 L
4030 2519 L
4031 2409 L
4033 2353 L
4034 2505 L
4035 2533 L
4036 2371 L
4038 2351 L
4039 2521 L
4040 2567 L
4041 2380 L
4042 2552 L
4044 2489 L
4045 2354 L
4046 2505 L
4047 2510 L
4048 2791 L
4050 2464 L
4051 2454 L
4052 2574 L
4053 2425 L
4054 2517 L
4055 2611 L
4056 2531 L
4058 2530 L
4059 2409 L
4060 2512 L
4061 2552 L
4062 2511 L
4063 2430 L
4064 2412 L
4065 2478 L
4066 2445 L
L2 C04 COSGR

%
%================
% Legend - Begin
%================
%
GSN 4240 5180 M
4480 5180 L
LWMC SL  C04 COSGR
GSN 4540 5141 M helvM (2.0 uM) show grestore
%
%================
% Legend - End
%================
%

%
% Residuals:
%
GSN 773 888 M
1625 841 L
1773 829 L
1860 1017 L
1922 966 L
1970 1152 L
2009 1059 L
2043 1122 L
2072 1180 L
2097 1134 L
2120 1179 L
2140 1231 L
2159 1144 L
2176 1194 L
2192 1243 L
2207 1275 L
2221 1387 L
2234 1319 L
2247 1377 L
2259 1361 L
2270 1388 L
2280 1398 L
2290 1431 L
2300 1343 L
2309 1438 L
2318 1488 L
2326 1345 L
2335 1458 L
2342 1354 L
2350 1450 L
2357 1403 L
2364 1386 L
2371 1427 L
2378 1465 L
2384 1449 L
2391 1416 L
2397 1479 L
2403 1569 L
2409 1390 L
2414 1465 L
2420 1473 L
2425 1466 L
2430 1460 L
2435 1337 L
2440 1511 L
2445 1509 L
2450 1386 L
2455 1438 L
2459 1334 L
2464 1387 L
2468 1410 L
2472 1475 L
2476 1495 L
2481 1391 L
2485 1360 L
2489 1471 L
2492 1311 L
2496 1371 L
2500 1374 L
2504 1277 L
2507 1277 L
2511 1349 L
2514 1382 L
2518 1349 L
2521 1299 L
2525 1284 L
2528 1220 L
2531 1307 L
2534 1292 L
2538 1264 L
2541 1316 L
2544 1370 L
2547 1275 L
2550 1260 L
2553 1274 L
2556 1319 L
2559 1238 L
2561 1199 L
2564 1360 L
2567 1198 L
2570 1329 L
2580 1067 L
2590 1258 L
2600 1106 L
2609 1089 L
2618 1134 L
2627 1056 L
2635 1036 L
2643 1095 L
2650 1079 L
2658 1039 L
2665 1020 L
2672 954 L
2678 979 L
2685 991 L
2691 1101 L
2697 957 L
2703 984 L
2709 998 L
2714 983 L
2720 809 L
2725 874 L
2730 945 L
2735 930 L
2740 927 L
2745 852 L
2750 909 L
2755 981 L
2759 892 L
2764 896 L
2768 857 L
2772 810 L
2777 941 L
2781 875 L
2785 853 L
2789 872 L
2793 907 L
2796 790 L
2800 841 L
2804 904 L
2808 841 L
2811 856 L
2815 832 L
2818 852 L
2822 844 L
2825 853 L
2828 866 L
2831 867 L
2835 893 L
2838 787 L
2841 865 L
2844 927 L
2847 855 L
2850 872 L
2853 860 L
2856 897 L
2859 863 L
2862 847 L
2864 838 L
2867 861 L
2870 886 L
2873 883 L
2875 874 L
2878 898 L
2880 895 L
2883 944 L
2886 966 L
2888 750 L
2891 795 L
2893 858 L
2895 963 L
2898 934 L
2900 860 L
2902 909 L
2905 911 L
2907 904 L
2909 890 L
2912 946 L
2914 879 L
2916 910 L
2918 843 L
2920 907 L
2922 969 L
2925 869 L
2927 952 L
2929 919 L
2931 914 L
2933 907 L
2935 1008 L
2937 917 L
2939 1002 L
2941 963 L
2943 975 L
2945 1010 L
2947 925 L
2948 925 L
2950 1002 L
2952 981 L
2954 929 L
2956 946 L
2958 952 L
2959 993 L
2961 1053 L
2963 973 L
2965 1019 L
2966 961 L
2968 1030 L
2970 1031 L
2972 941 L
2973 982 L
2975 996 L
2977 1044 L
2978 928 L
2980 978 L
2982 1022 L
2983 1018 L
2985 951 L
2986 977 L
2988 966 L
2989 1032 L
2991 998 L
2993 1039 L
2994 924 L
2996 1115 L
2997 1005 L
2999 1014 L
3000 1039 L
3002 998 L
3003 1034 L
3005 1068 L
3006 1023 L
3007 1012 L
3009 1062 L
3010 956 L
3012 1016 L
3013 1058 L
3014 1107 L
3016 1083 L
3017 1069 L
3019 1068 L
3020 1070 L
3021 1059 L
3023 1135 L
3024 1118 L
3025 1124 L
3027 994 L
3028 1067 L
3029 1181 L
3031 1112 L
3032 1122 L
3033 1073 L
3034 1122 L
3036 1104 L
3037 1043 L
3038 1120 L
3039 1078 L
3041 1196 L
3042 1189 L
3043 1058 L
3044 1166 L
3045 1096 L
3047 1129 L
3048 1097 L
3049 1185 L
3050 1095 L
3051 1058 L
3053 1028 L
3054 1175 L
3055 1072 L
3056 1074 L
3057 1064 L
3058 1073 L
3059 1114 L
3061 1157 L
3062 1177 L
3063 1104 L
3064 1107 L
3065 1111 L
3066 1166 L
3067 1062 L
3068 1078 L
3069 1249 L
3070 1177 L
3071 1175 L
3073 1204 L
3074 1168 L
3075 1163 L
3076 1135 L
3077 1078 L
3078 1161 L
3079 1219 L
3080 1127 L
3081 1017 L
3082 1174 L
3083 1144 L
3084 1155 L
3085 1212 L
3086 1116 L
3087 1179 L
3088 1183 L
3089 1239 L
3112 1245 L
3133 1253 L
3152 1263 L
3170 1333 L
3186 1195 L
3201 1295 L
3216 1390 L
3229 1313 L
3241 1347 L
3253 1252 L
3264 1339 L
3275 1344 L
3285 1336 L
3295 1353 L
3304 1348 L
3313 1231 L
3322 1366 L
3330 1337 L
3338 1314 L
3346 1327 L
3353 1375 L
3360 1323 L
3367 1299 L
3374 1404 L
3380 1242 L
3387 1410 L
3393 1336 L
3399 1336 L
3405 1310 L
3410 1318 L
3416 1356 L
3421 1303 L
3426 1292 L
3431 1299 L
3436 1348 L
3441 1329 L
3446 1281 L
3451 1317 L
3455 1314 L
3460 1256 L
3464 1277 L
3469 1315 L
3473 1354 L
3477 1317 L
3481 1318 L
3485 1271 L
3489 1282 L
3493 1263 L
3496 1310 L
3500 1365 L
3504 1287 L
3507 1396 L
3511 1386 L
3514 1285 L
3518 1351 L
3521 1327 L
3525 1274 L
3528 1310 L
3531 1480 L
3534 1310 L
3537 1357 L
3540 1263 L
3543 1241 L
3546 1287 L
3549 1263 L
3552 1307 L
3555 1357 L
3558 1273 L
3561 1315 L
3564 1255 L
3566 1238 L
3575 1243 L
3586 1167 L
3595 1362 L
3605 1209 L
3613 1283 L
3622 1255 L
3630 1325 L
3638 1270 L
3646 1261 L
3653 1300 L
3660 1325 L
3667 1287 L
3674 1183 L
3681 1293 L
3687 1290 L
3693 1224 L
3699 1190 L
3705 1248 L
3710 1193 L
3716 1343 L
3721 1253 L
3727 1259 L
3732 1209 L
3737 1265 L
3742 1185 L
3746 1275 L
3751 1279 L
3756 1165 L
3760 1096 L
3764 1245 L
3769 1297 L
3773 1191 L
3777 1156 L
3781 1210 L
3785 1183 L
3789 1232 L
3793 1129 L
3797 1231 L
3800 1243 L
3804 1250 L
3808 1186 L
3811 1208 L
3815 1278 L
3818 1140 L
3821 1113 L
3825 1260 L
3828 1131 L
3831 1210 L
3834 1071 L
3838 1166 L
3841 1108 L
3844 1205 L
3847 1315 L
3850 1177 L
3853 1138 L
3855 1199 L
3858 1037 L
3861 1152 L
3864 1192 L
3867 1223 L
3869 1121 L
3872 1232 L
3875 1125 L
3877 1194 L
3880 1187 L
3882 1197 L
3885 1236 L
3887 1090 L
3890 1209 L
3892 1103 L
3895 1143 L
3897 1159 L
3899 1211 L
3902 1164 L
3904 1131 L
3906 1201 L
3908 1106 L
3911 1144 L
3913 1164 L
3915 1195 L
3917 1166 L
3919 1244 L
3921 1170 L
3923 1270 L
3926 1132 L
3928 1224 L
3930 1189 L
3932 1178 L
3934 1175 L
3936 1179 L
3938 1170 L
3940 1132 L
3942 1140 L
3943 1303 L
3945 1170 L
3947 1113 L
3949 1192 L
3951 1166 L
3953 1274 L
3955 1137 L
3956 1254 L
3958 1259 L
3960 1140 L
3962 1229 L
3963 1161 L
3965 1209 L
3967 1218 L
3969 1238 L
3970 1071 L
3972 1250 L
3974 1101 L
3975 1156 L
3977 1146 L
3978 1210 L
3980 1216 L
3982 1035 L
3983 1117 L
3985 1121 L
3986 1185 L
3988 1247 L
3990 1123 L
3991 1143 L
3993 1000 L
3994 1189 L
3996 1120 L
3997 1200 L
3999 1006 L
4000 1150 L
4001 1244 L
4003 1070 L
4004 1085 L
4006 1109 L
4007 1093 L
4009 1149 L
4010 1162 L
4011 1182 L
4013 1167 L
4014 1140 L
4016 1142 L
4017 1078 L
4018 1182 L
4020 1178 L
4021 991 L
4022 1157 L
4024 1111 L
4025 1170 L
4026 1129 L
4028 1152 L
4029 1208 L
4030 1160 L
4031 1096 L
4033 1064 L
4034 1152 L
4035 1168 L
4036 1075 L
4038 1064 L
4039 1162 L
4040 1188 L
4041 1081 L
4042 1180 L
4044 1143 L
4045 1066 L
4046 1153 L
4047 1157 L
4048 1318 L
4050 1130 L
4051 1124 L
4052 1194 L
4053 1108 L
4054 1161 L
4055 1216 L
4056 1169 L
4058 1169 L
4059 1099 L
4060 1159 L
4061 1182 L
4062 1159 L
4063 1112 L
4064 1102 L
4065 1140 L
4066 1121 L
L2 C04 COSGR

%
% Main frame
%
L10
GSN 
620 1700 M
4220 1700 L
4220 5300 L
620 5300 L
closepath SGR

%
% X axis: large tics
%
L10
GSN 1074 1700 M 0  54 rL SGR
GSN 1074 5300 M 0 -54 rL SGR
helvS (0.0001) 1074 470 xlabel
GSN 1572 1700 M 0  54 rL SGR
GSN 1572 5300 M 0 -54 rL SGR
helvS (0.001) 1572 470 xlabel
GSN 2071 1700 M 0  54 rL SGR
GSN 2071 5300 M 0 -54 rL SGR
helvS (0.01) 2071 470 xlabel
GSN 2570 1700 M 0  54 rL SGR
GSN 2570 5300 M 0 -54 rL SGR
helvS (0.1) 2570 470 xlabel
GSN 3068 1700 M 0  54 rL SGR
GSN 3068 5300 M 0 -54 rL SGR
helvS (1) 3068 470 xlabel
GSN 3567 1700 M 0  54 rL SGR
GSN 3567 5300 M 0 -54 rL SGR
helvS (10) 3567 470 xlabel
GSN 4066 1700 M 0  54 rL SGR
GSN 4066 5300 M 0 -54 rL SGR
helvS (100) 4066 470 xlabel
%
% X axis: small tics
%
L5
GSN 725 1700 M 0  36 rL SGR
GSN 725 5300 M 0 -36 rL SGR
GSN 813 1700 M 0  36 rL SGR
GSN 813 5300 M 0 -36 rL SGR
GSN 875 1700 M 0  36 rL SGR
GSN 875 5300 M 0 -36 rL SGR
GSN 924 1700 M 0  36 rL SGR
GSN 924 5300 M 0 -36 rL SGR
GSN 963 1700 M 0  36 rL SGR
GSN 963 5300 M 0 -36 rL SGR
GSN 996 1700 M 0  36 rL SGR
GSN 996 5300 M 0 -36 rL SGR
GSN 1025 1700 M 0  36 rL SGR
GSN 1025 5300 M 0 -36 rL SGR
GSN 1051 1700 M 0  36 rL SGR
GSN 1051 5300 M 0 -36 rL SGR
GSN 1224 1700 M 0  36 rL SGR
GSN 1224 5300 M 0 -36 rL SGR
GSN 1312 1700 M 0  36 rL SGR
GSN 1312 5300 M 0 -36 rL SGR
GSN 1374 1700 M 0  36 rL SGR
GSN 1374 5300 M 0 -36 rL SGR
GSN 1422 1700 M 0  36 rL SGR
GSN 1422 5300 M 0 -36 rL SGR
GSN 1462 1700 M 0  36 rL SGR
GSN 1462 5300 M 0 -36 rL SGR
GSN 1495 1700 M 0  36 rL SGR
GSN 1495 5300 M 0 -36 rL SGR
GSN 1524 1700 M 0  36 rL SGR
GSN 1524 5300 M 0 -36 rL SGR
GSN 1550 1700 M 0  36 rL SGR
GSN 1550 5300 M 0 -36 rL SGR
GSN 1722 1700 M 0  36 rL SGR
GSN 1722 5300 M 0 -36 rL SGR
GSN 1810 1700 M 0  36 rL SGR
GSN 1810 5300 M 0 -36 rL SGR
GSN 1873 1700 M 0  36 rL SGR
GSN 1873 5300 M 0 -36 rL SGR
GSN 1921 1700 M 0  36 rL SGR
GSN 1921 5300 M 0 -36 rL SGR
GSN 1960 1700 M 0  36 rL SGR
GSN 1960 5300 M 0 -36 rL SGR
GSN 1994 1700 M 0  36 rL SGR
GSN 1994 5300 M 0 -36 rL SGR
GSN 2023 1700 M 0  36 rL SGR
GSN 2023 5300 M 0 -36 rL SGR
GSN 2048 1700 M 0  36 rL SGR
GSN 2048 5300 M 0 -36 rL SGR
GSN 2221 1700 M 0  36 rL SGR
GSN 2221 5300 M 0 -36 rL SGR
GSN 2309 1700 M 0  36 rL SGR
GSN 2309 5300 M 0 -36 rL SGR
GSN 2371 1700 M 0  36 rL SGR
GSN 2371 5300 M 0 -36 rL SGR
GSN 2420 1700 M 0  36 rL SGR
GSN 2420 5300 M 0 -36 rL SGR
GSN 2459 1700 M 0  36 rL SGR
GSN 2459 5300 M 0 -36 rL SGR
GSN 2492 1700 M 0  36 rL SGR
GSN 2492 5300 M 0 -36 rL SGR
GSN 2521 1700 M 0  36 rL SGR
GSN 2521 5300 M 0 -36 rL SGR
GSN 2547 1700 M 0  36 rL SGR
GSN 2547 5300 M 0 -36 rL SGR
GSN 2720 1700 M 0  36 rL SGR
GSN 2720 5300 M 0 -36 rL SGR
GSN 2808 1700 M 0  36 rL SGR
GSN 2808 5300 M 0 -36 rL SGR
GSN 2870 1700 M 0  36 rL SGR
GSN 2870 5300 M 0 -36 rL SGR
GSN 2918 1700 M 0  36 rL SGR
GSN 2918 5300 M 0 -36 rL SGR
GSN 2958 1700 M 0  36 rL SGR
GSN 2958 5300 M 0 -36 rL SGR
GSN 2991 1700 M 0  36 rL SGR
GSN 2991 5300 M 0 -36 rL SGR
GSN 3020 1700 M 0  36 rL SGR
GSN 3020 5300 M 0 -36 rL SGR
GSN 3045 1700 M 0  36 rL SGR
GSN 3045 5300 M 0 -36 rL SGR
GSN 3218 1700 M 0  36 rL SGR
GSN 3218 5300 M 0 -36 rL SGR
GSN 3306 1700 M 0  36 rL SGR
GSN 3306 5300 M 0 -36 rL SGR
GSN 3368 1700 M 0  36 rL SGR
GSN 3368 5300 M 0 -36 rL SGR
GSN 3417 1700 M 0  36 rL SGR
GSN 3417 5300 M 0 -36 rL SGR
GSN 3456 1700 M 0  36 rL SGR
GSN 3456 5300 M 0 -36 rL SGR
GSN 3490 1700 M 0  36 rL SGR
GSN 3490 5300 M 0 -36 rL SGR
GSN 3519 1700 M 0  36 rL SGR
GSN 3519 5300 M 0 -36 rL SGR
GSN 3544 1700 M 0  36 rL SGR
GSN 3544 5300 M 0 -36 rL SGR
GSN 3717 1700 M 0  36 rL SGR
GSN 3717 5300 M 0 -36 rL SGR
GSN 3805 1700 M 0  36 rL SGR
GSN 3805 5300 M 0 -36 rL SGR
GSN 3867 1700 M 0  36 rL SGR
GSN 3867 5300 M 0 -36 rL SGR
GSN 3915 1700 M 0  36 rL SGR
GSN 3915 5300 M 0 -36 rL SGR
GSN 3955 1700 M 0  36 rL SGR
GSN 3955 5300 M 0 -36 rL SGR
GSN 3988 1700 M 0  36 rL SGR
GSN 3988 5300 M 0 -36 rL SGR
GSN 4017 1700 M 0  36 rL SGR
GSN 4017 5300 M 0 -36 rL SGR
GSN 4043 1700 M 0  36 rL SGR
GSN 4043 5300 M 0 -36 rL SGR
GSN 4216 1700 M 0  36 rL SGR
GSN 4216 5300 M 0 -36 rL SGR
%
% Y axis: large tics
%
L10
GSN 620 2224 M 54 0 rL SGR
GSN 4220 2224 M -54 0 rL SGR
helvS (1) 560 2224 ylabel
GSN 620 3099 M 54 0 rL SGR
GSN 4220 3099 M -54 0 rL SGR
helvS (1.025) 560 3099 ylabel
GSN 620 3973 M 54 0 rL SGR
GSN 4220 3973 M -54 0 rL SGR
helvS (1.05) 560 3973 ylabel
GSN 620 4847 M 54 0 rL SGR
GSN 4220 4847 M -54 0 rL SGR
helvS (1.075) 560 4847 ylabel
%
% Y axis: small tics
%
L5
GSN 620 1787 M 36 0 rL SGR
GSN 4220 1787 M -36 0 rL SGR
GSN 620 2224 M 36 0 rL SGR
GSN 4220 2224 M -36 0 rL SGR
GSN 620 2662 M 36 0 rL SGR
GSN 4220 2662 M -36 0 rL SGR
GSN 620 3099 M 36 0 rL SGR
GSN 4220 3099 M -36 0 rL SGR
GSN 620 3536 M 36 0 rL SGR
GSN 4220 3536 M -36 0 rL SGR
GSN 620 3973 M 36 0 rL SGR
GSN 4220 3973 M -36 0 rL SGR
GSN 620 4410 M 36 0 rL SGR
GSN 4220 4410 M -36 0 rL SGR
GSN 620 4847 M 36 0 rL SGR
GSN 4220 4847 M -36 0 rL SGR
GSN 620 5285 M 36 0 rL SGR
GSN 4220 5285 M -36 0 rL SGR

%
% X-Axis label:
%
gsave 2420 290 M 
[
[(Helvetica) 180 0 true true 0 (t)]
[(Helvetica) 180 0 true true 0 (i)]
[(Helvetica) 180 0 true true 0 (m)]
[(Helvetica) 180 0 true true 0 (e)]
] 0 MCshow grestore

%
% Y-Axis label:
%
gsave 234 3500 M 
currentpoint gsave translate 90 rotate 0 0 moveto
[
[(Helvetica) 180 0 true true 0 (s)]
[(Helvetica) 180 0 true true 0 (i)]
[(Helvetica) 180 0 true true 0 (g)]
[(Helvetica) 180 0 true true 0 (n)]
[(Helvetica) 180 0 true true 0 (a)]
[(Helvetica) 180 0 true true 0 (l)]
] 0 MCshow grestore

%
% Residuals:
%
gsave 129 1160 M 
currentpoint gsave translate 90 rotate 0 0 moveto
[
[(Helvetica) 150 0 true true 0 (r)]
[(Helvetica) 150 0 true true 0 (e)]
[(Helvetica) 150 0 true true 0 (s)]
[(Helvetica) 150 0 true true 0 (i)]
[(Helvetica) 150 0 true true 0 (d)]
[(Helvetica) 150 0 true true 0 (u)]
[(Helvetica) 150 0 true true 0 (a)]
[(Helvetica) 150 0 true true 0 (l)]
[(Helvetica) 150 0 true true 0 (s)]
] 0 MCshow grestore

%
% Residual frame
%
L10
GSN 
620 620 M
4220 620 L
4220 1700 L
620 1700 L
closepath SGR
%
% X axis: large tics - residual frame
%
L10
GSN 1074 620 M 0  54 rL SGR
GSN 1074 1700 M 0 -54 rL SGR
GSN 1572 620 M 0  54 rL SGR
GSN 1572 1700 M 0 -54 rL SGR
GSN 2071 620 M 0  54 rL SGR
GSN 2071 1700 M 0 -54 rL SGR
GSN 2570 620 M 0  54 rL SGR
GSN 2570 1700 M 0 -54 rL SGR
GSN 3068 620 M 0  54 rL SGR
GSN 3068 1700 M 0 -54 rL SGR
GSN 3567 620 M 0  54 rL SGR
GSN 3567 1700 M 0 -54 rL SGR
GSN 4066 620 M 0  54 rL SGR
GSN 4066 1700 M 0 -54 rL SGR
%
% X axis: small tics - residual frame
%
L5
GSN 725 620 M 0  36 rL SGR
GSN 725 1700 M 0 -36 rL SGR
GSN 813 620 M 0  36 rL SGR
GSN 813 1700 M 0 -36 rL SGR
GSN 875 620 M 0  36 rL SGR
GSN 875 1700 M 0 -36 rL SGR
GSN 924 620 M 0  36 rL SGR
GSN 924 1700 M 0 -36 rL SGR
GSN 963 620 M 0  36 rL SGR
GSN 963 1700 M 0 -36 rL SGR
GSN 996 620 M 0  36 rL SGR
GSN 996 1700 M 0 -36 rL SGR
GSN 1025 620 M 0  36 rL SGR
GSN 1025 1700 M 0 -36 rL SGR
GSN 1051 620 M 0  36 rL SGR
GSN 1051 1700 M 0 -36 rL SGR
GSN 1224 620 M 0  36 rL SGR
GSN 1224 1700 M 0 -36 rL SGR
GSN 1312 620 M 0  36 rL SGR
GSN 1312 1700 M 0 -36 rL SGR
GSN 1374 620 M 0  36 rL SGR
GSN 1374 1700 M 0 -36 rL SGR
GSN 1422 620 M 0  36 rL SGR
GSN 1422 1700 M 0 -36 rL SGR
GSN 1462 620 M 0  36 rL SGR
GSN 1462 1700 M 0 -36 rL SGR
GSN 1495 620 M 0  36 rL SGR
GSN 1495 1700 M 0 -36 rL SGR
GSN 1524 620 M 0  36 rL SGR
GSN 1524 1700 M 0 -36 rL SGR
GSN 1550 620 M 0  36 rL SGR
GSN 1550 1700 M 0 -36 rL SGR
GSN 1722 620 M 0  36 rL SGR
GSN 1722 1700 M 0 -36 rL SGR
GSN 1810 620 M 0  36 rL SGR
GSN 1810 1700 M 0 -36 rL SGR
GSN 1873 620 M 0  36 rL SGR
GSN 1873 1700 M 0 -36 rL SGR
GSN 1921 620 M 0  36 rL SGR
GSN 1921 1700 M 0 -36 rL SGR
GSN 1960 620 M 0  36 rL SGR
GSN 1960 1700 M 0 -36 rL SGR
GSN 1994 620 M 0  36 rL SGR
GSN 1994 1700 M 0 -36 rL SGR
GSN 2023 620 M 0  36 rL SGR
GSN 2023 1700 M 0 -36 rL SGR
GSN 2048 620 M 0  36 rL SGR
GSN 2048 1700 M 0 -36 rL SGR
GSN 2221 620 M 0  36 rL SGR
GSN 2221 1700 M 0 -36 rL SGR
GSN 2309 620 M 0  36 rL SGR
GSN 2309 1700 M 0 -36 rL SGR
GSN 2371 620 M 0  36 rL SGR
GSN 2371 1700 M 0 -36 rL SGR
GSN 2420 620 M 0  36 rL SGR
GSN 2420 1700 M 0 -36 rL SGR
GSN 2459 620 M 0  36 rL SGR
GSN 2459 1700 M 0 -36 rL SGR
GSN 2492 620 M 0  36 rL SGR
GSN 2492 1700 M 0 -36 rL SGR
GSN 2521 620 M 0  36 rL SGR
GSN 2521 1700 M 0 -36 rL SGR
GSN 2547 620 M 0  36 rL SGR
GSN 2547 1700 M 0 -36 rL SGR
GSN 2720 620 M 0  36 rL SGR
GSN 2720 1700 M 0 -36 rL SGR
GSN 2808 620 M 0  36 rL SGR
GSN 2808 1700 M 0 -36 rL SGR
GSN 2870 620 M 0  36 rL SGR
GSN 2870 1700 M 0 -36 rL SGR
GSN 2918 620 M 0  36 rL SGR
GSN 2918 1700 M 0 -36 rL SGR
GSN 2958 620 M 0  36 rL SGR
GSN 2958 1700 M 0 -36 rL SGR
GSN 2991 620 M 0  36 rL SGR
GSN 2991 1700 M 0 -36 rL SGR
GSN 3020 620 M 0  36 rL SGR
GSN 3020 1700 M 0 -36 rL SGR
GSN 3045 620 M 0  36 rL SGR
GSN 3045 1700 M 0 -36 rL SGR
GSN 3218 620 M 0  36 rL SGR
GSN 3218 1700 M 0 -36 rL SGR
GSN 3306 620 M 0  36 rL SGR
GSN 3306 1700 M 0 -36 rL SGR
GSN 3368 620 M 0  36 rL SGR
GSN 3368 1700 M 0 -36 rL SGR
GSN 3417 620 M 0  36 rL SGR
GSN 3417 1700 M 0 -36 rL SGR
GSN 3456 620 M 0  36 rL SGR
GSN 3456 1700 M 0 -36 rL SGR
GSN 3490 620 M 0  36 rL SGR
GSN 3490 1700 M 0 -36 rL SGR
GSN 3519 620 M 0  36 rL SGR
GSN 3519 1700 M 0 -36 rL SGR
GSN 3544 620 M 0  36 rL SGR
GSN 3544 1700 M 0 -36 rL SGR
GSN 3717 620 M 0  36 rL SGR
GSN 3717 1700 M 0 -36 rL SGR
GSN 3805 620 M 0  36 rL SGR
GSN 3805 1700 M 0 -36 rL SGR
GSN 3867 620 M 0  36 rL SGR
GSN 3867 1700 M 0 -36 rL SGR
GSN 3915 620 M 0  36 rL SGR
GSN 3915 1700 M 0 -36 rL SGR
GSN 3955 620 M 0  36 rL SGR
GSN 3955 1700 M 0 -36 rL SGR
GSN 3988 620 M 0  36 rL SGR
GSN 3988 1700 M 0 -36 rL SGR
GSN 4017 620 M 0  36 rL SGR
GSN 4017 1700 M 0 -36 rL SGR
GSN 4043 620 M 0  36 rL SGR
GSN 4043 1700 M 0 -36 rL SGR
GSN 4216 620 M 0  36 rL SGR
GSN 4216 1700 M 0 -36 rL SGR
%
% Y axis: large tics - residual frame
%
L10
GSN 620 749 M 54 0 rL SGR
GSN 4220 749 M -54 0 rL SGR
helvS (-0.02) 560 749 ylabelresid
GSN 620 1152 M 54 0 rL SGR
GSN 4220 1152 M -54 0 rL SGR
helvS (0) 560 1152 ylabelresid
GSN 620 1555 M 54 0 rL SGR
GSN 4220 1555 M -54 0 rL SGR
helvS (0.02) 560 1555 ylabelresid

%
% X axis - residual panel
%
GSN L5 620 1152 M 4220 1152 L SDA G50 SGR

end
showpage
%%Trailer
%%EOF
