%!PS-Adobe-3.0 EPSF-3.0
%%BoundingBox: 0 0 514 550
%%Creator: BioKin Ltd.
%%DocumentFonts: Symbol Helvetica
%%EndComments
%
/bkdict 256 dict def
bkdict begin
/M {moveto} def 
/R {rmoveto} def
/L {lineto} def
/rL {rlineto} def
/GSN {gsave newpath} def
/SGR {stroke grestore} def
/COSGR {gsave setrgbcolor stroke grestore grestore} def
/SL {setlinewidth} def
/LWMB {12} def             % line width - model curves, black & white
/LWMC {10} def             % line width - model curves, color
/L2 {2.5 setlinewidth} def
/L5 {5 setlinewidth} def
/L10 {10 setlinewidth} def
/G50 {0.5 setgray} def
/SDA {[10  20] 0 setdash} def % axes
/helvT {/Helvetica findfont 100 scalefont setfont} def % tiny
/helvS {/Helvetica findfont 125 scalefont setfont} def % small
/helvM {/Helvetica findfont 150 scalefont setfont} def % medium
/helvL {/Helvetica findfont 175 scalefont setfont} def % large
/xlabel {gsave M dup
   stringwidth exch -0.5 mul exch rmoveto show grestore} def 
/ylabel {gsave M 90 rotate dup
   stringwidth exch -0.5 mul exch rmoveto show grestore} def
/ylabelresid {gsave M dup
   stringwidth exch -1 mul exch rmoveto show grestore} def
% ======
% Shapes
% ======
% Circle:
/Circ {0 360 arc closepath} def
%
% Square:
/Squa {dup dup -0.5 mul dup dup R -2 mul 0 exch rL 1 mul 0 rL dup 0 exch -1 mul rL closepath} def
%
% Triangle Up:
/TriU {dup dup dup -0.4 mul exch -0.5 mul exch R dup 0.5 mul exch rL dup -1 mul exch 0.5 mul exch rL closepath} def 
%
% Triangle Down:
/TriD {dup dup dup 0.4 mul exch -0.5 mul exch R dup 0.5 mul exch -1 mul rL dup 0.5 mul exch rL closepath} def 
%
% Diamond:
/Diam {45 rotate Squa} def
% ======
% Fills
% ======
/GRF {gsave setgray fill grestore} def                    % gray-level Fill
/COF {gsave setrgbcolor fill grestore} def                % color fill
% ======
% Colors
% ======
/C01 {1.00	0.00	0.00} def      % Red
/C02 {0.00	0.00	1.00} def      % Blue
/C03 {0.00	0.39	0.00} def      % Dark Green
/C04 {0.78	0.08	0.52} def      % Medium Violet Red
/C05 {0.55	0.27	0.07} def      % Saddle Brown
/C06 {0.10	0.70	0.70} def      % (cyan)
/C07 {1.00	0.55	0.00} def      % Dark Orange
/C08 {0.63	0.13	0.94} def      % Purple
/C09 {0.00	0.75	1.00} def      % Deep Sky Blue
/C10 {0.20	0.80	0.20} def      % Lime Green
/C11 {0.47	0.53	0.60} def      % Light Slate Gray
/C12 {0.00	0.00	0.00} def      % Black            % or: {0.19	0.31	0.31} def      % Dark Slate Gray
%
/LGR {0.75} def % light gray
/DGR {0.33} def % dark gray
%
% =============
% Dash patterns
% =============
/dash01 { [80  20] 0 setdash } def
/dash02 { [40  20] 0 setdash } def
/dash03 { [80  20  10  20] 0 setdash } def
/dash04 { [40  20  10  20] 0 setdash } def
/dash05 { [80  20  10  10  10  20] 0 setdash } def
/dash06 { [40  20  10  10  10  20] 0 setdash } def
/dash07 { [10  10] 0 setdash } def
%
/MFshow {
   { dup 5 get 3 ge
     { 5 get 3 eq {gsave} {grestore} ifelse }
     {dup dup 0 get findfont exch 1 get scalefont setfont
     [ currentpoint ] exch dup 2 get 0 exch R dup 5 get 2 ne {dup dup 6
     get exch 4 get {show} {stringwidth pop 0 R} ifelse }if dup 5 get 0 eq
     {dup 3 get {2 get neg 0 exch R pop} {pop aload pop M} ifelse} {dup 5
     get 1 eq {dup 2 get exch dup 3 get exch 6 get stringwidth pop -2 div
     dup 0 R} {dup 6 get stringwidth pop -2 div 0 R 6 get
     show 2 index {aload pop M neg 3 -1 roll neg R pop pop} {pop pop pop
     pop aload pop M} ifelse }ifelse }ifelse }
     ifelse }
   forall} bind def
/MFwidth {0 exch {dup 3 get{dup dup 0 get findfont exch 1 get scalefont
     setfont 6 get stringwidth pop add} {pop} ifelse} forall} bind def
/MCshow { currentpoint stroke M
  exch dup MFwidth -2 div 3 -1 roll R MFshow } def
%
end
%%EndProlog
bkdict begin
0.1 0.1 scale
%
% Residuals:
%
GSN 620 4773 M
620 4046 L
620 4216 L
620 4863 L
620 4544 L
620 4298 L
620 4367 L
620 4377 L
620 4487 L
620 4334 L
620 4401 L
620 3843 L
620 4845 L
620 4029 L
620 4415 L
620 4585 L
620 4472 L
620 4610 L
620 3935 L
620 4256 L
620 4105 L
620 3816 L
620 3974 L
620 4200 L
620 3790 L
620 4346 L
620 4660 L
620 4255 L
620 4547 L
620 4121 L
620 3856 L
620 3234 L
620 3620 L
620 3706 L
620 4234 L
620 4230 L
620 3912 L
620 3961 L
620 4162 L
620 4147 L
620 4421 L
620 4815 L
620 3660 L
620 3928 L
620 3282 L
620 3597 L
620 3344 L
620 3932 L
620 3978 L
620 3845 L
620 4043 L
620 4226 L
620 3357 L
620 2516 L
620 3038 L
620 3566 L
620 3936 L
620 4358 L
620 3621 L
620 3355 L
620 3100 L
620 3936 L
620 3040 L
620 3361 L
620 3966 L
620 3810 L
620 3039 L
620 3549 L
620 3513 L
620 3214 L
620 3140 L
620 3839 L
620 3398 L
620 3618 L
620 3155 L
620 3607 L
620 3643 L
620 3563 L
620 3404 L
620 3430 L
620 3592 L
620 3159 L
620 3125 L
620 3350 L
620 3594 L
620 3500 L
620 3610 L
620 3697 L
620 2889 L
620 3088 L
620 3254 L
620 4095 L
620 3061 L
620 2430 L
620 3719 L
620 2986 L
620 3495 L
620 2770 L
620 3487 L
620 3295 L
620 3002 L
620 2729 L
620 3369 L
620 3099 L
620 2136 L
620 3051 L
620 3157 L
620 2270 L
620 3293 L
620 2903 L
620 3457 L
620 2625 L
620 3561 L
620 3552 L
620 3369 L
620 3059 L
620 3100 L
620 3194 L
620 2876 L
620 3026 L
620 3234 L
620 3193 L
620 3153 L
620 2597 L
620 3007 L
620 2923 L
620 2582 L
620 2881 L
620 3351 L
620 2684 L
620 3154 L
620 2732 L
620 2782 L
620 2653 L
620 2986 L
620 2898 L
620 2773 L
620 2816 L
620 3232 L
620 2697 L
620 3028 L
620 2639 L
620 2754 L
620 2869 L
620 2779 L
620 2711 L
620 2620 L
620 2702 L
620 2653 L
620 2983 L
620 3170 L
620 2763 L
620 3154 L
620 3687 L
620 2787 L
620 2658 L
620 2712 L
620 3350 L
620 2989 L
620 2975 L
620 3754 L
620 3572 L
620 2591 L
620 3264 L
620 2783 L
620 3214 L
620 3210 L
620 3168 L
620 3247 L
620 3243 L
620 3500 L
620 2807 L
620 3695 L
620 3658 L
620 3343 L
620 3936 L
620 2345 L
620 2965 L
620 3526 L
620 2990 L
620 3142 L
620 3177 L
620 3156 L
620 3360 L
620 2446 L
620 3416 L
620 3646 L
620 4611 L
620 3230 L
620 4309 L
620 2718 L
620 3777 L
620 3540 L
620 2756 L
620 3479 L
620 3625 L
620 3540 L
620 2950 L
620 3531 L
620 3130 L
620 3229 L
620 3269 L
620 3498 L
620 3612 L
620 2996 L
620 3136 L
620 3108 L
620 3836 L
620 3661 L
620 2992 L
620 3657 L
620 3403 L
620 3695 L
620 4124 L
620 3891 L
620 3784 L
620 3850 L
620 3864 L
620 4266 L
620 3529 L
620 3658 L
620 4181 L
620 3932 L
620 3368 L
620 3450 L
620 3978 L
620 3288 L
620 4042 L
620 2927 L
620 3428 L
620 3815 L
620 4164 L
620 4094 L
620 3766 L
620 3706 L
620 3442 L
620 3434 L
620 3610 L
620 3419 L
620 3810 L
620 3309 L
620 3260 L
620 3226 L
620 3628 L
620 3505 L
620 3492 L
620 3642 L
620 3257 L
620 3706 L
620 4103 L
620 3896 L
620 3211 L
620 4170 L
620 4382 L
620 3829 L
620 3423 L
620 3278 L
620 3628 L
620 3621 L
620 3230 L
620 2981 L
620 3325 L
620 2913 L
620 3195 L
620 4510 L
620 4109 L
620 3682 L
620 3758 L
620 4418 L
620 4300 L
620 3704 L
620 2999 L
620 3049 L
620 4233 L
620 4410 L
620 3731 L
620 4385 L
620 4031 L
620 3178 L
620 3727 L
620 3289 L
620 3503 L
620 3828 L
620 3655 L
620 3389 L
620 4025 L
620 3249 L
620 3889 L
620 4107 L
620 3823 L
620 3616 L
620 3992 L
620 4050 L
620 3899 L
620 4205 L
620 4328 L
620 3576 L
620 3821 L
620 3526 L
620 4040 L
620 3115 L
620 3482 L
620 3497 L
620 3581 L
620 4100 L
620 3538 L
620 3921 L
620 4435 L
620 3679 L
620 3758 L
620 3674 L
620 4036 L
620 3427 L
620 3564 L
620 3690 L
620 3716 L
620 3637 L
620 3674 L
620 3999 L
620 3201 L
620 4382 L
620 4530 L
620 3490 L
620 4005 L
620 2886 L
620 3689 L
620 4335 L
620 3348 L
620 3107 L
620 3532 L
620 3926 L
620 4430 L
620 3643 L
620 3128 L
620 3611 L
620 3695 L
620 4151 L
620 3495 L
620 3626 L
620 3453 L
620 3280 L
620 4010 L
620 3721 L
620 3369 L
620 3915 L
620 3569 L
620 3784 L
620 4225 L
620 3469 L
620 3254 L
620 4068 L
620 3910 L
620 3196 L
620 3217 L
620 3600 L
620 3138 L
620 3532 L
620 3705 L
620 3511 L
620 4493 L
620 3054 L
620 3889 L
620 3884 L
620 4372 L
620 3359 L
620 3543 L
620 3385 L
620 3795 L
620 3080 L
620 3527 L
620 3348 L
620 3422 L
620 3847 L
620 3112 L
620 4031 L
620 4172 L
620 3674 L
620 3311 L
620 3101 L
620 3963 L
620 3684 L
620 3936 L
620 2997 L
620 3532 L
620 3710 L
620 3522 L
620 3711 L
620 3401 L
620 4057 L
620 3474 L
620 3763 L
620 3579 L
620 3684 L
620 3700 L
620 3548 L
620 3595 L
620 4036 L
620 3196 L
620 3464 L
620 3790 L
620 3942 L
620 3244 L
620 3994 L
620 3658 L
620 4251 L
620 3044 L
620 4057 L
620 3779 L
620 3584 L
620 3338 L
620 3611 L
620 3664 L
620 3989 L
620 3942 L
620 3018 L
620 3217 L
620 3558 L
620 3301 L
620 3664 L
620 4005 L
620 3012 L
620 3207 L
620 3233 L
620 3863 L
620 2850 L
620 3427 L
620 3149 L
620 3495 L
620 3622 L
620 3805 L
620 3931 L
620 3716 L
620 3390 L
620 3821 L
620 3821 L
620 3800 L
620 3679 L
620 3480 L
620 2750 L
620 3316 L
620 4262 L
620 4031 L
620 3522 L
620 3748 L
620 4010 L
620 2844 L
620 3852 L
620 3794 L
620 3049 L
620 3653 L
620 2907 L
620 3485 L
620 3999 L
620 4147 L
620 3343 L
620 4288 L
620 3138 L
620 3663 L
620 3621 L
620 4230 L
620 3065 L
620 4073 L
620 3999 L
620 3669 L
620 3443 L
620 3558 L
620 3453 L
620 4236 L
620 3438 L
620 3726 L
620 4068 L
620 3537 L
620 3658 L
620 3522 L
620 4299 L
620 3516 L
620 3238 L
620 4057 L
620 3831 L
620 3962 L
620 3223 L
620 3900 L
620 3800 L
620 4131 L
620 4262 L
620 4004 L
620 3600 L
620 3858 L
620 3647 L
620 3868 L
620 4587 L
620 3753 L
620 4005 L
620 3495 L
620 3963 L
620 3569 L
620 3800 L
620 3779 L
620 3910 L
620 3348 L
620 3506 L
620 3102 L
620 3952 L
620 4566 L
620 2823 L
620 4241 L
620 3653 L
620 3479 L
620 4015 L
620 4146 L
620 3574 L
620 4283 L
620 4026 L
620 3480 L
620 3758 L
620 3700 L
620 3790 L
620 4220 L
620 3978 L
620 3637 L
620 4713 L
620 3663 L
620 3721 L
620 4078 L
620 3994 L
620 3160 L
620 3758 L
620 2986 L
620 3553 L
620 3863 L
620 4047 L
620 3495 L
620 3968 L
L2 C01 COSGR

%
%================
% Legend - Begin
%================
%
GSN 4240 5180 M
4480 5180 L
LWMC SL  C01 COSGR
GSN 4540 5141 M helvM (0.5 uM) show grestore
%
%================
% Legend - End
%================
%

%
% Main frame
%
L10
GSN 
620 1700 M
4220 1700 L
4220 5300 L
620 5300 L
closepath SGR

%
% X axis: large tics
%
L10
%
% X axis: small tics
%
L5
%
% Y axis: large tics
%
L10
GSN 620 2556 M 54 0 rL SGR
GSN 4220 2556 M -54 0 rL SGR
helvS (-0.01) 560 2556 ylabel
GSN 620 3588 M 54 0 rL SGR
GSN 4220 3588 M -54 0 rL SGR
helvS (0) 560 3588 ylabel
GSN 620 4620 M 54 0 rL SGR
GSN 4220 4620 M -54 0 rL SGR
helvS (0.01) 560 4620 ylabel
%
% Y axis: small tics
%
L5
GSN 620 1782 M 36 0 rL SGR
GSN 4220 1782 M -36 0 rL SGR
GSN 620 2040 M 36 0 rL SGR
GSN 4220 2040 M -36 0 rL SGR
GSN 620 2298 M 36 0 rL SGR
GSN 4220 2298 M -36 0 rL SGR
GSN 620 2556 M 36 0 rL SGR
GSN 4220 2556 M -36 0 rL SGR
GSN 620 2814 M 36 0 rL SGR
GSN 4220 2814 M -36 0 rL SGR
GSN 620 3072 M 36 0 rL SGR
GSN 4220 3072 M -36 0 rL SGR
GSN 620 3330 M 36 0 rL SGR
GSN 4220 3330 M -36 0 rL SGR
GSN 620 3588 M 36 0 rL SGR
GSN 4220 3588 M -36 0 rL SGR
GSN 620 3846 M 36 0 rL SGR
GSN 4220 3846 M -36 0 rL SGR
GSN 620 4104 M 36 0 rL SGR
GSN 4220 4104 M -36 0 rL SGR
GSN 620 4362 M 36 0 rL SGR
GSN 4220 4362 M -36 0 rL SGR
GSN 620 4620 M 36 0 rL SGR
GSN 4220 4620 M -36 0 rL SGR
GSN 620 4878 M 36 0 rL SGR
GSN 4220 4878 M -36 0 rL SGR
GSN 620 5136 M 36 0 rL SGR
GSN 4220 5136 M -36 0 rL SGR

%
% X axis - residual panel
%
GSN L5 620 3588 M 4220 3588 L SDA G50 SGR

%
% X-Axis label:
%
gsave 620 1370 M 
[
[(Helvetica) 180 0 true true 0 (t)]
[(Helvetica) 180 0 true true 0 (i)]
[(Helvetica) 180 0 true true 0 (m)]
[(Helvetica) 180 0 true true 0 (e)]
] 0 MCshow grestore

%
% Y-Axis label:
%
gsave 234 3500 M 
currentpoint gsave translate 90 rotate 0 0 moveto
[
[(Helvetica) 180 0 true true 0 (r)]
[(Helvetica) 180 0 true true 0 (e)]
[(Helvetica) 180 0 true true 0 (s)]
[(Helvetica) 180 0 true true 0 (i)]
[(Helvetica) 180 0 true true 0 (d)]
[(Helvetica) 180 0 true true 0 (u)]
[(Helvetica) 180 0 true true 0 (a)]
[(Helvetica) 180 0 true true 0 (l)]
[(Helvetica) 180 0 true true 0 (s)]
] 0 MCshow grestore

end
showpage
%%Trailer
%%EOF
