%!PS-Adobe-3.0 EPSF-3.0
%%BoundingBox: 0 0 514 550
%%Creator: BioKin Ltd.
%%DocumentFonts: Symbol Helvetica
%%EndComments
%
/bkdict 256 dict def
bkdict begin
/M {moveto} def 
/R {rmoveto} def
/L {lineto} def
/rL {rlineto} def
/GSN {gsave newpath} def
/SGR {stroke grestore} def
/COSGR {gsave setrgbcolor stroke grestore grestore} def
/SL {setlinewidth} def
/LWMB {12} def             % line width - model curves, black & white
/LWMC {10} def             % line width - model curves, color
/L2 {2.5 setlinewidth} def
/L5 {5 setlinewidth} def
/L10 {10 setlinewidth} def
/G50 {0.5 setgray} def
/SDA {[10  20] 0 setdash} def % axes
/helvT {/Helvetica findfont 100 scalefont setfont} def % tiny
/helvS {/Helvetica findfont 125 scalefont setfont} def % small
/helvM {/Helvetica findfont 150 scalefont setfont} def % medium
/helvL {/Helvetica findfont 175 scalefont setfont} def % large
/xlabel {gsave M dup
   stringwidth exch -0.5 mul exch rmoveto show grestore} def 
/ylabel {gsave M 90 rotate dup
   stringwidth exch -0.5 mul exch rmoveto show grestore} def
/ylabelresid {gsave M dup
   stringwidth exch -1 mul exch rmoveto show grestore} def
% ======
% Shapes
% ======
% Circle:
/Circ {0 360 arc closepath} def
%
% Square:
/Squa {dup dup -0.5 mul dup dup R -2 mul 0 exch rL 1 mul 0 rL dup 0 exch -1 mul rL closepath} def
%
% Triangle Up:
/TriU {dup dup dup -0.4 mul exch -0.5 mul exch R dup 0.5 mul exch rL dup -1 mul exch 0.5 mul exch rL closepath} def 
%
% Triangle Down:
/TriD {dup dup dup 0.4 mul exch -0.5 mul exch R dup 0.5 mul exch -1 mul rL dup 0.5 mul exch rL closepath} def 
%
% Diamond:
/Diam {45 rotate Squa} def
% ======
% Fills
% ======
/GRF {gsave setgray fill grestore} def                    % gray-level Fill
/COF {gsave setrgbcolor fill grestore} def                % color fill
% ======
% Colors
% ======
/C01 {1.00	0.00	0.00} def      % Red
/C02 {0.00	0.00	1.00} def      % Blue
/C03 {0.00	0.39	0.00} def      % Dark Green
/C04 {0.78	0.08	0.52} def      % Medium Violet Red
/C05 {0.55	0.27	0.07} def      % Saddle Brown
/C06 {0.10	0.70	0.70} def      % (cyan)
/C07 {1.00	0.55	0.00} def      % Dark Orange
/C08 {0.63	0.13	0.94} def      % Purple
/C09 {0.00	0.75	1.00} def      % Deep Sky Blue
/C10 {0.20	0.80	0.20} def      % Lime Green
/C11 {0.47	0.53	0.60} def      % Light Slate Gray
/C12 {0.00	0.00	0.00} def      % Black            % or: {0.19	0.31	0.31} def      % Dark Slate Gray
%
/LGR {0.75} def % light gray
/DGR {0.33} def % dark gray
%
% =============
% Dash patterns
% =============
/dash01 { [80  20] 0 setdash } def
/dash02 { [40  20] 0 setdash } def
/dash03 { [80  20  10  20] 0 setdash } def
/dash04 { [40  20  10  20] 0 setdash } def
/dash05 { [80  20  10  10  10  20] 0 setdash } def
/dash06 { [40  20  10  10  10  20] 0 setdash } def
/dash07 { [10  10] 0 setdash } def
%
/MFshow {
   { dup 5 get 3 ge
     { 5 get 3 eq {gsave} {grestore} ifelse }
     {dup dup 0 get findfont exch 1 get scalefont setfont
     [ currentpoint ] exch dup 2 get 0 exch R dup 5 get 2 ne {dup dup 6
     get exch 4 get {show} {stringwidth pop 0 R} ifelse }if dup 5 get 0 eq
     {dup 3 get {2 get neg 0 exch R pop} {pop aload pop M} ifelse} {dup 5
     get 1 eq {dup 2 get exch dup 3 get exch 6 get stringwidth pop -2 div
     dup 0 R} {dup 6 get stringwidth pop -2 div 0 R 6 get
     show 2 index {aload pop M neg 3 -1 roll neg R pop pop} {pop pop pop
     pop aload pop M} ifelse }ifelse }ifelse }
     ifelse }
   forall} bind def
/MFwidth {0 exch {dup 3 get{dup dup 0 get findfont exch 1 get scalefont
     setfont 6 get stringwidth pop add} {pop} ifelse} forall} bind def
/MCshow { currentpoint stroke M
  exch dup MFwidth -2 div 3 -1 roll R MFshow } def
%
end
%%EndProlog
bkdict begin
0.1 0.1 scale
%
% Residuals:
%
GSN 620 4473 M
620 3559 L
620 3330 L
620 3404 L
620 3575 L
620 2895 L
620 3947 L
620 3555 L
620 3686 L
620 3570 L
620 3051 L
620 3760 L
620 3359 L
620 3286 L
620 3624 L
620 3386 L
620 3366 L
620 3783 L
620 3228 L
620 3765 L
620 3986 L
620 3763 L
620 4197 L
620 3696 L
620 4147 L
620 4366 L
620 3735 L
620 4087 L
620 4094 L
620 4438 L
620 3905 L
620 3614 L
620 4654 L
620 3937 L
620 4440 L
620 4249 L
620 4164 L
620 4266 L
620 4220 L
620 4162 L
620 3803 L
620 4421 L
620 4205 L
620 4238 L
620 4289 L
620 4044 L
620 4404 L
620 3918 L
620 3984 L
620 4214 L
620 4259 L
620 3908 L
620 3788 L
620 3740 L
620 4426 L
620 4121 L
620 4443 L
620 4133 L
620 4402 L
620 4483 L
620 4134 L
620 4525 L
620 4534 L
620 4772 L
620 4296 L
620 4058 L
620 4091 L
620 4221 L
620 3663 L
620 4365 L
620 4269 L
620 4089 L
620 4863 L
620 3899 L
620 4264 L
620 4662 L
620 3860 L
620 3834 L
620 4404 L
620 4221 L
620 4226 L
620 4162 L
620 4303 L
620 4600 L
620 4178 L
620 3927 L
620 4336 L
620 3820 L
620 3995 L
620 4052 L
620 4446 L
620 3810 L
620 4342 L
620 4059 L
620 3823 L
620 3895 L
620 3742 L
620 3711 L
620 4016 L
620 3739 L
620 4225 L
620 3804 L
620 4007 L
620 3560 L
620 3938 L
620 3535 L
620 3803 L
620 3657 L
620 4020 L
620 3889 L
620 3921 L
620 3604 L
620 3326 L
620 3227 L
620 3618 L
620 3540 L
620 3675 L
620 4038 L
620 3809 L
620 3575 L
620 3562 L
620 3455 L
620 3593 L
620 3282 L
620 3696 L
620 3551 L
620 3199 L
620 3314 L
620 3461 L
620 3460 L
620 3362 L
620 3618 L
620 3375 L
620 3671 L
620 2992 L
620 3692 L
620 3136 L
620 4002 L
620 3578 L
620 3747 L
620 3566 L
620 3020 L
620 3668 L
620 3661 L
620 3598 L
620 3430 L
620 3742 L
620 3085 L
620 3372 L
620 3230 L
620 3587 L
620 3362 L
620 3488 L
620 3364 L
620 3076 L
620 3936 L
620 3429 L
620 3331 L
620 3645 L
620 2884 L
620 3622 L
620 3735 L
620 3527 L
620 3393 L
620 3544 L
620 3367 L
620 3411 L
620 3354 L
620 3500 L
620 3603 L
620 3542 L
620 3269 L
620 3512 L
620 3752 L
620 3569 L
620 3322 L
620 3557 L
620 3186 L
620 3644 L
620 3567 L
620 3328 L
620 3796 L
620 3438 L
620 3534 L
620 3352 L
620 3208 L
620 3299 L
620 3415 L
620 3256 L
620 4173 L
620 3709 L
620 3341 L
620 3726 L
620 3161 L
620 3764 L
620 3833 L
620 3883 L
620 3623 L
620 3502 L
620 3585 L
620 3382 L
620 3415 L
620 3776 L
620 3571 L
620 3589 L
620 3534 L
620 3836 L
620 3634 L
620 3377 L
620 3567 L
620 3257 L
620 3898 L
620 2906 L
620 3668 L
620 3414 L
620 3753 L
620 3507 L
620 3465 L
620 3568 L
620 3577 L
620 3703 L
620 3845 L
620 3250 L
620 3488 L
620 3435 L
620 3621 L
620 3189 L
620 3712 L
620 3610 L
620 3326 L
620 3703 L
620 3382 L
620 3616 L
620 3408 L
620 3384 L
620 3641 L
620 3739 L
620 3834 L
620 3355 L
620 3618 L
620 3805 L
620 3462 L
620 3792 L
620 3439 L
620 3013 L
620 3614 L
620 3772 L
620 3620 L
620 3303 L
620 3373 L
620 3993 L
620 3466 L
620 3526 L
620 3700 L
620 4032 L
620 3203 L
620 3150 L
620 3538 L
620 3837 L
620 4130 L
620 3603 L
620 3444 L
620 3909 L
620 3538 L
620 3693 L
620 3305 L
620 3500 L
620 2994 L
620 3448 L
620 3270 L
620 3973 L
620 3791 L
620 4151 L
620 3379 L
620 3452 L
620 3919 L
620 3760 L
620 3782 L
620 3372 L
620 3106 L
620 3544 L
620 3826 L
620 2890 L
620 4113 L
620 3693 L
620 3798 L
620 3552 L
620 3866 L
620 3620 L
620 3177 L
620 3107 L
620 3638 L
620 3611 L
620 3531 L
620 3623 L
620 3518 L
620 3963 L
620 3591 L
620 3291 L
620 3828 L
620 3612 L
620 3934 L
620 4119 L
620 3644 L
620 3411 L
620 3506 L
620 3618 L
620 3781 L
620 3271 L
620 3106 L
620 3676 L
620 3581 L
620 4175 L
620 3857 L
620 3690 L
620 3560 L
620 3612 L
620 3777 L
620 4248 L
620 3920 L
620 4000 L
620 3804 L
620 3354 L
620 3843 L
620 3800 L
620 3420 L
620 3662 L
620 4002 L
620 3816 L
620 3546 L
620 4142 L
620 3496 L
620 3664 L
620 3713 L
620 4225 L
620 3273 L
620 3740 L
620 3662 L
620 3591 L
620 3610 L
620 3573 L
620 3451 L
620 3377 L
620 3701 L
620 3752 L
620 4120 L
620 3077 L
620 3790 L
620 3800 L
620 3649 L
620 3732 L
620 3688 L
620 3707 L
620 3971 L
620 3501 L
620 3903 L
620 3354 L
620 3401 L
620 3362 L
620 3210 L
620 3560 L
620 3368 L
620 3245 L
620 3366 L
620 4035 L
620 3218 L
620 3538 L
620 3331 L
620 3265 L
620 3368 L
620 4039 L
620 3088 L
620 3195 L
620 3081 L
620 3259 L
620 3077 L
620 3042 L
620 3040 L
620 3174 L
620 3319 L
620 2751 L
620 3273 L
620 2995 L
620 3498 L
620 3404 L
620 3090 L
620 3263 L
620 2850 L
620 2828 L
620 3088 L
620 2921 L
620 3263 L
620 2939 L
620 3387 L
620 2964 L
620 3189 L
620 3511 L
620 2879 L
620 2972 L
620 3069 L
620 2720 L
620 2724 L
620 3340 L
620 3282 L
620 2330 L
620 2933 L
620 3453 L
620 2925 L
620 3259 L
620 3368 L
620 3371 L
620 2679 L
620 3366 L
620 2753 L
620 3302 L
620 2665 L
620 2710 L
620 2648 L
620 2985 L
620 3119 L
620 3315 L
620 2970 L
620 3018 L
620 3036 L
620 2972 L
620 3011 L
620 3150 L
620 2844 L
620 2896 L
620 3275 L
620 2285 L
620 2409 L
620 2991 L
620 2941 L
620 2989 L
620 3203 L
620 2669 L
620 3199 L
620 3057 L
620 2714 L
620 3298 L
620 3238 L
620 2933 L
620 3170 L
620 2875 L
620 2987 L
620 2850 L
620 3032 L
620 3209 L
620 3034 L
620 2838 L
620 2215 L
620 3137 L
620 3267 L
620 3135 L
620 2534 L
620 2570 L
620 2933 L
620 3241 L
620 2718 L
620 2588 L
620 3214 L
620 3057 L
620 2840 L
620 2557 L
620 2543 L
620 2890 L
620 2759 L
620 2613 L
620 2638 L
620 2355 L
620 2908 L
620 2437 L
620 2824 L
620 2832 L
620 3106 L
620 2663 L
620 2698 L
620 3137 L
620 3018 L
620 2724 L
620 2378 L
620 2563 L
620 2745 L
620 2772 L
620 2462 L
620 2875 L
620 2910 L
620 2908 L
620 2867 L
620 2943 L
620 2149 L
620 2658 L
620 2365 L
620 2743 L
620 2927 L
620 2299 L
620 3344 L
620 2724 L
620 3061 L
620 2900 L
620 2279 L
620 2388 L
620 2404 L
620 2887 L
620 2413 L
620 2136 L
620 3013 L
620 2495 L
620 2555 L
620 2700 L
620 2343 L
620 2446 L
620 3007 L
620 2452 L
620 2867 L
620 2551 L
620 2636 L
620 3168 L
620 2770 L
620 2978 L
620 2198 L
620 2596 L
620 2698 L
620 2925 L
620 2450 L
620 2557 L
620 2797 L
620 2215 L
620 2733 L
620 2640 L
620 2762 L
620 3092 L
L2 C07 COSGR

%
%================
% Legend - Begin
%================
%
GSN 4240 5180 M
4480 5180 L
LWMC SL  C07 COSGR
GSN 4540 5141 M helvM (4.0 uM) show grestore
%
%================
% Legend - End
%================
%

%
% Main frame
%
L10
GSN 
620 1700 M
4220 1700 L
4220 5300 L
620 5300 L
closepath SGR

%
% X axis: large tics
%
L10
%
% X axis: small tics
%
L5
%
% Y axis: large tics
%
L10
GSN 620 2430 M 54 0 rL SGR
GSN 4220 2430 M -54 0 rL SGR
helvS (-0.01) 560 2430 ylabel
GSN 620 3447 M 54 0 rL SGR
GSN 4220 3447 M -54 0 rL SGR
helvS (0) 560 3447 ylabel
GSN 620 4464 M 54 0 rL SGR
GSN 4220 4464 M -54 0 rL SGR
helvS (0.01) 560 4464 ylabel
%
% Y axis: small tics
%
L5
GSN 620 1921 M 36 0 rL SGR
GSN 4220 1921 M -36 0 rL SGR
GSN 620 2175 M 36 0 rL SGR
GSN 4220 2175 M -36 0 rL SGR
GSN 620 2430 M 36 0 rL SGR
GSN 4220 2430 M -36 0 rL SGR
GSN 620 2684 M 36 0 rL SGR
GSN 4220 2684 M -36 0 rL SGR
GSN 620 2938 M 36 0 rL SGR
GSN 4220 2938 M -36 0 rL SGR
GSN 620 3192 M 36 0 rL SGR
GSN 4220 3192 M -36 0 rL SGR
GSN 620 3447 M 36 0 rL SGR
GSN 4220 3447 M -36 0 rL SGR
GSN 620 3701 M 36 0 rL SGR
GSN 4220 3701 M -36 0 rL SGR
GSN 620 3955 M 36 0 rL SGR
GSN 4220 3955 M -36 0 rL SGR
GSN 620 4209 M 36 0 rL SGR
GSN 4220 4209 M -36 0 rL SGR
GSN 620 4464 M 36 0 rL SGR
GSN 4220 4464 M -36 0 rL SGR
GSN 620 4718 M 36 0 rL SGR
GSN 4220 4718 M -36 0 rL SGR
GSN 620 4972 M 36 0 rL SGR
GSN 4220 4972 M -36 0 rL SGR
GSN 620 5226 M 36 0 rL SGR
GSN 4220 5226 M -36 0 rL SGR

%
% X axis - residual panel
%
GSN L5 620 3447 M 4220 3447 L SDA G50 SGR

%
% X-Axis label:
%
gsave 620 1370 M 
[
[(Helvetica) 180 0 true true 0 (t)]
[(Helvetica) 180 0 true true 0 (i)]
[(Helvetica) 180 0 true true 0 (m)]
[(Helvetica) 180 0 true true 0 (e)]
] 0 MCshow grestore

%
% Y-Axis label:
%
gsave 234 3499 M 
currentpoint gsave translate 90 rotate 0 0 moveto
[
[(Helvetica) 180 0 true true 0 (r)]
[(Helvetica) 180 0 true true 0 (e)]
[(Helvetica) 180 0 true true 0 (s)]
[(Helvetica) 180 0 true true 0 (i)]
[(Helvetica) 180 0 true true 0 (d)]
[(Helvetica) 180 0 true true 0 (u)]
[(Helvetica) 180 0 true true 0 (a)]
[(Helvetica) 180 0 true true 0 (l)]
[(Helvetica) 180 0 true true 0 (s)]
] 0 MCshow grestore

end
showpage
%%Trailer
%%EOF
