%!PS-Adobe-3.0 EPSF-3.0
%%BoundingBox: 0 0 514 550
%%Creator: BioKin Ltd.
%%DocumentFonts: Symbol Helvetica
%%EndComments
%
/bkdict 256 dict def
bkdict begin
/M {moveto} def 
/R {rmoveto} def
/L {lineto} def
/rL {rlineto} def
/GSN {gsave newpath} def
/SGR {stroke grestore} def
/COSGR {gsave setrgbcolor stroke grestore grestore} def
/SL {setlinewidth} def
/LWMB {12} def             % line width - model curves, black & white
/LWMC {10} def             % line width - model curves, color
/L2 {2.5 setlinewidth} def
/L5 {5 setlinewidth} def
/L10 {10 setlinewidth} def
/G50 {0.5 setgray} def
/SDA {[10  20] 0 setdash} def % axes
/helvT {/Helvetica findfont 100 scalefont setfont} def % tiny
/helvS {/Helvetica findfont 125 scalefont setfont} def % small
/helvM {/Helvetica findfont 150 scalefont setfont} def % medium
/helvL {/Helvetica findfont 175 scalefont setfont} def % large
/xlabel {gsave M dup
   stringwidth exch -0.5 mul exch rmoveto show grestore} def 
/ylabel {gsave M 90 rotate dup
   stringwidth exch -0.5 mul exch rmoveto show grestore} def
/ylabelresid {gsave M dup
   stringwidth exch -1 mul exch rmoveto show grestore} def
% ======
% Shapes
% ======
% Circle:
/Circ {0 360 arc closepath} def
%
% Square:
/Squa {dup dup -0.5 mul dup dup R -2 mul 0 exch rL 1 mul 0 rL dup 0 exch -1 mul rL closepath} def
%
% Triangle Up:
/TriU {dup dup dup -0.4 mul exch -0.5 mul exch R dup 0.5 mul exch rL dup -1 mul exch 0.5 mul exch rL closepath} def 
%
% Triangle Down:
/TriD {dup dup dup 0.4 mul exch -0.5 mul exch R dup 0.5 mul exch -1 mul rL dup 0.5 mul exch rL closepath} def 
%
% Diamond:
/Diam {45 rotate Squa} def
% ======
% Fills
% ======
/GRF {gsave setgray fill grestore} def                    % gray-level Fill
/COF {gsave setrgbcolor fill grestore} def                % color fill
% ======
% Colors
% ======
/C01 {1.00	0.00	0.00} def      % Red
/C02 {0.00	0.00	1.00} def      % Blue
/C03 {0.00	0.39	0.00} def      % Dark Green
/C04 {0.78	0.08	0.52} def      % Medium Violet Red
/C05 {0.55	0.27	0.07} def      % Saddle Brown
/C06 {0.10	0.70	0.70} def      % (cyan)
/C07 {1.00	0.55	0.00} def      % Dark Orange
/C08 {0.63	0.13	0.94} def      % Purple
/C09 {0.00	0.75	1.00} def      % Deep Sky Blue
/C10 {0.20	0.80	0.20} def      % Lime Green
/C11 {0.47	0.53	0.60} def      % Light Slate Gray
/C12 {0.00	0.00	0.00} def      % Black            % or: {0.19	0.31	0.31} def      % Dark Slate Gray
%
/LGR {0.75} def % light gray
/DGR {0.33} def % dark gray
%
% =============
% Dash patterns
% =============
/dash01 { [80  20] 0 setdash } def
/dash02 { [40  20] 0 setdash } def
/dash03 { [80  20  10  20] 0 setdash } def
/dash04 { [40  20  10  20] 0 setdash } def
/dash05 { [80  20  10  10  10  20] 0 setdash } def
/dash06 { [40  20  10  10  10  20] 0 setdash } def
/dash07 { [10  10] 0 setdash } def
%
/MFshow {
   { dup 5 get 3 ge
     { 5 get 3 eq {gsave} {grestore} ifelse }
     {dup dup 0 get findfont exch 1 get scalefont setfont
     [ currentpoint ] exch dup 2 get 0 exch R dup 5 get 2 ne {dup dup 6
     get exch 4 get {show} {stringwidth pop 0 R} ifelse }if dup 5 get 0 eq
     {dup 3 get {2 get neg 0 exch R pop} {pop aload pop M} ifelse} {dup 5
     get 1 eq {dup 2 get exch dup 3 get exch 6 get stringwidth pop -2 div
     dup 0 R} {dup 6 get stringwidth pop -2 div 0 R 6 get
     show 2 index {aload pop M neg 3 -1 roll neg R pop pop} {pop pop pop
     pop aload pop M} ifelse }ifelse }ifelse }
     ifelse }
   forall} bind def
/MFwidth {0 exch {dup 3 get{dup dup 0 get findfont exch 1 get scalefont
     setfont 6 get stringwidth pop add} {pop} ifelse} forall} bind def
/MCshow { currentpoint stroke M
  exch dup MFwidth -2 div 3 -1 roll R MFshow } def
%
end
%%EndProlog
bkdict begin
0.1 0.1 scale
%
% Residuals:
%
GSN 620 2835 M
620 4863 L
620 4698 L
620 4654 L
620 4649 L
620 4316 L
620 4657 L
620 4441 L
620 4429 L
620 4323 L
620 4062 L
620 4280 L
620 4069 L
620 3987 L
620 4065 L
620 3922 L
620 3865 L
620 3979 L
620 3717 L
620 3880 L
620 3922 L
620 3792 L
620 3919 L
620 3684 L
620 3820 L
620 3867 L
620 3585 L
620 3685 L
620 3653 L
620 3752 L
620 3512 L
620 3367 L
620 3739 L
620 3430 L
620 3595 L
620 3492 L
620 3431 L
620 3443 L
620 3398 L
620 3349 L
620 3185 L
620 3400 L
620 3292 L
620 3281 L
620 3278 L
620 3161 L
620 3279 L
620 3070 L
620 3074 L
620 3144 L
620 3142 L
620 2987 L
620 2922 L
620 2885 L
620 3133 L
620 2998 L
620 3106 L
620 2970 L
620 3058 L
620 3074 L
620 2924 L
620 3061 L
620 3050 L
620 3129 L
620 2931 L
620 2825 L
620 2825 L
620 2863 L
620 2635 L
620 2895 L
620 2846 L
620 2765 L
620 3055 L
620 2670 L
620 2801 L
620 2946 L
620 2625 L
620 2605 L
620 2817 L
620 2737 L
620 2730 L
620 2672 L
620 2697 L
620 2786 L
620 2599 L
620 2481 L
620 2621 L
620 2405 L
620 2459 L
620 2469 L
620 2611 L
620 2355 L
620 2553 L
620 2437 L
620 2340 L
620 2364 L
620 2301 L
620 2287 L
620 2404 L
620 2295 L
620 2484 L
620 2321 L
620 2401 L
620 2229 L
620 2378 L
620 2224 L
620 2331 L
620 2277 L
620 2422 L
620 2375 L
620 2391 L
620 2272 L
620 2170 L
620 2136 L
620 2292 L
620 2267 L
620 2325 L
620 2471 L
620 2387 L
620 2303 L
620 2303 L
620 2267 L
620 2327 L
620 2212 L
620 2378 L
620 2328 L
620 2197 L
620 2248 L
620 2311 L
620 2316 L
620 2284 L
620 2390 L
620 2301 L
620 2422 L
620 2165 L
620 2442 L
620 2233 L
620 2575 L
620 2416 L
620 2487 L
620 2423 L
620 2217 L
620 2474 L
620 2477 L
620 2458 L
620 2399 L
620 2525 L
620 2276 L
620 2393 L
620 2343 L
620 2487 L
620 2405 L
620 2460 L
620 2417 L
620 2310 L
620 2649 L
620 2458 L
620 2425 L
620 2552 L
620 2262 L
620 2553 L
620 2602 L
620 2526 L
620 2479 L
620 2542 L
620 2478 L
620 2500 L
620 2482 L
620 2544 L
620 2588 L
620 2569 L
620 2468 L
620 2567 L
620 2664 L
620 2597 L
620 2506 L
620 2602 L
620 2462 L
620 2644 L
620 2618 L
620 2529 L
620 2715 L
620 2580 L
620 2621 L
620 2555 L
620 2503 L
620 2542 L
620 2591 L
620 2533 L
620 2892 L
620 2716 L
620 2577 L
620 2730 L
620 2514 L
620 2752 L
620 2782 L
620 2805 L
620 2708 L
620 2664 L
620 2700 L
620 2625 L
620 2641 L
620 2784 L
620 2708 L
620 2718 L
620 2700 L
620 2820 L
620 2745 L
620 2648 L
620 2725 L
620 2608 L
620 2859 L
620 2478 L
620 2776 L
620 2680 L
620 2815 L
620 2722 L
620 2709 L
620 2751 L
620 2758 L
620 2809 L
620 2867 L
620 2639 L
620 2734 L
620 2716 L
620 2791 L
620 2626 L
620 2831 L
620 2794 L
620 2687 L
620 2835 L
620 2713 L
620 2806 L
620 2728 L
620 2721 L
620 2823 L
620 2863 L
620 2903 L
620 2719 L
620 2823 L
620 2898 L
620 2767 L
620 2897 L
620 2762 L
620 2599 L
620 2835 L
620 2898 L
620 2841 L
620 2720 L
620 2749 L
620 2992 L
620 2789 L
620 2815 L
620 2884 L
620 3014 L
620 2695 L
620 2676 L
620 2829 L
620 2946 L
620 3062 L
620 2859 L
620 2800 L
620 2981 L
620 2839 L
620 2901 L
620 2753 L
620 2830 L
620 2635 L
620 2813 L
620 2746 L
620 3020 L
620 2951 L
620 3092 L
620 2794 L
620 2824 L
620 3007 L
620 2946 L
620 2957 L
620 2799 L
620 2697 L
620 2869 L
620 3010 L
620 2672 L
620 3165 L
620 3017 L
620 3069 L
620 2983 L
620 3111 L
620 3021 L
620 2853 L
620 2829 L
620 3038 L
620 3029 L
620 2999 L
620 3036 L
620 2996 L
620 3169 L
620 3026 L
620 2910 L
620 3118 L
620 3035 L
620 3160 L
620 3232 L
620 3048 L
620 2958 L
620 2995 L
620 3038 L
620 3101 L
620 2904 L
620 2840 L
620 3061 L
620 3024 L
620 3254 L
620 3131 L
620 3066 L
620 3016 L
620 3036 L
620 3100 L
620 3283 L
620 3156 L
620 3187 L
620 3111 L
620 2936 L
620 3126 L
620 3109 L
620 2962 L
620 3056 L
620 3188 L
620 3116 L
620 3011 L
620 3242 L
620 2992 L
620 3057 L
620 3076 L
620 3274 L
620 2905 L
620 3087 L
620 3056 L
620 3029 L
620 3036 L
620 3022 L
620 2975 L
620 2946 L
620 3072 L
620 3091 L
620 3234 L
620 2830 L
620 3106 L
620 3110 L
620 3052 L
620 3084 L
620 3067 L
620 3074 L
620 3177 L
620 2995 L
620 3151 L
620 2938 L
620 2956 L
620 2941 L
620 2883 L
620 3018 L
620 2944 L
620 2897 L
620 2944 L
620 3203 L
620 2887 L
620 3011 L
620 2931 L
620 2905 L
620 2945 L
620 3206 L
620 2837 L
620 2879 L
620 2835 L
620 2904 L
620 2833 L
620 2820 L
620 2820 L
620 2872 L
620 2928 L
620 2708 L
620 2910 L
620 2803 L
620 2998 L
620 2962 L
620 2840 L
620 2908 L
620 2748 L
620 2739 L
620 2840 L
620 2776 L
620 2908 L
620 2783 L
620 2957 L
620 2793 L
620 2881 L
620 3006 L
620 2761 L
620 2797 L
620 2835 L
620 2700 L
620 2701 L
620 2941 L
620 2918 L
620 2549 L
620 2783 L
620 2985 L
620 2781 L
620 2910 L
620 2952 L
620 2954 L
620 2686 L
620 2952 L
620 2715 L
620 2928 L
620 2681 L
620 2699 L
620 2675 L
620 2806 L
620 2858 L
620 2934 L
620 2801 L
620 2820 L
620 2827 L
620 2802 L
620 2817 L
620 2872 L
620 2753 L
620 2773 L
620 2920 L
620 2537 L
620 2585 L
620 2811 L
620 2792 L
620 2811 L
620 2894 L
620 2687 L
620 2893 L
620 2838 L
620 2705 L
620 2932 L
620 2909 L
620 2791 L
620 2883 L
620 2769 L
620 2813 L
620 2759 L
620 2830 L
620 2899 L
620 2831 L
620 2756 L
620 2515 L
620 2872 L
620 2923 L
620 2872 L
620 2639 L
620 2653 L
620 2794 L
620 2914 L
620 2711 L
620 2661 L
620 2904 L
620 2843 L
620 2759 L
620 2650 L
620 2645 L
620 2780 L
620 2729 L
620 2673 L
620 2683 L
620 2573 L
620 2788 L
620 2605 L
620 2756 L
620 2759 L
620 2865 L
620 2694 L
620 2708 L
620 2878 L
620 2833 L
620 2718 L
620 2585 L
620 2657 L
620 2727 L
620 2738 L
620 2618 L
620 2779 L
620 2792 L
620 2792 L
620 2776 L
620 2806 L
620 2499 L
620 2696 L
620 2583 L
620 2730 L
620 2801 L
620 2558 L
620 2963 L
620 2723 L
620 2854 L
620 2792 L
620 2552 L
620 2594 L
620 2600 L
620 2788 L
620 2605 L
620 2497 L
620 2837 L
620 2637 L
620 2660 L
620 2717 L
620 2579 L
620 2619 L
620 2837 L
620 2622 L
620 2783 L
620 2661 L
620 2694 L
620 2901 L
620 2747 L
620 2827 L
620 2525 L
620 2680 L
620 2720 L
620 2808 L
620 2624 L
620 2666 L
620 2759 L
620 2534 L
620 2735 L
620 2699 L
620 2747 L
620 2875 L
L2 C07 COSGR

%
%================
% Legend - Begin
%================
%
GSN 4240 5180 M
4480 5180 L
LWMC SL  C07 COSGR
GSN 4540 5141 M helvM (4.0 uM) show grestore
%
%================
% Legend - End
%================
%

%
% Main frame
%
L10
GSN 
620 1700 M
4220 1700 L
4220 5300 L
620 5300 L
closepath SGR

%
% X axis: large tics
%
L10
%
% X axis: small tics
%
L5
%
% Y axis: large tics
%
L10
GSN 620 2063 M 54 0 rL SGR
GSN 4220 2063 M -54 0 rL SGR
helvS (-0.02) 560 2063 ylabel
GSN 620 2852 M 54 0 rL SGR
GSN 4220 2852 M -54 0 rL SGR
helvS (0) 560 2852 ylabel
GSN 620 3640 M 54 0 rL SGR
GSN 4220 3640 M -54 0 rL SGR
helvS (0.02) 560 3640 ylabel
GSN 620 4429 M 54 0 rL SGR
GSN 4220 4429 M -54 0 rL SGR
helvS (0.04) 560 4429 ylabel
GSN 620 5217 M 54 0 rL SGR
GSN 4220 5217 M -54 0 rL SGR
helvS (0.06) 560 5217 ylabel
%
% Y axis: small tics
%
L5
GSN 620 1866 M 36 0 rL SGR
GSN 4220 1866 M -36 0 rL SGR
GSN 620 2063 M 36 0 rL SGR
GSN 4220 2063 M -36 0 rL SGR
GSN 620 2260 M 36 0 rL SGR
GSN 4220 2260 M -36 0 rL SGR
GSN 620 2457 M 36 0 rL SGR
GSN 4220 2457 M -36 0 rL SGR
GSN 620 2654 M 36 0 rL SGR
GSN 4220 2654 M -36 0 rL SGR
GSN 620 2852 M 36 0 rL SGR
GSN 4220 2852 M -36 0 rL SGR
GSN 620 3049 M 36 0 rL SGR
GSN 4220 3049 M -36 0 rL SGR
GSN 620 3246 M 36 0 rL SGR
GSN 4220 3246 M -36 0 rL SGR
GSN 620 3443 M 36 0 rL SGR
GSN 4220 3443 M -36 0 rL SGR
GSN 620 3640 M 36 0 rL SGR
GSN 4220 3640 M -36 0 rL SGR
GSN 620 3837 M 36 0 rL SGR
GSN 4220 3837 M -36 0 rL SGR
GSN 620 4035 M 36 0 rL SGR
GSN 4220 4035 M -36 0 rL SGR
GSN 620 4232 M 36 0 rL SGR
GSN 4220 4232 M -36 0 rL SGR
GSN 620 4429 M 36 0 rL SGR
GSN 4220 4429 M -36 0 rL SGR
GSN 620 4626 M 36 0 rL SGR
GSN 4220 4626 M -36 0 rL SGR
GSN 620 4823 M 36 0 rL SGR
GSN 4220 4823 M -36 0 rL SGR
GSN 620 5020 M 36 0 rL SGR
GSN 4220 5020 M -36 0 rL SGR
GSN 620 5217 M 36 0 rL SGR
GSN 4220 5217 M -36 0 rL SGR

%
% X axis - residual panel
%
GSN L5 620 2852 M 4220 2852 L SDA G50 SGR

%
% X-Axis label:
%
gsave 620 1370 M 
[
[(Helvetica) 180 0 true true 0 (t)]
[(Helvetica) 180 0 true true 0 (i)]
[(Helvetica) 180 0 true true 0 (m)]
[(Helvetica) 180 0 true true 0 (e)]
] 0 MCshow grestore

%
% Y-Axis label:
%
gsave 234 3500 M 
currentpoint gsave translate 90 rotate 0 0 moveto
[
[(Helvetica) 180 0 true true 0 (r)]
[(Helvetica) 180 0 true true 0 (e)]
[(Helvetica) 180 0 true true 0 (s)]
[(Helvetica) 180 0 true true 0 (i)]
[(Helvetica) 180 0 true true 0 (d)]
[(Helvetica) 180 0 true true 0 (u)]
[(Helvetica) 180 0 true true 0 (a)]
[(Helvetica) 180 0 true true 0 (l)]
[(Helvetica) 180 0 true true 0 (s)]
] 0 MCshow grestore

end
showpage
%%Trailer
%%EOF
