%!PS-Adobe-3.0 EPSF-3.0
%%BoundingBox: 0 0 514 550
%%Creator: BioKin Ltd.
%%DocumentFonts: Symbol Helvetica
%%EndComments
%
/bkdict 256 dict def
bkdict begin
/M {moveto} def 
/R {rmoveto} def
/L {lineto} def
/rL {rlineto} def
/GSN {gsave newpath} def
/SGR {stroke grestore} def
/COSGR {gsave setrgbcolor stroke grestore grestore} def
/SL {setlinewidth} def
/LWMB {12} def             % line width - model curves, black & white
/LWMC {10} def             % line width - model curves, color
/L2 {2.5 setlinewidth} def
/L5 {5 setlinewidth} def
/L10 {10 setlinewidth} def
/G50 {0.5 setgray} def
/SDA {[10  20] 0 setdash} def % axes
/helvT {/Helvetica findfont 100 scalefont setfont} def % tiny
/helvS {/Helvetica findfont 125 scalefont setfont} def % small
/helvM {/Helvetica findfont 150 scalefont setfont} def % medium
/helvL {/Helvetica findfont 175 scalefont setfont} def % large
/xlabel {gsave M dup
   stringwidth exch -0.5 mul exch rmoveto show grestore} def 
/ylabel {gsave M 90 rotate dup
   stringwidth exch -0.5 mul exch rmoveto show grestore} def
/ylabelresid {gsave M dup
   stringwidth exch -1 mul exch rmoveto show grestore} def
% ======
% Shapes
% ======
% Circle:
/Circ {0 360 arc closepath} def
%
% Square:
/Squa {dup dup -0.5 mul dup dup R -2 mul 0 exch rL 1 mul 0 rL dup 0 exch -1 mul rL closepath} def
%
% Triangle Up:
/TriU {dup dup dup -0.4 mul exch -0.5 mul exch R dup 0.5 mul exch rL dup -1 mul exch 0.5 mul exch rL closepath} def 
%
% Triangle Down:
/TriD {dup dup dup 0.4 mul exch -0.5 mul exch R dup 0.5 mul exch -1 mul rL dup 0.5 mul exch rL closepath} def 
%
% Diamond:
/Diam {45 rotate Squa} def
% ======
% Fills
% ======
/GRF {gsave setgray fill grestore} def                    % gray-level Fill
/COF {gsave setrgbcolor fill grestore} def                % color fill
% ======
% Colors
% ======
/C01 {1.00	0.00	0.00} def      % Red
/C02 {0.00	0.00	1.00} def      % Blue
/C03 {0.00	0.39	0.00} def      % Dark Green
/C04 {0.78	0.08	0.52} def      % Medium Violet Red
/C05 {0.55	0.27	0.07} def      % Saddle Brown
/C06 {0.10	0.70	0.70} def      % (cyan)
/C07 {1.00	0.55	0.00} def      % Dark Orange
/C08 {0.63	0.13	0.94} def      % Purple
/C09 {0.00	0.75	1.00} def      % Deep Sky Blue
/C10 {0.20	0.80	0.20} def      % Lime Green
/C11 {0.47	0.53	0.60} def      % Light Slate Gray
/C12 {0.00	0.00	0.00} def      % Black            % or: {0.19	0.31	0.31} def      % Dark Slate Gray
%
/LGR {0.75} def % light gray
/DGR {0.33} def % dark gray
%
% =============
% Dash patterns
% =============
/dash01 { [80  20] 0 setdash } def
/dash02 { [40  20] 0 setdash } def
/dash03 { [80  20  10  20] 0 setdash } def
/dash04 { [40  20  10  20] 0 setdash } def
/dash05 { [80  20  10  10  10  20] 0 setdash } def
/dash06 { [40  20  10  10  10  20] 0 setdash } def
/dash07 { [10  10] 0 setdash } def
%
/MFshow {
   { dup 5 get 3 ge
     { 5 get 3 eq {gsave} {grestore} ifelse }
     {dup dup 0 get findfont exch 1 get scalefont setfont
     [ currentpoint ] exch dup 2 get 0 exch R dup 5 get 2 ne {dup dup 6
     get exch 4 get {show} {stringwidth pop 0 R} ifelse }if dup 5 get 0 eq
     {dup 3 get {2 get neg 0 exch R pop} {pop aload pop M} ifelse} {dup 5
     get 1 eq {dup 2 get exch dup 3 get exch 6 get stringwidth pop -2 div
     dup 0 R} {dup 6 get stringwidth pop -2 div 0 R 6 get
     show 2 index {aload pop M neg 3 -1 roll neg R pop pop} {pop pop pop
     pop aload pop M} ifelse }ifelse }ifelse }
     ifelse }
   forall} bind def
/MFwidth {0 exch {dup 3 get{dup dup 0 get findfont exch 1 get scalefont
     setfont 6 get stringwidth pop add} {pop} ifelse} forall} bind def
/MCshow { currentpoint stroke M
  exch dup MFwidth -2 div 3 -1 roll R MFshow } def
%
end
%%EndProlog
bkdict begin
0.1 0.1 scale
%
% Residuals:
%
GSN 620 3312 M
620 2779 L
620 3163 L
620 4474 L
620 4397 L
620 3813 L
620 3732 L
620 3443 L
620 3477 L
620 3500 L
620 3294 L
620 3857 L
620 3164 L
620 3697 L
620 3736 L
620 3363 L
620 3291 L
620 3468 L
620 3215 L
620 3562 L
620 3336 L
620 3367 L
620 3661 L
620 3849 L
620 2961 L
620 3508 L
620 4228 L
620 3536 L
620 3681 L
620 3571 L
620 3459 L
620 3484 L
620 3097 L
620 3883 L
620 3682 L
620 3586 L
620 3171 L
620 3904 L
620 3853 L
620 3284 L
620 3410 L
620 3463 L
620 3604 L
620 3026 L
620 2888 L
620 3838 L
620 3323 L
620 2988 L
620 3168 L
620 3642 L
620 2624 L
620 2843 L
620 3350 L
620 3566 L
620 3015 L
620 3602 L
620 3594 L
620 3400 L
620 2882 L
620 3688 L
620 4099 L
620 3686 L
620 2912 L
620 2581 L
620 3380 L
620 3095 L
620 3095 L
620 3278 L
620 3469 L
620 2730 L
620 4052 L
620 3262 L
620 3145 L
620 3109 L
620 3578 L
620 2726 L
620 4048 L
620 3619 L
620 3920 L
620 3104 L
620 3439 L
620 3230 L
620 3256 L
620 3069 L
620 2973 L
620 3033 L
620 3172 L
620 3693 L
620 2877 L
620 3025 L
620 3762 L
620 3224 L
620 3366 L
620 3218 L
620 3205 L
620 3397 L
620 2420 L
620 3347 L
620 3140 L
620 3015 L
620 3237 L
620 3111 L
620 2398 L
620 2776 L
620 3655 L
620 2781 L
620 3220 L
620 3717 L
620 2966 L
620 3088 L
620 2578 L
620 2413 L
620 2767 L
620 2632 L
620 2792 L
620 2723 L
620 2956 L
620 2777 L
620 2773 L
620 3178 L
620 2493 L
620 2793 L
620 2894 L
620 2830 L
620 2477 L
620 2724 L
620 3419 L
620 2900 L
620 3050 L
620 2536 L
620 3156 L
620 3096 L
620 2700 L
620 2435 L
620 4001 L
620 3114 L
620 2673 L
620 2411 L
620 3080 L
620 3406 L
620 2710 L
620 2883 L
620 3762 L
620 3110 L
620 3242 L
620 3420 L
620 3012 L
620 3490 L
620 2719 L
620 2970 L
620 3478 L
620 3264 L
620 3379 L
620 2952 L
620 3501 L
620 3929 L
620 3086 L
620 3717 L
620 2932 L
620 3066 L
620 3517 L
620 2805 L
620 3644 L
620 3789 L
620 3367 L
620 3377 L
620 3108 L
620 3667 L
620 3424 L
620 2574 L
620 3113 L
620 3848 L
620 3467 L
620 2937 L
620 2962 L
620 3544 L
620 3663 L
620 2829 L
620 3530 L
620 2980 L
620 3256 L
620 3280 L
620 2660 L
620 3908 L
620 3268 L
620 3309 L
620 4337 L
620 3731 L
620 3875 L
620 3884 L
620 3847 L
620 3286 L
620 3398 L
620 3479 L
620 2417 L
620 3098 L
620 3729 L
620 3765 L
620 3080 L
620 3123 L
620 3764 L
620 3390 L
620 3571 L
620 3964 L
620 3262 L
620 3604 L
620 3331 L
620 3470 L
620 3321 L
620 3840 L
620 3983 L
620 3934 L
620 3359 L
620 3562 L
620 3145 L
620 3940 L
620 3240 L
620 3571 L
620 4061 L
620 3567 L
620 3740 L
620 3839 L
620 3475 L
620 3282 L
620 3497 L
620 4031 L
620 3891 L
620 3678 L
620 4020 L
620 3619 L
620 3137 L
620 3625 L
620 3293 L
620 3767 L
620 3522 L
620 3747 L
620 3821 L
620 4099 L
620 3564 L
620 3686 L
620 3953 L
620 3416 L
620 3929 L
620 3650 L
620 3683 L
620 3180 L
620 2925 L
620 4255 L
620 4100 L
620 4007 L
620 3875 L
620 3339 L
620 4115 L
620 3303 L
620 3872 L
620 3999 L
620 4151 L
620 4311 L
620 3911 L
620 3734 L
620 3754 L
620 3397 L
620 3896 L
620 3861 L
620 4073 L
620 3903 L
620 4236 L
620 3333 L
620 4127 L
620 3352 L
620 4250 L
620 3211 L
620 3410 L
620 3183 L
620 4110 L
620 3353 L
620 4003 L
620 3104 L
620 3872 L
620 4275 L
620 3809 L
620 4394 L
620 4280 L
620 4428 L
620 3856 L
620 3695 L
620 4475 L
620 4316 L
620 3197 L
620 3901 L
620 4012 L
620 3895 L
620 4264 L
620 4636 L
620 4158 L
620 4212 L
620 4234 L
620 4332 L
620 4298 L
620 4439 L
620 4242 L
620 3585 L
620 3666 L
620 3796 L
620 3882 L
620 4658 L
620 4055 L
620 4495 L
620 4230 L
620 4763 L
620 4590 L
620 4207 L
620 4718 L
620 4040 L
620 4769 L
620 4029 L
620 4790 L
620 4118 L
620 4550 L
620 4576 L
620 4012 L
620 4109 L
620 4187 L
620 4129 L
620 4447 L
620 3836 L
620 4721 L
620 3981 L
620 3504 L
620 4302 L
620 3236 L
620 4037 L
620 3847 L
620 4006 L
620 3439 L
620 4863 L
620 3272 L
620 3886 L
620 4051 L
620 4302 L
620 3702 L
620 3970 L
620 4151 L
620 4165 L
620 4249 L
620 4176 L
620 4040 L
620 3878 L
620 3183 L
620 3052 L
620 4219 L
620 4151 L
620 3825 L
620 3433 L
620 3721 L
620 4073 L
620 3984 L
620 3990 L
620 3872 L
620 4056 L
620 3816 L
620 4087 L
620 3551 L
620 2982 L
620 3551 L
620 3646 L
620 4040 L
620 3629 L
620 3529 L
620 4046 L
620 4651 L
620 3398 L
620 3688 L
620 3811 L
620 3908 L
620 3509 L
620 3239 L
620 3091 L
620 3387 L
620 4307 L
620 4073 L
620 3239 L
620 3498 L
620 3370 L
620 3272 L
620 2929 L
620 3830 L
620 3038 L
620 3258 L
620 3763 L
620 4046 L
620 2853 L
620 3478 L
620 3621 L
620 3146 L
620 2957 L
620 3484 L
620 3353 L
620 2697 L
620 3297 L
620 2965 L
620 3654 L
620 3822 L
620 3035 L
620 2711 L
620 3847 L
620 2661 L
620 3082 L
620 3654 L
620 3395 L
620 3138 L
620 3202 L
620 3141 L
620 3225 L
620 3627 L
620 2979 L
620 2817 L
620 3015 L
620 3238 L
620 3504 L
620 2649 L
620 3230 L
620 2900 L
620 3144 L
620 3051 L
620 3161 L
620 3166 L
620 2535 L
620 3875 L
620 3090 L
620 3188 L
620 3191 L
620 2150 L
620 3244 L
620 2789 L
620 3509 L
620 2940 L
620 3286 L
620 3211 L
620 3375 L
620 3222 L
620 3233 L
620 3286 L
620 2759 L
620 3250 L
620 2616 L
620 2834 L
620 3529 L
620 2867 L
620 3264 L
620 3347 L
620 3386 L
620 2789 L
620 2437 L
620 2770 L
620 2415 L
620 3146 L
620 3161 L
620 2859 L
620 2756 L
620 2700 L
620 2650 L
620 2820 L
620 3105 L
620 2948 L
620 2275 L
620 2909 L
620 3060 L
620 2797 L
620 2136 L
620 2524 L
620 3459 L
620 3093 L
620 2954 L
620 2365 L
620 2315 L
620 2602 L
620 2460 L
620 3052 L
620 2418 L
620 2281 L
620 2937 L
620 2834 L
620 2850 L
620 3510 L
620 2415 L
620 3101 L
620 2820 L
620 2161 L
620 2323 L
620 2783 L
620 2960 L
620 2630 L
620 2641 L
620 2917 L
620 2962 L
620 3545 L
620 3228 L
620 3442 L
620 2510 L
620 2639 L
620 2996 L
620 3057 L
620 2636 L
620 2797 L
620 2502 L
620 3171 L
620 2619 L
620 2747 L
620 3266 L
620 3389 L
620 2795 L
620 2987 L
620 3085 L
620 2982 L
620 2356 L
620 2929 L
620 3214 L
620 2544 L
620 2850 L
620 2789 L
620 2926 L
620 2331 L
620 2915 L
620 3004 L
620 3356 L
620 2602 L
620 2999 L
620 2454 L
620 3038 L
620 2747 L
620 2951 L
620 2892 L
L2 C03 COSGR

%
%================
% Legend - Begin
%================
%
GSN 4240 5180 M
4480 5180 L
LWMC SL  C03 COSGR
GSN 4540 5141 M helvM (1.5 uM) show grestore
%
%================
% Legend - End
%================
%

%
% Main frame
%
L10
GSN 
620 1700 M
4220 1700 L
4220 5300 L
620 5300 L
closepath SGR

%
% X axis: large tics
%
L10
%
% X axis: small tics
%
L5
%
% Y axis: large tics
%
L10
GSN 620 1934 M 54 0 rL SGR
GSN 4220 1934 M -54 0 rL SGR
helvS (-0.01) 560 1934 ylabel
GSN 620 3397 M 54 0 rL SGR
GSN 4220 3397 M -54 0 rL SGR
helvS (0) 560 3397 ylabel
GSN 620 4860 M 54 0 rL SGR
GSN 4220 4860 M -54 0 rL SGR
helvS (0.01) 560 4860 ylabel
%
% Y axis: small tics
%
L5
GSN 620 1934 M 36 0 rL SGR
GSN 4220 1934 M -36 0 rL SGR
GSN 620 2299 M 36 0 rL SGR
GSN 4220 2299 M -36 0 rL SGR
GSN 620 2665 M 36 0 rL SGR
GSN 4220 2665 M -36 0 rL SGR
GSN 620 3031 M 36 0 rL SGR
GSN 4220 3031 M -36 0 rL SGR
GSN 620 3397 M 36 0 rL SGR
GSN 4220 3397 M -36 0 rL SGR
GSN 620 3763 M 36 0 rL SGR
GSN 4220 3763 M -36 0 rL SGR
GSN 620 4129 M 36 0 rL SGR
GSN 4220 4129 M -36 0 rL SGR
GSN 620 4494 M 36 0 rL SGR
GSN 4220 4494 M -36 0 rL SGR
GSN 620 4860 M 36 0 rL SGR
GSN 4220 4860 M -36 0 rL SGR
GSN 620 5226 M 36 0 rL SGR
GSN 4220 5226 M -36 0 rL SGR

%
% X axis - residual panel
%
GSN L5 620 3397 M 4220 3397 L SDA G50 SGR

%
% X-Axis label:
%
gsave 620 1370 M 
[
[(Helvetica) 180 0 true true 0 (t)]
[(Helvetica) 180 0 true true 0 (i)]
[(Helvetica) 180 0 true true 0 (m)]
[(Helvetica) 180 0 true true 0 (e)]
] 0 MCshow grestore

%
% Y-Axis label:
%
gsave 234 3500 M 
currentpoint gsave translate 90 rotate 0 0 moveto
[
[(Helvetica) 180 0 true true 0 (r)]
[(Helvetica) 180 0 true true 0 (e)]
[(Helvetica) 180 0 true true 0 (s)]
[(Helvetica) 180 0 true true 0 (i)]
[(Helvetica) 180 0 true true 0 (d)]
[(Helvetica) 180 0 true true 0 (u)]
[(Helvetica) 180 0 true true 0 (a)]
[(Helvetica) 180 0 true true 0 (l)]
[(Helvetica) 180 0 true true 0 (s)]
] 0 MCshow grestore

end
showpage
%%Trailer
%%EOF
