%!PS-Adobe-3.0 EPSF-3.0
%%BoundingBox: 0 0 514 550
%%Creator: BioKin Ltd.
%%DocumentFonts: Symbol Helvetica
%%EndComments
%
/bkdict 256 dict def
bkdict begin
/M {moveto} def 
/R {rmoveto} def
/L {lineto} def
/rL {rlineto} def
/GSN {gsave newpath} def
/SGR {stroke grestore} def
/COSGR {gsave setrgbcolor stroke grestore grestore} def
/SL {setlinewidth} def
/LWMB {12} def             % line width - model curves, black & white
/LWMC {10} def             % line width - model curves, color
/L2 {2.5 setlinewidth} def
/L5 {5 setlinewidth} def
/L10 {10 setlinewidth} def
/G50 {0.5 setgray} def
/SDA {[10  20] 0 setdash} def % axes
/helvT {/Helvetica findfont 100 scalefont setfont} def % tiny
/helvS {/Helvetica findfont 125 scalefont setfont} def % small
/helvM {/Helvetica findfont 150 scalefont setfont} def % medium
/helvL {/Helvetica findfont 175 scalefont setfont} def % large
/xlabel {gsave M dup
   stringwidth exch -0.5 mul exch rmoveto show grestore} def 
/ylabel {gsave M 90 rotate dup
   stringwidth exch -0.5 mul exch rmoveto show grestore} def
/ylabelresid {gsave M dup
   stringwidth exch -1 mul exch rmoveto show grestore} def
% ======
% Shapes
% ======
% Circle:
/Circ {0 360 arc closepath} def
%
% Square:
/Squa {dup dup -0.5 mul dup dup R -2 mul 0 exch rL 1 mul 0 rL dup 0 exch -1 mul rL closepath} def
%
% Triangle Up:
/TriU {dup dup dup -0.4 mul exch -0.5 mul exch R dup 0.5 mul exch rL dup -1 mul exch 0.5 mul exch rL closepath} def 
%
% Triangle Down:
/TriD {dup dup dup 0.4 mul exch -0.5 mul exch R dup 0.5 mul exch -1 mul rL dup 0.5 mul exch rL closepath} def 
%
% Diamond:
/Diam {45 rotate Squa} def
% ======
% Fills
% ======
/GRF {gsave setgray fill grestore} def                    % gray-level Fill
/COF {gsave setrgbcolor fill grestore} def                % color fill
% ======
% Colors
% ======
/C01 {1.00	0.00	0.00} def      % Red
/C02 {0.00	0.00	1.00} def      % Blue
/C03 {0.00	0.39	0.00} def      % Dark Green
/C04 {0.78	0.08	0.52} def      % Medium Violet Red
/C05 {0.55	0.27	0.07} def      % Saddle Brown
/C06 {0.10	0.70	0.70} def      % (cyan)
/C07 {1.00	0.55	0.00} def      % Dark Orange
/C08 {0.63	0.13	0.94} def      % Purple
/C09 {0.00	0.75	1.00} def      % Deep Sky Blue
/C10 {0.20	0.80	0.20} def      % Lime Green
/C11 {0.47	0.53	0.60} def      % Light Slate Gray
/C12 {0.00	0.00	0.00} def      % Black            % or: {0.19	0.31	0.31} def      % Dark Slate Gray
%
/LGR {0.75} def % light gray
/DGR {0.33} def % dark gray
%
% =============
% Dash patterns
% =============
/dash01 { [80  20] 0 setdash } def
/dash02 { [40  20] 0 setdash } def
/dash03 { [80  20  10  20] 0 setdash } def
/dash04 { [40  20  10  20] 0 setdash } def
/dash05 { [80  20  10  10  10  20] 0 setdash } def
/dash06 { [40  20  10  10  10  20] 0 setdash } def
/dash07 { [10  10] 0 setdash } def
%
/MFshow {
   { dup 5 get 3 ge
     { 5 get 3 eq {gsave} {grestore} ifelse }
     {dup dup 0 get findfont exch 1 get scalefont setfont
     [ currentpoint ] exch dup 2 get 0 exch R dup 5 get 2 ne {dup dup 6
     get exch 4 get {show} {stringwidth pop 0 R} ifelse }if dup 5 get 0 eq
     {dup 3 get {2 get neg 0 exch R pop} {pop aload pop M} ifelse} {dup 5
     get 1 eq {dup 2 get exch dup 3 get exch 6 get stringwidth pop -2 div
     dup 0 R} {dup 6 get stringwidth pop -2 div 0 R 6 get
     show 2 index {aload pop M neg 3 -1 roll neg R pop pop} {pop pop pop
     pop aload pop M} ifelse }ifelse }ifelse }
     ifelse }
   forall} bind def
/MFwidth {0 exch {dup 3 get{dup dup 0 get findfont exch 1 get scalefont
     setfont 6 get stringwidth pop add} {pop} ifelse} forall} bind def
/MCshow { currentpoint stroke M
  exch dup MFwidth -2 div 3 -1 roll R MFshow } def
%
end
%%EndProlog
bkdict begin
0.1 0.1 scale
%
% Model curves:
%

GSN 753 5166 M
753 5166 L
786 5036 L
820 4901 L
853 4763 L
886 4622 L
920 4481 L
929 4439 L
953 4339 L
986 4199 L
1020 4062 L
1053 3929 L
1086 3800 L
1106 3727 L
1120 3677 L
1153 3561 L
1186 3451 L
1220 3349 L
1253 3254 L
1282 3177 L
1286 3168 L
1319 3089 L
1353 3018 L
1386 2954 L
1419 2898 L
1453 2850 L
1459 2841 L
1486 2807 L
1519 2772 L
1553 2742 L
1586 2718 L
1619 2699 L
1635 2691 L
1653 2684 L
1686 2673 L
1719 2666 L
1753 2661 L
1786 2658 L
1812 2656 L
1819 2656 L
1853 2655 L
1886 2655 L
1919 2654 L
1953 2654 L
1986 2654 L
1988 2654 L
2019 2654 L
2053 2654 L
2086 2654 L
2119 2654 L
2153 2654 L
2165 2654 L
2186 2654 L
2219 2654 L
2253 2654 L
2286 2654 L
2319 2654 L
2341 2654 L
2353 2654 L
2386 2654 L
2419 2654 L
2453 2654 L
2486 2654 L
2518 2654 L
2519 2654 L
2553 2655 L
2586 2655 L
2619 2655 L
2653 2655 L
2686 2655 L
2694 2655 L
2719 2655 L
2753 2655 L
2786 2655 L
2819 2655 L
2853 2655 L
2871 2655 L
2886 2655 L
2919 2655 L
2953 2655 L
2986 2656 L
3019 2656 L
3047 2656 L
3053 2656 L
3086 2656 L
3119 2657 L
3153 2657 L
3186 2657 L
3219 2658 L
3224 2658 L
3253 2658 L
3286 2659 L
3319 2659 L
3353 2660 L
3386 2661 L
3400 2661 L
3419 2662 L
3453 2663 L
3476 2663 L
3486 2664 L
3519 2665 L
3553 2667 L
3577 2668 L
3586 2668 L
3619 2670 L
3653 2673 L
3686 2675 L
3719 2678 L
3753 2681 L
3754 2682 L
3786 2685 L
3819 2690 L
3853 2695 L
3886 2700 L
3919 2707 L
3930 2709 L
3953 2714 L
3986 2722 L
4019 2732 L
4053 2743 L
4086 2755 L
4086 2755 L
LWMC SL  C02 COSGR

%
% Experimental data:
%
GSN 777 4098 M
1388 4564 L
1552 4377 L
1652 3976 L
1723 3804 L
1778 3867 L
1824 4223 L
1863 4047 L
1896 4115 L
1926 4108 L
1952 4242 L
1976 4164 L
1998 4301 L
2019 4057 L
2037 3971 L
2055 4049 L
2071 4184 L
2086 4028 L
2101 4139 L
2115 4286 L
2128 4305 L
2140 4171 L
2152 4047 L
2163 4127 L
2174 4191 L
2184 4104 L
2194 4188 L
2204 4126 L
2213 3939 L
2222 4260 L
2230 4156 L
2239 4192 L
2247 4234 L
2255 4026 L
2262 3895 L
2270 4139 L
2277 4066 L
2284 3884 L
2290 4146 L
2297 4061 L
2303 4005 L
2310 4085 L
2316 4122 L
2322 4101 L
2328 3973 L
2333 3892 L
2339 3991 L
2344 4205 L
2350 4080 L
2355 4129 L
2360 4029 L
2365 4112 L
2370 3935 L
2375 4028 L
2380 4106 L
2384 3950 L
2389 3912 L
2393 3963 L
2398 3999 L
2402 4022 L
2407 4132 L
2411 3935 L
2415 3938 L
2419 3739 L
2423 4032 L
2427 3901 L
2431 3950 L
2435 3869 L
2438 3959 L
2442 3950 L
2446 3960 L
2449 3745 L
2453 3966 L
2456 3984 L
2460 4095 L
2463 3926 L
2467 3922 L
2470 3877 L
2473 3722 L
2476 3793 L
2480 3929 L
2483 3935 L
2486 4059 L
2489 4029 L
2492 3832 L
2495 3856 L
2498 3904 L
2501 3897 L
2504 3819 L
2507 3956 L
2510 3790 L
2512 3698 L
2515 3776 L
2518 3732 L
2521 3788 L
2523 3794 L
2526 3976 L
2529 3825 L
2531 3727 L
2534 3899 L
2536 3655 L
2539 3746 L
2541 3773 L
2544 3856 L
2546 3815 L
2549 3684 L
2551 3707 L
2554 3724 L
2556 3808 L
2558 3943 L
2561 3833 L
2563 3740 L
2565 3560 L
2568 3735 L
2570 3721 L
2572 3700 L
2574 3652 L
2576 4112 L
2579 3779 L
2581 3842 L
2583 3618 L
2585 3848 L
2587 3704 L
2589 3687 L
2591 3859 L
2593 3839 L
2595 3795 L
2597 3653 L
2599 3767 L
2601 3852 L
2603 3708 L
2605 3560 L
2607 3572 L
2609 3642 L
2611 3726 L
2613 3724 L
2615 3829 L
2617 3697 L
2618 3711 L
2620 3670 L
2622 3662 L
2624 3631 L
2626 3615 L
2627 3649 L
2629 3472 L
2631 3732 L
2633 3811 L
2634 3596 L
2636 3717 L
2638 3518 L
2640 3655 L
2641 3719 L
2643 3499 L
2645 3681 L
2646 3513 L
2648 3469 L
2650 3614 L
2651 3641 L
2653 3684 L
2654 3636 L
2656 3679 L
2658 3497 L
2659 3658 L
2661 3555 L
2662 3423 L
2664 3446 L
2665 3711 L
2667 3552 L
2668 3652 L
2670 3753 L
2671 3717 L
2673 3475 L
2674 3772 L
2676 3622 L
2677 3575 L
2679 3708 L
2680 3551 L
2682 3418 L
2683 3466 L
2685 3521 L
2686 3417 L
2687 3432 L
2689 3349 L
2690 3684 L
2692 3584 L
2693 3693 L
2694 3590 L
2696 3520 L
2697 3553 L
2698 3625 L
2700 3273 L
2701 3431 L
2702 3587 L
2704 3466 L
2705 3583 L
2706 3698 L
2708 3504 L
2709 3477 L
2710 3535 L
2712 3442 L
2713 3523 L
2714 3565 L
2715 3558 L
2717 3416 L
2718 3589 L
2719 3621 L
2720 3333 L
2722 3478 L
2723 3537 L
2724 3572 L
2725 3397 L
2726 3604 L
2728 3477 L
2729 3461 L
2730 3583 L
2731 3589 L
2732 3282 L
2734 3362 L
2735 3635 L
2736 3587 L
2737 3552 L
2738 3327 L
2739 3427 L
2741 3463 L
2742 3508 L
2743 3404 L
2744 3565 L
2745 3591 L
2746 3324 L
2747 3292 L
2748 3379 L
2749 3352 L
2751 3273 L
2752 3465 L
2753 3404 L
2754 3411 L
2755 3362 L
2756 3463 L
2757 3406 L
2758 3386 L
2759 3524 L
2760 3514 L
2761 3242 L
2762 3252 L
2763 3262 L
2764 3435 L
2765 3421 L
2767 3518 L
2768 3338 L
2769 3463 L
2770 3396 L
2771 3427 L
2772 3587 L
2773 3084 L
2774 3337 L
2775 3503 L
2776 3390 L
2777 3169 L
2778 3255 L
2779 3425 L
2780 3361 L
2781 3241 L
2782 3452 L
2783 3300 L
2783 3316 L
2784 3342 L
2785 3413 L
2786 3297 L
2787 3466 L
2788 3490 L
2789 3352 L
2790 3369 L
2791 3359 L
2792 3294 L
2793 3288 L
2794 3368 L
2795 3386 L
2796 3337 L
2797 3254 L
2798 3427 L
2798 3275 L
2799 3259 L
2800 3134 L
2801 3366 L
2802 3372 L
2803 3431 L
2804 3150 L
2805 3295 L
2806 3545 L
2807 3292 L
2807 3365 L
2808 3088 L
2809 3062 L
2810 3095 L
2811 3279 L
2812 3223 L
2813 3245 L
2813 3262 L
2814 3402 L
2815 3197 L
2816 3203 L
2817 3223 L
2818 3351 L
2819 3075 L
2819 3237 L
2820 3465 L
2821 3273 L
2822 3095 L
2823 3282 L
2824 3326 L
2824 3133 L
2825 3209 L
2826 3151 L
2827 3216 L
2828 3129 L
2828 3397 L
2829 3275 L
2830 3057 L
2831 3167 L
2832 3200 L
2832 3137 L
2833 3074 L
2834 3171 L
2835 3113 L
2836 3129 L
2836 3324 L
2837 3337 L
2838 3199 L
2839 3061 L
2840 3252 L
2840 3024 L
2841 3133 L
2842 3347 L
2843 3061 L
2843 3379 L
2844 3192 L
2845 3402 L
2846 3386 L
2846 3091 L
2847 3157 L
2848 2992 L
2849 3161 L
2849 3216 L
2850 3424 L
2851 2964 L
2852 3185 L
2852 3124 L
2853 3083 L
2854 3103 L
2855 3008 L
2855 3202 L
2856 2932 L
2857 3365 L
2857 3055 L
2858 3197 L
2859 3078 L
2860 3130 L
2860 3245 L
2861 3404 L
2862 3082 L
2862 3055 L
2863 3396 L
2864 3093 L
2865 3141 L
2865 3167 L
2866 3227 L
2867 3134 L
2867 3145 L
2868 3124 L
2869 3176 L
2869 2936 L
2870 3161 L
2871 3141 L
2871 2986 L
2872 3151 L
2873 2916 L
2873 2962 L
2874 3204 L
2875 3060 L
2876 3084 L
2876 3216 L
2877 3017 L
2878 3116 L
2878 3024 L
2879 3203 L
2880 2936 L
2880 3019 L
2881 3220 L
2881 2909 L
2882 3181 L
2883 2936 L
2883 2992 L
2884 3109 L
2885 3062 L
2885 3244 L
2886 3043 L
2887 3055 L
2887 2982 L
2888 2919 L
2889 3141 L
2889 3219 L
2892 2955 L
2894 3047 L
2897 3029 L
2899 3005 L
2902 2857 L
2904 2957 L
2907 3240 L
2909 2943 L
2911 3002 L
2914 2830 L
2916 3044 L
2918 2958 L
2921 2916 L
2923 2836 L
2925 2950 L
2927 3033 L
2929 3079 L
2932 2856 L
2934 2905 L
2936 2927 L
2938 2754 L
2940 2939 L
2942 3005 L
2944 2753 L
2946 2878 L
2948 3037 L
2950 2761 L
2952 2746 L
2954 2912 L
2956 2943 L
2958 2697 L
2960 2701 L
2962 2986 L
2964 2722 L
2966 2877 L
2968 2750 L
2970 2782 L
2971 2872 L
2973 2614 L
2975 2699 L
2977 2951 L
2979 2660 L
2980 2785 L
2982 2757 L
2984 2640 L
2986 2868 L
2987 2690 L
2989 2645 L
2991 2616 L
2993 2567 L
2994 2751 L
2996 2616 L
2998 2474 L
2999 2747 L
3001 2656 L
3003 2563 L
3004 2418 L
3006 2860 L
3007 2810 L
3009 2684 L
3011 2781 L
3012 2756 L
3014 2512 L
3015 2708 L
3017 2709 L
3018 2587 L
3020 2763 L
3021 2588 L
3023 2784 L
3024 2419 L
3026 2704 L
3027 2702 L
3029 2467 L
3030 2432 L
3032 2495 L
3033 2626 L
3035 2622 L
3036 2554 L
3038 2805 L
3039 2697 L
3040 2667 L
3042 2526 L
3043 2600 L
3045 2573 L
3046 2607 L
3047 2609 L
3049 2654 L
3050 2533 L
3051 2649 L
3053 2363 L
3054 2483 L
3055 2726 L
3057 2393 L
3058 2602 L
3059 2719 L
3061 2573 L
3062 2578 L
3063 2441 L
3065 2322 L
3066 2646 L
3067 2483 L
3068 2519 L
3070 2403 L
3071 2564 L
3072 2552 L
3073 2436 L
3075 2477 L
3076 2501 L
3077 2567 L
3078 2559 L
3079 2435 L
3081 2490 L
3082 2310 L
3083 2458 L
3084 2490 L
3085 2411 L
3087 2411 L
3088 2487 L
3089 2449 L
3090 2524 L
3091 2365 L
3092 2363 L
3094 2443 L
3095 2352 L
3096 2373 L
3097 2505 L
3098 2334 L
3099 2694 L
3100 2270 L
3101 2206 L
3103 2636 L
3104 2218 L
3105 2404 L
3106 2467 L
3107 2349 L
3108 2426 L
3109 2446 L
3110 2567 L
3111 2376 L
3112 2280 L
3113 2346 L
3114 2504 L
3115 2467 L
3116 2381 L
3117 2466 L
3119 2267 L
3120 2325 L
3121 2439 L
3122 2360 L
3123 2455 L
3124 2369 L
3125 2493 L
3126 2383 L
3127 2200 L
3128 2476 L
3129 2249 L
3130 2242 L
3131 2553 L
3132 2117 L
3133 2408 L
3134 2360 L
3135 2184 L
3136 2363 L
3136 2343 L
3137 2263 L
3138 2266 L
3139 2341 L
3140 2374 L
3141 2134 L
3142 2253 L
3143 2199 L
3144 2376 L
3145 2483 L
3146 2397 L
3147 2445 L
3148 2218 L
3149 2134 L
3150 2345 L
3151 2298 L
3151 2152 L
3152 2208 L
3153 2166 L
3154 2322 L
3155 2097 L
3156 2350 L
3157 2464 L
3158 2388 L
3159 2241 L
3160 2301 L
3160 2045 L
3161 2225 L
3162 2192 L
3163 2304 L
3164 2276 L
3165 2393 L
3166 2244 L
3166 2177 L
3167 2344 L
3168 2321 L
3169 2139 L
3170 2304 L
3171 2273 L
3172 2428 L
3172 2228 L
3173 2159 L
3174 2148 L
3175 2132 L
3176 2249 L
3177 2308 L
3177 2222 L
3178 2267 L
3179 2218 L
3180 2213 L
3181 2296 L
3181 2426 L
3182 2327 L
3183 2058 L
3184 2366 L
3185 2298 L
3185 2246 L
3186 2403 L
3187 2111 L
3188 2296 L
3189 2279 L
3189 2473 L
3190 2346 L
3191 2207 L
3192 2092 L
3193 2245 L
3193 2432 L
3194 2125 L
3195 2214 L
3196 2248 L
3196 2131 L
3197 2048 L
3198 2322 L
3199 2068 L
3199 2027 L
3200 2332 L
3201 2263 L
3202 2147 L
3202 2230 L
3203 2245 L
3204 2242 L
3205 2059 L
3205 2418 L
3206 2193 L
3207 2156 L
3208 2125 L
3208 2287 L
3209 2229 L
3210 2154 L
3210 2293 L
3211 2110 L
3212 2211 L
3213 2224 L
3213 2241 L
3214 2258 L
3215 2315 L
3215 2117 L
3216 2154 L
3217 2245 L
3218 2182 L
3218 1992 L
3219 1899 L
3220 2318 L
3220 2196 L
3221 2173 L
3222 2161 L
3222 2303 L
3223 2090 L
3224 2338 L
3224 2078 L
3225 2224 L
3226 2094 L
3227 2090 L
3227 2089 L
3228 2096 L
3229 2236 L
3229 2147 L
3230 2048 L
3231 2203 L
3231 2228 L
3232 2140 L
3233 2296 L
3233 2149 L
3234 2102 L
3235 2339 L
3235 2080 L
3236 2372 L
3236 2235 L
3237 2141 L
3238 2215 L
3238 2108 L
3239 2175 L
3240 2276 L
3240 2145 L
3241 2189 L
3242 2156 L
3242 2180 L
3243 2163 L
3244 2103 L
3244 2144 L
3245 2230 L
3245 2013 L
3246 2121 L
3247 2045 L
3247 1937 L
3248 2225 L
3249 2044 L
3249 2238 L
3250 2253 L
3250 2065 L
3251 2137 L
3252 2018 L
3252 2287 L
3253 2037 L
3253 2321 L
3254 2210 L
3255 2161 L
3255 2145 L
3256 2255 L
3257 2185 L
3257 2262 L
3258 2194 L
3258 2194 L
3259 2120 L
3259 2011 L
3260 2107 L
3261 2279 L
3261 2230 L
3262 2127 L
3262 2066 L
3263 2206 L
3264 2121 L
3264 2190 L
3265 2277 L
3265 2255 L
3266 2169 L
3267 2296 L
3267 2141 L
3268 2213 L
3268 2210 L
3269 2262 L
3269 2177 L
3270 2241 L
3271 2137 L
3271 2234 L
3272 2049 L
3272 2134 L
3273 2051 L
3273 2351 L
3274 2383 L
3275 2324 L
3275 2133 L
3276 2279 L
3276 2221 L
3277 2249 L
3277 2116 L
3278 2069 L
3278 2148 L
3279 2094 L
3280 2331 L
3280 2107 L
3281 1986 L
3281 2324 L
3282 2358 L
3282 2218 L
3283 2179 L
3283 2070 L
3284 2104 L
3284 1971 L
3285 2149 L
3285 1921 L
3286 2099 L
3287 2193 L
3287 2065 L
3288 2298 L
3288 2127 L
3289 2058 L
3289 1833 L
3290 2237 L
3290 2217 L
3291 2044 L
3291 2020 L
3292 2225 L
3292 2255 L
3293 2082 L
3293 2110 L
3294 2131 L
3294 2117 L
3295 2111 L
3295 2051 L
3296 2270 L
3297 2103 L
3297 2190 L
3298 2110 L
3298 2280 L
3299 2156 L
3299 2149 L
3300 2076 L
3300 2190 L
3301 2180 L
3301 2189 L
3302 2267 L
3302 2103 L
3303 2156 L
3303 2487 L
3304 2262 L
3304 2305 L
3305 2339 L
3305 2203 L
3306 2066 L
3306 2116 L
3307 2331 L
3307 2321 L
3308 2315 L
3308 2099 L
3309 2241 L
3309 2128 L
3310 2177 L
3310 2176 L
3311 2282 L
3311 2232 L
3312 2276 L
3312 2144 L
3312 2239 L
3313 2145 L
3313 2284 L
3314 2448 L
3314 2200 L
3315 2161 L
3315 2173 L
3316 2291 L
3316 2168 L
3317 2239 L
3317 2259 L
3318 1935 L
3318 2158 L
3319 2207 L
3319 2137 L
3320 2255 L
3320 2213 L
3321 2258 L
3321 2147 L
3321 2293 L
3322 2197 L
3322 2262 L
3323 2190 L
3323 2372 L
3324 2210 L
3324 2232 L
3325 2175 L
3325 2190 L
3326 2100 L
3326 2086 L
3327 2259 L
3327 2470 L
3327 2161 L
3328 2134 L
3328 2016 L
3329 2177 L
3329 2338 L
3330 2367 L
3330 2267 L
3331 2314 L
3331 2207 L
3332 2215 L
3332 2249 L
3332 2280 L
3333 2075 L
3333 2293 L
3334 2291 L
3334 2335 L
3335 2220 L
3335 2283 L
3336 2290 L
3336 2334 L
3336 2357 L
3337 2077 L
3337 2258 L
3338 2185 L
3338 2343 L
3339 2231 L
3339 2286 L
3339 2149 L
3340 1893 L
3340 2089 L
3341 2269 L
3341 2305 L
3342 2215 L
3342 2373 L
3343 2380 L
3343 2201 L
3343 2187 L
3344 2183 L
3344 2588 L
3345 2196 L
3345 2298 L
3346 2121 L
3346 2235 L
3346 2057 L
3347 2349 L
3347 2058 L
3348 2289 L
3348 2104 L
3348 2234 L
3349 2393 L
3349 2199 L
3350 2270 L
3350 2310 L
3351 2235 L
3351 2220 L
3351 2044 L
3352 2235 L
3352 2360 L
3353 2335 L
3353 2319 L
3353 2177 L
3354 2041 L
3354 2104 L
3355 2051 L
3355 2137 L
3355 2602 L
3356 2287 L
3356 2245 L
3357 2194 L
3357 2272 L
3358 2490 L
3358 2165 L
3358 2390 L
3359 2085 L
3359 2252 L
3360 2082 L
3360 2222 L
3360 2154 L
3361 2228 L
3361 2294 L
3362 2225 L
3362 2099 L
3362 2353 L
3363 2145 L
3363 2362 L
3364 2303 L
3364 2529 L
3364 1934 L
3365 2208 L
3365 2275 L
3365 2311 L
3366 2350 L
3366 2035 L
3367 2328 L
3367 2407 L
3367 2346 L
3368 2090 L
3368 2051 L
3369 2151 L
3369 2192 L
3369 2283 L
3370 2462 L
3370 2391 L
3371 2404 L
3371 2265 L
3371 2038 L
3372 2109 L
3372 2096 L
3372 2158 L
3373 2186 L
3373 2190 L
3374 2291 L
3374 2161 L
3374 2296 L
3375 2210 L
3375 2242 L
3375 2442 L
3376 2152 L
3376 2148 L
3377 2232 L
3377 2231 L
3377 2298 L
3378 2161 L
3378 2183 L
3378 2389 L
3379 2123 L
3379 2348 L
3380 2189 L
3380 2424 L
3380 2345 L
3381 2448 L
3381 2369 L
3381 2142 L
3382 2087 L
3382 2265 L
3383 2311 L
3383 2438 L
3383 2244 L
3384 2293 L
3384 2193 L
3384 2199 L
3385 2353 L
3385 2252 L
3385 2110 L
3386 2044 L
3386 2118 L
3387 2443 L
3387 2169 L
3387 2346 L
3388 2289 L
3388 2371 L
3388 2031 L
3389 2221 L
3389 2070 L
3389 2377 L
3390 2396 L
3390 2153 L
3391 2244 L
3391 2194 L
3391 2383 L
3392 2213 L
3392 2327 L
3392 2322 L
3393 2158 L
3393 2293 L
3393 2222 L
3394 2248 L
3394 2457 L
3394 2197 L
3395 2093 L
3395 2339 L
3395 2260 L
3396 2331 L
3396 2269 L
3396 2206 L
3397 2377 L
3397 2215 L
3398 2470 L
3398 2189 L
3398 2355 L
3399 2267 L
3399 2297 L
3399 2414 L
3400 2360 L
3400 2387 L
3400 2342 L
3401 2224 L
3401 2335 L
3401 2144 L
3402 2249 L
3402 2283 L
3402 2266 L
3403 2165 L
3403 2410 L
3403 2152 L
3404 2311 L
3404 2294 L
3404 2298 L
3405 2488 L
3405 2248 L
3405 2201 L
3406 2431 L
3406 2230 L
3406 2228 L
3407 2325 L
3407 2372 L
3407 2367 L
3408 2526 L
3408 2329 L
3408 2421 L
3409 2237 L
3409 2314 L
3409 2173 L
3410 2381 L
3410 2249 L
3410 2252 L
3411 2401 L
3411 2272 L
3411 2429 L
3412 2282 L
3412 2432 L
3412 2231 L
3413 2442 L
3413 2232 L
3413 2248 L
3414 2314 L
3414 2296 L
3414 2228 L
3415 2436 L
3415 2318 L
3415 2374 L
3416 2196 L
3416 2304 L
3416 2269 L
3417 2367 L
3417 2180 L
3417 2269 L
3417 2391 L
3418 2277 L
3418 2303 L
3418 2400 L
3419 2253 L
3419 2311 L
3419 2500 L
3420 2286 L
3420 2332 L
3420 2443 L
3421 2408 L
3421 2438 L
3421 2283 L
3422 2280 L
3422 2332 L
3422 2241 L
3423 2327 L
3423 2298 L
3423 2263 L
3423 2266 L
3424 2403 L
3424 2239 L
3424 2253 L
3425 2424 L
3425 2270 L
3425 2431 L
3426 2443 L
3426 2403 L
3426 2241 L
3427 2411 L
3427 2293 L
3427 2280 L
3428 2509 L
3428 2297 L
3428 2580 L
3428 2587 L
3429 2135 L
3429 2376 L
3429 2379 L
3430 2311 L
3430 2301 L
3430 2304 L
3431 2332 L
3431 2319 L
3431 2429 L
3431 2436 L
3432 2363 L
3432 2260 L
3432 2213 L
3433 2156 L
3433 2462 L
3433 2431 L
3434 2403 L
3434 2454 L
3434 2291 L
3434 2192 L
3435 2390 L
3435 2183 L
3435 2529 L
3436 2315 L
3436 2460 L
3436 2275 L
3437 2320 L
3437 2345 L
3437 2331 L
3437 2372 L
3438 2356 L
3438 2199 L
3438 2345 L
3439 2284 L
3439 2456 L
3439 2341 L
3440 2484 L
3440 2476 L
3440 2414 L
3440 2300 L
3441 2228 L
3441 2336 L
3441 2370 L
3442 2463 L
3442 2498 L
3442 2252 L
3442 2341 L
3443 2369 L
3443 2352 L
3443 2381 L
3444 2300 L
3444 2452 L
3444 2532 L
3444 2502 L
3445 2441 L
3445 2342 L
3445 2298 L
3446 2466 L
3446 2258 L
3446 2357 L
3446 2293 L
3447 2422 L
3447 2369 L
3447 2073 L
3448 2425 L
3448 2425 L
3448 2372 L
3448 2210 L
3449 2438 L
3449 2418 L
3449 2348 L
3450 2432 L
3450 2303 L
3450 2210 L
3450 2350 L
3451 2318 L
3451 2265 L
3451 2372 L
3452 2511 L
3452 2356 L
3452 2455 L
3452 2377 L
3453 2328 L
3453 2531 L
3453 2405 L
3454 2418 L
3454 2273 L
3454 2305 L
3454 2386 L
3455 2346 L
3455 2531 L
3455 2504 L
3455 2474 L
3456 2045 L
3456 2464 L
3456 2453 L
3457 2449 L
3457 2541 L
3457 2369 L
3457 2390 L
3458 2308 L
3458 2512 L
3458 2407 L
3458 2545 L
3459 2414 L
3459 2391 L
3459 2595 L
3460 2418 L
3460 2404 L
3460 2448 L
3460 2505 L
3461 2307 L
3461 2324 L
3461 2248 L
3461 2405 L
3462 2407 L
3462 2224 L
3462 2395 L
3463 2428 L
3463 2477 L
3463 2504 L
3463 2539 L
3464 2149 L
3464 2469 L
3464 2463 L
3464 2310 L
3465 2514 L
3465 2355 L
3465 2561 L
3465 2169 L
3466 2433 L
3466 2369 L
3466 2550 L
3466 2355 L
3467 2403 L
3467 2436 L
3467 2467 L
3468 2435 L
3468 2362 L
3468 2445 L
3468 2605 L
3469 2626 L
3469 2393 L
3469 2428 L
3469 2289 L
3470 2387 L
3470 2387 L
3470 2294 L
3470 2477 L
3471 2510 L
3471 2574 L
3471 2604 L
3471 2161 L
3472 2403 L
3472 2626 L
3472 2280 L
3472 2348 L
3473 2325 L
3473 2436 L
3473 2367 L
3474 2367 L
3474 2339 L
3474 2474 L
3474 2407 L
3475 2252 L
3475 2448 L
3475 2155 L
3475 2235 L
3476 2429 L
3476 2367 L
3476 2455 L
3476 2275 L
3477 2305 L
3477 2294 L
3477 2541 L
3477 2367 L
3478 2442 L
3478 2569 L
3478 2366 L
3478 2432 L
3479 2296 L
3479 2508 L
3479 2538 L
3479 2501 L
3480 2242 L
3480 2293 L
3480 2336 L
3480 2412 L
3481 2411 L
3481 2324 L
3481 2425 L
3481 2318 L
3482 2370 L
3482 2331 L
3482 2473 L
3482 2542 L
3483 2439 L
3483 2386 L
3483 2412 L
3483 2432 L
3484 2604 L
3484 2365 L
3484 2476 L
3484 2374 L
3485 2366 L
3485 2476 L
3485 2291 L
3485 2591 L
3486 2357 L
3486 2666 L
3486 2598 L
3486 2348 L
3487 2455 L
3487 2318 L
3487 2450 L
3487 2360 L
3488 2604 L
3488 2456 L
3488 2135 L
3488 2563 L
3488 2487 L
3489 2231 L
3489 2459 L
3489 2255 L
3489 2445 L
3490 2576 L
3490 2453 L
3490 2424 L
3490 2425 L
3491 2457 L
3491 2474 L
3491 2498 L
3491 2445 L
3492 2528 L
3492 2480 L
3492 2403 L
3492 2488 L
3493 2386 L
3493 2407 L
3493 2474 L
3493 2298 L
3494 2365 L
3494 2515 L
3494 2445 L
3494 2244 L
3494 2307 L
3495 2329 L
3495 2594 L
3495 2521 L
3495 2386 L
3496 2130 L
3496 2462 L
3496 2525 L
3496 2335 L
3497 2476 L
3497 2182 L
3497 2429 L
3497 2370 L
3498 2483 L
3498 2645 L
3498 2408 L
3498 2460 L
3498 2580 L
3499 2411 L
3499 2511 L
3499 2255 L
3499 2668 L
3500 2318 L
3500 2337 L
3506 2468 L
3511 2421 L
3517 2558 L
3522 2440 L
3527 2534 L
3532 2335 L
3537 2748 L
3542 2395 L
3547 2554 L
3552 2480 L
3557 2468 L
3561 2637 L
3566 2264 L
3570 2639 L
3575 2782 L
3579 2575 L
3583 2222 L
3587 2457 L
3591 2511 L
3595 2568 L
3599 2581 L
3603 2586 L
3607 2806 L
3611 2493 L
3614 2459 L
3618 2534 L
3622 2421 L
3625 2341 L
3629 2592 L
3632 2448 L
3636 2660 L
3639 2269 L
3642 2853 L
3646 2688 L
3649 2367 L
3652 2470 L
3655 2654 L
3658 2701 L
3661 2511 L
3664 2577 L
3667 2444 L
3670 2566 L
3673 2766 L
3676 2669 L
3679 2459 L
3682 2611 L
3685 2585 L
3688 2688 L
3690 2515 L
3693 2643 L
3696 2688 L
3698 2601 L
3701 2553 L
3704 2708 L
3706 2515 L
3709 2534 L
3711 2663 L
3714 2596 L
3716 2675 L
3719 2703 L
3721 2699 L
3724 2697 L
3726 2626 L
3728 2577 L
3731 2688 L
3733 2635 L
3735 2575 L
3738 2605 L
3740 2590 L
3742 2654 L
3744 2684 L
3747 2539 L
3749 2736 L
3751 2661 L
3753 2795 L
3755 2787 L
3757 2554 L
3760 2622 L
3762 2641 L
3764 2671 L
3766 2525 L
3768 2662 L
3770 2463 L
3772 2825 L
3774 2624 L
3776 2725 L
3778 2712 L
3780 2729 L
3781 2733 L
3783 2667 L
3785 2631 L
3787 2924 L
3789 2536 L
3791 2478 L
3793 2776 L
3795 2609 L
3796 2605 L
3798 2652 L
3800 2796 L
3802 2740 L
3803 2652 L
3805 2607 L
3807 2596 L
3809 2705 L
3810 2571 L
3812 2718 L
3814 2549 L
3816 2601 L
3817 2699 L
3819 2770 L
3820 2684 L
3822 2748 L
3824 2821 L
3825 2611 L
3827 2620 L
3829 2611 L
3830 2652 L
3832 2676 L
3833 2648 L
3835 2603 L
3836 2633 L
3838 2446 L
3839 2354 L
3841 2800 L
3842 2797 L
3844 2549 L
3845 2877 L
3847 2513 L
3848 2772 L
3850 2431 L
3851 2886 L
3853 2594 L
3854 2727 L
3856 2798 L
3857 2701 L
3859 2504 L
3860 2609 L
3861 2725 L
3863 2755 L
3864 2599 L
3866 2680 L
3867 2776 L
3868 2667 L
3870 2710 L
3871 2712 L
3872 2528 L
3874 2588 L
3875 2656 L
3876 2331 L
3878 2772 L
3879 2472 L
3880 2444 L
3882 2605 L
3883 2661 L
3884 2479 L
3885 2451 L
3887 2541 L
3888 2729 L
3889 2609 L
3890 2515 L
3892 2577 L
3893 2615 L
3894 2435 L
3895 2723 L
3897 2740 L
3898 2639 L
3899 2746 L
3900 2720 L
3901 2813 L
3903 2791 L
3904 2526 L
3905 2643 L
3906 2579 L
3907 2549 L
3908 2727 L
3910 2840 L
3911 2478 L
3912 2536 L
3913 2622 L
3914 2545 L
3915 2804 L
3917 2296 L
3918 2654 L
3919 2616 L
3920 2358 L
3921 2735 L
3922 2808 L
3923 2898 L
3924 2857 L
3925 2693 L
3926 2918 L
3928 2643 L
3929 2693 L
3930 2673 L
3931 2491 L
3932 2555 L
3933 2541 L
3934 2823 L
3935 2478 L
3936 2451 L
3937 2603 L
3938 2703 L
3939 2538 L
3940 2667 L
3941 2615 L
3942 2465 L
3943 2382 L
3944 2699 L
3945 2517 L
3946 2755 L
3947 2416 L
3948 2706 L
3949 2808 L
3950 2594 L
3951 2444 L
3952 2601 L
3953 2532 L
3954 2661 L
3955 2697 L
3956 2538 L
3957 2596 L
3958 2498 L
3959 2868 L
3960 2599 L
3961 2644 L
3962 2630 L
3963 2800 L
3964 2485 L
3965 2622 L
3966 2549 L
3966 2680 L
3967 2547 L
3968 2569 L
3969 2440 L
3970 2671 L
3971 2553 L
3972 2613 L
3973 2652 L
3974 2605 L
3975 2682 L
3976 2596 L
3976 2633 L
3977 2622 L
3978 2667 L
3979 2838 L
3980 2605 L
3981 2543 L
3982 2768 L
3983 2618 L
3983 2705 L
3984 2721 L
3985 2519 L
3986 2690 L
3987 2476 L
3988 2808 L
3989 2436 L
3989 2489 L
3990 2431 L
3991 2712 L
3992 2504 L
3993 2753 L
3994 2663 L
3995 2266 L
3995 2584 L
3996 2705 L
3997 2513 L
3998 2765 L
3999 2592 L
3999 2699 L
4000 2620 L
4001 2553 L
4002 2256 L
4003 2703 L
4003 2466 L
4004 2800 L
4005 2611 L
4006 2673 L
4007 2753 L
4007 2284 L
4008 2495 L
4009 2481 L
4010 2575 L
4011 2733 L
4011 2556 L
4012 2399 L
4013 2703 L
4014 2528 L
4014 2440 L
4015 2511 L
4016 2367 L
4017 2601 L
4017 2682 L
4018 2718 L
4019 2586 L
4020 2742 L
4021 2729 L
4021 2466 L
4022 2695 L
4023 2508 L
4023 2555 L
4024 2723 L
4025 2414 L
4026 2498 L
4026 2624 L
4027 2774 L
4028 2511 L
4029 2457 L
4029 2442 L
4030 2549 L
4031 2611 L
4032 2620 L
4032 2450 L
4033 2583 L
4034 2650 L
4034 2609 L
4035 2721 L
4036 2688 L
4036 2658 L
4037 2324 L
4038 2632 L
4039 2466 L
4039 2868 L
4040 2648 L
4041 2613 L
4041 2648 L
4042 2588 L
4043 2401 L
4043 2633 L
4044 2692 L
4045 2639 L
4045 2639 L
4046 2446 L
4047 2468 L
4047 2586 L
4048 2468 L
4049 2571 L
4050 2451 L
4050 2506 L
4051 2573 L
4052 2532 L
4052 2570 L
4053 2590 L
4053 2586 L
4054 2517 L
4055 2646 L
4055 2690 L
4056 2594 L
4057 2654 L
4057 2690 L
4058 2652 L
4059 2526 L
4059 2639 L
4060 2566 L
4061 2478 L
4061 2515 L
4062 2714 L
L2 C02 COSGR

%
%================
% Legend - Begin
%================
%
GSN 4240 5180 M
4480 5180 L
LWMC SL  C02 COSGR
GSN 4540 5141 M helvM (1.0 uM) show grestore
%
%================
% Legend - End
%================
%

%
% Residuals:
%
GSN 777 750 M
1388 1557 L
1552 1564 L
1652 1456 L
1723 1409 L
1778 1431 L
1824 1543 L
1863 1488 L
1896 1509 L
1926 1507 L
1952 1549 L
1976 1525 L
1998 1567 L
2019 1491 L
2037 1465 L
2055 1489 L
2071 1531 L
2086 1482 L
2101 1517 L
2115 1563 L
2128 1569 L
2140 1527 L
2152 1488 L
2163 1513 L
2174 1533 L
2184 1506 L
2194 1532 L
2204 1513 L
2213 1455 L
2222 1555 L
2230 1522 L
2239 1534 L
2247 1547 L
2255 1482 L
2262 1441 L
2270 1517 L
2277 1494 L
2284 1437 L
2290 1519 L
2297 1493 L
2303 1475 L
2310 1500 L
2316 1512 L
2322 1505 L
2328 1465 L
2333 1440 L
2339 1471 L
2344 1537 L
2350 1498 L
2355 1514 L
2360 1483 L
2365 1508 L
2370 1453 L
2375 1482 L
2380 1507 L
2384 1458 L
2389 1446 L
2393 1462 L
2398 1473 L
2402 1480 L
2407 1515 L
2411 1453 L
2415 1454 L
2419 1392 L
2423 1483 L
2427 1443 L
2431 1458 L
2435 1433 L
2438 1461 L
2442 1458 L
2446 1461 L
2449 1394 L
2453 1463 L
2456 1469 L
2460 1503 L
2463 1451 L
2467 1449 L
2470 1435 L
2473 1387 L
2476 1409 L
2480 1451 L
2483 1453 L
2486 1492 L
2489 1483 L
2492 1421 L
2495 1429 L
2498 1444 L
2501 1441 L
2504 1417 L
2507 1460 L
2510 1408 L
2512 1379 L
2515 1404 L
2518 1390 L
2521 1408 L
2523 1409 L
2526 1466 L
2529 1419 L
2531 1388 L
2534 1442 L
2536 1366 L
2539 1394 L
2541 1403 L
2544 1429 L
2546 1416 L
2549 1375 L
2551 1382 L
2554 1387 L
2556 1414 L
2558 1456 L
2561 1422 L
2563 1393 L
2565 1336 L
2568 1391 L
2570 1386 L
2572 1380 L
2574 1365 L
2576 1508 L
2579 1404 L
2581 1424 L
2583 1354 L
2585 1426 L
2587 1381 L
2589 1376 L
2591 1429 L
2593 1423 L
2595 1410 L
2597 1365 L
2599 1401 L
2601 1427 L
2603 1382 L
2605 1336 L
2607 1340 L
2609 1362 L
2611 1388 L
2613 1387 L
2615 1420 L
2617 1379 L
2618 1383 L
2620 1371 L
2622 1368 L
2624 1358 L
2626 1354 L
2627 1364 L
2629 1309 L
2631 1390 L
2633 1415 L
2634 1347 L
2636 1385 L
2638 1323 L
2640 1366 L
2641 1386 L
2643 1317 L
2645 1374 L
2646 1322 L
2648 1308 L
2650 1353 L
2651 1361 L
2653 1375 L
2654 1360 L
2656 1373 L
2658 1317 L
2659 1367 L
2661 1335 L
2662 1293 L
2664 1301 L
2665 1383 L
2667 1334 L
2668 1365 L
2670 1397 L
2671 1385 L
2673 1310 L
2674 1402 L
2676 1356 L
2677 1341 L
2679 1382 L
2680 1333 L
2682 1292 L
2683 1307 L
2685 1324 L
2686 1292 L
2687 1296 L
2689 1271 L
2690 1375 L
2692 1344 L
2693 1378 L
2694 1346 L
2696 1324 L
2697 1334 L
2698 1357 L
2700 1247 L
2701 1296 L
2702 1345 L
2704 1307 L
2705 1343 L
2706 1379 L
2708 1319 L
2709 1310 L
2710 1329 L
2712 1300 L
2713 1325 L
2714 1338 L
2715 1336 L
2717 1291 L
2718 1345 L
2719 1355 L
2720 1265 L
2722 1311 L
2723 1329 L
2724 1340 L
2725 1286 L
2726 1350 L
2728 1311 L
2729 1305 L
2730 1343 L
2731 1345 L
2732 1250 L
2734 1275 L
2735 1360 L
2736 1345 L
2737 1334 L
2738 1264 L
2739 1295 L
2741 1306 L
2742 1320 L
2743 1288 L
2744 1338 L
2745 1346 L
2746 1263 L
2747 1253 L
2748 1280 L
2749 1271 L
2751 1247 L
2752 1307 L
2753 1288 L
2754 1290 L
2755 1275 L
2756 1306 L
2757 1288 L
2758 1282 L
2759 1325 L
2760 1322 L
2761 1237 L
2762 1240 L
2763 1243 L
2764 1297 L
2765 1293 L
2767 1323 L
2768 1267 L
2769 1306 L
2770 1285 L
2771 1295 L
2772 1345 L
2773 1188 L
2774 1267 L
2775 1318 L
2776 1283 L
2777 1214 L
2778 1241 L
2779 1294 L
2780 1274 L
2781 1237 L
2782 1303 L
2783 1255 L
2783 1260 L
2784 1268 L
2785 1290 L
2786 1254 L
2787 1307 L
2788 1314 L
2789 1271 L
2790 1277 L
2791 1274 L
2792 1253 L
2793 1251 L
2794 1276 L
2795 1282 L
2796 1267 L
2797 1241 L
2798 1295 L
2798 1247 L
2799 1242 L
2800 1203 L
2801 1276 L
2802 1278 L
2803 1296 L
2804 1208 L
2805 1253 L
2806 1332 L
2807 1253 L
2807 1275 L
2808 1189 L
2809 1181 L
2810 1191 L
2811 1249 L
2812 1231 L
2813 1238 L
2813 1243 L
2814 1287 L
2815 1223 L
2816 1225 L
2817 1231 L
2818 1271 L
2819 1185 L
2819 1235 L
2820 1307 L
2821 1247 L
2822 1191 L
2823 1249 L
2824 1263 L
2824 1203 L
2825 1227 L
2826 1209 L
2827 1229 L
2828 1202 L
2828 1285 L
2829 1247 L
2830 1179 L
2831 1214 L
2832 1224 L
2832 1204 L
2833 1185 L
2834 1215 L
2835 1197 L
2836 1202 L
2836 1263 L
2837 1267 L
2838 1224 L
2839 1181 L
2840 1240 L
2840 1169 L
2841 1203 L
2842 1270 L
2843 1181 L
2843 1280 L
2844 1221 L
2845 1287 L
2846 1282 L
2846 1190 L
2847 1210 L
2848 1159 L
2849 1212 L
2849 1229 L
2850 1294 L
2851 1150 L
2852 1219 L
2852 1200 L
2853 1188 L
2854 1194 L
2855 1164 L
2855 1224 L
2856 1140 L
2857 1275 L
2857 1179 L
2858 1223 L
2859 1186 L
2860 1202 L
2860 1238 L
2861 1288 L
2862 1187 L
2862 1179 L
2863 1285 L
2864 1191 L
2865 1206 L
2865 1213 L
2866 1232 L
2867 1203 L
2867 1207 L
2868 1200 L
2869 1216 L
2869 1142 L
2870 1212 L
2871 1206 L
2871 1157 L
2872 1209 L
2873 1135 L
2873 1150 L
2874 1225 L
2875 1180 L
2876 1188 L
2876 1229 L
2877 1167 L
2878 1198 L
2878 1169 L
2879 1225 L
2880 1142 L
2880 1167 L
2881 1230 L
2881 1133 L
2882 1218 L
2883 1142 L
2883 1159 L
2884 1195 L
2885 1181 L
2885 1238 L
2886 1175 L
2887 1179 L
2887 1156 L
2888 1136 L
2889 1206 L
2889 1230 L
2892 1148 L
2894 1176 L
2897 1170 L
2899 1163 L
2902 1117 L
2904 1148 L
2907 1236 L
2909 1144 L
2911 1162 L
2914 1109 L
2916 1175 L
2918 1148 L
2921 1135 L
2923 1110 L
2925 1146 L
2927 1172 L
2929 1186 L
2932 1116 L
2934 1132 L
2936 1139 L
2938 1085 L
2940 1142 L
2942 1163 L
2944 1084 L
2946 1123 L
2948 1173 L
2950 1087 L
2952 1082 L
2954 1134 L
2956 1144 L
2958 1067 L
2960 1068 L
2962 1157 L
2964 1075 L
2966 1123 L
2968 1083 L
2970 1094 L
2971 1122 L
2973 1041 L
2975 1068 L
2977 1146 L
2979 1055 L
2980 1094 L
2982 1086 L
2984 1049 L
2986 1120 L
2987 1065 L
2989 1051 L
2991 1042 L
2993 1026 L
2994 1084 L
2996 1042 L
2998 997 L
2999 1083 L
3001 1054 L
3003 1025 L
3004 980 L
3006 1118 L
3007 1102 L
3009 1063 L
3011 1093 L
3012 1085 L
3014 1009 L
3015 1070 L
3017 1071 L
3018 1033 L
3020 1087 L
3021 1033 L
3023 1094 L
3024 980 L
3026 1069 L
3027 1068 L
3029 995 L
3030 984 L
3032 1004 L
3033 1045 L
3035 1043 L
3036 1022 L
3038 1100 L
3039 1067 L
3040 1057 L
3042 1014 L
3043 1036 L
3045 1028 L
3046 1039 L
3047 1039 L
3049 1053 L
3050 1016 L
3051 1052 L
3053 963 L
3054 1000 L
3055 1076 L
3057 972 L
3058 1037 L
3059 1074 L
3061 1028 L
3062 1030 L
3063 987 L
3065 950 L
3066 1051 L
3067 1000 L
3068 1011 L
3070 975 L
3071 1025 L
3072 1021 L
3073 985 L
3075 998 L
3076 1006 L
3077 1026 L
3078 1024 L
3079 985 L
3081 1002 L
3082 946 L
3083 992 L
3084 1002 L
3085 978 L
3087 978 L
3088 1001 L
3089 989 L
3090 1013 L
3091 963 L
3092 963 L
3094 988 L
3095 959 L
3096 966 L
3097 1007 L
3098 953 L
3099 1066 L
3100 934 L
3101 913 L
3103 1048 L
3104 917 L
3105 975 L
3106 995 L
3107 958 L
3108 982 L
3109 988 L
3110 1026 L
3111 966 L
3112 937 L
3113 957 L
3114 1006 L
3115 995 L
3116 968 L
3117 995 L
3119 933 L
3120 951 L
3121 986 L
3122 962 L
3123 991 L
3124 964 L
3125 1003 L
3126 969 L
3127 912 L
3128 998 L
3129 927 L
3130 925 L
3131 1022 L
3132 886 L
3133 977 L
3134 962 L
3135 907 L
3136 962 L
3136 956 L
3137 931 L
3138 932 L
3139 955 L
3140 966 L
3141 891 L
3142 928 L
3143 911 L
3144 966 L
3145 1000 L
3146 973 L
3147 988 L
3148 917 L
3149 891 L
3150 957 L
3151 942 L
3151 897 L
3152 914 L
3153 901 L
3154 950 L
3155 879 L
3156 958 L
3157 994 L
3158 970 L
3159 924 L
3160 943 L
3160 863 L
3161 919 L
3162 909 L
3163 944 L
3164 935 L
3165 972 L
3166 925 L
3166 904 L
3167 956 L
3168 949 L
3169 893 L
3170 944 L
3171 934 L
3172 983 L
3172 920 L
3173 899 L
3174 895 L
3175 890 L
3176 927 L
3177 945 L
3177 918 L
3178 933 L
3179 917 L
3180 915 L
3181 941 L
3181 982 L
3182 951 L
3183 867 L
3184 963 L
3185 942 L
3185 926 L
3186 975 L
3187 884 L
3188 941 L
3189 936 L
3189 997 L
3190 957 L
3191 914 L
3192 878 L
3193 925 L
3193 984 L
3194 888 L
3195 916 L
3196 926 L
3196 890 L
3197 864 L
3198 950 L
3199 870 L
3199 857 L
3200 953 L
3201 931 L
3202 895 L
3202 921 L
3203 925 L
3204 925 L
3205 867 L
3205 979 L
3206 909 L
3207 898 L
3208 888 L
3208 939 L
3209 921 L
3210 897 L
3210 940 L
3211 883 L
3212 915 L
3213 919 L
3213 924 L
3214 929 L
3215 947 L
3215 885 L
3216 897 L
3217 925 L
3218 906 L
3218 846 L
3219 817 L
3220 948 L
3220 910 L
3221 903 L
3222 899 L
3222 943 L
3223 877 L
3224 954 L
3224 873 L
3225 919 L
3226 878 L
3227 877 L
3227 877 L
3228 879 L
3229 923 L
3229 895 L
3230 864 L
3231 912 L
3231 920 L
3232 892 L
3233 941 L
3233 895 L
3234 881 L
3235 955 L
3235 874 L
3236 965 L
3236 922 L
3237 893 L
3238 916 L
3238 883 L
3239 903 L
3240 935 L
3240 894 L
3241 908 L
3242 898 L
3242 905 L
3243 900 L
3244 881 L
3244 894 L
3245 920 L
3245 853 L
3246 887 L
3247 863 L
3247 829 L
3248 919 L
3249 862 L
3249 923 L
3250 928 L
3250 869 L
3251 891 L
3252 855 L
3252 938 L
3253 860 L
3253 949 L
3254 914 L
3255 899 L
3255 894 L
3256 928 L
3257 906 L
3257 930 L
3258 909 L
3258 909 L
3259 886 L
3259 852 L
3260 882 L
3261 936 L
3261 920 L
3262 888 L
3262 869 L
3263 913 L
3264 887 L
3264 908 L
3265 935 L
3265 928 L
3266 901 L
3267 941 L
3267 893 L
3268 915 L
3268 914 L
3269 930 L
3269 904 L
3270 924 L
3271 891 L
3271 922 L
3272 864 L
3272 890 L
3273 865 L
3273 958 L
3274 968 L
3275 950 L
3275 890 L
3276 936 L
3276 918 L
3277 926 L
3277 885 L
3278 870 L
3278 895 L
3279 878 L
3280 952 L
3280 882 L
3281 844 L
3281 950 L
3282 960 L
3282 917 L
3283 904 L
3283 871 L
3284 881 L
3284 839 L
3285 895 L
3285 824 L
3286 879 L
3287 909 L
3287 869 L
3288 942 L
3288 888 L
3289 867 L
3289 796 L
3290 922 L
3290 916 L
3291 862 L
3291 855 L
3292 919 L
3292 928 L
3293 874 L
3293 883 L
3294 889 L
3294 885 L
3295 883 L
3295 864 L
3296 933 L
3297 881 L
3297 908 L
3298 883 L
3298 936 L
3299 897 L
3299 895 L
3300 872 L
3300 908 L
3301 905 L
3301 907 L
3302 932 L
3302 881 L
3303 897 L
3303 1000 L
3304 930 L
3304 944 L
3305 954 L
3305 912 L
3306 869 L
3306 885 L
3307 952 L
3307 949 L
3308 947 L
3308 879 L
3309 924 L
3309 888 L
3310 904 L
3310 903 L
3311 936 L
3311 921 L
3312 935 L
3312 893 L
3312 923 L
3313 894 L
3313 937 L
3314 988 L
3314 911 L
3315 899 L
3315 902 L
3316 939 L
3316 901 L
3317 923 L
3317 929 L
3318 828 L
3318 898 L
3319 913 L
3319 891 L
3320 928 L
3320 915 L
3321 929 L
3321 894 L
3321 940 L
3322 910 L
3322 930 L
3323 908 L
3323 964 L
3324 914 L
3324 921 L
3325 903 L
3325 908 L
3326 880 L
3326 875 L
3327 929 L
3327 995 L
3327 898 L
3328 890 L
3328 853 L
3329 904 L
3329 954 L
3330 963 L
3330 932 L
3331 946 L
3331 913 L
3332 916 L
3332 926 L
3332 936 L
3333 872 L
3333 940 L
3334 939 L
3334 953 L
3335 917 L
3335 937 L
3336 939 L
3336 952 L
3336 960 L
3337 872 L
3337 929 L
3338 906 L
3338 955 L
3339 920 L
3339 937 L
3339 895 L
3340 815 L
3340 876 L
3341 932 L
3341 944 L
3342 915 L
3342 965 L
3343 967 L
3343 911 L
3343 907 L
3344 905 L
3344 1032 L
3345 909 L
3345 941 L
3346 886 L
3346 922 L
3346 866 L
3347 957 L
3347 866 L
3348 938 L
3348 881 L
3348 921 L
3349 971 L
3349 910 L
3350 933 L
3350 945 L
3351 922 L
3351 917 L
3351 862 L
3352 922 L
3352 961 L
3353 953 L
3353 948 L
3353 904 L
3354 861 L
3354 881 L
3355 864 L
3355 891 L
3355 1036 L
3356 938 L
3356 925 L
3357 909 L
3357 933 L
3358 1001 L
3358 900 L
3358 970 L
3359 875 L
3359 927 L
3360 874 L
3360 917 L
3360 896 L
3361 919 L
3361 940 L
3362 918 L
3362 879 L
3362 958 L
3363 893 L
3363 961 L
3364 943 L
3364 1013 L
3364 828 L
3365 913 L
3365 934 L
3365 945 L
3366 957 L
3366 859 L
3367 950 L
3367 975 L
3367 956 L
3368 876 L
3368 864 L
3369 895 L
3369 908 L
3369 936 L
3370 992 L
3370 970 L
3371 974 L
3371 931 L
3371 860 L
3372 882 L
3372 878 L
3372 897 L
3373 906 L
3373 907 L
3374 939 L
3374 898 L
3374 940 L
3375 913 L
3375 924 L
3375 986 L
3376 895 L
3376 894 L
3377 920 L
3377 920 L
3377 941 L
3378 898 L
3378 905 L
3378 969 L
3379 886 L
3379 956 L
3380 907 L
3380 980 L
3380 956 L
3381 988 L
3381 963 L
3381 892 L
3382 875 L
3382 931 L
3383 945 L
3383 984 L
3383 924 L
3384 939 L
3384 908 L
3384 910 L
3385 958 L
3385 927 L
3385 882 L
3386 862 L
3386 885 L
3387 986 L
3387 901 L
3387 956 L
3388 938 L
3388 964 L
3388 858 L
3389 917 L
3389 870 L
3389 966 L
3390 971 L
3390 896 L
3391 924 L
3391 909 L
3391 967 L
3392 914 L
3392 950 L
3392 948 L
3393 897 L
3393 939 L
3393 917 L
3394 925 L
3394 991 L
3394 909 L
3395 877 L
3395 954 L
3395 929 L
3396 951 L
3396 932 L
3396 912 L
3397 966 L
3397 915 L
3398 994 L
3398 907 L
3398 958 L
3399 931 L
3399 941 L
3399 977 L
3400 960 L
3400 969 L
3400 955 L
3401 918 L
3401 952 L
3401 893 L
3402 926 L
3402 936 L
3402 931 L
3403 899 L
3403 976 L
3403 895 L
3404 945 L
3404 940 L
3404 941 L
3405 1000 L
3405 925 L
3405 911 L
3406 982 L
3406 919 L
3406 919 L
3407 949 L
3407 964 L
3407 962 L
3408 1012 L
3408 951 L
3408 979 L
3409 922 L
3409 946 L
3409 902 L
3410 967 L
3410 925 L
3410 926 L
3411 973 L
3411 932 L
3411 982 L
3412 936 L
3412 982 L
3412 920 L
3413 986 L
3413 920 L
3413 925 L
3414 946 L
3414 940 L
3414 919 L
3415 984 L
3415 947 L
3415 964 L
3416 909 L
3416 943 L
3416 932 L
3417 962 L
3417 904 L
3417 932 L
3417 970 L
3418 934 L
3418 942 L
3418 972 L
3419 927 L
3419 945 L
3419 1003 L
3420 937 L
3420 951 L
3420 986 L
3421 975 L
3421 984 L
3421 936 L
3422 935 L
3422 951 L
3422 923 L
3423 950 L
3423 941 L
3423 930 L
3423 931 L
3424 973 L
3424 922 L
3424 927 L
3425 980 L
3425 932 L
3425 982 L
3426 986 L
3426 973 L
3426 923 L
3427 976 L
3427 939 L
3427 935 L
3428 1006 L
3428 940 L
3428 1028 L
3428 1031 L
3429 890 L
3429 965 L
3429 966 L
3430 945 L
3430 942 L
3430 942 L
3431 951 L
3431 947 L
3431 981 L
3431 984 L
3432 961 L
3432 929 L
3432 914 L
3433 896 L
3433 992 L
3433 982 L
3434 973 L
3434 989 L
3434 938 L
3434 907 L
3435 969 L
3435 905 L
3435 1013 L
3436 946 L
3436 991 L
3436 933 L
3437 947 L
3437 955 L
3437 951 L
3437 963 L
3438 959 L
3438 909 L
3438 955 L
3439 936 L
3439 990 L
3439 954 L
3440 998 L
3440 996 L
3440 977 L
3440 941 L
3441 919 L
3441 952 L
3441 963 L
3442 992 L
3442 1003 L
3442 926 L
3442 954 L
3443 962 L
3443 957 L
3443 966 L
3444 941 L
3444 988 L
3444 1013 L
3444 1004 L
3445 985 L
3445 954 L
3445 940 L
3446 993 L
3446 928 L
3446 959 L
3446 939 L
3447 979 L
3447 962 L
3447 870 L
3448 980 L
3448 980 L
3448 963 L
3448 913 L
3449 984 L
3449 978 L
3449 956 L
3450 982 L
3450 942 L
3450 913 L
3450 957 L
3451 947 L
3451 930 L
3451 963 L
3452 1007 L
3452 958 L
3452 989 L
3452 965 L
3453 950 L
3453 1013 L
3453 974 L
3454 978 L
3454 933 L
3454 943 L
3454 968 L
3455 955 L
3455 1013 L
3455 1004 L
3455 995 L
3456 861 L
3456 992 L
3456 989 L
3457 987 L
3457 1016 L
3457 962 L
3457 969 L
3458 943 L
3458 1007 L
3458 974 L
3458 1017 L
3459 976 L
3459 969 L
3459 1033 L
3460 978 L
3460 973 L
3460 987 L
3460 1005 L
3461 943 L
3461 948 L
3461 925 L
3461 974 L
3462 974 L
3462 917 L
3462 971 L
3463 981 L
3463 996 L
3463 1004 L
3463 1015 L
3464 894 L
3464 993 L
3464 992 L
3464 944 L
3465 1007 L
3465 958 L
3465 1022 L
3465 900 L
3466 982 L
3466 962 L
3466 1019 L
3466 958 L
3467 973 L
3467 983 L
3467 993 L
3468 983 L
3468 960 L
3468 986 L
3468 1036 L
3469 1042 L
3469 970 L
3469 981 L
3469 937 L
3470 968 L
3470 968 L
3470 939 L
3470 996 L
3471 1006 L
3471 1026 L
3471 1035 L
3471 897 L
3472 973 L
3472 1042 L
3472 935 L
3472 956 L
3473 949 L
3473 983 L
3473 962 L
3474 962 L
3474 953 L
3474 995 L
3474 974 L
3475 926 L
3475 987 L
3475 895 L
3475 920 L
3476 981 L
3476 962 L
3476 989 L
3476 933 L
3477 942 L
3477 939 L
3477 1016 L
3477 962 L
3478 985 L
3478 1024 L
3478 961 L
3478 982 L
3479 939 L
3479 1006 L
3479 1015 L
3479 1003 L
3480 923 L
3480 938 L
3480 952 L
3480 976 L
3481 975 L
3481 948 L
3481 980 L
3481 946 L
3482 963 L
3482 950 L
3482 995 L
3482 1016 L
3483 984 L
3483 967 L
3483 976 L
3483 982 L
3484 1035 L
3484 961 L
3484 995 L
3484 964 L
3485 961 L
3485 995 L
3485 938 L
3485 1031 L
3486 958 L
3486 1055 L
3486 1034 L
3486 955 L
3487 989 L
3487 946 L
3487 987 L
3487 959 L
3488 1035 L
3488 989 L
3488 889 L
3488 1023 L
3488 999 L
3489 919 L
3489 990 L
3489 926 L
3489 986 L
3490 1026 L
3490 988 L
3490 979 L
3490 980 L
3491 990 L
3491 995 L
3491 1002 L
3491 986 L
3492 1012 L
3492 997 L
3492 972 L
3492 999 L
3493 967 L
3493 974 L
3493 995 L
3493 940 L
3494 961 L
3494 1008 L
3494 986 L
3494 923 L
3494 943 L
3495 950 L
3495 1032 L
3495 1009 L
3495 967 L
3496 887 L
3496 991 L
3496 1011 L
3496 951 L
3497 995 L
3497 904 L
3497 981 L
3497 962 L
3498 997 L
3498 1048 L
3498 974 L
3498 990 L
3498 1028 L
3499 975 L
3499 1006 L
3499 926 L
3499 1055 L
3500 946 L
3500 952 L
3506 993 L
3511 978 L
3517 1021 L
3522 984 L
3527 1013 L
3532 951 L
3537 1080 L
3542 969 L
3547 1019 L
3552 996 L
3557 992 L
3561 1045 L
3566 928 L
3570 1045 L
3575 1089 L
3579 1025 L
3583 915 L
3587 988 L
3591 1005 L
3595 1022 L
3599 1026 L
3603 1028 L
3607 1097 L
3611 999 L
3614 988 L
3618 1011 L
3622 976 L
3625 951 L
3629 1029 L
3632 984 L
3636 1050 L
3639 929 L
3642 1110 L
3646 1059 L
3649 959 L
3652 991 L
3655 1048 L
3658 1063 L
3661 1004 L
3664 1024 L
3667 982 L
3670 1020 L
3673 1083 L
3676 1052 L
3679 987 L
3682 1034 L
3685 1026 L
3688 1058 L
3690 1004 L
3693 1044 L
3696 1058 L
3698 1031 L
3701 1015 L
3704 1064 L
3706 1004 L
3709 1009 L
3711 1050 L
3714 1028 L
3716 1053 L
3719 1062 L
3721 1060 L
3724 1060 L
3726 1037 L
3728 1022 L
3731 1057 L
3733 1040 L
3735 1021 L
3738 1031 L
3740 1026 L
3742 1046 L
3744 1055 L
3747 1010 L
3749 1071 L
3751 1048 L
3753 1089 L
3755 1087 L
3757 1014 L
3760 1035 L
3762 1041 L
3764 1050 L
3766 1005 L
3768 1047 L
3770 985 L
3772 1098 L
3774 1035 L
3776 1067 L
3778 1063 L
3780 1068 L
3781 1069 L
3783 1048 L
3785 1037 L
3787 1128 L
3789 1007 L
3791 989 L
3793 1082 L
3795 1030 L
3796 1029 L
3798 1043 L
3800 1088 L
3802 1071 L
3803 1043 L
3805 1029 L
3807 1025 L
3809 1059 L
3810 1018 L
3812 1063 L
3814 1010 L
3816 1027 L
3817 1057 L
3819 1079 L
3820 1052 L
3822 1072 L
3824 1095 L
3825 1029 L
3827 1032 L
3829 1029 L
3830 1042 L
3832 1049 L
3833 1041 L
3835 1026 L
3836 1036 L
3838 977 L
3839 948 L
3841 1088 L
3842 1086 L
3844 1009 L
3845 1111 L
3847 998 L
3848 1078 L
3850 972 L
3851 1114 L
3853 1023 L
3854 1064 L
3856 1086 L
3857 1056 L
3859 994 L
3860 1027 L
3861 1063 L
3863 1072 L
3864 1024 L
3866 1049 L
3867 1079 L
3868 1045 L
3870 1058 L
3871 1059 L
3872 1001 L
3874 1020 L
3875 1041 L
3876 940 L
3878 1077 L
3879 983 L
3880 974 L
3882 1025 L
3883 1042 L
3884 985 L
3885 976 L
3887 1004 L
3888 1063 L
3889 1025 L
3890 996 L
3892 1015 L
3893 1027 L
3894 971 L
3895 1061 L
3897 1066 L
3898 1034 L
3899 1068 L
3900 1059 L
3901 1088 L
3903 1081 L
3904 999 L
3905 1035 L
3906 1015 L
3907 1006 L
3908 1061 L
3910 1096 L
3911 983 L
3912 1001 L
3913 1028 L
3914 1004 L
3915 1085 L
3917 926 L
3918 1038 L
3919 1026 L
3920 945 L
3921 1063 L
3922 1085 L
3923 1113 L
3924 1100 L
3925 1050 L
3926 1120 L
3928 1034 L
3929 1049 L
3930 1043 L
3931 986 L
3932 1006 L
3933 1002 L
3934 1089 L
3935 982 L
3936 973 L
3937 1021 L
3938 1052 L
3939 1000 L
3940 1040 L
3941 1024 L
3942 977 L
3943 951 L
3944 1050 L
3945 993 L
3946 1067 L
3947 961 L
3948 1052 L
3949 1084 L
3950 1017 L
3951 970 L
3952 1019 L
3953 997 L
3954 1038 L
3955 1049 L
3956 999 L
3957 1017 L
3958 986 L
3959 1102 L
3960 1018 L
3961 1032 L
3962 1027 L
3963 1080 L
3964 982 L
3965 1025 L
3966 1002 L
3966 1042 L
3967 1001 L
3968 1008 L
3969 967 L
3970 1039 L
3971 1002 L
3972 1021 L
3973 1033 L
3974 1019 L
3975 1042 L
3976 1015 L
3976 1027 L
3977 1024 L
3978 1038 L
3979 1091 L
3980 1018 L
3981 999 L
3982 1069 L
3983 1022 L
3983 1049 L
3984 1054 L
3985 991 L
3986 1044 L
3987 977 L
3988 1081 L
3989 965 L
3989 981 L
3990 963 L
3991 1050 L
3992 985 L
3993 1063 L
3994 1035 L
3995 911 L
3995 1010 L
3996 1048 L
3997 988 L
3998 1066 L
3999 1012 L
3999 1046 L
4000 1021 L
4001 1000 L
4002 907 L
4003 1047 L
4003 973 L
4004 1077 L
4005 1018 L
4006 1037 L
4007 1062 L
4007 916 L
4008 981 L
4009 977 L
4010 1006 L
4011 1055 L
4011 1000 L
4012 951 L
4013 1046 L
4014 991 L
4014 964 L
4015 986 L
4016 941 L
4017 1014 L
4017 1039 L
4018 1050 L
4019 1009 L
4020 1057 L
4021 1053 L
4021 971 L
4022 1042 L
4023 984 L
4023 998 L
4024 1051 L
4025 954 L
4026 981 L
4026 1020 L
4027 1066 L
4028 984 L
4029 967 L
4029 963 L
4030 996 L
4031 1015 L
4032 1018 L
4032 965 L
4033 1006 L
4034 1027 L
4034 1014 L
4035 1049 L
4036 1039 L
4036 1029 L
4037 925 L
4038 1021 L
4039 969 L
4039 1095 L
4040 1026 L
4041 1015 L
4041 1026 L
4042 1007 L
4043 948 L
4043 1021 L
4044 1039 L
4045 1023 L
4045 1022 L
4046 962 L
4047 969 L
4047 1006 L
4048 969 L
4049 1001 L
4050 964 L
4050 980 L
4051 1001 L
4052 988 L
4052 1000 L
4053 1007 L
4053 1005 L
4054 984 L
4055 1024 L
4055 1037 L
4056 1007 L
4057 1026 L
4057 1037 L
4058 1025 L
4059 986 L
4059 1021 L
4060 998 L
4061 971 L
4061 982 L
4062 1044 L
L2 C02 COSGR

%
% Main frame
%
L10
GSN 
620 1700 M
4220 1700 L
4220 5300 L
620 5300 L
closepath SGR

%
% X axis: large tics
%
L10
GSN 1130 1700 M 0  54 rL SGR
GSN 1130 5300 M 0 -54 rL SGR
helvS (0.0001) 1130 470 xlabel
GSN 1716 1700 M 0  54 rL SGR
GSN 1716 5300 M 0 -54 rL SGR
helvS (0.001) 1716 470 xlabel
GSN 2303 1700 M 0  54 rL SGR
GSN 2303 5300 M 0 -54 rL SGR
helvS (0.01) 2303 470 xlabel
GSN 2889 1700 M 0  54 rL SGR
GSN 2889 5300 M 0 -54 rL SGR
helvS (0.1) 2889 470 xlabel
GSN 3476 1700 M 0  54 rL SGR
GSN 3476 5300 M 0 -54 rL SGR
helvS (1) 3476 470 xlabel
GSN 4062 1700 M 0  54 rL SGR
GSN 4062 5300 M 0 -54 rL SGR
helvS (10) 4062 470 xlabel
%
% X axis: small tics
%
L5
GSN 720 1700 M 0  36 rL SGR
GSN 720 5300 M 0 -36 rL SGR
GSN 824 1700 M 0  36 rL SGR
GSN 824 5300 M 0 -36 rL SGR
GSN 897 1700 M 0  36 rL SGR
GSN 897 5300 M 0 -36 rL SGR
GSN 954 1700 M 0  36 rL SGR
GSN 954 5300 M 0 -36 rL SGR
GSN 1000 1700 M 0  36 rL SGR
GSN 1000 5300 M 0 -36 rL SGR
GSN 1039 1700 M 0  36 rL SGR
GSN 1039 5300 M 0 -36 rL SGR
GSN 1073 1700 M 0  36 rL SGR
GSN 1073 5300 M 0 -36 rL SGR
GSN 1103 1700 M 0  36 rL SGR
GSN 1103 5300 M 0 -36 rL SGR
GSN 1307 1700 M 0  36 rL SGR
GSN 1307 5300 M 0 -36 rL SGR
GSN 1410 1700 M 0  36 rL SGR
GSN 1410 5300 M 0 -36 rL SGR
GSN 1483 1700 M 0  36 rL SGR
GSN 1483 5300 M 0 -36 rL SGR
GSN 1540 1700 M 0  36 rL SGR
GSN 1540 5300 M 0 -36 rL SGR
GSN 1586 1700 M 0  36 rL SGR
GSN 1586 5300 M 0 -36 rL SGR
GSN 1626 1700 M 0  36 rL SGR
GSN 1626 5300 M 0 -36 rL SGR
GSN 1660 1700 M 0  36 rL SGR
GSN 1660 5300 M 0 -36 rL SGR
GSN 1690 1700 M 0  36 rL SGR
GSN 1690 5300 M 0 -36 rL SGR
GSN 1893 1700 M 0  36 rL SGR
GSN 1893 5300 M 0 -36 rL SGR
GSN 1996 1700 M 0  36 rL SGR
GSN 1996 5300 M 0 -36 rL SGR
GSN 2069 1700 M 0  36 rL SGR
GSN 2069 5300 M 0 -36 rL SGR
GSN 2126 1700 M 0  36 rL SGR
GSN 2126 5300 M 0 -36 rL SGR
GSN 2173 1700 M 0  36 rL SGR
GSN 2173 5300 M 0 -36 rL SGR
GSN 2212 1700 M 0  36 rL SGR
GSN 2212 5300 M 0 -36 rL SGR
GSN 2246 1700 M 0  36 rL SGR
GSN 2246 5300 M 0 -36 rL SGR
GSN 2276 1700 M 0  36 rL SGR
GSN 2276 5300 M 0 -36 rL SGR
GSN 2479 1700 M 0  36 rL SGR
GSN 2479 5300 M 0 -36 rL SGR
GSN 2583 1700 M 0  36 rL SGR
GSN 2583 5300 M 0 -36 rL SGR
GSN 2656 1700 M 0  36 rL SGR
GSN 2656 5300 M 0 -36 rL SGR
GSN 2713 1700 M 0  36 rL SGR
GSN 2713 5300 M 0 -36 rL SGR
GSN 2759 1700 M 0  36 rL SGR
GSN 2759 5300 M 0 -36 rL SGR
GSN 2798 1700 M 0  36 rL SGR
GSN 2798 5300 M 0 -36 rL SGR
GSN 2832 1700 M 0  36 rL SGR
GSN 2832 5300 M 0 -36 rL SGR
GSN 2862 1700 M 0  36 rL SGR
GSN 2862 5300 M 0 -36 rL SGR
GSN 3066 1700 M 0  36 rL SGR
GSN 3066 5300 M 0 -36 rL SGR
GSN 3169 1700 M 0  36 rL SGR
GSN 3169 5300 M 0 -36 rL SGR
GSN 3242 1700 M 0  36 rL SGR
GSN 3242 5300 M 0 -36 rL SGR
GSN 3299 1700 M 0  36 rL SGR
GSN 3299 5300 M 0 -36 rL SGR
GSN 3345 1700 M 0  36 rL SGR
GSN 3345 5300 M 0 -36 rL SGR
GSN 3385 1700 M 0  36 rL SGR
GSN 3385 5300 M 0 -36 rL SGR
GSN 3419 1700 M 0  36 rL SGR
GSN 3419 5300 M 0 -36 rL SGR
GSN 3449 1700 M 0  36 rL SGR
GSN 3449 5300 M 0 -36 rL SGR
GSN 3652 1700 M 0  36 rL SGR
GSN 3652 5300 M 0 -36 rL SGR
GSN 3755 1700 M 0  36 rL SGR
GSN 3755 5300 M 0 -36 rL SGR
GSN 3829 1700 M 0  36 rL SGR
GSN 3829 5300 M 0 -36 rL SGR
GSN 3885 1700 M 0  36 rL SGR
GSN 3885 5300 M 0 -36 rL SGR
GSN 3932 1700 M 0  36 rL SGR
GSN 3932 5300 M 0 -36 rL SGR
GSN 3971 1700 M 0  36 rL SGR
GSN 3971 5300 M 0 -36 rL SGR
GSN 4005 1700 M 0  36 rL SGR
GSN 4005 5300 M 0 -36 rL SGR
GSN 4035 1700 M 0  36 rL SGR
GSN 4035 5300 M 0 -36 rL SGR
%
% Y axis: large tics
%
L10
GSN 620 1765 M 54 0 rL SGR
GSN 4220 1765 M -54 0 rL SGR
helvS (1.08) 560 1765 ylabel
GSN 620 2503 M 54 0 rL SGR
GSN 4220 2503 M -54 0 rL SGR
helvS (1.1) 560 2503 ylabel
GSN 620 3240 M 54 0 rL SGR
GSN 4220 3240 M -54 0 rL SGR
helvS (1.12) 560 3240 ylabel
GSN 620 3978 M 54 0 rL SGR
GSN 4220 3978 M -54 0 rL SGR
helvS (1.14) 560 3978 ylabel
GSN 620 4716 M 54 0 rL SGR
GSN 4220 4716 M -54 0 rL SGR
helvS (1.16) 560 4716 ylabel
%
% Y axis: small tics
%
L5
GSN 620 1765 M 36 0 rL SGR
GSN 4220 1765 M -36 0 rL SGR
GSN 620 1949 M 36 0 rL SGR
GSN 4220 1949 M -36 0 rL SGR
GSN 620 2134 M 36 0 rL SGR
GSN 4220 2134 M -36 0 rL SGR
GSN 620 2318 M 36 0 rL SGR
GSN 4220 2318 M -36 0 rL SGR
GSN 620 2503 M 36 0 rL SGR
GSN 4220 2503 M -36 0 rL SGR
GSN 620 2687 M 36 0 rL SGR
GSN 4220 2687 M -36 0 rL SGR
GSN 620 2871 M 36 0 rL SGR
GSN 4220 2871 M -36 0 rL SGR
GSN 620 3056 M 36 0 rL SGR
GSN 4220 3056 M -36 0 rL SGR
GSN 620 3240 M 36 0 rL SGR
GSN 4220 3240 M -36 0 rL SGR
GSN 620 3425 M 36 0 rL SGR
GSN 4220 3425 M -36 0 rL SGR
GSN 620 3609 M 36 0 rL SGR
GSN 4220 3609 M -36 0 rL SGR
GSN 620 3793 M 36 0 rL SGR
GSN 4220 3793 M -36 0 rL SGR
GSN 620 3978 M 36 0 rL SGR
GSN 4220 3978 M -36 0 rL SGR
GSN 620 4162 M 36 0 rL SGR
GSN 4220 4162 M -36 0 rL SGR
GSN 620 4347 M 36 0 rL SGR
GSN 4220 4347 M -36 0 rL SGR
GSN 620 4531 M 36 0 rL SGR
GSN 4220 4531 M -36 0 rL SGR
GSN 620 4716 M 36 0 rL SGR
GSN 4220 4716 M -36 0 rL SGR
GSN 620 4900 M 36 0 rL SGR
GSN 4220 4900 M -36 0 rL SGR
GSN 620 5084 M 36 0 rL SGR
GSN 4220 5084 M -36 0 rL SGR
GSN 620 5269 M 36 0 rL SGR
GSN 4220 5269 M -36 0 rL SGR

%
% X-Axis label:
%
gsave 2420 290 M 
[
[(Helvetica) 180 0 true true 0 (t)]
[(Helvetica) 180 0 true true 0 (i)]
[(Helvetica) 180 0 true true 0 (m)]
[(Helvetica) 180 0 true true 0 (e)]
] 0 MCshow grestore

%
% Y-Axis label:
%
gsave 234 3500 M 
currentpoint gsave translate 90 rotate 0 0 moveto
[
[(Helvetica) 180 0 true true 0 (s)]
[(Helvetica) 180 0 true true 0 (i)]
[(Helvetica) 180 0 true true 0 (g)]
[(Helvetica) 180 0 true true 0 (n)]
[(Helvetica) 180 0 true true 0 (a)]
[(Helvetica) 180 0 true true 0 (l)]
] 0 MCshow grestore

%
% Residuals:
%
gsave 129 1160 M 
currentpoint gsave translate 90 rotate 0 0 moveto
[
[(Helvetica) 150 0 true true 0 (r)]
[(Helvetica) 150 0 true true 0 (e)]
[(Helvetica) 150 0 true true 0 (s)]
[(Helvetica) 150 0 true true 0 (i)]
[(Helvetica) 150 0 true true 0 (d)]
[(Helvetica) 150 0 true true 0 (u)]
[(Helvetica) 150 0 true true 0 (a)]
[(Helvetica) 150 0 true true 0 (l)]
[(Helvetica) 150 0 true true 0 (s)]
] 0 MCshow grestore

%
% Residual frame
%
L10
GSN 
620 620 M
4220 620 L
4220 1700 L
620 1700 L
closepath SGR
%
% X axis: large tics - residual frame
%
L10
GSN 1130 620 M 0  54 rL SGR
GSN 1130 1700 M 0 -54 rL SGR
GSN 1716 620 M 0  54 rL SGR
GSN 1716 1700 M 0 -54 rL SGR
GSN 2303 620 M 0  54 rL SGR
GSN 2303 1700 M 0 -54 rL SGR
GSN 2889 620 M 0  54 rL SGR
GSN 2889 1700 M 0 -54 rL SGR
GSN 3476 620 M 0  54 rL SGR
GSN 3476 1700 M 0 -54 rL SGR
GSN 4062 620 M 0  54 rL SGR
GSN 4062 1700 M 0 -54 rL SGR
%
% X axis: small tics - residual frame
%
L5
GSN 720 620 M 0  36 rL SGR
GSN 720 1700 M 0 -36 rL SGR
GSN 824 620 M 0  36 rL SGR
GSN 824 1700 M 0 -36 rL SGR
GSN 897 620 M 0  36 rL SGR
GSN 897 1700 M 0 -36 rL SGR
GSN 954 620 M 0  36 rL SGR
GSN 954 1700 M 0 -36 rL SGR
GSN 1000 620 M 0  36 rL SGR
GSN 1000 1700 M 0 -36 rL SGR
GSN 1039 620 M 0  36 rL SGR
GSN 1039 1700 M 0 -36 rL SGR
GSN 1073 620 M 0  36 rL SGR
GSN 1073 1700 M 0 -36 rL SGR
GSN 1103 620 M 0  36 rL SGR
GSN 1103 1700 M 0 -36 rL SGR
GSN 1307 620 M 0  36 rL SGR
GSN 1307 1700 M 0 -36 rL SGR
GSN 1410 620 M 0  36 rL SGR
GSN 1410 1700 M 0 -36 rL SGR
GSN 1483 620 M 0  36 rL SGR
GSN 1483 1700 M 0 -36 rL SGR
GSN 1540 620 M 0  36 rL SGR
GSN 1540 1700 M 0 -36 rL SGR
GSN 1586 620 M 0  36 rL SGR
GSN 1586 1700 M 0 -36 rL SGR
GSN 1626 620 M 0  36 rL SGR
GSN 1626 1700 M 0 -36 rL SGR
GSN 1660 620 M 0  36 rL SGR
GSN 1660 1700 M 0 -36 rL SGR
GSN 1690 620 M 0  36 rL SGR
GSN 1690 1700 M 0 -36 rL SGR
GSN 1893 620 M 0  36 rL SGR
GSN 1893 1700 M 0 -36 rL SGR
GSN 1996 620 M 0  36 rL SGR
GSN 1996 1700 M 0 -36 rL SGR
GSN 2069 620 M 0  36 rL SGR
GSN 2069 1700 M 0 -36 rL SGR
GSN 2126 620 M 0  36 rL SGR
GSN 2126 1700 M 0 -36 rL SGR
GSN 2173 620 M 0  36 rL SGR
GSN 2173 1700 M 0 -36 rL SGR
GSN 2212 620 M 0  36 rL SGR
GSN 2212 1700 M 0 -36 rL SGR
GSN 2246 620 M 0  36 rL SGR
GSN 2246 1700 M 0 -36 rL SGR
GSN 2276 620 M 0  36 rL SGR
GSN 2276 1700 M 0 -36 rL SGR
GSN 2479 620 M 0  36 rL SGR
GSN 2479 1700 M 0 -36 rL SGR
GSN 2583 620 M 0  36 rL SGR
GSN 2583 1700 M 0 -36 rL SGR
GSN 2656 620 M 0  36 rL SGR
GSN 2656 1700 M 0 -36 rL SGR
GSN 2713 620 M 0  36 rL SGR
GSN 2713 1700 M 0 -36 rL SGR
GSN 2759 620 M 0  36 rL SGR
GSN 2759 1700 M 0 -36 rL SGR
GSN 2798 620 M 0  36 rL SGR
GSN 2798 1700 M 0 -36 rL SGR
GSN 2832 620 M 0  36 rL SGR
GSN 2832 1700 M 0 -36 rL SGR
GSN 2862 620 M 0  36 rL SGR
GSN 2862 1700 M 0 -36 rL SGR
GSN 3066 620 M 0  36 rL SGR
GSN 3066 1700 M 0 -36 rL SGR
GSN 3169 620 M 0  36 rL SGR
GSN 3169 1700 M 0 -36 rL SGR
GSN 3242 620 M 0  36 rL SGR
GSN 3242 1700 M 0 -36 rL SGR
GSN 3299 620 M 0  36 rL SGR
GSN 3299 1700 M 0 -36 rL SGR
GSN 3345 620 M 0  36 rL SGR
GSN 3345 1700 M 0 -36 rL SGR
GSN 3385 620 M 0  36 rL SGR
GSN 3385 1700 M 0 -36 rL SGR
GSN 3419 620 M 0  36 rL SGR
GSN 3419 1700 M 0 -36 rL SGR
GSN 3449 620 M 0  36 rL SGR
GSN 3449 1700 M 0 -36 rL SGR
GSN 3652 620 M 0  36 rL SGR
GSN 3652 1700 M 0 -36 rL SGR
GSN 3755 620 M 0  36 rL SGR
GSN 3755 1700 M 0 -36 rL SGR
GSN 3829 620 M 0  36 rL SGR
GSN 3829 1700 M 0 -36 rL SGR
GSN 3885 620 M 0  36 rL SGR
GSN 3885 1700 M 0 -36 rL SGR
GSN 3932 620 M 0  36 rL SGR
GSN 3932 1700 M 0 -36 rL SGR
GSN 3971 620 M 0  36 rL SGR
GSN 3971 1700 M 0 -36 rL SGR
GSN 4005 620 M 0  36 rL SGR
GSN 4005 1700 M 0 -36 rL SGR
GSN 4035 620 M 0  36 rL SGR
GSN 4035 1700 M 0 -36 rL SGR
%
% Y axis: large tics - residual frame
%
L10
GSN 620 824 M 54 0 rL SGR
GSN 4220 824 M -54 0 rL SGR
helvS (-0.02) 560 824 ylabelresid
GSN 620 1054 M 54 0 rL SGR
GSN 4220 1054 M -54 0 rL SGR
helvS (0) 560 1054 ylabelresid
GSN 620 1284 M 54 0 rL SGR
GSN 4220 1284 M -54 0 rL SGR
helvS (0.02) 560 1284 ylabelresid
GSN 620 1514 M 54 0 rL SGR
GSN 4220 1514 M -54 0 rL SGR
helvS (0.04) 560 1514 ylabelresid

%
% X axis - residual panel
%
GSN L5 620 1054 M 4220 1054 L SDA G50 SGR

end
showpage
%%Trailer
%%EOF
