%!PS-Adobe-3.0 EPSF-3.0
%%BoundingBox: 0 0 514 550
%%Creator: BioKin Ltd.
%%DocumentFonts: Symbol Helvetica
%%EndComments
%
/bkdict 256 dict def
bkdict begin
/M {moveto} def 
/R {rmoveto} def
/L {lineto} def
/rL {rlineto} def
/GSN {gsave newpath} def
/SGR {stroke grestore} def
/COSGR {gsave setrgbcolor stroke grestore grestore} def
/SL {setlinewidth} def
/LWMB {12} def             % line width - model curves, black & white
/LWMC {10} def             % line width - model curves, color
/L2 {2.5 setlinewidth} def
/L5 {5 setlinewidth} def
/L10 {10 setlinewidth} def
/G50 {0.5 setgray} def
/SDA {[10  20] 0 setdash} def % axes
/helvT {/Helvetica findfont 100 scalefont setfont} def % tiny
/helvS {/Helvetica findfont 125 scalefont setfont} def % small
/helvM {/Helvetica findfont 150 scalefont setfont} def % medium
/helvL {/Helvetica findfont 175 scalefont setfont} def % large
/xlabel {gsave M dup
   stringwidth exch -0.5 mul exch rmoveto show grestore} def 
/ylabel {gsave M 90 rotate dup
   stringwidth exch -0.5 mul exch rmoveto show grestore} def
/ylabelresid {gsave M dup
   stringwidth exch -1 mul exch rmoveto show grestore} def
% ======
% Shapes
% ======
% Circle:
/Circ {0 360 arc closepath} def
%
% Square:
/Squa {dup dup -0.5 mul dup dup R -2 mul 0 exch rL 1 mul 0 rL dup 0 exch -1 mul rL closepath} def
%
% Triangle Up:
/TriU {dup dup dup -0.4 mul exch -0.5 mul exch R dup 0.5 mul exch rL dup -1 mul exch 0.5 mul exch rL closepath} def 
%
% Triangle Down:
/TriD {dup dup dup 0.4 mul exch -0.5 mul exch R dup 0.5 mul exch -1 mul rL dup 0.5 mul exch rL closepath} def 
%
% Diamond:
/Diam {45 rotate Squa} def
% ======
% Fills
% ======
/GRF {gsave setgray fill grestore} def                    % gray-level Fill
/COF {gsave setrgbcolor fill grestore} def                % color fill
% ======
% Colors
% ======
/C01 {1.00	0.00	0.00} def      % Red
/C02 {0.00	0.00	1.00} def      % Blue
/C03 {0.00	0.39	0.00} def      % Dark Green
/C04 {0.78	0.08	0.52} def      % Medium Violet Red
/C05 {0.55	0.27	0.07} def      % Saddle Brown
/C06 {0.10	0.70	0.70} def      % (cyan)
/C07 {1.00	0.55	0.00} def      % Dark Orange
/C08 {0.63	0.13	0.94} def      % Purple
/C09 {0.00	0.75	1.00} def      % Deep Sky Blue
/C10 {0.20	0.80	0.20} def      % Lime Green
/C11 {0.47	0.53	0.60} def      % Light Slate Gray
/C12 {0.00	0.00	0.00} def      % Black            % or: {0.19	0.31	0.31} def      % Dark Slate Gray
%
/LGR {0.75} def % light gray
/DGR {0.33} def % dark gray
%
% =============
% Dash patterns
% =============
/dash01 { [80  20] 0 setdash } def
/dash02 { [40  20] 0 setdash } def
/dash03 { [80  20  10  20] 0 setdash } def
/dash04 { [40  20  10  20] 0 setdash } def
/dash05 { [80  20  10  10  10  20] 0 setdash } def
/dash06 { [40  20  10  10  10  20] 0 setdash } def
/dash07 { [10  10] 0 setdash } def
%
/MFshow {
   { dup 5 get 3 ge
     { 5 get 3 eq {gsave} {grestore} ifelse }
     {dup dup 0 get findfont exch 1 get scalefont setfont
     [ currentpoint ] exch dup 2 get 0 exch R dup 5 get 2 ne {dup dup 6
     get exch 4 get {show} {stringwidth pop 0 R} ifelse }if dup 5 get 0 eq
     {dup 3 get {2 get neg 0 exch R pop} {pop aload pop M} ifelse} {dup 5
     get 1 eq {dup 2 get exch dup 3 get exch 6 get stringwidth pop -2 div
     dup 0 R} {dup 6 get stringwidth pop -2 div 0 R 6 get
     show 2 index {aload pop M neg 3 -1 roll neg R pop pop} {pop pop pop
     pop aload pop M} ifelse }ifelse }ifelse }
     ifelse }
   forall} bind def
/MFwidth {0 exch {dup 3 get{dup dup 0 get findfont exch 1 get scalefont
     setfont 6 get stringwidth pop add} {pop} ifelse} forall} bind def
/MCshow { currentpoint stroke M
  exch dup MFwidth -2 div 3 -1 roll R MFshow } def
%
end
%%EndProlog
bkdict begin
0.1 0.1 scale
%
% Residuals:
%
GSN 620 4063 M
620 3626 L
620 3343 L
620 3827 L
620 3435 L
620 3946 L
620 3429 L
620 3508 L
620 3585 L
620 3285 L
620 3339 L
620 3427 L
620 3009 L
620 3110 L
620 3220 L
620 3272 L
620 3630 L
620 3323 L
620 3494 L
620 3393 L
620 3456 L
620 3463 L
620 3564 L
620 3212 L
620 3549 L
620 3724 L
620 3179 L
620 3594 L
620 3201 L
620 3557 L
620 3384 L
620 3324 L
620 3480 L
620 3630 L
620 3579 L
620 3466 L
620 3712 L
620 4058 L
620 3404 L
620 3699 L
620 3741 L
620 3732 L
620 3726 L
620 3282 L
620 3950 L
620 3962 L
620 3517 L
620 3733 L
620 3361 L
620 3577 L
620 3684 L
620 3943 L
620 4039 L
620 3668 L
620 3570 L
620 4006 L
620 3425 L
620 3667 L
620 3696 L
620 3353 L
620 3371 L
620 3657 L
620 3797 L
620 3692 L
620 3522 L
620 3482 L
620 3260 L
620 3602 L
620 3561 L
620 3474 L
620 3684 L
620 3901 L
620 3560 L
620 3518 L
620 3582 L
620 3765 L
620 3478 L
620 3346 L
620 3961 L
620 3366 L
620 3869 L
620 2935 L
620 3694 L
620 3162 L
620 3133 L
620 3332 L
620 3069 L
620 3020 L
620 3263 L
620 3223 L
620 3089 L
620 3032 L
620 2801 L
620 2905 L
620 2963 L
620 3384 L
620 2851 L
620 2959 L
620 3019 L
620 2967 L
620 2321 L
620 2568 L
620 2839 L
620 2786 L
620 2776 L
620 2497 L
620 2716 L
620 2985 L
620 2655 L
620 2671 L
620 2525 L
620 2352 L
620 2842 L
620 2598 L
620 2514 L
620 2585 L
620 2720 L
620 2282 L
620 2471 L
620 2707 L
620 2475 L
620 2528 L
620 2438 L
620 2513 L
620 2485 L
620 2520 L
620 2569 L
620 2572 L
620 2670 L
620 2274 L
620 2565 L
620 2798 L
620 2527 L
620 2592 L
620 2547 L
620 2685 L
620 2558 L
620 2499 L
620 2464 L
620 2549 L
620 2643 L
620 2631 L
620 2597 L
620 2689 L
620 2678 L
620 2860 L
620 2941 L
620 2136 L
620 2303 L
620 2540 L
620 2933 L
620 2822 L
620 2547 L
620 2728 L
620 2738 L
620 2712 L
620 2657 L
620 2866 L
620 2616 L
620 2734 L
620 2484 L
620 2722 L
620 2954 L
620 2581 L
620 2890 L
620 2768 L
620 2748 L
620 2722 L
620 3099 L
620 2760 L
620 3076 L
620 2932 L
620 2976 L
620 3107 L
620 2789 L
620 2789 L
620 3077 L
620 3001 L
620 2804 L
620 2869 L
620 2889 L
620 3042 L
620 3269 L
620 2969 L
620 3143 L
620 2925 L
620 3184 L
620 3185 L
620 2848 L
620 3001 L
620 3054 L
620 3235 L
620 2801 L
620 2988 L
620 3154 L
620 3136 L
620 2886 L
620 2984 L
620 2941 L
620 3191 L
620 3061 L
620 3216 L
620 2786 L
620 3502 L
620 3089 L
620 3122 L
620 3215 L
620 3063 L
620 3196 L
620 3325 L
620 3155 L
620 3115 L
620 3301 L
620 2904 L
620 3131 L
620 3288 L
620 3472 L
620 3382 L
620 3329 L
620 3325 L
620 3334 L
620 3291 L
620 3575 L
620 3514 L
620 3536 L
620 3047 L
620 3321 L
620 3746 L
620 3488 L
620 3527 L
620 3344 L
620 3527 L
620 3458 L
620 3231 L
620 3519 L
620 3363 L
620 3803 L
620 3777 L
620 3288 L
620 3691 L
620 3428 L
620 3553 L
620 3434 L
620 3761 L
620 3427 L
620 3286 L
620 3176 L
620 3727 L
620 3341 L
620 3348 L
620 3310 L
620 3342 L
620 3497 L
620 3659 L
620 3731 L
620 3458 L
620 3470 L
620 3486 L
620 3692 L
620 3303 L
620 3363 L
620 4003 L
620 3733 L
620 3724 L
620 3833 L
620 3698 L
620 3681 L
620 3575 L
620 3363 L
620 3671 L
620 3890 L
620 3546 L
620 3133 L
620 3722 L
620 3609 L
620 3652 L
620 3865 L
620 3505 L
620 3741 L
620 3755 L
620 3966 L
620 3987 L
620 4016 L
620 4054 L
620 4316 L
620 3799 L
620 4175 L
620 4530 L
620 4242 L
620 4370 L
620 4013 L
620 4337 L
620 4356 L
620 4327 L
620 4391 L
620 4373 L
620 3934 L
620 4440 L
620 4332 L
620 4245 L
620 4293 L
620 4473 L
620 4277 L
620 4187 L
620 4582 L
620 3975 L
620 4605 L
620 4326 L
620 4327 L
620 4228 L
620 4260 L
620 4401 L
620 4205 L
620 4163 L
620 4188 L
620 4371 L
620 4301 L
620 4120 L
620 4255 L
620 4244 L
620 4028 L
620 4107 L
620 4248 L
620 4395 L
620 4257 L
620 4258 L
620 4084 L
620 4126 L
620 4052 L
620 4229 L
620 4434 L
620 4142 L
620 4552 L
620 4513 L
620 4134 L
620 4384 L
620 4291 L
620 4094 L
620 4229 L
620 4863 L
620 4229 L
620 4404 L
620 4052 L
620 3970 L
620 4142 L
620 4054 L
620 4218 L
620 4404 L
620 4088 L
620 4247 L
620 4022 L
620 3957 L
620 3976 L
620 3692 L
620 4422 L
620 3851 L
620 4124 L
620 4020 L
620 4283 L
620 4078 L
620 4044 L
620 4191 L
620 4281 L
620 4139 L
620 3750 L
620 4163 L
620 4152 L
620 3902 L
620 3776 L
620 3992 L
620 3786 L
620 4349 L
620 4012 L
620 4032 L
620 3845 L
620 4055 L
620 3754 L
620 4091 L
620 4105 L
620 3681 L
620 3422 L
620 3977 L
620 4175 L
620 3776 L
620 3646 L
620 3848 L
620 3744 L
620 3929 L
620 3544 L
620 3924 L
620 3970 L
620 3995 L
620 3756 L
620 3838 L
620 4100 L
620 3581 L
620 3482 L
620 4031 L
620 3548 L
620 3845 L
620 3324 L
620 3678 L
620 3462 L
620 3822 L
620 4235 L
620 3720 L
620 3573 L
620 3800 L
620 3193 L
620 3622 L
620 3772 L
620 3887 L
620 3505 L
620 3921 L
620 3520 L
620 3779 L
620 3751 L
620 3790 L
620 3934 L
620 3387 L
620 3832 L
620 3436 L
620 3584 L
620 3643 L
620 3841 L
620 3662 L
620 3541 L
620 3800 L
620 3446 L
620 3587 L
620 3662 L
620 3779 L
620 3668 L
620 3959 L
620 3684 L
620 4055 L
620 3541 L
620 3882 L
620 3753 L
620 3710 L
620 3698 L
620 3714 L
620 3681 L
620 3535 L
620 3566 L
620 4178 L
620 3677 L
620 3466 L
620 3760 L
620 3662 L
620 4065 L
620 3551 L
620 3992 L
620 4011 L
620 3561 L
620 3897 L
620 3640 L
620 3822 L
620 3852 L
620 3927 L
620 3301 L
620 3972 L
620 3413 L
620 3620 L
620 3581 L
620 3820 L
620 3843 L
620 3164 L
620 3472 L
620 3485 L
620 3725 L
620 3957 L
620 3492 L
620 3566 L
620 3033 L
620 3738 L
620 3478 L
620 3777 L
620 3050 L
620 3590 L
620 3941 L
620 3291 L
620 3345 L
620 3435 L
620 3374 L
620 3586 L
620 3632 L
620 3708 L
620 3652 L
620 3550 L
620 3554 L
620 3315 L
620 3704 L
620 3688 L
620 2988 L
620 3610 L
620 3437 L
620 3658 L
620 3505 L
620 3589 L
620 3799 L
620 3617 L
620 3380 L
620 3259 L
620 3587 L
620 3648 L
620 3298 L
620 3255 L
620 3622 L
620 3721 L
620 3318 L
620 3688 L
620 3551 L
620 3262 L
620 3586 L
620 3599 L
620 4204 L
620 3498 L
620 3476 L
620 3737 L
620 3414 L
620 3612 L
620 3816 L
620 3643 L
620 3641 L
620 3380 L
620 3603 L
620 3689 L
620 3600 L
620 3425 L
620 3387 L
620 3530 L
620 3458 L
L2 C04 COSGR

%
%================
% Legend - Begin
%================
%
GSN 4240 5180 M
4480 5180 L
LWMC SL  C04 COSGR
GSN 4540 5141 M helvM (2.0 uM) show grestore
%
%================
% Legend - End
%================
%

%
% Main frame
%
L10
GSN 
620 1700 M
4220 1700 L
4220 5300 L
620 5300 L
closepath SGR

%
% X axis: large tics
%
L10
%
% X axis: small tics
%
L5
%
% Y axis: large tics
%
L10
GSN 620 2006 M 54 0 rL SGR
GSN 4220 2006 M -54 0 rL SGR
helvS (-0.02) 560 2006 ylabel
GSN 620 2760 M 54 0 rL SGR
GSN 4220 2760 M -54 0 rL SGR
helvS (-0.01) 560 2760 ylabel
GSN 620 3515 M 54 0 rL SGR
GSN 4220 3515 M -54 0 rL SGR
helvS (0) 560 3515 ylabel
GSN 620 4270 M 54 0 rL SGR
GSN 4220 4270 M -54 0 rL SGR
helvS (0.01) 560 4270 ylabel
GSN 620 5025 M 54 0 rL SGR
GSN 4220 5025 M -54 0 rL SGR
helvS (0.02) 560 5025 ylabel
%
% Y axis: small tics
%
L5
GSN 620 1817 M 36 0 rL SGR
GSN 4220 1817 M -36 0 rL SGR
GSN 620 2006 M 36 0 rL SGR
GSN 4220 2006 M -36 0 rL SGR
GSN 620 2194 M 36 0 rL SGR
GSN 4220 2194 M -36 0 rL SGR
GSN 620 2383 M 36 0 rL SGR
GSN 4220 2383 M -36 0 rL SGR
GSN 620 2572 M 36 0 rL SGR
GSN 4220 2572 M -36 0 rL SGR
GSN 620 2760 M 36 0 rL SGR
GSN 4220 2760 M -36 0 rL SGR
GSN 620 2949 M 36 0 rL SGR
GSN 4220 2949 M -36 0 rL SGR
GSN 620 3138 M 36 0 rL SGR
GSN 4220 3138 M -36 0 rL SGR
GSN 620 3327 M 36 0 rL SGR
GSN 4220 3327 M -36 0 rL SGR
GSN 620 3515 M 36 0 rL SGR
GSN 4220 3515 M -36 0 rL SGR
GSN 620 3704 M 36 0 rL SGR
GSN 4220 3704 M -36 0 rL SGR
GSN 620 3893 M 36 0 rL SGR
GSN 4220 3893 M -36 0 rL SGR
GSN 620 4082 M 36 0 rL SGR
GSN 4220 4082 M -36 0 rL SGR
GSN 620 4270 M 36 0 rL SGR
GSN 4220 4270 M -36 0 rL SGR
GSN 620 4459 M 36 0 rL SGR
GSN 4220 4459 M -36 0 rL SGR
GSN 620 4648 M 36 0 rL SGR
GSN 4220 4648 M -36 0 rL SGR
GSN 620 4836 M 36 0 rL SGR
GSN 4220 4836 M -36 0 rL SGR
GSN 620 5025 M 36 0 rL SGR
GSN 4220 5025 M -36 0 rL SGR
GSN 620 5214 M 36 0 rL SGR
GSN 4220 5214 M -36 0 rL SGR

%
% X axis - residual panel
%
GSN L5 620 3515 M 4220 3515 L SDA G50 SGR

%
% X-Axis label:
%
gsave 620 1370 M 
[
[(Helvetica) 180 0 true true 0 (t)]
[(Helvetica) 180 0 true true 0 (i)]
[(Helvetica) 180 0 true true 0 (m)]
[(Helvetica) 180 0 true true 0 (e)]
] 0 MCshow grestore

%
% Y-Axis label:
%
gsave 234 3499 M 
currentpoint gsave translate 90 rotate 0 0 moveto
[
[(Helvetica) 180 0 true true 0 (r)]
[(Helvetica) 180 0 true true 0 (e)]
[(Helvetica) 180 0 true true 0 (s)]
[(Helvetica) 180 0 true true 0 (i)]
[(Helvetica) 180 0 true true 0 (d)]
[(Helvetica) 180 0 true true 0 (u)]
[(Helvetica) 180 0 true true 0 (a)]
[(Helvetica) 180 0 true true 0 (l)]
[(Helvetica) 180 0 true true 0 (s)]
] 0 MCshow grestore

end
showpage
%%Trailer
%%EOF
