%!PS-Adobe-3.0 EPSF-3.0
%%BoundingBox: 0 0 514 550
%%Creator: BioKin Ltd.
%%DocumentFonts: Symbol Helvetica
%%EndComments
%
/bkdict 256 dict def
bkdict begin
/M {moveto} def 
/R {rmoveto} def
/L {lineto} def
/rL {rlineto} def
/GSN {gsave newpath} def
/SGR {stroke grestore} def
/COSGR {gsave setrgbcolor stroke grestore grestore} def
/SL {setlinewidth} def
/LWMB {12} def             % line width - model curves, black & white
/LWMC {10} def             % line width - model curves, color
/L2 {2.5 setlinewidth} def
/L5 {5 setlinewidth} def
/L10 {10 setlinewidth} def
/G50 {0.5 setgray} def
/SDA {[10  20] 0 setdash} def % axes
/helvT {/Helvetica findfont 100 scalefont setfont} def % tiny
/helvS {/Helvetica findfont 125 scalefont setfont} def % small
/helvM {/Helvetica findfont 150 scalefont setfont} def % medium
/helvL {/Helvetica findfont 175 scalefont setfont} def % large
/xlabel {gsave M dup
   stringwidth exch -0.5 mul exch rmoveto show grestore} def 
/ylabel {gsave M 90 rotate dup
   stringwidth exch -0.5 mul exch rmoveto show grestore} def
/ylabelresid {gsave M dup
   stringwidth exch -1 mul exch rmoveto show grestore} def
% ======
% Shapes
% ======
% Circle:
/Circ {0 360 arc closepath} def
%
% Square:
/Squa {dup dup -0.5 mul dup dup R -2 mul 0 exch rL 1 mul 0 rL dup 0 exch -1 mul rL closepath} def
%
% Triangle Up:
/TriU {dup dup dup -0.4 mul exch -0.5 mul exch R dup 0.5 mul exch rL dup -1 mul exch 0.5 mul exch rL closepath} def 
%
% Triangle Down:
/TriD {dup dup dup 0.4 mul exch -0.5 mul exch R dup 0.5 mul exch -1 mul rL dup 0.5 mul exch rL closepath} def 
%
% Diamond:
/Diam {45 rotate Squa} def
% ======
% Fills
% ======
/GRF {gsave setgray fill grestore} def                    % gray-level Fill
/COF {gsave setrgbcolor fill grestore} def                % color fill
% ======
% Colors
% ======
/C01 {1.00	0.00	0.00} def      % Red
/C02 {0.00	0.00	1.00} def      % Blue
/C03 {0.00	0.39	0.00} def      % Dark Green
/C04 {0.78	0.08	0.52} def      % Medium Violet Red
/C05 {0.55	0.27	0.07} def      % Saddle Brown
/C06 {0.10	0.70	0.70} def      % (cyan)
/C07 {1.00	0.55	0.00} def      % Dark Orange
/C08 {0.63	0.13	0.94} def      % Purple
/C09 {0.00	0.75	1.00} def      % Deep Sky Blue
/C10 {0.20	0.80	0.20} def      % Lime Green
/C11 {0.47	0.53	0.60} def      % Light Slate Gray
/C12 {0.00	0.00	0.00} def      % Black            % or: {0.19	0.31	0.31} def      % Dark Slate Gray
%
/LGR {0.75} def % light gray
/DGR {0.33} def % dark gray
%
% =============
% Dash patterns
% =============
/dash01 { [80  20] 0 setdash } def
/dash02 { [40  20] 0 setdash } def
/dash03 { [80  20  10  20] 0 setdash } def
/dash04 { [40  20  10  20] 0 setdash } def
/dash05 { [80  20  10  10  10  20] 0 setdash } def
/dash06 { [40  20  10  10  10  20] 0 setdash } def
/dash07 { [10  10] 0 setdash } def
%
/MFshow {
   { dup 5 get 3 ge
     { 5 get 3 eq {gsave} {grestore} ifelse }
     {dup dup 0 get findfont exch 1 get scalefont setfont
     [ currentpoint ] exch dup 2 get 0 exch R dup 5 get 2 ne {dup dup 6
     get exch 4 get {show} {stringwidth pop 0 R} ifelse }if dup 5 get 0 eq
     {dup 3 get {2 get neg 0 exch R pop} {pop aload pop M} ifelse} {dup 5
     get 1 eq {dup 2 get exch dup 3 get exch 6 get stringwidth pop -2 div
     dup 0 R} {dup 6 get stringwidth pop -2 div 0 R 6 get
     show 2 index {aload pop M neg 3 -1 roll neg R pop pop} {pop pop pop
     pop aload pop M} ifelse }ifelse }ifelse }
     ifelse }
   forall} bind def
/MFwidth {0 exch {dup 3 get{dup dup 0 get findfont exch 1 get scalefont
     setfont 6 get stringwidth pop add} {pop} ifelse} forall} bind def
/MCshow { currentpoint stroke M
  exch dup MFwidth -2 div 3 -1 roll R MFshow } def
%
end
%%EndProlog
bkdict begin
0.1 0.1 scale
%
% Model curves:
%

GSN 753 5151 M
753 5151 L
786 5152 L
820 5153 L
853 5154 L
886 5156 L
903 5156 L
919 5157 L
953 5159 L
986 5160 L
1020 5162 L
1053 5163 L
1053 5163 L
1086 5164 L
1120 5165 L
1153 5166 L
1186 5166 L
1203 5166 L
1220 5166 L
1253 5165 L
1286 5163 L
1320 5160 L
1353 5157 L
1353 5157 L
1386 5153 L
1420 5147 L
1453 5141 L
1486 5133 L
1503 5129 L
1520 5124 L
1553 5114 L
1586 5102 L
1620 5088 L
1653 5072 L
1653 5072 L
1686 5054 L
1720 5032 L
1753 5008 L
1786 4979 L
1804 4963 L
1820 4947 L
1853 4910 L
1886 4868 L
1920 4821 L
1953 4767 L
1954 4766 L
1986 4707 L
2020 4639 L
2053 4564 L
2086 4482 L
2104 4435 L
2120 4392 L
2153 4293 L
2186 4188 L
2220 4076 L
2253 3958 L
2254 3954 L
2286 3836 L
2320 3710 L
2353 3583 L
2386 3457 L
2404 3390 L
2420 3333 L
2453 3214 L
2486 3102 L
2520 2998 L
2553 2905 L
2554 2901 L
2586 2823 L
2620 2754 L
2653 2697 L
2686 2652 L
2704 2633 L
2720 2619 L
2753 2596 L
2786 2581 L
2820 2572 L
2853 2568 L
2854 2568 L
2886 2566 L
2920 2565 L
2953 2564 L
2986 2564 L
3004 2564 L
3020 2564 L
3053 2564 L
3068 2564 L
3086 2564 L
3120 2564 L
3153 2564 L
3155 2564 L
3186 2564 L
3220 2564 L
3253 2564 L
3286 2564 L
3305 2564 L
3320 2564 L
3353 2564 L
3386 2564 L
3420 2564 L
3453 2564 L
3455 2564 L
3486 2564 L
3520 2564 L
3553 2564 L
3586 2564 L
3605 2564 L
3620 2564 L
3653 2564 L
3686 2564 L
3720 2564 L
3753 2564 L
3755 2564 L
3786 2564 L
3820 2564 L
3853 2564 L
3886 2564 L
3905 2564 L
3920 2564 L
3953 2564 L
3986 2564 L
4020 2564 L
4053 2564 L
4086 2564 L
LWMC SL  C04 COSGR

%
% Experimental data:
%
GSN 773 5116 M
1625 4847 L
1773 4658 L
1860 4875 L
1922 4628 L
1970 4858 L
2009 4544 L
2043 4545 L
2072 4545 L
2097 4345 L
2120 4333 L
2140 4339 L
2159 4077 L
2176 4090 L
2192 4109 L
2207 4096 L
2221 4246 L
2234 4045 L
2247 4098 L
2259 4006 L
2270 4003 L
2280 3970 L
2290 3987 L
2300 3765 L
2309 3909 L
2318 3967 L
2326 3645 L
2335 3831 L
2342 3591 L
2350 3748 L
2357 3625 L
2364 3563 L
2371 3616 L
2378 3666 L
2384 3610 L
2391 3522 L
2397 3626 L
2403 3782 L
2409 3410 L
2414 3541 L
2420 3538 L
2425 3509 L
2430 3482 L
2435 3225 L
2440 3555 L
2445 3540 L
2450 3283 L
2455 3376 L
2459 3159 L
2464 3254 L
2468 3291 L
2472 3410 L
2476 3442 L
2481 3228 L
2485 3159 L
2489 3373 L
2492 3049 L
2496 3161 L
2500 3161 L
2504 2965 L
2507 2959 L
2511 3097 L
2514 3157 L
2518 3088 L
2521 2985 L
2525 2951 L
2528 2821 L
2531 2991 L
2534 2957 L
2538 2900 L
2541 3000 L
2544 3104 L
2547 2913 L
2550 2881 L
2553 2905 L
2556 2992 L
2559 2831 L
2561 2752 L
2564 3069 L
2567 2746 L
2570 3003 L
2580 2479 L
2590 2854 L
2600 2549 L
2609 2512 L
2618 2599 L
2627 2444 L
2635 2404 L
2643 2520 L
2650 2487 L
2658 2406 L
2665 2368 L
2672 2238 L
2678 2286 L
2685 2311 L
2691 2529 L
2697 2242 L
2703 2295 L
2709 2324 L
2714 2293 L
2720 1949 L
2725 2077 L
2730 2219 L
2735 2189 L
2740 2182 L
2745 2033 L
2750 2148 L
2755 2289 L
2759 2114 L
2764 2121 L
2768 2043 L
2772 1951 L
2777 2210 L
2781 2080 L
2785 2036 L
2789 2073 L
2793 2144 L
2796 1912 L
2800 2011 L
2804 2136 L
2808 2013 L
2811 2041 L
2815 1994 L
2818 2033 L
2822 2018 L
2825 2036 L
2828 2063 L
2831 2064 L
2835 2116 L
2838 1906 L
2841 2060 L
2844 2183 L
2847 2040 L
2850 2074 L
2853 2050 L
2856 2123 L
2859 2056 L
2862 2025 L
2864 2006 L
2867 2052 L
2870 2101 L
2873 2095 L
2875 2077 L
2878 2125 L
2880 2120 L
2883 2216 L
2886 2259 L
2888 1833 L
2891 1921 L
2893 2047 L
2895 2254 L
2898 2196 L
2900 2050 L
2902 2146 L
2905 2152 L
2907 2137 L
2909 2108 L
2912 2219 L
2914 2087 L
2916 2149 L
2918 2017 L
2920 2143 L
2922 2265 L
2925 2068 L
2927 2232 L
2929 2167 L
2931 2156 L
2933 2143 L
2935 2342 L
2937 2163 L
2939 2330 L
2941 2254 L
2943 2277 L
2945 2346 L
2947 2178 L
2948 2178 L
2950 2331 L
2952 2290 L
2954 2186 L
2956 2220 L
2958 2231 L
2959 2312 L
2961 2432 L
2963 2273 L
2965 2365 L
2966 2250 L
2968 2387 L
2970 2388 L
2972 2209 L
2973 2290 L
2975 2318 L
2977 2414 L
2978 2184 L
2980 2284 L
2982 2371 L
2983 2362 L
2985 2230 L
2986 2281 L
2988 2259 L
2989 2391 L
2991 2322 L
2993 2404 L
2994 2176 L
2996 2556 L
2997 2337 L
2999 2354 L
3000 2404 L
3002 2323 L
3003 2393 L
3005 2462 L
3006 2372 L
3007 2351 L
3009 2449 L
3010 2239 L
3012 2359 L
3013 2442 L
3014 2540 L
3016 2492 L
3017 2464 L
3019 2462 L
3020 2467 L
3021 2444 L
3023 2594 L
3024 2562 L
3025 2573 L
3027 2315 L
3028 2460 L
3029 2685 L
3031 2548 L
3032 2569 L
3033 2472 L
3034 2569 L
3036 2532 L
3037 2412 L
3038 2565 L
3039 2482 L
3041 2715 L
3042 2701 L
3043 2442 L
3044 2655 L
3045 2517 L
3047 2582 L
3048 2520 L
3049 2693 L
3050 2516 L
3051 2441 L
3053 2383 L
3054 2674 L
3055 2470 L
3056 2474 L
3057 2454 L
3058 2471 L
3059 2553 L
3061 2638 L
3062 2677 L
3063 2532 L
3064 2538 L
3065 2547 L
3066 2656 L
3067 2450 L
3068 2482 L
3069 2820 L
3070 2677 L
3071 2673 L
3073 2730 L
3074 2659 L
3075 2650 L
3076 2594 L
3077 2482 L
3078 2645 L
3079 2761 L
3080 2579 L
3081 2360 L
3082 2672 L
3083 2612 L
3084 2635 L
3085 2747 L
3086 2557 L
3087 2682 L
3088 2690 L
3089 2801 L
3112 2812 L
3133 2828 L
3152 2847 L
3170 2986 L
3186 2712 L
3201 2911 L
3216 3099 L
3229 2947 L
3241 3015 L
3253 2826 L
3264 2997 L
3275 3007 L
3285 2992 L
3295 3026 L
3304 3016 L
3313 2784 L
3322 3051 L
3330 2994 L
3338 2949 L
3346 2974 L
3353 3069 L
3360 2965 L
3367 2918 L
3374 3127 L
3380 2805 L
3387 3139 L
3393 2991 L
3399 2992 L
3405 2939 L
3410 2956 L
3416 3031 L
3421 2927 L
3426 2905 L
3431 2918 L
3436 3015 L
3441 2978 L
3446 2882 L
3451 2954 L
3455 2948 L
3460 2834 L
3464 2875 L
3469 2950 L
3473 3028 L
3477 2955 L
3481 2955 L
3485 2863 L
3489 2885 L
3493 2847 L
3496 2940 L
3500 3048 L
3504 2894 L
3507 3111 L
3511 3090 L
3514 2890 L
3518 3022 L
3521 2973 L
3525 2869 L
3528 2940 L
3531 3275 L
3534 2940 L
3537 3032 L
3540 2847 L
3543 2803 L
3546 2894 L
3549 2847 L
3552 2934 L
3555 3032 L
3558 2866 L
3561 2949 L
3564 2831 L
3566 2796 L
3575 2806 L
3586 2656 L
3595 3042 L
3605 2740 L
3613 2885 L
3622 2830 L
3630 2968 L
3638 2860 L
3646 2842 L
3653 2920 L
3660 2968 L
3667 2892 L
3674 2687 L
3681 2905 L
3687 2899 L
3693 2767 L
3699 2700 L
3705 2815 L
3710 2706 L
3716 3003 L
3721 2825 L
3727 2836 L
3732 2737 L
3737 2848 L
3742 2689 L
3746 2867 L
3751 2875 L
3756 2650 L
3760 2513 L
3764 2807 L
3769 2911 L
3773 2700 L
3777 2632 L
3781 2738 L
3785 2684 L
3789 2781 L
3793 2578 L
3797 2779 L
3800 2803 L
3804 2816 L
3808 2690 L
3811 2733 L
3815 2872 L
3818 2597 L
3821 2545 L
3825 2835 L
3828 2580 L
3831 2737 L
3834 2461 L
3838 2649 L
3841 2534 L
3844 2725 L
3847 2943 L
3850 2671 L
3853 2593 L
3855 2713 L
3858 2392 L
3861 2619 L
3864 2698 L
3867 2759 L
3869 2557 L
3872 2777 L
3875 2565 L
3877 2702 L
3880 2687 L
3882 2708 L
3885 2784 L
3887 2495 L
3890 2730 L
3892 2521 L
3895 2599 L
3897 2630 L
3899 2735 L
3902 2640 L
3904 2576 L
3906 2713 L
3908 2526 L
3911 2601 L
3913 2640 L
3915 2702 L
3917 2643 L
3919 2797 L
3921 2652 L
3923 2848 L
3926 2576 L
3928 2757 L
3930 2688 L
3932 2665 L
3934 2659 L
3936 2668 L
3938 2650 L
3940 2573 L
3942 2589 L
3943 2913 L
3945 2648 L
3947 2537 L
3949 2692 L
3951 2640 L
3953 2853 L
3955 2582 L
3956 2815 L
3958 2824 L
3960 2587 L
3962 2764 L
3963 2629 L
3965 2725 L
3967 2741 L
3969 2780 L
3970 2449 L
3972 2804 L
3974 2508 L
3975 2618 L
3977 2597 L
3978 2724 L
3980 2736 L
3982 2377 L
3983 2540 L
3985 2546 L
3986 2674 L
3988 2796 L
3990 2550 L
3991 2589 L
3993 2307 L
3994 2680 L
3996 2543 L
3997 2701 L
3999 2316 L
4000 2602 L
4001 2788 L
4003 2444 L
4004 2473 L
4006 2520 L
4007 2488 L
4009 2600 L
4010 2624 L
4011 2665 L
4013 2635 L
4014 2581 L
4016 2583 L
4017 2457 L
4018 2662 L
4020 2654 L
4021 2284 L
4022 2613 L
4024 2521 L
4025 2638 L
4026 2557 L
4028 2601 L
4029 2712 L
4030 2616 L
4031 2491 L
4033 2427 L
4034 2601 L
4035 2633 L
4036 2447 L
4038 2425 L
4039 2619 L
4040 2671 L
4041 2458 L
4042 2654 L
4044 2582 L
4045 2428 L
4046 2600 L
4047 2607 L
4048 2927 L
4050 2553 L
4051 2542 L
4052 2680 L
4053 2509 L
4054 2613 L
4055 2722 L
4056 2630 L
4058 2629 L
4059 2491 L
4060 2609 L
4061 2655 L
4062 2607 L
4063 2514 L
4064 2495 L
4065 2570 L
4066 2532 L
L2 C04 COSGR

%
%================
% Legend - Begin
%================
%
GSN 4240 5180 M
4480 5180 L
LWMC SL  C04 COSGR
GSN 4540 5141 M helvM (2.0 uM) show grestore
%
%================
% Legend - End
%================
%

%
% Residuals:
%
GSN 773 1146 M
1625 1030 L
1773 977 L
1860 1151 L
1922 1058 L
1970 1234 L
2009 1099 L
2043 1141 L
2072 1180 L
2097 1104 L
2120 1133 L
2140 1170 L
2159 1054 L
2176 1092 L
2192 1132 L
2207 1154 L
2221 1266 L
2234 1178 L
2247 1232 L
2259 1205 L
2270 1225 L
2280 1229 L
2290 1260 L
2300 1155 L
2309 1256 L
2318 1308 L
2326 1144 L
2335 1267 L
2342 1148 L
2350 1253 L
2357 1199 L
2364 1179 L
2371 1224 L
2378 1267 L
2384 1249 L
2391 1213 L
2397 1284 L
2403 1385 L
2409 1186 L
2414 1272 L
2420 1282 L
2425 1277 L
2430 1272 L
2435 1137 L
2440 1334 L
2445 1335 L
2450 1199 L
2455 1261 L
2459 1147 L
2464 1209 L
2468 1239 L
2472 1314 L
2476 1340 L
2481 1227 L
2485 1195 L
2489 1324 L
2492 1147 L
2496 1218 L
2500 1224 L
2504 1120 L
2507 1123 L
2511 1207 L
2514 1247 L
2518 1214 L
2521 1161 L
2525 1148 L
2528 1079 L
2531 1181 L
2534 1167 L
2538 1139 L
2541 1201 L
2544 1265 L
2547 1161 L
2550 1148 L
2553 1166 L
2556 1219 L
2559 1132 L
2561 1092 L
2564 1275 L
2567 1096 L
2570 1246 L
2580 963 L
2590 1189 L
2600 1027 L
2609 1017 L
2618 1077 L
2627 998 L
2635 983 L
2643 1056 L
2650 1044 L
2658 1005 L
2665 989 L
2672 921 L
2678 953 L
2685 971 L
2691 1099 L
2697 940 L
2703 973 L
2709 993 L
2714 978 L
2720 786 L
2725 861 L
2730 943 L
2735 928 L
2740 927 L
2745 844 L
2750 911 L
2755 992 L
2759 894 L
2764 900 L
2768 856 L
2772 805 L
2777 953 L
2781 881 L
2785 856 L
2789 878 L
2793 919 L
2796 788 L
2800 845 L
2804 916 L
2808 847 L
2811 864 L
2815 837 L
2818 860 L
2822 852 L
2825 862 L
2828 878 L
2831 878 L
2835 908 L
2838 790 L
2841 877 L
2844 947 L
2847 866 L
2850 886 L
2853 872 L
2856 914 L
2859 876 L
2862 858 L
2864 848 L
2867 874 L
2870 902 L
2873 898 L
2875 888 L
2878 916 L
2880 913 L
2883 967 L
2886 992 L
2888 750 L
2891 801 L
2893 872 L
2895 989 L
2898 956 L
2900 874 L
2902 928 L
2905 931 L
2907 923 L
2909 907 L
2912 970 L
2914 895 L
2916 930 L
2918 855 L
2920 927 L
2922 996 L
2925 884 L
2927 977 L
2929 940 L
2931 934 L
2933 927 L
2935 1040 L
2937 938 L
2939 1033 L
2941 990 L
2943 1003 L
2945 1042 L
2947 947 L
2948 947 L
2950 1033 L
2952 1010 L
2954 951 L
2956 971 L
2958 977 L
2959 1023 L
2961 1091 L
2963 1001 L
2965 1053 L
2966 988 L
2968 1065 L
2970 1066 L
2972 964 L
2973 1010 L
2975 1026 L
2977 1080 L
2978 950 L
2980 1007 L
2982 1056 L
2983 1051 L
2985 976 L
2986 1005 L
2988 992 L
2989 1067 L
2991 1028 L
2993 1075 L
2994 946 L
2996 1161 L
2997 1037 L
2999 1047 L
3000 1075 L
3002 1029 L
3003 1069 L
3005 1107 L
3006 1057 L
3007 1045 L
3009 1100 L
3010 981 L
3012 1049 L
3013 1096 L
3014 1152 L
3016 1125 L
3017 1109 L
3019 1107 L
3020 1110 L
3021 1097 L
3023 1182 L
3024 1164 L
3025 1171 L
3027 1024 L
3028 1106 L
3029 1234 L
3031 1156 L
3032 1168 L
3033 1113 L
3034 1168 L
3036 1148 L
3037 1079 L
3038 1166 L
3039 1119 L
3041 1251 L
3042 1243 L
3043 1096 L
3044 1217 L
3045 1139 L
3047 1176 L
3048 1140 L
3049 1238 L
3050 1138 L
3051 1096 L
3053 1063 L
3054 1228 L
3055 1112 L
3056 1114 L
3057 1103 L
3058 1113 L
3059 1159 L
3061 1208 L
3062 1229 L
3063 1147 L
3064 1151 L
3065 1156 L
3066 1218 L
3067 1101 L
3068 1119 L
3069 1311 L
3070 1230 L
3071 1227 L
3073 1260 L
3074 1219 L
3075 1214 L
3076 1182 L
3077 1119 L
3078 1211 L
3079 1277 L
3080 1174 L
3081 1050 L
3082 1227 L
3083 1193 L
3084 1205 L
3085 1269 L
3086 1162 L
3087 1232 L
3088 1237 L
3089 1300 L
3112 1306 L
3133 1315 L
3152 1326 L
3170 1405 L
3186 1250 L
3201 1362 L
3216 1469 L
3229 1383 L
3241 1421 L
3253 1314 L
3264 1411 L
3275 1417 L
3285 1408 L
3295 1427 L
3304 1422 L
3313 1290 L
3322 1442 L
3330 1409 L
3338 1383 L
3346 1398 L
3353 1452 L
3360 1393 L
3367 1366 L
3374 1484 L
3380 1302 L
3387 1491 L
3393 1408 L
3399 1408 L
3405 1378 L
3410 1388 L
3416 1430 L
3421 1371 L
3426 1359 L
3431 1366 L
3436 1421 L
3441 1400 L
3446 1346 L
3451 1386 L
3455 1383 L
3460 1318 L
3464 1342 L
3469 1384 L
3473 1428 L
3477 1387 L
3481 1387 L
3485 1335 L
3489 1348 L
3493 1326 L
3496 1379 L
3500 1440 L
3504 1352 L
3507 1475 L
3511 1464 L
3514 1350 L
3518 1425 L
3521 1397 L
3525 1338 L
3528 1379 L
3531 1569 L
3534 1379 L
3537 1431 L
3540 1326 L
3543 1301 L
3546 1352 L
3549 1326 L
3552 1375 L
3555 1431 L
3558 1336 L
3561 1384 L
3564 1316 L
3566 1297 L
3575 1303 L
3586 1218 L
3595 1436 L
3605 1265 L
3613 1347 L
3622 1316 L
3630 1395 L
3638 1333 L
3646 1323 L
3653 1367 L
3660 1394 L
3667 1351 L
3674 1235 L
3681 1359 L
3687 1355 L
3693 1281 L
3699 1243 L
3705 1307 L
3710 1246 L
3716 1414 L
3721 1313 L
3727 1320 L
3732 1263 L
3737 1326 L
3742 1236 L
3746 1337 L
3751 1341 L
3756 1214 L
3760 1137 L
3764 1303 L
3769 1362 L
3773 1243 L
3777 1204 L
3781 1264 L
3785 1233 L
3789 1288 L
3793 1173 L
3797 1287 L
3800 1301 L
3804 1308 L
3808 1237 L
3811 1261 L
3815 1340 L
3818 1184 L
3821 1155 L
3825 1319 L
3828 1174 L
3831 1263 L
3834 1107 L
3838 1213 L
3841 1149 L
3844 1256 L
3847 1380 L
3850 1226 L
3853 1182 L
3855 1250 L
3858 1068 L
3861 1196 L
3864 1241 L
3867 1276 L
3869 1162 L
3872 1286 L
3875 1166 L
3877 1244 L
3880 1235 L
3882 1247 L
3885 1290 L
3887 1126 L
3890 1260 L
3892 1141 L
3895 1185 L
3897 1203 L
3899 1262 L
3902 1209 L
3904 1172 L
3906 1250 L
3908 1144 L
3911 1186 L
3913 1209 L
3915 1244 L
3917 1210 L
3919 1298 L
3921 1215 L
3923 1326 L
3926 1172 L
3928 1275 L
3930 1236 L
3932 1223 L
3934 1219 L
3936 1224 L
3938 1214 L
3940 1171 L
3942 1180 L
3943 1363 L
3945 1213 L
3947 1150 L
3949 1238 L
3951 1209 L
3953 1329 L
3955 1175 L
3956 1307 L
3958 1313 L
3960 1178 L
3962 1279 L
3963 1202 L
3965 1256 L
3967 1266 L
3969 1288 L
3970 1100 L
3972 1301 L
3974 1134 L
3975 1196 L
3977 1184 L
3978 1256 L
3980 1263 L
3982 1059 L
3983 1152 L
3985 1156 L
3986 1228 L
3988 1297 L
3990 1158 L
3991 1180 L
3993 1020 L
3994 1231 L
3996 1153 L
3997 1243 L
3999 1025 L
4000 1187 L
4001 1292 L
4003 1097 L
4004 1114 L
4006 1140 L
4007 1122 L
4009 1186 L
4010 1199 L
4011 1222 L
4013 1206 L
4014 1175 L
4016 1176 L
4017 1105 L
4018 1221 L
4020 1216 L
4021 1007 L
4022 1193 L
4024 1141 L
4025 1207 L
4026 1162 L
4028 1187 L
4029 1250 L
4030 1195 L
4031 1124 L
4033 1088 L
4034 1186 L
4035 1204 L
4036 1099 L
4038 1086 L
4039 1196 L
4040 1226 L
4041 1105 L
4042 1216 L
4044 1175 L
4045 1089 L
4046 1186 L
4047 1190 L
4048 1371 L
4050 1159 L
4051 1153 L
4052 1231 L
4053 1134 L
4054 1193 L
4055 1255 L
4056 1203 L
4058 1202 L
4059 1124 L
4060 1191 L
4061 1217 L
4062 1190 L
4063 1137 L
4064 1126 L
4065 1169 L
4066 1147 L
L2 C04 COSGR

%
% Main frame
%
L10
GSN 
620 1700 M
4220 1700 L
4220 5300 L
620 5300 L
closepath SGR

%
% X axis: large tics
%
L10
GSN 1074 1700 M 0  54 rL SGR
GSN 1074 5300 M 0 -54 rL SGR
helvS (0.0001) 1074 470 xlabel
GSN 1572 1700 M 0  54 rL SGR
GSN 1572 5300 M 0 -54 rL SGR
helvS (0.001) 1572 470 xlabel
GSN 2071 1700 M 0  54 rL SGR
GSN 2071 5300 M 0 -54 rL SGR
helvS (0.01) 2071 470 xlabel
GSN 2570 1700 M 0  54 rL SGR
GSN 2570 5300 M 0 -54 rL SGR
helvS (0.1) 2570 470 xlabel
GSN 3068 1700 M 0  54 rL SGR
GSN 3068 5300 M 0 -54 rL SGR
helvS (1) 3068 470 xlabel
GSN 3567 1700 M 0  54 rL SGR
GSN 3567 5300 M 0 -54 rL SGR
helvS (10) 3567 470 xlabel
GSN 4066 1700 M 0  54 rL SGR
GSN 4066 5300 M 0 -54 rL SGR
helvS (100) 4066 470 xlabel
%
% X axis: small tics
%
L5
GSN 725 1700 M 0  36 rL SGR
GSN 725 5300 M 0 -36 rL SGR
GSN 813 1700 M 0  36 rL SGR
GSN 813 5300 M 0 -36 rL SGR
GSN 875 1700 M 0  36 rL SGR
GSN 875 5300 M 0 -36 rL SGR
GSN 924 1700 M 0  36 rL SGR
GSN 924 5300 M 0 -36 rL SGR
GSN 963 1700 M 0  36 rL SGR
GSN 963 5300 M 0 -36 rL SGR
GSN 996 1700 M 0  36 rL SGR
GSN 996 5300 M 0 -36 rL SGR
GSN 1025 1700 M 0  36 rL SGR
GSN 1025 5300 M 0 -36 rL SGR
GSN 1051 1700 M 0  36 rL SGR
GSN 1051 5300 M 0 -36 rL SGR
GSN 1224 1700 M 0  36 rL SGR
GSN 1224 5300 M 0 -36 rL SGR
GSN 1312 1700 M 0  36 rL SGR
GSN 1312 5300 M 0 -36 rL SGR
GSN 1374 1700 M 0  36 rL SGR
GSN 1374 5300 M 0 -36 rL SGR
GSN 1422 1700 M 0  36 rL SGR
GSN 1422 5300 M 0 -36 rL SGR
GSN 1462 1700 M 0  36 rL SGR
GSN 1462 5300 M 0 -36 rL SGR
GSN 1495 1700 M 0  36 rL SGR
GSN 1495 5300 M 0 -36 rL SGR
GSN 1524 1700 M 0  36 rL SGR
GSN 1524 5300 M 0 -36 rL SGR
GSN 1550 1700 M 0  36 rL SGR
GSN 1550 5300 M 0 -36 rL SGR
GSN 1722 1700 M 0  36 rL SGR
GSN 1722 5300 M 0 -36 rL SGR
GSN 1810 1700 M 0  36 rL SGR
GSN 1810 5300 M 0 -36 rL SGR
GSN 1873 1700 M 0  36 rL SGR
GSN 1873 5300 M 0 -36 rL SGR
GSN 1921 1700 M 0  36 rL SGR
GSN 1921 5300 M 0 -36 rL SGR
GSN 1960 1700 M 0  36 rL SGR
GSN 1960 5300 M 0 -36 rL SGR
GSN 1994 1700 M 0  36 rL SGR
GSN 1994 5300 M 0 -36 rL SGR
GSN 2023 1700 M 0  36 rL SGR
GSN 2023 5300 M 0 -36 rL SGR
GSN 2048 1700 M 0  36 rL SGR
GSN 2048 5300 M 0 -36 rL SGR
GSN 2221 1700 M 0  36 rL SGR
GSN 2221 5300 M 0 -36 rL SGR
GSN 2309 1700 M 0  36 rL SGR
GSN 2309 5300 M 0 -36 rL SGR
GSN 2371 1700 M 0  36 rL SGR
GSN 2371 5300 M 0 -36 rL SGR
GSN 2420 1700 M 0  36 rL SGR
GSN 2420 5300 M 0 -36 rL SGR
GSN 2459 1700 M 0  36 rL SGR
GSN 2459 5300 M 0 -36 rL SGR
GSN 2492 1700 M 0  36 rL SGR
GSN 2492 5300 M 0 -36 rL SGR
GSN 2521 1700 M 0  36 rL SGR
GSN 2521 5300 M 0 -36 rL SGR
GSN 2547 1700 M 0  36 rL SGR
GSN 2547 5300 M 0 -36 rL SGR
GSN 2720 1700 M 0  36 rL SGR
GSN 2720 5300 M 0 -36 rL SGR
GSN 2808 1700 M 0  36 rL SGR
GSN 2808 5300 M 0 -36 rL SGR
GSN 2870 1700 M 0  36 rL SGR
GSN 2870 5300 M 0 -36 rL SGR
GSN 2918 1700 M 0  36 rL SGR
GSN 2918 5300 M 0 -36 rL SGR
GSN 2958 1700 M 0  36 rL SGR
GSN 2958 5300 M 0 -36 rL SGR
GSN 2991 1700 M 0  36 rL SGR
GSN 2991 5300 M 0 -36 rL SGR
GSN 3020 1700 M 0  36 rL SGR
GSN 3020 5300 M 0 -36 rL SGR
GSN 3045 1700 M 0  36 rL SGR
GSN 3045 5300 M 0 -36 rL SGR
GSN 3218 1700 M 0  36 rL SGR
GSN 3218 5300 M 0 -36 rL SGR
GSN 3306 1700 M 0  36 rL SGR
GSN 3306 5300 M 0 -36 rL SGR
GSN 3368 1700 M 0  36 rL SGR
GSN 3368 5300 M 0 -36 rL SGR
GSN 3417 1700 M 0  36 rL SGR
GSN 3417 5300 M 0 -36 rL SGR
GSN 3456 1700 M 0  36 rL SGR
GSN 3456 5300 M 0 -36 rL SGR
GSN 3490 1700 M 0  36 rL SGR
GSN 3490 5300 M 0 -36 rL SGR
GSN 3519 1700 M 0  36 rL SGR
GSN 3519 5300 M 0 -36 rL SGR
GSN 3544 1700 M 0  36 rL SGR
GSN 3544 5300 M 0 -36 rL SGR
GSN 3717 1700 M 0  36 rL SGR
GSN 3717 5300 M 0 -36 rL SGR
GSN 3805 1700 M 0  36 rL SGR
GSN 3805 5300 M 0 -36 rL SGR
GSN 3867 1700 M 0  36 rL SGR
GSN 3867 5300 M 0 -36 rL SGR
GSN 3915 1700 M 0  36 rL SGR
GSN 3915 5300 M 0 -36 rL SGR
GSN 3955 1700 M 0  36 rL SGR
GSN 3955 5300 M 0 -36 rL SGR
GSN 3988 1700 M 0  36 rL SGR
GSN 3988 5300 M 0 -36 rL SGR
GSN 4017 1700 M 0  36 rL SGR
GSN 4017 5300 M 0 -36 rL SGR
GSN 4043 1700 M 0  36 rL SGR
GSN 4043 5300 M 0 -36 rL SGR
GSN 4216 1700 M 0  36 rL SGR
GSN 4216 5300 M 0 -36 rL SGR
%
% Y axis: large tics
%
L10
GSN 620 2280 M 54 0 rL SGR
GSN 4220 2280 M -54 0 rL SGR
helvS (1) 560 2280 ylabel
GSN 620 3079 M 54 0 rL SGR
GSN 4220 3079 M -54 0 rL SGR
helvS (1.02) 560 3079 ylabel
GSN 620 3877 M 54 0 rL SGR
GSN 4220 3877 M -54 0 rL SGR
helvS (1.04) 560 3877 ylabel
GSN 620 4676 M 54 0 rL SGR
GSN 4220 4676 M -54 0 rL SGR
helvS (1.06) 560 4676 ylabel
%
% Y axis: small tics
%
L5
GSN 620 1881 M 36 0 rL SGR
GSN 4220 1881 M -36 0 rL SGR
GSN 620 2080 M 36 0 rL SGR
GSN 4220 2080 M -36 0 rL SGR
GSN 620 2280 M 36 0 rL SGR
GSN 4220 2280 M -36 0 rL SGR
GSN 620 2480 M 36 0 rL SGR
GSN 4220 2480 M -36 0 rL SGR
GSN 620 2679 M 36 0 rL SGR
GSN 4220 2679 M -36 0 rL SGR
GSN 620 2879 M 36 0 rL SGR
GSN 4220 2879 M -36 0 rL SGR
GSN 620 3079 M 36 0 rL SGR
GSN 4220 3079 M -36 0 rL SGR
GSN 620 3278 M 36 0 rL SGR
GSN 4220 3278 M -36 0 rL SGR
GSN 620 3478 M 36 0 rL SGR
GSN 4220 3478 M -36 0 rL SGR
GSN 620 3678 M 36 0 rL SGR
GSN 4220 3678 M -36 0 rL SGR
GSN 620 3877 M 36 0 rL SGR
GSN 4220 3877 M -36 0 rL SGR
GSN 620 4077 M 36 0 rL SGR
GSN 4220 4077 M -36 0 rL SGR
GSN 620 4277 M 36 0 rL SGR
GSN 4220 4277 M -36 0 rL SGR
GSN 620 4476 M 36 0 rL SGR
GSN 4220 4476 M -36 0 rL SGR
GSN 620 4676 M 36 0 rL SGR
GSN 4220 4676 M -36 0 rL SGR
GSN 620 4876 M 36 0 rL SGR
GSN 4220 4876 M -36 0 rL SGR
GSN 620 5075 M 36 0 rL SGR
GSN 4220 5075 M -36 0 rL SGR
GSN 620 5275 M 36 0 rL SGR
GSN 4220 5275 M -36 0 rL SGR

%
% X-Axis label:
%
gsave 2420 290 M 
[
[(Helvetica) 180 0 true true 0 (t)]
[(Helvetica) 180 0 true true 0 (i)]
[(Helvetica) 180 0 true true 0 (m)]
[(Helvetica) 180 0 true true 0 (e)]
] 0 MCshow grestore

%
% Y-Axis label:
%
gsave 234 3499 M 
currentpoint gsave translate 90 rotate 0 0 moveto
[
[(Helvetica) 180 0 true true 0 (s)]
[(Helvetica) 180 0 true true 0 (i)]
[(Helvetica) 180 0 true true 0 (g)]
[(Helvetica) 180 0 true true 0 (n)]
[(Helvetica) 180 0 true true 0 (a)]
[(Helvetica) 180 0 true true 0 (l)]
] 0 MCshow grestore

%
% Residuals:
%
gsave 129 1160 M 
currentpoint gsave translate 90 rotate 0 0 moveto
[
[(Helvetica) 150 0 true true 0 (r)]
[(Helvetica) 150 0 true true 0 (e)]
[(Helvetica) 150 0 true true 0 (s)]
[(Helvetica) 150 0 true true 0 (i)]
[(Helvetica) 150 0 true true 0 (d)]
[(Helvetica) 150 0 true true 0 (u)]
[(Helvetica) 150 0 true true 0 (a)]
[(Helvetica) 150 0 true true 0 (l)]
[(Helvetica) 150 0 true true 0 (s)]
] 0 MCshow grestore

%
% Residual frame
%
L10
GSN 
620 620 M
4220 620 L
4220 1700 L
620 1700 L
closepath SGR
%
% X axis: large tics - residual frame
%
L10
GSN 1074 620 M 0  54 rL SGR
GSN 1074 1700 M 0 -54 rL SGR
GSN 1572 620 M 0  54 rL SGR
GSN 1572 1700 M 0 -54 rL SGR
GSN 2071 620 M 0  54 rL SGR
GSN 2071 1700 M 0 -54 rL SGR
GSN 2570 620 M 0  54 rL SGR
GSN 2570 1700 M 0 -54 rL SGR
GSN 3068 620 M 0  54 rL SGR
GSN 3068 1700 M 0 -54 rL SGR
GSN 3567 620 M 0  54 rL SGR
GSN 3567 1700 M 0 -54 rL SGR
GSN 4066 620 M 0  54 rL SGR
GSN 4066 1700 M 0 -54 rL SGR
%
% X axis: small tics - residual frame
%
L5
GSN 725 620 M 0  36 rL SGR
GSN 725 1700 M 0 -36 rL SGR
GSN 813 620 M 0  36 rL SGR
GSN 813 1700 M 0 -36 rL SGR
GSN 875 620 M 0  36 rL SGR
GSN 875 1700 M 0 -36 rL SGR
GSN 924 620 M 0  36 rL SGR
GSN 924 1700 M 0 -36 rL SGR
GSN 963 620 M 0  36 rL SGR
GSN 963 1700 M 0 -36 rL SGR
GSN 996 620 M 0  36 rL SGR
GSN 996 1700 M 0 -36 rL SGR
GSN 1025 620 M 0  36 rL SGR
GSN 1025 1700 M 0 -36 rL SGR
GSN 1051 620 M 0  36 rL SGR
GSN 1051 1700 M 0 -36 rL SGR
GSN 1224 620 M 0  36 rL SGR
GSN 1224 1700 M 0 -36 rL SGR
GSN 1312 620 M 0  36 rL SGR
GSN 1312 1700 M 0 -36 rL SGR
GSN 1374 620 M 0  36 rL SGR
GSN 1374 1700 M 0 -36 rL SGR
GSN 1422 620 M 0  36 rL SGR
GSN 1422 1700 M 0 -36 rL SGR
GSN 1462 620 M 0  36 rL SGR
GSN 1462 1700 M 0 -36 rL SGR
GSN 1495 620 M 0  36 rL SGR
GSN 1495 1700 M 0 -36 rL SGR
GSN 1524 620 M 0  36 rL SGR
GSN 1524 1700 M 0 -36 rL SGR
GSN 1550 620 M 0  36 rL SGR
GSN 1550 1700 M 0 -36 rL SGR
GSN 1722 620 M 0  36 rL SGR
GSN 1722 1700 M 0 -36 rL SGR
GSN 1810 620 M 0  36 rL SGR
GSN 1810 1700 M 0 -36 rL SGR
GSN 1873 620 M 0  36 rL SGR
GSN 1873 1700 M 0 -36 rL SGR
GSN 1921 620 M 0  36 rL SGR
GSN 1921 1700 M 0 -36 rL SGR
GSN 1960 620 M 0  36 rL SGR
GSN 1960 1700 M 0 -36 rL SGR
GSN 1994 620 M 0  36 rL SGR
GSN 1994 1700 M 0 -36 rL SGR
GSN 2023 620 M 0  36 rL SGR
GSN 2023 1700 M 0 -36 rL SGR
GSN 2048 620 M 0  36 rL SGR
GSN 2048 1700 M 0 -36 rL SGR
GSN 2221 620 M 0  36 rL SGR
GSN 2221 1700 M 0 -36 rL SGR
GSN 2309 620 M 0  36 rL SGR
GSN 2309 1700 M 0 -36 rL SGR
GSN 2371 620 M 0  36 rL SGR
GSN 2371 1700 M 0 -36 rL SGR
GSN 2420 620 M 0  36 rL SGR
GSN 2420 1700 M 0 -36 rL SGR
GSN 2459 620 M 0  36 rL SGR
GSN 2459 1700 M 0 -36 rL SGR
GSN 2492 620 M 0  36 rL SGR
GSN 2492 1700 M 0 -36 rL SGR
GSN 2521 620 M 0  36 rL SGR
GSN 2521 1700 M 0 -36 rL SGR
GSN 2547 620 M 0  36 rL SGR
GSN 2547 1700 M 0 -36 rL SGR
GSN 2720 620 M 0  36 rL SGR
GSN 2720 1700 M 0 -36 rL SGR
GSN 2808 620 M 0  36 rL SGR
GSN 2808 1700 M 0 -36 rL SGR
GSN 2870 620 M 0  36 rL SGR
GSN 2870 1700 M 0 -36 rL SGR
GSN 2918 620 M 0  36 rL SGR
GSN 2918 1700 M 0 -36 rL SGR
GSN 2958 620 M 0  36 rL SGR
GSN 2958 1700 M 0 -36 rL SGR
GSN 2991 620 M 0  36 rL SGR
GSN 2991 1700 M 0 -36 rL SGR
GSN 3020 620 M 0  36 rL SGR
GSN 3020 1700 M 0 -36 rL SGR
GSN 3045 620 M 0  36 rL SGR
GSN 3045 1700 M 0 -36 rL SGR
GSN 3218 620 M 0  36 rL SGR
GSN 3218 1700 M 0 -36 rL SGR
GSN 3306 620 M 0  36 rL SGR
GSN 3306 1700 M 0 -36 rL SGR
GSN 3368 620 M 0  36 rL SGR
GSN 3368 1700 M 0 -36 rL SGR
GSN 3417 620 M 0  36 rL SGR
GSN 3417 1700 M 0 -36 rL SGR
GSN 3456 620 M 0  36 rL SGR
GSN 3456 1700 M 0 -36 rL SGR
GSN 3490 620 M 0  36 rL SGR
GSN 3490 1700 M 0 -36 rL SGR
GSN 3519 620 M 0  36 rL SGR
GSN 3519 1700 M 0 -36 rL SGR
GSN 3544 620 M 0  36 rL SGR
GSN 3544 1700 M 0 -36 rL SGR
GSN 3717 620 M 0  36 rL SGR
GSN 3717 1700 M 0 -36 rL SGR
GSN 3805 620 M 0  36 rL SGR
GSN 3805 1700 M 0 -36 rL SGR
GSN 3867 620 M 0  36 rL SGR
GSN 3867 1700 M 0 -36 rL SGR
GSN 3915 620 M 0  36 rL SGR
GSN 3915 1700 M 0 -36 rL SGR
GSN 3955 620 M 0  36 rL SGR
GSN 3955 1700 M 0 -36 rL SGR
GSN 3988 620 M 0  36 rL SGR
GSN 3988 1700 M 0 -36 rL SGR
GSN 4017 620 M 0  36 rL SGR
GSN 4017 1700 M 0 -36 rL SGR
GSN 4043 620 M 0  36 rL SGR
GSN 4043 1700 M 0 -36 rL SGR
GSN 4216 620 M 0  36 rL SGR
GSN 4216 1700 M 0 -36 rL SGR
%
% Y axis: large tics - residual frame
%
L10
GSN 620 713 M 54 0 rL SGR
GSN 4220 713 M -54 0 rL SGR
helvS (-0.02) 560 713 ylabelresid
GSN 620 939 M 54 0 rL SGR
GSN 4220 939 M -54 0 rL SGR
helvS (-0.01) 560 939 ylabelresid
GSN 620 1166 M 54 0 rL SGR
GSN 4220 1166 M -54 0 rL SGR
helvS (0) 560 1166 ylabelresid
GSN 620 1392 M 54 0 rL SGR
GSN 4220 1392 M -54 0 rL SGR
helvS (0.01) 560 1392 ylabelresid
GSN 620 1618 M 54 0 rL SGR
GSN 4220 1618 M -54 0 rL SGR
helvS (0.02) 560 1618 ylabelresid

%
% X axis - residual panel
%
GSN L5 620 1166 M 4220 1166 L SDA G50 SGR

end
showpage
%%Trailer
%%EOF
