%!PS-Adobe-3.0 EPSF-3.0
%%BoundingBox: 0 0 514 550
%%Creator: BioKin Ltd.
%%DocumentFonts: Symbol Helvetica
%%EndComments
%
/bkdict 256 dict def
bkdict begin
/M {moveto} def 
/R {rmoveto} def
/L {lineto} def
/rL {rlineto} def
/GSN {gsave newpath} def
/SGR {stroke grestore} def
/COSGR {gsave setrgbcolor stroke grestore grestore} def
/SL {setlinewidth} def
/LWMB {12} def             % line width - model curves, black & white
/LWMC {10} def             % line width - model curves, color
/L2 {2.5 setlinewidth} def
/L5 {5 setlinewidth} def
/L10 {10 setlinewidth} def
/G50 {0.5 setgray} def
/SDA {[10  20] 0 setdash} def % axes
/helvT {/Helvetica findfont 100 scalefont setfont} def % tiny
/helvS {/Helvetica findfont 125 scalefont setfont} def % small
/helvM {/Helvetica findfont 150 scalefont setfont} def % medium
/helvL {/Helvetica findfont 175 scalefont setfont} def % large
/xlabel {gsave M dup
   stringwidth exch -0.5 mul exch rmoveto show grestore} def 
/ylabel {gsave M 90 rotate dup
   stringwidth exch -0.5 mul exch rmoveto show grestore} def
/ylabelresid {gsave M dup
   stringwidth exch -1 mul exch rmoveto show grestore} def
% ======
% Shapes
% ======
% Circle:
/Circ {0 360 arc closepath} def
%
% Square:
/Squa {dup dup -0.5 mul dup dup R -2 mul 0 exch rL 1 mul 0 rL dup 0 exch -1 mul rL closepath} def
%
% Triangle Up:
/TriU {dup dup dup -0.4 mul exch -0.5 mul exch R dup 0.5 mul exch rL dup -1 mul exch 0.5 mul exch rL closepath} def 
%
% Triangle Down:
/TriD {dup dup dup 0.4 mul exch -0.5 mul exch R dup 0.5 mul exch -1 mul rL dup 0.5 mul exch rL closepath} def 
%
% Diamond:
/Diam {45 rotate Squa} def
% ======
% Fills
% ======
/GRF {gsave setgray fill grestore} def                    % gray-level Fill
/COF {gsave setrgbcolor fill grestore} def                % color fill
% ======
% Colors
% ======
/C01 {1.00	0.00	0.00} def      % Red
/C02 {0.00	0.00	1.00} def      % Blue
/C03 {0.00	0.39	0.00} def      % Dark Green
/C04 {0.78	0.08	0.52} def      % Medium Violet Red
/C05 {0.55	0.27	0.07} def      % Saddle Brown
/C06 {0.10	0.70	0.70} def      % (cyan)
/C07 {1.00	0.55	0.00} def      % Dark Orange
/C08 {0.63	0.13	0.94} def      % Purple
/C09 {0.00	0.75	1.00} def      % Deep Sky Blue
/C10 {0.20	0.80	0.20} def      % Lime Green
/C11 {0.47	0.53	0.60} def      % Light Slate Gray
/C12 {0.00	0.00	0.00} def      % Black            % or: {0.19	0.31	0.31} def      % Dark Slate Gray
%
/LGR {0.75} def % light gray
/DGR {0.33} def % dark gray
%
% =============
% Dash patterns
% =============
/dash01 { [80  20] 0 setdash } def
/dash02 { [40  20] 0 setdash } def
/dash03 { [80  20  10  20] 0 setdash } def
/dash04 { [40  20  10  20] 0 setdash } def
/dash05 { [80  20  10  10  10  20] 0 setdash } def
/dash06 { [40  20  10  10  10  20] 0 setdash } def
/dash07 { [10  10] 0 setdash } def
%
/MFshow {
   { dup 5 get 3 ge
     { 5 get 3 eq {gsave} {grestore} ifelse }
     {dup dup 0 get findfont exch 1 get scalefont setfont
     [ currentpoint ] exch dup 2 get 0 exch R dup 5 get 2 ne {dup dup 6
     get exch 4 get {show} {stringwidth pop 0 R} ifelse }if dup 5 get 0 eq
     {dup 3 get {2 get neg 0 exch R pop} {pop aload pop M} ifelse} {dup 5
     get 1 eq {dup 2 get exch dup 3 get exch 6 get stringwidth pop -2 div
     dup 0 R} {dup 6 get stringwidth pop -2 div 0 R 6 get
     show 2 index {aload pop M neg 3 -1 roll neg R pop pop} {pop pop pop
     pop aload pop M} ifelse }ifelse }ifelse }
     ifelse }
   forall} bind def
/MFwidth {0 exch {dup 3 get{dup dup 0 get findfont exch 1 get scalefont
     setfont 6 get stringwidth pop add} {pop} ifelse} forall} bind def
/MCshow { currentpoint stroke M
  exch dup MFwidth -2 div 3 -1 roll R MFshow } def
%
end
%%EndProlog
bkdict begin
0.1 0.1 scale
%
% Model curves:
%

GSN 753 5158 M
753 5158 L
786 5158 L
820 5159 L
853 5160 L
886 5160 L
903 5161 L
919 5161 L
953 5162 L
986 5163 L
1020 5164 L
1053 5164 L
1053 5164 L
1086 5165 L
1120 5166 L
1153 5166 L
1186 5166 L
1203 5166 L
1220 5166 L
1253 5165 L
1286 5164 L
1320 5163 L
1353 5161 L
1353 5161 L
1386 5159 L
1420 5156 L
1453 5152 L
1486 5148 L
1503 5146 L
1520 5143 L
1553 5138 L
1586 5131 L
1620 5123 L
1653 5114 L
1653 5114 L
1686 5104 L
1720 5092 L
1753 5078 L
1786 5063 L
1804 5053 L
1820 5044 L
1853 5023 L
1886 4999 L
1920 4971 L
1953 4939 L
1954 4939 L
1986 4903 L
2020 4862 L
2053 4816 L
2086 4764 L
2104 4734 L
2120 4706 L
2153 4641 L
2186 4570 L
2220 4492 L
2253 4407 L
2254 4404 L
2286 4315 L
2320 4217 L
2353 4113 L
2386 4004 L
2404 3945 L
2420 3892 L
2453 3777 L
2486 3661 L
2520 3545 L
2553 3431 L
2554 3427 L
2586 3320 L
2620 3213 L
2653 3111 L
2686 3015 L
2704 2966 L
2720 2926 L
2753 2845 L
2786 2771 L
2820 2705 L
2853 2646 L
2854 2644 L
2886 2595 L
2920 2551 L
2953 2515 L
2986 2484 L
3004 2470 L
3020 2460 L
3053 2441 L
3068 2434 L
3086 2427 L
3120 2417 L
3153 2410 L
3155 2410 L
3186 2406 L
3220 2404 L
3253 2403 L
3286 2403 L
3305 2402 L
3320 2402 L
3353 2402 L
3386 2402 L
3420 2402 L
3453 2402 L
3455 2402 L
3486 2402 L
3520 2402 L
3553 2402 L
3586 2402 L
3605 2402 L
3620 2402 L
3653 2402 L
3686 2402 L
3720 2402 L
3753 2402 L
3755 2402 L
3786 2402 L
3820 2402 L
3853 2402 L
3886 2402 L
3905 2402 L
3920 2402 L
3953 2402 L
3986 2402 L
4020 2402 L
4053 2402 L
4086 2402 L
LWMC SL  C02 COSGR

%
% Experimental data:
%
GSN 773 4739 M
1625 4434 L
1773 4929 L
1860 4674 L
1922 5012 L
1970 4747 L
2009 4815 L
2043 4793 L
2072 4616 L
2097 4468 L
2120 4648 L
2140 4544 L
2159 4784 L
2176 4479 L
2192 4557 L
2207 4512 L
2221 4516 L
2234 4419 L
2247 4332 L
2259 4337 L
2270 4153 L
2280 4192 L
2290 4390 L
2300 4213 L
2309 4105 L
2318 4397 L
2326 4224 L
2335 4244 L
2342 4163 L
2350 4256 L
2357 4153 L
2364 3908 L
2371 4185 L
2378 3878 L
2384 4235 L
2391 4224 L
2397 3839 L
2403 4204 L
2409 3649 L
2414 4211 L
2420 3979 L
2425 4109 L
2430 3813 L
2435 4066 L
2440 4018 L
2445 3823 L
2450 3789 L
2455 3832 L
2459 3980 L
2464 3863 L
2468 3811 L
2472 3953 L
2476 3765 L
2481 3741 L
2485 3754 L
2489 3774 L
2492 3651 L
2496 3858 L
2500 3770 L
2504 3583 L
2507 3556 L
2511 3902 L
2514 3464 L
2518 3813 L
2521 3469 L
2525 3716 L
2528 3320 L
2531 3542 L
2534 3278 L
2538 3532 L
2541 3555 L
2544 3391 L
2547 3361 L
2550 3588 L
2553 3203 L
2556 3177 L
2559 3573 L
2561 3203 L
2564 3203 L
2567 3344 L
2570 3577 L
2580 3099 L
2590 3064 L
2600 3222 L
2609 3192 L
2618 3127 L
2627 3213 L
2635 3125 L
2643 2891 L
2650 2813 L
2658 2716 L
2665 2833 L
2672 2870 L
2678 2904 L
2685 2521 L
2691 2621 L
2697 2887 L
2703 2768 L
2709 2446 L
2714 2917 L
2720 2820 L
2725 2696 L
2730 2705 L
2735 2614 L
2740 2658 L
2745 2459 L
2750 2238 L
2755 2428 L
2759 2337 L
2764 2582 L
2768 2567 L
2772 2595 L
2777 2506 L
2781 2314 L
2785 2302 L
2789 2554 L
2793 2168 L
2796 2430 L
2800 2026 L
2804 2485 L
2808 2151 L
2811 2177 L
2815 2261 L
2818 2530 L
2822 2292 L
2825 2592 L
2828 2538 L
2831 2030 L
2835 2314 L
2838 2045 L
2841 2346 L
2844 2246 L
2847 2121 L
2850 1833 L
2853 2367 L
2856 2091 L
2859 2160 L
2862 2357 L
2864 2458 L
2867 2197 L
2870 2205 L
2873 1983 L
2875 2024 L
2878 1991 L
2880 2179 L
2883 2223 L
2886 2335 L
2888 2127 L
2891 2357 L
2893 2201 L
2895 2143 L
2898 2142 L
2900 2058 L
2902 1948 L
2905 2060 L
2907 2097 L
2909 2043 L
2912 1993 L
2914 2140 L
2916 2103 L
2918 2164 L
2920 2320 L
2922 2370 L
2925 2404 L
2927 2136 L
2929 2331 L
2931 2558 L
2933 2188 L
2935 2240 L
2937 2160 L
2939 2458 L
2941 2099 L
2943 2143 L
2945 2320 L
2947 2337 L
2948 2257 L
2950 2069 L
2952 2344 L
2954 2370 L
2956 2214 L
2958 2127 L
2959 2348 L
2961 2324 L
2963 2277 L
2965 2021 L
2966 2346 L
2968 2184 L
2970 2260 L
2972 2097 L
2973 2666 L
2975 2430 L
2977 2086 L
2978 2577 L
2980 2110 L
2982 2352 L
2983 2551 L
2985 2361 L
2986 2426 L
2988 2454 L
2989 2545 L
2991 2433 L
2993 2552 L
2994 2008 L
2996 2169 L
2997 2398 L
2999 2294 L
3000 2311 L
3002 2251 L
3003 2359 L
3005 2262 L
3006 2318 L
3007 2355 L
3009 2536 L
3010 2452 L
3012 2381 L
3013 2497 L
3014 2272 L
3016 2357 L
3017 2225 L
3019 2322 L
3020 2302 L
3021 2552 L
3023 2405 L
3024 2318 L
3025 2324 L
3027 2510 L
3028 2733 L
3029 2378 L
3031 2534 L
3032 2173 L
3033 2352 L
3034 2383 L
3036 2404 L
3037 2342 L
3038 2514 L
3039 2579 L
3041 2432 L
3042 2630 L
3043 2307 L
3044 2063 L
3045 2545 L
3047 2244 L
3048 2642 L
3049 2668 L
3050 2476 L
3051 2026 L
3053 2454 L
3054 2686 L
3055 2500 L
3056 2294 L
3057 2532 L
3058 2586 L
3059 2709 L
3061 2435 L
3062 2445 L
3063 2532 L
3064 2597 L
3065 2499 L
3066 2543 L
3067 2504 L
3068 2534 L
3069 2355 L
3070 2450 L
3071 2629 L
3073 2510 L
3074 2404 L
3075 2512 L
3076 2461 L
3077 2439 L
3078 2387 L
3079 2145 L
3080 2303 L
3081 2528 L
3082 2664 L
3083 2504 L
3084 2554 L
3085 2655 L
3086 2409 L
3087 2604 L
3088 2510 L
3089 2412 L
3112 2672 L
3133 2600 L
3152 2999 L
3170 2717 L
3186 2573 L
3201 2558 L
3216 2451 L
3229 2729 L
3241 2573 L
3253 2816 L
3264 2647 L
3275 2895 L
3285 2875 L
3295 2831 L
3304 3017 L
3313 2853 L
3322 2791 L
3330 2848 L
3338 2992 L
3346 2945 L
3353 2722 L
3360 2984 L
3367 2786 L
3374 2764 L
3380 3019 L
3387 2536 L
3393 2893 L
3399 2759 L
3405 2908 L
3410 2987 L
3416 2600 L
3421 2647 L
3426 2945 L
3431 3012 L
3436 2927 L
3441 2687 L
3446 2439 L
3451 2883 L
3455 2615 L
3460 2563 L
3464 2779 L
3469 2965 L
3473 2553 L
3477 2677 L
3481 2818 L
3485 2692 L
3489 2853 L
3493 2868 L
3496 3074 L
3500 2898 L
3504 3034 L
3507 2632 L
3511 2898 L
3514 2786 L
3518 3024 L
3521 2620 L
3525 2494 L
3528 2452 L
3531 2947 L
3534 2699 L
3537 2990 L
3540 2774 L
3543 2771 L
3546 2801 L
3549 2823 L
3552 2811 L
3555 2585 L
3558 2670 L
3561 2821 L
3564 2828 L
3566 2647 L
3575 2516 L
3586 2660 L
3595 2677 L
3605 2558 L
3613 2561 L
3622 2575 L
3630 2617 L
3638 2811 L
3646 2821 L
3653 2588 L
3660 2719 L
3667 2404 L
3674 2561 L
3681 2536 L
3687 2724 L
3693 2841 L
3699 2387 L
3705 2717 L
3710 2427 L
3716 2427 L
3721 2471 L
3727 2536 L
3732 2466 L
3737 2449 L
3742 2593 L
3746 2504 L
3751 2685 L
3756 2427 L
3760 2429 L
3764 2729 L
3769 2352 L
3773 2704 L
3777 2481 L
3781 2647 L
3785 2548 L
3789 2670 L
3793 2399 L
3797 2553 L
3800 2454 L
3804 2409 L
3808 2496 L
3811 2526 L
3815 2680 L
3818 2144 L
3821 2702 L
3825 2434 L
3828 2380 L
3831 2645 L
3834 2340 L
3838 2449 L
3841 2409 L
3844 2397 L
3847 2399 L
3850 2300 L
3853 2677 L
3855 2288 L
3858 2350 L
3861 2389 L
3864 2275 L
3867 2231 L
3869 2441 L
3872 2595 L
3875 2439 L
3877 2491 L
3880 2553 L
3882 2756 L
3885 2511 L
3887 2632 L
3890 2794 L
3892 2622 L
3895 2399 L
3897 2452 L
3899 2727 L
3902 2466 L
3904 2456 L
3906 2124 L
3908 2692 L
3911 2228 L
3913 2412 L
3915 2523 L
3917 2434 L
3919 2290 L
3921 2407 L
3923 2598 L
3926 2553 L
3928 2657 L
3930 2769 L
3932 2394 L
3934 2838 L
3936 2447 L
3938 2491 L
3940 2305 L
3942 2494 L
3943 2332 L
3945 2578 L
3947 2362 L
3949 2518 L
3951 2404 L
3953 2486 L
3955 2513 L
3956 2330 L
3958 2632 L
3960 2278 L
3962 2598 L
3963 2501 L
3965 2620 L
3967 2392 L
3969 2208 L
3970 2290 L
3972 2273 L
3974 2429 L
3975 2528 L
3977 2429 L
3978 2347 L
3980 2699 L
3982 2293 L
3983 2734 L
3985 2667 L
3986 2042 L
3988 2275 L
3990 2399 L
3991 2714 L
3993 2308 L
3994 2553 L
3996 2531 L
3997 2253 L
3999 2119 L
4000 2360 L
4001 2436 L
4003 2511 L
4004 2531 L
4006 2394 L
4007 2424 L
4009 2583 L
4010 2290 L
4011 2290 L
4013 2556 L
4014 2518 L
4016 2412 L
4017 2290 L
4018 2402 L
4020 2650 L
4021 2218 L
4022 2090 L
4024 2144 L
4025 2531 L
4026 2432 L
4028 2283 L
4029 2662 L
4030 2511 L
4031 2313 L
4033 2231 L
4034 2275 L
4035 2347 L
4036 2392 L
4038 2298 L
4039 2199 L
4040 2576 L
4041 2295 L
4042 2372 L
4044 2689 L
4045 2347 L
4046 2097 L
4047 2474 L
4048 2164 L
4050 2566 L
4051 2496 L
4052 2412 L
4053 2268 L
4054 2635 L
4055 2218 L
4056 2451 L
4058 2355 L
4059 2642 L
4060 2456 L
4061 2370 L
4062 2449 L
4063 2486 L
4064 2605 L
4065 2407 L
4066 2459 L
L2 C02 COSGR

%
%================
% Legend - Begin
%================
%
GSN 4240 5180 M
4480 5180 L
LWMC SL  C02 COSGR
GSN 4540 5141 M helvM (1.0 uM) show grestore
%
%================
% Legend - End
%================
%

%
% Residuals:
%
GSN 773 970 M
1625 822 L
1773 1123 L
1860 1011 L
1922 1224 L
1970 1104 L
2009 1167 L
2043 1179 L
2072 1106 L
2097 1047 L
2120 1168 L
2140 1133 L
2159 1285 L
2176 1138 L
2192 1200 L
2207 1195 L
2221 1216 L
2234 1181 L
2247 1150 L
2259 1170 L
2270 1086 L
2280 1123 L
2290 1247 L
2300 1166 L
2309 1121 L
2318 1296 L
2326 1215 L
2335 1240 L
2342 1209 L
2350 1273 L
2357 1230 L
2364 1108 L
2371 1272 L
2378 1115 L
2384 1323 L
2391 1329 L
2397 1129 L
2403 1340 L
2409 1046 L
2414 1365 L
2420 1247 L
2425 1329 L
2430 1176 L
2435 1325 L
2440 1308 L
2445 1210 L
2450 1201 L
2455 1233 L
2459 1323 L
2464 1267 L
2468 1247 L
2472 1333 L
2476 1238 L
2481 1233 L
2485 1247 L
2489 1266 L
2492 1206 L
2496 1327 L
2500 1286 L
2504 1190 L
2507 1183 L
2511 1380 L
2514 1145 L
2518 1344 L
2521 1161 L
2525 1304 L
2528 1092 L
2531 1220 L
2534 1081 L
2538 1227 L
2541 1245 L
2544 1161 L
2547 1150 L
2550 1280 L
2553 1074 L
2556 1066 L
2559 1288 L
2561 1090 L
2564 1096 L
2567 1178 L
2570 1311 L
2580 1068 L
2590 1067 L
2600 1171 L
2609 1171 L
2618 1150 L
2627 1212 L
2635 1178 L
2643 1062 L
2650 1032 L
2658 991 L
2665 1066 L
2672 1098 L
2678 1126 L
2685 926 L
2691 991 L
2697 1146 L
2703 1089 L
2709 921 L
2714 1187 L
2720 1142 L
2725 1081 L
2730 1093 L
2735 1050 L
2740 1081 L
2745 978 L
2750 863 L
2755 973 L
2759 929 L
2764 1069 L
2768 1066 L
2772 1087 L
2777 1043 L
2781 943 L
2785 940 L
2789 1084 L
2793 876 L
2796 1024 L
2800 806 L
2804 1063 L
2808 883 L
2811 901 L
2815 951 L
2818 1102 L
2822 975 L
2825 1143 L
2828 1117 L
2831 841 L
2835 1001 L
2838 855 L
2841 1024 L
2844 972 L
2847 906 L
2850 750 L
2853 1046 L
2856 898 L
2859 938 L
2862 1049 L
2864 1106 L
2867 966 L
2870 972 L
2873 853 L
2875 877 L
2878 861 L
2880 966 L
2883 993 L
2886 1056 L
2888 944 L
2891 1072 L
2893 988 L
2895 959 L
2898 959 L
2900 915 L
2902 857 L
2905 919 L
2907 942 L
2909 914 L
2912 888 L
2914 970 L
2916 951 L
2918 986 L
2920 1073 L
2922 1102 L
2925 1122 L
2927 976 L
2929 1085 L
2931 1211 L
2933 1009 L
2935 1038 L
2937 996 L
2939 1161 L
2941 965 L
2943 990 L
2945 1088 L
2947 1099 L
2948 1056 L
2950 954 L
2952 1106 L
2954 1121 L
2956 1036 L
2958 989 L
2959 1112 L
2961 1099 L
2963 1075 L
2965 935 L
2966 1114 L
2968 1027 L
2970 1069 L
2972 980 L
2973 1294 L
2975 1165 L
2977 976 L
2978 1247 L
2980 991 L
2982 1125 L
2983 1235 L
2985 1131 L
2986 1168 L
2988 1184 L
2989 1235 L
2991 1174 L
2993 1240 L
2994 941 L
2996 1031 L
2997 1157 L
2999 1101 L
3000 1111 L
3002 1078 L
3003 1138 L
3005 1086 L
3006 1117 L
3007 1138 L
3009 1237 L
3010 1192 L
3012 1154 L
3013 1218 L
3014 1095 L
3016 1142 L
3017 1070 L
3019 1124 L
3020 1113 L
3021 1251 L
3023 1171 L
3024 1124 L
3025 1127 L
3027 1230 L
3028 1353 L
3029 1158 L
3031 1244 L
3032 1046 L
3033 1145 L
3034 1163 L
3036 1174 L
3037 1141 L
3038 1235 L
3039 1272 L
3041 1191 L
3042 1301 L
3043 1124 L
3044 990 L
3045 1255 L
3047 1090 L
3048 1309 L
3049 1323 L
3050 1218 L
3051 972 L
3053 1207 L
3054 1335 L
3055 1233 L
3056 1120 L
3057 1251 L
3058 1281 L
3059 1349 L
3061 1199 L
3062 1204 L
3063 1252 L
3064 1289 L
3065 1235 L
3066 1259 L
3067 1238 L
3068 1255 L
3069 1157 L
3070 1209 L
3071 1308 L
3073 1242 L
3074 1184 L
3075 1244 L
3076 1217 L
3077 1205 L
3078 1176 L
3079 1044 L
3080 1131 L
3081 1254 L
3082 1329 L
3083 1242 L
3084 1269 L
3085 1325 L
3086 1190 L
3087 1297 L
3088 1246 L
3089 1192 L
3112 1339 L
3133 1302 L
3152 1523 L
3170 1369 L
3186 1291 L
3201 1284 L
3216 1226 L
3229 1379 L
3241 1293 L
3253 1427 L
3264 1334 L
3275 1470 L
3285 1459 L
3295 1435 L
3304 1537 L
3313 1447 L
3322 1413 L
3330 1445 L
3338 1524 L
3346 1498 L
3353 1375 L
3360 1520 L
3367 1411 L
3374 1398 L
3380 1539 L
3387 1273 L
3393 1469 L
3399 1396 L
3405 1477 L
3410 1521 L
3416 1308 L
3421 1334 L
3426 1498 L
3431 1535 L
3436 1488 L
3441 1356 L
3446 1220 L
3451 1464 L
3455 1317 L
3460 1288 L
3464 1407 L
3469 1509 L
3473 1283 L
3477 1351 L
3481 1428 L
3485 1359 L
3489 1447 L
3493 1456 L
3496 1569 L
3500 1472 L
3504 1547 L
3507 1326 L
3511 1472 L
3514 1411 L
3518 1541 L
3521 1319 L
3525 1250 L
3528 1227 L
3531 1499 L
3534 1363 L
3537 1522 L
3540 1404 L
3543 1402 L
3546 1419 L
3549 1431 L
3552 1424 L
3555 1300 L
3558 1347 L
3561 1430 L
3564 1434 L
3566 1334 L
3575 1262 L
3586 1341 L
3595 1351 L
3605 1285 L
3613 1287 L
3622 1295 L
3630 1318 L
3638 1424 L
3646 1430 L
3653 1302 L
3660 1374 L
3667 1201 L
3674 1287 L
3681 1273 L
3687 1377 L
3693 1441 L
3699 1191 L
3705 1373 L
3710 1213 L
3716 1213 L
3721 1238 L
3727 1273 L
3732 1235 L
3737 1225 L
3742 1304 L
3746 1255 L
3751 1355 L
3756 1213 L
3760 1215 L
3764 1379 L
3769 1172 L
3773 1366 L
3777 1243 L
3781 1334 L
3785 1280 L
3789 1347 L
3793 1198 L
3797 1283 L
3800 1228 L
3804 1204 L
3808 1251 L
3811 1268 L
3815 1352 L
3818 1058 L
3821 1364 L
3825 1217 L
3828 1187 L
3831 1333 L
3834 1166 L
3838 1225 L
3841 1204 L
3844 1197 L
3847 1198 L
3850 1144 L
3853 1351 L
3855 1137 L
3858 1171 L
3861 1193 L
3864 1130 L
3867 1106 L
3869 1221 L
3872 1306 L
3875 1220 L
3877 1249 L
3880 1283 L
3882 1394 L
3885 1259 L
3887 1326 L
3890 1415 L
3892 1321 L
3895 1198 L
3897 1227 L
3899 1378 L
3902 1235 L
3904 1230 L
3906 1047 L
3908 1359 L
3911 1104 L
3913 1205 L
3915 1266 L
3917 1217 L
3919 1138 L
3921 1202 L
3923 1307 L
3926 1283 L
3928 1340 L
3930 1401 L
3932 1195 L
3934 1439 L
3936 1224 L
3938 1249 L
3940 1146 L
3942 1250 L
3943 1161 L
3945 1296 L
3947 1178 L
3949 1264 L
3951 1201 L
3953 1246 L
3955 1261 L
3956 1160 L
3958 1326 L
3960 1131 L
3962 1307 L
3963 1254 L
3965 1319 L
3967 1194 L
3969 1093 L
3970 1138 L
3972 1129 L
3974 1215 L
3975 1269 L
3977 1215 L
3978 1170 L
3980 1363 L
3982 1140 L
3983 1382 L
3985 1345 L
3986 1002 L
3988 1130 L
3990 1198 L
3991 1371 L
3993 1148 L
3994 1283 L
3996 1270 L
3997 1118 L
3999 1044 L
4000 1176 L
4001 1219 L
4003 1259 L
4004 1270 L
4006 1195 L
4007 1212 L
4009 1299 L
4010 1138 L
4011 1138 L
4013 1284 L
4014 1264 L
4016 1205 L
4017 1138 L
4018 1200 L
4020 1336 L
4021 1099 L
4022 1028 L
4024 1058 L
4025 1270 L
4026 1216 L
4028 1134 L
4029 1343 L
4030 1259 L
4031 1151 L
4033 1106 L
4034 1130 L
4035 1170 L
4036 1194 L
4038 1142 L
4039 1088 L
4040 1295 L
4041 1141 L
4042 1183 L
4044 1358 L
4045 1170 L
4046 1032 L
4047 1239 L
4048 1069 L
4050 1289 L
4051 1251 L
4052 1205 L
4053 1126 L
4054 1328 L
4055 1099 L
4056 1227 L
4058 1174 L
4059 1332 L
4060 1230 L
4061 1182 L
4062 1225 L
4063 1246 L
4064 1311 L
4065 1202 L
4066 1231 L
L2 C02 COSGR

%
% Main frame
%
L10
GSN 
620 1700 M
4220 1700 L
4220 5300 L
620 5300 L
closepath SGR

%
% X axis: large tics
%
L10
GSN 1074 1700 M 0  54 rL SGR
GSN 1074 5300 M 0 -54 rL SGR
helvS (0.0001) 1074 470 xlabel
GSN 1572 1700 M 0  54 rL SGR
GSN 1572 5300 M 0 -54 rL SGR
helvS (0.001) 1572 470 xlabel
GSN 2071 1700 M 0  54 rL SGR
GSN 2071 5300 M 0 -54 rL SGR
helvS (0.01) 2071 470 xlabel
GSN 2570 1700 M 0  54 rL SGR
GSN 2570 5300 M 0 -54 rL SGR
helvS (0.1) 2570 470 xlabel
GSN 3068 1700 M 0  54 rL SGR
GSN 3068 5300 M 0 -54 rL SGR
helvS (1) 3068 470 xlabel
GSN 3567 1700 M 0  54 rL SGR
GSN 3567 5300 M 0 -54 rL SGR
helvS (10) 3567 470 xlabel
GSN 4066 1700 M 0  54 rL SGR
GSN 4066 5300 M 0 -54 rL SGR
helvS (100) 4066 470 xlabel
%
% X axis: small tics
%
L5
GSN 725 1700 M 0  36 rL SGR
GSN 725 5300 M 0 -36 rL SGR
GSN 813 1700 M 0  36 rL SGR
GSN 813 5300 M 0 -36 rL SGR
GSN 875 1700 M 0  36 rL SGR
GSN 875 5300 M 0 -36 rL SGR
GSN 924 1700 M 0  36 rL SGR
GSN 924 5300 M 0 -36 rL SGR
GSN 963 1700 M 0  36 rL SGR
GSN 963 5300 M 0 -36 rL SGR
GSN 996 1700 M 0  36 rL SGR
GSN 996 5300 M 0 -36 rL SGR
GSN 1025 1700 M 0  36 rL SGR
GSN 1025 5300 M 0 -36 rL SGR
GSN 1051 1700 M 0  36 rL SGR
GSN 1051 5300 M 0 -36 rL SGR
GSN 1224 1700 M 0  36 rL SGR
GSN 1224 5300 M 0 -36 rL SGR
GSN 1312 1700 M 0  36 rL SGR
GSN 1312 5300 M 0 -36 rL SGR
GSN 1374 1700 M 0  36 rL SGR
GSN 1374 5300 M 0 -36 rL SGR
GSN 1422 1700 M 0  36 rL SGR
GSN 1422 5300 M 0 -36 rL SGR
GSN 1462 1700 M 0  36 rL SGR
GSN 1462 5300 M 0 -36 rL SGR
GSN 1495 1700 M 0  36 rL SGR
GSN 1495 5300 M 0 -36 rL SGR
GSN 1524 1700 M 0  36 rL SGR
GSN 1524 5300 M 0 -36 rL SGR
GSN 1550 1700 M 0  36 rL SGR
GSN 1550 5300 M 0 -36 rL SGR
GSN 1722 1700 M 0  36 rL SGR
GSN 1722 5300 M 0 -36 rL SGR
GSN 1810 1700 M 0  36 rL SGR
GSN 1810 5300 M 0 -36 rL SGR
GSN 1873 1700 M 0  36 rL SGR
GSN 1873 5300 M 0 -36 rL SGR
GSN 1921 1700 M 0  36 rL SGR
GSN 1921 5300 M 0 -36 rL SGR
GSN 1960 1700 M 0  36 rL SGR
GSN 1960 5300 M 0 -36 rL SGR
GSN 1994 1700 M 0  36 rL SGR
GSN 1994 5300 M 0 -36 rL SGR
GSN 2023 1700 M 0  36 rL SGR
GSN 2023 5300 M 0 -36 rL SGR
GSN 2048 1700 M 0  36 rL SGR
GSN 2048 5300 M 0 -36 rL SGR
GSN 2221 1700 M 0  36 rL SGR
GSN 2221 5300 M 0 -36 rL SGR
GSN 2309 1700 M 0  36 rL SGR
GSN 2309 5300 M 0 -36 rL SGR
GSN 2371 1700 M 0  36 rL SGR
GSN 2371 5300 M 0 -36 rL SGR
GSN 2420 1700 M 0  36 rL SGR
GSN 2420 5300 M 0 -36 rL SGR
GSN 2459 1700 M 0  36 rL SGR
GSN 2459 5300 M 0 -36 rL SGR
GSN 2492 1700 M 0  36 rL SGR
GSN 2492 5300 M 0 -36 rL SGR
GSN 2521 1700 M 0  36 rL SGR
GSN 2521 5300 M 0 -36 rL SGR
GSN 2547 1700 M 0  36 rL SGR
GSN 2547 5300 M 0 -36 rL SGR
GSN 2720 1700 M 0  36 rL SGR
GSN 2720 5300 M 0 -36 rL SGR
GSN 2808 1700 M 0  36 rL SGR
GSN 2808 5300 M 0 -36 rL SGR
GSN 2870 1700 M 0  36 rL SGR
GSN 2870 5300 M 0 -36 rL SGR
GSN 2918 1700 M 0  36 rL SGR
GSN 2918 5300 M 0 -36 rL SGR
GSN 2958 1700 M 0  36 rL SGR
GSN 2958 5300 M 0 -36 rL SGR
GSN 2991 1700 M 0  36 rL SGR
GSN 2991 5300 M 0 -36 rL SGR
GSN 3020 1700 M 0  36 rL SGR
GSN 3020 5300 M 0 -36 rL SGR
GSN 3045 1700 M 0  36 rL SGR
GSN 3045 5300 M 0 -36 rL SGR
GSN 3218 1700 M 0  36 rL SGR
GSN 3218 5300 M 0 -36 rL SGR
GSN 3306 1700 M 0  36 rL SGR
GSN 3306 5300 M 0 -36 rL SGR
GSN 3368 1700 M 0  36 rL SGR
GSN 3368 5300 M 0 -36 rL SGR
GSN 3417 1700 M 0  36 rL SGR
GSN 3417 5300 M 0 -36 rL SGR
GSN 3456 1700 M 0  36 rL SGR
GSN 3456 5300 M 0 -36 rL SGR
GSN 3490 1700 M 0  36 rL SGR
GSN 3490 5300 M 0 -36 rL SGR
GSN 3519 1700 M 0  36 rL SGR
GSN 3519 5300 M 0 -36 rL SGR
GSN 3544 1700 M 0  36 rL SGR
GSN 3544 5300 M 0 -36 rL SGR
GSN 3717 1700 M 0  36 rL SGR
GSN 3717 5300 M 0 -36 rL SGR
GSN 3805 1700 M 0  36 rL SGR
GSN 3805 5300 M 0 -36 rL SGR
GSN 3867 1700 M 0  36 rL SGR
GSN 3867 5300 M 0 -36 rL SGR
GSN 3915 1700 M 0  36 rL SGR
GSN 3915 5300 M 0 -36 rL SGR
GSN 3955 1700 M 0  36 rL SGR
GSN 3955 5300 M 0 -36 rL SGR
GSN 3988 1700 M 0  36 rL SGR
GSN 3988 5300 M 0 -36 rL SGR
GSN 4017 1700 M 0  36 rL SGR
GSN 4017 5300 M 0 -36 rL SGR
GSN 4043 1700 M 0  36 rL SGR
GSN 4043 5300 M 0 -36 rL SGR
GSN 4216 1700 M 0  36 rL SGR
GSN 4216 5300 M 0 -36 rL SGR
%
% Y axis: large tics
%
L10
GSN 620 2631 M 54 0 rL SGR
GSN 4220 2631 M -54 0 rL SGR
helvS (1.1) 560 2631 ylabel
GSN 620 3606 M 54 0 rL SGR
GSN 4220 3606 M -54 0 rL SGR
helvS (1.12) 560 3606 ylabel
GSN 620 4581 M 54 0 rL SGR
GSN 4220 4581 M -54 0 rL SGR
helvS (1.14) 560 4581 ylabel
%
% Y axis: small tics
%
L5
GSN 620 1900 M 36 0 rL SGR
GSN 4220 1900 M -36 0 rL SGR
GSN 620 2143 M 36 0 rL SGR
GSN 4220 2143 M -36 0 rL SGR
GSN 620 2387 M 36 0 rL SGR
GSN 4220 2387 M -36 0 rL SGR
GSN 620 2631 M 36 0 rL SGR
GSN 4220 2631 M -36 0 rL SGR
GSN 620 2874 M 36 0 rL SGR
GSN 4220 2874 M -36 0 rL SGR
GSN 620 3118 M 36 0 rL SGR
GSN 4220 3118 M -36 0 rL SGR
GSN 620 3362 M 36 0 rL SGR
GSN 4220 3362 M -36 0 rL SGR
GSN 620 3606 M 36 0 rL SGR
GSN 4220 3606 M -36 0 rL SGR
GSN 620 3849 M 36 0 rL SGR
GSN 4220 3849 M -36 0 rL SGR
GSN 620 4093 M 36 0 rL SGR
GSN 4220 4093 M -36 0 rL SGR
GSN 620 4337 M 36 0 rL SGR
GSN 4220 4337 M -36 0 rL SGR
GSN 620 4581 M 36 0 rL SGR
GSN 4220 4581 M -36 0 rL SGR
GSN 620 4824 M 36 0 rL SGR
GSN 4220 4824 M -36 0 rL SGR
GSN 620 5068 M 36 0 rL SGR
GSN 4220 5068 M -36 0 rL SGR

%
% X-Axis label:
%
gsave 2420 290 M 
[
[(Helvetica) 180 0 true true 0 (t)]
[(Helvetica) 180 0 true true 0 (i)]
[(Helvetica) 180 0 true true 0 (m)]
[(Helvetica) 180 0 true true 0 (e)]
] 0 MCshow grestore

%
% Y-Axis label:
%
gsave 234 3500 M 
currentpoint gsave translate 90 rotate 0 0 moveto
[
[(Helvetica) 180 0 true true 0 (s)]
[(Helvetica) 180 0 true true 0 (i)]
[(Helvetica) 180 0 true true 0 (g)]
[(Helvetica) 180 0 true true 0 (n)]
[(Helvetica) 180 0 true true 0 (a)]
[(Helvetica) 180 0 true true 0 (l)]
] 0 MCshow grestore

%
% Residuals:
%
gsave 129 1160 M 
currentpoint gsave translate 90 rotate 0 0 moveto
[
[(Helvetica) 150 0 true true 0 (r)]
[(Helvetica) 150 0 true true 0 (e)]
[(Helvetica) 150 0 true true 0 (s)]
[(Helvetica) 150 0 true true 0 (i)]
[(Helvetica) 150 0 true true 0 (d)]
[(Helvetica) 150 0 true true 0 (u)]
[(Helvetica) 150 0 true true 0 (a)]
[(Helvetica) 150 0 true true 0 (l)]
[(Helvetica) 150 0 true true 0 (s)]
] 0 MCshow grestore

%
% Residual frame
%
L10
GSN 
620 620 M
4220 620 L
4220 1700 L
620 1700 L
closepath SGR
%
% X axis: large tics - residual frame
%
L10
GSN 1074 620 M 0  54 rL SGR
GSN 1074 1700 M 0 -54 rL SGR
GSN 1572 620 M 0  54 rL SGR
GSN 1572 1700 M 0 -54 rL SGR
GSN 2071 620 M 0  54 rL SGR
GSN 2071 1700 M 0 -54 rL SGR
GSN 2570 620 M 0  54 rL SGR
GSN 2570 1700 M 0 -54 rL SGR
GSN 3068 620 M 0  54 rL SGR
GSN 3068 1700 M 0 -54 rL SGR
GSN 3567 620 M 0  54 rL SGR
GSN 3567 1700 M 0 -54 rL SGR
GSN 4066 620 M 0  54 rL SGR
GSN 4066 1700 M 0 -54 rL SGR
%
% X axis: small tics - residual frame
%
L5
GSN 725 620 M 0  36 rL SGR
GSN 725 1700 M 0 -36 rL SGR
GSN 813 620 M 0  36 rL SGR
GSN 813 1700 M 0 -36 rL SGR
GSN 875 620 M 0  36 rL SGR
GSN 875 1700 M 0 -36 rL SGR
GSN 924 620 M 0  36 rL SGR
GSN 924 1700 M 0 -36 rL SGR
GSN 963 620 M 0  36 rL SGR
GSN 963 1700 M 0 -36 rL SGR
GSN 996 620 M 0  36 rL SGR
GSN 996 1700 M 0 -36 rL SGR
GSN 1025 620 M 0  36 rL SGR
GSN 1025 1700 M 0 -36 rL SGR
GSN 1051 620 M 0  36 rL SGR
GSN 1051 1700 M 0 -36 rL SGR
GSN 1224 620 M 0  36 rL SGR
GSN 1224 1700 M 0 -36 rL SGR
GSN 1312 620 M 0  36 rL SGR
GSN 1312 1700 M 0 -36 rL SGR
GSN 1374 620 M 0  36 rL SGR
GSN 1374 1700 M 0 -36 rL SGR
GSN 1422 620 M 0  36 rL SGR
GSN 1422 1700 M 0 -36 rL SGR
GSN 1462 620 M 0  36 rL SGR
GSN 1462 1700 M 0 -36 rL SGR
GSN 1495 620 M 0  36 rL SGR
GSN 1495 1700 M 0 -36 rL SGR
GSN 1524 620 M 0  36 rL SGR
GSN 1524 1700 M 0 -36 rL SGR
GSN 1550 620 M 0  36 rL SGR
GSN 1550 1700 M 0 -36 rL SGR
GSN 1722 620 M 0  36 rL SGR
GSN 1722 1700 M 0 -36 rL SGR
GSN 1810 620 M 0  36 rL SGR
GSN 1810 1700 M 0 -36 rL SGR
GSN 1873 620 M 0  36 rL SGR
GSN 1873 1700 M 0 -36 rL SGR
GSN 1921 620 M 0  36 rL SGR
GSN 1921 1700 M 0 -36 rL SGR
GSN 1960 620 M 0  36 rL SGR
GSN 1960 1700 M 0 -36 rL SGR
GSN 1994 620 M 0  36 rL SGR
GSN 1994 1700 M 0 -36 rL SGR
GSN 2023 620 M 0  36 rL SGR
GSN 2023 1700 M 0 -36 rL SGR
GSN 2048 620 M 0  36 rL SGR
GSN 2048 1700 M 0 -36 rL SGR
GSN 2221 620 M 0  36 rL SGR
GSN 2221 1700 M 0 -36 rL SGR
GSN 2309 620 M 0  36 rL SGR
GSN 2309 1700 M 0 -36 rL SGR
GSN 2371 620 M 0  36 rL SGR
GSN 2371 1700 M 0 -36 rL SGR
GSN 2420 620 M 0  36 rL SGR
GSN 2420 1700 M 0 -36 rL SGR
GSN 2459 620 M 0  36 rL SGR
GSN 2459 1700 M 0 -36 rL SGR
GSN 2492 620 M 0  36 rL SGR
GSN 2492 1700 M 0 -36 rL SGR
GSN 2521 620 M 0  36 rL SGR
GSN 2521 1700 M 0 -36 rL SGR
GSN 2547 620 M 0  36 rL SGR
GSN 2547 1700 M 0 -36 rL SGR
GSN 2720 620 M 0  36 rL SGR
GSN 2720 1700 M 0 -36 rL SGR
GSN 2808 620 M 0  36 rL SGR
GSN 2808 1700 M 0 -36 rL SGR
GSN 2870 620 M 0  36 rL SGR
GSN 2870 1700 M 0 -36 rL SGR
GSN 2918 620 M 0  36 rL SGR
GSN 2918 1700 M 0 -36 rL SGR
GSN 2958 620 M 0  36 rL SGR
GSN 2958 1700 M 0 -36 rL SGR
GSN 2991 620 M 0  36 rL SGR
GSN 2991 1700 M 0 -36 rL SGR
GSN 3020 620 M 0  36 rL SGR
GSN 3020 1700 M 0 -36 rL SGR
GSN 3045 620 M 0  36 rL SGR
GSN 3045 1700 M 0 -36 rL SGR
GSN 3218 620 M 0  36 rL SGR
GSN 3218 1700 M 0 -36 rL SGR
GSN 3306 620 M 0  36 rL SGR
GSN 3306 1700 M 0 -36 rL SGR
GSN 3368 620 M 0  36 rL SGR
GSN 3368 1700 M 0 -36 rL SGR
GSN 3417 620 M 0  36 rL SGR
GSN 3417 1700 M 0 -36 rL SGR
GSN 3456 620 M 0  36 rL SGR
GSN 3456 1700 M 0 -36 rL SGR
GSN 3490 620 M 0  36 rL SGR
GSN 3490 1700 M 0 -36 rL SGR
GSN 3519 620 M 0  36 rL SGR
GSN 3519 1700 M 0 -36 rL SGR
GSN 3544 620 M 0  36 rL SGR
GSN 3544 1700 M 0 -36 rL SGR
GSN 3717 620 M 0  36 rL SGR
GSN 3717 1700 M 0 -36 rL SGR
GSN 3805 620 M 0  36 rL SGR
GSN 3805 1700 M 0 -36 rL SGR
GSN 3867 620 M 0  36 rL SGR
GSN 3867 1700 M 0 -36 rL SGR
GSN 3915 620 M 0  36 rL SGR
GSN 3915 1700 M 0 -36 rL SGR
GSN 3955 620 M 0  36 rL SGR
GSN 3955 1700 M 0 -36 rL SGR
GSN 3988 620 M 0  36 rL SGR
GSN 3988 1700 M 0 -36 rL SGR
GSN 4017 620 M 0  36 rL SGR
GSN 4017 1700 M 0 -36 rL SGR
GSN 4043 620 M 0  36 rL SGR
GSN 4043 1700 M 0 -36 rL SGR
GSN 4216 620 M 0  36 rL SGR
GSN 4216 1700 M 0 -36 rL SGR
%
% Y axis: large tics - residual frame
%
L10
GSN 620 664 M 54 0 rL SGR
GSN 4220 664 M -54 0 rL SGR
helvS (-0.02) 560 664 ylabelresid
GSN 620 932 M 54 0 rL SGR
GSN 4220 932 M -54 0 rL SGR
helvS (-0.01) 560 932 ylabelresid
GSN 620 1200 M 54 0 rL SGR
GSN 4220 1200 M -54 0 rL SGR
helvS (0) 560 1200 ylabelresid
GSN 620 1468 M 54 0 rL SGR
GSN 4220 1468 M -54 0 rL SGR
helvS (0.01) 560 1468 ylabelresid

%
% X axis - residual panel
%
GSN L5 620 1200 M 4220 1200 L SDA G50 SGR

end
showpage
%%Trailer
%%EOF
