%!PS-Adobe-3.0 EPSF-3.0
%%BoundingBox: 0 0 514 550
%%Creator: BioKin Ltd.
%%DocumentFonts: Symbol Helvetica
%%EndComments
%
/bkdict 256 dict def
bkdict begin
/M {moveto} def 
/R {rmoveto} def
/L {lineto} def
/rL {rlineto} def
/GSN {gsave newpath} def
/SGR {stroke grestore} def
/COSGR {gsave setrgbcolor stroke grestore grestore} def
/SL {setlinewidth} def
/LWMB {12} def             % line width - model curves, black & white
/LWMC {10} def             % line width - model curves, color
/L2 {2.5 setlinewidth} def
/L5 {5 setlinewidth} def
/L10 {10 setlinewidth} def
/G50 {0.5 setgray} def
/SDA {[10  20] 0 setdash} def % axes
/helvT {/Helvetica findfont 100 scalefont setfont} def % tiny
/helvS {/Helvetica findfont 125 scalefont setfont} def % small
/helvM {/Helvetica findfont 150 scalefont setfont} def % medium
/helvL {/Helvetica findfont 175 scalefont setfont} def % large
/xlabel {gsave M dup
   stringwidth exch -0.5 mul exch rmoveto show grestore} def 
/ylabel {gsave M 90 rotate dup
   stringwidth exch -0.5 mul exch rmoveto show grestore} def
/ylabelresid {gsave M dup
   stringwidth exch -1 mul exch rmoveto show grestore} def
% ======
% Shapes
% ======
% Circle:
/Circ {0 360 arc closepath} def
%
% Square:
/Squa {dup dup -0.5 mul dup dup R -2 mul 0 exch rL 1 mul 0 rL dup 0 exch -1 mul rL closepath} def
%
% Triangle Up:
/TriU {dup dup dup -0.4 mul exch -0.5 mul exch R dup 0.5 mul exch rL dup -1 mul exch 0.5 mul exch rL closepath} def 
%
% Triangle Down:
/TriD {dup dup dup 0.4 mul exch -0.5 mul exch R dup 0.5 mul exch -1 mul rL dup 0.5 mul exch rL closepath} def 
%
% Diamond:
/Diam {45 rotate Squa} def
% ======
% Fills
% ======
/GRF {gsave setgray fill grestore} def                    % gray-level Fill
/COF {gsave setrgbcolor fill grestore} def                % color fill
% ======
% Colors
% ======
/C01 {1.00	0.00	0.00} def      % Red
/C02 {0.00	0.00	1.00} def      % Blue
/C03 {0.00	0.39	0.00} def      % Dark Green
/C04 {0.78	0.08	0.52} def      % Medium Violet Red
/C05 {0.55	0.27	0.07} def      % Saddle Brown
/C06 {0.10	0.70	0.70} def      % (cyan)
/C07 {1.00	0.55	0.00} def      % Dark Orange
/C08 {0.63	0.13	0.94} def      % Purple
/C09 {0.00	0.75	1.00} def      % Deep Sky Blue
/C10 {0.20	0.80	0.20} def      % Lime Green
/C11 {0.47	0.53	0.60} def      % Light Slate Gray
/C12 {0.00	0.00	0.00} def      % Black            % or: {0.19	0.31	0.31} def      % Dark Slate Gray
%
/LGR {0.75} def % light gray
/DGR {0.33} def % dark gray
%
% =============
% Dash patterns
% =============
/dash01 { [80  20] 0 setdash } def
/dash02 { [40  20] 0 setdash } def
/dash03 { [80  20  10  20] 0 setdash } def
/dash04 { [40  20  10  20] 0 setdash } def
/dash05 { [80  20  10  10  10  20] 0 setdash } def
/dash06 { [40  20  10  10  10  20] 0 setdash } def
/dash07 { [10  10] 0 setdash } def
%
/MFshow {
   { dup 5 get 3 ge
     { 5 get 3 eq {gsave} {grestore} ifelse }
     {dup dup 0 get findfont exch 1 get scalefont setfont
     [ currentpoint ] exch dup 2 get 0 exch R dup 5 get 2 ne {dup dup 6
     get exch 4 get {show} {stringwidth pop 0 R} ifelse }if dup 5 get 0 eq
     {dup 3 get {2 get neg 0 exch R pop} {pop aload pop M} ifelse} {dup 5
     get 1 eq {dup 2 get exch dup 3 get exch 6 get stringwidth pop -2 div
     dup 0 R} {dup 6 get stringwidth pop -2 div 0 R 6 get
     show 2 index {aload pop M neg 3 -1 roll neg R pop pop} {pop pop pop
     pop aload pop M} ifelse }ifelse }ifelse }
     ifelse }
   forall} bind def
/MFwidth {0 exch {dup 3 get{dup dup 0 get findfont exch 1 get scalefont
     setfont 6 get stringwidth pop add} {pop} ifelse} forall} bind def
/MCshow { currentpoint stroke M
  exch dup MFwidth -2 div 3 -1 roll R MFshow } def
%
end
%%EndProlog
bkdict begin
0.1 0.1 scale
%
% Residuals:
%
GSN 620 3652 M
620 3295 L
620 3085 L
620 3634 L
620 3300 L
620 3864 L
620 3394 L
620 3514 L
620 3628 L
620 3360 L
620 3443 L
620 3556 L
620 3158 L
620 3278 L
620 3403 L
620 3467 L
620 3834 L
620 3536 L
620 3713 L
620 3616 L
620 3683 L
620 3691 L
620 3791 L
620 3439 L
620 3774 L
620 3945 L
620 3397 L
620 3807 L
620 3409 L
620 3759 L
620 3579 L
620 3513 L
620 3662 L
620 3804 L
620 3746 L
620 3625 L
620 3863 L
620 4201 L
620 3539 L
620 3825 L
620 3859 L
620 3842 L
620 3827 L
620 3376 L
620 4035 L
620 4038 L
620 3586 L
620 3794 L
620 3415 L
620 3623 L
620 3723 L
620 3974 L
620 4063 L
620 3685 L
620 3581 L
620 4010 L
620 3423 L
620 3658 L
620 3681 L
620 3333 L
620 3345 L
620 3625 L
620 3760 L
620 3650 L
620 3476 L
620 3430 L
620 3204 L
620 3542 L
620 3497 L
620 3406 L
620 3612 L
620 3825 L
620 3481 L
620 3436 L
620 3497 L
620 3676 L
620 3387 L
620 3252 L
620 3864 L
620 3267 L
620 3767 L
620 2827 L
620 3579 L
620 3044 L
620 3012 L
620 3210 L
620 2948 L
620 2900 L
620 3144 L
620 3106 L
620 2975 L
620 2922 L
620 2695 L
620 2802 L
620 2865 L
620 3289 L
620 2761 L
620 2873 L
620 2938 L
620 2890 L
620 2249 L
620 2499 L
620 2774 L
620 2725 L
620 2719 L
620 2444 L
620 2666 L
620 2938 L
620 2611 L
620 2629 L
620 2486 L
620 2316 L
620 2809 L
620 2567 L
620 2486 L
620 2558 L
620 2694 L
620 2260 L
620 2449 L
620 2687 L
620 2457 L
620 2511 L
620 2423 L
620 2499 L
620 2472 L
620 2508 L
620 2558 L
620 2562 L
620 2660 L
620 2265 L
620 2557 L
620 2791 L
620 2521 L
620 2586 L
620 2542 L
620 2680 L
620 2554 L
620 2495 L
620 2461 L
620 2547 L
620 2640 L
620 2629 L
620 2595 L
620 2687 L
620 2677 L
620 2859 L
620 2940 L
620 2136 L
620 2303 L
620 2540 L
620 2933 L
620 2822 L
620 2548 L
620 2728 L
620 2739 L
620 2713 L
620 2657 L
620 2867 L
620 2617 L
620 2735 L
620 2485 L
620 2723 L
620 2955 L
620 2582 L
620 2892 L
620 2770 L
620 2749 L
620 2724 L
620 3100 L
620 2762 L
620 3077 L
620 2933 L
620 2977 L
620 3108 L
620 2791 L
620 2791 L
620 3078 L
620 3003 L
620 2806 L
620 2870 L
620 2891 L
620 3044 L
620 3271 L
620 2970 L
620 3144 L
620 2927 L
620 3186 L
620 3187 L
620 2850 L
620 3003 L
620 3056 L
620 3236 L
620 2803 L
620 2990 L
620 3156 L
620 3137 L
620 2888 L
620 2986 L
620 2943 L
620 3193 L
620 3063 L
620 3218 L
620 2788 L
620 3503 L
620 3090 L
620 3124 L
620 3217 L
620 3065 L
620 3197 L
620 3326 L
620 3157 L
620 3117 L
620 3302 L
620 2906 L
620 3133 L
620 3289 L
620 3473 L
620 3384 L
620 3331 L
620 3326 L
620 3335 L
620 3293 L
620 3576 L
620 3515 L
620 3537 L
620 3049 L
620 3323 L
620 3747 L
620 3490 L
620 3529 L
620 3346 L
620 3529 L
620 3460 L
620 3233 L
620 3521 L
620 3364 L
620 3804 L
620 3778 L
620 3289 L
620 3692 L
620 3430 L
620 3554 L
620 3435 L
620 3762 L
620 3429 L
620 3287 L
620 3178 L
620 3728 L
620 3342 L
620 3349 L
620 3311 L
620 3343 L
620 3499 L
620 3660 L
620 3733 L
620 3460 L
620 3471 L
620 3487 L
620 3693 L
620 3304 L
620 3364 L
620 4004 L
620 3734 L
620 3726 L
620 3834 L
620 3699 L
620 3682 L
620 3576 L
620 3364 L
620 3673 L
620 3891 L
620 3547 L
620 3135 L
620 3723 L
620 3610 L
620 3653 L
620 3866 L
620 3507 L
620 3742 L
620 3757 L
620 3967 L
620 3988 L
620 4017 L
620 4054 L
620 4316 L
620 3800 L
620 4175 L
620 4531 L
620 4243 L
620 4371 L
620 4014 L
620 4338 L
620 4357 L
620 4328 L
620 4391 L
620 4374 L
620 3935 L
620 4440 L
620 4332 L
620 4246 L
620 4293 L
620 4473 L
620 4278 L
620 4188 L
620 4582 L
620 3976 L
620 4605 L
620 4326 L
620 4328 L
620 4229 L
620 4260 L
620 4401 L
620 4206 L
620 4164 L
620 4188 L
620 4371 L
620 4302 L
620 4121 L
620 4256 L
620 4244 L
620 4029 L
620 4108 L
620 4249 L
620 4395 L
620 4257 L
620 4259 L
620 4085 L
620 4127 L
620 4053 L
620 4230 L
620 4434 L
620 4142 L
620 4552 L
620 4513 L
620 4135 L
620 4384 L
620 4292 L
620 4095 L
620 4230 L
620 4863 L
620 4230 L
620 4404 L
620 4053 L
620 3971 L
620 4142 L
620 4055 L
620 4218 L
620 4404 L
620 4089 L
620 4247 L
620 4023 L
620 3958 L
620 3977 L
620 3694 L
620 4423 L
620 3852 L
620 4125 L
620 4021 L
620 4283 L
620 4079 L
620 4044 L
620 4191 L
620 4282 L
620 4139 L
620 3751 L
620 4164 L
620 4152 L
620 3903 L
620 3777 L
620 3993 L
620 3787 L
620 4349 L
620 4013 L
620 4033 L
620 3846 L
620 4056 L
620 3755 L
620 4092 L
620 4106 L
620 3682 L
620 3423 L
620 3978 L
620 4175 L
620 3777 L
620 3647 L
620 3849 L
620 3745 L
620 3929 L
620 3546 L
620 3925 L
620 3971 L
620 3996 L
620 3757 L
620 3839 L
620 4101 L
620 3583 L
620 3483 L
620 4031 L
620 3550 L
620 3846 L
620 3325 L
620 3679 L
620 3463 L
620 3823 L
620 4236 L
620 3721 L
620 3574 L
620 3801 L
620 3194 L
620 3623 L
620 3773 L
620 3888 L
620 3506 L
620 3922 L
620 3521 L
620 3780 L
620 3753 L
620 3791 L
620 3935 L
620 3389 L
620 3833 L
620 3437 L
620 3586 L
620 3645 L
620 3842 L
620 3663 L
620 3542 L
620 3801 L
620 3448 L
620 3589 L
620 3663 L
620 3780 L
620 3669 L
620 3960 L
620 3685 L
620 4056 L
620 3542 L
620 3883 L
620 3754 L
620 3711 L
620 3699 L
620 3715 L
620 3682 L
620 3537 L
620 3567 L
620 4178 L
620 3678 L
620 3468 L
620 3761 L
620 3663 L
620 4066 L
620 3553 L
620 3993 L
620 4011 L
620 3563 L
620 3898 L
620 3642 L
620 3823 L
620 3853 L
620 3928 L
620 3302 L
620 3973 L
620 3414 L
620 3622 L
620 3583 L
620 3821 L
620 3844 L
620 3166 L
620 3473 L
620 3486 L
620 3727 L
620 3958 L
620 3493 L
620 3567 L
620 3035 L
620 3740 L
620 3479 L
620 3778 L
620 3052 L
620 3591 L
620 3942 L
620 3292 L
620 3347 L
620 3436 L
620 3376 L
620 3587 L
620 3633 L
620 3709 L
620 3653 L
620 3551 L
620 3555 L
620 3317 L
620 3705 L
620 3689 L
620 2990 L
620 3612 L
620 3439 L
620 3659 L
620 3506 L
620 3590 L
620 3800 L
620 3619 L
620 3381 L
620 3260 L
620 3588 L
620 3649 L
620 3299 L
620 3256 L
620 3623 L
620 3722 L
620 3320 L
620 3689 L
620 3553 L
620 3263 L
620 3587 L
620 3600 L
620 4204 L
620 3499 L
620 3478 L
620 3738 L
620 3416 L
620 3613 L
620 3817 L
620 3645 L
620 3642 L
620 3381 L
620 3604 L
620 3691 L
620 3601 L
620 3426 L
620 3389 L
620 3531 L
620 3459 L
L2 C04 COSGR

%
%================
% Legend - Begin
%================
%
GSN 4240 5180 M
4480 5180 L
LWMC SL  C04 COSGR
GSN 4540 5141 M helvM (2.0 uM) show grestore
%
%================
% Legend - End
%================
%

%
% Main frame
%
L10
GSN 
620 1700 M
4220 1700 L
4220 5300 L
620 5300 L
closepath SGR

%
% X axis: large tics
%
L10
%
% X axis: small tics
%
L5
%
% Y axis: large tics
%
L10
GSN 620 2009 M 54 0 rL SGR
GSN 4220 2009 M -54 0 rL SGR
helvS (-0.02) 560 2009 ylabel
GSN 620 2763 M 54 0 rL SGR
GSN 4220 2763 M -54 0 rL SGR
helvS (-0.01) 560 2763 ylabel
GSN 620 3517 M 54 0 rL SGR
GSN 4220 3517 M -54 0 rL SGR
helvS (0) 560 3517 ylabel
GSN 620 4271 M 54 0 rL SGR
GSN 4220 4271 M -54 0 rL SGR
helvS (0.01) 560 4271 ylabel
GSN 620 5026 M 54 0 rL SGR
GSN 4220 5026 M -54 0 rL SGR
helvS (0.02) 560 5026 ylabel
%
% Y axis: small tics
%
L5
GSN 620 1820 M 36 0 rL SGR
GSN 4220 1820 M -36 0 rL SGR
GSN 620 2009 M 36 0 rL SGR
GSN 4220 2009 M -36 0 rL SGR
GSN 620 2198 M 36 0 rL SGR
GSN 4220 2198 M -36 0 rL SGR
GSN 620 2386 M 36 0 rL SGR
GSN 4220 2386 M -36 0 rL SGR
GSN 620 2575 M 36 0 rL SGR
GSN 4220 2575 M -36 0 rL SGR
GSN 620 2763 M 36 0 rL SGR
GSN 4220 2763 M -36 0 rL SGR
GSN 620 2952 M 36 0 rL SGR
GSN 4220 2952 M -36 0 rL SGR
GSN 620 3140 M 36 0 rL SGR
GSN 4220 3140 M -36 0 rL SGR
GSN 620 3329 M 36 0 rL SGR
GSN 4220 3329 M -36 0 rL SGR
GSN 620 3517 M 36 0 rL SGR
GSN 4220 3517 M -36 0 rL SGR
GSN 620 3706 M 36 0 rL SGR
GSN 4220 3706 M -36 0 rL SGR
GSN 620 3894 M 36 0 rL SGR
GSN 4220 3894 M -36 0 rL SGR
GSN 620 4083 M 36 0 rL SGR
GSN 4220 4083 M -36 0 rL SGR
GSN 620 4271 M 36 0 rL SGR
GSN 4220 4271 M -36 0 rL SGR
GSN 620 4460 M 36 0 rL SGR
GSN 4220 4460 M -36 0 rL SGR
GSN 620 4649 M 36 0 rL SGR
GSN 4220 4649 M -36 0 rL SGR
GSN 620 4837 M 36 0 rL SGR
GSN 4220 4837 M -36 0 rL SGR
GSN 620 5026 M 36 0 rL SGR
GSN 4220 5026 M -36 0 rL SGR
GSN 620 5214 M 36 0 rL SGR
GSN 4220 5214 M -36 0 rL SGR

%
% X axis - residual panel
%
GSN L5 620 3517 M 4220 3517 L SDA G50 SGR

%
% X-Axis label:
%
gsave 620 1370 M 
[
[(Helvetica) 180 0 true true 0 (t)]
[(Helvetica) 180 0 true true 0 (i)]
[(Helvetica) 180 0 true true 0 (m)]
[(Helvetica) 180 0 true true 0 (e)]
] 0 MCshow grestore

%
% Y-Axis label:
%
gsave 234 3499 M 
currentpoint gsave translate 90 rotate 0 0 moveto
[
[(Helvetica) 180 0 true true 0 (r)]
[(Helvetica) 180 0 true true 0 (e)]
[(Helvetica) 180 0 true true 0 (s)]
[(Helvetica) 180 0 true true 0 (i)]
[(Helvetica) 180 0 true true 0 (d)]
[(Helvetica) 180 0 true true 0 (u)]
[(Helvetica) 180 0 true true 0 (a)]
[(Helvetica) 180 0 true true 0 (l)]
[(Helvetica) 180 0 true true 0 (s)]
] 0 MCshow grestore

end
showpage
%%Trailer
%%EOF
