%!PS-Adobe-3.0 EPSF-3.0
%%BoundingBox: 0 0 514 550
%%Creator: BioKin Ltd.
%%DocumentFonts: Symbol Helvetica
%%EndComments
%
/bkdict 256 dict def
bkdict begin
/M {moveto} def 
/R {rmoveto} def
/L {lineto} def
/rL {rlineto} def
/GSN {gsave newpath} def
/SGR {stroke grestore} def
/COSGR {gsave setrgbcolor stroke grestore grestore} def
/SL {setlinewidth} def
/LWMB {12} def             % line width - model curves, black & white
/LWMC {10} def             % line width - model curves, color
/L2 {2.5 setlinewidth} def
/L5 {5 setlinewidth} def
/L10 {10 setlinewidth} def
/G50 {0.5 setgray} def
/SDA {[10  20] 0 setdash} def % axes
/helvT {/Helvetica findfont 100 scalefont setfont} def % tiny
/helvS {/Helvetica findfont 125 scalefont setfont} def % small
/helvM {/Helvetica findfont 150 scalefont setfont} def % medium
/helvL {/Helvetica findfont 175 scalefont setfont} def % large
/xlabel {gsave M dup
   stringwidth exch -0.5 mul exch rmoveto show grestore} def 
/ylabel {gsave M 90 rotate dup
   stringwidth exch -0.5 mul exch rmoveto show grestore} def
/ylabelresid {gsave M dup
   stringwidth exch -1 mul exch rmoveto show grestore} def
% ======
% Shapes
% ======
% Circle:
/Circ {0 360 arc closepath} def
%
% Square:
/Squa {dup dup -0.5 mul dup dup R -2 mul 0 exch rL 1 mul 0 rL dup 0 exch -1 mul rL closepath} def
%
% Triangle Up:
/TriU {dup dup dup -0.4 mul exch -0.5 mul exch R dup 0.5 mul exch rL dup -1 mul exch 0.5 mul exch rL closepath} def 
%
% Triangle Down:
/TriD {dup dup dup 0.4 mul exch -0.5 mul exch R dup 0.5 mul exch -1 mul rL dup 0.5 mul exch rL closepath} def 
%
% Diamond:
/Diam {45 rotate Squa} def
% ======
% Fills
% ======
/GRF {gsave setgray fill grestore} def                    % gray-level Fill
/COF {gsave setrgbcolor fill grestore} def                % color fill
% ======
% Colors
% ======
/C01 {1.00	0.00	0.00} def      % Red
/C02 {0.00	0.00	1.00} def      % Blue
/C03 {0.00	0.39	0.00} def      % Dark Green
/C04 {0.78	0.08	0.52} def      % Medium Violet Red
/C05 {0.55	0.27	0.07} def      % Saddle Brown
/C06 {0.10	0.70	0.70} def      % (cyan)
/C07 {1.00	0.55	0.00} def      % Dark Orange
/C08 {0.63	0.13	0.94} def      % Purple
/C09 {0.00	0.75	1.00} def      % Deep Sky Blue
/C10 {0.20	0.80	0.20} def      % Lime Green
/C11 {0.47	0.53	0.60} def      % Light Slate Gray
/C12 {0.00	0.00	0.00} def      % Black            % or: {0.19	0.31	0.31} def      % Dark Slate Gray
%
/LGR {0.75} def % light gray
/DGR {0.33} def % dark gray
%
% =============
% Dash patterns
% =============
/dash01 { [80  20] 0 setdash } def
/dash02 { [40  20] 0 setdash } def
/dash03 { [80  20  10  20] 0 setdash } def
/dash04 { [40  20  10  20] 0 setdash } def
/dash05 { [80  20  10  10  10  20] 0 setdash } def
/dash06 { [40  20  10  10  10  20] 0 setdash } def
/dash07 { [10  10] 0 setdash } def
%
/MFshow {
   { dup 5 get 3 ge
     { 5 get 3 eq {gsave} {grestore} ifelse }
     {dup dup 0 get findfont exch 1 get scalefont setfont
     [ currentpoint ] exch dup 2 get 0 exch R dup 5 get 2 ne {dup dup 6
     get exch 4 get {show} {stringwidth pop 0 R} ifelse }if dup 5 get 0 eq
     {dup 3 get {2 get neg 0 exch R pop} {pop aload pop M} ifelse} {dup 5
     get 1 eq {dup 2 get exch dup 3 get exch 6 get stringwidth pop -2 div
     dup 0 R} {dup 6 get stringwidth pop -2 div 0 R 6 get
     show 2 index {aload pop M neg 3 -1 roll neg R pop pop} {pop pop pop
     pop aload pop M} ifelse }ifelse }ifelse }
     ifelse }
   forall} bind def
/MFwidth {0 exch {dup 3 get{dup dup 0 get findfont exch 1 get scalefont
     setfont 6 get stringwidth pop add} {pop} ifelse} forall} bind def
/MCshow { currentpoint stroke M
  exch dup MFwidth -2 div 3 -1 roll R MFshow } def
%
end
%%EndProlog
bkdict begin
0.1 0.1 scale
%
% Model curves:
%

GSN 753 5166 M
753 5166 L
786 5162 L
820 5158 L
853 5153 L
886 5146 L
903 5143 L
919 5139 L
953 5131 L
986 5122 L
1020 5111 L
1053 5098 L
1053 5098 L
1086 5083 L
1120 5066 L
1153 5047 L
1186 5025 L
1203 5012 L
1220 4999 L
1253 4970 L
1286 4936 L
1320 4899 L
1353 4856 L
1353 4855 L
1386 4808 L
1420 4754 L
1453 4694 L
1486 4628 L
1503 4591 L
1520 4555 L
1553 4476 L
1586 4390 L
1620 4298 L
1653 4201 L
1653 4200 L
1686 4100 L
1720 3994 L
1753 3886 L
1786 3777 L
1804 3719 L
1820 3667 L
1853 3558 L
1886 3452 L
1920 3349 L
1953 3251 L
1954 3248 L
1986 3158 L
2020 3071 L
2053 2990 L
2086 2915 L
2104 2878 L
2120 2847 L
2153 2785 L
2186 2730 L
2220 2680 L
2253 2636 L
2254 2635 L
2286 2597 L
2320 2562 L
2353 2532 L
2386 2505 L
2404 2493 L
2420 2482 L
2453 2462 L
2486 2444 L
2520 2429 L
2553 2416 L
2554 2415 L
2586 2405 L
2620 2395 L
2653 2386 L
2686 2379 L
2704 2375 L
2720 2372 L
2753 2367 L
2786 2362 L
2820 2358 L
2853 2355 L
2854 2355 L
2886 2352 L
2920 2349 L
2953 2347 L
2986 2345 L
3004 2344 L
3020 2344 L
3053 2342 L
3068 2342 L
3086 2341 L
3120 2340 L
3153 2339 L
3155 2339 L
3186 2339 L
3220 2338 L
3253 2338 L
3286 2337 L
3305 2337 L
3320 2337 L
3353 2337 L
3386 2337 L
3420 2336 L
3453 2336 L
3455 2336 L
3486 2336 L
3520 2336 L
3553 2336 L
3586 2336 L
3605 2336 L
3620 2336 L
3653 2336 L
3686 2336 L
3720 2336 L
3753 2336 L
3755 2336 L
3786 2336 L
3820 2336 L
3853 2336 L
3886 2336 L
3905 2336 L
3920 2336 L
3953 2336 L
3986 2336 L
4020 2336 L
4053 2336 L
4086 2336 L
LWMC SL  C02 COSGR

%
% Experimental data:
%
GSN 773 3645 M
1625 3454 L
1773 3763 L
1860 3604 L
1922 3815 L
1970 3649 L
2009 3692 L
2043 3678 L
2072 3568 L
2097 3475 L
2120 3588 L
2140 3523 L
2159 3672 L
2176 3482 L
2192 3531 L
2207 3503 L
2221 3505 L
2234 3445 L
2247 3391 L
2259 3394 L
2270 3279 L
2280 3304 L
2290 3427 L
2300 3317 L
2309 3249 L
2318 3431 L
2326 3323 L
2335 3336 L
2342 3285 L
2350 3343 L
2357 3279 L
2364 3126 L
2371 3299 L
2378 3108 L
2384 3330 L
2391 3323 L
2397 3084 L
2403 3311 L
2409 2965 L
2414 3315 L
2420 3170 L
2425 3252 L
2430 3067 L
2435 3225 L
2440 3195 L
2445 3073 L
2450 3052 L
2455 3079 L
2459 3172 L
2464 3099 L
2468 3066 L
2472 3154 L
2476 3037 L
2481 3022 L
2485 3030 L
2489 3043 L
2492 2966 L
2496 3095 L
2500 3041 L
2504 2924 L
2507 2907 L
2511 3123 L
2514 2849 L
2518 3067 L
2521 2853 L
2525 3007 L
2528 2760 L
2531 2898 L
2534 2733 L
2538 2892 L
2541 2906 L
2544 2804 L
2547 2786 L
2550 2927 L
2553 2687 L
2556 2671 L
2559 2918 L
2561 2687 L
2564 2687 L
2567 2775 L
2570 2920 L
2580 2622 L
2590 2600 L
2600 2699 L
2609 2680 L
2618 2640 L
2627 2693 L
2635 2638 L
2643 2492 L
2650 2444 L
2658 2383 L
2665 2456 L
2672 2480 L
2678 2500 L
2685 2262 L
2691 2324 L
2697 2490 L
2703 2416 L
2709 2215 L
2714 2509 L
2720 2448 L
2725 2371 L
2730 2377 L
2735 2320 L
2740 2347 L
2745 2223 L
2750 2086 L
2755 2204 L
2759 2147 L
2764 2300 L
2768 2291 L
2772 2308 L
2777 2252 L
2781 2133 L
2785 2125 L
2789 2283 L
2793 2042 L
2796 2205 L
2800 1953 L
2804 2240 L
2808 2031 L
2811 2047 L
2815 2099 L
2818 2268 L
2822 2119 L
2825 2306 L
2828 2272 L
2831 1956 L
2835 2133 L
2838 1965 L
2841 2153 L
2844 2090 L
2847 2013 L
2850 1833 L
2853 2166 L
2856 1994 L
2859 2037 L
2862 2160 L
2864 2222 L
2867 2060 L
2870 2065 L
2873 1927 L
2875 1952 L
2878 1931 L
2880 2048 L
2883 2076 L
2886 2146 L
2888 2016 L
2891 2160 L
2893 2062 L
2895 2026 L
2898 2025 L
2900 1973 L
2902 1905 L
2905 1974 L
2907 1998 L
2909 1964 L
2912 1932 L
2914 2024 L
2916 2001 L
2918 2039 L
2920 2137 L
2922 2168 L
2925 2189 L
2927 2022 L
2929 2143 L
2931 2285 L
2933 2054 L
2935 2087 L
2937 2037 L
2939 2222 L
2941 1999 L
2943 2026 L
2945 2137 L
2947 2147 L
2948 2097 L
2950 1980 L
2952 2152 L
2954 2168 L
2956 2071 L
2958 2016 L
2959 2154 L
2961 2139 L
2963 2110 L
2965 1950 L
2966 2153 L
2968 2052 L
2970 2099 L
2972 1997 L
2973 2352 L
2975 2205 L
2977 1990 L
2978 2296 L
2980 2006 L
2982 2156 L
2983 2280 L
2985 2162 L
2986 2203 L
2988 2220 L
2989 2277 L
2991 2207 L
2993 2281 L
2994 1942 L
2996 2043 L
2997 2185 L
2999 2120 L
3000 2131 L
3002 2094 L
3003 2161 L
3005 2101 L
3006 2135 L
3007 2159 L
3009 2271 L
3010 2219 L
3012 2175 L
3013 2247 L
3014 2106 L
3016 2160 L
3017 2077 L
3019 2138 L
3020 2125 L
3021 2281 L
3023 2190 L
3024 2135 L
3025 2139 L
3027 2255 L
3028 2394 L
3029 2172 L
3031 2270 L
3032 2045 L
3033 2156 L
3034 2176 L
3036 2189 L
3037 2150 L
3038 2257 L
3039 2298 L
3041 2206 L
3042 2330 L
3043 2128 L
3044 1977 L
3045 2277 L
3047 2089 L
3048 2337 L
3049 2353 L
3050 2234 L
3051 1953 L
3053 2220 L
3054 2365 L
3055 2249 L
3056 2120 L
3057 2269 L
3058 2302 L
3059 2379 L
3061 2208 L
3062 2214 L
3063 2269 L
3064 2309 L
3065 2248 L
3066 2276 L
3067 2251 L
3068 2270 L
3069 2159 L
3070 2218 L
3071 2329 L
3073 2255 L
3074 2189 L
3075 2256 L
3076 2225 L
3077 2211 L
3078 2178 L
3079 2028 L
3080 2126 L
3081 2266 L
3082 2351 L
3083 2251 L
3084 2283 L
3085 2345 L
3086 2192 L
3087 2314 L
3088 2255 L
3089 2194 L
3112 2356 L
3133 2311 L
3152 2560 L
3170 2384 L
3186 2294 L
3201 2285 L
3216 2218 L
3229 2392 L
3241 2294 L
3253 2446 L
3264 2341 L
3275 2495 L
3285 2483 L
3295 2455 L
3304 2571 L
3313 2469 L
3322 2430 L
3330 2466 L
3338 2555 L
3346 2526 L
3353 2387 L
3360 2551 L
3367 2427 L
3374 2413 L
3380 2572 L
3387 2271 L
3393 2494 L
3399 2410 L
3405 2503 L
3410 2552 L
3416 2311 L
3421 2341 L
3426 2526 L
3431 2568 L
3436 2515 L
3441 2365 L
3446 2211 L
3451 2487 L
3455 2320 L
3460 2288 L
3464 2423 L
3469 2538 L
3473 2282 L
3477 2359 L
3481 2447 L
3485 2368 L
3489 2469 L
3493 2478 L
3496 2606 L
3500 2497 L
3504 2582 L
3507 2331 L
3511 2497 L
3514 2427 L
3518 2575 L
3521 2324 L
3525 2245 L
3528 2219 L
3531 2528 L
3534 2373 L
3537 2554 L
3540 2419 L
3543 2418 L
3546 2436 L
3549 2450 L
3552 2443 L
3555 2302 L
3558 2354 L
3561 2449 L
3564 2453 L
3566 2341 L
3575 2259 L
3586 2348 L
3595 2359 L
3605 2285 L
3613 2286 L
3622 2296 L
3630 2322 L
3638 2443 L
3646 2449 L
3653 2303 L
3660 2385 L
3667 2189 L
3674 2286 L
3681 2271 L
3687 2388 L
3693 2461 L
3699 2178 L
3705 2384 L
3710 2203 L
3716 2203 L
3721 2231 L
3727 2271 L
3732 2228 L
3737 2217 L
3742 2307 L
3746 2251 L
3751 2364 L
3756 2203 L
3760 2205 L
3764 2392 L
3769 2157 L
3773 2376 L
3777 2237 L
3781 2341 L
3785 2279 L
3789 2354 L
3793 2186 L
3797 2282 L
3800 2220 L
3804 2192 L
3808 2246 L
3811 2265 L
3815 2361 L
3818 2027 L
3821 2375 L
3825 2208 L
3828 2174 L
3831 2339 L
3834 2149 L
3838 2217 L
3841 2192 L
3844 2184 L
3847 2186 L
3850 2124 L
3853 2359 L
3855 2116 L
3858 2155 L
3861 2180 L
3864 2109 L
3867 2081 L
3869 2212 L
3872 2308 L
3875 2211 L
3877 2243 L
3880 2282 L
3882 2409 L
3885 2255 L
3887 2331 L
3890 2432 L
3892 2325 L
3895 2186 L
3897 2219 L
3899 2390 L
3902 2228 L
3904 2222 L
3906 2015 L
3908 2368 L
3911 2079 L
3913 2194 L
3915 2263 L
3917 2208 L
3919 2118 L
3921 2191 L
3923 2310 L
3926 2282 L
3928 2347 L
3930 2416 L
3932 2183 L
3934 2460 L
3936 2215 L
3938 2243 L
3940 2127 L
3942 2245 L
3943 2144 L
3945 2297 L
3947 2163 L
3949 2260 L
3951 2189 L
3953 2240 L
3955 2257 L
3956 2143 L
3958 2331 L
3960 2110 L
3962 2310 L
3963 2249 L
3965 2324 L
3967 2181 L
3969 2067 L
3970 2118 L
3972 2107 L
3974 2205 L
3975 2266 L
3977 2205 L
3978 2154 L
3980 2373 L
3982 2119 L
3983 2395 L
3985 2353 L
3986 1963 L
3988 2109 L
3990 2186 L
3991 2382 L
3993 2129 L
3994 2282 L
3996 2268 L
3997 2095 L
3999 2011 L
4000 2161 L
4001 2209 L
4003 2255 L
4004 2268 L
4006 2183 L
4007 2202 L
4009 2300 L
4010 2118 L
4011 2118 L
4013 2283 L
4014 2260 L
4016 2194 L
4017 2118 L
4018 2188 L
4020 2342 L
4021 2073 L
4022 1993 L
4024 2027 L
4025 2268 L
4026 2206 L
4028 2113 L
4029 2350 L
4030 2256 L
4031 2132 L
4033 2081 L
4034 2109 L
4035 2154 L
4036 2181 L
4038 2123 L
4039 2061 L
4040 2296 L
4041 2121 L
4042 2169 L
4044 2367 L
4045 2154 L
4046 1998 L
4047 2232 L
4048 2039 L
4050 2290 L
4051 2246 L
4052 2194 L
4053 2104 L
4054 2333 L
4055 2073 L
4056 2218 L
4058 2158 L
4059 2337 L
4060 2222 L
4061 2167 L
4062 2217 L
4063 2240 L
4064 2314 L
4065 2191 L
4066 2223 L
L2 C02 COSGR

%
%================
% Legend - Begin
%================
%
GSN 4240 5180 M
4480 5180 L
LWMC SL  C02 COSGR
GSN 4540 5141 M helvM (1.0 uM) show grestore
%
%================
% Legend - End
%================
%

%
% Residuals:
%
GSN 773 750 M
1625 984 L
1773 1245 L
1860 1288 L
1922 1425 L
1970 1416 L
2009 1466 L
2043 1490 L
2072 1475 L
2097 1462 L
2120 1516 L
2140 1507 L
2159 1569 L
2176 1514 L
2192 1539 L
2207 1537 L
2221 1545 L
2234 1531 L
2247 1518 L
2259 1524 L
2270 1489 L
2280 1502 L
2290 1547 L
2300 1513 L
2309 1494 L
2318 1558 L
2326 1525 L
2335 1531 L
2342 1517 L
2350 1538 L
2357 1519 L
2364 1469 L
2371 1529 L
2378 1466 L
2384 1543 L
2391 1543 L
2397 1463 L
2403 1541 L
2409 1426 L
2414 1545 L
2420 1498 L
2425 1526 L
2430 1465 L
2435 1519 L
2440 1510 L
2445 1470 L
2450 1464 L
2455 1474 L
2459 1506 L
2464 1482 L
2468 1472 L
2472 1503 L
2476 1464 L
2481 1459 L
2485 1463 L
2489 1468 L
2492 1442 L
2496 1487 L
2500 1469 L
2504 1430 L
2507 1425 L
2511 1498 L
2514 1406 L
2518 1480 L
2521 1408 L
2525 1461 L
2528 1378 L
2531 1425 L
2534 1370 L
2538 1424 L
2541 1429 L
2544 1395 L
2547 1389 L
2550 1437 L
2553 1356 L
2556 1351 L
2559 1435 L
2561 1358 L
2564 1358 L
2567 1388 L
2570 1437 L
2580 1338 L
2590 1331 L
2600 1366 L
2609 1360 L
2618 1347 L
2627 1366 L
2635 1349 L
2643 1300 L
2650 1284 L
2658 1264 L
2665 1289 L
2672 1298 L
2678 1305 L
2685 1225 L
2691 1247 L
2697 1303 L
2703 1278 L
2709 1211 L
2714 1310 L
2720 1290 L
2725 1264 L
2730 1267 L
2735 1248 L
2740 1257 L
2745 1216 L
2750 1169 L
2755 1209 L
2759 1190 L
2764 1243 L
2768 1240 L
2772 1246 L
2777 1227 L
2781 1187 L
2785 1184 L
2789 1238 L
2793 1156 L
2796 1212 L
2800 1127 L
2804 1224 L
2808 1153 L
2811 1159 L
2815 1177 L
2818 1234 L
2822 1184 L
2825 1247 L
2828 1236 L
2831 1129 L
2835 1189 L
2838 1132 L
2841 1196 L
2844 1175 L
2847 1149 L
2850 1088 L
2853 1201 L
2856 1143 L
2859 1157 L
2862 1199 L
2864 1220 L
2867 1165 L
2870 1167 L
2873 1120 L
2875 1129 L
2878 1122 L
2880 1162 L
2883 1171 L
2886 1195 L
2888 1151 L
2891 1200 L
2893 1167 L
2895 1155 L
2898 1154 L
2900 1137 L
2902 1114 L
2905 1137 L
2907 1145 L
2909 1134 L
2912 1123 L
2914 1154 L
2916 1147 L
2918 1160 L
2920 1193 L
2922 1203 L
2925 1210 L
2927 1154 L
2929 1195 L
2931 1243 L
2933 1165 L
2935 1176 L
2937 1159 L
2939 1222 L
2941 1146 L
2943 1156 L
2945 1193 L
2947 1197 L
2948 1180 L
2950 1140 L
2952 1198 L
2954 1204 L
2956 1171 L
2958 1153 L
2959 1199 L
2961 1194 L
2963 1185 L
2965 1130 L
2966 1199 L
2968 1165 L
2970 1181 L
2972 1147 L
2973 1267 L
2975 1217 L
2977 1144 L
2978 1248 L
2980 1150 L
2982 1201 L
2983 1243 L
2985 1203 L
2986 1216 L
2988 1222 L
2989 1242 L
2991 1218 L
2993 1243 L
2994 1128 L
2996 1162 L
2997 1211 L
2999 1189 L
3000 1192 L
3002 1180 L
3003 1203 L
3005 1182 L
3006 1194 L
3007 1202 L
3009 1240 L
3010 1222 L
3012 1207 L
3013 1232 L
3014 1184 L
3016 1202 L
3017 1174 L
3019 1195 L
3020 1191 L
3021 1244 L
3023 1213 L
3024 1194 L
3025 1195 L
3027 1235 L
3028 1282 L
3029 1207 L
3031 1240 L
3032 1164 L
3033 1201 L
3034 1208 L
3036 1212 L
3037 1199 L
3038 1236 L
3039 1249 L
3041 1218 L
3042 1260 L
3043 1192 L
3044 1141 L
3045 1242 L
3047 1179 L
3048 1263 L
3049 1268 L
3050 1228 L
3051 1133 L
3053 1223 L
3054 1272 L
3055 1233 L
3056 1190 L
3057 1240 L
3058 1251 L
3059 1277 L
3061 1219 L
3062 1221 L
3063 1240 L
3064 1254 L
3065 1233 L
3066 1242 L
3067 1234 L
3068 1240 L
3069 1203 L
3070 1223 L
3071 1260 L
3073 1235 L
3074 1213 L
3075 1236 L
3076 1225 L
3077 1220 L
3078 1209 L
3079 1158 L
3080 1192 L
3081 1239 L
3082 1268 L
3083 1234 L
3084 1245 L
3085 1266 L
3086 1214 L
3087 1255 L
3088 1235 L
3089 1215 L
3112 1270 L
3133 1255 L
3152 1339 L
3170 1280 L
3186 1250 L
3201 1247 L
3216 1224 L
3229 1283 L
3241 1250 L
3253 1301 L
3264 1266 L
3275 1318 L
3285 1314 L
3295 1305 L
3304 1344 L
3313 1309 L
3322 1296 L
3330 1308 L
3338 1339 L
3346 1329 L
3353 1282 L
3360 1337 L
3367 1295 L
3374 1291 L
3380 1345 L
3387 1242 L
3393 1318 L
3399 1290 L
3405 1321 L
3410 1338 L
3416 1256 L
3421 1266 L
3426 1329 L
3431 1343 L
3436 1325 L
3441 1274 L
3446 1222 L
3451 1316 L
3455 1259 L
3460 1248 L
3464 1294 L
3469 1333 L
3473 1246 L
3477 1272 L
3481 1302 L
3485 1276 L
3489 1310 L
3493 1313 L
3496 1356 L
3500 1319 L
3504 1348 L
3507 1263 L
3511 1319 L
3514 1295 L
3518 1346 L
3521 1260 L
3525 1234 L
3528 1225 L
3531 1329 L
3534 1277 L
3537 1338 L
3540 1293 L
3543 1292 L
3546 1299 L
3549 1303 L
3552 1301 L
3555 1253 L
3558 1271 L
3561 1303 L
3564 1304 L
3566 1266 L
3575 1238 L
3586 1269 L
3595 1272 L
3605 1247 L
3613 1248 L
3622 1251 L
3630 1260 L
3638 1301 L
3646 1303 L
3653 1254 L
3660 1281 L
3667 1215 L
3674 1248 L
3681 1243 L
3687 1282 L
3693 1307 L
3699 1211 L
3705 1281 L
3710 1220 L
3716 1220 L
3721 1229 L
3727 1243 L
3732 1228 L
3737 1224 L
3742 1255 L
3746 1236 L
3751 1274 L
3756 1220 L
3760 1220 L
3764 1283 L
3769 1204 L
3773 1278 L
3777 1231 L
3781 1266 L
3785 1245 L
3789 1271 L
3793 1214 L
3797 1246 L
3800 1225 L
3804 1216 L
3808 1234 L
3811 1241 L
3815 1273 L
3818 1160 L
3821 1278 L
3825 1221 L
3828 1210 L
3831 1266 L
3834 1201 L
3838 1224 L
3841 1216 L
3844 1213 L
3847 1214 L
3850 1193 L
3853 1272 L
3855 1190 L
3858 1203 L
3861 1212 L
3864 1188 L
3867 1178 L
3869 1223 L
3872 1255 L
3875 1222 L
3877 1233 L
3880 1246 L
3882 1289 L
3885 1237 L
3887 1263 L
3890 1297 L
3892 1261 L
3895 1214 L
3897 1225 L
3899 1283 L
3902 1228 L
3904 1226 L
3906 1156 L
3908 1276 L
3911 1178 L
3913 1216 L
3915 1240 L
3917 1221 L
3919 1191 L
3921 1215 L
3923 1256 L
3926 1246 L
3928 1268 L
3930 1292 L
3932 1213 L
3934 1306 L
3936 1224 L
3938 1233 L
3940 1194 L
3942 1234 L
3943 1200 L
3945 1251 L
3947 1206 L
3949 1239 L
3951 1215 L
3953 1232 L
3955 1238 L
3956 1199 L
3958 1263 L
3960 1188 L
3962 1256 L
3963 1235 L
3965 1260 L
3967 1212 L
3969 1173 L
3970 1191 L
3972 1187 L
3974 1220 L
3975 1241 L
3977 1220 L
3978 1203 L
3980 1277 L
3982 1191 L
3983 1284 L
3985 1270 L
3986 1138 L
3988 1188 L
3990 1214 L
3991 1280 L
3993 1194 L
3994 1246 L
3996 1242 L
3997 1183 L
3999 1155 L
4000 1205 L
4001 1222 L
4003 1237 L
4004 1242 L
4006 1213 L
4007 1219 L
4009 1253 L
4010 1191 L
4011 1191 L
4013 1247 L
4014 1239 L
4016 1216 L
4017 1191 L
4018 1214 L
4020 1267 L
4021 1176 L
4022 1148 L
4024 1160 L
4025 1242 L
4026 1221 L
4028 1189 L
4029 1269 L
4030 1237 L
4031 1196 L
4033 1178 L
4034 1188 L
4035 1203 L
4036 1212 L
4038 1192 L
4039 1171 L
4040 1251 L
4041 1192 L
4042 1208 L
4044 1275 L
4045 1203 L
4046 1150 L
4047 1230 L
4048 1164 L
4050 1249 L
4051 1234 L
4052 1216 L
4053 1186 L
4054 1263 L
4055 1176 L
4056 1225 L
4058 1204 L
4059 1265 L
4060 1226 L
4061 1208 L
4062 1224 L
4063 1232 L
4064 1257 L
4065 1215 L
4066 1226 L
L2 C02 COSGR

%
% Main frame
%
L10
GSN 
620 1700 M
4220 1700 L
4220 5300 L
620 5300 L
closepath SGR

%
% X axis: large tics
%
L10
GSN 1074 1700 M 0  54 rL SGR
GSN 1074 5300 M 0 -54 rL SGR
helvS (0.0001) 1074 470 xlabel
GSN 1572 1700 M 0  54 rL SGR
GSN 1572 5300 M 0 -54 rL SGR
helvS (0.001) 1572 470 xlabel
GSN 2071 1700 M 0  54 rL SGR
GSN 2071 5300 M 0 -54 rL SGR
helvS (0.01) 2071 470 xlabel
GSN 2570 1700 M 0  54 rL SGR
GSN 2570 5300 M 0 -54 rL SGR
helvS (0.1) 2570 470 xlabel
GSN 3068 1700 M 0  54 rL SGR
GSN 3068 5300 M 0 -54 rL SGR
helvS (1) 3068 470 xlabel
GSN 3567 1700 M 0  54 rL SGR
GSN 3567 5300 M 0 -54 rL SGR
helvS (10) 3567 470 xlabel
GSN 4066 1700 M 0  54 rL SGR
GSN 4066 5300 M 0 -54 rL SGR
helvS (100) 4066 470 xlabel
%
% X axis: small tics
%
L5
GSN 725 1700 M 0  36 rL SGR
GSN 725 5300 M 0 -36 rL SGR
GSN 813 1700 M 0  36 rL SGR
GSN 813 5300 M 0 -36 rL SGR
GSN 875 1700 M 0  36 rL SGR
GSN 875 5300 M 0 -36 rL SGR
GSN 924 1700 M 0  36 rL SGR
GSN 924 5300 M 0 -36 rL SGR
GSN 963 1700 M 0  36 rL SGR
GSN 963 5300 M 0 -36 rL SGR
GSN 996 1700 M 0  36 rL SGR
GSN 996 5300 M 0 -36 rL SGR
GSN 1025 1700 M 0  36 rL SGR
GSN 1025 5300 M 0 -36 rL SGR
GSN 1051 1700 M 0  36 rL SGR
GSN 1051 5300 M 0 -36 rL SGR
GSN 1224 1700 M 0  36 rL SGR
GSN 1224 5300 M 0 -36 rL SGR
GSN 1312 1700 M 0  36 rL SGR
GSN 1312 5300 M 0 -36 rL SGR
GSN 1374 1700 M 0  36 rL SGR
GSN 1374 5300 M 0 -36 rL SGR
GSN 1422 1700 M 0  36 rL SGR
GSN 1422 5300 M 0 -36 rL SGR
GSN 1462 1700 M 0  36 rL SGR
GSN 1462 5300 M 0 -36 rL SGR
GSN 1495 1700 M 0  36 rL SGR
GSN 1495 5300 M 0 -36 rL SGR
GSN 1524 1700 M 0  36 rL SGR
GSN 1524 5300 M 0 -36 rL SGR
GSN 1550 1700 M 0  36 rL SGR
GSN 1550 5300 M 0 -36 rL SGR
GSN 1722 1700 M 0  36 rL SGR
GSN 1722 5300 M 0 -36 rL SGR
GSN 1810 1700 M 0  36 rL SGR
GSN 1810 5300 M 0 -36 rL SGR
GSN 1873 1700 M 0  36 rL SGR
GSN 1873 5300 M 0 -36 rL SGR
GSN 1921 1700 M 0  36 rL SGR
GSN 1921 5300 M 0 -36 rL SGR
GSN 1960 1700 M 0  36 rL SGR
GSN 1960 5300 M 0 -36 rL SGR
GSN 1994 1700 M 0  36 rL SGR
GSN 1994 5300 M 0 -36 rL SGR
GSN 2023 1700 M 0  36 rL SGR
GSN 2023 5300 M 0 -36 rL SGR
GSN 2048 1700 M 0  36 rL SGR
GSN 2048 5300 M 0 -36 rL SGR
GSN 2221 1700 M 0  36 rL SGR
GSN 2221 5300 M 0 -36 rL SGR
GSN 2309 1700 M 0  36 rL SGR
GSN 2309 5300 M 0 -36 rL SGR
GSN 2371 1700 M 0  36 rL SGR
GSN 2371 5300 M 0 -36 rL SGR
GSN 2420 1700 M 0  36 rL SGR
GSN 2420 5300 M 0 -36 rL SGR
GSN 2459 1700 M 0  36 rL SGR
GSN 2459 5300 M 0 -36 rL SGR
GSN 2492 1700 M 0  36 rL SGR
GSN 2492 5300 M 0 -36 rL SGR
GSN 2521 1700 M 0  36 rL SGR
GSN 2521 5300 M 0 -36 rL SGR
GSN 2547 1700 M 0  36 rL SGR
GSN 2547 5300 M 0 -36 rL SGR
GSN 2720 1700 M 0  36 rL SGR
GSN 2720 5300 M 0 -36 rL SGR
GSN 2808 1700 M 0  36 rL SGR
GSN 2808 5300 M 0 -36 rL SGR
GSN 2870 1700 M 0  36 rL SGR
GSN 2870 5300 M 0 -36 rL SGR
GSN 2918 1700 M 0  36 rL SGR
GSN 2918 5300 M 0 -36 rL SGR
GSN 2958 1700 M 0  36 rL SGR
GSN 2958 5300 M 0 -36 rL SGR
GSN 2991 1700 M 0  36 rL SGR
GSN 2991 5300 M 0 -36 rL SGR
GSN 3020 1700 M 0  36 rL SGR
GSN 3020 5300 M 0 -36 rL SGR
GSN 3045 1700 M 0  36 rL SGR
GSN 3045 5300 M 0 -36 rL SGR
GSN 3218 1700 M 0  36 rL SGR
GSN 3218 5300 M 0 -36 rL SGR
GSN 3306 1700 M 0  36 rL SGR
GSN 3306 5300 M 0 -36 rL SGR
GSN 3368 1700 M 0  36 rL SGR
GSN 3368 5300 M 0 -36 rL SGR
GSN 3417 1700 M 0  36 rL SGR
GSN 3417 5300 M 0 -36 rL SGR
GSN 3456 1700 M 0  36 rL SGR
GSN 3456 5300 M 0 -36 rL SGR
GSN 3490 1700 M 0  36 rL SGR
GSN 3490 5300 M 0 -36 rL SGR
GSN 3519 1700 M 0  36 rL SGR
GSN 3519 5300 M 0 -36 rL SGR
GSN 3544 1700 M 0  36 rL SGR
GSN 3544 5300 M 0 -36 rL SGR
GSN 3717 1700 M 0  36 rL SGR
GSN 3717 5300 M 0 -36 rL SGR
GSN 3805 1700 M 0  36 rL SGR
GSN 3805 5300 M 0 -36 rL SGR
GSN 3867 1700 M 0  36 rL SGR
GSN 3867 5300 M 0 -36 rL SGR
GSN 3915 1700 M 0  36 rL SGR
GSN 3915 5300 M 0 -36 rL SGR
GSN 3955 1700 M 0  36 rL SGR
GSN 3955 5300 M 0 -36 rL SGR
GSN 3988 1700 M 0  36 rL SGR
GSN 3988 5300 M 0 -36 rL SGR
GSN 4017 1700 M 0  36 rL SGR
GSN 4017 5300 M 0 -36 rL SGR
GSN 4043 1700 M 0  36 rL SGR
GSN 4043 5300 M 0 -36 rL SGR
GSN 4216 1700 M 0  36 rL SGR
GSN 4216 5300 M 0 -36 rL SGR
%
% Y axis: large tics
%
L10
GSN 620 2330 M 54 0 rL SGR
GSN 4220 2330 M -54 0 rL SGR
helvS (1.1) 560 2330 ylabel
GSN 620 3090 M 54 0 rL SGR
GSN 4220 3090 M -54 0 rL SGR
helvS (1.125) 560 3090 ylabel
GSN 620 3850 M 54 0 rL SGR
GSN 4220 3850 M -54 0 rL SGR
helvS (1.15) 560 3850 ylabel
GSN 620 4609 M 54 0 rL SGR
GSN 4220 4609 M -54 0 rL SGR
helvS (1.175) 560 4609 ylabel
%
% Y axis: small tics
%
L5
GSN 620 1723 M 36 0 rL SGR
GSN 4220 1723 M -36 0 rL SGR
GSN 620 2102 M 36 0 rL SGR
GSN 4220 2102 M -36 0 rL SGR
GSN 620 2482 M 36 0 rL SGR
GSN 4220 2482 M -36 0 rL SGR
GSN 620 2862 M 36 0 rL SGR
GSN 4220 2862 M -36 0 rL SGR
GSN 620 3242 M 36 0 rL SGR
GSN 4220 3242 M -36 0 rL SGR
GSN 620 3622 M 36 0 rL SGR
GSN 4220 3622 M -36 0 rL SGR
GSN 620 4001 M 36 0 rL SGR
GSN 4220 4001 M -36 0 rL SGR
GSN 620 4381 M 36 0 rL SGR
GSN 4220 4381 M -36 0 rL SGR
GSN 620 4761 M 36 0 rL SGR
GSN 4220 4761 M -36 0 rL SGR
GSN 620 5141 M 36 0 rL SGR
GSN 4220 5141 M -36 0 rL SGR

%
% X-Axis label:
%
gsave 2420 290 M 
[
[(Helvetica) 180 0 true true 0 (t)]
[(Helvetica) 180 0 true true 0 (i)]
[(Helvetica) 180 0 true true 0 (m)]
[(Helvetica) 180 0 true true 0 (e)]
] 0 MCshow grestore

%
% Y-Axis label:
%
gsave 234 3500 M 
currentpoint gsave translate 90 rotate 0 0 moveto
[
[(Helvetica) 180 0 true true 0 (s)]
[(Helvetica) 180 0 true true 0 (i)]
[(Helvetica) 180 0 true true 0 (g)]
[(Helvetica) 180 0 true true 0 (n)]
[(Helvetica) 180 0 true true 0 (a)]
[(Helvetica) 180 0 true true 0 (l)]
] 0 MCshow grestore

%
% Residuals:
%
gsave 129 1160 M 
currentpoint gsave translate 90 rotate 0 0 moveto
[
[(Helvetica) 150 0 true true 0 (r)]
[(Helvetica) 150 0 true true 0 (e)]
[(Helvetica) 150 0 true true 0 (s)]
[(Helvetica) 150 0 true true 0 (i)]
[(Helvetica) 150 0 true true 0 (d)]
[(Helvetica) 150 0 true true 0 (u)]
[(Helvetica) 150 0 true true 0 (a)]
[(Helvetica) 150 0 true true 0 (l)]
[(Helvetica) 150 0 true true 0 (s)]
] 0 MCshow grestore

%
% Residual frame
%
L10
GSN 
620 620 M
4220 620 L
4220 1700 L
620 1700 L
closepath SGR
%
% X axis: large tics - residual frame
%
L10
GSN 1074 620 M 0  54 rL SGR
GSN 1074 1700 M 0 -54 rL SGR
GSN 1572 620 M 0  54 rL SGR
GSN 1572 1700 M 0 -54 rL SGR
GSN 2071 620 M 0  54 rL SGR
GSN 2071 1700 M 0 -54 rL SGR
GSN 2570 620 M 0  54 rL SGR
GSN 2570 1700 M 0 -54 rL SGR
GSN 3068 620 M 0  54 rL SGR
GSN 3068 1700 M 0 -54 rL SGR
GSN 3567 620 M 0  54 rL SGR
GSN 3567 1700 M 0 -54 rL SGR
GSN 4066 620 M 0  54 rL SGR
GSN 4066 1700 M 0 -54 rL SGR
%
% X axis: small tics - residual frame
%
L5
GSN 725 620 M 0  36 rL SGR
GSN 725 1700 M 0 -36 rL SGR
GSN 813 620 M 0  36 rL SGR
GSN 813 1700 M 0 -36 rL SGR
GSN 875 620 M 0  36 rL SGR
GSN 875 1700 M 0 -36 rL SGR
GSN 924 620 M 0  36 rL SGR
GSN 924 1700 M 0 -36 rL SGR
GSN 963 620 M 0  36 rL SGR
GSN 963 1700 M 0 -36 rL SGR
GSN 996 620 M 0  36 rL SGR
GSN 996 1700 M 0 -36 rL SGR
GSN 1025 620 M 0  36 rL SGR
GSN 1025 1700 M 0 -36 rL SGR
GSN 1051 620 M 0  36 rL SGR
GSN 1051 1700 M 0 -36 rL SGR
GSN 1224 620 M 0  36 rL SGR
GSN 1224 1700 M 0 -36 rL SGR
GSN 1312 620 M 0  36 rL SGR
GSN 1312 1700 M 0 -36 rL SGR
GSN 1374 620 M 0  36 rL SGR
GSN 1374 1700 M 0 -36 rL SGR
GSN 1422 620 M 0  36 rL SGR
GSN 1422 1700 M 0 -36 rL SGR
GSN 1462 620 M 0  36 rL SGR
GSN 1462 1700 M 0 -36 rL SGR
GSN 1495 620 M 0  36 rL SGR
GSN 1495 1700 M 0 -36 rL SGR
GSN 1524 620 M 0  36 rL SGR
GSN 1524 1700 M 0 -36 rL SGR
GSN 1550 620 M 0  36 rL SGR
GSN 1550 1700 M 0 -36 rL SGR
GSN 1722 620 M 0  36 rL SGR
GSN 1722 1700 M 0 -36 rL SGR
GSN 1810 620 M 0  36 rL SGR
GSN 1810 1700 M 0 -36 rL SGR
GSN 1873 620 M 0  36 rL SGR
GSN 1873 1700 M 0 -36 rL SGR
GSN 1921 620 M 0  36 rL SGR
GSN 1921 1700 M 0 -36 rL SGR
GSN 1960 620 M 0  36 rL SGR
GSN 1960 1700 M 0 -36 rL SGR
GSN 1994 620 M 0  36 rL SGR
GSN 1994 1700 M 0 -36 rL SGR
GSN 2023 620 M 0  36 rL SGR
GSN 2023 1700 M 0 -36 rL SGR
GSN 2048 620 M 0  36 rL SGR
GSN 2048 1700 M 0 -36 rL SGR
GSN 2221 620 M 0  36 rL SGR
GSN 2221 1700 M 0 -36 rL SGR
GSN 2309 620 M 0  36 rL SGR
GSN 2309 1700 M 0 -36 rL SGR
GSN 2371 620 M 0  36 rL SGR
GSN 2371 1700 M 0 -36 rL SGR
GSN 2420 620 M 0  36 rL SGR
GSN 2420 1700 M 0 -36 rL SGR
GSN 2459 620 M 0  36 rL SGR
GSN 2459 1700 M 0 -36 rL SGR
GSN 2492 620 M 0  36 rL SGR
GSN 2492 1700 M 0 -36 rL SGR
GSN 2521 620 M 0  36 rL SGR
GSN 2521 1700 M 0 -36 rL SGR
GSN 2547 620 M 0  36 rL SGR
GSN 2547 1700 M 0 -36 rL SGR
GSN 2720 620 M 0  36 rL SGR
GSN 2720 1700 M 0 -36 rL SGR
GSN 2808 620 M 0  36 rL SGR
GSN 2808 1700 M 0 -36 rL SGR
GSN 2870 620 M 0  36 rL SGR
GSN 2870 1700 M 0 -36 rL SGR
GSN 2918 620 M 0  36 rL SGR
GSN 2918 1700 M 0 -36 rL SGR
GSN 2958 620 M 0  36 rL SGR
GSN 2958 1700 M 0 -36 rL SGR
GSN 2991 620 M 0  36 rL SGR
GSN 2991 1700 M 0 -36 rL SGR
GSN 3020 620 M 0  36 rL SGR
GSN 3020 1700 M 0 -36 rL SGR
GSN 3045 620 M 0  36 rL SGR
GSN 3045 1700 M 0 -36 rL SGR
GSN 3218 620 M 0  36 rL SGR
GSN 3218 1700 M 0 -36 rL SGR
GSN 3306 620 M 0  36 rL SGR
GSN 3306 1700 M 0 -36 rL SGR
GSN 3368 620 M 0  36 rL SGR
GSN 3368 1700 M 0 -36 rL SGR
GSN 3417 620 M 0  36 rL SGR
GSN 3417 1700 M 0 -36 rL SGR
GSN 3456 620 M 0  36 rL SGR
GSN 3456 1700 M 0 -36 rL SGR
GSN 3490 620 M 0  36 rL SGR
GSN 3490 1700 M 0 -36 rL SGR
GSN 3519 620 M 0  36 rL SGR
GSN 3519 1700 M 0 -36 rL SGR
GSN 3544 620 M 0  36 rL SGR
GSN 3544 1700 M 0 -36 rL SGR
GSN 3717 620 M 0  36 rL SGR
GSN 3717 1700 M 0 -36 rL SGR
GSN 3805 620 M 0  36 rL SGR
GSN 3805 1700 M 0 -36 rL SGR
GSN 3867 620 M 0  36 rL SGR
GSN 3867 1700 M 0 -36 rL SGR
GSN 3915 620 M 0  36 rL SGR
GSN 3915 1700 M 0 -36 rL SGR
GSN 3955 620 M 0  36 rL SGR
GSN 3955 1700 M 0 -36 rL SGR
GSN 3988 620 M 0  36 rL SGR
GSN 3988 1700 M 0 -36 rL SGR
GSN 4017 620 M 0  36 rL SGR
GSN 4017 1700 M 0 -36 rL SGR
GSN 4043 620 M 0  36 rL SGR
GSN 4043 1700 M 0 -36 rL SGR
GSN 4216 620 M 0  36 rL SGR
GSN 4216 1700 M 0 -36 rL SGR
%
% Y axis: large tics - residual frame
%
L10
GSN 620 750 M 54 0 rL SGR
GSN 4220 750 M -54 0 rL SGR
helvS (-0.05) 560 750 ylabelresid
GSN 620 1008 M 54 0 rL SGR
GSN 4220 1008 M -54 0 rL SGR
helvS (-0.025) 560 1008 ylabelresid
GSN 620 1265 M 54 0 rL SGR
GSN 4220 1265 M -54 0 rL SGR
helvS (0) 560 1265 ylabelresid
GSN 620 1522 M 54 0 rL SGR
GSN 4220 1522 M -54 0 rL SGR
helvS (0.025) 560 1522 ylabelresid

%
% X axis - residual panel
%
GSN L5 620 1265 M 4220 1265 L SDA G50 SGR

end
showpage
%%Trailer
%%EOF
