%!PS-Adobe-3.0 EPSF-3.0
%%BoundingBox: 0 0 514 550
%%Creator: BioKin Ltd.
%%DocumentFonts: Symbol Helvetica
%%EndComments
%
/bkdict 256 dict def
bkdict begin
/M {moveto} def 
/R {rmoveto} def
/L {lineto} def
/rL {rlineto} def
/GSN {gsave newpath} def
/SGR {stroke grestore} def
/COSGR {gsave setrgbcolor stroke grestore grestore} def
/SL {setlinewidth} def
/LWMB {12} def             % line width - model curves, black & white
/LWMC {10} def             % line width - model curves, color
/L2 {2.5 setlinewidth} def
/L5 {5 setlinewidth} def
/L10 {10 setlinewidth} def
/G50 {0.5 setgray} def
/SDA {[10  20] 0 setdash} def % axes
/helvT {/Helvetica findfont 100 scalefont setfont} def % tiny
/helvS {/Helvetica findfont 125 scalefont setfont} def % small
/helvM {/Helvetica findfont 150 scalefont setfont} def % medium
/helvL {/Helvetica findfont 175 scalefont setfont} def % large
/xlabel {gsave M dup
   stringwidth exch -0.5 mul exch rmoveto show grestore} def 
/ylabel {gsave M 90 rotate dup
   stringwidth exch -0.5 mul exch rmoveto show grestore} def
/ylabelresid {gsave M dup
   stringwidth exch -1 mul exch rmoveto show grestore} def
% ======
% Shapes
% ======
% Circle:
/Circ {0 360 arc closepath} def
%
% Square:
/Squa {dup dup -0.5 mul dup dup R -2 mul 0 exch rL 1 mul 0 rL dup 0 exch -1 mul rL closepath} def
%
% Triangle Up:
/TriU {dup dup dup -0.4 mul exch -0.5 mul exch R dup 0.5 mul exch rL dup -1 mul exch 0.5 mul exch rL closepath} def 
%
% Triangle Down:
/TriD {dup dup dup 0.4 mul exch -0.5 mul exch R dup 0.5 mul exch -1 mul rL dup 0.5 mul exch rL closepath} def 
%
% Diamond:
/Diam {45 rotate Squa} def
% ======
% Fills
% ======
/GRF {gsave setgray fill grestore} def                    % gray-level Fill
/COF {gsave setrgbcolor fill grestore} def                % color fill
% ======
% Colors
% ======
/C01 {1.00	0.00	0.00} def      % Red
/C02 {0.00	0.00	1.00} def      % Blue
/C03 {0.00	0.39	0.00} def      % Dark Green
/C04 {0.78	0.08	0.52} def      % Medium Violet Red
/C05 {0.55	0.27	0.07} def      % Saddle Brown
/C06 {0.10	0.70	0.70} def      % (cyan)
/C07 {1.00	0.55	0.00} def      % Dark Orange
/C08 {0.63	0.13	0.94} def      % Purple
/C09 {0.00	0.75	1.00} def      % Deep Sky Blue
/C10 {0.20	0.80	0.20} def      % Lime Green
/C11 {0.47	0.53	0.60} def      % Light Slate Gray
/C12 {0.00	0.00	0.00} def      % Black            % or: {0.19	0.31	0.31} def      % Dark Slate Gray
%
/LGR {0.75} def % light gray
/DGR {0.33} def % dark gray
%
% =============
% Dash patterns
% =============
/dash01 { [80  20] 0 setdash } def
/dash02 { [40  20] 0 setdash } def
/dash03 { [80  20  10  20] 0 setdash } def
/dash04 { [40  20  10  20] 0 setdash } def
/dash05 { [80  20  10  10  10  20] 0 setdash } def
/dash06 { [40  20  10  10  10  20] 0 setdash } def
/dash07 { [10  10] 0 setdash } def
%
/MFshow {
   { dup 5 get 3 ge
     { 5 get 3 eq {gsave} {grestore} ifelse }
     {dup dup 0 get findfont exch 1 get scalefont setfont
     [ currentpoint ] exch dup 2 get 0 exch R dup 5 get 2 ne {dup dup 6
     get exch 4 get {show} {stringwidth pop 0 R} ifelse }if dup 5 get 0 eq
     {dup 3 get {2 get neg 0 exch R pop} {pop aload pop M} ifelse} {dup 5
     get 1 eq {dup 2 get exch dup 3 get exch 6 get stringwidth pop -2 div
     dup 0 R} {dup 6 get stringwidth pop -2 div 0 R 6 get
     show 2 index {aload pop M neg 3 -1 roll neg R pop pop} {pop pop pop
     pop aload pop M} ifelse }ifelse }ifelse }
     ifelse }
   forall} bind def
/MFwidth {0 exch {dup 3 get{dup dup 0 get findfont exch 1 get scalefont
     setfont 6 get stringwidth pop add} {pop} ifelse} forall} bind def
/MCshow { currentpoint stroke M
  exch dup MFwidth -2 div 3 -1 roll R MFshow } def
%
end
%%EndProlog
bkdict begin
0.1 0.1 scale
%
% Model curves:
%

GSN 753 5166 M
753 5166 L
786 5157 L
820 5146 L
853 5134 L
886 5120 L
903 5112 L
919 5103 L
953 5084 L
986 5062 L
1020 5037 L
1053 5008 L
1053 5008 L
1086 4975 L
1120 4937 L
1153 4893 L
1186 4844 L
1203 4816 L
1220 4788 L
1253 4725 L
1286 4654 L
1320 4576 L
1353 4489 L
1353 4487 L
1386 4393 L
1420 4289 L
1453 4176 L
1486 4056 L
1503 3992 L
1520 3930 L
1553 3797 L
1586 3661 L
1620 3524 L
1653 3386 L
1653 3384 L
1686 3252 L
1720 3124 L
1753 3003 L
1786 2893 L
1804 2840 L
1820 2795 L
1853 2712 L
1886 2642 L
1920 2588 L
1953 2547 L
1954 2546 L
1986 2519 L
2020 2500 L
2053 2489 L
2086 2483 L
2104 2482 L
2120 2481 L
2153 2479 L
2186 2479 L
2220 2479 L
2253 2479 L
2254 2479 L
2286 2479 L
2320 2479 L
2353 2479 L
2386 2479 L
2404 2479 L
2420 2479 L
2453 2479 L
2486 2479 L
2520 2479 L
2553 2479 L
2554 2479 L
2586 2479 L
2620 2479 L
2653 2479 L
2686 2479 L
2704 2479 L
2720 2479 L
2753 2479 L
2786 2479 L
2820 2479 L
2853 2479 L
2854 2479 L
2886 2479 L
2920 2479 L
2953 2479 L
2986 2479 L
3004 2479 L
3020 2479 L
3053 2479 L
3068 2479 L
3086 2479 L
3120 2479 L
3153 2479 L
3155 2479 L
3186 2479 L
3220 2479 L
3253 2479 L
3286 2479 L
3305 2479 L
3320 2479 L
3353 2479 L
3386 2479 L
3420 2479 L
3453 2479 L
3455 2479 L
3486 2479 L
3520 2479 L
3553 2479 L
3586 2479 L
3605 2479 L
3620 2479 L
3653 2479 L
3686 2479 L
3720 2479 L
3753 2479 L
3755 2479 L
3786 2479 L
3820 2479 L
3853 2479 L
3886 2479 L
3905 2479 L
3920 2479 L
3953 2479 L
3986 2479 L
4020 2479 L
4053 2479 L
4086 2479 L
LWMC SL  C05 COSGR

%
% Experimental data:
%
GSN 773 4296 M
1625 4004 L
1773 3857 L
1860 4015 L
1922 3967 L
1970 3813 L
2009 3773 L
2043 3738 L
2072 3745 L
2097 3699 L
2120 3570 L
2140 3673 L
2159 3491 L
2176 3492 L
2192 3673 L
2207 3482 L
2221 3491 L
2234 3352 L
2247 3368 L
2259 3361 L
2270 3341 L
2280 3249 L
2290 3174 L
2300 3198 L
2309 3339 L
2318 3191 L
2326 3230 L
2335 3157 L
2342 3199 L
2350 3177 L
2357 3174 L
2364 3096 L
2371 3021 L
2378 2938 L
2384 3008 L
2391 2993 L
2397 2921 L
2403 3015 L
2409 3078 L
2414 3007 L
2420 2974 L
2425 2881 L
2430 2975 L
2435 2794 L
2440 2812 L
2445 2851 L
2450 2878 L
2455 2829 L
2459 2829 L
2464 2817 L
2468 2725 L
2472 2733 L
2476 2732 L
2481 2665 L
2485 2519 L
2489 2794 L
2492 2658 L
2496 2676 L
2500 2631 L
2504 2778 L
2507 2637 L
2511 2566 L
2514 2837 L
2518 2531 L
2521 2668 L
2525 2632 L
2528 2548 L
2531 2584 L
2534 2552 L
2538 2668 L
2541 2575 L
2544 2448 L
2547 2630 L
2550 2720 L
2553 2555 L
2556 2530 L
2559 2588 L
2561 2422 L
2564 2508 L
2567 2520 L
2570 2494 L
2580 2370 L
2590 2396 L
2600 2520 L
2609 2291 L
2618 2324 L
2627 2384 L
2635 2336 L
2643 2255 L
2650 2196 L
2658 2192 L
2665 2210 L
2672 1996 L
2678 2172 L
2685 2086 L
2691 2276 L
2697 2071 L
2703 2139 L
2709 1946 L
2714 2029 L
2720 2043 L
2725 1969 L
2730 2091 L
2735 1988 L
2740 2102 L
2745 2112 L
2750 2019 L
2755 1937 L
2759 1939 L
2764 2095 L
2768 1989 L
2772 1956 L
2777 1971 L
2781 2045 L
2785 1964 L
2789 2000 L
2793 1937 L
2796 2036 L
2800 2045 L
2804 2009 L
2808 2026 L
2811 2035 L
2815 1919 L
2818 2136 L
2822 2078 L
2825 1833 L
2828 2047 L
2831 2010 L
2835 2079 L
2838 1993 L
2841 2024 L
2844 1943 L
2847 2038 L
2850 2043 L
2853 2164 L
2856 1903 L
2859 2028 L
2862 2099 L
2864 2115 L
2867 2098 L
2870 2086 L
2873 1957 L
2875 1976 L
2878 2067 L
2880 2018 L
2883 2065 L
2886 2091 L
2888 2071 L
2891 2096 L
2893 2111 L
2895 2005 L
2898 2112 L
2900 2058 L
2902 2008 L
2905 2159 L
2907 2175 L
2909 2028 L
2912 2043 L
2914 2194 L
2916 2161 L
2918 2153 L
2920 2154 L
2922 2027 L
2925 2154 L
2927 2196 L
2929 2170 L
2931 2080 L
2933 2095 L
2935 2102 L
2937 2179 L
2939 2185 L
2941 2185 L
2943 2104 L
2945 2258 L
2947 2214 L
2948 2050 L
2950 2271 L
2952 2108 L
2954 2128 L
2956 2179 L
2958 2157 L
2959 2248 L
2961 2176 L
2963 2248 L
2965 2247 L
2966 2216 L
2968 2187 L
2970 2247 L
2972 2137 L
2973 2213 L
2975 2331 L
2977 2118 L
2978 2344 L
2980 2188 L
2982 2089 L
2983 2212 L
2985 2345 L
2986 2098 L
2988 2162 L
2989 2279 L
2991 2313 L
2993 2201 L
2994 2176 L
2996 2190 L
2997 2361 L
2999 2256 L
3000 2297 L
3002 2334 L
3003 2336 L
3005 2328 L
3006 2418 L
3007 2316 L
3009 2392 L
3010 2327 L
3012 2340 L
3013 2172 L
3014 2258 L
3016 2375 L
3017 2156 L
3019 2280 L
3020 2297 L
3021 2269 L
3023 2399 L
3024 2300 L
3025 2348 L
3027 2330 L
3028 2336 L
3029 2309 L
3031 2327 L
3032 2429 L
3033 2263 L
3034 2326 L
3036 2265 L
3037 2266 L
3038 2355 L
3039 2272 L
3041 2375 L
3042 2329 L
3043 2402 L
3044 2380 L
3045 2472 L
3047 2455 L
3048 2400 L
3049 2416 L
3050 2333 L
3051 2357 L
3053 2274 L
3054 2417 L
3055 2379 L
3056 2307 L
3057 2420 L
3058 2390 L
3059 2441 L
3061 2297 L
3062 2313 L
3063 2565 L
3064 2542 L
3065 2319 L
3066 2424 L
3067 2494 L
3068 2417 L
3069 2408 L
3070 2447 L
3071 2406 L
3073 2544 L
3074 2324 L
3075 2416 L
3076 2435 L
3077 2378 L
3078 2447 L
3079 2459 L
3080 2462 L
3081 2421 L
3082 2501 L
3083 2465 L
3084 2373 L
3085 2383 L
3086 2495 L
3087 2467 L
3088 2482 L
3089 2401 L
3112 2616 L
3133 2475 L
3152 2521 L
3170 2685 L
3186 2576 L
3201 2697 L
3216 2696 L
3229 2764 L
3241 2579 L
3253 2727 L
3264 2694 L
3275 2736 L
3285 2607 L
3295 2650 L
3304 2571 L
3313 2618 L
3322 2796 L
3330 2674 L
3338 2738 L
3346 2634 L
3353 2571 L
3360 2583 L
3367 2523 L
3374 2633 L
3380 2678 L
3387 2734 L
3393 2579 L
3399 2644 L
3405 2866 L
3410 2597 L
3416 2667 L
3421 2605 L
3426 2797 L
3431 2514 L
3436 2724 L
3441 2682 L
3446 2780 L
3451 2648 L
3455 2639 L
3460 2652 L
3464 2616 L
3469 2799 L
3473 2735 L
3477 2605 L
3481 2560 L
3485 2572 L
3489 2623 L
3493 2789 L
3496 2613 L
3500 2644 L
3504 2635 L
3507 2759 L
3511 2705 L
3514 2579 L
3518 2699 L
3521 2613 L
3525 2681 L
3528 2594 L
3531 2676 L
3534 2694 L
3537 2657 L
3540 2603 L
3543 2785 L
3546 2598 L
3549 2767 L
3552 2623 L
3555 2643 L
3558 2689 L
3561 2408 L
3564 2569 L
3566 2630 L
3575 2637 L
3586 2709 L
3595 2691 L
3605 2697 L
3613 2612 L
3622 2520 L
3630 2641 L
3638 2628 L
3646 2680 L
3653 2567 L
3660 2580 L
3667 2481 L
3674 2644 L
3681 2613 L
3687 2540 L
3693 2615 L
3699 2548 L
3705 2710 L
3710 2531 L
3716 2795 L
3721 2646 L
3727 2480 L
3732 2633 L
3737 2563 L
3742 2592 L
3746 2758 L
3751 2492 L
3756 2500 L
3760 2627 L
3764 2578 L
3769 2517 L
3773 2577 L
3777 2634 L
3781 2592 L
3785 2453 L
3789 2558 L
3793 2348 L
3797 2477 L
3800 2585 L
3804 2589 L
3808 2514 L
3811 2422 L
3815 2622 L
3818 2488 L
3821 2355 L
3825 2689 L
3828 2439 L
3831 2427 L
3834 2707 L
3838 2506 L
3841 2435 L
3844 2554 L
3847 2492 L
3850 2457 L
3853 2615 L
3855 2598 L
3858 2522 L
3861 2485 L
3864 2511 L
3867 2420 L
3869 2424 L
3872 2498 L
3875 2453 L
3877 2514 L
3880 2532 L
3882 2423 L
3885 2461 L
3887 2560 L
3890 2332 L
3892 2677 L
3895 2484 L
3897 2624 L
3899 2592 L
3902 2435 L
3904 2494 L
3906 2451 L
3908 2525 L
3911 2511 L
3913 2392 L
3915 2382 L
3917 2585 L
3919 2398 L
3921 2485 L
3923 2534 L
3926 2431 L
3928 2443 L
3930 2460 L
3932 2440 L
3934 2402 L
3936 2400 L
3938 2520 L
3940 2431 L
3942 2480 L
3943 2317 L
3945 2469 L
3947 2466 L
3949 2391 L
3951 2426 L
3953 2440 L
3955 2545 L
3956 2528 L
3958 2458 L
3960 2397 L
3962 2352 L
3963 2487 L
3965 2517 L
3967 2428 L
3969 2393 L
3970 2405 L
3972 2615 L
3974 2524 L
3975 2433 L
3977 2348 L
3978 2333 L
3980 2512 L
3982 2495 L
3983 2495 L
3985 2528 L
3986 2485 L
3988 2419 L
3990 2365 L
3991 2443 L
3993 2360 L
3994 2379 L
3996 2486 L
3997 2547 L
3999 2399 L
4000 2383 L
4001 2415 L
4003 2554 L
4004 2402 L
4006 2391 L
4007 2540 L
4009 2551 L
4010 2443 L
4011 2567 L
4013 2234 L
4014 2253 L
4016 2532 L
4017 2458 L
4018 2300 L
4020 2470 L
4021 2439 L
4022 2599 L
4024 2463 L
4025 2580 L
4026 2327 L
4028 2577 L
4029 2447 L
4030 2468 L
4031 2457 L
4033 2443 L
4034 2382 L
4035 2417 L
4036 2412 L
4038 2417 L
4039 2447 L
4040 2360 L
4041 2244 L
4042 2507 L
4044 2363 L
4045 2321 L
4046 2386 L
4047 2413 L
4048 2472 L
4050 2486 L
4051 2290 L
4052 2476 L
4053 2461 L
4054 2362 L
4055 2464 L
4056 2333 L
4058 2348 L
4059 2501 L
4060 2412 L
4061 2425 L
4062 2303 L
4063 2446 L
4064 2209 L
4065 2367 L
4066 2447 L
L2 C05 COSGR

%
%================
% Legend - Begin
%================
%
GSN 4240 5180 M
4480 5180 L
LWMC SL  C05 COSGR
GSN 4540 5141 M helvM (2.5 uM) show grestore
%
%================
% Legend - End
%================
%

%
% Residuals:
%
GSN 773 750 M
1625 1248 L
1773 1401 L
1860 1546 L
1922 1569 L
1970 1532 L
2009 1527 L
2043 1519 L
2072 1524 L
2097 1508 L
2120 1462 L
2140 1500 L
2159 1433 L
2176 1434 L
2192 1500 L
2207 1431 L
2221 1434 L
2234 1383 L
2247 1389 L
2259 1386 L
2270 1379 L
2280 1346 L
2290 1318 L
2300 1327 L
2309 1378 L
2318 1324 L
2326 1339 L
2335 1312 L
2342 1327 L
2350 1320 L
2357 1318 L
2364 1290 L
2371 1262 L
2378 1233 L
2384 1258 L
2391 1253 L
2397 1226 L
2403 1260 L
2409 1283 L
2414 1258 L
2420 1246 L
2425 1212 L
2430 1246 L
2435 1180 L
2440 1186 L
2445 1201 L
2450 1210 L
2455 1193 L
2459 1193 L
2464 1188 L
2468 1155 L
2472 1158 L
2476 1157 L
2481 1133 L
2485 1080 L
2489 1180 L
2492 1131 L
2496 1137 L
2500 1120 L
2504 1174 L
2507 1123 L
2511 1097 L
2514 1196 L
2518 1084 L
2521 1134 L
2525 1121 L
2528 1090 L
2531 1103 L
2534 1092 L
2538 1134 L
2541 1100 L
2544 1054 L
2547 1120 L
2550 1153 L
2553 1093 L
2556 1084 L
2559 1105 L
2561 1045 L
2564 1076 L
2567 1080 L
2570 1071 L
2580 1026 L
2590 1035 L
2600 1080 L
2609 997 L
2618 1009 L
2627 1031 L
2635 1013 L
2643 984 L
2650 962 L
2658 961 L
2665 967 L
2672 889 L
2678 953 L
2685 922 L
2691 991 L
2697 917 L
2703 941 L
2709 871 L
2714 901 L
2720 906 L
2725 880 L
2730 924 L
2735 886 L
2740 928 L
2745 931 L
2750 898 L
2755 868 L
2759 869 L
2764 925 L
2768 887 L
2772 875 L
2777 880 L
2781 907 L
2785 878 L
2789 891 L
2793 868 L
2796 904 L
2800 907 L
2804 894 L
2808 900 L
2811 904 L
2815 861 L
2818 940 L
2822 919 L
2825 830 L
2828 908 L
2831 895 L
2835 920 L
2838 888 L
2841 900 L
2844 870 L
2847 905 L
2850 906 L
2853 951 L
2856 855 L
2859 901 L
2862 927 L
2864 933 L
2867 927 L
2870 922 L
2873 875 L
2875 882 L
2878 915 L
2880 897 L
2883 915 L
2886 924 L
2888 917 L
2891 926 L
2893 931 L
2895 893 L
2898 932 L
2900 912 L
2902 894 L
2905 949 L
2907 954 L
2909 901 L
2912 906 L
2914 961 L
2916 950 L
2918 947 L
2920 947 L
2922 901 L
2925 947 L
2927 962 L
2929 953 L
2931 920 L
2933 926 L
2935 928 L
2937 956 L
2939 958 L
2941 958 L
2943 929 L
2945 985 L
2947 969 L
2948 909 L
2950 990 L
2952 930 L
2954 937 L
2956 956 L
2958 948 L
2959 981 L
2961 955 L
2963 981 L
2965 981 L
2966 969 L
2968 959 L
2970 981 L
2972 941 L
2973 968 L
2975 1011 L
2977 934 L
2978 1016 L
2980 959 L
2982 923 L
2983 968 L
2985 1016 L
2986 927 L
2988 950 L
2989 992 L
2991 1005 L
2993 964 L
2994 955 L
2996 960 L
2997 1022 L
2999 984 L
3000 999 L
3002 1013 L
3003 1013 L
3005 1010 L
3006 1043 L
3007 1006 L
3009 1033 L
3010 1010 L
3012 1015 L
3013 954 L
3014 985 L
3016 1027 L
3017 948 L
3019 993 L
3020 999 L
3021 989 L
3023 1036 L
3024 1000 L
3025 1018 L
3027 1011 L
3028 1013 L
3029 1003 L
3031 1010 L
3032 1047 L
3033 987 L
3034 1009 L
3036 987 L
3037 988 L
3038 1020 L
3039 990 L
3041 1027 L
3042 1011 L
3043 1037 L
3044 1029 L
3045 1063 L
3047 1057 L
3048 1037 L
3049 1042 L
3050 1012 L
3051 1021 L
3053 991 L
3054 1043 L
3055 1029 L
3056 1003 L
3057 1044 L
3058 1033 L
3059 1051 L
3061 999 L
3062 1005 L
3063 1096 L
3064 1088 L
3065 1007 L
3066 1045 L
3067 1071 L
3068 1043 L
3069 1039 L
3070 1054 L
3071 1039 L
3073 1089 L
3074 1009 L
3075 1042 L
3076 1049 L
3077 1028 L
3078 1054 L
3079 1058 L
3080 1059 L
3081 1044 L
3082 1073 L
3083 1060 L
3084 1027 L
3085 1030 L
3086 1071 L
3087 1061 L
3088 1066 L
3089 1037 L
3112 1115 L
3133 1064 L
3152 1081 L
3170 1140 L
3186 1101 L
3201 1144 L
3216 1144 L
3229 1169 L
3241 1102 L
3253 1156 L
3264 1143 L
3275 1159 L
3285 1112 L
3295 1127 L
3304 1099 L
3313 1116 L
3322 1181 L
3330 1136 L
3338 1159 L
3346 1122 L
3353 1099 L
3360 1103 L
3367 1081 L
3374 1121 L
3380 1138 L
3387 1158 L
3393 1102 L
3399 1125 L
3405 1206 L
3410 1108 L
3416 1134 L
3421 1111 L
3426 1181 L
3431 1078 L
3436 1155 L
3441 1139 L
3446 1175 L
3451 1127 L
3455 1123 L
3460 1128 L
3464 1115 L
3469 1182 L
3473 1159 L
3477 1111 L
3481 1095 L
3485 1099 L
3489 1118 L
3493 1178 L
3496 1114 L
3500 1125 L
3504 1122 L
3507 1167 L
3511 1148 L
3514 1102 L
3518 1145 L
3521 1114 L
3525 1139 L
3528 1107 L
3531 1137 L
3534 1143 L
3537 1130 L
3540 1110 L
3543 1177 L
3546 1109 L
3549 1170 L
3552 1118 L
3555 1125 L
3558 1142 L
3561 1039 L
3564 1098 L
3566 1120 L
3575 1123 L
3586 1149 L
3595 1142 L
3605 1145 L
3613 1114 L
3622 1080 L
3630 1124 L
3638 1119 L
3646 1139 L
3653 1097 L
3660 1102 L
3667 1066 L
3674 1125 L
3681 1114 L
3687 1088 L
3693 1115 L
3699 1091 L
3705 1149 L
3710 1084 L
3716 1180 L
3721 1126 L
3727 1066 L
3732 1121 L
3737 1096 L
3742 1106 L
3746 1167 L
3751 1070 L
3756 1073 L
3760 1119 L
3764 1101 L
3769 1079 L
3773 1101 L
3777 1122 L
3781 1106 L
3785 1056 L
3789 1094 L
3793 1017 L
3797 1065 L
3800 1104 L
3804 1105 L
3808 1078 L
3811 1045 L
3815 1117 L
3818 1068 L
3821 1020 L
3825 1142 L
3828 1051 L
3831 1046 L
3834 1148 L
3838 1075 L
3841 1049 L
3844 1092 L
3847 1070 L
3850 1057 L
3853 1115 L
3855 1109 L
3858 1081 L
3861 1067 L
3864 1077 L
3867 1044 L
3869 1045 L
3872 1072 L
3875 1056 L
3877 1078 L
3880 1084 L
3882 1045 L
3885 1059 L
3887 1095 L
3890 1012 L
3892 1137 L
3895 1067 L
3897 1118 L
3899 1106 L
3902 1049 L
3904 1071 L
3906 1055 L
3908 1082 L
3911 1077 L
3913 1034 L
3915 1030 L
3917 1104 L
3919 1036 L
3921 1067 L
3923 1085 L
3926 1048 L
3928 1052 L
3930 1058 L
3932 1051 L
3934 1037 L
3936 1037 L
3938 1080 L
3940 1048 L
3942 1066 L
3943 1006 L
3945 1062 L
3947 1061 L
3949 1033 L
3951 1046 L
3953 1051 L
3955 1089 L
3956 1083 L
3958 1058 L
3960 1035 L
3962 1019 L
3963 1068 L
3965 1079 L
3967 1047 L
3969 1034 L
3970 1038 L
3972 1115 L
3974 1082 L
3975 1048 L
3977 1017 L
3978 1012 L
3980 1077 L
3982 1071 L
3983 1071 L
3985 1083 L
3986 1067 L
3988 1043 L
3990 1024 L
3991 1052 L
3993 1022 L
3994 1029 L
3996 1068 L
3997 1090 L
3999 1036 L
4000 1030 L
4001 1042 L
4003 1092 L
4004 1037 L
4006 1033 L
4007 1087 L
4009 1091 L
4010 1052 L
4011 1097 L
4013 976 L
4014 983 L
4016 1084 L
4017 1058 L
4018 1000 L
4020 1062 L
4021 1051 L
4022 1109 L
4024 1059 L
4025 1102 L
4026 1010 L
4028 1101 L
4029 1054 L
4030 1061 L
4031 1057 L
4033 1052 L
4034 1030 L
4035 1043 L
4036 1041 L
4038 1043 L
4039 1054 L
4040 1022 L
4041 980 L
4042 1075 L
4044 1023 L
4045 1008 L
4046 1031 L
4047 1041 L
4048 1063 L
4050 1068 L
4051 996 L
4052 1064 L
4053 1059 L
4054 1023 L
4055 1060 L
4056 1012 L
4058 1017 L
4059 1073 L
4060 1041 L
4061 1046 L
4062 1001 L
4063 1053 L
4064 967 L
4065 1025 L
4066 1054 L
L2 C05 COSGR

%
% Main frame
%
L10
GSN 
620 1700 M
4220 1700 L
4220 5300 L
620 5300 L
closepath SGR

%
% X axis: large tics
%
L10
GSN 1074 1700 M 0  54 rL SGR
GSN 1074 5300 M 0 -54 rL SGR
helvS (0.0001) 1074 470 xlabel
GSN 1572 1700 M 0  54 rL SGR
GSN 1572 5300 M 0 -54 rL SGR
helvS (0.001) 1572 470 xlabel
GSN 2071 1700 M 0  54 rL SGR
GSN 2071 5300 M 0 -54 rL SGR
helvS (0.01) 2071 470 xlabel
GSN 2570 1700 M 0  54 rL SGR
GSN 2570 5300 M 0 -54 rL SGR
helvS (0.1) 2570 470 xlabel
GSN 3068 1700 M 0  54 rL SGR
GSN 3068 5300 M 0 -54 rL SGR
helvS (1) 3068 470 xlabel
GSN 3567 1700 M 0  54 rL SGR
GSN 3567 5300 M 0 -54 rL SGR
helvS (10) 3567 470 xlabel
GSN 4066 1700 M 0  54 rL SGR
GSN 4066 5300 M 0 -54 rL SGR
helvS (100) 4066 470 xlabel
%
% X axis: small tics
%
L5
GSN 725 1700 M 0  36 rL SGR
GSN 725 5300 M 0 -36 rL SGR
GSN 813 1700 M 0  36 rL SGR
GSN 813 5300 M 0 -36 rL SGR
GSN 875 1700 M 0  36 rL SGR
GSN 875 5300 M 0 -36 rL SGR
GSN 924 1700 M 0  36 rL SGR
GSN 924 5300 M 0 -36 rL SGR
GSN 963 1700 M 0  36 rL SGR
GSN 963 5300 M 0 -36 rL SGR
GSN 996 1700 M 0  36 rL SGR
GSN 996 5300 M 0 -36 rL SGR
GSN 1025 1700 M 0  36 rL SGR
GSN 1025 5300 M 0 -36 rL SGR
GSN 1051 1700 M 0  36 rL SGR
GSN 1051 5300 M 0 -36 rL SGR
GSN 1224 1700 M 0  36 rL SGR
GSN 1224 5300 M 0 -36 rL SGR
GSN 1312 1700 M 0  36 rL SGR
GSN 1312 5300 M 0 -36 rL SGR
GSN 1374 1700 M 0  36 rL SGR
GSN 1374 5300 M 0 -36 rL SGR
GSN 1422 1700 M 0  36 rL SGR
GSN 1422 5300 M 0 -36 rL SGR
GSN 1462 1700 M 0  36 rL SGR
GSN 1462 5300 M 0 -36 rL SGR
GSN 1495 1700 M 0  36 rL SGR
GSN 1495 5300 M 0 -36 rL SGR
GSN 1524 1700 M 0  36 rL SGR
GSN 1524 5300 M 0 -36 rL SGR
GSN 1550 1700 M 0  36 rL SGR
GSN 1550 5300 M 0 -36 rL SGR
GSN 1722 1700 M 0  36 rL SGR
GSN 1722 5300 M 0 -36 rL SGR
GSN 1810 1700 M 0  36 rL SGR
GSN 1810 5300 M 0 -36 rL SGR
GSN 1873 1700 M 0  36 rL SGR
GSN 1873 5300 M 0 -36 rL SGR
GSN 1921 1700 M 0  36 rL SGR
GSN 1921 5300 M 0 -36 rL SGR
GSN 1960 1700 M 0  36 rL SGR
GSN 1960 5300 M 0 -36 rL SGR
GSN 1994 1700 M 0  36 rL SGR
GSN 1994 5300 M 0 -36 rL SGR
GSN 2023 1700 M 0  36 rL SGR
GSN 2023 5300 M 0 -36 rL SGR
GSN 2048 1700 M 0  36 rL SGR
GSN 2048 5300 M 0 -36 rL SGR
GSN 2221 1700 M 0  36 rL SGR
GSN 2221 5300 M 0 -36 rL SGR
GSN 2309 1700 M 0  36 rL SGR
GSN 2309 5300 M 0 -36 rL SGR
GSN 2371 1700 M 0  36 rL SGR
GSN 2371 5300 M 0 -36 rL SGR
GSN 2420 1700 M 0  36 rL SGR
GSN 2420 5300 M 0 -36 rL SGR
GSN 2459 1700 M 0  36 rL SGR
GSN 2459 5300 M 0 -36 rL SGR
GSN 2492 1700 M 0  36 rL SGR
GSN 2492 5300 M 0 -36 rL SGR
GSN 2521 1700 M 0  36 rL SGR
GSN 2521 5300 M 0 -36 rL SGR
GSN 2547 1700 M 0  36 rL SGR
GSN 2547 5300 M 0 -36 rL SGR
GSN 2720 1700 M 0  36 rL SGR
GSN 2720 5300 M 0 -36 rL SGR
GSN 2808 1700 M 0  36 rL SGR
GSN 2808 5300 M 0 -36 rL SGR
GSN 2870 1700 M 0  36 rL SGR
GSN 2870 5300 M 0 -36 rL SGR
GSN 2918 1700 M 0  36 rL SGR
GSN 2918 5300 M 0 -36 rL SGR
GSN 2958 1700 M 0  36 rL SGR
GSN 2958 5300 M 0 -36 rL SGR
GSN 2991 1700 M 0  36 rL SGR
GSN 2991 5300 M 0 -36 rL SGR
GSN 3020 1700 M 0  36 rL SGR
GSN 3020 5300 M 0 -36 rL SGR
GSN 3045 1700 M 0  36 rL SGR
GSN 3045 5300 M 0 -36 rL SGR
GSN 3218 1700 M 0  36 rL SGR
GSN 3218 5300 M 0 -36 rL SGR
GSN 3306 1700 M 0  36 rL SGR
GSN 3306 5300 M 0 -36 rL SGR
GSN 3368 1700 M 0  36 rL SGR
GSN 3368 5300 M 0 -36 rL SGR
GSN 3417 1700 M 0  36 rL SGR
GSN 3417 5300 M 0 -36 rL SGR
GSN 3456 1700 M 0  36 rL SGR
GSN 3456 5300 M 0 -36 rL SGR
GSN 3490 1700 M 0  36 rL SGR
GSN 3490 5300 M 0 -36 rL SGR
GSN 3519 1700 M 0  36 rL SGR
GSN 3519 5300 M 0 -36 rL SGR
GSN 3544 1700 M 0  36 rL SGR
GSN 3544 5300 M 0 -36 rL SGR
GSN 3717 1700 M 0  36 rL SGR
GSN 3717 5300 M 0 -36 rL SGR
GSN 3805 1700 M 0  36 rL SGR
GSN 3805 5300 M 0 -36 rL SGR
GSN 3867 1700 M 0  36 rL SGR
GSN 3867 5300 M 0 -36 rL SGR
GSN 3915 1700 M 0  36 rL SGR
GSN 3915 5300 M 0 -36 rL SGR
GSN 3955 1700 M 0  36 rL SGR
GSN 3955 5300 M 0 -36 rL SGR
GSN 3988 1700 M 0  36 rL SGR
GSN 3988 5300 M 0 -36 rL SGR
GSN 4017 1700 M 0  36 rL SGR
GSN 4017 5300 M 0 -36 rL SGR
GSN 4043 1700 M 0  36 rL SGR
GSN 4043 5300 M 0 -36 rL SGR
GSN 4216 1700 M 0  36 rL SGR
GSN 4216 5300 M 0 -36 rL SGR
%
% Y axis: large tics
%
L10
GSN 620 1904 M 54 0 rL SGR
GSN 4220 1904 M -54 0 rL SGR
helvS (0.95) 560 1904 ylabel
GSN 620 3416 M 54 0 rL SGR
GSN 4220 3416 M -54 0 rL SGR
helvS (1) 560 3416 ylabel
GSN 620 4928 M 54 0 rL SGR
GSN 4220 4928 M -54 0 rL SGR
helvS (1.05) 560 4928 ylabel
%
% Y axis: small tics
%
L5
GSN 620 1904 M 36 0 rL SGR
GSN 4220 1904 M -36 0 rL SGR
GSN 620 2207 M 36 0 rL SGR
GSN 4220 2207 M -36 0 rL SGR
GSN 620 2509 M 36 0 rL SGR
GSN 4220 2509 M -36 0 rL SGR
GSN 620 2812 M 36 0 rL SGR
GSN 4220 2812 M -36 0 rL SGR
GSN 620 3114 M 36 0 rL SGR
GSN 4220 3114 M -36 0 rL SGR
GSN 620 3416 M 36 0 rL SGR
GSN 4220 3416 M -36 0 rL SGR
GSN 620 3719 M 36 0 rL SGR
GSN 4220 3719 M -36 0 rL SGR
GSN 620 4021 M 36 0 rL SGR
GSN 4220 4021 M -36 0 rL SGR
GSN 620 4324 M 36 0 rL SGR
GSN 4220 4324 M -36 0 rL SGR
GSN 620 4626 M 36 0 rL SGR
GSN 4220 4626 M -36 0 rL SGR
GSN 620 4928 M 36 0 rL SGR
GSN 4220 4928 M -36 0 rL SGR
GSN 620 5231 M 36 0 rL SGR
GSN 4220 5231 M -36 0 rL SGR

%
% X-Axis label:
%
gsave 2420 290 M 
[
[(Helvetica) 180 0 true true 0 (t)]
[(Helvetica) 180 0 true true 0 (i)]
[(Helvetica) 180 0 true true 0 (m)]
[(Helvetica) 180 0 true true 0 (e)]
] 0 MCshow grestore

%
% Y-Axis label:
%
gsave 234 3500 M 
currentpoint gsave translate 90 rotate 0 0 moveto
[
[(Helvetica) 180 0 true true 0 (s)]
[(Helvetica) 180 0 true true 0 (i)]
[(Helvetica) 180 0 true true 0 (g)]
[(Helvetica) 180 0 true true 0 (n)]
[(Helvetica) 180 0 true true 0 (a)]
[(Helvetica) 180 0 true true 0 (l)]
] 0 MCshow grestore

%
% Residuals:
%
gsave 129 1160 M 
currentpoint gsave translate 90 rotate 0 0 moveto
[
[(Helvetica) 150 0 true true 0 (r)]
[(Helvetica) 150 0 true true 0 (e)]
[(Helvetica) 150 0 true true 0 (s)]
[(Helvetica) 150 0 true true 0 (i)]
[(Helvetica) 150 0 true true 0 (d)]
[(Helvetica) 150 0 true true 0 (u)]
[(Helvetica) 150 0 true true 0 (a)]
[(Helvetica) 150 0 true true 0 (l)]
[(Helvetica) 150 0 true true 0 (s)]
] 0 MCshow grestore

%
% Residual frame
%
L10
GSN 
620 620 M
4220 620 L
4220 1700 L
620 1700 L
closepath SGR
%
% X axis: large tics - residual frame
%
L10
GSN 1074 620 M 0  54 rL SGR
GSN 1074 1700 M 0 -54 rL SGR
GSN 1572 620 M 0  54 rL SGR
GSN 1572 1700 M 0 -54 rL SGR
GSN 2071 620 M 0  54 rL SGR
GSN 2071 1700 M 0 -54 rL SGR
GSN 2570 620 M 0  54 rL SGR
GSN 2570 1700 M 0 -54 rL SGR
GSN 3068 620 M 0  54 rL SGR
GSN 3068 1700 M 0 -54 rL SGR
GSN 3567 620 M 0  54 rL SGR
GSN 3567 1700 M 0 -54 rL SGR
GSN 4066 620 M 0  54 rL SGR
GSN 4066 1700 M 0 -54 rL SGR
%
% X axis: small tics - residual frame
%
L5
GSN 725 620 M 0  36 rL SGR
GSN 725 1700 M 0 -36 rL SGR
GSN 813 620 M 0  36 rL SGR
GSN 813 1700 M 0 -36 rL SGR
GSN 875 620 M 0  36 rL SGR
GSN 875 1700 M 0 -36 rL SGR
GSN 924 620 M 0  36 rL SGR
GSN 924 1700 M 0 -36 rL SGR
GSN 963 620 M 0  36 rL SGR
GSN 963 1700 M 0 -36 rL SGR
GSN 996 620 M 0  36 rL SGR
GSN 996 1700 M 0 -36 rL SGR
GSN 1025 620 M 0  36 rL SGR
GSN 1025 1700 M 0 -36 rL SGR
GSN 1051 620 M 0  36 rL SGR
GSN 1051 1700 M 0 -36 rL SGR
GSN 1224 620 M 0  36 rL SGR
GSN 1224 1700 M 0 -36 rL SGR
GSN 1312 620 M 0  36 rL SGR
GSN 1312 1700 M 0 -36 rL SGR
GSN 1374 620 M 0  36 rL SGR
GSN 1374 1700 M 0 -36 rL SGR
GSN 1422 620 M 0  36 rL SGR
GSN 1422 1700 M 0 -36 rL SGR
GSN 1462 620 M 0  36 rL SGR
GSN 1462 1700 M 0 -36 rL SGR
GSN 1495 620 M 0  36 rL SGR
GSN 1495 1700 M 0 -36 rL SGR
GSN 1524 620 M 0  36 rL SGR
GSN 1524 1700 M 0 -36 rL SGR
GSN 1550 620 M 0  36 rL SGR
GSN 1550 1700 M 0 -36 rL SGR
GSN 1722 620 M 0  36 rL SGR
GSN 1722 1700 M 0 -36 rL SGR
GSN 1810 620 M 0  36 rL SGR
GSN 1810 1700 M 0 -36 rL SGR
GSN 1873 620 M 0  36 rL SGR
GSN 1873 1700 M 0 -36 rL SGR
GSN 1921 620 M 0  36 rL SGR
GSN 1921 1700 M 0 -36 rL SGR
GSN 1960 620 M 0  36 rL SGR
GSN 1960 1700 M 0 -36 rL SGR
GSN 1994 620 M 0  36 rL SGR
GSN 1994 1700 M 0 -36 rL SGR
GSN 2023 620 M 0  36 rL SGR
GSN 2023 1700 M 0 -36 rL SGR
GSN 2048 620 M 0  36 rL SGR
GSN 2048 1700 M 0 -36 rL SGR
GSN 2221 620 M 0  36 rL SGR
GSN 2221 1700 M 0 -36 rL SGR
GSN 2309 620 M 0  36 rL SGR
GSN 2309 1700 M 0 -36 rL SGR
GSN 2371 620 M 0  36 rL SGR
GSN 2371 1700 M 0 -36 rL SGR
GSN 2420 620 M 0  36 rL SGR
GSN 2420 1700 M 0 -36 rL SGR
GSN 2459 620 M 0  36 rL SGR
GSN 2459 1700 M 0 -36 rL SGR
GSN 2492 620 M 0  36 rL SGR
GSN 2492 1700 M 0 -36 rL SGR
GSN 2521 620 M 0  36 rL SGR
GSN 2521 1700 M 0 -36 rL SGR
GSN 2547 620 M 0  36 rL SGR
GSN 2547 1700 M 0 -36 rL SGR
GSN 2720 620 M 0  36 rL SGR
GSN 2720 1700 M 0 -36 rL SGR
GSN 2808 620 M 0  36 rL SGR
GSN 2808 1700 M 0 -36 rL SGR
GSN 2870 620 M 0  36 rL SGR
GSN 2870 1700 M 0 -36 rL SGR
GSN 2918 620 M 0  36 rL SGR
GSN 2918 1700 M 0 -36 rL SGR
GSN 2958 620 M 0  36 rL SGR
GSN 2958 1700 M 0 -36 rL SGR
GSN 2991 620 M 0  36 rL SGR
GSN 2991 1700 M 0 -36 rL SGR
GSN 3020 620 M 0  36 rL SGR
GSN 3020 1700 M 0 -36 rL SGR
GSN 3045 620 M 0  36 rL SGR
GSN 3045 1700 M 0 -36 rL SGR
GSN 3218 620 M 0  36 rL SGR
GSN 3218 1700 M 0 -36 rL SGR
GSN 3306 620 M 0  36 rL SGR
GSN 3306 1700 M 0 -36 rL SGR
GSN 3368 620 M 0  36 rL SGR
GSN 3368 1700 M 0 -36 rL SGR
GSN 3417 620 M 0  36 rL SGR
GSN 3417 1700 M 0 -36 rL SGR
GSN 3456 620 M 0  36 rL SGR
GSN 3456 1700 M 0 -36 rL SGR
GSN 3490 620 M 0  36 rL SGR
GSN 3490 1700 M 0 -36 rL SGR
GSN 3519 620 M 0  36 rL SGR
GSN 3519 1700 M 0 -36 rL SGR
GSN 3544 620 M 0  36 rL SGR
GSN 3544 1700 M 0 -36 rL SGR
GSN 3717 620 M 0  36 rL SGR
GSN 3717 1700 M 0 -36 rL SGR
GSN 3805 620 M 0  36 rL SGR
GSN 3805 1700 M 0 -36 rL SGR
GSN 3867 620 M 0  36 rL SGR
GSN 3867 1700 M 0 -36 rL SGR
GSN 3915 620 M 0  36 rL SGR
GSN 3915 1700 M 0 -36 rL SGR
GSN 3955 620 M 0  36 rL SGR
GSN 3955 1700 M 0 -36 rL SGR
GSN 3988 620 M 0  36 rL SGR
GSN 3988 1700 M 0 -36 rL SGR
GSN 4017 620 M 0  36 rL SGR
GSN 4017 1700 M 0 -36 rL SGR
GSN 4043 620 M 0  36 rL SGR
GSN 4043 1700 M 0 -36 rL SGR
GSN 4216 620 M 0  36 rL SGR
GSN 4216 1700 M 0 -36 rL SGR
%
% Y axis: large tics - residual frame
%
L10
GSN 620 625 M 54 0 rL SGR
GSN 4220 625 M -54 0 rL SGR
helvS (-0.04) 560 625 ylabelresid
GSN 620 845 M 54 0 rL SGR
GSN 4220 845 M -54 0 rL SGR
helvS (-0.02) 560 845 ylabelresid
GSN 620 1065 M 54 0 rL SGR
GSN 4220 1065 M -54 0 rL SGR
helvS (0) 560 1065 ylabelresid
GSN 620 1285 M 54 0 rL SGR
GSN 4220 1285 M -54 0 rL SGR
helvS (0.02) 560 1285 ylabelresid
GSN 620 1506 M 54 0 rL SGR
GSN 4220 1506 M -54 0 rL SGR
helvS (0.04) 560 1506 ylabelresid

%
% X axis - residual panel
%
GSN L5 620 1065 M 4220 1065 L SDA G50 SGR

end
showpage
%%Trailer
%%EOF
