%!PS-Adobe-3.0 EPSF-3.0
%%BoundingBox: 0 0 514 550
%%Creator: BioKin Ltd.
%%DocumentFonts: Symbol Helvetica
%%EndComments
%
/bkdict 256 dict def
bkdict begin
/M {moveto} def 
/R {rmoveto} def
/L {lineto} def
/rL {rlineto} def
/GSN {gsave newpath} def
/SGR {stroke grestore} def
/COSGR {gsave setrgbcolor stroke grestore grestore} def
/SL {setlinewidth} def
/LWMB {12} def             % line width - model curves, black & white
/LWMC {10} def             % line width - model curves, color
/L2 {2.5 setlinewidth} def
/L5 {5 setlinewidth} def
/L10 {10 setlinewidth} def
/G50 {0.5 setgray} def
/SDA {[10  20] 0 setdash} def % axes
/helvT {/Helvetica findfont 100 scalefont setfont} def % tiny
/helvS {/Helvetica findfont 125 scalefont setfont} def % small
/helvM {/Helvetica findfont 150 scalefont setfont} def % medium
/helvL {/Helvetica findfont 175 scalefont setfont} def % large
/xlabel {gsave M dup
   stringwidth exch -0.5 mul exch rmoveto show grestore} def 
/ylabel {gsave M 90 rotate dup
   stringwidth exch -0.5 mul exch rmoveto show grestore} def
/ylabelresid {gsave M dup
   stringwidth exch -1 mul exch rmoveto show grestore} def
% ======
% Shapes
% ======
% Circle:
/Circ {0 360 arc closepath} def
%
% Square:
/Squa {dup dup -0.5 mul dup dup R -2 mul 0 exch rL 1 mul 0 rL dup 0 exch -1 mul rL closepath} def
%
% Triangle Up:
/TriU {dup dup dup -0.4 mul exch -0.5 mul exch R dup 0.5 mul exch rL dup -1 mul exch 0.5 mul exch rL closepath} def 
%
% Triangle Down:
/TriD {dup dup dup 0.4 mul exch -0.5 mul exch R dup 0.5 mul exch -1 mul rL dup 0.5 mul exch rL closepath} def 
%
% Diamond:
/Diam {45 rotate Squa} def
% ======
% Fills
% ======
/GRF {gsave setgray fill grestore} def                    % gray-level Fill
/COF {gsave setrgbcolor fill grestore} def                % color fill
% ======
% Colors
% ======
/C01 {1.00	0.00	0.00} def      % Red
/C02 {0.00	0.00	1.00} def      % Blue
/C03 {0.00	0.39	0.00} def      % Dark Green
/C04 {0.78	0.08	0.52} def      % Medium Violet Red
/C05 {0.55	0.27	0.07} def      % Saddle Brown
/C06 {0.10	0.70	0.70} def      % (cyan)
/C07 {1.00	0.55	0.00} def      % Dark Orange
/C08 {0.63	0.13	0.94} def      % Purple
/C09 {0.00	0.75	1.00} def      % Deep Sky Blue
/C10 {0.20	0.80	0.20} def      % Lime Green
/C11 {0.47	0.53	0.60} def      % Light Slate Gray
/C12 {0.00	0.00	0.00} def      % Black            % or: {0.19	0.31	0.31} def      % Dark Slate Gray
%
/LGR {0.75} def % light gray
/DGR {0.33} def % dark gray
%
% =============
% Dash patterns
% =============
/dash01 { [80  20] 0 setdash } def
/dash02 { [40  20] 0 setdash } def
/dash03 { [80  20  10  20] 0 setdash } def
/dash04 { [40  20  10  20] 0 setdash } def
/dash05 { [80  20  10  10  10  20] 0 setdash } def
/dash06 { [40  20  10  10  10  20] 0 setdash } def
/dash07 { [10  10] 0 setdash } def
%
/MFshow {
   { dup 5 get 3 ge
     { 5 get 3 eq {gsave} {grestore} ifelse }
     {dup dup 0 get findfont exch 1 get scalefont setfont
     [ currentpoint ] exch dup 2 get 0 exch R dup 5 get 2 ne {dup dup 6
     get exch 4 get {show} {stringwidth pop 0 R} ifelse }if dup 5 get 0 eq
     {dup 3 get {2 get neg 0 exch R pop} {pop aload pop M} ifelse} {dup 5
     get 1 eq {dup 2 get exch dup 3 get exch 6 get stringwidth pop -2 div
     dup 0 R} {dup 6 get stringwidth pop -2 div 0 R 6 get
     show 2 index {aload pop M neg 3 -1 roll neg R pop pop} {pop pop pop
     pop aload pop M} ifelse }ifelse }ifelse }
     ifelse }
   forall} bind def
/MFwidth {0 exch {dup 3 get{dup dup 0 get findfont exch 1 get scalefont
     setfont 6 get stringwidth pop add} {pop} ifelse} forall} bind def
/MCshow { currentpoint stroke M
  exch dup MFwidth -2 div 3 -1 roll R MFshow } def
%
end
%%EndProlog
bkdict begin
0.1 0.1 scale
%
% Model curves:
%

GSN 753 4927 M
753 4927 L
786 4927 L
820 4927 L
853 4927 L
886 4927 L
920 4927 L
929 4927 L
953 4926 L
986 4926 L
1020 4926 L
1053 4925 L
1086 4925 L
1106 4925 L
1120 4925 L
1153 4924 L
1186 4924 L
1220 4923 L
1253 4922 L
1282 4922 L
1286 4921 L
1319 4920 L
1353 4919 L
1386 4918 L
1419 4917 L
1453 4915 L
1459 4915 L
1486 4913 L
1519 4911 L
1553 4909 L
1586 4906 L
1619 4903 L
1635 4902 L
1653 4900 L
1686 4896 L
1719 4891 L
1753 4886 L
1786 4880 L
1812 4875 L
1819 4874 L
1853 4866 L
1886 4858 L
1919 4848 L
1953 4837 L
1986 4825 L
1988 4824 L
2019 4811 L
2053 4795 L
2086 4778 L
2119 4758 L
2153 4735 L
2165 4727 L
2186 4710 L
2219 4682 L
2253 4651 L
2286 4615 L
2319 4577 L
2341 4549 L
2353 4533 L
2386 4486 L
2419 4433 L
2453 4376 L
2486 4313 L
2518 4249 L
2519 4246 L
2553 4173 L
2586 4095 L
2619 4012 L
2653 3924 L
2686 3833 L
2694 3809 L
2719 3738 L
2753 3640 L
2786 3540 L
2819 3440 L
2853 3340 L
2871 3286 L
2886 3242 L
2919 3146 L
2953 3055 L
2986 2968 L
3019 2888 L
3047 2826 L
3053 2815 L
3086 2749 L
3119 2692 L
3153 2643 L
3186 2603 L
3219 2570 L
3224 2567 L
3253 2546 L
3286 2527 L
3319 2515 L
3353 2507 L
3386 2502 L
3400 2500 L
3419 2499 L
3453 2497 L
3476 2497 L
3486 2497 L
3519 2497 L
3553 2496 L
3577 2496 L
3586 2496 L
3619 2496 L
3653 2496 L
3686 2496 L
3719 2496 L
3753 2496 L
3754 2496 L
3786 2496 L
3819 2496 L
3853 2496 L
3886 2496 L
3919 2496 L
3930 2496 L
3953 2496 L
3986 2496 L
4019 2496 L
4053 2496 L
4086 2496 L
4086 2496 L
LWMC SL  C02 COSGR

%
% Experimental data:
%
GSN 777 4598 M
1388 5166 L
1552 4938 L
1652 4448 L
1723 4239 L
1778 4316 L
1824 4751 L
1863 4536 L
1896 4618 L
1926 4610 L
1952 4773 L
1976 4678 L
1998 4845 L
2019 4548 L
2037 4443 L
2055 4537 L
2071 4702 L
2086 4512 L
2101 4647 L
2115 4828 L
2128 4850 L
2140 4687 L
2152 4536 L
2163 4634 L
2174 4711 L
2184 4605 L
2194 4708 L
2204 4632 L
2213 4404 L
2222 4795 L
2230 4668 L
2239 4713 L
2247 4764 L
2255 4510 L
2262 4350 L
2270 4647 L
2277 4558 L
2284 4337 L
2290 4656 L
2297 4553 L
2303 4484 L
2310 4582 L
2316 4627 L
2322 4601 L
2328 4445 L
2333 4347 L
2339 4467 L
2344 4728 L
2350 4575 L
2355 4635 L
2360 4514 L
2365 4615 L
2370 4398 L
2375 4512 L
2380 4608 L
2384 4417 L
2389 4371 L
2393 4433 L
2398 4477 L
2402 4505 L
2407 4639 L
2411 4398 L
2415 4402 L
2419 4160 L
2423 4517 L
2427 4357 L
2431 4417 L
2435 4318 L
2438 4428 L
2442 4417 L
2446 4429 L
2449 4167 L
2453 4436 L
2456 4459 L
2460 4594 L
2463 4388 L
2467 4383 L
2470 4328 L
2473 4139 L
2476 4225 L
2480 4392 L
2483 4398 L
2486 4550 L
2489 4513 L
2492 4273 L
2495 4302 L
2498 4361 L
2501 4352 L
2504 4258 L
2507 4424 L
2510 4221 L
2512 4110 L
2515 4204 L
2518 4151 L
2521 4220 L
2523 4227 L
2526 4448 L
2529 4264 L
2531 4144 L
2534 4355 L
2536 4057 L
2539 4168 L
2541 4201 L
2544 4302 L
2546 4253 L
2549 4093 L
2551 4120 L
2554 4141 L
2556 4244 L
2558 4409 L
2561 4275 L
2563 4161 L
2565 3942 L
2568 4154 L
2570 4137 L
2572 4112 L
2574 4053 L
2576 4615 L
2579 4208 L
2581 4285 L
2583 4012 L
2585 4292 L
2587 4117 L
2589 4096 L
2591 4306 L
2593 4282 L
2595 4228 L
2597 4055 L
2599 4194 L
2601 4297 L
2603 4122 L
2605 3942 L
2607 3955 L
2609 4041 L
2611 4144 L
2613 4141 L
2615 4270 L
2617 4108 L
2618 4125 L
2620 4076 L
2622 4065 L
2624 4028 L
2626 4009 L
2627 4050 L
2629 3833 L
2631 4151 L
2633 4247 L
2634 3985 L
2636 4132 L
2638 3890 L
2640 4057 L
2641 4136 L
2643 3866 L
2645 4089 L
2646 3883 L
2648 3830 L
2650 4007 L
2651 4039 L
2653 4093 L
2654 4034 L
2656 4086 L
2658 3864 L
2659 4060 L
2661 3935 L
2662 3773 L
2664 3802 L
2665 4125 L
2667 3931 L
2668 4053 L
2670 4177 L
2671 4132 L
2673 3837 L
2674 4199 L
2676 4017 L
2677 3959 L
2679 4122 L
2680 3930 L
2682 3768 L
2683 3827 L
2685 3894 L
2686 3767 L
2687 3785 L
2689 3684 L
2690 4093 L
2692 3971 L
2693 4103 L
2694 3978 L
2696 3892 L
2697 3933 L
2698 4021 L
2700 3591 L
2701 3784 L
2702 3974 L
2704 3827 L
2705 3969 L
2706 4110 L
2708 3873 L
2709 3840 L
2710 3911 L
2712 3797 L
2713 3895 L
2714 3947 L
2715 3938 L
2717 3765 L
2718 3976 L
2719 4015 L
2720 3663 L
2722 3840 L
2723 3912 L
2724 3955 L
2725 3742 L
2726 3995 L
2728 3840 L
2729 3820 L
2730 3969 L
2731 3976 L
2732 3602 L
2734 3700 L
2735 4033 L
2736 3974 L
2737 3931 L
2738 3657 L
2739 3778 L
2741 3823 L
2742 3878 L
2743 3751 L
2744 3947 L
2745 3979 L
2746 3653 L
2747 3614 L
2748 3720 L
2749 3687 L
2751 3591 L
2752 3825 L
2753 3751 L
2754 3760 L
2755 3699 L
2756 3823 L
2757 3753 L
2758 3729 L
2759 3897 L
2760 3885 L
2761 3553 L
2762 3566 L
2763 3578 L
2764 3789 L
2765 3772 L
2767 3890 L
2768 3670 L
2769 3823 L
2770 3741 L
2771 3778 L
2772 3974 L
2773 3359 L
2774 3668 L
2775 3871 L
2776 3734 L
2777 3464 L
2778 3569 L
2779 3777 L
2780 3698 L
2781 3552 L
2782 3809 L
2783 3624 L
2783 3643 L
2784 3675 L
2785 3761 L
2786 3620 L
2787 3827 L
2788 3856 L
2789 3687 L
2790 3708 L
2791 3696 L
2792 3617 L
2793 3609 L
2794 3706 L
2795 3729 L
2796 3668 L
2797 3567 L
2798 3778 L
2798 3593 L
2799 3574 L
2800 3421 L
2801 3705 L
2802 3712 L
2803 3784 L
2804 3440 L
2805 3617 L
2806 3923 L
2807 3614 L
2807 3703 L
2808 3365 L
2809 3334 L
2810 3373 L
2811 3598 L
2812 3530 L
2813 3557 L
2813 3578 L
2814 3748 L
2815 3499 L
2816 3505 L
2817 3529 L
2818 3686 L
2819 3349 L
2819 3546 L
2820 3825 L
2821 3591 L
2822 3373 L
2823 3602 L
2824 3655 L
2824 3420 L
2825 3512 L
2826 3442 L
2827 3521 L
2828 3414 L
2828 3742 L
2829 3593 L
2830 3327 L
2831 3461 L
2832 3502 L
2832 3425 L
2833 3347 L
2834 3466 L
2835 3395 L
2836 3414 L
2836 3653 L
2837 3669 L
2838 3500 L
2839 3332 L
2840 3566 L
2840 3287 L
2841 3420 L
2842 3681 L
2843 3332 L
2843 3720 L
2844 3492 L
2845 3748 L
2846 3729 L
2846 3368 L
2847 3449 L
2848 3248 L
2849 3454 L
2849 3521 L
2850 3775 L
2851 3213 L
2852 3483 L
2852 3409 L
2853 3359 L
2854 3384 L
2855 3267 L
2855 3504 L
2856 3174 L
2857 3703 L
2857 3325 L
2858 3499 L
2859 3353 L
2860 3416 L
2860 3557 L
2861 3751 L
2862 3358 L
2862 3325 L
2863 3741 L
2864 3371 L
2865 3430 L
2865 3461 L
2866 3535 L
2867 3421 L
2867 3435 L
2868 3409 L
2869 3473 L
2869 3179 L
2870 3454 L
2871 3430 L
2871 3241 L
2872 3442 L
2873 3155 L
2873 3212 L
2874 3507 L
2875 3330 L
2876 3359 L
2876 3521 L
2877 3279 L
2878 3399 L
2878 3287 L
2879 3505 L
2880 3179 L
2880 3280 L
2881 3526 L
2881 3146 L
2882 3478 L
2883 3179 L
2883 3248 L
2884 3390 L
2885 3334 L
2885 3555 L
2886 3310 L
2887 3325 L
2887 3236 L
2888 3159 L
2889 3430 L
2889 3524 L
2892 3203 L
2894 3315 L
2897 3292 L
2899 3263 L
2902 3083 L
2904 3205 L
2907 3550 L
2909 3188 L
2911 3260 L
2914 3050 L
2916 3311 L
2918 3207 L
2921 3155 L
2923 3057 L
2925 3196 L
2927 3298 L
2929 3354 L
2932 3081 L
2934 3141 L
2936 3169 L
2938 2958 L
2940 3183 L
2942 3263 L
2944 2956 L
2946 3109 L
2948 3303 L
2950 2966 L
2952 2947 L
2954 3150 L
2956 3188 L
2958 2887 L
2960 2892 L
2962 3241 L
2964 2918 L
2966 3107 L
2968 2952 L
2970 2992 L
2971 3102 L
2973 2786 L
2975 2891 L
2977 3198 L
2979 2843 L
2980 2995 L
2982 2961 L
2984 2818 L
2986 3097 L
2987 2879 L
2989 2824 L
2991 2789 L
2993 2729 L
2994 2954 L
2996 2789 L
2998 2616 L
2999 2949 L
3001 2837 L
3003 2724 L
3004 2547 L
3006 3086 L
3007 3026 L
3009 2872 L
3011 2990 L
3012 2959 L
3014 2662 L
3015 2901 L
3017 2903 L
3018 2753 L
3020 2968 L
3021 2755 L
3023 2994 L
3024 2549 L
3026 2896 L
3027 2894 L
3029 2607 L
3030 2564 L
3032 2642 L
3033 2801 L
3035 2796 L
3036 2714 L
3038 3019 L
3039 2887 L
3040 2851 L
3042 2679 L
3043 2769 L
3045 2736 L
3046 2777 L
3047 2781 L
3049 2836 L
3050 2688 L
3051 2829 L
3053 2480 L
3054 2626 L
3055 2923 L
3057 2516 L
3058 2772 L
3059 2915 L
3061 2736 L
3062 2743 L
3063 2575 L
3065 2430 L
3066 2825 L
3067 2626 L
3068 2671 L
3070 2528 L
3071 2726 L
3072 2710 L
3073 2569 L
3075 2619 L
3076 2648 L
3077 2729 L
3078 2719 L
3079 2568 L
3081 2635 L
3082 2415 L
3083 2595 L
3084 2635 L
3085 2539 L
3087 2539 L
3088 2631 L
3089 2585 L
3090 2676 L
3091 2482 L
3092 2480 L
3094 2578 L
3095 2466 L
3096 2492 L
3097 2654 L
3098 2444 L
3099 2884 L
3100 2367 L
3101 2288 L
3103 2813 L
3104 2303 L
3105 2530 L
3106 2607 L
3107 2463 L
3108 2557 L
3109 2582 L
3110 2729 L
3111 2496 L
3112 2379 L
3113 2460 L
3114 2652 L
3115 2607 L
3116 2502 L
3117 2606 L
3119 2363 L
3120 2434 L
3121 2573 L
3122 2477 L
3123 2592 L
3124 2487 L
3125 2638 L
3126 2504 L
3127 2281 L
3128 2618 L
3129 2341 L
3130 2332 L
3131 2712 L
3132 2179 L
3133 2535 L
3134 2477 L
3135 2262 L
3136 2480 L
3136 2456 L
3137 2358 L
3138 2362 L
3139 2453 L
3140 2494 L
3141 2200 L
3142 2346 L
3143 2279 L
3144 2496 L
3145 2626 L
3146 2521 L
3147 2580 L
3148 2303 L
3149 2200 L
3150 2458 L
3151 2401 L
3151 2223 L
3152 2291 L
3153 2240 L
3154 2430 L
3155 2156 L
3156 2465 L
3157 2604 L
3158 2511 L
3159 2331 L
3160 2405 L
3160 2092 L
3161 2312 L
3162 2271 L
3163 2408 L
3164 2374 L
3165 2516 L
3166 2334 L
3166 2254 L
3167 2456 L
3168 2429 L
3169 2207 L
3170 2408 L
3171 2370 L
3172 2559 L
3172 2315 L
3173 2231 L
3174 2217 L
3175 2199 L
3176 2341 L
3177 2413 L
3177 2308 L
3178 2363 L
3179 2303 L
3180 2296 L
3181 2398 L
3181 2557 L
3182 2436 L
3183 2107 L
3184 2484 L
3185 2401 L
3185 2338 L
3186 2528 L
3187 2173 L
3188 2398 L
3189 2377 L
3189 2614 L
3190 2460 L
3191 2290 L
3192 2149 L
3193 2336 L
3193 2564 L
3194 2190 L
3195 2298 L
3196 2339 L
3196 2197 L
3197 2096 L
3198 2430 L
3199 2120 L
3199 2070 L
3200 2442 L
3201 2358 L
3202 2216 L
3202 2317 L
3203 2336 L
3204 2332 L
3205 2109 L
3205 2547 L
3206 2272 L
3207 2228 L
3208 2190 L
3208 2387 L
3209 2317 L
3210 2224 L
3210 2394 L
3211 2171 L
3212 2295 L
3213 2310 L
3213 2331 L
3214 2351 L
3215 2422 L
3215 2180 L
3216 2224 L
3217 2336 L
3218 2259 L
3218 2027 L
3219 1913 L
3220 2425 L
3220 2276 L
3221 2248 L
3222 2233 L
3222 2406 L
3223 2147 L
3224 2449 L
3224 2132 L
3225 2310 L
3226 2152 L
3227 2147 L
3227 2145 L
3228 2154 L
3229 2325 L
3229 2216 L
3230 2096 L
3231 2284 L
3231 2315 L
3232 2207 L
3233 2398 L
3233 2219 L
3234 2161 L
3235 2451 L
3235 2135 L
3236 2490 L
3236 2324 L
3237 2209 L
3238 2300 L
3238 2169 L
3239 2250 L
3240 2374 L
3240 2214 L
3241 2267 L
3242 2228 L
3242 2257 L
3243 2236 L
3244 2162 L
3244 2212 L
3245 2317 L
3245 2053 L
3246 2185 L
3247 2092 L
3247 1960 L
3248 2312 L
3249 2090 L
3249 2327 L
3250 2346 L
3250 2116 L
3251 2204 L
3252 2059 L
3252 2387 L
3253 2082 L
3253 2429 L
3254 2293 L
3255 2233 L
3255 2214 L
3256 2348 L
3257 2262 L
3257 2357 L
3258 2274 L
3258 2274 L
3259 2183 L
3259 2051 L
3260 2168 L
3261 2377 L
3261 2317 L
3262 2192 L
3262 2118 L
3263 2288 L
3264 2185 L
3264 2269 L
3265 2375 L
3265 2348 L
3266 2243 L
3267 2398 L
3267 2209 L
3268 2296 L
3268 2293 L
3269 2356 L
3269 2254 L
3270 2331 L
3271 2204 L
3271 2322 L
3272 2097 L
3272 2200 L
3273 2099 L
3273 2465 L
3274 2504 L
3275 2432 L
3275 2199 L
3276 2377 L
3276 2307 L
3277 2341 L
3277 2178 L
3278 2121 L
3278 2217 L
3279 2152 L
3280 2441 L
3280 2168 L
3281 2020 L
3281 2432 L
3282 2473 L
3282 2303 L
3283 2255 L
3283 2123 L
3284 2164 L
3284 2001 L
3285 2219 L
3285 1941 L
3286 2157 L
3287 2272 L
3287 2116 L
3288 2401 L
3288 2192 L
3289 2107 L
3289 1833 L
3290 2326 L
3290 2302 L
3291 2090 L
3291 2061 L
3292 2312 L
3292 2348 L
3293 2137 L
3293 2171 L
3294 2197 L
3294 2180 L
3295 2173 L
3295 2099 L
3296 2367 L
3297 2162 L
3297 2269 L
3298 2171 L
3298 2379 L
3299 2228 L
3299 2219 L
3300 2130 L
3300 2269 L
3301 2257 L
3301 2267 L
3302 2363 L
3302 2162 L
3303 2228 L
3303 2631 L
3304 2356 L
3304 2410 L
3305 2451 L
3305 2284 L
3306 2118 L
3306 2178 L
3307 2441 L
3307 2429 L
3308 2422 L
3308 2157 L
3309 2331 L
3309 2193 L
3310 2254 L
3310 2252 L
3311 2380 L
3311 2320 L
3312 2374 L
3312 2212 L
3312 2329 L
3313 2214 L
3313 2384 L
3314 2583 L
3314 2281 L
3315 2233 L
3315 2248 L
3316 2393 L
3316 2241 L
3317 2329 L
3317 2353 L
3318 1958 L
3318 2229 L
3319 2289 L
3319 2204 L
3320 2348 L
3320 2296 L
3321 2351 L
3321 2216 L
3321 2394 L
3322 2278 L
3322 2357 L
3323 2269 L
3323 2491 L
3324 2293 L
3324 2321 L
3325 2250 L
3325 2269 L
3326 2159 L
3326 2142 L
3327 2353 L
3327 2611 L
3327 2233 L
3328 2200 L
3328 2056 L
3329 2253 L
3329 2449 L
3330 2485 L
3330 2363 L
3331 2420 L
3331 2289 L
3332 2300 L
3332 2341 L
3332 2379 L
3333 2128 L
3333 2394 L
3334 2393 L
3334 2446 L
3335 2305 L
3335 2382 L
3336 2391 L
3336 2444 L
3336 2473 L
3337 2131 L
3337 2351 L
3338 2262 L
3338 2456 L
3339 2319 L
3339 2386 L
3339 2219 L
3340 1907 L
3340 2145 L
3341 2365 L
3341 2410 L
3342 2300 L
3342 2492 L
3343 2501 L
3343 2283 L
3343 2266 L
3344 2260 L
3344 2755 L
3345 2276 L
3345 2401 L
3346 2185 L
3346 2324 L
3346 2106 L
3347 2463 L
3347 2107 L
3348 2389 L
3348 2164 L
3348 2322 L
3349 2516 L
3349 2279 L
3350 2367 L
3350 2415 L
3351 2324 L
3351 2305 L
3351 2090 L
3352 2324 L
3352 2477 L
3353 2446 L
3353 2427 L
3353 2254 L
3354 2087 L
3354 2164 L
3355 2099 L
3355 2204 L
3355 2772 L
3356 2387 L
3356 2336 L
3357 2274 L
3357 2369 L
3358 2635 L
3358 2238 L
3358 2513 L
3359 2140 L
3359 2344 L
3360 2137 L
3360 2308 L
3360 2224 L
3361 2315 L
3361 2396 L
3362 2312 L
3362 2157 L
3362 2468 L
3363 2214 L
3363 2478 L
3364 2406 L
3364 2683 L
3364 1956 L
3365 2291 L
3365 2372 L
3365 2417 L
3366 2465 L
3366 2080 L
3367 2437 L
3367 2533 L
3367 2460 L
3368 2147 L
3368 2099 L
3369 2221 L
3369 2271 L
3369 2382 L
3370 2600 L
3370 2515 L
3371 2530 L
3371 2360 L
3371 2083 L
3372 2169 L
3372 2154 L
3372 2229 L
3373 2264 L
3373 2269 L
3374 2393 L
3374 2233 L
3374 2398 L
3375 2293 L
3375 2332 L
3375 2576 L
3376 2222 L
3376 2217 L
3377 2320 L
3377 2319 L
3377 2401 L
3378 2233 L
3378 2260 L
3378 2511 L
3379 2186 L
3379 2461 L
3380 2267 L
3380 2554 L
3380 2458 L
3381 2583 L
3381 2487 L
3381 2211 L
3382 2144 L
3382 2360 L
3383 2417 L
3383 2571 L
3383 2334 L
3384 2394 L
3384 2272 L
3384 2279 L
3385 2468 L
3385 2344 L
3385 2171 L
3386 2090 L
3386 2181 L
3387 2578 L
3387 2243 L
3387 2460 L
3388 2389 L
3388 2490 L
3388 2075 L
3389 2307 L
3389 2123 L
3389 2497 L
3390 2520 L
3390 2224 L
3391 2334 L
3391 2274 L
3391 2504 L
3392 2296 L
3392 2436 L
3392 2430 L
3393 2230 L
3393 2394 L
3393 2308 L
3394 2339 L
3394 2595 L
3394 2278 L
3395 2150 L
3395 2451 L
3395 2355 L
3396 2441 L
3396 2365 L
3396 2288 L
3397 2497 L
3397 2300 L
3398 2611 L
3398 2267 L
3398 2470 L
3399 2363 L
3399 2400 L
3399 2542 L
3400 2477 L
3400 2509 L
3400 2454 L
3401 2310 L
3401 2446 L
3401 2212 L
3402 2341 L
3402 2382 L
3402 2362 L
3403 2238 L
3403 2537 L
3403 2223 L
3404 2417 L
3404 2396 L
3404 2401 L
3405 2633 L
3405 2339 L
3405 2283 L
3406 2562 L
3406 2317 L
3406 2315 L
3407 2434 L
3407 2491 L
3407 2485 L
3408 2679 L
3408 2439 L
3408 2551 L
3409 2326 L
3409 2420 L
3409 2248 L
3410 2502 L
3410 2341 L
3410 2344 L
3411 2526 L
3411 2368 L
3411 2561 L
3412 2380 L
3412 2564 L
3412 2319 L
3413 2576 L
3413 2321 L
3413 2339 L
3414 2420 L
3414 2398 L
3414 2315 L
3415 2569 L
3415 2425 L
3415 2494 L
3416 2276 L
3416 2408 L
3416 2365 L
3417 2485 L
3417 2257 L
3417 2365 L
3417 2515 L
3418 2375 L
3418 2406 L
3418 2525 L
3419 2346 L
3419 2417 L
3419 2647 L
3420 2386 L
3420 2442 L
3420 2578 L
3421 2535 L
3421 2571 L
3421 2382 L
3422 2379 L
3422 2442 L
3422 2331 L
3423 2436 L
3423 2401 L
3423 2358 L
3423 2362 L
3424 2528 L
3424 2329 L
3424 2346 L
3425 2554 L
3425 2367 L
3425 2563 L
3426 2578 L
3426 2528 L
3426 2331 L
3427 2539 L
3427 2394 L
3427 2379 L
3428 2659 L
3428 2399 L
3428 2745 L
3428 2753 L
3429 2202 L
3429 2496 L
3429 2499 L
3430 2417 L
3430 2405 L
3430 2408 L
3431 2442 L
3431 2427 L
3431 2561 L
3431 2569 L
3432 2480 L
3432 2355 L
3432 2296 L
3433 2228 L
3433 2600 L
3433 2562 L
3434 2528 L
3434 2592 L
3434 2393 L
3434 2271 L
3435 2513 L
3435 2260 L
3435 2683 L
3436 2422 L
3436 2599 L
3436 2372 L
3437 2427 L
3437 2458 L
3437 2441 L
3437 2490 L
3438 2472 L
3438 2279 L
3438 2458 L
3439 2384 L
3439 2594 L
3439 2453 L
3440 2628 L
3440 2618 L
3440 2542 L
3440 2403 L
3441 2315 L
3441 2447 L
3441 2489 L
3442 2602 L
3442 2645 L
3442 2344 L
3442 2453 L
3443 2487 L
3443 2466 L
3443 2502 L
3444 2403 L
3444 2588 L
3444 2686 L
3444 2650 L
3445 2575 L
3445 2454 L
3445 2401 L
3446 2605 L
3446 2351 L
3446 2473 L
3446 2394 L
3447 2552 L
3447 2487 L
3447 2126 L
3448 2556 L
3448 2556 L
3448 2491 L
3448 2293 L
3449 2571 L
3449 2547 L
3449 2461 L
3450 2564 L
3450 2406 L
3450 2293 L
3450 2465 L
3451 2425 L
3451 2360 L
3451 2491 L
3452 2661 L
3452 2472 L
3452 2592 L
3452 2497 L
3453 2437 L
3453 2685 L
3453 2532 L
3454 2547 L
3454 2370 L
3454 2410 L
3454 2508 L
3455 2460 L
3455 2684 L
3455 2652 L
3455 2616 L
3456 2092 L
3456 2604 L
3456 2590 L
3457 2585 L
3457 2697 L
3457 2487 L
3457 2513 L
3458 2413 L
3458 2662 L
3458 2533 L
3458 2702 L
3459 2542 L
3459 2515 L
3459 2763 L
3460 2547 L
3460 2530 L
3460 2583 L
3460 2654 L
3461 2411 L
3461 2432 L
3461 2339 L
3461 2532 L
3462 2533 L
3462 2310 L
3462 2520 L
3463 2559 L
3463 2619 L
3463 2652 L
3463 2695 L
3464 2219 L
3464 2609 L
3464 2602 L
3464 2415 L
3465 2664 L
3465 2470 L
3465 2722 L
3465 2243 L
3466 2566 L
3466 2487 L
3466 2708 L
3466 2470 L
3467 2528 L
3467 2569 L
3467 2607 L
3468 2568 L
3468 2479 L
3468 2580 L
3468 2776 L
3469 2801 L
3469 2516 L
3469 2559 L
3469 2389 L
3470 2509 L
3470 2509 L
3470 2396 L
3470 2619 L
3471 2659 L
3471 2738 L
3471 2774 L
3471 2233 L
3472 2528 L
3472 2801 L
3472 2379 L
3472 2461 L
3473 2434 L
3473 2569 L
3473 2485 L
3474 2485 L
3474 2451 L
3474 2616 L
3474 2533 L
3475 2344 L
3475 2583 L
3475 2226 L
3475 2324 L
3476 2561 L
3476 2485 L
3476 2592 L
3476 2372 L
3477 2410 L
3477 2396 L
3477 2697 L
3477 2485 L
3478 2576 L
3478 2731 L
3478 2484 L
3478 2564 L
3479 2398 L
3479 2657 L
3479 2693 L
3479 2649 L
3480 2332 L
3480 2394 L
3480 2448 L
3480 2540 L
3481 2539 L
3481 2432 L
3481 2556 L
3481 2425 L
3482 2489 L
3482 2441 L
3482 2614 L
3482 2698 L
3483 2573 L
3483 2508 L
3483 2540 L
3483 2564 L
3484 2774 L
3484 2482 L
3484 2618 L
3484 2494 L
3485 2484 L
3485 2618 L
3485 2393 L
3485 2758 L
3486 2473 L
3486 2849 L
3486 2767 L
3486 2461 L
3487 2592 L
3487 2425 L
3487 2587 L
3487 2477 L
3488 2774 L
3488 2593 L
3488 2202 L
3488 2724 L
3488 2631 L
3489 2319 L
3489 2597 L
3489 2348 L
3489 2580 L
3490 2740 L
3490 2590 L
3490 2554 L
3490 2556 L
3491 2595 L
3491 2616 L
3491 2645 L
3491 2580 L
3492 2681 L
3492 2623 L
3492 2528 L
3492 2633 L
3493 2508 L
3493 2533 L
3493 2616 L
3493 2401 L
3494 2482 L
3494 2666 L
3494 2580 L
3494 2334 L
3494 2411 L
3495 2439 L
3495 2762 L
3495 2673 L
3495 2508 L
3496 2195 L
3496 2600 L
3496 2678 L
3496 2446 L
3497 2618 L
3497 2259 L
3497 2561 L
3497 2489 L
3498 2626 L
3498 2824 L
3498 2535 L
3498 2599 L
3498 2745 L
3499 2539 L
3499 2661 L
3499 2348 L
3499 2853 L
3500 2425 L
3500 2448 L
3506 2609 L
3511 2551 L
3517 2718 L
3522 2574 L
3527 2688 L
3532 2446 L
3537 2950 L
3542 2519 L
3547 2714 L
3552 2622 L
3557 2608 L
3561 2815 L
3566 2359 L
3570 2817 L
3575 2991 L
3579 2739 L
3583 2308 L
3587 2595 L
3591 2661 L
3595 2730 L
3599 2746 L
3603 2753 L
3607 3021 L
3611 2638 L
3614 2597 L
3618 2688 L
3622 2551 L
3625 2453 L
3629 2760 L
3632 2583 L
3636 2842 L
3639 2366 L
3642 3078 L
3646 2876 L
3649 2485 L
3652 2611 L
3655 2835 L
3658 2892 L
3661 2661 L
3664 2741 L
3667 2579 L
3670 2728 L
3673 2972 L
3676 2853 L
3679 2597 L
3682 2783 L
3685 2750 L
3688 2876 L
3690 2666 L
3693 2821 L
3696 2876 L
3698 2771 L
3701 2712 L
3704 2902 L
3706 2666 L
3709 2688 L
3711 2847 L
3714 2764 L
3716 2860 L
3719 2895 L
3721 2890 L
3724 2888 L
3726 2801 L
3728 2741 L
3731 2876 L
3733 2812 L
3735 2739 L
3738 2776 L
3740 2757 L
3742 2835 L
3744 2872 L
3747 2695 L
3749 2936 L
3751 2844 L
3753 3007 L
3755 2998 L
3757 2714 L
3760 2796 L
3762 2819 L
3764 2856 L
3766 2677 L
3768 2844 L
3770 2602 L
3772 3043 L
3774 2798 L
3776 2922 L
3778 2906 L
3780 2927 L
3781 2931 L
3783 2851 L
3785 2808 L
3787 3165 L
3789 2691 L
3791 2620 L
3793 2984 L
3795 2780 L
3796 2776 L
3798 2833 L
3800 3009 L
3802 2940 L
3803 2833 L
3805 2778 L
3807 2764 L
3809 2897 L
3810 2734 L
3812 2913 L
3814 2707 L
3816 2771 L
3817 2890 L
3819 2977 L
3820 2872 L
3822 2949 L
3824 3039 L
3825 2782 L
3827 2794 L
3829 2782 L
3830 2833 L
3832 2863 L
3833 2828 L
3835 2773 L
3836 2810 L
3838 2581 L
3839 2469 L
3841 3014 L
3842 3009 L
3844 2707 L
3845 3108 L
3847 2663 L
3848 2979 L
3850 2563 L
3851 3119 L
3853 2762 L
3854 2924 L
3856 3011 L
3857 2892 L
3859 2652 L
3860 2780 L
3861 2922 L
3863 2959 L
3864 2769 L
3866 2867 L
3867 2984 L
3868 2851 L
3870 2904 L
3871 2906 L
3872 2682 L
3874 2755 L
3875 2837 L
3876 2441 L
3878 2979 L
3879 2613 L
3880 2579 L
3882 2776 L
3883 2844 L
3884 2622 L
3885 2588 L
3887 2698 L
3888 2927 L
3889 2780 L
3890 2666 L
3892 2741 L
3893 2787 L
3894 2567 L
3895 2920 L
3897 2940 L
3898 2817 L
3899 2947 L
3900 2915 L
3901 3030 L
3903 3002 L
3904 2679 L
3905 2821 L
3906 2744 L
3907 2707 L
3908 2924 L
3910 3062 L
3911 2620 L
3912 2691 L
3913 2796 L
3914 2702 L
3915 3018 L
3917 2398 L
3918 2835 L
3919 2789 L
3920 2473 L
3921 2934 L
3922 3023 L
3923 3133 L
3924 3082 L
3925 2883 L
3926 3158 L
3928 2821 L
3929 2883 L
3930 2858 L
3931 2636 L
3932 2714 L
3933 2698 L
3934 3041 L
3935 2620 L
3936 2588 L
3937 2773 L
3938 2895 L
3939 2693 L
3940 2851 L
3941 2787 L
3942 2604 L
3943 2503 L
3944 2890 L
3945 2668 L
3946 2959 L
3947 2544 L
3948 2899 L
3949 3023 L
3950 2762 L
3951 2579 L
3952 2771 L
3953 2686 L
3954 2844 L
3955 2888 L
3956 2693 L
3957 2764 L
3958 2645 L
3959 3096 L
3960 2769 L
3961 2824 L
3962 2805 L
3963 3014 L
3964 2629 L
3965 2796 L
3966 2707 L
3966 2867 L
3967 2705 L
3968 2732 L
3969 2574 L
3970 2856 L
3971 2711 L
3972 2785 L
3973 2833 L
3974 2776 L
3975 2869 L
3976 2764 L
3976 2810 L
3977 2796 L
3978 2851 L
3979 3059 L
3980 2776 L
3981 2700 L
3982 2975 L
3983 2792 L
3983 2897 L
3984 2917 L
3985 2670 L
3986 2879 L
3987 2618 L
3988 3023 L
3989 2569 L
3989 2634 L
3990 2563 L
3991 2906 L
3992 2652 L
3993 2957 L
3994 2847 L
3995 2361 L
3995 2750 L
3996 2897 L
3997 2663 L
3998 2970 L
3999 2760 L
3999 2890 L
4000 2794 L
4001 2711 L
4002 2350 L
4003 2895 L
4003 2606 L
4004 3014 L
4005 2782 L
4006 2858 L
4007 2956 L
4007 2384 L
4008 2640 L
4009 2624 L
4010 2739 L
4011 2931 L
4011 2716 L
4012 2524 L
4013 2895 L
4014 2682 L
4014 2574 L
4015 2661 L
4016 2485 L
4017 2771 L
4017 2869 L
4018 2913 L
4019 2753 L
4020 2943 L
4021 2927 L
4021 2606 L
4022 2886 L
4023 2657 L
4023 2714 L
4024 2920 L
4025 2542 L
4026 2645 L
4026 2798 L
4027 2982 L
4028 2661 L
4029 2595 L
4029 2576 L
4030 2707 L
4031 2782 L
4032 2794 L
4032 2586 L
4033 2748 L
4034 2831 L
4034 2780 L
4035 2917 L
4036 2876 L
4036 2840 L
4037 2432 L
4038 2808 L
4039 2606 L
4039 3096 L
4040 2828 L
4041 2785 L
4041 2828 L
4042 2755 L
4043 2526 L
4043 2810 L
4044 2881 L
4045 2817 L
4045 2817 L
4046 2581 L
4047 2608 L
4047 2753 L
4048 2608 L
4049 2734 L
4050 2588 L
4050 2654 L
4051 2737 L
4052 2686 L
4052 2732 L
4053 2757 L
4053 2753 L
4054 2668 L
4055 2826 L
4055 2879 L
4056 2762 L
4057 2835 L
4057 2879 L
4058 2833 L
4059 2679 L
4059 2817 L
4060 2728 L
4061 2620 L
4061 2666 L
4062 2908 L
L2 C02 COSGR

%
%================
% Legend - Begin
%================
%
GSN 4240 5180 M
4480 5180 L
LWMC SL  C02 COSGR
GSN 4540 5141 M helvM (1.0 uM) show grestore
%
%================
% Legend - End
%================
%

%
% Residuals:
%
GSN 777 969 M
1388 1316 L
1552 1184 L
1652 896 L
1723 775 L
1778 827 L
1824 1093 L
1863 970 L
1896 1025 L
1926 1025 L
1952 1128 L
1976 1077 L
1998 1182 L
2019 1008 L
2037 951 L
2055 1012 L
2071 1117 L
2086 1007 L
2101 1094 L
2115 1207 L
2128 1225 L
2140 1132 L
2152 1047 L
2163 1110 L
2174 1162 L
2184 1102 L
2194 1169 L
2204 1129 L
2213 996 L
2222 1236 L
2230 1164 L
2239 1196 L
2247 1232 L
2255 1084 L
2262 992 L
2270 1175 L
2277 1126 L
2284 998 L
2290 1194 L
2297 1137 L
2303 1100 L
2310 1163 L
2316 1194 L
2322 1183 L
2328 1094 L
2333 1039 L
2339 1116 L
2344 1277 L
2350 1190 L
2355 1230 L
2360 1161 L
2365 1226 L
2370 1100 L
2375 1173 L
2380 1235 L
2384 1124 L
2389 1101 L
2393 1142 L
2398 1173 L
2402 1193 L
2407 1278 L
2411 1137 L
2415 1144 L
2419 1002 L
2423 1221 L
2427 1129 L
2431 1169 L
2435 1113 L
2438 1183 L
2442 1180 L
2446 1191 L
2449 1037 L
2453 1203 L
2456 1220 L
2460 1306 L
2463 1186 L
2467 1186 L
2470 1157 L
2473 1047 L
2476 1103 L
2480 1206 L
2483 1214 L
2486 1309 L
2489 1290 L
2492 1150 L
2495 1171 L
2498 1209 L
2501 1208 L
2504 1155 L
2507 1258 L
2510 1140 L
2512 1076 L
2515 1137 L
2518 1108 L
2521 1153 L
2523 1160 L
2526 1297 L
2529 1190 L
2531 1121 L
2534 1251 L
2536 1075 L
2539 1146 L
2541 1169 L
2544 1233 L
2546 1206 L
2549 1113 L
2551 1133 L
2554 1149 L
2556 1214 L
2558 1316 L
2561 1239 L
2563 1174 L
2565 1045 L
2568 1176 L
2570 1169 L
2572 1157 L
2574 1125 L
2576 1465 L
2579 1224 L
2581 1273 L
2583 1112 L
2585 1284 L
2587 1181 L
2589 1172 L
2591 1301 L
2593 1289 L
2595 1260 L
2597 1159 L
2599 1246 L
2601 1311 L
2603 1208 L
2605 1103 L
2607 1114 L
2609 1169 L
2611 1233 L
2613 1234 L
2615 1315 L
2617 1220 L
2618 1233 L
2620 1206 L
2622 1203 L
2624 1183 L
2626 1175 L
2627 1202 L
2629 1075 L
2631 1268 L
2633 1329 L
2634 1174 L
2636 1265 L
2638 1123 L
2640 1225 L
2641 1275 L
2643 1116 L
2645 1253 L
2646 1132 L
2648 1102 L
2650 1211 L
2651 1234 L
2653 1268 L
2654 1236 L
2656 1269 L
2658 1139 L
2659 1259 L
2661 1186 L
2662 1092 L
2664 1112 L
2665 1308 L
2667 1194 L
2668 1270 L
2670 1347 L
2671 1322 L
2673 1147 L
2674 1368 L
2676 1261 L
2677 1228 L
2679 1328 L
2680 1215 L
2682 1121 L
2683 1158 L
2685 1201 L
2686 1127 L
2687 1141 L
2689 1082 L
2690 1330 L
2692 1259 L
2693 1341 L
2694 1268 L
2696 1219 L
2697 1246 L
2698 1301 L
2700 1045 L
2701 1163 L
2702 1280 L
2704 1193 L
2705 1281 L
2706 1368 L
2708 1228 L
2709 1210 L
2710 1255 L
2712 1189 L
2713 1250 L
2714 1283 L
2715 1280 L
2717 1178 L
2718 1307 L
2719 1333 L
2720 1124 L
2722 1232 L
2723 1278 L
2724 1306 L
2725 1180 L
2726 1334 L
2728 1243 L
2729 1233 L
2730 1324 L
2731 1331 L
2732 1108 L
2734 1169 L
2735 1371 L
2736 1338 L
2737 1314 L
2738 1151 L
2739 1226 L
2741 1255 L
2742 1290 L
2743 1216 L
2744 1336 L
2745 1357 L
2746 1163 L
2747 1141 L
2748 1207 L
2749 1190 L
2751 1134 L
2752 1276 L
2753 1234 L
2754 1241 L
2755 1207 L
2756 1283 L
2757 1242 L
2758 1230 L
2759 1333 L
2760 1327 L
2761 1130 L
2762 1139 L
2763 1148 L
2764 1277 L
2765 1269 L
2767 1342 L
2768 1212 L
2769 1305 L
2770 1258 L
2771 1282 L
2772 1402 L
2773 1034 L
2774 1221 L
2775 1345 L
2776 1264 L
2777 1104 L
2778 1169 L
2779 1295 L
2780 1250 L
2781 1164 L
2782 1320 L
2783 1211 L
2783 1224 L
2784 1245 L
2785 1298 L
2786 1215 L
2787 1341 L
2788 1360 L
2789 1261 L
2790 1275 L
2791 1269 L
2792 1224 L
2793 1220 L
2794 1281 L
2795 1296 L
2796 1261 L
2797 1202 L
2798 1331 L
2798 1221 L
2799 1211 L
2800 1121 L
2801 1293 L
2802 1299 L
2803 1344 L
2804 1139 L
2805 1247 L
2806 1432 L
2807 1248 L
2807 1303 L
2808 1101 L
2809 1084 L
2810 1110 L
2811 1246 L
2812 1207 L
2813 1225 L
2813 1239 L
2814 1342 L
2815 1194 L
2816 1200 L
2817 1216 L
2818 1311 L
2819 1111 L
2819 1231 L
2820 1399 L
2821 1261 L
2822 1131 L
2823 1270 L
2824 1303 L
2824 1163 L
2825 1221 L
2826 1180 L
2827 1229 L
2828 1166 L
2828 1365 L
2829 1276 L
2830 1118 L
2831 1200 L
2832 1226 L
2832 1181 L
2833 1136 L
2834 1209 L
2835 1168 L
2836 1181 L
2836 1325 L
2837 1336 L
2838 1236 L
2839 1137 L
2840 1278 L
2840 1113 L
2841 1193 L
2842 1352 L
2843 1144 L
2843 1378 L
2844 1242 L
2845 1397 L
2846 1387 L
2846 1172 L
2847 1222 L
2848 1103 L
2849 1228 L
2849 1269 L
2850 1423 L
2851 1087 L
2852 1251 L
2852 1208 L
2853 1179 L
2854 1195 L
2855 1126 L
2855 1270 L
2856 1073 L
2857 1392 L
2857 1166 L
2858 1272 L
2859 1185 L
2860 1225 L
2860 1311 L
2861 1428 L
2862 1193 L
2862 1175 L
2863 1426 L
2864 1205 L
2865 1242 L
2865 1262 L
2866 1307 L
2867 1240 L
2867 1250 L
2868 1236 L
2869 1275 L
2869 1100 L
2870 1266 L
2871 1253 L
2871 1140 L
2872 1262 L
2873 1091 L
2873 1126 L
2874 1305 L
2875 1200 L
2876 1219 L
2876 1317 L
2877 1173 L
2878 1246 L
2878 1180 L
2879 1312 L
2880 1118 L
2880 1180 L
2881 1328 L
2881 1101 L
2882 1302 L
2883 1123 L
2883 1166 L
2884 1253 L
2885 1220 L
2885 1354 L
2886 1207 L
2887 1218 L
2887 1165 L
2888 1120 L
2889 1284 L
2889 1342 L
2892 1154 L
2894 1225 L
2897 1216 L
2899 1203 L
2902 1099 L
2904 1176 L
2907 1388 L
2909 1174 L
2911 1221 L
2914 1099 L
2916 1260 L
2918 1201 L
2921 1174 L
2923 1119 L
2925 1206 L
2927 1271 L
2929 1308 L
2932 1148 L
2934 1188 L
2936 1208 L
2938 1084 L
2940 1223 L
2942 1275 L
2944 1093 L
2946 1189 L
2948 1308 L
2950 1109 L
2952 1101 L
2954 1226 L
2956 1252 L
2958 1075 L
2960 1081 L
2962 1293 L
2964 1102 L
2966 1219 L
2968 1129 L
2970 1156 L
2971 1224 L
2973 1037 L
2975 1103 L
2977 1291 L
2979 1080 L
2980 1174 L
2982 1156 L
2984 1073 L
2986 1243 L
2987 1115 L
2989 1084 L
2991 1066 L
2993 1033 L
2994 1170 L
2996 1074 L
2998 972 L
2999 1175 L
3001 1110 L
3003 1044 L
3004 940 L
3006 1267 L
3007 1233 L
3009 1142 L
3011 1216 L
3012 1199 L
3014 1023 L
3015 1169 L
3017 1172 L
3018 1084 L
3020 1215 L
3021 1090 L
3023 1235 L
3024 970 L
3026 1180 L
3027 1181 L
3029 1011 L
3030 987 L
3032 1036 L
3033 1134 L
3035 1132 L
3036 1085 L
3038 1270 L
3039 1193 L
3040 1173 L
3042 1071 L
3043 1127 L
3045 1109 L
3046 1136 L
3047 1139 L
3049 1174 L
3050 1087 L
3051 1174 L
3053 966 L
3054 1055 L
3055 1235 L
3057 992 L
3058 1148 L
3059 1235 L
3061 1129 L
3062 1135 L
3063 1035 L
3065 950 L
3066 1189 L
3067 1071 L
3068 1099 L
3070 1015 L
3071 1135 L
3072 1128 L
3073 1044 L
3075 1076 L
3076 1095 L
3077 1145 L
3078 1140 L
3079 1050 L
3081 1092 L
3082 961 L
3083 1071 L
3084 1096 L
3085 1039 L
3087 1041 L
3088 1098 L
3089 1071 L
3090 1127 L
3091 1012 L
3092 1012 L
3094 1072 L
3095 1006 L
3096 1023 L
3097 1121 L
3098 996 L
3099 1262 L
3100 952 L
3101 906 L
3103 1223 L
3104 918 L
3105 1055 L
3106 1102 L
3107 1017 L
3108 1075 L
3109 1090 L
3110 1180 L
3111 1041 L
3112 972 L
3113 1021 L
3114 1138 L
3115 1112 L
3116 1050 L
3117 1113 L
3119 969 L
3120 1012 L
3121 1096 L
3122 1040 L
3123 1110 L
3124 1048 L
3125 1139 L
3126 1060 L
3127 927 L
3128 1130 L
3129 965 L
3130 960 L
3131 1189 L
3132 870 L
3133 1085 L
3134 1051 L
3135 922 L
3136 1054 L
3136 1041 L
3137 983 L
3138 986 L
3139 1041 L
3140 1067 L
3141 891 L
3142 980 L
3143 940 L
3144 1071 L
3145 1150 L
3146 1088 L
3147 1124 L
3148 959 L
3149 898 L
3150 1053 L
3151 1020 L
3151 913 L
3152 955 L
3153 925 L
3154 1040 L
3155 876 L
3156 1062 L
3157 1146 L
3158 1091 L
3159 984 L
3160 1029 L
3160 842 L
3161 975 L
3162 950 L
3163 1034 L
3164 1014 L
3165 1100 L
3166 991 L
3166 943 L
3167 1066 L
3168 1050 L
3169 917 L
3170 1039 L
3171 1017 L
3172 1131 L
3172 985 L
3173 935 L
3174 927 L
3175 916 L
3176 1003 L
3177 1047 L
3177 984 L
3178 1018 L
3179 982 L
3180 979 L
3181 1040 L
3181 1137 L
3182 1064 L
3183 867 L
3184 1094 L
3185 1045 L
3185 1007 L
3186 1122 L
3187 909 L
3188 1045 L
3189 1033 L
3189 1176 L
3190 1083 L
3191 982 L
3192 898 L
3193 1011 L
3193 1148 L
3194 924 L
3195 989 L
3196 1015 L
3196 929 L
3197 869 L
3198 1071 L
3199 884 L
3199 855 L
3200 1079 L
3201 1029 L
3202 944 L
3202 1005 L
3203 1017 L
3204 1015 L
3205 882 L
3205 1145 L
3206 981 L
3207 954 L
3208 932 L
3208 1051 L
3209 1009 L
3210 954 L
3210 1056 L
3211 923 L
3212 997 L
3213 1007 L
3213 1020 L
3214 1032 L
3215 1075 L
3215 930 L
3216 957 L
3217 1025 L
3218 979 L
3218 840 L
3219 772 L
3220 1080 L
3220 990 L
3221 974 L
3222 965 L
3222 1070 L
3223 914 L
3224 1096 L
3224 906 L
3225 1013 L
3226 919 L
3227 916 L
3227 915 L
3228 921 L
3229 1024 L
3229 959 L
3230 887 L
3231 1000 L
3231 1019 L
3232 955 L
3233 1070 L
3233 963 L
3234 928 L
3235 1102 L
3235 913 L
3236 1127 L
3236 1027 L
3237 958 L
3238 1013 L
3238 935 L
3239 984 L
3240 1058 L
3240 963 L
3241 995 L
3242 971 L
3242 989 L
3243 977 L
3244 933 L
3244 963 L
3245 1026 L
3245 868 L
3246 947 L
3247 892 L
3247 813 L
3248 1025 L
3249 892 L
3249 1034 L
3250 1046 L
3250 908 L
3251 961 L
3252 874 L
3252 1072 L
3253 888 L
3253 1097 L
3254 1016 L
3255 980 L
3255 969 L
3256 1049 L
3257 998 L
3257 1055 L
3258 1006 L
3258 1006 L
3259 951 L
3259 872 L
3260 942 L
3261 1069 L
3261 1033 L
3262 958 L
3262 913 L
3263 1016 L
3264 954 L
3264 1005 L
3265 1069 L
3265 1053 L
3266 990 L
3267 1083 L
3267 970 L
3268 1022 L
3268 1021 L
3269 1059 L
3269 997 L
3270 1044 L
3271 968 L
3271 1039 L
3272 904 L
3272 966 L
3273 906 L
3273 1126 L
3274 1149 L
3275 1106 L
3275 966 L
3276 1074 L
3276 1031 L
3277 1052 L
3277 954 L
3278 921 L
3278 978 L
3279 939 L
3280 1113 L
3280 949 L
3281 860 L
3281 1108 L
3282 1133 L
3282 1031 L
3283 1002 L
3283 923 L
3284 948 L
3284 850 L
3285 981 L
3285 814 L
3286 945 L
3287 1014 L
3287 920 L
3288 1091 L
3288 966 L
3289 915 L
3289 750 L
3290 1047 L
3290 1032 L
3291 906 L
3291 888 L
3292 1039 L
3292 1061 L
3293 934 L
3293 955 L
3294 970 L
3294 960 L
3295 956 L
3295 912 L
3296 1073 L
3297 950 L
3297 1014 L
3298 956 L
3298 1081 L
3299 990 L
3299 985 L
3300 931 L
3300 1015 L
3301 1008 L
3301 1014 L
3302 1072 L
3302 952 L
3303 991 L
3303 1234 L
3304 1069 L
3304 1101 L
3305 1126 L
3305 1026 L
3306 926 L
3306 962 L
3307 1120 L
3307 1113 L
3308 1109 L
3308 950 L
3309 1054 L
3309 972 L
3310 1008 L
3310 1007 L
3311 1085 L
3311 1048 L
3312 1081 L
3312 984 L
3312 1054 L
3313 985 L
3313 1087 L
3314 1207 L
3314 1025 L
3315 997 L
3315 1006 L
3316 1093 L
3316 1002 L
3317 1055 L
3317 1069 L
3318 832 L
3318 995 L
3319 1031 L
3319 980 L
3320 1067 L
3320 1036 L
3321 1069 L
3321 988 L
3321 1095 L
3322 1025 L
3322 1072 L
3323 1020 L
3323 1153 L
3324 1034 L
3324 1051 L
3325 1009 L
3325 1020 L
3326 954 L
3326 944 L
3327 1071 L
3327 1226 L
3327 999 L
3328 979 L
3328 893 L
3329 1012 L
3329 1129 L
3330 1151 L
3330 1078 L
3331 1112 L
3331 1034 L
3332 1040 L
3332 1065 L
3332 1087 L
3333 937 L
3333 1097 L
3334 1096 L
3334 1128 L
3335 1043 L
3335 1090 L
3336 1095 L
3336 1127 L
3336 1145 L
3337 939 L
3337 1072 L
3338 1018 L
3338 1135 L
3339 1052 L
3339 1092 L
3339 993 L
3340 805 L
3340 948 L
3341 1080 L
3341 1107 L
3342 1041 L
3342 1157 L
3343 1162 L
3343 1031 L
3343 1021 L
3344 1018 L
3344 1315 L
3345 1027 L
3345 1103 L
3346 973 L
3346 1056 L
3346 925 L
3347 1140 L
3347 926 L
3348 1096 L
3348 961 L
3348 1056 L
3349 1172 L
3349 1030 L
3350 1083 L
3350 1112 L
3351 1057 L
3351 1046 L
3351 917 L
3352 1057 L
3352 1149 L
3353 1130 L
3353 1119 L
3353 1015 L
3354 915 L
3354 961 L
3355 922 L
3355 985 L
3355 1327 L
3356 1096 L
3356 1065 L
3357 1028 L
3357 1085 L
3358 1245 L
3358 1006 L
3358 1171 L
3359 947 L
3359 1070 L
3360 945 L
3360 1049 L
3360 998 L
3361 1053 L
3361 1102 L
3362 1051 L
3362 958 L
3362 1145 L
3363 992 L
3363 1151 L
3364 1108 L
3364 1274 L
3364 838 L
3365 1039 L
3365 1087 L
3365 1114 L
3366 1143 L
3366 912 L
3367 1127 L
3367 1185 L
3367 1140 L
3368 952 L
3368 924 L
3369 997 L
3369 1027 L
3369 1094 L
3370 1225 L
3370 1174 L
3371 1183 L
3371 1081 L
3371 915 L
3372 966 L
3372 957 L
3372 1002 L
3373 1023 L
3373 1026 L
3374 1101 L
3374 1005 L
3374 1104 L
3375 1041 L
3375 1064 L
3375 1211 L
3376 998 L
3376 995 L
3377 1057 L
3377 1056 L
3377 1106 L
3378 1005 L
3378 1021 L
3378 1172 L
3379 977 L
3379 1142 L
3380 1026 L
3380 1198 L
3380 1140 L
3381 1216 L
3381 1158 L
3381 992 L
3382 952 L
3382 1082 L
3383 1116 L
3383 1209 L
3383 1066 L
3384 1102 L
3384 1029 L
3384 1033 L
3385 1147 L
3385 1072 L
3385 968 L
3386 920 L
3386 975 L
3387 1213 L
3387 1012 L
3387 1142 L
3388 1100 L
3388 1160 L
3388 911 L
3389 1050 L
3389 940 L
3389 1165 L
3390 1178 L
3390 1001 L
3391 1067 L
3391 1031 L
3391 1169 L
3392 1044 L
3392 1128 L
3392 1125 L
3393 1004 L
3393 1103 L
3393 1051 L
3394 1070 L
3394 1224 L
3394 1033 L
3395 956 L
3395 1137 L
3395 1079 L
3396 1131 L
3396 1086 L
3396 1039 L
3397 1165 L
3397 1046 L
3398 1233 L
3398 1027 L
3398 1149 L
3399 1085 L
3399 1106 L
3399 1192 L
3400 1153 L
3400 1172 L
3400 1139 L
3401 1053 L
3401 1134 L
3401 994 L
3402 1071 L
3402 1096 L
3402 1084 L
3403 1010 L
3403 1189 L
3403 1000 L
3404 1117 L
3404 1105 L
3404 1108 L
3405 1247 L
3405 1071 L
3405 1037 L
3406 1205 L
3406 1057 L
3406 1056 L
3407 1127 L
3407 1161 L
3407 1158 L
3408 1275 L
3408 1131 L
3408 1198 L
3409 1062 L
3409 1119 L
3409 1016 L
3410 1169 L
3410 1072 L
3410 1074 L
3411 1183 L
3411 1088 L
3411 1204 L
3412 1096 L
3412 1206 L
3412 1058 L
3413 1213 L
3413 1060 L
3413 1071 L
3414 1119 L
3414 1106 L
3414 1057 L
3415 1209 L
3415 1123 L
3415 1164 L
3416 1033 L
3416 1112 L
3416 1087 L
3417 1159 L
3417 1022 L
3417 1087 L
3417 1176 L
3418 1093 L
3418 1111 L
3418 1183 L
3419 1075 L
3419 1118 L
3419 1256 L
3420 1099 L
3420 1133 L
3420 1215 L
3421 1189 L
3421 1211 L
3421 1097 L
3422 1095 L
3422 1133 L
3422 1066 L
3423 1129 L
3423 1108 L
3423 1083 L
3423 1085 L
3424 1185 L
3424 1065 L
3424 1075 L
3425 1200 L
3425 1088 L
3425 1206 L
3426 1215 L
3426 1185 L
3426 1066 L
3427 1191 L
3427 1104 L
3427 1095 L
3428 1263 L
3428 1107 L
3428 1315 L
3428 1320 L
3429 989 L
3429 1165 L
3429 1167 L
3430 1118 L
3430 1111 L
3430 1113 L
3431 1133 L
3431 1124 L
3431 1205 L
3431 1210 L
3432 1156 L
3432 1081 L
3432 1046 L
3433 1004 L
3433 1228 L
3433 1206 L
3434 1185 L
3434 1223 L
3434 1104 L
3434 1030 L
3435 1176 L
3435 1024 L
3435 1278 L
3436 1121 L
3436 1227 L
3436 1091 L
3437 1124 L
3437 1143 L
3437 1133 L
3437 1162 L
3438 1151 L
3438 1036 L
3438 1143 L
3439 1099 L
3439 1224 L
3439 1140 L
3440 1245 L
3440 1239 L
3440 1194 L
3440 1110 L
3441 1057 L
3441 1137 L
3441 1162 L
3442 1230 L
3442 1255 L
3442 1075 L
3442 1140 L
3443 1160 L
3443 1148 L
3443 1170 L
3444 1110 L
3444 1222 L
3444 1280 L
3444 1259 L
3445 1213 L
3445 1141 L
3445 1109 L
3446 1232 L
3446 1079 L
3446 1152 L
3446 1105 L
3447 1200 L
3447 1161 L
3447 944 L
3448 1202 L
3448 1202 L
3448 1163 L
3448 1044 L
3449 1211 L
3449 1197 L
3449 1145 L
3450 1207 L
3450 1112 L
3450 1044 L
3450 1147 L
3451 1124 L
3451 1084 L
3451 1163 L
3452 1265 L
3452 1151 L
3452 1224 L
3452 1167 L
3453 1131 L
3453 1279 L
3453 1188 L
3454 1197 L
3454 1091 L
3454 1114 L
3454 1173 L
3455 1144 L
3455 1279 L
3455 1260 L
3455 1238 L
3456 923 L
3456 1231 L
3456 1223 L
3457 1220 L
3457 1287 L
3457 1161 L
3457 1176 L
3458 1116 L
3458 1266 L
3458 1189 L
3458 1290 L
3459 1194 L
3459 1177 L
3459 1327 L
3460 1197 L
3460 1187 L
3460 1219 L
3460 1261 L
3461 1115 L
3461 1128 L
3461 1072 L
3461 1188 L
3462 1189 L
3462 1054 L
3462 1180 L
3463 1204 L
3463 1240 L
3463 1260 L
3463 1286 L
3464 1000 L
3464 1234 L
3464 1230 L
3464 1118 L
3465 1267 L
3465 1151 L
3465 1302 L
3465 1014 L
3466 1208 L
3466 1161 L
3466 1294 L
3466 1151 L
3467 1186 L
3467 1210 L
3467 1233 L
3468 1209 L
3468 1156 L
3468 1217 L
3468 1334 L
3469 1350 L
3469 1178 L
3469 1204 L
3469 1102 L
3470 1174 L
3470 1174 L
3470 1106 L
3470 1241 L
3471 1264 L
3471 1312 L
3471 1333 L
3471 1008 L
3472 1186 L
3472 1350 L
3472 1096 L
3472 1146 L
3473 1129 L
3473 1211 L
3473 1160 L
3474 1160 L
3474 1139 L
3474 1238 L
3474 1189 L
3475 1075 L
3475 1219 L
3475 1004 L
3475 1063 L
3476 1205 L
3476 1160 L
3476 1224 L
3476 1092 L
3477 1115 L
3477 1106 L
3477 1287 L
3477 1160 L
3478 1215 L
3478 1308 L
3478 1159 L
3478 1208 L
3479 1107 L
3479 1263 L
3479 1285 L
3479 1258 L
3480 1068 L
3480 1105 L
3480 1137 L
3480 1193 L
3481 1192 L
3481 1128 L
3481 1202 L
3481 1124 L
3482 1162 L
3482 1133 L
3482 1237 L
3482 1288 L
3483 1213 L
3483 1173 L
3483 1193 L
3483 1207 L
3484 1333 L
3484 1158 L
3484 1239 L
3484 1165 L
3485 1159 L
3485 1240 L
3485 1104 L
3485 1324 L
3486 1153 L
3486 1379 L
3486 1329 L
3486 1146 L
3487 1224 L
3487 1124 L
3487 1221 L
3487 1155 L
3488 1333 L
3488 1225 L
3488 990 L
3488 1304 L
3488 1248 L
3489 1060 L
3489 1227 L
3489 1078 L
3489 1217 L
3490 1313 L
3490 1223 L
3490 1201 L
3490 1202 L
3491 1226 L
3491 1239 L
3491 1256 L
3491 1217 L
3492 1278 L
3492 1243 L
3492 1186 L
3492 1249 L
3493 1174 L
3493 1189 L
3493 1238 L
3493 1110 L
3494 1158 L
3494 1268 L
3494 1217 L
3494 1069 L
3494 1116 L
3495 1132 L
3495 1326 L
3495 1273 L
3495 1174 L
3496 986 L
3496 1229 L
3496 1276 L
3496 1136 L
3497 1240 L
3497 1024 L
3497 1206 L
3497 1162 L
3498 1245 L
3498 1363 L
3498 1190 L
3498 1228 L
3498 1316 L
3499 1192 L
3499 1265 L
3499 1078 L
3499 1381 L
3500 1124 L
3500 1138 L
3506 1234 L
3511 1200 L
3517 1300 L
3522 1214 L
3527 1282 L
3532 1137 L
3537 1439 L
3542 1181 L
3547 1297 L
3552 1242 L
3557 1234 L
3561 1358 L
3566 1084 L
3570 1359 L
3575 1464 L
3579 1313 L
3583 1054 L
3587 1226 L
3591 1266 L
3595 1307 L
3599 1317 L
3603 1321 L
3607 1482 L
3611 1252 L
3614 1227 L
3618 1282 L
3622 1200 L
3625 1141 L
3629 1325 L
3632 1219 L
3636 1375 L
3639 1088 L
3642 1516 L
3646 1395 L
3649 1160 L
3652 1236 L
3655 1370 L
3658 1405 L
3661 1266 L
3664 1314 L
3667 1216 L
3670 1306 L
3673 1453 L
3676 1381 L
3679 1227 L
3682 1339 L
3685 1320 L
3688 1395 L
3690 1269 L
3693 1362 L
3696 1395 L
3698 1332 L
3701 1296 L
3704 1410 L
3706 1269 L
3709 1282 L
3711 1377 L
3714 1328 L
3716 1386 L
3719 1406 L
3721 1403 L
3724 1402 L
3726 1350 L
3728 1314 L
3731 1395 L
3733 1357 L
3735 1313 L
3738 1335 L
3740 1324 L
3742 1371 L
3744 1392 L
3747 1287 L
3749 1431 L
3751 1376 L
3753 1474 L
3755 1468 L
3757 1298 L
3760 1347 L
3762 1361 L
3764 1383 L
3766 1276 L
3768 1376 L
3770 1230 L
3772 1496 L
3774 1348 L
3776 1423 L
3778 1413 L
3780 1425 L
3781 1428 L
3783 1380 L
3785 1354 L
3787 1569 L
3789 1284 L
3791 1241 L
3793 1460 L
3795 1337 L
3796 1335 L
3798 1369 L
3800 1475 L
3802 1434 L
3803 1369 L
3805 1336 L
3807 1328 L
3809 1408 L
3810 1310 L
3812 1417 L
3814 1293 L
3816 1332 L
3817 1403 L
3819 1456 L
3820 1392 L
3822 1439 L
3824 1493 L
3825 1339 L
3827 1346 L
3829 1339 L
3830 1369 L
3832 1387 L
3833 1366 L
3835 1333 L
3836 1355 L
3838 1218 L
3839 1150 L
3841 1478 L
3842 1475 L
3844 1293 L
3845 1534 L
3847 1267 L
3848 1457 L
3850 1207 L
3851 1541 L
3853 1326 L
3854 1424 L
3856 1476 L
3857 1405 L
3859 1260 L
3860 1337 L
3861 1423 L
3863 1445 L
3864 1331 L
3866 1390 L
3867 1460 L
3868 1380 L
3870 1412 L
3871 1413 L
3872 1278 L
3874 1322 L
3875 1372 L
3876 1134 L
3878 1457 L
3879 1237 L
3880 1216 L
3882 1335 L
3883 1376 L
3884 1242 L
3885 1222 L
3887 1288 L
3888 1425 L
3889 1337 L
3890 1269 L
3892 1314 L
3893 1342 L
3894 1210 L
3895 1421 L
3897 1434 L
3898 1359 L
3899 1438 L
3900 1419 L
3901 1487 L
3903 1471 L
3904 1277 L
3905 1362 L
3906 1315 L
3907 1293 L
3908 1424 L
3910 1507 L
3911 1241 L
3912 1284 L
3913 1347 L
3914 1291 L
3915 1481 L
3917 1108 L
3918 1370 L
3919 1343 L
3920 1153 L
3921 1430 L
3922 1483 L
3923 1549 L
3924 1519 L
3925 1399 L
3926 1564 L
3928 1362 L
3929 1399 L
3930 1384 L
3931 1251 L
3932 1298 L
3933 1288 L
3934 1494 L
3935 1241 L
3936 1222 L
3937 1333 L
3938 1406 L
3939 1285 L
3940 1380 L
3941 1342 L
3942 1232 L
3943 1171 L
3944 1403 L
3945 1270 L
3946 1445 L
3947 1196 L
3948 1409 L
3949 1483 L
3950 1326 L
3951 1216 L
3952 1332 L
3953 1281 L
3954 1376 L
3955 1402 L
3956 1285 L
3957 1328 L
3958 1256 L
3959 1527 L
3960 1331 L
3961 1364 L
3962 1353 L
3963 1478 L
3964 1247 L
3965 1347 L
3966 1293 L
3966 1390 L
3967 1292 L
3968 1309 L
3969 1214 L
3970 1383 L
3971 1296 L
3972 1340 L
3973 1369 L
3974 1335 L
3975 1391 L
3976 1328 L
3976 1355 L
3977 1347 L
3978 1380 L
3979 1505 L
3980 1335 L
3981 1289 L
3982 1454 L
3983 1344 L
3983 1408 L
3984 1420 L
3985 1271 L
3986 1397 L
3987 1240 L
3988 1483 L
3989 1211 L
3989 1249 L
3990 1207 L
3991 1413 L
3992 1260 L
3993 1443 L
3994 1377 L
3995 1086 L
3995 1320 L
3996 1408 L
3997 1267 L
3998 1452 L
3999 1325 L
3999 1404 L
4000 1346 L
4001 1296 L
4002 1079 L
4003 1406 L
4003 1233 L
4004 1478 L
4005 1339 L
4006 1384 L
4007 1443 L
4007 1099 L
4008 1254 L
4009 1244 L
4010 1313 L
4011 1428 L
4011 1299 L
4012 1183 L
4013 1406 L
4014 1278 L
4014 1214 L
4015 1266 L
4016 1160 L
4017 1332 L
4017 1391 L
4018 1417 L
4019 1321 L
4020 1435 L
4021 1425 L
4021 1233 L
4022 1401 L
4023 1263 L
4023 1298 L
4024 1421 L
4025 1194 L
4026 1256 L
4026 1348 L
4027 1459 L
4028 1266 L
4029 1226 L
4029 1215 L
4030 1293 L
4031 1339 L
4032 1346 L
4032 1221 L
4033 1318 L
4034 1368 L
4034 1337 L
4035 1420 L
4036 1395 L
4036 1373 L
4037 1128 L
4038 1354 L
4039 1233 L
4039 1527 L
4040 1366 L
4041 1340 L
4041 1366 L
4042 1322 L
4043 1185 L
4043 1355 L
4044 1398 L
4045 1359 L
4045 1359 L
4046 1218 L
4047 1234 L
4047 1321 L
4048 1234 L
4049 1310 L
4050 1222 L
4050 1262 L
4051 1311 L
4052 1281 L
4052 1309 L
4053 1324 L
4053 1321 L
4054 1270 L
4055 1365 L
4055 1397 L
4056 1326 L
4057 1370 L
4057 1397 L
4058 1369 L
4059 1277 L
4059 1359 L
4060 1306 L
4061 1241 L
4061 1269 L
4062 1414 L
L2 C02 COSGR

%
% Main frame
%
L10
GSN 
620 1700 M
4220 1700 L
4220 5300 L
620 5300 L
closepath SGR

%
% X axis: large tics
%
L10
GSN 1130 1700 M 0  54 rL SGR
GSN 1130 5300 M 0 -54 rL SGR
helvS (0.0001) 1130 470 xlabel
GSN 1716 1700 M 0  54 rL SGR
GSN 1716 5300 M 0 -54 rL SGR
helvS (0.001) 1716 470 xlabel
GSN 2303 1700 M 0  54 rL SGR
GSN 2303 5300 M 0 -54 rL SGR
helvS (0.01) 2303 470 xlabel
GSN 2889 1700 M 0  54 rL SGR
GSN 2889 5300 M 0 -54 rL SGR
helvS (0.1) 2889 470 xlabel
GSN 3476 1700 M 0  54 rL SGR
GSN 3476 5300 M 0 -54 rL SGR
helvS (1) 3476 470 xlabel
GSN 4062 1700 M 0  54 rL SGR
GSN 4062 5300 M 0 -54 rL SGR
helvS (10) 4062 470 xlabel
%
% X axis: small tics
%
L5
GSN 720 1700 M 0  36 rL SGR
GSN 720 5300 M 0 -36 rL SGR
GSN 824 1700 M 0  36 rL SGR
GSN 824 5300 M 0 -36 rL SGR
GSN 897 1700 M 0  36 rL SGR
GSN 897 5300 M 0 -36 rL SGR
GSN 954 1700 M 0  36 rL SGR
GSN 954 5300 M 0 -36 rL SGR
GSN 1000 1700 M 0  36 rL SGR
GSN 1000 5300 M 0 -36 rL SGR
GSN 1039 1700 M 0  36 rL SGR
GSN 1039 5300 M 0 -36 rL SGR
GSN 1073 1700 M 0  36 rL SGR
GSN 1073 5300 M 0 -36 rL SGR
GSN 1103 1700 M 0  36 rL SGR
GSN 1103 5300 M 0 -36 rL SGR
GSN 1307 1700 M 0  36 rL SGR
GSN 1307 5300 M 0 -36 rL SGR
GSN 1410 1700 M 0  36 rL SGR
GSN 1410 5300 M 0 -36 rL SGR
GSN 1483 1700 M 0  36 rL SGR
GSN 1483 5300 M 0 -36 rL SGR
GSN 1540 1700 M 0  36 rL SGR
GSN 1540 5300 M 0 -36 rL SGR
GSN 1586 1700 M 0  36 rL SGR
GSN 1586 5300 M 0 -36 rL SGR
GSN 1626 1700 M 0  36 rL SGR
GSN 1626 5300 M 0 -36 rL SGR
GSN 1660 1700 M 0  36 rL SGR
GSN 1660 5300 M 0 -36 rL SGR
GSN 1690 1700 M 0  36 rL SGR
GSN 1690 5300 M 0 -36 rL SGR
GSN 1893 1700 M 0  36 rL SGR
GSN 1893 5300 M 0 -36 rL SGR
GSN 1996 1700 M 0  36 rL SGR
GSN 1996 5300 M 0 -36 rL SGR
GSN 2069 1700 M 0  36 rL SGR
GSN 2069 5300 M 0 -36 rL SGR
GSN 2126 1700 M 0  36 rL SGR
GSN 2126 5300 M 0 -36 rL SGR
GSN 2173 1700 M 0  36 rL SGR
GSN 2173 5300 M 0 -36 rL SGR
GSN 2212 1700 M 0  36 rL SGR
GSN 2212 5300 M 0 -36 rL SGR
GSN 2246 1700 M 0  36 rL SGR
GSN 2246 5300 M 0 -36 rL SGR
GSN 2276 1700 M 0  36 rL SGR
GSN 2276 5300 M 0 -36 rL SGR
GSN 2479 1700 M 0  36 rL SGR
GSN 2479 5300 M 0 -36 rL SGR
GSN 2583 1700 M 0  36 rL SGR
GSN 2583 5300 M 0 -36 rL SGR
GSN 2656 1700 M 0  36 rL SGR
GSN 2656 5300 M 0 -36 rL SGR
GSN 2713 1700 M 0  36 rL SGR
GSN 2713 5300 M 0 -36 rL SGR
GSN 2759 1700 M 0  36 rL SGR
GSN 2759 5300 M 0 -36 rL SGR
GSN 2798 1700 M 0  36 rL SGR
GSN 2798 5300 M 0 -36 rL SGR
GSN 2832 1700 M 0  36 rL SGR
GSN 2832 5300 M 0 -36 rL SGR
GSN 2862 1700 M 0  36 rL SGR
GSN 2862 5300 M 0 -36 rL SGR
GSN 3066 1700 M 0  36 rL SGR
GSN 3066 5300 M 0 -36 rL SGR
GSN 3169 1700 M 0  36 rL SGR
GSN 3169 5300 M 0 -36 rL SGR
GSN 3242 1700 M 0  36 rL SGR
GSN 3242 5300 M 0 -36 rL SGR
GSN 3299 1700 M 0  36 rL SGR
GSN 3299 5300 M 0 -36 rL SGR
GSN 3345 1700 M 0  36 rL SGR
GSN 3345 5300 M 0 -36 rL SGR
GSN 3385 1700 M 0  36 rL SGR
GSN 3385 5300 M 0 -36 rL SGR
GSN 3419 1700 M 0  36 rL SGR
GSN 3419 5300 M 0 -36 rL SGR
GSN 3449 1700 M 0  36 rL SGR
GSN 3449 5300 M 0 -36 rL SGR
GSN 3652 1700 M 0  36 rL SGR
GSN 3652 5300 M 0 -36 rL SGR
GSN 3755 1700 M 0  36 rL SGR
GSN 3755 5300 M 0 -36 rL SGR
GSN 3829 1700 M 0  36 rL SGR
GSN 3829 5300 M 0 -36 rL SGR
GSN 3885 1700 M 0  36 rL SGR
GSN 3885 5300 M 0 -36 rL SGR
GSN 3932 1700 M 0  36 rL SGR
GSN 3932 5300 M 0 -36 rL SGR
GSN 3971 1700 M 0  36 rL SGR
GSN 3971 5300 M 0 -36 rL SGR
GSN 4005 1700 M 0  36 rL SGR
GSN 4005 5300 M 0 -36 rL SGR
GSN 4035 1700 M 0  36 rL SGR
GSN 4035 5300 M 0 -36 rL SGR
%
% Y axis: large tics
%
L10
GSN 620 1750 M 54 0 rL SGR
GSN 4220 1750 M -54 0 rL SGR
helvS (1.08) 560 1750 ylabel
GSN 620 2650 M 54 0 rL SGR
GSN 4220 2650 M -54 0 rL SGR
helvS (1.1) 560 2650 ylabel
GSN 620 3551 M 54 0 rL SGR
GSN 4220 3551 M -54 0 rL SGR
helvS (1.12) 560 3551 ylabel
GSN 620 4451 M 54 0 rL SGR
GSN 4220 4451 M -54 0 rL SGR
helvS (1.14) 560 4451 ylabel
%
% Y axis: small tics
%
L5
GSN 620 1750 M 36 0 rL SGR
GSN 4220 1750 M -36 0 rL SGR
GSN 620 1975 M 36 0 rL SGR
GSN 4220 1975 M -36 0 rL SGR
GSN 620 2200 M 36 0 rL SGR
GSN 4220 2200 M -36 0 rL SGR
GSN 620 2425 M 36 0 rL SGR
GSN 4220 2425 M -36 0 rL SGR
GSN 620 2650 M 36 0 rL SGR
GSN 4220 2650 M -36 0 rL SGR
GSN 620 2875 M 36 0 rL SGR
GSN 4220 2875 M -36 0 rL SGR
GSN 620 3101 M 36 0 rL SGR
GSN 4220 3101 M -36 0 rL SGR
GSN 620 3326 M 36 0 rL SGR
GSN 4220 3326 M -36 0 rL SGR
GSN 620 3551 M 36 0 rL SGR
GSN 4220 3551 M -36 0 rL SGR
GSN 620 3776 M 36 0 rL SGR
GSN 4220 3776 M -36 0 rL SGR
GSN 620 4001 M 36 0 rL SGR
GSN 4220 4001 M -36 0 rL SGR
GSN 620 4226 M 36 0 rL SGR
GSN 4220 4226 M -36 0 rL SGR
GSN 620 4451 M 36 0 rL SGR
GSN 4220 4451 M -36 0 rL SGR
GSN 620 4676 M 36 0 rL SGR
GSN 4220 4676 M -36 0 rL SGR
GSN 620 4901 M 36 0 rL SGR
GSN 4220 4901 M -36 0 rL SGR
GSN 620 5126 M 36 0 rL SGR
GSN 4220 5126 M -36 0 rL SGR

%
% X-Axis label:
%
gsave 2420 290 M 
[
[(Helvetica) 180 0 true true 0 (t)]
[(Helvetica) 180 0 true true 0 (i)]
[(Helvetica) 180 0 true true 0 (m)]
[(Helvetica) 180 0 true true 0 (e)]
] 0 MCshow grestore

%
% Y-Axis label:
%
gsave 234 3500 M 
currentpoint gsave translate 90 rotate 0 0 moveto
[
[(Helvetica) 180 0 true true 0 (s)]
[(Helvetica) 180 0 true true 0 (i)]
[(Helvetica) 180 0 true true 0 (g)]
[(Helvetica) 180 0 true true 0 (n)]
[(Helvetica) 180 0 true true 0 (a)]
[(Helvetica) 180 0 true true 0 (l)]
] 0 MCshow grestore

%
% Residuals:
%
gsave 129 1160 M 
currentpoint gsave translate 90 rotate 0 0 moveto
[
[(Helvetica) 150 0 true true 0 (r)]
[(Helvetica) 150 0 true true 0 (e)]
[(Helvetica) 150 0 true true 0 (s)]
[(Helvetica) 150 0 true true 0 (i)]
[(Helvetica) 150 0 true true 0 (d)]
[(Helvetica) 150 0 true true 0 (u)]
[(Helvetica) 150 0 true true 0 (a)]
[(Helvetica) 150 0 true true 0 (l)]
[(Helvetica) 150 0 true true 0 (s)]
] 0 MCshow grestore

%
% Residual frame
%
L10
GSN 
620 620 M
4220 620 L
4220 1700 L
620 1700 L
closepath SGR
%
% X axis: large tics - residual frame
%
L10
GSN 1130 620 M 0  54 rL SGR
GSN 1130 1700 M 0 -54 rL SGR
GSN 1716 620 M 0  54 rL SGR
GSN 1716 1700 M 0 -54 rL SGR
GSN 2303 620 M 0  54 rL SGR
GSN 2303 1700 M 0 -54 rL SGR
GSN 2889 620 M 0  54 rL SGR
GSN 2889 1700 M 0 -54 rL SGR
GSN 3476 620 M 0  54 rL SGR
GSN 3476 1700 M 0 -54 rL SGR
GSN 4062 620 M 0  54 rL SGR
GSN 4062 1700 M 0 -54 rL SGR
%
% X axis: small tics - residual frame
%
L5
GSN 720 620 M 0  36 rL SGR
GSN 720 1700 M 0 -36 rL SGR
GSN 824 620 M 0  36 rL SGR
GSN 824 1700 M 0 -36 rL SGR
GSN 897 620 M 0  36 rL SGR
GSN 897 1700 M 0 -36 rL SGR
GSN 954 620 M 0  36 rL SGR
GSN 954 1700 M 0 -36 rL SGR
GSN 1000 620 M 0  36 rL SGR
GSN 1000 1700 M 0 -36 rL SGR
GSN 1039 620 M 0  36 rL SGR
GSN 1039 1700 M 0 -36 rL SGR
GSN 1073 620 M 0  36 rL SGR
GSN 1073 1700 M 0 -36 rL SGR
GSN 1103 620 M 0  36 rL SGR
GSN 1103 1700 M 0 -36 rL SGR
GSN 1307 620 M 0  36 rL SGR
GSN 1307 1700 M 0 -36 rL SGR
GSN 1410 620 M 0  36 rL SGR
GSN 1410 1700 M 0 -36 rL SGR
GSN 1483 620 M 0  36 rL SGR
GSN 1483 1700 M 0 -36 rL SGR
GSN 1540 620 M 0  36 rL SGR
GSN 1540 1700 M 0 -36 rL SGR
GSN 1586 620 M 0  36 rL SGR
GSN 1586 1700 M 0 -36 rL SGR
GSN 1626 620 M 0  36 rL SGR
GSN 1626 1700 M 0 -36 rL SGR
GSN 1660 620 M 0  36 rL SGR
GSN 1660 1700 M 0 -36 rL SGR
GSN 1690 620 M 0  36 rL SGR
GSN 1690 1700 M 0 -36 rL SGR
GSN 1893 620 M 0  36 rL SGR
GSN 1893 1700 M 0 -36 rL SGR
GSN 1996 620 M 0  36 rL SGR
GSN 1996 1700 M 0 -36 rL SGR
GSN 2069 620 M 0  36 rL SGR
GSN 2069 1700 M 0 -36 rL SGR
GSN 2126 620 M 0  36 rL SGR
GSN 2126 1700 M 0 -36 rL SGR
GSN 2173 620 M 0  36 rL SGR
GSN 2173 1700 M 0 -36 rL SGR
GSN 2212 620 M 0  36 rL SGR
GSN 2212 1700 M 0 -36 rL SGR
GSN 2246 620 M 0  36 rL SGR
GSN 2246 1700 M 0 -36 rL SGR
GSN 2276 620 M 0  36 rL SGR
GSN 2276 1700 M 0 -36 rL SGR
GSN 2479 620 M 0  36 rL SGR
GSN 2479 1700 M 0 -36 rL SGR
GSN 2583 620 M 0  36 rL SGR
GSN 2583 1700 M 0 -36 rL SGR
GSN 2656 620 M 0  36 rL SGR
GSN 2656 1700 M 0 -36 rL SGR
GSN 2713 620 M 0  36 rL SGR
GSN 2713 1700 M 0 -36 rL SGR
GSN 2759 620 M 0  36 rL SGR
GSN 2759 1700 M 0 -36 rL SGR
GSN 2798 620 M 0  36 rL SGR
GSN 2798 1700 M 0 -36 rL SGR
GSN 2832 620 M 0  36 rL SGR
GSN 2832 1700 M 0 -36 rL SGR
GSN 2862 620 M 0  36 rL SGR
GSN 2862 1700 M 0 -36 rL SGR
GSN 3066 620 M 0  36 rL SGR
GSN 3066 1700 M 0 -36 rL SGR
GSN 3169 620 M 0  36 rL SGR
GSN 3169 1700 M 0 -36 rL SGR
GSN 3242 620 M 0  36 rL SGR
GSN 3242 1700 M 0 -36 rL SGR
GSN 3299 620 M 0  36 rL SGR
GSN 3299 1700 M 0 -36 rL SGR
GSN 3345 620 M 0  36 rL SGR
GSN 3345 1700 M 0 -36 rL SGR
GSN 3385 620 M 0  36 rL SGR
GSN 3385 1700 M 0 -36 rL SGR
GSN 3419 620 M 0  36 rL SGR
GSN 3419 1700 M 0 -36 rL SGR
GSN 3449 620 M 0  36 rL SGR
GSN 3449 1700 M 0 -36 rL SGR
GSN 3652 620 M 0  36 rL SGR
GSN 3652 1700 M 0 -36 rL SGR
GSN 3755 620 M 0  36 rL SGR
GSN 3755 1700 M 0 -36 rL SGR
GSN 3829 620 M 0  36 rL SGR
GSN 3829 1700 M 0 -36 rL SGR
GSN 3885 620 M 0  36 rL SGR
GSN 3885 1700 M 0 -36 rL SGR
GSN 3932 620 M 0  36 rL SGR
GSN 3932 1700 M 0 -36 rL SGR
GSN 3971 620 M 0  36 rL SGR
GSN 3971 1700 M 0 -36 rL SGR
GSN 4005 620 M 0  36 rL SGR
GSN 4005 1700 M 0 -36 rL SGR
GSN 4035 620 M 0  36 rL SGR
GSN 4035 1700 M 0 -36 rL SGR
%
% Y axis: large tics - residual frame
%
L10
GSN 620 626 M 54 0 rL SGR
GSN 4220 626 M -54 0 rL SGR
helvS (-0.02) 560 626 ylabelresid
GSN 620 896 M 54 0 rL SGR
GSN 4220 896 M -54 0 rL SGR
helvS (-0.01) 560 896 ylabelresid
GSN 620 1167 M 54 0 rL SGR
GSN 4220 1167 M -54 0 rL SGR
helvS (0) 560 1167 ylabelresid
GSN 620 1437 M 54 0 rL SGR
GSN 4220 1437 M -54 0 rL SGR
helvS (0.01) 560 1437 ylabelresid

%
% X axis - residual panel
%
GSN L5 620 1167 M 4220 1167 L SDA G50 SGR

end
showpage
%%Trailer
%%EOF
