%!PS-Adobe-3.0 EPSF-3.0
%%BoundingBox: 0 0 514 550
%%Creator: BioKin Ltd.
%%DocumentFonts: Symbol Helvetica
%%EndComments
%
/bkdict 256 dict def
bkdict begin
/M {moveto} def 
/R {rmoveto} def
/L {lineto} def
/rL {rlineto} def
/GSN {gsave newpath} def
/SGR {stroke grestore} def
/COSGR {gsave setrgbcolor stroke grestore grestore} def
/SL {setlinewidth} def
/LWMB {12} def             % line width - model curves, black & white
/LWMC {10} def             % line width - model curves, color
/L2 {2.5 setlinewidth} def
/L5 {5 setlinewidth} def
/L10 {10 setlinewidth} def
/G50 {0.5 setgray} def
/SDA {[10  20] 0 setdash} def % axes
/helvT {/Helvetica findfont 100 scalefont setfont} def % tiny
/helvS {/Helvetica findfont 125 scalefont setfont} def % small
/helvM {/Helvetica findfont 150 scalefont setfont} def % medium
/helvL {/Helvetica findfont 175 scalefont setfont} def % large
/xlabel {gsave M dup
   stringwidth exch -0.5 mul exch rmoveto show grestore} def 
/ylabel {gsave M 90 rotate dup
   stringwidth exch -0.5 mul exch rmoveto show grestore} def
/ylabelresid {gsave M dup
   stringwidth exch -1 mul exch rmoveto show grestore} def
% ======
% Shapes
% ======
% Circle:
/Circ {0 360 arc closepath} def
%
% Square:
/Squa {dup dup -0.5 mul dup dup R -2 mul 0 exch rL 1 mul 0 rL dup 0 exch -1 mul rL closepath} def
%
% Triangle Up:
/TriU {dup dup dup -0.4 mul exch -0.5 mul exch R dup 0.5 mul exch rL dup -1 mul exch 0.5 mul exch rL closepath} def 
%
% Triangle Down:
/TriD {dup dup dup 0.4 mul exch -0.5 mul exch R dup 0.5 mul exch -1 mul rL dup 0.5 mul exch rL closepath} def 
%
% Diamond:
/Diam {45 rotate Squa} def
% ======
% Fills
% ======
/GRF {gsave setgray fill grestore} def                    % gray-level Fill
/COF {gsave setrgbcolor fill grestore} def                % color fill
% ======
% Colors
% ======
/C01 {1.00	0.00	0.00} def      % Red
/C02 {0.00	0.00	1.00} def      % Blue
/C03 {0.00	0.39	0.00} def      % Dark Green
/C04 {0.78	0.08	0.52} def      % Medium Violet Red
/C05 {0.55	0.27	0.07} def      % Saddle Brown
/C06 {0.10	0.70	0.70} def      % (cyan)
/C07 {1.00	0.55	0.00} def      % Dark Orange
/C08 {0.63	0.13	0.94} def      % Purple
/C09 {0.00	0.75	1.00} def      % Deep Sky Blue
/C10 {0.20	0.80	0.20} def      % Lime Green
/C11 {0.47	0.53	0.60} def      % Light Slate Gray
/C12 {0.00	0.00	0.00} def      % Black            % or: {0.19	0.31	0.31} def      % Dark Slate Gray
%
/LGR {0.75} def % light gray
/DGR {0.33} def % dark gray
%
% =============
% Dash patterns
% =============
/dash01 { [80  20] 0 setdash } def
/dash02 { [40  20] 0 setdash } def
/dash03 { [80  20  10  20] 0 setdash } def
/dash04 { [40  20  10  20] 0 setdash } def
/dash05 { [80  20  10  10  10  20] 0 setdash } def
/dash06 { [40  20  10  10  10  20] 0 setdash } def
/dash07 { [10  10] 0 setdash } def
%
/MFshow {
   { dup 5 get 3 ge
     { 5 get 3 eq {gsave} {grestore} ifelse }
     {dup dup 0 get findfont exch 1 get scalefont setfont
     [ currentpoint ] exch dup 2 get 0 exch R dup 5 get 2 ne {dup dup 6
     get exch 4 get {show} {stringwidth pop 0 R} ifelse }if dup 5 get 0 eq
     {dup 3 get {2 get neg 0 exch R pop} {pop aload pop M} ifelse} {dup 5
     get 1 eq {dup 2 get exch dup 3 get exch 6 get stringwidth pop -2 div
     dup 0 R} {dup 6 get stringwidth pop -2 div 0 R 6 get
     show 2 index {aload pop M neg 3 -1 roll neg R pop pop} {pop pop pop
     pop aload pop M} ifelse }ifelse }ifelse }
     ifelse }
   forall} bind def
/MFwidth {0 exch {dup 3 get{dup dup 0 get findfont exch 1 get scalefont
     setfont 6 get stringwidth pop add} {pop} ifelse} forall} bind def
/MCshow { currentpoint stroke M
  exch dup MFwidth -2 div 3 -1 roll R MFshow } def
%
end
%%EndProlog
bkdict begin
0.1 0.1 scale
%
% Residuals:
%
GSN 620 4863 M
620 3820 L
620 3364 L
620 4155 L
620 4097 L
620 3604 L
620 3576 L
620 3564 L
620 3722 L
620 3658 L
620 3256 L
620 3798 L
620 3171 L
620 3291 L
620 4145 L
620 3478 L
620 3623 L
620 3164 L
620 3333 L
620 3406 L
620 3426 L
620 3151 L
620 2941 L
620 3137 L
620 3805 L
620 3292 L
620 3541 L
620 3334 L
620 3592 L
620 3589 L
620 3658 L
620 3424 L
620 3196 L
620 2940 L
620 3302 L
620 3318 L
620 3099 L
620 3556 L
620 3886 L
620 3667 L
620 3604 L
620 3290 L
620 3742 L
620 3072 L
620 3206 L
620 3431 L
620 3603 L
620 3467 L
620 3526 L
620 3538 L
620 3220 L
620 3312 L
620 3363 L
620 3148 L
620 2605 L
620 3784 L
620 3281 L
620 3405 L
620 3271 L
620 3922 L
620 3397 L
620 3154 L
620 4309 L
620 3109 L
620 3711 L
620 3612 L
620 3312 L
620 3503 L
620 3416 L
620 3931 L
620 3594 L
620 3118 L
620 3900 L
620 4307 L
620 3676 L
620 3609 L
620 3886 L
620 3245 L
620 3632 L
620 3719 L
620 3649 L
620 3278 L
620 3512 L
620 4136 L
620 3315 L
620 3551 L
620 3893 L
620 3790 L
620 3544 L
620 3382 L
620 3440 L
620 3585 L
620 2774 L
620 3552 L
620 3258 L
620 4086 L
620 3298 L
620 3620 L
620 2877 L
620 3253 L
620 3345 L
620 3077 L
620 3604 L
620 3212 L
620 3703 L
620 3765 L
620 3410 L
620 3093 L
620 3118 L
620 3770 L
620 3352 L
620 3227 L
620 3301 L
620 3610 L
620 3290 L
620 3443 L
620 3190 L
620 3596 L
620 3637 L
620 3490 L
620 3562 L
620 3597 L
620 3123 L
620 4006 L
620 3768 L
620 2762 L
620 3631 L
620 3477 L
620 3750 L
620 3395 L
620 3514 L
620 3173 L
620 3555 L
620 3565 L
620 4052 L
620 2974 L
620 3478 L
620 3754 L
620 3812 L
620 3731 L
620 3671 L
620 3131 L
620 3199 L
620 3557 L
620 3344 L
620 3525 L
620 3617 L
620 3522 L
620 3612 L
620 3659 L
620 3212 L
620 3635 L
620 3401 L
620 3182 L
620 3784 L
620 3835 L
620 3224 L
620 3268 L
620 3870 L
620 3723 L
620 3675 L
620 3666 L
620 3132 L
620 3635 L
620 3792 L
620 3672 L
620 3290 L
620 3338 L
620 3349 L
620 3651 L
620 3661 L
620 3645 L
620 3301 L
620 3915 L
620 3718 L
620 3037 L
620 3925 L
620 3246 L
620 3311 L
620 3507 L
620 3403 L
620 3760 L
620 3452 L
620 3732 L
620 3712 L
620 3572 L
620 3442 L
620 3673 L
620 3209 L
620 3505 L
620 3975 L
620 3090 L
620 4000 L
620 3350 L
620 2935 L
620 3422 L
620 3951 L
620 2932 L
620 3180 L
620 3644 L
620 3772 L
620 3300 L
620 3186 L
620 3234 L
620 3919 L
620 3478 L
620 3633 L
620 3774 L
620 3768 L
620 3724 L
620 4082 L
620 3650 L
620 3950 L
620 3675 L
620 3716 L
620 3021 L
620 3361 L
620 3826 L
620 2923 L
620 3417 L
620 3474 L
620 3352 L
620 3871 L
620 3456 L
620 3644 L
620 3558 L
620 3573 L
620 3451 L
620 3517 L
620 3922 L
620 3236 L
620 3482 L
620 3226 L
620 3219 L
620 3573 L
620 3225 L
620 3638 L
620 3442 L
620 3731 L
620 3631 L
620 3999 L
620 3921 L
620 3688 L
620 3742 L
620 3396 L
620 3484 L
620 3141 L
620 3715 L
620 3552 L
620 3248 L
620 3702 L
620 3574 L
620 3773 L
620 3178 L
620 3234 L
620 4255 L
620 4155 L
620 3238 L
620 3659 L
620 3938 L
620 3614 L
620 3573 L
620 3724 L
620 3550 L
620 4108 L
620 3203 L
620 3569 L
620 3642 L
620 3402 L
620 3680 L
620 3720 L
620 3725 L
620 3553 L
620 3871 L
620 3720 L
620 3339 L
620 3374 L
620 3824 L
620 3705 L
620 3760 L
620 3425 L
620 4176 L
620 3507 L
620 3625 L
620 4240 L
620 3755 L
620 4218 L
620 4193 L
620 4454 L
620 3685 L
620 4281 L
620 4137 L
620 4306 L
620 3775 L
620 3946 L
620 3621 L
620 3810 L
620 4539 L
620 4039 L
620 4297 L
620 3873 L
620 3616 L
620 3665 L
620 3420 L
620 3867 L
620 4053 L
620 4279 L
620 3648 L
620 3911 L
620 4818 L
620 3723 L
620 4006 L
620 3756 L
620 4538 L
620 3381 L
620 4241 L
620 4067 L
620 4469 L
620 3928 L
620 3892 L
620 3944 L
620 3801 L
620 4547 L
620 4286 L
620 3753 L
620 3570 L
620 3619 L
620 3829 L
620 4505 L
620 3786 L
620 3911 L
620 3876 L
620 4385 L
620 4163 L
620 3648 L
620 4137 L
620 3786 L
620 4064 L
620 3709 L
620 4043 L
620 4116 L
620 3965 L
620 3746 L
620 4488 L
620 3725 L
620 4415 L
620 3826 L
620 3909 L
620 4095 L
620 2948 L
620 3605 L
620 3857 L
620 3883 L
620 4177 L
620 4104 L
620 4130 L
620 3784 L
620 3405 L
620 3900 L
620 3848 L
620 4062 L
620 3598 L
620 3650 L
620 3247 L
620 3911 L
620 3786 L
620 3490 L
620 3794 L
620 3523 L
620 4182 L
620 3452 L
620 4528 L
620 3921 L
620 3243 L
620 3867 L
620 3582 L
620 3699 L
620 4377 L
620 3292 L
620 3325 L
620 3845 L
620 3645 L
620 3393 L
620 3640 L
620 3874 L
620 3699 L
620 3134 L
620 3560 L
620 2703 L
620 3233 L
620 3671 L
620 3688 L
620 3384 L
620 3007 L
620 3824 L
620 3276 L
620 2732 L
620 4095 L
620 3078 L
620 3026 L
620 4170 L
620 3349 L
620 3061 L
620 3544 L
620 3292 L
620 3148 L
620 3796 L
620 3725 L
620 3414 L
620 3264 L
620 3372 L
620 3000 L
620 3014 L
620 3316 L
620 3134 L
620 3384 L
620 3454 L
620 3009 L
620 3167 L
620 3572 L
620 2637 L
620 4048 L
620 3259 L
620 3831 L
620 3702 L
620 3059 L
620 3299 L
620 3125 L
620 3426 L
620 3370 L
620 2885 L
620 2842 L
620 3673 L
620 2911 L
620 3264 L
620 3464 L
620 3042 L
620 3094 L
620 3162 L
620 3080 L
620 2925 L
620 2918 L
620 3405 L
620 3045 L
620 3245 L
620 2576 L
620 3200 L
620 3188 L
620 2880 L
620 3024 L
620 3080 L
620 3509 L
620 3440 L
620 3153 L
620 2906 L
620 2720 L
620 3271 L
620 3393 L
620 3033 L
620 2887 L
620 2939 L
620 3793 L
620 3424 L
620 3052 L
620 2703 L
620 2642 L
620 3374 L
620 3304 L
620 3304 L
620 3438 L
620 3264 L
620 2993 L
620 2774 L
620 3094 L
620 2753 L
620 2830 L
620 3268 L
620 3518 L
620 2913 L
620 2847 L
620 2979 L
620 3544 L
620 2927 L
620 2880 L
620 3487 L
620 3532 L
620 3092 L
620 3600 L
620 2239 L
620 2317 L
620 3454 L
620 3153 L
620 2510 L
620 3203 L
620 3075 L
620 3728 L
620 3174 L
620 3652 L
620 2621 L
620 3640 L
620 3111 L
620 3195 L
620 3151 L
620 3094 L
620 2842 L
620 2988 L
620 2965 L
620 2986 L
620 3108 L
620 2755 L
620 2282 L
620 3353 L
620 2765 L
620 2595 L
620 2859 L
620 2969 L
620 3212 L
620 3268 L
620 2468 L
620 3228 L
620 3165 L
620 2762 L
620 3177 L
620 2642 L
620 2703 L
620 3327 L
620 2967 L
620 3019 L
620 2522 L
620 3104 L
620 2136 L
620 2783 L
620 3111 L
L2 C05 COSGR

%
%================
% Legend - Begin
%================
%
GSN 4240 5180 M
4480 5180 L
LWMC SL  C05 COSGR
GSN 4540 5141 M helvM (2.5 uM) show grestore
%
%================
% Legend - End
%================
%

%
% Main frame
%
L10
GSN 
620 1700 M
4220 1700 L
4220 5300 L
620 5300 L
closepath SGR

%
% X axis: large tics
%
L10
%
% X axis: small tics
%
L5
%
% Y axis: large tics
%
L10
GSN 620 2260 M 54 0 rL SGR
GSN 4220 2260 M -54 0 rL SGR
helvS (-0.01) 560 2260 ylabel
GSN 620 3494 M 54 0 rL SGR
GSN 4220 3494 M -54 0 rL SGR
helvS (0) 560 3494 ylabel
GSN 620 4729 M 54 0 rL SGR
GSN 4220 4729 M -54 0 rL SGR
helvS (0.01) 560 4729 ylabel
%
% Y axis: small tics
%
L5
GSN 620 1951 M 36 0 rL SGR
GSN 4220 1951 M -36 0 rL SGR
GSN 620 2260 M 36 0 rL SGR
GSN 4220 2260 M -36 0 rL SGR
GSN 620 2568 M 36 0 rL SGR
GSN 4220 2568 M -36 0 rL SGR
GSN 620 2877 M 36 0 rL SGR
GSN 4220 2877 M -36 0 rL SGR
GSN 620 3186 M 36 0 rL SGR
GSN 4220 3186 M -36 0 rL SGR
GSN 620 3494 M 36 0 rL SGR
GSN 4220 3494 M -36 0 rL SGR
GSN 620 3803 M 36 0 rL SGR
GSN 4220 3803 M -36 0 rL SGR
GSN 620 4112 M 36 0 rL SGR
GSN 4220 4112 M -36 0 rL SGR
GSN 620 4420 M 36 0 rL SGR
GSN 4220 4420 M -36 0 rL SGR
GSN 620 4729 M 36 0 rL SGR
GSN 4220 4729 M -36 0 rL SGR
GSN 620 5037 M 36 0 rL SGR
GSN 4220 5037 M -36 0 rL SGR

%
% X axis - residual panel
%
GSN L5 620 3494 M 4220 3494 L SDA G50 SGR

%
% X-Axis label:
%
gsave 620 1370 M 
[
[(Helvetica) 180 0 true true 0 (t)]
[(Helvetica) 180 0 true true 0 (i)]
[(Helvetica) 180 0 true true 0 (m)]
[(Helvetica) 180 0 true true 0 (e)]
] 0 MCshow grestore

%
% Y-Axis label:
%
gsave 234 3499 M 
currentpoint gsave translate 90 rotate 0 0 moveto
[
[(Helvetica) 180 0 true true 0 (r)]
[(Helvetica) 180 0 true true 0 (e)]
[(Helvetica) 180 0 true true 0 (s)]
[(Helvetica) 180 0 true true 0 (i)]
[(Helvetica) 180 0 true true 0 (d)]
[(Helvetica) 180 0 true true 0 (u)]
[(Helvetica) 180 0 true true 0 (a)]
[(Helvetica) 180 0 true true 0 (l)]
[(Helvetica) 180 0 true true 0 (s)]
] 0 MCshow grestore

end
showpage
%%Trailer
%%EOF
