%!PS-Adobe-3.0 EPSF-3.0
%%BoundingBox: 0 0 514 550
%%Creator: BioKin Ltd.
%%DocumentFonts: Symbol Helvetica
%%EndComments
%
/bkdict 256 dict def
bkdict begin
/M {moveto} def 
/R {rmoveto} def
/L {lineto} def
/rL {rlineto} def
/GSN {gsave newpath} def
/SGR {stroke grestore} def
/COSGR {gsave setrgbcolor stroke grestore grestore} def
/SL {setlinewidth} def
/LWMB {12} def             % line width - model curves, black & white
/LWMC {10} def             % line width - model curves, color
/L2 {2.5 setlinewidth} def
/L5 {5 setlinewidth} def
/L10 {10 setlinewidth} def
/G50 {0.5 setgray} def
/SDA {[10  20] 0 setdash} def % axes
/helvT {/Helvetica findfont 100 scalefont setfont} def % tiny
/helvS {/Helvetica findfont 125 scalefont setfont} def % small
/helvM {/Helvetica findfont 150 scalefont setfont} def % medium
/helvL {/Helvetica findfont 175 scalefont setfont} def % large
/xlabel {gsave M dup
   stringwidth exch -0.5 mul exch rmoveto show grestore} def 
/ylabel {gsave M 90 rotate dup
   stringwidth exch -0.5 mul exch rmoveto show grestore} def
/ylabelresid {gsave M dup
   stringwidth exch -1 mul exch rmoveto show grestore} def
% ======
% Shapes
% ======
% Circle:
/Circ {0 360 arc closepath} def
%
% Square:
/Squa {dup dup -0.5 mul dup dup R -2 mul 0 exch rL 1 mul 0 rL dup 0 exch -1 mul rL closepath} def
%
% Triangle Up:
/TriU {dup dup dup -0.4 mul exch -0.5 mul exch R dup 0.5 mul exch rL dup -1 mul exch 0.5 mul exch rL closepath} def 
%
% Triangle Down:
/TriD {dup dup dup 0.4 mul exch -0.5 mul exch R dup 0.5 mul exch -1 mul rL dup 0.5 mul exch rL closepath} def 
%
% Diamond:
/Diam {45 rotate Squa} def
% ======
% Fills
% ======
/GRF {gsave setgray fill grestore} def                    % gray-level Fill
/COF {gsave setrgbcolor fill grestore} def                % color fill
% ======
% Colors
% ======
/C01 {1.00	0.00	0.00} def      % Red
/C02 {0.00	0.00	1.00} def      % Blue
/C03 {0.00	0.39	0.00} def      % Dark Green
/C04 {0.78	0.08	0.52} def      % Medium Violet Red
/C05 {0.55	0.27	0.07} def      % Saddle Brown
/C06 {0.10	0.70	0.70} def      % (cyan)
/C07 {1.00	0.55	0.00} def      % Dark Orange
/C08 {0.63	0.13	0.94} def      % Purple
/C09 {0.00	0.75	1.00} def      % Deep Sky Blue
/C10 {0.20	0.80	0.20} def      % Lime Green
/C11 {0.47	0.53	0.60} def      % Light Slate Gray
/C12 {0.00	0.00	0.00} def      % Black            % or: {0.19	0.31	0.31} def      % Dark Slate Gray
%
/LGR {0.75} def % light gray
/DGR {0.33} def % dark gray
%
% =============
% Dash patterns
% =============
/dash01 { [80  20] 0 setdash } def
/dash02 { [40  20] 0 setdash } def
/dash03 { [80  20  10  20] 0 setdash } def
/dash04 { [40  20  10  20] 0 setdash } def
/dash05 { [80  20  10  10  10  20] 0 setdash } def
/dash06 { [40  20  10  10  10  20] 0 setdash } def
/dash07 { [10  10] 0 setdash } def
%
/MFshow {
   { dup 5 get 3 ge
     { 5 get 3 eq {gsave} {grestore} ifelse }
     {dup dup 0 get findfont exch 1 get scalefont setfont
     [ currentpoint ] exch dup 2 get 0 exch R dup 5 get 2 ne {dup dup 6
     get exch 4 get {show} {stringwidth pop 0 R} ifelse }if dup 5 get 0 eq
     {dup 3 get {2 get neg 0 exch R pop} {pop aload pop M} ifelse} {dup 5
     get 1 eq {dup 2 get exch dup 3 get exch 6 get stringwidth pop -2 div
     dup 0 R} {dup 6 get stringwidth pop -2 div 0 R 6 get
     show 2 index {aload pop M neg 3 -1 roll neg R pop pop} {pop pop pop
     pop aload pop M} ifelse }ifelse }ifelse }
     ifelse }
   forall} bind def
/MFwidth {0 exch {dup 3 get{dup dup 0 get findfont exch 1 get scalefont
     setfont 6 get stringwidth pop add} {pop} ifelse} forall} bind def
/MCshow { currentpoint stroke M
  exch dup MFwidth -2 div 3 -1 roll R MFshow } def
%
end
%%EndProlog
bkdict begin
0.1 0.1 scale
%
% Residuals:
%
GSN 620 3346 M
620 2754 L
620 2994 L
620 3676 L
620 3451 L
620 3291 L
620 3421 L
620 3493 L
620 3654 L
620 3566 L
620 3682 L
620 3211 L
620 4193 L
620 3476 L
620 3879 L
620 4079 L
620 4012 L
620 4177 L
620 3581 L
620 3914 L
620 3805 L
620 3565 L
620 3741 L
620 3979 L
620 3622 L
620 4165 L
620 4481 L
620 4125 L
620 4419 L
620 4041 L
620 3813 L
620 3250 L
620 3628 L
620 3725 L
620 4232 L
620 4244 L
620 3961 L
620 4019 L
620 4220 L
620 4218 L
620 4485 L
620 4863 L
620 3795 L
620 4055 L
620 3462 L
620 3764 L
620 3536 L
620 4092 L
620 4142 L
620 4026 L
620 4217 L
620 4393 L
620 3588 L
620 2808 L
620 3301 L
620 3798 L
620 4147 L
620 4546 L
620 3861 L
620 3616 L
620 3381 L
620 4164 L
620 3331 L
620 3634 L
620 4201 L
620 4057 L
620 3339 L
620 3816 L
620 3784 L
620 3506 L
620 3439 L
620 4092 L
620 3681 L
620 3886 L
620 3455 L
620 3877 L
620 3910 L
620 3836 L
620 3688 L
620 3711 L
620 3862 L
620 3456 L
620 3419 L
620 3623 L
620 3845 L
620 3749 L
620 3843 L
620 3915 L
620 3151 L
620 3327 L
620 3471 L
620 4245 L
620 3269 L
620 2669 L
620 3860 L
620 3164 L
620 3628 L
620 2939 L
620 3597 L
620 3407 L
620 3122 L
620 2856 L
620 3442 L
620 3179 L
620 2270 L
620 3113 L
620 3201 L
620 2364 L
620 3308 L
620 2934 L
620 3442 L
620 2655 L
620 3520 L
620 3502 L
620 3322 L
620 3024 L
620 3054 L
620 3133 L
620 2829 L
620 2961 L
620 3147 L
620 3102 L
620 3057 L
620 2531 L
620 2906 L
620 2822 L
620 2497 L
620 2769 L
620 3202 L
620 2573 L
620 3007 L
620 2607 L
620 2648 L
620 2523 L
620 2828 L
620 2741 L
620 2620 L
620 2656 L
620 3039 L
620 2536 L
620 2841 L
620 2474 L
620 2578 L
620 2681 L
620 2594 L
620 2526 L
620 2438 L
620 2512 L
620 2464 L
620 2768 L
620 2940 L
620 2558 L
620 2921 L
620 3416 L
620 2573 L
620 2451 L
620 2500 L
620 3092 L
620 2754 L
620 2739 L
620 3464 L
620 3293 L
620 2376 L
620 3003 L
620 2553 L
620 2954 L
620 2949 L
620 2909 L
620 2982 L
620 2977 L
620 3216 L
620 2569 L
620 3397 L
620 3362 L
620 3068 L
620 3621 L
620 2136 L
620 2714 L
620 3237 L
620 2736 L
620 2878 L
620 2912 L
620 2892 L
620 3082 L
620 2229 L
620 3135 L
620 3350 L
620 4250 L
620 2961 L
620 3969 L
620 2485 L
620 3474 L
620 3252 L
620 2522 L
620 3197 L
620 3334 L
620 3255 L
620 2705 L
620 3248 L
620 2875 L
620 2968 L
620 3006 L
620 3221 L
620 3328 L
620 2754 L
620 2886 L
620 2860 L
620 3541 L
620 3378 L
620 2755 L
620 3376 L
620 3140 L
620 3414 L
620 3815 L
620 3599 L
620 3500 L
620 3563 L
620 3577 L
620 3954 L
620 3267 L
620 3389 L
620 3878 L
620 3646 L
620 3122 L
620 3199 L
620 3694 L
620 3051 L
620 3756 L
620 2716 L
620 3186 L
620 3548 L
620 3875 L
620 3811 L
620 3506 L
620 3452 L
620 3206 L
620 3200 L
620 3366 L
620 3189 L
620 3556 L
620 3089 L
620 3045 L
620 3015 L
620 3391 L
620 3278 L
620 3267 L
620 3408 L
620 3050 L
620 3471 L
620 3842 L
620 3650 L
620 3013 L
620 3909 L
620 4109 L
620 3593 L
620 3216 L
620 3083 L
620 3410 L
620 3405 L
620 3042 L
620 2811 L
620 3133 L
620 2750 L
620 3014 L
620 4243 L
620 3870 L
620 3473 L
620 3545 L
620 4162 L
620 4053 L
620 3499 L
620 2842 L
620 2890 L
620 3996 L
620 4162 L
620 3530 L
620 4142 L
620 3813 L
620 3018 L
620 3532 L
620 3125 L
620 3353 L
620 3681 L
620 3539 L
620 3306 L
620 3910 L
620 3193 L
620 3794 L
620 4000 L
620 3736 L
620 3541 L
620 3890 L
620 3941 L
620 3797 L
620 4079 L
620 4190 L
620 3484 L
620 3709 L
620 3429 L
620 3905 L
620 3039 L
620 3377 L
620 3388 L
620 3463 L
620 3944 L
620 3417 L
620 3772 L
620 4249 L
620 3541 L
620 3612 L
620 3532 L
620 3867 L
620 3297 L
620 3423 L
620 3539 L
620 3562 L
620 3487 L
620 3519 L
620 3822 L
620 3076 L
620 4177 L
620 4314 L
620 3342 L
620 3822 L
620 2777 L
620 3526 L
620 4128 L
620 3207 L
620 2981 L
620 3377 L
620 3744 L
620 4213 L
620 3478 L
620 2998 L
620 3448 L
620 3526 L
620 3952 L
620 3339 L
620 3461 L
620 3299 L
620 3137 L
620 3818 L
620 3548 L
620 3219 L
620 3729 L
620 3406 L
620 3606 L
620 4017 L
620 3312 L
620 3111 L
620 3870 L
620 3723 L
620 3056 L
620 3075 L
620 3433 L
620 3002 L
620 3369 L
620 3530 L
620 3349 L
620 4265 L
620 2923 L
620 3702 L
620 3697 L
620 4152 L
620 3207 L
620 3378 L
620 3231 L
620 3613 L
620 2947 L
620 3364 L
620 3197 L
620 3265 L
620 3662 L
620 2976 L
620 3834 L
620 3966 L
620 3501 L
620 3162 L
620 2966 L
620 3770 L
620 3510 L
620 3745 L
620 2869 L
620 3368 L
620 3535 L
620 3359 L
620 3535 L
620 3246 L
620 3858 L
620 3315 L
620 3584 L
620 3412 L
620 3510 L
620 3525 L
620 3383 L
620 3427 L
620 3839 L
620 3055 L
620 3305 L
620 3609 L
620 3751 L
620 3099 L
620 3799 L
620 3486 L
620 4039 L
620 2913 L
620 3858 L
620 3599 L
620 3417 L
620 3187 L
620 3442 L
620 3491 L
620 3795 L
620 3751 L
620 2888 L
620 3074 L
620 3393 L
620 3153 L
620 3491 L
620 3809 L
620 2883 L
620 3065 L
620 3089 L
620 3677 L
620 2732 L
620 3270 L
620 3011 L
620 3334 L
620 3452 L
620 3623 L
620 3741 L
620 3540 L
620 3236 L
620 3638 L
620 3638 L
620 3618 L
620 3506 L
620 3319 L
620 2638 L
620 3167 L
620 4049 L
620 3834 L
620 3359 L
620 3569 L
620 3814 L
620 2727 L
620 3667 L
620 3613 L
620 2918 L
620 3481 L
620 2785 L
620 3324 L
620 3804 L
620 3942 L
620 3192 L
620 4074 L
620 3001 L
620 3491 L
620 3452 L
620 4020 L
620 2932 L
620 3873 L
620 3804 L
620 3496 L
620 3285 L
620 3393 L
620 3295 L
620 4025 L
620 3280 L
620 3550 L
620 3868 L
620 3373 L
620 3486 L
620 3359 L
620 4084 L
620 3353 L
620 3094 L
620 3858 L
620 3647 L
620 3770 L
620 3080 L
620 3711 L
620 3618 L
620 3927 L
620 4049 L
620 3809 L
620 3432 L
620 3672 L
620 3476 L
620 3682 L
620 4353 L
620 3574 L
620 3809 L
620 3334 L
620 3770 L
620 3403 L
620 3618 L
620 3599 L
620 3721 L
620 3197 L
620 3344 L
620 2967 L
620 3760 L
620 4333 L
620 2707 L
620 4030 L
620 3481 L
620 3319 L
620 3819 L
620 3942 L
620 3407 L
620 4069 L
620 3829 L
620 3319 L
620 3579 L
620 3525 L
620 3609 L
620 4010 L
620 3785 L
620 3466 L
620 4471 L
620 3491 L
620 3545 L
620 3878 L
620 3799 L
620 3021 L
620 3579 L
620 2859 L
620 3388 L
620 3677 L
620 3848 L
620 3334 L
620 3775 L
L2 C01 COSGR

%
%================
% Legend - Begin
%================
%
GSN 4240 5180 M
4480 5180 L
LWMC SL  C01 COSGR
GSN 4540 5141 M helvM (0.5 uM) show grestore
%
%================
% Legend - End
%================
%

%
% Main frame
%
L10
GSN 
620 1700 M
4220 1700 L
4220 5300 L
620 5300 L
closepath SGR

%
% X axis: large tics
%
L10
%
% X axis: small tics
%
L5
%
% Y axis: large tics
%
L10
GSN 620 2471 M 54 0 rL SGR
GSN 4220 2471 M -54 0 rL SGR
helvS (-0.01) 560 2471 ylabel
GSN 620 3434 M 54 0 rL SGR
GSN 4220 3434 M -54 0 rL SGR
helvS (0) 560 3434 ylabel
GSN 620 4397 M 54 0 rL SGR
GSN 4220 4397 M -54 0 rL SGR
helvS (0.01) 560 4397 ylabel
%
% Y axis: small tics
%
L5
GSN 620 1748 M 36 0 rL SGR
GSN 4220 1748 M -36 0 rL SGR
GSN 620 1989 M 36 0 rL SGR
GSN 4220 1989 M -36 0 rL SGR
GSN 620 2230 M 36 0 rL SGR
GSN 4220 2230 M -36 0 rL SGR
GSN 620 2471 M 36 0 rL SGR
GSN 4220 2471 M -36 0 rL SGR
GSN 620 2712 M 36 0 rL SGR
GSN 4220 2712 M -36 0 rL SGR
GSN 620 2952 M 36 0 rL SGR
GSN 4220 2952 M -36 0 rL SGR
GSN 620 3193 M 36 0 rL SGR
GSN 4220 3193 M -36 0 rL SGR
GSN 620 3434 M 36 0 rL SGR
GSN 4220 3434 M -36 0 rL SGR
GSN 620 3675 M 36 0 rL SGR
GSN 4220 3675 M -36 0 rL SGR
GSN 620 3916 M 36 0 rL SGR
GSN 4220 3916 M -36 0 rL SGR
GSN 620 4156 M 36 0 rL SGR
GSN 4220 4156 M -36 0 rL SGR
GSN 620 4397 M 36 0 rL SGR
GSN 4220 4397 M -36 0 rL SGR
GSN 620 4638 M 36 0 rL SGR
GSN 4220 4638 M -36 0 rL SGR
GSN 620 4879 M 36 0 rL SGR
GSN 4220 4879 M -36 0 rL SGR
GSN 620 5119 M 36 0 rL SGR
GSN 4220 5119 M -36 0 rL SGR

%
% X axis - residual panel
%
GSN L5 620 3434 M 4220 3434 L SDA G50 SGR

%
% X-Axis label:
%
gsave 620 1370 M 
[
[(Helvetica) 180 0 true true 0 (t)]
[(Helvetica) 180 0 true true 0 (i)]
[(Helvetica) 180 0 true true 0 (m)]
[(Helvetica) 180 0 true true 0 (e)]
] 0 MCshow grestore

%
% Y-Axis label:
%
gsave 234 3499 M 
currentpoint gsave translate 90 rotate 0 0 moveto
[
[(Helvetica) 180 0 true true 0 (r)]
[(Helvetica) 180 0 true true 0 (e)]
[(Helvetica) 180 0 true true 0 (s)]
[(Helvetica) 180 0 true true 0 (i)]
[(Helvetica) 180 0 true true 0 (d)]
[(Helvetica) 180 0 true true 0 (u)]
[(Helvetica) 180 0 true true 0 (a)]
[(Helvetica) 180 0 true true 0 (l)]
[(Helvetica) 180 0 true true 0 (s)]
] 0 MCshow grestore

end
showpage
%%Trailer
%%EOF
