%!PS-Adobe-3.0 EPSF-3.0
%%BoundingBox: 0 0 514 442
%%Creator: BioKin Ltd.
%%DocumentFonts: Symbol Helvetica
%%EndComments
%
/bkdict 256 dict def
bkdict begin
/M {moveto} def 
/R {rmoveto} def
/L {lineto} def
/rL {rlineto} def
/GSN {gsave newpath} def
/SGR {stroke grestore} def
/COSGR {gsave setrgbcolor stroke grestore grestore} def
/SL {setlinewidth} def
/LWMB {12} def             % line width - model curves, black & white
/LWMC {10} def             % line width - model curves, color
/L2 {2.5 setlinewidth} def
/L5 {5 setlinewidth} def
/L10 {10 setlinewidth} def
/G50 {0.5 setgray} def
/SDA {[10  20] 0 setdash} def % axes
/helvT {/Helvetica findfont 100 scalefont setfont} def % tiny
/helvS {/Helvetica findfont 125 scalefont setfont} def % small
/helvM {/Helvetica findfont 150 scalefont setfont} def % medium
/helvL {/Helvetica findfont 175 scalefont setfont} def % large
/xlabel {gsave M dup
   stringwidth exch -0.5 mul exch rmoveto show grestore} def 
/ylabel {gsave M 90 rotate dup
   stringwidth exch -0.5 mul exch rmoveto show grestore} def
/ylabelresid {gsave M dup
   stringwidth exch -1 mul exch rmoveto show grestore} def
% ======
% Shapes
% ======
% Circle:
/Circ {0 360 arc closepath} def
%
% Square:
/Squa {dup dup -0.5 mul dup dup R -2 mul 0 exch rL 1 mul 0 rL dup 0 exch -1 mul rL closepath} def
%
% Triangle Up:
/TriU {dup dup dup -0.4 mul exch -0.5 mul exch R dup 0.5 mul exch rL dup -1 mul exch 0.5 mul exch rL closepath} def 
%
% Triangle Down:
/TriD {dup dup dup 0.4 mul exch -0.5 mul exch R dup 0.5 mul exch -1 mul rL dup 0.5 mul exch rL closepath} def 
%
% Diamond:
/Diam {45 rotate Squa} def
% ======
% Fills
% ======
/GRF {gsave setgray fill grestore} def                    % gray-level Fill
/COF {gsave setrgbcolor fill grestore} def                % color fill
% ======
% Colors
% ======
/C01 {1.00	0.00	0.00} def      % Red
/C02 {0.00	0.00	1.00} def      % Blue
/C03 {0.00	0.39	0.00} def      % Dark Green
/C04 {0.78	0.08	0.52} def      % Medium Violet Red
/C05 {0.55	0.27	0.07} def      % Saddle Brown
/C06 {0.10	0.70	0.70} def      % (cyan)
/C07 {1.00	0.55	0.00} def      % Dark Orange
/C08 {0.63	0.13	0.94} def      % Purple
/C09 {0.00	0.75	1.00} def      % Deep Sky Blue
/C10 {0.20	0.80	0.20} def      % Lime Green
/C11 {0.47	0.53	0.60} def      % Light Slate Gray
/C12 {0.00	0.00	0.00} def      % Black            % or: {0.19	0.31	0.31} def      % Dark Slate Gray
%
/LGR {0.75} def % light gray
/DGR {0.33} def % dark gray
%
% =============
% Dash patterns
% =============
/dash01 { [80  20] 0 setdash } def
/dash02 { [40  20] 0 setdash } def
/dash03 { [80  20  10  20] 0 setdash } def
/dash04 { [40  20  10  20] 0 setdash } def
/dash05 { [80  20  10  10  10  20] 0 setdash } def
/dash06 { [40  20  10  10  10  20] 0 setdash } def
/dash07 { [10  10] 0 setdash } def
%
/MFshow {
   { dup 5 get 3 ge
     { 5 get 3 eq {gsave} {grestore} ifelse }
     {dup dup 0 get findfont exch 1 get scalefont setfont
     [ currentpoint ] exch dup 2 get 0 exch R dup 5 get 2 ne {dup dup 6
     get exch 4 get {show} {stringwidth pop 0 R} ifelse }if dup 5 get 0 eq
     {dup 3 get {2 get neg 0 exch R pop} {pop aload pop M} ifelse} {dup 5
     get 1 eq {dup 2 get exch dup 3 get exch 6 get stringwidth pop -2 div
     dup 0 R} {dup 6 get stringwidth pop -2 div 0 R 6 get
     show 2 index {aload pop M neg 3 -1 roll neg R pop pop} {pop pop pop
     pop aload pop M} ifelse }ifelse }ifelse }
     ifelse }
   forall} bind def
/MFwidth {0 exch {dup 3 get{dup dup 0 get findfont exch 1 get scalefont
     setfont 6 get stringwidth pop add} {pop} ifelse} forall} bind def
/MCshow { currentpoint stroke M
  exch dup MFwidth -2 div 3 -1 roll R MFshow } def
%
end
%%EndProlog
bkdict begin
0.1 0.1 scale
%
% Model curves:
%

GSN 753 2543 M
770 2543 L
803 2265 L
837 2003 L
870 1761 L
903 1542 L
924 1352 L
941 1302 L
970 1193 L
1003 1064 L
1037 965 L
1070 894 L
1096 845 L
1113 825 L
1137 815 L
1170 797 L
1203 788 L
1237 784 L
1268 782 L
1284 782 L
1303 782 L
1337 783 L
1370 784 L
1403 785 L
1437 786 L
1456 787 L
1473 788 L
1503 789 L
1537 790 L
1570 792 L
1603 794 L
1628 796 L
1644 797 L
1670 798 L
1703 800 L
1737 803 L
1770 805 L
1799 807 L
1816 809 L
1837 809 L
1870 812 L
1903 814 L
1937 815 L
1970 817 L
1987 819 L
2004 819 L
2037 820 L
2070 821 L
2103 821 L
2137 822 L
2159 822 L
2176 822 L
2203 822 L
2237 823 L
2270 823 L
2303 823 L
2331 823 L
2347 823 L
2370 823 L
2403 823 L
2437 823 L
2470 823 L
2503 823 L
2519 823 L
2537 823 L
2570 823 L
2603 823 L
2637 823 L
2670 823 L
2690 823 L
2707 823 L
2737 823 L
2770 823 L
2803 823 L
2837 823 L
2862 823 L
2879 823 L
2903 823 L
2937 823 L
2970 823 L
3003 823 L
3034 823 L
3050 823 L
3070 823 L
3103 823 L
3137 823 L
3170 823 L
3203 823 L
3222 823 L
3239 823 L
3270 823 L
3303 823 L
3337 823 L
3370 823 L
3393 823 L
3410 823 L
3437 823 L
3464 823 L
3481 823 L
3503 823 L
3537 823 L
3565 823 L
3582 823 L
3603 823 L
3637 823 L
3670 823 L
3703 823 L
3737 823 L
3753 823 L
3770 823 L
3803 823 L
3837 823 L
3870 823 L
3903 823 L
3925 823 L
3942 823 L
3970 823 L
4003 823 L
4037 823 L
4070 823 L
4086 823 L
LWMC SL dash01 C01 COSGR

GSN 753 4086 M
770 4086 L
803 3612 L
837 3151 L
870 2714 L
903 2310 L
924 1948 L
941 1850 L
970 1635 L
1003 1375 L
1037 1170 L
1070 1016 L
1096 907 L
1113 861 L
1137 836 L
1170 793 L
1203 769 L
1237 758 L
1268 754 L
1284 753 L
1303 753 L
1337 754 L
1370 755 L
1403 757 L
1437 759 L
1456 761 L
1473 762 L
1503 764 L
1537 767 L
1570 770 L
1603 773 L
1628 776 L
1644 778 L
1670 780 L
1703 784 L
1737 788 L
1770 792 L
1799 796 L
1816 799 L
1837 800 L
1870 803 L
1903 807 L
1937 810 L
1970 813 L
1987 816 L
2004 816 L
2037 818 L
2070 819 L
2103 821 L
2137 821 L
2159 822 L
2176 822 L
2203 822 L
2237 823 L
2270 823 L
2303 823 L
2331 823 L
2347 823 L
2370 823 L
2403 823 L
2437 823 L
2470 823 L
2503 823 L
2519 823 L
2537 823 L
2570 823 L
2603 823 L
2637 823 L
2670 823 L
2690 823 L
2707 823 L
2737 823 L
2770 823 L
2803 823 L
2837 823 L
2862 823 L
2879 823 L
2903 823 L
2937 823 L
2970 823 L
3003 823 L
3034 823 L
3050 823 L
3070 823 L
3103 823 L
3137 823 L
3170 823 L
3203 823 L
3222 823 L
3239 823 L
3270 823 L
3303 823 L
3337 823 L
3370 823 L
3393 823 L
3410 823 L
3437 823 L
3464 823 L
3481 823 L
3503 823 L
3537 823 L
3565 823 L
3582 823 L
3603 823 L
3637 823 L
3670 823 L
3703 823 L
3737 823 L
3753 823 L
3770 823 L
3803 823 L
3837 823 L
3870 823 L
3903 823 L
3925 823 L
3942 823 L
3970 823 L
4003 823 L
4037 823 L
4070 823 L
4086 823 L
LWMC SL dash02 C02 COSGR

GSN 753 3788 M
770 3788 L
803 3310 L
837 2858 L
870 2440 L
903 2063 L
924 1736 L
941 1649 L
970 1460 L
1003 1239 L
1037 1069 L
1070 946 L
1096 862 L
1113 828 L
1137 809 L
1170 778 L
1203 763 L
1237 756 L
1268 753 L
1284 753 L
1303 753 L
1337 754 L
1370 756 L
1403 758 L
1437 760 L
1456 762 L
1473 763 L
1503 765 L
1537 767 L
1570 770 L
1603 774 L
1628 777 L
1644 779 L
1670 781 L
1703 784 L
1737 788 L
1770 792 L
1799 796 L
1816 799 L
1837 800 L
1870 804 L
1903 807 L
1937 810 L
1970 813 L
1987 816 L
2004 816 L
2037 818 L
2070 819 L
2103 821 L
2137 821 L
2159 822 L
2176 822 L
2203 822 L
2237 823 L
2270 823 L
2303 823 L
2331 823 L
2347 823 L
2370 823 L
2403 823 L
2437 823 L
2470 823 L
2503 823 L
2519 823 L
2537 823 L
2570 823 L
2603 823 L
2637 823 L
2670 823 L
2690 823 L
2707 823 L
2737 823 L
2770 823 L
2803 823 L
2837 823 L
2862 823 L
2879 823 L
2903 823 L
2937 823 L
2970 823 L
3003 823 L
3034 823 L
3050 823 L
3070 823 L
3103 823 L
3137 823 L
3170 823 L
3203 823 L
3222 823 L
3239 823 L
3270 823 L
3303 823 L
3337 823 L
3370 823 L
3393 823 L
3410 823 L
3437 823 L
3464 823 L
3481 823 L
3503 823 L
3537 823 L
3565 823 L
3582 823 L
3603 823 L
3637 823 L
3670 823 L
3703 823 L
3737 823 L
3753 823 L
3770 823 L
3803 823 L
3837 823 L
3870 823 L
3903 823 L
3925 823 L
3942 823 L
3970 823 L
4003 823 L
4037 823 L
4070 823 L
4086 823 L
LWMC SL dash03 C03 COSGR

GSN 753 3487 M
770 3487 L
803 3060 L
837 2654 L
870 2277 L
903 1938 L
924 1642 L
941 1563 L
970 1393 L
1003 1192 L
1037 1039 L
1070 927 L
1096 852 L
1113 820 L
1137 804 L
1170 776 L
1203 762 L
1237 756 L
1268 754 L
1284 754 L
1303 754 L
1337 755 L
1370 757 L
1403 758 L
1437 760 L
1456 763 L
1473 763 L
1503 765 L
1537 768 L
1570 771 L
1603 774 L
1628 777 L
1644 779 L
1670 781 L
1703 785 L
1737 788 L
1770 792 L
1799 796 L
1816 799 L
1837 800 L
1870 804 L
1903 807 L
1937 810 L
1970 813 L
1987 816 L
2004 816 L
2037 818 L
2070 819 L
2103 821 L
2137 821 L
2159 822 L
2176 822 L
2203 822 L
2237 823 L
2270 823 L
2303 823 L
2331 823 L
2347 823 L
2370 823 L
2403 823 L
2437 823 L
2470 823 L
2503 823 L
2519 823 L
2537 823 L
2570 823 L
2603 823 L
2637 823 L
2670 823 L
2690 823 L
2707 823 L
2737 823 L
2770 823 L
2803 823 L
2837 823 L
2862 823 L
2879 823 L
2903 823 L
2937 823 L
2970 823 L
3003 823 L
3034 823 L
3050 823 L
3070 823 L
3103 823 L
3137 823 L
3170 823 L
3203 823 L
3222 823 L
3239 823 L
3270 823 L
3303 823 L
3337 823 L
3370 823 L
3393 823 L
3410 823 L
3437 823 L
3464 823 L
3481 823 L
3503 823 L
3537 823 L
3565 823 L
3582 823 L
3603 823 L
3637 823 L
3670 823 L
3703 823 L
3737 823 L
3753 823 L
3770 823 L
3803 823 L
3837 823 L
3870 823 L
3903 823 L
3925 823 L
3942 823 L
3970 823 L
4003 823 L
4037 823 L
4070 823 L
4086 823 L
LWMC SL dash04 C04 COSGR

GSN 753 3425 M
770 3425 L
803 3008 L
837 2611 L
870 2243 L
903 1911 L
924 1622 L
941 1545 L
970 1378 L
1003 1183 L
1037 1033 L
1070 924 L
1096 850 L
1113 819 L
1137 803 L
1170 776 L
1203 762 L
1237 756 L
1268 754 L
1284 754 L
1303 754 L
1337 755 L
1370 757 L
1403 759 L
1437 761 L
1456 763 L
1473 763 L
1503 766 L
1537 768 L
1570 771 L
1603 774 L
1628 778 L
1644 779 L
1670 781 L
1703 785 L
1737 789 L
1770 792 L
1799 796 L
1816 799 L
1837 800 L
1870 804 L
1903 807 L
1937 810 L
1970 813 L
1987 816 L
2004 816 L
2037 818 L
2070 819 L
2103 821 L
2137 821 L
2159 822 L
2176 822 L
2203 822 L
2237 823 L
2270 823 L
2303 823 L
2331 823 L
2347 823 L
2370 823 L
2403 823 L
2437 823 L
2470 823 L
2503 823 L
2519 823 L
2537 823 L
2570 823 L
2603 823 L
2637 823 L
2670 823 L
2690 823 L
2707 823 L
2737 823 L
2770 823 L
2803 823 L
2837 823 L
2862 823 L
2879 823 L
2903 823 L
2937 823 L
2970 823 L
3003 823 L
3034 823 L
3050 823 L
3070 823 L
3103 823 L
3137 823 L
3170 823 L
3203 823 L
3222 823 L
3239 823 L
3270 823 L
3303 823 L
3337 823 L
3370 823 L
3393 823 L
3410 823 L
3437 823 L
3464 823 L
3481 823 L
3503 823 L
3537 823 L
3565 823 L
3582 823 L
3603 823 L
3637 823 L
3670 823 L
3703 823 L
3737 823 L
3753 823 L
3770 823 L
3803 823 L
3837 823 L
3870 823 L
3903 823 L
3925 823 L
3942 823 L
3970 823 L
4003 823 L
4037 823 L
4070 823 L
4086 823 L
LWMC SL dash05 C05 COSGR

GSN 753 3417 M
770 3417 L
803 3001 L
837 2606 L
870 2239 L
903 1908 L
924 1619 L
941 1543 L
970 1377 L
1003 1182 L
1037 1032 L
1070 923 L
1096 850 L
1113 819 L
1137 803 L
1170 776 L
1203 762 L
1237 756 L
1268 754 L
1284 754 L
1303 754 L
1337 756 L
1370 757 L
1403 759 L
1437 761 L
1456 763 L
1473 764 L
1503 766 L
1537 768 L
1570 771 L
1603 774 L
1628 778 L
1644 779 L
1670 781 L
1703 785 L
1737 789 L
1770 793 L
1799 796 L
1816 799 L
1837 800 L
1870 804 L
1903 807 L
1937 811 L
1970 813 L
1987 816 L
2004 816 L
2037 818 L
2070 819 L
2103 821 L
2137 821 L
2159 822 L
2176 822 L
2203 822 L
2237 823 L
2270 823 L
2303 823 L
2331 823 L
2347 823 L
2370 823 L
2403 823 L
2437 823 L
2470 823 L
2503 823 L
2519 823 L
2537 823 L
2570 823 L
2603 823 L
2637 823 L
2670 823 L
2690 823 L
2707 823 L
2737 823 L
2770 823 L
2803 823 L
2837 823 L
2862 823 L
2879 823 L
2903 823 L
2937 823 L
2970 823 L
3003 823 L
3034 823 L
3050 823 L
3070 823 L
3103 823 L
3137 823 L
3170 823 L
3203 823 L
3222 823 L
3239 823 L
3270 823 L
3303 823 L
3337 823 L
3370 823 L
3393 823 L
3410 823 L
3437 823 L
3464 823 L
3481 823 L
3503 823 L
3537 823 L
3565 823 L
3582 823 L
3603 823 L
3637 823 L
3670 823 L
3703 823 L
3737 823 L
3753 823 L
3770 823 L
3803 823 L
3837 823 L
3870 823 L
3903 823 L
3925 823 L
3942 823 L
3970 823 L
4003 823 L
4037 823 L
4070 823 L
4086 823 L
LWMC SL dash06 C06 COSGR

GSN 753 3351 M
770 3351 L
803 2945 L
837 2560 L
870 2202 L
903 1879 L
924 1598 L
941 1523 L
970 1362 L
1003 1171 L
1037 1025 L
1070 919 L
1096 847 L
1113 818 L
1137 802 L
1170 776 L
1203 762 L
1237 756 L
1268 755 L
1284 755 L
1303 755 L
1337 756 L
1370 757 L
1403 759 L
1437 761 L
1456 764 L
1473 764 L
1503 766 L
1537 769 L
1570 772 L
1603 775 L
1628 778 L
1644 780 L
1670 781 L
1703 785 L
1737 789 L
1770 793 L
1799 797 L
1816 799 L
1837 800 L
1870 804 L
1903 807 L
1937 811 L
1970 813 L
1987 816 L
2004 816 L
2037 818 L
2070 819 L
2103 821 L
2137 821 L
2159 822 L
2176 822 L
2203 822 L
2237 823 L
2270 823 L
2303 823 L
2331 823 L
2347 823 L
2370 823 L
2403 823 L
2437 823 L
2470 823 L
2503 823 L
2519 823 L
2537 823 L
2570 823 L
2603 823 L
2637 823 L
2670 823 L
2690 823 L
2707 823 L
2737 823 L
2770 823 L
2803 823 L
2837 823 L
2862 823 L
2879 823 L
2903 823 L
2937 823 L
2970 823 L
3003 823 L
3034 823 L
3050 823 L
3070 823 L
3103 823 L
3137 823 L
3170 823 L
3203 823 L
3222 823 L
3239 823 L
3270 823 L
3303 823 L
3337 823 L
3370 823 L
3393 823 L
3410 823 L
3437 823 L
3464 823 L
3481 823 L
3503 823 L
3537 823 L
3565 823 L
3582 823 L
3603 823 L
3637 823 L
3670 823 L
3703 823 L
3737 823 L
3753 823 L
3770 823 L
3803 823 L
3837 823 L
3870 823 L
3903 823 L
3925 823 L
3942 823 L
3970 823 L
4003 823 L
4037 823 L
4070 823 L
4086 823 L
LWMC SL dash07 C07 COSGR

%
%================
% Legend - Begin
%================
%
GSN 4240 4040 M
4480 4040 L
LWMC SL dash01 C01 COSGR
GSN 4540 4001 M helvM (0.5 uM) show grestore
GSN 4240 3860 M
4480 3860 L
LWMC SL dash02 C02 COSGR
GSN 4540 3821 M helvM (1.0 uM) show grestore
GSN 4240 3680 M
4480 3680 L
LWMC SL dash03 C03 COSGR
GSN 4540 3641 M helvM (1.5 uM) show grestore
GSN 4240 3500 M
4480 3500 L
LWMC SL dash04 C04 COSGR
GSN 4540 3461 M helvM (2.0 uM) show grestore
GSN 4240 3320 M
4480 3320 L
LWMC SL dash05 C05 COSGR
GSN 4540 3281 M helvM (2.5 uM) show grestore
GSN 4240 3140 M
4480 3140 L
LWMC SL dash06 C06 COSGR
GSN 4540 3101 M helvM (3.0 uM) show grestore
GSN 4240 2960 M
4480 2960 L
LWMC SL dash07 C07 COSGR
GSN 4540 2921 M helvM (4.0 uM) show grestore
%
%================
% Legend - End
%================
%

%
% Main frame
%
L10
GSN 
620 620 M
4220 620 L
4220 4220 L
620 4220 L
closepath SGR

%
% X axis: large tics
%
L10
GSN 1130 620 M 0  54 rL SGR
GSN 1130 4220 M 0 -54 rL SGR
helvS (0.0001) 1130 470 xlabel
GSN 1716 620 M 0  54 rL SGR
GSN 1716 4220 M 0 -54 rL SGR
helvS (0.001) 1716 470 xlabel
GSN 2303 620 M 0  54 rL SGR
GSN 2303 4220 M 0 -54 rL SGR
helvS (0.01) 2303 470 xlabel
GSN 2889 620 M 0  54 rL SGR
GSN 2889 4220 M 0 -54 rL SGR
helvS (0.1) 2889 470 xlabel
GSN 3476 620 M 0  54 rL SGR
GSN 3476 4220 M 0 -54 rL SGR
helvS (1) 3476 470 xlabel
GSN 4062 620 M 0  54 rL SGR
GSN 4062 4220 M 0 -54 rL SGR
helvS (10) 4062 470 xlabel
%
% X axis: small tics
%
L5
GSN 720 620 M 0  36 rL SGR
GSN 720 4220 M 0 -36 rL SGR
GSN 824 620 M 0  36 rL SGR
GSN 824 4220 M 0 -36 rL SGR
GSN 897 620 M 0  36 rL SGR
GSN 897 4220 M 0 -36 rL SGR
GSN 954 620 M 0  36 rL SGR
GSN 954 4220 M 0 -36 rL SGR
GSN 1000 620 M 0  36 rL SGR
GSN 1000 4220 M 0 -36 rL SGR
GSN 1039 620 M 0  36 rL SGR
GSN 1039 4220 M 0 -36 rL SGR
GSN 1073 620 M 0  36 rL SGR
GSN 1073 4220 M 0 -36 rL SGR
GSN 1103 620 M 0  36 rL SGR
GSN 1103 4220 M 0 -36 rL SGR
GSN 1307 620 M 0  36 rL SGR
GSN 1307 4220 M 0 -36 rL SGR
GSN 1410 620 M 0  36 rL SGR
GSN 1410 4220 M 0 -36 rL SGR
GSN 1483 620 M 0  36 rL SGR
GSN 1483 4220 M 0 -36 rL SGR
GSN 1540 620 M 0  36 rL SGR
GSN 1540 4220 M 0 -36 rL SGR
GSN 1586 620 M 0  36 rL SGR
GSN 1586 4220 M 0 -36 rL SGR
GSN 1626 620 M 0  36 rL SGR
GSN 1626 4220 M 0 -36 rL SGR
GSN 1660 620 M 0  36 rL SGR
GSN 1660 4220 M 0 -36 rL SGR
GSN 1690 620 M 0  36 rL SGR
GSN 1690 4220 M 0 -36 rL SGR
GSN 1893 620 M 0  36 rL SGR
GSN 1893 4220 M 0 -36 rL SGR
GSN 1996 620 M 0  36 rL SGR
GSN 1996 4220 M 0 -36 rL SGR
GSN 2069 620 M 0  36 rL SGR
GSN 2069 4220 M 0 -36 rL SGR
GSN 2126 620 M 0  36 rL SGR
GSN 2126 4220 M 0 -36 rL SGR
GSN 2173 620 M 0  36 rL SGR
GSN 2173 4220 M 0 -36 rL SGR
GSN 2212 620 M 0  36 rL SGR
GSN 2212 4220 M 0 -36 rL SGR
GSN 2246 620 M 0  36 rL SGR
GSN 2246 4220 M 0 -36 rL SGR
GSN 2276 620 M 0  36 rL SGR
GSN 2276 4220 M 0 -36 rL SGR
GSN 2479 620 M 0  36 rL SGR
GSN 2479 4220 M 0 -36 rL SGR
GSN 2583 620 M 0  36 rL SGR
GSN 2583 4220 M 0 -36 rL SGR
GSN 2656 620 M 0  36 rL SGR
GSN 2656 4220 M 0 -36 rL SGR
GSN 2713 620 M 0  36 rL SGR
GSN 2713 4220 M 0 -36 rL SGR
GSN 2759 620 M 0  36 rL SGR
GSN 2759 4220 M 0 -36 rL SGR
GSN 2798 620 M 0  36 rL SGR
GSN 2798 4220 M 0 -36 rL SGR
GSN 2832 620 M 0  36 rL SGR
GSN 2832 4220 M 0 -36 rL SGR
GSN 2862 620 M 0  36 rL SGR
GSN 2862 4220 M 0 -36 rL SGR
GSN 3066 620 M 0  36 rL SGR
GSN 3066 4220 M 0 -36 rL SGR
GSN 3169 620 M 0  36 rL SGR
GSN 3169 4220 M 0 -36 rL SGR
GSN 3242 620 M 0  36 rL SGR
GSN 3242 4220 M 0 -36 rL SGR
GSN 3299 620 M 0  36 rL SGR
GSN 3299 4220 M 0 -36 rL SGR
GSN 3345 620 M 0  36 rL SGR
GSN 3345 4220 M 0 -36 rL SGR
GSN 3385 620 M 0  36 rL SGR
GSN 3385 4220 M 0 -36 rL SGR
GSN 3419 620 M 0  36 rL SGR
GSN 3419 4220 M 0 -36 rL SGR
GSN 3449 620 M 0  36 rL SGR
GSN 3449 4220 M 0 -36 rL SGR
GSN 3652 620 M 0  36 rL SGR
GSN 3652 4220 M 0 -36 rL SGR
GSN 3755 620 M 0  36 rL SGR
GSN 3755 4220 M 0 -36 rL SGR
GSN 3829 620 M 0  36 rL SGR
GSN 3829 4220 M 0 -36 rL SGR
GSN 3885 620 M 0  36 rL SGR
GSN 3885 4220 M 0 -36 rL SGR
GSN 3932 620 M 0  36 rL SGR
GSN 3932 4220 M 0 -36 rL SGR
GSN 3971 620 M 0  36 rL SGR
GSN 3971 4220 M 0 -36 rL SGR
GSN 4005 620 M 0  36 rL SGR
GSN 4005 4220 M 0 -36 rL SGR
GSN 4035 620 M 0  36 rL SGR
GSN 4035 4220 M 0 -36 rL SGR
%
% Y axis: large tics
%
L10
GSN 620 823 M 54 0 rL SGR
GSN 4220 823 M -54 0 rL SGR
helvS (0) 560 823 ylabel
GSN 620 1669 M 54 0 rL SGR
GSN 4220 1669 M -54 0 rL SGR
helvS (1000) 560 1669 ylabel
GSN 620 2516 M 54 0 rL SGR
GSN 4220 2516 M -54 0 rL SGR
helvS (2000) 560 2516 ylabel
GSN 620 3363 M 54 0 rL SGR
GSN 4220 3363 M -54 0 rL SGR
helvS (3000) 560 3363 ylabel
GSN 620 4209 M 54 0 rL SGR
GSN 4220 4209 M -54 0 rL SGR
helvS (4000) 560 4209 ylabel
%
% Y axis: small tics
%
L5
GSN 620 823 M 36 0 rL SGR
GSN 4220 823 M -36 0 rL SGR
GSN 620 1034 M 36 0 rL SGR
GSN 4220 1034 M -36 0 rL SGR
GSN 620 1246 M 36 0 rL SGR
GSN 4220 1246 M -36 0 rL SGR
GSN 620 1458 M 36 0 rL SGR
GSN 4220 1458 M -36 0 rL SGR
GSN 620 1669 M 36 0 rL SGR
GSN 4220 1669 M -36 0 rL SGR
GSN 620 1881 M 36 0 rL SGR
GSN 4220 1881 M -36 0 rL SGR
GSN 620 2093 M 36 0 rL SGR
GSN 4220 2093 M -36 0 rL SGR
GSN 620 2304 M 36 0 rL SGR
GSN 4220 2304 M -36 0 rL SGR
GSN 620 2516 M 36 0 rL SGR
GSN 4220 2516 M -36 0 rL SGR
GSN 620 2728 M 36 0 rL SGR
GSN 4220 2728 M -36 0 rL SGR
GSN 620 2939 M 36 0 rL SGR
GSN 4220 2939 M -36 0 rL SGR
GSN 620 3151 M 36 0 rL SGR
GSN 4220 3151 M -36 0 rL SGR
GSN 620 3363 M 36 0 rL SGR
GSN 4220 3363 M -36 0 rL SGR
GSN 620 3574 M 36 0 rL SGR
GSN 4220 3574 M -36 0 rL SGR
GSN 620 3786 M 36 0 rL SGR
GSN 4220 3786 M -36 0 rL SGR
GSN 620 3998 M 36 0 rL SGR
GSN 4220 3998 M -36 0 rL SGR
GSN 620 4209 M 36 0 rL SGR
GSN 4220 4209 M -36 0 rL SGR

%
% X axis
%
GSN L5 620 823 M 4220 823 L SDA G50 SGR

%
% X-Axis label:
%
gsave 2420 290 M 
[
[(Helvetica) 180 0 true true 0 (t)]
[(Helvetica) 180 0 true true 0 (i)]
[(Helvetica) 180 0 true true 0 (m)]
[(Helvetica) 180 0 true true 0 (e)]
] 0 MCshow grestore

%
% Y-Axis label:
%
gsave 234 2420 M 
currentpoint gsave translate 90 rotate 0 0 moveto
[
[(Helvetica) 180 0 true true 0 (d)]
[(Helvetica) 180 0 true true 0 (\()]
[(Helvetica) 180 0 true true 0 (s)]
[(Helvetica) 180 0 true true 0 (i)]
[(Helvetica) 180 0 true true 0 (g)]
[(Helvetica) 180 0 true true 0 (n)]
[(Helvetica) 180 0 true true 0 (a)]
[(Helvetica) 180 0 true true 0 (l)]
[(Helvetica) 180 0 true true 0 (\))]
[(Helvetica) 180 0 true true 0 ( )]
[(Helvetica) 180 0 true true 0 (/)]
[(Helvetica) 180 0 true true 0 ( )]
[(Helvetica) 180 0 true true 0 (d)]
[(Helvetica) 180 0 true true 0 (t)]
] 0 MCshow grestore

end
showpage
%%Trailer
%%EOF
