%!PS-Adobe-3.0 EPSF-3.0
%%BoundingBox: 0 0 514 550
%%Creator: BioKin Ltd.
%%DocumentFonts: Symbol Helvetica
%%EndComments
%
/bkdict 256 dict def
bkdict begin
/M {moveto} def 
/R {rmoveto} def
/L {lineto} def
/rL {rlineto} def
/GSN {gsave newpath} def
/SGR {stroke grestore} def
/COSGR {gsave setrgbcolor stroke grestore grestore} def
/SL {setlinewidth} def
/LWMB {12} def             % line width - model curves, black & white
/LWMC {10} def             % line width - model curves, color
/L2 {2.5 setlinewidth} def
/L5 {5 setlinewidth} def
/L10 {10 setlinewidth} def
/G50 {0.5 setgray} def
/SDA {[10  20] 0 setdash} def % axes
/helvT {/Helvetica findfont 100 scalefont setfont} def % tiny
/helvS {/Helvetica findfont 125 scalefont setfont} def % small
/helvM {/Helvetica findfont 150 scalefont setfont} def % medium
/helvL {/Helvetica findfont 175 scalefont setfont} def % large
/xlabel {gsave M dup
   stringwidth exch -0.5 mul exch rmoveto show grestore} def 
/ylabel {gsave M 90 rotate dup
   stringwidth exch -0.5 mul exch rmoveto show grestore} def
/ylabelresid {gsave M dup
   stringwidth exch -1 mul exch rmoveto show grestore} def
% ======
% Shapes
% ======
% Circle:
/Circ {0 360 arc closepath} def
%
% Square:
/Squa {dup dup -0.5 mul dup dup R -2 mul 0 exch rL 1 mul 0 rL dup 0 exch -1 mul rL closepath} def
%
% Triangle Up:
/TriU {dup dup dup -0.4 mul exch -0.5 mul exch R dup 0.5 mul exch rL dup -1 mul exch 0.5 mul exch rL closepath} def 
%
% Triangle Down:
/TriD {dup dup dup 0.4 mul exch -0.5 mul exch R dup 0.5 mul exch -1 mul rL dup 0.5 mul exch rL closepath} def 
%
% Diamond:
/Diam {45 rotate Squa} def
% ======
% Fills
% ======
/GRF {gsave setgray fill grestore} def                    % gray-level Fill
/COF {gsave setrgbcolor fill grestore} def                % color fill
% ======
% Colors
% ======
/C01 {1.00	0.00	0.00} def      % Red
/C02 {0.00	0.00	1.00} def      % Blue
/C03 {0.00	0.39	0.00} def      % Dark Green
/C04 {0.78	0.08	0.52} def      % Medium Violet Red
/C05 {0.55	0.27	0.07} def      % Saddle Brown
/C06 {0.10	0.70	0.70} def      % (cyan)
/C07 {1.00	0.55	0.00} def      % Dark Orange
/C08 {0.63	0.13	0.94} def      % Purple
/C09 {0.00	0.75	1.00} def      % Deep Sky Blue
/C10 {0.20	0.80	0.20} def      % Lime Green
/C11 {0.47	0.53	0.60} def      % Light Slate Gray
/C12 {0.00	0.00	0.00} def      % Black            % or: {0.19	0.31	0.31} def      % Dark Slate Gray
%
/LGR {0.75} def % light gray
/DGR {0.33} def % dark gray
%
% =============
% Dash patterns
% =============
/dash01 { [80  20] 0 setdash } def
/dash02 { [40  20] 0 setdash } def
/dash03 { [80  20  10  20] 0 setdash } def
/dash04 { [40  20  10  20] 0 setdash } def
/dash05 { [80  20  10  10  10  20] 0 setdash } def
/dash06 { [40  20  10  10  10  20] 0 setdash } def
/dash07 { [10  10] 0 setdash } def
%
/MFshow {
   { dup 5 get 3 ge
     { 5 get 3 eq {gsave} {grestore} ifelse }
     {dup dup 0 get findfont exch 1 get scalefont setfont
     [ currentpoint ] exch dup 2 get 0 exch R dup 5 get 2 ne {dup dup 6
     get exch 4 get {show} {stringwidth pop 0 R} ifelse }if dup 5 get 0 eq
     {dup 3 get {2 get neg 0 exch R pop} {pop aload pop M} ifelse} {dup 5
     get 1 eq {dup 2 get exch dup 3 get exch 6 get stringwidth pop -2 div
     dup 0 R} {dup 6 get stringwidth pop -2 div 0 R 6 get
     show 2 index {aload pop M neg 3 -1 roll neg R pop pop} {pop pop pop
     pop aload pop M} ifelse }ifelse }ifelse }
     ifelse }
   forall} bind def
/MFwidth {0 exch {dup 3 get{dup dup 0 get findfont exch 1 get scalefont
     setfont 6 get stringwidth pop add} {pop} ifelse} forall} bind def
/MCshow { currentpoint stroke M
  exch dup MFwidth -2 div 3 -1 roll R MFshow } def
%
end
%%EndProlog
bkdict begin
0.1 0.1 scale
%
% Model curves:
%

GSN 753 4741 M
753 4741 L
786 4741 L
820 4741 L
853 4741 L
886 4741 L
920 4740 L
929 4740 L
953 4740 L
986 4740 L
1020 4739 L
1053 4739 L
1086 4738 L
1106 4738 L
1120 4738 L
1153 4737 L
1186 4737 L
1220 4736 L
1253 4735 L
1282 4734 L
1286 4734 L
1319 4733 L
1353 4731 L
1386 4730 L
1419 4728 L
1453 4726 L
1459 4725 L
1486 4723 L
1519 4721 L
1553 4718 L
1586 4714 L
1619 4711 L
1635 4708 L
1653 4706 L
1686 4701 L
1719 4695 L
1753 4689 L
1786 4681 L
1812 4675 L
1819 4673 L
1853 4663 L
1886 4653 L
1919 4640 L
1953 4626 L
1986 4611 L
1988 4610 L
2019 4593 L
2053 4573 L
2086 4550 L
2119 4524 L
2153 4496 L
2165 4484 L
2186 4463 L
2219 4427 L
2253 4386 L
2286 4341 L
2319 4290 L
2341 4254 L
2353 4234 L
2386 4172 L
2419 4104 L
2453 4029 L
2486 3947 L
2518 3863 L
2519 3859 L
2553 3763 L
2586 3661 L
2619 3552 L
2653 3437 L
2686 3317 L
2694 3286 L
2719 3193 L
2753 3066 L
2786 2938 L
2819 2811 L
2853 2687 L
2871 2621 L
2886 2568 L
2919 2457 L
2953 2355 L
2986 2267 L
3019 2192 L
3047 2143 L
3053 2135 L
3086 2094 L
3119 2073 L
3153 2070 L
3186 2085 L
3219 2117 L
3224 2123 L
3253 2164 L
3286 2223 L
3319 2291 L
3353 2365 L
3386 2443 L
3400 2476 L
3419 2520 L
3453 2595 L
3476 2644 L
3486 2666 L
3519 2732 L
3553 2790 L
3577 2827 L
3586 2840 L
3619 2882 L
3653 2915 L
3686 2940 L
3719 2957 L
3753 2969 L
3754 2969 L
3786 2976 L
3819 2981 L
3853 2983 L
3886 2984 L
3919 2985 L
3930 2985 L
3953 2985 L
3986 2985 L
4019 2985 L
4053 2985 L
4086 2985 L
4086 2985 L
LWMC SL  C06 COSGR

%
% Experimental data:
%
GSN 777 4555 M
1388 4390 L
1552 4470 L
1652 5166 L
1723 4632 L
1778 4813 L
1824 4448 L
1863 4614 L
1896 4686 L
1926 4670 L
1952 4689 L
1976 4669 L
1998 4421 L
2019 4520 L
2037 4521 L
2055 4412 L
2071 4608 L
2086 4140 L
2101 4499 L
2115 4517 L
2128 4557 L
2140 4430 L
2152 4331 L
2163 4568 L
2174 4517 L
2184 4433 L
2194 4381 L
2204 4381 L
2213 4420 L
2222 4290 L
2230 4255 L
2239 4337 L
2247 4423 L
2255 4399 L
2262 4392 L
2270 4281 L
2277 4359 L
2284 4239 L
2290 4028 L
2297 4093 L
2303 4112 L
2310 4464 L
2316 4237 L
2322 4272 L
2328 4249 L
2333 4061 L
2339 4165 L
2344 4194 L
2350 3984 L
2355 3951 L
2360 4193 L
2365 4234 L
2370 4247 L
2375 4395 L
2380 4210 L
2384 4037 L
2389 4252 L
2393 3863 L
2398 4155 L
2402 4040 L
2407 3948 L
2411 4095 L
2415 3952 L
2419 4117 L
2423 4023 L
2427 4027 L
2431 3954 L
2435 4143 L
2438 4082 L
2442 4030 L
2446 3976 L
2449 3959 L
2453 4019 L
2456 4097 L
2460 3773 L
2463 3864 L
2467 3979 L
2470 3904 L
2473 3832 L
2476 3956 L
2480 3898 L
2483 3966 L
2486 3819 L
2489 3759 L
2492 4037 L
2495 3729 L
2498 3890 L
2501 3777 L
2504 3722 L
2507 3848 L
2510 3786 L
2512 3907 L
2515 3893 L
2518 3951 L
2521 3796 L
2523 3799 L
2526 3713 L
2529 3859 L
2531 3681 L
2534 3651 L
2536 3839 L
2539 3801 L
2541 3656 L
2544 3965 L
2546 3756 L
2549 3870 L
2551 3670 L
2554 3591 L
2556 3594 L
2558 3697 L
2561 3664 L
2563 4039 L
2565 3808 L
2568 3871 L
2570 3643 L
2572 3615 L
2574 3906 L
2576 3686 L
2579 3730 L
2581 3697 L
2583 3536 L
2585 3503 L
2587 3760 L
2589 3759 L
2591 3601 L
2593 3589 L
2595 3575 L
2597 3670 L
2599 3664 L
2601 3822 L
2603 3819 L
2605 3420 L
2607 3541 L
2609 3531 L
2611 3525 L
2613 3749 L
2615 3732 L
2617 3748 L
2618 3585 L
2620 3529 L
2622 3573 L
2624 3558 L
2626 3419 L
2627 3462 L
2629 3587 L
2631 3557 L
2633 3438 L
2634 3669 L
2636 3435 L
2638 3384 L
2640 3511 L
2641 3572 L
2643 3418 L
2645 3408 L
2646 3486 L
2648 3499 L
2650 3548 L
2651 3333 L
2653 3533 L
2654 3520 L
2656 3505 L
2658 3700 L
2659 3360 L
2661 3315 L
2662 3364 L
2664 3578 L
2665 3317 L
2667 3445 L
2668 3347 L
2670 3453 L
2671 3211 L
2673 3374 L
2674 3405 L
2676 3540 L
2677 3282 L
2679 3573 L
2680 3299 L
2682 3098 L
2683 3223 L
2685 3236 L
2686 3279 L
2687 3268 L
2689 3486 L
2690 3337 L
2692 3212 L
2693 3279 L
2694 3293 L
2696 3419 L
2697 3174 L
2698 3247 L
2700 3200 L
2701 3280 L
2702 3227 L
2704 3167 L
2705 3243 L
2706 3308 L
2708 3066 L
2709 3132 L
2710 3144 L
2712 3329 L
2713 3299 L
2714 3130 L
2715 3404 L
2717 3038 L
2718 3257 L
2719 3034 L
2720 3202 L
2722 3212 L
2723 3036 L
2724 3187 L
2725 3251 L
2726 3046 L
2728 3237 L
2729 3282 L
2730 3294 L
2731 3238 L
2732 3191 L
2734 3209 L
2735 3248 L
2736 2962 L
2737 3075 L
2738 3067 L
2739 3056 L
2741 3286 L
2742 3312 L
2743 3171 L
2744 3159 L
2745 3173 L
2746 2811 L
2747 3038 L
2748 3276 L
2749 3300 L
2751 3110 L
2752 3086 L
2753 3036 L
2754 3246 L
2755 3143 L
2756 3290 L
2757 3104 L
2758 2957 L
2759 3000 L
2760 3105 L
2761 3092 L
2762 3055 L
2763 3205 L
2764 3051 L
2765 2973 L
2767 2964 L
2768 3097 L
2769 3015 L
2770 3070 L
2771 3146 L
2772 3016 L
2773 3123 L
2774 3013 L
2775 2964 L
2776 2907 L
2777 3017 L
2778 3054 L
2779 3067 L
2780 2930 L
2781 2810 L
2782 3081 L
2783 3114 L
2783 2922 L
2784 3032 L
2785 2948 L
2786 2780 L
2787 2912 L
2788 3052 L
2789 3063 L
2790 2985 L
2791 2928 L
2792 3165 L
2793 2870 L
2794 2930 L
2795 3028 L
2796 2905 L
2797 3058 L
2798 3007 L
2798 2838 L
2799 2775 L
2800 2724 L
2801 2977 L
2802 2754 L
2803 2851 L
2804 2880 L
2805 3062 L
2806 2901 L
2807 2995 L
2807 2843 L
2808 2935 L
2809 2897 L
2810 2835 L
2811 2762 L
2812 3032 L
2813 2681 L
2813 2916 L
2814 2739 L
2815 3006 L
2816 2872 L
2817 2985 L
2818 3089 L
2819 2745 L
2819 2819 L
2820 3001 L
2821 2820 L
2822 2719 L
2823 2798 L
2824 2961 L
2824 2998 L
2825 2819 L
2826 2951 L
2827 2895 L
2828 2702 L
2828 2841 L
2829 2966 L
2830 2909 L
2831 2833 L
2832 2763 L
2832 2852 L
2833 2874 L
2834 2760 L
2835 2786 L
2836 2891 L
2836 2733 L
2837 2824 L
2838 2886 L
2839 2764 L
2840 2720 L
2840 2712 L
2841 2593 L
2842 2925 L
2843 2596 L
2843 2719 L
2844 2923 L
2845 2775 L
2846 2734 L
2846 2642 L
2847 2713 L
2848 2835 L
2849 2763 L
2849 2745 L
2850 2877 L
2851 2733 L
2852 2928 L
2852 2797 L
2853 2842 L
2854 2745 L
2855 2787 L
2855 2653 L
2856 2781 L
2857 2970 L
2857 2641 L
2858 2911 L
2859 2766 L
2860 2696 L
2860 2665 L
2861 2813 L
2862 2694 L
2862 2805 L
2863 2813 L
2864 2627 L
2865 2766 L
2865 2908 L
2866 2827 L
2867 2745 L
2867 2560 L
2868 2615 L
2869 2719 L
2869 2786 L
2870 2796 L
2871 2589 L
2871 2653 L
2872 2618 L
2873 2746 L
2873 2658 L
2874 2552 L
2875 2901 L
2876 2772 L
2876 2636 L
2877 2633 L
2878 2883 L
2878 2599 L
2879 2491 L
2880 2634 L
2880 2732 L
2881 2777 L
2881 2796 L
2882 2608 L
2883 2726 L
2883 2741 L
2884 2550 L
2885 2677 L
2885 2487 L
2886 2745 L
2887 2647 L
2887 2544 L
2888 2865 L
2889 2797 L
2889 2775 L
2892 2718 L
2894 2602 L
2897 2590 L
2899 2506 L
2902 2559 L
2904 2723 L
2907 2535 L
2909 2381 L
2911 2559 L
2914 2497 L
2916 2484 L
2918 2623 L
2921 2454 L
2923 2612 L
2925 2467 L
2927 2491 L
2929 2515 L
2932 2491 L
2934 2393 L
2936 2264 L
2938 2484 L
2940 2573 L
2942 2339 L
2944 2136 L
2946 2464 L
2948 2436 L
2950 2259 L
2952 2526 L
2954 2394 L
2956 2533 L
2958 2233 L
2960 2364 L
2962 2303 L
2964 2127 L
2966 2386 L
2968 2289 L
2970 2590 L
2971 2334 L
2973 2303 L
2975 2396 L
2977 2543 L
2979 2387 L
2980 2283 L
2982 2459 L
2984 2340 L
2986 2194 L
2987 2319 L
2989 2261 L
2991 2219 L
2993 2439 L
2994 2362 L
2996 2268 L
2998 2291 L
2999 2177 L
3001 2096 L
3003 2281 L
3004 2328 L
3006 2112 L
3007 2311 L
3009 2372 L
3011 2247 L
3012 2090 L
3014 2124 L
3015 2374 L
3017 2222 L
3018 2211 L
3020 2291 L
3021 2204 L
3023 2223 L
3024 2174 L
3026 2129 L
3027 2403 L
3029 2291 L
3030 2138 L
3032 2066 L
3033 2002 L
3035 2276 L
3036 2146 L
3038 2126 L
3039 2087 L
3040 2194 L
3042 2168 L
3043 2121 L
3045 2061 L
3046 2171 L
3047 2133 L
3049 2303 L
3050 2177 L
3051 2180 L
3053 2131 L
3054 2149 L
3055 2106 L
3057 2068 L
3058 1870 L
3059 2013 L
3061 1956 L
3062 2079 L
3063 2230 L
3065 2048 L
3066 2096 L
3067 2150 L
3068 2224 L
3070 2225 L
3071 2151 L
3072 2141 L
3073 2083 L
3075 2265 L
3076 2119 L
3077 2118 L
3078 2271 L
3079 2123 L
3081 2125 L
3082 2099 L
3083 2163 L
3084 2054 L
3085 2056 L
3087 2250 L
3088 2004 L
3089 1899 L
3090 2130 L
3091 1923 L
3092 2181 L
3094 2083 L
3095 2089 L
3096 2222 L
3097 2097 L
3098 2055 L
3099 1987 L
3100 2092 L
3101 2097 L
3103 2156 L
3104 2082 L
3105 2119 L
3106 1923 L
3107 2130 L
3108 2038 L
3109 2181 L
3110 1914 L
3111 2108 L
3112 2057 L
3113 1887 L
3114 2124 L
3115 2026 L
3116 1932 L
3117 2116 L
3119 2027 L
3120 1983 L
3121 2124 L
3122 2046 L
3123 2066 L
3124 1965 L
3125 2129 L
3126 2112 L
3127 2184 L
3128 2107 L
3129 2151 L
3130 1915 L
3131 2082 L
3132 2004 L
3133 1944 L
3134 2138 L
3135 2087 L
3136 1837 L
3136 1867 L
3137 1874 L
3138 2049 L
3139 2032 L
3140 2124 L
3141 2001 L
3142 1932 L
3143 2082 L
3144 2121 L
3145 1954 L
3146 1931 L
3147 1851 L
3148 2073 L
3149 2046 L
3150 2088 L
3151 1900 L
3151 1974 L
3152 2065 L
3153 2172 L
3154 1967 L
3155 2012 L
3156 1873 L
3157 2012 L
3158 2194 L
3159 2061 L
3160 2008 L
3160 2121 L
3161 2025 L
3162 1892 L
3163 2247 L
3164 1881 L
3165 2064 L
3166 2115 L
3166 1848 L
3167 2098 L
3168 2064 L
3169 2085 L
3170 2162 L
3171 1862 L
3172 2096 L
3172 2140 L
3173 2021 L
3174 1902 L
3175 2242 L
3176 2021 L
3177 1984 L
3177 2141 L
3178 2266 L
3179 2114 L
3180 1958 L
3181 2220 L
3181 2183 L
3182 2213 L
3183 1940 L
3184 2068 L
3185 1873 L
3185 1954 L
3186 2045 L
3187 1887 L
3188 2170 L
3189 2071 L
3189 2045 L
3190 2186 L
3191 2133 L
3192 2091 L
3193 1929 L
3193 2147 L
3194 2132 L
3195 2112 L
3196 2127 L
3196 2093 L
3197 1958 L
3198 2059 L
3199 2086 L
3199 2196 L
3200 1909 L
3201 2255 L
3202 2032 L
3202 1994 L
3203 1877 L
3204 2063 L
3205 2054 L
3205 1926 L
3206 2217 L
3207 2088 L
3208 2046 L
3208 1948 L
3209 1957 L
3210 2387 L
3210 1991 L
3211 2160 L
3212 2195 L
3213 2281 L
3213 1964 L
3214 2108 L
3215 2354 L
3215 2211 L
3216 2135 L
3217 2110 L
3218 1916 L
3218 2238 L
3219 2196 L
3220 2030 L
3220 2229 L
3221 2165 L
3222 2114 L
3222 2083 L
3223 2231 L
3224 2228 L
3224 2183 L
3225 2067 L
3226 1866 L
3227 1953 L
3227 2342 L
3228 2158 L
3229 1911 L
3229 2280 L
3230 1992 L
3231 2339 L
3231 1833 L
3232 2193 L
3233 2106 L
3233 1960 L
3234 2221 L
3235 2090 L
3235 2349 L
3236 2062 L
3236 2264 L
3237 2179 L
3238 2118 L
3238 2037 L
3239 2040 L
3240 2138 L
3240 2162 L
3241 1971 L
3242 2230 L
3242 2277 L
3243 2345 L
3244 1969 L
3244 2009 L
3245 2188 L
3245 2135 L
3246 2060 L
3247 2163 L
3247 2116 L
3248 2236 L
3249 2109 L
3249 2123 L
3250 2070 L
3250 2132 L
3251 2054 L
3252 2403 L
3252 2023 L
3253 2159 L
3253 2087 L
3254 2150 L
3255 2012 L
3255 2230 L
3256 2080 L
3257 2232 L
3257 2188 L
3258 1988 L
3258 2202 L
3259 1958 L
3259 2252 L
3260 2258 L
3261 2127 L
3261 2158 L
3262 2158 L
3262 2094 L
3263 2144 L
3264 2116 L
3264 2216 L
3265 2091 L
3265 2115 L
3266 2096 L
3267 2166 L
3267 2294 L
3268 2128 L
3268 2141 L
3269 2138 L
3269 2090 L
3270 2236 L
3271 1999 L
3271 2303 L
3272 2031 L
3272 1985 L
3273 2095 L
3273 2274 L
3274 1995 L
3275 2281 L
3275 2174 L
3276 2111 L
3276 2333 L
3277 2389 L
3277 2307 L
3278 2286 L
3278 2363 L
3279 2310 L
3280 2071 L
3280 2004 L
3281 2178 L
3281 1895 L
3282 2309 L
3282 1978 L
3283 2187 L
3283 2151 L
3284 2506 L
3284 2047 L
3285 2264 L
3285 2341 L
3286 2084 L
3287 2261 L
3287 2108 L
3288 2302 L
3288 2265 L
3289 2056 L
3289 2213 L
3290 2158 L
3290 2263 L
3291 2222 L
3291 2332 L
3292 2247 L
3292 2346 L
3293 2168 L
3293 2122 L
3294 2199 L
3294 2361 L
3295 2065 L
3295 2206 L
3296 2301 L
3297 2045 L
3297 2185 L
3298 2076 L
3298 2120 L
3299 2336 L
3299 2272 L
3300 2183 L
3300 2237 L
3301 2314 L
3301 2263 L
3302 2108 L
3302 2149 L
3303 2141 L
3303 2098 L
3304 2047 L
3304 2116 L
3305 2126 L
3305 2180 L
3306 2079 L
3306 2337 L
3307 2350 L
3307 2195 L
3308 2313 L
3308 2414 L
3309 2199 L
3309 2177 L
3310 2328 L
3310 2177 L
3311 2107 L
3311 2174 L
3312 2177 L
3312 2298 L
3312 2400 L
3313 2216 L
3313 2231 L
3314 2410 L
3314 2300 L
3315 2470 L
3315 2188 L
3316 2122 L
3316 2257 L
3317 2311 L
3317 2205 L
3318 2065 L
3318 2403 L
3319 2210 L
3319 2297 L
3320 2398 L
3320 2294 L
3321 2211 L
3321 2325 L
3321 2357 L
3322 2084 L
3322 2103 L
3323 2238 L
3323 2370 L
3324 2450 L
3324 2362 L
3325 2322 L
3325 2366 L
3326 2270 L
3326 2358 L
3327 2197 L
3327 2119 L
3327 2427 L
3328 2164 L
3328 2180 L
3329 2171 L
3329 2519 L
3330 2364 L
3330 2261 L
3331 2300 L
3331 2266 L
3332 2319 L
3332 2295 L
3332 2481 L
3333 2371 L
3333 2124 L
3334 2350 L
3334 2236 L
3335 2364 L
3335 2205 L
3336 1990 L
3336 2216 L
3336 2322 L
3337 2164 L
3337 2297 L
3338 2350 L
3338 2224 L
3339 2375 L
3339 2445 L
3339 2287 L
3340 2279 L
3340 2201 L
3341 2402 L
3341 2414 L
3342 2211 L
3342 2422 L
3343 2314 L
3343 1997 L
3343 2263 L
3344 2205 L
3344 2342 L
3345 2206 L
3345 2306 L
3346 2148 L
3346 2300 L
3346 2212 L
3347 2513 L
3347 2449 L
3348 2428 L
3348 2330 L
3348 2395 L
3349 2266 L
3349 2303 L
3350 2443 L
3350 2356 L
3351 2168 L
3351 2297 L
3351 2286 L
3352 2311 L
3352 2120 L
3353 2602 L
3353 2486 L
3353 2523 L
3354 2102 L
3354 2579 L
3355 2298 L
3355 2439 L
3355 2241 L
3356 2431 L
3356 2315 L
3357 2498 L
3357 2255 L
3358 2291 L
3358 2349 L
3358 2476 L
3359 2353 L
3359 2336 L
3360 2450 L
3360 2378 L
3360 2331 L
3361 2502 L
3361 2442 L
3362 2261 L
3362 2551 L
3362 2197 L
3363 2469 L
3363 2475 L
3364 2372 L
3364 2328 L
3364 2343 L
3365 2531 L
3365 2312 L
3365 2263 L
3366 2410 L
3366 2285 L
3367 2206 L
3367 2562 L
3367 2420 L
3368 2504 L
3368 2357 L
3369 2320 L
3369 2325 L
3369 2381 L
3370 2337 L
3370 2300 L
3371 2456 L
3371 2305 L
3371 2398 L
3372 2399 L
3372 2540 L
3372 2394 L
3373 2349 L
3373 2439 L
3374 2349 L
3374 2615 L
3374 2395 L
3375 2511 L
3375 2398 L
3375 2473 L
3376 2438 L
3376 2493 L
3377 2545 L
3377 2450 L
3377 2503 L
3378 2493 L
3378 2439 L
3378 2404 L
3379 2343 L
3379 2402 L
3380 2284 L
3380 2310 L
3380 2480 L
3381 2388 L
3381 2348 L
3381 2593 L
3382 2565 L
3382 2328 L
3383 2409 L
3383 2335 L
3383 2350 L
3384 2533 L
3384 2432 L
3384 2423 L
3385 2356 L
3385 2410 L
3385 2266 L
3386 2365 L
3386 2612 L
3387 2453 L
3387 2405 L
3387 2522 L
3388 2525 L
3388 2383 L
3388 2608 L
3389 2540 L
3389 2485 L
3389 2680 L
3390 2476 L
3390 2434 L
3391 2261 L
3391 2543 L
3391 2402 L
3392 2654 L
3392 2493 L
3392 2297 L
3393 2377 L
3393 2596 L
3393 2453 L
3394 2238 L
3394 2386 L
3394 2537 L
3395 2485 L
3395 2656 L
3395 2530 L
3396 2320 L
3396 2594 L
3396 2596 L
3397 2445 L
3397 2388 L
3398 2667 L
3398 2471 L
3398 2637 L
3399 2640 L
3399 2528 L
3399 2411 L
3400 2559 L
3400 2615 L
3400 2442 L
3401 2454 L
3401 2411 L
3401 2434 L
3402 2496 L
3402 2643 L
3402 2383 L
3403 2486 L
3403 2537 L
3403 2616 L
3404 2550 L
3404 2618 L
3404 2579 L
3405 2582 L
3405 2496 L
3405 2371 L
3406 2598 L
3406 2402 L
3406 2415 L
3407 2368 L
3407 2558 L
3407 2409 L
3408 2548 L
3408 2568 L
3408 2392 L
3409 2573 L
3409 2487 L
3409 2528 L
3410 2567 L
3410 2615 L
3410 2601 L
3411 2556 L
3411 2544 L
3411 2706 L
3412 2560 L
3412 2473 L
3412 2621 L
3413 2668 L
3413 2534 L
3413 2364 L
3414 2507 L
3414 2417 L
3414 2323 L
3415 2460 L
3415 2374 L
3415 2566 L
3416 2590 L
3416 2436 L
3416 2412 L
3417 2598 L
3417 2380 L
3417 2654 L
3417 2521 L
3418 2461 L
3418 2526 L
3418 2609 L
3419 2548 L
3419 2546 L
3419 2368 L
3420 2602 L
3420 2475 L
3420 2512 L
3421 2545 L
3421 2685 L
3421 2437 L
3422 2436 L
3422 2362 L
3422 2603 L
3423 2444 L
3423 2419 L
3423 2487 L
3423 2564 L
3424 2560 L
3424 2614 L
3424 2431 L
3425 2486 L
3425 2376 L
3425 2440 L
3426 2501 L
3426 2493 L
3426 2583 L
3427 2515 L
3427 2620 L
3427 2664 L
3428 2579 L
3428 2679 L
3428 2573 L
3428 2545 L
3429 2371 L
3429 2361 L
3429 2593 L
3430 2564 L
3430 2429 L
3430 2491 L
3431 2515 L
3431 2520 L
3431 2627 L
3431 2675 L
3432 2760 L
3432 2769 L
3432 2636 L
3433 2601 L
3433 2541 L
3433 2534 L
3434 2681 L
3434 2736 L
3434 2451 L
3434 2646 L
3435 2655 L
3435 2714 L
3435 2572 L
3436 2755 L
3436 2550 L
3436 2593 L
3437 2671 L
3437 2650 L
3437 2501 L
3437 2653 L
3438 2613 L
3438 2615 L
3438 2539 L
3439 2481 L
3439 2604 L
3439 2587 L
3440 2545 L
3440 2491 L
3440 2724 L
3440 2413 L
3441 2611 L
3441 2743 L
3441 2627 L
3442 2582 L
3442 2693 L
3442 2622 L
3442 2501 L
3443 2544 L
3443 2560 L
3443 2689 L
3444 2568 L
3444 2627 L
3444 2466 L
3444 2604 L
3445 2542 L
3445 2561 L
3445 2397 L
3446 2660 L
3446 2400 L
3446 2643 L
3446 2455 L
3447 2557 L
3447 2703 L
3447 2469 L
3448 2403 L
3448 2793 L
3448 2773 L
3448 2523 L
3449 2758 L
3449 2637 L
3449 2516 L
3450 2720 L
3450 2511 L
3450 2700 L
3450 2702 L
3451 2531 L
3451 2618 L
3451 2664 L
3452 2648 L
3452 2687 L
3452 2676 L
3452 2761 L
3453 2474 L
3453 2780 L
3453 2688 L
3454 2665 L
3454 2578 L
3454 2457 L
3454 2550 L
3455 2434 L
3455 2373 L
3455 2641 L
3455 2817 L
3456 2485 L
3456 2523 L
3456 2610 L
3457 2735 L
3457 2710 L
3457 2534 L
3457 2654 L
3458 2568 L
3458 2631 L
3458 2675 L
3458 2771 L
3459 2628 L
3459 2690 L
3459 2587 L
3460 2530 L
3460 2664 L
3460 2645 L
3460 2529 L
3461 2708 L
3461 2651 L
3461 2532 L
3461 2809 L
3462 2760 L
3462 2663 L
3462 2581 L
3463 2591 L
3463 2734 L
3463 2320 L
3463 2602 L
3464 2619 L
3464 2721 L
3464 2685 L
3464 2451 L
3465 2505 L
3465 2441 L
3465 2643 L
3465 2748 L
3466 2629 L
3466 2545 L
3466 2473 L
3466 2647 L
3467 2747 L
3467 2737 L
3467 2667 L
3468 2688 L
3468 2469 L
3468 2663 L
3468 2608 L
3469 2796 L
3469 2682 L
3469 2724 L
3469 2666 L
3470 2532 L
3470 2509 L
3470 2646 L
3470 2816 L
3471 2698 L
3471 2525 L
3471 2525 L
3471 2540 L
3472 2627 L
3472 2509 L
3472 2663 L
3472 2392 L
3473 2716 L
3473 2602 L
3473 2623 L
3474 2798 L
3474 2772 L
3474 2665 L
3474 2645 L
3475 2879 L
3475 2785 L
3475 2755 L
3475 2760 L
3476 2695 L
3476 2675 L
3476 2841 L
3476 2562 L
3477 2667 L
3477 2646 L
3477 2651 L
3477 2640 L
3478 2679 L
3478 2688 L
3478 2665 L
3478 2666 L
3479 2512 L
3479 2533 L
3479 2752 L
3479 2700 L
3480 2651 L
3480 2684 L
3480 2663 L
3480 2612 L
3481 2507 L
3481 2679 L
3481 2810 L
3481 2607 L
3482 2673 L
3482 2777 L
3482 2669 L
3482 2529 L
3483 2537 L
3483 2799 L
3483 2705 L
3483 2632 L
3484 2701 L
3484 2670 L
3484 2639 L
3484 2659 L
3485 2479 L
3485 2649 L
3485 2693 L
3485 2972 L
3486 2710 L
3486 2692 L
3486 2682 L
3486 2556 L
3487 2547 L
3487 2798 L
3487 2728 L
3487 2827 L
3488 2642 L
3488 2724 L
3488 2476 L
3488 2766 L
3488 2830 L
3489 2738 L
3489 2397 L
3489 2600 L
3489 2880 L
3490 2704 L
3490 2773 L
3490 2669 L
3490 2674 L
3491 2674 L
3491 2507 L
3491 2722 L
3491 2688 L
3492 2805 L
3492 2538 L
3492 2629 L
3492 2648 L
3493 2648 L
3493 2637 L
3493 2787 L
3493 2747 L
3494 2799 L
3494 2629 L
3494 2724 L
3494 2676 L
3494 2557 L
3495 2755 L
3495 2619 L
3495 2666 L
3495 2592 L
3496 2635 L
3496 2534 L
3496 2700 L
3496 2723 L
3497 2752 L
3497 2847 L
3497 2782 L
3497 2597 L
3498 2727 L
3498 2743 L
3498 2766 L
3498 2601 L
3498 2696 L
3499 2453 L
3499 2704 L
3499 2729 L
3499 2593 L
3500 2700 L
3500 2860 L
3506 2418 L
3511 2720 L
3517 2547 L
3522 2738 L
3527 2744 L
3532 2945 L
3537 2630 L
3542 2805 L
3547 2790 L
3552 2931 L
3557 2887 L
3561 2867 L
3566 2848 L
3570 2948 L
3575 2763 L
3579 2902 L
3583 2867 L
3587 2825 L
3591 2779 L
3595 2732 L
3599 2736 L
3603 3038 L
3607 2892 L
3611 2970 L
3614 2981 L
3618 2656 L
3622 2804 L
3625 2894 L
3629 2939 L
3632 2973 L
3636 2835 L
3639 2902 L
3642 2986 L
3646 2833 L
3649 2872 L
3652 2965 L
3655 2890 L
3658 2800 L
3661 2936 L
3664 2827 L
3667 3163 L
3670 2983 L
3673 2800 L
3676 2982 L
3679 3052 L
3682 2894 L
3685 2981 L
3688 2794 L
3690 2909 L
3693 2914 L
3696 3081 L
3698 2808 L
3701 2808 L
3704 3182 L
3706 2982 L
3709 3052 L
3711 3065 L
3714 2984 L
3716 2859 L
3719 2783 L
3721 3181 L
3724 2746 L
3726 2901 L
3728 2984 L
3731 2949 L
3733 2826 L
3735 3154 L
3738 2831 L
3740 2872 L
3742 2895 L
3744 3012 L
3747 3087 L
3749 2874 L
3751 2894 L
3753 2959 L
3755 2870 L
3757 2917 L
3760 3069 L
3762 2890 L
3764 2932 L
3766 2881 L
3768 2963 L
3770 2841 L
3772 2862 L
3774 3012 L
3776 3083 L
3778 2950 L
3780 2892 L
3781 2987 L
3783 2945 L
3785 2932 L
3787 3009 L
3789 2960 L
3791 2959 L
3793 2873 L
3795 2950 L
3796 2896 L
3798 2819 L
3800 3014 L
3802 3019 L
3803 2981 L
3805 2911 L
3807 2848 L
3809 3024 L
3810 2936 L
3812 2993 L
3814 2986 L
3816 2942 L
3817 2989 L
3819 2951 L
3820 2697 L
3822 2927 L
3824 3045 L
3825 3081 L
3827 2984 L
3829 2920 L
3830 3017 L
3832 3004 L
3833 2965 L
3835 3034 L
3836 3065 L
3838 3213 L
3839 3038 L
3841 3127 L
3842 2948 L
3844 3059 L
3845 3054 L
3847 3067 L
3848 3028 L
3850 2861 L
3851 2874 L
3853 3037 L
3854 2830 L
3856 2983 L
3857 3058 L
3859 2991 L
3860 2984 L
3861 3221 L
3863 2813 L
3864 2931 L
3866 2892 L
3867 2886 L
3868 2967 L
3870 2950 L
3871 3134 L
3872 3042 L
3874 2975 L
3875 3022 L
3876 3147 L
3878 3263 L
3879 2895 L
3880 3048 L
3882 3023 L
3883 2922 L
3884 3058 L
3885 2975 L
3887 3026 L
3888 2931 L
3889 2889 L
3890 2972 L
3892 2936 L
3893 3021 L
3894 3165 L
3895 3060 L
3897 2894 L
3898 3104 L
3899 2621 L
3900 2858 L
3901 2936 L
3903 3118 L
3904 2982 L
3905 2798 L
3906 2917 L
3907 2944 L
3908 3034 L
3910 3138 L
3911 2913 L
3912 3224 L
3913 3026 L
3914 2873 L
3915 2895 L
3917 3053 L
3918 3141 L
3919 3008 L
3920 2948 L
3921 3058 L
3922 2910 L
3923 3013 L
3924 3083 L
3925 2997 L
3926 3041 L
3928 3074 L
3929 3116 L
3930 2850 L
3931 3146 L
3932 3170 L
3933 3023 L
3934 2824 L
3935 3159 L
3936 3193 L
3937 2966 L
3938 2941 L
3939 3205 L
3940 3076 L
3941 2894 L
3942 2928 L
3943 2932 L
3944 3067 L
3945 2800 L
3946 2885 L
3947 2979 L
3948 2858 L
3949 2825 L
3950 2989 L
3951 2932 L
3952 2731 L
3953 2945 L
3954 2939 L
3955 2856 L
3956 3056 L
3957 2855 L
3958 2941 L
3959 2994 L
3960 2965 L
3961 2970 L
3962 3080 L
3963 2836 L
3964 3006 L
3965 2891 L
3966 3092 L
3966 2929 L
3967 2909 L
3968 3157 L
3969 2769 L
3970 3048 L
3971 2816 L
3972 3062 L
3973 2852 L
3974 2925 L
3975 2959 L
3976 3156 L
3976 2899 L
3977 2984 L
3978 3045 L
3979 2970 L
3980 2876 L
3981 3150 L
3982 2917 L
3983 2966 L
3983 2955 L
3984 3015 L
3985 3104 L
3986 3059 L
3987 2993 L
3988 2965 L
3989 2978 L
3989 3017 L
3990 2831 L
3991 3016 L
3992 2975 L
3993 3109 L
3994 2856 L
3995 2874 L
3995 3037 L
3996 2854 L
3997 2864 L
3998 2956 L
3999 2923 L
3999 2889 L
4000 2917 L
4001 2978 L
4002 2860 L
4003 3053 L
4003 2963 L
4004 3217 L
4005 2993 L
4006 2819 L
4007 3204 L
4007 2972 L
4008 2922 L
4009 2924 L
4010 3052 L
4011 2844 L
4011 3083 L
4012 2990 L
4013 2936 L
4014 2893 L
4014 3073 L
4015 3099 L
4016 2830 L
4017 2794 L
4017 2983 L
4018 2880 L
4019 3110 L
4020 2852 L
4021 2916 L
4021 2969 L
4022 2907 L
4023 2964 L
4023 2976 L
4024 3070 L
4025 2968 L
4026 2876 L
4026 3052 L
4027 2909 L
4028 2939 L
4029 2866 L
4029 2947 L
4030 3028 L
4031 2939 L
4032 2931 L
4032 3086 L
4033 3253 L
4034 2981 L
4034 2892 L
4035 3067 L
4036 2733 L
4036 2945 L
4037 3003 L
4038 2986 L
4039 3038 L
4039 2814 L
4040 2984 L
4041 2931 L
4041 3073 L
4042 3028 L
4043 2895 L
4043 2900 L
4044 3054 L
4045 2861 L
4045 3037 L
4046 3042 L
4047 2961 L
4047 2846 L
4048 3204 L
4049 2911 L
4050 2951 L
4050 2973 L
4051 3150 L
4052 2908 L
4052 2987 L
4053 2924 L
4053 3033 L
4054 3095 L
4055 2944 L
4055 2672 L
4056 3006 L
4057 3046 L
4057 2987 L
4058 3042 L
4059 2917 L
4059 3121 L
4060 2981 L
4061 2794 L
4061 2857 L
4062 3023 L
L2 C06 COSGR

%
%================
% Legend - Begin
%================
%
GSN 4240 5180 M
4480 5180 L
LWMC SL  C06 COSGR
GSN 4540 5141 M helvM (3.0 uM) show grestore
%
%================
% Legend - End
%================
%

%
% Residuals:
%
GSN 777 961 M
1388 817 L
1552 903 L
1652 1569 L
1723 1077 L
1778 1258 L
1824 925 L
1863 1092 L
1896 1171 L
1926 1166 L
1952 1195 L
1976 1186 L
1998 964 L
2019 1067 L
2037 1078 L
2055 986 L
2071 1181 L
2086 750 L
2101 1099 L
2115 1125 L
2128 1173 L
2140 1064 L
2152 981 L
2163 1213 L
2174 1175 L
2184 1106 L
2194 1067 L
2204 1077 L
2213 1122 L
2222 1010 L
2230 986 L
2239 1073 L
2247 1163 L
2255 1150 L
2262 1153 L
2270 1058 L
2277 1141 L
2284 1036 L
2290 848 L
2297 918 L
2303 945 L
2310 1285 L
2316 1081 L
2322 1123 L
2328 1109 L
2333 941 L
2339 1048 L
2344 1085 L
2350 896 L
2355 874 L
2360 1110 L
2365 1157 L
2370 1178 L
2375 1325 L
2380 1160 L
2384 1005 L
2389 1216 L
2393 859 L
2398 1141 L
2402 1042 L
2407 963 L
2411 1110 L
2415 984 L
2419 1147 L
2423 1067 L
2427 1078 L
2431 1018 L
2435 1204 L
2438 1154 L
2442 1114 L
2446 1070 L
2449 1062 L
2453 1127 L
2456 1207 L
2460 911 L
2463 1004 L
2467 1120 L
2470 1057 L
2473 996 L
2476 1121 L
2480 1075 L
2483 1145 L
2486 1015 L
2489 965 L
2492 1235 L
2495 952 L
2498 1111 L
2501 1012 L
2504 967 L
2507 1094 L
2510 1042 L
2512 1163 L
2515 1157 L
2518 1219 L
2521 1080 L
2523 1090 L
2526 1016 L
2529 1160 L
2531 1000 L
2534 979 L
2536 1162 L
2539 1133 L
2541 1003 L
2544 1301 L
2546 1112 L
2549 1226 L
2551 1044 L
2554 976 L
2556 986 L
2558 1090 L
2561 1065 L
2563 1424 L
2565 1213 L
2568 1279 L
2570 1071 L
2572 1051 L
2574 1331 L
2576 1131 L
2579 1179 L
2581 1154 L
2583 1008 L
2585 984 L
2587 1232 L
2589 1238 L
2591 1095 L
2593 1089 L
2595 1082 L
2597 1178 L
2599 1178 L
2601 1333 L
2603 1337 L
2605 967 L
2607 1087 L
2609 1084 L
2611 1084 L
2613 1301 L
2615 1291 L
2617 1312 L
2618 1164 L
2620 1117 L
2622 1164 L
2624 1156 L
2626 1030 L
2627 1077 L
2629 1200 L
2631 1178 L
2633 1072 L
2634 1294 L
2636 1080 L
2638 1037 L
2640 1163 L
2641 1225 L
2643 1086 L
2645 1082 L
2646 1160 L
2648 1178 L
2650 1230 L
2651 1033 L
2653 1226 L
2654 1220 L
2656 1211 L
2658 1400 L
2659 1085 L
2661 1048 L
2662 1099 L
2664 1305 L
2665 1065 L
2667 1191 L
2668 1104 L
2670 1209 L
2671 986 L
2673 1145 L
2674 1179 L
2676 1311 L
2677 1074 L
2679 1352 L
2680 1099 L
2682 915 L
2683 1038 L
2685 1055 L
2686 1100 L
2687 1095 L
2689 1305 L
2690 1169 L
2692 1056 L
2693 1124 L
2694 1142 L
2696 1265 L
2697 1040 L
2698 1113 L
2700 1073 L
2701 1154 L
2702 1108 L
2704 1056 L
2705 1133 L
2706 1198 L
2708 975 L
2709 1042 L
2710 1058 L
2712 1237 L
2713 1213 L
2714 1058 L
2715 1320 L
2717 980 L
2718 1191 L
2719 985 L
2720 1148 L
2722 1161 L
2723 1000 L
2724 1147 L
2725 1211 L
2726 1023 L
2728 1207 L
2729 1253 L
2730 1269 L
2731 1221 L
2732 1181 L
2734 1201 L
2735 1242 L
2736 978 L
2737 1088 L
2738 1084 L
2739 1079 L
2741 1299 L
2742 1327 L
2743 1199 L
2744 1192 L
2745 1209 L
2746 873 L
2747 1090 L
2748 1318 L
2749 1344 L
2751 1170 L
2752 1151 L
2753 1108 L
2754 1309 L
2755 1216 L
2756 1358 L
2757 1187 L
2758 1053 L
2759 1097 L
2760 1200 L
2761 1192 L
2762 1160 L
2763 1305 L
2764 1164 L
2765 1095 L
2767 1090 L
2768 1218 L
2769 1145 L
2770 1201 L
2771 1276 L
2772 1157 L
2773 1261 L
2774 1161 L
2775 1119 L
2776 1069 L
2777 1176 L
2778 1214 L
2779 1230 L
2780 1105 L
2781 995 L
2782 1254 L
2783 1288 L
2783 1112 L
2784 1218 L
2785 1143 L
2786 988 L
2787 1116 L
2788 1251 L
2789 1265 L
2790 1195 L
2791 1145 L
2792 1370 L
2793 1097 L
2794 1157 L
2795 1251 L
2796 1139 L
2797 1287 L
2798 1242 L
2798 1087 L
2799 1030 L
2800 986 L
2801 1227 L
2802 1020 L
2803 1115 L
2804 1146 L
2805 1320 L
2806 1171 L
2807 1263 L
2807 1123 L
2808 1213 L
2809 1180 L
2810 1125 L
2811 1059 L
2812 1316 L
2813 989 L
2813 1214 L
2814 1050 L
2815 1304 L
2816 1181 L
2817 1290 L
2818 1392 L
2819 1071 L
2819 1143 L
2820 1318 L
2821 1150 L
2822 1058 L
2823 1135 L
2824 1291 L
2824 1329 L
2825 1163 L
2826 1291 L
2827 1241 L
2828 1063 L
2828 1196 L
2829 1316 L
2830 1266 L
2831 1197 L
2832 1134 L
2832 1220 L
2833 1244 L
2834 1140 L
2835 1167 L
2836 1269 L
2836 1123 L
2837 1211 L
2838 1271 L
2839 1160 L
2840 1121 L
2840 1116 L
2841 1007 L
2842 1322 L
2843 1015 L
2843 1134 L
2844 1328 L
2845 1192 L
2846 1155 L
2846 1071 L
2847 1141 L
2848 1258 L
2849 1193 L
2849 1179 L
2850 1306 L
2851 1173 L
2852 1359 L
2852 1238 L
2853 1283 L
2854 1194 L
2855 1236 L
2855 1113 L
2856 1235 L
2857 1416 L
2857 1109 L
2858 1365 L
2859 1231 L
2860 1167 L
2860 1141 L
2861 1282 L
2862 1173 L
2862 1280 L
2863 1290 L
2864 1118 L
2865 1250 L
2865 1387 L
2866 1312 L
2867 1238 L
2867 1066 L
2868 1121 L
2869 1221 L
2869 1286 L
2870 1298 L
2871 1105 L
2871 1167 L
2872 1136 L
2873 1260 L
2873 1179 L
2874 1082 L
2875 1412 L
2876 1293 L
2876 1167 L
2877 1167 L
2878 1404 L
2878 1139 L
2879 1040 L
2880 1176 L
2880 1270 L
2881 1315 L
2881 1336 L
2882 1161 L
2883 1274 L
2883 1290 L
2884 1112 L
2885 1234 L
2885 1057 L
2886 1302 L
2887 1212 L
2887 1117 L
2888 1421 L
2889 1360 L
2889 1342 L
2892 1296 L
2894 1195 L
2897 1191 L
2899 1121 L
2902 1178 L
2904 1340 L
2907 1171 L
2909 1033 L
2911 1208 L
2914 1156 L
2916 1151 L
2918 1289 L
2921 1137 L
2923 1292 L
2925 1162 L
2927 1191 L
2929 1220 L
2932 1204 L
2934 1118 L
2936 1003 L
2938 1216 L
2940 1305 L
2942 1091 L
2944 906 L
2946 1221 L
2948 1200 L
2950 1038 L
2952 1295 L
2954 1176 L
2956 1312 L
2958 1035 L
2960 1163 L
2962 1110 L
2964 950 L
2966 1199 L
2968 1112 L
2970 1400 L
2971 1164 L
2973 1139 L
2975 1231 L
2977 1374 L
2979 1232 L
2980 1138 L
2982 1308 L
2984 1200 L
2986 1066 L
2987 1188 L
2989 1137 L
2991 1102 L
2993 1313 L
2994 1244 L
2996 1159 L
2998 1185 L
2999 1081 L
3001 1009 L
3003 1186 L
3004 1233 L
3006 1033 L
3007 1224 L
3009 1284 L
3011 1170 L
3012 1025 L
3014 1061 L
3015 1299 L
3017 1159 L
3018 1152 L
3020 1230 L
3021 1150 L
3023 1171 L
3024 1128 L
3026 1088 L
3027 1348 L
3029 1246 L
3030 1105 L
3032 1039 L
3033 982 L
3035 1242 L
3036 1121 L
3038 1105 L
3039 1071 L
3040 1173 L
3042 1151 L
3043 1110 L
3045 1055 L
3046 1161 L
3047 1127 L
3049 1289 L
3050 1172 L
3051 1176 L
3053 1133 L
3054 1152 L
3055 1113 L
3057 1079 L
3058 894 L
3059 1031 L
3061 978 L
3062 1096 L
3063 1239 L
3065 1070 L
3066 1117 L
3067 1169 L
3068 1240 L
3070 1242 L
3071 1174 L
3072 1166 L
3073 1113 L
3075 1285 L
3076 1149 L
3077 1150 L
3078 1295 L
3079 1157 L
3081 1160 L
3082 1137 L
3083 1198 L
3084 1096 L
3085 1099 L
3087 1283 L
3088 1052 L
3089 955 L
3090 1173 L
3091 979 L
3092 1223 L
3094 1131 L
3095 1138 L
3096 1264 L
3097 1147 L
3098 1108 L
3099 1045 L
3100 1144 L
3101 1150 L
3103 1206 L
3104 1138 L
3105 1173 L
3106 989 L
3107 1184 L
3108 1098 L
3109 1233 L
3110 983 L
3111 1166 L
3112 1119 L
3113 958 L
3114 1182 L
3115 1091 L
3116 1003 L
3117 1176 L
3119 1093 L
3120 1052 L
3121 1185 L
3122 1111 L
3123 1131 L
3124 1036 L
3125 1190 L
3126 1175 L
3127 1243 L
3128 1171 L
3129 1212 L
3130 991 L
3131 1148 L
3132 1075 L
3133 1018 L
3134 1200 L
3135 1153 L
3136 918 L
3136 946 L
3137 953 L
3138 1117 L
3139 1102 L
3140 1188 L
3141 1072 L
3142 1008 L
3143 1148 L
3144 1185 L
3145 1027 L
3146 1007 L
3147 930 L
3148 1139 L
3149 1114 L
3150 1154 L
3151 976 L
3151 1046 L
3152 1131 L
3153 1232 L
3154 1039 L
3155 1082 L
3156 950 L
3157 1081 L
3158 1251 L
3159 1126 L
3160 1076 L
3160 1182 L
3161 1092 L
3162 966 L
3163 1300 L
3164 956 L
3165 1127 L
3166 1175 L
3166 924 L
3167 1158 L
3168 1126 L
3169 1145 L
3170 1217 L
3171 935 L
3172 1155 L
3172 1195 L
3173 1083 L
3174 971 L
3175 1290 L
3176 1082 L
3177 1047 L
3177 1194 L
3178 1311 L
3179 1168 L
3180 1020 L
3181 1266 L
3181 1231 L
3182 1259 L
3183 1002 L
3184 1122 L
3185 937 L
3185 1013 L
3186 1098 L
3187 949 L
3188 1215 L
3189 1121 L
3189 1096 L
3190 1228 L
3191 1178 L
3192 1138 L
3193 984 L
3193 1189 L
3194 1174 L
3195 1155 L
3196 1168 L
3196 1136 L
3197 1008 L
3198 1102 L
3199 1127 L
3199 1230 L
3200 960 L
3201 1284 L
3202 1074 L
3202 1038 L
3203 927 L
3204 1101 L
3205 1092 L
3205 970 L
3206 1244 L
3207 1122 L
3208 1081 L
3208 988 L
3209 997 L
3210 1400 L
3210 1027 L
3211 1186 L
3212 1217 L
3213 1298 L
3213 999 L
3214 1134 L
3215 1364 L
3215 1229 L
3216 1157 L
3217 1132 L
3218 949 L
3218 1252 L
3219 1211 L
3220 1054 L
3220 1240 L
3221 1179 L
3222 1131 L
3222 1101 L
3223 1239 L
3224 1236 L
3224 1192 L
3225 1082 L
3226 892 L
3227 973 L
3227 1339 L
3228 1165 L
3229 931 L
3229 1278 L
3230 1006 L
3231 1332 L
3231 855 L
3232 1192 L
3233 1110 L
3233 972 L
3234 1216 L
3235 1092 L
3235 1335 L
3236 1064 L
3236 1254 L
3237 1172 L
3238 1115 L
3238 1037 L
3239 1039 L
3240 1131 L
3240 1152 L
3241 972 L
3242 1214 L
3242 1258 L
3243 1321 L
3244 966 L
3244 1003 L
3245 1171 L
3245 1119 L
3246 1049 L
3247 1144 L
3247 1099 L
3248 1211 L
3249 1091 L
3249 1103 L
3250 1052 L
3250 1110 L
3251 1036 L
3252 1362 L
3252 1004 L
3253 1131 L
3253 1063 L
3254 1121 L
3255 991 L
3255 1195 L
3256 1053 L
3257 1194 L
3257 1153 L
3258 963 L
3258 1163 L
3259 933 L
3259 1209 L
3260 1213 L
3261 1089 L
3261 1118 L
3262 1117 L
3262 1056 L
3263 1102 L
3264 1074 L
3264 1167 L
3265 1049 L
3265 1070 L
3266 1051 L
3267 1116 L
3267 1236 L
3268 1079 L
3268 1090 L
3269 1087 L
3269 1040 L
3270 1177 L
3271 953 L
3271 1238 L
3272 981 L
3272 937 L
3273 1039 L
3273 1206 L
3274 943 L
3275 1211 L
3275 1110 L
3276 1050 L
3276 1257 L
3277 1309 L
3277 1231 L
3278 1211 L
3278 1282 L
3279 1231 L
3280 1005 L
3280 941 L
3281 1104 L
3281 837 L
3282 1225 L
3282 913 L
3283 1108 L
3283 1074 L
3284 1406 L
3284 974 L
3285 1177 L
3285 1248 L
3286 1006 L
3287 1171 L
3287 1027 L
3288 1208 L
3288 1172 L
3289 974 L
3289 1122 L
3290 1069 L
3290 1166 L
3291 1127 L
3291 1229 L
3292 1148 L
3292 1241 L
3293 1072 L
3293 1028 L
3294 1100 L
3294 1251 L
3295 971 L
3295 1103 L
3296 1191 L
3297 950 L
3297 1080 L
3298 977 L
3298 1017 L
3299 1220 L
3299 1159 L
3300 1073 L
3300 1123 L
3301 1195 L
3301 1147 L
3302 999 L
3302 1037 L
3303 1029 L
3303 987 L
3304 938 L
3304 1002 L
3305 1010 L
3305 1060 L
3306 965 L
3306 1206 L
3307 1217 L
3307 1071 L
3308 1180 L
3308 1274 L
3309 1071 L
3309 1050 L
3310 1191 L
3310 1047 L
3311 981 L
3311 1043 L
3312 1045 L
3312 1158 L
3312 1253 L
3313 1079 L
3313 1092 L
3314 1259 L
3314 1155 L
3315 1313 L
3315 1048 L
3316 985 L
3316 1110 L
3317 1161 L
3317 1059 L
3318 927 L
3318 1244 L
3319 1062 L
3319 1142 L
3320 1237 L
3320 1138 L
3321 1059 L
3321 1165 L
3321 1194 L
3322 936 L
3322 953 L
3323 1080 L
3323 1203 L
3324 1277 L
3324 1193 L
3325 1154 L
3325 1195 L
3326 1104 L
3326 1185 L
3327 1033 L
3327 959 L
3327 1248 L
3328 999 L
3328 1013 L
3329 1004 L
3329 1330 L
3330 1184 L
3330 1086 L
3331 1122 L
3331 1088 L
3332 1138 L
3332 1114 L
3332 1288 L
3333 1184 L
3333 951 L
3334 1163 L
3334 1054 L
3335 1173 L
3335 1023 L
3336 819 L
3336 1031 L
3336 1131 L
3337 981 L
3337 1105 L
3338 1154 L
3338 1035 L
3339 1176 L
3339 1240 L
3339 1091 L
3340 1082 L
3340 1008 L
3341 1196 L
3341 1207 L
3342 1015 L
3342 1212 L
3343 1109 L
3343 811 L
3343 1060 L
3344 1004 L
3344 1133 L
3345 1004 L
3345 1097 L
3346 947 L
3346 1090 L
3346 1006 L
3347 1288 L
3347 1227 L
3348 1207 L
3348 1114 L
3348 1173 L
3349 1051 L
3349 1085 L
3350 1216 L
3350 1133 L
3351 955 L
3351 1076 L
3351 1065 L
3352 1088 L
3352 907 L
3353 1359 L
3353 1249 L
3353 1283 L
3354 886 L
3354 1334 L
3355 1069 L
3355 1201 L
3355 1013 L
3356 1192 L
3356 1081 L
3357 1252 L
3357 1023 L
3358 1056 L
3358 1110 L
3358 1229 L
3359 1112 L
3359 1095 L
3360 1202 L
3360 1133 L
3360 1088 L
3361 1248 L
3361 1190 L
3362 1019 L
3362 1291 L
3362 957 L
3363 1212 L
3363 1217 L
3364 1120 L
3364 1077 L
3364 1090 L
3365 1266 L
3365 1059 L
3365 1012 L
3366 1150 L
3366 1031 L
3367 956 L
3367 1290 L
3367 1156 L
3368 1234 L
3368 1095 L
3369 1059 L
3369 1063 L
3369 1114 L
3370 1073 L
3370 1037 L
3371 1183 L
3371 1040 L
3371 1127 L
3372 1127 L
3372 1259 L
3372 1120 L
3373 1077 L
3373 1161 L
3374 1075 L
3374 1325 L
3374 1117 L
3375 1225 L
3375 1119 L
3375 1188 L
3376 1154 L
3376 1205 L
3377 1253 L
3377 1163 L
3377 1212 L
3378 1202 L
3378 1151 L
3378 1117 L
3379 1058 L
3379 1113 L
3380 1001 L
3380 1025 L
3380 1184 L
3381 1097 L
3381 1058 L
3381 1287 L
3382 1260 L
3382 1037 L
3383 1112 L
3383 1042 L
3383 1056 L
3384 1227 L
3384 1131 L
3384 1122 L
3385 1058 L
3385 1108 L
3385 971 L
3386 1064 L
3386 1296 L
3387 1145 L
3387 1099 L
3387 1208 L
3388 1210 L
3388 1076 L
3388 1287 L
3389 1222 L
3389 1170 L
3389 1352 L
3390 1159 L
3390 1119 L
3391 956 L
3391 1220 L
3391 1087 L
3392 1323 L
3392 1171 L
3392 985 L
3393 1060 L
3393 1266 L
3393 1130 L
3394 927 L
3394 1066 L
3394 1206 L
3395 1157 L
3395 1317 L
3395 1198 L
3396 1000 L
3396 1257 L
3396 1258 L
3397 1115 L
3397 1060 L
3398 1322 L
3398 1137 L
3398 1293 L
3399 1295 L
3399 1188 L
3399 1077 L
3400 1217 L
3400 1268 L
3400 1104 L
3401 1115 L
3401 1074 L
3401 1095 L
3402 1152 L
3402 1290 L
3402 1044 L
3403 1141 L
3403 1188 L
3403 1262 L
3404 1199 L
3404 1262 L
3404 1224 L
3405 1226 L
3405 1145 L
3405 1027 L
3406 1240 L
3406 1054 L
3406 1066 L
3407 1021 L
3407 1199 L
3407 1058 L
3408 1188 L
3408 1206 L
3408 1040 L
3409 1210 L
3409 1127 L
3409 1166 L
3410 1201 L
3410 1246 L
3410 1232 L
3411 1190 L
3411 1177 L
3411 1329 L
3412 1191 L
3412 1108 L
3412 1247 L
3413 1291 L
3413 1163 L
3413 1003 L
3414 1137 L
3414 1051 L
3414 962 L
3415 1090 L
3415 1009 L
3415 1189 L
3416 1211 L
3416 1065 L
3416 1042 L
3417 1216 L
3417 1010 L
3417 1268 L
3417 1142 L
3418 1084 L
3418 1145 L
3418 1222 L
3419 1164 L
3419 1162 L
3419 993 L
3420 1213 L
3420 1092 L
3420 1126 L
3421 1157 L
3421 1288 L
3421 1054 L
3422 1052 L
3422 982 L
3422 1208 L
3423 1058 L
3423 1034 L
3423 1097 L
3423 1169 L
3424 1165 L
3424 1215 L
3424 1041 L
3425 1093 L
3425 989 L
3425 1048 L
3426 1104 L
3426 1097 L
3426 1181 L
3427 1116 L
3427 1214 L
3427 1255 L
3428 1175 L
3428 1267 L
3428 1168 L
3428 1140 L
3429 976 L
3429 966 L
3429 1183 L
3430 1155 L
3430 1028 L
3430 1086 L
3431 1108 L
3431 1111 L
3431 1212 L
3431 1256 L
3432 1335 L
3432 1344 L
3432 1217 L
3433 1184 L
3433 1127 L
3433 1120 L
3434 1257 L
3434 1308 L
3434 1040 L
3434 1222 L
3435 1230 L
3435 1285 L
3435 1151 L
3436 1322 L
3436 1129 L
3436 1169 L
3437 1242 L
3437 1221 L
3437 1081 L
3437 1223 L
3438 1185 L
3438 1185 L
3438 1113 L
3439 1059 L
3439 1173 L
3439 1157 L
3440 1116 L
3440 1065 L
3440 1283 L
3440 991 L
3441 1176 L
3441 1300 L
3441 1190 L
3442 1147 L
3442 1251 L
3442 1184 L
3442 1069 L
3443 1109 L
3443 1124 L
3443 1244 L
3444 1130 L
3444 1185 L
3444 1033 L
3444 1161 L
3445 1103 L
3445 1120 L
3445 966 L
3446 1212 L
3446 967 L
3446 1195 L
3446 1017 L
3447 1113 L
3447 1250 L
3447 1029 L
3448 967 L
3448 1332 L
3448 1313 L
3448 1077 L
3449 1298 L
3449 1183 L
3449 1069 L
3450 1260 L
3450 1063 L
3450 1240 L
3450 1242 L
3451 1080 L
3451 1162 L
3451 1204 L
3452 1188 L
3452 1224 L
3452 1214 L
3452 1293 L
3453 1022 L
3453 1310 L
3453 1222 L
3454 1200 L
3454 1118 L
3454 1004 L
3454 1090 L
3455 980 L
3455 923 L
3455 1174 L
3455 1339 L
3456 1027 L
3456 1062 L
3456 1143 L
3457 1260 L
3457 1235 L
3457 1069 L
3457 1182 L
3458 1101 L
3458 1159 L
3458 1200 L
3458 1290 L
3459 1155 L
3459 1212 L
3459 1115 L
3460 1061 L
3460 1186 L
3460 1168 L
3460 1058 L
3461 1226 L
3461 1172 L
3461 1060 L
3461 1319 L
3462 1273 L
3462 1181 L
3462 1103 L
3463 1112 L
3463 1246 L
3463 856 L
3463 1121 L
3464 1136 L
3464 1231 L
3464 1198 L
3464 977 L
3465 1027 L
3465 966 L
3465 1156 L
3465 1254 L
3466 1142 L
3466 1062 L
3466 994 L
3466 1157 L
3467 1250 L
3467 1240 L
3467 1174 L
3468 1193 L
3468 987 L
3468 1169 L
3468 1116 L
3469 1293 L
3469 1185 L
3469 1224 L
3469 1169 L
3470 1042 L
3470 1020 L
3470 1149 L
3470 1307 L
3471 1196 L
3471 1033 L
3471 1032 L
3471 1046 L
3472 1128 L
3472 1016 L
3472 1161 L
3472 905 L
3473 1209 L
3473 1102 L
3473 1121 L
3474 1285 L
3474 1260 L
3474 1158 L
3474 1139 L
3475 1359 L
3475 1270 L
3475 1241 L
3475 1246 L
3476 1184 L
3476 1164 L
3476 1320 L
3476 1057 L
3477 1155 L
3477 1135 L
3477 1140 L
3477 1129 L
3478 1164 L
3478 1172 L
3478 1150 L
3478 1151 L
3479 1005 L
3479 1025 L
3479 1230 L
3479 1181 L
3480 1135 L
3480 1165 L
3480 1145 L
3480 1096 L
3481 997 L
3481 1158 L
3481 1281 L
3481 1090 L
3482 1151 L
3482 1248 L
3482 1147 L
3482 1014 L
3483 1021 L
3483 1268 L
3483 1179 L
3483 1110 L
3484 1174 L
3484 1144 L
3484 1114 L
3484 1133 L
3485 963 L
3485 1123 L
3485 1164 L
3485 1426 L
3486 1178 L
3486 1161 L
3486 1151 L
3486 1032 L
3487 1023 L
3487 1259 L
3487 1192 L
3487 1285 L
3488 1110 L
3488 1187 L
3488 953 L
3488 1225 L
3488 1285 L
3489 1198 L
3489 878 L
3489 1068 L
3489 1331 L
3490 1164 L
3490 1229 L
3490 1131 L
3490 1135 L
3491 1135 L
3491 977 L
3491 1179 L
3491 1146 L
3492 1256 L
3492 1005 L
3492 1090 L
3492 1107 L
3493 1106 L
3493 1095 L
3493 1236 L
3493 1198 L
3494 1247 L
3494 1086 L
3494 1176 L
3494 1130 L
3494 1018 L
3495 1203 L
3495 1075 L
3495 1119 L
3495 1048 L
3496 1089 L
3496 993 L
3496 1149 L
3496 1170 L
3497 1197 L
3497 1286 L
3497 1224 L
3497 1050 L
3498 1172 L
3498 1187 L
3498 1207 L
3498 1051 L
3498 1141 L
3499 912 L
3499 1147 L
3499 1170 L
3499 1042 L
3500 1142 L
3500 1292 L
3506 866 L
3511 1140 L
3517 967 L
3522 1138 L
3527 1134 L
3532 1314 L
3537 1010 L
3542 1166 L
3547 1145 L
3552 1270 L
3557 1222 L
3561 1196 L
3566 1171 L
3570 1259 L
3575 1079 L
3579 1204 L
3583 1166 L
3587 1120 L
3591 1072 L
3595 1023 L
3599 1022 L
3603 1301 L
3607 1159 L
3611 1228 L
3614 1234 L
3618 925 L
3622 1060 L
3625 1141 L
3629 1180 L
3632 1209 L
3636 1076 L
3639 1136 L
3642 1212 L
3646 1065 L
3649 1099 L
3652 1184 L
3655 1111 L
3658 1023 L
3661 1150 L
3664 1044 L
3667 1359 L
3670 1187 L
3673 1013 L
3676 1182 L
3679 1246 L
3682 1095 L
3685 1175 L
3688 998 L
3690 1104 L
3693 1108 L
3696 1264 L
3698 1005 L
3701 1004 L
3704 1355 L
3706 1165 L
3709 1230 L
3711 1241 L
3714 1164 L
3716 1045 L
3719 973 L
3721 1346 L
3724 936 L
3726 1081 L
3728 1158 L
3731 1124 L
3733 1008 L
3735 1315 L
3738 1011 L
3740 1048 L
3742 1070 L
3744 1179 L
3747 1249 L
3749 1048 L
3751 1066 L
3753 1127 L
3755 1042 L
3757 1086 L
3760 1228 L
3762 1060 L
3764 1099 L
3766 1050 L
3768 1127 L
3770 1011 L
3772 1031 L
3774 1172 L
3776 1238 L
3778 1112 L
3780 1058 L
3781 1146 L
3783 1107 L
3785 1095 L
3787 1167 L
3789 1120 L
3791 1119 L
3793 1038 L
3795 1110 L
3796 1059 L
3798 987 L
3800 1169 L
3802 1174 L
3803 1138 L
3805 1072 L
3807 1013 L
3809 1178 L
3810 1095 L
3812 1149 L
3814 1141 L
3816 1100 L
3817 1144 L
3819 1108 L
3820 869 L
3822 1085 L
3824 1196 L
3825 1230 L
3827 1139 L
3829 1078 L
3830 1169 L
3832 1157 L
3833 1121 L
3835 1185 L
3836 1214 L
3838 1354 L
3839 1189 L
3841 1272 L
3842 1103 L
3844 1208 L
3845 1204 L
3847 1215 L
3848 1178 L
3850 1021 L
3851 1034 L
3853 1187 L
3854 993 L
3856 1136 L
3857 1206 L
3859 1143 L
3860 1136 L
3861 1359 L
3863 976 L
3864 1086 L
3866 1050 L
3867 1045 L
3868 1121 L
3870 1104 L
3871 1277 L
3872 1191 L
3874 1128 L
3875 1172 L
3876 1290 L
3878 1399 L
3879 1053 L
3880 1197 L
3882 1173 L
3883 1078 L
3884 1206 L
3885 1128 L
3887 1176 L
3888 1086 L
3889 1047 L
3890 1124 L
3892 1091 L
3893 1171 L
3894 1307 L
3895 1207 L
3897 1052 L
3898 1249 L
3899 795 L
3900 1017 L
3901 1090 L
3903 1261 L
3904 1134 L
3905 961 L
3906 1073 L
3907 1098 L
3908 1182 L
3910 1281 L
3911 1069 L
3912 1362 L
3913 1175 L
3914 1031 L
3915 1052 L
3917 1200 L
3918 1283 L
3919 1158 L
3920 1102 L
3921 1205 L
3922 1066 L
3923 1163 L
3924 1229 L
3925 1148 L
3926 1189 L
3928 1220 L
3929 1260 L
3930 1010 L
3931 1287 L
3932 1310 L
3933 1172 L
3934 985 L
3935 1300 L
3936 1332 L
3937 1118 L
3938 1095 L
3939 1343 L
3940 1222 L
3941 1051 L
3942 1082 L
3943 1086 L
3944 1213 L
3945 963 L
3946 1042 L
3947 1131 L
3948 1016 L
3949 985 L
3950 1140 L
3951 1086 L
3952 897 L
3953 1099 L
3954 1093 L
3955 1015 L
3956 1203 L
3957 1014 L
3958 1095 L
3959 1145 L
3960 1118 L
3961 1122 L
3962 1226 L
3963 996 L
3964 1156 L
3965 1048 L
3966 1237 L
3966 1084 L
3967 1064 L
3968 1298 L
3969 933 L
3970 1196 L
3971 977 L
3972 1208 L
3973 1011 L
3974 1079 L
3975 1112 L
3976 1297 L
3976 1055 L
3977 1135 L
3978 1193 L
3979 1122 L
3980 1034 L
3981 1291 L
3982 1072 L
3983 1118 L
3983 1108 L
3984 1164 L
3985 1248 L
3986 1205 L
3987 1144 L
3988 1117 L
3989 1129 L
3989 1166 L
3990 991 L
3991 1165 L
3992 1127 L
3993 1253 L
3994 1015 L
3995 1031 L
3995 1185 L
3996 1013 L
3997 1022 L
3998 1109 L
3999 1078 L
3999 1045 L
4000 1072 L
4001 1129 L
4002 1018 L
4003 1200 L
4003 1115 L
4004 1354 L
4005 1144 L
4006 980 L
4007 1342 L
4007 1124 L
4008 1077 L
4009 1079 L
4010 1199 L
4011 1003 L
4011 1228 L
4012 1141 L
4013 1090 L
4014 1049 L
4014 1219 L
4015 1243 L
4016 991 L
4017 957 L
4017 1134 L
4018 1037 L
4019 1254 L
4020 1011 L
4021 1071 L
4021 1121 L
4022 1063 L
4023 1117 L
4023 1128 L
4024 1216 L
4025 1120 L
4026 1033 L
4026 1199 L
4027 1065 L
4028 1093 L
4029 1024 L
4029 1100 L
4030 1177 L
4031 1093 L
4032 1085 L
4032 1231 L
4033 1388 L
4034 1132 L
4034 1049 L
4035 1213 L
4036 899 L
4036 1098 L
4037 1153 L
4038 1137 L
4039 1186 L
4039 975 L
4040 1135 L
4041 1085 L
4041 1219 L
4042 1176 L
4043 1051 L
4043 1056 L
4044 1200 L
4045 1020 L
4045 1184 L
4046 1190 L
4047 1113 L
4047 1005 L
4048 1342 L
4049 1067 L
4050 1104 L
4050 1124 L
4051 1291 L
4052 1063 L
4052 1138 L
4053 1078 L
4053 1181 L
4054 1239 L
4055 1097 L
4055 842 L
4056 1155 L
4057 1193 L
4057 1137 L
4058 1190 L
4059 1071 L
4059 1264 L
4060 1132 L
4061 956 L
4061 1015 L
4062 1172 L
L2 C06 COSGR

%
% Main frame
%
L10
GSN 
620 1700 M
4220 1700 L
4220 5300 L
620 5300 L
closepath SGR

%
% X axis: large tics
%
L10
GSN 1130 1700 M 0  54 rL SGR
GSN 1130 5300 M 0 -54 rL SGR
helvS (0.0001) 1130 470 xlabel
GSN 1716 1700 M 0  54 rL SGR
GSN 1716 5300 M 0 -54 rL SGR
helvS (0.001) 1716 470 xlabel
GSN 2303 1700 M 0  54 rL SGR
GSN 2303 5300 M 0 -54 rL SGR
helvS (0.01) 2303 470 xlabel
GSN 2889 1700 M 0  54 rL SGR
GSN 2889 5300 M 0 -54 rL SGR
helvS (0.1) 2889 470 xlabel
GSN 3476 1700 M 0  54 rL SGR
GSN 3476 5300 M 0 -54 rL SGR
helvS (1) 3476 470 xlabel
GSN 4062 1700 M 0  54 rL SGR
GSN 4062 5300 M 0 -54 rL SGR
helvS (10) 4062 470 xlabel
%
% X axis: small tics
%
L5
GSN 720 1700 M 0  36 rL SGR
GSN 720 5300 M 0 -36 rL SGR
GSN 824 1700 M 0  36 rL SGR
GSN 824 5300 M 0 -36 rL SGR
GSN 897 1700 M 0  36 rL SGR
GSN 897 5300 M 0 -36 rL SGR
GSN 954 1700 M 0  36 rL SGR
GSN 954 5300 M 0 -36 rL SGR
GSN 1000 1700 M 0  36 rL SGR
GSN 1000 5300 M 0 -36 rL SGR
GSN 1039 1700 M 0  36 rL SGR
GSN 1039 5300 M 0 -36 rL SGR
GSN 1073 1700 M 0  36 rL SGR
GSN 1073 5300 M 0 -36 rL SGR
GSN 1103 1700 M 0  36 rL SGR
GSN 1103 5300 M 0 -36 rL SGR
GSN 1307 1700 M 0  36 rL SGR
GSN 1307 5300 M 0 -36 rL SGR
GSN 1410 1700 M 0  36 rL SGR
GSN 1410 5300 M 0 -36 rL SGR
GSN 1483 1700 M 0  36 rL SGR
GSN 1483 5300 M 0 -36 rL SGR
GSN 1540 1700 M 0  36 rL SGR
GSN 1540 5300 M 0 -36 rL SGR
GSN 1586 1700 M 0  36 rL SGR
GSN 1586 5300 M 0 -36 rL SGR
GSN 1626 1700 M 0  36 rL SGR
GSN 1626 5300 M 0 -36 rL SGR
GSN 1660 1700 M 0  36 rL SGR
GSN 1660 5300 M 0 -36 rL SGR
GSN 1690 1700 M 0  36 rL SGR
GSN 1690 5300 M 0 -36 rL SGR
GSN 1893 1700 M 0  36 rL SGR
GSN 1893 5300 M 0 -36 rL SGR
GSN 1996 1700 M 0  36 rL SGR
GSN 1996 5300 M 0 -36 rL SGR
GSN 2069 1700 M 0  36 rL SGR
GSN 2069 5300 M 0 -36 rL SGR
GSN 2126 1700 M 0  36 rL SGR
GSN 2126 5300 M 0 -36 rL SGR
GSN 2173 1700 M 0  36 rL SGR
GSN 2173 5300 M 0 -36 rL SGR
GSN 2212 1700 M 0  36 rL SGR
GSN 2212 5300 M 0 -36 rL SGR
GSN 2246 1700 M 0  36 rL SGR
GSN 2246 5300 M 0 -36 rL SGR
GSN 2276 1700 M 0  36 rL SGR
GSN 2276 5300 M 0 -36 rL SGR
GSN 2479 1700 M 0  36 rL SGR
GSN 2479 5300 M 0 -36 rL SGR
GSN 2583 1700 M 0  36 rL SGR
GSN 2583 5300 M 0 -36 rL SGR
GSN 2656 1700 M 0  36 rL SGR
GSN 2656 5300 M 0 -36 rL SGR
GSN 2713 1700 M 0  36 rL SGR
GSN 2713 5300 M 0 -36 rL SGR
GSN 2759 1700 M 0  36 rL SGR
GSN 2759 5300 M 0 -36 rL SGR
GSN 2798 1700 M 0  36 rL SGR
GSN 2798 5300 M 0 -36 rL SGR
GSN 2832 1700 M 0  36 rL SGR
GSN 2832 5300 M 0 -36 rL SGR
GSN 2862 1700 M 0  36 rL SGR
GSN 2862 5300 M 0 -36 rL SGR
GSN 3066 1700 M 0  36 rL SGR
GSN 3066 5300 M 0 -36 rL SGR
GSN 3169 1700 M 0  36 rL SGR
GSN 3169 5300 M 0 -36 rL SGR
GSN 3242 1700 M 0  36 rL SGR
GSN 3242 5300 M 0 -36 rL SGR
GSN 3299 1700 M 0  36 rL SGR
GSN 3299 5300 M 0 -36 rL SGR
GSN 3345 1700 M 0  36 rL SGR
GSN 3345 5300 M 0 -36 rL SGR
GSN 3385 1700 M 0  36 rL SGR
GSN 3385 5300 M 0 -36 rL SGR
GSN 3419 1700 M 0  36 rL SGR
GSN 3419 5300 M 0 -36 rL SGR
GSN 3449 1700 M 0  36 rL SGR
GSN 3449 5300 M 0 -36 rL SGR
GSN 3652 1700 M 0  36 rL SGR
GSN 3652 5300 M 0 -36 rL SGR
GSN 3755 1700 M 0  36 rL SGR
GSN 3755 5300 M 0 -36 rL SGR
GSN 3829 1700 M 0  36 rL SGR
GSN 3829 5300 M 0 -36 rL SGR
GSN 3885 1700 M 0  36 rL SGR
GSN 3885 5300 M 0 -36 rL SGR
GSN 3932 1700 M 0  36 rL SGR
GSN 3932 5300 M 0 -36 rL SGR
GSN 3971 1700 M 0  36 rL SGR
GSN 3971 5300 M 0 -36 rL SGR
GSN 4005 1700 M 0  36 rL SGR
GSN 4005 5300 M 0 -36 rL SGR
GSN 4035 1700 M 0  36 rL SGR
GSN 4035 5300 M 0 -36 rL SGR
%
% Y axis: large tics
%
L10
GSN 620 2335 M 54 0 rL SGR
GSN 4220 2335 M -54 0 rL SGR
helvS (0.92) 560 2335 ylabel
GSN 620 3107 M 54 0 rL SGR
GSN 4220 3107 M -54 0 rL SGR
helvS (0.94) 560 3107 ylabel
GSN 620 3879 M 54 0 rL SGR
GSN 4220 3879 M -54 0 rL SGR
helvS (0.96) 560 3879 ylabel
GSN 620 4651 M 54 0 rL SGR
GSN 4220 4651 M -54 0 rL SGR
helvS (0.98) 560 4651 ylabel
%
% Y axis: small tics
%
L5
GSN 620 1756 M 36 0 rL SGR
GSN 4220 1756 M -36 0 rL SGR
GSN 620 1949 M 36 0 rL SGR
GSN 4220 1949 M -36 0 rL SGR
GSN 620 2142 M 36 0 rL SGR
GSN 4220 2142 M -36 0 rL SGR
GSN 620 2335 M 36 0 rL SGR
GSN 4220 2335 M -36 0 rL SGR
GSN 620 2528 M 36 0 rL SGR
GSN 4220 2528 M -36 0 rL SGR
GSN 620 2721 M 36 0 rL SGR
GSN 4220 2721 M -36 0 rL SGR
GSN 620 2914 M 36 0 rL SGR
GSN 4220 2914 M -36 0 rL SGR
GSN 620 3107 M 36 0 rL SGR
GSN 4220 3107 M -36 0 rL SGR
GSN 620 3300 M 36 0 rL SGR
GSN 4220 3300 M -36 0 rL SGR
GSN 620 3493 M 36 0 rL SGR
GSN 4220 3493 M -36 0 rL SGR
GSN 620 3686 M 36 0 rL SGR
GSN 4220 3686 M -36 0 rL SGR
GSN 620 3879 M 36 0 rL SGR
GSN 4220 3879 M -36 0 rL SGR
GSN 620 4072 M 36 0 rL SGR
GSN 4220 4072 M -36 0 rL SGR
GSN 620 4265 M 36 0 rL SGR
GSN 4220 4265 M -36 0 rL SGR
GSN 620 4458 M 36 0 rL SGR
GSN 4220 4458 M -36 0 rL SGR
GSN 620 4651 M 36 0 rL SGR
GSN 4220 4651 M -36 0 rL SGR
GSN 620 4844 M 36 0 rL SGR
GSN 4220 4844 M -36 0 rL SGR
GSN 620 5037 M 36 0 rL SGR
GSN 4220 5037 M -36 0 rL SGR
GSN 620 5230 M 36 0 rL SGR
GSN 4220 5230 M -36 0 rL SGR

%
% X-Axis label:
%
gsave 2420 290 M 
[
[(Helvetica) 180 0 true true 0 (t)]
[(Helvetica) 180 0 true true 0 (i)]
[(Helvetica) 180 0 true true 0 (m)]
[(Helvetica) 180 0 true true 0 (e)]
] 0 MCshow grestore

%
% Y-Axis label:
%
gsave 234 3500 M 
currentpoint gsave translate 90 rotate 0 0 moveto
[
[(Helvetica) 180 0 true true 0 (s)]
[(Helvetica) 180 0 true true 0 (i)]
[(Helvetica) 180 0 true true 0 (g)]
[(Helvetica) 180 0 true true 0 (n)]
[(Helvetica) 180 0 true true 0 (a)]
[(Helvetica) 180 0 true true 0 (l)]
] 0 MCshow grestore

%
% Residuals:
%
gsave 129 1160 M 
currentpoint gsave translate 90 rotate 0 0 moveto
[
[(Helvetica) 150 0 true true 0 (r)]
[(Helvetica) 150 0 true true 0 (e)]
[(Helvetica) 150 0 true true 0 (s)]
[(Helvetica) 150 0 true true 0 (i)]
[(Helvetica) 150 0 true true 0 (d)]
[(Helvetica) 150 0 true true 0 (u)]
[(Helvetica) 150 0 true true 0 (a)]
[(Helvetica) 150 0 true true 0 (l)]
[(Helvetica) 150 0 true true 0 (s)]
] 0 MCshow grestore

%
% Residual frame
%
L10
GSN 
620 620 M
4220 620 L
4220 1700 L
620 1700 L
closepath SGR
%
% X axis: large tics - residual frame
%
L10
GSN 1130 620 M 0  54 rL SGR
GSN 1130 1700 M 0 -54 rL SGR
GSN 1716 620 M 0  54 rL SGR
GSN 1716 1700 M 0 -54 rL SGR
GSN 2303 620 M 0  54 rL SGR
GSN 2303 1700 M 0 -54 rL SGR
GSN 2889 620 M 0  54 rL SGR
GSN 2889 1700 M 0 -54 rL SGR
GSN 3476 620 M 0  54 rL SGR
GSN 3476 1700 M 0 -54 rL SGR
GSN 4062 620 M 0  54 rL SGR
GSN 4062 1700 M 0 -54 rL SGR
%
% X axis: small tics - residual frame
%
L5
GSN 720 620 M 0  36 rL SGR
GSN 720 1700 M 0 -36 rL SGR
GSN 824 620 M 0  36 rL SGR
GSN 824 1700 M 0 -36 rL SGR
GSN 897 620 M 0  36 rL SGR
GSN 897 1700 M 0 -36 rL SGR
GSN 954 620 M 0  36 rL SGR
GSN 954 1700 M 0 -36 rL SGR
GSN 1000 620 M 0  36 rL SGR
GSN 1000 1700 M 0 -36 rL SGR
GSN 1039 620 M 0  36 rL SGR
GSN 1039 1700 M 0 -36 rL SGR
GSN 1073 620 M 0  36 rL SGR
GSN 1073 1700 M 0 -36 rL SGR
GSN 1103 620 M 0  36 rL SGR
GSN 1103 1700 M 0 -36 rL SGR
GSN 1307 620 M 0  36 rL SGR
GSN 1307 1700 M 0 -36 rL SGR
GSN 1410 620 M 0  36 rL SGR
GSN 1410 1700 M 0 -36 rL SGR
GSN 1483 620 M 0  36 rL SGR
GSN 1483 1700 M 0 -36 rL SGR
GSN 1540 620 M 0  36 rL SGR
GSN 1540 1700 M 0 -36 rL SGR
GSN 1586 620 M 0  36 rL SGR
GSN 1586 1700 M 0 -36 rL SGR
GSN 1626 620 M 0  36 rL SGR
GSN 1626 1700 M 0 -36 rL SGR
GSN 1660 620 M 0  36 rL SGR
GSN 1660 1700 M 0 -36 rL SGR
GSN 1690 620 M 0  36 rL SGR
GSN 1690 1700 M 0 -36 rL SGR
GSN 1893 620 M 0  36 rL SGR
GSN 1893 1700 M 0 -36 rL SGR
GSN 1996 620 M 0  36 rL SGR
GSN 1996 1700 M 0 -36 rL SGR
GSN 2069 620 M 0  36 rL SGR
GSN 2069 1700 M 0 -36 rL SGR
GSN 2126 620 M 0  36 rL SGR
GSN 2126 1700 M 0 -36 rL SGR
GSN 2173 620 M 0  36 rL SGR
GSN 2173 1700 M 0 -36 rL SGR
GSN 2212 620 M 0  36 rL SGR
GSN 2212 1700 M 0 -36 rL SGR
GSN 2246 620 M 0  36 rL SGR
GSN 2246 1700 M 0 -36 rL SGR
GSN 2276 620 M 0  36 rL SGR
GSN 2276 1700 M 0 -36 rL SGR
GSN 2479 620 M 0  36 rL SGR
GSN 2479 1700 M 0 -36 rL SGR
GSN 2583 620 M 0  36 rL SGR
GSN 2583 1700 M 0 -36 rL SGR
GSN 2656 620 M 0  36 rL SGR
GSN 2656 1700 M 0 -36 rL SGR
GSN 2713 620 M 0  36 rL SGR
GSN 2713 1700 M 0 -36 rL SGR
GSN 2759 620 M 0  36 rL SGR
GSN 2759 1700 M 0 -36 rL SGR
GSN 2798 620 M 0  36 rL SGR
GSN 2798 1700 M 0 -36 rL SGR
GSN 2832 620 M 0  36 rL SGR
GSN 2832 1700 M 0 -36 rL SGR
GSN 2862 620 M 0  36 rL SGR
GSN 2862 1700 M 0 -36 rL SGR
GSN 3066 620 M 0  36 rL SGR
GSN 3066 1700 M 0 -36 rL SGR
GSN 3169 620 M 0  36 rL SGR
GSN 3169 1700 M 0 -36 rL SGR
GSN 3242 620 M 0  36 rL SGR
GSN 3242 1700 M 0 -36 rL SGR
GSN 3299 620 M 0  36 rL SGR
GSN 3299 1700 M 0 -36 rL SGR
GSN 3345 620 M 0  36 rL SGR
GSN 3345 1700 M 0 -36 rL SGR
GSN 3385 620 M 0  36 rL SGR
GSN 3385 1700 M 0 -36 rL SGR
GSN 3419 620 M 0  36 rL SGR
GSN 3419 1700 M 0 -36 rL SGR
GSN 3449 620 M 0  36 rL SGR
GSN 3449 1700 M 0 -36 rL SGR
GSN 3652 620 M 0  36 rL SGR
GSN 3652 1700 M 0 -36 rL SGR
GSN 3755 620 M 0  36 rL SGR
GSN 3755 1700 M 0 -36 rL SGR
GSN 3829 620 M 0  36 rL SGR
GSN 3829 1700 M 0 -36 rL SGR
GSN 3885 620 M 0  36 rL SGR
GSN 3885 1700 M 0 -36 rL SGR
GSN 3932 620 M 0  36 rL SGR
GSN 3932 1700 M 0 -36 rL SGR
GSN 3971 620 M 0  36 rL SGR
GSN 3971 1700 M 0 -36 rL SGR
GSN 4005 620 M 0  36 rL SGR
GSN 4005 1700 M 0 -36 rL SGR
GSN 4035 620 M 0  36 rL SGR
GSN 4035 1700 M 0 -36 rL SGR
%
% Y axis: large tics - residual frame
%
L10
GSN 620 773 M 54 0 rL SGR
GSN 4220 773 M -54 0 rL SGR
helvS (-0.01) 560 773 ylabelresid
GSN 620 1136 M 54 0 rL SGR
GSN 4220 1136 M -54 0 rL SGR
helvS (0) 560 1136 ylabelresid
GSN 620 1499 M 54 0 rL SGR
GSN 4220 1499 M -54 0 rL SGR
helvS (0.01) 560 1499 ylabelresid

%
% X axis - residual panel
%
GSN L5 620 1136 M 4220 1136 L SDA G50 SGR

end
showpage
%%Trailer
%%EOF
