%!PS-Adobe-3.0 EPSF-3.0
%%BoundingBox: 0 0 514 550
%%Creator: BioKin Ltd.
%%DocumentFonts: Symbol Helvetica
%%EndComments
%
/bkdict 256 dict def
bkdict begin
/M {moveto} def 
/R {rmoveto} def
/L {lineto} def
/rL {rlineto} def
/GSN {gsave newpath} def
/SGR {stroke grestore} def
/COSGR {gsave setrgbcolor stroke grestore grestore} def
/SL {setlinewidth} def
/LWMB {12} def             % line width - model curves, black & white
/LWMC {10} def             % line width - model curves, color
/L2 {2.5 setlinewidth} def
/L5 {5 setlinewidth} def
/L10 {10 setlinewidth} def
/G50 {0.5 setgray} def
/SDA {[10  20] 0 setdash} def % axes
/helvT {/Helvetica findfont 100 scalefont setfont} def % tiny
/helvS {/Helvetica findfont 125 scalefont setfont} def % small
/helvM {/Helvetica findfont 150 scalefont setfont} def % medium
/helvL {/Helvetica findfont 175 scalefont setfont} def % large
/xlabel {gsave M dup
   stringwidth exch -0.5 mul exch rmoveto show grestore} def 
/ylabel {gsave M 90 rotate dup
   stringwidth exch -0.5 mul exch rmoveto show grestore} def
/ylabelresid {gsave M dup
   stringwidth exch -1 mul exch rmoveto show grestore} def
% ======
% Shapes
% ======
% Circle:
/Circ {0 360 arc closepath} def
%
% Square:
/Squa {dup dup -0.5 mul dup dup R -2 mul 0 exch rL 1 mul 0 rL dup 0 exch -1 mul rL closepath} def
%
% Triangle Up:
/TriU {dup dup dup -0.4 mul exch -0.5 mul exch R dup 0.5 mul exch rL dup -1 mul exch 0.5 mul exch rL closepath} def 
%
% Triangle Down:
/TriD {dup dup dup 0.4 mul exch -0.5 mul exch R dup 0.5 mul exch -1 mul rL dup 0.5 mul exch rL closepath} def 
%
% Diamond:
/Diam {45 rotate Squa} def
% ======
% Fills
% ======
/GRF {gsave setgray fill grestore} def                    % gray-level Fill
/COF {gsave setrgbcolor fill grestore} def                % color fill
% ======
% Colors
% ======
/C01 {1.00	0.00	0.00} def      % Red
/C02 {0.00	0.00	1.00} def      % Blue
/C03 {0.00	0.39	0.00} def      % Dark Green
/C04 {0.78	0.08	0.52} def      % Medium Violet Red
/C05 {0.55	0.27	0.07} def      % Saddle Brown
/C06 {0.10	0.70	0.70} def      % (cyan)
/C07 {1.00	0.55	0.00} def      % Dark Orange
/C08 {0.63	0.13	0.94} def      % Purple
/C09 {0.00	0.75	1.00} def      % Deep Sky Blue
/C10 {0.20	0.80	0.20} def      % Lime Green
/C11 {0.47	0.53	0.60} def      % Light Slate Gray
/C12 {0.00	0.00	0.00} def      % Black            % or: {0.19	0.31	0.31} def      % Dark Slate Gray
%
/LGR {0.75} def % light gray
/DGR {0.33} def % dark gray
%
% =============
% Dash patterns
% =============
/dash01 { [80  20] 0 setdash } def
/dash02 { [40  20] 0 setdash } def
/dash03 { [80  20  10  20] 0 setdash } def
/dash04 { [40  20  10  20] 0 setdash } def
/dash05 { [80  20  10  10  10  20] 0 setdash } def
/dash06 { [40  20  10  10  10  20] 0 setdash } def
/dash07 { [10  10] 0 setdash } def
%
/MFshow {
   { dup 5 get 3 ge
     { 5 get 3 eq {gsave} {grestore} ifelse }
     {dup dup 0 get findfont exch 1 get scalefont setfont
     [ currentpoint ] exch dup 2 get 0 exch R dup 5 get 2 ne {dup dup 6
     get exch 4 get {show} {stringwidth pop 0 R} ifelse }if dup 5 get 0 eq
     {dup 3 get {2 get neg 0 exch R pop} {pop aload pop M} ifelse} {dup 5
     get 1 eq {dup 2 get exch dup 3 get exch 6 get stringwidth pop -2 div
     dup 0 R} {dup 6 get stringwidth pop -2 div 0 R 6 get
     show 2 index {aload pop M neg 3 -1 roll neg R pop pop} {pop pop pop
     pop aload pop M} ifelse }ifelse }ifelse }
     ifelse }
   forall} bind def
/MFwidth {0 exch {dup 3 get{dup dup 0 get findfont exch 1 get scalefont
     setfont 6 get stringwidth pop add} {pop} ifelse} forall} bind def
/MCshow { currentpoint stroke M
  exch dup MFwidth -2 div 3 -1 roll R MFshow } def
%
end
%%EndProlog
bkdict begin
0.1 0.1 scale
%
% Residuals:
%
GSN 620 4863 M
620 3963 L
620 3724 L
620 3778 L
620 3926 L
620 3254 L
620 4252 L
620 3860 L
620 3971 L
620 3846 L
620 3331 L
620 4002 L
620 3603 L
620 3520 L
620 3835 L
620 3594 L
620 3564 L
620 3956 L
620 3411 L
620 3919 L
620 4123 L
620 3898 L
620 4309 L
620 3817 L
620 4244 L
620 4447 L
620 3831 L
620 4163 L
620 4163 L
620 4488 L
620 3967 L
620 3680 L
620 4677 L
620 3980 L
620 4458 L
620 4269 L
620 4181 L
620 4275 L
620 4225 L
620 4164 L
620 3814 L
620 4405 L
620 4193 L
620 4220 L
620 4265 L
620 4025 L
620 4368 L
620 3896 L
620 3956 L
620 4174 L
620 4215 L
620 3873 L
620 3754 L
620 3704 L
620 4363 L
620 4066 L
620 4374 L
620 4072 L
620 4329 L
620 4405 L
620 4066 L
620 4441 L
620 4447 L
620 4674 L
620 4213 L
620 3982 L
620 4012 L
620 4135 L
620 3595 L
620 4270 L
620 4176 L
620 4000 L
620 4745 L
620 3814 L
620 4165 L
620 4547 L
620 3773 L
620 3746 L
620 4294 L
620 4117 L
620 4121 L
620 4054 L
620 4187 L
620 4470 L
620 4060 L
620 3816 L
620 4209 L
620 3711 L
620 3878 L
620 3932 L
620 4311 L
620 3697 L
620 4210 L
620 3937 L
620 3710 L
620 3779 L
620 3632 L
620 3603 L
620 3897 L
620 3631 L
620 4100 L
620 3696 L
620 3891 L
620 3462 L
620 3827 L
620 3439 L
620 3699 L
620 3559 L
620 3910 L
620 3785 L
620 3816 L
620 3511 L
620 3245 L
620 3150 L
620 3528 L
620 3453 L
620 3585 L
620 3936 L
620 3715 L
620 3491 L
620 3480 L
620 3376 L
620 3511 L
620 3212 L
620 3612 L
620 3473 L
620 3134 L
620 3246 L
620 3389 L
620 3388 L
620 3294 L
620 3542 L
620 3308 L
620 3595 L
620 2940 L
620 3616 L
620 3081 L
620 3917 L
620 3508 L
620 3672 L
620 3498 L
620 2973 L
620 3598 L
620 3591 L
620 3531 L
620 3370 L
620 3671 L
620 3038 L
620 3315 L
620 3179 L
620 3524 L
620 3307 L
620 3429 L
620 3310 L
620 3033 L
620 3862 L
620 3374 L
620 3280 L
620 3583 L
620 2850 L
620 3562 L
620 3671 L
620 3471 L
620 3342 L
620 3488 L
620 3318 L
620 3360 L
620 3306 L
620 3447 L
620 3547 L
620 3488 L
620 3226 L
620 3460 L
620 3692 L
620 3515 L
620 3277 L
620 3505 L
620 3147 L
620 3589 L
620 3515 L
620 3285 L
620 3736 L
620 3391 L
620 3484 L
620 3309 L
620 3171 L
620 3258 L
620 3370 L
620 3217 L
620 4101 L
620 3654 L
620 3299 L
620 3671 L
620 3126 L
620 3708 L
620 3775 L
620 3823 L
620 3572 L
620 3456 L
620 3536 L
620 3341 L
620 3373 L
620 3721 L
620 3523 L
620 3541 L
620 3488 L
620 3780 L
620 3585 L
620 3337 L
620 3521 L
620 3222 L
620 3840 L
620 2884 L
620 3619 L
620 3374 L
620 3700 L
620 3463 L
620 3423 L
620 3523 L
620 3531 L
620 3653 L
620 3790 L
620 3216 L
620 3446 L
620 3395 L
620 3574 L
620 3158 L
620 3662 L
620 3564 L
620 3290 L
620 3654 L
620 3344 L
620 3570 L
620 3370 L
620 3346 L
620 3595 L
620 3689 L
620 3781 L
620 3319 L
620 3572 L
620 3752 L
620 3422 L
620 3740 L
620 3400 L
620 2989 L
620 3569 L
620 3721 L
620 3575 L
620 3269 L
620 3336 L
620 3934 L
620 3427 L
620 3485 L
620 3652 L
620 3972 L
620 3173 L
620 3122 L
620 3496 L
620 3784 L
620 4067 L
620 3558 L
620 3406 L
620 3853 L
620 3496 L
620 3646 L
620 3272 L
620 3459 L
620 2972 L
620 3409 L
620 3238 L
620 3916 L
620 3740 L
620 4087 L
620 3343 L
620 3414 L
620 3863 L
620 3710 L
620 3732 L
620 3336 L
620 3079 L
620 3502 L
620 3774 L
620 2870 L
620 4049 L
620 3643 L
620 3743 L
620 3506 L
620 3808 L
620 3570 L
620 3143 L
620 3075 L
620 3586 L
620 3559 L
620 3482 L
620 3571 L
620 3470 L
620 3898 L
620 3539 L
620 3250 L
620 3767 L
620 3559 L
620 3869 L
620 4048 L
620 3590 L
620 3365 L
620 3457 L
620 3565 L
620 3722 L
620 3230 L
620 3071 L
620 3621 L
620 3529 L
620 4101 L
620 3795 L
620 3634 L
620 3508 L
620 3559 L
620 3718 L
620 4172 L
620 3856 L
620 3933 L
620 3744 L
620 3310 L
620 3781 L
620 3740 L
620 3374 L
620 3608 L
620 3935 L
620 3755 L
620 3495 L
620 4069 L
620 3447 L
620 3609 L
620 3656 L
620 4150 L
620 3232 L
620 3682 L
620 3608 L
620 3538 L
620 3557 L
620 3522 L
620 3404 L
620 3333 L
620 3645 L
620 3694 L
620 4049 L
620 3043 L
620 3731 L
620 3740 L
620 3594 L
620 3675 L
620 3632 L
620 3651 L
620 3905 L
620 3452 L
620 3839 L
620 3310 L
620 3355 L
620 3318 L
620 3172 L
620 3508 L
620 3323 L
620 3205 L
620 3321 L
620 3967 L
620 3179 L
620 3488 L
620 3288 L
620 3224 L
620 3323 L
620 3970 L
620 3054 L
620 3157 L
620 3047 L
620 3219 L
620 3043 L
620 3009 L
620 3007 L
620 3136 L
620 3277 L
620 2729 L
620 3232 L
620 2964 L
620 3449 L
620 3359 L
620 3056 L
620 3222 L
620 2824 L
620 2803 L
620 3054 L
620 2893 L
620 3222 L
620 2910 L
620 3342 L
620 2934 L
620 3151 L
620 3462 L
620 2852 L
620 2942 L
620 3035 L
620 2699 L
620 2702 L
620 3297 L
620 3241 L
620 2323 L
620 2904 L
620 3406 L
620 2897 L
620 3219 L
620 3323 L
620 3327 L
620 2659 L
620 3321 L
620 2730 L
620 3260 L
620 2646 L
620 2689 L
620 2630 L
620 2955 L
620 3084 L
620 3273 L
620 2940 L
620 2987 L
620 3004 L
620 2942 L
620 2979 L
620 3114 L
620 2818 L
620 2869 L
620 3234 L
620 2280 L
620 2400 L
620 2960 L
620 2912 L
620 2959 L
620 3164 L
620 2650 L
620 3161 L
620 3024 L
620 2693 L
620 3256 L
620 3198 L
620 2904 L
620 3133 L
620 2848 L
620 2957 L
620 2824 L
620 3000 L
620 3170 L
620 3002 L
620 2813 L
620 2213 L
620 3101 L
620 3226 L
620 3099 L
620 2519 L
620 2555 L
620 2904 L
620 3202 L
620 2697 L
620 2572 L
620 3176 L
620 3024 L
620 2815 L
620 2542 L
620 2529 L
620 2863 L
620 2736 L
620 2596 L
620 2620 L
620 2347 L
620 2880 L
620 2426 L
620 2800 L
620 2807 L
620 3071 L
620 2644 L
620 2678 L
620 3101 L
620 2987 L
620 2702 L
620 2370 L
620 2547 L
620 2723 L
620 2749 L
620 2450 L
620 2848 L
620 2882 L
620 2880 L
620 2841 L
620 2914 L
620 2149 L
620 2639 L
620 2357 L
620 2721 L
620 2899 L
620 2293 L
620 3301 L
620 2702 L
620 3028 L
620 2873 L
620 2274 L
620 2379 L
620 2394 L
620 2860 L
620 2403 L
620 2136 L
620 2981 L
620 2482 L
620 2540 L
620 2680 L
620 2336 L
620 2435 L
620 2975 L
620 2441 L
620 2841 L
620 2536 L
620 2618 L
620 3131 L
620 2747 L
620 2947 L
620 2196 L
620 2579 L
620 2678 L
620 2897 L
620 2439 L
620 2542 L
620 2774 L
620 2213 L
620 2712 L
620 2622 L
620 2740 L
620 3058 L
L2 C07 COSGR

%
%================
% Legend - Begin
%================
%
GSN 4240 5180 M
4480 5180 L
LWMC SL  C07 COSGR
GSN 4540 5141 M helvM (4.0 uM) show grestore
%
%================
% Legend - End
%================
%

%
% Main frame
%
L10
GSN 
620 1700 M
4220 1700 L
4220 5300 L
620 5300 L
closepath SGR

%
% X axis: large tics
%
L10
%
% X axis: small tics
%
L5
%
% Y axis: large tics
%
L10
GSN 620 2435 M 54 0 rL SGR
GSN 4220 2435 M -54 0 rL SGR
helvS (-0.01) 560 2435 ylabel
GSN 620 3416 M 54 0 rL SGR
GSN 4220 3416 M -54 0 rL SGR
helvS (0) 560 3416 ylabel
GSN 620 4396 M 54 0 rL SGR
GSN 4220 4396 M -54 0 rL SGR
helvS (0.01) 560 4396 ylabel
%
% Y axis: small tics
%
L5
GSN 620 1700 M 36 0 rL SGR
GSN 4220 1700 M -36 0 rL SGR
GSN 620 1945 M 36 0 rL SGR
GSN 4220 1945 M -36 0 rL SGR
GSN 620 2190 M 36 0 rL SGR
GSN 4220 2190 M -36 0 rL SGR
GSN 620 2435 M 36 0 rL SGR
GSN 4220 2435 M -36 0 rL SGR
GSN 620 2680 M 36 0 rL SGR
GSN 4220 2680 M -36 0 rL SGR
GSN 620 2925 M 36 0 rL SGR
GSN 4220 2925 M -36 0 rL SGR
GSN 620 3170 M 36 0 rL SGR
GSN 4220 3170 M -36 0 rL SGR
GSN 620 3416 M 36 0 rL SGR
GSN 4220 3416 M -36 0 rL SGR
GSN 620 3661 M 36 0 rL SGR
GSN 4220 3661 M -36 0 rL SGR
GSN 620 3906 M 36 0 rL SGR
GSN 4220 3906 M -36 0 rL SGR
GSN 620 4151 M 36 0 rL SGR
GSN 4220 4151 M -36 0 rL SGR
GSN 620 4396 M 36 0 rL SGR
GSN 4220 4396 M -36 0 rL SGR
GSN 620 4641 M 36 0 rL SGR
GSN 4220 4641 M -36 0 rL SGR
GSN 620 4886 M 36 0 rL SGR
GSN 4220 4886 M -36 0 rL SGR
GSN 620 5131 M 36 0 rL SGR
GSN 4220 5131 M -36 0 rL SGR

%
% X axis - residual panel
%
GSN L5 620 3416 M 4220 3416 L SDA G50 SGR

%
% X-Axis label:
%
gsave 620 1370 M 
[
[(Helvetica) 180 0 true true 0 (t)]
[(Helvetica) 180 0 true true 0 (i)]
[(Helvetica) 180 0 true true 0 (m)]
[(Helvetica) 180 0 true true 0 (e)]
] 0 MCshow grestore

%
% Y-Axis label:
%
gsave 234 3499 M 
currentpoint gsave translate 90 rotate 0 0 moveto
[
[(Helvetica) 180 0 true true 0 (r)]
[(Helvetica) 180 0 true true 0 (e)]
[(Helvetica) 180 0 true true 0 (s)]
[(Helvetica) 180 0 true true 0 (i)]
[(Helvetica) 180 0 true true 0 (d)]
[(Helvetica) 180 0 true true 0 (u)]
[(Helvetica) 180 0 true true 0 (a)]
[(Helvetica) 180 0 true true 0 (l)]
[(Helvetica) 180 0 true true 0 (s)]
] 0 MCshow grestore

end
showpage
%%Trailer
%%EOF
