# data set	./hsmug/series//U-Trp-R243A.1.csv:col(5)
# fraction of residuals inside model inference band	0.213884
#   x(mesh)	    y(mesh)	       rate	   y(mesh)-	   y(mesh)+	    x(data)	    y(data)	   y(model)	   y(error)	   residual	     weight	  residual*	   leverage	  y(model)-	  y(model)+	
2.27273e-005	     1.06608	    -1.11066	-1.14995e+006	1.14995e+006	    2.5e-005	     1.07103	     1.06608	           0	  0.00495094	           1	           0	    -908.564	     1.06608	     1.06608	
2.27273e-005	     1.06608	    -1.11066	-1.14995e+006	1.14995e+006	    0.001275	     1.06429	     1.06471	           0	 -0.00042143	           1	           0	    -905.462	     1.06471	     1.06471	
2.65091e-005	     1.06608	    -1.11058	-1.14995e+006	1.14995e+006	    0.002525	     1.05956	     1.06337	           0	 -0.00381035	           1	           0	    -623.522	     1.06337	     1.06337	
3.09203e-005	     1.06607	    -1.11049	-1.14995e+006	1.14995e+006	    0.003775	     1.06499	     1.06206	           0	  0.00292723	           1	           0	    -649.554	     1.06206	     1.06206	
3.60656e-005	     1.06607	    -1.11037	-1.14995e+006	1.14995e+006	    0.005025	     1.05879	     1.06078	           0	 -0.00199171	           1	           0	    -891.472	     1.06078	     1.06078	
 4.2067e-005	     1.06606	    -1.11025	-1.14995e+006	1.14995e+006	    0.006275	     1.06456	     1.05954	           0	   0.0050198	           1	           0	    -1159.62	     1.05954	     1.05954	
4.54545e-005	     1.06606	    -1.11017	-1.14995e+006	1.14995e+006	    0.007525	     1.05669	     1.05832	           0	 -0.00163134	           1	           0	    -675.722	     1.05832	     1.05832	
 4.9067e-005	     1.06605	     -1.1101	-1.14995e+006	1.14995e+006	    0.008775	     1.05672	     1.05713	           0	-0.000408233	           1	           0	     32.5144	      1.0116	     1.10265	
5.72319e-005	     1.06604	    -1.10992	-1.14995e+006	1.14995e+006	    0.010025	     1.05672	     1.05596	           0	 0.000755951	           1	           0	    -519.482	     1.05596	     1.05596	
6.67554e-005	     1.06603	    -1.10971	-1.14995e+006	1.14995e+006	    0.011275	     1.05171	     1.05482	           0	 -0.00310997	           1	           0	    -748.726	     1.05482	     1.05482	
7.78637e-005	     1.06602	    -1.10948	-1.14995e+006	1.14995e+006	    0.012525	     1.05141	     1.05371	           0	 -0.00230323	           1	           0	    -179.236	     1.05371	     1.05371	
9.08204e-005	     1.06601	     -1.1092	-1.14995e+006	1.14995e+006	    0.013775	     1.05156	     1.05262	           0	 -0.00106308	           1	           0	    -507.964	     1.05262	     1.05262	
9.09091e-005	     1.06601	     -1.1092	-1.14995e+006	1.14995e+006	    0.015025	       1.045	     1.05156	           0	 -0.00656079	           1	           0	    -565.582	     1.05156	     1.05156	
 0.000105933	     1.06599	    -1.10887	-1.14995e+006	1.14995e+006	    0.016275	     1.04533	     1.05052	           0	 -0.00518367	           1	           0	    -444.252	     1.05052	     1.05052	
 0.000123561	     1.06597	    -1.10849	-1.14995e+006	1.14995e+006	    0.017525	     1.04579	      1.0495	           0	 -0.00370707	           1	           0	    -820.852	      1.0495	      1.0495	
 0.000144121	     1.06595	    -1.10805	-1.14995e+006	1.14995e+006	    0.018775	     1.04549	      1.0485	           0	 -0.00301634	           1	           0	    -71.6059	      1.0485	      1.0485	
 0.000168104	     1.06592	    -1.10754	-1.14995e+006	1.14995e+006	    0.020025	     1.04924	     1.04753	           0	  0.00171512	           1	           0	    -749.029	     1.04753	     1.04753	
 0.000181818	     1.06591	    -1.10724	-1.14995e+006	1.14995e+006	    0.021275	     1.04421	     1.04657	           0	 -0.00236607	           1	           0	    -883.796	     1.04657	     1.04657	
 0.000196077	     1.06589	    -1.10694	-1.14995e+006	1.14995e+006	    0.022525	     1.04552	     1.04564	           0	-0.000119362	           1	           0	    -246.322	     1.04564	     1.04564	
 0.000228704	     1.06585	    -1.10624	-1.14995e+006	1.14995e+006	    0.023775	     1.04323	     1.04472	           0	  -0.0014942	           1	           0	    -507.273	     1.04472	     1.04472	
 0.000266761	     1.06581	    -1.10543	-1.14995e+006	1.14995e+006	    0.025025	     1.04314	     1.04383	           0	-0.000688043	           1	           0	    -533.175	     1.04383	     1.04383	
 0.000311151	     1.06576	    -1.10448	-1.14995e+006	1.14995e+006	    0.026275	     1.04231	     1.04295	           0	-0.000634393	           1	           0	    -710.531	     1.04295	     1.04295	
 0.000362927	      1.0657	    -1.10337	-1.14995e+006	1.14995e+006	    0.027525	     1.04274	     1.04209	           0	 0.000651249	           1	           0	    -250.367	     1.04209	     1.04209	
 0.000363636	      1.0657	    -1.10336	-1.14995e+006	1.14995e+006	    0.028775	     1.03719	     1.04125	           0	 -0.00406064	           1	           0	    -337.692	     1.04125	     1.04125	
 0.000423319	     1.06564	    -1.10208	-1.14995e+006	1.14995e+006	    0.030025	     1.04079	     1.04042	           0	 0.000364397	           1	           0	     -386.23	     1.04042	     1.04042	
 0.000493761	     1.06556	    -1.10059	-1.14995e+006	1.14995e+006	    0.031275	     1.04224	     1.03961	           0	  0.00262281	           1	           0	    -571.916	     1.03961	     1.03961	
 0.000575924	     1.06547	    -1.09884	-1.14995e+006	1.14995e+006	    0.032525	     1.03418	     1.03882	           0	 -0.00464098	           1	           0	    -771.109	     1.03882	     1.03882	
 0.000671759	     1.06537	    -1.09681	-1.14995e+006	1.14995e+006	    0.033775	     1.03885	     1.03804	           0	 0.000803442	           1	           0	    -626.525	     1.03804	     1.03804	
 0.000727273	      1.0653	    -1.09564	-1.14995e+006	1.14995e+006	    0.035025	     1.03284	     1.03728	           0	 -0.00444752	           1	           0	    -676.772	     1.03728	     1.03728	
 0.000783541	     1.06524	    -1.09445	-1.14995e+006	1.14995e+006	    0.036275	     1.03676	     1.03654	           0	 0.000220526	           1	           0	     241.064	     0.91258	      1.1605	
 0.000913924	      1.0651	     -1.0917	-1.14995e+006	1.14995e+006	    0.037525	     1.03368	     1.03581	           0	 -0.00213005	           1	           0	    -363.709	     1.03581	     1.03581	
    0.001066	     1.06493	    -1.08851	-1.14995e+006	1.14995e+006	    0.038775	     1.03212	     1.03509	           0	 -0.00296689	           1	           0	    -736.287	     1.03509	     1.03509	
  0.00124339	     1.06474	     -1.0848	-1.14995e+006	1.14995e+006	    0.040025	     1.03345	     1.03439	           0	-0.000937641	           1	           0	    -577.159	     1.03439	     1.03439	
  0.00145029	     1.06452	     -1.0805	-1.14995e+006	1.14995e+006	    0.041275	      1.0347	      1.0337	           0	  0.00100204	           1	           0	    -401.887	      1.0337	      1.0337	
  0.00145455	     1.06451	    -1.08041	-1.14995e+006	1.14995e+006	    0.042525	     1.03331	     1.03302	           0	 0.000290477	           1	           0	    -77.8245	     1.03302	     1.03302	
  0.00169162	     1.06426	    -1.07551	-1.14995e+006	1.14995e+006	    0.043775	     1.03111	     1.03236	           0	 -0.00124201	           1	           0	    -364.591	     1.03236	     1.03236	
  0.00197312	     1.06396	    -1.06974	-1.14995e+006	1.14995e+006	    0.045025	     1.03369	     1.03171	           0	  0.00198889	           1	           0	    -583.586	     1.03171	     1.03171	
  0.00230145	     1.06361	    -1.06305	-1.14995e+006	1.14995e+006	    0.046275	     1.03761	     1.03107	           0	  0.00654747	           1	           0	    -868.655	     1.03107	     1.03107	
  0.00268441	      1.0632	    -1.05532	-1.14995e+006	1.14995e+006	    0.047525	     1.02829	     1.03044	           0	 -0.00214817	           1	           0	    -606.482	     1.03044	     1.03044	
  0.00290909	     1.06296	    -1.05082	-1.14995e+006	1.14995e+006	    0.048775	     1.03157	     1.02983	           0	  0.00174483	           1	           0	     -504.11	     1.02983	     1.02983	
  0.00313111	     1.06273	     -1.0464	-1.14995e+006	1.14995e+006	    0.050025	     1.03151	     1.02922	           0	  0.00228616	           1	           0	    -46.7528	     1.02922	     1.02922	
  0.00365213	     1.06219	    -1.03613	-1.14995e+006	1.14995e+006	    0.051275	     1.03078	     1.02863	           0	  0.00214828	           1	           0	    -460.197	     1.02863	     1.02863	
  0.00425985	     1.06156	    -1.02432	-1.14995e+006	1.14995e+006	    0.052525	      1.0301	     1.02805	           0	  0.00205545	           1	           0	    -617.786	     1.02805	     1.02805	
   0.0049687	     1.06084	    -1.01077	-1.14995e+006	1.14995e+006	    0.053775	     1.02365	     1.02748	           0	 -0.00382489	           1	           0	    -429.598	     1.02748	     1.02748	
  0.00579551	     1.06001	    -0.99527	-1.14995e+006	1.14995e+006	    0.055025	     1.03194	     1.02692	           0	   0.0050199	           1	           0	    -245.216	     1.02692	     1.02692	
  0.00581818	     1.05999	    -0.99485	-1.14995e+006	1.14995e+006	    0.056275	     1.03154	     1.02637	           0	  0.00517166	           1	           0	    -243.175	     1.02637	     1.02637	
   0.0067599	     1.05906	   -0.977595	-1.14995e+006	1.14995e+006	    0.057525	     1.02512	     1.02583	           0	-0.000710388	           1	           0	    -258.975	     1.02583	     1.02583	
  0.00788476	     1.05797	    -0.95751	-1.14995e+006	1.14995e+006	    0.058775	     1.02745	      1.0253	           0	  0.00215378	           1	           0	    -392.032	      1.0253	      1.0253	
  0.00919681	     1.05673	   -0.934776	-1.14995e+006	1.14995e+006	    0.060025	     1.02202	     1.02478	           0	 -0.00275842	           1	           0	    -267.229	     1.02478	     1.02478	
   0.0107272	     1.05532	   -0.909165	-1.14995e+006	1.14995e+006	    0.061275	     1.02438	     1.02427	           0	 0.000117222	           1	           0	    -626.278	     1.02427	     1.02427	
   0.0116364	      1.0545	   -0.894392	-1.14995e+006	1.14995e+006	    0.062525	     1.02533	     1.02377	           0	   0.0015633	           1	           0	    -168.347	     1.02377	     1.02377	
   0.0125122	     1.05372	   -0.880463	-1.14995e+006	1.14995e+006	    0.063775	     1.02829	     1.02327	           0	  0.00501742	           1	           0	    -616.039	     1.02327	     1.02327	
   0.0145943	     1.05192	   -0.848492	-1.14995e+006	1.14995e+006	    0.065025	      1.0291	     1.02279	           0	  0.00631377	           1	           0	    -802.555	     1.02279	     1.02279	
   0.0170228	     1.04991	   -0.813118	-1.14995e+006	1.14995e+006	    0.066275	     1.02374	     1.02231	           0	  0.00143213	           1	           0	    -251.085	     1.02231	     1.02231	
   0.0198554	     1.04766	   -0.774279	-1.14995e+006	1.14995e+006	    0.067525	     1.02202	     1.02185	           0	 0.000172884	           1	           0	    -453.319	     1.02185	     1.02185	
   0.0231594	     1.04517	   -0.731999	-1.14995e+006	1.14995e+006	    0.068775	     1.02737	     1.02139	           0	  0.00598701	           1	           0	    -385.364	     1.02139	     1.02139	
   0.0232727	     1.04509	   -0.730603	-1.14995e+006	1.14995e+006	    0.070025	     1.01926	     1.02094	           0	 -0.00167712	           1	           0	    -82.1834	     1.02094	     1.02094	
   0.0270132	     1.04244	   -0.686412	-1.14995e+006	1.14995e+006	    0.071275	     1.02207	     1.02049	           0	  0.00157267	           1	           0	    -319.976	     1.02049	     1.02049	
   0.0315083	     1.03946	   -0.637779	-1.14995e+006	1.14995e+006	    0.072525	     1.02206	     1.02006	           0	  0.00200632	           1	           0	    -346.409	     1.02006	     1.02006	
   0.0367513	     1.03626	   -0.586501	-1.14995e+006	1.14995e+006	    0.073775	     1.01715	     1.01963	           0	  -0.0024794	           1	           0	    -437.667	     1.01963	     1.01963	
   0.0428668	     1.03284	   -0.533121	-1.14995e+006	1.14995e+006	    0.075025	     1.01701	     1.01921	           0	 -0.00219493	           1	           0	    -310.693	     1.01921	     1.01921	
   0.0465455	     1.03093	    -0.50394	-1.14995e+006	1.14995e+006	    0.076275	     1.02045	      1.0188	           0	  0.00165067	           1	           0	    -489.826	      1.0188	      1.0188	
        0.05	     1.02923	   -0.478325	-1.14995e+006	1.14995e+006	    0.077525	     1.02196	     1.01839	           0	  0.00356715	           1	           0	    -583.366	     1.01839	     1.01839	
   0.0583201	     1.02549	   -0.422917	-1.14995e+006	1.14995e+006	    0.078775	     1.02023	     1.01799	           0	  0.00224105	           1	           0	    -339.271	     1.01799	     1.01799	
   0.0680247	     1.02166	   -0.367791	-1.14995e+006	1.14995e+006	    0.080025	     1.01766	      1.0176	           0	5.63103e-005	           1	           0	    -333.624	      1.0176	      1.0176	
   0.0793442	     1.01781	   -0.313886	-1.14995e+006	1.14995e+006	    0.081275	      1.0168	     1.01721	           0	-0.000413934	           1	           0	    -146.218	     1.01721	     1.01721	
   0.0925473	     1.01402	   -0.262138	-1.14995e+006	1.14995e+006	    0.082525	     1.01355	     1.01684	           0	 -0.00328495	           1	           0	     43.7875	    0.964005	     1.06967	
   0.0930909	     1.01388	   -0.260224	-1.14995e+006	1.14995e+006	    0.083775	     1.01779	     1.01646	           0	  0.00132858	           1	           0	    -210.793	     1.01646	     1.01646	
    0.107947	     1.01037	   -0.213428	-1.14995e+006	1.14995e+006	    0.085025	     1.01695	      1.0161	           0	 0.000856599	           1	           0	    -486.988	      1.0161	      1.0161	
     0.12591	     1.00696	   -0.168527	-1.14995e+006	1.14995e+006	    0.086275	     1.01552	     1.01574	           0	-0.000220384	           1	           0	    -362.141	     1.01574	     1.01574	
    0.146862	     1.00387	   -0.128061	-1.14995e+006	1.14995e+006	    0.087525	     1.01802	     1.01538	           0	  0.00263775	           1	           0	    -475.711	     1.01538	     1.01538	
      0.1713	      1.0012	  -0.0924856	-1.14995e+006	1.14995e+006	    0.088775	     1.02063	     1.01504	           0	  0.00559513	           1	           0	    -570.825	     1.01504	     1.01504	
    0.186182	    0.999953	  -0.0753729	-1.14995e+006	1.14995e+006	    0.090025	     1.01585	     1.01469	           0	  0.00116065	           1	           0	    -506.197	     1.01469	     1.01469	
    0.199805	    0.999019	  -0.0620679	-1.14995e+006	1.14995e+006	    0.091275	     1.01505	     1.01436	           0	 0.000688437	           1	           0	     86.9758	    0.939901	     1.08882	
    0.233053	    0.997399	  -0.0368935	-1.14995e+006	1.14995e+006	    0.092525	     1.01566	     1.01403	           0	  0.00162819	           1	           0	    -209.278	     1.01403	     1.01403	
    0.271834	    0.996383	  -0.0168742	-1.14995e+006	1.14995e+006	    0.093775	     1.01784	      1.0137	           0	  0.00413661	           1	           0	    -411.098	      1.0137	      1.0137	
    0.317067	    0.995988	 -0.00176349	-1.14995e+006	1.14995e+006	    0.095025	     1.01381	     1.01338	           0	 0.000427017	           1	           0	    -188.082	     1.01338	     1.01338	
    0.369828	      0.9962	  0.00882847	-1.14995e+006	1.14995e+006	    0.096275	     1.01183	     1.01307	           0	 -0.00124111	           1	           0	    -351.339	     1.01307	     1.01307	
    0.372364	    0.996223	  0.00920163	-1.14995e+006	1.14995e+006	    0.097525	     1.01976	     1.01276	           0	  0.00700015	           1	           0	    -206.531	     1.01276	     1.01276	
    0.431368	    0.996971	   0.0154198	-1.14995e+006	1.14995e+006	    0.098775	     1.01167	     1.01246	           0	-0.000782531	           1	           0	    -219.927	     1.01246	     1.01246	
    0.503149	    0.998214	   0.0186396	-1.14995e+006	1.14995e+006	      0.1001	     1.01811	     1.01214	           0	  0.00597533	           1	           0	    -292.547	     1.01214	     1.01214	
    0.586875	    0.999815	   0.0192014	-1.14995e+006	1.14995e+006	      0.1051	     1.00499	     1.01099	           0	 -0.00600204	           1	           0	    -183.843	     1.01099	     1.01099	
    0.684532	     1.00164	   0.0178596	-1.14995e+006	1.14995e+006	      0.1101	     1.01437	     1.00992	           0	  0.00445203	           1	           0	     -68.499	     1.00992	     1.00992	
    0.744727	     1.00267	   0.0165855	-1.14995e+006	1.14995e+006	      0.1151	     1.00673	     1.00892	           0	 -0.00218583	           1	           0	    -392.612	     1.00892	     1.00892	
     0.79844	     1.00353	    0.015349	-1.14995e+006	1.14995e+006	      0.1201	     1.00581	     1.00798	           0	  -0.0021626	           1	           0	    -390.413	     1.00798	     1.00798	
    0.931302	     1.00537	   0.0123175	-1.14995e+006	1.14995e+006	      0.1251	       1.008	      1.0071	           0	 0.000898341	           1	           0	    -367.316	      1.0071	      1.0071	
           1	     1.00616	   0.0108862	-1.14995e+006	1.14995e+006	      0.1301	      1.0041	     1.00627	           0	 -0.00216832	           1	           0	    -810.521	     1.00627	     1.00627	
     1.08627	     1.00703	  0.00927073	-1.14995e+006	1.14995e+006	      0.1351	      1.0031	      1.0055	           0	  -0.0024022	           1	           0	     218.085	    0.887599	      1.1234	
     1.26703	     1.00845	  0.00654667	-1.14995e+006	1.14995e+006	      0.1401	       1.006	     1.00478	           0	  0.00122039	           1	           0	     -15.034	     1.00478	     1.00478	
     1.47787	     1.00958	  0.00432408	-1.14995e+006	1.14995e+006	      0.1451	     1.00519	      1.0041	           0	  0.00108769	           1	           0	     428.274	    0.838878	     1.16932	
     1.48945	     1.00963	  0.00422607	-1.14995e+006	1.14995e+006	      0.1501	     1.00316	     1.00347	           0	-0.000305686	           1	           0	     -610.96	     1.00347	     1.00347	
     1.72379	     1.01042	  0.00265419	-1.14995e+006	1.14995e+006	      0.1551	      1.0022	     1.00287	           0	-0.000674924	           1	           0	    -111.451	     1.00287	     1.00287	
     2.01063	       1.011	  0.00149947	-1.14995e+006	1.14995e+006	      0.1601	    0.998948	     1.00232	           0	 -0.00336801	           1	           0	    -208.289	     1.00232	     1.00232	
     2.34521	     1.01137	 0.000769874	-1.14995e+006	1.14995e+006	      0.1651	     1.00015	      1.0018	           0	  -0.0016439	           1	           0	    -18.1638	      1.0018	      1.0018	
     2.73546	     1.01157	 0.000353717	-1.14995e+006	1.14995e+006	      0.1701	     1.00078	     1.00131	           0	-0.000531705	           1	           0	    -395.809	     1.00131	     1.00131	
     2.97891	     1.01164	 0.000217739	-1.14995e+006	1.14995e+006	      0.1751	     1.00623	     1.00086	           0	  0.00537012	           1	           0	    -104.353	     1.00086	     1.00086	
     3.19064	     1.01168	 0.000142781	-1.14995e+006	1.14995e+006	      0.1801	    0.999055	     1.00043	           0	 -0.00137661	           1	           0	    -205.519	     1.00043	     1.00043	
     3.72157	     1.01173	4.95594e-005	-1.14995e+006	1.14995e+006	      0.1851	     1.00038	     1.00004	           0	 0.000346784	           1	           0	    -91.4348	     1.00004	     1.00004	
     4.34085	     1.01174	1.44248e-005	-1.14995e+006	1.14995e+006	      0.1901	      1.0011	    0.999666	           0	   0.0014335	           1	           0	    -403.684	    0.999666	    0.999666	
     5.06318	     1.01175	3.41901e-006	-1.14995e+006	1.14995e+006	      0.1951	     1.00034	    0.999321	           0	    0.001015	           1	           0	     478.002	     0.82477	     1.17387	
     5.90571	     1.01175	6.37755e-007	-1.14995e+006	1.14995e+006	      0.2001	    0.991715	    0.999001	           0	 -0.00728552	           1	           0	    -250.206	    0.999001	    0.999001	
     5.95782	     1.01175	5.74845e-007	-1.14995e+006	1.14995e+006	      0.2051	    0.994919	    0.998703	           0	 -0.00378336	           1	           0	    -119.804	    0.998703	    0.998703	
     6.88843	     1.01175	8.99619e-008	-1.14995e+006	1.14995e+006	      0.2101	    0.998459	    0.998426	           0	3.32801e-005	           1	           0	    -369.701	    0.998426	    0.998426	
     8.03469	     1.01175	9.16057e-009	-1.14995e+006	1.14995e+006	      0.2151	    0.997712	     0.99817	           0	-0.000457843	           1	           0	     208.518	    0.882883	     1.11346	
     9.37168	     1.01175	6.37813e-010	-1.14995e+006	1.14995e+006	      0.2201	    0.997545	    0.997932	           0	-0.000387459	           1	           0	     18.2329	    0.963842	     1.03202	
     10.9312	     1.01175	2.85041e-011	-1.14995e+006	1.14995e+006	      0.2251	    0.993821	    0.997713	           0	 -0.00389196	           1	           0	      160.72	    0.896498	     1.09893	
     11.9156	     1.01175	4.00763e-012	-1.14995e+006	1.14995e+006	      0.2301	     0.99669	    0.997511	           0	-0.000821191	           1	           0	    -328.757	    0.997511	    0.997511	
     12.7501	     1.01175	7.59717e-013	-1.14995e+006	1.14995e+006	      0.2351	     1.00023	    0.997325	           0	  0.00290514	           1	           0	    -18.5781	    0.997325	    0.997325	
     14.8718	     1.01175	1.10953e-014	-1.14995e+006	1.14995e+006	      0.2401	    0.995835	    0.997154	           0	 -0.00131952	           1	           0	     159.518	    0.896319	     1.09799	
     17.3465	     1.01175	2.67871e-016	-1.14995e+006	1.14995e+006	      0.2451	    0.996019	    0.996998	           0	 -0.00097938	           1	           0	    -400.064	    0.996998	    0.996998	
      20.233	     1.01175	1.02734e-016	-1.14995e+006	1.14995e+006	      0.2501	    0.994065	    0.996856	           0	 -0.00279108	           1	           0	    -122.702	    0.996856	    0.996856	
     23.5998	     1.01175	3.11178e-017	-1.14995e+006	1.14995e+006	      0.2551	    0.991761	    0.996727	           0	 -0.00496632	           1	           0	     71.6751	    0.929136	     1.06432	
     23.8313	     1.01175	3.04085e-017	-1.14995e+006	1.14995e+006	      0.2601	    0.998246	    0.996611	           0	  0.00163499	           1	           0	    -222.786	    0.996611	    0.996611	
     27.5269	     1.01175	-1.85013e-017	-1.14995e+006	1.14995e+006	      0.2651	    0.994996	    0.996506	           0	 -0.00151034	           1	           0	    -52.3999	    0.996506	    0.996506	
     32.1074	     1.01175	4.61047e-018	-1.14995e+006	1.14995e+006	      0.2701	    0.993882	    0.996413	           0	 -0.00253068	           1	           0	    -322.487	    0.996413	    0.996413	
     37.4501	     1.01175	1.59523e-018	-1.14995e+006	1.14995e+006	      0.2751	    0.994813	     0.99633	           0	 -0.00151729	           1	           0	      -89.59	     0.99633	     0.99633	
     43.6819	     1.01175	-3.81753e-019	-1.14995e+006	1.14995e+006	      0.2801	    0.996583	    0.996257	           0	 0.000325391	           1	           0	    -192.882	    0.996257	    0.996257	
     47.6625	     1.01175	-1.23303e-018	-1.14995e+006	1.14995e+006	      0.2851	    0.990784	    0.996194	           0	 -0.00540993	           1	           0	     77.9797	    0.925693	      1.0667	
     50.9507	     1.01175	-7.06853e-019	-1.14995e+006	1.14995e+006	      0.2901	    0.993272	     0.99614	           0	 -0.00286858	           1	           0	    -212.764	     0.99614	     0.99614	
     59.4291	     1.01175	6.49867e-019	-1.14995e+006	1.14995e+006	      0.2951	    0.996399	    0.996095	           0	 0.000304519	           1	           0	    -471.156	    0.996095	    0.996095	
     69.3182	     1.01175	1.48089e-020	-1.14995e+006	1.14995e+006	      0.3001	    0.993317	    0.996058	           0	 -0.00274061	           1	           0	     70.9135	    0.928826	     1.06329	
     80.8529	     1.01175	5.76572e-020	-1.14995e+006	1.14995e+006	      0.3051	    0.994019	    0.996029	           0	 -0.00200914	           1	           0	    -164.711	    0.996029	    0.996029	
     94.3071	     1.01175	-1.53201e-020	-1.14995e+006	1.14995e+006	      0.3101	    0.992829	    0.996007	           0	 -0.00317768	           1	           0	    -476.584	    0.996007	    0.996007	
         110	     1.01175	-3.78676e-023	-1.14995e+006	1.14995e+006	      0.3151	    0.993821	    0.995992	           0	 -0.00217107	           1	           0	       38.09	    0.946718	     1.04527	
 --	 --	 --	 --	 --	      0.3201	     0.99344	    0.995984	           0	 -0.00254353	           1	           0	    -349.893	    0.995984	    0.995984	
 --	 --	 --	 --	 --	      0.3251	    0.993898	    0.995982	           0	 -0.00208374	           1	           0	    -185.356	    0.995982	    0.995982	
 --	 --	 --	 --	 --	      0.3301	    0.994553	    0.995986	           0	 -0.00143296	           1	           0	    -311.576	    0.995986	    0.995986	
 --	 --	 --	 --	 --	      0.3351	    0.994584	    0.995996	           0	  -0.0014123	           1	           0	    -24.2224	    0.995996	    0.995996	
 --	 --	 --	 --	 --	      0.3401	    0.995881	    0.996011	           0	-0.000130851	           1	           0	     28.0112	    0.953757	     1.03827	
 --	 --	 --	 --	 --	      0.3451	    0.990632	    0.996032	           0	 -0.00540015	           1	           0	    -492.098	    0.996032	    0.996032	
 --	 --	 --	 --	 --	      0.3501	    0.994492	    0.996057	           0	 -0.00156532	           1	           0	     159.204	    0.895321	     1.09679	
 --	 --	 --	 --	 --	      0.3551	    0.997574	    0.996087	           0	  0.00148669	           1	           0	    -128.455	    0.996087	    0.996087	
 --	 --	 --	 --	 --	      0.3601	    0.993989	    0.996122	           0	 -0.00213308	           1	           0	    -6.28239	    0.996122	    0.996122	
 --	 --	 --	 --	 --	      0.3651	    0.994843	     0.99616	           0	  -0.0013172	           1	           0	    -18.5213	     0.99616	     0.99616	
 --	 --	 --	 --	 --	      0.3701	    0.994248	    0.996203	           0	 -0.00195465	           1	           0	    -346.363	    0.996203	    0.996203	
 --	 --	 --	 --	 --	      0.3751	    0.996078	    0.996249	           0	 -0.00017042	           1	           0	    -257.348	    0.996249	    0.996249	
 --	 --	 --	 --	 --	      0.3801	      0.9944	    0.996299	           0	 -0.00189811	           1	           0	     98.2513	    0.917162	     1.07544	
 --	 --	 --	 --	 --	      0.3851	    0.993607	    0.996352	           0	 -0.00274433	           1	           0	    -110.119	    0.996352	    0.996352	
 --	 --	 --	 --	 --	      0.3901	    0.993149	    0.996408	           0	  -0.0032583	           1	           0	    -155.597	    0.996408	    0.996408	
 --	 --	 --	 --	 --	      0.3951	    0.994278	    0.996467	           0	 -0.00218845	           1	           0	    -84.8174	    0.996467	    0.996467	
 --	 --	 --	 --	 --	      0.4001	    0.995515	    0.996529	           0	  -0.0010142	           1	           0	    -63.9321	    0.996529	    0.996529	
 --	 --	 --	 --	 --	      0.4051	    0.995362	    0.996593	           0	 -0.00123099	           1	           0	     244.505	    0.871754	     1.12143	
 --	 --	 --	 --	 --	      0.4101	    0.994904	     0.99666	           0	 -0.00175629	           1	           0	    -122.312	     0.99666	     0.99666	
 --	 --	 --	 --	 --	      0.4151	    0.996125	     0.99673	           0	 -0.00060514	           1	           0	     33.9723	    0.950196	     1.04326	
 --	 --	 --	 --	 --	      0.4201	    0.995988	    0.996802	           0	-0.000814003	           1	           0	    -314.398	    0.996802	    0.996802	
 --	 --	 --	 --	 --	      0.4251	    0.998399	    0.996875	           0	  0.00152405	           1	           0	     211.346	     0.88081	     1.11294	
 --	 --	 --	 --	 --	      0.4301	    0.999466	    0.996951	           0	  0.00251535	           1	           0	     58.3959	    0.935941	     1.05796	
 --	 --	 --	 --	 --	      0.4351	    0.988801	    0.997029	           0	 -0.00822798	           1	           0	     423.747	    0.832682	     1.16138	
 --	 --	 --	 --	 --	      0.4401	    0.991014	    0.997108	           0	 -0.00609424	           1	           0	    -167.803	    0.997108	    0.997108	
 --	 --	 --	 --	 --	      0.4451	    0.994157	    0.997189	           0	  -0.0030321	           1	           0	     -281.41	    0.997189	    0.997189	
 --	 --	 --	 --	 --	      0.4501	     0.99936	    0.997271	           0	  0.00208853	           1	           0	      167.98	    0.893796	     1.10075	
 --	 --	 --	 --	 --	      0.4551	    0.997895	    0.997355	           0	 0.000540364	           1	           0	     -206.85	    0.997355	    0.997355	
 --	 --	 --	 --	 --	      0.4601	    0.994248	     0.99744	           0	 -0.00319191	           1	           0	        -159	     0.99744	     0.99744	
 --	 --	 --	 --	 --	      0.4651	    0.996644	    0.997526	           0	-0.000882401	           1	           0	    -384.317	    0.997526	    0.997526	
 --	 --	 --	 --	 --	      0.4701	    0.996781	    0.997614	           0	-0.000832616	           1	           0	    -116.383	    0.997614	    0.997614	
 --	 --	 --	 --	 --	      0.4751	     0.99643	    0.997702	           0	 -0.00127207	           1	           0	    -28.0548	    0.997702	    0.997702	
 --	 --	 --	 --	 --	      0.4801	    0.995698	    0.997791	           0	 -0.00209389	           1	           0	    -149.699	    0.997791	    0.997791	
 --	 --	 --	 --	 --	      0.4851	    0.998475	    0.997882	           0	 0.000592809	           1	           0	     114.135	    0.912588	     1.08318	
 --	 --	 --	 --	 --	      0.4901	    0.995164	    0.997973	           0	  -0.0028093	           1	           0	    -275.909	    0.997973	    0.997973	
 --	 --	 --	 --	 --	      0.4951	     0.99672	    0.998065	           0	 -0.00134495	           1	           0	    -135.852	    0.998065	    0.998065	
 --	 --	 --	 --	 --	      0.5001	    0.993409	    0.998157	           0	 -0.00474868	           1	           0	    -190.576	    0.998157	    0.998157	
 --	 --	 --	 --	 --	      0.5051	    0.996567	     0.99825	           0	 -0.00168301	           1	           0	    -126.437	     0.99825	     0.99825	
 --	 --	 --	 --	 --	      0.5101	    0.999634	    0.998344	           0	  0.00128951	           1	           0	    -23.8658	    0.998344	    0.998344	
 --	 --	 --	 --	 --	      0.5151	    0.994691	    0.998438	           0	 -0.00374766	           1	           0	    -231.052	    0.998438	    0.998438	
 --	 --	 --	 --	 --	      0.5201	    0.998795	    0.998533	           0	 0.000262142	           1	           0	    -210.241	    0.998533	    0.998533	
 --	 --	 --	 --	 --	      0.5251	    0.997178	    0.998628	           0	 -0.00145024	           1	           0	     -46.533	    0.998628	    0.998628	
 --	 --	 --	 --	 --	      0.5301	    0.996903	    0.998723	           0	 -0.00182014	           1	           0	    -181.402	    0.998723	    0.998723	
 --	 --	 --	 --	 --	      0.5351	    0.996568	    0.998819	           0	 -0.00225032	           1	           0	     388.004	    0.841556	     1.15608	
 --	 --	 --	 --	 --	      0.5401	     1.00156	    0.998915	           0	  0.00264266	           1	           0	    -168.815	    0.998915	    0.998915	
 --	 --	 --	 --	 --	      0.5451	    0.997072	    0.999011	           0	 -0.00193854	           1	           0	     249.062	    0.873013	     1.12501	
 --	 --	 --	 --	 --	      0.5501	     1.00125	    0.999107	           0	  0.00214571	           1	           0	     67.4053	    0.933559	     1.06465	
 --	 --	 --	 --	 --	      0.5551	    0.999345	    0.999203	           0	 0.000141861	           1	           0	     3.76546	    0.983711	      1.0147	
 --	 --	 --	 --	 --	      0.5601	    0.999923	    0.999299	           0	 0.000623946	           1	           0	     33.7298	    0.952932	     1.04567	
 --	 --	 --	 --	 --	      0.5651	     1.00166	    0.999396	           0	   0.0022682	           1	           0	     117.287	    0.912932	     1.08586	
 --	 --	 --	 --	 --	      0.5701	    0.997452	    0.999492	           0	 -0.00204033	           1	           0	    -22.0017	    0.999492	    0.999492	
 --	 --	 --	 --	 --	      0.5751	    0.997453	    0.999588	           0	 -0.00213563	           1	           0	    -334.101	    0.999588	    0.999588	
 --	 --	 --	 --	 --	      0.5801	     1.00127	    0.999684	           0	  0.00158215	           1	           0	    -333.065	    0.999684	    0.999684	
 --	 --	 --	 --	 --	      0.5851	     1.00026	    0.999781	           0	 0.000478234	           1	           0	    -138.236	    0.999781	    0.999781	
 --	 --	 --	 --	 --	      0.5901	    0.997651	    0.999877	           0	 -0.00222595	           1	           0	    -290.474	    0.999877	    0.999877	
 --	 --	 --	 --	 --	      0.5951	    0.998505	    0.999972	           0	 -0.00146697	           1	           0	     66.4035	    0.934914	     1.06503	
 --	 --	 --	 --	 --	      0.6001	     0.99878	     1.00007	           0	 -0.00128801	           1	           0	    -265.775	     1.00007	     1.00007	
 --	 --	 --	 --	 --	      0.6051	     1.00081	     1.00016	           0	 0.000646362	           1	           0	     251.676	    0.873507	     1.12682	
 --	 --	 --	 --	 --	      0.6101	     1.00381	     1.00026	           0	  0.00355617	           1	           0	    -49.8978	     1.00026	     1.00026	
 --	 --	 --	 --	 --	      0.6151	    0.999833	     1.00035	           0	-0.000520758	           1	           0	     245.618	     0.87523	     1.12548	
 --	 --	 --	 --	 --	      0.6201	     1.00214	     1.00045	           0	  0.00168899	           1	           0	     4.65964	    0.983214	     1.01768	
 --	 --	 --	 --	 --	      0.6251	    0.999253	     1.00054	           0	 -0.00128976	           1	           0	     17.8951	    0.966769	     1.03432	
 --	 --	 --	 --	 --	      0.6301	     1.00269	     1.00064	           0	  0.00205061	           1	           0	    -280.061	     1.00064	     1.00064	
 --	 --	 --	 --	 --	      0.6351	      1.0027	     1.00073	           0	  0.00197132	           1	           0	    -257.269	     1.00073	     1.00073	
 --	 --	 --	 --	 --	      0.6401	    0.998231	     1.00082	           0	 -0.00259302	           1	           0	    -111.468	     1.00082	     1.00082	
 --	 --	 --	 --	 --	      0.6451	     1.00026	     1.00092	           0	-0.000656978	           1	           0	    -74.7481	     1.00092	     1.00092	
 --	 --	 --	 --	 --	      0.6501	     1.00096	     1.00101	           0	-4.69518e-005	           1	           0	     -327.28	     1.00101	     1.00101	
 --	 --	 --	 --	 --	      0.6551	     1.00336	      1.0011	           0	  0.00225628	           1	           0	    -130.893	      1.0011	      1.0011	
 --	 --	 --	 --	 --	      0.6601	    0.997605	     1.00119	           0	 -0.00358828	           1	           0	    -110.361	     1.00119	     1.00119	
 --	 --	 --	 --	 --	      0.6651	     1.00009	     1.00128	           0	  -0.0011924	           1	           0	    -243.859	     1.00128	     1.00128	
 --	 --	 --	 --	 --	      0.6701	     1.00229	     1.00138	           0	 0.000914119	           1	           0	    -258.543	     1.00138	     1.00138	
 --	 --	 --	 --	 --	      0.6751	     1.00205	     1.00147	           0	 0.000580093	           1	           0	    -143.669	     1.00147	     1.00147	
 --	 --	 --	 --	 --	      0.6801	    0.998735	     1.00156	           0	 -0.00282087	           1	           0	    -207.876	     1.00156	     1.00156	
 --	 --	 --	 --	 --	      0.6851	     1.00003	     1.00165	           0	 -0.00161315	           1	           0	    -21.2496	     1.00165	     1.00165	
 --	 --	 --	 --	 --	      0.6901	    0.999466	     1.00173	           0	 -0.00226835	           1	           0	    -128.048	     1.00173	     1.00173	
 --	 --	 --	 --	 --	      0.6951	     1.00278	     1.00182	           0	 0.000955748	           1	           0	    -160.793	     1.00182	     1.00182	
 --	 --	 --	 --	 --	      0.7001	     1.00105	     1.00191	           0	-0.000857252	           1	           0	     81.9619	    0.929631	     1.07419	
 --	 --	 --	 --	 --	      0.7051	     1.00311	       1.002	           0	  0.00111606	           1	           0	    -186.093	       1.002	       1.002	
 --	 --	 --	 --	 --	      0.7101	    0.997407	     1.00209	           0	 -0.00467851	           1	           0	     129.416	    0.911261	     1.09291	
 --	 --	 --	 --	 --	      0.7151	      1.0069	     1.00217	           0	  0.00472665	           1	           0	    -102.907	     1.00217	     1.00217	
 --	 --	 --	 --	 --	      0.7201	     1.00142	     1.00226	           0	 -0.00083646	           1	           0	    -293.508	     1.00226	     1.00226	
 --	 --	 --	 --	 --	      0.7251	     1.00186	     1.00234	           0	-0.000480831	           1	           0	    -98.7238	     1.00234	     1.00234	
 --	 --	 --	 --	 --	      0.7301	      1.0031	     1.00243	           0	 0.000670542	           1	           0	      157.77	    0.902146	     1.10271	
 --	 --	 --	 --	 --	      0.7351	     1.00108	     1.00251	           0	 -0.00142814	           1	           0	     326.308	    0.858293	     1.14673	
 --	 --	 --	 --	 --	      0.7401	     1.00284	      1.0026	           0	  0.00024294	           1	           0	    -108.317	      1.0026	      1.0026	
 --	 --	 --	 --	 --	      0.7451	     1.00455	     1.00268	           0	  0.00186897	           1	           0	     303.042	    0.863697	     1.14166	
 --	 --	 --	 --	 --	      0.7501	     1.00231	     1.00276	           0	 -0.00045623	           1	           0	    -398.847	     1.00276	     1.00276	
 --	 --	 --	 --	 --	      0.7551	     1.00177	     1.00284	           0	 -0.00107187	           1	           0	     134.335	    0.910309	     1.09538	
 --	 --	 --	 --	 --	      0.7601	     1.00423	     1.00292	           0	  0.00130326	           1	           0	     14.2737	    0.972762	     1.03309	
 --	 --	 --	 --	 --	      0.7651	    0.998978	     1.00301	           0	 -0.00402743	           1	           0	    -229.199	     1.00301	     1.00301	
 --	 --	 --	 --	 --	      0.7701	     1.00198	     1.00309	           0	 -0.00110176	           1	           0	    -46.7168	     1.00309	     1.00309	
 --	 --	 --	 --	 --	      0.7751	     1.00406	     1.00317	           0	 0.000893694	           1	           0	     16.5048	    0.970731	      1.0356	
 --	 --	 --	 --	 --	      0.7801	      1.0065	     1.00325	           0	  0.00325433	           1	           0	    -136.103	     1.00325	     1.00325	
 --	 --	 --	 --	 --	      0.7851	     1.00531	     1.00332	           0	  0.00198694	           1	           0	     28.4708	    0.960724	     1.04592	
 --	 --	 --	 --	 --	      0.7901	     1.00461	      1.0034	           0	  0.00120773	           1	           0	     129.837	     0.91243	     1.09437	
 --	 --	 --	 --	 --	      0.7951	     1.00455	     1.00348	           0	   0.0010691	           1	           0	    -97.1245	     1.00348	     1.00348	
 --	 --	 --	 --	 --	      0.8001	     1.00467	     1.00356	           0	  0.00111426	           1	           0	      85.662	    0.929663	     1.07745	
 --	 --	 --	 --	 --	      0.8051	     1.00411	     1.00363	           0	    0.000473	           1	           0	    -38.0287	     1.00363	     1.00363	
 --	 --	 --	 --	 --	      0.8101	     1.00786	     1.00371	           0	  0.00415192	           1	           0	    -12.5431	     1.00371	     1.00371	
 --	 --	 --	 --	 --	      0.8151	     1.00705	     1.00378	           0	  0.00326643	           1	           0	    -240.333	     1.00378	     1.00378	
 --	 --	 --	 --	 --	      0.8201	     1.00734	     1.00386	           0	  0.00348353	           1	           0	    -38.3579	     1.00386	     1.00386	
 --	 --	 --	 --	 --	      0.8251	     1.00087	     1.00393	           0	   -0.003061	           1	           0	     1.52234	    0.994081	     1.01378	
 --	 --	 --	 --	 --	      0.8301	      1.0045	       1.004	           0	 0.000496865	           1	           0	     77.6561	     0.93365	     1.07436	
 --	 --	 --	 --	 --	      0.8351	     1.01013	     1.00408	           0	  0.00605631	           1	           0	    -320.536	     1.00408	     1.00408	
 --	 --	 --	 --	 --	      0.8401	     1.00672	     1.00415	           0	  0.00256573	           1	           0	     77.8853	    0.933691	     1.07461	
 --	 --	 --	 --	 --	      0.8451	     1.00723	     1.00422	           0	  0.00301114	           1	           0	    -160.949	     1.00422	     1.00422	
 --	 --	 --	 --	 --	      0.8501	     1.00481	     1.00429	           0	 0.000515927	           1	           0	    -137.378	     1.00429	     1.00429	
 --	 --	 --	 --	 --	      0.8551	     1.00723	     1.00436	           0	  0.00287169	           1	           0	    -272.516	     1.00436	     1.00436	
 --	 --	 --	 --	 --	      0.8601	     1.00632	     1.00443	           0	  0.00188583	           1	           0	     159.426	    0.903626	     1.10524	
 --	 --	 --	 --	 --	      0.8651	     1.00331	      1.0045	           0	 -0.00119005	           1	           0	    -145.588	      1.0045	      1.0045	
 --	 --	 --	 --	 --	      0.8701	     1.00713	     1.00457	           0	  0.00255524	           1	           0	     100.431	    0.924561	     1.08458	
 --	 --	 --	 --	 --	      0.8751	     1.00505	     1.00464	           0	 0.000413908	           1	           0	     -274.68	     1.00464	     1.00464	
 --	 --	 --	 --	 --	      0.8801	     1.01088	     1.00471	           0	  0.00617534	           1	           0	    -122.939	     1.00471	     1.00471	
 --	 --	 --	 --	 --	      0.8851	     1.01054	     1.00477	           0	  0.00577015	           1	           0	     13.8397	    0.975072	     1.03447	
 --	 --	 --	 --	 --	      0.8901	     1.00406	     1.00484	           0	-0.000779886	           1	           0	     161.369	    0.903421	     1.10626	
 --	 --	 --	 --	 --	      0.8951	      1.0094	     1.00491	           0	  0.00449485	           1	           0	     86.9252	     0.93047	     1.07934	
 --	 --	 --	 --	 --	      0.9001	     1.00592	     1.00497	           0	 0.000950541	           1	           0	     364.225	    0.852603	     1.15734	
 --	 --	 --	 --	 --	      0.9051	     1.00757	     1.00504	           0	  0.00253299	           1	           0	     -5.7245	     1.00504	     1.00504	
 --	 --	 --	 --	 --	      0.9101	       1.006	      1.0051	           0	 0.000897205	           1	           0	      392.45	    0.846939	     1.16326	
 --	 --	 --	 --	 --	      0.9151	     1.01033	     1.00516	           0	  0.00516617	           1	           0	      204.14	    0.891093	     1.11923	
 --	 --	 --	 --	 --	      0.9201	     1.00591	     1.00523	           0	 0.000680084	           1	           0	    -291.641	     1.00523	     1.00523	
 --	 --	 --	 --	 --	      0.9251	     1.00403	     1.00529	           0	 -0.00125965	           1	           0	     288.767	     0.86962	     1.14096	
 --	 --	 --	 --	 --	      0.9301	     1.00258	     1.00535	           0	 -0.00277204	           1	           0	    -277.186	     1.00535	     1.00535	
 --	 --	 --	 --	 --	      0.9351	     1.00987	     1.00541	           0	  0.00445931	           1	           0	     79.3358	    0.934301	     1.07652	
 --	 --	 --	 --	 --	      0.9401	     1.00476	     1.00547	           0	-0.000712995	           1	           0	    -185.085	     1.00547	     1.00547	
 --	 --	 --	 --	 --	      0.9451	     1.00485	     1.00553	           0	-0.000680165	           1	           0	     81.8303	    0.933313	     1.07775	
 --	 --	 --	 --	 --	      0.9501	     1.00435	     1.00559	           0	  -0.0012426	           1	           0	    -284.936	     1.00559	     1.00559	
 --	 --	 --	 --	 --	      0.9551	     1.00478	     1.00565	           0	-0.000876705	           1	           0	    -365.137	     1.00565	     1.00565	
 --	 --	 --	 --	 --	      0.9601	     1.00684	     1.00571	           0	  0.00112552	           1	           0	    -32.9561	     1.00571	     1.00571	
 --	 --	 --	 --	 --	      0.9651	     1.00897	     1.00577	           0	  0.00320087	           1	           0	    -367.271	     1.00577	     1.00577	
 --	 --	 --	 --	 --	      0.9701	     1.00994	     1.00583	           0	  0.00410814	           1	           0	    -49.9584	     1.00583	     1.00583	
 --	 --	 --	 --	 --	      0.9751	     1.00632	     1.00588	           0	 0.000432724	           1	           0	     57.2915	    0.945455	     1.06631	
 --	 --	 --	 --	 --	      0.9801	     1.00647	     1.00594	           0	 0.000530227	           1	           0	     -18.822	     1.00594	     1.00594	
 --	 --	 --	 --	 --	      0.9851	     1.00668	       1.006	           0	 0.000685041	           1	           0	    -19.2162	       1.006	       1.006	
 --	 --	 --	 --	 --	      0.9901	     1.00942	     1.00605	           0	  0.00336276	           1	           0	    -279.154	     1.00605	     1.00605	
 --	 --	 --	 --	 --	      0.9951	     1.00426	     1.00611	           0	 -0.00185221	           1	           0	    -200.635	     1.00611	     1.00611	
 --	 --	 --	 --	 --	      1.0001	     1.00505	     1.00616	           0	 -0.00111188	           1	           0	     188.579	    0.896527	      1.1158	
 --	 --	 --	 --	 --	      1.0051	     1.01353	     1.00622	           0	  0.00731655	           1	           0	    -141.806	     1.00622	     1.00622	
 --	 --	 --	 --	 --	      1.0101	     1.00995	     1.00627	           0	  0.00367967	           1	           0	    -204.718	     1.00627	     1.00627	
 --	 --	 --	 --	 --	      1.0151	     1.00984	     1.00632	           0	  0.00351888	           1	           0	     -219.36	     1.00632	     1.00632	
 --	 --	 --	 --	 --	      1.0201	     1.01128	     1.00638	           0	  0.00489959	           1	           0	    -324.315	     1.00638	     1.00638	
 --	 --	 --	 --	 --	      1.0251	     1.00949	     1.00643	           0	  0.00306177	           1	           0	     16.9413	    0.973568	     1.03929	
 --	 --	 --	 --	 --	      1.0301	     1.00926	     1.00648	           0	  0.00278164	           1	           0	    -99.0317	     1.00648	     1.00648	
 --	 --	 --	 --	 --	      1.0351	     1.00786	     1.00653	           0	  0.00132758	           1	           0	    -91.2968	     1.00653	     1.00653	
 --	 --	 --	 --	 --	      1.0401	     1.00505	     1.00658	           0	  -0.0015312	           1	           0	    -176.334	     1.00658	     1.00658	
 --	 --	 --	 --	 --	      1.0451	     1.00914	     1.00663	           0	  0.00250809	           1	           0	    -40.1662	     1.00663	     1.00663	
 --	 --	 --	 --	 --	      1.0501	     1.01204	     1.00668	           0	  0.00535584	           1	           0	    -79.5484	     1.00668	     1.00668	
 --	 --	 --	 --	 --	      1.0551	     1.00748	     1.00673	           0	 0.000744461	           1	           0	    -230.517	     1.00673	     1.00673	
 --	 --	 --	 --	 --	      1.0601	     1.00201	     1.00678	           0	 -0.00476686	           1	           0	    -104.908	     1.00678	     1.00678	
 --	 --	 --	 --	 --	      1.0651	     1.00981	     1.00683	           0	  0.00298127	           1	           0	    -85.3716	     1.00683	     1.00683	
 --	 --	 --	 --	 --	      1.0701	     1.00832	     1.00688	           0	  0.00143786	           1	           0	     -14.778	     1.00688	     1.00688	
 --	 --	 --	 --	 --	      1.0751	     1.00888	     1.00693	           0	   0.0019555	           1	           0	     203.972	    0.892902	     1.12095	
 --	 --	 --	 --	 --	      1.0801	      1.0117	     1.00697	           0	  0.00473238	           1	           0	     105.763	    0.924867	     1.08908	
 --	 --	 --	 --	 --	      1.0851	     1.00694	     1.00702	           0	-7.70994e-005	           1	           0	    -284.426	     1.00702	     1.00702	
 --	 --	 --	 --	 --	      1.0901	     1.01006	     1.00707	           0	  0.00299086	           1	           0	    -289.381	     1.00707	     1.00707	
 --	 --	 --	 --	 --	      1.0951	     1.01025	     1.00711	           0	  0.00314306	           1	           0	     57.9091	    0.946356	     1.06787	
 --	 --	 --	 --	 --	         1.1	     1.01304	     1.00716	           0	  0.00588719	           1	           0	     147.698	    0.910128	     1.10418	
 --	 --	 --	 --	 --	       1.225	     1.01333	     1.00816	           0	  0.00516717	           1	           0	     21.5829	     0.97107	     1.04525	
 --	 --	 --	 --	 --	        1.35	     1.01371	     1.00895	           0	   0.0047623	           1	           0	    -4.11366	     1.00895	     1.00895	
 --	 --	 --	 --	 --	       1.475	      1.0142	     1.00956	           0	  0.00463975	           1	           0	    -450.083	     1.00956	     1.00956	
 --	 --	 --	 --	 --	         1.6	     1.01768	     1.01005	           0	  0.00763024	           1	           0	    -580.884	     1.01005	     1.01005	
 --	 --	 --	 --	 --	       1.725	     1.01083	     1.01042	           0	 0.000406516	           1	           0	     66.7749	    0.945182	     1.07566	
 --	 --	 --	 --	 --	        1.85	     1.01581	     1.01072	           0	  0.00509224	           1	           0	    -247.943	     1.01072	     1.01072	
 --	 --	 --	 --	 --	       1.975	     1.02052	     1.01094	           0	    0.009574	           1	           0	     193.152	    0.899986	      1.1219	
 --	 --	 --	 --	 --	         2.1	      1.0167	     1.01112	           0	  0.00558313	           1	           0	     67.3477	    0.945602	     1.07664	
 --	 --	 --	 --	 --	       2.225	      1.0184	     1.01126	           0	  0.00714027	           1	           0	     30.4005	    0.967241	     1.05528	
 --	 --	 --	 --	 --	        2.35	     1.01367	     1.01137	           0	  0.00230353	           1	           0	     24.5913	    0.971778	     1.05096	
 --	 --	 --	 --	 --	       2.475	     1.01796	     1.01145	           0	  0.00651066	           1	           0	     -318.66	     1.01145	     1.01145	
 --	 --	 --	 --	 --	         2.6	     1.01821	     1.01152	           0	  0.00669339	           1	           0	    -16.8374	     1.01152	     1.01152	
 --	 --	 --	 --	 --	       2.725	     1.01783	     1.01157	           0	  0.00626062	           1	           0	    -205.558	     1.01157	     1.01157	
 --	 --	 --	 --	 --	        2.85	     1.01867	     1.01161	           0	  0.00705816	           1	           0	     -160.09	     1.01161	     1.01161	
 --	 --	 --	 --	 --	       2.975	     1.01844	     1.01164	           0	  0.00679876	           1	           0	     178.852	     0.90487	     1.11841	
 --	 --	 --	 --	 --	         3.1	     1.01262	     1.01167	           0	 0.000956979	           1	           0	    -253.639	     1.01167	     1.01167	
 --	 --	 --	 --	 --	       3.225	     1.01932	     1.01168	           0	   0.0076323	           1	           0	    -285.258	     1.01168	     1.01168	
 --	 --	 --	 --	 --	        3.35	     1.01789	      1.0117	           0	   0.0061873	           1	           0	     109.741	    0.928063	     1.09533	
 --	 --	 --	 --	 --	       3.475	     1.01674	     1.01171	           0	   0.0050313	           1	           0	     155.555	    0.912136	     1.11129	
 --	 --	 --	 --	 --	         3.6	     1.01737	     1.01172	           0	  0.00565084	           1	           0	     55.6155	     0.95218	     1.07126	
 --	 --	 --	 --	 --	       3.725	     1.01976	     1.01173	           0	  0.00802935	           1	           0	     126.091	    0.922077	     1.10138	
 --	 --	 --	 --	 --	        3.85	     1.01716	     1.01173	           0	  0.00543115	           1	           0	      215.94	    0.894411	     1.12905	
 --	 --	 --	 --	 --	       3.975	     1.01598	     1.01174	           0	  0.00424066	           1	           0	     185.543	    0.902986	     1.12049	
 --	 --	 --	 --	 --	         4.1	     1.02121	     1.01174	           0	  0.00946635	           1	           0	    -20.6899	     1.01174	     1.01174	
 --	 --	 --	 --	 --	       4.225	     1.01316	     1.01174	           0	  0.00141552	           1	           0	     243.311	    0.887208	     1.13628	
 --	 --	 --	 --	 --	        4.35	     1.02151	     1.01174	           0	  0.00976576	           1	           0	     117.645	    0.925149	     1.09834	
 --	 --	 --	 --	 --	       4.475	     1.01781	     1.01175	           0	  0.00606269	           1	           0	     111.639	     0.92739	      1.0961	
 --	 --	 --	 --	 --	         4.6	     1.01783	     1.01175	           0	  0.00608222	           1	           0	     148.509	    0.914454	     1.10904	
 --	 --	 --	 --	 --	       4.725	     1.01651	     1.01175	           0	  0.00476502	           1	           0	     121.921	    0.923593	      1.0999	
 --	 --	 --	 --	 --	        4.85	     1.01693	     1.01175	           0	  0.00518428	           1	           0	    -189.568	     1.01175	     1.01175	
 --	 --	 --	 --	 --	       4.975	      1.0188	     1.01175	           0	   0.0070542	           1	           0	     123.691	    0.922957	     1.10054	
 --	 --	 --	 --	 --	         5.1	     1.01621	     1.01175	           0	  0.00445925	           1	           0	     156.358	    0.911918	     1.11158	
 --	 --	 --	 --	 --	       5.225	     1.01565	     1.01175	           0	  0.00390365	           1	           0	    -167.383	     1.01175	     1.01175	
 --	 --	 --	 --	 --	        5.35	     1.01598	     1.01175	           0	  0.00422762	           1	           0	    -55.9879	     1.01175	     1.01175	
 --	 --	 --	 --	 --	       5.475	      1.0184	     1.01175	           0	  0.00665191	           1	           0	    -29.9223	     1.01175	     1.01175	
 --	 --	 --	 --	 --	         5.6	     1.01749	     1.01175	           0	  0.00573624	           1	           0	     153.323	    0.912893	     1.11061	
 --	 --	 --	 --	 --	       5.725	     1.01508	     1.01175	           0	  0.00333086	           1	           0	     -263.11	     1.01175	     1.01175	
 --	 --	 --	 --	 --	        5.85	     1.01687	     1.01175	           0	  0.00512351	           1	           0	     84.3951	    0.938407	      1.0851	
 --	 --	 --	 --	 --	       5.975	     1.01672	     1.01175	           0	  0.00497318	           1	           0	    -270.304	     1.01175	     1.01175	
 --	 --	 --	 --	 --	         6.1	     1.01386	     1.01175	           0	  0.00211112	           1	           0	     82.1398	    0.939393	     1.08411	
 --	 --	 --	 --	 --	       6.225	     1.01491	     1.01175	           0	  0.00316032	           1	           0	    -96.8522	     1.01175	     1.01175	
 --	 --	 --	 --	 --	        6.35	     1.01678	     1.01175	           0	  0.00502878	           1	           0	    -71.4986	     1.01175	     1.01175	
 --	 --	 --	 --	 --	       6.475	     1.01873	     1.01175	           0	  0.00697376	           1	           0	     182.702	    0.903837	     1.11967	
 --	 --	 --	 --	 --	         6.6	     1.01689	     1.01175	           0	  0.00514273	           1	           0	    -25.1277	     1.01175	     1.01175	
 --	 --	 --	 --	 --	       6.725	     1.01691	     1.01175	           0	  0.00516047	           1	           0	    -307.789	     1.01175	     1.01175	
 --	 --	 --	 --	 --	        6.85	     1.01461	     1.01175	           0	   0.0028577	           1	           0	    -131.566	     1.01175	     1.01175	
 --	 --	 --	 --	 --	       6.975	     1.01516	     1.01175	           0	  0.00340869	           1	           0	     94.7874	    0.934022	     1.08948	
 --	 --	 --	 --	 --	         7.1	     1.01419	     1.01175	           0	  0.00243493	           1	           0	    -62.9975	     1.01175	     1.01175	
 --	 --	 --	 --	 --	       7.225	     1.01653	     1.01175	           0	  0.00478043	           1	           0	    -220.455	     1.01175	     1.01175	
 --	 --	 --	 --	 --	        7.35	     1.01924	     1.01175	           0	  0.00749042	           1	           0	     14.9751	    0.980856	     1.04265	
 --	 --	 --	 --	 --	       7.475	     1.01537	     1.01175	           0	  0.00361767	           1	           0	     130.815	    0.920438	     1.10307	
 --	 --	 --	 --	 --	         7.6	     1.02081	     1.01175	           0	  0.00905366	           1	           0	    -19.3891	     1.01175	     1.01175	
 --	 --	 --	 --	 --	       7.725	     1.02029	     1.01175	           0	  0.00853766	           1	           0	    -212.333	     1.01175	     1.01175	
 --	 --	 --	 --	 --	        7.85	     1.01527	     1.01175	           0	  0.00352216	           1	           0	    -248.624	     1.01175	     1.01175	
 --	 --	 --	 --	 --	       7.975	     1.01857	     1.01175	           0	  0.00682266	           1	           0	     30.4572	    0.967691	     1.05581	
 --	 --	 --	 --	 --	         8.1	     1.01735	     1.01175	           0	  0.00560116	           1	           0	     62.2316	     0.94877	     1.07473	
 --	 --	 --	 --	 --	       8.225	     1.01474	     1.01175	           0	  0.00298891	           1	           0	    -55.0318	     1.01175	     1.01175	
 --	 --	 --	 --	 --	        8.35	     1.01653	     1.01175	           0	  0.00477916	           1	           0	      29.947	    0.968061	     1.05544	
 --	 --	 --	 --	 --	       8.475	     1.02493	     1.01175	           0	   0.0131762	           1	           0	    -139.545	     1.01175	     1.01175	
 --	 --	 --	 --	 --	         8.6	     1.01653	     1.01175	           0	   0.0047804	           1	           0	     34.7144	    0.964712	     1.05879	
 --	 --	 --	 --	 --	       8.725	     1.01884	     1.01175	           0	  0.00708815	           1	           0	     146.811	    0.915016	     1.10849	
 --	 --	 --	 --	 --	        8.85	     1.01419	     1.01175	           0	  0.00243465	           1	           0	    -155.178	     1.01175	     1.01175	
 --	 --	 --	 --	 --	       8.975	      1.0131	     1.01175	           0	   0.0013474	           1	           0	    -31.3474	     1.01175	     1.01175	
 --	 --	 --	 --	 --	         9.1	     1.01537	     1.01175	           0	  0.00361865	           1	           0	     144.547	    0.915764	     1.10774	
 --	 --	 --	 --	 --	       9.225	     1.01421	     1.01175	           0	   0.0024549	           1	           0	    -30.8863	     1.01175	     1.01175	
 --	 --	 --	 --	 --	        9.35	     1.01638	     1.01175	           0	   0.0046269	           1	           0	      323.48	    0.868159	     1.15534	
 --	 --	 --	 --	 --	       9.475	     1.01884	     1.01175	           0	  0.00708965	           1	           0	    -153.276	     1.01175	     1.01175	
 --	 --	 --	 --	 --	         9.6	     1.01466	     1.01175	           0	   0.0029104	           1	           0	    -261.781	     1.01175	     1.01175	
 --	 --	 --	 --	 --	       9.725	     1.01676	     1.01175	           0	  0.00500865	           1	           0	    -374.637	     1.01175	     1.01175	
 --	 --	 --	 --	 --	        9.85	     1.01379	     1.01175	           0	   0.0020344	           1	           0	      95.793	    0.933611	     1.08989	
 --	 --	 --	 --	 --	       9.975	     1.01293	     1.01175	           0	   0.0011779	           1	           0	    -17.3985	     1.01175	     1.01175	
 --	 --	 --	 --	 --	        10.4	     1.01318	     1.01175	           0	  0.00142465	           1	           0	     9.55748	    0.987069	     1.03643	
 --	 --	 --	 --	 --	        10.9	     1.00942	     1.01175	           0	 -0.00233285	           1	           0	     2.63082	    0.998802	      1.0247	
 --	 --	 --	 --	 --	        11.4	     1.01909	     1.01175	           0	  0.00733615	           1	           0	    -294.679	     1.01175	     1.01175	
 --	 --	 --	 --	 --	        11.9	     1.01152	     1.01175	           0	-0.000233847	           1	           0	     42.3711	    0.959783	     1.06372	
 --	 --	 --	 --	 --	        12.4	     1.01514	     1.01175	           0	   0.0033889	           1	           0	    -259.353	     1.01175	     1.01175	
 --	 --	 --	 --	 --	        12.9	     1.01376	     1.01175	           0	   0.0020134	           1	           0	    -221.241	     1.01175	     1.01175	
 --	 --	 --	 --	 --	        13.4	     1.01724	     1.01175	           0	  0.00548515	           1	           0	     133.421	    0.919532	     1.10397	
 --	 --	 --	 --	 --	        13.9	     1.01453	     1.01175	           0	  0.00277865	           1	           0	    -86.3588	     1.01175	     1.01175	
 --	 --	 --	 --	 --	        14.4	     1.01407	     1.01175	           0	  0.00232015	           1	           0	    -49.1098	     1.01175	     1.01175	
 --	 --	 --	 --	 --	        14.9	     1.01602	     1.01175	           0	  0.00426615	           1	           0	    -86.3268	     1.01175	     1.01175	
 --	 --	 --	 --	 --	        15.4	     1.01722	     1.01175	           0	   0.0054679	           1	           0	    -49.1098	     1.01175	     1.01175	
 --	 --	 --	 --	 --	        15.9	     1.01533	     1.01175	           0	  0.00358065	           1	           0	    -49.1205	     1.01175	     1.01175	
 --	 --	 --	 --	 --	        16.4	     1.01018	     1.01175	           0	  -0.0015701	           1	           0	    -86.3374	     1.01175	     1.01175	
 --	 --	 --	 --	 --	        16.9	     1.01566	     1.01175	           0	  0.00390365	           1	           0	    -49.0884	     1.01175	     1.01175	
 --	 --	 --	 --	 --	        17.4	      1.0155	     1.01175	           0	   0.0037499	           1	           0	    -49.0884	     1.01175	     1.01175	
 --	 --	 --	 --	 --	        17.9	      1.0122	     1.01175	           0	 0.000450153	           1	           0	     133.432	    0.919529	     1.10397	
 --	 --	 --	 --	 --	        18.4	     1.01052	     1.01175	           0	 -0.00122785	           1	           0	    -86.3481	     1.01175	     1.01175	
 --	 --	 --	 --	 --	        18.9	     1.01339	     1.01175	           0	  0.00163415	           1	           0	    -86.3482	     1.01175	     1.01175	
 --	 --	 --	 --	 --	        19.4	     1.01066	     1.01175	           0	 -0.00109285	           1	           0	     125.306	    0.922381	     1.10112	
 --	 --	 --	 --	 --	        19.9	     1.01811	     1.01175	           0	   0.0063619	           1	           0	     133.421	    0.919532	     1.10397	
 --	 --	 --	 --	 --	        20.4	     1.01365	     1.01175	           0	  0.00190165	           1	           0	     133.443	    0.919525	     1.10398	
 --	 --	 --	 --	 --	        20.9	     1.01392	     1.01175	           0	   0.0021684	           1	           0	    -86.3481	     1.01175	     1.01175	
 --	 --	 --	 --	 --	        21.4	     1.01144	     1.01175	           0	-0.000310847	           1	           0	    -49.1098	     1.01175	     1.01175	
 --	 --	 --	 --	 --	        21.9	     1.01422	     1.01175	           0	  0.00247315	           1	           0	    -86.3481	     1.01175	     1.01175	
 --	 --	 --	 --	 --	        22.4	     1.01024	     1.01175	           0	  -0.0015141	           1	           0	    -86.3481	     1.01175	     1.01175	
 --	 --	 --	 --	 --	        22.9	      1.0147	     1.01175	           0	   0.0029499	           1	           0	     133.421	    0.919532	     1.10397	
 --	 --	 --	 --	 --	        23.4	     1.01489	     1.01175	           0	   0.0031394	           1	           0	    -86.3375	     1.01175	     1.01175	
 --	 --	 --	 --	 --	        23.9	     1.00926	     1.01175	           0	  -0.0024866	           1	           0	    -86.3375	     1.01175	     1.01175	
 --	 --	 --	 --	 --	        24.4	     1.00583	     1.01175	           0	  -0.0059186	           1	           0	    -49.0991	     1.01175	     1.01175	
 --	 --	 --	 --	 --	        24.9	     1.01319	     1.01175	           0	  0.00144215	           1	           0	    -49.0991	     1.01175	     1.01175	
 --	 --	 --	 --	 --	        25.4	     1.01581	     1.01175	           0	  0.00405665	           1	           0	    -49.1098	     1.01175	     1.01175	
 --	 --	 --	 --	 --	        25.9	     1.01052	     1.01175	           0	  -0.0012281	           1	           0	    -49.1098	     1.01175	     1.01175	
 --	 --	 --	 --	 --	        26.4	     1.00881	     1.01175	           0	 -0.00294335	           1	           0	    -49.1098	     1.01175	     1.01175	
 --	 --	 --	 --	 --	        26.9	     1.01148	     1.01175	           0	-0.000275097	           1	           0	    -49.1098	     1.01175	     1.01175	
 --	 --	 --	 --	 --	        27.4	     1.01011	     1.01175	           0	 -0.00164585	           1	           0	    -86.3481	     1.01175	     1.01175	
 --	 --	 --	 --	 --	        27.9	     1.01255	     1.01175	           0	 0.000795653	           1	           0	    -86.3481	     1.01175	     1.01175	
 --	 --	 --	 --	 --	        28.4	     1.00746	     1.01175	           0	  -0.0042956	           1	           0	    -86.3481	     1.01175	     1.01175	
 --	 --	 --	 --	 --	        28.9	     1.01249	     1.01175	           0	 0.000737153	           1	           0	    -86.3481	     1.01175	     1.01175	
 --	 --	 --	 --	 --	        29.4	      1.0131	     1.01175	           0	  0.00134765	           1	           0	    -86.3481	     1.01175	     1.01175	
 --	 --	 --	 --	 --	        29.9	     1.01342	     1.01175	           0	   0.0016714	           1	           0	    -86.3481	     1.01175	     1.01175	
 --	 --	 --	 --	 --	        30.4	     1.01026	     1.01175	           0	  -0.0014946	           1	           0	    -86.3481	     1.01175	     1.01175	
 --	 --	 --	 --	 --	        30.9	     1.01135	     1.01175	           0	-0.000406347	           1	           0	    -86.3481	     1.01175	     1.01175	
 --	 --	 --	 --	 --	        31.4	     1.01482	     1.01175	           0	  0.00306465	           1	           0	     133.421	    0.919532	     1.10397	
 --	 --	 --	 --	 --	        31.9	     1.00795	     1.01175	           0	 -0.00380185	           1	           0	     133.421	    0.919532	     1.10397	
 --	 --	 --	 --	 --	        32.4	     1.00663	     1.01175	           0	 -0.00511835	           1	           0	    -86.3375	     1.01175	     1.01175	
 --	 --	 --	 --	 --	        32.9	      1.0139	     1.01175	           0	  0.00214865	           1	           0	    -86.3375	     1.01175	     1.01175	
 --	 --	 --	 --	 --	        33.4	     1.00751	     1.01175	           0	 -0.00424085	           1	           0	    -86.3375	     1.01175	     1.01175	
 --	 --	 --	 --	 --	        33.9	     1.01144	     1.01175	           0	-0.000311347	           1	           0	    -86.3481	     1.01175	     1.01175	
 --	 --	 --	 --	 --	        34.4	     1.00454	     1.01175	           0	 -0.00721635	           1	           0	    -86.3481	     1.01175	     1.01175	
 --	 --	 --	 --	 --	        34.9	     1.00923	     1.01175	           0	  -0.0025231	           1	           0	    -86.3481	     1.01175	     1.01175	
 --	 --	 --	 --	 --	        35.4	     1.00637	     1.01175	           0	 -0.00538535	           1	           0	    -86.3481	     1.01175	     1.01175	
 --	 --	 --	 --	 --	        35.9	     1.01113	     1.01175	           0	-0.000617847	           1	           0	    -86.3481	     1.01175	     1.01175	
 --	 --	 --	 --	 --	        36.4	     1.01661	     1.01175	           0	   0.0048559	           1	           0	    -86.3481	     1.01175	     1.01175	
 --	 --	 --	 --	 --	        36.9	     1.00978	     1.01175	           0	  -0.0019711	           1	           0	    -86.3481	     1.01175	     1.01175	
 --	 --	 --	 --	 --	        37.4	     1.00783	     1.01175	           0	  -0.0039171	           1	           0	    -86.3481	     1.01175	     1.01175	
 --	 --	 --	 --	 --	        37.9	     1.01085	     1.01175	           0	-0.000903097	           1	           0	    -86.3481	     1.01175	     1.01175	
 --	 --	 --	 --	 --	        38.4	      1.0028	     1.01175	           0	 -0.00895135	           1	           0	    -86.3481	     1.01175	     1.01175	
 --	 --	 --	 --	 --	        38.9	     1.00848	     1.01175	           0	 -0.00326785	           1	           0	    -86.3481	     1.01175	     1.01175	
 --	 --	 --	 --	 --	        39.4	     1.01047	     1.01175	           0	 -0.00128335	           1	           0	    -86.3481	     1.01175	     1.01175	
 --	 --	 --	 --	 --	        39.9	     1.01199	     1.01175	           0	 0.000240653	           1	           0	    -86.3481	     1.01175	     1.01175	
 --	 --	 --	 --	 --	        40.4	     1.00694	     1.01175	           0	 -0.00481285	           1	           0	    -86.3481	     1.01175	     1.01175	
 --	 --	 --	 --	 --	        40.9	     1.01245	     1.01175	           0	 0.000699403	           1	           0	    -86.3481	     1.01175	     1.01175	
 --	 --	 --	 --	 --	        41.4	     1.00713	     1.01175	           0	 -0.00462135	           1	           0	    -86.3481	     1.01175	     1.01175	
 --	 --	 --	 --	 --	        41.9	     1.01056	     1.01175	           0	  -0.0011891	           1	           0	    -86.3481	     1.01175	     1.01175	
 --	 --	 --	 --	 --	        42.4	      1.0102	     1.01175	           0	  -0.0015506	           1	           0	    -86.3481	     1.01175	     1.01175	
 --	 --	 --	 --	 --	        42.9	     1.01072	     1.01175	           0	  -0.0010356	           1	           0	    -86.3375	     1.01175	     1.01175	
 --	 --	 --	 --	 --	        43.4	     1.01262	     1.01175	           0	 0.000871403	           1	           0	    -86.3375	     1.01175	     1.01175	
 --	 --	 --	 --	 --	        43.9	     1.00537	     1.01175	           0	 -0.00637735	           1	           0	    -86.3268	     1.01175	     1.01175	
 --	 --	 --	 --	 --	        44.4	     1.01127	     1.01175	           0	-0.000483097	           1	           0	    -86.3268	     1.01175	     1.01175	
 --	 --	 --	 --	 --	        44.9	     1.00602	     1.01175	           0	 -0.00572835	           1	           0	    -86.3268	     1.01175	     1.01175	
 --	 --	 --	 --	 --	        45.4	     1.00799	     1.01175	           0	  -0.0037646	           1	           0	    -86.3268	     1.01175	     1.01175	
 --	 --	 --	 --	 --	        45.9	     1.00877	     1.01175	           0	 -0.00298235	           1	           0	    -86.3268	     1.01175	     1.01175	
 --	 --	 --	 --	 --	        46.4	     1.01138	     1.01175	           0	-0.000369597	           1	           0	    -86.3268	     1.01175	     1.01175	
 --	 --	 --	 --	 --	        46.9	     1.00902	     1.01175	           0	  -0.0027326	           1	           0	    -86.3268	     1.01175	     1.01175	
 --	 --	 --	 --	 --	        47.4	     1.00741	     1.01175	           0	  -0.0043366	           1	           0	    -86.3268	     1.01175	     1.01175	
 --	 --	 --	 --	 --	        47.9	     1.01085	     1.01175	           0	-0.000904347	           1	           0	    -86.3374	     1.01175	     1.01175	
 --	 --	 --	 --	 --	        48.4	     1.00616	     1.01175	           0	 -0.00559385	           1	           0	    -86.3374	     1.01175	     1.01175	
 --	 --	 --	 --	 --	        48.9	     1.00803	     1.01175	           0	 -0.00372485	           1	           0	    -86.3481	     1.01175	     1.01175	
 --	 --	 --	 --	 --	        49.4	     1.00902	     1.01175	           0	 -0.00273285	           1	           0	    -86.3481	     1.01175	     1.01175	
 --	 --	 --	 --	 --	        49.9	     1.01056	     1.01175	           0	  -0.0011901	           1	           0	    -86.3481	     1.01175	     1.01175	
 --	 --	 --	 --	 --	        50.4	     1.00909	     1.01175	           0	 -0.00265785	           1	           0	    -86.3481	     1.01175	     1.01175	
 --	 --	 --	 --	 --	        50.9	     1.01295	     1.01175	           0	  0.00119615	           1	           0	    -86.3481	     1.01175	     1.01175	
 --	 --	 --	 --	 --	        51.4	      1.0093	     1.01175	           0	  -0.0024486	           1	           0	    -86.3481	     1.01175	     1.01175	
 --	 --	 --	 --	 --	        51.9	     1.01422	     1.01175	           0	  0.00247365	           1	           0	    -86.3481	     1.01175	     1.01175	
 --	 --	 --	 --	 --	        52.4	     1.00742	     1.01175	           0	 -0.00433585	           1	           0	    -86.3481	     1.01175	     1.01175	
 --	 --	 --	 --	 --	        52.9	     1.01194	     1.01175	           0	 0.000185153	           1	           0	    -86.3481	     1.01175	     1.01175	
 --	 --	 --	 --	 --	        53.4	     1.01022	     1.01175	           0	  -0.0015331	           1	           0	    -86.3481	     1.01175	     1.01175	
 --	 --	 --	 --	 --	        53.9	     1.00965	     1.01175	           0	 -0.00210485	           1	           0	    -86.3481	     1.01175	     1.01175	
 --	 --	 --	 --	 --	        54.4	     1.00949	     1.01175	           0	  -0.0022571	           1	           0	    -86.3481	     1.01175	     1.01175	
 --	 --	 --	 --	 --	        54.9	     1.00971	     1.01175	           0	  -0.0020456	           1	           0	    -86.3481	     1.01175	     1.01175	
 --	 --	 --	 --	 --	        55.4	     1.00927	     1.01175	           0	 -0.00248485	           1	           0	    -86.3481	     1.01175	     1.01175	
 --	 --	 --	 --	 --	        55.9	     1.00734	     1.01175	           0	 -0.00441185	           1	           0	    -86.3481	     1.01175	     1.01175	
 --	 --	 --	 --	 --	        56.4	     1.00774	     1.01175	           0	 -0.00401235	           1	           0	    -86.3481	     1.01175	     1.01175	
 --	 --	 --	 --	 --	        56.9	     1.01585	     1.01175	           0	   0.0040949	           1	           0	    -86.3375	     1.01175	     1.01175	
 --	 --	 --	 --	 --	        57.4	     1.00921	     1.01175	           0	  -0.0025421	           1	           0	    -86.3375	     1.01175	     1.01175	
 --	 --	 --	 --	 --	        57.9	     1.00642	     1.01175	           0	 -0.00532885	           1	           0	    -86.3268	     1.01175	     1.01175	
 --	 --	 --	 --	 --	        58.4	     1.01031	     1.01175	           0	 -0.00143685	           1	           0	    -86.3268	     1.01175	     1.01175	
 --	 --	 --	 --	 --	        58.9	     1.00902	     1.01175	           0	  -0.0027346	           1	           0	    -86.3268	     1.01175	     1.01175	
 --	 --	 --	 --	 --	        59.4	     1.01436	     1.01175	           0	  0.00260565	           1	           0	    -86.3268	     1.01175	     1.01175	
 --	 --	 --	 --	 --	        59.9	     1.00755	     1.01175	           0	 -0.00420135	           1	           0	    -86.3268	     1.01175	     1.01175	
 --	 --	 --	 --	 --	        60.4	     1.01339	     1.01175	           0	  0.00163565	           1	           0	    -86.3268	     1.01175	     1.01175	
 --	 --	 --	 --	 --	        60.9	     1.01363	     1.01175	           0	  0.00188265	           1	           0	    -86.3268	     1.01175	     1.01175	
 --	 --	 --	 --	 --	        61.4	     1.00768	     1.01175	           0	 -0.00406835	           1	           0	    -86.3268	     1.01175	     1.01175	
 --	 --	 --	 --	 --	        61.9	     1.01213	     1.01175	           0	 0.000376903	           1	           0	    -86.3268	     1.01175	     1.01175	
 --	 --	 --	 --	 --	        62.4	     1.00873	     1.01175	           0	  -0.0030206	           1	           0	    -86.3268	     1.01175	     1.01175	
 --	 --	 --	 --	 --	        62.9	     1.01114	     1.01175	           0	-0.000616097	           1	           0	    -86.3268	     1.01175	     1.01175	
 --	 --	 --	 --	 --	        63.4	     1.01154	     1.01175	           0	-0.000215597	           1	           0	    -86.3268	     1.01175	     1.01175	
 --	 --	 --	 --	 --	        63.9	     1.01253	     1.01175	           0	 0.000776403	           1	           0	    -86.3268	     1.01175	     1.01175	
 --	 --	 --	 --	 --	        64.4	     1.00423	     1.01175	           0	  -0.0075211	           1	           0	    -86.3268	     1.01175	     1.01175	
 --	 --	 --	 --	 --	        64.9	     1.01312	     1.01175	           0	   0.0013679	           1	           0	    -86.3268	     1.01175	     1.01175	
 --	 --	 --	 --	 --	        65.4	     1.00572	     1.01175	           0	  -0.0060346	           1	           0	    -86.3268	     1.01175	     1.01175	
 --	 --	 --	 --	 --	        65.9	     1.00846	     1.01175	           0	 -0.00328735	           1	           0	    -86.3268	     1.01175	     1.01175	
 --	 --	 --	 --	 --	        66.4	     1.00795	     1.01175	           0	 -0.00380235	           1	           0	    -86.3268	     1.01175	     1.01175	
 --	 --	 --	 --	 --	        66.9	     1.01112	     1.01175	           0	-0.000636347	           1	           0	    -86.3268	     1.01175	     1.01175	
 --	 --	 --	 --	 --	        67.4	     1.01142	     1.01175	           0	-0.000331597	           1	           0	    -86.3268	     1.01175	     1.01175	
 --	 --	 --	 --	 --	        67.9	     1.00242	     1.01175	           0	 -0.00933335	           1	           0	    -86.3268	     1.01175	     1.01175	
 --	 --	 --	 --	 --	        68.4	      1.0065	     1.01175	           0	 -0.00525335	           1	           0	    -86.3268	     1.01175	     1.01175	
 --	 --	 --	 --	 --	        68.9	     1.00667	     1.01175	           0	 -0.00507885	           1	           0	    -86.3375	     1.01175	     1.01175	
 --	 --	 --	 --	 --	        69.4	     1.00986	     1.01175	           0	 -0.00189485	           1	           0	    -86.3375	     1.01175	     1.01175	
 --	 --	 --	 --	 --	        69.9	     1.01293	     1.01175	           0	   0.0011774	           1	           0	    -86.3481	     1.01175	     1.01175	
 --	 --	 --	 --	 --	        70.4	     1.00677	     1.01175	           0	 -0.00498535	           1	           0	    -86.3481	     1.01175	     1.01175	
 --	 --	 --	 --	 --	        70.9	     1.00774	     1.01175	           0	  -0.0040111	           1	           0	    -86.3481	     1.01175	     1.01175	
 --	 --	 --	 --	 --	        71.4	     1.00068	     1.01175	           0	  -0.0110688	           1	           0	    -86.3481	     1.01175	     1.01175	
 --	 --	 --	 --	 --	        71.9	     1.01003	     1.01175	           0	  -0.0017231	           1	           0	    -86.3481	     1.01175	     1.01175	
 --	 --	 --	 --	 --	        72.4	     1.00658	     1.01175	           0	  -0.0051751	           1	           0	    -86.3481	     1.01175	     1.01175	
 --	 --	 --	 --	 --	        72.9	     1.01054	     1.01175	           0	  -0.0012086	           1	           0	    -86.3481	     1.01175	     1.01175	
 --	 --	 --	 --	 --	        73.4	     1.00091	     1.01175	           0	  -0.0108403	           1	           0	    -86.3481	     1.01175	     1.01175	
 --	 --	 --	 --	 --	        73.9	     1.00806	     1.01175	           0	  -0.0036891	           1	           0	    -86.3481	     1.01175	     1.01175	
 --	 --	 --	 --	 --	        74.4	     1.01272	     1.01175	           0	 0.000965653	           1	           0	    -86.3481	     1.01175	     1.01175	
 --	 --	 --	 --	 --	        74.9	      1.0041	     1.01175	           0	 -0.00765335	           1	           0	    -86.3481	     1.01175	     1.01175	
 --	 --	 --	 --	 --	        75.4	     1.00482	     1.01175	           0	 -0.00693085	           1	           0	    -86.3481	     1.01175	     1.01175	
 --	 --	 --	 --	 --	        75.9	       1.006	     1.01175	           0	 -0.00574785	           1	           0	    -86.3481	     1.01175	     1.01175	
 --	 --	 --	 --	 --	        76.4	      1.0052	     1.01175	           0	  -0.0065486	           1	           0	    -86.3481	     1.01175	     1.01175	
 --	 --	 --	 --	 --	        76.9	     1.00801	     1.01175	           0	 -0.00374535	           1	           0	    -86.3481	     1.01175	     1.01175	
 --	 --	 --	 --	 --	        77.4	     1.00862	     1.01175	           0	 -0.00313535	           1	           0	    -86.3481	     1.01175	     1.01175	
 --	 --	 --	 --	 --	        77.9	     1.00963	     1.01175	           0	 -0.00212235	           1	           0	    -86.3481	     1.01175	     1.01175	
 --	 --	 --	 --	 --	        78.4	     1.00888	     1.01175	           0	  -0.0028691	           1	           0	    -86.3481	     1.01175	     1.01175	
 --	 --	 --	 --	 --	        78.9	     1.00753	     1.01175	           0	 -0.00422235	           1	           0	    -86.3481	     1.01175	     1.01175	
 --	 --	 --	 --	 --	        79.4	     1.00759	     1.01175	           0	  -0.0041631	           1	           0	    -86.3481	     1.01175	     1.01175	
 --	 --	 --	 --	 --	        79.9	     1.00442	     1.01175	           0	  -0.0073306	           1	           0	    -86.3481	     1.01175	     1.01175	
 --	 --	 --	 --	 --	        80.4	     1.00957	     1.01175	           0	  -0.0021796	           1	           0	    -86.3481	     1.01175	     1.01175	
 --	 --	 --	 --	 --	        80.9	     1.00936	     1.01175	           0	 -0.00238985	           1	           0	    -86.3481	     1.01175	     1.01175	
 --	 --	 --	 --	 --	        81.4	     1.00009	     1.01175	           0	  -0.0116588	           1	           0	    -86.3481	     1.01175	     1.01175	
 --	 --	 --	 --	 --	        81.9	     1.00833	     1.01175	           0	  -0.0034201	           1	           0	    -86.3481	     1.01175	     1.01175	
 --	 --	 --	 --	 --	        82.4	     1.00604	     1.01175	           0	  -0.0057101	           1	           0	    -86.3481	     1.01175	     1.01175	
 --	 --	 --	 --	 --	        82.9	     1.00896	     1.01175	           0	  -0.0027906	           1	           0	    -86.3481	     1.01175	     1.01175	
 --	 --	 --	 --	 --	        83.4	     1.00694	     1.01175	           0	 -0.00481285	           1	           0	    -86.3481	     1.01175	     1.01175	
 --	 --	 --	 --	 --	        83.9	     1.00804	     1.01175	           0	 -0.00370735	           1	           0	    -86.3481	     1.01175	     1.01175	
 --	 --	 --	 --	 --	        84.4	     1.01083	     1.01175	           0	-0.000922347	           1	           0	    -86.3481	     1.01175	     1.01175	
 --	 --	 --	 --	 --	        84.9	     1.00842	     1.01175	           0	 -0.00332635	           1	           0	    -86.3481	     1.01175	     1.01175	
 --	 --	 --	 --	 --	        85.4	     1.00528	     1.01175	           0	 -0.00647235	           1	           0	    -86.3481	     1.01175	     1.01175	
 --	 --	 --	 --	 --	        85.9	     1.00368	     1.01175	           0	  -0.0080756	           1	           0	    -86.3481	     1.01175	     1.01175	
 --	 --	 --	 --	 --	        86.4	     1.00802	     1.01175	           0	 -0.00372635	           1	           0	    -86.3375	     1.01175	     1.01175	
 --	 --	 --	 --	 --	        86.9	     1.00883	     1.01175	           0	  -0.0029246	           1	           0	    -86.3375	     1.01175	     1.01175	
 --	 --	 --	 --	 --	        87.4	     1.00419	     1.01175	           0	 -0.00755985	           1	           0	    -86.3375	     1.01175	     1.01175	
 --	 --	 --	 --	 --	        87.9	     1.00362	     1.01175	           0	  -0.0081326	           1	           0	    -86.3375	     1.01175	     1.01175	
 --	 --	 --	 --	 --	        88.4	     1.00848	     1.01175	           0	 -0.00326885	           1	           0	    -86.3375	     1.01175	     1.01175	
 --	 --	 --	 --	 --	        88.9	      1.0098	     1.01175	           0	  -0.0019521	           1	           0	    -86.3268	     1.01175	     1.01175	
 --	 --	 --	 --	 --	        89.4	     1.00446	     1.01175	           0	  -0.0072921	           1	           0	    -86.3268	     1.01175	     1.01175	
 --	 --	 --	 --	 --	        89.9	     1.00936	     1.01175	           0	 -0.00239135	           1	           0	    -86.3268	     1.01175	     1.01175	
 --	 --	 --	 --	 --	        90.4	     1.00755	     1.01175	           0	 -0.00420185	           1	           0	    -86.3268	     1.01175	     1.01175	
 --	 --	 --	 --	 --	        90.9	     1.00371	     1.01175	           0	 -0.00803635	           1	           0	    -86.3268	     1.01175	     1.01175	
 --	 --	 --	 --	 --	        91.4	     1.00801	     1.01175	           0	  -0.0037441	           1	           0	    -86.3268	     1.01175	     1.01175	
 --	 --	 --	 --	 --	        91.9	     1.00818	     1.01175	           0	 -0.00357385	           1	           0	    -86.3268	     1.01175	     1.01175	
 --	 --	 --	 --	 --	        92.4	     1.01619	     1.01175	           0	  0.00444065	           1	           0	    -86.3268	     1.01175	     1.01175	
 --	 --	 --	 --	 --	        92.9	     1.00684	     1.01175	           0	 -0.00490835	           1	           0	    -86.3268	     1.01175	     1.01175	
 --	 --	 --	 --	 --	        93.4	     1.00656	     1.01175	           0	  -0.0051931	           1	           0	    -86.3268	     1.01175	     1.01175	
 --	 --	 --	 --	 --	        93.9	     1.01001	     1.01175	           0	 -0.00174335	           1	           0	    -86.3268	     1.01175	     1.01175	
 --	 --	 --	 --	 --	        94.4	     1.00574	     1.01175	           0	  -0.0060146	           1	           0	    -86.3268	     1.01175	     1.01175	
 --	 --	 --	 --	 --	        94.9	     1.00835	     1.01175	           0	 -0.00340135	           1	           0	    -86.3268	     1.01175	     1.01175	
 --	 --	 --	 --	 --	        95.4	     1.01106	     1.01175	           0	-0.000691347	           1	           0	    -86.3268	     1.01175	     1.01175	
 --	 --	 --	 --	 --	        95.9	     1.00877	     1.01175	           0	  -0.0029826	           1	           0	    -86.3268	     1.01175	     1.01175	
 --	 --	 --	 --	 --	        96.4	     1.00873	     1.01175	           0	  -0.0030196	           1	           0	    -86.3268	     1.01175	     1.01175	
 --	 --	 --	 --	 --	        96.9	     1.00528	     1.01175	           0	  -0.0064726	           1	           0	    -86.3375	     1.01175	     1.01175	
 --	 --	 --	 --	 --	        97.4	     1.00823	     1.01175	           0	  -0.0035176	           1	           0	    -86.3375	     1.01175	     1.01175	
 --	 --	 --	 --	 --	        97.9	     1.00938	     1.01175	           0	  -0.0023726	           1	           0	    -86.3375	     1.01175	     1.01175	
 --	 --	 --	 --	 --	        98.4	      1.0082	     1.01175	           0	 -0.00355435	           1	           0	    -86.3375	     1.01175	     1.01175	
 --	 --	 --	 --	 --	        98.9	     1.00587	     1.01175	           0	 -0.00588085	           1	           0	    -86.3375	     1.01175	     1.01175	
 --	 --	 --	 --	 --	        99.4	     1.00537	     1.01175	           0	  -0.0063771	           1	           0	    -86.3375	     1.01175	     1.01175	
 --	 --	 --	 --	 --	        99.9	     1.00726	     1.01175	           0	 -0.00448885	           1	           0	    -86.3375	     1.01175	     1.01175	
 --	 --	 --	 --	 --	         100	     1.00631	     1.01175	           0	 -0.00544235	           1	           0	    -86.3375	     1.01175	     1.01175	
