%!PS-Adobe-3.0 EPSF-3.0
%%BoundingBox: 0 0 514 550
%%Creator: BioKin Ltd.
%%DocumentFonts: Symbol Helvetica
%%EndComments
%
/bkdict 256 dict def
bkdict begin
/M {moveto} def 
/R {rmoveto} def
/L {lineto} def
/rL {rlineto} def
/GSN {gsave newpath} def
/SGR {stroke grestore} def
/COSGR {gsave setrgbcolor stroke grestore grestore} def
/SL {setlinewidth} def
/LWMB {12} def             % line width - model curves, black & white
/LWMC {10} def             % line width - model curves, color
/L2 {2.5 setlinewidth} def
/L5 {5 setlinewidth} def
/L10 {10 setlinewidth} def
/G50 {0.5 setgray} def
/SDA {[10  20] 0 setdash} def % axes
/helvT {/Helvetica findfont 100 scalefont setfont} def % tiny
/helvS {/Helvetica findfont 125 scalefont setfont} def % small
/helvM {/Helvetica findfont 150 scalefont setfont} def % medium
/helvL {/Helvetica findfont 175 scalefont setfont} def % large
/xlabel {gsave M dup
   stringwidth exch -0.5 mul exch rmoveto show grestore} def 
/ylabel {gsave M 90 rotate dup
   stringwidth exch -0.5 mul exch rmoveto show grestore} def
/ylabelresid {gsave M dup
   stringwidth exch -1 mul exch rmoveto show grestore} def
% ======
% Shapes
% ======
% Circle:
/Circ {0 360 arc closepath} def
%
% Square:
/Squa {dup dup -0.5 mul dup dup R -2 mul 0 exch rL 1 mul 0 rL dup 0 exch -1 mul rL closepath} def
%
% Triangle Up:
/TriU {dup dup dup -0.4 mul exch -0.5 mul exch R dup 0.5 mul exch rL dup -1 mul exch 0.5 mul exch rL closepath} def 
%
% Triangle Down:
/TriD {dup dup dup 0.4 mul exch -0.5 mul exch R dup 0.5 mul exch -1 mul rL dup 0.5 mul exch rL closepath} def 
%
% Diamond:
/Diam {45 rotate Squa} def
% ======
% Fills
% ======
/GRF {gsave setgray fill grestore} def                    % gray-level Fill
/COF {gsave setrgbcolor fill grestore} def                % color fill
% ======
% Colors
% ======
/C01 {1.00	0.00	0.00} def      % Red
/C02 {0.00	0.00	1.00} def      % Blue
/C03 {0.00	0.39	0.00} def      % Dark Green
/C04 {0.78	0.08	0.52} def      % Medium Violet Red
/C05 {0.55	0.27	0.07} def      % Saddle Brown
/C06 {0.10	0.70	0.70} def      % (cyan)
/C07 {1.00	0.55	0.00} def      % Dark Orange
/C08 {0.63	0.13	0.94} def      % Purple
/C09 {0.00	0.75	1.00} def      % Deep Sky Blue
/C10 {0.20	0.80	0.20} def      % Lime Green
/C11 {0.47	0.53	0.60} def      % Light Slate Gray
/C12 {0.00	0.00	0.00} def      % Black            % or: {0.19	0.31	0.31} def      % Dark Slate Gray
%
/LGR {0.75} def % light gray
/DGR {0.33} def % dark gray
%
% =============
% Dash patterns
% =============
/dash01 { [80  20] 0 setdash } def
/dash02 { [40  20] 0 setdash } def
/dash03 { [80  20  10  20] 0 setdash } def
/dash04 { [40  20  10  20] 0 setdash } def
/dash05 { [80  20  10  10  10  20] 0 setdash } def
/dash06 { [40  20  10  10  10  20] 0 setdash } def
/dash07 { [10  10] 0 setdash } def
%
/MFshow {
   { dup 5 get 3 ge
     { 5 get 3 eq {gsave} {grestore} ifelse }
     {dup dup 0 get findfont exch 1 get scalefont setfont
     [ currentpoint ] exch dup 2 get 0 exch R dup 5 get 2 ne {dup dup 6
     get exch 4 get {show} {stringwidth pop 0 R} ifelse }if dup 5 get 0 eq
     {dup 3 get {2 get neg 0 exch R pop} {pop aload pop M} ifelse} {dup 5
     get 1 eq {dup 2 get exch dup 3 get exch 6 get stringwidth pop -2 div
     dup 0 R} {dup 6 get stringwidth pop -2 div 0 R 6 get
     show 2 index {aload pop M neg 3 -1 roll neg R pop pop} {pop pop pop
     pop aload pop M} ifelse }ifelse }ifelse }
     ifelse }
   forall} bind def
/MFwidth {0 exch {dup 3 get{dup dup 0 get findfont exch 1 get scalefont
     setfont 6 get stringwidth pop add} {pop} ifelse} forall} bind def
/MCshow { currentpoint stroke M
  exch dup MFwidth -2 div 3 -1 roll R MFshow } def
%
end
%%EndProlog
bkdict begin
0.1 0.1 scale
%
% Residuals:
%
GSN 620 4237 M
620 4188 L
620 3062 L
620 3420 L
620 4271 L
620 3821 L
620 3233 L
620 3634 L
620 3656 L
620 3361 L
620 3333 L
620 3800 L
620 3620 L
620 3866 L
620 3983 L
620 4255 L
620 3469 L
620 3370 L
620 3590 L
620 3663 L
620 3528 L
620 3105 L
620 4283 L
620 4139 L
620 4125 L
620 4491 L
620 3674 L
620 3802 L
620 3356 L
620 3890 L
620 3521 L
620 4102 L
620 3328 L
620 4026 L
620 4369 L
620 3668 L
620 3155 L
620 3408 L
620 2780 L
620 3356 L
620 3807 L
620 3726 L
620 3586 L
620 3026 L
620 3105 L
620 3236 L
620 3621 L
620 3583 L
620 3588 L
620 3481 L
620 3327 L
620 3319 L
620 2957 L
620 3549 L
620 3264 L
620 3480 L
620 3351 L
620 3679 L
620 3766 L
620 3598 L
620 2682 L
620 3062 L
620 3364 L
620 3540 L
620 3609 L
620 2857 L
620 3621 L
620 3663 L
620 4284 L
620 2742 L
620 3047 L
620 2524 L
620 2540 L
620 2776 L
620 3003 L
620 3127 L
620 3541 L
620 3668 L
620 3412 L
620 3799 L
620 3780 L
620 3536 L
620 2498 L
620 3363 L
620 2775 L
620 3187 L
620 3279 L
620 3778 L
620 4060 L
620 3147 L
620 3490 L
620 2930 L
620 3877 L
620 3196 L
620 3577 L
620 3281 L
620 3571 L
620 2593 L
620 3798 L
620 3004 L
620 3382 L
620 2925 L
620 3141 L
620 3837 L
620 3540 L
620 3376 L
620 3433 L
620 3792 L
620 3658 L
620 3123 L
620 3546 L
620 3162 L
620 3682 L
620 3456 L
620 2873 L
620 2868 L
620 3559 L
620 3852 L
620 3264 L
620 3050 L
620 3484 L
620 3533 L
620 3593 L
620 3404 L
620 3071 L
620 3793 L
620 3363 L
620 3586 L
620 3319 L
620 3096 L
620 2756 L
620 3072 L
620 3379 L
620 3887 L
620 3147 L
620 3517 L
620 2825 L
620 2892 L
620 3064 L
620 3221 L
620 2766 L
620 3746 L
620 3798 L
620 2853 L
620 3140 L
620 3418 L
620 3399 L
620 3280 L
620 3260 L
620 3495 L
620 3078 L
620 3037 L
620 3816 L
620 3560 L
620 3342 L
620 2953 L
620 3710 L
620 3592 L
620 3544 L
620 3331 L
620 3233 L
620 3452 L
620 4015 L
620 3785 L
620 3562 L
620 3502 L
620 2520 L
620 2996 L
620 3064 L
620 3822 L
620 3395 L
620 3663 L
620 3398 L
620 3261 L
620 2840 L
620 3173 L
620 3426 L
620 3419 L
620 3908 L
620 3329 L
620 3625 L
620 2770 L
620 3178 L
620 3022 L
620 3059 L
620 4265 L
620 3911 L
620 3442 L
620 3584 L
620 3461 L
620 3031 L
620 3758 L
620 3196 L
620 3478 L
620 3764 L
620 3578 L
620 3197 L
620 3127 L
620 3366 L
620 3192 L
620 3651 L
620 3164 L
620 3614 L
620 3743 L
620 2957 L
620 3628 L
620 3588 L
620 3264 L
620 3386 L
620 3194 L
620 3611 L
620 3340 L
620 3296 L
620 3348 L
620 3562 L
620 2777 L
620 3480 L
620 3334 L
620 3185 L
620 3889 L
620 4025 L
620 2590 L
620 2469 L
620 2724 L
620 4168 L
620 4045 L
620 3753 L
620 3954 L
620 3416 L
620 3759 L
620 3210 L
620 3466 L
620 3807 L
620 3841 L
620 3834 L
620 3614 L
620 3336 L
620 3506 L
620 3160 L
620 3738 L
620 2917 L
620 3084 L
620 3327 L
620 4272 L
620 3259 L
620 3322 L
620 3019 L
620 3391 L
620 3030 L
620 2849 L
620 3526 L
620 4144 L
620 3813 L
620 3308 L
620 3186 L
620 4013 L
620 3509 L
620 3695 L
620 3577 L
620 3511 L
620 4196 L
620 3304 L
620 4183 L
620 3950 L
620 3849 L
620 3504 L
620 3390 L
620 4068 L
620 2652 L
620 3615 L
620 3326 L
620 2758 L
620 3958 L
620 3699 L
620 3200 L
620 4148 L
620 3582 L
620 3144 L
620 3683 L
620 3920 L
620 3063 L
620 2669 L
620 3742 L
620 3558 L
620 3273 L
620 3523 L
620 4038 L
620 3860 L
620 2992 L
620 3684 L
620 3584 L
620 2992 L
620 3846 L
620 3580 L
620 3367 L
620 2949 L
620 3700 L
620 3848 L
620 3398 L
620 3347 L
620 2990 L
620 4165 L
620 3471 L
620 3886 L
620 3153 L
620 3534 L
620 3924 L
620 3057 L
620 3696 L
620 3171 L
620 3806 L
620 4044 L
620 3660 L
620 3175 L
620 2662 L
620 3619 L
620 3121 L
620 3952 L
620 3549 L
620 3832 L
620 3310 L
620 3302 L
620 3073 L
620 3020 L
620 2882 L
620 3244 L
620 3275 L
620 3959 L
620 4024 L
620 3713 L
620 2839 L
620 3541 L
620 3025 L
620 3836 L
620 3206 L
620 3493 L
620 3909 L
620 2996 L
620 3093 L
620 3276 L
620 3427 L
620 3206 L
620 3368 L
620 3842 L
620 3648 L
620 3275 L
620 2887 L
620 3635 L
620 3721 L
620 3384 L
620 3681 L
620 2821 L
620 3280 L
620 3694 L
620 3721 L
620 4100 L
620 3480 L
620 3401 L
620 3361 L
620 3499 L
620 3474 L
620 3739 L
620 3418 L
620 2936 L
620 2952 L
620 3409 L
620 3740 L
620 3806 L
620 2990 L
620 3300 L
620 3543 L
620 3267 L
620 3791 L
620 3723 L
620 3229 L
620 3899 L
620 3093 L
620 3542 L
620 3765 L
620 4252 L
620 3376 L
620 3320 L
620 2924 L
620 3140 L
620 3676 L
620 3141 L
620 3034 L
620 3589 L
620 3559 L
620 3294 L
620 4309 L
620 3264 L
620 3806 L
620 3215 L
620 3360 L
620 3209 L
620 3291 L
620 3916 L
620 3458 L
620 3471 L
620 4167 L
620 3575 L
620 2509 L
620 3829 L
620 3303 L
620 2479 L
620 3085 L
620 3198 L
620 3814 L
620 3789 L
620 3965 L
620 3651 L
620 3927 L
620 3756 L
620 3295 L
620 3033 L
620 3193 L
620 3623 L
620 3772 L
620 2861 L
620 3044 L
620 3181 L
620 3888 L
620 3578 L
620 3411 L
620 3484 L
620 3055 L
620 3431 L
620 3590 L
620 3582 L
620 3058 L
620 3615 L
620 3002 L
620 2859 L
620 3938 L
620 3032 L
620 3452 L
620 3826 L
620 3734 L
620 3255 L
620 3552 L
620 4368 L
620 3616 L
620 3723 L
620 3374 L
620 3541 L
620 3198 L
620 2669 L
620 3673 L
620 3590 L
620 3350 L
620 3468 L
620 3495 L
620 3492 L
620 4010 L
620 3305 L
620 3851 L
620 3111 L
620 3789 L
620 3855 L
620 2930 L
620 3983 L
620 3487 L
620 3497 L
620 3193 L
620 3180 L
620 3077 L
620 3187 L
620 2490 L
620 3418 L
620 3344 L
620 3282 L
620 2837 L
620 3425 L
620 3104 L
620 4184 L
620 2792 L
620 2849 L
620 3924 L
620 3291 L
620 3235 L
620 3831 L
620 3359 L
620 3270 L
620 3198 L
620 3484 L
620 3627 L
620 3542 L
620 2985 L
620 2796 L
620 3642 L
620 3213 L
620 3494 L
620 2783 L
620 3595 L
620 3587 L
620 3341 L
620 3338 L
620 3317 L
620 3856 L
620 2417 L
620 3344 L
620 3610 L
620 2713 L
620 3452 L
620 2916 L
620 3482 L
620 2806 L
620 3417 L
620 2817 L
620 3460 L
620 3451 L
620 3599 L
620 2944 L
620 3498 L
620 3393 L
620 3056 L
620 3380 L
620 3450 L
620 3207 L
620 3406 L
620 3337 L
620 3271 L
620 4344 L
620 4297 L
620 2913 L
620 3416 L
620 3107 L
620 3314 L
620 2979 L
620 3350 L
620 2835 L
620 3206 L
620 3760 L
620 3526 L
620 3879 L
620 2701 L
620 3311 L
620 3083 L
620 3787 L
620 3283 L
620 3284 L
620 3517 L
620 3196 L
620 2861 L
620 3332 L
620 3427 L
620 3546 L
620 2659 L
620 3401 L
620 3077 L
620 3343 L
620 2686 L
620 3093 L
620 3106 L
620 2771 L
620 4259 L
620 3041 L
620 3107 L
620 2711 L
620 3705 L
620 2771 L
620 3444 L
620 3084 L
620 3569 L
620 3261 L
620 3149 L
620 3609 L
620 2874 L
620 3399 L
620 3117 L
620 3425 L
620 2873 L
620 3085 L
620 3953 L
620 3260 L
620 3433 L
620 3145 L
620 3046 L
620 3259 L
620 3520 L
620 3181 L
620 2749 L
620 3157 L
620 3104 L
620 2709 L
620 3023 L
620 3450 L
620 3244 L
620 2505 L
620 3068 L
620 3703 L
620 3441 L
620 3186 L
620 3683 L
620 3516 L
620 3074 L
620 3390 L
620 3415 L
620 3146 L
620 3084 L
620 3372 L
620 3265 L
620 3367 L
620 3231 L
620 3186 L
620 2926 L
620 3159 L
620 3317 L
620 3350 L
620 3020 L
620 3622 L
620 3074 L
620 3398 L
620 3133 L
620 3161 L
620 3204 L
620 3204 L
620 2921 L
620 3005 L
620 3107 L
620 3514 L
620 3076 L
620 2989 L
620 3110 L
620 3170 L
620 2526 L
620 3042 L
620 3443 L
620 3442 L
620 3260 L
620 3322 L
620 3546 L
620 3120 L
620 3426 L
620 3261 L
620 3681 L
620 3169 L
620 3546 L
620 3666 L
620 3441 L
620 3362 L
620 3607 L
620 3390 L
620 3329 L
620 2693 L
620 3009 L
620 3064 L
620 3255 L
620 3101 L
620 3233 L
620 2858 L
620 2665 L
620 3542 L
620 2736 L
620 3663 L
620 2914 L
620 3286 L
620 3110 L
620 3050 L
620 3148 L
620 3118 L
620 3063 L
620 2919 L
620 3079 L
620 3261 L
620 2143 L
620 3042 L
620 3154 L
620 2993 L
620 3168 L
620 2987 L
620 3095 L
620 3301 L
620 3470 L
620 3418 L
620 2464 L
620 3021 L
620 3542 L
620 3263 L
620 3171 L
620 2791 L
620 3287 L
620 3303 L
620 3132 L
620 3048 L
620 3469 L
620 3108 L
620 2860 L
620 3106 L
620 2972 L
620 3126 L
620 2869 L
620 3143 L
620 3313 L
620 3121 L
620 2775 L
620 3604 L
620 2583 L
620 2520 L
620 3284 L
620 3109 L
620 2463 L
620 3624 L
620 3307 L
620 3250 L
620 3351 L
620 3521 L
620 3085 L
620 3104 L
620 3173 L
620 3889 L
620 3457 L
620 3187 L
620 3519 L
620 3332 L
620 3306 L
620 2980 L
620 3540 L
620 4103 L
620 3300 L
620 3219 L
620 2575 L
620 3203 L
620 3403 L
620 3627 L
620 3253 L
620 3509 L
620 2889 L
620 3217 L
620 3764 L
620 3204 L
620 3327 L
620 2806 L
620 3591 L
620 2241 L
620 3769 L
620 2732 L
620 3359 L
620 3766 L
620 2540 L
620 3786 L
620 3097 L
620 3705 L
620 3106 L
620 2969 L
620 3348 L
620 3391 L
620 3504 L
620 3292 L
620 3691 L
620 3560 L
620 3071 L
620 3254 L
620 3074 L
620 3468 L
620 3046 L
620 3279 L
620 3038 L
620 3581 L
620 2937 L
620 3212 L
620 4159 L
620 3262 L
620 3000 L
620 3260 L
620 3723 L
620 3435 L
620 3508 L
620 2136 L
620 3264 L
620 2816 L
620 3335 L
620 3485 L
620 3232 L
620 3198 L
620 3569 L
620 3941 L
620 2774 L
620 3626 L
620 3079 L
620 2968 L
620 3232 L
620 3507 L
620 3154 L
620 3455 L
620 3437 L
620 3086 L
620 3349 L
620 3129 L
620 2971 L
620 3477 L
620 2904 L
620 3399 L
620 3564 L
620 3175 L
620 2878 L
620 2717 L
620 3670 L
620 2700 L
620 2690 L
620 2807 L
620 3462 L
620 2874 L
620 3488 L
620 3120 L
620 3637 L
620 3329 L
620 3462 L
620 3467 L
620 3537 L
620 2869 L
620 3285 L
620 3881 L
620 2993 L
620 2821 L
620 3325 L
620 3706 L
620 3012 L
620 2745 L
620 3385 L
620 3302 L
620 3325 L
620 3755 L
620 3163 L
620 3140 L
620 3121 L
620 3453 L
620 3313 L
620 3133 L
620 3084 L
620 3616 L
620 3263 L
620 3014 L
620 2924 L
620 3020 L
620 3869 L
620 3538 L
620 3027 L
620 3542 L
620 3709 L
620 3362 L
620 2893 L
620 2745 L
620 3003 L
620 3058 L
620 3747 L
620 3176 L
620 3585 L
620 3161 L
620 3632 L
620 3107 L
620 2905 L
620 2927 L
620 2540 L
620 3346 L
620 3370 L
620 3343 L
620 3703 L
620 3127 L
620 3411 L
620 4040 L
620 3160 L
620 3269 L
620 3646 L
620 3640 L
620 3773 L
620 3027 L
620 3203 L
620 2515 L
620 3028 L
620 3014 L
620 3166 L
620 3411 L
620 2926 L
620 3011 L
620 3323 L
620 3637 L
620 2928 L
620 3386 L
620 3534 L
620 3620 L
620 3351 L
620 2652 L
620 3059 L
620 3375 L
620 3240 L
620 2732 L
620 3543 L
620 3522 L
620 2990 L
620 3183 L
620 3631 L
620 3090 L
620 3104 L
620 3094 L
620 3464 L
620 3614 L
620 3613 L
620 3463 L
620 3116 L
620 3446 L
620 3570 L
620 2768 L
620 3961 L
620 3387 L
620 3529 L
620 3027 L
620 3071 L
620 3107 L
620 3796 L
620 2988 L
620 3231 L
620 2938 L
620 3306 L
620 3217 L
620 3190 L
620 3057 L
620 3002 L
620 3262 L
620 3526 L
620 3204 L
620 3606 L
620 3530 L
620 3576 L
620 3102 L
620 3047 L
620 3618 L
620 2918 L
620 2859 L
620 3572 L
620 2880 L
620 2821 L
620 3148 L
620 3091 L
620 3558 L
620 3024 L
620 3213 L
620 3311 L
620 3321 L
620 2910 L
620 3261 L
620 3137 L
620 3442 L
620 3621 L
620 3181 L
620 3183 L
620 2951 L
620 3630 L
620 2955 L
620 3265 L
620 3741 L
620 3643 L
620 3694 L
620 3082 L
620 3588 L
620 3454 L
620 2898 L
620 3298 L
620 2946 L
620 2759 L
620 3367 L
620 3211 L
620 2966 L
620 3418 L
620 3096 L
620 3302 L
620 3228 L
620 2758 L
620 3120 L
620 3391 L
620 2911 L
620 4128 L
620 3207 L
620 3163 L
620 3342 L
620 3489 L
620 3379 L
620 3285 L
620 3286 L
620 2858 L
620 3105 L
620 3353 L
620 3492 L
620 3601 L
620 3027 L
620 2767 L
620 3405 L
620 3797 L
620 3557 L
620 2932 L
620 3359 L
620 3172 L
620 3389 L
620 3270 L
620 3386 L
620 3082 L
620 3412 L
620 3808 L
620 3506 L
620 3127 L
620 3307 L
620 3404 L
620 3198 L
620 3432 L
620 3404 L
620 3166 L
620 3769 L
620 3274 L
620 3601 L
620 2582 L
620 3309 L
620 3120 L
620 3165 L
620 2970 L
620 3910 L
620 3281 L
620 3428 L
620 3448 L
620 3098 L
620 3121 L
620 3723 L
620 3467 L
620 2258 L
620 3347 L
620 3170 L
620 3163 L
620 2918 L
620 3573 L
620 3268 L
620 3331 L
620 3524 L
620 3109 L
620 3566 L
620 3026 L
620 3032 L
620 2815 L
620 3538 L
620 3071 L
620 3120 L
620 3266 L
620 3082 L
620 3017 L
620 3210 L
620 3098 L
620 3494 L
620 3656 L
620 3459 L
620 2897 L
620 3691 L
620 3163 L
620 3882 L
620 3287 L
620 3293 L
620 3481 L
620 3074 L
620 2940 L
620 3863 L
620 2950 L
620 3347 L
620 3409 L
620 3464 L
620 3399 L
620 3396 L
620 3890 L
620 2653 L
620 2572 L
620 2561 L
620 3320 L
620 3154 L
620 3065 L
620 3254 L
620 3254 L
620 3480 L
620 3937 L
620 3345 L
620 3602 L
620 3472 L
620 2997 L
620 2964 L
620 3678 L
620 3794 L
620 3291 L
620 3308 L
620 3553 L
620 3497 L
620 3212 L
620 3548 L
620 3101 L
620 3834 L
620 3385 L
620 2998 L
620 2611 L
620 3725 L
620 3783 L
620 3364 L
620 2871 L
620 3342 L
620 3525 L
620 2972 L
620 3369 L
620 3824 L
620 2718 L
620 3463 L
620 3309 L
620 3276 L
620 3488 L
620 3161 L
620 3249 L
620 3202 L
620 3795 L
620 2783 L
620 2942 L
620 3559 L
620 3269 L
620 3668 L
620 3500 L
620 3495 L
620 2757 L
620 3195 L
620 3698 L
620 3432 L
620 3852 L
620 3919 L
620 4089 L
620 2770 L
620 3461 L
620 2889 L
620 2804 L
620 3029 L
620 3272 L
620 3736 L
620 2663 L
620 3423 L
620 3669 L
620 4057 L
620 2952 L
620 3023 L
620 2787 L
620 2986 L
620 3562 L
620 3247 L
620 3175 L
620 3104 L
620 3404 L
620 3624 L
620 3704 L
620 3553 L
620 3311 L
620 3567 L
620 3270 L
620 3200 L
620 3004 L
620 3107 L
620 3446 L
620 3602 L
620 3815 L
620 3351 L
620 3491 L
620 3377 L
620 3461 L
620 3061 L
620 3059 L
620 3022 L
620 3365 L
620 3024 L
620 3171 L
620 3361 L
620 3706 L
620 3573 L
620 3553 L
620 3356 L
620 3653 L
620 3503 L
620 3244 L
620 3249 L
620 3223 L
620 3581 L
620 3318 L
620 3758 L
620 4063 L
620 3333 L
620 3521 L
620 3407 L
620 3417 L
620 4004 L
620 3303 L
620 3262 L
620 3696 L
620 3096 L
620 3076 L
620 3547 L
620 3275 L
620 2556 L
620 3113 L
620 3822 L
620 3318 L
620 3316 L
620 3151 L
620 3157 L
620 3319 L
620 3280 L
620 3136 L
620 3159 L
620 3814 L
620 3542 L
620 3313 L
620 3467 L
620 3354 L
620 3003 L
620 3309 L
620 3351 L
620 2792 L
620 3405 L
620 4119 L
620 3912 L
620 4256 L
620 3118 L
620 3190 L
620 2948 L
620 3277 L
620 2981 L
620 3158 L
620 2936 L
620 3530 L
620 3001 L
620 3139 L
620 3179 L
620 4018 L
620 3451 L
620 2786 L
620 2838 L
620 2633 L
620 3415 L
620 3195 L
620 3808 L
620 3133 L
620 3133 L
620 2963 L
620 3378 L
620 3076 L
620 3035 L
620 4005 L
620 3392 L
620 3750 L
620 3079 L
620 4463 L
620 3205 L
620 3749 L
620 3447 L
620 2999 L
620 2919 L
620 3155 L
620 3263 L
620 2659 L
620 3050 L
620 3356 L
620 3646 L
620 3318 L
620 3133 L
620 3332 L
620 3561 L
620 2551 L
620 3164 L
620 3698 L
620 3625 L
620 2695 L
620 3634 L
620 3173 L
620 3236 L
620 3752 L
620 3640 L
620 3509 L
620 2898 L
620 3183 L
620 3231 L
620 3299 L
620 3625 L
620 3658 L
620 3278 L
620 3244 L
620 3195 L
620 4573 L
620 3306 L
620 3133 L
620 3265 L
620 4149 L
620 4343 L
620 3236 L
620 3187 L
620 3643 L
620 3875 L
620 3441 L
620 3688 L
620 3593 L
620 2905 L
620 3337 L
620 3336 L
620 3502 L
620 3762 L
620 3009 L
620 3771 L
620 3353 L
620 3847 L
620 3464 L
620 4200 L
620 3534 L
620 3368 L
620 3187 L
620 3986 L
620 3685 L
620 3120 L
620 3908 L
620 3131 L
620 3842 L
620 3662 L
620 3185 L
620 3371 L
620 3469 L
620 3171 L
620 3856 L
620 3203 L
620 3434 L
620 3553 L
620 2977 L
620 3595 L
620 3661 L
620 3756 L
620 3219 L
620 3693 L
620 3555 L
620 3825 L
620 3606 L
620 3598 L
620 3888 L
620 3349 L
620 3673 L
620 3470 L
620 2916 L
620 2660 L
620 2943 L
620 3194 L
620 3467 L
620 3006 L
620 3194 L
620 3514 L
620 3705 L
620 3565 L
620 3550 L
620 3657 L
620 3916 L
620 4023 L
620 3603 L
620 3390 L
620 3191 L
620 3263 L
620 3674 L
620 3804 L
620 3423 L
620 3311 L
620 2483 L
620 3388 L
620 3693 L
620 3087 L
620 3539 L
620 3578 L
620 3305 L
620 3636 L
620 3235 L
620 3067 L
620 3359 L
620 2996 L
620 3400 L
620 3586 L
620 3379 L
620 3432 L
620 3323 L
620 4060 L
620 3451 L
620 2761 L
620 3824 L
620 3747 L
620 3385 L
620 3936 L
620 3233 L
620 3143 L
620 3792 L
620 3251 L
620 2731 L
620 3220 L
620 3577 L
620 2971 L
620 4083 L
620 3143 L
620 3437 L
620 3597 L
620 3784 L
620 3748 L
620 3358 L
620 2953 L
620 3985 L
620 3138 L
620 3279 L
620 3793 L
620 3310 L
620 3869 L
620 3405 L
620 3549 L
620 3277 L
620 3900 L
620 3800 L
620 3246 L
620 3611 L
620 3581 L
620 3974 L
620 3770 L
620 3895 L
620 4216 L
620 3516 L
620 3725 L
620 4179 L
620 4202 L
620 3622 L
620 3373 L
620 3662 L
620 3143 L
620 3813 L
620 4080 L
620 4200 L
620 3539 L
620 3790 L
620 3488 L
620 3689 L
620 4036 L
620 3457 L
620 4408 L
620 2978 L
620 3285 L
620 3943 L
620 4159 L
620 3827 L
620 2929 L
620 4101 L
620 3908 L
620 4324 L
620 4031 L
620 4044 L
620 3681 L
620 3747 L
620 3037 L
620 3331 L
620 4167 L
620 3235 L
620 3917 L
620 3297 L
620 3910 L
620 3211 L
620 4228 L
620 3834 L
620 3689 L
620 3919 L
620 3542 L
620 2933 L
620 3425 L
620 3874 L
620 3843 L
620 3422 L
620 4023 L
620 3401 L
620 3386 L
620 3940 L
620 4554 L
620 3792 L
620 3087 L
620 3801 L
620 3889 L
620 2787 L
620 2951 L
620 4332 L
620 3443 L
620 3049 L
620 4149 L
620 3609 L
620 3152 L
620 4142 L
620 3980 L
620 3464 L
620 3693 L
620 3946 L
620 3352 L
620 3762 L
620 3425 L
620 4234 L
620 3327 L
620 3969 L
620 3586 L
620 3845 L
620 3921 L
620 3376 L
620 3292 L
620 3662 L
620 3948 L
620 3322 L
620 3968 L
620 3849 L
620 3987 L
620 3982 L
620 3505 L
620 3718 L
620 3851 L
620 3609 L
620 2743 L
620 4049 L
620 2539 L
620 3951 L
620 3430 L
620 3317 L
620 3429 L
620 3683 L
620 4110 L
620 4159 L
620 2864 L
620 3799 L
620 3538 L
620 3959 L
620 3011 L
620 3570 L
620 3630 L
620 3072 L
620 4357 L
620 4183 L
620 3566 L
620 3345 L
620 3557 L
620 3550 L
620 3650 L
620 3749 L
620 3677 L
620 3033 L
620 3595 L
620 3645 L
620 3252 L
620 3180 L
620 4528 L
620 3223 L
620 3450 L
620 3721 L
620 3633 L
620 3648 L
620 3268 L
620 3502 L
620 4119 L
620 3351 L
620 2804 L
620 3045 L
620 3759 L
620 3952 L
620 3337 L
620 3968 L
620 3702 L
620 3385 L
620 3917 L
620 3881 L
620 3575 L
620 3956 L
620 3299 L
620 3304 L
620 3950 L
620 4183 L
620 3094 L
620 3339 L
620 4376 L
620 3598 L
620 3214 L
620 4319 L
620 3675 L
620 3479 L
620 3732 L
620 3326 L
620 3195 L
620 3540 L
620 3053 L
620 3370 L
620 3679 L
620 3268 L
620 3193 L
620 2739 L
620 2822 L
620 3433 L
620 3788 L
620 3441 L
620 3095 L
620 2951 L
620 3665 L
620 3092 L
620 3415 L
620 2920 L
620 3156 L
620 3198 L
620 3618 L
620 3004 L
620 3473 L
620 3887 L
620 4005 L
620 3446 L
620 3148 L
620 4153 L
620 3462 L
620 3730 L
620 3281 L
620 3407 L
620 2165 L
620 3422 L
620 3582 L
620 3749 L
620 3678 L
620 2972 L
620 3589 L
620 3581 L
620 3998 L
620 3414 L
620 3065 L
620 3512 L
620 3587 L
620 3332 L
620 3412 L
620 3482 L
620 3737 L
620 3059 L
620 3088 L
620 3082 L
620 2848 L
620 3757 L
620 4180 L
620 3726 L
620 3156 L
620 3273 L
620 2754 L
620 3909 L
620 3619 L
620 3014 L
620 3070 L
620 3654 L
620 3262 L
620 3218 L
620 3342 L
620 3527 L
620 2814 L
620 2984 L
620 3957 L
620 3721 L
620 3885 L
620 3158 L
620 3446 L
620 3570 L
620 3170 L
620 4229 L
620 2823 L
620 3416 L
620 3266 L
620 3935 L
620 3330 L
620 3688 L
620 2791 L
620 3366 L
620 3859 L
620 3717 L
620 3798 L
620 3803 L
620 2906 L
620 3146 L
620 2273 L
620 3171 L
620 3003 L
620 2900 L
620 3609 L
620 3012 L
620 3632 L
620 3559 L
620 3037 L
620 3433 L
620 2979 L
620 3715 L
620 3061 L
620 2813 L
620 3060 L
620 3340 L
620 3208 L
620 3679 L
620 3228 L
620 3311 L
620 3437 L
620 3491 L
620 2977 L
620 3298 L
620 4496 L
620 3315 L
620 3185 L
620 3444 L
620 2944 L
620 3305 L
620 3100 L
620 2546 L
620 3182 L
620 3699 L
620 3629 L
620 3081 L
620 3242 L
620 3597 L
620 3330 L
620 2968 L
620 3056 L
620 4863 L
620 3007 L
620 3586 L
620 2811 L
620 3590 L
620 3395 L
620 3403 L
620 2895 L
620 3130 L
620 3682 L
620 2759 L
620 4081 L
620 3603 L
620 2963 L
620 3583 L
620 3132 L
620 3492 L
620 3509 L
620 3267 L
620 3694 L
620 3566 L
620 2896 L
620 3773 L
620 3613 L
620 3537 L
620 2787 L
620 2681 L
620 3668 L
620 3020 L
620 3551 L
620 3167 L
620 4011 L
620 3121 L
620 3314 L
620 3052 L
620 3084 L
620 2703 L
620 3804 L
620 2891 L
620 4019 L
620 3354 L
620 3116 L
620 3640 L
620 2768 L
620 3166 L
L2 C04 COSGR

%
%================
% Legend - Begin
%================
%
GSN 4240 5180 M
4480 5180 L
LWMC SL  C04 COSGR
GSN 4540 5141 M helvM (2.0 uM) show grestore
%
%================
% Legend - End
%================
%

%
% Main frame
%
L10
GSN 
620 1700 M
4220 1700 L
4220 5300 L
620 5300 L
closepath SGR

%
% X axis: large tics
%
L10
%
% X axis: small tics
%
L5
%
% Y axis: large tics
%
L10
GSN 620 1971 M 54 0 rL SGR
GSN 4220 1971 M -54 0 rL SGR
helvS (-0.01) 560 1971 ylabel
GSN 620 3386 M 54 0 rL SGR
GSN 4220 3386 M -54 0 rL SGR
helvS (0) 560 3386 ylabel
GSN 620 4801 M 54 0 rL SGR
GSN 4220 4801 M -54 0 rL SGR
helvS (0.01) 560 4801 ylabel
%
% Y axis: small tics
%
L5
GSN 620 1971 M 36 0 rL SGR
GSN 4220 1971 M -36 0 rL SGR
GSN 620 2325 M 36 0 rL SGR
GSN 4220 2325 M -36 0 rL SGR
GSN 620 2679 M 36 0 rL SGR
GSN 4220 2679 M -36 0 rL SGR
GSN 620 3032 M 36 0 rL SGR
GSN 4220 3032 M -36 0 rL SGR
GSN 620 3386 M 36 0 rL SGR
GSN 4220 3386 M -36 0 rL SGR
GSN 620 3740 M 36 0 rL SGR
GSN 4220 3740 M -36 0 rL SGR
GSN 620 4093 M 36 0 rL SGR
GSN 4220 4093 M -36 0 rL SGR
GSN 620 4447 M 36 0 rL SGR
GSN 4220 4447 M -36 0 rL SGR
GSN 620 4801 M 36 0 rL SGR
GSN 4220 4801 M -36 0 rL SGR
GSN 620 5154 M 36 0 rL SGR
GSN 4220 5154 M -36 0 rL SGR

%
% X axis - residual panel
%
GSN L5 620 3386 M 4220 3386 L SDA G50 SGR

%
% X-Axis label:
%
gsave 620 1370 M 
[
[(Helvetica) 180 0 true true 0 (t)]
[(Helvetica) 180 0 true true 0 (i)]
[(Helvetica) 180 0 true true 0 (m)]
[(Helvetica) 180 0 true true 0 (e)]
] 0 MCshow grestore

%
% Y-Axis label:
%
gsave 234 3500 M 
currentpoint gsave translate 90 rotate 0 0 moveto
[
[(Helvetica) 180 0 true true 0 (r)]
[(Helvetica) 180 0 true true 0 (e)]
[(Helvetica) 180 0 true true 0 (s)]
[(Helvetica) 180 0 true true 0 (i)]
[(Helvetica) 180 0 true true 0 (d)]
[(Helvetica) 180 0 true true 0 (u)]
[(Helvetica) 180 0 true true 0 (a)]
[(Helvetica) 180 0 true true 0 (l)]
[(Helvetica) 180 0 true true 0 (s)]
] 0 MCshow grestore

end
showpage
%%Trailer
%%EOF
