
===================================================
Least squares Minimization - Trust Region Algorithm
===================================================

Optimized parameters:

     1 	 k.1
     2 	 k.-1
     3 	 k.cat
     4 	 r(E)
     5 	 r(E.S1)
     6 	 r(E.P)
     7 	 [E]#1
     8 	 [S]#1
     9 	 offset#1
    10 	 [E]#2
    11 	 [S]#2
    12 	 offset#2
    13 	 [E]#3
    14 	 [S]#3
    15 	 offset#3
    16 	 [E]#4
    17 	 [S]#4
    18 	 offset#4
    19 	 [E]#5
    20 	 [S]#5
    21 	 offset#5
    22 	 [E]#6
    23 	 [S]#6
    24 	 offset#6
    25 	 [E]#7
    26 	 [S]#7
    27 	 offset#7

:: NL2SOL :: DNLAFB
:: Analytic Jacobian; Constrained

________________________________________________________________________

:: Initial Estimate

     i	     Param p(i)	            Min	            Max
     1	     0.00297093	         1e-006	         1e+006
     2	        8.39649	         1e-012	         1e+006
     3	        34.2732	         1e-006	         1e+006
     4	           0.31	       3.1e-007	         310000
     5	           0.22	       2.2e-007	         220000
     6	           0.25	       2.5e-007	         250000
     7	              1	       0.909091	            1.1
     8	            0.5	       0.454545	           0.55
     9	         1.1793	       -10.6137	        12.9723
    10	              1	       0.909091	            1.1
    11	              1	       0.909091	            1.1
    12	        1.14325	       -10.6497	        12.9363
    13	              1	       0.909091	            1.1
    14	            1.5	        1.36364	           1.65
    15	        1.10351	       -10.6895	        12.8965
    16	              1	       0.909091	            1.1
    17	              2	        1.81818	            2.2
    18	        1.07103	        -10.722	         12.864
    19	              1	       0.909091	            1.1
    20	            2.5	        2.27273	           2.75
    21	        1.02909	       -10.7639	        12.8221
    22	              1	       0.909091	            1.1
    23	              3	        2.72727	            3.3
    24	        0.97752	       -10.8155	        12.7705
    25	              1	       0.909091	            1.1
    26	              4	        3.63636	            4.4
    27	        0.95791	       -10.8351	        12.7509

:: Iterations

     i	 FEval	   F(i) = SSQ	   Param( 1)	   Param( 2)	   Param( 3)	   Param( 4)	   Param( 5)	   Param( 6)	   Param( 7)	   Param( 8)	   Param( 9)	   Param(10)	   Param(11)	   Param(12)	   Param(13)	   Param(14)	   Param(15)	   Param(16)	   Param(17)	   Param(18)	   Param(19)	   Param(20)	   Param(21)	   Param(22)	   Param(23)	   Param(24)	   Param(25)	   Param(26)	   Param(27)	
     0	     1	       474.77	    0.0029709	       8.3965	       34.273	         0.31	         0.22	         0.25	            1	          0.5	       1.1793	            1	            1	       1.1433	            1	          1.5	       1.1035	            1	            2	        1.071	            1	          2.5	       1.0291	            1	            3	      0.97752	            1	            4	      0.95791	
     1	     2	        33.77	     0.025382	       8.5874	       34.038	      0.10882	     2.2e-007	     2.5e-007	       1.0216	      0.49257	       1.1436	          1.1	          1.1	       1.0604	       1.0641	       1.5434	       1.0449	       1.0331	       1.9917	       1.0154	      0.96337	       2.3506	      0.99495	      0.92769	       2.9597	      0.96272	      0.96452	       3.9399	      0.92212	
     2	     3	       3.4728	     0.046472	       9.1395	       33.728	     0.040276	     2.2e-007	     2.5e-007	          1.1	      0.45578	       1.1292	       1.0938	          1.1	       1.0869	       1.0712	       1.4983	       1.0461	       1.0183	       1.9275	       1.0099	       0.9722	       2.2727	      0.97159	      0.93103	       2.8701	      0.93493	      0.96452	        3.817	      0.90041	
     3	     4	       1.0016	     0.092607	       9.2512	       33.659	     0.019346	     2.2e-007	     2.5e-007	          1.1	      0.45578	       1.1357	       1.0938	          1.1	       1.0956	       1.0712	       1.4983	       1.0497	       1.0183	       1.9275	       1.0091	      0.93536	       2.2727	       0.9694	      0.93103	       2.8701	      0.93008	      0.96452	        3.817	      0.89633	
     4	     5	      0.70355	      0.28696	       9.2932	       33.631	     0.014681	     2.2e-007	     2.5e-007	          1.1	      0.45578	       1.1386	       1.0938	          1.1	       1.0992	       1.0712	       1.4983	       1.0516	       1.0183	       1.9275	       1.0097	      0.93536	       2.2727	      0.96873	      0.93103	       2.8701	      0.92965	      0.96452	        3.817	      0.89545	
     5	     6	      0.50163	       1.2515	       9.3012	       33.621	     0.010827	     2.2e-007	     2.5e-007	          1.1	      0.47337	       1.1388	       1.0938	          1.1	       1.1012	       1.0712	       1.4983	       1.0534	      0.97643	       1.9275	       1.0117	      0.93536	       2.2727	      0.97011	      0.93103	       2.9863	      0.93143	       1.0137	        3.817	      0.89682	
     6	     7	      0.39819	       2.3792	       9.2409	       33.638	     0.013926	     2.2e-007	     2.5e-007	          1.1	      0.46287	       1.1348	       1.0938	          1.1	       1.0986	       1.0783	       1.4983	        1.051	       0.9743	       2.1728	       1.0097	      0.91976	       2.4735	       0.9685	      0.93103	       3.1579	      0.92987	       1.0257	       3.9177	      0.89515	
     7	     8	      0.32435	       3.8967	       9.1047	       33.677	     0.019985	     2.2e-007	     2.5e-007	          1.1	      0.49182	       1.1296	       1.0798	          1.1	        1.096	      0.96042	       1.4983	       1.0495	      0.92365	       2.1728	       1.0083	      0.91976	       2.4735	      0.96705	      0.93679	       3.1579	      0.92844	       1.0257	       4.0727	      0.89444	
     8	     9	      0.24447	       6.9999	       8.4419	       33.885	     0.030276	     2.2e-007	     2.5e-007	          1.1	      0.49182	       1.1224	       1.0798	          1.1	       1.0949	      0.96042	       1.4983	       1.0493	      0.92365	       2.1728	        1.008	      0.91976	       2.4735	      0.96667	      0.93679	       3.1579	      0.92789	       1.0257	          4.4	      0.89373	
     9	    10	      0.19449	       11.075	       7.0851	       34.352	      0.04233	     2.2e-007	     2.5e-007	          1.1	      0.49182	       1.1156	       1.0798	          1.1	       1.0942	      0.96042	       1.4983	       1.0491	      0.92365	       2.1728	       1.0077	      0.91976	       2.4735	      0.96636	      0.93679	       3.1579	      0.92761	       1.0257	          4.4	      0.89336	
    10	    11	      0.17486	       13.524	       4.5683	       35.299	     0.049384	      0.00241	     2.5e-007	          1.1	      0.49182	       1.1116	       1.0798	          1.1	       1.0945	      0.96042	       1.4983	       1.0492	       1.0396	       2.1728	       1.0072	      0.91976	       2.4735	      0.96628	      0.93679	       3.1579	       0.9275	       1.0257	          4.4	      0.89313	
    11	    13	      0.16092	       15.084	      0.10707	       36.463	     0.051753	      0.01385	     2.5e-007	       1.0138	      0.49182	        1.114	       1.0798	          1.1	       1.0953	      0.96042	       1.4983	       1.0495	       1.0366	       2.1728	       1.0073	      0.91976	       2.4735	      0.96632	      0.93679	       3.1579	      0.92742	       1.0114	          4.4	      0.89292	
    12	    15	      0.14638	       21.904	       1e-012	       36.155	     0.053841	     0.049685	     2.5e-007	      0.95347	      0.45455	       1.1124	       1.0328	          1.1	       1.0936	      0.96213	       1.5317	       1.0493	       1.0479	          2.2	       1.0075	      0.94764	       2.4575	      0.96634	      0.97561	       3.2154	      0.92762	      0.98045	          4.4	      0.89279	
    13	    18	      0.14206	       21.906	       1e-012	       36.155	     0.051493	      0.04874	     2.5e-007	        0.942	      0.45455	       1.1158	      0.90909	          1.1	       1.0951	       1.0387	       1.5305	       1.0486	       1.0219	          2.2	       1.0068	      0.91847	       2.4608	      0.96583	      0.99049	       3.2219	      0.92702	      0.95056	          4.4	      0.89273	
    14	    19	      0.13823	        21.91	       1e-012	       36.155	     0.054738	     0.045463	   0.00039857	      0.93805	      0.50655	        1.116	      0.90909	          1.1	       1.0956	        1.019	       1.5742	       1.0483	       1.0163	          2.2	       1.0066	      0.91847	       2.4677	      0.96565	      0.98311	       3.2218	       0.9268	      0.95071	       4.3973	      0.89273	
    15	    20	      0.13664	       21.923	   0.00095508	       36.153	      0.05651	     0.045302	   0.00020098	       1.0259	         0.55	       1.1127	      0.90909	          1.1	       1.0959	       0.9812	       1.6432	       1.0487	      0.99138	          2.2	       1.0069	      0.90909	       2.4913	      0.96587	      0.94017	       3.2196	       0.9271	      0.96219	       4.3917	       0.8929	
    16	    21	       0.1365	       21.957	       1e-012	       36.145	     0.056991	     0.045428	   0.00011018	       1.0816	         0.55	       1.1093	      0.90909	          1.1	       1.0959	      0.97137	       1.6451	       1.0487	      0.97811	          2.2	        1.007	      0.90909	       2.5458	      0.96596	      0.93931	       3.2259	      0.92715	      0.96023	       4.3756	      0.89299	
    17	    22	      0.13645	       22.079	       1e-012	       36.104	     0.057011	     0.046114	  4.5129e-005	          1.1	         0.55	        1.108	      0.90909	          1.1	        1.096	      0.96956	         1.65	       1.0488	      0.97261	          2.2	        1.007	      0.90909	       2.6345	      0.96607	      0.93659	       3.2612	       0.9272	      0.94951	       4.3197	      0.89304	
    18	    23	      0.13641	       22.093	       1e-012	         36.1	     0.056896	     0.046223	     2.5e-007	          1.1	         0.55	       1.1084	      0.90909	          1.1	        1.096	       0.9691	         1.65	       1.0489	       0.9727	          2.2	       1.0071	      0.90909	       2.6539	      0.96614	      0.93653	       3.2644	       0.9273	      0.94974	       4.3132	      0.89313	
    19	    25	      0.13628	        22.51	       1e-012	       35.945	     0.056858	     0.046993	     2.5e-007	       1.0908	         0.55	       1.1089	      0.90909	          1.1	        1.096	      0.96997	         1.65	       1.0489	      0.97224	          2.2	       1.0071	      0.91714	         2.75	      0.96613	      0.93653	          3.3	      0.92726	      0.93883	       4.1735	      0.89307	
    20	    27	      0.13599	       23.829	       1e-012	       35.059	     0.057133	     0.048404	     2.5e-007	       1.0765	         0.55	       1.1095	      0.90909	          1.1	       1.0961	      0.96945	         1.65	       1.0489	      0.96854	          2.2	       1.0071	      0.90997	         2.75	      0.96613	      0.91632	          3.3	      0.92731	      0.92505	       4.0222	      0.89305	
    21	    28	      0.13557	       27.323	    0.0004903	       30.955	     0.057871	      0.04764	     2.5e-007	      0.95941	         0.55	       1.1159	      0.90909	          1.1	       1.0964	      0.98161	         1.65	        1.049	      0.95965	       2.0798	       1.0071	      0.90909	         2.75	      0.96615	      0.90909	       3.1659	      0.92734	      0.92333	       3.9587	      0.89307	
    22	    29	       0.1355	       31.763	    0.0008078	       28.009	     0.060074	     0.046997	     2.5e-007	       1.0163	         0.55	       1.1119	      0.90909	          1.1	       1.0964	      0.92978	       1.3801	       1.0488	      0.94224	       1.9796	       1.0071	      0.90978	         2.75	      0.96612	      0.90909	       3.1659	      0.92724	      0.92333	       4.1047	      0.89297	
    23	    30	      0.13525	       31.435	   0.00051953	       28.243	      0.05915	     0.047634	     2.5e-007	       1.0048	         0.55	       1.1127	      0.90909	          1.1	       1.0964	      0.95479	       1.5242	       1.0489	      0.95396	       2.0635	        1.007	      0.90909	         2.75	      0.96607	      0.90909	       3.2644	      0.92719	      0.92534	       4.2156	       0.8929	
    24	    33	      0.13525	       31.435	   0.00042576	       28.243	     0.059163	     0.047667	   0.00011817	       1.0048	         0.55	       1.1126	      0.90909	          1.1	       1.0963	      0.95479	       1.5242	       1.0488	      0.95396	       2.0635	       1.0069	      0.90909	         2.75	      0.96598	      0.90909	       3.2644	       0.9271	      0.92533	       4.2156	       0.8928	
    25	    34	      0.13525	       31.435	   0.00036021	       28.243	     0.059246	     0.047603	   0.00010943	       1.0046	         0.55	       1.1126	      0.90909	          1.1	       1.0963	      0.95475	       1.5242	       1.0488	      0.95397	       2.0636	        1.007	      0.90909	         2.75	      0.96598	      0.90909	       3.2644	      0.92711	      0.92515	       4.2156	      0.89281	
    26	    38	      0.13525	       31.435	       1e-012	       28.244	     0.059252	     0.047639	   0.00011676	        1.001	         0.55	       1.1128	      0.90909	          1.1	       1.0963	      0.95447	       1.5245	       1.0487	      0.95396	       2.0638	       1.0069	      0.90909	         2.75	      0.96597	      0.90909	        3.265	       0.9271	      0.92328	       4.2161	      0.89281	
    27	    39	      0.13524	       31.436	   0.00018768	       28.245	     0.059362	     0.047784	   0.00021757	      0.98404	         0.55	       1.1137	      0.90909	          1.1	       1.0962	      0.95412	       1.5246	       1.0487	      0.95365	       2.0652	       1.0068	      0.90909	         2.75	      0.96588	      0.90909	       3.2675	      0.92701	      0.91887	       4.2179	      0.89273	
    28	    40	      0.13523	       31.438	       1e-012	       28.247	     0.059377	       0.0478	   0.00023333	      0.97746	         0.55	       1.1141	      0.90909	          1.1	       1.0962	      0.95394	       1.5251	       1.0486	      0.95411	       2.0669	       1.0068	      0.90909	         2.75	      0.96586	      0.90909	       3.2715	      0.92699	       0.9186	       4.2208	      0.89272	
    29	    41	      0.13523	       31.444	   0.00013468	       28.254	     0.059412	     0.047919	   0.00030826	      0.96592	         0.55	       1.1147	      0.90909	          1.1	       1.0961	      0.95413	       1.5261	       1.0486	      0.95485	       2.0724	       1.0068	      0.90909	         2.75	       0.9658	      0.90909	        3.286	      0.92693	      0.91821	       4.2316	      0.89265	
    30	    45	      0.13521	       31.915	   0.00017173	       28.605	     0.068931	     0.058434	    0.0099912	      0.96337	         0.55	       1.1056	      0.90909	          1.1	       1.0873	       0.9526	       1.5113	       1.0393	      0.95448	       2.0683	      0.99752	      0.90909	         2.75	      0.95699	      0.90909	          3.3	      0.91813	      0.92403	          4.4	      0.88377	
    31	    46	       0.1352	       32.613	   0.00018192	       28.617	     0.076599	     0.066393	      0.01757	      0.95008	         0.55	       1.0992	      0.90909	          1.1	       1.0805	      0.95069	        1.495	       1.0322	      0.95055	       2.0304	      0.99033	      0.90909	         2.75	      0.95011	      0.90909	          3.3	      0.91124	      0.91894	          4.4	      0.87675	
    32	    48	       0.1352	       32.893	   0.00019499	       28.441	     0.089259	      0.07888	      0.03019	      0.94008	         0.55	       1.0881	      0.90909	          1.1	        1.069	      0.95082	       1.4921	       1.0202	      0.95192	        2.034	      0.97837	      0.90909	         2.75	      0.93864	      0.90909	          3.3	      0.89977	        0.923	          4.4	      0.86517	
    33	    49	      0.13519	       32.903	       1e-012	       28.448	     0.089278	     0.079011	     0.030172	      0.95632	         0.55	       1.0867	      0.90909	          1.1	        1.069	      0.95009	       1.4931	       1.0202	      0.95048	        2.033	      0.97839	      0.90909	         2.75	      0.93865	      0.90909	          3.3	      0.89978	      0.92006	          4.4	      0.86519	
    34	    83	      0.13519	       32.903	       1e-012	       28.448	     0.089278	     0.079011	     0.030172	      0.95632	         0.55	       1.0867	      0.90909	          1.1	        1.069	      0.95009	       1.4931	       1.0202	      0.95048	        2.033	      0.97839	      0.90909	         2.75	      0.93865	      0.90909	          3.3	      0.89978	      0.92006	          4.4	      0.86519	

:: False convergence

       Squares	       0.135189
     Func Eval	             83
     Grad Eval	             34

:: Nonlinear parameters

     i	   Final p(i)	  Gradient(i)
     1	       32.903	 -4.8402e-006
     2	       1e-012	      -1.0221
     3	      28.4484	 -4.8307e-006
     4	    0.0892779	  -0.00076152
     5	    0.0790114	    0.0019108
     6	    0.0301715	    0.0062921
     7	     0.956323	  -0.00029856
     8	         0.55	   -0.0062236
     9	      1.08669	   -0.0042261
    10	     0.909091	    0.0059484
    11	          1.1	    -0.002402
    12	      1.06901	  5.2247e-005
    13	     0.950085	  5.3841e-005
    14	      1.49312	 -6.9341e-006
    15	       1.0202	    0.0010099
    16	     0.950475	   0.00012583
    17	      2.03302	 -5.2709e-006
    18	     0.978387	    0.0029333
    19	     0.909091	   0.00025526
    20	         2.75	 -7.0635e-005
    21	     0.938654	    0.0025648
    22	     0.909091	    0.0010581
    23	          3.3	  -3.947e-005
    24	     0.899785	    0.0027565
    25	     0.920058	   0.00015291
    26	          4.4	 -2.3458e-005
    27	     0.865189	     0.003098
