%!PS-Adobe-3.0 EPSF-3.0
%%BoundingBox: 0 0 514 550
%%Creator: BioKin Ltd.
%%DocumentFonts: Symbol Helvetica
%%EndComments
%
/bkdict 256 dict def
bkdict begin
/M {moveto} def 
/R {rmoveto} def
/L {lineto} def
/rL {rlineto} def
/GSN {gsave newpath} def
/SGR {stroke grestore} def
/COSGR {gsave setrgbcolor stroke grestore grestore} def
/SL {setlinewidth} def
/LWMB {12} def             % line width - model curves, black & white
/LWMC {10} def             % line width - model curves, color
/L2 {2.5 setlinewidth} def
/L5 {5 setlinewidth} def
/L10 {10 setlinewidth} def
/G50 {0.5 setgray} def
/SDA {[10  20] 0 setdash} def % axes
/helvT {/Helvetica findfont 100 scalefont setfont} def % tiny
/helvS {/Helvetica findfont 125 scalefont setfont} def % small
/helvM {/Helvetica findfont 150 scalefont setfont} def % medium
/helvL {/Helvetica findfont 175 scalefont setfont} def % large
/xlabel {gsave M dup
   stringwidth exch -0.5 mul exch rmoveto show grestore} def 
/ylabel {gsave M 90 rotate dup
   stringwidth exch -0.5 mul exch rmoveto show grestore} def
/ylabelresid {gsave M dup
   stringwidth exch -1 mul exch rmoveto show grestore} def
% ======
% Shapes
% ======
% Circle:
/Circ {0 360 arc closepath} def
%
% Square:
/Squa {dup dup -0.5 mul dup dup R -2 mul 0 exch rL 1 mul 0 rL dup 0 exch -1 mul rL closepath} def
%
% Triangle Up:
/TriU {dup dup dup -0.4 mul exch -0.5 mul exch R dup 0.5 mul exch rL dup -1 mul exch 0.5 mul exch rL closepath} def 
%
% Triangle Down:
/TriD {dup dup dup 0.4 mul exch -0.5 mul exch R dup 0.5 mul exch -1 mul rL dup 0.5 mul exch rL closepath} def 
%
% Diamond:
/Diam {45 rotate Squa} def
% ======
% Fills
% ======
/GRF {gsave setgray fill grestore} def                    % gray-level Fill
/COF {gsave setrgbcolor fill grestore} def                % color fill
% ======
% Colors
% ======
/C01 {1.00	0.00	0.00} def      % Red
/C02 {0.00	0.00	1.00} def      % Blue
/C03 {0.00	0.39	0.00} def      % Dark Green
/C04 {0.78	0.08	0.52} def      % Medium Violet Red
/C05 {0.55	0.27	0.07} def      % Saddle Brown
/C06 {0.10	0.70	0.70} def      % (cyan)
/C07 {1.00	0.55	0.00} def      % Dark Orange
/C08 {0.63	0.13	0.94} def      % Purple
/C09 {0.00	0.75	1.00} def      % Deep Sky Blue
/C10 {0.20	0.80	0.20} def      % Lime Green
/C11 {0.47	0.53	0.60} def      % Light Slate Gray
/C12 {0.00	0.00	0.00} def      % Black            % or: {0.19	0.31	0.31} def      % Dark Slate Gray
%
/LGR {0.75} def % light gray
/DGR {0.33} def % dark gray
%
% =============
% Dash patterns
% =============
/dash01 { [80  20] 0 setdash } def
/dash02 { [40  20] 0 setdash } def
/dash03 { [80  20  10  20] 0 setdash } def
/dash04 { [40  20  10  20] 0 setdash } def
/dash05 { [80  20  10  10  10  20] 0 setdash } def
/dash06 { [40  20  10  10  10  20] 0 setdash } def
/dash07 { [10  10] 0 setdash } def
%
/MFshow {
   { dup 5 get 3 ge
     { 5 get 3 eq {gsave} {grestore} ifelse }
     {dup dup 0 get findfont exch 1 get scalefont setfont
     [ currentpoint ] exch dup 2 get 0 exch R dup 5 get 2 ne {dup dup 6
     get exch 4 get {show} {stringwidth pop 0 R} ifelse }if dup 5 get 0 eq
     {dup 3 get {2 get neg 0 exch R pop} {pop aload pop M} ifelse} {dup 5
     get 1 eq {dup 2 get exch dup 3 get exch 6 get stringwidth pop -2 div
     dup 0 R} {dup 6 get stringwidth pop -2 div 0 R 6 get
     show 2 index {aload pop M neg 3 -1 roll neg R pop pop} {pop pop pop
     pop aload pop M} ifelse }ifelse }ifelse }
     ifelse }
   forall} bind def
/MFwidth {0 exch {dup 3 get{dup dup 0 get findfont exch 1 get scalefont
     setfont 6 get stringwidth pop add} {pop} ifelse} forall} bind def
/MCshow { currentpoint stroke M
  exch dup MFwidth -2 div 3 -1 roll R MFshow } def
%
end
%%EndProlog
bkdict begin
0.1 0.1 scale
%
% Model curves:
%

GSN 753 5014 M
753 5014 L
786 5026 L
820 5037 L
853 5048 L
886 5060 L
920 5071 L
929 5075 L
953 5083 L
986 5094 L
1020 5106 L
1053 5117 L
1086 5127 L
1106 5133 L
1120 5137 L
1153 5145 L
1186 5152 L
1220 5158 L
1253 5162 L
1282 5164 L
1286 5165 L
1319 5166 L
1353 5166 L
1386 5165 L
1419 5164 L
1453 5161 L
1459 5161 L
1486 5159 L
1519 5155 L
1553 5151 L
1586 5147 L
1619 5141 L
1635 5139 L
1653 5135 L
1686 5129 L
1719 5121 L
1753 5112 L
1786 5103 L
1812 5094 L
1819 5092 L
1853 5079 L
1886 5065 L
1919 5049 L
1953 5031 L
1986 5011 L
1988 5009 L
2019 4988 L
2053 4962 L
2086 4933 L
2119 4901 L
2153 4865 L
2165 4851 L
2186 4825 L
2219 4781 L
2253 4732 L
2286 4678 L
2319 4620 L
2341 4578 L
2353 4555 L
2386 4486 L
2419 4410 L
2453 4330 L
2486 4244 L
2518 4157 L
2519 4153 L
2553 4058 L
2586 3958 L
2619 3856 L
2653 3751 L
2686 3644 L
2694 3617 L
2719 3537 L
2753 3431 L
2786 3327 L
2819 3225 L
2853 3128 L
2871 3077 L
2886 3035 L
2919 2948 L
2953 2868 L
2986 2795 L
3019 2730 L
3047 2681 L
3053 2672 L
3086 2623 L
3119 2582 L
3153 2548 L
3186 2521 L
3219 2501 L
3224 2498 L
3253 2486 L
3286 2476 L
3319 2469 L
3353 2465 L
3386 2463 L
3400 2463 L
3419 2462 L
3453 2462 L
3476 2461 L
3486 2461 L
3519 2461 L
3553 2461 L
3577 2461 L
3586 2461 L
3619 2461 L
3653 2461 L
3686 2461 L
3719 2461 L
3753 2461 L
3754 2461 L
3786 2461 L
3819 2461 L
3853 2461 L
3886 2461 L
3919 2461 L
3930 2461 L
3953 2461 L
3986 2461 L
4019 2461 L
4053 2461 L
4086 2461 L
4086 2461 L
LWMC SL  C03 COSGR

%
% Experimental data:
%
GSN 777 4903 M
1388 4892 L
1552 4927 L
1652 5062 L
1723 4846 L
1778 4701 L
1824 4717 L
1863 4668 L
1896 4643 L
1926 4690 L
1952 4774 L
1976 4838 L
1998 5031 L
2019 5125 L
2037 4797 L
2055 5126 L
2071 4970 L
2086 4810 L
2101 4782 L
2115 4805 L
2128 5063 L
2140 4837 L
2152 4759 L
2163 5127 L
2174 5055 L
2184 4849 L
2194 4666 L
2204 4572 L
2213 4816 L
2222 4845 L
2230 4786 L
2239 4883 L
2247 4718 L
2255 4706 L
2262 4896 L
2270 4662 L
2277 4734 L
2284 4652 L
2290 4871 L
2297 4775 L
2303 4635 L
2310 4470 L
2316 4576 L
2322 4513 L
2328 4559 L
2333 4605 L
2339 4666 L
2344 4639 L
2350 4746 L
2355 4494 L
2360 4508 L
2365 4592 L
2370 4651 L
2375 4553 L
2380 4379 L
2384 4642 L
2389 4565 L
2393 4797 L
2398 4571 L
2402 4406 L
2407 4399 L
2411 4587 L
2415 4519 L
2419 4477 L
2423 4644 L
2427 4525 L
2431 4770 L
2435 4509 L
2438 4398 L
2442 4557 L
2446 4504 L
2449 4382 L
2453 4413 L
2456 4508 L
2460 4446 L
2463 4359 L
2467 4251 L
2470 4307 L
2473 4426 L
2476 4486 L
2480 4306 L
2483 4345 L
2486 4565 L
2489 4349 L
2492 4478 L
2495 4327 L
2498 4410 L
2501 4247 L
2504 4480 L
2507 4390 L
2510 4220 L
2512 4385 L
2515 4472 L
2518 4349 L
2521 4397 L
2523 4294 L
2526 4332 L
2529 4188 L
2531 4003 L
2534 4211 L
2536 4196 L
2539 4260 L
2541 4228 L
2544 4120 L
2546 4009 L
2549 4176 L
2551 4235 L
2554 4199 L
2556 4120 L
2558 4187 L
2561 4235 L
2563 4037 L
2565 4021 L
2568 4391 L
2570 4316 L
2572 4263 L
2574 4145 L
2576 3952 L
2579 4525 L
2581 4090 L
2583 3969 L
2585 4161 L
2587 4267 L
2589 4141 L
2591 4045 L
2593 4105 L
2595 4017 L
2597 4141 L
2599 4049 L
2601 4057 L
2603 4294 L
2605 3869 L
2607 3974 L
2609 4022 L
2611 4100 L
2613 4060 L
2615 3848 L
2617 3918 L
2618 4035 L
2620 4074 L
2622 4077 L
2624 4126 L
2626 4076 L
2627 3829 L
2629 3894 L
2631 4018 L
2633 4029 L
2634 3950 L
2636 4102 L
2638 3916 L
2640 3959 L
2641 3898 L
2643 4025 L
2645 3859 L
2646 4037 L
2648 3942 L
2650 3580 L
2651 3940 L
2653 3836 L
2654 3958 L
2656 3801 L
2658 3958 L
2659 3799 L
2661 3651 L
2662 3789 L
2664 4013 L
2665 3986 L
2667 3764 L
2668 3867 L
2670 3944 L
2671 3928 L
2673 3736 L
2674 3872 L
2676 3878 L
2677 3752 L
2679 3876 L
2680 3832 L
2682 3805 L
2683 3804 L
2685 3746 L
2686 3729 L
2687 3849 L
2689 3730 L
2690 3772 L
2692 3459 L
2693 3926 L
2694 3827 L
2696 3662 L
2697 3625 L
2698 3845 L
2700 3888 L
2701 3733 L
2702 3878 L
2704 3689 L
2705 3659 L
2706 3696 L
2708 3594 L
2709 3812 L
2710 3679 L
2712 3787 L
2713 3712 L
2714 3752 L
2715 3808 L
2717 3611 L
2718 3622 L
2719 3706 L
2720 3844 L
2722 3678 L
2723 3563 L
2724 3800 L
2725 3728 L
2726 3583 L
2728 3669 L
2729 3536 L
2730 3630 L
2731 3534 L
2732 3738 L
2734 3579 L
2735 3693 L
2736 3468 L
2737 3472 L
2738 3643 L
2739 3543 L
2741 3495 L
2742 3391 L
2743 3736 L
2744 3453 L
2745 3621 L
2746 3506 L
2747 3821 L
2748 3562 L
2749 3578 L
2751 3597 L
2752 3487 L
2753 3792 L
2754 3443 L
2755 3533 L
2756 3568 L
2757 3449 L
2758 3578 L
2759 3477 L
2760 3533 L
2761 3711 L
2762 3592 L
2763 3554 L
2764 3600 L
2765 3368 L
2767 3735 L
2768 3777 L
2769 3591 L
2770 3277 L
2771 3583 L
2772 3471 L
2773 3457 L
2774 3622 L
2775 3324 L
2776 3528 L
2777 3407 L
2778 3627 L
2779 3451 L
2780 3458 L
2781 3540 L
2782 3292 L
2783 3533 L
2783 3555 L
2784 3505 L
2785 3391 L
2786 3494 L
2787 3288 L
2788 3386 L
2789 3322 L
2790 3423 L
2791 3227 L
2792 3578 L
2793 3437 L
2794 3481 L
2795 3415 L
2796 3405 L
2797 3269 L
2798 3593 L
2798 3461 L
2799 3622 L
2800 3444 L
2801 3611 L
2802 3465 L
2803 3386 L
2804 3281 L
2805 3454 L
2806 3290 L
2807 3407 L
2807 3215 L
2808 3457 L
2809 3479 L
2810 3327 L
2811 3316 L
2812 3440 L
2813 3259 L
2813 3224 L
2814 3099 L
2815 3370 L
2816 3547 L
2817 3257 L
2818 3402 L
2819 3445 L
2819 3332 L
2820 3407 L
2821 3092 L
2822 3297 L
2823 3529 L
2824 3248 L
2824 3160 L
2825 3281 L
2826 3297 L
2827 3678 L
2828 3255 L
2828 3045 L
2829 3239 L
2830 3184 L
2831 3265 L
2832 3132 L
2832 3269 L
2833 3157 L
2834 3246 L
2835 3373 L
2836 3173 L
2836 3169 L
2837 3091 L
2838 3282 L
2839 3135 L
2840 3102 L
2840 3154 L
2841 3128 L
2842 3215 L
2843 3382 L
2843 3142 L
2844 3194 L
2845 3162 L
2846 2988 L
2846 3190 L
2847 3033 L
2848 3237 L
2849 3471 L
2849 3038 L
2850 3089 L
2851 3318 L
2852 3002 L
2852 3188 L
2853 3210 L
2854 3243 L
2855 3282 L
2855 3384 L
2856 3136 L
2857 3220 L
2857 3161 L
2858 3101 L
2859 3133 L
2860 3185 L
2860 3014 L
2861 3065 L
2862 3018 L
2862 3085 L
2863 2994 L
2864 3295 L
2865 3003 L
2865 3394 L
2866 3060 L
2867 2928 L
2867 3067 L
2868 3166 L
2869 3268 L
2869 3188 L
2870 3115 L
2871 3303 L
2871 3140 L
2872 3053 L
2873 2919 L
2873 3089 L
2874 3275 L
2875 2993 L
2876 3128 L
2876 3303 L
2877 3051 L
2878 3026 L
2878 3011 L
2879 3198 L
2880 3162 L
2880 2988 L
2881 3115 L
2881 2996 L
2882 3056 L
2883 3239 L
2883 3069 L
2884 3198 L
2885 3259 L
2885 2930 L
2886 2982 L
2887 3263 L
2887 3201 L
2888 2990 L
2889 3084 L
2889 3070 L
2892 3291 L
2894 3151 L
2897 3067 L
2899 3205 L
2902 2960 L
2904 3193 L
2907 3177 L
2909 2799 L
2911 2901 L
2914 2923 L
2916 2978 L
2918 2859 L
2921 3118 L
2923 2838 L
2925 2825 L
2927 2871 L
2929 2858 L
2932 2863 L
2934 2911 L
2936 2756 L
2938 2903 L
2940 2885 L
2942 2855 L
2944 2881 L
2946 2736 L
2948 2907 L
2950 2836 L
2952 2698 L
2954 2737 L
2956 2741 L
2958 2808 L
2960 2534 L
2962 2786 L
2964 2860 L
2966 2863 L
2968 2765 L
2970 2836 L
2971 2763 L
2973 2712 L
2975 2586 L
2977 2553 L
2979 2703 L
2980 2579 L
2982 2790 L
2984 2600 L
2986 2693 L
2987 2670 L
2989 2820 L
2991 2674 L
2993 2791 L
2994 2598 L
2996 2741 L
2998 2685 L
2999 2588 L
3001 2602 L
3003 2392 L
3004 2743 L
3006 2491 L
3007 2573 L
3009 2618 L
3011 2567 L
3012 2509 L
3014 2397 L
3015 2640 L
3017 2548 L
3018 2439 L
3020 2472 L
3021 2383 L
3023 2598 L
3024 2520 L
3026 2521 L
3027 2460 L
3029 2298 L
3030 2547 L
3032 2555 L
3033 2547 L
3035 2444 L
3036 2477 L
3038 2665 L
3039 2240 L
3040 2616 L
3042 2357 L
3043 2505 L
3045 2513 L
3046 2497 L
3047 2346 L
3049 2644 L
3050 2468 L
3051 2571 L
3053 2415 L
3054 2247 L
3055 2371 L
3057 2381 L
3058 2460 L
3059 2359 L
3061 2369 L
3062 2307 L
3063 2161 L
3065 2278 L
3066 2408 L
3067 2360 L
3068 2238 L
3070 2414 L
3071 2383 L
3072 2353 L
3073 2523 L
3075 2191 L
3076 2282 L
3077 2456 L
3078 2124 L
3079 2373 L
3081 2441 L
3082 2396 L
3083 2393 L
3084 2222 L
3085 2394 L
3087 2271 L
3088 2408 L
3089 1952 L
3090 2470 L
3091 2254 L
3092 2179 L
3094 2296 L
3095 2181 L
3096 2195 L
3097 2294 L
3098 2316 L
3099 2317 L
3100 2240 L
3101 2313 L
3103 2260 L
3104 2185 L
3105 2363 L
3106 2161 L
3107 2450 L
3108 2191 L
3109 2106 L
3110 2337 L
3111 2230 L
3112 2213 L
3113 2337 L
3114 2416 L
3115 2213 L
3116 2248 L
3117 2238 L
3119 2166 L
3120 2220 L
3121 2019 L
3122 2216 L
3123 2075 L
3124 1999 L
3125 2100 L
3126 2167 L
3127 2100 L
3128 2015 L
3129 2244 L
3130 2176 L
3131 1965 L
3132 2213 L
3133 2112 L
3134 2440 L
3135 2098 L
3136 2095 L
3136 2019 L
3137 2062 L
3138 2142 L
3139 2323 L
3140 2298 L
3141 2218 L
3142 2102 L
3143 2188 L
3144 2130 L
3145 2235 L
3146 2072 L
3147 2073 L
3148 2343 L
3149 2040 L
3150 2101 L
3151 2117 L
3151 2135 L
3152 2252 L
3153 2166 L
3154 1995 L
3155 2077 L
3156 2074 L
3157 2162 L
3158 2202 L
3159 2058 L
3160 2057 L
3160 2066 L
3161 1983 L
3162 2042 L
3163 2099 L
3164 2149 L
3165 2181 L
3166 1999 L
3166 2097 L
3167 2067 L
3168 1999 L
3169 1970 L
3170 1983 L
3171 2057 L
3172 2144 L
3172 2203 L
3173 2054 L
3174 2246 L
3175 2102 L
3176 2286 L
3177 2013 L
3177 2079 L
3178 2141 L
3179 2312 L
3180 2149 L
3181 1870 L
3181 2055 L
3182 2157 L
3183 2000 L
3184 2113 L
3185 2109 L
3185 1944 L
3186 2089 L
3187 2067 L
3188 2090 L
3189 2209 L
3189 2014 L
3190 2040 L
3191 2224 L
3192 2145 L
3193 2030 L
3193 2218 L
3194 2063 L
3195 2019 L
3196 2059 L
3196 1975 L
3197 2059 L
3198 2030 L
3199 1842 L
3199 2155 L
3200 2068 L
3201 2100 L
3202 2013 L
3202 2224 L
3203 2033 L
3204 1892 L
3205 1943 L
3205 1901 L
3206 1992 L
3207 2236 L
3208 2007 L
3208 2126 L
3209 2170 L
3210 2169 L
3210 1845 L
3211 1956 L
3212 2105 L
3213 2218 L
3213 2081 L
3214 2086 L
3215 2149 L
3215 1984 L
3216 2036 L
3217 2212 L
3218 2137 L
3218 2032 L
3219 1902 L
3220 2218 L
3220 2075 L
3221 2410 L
3222 2133 L
3222 2369 L
3223 2142 L
3224 2323 L
3224 1860 L
3225 2033 L
3226 2102 L
3227 1989 L
3227 2239 L
3228 1915 L
3229 2191 L
3229 1968 L
3230 2127 L
3231 2100 L
3231 1900 L
3232 2177 L
3233 1888 L
3233 2173 L
3234 2005 L
3235 2243 L
3235 2054 L
3236 2087 L
3236 2106 L
3237 2062 L
3238 1957 L
3238 2068 L
3239 2183 L
3240 2088 L
3240 2064 L
3241 2137 L
3242 2013 L
3242 1974 L
3243 1884 L
3244 2123 L
3244 1981 L
3245 2198 L
3245 2025 L
3246 2080 L
3247 2069 L
3247 1833 L
3248 2014 L
3249 2288 L
3249 2123 L
3250 1942 L
3250 2027 L
3251 2132 L
3252 2092 L
3252 2117 L
3253 2013 L
3253 1999 L
3254 2103 L
3255 2131 L
3255 2139 L
3256 1893 L
3257 2257 L
3257 1981 L
3258 2184 L
3258 2055 L
3259 2348 L
3259 1942 L
3260 2171 L
3261 2062 L
3261 2022 L
3262 2046 L
3262 2161 L
3263 2227 L
3264 2205 L
3264 2126 L
3265 2092 L
3265 2235 L
3266 1941 L
3267 1974 L
3267 2134 L
3268 1976 L
3268 2143 L
3269 2227 L
3269 2050 L
3270 2168 L
3271 2003 L
3271 2114 L
3272 1997 L
3272 2202 L
3273 2039 L
3273 2184 L
3274 2131 L
3275 2197 L
3275 2139 L
3276 2064 L
3276 1985 L
3277 2232 L
3277 2219 L
3278 2173 L
3278 2007 L
3279 2076 L
3280 2218 L
3280 2233 L
3281 2046 L
3281 2143 L
3282 2134 L
3282 2133 L
3283 2110 L
3283 2212 L
3284 2046 L
3284 2141 L
3285 2134 L
3285 2069 L
3286 2341 L
3287 2035 L
3287 2178 L
3288 2194 L
3288 2221 L
3289 2089 L
3289 2104 L
3290 2149 L
3290 2312 L
3291 1989 L
3291 2279 L
3292 2046 L
3292 2169 L
3293 2262 L
3293 2007 L
3294 2045 L
3294 2197 L
3295 2137 L
3295 2181 L
3296 2129 L
3297 2086 L
3297 2187 L
3298 2071 L
3298 2250 L
3299 2175 L
3299 2223 L
3300 1993 L
3300 2075 L
3301 2104 L
3301 2123 L
3302 2011 L
3302 2085 L
3303 1918 L
3303 2305 L
3304 2053 L
3304 2264 L
3305 2272 L
3305 2076 L
3306 2011 L
3306 2252 L
3307 2309 L
3307 2167 L
3308 2045 L
3308 2068 L
3309 2117 L
3309 2183 L
3310 2076 L
3310 2324 L
3311 2102 L
3311 2173 L
3312 2188 L
3312 2299 L
3312 1931 L
3313 2363 L
3313 2064 L
3314 2109 L
3314 2270 L
3315 2027 L
3315 2119 L
3316 2153 L
3316 2278 L
3317 2211 L
3317 2405 L
3318 2028 L
3318 2121 L
3319 2207 L
3319 2025 L
3320 2177 L
3320 2149 L
3321 2130 L
3321 1955 L
3321 2135 L
3322 2161 L
3322 2143 L
3323 2148 L
3323 2118 L
3324 2413 L
3324 2155 L
3325 2264 L
3325 2307 L
3326 2340 L
3326 2291 L
3327 2102 L
3327 2251 L
3327 2426 L
3328 2228 L
3328 2094 L
3329 2270 L
3329 2028 L
3330 2253 L
3330 2071 L
3331 2236 L
3331 2234 L
3332 2414 L
3332 2163 L
3332 2080 L
3333 2233 L
3333 2548 L
3334 2062 L
3334 1973 L
3335 2257 L
3335 2167 L
3336 2191 L
3336 2175 L
3336 2099 L
3337 2295 L
3337 1995 L
3338 2353 L
3338 2082 L
3339 2381 L
3339 2047 L
3339 2355 L
3340 2209 L
3340 2086 L
3341 2254 L
3341 2259 L
3342 2319 L
3342 2161 L
3343 2242 L
3343 2220 L
3343 2096 L
3344 2254 L
3344 2108 L
3345 2070 L
3345 2220 L
3346 2181 L
3346 2074 L
3346 2264 L
3347 2331 L
3347 2214 L
3348 2191 L
3348 2294 L
3348 2284 L
3349 2072 L
3349 2272 L
3350 2007 L
3350 2161 L
3351 2128 L
3351 2284 L
3351 2306 L
3352 2383 L
3352 2130 L
3353 2114 L
3353 2207 L
3353 2195 L
3354 2194 L
3354 2126 L
3355 2143 L
3355 2224 L
3355 2329 L
3356 2209 L
3356 2258 L
3357 2183 L
3357 2254 L
3358 2175 L
3358 2519 L
3358 2195 L
3359 2306 L
3359 2349 L
3360 2173 L
3360 2340 L
3360 2187 L
3361 2524 L
3361 2213 L
3362 2262 L
3362 2385 L
3362 2197 L
3363 1972 L
3363 2299 L
3364 2194 L
3364 2391 L
3364 2318 L
3365 1993 L
3365 2325 L
3365 2400 L
3366 2382 L
3366 2363 L
3367 2220 L
3367 2234 L
3367 2240 L
3368 2216 L
3368 2431 L
3369 2164 L
3369 2351 L
3369 2323 L
3370 2252 L
3370 2321 L
3371 2265 L
3371 2345 L
3371 2309 L
3372 2279 L
3372 2203 L
3372 2188 L
3373 1973 L
3373 2204 L
3374 1963 L
3374 2300 L
3374 2019 L
3375 2345 L
3375 2362 L
3375 2170 L
3376 2337 L
3376 2178 L
3377 2284 L
3377 2651 L
3377 2361 L
3378 2240 L
3378 2032 L
3378 2291 L
3379 2189 L
3379 2375 L
3380 2209 L
3380 2216 L
3380 2300 L
3381 2487 L
3381 2172 L
3381 2318 L
3382 2290 L
3382 2140 L
3383 2272 L
3383 2187 L
3383 2420 L
3384 2178 L
3384 2621 L
3384 2222 L
3385 2382 L
3385 2375 L
3385 2323 L
3386 2217 L
3386 2470 L
3387 2272 L
3387 2317 L
3387 2476 L
3388 2127 L
3388 2250 L
3388 2329 L
3389 2242 L
3389 2391 L
3389 2234 L
3390 2212 L
3390 2450 L
3391 2246 L
3391 2351 L
3391 2214 L
3392 2327 L
3392 2242 L
3392 2440 L
3393 2214 L
3393 2459 L
3393 2378 L
3394 2347 L
3394 2124 L
3394 2195 L
3395 2251 L
3395 2165 L
3395 2268 L
3396 2409 L
3396 2224 L
3396 2268 L
3397 2218 L
3397 2312 L
3398 2322 L
3398 2224 L
3398 2298 L
3399 2245 L
3399 2270 L
3399 2226 L
3400 2261 L
3400 2257 L
3400 2230 L
3401 2428 L
3401 2181 L
3401 2353 L
3402 2487 L
3402 2370 L
3402 2473 L
3403 2377 L
3403 2321 L
3403 2453 L
3404 2385 L
3404 2461 L
3404 2516 L
3405 2476 L
3405 2222 L
3405 2339 L
3406 2291 L
3406 2238 L
3406 2310 L
3407 2329 L
3407 2322 L
3407 2355 L
3408 2369 L
3408 2351 L
3408 2423 L
3409 2454 L
3409 2232 L
3409 2413 L
3410 2203 L
3410 2291 L
3410 2470 L
3411 2473 L
3411 2259 L
3411 2365 L
3412 2533 L
3412 2483 L
3412 2266 L
3413 2424 L
3413 2267 L
3413 2272 L
3414 2432 L
3414 2367 L
3414 2351 L
3415 2315 L
3415 2101 L
3415 2410 L
3416 2517 L
3416 2244 L
3416 2442 L
3417 2199 L
3417 2387 L
3417 2371 L
3417 2311 L
3418 2403 L
3418 2458 L
3418 2408 L
3419 2426 L
3419 2312 L
3419 2181 L
3420 2380 L
3420 2699 L
3420 2458 L
3421 2392 L
3421 2311 L
3421 2383 L
3422 2280 L
3422 2351 L
3422 2365 L
3423 2541 L
3423 2282 L
3423 2465 L
3423 2296 L
3424 2491 L
3424 2488 L
3424 2454 L
3425 2519 L
3425 2363 L
3425 2357 L
3426 2324 L
3426 2267 L
3426 2452 L
3427 2525 L
3427 2268 L
3427 2424 L
3428 2319 L
3428 2877 L
3428 2486 L
3428 2292 L
3429 2256 L
3429 2369 L
3429 2632 L
3430 2424 L
3430 2384 L
3430 2343 L
3431 2455 L
3431 2282 L
3431 2529 L
3431 2490 L
3432 2384 L
3432 2365 L
3432 2335 L
3433 2412 L
3433 2486 L
3433 2325 L
3434 2395 L
3434 2531 L
3434 2270 L
3434 2602 L
3435 2500 L
3435 2573 L
3435 2541 L
3436 2418 L
3436 2394 L
3436 2446 L
3437 2383 L
3437 2433 L
3437 2321 L
3437 2368 L
3438 2516 L
3438 2507 L
3438 2519 L
3439 2466 L
3439 2476 L
3439 2606 L
3440 2620 L
3440 2333 L
3440 2395 L
3440 2497 L
3441 2500 L
3441 2313 L
3441 2347 L
3442 2464 L
3442 2627 L
3442 2582 L
3442 2751 L
3443 2571 L
3443 2489 L
3443 2445 L
3444 2448 L
3444 2440 L
3444 2375 L
3444 2575 L
3445 2171 L
3445 2715 L
3445 2385 L
3446 2321 L
3446 2417 L
3446 2614 L
3446 2310 L
3447 2454 L
3447 2361 L
3447 2456 L
3448 2517 L
3448 2553 L
3448 2511 L
3448 2396 L
3449 2538 L
3449 2614 L
3449 2603 L
3450 2238 L
3450 2334 L
3450 2379 L
3450 2494 L
3451 2262 L
3451 2362 L
3451 2403 L
3452 2535 L
3452 2465 L
3452 2420 L
3452 2476 L
3453 2268 L
3453 2454 L
3453 2377 L
3454 2565 L
3454 2493 L
3454 2515 L
3454 2466 L
3455 2604 L
3455 2411 L
3455 2497 L
3455 2440 L
3456 2318 L
3456 2505 L
3456 2580 L
3457 2331 L
3457 2424 L
3457 2244 L
3457 2504 L
3458 2331 L
3458 2507 L
3458 2460 L
3458 2644 L
3459 2446 L
3459 2622 L
3459 2437 L
3460 2596 L
3460 2600 L
3460 2379 L
3460 2391 L
3461 2417 L
3461 2535 L
3461 2575 L
3461 2339 L
3462 2479 L
3462 2509 L
3462 2463 L
3463 2537 L
3463 2350 L
3463 2388 L
3463 2522 L
3464 2475 L
3464 2379 L
3464 2440 L
3464 2523 L
3465 2665 L
3465 2338 L
3465 2614 L
3465 2429 L
3466 2439 L
3466 2578 L
3466 2543 L
3466 2373 L
3467 2474 L
3467 2472 L
3467 2574 L
3468 2588 L
3468 2545 L
3468 2510 L
3468 2602 L
3469 2624 L
3469 2624 L
3469 2585 L
3469 2460 L
3470 2540 L
3470 2425 L
3470 2603 L
3470 2633 L
3471 2558 L
3471 2732 L
3471 2527 L
3471 2683 L
3472 2683 L
3472 2540 L
3472 2452 L
3472 2623 L
3473 2568 L
3473 2565 L
3473 2363 L
3474 2715 L
3474 2490 L
3474 2573 L
3474 2515 L
3475 2341 L
3475 2545 L
3475 2474 L
3475 2533 L
3476 2523 L
3476 2617 L
3476 2419 L
3476 2460 L
3477 2461 L
3477 2418 L
3477 2563 L
3477 2535 L
3478 2507 L
3478 2592 L
3478 2569 L
3478 2450 L
3479 2499 L
3479 2523 L
3479 2575 L
3479 2561 L
3480 2541 L
3480 2600 L
3480 2490 L
3480 2551 L
3481 2626 L
3481 2507 L
3481 2672 L
3481 2695 L
3482 2616 L
3482 2577 L
3482 2513 L
3482 2638 L
3483 2658 L
3483 2649 L
3483 2679 L
3483 2483 L
3484 2592 L
3484 2524 L
3484 2441 L
3484 2411 L
3485 2573 L
3485 2484 L
3485 2531 L
3485 2336 L
3486 2650 L
3486 2412 L
3486 2389 L
3486 2540 L
3487 2597 L
3487 2420 L
3487 2497 L
3487 2491 L
3488 2623 L
3488 2628 L
3488 2691 L
3488 2440 L
3488 2721 L
3489 2537 L
3489 2446 L
3489 2382 L
3489 2713 L
3490 2591 L
3490 2669 L
3490 2426 L
3490 2444 L
3491 2806 L
3491 2723 L
3491 2372 L
3491 2519 L
3492 2377 L
3492 2528 L
3492 2620 L
3492 2482 L
3493 2624 L
3493 2657 L
3493 2586 L
3493 2527 L
3494 2513 L
3494 2530 L
3494 2432 L
3494 2581 L
3494 2380 L
3495 2549 L
3495 2594 L
3495 2629 L
3495 2487 L
3496 2444 L
3496 2471 L
3496 2831 L
3496 2361 L
3497 2644 L
3497 2574 L
3497 2576 L
3497 2637 L
3498 2594 L
3498 2705 L
3498 2560 L
3498 2468 L
3498 2630 L
3499 2716 L
3499 2737 L
3499 2618 L
3499 2782 L
3500 2520 L
3500 2578 L
3506 2724 L
3511 2497 L
3517 2659 L
3522 2712 L
3527 2795 L
3532 2648 L
3537 2716 L
3542 2725 L
3547 2642 L
3552 2795 L
3557 2722 L
3561 2623 L
3566 2706 L
3570 2904 L
3575 2867 L
3579 2784 L
3583 2978 L
3587 2971 L
3591 3021 L
3595 2717 L
3599 2819 L
3603 2791 L
3607 2764 L
3611 2821 L
3614 2686 L
3618 2902 L
3622 2789 L
3625 2674 L
3629 2689 L
3632 2934 L
3636 3037 L
3639 2874 L
3642 2767 L
3646 2813 L
3649 2897 L
3652 2969 L
3655 2903 L
3658 3160 L
3661 2755 L
3664 2570 L
3667 2823 L
3670 2754 L
3673 2878 L
3676 2889 L
3679 2787 L
3682 2847 L
3685 3006 L
3688 2694 L
3690 2930 L
3693 2826 L
3696 2796 L
3698 2976 L
3701 2694 L
3704 2696 L
3706 2795 L
3709 2826 L
3711 2908 L
3714 2915 L
3716 2889 L
3719 2909 L
3721 2708 L
3724 3016 L
3726 2533 L
3728 2958 L
3731 3022 L
3733 2904 L
3735 2803 L
3738 2908 L
3740 2940 L
3742 2881 L
3744 2998 L
3747 2875 L
3749 3156 L
3751 2864 L
3753 2899 L
3755 3080 L
3757 2954 L
3760 2945 L
3762 3206 L
3764 2906 L
3766 2953 L
3768 2744 L
3770 2880 L
3772 2899 L
3774 2936 L
3776 2912 L
3778 3018 L
3780 2873 L
3781 2863 L
3783 2927 L
3785 2778 L
3787 2972 L
3789 2846 L
3791 2926 L
3793 2970 L
3795 2893 L
3796 2805 L
3798 2704 L
3800 3042 L
3802 2911 L
3803 2852 L
3805 2900 L
3807 3014 L
3809 2998 L
3810 2715 L
3812 2775 L
3814 3047 L
3816 2976 L
3817 2705 L
3819 2739 L
3820 2672 L
3822 2950 L
3824 2965 L
3825 2839 L
3827 2778 L
3829 3065 L
3830 2884 L
3832 2995 L
3833 2892 L
3835 2804 L
3836 2919 L
3838 2812 L
3839 2964 L
3841 3143 L
3842 3037 L
3844 2793 L
3845 2955 L
3847 3099 L
3848 2855 L
3850 2856 L
3851 3098 L
3853 2715 L
3854 2942 L
3856 2744 L
3857 2988 L
3859 2938 L
3860 3030 L
3861 2930 L
3863 2893 L
3864 2909 L
3866 2868 L
3867 2845 L
3868 2918 L
3870 2828 L
3871 3068 L
3872 3057 L
3874 2966 L
3875 2741 L
3876 3293 L
3878 3017 L
3879 2831 L
3880 3043 L
3882 2743 L
3883 2820 L
3884 2902 L
3885 3087 L
3887 2929 L
3888 2935 L
3889 2923 L
3890 3055 L
3892 3083 L
3893 3098 L
3894 2879 L
3895 2862 L
3897 2852 L
3898 2971 L
3899 2942 L
3900 2846 L
3901 3024 L
3903 3070 L
3904 2910 L
3905 2927 L
3906 2692 L
3907 2777 L
3908 2848 L
3910 2607 L
3911 2949 L
3912 2824 L
3913 2973 L
3914 3077 L
3915 2664 L
3917 2767 L
3918 2562 L
3919 2967 L
3920 2875 L
3921 3015 L
3922 2844 L
3923 2967 L
3924 3106 L
3925 3005 L
3926 2966 L
3928 3008 L
3929 2931 L
3930 2896 L
3931 3012 L
3932 2893 L
3933 2777 L
3934 2721 L
3935 3027 L
3936 2843 L
3937 3012 L
3938 2887 L
3939 3072 L
3940 2783 L
3941 2873 L
3942 3011 L
3943 2991 L
3944 2905 L
3945 3209 L
3946 2896 L
3947 2688 L
3948 2786 L
3949 2784 L
3950 3124 L
3951 2879 L
3952 2839 L
3953 2848 L
3954 2819 L
3955 2847 L
3956 2974 L
3957 3059 L
3958 2888 L
3959 2934 L
3960 2761 L
3961 2791 L
3962 2800 L
3963 3073 L
3964 2838 L
3965 2945 L
3966 3056 L
3966 2734 L
3967 2830 L
3968 2867 L
3969 2786 L
3970 2834 L
3971 2819 L
3972 2833 L
3973 2877 L
3974 2933 L
3975 2691 L
3976 2789 L
3976 2806 L
3977 2605 L
3978 2893 L
3979 2930 L
3980 2945 L
3981 2982 L
3982 2984 L
3983 2843 L
3983 2611 L
3984 2611 L
3985 2993 L
3986 2740 L
3987 2973 L
3988 2851 L
3989 2815 L
3989 2920 L
3990 2693 L
3991 2771 L
3992 2794 L
3993 2836 L
3994 2852 L
3995 2864 L
3995 2718 L
3996 2842 L
3997 2742 L
3998 2829 L
3999 2954 L
3999 2916 L
4000 2672 L
4001 2664 L
4002 2759 L
4003 2906 L
4003 2893 L
4004 3099 L
4005 2986 L
4006 2780 L
4007 2988 L
4007 2862 L
4008 2622 L
4009 2839 L
4010 2894 L
4011 2920 L
4011 2609 L
4012 2806 L
4013 2697 L
4014 3022 L
4014 2738 L
4015 2888 L
4016 2855 L
4017 2863 L
4017 2951 L
4018 2993 L
4019 3071 L
4020 2930 L
4021 3061 L
4021 2826 L
4022 2960 L
4023 2854 L
4023 2750 L
4024 2907 L
4025 3103 L
4026 2769 L
4026 2877 L
4027 2831 L
4028 2852 L
4029 2987 L
4029 2908 L
4030 2967 L
4031 2885 L
4032 2766 L
4032 2990 L
4033 2911 L
4034 2847 L
4034 2889 L
4035 3091 L
4036 2813 L
4036 2735 L
4037 3056 L
4038 2914 L
4039 2863 L
4039 2965 L
4040 2817 L
4041 2939 L
4041 2893 L
4042 2710 L
4043 2711 L
4043 2787 L
4044 2935 L
4045 2852 L
4045 2720 L
4046 2740 L
4047 2897 L
4047 2855 L
4048 2803 L
4049 2904 L
4050 3087 L
4050 2863 L
4051 3066 L
4052 2595 L
4052 2956 L
4053 2675 L
4053 3048 L
4054 3083 L
4055 2556 L
4055 2851 L
4056 2968 L
4057 2751 L
4057 2991 L
4058 2905 L
4059 2832 L
4059 2622 L
4060 2872 L
4061 2466 L
4061 2885 L
4062 2599 L
L2 C03 COSGR

%
%================
% Legend - Begin
%================
%
GSN 4240 5180 M
4480 5180 L
LWMC SL  C03 COSGR
GSN 4540 5141 M helvM (1.5 uM) show grestore
%
%================
% Legend - End
%================
%

%
% Residuals:
%
GSN 777 1050 M
1388 967 L
1552 994 L
1652 1076 L
1723 967 L
1778 895 L
1824 912 L
1863 894 L
1896 889 L
1926 922 L
1952 976 L
1976 1019 L
1998 1131 L
2019 1190 L
2037 1019 L
2055 1206 L
2071 1128 L
2086 1049 L
2101 1041 L
2115 1061 L
2128 1209 L
2140 1093 L
2152 1057 L
2163 1265 L
2174 1232 L
2184 1127 L
2194 1034 L
2204 990 L
2213 1130 L
2222 1152 L
2230 1127 L
2239 1186 L
2247 1103 L
2255 1103 L
2262 1213 L
2270 1092 L
2277 1137 L
2284 1099 L
2290 1224 L
2297 1179 L
2303 1108 L
2310 1025 L
2316 1088 L
2322 1060 L
2328 1091 L
2333 1122 L
2339 1161 L
2344 1152 L
2350 1216 L
2355 1085 L
2360 1098 L
2365 1149 L
2370 1187 L
2375 1139 L
2380 1050 L
2384 1199 L
2389 1162 L
2393 1294 L
2398 1176 L
2402 1092 L
2407 1093 L
2411 1201 L
2415 1169 L
2419 1151 L
2423 1247 L
2427 1188 L
2431 1326 L
2435 1189 L
2438 1133 L
2442 1225 L
2446 1201 L
2449 1139 L
2453 1161 L
2456 1217 L
2460 1189 L
2463 1146 L
2467 1092 L
2470 1127 L
2473 1196 L
2476 1234 L
2480 1140 L
2483 1166 L
2486 1290 L
2489 1177 L
2492 1252 L
2495 1174 L
2498 1224 L
2501 1139 L
2504 1270 L
2507 1226 L
2510 1137 L
2512 1231 L
2515 1283 L
2518 1220 L
2521 1250 L
2523 1198 L
2526 1223 L
2529 1149 L
2531 1052 L
2534 1169 L
2536 1165 L
2539 1204 L
2541 1191 L
2544 1135 L
2546 1079 L
2549 1174 L
2551 1210 L
2554 1194 L
2556 1155 L
2558 1195 L
2561 1225 L
2563 1121 L
2565 1116 L
2568 1321 L
2570 1284 L
2572 1258 L
2574 1198 L
2576 1096 L
2579 1412 L
2581 1179 L
2583 1116 L
2585 1224 L
2587 1285 L
2589 1220 L
2591 1171 L
2593 1207 L
2595 1163 L
2597 1234 L
2599 1187 L
2601 1194 L
2603 1327 L
2605 1099 L
2607 1159 L
2609 1189 L
2611 1234 L
2613 1215 L
2615 1103 L
2617 1144 L
2618 1212 L
2620 1236 L
2622 1241 L
2624 1271 L
2626 1246 L
2627 1115 L
2629 1153 L
2631 1224 L
2633 1233 L
2634 1192 L
2636 1278 L
2638 1180 L
2640 1206 L
2641 1176 L
2643 1248 L
2645 1160 L
2646 1260 L
2648 1211 L
2650 1017 L
2651 1216 L
2653 1162 L
2654 1231 L
2656 1149 L
2658 1237 L
2659 1153 L
2661 1075 L
2662 1153 L
2664 1277 L
2665 1266 L
2667 1147 L
2668 1206 L
2670 1251 L
2671 1245 L
2673 1143 L
2674 1219 L
2676 1225 L
2677 1159 L
2679 1229 L
2680 1208 L
2682 1196 L
2683 1197 L
2685 1169 L
2686 1162 L
2687 1230 L
2689 1167 L
2690 1192 L
2692 1024 L
2693 1281 L
2694 1229 L
2696 1142 L
2697 1124 L
2698 1247 L
2700 1272 L
2701 1190 L
2702 1271 L
2704 1171 L
2705 1157 L
2706 1179 L
2708 1126 L
2709 1247 L
2710 1177 L
2712 1238 L
2713 1199 L
2714 1223 L
2715 1256 L
2717 1151 L
2718 1159 L
2719 1207 L
2720 1284 L
2722 1196 L
2723 1136 L
2724 1267 L
2725 1229 L
2726 1153 L
2728 1202 L
2729 1131 L
2730 1185 L
2731 1134 L
2732 1248 L
2734 1163 L
2735 1227 L
2736 1107 L
2737 1111 L
2738 1206 L
2739 1153 L
2741 1129 L
2742 1075 L
2743 1265 L
2744 1112 L
2745 1205 L
2746 1145 L
2747 1318 L
2748 1180 L
2749 1190 L
2751 1202 L
2752 1144 L
2753 1312 L
2754 1124 L
2755 1175 L
2756 1196 L
2757 1133 L
2758 1205 L
2759 1152 L
2760 1184 L
2761 1283 L
2762 1220 L
2763 1201 L
2764 1228 L
2765 1103 L
2767 1305 L
2768 1329 L
2769 1230 L
2770 1060 L
2771 1229 L
2772 1170 L
2773 1164 L
2774 1255 L
2775 1095 L
2776 1208 L
2777 1143 L
2778 1265 L
2779 1170 L
2780 1176 L
2781 1223 L
2782 1089 L
2783 1222 L
2783 1236 L
2784 1210 L
2785 1149 L
2786 1207 L
2787 1097 L
2788 1151 L
2789 1118 L
2790 1175 L
2791 1070 L
2792 1263 L
2793 1187 L
2794 1213 L
2795 1178 L
2796 1174 L
2797 1102 L
2798 1280 L
2798 1210 L
2799 1299 L
2800 1203 L
2801 1296 L
2802 1217 L
2803 1176 L
2804 1120 L
2805 1216 L
2806 1128 L
2807 1193 L
2807 1090 L
2808 1223 L
2809 1237 L
2810 1156 L
2811 1151 L
2812 1220 L
2813 1123 L
2813 1105 L
2814 1038 L
2815 1187 L
2816 1285 L
2817 1128 L
2818 1209 L
2819 1234 L
2819 1174 L
2820 1216 L
2821 1046 L
2822 1159 L
2823 1286 L
2824 1135 L
2824 1088 L
2825 1155 L
2826 1165 L
2827 1374 L
2828 1145 L
2828 1032 L
2829 1139 L
2830 1110 L
2831 1156 L
2832 1085 L
2832 1161 L
2833 1101 L
2834 1150 L
2835 1221 L
2836 1113 L
2836 1112 L
2837 1071 L
2838 1176 L
2839 1098 L
2840 1081 L
2840 1111 L
2841 1097 L
2842 1146 L
2843 1238 L
2843 1108 L
2844 1138 L
2845 1122 L
2846 1028 L
2846 1140 L
2847 1055 L
2848 1168 L
2849 1296 L
2849 1062 L
2850 1090 L
2851 1216 L
2852 1045 L
2852 1148 L
2853 1161 L
2854 1180 L
2855 1202 L
2855 1259 L
2856 1125 L
2857 1172 L
2857 1141 L
2858 1109 L
2859 1128 L
2860 1157 L
2860 1066 L
2861 1094 L
2862 1070 L
2862 1107 L
2863 1059 L
2864 1224 L
2865 1066 L
2865 1280 L
2866 1099 L
2867 1028 L
2867 1105 L
2868 1160 L
2869 1216 L
2869 1174 L
2870 1135 L
2871 1239 L
2871 1151 L
2872 1104 L
2873 1033 L
2873 1126 L
2874 1229 L
2875 1076 L
2876 1151 L
2876 1247 L
2877 1110 L
2878 1098 L
2878 1091 L
2879 1193 L
2880 1175 L
2880 1081 L
2881 1152 L
2881 1087 L
2882 1121 L
2883 1222 L
2883 1130 L
2884 1202 L
2885 1235 L
2885 1057 L
2886 1087 L
2887 1241 L
2887 1208 L
2888 1094 L
2889 1146 L
2889 1140 L
2892 1263 L
2894 1191 L
2897 1149 L
2899 1227 L
2902 1098 L
2904 1228 L
2907 1222 L
2909 1020 L
2911 1079 L
2914 1094 L
2916 1127 L
2918 1066 L
2921 1210 L
2923 1060 L
2925 1056 L
2927 1084 L
2929 1080 L
2932 1086 L
2934 1115 L
2936 1033 L
2938 1115 L
2940 1108 L
2942 1095 L
2944 1111 L
2946 1035 L
2948 1131 L
2950 1095 L
2952 1022 L
2954 1046 L
2956 1051 L
2958 1089 L
2960 943 L
2962 1082 L
2964 1125 L
2966 1129 L
2968 1078 L
2970 1119 L
2971 1081 L
2973 1055 L
2975 989 L
2977 973 L
2979 1057 L
2980 992 L
2982 1109 L
2984 1007 L
2986 1060 L
2987 1049 L
2989 1133 L
2991 1055 L
2993 1121 L
2994 1018 L
2996 1097 L
2998 1068 L
2999 1017 L
3001 1027 L
3003 914 L
3004 1107 L
3006 972 L
3007 1018 L
3009 1044 L
3011 1018 L
3012 988 L
3014 929 L
3015 1063 L
3017 1014 L
3018 956 L
3020 976 L
3021 929 L
3023 1047 L
3024 1006 L
3026 1008 L
3027 976 L
3029 890 L
3030 1027 L
3032 1032 L
3033 1030 L
3035 975 L
3036 994 L
3038 1098 L
3039 868 L
3040 1074 L
3042 934 L
3043 1016 L
3045 1022 L
3046 1014 L
3047 933 L
3049 1097 L
3050 1002 L
3051 1059 L
3053 976 L
3054 885 L
3055 954 L
3057 960 L
3058 1004 L
3059 951 L
3061 957 L
3062 925 L
3063 846 L
3065 911 L
3066 983 L
3067 958 L
3068 892 L
3070 989 L
3071 973 L
3072 958 L
3073 1051 L
3075 872 L
3076 922 L
3077 1018 L
3078 838 L
3079 975 L
3081 1012 L
3082 989 L
3083 988 L
3084 896 L
3085 990 L
3087 924 L
3088 1000 L
3089 752 L
3090 1036 L
3091 919 L
3092 879 L
3094 943 L
3095 881 L
3096 890 L
3097 945 L
3098 957 L
3099 958 L
3100 917 L
3101 958 L
3103 930 L
3104 889 L
3105 987 L
3106 878 L
3107 1036 L
3108 896 L
3109 850 L
3110 976 L
3111 919 L
3112 910 L
3113 979 L
3114 1022 L
3115 913 L
3116 932 L
3117 928 L
3119 889 L
3120 919 L
3121 810 L
3122 918 L
3123 842 L
3124 801 L
3125 857 L
3126 894 L
3127 858 L
3128 812 L
3129 937 L
3130 901 L
3131 787 L
3132 922 L
3133 868 L
3134 1047 L
3135 861 L
3136 860 L
3136 819 L
3137 843 L
3138 887 L
3139 986 L
3140 974 L
3141 930 L
3142 868 L
3143 915 L
3144 884 L
3145 941 L
3146 853 L
3147 854 L
3148 1002 L
3149 837 L
3150 871 L
3151 880 L
3151 891 L
3152 955 L
3153 908 L
3154 816 L
3155 861 L
3156 860 L
3157 908 L
3158 930 L
3159 852 L
3160 852 L
3160 857 L
3161 812 L
3162 845 L
3163 876 L
3164 904 L
3165 922 L
3166 823 L
3166 877 L
3167 861 L
3168 824 L
3169 809 L
3170 816 L
3171 857 L
3172 905 L
3172 937 L
3173 856 L
3174 961 L
3175 883 L
3176 984 L
3177 836 L
3177 872 L
3178 906 L
3179 999 L
3180 911 L
3181 759 L
3181 860 L
3182 916 L
3183 831 L
3184 893 L
3185 891 L
3185 802 L
3186 881 L
3187 869 L
3188 882 L
3189 947 L
3189 841 L
3190 856 L
3191 956 L
3192 913 L
3193 851 L
3193 954 L
3194 869 L
3195 846 L
3196 868 L
3196 822 L
3197 868 L
3198 853 L
3199 750 L
3199 921 L
3200 874 L
3201 892 L
3202 845 L
3202 960 L
3203 856 L
3204 780 L
3205 808 L
3205 785 L
3206 835 L
3207 968 L
3208 844 L
3208 908 L
3209 933 L
3210 932 L
3210 756 L
3211 817 L
3212 898 L
3213 960 L
3213 886 L
3214 889 L
3215 923 L
3215 833 L
3216 862 L
3217 958 L
3218 917 L
3218 860 L
3219 790 L
3220 962 L
3220 884 L
3221 1067 L
3222 916 L
3222 1045 L
3223 921 L
3224 1020 L
3224 768 L
3225 863 L
3226 900 L
3227 839 L
3227 975 L
3228 799 L
3229 949 L
3229 828 L
3230 915 L
3231 900 L
3231 792 L
3232 943 L
3233 786 L
3233 941 L
3234 850 L
3235 979 L
3235 877 L
3236 895 L
3236 905 L
3237 881 L
3238 825 L
3238 885 L
3239 948 L
3240 897 L
3240 883 L
3241 923 L
3242 856 L
3242 835 L
3243 786 L
3244 916 L
3244 839 L
3245 957 L
3245 863 L
3246 894 L
3247 887 L
3247 759 L
3248 858 L
3249 1007 L
3249 918 L
3250 819 L
3250 865 L
3251 923 L
3252 901 L
3252 915 L
3253 858 L
3253 851 L
3254 908 L
3255 923 L
3255 927 L
3256 794 L
3257 992 L
3257 842 L
3258 952 L
3258 882 L
3259 1042 L
3259 821 L
3260 946 L
3261 886 L
3261 865 L
3262 878 L
3262 941 L
3263 977 L
3264 965 L
3264 922 L
3265 903 L
3265 981 L
3266 822 L
3267 840 L
3267 927 L
3268 841 L
3268 932 L
3269 978 L
3269 881 L
3270 946 L
3271 856 L
3271 916 L
3272 853 L
3272 965 L
3273 876 L
3273 955 L
3274 926 L
3275 962 L
3275 931 L
3276 890 L
3276 847 L
3277 982 L
3277 975 L
3278 950 L
3278 859 L
3279 897 L
3280 974 L
3280 983 L
3281 881 L
3281 934 L
3282 929 L
3282 929 L
3283 916 L
3283 971 L
3284 882 L
3284 933 L
3285 930 L
3285 894 L
3286 1042 L
3287 876 L
3287 954 L
3288 963 L
3288 977 L
3289 906 L
3289 914 L
3290 938 L
3290 1027 L
3291 852 L
3291 1009 L
3292 882 L
3292 949 L
3293 1000 L
3293 861 L
3294 882 L
3294 965 L
3295 933 L
3295 956 L
3296 928 L
3297 905 L
3297 960 L
3298 897 L
3298 994 L
3299 953 L
3299 980 L
3300 854 L
3300 899 L
3301 915 L
3301 926 L
3302 864 L
3302 905 L
3303 814 L
3303 1025 L
3304 888 L
3304 1002 L
3305 1007 L
3305 900 L
3306 865 L
3306 996 L
3307 1027 L
3307 950 L
3308 884 L
3308 896 L
3309 923 L
3309 959 L
3310 901 L
3310 1036 L
3311 915 L
3311 954 L
3312 962 L
3312 1022 L
3312 822 L
3313 1058 L
3313 895 L
3314 919 L
3314 1007 L
3315 875 L
3315 924 L
3316 943 L
3316 1012 L
3317 975 L
3317 1081 L
3318 875 L
3318 926 L
3319 973 L
3319 874 L
3320 957 L
3320 942 L
3321 931 L
3321 836 L
3321 934 L
3322 948 L
3322 938 L
3323 941 L
3323 925 L
3324 1085 L
3324 945 L
3325 1004 L
3325 1028 L
3326 1046 L
3326 1019 L
3327 917 L
3327 998 L
3327 1093 L
3328 985 L
3328 912 L
3329 1008 L
3329 876 L
3330 999 L
3330 900 L
3331 989 L
3331 989 L
3332 1086 L
3332 950 L
3332 905 L
3333 988 L
3333 1160 L
3334 895 L
3334 846 L
3335 1001 L
3335 952 L
3336 965 L
3336 957 L
3336 915 L
3337 1022 L
3337 859 L
3338 1054 L
3338 906 L
3339 1069 L
3339 887 L
3339 1055 L
3340 976 L
3340 908 L
3341 1000 L
3341 1003 L
3342 1036 L
3342 950 L
3343 993 L
3343 981 L
3343 914 L
3344 1000 L
3344 921 L
3345 900 L
3345 982 L
3346 961 L
3346 902 L
3346 1006 L
3347 1042 L
3347 978 L
3348 966 L
3348 1022 L
3348 1017 L
3349 901 L
3349 1011 L
3350 866 L
3350 950 L
3351 932 L
3351 1017 L
3351 1029 L
3352 1071 L
3352 933 L
3353 925 L
3353 975 L
3353 969 L
3354 968 L
3354 931 L
3355 941 L
3355 984 L
3355 1042 L
3356 976 L
3356 1003 L
3357 962 L
3357 1001 L
3358 958 L
3358 1145 L
3358 969 L
3359 1029 L
3359 1053 L
3360 957 L
3360 1048 L
3360 964 L
3361 1148 L
3361 979 L
3362 1006 L
3362 1073 L
3362 970 L
3363 848 L
3363 1026 L
3364 969 L
3364 1076 L
3364 1036 L
3365 859 L
3365 1040 L
3365 1081 L
3366 1071 L
3366 1060 L
3367 983 L
3367 990 L
3367 993 L
3368 981 L
3368 1098 L
3369 952 L
3369 1054 L
3369 1039 L
3370 1000 L
3370 1038 L
3371 1007 L
3371 1051 L
3371 1031 L
3372 1015 L
3372 974 L
3372 966 L
3373 848 L
3373 974 L
3374 843 L
3374 1027 L
3374 874 L
3375 1051 L
3375 1060 L
3375 956 L
3376 1047 L
3376 960 L
3377 1018 L
3377 1218 L
3377 1060 L
3378 994 L
3378 881 L
3378 1022 L
3379 966 L
3379 1067 L
3380 977 L
3380 981 L
3380 1027 L
3381 1129 L
3381 957 L
3381 1037 L
3382 1021 L
3382 940 L
3383 1011 L
3383 966 L
3383 1092 L
3384 960 L
3384 1202 L
3384 984 L
3385 1072 L
3385 1068 L
3385 1040 L
3386 982 L
3386 1119 L
3387 1012 L
3387 1036 L
3387 1123 L
3388 933 L
3388 1000 L
3388 1043 L
3389 996 L
3389 1076 L
3389 991 L
3390 979 L
3390 1108 L
3391 997 L
3391 1055 L
3391 980 L
3392 1042 L
3392 995 L
3392 1103 L
3393 980 L
3393 1114 L
3393 1070 L
3394 1052 L
3394 931 L
3394 970 L
3395 1000 L
3395 954 L
3395 1009 L
3396 1086 L
3396 986 L
3396 1010 L
3397 982 L
3397 1034 L
3398 1039 L
3398 986 L
3398 1026 L
3399 997 L
3399 1011 L
3399 987 L
3400 1006 L
3400 1004 L
3400 989 L
3401 1097 L
3401 963 L
3401 1056 L
3402 1129 L
3402 1065 L
3402 1121 L
3403 1069 L
3403 1039 L
3403 1111 L
3404 1073 L
3404 1115 L
3404 1145 L
3405 1123 L
3405 985 L
3405 1049 L
3406 1022 L
3406 993 L
3406 1033 L
3407 1043 L
3407 1039 L
3407 1057 L
3408 1065 L
3408 1055 L
3408 1094 L
3409 1111 L
3409 990 L
3409 1089 L
3410 974 L
3410 1023 L
3410 1120 L
3411 1122 L
3411 1005 L
3411 1063 L
3412 1154 L
3412 1127 L
3412 1009 L
3413 1095 L
3413 1009 L
3413 1012 L
3414 1099 L
3414 1064 L
3414 1055 L
3415 1035 L
3415 919 L
3415 1087 L
3416 1145 L
3416 997 L
3416 1105 L
3417 972 L
3417 1075 L
3417 1066 L
3417 1033 L
3418 1083 L
3418 1114 L
3418 1086 L
3419 1096 L
3419 1034 L
3419 963 L
3420 1071 L
3420 1245 L
3420 1113 L
3421 1077 L
3421 1034 L
3421 1073 L
3422 1017 L
3422 1055 L
3422 1063 L
3423 1159 L
3423 1018 L
3423 1117 L
3423 1025 L
3424 1131 L
3424 1130 L
3424 1112 L
3425 1147 L
3425 1062 L
3425 1058 L
3426 1041 L
3426 1010 L
3426 1111 L
3427 1150 L
3427 1010 L
3427 1095 L
3428 1038 L
3428 1341 L
3428 1129 L
3428 1023 L
3429 1003 L
3429 1065 L
3429 1208 L
3430 1095 L
3430 1073 L
3430 1051 L
3431 1112 L
3431 1018 L
3431 1152 L
3431 1131 L
3432 1073 L
3432 1063 L
3432 1047 L
3433 1088 L
3433 1129 L
3433 1041 L
3434 1080 L
3434 1153 L
3434 1011 L
3434 1192 L
3435 1136 L
3435 1176 L
3435 1159 L
3436 1092 L
3436 1079 L
3436 1107 L
3437 1073 L
3437 1100 L
3437 1039 L
3437 1065 L
3438 1145 L
3438 1140 L
3438 1147 L
3439 1118 L
3439 1124 L
3439 1194 L
3440 1202 L
3440 1046 L
3440 1079 L
3440 1135 L
3441 1137 L
3441 1035 L
3441 1053 L
3442 1117 L
3442 1206 L
3442 1181 L
3442 1273 L
3443 1175 L
3443 1131 L
3443 1107 L
3444 1108 L
3444 1104 L
3444 1069 L
3444 1177 L
3445 957 L
3445 1253 L
3445 1074 L
3446 1039 L
3446 1091 L
3446 1199 L
3446 1033 L
3447 1112 L
3447 1061 L
3447 1112 L
3448 1146 L
3448 1165 L
3448 1143 L
3448 1080 L
3449 1157 L
3449 1198 L
3449 1193 L
3450 994 L
3450 1046 L
3450 1071 L
3450 1133 L
3451 1007 L
3451 1061 L
3451 1084 L
3452 1156 L
3452 1117 L
3452 1093 L
3452 1123 L
3453 1010 L
3453 1112 L
3453 1070 L
3454 1172 L
3454 1133 L
3454 1145 L
3454 1118 L
3455 1193 L
3455 1088 L
3455 1135 L
3455 1104 L
3456 1038 L
3456 1139 L
3456 1180 L
3457 1044 L
3457 1095 L
3457 997 L
3457 1139 L
3458 1045 L
3458 1140 L
3458 1115 L
3458 1215 L
3459 1107 L
3459 1203 L
3459 1102 L
3460 1189 L
3460 1191 L
3460 1071 L
3460 1077 L
3461 1091 L
3461 1156 L
3461 1177 L
3461 1049 L
3462 1125 L
3462 1142 L
3462 1117 L
3463 1157 L
3463 1055 L
3463 1076 L
3463 1149 L
3464 1123 L
3464 1071 L
3464 1104 L
3464 1149 L
3465 1227 L
3465 1049 L
3465 1199 L
3465 1098 L
3466 1103 L
3466 1179 L
3466 1160 L
3466 1067 L
3467 1123 L
3467 1121 L
3467 1177 L
3468 1185 L
3468 1161 L
3468 1142 L
3468 1192 L
3469 1204 L
3469 1204 L
3469 1183 L
3469 1115 L
3470 1158 L
3470 1096 L
3470 1193 L
3470 1209 L
3471 1168 L
3471 1263 L
3471 1151 L
3471 1236 L
3472 1236 L
3472 1158 L
3472 1111 L
3472 1204 L
3473 1174 L
3473 1172 L
3473 1062 L
3474 1254 L
3474 1131 L
3474 1176 L
3474 1145 L
3475 1050 L
3475 1161 L
3475 1123 L
3475 1155 L
3476 1149 L
3476 1200 L
3476 1093 L
3476 1115 L
3477 1115 L
3477 1092 L
3477 1171 L
3477 1156 L
3478 1141 L
3478 1187 L
3478 1174 L
3478 1109 L
3479 1136 L
3479 1149 L
3479 1177 L
3479 1170 L
3480 1159 L
3480 1191 L
3480 1131 L
3480 1164 L
3481 1205 L
3481 1140 L
3481 1230 L
3481 1243 L
3482 1200 L
3482 1179 L
3482 1144 L
3482 1212 L
3483 1223 L
3483 1218 L
3483 1234 L
3483 1127 L
3484 1187 L
3484 1150 L
3484 1105 L
3484 1088 L
3485 1177 L
3485 1128 L
3485 1153 L
3485 1047 L
3486 1219 L
3486 1089 L
3486 1077 L
3486 1158 L
3487 1189 L
3487 1093 L
3487 1135 L
3487 1132 L
3488 1204 L
3488 1206 L
3488 1241 L
3488 1104 L
3488 1257 L
3489 1157 L
3489 1107 L
3489 1073 L
3489 1253 L
3490 1186 L
3490 1228 L
3490 1096 L
3490 1106 L
3491 1303 L
3491 1258 L
3491 1067 L
3491 1147 L
3492 1070 L
3492 1152 L
3492 1202 L
3492 1127 L
3493 1204 L
3493 1222 L
3493 1184 L
3493 1151 L
3494 1144 L
3494 1153 L
3494 1100 L
3494 1181 L
3494 1071 L
3495 1163 L
3495 1188 L
3495 1207 L
3495 1130 L
3496 1106 L
3496 1121 L
3496 1317 L
3496 1061 L
3497 1215 L
3497 1177 L
3497 1178 L
3497 1211 L
3498 1188 L
3498 1248 L
3498 1169 L
3498 1120 L
3498 1207 L
3499 1254 L
3499 1266 L
3499 1201 L
3499 1290 L
3500 1148 L
3500 1179 L
3506 1259 L
3511 1135 L
3517 1223 L
3522 1252 L
3527 1297 L
3532 1217 L
3537 1254 L
3542 1259 L
3547 1214 L
3552 1297 L
3557 1258 L
3561 1204 L
3566 1249 L
3570 1357 L
3575 1336 L
3579 1291 L
3583 1397 L
3587 1393 L
3591 1420 L
3595 1255 L
3599 1310 L
3603 1295 L
3607 1280 L
3611 1311 L
3614 1238 L
3618 1355 L
3622 1294 L
3625 1231 L
3629 1239 L
3632 1373 L
3636 1429 L
3639 1341 L
3642 1282 L
3646 1307 L
3649 1353 L
3652 1392 L
3655 1356 L
3658 1496 L
3661 1275 L
3664 1175 L
3667 1312 L
3670 1275 L
3673 1342 L
3676 1348 L
3679 1293 L
3682 1325 L
3685 1412 L
3688 1243 L
3690 1371 L
3693 1314 L
3696 1298 L
3698 1396 L
3701 1242 L
3704 1244 L
3706 1297 L
3709 1314 L
3711 1359 L
3714 1363 L
3716 1348 L
3719 1359 L
3721 1250 L
3724 1418 L
3726 1155 L
3728 1386 L
3731 1421 L
3733 1356 L
3735 1302 L
3738 1359 L
3740 1376 L
3742 1344 L
3744 1408 L
3747 1341 L
3749 1494 L
3751 1335 L
3753 1354 L
3755 1453 L
3757 1384 L
3760 1379 L
3762 1521 L
3764 1358 L
3766 1383 L
3768 1270 L
3770 1344 L
3772 1354 L
3774 1374 L
3776 1361 L
3778 1419 L
3780 1340 L
3781 1335 L
3783 1369 L
3785 1288 L
3787 1394 L
3789 1325 L
3791 1369 L
3793 1392 L
3795 1351 L
3796 1303 L
3798 1248 L
3800 1432 L
3802 1361 L
3803 1328 L
3805 1355 L
3807 1416 L
3809 1408 L
3810 1254 L
3812 1286 L
3814 1434 L
3816 1396 L
3817 1248 L
3819 1267 L
3820 1230 L
3822 1382 L
3824 1390 L
3825 1321 L
3827 1288 L
3829 1444 L
3830 1346 L
3832 1406 L
3833 1350 L
3835 1302 L
3836 1365 L
3838 1307 L
3839 1389 L
3841 1487 L
3842 1429 L
3844 1296 L
3845 1385 L
3847 1463 L
3848 1330 L
3850 1330 L
3851 1462 L
3853 1254 L
3854 1377 L
3856 1270 L
3857 1402 L
3859 1375 L
3860 1425 L
3861 1371 L
3863 1351 L
3864 1359 L
3866 1337 L
3867 1325 L
3868 1364 L
3870 1315 L
3871 1446 L
3872 1440 L
3874 1391 L
3875 1268 L
3876 1569 L
3878 1418 L
3879 1317 L
3880 1432 L
3882 1269 L
3883 1311 L
3884 1356 L
3885 1456 L
3887 1370 L
3888 1373 L
3889 1367 L
3890 1439 L
3892 1454 L
3893 1462 L
3894 1343 L
3895 1334 L
3897 1328 L
3898 1393 L
3899 1377 L
3900 1325 L
3901 1422 L
3903 1447 L
3904 1360 L
3905 1369 L
3906 1241 L
3907 1288 L
3908 1326 L
3910 1195 L
3911 1381 L
3912 1313 L
3913 1394 L
3914 1451 L
3915 1226 L
3917 1282 L
3918 1171 L
3919 1391 L
3920 1341 L
3921 1417 L
3922 1324 L
3923 1391 L
3924 1467 L
3925 1412 L
3926 1391 L
3928 1413 L
3929 1371 L
3930 1352 L
3931 1416 L
3932 1351 L
3933 1287 L
3934 1257 L
3935 1423 L
3936 1324 L
3937 1416 L
3938 1347 L
3939 1448 L
3940 1291 L
3941 1340 L
3942 1415 L
3943 1404 L
3944 1357 L
3945 1523 L
3946 1352 L
3947 1239 L
3948 1292 L
3949 1291 L
3950 1477 L
3951 1343 L
3952 1321 L
3953 1326 L
3954 1310 L
3955 1325 L
3956 1395 L
3957 1441 L
3958 1348 L
3959 1373 L
3960 1279 L
3961 1295 L
3962 1300 L
3963 1449 L
3964 1320 L
3965 1379 L
3966 1439 L
3966 1264 L
3967 1316 L
3968 1336 L
3969 1293 L
3970 1319 L
3971 1310 L
3972 1318 L
3973 1342 L
3974 1372 L
3975 1241 L
3976 1294 L
3976 1303 L
3977 1194 L
3978 1351 L
3979 1371 L
3980 1379 L
3981 1399 L
3982 1400 L
3983 1323 L
3983 1197 L
3984 1197 L
3985 1405 L
3986 1268 L
3987 1394 L
3988 1328 L
3989 1308 L
3989 1365 L
3990 1242 L
3991 1284 L
3992 1297 L
3993 1320 L
3994 1329 L
3995 1335 L
3995 1255 L
3996 1323 L
3997 1269 L
3998 1316 L
3999 1384 L
3999 1363 L
4000 1230 L
4001 1226 L
4002 1278 L
4003 1358 L
4003 1351 L
4004 1463 L
4005 1402 L
4006 1289 L
4007 1402 L
4007 1334 L
4008 1203 L
4009 1321 L
4010 1351 L
4011 1366 L
4011 1196 L
4012 1303 L
4013 1244 L
4014 1421 L
4014 1266 L
4015 1348 L
4016 1330 L
4017 1334 L
4017 1382 L
4018 1405 L
4019 1448 L
4020 1371 L
4021 1442 L
4021 1314 L
4022 1387 L
4023 1330 L
4023 1273 L
4024 1358 L
4025 1465 L
4026 1283 L
4026 1342 L
4027 1317 L
4028 1328 L
4029 1402 L
4029 1359 L
4030 1391 L
4031 1346 L
4032 1282 L
4032 1403 L
4033 1361 L
4034 1326 L
4034 1349 L
4035 1458 L
4036 1307 L
4036 1265 L
4037 1439 L
4038 1362 L
4039 1335 L
4039 1390 L
4040 1309 L
4041 1376 L
4041 1350 L
4042 1251 L
4043 1252 L
4043 1293 L
4044 1374 L
4045 1328 L
4045 1256 L
4046 1268 L
4047 1353 L
4047 1330 L
4048 1302 L
4049 1356 L
4050 1456 L
4050 1335 L
4051 1445 L
4052 1188 L
4052 1385 L
4053 1232 L
4053 1435 L
4054 1454 L
4055 1167 L
4055 1328 L
4056 1391 L
4057 1273 L
4057 1404 L
4058 1357 L
4059 1317 L
4059 1203 L
4060 1339 L
4061 1118 L
4061 1346 L
4062 1191 L
L2 C03 COSGR

%
% Main frame
%
L10
GSN 
620 1700 M
4220 1700 L
4220 5300 L
620 5300 L
closepath SGR

%
% X axis: large tics
%
L10
GSN 1130 1700 M 0  54 rL SGR
GSN 1130 5300 M 0 -54 rL SGR
helvS (0.0001) 1130 470 xlabel
GSN 1716 1700 M 0  54 rL SGR
GSN 1716 5300 M 0 -54 rL SGR
helvS (0.001) 1716 470 xlabel
GSN 2303 1700 M 0  54 rL SGR
GSN 2303 5300 M 0 -54 rL SGR
helvS (0.01) 2303 470 xlabel
GSN 2889 1700 M 0  54 rL SGR
GSN 2889 5300 M 0 -54 rL SGR
helvS (0.1) 2889 470 xlabel
GSN 3476 1700 M 0  54 rL SGR
GSN 3476 5300 M 0 -54 rL SGR
helvS (1) 3476 470 xlabel
GSN 4062 1700 M 0  54 rL SGR
GSN 4062 5300 M 0 -54 rL SGR
helvS (10) 4062 470 xlabel
%
% X axis: small tics
%
L5
GSN 720 1700 M 0  36 rL SGR
GSN 720 5300 M 0 -36 rL SGR
GSN 824 1700 M 0  36 rL SGR
GSN 824 5300 M 0 -36 rL SGR
GSN 897 1700 M 0  36 rL SGR
GSN 897 5300 M 0 -36 rL SGR
GSN 954 1700 M 0  36 rL SGR
GSN 954 5300 M 0 -36 rL SGR
GSN 1000 1700 M 0  36 rL SGR
GSN 1000 5300 M 0 -36 rL SGR
GSN 1039 1700 M 0  36 rL SGR
GSN 1039 5300 M 0 -36 rL SGR
GSN 1073 1700 M 0  36 rL SGR
GSN 1073 5300 M 0 -36 rL SGR
GSN 1103 1700 M 0  36 rL SGR
GSN 1103 5300 M 0 -36 rL SGR
GSN 1307 1700 M 0  36 rL SGR
GSN 1307 5300 M 0 -36 rL SGR
GSN 1410 1700 M 0  36 rL SGR
GSN 1410 5300 M 0 -36 rL SGR
GSN 1483 1700 M 0  36 rL SGR
GSN 1483 5300 M 0 -36 rL SGR
GSN 1540 1700 M 0  36 rL SGR
GSN 1540 5300 M 0 -36 rL SGR
GSN 1586 1700 M 0  36 rL SGR
GSN 1586 5300 M 0 -36 rL SGR
GSN 1626 1700 M 0  36 rL SGR
GSN 1626 5300 M 0 -36 rL SGR
GSN 1660 1700 M 0  36 rL SGR
GSN 1660 5300 M 0 -36 rL SGR
GSN 1690 1700 M 0  36 rL SGR
GSN 1690 5300 M 0 -36 rL SGR
GSN 1893 1700 M 0  36 rL SGR
GSN 1893 5300 M 0 -36 rL SGR
GSN 1996 1700 M 0  36 rL SGR
GSN 1996 5300 M 0 -36 rL SGR
GSN 2069 1700 M 0  36 rL SGR
GSN 2069 5300 M 0 -36 rL SGR
GSN 2126 1700 M 0  36 rL SGR
GSN 2126 5300 M 0 -36 rL SGR
GSN 2173 1700 M 0  36 rL SGR
GSN 2173 5300 M 0 -36 rL SGR
GSN 2212 1700 M 0  36 rL SGR
GSN 2212 5300 M 0 -36 rL SGR
GSN 2246 1700 M 0  36 rL SGR
GSN 2246 5300 M 0 -36 rL SGR
GSN 2276 1700 M 0  36 rL SGR
GSN 2276 5300 M 0 -36 rL SGR
GSN 2479 1700 M 0  36 rL SGR
GSN 2479 5300 M 0 -36 rL SGR
GSN 2583 1700 M 0  36 rL SGR
GSN 2583 5300 M 0 -36 rL SGR
GSN 2656 1700 M 0  36 rL SGR
GSN 2656 5300 M 0 -36 rL SGR
GSN 2713 1700 M 0  36 rL SGR
GSN 2713 5300 M 0 -36 rL SGR
GSN 2759 1700 M 0  36 rL SGR
GSN 2759 5300 M 0 -36 rL SGR
GSN 2798 1700 M 0  36 rL SGR
GSN 2798 5300 M 0 -36 rL SGR
GSN 2832 1700 M 0  36 rL SGR
GSN 2832 5300 M 0 -36 rL SGR
GSN 2862 1700 M 0  36 rL SGR
GSN 2862 5300 M 0 -36 rL SGR
GSN 3066 1700 M 0  36 rL SGR
GSN 3066 5300 M 0 -36 rL SGR
GSN 3169 1700 M 0  36 rL SGR
GSN 3169 5300 M 0 -36 rL SGR
GSN 3242 1700 M 0  36 rL SGR
GSN 3242 5300 M 0 -36 rL SGR
GSN 3299 1700 M 0  36 rL SGR
GSN 3299 5300 M 0 -36 rL SGR
GSN 3345 1700 M 0  36 rL SGR
GSN 3345 5300 M 0 -36 rL SGR
GSN 3385 1700 M 0  36 rL SGR
GSN 3385 5300 M 0 -36 rL SGR
GSN 3419 1700 M 0  36 rL SGR
GSN 3419 5300 M 0 -36 rL SGR
GSN 3449 1700 M 0  36 rL SGR
GSN 3449 5300 M 0 -36 rL SGR
GSN 3652 1700 M 0  36 rL SGR
GSN 3652 5300 M 0 -36 rL SGR
GSN 3755 1700 M 0  36 rL SGR
GSN 3755 5300 M 0 -36 rL SGR
GSN 3829 1700 M 0  36 rL SGR
GSN 3829 5300 M 0 -36 rL SGR
GSN 3885 1700 M 0  36 rL SGR
GSN 3885 5300 M 0 -36 rL SGR
GSN 3932 1700 M 0  36 rL SGR
GSN 3932 5300 M 0 -36 rL SGR
GSN 3971 1700 M 0  36 rL SGR
GSN 3971 5300 M 0 -36 rL SGR
GSN 4005 1700 M 0  36 rL SGR
GSN 4005 5300 M 0 -36 rL SGR
GSN 4035 1700 M 0  36 rL SGR
GSN 4035 5300 M 0 -36 rL SGR
%
% Y axis: large tics
%
L10
GSN 620 2118 M 54 0 rL SGR
GSN 4220 2118 M -54 0 rL SGR
helvS (1.04) 560 2118 ylabel
GSN 620 2995 M 54 0 rL SGR
GSN 4220 2995 M -54 0 rL SGR
helvS (1.06) 560 2995 ylabel
GSN 620 3872 M 54 0 rL SGR
GSN 4220 3872 M -54 0 rL SGR
helvS (1.08) 560 3872 ylabel
GSN 620 4749 M 54 0 rL SGR
GSN 4220 4749 M -54 0 rL SGR
helvS (1.1) 560 4749 ylabel
%
% Y axis: small tics
%
L5
GSN 620 1899 M 36 0 rL SGR
GSN 4220 1899 M -36 0 rL SGR
GSN 620 2118 M 36 0 rL SGR
GSN 4220 2118 M -36 0 rL SGR
GSN 620 2337 M 36 0 rL SGR
GSN 4220 2337 M -36 0 rL SGR
GSN 620 2556 M 36 0 rL SGR
GSN 4220 2556 M -36 0 rL SGR
GSN 620 2776 M 36 0 rL SGR
GSN 4220 2776 M -36 0 rL SGR
GSN 620 2995 M 36 0 rL SGR
GSN 4220 2995 M -36 0 rL SGR
GSN 620 3214 M 36 0 rL SGR
GSN 4220 3214 M -36 0 rL SGR
GSN 620 3433 M 36 0 rL SGR
GSN 4220 3433 M -36 0 rL SGR
GSN 620 3653 M 36 0 rL SGR
GSN 4220 3653 M -36 0 rL SGR
GSN 620 3872 M 36 0 rL SGR
GSN 4220 3872 M -36 0 rL SGR
GSN 620 4091 M 36 0 rL SGR
GSN 4220 4091 M -36 0 rL SGR
GSN 620 4310 M 36 0 rL SGR
GSN 4220 4310 M -36 0 rL SGR
GSN 620 4530 M 36 0 rL SGR
GSN 4220 4530 M -36 0 rL SGR
GSN 620 4749 M 36 0 rL SGR
GSN 4220 4749 M -36 0 rL SGR
GSN 620 4968 M 36 0 rL SGR
GSN 4220 4968 M -36 0 rL SGR
GSN 620 5187 M 36 0 rL SGR
GSN 4220 5187 M -36 0 rL SGR

%
% X-Axis label:
%
gsave 2420 290 M 
[
[(Helvetica) 180 0 true true 0 (t)]
[(Helvetica) 180 0 true true 0 (i)]
[(Helvetica) 180 0 true true 0 (m)]
[(Helvetica) 180 0 true true 0 (e)]
] 0 MCshow grestore

%
% Y-Axis label:
%
gsave 234 3500 M 
currentpoint gsave translate 90 rotate 0 0 moveto
[
[(Helvetica) 180 0 true true 0 (s)]
[(Helvetica) 180 0 true true 0 (i)]
[(Helvetica) 180 0 true true 0 (g)]
[(Helvetica) 180 0 true true 0 (n)]
[(Helvetica) 180 0 true true 0 (a)]
[(Helvetica) 180 0 true true 0 (l)]
] 0 MCshow grestore

%
% Residuals:
%
gsave 129 1160 M 
currentpoint gsave translate 90 rotate 0 0 moveto
[
[(Helvetica) 150 0 true true 0 (r)]
[(Helvetica) 150 0 true true 0 (e)]
[(Helvetica) 150 0 true true 0 (s)]
[(Helvetica) 150 0 true true 0 (i)]
[(Helvetica) 150 0 true true 0 (d)]
[(Helvetica) 150 0 true true 0 (u)]
[(Helvetica) 150 0 true true 0 (a)]
[(Helvetica) 150 0 true true 0 (l)]
[(Helvetica) 150 0 true true 0 (s)]
] 0 MCshow grestore

%
% Residual frame
%
L10
GSN 
620 620 M
4220 620 L
4220 1700 L
620 1700 L
closepath SGR
%
% X axis: large tics - residual frame
%
L10
GSN 1130 620 M 0  54 rL SGR
GSN 1130 1700 M 0 -54 rL SGR
GSN 1716 620 M 0  54 rL SGR
GSN 1716 1700 M 0 -54 rL SGR
GSN 2303 620 M 0  54 rL SGR
GSN 2303 1700 M 0 -54 rL SGR
GSN 2889 620 M 0  54 rL SGR
GSN 2889 1700 M 0 -54 rL SGR
GSN 3476 620 M 0  54 rL SGR
GSN 3476 1700 M 0 -54 rL SGR
GSN 4062 620 M 0  54 rL SGR
GSN 4062 1700 M 0 -54 rL SGR
%
% X axis: small tics - residual frame
%
L5
GSN 720 620 M 0  36 rL SGR
GSN 720 1700 M 0 -36 rL SGR
GSN 824 620 M 0  36 rL SGR
GSN 824 1700 M 0 -36 rL SGR
GSN 897 620 M 0  36 rL SGR
GSN 897 1700 M 0 -36 rL SGR
GSN 954 620 M 0  36 rL SGR
GSN 954 1700 M 0 -36 rL SGR
GSN 1000 620 M 0  36 rL SGR
GSN 1000 1700 M 0 -36 rL SGR
GSN 1039 620 M 0  36 rL SGR
GSN 1039 1700 M 0 -36 rL SGR
GSN 1073 620 M 0  36 rL SGR
GSN 1073 1700 M 0 -36 rL SGR
GSN 1103 620 M 0  36 rL SGR
GSN 1103 1700 M 0 -36 rL SGR
GSN 1307 620 M 0  36 rL SGR
GSN 1307 1700 M 0 -36 rL SGR
GSN 1410 620 M 0  36 rL SGR
GSN 1410 1700 M 0 -36 rL SGR
GSN 1483 620 M 0  36 rL SGR
GSN 1483 1700 M 0 -36 rL SGR
GSN 1540 620 M 0  36 rL SGR
GSN 1540 1700 M 0 -36 rL SGR
GSN 1586 620 M 0  36 rL SGR
GSN 1586 1700 M 0 -36 rL SGR
GSN 1626 620 M 0  36 rL SGR
GSN 1626 1700 M 0 -36 rL SGR
GSN 1660 620 M 0  36 rL SGR
GSN 1660 1700 M 0 -36 rL SGR
GSN 1690 620 M 0  36 rL SGR
GSN 1690 1700 M 0 -36 rL SGR
GSN 1893 620 M 0  36 rL SGR
GSN 1893 1700 M 0 -36 rL SGR
GSN 1996 620 M 0  36 rL SGR
GSN 1996 1700 M 0 -36 rL SGR
GSN 2069 620 M 0  36 rL SGR
GSN 2069 1700 M 0 -36 rL SGR
GSN 2126 620 M 0  36 rL SGR
GSN 2126 1700 M 0 -36 rL SGR
GSN 2173 620 M 0  36 rL SGR
GSN 2173 1700 M 0 -36 rL SGR
GSN 2212 620 M 0  36 rL SGR
GSN 2212 1700 M 0 -36 rL SGR
GSN 2246 620 M 0  36 rL SGR
GSN 2246 1700 M 0 -36 rL SGR
GSN 2276 620 M 0  36 rL SGR
GSN 2276 1700 M 0 -36 rL SGR
GSN 2479 620 M 0  36 rL SGR
GSN 2479 1700 M 0 -36 rL SGR
GSN 2583 620 M 0  36 rL SGR
GSN 2583 1700 M 0 -36 rL SGR
GSN 2656 620 M 0  36 rL SGR
GSN 2656 1700 M 0 -36 rL SGR
GSN 2713 620 M 0  36 rL SGR
GSN 2713 1700 M 0 -36 rL SGR
GSN 2759 620 M 0  36 rL SGR
GSN 2759 1700 M 0 -36 rL SGR
GSN 2798 620 M 0  36 rL SGR
GSN 2798 1700 M 0 -36 rL SGR
GSN 2832 620 M 0  36 rL SGR
GSN 2832 1700 M 0 -36 rL SGR
GSN 2862 620 M 0  36 rL SGR
GSN 2862 1700 M 0 -36 rL SGR
GSN 3066 620 M 0  36 rL SGR
GSN 3066 1700 M 0 -36 rL SGR
GSN 3169 620 M 0  36 rL SGR
GSN 3169 1700 M 0 -36 rL SGR
GSN 3242 620 M 0  36 rL SGR
GSN 3242 1700 M 0 -36 rL SGR
GSN 3299 620 M 0  36 rL SGR
GSN 3299 1700 M 0 -36 rL SGR
GSN 3345 620 M 0  36 rL SGR
GSN 3345 1700 M 0 -36 rL SGR
GSN 3385 620 M 0  36 rL SGR
GSN 3385 1700 M 0 -36 rL SGR
GSN 3419 620 M 0  36 rL SGR
GSN 3419 1700 M 0 -36 rL SGR
GSN 3449 620 M 0  36 rL SGR
GSN 3449 1700 M 0 -36 rL SGR
GSN 3652 620 M 0  36 rL SGR
GSN 3652 1700 M 0 -36 rL SGR
GSN 3755 620 M 0  36 rL SGR
GSN 3755 1700 M 0 -36 rL SGR
GSN 3829 620 M 0  36 rL SGR
GSN 3829 1700 M 0 -36 rL SGR
GSN 3885 620 M 0  36 rL SGR
GSN 3885 1700 M 0 -36 rL SGR
GSN 3932 620 M 0  36 rL SGR
GSN 3932 1700 M 0 -36 rL SGR
GSN 3971 620 M 0  36 rL SGR
GSN 3971 1700 M 0 -36 rL SGR
GSN 4005 620 M 0  36 rL SGR
GSN 4005 1700 M 0 -36 rL SGR
GSN 4035 620 M 0  36 rL SGR
GSN 4035 1700 M 0 -36 rL SGR
%
% Y axis: large tics - residual frame
%
L10
GSN 620 638 M 54 0 rL SGR
GSN 4220 638 M -54 0 rL SGR
helvS (-0.02) 560 638 ylabelresid
GSN 620 877 M 54 0 rL SGR
GSN 4220 877 M -54 0 rL SGR
helvS (-0.01) 560 877 ylabelresid
GSN 620 1116 M 54 0 rL SGR
GSN 4220 1116 M -54 0 rL SGR
helvS (0) 560 1116 ylabelresid
GSN 620 1354 M 54 0 rL SGR
GSN 4220 1354 M -54 0 rL SGR
helvS (0.01) 560 1354 ylabelresid
GSN 620 1593 M 54 0 rL SGR
GSN 4220 1593 M -54 0 rL SGR
helvS (0.02) 560 1593 ylabelresid

%
% X axis - residual panel
%
GSN L5 620 1116 M 4220 1116 L SDA G50 SGR

end
showpage
%%Trailer
%%EOF
