%!PS-Adobe-3.0 EPSF-3.0
%%BoundingBox: 0 0 514 550
%%Creator: BioKin Ltd.
%%DocumentFonts: Symbol Helvetica
%%EndComments
%
/bkdict 256 dict def
bkdict begin
/M {moveto} def 
/R {rmoveto} def
/L {lineto} def
/rL {rlineto} def
/GSN {gsave newpath} def
/SGR {stroke grestore} def
/COSGR {gsave setrgbcolor stroke grestore grestore} def
/SL {setlinewidth} def
/LWMB {12} def             % line width - model curves, black & white
/LWMC {10} def             % line width - model curves, color
/L2 {2.5 setlinewidth} def
/L5 {5 setlinewidth} def
/L10 {10 setlinewidth} def
/G50 {0.5 setgray} def
/SDA {[10  20] 0 setdash} def % axes
/helvT {/Helvetica findfont 100 scalefont setfont} def % tiny
/helvS {/Helvetica findfont 125 scalefont setfont} def % small
/helvM {/Helvetica findfont 150 scalefont setfont} def % medium
/helvL {/Helvetica findfont 175 scalefont setfont} def % large
/xlabel {gsave M dup
   stringwidth exch -0.5 mul exch rmoveto show grestore} def 
/ylabel {gsave M 90 rotate dup
   stringwidth exch -0.5 mul exch rmoveto show grestore} def
/ylabelresid {gsave M dup
   stringwidth exch -1 mul exch rmoveto show grestore} def
% ======
% Shapes
% ======
% Circle:
/Circ {0 360 arc closepath} def
%
% Square:
/Squa {dup dup -0.5 mul dup dup R -2 mul 0 exch rL 1 mul 0 rL dup 0 exch -1 mul rL closepath} def
%
% Triangle Up:
/TriU {dup dup dup -0.4 mul exch -0.5 mul exch R dup 0.5 mul exch rL dup -1 mul exch 0.5 mul exch rL closepath} def 
%
% Triangle Down:
/TriD {dup dup dup 0.4 mul exch -0.5 mul exch R dup 0.5 mul exch -1 mul rL dup 0.5 mul exch rL closepath} def 
%
% Diamond:
/Diam {45 rotate Squa} def
% ======
% Fills
% ======
/GRF {gsave setgray fill grestore} def                    % gray-level Fill
/COF {gsave setrgbcolor fill grestore} def                % color fill
% ======
% Colors
% ======
/C01 {1.00	0.00	0.00} def      % Red
/C02 {0.00	0.00	1.00} def      % Blue
/C03 {0.00	0.39	0.00} def      % Dark Green
/C04 {0.78	0.08	0.52} def      % Medium Violet Red
/C05 {0.55	0.27	0.07} def      % Saddle Brown
/C06 {0.10	0.70	0.70} def      % (cyan)
/C07 {1.00	0.55	0.00} def      % Dark Orange
/C08 {0.63	0.13	0.94} def      % Purple
/C09 {0.00	0.75	1.00} def      % Deep Sky Blue
/C10 {0.20	0.80	0.20} def      % Lime Green
/C11 {0.47	0.53	0.60} def      % Light Slate Gray
/C12 {0.00	0.00	0.00} def      % Black            % or: {0.19	0.31	0.31} def      % Dark Slate Gray
%
/LGR {0.75} def % light gray
/DGR {0.33} def % dark gray
%
% =============
% Dash patterns
% =============
/dash01 { [80  20] 0 setdash } def
/dash02 { [40  20] 0 setdash } def
/dash03 { [80  20  10  20] 0 setdash } def
/dash04 { [40  20  10  20] 0 setdash } def
/dash05 { [80  20  10  10  10  20] 0 setdash } def
/dash06 { [40  20  10  10  10  20] 0 setdash } def
/dash07 { [10  10] 0 setdash } def
%
/MFshow {
   { dup 5 get 3 ge
     { 5 get 3 eq {gsave} {grestore} ifelse }
     {dup dup 0 get findfont exch 1 get scalefont setfont
     [ currentpoint ] exch dup 2 get 0 exch R dup 5 get 2 ne {dup dup 6
     get exch 4 get {show} {stringwidth pop 0 R} ifelse }if dup 5 get 0 eq
     {dup 3 get {2 get neg 0 exch R pop} {pop aload pop M} ifelse} {dup 5
     get 1 eq {dup 2 get exch dup 3 get exch 6 get stringwidth pop -2 div
     dup 0 R} {dup 6 get stringwidth pop -2 div 0 R 6 get
     show 2 index {aload pop M neg 3 -1 roll neg R pop pop} {pop pop pop
     pop aload pop M} ifelse }ifelse }ifelse }
     ifelse }
   forall} bind def
/MFwidth {0 exch {dup 3 get{dup dup 0 get findfont exch 1 get scalefont
     setfont 6 get stringwidth pop add} {pop} ifelse} forall} bind def
/MCshow { currentpoint stroke M
  exch dup MFwidth -2 div 3 -1 roll R MFshow } def
%
end
%%EndProlog
bkdict begin
0.1 0.1 scale
%
% Residuals:
%
GSN 620 2229 M
620 4182 L
620 4294 L
620 4863 L
620 4427 L
620 4575 L
620 4277 L
620 4413 L
620 4472 L
620 4459 L
620 4474 L
620 4457 L
620 4256 L
620 4336 L
620 4337 L
620 4249 L
620 4408 L
620 4026 L
620 4319 L
620 4334 L
620 4366 L
620 4263 L
620 4183 L
620 4376 L
620 4334 L
620 4265 L
620 4223 L
620 4223 L
620 4254 L
620 4149 L
620 4120 L
620 4187 L
620 4257 L
620 4238 L
620 4232 L
620 4142 L
620 4205 L
620 4107 L
620 3935 L
620 3988 L
620 4004 L
620 4290 L
620 4106 L
620 4134 L
620 4115 L
620 3962 L
620 4047 L
620 4071 L
620 3899 L
620 3873 L
620 4069 L
620 4103 L
620 4114 L
620 4234 L
620 4083 L
620 3942 L
620 4117 L
620 3801 L
620 4038 L
620 3945 L
620 3870 L
620 3990 L
620 3873 L
620 4008 L
620 3931 L
620 3934 L
620 3875 L
620 4029 L
620 3979 L
620 3937 L
620 3892 L
620 3879 L
620 3928 L
620 3991 L
620 3727 L
620 3801 L
620 3895 L
620 3834 L
620 3775 L
620 3876 L
620 3829 L
620 3884 L
620 3764 L
620 3715 L
620 3942 L
620 3691 L
620 3823 L
620 3730 L
620 3685 L
620 3788 L
620 3737 L
620 3836 L
620 3824 L
620 3872 L
620 3746 L
620 3748 L
620 3678 L
620 3797 L
620 3652 L
620 3627 L
620 3780 L
620 3749 L
620 3631 L
620 3883 L
620 3713 L
620 3806 L
620 3643 L
620 3578 L
620 3581 L
620 3665 L
620 3638 L
620 3944 L
620 3755 L
620 3807 L
620 3621 L
620 3598 L
620 3835 L
620 3656 L
620 3692 L
620 3665 L
620 3533 L
620 3507 L
620 3716 L
620 3715 L
620 3586 L
620 3576 L
620 3565 L
620 3642 L
620 3637 L
620 3766 L
620 3764 L
620 3439 L
620 3537 L
620 3529 L
620 3525 L
620 3707 L
620 3693 L
620 3706 L
620 3573 L
620 3528 L
620 3563 L
620 3551 L
620 3437 L
620 3473 L
620 3575 L
620 3550 L
620 3454 L
620 3642 L
620 3451 L
620 3409 L
620 3513 L
620 3562 L
620 3437 L
620 3429 L
620 3492 L
620 3503 L
620 3543 L
620 3368 L
620 3530 L
620 3520 L
620 3508 L
620 3667 L
620 3389 L
620 3353 L
620 3393 L
620 3567 L
620 3355 L
620 3459 L
620 3379 L
620 3466 L
620 3268 L
620 3401 L
620 3426 L
620 3536 L
620 3326 L
620 3563 L
620 3340 L
620 3176 L
620 3278 L
620 3288 L
620 3324 L
620 3315 L
620 3493 L
620 3371 L
620 3269 L
620 3324 L
620 3335 L
620 3437 L
620 3238 L
620 3297 L
620 3259 L
620 3324 L
620 3281 L
620 3232 L
620 3294 L
620 3347 L
620 3150 L
620 3204 L
620 3213 L
620 3364 L
620 3340 L
620 3202 L
620 3425 L
620 3127 L
620 3306 L
620 3123 L
620 3261 L
620 3268 L
620 3125 L
620 3248 L
620 3300 L
620 3133 L
620 3289 L
620 3325 L
620 3336 L
620 3290 L
620 3252 L
620 3266 L
620 3298 L
620 3065 L
620 3157 L
620 3150 L
620 3142 L
620 3329 L
620 3350 L
620 3235 L
620 3226 L
620 3237 L
620 2942 L
620 3127 L
620 3321 L
620 3340 L
620 3185 L
620 3166 L
620 3125 L
620 3296 L
620 3212 L
620 3332 L
620 3181 L
620 3061 L
620 3096 L
620 3181 L
620 3171 L
620 3140 L
620 3263 L
620 3137 L
620 3074 L
620 3067 L
620 3175 L
620 3108 L
620 3153 L
620 3215 L
620 3108 L
620 3196 L
620 3106 L
620 3066 L
620 3020 L
620 3109 L
620 3140 L
620 3150 L
620 3039 L
620 2940 L
620 3162 L
620 3188 L
620 3032 L
620 3122 L
620 3053 L
620 2916 L
620 3024 L
620 3138 L
620 3147 L
620 3083 L
620 3037 L
620 3230 L
620 2989 L
620 3039 L
620 3118 L
620 3018 L
620 3143 L
620 3101 L
620 2964 L
620 2912 L
620 2871 L
620 3076 L
620 2895 L
620 2974 L
620 2998 L
620 3146 L
620 3015 L
620 3091 L
620 2967 L
620 3042 L
620 3012 L
620 2961 L
620 2901 L
620 3121 L
620 2835 L
620 3027 L
620 2883 L
620 3100 L
620 2991 L
620 3083 L
620 3168 L
620 2887 L
620 2947 L
620 3096 L
620 2948 L
620 2866 L
620 2931 L
620 3063 L
620 3094 L
620 2947 L
620 3055 L
620 3010 L
620 2852 L
620 2965 L
620 3067 L
620 3021 L
620 2959 L
620 2902 L
620 2974 L
620 2992 L
620 2900 L
620 2921 L
620 3007 L
620 2878 L
620 2952 L
620 3002 L
620 2903 L
620 2867 L
620 2860 L
620 2763 L
620 3034 L
620 2765 L
620 2866 L
620 3032 L
620 2912 L
620 2878 L
620 2803 L
620 2861 L
620 2960 L
620 2901 L
620 2887 L
620 2995 L
620 2877 L
620 3036 L
620 2930 L
620 2966 L
620 2887 L
620 2921 L
620 2812 L
620 2916 L
620 3071 L
620 2802 L
620 3023 L
620 2904 L
620 2847 L
620 2822 L
620 2942 L
620 2846 L
620 2936 L
620 2943 L
620 2791 L
620 2904 L
620 3020 L
620 2954 L
620 2887 L
620 2736 L
620 2781 L
620 2866 L
620 2920 L
620 2929 L
620 2760 L
620 2812 L
620 2783 L
620 2888 L
620 2816 L
620 2730 L
620 3014 L
620 2909 L
620 2798 L
620 2796 L
620 3000 L
620 2768 L
620 2680 L
620 2796 L
620 2876 L
620 2913 L
620 2929 L
620 2775 L
620 2871 L
620 2884 L
620 2728 L
620 2832 L
620 2676 L
620 2887 L
620 2807 L
620 2723 L
620 2985 L
620 2929 L
620 2911 L
620 2864 L
620 2770 L
620 2760 L
620 2692 L
620 2735 L
620 2869 L
620 2715 L
620 2590 L
620 2735 L
620 2684 L
620 2674 L
620 2787 L
620 2649 L
620 2778 L
620 2659 L
620 2679 L
620 2699 L
620 2679 L
620 2599 L
620 2494 L
620 2674 L
620 2746 L
620 2555 L
620 2390 L
620 2657 L
620 2635 L
620 2490 L
620 2708 L
620 2600 L
620 2713 L
620 2469 L
620 2575 L
620 2525 L
620 2382 L
620 2593 L
620 2514 L
620 2759 L
620 2551 L
620 2525 L
620 2601 L
620 2721 L
620 2594 L
620 2509 L
620 2653 L
620 2555 L
620 2436 L
620 2538 L
620 2491 L
620 2456 L
620 2636 L
620 2573 L
620 2496 L
620 2516 L
620 2423 L
620 2357 L
620 2507 L
620 2545 L
620 2369 L
620 2531 L
620 2581 L
620 2479 L
620 2351 L
620 2379 L
620 2583 L
620 2459 L
620 2450 L
620 2515 L
620 2444 L
620 2459 L
620 2419 L
620 2383 L
620 2606 L
620 2515 L
620 2390 L
620 2331 L
620 2279 L
620 2502 L
620 2396 L
620 2380 L
620 2348 L
620 2435 L
620 2414 L
620 2376 L
620 2327 L
620 2417 L
620 2386 L
620 2524 L
620 2422 L
620 2423 L
620 2384 L
620 2399 L
620 2363 L
620 2333 L
620 2171 L
620 2288 L
620 2241 L
620 2342 L
620 2464 L
620 2316 L
620 2355 L
620 2399 L
620 2459 L
620 2460 L
620 2400 L
620 2391 L
620 2344 L
620 2493 L
620 2374 L
620 2373 L
620 2497 L
620 2377 L
620 2378 L
620 2357 L
620 2410 L
620 2320 L
620 2322 L
620 2480 L
620 2279 L
620 2194 L
620 2382 L
620 2214 L
620 2424 L
620 2344 L
620 2349 L
620 2457 L
620 2355 L
620 2321 L
620 2266 L
620 2351 L
620 2355 L
620 2403 L
620 2343 L
620 2373 L
620 2213 L
620 2382 L
620 2307 L
620 2423 L
620 2206 L
620 2364 L
620 2323 L
620 2183 L
620 2377 L
620 2297 L
620 2220 L
620 2370 L
620 2298 L
620 2262 L
620 2377 L
620 2313 L
620 2329 L
620 2247 L
620 2380 L
620 2367 L
620 2425 L
620 2363 L
620 2398 L
620 2206 L
620 2342 L
620 2279 L
620 2230 L
620 2387 L
620 2346 L
620 2143 L
620 2166 L
620 2172 L
620 2315 L
620 2301 L
620 2376 L
620 2276 L
620 2220 L
620 2342 L
620 2373 L
620 2237 L
620 2219 L
620 2153 L
620 2334 L
620 2312 L
620 2347 L
620 2193 L
620 2254 L
620 2328 L
620 2415 L
620 2248 L
620 2285 L
620 2171 L
620 2285 L
620 2432 L
620 2324 L
620 2281 L
620 2373 L
620 2295 L
620 2186 L
620 2476 L
620 2178 L
620 2327 L
620 2368 L
620 2151 L
620 2354 L
620 2326 L
620 2343 L
620 2406 L
620 2162 L
620 2353 L
620 2388 L
620 2291 L
620 2194 L
620 2471 L
620 2291 L
620 2261 L
620 2389 L
620 2491 L
620 2367 L
620 2240 L
620 2453 L
620 2423 L
620 2448 L
620 2225 L
620 2330 L
620 2170 L
620 2236 L
620 2310 L
620 2181 L
620 2412 L
620 2331 L
620 2310 L
620 2425 L
620 2382 L
620 2348 L
620 2215 L
620 2393 L
620 2381 L
620 2365 L
620 2377 L
620 2350 L
620 2239 L
620 2321 L
620 2344 L
620 2433 L
620 2199 L
620 2481 L
620 2299 L
620 2268 L
620 2173 L
620 2324 L
620 2317 L
620 2212 L
620 2450 L
620 2345 L
620 2310 L
620 2230 L
620 2238 L
620 2589 L
620 2266 L
620 2404 L
620 2432 L
620 2502 L
620 2243 L
620 2361 L
620 2561 L
620 2445 L
620 2383 L
620 2362 L
620 2204 L
620 2467 L
620 2433 L
620 2297 L
620 2459 L
620 2407 L
620 2365 L
620 2340 L
620 2461 L
620 2458 L
620 2422 L
620 2327 L
620 2163 L
620 2234 L
620 2551 L
620 2401 L
620 2200 L
620 2501 L
620 2266 L
620 2549 L
620 2136 L
620 2429 L
620 2358 L
620 2240 L
620 2452 L
620 2345 L
620 2556 L
620 2322 L
620 2487 L
620 2418 L
620 2368 L
620 2302 L
620 2304 L
620 2385 L
620 2404 L
620 2248 L
620 2459 L
620 2498 L
620 2553 L
620 2246 L
620 2279 L
620 2425 L
620 2381 L
620 2321 L
620 2404 L
620 2366 L
620 2464 L
620 2360 L
620 2372 L
620 2328 L
620 2379 L
620 2316 L
620 2600 L
620 2290 L
620 2401 L
620 2342 L
620 2394 L
620 2281 L
620 2459 L
620 2337 L
620 2460 L
620 2425 L
620 2261 L
620 2435 L
620 2237 L
620 2477 L
620 2481 L
620 2374 L
620 2400 L
620 2400 L
620 2348 L
620 2388 L
620 2365 L
620 2447 L
620 2345 L
620 2364 L
620 2349 L
620 2406 L
620 2511 L
620 2375 L
620 2385 L
620 2383 L
620 2344 L
620 2463 L
620 2270 L
620 2518 L
620 2296 L
620 2258 L
620 2348 L
620 2494 L
620 2266 L
620 2500 L
620 2413 L
620 2361 L
620 2542 L
620 2587 L
620 2520 L
620 2504 L
620 2566 L
620 2523 L
620 2328 L
620 2274 L
620 2415 L
620 2185 L
620 2522 L
620 2252 L
620 2422 L
620 2393 L
620 2682 L
620 2308 L
620 2485 L
620 2548 L
620 2338 L
620 2482 L
620 2358 L
620 2516 L
620 2486 L
620 2315 L
620 2444 L
620 2399 L
620 2484 L
620 2451 L
620 2540 L
620 2471 L
620 2552 L
620 2406 L
620 2369 L
620 2432 L
620 2564 L
620 2322 L
620 2437 L
620 2515 L
620 2306 L
620 2420 L
620 2331 L
620 2367 L
620 2543 L
620 2491 L
620 2418 L
620 2462 L
620 2525 L
620 2484 L
620 2357 L
620 2391 L
620 2384 L
620 2349 L
620 2307 L
620 2364 L
620 2372 L
620 2415 L
620 2334 L
620 2544 L
620 2554 L
620 2428 L
620 2524 L
620 2606 L
620 2431 L
620 2413 L
620 2536 L
620 2413 L
620 2356 L
620 2411 L
620 2413 L
620 2512 L
620 2595 L
620 2445 L
620 2457 L
620 2603 L
620 2513 L
620 2651 L
620 2422 L
620 2368 L
620 2478 L
620 2522 L
620 2435 L
620 2321 L
620 2597 L
620 2440 L
620 2510 L
620 2593 L
620 2508 L
620 2440 L
620 2533 L
620 2559 L
620 2336 L
620 2352 L
620 2462 L
620 2570 L
620 2635 L
620 2563 L
620 2530 L
620 2566 L
620 2488 L
620 2559 L
620 2429 L
620 2365 L
620 2616 L
620 2401 L
620 2414 L
620 2407 L
620 2691 L
620 2565 L
620 2481 L
620 2512 L
620 2484 L
620 2528 L
620 2508 L
620 2659 L
620 2570 L
620 2369 L
620 2553 L
620 2459 L
620 2564 L
620 2435 L
620 2259 L
620 2443 L
620 2530 L
620 2401 L
620 2509 L
620 2553 L
620 2450 L
620 2573 L
620 2629 L
620 2501 L
620 2494 L
620 2431 L
620 2595 L
620 2605 L
620 2439 L
620 2611 L
620 2522 L
620 2264 L
620 2481 L
620 2434 L
620 2546 L
620 2435 L
620 2516 L
620 2387 L
620 2511 L
620 2439 L
620 2685 L
620 2633 L
620 2616 L
620 2536 L
620 2588 L
620 2483 L
620 2513 L
620 2628 L
620 2557 L
620 2403 L
620 2509 L
620 2500 L
620 2520 L
620 2364 L
620 2757 L
620 2662 L
620 2693 L
620 2349 L
620 2738 L
620 2509 L
620 2624 L
620 2462 L
620 2618 L
620 2523 L
620 2672 L
620 2474 L
620 2504 L
620 2550 L
620 2654 L
620 2554 L
620 2540 L
620 2633 L
620 2574 L
620 2536 L
620 2675 L
620 2626 L
620 2479 L
620 2715 L
620 2426 L
620 2648 L
620 2653 L
620 2569 L
620 2533 L
620 2545 L
620 2698 L
620 2520 L
620 2480 L
620 2600 L
620 2498 L
620 2433 L
620 2723 L
620 2608 L
620 2676 L
620 2556 L
620 2526 L
620 2530 L
620 2575 L
620 2540 L
620 2510 L
620 2637 L
620 2514 L
620 2590 L
620 2590 L
620 2705 L
620 2586 L
620 2549 L
620 2623 L
620 2549 L
620 2766 L
620 2587 L
620 2681 L
620 2589 L
620 2651 L
620 2622 L
620 2667 L
620 2709 L
620 2631 L
620 2675 L
620 2667 L
620 2623 L
620 2594 L
620 2544 L
620 2592 L
620 2496 L
620 2517 L
620 2656 L
620 2581 L
620 2548 L
620 2747 L
620 2725 L
620 2531 L
620 2597 L
620 2537 L
620 2550 L
620 2699 L
620 2616 L
620 2609 L
620 2555 L
620 2598 L
620 2481 L
620 2562 L
620 2763 L
620 2633 L
620 2594 L
620 2689 L
620 2692 L
620 2576 L
620 2760 L
620 2704 L
620 2659 L
620 2818 L
620 2651 L
620 2617 L
620 2477 L
620 2707 L
620 2591 L
620 2797 L
620 2666 L
620 2505 L
620 2571 L
620 2750 L
620 2633 L
620 2457 L
620 2579 L
620 2701 L
620 2659 L
620 2798 L
620 2695 L
620 2524 L
620 2748 L
620 2749 L
620 2626 L
620 2580 L
620 2807 L
620 2647 L
620 2783 L
620 2785 L
620 2693 L
620 2598 L
620 2719 L
620 2764 L
620 2623 L
620 2633 L
620 2598 L
620 2617 L
620 2667 L
620 2787 L
620 2575 L
620 2659 L
620 2700 L
620 2765 L
620 2711 L
620 2767 L
620 2734 L
620 2737 L
620 2667 L
620 2565 L
620 2751 L
620 2590 L
620 2601 L
620 2563 L
620 2717 L
620 2596 L
620 2709 L
620 2726 L
620 2582 L
620 2730 L
620 2659 L
620 2693 L
620 2724 L
620 2764 L
620 2752 L
620 2716 L
620 2706 L
620 2838 L
620 2719 L
620 2647 L
620 2769 L
620 2807 L
620 2697 L
620 2559 L
620 2676 L
620 2602 L
620 2525 L
620 2637 L
620 2567 L
620 2723 L
620 2743 L
620 2617 L
620 2598 L
620 2749 L
620 2571 L
620 2795 L
620 2687 L
620 2637 L
620 2691 L
620 2758 L
620 2709 L
620 2707 L
620 2562 L
620 2752 L
620 2649 L
620 2679 L
620 2706 L
620 2820 L
620 2618 L
620 2617 L
620 2557 L
620 2753 L
620 2623 L
620 2603 L
620 2659 L
620 2721 L
620 2718 L
620 2762 L
620 2612 L
620 2657 L
620 2568 L
620 2620 L
620 2669 L
620 2663 L
620 2736 L
620 2681 L
620 2766 L
620 2802 L
620 2733 L
620 2814 L
620 2728 L
620 2705 L
620 2563 L
620 2555 L
620 2744 L
620 2720 L
620 2611 L
620 2661 L
620 2681 L
620 2684 L
620 2772 L
620 2811 L
620 2880 L
620 2888 L
620 2779 L
620 2750 L
620 2702 L
620 2696 L
620 2816 L
620 2861 L
620 2628 L
620 2787 L
620 2794 L
620 2842 L
620 2727 L
620 2875 L
620 2709 L
620 2744 L
620 2808 L
620 2790 L
620 2669 L
620 2792 L
620 2760 L
620 2761 L
620 2699 L
620 2653 L
620 2752 L
620 2738 L
620 2704 L
620 2660 L
620 2850 L
620 2597 L
620 2758 L
620 2865 L
620 2771 L
620 2734 L
620 2824 L
620 2767 L
620 2668 L
620 2703 L
620 2716 L
620 2821 L
620 2723 L
620 2771 L
620 2639 L
620 2752 L
620 2702 L
620 2717 L
620 2584 L
620 2798 L
620 2585 L
620 2784 L
620 2630 L
620 2714 L
620 2832 L
620 2642 L
620 2588 L
620 2906 L
620 2889 L
620 2685 L
620 2877 L
620 2778 L
620 2680 L
620 2846 L
620 2676 L
620 2830 L
620 2832 L
620 2692 L
620 2763 L
620 2800 L
620 2787 L
620 2819 L
620 2810 L
620 2879 L
620 2645 L
620 2895 L
620 2819 L
620 2801 L
620 2730 L
620 2631 L
620 2707 L
620 2612 L
620 2563 L
620 2781 L
620 2925 L
620 2654 L
620 2685 L
620 2756 L
620 2858 L
620 2837 L
620 2694 L
620 2792 L
620 2722 L
620 2773 L
620 2809 L
620 2887 L
620 2770 L
620 2821 L
620 2737 L
620 2690 L
620 2799 L
620 2784 L
620 2689 L
620 2835 L
620 2789 L
620 2692 L
620 2918 L
620 2878 L
620 2798 L
620 2731 L
620 2740 L
620 2856 L
620 2519 L
620 2749 L
620 2763 L
620 2845 L
620 2817 L
620 2626 L
620 2669 L
620 2617 L
620 2782 L
620 2867 L
620 2771 L
620 2702 L
620 2643 L
620 2785 L
620 2867 L
620 2858 L
620 2801 L
620 2819 L
620 2640 L
620 2798 L
620 2753 L
620 2907 L
620 2813 L
620 2847 L
620 2800 L
620 2691 L
620 2672 L
620 2784 L
620 2922 L
620 2826 L
620 2685 L
620 2685 L
620 2698 L
620 2768 L
620 2672 L
620 2798 L
620 2577 L
620 2841 L
620 2748 L
620 2765 L
620 2907 L
620 2886 L
620 2799 L
620 2783 L
620 2973 L
620 2897 L
620 2872 L
620 2877 L
620 2823 L
620 2807 L
620 2943 L
620 2715 L
620 2800 L
620 2783 L
620 2788 L
620 2779 L
620 2810 L
620 2817 L
620 2798 L
620 2800 L
620 2673 L
620 2691 L
620 2869 L
620 2827 L
620 2787 L
620 2814 L
620 2797 L
620 2755 L
620 2670 L
620 2809 L
620 2916 L
620 2751 L
620 2805 L
620 2889 L
620 2802 L
620 2687 L
620 2693 L
620 2908 L
620 2831 L
620 2771 L
620 2828 L
620 2802 L
620 2777 L
620 2793 L
620 2646 L
620 2785 L
620 2821 L
620 3048 L
620 2834 L
620 2820 L
620 2812 L
620 2709 L
620 2701 L
620 2906 L
620 2849 L
620 2929 L
620 2779 L
620 2845 L
620 2643 L
620 2880 L
620 2932 L
620 2857 L
620 2579 L
620 2744 L
620 2973 L
620 2829 L
620 2885 L
620 2801 L
620 2805 L
620 2805 L
620 2669 L
620 2844 L
620 2816 L
620 2912 L
620 2694 L
620 2768 L
620 2783 L
620 2783 L
620 2774 L
620 2896 L
620 2864 L
620 2907 L
620 2767 L
620 2845 L
620 2806 L
620 2709 L
620 2871 L
620 2759 L
620 2798 L
620 2737 L
620 2773 L
620 2690 L
620 2825 L
620 2844 L
620 2868 L
620 2945 L
620 2892 L
620 2741 L
620 2847 L
620 2861 L
620 2879 L
620 2744 L
620 2822 L
620 2624 L
620 2828 L
620 2848 L
620 2737 L
620 2825 L
620 2955 L
620 2595 L
620 2840 L
620 2698 L
620 2854 L
620 2857 L
620 3021 L
620 2764 L
620 2905 L
620 2893 L
620 3007 L
620 2971 L
620 2954 L
620 2938 L
620 3019 L
620 2867 L
620 2980 L
620 2951 L
620 2915 L
620 2878 L
620 2839 L
620 2842 L
620 3087 L
620 2967 L
620 3030 L
620 3039 L
620 2773 L
620 2893 L
620 2966 L
620 3002 L
620 3030 L
620 2916 L
620 2970 L
620 3038 L
620 2912 L
620 2944 L
620 3019 L
620 2958 L
620 2883 L
620 2994 L
620 2904 L
620 3178 L
620 3030 L
620 2881 L
620 3028 L
620 3085 L
620 2955 L
620 3025 L
620 2872 L
620 2965 L
620 2970 L
620 3105 L
620 2881 L
620 2881 L
620 3186 L
620 3022 L
620 3078 L
620 3089 L
620 3022 L
620 2919 L
620 2857 L
620 3180 L
620 2825 L
620 2951 L
620 3019 L
620 2989 L
620 2888 L
620 3155 L
620 2891 L
620 2924 L
620 2942 L
620 3037 L
620 3098 L
620 2923 L
620 2940 L
620 2992 L
620 2919 L
620 2956 L
620 3079 L
620 2933 L
620 2967 L
620 2924 L
620 2991 L
620 2891 L
620 2907 L
620 3029 L
620 3086 L
620 2977 L
620 2930 L
620 3006 L
620 2971 L
620 2960 L
620 3023 L
620 2982 L
620 2981 L
620 2910 L
620 2972 L
620 2928 L
620 2865 L
620 3023 L
620 3026 L
620 2994 L
620 2938 L
620 2885 L
620 3028 L
620 2956 L
620 3002 L
620 2995 L
620 2959 L
620 2997 L
620 2965 L
620 2758 L
620 2945 L
620 3040 L
620 3070 L
620 2990 L
620 2936 L
620 3015 L
620 3004 L
620 2972 L
620 3028 L
620 3052 L
620 3173 L
620 3029 L
620 3101 L
620 2954 L
620 3045 L
620 3040 L
620 3050 L
620 3017 L
620 2881 L
620 2891 L
620 3023 L
620 2854 L
620 2978 L
620 3039 L
620 2984 L
620 2977 L
620 3170 L
620 2837 L
620 2932 L
620 2900 L
620 2895 L
620 2961 L
620 2946 L
620 3095 L
620 3020 L
620 2965 L
620 3002 L
620 3104 L
620 3198 L
620 2898 L
620 3022 L
620 3001 L
620 2918 L
620 3028 L
620 2960 L
620 3001 L
620 2923 L
620 2889 L
620 2955 L
620 2925 L
620 2994 L
620 3112 L
620 3025 L
620 2890 L
620 3060 L
620 2666 L
620 2858 L
620 2921 L
620 3069 L
620 2958 L
620 2807 L
620 2904 L
620 2925 L
620 2998 L
620 3083 L
620 2898 L
620 3152 L
620 2989 L
620 2864 L
620 2882 L
620 3010 L
620 3081 L
620 2972 L
620 2923 L
620 3012 L
620 2891 L
620 2974 L
620 3031 L
620 2960 L
620 2996 L
620 3022 L
620 3056 L
620 2839 L
620 3079 L
620 3098 L
620 2978 L
620 2815 L
620 3088 L
620 3115 L
620 2929 L
620 2908 L
620 3123 L
620 3018 L
620 2869 L
620 2896 L
620 2899 L
620 3008 L
620 2790 L
620 2859 L
620 2935 L
620 2836 L
620 2808 L
620 2941 L
620 2895 L
620 2730 L
620 2904 L
620 2899 L
620 2831 L
620 2993 L
620 2829 L
620 2898 L
620 2941 L
620 2917 L
620 2920 L
620 3010 L
620 2810 L
620 2949 L
620 2854 L
620 3017 L
620 2884 L
620 2867 L
620 3069 L
620 2752 L
620 2980 L
620 2789 L
620 2989 L
620 2818 L
620 2877 L
620 2904 L
620 3064 L
620 2854 L
620 2923 L
620 2973 L
620 2911 L
620 2834 L
620 3057 L
620 2866 L
620 2906 L
620 2896 L
620 2945 L
620 3017 L
620 2979 L
620 2925 L
620 2902 L
620 2912 L
620 2943 L
620 2791 L
620 2942 L
620 2908 L
620 3017 L
620 2810 L
620 2824 L
620 2957 L
620 2807 L
620 2815 L
620 2889 L
620 2862 L
620 2833 L
620 2855 L
620 2905 L
620 2808 L
620 2965 L
620 2891 L
620 3098 L
620 2915 L
620 2773 L
620 3086 L
620 2896 L
620 2855 L
620 2856 L
620 2960 L
620 2790 L
620 2984 L
620 2908 L
620 2864 L
620 2828 L
620 2975 L
620 2995 L
620 2776 L
620 2746 L
620 2899 L
620 2814 L
620 3002 L
620 2791 L
620 2842 L
620 2885 L
620 2834 L
620 2881 L
620 2890 L
620 2966 L
620 2882 L
620 2807 L
620 2950 L
620 2833 L
620 2857 L
620 2797 L
620 2862 L
620 2928 L
620 2855 L
620 2848 L
620 2974 L
620 3110 L
620 2888 L
620 2815 L
620 2956 L
620 2684 L
620 2856 L
620 2903 L
620 2889 L
620 2931 L
620 2748 L
620 2885 L
620 2842 L
620 2958 L
620 2920 L
620 2812 L
620 2815 L
620 2940 L
620 2783 L
620 2925 L
620 2929 L
620 2862 L
620 2768 L
620 3060 L
620 2821 L
620 2853 L
620 2870 L
620 3014 L
620 2816 L
620 2880 L
620 2828 L
620 2917 L
620 2967 L
620 2843 L
620 2621 L
620 2893 L
620 2925 L
620 2876 L
620 2921 L
620 2818 L
620 2985 L
620 2870 L
620 2717 L
620 2768 L
620 2903 L
L2 C06 COSGR

%
%================
% Legend - Begin
%================
%
GSN 4240 5180 M
4480 5180 L
LWMC SL  C06 COSGR
GSN 4540 5141 M helvM (3.0 uM) show grestore
%
%================
% Legend - End
%================
%

%
% Main frame
%
L10
GSN 
620 1700 M
4220 1700 L
4220 5300 L
620 5300 L
closepath SGR

%
% X axis: large tics
%
L10
%
% X axis: small tics
%
L5
%
% Y axis: large tics
%
L10
GSN 620 2042 M 54 0 rL SGR
GSN 4220 2042 M -54 0 rL SGR
helvS (-0.025) 560 2042 ylabel
GSN 620 2829 M 54 0 rL SGR
GSN 4220 2829 M -54 0 rL SGR
helvS (0) 560 2829 ylabel
GSN 620 3616 M 54 0 rL SGR
GSN 4220 3616 M -54 0 rL SGR
helvS (0.025) 560 3616 ylabel
GSN 620 4402 M 54 0 rL SGR
GSN 4220 4402 M -54 0 rL SGR
helvS (0.05) 560 4402 ylabel
GSN 620 5189 M 54 0 rL SGR
GSN 4220 5189 M -54 0 rL SGR
helvS (0.075) 560 5189 ylabel
%
% Y axis: small tics
%
L5
GSN 620 1885 M 36 0 rL SGR
GSN 4220 1885 M -36 0 rL SGR
GSN 620 2278 M 36 0 rL SGR
GSN 4220 2278 M -36 0 rL SGR
GSN 620 2672 M 36 0 rL SGR
GSN 4220 2672 M -36 0 rL SGR
GSN 620 3065 M 36 0 rL SGR
GSN 4220 3065 M -36 0 rL SGR
GSN 620 3458 M 36 0 rL SGR
GSN 4220 3458 M -36 0 rL SGR
GSN 620 3852 M 36 0 rL SGR
GSN 4220 3852 M -36 0 rL SGR
GSN 620 4245 M 36 0 rL SGR
GSN 4220 4245 M -36 0 rL SGR
GSN 620 4638 M 36 0 rL SGR
GSN 4220 4638 M -36 0 rL SGR
GSN 620 5032 M 36 0 rL SGR
GSN 4220 5032 M -36 0 rL SGR

%
% X axis - residual panel
%
GSN L5 620 2829 M 4220 2829 L SDA G50 SGR

%
% X-Axis label:
%
gsave 620 1370 M 
[
[(Helvetica) 180 0 true true 0 (t)]
[(Helvetica) 180 0 true true 0 (i)]
[(Helvetica) 180 0 true true 0 (m)]
[(Helvetica) 180 0 true true 0 (e)]
] 0 MCshow grestore

%
% Y-Axis label:
%
gsave 234 3500 M 
currentpoint gsave translate 90 rotate 0 0 moveto
[
[(Helvetica) 180 0 true true 0 (r)]
[(Helvetica) 180 0 true true 0 (e)]
[(Helvetica) 180 0 true true 0 (s)]
[(Helvetica) 180 0 true true 0 (i)]
[(Helvetica) 180 0 true true 0 (d)]
[(Helvetica) 180 0 true true 0 (u)]
[(Helvetica) 180 0 true true 0 (a)]
[(Helvetica) 180 0 true true 0 (l)]
[(Helvetica) 180 0 true true 0 (s)]
] 0 MCshow grestore

end
showpage
%%Trailer
%%EOF
