%!PS-Adobe-3.0 EPSF-3.0
%%BoundingBox: 0 0 514 442
%%Creator: BioKin Ltd.
%%DocumentFonts: Symbol Helvetica
%%EndComments
%
/bkdict 256 dict def
bkdict begin
/M {moveto} def 
/R {rmoveto} def
/L {lineto} def
/rL {rlineto} def
/GSN {gsave newpath} def
/SGR {stroke grestore} def
/COSGR {gsave setrgbcolor stroke grestore grestore} def
/SL {setlinewidth} def
/LWMB {12} def             % line width - model curves, black & white
/LWMC {10} def             % line width - model curves, color
/L2 {2.5 setlinewidth} def
/L5 {5 setlinewidth} def
/L10 {10 setlinewidth} def
/G50 {0.5 setgray} def
/SDA {[10  20] 0 setdash} def % axes
/helvT {/Helvetica findfont 100 scalefont setfont} def % tiny
/helvS {/Helvetica findfont 125 scalefont setfont} def % small
/helvM {/Helvetica findfont 150 scalefont setfont} def % medium
/helvL {/Helvetica findfont 175 scalefont setfont} def % large
/xlabel {gsave M dup
   stringwidth exch -0.5 mul exch rmoveto show grestore} def 
/ylabel {gsave M 90 rotate dup
   stringwidth exch -0.5 mul exch rmoveto show grestore} def
/ylabelresid {gsave M dup
   stringwidth exch -1 mul exch rmoveto show grestore} def
% ======
% Shapes
% ======
% Circle:
/Circ {0 360 arc closepath} def
%
% Square:
/Squa {dup dup -0.5 mul dup dup R -2 mul 0 exch rL 1 mul 0 rL dup 0 exch -1 mul rL closepath} def
%
% Triangle Up:
/TriU {dup dup dup -0.4 mul exch -0.5 mul exch R dup 0.5 mul exch rL dup -1 mul exch 0.5 mul exch rL closepath} def 
%
% Triangle Down:
/TriD {dup dup dup 0.4 mul exch -0.5 mul exch R dup 0.5 mul exch -1 mul rL dup 0.5 mul exch rL closepath} def 
%
% Diamond:
/Diam {45 rotate Squa} def
% ======
% Fills
% ======
/GRF {gsave setgray fill grestore} def                    % gray-level Fill
/COF {gsave setrgbcolor fill grestore} def                % color fill
% ======
% Colors
% ======
/C01 {1.00	0.00	0.00} def      % Red
/C02 {0.00	0.00	1.00} def      % Blue
/C03 {0.00	0.39	0.00} def      % Dark Green
/C04 {0.78	0.08	0.52} def      % Medium Violet Red
/C05 {0.55	0.27	0.07} def      % Saddle Brown
/C06 {0.10	0.70	0.70} def      % (cyan)
/C07 {1.00	0.55	0.00} def      % Dark Orange
/C08 {0.63	0.13	0.94} def      % Purple
/C09 {0.00	0.75	1.00} def      % Deep Sky Blue
/C10 {0.20	0.80	0.20} def      % Lime Green
/C11 {0.47	0.53	0.60} def      % Light Slate Gray
/C12 {0.00	0.00	0.00} def      % Black            % or: {0.19	0.31	0.31} def      % Dark Slate Gray
%
/LGR {0.75} def % light gray
/DGR {0.33} def % dark gray
%
% =============
% Dash patterns
% =============
/dash01 { [80  20] 0 setdash } def
/dash02 { [40  20] 0 setdash } def
/dash03 { [80  20  10  20] 0 setdash } def
/dash04 { [40  20  10  20] 0 setdash } def
/dash05 { [80  20  10  10  10  20] 0 setdash } def
/dash06 { [40  20  10  10  10  20] 0 setdash } def
/dash07 { [10  10] 0 setdash } def
%
/MFshow {
   { dup 5 get 3 ge
     { 5 get 3 eq {gsave} {grestore} ifelse }
     {dup dup 0 get findfont exch 1 get scalefont setfont
     [ currentpoint ] exch dup 2 get 0 exch R dup 5 get 2 ne {dup dup 6
     get exch 4 get {show} {stringwidth pop 0 R} ifelse }if dup 5 get 0 eq
     {dup 3 get {2 get neg 0 exch R pop} {pop aload pop M} ifelse} {dup 5
     get 1 eq {dup 2 get exch dup 3 get exch 6 get stringwidth pop -2 div
     dup 0 R} {dup 6 get stringwidth pop -2 div 0 R 6 get
     show 2 index {aload pop M neg 3 -1 roll neg R pop pop} {pop pop pop
     pop aload pop M} ifelse }ifelse }ifelse }
     ifelse }
   forall} bind def
/MFwidth {0 exch {dup 3 get{dup dup 0 get findfont exch 1 get scalefont
     setfont 6 get stringwidth pop add} {pop} ifelse} forall} bind def
/MCshow { currentpoint stroke M
  exch dup MFwidth -2 div 3 -1 roll R MFshow } def
%
end
%%EndProlog
bkdict begin
0.1 0.1 scale
%
% Model curves:
%

GSN 753 3574 M
770 3574 L
803 3574 L
837 3574 L
870 3574 L
903 3574 L
924 3574 L
941 3574 L
970 3574 L
1003 3574 L
1037 3574 L
1070 3574 L
1096 3574 L
1113 3574 L
1137 3574 L
1170 3574 L
1203 3574 L
1237 3574 L
1268 3574 L
1284 3574 L
1303 3574 L
1337 3574 L
1370 3574 L
1403 3575 L
1437 3575 L
1456 3575 L
1473 3575 L
1503 3575 L
1537 3575 L
1570 3576 L
1603 3576 L
1628 3576 L
1644 3576 L
1670 3577 L
1703 3577 L
1737 3578 L
1770 3578 L
1799 3579 L
1816 3579 L
1837 3580 L
1870 3580 L
1903 3581 L
1937 3582 L
1970 3584 L
1987 3585 L
2004 3585 L
2037 3587 L
2070 3588 L
2103 3590 L
2137 3593 L
2159 3595 L
2176 3596 L
2203 3598 L
2237 3602 L
2270 3605 L
2303 3609 L
2331 3614 L
2347 3618 L
2370 3620 L
2403 3625 L
2437 3632 L
2470 3640 L
2503 3648 L
2519 3656 L
2537 3657 L
2570 3667 L
2603 3678 L
2637 3690 L
2670 3703 L
2690 3717 L
2707 3721 L
2737 3732 L
2770 3748 L
2803 3765 L
2837 3783 L
2862 3802 L
2879 3812 L
2903 3821 L
2937 3841 L
2970 3860 L
3003 3880 L
3034 3899 L
3050 3915 L
3070 3918 L
3103 3936 L
3137 3952 L
3170 3968 L
3203 3982 L
3222 3994 L
3239 3996 L
3270 4005 L
3303 4014 L
3337 4021 L
3370 4027 L
3393 4031 L
3410 4033 L
3437 4034 L
3464 4036 L
3481 4036 L
3503 4037 L
3537 4036 L
3565 4036 L
3582 4035 L
3603 4035 L
3637 4033 L
3670 4032 L
3703 4031 L
3737 4030 L
3753 4029 L
3770 4029 L
3803 4029 L
3837 4028 L
3870 4028 L
3903 4028 L
3925 4028 L
3942 4028 L
3970 4028 L
4003 4028 L
4037 4028 L
4070 4028 L
4086 4028 L
LWMC SL dash01 C01 COSGR

GSN 753 3100 M
770 3100 L
803 3101 L
837 3101 L
870 3101 L
903 3101 L
924 3101 L
941 3101 L
970 3101 L
1003 3101 L
1037 3101 L
1070 3101 L
1096 3101 L
1113 3101 L
1137 3101 L
1170 3101 L
1203 3102 L
1237 3102 L
1268 3102 L
1284 3102 L
1303 3102 L
1337 3103 L
1370 3103 L
1403 3103 L
1437 3104 L
1456 3104 L
1473 3104 L
1503 3105 L
1537 3105 L
1570 3106 L
1603 3107 L
1628 3108 L
1644 3108 L
1670 3109 L
1703 3110 L
1737 3111 L
1770 3113 L
1799 3115 L
1816 3116 L
1837 3117 L
1870 3119 L
1903 3122 L
1937 3125 L
1970 3128 L
1987 3132 L
2004 3132 L
2037 3136 L
2070 3141 L
2103 3147 L
2137 3153 L
2159 3160 L
2176 3163 L
2203 3168 L
2237 3177 L
2270 3187 L
2303 3198 L
2331 3210 L
2347 3219 L
2370 3224 L
2403 3240 L
2437 3257 L
2470 3276 L
2503 3297 L
2519 3318 L
2537 3319 L
2570 3344 L
2603 3371 L
2637 3400 L
2670 3431 L
2690 3464 L
2707 3472 L
2737 3498 L
2770 3534 L
2803 3572 L
2837 3610 L
2862 3649 L
2879 3670 L
2903 3687 L
2937 3726 L
2970 3763 L
3003 3800 L
3034 3834 L
3050 3861 L
3070 3866 L
3103 3896 L
3137 3923 L
3170 3947 L
3203 3968 L
3222 3986 L
3239 3988 L
3270 4001 L
3303 4014 L
3337 4023 L
3370 4030 L
3393 4035 L
3410 4037 L
3437 4038 L
3464 4040 L
3481 4040 L
3503 4040 L
3537 4039 L
3565 4038 L
3582 4037 L
3603 4036 L
3637 4035 L
3670 4033 L
3703 4031 L
3737 4030 L
3753 4029 L
3770 4029 L
3803 4029 L
3837 4028 L
3870 4028 L
3903 4028 L
3925 4028 L
3942 4028 L
3970 4028 L
4003 4028 L
4037 4028 L
4070 4028 L
4086 4028 L
LWMC SL dash02 C02 COSGR

GSN 753 2617 M
770 2617 L
803 2617 L
837 2617 L
870 2617 L
903 2617 L
924 2617 L
941 2617 L
970 2617 L
1003 2617 L
1037 2617 L
1070 2618 L
1096 2618 L
1113 2618 L
1137 2618 L
1170 2618 L
1203 2619 L
1237 2619 L
1268 2619 L
1284 2620 L
1303 2620 L
1337 2621 L
1370 2621 L
1403 2622 L
1437 2623 L
1456 2624 L
1473 2624 L
1503 2625 L
1537 2626 L
1570 2627 L
1603 2629 L
1628 2631 L
1644 2632 L
1670 2633 L
1703 2635 L
1737 2638 L
1770 2641 L
1799 2644 L
1816 2647 L
1837 2648 L
1870 2652 L
1903 2657 L
1937 2663 L
1970 2669 L
1987 2676 L
2004 2677 L
2037 2684 L
2070 2694 L
2103 2704 L
2137 2716 L
2159 2729 L
2176 2734 L
2203 2744 L
2237 2760 L
2270 2779 L
2303 2799 L
2331 2822 L
2347 2839 L
2370 2848 L
2403 2876 L
2437 2907 L
2470 2941 L
2503 2978 L
2519 3017 L
2537 3019 L
2570 3062 L
2603 3108 L
2637 3158 L
2670 3210 L
2690 3265 L
2707 3279 L
2737 3321 L
2770 3380 L
2803 3439 L
2837 3498 L
2862 3557 L
2879 3589 L
2903 3615 L
2937 3671 L
2970 3725 L
3003 3775 L
3034 3822 L
3050 3858 L
3070 3865 L
3103 3903 L
3137 3937 L
3170 3966 L
3203 3991 L
3222 4011 L
3239 4013 L
3270 4027 L
3303 4039 L
3337 4048 L
3370 4053 L
3393 4055 L
3410 4056 L
3437 4056 L
3464 4054 L
3481 4052 L
3503 4051 L
3537 4048 L
3565 4044 L
3582 4041 L
3603 4040 L
3637 4037 L
3670 4034 L
3703 4032 L
3737 4030 L
3753 4029 L
3770 4029 L
3803 4029 L
3837 4028 L
3870 4028 L
3903 4028 L
3925 4028 L
3942 4028 L
3970 4028 L
4003 4028 L
4037 4028 L
4070 4028 L
4086 4028 L
LWMC SL dash03 C03 COSGR

GSN 753 2150 M
770 2150 L
803 2150 L
837 2150 L
870 2150 L
903 2150 L
924 2151 L
941 2151 L
970 2151 L
1003 2151 L
1037 2151 L
1070 2152 L
1096 2152 L
1113 2152 L
1137 2152 L
1170 2153 L
1203 2153 L
1237 2154 L
1268 2155 L
1284 2155 L
1303 2155 L
1337 2156 L
1370 2157 L
1403 2158 L
1437 2160 L
1456 2161 L
1473 2161 L
1503 2163 L
1537 2165 L
1570 2167 L
1603 2169 L
1628 2172 L
1644 2174 L
1670 2175 L
1703 2179 L
1737 2183 L
1770 2188 L
1799 2193 L
1816 2198 L
1837 2199 L
1870 2206 L
1903 2214 L
1937 2223 L
1970 2233 L
1987 2244 L
2004 2245 L
2037 2257 L
2070 2271 L
2103 2288 L
2137 2306 L
2159 2326 L
2176 2335 L
2203 2349 L
2237 2375 L
2270 2404 L
2303 2436 L
2331 2471 L
2347 2496 L
2370 2510 L
2403 2553 L
2437 2600 L
2470 2651 L
2503 2706 L
2519 2763 L
2537 2766 L
2570 2830 L
2603 2897 L
2637 2969 L
2670 3043 L
2690 3120 L
2707 3140 L
2737 3199 L
2770 3279 L
2803 3359 L
2837 3438 L
2862 3515 L
2879 3556 L
2903 3590 L
2937 3661 L
2970 3727 L
3003 3788 L
3034 3843 L
3050 3885 L
3070 3892 L
3103 3935 L
3137 3971 L
3170 4001 L
3203 4025 L
3222 4042 L
3239 4044 L
3270 4055 L
3303 4063 L
3337 4067 L
3370 4067 L
3393 4066 L
3410 4064 L
3437 4062 L
3464 4058 L
3481 4054 L
3503 4053 L
3537 4048 L
3565 4043 L
3582 4040 L
3603 4039 L
3637 4036 L
3670 4033 L
3703 4032 L
3737 4030 L
3753 4029 L
3770 4029 L
3803 4029 L
3837 4028 L
3870 4028 L
3903 4028 L
3925 4028 L
3942 4028 L
3970 4028 L
4003 4028 L
4037 4028 L
4070 4028 L
4086 4028 L
LWMC SL dash04 C04 COSGR

GSN 753 1914 M
770 1914 L
803 1914 L
837 1915 L
870 1915 L
903 1915 L
924 1915 L
941 1915 L
970 1915 L
1003 1916 L
1037 1916 L
1070 1916 L
1096 1917 L
1113 1917 L
1137 1917 L
1170 1918 L
1203 1919 L
1237 1919 L
1268 1920 L
1284 1921 L
1303 1921 L
1337 1922 L
1370 1923 L
1403 1925 L
1437 1926 L
1456 1928 L
1473 1928 L
1503 1930 L
1537 1932 L
1570 1935 L
1603 1938 L
1628 1942 L
1644 1943 L
1670 1945 L
1703 1950 L
1737 1955 L
1770 1961 L
1799 1967 L
1816 1973 L
1837 1974 L
1870 1983 L
1903 1992 L
1937 2003 L
1970 2015 L
1987 2029 L
2004 2030 L
2037 2044 L
2070 2062 L
2103 2081 L
2137 2103 L
2159 2128 L
2176 2138 L
2203 2156 L
2237 2187 L
2270 2221 L
2303 2259 L
2331 2302 L
2347 2332 L
2370 2348 L
2403 2399 L
2437 2455 L
2470 2516 L
2503 2581 L
2519 2648 L
2537 2651 L
2570 2726 L
2603 2805 L
2637 2888 L
2670 2974 L
2690 3062 L
2707 3085 L
2737 3153 L
2770 3243 L
2803 3334 L
2837 3422 L
2862 3508 L
2879 3553 L
2903 3590 L
2937 3667 L
2970 3738 L
3003 3803 L
3034 3861 L
3050 3904 L
3070 3912 L
3103 3955 L
3137 3990 L
3170 4019 L
3203 4040 L
3222 4056 L
3239 4057 L
3270 4065 L
3303 4071 L
3337 4072 L
3370 4070 L
3393 4067 L
3410 4065 L
3437 4062 L
3464 4057 L
3481 4054 L
3503 4052 L
3537 4047 L
3565 4043 L
3582 4040 L
3603 4039 L
3637 4036 L
3670 4033 L
3703 4031 L
3737 4030 L
3753 4029 L
3770 4029 L
3803 4029 L
3837 4028 L
3870 4028 L
3903 4028 L
3925 4028 L
3942 4028 L
3970 4028 L
4003 4028 L
4037 4028 L
4070 4028 L
4086 4028 L
LWMC SL dash05 C05 COSGR

GSN 753 1636 M
770 1636 L
803 1636 L
837 1636 L
870 1636 L
903 1636 L
924 1637 L
941 1637 L
970 1637 L
1003 1637 L
1037 1638 L
1070 1638 L
1096 1639 L
1113 1639 L
1137 1639 L
1170 1640 L
1203 1641 L
1237 1642 L
1268 1643 L
1284 1644 L
1303 1644 L
1337 1645 L
1370 1647 L
1403 1648 L
1437 1650 L
1456 1653 L
1473 1653 L
1503 1655 L
1537 1658 L
1570 1661 L
1603 1665 L
1628 1669 L
1644 1671 L
1670 1674 L
1703 1679 L
1737 1685 L
1770 1692 L
1799 1700 L
1816 1707 L
1837 1709 L
1870 1720 L
1903 1731 L
1937 1744 L
1970 1759 L
1987 1776 L
2004 1777 L
2037 1795 L
2070 1816 L
2103 1840 L
2137 1867 L
2159 1897 L
2176 1909 L
2203 1931 L
2237 1968 L
2270 2010 L
2303 2056 L
2331 2107 L
2347 2144 L
2370 2163 L
2403 2225 L
2437 2292 L
2470 2364 L
2503 2442 L
2519 2521 L
2537 2525 L
2570 2613 L
2603 2706 L
2637 2803 L
2670 2903 L
2690 3005 L
2707 3030 L
2737 3108 L
2770 3211 L
2803 3313 L
2837 3412 L
2862 3507 L
2879 3557 L
2903 3597 L
2937 3680 L
2970 3757 L
3003 3825 L
3034 3885 L
3050 3928 L
3070 3936 L
3103 3978 L
3137 4012 L
3170 4037 L
3203 4056 L
3222 4068 L
3239 4069 L
3270 4074 L
3303 4076 L
3337 4075 L
3370 4072 L
3393 4067 L
3410 4065 L
3437 4062 L
3464 4057 L
3481 4053 L
3503 4052 L
3537 4047 L
3565 4042 L
3582 4040 L
3603 4039 L
3637 4036 L
3670 4033 L
3703 4031 L
3737 4030 L
3753 4029 L
3770 4029 L
3803 4029 L
3837 4028 L
3870 4028 L
3903 4028 L
3925 4028 L
3942 4028 L
3970 4028 L
4003 4028 L
4037 4028 L
4070 4028 L
4086 4028 L
LWMC SL dash06 C06 COSGR

GSN 753 753 M
770 753 L
803 753 L
837 753 L
870 754 L
903 754 L
924 755 L
941 755 L
970 755 L
1003 756 L
1037 756 L
1070 757 L
1096 758 L
1113 759 L
1137 759 L
1170 760 L
1203 762 L
1237 763 L
1268 765 L
1284 766 L
1303 767 L
1337 769 L
1370 771 L
1403 774 L
1437 778 L
1456 781 L
1473 782 L
1503 786 L
1537 791 L
1570 796 L
1603 802 L
1628 809 L
1644 813 L
1670 818 L
1703 827 L
1737 837 L
1770 849 L
1799 863 L
1816 874 L
1837 878 L
1870 895 L
1903 915 L
1937 937 L
1970 961 L
1987 990 L
2004 992 L
2037 1021 L
2070 1057 L
2103 1096 L
2137 1141 L
2159 1191 L
2176 1210 L
2203 1246 L
2237 1308 L
2270 1376 L
2303 1451 L
2331 1533 L
2347 1591 L
2370 1622 L
2403 1720 L
2437 1825 L
2470 1938 L
2503 2058 L
2519 2178 L
2537 2184 L
2570 2317 L
2603 2455 L
2637 2596 L
2670 2740 L
2690 2883 L
2707 2919 L
2737 3026 L
2770 3165 L
2803 3299 L
2837 3426 L
2862 3544 L
2879 3603 L
2903 3651 L
2937 3747 L
2970 3830 L
3003 3900 L
3034 3958 L
3050 3997 L
3070 4003 L
3103 4037 L
3137 4061 L
3170 4075 L
3203 4083 L
3222 4086 L
3239 4086 L
3270 4085 L
3303 4082 L
3337 4077 L
3370 4072 L
3393 4067 L
3410 4064 L
3437 4061 L
3464 4056 L
3481 4052 L
3503 4051 L
3537 4046 L
3565 4042 L
3582 4039 L
3603 4038 L
3637 4035 L
3670 4033 L
3703 4031 L
3737 4030 L
3753 4029 L
3770 4029 L
3803 4029 L
3837 4028 L
3870 4028 L
3903 4028 L
3925 4028 L
3942 4028 L
3970 4028 L
4003 4028 L
4037 4028 L
4070 4028 L
4086 4028 L
LWMC SL dash07 C07 COSGR

%
%================
% Legend - Begin
%================
%
GSN 4240 4040 M
4480 4040 L
LWMC SL dash01 C01 COSGR
GSN 4540 4001 M helvM (0.5 uM) show grestore
GSN 4240 3860 M
4480 3860 L
LWMC SL dash02 C02 COSGR
GSN 4540 3821 M helvM (1.0 uM) show grestore
GSN 4240 3680 M
4480 3680 L
LWMC SL dash03 C03 COSGR
GSN 4540 3641 M helvM (1.5 uM) show grestore
GSN 4240 3500 M
4480 3500 L
LWMC SL dash04 C04 COSGR
GSN 4540 3461 M helvM (2.0 uM) show grestore
GSN 4240 3320 M
4480 3320 L
LWMC SL dash05 C05 COSGR
GSN 4540 3281 M helvM (2.5 uM) show grestore
GSN 4240 3140 M
4480 3140 L
LWMC SL dash06 C06 COSGR
GSN 4540 3101 M helvM (3.0 uM) show grestore
GSN 4240 2960 M
4480 2960 L
LWMC SL dash07 C07 COSGR
GSN 4540 2921 M helvM (4.0 uM) show grestore
%
%================
% Legend - End
%================
%

%
% Main frame
%
L10
GSN 
620 620 M
4220 620 L
4220 4220 L
620 4220 L
closepath SGR

%
% X axis: large tics
%
L10
GSN 1130 620 M 0  54 rL SGR
GSN 1130 4220 M 0 -54 rL SGR
helvS (0.0001) 1130 470 xlabel
GSN 1716 620 M 0  54 rL SGR
GSN 1716 4220 M 0 -54 rL SGR
helvS (0.001) 1716 470 xlabel
GSN 2303 620 M 0  54 rL SGR
GSN 2303 4220 M 0 -54 rL SGR
helvS (0.01) 2303 470 xlabel
GSN 2889 620 M 0  54 rL SGR
GSN 2889 4220 M 0 -54 rL SGR
helvS (0.1) 2889 470 xlabel
GSN 3476 620 M 0  54 rL SGR
GSN 3476 4220 M 0 -54 rL SGR
helvS (1) 3476 470 xlabel
GSN 4062 620 M 0  54 rL SGR
GSN 4062 4220 M 0 -54 rL SGR
helvS (10) 4062 470 xlabel
%
% X axis: small tics
%
L5
GSN 720 620 M 0  36 rL SGR
GSN 720 4220 M 0 -36 rL SGR
GSN 824 620 M 0  36 rL SGR
GSN 824 4220 M 0 -36 rL SGR
GSN 897 620 M 0  36 rL SGR
GSN 897 4220 M 0 -36 rL SGR
GSN 954 620 M 0  36 rL SGR
GSN 954 4220 M 0 -36 rL SGR
GSN 1000 620 M 0  36 rL SGR
GSN 1000 4220 M 0 -36 rL SGR
GSN 1039 620 M 0  36 rL SGR
GSN 1039 4220 M 0 -36 rL SGR
GSN 1073 620 M 0  36 rL SGR
GSN 1073 4220 M 0 -36 rL SGR
GSN 1103 620 M 0  36 rL SGR
GSN 1103 4220 M 0 -36 rL SGR
GSN 1307 620 M 0  36 rL SGR
GSN 1307 4220 M 0 -36 rL SGR
GSN 1410 620 M 0  36 rL SGR
GSN 1410 4220 M 0 -36 rL SGR
GSN 1483 620 M 0  36 rL SGR
GSN 1483 4220 M 0 -36 rL SGR
GSN 1540 620 M 0  36 rL SGR
GSN 1540 4220 M 0 -36 rL SGR
GSN 1586 620 M 0  36 rL SGR
GSN 1586 4220 M 0 -36 rL SGR
GSN 1626 620 M 0  36 rL SGR
GSN 1626 4220 M 0 -36 rL SGR
GSN 1660 620 M 0  36 rL SGR
GSN 1660 4220 M 0 -36 rL SGR
GSN 1690 620 M 0  36 rL SGR
GSN 1690 4220 M 0 -36 rL SGR
GSN 1893 620 M 0  36 rL SGR
GSN 1893 4220 M 0 -36 rL SGR
GSN 1996 620 M 0  36 rL SGR
GSN 1996 4220 M 0 -36 rL SGR
GSN 2069 620 M 0  36 rL SGR
GSN 2069 4220 M 0 -36 rL SGR
GSN 2126 620 M 0  36 rL SGR
GSN 2126 4220 M 0 -36 rL SGR
GSN 2173 620 M 0  36 rL SGR
GSN 2173 4220 M 0 -36 rL SGR
GSN 2212 620 M 0  36 rL SGR
GSN 2212 4220 M 0 -36 rL SGR
GSN 2246 620 M 0  36 rL SGR
GSN 2246 4220 M 0 -36 rL SGR
GSN 2276 620 M 0  36 rL SGR
GSN 2276 4220 M 0 -36 rL SGR
GSN 2479 620 M 0  36 rL SGR
GSN 2479 4220 M 0 -36 rL SGR
GSN 2583 620 M 0  36 rL SGR
GSN 2583 4220 M 0 -36 rL SGR
GSN 2656 620 M 0  36 rL SGR
GSN 2656 4220 M 0 -36 rL SGR
GSN 2713 620 M 0  36 rL SGR
GSN 2713 4220 M 0 -36 rL SGR
GSN 2759 620 M 0  36 rL SGR
GSN 2759 4220 M 0 -36 rL SGR
GSN 2798 620 M 0  36 rL SGR
GSN 2798 4220 M 0 -36 rL SGR
GSN 2832 620 M 0  36 rL SGR
GSN 2832 4220 M 0 -36 rL SGR
GSN 2862 620 M 0  36 rL SGR
GSN 2862 4220 M 0 -36 rL SGR
GSN 3066 620 M 0  36 rL SGR
GSN 3066 4220 M 0 -36 rL SGR
GSN 3169 620 M 0  36 rL SGR
GSN 3169 4220 M 0 -36 rL SGR
GSN 3242 620 M 0  36 rL SGR
GSN 3242 4220 M 0 -36 rL SGR
GSN 3299 620 M 0  36 rL SGR
GSN 3299 4220 M 0 -36 rL SGR
GSN 3345 620 M 0  36 rL SGR
GSN 3345 4220 M 0 -36 rL SGR
GSN 3385 620 M 0  36 rL SGR
GSN 3385 4220 M 0 -36 rL SGR
GSN 3419 620 M 0  36 rL SGR
GSN 3419 4220 M 0 -36 rL SGR
GSN 3449 620 M 0  36 rL SGR
GSN 3449 4220 M 0 -36 rL SGR
GSN 3652 620 M 0  36 rL SGR
GSN 3652 4220 M 0 -36 rL SGR
GSN 3755 620 M 0  36 rL SGR
GSN 3755 4220 M 0 -36 rL SGR
GSN 3829 620 M 0  36 rL SGR
GSN 3829 4220 M 0 -36 rL SGR
GSN 3885 620 M 0  36 rL SGR
GSN 3885 4220 M 0 -36 rL SGR
GSN 3932 620 M 0  36 rL SGR
GSN 3932 4220 M 0 -36 rL SGR
GSN 3971 620 M 0  36 rL SGR
GSN 3971 4220 M 0 -36 rL SGR
GSN 4005 620 M 0  36 rL SGR
GSN 4005 4220 M 0 -36 rL SGR
GSN 4035 620 M 0  36 rL SGR
GSN 4035 4220 M 0 -36 rL SGR
%
% Y axis: large tics
%
L10
GSN 620 1251 M 54 0 rL SGR
GSN 4220 1251 M -54 0 rL SGR
helvS (-1.5) 560 1251 ylabel
GSN 620 2177 M 54 0 rL SGR
GSN 4220 2177 M -54 0 rL SGR
helvS (-1) 560 2177 ylabel
GSN 620 3102 M 54 0 rL SGR
GSN 4220 3102 M -54 0 rL SGR
helvS (-0.5) 560 3102 ylabel
GSN 620 4028 M 54 0 rL SGR
GSN 4220 4028 M -54 0 rL SGR
helvS (0) 560 4028 ylabel
%
% Y axis: small tics
%
L5
GSN 620 695 M 36 0 rL SGR
GSN 4220 695 M -36 0 rL SGR
GSN 620 880 M 36 0 rL SGR
GSN 4220 880 M -36 0 rL SGR
GSN 620 1066 M 36 0 rL SGR
GSN 4220 1066 M -36 0 rL SGR
GSN 620 1251 M 36 0 rL SGR
GSN 4220 1251 M -36 0 rL SGR
GSN 620 1436 M 36 0 rL SGR
GSN 4220 1436 M -36 0 rL SGR
GSN 620 1621 M 36 0 rL SGR
GSN 4220 1621 M -36 0 rL SGR
GSN 620 1806 M 36 0 rL SGR
GSN 4220 1806 M -36 0 rL SGR
GSN 620 1991 M 36 0 rL SGR
GSN 4220 1991 M -36 0 rL SGR
GSN 620 2177 M 36 0 rL SGR
GSN 4220 2177 M -36 0 rL SGR
GSN 620 2362 M 36 0 rL SGR
GSN 4220 2362 M -36 0 rL SGR
GSN 620 2547 M 36 0 rL SGR
GSN 4220 2547 M -36 0 rL SGR
GSN 620 2732 M 36 0 rL SGR
GSN 4220 2732 M -36 0 rL SGR
GSN 620 2917 M 36 0 rL SGR
GSN 4220 2917 M -36 0 rL SGR
GSN 620 3102 M 36 0 rL SGR
GSN 4220 3102 M -36 0 rL SGR
GSN 620 3287 M 36 0 rL SGR
GSN 4220 3287 M -36 0 rL SGR
GSN 620 3473 M 36 0 rL SGR
GSN 4220 3473 M -36 0 rL SGR
GSN 620 3658 M 36 0 rL SGR
GSN 4220 3658 M -36 0 rL SGR
GSN 620 3843 M 36 0 rL SGR
GSN 4220 3843 M -36 0 rL SGR
GSN 620 4028 M 36 0 rL SGR
GSN 4220 4028 M -36 0 rL SGR
GSN 620 4213 M 36 0 rL SGR
GSN 4220 4213 M -36 0 rL SGR

%
% X axis
%
GSN L5 620 4028 M 4220 4028 L SDA G50 SGR

%
% X-Axis label:
%
gsave 2420 290 M 
[
[(Helvetica) 180 0 true true 0 (t)]
[(Helvetica) 180 0 true true 0 (i)]
[(Helvetica) 180 0 true true 0 (m)]
[(Helvetica) 180 0 true true 0 (e)]
] 0 MCshow grestore

%
% Y-Axis label:
%
gsave 234 2420 M 
currentpoint gsave translate 90 rotate 0 0 moveto
[
[(Helvetica) 180 0 true true 0 (d)]
[(Helvetica) 180 0 true true 0 (\()]
[(Helvetica) 180 0 true true 0 (s)]
[(Helvetica) 180 0 true true 0 (i)]
[(Helvetica) 180 0 true true 0 (g)]
[(Helvetica) 180 0 true true 0 (n)]
[(Helvetica) 180 0 true true 0 (a)]
[(Helvetica) 180 0 true true 0 (l)]
[(Helvetica) 180 0 true true 0 (\))]
[(Helvetica) 180 0 true true 0 ( )]
[(Helvetica) 180 0 true true 0 (/)]
[(Helvetica) 180 0 true true 0 ( )]
[(Helvetica) 180 0 true true 0 (d)]
[(Helvetica) 180 0 true true 0 (t)]
] 0 MCshow grestore

end
showpage
%%Trailer
%%EOF
