%!PS-Adobe-3.0 EPSF-3.0
%%BoundingBox: 0 0 514 442
%%Creator: BioKin Ltd.
%%DocumentFonts: Symbol Helvetica
%%EndComments
%
/bkdict 256 dict def
bkdict begin
/M {moveto} def 
/R {rmoveto} def
/L {lineto} def
/rL {rlineto} def
/GSN {gsave newpath} def
/SGR {stroke grestore} def
/COSGR {gsave setrgbcolor stroke grestore grestore} def
/SL {setlinewidth} def
/LWMB {12} def             % line width - model curves, black & white
/LWMC {10} def             % line width - model curves, color
/L2 {2.5 setlinewidth} def
/L5 {5 setlinewidth} def
/L10 {10 setlinewidth} def
/G50 {0.5 setgray} def
/SDA {[10  20] 0 setdash} def % axes
/helvT {/Helvetica findfont 100 scalefont setfont} def % tiny
/helvS {/Helvetica findfont 125 scalefont setfont} def % small
/helvM {/Helvetica findfont 150 scalefont setfont} def % medium
/helvL {/Helvetica findfont 175 scalefont setfont} def % large
/xlabel {gsave M dup
   stringwidth exch -0.5 mul exch rmoveto show grestore} def 
/ylabel {gsave M 90 rotate dup
   stringwidth exch -0.5 mul exch rmoveto show grestore} def
/ylabelresid {gsave M dup
   stringwidth exch -1 mul exch rmoveto show grestore} def
% ======
% Shapes
% ======
% Circle:
/Circ {0 360 arc closepath} def
%
% Square:
/Squa {dup dup -0.5 mul dup dup R -2 mul 0 exch rL 1 mul 0 rL dup 0 exch -1 mul rL closepath} def
%
% Triangle Up:
/TriU {dup dup dup -0.4 mul exch -0.5 mul exch R dup 0.5 mul exch rL dup -1 mul exch 0.5 mul exch rL closepath} def 
%
% Triangle Down:
/TriD {dup dup dup 0.4 mul exch -0.5 mul exch R dup 0.5 mul exch -1 mul rL dup 0.5 mul exch rL closepath} def 
%
% Diamond:
/Diam {45 rotate Squa} def
% ======
% Fills
% ======
/GRF {gsave setgray fill grestore} def                    % gray-level Fill
/COF {gsave setrgbcolor fill grestore} def                % color fill
% ======
% Colors
% ======
/C01 {1.00	0.00	0.00} def      % Red
/C02 {0.00	0.00	1.00} def      % Blue
/C03 {0.00	0.39	0.00} def      % Dark Green
/C04 {0.78	0.08	0.52} def      % Medium Violet Red
/C05 {0.55	0.27	0.07} def      % Saddle Brown
/C06 {0.10	0.70	0.70} def      % (cyan)
/C07 {1.00	0.55	0.00} def      % Dark Orange
/C08 {0.63	0.13	0.94} def      % Purple
/C09 {0.00	0.75	1.00} def      % Deep Sky Blue
/C10 {0.20	0.80	0.20} def      % Lime Green
/C11 {0.47	0.53	0.60} def      % Light Slate Gray
/C12 {0.00	0.00	0.00} def      % Black            % or: {0.19	0.31	0.31} def      % Dark Slate Gray
%
/LGR {0.75} def % light gray
/DGR {0.33} def % dark gray
%
% =============
% Dash patterns
% =============
/dash01 { [80  20] 0 setdash } def
/dash02 { [40  20] 0 setdash } def
/dash03 { [80  20  10  20] 0 setdash } def
/dash04 { [40  20  10  20] 0 setdash } def
/dash05 { [80  20  10  10  10  20] 0 setdash } def
/dash06 { [40  20  10  10  10  20] 0 setdash } def
/dash07 { [10  10] 0 setdash } def
%
/MFshow {
   { dup 5 get 3 ge
     { 5 get 3 eq {gsave} {grestore} ifelse }
     {dup dup 0 get findfont exch 1 get scalefont setfont
     [ currentpoint ] exch dup 2 get 0 exch R dup 5 get 2 ne {dup dup 6
     get exch 4 get {show} {stringwidth pop 0 R} ifelse }if dup 5 get 0 eq
     {dup 3 get {2 get neg 0 exch R pop} {pop aload pop M} ifelse} {dup 5
     get 1 eq {dup 2 get exch dup 3 get exch 6 get stringwidth pop -2 div
     dup 0 R} {dup 6 get stringwidth pop -2 div 0 R 6 get
     show 2 index {aload pop M neg 3 -1 roll neg R pop pop} {pop pop pop
     pop aload pop M} ifelse }ifelse }ifelse }
     ifelse }
   forall} bind def
/MFwidth {0 exch {dup 3 get{dup dup 0 get findfont exch 1 get scalefont
     setfont 6 get stringwidth pop add} {pop} ifelse} forall} bind def
/MCshow { currentpoint stroke M
  exch dup MFwidth -2 div 3 -1 roll R MFshow } def
%
end
%%EndProlog
bkdict begin
0.1 0.1 scale
%
% Model curves:
%

GSN 753 3521 M
770 3521 L
803 3521 L
837 3521 L
870 3521 L
903 3521 L
924 3521 L
941 3521 L
970 3521 L
1003 3522 L
1037 3522 L
1070 3522 L
1096 3522 L
1113 3522 L
1137 3522 L
1170 3522 L
1203 3522 L
1237 3523 L
1268 3523 L
1284 3523 L
1303 3523 L
1337 3524 L
1370 3524 L
1403 3525 L
1437 3525 L
1456 3526 L
1473 3526 L
1503 3526 L
1537 3527 L
1570 3528 L
1603 3529 L
1628 3530 L
1644 3530 L
1670 3531 L
1703 3532 L
1737 3533 L
1770 3535 L
1799 3537 L
1816 3538 L
1837 3538 L
1870 3540 L
1903 3543 L
1937 3545 L
1970 3547 L
1987 3550 L
2004 3550 L
2037 3553 L
2070 3555 L
2103 3559 L
2137 3562 L
2159 3565 L
2176 3567 L
2203 3569 L
2237 3573 L
2270 3577 L
2303 3582 L
2331 3587 L
2347 3591 L
2370 3593 L
2403 3599 L
2437 3606 L
2470 3614 L
2503 3623 L
2519 3632 L
2537 3632 L
2570 3643 L
2603 3655 L
2637 3667 L
2670 3681 L
2690 3696 L
2707 3700 L
2737 3713 L
2770 3730 L
2803 3748 L
2837 3767 L
2862 3788 L
2879 3799 L
2903 3808 L
2937 3829 L
2970 3851 L
3003 3872 L
3034 3893 L
3050 3910 L
3070 3913 L
3103 3933 L
3137 3951 L
3170 3968 L
3203 3983 L
3222 3996 L
3239 3998 L
3270 4008 L
3303 4017 L
3337 4025 L
3370 4031 L
3393 4035 L
3410 4037 L
3437 4038 L
3464 4039 L
3481 4039 L
3503 4039 L
3537 4038 L
3565 4037 L
3582 4036 L
3603 4036 L
3637 4034 L
3670 4033 L
3703 4031 L
3737 4031 L
3753 4030 L
3770 4030 L
3803 4030 L
3837 4029 L
3870 4029 L
3903 4029 L
3925 4029 L
3942 4029 L
3970 4029 L
4003 4029 L
4037 4029 L
4070 4029 L
4086 4029 L
LWMC SL dash01 C01 COSGR

GSN 753 3027 M
770 3027 L
803 3027 L
837 3027 L
870 3027 L
903 3027 L
924 3028 L
941 3028 L
970 3028 L
1003 3028 L
1037 3028 L
1070 3029 L
1096 3029 L
1113 3029 L
1137 3029 L
1170 3030 L
1203 3030 L
1237 3031 L
1268 3031 L
1284 3032 L
1303 3032 L
1337 3033 L
1370 3034 L
1403 3035 L
1437 3036 L
1456 3037 L
1473 3037 L
1503 3038 L
1537 3040 L
1570 3042 L
1603 3044 L
1628 3046 L
1644 3047 L
1670 3048 L
1703 3051 L
1737 3054 L
1770 3058 L
1799 3061 L
1816 3064 L
1837 3065 L
1870 3070 L
1903 3075 L
1937 3080 L
1970 3085 L
1987 3091 L
2004 3092 L
2037 3098 L
2070 3105 L
2103 3112 L
2137 3120 L
2159 3128 L
2176 3131 L
2203 3137 L
2237 3147 L
2270 3158 L
2303 3169 L
2331 3182 L
2347 3191 L
2370 3196 L
2403 3212 L
2437 3229 L
2470 3248 L
2503 3269 L
2519 3291 L
2537 3292 L
2570 3317 L
2603 3344 L
2637 3374 L
2670 3405 L
2690 3439 L
2707 3447 L
2737 3474 L
2770 3511 L
2803 3550 L
2837 3590 L
2862 3630 L
2879 3652 L
2903 3671 L
2937 3711 L
2970 3751 L
3003 3789 L
3034 3826 L
3050 3855 L
3070 3860 L
3103 3892 L
3137 3921 L
3170 3948 L
3203 3970 L
3222 3990 L
3239 3992 L
3270 4006 L
3303 4020 L
3337 4030 L
3370 4037 L
3393 4042 L
3410 4044 L
3437 4045 L
3464 4046 L
3481 4046 L
3503 4045 L
3537 4044 L
3565 4042 L
3582 4040 L
3603 4039 L
3637 4037 L
3670 4034 L
3703 4033 L
3737 4031 L
3753 4030 L
3770 4030 L
3803 4030 L
3837 4029 L
3870 4029 L
3903 4029 L
3925 4029 L
3942 4029 L
3970 4029 L
4003 4029 L
4037 4029 L
4070 4029 L
4086 4029 L
LWMC SL dash02 C02 COSGR

GSN 753 2545 M
770 2545 L
803 2545 L
837 2545 L
870 2545 L
903 2546 L
924 2546 L
941 2546 L
970 2546 L
1003 2546 L
1037 2547 L
1070 2547 L
1096 2548 L
1113 2548 L
1137 2548 L
1170 2549 L
1203 2550 L
1237 2551 L
1268 2552 L
1284 2553 L
1303 2553 L
1337 2554 L
1370 2555 L
1403 2557 L
1437 2559 L
1456 2561 L
1473 2561 L
1503 2563 L
1537 2566 L
1570 2569 L
1603 2572 L
1628 2576 L
1644 2577 L
1670 2580 L
1703 2584 L
1737 2589 L
1770 2595 L
1799 2601 L
1816 2606 L
1837 2607 L
1870 2615 L
1903 2623 L
1937 2631 L
1970 2641 L
1987 2651 L
2004 2652 L
2037 2662 L
2070 2674 L
2103 2687 L
2137 2700 L
2159 2715 L
2176 2721 L
2203 2731 L
2237 2748 L
2270 2767 L
2303 2788 L
2331 2810 L
2347 2826 L
2370 2835 L
2403 2863 L
2437 2893 L
2470 2926 L
2503 2962 L
2519 2999 L
2537 3001 L
2570 3044 L
2603 3089 L
2637 3138 L
2670 3190 L
2690 3244 L
2707 3258 L
2737 3301 L
2770 3359 L
2803 3419 L
2837 3480 L
2862 3540 L
2879 3572 L
2903 3599 L
2937 3657 L
2970 3713 L
3003 3766 L
3034 3815 L
3050 3853 L
3070 3860 L
3103 3900 L
3137 3936 L
3170 3967 L
3203 3993 L
3222 4014 L
3239 4017 L
3270 4031 L
3303 4043 L
3337 4051 L
3370 4056 L
3393 4058 L
3410 4058 L
3437 4057 L
3464 4055 L
3481 4053 L
3503 4051 L
3537 4048 L
3565 4044 L
3582 4041 L
3603 4040 L
3637 4037 L
3670 4034 L
3703 4032 L
3737 4031 L
3753 4030 L
3770 4030 L
3803 4029 L
3837 4029 L
3870 4029 L
3903 4029 L
3925 4029 L
3942 4029 L
3970 4029 L
4003 4029 L
4037 4029 L
4070 4029 L
4086 4029 L
LWMC SL dash03 C03 COSGR

GSN 753 2044 M
770 2044 L
803 2044 L
837 2044 L
870 2044 L
903 2045 L
924 2045 L
941 2045 L
970 2046 L
1003 2046 L
1037 2047 L
1070 2047 L
1096 2048 L
1113 2049 L
1137 2049 L
1170 2050 L
1203 2051 L
1237 2052 L
1268 2054 L
1284 2055 L
1303 2055 L
1337 2057 L
1370 2059 L
1403 2061 L
1437 2064 L
1456 2067 L
1473 2068 L
1503 2070 L
1537 2074 L
1570 2078 L
1603 2083 L
1628 2089 L
1644 2091 L
1670 2094 L
1703 2101 L
1737 2108 L
1770 2117 L
1799 2126 L
1816 2133 L
1837 2136 L
1870 2147 L
1903 2158 L
1937 2171 L
1970 2186 L
1987 2201 L
2004 2202 L
2037 2218 L
2070 2236 L
2103 2255 L
2137 2276 L
2159 2299 L
2176 2307 L
2203 2323 L
2237 2350 L
2270 2379 L
2303 2411 L
2331 2446 L
2347 2471 L
2370 2485 L
2403 2527 L
2437 2573 L
2470 2623 L
2503 2678 L
2519 2734 L
2537 2737 L
2570 2800 L
2603 2868 L
2637 2939 L
2670 3013 L
2690 3091 L
2707 3111 L
2737 3171 L
2770 3252 L
2803 3334 L
2837 3415 L
2862 3495 L
2879 3538 L
2903 3573 L
2937 3646 L
2970 3716 L
3003 3780 L
3034 3838 L
3050 3881 L
3070 3889 L
3103 3934 L
3137 3972 L
3170 4003 L
3203 4027 L
3222 4045 L
3239 4047 L
3270 4057 L
3303 4065 L
3337 4068 L
3370 4068 L
3393 4066 L
3410 4064 L
3437 4062 L
3464 4057 L
3481 4054 L
3503 4052 L
3537 4048 L
3565 4043 L
3582 4041 L
3603 4040 L
3637 4036 L
3670 4034 L
3703 4032 L
3737 4031 L
3753 4030 L
3770 4030 L
3803 4029 L
3837 4029 L
3870 4029 L
3903 4029 L
3925 4029 L
3942 4029 L
3970 4029 L
4003 4029 L
4037 4029 L
4070 4029 L
4086 4029 L
LWMC SL dash04 C04 COSGR

GSN 753 1766 M
770 1766 L
803 1766 L
837 1766 L
870 1767 L
903 1767 L
924 1768 L
941 1768 L
970 1768 L
1003 1769 L
1037 1769 L
1070 1770 L
1096 1771 L
1113 1772 L
1137 1772 L
1170 1773 L
1203 1775 L
1237 1776 L
1268 1778 L
1284 1779 L
1303 1780 L
1337 1782 L
1370 1784 L
1403 1787 L
1437 1790 L
1456 1794 L
1473 1795 L
1503 1798 L
1537 1802 L
1570 1807 L
1603 1813 L
1628 1819 L
1644 1823 L
1670 1827 L
1703 1835 L
1737 1843 L
1770 1853 L
1799 1864 L
1816 1873 L
1837 1876 L
1870 1889 L
1903 1904 L
1937 1919 L
1970 1937 L
1987 1955 L
2004 1957 L
2037 1976 L
2070 1997 L
2103 2021 L
2137 2047 L
2159 2075 L
2176 2085 L
2203 2105 L
2237 2138 L
2270 2174 L
2303 2213 L
2331 2256 L
2347 2286 L
2370 2303 L
2403 2355 L
2437 2411 L
2470 2472 L
2503 2538 L
2519 2605 L
2537 2609 L
2570 2685 L
2603 2765 L
2637 2850 L
2670 2938 L
2690 3029 L
2707 3052 L
2737 3122 L
2770 3216 L
2803 3310 L
2837 3402 L
2862 3492 L
2879 3539 L
2903 3578 L
2937 3659 L
2970 3734 L
3003 3802 L
3034 3863 L
3050 3907 L
3070 3915 L
3103 3960 L
3137 3996 L
3170 4025 L
3203 4046 L
3222 4060 L
3239 4061 L
3270 4069 L
3303 4073 L
3337 4073 L
3370 4071 L
3393 4067 L
3410 4065 L
3437 4062 L
3464 4057 L
3481 4053 L
3503 4052 L
3537 4047 L
3565 4043 L
3582 4040 L
3603 4039 L
3637 4036 L
3670 4034 L
3703 4032 L
3737 4031 L
3753 4030 L
3770 4030 L
3803 4029 L
3837 4029 L
3870 4029 L
3903 4029 L
3925 4029 L
3942 4029 L
3970 4029 L
4003 4029 L
4037 4029 L
4070 4029 L
4086 4029 L
LWMC SL dash05 C05 COSGR

GSN 753 1536 M
770 1536 L
803 1537 L
837 1537 L
870 1537 L
903 1538 L
924 1538 L
941 1538 L
970 1539 L
1003 1540 L
1037 1540 L
1070 1541 L
1096 1542 L
1113 1543 L
1137 1543 L
1170 1545 L
1203 1546 L
1237 1548 L
1268 1550 L
1284 1552 L
1303 1552 L
1337 1555 L
1370 1557 L
1403 1561 L
1437 1564 L
1456 1568 L
1473 1569 L
1503 1573 L
1537 1578 L
1570 1584 L
1603 1590 L
1628 1597 L
1644 1601 L
1670 1605 L
1703 1615 L
1737 1625 L
1770 1636 L
1799 1648 L
1816 1659 L
1837 1662 L
1870 1677 L
1903 1694 L
1937 1712 L
1970 1731 L
1987 1753 L
2004 1754 L
2037 1776 L
2070 1802 L
2103 1829 L
2137 1859 L
2159 1891 L
2176 1903 L
2203 1926 L
2237 1964 L
2270 2005 L
2303 2051 L
2331 2100 L
2347 2136 L
2370 2155 L
2403 2214 L
2437 2279 L
2470 2349 L
2503 2424 L
2519 2501 L
2537 2505 L
2570 2591 L
2603 2682 L
2637 2778 L
2670 2877 L
2690 2979 L
2707 3004 L
2737 3082 L
2770 3186 L
2803 3289 L
2837 3390 L
2862 3487 L
2879 3538 L
2903 3580 L
2937 3666 L
2970 3745 L
3003 3816 L
3034 3878 L
3050 3924 L
3070 3932 L
3103 3976 L
3137 4011 L
3170 4037 L
3203 4056 L
3222 4068 L
3239 4069 L
3270 4075 L
3303 4077 L
3337 4076 L
3370 4072 L
3393 4068 L
3410 4065 L
3437 4062 L
3464 4057 L
3481 4054 L
3503 4052 L
3537 4047 L
3565 4043 L
3582 4040 L
3603 4039 L
3637 4036 L
3670 4034 L
3703 4032 L
3737 4031 L
3753 4030 L
3770 4030 L
3803 4029 L
3837 4029 L
3870 4029 L
3903 4029 L
3925 4029 L
3942 4029 L
3970 4029 L
4003 4029 L
4037 4029 L
4070 4029 L
4086 4029 L
LWMC SL dash06 C06 COSGR

GSN 753 753 M
770 753 L
803 753 L
837 754 L
870 754 L
903 755 L
924 756 L
941 756 L
970 757 L
1003 758 L
1037 759 L
1070 760 L
1096 762 L
1113 763 L
1137 763 L
1170 765 L
1203 768 L
1237 770 L
1268 773 L
1284 776 L
1303 776 L
1337 780 L
1370 784 L
1403 788 L
1437 794 L
1456 800 L
1473 801 L
1503 806 L
1537 814 L
1570 823 L
1603 832 L
1628 843 L
1644 848 L
1670 855 L
1703 868 L
1737 883 L
1770 900 L
1799 919 L
1816 934 L
1837 939 L
1870 962 L
1903 987 L
1937 1014 L
1970 1044 L
1987 1077 L
2004 1079 L
2037 1112 L
2070 1151 L
2103 1193 L
2137 1239 L
2159 1289 L
2176 1308 L
2203 1343 L
2237 1402 L
2270 1466 L
2303 1536 L
2331 1612 L
2347 1666 L
2370 1695 L
2403 1785 L
2437 1882 L
2470 1987 L
2503 2098 L
2519 2211 L
2537 2217 L
2570 2342 L
2603 2472 L
2637 2607 L
2670 2744 L
2690 2883 L
2707 2917 L
2737 3021 L
2770 3157 L
2803 3289 L
2837 3415 L
2862 3532 L
2879 3592 L
2903 3640 L
2937 3737 L
2970 3822 L
3003 3894 L
3034 3953 L
3050 3993 L
3070 4000 L
3103 4034 L
3137 4059 L
3170 4075 L
3203 4083 L
3222 4086 L
3239 4086 L
3270 4085 L
3303 4082 L
3337 4078 L
3370 4073 L
3393 4067 L
3410 4065 L
3437 4062 L
3464 4056 L
3481 4053 L
3503 4051 L
3537 4047 L
3565 4042 L
3582 4040 L
3603 4039 L
3637 4036 L
3670 4034 L
3703 4032 L
3737 4031 L
3753 4030 L
3770 4030 L
3803 4029 L
3837 4029 L
3870 4029 L
3903 4029 L
3925 4029 L
3942 4029 L
3970 4029 L
4003 4029 L
4037 4029 L
4070 4029 L
4086 4029 L
LWMC SL dash07 C07 COSGR

%
%================
% Legend - Begin
%================
%
GSN 4240 4040 M
4480 4040 L
LWMC SL dash01 C01 COSGR
GSN 4540 4001 M helvM (0.5 uM) show grestore
GSN 4240 3860 M
4480 3860 L
LWMC SL dash02 C02 COSGR
GSN 4540 3821 M helvM (1.0 uM) show grestore
GSN 4240 3680 M
4480 3680 L
LWMC SL dash03 C03 COSGR
GSN 4540 3641 M helvM (1.5 uM) show grestore
GSN 4240 3500 M
4480 3500 L
LWMC SL dash04 C04 COSGR
GSN 4540 3461 M helvM (2.0 uM) show grestore
GSN 4240 3320 M
4480 3320 L
LWMC SL dash05 C05 COSGR
GSN 4540 3281 M helvM (2.5 uM) show grestore
GSN 4240 3140 M
4480 3140 L
LWMC SL dash06 C06 COSGR
GSN 4540 3101 M helvM (3.0 uM) show grestore
GSN 4240 2960 M
4480 2960 L
LWMC SL dash07 C07 COSGR
GSN 4540 2921 M helvM (4.0 uM) show grestore
%
%================
% Legend - End
%================
%

%
% Main frame
%
L10
GSN 
620 620 M
4220 620 L
4220 4220 L
620 4220 L
closepath SGR

%
% X axis: large tics
%
L10
GSN 1130 620 M 0  54 rL SGR
GSN 1130 4220 M 0 -54 rL SGR
helvS (0.0001) 1130 470 xlabel
GSN 1716 620 M 0  54 rL SGR
GSN 1716 4220 M 0 -54 rL SGR
helvS (0.001) 1716 470 xlabel
GSN 2303 620 M 0  54 rL SGR
GSN 2303 4220 M 0 -54 rL SGR
helvS (0.01) 2303 470 xlabel
GSN 2889 620 M 0  54 rL SGR
GSN 2889 4220 M 0 -54 rL SGR
helvS (0.1) 2889 470 xlabel
GSN 3476 620 M 0  54 rL SGR
GSN 3476 4220 M 0 -54 rL SGR
helvS (1) 3476 470 xlabel
GSN 4062 620 M 0  54 rL SGR
GSN 4062 4220 M 0 -54 rL SGR
helvS (10) 4062 470 xlabel
%
% X axis: small tics
%
L5
GSN 720 620 M 0  36 rL SGR
GSN 720 4220 M 0 -36 rL SGR
GSN 824 620 M 0  36 rL SGR
GSN 824 4220 M 0 -36 rL SGR
GSN 897 620 M 0  36 rL SGR
GSN 897 4220 M 0 -36 rL SGR
GSN 954 620 M 0  36 rL SGR
GSN 954 4220 M 0 -36 rL SGR
GSN 1000 620 M 0  36 rL SGR
GSN 1000 4220 M 0 -36 rL SGR
GSN 1039 620 M 0  36 rL SGR
GSN 1039 4220 M 0 -36 rL SGR
GSN 1073 620 M 0  36 rL SGR
GSN 1073 4220 M 0 -36 rL SGR
GSN 1103 620 M 0  36 rL SGR
GSN 1103 4220 M 0 -36 rL SGR
GSN 1307 620 M 0  36 rL SGR
GSN 1307 4220 M 0 -36 rL SGR
GSN 1410 620 M 0  36 rL SGR
GSN 1410 4220 M 0 -36 rL SGR
GSN 1483 620 M 0  36 rL SGR
GSN 1483 4220 M 0 -36 rL SGR
GSN 1540 620 M 0  36 rL SGR
GSN 1540 4220 M 0 -36 rL SGR
GSN 1586 620 M 0  36 rL SGR
GSN 1586 4220 M 0 -36 rL SGR
GSN 1626 620 M 0  36 rL SGR
GSN 1626 4220 M 0 -36 rL SGR
GSN 1660 620 M 0  36 rL SGR
GSN 1660 4220 M 0 -36 rL SGR
GSN 1690 620 M 0  36 rL SGR
GSN 1690 4220 M 0 -36 rL SGR
GSN 1893 620 M 0  36 rL SGR
GSN 1893 4220 M 0 -36 rL SGR
GSN 1996 620 M 0  36 rL SGR
GSN 1996 4220 M 0 -36 rL SGR
GSN 2069 620 M 0  36 rL SGR
GSN 2069 4220 M 0 -36 rL SGR
GSN 2126 620 M 0  36 rL SGR
GSN 2126 4220 M 0 -36 rL SGR
GSN 2173 620 M 0  36 rL SGR
GSN 2173 4220 M 0 -36 rL SGR
GSN 2212 620 M 0  36 rL SGR
GSN 2212 4220 M 0 -36 rL SGR
GSN 2246 620 M 0  36 rL SGR
GSN 2246 4220 M 0 -36 rL SGR
GSN 2276 620 M 0  36 rL SGR
GSN 2276 4220 M 0 -36 rL SGR
GSN 2479 620 M 0  36 rL SGR
GSN 2479 4220 M 0 -36 rL SGR
GSN 2583 620 M 0  36 rL SGR
GSN 2583 4220 M 0 -36 rL SGR
GSN 2656 620 M 0  36 rL SGR
GSN 2656 4220 M 0 -36 rL SGR
GSN 2713 620 M 0  36 rL SGR
GSN 2713 4220 M 0 -36 rL SGR
GSN 2759 620 M 0  36 rL SGR
GSN 2759 4220 M 0 -36 rL SGR
GSN 2798 620 M 0  36 rL SGR
GSN 2798 4220 M 0 -36 rL SGR
GSN 2832 620 M 0  36 rL SGR
GSN 2832 4220 M 0 -36 rL SGR
GSN 2862 620 M 0  36 rL SGR
GSN 2862 4220 M 0 -36 rL SGR
GSN 3066 620 M 0  36 rL SGR
GSN 3066 4220 M 0 -36 rL SGR
GSN 3169 620 M 0  36 rL SGR
GSN 3169 4220 M 0 -36 rL SGR
GSN 3242 620 M 0  36 rL SGR
GSN 3242 4220 M 0 -36 rL SGR
GSN 3299 620 M 0  36 rL SGR
GSN 3299 4220 M 0 -36 rL SGR
GSN 3345 620 M 0  36 rL SGR
GSN 3345 4220 M 0 -36 rL SGR
GSN 3385 620 M 0  36 rL SGR
GSN 3385 4220 M 0 -36 rL SGR
GSN 3419 620 M 0  36 rL SGR
GSN 3419 4220 M 0 -36 rL SGR
GSN 3449 620 M 0  36 rL SGR
GSN 3449 4220 M 0 -36 rL SGR
GSN 3652 620 M 0  36 rL SGR
GSN 3652 4220 M 0 -36 rL SGR
GSN 3755 620 M 0  36 rL SGR
GSN 3755 4220 M 0 -36 rL SGR
GSN 3829 620 M 0  36 rL SGR
GSN 3829 4220 M 0 -36 rL SGR
GSN 3885 620 M 0  36 rL SGR
GSN 3885 4220 M 0 -36 rL SGR
GSN 3932 620 M 0  36 rL SGR
GSN 3932 4220 M 0 -36 rL SGR
GSN 3971 620 M 0  36 rL SGR
GSN 3971 4220 M 0 -36 rL SGR
GSN 4005 620 M 0  36 rL SGR
GSN 4005 4220 M 0 -36 rL SGR
GSN 4035 620 M 0  36 rL SGR
GSN 4035 4220 M 0 -36 rL SGR
%
% Y axis: large tics
%
L10
GSN 620 1195 M 54 0 rL SGR
GSN 4220 1195 M -54 0 rL SGR
helvS (-1.5) 560 1195 ylabel
GSN 620 2140 M 54 0 rL SGR
GSN 4220 2140 M -54 0 rL SGR
helvS (-1) 560 2140 ylabel
GSN 620 3084 M 54 0 rL SGR
GSN 4220 3084 M -54 0 rL SGR
helvS (-0.5) 560 3084 ylabel
GSN 620 4029 M 54 0 rL SGR
GSN 4220 4029 M -54 0 rL SGR
helvS (0) 560 4029 ylabel
%
% Y axis: small tics
%
L5
GSN 620 628 M 36 0 rL SGR
GSN 4220 628 M -36 0 rL SGR
GSN 620 817 M 36 0 rL SGR
GSN 4220 817 M -36 0 rL SGR
GSN 620 1006 M 36 0 rL SGR
GSN 4220 1006 M -36 0 rL SGR
GSN 620 1195 M 36 0 rL SGR
GSN 4220 1195 M -36 0 rL SGR
GSN 620 1384 M 36 0 rL SGR
GSN 4220 1384 M -36 0 rL SGR
GSN 620 1573 M 36 0 rL SGR
GSN 4220 1573 M -36 0 rL SGR
GSN 620 1762 M 36 0 rL SGR
GSN 4220 1762 M -36 0 rL SGR
GSN 620 1951 M 36 0 rL SGR
GSN 4220 1951 M -36 0 rL SGR
GSN 620 2140 M 36 0 rL SGR
GSN 4220 2140 M -36 0 rL SGR
GSN 620 2329 M 36 0 rL SGR
GSN 4220 2329 M -36 0 rL SGR
GSN 620 2517 M 36 0 rL SGR
GSN 4220 2517 M -36 0 rL SGR
GSN 620 2706 M 36 0 rL SGR
GSN 4220 2706 M -36 0 rL SGR
GSN 620 2895 M 36 0 rL SGR
GSN 4220 2895 M -36 0 rL SGR
GSN 620 3084 M 36 0 rL SGR
GSN 4220 3084 M -36 0 rL SGR
GSN 620 3273 M 36 0 rL SGR
GSN 4220 3273 M -36 0 rL SGR
GSN 620 3462 M 36 0 rL SGR
GSN 4220 3462 M -36 0 rL SGR
GSN 620 3651 M 36 0 rL SGR
GSN 4220 3651 M -36 0 rL SGR
GSN 620 3840 M 36 0 rL SGR
GSN 4220 3840 M -36 0 rL SGR
GSN 620 4029 M 36 0 rL SGR
GSN 4220 4029 M -36 0 rL SGR
GSN 620 4218 M 36 0 rL SGR
GSN 4220 4218 M -36 0 rL SGR

%
% X axis
%
GSN L5 620 4029 M 4220 4029 L SDA G50 SGR

%
% X-Axis label:
%
gsave 2420 290 M 
[
[(Helvetica) 180 0 true true 0 (t)]
[(Helvetica) 180 0 true true 0 (i)]
[(Helvetica) 180 0 true true 0 (m)]
[(Helvetica) 180 0 true true 0 (e)]
] 0 MCshow grestore

%
% Y-Axis label:
%
gsave 234 2420 M 
currentpoint gsave translate 90 rotate 0 0 moveto
[
[(Helvetica) 180 0 true true 0 (d)]
[(Helvetica) 180 0 true true 0 (\()]
[(Helvetica) 180 0 true true 0 (s)]
[(Helvetica) 180 0 true true 0 (i)]
[(Helvetica) 180 0 true true 0 (g)]
[(Helvetica) 180 0 true true 0 (n)]
[(Helvetica) 180 0 true true 0 (a)]
[(Helvetica) 180 0 true true 0 (l)]
[(Helvetica) 180 0 true true 0 (\))]
[(Helvetica) 180 0 true true 0 ( )]
[(Helvetica) 180 0 true true 0 (/)]
[(Helvetica) 180 0 true true 0 ( )]
[(Helvetica) 180 0 true true 0 (d)]
[(Helvetica) 180 0 true true 0 (t)]
] 0 MCshow grestore

end
showpage
%%Trailer
%%EOF
