%!PS-Adobe-3.0 EPSF-3.0
%%BoundingBox: 0 0 514 550
%%Creator: BioKin Ltd.
%%DocumentFonts: Symbol Helvetica
%%EndComments
%
/bkdict 256 dict def
bkdict begin
/M {moveto} def 
/R {rmoveto} def
/L {lineto} def
/rL {rlineto} def
/GSN {gsave newpath} def
/SGR {stroke grestore} def
/COSGR {gsave setrgbcolor stroke grestore grestore} def
/SL {setlinewidth} def
/LWMB {12} def             % line width - model curves, black & white
/LWMC {10} def             % line width - model curves, color
/L2 {2.5 setlinewidth} def
/L5 {5 setlinewidth} def
/L10 {10 setlinewidth} def
/G50 {0.5 setgray} def
/SDA {[10  20] 0 setdash} def % axes
/helvT {/Helvetica findfont 100 scalefont setfont} def % tiny
/helvS {/Helvetica findfont 125 scalefont setfont} def % small
/helvM {/Helvetica findfont 150 scalefont setfont} def % medium
/helvL {/Helvetica findfont 175 scalefont setfont} def % large
/xlabel {gsave M dup
   stringwidth exch -0.5 mul exch rmoveto show grestore} def 
/ylabel {gsave M 90 rotate dup
   stringwidth exch -0.5 mul exch rmoveto show grestore} def
/ylabelresid {gsave M dup
   stringwidth exch -1 mul exch rmoveto show grestore} def
% ======
% Shapes
% ======
% Circle:
/Circ {0 360 arc closepath} def
%
% Square:
/Squa {dup dup -0.5 mul dup dup R -2 mul 0 exch rL 1 mul 0 rL dup 0 exch -1 mul rL closepath} def
%
% Triangle Up:
/TriU {dup dup dup -0.4 mul exch -0.5 mul exch R dup 0.5 mul exch rL dup -1 mul exch 0.5 mul exch rL closepath} def 
%
% Triangle Down:
/TriD {dup dup dup 0.4 mul exch -0.5 mul exch R dup 0.5 mul exch -1 mul rL dup 0.5 mul exch rL closepath} def 
%
% Diamond:
/Diam {45 rotate Squa} def
% ======
% Fills
% ======
/GRF {gsave setgray fill grestore} def                    % gray-level Fill
/COF {gsave setrgbcolor fill grestore} def                % color fill
% ======
% Colors
% ======
/C01 {1.00	0.00	0.00} def      % Red
/C02 {0.00	0.00	1.00} def      % Blue
/C03 {0.00	0.39	0.00} def      % Dark Green
/C04 {0.78	0.08	0.52} def      % Medium Violet Red
/C05 {0.55	0.27	0.07} def      % Saddle Brown
/C06 {0.10	0.70	0.70} def      % (cyan)
/C07 {1.00	0.55	0.00} def      % Dark Orange
/C08 {0.63	0.13	0.94} def      % Purple
/C09 {0.00	0.75	1.00} def      % Deep Sky Blue
/C10 {0.20	0.80	0.20} def      % Lime Green
/C11 {0.47	0.53	0.60} def      % Light Slate Gray
/C12 {0.00	0.00	0.00} def      % Black            % or: {0.19	0.31	0.31} def      % Dark Slate Gray
%
/LGR {0.75} def % light gray
/DGR {0.33} def % dark gray
%
% =============
% Dash patterns
% =============
/dash01 { [80  20] 0 setdash } def
/dash02 { [40  20] 0 setdash } def
/dash03 { [80  20  10  20] 0 setdash } def
/dash04 { [40  20  10  20] 0 setdash } def
/dash05 { [80  20  10  10  10  20] 0 setdash } def
/dash06 { [40  20  10  10  10  20] 0 setdash } def
/dash07 { [10  10] 0 setdash } def
%
/MFshow {
   { dup 5 get 3 ge
     { 5 get 3 eq {gsave} {grestore} ifelse }
     {dup dup 0 get findfont exch 1 get scalefont setfont
     [ currentpoint ] exch dup 2 get 0 exch R dup 5 get 2 ne {dup dup 6
     get exch 4 get {show} {stringwidth pop 0 R} ifelse }if dup 5 get 0 eq
     {dup 3 get {2 get neg 0 exch R pop} {pop aload pop M} ifelse} {dup 5
     get 1 eq {dup 2 get exch dup 3 get exch 6 get stringwidth pop -2 div
     dup 0 R} {dup 6 get stringwidth pop -2 div 0 R 6 get
     show 2 index {aload pop M neg 3 -1 roll neg R pop pop} {pop pop pop
     pop aload pop M} ifelse }ifelse }ifelse }
     ifelse }
   forall} bind def
/MFwidth {0 exch {dup 3 get{dup dup 0 get findfont exch 1 get scalefont
     setfont 6 get stringwidth pop add} {pop} ifelse} forall} bind def
/MCshow { currentpoint stroke M
  exch dup MFwidth -2 div 3 -1 roll R MFshow } def
%
end
%%EndProlog
bkdict begin
0.1 0.1 scale
%
% Residuals:
%
GSN 620 2274 M
620 2136 L
620 3009 L
620 2886 L
620 3514 L
620 3341 L
620 3587 L
620 3702 L
620 3605 L
620 3535 L
620 3883 L
620 3853 L
620 4263 L
620 3959 L
620 4147 L
620 4169 L
620 4250 L
620 4196 L
620 4150 L
620 4221 L
620 4042 L
620 4150 L
620 4460 L
620 4283 L
620 4192 L
620 4617 L
620 4437 L
620 4506 L
620 4441 L
620 4601 L
620 4505 L
620 4222 L
620 4616 L
620 4251 L
620 4746 L
620 4762 L
620 4292 L
620 4793 L
620 4101 L
620 4856 L
620 4580 L
620 4773 L
620 4413 L
620 4764 L
620 4723 L
620 4492 L
620 4469 L
620 4544 L
620 4757 L
620 4624 L
620 4574 L
620 4776 L
620 4549 L
620 4535 L
620 4568 L
620 4610 L
620 4466 L
620 4749 L
620 4650 L
620 4421 L
620 4401 L
620 4863 L
620 4307 L
620 4773 L
620 4340 L
620 4673 L
620 4171 L
620 4469 L
620 4138 L
620 4480 L
620 4520 L
620 4318 L
620 4290 L
620 4594 L
620 4105 L
620 4081 L
620 4604 L
620 4133 L
620 4142 L
620 4334 L
620 4645 L
620 4058 L
620 4043 L
620 4277 L
620 4264 L
620 4204 L
620 4338 L
620 4246 L
620 3963 L
620 3880 L
620 3773 L
620 3941 L
620 4006 L
620 4064 L
620 3581 L
620 3725 L
620 4083 L
620 3941 L
620 3535 L
620 4157 L
620 4042 L
620 3890 L
620 3912 L
620 3803 L
620 3870 L
620 3620 L
620 3342 L
620 3596 L
620 3485 L
620 3811 L
620 3798 L
620 3841 L
620 3732 L
620 3490 L
620 3479 L
620 3813 L
620 3317 L
620 3663 L
620 3145 L
620 3746 L
620 3316 L
620 3355 L
620 3469 L
620 3823 L
620 3518 L
620 3911 L
620 3846 L
620 3191 L
620 3564 L
620 3218 L
620 3613 L
620 3486 L
620 3328 L
620 2957 L
620 3653 L
620 3299 L
620 3392 L
620 3651 L
620 3784 L
620 3449 L
620 3462 L
620 3178 L
620 3233 L
620 3193 L
620 3439 L
620 3500 L
620 3647 L
620 3379 L
620 3681 L
620 3480 L
620 3408 L
620 3408 L
620 3301 L
620 3161 L
620 3308 L
620 3359 L
620 3290 L
620 3227 L
620 3420 L
620 3374 L
620 3455 L
620 3660 L
620 3727 L
620 3772 L
620 3426 L
620 3681 L
620 3977 L
620 3499 L
620 3568 L
620 3466 L
620 3854 L
620 3390 L
620 3449 L
620 3680 L
620 3703 L
620 3600 L
620 3358 L
620 3716 L
620 3752 L
620 3551 L
620 3438 L
620 3727 L
620 3697 L
620 3638 L
620 3306 L
620 3729 L
620 3521 L
620 3621 L
620 3410 L
620 4149 L
620 3844 L
620 3399 L
620 4037 L
620 3432 L
620 3747 L
620 4006 L
620 3761 L
620 3847 L
620 3884 L
620 4003 L
620 3859 L
620 4015 L
620 3309 L
620 3519 L
620 3817 L
620 3683 L
620 3706 L
620 3629 L
620 3770 L
620 3646 L
620 3719 L
620 3768 L
620 4003 L
620 3895 L
620 3804 L
620 3955 L
620 3663 L
620 3775 L
620 3605 L
620 3731 L
620 3705 L
620 4032 L
620 3842 L
620 3729 L
620 3737 L
620 3979 L
620 4269 L
620 3809 L
620 4012 L
620 3545 L
620 3777 L
620 3819 L
620 3846 L
620 3767 L
620 3990 L
620 4075 L
620 3885 L
620 4144 L
620 3725 L
620 3409 L
620 4035 L
620 3644 L
620 4161 L
620 4196 L
620 3948 L
620 3365 L
620 3920 L
620 4222 L
620 3982 L
620 3714 L
620 4023 L
620 4094 L
620 4254 L
620 3900 L
620 3912 L
620 4026 L
620 4111 L
620 3984 L
620 4042 L
620 3992 L
620 4031 L
620 3800 L
620 3924 L
620 4156 L
620 4002 L
620 3865 L
620 4005 L
620 3940 L
620 3912 L
620 3845 L
620 3532 L
620 3737 L
620 4029 L
620 4206 L
620 3999 L
620 4064 L
620 4195 L
620 3877 L
620 4131 L
620 4008 L
620 3882 L
620 4228 L
620 4143 L
620 4667 L
620 4305 L
620 4123 L
620 4108 L
620 3973 L
620 4336 L
620 4136 L
620 4454 L
620 4237 L
620 4561 L
620 4537 L
620 4481 L
620 4724 L
620 4513 L
620 4433 L
620 4508 L
620 4696 L
620 4636 L
620 4348 L
620 4689 L
620 4433 L
620 4405 L
620 4737 L
620 4110 L
620 4574 L
620 4401 L
620 4595 L
620 4698 L
620 4197 L
620 4258 L
620 4645 L
620 4732 L
620 4623 L
620 4311 L
620 3990 L
620 4567 L
620 4219 L
620 4152 L
620 4433 L
620 4674 L
620 4140 L
620 4302 L
620 4485 L
620 4321 L
620 4531 L
620 4550 L
620 4817 L
620 4589 L
620 4767 L
620 4246 L
620 4590 L
620 4445 L
620 4754 L
620 4230 L
620 4067 L
620 4012 L
620 4656 L
620 4334 L
620 4711 L
620 4431 L
620 4428 L
620 4467 L
620 4496 L
620 4480 L
620 4187 L
620 4297 L
620 4493 L
620 4503 L
620 4268 L
620 4098 L
620 4285 L
620 4308 L
620 4154 L
620 4158 L
620 4177 L
620 4232 L
620 4483 L
620 4497 L
620 4194 L
620 4365 L
620 3957 L
620 4160 L
620 4128 L
620 4372 L
620 4524 L
620 3935 L
620 4363 L
620 3987 L
620 3987 L
620 4045 L
620 4129 L
620 4039 L
620 4017 L
620 4203 L
620 4087 L
620 4322 L
620 3988 L
620 3991 L
620 4380 L
620 3892 L
620 4348 L
620 4059 L
620 4275 L
620 4146 L
620 4304 L
620 3953 L
620 4152 L
620 4024 L
620 3966 L
620 4079 L
620 4117 L
620 4317 L
620 3622 L
620 4346 L
620 3999 L
620 3928 L
620 4272 L
620 3877 L
620 4018 L
620 3967 L
620 3951 L
620 3954 L
620 3825 L
620 4314 L
620 3809 L
620 3889 L
620 3941 L
620 3793 L
620 3735 L
620 4009 L
620 4208 L
620 4006 L
620 4073 L
620 4154 L
620 4417 L
620 4099 L
620 4257 L
620 4466 L
620 4244 L
620 3954 L
620 4022 L
620 4379 L
620 4041 L
620 4029 L
620 3598 L
620 4334 L
620 3733 L
620 3971 L
620 4115 L
620 4000 L
620 3813 L
620 3964 L
620 4212 L
620 4154 L
620 4289 L
620 4434 L
620 3948 L
620 4524 L
620 4016 L
620 4074 L
620 3833 L
620 4077 L
620 3868 L
620 4186 L
620 3907 L
620 4109 L
620 3961 L
620 4067 L
620 4103 L
620 3865 L
620 4257 L
620 3797 L
620 4212 L
620 4087 L
620 4241 L
620 3945 L
620 3707 L
620 3814 L
620 3791 L
620 3994 L
620 4122 L
620 3994 L
620 3887 L
620 4345 L
620 3817 L
620 4389 L
620 4303 L
620 3492 L
620 3794 L
620 3955 L
620 4364 L
620 3836 L
620 4155 L
620 4126 L
620 3765 L
620 3592 L
620 3904 L
620 4003 L
620 4100 L
620 4126 L
620 3949 L
620 3988 L
620 4193 L
620 3814 L
620 3814 L
620 4158 L
620 4110 L
620 3971 L
620 3814 L
620 3959 L
620 4280 L
620 3721 L
620 3553 L
620 3624 L
620 4126 L
620 3997 L
620 3804 L
620 4296 L
620 4100 L
620 3843 L
620 3737 L
620 3795 L
620 3888 L
620 3946 L
620 3824 L
620 3695 L
620 4184 L
620 3820 L
620 3920 L
620 4332 L
620 3888 L
620 3563 L
620 4052 L
620 3650 L
620 4171 L
620 4081 L
620 3972 L
620 3785 L
620 4261 L
620 3721 L
620 4023 L
620 3898 L
620 4271 L
620 4030 L
620 3917 L
620 4020 L
620 4068 L
620 4223 L
620 3965 L
620 4033 L
L2 C02 COSGR

%
%================
% Legend - Begin
%================
%
GSN 4240 5180 M
4480 5180 L
LWMC SL  C02 COSGR
GSN 4540 5141 M helvM (1.0 uM) show grestore
%
%================
% Legend - End
%================
%

%
% Main frame
%
L10
GSN 
620 1700 M
4220 1700 L
4220 5300 L
620 5300 L
closepath SGR

%
% X axis: large tics
%
L10
%
% X axis: small tics
%
L5
%
% Y axis: large tics
%
L10
GSN 620 2747 M 54 0 rL SGR
GSN 4220 2747 M -54 0 rL SGR
helvS (-0.02) 560 2747 ylabel
GSN 620 4012 M 54 0 rL SGR
GSN 4220 4012 M -54 0 rL SGR
helvS (0) 560 4012 ylabel
GSN 620 5277 M 54 0 rL SGR
GSN 4220 5277 M -54 0 rL SGR
helvS (0.02) 560 5277 ylabel
%
% Y axis: small tics
%
L5
GSN 620 1799 M 36 0 rL SGR
GSN 4220 1799 M -36 0 rL SGR
GSN 620 2115 M 36 0 rL SGR
GSN 4220 2115 M -36 0 rL SGR
GSN 620 2431 M 36 0 rL SGR
GSN 4220 2431 M -36 0 rL SGR
GSN 620 2747 M 36 0 rL SGR
GSN 4220 2747 M -36 0 rL SGR
GSN 620 3064 M 36 0 rL SGR
GSN 4220 3064 M -36 0 rL SGR
GSN 620 3380 M 36 0 rL SGR
GSN 4220 3380 M -36 0 rL SGR
GSN 620 3696 M 36 0 rL SGR
GSN 4220 3696 M -36 0 rL SGR
GSN 620 4012 M 36 0 rL SGR
GSN 4220 4012 M -36 0 rL SGR
GSN 620 4328 M 36 0 rL SGR
GSN 4220 4328 M -36 0 rL SGR
GSN 620 4645 M 36 0 rL SGR
GSN 4220 4645 M -36 0 rL SGR
GSN 620 4961 M 36 0 rL SGR
GSN 4220 4961 M -36 0 rL SGR
GSN 620 5277 M 36 0 rL SGR
GSN 4220 5277 M -36 0 rL SGR

%
% X axis - residual panel
%
GSN L5 620 4012 M 4220 4012 L SDA G50 SGR

%
% X-Axis label:
%
gsave 620 1370 M 
[
[(Helvetica) 180 0 true true 0 (t)]
[(Helvetica) 180 0 true true 0 (i)]
[(Helvetica) 180 0 true true 0 (m)]
[(Helvetica) 180 0 true true 0 (e)]
] 0 MCshow grestore

%
% Y-Axis label:
%
gsave 234 3499 M 
currentpoint gsave translate 90 rotate 0 0 moveto
[
[(Helvetica) 180 0 true true 0 (r)]
[(Helvetica) 180 0 true true 0 (e)]
[(Helvetica) 180 0 true true 0 (s)]
[(Helvetica) 180 0 true true 0 (i)]
[(Helvetica) 180 0 true true 0 (d)]
[(Helvetica) 180 0 true true 0 (u)]
[(Helvetica) 180 0 true true 0 (a)]
[(Helvetica) 180 0 true true 0 (l)]
[(Helvetica) 180 0 true true 0 (s)]
] 0 MCshow grestore

end
showpage
%%Trailer
%%EOF
