%!PS-Adobe-3.0 EPSF-3.0
%%BoundingBox: 0 0 514 550
%%Creator: BioKin Ltd.
%%DocumentFonts: Symbol Helvetica
%%EndComments
%
/bkdict 256 dict def
bkdict begin
/M {moveto} def 
/R {rmoveto} def
/L {lineto} def
/rL {rlineto} def
/GSN {gsave newpath} def
/SGR {stroke grestore} def
/COSGR {gsave setrgbcolor stroke grestore grestore} def
/SL {setlinewidth} def
/LWMB {12} def             % line width - model curves, black & white
/LWMC {10} def             % line width - model curves, color
/L2 {2.5 setlinewidth} def
/L5 {5 setlinewidth} def
/L10 {10 setlinewidth} def
/G50 {0.5 setgray} def
/SDA {[10  20] 0 setdash} def % axes
/helvT {/Helvetica findfont 100 scalefont setfont} def % tiny
/helvS {/Helvetica findfont 125 scalefont setfont} def % small
/helvM {/Helvetica findfont 150 scalefont setfont} def % medium
/helvL {/Helvetica findfont 175 scalefont setfont} def % large
/xlabel {gsave M dup
   stringwidth exch -0.5 mul exch rmoveto show grestore} def 
/ylabel {gsave M 90 rotate dup
   stringwidth exch -0.5 mul exch rmoveto show grestore} def
/ylabelresid {gsave M dup
   stringwidth exch -1 mul exch rmoveto show grestore} def
% ======
% Shapes
% ======
% Circle:
/Circ {0 360 arc closepath} def
%
% Square:
/Squa {dup dup -0.5 mul dup dup R -2 mul 0 exch rL 1 mul 0 rL dup 0 exch -1 mul rL closepath} def
%
% Triangle Up:
/TriU {dup dup dup -0.4 mul exch -0.5 mul exch R dup 0.5 mul exch rL dup -1 mul exch 0.5 mul exch rL closepath} def 
%
% Triangle Down:
/TriD {dup dup dup 0.4 mul exch -0.5 mul exch R dup 0.5 mul exch -1 mul rL dup 0.5 mul exch rL closepath} def 
%
% Diamond:
/Diam {45 rotate Squa} def
% ======
% Fills
% ======
/GRF {gsave setgray fill grestore} def                    % gray-level Fill
/COF {gsave setrgbcolor fill grestore} def                % color fill
% ======
% Colors
% ======
/C01 {1.00	0.00	0.00} def      % Red
/C02 {0.00	0.00	1.00} def      % Blue
/C03 {0.00	0.39	0.00} def      % Dark Green
/C04 {0.78	0.08	0.52} def      % Medium Violet Red
/C05 {0.55	0.27	0.07} def      % Saddle Brown
/C06 {0.10	0.70	0.70} def      % (cyan)
/C07 {1.00	0.55	0.00} def      % Dark Orange
/C08 {0.63	0.13	0.94} def      % Purple
/C09 {0.00	0.75	1.00} def      % Deep Sky Blue
/C10 {0.20	0.80	0.20} def      % Lime Green
/C11 {0.47	0.53	0.60} def      % Light Slate Gray
/C12 {0.00	0.00	0.00} def      % Black            % or: {0.19	0.31	0.31} def      % Dark Slate Gray
%
/LGR {0.75} def % light gray
/DGR {0.33} def % dark gray
%
% =============
% Dash patterns
% =============
/dash01 { [80  20] 0 setdash } def
/dash02 { [40  20] 0 setdash } def
/dash03 { [80  20  10  20] 0 setdash } def
/dash04 { [40  20  10  20] 0 setdash } def
/dash05 { [80  20  10  10  10  20] 0 setdash } def
/dash06 { [40  20  10  10  10  20] 0 setdash } def
/dash07 { [10  10] 0 setdash } def
%
/MFshow {
   { dup 5 get 3 ge
     { 5 get 3 eq {gsave} {grestore} ifelse }
     {dup dup 0 get findfont exch 1 get scalefont setfont
     [ currentpoint ] exch dup 2 get 0 exch R dup 5 get 2 ne {dup dup 6
     get exch 4 get {show} {stringwidth pop 0 R} ifelse }if dup 5 get 0 eq
     {dup 3 get {2 get neg 0 exch R pop} {pop aload pop M} ifelse} {dup 5
     get 1 eq {dup 2 get exch dup 3 get exch 6 get stringwidth pop -2 div
     dup 0 R} {dup 6 get stringwidth pop -2 div 0 R 6 get
     show 2 index {aload pop M neg 3 -1 roll neg R pop pop} {pop pop pop
     pop aload pop M} ifelse }ifelse }ifelse }
     ifelse }
   forall} bind def
/MFwidth {0 exch {dup 3 get{dup dup 0 get findfont exch 1 get scalefont
     setfont 6 get stringwidth pop add} {pop} ifelse} forall} bind def
/MCshow { currentpoint stroke M
  exch dup MFwidth -2 div 3 -1 roll R MFshow } def
%
end
%%EndProlog
bkdict begin
0.1 0.1 scale
%
% Model curves:
%

GSN 753 4256 M
753 4256 L
786 4256 L
820 4256 L
853 4256 L
886 4256 L
920 4255 L
929 4255 L
953 4255 L
986 4255 L
1020 4255 L
1053 4255 L
1086 4254 L
1106 4254 L
1120 4254 L
1153 4254 L
1186 4253 L
1220 4253 L
1253 4253 L
1282 4252 L
1286 4252 L
1319 4251 L
1353 4251 L
1386 4250 L
1419 4249 L
1453 4248 L
1459 4248 L
1486 4247 L
1519 4246 L
1553 4245 L
1586 4244 L
1619 4242 L
1635 4241 L
1653 4240 L
1686 4239 L
1719 4237 L
1753 4234 L
1786 4232 L
1812 4230 L
1819 4229 L
1853 4226 L
1886 4223 L
1919 4219 L
1953 4215 L
1986 4211 L
1988 4210 L
2019 4205 L
2053 4199 L
2086 4193 L
2119 4185 L
2153 4177 L
2165 4173 L
2186 4167 L
2219 4156 L
2253 4144 L
2286 4130 L
2319 4114 L
2341 4103 L
2353 4096 L
2386 4076 L
2419 4054 L
2453 4029 L
2486 4000 L
2518 3971 L
2519 3969 L
2553 3934 L
2586 3895 L
2619 3853 L
2653 3805 L
2686 3754 L
2694 3740 L
2719 3698 L
2753 3637 L
2786 3571 L
2819 3501 L
2853 3427 L
2871 3385 L
2886 3348 L
2919 3267 L
2953 3184 L
2986 3099 L
3019 3014 L
3047 2944 L
3053 2930 L
3086 2850 L
3119 2774 L
3153 2705 L
3186 2643 L
3219 2592 L
3224 2586 L
3253 2551 L
3286 2523 L
3319 2508 L
3353 2506 L
3386 2516 L
3400 2525 L
3419 2538 L
3453 2570 L
3476 2597 L
3486 2610 L
3519 2654 L
3553 2700 L
3577 2732 L
3586 2744 L
3619 2784 L
3653 2818 L
3686 2845 L
3719 2865 L
3753 2879 L
3754 2879 L
3786 2887 L
3819 2891 L
3853 2893 L
3886 2894 L
3919 2895 L
3930 2895 L
3953 2895 L
3986 2895 L
4019 2895 L
4053 2895 L
4086 2895 L
4086 2895 L
LWMC SL  C01 COSGR

%
% Experimental data:
%
GSN 777 4839 M
1388 4617 L
1552 4451 L
1652 4663 L
1723 5051 L
1778 4451 L
1824 4320 L
1863 4601 L
1896 4617 L
1926 4333 L
1952 4520 L
1976 4671 L
1998 4714 L
2019 4697 L
2037 5038 L
2055 4834 L
2071 5166 L
2086 4778 L
2101 4708 L
2115 4751 L
2128 4654 L
2140 4558 L
2152 4821 L
2163 5005 L
2174 5054 L
2184 4513 L
2194 4537 L
2204 4791 L
2213 4580 L
2222 4325 L
2230 4531 L
2239 4593 L
2247 4440 L
2255 4764 L
2262 4553 L
2270 4521 L
2277 4590 L
2284 4295 L
2290 4582 L
2297 4772 L
2303 4561 L
2310 4577 L
2316 4512 L
2322 4295 L
2328 4620 L
2333 4467 L
2339 4400 L
2344 4542 L
2350 4271 L
2355 4330 L
2360 4486 L
2365 4156 L
2370 4357 L
2375 4491 L
2380 4405 L
2384 4186 L
2389 4400 L
2393 4239 L
2398 4258 L
2402 4403 L
2407 4681 L
2411 4397 L
2415 4397 L
2419 4314 L
2423 4416 L
2427 4250 L
2431 4049 L
2435 4277 L
2438 4148 L
2442 4258 L
2446 4432 L
2449 4218 L
2453 4303 L
2456 4665 L
2460 4218 L
2463 4504 L
2467 4127 L
2470 4191 L
2473 4170 L
2476 4689 L
2480 4432 L
2483 3974 L
2486 4397 L
2489 4242 L
2492 4124 L
2495 4488 L
2498 4226 L
2501 4293 L
2504 4285 L
2507 4456 L
2510 4129 L
2512 4118 L
2515 4553 L
2518 4411 L
2521 4255 L
2523 4279 L
2526 4202 L
2529 4164 L
2531 4566 L
2534 3928 L
2536 4188 L
2539 3961 L
2541 4360 L
2544 4542 L
2546 4454 L
2549 4027 L
2551 4296 L
2554 4167 L
2556 4269 L
2558 4362 L
2561 4094 L
2563 4191 L
2565 3998 L
2568 4180 L
2570 3733 L
2572 4196 L
2574 4467 L
2576 4346 L
2579 4515 L
2581 3993 L
2583 3974 L
2585 4330 L
2587 4427 L
2589 4151 L
2591 4298 L
2593 4245 L
2595 4231 L
2597 4223 L
2599 4046 L
2601 3998 L
2603 4392 L
2605 4068 L
2607 3918 L
2609 4338 L
2611 3700 L
2613 4172 L
2615 4301 L
2617 4352 L
2618 4159 L
2620 4341 L
2622 4309 L
2624 3832 L
2626 3944 L
2627 4014 L
2629 3880 L
2631 4079 L
2633 4204 L
2634 3642 L
2636 4003 L
2638 4076 L
2640 3931 L
2641 3800 L
2643 4164 L
2645 4140 L
2646 3998 L
2648 3601 L
2650 3869 L
2651 4033 L
2653 4052 L
2654 3963 L
2656 3786 L
2658 3816 L
2659 3993 L
2661 4188 L
2662 3709 L
2664 3818 L
2665 3979 L
2667 4320 L
2668 3792 L
2670 4049 L
2671 4076 L
2673 3966 L
2674 3714 L
2676 3754 L
2677 3757 L
2679 4062 L
2680 3695 L
2682 3939 L
2683 4119 L
2685 3773 L
2686 3888 L
2687 3880 L
2689 4030 L
2690 3880 L
2692 3738 L
2693 3901 L
2694 3853 L
2696 3810 L
2697 3864 L
2698 4156 L
2700 3993 L
2701 3877 L
2702 3618 L
2704 3918 L
2705 3604 L
2706 3974 L
2708 3910 L
2709 4191 L
2710 3837 L
2712 3754 L
2713 4103 L
2714 3607 L
2715 3767 L
2717 3867 L
2718 3987 L
2719 4293 L
2720 3982 L
2722 3818 L
2723 3899 L
2724 3776 L
2725 3692 L
2726 3802 L
2728 3564 L
2729 3869 L
2730 3717 L
2731 3819 L
2732 3575 L
2734 3580 L
2735 3832 L
2736 3561 L
2737 3478 L
2738 3966 L
2739 3813 L
2741 3802 L
2742 3478 L
2743 3628 L
2744 3883 L
2745 3532 L
2746 3580 L
2747 3582 L
2748 3489 L
2749 3802 L
2751 3872 L
2752 4084 L
2753 3500 L
2754 3778 L
2755 3599 L
2756 3583 L
2757 3819 L
2758 3703 L
2759 3792 L
2760 3754 L
2761 3291 L
2762 3583 L
2763 3775 L
2764 3714 L
2765 3808 L
2767 3518 L
2768 3540 L
2769 3588 L
2770 3805 L
2771 3449 L
2772 3368 L
2773 3537 L
2774 3955 L
2775 3888 L
2776 3575 L
2777 3355 L
2778 3837 L
2779 3342 L
2780 3435 L
2781 3666 L
2782 3486 L
2783 3518 L
2783 3744 L
2784 2996 L
2785 3687 L
2786 3553 L
2787 3693 L
2788 3800 L
2789 3253 L
2790 3534 L
2791 3942 L
2792 3537 L
2793 3714 L
2794 3513 L
2795 3526 L
2796 3226 L
2797 3288 L
2798 3521 L
2798 3692 L
2799 3323 L
2800 3816 L
2801 3392 L
2802 3419 L
2803 3899 L
2804 3433 L
2805 3269 L
2806 3569 L
2807 3288 L
2807 3513 L
2808 3194 L
2809 3502 L
2810 3398 L
2811 3451 L
2812 3368 L
2813 3491 L
2813 3634 L
2814 3759 L
2815 3146 L
2816 3229 L
2817 3518 L
2818 3599 L
2819 3074 L
2819 3242 L
2820 3647 L
2821 3301 L
2822 3492 L
2823 3502 L
2824 3293 L
2824 3181 L
2825 3269 L
2826 3068 L
2827 3551 L
2828 3173 L
2828 3336 L
2829 3535 L
2830 3497 L
2831 3419 L
2832 3497 L
2832 3636 L
2833 3708 L
2834 3403 L
2835 3596 L
2836 3411 L
2836 3548 L
2837 3116 L
2838 3382 L
2839 3269 L
2840 3551 L
2840 3146 L
2841 3516 L
2842 3470 L
2843 3639 L
2843 3569 L
2844 3398 L
2845 3401 L
2846 3307 L
2846 3218 L
2847 3457 L
2848 3371 L
2849 3510 L
2849 3642 L
2850 3454 L
2851 2972 L
2852 3210 L
2852 3422 L
2853 3460 L
2854 3258 L
2855 3189 L
2855 3165 L
2856 3510 L
2857 3499 L
2857 2929 L
2858 3371 L
2859 3513 L
2860 3347 L
2860 3167 L
2861 3331 L
2862 3215 L
2862 3280 L
2863 3344 L
2864 3465 L
2865 3323 L
2865 3111 L
2866 3384 L
2867 3387 L
2867 3371 L
2868 3095 L
2869 2905 L
2869 3140 L
2870 3277 L
2871 3467 L
2871 3269 L
2872 3146 L
2873 3363 L
2873 3446 L
2874 3290 L
2875 3395 L
2876 3510 L
2876 3374 L
2877 3213 L
2878 3240 L
2878 3529 L
2879 3285 L
2880 3325 L
2880 2972 L
2881 3022 L
2881 3114 L
2882 3390 L
2883 3237 L
2883 2958 L
2884 2832 L
2885 3076 L
2885 3285 L
2886 3242 L
2887 3280 L
2887 3189 L
2888 3232 L
2889 2993 L
2889 3317 L
2892 3001 L
2894 3288 L
2897 3376 L
2899 3312 L
2902 3068 L
2904 3186 L
2907 2972 L
2909 2921 L
2911 3138 L
2914 3023 L
2916 3022 L
2918 2754 L
2921 3119 L
2923 3307 L
2925 3111 L
2927 3492 L
2929 3344 L
2932 3218 L
2934 3387 L
2936 3210 L
2938 3098 L
2940 3017 L
2942 2722 L
2944 2867 L
2946 3138 L
2948 2964 L
2950 3197 L
2952 3041 L
2954 2942 L
2956 3170 L
2958 2932 L
2960 3143 L
2962 3023 L
2964 2862 L
2966 3192 L
2968 2921 L
2970 2934 L
2971 3071 L
2973 2701 L
2975 2757 L
2977 3098 L
2979 2779 L
2980 2985 L
2982 3031 L
2984 2838 L
2986 2881 L
2987 2848 L
2989 2862 L
2991 2556 L
2993 2902 L
2994 3001 L
2996 2878 L
2998 2990 L
2999 2537 L
3001 3312 L
3003 2993 L
3004 2816 L
3006 2886 L
3007 2795 L
3009 2765 L
3011 2596 L
3012 2519 L
3014 2846 L
3015 2629 L
3017 2425 L
3018 3181 L
3020 2891 L
3021 2806 L
3023 2720 L
3024 3065 L
3026 2803 L
3027 2747 L
3029 2870 L
3030 2610 L
3032 2674 L
3033 2650 L
3035 2851 L
3036 2688 L
3038 2449 L
3039 2918 L
3040 2840 L
3042 2698 L
3043 2599 L
3045 2685 L
3046 2532 L
3047 2704 L
3049 2535 L
3050 2747 L
3051 2575 L
3053 2883 L
3054 2422 L
3055 2722 L
3057 2350 L
3058 2430 L
3059 2771 L
3061 2921 L
3062 2897 L
3063 2529 L
3065 2701 L
3066 2607 L
3067 2787 L
3068 2441 L
3070 2736 L
3071 2564 L
3072 2455 L
3073 2725 L
3075 2396 L
3076 2347 L
3077 2728 L
3078 2768 L
3079 2535 L
3081 2500 L
3082 2789 L
3083 2704 L
3084 2618 L
3085 2358 L
3087 2503 L
3088 2527 L
3089 2661 L
3090 2114 L
3091 2562 L
3092 2492 L
3094 2548 L
3095 2436 L
3096 2570 L
3097 2414 L
3098 2457 L
3099 2291 L
3100 2259 L
3101 2613 L
3103 2720 L
3104 2613 L
3105 2690 L
3106 2479 L
3107 2149 L
3108 2677 L
3109 2489 L
3110 2302 L
3111 2240 L
3112 2661 L
3113 2645 L
3114 2538 L
3115 2629 L
3116 2602 L
3117 2452 L
3119 2575 L
3120 2342 L
3121 2334 L
3122 2294 L
3123 2725 L
3124 2653 L
3125 2623 L
3126 2639 L
3127 2773 L
3128 2291 L
3129 2417 L
3130 2455 L
3131 2596 L
3132 2717 L
3133 2760 L
3134 2717 L
3135 2792 L
3136 2307 L
3136 2342 L
3137 2747 L
3138 2637 L
3139 2406 L
3140 2615 L
3141 2706 L
3142 2645 L
3143 2696 L
3144 2463 L
3145 2350 L
3146 2387 L
3147 2479 L
3148 2189 L
3149 2444 L
3150 2551 L
3151 2321 L
3151 2492 L
3152 2304 L
3153 2508 L
3154 2497 L
3155 2460 L
3156 2532 L
3157 2380 L
3158 2393 L
3159 2503 L
3160 2152 L
3160 2363 L
3161 2288 L
3162 2524 L
3163 2570 L
3164 2535 L
3165 2433 L
3166 2476 L
3166 2355 L
3167 2125 L
3168 2205 L
3169 2532 L
3170 2130 L
3171 2224 L
3172 2690 L
3172 2436 L
3173 2505 L
3174 2334 L
3175 2350 L
3176 2428 L
3177 2409 L
3177 2479 L
3178 2446 L
3179 2479 L
3180 2216 L
3181 2562 L
3181 2189 L
3182 2307 L
3183 2701 L
3184 2468 L
3185 2447 L
3185 2393 L
3186 2382 L
3187 2591 L
3188 2492 L
3189 2345 L
3189 2345 L
3190 2610 L
3191 2211 L
3192 2205 L
3193 2355 L
3193 2165 L
3194 2602 L
3195 2380 L
3196 2538 L
3196 2176 L
3197 2313 L
3198 2465 L
3199 2425 L
3199 2294 L
3200 2270 L
3201 2548 L
3202 2430 L
3202 2468 L
3203 2270 L
3204 2562 L
3205 2203 L
3205 2133 L
3206 2594 L
3207 2331 L
3208 2382 L
3208 2439 L
3209 2353 L
3210 2122 L
3210 2136 L
3211 2195 L
3212 2219 L
3213 2725 L
3213 2050 L
3214 2489 L
3215 2216 L
3215 2240 L
3216 2288 L
3217 2366 L
3218 2674 L
3218 2235 L
3219 2171 L
3220 2393 L
3220 2559 L
3221 2369 L
3222 2481 L
3222 2337 L
3223 2122 L
3224 2446 L
3224 2508 L
3225 2487 L
3226 2288 L
3227 2462 L
3227 2886 L
3228 2733 L
3229 2361 L
3229 2221 L
3230 2109 L
3231 2487 L
3231 2310 L
3232 2178 L
3233 2240 L
3233 2465 L
3234 2514 L
3235 2321 L
3235 2329 L
3236 2449 L
3236 2401 L
3237 2307 L
3238 2519 L
3238 2404 L
3239 2173 L
3240 1833 L
3240 2366 L
3241 2334 L
3242 2481 L
3242 2339 L
3243 2377 L
3244 2353 L
3244 2213 L
3245 2666 L
3245 2138 L
3246 2618 L
3247 2227 L
3247 2481 L
3248 2554 L
3249 2194 L
3249 2047 L
3250 2385 L
3250 2119 L
3251 2203 L
3252 2251 L
3252 2487 L
3253 2267 L
3253 2361 L
3254 2120 L
3255 2203 L
3255 2251 L
3256 1961 L
3257 2010 L
3257 2334 L
3258 2165 L
3258 2589 L
3259 2693 L
3259 2197 L
3260 2390 L
3261 2117 L
3261 2093 L
3262 2374 L
3262 2256 L
3263 2171 L
3264 2157 L
3264 2230 L
3265 2347 L
3265 2430 L
3266 2658 L
3267 2130 L
3267 2101 L
3268 2299 L
3268 2310 L
3269 2237 L
3269 2296 L
3270 2339 L
3271 2417 L
3271 2280 L
3272 2396 L
3272 2390 L
3273 2328 L
3273 2138 L
3274 2589 L
3275 2570 L
3275 2181 L
3276 2240 L
3276 2396 L
3277 2272 L
3277 2409 L
3278 2380 L
3278 2259 L
3279 2546 L
3280 2438 L
3280 2570 L
3281 2650 L
3281 2291 L
3282 2318 L
3282 2302 L
3283 2165 L
3283 2189 L
3284 2532 L
3284 2245 L
3285 2492 L
3285 2578 L
3286 2122 L
3287 2187 L
3287 2334 L
3288 2529 L
3288 2211 L
3289 2149 L
3289 2508 L
3290 2444 L
3290 2401 L
3291 2548 L
3291 2473 L
3292 1900 L
3292 2508 L
3293 2197 L
3293 2122 L
3294 2288 L
3294 2219 L
3295 2564 L
3295 2685 L
3296 2377 L
3297 2280 L
3297 2436 L
3298 2283 L
3298 2326 L
3299 2516 L
3299 2677 L
3300 2342 L
3300 2227 L
3301 2310 L
3301 2661 L
3302 2583 L
3302 2254 L
3303 2524 L
3303 2639 L
3304 2444 L
3304 2082 L
3305 2594 L
3305 2463 L
3306 2321 L
3306 2604 L
3307 2425 L
3307 2436 L
3308 2286 L
3308 2556 L
3309 2393 L
3309 2179 L
3310 2406 L
3310 2230 L
3311 2572 L
3311 2505 L
3312 2398 L
3312 2527 L
3312 2543 L
3313 2380 L
3313 2615 L
3314 2396 L
3314 2784 L
3315 2795 L
3315 2345 L
3316 2567 L
3316 2374 L
3317 2310 L
3317 2339 L
3318 2696 L
3318 2256 L
3319 2414 L
3319 2286 L
3320 2519 L
3320 2591 L
3321 2519 L
3321 2412 L
3321 2168 L
3322 2447 L
3322 2465 L
3323 2666 L
3323 2543 L
3324 2556 L
3324 2650 L
3325 2299 L
3325 2481 L
3326 2189 L
3326 2545 L
3327 2406 L
3327 2538 L
3327 2385 L
3328 2642 L
3328 2497 L
3329 2203 L
3329 2551 L
3330 2422 L
3330 2623 L
3331 2326 L
3331 2567 L
3332 2548 L
3332 2572 L
3332 2463 L
3333 2414 L
3333 2425 L
3334 2715 L
3334 2288 L
3335 2765 L
3335 2599 L
3336 2583 L
3336 2071 L
3336 2639 L
3337 1953 L
3337 2328 L
3338 2653 L
3338 2468 L
3339 2396 L
3339 2270 L
3339 2361 L
3340 2253 L
3340 2632 L
3341 2564 L
3341 2556 L
3342 2283 L
3342 2653 L
3343 2154 L
3343 2409 L
3343 2283 L
3344 2551 L
3344 2304 L
3345 2385 L
3345 2020 L
3346 2361 L
3346 2765 L
3346 2428 L
3347 2192 L
3347 2441 L
3348 2379 L
3348 2473 L
3348 2404 L
3349 2704 L
3349 2294 L
3350 2369 L
3350 2396 L
3351 2393 L
3351 2149 L
3351 2489 L
3352 2473 L
3352 2296 L
3353 2315 L
3353 2543 L
3353 2270 L
3354 2007 L
3354 2720 L
3355 2404 L
3355 2414 L
3355 2313 L
3356 2503 L
3356 2674 L
3357 2645 L
3357 2339 L
3358 2106 L
3358 2621 L
3358 2406 L
3359 2321 L
3359 2505 L
3360 2334 L
3360 3114 L
3360 2286 L
3361 2385 L
3361 2406 L
3362 2288 L
3362 2409 L
3362 2610 L
3363 2605 L
3363 2806 L
3364 2323 L
3364 2961 L
3364 2666 L
3365 2639 L
3365 2508 L
3365 2436 L
3366 2149 L
3366 2503 L
3367 2570 L
3367 2275 L
3367 2540 L
3368 2690 L
3368 2270 L
3369 2685 L
3369 2433 L
3369 2578 L
3370 2570 L
3370 2645 L
3371 2353 L
3371 2246 L
3371 2672 L
3372 2170 L
3372 2730 L
3372 2197 L
3373 2377 L
3373 2439 L
3374 2540 L
3374 2280 L
3374 2575 L
3375 2645 L
3375 2605 L
3375 2615 L
3376 2519 L
3376 2578 L
3377 2580 L
3377 2537 L
3377 2573 L
3378 2401 L
3378 2752 L
3378 2331 L
3379 2537 L
3379 2272 L
3380 2712 L
3380 2763 L
3380 2725 L
3381 2302 L
3381 2570 L
3381 2575 L
3382 2704 L
3382 2259 L
3383 2385 L
3383 2366 L
3383 2379 L
3384 2473 L
3384 2674 L
3384 2334 L
3385 2417 L
3385 2430 L
3385 2500 L
3386 2514 L
3386 2543 L
3387 2439 L
3387 2270 L
3387 2771 L
3388 2500 L
3388 2570 L
3388 2556 L
3389 2559 L
3389 2856 L
3389 2224 L
3390 2277 L
3390 2615 L
3391 2685 L
3391 2455 L
3391 2465 L
3392 2522 L
3392 2302 L
3392 2535 L
3393 2379 L
3393 2567 L
3393 2543 L
3394 2374 L
3394 2460 L
3394 2527 L
3395 1900 L
3395 2685 L
3395 2361 L
3396 2720 L
3396 2363 L
3396 2495 L
3397 2497 L
3397 2733 L
3398 2674 L
3398 2564 L
3398 2328 L
3399 2733 L
3399 2645 L
3399 2559 L
3400 2623 L
3400 2942 L
3400 2808 L
3401 2305 L
3401 2514 L
3401 2642 L
3402 2797 L
3402 2647 L
3402 2645 L
3403 2848 L
3403 2674 L
3403 2776 L
3404 2637 L
3404 2516 L
3404 2409 L
3405 2596 L
3405 2918 L
3405 2208 L
3406 2666 L
3406 2800 L
3406 2556 L
3407 2412 L
3407 2417 L
3407 2886 L
3408 2594 L
3408 2377 L
3408 2784 L
3409 2500 L
3409 2768 L
3409 2570 L
3410 2460 L
3410 2618 L
3410 2693 L
3411 2714 L
3411 2722 L
3411 2554 L
3412 2396 L
3412 2422 L
3412 2749 L
3413 2251 L
3413 2516 L
3413 2709 L
3414 2709 L
3414 2757 L
3414 2714 L
3415 2765 L
3415 2891 L
3415 2465 L
3416 2964 L
3416 2621 L
3416 2444 L
3417 2390 L
3417 2465 L
3417 2589 L
3417 2629 L
3418 2310 L
3418 2524 L
3418 2473 L
3419 2655 L
3419 2492 L
3419 2607 L
3420 2417 L
3420 2685 L
3420 2924 L
3421 2707 L
3421 2642 L
3421 2736 L
3422 2235 L
3422 2797 L
3422 2353 L
3423 2830 L
3423 2814 L
3423 2240 L
3423 2511 L
3424 2629 L
3424 3007 L
3424 2567 L
3425 2733 L
3425 2554 L
3425 2731 L
3426 2682 L
3426 2586 L
3426 2505 L
3427 2824 L
3427 2650 L
3427 2655 L
3428 2655 L
3428 2559 L
3428 2473 L
3428 2875 L
3429 2696 L
3429 2436 L
3429 2610 L
3430 2859 L
3430 2262 L
3430 2602 L
3431 2224 L
3431 2205 L
3431 2291 L
3431 2578 L
3432 2387 L
3432 2838 L
3432 2345 L
3433 2548 L
3433 2642 L
3433 2792 L
3434 2835 L
3434 2575 L
3434 2747 L
3434 2787 L
3435 2894 L
3435 2465 L
3435 2556 L
3436 2926 L
3436 2374 L
3436 2599 L
3437 2251 L
3437 2733 L
3437 2891 L
3437 2430 L
3438 2535 L
3438 2787 L
3438 2717 L
3439 2725 L
3439 2669 L
3439 2596 L
3440 2546 L
3440 2760 L
3440 2696 L
3440 2605 L
3441 2736 L
3441 2883 L
3441 2476 L
3442 2562 L
3442 2886 L
3442 2575 L
3442 3009 L
3443 2280 L
3443 2559 L
3443 2771 L
3444 2527 L
3444 2701 L
3444 2578 L
3444 2650 L
3445 2548 L
3445 2637 L
3445 2843 L
3446 2776 L
3446 2554 L
3446 2714 L
3446 2640 L
3447 2441 L
3447 2275 L
3447 2755 L
3448 2545 L
3448 2905 L
3448 2489 L
3448 2339 L
3449 2500 L
3449 2851 L
3449 2575 L
3450 2639 L
3450 2859 L
3450 2476 L
3450 2406 L
3451 2752 L
3451 2881 L
3451 2556 L
3452 2460 L
3452 2559 L
3452 2765 L
3452 2529 L
3453 2604 L
3453 2666 L
3453 2776 L
3454 2503 L
3454 3063 L
3454 2816 L
3454 2605 L
3455 2548 L
3455 2444 L
3455 3052 L
3455 2768 L
3456 2599 L
3456 2832 L
3456 2602 L
3457 2784 L
3457 2878 L
3457 2677 L
3457 2439 L
3458 2755 L
3458 2813 L
3458 2947 L
3458 2481 L
3459 2784 L
3459 3135 L
3459 2339 L
3460 2661 L
3460 2712 L
3460 2824 L
3460 2720 L
3461 2677 L
3461 2350 L
3461 2915 L
3461 2634 L
3462 2548 L
3462 2846 L
3462 2816 L
3463 2811 L
3463 2586 L
3463 2714 L
3463 3009 L
3464 2586 L
3464 2462 L
3464 2254 L
3464 2972 L
3465 2889 L
3465 2645 L
3465 2953 L
3465 2706 L
3466 2731 L
3466 2205 L
3466 2433 L
3466 3063 L
3467 2631 L
3467 2894 L
3467 2950 L
3468 2629 L
3468 2781 L
3468 2717 L
3468 2827 L
3469 2717 L
3469 2538 L
3469 2575 L
3469 2586 L
3470 2446 L
3470 2685 L
3470 2629 L
3470 2503 L
3471 2439 L
3471 2690 L
3471 2897 L
3471 2864 L
3472 2682 L
3472 2393 L
3472 2773 L
3472 2806 L
3473 2926 L
3473 2680 L
3473 3084 L
3474 2969 L
3474 2846 L
3474 2546 L
3474 2481 L
3475 2969 L
3475 2465 L
3475 2583 L
3475 2599 L
3476 2355 L
3476 3162 L
3476 2420 L
3476 2843 L
3477 2873 L
3477 2532 L
3477 2897 L
3477 2674 L
3478 2363 L
3478 2709 L
3478 2323 L
3478 2621 L
3479 2956 L
3479 2776 L
3479 2934 L
3479 2468 L
3480 3033 L
3480 2854 L
3480 3017 L
3480 2599 L
3481 3140 L
3481 2661 L
3481 2921 L
3481 2934 L
3482 2974 L
3482 2937 L
3482 2463 L
3482 3063 L
3483 2725 L
3483 2856 L
3483 2720 L
3483 2500 L
3484 3068 L
3484 2980 L
3484 2795 L
3484 2760 L
3485 2414 L
3485 2816 L
3485 2824 L
3485 2642 L
3486 3098 L
3486 2819 L
3486 2693 L
3486 2760 L
3487 2677 L
3487 3039 L
3487 2642 L
3487 2948 L
3488 2752 L
3488 2787 L
3488 2736 L
3488 3009 L
3488 2682 L
3489 2838 L
3489 2757 L
3489 2377 L
3489 3074 L
3490 2337 L
3490 2790 L
3490 2763 L
3490 2404 L
3491 2690 L
3491 3170 L
3491 2736 L
3491 2822 L
3492 3009 L
3492 2803 L
3492 3033 L
3492 2848 L
3493 2503 L
3493 3100 L
3493 2811 L
3493 3020 L
3494 2870 L
3494 2537 L
3494 2755 L
3494 2645 L
3494 3023 L
3495 2806 L
3495 2607 L
3495 3090 L
3495 2921 L
3496 2953 L
3496 2760 L
3496 2669 L
3496 2910 L
3497 2672 L
3497 2897 L
3497 2674 L
3497 2674 L
3498 2476 L
3498 2634 L
3498 2559 L
3498 2945 L
3498 2707 L
3499 2757 L
3499 2800 L
3499 2974 L
3499 2650 L
3500 2672 L
3500 2535 L
3506 2843 L
3511 2846 L
3517 2864 L
3522 2377 L
3527 2669 L
3532 2827 L
3537 2763 L
3542 3151 L
3547 3141 L
3552 2856 L
3557 2784 L
3561 2701 L
3566 2797 L
3570 2929 L
3575 2787 L
3579 2602 L
3583 2862 L
3587 3237 L
3591 2629 L
3595 2666 L
3599 3127 L
3603 2731 L
3607 2696 L
3611 2923 L
3614 3004 L
3618 3068 L
3622 2738 L
3625 2800 L
3629 2516 L
3632 2618 L
3636 2958 L
3639 2840 L
3642 3390 L
3646 2972 L
3649 2953 L
3652 2848 L
3655 2752 L
3658 3025 L
3661 2623 L
3664 3071 L
3667 3033 L
3670 2835 L
3673 2781 L
3676 2615 L
3679 2931 L
3682 3017 L
3685 3398 L
3688 3232 L
3690 2937 L
3693 2830 L
3696 2934 L
3698 2972 L
3701 3157 L
3704 2631 L
3706 3025 L
3709 2535 L
3711 2873 L
3714 3012 L
3716 2958 L
3719 3057 L
3721 2709 L
3724 2990 L
3726 2870 L
3728 3320 L
3731 2982 L
3733 3194 L
3735 2773 L
3738 3025 L
3740 3159 L
3742 3140 L
3744 2848 L
3747 2789 L
3749 2712 L
3751 2744 L
3753 3205 L
3755 2602 L
3757 2980 L
3760 2832 L
3762 3157 L
3764 2822 L
3766 2838 L
3768 3036 L
3770 2744 L
3772 3127 L
3774 2948 L
3776 2865 L
3778 3047 L
3780 3039 L
3781 2610 L
3783 2797 L
3785 2677 L
3787 2926 L
3789 3049 L
3791 3146 L
3793 3060 L
3795 2886 L
3796 2830 L
3798 3049 L
3800 3127 L
3802 2589 L
3803 3039 L
3805 2642 L
3807 2969 L
3809 2913 L
3810 2776 L
3812 2980 L
3814 2763 L
3816 2698 L
3817 2990 L
3819 2784 L
3820 2926 L
3822 3194 L
3824 3269 L
3825 3226 L
3827 2827 L
3829 2765 L
3830 2913 L
3832 2776 L
3833 3071 L
3835 3092 L
3836 3052 L
3838 2830 L
3839 3208 L
3841 2674 L
3842 2806 L
3844 2926 L
3845 3135 L
3847 3031 L
3848 2958 L
3850 3001 L
3851 2953 L
3853 2621 L
3854 2945 L
3856 2765 L
3857 3264 L
3859 2886 L
3860 3181 L
3861 2763 L
3863 3197 L
3864 2878 L
3866 3143 L
3867 3028 L
3868 2792 L
3870 3186 L
3871 2918 L
3872 2926 L
3874 2934 L
3875 2730 L
3876 2990 L
3878 2875 L
3879 3004 L
3880 2548 L
3882 2728 L
3883 3151 L
3884 3060 L
3885 3031 L
3887 2830 L
3888 2730 L
3889 3108 L
3890 2749 L
3892 3020 L
3893 2706 L
3894 2747 L
3895 2720 L
3897 2819 L
3898 2725 L
3899 3349 L
3900 2524 L
3901 2881 L
3903 2883 L
3904 3173 L
3905 3267 L
3906 3132 L
3907 2931 L
3908 2897 L
3910 2637 L
3911 3023 L
3912 2824 L
3913 2803 L
3914 2856 L
3915 2645 L
3917 2937 L
3918 2854 L
3919 3175 L
3920 2875 L
3921 2615 L
3922 2607 L
3923 3194 L
3924 2846 L
3925 3041 L
3926 3023 L
3928 3162 L
3929 2610 L
3930 2787 L
3931 2634 L
3932 2966 L
3933 2760 L
3934 3025 L
3935 2956 L
3936 3237 L
3937 2744 L
3938 3020 L
3939 2771 L
3940 2765 L
3941 3312 L
3942 3020 L
3943 2816 L
3944 2942 L
3945 3028 L
3946 2781 L
3947 2747 L
3948 2634 L
3949 2776 L
3950 2940 L
3951 3044 L
3952 2875 L
3953 2792 L
3954 2819 L
3955 3057 L
3956 2473 L
3957 2712 L
3958 2797 L
3959 3296 L
3960 3020 L
3961 2883 L
3962 3055 L
3963 2929 L
3964 2851 L
3965 2918 L
3966 3213 L
3966 2961 L
3967 2819 L
3968 2864 L
3969 2752 L
3970 2709 L
3971 2851 L
3972 3031 L
3973 2599 L
3974 3028 L
3975 2586 L
3976 2618 L
3976 2990 L
3977 2859 L
3978 2910 L
3979 2803 L
3980 2851 L
3981 2792 L
3982 2822 L
3983 2835 L
3983 3004 L
3984 2953 L
3985 2449 L
3986 2996 L
3987 2685 L
3988 3261 L
3989 2982 L
3989 3044 L
3990 3028 L
3991 2755 L
3992 2859 L
3993 3001 L
3994 2736 L
3995 2760 L
3995 2674 L
3996 2597 L
3997 2747 L
3998 2894 L
3999 2806 L
3999 2827 L
4000 2843 L
4001 2854 L
4002 3183 L
4003 3108 L
4003 2739 L
4004 2886 L
4005 2891 L
4006 3076 L
4007 3049 L
4007 2824 L
4008 3119 L
4009 2985 L
4010 3020 L
4011 3095 L
4011 2929 L
4012 2784 L
4013 3234 L
4014 2787 L
4014 2580 L
4015 2787 L
4016 2851 L
4017 2736 L
4017 2645 L
4018 2760 L
4019 2578 L
4020 2763 L
4021 3071 L
4021 2899 L
4022 3071 L
4023 2763 L
4023 2674 L
4024 2950 L
4025 3041 L
4026 2797 L
4026 2771 L
4027 3047 L
4028 3049 L
4029 2886 L
4029 3092 L
4030 3119 L
4031 2899 L
4032 2795 L
4032 2832 L
4033 2677 L
4034 2988 L
4034 2720 L
4035 2806 L
4036 2958 L
4036 2843 L
4037 2696 L
4038 2999 L
4039 2765 L
4039 2712 L
4040 2838 L
4041 2655 L
4041 2822 L
4042 2870 L
4043 2918 L
4043 2830 L
4044 2913 L
4045 2931 L
4045 3041 L
4046 2939 L
4047 2797 L
4047 2872 L
4048 3157 L
4049 2824 L
4050 2519 L
4050 2621 L
4051 3017 L
4052 2771 L
4052 2414 L
4053 2937 L
4053 2797 L
4054 2953 L
4055 2661 L
4055 2653 L
4056 2586 L
4057 2897 L
4057 2674 L
4058 3076 L
4059 2481 L
4059 2915 L
4060 2822 L
4061 3090 L
4061 2996 L
4062 3025 L
L2 C01 COSGR

%
%================
% Legend - Begin
%================
%
GSN 4240 5180 M
4480 5180 L
LWMC SL  C01 COSGR
GSN 4540 5141 M helvM (0.5 uM) show grestore
%
%================
% Legend - End
%================
%

%
% Residuals:
%
GSN 777 1383 M
1388 1279 L
1552 1201 L
1652 1305 L
1723 1494 L
1778 1207 L
1824 1146 L
1863 1283 L
1896 1292 L
1926 1157 L
1952 1249 L
1976 1323 L
1998 1345 L
2019 1339 L
2037 1504 L
2055 1408 L
2071 1569 L
2086 1383 L
2101 1352 L
2115 1374 L
2128 1329 L
2140 1284 L
2152 1412 L
2163 1502 L
2174 1527 L
2184 1268 L
2194 1281 L
2204 1405 L
2213 1305 L
2222 1184 L
2230 1285 L
2239 1316 L
2247 1244 L
2255 1401 L
2262 1301 L
2270 1287 L
2277 1322 L
2284 1182 L
2290 1321 L
2297 1414 L
2303 1313 L
2310 1322 L
2316 1293 L
2322 1190 L
2328 1347 L
2333 1275 L
2339 1245 L
2344 1314 L
2350 1186 L
2355 1215 L
2360 1292 L
2365 1135 L
2370 1233 L
2375 1298 L
2380 1259 L
2384 1154 L
2389 1259 L
2393 1183 L
2398 1193 L
2402 1264 L
2407 1400 L
2411 1265 L
2415 1266 L
2419 1227 L
2423 1278 L
2427 1199 L
2431 1104 L
2435 1215 L
2438 1154 L
2442 1209 L
2446 1294 L
2449 1192 L
2453 1234 L
2456 1410 L
2460 1196 L
2463 1335 L
2467 1155 L
2470 1187 L
2473 1178 L
2476 1429 L
2480 1307 L
2483 1088 L
2486 1293 L
2489 1220 L
2492 1164 L
2495 1341 L
2498 1216 L
2501 1249 L
2504 1247 L
2507 1331 L
2510 1175 L
2512 1171 L
2515 1381 L
2518 1314 L
2521 1240 L
2523 1253 L
2526 1217 L
2529 1201 L
2531 1395 L
2534 1090 L
2536 1216 L
2539 1108 L
2541 1301 L
2544 1390 L
2546 1349 L
2549 1145 L
2551 1275 L
2554 1215 L
2556 1265 L
2558 1311 L
2561 1184 L
2563 1231 L
2565 1140 L
2568 1229 L
2570 1015 L
2572 1239 L
2574 1370 L
2576 1313 L
2579 1396 L
2581 1146 L
2583 1138 L
2585 1311 L
2587 1358 L
2589 1227 L
2591 1299 L
2593 1274 L
2595 1269 L
2597 1267 L
2599 1183 L
2601 1161 L
2603 1351 L
2605 1197 L
2607 1126 L
2609 1329 L
2611 1024 L
2613 1252 L
2615 1315 L
2617 1340 L
2618 1249 L
2620 1338 L
2622 1323 L
2624 1095 L
2626 1151 L
2627 1185 L
2629 1122 L
2631 1219 L
2633 1280 L
2634 1011 L
2636 1186 L
2638 1222 L
2640 1154 L
2641 1092 L
2643 1268 L
2645 1257 L
2646 1190 L
2648 1001 L
2650 1131 L
2651 1211 L
2653 1221 L
2654 1179 L
2656 1096 L
2658 1111 L
2659 1197 L
2661 1292 L
2662 1063 L
2664 1117 L
2665 1195 L
2667 1360 L
2668 1107 L
2670 1232 L
2671 1246 L
2673 1194 L
2674 1074 L
2676 1095 L
2677 1097 L
2679 1245 L
2680 1070 L
2682 1188 L
2683 1275 L
2685 1110 L
2686 1167 L
2687 1164 L
2689 1237 L
2690 1166 L
2692 1099 L
2693 1179 L
2694 1157 L
2696 1137 L
2697 1164 L
2698 1305 L
2700 1228 L
2701 1174 L
2702 1050 L
2704 1195 L
2705 1046 L
2706 1224 L
2708 1195 L
2709 1331 L
2710 1162 L
2712 1123 L
2713 1291 L
2714 1054 L
2715 1133 L
2717 1181 L
2718 1240 L
2719 1388 L
2720 1240 L
2722 1162 L
2723 1202 L
2724 1144 L
2725 1105 L
2726 1159 L
2728 1045 L
2729 1193 L
2730 1121 L
2731 1171 L
2732 1054 L
2734 1058 L
2735 1180 L
2736 1051 L
2737 1012 L
2738 1248 L
2739 1175 L
2741 1171 L
2742 1016 L
2743 1089 L
2744 1213 L
2745 1045 L
2746 1069 L
2747 1071 L
2748 1027 L
2749 1179 L
2751 1214 L
2752 1316 L
2753 1037 L
2754 1172 L
2755 1086 L
2756 1080 L
2757 1194 L
2758 1139 L
2759 1183 L
2760 1166 L
2761 944 L
2762 1085 L
2763 1179 L
2764 1150 L
2765 1196 L
2767 1058 L
2768 1070 L
2769 1094 L
2770 1199 L
2771 1029 L
2772 991 L
2773 1073 L
2774 1275 L
2775 1244 L
2776 1094 L
2777 989 L
2778 1222 L
2779 985 L
2780 1031 L
2781 1143 L
2782 1057 L
2783 1074 L
2783 1183 L
2784 825 L
2785 1158 L
2786 1094 L
2787 1162 L
2788 1214 L
2789 953 L
2790 1089 L
2791 1285 L
2792 1092 L
2793 1178 L
2794 1082 L
2795 1089 L
2796 946 L
2797 977 L
2798 1090 L
2798 1173 L
2799 996 L
2800 1234 L
2801 1032 L
2802 1045 L
2803 1277 L
2804 1054 L
2805 976 L
2806 1121 L
2807 987 L
2807 1096 L
2808 944 L
2809 1092 L
2810 1043 L
2811 1070 L
2812 1031 L
2813 1091 L
2813 1160 L
2814 1221 L
2815 927 L
2816 968 L
2817 1108 L
2818 1148 L
2819 896 L
2819 978 L
2820 1173 L
2821 1008 L
2822 1100 L
2823 1107 L
2824 1007 L
2824 954 L
2825 997 L
2826 901 L
2827 1134 L
2828 953 L
2828 1033 L
2829 1129 L
2830 1112 L
2831 1075 L
2832 1113 L
2832 1181 L
2833 1217 L
2834 1071 L
2835 1164 L
2836 1076 L
2836 1143 L
2837 936 L
2838 1065 L
2839 1011 L
2840 1148 L
2840 954 L
2841 1132 L
2842 1111 L
2843 1193 L
2843 1161 L
2844 1079 L
2845 1081 L
2846 1037 L
2846 995 L
2847 1111 L
2848 1070 L
2849 1138 L
2849 1202 L
2850 1113 L
2851 882 L
2852 997 L
2852 1100 L
2853 1119 L
2854 1023 L
2855 990 L
2855 979 L
2856 1146 L
2857 1142 L
2857 868 L
2858 1082 L
2859 1151 L
2860 1072 L
2860 986 L
2861 1066 L
2862 1011 L
2862 1043 L
2863 1074 L
2864 1133 L
2865 1066 L
2865 965 L
2866 1097 L
2867 1099 L
2867 1092 L
2868 960 L
2869 869 L
2869 983 L
2870 1050 L
2871 1142 L
2871 1048 L
2872 989 L
2873 1094 L
2873 1135 L
2874 1061 L
2875 1112 L
2876 1168 L
2876 1103 L
2877 1027 L
2878 1040 L
2878 1180 L
2879 1064 L
2880 1084 L
2880 915 L
2881 940 L
2881 984 L
2882 1118 L
2883 1045 L
2883 912 L
2884 852 L
2885 970 L
2885 1071 L
2886 1051 L
2887 1070 L
2887 1027 L
2888 1048 L
2889 935 L
2889 1091 L
2892 942 L
2894 1083 L
2897 1128 L
2899 1100 L
2902 986 L
2904 1046 L
2907 945 L
2909 924 L
2911 1031 L
2914 978 L
2916 981 L
2918 855 L
2921 1033 L
2923 1125 L
2925 1034 L
2927 1219 L
2929 1151 L
2932 1093 L
2934 1177 L
2936 1095 L
2938 1043 L
2940 1007 L
2942 868 L
2944 940 L
2946 1072 L
2948 991 L
2950 1106 L
2952 1033 L
2954 988 L
2956 1100 L
2958 988 L
2960 1092 L
2962 1036 L
2964 961 L
2966 1122 L
2968 994 L
2970 1003 L
2971 1071 L
2973 896 L
2975 925 L
2977 1091 L
2979 940 L
2980 1041 L
2982 1065 L
2984 974 L
2986 997 L
2987 984 L
2989 992 L
2991 848 L
2993 1016 L
2994 1066 L
2996 1008 L
2998 1065 L
2999 849 L
3001 1223 L
3003 1072 L
3004 989 L
3006 1024 L
3007 983 L
3009 970 L
3011 891 L
3012 856 L
3014 1015 L
3015 912 L
3017 816 L
3018 1181 L
3020 1044 L
3021 1005 L
3023 965 L
3024 1133 L
3026 1009 L
3027 984 L
3029 1045 L
3030 922 L
3032 954 L
3033 944 L
3035 1043 L
3036 966 L
3038 853 L
3039 1080 L
3040 1044 L
3042 978 L
3043 932 L
3045 975 L
3046 903 L
3047 987 L
3049 908 L
3050 1011 L
3051 930 L
3053 1080 L
3054 860 L
3055 1006 L
3057 828 L
3058 868 L
3059 1033 L
3061 1107 L
3062 1097 L
3063 922 L
3065 1006 L
3066 963 L
3067 1050 L
3068 886 L
3070 1029 L
3071 948 L
3072 896 L
3073 1028 L
3075 871 L
3076 849 L
3077 1033 L
3078 1054 L
3079 944 L
3081 928 L
3082 1069 L
3083 1029 L
3084 989 L
3085 865 L
3087 936 L
3088 949 L
3089 1015 L
3090 753 L
3091 970 L
3092 937 L
3094 966 L
3095 913 L
3096 979 L
3097 905 L
3098 927 L
3099 849 L
3100 834 L
3101 1005 L
3103 1058 L
3104 1008 L
3105 1046 L
3106 946 L
3107 789 L
3108 1043 L
3109 955 L
3110 866 L
3111 837 L
3112 1040 L
3113 1034 L
3114 983 L
3115 1028 L
3116 1017 L
3117 946 L
3119 1006 L
3120 895 L
3121 892 L
3122 874 L
3123 1082 L
3124 1049 L
3125 1035 L
3126 1044 L
3127 1110 L
3128 879 L
3129 940 L
3130 960 L
3131 1029 L
3132 1088 L
3133 1109 L
3134 1090 L
3135 1127 L
3136 895 L
3136 912 L
3137 1108 L
3138 1056 L
3139 946 L
3140 1047 L
3141 1092 L
3142 1063 L
3143 1089 L
3144 978 L
3145 925 L
3146 944 L
3147 988 L
3148 850 L
3149 973 L
3150 1026 L
3151 916 L
3151 999 L
3152 910 L
3153 1009 L
3154 1004 L
3155 987 L
3156 1023 L
3157 950 L
3158 957 L
3159 1011 L
3160 843 L
3160 946 L
3161 910 L
3162 1025 L
3163 1047 L
3164 1031 L
3165 983 L
3166 1004 L
3166 947 L
3167 837 L
3168 877 L
3169 1035 L
3170 842 L
3171 888 L
3172 1113 L
3172 991 L
3173 1025 L
3174 944 L
3175 952 L
3176 990 L
3177 982 L
3177 1016 L
3178 1001 L
3179 1017 L
3180 892 L
3181 1059 L
3181 880 L
3182 938 L
3183 1128 L
3184 1016 L
3185 1007 L
3185 982 L
3186 977 L
3187 1078 L
3188 1031 L
3189 961 L
3189 962 L
3190 1090 L
3191 899 L
3192 897 L
3193 969 L
3193 879 L
3194 1089 L
3195 983 L
3196 1059 L
3196 886 L
3197 952 L
3198 1026 L
3199 1008 L
3199 945 L
3200 934 L
3201 1068 L
3202 1012 L
3202 1031 L
3203 936 L
3204 1077 L
3205 905 L
3205 872 L
3206 1094 L
3207 969 L
3208 994 L
3208 1021 L
3209 981 L
3210 870 L
3210 877 L
3211 906 L
3212 918 L
3213 1162 L
3213 838 L
3214 1050 L
3215 919 L
3215 931 L
3216 954 L
3217 992 L
3218 1141 L
3218 930 L
3219 900 L
3220 1007 L
3220 1087 L
3221 996 L
3222 1051 L
3222 982 L
3223 879 L
3224 1036 L
3224 1066 L
3225 1056 L
3226 961 L
3227 1045 L
3227 1249 L
3228 1176 L
3229 997 L
3229 931 L
3230 877 L
3231 1059 L
3231 974 L
3232 912 L
3233 942 L
3233 1050 L
3234 1074 L
3235 982 L
3235 986 L
3236 1044 L
3236 1021 L
3237 977 L
3238 1079 L
3238 1024 L
3239 914 L
3240 750 L
3240 1007 L
3241 992 L
3242 1063 L
3242 995 L
3243 1014 L
3244 1002 L
3244 936 L
3245 1154 L
3245 900 L
3246 1131 L
3247 943 L
3247 1066 L
3248 1101 L
3249 929 L
3249 859 L
3250 1021 L
3250 894 L
3251 934 L
3252 958 L
3252 1071 L
3253 966 L
3253 1011 L
3254 896 L
3255 936 L
3255 959 L
3256 821 L
3257 844 L
3257 1000 L
3258 919 L
3258 1123 L
3259 1174 L
3259 936 L
3260 1029 L
3261 898 L
3261 886 L
3262 1022 L
3262 965 L
3263 924 L
3264 918 L
3264 953 L
3265 1010 L
3265 1050 L
3266 1160 L
3267 907 L
3267 893 L
3268 988 L
3268 994 L
3269 959 L
3269 988 L
3270 1008 L
3271 1046 L
3271 981 L
3272 1036 L
3272 1034 L
3273 1004 L
3273 913 L
3274 1130 L
3275 1121 L
3275 934 L
3276 963 L
3276 1038 L
3277 979 L
3277 1045 L
3278 1031 L
3278 973 L
3279 1111 L
3280 1060 L
3280 1123 L
3281 1162 L
3281 989 L
3282 1002 L
3282 995 L
3283 929 L
3283 941 L
3284 1106 L
3284 969 L
3285 1087 L
3285 1129 L
3286 910 L
3287 941 L
3287 1012 L
3288 1106 L
3288 953 L
3289 924 L
3289 1096 L
3290 1065 L
3290 1045 L
3291 1116 L
3291 1080 L
3292 805 L
3292 1097 L
3293 948 L
3293 912 L
3294 992 L
3294 959 L
3295 1125 L
3295 1183 L
3296 1035 L
3297 989 L
3297 1064 L
3298 990 L
3298 1011 L
3299 1103 L
3299 1180 L
3300 1019 L
3300 964 L
3301 1004 L
3301 1173 L
3302 1135 L
3302 977 L
3303 1107 L
3303 1163 L
3304 1069 L
3304 895 L
3305 1141 L
3305 1078 L
3306 1010 L
3306 1147 L
3307 1061 L
3307 1066 L
3308 994 L
3308 1124 L
3309 1045 L
3309 943 L
3310 1052 L
3310 967 L
3311 1132 L
3311 1100 L
3312 1049 L
3312 1111 L
3312 1118 L
3313 1040 L
3313 1153 L
3314 1048 L
3314 1235 L
3315 1240 L
3315 1023 L
3316 1130 L
3316 1038 L
3317 1007 L
3317 1021 L
3318 1193 L
3318 981 L
3319 1057 L
3319 996 L
3320 1108 L
3320 1143 L
3321 1108 L
3321 1056 L
3321 939 L
3322 1073 L
3322 1082 L
3323 1179 L
3323 1120 L
3324 1126 L
3324 1171 L
3325 1003 L
3325 1090 L
3326 950 L
3326 1121 L
3327 1054 L
3327 1118 L
3327 1044 L
3328 1168 L
3328 1098 L
3329 957 L
3329 1124 L
3330 1062 L
3330 1159 L
3331 1016 L
3331 1132 L
3332 1123 L
3332 1135 L
3332 1082 L
3333 1059 L
3333 1064 L
3334 1203 L
3334 998 L
3335 1227 L
3335 1148 L
3336 1140 L
3336 894 L
3336 1167 L
3337 837 L
3337 1018 L
3338 1173 L
3338 1085 L
3339 1050 L
3339 989 L
3339 1033 L
3340 982 L
3340 1163 L
3341 1131 L
3341 1127 L
3342 996 L
3342 1173 L
3343 934 L
3343 1056 L
3343 996 L
3344 1125 L
3344 1006 L
3345 1045 L
3345 870 L
3346 1033 L
3346 1227 L
3346 1065 L
3347 952 L
3347 1072 L
3348 1042 L
3348 1087 L
3348 1054 L
3349 1198 L
3349 1001 L
3350 1037 L
3350 1050 L
3351 1048 L
3351 931 L
3351 1095 L
3352 1087 L
3352 1002 L
3353 1011 L
3353 1120 L
3353 989 L
3354 863 L
3354 1205 L
3355 1053 L
3355 1058 L
3355 1010 L
3356 1101 L
3356 1183 L
3357 1169 L
3357 1022 L
3358 910 L
3358 1157 L
3358 1054 L
3359 1013 L
3359 1102 L
3360 1019 L
3360 1394 L
3360 996 L
3361 1044 L
3361 1054 L
3362 997 L
3362 1055 L
3362 1152 L
3363 1149 L
3363 1246 L
3364 1014 L
3364 1320 L
3364 1178 L
3365 1166 L
3365 1102 L
3365 1068 L
3366 930 L
3366 1100 L
3367 1132 L
3367 990 L
3367 1118 L
3368 1190 L
3368 987 L
3369 1187 L
3369 1066 L
3369 1135 L
3370 1131 L
3370 1167 L
3371 1027 L
3371 975 L
3371 1180 L
3372 939 L
3372 1208 L
3372 952 L
3373 1038 L
3373 1068 L
3374 1117 L
3374 992 L
3374 1133 L
3375 1167 L
3375 1147 L
3375 1152 L
3376 1106 L
3376 1134 L
3377 1135 L
3377 1115 L
3377 1131 L
3378 1049 L
3378 1217 L
3378 1015 L
3379 1114 L
3379 987 L
3380 1198 L
3380 1222 L
3380 1204 L
3381 1001 L
3381 1129 L
3381 1132 L
3382 1193 L
3382 980 L
3383 1040 L
3383 1031 L
3383 1037 L
3384 1082 L
3384 1179 L
3384 1015 L
3385 1055 L
3385 1061 L
3385 1095 L
3386 1101 L
3386 1115 L
3387 1065 L
3387 984 L
3387 1224 L
3388 1094 L
3388 1128 L
3388 1121 L
3389 1122 L
3389 1265 L
3389 961 L
3390 987 L
3390 1149 L
3391 1182 L
3391 1072 L
3391 1077 L
3392 1104 L
3392 998 L
3392 1110 L
3393 1035 L
3393 1125 L
3393 1113 L
3394 1032 L
3394 1073 L
3394 1105 L
3395 804 L
3395 1181 L
3395 1025 L
3396 1198 L
3396 1026 L
3396 1089 L
3397 1091 L
3397 1204 L
3398 1175 L
3398 1122 L
3398 1009 L
3399 1203 L
3399 1161 L
3399 1119 L
3400 1150 L
3400 1303 L
3400 1239 L
3401 997 L
3401 1097 L
3401 1159 L
3402 1233 L
3402 1161 L
3402 1160 L
3403 1257 L
3403 1174 L
3403 1223 L
3404 1155 L
3404 1097 L
3404 1046 L
3405 1136 L
3405 1290 L
3405 949 L
3406 1169 L
3406 1233 L
3406 1116 L
3407 1046 L
3407 1049 L
3407 1274 L
3408 1133 L
3408 1029 L
3408 1225 L
3409 1088 L
3409 1217 L
3409 1121 L
3410 1068 L
3410 1144 L
3410 1180 L
3411 1190 L
3411 1194 L
3411 1113 L
3412 1037 L
3412 1050 L
3412 1206 L
3413 967 L
3413 1094 L
3413 1187 L
3414 1187 L
3414 1210 L
3414 1189 L
3415 1213 L
3415 1274 L
3415 1069 L
3416 1308 L
3416 1143 L
3416 1058 L
3417 1032 L
3417 1068 L
3417 1127 L
3417 1147 L
3418 993 L
3418 1096 L
3418 1072 L
3419 1159 L
3419 1080 L
3419 1135 L
3420 1044 L
3420 1173 L
3420 1287 L
3421 1183 L
3421 1152 L
3421 1197 L
3422 956 L
3422 1226 L
3422 1012 L
3423 1241 L
3423 1233 L
3423 958 L
3423 1088 L
3424 1144 L
3424 1326 L
3424 1114 L
3425 1194 L
3425 1107 L
3425 1192 L
3426 1169 L
3426 1123 L
3426 1084 L
3427 1237 L
3427 1153 L
3427 1155 L
3428 1155 L
3428 1109 L
3428 1068 L
3428 1261 L
3429 1174 L
3429 1049 L
3429 1133 L
3430 1252 L
3430 965 L
3430 1128 L
3431 947 L
3431 938 L
3431 979 L
3431 1116 L
3432 1025 L
3432 1241 L
3432 1004 L
3433 1102 L
3433 1147 L
3433 1219 L
3434 1239 L
3434 1114 L
3434 1196 L
3434 1215 L
3435 1267 L
3435 1061 L
3435 1104 L
3436 1282 L
3436 1016 L
3436 1124 L
3437 957 L
3437 1188 L
3437 1264 L
3437 1043 L
3438 1093 L
3438 1214 L
3438 1180 L
3439 1184 L
3439 1157 L
3439 1122 L
3440 1097 L
3440 1200 L
3440 1169 L
3440 1125 L
3441 1188 L
3441 1259 L
3441 1063 L
3442 1104 L
3442 1259 L
3442 1110 L
3442 1319 L
3443 968 L
3443 1102 L
3443 1204 L
3444 1086 L
3444 1170 L
3444 1110 L
3444 1145 L
3445 1096 L
3445 1138 L
3445 1237 L
3446 1205 L
3446 1098 L
3446 1175 L
3446 1139 L
3447 1043 L
3447 964 L
3447 1194 L
3448 1093 L
3448 1266 L
3448 1066 L
3448 994 L
3449 1071 L
3449 1239 L
3449 1107 L
3450 1137 L
3450 1243 L
3450 1058 L
3450 1025 L
3451 1191 L
3451 1252 L
3451 1097 L
3452 1050 L
3452 1098 L
3452 1196 L
3452 1083 L
3453 1119 L
3453 1148 L
3453 1201 L
3454 1070 L
3454 1339 L
3454 1220 L
3454 1118 L
3455 1091 L
3455 1040 L
3455 1333 L
3455 1196 L
3456 1115 L
3456 1227 L
3456 1116 L
3457 1203 L
3457 1248 L
3457 1151 L
3457 1037 L
3458 1188 L
3458 1217 L
3458 1281 L
3458 1057 L
3459 1202 L
3459 1370 L
3459 988 L
3460 1142 L
3460 1167 L
3460 1221 L
3460 1170 L
3461 1149 L
3461 992 L
3461 1264 L
3461 1128 L
3462 1087 L
3462 1230 L
3462 1216 L
3463 1213 L
3463 1104 L
3463 1166 L
3463 1308 L
3464 1104 L
3464 1045 L
3464 944 L
3464 1289 L
3465 1249 L
3465 1132 L
3465 1280 L
3465 1161 L
3466 1172 L
3466 920 L
3466 1029 L
3466 1332 L
3467 1124 L
3467 1250 L
3467 1277 L
3468 1122 L
3468 1196 L
3468 1165 L
3468 1217 L
3469 1164 L
3469 1078 L
3469 1096 L
3469 1101 L
3470 1034 L
3470 1148 L
3470 1121 L
3470 1060 L
3471 1029 L
3471 1150 L
3471 1249 L
3471 1233 L
3472 1146 L
3472 1007 L
3472 1189 L
3472 1205 L
3473 1262 L
3473 1144 L
3473 1338 L
3474 1282 L
3474 1223 L
3474 1079 L
3474 1048 L
3475 1282 L
3475 1040 L
3475 1096 L
3475 1104 L
3476 987 L
3476 1374 L
3476 1017 L
3476 1220 L
3477 1234 L
3477 1071 L
3477 1246 L
3477 1139 L
3478 989 L
3478 1155 L
3478 970 L
3478 1112 L
3479 1273 L
3479 1187 L
3479 1263 L
3479 1038 L
3480 1310 L
3480 1223 L
3480 1302 L
3480 1101 L
3481 1361 L
3481 1130 L
3481 1255 L
3481 1261 L
3482 1280 L
3482 1262 L
3482 1034 L
3482 1322 L
3483 1160 L
3483 1223 L
3483 1157 L
3483 1051 L
3484 1324 L
3484 1282 L
3484 1193 L
3484 1176 L
3485 1009 L
3485 1202 L
3485 1206 L
3485 1118 L
3486 1337 L
3486 1203 L
3486 1142 L
3486 1175 L
3487 1134 L
3487 1308 L
3487 1117 L
3487 1264 L
3488 1170 L
3488 1187 L
3488 1162 L
3488 1293 L
3488 1136 L
3489 1210 L
3489 1172 L
3489 989 L
3489 1323 L
3490 969 L
3490 1186 L
3490 1173 L
3490 1001 L
3491 1138 L
3491 1369 L
3491 1160 L
3491 1201 L
3492 1291 L
3492 1192 L
3492 1302 L
3492 1213 L
3493 1047 L
3493 1334 L
3493 1195 L
3493 1295 L
3494 1223 L
3494 1063 L
3494 1167 L
3494 1114 L
3494 1296 L
3495 1191 L
3495 1096 L
3495 1327 L
3495 1246 L
3496 1261 L
3496 1169 L
3496 1125 L
3496 1240 L
3497 1126 L
3497 1234 L
3497 1127 L
3497 1127 L
3498 1031 L
3498 1107 L
3498 1071 L
3498 1256 L
3498 1141 L
3499 1166 L
3499 1186 L
3499 1269 L
3499 1114 L
3500 1124 L
3500 1058 L
3506 1202 L
3511 1200 L
3517 1205 L
3522 968 L
3527 1105 L
3532 1177 L
3537 1143 L
3542 1326 L
3547 1318 L
3552 1178 L
3557 1140 L
3561 1098 L
3566 1141 L
3570 1201 L
3575 1130 L
3579 1039 L
3583 1161 L
3587 1339 L
3591 1044 L
3595 1060 L
3599 1279 L
3603 1086 L
3607 1067 L
3611 1174 L
3614 1211 L
3618 1240 L
3622 1079 L
3625 1107 L
3629 969 L
3632 1016 L
3636 1178 L
3639 1119 L
3642 1382 L
3646 1179 L
3649 1169 L
3652 1117 L
3655 1070 L
3658 1200 L
3661 1005 L
3664 1219 L
3667 1200 L
3670 1103 L
3673 1076 L
3676 995 L
3679 1146 L
3682 1186 L
3685 1368 L
3688 1288 L
3690 1145 L
3693 1093 L
3696 1142 L
3698 1159 L
3701 1247 L
3704 994 L
3706 1183 L
3709 947 L
3711 1108 L
3714 1174 L
3716 1148 L
3719 1195 L
3721 1027 L
3724 1162 L
3726 1103 L
3728 1319 L
3731 1156 L
3733 1258 L
3735 1055 L
3738 1176 L
3740 1239 L
3742 1230 L
3744 1089 L
3747 1061 L
3749 1023 L
3751 1038 L
3753 1259 L
3755 969 L
3757 1150 L
3760 1079 L
3762 1235 L
3764 1074 L
3766 1081 L
3768 1176 L
3770 1035 L
3772 1219 L
3774 1133 L
3776 1093 L
3778 1180 L
3780 1176 L
3781 970 L
3783 1060 L
3785 1002 L
3787 1121 L
3789 1180 L
3791 1226 L
3793 1185 L
3795 1101 L
3796 1074 L
3798 1180 L
3800 1217 L
3802 958 L
3803 1174 L
3805 984 L
3807 1140 L
3809 1113 L
3810 1048 L
3812 1145 L
3814 1041 L
3816 1010 L
3817 1150 L
3819 1051 L
3820 1119 L
3822 1248 L
3824 1284 L
3825 1263 L
3827 1071 L
3829 1042 L
3830 1112 L
3832 1047 L
3833 1188 L
3835 1198 L
3836 1179 L
3838 1072 L
3839 1254 L
3841 997 L
3842 1060 L
3844 1118 L
3845 1219 L
3847 1168 L
3848 1134 L
3850 1154 L
3851 1131 L
3853 971 L
3854 1127 L
3856 1041 L
3857 1280 L
3859 1099 L
3860 1240 L
3861 1039 L
3863 1248 L
3864 1095 L
3866 1222 L
3867 1167 L
3868 1054 L
3870 1243 L
3871 1114 L
3872 1118 L
3874 1122 L
3875 1024 L
3876 1149 L
3878 1093 L
3879 1155 L
3880 936 L
3882 1023 L
3883 1226 L
3884 1182 L
3885 1168 L
3887 1071 L
3888 1024 L
3889 1205 L
3890 1033 L
3892 1163 L
3893 1012 L
3894 1031 L
3895 1018 L
3897 1066 L
3898 1021 L
3899 1321 L
3900 924 L
3901 1096 L
3903 1097 L
3904 1236 L
3905 1281 L
3906 1217 L
3907 1120 L
3908 1103 L
3910 979 L
3911 1164 L
3912 1069 L
3913 1058 L
3914 1084 L
3915 982 L
3917 1123 L
3918 1083 L
3919 1237 L
3920 1093 L
3921 968 L
3922 964 L
3923 1246 L
3924 1079 L
3925 1173 L
3926 1164 L
3928 1231 L
3929 966 L
3930 1051 L
3931 977 L
3932 1137 L
3933 1038 L
3934 1165 L
3935 1132 L
3936 1267 L
3937 1030 L
3938 1163 L
3939 1043 L
3940 1040 L
3941 1303 L
3942 1162 L
3943 1065 L
3944 1125 L
3945 1166 L
3946 1048 L
3947 1031 L
3948 977 L
3949 1045 L
3950 1124 L
3951 1174 L
3952 1093 L
3953 1053 L
3954 1066 L
3955 1181 L
3956 900 L
3957 1015 L
3958 1056 L
3959 1295 L
3960 1163 L
3961 1097 L
3962 1179 L
3963 1119 L
3964 1081 L
3965 1114 L
3966 1255 L
3966 1134 L
3967 1066 L
3968 1088 L
3969 1034 L
3970 1013 L
3971 1081 L
3972 1168 L
3973 960 L
3974 1166 L
3975 954 L
3976 969 L
3976 1148 L
3977 1085 L
3978 1110 L
3979 1058 L
3980 1081 L
3981 1053 L
3982 1067 L
3983 1074 L
3983 1155 L
3984 1130 L
3985 888 L
3986 1151 L
3987 1002 L
3988 1278 L
3989 1145 L
3989 1174 L
3990 1166 L
3991 1035 L
3992 1085 L
3993 1154 L
3994 1026 L
3995 1038 L
3995 996 L
3996 959 L
3997 1031 L
3998 1102 L
3999 1060 L
3999 1070 L
4000 1078 L
4001 1083 L
4002 1241 L
4003 1205 L
4003 1027 L
4004 1098 L
4005 1101 L
4006 1190 L
4007 1177 L
4007 1069 L
4008 1210 L
4009 1146 L
4010 1163 L
4011 1199 L
4011 1119 L
4012 1049 L
4013 1265 L
4014 1050 L
4014 951 L
4015 1051 L
4016 1081 L
4017 1026 L
4017 982 L
4018 1038 L
4019 950 L
4020 1039 L
4021 1187 L
4021 1105 L
4022 1187 L
4023 1039 L
4023 997 L
4024 1129 L
4025 1173 L
4026 1056 L
4026 1043 L
4027 1175 L
4028 1177 L
4029 1098 L
4029 1197 L
4030 1210 L
4031 1105 L
4032 1054 L
4032 1072 L
4033 998 L
4034 1147 L
4034 1018 L
4035 1060 L
4036 1133 L
4036 1078 L
4037 1007 L
4038 1152 L
4039 1040 L
4039 1014 L
4040 1075 L
4041 987 L
4041 1067 L
4042 1090 L
4043 1114 L
4043 1071 L
4044 1111 L
4045 1120 L
4045 1173 L
4046 1124 L
4047 1056 L
4047 1092 L
4048 1228 L
4049 1068 L
4050 922 L
4050 971 L
4051 1161 L
4052 1043 L
4052 872 L
4053 1123 L
4053 1056 L
4054 1130 L
4055 990 L
4055 986 L
4056 954 L
4057 1103 L
4057 996 L
4058 1190 L
4059 904 L
4059 1112 L
4060 1067 L
4061 1196 L
4061 1151 L
4062 1165 L
L2 C01 COSGR

%
% Main frame
%
L10
GSN 
620 1700 M
4220 1700 L
4220 5300 L
620 5300 L
closepath SGR

%
% X axis: large tics
%
L10
GSN 1130 1700 M 0  54 rL SGR
GSN 1130 5300 M 0 -54 rL SGR
helvS (0.0001) 1130 470 xlabel
GSN 1716 1700 M 0  54 rL SGR
GSN 1716 5300 M 0 -54 rL SGR
helvS (0.001) 1716 470 xlabel
GSN 2303 1700 M 0  54 rL SGR
GSN 2303 5300 M 0 -54 rL SGR
helvS (0.01) 2303 470 xlabel
GSN 2889 1700 M 0  54 rL SGR
GSN 2889 5300 M 0 -54 rL SGR
helvS (0.1) 2889 470 xlabel
GSN 3476 1700 M 0  54 rL SGR
GSN 3476 5300 M 0 -54 rL SGR
helvS (1) 3476 470 xlabel
GSN 4062 1700 M 0  54 rL SGR
GSN 4062 5300 M 0 -54 rL SGR
helvS (10) 4062 470 xlabel
%
% X axis: small tics
%
L5
GSN 720 1700 M 0  36 rL SGR
GSN 720 5300 M 0 -36 rL SGR
GSN 824 1700 M 0  36 rL SGR
GSN 824 5300 M 0 -36 rL SGR
GSN 897 1700 M 0  36 rL SGR
GSN 897 5300 M 0 -36 rL SGR
GSN 954 1700 M 0  36 rL SGR
GSN 954 5300 M 0 -36 rL SGR
GSN 1000 1700 M 0  36 rL SGR
GSN 1000 5300 M 0 -36 rL SGR
GSN 1039 1700 M 0  36 rL SGR
GSN 1039 5300 M 0 -36 rL SGR
GSN 1073 1700 M 0  36 rL SGR
GSN 1073 5300 M 0 -36 rL SGR
GSN 1103 1700 M 0  36 rL SGR
GSN 1103 5300 M 0 -36 rL SGR
GSN 1307 1700 M 0  36 rL SGR
GSN 1307 5300 M 0 -36 rL SGR
GSN 1410 1700 M 0  36 rL SGR
GSN 1410 5300 M 0 -36 rL SGR
GSN 1483 1700 M 0  36 rL SGR
GSN 1483 5300 M 0 -36 rL SGR
GSN 1540 1700 M 0  36 rL SGR
GSN 1540 5300 M 0 -36 rL SGR
GSN 1586 1700 M 0  36 rL SGR
GSN 1586 5300 M 0 -36 rL SGR
GSN 1626 1700 M 0  36 rL SGR
GSN 1626 5300 M 0 -36 rL SGR
GSN 1660 1700 M 0  36 rL SGR
GSN 1660 5300 M 0 -36 rL SGR
GSN 1690 1700 M 0  36 rL SGR
GSN 1690 5300 M 0 -36 rL SGR
GSN 1893 1700 M 0  36 rL SGR
GSN 1893 5300 M 0 -36 rL SGR
GSN 1996 1700 M 0  36 rL SGR
GSN 1996 5300 M 0 -36 rL SGR
GSN 2069 1700 M 0  36 rL SGR
GSN 2069 5300 M 0 -36 rL SGR
GSN 2126 1700 M 0  36 rL SGR
GSN 2126 5300 M 0 -36 rL SGR
GSN 2173 1700 M 0  36 rL SGR
GSN 2173 5300 M 0 -36 rL SGR
GSN 2212 1700 M 0  36 rL SGR
GSN 2212 5300 M 0 -36 rL SGR
GSN 2246 1700 M 0  36 rL SGR
GSN 2246 5300 M 0 -36 rL SGR
GSN 2276 1700 M 0  36 rL SGR
GSN 2276 5300 M 0 -36 rL SGR
GSN 2479 1700 M 0  36 rL SGR
GSN 2479 5300 M 0 -36 rL SGR
GSN 2583 1700 M 0  36 rL SGR
GSN 2583 5300 M 0 -36 rL SGR
GSN 2656 1700 M 0  36 rL SGR
GSN 2656 5300 M 0 -36 rL SGR
GSN 2713 1700 M 0  36 rL SGR
GSN 2713 5300 M 0 -36 rL SGR
GSN 2759 1700 M 0  36 rL SGR
GSN 2759 5300 M 0 -36 rL SGR
GSN 2798 1700 M 0  36 rL SGR
GSN 2798 5300 M 0 -36 rL SGR
GSN 2832 1700 M 0  36 rL SGR
GSN 2832 5300 M 0 -36 rL SGR
GSN 2862 1700 M 0  36 rL SGR
GSN 2862 5300 M 0 -36 rL SGR
GSN 3066 1700 M 0  36 rL SGR
GSN 3066 5300 M 0 -36 rL SGR
GSN 3169 1700 M 0  36 rL SGR
GSN 3169 5300 M 0 -36 rL SGR
GSN 3242 1700 M 0  36 rL SGR
GSN 3242 5300 M 0 -36 rL SGR
GSN 3299 1700 M 0  36 rL SGR
GSN 3299 5300 M 0 -36 rL SGR
GSN 3345 1700 M 0  36 rL SGR
GSN 3345 5300 M 0 -36 rL SGR
GSN 3385 1700 M 0  36 rL SGR
GSN 3385 5300 M 0 -36 rL SGR
GSN 3419 1700 M 0  36 rL SGR
GSN 3419 5300 M 0 -36 rL SGR
GSN 3449 1700 M 0  36 rL SGR
GSN 3449 5300 M 0 -36 rL SGR
GSN 3652 1700 M 0  36 rL SGR
GSN 3652 5300 M 0 -36 rL SGR
GSN 3755 1700 M 0  36 rL SGR
GSN 3755 5300 M 0 -36 rL SGR
GSN 3829 1700 M 0  36 rL SGR
GSN 3829 5300 M 0 -36 rL SGR
GSN 3885 1700 M 0  36 rL SGR
GSN 3885 5300 M 0 -36 rL SGR
GSN 3932 1700 M 0  36 rL SGR
GSN 3932 5300 M 0 -36 rL SGR
GSN 3971 1700 M 0  36 rL SGR
GSN 3971 5300 M 0 -36 rL SGR
GSN 4005 1700 M 0  36 rL SGR
GSN 4005 5300 M 0 -36 rL SGR
GSN 4035 1700 M 0  36 rL SGR
GSN 4035 5300 M 0 -36 rL SGR
%
% Y axis: large tics
%
L10
GSN 620 1715 M 54 0 rL SGR
GSN 4220 1715 M -54 0 rL SGR
helvS (1.12) 560 1715 ylabel
GSN 620 2769 M 54 0 rL SGR
GSN 4220 2769 M -54 0 rL SGR
helvS (1.14) 560 2769 ylabel
GSN 620 3823 M 54 0 rL SGR
GSN 4220 3823 M -54 0 rL SGR
helvS (1.16) 560 3823 ylabel
GSN 620 4876 M 54 0 rL SGR
GSN 4220 4876 M -54 0 rL SGR
helvS (1.18) 560 4876 ylabel
%
% Y axis: small tics
%
L5
GSN 620 1715 M 36 0 rL SGR
GSN 4220 1715 M -36 0 rL SGR
GSN 620 1979 M 36 0 rL SGR
GSN 4220 1979 M -36 0 rL SGR
GSN 620 2242 M 36 0 rL SGR
GSN 4220 2242 M -36 0 rL SGR
GSN 620 2505 M 36 0 rL SGR
GSN 4220 2505 M -36 0 rL SGR
GSN 620 2769 M 36 0 rL SGR
GSN 4220 2769 M -36 0 rL SGR
GSN 620 3032 M 36 0 rL SGR
GSN 4220 3032 M -36 0 rL SGR
GSN 620 3296 M 36 0 rL SGR
GSN 4220 3296 M -36 0 rL SGR
GSN 620 3559 M 36 0 rL SGR
GSN 4220 3559 M -36 0 rL SGR
GSN 620 3823 M 36 0 rL SGR
GSN 4220 3823 M -36 0 rL SGR
GSN 620 4086 M 36 0 rL SGR
GSN 4220 4086 M -36 0 rL SGR
GSN 620 4349 M 36 0 rL SGR
GSN 4220 4349 M -36 0 rL SGR
GSN 620 4613 M 36 0 rL SGR
GSN 4220 4613 M -36 0 rL SGR
GSN 620 4876 M 36 0 rL SGR
GSN 4220 4876 M -36 0 rL SGR
GSN 620 5140 M 36 0 rL SGR
GSN 4220 5140 M -36 0 rL SGR

%
% X-Axis label:
%
gsave 2420 290 M 
[
[(Helvetica) 180 0 true true 0 (t)]
[(Helvetica) 180 0 true true 0 (i)]
[(Helvetica) 180 0 true true 0 (m)]
[(Helvetica) 180 0 true true 0 (e)]
] 0 MCshow grestore

%
% Y-Axis label:
%
gsave 234 3499 M 
currentpoint gsave translate 90 rotate 0 0 moveto
[
[(Helvetica) 180 0 true true 0 (s)]
[(Helvetica) 180 0 true true 0 (i)]
[(Helvetica) 180 0 true true 0 (g)]
[(Helvetica) 180 0 true true 0 (n)]
[(Helvetica) 180 0 true true 0 (a)]
[(Helvetica) 180 0 true true 0 (l)]
] 0 MCshow grestore

%
% Residuals:
%
gsave 129 1160 M 
currentpoint gsave translate 90 rotate 0 0 moveto
[
[(Helvetica) 150 0 true true 0 (r)]
[(Helvetica) 150 0 true true 0 (e)]
[(Helvetica) 150 0 true true 0 (s)]
[(Helvetica) 150 0 true true 0 (i)]
[(Helvetica) 150 0 true true 0 (d)]
[(Helvetica) 150 0 true true 0 (u)]
[(Helvetica) 150 0 true true 0 (a)]
[(Helvetica) 150 0 true true 0 (l)]
[(Helvetica) 150 0 true true 0 (s)]
] 0 MCshow grestore

%
% Residual frame
%
L10
GSN 
620 620 M
4220 620 L
4220 1700 L
620 1700 L
closepath SGR
%
% X axis: large tics - residual frame
%
L10
GSN 1130 620 M 0  54 rL SGR
GSN 1130 1700 M 0 -54 rL SGR
GSN 1716 620 M 0  54 rL SGR
GSN 1716 1700 M 0 -54 rL SGR
GSN 2303 620 M 0  54 rL SGR
GSN 2303 1700 M 0 -54 rL SGR
GSN 2889 620 M 0  54 rL SGR
GSN 2889 1700 M 0 -54 rL SGR
GSN 3476 620 M 0  54 rL SGR
GSN 3476 1700 M 0 -54 rL SGR
GSN 4062 620 M 0  54 rL SGR
GSN 4062 1700 M 0 -54 rL SGR
%
% X axis: small tics - residual frame
%
L5
GSN 720 620 M 0  36 rL SGR
GSN 720 1700 M 0 -36 rL SGR
GSN 824 620 M 0  36 rL SGR
GSN 824 1700 M 0 -36 rL SGR
GSN 897 620 M 0  36 rL SGR
GSN 897 1700 M 0 -36 rL SGR
GSN 954 620 M 0  36 rL SGR
GSN 954 1700 M 0 -36 rL SGR
GSN 1000 620 M 0  36 rL SGR
GSN 1000 1700 M 0 -36 rL SGR
GSN 1039 620 M 0  36 rL SGR
GSN 1039 1700 M 0 -36 rL SGR
GSN 1073 620 M 0  36 rL SGR
GSN 1073 1700 M 0 -36 rL SGR
GSN 1103 620 M 0  36 rL SGR
GSN 1103 1700 M 0 -36 rL SGR
GSN 1307 620 M 0  36 rL SGR
GSN 1307 1700 M 0 -36 rL SGR
GSN 1410 620 M 0  36 rL SGR
GSN 1410 1700 M 0 -36 rL SGR
GSN 1483 620 M 0  36 rL SGR
GSN 1483 1700 M 0 -36 rL SGR
GSN 1540 620 M 0  36 rL SGR
GSN 1540 1700 M 0 -36 rL SGR
GSN 1586 620 M 0  36 rL SGR
GSN 1586 1700 M 0 -36 rL SGR
GSN 1626 620 M 0  36 rL SGR
GSN 1626 1700 M 0 -36 rL SGR
GSN 1660 620 M 0  36 rL SGR
GSN 1660 1700 M 0 -36 rL SGR
GSN 1690 620 M 0  36 rL SGR
GSN 1690 1700 M 0 -36 rL SGR
GSN 1893 620 M 0  36 rL SGR
GSN 1893 1700 M 0 -36 rL SGR
GSN 1996 620 M 0  36 rL SGR
GSN 1996 1700 M 0 -36 rL SGR
GSN 2069 620 M 0  36 rL SGR
GSN 2069 1700 M 0 -36 rL SGR
GSN 2126 620 M 0  36 rL SGR
GSN 2126 1700 M 0 -36 rL SGR
GSN 2173 620 M 0  36 rL SGR
GSN 2173 1700 M 0 -36 rL SGR
GSN 2212 620 M 0  36 rL SGR
GSN 2212 1700 M 0 -36 rL SGR
GSN 2246 620 M 0  36 rL SGR
GSN 2246 1700 M 0 -36 rL SGR
GSN 2276 620 M 0  36 rL SGR
GSN 2276 1700 M 0 -36 rL SGR
GSN 2479 620 M 0  36 rL SGR
GSN 2479 1700 M 0 -36 rL SGR
GSN 2583 620 M 0  36 rL SGR
GSN 2583 1700 M 0 -36 rL SGR
GSN 2656 620 M 0  36 rL SGR
GSN 2656 1700 M 0 -36 rL SGR
GSN 2713 620 M 0  36 rL SGR
GSN 2713 1700 M 0 -36 rL SGR
GSN 2759 620 M 0  36 rL SGR
GSN 2759 1700 M 0 -36 rL SGR
GSN 2798 620 M 0  36 rL SGR
GSN 2798 1700 M 0 -36 rL SGR
GSN 2832 620 M 0  36 rL SGR
GSN 2832 1700 M 0 -36 rL SGR
GSN 2862 620 M 0  36 rL SGR
GSN 2862 1700 M 0 -36 rL SGR
GSN 3066 620 M 0  36 rL SGR
GSN 3066 1700 M 0 -36 rL SGR
GSN 3169 620 M 0  36 rL SGR
GSN 3169 1700 M 0 -36 rL SGR
GSN 3242 620 M 0  36 rL SGR
GSN 3242 1700 M 0 -36 rL SGR
GSN 3299 620 M 0  36 rL SGR
GSN 3299 1700 M 0 -36 rL SGR
GSN 3345 620 M 0  36 rL SGR
GSN 3345 1700 M 0 -36 rL SGR
GSN 3385 620 M 0  36 rL SGR
GSN 3385 1700 M 0 -36 rL SGR
GSN 3419 620 M 0  36 rL SGR
GSN 3419 1700 M 0 -36 rL SGR
GSN 3449 620 M 0  36 rL SGR
GSN 3449 1700 M 0 -36 rL SGR
GSN 3652 620 M 0  36 rL SGR
GSN 3652 1700 M 0 -36 rL SGR
GSN 3755 620 M 0  36 rL SGR
GSN 3755 1700 M 0 -36 rL SGR
GSN 3829 620 M 0  36 rL SGR
GSN 3829 1700 M 0 -36 rL SGR
GSN 3885 620 M 0  36 rL SGR
GSN 3885 1700 M 0 -36 rL SGR
GSN 3932 620 M 0  36 rL SGR
GSN 3932 1700 M 0 -36 rL SGR
GSN 3971 620 M 0  36 rL SGR
GSN 3971 1700 M 0 -36 rL SGR
GSN 4005 620 M 0  36 rL SGR
GSN 4005 1700 M 0 -36 rL SGR
GSN 4035 620 M 0  36 rL SGR
GSN 4035 1700 M 0 -36 rL SGR
%
% Y axis: large tics - residual frame
%
L10
GSN 620 849 M 54 0 rL SGR
GSN 4220 849 M -54 0 rL SGR
helvS (-0.01) 560 849 ylabelresid
GSN 620 1102 M 54 0 rL SGR
GSN 4220 1102 M -54 0 rL SGR
helvS (0) 560 1102 ylabelresid
GSN 620 1356 M 54 0 rL SGR
GSN 4220 1356 M -54 0 rL SGR
helvS (0.01) 560 1356 ylabelresid
GSN 620 1609 M 54 0 rL SGR
GSN 4220 1609 M -54 0 rL SGR
helvS (0.02) 560 1609 ylabelresid

%
% X axis - residual panel
%
GSN L5 620 1102 M 4220 1102 L SDA G50 SGR

end
showpage
%%Trailer
%%EOF
