# data set	./hsmug/series//U-Trp-R243A.1.csv:col(7)
# fraction of residuals inside model inference band	0.729831
#   x(mesh)	    y(mesh)	       rate	   y(mesh)-	   y(mesh)+	    x(data)	    y(data)	   y(model)	   y(error)	   residual	     weight	  residual*	   leverage	  y(model)-	  y(model)+	
2.27273e-005	    0.983662	    -1.27491	-5.33194e+006	5.33194e+006	    2.5e-005	     0.97752	    0.983659	           0	 -0.00613949	           1	           0	     3978.07	    0.480337	     1.48698	
2.27273e-005	    0.983662	    -1.27491	-5.33194e+006	5.33194e+006	    0.001275	    0.984195	    0.982087	           0	  0.00210805	           1	           0	     2621.71	    0.573483	     1.39069	
2.65091e-005	    0.983658	     -1.2748	-5.33194e+006	5.33194e+006	    0.002525	    0.980992	    0.980555	           0	 0.000437051	           1	           0	     -4543.2	    0.980555	    0.980555	
3.09203e-005	    0.983652	    -1.27468	-5.33194e+006	5.33194e+006	    0.003775	    0.973823	    0.979064	           0	  -0.0052411	           1	           0	     290.099	    0.843144	     1.11498	
3.60656e-005	    0.983645	    -1.27454	-5.33194e+006	5.33194e+006	    0.005025	     0.97756	     0.97761	           0	-5.00716e-005	           1	           0	     4572.26	    0.438005	     1.51721	
 4.2067e-005	    0.983638	    -1.27438	-5.33194e+006	5.33194e+006	    0.006275	    0.974355	    0.976194	           0	 -0.00183858	           1	           0	     2092.78	    0.611127	     1.34126	
4.54545e-005	    0.983633	    -1.27429	-5.33194e+006	5.33194e+006	    0.007525	     0.96974	    0.974813	           0	  -0.0050729	           1	           0	      5811.1	    0.366483	     1.58314	
 4.9067e-005	    0.983629	    -1.27419	-5.33194e+006	5.33194e+006	    0.008775	    0.970425	    0.973467	           0	 -0.00304186	           1	           0	     5431.45	    0.385344	     1.56159	
5.72319e-005	    0.983618	    -1.27397	-5.33194e+006	5.33194e+006	    0.010025	    0.966042	    0.972154	           0	 -0.00611186	           1	           0	    -592.873	    0.972154	    0.972154	
6.67554e-005	    0.983606	    -1.27371	-5.33194e+006	5.33194e+006	    0.011275	    0.964708	    0.970874	           0	  -0.0061668	           1	           0	     5992.71	    0.353111	     1.58864	
7.78637e-005	    0.983592	    -1.27341	-5.33194e+006	5.33194e+006	    0.012525	    0.968137	    0.969626	           0	 -0.00148817	           1	           0	     2891.32	    0.540525	     1.39873	
9.08204e-005	    0.983576	    -1.27306	-5.33194e+006	5.33194e+006	    0.013775	    0.964092	    0.968407	           0	 -0.00431499	           1	           0	     4760.67	    0.417797	     1.51902	
9.09091e-005	    0.983576	    -1.27305	-5.33194e+006	5.33194e+006	    0.015025	    0.961788	    0.967219	           0	  -0.0054313	           1	           0	     1475.63	    0.660671	     1.27377	
 0.000105933	    0.983556	    -1.27264	-5.33194e+006	5.33194e+006	    0.016275	    0.963827	    0.966059	           0	  -0.0022312	           1	           0	     3817.05	    0.473027	     1.45909	
 0.000123561	    0.983534	    -1.27217	-5.33194e+006	5.33194e+006	    0.017525	     0.96251	    0.964926	           0	 -0.00241632	           1	           0	    -886.169	    0.964926	    0.964926	
 0.000144121	    0.983508	    -1.27161	-5.33194e+006	5.33194e+006	    0.018775	     0.95961	    0.963821	           0	 -0.00421082	           1	           0	     1311.89	    0.674781	     1.25286	
 0.000168104	    0.983477	    -1.27096	-5.33194e+006	5.33194e+006	    0.020025	    0.960508	    0.962741	           0	  -0.0022339	           1	           0	    -2403.96	    0.962741	    0.962741	
 0.000181818	     0.98346	    -1.27059	-5.33194e+006	5.33194e+006	    0.021275	     0.95612	    0.961687	           0	  -0.0055673	           1	           0	    -856.831	    0.961687	    0.961687	
 0.000196077	    0.983442	     -1.2702	-5.33194e+006	5.33194e+006	    0.022525	    0.957588	    0.960658	           0	 -0.00307025	           1	           0	    -3601.47	    0.960658	    0.960658	
 0.000228704	      0.9834	    -1.26932	-5.33194e+006	5.33194e+006	    0.023775	    0.957935	    0.959652	           0	 -0.00171707	           1	           0	     5515.35	    0.367004	      1.5523	
 0.000266761	    0.983352	    -1.26829	-5.33194e+006	5.33194e+006	    0.025025	    0.958963	     0.95867	           0	 0.000292955	           1	           0	     886.412	     0.72108	     1.19626	
 0.000311151	    0.983296	    -1.26709	-5.33194e+006	5.33194e+006	    0.026275	     0.95978	     0.95771	           0	  0.00207047	           1	           0	     6647.72	     0.30706	     1.60836	
 0.000362927	     0.98323	    -1.26569	-5.33194e+006	5.33194e+006	    0.027525	    0.954442	    0.956771	           0	 -0.00232888	           1	           0	     1762.04	    0.621791	     1.29175	
 0.000363636	    0.983229	    -1.26568	-5.33194e+006	5.33194e+006	    0.028775	    0.953163	    0.955854	           0	 -0.00269198	           1	           0	    -587.029	    0.955854	    0.955854	
 0.000423319	    0.983154	    -1.26407	-5.33194e+006	5.33194e+006	    0.030025	    0.951103	    0.954958	           0	  -0.0038555	           1	           0	     836.797	    0.724113	      1.1858	
 0.000493761	    0.983065	    -1.26217	-5.33194e+006	5.33194e+006	    0.031275	    0.952477	    0.954082	           0	 -0.00160461	           1	           0	     2285.26	    0.572597	     1.33557	
 0.000575924	    0.982961	    -1.25997	-5.33194e+006	5.33194e+006	    0.032525	    0.958448	    0.953226	           0	  0.00522199	           1	           0	    -2266.58	    0.953226	    0.953226	
 0.000671759	    0.982841	    -1.25741	-5.33194e+006	5.33194e+006	    0.033775	    0.956635	    0.952388	           0	  0.00424707	           1	           0	     3547.01	    0.477117	     1.42766	
 0.000727273	    0.982771	    -1.25593	-5.33194e+006	5.33194e+006	    0.035025	    0.952076	    0.951569	           0	 0.000507401	           1	           0	     4218.16	     0.43328	     1.46986	
 0.000783541	      0.9827	    -1.25443	-5.33194e+006	5.33194e+006	    0.036275	    0.951658	    0.950768	           0	 0.000889724	           1	           0	     6200.98	    0.322361	     1.57917	
 0.000913924	    0.982537	    -1.25096	-5.33194e+006	5.33194e+006	    0.037525	    0.950475	    0.949984	           0	 0.000490267	           1	           0	     -1081.7	    0.949984	    0.949984	
    0.001066	    0.982347	    -1.24693	-5.33194e+006	5.33194e+006	    0.038775	     0.95015	    0.949218	           0	 0.000932739	           1	           0	     2151.48	    0.579067	     1.31937	
  0.00124339	    0.982126	    -1.24226	-5.33194e+006	5.33194e+006	    0.040025	    0.950305	    0.948468	           0	  0.00183709	           1	           0	     1051.37	    0.689713	     1.20722	
  0.00145029	     0.98187	    -1.23683	-5.33194e+006	5.33194e+006	    0.041275	    0.952192	    0.947734	           0	  0.00445824	           1	           0	     5739.74	    0.343151	     1.55232	
  0.00145455	    0.981864	    -1.23672	-5.33194e+006	5.33194e+006	    0.042525	    0.942694	    0.947016	           0	 -0.00432239	           1	           0	     4179.55	    0.431105	     1.46293	
  0.00169162	    0.981572	    -1.23055	-5.33194e+006	5.33194e+006	    0.043775	    0.952076	    0.946314	           0	  0.00576261	           1	           0	     1377.79	    0.650102	     1.24253	
  0.00197312	    0.981227	    -1.22327	-5.33194e+006	5.33194e+006	    0.045025	    0.944467	    0.945626	           0	 -0.00115964	           1	           0	    -2222.05	    0.945626	    0.945626	
  0.00230145	    0.980826	    -1.21484	-5.33194e+006	5.33194e+006	    0.046275	    0.944466	    0.944953	           0	 -0.00048774	           1	           0	     5120.34	    0.373922	     1.51598	
  0.00268441	    0.980363	    -1.20512	-5.33194e+006	5.33194e+006	    0.047525	    0.942407	    0.944295	           0	 -0.00188809	           1	           0	     1582.97	    0.626792	      1.2618	
  0.00290909	    0.980093	    -1.19946	-5.33194e+006	5.33194e+006	    0.048775	    0.945213	     0.94365	           0	  0.00156291	           1	           0	    -4812.65	     0.94365	     0.94365	
  0.00313111	    0.979827	     -1.1939	-5.33194e+006	5.33194e+006	    0.050025	    0.944982	    0.943019	           0	  0.00196336	           1	           0	     7223.62	    0.264772	     1.62127	
  0.00365213	    0.979209	    -1.18099	-5.33194e+006	5.33194e+006	    0.051275	    0.938098	    0.942401	           0	 -0.00430316	           1	           0	    -3224.91	    0.942401	    0.942401	
  0.00425985	    0.978495	    -1.16617	-5.33194e+006	5.33194e+006	    0.052525	    0.943721	    0.941796	           0	  0.00192491	           1	           0	    -1550.51	    0.941796	    0.941796	
   0.0049687	    0.977675	    -1.14918	-5.33194e+006	5.33194e+006	    0.053775	    0.943399	    0.941203	           0	  0.00219565	           1	           0	    -434.844	    0.941203	    0.941203	
  0.00579551	    0.976733	    -1.12977	-5.33194e+006	5.33194e+006	    0.055025	    0.939164	    0.940623	           0	 -0.00145941	           1	           0	    -3865.06	    0.940623	    0.940623	
  0.00581818	    0.976707	    -1.12924	-5.33194e+006	5.33194e+006	    0.056275	    0.941662	    0.940055	           0	  0.00160679	           1	           0	     2989.78	     0.50371	      1.3764	
   0.0067599	    0.975654	    -1.10767	-5.33194e+006	5.33194e+006	    0.057525	    0.944372	    0.939498	           0	  0.00487377	           1	           0	     1590.73	    0.621219	     1.25778	
  0.00788476	    0.974422	    -1.08259	-5.33194e+006	5.33194e+006	    0.058775	    0.943608	    0.938953	           0	  0.00465405	           1	           0	     2804.19	    0.516368	     1.36154	
  0.00919681	     0.97302	    -1.05427	-5.33194e+006	5.33194e+006	    0.060025	    0.937237	     0.93842	           0	 -0.00118233	           1	           0	     4219.62	    0.420041	      1.4568	
   0.0107272	    0.971431	    -1.02243	-5.33194e+006	5.33194e+006	    0.061275	    0.938554	    0.937897	           0	 0.000657869	           1	           0	    -4938.54	    0.937897	    0.937897	
   0.0116364	     0.97051	     -1.0041	-5.33194e+006	5.33194e+006	    0.062525	     0.93905	    0.937384	           0	  0.00166615	           1	           0	    -4336.82	    0.937384	    0.937384	
   0.0125122	    0.969638	   -0.986846	-5.33194e+006	5.33194e+006	    0.063775	    0.936303	    0.936882	           0	-0.000578982	           1	           0	     364.596	    0.784507	     1.08926	
   0.0145943	    0.967625	   -0.947321	-5.33194e+006	5.33194e+006	    0.065025	    0.935426	    0.936391	           0	-0.000964802	           1	           0	    -4248.75	    0.936391	    0.936391	
   0.0170228	    0.965378	   -0.903735	-5.33194e+006	5.33194e+006	    0.066275	    0.938058	    0.935909	           0	  0.00214892	           1	           0	     1144.54	    0.665932	     1.20589	
   0.0198554	    0.962886	   -0.856061	-5.33194e+006	5.33194e+006	    0.067525	    0.938859	    0.935437	           0	  0.00342217	           1	           0	     -1663.4	    0.935437	    0.935437	
   0.0231594	    0.960144	   -0.804386	-5.33194e+006	5.33194e+006	    0.068775	    0.935426	    0.934975	           0	 0.000451652	           1	           0	     4218.52	    0.416664	     1.45329	
   0.0232727	    0.960053	   -0.802684	-5.33194e+006	5.33194e+006	    0.070025	    0.933042	    0.934521	           0	 -0.00147942	           1	           0	     355.653	    0.784026	     1.08502	
   0.0270132	    0.957153	    -0.74894	-5.33194e+006	5.33194e+006	    0.071275	    0.933366	    0.934077	           0	-0.000711087	           1	           0	      304.12	    0.794912	     1.07324	
   0.0315083	    0.953921	   -0.690112	-5.33194e+006	5.33194e+006	    0.072525	    0.933157	    0.933642	           0	-0.000485652	           1	           0	     2119.23	    0.566276	     1.30101	
   0.0367513	    0.950467	   -0.628467	-5.33194e+006	5.33194e+006	    0.073775	    0.938059	    0.933216	           0	  0.00484383	           1	           0	     4639.95	    0.389631	      1.4768	
   0.0428668	    0.946823	   -0.564742	-5.33194e+006	5.33194e+006	    0.075025	      0.9339	    0.932798	           0	  0.00110254	           1	           0	    -944.326	    0.932798	    0.932798	
   0.0465455	     0.94481	    -0.53011	-5.33194e+006	5.33194e+006	    0.076275	    0.937257	    0.932388	           0	  0.00486918	           1	           0	    -3879.84	    0.932388	    0.932388	
        0.05	    0.943031	   -0.499839	-5.33194e+006	5.33194e+006	    0.077525	    0.937182	    0.931987	           0	  0.00519491	           1	           0	      5009.5	     0.36717	      1.4968	
   0.0583201	     0.93915	   -0.434793	-5.33194e+006	5.33194e+006	    0.078775	    0.933099	    0.931593	           0	  0.00150591	           1	           0	    -700.263	    0.931593	    0.931593	
   0.0680247	    0.935251	   -0.370734	-5.33194e+006	5.33194e+006	    0.080025	    0.933385	    0.931207	           0	  0.00217785	           1	           0	    -115.366	    0.931207	    0.931207	
   0.0793442	    0.931416	   -0.308824	-5.33194e+006	5.33194e+006	    0.081275	    0.930314	    0.930829	           0	  -0.0005151	           1	           0	     2314.01	    0.546952	     1.31471	
   0.0925473	     0.92774	   -0.250204	-5.33194e+006	5.33194e+006	    0.082525	    0.929762	    0.930459	           0	-0.000697286	           1	           0	    -4144.75	    0.930459	    0.930459	
   0.0930909	    0.927605	   -0.248053	-5.33194e+006	5.33194e+006	    0.083775	    0.935237	    0.930096	           0	  0.00514095	           1	           0	     2938.35	     0.49752	     1.36267	
    0.107947	    0.924322	    -0.19592	-5.33194e+006	5.33194e+006	    0.085025	    0.932947	    0.929739	           0	  0.00320726	           1	           0	    -1027.92	    0.929739	    0.929739	
     0.12591	    0.921263	   -0.146869	-5.33194e+006	5.33194e+006	    0.086275	    0.935369	     0.92939	           0	  0.00597854	           1	           0	    -775.807	     0.92939	     0.92939	
    0.146862	     0.91866	   -0.103752	-5.33194e+006	5.33194e+006	    0.087525	    0.928235	    0.929048	           0	 -0.00081281	           1	           0	     1205.13	    0.652018	     1.20608	
      0.1713	    0.916598	  -0.0670353	-5.33194e+006	5.33194e+006	    0.088775	    0.931153	    0.928713	           0	  0.00243985	           1	           0	     1731.95	    0.596605	     1.26082	
    0.186182	    0.915732	  -0.0499194	-5.33194e+006	5.33194e+006	    0.090025	    0.932183	    0.928384	           0	   0.0037994	           1	           0	    -1759.22	    0.928384	    0.928384	
    0.199805	    0.915143	  -0.0369337	-5.33194e+006	5.33194e+006	    0.091275	    0.932737	    0.928062	           0	  0.00467498	           1	           0	    -2139.39	    0.928062	    0.928062	
    0.233053	    0.914334	  -0.0134001	-5.33194e+006	5.33194e+006	    0.092525	    0.931688	    0.927746	           0	  0.00394198	           1	           0	     -933.53	    0.927746	    0.927746	
    0.271834	    0.914177	  0.00387342	-5.33194e+006	5.33194e+006	    0.093775	    0.930658	    0.927436	           0	  0.00322201	           1	           0	    -3778.91	    0.927436	    0.927436	
    0.317067	    0.914641	   0.0154437	-5.33194e+006	5.33194e+006	    0.095025	    0.927797	    0.927132	           0	  0.00066445	           1	           0	     5721.48	    0.323511	     1.53075	
    0.369828	    0.915655	   0.0220878	-5.33194e+006	5.33194e+006	    0.096275	     0.92774	    0.926835	           0	 0.000905175	           1	           0	     2068.37	    0.563903	     1.28977	
    0.372364	    0.915712	    0.022283	-5.33194e+006	5.33194e+006	    0.097525	    0.930124	    0.926543	           0	  0.00358105	           1	           0	      1567.1	    0.610636	     1.24245	
    0.431368	    0.917116	   0.0247503	-5.33194e+006	5.33194e+006	    0.098775	    0.930619	    0.926257	           0	  0.00436294	           1	           0	     1108.12	     0.66061	      1.1919	
    0.503149	    0.918897	   0.0244595	-5.33194e+006	5.33194e+006	      0.1001	    0.931401	    0.925959	           0	  0.00544212	           1	           0	    -1288.41	    0.925959	    0.925959	
    0.586875	    0.920859	   0.0222233	-5.33194e+006	5.33194e+006	      0.1051	    0.925794	    0.924893	           0	 0.000901144	           1	           0	    -4523.17	    0.924893	    0.924893	
    0.684532	     0.92287	   0.0189246	-5.33194e+006	5.33194e+006	      0.1101	    0.924192	    0.923907	           0	 0.000284674	           1	           0	     1443.36	    0.620729	     1.22709	
    0.744727	    0.923948	   0.0169246	-5.33194e+006	5.33194e+006	      0.1151	     0.92341	    0.922998	           0	 0.000412747	           1	           0	    -3619.98	    0.922998	    0.922998	
     0.79844	    0.924812	   0.0152514	-5.33194e+006	5.33194e+006	      0.1201	    0.918165	    0.922158	           0	 -0.00399288	           1	           0	     990.735	    0.670975	     1.17334	
    0.931302	    0.926591	   0.0116774	-5.33194e+006	5.33194e+006	      0.1251	    0.923353	    0.921383	           0	  0.00197006	           1	           0	     -2368.7	    0.921383	    0.921383	
           1	     0.92734	   0.0101437	-5.33194e+006	5.33194e+006	      0.1301	    0.925126	    0.920668	           0	  0.00445845	           1	           0	    -3743.77	    0.920668	    0.920668	
     1.08627	    0.928141	  0.00848949	-5.33194e+006	5.33194e+006	      0.1351	    0.921331	     0.92001	           0	  0.00132125	           1	           0	    -29.5032	     0.92001	     0.92001	
     1.26703	    0.929421	  0.00583518	-5.33194e+006	5.33194e+006	      0.1401	    0.921579	    0.919403	           0	  0.00217584	           1	           0	     -635.95	    0.919403	    0.919403	
     1.47787	    0.930417	  0.00376422	-5.33194e+006	5.33194e+006	      0.1451	     0.92013	    0.918845	           0	  0.00128407	           1	           0	    -3208.46	    0.918845	    0.918845	
     1.48945	    0.930461	   0.0036746	-5.33194e+006	5.33194e+006	      0.1501	    0.922704	    0.918333	           0	  0.00437096	           1	           0	    -878.941	    0.918333	    0.918333	
     1.72379	    0.931142	  0.00225679	-5.33194e+006	5.33194e+006	      0.1551	    0.913816	    0.917863	           0	 -0.00404693	           1	           0	    -1883.11	    0.917863	    0.917863	
     2.01063	     0.93163	  0.00124253	-5.33194e+006	5.33194e+006	      0.1601	     0.92095	    0.917432	           0	  0.00351745	           1	           0	      3806.9	    0.425057	     1.40981	
     2.34521	    0.931929	 0.000619428	-5.33194e+006	5.33194e+006	      0.1651	    0.917078	    0.917039	           0	3.92218e-005	           1	           0	     723.391	    0.702405	     1.13167	
     2.73546	    0.932095	 0.000275022	-5.33194e+006	5.33194e+006	      0.1701	    0.915818	    0.916679	           0	-0.000860717	           1	           0	    -1285.23	    0.916679	    0.916679	
     2.97891	    0.932147	 0.000165724	-5.33194e+006	5.33194e+006	      0.1751	    0.913034	    0.916352	           0	 -0.00331812	           1	           0	     1785.02	    0.579195	     1.25351	
     3.19064	    0.932175	 0.000106676	-5.33194e+006	5.33194e+006	      0.1801	    0.913568	    0.916055	           0	 -0.00248741	           1	           0	    -4384.11	    0.916055	    0.916055	
     3.72157	     0.93221	3.53447e-005	-5.33194e+006	5.33194e+006	      0.1851	    0.915761	    0.915786	           0	-2.51551e-005	           1	           0	     2893.27	    0.486542	     1.34503	
     4.34085	    0.932222	9.74431e-006	-5.33194e+006	5.33194e+006	      0.1901	    0.914713	    0.915544	           0	 -0.00083155	           1	           0	    -1912.54	    0.915544	    0.915544	
     5.06318	    0.932226	2.16802e-006	-5.33194e+006	5.33194e+006	      0.1951	     0.91166	    0.915326	           0	 -0.00366592	           1	           0	    -866.642	    0.915326	    0.915326	
     5.90571	    0.932227	3.75636e-007	-5.33194e+006	5.33194e+006	      0.2001	    0.913816	    0.915132	           0	  -0.0013162	           1	           0	    -2504.97	    0.915132	    0.915132	
     5.95782	    0.932227	3.37041e-007	-5.33194e+006	5.33194e+006	      0.2051	     0.91496	    0.914959	           0	1.32302e-006	           1	           0	    -4118.14	    0.914959	    0.914959	
     6.88843	    0.932227	4.86172e-008	-5.33194e+006	5.33194e+006	      0.2101	    0.918336	    0.914807	           0	  0.00352951	           1	           0	     1322.98	    0.624547	     1.20507	
     8.03469	    0.932227	4.47766e-009	-5.33194e+006	5.33194e+006	      0.2151	    0.912709	    0.914673	           0	 -0.00196387	           1	           0	    -2965.76	    0.914673	    0.914673	
     9.37168	    0.932227	 2.7731e-010	-5.33194e+006	5.33194e+006	      0.2201	    0.914693	    0.914558	           0	 0.000135639	           1	           0	    -330.939	    0.914558	    0.914558	
     10.9312	    0.932227	1.08098e-011	-5.33194e+006	5.33194e+006	      0.2251	    0.917077	    0.914459	           0	  0.00261839	           1	           0	    -343.053	    0.914459	    0.914459	
     11.9156	    0.932227	1.39488e-012	-5.33194e+006	5.33194e+006	      0.2301	    0.913835	    0.914376	           0	-0.000541056	           1	           0	     -384.87	    0.914376	    0.914376	
     12.7501	    0.932227	2.45761e-013	-5.33194e+006	5.33194e+006	      0.2351	    0.914693	    0.914308	           0	  0.00038577	           1	           0	    -2078.68	    0.914308	    0.914308	
     14.8718	    0.932227	2.71024e-015	-5.33194e+006	5.33194e+006	      0.2401	    0.912805	    0.914253	           0	 -0.00144821	           1	           0	    -3567.41	    0.914253	    0.914253	
     17.3465	    0.932227	 -1.436e-017	-5.33194e+006	5.33194e+006	      0.2451	    0.914331	    0.914212	           0	 0.000119124	           1	           0	    -6804.79	    0.914212	    0.914212	
      20.233	    0.932227	-6.15351e-017	-5.33194e+006	5.33194e+006	      0.2501	    0.913034	    0.914182	           0	 -0.00114818	           1	           0	     3094.71	    0.470246	     1.35812	
     23.5998	    0.932227	1.20085e-016	-5.33194e+006	5.33194e+006	      0.2551	    0.914102	    0.914164	           0	-6.20929e-005	           1	           0	    -836.293	    0.914164	    0.914164	
     23.8313	    0.932227	1.21639e-016	-5.33194e+006	5.33194e+006	      0.2601	    0.909868	    0.914157	           0	 -0.00428891	           1	           0	     2459.92	    0.518361	     1.30995	
     27.5269	    0.932227	-1.17965e-017	-5.33194e+006	5.33194e+006	      0.2651	    0.908056	    0.914159	           0	 -0.00610346	           1	           0	     2457.22	    0.518581	     1.30974	
     32.1074	    0.932227	1.41825e-017	-5.33194e+006	5.33194e+006	      0.2701	    0.909563	    0.914171	           0	 -0.00460861	           1	           0	    -1203.62	    0.914171	    0.914171	
     37.4501	    0.932227	8.71268e-018	-5.33194e+006	5.33194e+006	      0.2751	    0.907445	    0.914192	           0	 -0.00674651	           1	           0	     907.395	    0.673806	     1.15458	
     43.6819	    0.932227	-9.89363e-018	-5.33194e+006	5.33194e+006	      0.2801	     0.91065	    0.914221	           0	 -0.00357085	           1	           0	      -629.1	    0.914221	    0.914221	
     47.6625	    0.932227	-5.32667e-019	-5.33194e+006	5.33194e+006	      0.2851	    0.908017	    0.914257	           0	 -0.00623985	           1	           0	     -6090.8	    0.914257	    0.914257	
     50.9507	    0.932227	-9.36526e-019	-5.33194e+006	5.33194e+006	      0.2901	    0.914446	    0.914301	           0	 0.000144741	           1	           0	     4370.24	    0.386752	     1.44185	
     59.4291	    0.932227	1.97585e-019	-5.33194e+006	5.33194e+006	      0.2951	    0.912976	    0.914351	           0	 -0.00137462	           1	           0	    -2687.38	    0.914351	    0.914351	
     69.3182	    0.932227	1.15068e-021	-5.33194e+006	5.33194e+006	      0.3001	    0.913511	    0.914408	           0	-0.000897232	           1	           0	    -2156.14	    0.914408	    0.914408	
     80.8529	    0.932227	1.15068e-021	-5.33194e+006	5.33194e+006	      0.3051	     0.91187	     0.91447	           0	 -0.00259993	           1	           0	    -1070.83	     0.91447	     0.91447	
     94.3071	    0.932227	1.15068e-021	-5.33194e+006	5.33194e+006	      0.3101	     0.91498	    0.914538	           0	 0.000441424	           1	           0	    -3661.45	    0.914538	    0.914538	
         110	    0.932227	1.15068e-021	-5.33194e+006	5.33194e+006	      0.3151	    0.916067	    0.914611	           0	  0.00145546	           1	           0	    -1639.07	    0.914611	    0.914611	
 --	 --	 --	 --	 --	      0.3201	    0.910116	    0.914689	           0	 -0.00457324	           1	           0	     1443.41	    0.611505	     1.21787	
 --	 --	 --	 --	 --	      0.3251	    0.912481	    0.914771	           0	 -0.00229032	           1	           0	    -4488.88	    0.914771	    0.914771	
 --	 --	 --	 --	 --	      0.3301	    0.915132	    0.914857	           0	 0.000274759	           1	           0	    -2286.38	    0.914857	    0.914857	
 --	 --	 --	 --	 --	      0.3351	     0.91023	    0.914947	           0	 -0.00471695	           1	           0	    -2505.51	    0.914947	    0.914947	
 --	 --	 --	 --	 --	      0.3401	    0.917917	     0.91504	           0	  0.00287633	           1	           0	    -3559.09	     0.91504	     0.91504	
 --	 --	 --	 --	 --	      0.3451	    0.912729	    0.915137	           0	 -0.00240839	           1	           0	     253.103	     0.78818	     1.04209	
 --	 --	 --	 --	 --	      0.3501	    0.909963	    0.915237	           0	 -0.00527362	           1	           0	    -308.666	    0.915237	    0.915237	
 --	 --	 --	 --	 --	      0.3551	    0.916372	    0.915339	           0	  0.00103238	           1	           0	    -3510.73	    0.915339	    0.915339	
 --	 --	 --	 --	 --	      0.3601	    0.916791	    0.915444	           0	  0.00134684	           1	           0	    -739.548	    0.915444	    0.915444	
 --	 --	 --	 --	 --	      0.3651	     0.91641	    0.915552	           0	 0.000857948	           1	           0	     1254.44	    0.632911	     1.19819	
 --	 --	 --	 --	 --	      0.3701	    0.913473	    0.915661	           0	 -0.00218884	           1	           0	     -2520.4	    0.915661	    0.915661	
 --	 --	 --	 --	 --	      0.3751	    0.907846	    0.915773	           0	 -0.00792708	           1	           0	    -4937.04	    0.915773	    0.915773	
 --	 --	 --	 --	 --	      0.3801	    0.918584	    0.915886	           0	  0.00269788	           1	           0	    -2636.24	    0.915886	    0.915886	
 --	 --	 --	 --	 --	      0.3851	    0.914064	    0.916001	           0	 -0.00193702	           1	           0	     1050.78	     0.65732	     1.17468	
 --	 --	 --	 --	 --	      0.3901	    0.912919	    0.916117	           0	 -0.00319789	           1	           0	       -3923	    0.916117	    0.916117	
 --	 --	 --	 --	 --	      0.3951	    0.912347	    0.916235	           0	 -0.00388783	           1	           0	    -8967.27	    0.916235	    0.916235	
 --	 --	 --	 --	 --	      0.4001	    0.918508	    0.916354	           0	  0.00215406	           1	           0	    -6863.75	    0.916354	    0.916354	
 --	 --	 --	 --	 --	      0.4051	    0.914808	    0.916474	           0	 -0.00166611	           1	           0	    -1259.79	    0.916474	    0.916474	
 --	 --	 --	 --	 --	      0.4101	     0.91414	    0.916595	           0	 -0.00245444	           1	           0	    -451.549	    0.916595	    0.916595	
 --	 --	 --	 --	 --	      0.4151	     0.92175	    0.916716	           0	  0.00503416	           1	           0	    -7083.23	    0.916716	    0.916716	
 --	 --	 --	 --	 --	      0.4201	    0.911642	    0.916839	           0	 -0.00519718	           1	           0	    -5721.27	    0.916839	    0.916839	
 --	 --	 --	 --	 --	      0.4251	    0.911012	    0.916962	           0	 -0.00594962	           1	           0	     2361.12	    0.529196	     1.30473	
 --	 --	 --	 --	 --	      0.4301	    0.914598	    0.917085	           0	 -0.00248706	           1	           0	    -4328.67	    0.917085	    0.917085	
 --	 --	 --	 --	 --	      0.4351	    0.914312	    0.917209	           0	 -0.00289715	           1	           0	     1644.99	    0.593546	     1.24087	
 --	 --	 --	 --	 --	      0.4401	    0.915609	    0.917333	           0	  -0.0017243	           1	           0	     2696.48	    0.502944	     1.33172	
 --	 --	 --	 --	 --	      0.4451	    0.913644	    0.917457	           0	 -0.00381294	           1	           0	    -1076.76	    0.917457	    0.917457	
 --	 --	 --	 --	 --	      0.4501	    0.910936	    0.917582	           0	 -0.00664624	           1	           0	     3822.56	    0.424195	     1.41097	
 --	 --	 --	 --	 --	      0.4551	    0.915838	    0.917707	           0	 -0.00186888	           1	           0	    -935.246	    0.917707	    0.917707	
 --	 --	 --	 --	 --	      0.4601	    0.918737	    0.917831	           0	 0.000905465	           1	           0	    -7106.36	    0.917831	    0.917831	
 --	 --	 --	 --	 --	      0.4651	    0.915933	    0.917956	           0	 -0.00202264	           1	           0	     2262.46	    0.538378	     1.29753	
 --	 --	 --	 --	 --	      0.4701	    0.915227	     0.91808	           0	 -0.00285289	           1	           0	     1111.42	    0.652039	     1.18412	
 --	 --	 --	 --	 --	      0.4751	    0.913492	    0.918205	           0	 -0.00471323	           1	           0	     1854.68	    0.574533	     1.26188	
 --	 --	 --	 --	 --	      0.4801	    0.912767	    0.918329	           0	  -0.0055621	           1	           0	     2365.12	    0.530235	     1.30642	
 --	 --	 --	 --	 --	      0.4851	     0.91992	    0.918453	           0	   0.0014668	           1	           0	     1362.04	    0.623939	     1.21297	
 --	 --	 --	 --	 --	      0.4901	    0.916486	    0.918576	           0	 -0.00208999	           1	           0	     2188.13	    0.545286	     1.29187	
 --	 --	 --	 --	 --	      0.4951	    0.912481	    0.918699	           0	 -0.00621868	           1	           0	    -2613.68	    0.918699	    0.918699	
 --	 --	 --	 --	 --	      0.5001	    0.918374	    0.918822	           0	 -0.00044796	           1	           0	    -2008.35	    0.918822	    0.918822	
 --	 --	 --	 --	 --	      0.5051	    0.914121	    0.918945	           0	 -0.00482381	           1	           0	    -735.695	    0.918945	    0.918945	
 --	 --	 --	 --	 --	      0.5101	    0.914331	    0.919066	           0	 -0.00473593	           1	           0	    -899.058	    0.919066	    0.919066	
 --	 --	 --	 --	 --	      0.5151	    0.920377	    0.919188	           0	   0.0011892	           1	           0	    -1200.86	    0.919188	    0.919188	
 --	 --	 --	 --	 --	      0.5201	    0.915914	    0.919309	           0	 -0.00339462	           1	           0	     1280.71	    0.633724	     1.20489	
 --	 --	 --	 --	 --	      0.5251	    0.915914	    0.919429	           0	 -0.00351513	           1	           0	    -4177.24	    0.919429	    0.919429	
 --	 --	 --	 --	 --	      0.5301	    0.921941	    0.919549	           0	  0.00239245	           1	           0	     728.431	    0.704169	     1.13493	
 --	 --	 --	 --	 --	      0.5351	    0.917974	    0.919668	           0	 -0.00169384	           1	           0	    -975.345	    0.919668	    0.919668	
 --	 --	 --	 --	 --	      0.5401	    0.916772	    0.919786	           0	 -0.00301349	           1	           0	     179.307	    0.812928	     1.02664	
 --	 --	 --	 --	 --	      0.5451	    0.919748	    0.919904	           0	 -0.00015598	           1	           0	    -1714.97	    0.919904	    0.919904	
 --	 --	 --	 --	 --	      0.5501	    0.920911	    0.920021	           0	 0.000890472	           1	           0	    -3836.34	    0.920021	    0.920021	
 --	 --	 --	 --	 --	      0.5551	    0.918317	    0.920137	           0	 -0.00181987	           1	           0	    -1302.74	    0.920137	    0.920137	
 --	 --	 --	 --	 --	      0.5601	    0.915571	    0.920253	           0	 -0.00468174	           1	           0	     143.229	    0.824748	     1.01576	
 --	 --	 --	 --	 --	      0.5651	    0.918088	    0.920368	           0	 -0.00227938	           1	           0	    -481.797	    0.920368	    0.920368	
 --	 --	 --	 --	 --	      0.5701	    0.923772	    0.920482	           0	  0.00329049	           1	           0	    -1545.22	    0.920482	    0.920482	
 --	 --	 --	 --	 --	      0.5751	     0.92074	    0.920595	           0	 0.000144623	           1	           0	    -1533.57	    0.920595	    0.920595	
 --	 --	 --	 --	 --	      0.5801	    0.915571	    0.920708	           0	 -0.00513696	           1	           0	     450.438	    0.751341	     1.09007	
 --	 --	 --	 --	 --	      0.5851	    0.922837	     0.92082	           0	  0.00201799	           1	           0	    -1662.71	     0.92082	     0.92082	
 --	 --	 --	 --	 --	      0.5901	    0.922056	    0.920931	           0	  0.00112499	           1	           0	    -1339.24	    0.920931	    0.920931	
 --	 --	 --	 --	 --	      0.5951	    0.918127	    0.921041	           0	 -0.00291395	           1	           0	    -875.131	    0.921041	    0.921041	
 --	 --	 --	 --	 --	      0.6001	    0.915151	     0.92115	           0	 -0.00599908	           1	           0	     1394.21	    0.623179	     1.21912	
 --	 --	 --	 --	 --	      0.6051	    0.922418	    0.921259	           0	  0.00115937	           1	           0	     2473.23	    0.524394	     1.31812	
 --	 --	 --	 --	 --	      0.6101	    0.922799	    0.921366	           0	   0.0014329	           1	           0	     3396.73	    0.456272	     1.38646	
 --	 --	 --	 --	 --	      0.6151	    0.919385	    0.921473	           0	 -0.00208774	           1	           0	     288.216	    0.785995	     1.05695	
 --	 --	 --	 --	 --	      0.6201	    0.913949	    0.921579	           0	 -0.00763003	           1	           0	     2718.01	    0.505538	     1.33762	
 --	 --	 --	 --	 --	      0.6251	    0.922494	    0.921684	           0	 0.000809765	           1	           0	     -822.13	    0.921684	    0.921684	
 --	 --	 --	 --	 --	      0.6301	    0.920358	    0.921789	           0	 -0.00143059	           1	           0	     2057.92	    0.559775	      1.2838	
 --	 --	 --	 --	 --	      0.6351	    0.921121	    0.921892	           0	-0.000771341	           1	           0	    -2494.44	    0.921892	    0.921892	
 --	 --	 --	 --	 --	      0.6401	    0.925603	    0.921995	           0	  0.00360826	           1	           0	     2592.41	    0.515681	     1.32831	
 --	 --	 --	 --	 --	      0.6451	    0.919824	    0.922097	           0	 -0.00227303	           1	           0	      1065.1	    0.661658	     1.18254	
 --	 --	 --	 --	 --	      0.6501	    0.921941	    0.922198	           0	-0.000256722	           1	           0	     6111.66	    0.298334	     1.54606	
 --	 --	 --	 --	 --	      0.6551	    0.924383	    0.922298	           0	  0.00208495	           1	           0	     4283.63	    0.400002	     1.44459	
 --	 --	 --	 --	 --	      0.6601	    0.920053	    0.922397	           0	 -0.00234403	           1	           0	     2899.03	    0.492725	     1.35207	
 --	 --	 --	 --	 --	      0.6651	    0.921655	    0.922495	           0	-0.000840147	           1	           0	    -4068.94	    0.922495	    0.922495	
 --	 --	 --	 --	 --	      0.6701	    0.920358	    0.922593	           0	 -0.00223466	           1	           0	    -1088.07	    0.922593	    0.922593	
 --	 --	 --	 --	 --	      0.6751	    0.923582	     0.92269	           0	 0.000891933	           1	           0	     1971.14	    0.568391	     1.27699	
 --	 --	 --	 --	 --	      0.6801	    0.924345	    0.922785	           0	  0.00155938	           1	           0	     4766.26	    0.371852	     1.47372	
 --	 --	 --	 --	 --	      0.6851	    0.921731	     0.92288	           0	 -0.00114907	           1	           0	      1394.5	    0.624878	     1.22088	
 --	 --	 --	 --	 --	      0.6901	    0.920339	    0.922974	           0	 -0.00263567	           1	           0	    -501.019	    0.922974	    0.922974	
 --	 --	 --	 --	 --	      0.6951	    0.919996	    0.923068	           0	 -0.00307193	           1	           0	     397.629	    0.763939	      1.0822	
 --	 --	 --	 --	 --	      0.7001	    0.920549	     0.92316	           0	 -0.00261134	           1	           0	     1062.45	    0.663046	     1.18327	
 --	 --	 --	 --	 --	      0.7051	    0.923048	    0.923252	           0	-0.000203908	           1	           0	     2555.93	    0.519806	      1.3267	
 --	 --	 --	 --	 --	      0.7101	    0.927072	    0.923342	           0	  0.00372961	           1	           0	    -524.391	    0.923342	    0.923342	
 --	 --	 --	 --	 --	      0.7151	    0.922552	    0.923432	           0	-0.000880532	           1	           0	     -2442.9	    0.923432	    0.923432	
 --	 --	 --	 --	 --	      0.7201	    0.924096	    0.923521	           0	 0.000575155	           1	           0	     6966.92	    0.257435	     1.58961	
 --	 --	 --	 --	 --	      0.7251	    0.917478	     0.92361	           0	 -0.00613133	           1	           0	     1078.15	    0.661581	     1.18564	
 --	 --	 --	 --	 --	      0.7301	     0.92505	    0.923697	           0	  0.00135326	           1	           0	     563.367	    0.734286	     1.11311	
 --	 --	 --	 --	 --	      0.7351	    0.921369	    0.923784	           0	 -0.00241433	           1	           0	     5582.62	    0.327532	     1.52004	
 --	 --	 --	 --	 --	      0.7401	    0.924993	    0.923869	           0	  0.00112364	           1	           0	     942.435	    0.678886	     1.16885	
 --	 --	 --	 --	 --	      0.7451	    0.923086	    0.923954	           0	-0.000868829	           1	           0	     895.292	    0.685177	     1.16273	
 --	 --	 --	 --	 --	      0.7501	    0.921235	    0.924038	           0	 -0.00280299	           1	           0	     2743.33	    0.506065	     1.34201	
 --	 --	 --	 --	 --	      0.7551	    0.927339	    0.924122	           0	  0.00321715	           1	           0	     1082.39	    0.661578	     1.18667	
 --	 --	 --	 --	 --	      0.7601	    0.926824	    0.924204	           0	  0.00261959	           1	           0	    -1900.82	    0.924204	    0.924204	
 --	 --	 --	 --	 --	      0.7651	    0.921903	    0.924286	           0	 -0.00238294	           1	           0	     240.659	    0.800489	     1.04808	
 --	 --	 --	 --	 --	      0.7701	    0.923925	    0.924367	           0	-0.000442172	           1	           0	     773.109	    0.702481	     1.14625	
 --	 --	 --	 --	 --	      0.7751	    0.925737	    0.924447	           0	  0.00128937	           1	           0	    -844.516	    0.924447	    0.924447	
 --	 --	 --	 --	 --	      0.7801	    0.927416	    0.924527	           0	  0.00288869	           1	           0	     2970.83	    0.489567	     1.35949	
 --	 --	 --	 --	 --	      0.7851	    0.922113	    0.924605	           0	 -0.00249272	           1	           0	     2510.97	    0.524724	     1.32449	
 --	 --	 --	 --	 --	      0.7901	    0.926614	    0.924683	           0	  0.00193089	           1	           0	    -2918.75	    0.924683	    0.924683	
 --	 --	 --	 --	 --	      0.7951	    0.928274	    0.924761	           0	  0.00351325	           1	           0	     840.464	     0.69341	     1.15611	
 --	 --	 --	 --	 --	      0.8001	    0.925527	    0.924837	           0	 0.000690116	           1	           0	    -1790.16	    0.924837	    0.924837	
 --	 --	 --	 --	 --	      0.8051	    0.924573	    0.924913	           0	 -0.00033927	           1	           0	    -3570.65	    0.924913	    0.924913	
 --	 --	 --	 --	 --	      0.8101	    0.920701	    0.924987	           0	 -0.00428591	           1	           0	     -3045.2	    0.924987	    0.924987	
 --	 --	 --	 --	 --	      0.8151	    0.925928	    0.925062	           0	  0.00086618	           1	           0	       -4428	    0.925062	    0.925062	
 --	 --	 --	 --	 --	      0.8201	    0.921064	    0.925135	           0	 -0.00407125	           1	           0	     3474.54	    0.454744	     1.39553	
 --	 --	 --	 --	 --	      0.8251	    0.924669	    0.925208	           0	-0.000538697	           1	           0	    -924.813	    0.925208	    0.925208	
 --	 --	 --	 --	 --	      0.8301	    0.926176	     0.92528	           0	 0.000896071	           1	           0	     449.431	    0.756102	     1.09446	
 --	 --	 --	 --	 --	      0.8351	    0.925928	    0.925351	           0	 0.000576552	           1	           0	     3051.43	     0.48453	     1.36617	
 --	 --	 --	 --	 --	      0.8401	    0.927568	    0.925422	           0	  0.00214649	           1	           0	      319.54	    0.782771	     1.06807	
 --	 --	 --	 --	 --	      0.8451	    0.926881	    0.925491	           0	  0.00138988	           1	           0	     5737.46	    0.321028	     1.52995	
 --	 --	 --	 --	 --	      0.8501	    0.923009	    0.925561	           0	 -0.00255128	           1	           0	    -4786.09	    0.925561	    0.925561	
 --	 --	 --	 --	 --	      0.8551	    0.930868	    0.925629	           0	  0.00523924	           1	           0	    -5589.87	    0.925629	    0.925629	
 --	 --	 --	 --	 --	      0.8601	    0.924306	    0.925697	           0	  -0.0013908	           1	           0	     6731.35	    0.270968	     1.58043	
 --	 --	 --	 --	 --	      0.8651	    0.923792	    0.925764	           0	 -0.00197241	           1	           0	    -1435.57	    0.925764	    0.925764	
 --	 --	 --	 --	 --	      0.8701	    0.930067	     0.92583	           0	  0.00423615	           1	           0	     5888.78	    0.313448	     1.53821	
 --	 --	 --	 --	 --	      0.8751	    0.926404	    0.925896	           0	 0.000508122	           1	           0	     2303.62	    0.542881	     1.30891	
 --	 --	 --	 --	 --	      0.8801	    0.925832	    0.925961	           0	-0.000128992	           1	           0	    -381.455	    0.925961	    0.925961	
 --	 --	 --	 --	 --	      0.8851	    0.926957	    0.926026	           0	 0.000931549	           1	           0	    -3547.52	    0.926026	    0.926026	
 --	 --	 --	 --	 --	      0.8901	    0.921674	     0.92609	           0	 -0.00441551	           1	           0	      1662.5	    0.600709	     1.25147	
 --	 --	 --	 --	 --	      0.8951	    0.923467	    0.926153	           0	 -0.00268593	           1	           0	     1917.03	    0.576752	     1.27555	
 --	 --	 --	 --	 --	      0.9001	    0.930963	    0.926215	           0	  0.00474804	           1	           0	     1283.51	    0.640318	     1.21211	
 --	 --	 --	 --	 --	      0.9051	    0.929456	    0.926277	           0	  0.00317914	           1	           0	    -3329.93	    0.926277	    0.926277	
 --	 --	 --	 --	 --	      0.9101	    0.928102	    0.926338	           0	  0.00176361	           1	           0	     2641.13	    0.516224	     1.33645	
 --	 --	 --	 --	 --	      0.9151	    0.931535	    0.926399	           0	  0.00513596	           1	           0	     5074.57	    0.357926	     1.49487	
 --	 --	 --	 --	 --	      0.9201	    0.925565	    0.926459	           0	-0.000893831	           1	           0	    -1018.27	    0.926459	    0.926459	
 --	 --	 --	 --	 --	      0.9251	    0.923887	    0.926519	           0	 -0.00263176	           1	           0	     1949.75	    0.574147	     1.27889	
 --	 --	 --	 --	 --	      0.9301	    0.925146	    0.926577	           0	 -0.00143159	           1	           0	    -2230.52	    0.926577	    0.926577	
 --	 --	 --	 --	 --	      0.9351	    0.931287	    0.926636	           0	  0.00465167	           1	           0	    -707.024	    0.926636	    0.926636	
 --	 --	 --	 --	 --	      0.9401	    0.928521	    0.926693	           0	  0.00182803	           1	           0	     -1625.8	    0.926693	    0.926693	
 --	 --	 --	 --	 --	      0.9451	    0.925108	     0.92675	           0	 -0.00164277	           1	           0	     7098.61	    0.254398	      1.5991	
 --	 --	 --	 --	 --	      0.9501	    0.926633	    0.926807	           0	-0.000173497	           1	           0	     4113.82	    0.414968	     1.43865	
 --	 --	 --	 --	 --	      0.9551	     0.92999	    0.926863	           0	   0.0031276	           1	           0	    -415.144	    0.926863	    0.926863	
 --	 --	 --	 --	 --	      0.9601	    0.927987	    0.926918	           0	  0.00106952	           1	           0	     152.314	    0.828431	     1.02541	
 --	 --	 --	 --	 --	      0.9651	    0.928083	    0.926973	           0	  0.00111025	           1	           0	     1218.97	    0.648356	     1.20559	
 --	 --	 --	 --	 --	      0.9701	    0.923467	    0.927027	           0	 -0.00355995	           1	           0	       776.8	    0.704611	     1.14944	
 --	 --	 --	 --	 --	      0.9751	    0.930067	    0.927081	           0	  0.00298614	           1	           0	    -4292.49	    0.927081	    0.927081	
 --	 --	 --	 --	 --	      0.9801	     0.93245	    0.927134	           0	  0.00531628	           1	           0	    -605.164	    0.927134	    0.927134	
 --	 --	 --	 --	 --	      0.9851	    0.927568	    0.927186	           0	 0.000381467	           1	           0	    -57.4957	    0.927186	    0.927186	
 --	 --	 --	 --	 --	      0.9901	    0.926919	    0.927238	           0	-0.000319061	           1	           0	     3446.62	    0.458741	     1.39574	
 --	 --	 --	 --	 --	      0.9951	    0.928026	     0.92729	           0	 0.000735942	           1	           0	     5084.38	    0.358267	     1.49631	
 --	 --	 --	 --	 --	      1.0001	    0.929323	    0.927341	           0	  0.00198197	           1	           0	     1747.06	    0.593788	     1.26089	
 --	 --	 --	 --	 --	      1.0051	    0.928045	    0.927391	           0	 0.000653524	           1	           0	     3737.16	    0.439547	     1.41524	
 --	 --	 --	 --	 --	      1.0101	    0.928541	    0.927441	           0	  0.00109934	           1	           0	     3115.48	    0.482018	     1.37286	
 --	 --	 --	 --	 --	      1.0151	    0.929457	    0.927491	           0	  0.00196592	           1	           0	     8525.88	    0.190639	     1.66434	
 --	 --	 --	 --	 --	      1.0201	    0.924459	    0.927539	           0	 -0.00308024	           1	           0	     1391.77	    0.629829	     1.22525	
 --	 --	 --	 --	 --	      1.0251	     0.93144	    0.927588	           0	  0.00385185	           1	           0	     347.633	    0.778799	     1.07638	
 --	 --	 --	 --	 --	      1.0301	     0.92959	    0.927636	           0	  0.00195393	           1	           0	     4805.35	    0.374448	     1.48082	
 --	 --	 --	 --	 --	      1.0351	    0.928388	    0.927683	           0	 0.000704754	           1	           0	     2584.63	    0.521979	     1.33339	
 --	 --	 --	 --	 --	      1.0401	    0.929704	     0.92773	           0	  0.00197382	           1	           0	     5444.68	    0.338891	     1.51657	
 --	 --	 --	 --	 --	      1.0451	    0.931993	    0.927777	           0	  0.00421636	           1	           0	     2927.93	    0.495969	     1.35958	
 --	 --	 --	 --	 --	      1.0501	    0.923639	    0.927823	           0	 -0.00418387	           1	           0	     3250.16	    0.472873	     1.38277	
 --	 --	 --	 --	 --	      1.0551	    0.926862	    0.927868	           0	 -0.00100588	           1	           0	    -295.675	    0.927868	    0.927868	
 --	 --	 --	 --	 --	      1.0601	    0.928789	    0.927913	           0	 0.000875333	           1	           0	     2831.88	    0.503247	     1.35258	
 --	 --	 --	 --	 --	      1.0651	    0.932184	    0.927958	           0	  0.00422676	           1	           0	    -2948.89	    0.927958	    0.927958	
 --	 --	 --	 --	 --	      1.0701	    0.927816	    0.928002	           0	-0.000186112	           1	           0	     463.765	    0.756148	     1.09986	
 --	 --	 --	 --	 --	      1.0751	    0.930086	    0.928046	           0	  0.00203997	           1	           0	     2340.86	    0.541947	     1.31414	
 --	 --	 --	 --	 --	      1.0801	    0.928579	    0.928089	           0	 0.000490007	           1	           0	     3727.82	    0.440854	     1.41532	
 --	 --	 --	 --	 --	      1.0851	    0.930048	    0.928132	           0	  0.00191599	           1	           0	     3522.92	    0.454477	     1.40179	
 --	 --	 --	 --	 --	      1.0901	    0.930162	    0.928174	           0	  0.00198815	           1	           0	      3734.1	    0.440529	     1.41582	
 --	 --	 --	 --	 --	      1.0951	    0.923067	    0.928216	           0	 -0.00514899	           1	           0	    -711.501	    0.928216	    0.928216	
 --	 --	 --	 --	 --	         1.1	    0.933599	    0.928256	           0	  0.00534237	           1	           0	     2515.48	    0.528016	      1.3285	
 --	 --	 --	 --	 --	       1.225	    0.930584	    0.929165	           0	  0.00141943	           1	           0	     5897.44	    0.316332	       1.542	
 --	 --	 --	 --	 --	        1.35	    0.935449	    0.929866	           0	  0.00558245	           1	           0	    -1199.54	    0.929866	    0.929866	
 --	 --	 --	 --	 --	       1.475	     0.93108	    0.930407	           0	 0.000673881	           1	           0	     7053.54	    0.260192	     1.60062	
 --	 --	 --	 --	 --	         1.6	     0.93028	    0.930823	           0	-0.000543929	           1	           0	     4602.36	    0.389445	      1.4722	
 --	 --	 --	 --	 --	       1.725	    0.936726	    0.931145	           0	   0.0055817	           1	           0	     6124.64	    0.306619	     1.55567	
 --	 --	 --	 --	 --	        1.85	    0.936535	    0.931393	           0	  0.00514293	           1	           0	     1674.27	    0.604863	     1.25792	
 --	 --	 --	 --	 --	       1.975	    0.933923	    0.931584	           0	  0.00233914	           1	           0	    -1373.02	    0.931584	    0.931584	
 --	 --	 --	 --	 --	         2.1	     0.93274	    0.931731	           0	  0.00100936	           1	           0	     4781.73	    0.379904	     1.48356	
 --	 --	 --	 --	 --	       2.225	    0.938577	    0.931844	           0	   0.0067323	           1	           0	    -1404.89	    0.931844	    0.931844	
 --	 --	 --	 --	 --	        2.35	     0.93501	    0.931932	           0	    0.003078	           1	           0	     2735.62	    0.514546	     1.34932	
 --	 --	 --	 --	 --	       2.475	    0.936765	       0.932	           0	  0.00476524	           1	           0	     3341.41	    0.470708	     1.39329	
 --	 --	 --	 --	 --	         2.6	    0.931615	    0.932052	           0	-0.000436801	           1	           0	    -1637.36	    0.932052	    0.932052	
 --	 --	 --	 --	 --	       2.725	    0.935906	    0.932092	           0	  0.00381457	           1	           0	    -2441.72	    0.932092	    0.932092	
 --	 --	 --	 --	 --	        2.85	    0.934514	    0.932123	           0	  0.00239114	           1	           0	       -4549	    0.932123	    0.932123	
 --	 --	 --	 --	 --	       2.975	    0.936174	    0.932146	           0	  0.00402703	           1	           0	     8520.95	    0.195508	     1.66879	
 --	 --	 --	 --	 --	         3.1	    0.935468	    0.932165	           0	   0.0033029	           1	           0	     2255.28	     0.55319	     1.31114	
 --	 --	 --	 --	 --	       3.225	    0.937547	    0.932179	           0	  0.00536772	           1	           0	     5685.55	    0.330456	      1.5339	
 --	 --	 --	 --	 --	        3.35	    0.935792	     0.93219	           0	  0.00360204	           1	           0	     8621.87	    0.191202	     1.67318	
 --	 --	 --	 --	 --	       3.475	    0.933942	    0.932198	           0	  0.00174336	           1	           0	     4640.03	    0.388609	     1.47579	
 --	 --	 --	 --	 --	         3.6	    0.937718	    0.932205	           0	  0.00551336	           1	           0	    -759.588	    0.932205	    0.932205	
 --	 --	 --	 --	 --	       3.725	    0.935563	     0.93221	           0	   0.0033531	           1	           0	     125.567	    0.842787	     1.02163	
 --	 --	 --	 --	 --	        3.85	    0.935964	    0.932214	           0	  0.00374974	           1	           0	     1721.93	    0.601069	     1.26336	
 --	 --	 --	 --	 --	       3.975	    0.936822	    0.932217	           0	  0.00460526	           1	           0	     2719.71	    0.516046	     1.34839	
 --	 --	 --	 --	 --	         4.1	    0.938119	    0.932219	           0	  0.00589971	           1	           0	     904.341	    0.692238	      1.1722	
 --	 --	 --	 --	 --	       4.225	    0.935868	    0.932221	           0	  0.00364719	           1	           0	     884.533	    0.694883	     1.16956	
 --	 --	 --	 --	 --	        4.35	    0.933617	    0.932222	           0	  0.00139533	           1	           0	     7518.34	    0.240278	     1.62417	
 --	 --	 --	 --	 --	       4.475	    0.938729	    0.932223	           0	  0.00650552	           1	           0	     9978.64	    0.135062	     1.72938	
 --	 --	 --	 --	 --	         4.6	     0.93543	    0.932224	           0	  0.00320546	           1	           0	     1881.69	    0.586058	     1.27839	
 --	 --	 --	 --	 --	       4.725	    0.940694	    0.932225	           0	  0.00846984	           1	           0	     9558.53	    0.152025	     1.71242	
 --	 --	 --	 --	 --	        4.85	    0.944051	    0.932225	           0	   0.0118256	           1	           0	    -5223.07	    0.932225	    0.932225	
 --	 --	 --	 --	 --	       4.975	    0.938729	    0.932226	           0	  0.00650373	           1	           0	     2931.08	    0.500185	     1.36427	
 --	 --	 --	 --	 --	         5.1	    0.936497	    0.932226	           0	   0.0042717	           1	           0	     2175.41	    0.560022	     1.30443	
 --	 --	 --	 --	 --	       5.225	    0.934495	    0.932226	           0	  0.00226873	           1	           0	     8201.68	     0.20952	     1.65493	
 --	 --	 --	 --	 --	        5.35	    0.940274	    0.932226	           0	  0.00804806	           1	           0	    -1155.42	    0.932226	    0.932226	
 --	 --	 --	 --	 --	       5.475	      0.9381	    0.932226	           0	  0.00587317	           1	           0	     7761.19	    0.229195	     1.63526	
 --	 --	 --	 --	 --	         5.6	    0.933942	    0.932226	           0	  0.00171532	           1	           0	     1955.94	    0.579296	     1.28516	
 --	 --	 --	 --	 --	       5.725	    0.935887	    0.932227	           0	  0.00366074	           1	           0	      6651.3	    0.281402	     1.58305	
 --	 --	 --	 --	 --	        5.85	    0.937146	    0.932227	           0	  0.00491943	           1	           0	     1623.53	    0.610682	     1.25377	
 --	 --	 --	 --	 --	       5.975	    0.940999	    0.932227	           0	  0.00877214	           1	           0	      1979.7	     0.57716	     1.28729	
 --	 --	 --	 --	 --	         6.1	     0.94222	    0.932227	           0	   0.0099931	           1	           0	     8298.87	    0.205251	      1.6592	
 --	 --	 --	 --	 --	       6.225	    0.934495	    0.932227	           0	  0.00226807	           1	           0	      6335.1	    0.297061	     1.56739	
 --	 --	 --	 --	 --	        6.35	    0.934247	    0.932227	           0	   0.0020203	           1	           0	     3885.19	    0.434815	     1.42964	
 --	 --	 --	 --	 --	       6.475	    0.935468	    0.932227	           0	  0.00324104	           1	           0	     2268.63	    0.552132	     1.31232	
 --	 --	 --	 --	 --	         6.6	    0.938672	    0.932227	           0	  0.00644552	           1	           0	     4613.95	    0.390167	     1.47429	
 --	 --	 --	 --	 --	       6.725	    0.936441	    0.932227	           0	  0.00421376	           1	           0	     7991.79	    0.218828	     1.64563	
 --	 --	 --	 --	 --	        6.85	    0.939607	    0.932227	           0	  0.00737976	           1	           0	     405.948	    0.771442	     1.09301	
 --	 --	 --	 --	 --	       6.975	    0.938481	    0.932227	           0	  0.00625425	           1	           0	     9183.04	    0.167505	     1.69695	
 --	 --	 --	 --	 --	         7.1	    0.936173	    0.932227	           0	   0.0039465	           1	           0	     4484.99	    0.397797	     1.46666	
 --	 --	 --	 --	 --	       7.225	    0.936459	    0.932227	           0	  0.00423274	           1	           0	      613.89	    0.734504	     1.12995	
 --	 --	 --	 --	 --	        7.35	    0.936059	    0.932227	           0	  0.00383199	           1	           0	     857.005	    0.698611	     1.16584	
 --	 --	 --	 --	 --	       7.475	    0.936326	    0.932227	           0	  0.00409924	           1	           0	     2232.78	    0.555147	     1.30931	
 --	 --	 --	 --	 --	         7.6	    0.936593	    0.932227	           0	  0.00436624	           1	           0	     -2346.2	    0.932227	    0.932227	
 --	 --	 --	 --	 --	       7.725	    0.933446	    0.932227	           0	  0.00121924	           1	           0	     3423.95	    0.465273	     1.39918	
 --	 --	 --	 --	 --	        7.85	    0.935067	    0.932227	           0	  0.00284023	           1	           0	     4275.06	    0.410454	       1.454	
 --	 --	 --	 --	 --	       7.975	    0.942849	    0.932227	           0	   0.0106225	           1	           0	     6862.64	    0.271144	     1.59331	
 --	 --	 --	 --	 --	         8.1	    0.935219	    0.932227	           0	  0.00299273	           1	           0	     10450.7	    0.116428	     1.74803	
 --	 --	 --	 --	 --	       8.225	    0.936975	    0.932227	           0	  0.00474773	           1	           0	     7087.47	    0.260402	     1.60405	
 --	 --	 --	 --	 --	        8.35	    0.932835	    0.932227	           0	 0.000608483	           1	           0	     4478.17	    0.398203	     1.46625	
 --	 --	 --	 --	 --	       8.475	    0.933389	    0.932227	           0	  0.00116198	           1	           0	     1062.17	    0.672146	     1.19231	
 --	 --	 --	 --	 --	         8.6	    0.936612	    0.932227	           0	  0.00438548	           1	           0	     3483.68	    0.461218	     1.40324	
 --	 --	 --	 --	 --	       8.725	    0.934876	    0.932227	           0	  0.00264973	           1	           0	     8582.58	    0.192929	     1.67152	
 --	 --	 --	 --	 --	        8.85	    0.935658	    0.932227	           0	  0.00343148	           1	           0	     2837.24	    0.507159	     1.35729	
 --	 --	 --	 --	 --	       8.975	    0.934438	    0.932227	           0	  0.00221073	           1	           0	     4918.65	    0.372555	      1.4919	
 --	 --	 --	 --	 --	         9.1	     0.93686	    0.932227	           0	  0.00463323	           1	           0	     5669.86	    0.331335	     1.53312	
 --	 --	 --	 --	 --	       9.225	     0.93913	    0.932227	           0	  0.00690298	           1	           0	     6393.39	    0.294146	     1.57031	
 --	 --	 --	 --	 --	        9.35	    0.933637	    0.932227	           0	  0.00140998	           1	           0	      3893.3	    0.434295	     1.43016	
 --	 --	 --	 --	 --	       9.475	    0.942525	    0.932227	           0	   0.0102977	           1	           0	     4321.52	    0.407626	     1.45683	
 --	 --	 --	 --	 --	         9.6	    0.934838	    0.932227	           0	  0.00261123	           1	           0	     5686.68	    0.330444	     1.53401	
 --	 --	 --	 --	 --	       9.725	    0.935773	    0.932227	           0	  0.00354598	           1	           0	     6969.73	    0.266006	     1.59845	
 --	 --	 --	 --	 --	        9.85	    0.938329	    0.932227	           0	  0.00610173	           1	           0	     1258.14	    0.649169	     1.21528	
 --	 --	 --	 --	 --	       9.975	    0.933522	    0.932227	           0	  0.00129548	           1	           0	     3202.41	    0.480632	     1.38382	
 --	 --	 --	 --	 --	        10.4	    0.932358	    0.932227	           0	 0.000131732	           1	           0	     8752.19	     0.18566	     1.67879	
 --	 --	 --	 --	 --	        10.9	    0.937928	    0.932227	           0	  0.00570123	           1	           0	     2224.41	    0.555854	      1.3086	
 --	 --	 --	 --	 --	        11.4	    0.939264	    0.932227	           0	  0.00703673	           1	           0	      169.42	    0.828356	      1.0361	
 --	 --	 --	 --	 --	        11.9	    0.931539	    0.932227	           0	-0.000688268	           1	           0	    -277.256	    0.932227	    0.932227	
 --	 --	 --	 --	 --	        12.4	    0.936326	    0.932227	           0	  0.00409898	           1	           0	    -810.912	    0.932227	    0.932227	
 --	 --	 --	 --	 --	        12.9	    0.931996	    0.932227	           0	-0.000230518	           1	           0	    -1197.06	    0.932227	    0.932227	
 --	 --	 --	 --	 --	        13.4	    0.933007	    0.932227	           0	 0.000780482	           1	           0	     1786.08	     0.59497	     1.26948	
 --	 --	 --	 --	 --	        13.9	    0.938443	    0.932227	           0	  0.00621648	           1	           0	      1786.1	    0.594968	     1.26949	
 --	 --	 --	 --	 --	        14.4	    0.935315	    0.932227	           0	  0.00308823	           1	           0	     1786.08	     0.59497	     1.26948	
 --	 --	 --	 --	 --	        14.9	    0.934361	    0.932227	           0	  0.00213448	           1	           0	     1080.09	    0.669962	     1.19449	
 --	 --	 --	 --	 --	        15.4	    0.931443	    0.932227	           0	-0.000784018	           1	           0	     1786.13	    0.594965	     1.26949	
 --	 --	 --	 --	 --	        15.9	    0.934075	    0.932227	           0	  0.00184848	           1	           0	      1080.1	     0.66996	     1.19449	
 --	 --	 --	 --	 --	        16.4	    0.934762	    0.932227	           0	  0.00253523	           1	           0	     1786.08	     0.59497	     1.26948	
 --	 --	 --	 --	 --	        16.9	    0.938462	    0.932227	           0	  0.00623548	           1	           0	     1786.08	     0.59497	     1.26948	
 --	 --	 --	 --	 --	        17.4	    0.936498	    0.932227	           0	  0.00427098	           1	           0	     1786.09	    0.594969	     1.26948	
 --	 --	 --	 --	 --	        17.9	     0.93234	    0.932227	           0	 0.000112732	           1	           0	     1786.11	    0.594967	     1.26949	
 --	 --	 --	 --	 --	        18.4	    0.934209	    0.932227	           0	  0.00198198	           1	           0	     1080.09	    0.669962	     1.19449	
 --	 --	 --	 --	 --	        18.9	    0.934171	    0.932227	           0	  0.00194373	           1	           0	     1080.08	    0.669963	     1.19449	
 --	 --	 --	 --	 --	        19.4	    0.936231	    0.932227	           0	  0.00400373	           1	           0	     1786.05	    0.594972	     1.26948	
 --	 --	 --	 --	 --	        19.9	    0.929765	    0.932227	           0	 -0.00246202	           1	           0	     1786.08	     0.59497	     1.26948	
 --	 --	 --	 --	 --	        20.4	     0.93274	    0.932227	           0	 0.000513482	           1	           0	     1080.09	    0.669962	     1.19449	
 --	 --	 --	 --	 --	        20.9	    0.931539	    0.932227	           0	-0.000688268	           1	           0	      1080.1	     0.66996	     1.19449	
 --	 --	 --	 --	 --	        21.4	    0.931042	    0.932227	           0	 -0.00118427	           1	           0	     1080.12	    0.669959	     1.19449	
 --	 --	 --	 --	 --	        21.9	    0.934133	    0.932227	           0	  0.00190573	           1	           0	     1786.11	    0.594967	     1.26949	
 --	 --	 --	 --	 --	        22.4	    0.931691	    0.932227	           0	-0.000535768	           1	           0	      1080.1	     0.66996	     1.19449	
 --	 --	 --	 --	 --	        22.9	    0.931119	    0.932227	           0	 -0.00110777	           1	           0	     1786.11	    0.594967	     1.26949	
 --	 --	 --	 --	 --	        23.4	    0.935392	    0.932227	           0	  0.00316473	           1	           0	     1786.08	     0.59497	     1.26948	
 --	 --	 --	 --	 --	        23.9	    0.939797	    0.932227	           0	  0.00757048	           1	           0	      1080.1	     0.66996	     1.19449	
 --	 --	 --	 --	 --	        24.4	    0.936593	    0.932227	           0	  0.00436623	           1	           0	     1786.09	    0.594969	     1.26948	
 --	 --	 --	 --	 --	        24.9	    0.933732	    0.932227	           0	  0.00150548	           1	           0	     1786.08	     0.59497	     1.26948	
 --	 --	 --	 --	 --	        25.4	    0.929402	    0.932227	           0	 -0.00282452	           1	           0	     1786.08	     0.59497	     1.26948	
 --	 --	 --	 --	 --	        25.9	    0.935506	    0.932227	           0	  0.00327898	           1	           0	      1080.1	     0.66996	     1.19449	
 --	 --	 --	 --	 --	        26.4	    0.928773	    0.932227	           0	 -0.00345402	           1	           0	     1080.09	    0.669962	     1.19449	
 --	 --	 --	 --	 --	        26.9	    0.933198	    0.932227	           0	 0.000971232	           1	           0	     1080.09	    0.669962	     1.19449	
 --	 --	 --	 --	 --	        27.4	    0.934762	    0.932227	           0	  0.00253498	           1	           0	     1786.08	     0.59497	     1.26948	
 --	 --	 --	 --	 --	        27.9	    0.931825	    0.932227	           0	-0.000402268	           1	           0	     1080.09	    0.669962	     1.19449	
 --	 --	 --	 --	 --	        28.4	    0.932931	    0.932227	           0	 0.000704232	           1	           0	     1786.09	    0.594969	     1.26948	
 --	 --	 --	 --	 --	        28.9	    0.934495	    0.932227	           0	  0.00226823	           1	           0	      1786.1	    0.594968	     1.26949	
 --	 --	 --	 --	 --	        29.4	    0.934686	    0.932227	           0	  0.00245898	           1	           0	     1786.11	    0.594967	     1.26949	
 --	 --	 --	 --	 --	        29.9	    0.930852	    0.932227	           0	 -0.00137502	           1	           0	     1786.09	    0.594969	     1.26948	
 --	 --	 --	 --	 --	        30.4	    0.929211	    0.932227	           0	 -0.00301552	           1	           0	     1080.12	    0.669959	     1.19449	
 --	 --	 --	 --	 --	        30.9	    0.929078	    0.932227	           0	 -0.00314877	           1	           0	     1080.12	    0.669959	     1.19449	
 --	 --	 --	 --	 --	        31.4	    0.929097	    0.932227	           0	 -0.00312952	           1	           0	      1080.1	     0.66996	     1.19449	
 --	 --	 --	 --	 --	        31.9	    0.931481	    0.932227	           0	-0.000745518	           1	           0	     1080.12	    0.669959	     1.19449	
 --	 --	 --	 --	 --	        32.4	    0.931558	    0.932227	           0	-0.000669018	           1	           0	     1080.13	    0.669957	      1.1945	
 --	 --	 --	 --	 --	        32.9	    0.928487	    0.932227	           0	 -0.00374002	           1	           0	      1080.1	     0.66996	     1.19449	
 --	 --	 --	 --	 --	        33.4	    0.930508	    0.932227	           0	 -0.00171827	           1	           0	      1080.1	     0.66996	     1.19449	
 --	 --	 --	 --	 --	        33.9	     0.93068	    0.932227	           0	 -0.00154652	           1	           0	     1080.09	    0.669962	     1.19449	
 --	 --	 --	 --	 --	        34.4	     0.92595	    0.932227	           0	 -0.00627677	           1	           0	     1786.08	     0.59497	     1.26948	
 --	 --	 --	 --	 --	        34.9	    0.930566	    0.932227	           0	 -0.00166102	           1	           0	     1786.08	     0.59497	     1.26948	
 --	 --	 --	 --	 --	        35.4	    0.932549	    0.932227	           0	 0.000322482	           1	           0	     1786.08	     0.59497	     1.26948	
 --	 --	 --	 --	 --	        35.9	    0.932149	    0.932227	           0	-7.80183e-005	           1	           0	     1786.08	     0.59497	     1.26948	
 --	 --	 --	 --	 --	        36.4	    0.929689	    0.932227	           0	 -0.00253827	           1	           0	     1786.09	    0.594969	     1.26948	
 --	 --	 --	 --	 --	        36.9	     0.93068	    0.932227	           0	 -0.00154677	           1	           0	      1786.1	    0.594968	     1.26949	
 --	 --	 --	 --	 --	        37.4	    0.929669	    0.932227	           0	 -0.00255752	           1	           0	     1080.12	    0.669959	     1.19449	
 --	 --	 --	 --	 --	        37.9	    0.932855	    0.932227	           0	 0.000627732	           1	           0	      1080.1	     0.66996	     1.19449	
 --	 --	 --	 --	 --	        38.4	     0.92986	    0.932227	           0	 -0.00236677	           1	           0	     1786.08	     0.59497	     1.26948	
 --	 --	 --	 --	 --	        38.9	    0.931977	    0.932227	           0	-0.000249768	           1	           0	     1786.08	     0.59497	     1.26948	
 --	 --	 --	 --	 --	        39.4	    0.935887	    0.932227	           0	  0.00366023	           1	           0	     1786.09	    0.594969	     1.26948	
 --	 --	 --	 --	 --	        39.9	    0.932893	    0.932227	           0	 0.000666232	           1	           0	     1786.08	     0.59497	     1.26948	
 --	 --	 --	 --	 --	        40.4	    0.929917	    0.932227	           0	 -0.00230952	           1	           0	     1786.08	     0.59497	     1.26948	
 --	 --	 --	 --	 --	        40.9	    0.933026	    0.932227	           0	 0.000799482	           1	           0	     1786.08	     0.59497	     1.26948	
 --	 --	 --	 --	 --	        41.4	    0.931462	    0.932227	           0	-0.000764768	           1	           0	      1786.1	    0.594968	     1.26949	
 --	 --	 --	 --	 --	        41.9	    0.931596	    0.932227	           0	-0.000631018	           1	           0	     1786.09	    0.594969	     1.26948	
 --	 --	 --	 --	 --	        42.4	    0.932282	    0.932227	           0	5.54817e-005	           1	           0	      1786.1	    0.594968	     1.26949	
 --	 --	 --	 --	 --	        42.9	    0.926122	    0.932227	           0	 -0.00610502	           1	           0	      1080.1	     0.66996	     1.19449	
 --	 --	 --	 --	 --	        43.4	    0.927304	    0.932227	           0	 -0.00492252	           1	           0	     1080.08	    0.669963	     1.19449	
 --	 --	 --	 --	 --	        43.9	    0.930699	    0.932227	           0	 -0.00152777	           1	           0	     1786.08	     0.59497	     1.26948	
 --	 --	 --	 --	 --	        44.4	    0.932893	    0.932227	           0	 0.000665982	           1	           0	     1786.08	     0.59497	     1.26948	
 --	 --	 --	 --	 --	        44.9	    0.931519	    0.932227	           0	-0.000707268	           1	           0	     1786.08	     0.59497	     1.26948	
 --	 --	 --	 --	 --	        45.4	    0.928906	    0.932227	           0	 -0.00332052	           1	           0	     1786.08	     0.59497	     1.26948	
 --	 --	 --	 --	 --	        45.9	    0.929555	    0.932227	           0	 -0.00267177	           1	           0	     1786.08	     0.59497	     1.26948	
 --	 --	 --	 --	 --	        46.4	    0.930394	    0.932227	           0	 -0.00183277	           1	           0	     1786.08	     0.59497	     1.26948	
 --	 --	 --	 --	 --	        46.9	    0.932492	    0.932227	           0	 0.000265482	           1	           0	     1786.08	     0.59497	     1.26948	
 --	 --	 --	 --	 --	        47.4	    0.930223	    0.932227	           0	 -0.00200427	           1	           0	     1786.08	     0.59497	     1.26948	
 --	 --	 --	 --	 --	        47.9	    0.934819	    0.932227	           0	  0.00259248	           1	           0	     1786.08	     0.59497	     1.26948	
 --	 --	 --	 --	 --	        48.4	    0.932301	    0.932227	           0	7.47317e-005	           1	           0	     1786.08	     0.59497	     1.26948	
 --	 --	 --	 --	 --	        48.9	    0.931024	    0.932227	           0	 -0.00120327	           1	           0	     1786.08	     0.59497	     1.26948	
 --	 --	 --	 --	 --	        49.4	     0.93541	    0.932227	           0	  0.00318373	           1	           0	     1786.08	     0.59497	     1.26948	
 --	 --	 --	 --	 --	        49.9	    0.932855	    0.932227	           0	 0.000627732	           1	           0	     1786.08	     0.59497	     1.26948	
 --	 --	 --	 --	 --	        50.4	    0.930814	    0.932227	           0	 -0.00141302	           1	           0	     1786.08	     0.59497	     1.26948	
 --	 --	 --	 --	 --	        50.9	    0.931214	    0.932227	           0	 -0.00101277	           1	           0	      1080.1	     0.66996	     1.19449	
 --	 --	 --	 --	 --	        51.4	    0.931233	    0.932227	           0	-0.000993268	           1	           0	     1080.12	    0.669959	     1.19449	
 --	 --	 --	 --	 --	        51.9	    0.930013	    0.932227	           0	 -0.00221402	           1	           0	     1080.12	    0.669959	     1.19449	
 --	 --	 --	 --	 --	        52.4	    0.927285	    0.932227	           0	 -0.00494177	           1	           0	     1080.13	    0.669957	      1.1945	
 --	 --	 --	 --	 --	        52.9	    0.933389	    0.932227	           0	  0.00116173	           1	           0	     1080.12	    0.669959	     1.19449	
 --	 --	 --	 --	 --	        53.4	    0.928373	    0.932227	           0	 -0.00385427	           1	           0	     1080.12	    0.669959	     1.19449	
 --	 --	 --	 --	 --	        53.9	    0.933846	    0.932227	           0	  0.00161948	           1	           0	     1080.12	    0.669959	     1.19449	
 --	 --	 --	 --	 --	        54.4	    0.934438	    0.932227	           0	  0.00221098	           1	           0	     1080.12	    0.669959	     1.19449	
 --	 --	 --	 --	 --	        54.9	    0.931615	    0.932227	           0	-0.000611768	           1	           0	     1080.12	    0.669959	     1.19449	
 --	 --	 --	 --	 --	        55.4	    0.929593	    0.932227	           0	 -0.00263402	           1	           0	     1080.12	    0.669959	     1.19449	
 --	 --	 --	 --	 --	        55.9	    0.929783	    0.932227	           0	 -0.00244327	           1	           0	     1080.12	    0.669959	     1.19449	
 --	 --	 --	 --	 --	        56.4	    0.933503	    0.932227	           0	  0.00127623	           1	           0	     1080.12	    0.669959	     1.19449	
 --	 --	 --	 --	 --	        56.9	    0.934247	    0.932227	           0	  0.00201998	           1	           0	     1080.12	    0.669959	     1.19449	
 --	 --	 --	 --	 --	        57.4	    0.930356	    0.932227	           0	 -0.00187102	           1	           0	     1080.12	    0.669959	     1.19449	
 --	 --	 --	 --	 --	        57.9	    0.931825	    0.932227	           0	-0.000402018	           1	           0	     1080.12	    0.669959	     1.19449	
 --	 --	 --	 --	 --	        58.4	    0.933961	    0.932227	           0	  0.00173423	           1	           0	     1080.12	    0.669959	     1.19449	
 --	 --	 --	 --	 --	        58.9	    0.931309	    0.932227	           0	-0.000917268	           1	           0	     1080.12	    0.669959	     1.19449	
 --	 --	 --	 --	 --	        59.4	     0.93047	    0.932227	           0	 -0.00175627	           1	           0	     1080.12	    0.669959	     1.19449	
 --	 --	 --	 --	 --	        59.9	    0.930642	    0.932227	           0	 -0.00158452	           1	           0	     1080.12	    0.669959	     1.19449	
 --	 --	 --	 --	 --	        60.4	    0.928449	    0.932227	           0	 -0.00377827	           1	           0	     1080.12	    0.669959	     1.19449	
 --	 --	 --	 --	 --	        60.9	    0.925149	    0.932227	           0	 -0.00707802	           1	           0	     1080.12	    0.669959	     1.19449	
 --	 --	 --	 --	 --	        61.4	    0.926866	    0.932227	           0	 -0.00536127	           1	           0	     1080.12	    0.669959	     1.19449	
 --	 --	 --	 --	 --	        61.9	    0.927209	    0.932227	           0	 -0.00501777	           1	           0	     1080.12	    0.669959	     1.19449	
 --	 --	 --	 --	 --	        62.4	    0.927266	    0.932227	           0	 -0.00496077	           1	           0	     1080.12	    0.669959	     1.19449	
 --	 --	 --	 --	 --	        62.9	    0.929593	    0.932227	           0	 -0.00263402	           1	           0	     1080.12	    0.669959	     1.19449	
 --	 --	 --	 --	 --	        63.4	    0.929021	    0.932227	           0	 -0.00320577	           1	           0	     1080.12	    0.669959	     1.19449	
 --	 --	 --	 --	 --	        63.9	    0.931214	    0.932227	           0	 -0.00101252	           1	           0	     1080.12	    0.669959	     1.19449	
 --	 --	 --	 --	 --	        64.4	    0.933198	    0.932227	           0	 0.000970982	           1	           0	     1080.12	    0.669959	     1.19449	
 --	 --	 --	 --	 --	        64.9	    0.929727	    0.932227	           0	 -0.00250002	           1	           0	     1080.12	    0.669959	     1.19449	
 --	 --	 --	 --	 --	        65.4	    0.930127	    0.932227	           0	 -0.00209977	           1	           0	     1080.12	    0.669959	     1.19449	
 --	 --	 --	 --	 --	        65.9	    0.934685	    0.932227	           0	  0.00245873	           1	           0	     1080.12	    0.669959	     1.19449	
 --	 --	 --	 --	 --	        66.4	    0.931958	    0.932227	           0	-0.000268518	           1	           0	     1080.12	    0.669959	     1.19449	
 --	 --	 --	 --	 --	        66.9	    0.928353	    0.932227	           0	 -0.00387327	           1	           0	     1080.12	    0.669959	     1.19449	
 --	 --	 --	 --	 --	        67.4	    0.931977	    0.932227	           0	-0.000249768	           1	           0	     1080.12	    0.669959	     1.19449	
 --	 --	 --	 --	 --	        67.9	    0.937013	    0.932227	           0	  0.00478573	           1	           0	     1080.12	    0.669959	     1.19449	
 --	 --	 --	 --	 --	        68.4	    0.928239	    0.932227	           0	 -0.00398802	           1	           0	     1080.12	    0.669959	     1.19449	
 --	 --	 --	 --	 --	        68.9	    0.930413	    0.932227	           0	 -0.00181377	           1	           0	     1080.12	    0.669959	     1.19449	
 --	 --	 --	 --	 --	        69.4	    0.932778	    0.932227	           0	 0.000551732	           1	           0	     1080.12	    0.669959	     1.19449	
 --	 --	 --	 --	 --	        69.9	    0.925301	    0.932227	           0	 -0.00692552	           1	           0	     1080.12	    0.669959	     1.19449	
 --	 --	 --	 --	 --	        70.4	    0.926503	    0.932227	           0	 -0.00572377	           1	           0	     1080.12	    0.669959	     1.19449	
 --	 --	 --	 --	 --	        70.9	    0.926942	    0.932227	           0	 -0.00528502	           1	           0	     1080.12	    0.669959	     1.19449	
 --	 --	 --	 --	 --	        71.4	    0.934647	    0.932227	           0	  0.00242048	           1	           0	     1080.12	    0.669959	     1.19449	
 --	 --	 --	 --	 --	        71.9	    0.931977	    0.932227	           0	-0.000249518	           1	           0	     1080.12	    0.669959	     1.19449	
 --	 --	 --	 --	 --	        72.4	    0.928468	    0.932227	           0	 -0.00375902	           1	           0	     1080.12	    0.669959	     1.19449	
 --	 --	 --	 --	 --	        72.9	    0.930165	    0.932227	           0	 -0.00206177	           1	           0	     1080.12	    0.669959	     1.19449	
 --	 --	 --	 --	 --	        73.4	    0.926827	    0.932227	           0	 -0.00539927	           1	           0	     1080.12	    0.669959	     1.19449	
 --	 --	 --	 --	 --	        73.9	    0.929879	    0.932227	           0	 -0.00234777	           1	           0	     1080.12	    0.669959	     1.19449	
 --	 --	 --	 --	 --	        74.4	    0.922784	    0.932227	           0	 -0.00944277	           1	           0	     1080.12	    0.669959	     1.19449	
 --	 --	 --	 --	 --	        74.9	     0.93274	    0.932227	           0	 0.000513482	           1	           0	     1080.12	    0.669959	     1.19449	
 --	 --	 --	 --	 --	        75.4	    0.929078	    0.932227	           0	 -0.00314877	           1	           0	     1080.12	    0.669959	     1.19449	
 --	 --	 --	 --	 --	        75.9	    0.926332	    0.932227	           0	 -0.00589527	           1	           0	     1080.12	    0.669959	     1.19449	
 --	 --	 --	 --	 --	        76.4	    0.925588	    0.932227	           0	 -0.00663927	           1	           0	     1080.12	    0.669959	     1.19449	
 --	 --	 --	 --	 --	        76.9	    0.933065	    0.932227	           0	 0.000837732	           1	           0	     1080.12	    0.669959	     1.19449	
 --	 --	 --	 --	 --	        77.4	    0.929765	    0.932227	           0	 -0.00246202	           1	           0	     1080.12	    0.669959	     1.19449	
 --	 --	 --	 --	 --	        77.9	    0.924558	    0.932227	           0	 -0.00766927	           1	           0	     1080.12	    0.669959	     1.19449	
 --	 --	 --	 --	 --	        78.4	    0.932817	    0.932227	           0	 0.000589732	           1	           0	     1080.12	    0.669959	     1.19449	
 --	 --	 --	 --	 --	        78.9	    0.931749	    0.932227	           0	-0.000478268	           1	           0	     1080.12	    0.669959	     1.19449	
 --	 --	 --	 --	 --	        79.4	    0.932874	    0.932227	           0	 0.000646982	           1	           0	     1080.12	    0.669959	     1.19449	
 --	 --	 --	 --	 --	        79.9	    0.926484	    0.932227	           0	 -0.00574277	           1	           0	     1080.12	    0.669959	     1.19449	
 --	 --	 --	 --	 --	        80.4	    0.929784	    0.932227	           0	 -0.00244302	           1	           0	     1080.12	    0.669959	     1.19449	
 --	 --	 --	 --	 --	        80.9	    0.926694	    0.932227	           0	 -0.00553277	           1	           0	     1080.12	    0.669959	     1.19449	
 --	 --	 --	 --	 --	        81.4	    0.928125	    0.932227	           0	 -0.00410227	           1	           0	     1080.12	    0.669959	     1.19449	
 --	 --	 --	 --	 --	        81.9	    0.932683	    0.932227	           0	 0.000455982	           1	           0	     1080.12	    0.669959	     1.19449	
 --	 --	 --	 --	 --	        82.4	    0.926751	    0.932227	           0	 -0.00547602	           1	           0	     1080.12	    0.669959	     1.19449	
 --	 --	 --	 --	 --	        82.9	    0.930527	    0.932227	           0	 -0.00169927	           1	           0	     1080.12	    0.669959	     1.19449	
 --	 --	 --	 --	 --	        83.4	    0.926408	    0.932227	           0	 -0.00581902	           1	           0	     1080.12	    0.669959	     1.19449	
 --	 --	 --	 --	 --	        83.9	    0.924405	    0.932227	           0	 -0.00782202	           1	           0	     1080.12	    0.669959	     1.19449	
 --	 --	 --	 --	 --	        84.4	    0.928868	    0.932227	           0	 -0.00335852	           1	           0	     1080.12	    0.669959	     1.19449	
 --	 --	 --	 --	 --	        84.9	    0.929517	    0.932227	           0	 -0.00271027	           1	           0	     1080.12	    0.669959	     1.19449	
 --	 --	 --	 --	 --	        85.4	    0.930966	    0.932227	           0	 -0.00126052	           1	           0	     1080.12	    0.669959	     1.19449	
 --	 --	 --	 --	 --	        85.9	     0.93026	    0.932227	           0	 -0.00196627	           1	           0	     1080.12	    0.669959	     1.19449	
 --	 --	 --	 --	 --	        86.4	    0.930967	    0.932227	           0	 -0.00126027	           1	           0	     1080.12	    0.669959	     1.19449	
 --	 --	 --	 --	 --	        86.9	    0.930928	    0.932227	           0	 -0.00129852	           1	           0	     1080.12	    0.669959	     1.19449	
 --	 --	 --	 --	 --	        87.4	    0.933942	    0.932227	           0	  0.00171498	           1	           0	     1080.12	    0.669959	     1.19449	
 --	 --	 --	 --	 --	        87.9	    0.932435	    0.932227	           0	 0.000207982	           1	           0	     1080.12	    0.669959	     1.19449	
 --	 --	 --	 --	 --	        88.4	    0.931615	    0.932227	           0	-0.000611768	           1	           0	     1080.12	    0.669959	     1.19449	
 --	 --	 --	 --	 --	        88.9	    0.929059	    0.932227	           0	 -0.00316802	           1	           0	     1080.12	    0.669959	     1.19449	
 --	 --	 --	 --	 --	        89.4	    0.929021	    0.932227	           0	 -0.00320577	           1	           0	     1080.12	    0.669959	     1.19449	
 --	 --	 --	 --	 --	        89.9	    0.925893	    0.932227	           0	 -0.00633402	           1	           0	     1080.12	    0.669959	     1.19449	
 --	 --	 --	 --	 --	        90.4	     0.92719	    0.932227	           0	 -0.00503727	           1	           0	     1080.12	    0.669959	     1.19449	
 --	 --	 --	 --	 --	        90.9	    0.929879	    0.932227	           0	 -0.00234802	           1	           0	     1080.12	    0.669959	     1.19449	
 --	 --	 --	 --	 --	        91.4	    0.929402	    0.932227	           0	 -0.00282452	           1	           0	     1080.12	    0.669959	     1.19449	
 --	 --	 --	 --	 --	        91.9	    0.930127	    0.932227	           0	 -0.00209977	           1	           0	     1080.12	    0.669959	     1.19449	
 --	 --	 --	 --	 --	        92.4	    0.928658	    0.932227	           0	 -0.00356827	           1	           0	     1080.12	    0.669959	     1.19449	
 --	 --	 --	 --	 --	        92.9	    0.931806	    0.932227	           0	-0.000421268	           1	           0	     1080.12	    0.669959	     1.19449	
 --	 --	 --	 --	 --	        93.4	    0.927819	    0.932227	           0	 -0.00440777	           1	           0	     1080.12	    0.669959	     1.19449	
 --	 --	 --	 --	 --	        93.9	    0.935868	    0.932227	           0	  0.00364148	           1	           0	     1080.12	    0.669959	     1.19449	
 --	 --	 --	 --	 --	        94.4	    0.927342	    0.932227	           0	 -0.00488427	           1	           0	     1080.12	    0.669959	     1.19449	
 --	 --	 --	 --	 --	        94.9	    0.931386	    0.932227	           0	-0.000841018	           1	           0	     1080.12	    0.669959	     1.19449	
 --	 --	 --	 --	 --	        95.4	    0.927876	    0.932227	           0	 -0.00435052	           1	           0	     1080.12	    0.669959	     1.19449	
 --	 --	 --	 --	 --	        95.9	      0.9274	    0.932227	           0	 -0.00482727	           1	           0	     1080.12	    0.669959	     1.19449	
 --	 --	 --	 --	 --	        96.4	    0.934381	    0.932227	           0	  0.00215373	           1	           0	     1080.12	    0.669959	     1.19449	
 --	 --	 --	 --	 --	        96.9	    0.929173	    0.932227	           0	 -0.00305352	           1	           0	     1080.12	    0.669959	     1.19449	
 --	 --	 --	 --	 --	        97.4	    0.929536	    0.932227	           0	 -0.00269077	           1	           0	     1080.12	    0.669959	     1.19449	
 --	 --	 --	 --	 --	        97.9	    0.929002	    0.932227	           0	 -0.00322477	           1	           0	     1080.12	    0.669959	     1.19449	
 --	 --	 --	 --	 --	        98.4	    0.932893	    0.932227	           0	 0.000665982	           1	           0	     1080.12	    0.669959	     1.19449	
 --	 --	 --	 --	 --	        98.9	    0.933617	    0.932227	           0	  0.00139073	           1	           0	     1080.12	    0.669959	     1.19449	
 --	 --	 --	 --	 --	        99.4	    0.928792	    0.932227	           0	 -0.00343477	           1	           0	     1080.12	    0.669959	     1.19449	
 --	 --	 --	 --	 --	        99.9	    0.929993	    0.932227	           0	 -0.00223327	           1	           0	     1080.12	    0.669959	     1.19449	
 --	 --	 --	 --	 --	         100	    0.926789	    0.932227	           0	 -0.00543752	           1	           0	     1080.12	    0.669959	     1.19449	
