# data set	./hsmug/series//U-Trp-R243A.1.csv:col(3)
# fraction of residuals inside model inference band	0.923077
#   x(mesh)	    y(mesh)	       rate	   y(mesh)-	   y(mesh)+	    x(data)	    y(data)	   y(model)	   y(error)	   residual	     weight	  residual*	   leverage	  y(model)-	  y(model)+	
2.27273e-005	       1.149	   -0.538681	     1.12053	     1.17747	    2.5e-005	     1.14325	       1.149	           0	 -0.00574283	           1	    -1.41778	   0.0463389	     1.14725	     1.15075	
2.27273e-005	       1.149	   -0.538681	     1.12053	     1.17747	    0.001275	       1.137	     1.14833	           0	  -0.0113323	           1	     -2.7941	    0.043874	     1.14663	     1.15003	
2.65091e-005	       1.149	   -0.538655	     1.11581	     1.18219	    0.002525	     1.14715	     1.14767	           0	-0.000524809	           1	   -0.129245	   0.0416223	     1.14601	     1.14933	
3.09203e-005	     1.14899	   -0.538625	     1.11029	     1.18769	    0.003775	     1.14192	     1.14703	           0	 -0.00510756	           1	    -1.25638	   0.0393928	     1.14541	     1.14864	
3.60656e-005	     1.14899	   -0.538589	     1.10386	     1.19412	    0.005025	     1.14886	     1.14639	           0	  0.00247213	           1	    0.607619	   0.0378473	     1.14481	     1.14797	
 4.2067e-005	     1.14899	   -0.538548	     1.09635	     1.20162	    0.006275	     1.14341	     1.14576	           0	 -0.00235301	           1	   -0.577632	    0.035488	     1.14423	     1.14729	
4.54545e-005	     1.14899	   -0.538525	     1.09212	     1.20585	    0.007525	     1.14482	     1.14514	           0	-0.000325277	           1	  -0.0798281	   0.0349317	     1.14362	     1.14666	
 4.9067e-005	     1.14898	     -0.5385	      1.0876	     1.21037	    0.008775	     1.14436	     1.14453	           0	-0.000174474	           1	  -0.0427699	   0.0327288	     1.14306	     1.14601	
5.72319e-005	     1.14898	   -0.538444	      1.0774	     1.22057	    0.010025	     1.14074	     1.14394	           0	  -0.0032004	           1	   -0.783713	   0.0307008	     1.14251	     1.14536	
6.67554e-005	     1.14898	   -0.538379	     1.06549	     1.23246	    0.011275	     1.13768	     1.14335	           0	 -0.00566287	           1	    -1.38562	   0.0291586	     1.14196	     1.14473	
7.78637e-005	     1.14897	   -0.538302	      1.0516	     1.24634	    0.012525	     1.14139	     1.14276	           0	  -0.0013767	           1	   -0.336662	   0.0280253	      1.1414	     1.14413	
9.08204e-005	     1.14896	   -0.538214	     1.03541	     1.26252	    0.013775	     1.13925	     1.14219	           0	 -0.00294171	           1	   -0.718873	   0.0266773	     1.14086	     1.14352	
9.09091e-005	     1.14896	   -0.538213	      1.0353	     1.26263	    0.015025	     1.14417	     1.14163	           0	  0.00253979	           1	    0.621104	   0.0280844	     1.14026	     1.14299	
 0.000105933	     1.14895	    -0.53811	     1.01652	     1.28138	    0.016275	     1.13791	     1.14107	           0	 -0.00315955	           1	   -0.771236	    0.024474	      1.1398	     1.14234	
 0.000123561	     1.14894	   -0.537989	    0.994503	     1.30339	    0.017525	     1.13952	     1.14052	           0	 -0.00100705	           1	   -0.245864	   0.0248441	     1.13924	     1.14181	
 0.000144121	     1.14893	   -0.537848	    0.968826	     1.32904	    0.018775	      1.1386	     1.13999	           0	 -0.00138505	           1	   -0.337721	   0.0223572	     1.13877	      1.1412	
 0.000168104	     1.14892	   -0.537684	    0.938891	     1.35895	    0.020025	     1.13868	     1.13945	           0	-0.000775903	           1	     -0.1891	   0.0214251	     1.13826	     1.14064	
 0.000181818	     1.14891	    -0.53759	    0.921777	     1.37605	    0.021275	     1.13669	     1.13893	           0	 -0.00223694	           1	   -0.544922	   0.0204999	     1.13777	     1.14009	
 0.000196077	     1.14891	   -0.537493	     0.90399	     1.39382	    0.022525	      1.1349	     1.13841	           0	 -0.00351553	           1	   -0.855963	   0.0195326	     1.13728	     1.13955	
 0.000228704	     1.14889	   -0.537269	    0.863304	     1.43447	    0.023775	     1.13501	      1.1379	           0	 -0.00289151	           1	   -0.704259	   0.0201802	     1.13675	     1.13906	
 0.000266761	     1.14887	   -0.537009	    0.815879	     1.48186	    0.025025	     1.13124	      1.1374	           0	 -0.00616474	           1	    -1.50101	   0.0195537	     1.13627	     1.13854	
 0.000311151	     1.14884	   -0.536706	    0.760605	     1.53708	    0.026275	     1.13204	     1.13691	           0	 -0.00487009	           1	    -1.18497	   0.0181998	     1.13581	       1.138	
 0.000362927	     1.14882	   -0.536352	    0.696192	     1.60144	    0.027525	     1.13608	     1.13642	           0	-0.000337427	           1	  -0.0820359	   0.0166325	     1.13537	     1.13747	
 0.000363636	     1.14882	   -0.536348	    0.695308	     1.60232	    0.028775	     1.13246	     1.13594	           0	 -0.00347911	           1	   -0.845609	   0.0160791	     1.13491	     1.13697	
 0.000423319	     1.14878	    -0.53594	    0.621135	     1.67643	    0.030025	     1.13025	     1.13547	           0	 -0.00522002	           1	     -1.2684	   0.0155537	     1.13445	     1.13648	
 0.000493761	     1.14875	   -0.535461	    0.533697	      1.7638	    0.031275	     1.13623	       1.135	           0	  0.00123498	           1	    0.300147	   0.0159546	     1.13397	     1.13602	
 0.000575924	      1.1487	   -0.534902	    0.431853	     1.86555	    0.032525	     1.13268	     1.13454	           0	  -0.0018515	           1	   -0.449666	   0.0145642	     1.13356	     1.13552	
 0.000671759	     1.14865	   -0.534251	    0.313261	     1.98404	    0.033775	     1.13311	     1.13408	           0	-0.000976832	           1	    -0.23731	   0.0151495	     1.13308	     1.13508	
 0.000727273	     1.14862	   -0.533874	    0.244661	     2.05258	    0.035025	     1.13143	     1.13363	           0	 -0.00220591	           1	   -0.535424	   0.0134014	     1.13269	     1.13457	
 0.000783541	     1.14859	   -0.533493	    0.175203	     2.12198	    0.036275	     1.13334	     1.13319	           0	 0.000143894	           1	   0.0349252	   0.0133354	     1.13225	     1.13413	
 0.000913924	     1.14852	   -0.532611	   0.0145338	     2.28251	    0.037525	     1.13124	     1.13275	           0	 -0.00151732	           1	   -0.368261	   0.0132491	     1.13182	     1.13369	
    0.001066	     1.14844	   -0.531584	   -0.172379	     2.46926	    0.038775	      1.1262	     1.13232	           0	 -0.00612445	           1	    -1.48665	   0.0135407	     1.13138	     1.13327	
  0.00124339	     1.14835	    -0.53039	   -0.389731	     2.68642	    0.040025	     1.13189	      1.1319	           0	-1.2373e-005	           1	 -0.00300238	   0.0128504	     1.13098	     1.13282	
  0.00145029	     1.14824	   -0.529003	   -0.642347	     2.93882	    0.041275	     1.12559	     1.13148	           0	   -0.005891	           1	    -1.42899	   0.0121699	     1.13058	     1.13238	
  0.00145455	     1.14823	   -0.528974	    -0.64753	       2.944	    0.042525	     1.13291	     1.13107	           0	  0.00184728	           1	    0.448202	   0.0126325	     1.13015	     1.13198	
  0.00169162	     1.14811	    -0.52739	   -0.935776	     3.23199	    0.043775	     1.13268	     1.13066	           0	  0.00202505	           1	    0.491098	   0.0116803	     1.12978	     1.13154	
  0.00197312	     1.14796	   -0.525518	    -1.27638	      3.5723	    0.045025	     1.12479	     1.13026	           0	 -0.00546508	           1	    -1.32732	   0.0146143	     1.12927	     1.13124	
  0.00230145	     1.14779	   -0.523346	    -1.67142	       3.967	    0.046275	     1.13227	     1.12986	           0	  0.00240948	           1	    0.584595	   0.0125864	     1.12895	     1.13077	
  0.00268441	     1.14759	   -0.520828	    -2.12918	     4.42436	    0.047525	      1.1209	     1.12947	           0	 -0.00857118	           1	    -2.07891	   0.0119631	     1.12858	     1.13036	
  0.00290909	     1.14747	   -0.519358	    -2.39624	     4.69118	    0.048775	     1.13242	     1.12908	           0	  0.00333803	           1	    0.809616	   0.0119346	     1.12819	     1.12997	
  0.00313111	     1.14736	   -0.517912	    -2.65904	     4.95376	    0.050025	     1.12765	      1.1287	           0	  -0.0010478	           1	   -0.253942	    0.010417	     1.12787	     1.12953	
  0.00365213	     1.14709	   -0.514539	    -3.27161	     5.56579	    0.051275	     1.13032	     1.12832	           0	  0.00199891	           1	    0.484831	   0.0119705	     1.12743	     1.12921	
  0.00425985	     1.14678	   -0.510642	    -3.97873	     6.27228	    0.052525	     1.12426	     1.12795	           0	 -0.00369425	           1	   -0.895513	     0.01083	     1.12711	      1.1288	
   0.0049687	     1.14642	   -0.506149	    -4.79361	     7.08644	    0.053775	     1.12945	     1.12758	           0	   0.0018603	           1	    0.451073	   0.0113693	     1.12672	     1.12845	
  0.00579551	       1.146	   -0.500976	    -5.73089	     8.02289	    0.055025	     1.12845	     1.12722	           0	  0.00123014	           1	    0.298549	   0.0131771	     1.12629	     1.12816	
  0.00581818	     1.14599	   -0.500835	    -5.75639	     8.04837	    0.056275	     1.12445	     1.12686	           0	 -0.00241466	           1	   -0.585196	   0.0103749	     1.12604	     1.12769	
   0.0067599	     1.14552	   -0.495033	    -6.80653	     9.09757	    0.057525	     1.12376	     1.12651	           0	 -0.00274901	           1	   -0.666365	   0.0107853	     1.12567	     1.12736	
  0.00788476	     1.14497	   -0.488223	    -8.03768	     10.3276	    0.058775	     1.12464	     1.12616	           0	 -0.00152534	           1	   -0.369829	   0.0112334	      1.1253	     1.12702	
  0.00919681	     1.14433	    -0.48044	    -9.44251	     11.7312	    0.060025	     1.12769	     1.12582	           0	  0.00187142	           1	    0.453411	  0.00980098	     1.12501	     1.12662	
   0.0107272	      1.1436	   -0.471575	    -11.0399	     13.3271	    0.061275	     1.12529	     1.12548	           0	-0.000193654	           1	  -0.0469225	  0.00996442	     1.12467	     1.12629	
   0.0116364	     1.14318	   -0.466414	    -11.9686	     14.2549	    0.062525	     1.12422	     1.12514	           0	-0.000922994	           1	   -0.223942	   0.0126103	     1.12423	     1.12606	
   0.0125122	     1.14277	   -0.461514	    -12.8491	     15.1347	    0.063775	     1.12712	     1.12481	           0	  0.00230597	           1	    0.558577	  0.00938846	     1.12402	      1.1256	
   0.0145943	     1.14182	   -0.450145	    -14.8888	     17.1724	    0.065025	     1.12327	     1.12448	           0	  -0.0012167	           1	   -0.295189	   0.0125174	     1.12357	     1.12539	
   0.0170228	     1.14074	   -0.437359	    -17.1758	     19.4573	    0.066275	     1.12277	     1.12416	           0	 -0.00139093	           1	   -0.336889	  0.00917152	     1.12338	     1.12494	
   0.0198554	     1.13953	    -0.42306	     -19.725	     22.0041	    0.067525	     1.12304	     1.12384	           0	 -0.00080666	           1	   -0.195559	   0.0110205	     1.12299	      1.1247	
   0.0231594	     1.13815	   -0.407167	    -22.5467	      24.823	    0.068775	     1.12345	     1.12353	           0	-7.13266e-005	           1	  -0.0172807	  0.00974991	     1.12272	     1.12433	
   0.0232727	     1.13811	   -0.406636	    -22.6407	     24.9169	    0.070025	     1.12094	     1.12321	           0	 -0.00227737	           1	   -0.552125	   0.0110975	     1.12236	     1.12407	
   0.0270132	     1.13662	   -0.389628	    -25.6453	     27.9185	    0.071275	     1.12517	     1.12291	           0	  0.00226528	           1	    0.549227	   0.0112144	     1.12205	     1.12377	
   0.0315083	     1.13491	   -0.370427	    -29.0171	     31.2869	    0.072525	     1.12338	      1.1226	           0	 0.000776671	           1	    0.188229	   0.0103913	     1.12177	     1.12343	
   0.0367513	     1.13302	   -0.349591	      -32.65	      34.916	    0.073775	     1.11953	      1.1223	           0	 -0.00277313	           1	   -0.672566	   0.0118247	     1.12142	     1.12319	
   0.0428668	     1.13096	   -0.327207	     -36.518	     38.7799	    0.075025	     1.11899	     1.12201	           0	 -0.00301658	           1	   -0.730643	   0.0092106	     1.12123	     1.12279	
   0.0465455	     1.12978	   -0.314646	    -38.6716	     40.9311	    0.076275	     1.12609	     1.12171	           0	   0.0043739	           1	     1.06116	   0.0124948	      1.1208	     1.12262	
        0.05	     1.12871	    -0.30342	    -40.5846	      42.842	    0.077525	     1.11709	     1.12142	           0	 -0.00433916	           1	    -1.05098	  0.00920218	     1.12064	      1.1222	
   0.0583201	     1.12629	   -0.278449	    -44.7966	     47.0492	    0.078775	     1.12426	     1.12114	           0	  0.00311931	           1	    0.756101	   0.0107167	      1.1203	     1.12198	
   0.0680247	     1.12372	   -0.252578	     -49.088	     51.3354	    0.080025	      1.1172	     1.12086	           0	 -0.00365564	           1	   -0.885706	  0.00982968	     1.12005	     1.12166	
   0.0793442	     1.12101	   -0.226158	    -53.3789	     55.6209	    0.081275	     1.12227	     1.12058	           0	  0.00169604	           1	    0.411138	   0.0108542	     1.11973	     1.12142	
   0.0925473	      1.1182	   -0.199593	    -57.5795	     59.8159	    0.082525	     1.11415	      1.1203	           0	  -0.0061531	           1	    -1.49461	   0.0148693	     1.11931	     1.12129	
   0.0930909	     1.11809	   -0.198586	    -57.7361	     59.9723	    0.083775	     1.11869	     1.12003	           0	 -0.00134051	           1	   -0.324766	  0.00970466	     1.11923	     1.12083	
    0.107947	     1.11534	   -0.173324	    -61.5906	     63.8212	    0.085025	     1.11327	     1.11976	           0	 -0.00648865	           1	    -1.57277	   0.0106653	     1.11892	      1.1206	
     0.12591	     1.11246	   -0.147807	    -65.3132	     67.5381	    0.086275	      1.1185	     1.11949	           0	-0.000994958	           1	   -0.241319	   0.0119284	      1.1186	     1.12038	
    0.146862	     1.10963	   -0.123487	    -68.6523	     70.8716	    0.087525	     1.11896	     1.11923	           0	-0.000271894	           1	  -0.0658881	   0.0101946	     1.11841	     1.12005	
      0.1713	      1.1069	   -0.100773	    -71.5162	       73.73	    0.088775	      1.1156	     1.11897	           0	 -0.00337191	           1	   -0.817047	   0.0100322	     1.11815	     1.11978	
    0.186182	     1.10549	  -0.0892773	    -72.8418	     75.0528	    0.090025	     1.11499	     1.11871	           0	 -0.00372497	           1	   -0.903058	   0.0110451	     1.11786	     1.11957	
    0.199805	     1.10433	  -0.0800169	    -73.8352	     76.0438	    0.091275	     1.11964	     1.11846	           0	  0.00118149	           1	     0.28663	    0.012411	     1.11755	     1.11936	
    0.233053	       1.102	  -0.0614897	    -75.5544	     77.7584	    0.092525	     1.11175	     1.11821	           0	 -0.00646251	           1	    -1.56746	   0.0119649	     1.11732	      1.1191	
    0.271834	     1.09994	  -0.0453743	    -76.6485	     78.8484	    0.093775	     1.11121	     1.11796	           0	 -0.00674691	           1	    -1.63555	    0.010894	     1.11711	     1.11881	
    0.317067	     1.09821	  -0.0317584	     -77.112	     79.3084	    0.095025	     1.11934	     1.11771	           0	  0.00162332	           1	     0.39412	   0.0139178	     1.11675	     1.11867	
    0.369828	     1.09685	   -0.020636	    -76.9707	     79.1644	    0.096275	     1.11175	     1.11747	           0	 -0.00572677	           1	    -1.38892	   0.0118433	     1.11659	     1.11836	
    0.372364	      1.0968	   -0.020199	     -76.952	     79.1456	    0.097525	     1.11175	     1.11723	           0	 -0.00548715	           1	    -1.33049	   0.0113767	     1.11636	      1.1181	
    0.431368	     1.09587	  -0.0119138	    -76.2796	     78.4713	    0.098775	     1.11464	       1.117	           0	 -0.00235277	           1	   -0.570968	   0.0130444	     1.11607	     1.11792	
    0.503149	     1.09526	 -0.00542074	    -75.1155	      77.306	      0.1001	     1.11941	     1.11675	           0	  0.00266287	           1	    0.646604	   0.0142066	     1.11578	     1.11772	
    0.586875	     1.09501	-0.000920558	    -73.5804	     75.7705	      0.1051	     1.10961	     1.11584	           0	 -0.00622736	           1	    -1.51475	   0.0175988	     1.11476	     1.11692	
    0.684532	     1.09508	  0.00187472	    -71.7952	     73.9854	      0.1101	     1.10888	     1.11497	           0	 -0.00608543	           1	    -1.47514	   0.0108083	     1.11412	     1.11581	
    0.744727	     1.09522	  0.00279846	    -70.7582	     72.9486	      0.1151	     1.11213	     1.11414	           0	 -0.00200917	           1	   -0.488051	   0.0149312	     1.11314	     1.11513	
     0.79844	     1.09539	  0.00328876	    -69.8862	     72.0769	      0.1201	     1.11152	     1.11334	           0	 -0.00182407	           1	   -0.442867	   0.0139471	     1.11238	      1.1143	
    0.931302	     1.09586	   0.0036626	    -67.9922	     70.1839	      0.1251	     1.11018	     1.11258	           0	 -0.00240075	           1	   -0.582293	   0.0119632	     1.11169	     1.11347	
           1	     1.09611	  0.00357806	    -67.1528	      69.345	      0.1301	     1.11194	     1.11185	           0	8.25559e-005	           1	    0.020119	   0.0213049	     1.11067	     1.11304	
     1.08627	     1.09641	  0.00333332	    -66.2228	     68.4156	      0.1351	     1.11014	     1.11116	           0	 -0.00101502	           1	   -0.246841	   0.0171795	     1.11009	     1.11222	
     1.26703	     1.09694	  0.00261076	    -64.6822	     66.8761	      0.1401	     1.10534	     1.11049	           0	 -0.00514943	           1	    -1.24842	   0.0110773	     1.10963	     1.11134	
     1.47787	      1.0974	  0.00175456	    -63.4265	     65.6213	      0.1451	     1.10373	     1.10985	           0	 -0.00611424	           1	    -1.48257	   0.0114156	     1.10898	     1.11072	
     1.48945	     1.09742	  0.00171138	    -63.3713	     65.5662	      0.1501	     1.10175	     1.10923	           0	 -0.00748058	           1	    -1.81501	   0.0126414	     1.10832	     1.11015	
     1.72379	     1.09773	  0.00095585	    -62.4825	     64.6779	      0.1551	     1.10415	     1.10864	           0	  -0.0044922	           1	    -1.09027	   0.0132272	     1.10771	     1.10958	
     2.01063	     1.09791	 0.000328236	    -61.8318	     64.0277	      0.1601	     1.10492	     1.10808	           0	  -0.0031629	           1	   -0.769617	   0.0182881	     1.10698	     1.10918	
     2.34521	     1.09794	-8.82751e-005	    -61.4296	     63.6255	      0.1651	      1.1056	     1.10754	           0	 -0.00193655	           1	   -0.470415	   0.0149561	     1.10654	     1.10853	
     2.73546	     1.09786	-0.000310658	     -61.213	     63.4087	      0.1701	     1.09775	     1.10702	           0	 -0.00927458	           1	    -2.24936	   0.0118281	     1.10614	      1.1079	
     2.97891	     1.09777	-0.000367793	    -61.1493	     63.3448	      0.1751	      1.0998	     1.10652	           0	 -0.00671602	           1	    -1.62857	   0.0115078	     1.10565	     1.10739	
     3.19064	     1.09769	-0.000388224	    -61.1184	     63.3138	      0.1801	     1.10526	     1.10604	           0	-0.000782399	           1	   -0.189798	   0.0122728	     1.10514	     1.10694	
     3.72157	     1.09749	-0.000377868	    -61.0933	     63.2883	      0.1851	     1.10282	     1.10558	           0	 -0.00276534	           1	   -0.670975	   0.0127034	     1.10467	      1.1065	
     4.34085	     1.09727	-0.000326599	    -61.1017	     63.2963	      0.1901	     1.09622	     1.10514	           0	 -0.00892401	           1	    -2.16586	     0.01322	     1.10421	     1.10608	
     5.06318	     1.09705	-0.000264616	    -61.1236	     63.3177	      0.1951	     1.10587	     1.10472	           0	   0.0011524	           1	    0.279397	   0.0111568	     1.10386	     1.10558	
     5.90571	     1.09686	-0.000206923	    -61.1498	     63.3435	      0.2001	     1.10389	     1.10431	           0	-0.000422862	           1	   -0.102616	   0.0129786	     1.10338	     1.10524	
     5.95782	     1.09685	-0.000203898	    -61.1513	      63.345	      0.2051	     1.10133	     1.10392	           0	 -0.00258658	           1	   -0.627571	   0.0126067	     1.10301	     1.10483	
     6.88843	     1.09668	-0.000158712	    -61.1774	     63.3708	      0.2101	     1.10152	     1.10354	           0	 -0.00202059	           1	   -0.490172	    0.012304	     1.10264	     1.10445	
     8.03469	     1.09652	-0.000120405	    -61.2063	     63.3993	      0.2151	     1.09965	     1.10318	           0	 -0.00353174	           1	    -0.85639	   0.0114529	     1.10231	     1.10405	
     9.37168	     1.09638	-9.07149e-005	     -61.237	     63.4298	      0.2201	     1.10057	     1.10283	           0	 -0.00226692	           1	   -0.549731	   0.0115907	     1.10196	     1.10371	
     10.9312	     1.09626	-6.8016e-005	    -61.2704	     63.4629	      0.2251	     1.09648	      1.1025	           0	 -0.00601557	           1	    -1.45872	   0.0115109	     1.10163	     1.10337	
     11.9156	      1.0962	-5.77868e-005	    -61.2907	     63.4831	      0.2301	     1.09195	     1.10218	           0	  -0.0102321	           1	    -2.48041	   0.0108843	     1.10133	     1.10303	
     12.7501	     1.09615	-5.0812e-005	    -61.3075	     63.4999	      0.2351	     1.09584	     1.10187	           0	 -0.00603355	           1	    -1.46404	   0.0128082	     1.10095	     1.10279	
     14.8718	     1.09606	-3.78524e-005	    -61.3494	     63.5415	      0.2401	     1.09397	     1.10157	           0	 -0.00760687	           1	    -1.84491	   0.0118418	     1.10069	     1.10246	
     17.3465	     1.09598	-2.81347e-005	    -61.3972	     63.5891	      0.2451	     1.09901	     1.10129	           0	 -0.00228411	           1	   -0.554123	   0.0123939	     1.10038	     1.10219	
      20.233	     1.09591	-2.08737e-005	     -61.452	     63.6439	      0.2501	      1.0987	     1.10101	           0	 -0.00231731	           1	   -0.563358	   0.0165248	     1.09997	     1.10206	
     23.5998	     1.09585	-1.54636e-005	    -61.5154	     63.7071	      0.2551	     1.09927	     1.10075	           0	 -0.00148105	           1	   -0.359356	   0.0126902	     1.09983	     1.10167	
     23.8313	     1.09584	-1.51715e-005	    -61.5198	     63.7114	      0.2601	     1.09744	      1.1005	           0	 -0.00305742	           1	   -0.741691	   0.0122961	      1.0996	      1.1014	
     27.5269	     1.09579	-1.14416e-005	    -61.5889	     63.7805	      0.2651	     1.09351	     1.10025	           0	 -0.00674352	           1	     -1.6341	   0.0101267	     1.09944	     1.10107	
     32.1074	     1.09575	-8.45704e-006	    -61.6742	     63.8657	      0.2701	     1.09325	     1.10002	           0	 -0.00677399	           1	    -1.64098	  0.00951666	     1.09923	     1.10081	
     37.4501	     1.09571	-6.24569e-006	    -61.7734	     63.9648	      0.2751	     1.09843	     1.09979	           0	 -0.00136096	           1	   -0.330203	   0.0126089	     1.09888	     1.10071	
     43.6819	     1.09568	-4.60927e-006	     -61.889	     64.0803	      0.2801	      1.0905	     1.09958	           0	  -0.0090791	           1	    -2.20129	   0.0112306	     1.09871	     1.10044	
     47.6625	     1.09566	-3.8793e-006	    -61.9627	      64.154	      0.2851	     1.09587	     1.09937	           0	 -0.00349308	           1	   -0.848103	   0.0139887	     1.09841	     1.10033	
     50.9507	     1.09565	-3.39955e-006	    -62.0236	     64.2149	      0.2901	      1.0876	     1.09917	           0	  -0.0115726	           1	    -2.80605	   0.0113737	      1.0983	     1.10003	
     59.4291	     1.09562	-2.50606e-006	    -62.1805	     64.3717	      0.2951	     1.09702	     1.09897	           0	 -0.00195734	           1	   -0.474501	   0.0109472	     1.09812	     1.09983	
     69.3182	      1.0956	-1.8466e-006	    -62.3634	     64.5546	      0.3001	     1.09015	     1.09879	           0	 -0.00863953	           1	    -2.09637	   0.0127992	     1.09787	     1.09971	
     80.8529	     1.09558	-1.36018e-006	    -62.5767	     64.7679	      0.3051	     1.09069	     1.09861	           0	  -0.0079264	           1	    -1.92041	  0.00979376	     1.09781	     1.09942	
     94.3071	     1.09557	-1.00158e-006	    -62.8254	     65.0166	      0.3101	      1.0924	     1.09844	           0	 -0.00603518	           1	      -1.465	   0.0135621	     1.09749	     1.09939	
         110	     1.09556	-7.37328e-007	    -63.1155	     65.3066	      0.3151	     1.09794	     1.09828	           0	-0.000340627	           1	  -0.0825019	  0.00918191	      1.0975	     1.09905	
 --	 --	 --	 --	 --	      0.3201	     1.09305	     1.09812	           0	   -0.005065	           1	    -1.22787	   0.0109604	     1.09727	     1.09897	
 --	 --	 --	 --	 --	      0.3251	      1.0992	     1.09797	           0	  0.00122944	           1	    0.297732	  0.00888476	      1.0972	     1.09873	
 --	 --	 --	 --	 --	      0.3301	     1.09809	     1.09782	           0	 0.000270397	           1	   0.0655096	  0.00972736	     1.09702	     1.09862	
 --	 --	 --	 --	 --	      0.3351	     1.08767	     1.09768	           0	  -0.0100044	           1	    -2.42195	   0.0082216	     1.09694	     1.09842	
 --	 --	 --	 --	 --	      0.3401	     1.09351	     1.09754	           0	 -0.00403476	           1	   -0.979156	   0.0130506	     1.09662	     1.09847	
 --	 --	 --	 --	 --	      0.3451	     1.08798	     1.09742	           0	 -0.00943548	           1	    -2.28587	   0.0096499	     1.09662	     1.09821	
 --	 --	 --	 --	 --	      0.3501	     1.09416	     1.09729	           0	 -0.00313138	           1	   -0.757777	  0.00745289	     1.09659	     1.09799	
 --	 --	 --	 --	 --	      0.3551	      1.0921	     1.09717	           0	 -0.00507477	           1	    -1.22931	  0.00945431	     1.09638	     1.09796	
 --	 --	 --	 --	 --	      0.3601	     1.08955	     1.09706	           0	 -0.00751298	           1	    -1.82289	    0.012656	     1.09614	     1.09797	
 --	 --	 --	 --	 --	      0.3651	     1.08363	     1.09695	           0	  -0.0133183	           1	    -3.22449	  0.00838933	      1.0962	     1.09769	
 --	 --	 --	 --	 --	      0.3701	     1.09458	     1.09684	           0	 -0.00226321	           1	    -0.54819	  0.00928167	     1.09606	     1.09763	
 --	 --	 --	 --	 --	      0.3751	     1.08893	     1.09674	           0	 -0.00780991	           1	    -1.89105	  0.00859751	     1.09599	      1.0975	
 --	 --	 --	 --	 --	      0.3801	     1.09035	     1.09665	           0	  -0.0063008	           1	    -1.52502	   0.0077887	     1.09593	     1.09736	
 --	 --	 --	 --	 --	      0.3851	     1.09439	     1.09655	           0	 -0.00216574	           1	   -0.524173	  0.00773498	     1.09584	     1.09727	
 --	 --	 --	 --	 --	      0.3901	     1.09645	     1.09646	           0	-1.7095e-005	           1	 -0.00414557	   0.0115973	     1.09559	     1.09734	
 --	 --	 --	 --	 --	      0.3951	     1.09111	     1.09638	           0	 -0.00527223	           1	    -1.27533	  0.00664048	     1.09572	     1.09704	
 --	 --	 --	 --	 --	      0.4001	     1.09126	      1.0963	           0	 -0.00503851	           1	    -1.22116	   0.0104887	     1.09547	     1.09713	
 --	 --	 --	 --	 --	      0.4051	     1.08672	     1.09622	           0	 -0.00950082	           1	    -2.29976	  0.00797903	     1.09549	     1.09695	
 --	 --	 --	 --	 --	      0.4101	     1.08756	     1.09615	           0	 -0.00858903	           1	    -2.07946	  0.00836616	      1.0954	     1.09689	
 --	 --	 --	 --	 --	      0.4151	     1.08687	     1.09608	           0	 -0.00920305	           1	    -2.22969	  0.00976423	     1.09527	     1.09688	
 --	 --	 --	 --	 --	      0.4201	     1.09073	     1.09601	           0	 -0.00528024	           1	    -1.27884	  0.00907594	     1.09523	     1.09678	
 --	 --	 --	 --	 --	      0.4251	     1.09164	     1.09594	           0	 -0.00430052	           1	    -1.04061	  0.00727701	     1.09525	     1.09664	
 --	 --	 --	 --	 --	      0.4301	     1.09393	     1.09588	           0	 -0.00194877	           1	    -0.47221	   0.0100533	     1.09507	      1.0967	
 --	 --	 --	 --	 --	      0.4351	     1.08966	     1.09582	           0	 -0.00616489	           1	     -1.4926	  0.00842013	     1.09508	     1.09657	
 --	 --	 --	 --	 --	      0.4401	     1.09439	     1.09577	           0	  -0.0013763	           1	   -0.333409	   0.0095447	     1.09497	     1.09656	
 --	 --	 --	 --	 --	      0.4451	     1.09119	     1.09571	           0	  -0.0045279	           1	    -1.09665	  0.00912798	     1.09494	     1.09649	
 --	 --	 --	 --	 --	      0.4501	        1.09	     1.09566	           0	 -0.00565959	           1	    -1.37114	  0.00969826	     1.09486	     1.09646	
 --	 --	 --	 --	 --	      0.4551	     1.08997	     1.09561	           0	  -0.0056488	           1	    -1.36711	  0.00764357	      1.0949	     1.09632	
 --	 --	 --	 --	 --	      0.4601	     1.08825	     1.09557	           0	 -0.00732044	           1	    -1.77224	  0.00827573	     1.09483	     1.09631	
 --	 --	 --	 --	 --	      0.4651	       1.086	     1.09552	           0	 -0.00952693	           1	    -2.30522	  0.00724311	     1.09483	     1.09622	
 --	 --	 --	 --	 --	      0.4701	     1.08828	     1.09548	           0	 -0.00720069	           1	    -1.74384	  0.00894629	     1.09471	     1.09625	
 --	 --	 --	 --	 --	      0.4751	     1.08905	     1.09544	           0	 -0.00639415	           1	    -1.54765	  0.00783355	     1.09472	     1.09616	
 --	 --	 --	 --	 --	      0.4801	     1.08794	     1.09541	           0	 -0.00746723	           1	    -1.80634	   0.0066942	     1.09474	     1.09607	
 --	 --	 --	 --	 --	      0.4851	     1.08691	     1.09537	           0	 -0.00846237	           1	    -2.04818	  0.00777306	     1.09466	     1.09609	
 --	 --	 --	 --	 --	      0.4901	     1.08993	     1.09534	           0	 -0.00541449	           1	    -1.31127	  0.00894828	     1.09457	     1.09611	
 --	 --	 --	 --	 --	      0.4951	     1.08916	     1.09531	           0	 -0.00614604	           1	    -1.48589	  0.00555646	      1.0947	     1.09591	
 --	 --	 --	 --	 --	      0.5001	     1.09042	     1.09528	           0	 -0.00485694	           1	    -1.17694	   0.0101196	     1.09446	      1.0961	
 --	 --	 --	 --	 --	      0.5051	     1.09363	     1.09525	           0	 -0.00162714	           1	   -0.393708	  0.00719448	     1.09456	     1.09594	
 --	 --	 --	 --	 --	      0.5101	     1.09465	     1.09523	           0	-0.000571577	           1	   -0.138437	  0.00914247	     1.09445	       1.096	
 --	 --	 --	 --	 --	      0.5151	     1.09534	      1.0952	           0	 0.000139805	           1	    0.033851	  0.00855615	     1.09445	     1.09595	
 --	 --	 --	 --	 --	      0.5201	     1.08985	     1.09518	           0	 -0.00533294	           1	    -1.29103	  0.00820517	     1.09444	     1.09592	
 --	 --	 --	 --	 --	      0.5251	     1.09385	     1.09516	           0	 -0.00130725	           1	   -0.316153	  0.00623615	     1.09452	      1.0958	
 --	 --	 --	 --	 --	      0.5301	     1.09851	     1.09514	           0	  0.00336692	           1	    0.813976	  0.00549969	     1.09454	     1.09574	
 --	 --	 --	 --	 --	      0.5351	     1.09092	     1.09512	           0	 -0.00420538	           1	    -1.01792	  0.00792066	      1.0944	     1.09585	
 --	 --	 --	 --	 --	      0.5401	     1.09198	     1.09511	           0	  -0.0031241	           1	   -0.755895	  0.00713809	     1.09442	     1.09579	
 --	 --	 --	 --	 --	      0.5451	     1.09035	     1.09509	           0	 -0.00474419	           1	    -1.14744	  0.00636241	     1.09444	     1.09574	
 --	 --	 --	 --	 --	      0.5501	     1.09645	     1.09508	           0	   0.0013719	           1	    0.331937	  0.00712138	     1.09439	     1.09576	
 --	 --	 --	 --	 --	      0.5551	     1.08909	     1.09507	           0	  -0.0059783	           1	    -1.44602	  0.00649412	     1.09441	     1.09572	
 --	 --	 --	 --	 --	      0.5601	        1.09	     1.09505	           0	 -0.00505224	           1	    -1.22188	  0.00625653	     1.09441	      1.0957	
 --	 --	 --	 --	 --	      0.5651	     1.09363	     1.09504	           0	 -0.00141987	           1	   -0.343156	  0.00487511	     1.09448	     1.09561	
 --	 --	 --	 --	 --	      0.5701	     1.09397	     1.09504	           0	 -0.00106866	           1	   -0.258919	  0.00981721	     1.09423	     1.09584	
 --	 --	 --	 --	 --	      0.5751	     1.09233	     1.09503	           0	 -0.00270107	           1	   -0.653021	  0.00555525	     1.09442	     1.09563	
 --	 --	 --	 --	 --	      0.5801	     1.08847	     1.09502	           0	 -0.00654956	           1	    -1.58653	  0.00941432	     1.09423	     1.09581	
 --	 --	 --	 --	 --	      0.5851	     1.09412	     1.09502	           0	-0.000899091	           1	   -0.217479	  0.00657066	     1.09436	     1.09568	
 --	 --	 --	 --	 --	      0.5901	     1.09465	     1.09501	           0	-0.000357131	           1	   -0.086427	  0.00752544	     1.09431	     1.09572	
 --	 --	 --	 --	 --	      0.5951	     1.09145	     1.09501	           0	 -0.00355614	           1	   -0.860814	  0.00801948	     1.09428	     1.09574	
 --	 --	 --	 --	 --	      0.6001	     1.08965	     1.09501	           0	  -0.0053511	           1	    -1.29449	  0.00676225	     1.09434	     1.09567	
 --	 --	 --	 --	 --	      0.6051	      1.0942	       1.095	           0	-0.000806957	           1	   -0.195213	  0.00678357	     1.09433	     1.09567	
 --	 --	 --	 --	 --	      0.6101	      1.0937	       1.095	           0	 -0.00130369	           1	   -0.315168	  0.00544097	      1.0944	      1.0956	
 --	 --	 --	 --	 --	      0.6151	     1.09275	       1.095	           0	 -0.00225627	           1	   -0.545867	  0.00694647	     1.09433	     1.09568	
 --	 --	 --	 --	 --	      0.6201	     1.08748	       1.095	           0	 -0.00752217	           1	     -1.8193	  0.00633843	     1.09436	     1.09565	
 --	 --	 --	 --	 --	      0.6251	     1.09416	     1.09501	           0	-0.000848857	           1	   -0.205266	  0.00597118	     1.09438	     1.09563	
 --	 --	 --	 --	 --	      0.6301	     1.09084	     1.09501	           0	  -0.0041663	           1	    -1.00763	  0.00627802	     1.09436	     1.09565	
 --	 --	 --	 --	 --	      0.6351	      1.0924	     1.09501	           0	 -0.00261198	           1	   -0.632117	  0.00755448	     1.09431	     1.09572	
 --	 --	 --	 --	 --	      0.6401	     1.08905	     1.09502	           0	 -0.00597086	           1	     -1.4439	  0.00605278	     1.09438	     1.09565	
 --	 --	 --	 --	 --	      0.6451	     1.10072	     1.09502	           0	  0.00569958	           1	     1.38046	  0.00916798	     1.09424	      1.0958	
 --	 --	 --	 --	 --	      0.6501	     1.09587	     1.09503	           0	 0.000849357	           1	    0.205402	  0.00612464	     1.09439	     1.09566	
 --	 --	 --	 --	 --	      0.6551	     1.08882	     1.09503	           0	   -0.006214	           1	    -1.50367	  0.00733993	     1.09433	     1.09573	
 --	 --	 --	 --	 --	      0.6601	     1.09889	     1.09504	           0	  0.00384954	           1	    0.932534	  0.00950754	     1.09425	     1.09583	
 --	 --	 --	 --	 --	      0.6651	     1.08932	     1.09505	           0	 -0.00573001	           1	    -1.38576	  0.00620973	      1.0944	     1.09569	
 --	 --	 --	 --	 --	      0.6701	     1.09428	     1.09505	           0	-0.000777619	           1	   -0.188463	   0.0104366	     1.09422	     1.09588	
 --	 --	 --	 --	 --	      0.6751	     1.09836	     1.09506	           0	  0.00329422	           1	    0.796482	  0.00570171	     1.09445	     1.09567	
 --	 --	 --	 --	 --	      0.6801	     1.09446	     1.09507	           0	-0.000606956	           1	   -0.146761	  0.00583412	     1.09445	     1.09569	
 --	 --	 --	 --	 --	      0.6851	      1.0958	     1.09508	           0	  0.00072136	           1	     0.17454	  0.00716714	     1.09439	     1.09577	
 --	 --	 --	 --	 --	      0.6901	     1.09637	     1.09509	           0	  0.00128419	           1	    0.310558	  0.00611016	     1.09445	     1.09572	
 --	 --	 --	 --	 --	      0.6951	     1.09824	      1.0951	           0	  0.00314156	           1	    0.759584	  0.00573572	     1.09448	     1.09571	
 --	 --	 --	 --	 --	      0.7001	     1.09595	     1.09511	           0	 0.000840981	           1	    0.203469	  0.00702212	     1.09443	     1.09579	
 --	 --	 --	 --	 --	      0.7051	     1.09839	     1.09512	           0	  0.00327247	           1	    0.791315	   0.0059324	     1.09449	     1.09575	
 --	 --	 --	 --	 --	      0.7101	     1.08722	     1.09513	           0	 -0.00791645	           1	    -1.91398	  0.00562526	     1.09452	     1.09574	
 --	 --	 --	 --	 --	      0.7151	     1.09053	     1.09514	           0	 -0.00461077	           1	    -1.11587	  0.00761835	     1.09443	     1.09585	
 --	 --	 --	 --	 --	      0.7201	     1.09523	     1.09516	           0	7.20385e-005	           1	   0.0174145	  0.00534744	     1.09456	     1.09575	
 --	 --	 --	 --	 --	      0.7251	     1.09309	     1.09517	           0	 -0.00207802	           1	   -0.502547	  0.00617609	     1.09453	     1.09581	
 --	 --	 --	 --	 --	      0.7301	     1.09343	     1.09518	           0	 -0.00174593	           1	   -0.422805	  0.00886003	     1.09442	     1.09595	
 --	 --	 --	 --	 --	      0.7351	     1.09221	     1.09519	           0	 -0.00298167	           1	   -0.720837	  0.00549231	     1.09459	      1.0958	
 --	 --	 --	 --	 --	      0.7401	     1.09443	     1.09521	           0	-0.000780231	           1	   -0.188991	  0.00933446	     1.09442	     1.09599	
 --	 --	 --	 --	 --	      0.7451	     1.09244	     1.09522	           0	  -0.0027791	           1	   -0.673444	    0.010155	      1.0944	     1.09604	
 --	 --	 --	 --	 --	      0.7501	     1.09359	     1.09524	           0	 -0.00164825	           1	   -0.398589	  0.00605902	      1.0946	     1.09587	
 --	 --	 --	 --	 --	      0.7551	     1.09435	     1.09525	           0	-0.000900191	           1	   -0.218082	  0.00963945	     1.09445	     1.09605	
 --	 --	 --	 --	 --	      0.7601	     1.09805	     1.09526	           0	  0.00278261	           1	    0.673653	   0.0082701	     1.09453	       1.096	
 --	 --	 --	 --	 --	      0.7651	     1.09634	     1.09528	           0	  0.00105515	           1	    0.255117	  0.00571419	     1.09467	     1.09589	
 --	 --	 --	 --	 --	      0.7701	     1.09489	      1.0953	           0	-0.000410047	           1	  -0.0991802	  0.00647246	     1.09464	     1.09595	
 --	 --	 --	 --	 --	      0.7751	     1.09725	     1.09531	           0	  0.00193703	           1	    0.468996	  0.00849301	     1.09456	     1.09606	
 --	 --	 --	 --	 --	      0.7801	     1.09263	     1.09533	           0	 -0.00269362	           1	   -0.653907	   0.0137118	     1.09437	     1.09628	
 --	 --	 --	 --	 --	      0.7851	     1.09439	     1.09534	           0	-0.000954475	           1	   -0.232045	   0.0165621	      1.0943	     1.09639	
 --	 --	 --	 --	 --	      0.7901	     1.09168	     1.09536	           0	 -0.00367803	           1	   -0.896046	   0.0206651	     1.09419	     1.09653	
 --	 --	 --	 --	 --	      0.7951	     1.09367	     1.09537	           0	 -0.00170676	           1	   -0.419366	   0.0372303	     1.09381	     1.09694	
 --	 --	 --	 --	 --	      0.8001	     1.09325	     1.09539	           0	 -0.00214568	           1	   -0.529032	   0.0438441	     1.09369	     1.09709	
 --	 --	 --	 --	 --	      0.8051	     1.09839	     1.09541	           0	  0.00298524	           1	    0.737733	   0.0482505	     1.09362	     1.09719	
 --	 --	 --	 --	 --	      0.8101	     1.09538	     1.09542	           0	-4.64999e-005	           1	    -0.01156	   0.0595143	     1.09344	     1.09741	
 --	 --	 --	 --	 --	      0.8151	     1.09359	     1.09544	           0	 -0.00185589	           1	   -0.460278	   0.0550136	     1.09353	     1.09735	
 --	 --	 --	 --	 --	      0.8201	      1.0937	     1.09546	           0	 -0.00175541	           1	   -0.432781	    0.043718	     1.09376	     1.09716	
 --	 --	 --	 --	 --	      0.8251	     1.09752	     1.09548	           0	  0.00204243	           1	    0.505224	   0.0500775	     1.09366	     1.09729	
 --	 --	 --	 --	 --	      0.8301	      1.1021	     1.09549	           0	  0.00660265	           1	     1.62181	   0.0366125	     1.09394	     1.09705	
 --	 --	 --	 --	 --	      0.8351	     1.09481	     1.09551	           0	-0.000702249	           1	   -0.171133	   0.0212391	     1.09432	     1.09669	
 --	 --	 --	 --	 --	      0.8401	     1.09801	     1.09553	           0	  0.00248275	           1	    0.606939	   0.0273915	     1.09418	     1.09687	
 --	 --	 --	 --	 --	      0.8451	     1.09061	     1.09554	           0	 -0.00493485	           1	    -1.20074	   0.0182261	     1.09445	     1.09664	
 --	 --	 --	 --	 --	      0.8501	     1.09427	     1.09556	           0	 -0.00129004	           1	   -0.312528	   0.0096379	     1.09476	     1.09636	
 --	 --	 --	 --	 --	      0.8551	     1.09492	     1.09558	           0	-0.000657821	           1	   -0.159587	    0.012389	     1.09468	     1.09649	
 --	 --	 --	 --	 --	      0.8601	     1.09534	      1.0956	           0	-0.000255676	           1	  -0.0619783	   0.0108512	     1.09475	     1.09645	
 --	 --	 --	 --	 --	      0.8651	     1.09408	     1.09562	           0	  -0.0015336	           1	   -0.370968	   0.0066226	     1.09495	     1.09628	
 --	 --	 --	 --	 --	      0.8701	      1.0976	     1.09563	           0	  0.00196091	           1	    0.474354	  0.00671733	     1.09497	      1.0963	
 --	 --	 --	 --	 --	      0.8751	     1.09893	     1.09565	           0	  0.00327786	           1	    0.792897	  0.00663035	     1.09499	     1.09631	
 --	 --	 --	 --	 --	      0.8801	     1.09592	     1.09567	           0	 0.000244765	           1	   0.0592087	  0.00667829	     1.09501	     1.09633	
 --	 --	 --	 --	 --	      0.8851	     1.09999	     1.09569	           0	  0.00430412	           1	     1.04105	  0.00645064	     1.09504	     1.09634	
 --	 --	 --	 --	 --	      0.8901	     1.09336	     1.09571	           0	 -0.00234656	           1	   -0.567497	  0.00619606	     1.09507	     1.09635	
 --	 --	 --	 --	 --	      0.8951	     1.08836	     1.09572	           0	 -0.00736478	           1	    -1.78182	  0.00698226	     1.09505	      1.0964	
 --	 --	 --	 --	 --	      0.9001	     1.09824	     1.09574	           0	  0.00249697	           1	    0.604085	  0.00689908	     1.09507	     1.09642	
 --	 --	 --	 --	 --	      0.9051	     1.09206	     1.09576	           0	  -0.0037013	           1	    -0.89516	  0.00626591	     1.09512	     1.09641	
 --	 --	 --	 --	 --	      0.9101	     1.10023	     1.09578	           0	  0.00444541	           1	     1.07524	  0.00648168	     1.09512	     1.09643	
 --	 --	 --	 --	 --	      0.9151	     1.10076	      1.0958	           0	  0.00496211	           1	     1.20144	  0.00849698	     1.09505	     1.09655	
 --	 --	 --	 --	 --	      0.9201	     1.09683	     1.09582	           0	  0.00101129	           1	    0.244728	  0.00745275	     1.09511	     1.09652	
 --	 --	 --	 --	 --	      0.9251	      1.0876	     1.09583	           0	 -0.00823702	           1	    -1.99282	  0.00695486	     1.09516	     1.09651	
 --	 --	 --	 --	 --	      0.9301	     1.09637	     1.09585	           0	 0.000514663	           1	    0.124483	  0.00644555	      1.0952	     1.09651	
 --	 --	 --	 --	 --	      0.9351	     1.10114	     1.09587	           0	  0.00526635	           1	      1.2764	   0.0105084	     1.09504	      1.0967	
 --	 --	 --	 --	 --	      0.9401	     1.09733	     1.09589	           0	  0.00143805	           1	    0.348282	  0.00906091	     1.09512	     1.09666	
 --	 --	 --	 --	 --	      0.9451	     1.09309	     1.09591	           0	 -0.00281774	           1	    -0.68201	  0.00783829	     1.09519	     1.09663	
 --	 --	 --	 --	 --	      0.9501	     1.09797	     1.09593	           0	  0.00204649	           1	    0.495643	   0.0090702	     1.09515	      1.0967	
 --	 --	 --	 --	 --	      0.9551	     1.09908	     1.09594	           0	  0.00313573	           1	    0.760444	   0.0116601	     1.09507	     1.09682	
 --	 --	 --	 --	 --	      0.9601	      1.1016	     1.09596	           0	  0.00563251	           1	     1.36335	  0.00790689	     1.09524	     1.09669	
 --	 --	 --	 --	 --	      0.9651	     1.09599	     1.09598	           0	 6.8072e-006	           1	  0.00164804	  0.00834083	     1.09524	     1.09672	
 --	 --	 --	 --	 --	      0.9701	     1.09618	       1.096	           0	 0.000183639	           1	   0.0445429	   0.0120517	     1.09511	     1.09689	
 --	 --	 --	 --	 --	      0.9751	     1.09797	     1.09602	           0	   0.0019555	           1	    0.474192	   0.0115111	     1.09514	     1.09689	
 --	 --	 --	 --	 --	      0.9801	     1.09931	     1.09604	           0	  0.00327741	           1	    0.794297	   0.0104034	     1.09521	     1.09686	
 --	 --	 --	 --	 --	      0.9851	     1.09729	     1.09605	           0	  0.00123435	           1	    0.299138	   0.0103147	     1.09523	     1.09688	
 --	 --	 --	 --	 --	      0.9901	      1.0982	     1.09607	           0	  0.00213134	           1	    0.517362	   0.0135401	     1.09512	     1.09702	
 --	 --	 --	 --	 --	      0.9951	      1.0974	     1.09609	           0	  0.00131088	           1	    0.317806	   0.0110748	     1.09523	     1.09694	
 --	 --	 --	 --	 --	      1.0001	     1.09801	     1.09611	           0	  0.00190546	           1	    0.461659	  0.00980464	      1.0953	     1.09691	
 --	 --	 --	 --	 --	      1.0051	     1.09435	     1.09612	           0	  -0.0017724	           1	   -0.430446	   0.0145191	     1.09515	      1.0971	
 --	 --	 --	 --	 --	      1.0101	      1.0963	     1.09614	           0	 0.000152292	           1	   0.0369461	   0.0124111	     1.09524	     1.09705	
 --	 --	 --	 --	 --	      1.0151	     1.09996	     1.09616	           0	  0.00379954	           1	    0.920049	  0.00870421	      1.0954	     1.09692	
 --	 --	 --	 --	 --	      1.0201	     1.09752	     1.09618	           0	  0.00133685	           1	    0.323577	  0.00786108	     1.09546	      1.0969	
 --	 --	 --	 --	 --	      1.0251	     1.09534	      1.0962	           0	-0.000853278	           1	   -0.206662	  0.00911286	     1.09542	     1.09697	
 --	 --	 --	 --	 --	      1.0301	     1.09755	     1.09621	           0	  0.00134166	           1	     0.32473	  0.00779338	      1.0955	     1.09693	
 --	 --	 --	 --	 --	      1.0351	     1.09653	     1.09623	           0	 0.000294161	           1	   0.0712206	  0.00843416	     1.09548	     1.09698	
 --	 --	 --	 --	 --	      1.0401	     1.09607	     1.09625	           0	-0.000183268	           1	   -0.044419	   0.0105421	     1.09541	     1.09708	
 --	 --	 --	 --	 --	      1.0451	       1.095	     1.09627	           0	 -0.00126563	           1	   -0.306466	   0.0086897	     1.09551	     1.09702	
 --	 --	 --	 --	 --	      1.0501	     1.09004	     1.09628	           0	 -0.00624291	           1	    -1.51434	    0.012155	     1.09539	     1.09718	
 --	 --	 --	 --	 --	      1.0551	     1.09328	      1.0963	           0	 -0.00301762	           1	   -0.734122	    0.017899	     1.09521	     1.09739	
 --	 --	 --	 --	 --	      1.0601	      1.0979	     1.09632	           0	  0.00158024	           1	    0.385024	     0.02088	     1.09514	     1.09749	
 --	 --	 --	 --	 --	      1.0651	     1.10068	     1.09633	           0	  0.00434819	           1	     1.05898	   0.0200584	     1.09518	     1.09749	
 --	 --	 --	 --	 --	      1.0701	      1.0974	     1.09635	           0	  0.00105121	           1	    0.257249	   0.0294146	     1.09496	     1.09775	
 --	 --	 --	 --	 --	      1.0751	     1.09843	     1.09637	           0	  0.00206181	           1	    0.504743	   0.0301138	     1.09496	     1.09778	
 --	 --	 --	 --	 --	      1.0801	     1.10049	     1.09639	           0	   0.0041075	           1	     1.00469	    0.028484	     1.09501	     1.09776	
 --	 --	 --	 --	 --	      1.0851	     1.09545	      1.0964	           0	-0.000946729	           1	   -0.230944	   0.0232124	     1.09516	     1.09764	
 --	 --	 --	 --	 --	      1.0901	     1.09946	     1.09642	           0	  0.00304163	           1	    0.743573	   0.0274144	     1.09507	     1.09776	
 --	 --	 --	 --	 --	      1.0951	     1.09752	     1.09643	           0	  0.00108257	           1	     0.26441	   0.0256396	     1.09513	     1.09774	
 --	 --	 --	 --	 --	         1.1	     1.09551	     1.09645	           0	-0.000944404	           1	   -0.229987	   0.0198942	      1.0953	      1.0976	
 --	 --	 --	 --	 --	       1.225	     1.10085	     1.09683	           0	  0.00401517	           1	    0.971686	  0.00752906	     1.09613	     1.09754	
 --	 --	 --	 --	 --	        1.35	     1.09937	     1.09715	           0	  0.00222629	           1	    0.538589	  0.00685913	     1.09647	     1.09782	
 --	 --	 --	 --	 --	       1.475	     1.10756	      1.0974	           0	   0.0101651	           1	     2.45894	  0.00667431	     1.09673	     1.09806	
 --	 --	 --	 --	 --	         1.6	     1.10176	     1.09759	           0	  0.00417255	           1	     1.00965	  0.00728318	      1.0969	     1.09828	
 --	 --	 --	 --	 --	       1.725	     1.09881	     1.09773	           0	   0.0010808	           1	    0.261645	  0.00819152	       1.097	     1.09847	
 --	 --	 --	 --	 --	        1.85	     1.09851	     1.09783	           0	 0.000678414	           1	    0.164185	  0.00760421	     1.09712	     1.09854	
 --	 --	 --	 --	 --	       1.975	     1.09632	      1.0979	           0	 -0.00157558	           1	   -0.380834	  0.00511714	     1.09731	     1.09848	
 --	 --	 --	 --	 --	         2.1	     1.10202	     1.09793	           0	  0.00408869	           1	    0.988497	   0.0055574	     1.09733	     1.09854	
 --	 --	 --	 --	 --	       2.225	     1.09881	     1.09794	           0	 0.000868709	           1	    0.209872	  0.00412626	     1.09742	     1.09847	
 --	 --	 --	 --	 --	        2.35	      1.1038	     1.09794	           0	  0.00585625	           1	     1.41496	  0.00432772	     1.09741	     1.09848	
 --	 --	 --	 --	 --	       2.475	     1.10034	     1.09792	           0	  0.00241726	           1	    0.584026	  0.00426132	     1.09739	     1.09845	
 --	 --	 --	 --	 --	         2.6	     1.10543	     1.09789	           0	  0.00753178	           1	      1.8192	  0.00368678	      1.0974	     1.09839	
 --	 --	 --	 --	 --	       2.725	     1.10502	     1.09786	           0	  0.00715716	           1	     1.72889	  0.00389005	     1.09735	     1.09837	
 --	 --	 --	 --	 --	        2.85	     1.10411	     1.09782	           0	  0.00628794	           1	     1.51968	   0.0048818	     1.09725	     1.09839	
 --	 --	 --	 --	 --	       2.975	     1.10792	     1.09777	           0	   0.0101458	           1	     2.45168	  0.00458136	     1.09722	     1.09832	
 --	 --	 --	 --	 --	         3.1	     1.10456	     1.09773	           0	  0.00683602	           1	     1.65106	  0.00357498	     1.09724	     1.09821	
 --	 --	 --	 --	 --	       3.225	     1.10329	     1.09768	           0	  0.00560765	           1	      1.3555	   0.0052248	     1.09709	     1.09827	
 --	 --	 --	 --	 --	        3.35	     1.10446	     1.09763	           0	  0.00682655	           1	     1.65057	  0.00573903	     1.09701	     1.09825	
 --	 --	 --	 --	 --	       3.475	     1.10741	     1.09758	           0	  0.00982879	           1	     2.37376	  0.00346865	      1.0971	     1.09806	
 --	 --	 --	 --	 --	         3.6	     1.10644	     1.09753	           0	  0.00891059	           1	     2.15187	  0.00334534	     1.09706	       1.098	
 --	 --	 --	 --	 --	       3.725	     1.10187	     1.09749	           0	   0.0043816	           1	      1.0582	  0.00345901	     1.09701	     1.09796	
 --	 --	 --	 --	 --	        3.85	     1.10726	     1.09744	           0	  0.00981826	           1	     2.37128	  0.00352381	     1.09696	     1.09792	
 --	 --	 --	 --	 --	       3.975	     1.10319	     1.09739	           0	  0.00579374	           1	     1.39908	  0.00322274	     1.09693	     1.09785	
 --	 --	 --	 --	 --	         4.1	     1.10273	     1.09735	           0	  0.00538126	           1	     1.29965	   0.0035004	     1.09687	     1.09783	
 --	 --	 --	 --	 --	       4.225	     1.10797	     1.09731	           0	   0.0106641	           1	     2.57688	  0.00454605	     1.09676	     1.09785	
 --	 --	 --	 --	 --	        4.35	     1.09805	     1.09726	           0	  0.00078551	           1	      0.1897	  0.00337326	     1.09679	     1.09774	
 --	 --	 --	 --	 --	       4.475	     1.10538	     1.09722	           0	   0.0081522	           1	     1.96872	  0.00334536	     1.09675	     1.09769	
 --	 --	 --	 --	 --	         4.6	     1.10263	     1.09719	           0	  0.00544081	           1	     1.31411	  0.00362267	      1.0967	     1.09768	
 --	 --	 --	 --	 --	       4.725	     1.10568	     1.09715	           0	  0.00853139	           1	     2.06022	  0.00327822	     1.09668	     1.09761	
 --	 --	 --	 --	 --	        4.85	     1.10731	     1.09711	           0	   0.0101973	           1	     2.46391	  0.00440585	     1.09657	     1.09765	
 --	 --	 --	 --	 --	       4.975	     1.09937	     1.09708	           0	  0.00229189	           1	    0.553521	  0.00349115	      1.0966	     1.09756	
 --	 --	 --	 --	 --	         5.1	     1.10034	     1.09704	           0	  0.00329522	           1	     0.79584	  0.00349454	     1.09656	     1.09753	
 --	 --	 --	 --	 --	       5.225	     1.10644	     1.09701	           0	  0.00943067	           1	     2.27802	  0.00383152	     1.09651	     1.09752	
 --	 --	 --	 --	 --	        5.35	     1.10782	     1.09698	           0	    0.010835	           1	     2.61744	  0.00398821	     1.09647	      1.0975	
 --	 --	 --	 --	 --	       5.475	     1.10609	     1.09695	           0	  0.00913478	           1	     2.20594	  0.00328277	     1.09649	     1.09742	
 --	 --	 --	 --	 --	         5.6	     1.10115	     1.09692	           0	  0.00422687	           1	     1.02137	  0.00450589	     1.09638	     1.09747	
 --	 --	 --	 --	 --	       5.725	     1.09607	      1.0969	           0	 -0.00082873	           1	   -0.200237	  0.00436433	     1.09636	     1.09743	
 --	 --	 --	 --	 --	        5.85	     1.10517	     1.09687	           0	  0.00830469	           1	     2.00552	  0.00332127	      1.0964	     1.09734	
 --	 --	 --	 --	 --	       5.975	     1.09968	     1.09684	           0	  0.00283384	           1	    0.684543	    0.003881	     1.09634	     1.09735	
 --	 --	 --	 --	 --	         6.1	     1.09861	     1.09682	           0	   0.0017921	           1	    0.432793	  0.00339129	     1.09634	     1.09729	
 --	 --	 --	 --	 --	       6.225	     1.10304	     1.09679	           0	  0.00624284	           1	     1.50801	  0.00386279	     1.09629	      1.0973	
 --	 --	 --	 --	 --	        6.35	     1.10685	     1.09677	           0	   0.0100794	           1	     2.43469	  0.00379443	     1.09627	     1.09727	
 --	 --	 --	 --	 --	       6.475	      1.0984	     1.09675	           0	  0.00165525	           1	    0.399742	  0.00337837	     1.09628	     1.09722	
 --	 --	 --	 --	 --	         6.6	     1.10095	     1.09673	           0	  0.00422366	           1	     1.02004	  0.00343654	     1.09625	      1.0972	
 --	 --	 --	 --	 --	       6.725	     1.10385	     1.09671	           0	  0.00714136	           1	     1.72499	  0.00378736	      1.0962	     1.09721	
 --	 --	 --	 --	 --	        6.85	     1.10125	     1.09668	           0	  0.00456839	           1	      1.1038	  0.00434854	     1.09615	     1.09722	
 --	 --	 --	 --	 --	       6.975	     1.10456	     1.09667	           0	  0.00789811	           1	     1.90833	  0.00436368	     1.09613	      1.0972	
 --	 --	 --	 --	 --	         7.1	     1.10487	     1.09665	           0	  0.00822055	           1	     1.98558	  0.00370101	     1.09615	     1.09714	
 --	 --	 --	 --	 --	       7.225	     1.10909	     1.09663	           0	   0.0124591	           1	     3.00898	  0.00346027	     1.09615	     1.09711	
 --	 --	 --	 --	 --	        7.35	     1.10548	     1.09661	           0	  0.00886701	           1	     2.14138	  0.00337825	     1.09614	     1.09708	
 --	 --	 --	 --	 --	       7.475	     1.10827	     1.09659	           0	   0.0116811	           1	     2.82116	  0.00350999	     1.09611	     1.09707	
 --	 --	 --	 --	 --	         7.6	     1.10003	     1.09658	           0	  0.00345799	           1	    0.835132	  0.00344994	      1.0961	     1.09705	
 --	 --	 --	 --	 --	       7.725	     1.10548	     1.09656	           0	  0.00891772	           1	     2.15373	  0.00347332	     1.09608	     1.09704	
 --	 --	 --	 --	 --	        7.85	     1.10319	     1.09654	           0	  0.00664365	           1	     1.60596	  0.00526231	     1.09595	     1.09713	
 --	 --	 --	 --	 --	       7.975	     1.10807	     1.09653	           0	   0.0115391	           1	     2.78692	  0.00353895	     1.09604	     1.09701	
 --	 --	 --	 --	 --	         8.1	     1.09978	     1.09651	           0	  0.00326751	           1	    0.789223	  0.00368657	     1.09602	     1.09701	
 --	 --	 --	 --	 --	       8.225	     1.09719	      1.0965	           0	 0.000688797	           1	    0.166355	  0.00351186	     1.09602	     1.09698	
 --	 --	 --	 --	 --	        8.35	     1.09632	     1.09648	           0	-0.000160312	           1	  -0.0387184	  0.00354604	       1.096	     1.09697	
 --	 --	 --	 --	 --	       8.475	     1.10649	     1.09647	           0	   0.0100235	           1	     2.42122	  0.00382818	     1.09597	     1.09697	
 --	 --	 --	 --	 --	         8.6	     1.10141	     1.09646	           0	  0.00495367	           1	     1.19746	  0.00530314	     1.09586	     1.09705	
 --	 --	 --	 --	 --	       8.725	     1.10736	     1.09644	           0	   0.0109168	           1	     2.63801	  0.00459849	     1.09589	     1.09699	
 --	 --	 --	 --	 --	        8.85	     1.10293	     1.09643	           0	  0.00650289	           1	     1.57052	  0.00347401	     1.09595	     1.09691	
 --	 --	 --	 --	 --	       8.975	     1.10288	     1.09642	           0	  0.00646533	           1	      1.5629	  0.00532009	     1.09582	     1.09701	
 --	 --	 --	 --	 --	         9.1	      1.1035	     1.09641	           0	   0.0070908	           1	     1.71296	  0.00400366	     1.09589	     1.09692	
 --	 --	 --	 --	 --	       9.225	     1.10395	     1.09639	           0	  0.00755595	           1	     1.82551	  0.00419802	     1.09587	     1.09692	
 --	 --	 --	 --	 --	        9.35	      1.1037	     1.09638	           0	  0.00731415	           1	     1.76773	  0.00492022	     1.09581	     1.09695	
 --	 --	 --	 --	 --	       9.475	     1.09907	     1.09637	           0	   0.0026954	           1	    0.651077	  0.00380637	     1.09587	     1.09687	
 --	 --	 --	 --	 --	         9.6	      1.1008	     1.09636	           0	  0.00443638	           1	     1.07162	  0.00382636	     1.09586	     1.09686	
 --	 --	 --	 --	 --	       9.725	      1.1039	     1.09635	           0	  0.00755042	           1	     1.82366	  0.00363443	     1.09586	     1.09684	
 --	 --	 --	 --	 --	        9.85	     1.10405	     1.09634	           0	  0.00771088	           1	     1.86259	  0.00382792	     1.09584	     1.09684	
 --	 --	 --	 --	 --	       9.975	     1.10034	     1.09633	           0	   0.0040111	           1	    0.969077	  0.00419988	      1.0958	     1.09686	
 --	 --	 --	 --	 --	        10.4	     1.09764	      1.0963	           0	  0.00134744	           1	    0.325493	  0.00390988	     1.09579	      1.0968	
 --	 --	 --	 --	 --	        10.9	     1.10059	     1.09626	           0	  0.00433317	           1	     1.04688	  0.00418638	     1.09573	     1.09679	
 --	 --	 --	 --	 --	        11.4	     1.10095	     1.09623	           0	  0.00472262	           1	     1.14181	   0.0056421	     1.09562	     1.09684	
 --	 --	 --	 --	 --	        11.9	     1.09851	      1.0962	           0	  0.00231278	           1	    0.558763	   0.0041887	     1.09567	     1.09672	
 --	 --	 --	 --	 --	        12.4	     1.09856	     1.09617	           0	  0.00239064	           1	    0.577474	  0.00384942	     1.09566	     1.09667	
 --	 --	 --	 --	 --	        12.9	     1.09886	     1.09614	           0	  0.00271977	           1	    0.657115	  0.00426493	     1.09561	     1.09667	
 --	 --	 --	 --	 --	        13.4	     1.09973	     1.09612	           0	  0.00360706	           1	    0.871374	   0.0039963	     1.09561	     1.09663	
 --	 --	 --	 --	 --	        13.9	      1.1037	      1.0961	           0	  0.00759938	           1	     1.83618	  0.00438757	     1.09556	     1.09664	
 --	 --	 --	 --	 --	        14.4	      1.1039	     1.09608	           0	  0.00782687	           1	     1.89116	  0.00440358	     1.09554	     1.09662	
 --	 --	 --	 --	 --	        14.9	     1.09912	     1.09606	           0	  0.00305969	           1	    0.739343	  0.00453664	     1.09551	      1.0966	
 --	 --	 --	 --	 --	        15.4	     1.10182	     1.09604	           0	  0.00577796	           1	     1.39683	  0.00545683	     1.09544	     1.09664	
 --	 --	 --	 --	 --	        15.9	     1.09536	     1.09602	           0	-0.000664879	           1	   -0.160719	  0.00525441	     1.09543	     1.09661	
 --	 --	 --	 --	 --	        16.4	     1.09856	     1.09601	           0	  0.00255461	           1	    0.617277	  0.00447728	     1.09546	     1.09655	
 --	 --	 --	 --	 --	        16.9	     1.09805	     1.09599	           0	  0.00206317	           1	    0.498441	  0.00412565	     1.09547	     1.09651	
 --	 --	 --	 --	 --	        17.4	     1.10192	     1.09598	           0	  0.00594089	           1	      1.4354	  0.00432084	     1.09544	     1.09651	
 --	 --	 --	 --	 --	        17.9	     1.10431	     1.09596	           0	  0.00834449	           1	      2.0163	  0.00447574	     1.09542	     1.09651	
 --	 --	 --	 --	 --	        18.4	       1.095	     1.09595	           0	-0.000949285	           1	    -0.22937	  0.00440099	     1.09541	     1.09649	
 --	 --	 --	 --	 --	        18.9	     1.10177	     1.09594	           0	  0.00582961	           1	     1.40835	   0.0040852	     1.09542	     1.09646	
 --	 --	 --	 --	 --	        19.4	     1.09581	     1.09593	           0	-0.000112108	           1	  -0.0270851	  0.00418786	      1.0954	     1.09645	
 --	 --	 --	 --	 --	        19.9	     1.09581	     1.09591	           0	-0.000104393	           1	  -0.0252248	  0.00447876	     1.09537	     1.09646	
 --	 --	 --	 --	 --	        20.4	     1.09673	      1.0959	           0	 0.000822796	           1	    0.198956	  0.00589219	     1.09528	     1.09653	
 --	 --	 --	 --	 --	        20.9	     1.09805	     1.09589	           0	  0.00215616	           1	    0.520989	  0.00443881	     1.09535	     1.09644	
 --	 --	 --	 --	 --	        21.4	     1.09663	     1.09588	           0	 0.000745737	           1	    0.180176	  0.00426948	     1.09535	     1.09642	
 --	 --	 --	 --	 --	        21.9	     1.09627	     1.09588	           0	  0.00039822	           1	   0.0962196	  0.00440858	     1.09534	     1.09642	
 --	 --	 --	 --	 --	        22.4	     1.09922	     1.09587	           0	  0.00335364	           1	    0.810187	  0.00407996	     1.09535	     1.09639	
 --	 --	 --	 --	 --	        22.9	     1.09739	     1.09586	           0	  0.00153202	           1	    0.370164	    0.004362	     1.09532	      1.0964	
 --	 --	 --	 --	 --	        23.4	      1.1011	     1.09585	           0	  0.00525338	           1	     1.26957	  0.00475759	     1.09529	     1.09641	
 --	 --	 --	 --	 --	        23.9	     1.09581	     1.09584	           0	-3.22548e-005	           1	 -0.00779605	  0.00504864	     1.09526	     1.09642	
 --	 --	 --	 --	 --	        24.4	     1.09586	     1.09583	           0	2.84706e-005	           1	  0.00687832	  0.00415361	     1.09531	     1.09636	
 --	 --	 --	 --	 --	        24.9	     1.10202	     1.09583	           0	  0.00618891	           1	     1.49537	  0.00438296	     1.09529	     1.09637	
 --	 --	 --	 --	 --	        25.4	     1.09429	     1.09582	           0	 -0.00153427	           1	   -0.370858	  0.00516927	     1.09524	     1.09641	
 --	 --	 --	 --	 --	        25.9	     1.10151	     1.09581	           0	   0.0056923	           1	      1.3755	  0.00454823	     1.09527	     1.09636	
 --	 --	 --	 --	 --	        26.4	     1.09693	     1.09581	           0	   0.0011253	           1	    0.271981	  0.00500404	     1.09523	     1.09638	
 --	 --	 --	 --	 --	        26.9	     1.10034	      1.0958	           0	  0.00453806	           1	     1.09658	  0.00455194	     1.09525	     1.09635	
 --	 --	 --	 --	 --	        27.4	     1.09831	      1.0958	           0	   0.0025106	           1	    0.606734	  0.00477075	     1.09523	     1.09636	
 --	 --	 --	 --	 --	        27.9	      1.1008	     1.09579	           0	  0.00500628	           1	        1.21	  0.00500618	     1.09522	     1.09637	
 --	 --	 --	 --	 --	        28.4	     1.09525	     1.09578	           0	-0.000531582	           1	    -0.12851	  0.00544754	     1.09518	     1.09639	
 --	 --	 --	 --	 --	        28.9	      1.0984	     1.09578	           0	  0.00262371	           1	    0.633966	  0.00445226	     1.09524	     1.09632	
 --	 --	 --	 --	 --	        29.4	     1.09637	     1.09577	           0	 0.000598821	           1	    0.144723	  0.00487363	     1.09521	     1.09634	
 --	 --	 --	 --	 --	        29.9	     1.09545	     1.09577	           0	-0.000316234	           1	  -0.0763995	  0.00413823	     1.09525	     1.09629	
 --	 --	 --	 --	 --	        30.4	     1.09724	     1.09576	           0	  0.00147188	           1	     0.35562	  0.00427893	     1.09523	      1.0963	
 --	 --	 --	 --	 --	        30.9	     1.09785	     1.09576	           0	  0.00208652	           1	     0.50419	  0.00455276	     1.09521	     1.09631	
 --	 --	 --	 --	 --	        31.4	       1.101	     1.09576	           0	  0.00524767	           1	     1.26801	  0.00447752	     1.09521	      1.0963	
 --	 --	 --	 --	 --	        31.9	     1.09002	     1.09575	           0	 -0.00573464	           1	    -1.38559	  0.00435509	     1.09521	     1.09629	
 --	 --	 --	 --	 --	        32.4	     1.10146	     1.09575	           0	  0.00570957	           1	     1.38121	   0.0067657	     1.09508	     1.09642	
 --	 --	 --	 --	 --	        32.9	     1.09597	     1.09574	           0	 0.000223665	           1	   0.0540921	  0.00621983	      1.0951	     1.09638	
 --	 --	 --	 --	 --	        33.4	     1.09485	     1.09574	           0	-0.000892364	           1	   -0.215644	    0.004654	     1.09518	     1.09629	
 --	 --	 --	 --	 --	        33.9	     1.10029	     1.09574	           0	  0.00455482	           1	     1.10061	  0.00450798	     1.09519	     1.09628	
 --	 --	 --	 --	 --	        34.4	     1.09403	     1.09573	           0	  -0.0016981	           1	   -0.410442	  0.00509081	     1.09515	     1.09631	
 --	 --	 --	 --	 --	        34.9	     1.09627	     1.09573	           0	 0.000545544	           1	    0.131981	  0.00688154	     1.09505	      1.0964	
 --	 --	 --	 --	 --	        35.4	     1.09546	     1.09572	           0	-0.000267585	           1	  -0.0646594	  0.00454512	     1.09518	     1.09627	
 --	 --	 --	 --	 --	        35.9	      1.0952	     1.09572	           0	-0.000517477	           1	   -0.125173	   0.0066027	     1.09506	     1.09638	
 --	 --	 --	 --	 --	        36.4	     1.09525	     1.09572	           0	-0.000464128	           1	   -0.112216	  0.00567108	     1.09511	     1.09633	
 --	 --	 --	 --	 --	        36.9	     1.09322	     1.09571	           0	  -0.0024942	           1	   -0.603055	  0.00571206	      1.0951	     1.09633	
 --	 --	 --	 --	 --	        37.4	     1.10095	     1.09571	           0	  0.00523897	           1	     1.26613	  0.00483432	     1.09515	     1.09628	
 --	 --	 --	 --	 --	        37.9	     1.09296	     1.09571	           0	 -0.00274461	           1	   -0.663467	  0.00531939	     1.09511	      1.0963	
 --	 --	 --	 --	 --	        38.4	     1.09423	      1.0957	           0	  -0.0014716	           1	   -0.355794	  0.00564581	     1.09509	     1.09632	
 --	 --	 --	 --	 --	        38.9	     1.09505	      1.0957	           0	-0.000651994	           1	   -0.157727	  0.00680319	     1.09503	     1.09637	
 --	 --	 --	 --	 --	        39.4	     1.09271	      1.0957	           0	 -0.00298913	           1	   -0.722701	  0.00565746	     1.09509	     1.09631	
 --	 --	 --	 --	 --	        39.9	      1.0918	      1.0957	           0	 -0.00389968	           1	   -0.942184	  0.00425477	     1.09517	     1.09623	
 --	 --	 --	 --	 --	        40.4	     1.09612	     1.09569	           0	 0.000423047	           1	    0.102236	  0.00474172	     1.09513	     1.09625	
 --	 --	 --	 --	 --	        40.9	     1.09927	     1.09569	           0	  0.00358237	           1	    0.865711	  0.00469184	     1.09513	     1.09625	
 --	 --	 --	 --	 --	        41.4	     1.09607	     1.09569	           0	 0.000378296	           1	   0.0914372	  0.00509571	     1.09511	     1.09627	
 --	 --	 --	 --	 --	        41.9	     1.09713	     1.09569	           0	   0.0014475	           1	    0.349889	  0.00519758	      1.0951	     1.09627	
 --	 --	 --	 --	 --	        42.4	     1.09841	     1.09568	           0	   0.0027233	           1	     0.65798	  0.00429904	     1.09515	     1.09622	
 --	 --	 --	 --	 --	        42.9	     1.10258	     1.09568	           0	  0.00689572	           1	     1.66733	  0.00578599	     1.09506	      1.0963	
 --	 --	 --	 --	 --	        43.4	     1.09754	     1.09568	           0	  0.00186141	           1	    0.449737	   0.0042963	     1.09515	     1.09621	
 --	 --	 --	 --	 --	        43.9	     1.10003	     1.09568	           0	  0.00435705	           1	     1.05286	  0.00458209	     1.09513	     1.09623	
 --	 --	 --	 --	 --	        44.4	     1.10334	     1.09567	           0	  0.00766598	           1	     1.85292	  0.00508352	     1.09509	     1.09625	
 --	 --	 --	 --	 --	        44.9	     1.09983	     1.09567	           0	  0.00415818	           1	     1.00483	   0.0046254	     1.09512	     1.09622	
 --	 --	 --	 --	 --	        45.4	     1.09525	     1.09567	           0	-0.000419657	           1	   -0.101454	  0.00548482	     1.09507	     1.09627	
 --	 --	 --	 --	 --	        45.9	     1.09632	     1.09567	           0	 0.000655789	           1	    0.158496	   0.0049247	      1.0951	     1.09624	
 --	 --	 --	 --	 --	        46.4	     1.10197	     1.09567	           0	  0.00630119	           1	      1.5234	   0.0055616	     1.09506	     1.09627	
 --	 --	 --	 --	 --	        46.9	     1.09663	     1.09566	           0	 0.000963213	           1	    0.232736	  0.00440763	     1.09512	      1.0962	
 --	 --	 --	 --	 --	        47.4	     1.09642	     1.09566	           0	 0.000761862	           1	    0.184138	  0.00498965	     1.09509	     1.09624	
 --	 --	 --	 --	 --	        47.9	     1.08961	     1.09566	           0	 -0.00604953	           1	    -1.46181	  0.00453586	     1.09511	     1.09621	
 --	 --	 --	 --	 --	        48.4	     1.10126	     1.09566	           0	  0.00559904	           1	     1.35344	  0.00525257	     1.09507	     1.09625	
 --	 --	 --	 --	 --	        48.9	     1.09174	     1.09566	           0	 -0.00391243	           1	   -0.945937	  0.00566663	     1.09504	     1.09627	
 --	 --	 --	 --	 --	        49.4	     1.09551	     1.09565	           0	-0.000147275	           1	  -0.0356064	  0.00558654	     1.09505	     1.09626	
 --	 --	 --	 --	 --	        49.9	      1.0978	     1.09565	           0	  0.00214451	           1	    0.518179	  0.00445433	     1.09511	     1.09619	
 --	 --	 --	 --	 --	        50.4	     1.09597	     1.09565	           0	 0.000316268	           1	   0.0764984	  0.00649938	     1.09499	     1.09631	
 --	 --	 --	 --	 --	        50.9	     1.09302	     1.09565	           0	 -0.00263201	           1	   -0.635944	  0.00436269	     1.09511	     1.09619	
 --	 --	 --	 --	 --	        51.4	      1.0954	     1.09565	           0	-0.000243659	           1	  -0.0588843	  0.00475749	     1.09509	     1.09621	
 --	 --	 --	 --	 --	        51.9	     1.09932	     1.09565	           0	  0.00367466	           1	    0.888174	  0.00504939	     1.09507	     1.09622	
 --	 --	 --	 --	 --	        52.4	     1.09841	     1.09564	           0	  0.00276295	           1	    0.667885	  0.00526928	     1.09505	     1.09623	
 --	 --	 --	 --	 --	        52.9	     1.10054	     1.09564	           0	  0.00490121	           1	     1.18494	  0.00556492	     1.09504	     1.09625	
 --	 --	 --	 --	 --	        53.4	     1.10283	     1.09564	           0	  0.00719278	           1	     1.73836	  0.00488393	     1.09507	     1.09621	
 --	 --	 --	 --	 --	        53.9	     1.09515	     1.09564	           0	-0.000489024	           1	   -0.118186	  0.00484238	     1.09507	      1.0962	
 --	 --	 --	 --	 --	        54.4	     1.10426	     1.09564	           0	  0.00861915	           1	      2.0857	  0.00737349	     1.09494	     1.09634	
 --	 --	 --	 --	 --	        54.9	     1.09622	     1.09564	           0	 0.000583963	           1	    0.141116	  0.00463689	     1.09508	     1.09619	
 --	 --	 --	 --	 --	        55.4	     1.09714	     1.09563	           0	  0.00150208	           1	    0.363043	  0.00497311	     1.09506	     1.09621	
 --	 --	 --	 --	 --	        55.9	     1.09332	     1.09563	           0	 -0.00231316	           1	   -0.558973	  0.00461471	     1.09508	     1.09619	
 --	 --	 --	 --	 --	        56.4	     1.09719	     1.09563	           0	  0.00155491	           1	    0.375943	  0.00566827	     1.09502	     1.09624	
 --	 --	 --	 --	 --	        56.9	     1.09388	     1.09563	           0	 -0.00175038	           1	   -0.423045	  0.00493054	     1.09506	      1.0962	
 --	 --	 --	 --	 --	        57.4	     1.09891	     1.09563	           0	  0.00328431	           1	    0.794581	  0.00694062	     1.09495	     1.09631	
 --	 --	 --	 --	 --	        57.9	     1.09449	     1.09563	           0	 -0.00113436	           1	   -0.274123	  0.00465678	     1.09507	     1.09618	
 --	 --	 --	 --	 --	        58.4	      1.0977	     1.09563	           0	  0.00207028	           1	    0.500278	  0.00459516	     1.09508	     1.09618	
 --	 --	 --	 --	 --	        58.9	     1.09535	     1.09563	           0	-0.000271764	           1	  -0.0656684	  0.00451626	     1.09508	     1.09617	
 --	 --	 --	 --	 --	        59.4	     1.09703	     1.09562	           0	  0.00140617	           1	    0.339921	   0.0053243	     1.09503	     1.09622	
 --	 --	 --	 --	 --	        59.9	     1.09759	     1.09562	           0	  0.00197074	           1	    0.476192	  0.00445983	     1.09508	     1.09617	
 --	 --	 --	 --	 --	        60.4	     1.09383	     1.09562	           0	  -0.0017947	           1	   -0.434135	  0.00666373	     1.09496	     1.09629	
 --	 --	 --	 --	 --	        60.9	     1.10003	     1.09562	           0	  0.00441317	           1	     1.06663	  0.00497217	     1.09505	     1.09619	
 --	 --	 --	 --	 --	        61.4	     1.09276	     1.09562	           0	 -0.00285898	           1	   -0.691353	  0.00600541	     1.09499	     1.09625	
 --	 --	 --	 --	 --	        61.9	     1.09932	     1.09562	           0	  0.00370552	           1	    0.895776	  0.00536831	     1.09502	     1.09621	
 --	 --	 --	 --	 --	        62.4	     1.09734	     1.09562	           0	     0.00172	           1	    0.415791	  0.00535301	     1.09502	     1.09621	
 --	 --	 --	 --	 --	        62.9	     1.09978	     1.09562	           0	  0.00416446	           1	      1.0061	  0.00413039	     1.09509	     1.09614	
 --	 --	 --	 --	 --	        63.4	      1.0951	     1.09561	           0	-0.000514426	           1	   -0.124313	  0.00464315	     1.09506	     1.09617	
 --	 --	 --	 --	 --	        63.9	     1.09133	     1.09561	           0	    -0.00428	           1	    -1.03453	  0.00513709	     1.09503	      1.0962	
 --	 --	 --	 --	 --	        64.4	     1.09302	     1.09561	           0	 -0.00259559	           1	   -0.627398	  0.00517096	     1.09503	      1.0962	
 --	 --	 --	 --	 --	        64.9	     1.09266	     1.09561	           0	  -0.0029512	           1	   -0.713314	  0.00505872	     1.09503	     1.09619	
 --	 --	 --	 --	 --	        65.4	     1.09586	     1.09561	           0	 0.000253182	           1	   0.0611732	  0.00435144	     1.09507	     1.09615	
 --	 --	 --	 --	 --	        65.9	      1.0979	     1.09561	           0	  0.00228754	           1	    0.552899	  0.00503084	     1.09503	     1.09619	
 --	 --	 --	 --	 --	        66.4	     1.09586	     1.09561	           0	 0.000255224	           1	   0.0617496	  0.00703064	     1.09493	     1.09629	
 --	 --	 --	 --	 --	        66.9	     1.09418	     1.09561	           0	 -0.00142378	           1	   -0.343982	  0.00419313	     1.09508	     1.09613	
 --	 --	 --	 --	 --	        67.4	     1.10141	     1.09561	           0	  0.00580387	           1	     1.40247	  0.00457286	     1.09506	     1.09616	
 --	 --	 --	 --	 --	        67.9	     1.09306	     1.09561	           0	 -0.00254183	           1	   -0.614237	  0.00463534	     1.09505	     1.09616	
 --	 --	 --	 --	 --	        68.4	     1.10212	      1.0956	           0	  0.00651246	           1	     1.57404	  0.00500182	     1.09503	     1.09618	
 --	 --	 --	 --	 --	        68.9	     1.10075	      1.0956	           0	   0.0051434	           1	     1.24275	  0.00438087	     1.09507	     1.09614	
 --	 --	 --	 --	 --	        69.4	     1.08793	      1.0956	           0	 -0.00767234	           1	     -1.8544	    0.005032	     1.09503	     1.09618	
 --	 --	 --	 --	 --	        69.9	     1.09271	      1.0956	           0	 -0.00289142	           1	   -0.698747	  0.00472115	     1.09504	     1.09616	
 --	 --	 --	 --	 --	        70.4	     1.09525	      1.0956	           0	-0.000347186	           1	  -0.0838977	  0.00462713	     1.09505	     1.09615	
 --	 --	 --	 --	 --	        70.9	     1.10171	      1.0956	           0	   0.0061137	           1	     1.47824	  0.00577868	     1.09498	     1.09622	
 --	 --	 --	 --	 --	        71.4	     1.09337	      1.0956	           0	 -0.00222875	           1	   -0.538641	  0.00485188	     1.09503	     1.09617	
 --	 --	 --	 --	 --	        71.9	     1.09841	      1.0956	           0	  0.00280878	           1	    0.678691	  0.00447207	     1.09505	     1.09614	
 --	 --	 --	 --	 --	        72.4	     1.09795	      1.0956	           0	  0.00234963	           1	    0.567718	  0.00437367	     1.09506	     1.09613	
 --	 --	 --	 --	 --	        72.9	     1.09225	      1.0956	           0	 -0.00334619	           1	   -0.808606	  0.00461532	     1.09504	     1.09615	
 --	 --	 --	 --	 --	        73.4	     1.08951	      1.0956	           0	  -0.0060887	           1	    -1.47108	  0.00428079	     1.09506	     1.09613	
 --	 --	 --	 --	 --	        73.9	     1.09444	     1.09559	           0	 -0.00115455	           1	   -0.279017	  0.00476832	     1.09503	     1.09616	
 --	 --	 --	 --	 --	        74.4	     1.09601	     1.09559	           0	 0.000419595	           1	    0.101408	  0.00487941	     1.09503	     1.09616	
 --	 --	 --	 --	 --	        74.9	     1.09754	     1.09559	           0	  0.00194706	           1	    0.470711	  0.00548353	     1.09499	      1.0962	
 --	 --	 --	 --	 --	        75.4	     1.09795	     1.09559	           0	  0.00235784	           1	     0.56984	   0.0048535	     1.09503	     1.09616	
 --	 --	 --	 --	 --	        75.9	     1.09515	     1.09559	           0	-0.000441379	           1	   -0.106656	  0.00456614	     1.09504	     1.09614	
 --	 --	 --	 --	 --	        76.4	     1.09576	     1.09559	           0	 0.000172721	           1	   0.0417564	  0.00550051	     1.09499	     1.09619	
 --	 --	 --	 --	 --	        76.9	     1.09902	     1.09559	           0	  0.00342681	           1	    0.828019	  0.00445204	     1.09505	     1.09613	
 --	 --	 --	 --	 --	        77.4	     1.09301	     1.09559	           0	 -0.00257578	           1	   -0.622821	  0.00584933	     1.09497	     1.09621	
 --	 --	 --	 --	 --	        77.9	     1.09301	     1.09559	           0	 -0.00257504	           1	   -0.622229	  0.00452687	     1.09504	     1.09614	
 --	 --	 --	 --	 --	        78.4	     1.09846	     1.09559	           0	  0.00286902	           1	    0.693583	  0.00543541	     1.09499	     1.09619	
 --	 --	 --	 --	 --	        78.9	      1.0977	     1.09559	           0	  0.00210974	           1	    0.509816	   0.0046109	     1.09503	     1.09614	
 --	 --	 --	 --	 --	        79.4	     1.09551	     1.09559	           0	-7.95509e-005	           1	  -0.0192205	  0.00431696	     1.09505	     1.09612	
 --	 --	 --	 --	 --	        79.9	     1.09301	     1.09559	           0	 -0.00257218	           1	   -0.621971	  0.00590749	     1.09496	     1.09621	
 --	 --	 --	 --	 --	        80.4	      1.0953	     1.09558	           0	-0.000281492	           1	  -0.0680361	  0.00501888	     1.09501	     1.09616	
 --	 --	 --	 --	 --	        80.9	     1.10039	     1.09558	           0	  0.00480586	           1	     1.16148	   0.0048611	     1.09502	     1.09615	
 --	 --	 --	 --	 --	        81.4	     1.09154	     1.09558	           0	 -0.00404347	           1	   -0.977058	  0.00452695	     1.09504	     1.09613	
 --	 --	 --	 --	 --	        81.9	      1.0889	     1.09558	           0	 -0.00668613	           1	    -1.61608	  0.00507855	       1.095	     1.09616	
 --	 --	 --	 --	 --	        82.4	     1.09002	     1.09558	           0	 -0.00556547	           1	      -1.345	  0.00477081	     1.09502	     1.09614	
 --	 --	 --	 --	 --	        82.9	     1.09795	     1.09558	           0	  0.00236518	           1	     0.57192	  0.00592313	     1.09496	     1.09621	
 --	 --	 --	 --	 --	        83.4	     1.09591	     1.09558	           0	 0.000332487	           1	   0.0803653	  0.00510953	       1.095	     1.09616	
 --	 --	 --	 --	 --	        83.9	     1.09286	     1.09558	           0	 -0.00271688	           1	   -0.657012	  0.00606924	     1.09495	     1.09621	
 --	 --	 --	 --	 --	        84.4	     1.10064	     1.09558	           0	  0.00506375	           1	     1.22367	  0.00464367	     1.09503	     1.09613	
 --	 --	 --	 --	 --	        84.9	     1.09754	     1.09558	           0	  0.00196437	           1	    0.474786	  0.00502032	       1.095	     1.09616	
 --	 --	 --	 --	 --	        85.4	     1.09347	     1.09558	           0	 -0.00210501	           1	   -0.509375	  0.00734755	     1.09488	     1.09628	
 --	 --	 --	 --	 --	        85.9	     1.09179	     1.09558	           0	 -0.00378441	           1	   -0.914625	  0.00488666	     1.09501	     1.09615	
 --	 --	 --	 --	 --	        86.4	     1.09271	     1.09558	           0	 -0.00286714	           1	   -0.693318	  0.00597768	     1.09495	     1.09621	
 --	 --	 --	 --	 --	        86.9	     1.09419	     1.09558	           0	 -0.00138988	           1	   -0.336001	  0.00542332	     1.09498	     1.09618	
 --	 --	 --	 --	 --	        87.4	      1.0951	     1.09558	           0	-0.000475963	           1	   -0.115019	  0.00466693	     1.09502	     1.09613	
 --	 --	 --	 --	 --	        87.9	     1.09317	     1.09558	           0	 -0.00240872	           1	   -0.582119	  0.00479796	     1.09501	     1.09614	
 --	 --	 --	 --	 --	        88.4	     1.09113	     1.09557	           0	 -0.00444148	           1	    -1.07404	   0.0060242	     1.09494	     1.09621	
 --	 --	 --	 --	 --	        88.9	     1.09887	     1.09557	           0	  0.00329242	           1	    0.795809	  0.00510862	     1.09499	     1.09616	
 --	 --	 --	 --	 --	        89.4	     1.09312	     1.09557	           0	 -0.00245702	           1	    -0.59375	  0.00465762	     1.09502	     1.09613	
 --	 --	 --	 --	 --	        89.9	     1.09469	     1.09557	           0	-0.000879798	           1	   -0.212675	  0.00529502	     1.09498	     1.09616	
 --	 --	 --	 --	 --	        90.4	      1.1012	     1.09557	           0	  0.00563075	           1	     1.36089	  0.00494187	       1.095	     1.09614	
 --	 --	 --	 --	 --	        90.9	     1.09418	     1.09557	           0	 -0.00138871	           1	   -0.335701	  0.00532792	     1.09498	     1.09617	
 --	 --	 --	 --	 --	        91.4	     1.08905	     1.09557	           0	 -0.00652151	           1	    -1.57591	  0.00461006	     1.09502	     1.09612	
 --	 --	 --	 --	 --	        91.9	     1.09678	     1.09557	           0	  0.00120902	           1	    0.292405	  0.00628289	     1.09493	     1.09622	
 --	 --	 --	 --	 --	        92.4	     1.09042	     1.09557	           0	 -0.00515378	           1	    -1.24539	  0.00458671	     1.09502	     1.09612	
 --	 --	 --	 --	 --	        92.9	     1.09866	     1.09557	           0	   0.0030934	           1	    0.747686	  0.00506179	     1.09499	     1.09615	
 --	 --	 --	 --	 --	        93.4	     1.09724	     1.09557	           0	  0.00167058	           1	    0.403769	  0.00498085	       1.095	     1.09614	
 --	 --	 --	 --	 --	        93.9	     1.09551	     1.09557	           0	-6.22446e-005	           1	  -0.0150504	  0.00580653	     1.09495	     1.09619	
 --	 --	 --	 --	 --	        94.4	     1.09256	     1.09557	           0	 -0.00301174	           1	   -0.727791	  0.00462875	     1.09502	     1.09612	
 --	 --	 --	 --	 --	        94.9	     1.10008	     1.09557	           0	  0.00451542	           1	     1.09137	  0.00501692	     1.09499	     1.09614	
 --	 --	 --	 --	 --	        95.4	     1.09154	     1.09557	           0	 -0.00402742	           1	   -0.973617	  0.00541812	     1.09497	     1.09617	
 --	 --	 --	 --	 --	        95.9	     1.09632	     1.09557	           0	 0.000753067	           1	    0.182009	  0.00495507	     1.09499	     1.09614	
 --	 --	 --	 --	 --	        96.4	     1.09434	     1.09557	           0	 -0.00122978	           1	   -0.297169	  0.00456405	     1.09502	     1.09612	
 --	 --	 --	 --	 --	        96.9	     1.10024	     1.09557	           0	  0.00467069	           1	     1.12907	  0.00531784	     1.09497	     1.09616	
 --	 --	 --	 --	 --	        97.4	     1.09642	     1.09557	           0	 0.000857831	           1	    0.207333	  0.00498535	     1.09499	     1.09614	
 --	 --	 --	 --	 --	        97.9	     1.09464	     1.09557	           0	-0.000921701	           1	   -0.222757	  0.00486628	       1.095	     1.09613	
 --	 --	 --	 --	 --	        98.4	     1.09627	     1.09556	           0	 0.000705428	           1	    0.170462	  0.00456597	     1.09502	     1.09611	
 --	 --	 --	 --	 --	        98.9	     1.09703	     1.09556	           0	  0.00146922	           1	    0.355359	  0.00642443	     1.09491	     1.09622	
 --	 --	 --	 --	 --	        99.4	     1.09948	     1.09556	           0	  0.00391301	           1	    0.945845	  0.00518104	     1.09498	     1.09615	
 --	 --	 --	 --	 --	        99.9	     1.09541	     1.09556	           0	-0.000156545	           1	  -0.0378576	  0.00611168	     1.09493	      1.0962	
 --	 --	 --	 --	 --	         100	     1.09648	     1.09556	           0	 0.000913544	           1	    0.220728	  0.00434768	     1.09503	      1.0961	
