
PARAMETERS AND CONFIDENCE INTERVALS

NO.	SET	           PARAMETER	     INITIAL	    LIMIT-LO	    LIMIT-HI	         FIT	      STDERR	         CV%	      F(SDI)	   CONLIN-LO	   CONLIN-HI	   CONLIN-P%	

  1	  1	                time	           0	
  2	  1	             restart	           0	
  3	  *	                 k.1	 0.000224256	      1e-006	      1e+006	      1e-006	1.17911e+008	4.60349e+016	      1e+016	-2.31177e+008	2.31177e+008	          95	
  4	  *	                k.-1	      460534	      1e-012	      1e+006	      460534	1.17911e+008	     99959.8	     21713.9	-2.30717e+008	2.31638e+008	          95	
  5	  *	               k.cat	 0.000193345	      1e-006	      1e+006	      1e-006	1.17911e+008	4.60349e+016	      1e+016	-2.31177e+008	2.31177e+008	          95	
  6	  1	                 [E]	           1	    0.909091	         1.1	    0.989907	1.66908e+017	6.58288e+019	1.42997e+019	-3.27241e+017	3.27241e+017	          95	
  7	  1	                 [S]	         0.5	    0.454545	        0.55	     0.49978	6.82524e+022	5.33177e+025	 1.1582e+025	-1.33816e+023	1.33816e+023	          95	
  8	  1	              [E.S1]	           0	
  9	  1	               [E.P]	           0	
 10	  *	                r(E)	        0.31	    3.1e-007	      310000	    3.1e-007	1.17911e+008	  1.485e+017	3.22581e+016	-2.31177e+008	2.31177e+008	          95	
 11	  1	                r(S)	           0	
 12	  *	             r(E.S1)	        0.22	    2.2e-007	      220000	    0.220012	1.17911e+008	2.09238e+011	4.54521e+010	-2.31177e+008	2.31177e+008	          95	
 13	  *	              r(E.P)	        0.25	    2.5e-007	      250000	    0.246541	1.17911e+008	1.86724e+011	4.05613e+010	-2.31177e+008	2.31177e+008	          95	
 14	  1	              offset	      1.1793	     -INFTY	     +INFTY	     1.14269	1.42406e+011	4.86557e+013	1.05693e+013	-2.79203e+011	2.79203e+011	          95	
 15	  1	               delay	           0	
 16	  1	          incubation	           0	
 17	  1	                [E]i	           0	
 18	  1	                [S]i	           0	
 19	  1	             [E.S1]i	           0	
 20	  1	              [E.P]i	           0	
 21	  1	            dilution	           0	
 22	  1	           intensive	           0	
 23	  2	                time	           0	
 24	  2	             restart	           0	
 25	  2	                 [E]	           1	    0.909091	         1.1	    0.988463	1.90123e+017	7.50943e+019	1.63125e+019	-3.72756e+017	3.72756e+017	          95	
 26	  2	                 [S]	           1	    0.909091	         1.1	     0.99652	2.74739e+022	1.07638e+025	2.33819e+024	-5.38655e+022	5.38655e+022	          95	
 27	  2	              [E.S1]	           0	
 28	  2	               [E.P]	           0	
 29	  2	                r(S)	           0	
 30	  2	              offset	     1.14325	     -INFTY	     +INFTY	     1.10184	4.52215e+010	1.60236e+013	3.48075e+012	-8.86615e+010	8.86615e+010	          95	
 31	  2	               delay	           0	
 32	  2	          incubation	           0	
 33	  2	                [E]i	           0	
 34	  2	                [S]i	           0	
 35	  2	             [E.S1]i	           0	
 36	  2	              [E.P]i	           0	
 37	  2	            dilution	           0	
 38	  2	           intensive	           0	
 39	  3	                time	           0	
 40	  3	             restart	           0	
 41	  3	                 [E]	           1	    0.909091	         1.1	    0.986126	1.66305e+017	6.58425e+019	1.43027e+019	-3.26059e+017	3.26059e+017	          95	
 42	  3	                 [S]	         1.5	     1.36364	        1.65	     1.49634	4.12539e+022	1.07638e+025	2.33818e+024	-8.08826e+022	8.08826e+022	          95	
 43	  3	              [E.S1]	           0	
 44	  3	               [E.P]	           0	
 45	  3	                r(S)	           0	
 46	  3	              offset	     1.10351	     -INFTY	     +INFTY	     1.05348	1.04942e+011	3.88916e+013	8.44828e+012	-2.0575e+011	 2.0575e+011	          95	
 47	  3	               delay	           0	
 48	  3	          incubation	           0	
 49	  3	                [E]i	           0	
 50	  3	                [S]i	           0	
 51	  3	             [E.S1]i	           0	
 52	  3	              [E.P]i	           0	
 53	  3	            dilution	           0	
 54	  3	           intensive	           0	
 55	  4	                time	           0	
 56	  4	             restart	           0	
 57	  4	                 [E]	           1	    0.909091	         1.1	    0.983443	1.50556e+017	5.97697e+019	1.29836e+019	-2.95181e+017	2.95181e+017	          95	
 58	  4	                 [S]	           2	     1.81818	         2.2	     1.99316	1.14773e+023	2.24817e+025	4.88362e+024	-2.25025e+023	2.25025e+023	          95	
 59	  4	              [E.S1]	           0	
 60	  4	               [E.P]	           0	
 61	  4	                r(S)	           0	
 62	  4	              offset	     1.07103	     -INFTY	     +INFTY	     1.01098	1.25324e+011	4.83976e+013	1.05132e+013	-2.45711e+011	2.45711e+011	          95	
 63	  4	               delay	           0	
 64	  4	          incubation	           0	
 65	  4	                [E]i	           0	
 66	  4	                [S]i	           0	
 67	  4	             [E.S1]i	           0	
 68	  4	              [E.P]i	           0	
 69	  4	            dilution	           0	
 70	  4	           intensive	           0	
 71	  5	                time	           0	
 72	  5	             restart	           0	
 73	  5	                 [E]	           1	    0.909091	         1.1	    0.983566	2.00333e+017	7.95209e+019	 1.7274e+019	-3.92774e+017	3.92774e+017	          95	
 74	  5	                 [S]	         2.5	     2.27273	        2.75	     2.48679	 1.1403e+023	1.79024e+025	3.88887e+024	-2.23567e+023	2.23567e+023	          95	
 75	  5	              [E.S1]	           0	
 76	  5	               [E.P]	           0	
 77	  5	                r(S)	           0	
 78	  5	              offset	     1.02909	     -INFTY	     +INFTY	    0.969381	8.10587e+010	3.26466e+013	7.09169e+012	-1.58924e+011	1.58924e+011	          95	
 79	  5	               delay	           0	
 80	  5	          incubation	           0	
 81	  5	                [E]i	           0	
 82	  5	                [S]i	           0	
 83	  5	             [E.S1]i	           0	
 84	  5	              [E.P]i	           0	
 85	  5	            dilution	           0	
 86	  5	           intensive	           0	
 87	  6	                time	           0	
 88	  6	             restart	           0	
 89	  6	                 [E]	           1	    0.909091	         1.1	    0.986885	2.01876e+017	 7.9864e+019	1.73486e+019	-3.95799e+017	3.95799e+017	          95	
 90	  6	                 [S]	           3	     2.72727	         3.3	       2.993	8.25173e+022	1.07639e+025	 2.3382e+024	-1.61784e+023	1.61784e+023	          95	
 91	  6	              [E.S1]	           0	
 92	  6	               [E.P]	           0	
 93	  6	                r(S)	           0	
 94	  6	              offset	     0.97752	     -INFTY	     +INFTY	    0.930319	1.07347e+011	4.50494e+013	9.78592e+012	-2.10464e+011	2.10464e+011	          95	
 95	  6	               delay	           0	
 96	  6	          incubation	           0	
 97	  6	                [E]i	           0	
 98	  6	                [S]i	           0	
 99	  6	             [E.S1]i	           0	
100	  6	              [E.P]i	           0	
101	  6	            dilution	           0	
102	  6	           intensive	           0	
103	  7	                time	           0	
104	  7	             restart	           0	
105	  7	                 [E]	           1	    0.909091	         1.1	    0.979802	2.62899e+017	1.04757e+020	 2.2756e+019	-5.15441e+017	5.15441e+017	          95	
106	  7	                 [S]	           4	     3.63636	         4.4	     3.98264	 2.9717e+023	2.91317e+025	6.32818e+024	-5.82633e+023	5.82633e+023	          95	
107	  7	              [E.S1]	           0	
108	  7	               [E.P]	           0	
109	  7	                r(S)	           0	
110	  7	              offset	     0.95791	     -INFTY	     +INFTY	    0.895861	1.14359e+011	4.98383e+013	1.08262e+013	-2.24213e+011	2.24213e+011	          95	
111	  7	               delay	           0	
112	  7	          incubation	           0	
113	  7	                [E]i	           0	
114	  7	                [S]i	           0	
115	  7	             [E.S1]i	           0	
116	  7	              [E.P]i	           0	
117	  7	            dilution	           0	
118	  7	           intensive	           0	
