%!PS-Adobe-3.0 EPSF-3.0
%%BoundingBox: 0 0 514 550
%%Creator: BioKin Ltd.
%%DocumentFonts: Symbol Helvetica
%%EndComments
%
/bkdict 256 dict def
bkdict begin
/M {moveto} def 
/R {rmoveto} def
/L {lineto} def
/rL {rlineto} def
/GSN {gsave newpath} def
/SGR {stroke grestore} def
/COSGR {gsave setrgbcolor stroke grestore grestore} def
/SL {setlinewidth} def
/LWMB {12} def             % line width - model curves, black & white
/LWMC {10} def             % line width - model curves, color
/L2 {2.5 setlinewidth} def
/L5 {5 setlinewidth} def
/L10 {10 setlinewidth} def
/G50 {0.5 setgray} def
/SDA {[10  20] 0 setdash} def % axes
/helvT {/Helvetica findfont 100 scalefont setfont} def % tiny
/helvS {/Helvetica findfont 125 scalefont setfont} def % small
/helvM {/Helvetica findfont 150 scalefont setfont} def % medium
/helvL {/Helvetica findfont 175 scalefont setfont} def % large
/xlabel {gsave M dup
   stringwidth exch -0.5 mul exch rmoveto show grestore} def 
/ylabel {gsave M 90 rotate dup
   stringwidth exch -0.5 mul exch rmoveto show grestore} def
/ylabelresid {gsave M dup
   stringwidth exch -1 mul exch rmoveto show grestore} def
% ======
% Shapes
% ======
% Circle:
/Circ {0 360 arc closepath} def
%
% Square:
/Squa {dup dup -0.5 mul dup dup R -2 mul 0 exch rL 1 mul 0 rL dup 0 exch -1 mul rL closepath} def
%
% Triangle Up:
/TriU {dup dup dup -0.4 mul exch -0.5 mul exch R dup 0.5 mul exch rL dup -1 mul exch 0.5 mul exch rL closepath} def 
%
% Triangle Down:
/TriD {dup dup dup 0.4 mul exch -0.5 mul exch R dup 0.5 mul exch -1 mul rL dup 0.5 mul exch rL closepath} def 
%
% Diamond:
/Diam {45 rotate Squa} def
% ======
% Fills
% ======
/GRF {gsave setgray fill grestore} def                    % gray-level Fill
/COF {gsave setrgbcolor fill grestore} def                % color fill
% ======
% Colors
% ======
/C01 {1.00	0.00	0.00} def      % Red
/C02 {0.00	0.00	1.00} def      % Blue
/C03 {0.00	0.39	0.00} def      % Dark Green
/C04 {0.78	0.08	0.52} def      % Medium Violet Red
/C05 {0.55	0.27	0.07} def      % Saddle Brown
/C06 {0.10	0.70	0.70} def      % (cyan)
/C07 {1.00	0.55	0.00} def      % Dark Orange
/C08 {0.63	0.13	0.94} def      % Purple
/C09 {0.00	0.75	1.00} def      % Deep Sky Blue
/C10 {0.20	0.80	0.20} def      % Lime Green
/C11 {0.47	0.53	0.60} def      % Light Slate Gray
/C12 {0.00	0.00	0.00} def      % Black            % or: {0.19	0.31	0.31} def      % Dark Slate Gray
%
/LGR {0.75} def % light gray
/DGR {0.33} def % dark gray
%
% =============
% Dash patterns
% =============
/dash01 { [80  20] 0 setdash } def
/dash02 { [40  20] 0 setdash } def
/dash03 { [80  20  10  20] 0 setdash } def
/dash04 { [40  20  10  20] 0 setdash } def
/dash05 { [80  20  10  10  10  20] 0 setdash } def
/dash06 { [40  20  10  10  10  20] 0 setdash } def
/dash07 { [10  10] 0 setdash } def
%
/MFshow {
   { dup 5 get 3 ge
     { 5 get 3 eq {gsave} {grestore} ifelse }
     {dup dup 0 get findfont exch 1 get scalefont setfont
     [ currentpoint ] exch dup 2 get 0 exch R dup 5 get 2 ne {dup dup 6
     get exch 4 get {show} {stringwidth pop 0 R} ifelse }if dup 5 get 0 eq
     {dup 3 get {2 get neg 0 exch R pop} {pop aload pop M} ifelse} {dup 5
     get 1 eq {dup 2 get exch dup 3 get exch 6 get stringwidth pop -2 div
     dup 0 R} {dup 6 get stringwidth pop -2 div 0 R 6 get
     show 2 index {aload pop M neg 3 -1 roll neg R pop pop} {pop pop pop
     pop aload pop M} ifelse }ifelse }ifelse }
     ifelse }
   forall} bind def
/MFwidth {0 exch {dup 3 get{dup dup 0 get findfont exch 1 get scalefont
     setfont 6 get stringwidth pop add} {pop} ifelse} forall} bind def
/MCshow { currentpoint stroke M
  exch dup MFwidth -2 div 3 -1 roll R MFshow } def
%
end
%%EndProlog
bkdict begin
0.1 0.1 scale
%
% Model curves:
%

GSN 753 5166 M
753 5166 L
786 5125 L
820 5081 L
853 5034 L
886 4985 L
920 4933 L
929 4917 L
953 4879 L
986 4823 L
1020 4767 L
1053 4709 L
1086 4651 L
1106 4618 L
1120 4594 L
1153 4538 L
1186 4483 L
1220 4430 L
1253 4380 L
1282 4338 L
1286 4333 L
1319 4289 L
1353 4248 L
1386 4212 L
1419 4179 L
1453 4150 L
1459 4146 L
1486 4126 L
1519 4105 L
1553 4087 L
1586 4073 L
1619 4062 L
1635 4058 L
1653 4053 L
1686 4046 L
1719 4041 L
1753 4036 L
1786 4031 L
1812 4027 L
1819 4026 L
1853 4021 L
1886 4016 L
1919 4009 L
1953 4002 L
1986 3994 L
1988 3994 L
2019 3985 L
2053 3974 L
2086 3963 L
2119 3949 L
2153 3934 L
2165 3928 L
2186 3917 L
2219 3897 L
2253 3875 L
2286 3851 L
2319 3823 L
2341 3803 L
2353 3792 L
2386 3757 L
2419 3717 L
2453 3673 L
2486 3625 L
2518 3573 L
2519 3571 L
2553 3511 L
2586 3445 L
2619 3374 L
2653 3295 L
2686 3211 L
2694 3189 L
2719 3121 L
2753 3025 L
2786 2924 L
2819 2819 L
2853 2712 L
2871 2653 L
2886 2604 L
2919 2498 L
2953 2395 L
2986 2299 L
3019 2213 L
3047 2149 L
3053 2138 L
3086 2078 L
3119 2035 L
3153 2009 L
3186 2002 L
3219 2011 L
3224 2014 L
3253 2036 L
3286 2075 L
3319 2123 L
3353 2178 L
3386 2237 L
3400 2263 L
3419 2297 L
3453 2355 L
3476 2393 L
3486 2410 L
3519 2460 L
3553 2503 L
3577 2531 L
3586 2541 L
3619 2571 L
3653 2594 L
3686 2611 L
3719 2623 L
3753 2631 L
3754 2631 L
3786 2635 L
3819 2638 L
3853 2639 L
3886 2640 L
3919 2640 L
3930 2640 L
3953 2640 L
3986 2640 L
4019 2640 L
4053 2640 L
4086 2640 L
4086 2640 L
LWMC SL  C03 COSGR

%
% Experimental data:
%
GSN 777 4061 M
1388 4053 L
1552 4079 L
1652 4177 L
1723 4020 L
1778 3915 L
1824 3926 L
1863 3891 L
1896 3873 L
1926 3907 L
1952 3968 L
1976 4015 L
1998 4154 L
2019 4222 L
2037 3984 L
2055 4223 L
2071 4110 L
2086 3994 L
2101 3974 L
2115 3990 L
2128 4178 L
2140 4014 L
2152 3957 L
2163 4224 L
2174 4172 L
2184 4022 L
2194 3889 L
2204 3821 L
2213 3998 L
2222 4019 L
2230 3977 L
2239 4047 L
2247 3927 L
2255 3918 L
2262 4056 L
2270 3886 L
2277 3939 L
2284 3880 L
2290 4038 L
2297 3969 L
2303 3867 L
2310 3747 L
2316 3824 L
2322 3779 L
2328 3812 L
2333 3845 L
2339 3889 L
2344 3870 L
2350 3948 L
2355 3765 L
2360 3775 L
2365 3836 L
2370 3879 L
2375 3808 L
2380 3681 L
2384 3872 L
2389 3816 L
2393 3984 L
2398 3820 L
2402 3701 L
2407 3696 L
2411 3832 L
2415 3782 L
2419 3752 L
2423 3874 L
2427 3787 L
2431 3965 L
2435 3776 L
2438 3695 L
2442 3811 L
2446 3772 L
2449 3683 L
2453 3706 L
2456 3775 L
2460 3730 L
2463 3667 L
2467 3588 L
2470 3629 L
2473 3715 L
2476 3759 L
2480 3628 L
2483 3656 L
2486 3816 L
2489 3659 L
2492 3753 L
2495 3643 L
2498 3704 L
2501 3585 L
2504 3754 L
2507 3689 L
2510 3566 L
2512 3685 L
2515 3748 L
2518 3659 L
2521 3694 L
2523 3619 L
2526 3647 L
2529 3542 L
2531 3408 L
2534 3559 L
2536 3548 L
2539 3595 L
2541 3572 L
2544 3493 L
2546 3412 L
2549 3534 L
2551 3577 L
2554 3550 L
2556 3493 L
2558 3541 L
2561 3576 L
2563 3433 L
2565 3421 L
2568 3690 L
2570 3636 L
2572 3597 L
2574 3511 L
2576 3371 L
2579 3787 L
2581 3472 L
2583 3383 L
2585 3523 L
2587 3600 L
2589 3508 L
2591 3438 L
2593 3482 L
2595 3418 L
2597 3508 L
2599 3441 L
2601 3447 L
2603 3619 L
2605 3311 L
2607 3387 L
2609 3422 L
2611 3478 L
2613 3449 L
2615 3296 L
2617 3346 L
2618 3432 L
2620 3460 L
2622 3462 L
2624 3498 L
2626 3461 L
2627 3282 L
2629 3329 L
2631 3419 L
2633 3427 L
2634 3370 L
2636 3480 L
2638 3345 L
2640 3376 L
2641 3332 L
2643 3424 L
2645 3304 L
2646 3433 L
2648 3364 L
2650 3101 L
2651 3363 L
2653 3287 L
2654 3375 L
2656 3262 L
2658 3375 L
2659 3260 L
2661 3153 L
2662 3253 L
2664 3415 L
2665 3396 L
2667 3234 L
2668 3309 L
2670 3366 L
2671 3354 L
2673 3214 L
2674 3313 L
2676 3317 L
2677 3226 L
2679 3316 L
2680 3284 L
2682 3265 L
2683 3264 L
2685 3222 L
2686 3209 L
2687 3297 L
2689 3210 L
2690 3240 L
2692 3013 L
2693 3352 L
2694 3280 L
2696 3161 L
2697 3133 L
2698 3294 L
2700 3325 L
2701 3212 L
2702 3317 L
2704 3180 L
2705 3159 L
2706 3185 L
2708 3111 L
2709 3270 L
2710 3173 L
2712 3251 L
2713 3197 L
2714 3226 L
2715 3267 L
2717 3124 L
2718 3132 L
2719 3193 L
2720 3293 L
2722 3172 L
2723 3089 L
2724 3261 L
2725 3208 L
2726 3103 L
2728 3166 L
2729 3069 L
2730 3137 L
2731 3068 L
2732 3216 L
2734 3100 L
2735 3183 L
2736 3020 L
2737 3023 L
2738 3147 L
2739 3074 L
2741 3039 L
2742 2964 L
2743 3215 L
2744 3009 L
2745 3131 L
2746 3048 L
2747 3276 L
2748 3088 L
2749 3100 L
2751 3114 L
2752 3033 L
2753 3255 L
2754 3001 L
2755 3067 L
2756 3092 L
2757 3006 L
2758 3100 L
2759 3027 L
2760 3067 L
2761 3196 L
2762 3110 L
2763 3083 L
2764 3116 L
2765 2947 L
2767 3214 L
2768 3244 L
2769 3109 L
2770 2881 L
2771 3103 L
2772 3022 L
2773 3012 L
2774 3132 L
2775 2915 L
2776 3064 L
2777 2975 L
2778 3135 L
2779 3007 L
2780 3013 L
2781 3072 L
2782 2892 L
2783 3067 L
2783 3083 L
2784 3047 L
2785 2964 L
2786 3039 L
2787 2889 L
2788 2960 L
2789 2914 L
2790 2987 L
2791 2845 L
2792 3100 L
2793 2997 L
2794 3029 L
2795 2981 L
2796 2974 L
2797 2875 L
2798 3111 L
2798 3015 L
2799 3132 L
2800 3002 L
2801 3124 L
2802 3017 L
2803 2961 L
2804 2884 L
2805 3010 L
2806 2891 L
2807 2976 L
2807 2836 L
2808 3012 L
2809 3028 L
2810 2917 L
2811 2910 L
2812 2999 L
2813 2868 L
2813 2843 L
2814 2752 L
2815 2948 L
2816 3077 L
2817 2866 L
2818 2972 L
2819 3003 L
2819 2921 L
2820 2976 L
2821 2747 L
2822 2896 L
2823 3064 L
2824 2860 L
2824 2796 L
2825 2884 L
2826 2896 L
2827 3172 L
2828 2865 L
2828 2713 L
2829 2853 L
2830 2813 L
2831 2872 L
2832 2776 L
2832 2876 L
2833 2794 L
2834 2859 L
2835 2951 L
2836 2806 L
2836 2803 L
2837 2746 L
2838 2885 L
2839 2778 L
2840 2754 L
2840 2792 L
2841 2773 L
2842 2836 L
2843 2957 L
2843 2783 L
2844 2821 L
2845 2797 L
2846 2671 L
2846 2818 L
2847 2704 L
2848 2852 L
2849 3022 L
2849 2708 L
2850 2745 L
2851 2911 L
2852 2681 L
2852 2817 L
2853 2833 L
2854 2856 L
2855 2885 L
2855 2959 L
2856 2779 L
2857 2840 L
2857 2797 L
2858 2753 L
2859 2777 L
2860 2814 L
2860 2691 L
2861 2727 L
2862 2693 L
2862 2742 L
2863 2675 L
2864 2894 L
2865 2682 L
2865 2966 L
2866 2724 L
2867 2628 L
2867 2729 L
2868 2800 L
2869 2875 L
2869 2816 L
2870 2763 L
2871 2900 L
2871 2782 L
2872 2718 L
2873 2622 L
2873 2745 L
2874 2880 L
2875 2675 L
2876 2773 L
2876 2900 L
2877 2717 L
2878 2699 L
2878 2688 L
2879 2824 L
2880 2797 L
2880 2671 L
2881 2764 L
2881 2677 L
2882 2721 L
2883 2854 L
2883 2730 L
2884 2824 L
2885 2868 L
2885 2629 L
2886 2667 L
2887 2871 L
2887 2826 L
2888 2673 L
2889 2741 L
2889 2731 L
2892 2891 L
2894 2790 L
2897 2729 L
2899 2829 L
2902 2651 L
2904 2820 L
2907 2809 L
2909 2534 L
2911 2608 L
2914 2624 L
2916 2664 L
2918 2578 L
2921 2766 L
2923 2562 L
2925 2553 L
2927 2587 L
2929 2577 L
2932 2581 L
2934 2616 L
2936 2503 L
2938 2609 L
2940 2596 L
2942 2574 L
2944 2593 L
2946 2488 L
2948 2612 L
2950 2561 L
2952 2461 L
2954 2490 L
2956 2492 L
2958 2540 L
2960 2342 L
2962 2525 L
2964 2578 L
2966 2581 L
2968 2509 L
2970 2561 L
2971 2508 L
2973 2471 L
2975 2380 L
2977 2356 L
2979 2465 L
2980 2375 L
2982 2528 L
2984 2389 L
2986 2457 L
2987 2440 L
2989 2550 L
2991 2443 L
2993 2528 L
2994 2388 L
2996 2492 L
2998 2451 L
2999 2381 L
3001 2391 L
3003 2238 L
3004 2493 L
3006 2311 L
3007 2370 L
3009 2403 L
3011 2366 L
3012 2324 L
3014 2242 L
3015 2419 L
3017 2352 L
3018 2273 L
3020 2297 L
3021 2233 L
3023 2388 L
3024 2332 L
3026 2332 L
3027 2288 L
3029 2171 L
3030 2352 L
3032 2357 L
3033 2351 L
3035 2277 L
3036 2301 L
3038 2437 L
3039 2129 L
3040 2402 L
3042 2214 L
3043 2320 L
3045 2327 L
3046 2315 L
3047 2205 L
3049 2422 L
3050 2294 L
3051 2369 L
3053 2256 L
3054 2133 L
3055 2223 L
3057 2231 L
3058 2288 L
3059 2215 L
3061 2222 L
3062 2177 L
3063 2071 L
3065 2156 L
3066 2250 L
3067 2216 L
3068 2127 L
3070 2254 L
3071 2233 L
3072 2211 L
3073 2334 L
3075 2093 L
3076 2159 L
3077 2285 L
3078 2044 L
3079 2225 L
3081 2274 L
3082 2241 L
3083 2239 L
3084 2115 L
3085 2240 L
3087 2151 L
3088 2250 L
3089 1919 L
3090 2296 L
3091 2139 L
3092 2084 L
3094 2169 L
3095 2086 L
3096 2096 L
3097 2168 L
3098 2183 L
3099 2184 L
3100 2129 L
3101 2182 L
3103 2143 L
3104 2088 L
3105 2218 L
3106 2071 L
3107 2281 L
3108 2093 L
3109 2031 L
3110 2199 L
3111 2121 L
3112 2109 L
3113 2199 L
3114 2256 L
3115 2109 L
3116 2134 L
3117 2127 L
3119 2075 L
3120 2114 L
3121 1968 L
3122 2111 L
3123 2009 L
3124 1953 L
3125 2027 L
3126 2075 L
3127 2027 L
3128 1965 L
3129 2131 L
3130 2082 L
3131 1929 L
3132 2109 L
3133 2035 L
3134 2273 L
3135 2026 L
3136 2023 L
3136 1968 L
3137 1999 L
3138 2057 L
3139 2188 L
3140 2171 L
3141 2112 L
3142 2028 L
3143 2091 L
3144 2048 L
3145 2125 L
3146 2006 L
3147 2007 L
3148 2203 L
3149 1983 L
3150 2028 L
3151 2039 L
3151 2052 L
3152 2137 L
3153 2075 L
3154 1951 L
3155 2010 L
3156 2008 L
3157 2072 L
3158 2101 L
3159 1996 L
3160 1996 L
3160 2002 L
3161 1942 L
3162 1985 L
3163 2026 L
3164 2062 L
3165 2086 L
3166 1953 L
3166 2025 L
3167 2003 L
3168 1954 L
3169 1932 L
3170 1942 L
3171 1996 L
3172 2059 L
3172 2102 L
3173 1994 L
3174 2132 L
3175 2028 L
3176 2162 L
3177 1964 L
3177 2012 L
3178 2056 L
3179 2181 L
3180 2063 L
3181 1859 L
3181 1994 L
3182 2068 L
3183 1954 L
3184 2036 L
3185 2033 L
3185 1914 L
3186 2019 L
3187 2003 L
3188 2020 L
3189 2106 L
3189 1964 L
3190 1983 L
3191 2117 L
3192 2059 L
3193 1976 L
3193 2113 L
3194 2000 L
3195 1968 L
3196 1997 L
3196 1936 L
3197 1997 L
3198 1976 L
3199 1839 L
3199 2066 L
3200 2004 L
3201 2027 L
3202 1964 L
3202 2116 L
3203 1978 L
3204 1876 L
3205 1913 L
3205 1882 L
3206 1948 L
3207 2126 L
3208 1960 L
3208 2046 L
3209 2078 L
3210 2077 L
3210 1842 L
3211 1922 L
3212 2030 L
3213 2112 L
3213 2013 L
3214 2017 L
3215 2062 L
3215 1943 L
3216 1980 L
3217 2108 L
3218 2053 L
3218 1977 L
3219 1883 L
3220 2112 L
3220 2009 L
3221 2252 L
3222 2050 L
3222 2222 L
3223 2057 L
3224 2188 L
3224 1852 L
3225 1978 L
3226 2028 L
3227 1946 L
3227 2128 L
3228 1893 L
3229 2093 L
3229 1931 L
3230 2046 L
3231 2027 L
3231 1881 L
3232 2083 L
3233 1873 L
3233 2080 L
3234 1958 L
3235 2131 L
3235 1994 L
3236 2017 L
3236 2031 L
3237 1999 L
3238 1923 L
3238 2003 L
3239 2087 L
3240 2018 L
3240 2000 L
3241 2053 L
3242 1963 L
3242 1935 L
3243 1870 L
3244 2044 L
3244 1940 L
3245 2098 L
3245 1972 L
3246 2012 L
3247 2004 L
3247 1833 L
3248 1964 L
3249 2163 L
3249 2044 L
3250 1912 L
3250 1974 L
3251 2050 L
3252 2021 L
3252 2039 L
3253 1963 L
3253 1953 L
3254 2029 L
3255 2049 L
3255 2055 L
3256 1876 L
3257 2141 L
3257 1941 L
3258 2088 L
3258 1994 L
3259 2207 L
3259 1912 L
3260 2078 L
3261 1999 L
3261 1970 L
3262 1987 L
3262 2071 L
3263 2119 L
3264 2103 L
3264 2046 L
3265 2021 L
3265 2125 L
3266 1911 L
3267 1935 L
3267 2051 L
3268 1937 L
3268 2058 L
3269 2119 L
3269 1990 L
3270 2076 L
3271 1957 L
3271 2037 L
3272 1952 L
3272 2101 L
3273 1982 L
3273 2088 L
3274 2049 L
3275 2097 L
3275 2055 L
3276 2001 L
3276 1943 L
3277 2123 L
3277 2113 L
3278 2080 L
3278 1959 L
3279 2010 L
3280 2112 L
3280 2123 L
3281 1988 L
3281 2058 L
3282 2051 L
3282 2051 L
3283 2034 L
3283 2108 L
3284 1988 L
3284 2057 L
3285 2052 L
3285 2004 L
3286 2201 L
3287 1979 L
3287 2083 L
3288 2095 L
3288 2114 L
3289 2019 L
3289 2030 L
3290 2062 L
3290 2181 L
3291 1946 L
3291 2157 L
3292 1987 L
3292 2077 L
3293 2144 L
3293 1959 L
3294 1987 L
3294 2097 L
3295 2054 L
3295 2085 L
3296 2048 L
3297 2017 L
3297 2090 L
3298 2006 L
3298 2135 L
3299 2081 L
3299 2116 L
3300 1949 L
3300 2009 L
3301 2030 L
3301 2044 L
3302 1962 L
3302 2016 L
3303 1895 L
3303 2176 L
3304 1993 L
3304 2146 L
3305 2152 L
3305 2009 L
3306 1962 L
3306 2137 L
3307 2178 L
3307 2075 L
3308 1987 L
3308 2003 L
3309 2039 L
3309 2087 L
3310 2010 L
3310 2189 L
3311 2028 L
3311 2080 L
3312 2091 L
3312 2171 L
3312 1904 L
3313 2218 L
3313 2001 L
3314 2033 L
3314 2150 L
3315 1974 L
3315 2040 L
3316 2065 L
3316 2156 L
3317 2107 L
3317 2249 L
3318 1974 L
3318 2042 L
3319 2105 L
3319 1973 L
3320 2083 L
3320 2063 L
3321 2048 L
3321 1921 L
3321 2052 L
3322 2071 L
3322 2058 L
3323 2062 L
3323 2040 L
3324 2254 L
3324 2067 L
3325 2146 L
3325 2177 L
3326 2201 L
3326 2165 L
3327 2029 L
3327 2136 L
3327 2264 L
3328 2119 L
3328 2023 L
3329 2150 L
3329 1975 L
3330 2138 L
3330 2006 L
3331 2125 L
3331 2124 L
3332 2254 L
3332 2072 L
3332 2013 L
3333 2123 L
3333 2352 L
3334 1999 L
3334 1934 L
3335 2141 L
3335 2075 L
3336 2093 L
3336 2081 L
3336 2026 L
3337 2168 L
3337 1951 L
3338 2210 L
3338 2014 L
3339 2231 L
3339 1988 L
3339 2212 L
3340 2106 L
3340 2016 L
3341 2138 L
3341 2142 L
3342 2186 L
3342 2071 L
3343 2130 L
3343 2114 L
3343 2024 L
3344 2139 L
3344 2033 L
3345 2005 L
3345 2114 L
3346 2086 L
3346 2008 L
3346 2146 L
3347 2194 L
3347 2109 L
3348 2093 L
3348 2167 L
3348 2161 L
3349 2006 L
3349 2152 L
3350 1960 L
3350 2071 L
3351 2047 L
3351 2160 L
3351 2177 L
3352 2233 L
3352 2048 L
3353 2037 L
3353 2105 L
3353 2096 L
3354 2095 L
3354 2046 L
3355 2058 L
3355 2116 L
3355 2193 L
3356 2106 L
3356 2141 L
3357 2087 L
3357 2138 L
3358 2082 L
3358 2331 L
3358 2096 L
3359 2176 L
3359 2208 L
3360 2080 L
3360 2201 L
3360 2090 L
3361 2334 L
3361 2109 L
3362 2145 L
3362 2234 L
3362 2097 L
3363 1934 L
3363 2171 L
3364 2095 L
3364 2238 L
3364 2185 L
3365 1949 L
3365 2190 L
3365 2245 L
3366 2232 L
3366 2218 L
3367 2114 L
3367 2124 L
3367 2128 L
3368 2111 L
3368 2267 L
3369 2073 L
3369 2209 L
3369 2189 L
3370 2137 L
3370 2187 L
3371 2147 L
3371 2205 L
3371 2179 L
3372 2157 L
3372 2101 L
3372 2091 L
3373 1934 L
3373 2102 L
3374 1928 L
3374 2172 L
3374 1968 L
3375 2204 L
3375 2217 L
3375 2078 L
3376 2199 L
3376 2083 L
3377 2161 L
3377 2427 L
3377 2216 L
3378 2128 L
3378 1978 L
3378 2165 L
3379 2092 L
3379 2226 L
3380 2106 L
3380 2111 L
3380 2172 L
3381 2308 L
3381 2079 L
3381 2185 L
3382 2165 L
3382 2056 L
3383 2151 L
3383 2090 L
3383 2259 L
3384 2084 L
3384 2405 L
3384 2115 L
3385 2232 L
3385 2226 L
3385 2189 L
3386 2112 L
3386 2295 L
3387 2152 L
3387 2184 L
3387 2300 L
3388 2046 L
3388 2135 L
3388 2193 L
3389 2130 L
3389 2238 L
3389 2124 L
3390 2108 L
3390 2281 L
3391 2132 L
3391 2209 L
3391 2109 L
3392 2192 L
3392 2130 L
3392 2274 L
3393 2110 L
3393 2287 L
3393 2229 L
3394 2206 L
3394 2044 L
3394 2096 L
3395 2136 L
3395 2074 L
3395 2148 L
3396 2251 L
3396 2117 L
3396 2148 L
3397 2112 L
3397 2181 L
3398 2188 L
3398 2117 L
3398 2170 L
3399 2132 L
3399 2150 L
3399 2118 L
3400 2144 L
3400 2141 L
3400 2121 L
3401 2265 L
3401 2086 L
3401 2211 L
3402 2308 L
3402 2223 L
3402 2298 L
3403 2228 L
3403 2187 L
3403 2283 L
3404 2233 L
3404 2289 L
3404 2329 L
3405 2300 L
3405 2115 L
3405 2200 L
3406 2166 L
3406 2127 L
3406 2179 L
3407 2193 L
3407 2188 L
3407 2212 L
3408 2222 L
3408 2209 L
3408 2261 L
3409 2284 L
3409 2123 L
3409 2254 L
3410 2101 L
3410 2165 L
3410 2295 L
3411 2298 L
3411 2142 L
3411 2219 L
3412 2341 L
3412 2304 L
3412 2147 L
3413 2262 L
3413 2148 L
3413 2151 L
3414 2268 L
3414 2221 L
3414 2209 L
3415 2183 L
3415 2028 L
3415 2252 L
3416 2329 L
3416 2132 L
3416 2275 L
3417 2098 L
3417 2235 L
3417 2224 L
3417 2180 L
3418 2247 L
3418 2287 L
3418 2250 L
3419 2263 L
3419 2181 L
3419 2085 L
3420 2230 L
3420 2462 L
3420 2286 L
3421 2238 L
3421 2180 L
3421 2233 L
3422 2158 L
3422 2209 L
3422 2219 L
3423 2347 L
3423 2159 L
3423 2292 L
3423 2169 L
3424 2310 L
3424 2308 L
3424 2284 L
3425 2331 L
3425 2217 L
3425 2213 L
3426 2189 L
3426 2148 L
3426 2283 L
3427 2336 L
3427 2149 L
3427 2262 L
3428 2185 L
3428 2591 L
3428 2307 L
3428 2166 L
3429 2140 L
3429 2222 L
3429 2413 L
3430 2262 L
3430 2233 L
3430 2203 L
3431 2285 L
3431 2159 L
3431 2338 L
3431 2310 L
3432 2233 L
3432 2219 L
3432 2198 L
3433 2253 L
3433 2307 L
3433 2190 L
3434 2241 L
3434 2339 L
3434 2150 L
3434 2391 L
3435 2317 L
3435 2370 L
3435 2347 L
3436 2258 L
3436 2240 L
3436 2278 L
3437 2232 L
3437 2268 L
3437 2187 L
3437 2221 L
3438 2329 L
3438 2322 L
3438 2331 L
3439 2292 L
3439 2300 L
3439 2394 L
3440 2405 L
3440 2196 L
3440 2241 L
3440 2315 L
3441 2317 L
3441 2182 L
3441 2206 L
3442 2291 L
3442 2409 L
3442 2376 L
3442 2499 L
3443 2369 L
3443 2309 L
3443 2277 L
3444 2280 L
3444 2274 L
3444 2227 L
3444 2371 L
3445 2078 L
3445 2473 L
3445 2233 L
3446 2187 L
3446 2257 L
3446 2400 L
3446 2180 L
3447 2284 L
3447 2216 L
3447 2285 L
3448 2330 L
3448 2355 L
3448 2325 L
3448 2242 L
3449 2345 L
3449 2400 L
3449 2392 L
3450 2127 L
3450 2197 L
3450 2230 L
3450 2313 L
3451 2145 L
3451 2217 L
3451 2247 L
3452 2343 L
3452 2291 L
3452 2259 L
3452 2300 L
3453 2148 L
3453 2284 L
3453 2228 L
3454 2364 L
3454 2312 L
3454 2328 L
3454 2293 L
3455 2392 L
3455 2252 L
3455 2315 L
3455 2273 L
3456 2185 L
3456 2320 L
3456 2375 L
3457 2194 L
3457 2262 L
3457 2131 L
3457 2320 L
3458 2195 L
3458 2322 L
3458 2288 L
3458 2422 L
3459 2278 L
3459 2405 L
3459 2271 L
3460 2387 L
3460 2390 L
3460 2229 L
3460 2238 L
3461 2257 L
3461 2342 L
3461 2371 L
3461 2200 L
3462 2302 L
3462 2324 L
3462 2290 L
3463 2344 L
3463 2208 L
3463 2236 L
3463 2333 L
3464 2299 L
3464 2229 L
3464 2273 L
3464 2334 L
3465 2437 L
3465 2200 L
3465 2400 L
3465 2266 L
3466 2273 L
3466 2373 L
3466 2348 L
3466 2225 L
3467 2299 L
3467 2297 L
3467 2371 L
3468 2381 L
3468 2350 L
3468 2324 L
3468 2391 L
3469 2407 L
3469 2407 L
3469 2379 L
3469 2288 L
3470 2346 L
3470 2263 L
3470 2392 L
3470 2414 L
3471 2359 L
3471 2486 L
3471 2336 L
3471 2450 L
3472 2450 L
3472 2346 L
3472 2283 L
3472 2406 L
3473 2367 L
3473 2365 L
3473 2218 L
3474 2474 L
3474 2310 L
3474 2370 L
3474 2328 L
3475 2201 L
3475 2350 L
3475 2299 L
3475 2341 L
3476 2334 L
3476 2402 L
3476 2258 L
3476 2288 L
3477 2289 L
3477 2257 L
3477 2363 L
3477 2343 L
3478 2322 L
3478 2384 L
3478 2368 L
3478 2281 L
3479 2317 L
3479 2334 L
3479 2371 L
3479 2361 L
3480 2347 L
3480 2390 L
3480 2310 L
3480 2354 L
3481 2409 L
3481 2322 L
3481 2442 L
3481 2459 L
3482 2402 L
3482 2373 L
3482 2327 L
3482 2417 L
3483 2432 L
3483 2425 L
3483 2447 L
3483 2304 L
3484 2384 L
3484 2335 L
3484 2274 L
3484 2252 L
3485 2370 L
3485 2306 L
3485 2339 L
3485 2198 L
3486 2426 L
3486 2253 L
3486 2237 L
3486 2346 L
3487 2387 L
3487 2259 L
3487 2315 L
3487 2311 L
3488 2406 L
3488 2410 L
3488 2456 L
3488 2273 L
3488 2477 L
3489 2344 L
3489 2278 L
3489 2232 L
3489 2472 L
3490 2383 L
3490 2439 L
3490 2263 L
3490 2276 L
3491 2540 L
3491 2479 L
3491 2224 L
3491 2331 L
3492 2228 L
3492 2337 L
3492 2404 L
3492 2304 L
3493 2407 L
3493 2431 L
3493 2380 L
3493 2336 L
3494 2326 L
3494 2339 L
3494 2268 L
3494 2376 L
3494 2230 L
3495 2353 L
3495 2386 L
3495 2411 L
3495 2308 L
3496 2277 L
3496 2296 L
3496 2557 L
3496 2217 L
3497 2421 L
3497 2371 L
3497 2372 L
3497 2417 L
3498 2385 L
3498 2466 L
3498 2361 L
3498 2294 L
3498 2411 L
3499 2474 L
3499 2489 L
3499 2403 L
3499 2522 L
3500 2332 L
3500 2374 L
3506 2480 L
3511 2315 L
3517 2433 L
3522 2471 L
3527 2531 L
3532 2424 L
3537 2474 L
3542 2480 L
3547 2420 L
3552 2531 L
3557 2478 L
3561 2407 L
3566 2467 L
3570 2611 L
3575 2583 L
3579 2523 L
3583 2664 L
3587 2659 L
3591 2695 L
3595 2475 L
3599 2549 L
3603 2528 L
3607 2509 L
3611 2550 L
3614 2452 L
3618 2609 L
3622 2527 L
3625 2443 L
3629 2454 L
3632 2632 L
3636 2707 L
3639 2589 L
3642 2511 L
3646 2545 L
3649 2605 L
3652 2657 L
3655 2609 L
3658 2796 L
3661 2502 L
3664 2368 L
3667 2551 L
3670 2501 L
3673 2591 L
3676 2599 L
3679 2526 L
3682 2569 L
3685 2685 L
3688 2458 L
3690 2630 L
3693 2554 L
3696 2532 L
3698 2663 L
3701 2458 L
3704 2460 L
3706 2531 L
3709 2554 L
3711 2613 L
3714 2619 L
3716 2599 L
3719 2614 L
3721 2468 L
3724 2692 L
3726 2341 L
3728 2650 L
3731 2696 L
3733 2610 L
3735 2537 L
3738 2613 L
3740 2636 L
3742 2594 L
3744 2679 L
3747 2590 L
3749 2793 L
3751 2582 L
3753 2606 L
3755 2738 L
3757 2647 L
3760 2640 L
3762 2830 L
3764 2612 L
3766 2646 L
3768 2494 L
3770 2593 L
3772 2606 L
3774 2634 L
3776 2616 L
3778 2693 L
3780 2588 L
3781 2581 L
3783 2627 L
3785 2519 L
3787 2660 L
3789 2568 L
3791 2626 L
3793 2658 L
3795 2602 L
3796 2538 L
3798 2465 L
3800 2711 L
3802 2616 L
3803 2572 L
3805 2608 L
3807 2690 L
3809 2679 L
3810 2473 L
3812 2517 L
3814 2714 L
3816 2663 L
3817 2466 L
3819 2491 L
3820 2442 L
3822 2644 L
3824 2655 L
3825 2563 L
3827 2519 L
3829 2727 L
3830 2596 L
3832 2676 L
3833 2602 L
3835 2538 L
3836 2621 L
3838 2544 L
3839 2654 L
3841 2784 L
3842 2707 L
3844 2530 L
3845 2648 L
3847 2752 L
3848 2575 L
3850 2576 L
3851 2752 L
3853 2473 L
3854 2638 L
3856 2494 L
3857 2671 L
3859 2635 L
3860 2702 L
3861 2630 L
3863 2603 L
3864 2614 L
3866 2584 L
3867 2568 L
3868 2620 L
3870 2555 L
3871 2730 L
3872 2722 L
3874 2656 L
3875 2492 L
3876 2893 L
3878 2692 L
3879 2557 L
3880 2711 L
3882 2493 L
3883 2549 L
3884 2609 L
3885 2743 L
3887 2628 L
3888 2633 L
3889 2624 L
3890 2720 L
3892 2741 L
3893 2751 L
3894 2592 L
3895 2580 L
3897 2572 L
3898 2659 L
3899 2638 L
3900 2568 L
3901 2697 L
3903 2731 L
3904 2615 L
3905 2627 L
3906 2457 L
3907 2518 L
3908 2570 L
3910 2395 L
3911 2643 L
3912 2552 L
3913 2660 L
3914 2736 L
3915 2436 L
3917 2511 L
3918 2362 L
3919 2656 L
3920 2589 L
3921 2691 L
3922 2567 L
3923 2656 L
3924 2757 L
3925 2684 L
3926 2656 L
3928 2686 L
3929 2630 L
3930 2605 L
3931 2689 L
3932 2602 L
3933 2518 L
3934 2478 L
3935 2699 L
3936 2566 L
3937 2689 L
3938 2598 L
3939 2732 L
3940 2523 L
3941 2588 L
3942 2688 L
3943 2674 L
3944 2611 L
3945 2832 L
3946 2605 L
3947 2454 L
3948 2524 L
3949 2523 L
3950 2770 L
3951 2592 L
3952 2563 L
3953 2569 L
3954 2549 L
3955 2569 L
3956 2661 L
3957 2723 L
3958 2598 L
3959 2632 L
3960 2507 L
3961 2528 L
3962 2535 L
3963 2733 L
3964 2562 L
3965 2640 L
3966 2721 L
3966 2487 L
3967 2557 L
3968 2583 L
3969 2525 L
3970 2560 L
3971 2549 L
3972 2559 L
3973 2591 L
3974 2631 L
3975 2456 L
3976 2527 L
3976 2539 L
3977 2393 L
3978 2603 L
3979 2630 L
3980 2640 L
3981 2667 L
3982 2668 L
3983 2566 L
3983 2398 L
3984 2398 L
3985 2675 L
3986 2492 L
3987 2660 L
3988 2572 L
3989 2546 L
3989 2622 L
3990 2457 L
3991 2514 L
3992 2531 L
3993 2561 L
3994 2573 L
3995 2581 L
3995 2475 L
3996 2565 L
3997 2493 L
3998 2556 L
3999 2647 L
3999 2619 L
4000 2442 L
4001 2436 L
4002 2505 L
4003 2612 L
4003 2602 L
4004 2752 L
4005 2670 L
4006 2520 L
4007 2671 L
4007 2580 L
4008 2406 L
4009 2563 L
4010 2603 L
4011 2622 L
4011 2396 L
4012 2539 L
4013 2460 L
4014 2696 L
4014 2490 L
4015 2599 L
4016 2575 L
4017 2580 L
4017 2645 L
4018 2675 L
4019 2732 L
4020 2630 L
4021 2724 L
4021 2554 L
4022 2651 L
4023 2574 L
4023 2499 L
4024 2613 L
4025 2755 L
4026 2512 L
4026 2591 L
4027 2557 L
4028 2572 L
4029 2671 L
4029 2613 L
4030 2656 L
4031 2597 L
4032 2510 L
4032 2673 L
4033 2616 L
4034 2569 L
4034 2600 L
4035 2746 L
4036 2545 L
4036 2488 L
4037 2721 L
4038 2618 L
4039 2581 L
4039 2655 L
4040 2547 L
4041 2636 L
4041 2602 L
4042 2469 L
4043 2470 L
4043 2525 L
4044 2633 L
4045 2572 L
4045 2477 L
4046 2492 L
4047 2605 L
4047 2575 L
4048 2537 L
4049 2610 L
4050 2743 L
4050 2581 L
4051 2728 L
4052 2386 L
4052 2648 L
4053 2444 L
4053 2715 L
4054 2740 L
4055 2358 L
4055 2572 L
4056 2657 L
4057 2499 L
4057 2674 L
4058 2611 L
4059 2558 L
4059 2406 L
4060 2587 L
4061 2293 L
4061 2597 L
4062 2389 L
L2 C03 COSGR

%
%================
% Legend - Begin
%================
%
GSN 4240 5180 M
4480 5180 L
LWMC SL  C03 COSGR
GSN 4540 5141 M helvM (1.5 uM) show grestore
%
%================
% Legend - End
%================
%

%
% Residuals:
%
GSN 777 750 M
1388 1268 L
1552 1351 L
1652 1426 L
1723 1345 L
1778 1290 L
1824 1300 L
1863 1284 L
1896 1277 L
1926 1299 L
1952 1337 L
1976 1367 L
1998 1449 L
2019 1490 L
2037 1359 L
2055 1497 L
2071 1436 L
2086 1374 L
2101 1366 L
2115 1378 L
2128 1487 L
2140 1398 L
2152 1369 L
2163 1523 L
2174 1496 L
2184 1415 L
2194 1343 L
2204 1308 L
2213 1411 L
2222 1426 L
2230 1405 L
2239 1447 L
2247 1383 L
2255 1381 L
2262 1462 L
2270 1369 L
2277 1402 L
2284 1372 L
2290 1464 L
2297 1428 L
2303 1373 L
2310 1309 L
2316 1355 L
2322 1333 L
2328 1354 L
2333 1376 L
2339 1404 L
2344 1396 L
2350 1443 L
2355 1343 L
2360 1351 L
2365 1388 L
2370 1415 L
2375 1378 L
2380 1310 L
2384 1420 L
2389 1392 L
2393 1489 L
2398 1400 L
2402 1335 L
2407 1335 L
2411 1415 L
2415 1390 L
2419 1376 L
2423 1447 L
2427 1401 L
2431 1504 L
2435 1400 L
2438 1357 L
2442 1425 L
2446 1406 L
2449 1359 L
2453 1375 L
2456 1416 L
2460 1394 L
2463 1361 L
2467 1319 L
2470 1345 L
2473 1397 L
2476 1424 L
2480 1353 L
2483 1371 L
2486 1464 L
2489 1378 L
2492 1434 L
2495 1375 L
2498 1411 L
2501 1347 L
2504 1445 L
2507 1411 L
2510 1344 L
2512 1414 L
2515 1453 L
2518 1405 L
2521 1427 L
2523 1388 L
2526 1406 L
2529 1349 L
2531 1276 L
2534 1364 L
2536 1360 L
2539 1389 L
2541 1379 L
2544 1337 L
2546 1294 L
2549 1365 L
2551 1392 L
2554 1379 L
2556 1350 L
2558 1380 L
2561 1402 L
2563 1323 L
2565 1319 L
2568 1473 L
2570 1445 L
2572 1426 L
2574 1380 L
2576 1304 L
2579 1540 L
2581 1365 L
2583 1318 L
2585 1399 L
2587 1444 L
2589 1395 L
2591 1358 L
2593 1385 L
2595 1352 L
2597 1405 L
2599 1370 L
2601 1375 L
2603 1475 L
2605 1303 L
2607 1349 L
2609 1371 L
2611 1405 L
2613 1391 L
2615 1307 L
2617 1337 L
2618 1388 L
2620 1406 L
2622 1409 L
2624 1432 L
2626 1414 L
2627 1315 L
2629 1344 L
2631 1397 L
2633 1404 L
2634 1373 L
2636 1438 L
2638 1364 L
2640 1384 L
2641 1361 L
2643 1415 L
2645 1350 L
2646 1425 L
2648 1388 L
2650 1243 L
2651 1392 L
2653 1352 L
2654 1404 L
2656 1342 L
2658 1408 L
2659 1345 L
2661 1287 L
2662 1346 L
2664 1439 L
2665 1430 L
2667 1342 L
2668 1386 L
2670 1420 L
2671 1416 L
2673 1339 L
2674 1397 L
2676 1401 L
2677 1352 L
2679 1405 L
2680 1389 L
2682 1380 L
2683 1382 L
2685 1360 L
2686 1355 L
2687 1406 L
2689 1360 L
2690 1379 L
2692 1253 L
2693 1446 L
2694 1408 L
2696 1342 L
2697 1329 L
2698 1421 L
2700 1441 L
2701 1379 L
2702 1441 L
2704 1365 L
2705 1355 L
2706 1372 L
2708 1333 L
2709 1424 L
2710 1372 L
2712 1417 L
2713 1389 L
2714 1407 L
2715 1432 L
2717 1354 L
2718 1360 L
2719 1396 L
2720 1455 L
2722 1389 L
2723 1344 L
2724 1442 L
2725 1415 L
2726 1358 L
2728 1395 L
2729 1342 L
2730 1383 L
2731 1345 L
2732 1431 L
2734 1367 L
2735 1416 L
2736 1326 L
2737 1329 L
2738 1401 L
2739 1362 L
2741 1344 L
2742 1304 L
2743 1447 L
2744 1333 L
2745 1403 L
2746 1358 L
2747 1489 L
2748 1385 L
2749 1393 L
2751 1403 L
2752 1359 L
2753 1486 L
2754 1345 L
2755 1384 L
2756 1400 L
2757 1353 L
2758 1408 L
2759 1368 L
2760 1393 L
2761 1467 L
2762 1420 L
2763 1407 L
2764 1427 L
2765 1334 L
2767 1486 L
2768 1505 L
2769 1431 L
2770 1304 L
2771 1431 L
2772 1386 L
2773 1383 L
2774 1452 L
2775 1332 L
2776 1417 L
2777 1369 L
2778 1461 L
2779 1390 L
2780 1395 L
2781 1430 L
2782 1330 L
2783 1431 L
2783 1441 L
2784 1423 L
2785 1378 L
2786 1421 L
2787 1339 L
2788 1380 L
2789 1356 L
2790 1399 L
2791 1321 L
2792 1466 L
2793 1409 L
2794 1429 L
2795 1404 L
2796 1401 L
2797 1347 L
2798 1482 L
2798 1429 L
2799 1497 L
2800 1425 L
2801 1495 L
2802 1437 L
2803 1407 L
2804 1365 L
2805 1437 L
2806 1372 L
2807 1421 L
2807 1344 L
2808 1445 L
2809 1455 L
2810 1395 L
2811 1392 L
2812 1444 L
2813 1371 L
2813 1359 L
2814 1309 L
2815 1421 L
2816 1496 L
2817 1378 L
2818 1439 L
2819 1458 L
2819 1414 L
2820 1446 L
2821 1318 L
2822 1404 L
2823 1500 L
2824 1387 L
2824 1352 L
2825 1403 L
2826 1411 L
2827 1569 L
2828 1397 L
2828 1313 L
2829 1393 L
2830 1372 L
2831 1407 L
2832 1354 L
2832 1412 L
2833 1367 L
2834 1405 L
2835 1458 L
2836 1378 L
2836 1378 L
2837 1347 L
2838 1427 L
2839 1368 L
2840 1356 L
2840 1379 L
2841 1369 L
2842 1406 L
2843 1476 L
2843 1379 L
2844 1402 L
2845 1390 L
2846 1320 L
2846 1405 L
2847 1342 L
2848 1426 L
2849 1523 L
2849 1348 L
2850 1370 L
2851 1465 L
2852 1337 L
2852 1415 L
2853 1425 L
2854 1439 L
2855 1457 L
2855 1500 L
2856 1400 L
2857 1435 L
2857 1413 L
2858 1389 L
2859 1404 L
2860 1426 L
2860 1358 L
2861 1380 L
2862 1362 L
2862 1391 L
2863 1355 L
2864 1479 L
2865 1361 L
2865 1522 L
2866 1387 L
2867 1334 L
2867 1392 L
2868 1434 L
2869 1477 L
2869 1445 L
2870 1417 L
2871 1495 L
2871 1430 L
2872 1395 L
2873 1342 L
2873 1413 L
2874 1490 L
2875 1376 L
2876 1432 L
2876 1505 L
2877 1403 L
2878 1394 L
2878 1389 L
2879 1467 L
2880 1453 L
2880 1383 L
2881 1437 L
2881 1389 L
2882 1415 L
2883 1491 L
2883 1423 L
2884 1477 L
2885 1502 L
2885 1369 L
2886 1392 L
2887 1508 L
2887 1484 L
2888 1398 L
2889 1438 L
2889 1434 L
2892 1529 L
2894 1476 L
2897 1446 L
2899 1507 L
2902 1411 L
2904 1511 L
2907 1509 L
2909 1358 L
2911 1404 L
2914 1417 L
2916 1444 L
2918 1399 L
2921 1509 L
2923 1399 L
2925 1397 L
2927 1420 L
2929 1418 L
2932 1424 L
2934 1448 L
2936 1388 L
2938 1452 L
2940 1448 L
2942 1439 L
2944 1453 L
2946 1398 L
2948 1471 L
2950 1445 L
2952 1392 L
2954 1412 L
2956 1417 L
2958 1447 L
2960 1338 L
2962 1445 L
2964 1478 L
2966 1483 L
2968 1445 L
2970 1478 L
2971 1451 L
2973 1433 L
2975 1384 L
2977 1374 L
2979 1438 L
2980 1390 L
2982 1479 L
2984 1404 L
2986 1445 L
2987 1438 L
2989 1502 L
2991 1445 L
2993 1495 L
2994 1419 L
2996 1480 L
2998 1460 L
2999 1422 L
3001 1430 L
3003 1347 L
3004 1493 L
3006 1392 L
3007 1428 L
3009 1449 L
3011 1430 L
3012 1409 L
3014 1365 L
3015 1467 L
3017 1431 L
3018 1389 L
3020 1405 L
3021 1370 L
3023 1460 L
3024 1430 L
3026 1432 L
3027 1410 L
3029 1346 L
3030 1449 L
3032 1454 L
3033 1453 L
3035 1413 L
3036 1428 L
3038 1507 L
3039 1335 L
3040 1490 L
3042 1386 L
3043 1448 L
3045 1453 L
3046 1448 L
3047 1388 L
3049 1512 L
3050 1441 L
3051 1485 L
3053 1423 L
3054 1355 L
3055 1407 L
3057 1413 L
3058 1447 L
3059 1407 L
3061 1413 L
3062 1389 L
3063 1330 L
3065 1379 L
3066 1434 L
3067 1416 L
3068 1367 L
3070 1440 L
3071 1429 L
3072 1418 L
3073 1488 L
3075 1354 L
3076 1392 L
3077 1465 L
3078 1330 L
3079 1433 L
3081 1462 L
3082 1444 L
3083 1444 L
3084 1375 L
3085 1447 L
3087 1398 L
3088 1455 L
3089 1269 L
3090 1482 L
3091 1395 L
3092 1365 L
3094 1414 L
3095 1368 L
3096 1374 L
3097 1416 L
3098 1426 L
3099 1427 L
3100 1396 L
3101 1427 L
3103 1406 L
3104 1376 L
3105 1450 L
3106 1368 L
3107 1487 L
3108 1382 L
3109 1348 L
3110 1443 L
3111 1400 L
3112 1394 L
3113 1445 L
3114 1478 L
3115 1396 L
3116 1410 L
3117 1407 L
3119 1378 L
3120 1401 L
3121 1320 L
3122 1400 L
3123 1343 L
3124 1313 L
3125 1355 L
3126 1383 L
3127 1356 L
3128 1322 L
3129 1416 L
3130 1388 L
3131 1303 L
3132 1404 L
3133 1364 L
3134 1498 L
3135 1359 L
3136 1358 L
3136 1327 L
3137 1345 L
3138 1378 L
3139 1453 L
3140 1443 L
3141 1411 L
3142 1364 L
3143 1399 L
3144 1376 L
3145 1419 L
3146 1353 L
3147 1353 L
3148 1464 L
3149 1340 L
3150 1366 L
3151 1373 L
3151 1380 L
3152 1428 L
3153 1393 L
3154 1324 L
3155 1358 L
3156 1357 L
3157 1393 L
3158 1409 L
3159 1351 L
3160 1350 L
3160 1354 L
3161 1320 L
3162 1345 L
3163 1368 L
3164 1389 L
3165 1402 L
3166 1328 L
3166 1368 L
3167 1356 L
3168 1328 L
3169 1316 L
3170 1322 L
3171 1352 L
3172 1388 L
3172 1412 L
3173 1351 L
3174 1430 L
3175 1371 L
3176 1447 L
3177 1335 L
3177 1362 L
3178 1387 L
3179 1457 L
3180 1391 L
3181 1276 L
3181 1352 L
3182 1394 L
3183 1330 L
3184 1376 L
3185 1374 L
3185 1307 L
3186 1366 L
3187 1357 L
3188 1367 L
3189 1415 L
3189 1335 L
3190 1346 L
3191 1421 L
3192 1389 L
3193 1342 L
3193 1419 L
3194 1355 L
3195 1337 L
3196 1353 L
3196 1319 L
3197 1353 L
3198 1341 L
3199 1264 L
3199 1392 L
3200 1356 L
3201 1370 L
3202 1334 L
3202 1420 L
3203 1342 L
3204 1284 L
3205 1305 L
3205 1287 L
3206 1324 L
3207 1424 L
3208 1330 L
3208 1379 L
3209 1397 L
3210 1396 L
3210 1263 L
3211 1308 L
3212 1369 L
3213 1415 L
3213 1359 L
3214 1361 L
3215 1386 L
3215 1319 L
3216 1340 L
3217 1412 L
3218 1381 L
3218 1338 L
3219 1284 L
3220 1413 L
3220 1355 L
3221 1492 L
3222 1378 L
3222 1474 L
3223 1381 L
3224 1455 L
3224 1265 L
3225 1336 L
3226 1364 L
3227 1317 L
3227 1419 L
3228 1287 L
3229 1399 L
3229 1308 L
3230 1373 L
3231 1361 L
3231 1279 L
3232 1392 L
3233 1274 L
3233 1390 L
3234 1321 L
3235 1418 L
3235 1341 L
3236 1354 L
3236 1361 L
3237 1343 L
3238 1300 L
3238 1345 L
3239 1392 L
3240 1353 L
3240 1342 L
3241 1372 L
3242 1321 L
3242 1305 L
3243 1268 L
3244 1365 L
3244 1307 L
3245 1395 L
3245 1324 L
3246 1346 L
3247 1341 L
3247 1245 L
3248 1318 L
3249 1430 L
3249 1362 L
3250 1288 L
3250 1322 L
3251 1365 L
3252 1348 L
3252 1358 L
3253 1315 L
3253 1309 L
3254 1352 L
3255 1363 L
3255 1365 L
3256 1265 L
3257 1413 L
3257 1300 L
3258 1383 L
3258 1329 L
3259 1449 L
3259 1283 L
3260 1376 L
3261 1331 L
3261 1314 L
3262 1324 L
3262 1370 L
3263 1397 L
3264 1388 L
3264 1355 L
3265 1341 L
3265 1399 L
3266 1278 L
3267 1291 L
3267 1356 L
3268 1291 L
3268 1360 L
3269 1394 L
3269 1320 L
3270 1369 L
3271 1301 L
3271 1346 L
3272 1297 L
3272 1381 L
3273 1314 L
3273 1373 L
3274 1351 L
3275 1377 L
3275 1353 L
3276 1322 L
3276 1289 L
3277 1390 L
3277 1384 L
3278 1365 L
3278 1297 L
3279 1325 L
3280 1382 L
3280 1388 L
3281 1311 L
3281 1351 L
3282 1347 L
3282 1346 L
3283 1336 L
3283 1377 L
3284 1309 L
3284 1348 L
3285 1344 L
3285 1317 L
3286 1428 L
3287 1302 L
3287 1361 L
3288 1367 L
3288 1377 L
3289 1323 L
3289 1329 L
3290 1347 L
3290 1413 L
3291 1281 L
3291 1399 L
3292 1303 L
3292 1353 L
3293 1390 L
3293 1286 L
3294 1301 L
3294 1363 L
3295 1338 L
3295 1355 L
3296 1334 L
3297 1316 L
3297 1357 L
3298 1309 L
3298 1381 L
3299 1350 L
3299 1370 L
3300 1275 L
3300 1308 L
3301 1320 L
3301 1327 L
3302 1281 L
3302 1311 L
3303 1242 L
3303 1400 L
3304 1296 L
3304 1382 L
3305 1385 L
3305 1305 L
3306 1278 L
3306 1376 L
3307 1399 L
3307 1340 L
3308 1290 L
3308 1299 L
3309 1319 L
3309 1345 L
3310 1301 L
3310 1402 L
3311 1311 L
3311 1340 L
3312 1345 L
3312 1390 L
3312 1239 L
3313 1416 L
3313 1293 L
3314 1311 L
3314 1376 L
3315 1277 L
3315 1313 L
3316 1327 L
3316 1378 L
3317 1350 L
3317 1429 L
3318 1274 L
3318 1312 L
3319 1347 L
3319 1272 L
3320 1334 L
3320 1322 L
3321 1313 L
3321 1241 L
3321 1315 L
3322 1325 L
3322 1317 L
3323 1319 L
3323 1306 L
3324 1426 L
3324 1321 L
3325 1364 L
3325 1382 L
3326 1395 L
3326 1374 L
3327 1297 L
3327 1357 L
3327 1428 L
3328 1347 L
3328 1292 L
3329 1363 L
3329 1264 L
3330 1356 L
3330 1281 L
3331 1348 L
3331 1347 L
3332 1420 L
3332 1317 L
3332 1282 L
3333 1344 L
3333 1473 L
3334 1274 L
3334 1237 L
3335 1353 L
3335 1315 L
3336 1325 L
3336 1318 L
3336 1286 L
3337 1366 L
3337 1243 L
3338 1389 L
3338 1278 L
3339 1400 L
3339 1263 L
3339 1388 L
3340 1328 L
3340 1277 L
3341 1345 L
3341 1347 L
3342 1372 L
3342 1307 L
3343 1339 L
3343 1330 L
3343 1279 L
3344 1343 L
3344 1283 L
3345 1267 L
3345 1327 L
3346 1311 L
3346 1267 L
3346 1345 L
3347 1371 L
3347 1323 L
3348 1313 L
3348 1355 L
3348 1351 L
3349 1263 L
3349 1345 L
3350 1236 L
3350 1299 L
3351 1285 L
3351 1348 L
3351 1357 L
3352 1388 L
3352 1284 L
3353 1277 L
3353 1315 L
3353 1310 L
3354 1309 L
3354 1280 L
3355 1287 L
3355 1319 L
3355 1362 L
3356 1313 L
3356 1332 L
3357 1301 L
3357 1330 L
3358 1297 L
3358 1438 L
3358 1305 L
3359 1350 L
3359 1367 L
3360 1294 L
3360 1362 L
3360 1299 L
3361 1437 L
3361 1309 L
3362 1329 L
3362 1379 L
3362 1301 L
3363 1209 L
3363 1342 L
3364 1299 L
3364 1379 L
3364 1349 L
3365 1216 L
3365 1351 L
3365 1381 L
3366 1374 L
3366 1365 L
3367 1306 L
3367 1312 L
3367 1314 L
3368 1304 L
3368 1391 L
3369 1282 L
3369 1358 L
3369 1346 L
3370 1317 L
3370 1344 L
3371 1321 L
3371 1354 L
3371 1338 L
3372 1326 L
3372 1294 L
3372 1288 L
3373 1199 L
3373 1294 L
3374 1195 L
3374 1332 L
3374 1217 L
3375 1350 L
3375 1356 L
3375 1277 L
3376 1345 L
3376 1280 L
3377 1323 L
3377 1473 L
3377 1354 L
3378 1304 L
3378 1218 L
3378 1324 L
3379 1282 L
3379 1357 L
3380 1289 L
3380 1292 L
3380 1326 L
3381 1402 L
3381 1273 L
3381 1332 L
3382 1320 L
3382 1258 L
3383 1312 L
3383 1277 L
3383 1372 L
3384 1272 L
3384 1453 L
3384 1290 L
3385 1355 L
3385 1351 L
3385 1330 L
3386 1286 L
3386 1389 L
3387 1308 L
3387 1326 L
3387 1391 L
3388 1248 L
3388 1297 L
3388 1330 L
3389 1294 L
3389 1354 L
3389 1290 L
3390 1280 L
3390 1377 L
3391 1293 L
3391 1336 L
3391 1279 L
3392 1325 L
3392 1290 L
3392 1371 L
3393 1278 L
3393 1378 L
3393 1344 L
3394 1331 L
3394 1240 L
3394 1268 L
3395 1291 L
3395 1256 L
3395 1297 L
3396 1355 L
3396 1279 L
3396 1296 L
3397 1275 L
3397 1313 L
3398 1317 L
3398 1277 L
3398 1307 L
3399 1285 L
3399 1295 L
3399 1276 L
3400 1290 L
3400 1288 L
3400 1277 L
3401 1357 L
3401 1256 L
3401 1326 L
3402 1381 L
3402 1332 L
3402 1374 L
3403 1334 L
3403 1311 L
3403 1365 L
3404 1337 L
3404 1368 L
3404 1390 L
3405 1373 L
3405 1269 L
3405 1316 L
3406 1296 L
3406 1274 L
3406 1303 L
3407 1311 L
3407 1308 L
3407 1321 L
3408 1326 L
3408 1318 L
3408 1348 L
3409 1360 L
3409 1269 L
3409 1342 L
3410 1256 L
3410 1292 L
3410 1365 L
3411 1366 L
3411 1278 L
3411 1321 L
3412 1389 L
3412 1368 L
3412 1279 L
3413 1344 L
3413 1279 L
3413 1281 L
3414 1346 L
3414 1319 L
3414 1312 L
3415 1297 L
3415 1209 L
3415 1335 L
3416 1379 L
3416 1267 L
3416 1348 L
3417 1248 L
3417 1325 L
3417 1318 L
3417 1292 L
3418 1330 L
3418 1352 L
3418 1331 L
3419 1338 L
3419 1291 L
3419 1237 L
3420 1319 L
3420 1449 L
3420 1350 L
3421 1322 L
3421 1289 L
3421 1318 L
3422 1276 L
3422 1305 L
3422 1310 L
3423 1382 L
3423 1276 L
3423 1350 L
3423 1280 L
3424 1360 L
3424 1358 L
3424 1344 L
3425 1370 L
3425 1306 L
3425 1303 L
3426 1290 L
3426 1266 L
3426 1342 L
3427 1371 L
3427 1266 L
3427 1329 L
3428 1286 L
3428 1514 L
3428 1354 L
3428 1274 L
3429 1259 L
3429 1305 L
3429 1412 L
3430 1327 L
3430 1310 L
3430 1293 L
3431 1339 L
3431 1267 L
3431 1368 L
3431 1352 L
3432 1308 L
3432 1300 L
3432 1288 L
3433 1319 L
3433 1349 L
3433 1283 L
3434 1311 L
3434 1366 L
3434 1259 L
3434 1395 L
3435 1353 L
3435 1382 L
3435 1369 L
3436 1318 L
3436 1308 L
3436 1329 L
3437 1303 L
3437 1323 L
3437 1277 L
3437 1296 L
3438 1356 L
3438 1352 L
3438 1357 L
3439 1335 L
3439 1339 L
3439 1392 L
3440 1397 L
3440 1280 L
3440 1304 L
3440 1346 L
3441 1347 L
3441 1270 L
3441 1284 L
3442 1332 L
3442 1398 L
3442 1379 L
3442 1448 L
3443 1374 L
3443 1340 L
3443 1322 L
3444 1323 L
3444 1319 L
3444 1293 L
3444 1374 L
3445 1208 L
3445 1430 L
3445 1295 L
3446 1269 L
3446 1308 L
3446 1388 L
3446 1264 L
3447 1322 L
3447 1284 L
3447 1322 L
3448 1347 L
3448 1361 L
3448 1344 L
3448 1297 L
3449 1355 L
3449 1385 L
3449 1381 L
3450 1231 L
3450 1270 L
3450 1288 L
3450 1335 L
3451 1240 L
3451 1280 L
3451 1297 L
3452 1351 L
3452 1322 L
3452 1303 L
3452 1326 L
3453 1240 L
3453 1316 L
3453 1285 L
3454 1361 L
3454 1331 L
3454 1340 L
3454 1320 L
3455 1376 L
3455 1297 L
3455 1332 L
3455 1308 L
3456 1258 L
3456 1334 L
3456 1365 L
3457 1262 L
3457 1300 L
3457 1226 L
3457 1332 L
3458 1261 L
3458 1333 L
3458 1314 L
3458 1389 L
3459 1308 L
3459 1379 L
3459 1303 L
3460 1368 L
3460 1369 L
3460 1279 L
3460 1283 L
3461 1294 L
3461 1342 L
3461 1358 L
3461 1261 L
3462 1318 L
3462 1330 L
3462 1311 L
3463 1341 L
3463 1264 L
3463 1280 L
3463 1334 L
3464 1315 L
3464 1275 L
3464 1300 L
3464 1333 L
3465 1391 L
3465 1258 L
3465 1370 L
3465 1294 L
3466 1298 L
3466 1354 L
3466 1340 L
3466 1270 L
3467 1311 L
3467 1310 L
3467 1352 L
3468 1357 L
3468 1339 L
3468 1325 L
3468 1362 L
3469 1371 L
3469 1371 L
3469 1355 L
3469 1303 L
3470 1336 L
3470 1288 L
3470 1361 L
3470 1373 L
3471 1342 L
3471 1413 L
3471 1329 L
3471 1393 L
3472 1392 L
3472 1333 L
3472 1297 L
3472 1367 L
3473 1344 L
3473 1343 L
3473 1260 L
3474 1404 L
3474 1311 L
3474 1345 L
3474 1321 L
3475 1250 L
3475 1333 L
3475 1304 L
3475 1328 L
3476 1323 L
3476 1361 L
3476 1280 L
3476 1297 L
3477 1297 L
3477 1279 L
3477 1338 L
3477 1327 L
3478 1315 L
3478 1349 L
3478 1340 L
3478 1291 L
3479 1311 L
3479 1320 L
3479 1341 L
3479 1335 L
3480 1327 L
3480 1351 L
3480 1305 L
3480 1330 L
3481 1361 L
3481 1312 L
3481 1379 L
3481 1388 L
3482 1356 L
3482 1340 L
3482 1313 L
3482 1364 L
3483 1372 L
3483 1368 L
3483 1380 L
3483 1300 L
3484 1344 L
3484 1316 L
3484 1282 L
3484 1269 L
3485 1336 L
3485 1299 L
3485 1318 L
3485 1238 L
3486 1366 L
3486 1269 L
3486 1259 L
3486 1320 L
3487 1344 L
3487 1271 L
3487 1302 L
3487 1300 L
3488 1353 L
3488 1355 L
3488 1381 L
3488 1278 L
3488 1392 L
3489 1317 L
3489 1280 L
3489 1253 L
3489 1389 L
3490 1338 L
3490 1370 L
3490 1270 L
3490 1277 L
3491 1426 L
3491 1391 L
3491 1248 L
3491 1307 L
3492 1249 L
3492 1311 L
3492 1348 L
3492 1291 L
3493 1349 L
3493 1363 L
3493 1333 L
3493 1309 L
3494 1303 L
3494 1310 L
3494 1270 L
3494 1330 L
3494 1248 L
3495 1317 L
3495 1335 L
3495 1349 L
3495 1291 L
3496 1273 L
3496 1284 L
3496 1431 L
3496 1239 L
3497 1354 L
3497 1325 L
3497 1326 L
3497 1351 L
3498 1333 L
3498 1378 L
3498 1319 L
3498 1281 L
3498 1347 L
3499 1382 L
3499 1390 L
3499 1341 L
3499 1408 L
3500 1301 L
3500 1324 L
3506 1379 L
3511 1282 L
3517 1344 L
3522 1361 L
3527 1391 L
3532 1327 L
3537 1351 L
3542 1351 L
3547 1313 L
3552 1373 L
3557 1340 L
3561 1296 L
3566 1327 L
3570 1406 L
3575 1387 L
3579 1351 L
3583 1428 L
3587 1423 L
3591 1441 L
3595 1314 L
3599 1354 L
3603 1340 L
3607 1327 L
3611 1349 L
3614 1292 L
3618 1379 L
3622 1331 L
3625 1282 L
3629 1287 L
3632 1386 L
3636 1427 L
3639 1359 L
3642 1313 L
3646 1331 L
3649 1364 L
3652 1392 L
3655 1364 L
3658 1469 L
3661 1302 L
3664 1225 L
3667 1328 L
3670 1299 L
3673 1349 L
3676 1352 L
3679 1310 L
3682 1334 L
3685 1398 L
3688 1270 L
3690 1366 L
3693 1322 L
3696 1310 L
3698 1383 L
3701 1267 L
3704 1267 L
3706 1307 L
3709 1319 L
3711 1352 L
3714 1355 L
3716 1343 L
3719 1351 L
3721 1269 L
3724 1395 L
3726 1197 L
3728 1370 L
3731 1396 L
3733 1347 L
3735 1306 L
3738 1348 L
3740 1361 L
3742 1337 L
3744 1384 L
3747 1334 L
3749 1448 L
3751 1329 L
3753 1343 L
3755 1417 L
3757 1365 L
3760 1361 L
3762 1468 L
3764 1345 L
3766 1364 L
3768 1278 L
3770 1334 L
3772 1341 L
3774 1356 L
3776 1346 L
3778 1390 L
3780 1330 L
3781 1326 L
3783 1352 L
3785 1291 L
3787 1370 L
3789 1318 L
3791 1351 L
3793 1369 L
3795 1337 L
3796 1301 L
3798 1260 L
3800 1398 L
3802 1345 L
3803 1320 L
3805 1340 L
3807 1386 L
3809 1380 L
3810 1264 L
3812 1288 L
3814 1399 L
3816 1371 L
3817 1259 L
3819 1273 L
3820 1246 L
3822 1360 L
3824 1366 L
3825 1314 L
3827 1289 L
3829 1407 L
3830 1332 L
3832 1378 L
3833 1336 L
3835 1300 L
3836 1347 L
3838 1303 L
3839 1365 L
3841 1438 L
3842 1395 L
3844 1295 L
3845 1361 L
3847 1420 L
3848 1320 L
3850 1321 L
3851 1420 L
3853 1263 L
3854 1356 L
3856 1275 L
3857 1375 L
3859 1354 L
3860 1392 L
3861 1351 L
3863 1336 L
3864 1342 L
3866 1325 L
3867 1316 L
3868 1346 L
3870 1309 L
3871 1407 L
3872 1403 L
3874 1366 L
3875 1274 L
3876 1499 L
3878 1386 L
3879 1310 L
3880 1397 L
3882 1274 L
3883 1306 L
3884 1339 L
3885 1415 L
3887 1350 L
3888 1352 L
3889 1348 L
3890 1402 L
3892 1413 L
3893 1419 L
3894 1330 L
3895 1323 L
3897 1319 L
3898 1368 L
3899 1356 L
3900 1316 L
3901 1389 L
3903 1408 L
3904 1342 L
3905 1349 L
3906 1253 L
3907 1288 L
3908 1317 L
3910 1218 L
3911 1358 L
3912 1307 L
3913 1368 L
3914 1411 L
3915 1242 L
3917 1284 L
3918 1200 L
3919 1366 L
3920 1328 L
3921 1385 L
3922 1315 L
3923 1366 L
3924 1423 L
3925 1381 L
3926 1365 L
3928 1383 L
3929 1351 L
3930 1337 L
3931 1384 L
3932 1335 L
3933 1288 L
3934 1265 L
3935 1390 L
3936 1315 L
3937 1384 L
3938 1333 L
3939 1408 L
3940 1290 L
3941 1327 L
3942 1384 L
3943 1376 L
3944 1340 L
3945 1465 L
3946 1337 L
3947 1251 L
3948 1291 L
3949 1291 L
3950 1430 L
3951 1329 L
3952 1313 L
3953 1317 L
3954 1305 L
3955 1316 L
3956 1368 L
3957 1403 L
3958 1333 L
3959 1352 L
3960 1282 L
3961 1293 L
3962 1297 L
3963 1409 L
3964 1313 L
3965 1356 L
3966 1402 L
3966 1270 L
3967 1310 L
3968 1325 L
3969 1292 L
3970 1311 L
3971 1305 L
3972 1311 L
3973 1329 L
3974 1352 L
3975 1253 L
3976 1293 L
3976 1300 L
3977 1218 L
3978 1336 L
3979 1351 L
3980 1356 L
3981 1372 L
3982 1373 L
3983 1315 L
3983 1220 L
3984 1220 L
3985 1376 L
3986 1273 L
3987 1368 L
3988 1318 L
3989 1303 L
3989 1346 L
3990 1253 L
3991 1286 L
3992 1295 L
3993 1312 L
3994 1319 L
3995 1323 L
3995 1264 L
3996 1314 L
3997 1274 L
3998 1309 L
3999 1360 L
3999 1345 L
4000 1245 L
4001 1242 L
4002 1280 L
4003 1341 L
4003 1335 L
4004 1419 L
4005 1374 L
4006 1289 L
4007 1374 L
4007 1323 L
4008 1224 L
4009 1313 L
4010 1336 L
4011 1347 L
4011 1219 L
4012 1300 L
4013 1255 L
4014 1388 L
4014 1272 L
4015 1333 L
4016 1320 L
4017 1323 L
4017 1359 L
4018 1376 L
4019 1408 L
4020 1351 L
4021 1404 L
4021 1308 L
4022 1363 L
4023 1319 L
4023 1277 L
4024 1341 L
4025 1421 L
4026 1285 L
4026 1329 L
4027 1310 L
4028 1318 L
4029 1374 L
4029 1341 L
4030 1366 L
4031 1332 L
4032 1283 L
4032 1375 L
4033 1343 L
4034 1317 L
4034 1334 L
4035 1416 L
4036 1303 L
4036 1271 L
4037 1402 L
4038 1344 L
4039 1323 L
4039 1365 L
4040 1304 L
4041 1354 L
4041 1335 L
4042 1260 L
4043 1261 L
4043 1292 L
4044 1353 L
4045 1318 L
4045 1264 L
4046 1273 L
4047 1337 L
4047 1320 L
4048 1299 L
4049 1340 L
4050 1415 L
4050 1323 L
4051 1406 L
4052 1213 L
4052 1361 L
4053 1246 L
4053 1399 L
4054 1413 L
4055 1197 L
4055 1318 L
4056 1366 L
4057 1277 L
4057 1376 L
4058 1340 L
4059 1310 L
4059 1224 L
4060 1327 L
4061 1161 L
4061 1332 L
4062 1215 L
L2 C03 COSGR

%
% Main frame
%
L10
GSN 
620 1700 M
4220 1700 L
4220 5300 L
620 5300 L
closepath SGR

%
% X axis: large tics
%
L10
GSN 1130 1700 M 0  54 rL SGR
GSN 1130 5300 M 0 -54 rL SGR
helvS (0.0001) 1130 470 xlabel
GSN 1716 1700 M 0  54 rL SGR
GSN 1716 5300 M 0 -54 rL SGR
helvS (0.001) 1716 470 xlabel
GSN 2303 1700 M 0  54 rL SGR
GSN 2303 5300 M 0 -54 rL SGR
helvS (0.01) 2303 470 xlabel
GSN 2889 1700 M 0  54 rL SGR
GSN 2889 5300 M 0 -54 rL SGR
helvS (0.1) 2889 470 xlabel
GSN 3476 1700 M 0  54 rL SGR
GSN 3476 5300 M 0 -54 rL SGR
helvS (1) 3476 470 xlabel
GSN 4062 1700 M 0  54 rL SGR
GSN 4062 5300 M 0 -54 rL SGR
helvS (10) 4062 470 xlabel
%
% X axis: small tics
%
L5
GSN 720 1700 M 0  36 rL SGR
GSN 720 5300 M 0 -36 rL SGR
GSN 824 1700 M 0  36 rL SGR
GSN 824 5300 M 0 -36 rL SGR
GSN 897 1700 M 0  36 rL SGR
GSN 897 5300 M 0 -36 rL SGR
GSN 954 1700 M 0  36 rL SGR
GSN 954 5300 M 0 -36 rL SGR
GSN 1000 1700 M 0  36 rL SGR
GSN 1000 5300 M 0 -36 rL SGR
GSN 1039 1700 M 0  36 rL SGR
GSN 1039 5300 M 0 -36 rL SGR
GSN 1073 1700 M 0  36 rL SGR
GSN 1073 5300 M 0 -36 rL SGR
GSN 1103 1700 M 0  36 rL SGR
GSN 1103 5300 M 0 -36 rL SGR
GSN 1307 1700 M 0  36 rL SGR
GSN 1307 5300 M 0 -36 rL SGR
GSN 1410 1700 M 0  36 rL SGR
GSN 1410 5300 M 0 -36 rL SGR
GSN 1483 1700 M 0  36 rL SGR
GSN 1483 5300 M 0 -36 rL SGR
GSN 1540 1700 M 0  36 rL SGR
GSN 1540 5300 M 0 -36 rL SGR
GSN 1586 1700 M 0  36 rL SGR
GSN 1586 5300 M 0 -36 rL SGR
GSN 1626 1700 M 0  36 rL SGR
GSN 1626 5300 M 0 -36 rL SGR
GSN 1660 1700 M 0  36 rL SGR
GSN 1660 5300 M 0 -36 rL SGR
GSN 1690 1700 M 0  36 rL SGR
GSN 1690 5300 M 0 -36 rL SGR
GSN 1893 1700 M 0  36 rL SGR
GSN 1893 5300 M 0 -36 rL SGR
GSN 1996 1700 M 0  36 rL SGR
GSN 1996 5300 M 0 -36 rL SGR
GSN 2069 1700 M 0  36 rL SGR
GSN 2069 5300 M 0 -36 rL SGR
GSN 2126 1700 M 0  36 rL SGR
GSN 2126 5300 M 0 -36 rL SGR
GSN 2173 1700 M 0  36 rL SGR
GSN 2173 5300 M 0 -36 rL SGR
GSN 2212 1700 M 0  36 rL SGR
GSN 2212 5300 M 0 -36 rL SGR
GSN 2246 1700 M 0  36 rL SGR
GSN 2246 5300 M 0 -36 rL SGR
GSN 2276 1700 M 0  36 rL SGR
GSN 2276 5300 M 0 -36 rL SGR
GSN 2479 1700 M 0  36 rL SGR
GSN 2479 5300 M 0 -36 rL SGR
GSN 2583 1700 M 0  36 rL SGR
GSN 2583 5300 M 0 -36 rL SGR
GSN 2656 1700 M 0  36 rL SGR
GSN 2656 5300 M 0 -36 rL SGR
GSN 2713 1700 M 0  36 rL SGR
GSN 2713 5300 M 0 -36 rL SGR
GSN 2759 1700 M 0  36 rL SGR
GSN 2759 5300 M 0 -36 rL SGR
GSN 2798 1700 M 0  36 rL SGR
GSN 2798 5300 M 0 -36 rL SGR
GSN 2832 1700 M 0  36 rL SGR
GSN 2832 5300 M 0 -36 rL SGR
GSN 2862 1700 M 0  36 rL SGR
GSN 2862 5300 M 0 -36 rL SGR
GSN 3066 1700 M 0  36 rL SGR
GSN 3066 5300 M 0 -36 rL SGR
GSN 3169 1700 M 0  36 rL SGR
GSN 3169 5300 M 0 -36 rL SGR
GSN 3242 1700 M 0  36 rL SGR
GSN 3242 5300 M 0 -36 rL SGR
GSN 3299 1700 M 0  36 rL SGR
GSN 3299 5300 M 0 -36 rL SGR
GSN 3345 1700 M 0  36 rL SGR
GSN 3345 5300 M 0 -36 rL SGR
GSN 3385 1700 M 0  36 rL SGR
GSN 3385 5300 M 0 -36 rL SGR
GSN 3419 1700 M 0  36 rL SGR
GSN 3419 5300 M 0 -36 rL SGR
GSN 3449 1700 M 0  36 rL SGR
GSN 3449 5300 M 0 -36 rL SGR
GSN 3652 1700 M 0  36 rL SGR
GSN 3652 5300 M 0 -36 rL SGR
GSN 3755 1700 M 0  36 rL SGR
GSN 3755 5300 M 0 -36 rL SGR
GSN 3829 1700 M 0  36 rL SGR
GSN 3829 5300 M 0 -36 rL SGR
GSN 3885 1700 M 0  36 rL SGR
GSN 3885 5300 M 0 -36 rL SGR
GSN 3932 1700 M 0  36 rL SGR
GSN 3932 5300 M 0 -36 rL SGR
GSN 3971 1700 M 0  36 rL SGR
GSN 3971 5300 M 0 -36 rL SGR
GSN 4005 1700 M 0  36 rL SGR
GSN 4005 5300 M 0 -36 rL SGR
GSN 4035 1700 M 0  36 rL SGR
GSN 4035 5300 M 0 -36 rL SGR
%
% Y axis: large tics
%
L10
GSN 620 2358 M 54 0 rL SGR
GSN 4220 2358 M -54 0 rL SGR
helvS (1.05) 560 2358 ylabel
GSN 620 3154 M 54 0 rL SGR
GSN 4220 3154 M -54 0 rL SGR
helvS (1.075) 560 3154 ylabel
GSN 620 3950 M 54 0 rL SGR
GSN 4220 3950 M -54 0 rL SGR
helvS (1.1) 560 3950 ylabel
GSN 620 4745 M 54 0 rL SGR
GSN 4220 4745 M -54 0 rL SGR
helvS (1.125) 560 4745 ylabel
%
% Y axis: small tics
%
L5
GSN 620 1721 M 36 0 rL SGR
GSN 4220 1721 M -36 0 rL SGR
GSN 620 2119 M 36 0 rL SGR
GSN 4220 2119 M -36 0 rL SGR
GSN 620 2517 M 36 0 rL SGR
GSN 4220 2517 M -36 0 rL SGR
GSN 620 2915 M 36 0 rL SGR
GSN 4220 2915 M -36 0 rL SGR
GSN 620 3313 M 36 0 rL SGR
GSN 4220 3313 M -36 0 rL SGR
GSN 620 3711 M 36 0 rL SGR
GSN 4220 3711 M -36 0 rL SGR
GSN 620 4109 M 36 0 rL SGR
GSN 4220 4109 M -36 0 rL SGR
GSN 620 4507 M 36 0 rL SGR
GSN 4220 4507 M -36 0 rL SGR
GSN 620 4904 M 36 0 rL SGR
GSN 4220 4904 M -36 0 rL SGR

%
% X-Axis label:
%
gsave 2420 290 M 
[
[(Helvetica) 180 0 true true 0 (t)]
[(Helvetica) 180 0 true true 0 (i)]
[(Helvetica) 180 0 true true 0 (m)]
[(Helvetica) 180 0 true true 0 (e)]
] 0 MCshow grestore

%
% Y-Axis label:
%
gsave 234 3500 M 
currentpoint gsave translate 90 rotate 0 0 moveto
[
[(Helvetica) 180 0 true true 0 (s)]
[(Helvetica) 180 0 true true 0 (i)]
[(Helvetica) 180 0 true true 0 (g)]
[(Helvetica) 180 0 true true 0 (n)]
[(Helvetica) 180 0 true true 0 (a)]
[(Helvetica) 180 0 true true 0 (l)]
] 0 MCshow grestore

%
% Residuals:
%
gsave 129 1160 M 
currentpoint gsave translate 90 rotate 0 0 moveto
[
[(Helvetica) 150 0 true true 0 (r)]
[(Helvetica) 150 0 true true 0 (e)]
[(Helvetica) 150 0 true true 0 (s)]
[(Helvetica) 150 0 true true 0 (i)]
[(Helvetica) 150 0 true true 0 (d)]
[(Helvetica) 150 0 true true 0 (u)]
[(Helvetica) 150 0 true true 0 (a)]
[(Helvetica) 150 0 true true 0 (l)]
[(Helvetica) 150 0 true true 0 (s)]
] 0 MCshow grestore

%
% Residual frame
%
L10
GSN 
620 620 M
4220 620 L
4220 1700 L
620 1700 L
closepath SGR
%
% X axis: large tics - residual frame
%
L10
GSN 1130 620 M 0  54 rL SGR
GSN 1130 1700 M 0 -54 rL SGR
GSN 1716 620 M 0  54 rL SGR
GSN 1716 1700 M 0 -54 rL SGR
GSN 2303 620 M 0  54 rL SGR
GSN 2303 1700 M 0 -54 rL SGR
GSN 2889 620 M 0  54 rL SGR
GSN 2889 1700 M 0 -54 rL SGR
GSN 3476 620 M 0  54 rL SGR
GSN 3476 1700 M 0 -54 rL SGR
GSN 4062 620 M 0  54 rL SGR
GSN 4062 1700 M 0 -54 rL SGR
%
% X axis: small tics - residual frame
%
L5
GSN 720 620 M 0  36 rL SGR
GSN 720 1700 M 0 -36 rL SGR
GSN 824 620 M 0  36 rL SGR
GSN 824 1700 M 0 -36 rL SGR
GSN 897 620 M 0  36 rL SGR
GSN 897 1700 M 0 -36 rL SGR
GSN 954 620 M 0  36 rL SGR
GSN 954 1700 M 0 -36 rL SGR
GSN 1000 620 M 0  36 rL SGR
GSN 1000 1700 M 0 -36 rL SGR
GSN 1039 620 M 0  36 rL SGR
GSN 1039 1700 M 0 -36 rL SGR
GSN 1073 620 M 0  36 rL SGR
GSN 1073 1700 M 0 -36 rL SGR
GSN 1103 620 M 0  36 rL SGR
GSN 1103 1700 M 0 -36 rL SGR
GSN 1307 620 M 0  36 rL SGR
GSN 1307 1700 M 0 -36 rL SGR
GSN 1410 620 M 0  36 rL SGR
GSN 1410 1700 M 0 -36 rL SGR
GSN 1483 620 M 0  36 rL SGR
GSN 1483 1700 M 0 -36 rL SGR
GSN 1540 620 M 0  36 rL SGR
GSN 1540 1700 M 0 -36 rL SGR
GSN 1586 620 M 0  36 rL SGR
GSN 1586 1700 M 0 -36 rL SGR
GSN 1626 620 M 0  36 rL SGR
GSN 1626 1700 M 0 -36 rL SGR
GSN 1660 620 M 0  36 rL SGR
GSN 1660 1700 M 0 -36 rL SGR
GSN 1690 620 M 0  36 rL SGR
GSN 1690 1700 M 0 -36 rL SGR
GSN 1893 620 M 0  36 rL SGR
GSN 1893 1700 M 0 -36 rL SGR
GSN 1996 620 M 0  36 rL SGR
GSN 1996 1700 M 0 -36 rL SGR
GSN 2069 620 M 0  36 rL SGR
GSN 2069 1700 M 0 -36 rL SGR
GSN 2126 620 M 0  36 rL SGR
GSN 2126 1700 M 0 -36 rL SGR
GSN 2173 620 M 0  36 rL SGR
GSN 2173 1700 M 0 -36 rL SGR
GSN 2212 620 M 0  36 rL SGR
GSN 2212 1700 M 0 -36 rL SGR
GSN 2246 620 M 0  36 rL SGR
GSN 2246 1700 M 0 -36 rL SGR
GSN 2276 620 M 0  36 rL SGR
GSN 2276 1700 M 0 -36 rL SGR
GSN 2479 620 M 0  36 rL SGR
GSN 2479 1700 M 0 -36 rL SGR
GSN 2583 620 M 0  36 rL SGR
GSN 2583 1700 M 0 -36 rL SGR
GSN 2656 620 M 0  36 rL SGR
GSN 2656 1700 M 0 -36 rL SGR
GSN 2713 620 M 0  36 rL SGR
GSN 2713 1700 M 0 -36 rL SGR
GSN 2759 620 M 0  36 rL SGR
GSN 2759 1700 M 0 -36 rL SGR
GSN 2798 620 M 0  36 rL SGR
GSN 2798 1700 M 0 -36 rL SGR
GSN 2832 620 M 0  36 rL SGR
GSN 2832 1700 M 0 -36 rL SGR
GSN 2862 620 M 0  36 rL SGR
GSN 2862 1700 M 0 -36 rL SGR
GSN 3066 620 M 0  36 rL SGR
GSN 3066 1700 M 0 -36 rL SGR
GSN 3169 620 M 0  36 rL SGR
GSN 3169 1700 M 0 -36 rL SGR
GSN 3242 620 M 0  36 rL SGR
GSN 3242 1700 M 0 -36 rL SGR
GSN 3299 620 M 0  36 rL SGR
GSN 3299 1700 M 0 -36 rL SGR
GSN 3345 620 M 0  36 rL SGR
GSN 3345 1700 M 0 -36 rL SGR
GSN 3385 620 M 0  36 rL SGR
GSN 3385 1700 M 0 -36 rL SGR
GSN 3419 620 M 0  36 rL SGR
GSN 3419 1700 M 0 -36 rL SGR
GSN 3449 620 M 0  36 rL SGR
GSN 3449 1700 M 0 -36 rL SGR
GSN 3652 620 M 0  36 rL SGR
GSN 3652 1700 M 0 -36 rL SGR
GSN 3755 620 M 0  36 rL SGR
GSN 3755 1700 M 0 -36 rL SGR
GSN 3829 620 M 0  36 rL SGR
GSN 3829 1700 M 0 -36 rL SGR
GSN 3885 620 M 0  36 rL SGR
GSN 3885 1700 M 0 -36 rL SGR
GSN 3932 620 M 0  36 rL SGR
GSN 3932 1700 M 0 -36 rL SGR
GSN 3971 620 M 0  36 rL SGR
GSN 3971 1700 M 0 -36 rL SGR
GSN 4005 620 M 0  36 rL SGR
GSN 4005 1700 M 0 -36 rL SGR
GSN 4035 620 M 0  36 rL SGR
GSN 4035 1700 M 0 -36 rL SGR
%
% Y axis: large tics - residual frame
%
L10
GSN 620 639 M 54 0 rL SGR
GSN 4220 639 M -54 0 rL SGR
helvS (-0.04) 560 639 ylabelresid
GSN 620 998 M 54 0 rL SGR
GSN 4220 998 M -54 0 rL SGR
helvS (-0.02) 560 998 ylabelresid
GSN 620 1356 M 54 0 rL SGR
GSN 4220 1356 M -54 0 rL SGR
helvS (0) 560 1356 ylabelresid

%
% X axis - residual panel
%
GSN L5 620 1356 M 4220 1356 L SDA G50 SGR

end
showpage
%%Trailer
%%EOF
