%!PS-Adobe-3.0 EPSF-3.0
%%BoundingBox: 0 0 514 550
%%Creator: BioKin Ltd.
%%DocumentFonts: Symbol Helvetica
%%EndComments
%
/bkdict 256 dict def
bkdict begin
/M {moveto} def 
/R {rmoveto} def
/L {lineto} def
/rL {rlineto} def
/GSN {gsave newpath} def
/SGR {stroke grestore} def
/COSGR {gsave setrgbcolor stroke grestore grestore} def
/SL {setlinewidth} def
/LWMB {12} def             % line width - model curves, black & white
/LWMC {10} def             % line width - model curves, color
/L2 {2.5 setlinewidth} def
/L5 {5 setlinewidth} def
/L10 {10 setlinewidth} def
/G50 {0.5 setgray} def
/SDA {[10  20] 0 setdash} def % axes
/helvT {/Helvetica findfont 100 scalefont setfont} def % tiny
/helvS {/Helvetica findfont 125 scalefont setfont} def % small
/helvM {/Helvetica findfont 150 scalefont setfont} def % medium
/helvL {/Helvetica findfont 175 scalefont setfont} def % large
/xlabel {gsave M dup
   stringwidth exch -0.5 mul exch rmoveto show grestore} def 
/ylabel {gsave M 90 rotate dup
   stringwidth exch -0.5 mul exch rmoveto show grestore} def
/ylabelresid {gsave M dup
   stringwidth exch -1 mul exch rmoveto show grestore} def
% ======
% Shapes
% ======
% Circle:
/Circ {0 360 arc closepath} def
%
% Square:
/Squa {dup dup -0.5 mul dup dup R -2 mul 0 exch rL 1 mul 0 rL dup 0 exch -1 mul rL closepath} def
%
% Triangle Up:
/TriU {dup dup dup -0.4 mul exch -0.5 mul exch R dup 0.5 mul exch rL dup -1 mul exch 0.5 mul exch rL closepath} def 
%
% Triangle Down:
/TriD {dup dup dup 0.4 mul exch -0.5 mul exch R dup 0.5 mul exch -1 mul rL dup 0.5 mul exch rL closepath} def 
%
% Diamond:
/Diam {45 rotate Squa} def
% ======
% Fills
% ======
/GRF {gsave setgray fill grestore} def                    % gray-level Fill
/COF {gsave setrgbcolor fill grestore} def                % color fill
% ======
% Colors
% ======
/C01 {1.00	0.00	0.00} def      % Red
/C02 {0.00	0.00	1.00} def      % Blue
/C03 {0.00	0.39	0.00} def      % Dark Green
/C04 {0.78	0.08	0.52} def      % Medium Violet Red
/C05 {0.55	0.27	0.07} def      % Saddle Brown
/C06 {0.10	0.70	0.70} def      % (cyan)
/C07 {1.00	0.55	0.00} def      % Dark Orange
/C08 {0.63	0.13	0.94} def      % Purple
/C09 {0.00	0.75	1.00} def      % Deep Sky Blue
/C10 {0.20	0.80	0.20} def      % Lime Green
/C11 {0.47	0.53	0.60} def      % Light Slate Gray
/C12 {0.00	0.00	0.00} def      % Black            % or: {0.19	0.31	0.31} def      % Dark Slate Gray
%
/LGR {0.75} def % light gray
/DGR {0.33} def % dark gray
%
% =============
% Dash patterns
% =============
/dash01 { [80  20] 0 setdash } def
/dash02 { [40  20] 0 setdash } def
/dash03 { [80  20  10  20] 0 setdash } def
/dash04 { [40  20  10  20] 0 setdash } def
/dash05 { [80  20  10  10  10  20] 0 setdash } def
/dash06 { [40  20  10  10  10  20] 0 setdash } def
/dash07 { [10  10] 0 setdash } def
%
/MFshow {
   { dup 5 get 3 ge
     { 5 get 3 eq {gsave} {grestore} ifelse }
     {dup dup 0 get findfont exch 1 get scalefont setfont
     [ currentpoint ] exch dup 2 get 0 exch R dup 5 get 2 ne {dup dup 6
     get exch 4 get {show} {stringwidth pop 0 R} ifelse }if dup 5 get 0 eq
     {dup 3 get {2 get neg 0 exch R pop} {pop aload pop M} ifelse} {dup 5
     get 1 eq {dup 2 get exch dup 3 get exch 6 get stringwidth pop -2 div
     dup 0 R} {dup 6 get stringwidth pop -2 div 0 R 6 get
     show 2 index {aload pop M neg 3 -1 roll neg R pop pop} {pop pop pop
     pop aload pop M} ifelse }ifelse }ifelse }
     ifelse }
   forall} bind def
/MFwidth {0 exch {dup 3 get{dup dup 0 get findfont exch 1 get scalefont
     setfont 6 get stringwidth pop add} {pop} ifelse} forall} bind def
/MCshow { currentpoint stroke M
  exch dup MFwidth -2 div 3 -1 roll R MFshow } def
%
end
%%EndProlog
bkdict begin
0.1 0.1 scale
%
% Model curves:
%

GSN 753 5166 M
753 5166 L
786 4733 L
820 4342 L
853 3996 L
886 3695 L
903 3562 L
919 3442 L
953 3233 L
986 3068 L
1020 2942 L
1053 2852 L
1053 2851 L
1086 2790 L
1120 2752 L
1153 2730 L
1186 2719 L
1203 2716 L
1220 2714 L
1253 2712 L
1286 2711 L
1320 2711 L
1353 2711 L
1353 2711 L
1386 2711 L
1420 2711 L
1453 2711 L
1486 2711 L
1503 2711 L
1520 2711 L
1553 2711 L
1586 2711 L
1620 2711 L
1653 2711 L
1653 2711 L
1686 2711 L
1720 2711 L
1753 2711 L
1786 2711 L
1804 2711 L
1820 2711 L
1853 2711 L
1886 2711 L
1920 2711 L
1953 2711 L
1954 2711 L
1986 2711 L
2020 2711 L
2053 2711 L
2086 2711 L
2104 2711 L
2120 2711 L
2153 2711 L
2186 2711 L
2220 2711 L
2253 2711 L
2254 2711 L
2286 2711 L
2320 2711 L
2353 2711 L
2386 2711 L
2404 2711 L
2420 2711 L
2453 2711 L
2486 2711 L
2520 2711 L
2553 2711 L
2554 2711 L
2586 2711 L
2620 2711 L
2653 2711 L
2686 2711 L
2704 2710 L
2720 2710 L
2753 2710 L
2786 2710 L
2820 2710 L
2853 2710 L
2854 2710 L
2886 2710 L
2920 2710 L
2953 2710 L
2986 2709 L
3004 2709 L
3020 2709 L
3053 2709 L
3068 2709 L
3086 2708 L
3120 2708 L
3153 2707 L
3155 2707 L
3186 2707 L
3220 2706 L
3253 2705 L
3286 2704 L
3305 2704 L
3320 2703 L
3353 2702 L
3386 2701 L
3420 2699 L
3453 2697 L
3455 2697 L
3486 2695 L
3520 2692 L
3553 2689 L
3586 2685 L
3605 2683 L
3620 2681 L
3653 2676 L
3686 2670 L
3720 2663 L
3753 2655 L
3755 2654 L
3786 2646 L
3820 2635 L
3853 2622 L
3886 2608 L
3905 2598 L
3920 2591 L
3953 2571 L
3986 2548 L
4020 2521 L
4053 2490 L
4086 2454 L
LWMC SL  C03 COSGR

%
% Experimental data:
%
GSN 773 4893 M
1625 4688 L
1773 4762 L
1860 5120 L
1922 5056 L
1970 4839 L
2009 4775 L
2043 4649 L
2072 4621 L
2097 4591 L
2120 4492 L
2140 4628 L
2159 4382 L
2176 4510 L
2192 4488 L
2207 4342 L
2221 4287 L
2234 4309 L
2247 4200 L
2259 4275 L
2270 4176 L
2280 4155 L
2290 4215 L
2300 4244 L
2309 3945 L
2318 4083 L
2326 4275 L
2335 4037 L
2342 4055 L
2350 3995 L
2357 3935 L
2364 3918 L
2371 3775 L
2378 3990 L
2384 3904 L
2391 3851 L
2397 3702 L
2403 3901 L
2409 3863 L
2414 3668 L
2420 3684 L
2425 3679 L
2430 3700 L
2435 3504 L
2440 3441 L
2445 3709 L
2450 3533 L
2455 3411 L
2459 3446 L
2464 3571 L
2468 3243 L
2472 3291 L
2476 3427 L
2481 3474 L
2485 3289 L
2489 3450 L
2492 3430 L
2496 3354 L
2500 3180 L
2504 3408 L
2507 3517 L
2511 3375 L
2514 3124 L
2518 3008 L
2521 3235 L
2525 3133 L
2528 3118 L
2531 3159 L
2534 3203 L
2538 2963 L
2541 3351 L
2544 3097 L
2547 3048 L
2550 3023 L
2553 3152 L
2556 2880 L
2559 3269 L
2561 3126 L
2564 3205 L
2567 2944 L
2570 3033 L
2580 2921 L
2590 2884 L
2600 2784 L
2609 2714 L
2618 2694 L
2627 2699 L
2635 2823 L
2643 2542 L
2650 2555 L
2658 2749 L
2665 2557 L
2672 2574 L
2678 2503 L
2685 2475 L
2691 2510 L
2697 2191 L
2703 2451 L
2709 2369 L
2714 2311 L
2720 2361 L
2725 2305 L
2730 2072 L
2735 2172 L
2740 2424 L
2745 2144 L
2750 2265 L
2755 2403 L
2759 2163 L
2764 2189 L
2768 2023 L
2772 1962 L
2777 2060 L
2781 2010 L
2785 2050 L
2789 2021 L
2793 2084 L
2796 2022 L
2800 2014 L
2804 2131 L
2808 1916 L
2811 2002 L
2815 2027 L
2818 2003 L
2822 1890 L
2825 1961 L
2828 2168 L
2831 2007 L
2835 2049 L
2838 1889 L
2841 2075 L
2844 2053 L
2847 1931 L
2850 1848 L
2853 2322 L
2856 2050 L
2859 1914 L
2862 1833 L
2864 2035 L
2867 2133 L
2870 1920 L
2873 1972 L
2875 2239 L
2878 2040 L
2880 2080 L
2883 2134 L
2886 2009 L
2888 2155 L
2891 1920 L
2893 1997 L
2895 2152 L
2898 2087 L
2900 2123 L
2902 1994 L
2905 2161 L
2907 2293 L
2909 2037 L
2912 2230 L
2914 1992 L
2916 2035 L
2918 2173 L
2920 1958 L
2922 2214 L
2925 2260 L
2927 2133 L
2929 2138 L
2931 2058 L
2933 2229 L
2935 2157 L
2937 1901 L
2939 2066 L
2941 2292 L
2943 2178 L
2945 2019 L
2947 2028 L
2948 2208 L
2950 2246 L
2952 1994 L
2954 2210 L
2956 2045 L
2958 2131 L
2959 2140 L
2961 1954 L
2963 2336 L
2965 2144 L
2966 2159 L
2968 2474 L
2970 2292 L
2972 2338 L
2973 2343 L
2975 2335 L
2977 2166 L
2978 2203 L
2980 2230 L
2982 1910 L
2983 2119 L
2985 2314 L
2986 2327 L
2988 2121 L
2989 2137 L
2991 2335 L
2993 2223 L
2994 2281 L
2996 2403 L
2997 2192 L
2999 2299 L
3000 2218 L
3002 2263 L
3003 2221 L
3005 2381 L
3006 2427 L
3007 2415 L
3009 2242 L
3010 2307 L
3012 2183 L
3013 2427 L
3014 2217 L
3016 2320 L
3017 2471 L
3019 2324 L
3020 2379 L
3021 2411 L
3023 2303 L
3024 2247 L
3025 2315 L
3027 2480 L
3028 2440 L
3029 2377 L
3031 2484 L
3032 2365 L
3033 2221 L
3034 2371 L
3036 2273 L
3037 2420 L
3038 2348 L
3039 2418 L
3041 2443 L
3042 2530 L
3043 2370 L
3044 2409 L
3045 2493 L
3047 2332 L
3048 2490 L
3049 2408 L
3050 2420 L
3051 2270 L
3053 2194 L
3054 2601 L
3055 2556 L
3056 2530 L
3057 2492 L
3058 2331 L
3059 2570 L
3061 2325 L
3062 2500 L
3063 2541 L
3064 2589 L
3065 2640 L
3066 2521 L
3067 2469 L
3068 2477 L
3069 2371 L
3070 2525 L
3071 2516 L
3073 2583 L
3074 2533 L
3075 2636 L
3076 2364 L
3077 2607 L
3078 2373 L
3079 2648 L
3080 2335 L
3081 2397 L
3082 2330 L
3083 2614 L
3084 2386 L
3085 2585 L
3086 2314 L
3087 2549 L
3088 2674 L
3089 2534 L
3112 2754 L
3133 2754 L
3152 2826 L
3170 2675 L
3186 2643 L
3201 2895 L
3216 2857 L
3229 2525 L
3241 2746 L
3253 2785 L
3264 2754 L
3275 2869 L
3285 2984 L
3295 2841 L
3304 2859 L
3313 2867 L
3322 2897 L
3330 2888 L
3338 2931 L
3346 2872 L
3353 2672 L
3360 2697 L
3367 2737 L
3374 2763 L
3380 2999 L
3387 2816 L
3393 2950 L
3399 2869 L
3405 3031 L
3410 2979 L
3416 2862 L
3421 3018 L
3426 2811 L
3431 3033 L
3436 2808 L
3441 3040 L
3446 2835 L
3451 2967 L
3455 2974 L
3460 2803 L
3464 2833 L
3469 2856 L
3473 2838 L
3477 2935 L
3481 2749 L
3485 3019 L
3489 2793 L
3493 2648 L
3496 2891 L
3500 2567 L
3504 2810 L
3507 2753 L
3511 2801 L
3514 2629 L
3518 3062 L
3521 2578 L
3525 2765 L
3528 2815 L
3531 2891 L
3534 2709 L
3537 2790 L
3540 2845 L
3543 2850 L
3546 2875 L
3549 2853 L
3552 2811 L
3555 2762 L
3558 2551 L
3561 2511 L
3564 2866 L
3566 2845 L
3575 2746 L
3586 2627 L
3595 2715 L
3605 2822 L
3613 2794 L
3622 2796 L
3630 2760 L
3638 2816 L
3646 2743 L
3653 2826 L
3660 2663 L
3667 2490 L
3674 2663 L
3681 2691 L
3687 2811 L
3693 2687 L
3699 2656 L
3705 2813 L
3710 2997 L
3716 2616 L
3721 2704 L
3727 2742 L
3732 2771 L
3737 2650 L
3742 2568 L
3746 2523 L
3751 2613 L
3756 2893 L
3760 2822 L
3764 2568 L
3769 2647 L
3773 2608 L
3777 2578 L
3781 2474 L
3785 2748 L
3789 2507 L
3793 2574 L
3797 2727 L
3800 2813 L
3804 2451 L
3808 2641 L
3811 2684 L
3815 2540 L
3818 2482 L
3821 2642 L
3825 2602 L
3828 2403 L
3831 2585 L
3834 2484 L
3838 2694 L
3841 2745 L
3844 2506 L
3847 2407 L
3850 2753 L
3853 2392 L
3855 2520 L
3858 2694 L
3861 2615 L
3864 2537 L
3867 2557 L
3869 2538 L
3872 2563 L
3875 2686 L
3877 2489 L
3880 2440 L
3882 2500 L
3885 2568 L
3887 2648 L
3890 2388 L
3892 2565 L
3895 2465 L
3897 2539 L
3899 2511 L
3902 2544 L
3904 2546 L
3906 2354 L
3908 2761 L
3911 2523 L
3913 2552 L
3915 2553 L
3917 2237 L
3919 2569 L
3921 2431 L
3923 2650 L
3926 2477 L
3928 2582 L
3930 2559 L
3932 2609 L
3934 2563 L
3936 2566 L
3938 2582 L
3940 2422 L
3942 2571 L
3943 2378 L
3945 2445 L
3947 2656 L
3949 2455 L
3951 2575 L
3953 2601 L
3955 2613 L
3956 2431 L
3958 2324 L
3960 2425 L
3962 2317 L
3963 2540 L
3965 2544 L
3967 2452 L
3969 2421 L
3970 2404 L
3972 2389 L
3974 2440 L
3975 2527 L
3977 2479 L
3978 2275 L
3980 2467 L
3982 2513 L
3983 2433 L
3985 2232 L
3986 2350 L
3988 2635 L
3990 2524 L
3991 2481 L
3993 2302 L
3994 2287 L
3996 2374 L
3997 2331 L
3999 2511 L
4000 2318 L
4001 2277 L
4003 2476 L
4004 2445 L
4006 2450 L
4007 2650 L
4009 2317 L
4010 2526 L
4011 2440 L
4013 2240 L
4014 2289 L
4016 2429 L
4017 2483 L
4018 2383 L
4020 2386 L
4021 2470 L
4022 2484 L
4024 2661 L
4025 2564 L
4026 2630 L
4028 2346 L
4029 2385 L
4030 2494 L
4031 2512 L
4033 2384 L
4034 2433 L
4035 2344 L
4036 2547 L
4038 2379 L
4039 2418 L
4040 2576 L
4041 2614 L
4042 2433 L
4044 2491 L
4045 2521 L
4046 2490 L
4047 2299 L
4048 2473 L
4050 2560 L
4051 2356 L
4052 2450 L
4053 2431 L
4054 2473 L
4055 2292 L
4056 2469 L
4058 2496 L
4059 2603 L
4060 2374 L
4061 2495 L
4062 2329 L
4063 2507 L
4064 2418 L
4065 2480 L
4066 2462 L
L2 C03 COSGR

%
%================
% Legend - Begin
%================
%
GSN 4240 5180 M
4480 5180 L
LWMC SL  C03 COSGR
GSN 4540 5141 M helvM (1.5 uM) show grestore
%
%================
% Legend - End
%================
%

%
% Residuals:
%
GSN 773 969 M
1625 1461 L
1773 1480 L
1860 1569 L
1922 1553 L
1970 1499 L
2009 1483 L
2043 1451 L
2072 1444 L
2097 1437 L
2120 1412 L
2140 1446 L
2159 1385 L
2176 1417 L
2192 1411 L
2207 1375 L
2221 1361 L
2234 1367 L
2247 1340 L
2259 1358 L
2270 1334 L
2280 1328 L
2290 1343 L
2300 1350 L
2309 1276 L
2318 1311 L
2326 1358 L
2335 1299 L
2342 1303 L
2350 1289 L
2357 1274 L
2364 1269 L
2371 1234 L
2378 1287 L
2384 1266 L
2391 1253 L
2397 1216 L
2403 1265 L
2409 1256 L
2414 1207 L
2420 1211 L
2425 1210 L
2430 1215 L
2435 1166 L
2440 1151 L
2445 1217 L
2450 1173 L
2455 1143 L
2459 1152 L
2464 1183 L
2468 1101 L
2472 1113 L
2476 1147 L
2481 1159 L
2485 1113 L
2489 1153 L
2492 1148 L
2496 1129 L
2500 1086 L
2504 1143 L
2507 1170 L
2511 1134 L
2514 1072 L
2518 1043 L
2521 1099 L
2525 1074 L
2528 1070 L
2531 1080 L
2534 1091 L
2538 1032 L
2541 1128 L
2544 1065 L
2547 1053 L
2550 1047 L
2553 1079 L
2556 1011 L
2559 1108 L
2561 1072 L
2564 1092 L
2567 1027 L
2570 1049 L
2580 1021 L
2590 1012 L
2600 987 L
2609 970 L
2618 965 L
2627 966 L
2635 997 L
2643 927 L
2650 930 L
2658 979 L
2665 931 L
2672 935 L
2678 917 L
2685 910 L
2691 919 L
2697 839 L
2703 904 L
2709 884 L
2714 869 L
2720 882 L
2725 868 L
2730 810 L
2735 835 L
2740 898 L
2745 828 L
2750 858 L
2755 892 L
2759 832 L
2764 839 L
2768 798 L
2772 783 L
2777 807 L
2781 794 L
2785 804 L
2789 797 L
2793 813 L
2796 798 L
2800 795 L
2804 825 L
2808 771 L
2811 792 L
2815 799 L
2818 793 L
2822 765 L
2825 782 L
2828 834 L
2831 794 L
2835 804 L
2838 764 L
2841 811 L
2844 805 L
2847 775 L
2850 754 L
2853 872 L
2856 805 L
2859 771 L
2862 750 L
2864 801 L
2867 825 L
2870 772 L
2873 785 L
2875 852 L
2878 802 L
2880 812 L
2883 825 L
2886 794 L
2888 831 L
2891 772 L
2893 791 L
2895 830 L
2898 814 L
2900 823 L
2902 791 L
2905 832 L
2907 865 L
2909 801 L
2912 849 L
2914 790 L
2916 801 L
2918 835 L
2920 782 L
2922 845 L
2925 857 L
2927 825 L
2929 826 L
2931 806 L
2933 849 L
2935 831 L
2937 767 L
2939 809 L
2941 865 L
2943 836 L
2945 797 L
2947 799 L
2948 844 L
2950 853 L
2952 791 L
2954 844 L
2956 803 L
2958 825 L
2959 827 L
2961 781 L
2963 876 L
2965 828 L
2966 832 L
2968 910 L
2970 865 L
2972 876 L
2973 878 L
2975 875 L
2977 834 L
2978 843 L
2980 849 L
2982 770 L
2983 822 L
2985 870 L
2986 874 L
2988 822 L
2989 826 L
2991 876 L
2993 848 L
2994 862 L
2996 893 L
2997 840 L
2999 867 L
3000 847 L
3002 858 L
3003 847 L
3005 887 L
3006 899 L
3007 896 L
3009 853 L
3010 869 L
3012 838 L
3013 899 L
3014 846 L
3016 872 L
3017 910 L
3019 873 L
3020 887 L
3021 895 L
3023 868 L
3024 854 L
3025 871 L
3027 912 L
3028 902 L
3029 886 L
3031 913 L
3032 883 L
3033 847 L
3034 885 L
3036 860 L
3037 897 L
3038 879 L
3039 896 L
3041 903 L
3042 924 L
3043 884 L
3044 894 L
3045 915 L
3047 875 L
3048 914 L
3049 894 L
3050 897 L
3051 859 L
3053 841 L
3054 942 L
3055 931 L
3056 924 L
3057 915 L
3058 875 L
3059 934 L
3061 873 L
3062 917 L
3063 927 L
3064 939 L
3065 952 L
3066 922 L
3067 909 L
3068 911 L
3069 885 L
3070 923 L
3071 921 L
3073 937 L
3074 925 L
3075 951 L
3076 883 L
3077 944 L
3078 885 L
3079 954 L
3080 876 L
3081 891 L
3082 875 L
3083 945 L
3084 888 L
3085 938 L
3086 871 L
3087 929 L
3088 960 L
3089 925 L
3112 980 L
3133 980 L
3152 998 L
3170 961 L
3186 953 L
3201 1016 L
3216 1006 L
3229 924 L
3241 979 L
3253 989 L
3264 981 L
3275 1010 L
3285 1039 L
3295 1003 L
3304 1007 L
3313 1009 L
3322 1017 L
3330 1015 L
3338 1026 L
3346 1011 L
3353 961 L
3360 968 L
3367 978 L
3374 984 L
3380 1043 L
3387 997 L
3393 1031 L
3399 1011 L
3405 1051 L
3410 1038 L
3416 1009 L
3421 1048 L
3426 997 L
3431 1052 L
3436 996 L
3441 1054 L
3446 1003 L
3451 1036 L
3455 1038 L
3460 995 L
3464 1003 L
3469 1009 L
3473 1004 L
3477 1029 L
3481 982 L
3485 1049 L
3489 993 L
3493 957 L
3496 1018 L
3500 937 L
3504 998 L
3507 984 L
3511 996 L
3514 953 L
3518 1061 L
3521 940 L
3525 987 L
3528 1000 L
3531 1019 L
3534 973 L
3537 994 L
3540 1007 L
3543 1009 L
3546 1015 L
3549 1010 L
3552 999 L
3555 987 L
3558 935 L
3561 925 L
3564 1013 L
3566 1008 L
3575 984 L
3586 954 L
3595 976 L
3605 1003 L
3613 997 L
3622 998 L
3630 989 L
3638 1003 L
3646 985 L
3653 1006 L
3660 966 L
3667 923 L
3674 966 L
3681 974 L
3687 1004 L
3693 973 L
3699 966 L
3705 1005 L
3710 1052 L
3716 957 L
3721 979 L
3727 989 L
3732 996 L
3737 967 L
3742 946 L
3746 935 L
3751 958 L
3756 1028 L
3760 1011 L
3764 948 L
3769 968 L
3773 958 L
3777 951 L
3781 926 L
3785 994 L
3789 934 L
3793 951 L
3797 990 L
3800 1012 L
3804 922 L
3808 969 L
3811 980 L
3815 945 L
3818 931 L
3821 971 L
3825 961 L
3828 912 L
3831 958 L
3834 933 L
3838 985 L
3841 998 L
3844 939 L
3847 915 L
3850 1001 L
3853 911 L
3855 944 L
3858 987 L
3861 968 L
3864 949 L
3867 954 L
3869 950 L
3872 956 L
3875 987 L
3877 938 L
3880 926 L
3882 941 L
3885 959 L
3887 979 L
3890 915 L
3892 959 L
3895 934 L
3897 953 L
3899 946 L
3902 955 L
3904 956 L
3906 908 L
3908 1010 L
3911 951 L
3913 958 L
3915 959 L
3917 880 L
3919 963 L
3921 929 L
3923 984 L
3926 941 L
3928 968 L
3930 962 L
3932 975 L
3934 964 L
3936 965 L
3938 969 L
3940 930 L
3942 967 L
3943 919 L
3945 936 L
3947 989 L
3949 939 L
3951 970 L
3953 976 L
3955 979 L
3956 935 L
3958 908 L
3960 934 L
3962 907 L
3963 963 L
3965 964 L
3967 942 L
3969 934 L
3970 930 L
3972 927 L
3974 940 L
3975 962 L
3977 950 L
3978 899 L
3980 948 L
3982 959 L
3983 940 L
3985 890 L
3986 920 L
3988 991 L
3990 963 L
3991 953 L
3993 909 L
3994 905 L
3996 927 L
3997 917 L
3999 962 L
4000 914 L
4001 904 L
4003 954 L
4004 947 L
4006 948 L
4007 998 L
4009 916 L
4010 968 L
4011 947 L
4013 897 L
4014 910 L
4016 945 L
4017 959 L
4018 934 L
4020 935 L
4021 956 L
4022 960 L
4024 1005 L
4025 981 L
4026 997 L
4028 927 L
4029 937 L
4030 964 L
4031 969 L
4033 938 L
4034 950 L
4035 928 L
4036 979 L
4038 938 L
4039 948 L
4040 987 L
4041 997 L
4042 952 L
4044 967 L
4045 975 L
4046 967 L
4047 920 L
4048 964 L
4050 985 L
4051 935 L
4052 958 L
4053 954 L
4054 965 L
4055 920 L
4056 965 L
4058 972 L
4059 998 L
4060 942 L
4061 972 L
4062 931 L
4063 976 L
4064 954 L
4065 970 L
4066 965 L
L2 C03 COSGR

%
% Main frame
%
L10
GSN 
620 1700 M
4220 1700 L
4220 5300 L
620 5300 L
closepath SGR

%
% X axis: large tics
%
L10
GSN 1074 1700 M 0  54 rL SGR
GSN 1074 5300 M 0 -54 rL SGR
helvS (0.0001) 1074 470 xlabel
GSN 1572 1700 M 0  54 rL SGR
GSN 1572 5300 M 0 -54 rL SGR
helvS (0.001) 1572 470 xlabel
GSN 2071 1700 M 0  54 rL SGR
GSN 2071 5300 M 0 -54 rL SGR
helvS (0.01) 2071 470 xlabel
GSN 2570 1700 M 0  54 rL SGR
GSN 2570 5300 M 0 -54 rL SGR
helvS (0.1) 2570 470 xlabel
GSN 3068 1700 M 0  54 rL SGR
GSN 3068 5300 M 0 -54 rL SGR
helvS (1) 3068 470 xlabel
GSN 3567 1700 M 0  54 rL SGR
GSN 3567 5300 M 0 -54 rL SGR
helvS (10) 3567 470 xlabel
GSN 4066 1700 M 0  54 rL SGR
GSN 4066 5300 M 0 -54 rL SGR
helvS (100) 4066 470 xlabel
%
% X axis: small tics
%
L5
GSN 725 1700 M 0  36 rL SGR
GSN 725 5300 M 0 -36 rL SGR
GSN 813 1700 M 0  36 rL SGR
GSN 813 5300 M 0 -36 rL SGR
GSN 875 1700 M 0  36 rL SGR
GSN 875 5300 M 0 -36 rL SGR
GSN 924 1700 M 0  36 rL SGR
GSN 924 5300 M 0 -36 rL SGR
GSN 963 1700 M 0  36 rL SGR
GSN 963 5300 M 0 -36 rL SGR
GSN 996 1700 M 0  36 rL SGR
GSN 996 5300 M 0 -36 rL SGR
GSN 1025 1700 M 0  36 rL SGR
GSN 1025 5300 M 0 -36 rL SGR
GSN 1051 1700 M 0  36 rL SGR
GSN 1051 5300 M 0 -36 rL SGR
GSN 1224 1700 M 0  36 rL SGR
GSN 1224 5300 M 0 -36 rL SGR
GSN 1312 1700 M 0  36 rL SGR
GSN 1312 5300 M 0 -36 rL SGR
GSN 1374 1700 M 0  36 rL SGR
GSN 1374 5300 M 0 -36 rL SGR
GSN 1422 1700 M 0  36 rL SGR
GSN 1422 5300 M 0 -36 rL SGR
GSN 1462 1700 M 0  36 rL SGR
GSN 1462 5300 M 0 -36 rL SGR
GSN 1495 1700 M 0  36 rL SGR
GSN 1495 5300 M 0 -36 rL SGR
GSN 1524 1700 M 0  36 rL SGR
GSN 1524 5300 M 0 -36 rL SGR
GSN 1550 1700 M 0  36 rL SGR
GSN 1550 5300 M 0 -36 rL SGR
GSN 1722 1700 M 0  36 rL SGR
GSN 1722 5300 M 0 -36 rL SGR
GSN 1810 1700 M 0  36 rL SGR
GSN 1810 5300 M 0 -36 rL SGR
GSN 1873 1700 M 0  36 rL SGR
GSN 1873 5300 M 0 -36 rL SGR
GSN 1921 1700 M 0  36 rL SGR
GSN 1921 5300 M 0 -36 rL SGR
GSN 1960 1700 M 0  36 rL SGR
GSN 1960 5300 M 0 -36 rL SGR
GSN 1994 1700 M 0  36 rL SGR
GSN 1994 5300 M 0 -36 rL SGR
GSN 2023 1700 M 0  36 rL SGR
GSN 2023 5300 M 0 -36 rL SGR
GSN 2048 1700 M 0  36 rL SGR
GSN 2048 5300 M 0 -36 rL SGR
GSN 2221 1700 M 0  36 rL SGR
GSN 2221 5300 M 0 -36 rL SGR
GSN 2309 1700 M 0  36 rL SGR
GSN 2309 5300 M 0 -36 rL SGR
GSN 2371 1700 M 0  36 rL SGR
GSN 2371 5300 M 0 -36 rL SGR
GSN 2420 1700 M 0  36 rL SGR
GSN 2420 5300 M 0 -36 rL SGR
GSN 2459 1700 M 0  36 rL SGR
GSN 2459 5300 M 0 -36 rL SGR
GSN 2492 1700 M 0  36 rL SGR
GSN 2492 5300 M 0 -36 rL SGR
GSN 2521 1700 M 0  36 rL SGR
GSN 2521 5300 M 0 -36 rL SGR
GSN 2547 1700 M 0  36 rL SGR
GSN 2547 5300 M 0 -36 rL SGR
GSN 2720 1700 M 0  36 rL SGR
GSN 2720 5300 M 0 -36 rL SGR
GSN 2808 1700 M 0  36 rL SGR
GSN 2808 5300 M 0 -36 rL SGR
GSN 2870 1700 M 0  36 rL SGR
GSN 2870 5300 M 0 -36 rL SGR
GSN 2918 1700 M 0  36 rL SGR
GSN 2918 5300 M 0 -36 rL SGR
GSN 2958 1700 M 0  36 rL SGR
GSN 2958 5300 M 0 -36 rL SGR
GSN 2991 1700 M 0  36 rL SGR
GSN 2991 5300 M 0 -36 rL SGR
GSN 3020 1700 M 0  36 rL SGR
GSN 3020 5300 M 0 -36 rL SGR
GSN 3045 1700 M 0  36 rL SGR
GSN 3045 5300 M 0 -36 rL SGR
GSN 3218 1700 M 0  36 rL SGR
GSN 3218 5300 M 0 -36 rL SGR
GSN 3306 1700 M 0  36 rL SGR
GSN 3306 5300 M 0 -36 rL SGR
GSN 3368 1700 M 0  36 rL SGR
GSN 3368 5300 M 0 -36 rL SGR
GSN 3417 1700 M 0  36 rL SGR
GSN 3417 5300 M 0 -36 rL SGR
GSN 3456 1700 M 0  36 rL SGR
GSN 3456 5300 M 0 -36 rL SGR
GSN 3490 1700 M 0  36 rL SGR
GSN 3490 5300 M 0 -36 rL SGR
GSN 3519 1700 M 0  36 rL SGR
GSN 3519 5300 M 0 -36 rL SGR
GSN 3544 1700 M 0  36 rL SGR
GSN 3544 5300 M 0 -36 rL SGR
GSN 3717 1700 M 0  36 rL SGR
GSN 3717 5300 M 0 -36 rL SGR
GSN 3805 1700 M 0  36 rL SGR
GSN 3805 5300 M 0 -36 rL SGR
GSN 3867 1700 M 0  36 rL SGR
GSN 3867 5300 M 0 -36 rL SGR
GSN 3915 1700 M 0  36 rL SGR
GSN 3915 5300 M 0 -36 rL SGR
GSN 3955 1700 M 0  36 rL SGR
GSN 3955 5300 M 0 -36 rL SGR
GSN 3988 1700 M 0  36 rL SGR
GSN 3988 5300 M 0 -36 rL SGR
GSN 4017 1700 M 0  36 rL SGR
GSN 4017 5300 M 0 -36 rL SGR
GSN 4043 1700 M 0  36 rL SGR
GSN 4043 5300 M 0 -36 rL SGR
GSN 4216 1700 M 0  36 rL SGR
GSN 4216 5300 M 0 -36 rL SGR
%
% Y axis: large tics
%
L10
GSN 620 2066 M 54 0 rL SGR
GSN 4220 2066 M -54 0 rL SGR
helvS (1.04) 560 2066 ylabel
GSN 620 2957 M 54 0 rL SGR
GSN 4220 2957 M -54 0 rL SGR
helvS (1.06) 560 2957 ylabel
GSN 620 3847 M 54 0 rL SGR
GSN 4220 3847 M -54 0 rL SGR
helvS (1.08) 560 3847 ylabel
GSN 620 4737 M 54 0 rL SGR
GSN 4220 4737 M -54 0 rL SGR
helvS (1.1) 560 4737 ylabel
%
% Y axis: small tics
%
L5
GSN 620 1844 M 36 0 rL SGR
GSN 4220 1844 M -36 0 rL SGR
GSN 620 2066 M 36 0 rL SGR
GSN 4220 2066 M -36 0 rL SGR
GSN 620 2289 M 36 0 rL SGR
GSN 4220 2289 M -36 0 rL SGR
GSN 620 2511 M 36 0 rL SGR
GSN 4220 2511 M -36 0 rL SGR
GSN 620 2734 M 36 0 rL SGR
GSN 4220 2734 M -36 0 rL SGR
GSN 620 2957 M 36 0 rL SGR
GSN 4220 2957 M -36 0 rL SGR
GSN 620 3179 M 36 0 rL SGR
GSN 4220 3179 M -36 0 rL SGR
GSN 620 3402 M 36 0 rL SGR
GSN 4220 3402 M -36 0 rL SGR
GSN 620 3624 M 36 0 rL SGR
GSN 4220 3624 M -36 0 rL SGR
GSN 620 3847 M 36 0 rL SGR
GSN 4220 3847 M -36 0 rL SGR
GSN 620 4069 M 36 0 rL SGR
GSN 4220 4069 M -36 0 rL SGR
GSN 620 4292 M 36 0 rL SGR
GSN 4220 4292 M -36 0 rL SGR
GSN 620 4514 M 36 0 rL SGR
GSN 4220 4514 M -36 0 rL SGR
GSN 620 4737 M 36 0 rL SGR
GSN 4220 4737 M -36 0 rL SGR
GSN 620 4959 M 36 0 rL SGR
GSN 4220 4959 M -36 0 rL SGR
GSN 620 5182 M 36 0 rL SGR
GSN 4220 5182 M -36 0 rL SGR

%
% X-Axis label:
%
gsave 2420 290 M 
[
[(Helvetica) 180 0 true true 0 (t)]
[(Helvetica) 180 0 true true 0 (i)]
[(Helvetica) 180 0 true true 0 (m)]
[(Helvetica) 180 0 true true 0 (e)]
] 0 MCshow grestore

%
% Y-Axis label:
%
gsave 234 3500 M 
currentpoint gsave translate 90 rotate 0 0 moveto
[
[(Helvetica) 180 0 true true 0 (s)]
[(Helvetica) 180 0 true true 0 (i)]
[(Helvetica) 180 0 true true 0 (g)]
[(Helvetica) 180 0 true true 0 (n)]
[(Helvetica) 180 0 true true 0 (a)]
[(Helvetica) 180 0 true true 0 (l)]
] 0 MCshow grestore

%
% Residuals:
%
gsave 129 1160 M 
currentpoint gsave translate 90 rotate 0 0 moveto
[
[(Helvetica) 150 0 true true 0 (r)]
[(Helvetica) 150 0 true true 0 (e)]
[(Helvetica) 150 0 true true 0 (s)]
[(Helvetica) 150 0 true true 0 (i)]
[(Helvetica) 150 0 true true 0 (d)]
[(Helvetica) 150 0 true true 0 (u)]
[(Helvetica) 150 0 true true 0 (a)]
[(Helvetica) 150 0 true true 0 (l)]
[(Helvetica) 150 0 true true 0 (s)]
] 0 MCshow grestore

%
% Residual frame
%
L10
GSN 
620 620 M
4220 620 L
4220 1700 L
620 1700 L
closepath SGR
%
% X axis: large tics - residual frame
%
L10
GSN 1074 620 M 0  54 rL SGR
GSN 1074 1700 M 0 -54 rL SGR
GSN 1572 620 M 0  54 rL SGR
GSN 1572 1700 M 0 -54 rL SGR
GSN 2071 620 M 0  54 rL SGR
GSN 2071 1700 M 0 -54 rL SGR
GSN 2570 620 M 0  54 rL SGR
GSN 2570 1700 M 0 -54 rL SGR
GSN 3068 620 M 0  54 rL SGR
GSN 3068 1700 M 0 -54 rL SGR
GSN 3567 620 M 0  54 rL SGR
GSN 3567 1700 M 0 -54 rL SGR
GSN 4066 620 M 0  54 rL SGR
GSN 4066 1700 M 0 -54 rL SGR
%
% X axis: small tics - residual frame
%
L5
GSN 725 620 M 0  36 rL SGR
GSN 725 1700 M 0 -36 rL SGR
GSN 813 620 M 0  36 rL SGR
GSN 813 1700 M 0 -36 rL SGR
GSN 875 620 M 0  36 rL SGR
GSN 875 1700 M 0 -36 rL SGR
GSN 924 620 M 0  36 rL SGR
GSN 924 1700 M 0 -36 rL SGR
GSN 963 620 M 0  36 rL SGR
GSN 963 1700 M 0 -36 rL SGR
GSN 996 620 M 0  36 rL SGR
GSN 996 1700 M 0 -36 rL SGR
GSN 1025 620 M 0  36 rL SGR
GSN 1025 1700 M 0 -36 rL SGR
GSN 1051 620 M 0  36 rL SGR
GSN 1051 1700 M 0 -36 rL SGR
GSN 1224 620 M 0  36 rL SGR
GSN 1224 1700 M 0 -36 rL SGR
GSN 1312 620 M 0  36 rL SGR
GSN 1312 1700 M 0 -36 rL SGR
GSN 1374 620 M 0  36 rL SGR
GSN 1374 1700 M 0 -36 rL SGR
GSN 1422 620 M 0  36 rL SGR
GSN 1422 1700 M 0 -36 rL SGR
GSN 1462 620 M 0  36 rL SGR
GSN 1462 1700 M 0 -36 rL SGR
GSN 1495 620 M 0  36 rL SGR
GSN 1495 1700 M 0 -36 rL SGR
GSN 1524 620 M 0  36 rL SGR
GSN 1524 1700 M 0 -36 rL SGR
GSN 1550 620 M 0  36 rL SGR
GSN 1550 1700 M 0 -36 rL SGR
GSN 1722 620 M 0  36 rL SGR
GSN 1722 1700 M 0 -36 rL SGR
GSN 1810 620 M 0  36 rL SGR
GSN 1810 1700 M 0 -36 rL SGR
GSN 1873 620 M 0  36 rL SGR
GSN 1873 1700 M 0 -36 rL SGR
GSN 1921 620 M 0  36 rL SGR
GSN 1921 1700 M 0 -36 rL SGR
GSN 1960 620 M 0  36 rL SGR
GSN 1960 1700 M 0 -36 rL SGR
GSN 1994 620 M 0  36 rL SGR
GSN 1994 1700 M 0 -36 rL SGR
GSN 2023 620 M 0  36 rL SGR
GSN 2023 1700 M 0 -36 rL SGR
GSN 2048 620 M 0  36 rL SGR
GSN 2048 1700 M 0 -36 rL SGR
GSN 2221 620 M 0  36 rL SGR
GSN 2221 1700 M 0 -36 rL SGR
GSN 2309 620 M 0  36 rL SGR
GSN 2309 1700 M 0 -36 rL SGR
GSN 2371 620 M 0  36 rL SGR
GSN 2371 1700 M 0 -36 rL SGR
GSN 2420 620 M 0  36 rL SGR
GSN 2420 1700 M 0 -36 rL SGR
GSN 2459 620 M 0  36 rL SGR
GSN 2459 1700 M 0 -36 rL SGR
GSN 2492 620 M 0  36 rL SGR
GSN 2492 1700 M 0 -36 rL SGR
GSN 2521 620 M 0  36 rL SGR
GSN 2521 1700 M 0 -36 rL SGR
GSN 2547 620 M 0  36 rL SGR
GSN 2547 1700 M 0 -36 rL SGR
GSN 2720 620 M 0  36 rL SGR
GSN 2720 1700 M 0 -36 rL SGR
GSN 2808 620 M 0  36 rL SGR
GSN 2808 1700 M 0 -36 rL SGR
GSN 2870 620 M 0  36 rL SGR
GSN 2870 1700 M 0 -36 rL SGR
GSN 2918 620 M 0  36 rL SGR
GSN 2918 1700 M 0 -36 rL SGR
GSN 2958 620 M 0  36 rL SGR
GSN 2958 1700 M 0 -36 rL SGR
GSN 2991 620 M 0  36 rL SGR
GSN 2991 1700 M 0 -36 rL SGR
GSN 3020 620 M 0  36 rL SGR
GSN 3020 1700 M 0 -36 rL SGR
GSN 3045 620 M 0  36 rL SGR
GSN 3045 1700 M 0 -36 rL SGR
GSN 3218 620 M 0  36 rL SGR
GSN 3218 1700 M 0 -36 rL SGR
GSN 3306 620 M 0  36 rL SGR
GSN 3306 1700 M 0 -36 rL SGR
GSN 3368 620 M 0  36 rL SGR
GSN 3368 1700 M 0 -36 rL SGR
GSN 3417 620 M 0  36 rL SGR
GSN 3417 1700 M 0 -36 rL SGR
GSN 3456 620 M 0  36 rL SGR
GSN 3456 1700 M 0 -36 rL SGR
GSN 3490 620 M 0  36 rL SGR
GSN 3490 1700 M 0 -36 rL SGR
GSN 3519 620 M 0  36 rL SGR
GSN 3519 1700 M 0 -36 rL SGR
GSN 3544 620 M 0  36 rL SGR
GSN 3544 1700 M 0 -36 rL SGR
GSN 3717 620 M 0  36 rL SGR
GSN 3717 1700 M 0 -36 rL SGR
GSN 3805 620 M 0  36 rL SGR
GSN 3805 1700 M 0 -36 rL SGR
GSN 3867 620 M 0  36 rL SGR
GSN 3867 1700 M 0 -36 rL SGR
GSN 3915 620 M 0  36 rL SGR
GSN 3915 1700 M 0 -36 rL SGR
GSN 3955 620 M 0  36 rL SGR
GSN 3955 1700 M 0 -36 rL SGR
GSN 3988 620 M 0  36 rL SGR
GSN 3988 1700 M 0 -36 rL SGR
GSN 4017 620 M 0  36 rL SGR
GSN 4017 1700 M 0 -36 rL SGR
GSN 4043 620 M 0  36 rL SGR
GSN 4043 1700 M 0 -36 rL SGR
GSN 4216 620 M 0  36 rL SGR
GSN 4216 1700 M 0 -36 rL SGR
%
% Y axis: large tics - residual frame
%
L10
GSN 620 747 M 54 0 rL SGR
GSN 4220 747 M -54 0 rL SGR
helvS (-0.02) 560 747 ylabelresid
GSN 620 969 M 54 0 rL SGR
GSN 4220 969 M -54 0 rL SGR
helvS (0) 560 969 ylabelresid
GSN 620 1190 M 54 0 rL SGR
GSN 4220 1190 M -54 0 rL SGR
helvS (0.02) 560 1190 ylabelresid
GSN 620 1412 M 54 0 rL SGR
GSN 4220 1412 M -54 0 rL SGR
helvS (0.04) 560 1412 ylabelresid
GSN 620 1634 M 54 0 rL SGR
GSN 4220 1634 M -54 0 rL SGR
helvS (0.06) 560 1634 ylabelresid

%
% X axis - residual panel
%
GSN L5 620 969 M 4220 969 L SDA G50 SGR

end
showpage
%%Trailer
%%EOF
