%!PS-Adobe-3.0 EPSF-3.0
%%BoundingBox: 0 0 514 550
%%Creator: BioKin Ltd.
%%DocumentFonts: Symbol Helvetica
%%EndComments
%
/bkdict 256 dict def
bkdict begin
/M {moveto} def 
/R {rmoveto} def
/L {lineto} def
/rL {rlineto} def
/GSN {gsave newpath} def
/SGR {stroke grestore} def
/COSGR {gsave setrgbcolor stroke grestore grestore} def
/SL {setlinewidth} def
/LWMB {12} def             % line width - model curves, black & white
/LWMC {10} def             % line width - model curves, color
/L2 {2.5 setlinewidth} def
/L5 {5 setlinewidth} def
/L10 {10 setlinewidth} def
/G50 {0.5 setgray} def
/SDA {[10  20] 0 setdash} def % axes
/helvT {/Helvetica findfont 100 scalefont setfont} def % tiny
/helvS {/Helvetica findfont 125 scalefont setfont} def % small
/helvM {/Helvetica findfont 150 scalefont setfont} def % medium
/helvL {/Helvetica findfont 175 scalefont setfont} def % large
/xlabel {gsave M dup
   stringwidth exch -0.5 mul exch rmoveto show grestore} def 
/ylabel {gsave M 90 rotate dup
   stringwidth exch -0.5 mul exch rmoveto show grestore} def
/ylabelresid {gsave M dup
   stringwidth exch -1 mul exch rmoveto show grestore} def
% ======
% Shapes
% ======
% Circle:
/Circ {0 360 arc closepath} def
%
% Square:
/Squa {dup dup -0.5 mul dup dup R -2 mul 0 exch rL 1 mul 0 rL dup 0 exch -1 mul rL closepath} def
%
% Triangle Up:
/TriU {dup dup dup -0.4 mul exch -0.5 mul exch R dup 0.5 mul exch rL dup -1 mul exch 0.5 mul exch rL closepath} def 
%
% Triangle Down:
/TriD {dup dup dup 0.4 mul exch -0.5 mul exch R dup 0.5 mul exch -1 mul rL dup 0.5 mul exch rL closepath} def 
%
% Diamond:
/Diam {45 rotate Squa} def
% ======
% Fills
% ======
/GRF {gsave setgray fill grestore} def                    % gray-level Fill
/COF {gsave setrgbcolor fill grestore} def                % color fill
% ======
% Colors
% ======
/C01 {1.00	0.00	0.00} def      % Red
/C02 {0.00	0.00	1.00} def      % Blue
/C03 {0.00	0.39	0.00} def      % Dark Green
/C04 {0.78	0.08	0.52} def      % Medium Violet Red
/C05 {0.55	0.27	0.07} def      % Saddle Brown
/C06 {0.10	0.70	0.70} def      % (cyan)
/C07 {1.00	0.55	0.00} def      % Dark Orange
/C08 {0.63	0.13	0.94} def      % Purple
/C09 {0.00	0.75	1.00} def      % Deep Sky Blue
/C10 {0.20	0.80	0.20} def      % Lime Green
/C11 {0.47	0.53	0.60} def      % Light Slate Gray
/C12 {0.00	0.00	0.00} def      % Black            % or: {0.19	0.31	0.31} def      % Dark Slate Gray
%
/LGR {0.75} def % light gray
/DGR {0.33} def % dark gray
%
% =============
% Dash patterns
% =============
/dash01 { [80  20] 0 setdash } def
/dash02 { [40  20] 0 setdash } def
/dash03 { [80  20  10  20] 0 setdash } def
/dash04 { [40  20  10  20] 0 setdash } def
/dash05 { [80  20  10  10  10  20] 0 setdash } def
/dash06 { [40  20  10  10  10  20] 0 setdash } def
/dash07 { [10  10] 0 setdash } def
%
/MFshow {
   { dup 5 get 3 ge
     { 5 get 3 eq {gsave} {grestore} ifelse }
     {dup dup 0 get findfont exch 1 get scalefont setfont
     [ currentpoint ] exch dup 2 get 0 exch R dup 5 get 2 ne {dup dup 6
     get exch 4 get {show} {stringwidth pop 0 R} ifelse }if dup 5 get 0 eq
     {dup 3 get {2 get neg 0 exch R pop} {pop aload pop M} ifelse} {dup 5
     get 1 eq {dup 2 get exch dup 3 get exch 6 get stringwidth pop -2 div
     dup 0 R} {dup 6 get stringwidth pop -2 div 0 R 6 get
     show 2 index {aload pop M neg 3 -1 roll neg R pop pop} {pop pop pop
     pop aload pop M} ifelse }ifelse }ifelse }
     ifelse }
   forall} bind def
/MFwidth {0 exch {dup 3 get{dup dup 0 get findfont exch 1 get scalefont
     setfont 6 get stringwidth pop add} {pop} ifelse} forall} bind def
/MCshow { currentpoint stroke M
  exch dup MFwidth -2 div 3 -1 roll R MFshow } def
%
end
%%EndProlog
bkdict begin
0.1 0.1 scale
%
% Residuals:
%
GSN 620 4256 M
620 4727 L
620 4025 L
620 4050 L
620 4022 L
620 3620 L
620 2649 L
620 3715 L
620 3241 L
620 3102 L
620 3499 L
620 3274 L
620 3793 L
620 3688 L
620 4078 L
620 3593 L
620 3531 L
620 3501 L
620 3765 L
620 3649 L
620 3742 L
620 3503 L
620 3614 L
620 3620 L
620 3454 L
620 3166 L
620 3844 L
620 3688 L
620 3833 L
620 3977 L
620 4013 L
620 3620 L
620 3957 L
620 3911 L
620 3948 L
620 3656 L
620 3724 L
620 3735 L
620 3940 L
620 3732 L
620 3725 L
620 3617 L
620 3263 L
620 3840 L
620 3794 L
620 3586 L
620 3310 L
620 3643 L
620 3428 L
620 3413 L
620 3112 L
620 3454 L
620 3534 L
620 3413 L
620 3196 L
620 3655 L
620 3558 L
620 3693 L
620 3700 L
620 3131 L
620 3278 L
620 3956 L
620 3545 L
620 3344 L
620 3484 L
620 3174 L
620 3318 L
620 3707 L
620 3196 L
620 3439 L
620 3413 L
620 3678 L
620 3763 L
620 3571 L
620 3849 L
620 3176 L
620 3537 L
620 3503 L
620 3727 L
620 3246 L
620 3122 L
620 3291 L
620 3311 L
620 3951 L
620 3460 L
620 3433 L
620 3113 L
620 3445 L
620 3594 L
620 3352 L
620 2940 L
620 3124 L
620 3489 L
620 3457 L
620 3465 L
620 3355 L
620 3543 L
620 3425 L
620 3703 L
620 3185 L
620 3509 L
620 3757 L
620 3472 L
620 3686 L
620 3502 L
620 3297 L
620 3362 L
620 3323 L
620 3367 L
620 3178 L
620 3633 L
620 3282 L
620 3489 L
620 3469 L
620 3293 L
620 3196 L
620 3201 L
620 3116 L
620 3682 L
620 3314 L
620 3549 L
620 3436 L
620 3239 L
620 3346 L
620 3342 L
620 3712 L
620 2782 L
620 3349 L
620 3255 L
620 3283 L
620 3171 L
620 3586 L
620 3370 L
620 3872 L
620 3605 L
620 3448 L
620 3321 L
620 3340 L
620 3670 L
620 3365 L
620 3439 L
620 3390 L
620 3298 L
620 3415 L
620 3442 L
620 3712 L
620 3553 L
620 3527 L
620 3728 L
620 3231 L
620 3258 L
620 3567 L
620 3416 L
620 3356 L
620 3362 L
620 3006 L
620 3171 L
620 3272 L
620 3380 L
620 3518 L
620 3858 L
620 3692 L
620 3494 L
620 3336 L
620 3414 L
620 3255 L
620 3347 L
620 3464 L
620 3456 L
620 3247 L
620 3663 L
620 3161 L
620 3295 L
620 3194 L
620 3304 L
620 3497 L
620 3356 L
620 3328 L
620 3571 L
620 3172 L
620 3419 L
620 3346 L
620 3246 L
620 3406 L
620 3243 L
620 3497 L
620 3541 L
620 3240 L
620 3347 L
620 3719 L
620 3453 L
620 3250 L
620 3318 L
620 3176 L
620 3031 L
620 3399 L
620 3285 L
620 3009 L
620 3261 L
620 3408 L
620 3096 L
620 2765 L
620 3334 L
620 3583 L
620 3495 L
620 3603 L
620 3641 L
620 3244 L
620 3099 L
620 3252 L
620 3419 L
620 3422 L
620 3256 L
620 3390 L
620 3451 L
620 3441 L
620 3282 L
620 3292 L
620 3468 L
620 3110 L
620 3479 L
620 3347 L
620 3370 L
620 3602 L
620 2875 L
620 3271 L
620 3511 L
620 3065 L
620 3078 L
620 3253 L
620 3564 L
620 3477 L
620 3287 L
620 3433 L
620 3195 L
620 3157 L
620 3245 L
620 3599 L
620 3271 L
620 3270 L
620 3207 L
620 3189 L
620 3409 L
620 3420 L
620 3889 L
620 3393 L
620 3470 L
620 3667 L
620 3362 L
620 3254 L
620 3426 L
620 3204 L
620 3209 L
620 3312 L
620 3514 L
620 3130 L
620 2665 L
620 3454 L
620 3186 L
620 3356 L
620 3026 L
620 3394 L
620 3681 L
620 3640 L
620 3421 L
620 2981 L
620 3020 L
620 3545 L
620 3669 L
620 3597 L
620 3545 L
620 3071 L
620 3264 L
620 3340 L
620 3258 L
620 3287 L
620 3360 L
620 3671 L
620 3572 L
620 3651 L
620 3549 L
620 3611 L
620 3255 L
620 3127 L
620 3060 L
620 3287 L
620 3404 L
620 3287 L
620 3522 L
620 2917 L
620 3504 L
620 3224 L
620 3502 L
620 3391 L
620 3561 L
620 3566 L
620 3198 L
620 3485 L
620 3144 L
620 3322 L
620 3272 L
620 3098 L
620 3146 L
620 3363 L
620 3240 L
620 3590 L
620 3460 L
620 3471 L
620 3143 L
620 3364 L
620 3592 L
620 3216 L
620 3194 L
620 3833 L
620 3169 L
620 3783 L
620 3121 L
620 3210 L
620 3318 L
620 3300 L
620 3383 L
620 3155 L
620 3280 L
620 3029 L
620 3432 L
620 3181 L
620 3296 L
620 3525 L
620 3570 L
620 3312 L
620 3202 L
620 3240 L
620 3345 L
620 3392 L
620 3027 L
620 3304 L
620 3502 L
620 3345 L
620 3545 L
620 2735 L
620 2835 L
620 2955 L
620 3461 L
620 3877 L
620 3148 L
620 3411 L
620 3168 L
620 3066 L
620 3411 L
620 3197 L
620 3325 L
620 3143 L
620 3464 L
620 2887 L
620 3260 L
620 3170 L
620 2948 L
620 3312 L
620 3413 L
620 3291 L
620 3805 L
620 3244 L
620 2993 L
620 3509 L
620 3246 L
620 3000 L
620 3176 L
620 3460 L
620 3056 L
620 3114 L
620 3296 L
620 3275 L
620 3252 L
620 3507 L
620 2991 L
620 3620 L
620 2978 L
620 3465 L
620 3416 L
620 3218 L
620 2949 L
620 3009 L
620 3022 L
620 3007 L
620 3172 L
620 2921 L
620 3594 L
620 3206 L
620 3379 L
620 3449 L
620 3387 L
620 3449 L
620 3375 L
620 3216 L
620 3249 L
620 3229 L
620 3162 L
620 2997 L
620 2872 L
620 3165 L
620 3227 L
620 3349 L
620 3301 L
620 3498 L
620 3149 L
620 3149 L
620 2906 L
620 2783 L
620 3391 L
620 3313 L
620 3241 L
620 3449 L
620 3229 L
620 3062 L
620 3059 L
620 3464 L
620 2979 L
620 3042 L
620 3068 L
620 2994 L
620 3092 L
620 3152 L
620 3164 L
620 2494 L
620 2984 L
620 2863 L
620 3034 L
620 2789 L
620 2980 L
620 2994 L
620 3182 L
620 2985 L
620 3168 L
620 2685 L
620 2962 L
620 2737 L
620 2742 L
620 2884 L
620 2885 L
620 3136 L
620 2865 L
620 2897 L
620 2884 L
620 3165 L
620 2856 L
620 2897 L
620 2892 L
620 2488 L
620 3043 L
620 2984 L
620 3210 L
620 2457 L
620 3280 L
620 2742 L
620 2378 L
620 2671 L
620 2891 L
620 2705 L
620 2692 L
620 2647 L
620 3102 L
620 2765 L
620 2788 L
620 2674 L
620 2513 L
620 2860 L
620 2961 L
620 2859 L
620 2721 L
620 2721 L
620 2657 L
620 2933 L
620 2345 L
620 2553 L
620 2466 L
620 2711 L
620 2987 L
620 2756 L
620 2649 L
620 2642 L
620 2581 L
620 2989 L
620 2619 L
620 2465 L
620 2552 L
620 2553 L
620 2570 L
620 2745 L
620 2740 L
620 2763 L
620 2804 L
620 2502 L
620 2670 L
620 2760 L
620 2381 L
620 2575 L
620 2367 L
620 2535 L
620 2352 L
620 2629 L
620 2979 L
620 2585 L
620 2493 L
620 2542 L
620 2983 L
620 2633 L
620 2608 L
620 2447 L
620 2606 L
620 2486 L
620 2803 L
620 2707 L
620 2228 L
620 2560 L
620 2826 L
620 2438 L
620 2711 L
620 2437 L
620 2387 L
620 2666 L
620 2756 L
620 2810 L
620 2305 L
620 2575 L
620 2307 L
620 2427 L
620 2291 L
620 2637 L
620 2825 L
620 2347 L
620 2657 L
620 2617 L
620 2184 L
620 2449 L
620 2628 L
620 2543 L
620 2374 L
620 2645 L
620 2169 L
620 2840 L
620 2852 L
620 2686 L
620 3070 L
620 2314 L
620 2556 L
620 2752 L
620 2731 L
620 2136 L
620 2523 L
620 2447 L
620 2787 L
620 2662 L
620 2411 L
620 2558 L
620 2643 L
620 2534 L
620 2483 L
620 2647 L
620 2418 L
620 2357 L
620 2314 L
620 2454 L
620 2853 L
620 2310 L
620 2458 L
620 2242 L
620 2488 L
620 2381 L
620 2381 L
620 2291 L
620 2576 L
620 2769 L
620 2383 L
620 2515 L
620 2385 L
620 2522 L
620 2751 L
620 3070 L
620 2453 L
620 2355 L
620 2646 L
620 2553 L
620 2459 L
620 2269 L
620 2236 L
620 2958 L
620 2601 L
620 3151 L
620 2696 L
620 2627 L
620 2780 L
620 2696 L
620 2582 L
620 2452 L
620 2480 L
620 2598 L
620 2390 L
620 2467 L
620 2971 L
620 2403 L
620 2600 L
620 2355 L
620 2210 L
620 2665 L
620 2415 L
620 2523 L
620 2474 L
620 2561 L
620 2609 L
620 2602 L
620 2650 L
620 2899 L
620 2424 L
620 2160 L
620 2669 L
620 2404 L
620 2744 L
620 2732 L
620 2543 L
620 2745 L
620 2761 L
620 2384 L
620 2165 L
620 2329 L
620 2789 L
620 2653 L
620 2204 L
620 2626 L
620 2563 L
620 2496 L
620 2374 L
620 2485 L
620 2323 L
620 2401 L
620 2565 L
620 2482 L
620 2806 L
620 2698 L
620 2773 L
620 2801 L
620 2617 L
620 2658 L
620 2707 L
620 3198 L
620 2554 L
620 2628 L
620 3105 L
620 2867 L
620 2474 L
620 2810 L
620 2560 L
620 2420 L
620 2735 L
620 2646 L
620 2684 L
620 2785 L
620 2457 L
620 2860 L
620 2941 L
620 3062 L
620 2596 L
620 2735 L
620 2473 L
620 2757 L
620 2673 L
620 2855 L
620 2642 L
620 2837 L
620 3089 L
620 2768 L
620 2304 L
620 3004 L
620 2717 L
620 2780 L
620 2730 L
620 2897 L
620 3163 L
620 2471 L
620 2633 L
620 2950 L
620 2450 L
620 2810 L
620 2614 L
620 2883 L
620 2519 L
620 3180 L
620 2561 L
620 2604 L
620 2626 L
620 2741 L
620 2840 L
620 2671 L
620 2570 L
620 2620 L
620 2803 L
620 2993 L
620 2600 L
620 2912 L
620 3009 L
620 3096 L
620 2856 L
620 2738 L
620 2663 L
620 2903 L
620 2533 L
620 2416 L
620 3011 L
620 2777 L
620 2821 L
620 2609 L
620 2965 L
620 2977 L
620 3042 L
620 2770 L
620 3000 L
620 2972 L
620 3253 L
620 2383 L
620 2775 L
620 2783 L
620 2932 L
620 2323 L
620 2870 L
620 2894 L
620 2457 L
620 2804 L
620 2916 L
620 2729 L
620 2411 L
620 3135 L
620 3074 L
620 2626 L
620 3153 L
620 2523 L
620 2743 L
620 2542 L
620 3001 L
620 3027 L
620 2831 L
620 3062 L
620 2792 L
620 2812 L
620 2732 L
620 3159 L
620 2795 L
620 2686 L
620 2685 L
620 2946 L
620 3191 L
620 3089 L
620 2993 L
620 2813 L
620 2900 L
620 2992 L
620 3213 L
620 2819 L
620 2929 L
620 2734 L
620 2820 L
620 2897 L
620 2934 L
620 3014 L
620 3023 L
620 2826 L
620 2912 L
620 2843 L
620 2820 L
620 2887 L
620 2894 L
620 2651 L
620 2615 L
620 2974 L
620 3348 L
620 2828 L
620 2794 L
620 3339 L
620 3069 L
620 2963 L
620 3096 L
620 2780 L
620 2930 L
620 2631 L
620 2915 L
620 2885 L
620 3019 L
620 2860 L
620 2960 L
620 2954 L
620 2942 L
620 3145 L
620 3131 L
620 2879 L
620 3199 L
620 3432 L
620 3199 L
620 2511 L
620 2831 L
620 2838 L
620 2651 L
620 2781 L
620 3134 L
620 3058 L
620 3006 L
620 2545 L
620 3248 L
620 3238 L
620 2862 L
620 3077 L
620 3100 L
620 3008 L
620 3076 L
620 2999 L
620 3195 L
620 3116 L
620 2975 L
620 2975 L
620 3019 L
620 2945 L
620 2862 L
620 3221 L
620 3110 L
620 3311 L
620 3392 L
620 2892 L
620 3011 L
620 2974 L
620 3045 L
620 3332 L
620 2851 L
620 3152 L
620 3020 L
620 2991 L
620 2657 L
620 2783 L
620 3378 L
620 2983 L
620 3082 L
620 2968 L
620 3167 L
620 3113 L
620 3114 L
620 3099 L
620 3083 L
620 3262 L
620 2828 L
620 3209 L
620 3780 L
620 3346 L
620 3050 L
620 3024 L
620 3168 L
620 3081 L
620 2849 L
620 3181 L
620 3424 L
620 2952 L
620 3098 L
620 3118 L
620 3031 L
620 3044 L
620 3163 L
620 3076 L
620 2826 L
620 2867 L
620 3091 L
620 3371 L
620 3227 L
620 3296 L
620 3276 L
620 2959 L
620 3229 L
620 3389 L
620 3135 L
620 3002 L
620 2510 L
620 3033 L
620 2991 L
620 2977 L
620 3391 L
620 3031 L
620 3238 L
620 3195 L
620 3391 L
620 3189 L
620 3028 L
620 2939 L
620 3224 L
620 3347 L
620 3477 L
620 3240 L
620 3328 L
620 3095 L
620 3200 L
620 3186 L
620 2924 L
620 3272 L
620 3245 L
620 3127 L
620 3423 L
620 2965 L
620 3083 L
620 2988 L
620 3240 L
620 3242 L
620 3316 L
620 3480 L
620 3126 L
620 3107 L
620 3195 L
620 3464 L
620 3191 L
620 3173 L
620 3047 L
620 3252 L
620 3263 L
620 3280 L
620 3148 L
620 3521 L
620 3020 L
620 3185 L
620 3137 L
620 3408 L
620 3123 L
620 3167 L
620 3128 L
620 3027 L
620 2925 L
620 3504 L
620 3342 L
620 3145 L
620 3110 L
620 3406 L
620 3513 L
620 3072 L
620 3101 L
620 3215 L
620 3047 L
620 2961 L
620 3109 L
620 3452 L
620 3091 L
620 3294 L
620 3046 L
620 3278 L
620 3101 L
620 3859 L
620 3413 L
620 3068 L
620 3513 L
620 3359 L
620 3482 L
620 3378 L
620 3231 L
620 3395 L
620 3969 L
620 3185 L
620 3473 L
620 3168 L
620 3274 L
620 3454 L
620 3512 L
620 3585 L
620 3751 L
620 3284 L
620 3046 L
620 3051 L
620 3233 L
620 3492 L
620 3086 L
620 3539 L
620 3559 L
620 3287 L
620 3521 L
620 3189 L
620 2990 L
620 3624 L
620 3062 L
620 3636 L
620 3423 L
620 3317 L
620 3672 L
620 3194 L
620 3408 L
620 3288 L
620 3401 L
620 3464 L
620 3604 L
620 3526 L
620 3022 L
620 3380 L
620 3372 L
620 3471 L
620 3212 L
620 3307 L
620 3571 L
620 3447 L
620 3369 L
620 3254 L
620 3298 L
620 3154 L
620 3287 L
620 3159 L
620 3863 L
620 3482 L
620 3851 L
620 3321 L
620 3374 L
620 3334 L
620 3660 L
620 3498 L
620 3627 L
620 3612 L
620 3447 L
620 3746 L
620 3305 L
620 3464 L
620 3552 L
620 3432 L
620 3418 L
620 3220 L
620 3486 L
620 3447 L
620 3590 L
620 3047 L
620 3567 L
620 3447 L
620 3586 L
620 3697 L
620 3811 L
620 3270 L
620 3705 L
620 3163 L
620 3665 L
620 3398 L
620 3308 L
620 3544 L
620 3371 L
620 3220 L
620 3402 L
620 3557 L
620 3337 L
620 3487 L
620 3845 L
620 3317 L
620 3549 L
620 3501 L
620 3549 L
620 3422 L
620 3024 L
620 3672 L
620 3251 L
620 3534 L
620 3276 L
620 3544 L
620 3451 L
620 3788 L
620 3471 L
620 3661 L
620 3771 L
620 3398 L
620 2973 L
620 3396 L
620 3567 L
620 3670 L
620 3449 L
620 3611 L
620 3807 L
620 3488 L
620 3537 L
620 3352 L
620 3406 L
620 3393 L
620 3528 L
620 3462 L
620 3101 L
620 3693 L
620 3108 L
620 3306 L
620 3570 L
620 3352 L
620 3495 L
620 3590 L
620 3283 L
620 3478 L
620 3599 L
620 3467 L
620 3364 L
620 3521 L
620 3089 L
620 3593 L
620 3558 L
620 3690 L
620 3443 L
620 3779 L
620 3667 L
620 3571 L
620 3459 L
620 3694 L
620 3564 L
620 3577 L
620 3681 L
620 3629 L
620 3616 L
620 3762 L
620 3033 L
620 3805 L
620 3516 L
620 3733 L
620 3687 L
620 3513 L
620 3317 L
620 3603 L
620 3834 L
620 3258 L
620 3526 L
620 3521 L
620 3437 L
620 3928 L
620 3663 L
620 3706 L
620 3482 L
620 3501 L
620 3769 L
620 3705 L
620 3693 L
620 3642 L
620 3467 L
620 3744 L
620 3233 L
620 3746 L
620 3289 L
620 3706 L
620 3477 L
620 3815 L
620 3852 L
620 3728 L
620 3550 L
620 3702 L
620 3765 L
620 3707 L
620 3649 L
620 4030 L
620 3837 L
620 3712 L
620 3375 L
620 3419 L
620 3531 L
620 3307 L
620 3608 L
620 3684 L
620 3737 L
620 3589 L
620 3612 L
620 3422 L
620 3521 L
620 3476 L
620 3460 L
620 3278 L
620 3665 L
620 3477 L
620 3675 L
620 3639 L
620 3413 L
620 3627 L
620 3810 L
620 3508 L
620 3355 L
620 3715 L
620 3626 L
620 3534 L
620 3492 L
620 3415 L
620 3624 L
620 3575 L
620 3714 L
620 3711 L
620 3696 L
620 3384 L
620 3600 L
620 3471 L
620 3797 L
620 3465 L
620 3838 L
620 3627 L
620 3168 L
620 3881 L
620 3775 L
620 3712 L
620 3671 L
620 3557 L
620 3489 L
620 3463 L
620 3741 L
620 3795 L
620 3595 L
620 3711 L
620 3423 L
620 4144 L
620 3624 L
620 3503 L
620 3870 L
620 3490 L
620 3459 L
620 4048 L
620 3699 L
620 3591 L
620 3423 L
620 3820 L
620 3930 L
620 3770 L
620 3869 L
620 3500 L
620 3536 L
620 3194 L
620 3482 L
620 3581 L
620 3559 L
620 3528 L
620 3755 L
620 3487 L
620 3233 L
620 3885 L
620 3478 L
620 3455 L
620 3667 L
620 3735 L
620 3514 L
620 3846 L
620 3973 L
620 3483 L
620 3870 L
620 3513 L
620 3953 L
620 3679 L
620 3707 L
620 3750 L
620 3654 L
620 3694 L
620 3611 L
620 4047 L
620 3491 L
620 3386 L
620 3729 L
620 3492 L
620 3832 L
620 3553 L
620 3652 L
620 3840 L
620 3981 L
620 3725 L
620 4071 L
620 3755 L
620 3858 L
620 3823 L
620 3816 L
620 3639 L
620 3696 L
620 3684 L
620 3879 L
620 3477 L
620 3693 L
620 4005 L
620 3742 L
620 3872 L
620 3759 L
620 3841 L
620 3625 L
620 4072 L
620 3508 L
620 3504 L
620 4120 L
620 3795 L
620 3343 L
620 3476 L
620 4023 L
620 3437 L
620 3661 L
620 3959 L
620 3829 L
620 3530 L
620 3397 L
620 3689 L
620 3797 L
620 3335 L
620 3600 L
620 3723 L
620 3602 L
620 4216 L
620 4005 L
620 3339 L
620 3975 L
620 3949 L
620 3753 L
620 3550 L
620 4027 L
620 4222 L
620 3573 L
620 3597 L
620 4058 L
620 3926 L
620 3788 L
620 3945 L
620 3572 L
620 3643 L
620 3662 L
620 3661 L
620 3407 L
620 3733 L
620 3697 L
620 3706 L
620 4049 L
620 3591 L
620 4049 L
620 3531 L
620 3602 L
620 3746 L
620 3480 L
620 3534 L
620 3408 L
620 3954 L
620 3878 L
620 3815 L
620 4038 L
620 4067 L
620 3770 L
620 3561 L
620 3782 L
620 3644 L
620 3846 L
620 3744 L
620 3725 L
620 3756 L
620 4112 L
620 3461 L
620 3793 L
620 3310 L
620 3765 L
620 3930 L
620 3598 L
620 3755 L
620 3689 L
620 4125 L
620 3733 L
620 3964 L
620 3756 L
620 3545 L
620 3856 L
620 3906 L
620 3665 L
620 3675 L
620 4131 L
620 3778 L
620 3887 L
620 3838 L
620 4072 L
620 3984 L
620 3926 L
620 4041 L
620 3885 L
620 3802 L
620 4286 L
620 3707 L
620 4070 L
620 4054 L
620 3868 L
620 3649 L
620 3732 L
620 3945 L
620 4012 L
620 3977 L
620 3714 L
620 3694 L
620 3665 L
620 3730 L
620 3631 L
620 4103 L
620 3931 L
620 4095 L
620 3837 L
620 3732 L
620 3975 L
620 3643 L
620 3913 L
620 4011 L
620 3561 L
620 3996 L
620 3746 L
620 4025 L
620 3865 L
620 4102 L
620 3660 L
620 3757 L
620 3948 L
620 4167 L
620 4160 L
620 3442 L
620 3939 L
620 3180 L
620 3729 L
620 3599 L
620 3809 L
620 3860 L
620 3942 L
620 4109 L
620 3531 L
620 4111 L
620 4180 L
620 4092 L
620 3989 L
620 4117 L
620 3388 L
620 3910 L
620 4278 L
620 4092 L
620 4309 L
620 4442 L
620 4146 L
620 3918 L
620 3989 L
620 4006 L
620 4125 L
620 4239 L
620 4077 L
620 4236 L
620 4230 L
620 4236 L
620 4014 L
620 4445 L
620 4382 L
620 3868 L
620 4051 L
620 4264 L
620 4405 L
620 3740 L
620 4276 L
620 4326 L
620 4164 L
620 4426 L
620 3895 L
620 4305 L
620 4133 L
620 4148 L
620 3722 L
620 4284 L
620 3574 L
620 3775 L
620 3936 L
620 4183 L
620 3749 L
620 4159 L
620 3723 L
620 4178 L
620 4201 L
620 4400 L
620 4018 L
620 4169 L
620 4376 L
620 3979 L
620 3940 L
620 4391 L
620 4149 L
620 4710 L
620 4336 L
620 3981 L
620 4043 L
620 4087 L
620 4302 L
620 3937 L
620 4166 L
620 3932 L
620 4166 L
620 4408 L
620 4479 L
620 4333 L
620 4337 L
620 4080 L
620 4313 L
620 4399 L
620 4752 L
620 3854 L
620 4450 L
620 4301 L
620 4368 L
620 4191 L
620 4313 L
620 4143 L
620 4005 L
620 4387 L
620 4090 L
620 4013 L
620 3895 L
620 4513 L
620 4500 L
620 4085 L
620 3960 L
620 4341 L
620 4352 L
620 4153 L
620 4029 L
620 4032 L
620 4162 L
620 4376 L
620 4042 L
620 4355 L
620 4066 L
620 4429 L
620 4090 L
620 3904 L
620 3740 L
620 4104 L
620 4583 L
620 4177 L
620 4027 L
620 4156 L
620 4463 L
620 4190 L
620 4180 L
620 4178 L
620 4063 L
620 4169 L
620 3997 L
620 4047 L
620 4477 L
620 4040 L
620 4590 L
620 4076 L
620 4339 L
620 3979 L
620 3783 L
620 4265 L
620 4169 L
620 3833 L
620 4484 L
620 4294 L
620 4183 L
620 4304 L
620 4053 L
620 4005 L
620 4156 L
620 3900 L
620 3881 L
620 4503 L
620 4019 L
620 3977 L
620 4389 L
620 3744 L
620 4649 L
620 4493 L
620 4249 L
620 4005 L
620 4217 L
620 4071 L
620 4326 L
620 4267 L
620 4191 L
620 4138 L
620 4075 L
620 4376 L
620 4188 L
620 4035 L
620 4630 L
620 4395 L
620 4476 L
620 4418 L
620 4395 L
620 4366 L
620 4633 L
620 4244 L
620 4733 L
620 4231 L
620 4228 L
620 4402 L
620 4008 L
620 4558 L
620 4407 L
620 4121 L
620 4235 L
620 3974 L
620 4260 L
620 4220 L
620 4164 L
620 4045 L
620 4077 L
620 4273 L
620 4129 L
620 4301 L
620 4320 L
620 4027 L
620 4320 L
620 4645 L
620 4691 L
620 4542 L
620 4071 L
620 4601 L
620 4294 L
620 4419 L
620 4088 L
620 3788 L
620 4109 L
620 4346 L
620 4485 L
620 4138 L
620 4561 L
620 3971 L
620 4035 L
620 4323 L
620 4643 L
620 4397 L
620 4370 L
620 4130 L
620 3950 L
620 4058 L
620 4374 L
620 3825 L
620 4140 L
620 4355 L
620 4137 L
620 4685 L
620 3836 L
620 4169 L
620 4320 L
620 3720 L
620 4325 L
620 4352 L
620 4344 L
620 4005 L
620 4013 L
620 4120 L
620 4100 L
620 4249 L
620 4206 L
620 4114 L
620 4331 L
620 4048 L
620 4291 L
620 4487 L
620 4077 L
620 4045 L
620 3891 L
620 4119 L
620 4333 L
620 4233 L
620 4450 L
620 4043 L
620 3940 L
620 4109 L
620 4288 L
620 4339 L
620 4056 L
620 4302 L
620 4603 L
620 3677 L
620 4453 L
620 3940 L
620 4231 L
620 4067 L
620 4529 L
620 4545 L
620 4264 L
620 4522 L
620 4207 L
620 4016 L
620 4301 L
620 3757 L
620 4291 L
620 4247 L
620 3918 L
620 4329 L
620 4085 L
620 4047 L
620 4672 L
620 4337 L
620 4288 L
620 3973 L
620 4628 L
620 3883 L
620 4174 L
620 4000 L
620 4863 L
620 3981 L
620 4270 L
620 4481 L
620 3921 L
620 4424 L
620 4056 L
620 4206 L
620 4267 L
620 4188 L
620 3965 L
620 4416 L
620 4146 L
620 4500 L
620 4850 L
620 4326 L
620 4514 L
620 4162 L
620 4180 L
620 4153 L
620 4323 L
620 4477 L
620 4132 L
620 4640 L
620 4264 L
620 3940 L
620 4309 L
620 4031 L
620 4617 L
620 4104 L
620 4166 L
620 4035 L
620 3969 L
620 4519 L
620 4183 L
620 4174 L
620 4148 L
620 4238 L
620 3904 L
620 4490 L
620 4267 L
620 4447 L
620 4280 L
620 4566 L
620 4469 L
620 4265 L
620 4370 L
620 4585 L
620 4350 L
620 4320 L
620 3915 L
620 4075 L
620 3720 L
620 4092 L
620 3770 L
620 4193 L
620 4088 L
620 4312 L
620 4048 L
620 3953 L
620 4370 L
620 4389 L
620 4320 L
620 4207 L
620 4489 L
620 4374 L
620 3871 L
620 4194 L
620 4167 L
620 4374 L
620 4681 L
620 4182 L
620 4264 L
620 4090 L
620 4092 L
620 4220 L
620 3942 L
620 4227 L
620 4310 L
L2 C07 COSGR

%
%================
% Legend - Begin
%================
%
GSN 4240 5180 M
4480 5180 L
LWMC SL  C07 COSGR
GSN 4540 5141 M helvM (4.0 uM) show grestore
%
%================
% Legend - End
%================
%

%
% Main frame
%
L10
GSN 
620 1700 M
4220 1700 L
4220 5300 L
620 5300 L
closepath SGR

%
% X axis: large tics
%
L10
%
% X axis: small tics
%
L5
%
% Y axis: large tics
%
L10
GSN 620 1762 M 54 0 rL SGR
GSN 4220 1762 M -54 0 rL SGR
helvS (-0.02) 560 1762 ylabel
GSN 620 2605 M 54 0 rL SGR
GSN 4220 2605 M -54 0 rL SGR
helvS (-0.01) 560 2605 ylabel
GSN 620 3447 M 54 0 rL SGR
GSN 4220 3447 M -54 0 rL SGR
helvS (0) 560 3447 ylabel
GSN 620 4290 M 54 0 rL SGR
GSN 4220 4290 M -54 0 rL SGR
helvS (0.01) 560 4290 ylabel
GSN 620 5133 M 54 0 rL SGR
GSN 4220 5133 M -54 0 rL SGR
helvS (0.02) 560 5133 ylabel
%
% Y axis: small tics
%
L5
GSN 620 1762 M 36 0 rL SGR
GSN 4220 1762 M -36 0 rL SGR
GSN 620 1973 M 36 0 rL SGR
GSN 4220 1973 M -36 0 rL SGR
GSN 620 2183 M 36 0 rL SGR
GSN 4220 2183 M -36 0 rL SGR
GSN 620 2394 M 36 0 rL SGR
GSN 4220 2394 M -36 0 rL SGR
GSN 620 2605 M 36 0 rL SGR
GSN 4220 2605 M -36 0 rL SGR
GSN 620 2815 M 36 0 rL SGR
GSN 4220 2815 M -36 0 rL SGR
GSN 620 3026 M 36 0 rL SGR
GSN 4220 3026 M -36 0 rL SGR
GSN 620 3237 M 36 0 rL SGR
GSN 4220 3237 M -36 0 rL SGR
GSN 620 3447 M 36 0 rL SGR
GSN 4220 3447 M -36 0 rL SGR
GSN 620 3658 M 36 0 rL SGR
GSN 4220 3658 M -36 0 rL SGR
GSN 620 3869 M 36 0 rL SGR
GSN 4220 3869 M -36 0 rL SGR
GSN 620 4079 M 36 0 rL SGR
GSN 4220 4079 M -36 0 rL SGR
GSN 620 4290 M 36 0 rL SGR
GSN 4220 4290 M -36 0 rL SGR
GSN 620 4501 M 36 0 rL SGR
GSN 4220 4501 M -36 0 rL SGR
GSN 620 4711 M 36 0 rL SGR
GSN 4220 4711 M -36 0 rL SGR
GSN 620 4922 M 36 0 rL SGR
GSN 4220 4922 M -36 0 rL SGR
GSN 620 5133 M 36 0 rL SGR
GSN 4220 5133 M -36 0 rL SGR

%
% X axis - residual panel
%
GSN L5 620 3447 M 4220 3447 L SDA G50 SGR

%
% X-Axis label:
%
gsave 620 1370 M 
[
[(Helvetica) 180 0 true true 0 (t)]
[(Helvetica) 180 0 true true 0 (i)]
[(Helvetica) 180 0 true true 0 (m)]
[(Helvetica) 180 0 true true 0 (e)]
] 0 MCshow grestore

%
% Y-Axis label:
%
gsave 234 3500 M 
currentpoint gsave translate 90 rotate 0 0 moveto
[
[(Helvetica) 180 0 true true 0 (r)]
[(Helvetica) 180 0 true true 0 (e)]
[(Helvetica) 180 0 true true 0 (s)]
[(Helvetica) 180 0 true true 0 (i)]
[(Helvetica) 180 0 true true 0 (d)]
[(Helvetica) 180 0 true true 0 (u)]
[(Helvetica) 180 0 true true 0 (a)]
[(Helvetica) 180 0 true true 0 (l)]
[(Helvetica) 180 0 true true 0 (s)]
] 0 MCshow grestore

end
showpage
%%Trailer
%%EOF
