%!PS-Adobe-3.0 EPSF-3.0
%%BoundingBox: 0 0 514 550
%%Creator: BioKin Ltd.
%%DocumentFonts: Symbol Helvetica
%%EndComments
%
/bkdict 256 dict def
bkdict begin
/M {moveto} def 
/R {rmoveto} def
/L {lineto} def
/rL {rlineto} def
/GSN {gsave newpath} def
/SGR {stroke grestore} def
/COSGR {gsave setrgbcolor stroke grestore grestore} def
/SL {setlinewidth} def
/LWMB {12} def             % line width - model curves, black & white
/LWMC {10} def             % line width - model curves, color
/L2 {2.5 setlinewidth} def
/L5 {5 setlinewidth} def
/L10 {10 setlinewidth} def
/G50 {0.5 setgray} def
/SDA {[10  20] 0 setdash} def % axes
/helvT {/Helvetica findfont 100 scalefont setfont} def % tiny
/helvS {/Helvetica findfont 125 scalefont setfont} def % small
/helvM {/Helvetica findfont 150 scalefont setfont} def % medium
/helvL {/Helvetica findfont 175 scalefont setfont} def % large
/xlabel {gsave M dup
   stringwidth exch -0.5 mul exch rmoveto show grestore} def 
/ylabel {gsave M 90 rotate dup
   stringwidth exch -0.5 mul exch rmoveto show grestore} def
/ylabelresid {gsave M dup
   stringwidth exch -1 mul exch rmoveto show grestore} def
% ======
% Shapes
% ======
% Circle:
/Circ {0 360 arc closepath} def
%
% Square:
/Squa {dup dup -0.5 mul dup dup R -2 mul 0 exch rL 1 mul 0 rL dup 0 exch -1 mul rL closepath} def
%
% Triangle Up:
/TriU {dup dup dup -0.4 mul exch -0.5 mul exch R dup 0.5 mul exch rL dup -1 mul exch 0.5 mul exch rL closepath} def 
%
% Triangle Down:
/TriD {dup dup dup 0.4 mul exch -0.5 mul exch R dup 0.5 mul exch -1 mul rL dup 0.5 mul exch rL closepath} def 
%
% Diamond:
/Diam {45 rotate Squa} def
% ======
% Fills
% ======
/GRF {gsave setgray fill grestore} def                    % gray-level Fill
/COF {gsave setrgbcolor fill grestore} def                % color fill
% ======
% Colors
% ======
/C01 {1.00	0.00	0.00} def      % Red
/C02 {0.00	0.00	1.00} def      % Blue
/C03 {0.00	0.39	0.00} def      % Dark Green
/C04 {0.78	0.08	0.52} def      % Medium Violet Red
/C05 {0.55	0.27	0.07} def      % Saddle Brown
/C06 {0.10	0.70	0.70} def      % (cyan)
/C07 {1.00	0.55	0.00} def      % Dark Orange
/C08 {0.63	0.13	0.94} def      % Purple
/C09 {0.00	0.75	1.00} def      % Deep Sky Blue
/C10 {0.20	0.80	0.20} def      % Lime Green
/C11 {0.47	0.53	0.60} def      % Light Slate Gray
/C12 {0.00	0.00	0.00} def      % Black            % or: {0.19	0.31	0.31} def      % Dark Slate Gray
%
/LGR {0.75} def % light gray
/DGR {0.33} def % dark gray
%
% =============
% Dash patterns
% =============
/dash01 { [80  20] 0 setdash } def
/dash02 { [40  20] 0 setdash } def
/dash03 { [80  20  10  20] 0 setdash } def
/dash04 { [40  20  10  20] 0 setdash } def
/dash05 { [80  20  10  10  10  20] 0 setdash } def
/dash06 { [40  20  10  10  10  20] 0 setdash } def
/dash07 { [10  10] 0 setdash } def
%
/MFshow {
   { dup 5 get 3 ge
     { 5 get 3 eq {gsave} {grestore} ifelse }
     {dup dup 0 get findfont exch 1 get scalefont setfont
     [ currentpoint ] exch dup 2 get 0 exch R dup 5 get 2 ne {dup dup 6
     get exch 4 get {show} {stringwidth pop 0 R} ifelse }if dup 5 get 0 eq
     {dup 3 get {2 get neg 0 exch R pop} {pop aload pop M} ifelse} {dup 5
     get 1 eq {dup 2 get exch dup 3 get exch 6 get stringwidth pop -2 div
     dup 0 R} {dup 6 get stringwidth pop -2 div 0 R 6 get
     show 2 index {aload pop M neg 3 -1 roll neg R pop pop} {pop pop pop
     pop aload pop M} ifelse }ifelse }ifelse }
     ifelse }
   forall} bind def
/MFwidth {0 exch {dup 3 get{dup dup 0 get findfont exch 1 get scalefont
     setfont 6 get stringwidth pop add} {pop} ifelse} forall} bind def
/MCshow { currentpoint stroke M
  exch dup MFwidth -2 div 3 -1 roll R MFshow } def
%
end
%%EndProlog
bkdict begin
0.1 0.1 scale
%
% Residuals:
%
GSN 620 4691 M
620 4863 L
620 4569 L
620 4632 L
620 4816 L
620 4699 L
620 4551 L
620 4636 L
620 4633 L
620 4556 L
620 4542 L
620 4644 L
620 4595 L
620 4645 L
620 4665 L
620 4722 L
620 4531 L
620 4501 L
620 4545 L
620 4555 L
620 4517 L
620 4411 L
620 4679 L
620 4639 L
620 4629 L
620 4708 L
620 4510 L
620 4533 L
620 4422 L
620 4540 L
620 4447 L
620 4576 L
620 4389 L
620 4545 L
620 4619 L
620 4448 L
620 4322 L
620 4375 L
620 4221 L
620 4349 L
620 4448 L
620 4423 L
620 4384 L
620 4246 L
620 4258 L
620 4283 L
620 4366 L
620 4351 L
620 4346 L
620 4315 L
620 4273 L
620 4264 L
620 4174 L
620 4306 L
620 4233 L
620 4278 L
620 4241 L
620 4312 L
620 4326 L
620 4281 L
620 4060 L
620 4143 L
620 4208 L
620 4243 L
620 4253 L
620 4072 L
620 4244 L
620 4248 L
620 4388 L
620 4021 L
620 4087 L
620 3959 L
620 3956 L
620 4006 L
620 4053 L
620 4077 L
620 4167 L
620 4192 L
620 4126 L
620 4211 L
620 4201 L
620 4138 L
620 3890 L
620 4087 L
620 3943 L
620 4034 L
620 4050 L
620 4161 L
620 4222 L
620 4003 L
620 4078 L
620 3941 L
620 4157 L
620 3993 L
620 4077 L
620 4002 L
620 4064 L
620 3830 L
620 4107 L
620 3916 L
620 3999 L
620 3887 L
620 3932 L
620 4090 L
620 4015 L
620 3972 L
620 3980 L
620 4058 L
620 4022 L
620 3892 L
620 3986 L
620 3891 L
620 4007 L
620 3949 L
620 3808 L
620 3802 L
620 3958 L
620 4022 L
620 3880 L
620 3825 L
620 3921 L
620 3928 L
620 3937 L
620 3888 L
620 3805 L
620 3969 L
620 3864 L
620 3911 L
620 3844 L
620 3787 L
620 3702 L
620 3772 L
620 3839 L
620 3953 L
620 3775 L
620 3857 L
620 3690 L
620 3701 L
620 3737 L
620 3769 L
620 3658 L
620 3883 L
620 3890 L
620 3665 L
620 3727 L
620 3788 L
620 3779 L
620 3746 L
620 3737 L
620 3788 L
620 3686 L
620 3672 L
620 3849 L
620 3785 L
620 3730 L
620 3634 L
620 3807 L
620 3775 L
620 3759 L
620 3705 L
620 3678 L
620 3725 L
620 3852 L
620 3794 L
620 3738 L
620 3719 L
620 3486 L
620 3593 L
620 3604 L
620 3778 L
620 3674 L
620 3732 L
620 3666 L
620 3630 L
620 3527 L
620 3601 L
620 3656 L
620 3650 L
620 3760 L
620 3621 L
620 3686 L
620 3482 L
620 3574 L
620 3533 L
620 3538 L
620 3816 L
620 3729 L
620 3615 L
620 3645 L
620 3612 L
620 3507 L
620 3673 L
620 3538 L
620 3600 L
620 3663 L
620 3616 L
620 3523 L
620 3503 L
620 3555 L
620 3510 L
620 3614 L
620 3496 L
620 3598 L
620 3624 L
620 3437 L
620 3590 L
620 3577 L
620 3497 L
620 3522 L
620 3473 L
620 3567 L
620 3500 L
620 3486 L
620 3495 L
620 3541 L
620 3354 L
620 3515 L
620 3477 L
620 3439 L
620 3600 L
620 3628 L
620 3289 L
620 3257 L
620 3313 L
620 3647 L
620 3615 L
620 3543 L
620 3587 L
620 3457 L
620 3534 L
620 3402 L
620 3459 L
620 3535 L
620 3540 L
620 3534 L
620 3480 L
620 3411 L
620 3448 L
620 3363 L
620 3495 L
620 3300 L
620 3336 L
620 3389 L
620 3607 L
620 3366 L
620 3378 L
620 3304 L
620 3388 L
620 3300 L
620 3254 L
620 3409 L
620 3551 L
620 3470 L
620 3349 L
620 3317 L
620 3507 L
620 3386 L
620 3426 L
620 3396 L
620 3377 L
620 3534 L
620 3322 L
620 3525 L
620 3467 L
620 3441 L
620 3357 L
620 3327 L
620 3482 L
620 3148 L
620 3370 L
620 3300 L
620 3164 L
620 3442 L
620 3378 L
620 3258 L
620 3477 L
620 3342 L
620 3236 L
620 3359 L
620 3412 L
620 3208 L
620 3113 L
620 3361 L
620 3315 L
620 3246 L
620 3301 L
620 3419 L
620 3374 L
620 3168 L
620 3327 L
620 3301 L
620 3160 L
620 3357 L
620 3292 L
620 3239 L
620 3139 L
620 3311 L
620 3343 L
620 3235 L
620 3220 L
620 3134 L
620 3406 L
620 3241 L
620 3335 L
620 3161 L
620 3248 L
620 3336 L
620 3130 L
620 3277 L
620 3152 L
620 3298 L
620 3351 L
620 3258 L
620 3142 L
620 3019 L
620 3240 L
620 3121 L
620 3313 L
620 3216 L
620 3280 L
620 3155 L
620 3151 L
620 3095 L
620 3079 L
620 3045 L
620 3127 L
620 3131 L
620 3289 L
620 3301 L
620 3226 L
620 3019 L
620 3181 L
620 3058 L
620 3245 L
620 3095 L
620 3160 L
620 3255 L
620 3038 L
620 3059 L
620 3099 L
620 3132 L
620 3078 L
620 3113 L
620 3222 L
620 3174 L
620 3084 L
620 2991 L
620 3164 L
620 3181 L
620 3100 L
620 3167 L
620 2964 L
620 3069 L
620 3163 L
620 3167 L
620 3253 L
620 3106 L
620 3085 L
620 3074 L
620 3104 L
620 3095 L
620 3155 L
620 3078 L
620 2963 L
620 2964 L
620 3069 L
620 3144 L
620 3157 L
620 2964 L
620 3034 L
620 3089 L
620 3022 L
620 3142 L
620 3124 L
620 3007 L
620 3161 L
620 2970 L
620 3073 L
620 3123 L
620 3235 L
620 3028 L
620 3013 L
620 2918 L
620 2966 L
620 3089 L
620 2962 L
620 2935 L
620 3063 L
620 3054 L
620 2989 L
620 3225 L
620 2978 L
620 3103 L
620 2963 L
620 2994 L
620 2957 L
620 2974 L
620 3118 L
620 3009 L
620 3010 L
620 3170 L
620 3024 L
620 2766 L
620 3067 L
620 2936 L
620 2736 L
620 2870 L
620 2889 L
620 3026 L
620 3012 L
620 3046 L
620 2965 L
620 3023 L
620 2976 L
620 2861 L
620 2793 L
620 2824 L
620 2918 L
620 2946 L
620 2727 L
620 2763 L
620 2789 L
620 2948 L
620 2869 L
620 2824 L
620 2835 L
620 2729 L
620 2811 L
620 2842 L
620 2834 L
620 2706 L
620 2831 L
620 2682 L
620 2643 L
620 2890 L
620 2673 L
620 2766 L
620 2848 L
620 2821 L
620 2704 L
620 2769 L
620 2954 L
620 2774 L
620 2794 L
620 2708 L
620 2742 L
620 2657 L
620 2529 L
620 2759 L
620 2735 L
620 2675 L
620 2698 L
620 2700 L
620 2695 L
620 2812 L
620 2643 L
620 2767 L
620 2589 L
620 2744 L
620 2755 L
620 2535 L
620 2778 L
620 2658 L
620 2656 L
620 2582 L
620 2575 L
620 2547 L
620 2570 L
620 2403 L
620 2616 L
620 2596 L
620 2578 L
620 2471 L
620 2605 L
620 2527 L
620 2776 L
620 2447 L
620 2457 L
620 2706 L
620 2555 L
620 2539 L
620 2675 L
620 2562 L
620 2538 L
620 2518 L
620 2582 L
620 2613 L
620 2590 L
620 2458 L
620 2411 L
620 2606 L
620 2503 L
620 2566 L
620 2398 L
620 2585 L
620 2581 L
620 2521 L
620 2518 L
620 2511 L
620 2634 L
620 2296 L
620 2510 L
620 2570 L
620 2358 L
620 2529 L
620 2401 L
620 2532 L
620 2372 L
620 2512 L
620 2370 L
620 2518 L
620 2514 L
620 2547 L
620 2392 L
620 2520 L
620 2494 L
620 2413 L
620 2487 L
620 2502 L
620 2443 L
620 2488 L
620 2470 L
620 2453 L
620 2703 L
620 2690 L
620 2365 L
620 2481 L
620 2407 L
620 2454 L
620 2374 L
620 2460 L
620 2338 L
620 2423 L
620 2551 L
620 2495 L
620 2577 L
620 2300 L
620 2441 L
620 2387 L
620 2550 L
620 2431 L
620 2430 L
620 2484 L
620 2408 L
620 2328 L
620 2437 L
620 2458 L
620 2485 L
620 2277 L
620 2449 L
620 2373 L
620 2434 L
620 2279 L
620 2374 L
620 2376 L
620 2296 L
620 2644 L
620 2358 L
620 2373 L
620 2279 L
620 2511 L
620 2292 L
620 2448 L
620 2363 L
620 2476 L
620 2403 L
620 2376 L
620 2483 L
620 2311 L
620 2433 L
620 2366 L
620 2438 L
620 2308 L
620 2357 L
620 2560 L
620 2397 L
620 2437 L
620 2369 L
620 2345 L
620 2395 L
620 2455 L
620 2376 L
620 2274 L
620 2369 L
620 2357 L
620 2264 L
620 2337 L
620 2436 L
620 2388 L
620 2215 L
620 2346 L
620 2494 L
620 2433 L
620 2373 L
620 2489 L
620 2449 L
620 2346 L
620 2419 L
620 2425 L
620 2362 L
620 2347 L
620 2414 L
620 2389 L
620 2413 L
620 2381 L
620 2370 L
620 2309 L
620 2364 L
620 2401 L
620 2408 L
620 2331 L
620 2472 L
620 2344 L
620 2419 L
620 2357 L
620 2364 L
620 2374 L
620 2374 L
620 2308 L
620 2327 L
620 2351 L
620 2446 L
620 2344 L
620 2324 L
620 2352 L
620 2366 L
620 2216 L
620 2336 L
620 2430 L
620 2430 L
620 2388 L
620 2402 L
620 2455 L
620 2355 L
620 2427 L
620 2389 L
620 2487 L
620 2367 L
620 2456 L
620 2484 L
620 2431 L
620 2413 L
620 2471 L
620 2420 L
620 2406 L
620 2258 L
620 2332 L
620 2345 L
620 2390 L
620 2354 L
620 2385 L
620 2298 L
620 2253 L
620 2459 L
620 2270 L
620 2487 L
620 2313 L
620 2400 L
620 2359 L
620 2345 L
620 2369 L
620 2362 L
620 2349 L
620 2316 L
620 2354 L
620 2397 L
620 2136 L
620 2346 L
620 2373 L
620 2336 L
620 2377 L
620 2335 L
620 2361 L
620 2409 L
620 2449 L
620 2438 L
620 2215 L
620 2346 L
620 2468 L
620 2403 L
620 2382 L
620 2294 L
620 2410 L
620 2414 L
620 2375 L
620 2356 L
620 2455 L
620 2371 L
620 2313 L
620 2371 L
620 2340 L
620 2377 L
620 2317 L
620 2382 L
620 2422 L
620 2378 L
620 2297 L
620 2492 L
620 2254 L
620 2239 L
620 2419 L
620 2378 L
620 2228 L
620 2500 L
620 2426 L
620 2413 L
620 2438 L
620 2478 L
620 2377 L
620 2382 L
620 2398 L
620 2566 L
620 2466 L
620 2403 L
620 2481 L
620 2439 L
620 2433 L
620 2357 L
620 2489 L
620 2621 L
620 2434 L
620 2416 L
620 2266 L
620 2413 L
620 2461 L
620 2514 L
620 2427 L
620 2487 L
620 2343 L
620 2420 L
620 2549 L
620 2419 L
620 2448 L
620 2327 L
620 2511 L
620 2196 L
620 2554 L
620 2312 L
620 2459 L
620 2555 L
620 2269 L
620 2561 L
620 2401 L
620 2544 L
620 2404 L
620 2373 L
620 2462 L
620 2473 L
620 2500 L
620 2451 L
620 2545 L
620 2515 L
620 2402 L
620 2445 L
620 2404 L
620 2497 L
620 2399 L
620 2454 L
620 2398 L
620 2526 L
620 2376 L
620 2441 L
620 2663 L
620 2454 L
620 2394 L
620 2455 L
620 2564 L
620 2497 L
620 2515 L
620 2195 L
620 2460 L
620 2356 L
620 2478 L
620 2513 L
620 2455 L
620 2448 L
620 2535 L
620 2623 L
620 2351 L
620 2551 L
620 2424 L
620 2398 L
620 2461 L
620 2526 L
620 2444 L
620 2515 L
620 2512 L
620 2431 L
620 2493 L
620 2442 L
620 2406 L
620 2525 L
620 2392 L
620 2508 L
620 2548 L
620 2457 L
620 2389 L
620 2352 L
620 2575 L
620 2349 L
620 2348 L
620 2376 L
620 2530 L
620 2393 L
620 2537 L
620 2452 L
620 2574 L
620 2502 L
620 2534 L
620 2536 L
620 2553 L
620 2398 L
620 2496 L
620 2636 L
620 2429 L
620 2390 L
620 2508 L
620 2598 L
620 2437 L
620 2375 L
620 2526 L
620 2507 L
620 2513 L
620 2614 L
620 2477 L
620 2472 L
620 2468 L
620 2547 L
620 2515 L
620 2473 L
620 2463 L
620 2588 L
620 2506 L
620 2449 L
620 2428 L
620 2452 L
620 2651 L
620 2574 L
620 2456 L
620 2577 L
620 2617 L
620 2536 L
620 2427 L
620 2393 L
620 2455 L
620 2468 L
620 2630 L
620 2497 L
620 2594 L
620 2495 L
620 2606 L
620 2484 L
620 2438 L
620 2444 L
620 2354 L
620 2543 L
620 2550 L
620 2544 L
620 2629 L
620 2495 L
620 2562 L
620 2710 L
620 2505 L
620 2532 L
620 2620 L
620 2620 L
620 2652 L
620 2478 L
620 2520 L
620 2360 L
620 2480 L
620 2478 L
620 2514 L
620 2572 L
620 2460 L
620 2480 L
620 2554 L
620 2628 L
620 2463 L
620 2571 L
620 2606 L
620 2627 L
620 2565 L
620 2403 L
620 2498 L
620 2573 L
620 2542 L
620 2424 L
620 2615 L
620 2611 L
620 2487 L
620 2533 L
620 2638 L
620 2512 L
620 2516 L
620 2515 L
620 2602 L
620 2638 L
620 2639 L
620 2604 L
620 2524 L
620 2602 L
620 2631 L
620 2445 L
620 2724 L
620 2591 L
620 2625 L
620 2508 L
620 2519 L
620 2528 L
620 2690 L
620 2502 L
620 2560 L
620 2492 L
620 2579 L
620 2559 L
620 2553 L
620 2523 L
620 2511 L
620 2572 L
620 2635 L
620 2560 L
620 2655 L
620 2638 L
620 2649 L
620 2539 L
620 2527 L
620 2661 L
620 2498 L
620 2485 L
620 2653 L
620 2492 L
620 2479 L
620 2556 L
620 2543 L
620 2653 L
620 2529 L
620 2574 L
620 2598 L
620 2601 L
620 2505 L
620 2588 L
620 2560 L
620 2632 L
620 2674 L
620 2572 L
620 2573 L
620 2520 L
620 2679 L
620 2522 L
620 2596 L
620 2708 L
620 2685 L
620 2698 L
620 2556 L
620 2675 L
620 2644 L
620 2515 L
620 2609 L
620 2527 L
620 2484 L
620 2627 L
620 2591 L
620 2535 L
620 2641 L
620 2567 L
620 2616 L
620 2599 L
620 2490 L
620 2575 L
620 2639 L
620 2528 L
620 2813 L
620 2598 L
620 2589 L
620 2631 L
620 2666 L
620 2641 L
620 2620 L
620 2621 L
620 2521 L
620 2580 L
620 2639 L
620 2672 L
620 2698 L
620 2564 L
620 2504 L
620 2654 L
620 2746 L
620 2691 L
620 2545 L
620 2646 L
620 2603 L
620 2655 L
620 2627 L
620 2655 L
620 2585 L
620 2663 L
620 2756 L
620 2686 L
620 2598 L
620 2641 L
620 2664 L
620 2616 L
620 2672 L
620 2666 L
620 2611 L
620 2753 L
620 2638 L
620 2715 L
620 2477 L
620 2648 L
620 2604 L
620 2615 L
620 2570 L
620 2791 L
620 2645 L
620 2679 L
620 2685 L
620 2604 L
620 2610 L
620 2751 L
620 2692 L
620 2410 L
620 2665 L
620 2624 L
620 2623 L
620 2567 L
620 2721 L
620 2650 L
620 2665 L
620 2711 L
620 2615 L
620 2722 L
620 2596 L
620 2598 L
620 2548 L
620 2718 L
620 2609 L
620 2622 L
620 2656 L
620 2614 L
620 2599 L
620 2645 L
620 2620 L
620 2713 L
620 2751 L
620 2706 L
620 2575 L
620 2761 L
620 2639 L
620 2807 L
620 2669 L
620 2671 L
620 2715 L
620 2621 L
620 2590 L
620 2807 L
620 2594 L
620 2687 L
620 2702 L
620 2716 L
620 2701 L
620 2701 L
620 2817 L
620 2528 L
620 2510 L
620 2508 L
620 2686 L
620 2648 L
620 2628 L
620 2673 L
620 2673 L
620 2727 L
620 2834 L
620 2696 L
620 2757 L
620 2727 L
620 2617 L
620 2609 L
620 2777 L
620 2805 L
620 2688 L
620 2692 L
620 2750 L
620 2738 L
620 2671 L
620 2751 L
620 2647 L
620 2819 L
620 2714 L
620 2624 L
620 2535 L
620 2796 L
620 2810 L
620 2712 L
620 2598 L
620 2708 L
620 2752 L
620 2623 L
620 2716 L
620 2823 L
620 2565 L
620 2740 L
620 2705 L
620 2697 L
620 2747 L
620 2672 L
620 2693 L
620 2682 L
620 2822 L
620 2585 L
620 2623 L
620 2768 L
620 2701 L
620 2795 L
620 2756 L
620 2755 L
620 2583 L
620 2686 L
620 2804 L
620 2743 L
620 2842 L
620 2858 L
620 2898 L
620 2590 L
620 2752 L
620 2619 L
620 2600 L
620 2653 L
620 2710 L
620 2819 L
620 2569 L
620 2747 L
620 2805 L
620 2896 L
620 2638 L
620 2656 L
620 2601 L
620 2648 L
620 2783 L
620 2710 L
620 2694 L
620 2678 L
620 2748 L
620 2800 L
620 2820 L
620 2785 L
620 2729 L
620 2789 L
620 2720 L
620 2704 L
620 2659 L
620 2684 L
620 2763 L
620 2800 L
620 2851 L
620 2743 L
620 2776 L
620 2750 L
620 2770 L
620 2677 L
620 2677 L
620 2669 L
620 2750 L
620 2670 L
620 2705 L
620 2750 L
620 2831 L
620 2801 L
620 2797 L
620 2751 L
620 2821 L
620 2786 L
620 2726 L
620 2728 L
620 2722 L
620 2807 L
620 2745 L
620 2849 L
620 2921 L
620 2750 L
620 2795 L
620 2769 L
620 2772 L
620 2909 L
620 2746 L
620 2737 L
620 2839 L
620 2699 L
620 2695 L
620 2805 L
620 2742 L
620 2575 L
620 2705 L
620 2871 L
620 2754 L
620 2754 L
620 2716 L
620 2718 L
620 2756 L
620 2748 L
620 2714 L
620 2720 L
620 2874 L
620 2811 L
620 2758 L
620 2794 L
620 2768 L
620 2687 L
620 2759 L
620 2769 L
620 2639 L
620 2782 L
620 2950 L
620 2902 L
620 2983 L
620 2717 L
620 2734 L
620 2678 L
620 2756 L
620 2687 L
620 2729 L
620 2677 L
620 2817 L
620 2693 L
620 2726 L
620 2736 L
620 2933 L
620 2800 L
620 2645 L
620 2658 L
620 2611 L
620 2794 L
620 2743 L
620 2887 L
620 2729 L
620 2730 L
620 2690 L
620 2788 L
620 2717 L
620 2708 L
620 2935 L
620 2793 L
620 2877 L
620 2720 L
620 3044 L
620 2751 L
620 2878 L
620 2808 L
620 2704 L
620 2685 L
620 2741 L
620 2767 L
620 2626 L
620 2718 L
620 2790 L
620 2858 L
620 2782 L
620 2739 L
620 2786 L
620 2840 L
620 2604 L
620 2748 L
620 2873 L
620 2856 L
620 2639 L
620 2859 L
620 2752 L
620 2767 L
620 2888 L
620 2862 L
620 2832 L
620 2690 L
620 2757 L
620 2768 L
620 2785 L
620 2861 L
620 2869 L
620 2781 L
620 2773 L
620 2762 L
620 3085 L
620 2789 L
620 2749 L
620 2780 L
620 2987 L
620 3033 L
620 2775 L
620 2764 L
620 2871 L
620 2925 L
620 2824 L
620 2882 L
620 2861 L
620 2700 L
620 2801 L
620 2801 L
620 2841 L
620 2902 L
620 2726 L
620 2905 L
620 2807 L
620 2923 L
620 2834 L
620 3007 L
620 2851 L
620 2813 L
620 2771 L
620 2958 L
620 2888 L
620 2756 L
620 2941 L
620 2760 L
620 2926 L
620 2885 L
620 2773 L
620 2817 L
620 2841 L
620 2771 L
620 2932 L
620 2779 L
620 2834 L
620 2862 L
620 2728 L
620 2873 L
620 2888 L
620 2911 L
620 2786 L
620 2897 L
620 2865 L
620 2929 L
620 2878 L
620 2876 L
620 2944 L
620 2819 L
620 2895 L
620 2848 L
620 2719 L
620 2659 L
620 2726 L
620 2785 L
620 2849 L
620 2741 L
620 2786 L
620 2861 L
620 2906 L
620 2874 L
620 2870 L
620 2896 L
620 2957 L
620 2982 L
620 2884 L
620 2835 L
620 2789 L
620 2806 L
620 2902 L
620 2933 L
620 2844 L
620 2818 L
620 2625 L
620 2837 L
620 2909 L
620 2767 L
620 2873 L
620 2883 L
620 2819 L
620 2897 L
620 2804 L
620 2765 L
620 2833 L
620 2749 L
620 2843 L
620 2887 L
620 2839 L
620 2852 L
620 2827 L
620 2999 L
620 2857 L
620 2696 L
620 2945 L
620 2928 L
620 2843 L
620 2972 L
620 2808 L
620 2788 L
620 2940 L
620 2813 L
620 2692 L
620 2807 L
620 2891 L
620 2749 L
620 3010 L
620 2790 L
620 2859 L
620 2897 L
620 2941 L
620 2933 L
620 2842 L
620 2748 L
620 2989 L
620 2799 L
620 2839 L
620 2966 L
620 2860 L
620 2997 L
620 2895 L
620 2934 L
620 2876 L
620 3027 L
620 3008 L
620 2883 L
620 2973 L
620 2970 L
620 3067 L
620 3023 L
620 3056 L
620 3134 L
620 2974 L
620 3027 L
620 3136 L
620 3145 L
620 3012 L
620 2956 L
620 3027 L
620 2908 L
620 3067 L
620 3132 L
620 3162 L
620 3010 L
620 3071 L
620 3002 L
620 3051 L
620 3134 L
620 3001 L
620 3225 L
620 2892 L
620 2966 L
620 3121 L
620 3173 L
620 3097 L
620 2889 L
620 3164 L
620 3120 L
620 3219 L
620 3152 L
620 3156 L
620 3072 L
620 3089 L
620 2924 L
620 2994 L
620 3190 L
620 2973 L
620 3134 L
620 2990 L
620 3134 L
620 2972 L
620 3210 L
620 3119 L
620 3086 L
620 3141 L
620 3053 L
620 2912 L
620 3027 L
620 3133 L
620 3126 L
620 3029 L
620 3170 L
620 3025 L
620 3022 L
620 3152 L
620 3297 L
620 3119 L
620 2955 L
620 3122 L
620 3143 L
620 2886 L
620 2925 L
620 3248 L
620 3041 L
620 2949 L
620 3207 L
620 3081 L
620 2975 L
620 3207 L
620 3169 L
620 3049 L
620 3103 L
620 3162 L
620 3024 L
620 3120 L
620 3042 L
620 3231 L
620 3019 L
620 3170 L
620 3081 L
620 3142 L
620 3159 L
620 3032 L
620 3013 L
620 3100 L
620 3167 L
620 3021 L
620 3172 L
620 3144 L
620 3177 L
620 3176 L
620 3065 L
620 3115 L
620 3146 L
620 3090 L
620 2887 L
620 3193 L
620 2840 L
620 3170 L
620 3049 L
620 3023 L
620 3049 L
620 3108 L
620 3208 L
620 3220 L
620 2918 L
620 3136 L
620 3075 L
620 3174 L
620 2952 L
620 3083 L
620 3097 L
620 2967 L
620 3268 L
620 3227 L
620 3083 L
620 3031 L
620 3081 L
620 3079 L
620 3103 L
620 3126 L
620 3109 L
620 2959 L
620 3090 L
620 3102 L
620 3010 L
620 2993 L
620 3309 L
620 3003 L
620 3057 L
620 3120 L
620 3100 L
620 3103 L
620 3014 L
620 3069 L
620 3213 L
620 3034 L
620 2906 L
620 2962 L
620 3129 L
620 3174 L
620 3031 L
620 3178 L
620 3116 L
620 3042 L
620 3166 L
620 3158 L
620 3086 L
620 3175 L
620 3022 L
620 3023 L
620 3174 L
620 3228 L
620 2974 L
620 3031 L
620 3274 L
620 3092 L
620 3002 L
620 3260 L
620 3109 L
620 3064 L
620 3123 L
620 3028 L
620 2997 L
620 3078 L
620 2964 L
620 3038 L
620 3110 L
620 3014 L
620 2996 L
620 2890 L
620 2909 L
620 3052 L
620 3135 L
620 3054 L
620 2973 L
620 2939 L
620 3106 L
620 2972 L
620 3047 L
620 2932 L
620 2987 L
620 2997 L
620 3095 L
620 2951 L
620 3061 L
620 3157 L
620 3185 L
620 3054 L
620 2984 L
620 3219 L
620 3057 L
620 3120 L
620 3015 L
620 3044 L
620 2754 L
620 3048 L
620 3085 L
620 3124 L
620 3107 L
620 2942 L
620 3086 L
620 3084 L
620 3182 L
620 3045 L
620 2963 L
620 3068 L
620 3085 L
620 3025 L
620 3044 L
620 3060 L
620 3120 L
620 2961 L
620 2968 L
620 2966 L
620 2911 L
620 3124 L
620 3222 L
620 3116 L
620 2983 L
620 3010 L
620 2889 L
620 3158 L
620 3091 L
620 2949 L
620 2962 L
620 3098 L
620 3007 L
620 2996 L
620 3025 L
620 3068 L
620 2901 L
620 2941 L
620 3168 L
620 3113 L
620 3151 L
620 2981 L
620 3048 L
620 3077 L
620 2983 L
620 3231 L
620 2902 L
620 3040 L
620 3005 L
620 3161 L
620 3020 L
620 3103 L
620 2893 L
620 3028 L
620 3143 L
620 3109 L
620 3128 L
620 3129 L
620 2919 L
620 2975 L
620 2771 L
620 2981 L
620 2941 L
620 2917 L
620 3083 L
620 2943 L
620 3088 L
620 3070 L
620 2948 L
620 3041 L
620 2934 L
620 3106 L
620 2953 L
620 2895 L
620 2953 L
620 3018 L
620 2987 L
620 3097 L
620 2991 L
620 3010 L
620 3040 L
620 3052 L
620 2932 L
620 3006 L
620 3286 L
620 3010 L
620 2980 L
620 3040 L
620 2923 L
620 3007 L
620 2959 L
620 2829 L
620 2978 L
620 3098 L
620 3082 L
620 2953 L
620 2991 L
620 3074 L
620 3011 L
620 2926 L
620 2947 L
620 3369 L
620 2935 L
620 3070 L
620 2889 L
620 3071 L
620 3025 L
620 3026 L
620 2907 L
620 2962 L
620 3091 L
620 2875 L
620 3184 L
620 3072 L
620 2922 L
620 3067 L
620 2961 L
620 3045 L
620 3049 L
620 2992 L
620 3092 L
620 3062 L
620 2905 L
620 3110 L
620 3072 L
620 3054 L
620 2878 L
620 2853 L
620 3084 L
620 2932 L
620 3056 L
620 2966 L
620 3163 L
620 2955 L
620 3000 L
620 2938 L
620 2946 L
620 2856 L
620 3113 L
620 2900 L
620 3163 L
620 3008 L
620 2952 L
620 3074 L
620 2870 L
620 2963 L
L2 C04 COSGR

%
%================
% Legend - Begin
%================
%
GSN 4240 5180 M
4480 5180 L
LWMC SL  C04 COSGR
GSN 4540 5141 M helvM (2.0 uM) show grestore
%
%================
% Legend - End
%================
%

%
% Main frame
%
L10
GSN 
620 1700 M
4220 1700 L
4220 5300 L
620 5300 L
closepath SGR

%
% X axis: large tics
%
L10
%
% X axis: small tics
%
L5
%
% Y axis: large tics
%
L10
GSN 620 2109 M 54 0 rL SGR
GSN 4220 2109 M -54 0 rL SGR
helvS (-0.025) 560 2109 ylabel
GSN 620 2936 M 54 0 rL SGR
GSN 4220 2936 M -54 0 rL SGR
helvS (0) 560 2936 ylabel
GSN 620 3763 M 54 0 rL SGR
GSN 4220 3763 M -54 0 rL SGR
helvS (0.025) 560 3763 ylabel
GSN 620 4590 M 54 0 rL SGR
GSN 4220 4590 M -54 0 rL SGR
helvS (0.05) 560 4590 ylabel
%
% Y axis: small tics
%
L5
GSN 620 1944 M 36 0 rL SGR
GSN 4220 1944 M -36 0 rL SGR
GSN 620 2357 M 36 0 rL SGR
GSN 4220 2357 M -36 0 rL SGR
GSN 620 2771 M 36 0 rL SGR
GSN 4220 2771 M -36 0 rL SGR
GSN 620 3184 M 36 0 rL SGR
GSN 4220 3184 M -36 0 rL SGR
GSN 620 3598 M 36 0 rL SGR
GSN 4220 3598 M -36 0 rL SGR
GSN 620 4011 M 36 0 rL SGR
GSN 4220 4011 M -36 0 rL SGR
GSN 620 4425 M 36 0 rL SGR
GSN 4220 4425 M -36 0 rL SGR
GSN 620 4838 M 36 0 rL SGR
GSN 4220 4838 M -36 0 rL SGR
GSN 620 5252 M 36 0 rL SGR
GSN 4220 5252 M -36 0 rL SGR

%
% X axis - residual panel
%
GSN L5 620 2936 M 4220 2936 L SDA G50 SGR

%
% X-Axis label:
%
gsave 620 1370 M 
[
[(Helvetica) 180 0 true true 0 (t)]
[(Helvetica) 180 0 true true 0 (i)]
[(Helvetica) 180 0 true true 0 (m)]
[(Helvetica) 180 0 true true 0 (e)]
] 0 MCshow grestore

%
% Y-Axis label:
%
gsave 234 3500 M 
currentpoint gsave translate 90 rotate 0 0 moveto
[
[(Helvetica) 180 0 true true 0 (r)]
[(Helvetica) 180 0 true true 0 (e)]
[(Helvetica) 180 0 true true 0 (s)]
[(Helvetica) 180 0 true true 0 (i)]
[(Helvetica) 180 0 true true 0 (d)]
[(Helvetica) 180 0 true true 0 (u)]
[(Helvetica) 180 0 true true 0 (a)]
[(Helvetica) 180 0 true true 0 (l)]
[(Helvetica) 180 0 true true 0 (s)]
] 0 MCshow grestore

end
showpage
%%Trailer
%%EOF
