%!PS-Adobe-3.0 EPSF-3.0
%%BoundingBox: 0 0 514 550
%%Creator: BioKin Ltd.
%%DocumentFonts: Symbol Helvetica
%%EndComments
%
/bkdict 256 dict def
bkdict begin
/M {moveto} def 
/R {rmoveto} def
/L {lineto} def
/rL {rlineto} def
/GSN {gsave newpath} def
/SGR {stroke grestore} def
/COSGR {gsave setrgbcolor stroke grestore grestore} def
/SL {setlinewidth} def
/LWMB {12} def             % line width - model curves, black & white
/LWMC {10} def             % line width - model curves, color
/L2 {2.5 setlinewidth} def
/L5 {5 setlinewidth} def
/L10 {10 setlinewidth} def
/G50 {0.5 setgray} def
/SDA {[10  20] 0 setdash} def % axes
/helvT {/Helvetica findfont 100 scalefont setfont} def % tiny
/helvS {/Helvetica findfont 125 scalefont setfont} def % small
/helvM {/Helvetica findfont 150 scalefont setfont} def % medium
/helvL {/Helvetica findfont 175 scalefont setfont} def % large
/xlabel {gsave M dup
   stringwidth exch -0.5 mul exch rmoveto show grestore} def 
/ylabel {gsave M 90 rotate dup
   stringwidth exch -0.5 mul exch rmoveto show grestore} def
/ylabelresid {gsave M dup
   stringwidth exch -1 mul exch rmoveto show grestore} def
% ======
% Shapes
% ======
% Circle:
/Circ {0 360 arc closepath} def
%
% Square:
/Squa {dup dup -0.5 mul dup dup R -2 mul 0 exch rL 1 mul 0 rL dup 0 exch -1 mul rL closepath} def
%
% Triangle Up:
/TriU {dup dup dup -0.4 mul exch -0.5 mul exch R dup 0.5 mul exch rL dup -1 mul exch 0.5 mul exch rL closepath} def 
%
% Triangle Down:
/TriD {dup dup dup 0.4 mul exch -0.5 mul exch R dup 0.5 mul exch -1 mul rL dup 0.5 mul exch rL closepath} def 
%
% Diamond:
/Diam {45 rotate Squa} def
% ======
% Fills
% ======
/GRF {gsave setgray fill grestore} def                    % gray-level Fill
/COF {gsave setrgbcolor fill grestore} def                % color fill
% ======
% Colors
% ======
/C01 {1.00	0.00	0.00} def      % Red
/C02 {0.00	0.00	1.00} def      % Blue
/C03 {0.00	0.39	0.00} def      % Dark Green
/C04 {0.78	0.08	0.52} def      % Medium Violet Red
/C05 {0.55	0.27	0.07} def      % Saddle Brown
/C06 {0.10	0.70	0.70} def      % (cyan)
/C07 {1.00	0.55	0.00} def      % Dark Orange
/C08 {0.63	0.13	0.94} def      % Purple
/C09 {0.00	0.75	1.00} def      % Deep Sky Blue
/C10 {0.20	0.80	0.20} def      % Lime Green
/C11 {0.47	0.53	0.60} def      % Light Slate Gray
/C12 {0.00	0.00	0.00} def      % Black            % or: {0.19	0.31	0.31} def      % Dark Slate Gray
%
/LGR {0.75} def % light gray
/DGR {0.33} def % dark gray
%
% =============
% Dash patterns
% =============
/dash01 { [80  20] 0 setdash } def
/dash02 { [40  20] 0 setdash } def
/dash03 { [80  20  10  20] 0 setdash } def
/dash04 { [40  20  10  20] 0 setdash } def
/dash05 { [80  20  10  10  10  20] 0 setdash } def
/dash06 { [40  20  10  10  10  20] 0 setdash } def
/dash07 { [10  10] 0 setdash } def
%
/MFshow {
   { dup 5 get 3 ge
     { 5 get 3 eq {gsave} {grestore} ifelse }
     {dup dup 0 get findfont exch 1 get scalefont setfont
     [ currentpoint ] exch dup 2 get 0 exch R dup 5 get 2 ne {dup dup 6
     get exch 4 get {show} {stringwidth pop 0 R} ifelse }if dup 5 get 0 eq
     {dup 3 get {2 get neg 0 exch R pop} {pop aload pop M} ifelse} {dup 5
     get 1 eq {dup 2 get exch dup 3 get exch 6 get stringwidth pop -2 div
     dup 0 R} {dup 6 get stringwidth pop -2 div 0 R 6 get
     show 2 index {aload pop M neg 3 -1 roll neg R pop pop} {pop pop pop
     pop aload pop M} ifelse }ifelse }ifelse }
     ifelse }
   forall} bind def
/MFwidth {0 exch {dup 3 get{dup dup 0 get findfont exch 1 get scalefont
     setfont 6 get stringwidth pop add} {pop} ifelse} forall} bind def
/MCshow { currentpoint stroke M
  exch dup MFwidth -2 div 3 -1 roll R MFshow } def
%
end
%%EndProlog
bkdict begin
0.1 0.1 scale
%
% Model curves:
%

GSN 753 5166 M
753 5166 L
786 5162 L
820 5157 L
853 5151 L
886 5144 L
920 5137 L
929 5134 L
953 5128 L
986 5118 L
1020 5108 L
1053 5095 L
1086 5081 L
1106 5072 L
1120 5065 L
1153 5048 L
1186 5027 L
1220 5005 L
1253 4979 L
1282 4954 L
1286 4951 L
1319 4919 L
1353 4883 L
1386 4843 L
1419 4799 L
1453 4750 L
1459 4741 L
1486 4696 L
1519 4637 L
1553 4573 L
1586 4502 L
1619 4426 L
1635 4388 L
1653 4344 L
1686 4256 L
1719 4163 L
1753 4065 L
1786 3963 L
1812 3881 L
1819 3857 L
1853 3747 L
1886 3636 L
1919 3524 L
1953 3413 L
1986 3303 L
1988 3296 L
2019 3196 L
2053 3093 L
2086 2995 L
2119 2903 L
2153 2819 L
2165 2790 L
2186 2743 L
2219 2675 L
2253 2616 L
2286 2567 L
2319 2526 L
2341 2503 L
2353 2493 L
2386 2468 L
2419 2450 L
2453 2438 L
2486 2429 L
2518 2425 L
2519 2425 L
2553 2422 L
2586 2421 L
2619 2420 L
2653 2420 L
2686 2420 L
2694 2420 L
2719 2420 L
2753 2420 L
2786 2420 L
2819 2420 L
2853 2420 L
2871 2420 L
2886 2420 L
2919 2420 L
2953 2420 L
2986 2420 L
3019 2420 L
3047 2420 L
3053 2420 L
3086 2420 L
3119 2420 L
3153 2420 L
3186 2420 L
3219 2420 L
3224 2420 L
3253 2420 L
3286 2420 L
3319 2420 L
3353 2420 L
3386 2420 L
3400 2420 L
3419 2420 L
3453 2420 L
3476 2420 L
3486 2420 L
3519 2420 L
3553 2420 L
3577 2420 L
3586 2420 L
3619 2420 L
3653 2420 L
3686 2420 L
3719 2420 L
3753 2420 L
3754 2420 L
3786 2420 L
3819 2420 L
3853 2420 L
3886 2420 L
3919 2420 L
3930 2420 L
3953 2420 L
3986 2420 L
4019 2420 L
4053 2420 L
4086 2420 L
4086 2420 L
LWMC SL  C04 COSGR

%
% Experimental data:
%
GSN 777 3891 M
1388 3848 L
1552 3630 L
1652 3677 L
1723 3813 L
1778 3726 L
1824 3617 L
1863 3680 L
1896 3677 L
1926 3621 L
1952 3610 L
1976 3686 L
1998 3649 L
2019 3686 L
2037 3701 L
2055 3743 L
2071 3602 L
2086 3580 L
2101 3612 L
2115 3620 L
2128 3591 L
2140 3513 L
2152 3712 L
2163 3682 L
2174 3674 L
2184 3733 L
2194 3586 L
2204 3603 L
2213 3521 L
2222 3609 L
2230 3540 L
2239 3635 L
2247 3497 L
2255 3612 L
2262 3667 L
2270 3541 L
2277 3447 L
2284 3486 L
2290 3373 L
2297 3467 L
2303 3541 L
2310 3522 L
2316 3493 L
2322 3391 L
2328 3400 L
2333 3418 L
2339 3480 L
2344 3469 L
2350 3465 L
2355 3442 L
2360 3411 L
2365 3405 L
2370 3337 L
2375 3435 L
2380 3382 L
2384 3414 L
2389 3387 L
2393 3440 L
2398 3450 L
2402 3417 L
2407 3254 L
2411 3315 L
2415 3363 L
2419 3389 L
2423 3396 L
2427 3262 L
2431 3390 L
2435 3393 L
2438 3496 L
2442 3225 L
2446 3273 L
2449 3178 L
2453 3177 L
2456 3213 L
2460 3248 L
2463 3266 L
2467 3333 L
2470 3351 L
2473 3302 L
2476 3365 L
2480 3358 L
2483 3311 L
2486 3127 L
2489 3273 L
2492 3167 L
2495 3234 L
2498 3246 L
2501 3328 L
2504 3373 L
2507 3211 L
2510 3266 L
2512 3166 L
2515 3325 L
2518 3204 L
2521 3266 L
2523 3210 L
2526 3257 L
2529 3083 L
2531 3288 L
2534 3147 L
2536 3208 L
2539 3125 L
2541 3159 L
2544 3275 L
2546 3220 L
2549 3188 L
2551 3194 L
2554 3252 L
2556 3225 L
2558 3129 L
2561 3198 L
2563 3128 L
2565 3215 L
2568 3172 L
2570 3067 L
2572 3062 L
2574 3178 L
2576 3225 L
2579 3120 L
2581 3079 L
2583 3151 L
2585 3156 L
2587 3162 L
2589 3126 L
2591 3065 L
2593 3186 L
2595 3108 L
2597 3143 L
2599 3093 L
2601 3051 L
2603 2989 L
2605 3040 L
2607 3090 L
2609 3174 L
2611 3043 L
2613 3103 L
2615 2980 L
2617 2988 L
2618 3014 L
2620 3038 L
2622 2956 L
2624 3122 L
2626 3128 L
2627 2961 L
2629 3007 L
2631 3052 L
2633 3045 L
2634 3021 L
2636 3015 L
2638 3052 L
2640 2977 L
2641 2966 L
2643 3098 L
2645 3050 L
2646 3009 L
2648 2939 L
2650 3066 L
2651 3043 L
2653 3031 L
2654 2991 L
2656 2971 L
2658 3006 L
2659 3100 L
2661 3057 L
2662 3015 L
2664 3002 L
2665 2829 L
2667 2908 L
2668 2916 L
2670 3045 L
2671 2968 L
2673 3011 L
2674 2962 L
2676 2935 L
2677 2859 L
2679 2914 L
2680 2955 L
2682 2950 L
2683 3032 L
2685 2929 L
2686 2977 L
2687 2826 L
2689 2894 L
2690 2864 L
2692 2867 L
2693 3073 L
2694 3009 L
2696 2925 L
2697 2946 L
2698 2922 L
2700 2845 L
2701 2968 L
2702 2868 L
2704 2913 L
2705 2960 L
2706 2925 L
2708 2856 L
2709 2841 L
2710 2880 L
2712 2847 L
2713 2924 L
2714 2837 L
2715 2912 L
2717 2931 L
2718 2792 L
2719 2906 L
2720 2896 L
2722 2837 L
2723 2856 L
2724 2820 L
2725 2889 L
2726 2840 L
2728 2829 L
2729 2835 L
2730 2870 L
2731 2731 L
2732 2850 L
2734 2822 L
2735 2794 L
2736 2913 L
2737 2934 L
2738 2683 L
2739 2659 L
2741 2701 L
2742 2948 L
2743 2924 L
2744 2871 L
2745 2903 L
2746 2808 L
2747 2865 L
2748 2767 L
2749 2809 L
2751 2865 L
2752 2869 L
2753 2865 L
2754 2824 L
2755 2774 L
2756 2801 L
2757 2738 L
2758 2836 L
2759 2691 L
2760 2718 L
2761 2757 L
2762 2918 L
2763 2741 L
2764 2749 L
2765 2694 L
2767 2756 L
2768 2691 L
2769 2658 L
2770 2772 L
2771 2877 L
2772 2817 L
2773 2727 L
2774 2704 L
2775 2845 L
2776 2755 L
2777 2785 L
2778 2762 L
2779 2748 L
2780 2865 L
2781 2708 L
2782 2858 L
2783 2815 L
2783 2795 L
2784 2733 L
2785 2711 L
2786 2826 L
2787 2579 L
2788 2743 L
2789 2691 L
2790 2591 L
2791 2796 L
2792 2749 L
2793 2661 L
2794 2822 L
2795 2722 L
2796 2644 L
2797 2735 L
2798 2774 L
2798 2624 L
2799 2553 L
2800 2737 L
2801 2703 L
2802 2651 L
2803 2692 L
2804 2779 L
2805 2747 L
2806 2594 L
2807 2712 L
2807 2692 L
2808 2588 L
2809 2733 L
2810 2685 L
2811 2646 L
2812 2572 L
2813 2700 L
2813 2723 L
2814 2643 L
2815 2633 L
2816 2569 L
2817 2770 L
2818 2648 L
2819 2718 L
2819 2589 L
2820 2653 L
2821 2718 L
2822 2566 L
2823 2675 L
2824 2582 L
2824 2690 L
2825 2729 L
2826 2661 L
2827 2575 L
2828 2484 L
2828 2647 L
2829 2559 L
2830 2701 L
2831 2630 L
2832 2677 L
2832 2584 L
2833 2581 L
2834 2540 L
2835 2528 L
2836 2503 L
2836 2563 L
2837 2567 L
2838 2683 L
2839 2693 L
2840 2637 L
2840 2484 L
2841 2603 L
2842 2512 L
2843 2651 L
2843 2540 L
2844 2588 L
2845 2658 L
2846 2498 L
2846 2513 L
2847 2543 L
2848 2567 L
2849 2527 L
2849 2553 L
2850 2634 L
2851 2598 L
2852 2532 L
2852 2463 L
2853 2591 L
2854 2604 L
2855 2544 L
2855 2593 L
2856 2443 L
2857 2521 L
2857 2590 L
2858 2593 L
2859 2657 L
2860 2548 L
2860 2533 L
2861 2524 L
2862 2546 L
2862 2540 L
2863 2584 L
2864 2527 L
2865 2442 L
2865 2443 L
2866 2521 L
2867 2576 L
2867 2586 L
2868 2443 L
2869 2495 L
2869 2535 L
2870 2486 L
2871 2575 L
2871 2562 L
2872 2475 L
2873 2589 L
2873 2448 L
2874 2524 L
2875 2561 L
2876 2643 L
2876 2490 L
2877 2479 L
2878 2409 L
2878 2445 L
2879 2536 L
2880 2442 L
2880 2422 L
2881 2516 L
2881 2509 L
2882 2462 L
2883 2636 L
2883 2454 L
2884 2546 L
2885 2442 L
2885 2466 L
2886 2438 L
2887 2451 L
2887 2557 L
2888 2476 L
2889 2477 L
2889 2596 L
2892 2487 L
2894 2297 L
2897 2519 L
2899 2423 L
2902 2274 L
2904 2374 L
2907 2388 L
2909 2489 L
2911 2479 L
2914 2504 L
2916 2444 L
2918 2487 L
2921 2452 L
2923 2367 L
2925 2317 L
2927 2340 L
2929 2409 L
2932 2430 L
2934 2268 L
2936 2295 L
2938 2314 L
2940 2431 L
2942 2373 L
2944 2340 L
2946 2348 L
2948 2269 L
2950 2330 L
2952 2353 L
2954 2348 L
2956 2253 L
2958 2345 L
2960 2235 L
2962 2206 L
2964 2389 L
2966 2228 L
2968 2297 L
2970 2358 L
2971 2338 L
2973 2251 L
2975 2299 L
2977 2436 L
2979 2303 L
2980 2318 L
2982 2254 L
2984 2279 L
2986 2216 L
2987 2122 L
2989 2292 L
2991 2274 L
2993 2230 L
2994 2247 L
2996 2248 L
2998 2244 L
2999 2331 L
3001 2206 L
3003 2298 L
3004 2166 L
3006 2281 L
3007 2289 L
3009 2126 L
3011 2306 L
3012 2217 L
3014 2216 L
3015 2161 L
3017 2156 L
3018 2135 L
3020 2152 L
3021 2029 L
3023 2187 L
3024 2171 L
3026 2158 L
3027 2079 L
3029 2178 L
3030 2120 L
3032 2305 L
3033 2061 L
3035 2069 L
3036 2253 L
3038 2141 L
3039 2129 L
3040 2230 L
3042 2146 L
3043 2129 L
3045 2114 L
3046 2162 L
3047 2184 L
3049 2168 L
3050 2069 L
3051 2035 L
3053 2179 L
3054 2103 L
3055 2150 L
3057 2025 L
3058 2163 L
3059 2160 L
3061 2116 L
3062 2114 L
3063 2108 L
3065 2200 L
3066 1949 L
3067 2108 L
3068 2153 L
3070 1996 L
3071 2122 L
3072 2028 L
3073 2124 L
3075 2006 L
3076 2110 L
3077 2005 L
3078 2114 L
3079 2112 L
3081 2136 L
3082 2021 L
3083 2116 L
3084 2096 L
3085 2036 L
3087 2091 L
3088 2102 L
3089 2059 L
3090 2092 L
3091 2079 L
3092 2066 L
3094 2251 L
3095 2241 L
3096 2001 L
3097 2087 L
3098 2032 L
3099 2067 L
3100 2008 L
3101 2071 L
3103 1981 L
3104 2044 L
3105 2139 L
3106 2098 L
3107 2158 L
3108 1953 L
3109 2058 L
3110 2017 L
3111 2138 L
3112 2050 L
3113 2049 L
3114 2089 L
3115 2033 L
3116 1974 L
3117 2055 L
3119 2070 L
3120 2090 L
3121 1936 L
3122 2064 L
3123 2007 L
3124 2052 L
3125 1938 L
3126 2008 L
3127 2009 L
3128 1950 L
3129 2207 L
3130 1996 L
3131 2007 L
3132 1938 L
3133 2109 L
3134 1947 L
3135 2063 L
3136 2000 L
3136 2083 L
3137 2030 L
3138 2010 L
3139 2089 L
3140 1961 L
3141 2052 L
3142 2002 L
3143 2055 L
3144 1959 L
3145 1996 L
3146 2145 L
3147 2025 L
3148 2055 L
3149 2005 L
3150 1987 L
3151 2024 L
3151 2069 L
3152 2010 L
3153 1934 L
3154 2005 L
3155 1995 L
3156 1927 L
3157 1981 L
3158 2054 L
3159 2018 L
3160 1890 L
3160 1987 L
3161 2097 L
3162 2052 L
3163 2007 L
3164 2093 L
3165 2064 L
3166 1987 L
3166 2042 L
3167 2046 L
3168 1999 L
3169 1989 L
3170 2038 L
3171 2020 L
3172 2037 L
3172 2014 L
3173 2006 L
3174 1961 L
3175 2001 L
3176 2028 L
3177 2034 L
3177 1977 L
3178 2081 L
3179 1986 L
3180 2042 L
3181 1996 L
3181 2001 L
3182 2008 L
3183 2008 L
3184 1959 L
3185 1974 L
3185 1992 L
3186 2062 L
3187 1986 L
3188 1971 L
3189 1992 L
3189 2003 L
3190 1891 L
3191 1981 L
3192 2050 L
3193 2050 L
3193 2019 L
3194 2030 L
3195 2069 L
3196 1995 L
3196 2048 L
3197 2020 L
3198 2092 L
3199 2004 L
3199 2069 L
3200 2090 L
3201 2051 L
3202 2038 L
3202 2080 L
3203 2043 L
3204 2033 L
3205 1923 L
3205 1978 L
3206 1987 L
3207 2021 L
3208 1994 L
3208 2017 L
3209 1953 L
3210 1919 L
3210 2072 L
3211 1932 L
3212 2093 L
3213 1964 L
3213 2028 L
3214 1998 L
3215 1988 L
3215 2005 L
3216 2000 L
3217 1991 L
3218 1966 L
3218 1994 L
3219 2026 L
3220 1833 L
3220 1989 L
3221 2008 L
3222 1981 L
3222 2011 L
3223 1980 L
3224 1999 L
3224 2035 L
3225 2065 L
3226 2056 L
3227 1891 L
3227 1988 L
3228 2079 L
3229 2031 L
3229 2015 L
3230 1950 L
3231 2036 L
3231 2039 L
3232 2010 L
3233 1996 L
3233 2069 L
3234 2007 L
3235 1964 L
3235 2007 L
3236 1984 L
3236 2011 L
3237 1967 L
3238 2015 L
3238 2045 L
3239 2012 L
3240 1953 L
3240 2097 L
3241 1920 L
3242 1910 L
3242 2042 L
3243 2013 L
3244 1901 L
3244 2103 L
3245 2048 L
3245 2039 L
3246 2057 L
3247 2086 L
3247 2011 L
3248 2015 L
3249 2027 L
3249 2152 L
3250 2077 L
3250 2031 L
3251 2089 L
3252 2057 L
3252 2053 L
3253 1997 L
3253 2095 L
3254 2193 L
3255 2054 L
3255 2041 L
3256 1930 L
3257 2039 L
3257 2074 L
3258 2113 L
3258 2049 L
3259 2094 L
3259 1987 L
3260 2044 L
3261 2139 L
3261 2043 L
3262 2064 L
3262 1975 L
3263 2111 L
3264 1878 L
3264 2143 L
3265 1964 L
3265 2073 L
3266 2144 L
3267 1932 L
3267 2148 L
3268 2030 L
3268 2135 L
3269 2032 L
3269 2009 L
3270 2075 L
3271 2083 L
3271 2103 L
3272 2067 L
3272 2137 L
3273 2114 L
3273 2030 L
3274 2063 L
3275 2032 L
3275 2101 L
3276 2028 L
3276 2069 L
3277 2028 L
3277 2122 L
3278 2011 L
3278 2060 L
3279 2224 L
3280 2069 L
3280 2024 L
3281 2070 L
3281 2151 L
3282 2101 L
3282 2114 L
3283 1878 L
3283 2073 L
3284 1996 L
3284 2087 L
3285 2113 L
3285 2070 L
3286 2065 L
3287 2129 L
3287 2194 L
3288 1993 L
3288 2141 L
3289 2047 L
3289 2028 L
3290 2075 L
3290 2123 L
3291 2062 L
3291 2115 L
3292 2112 L
3292 2052 L
3293 2098 L
3293 2061 L
3294 2034 L
3294 2122 L
3295 2023 L
3295 2110 L
3296 2139 L
3297 2072 L
3297 2021 L
3298 1994 L
3298 2159 L
3299 1992 L
3299 1991 L
3300 2012 L
3300 2126 L
3301 2024 L
3301 2131 L
3302 2068 L
3302 2158 L
3303 2106 L
3303 2129 L
3304 2131 L
3304 2143 L
3305 2028 L
3305 2101 L
3306 2204 L
3306 2051 L
3307 2022 L
3307 2110 L
3308 2176 L
3308 2057 L
3309 2011 L
3309 2123 L
3310 2109 L
3310 2113 L
3311 2188 L
3311 2086 L
3312 2083 L
3312 2081 L
3312 2138 L
3313 2115 L
3313 2084 L
3314 2076 L
3314 2169 L
3315 2108 L
3315 2066 L
3316 2051 L
3316 2068 L
3317 2216 L
3317 2159 L
3318 2071 L
3318 2161 L
3319 2190 L
3319 2131 L
3320 2050 L
3320 2025 L
3321 2070 L
3321 2081 L
3321 2200 L
3322 2102 L
3322 2174 L
3323 2101 L
3323 2183 L
3324 2092 L
3324 2058 L
3325 2063 L
3325 1996 L
3326 2136 L
3326 2141 L
3327 2137 L
3327 2200 L
3327 2101 L
3328 2150 L
3328 2260 L
3329 2108 L
3329 2128 L
3330 2193 L
3330 2193 L
3331 2216 L
3331 2088 L
3332 2119 L
3332 2001 L
3332 2090 L
3333 2088 L
3333 2115 L
3334 2158 L
3334 2075 L
3335 2090 L
3335 2144 L
3336 2199 L
3336 2077 L
3336 2157 L
3337 2183 L
3337 2199 L
3338 2153 L
3338 2032 L
3339 2103 L
3339 2159 L
3339 2136 L
3340 2048 L
3340 2189 L
3341 2186 L
3341 2095 L
3342 2129 L
3342 2207 L
3343 2114 L
3343 2117 L
3343 2116 L
3344 2180 L
3344 2207 L
3345 2207 L
3345 2182 L
3346 2122 L
3346 2180 L
3346 2202 L
3347 2064 L
3347 2271 L
3348 2172 L
3348 2197 L
3348 2111 L
3349 2119 L
3349 2126 L
3350 2246 L
3350 2106 L
3351 2149 L
3351 2099 L
3351 2163 L
3352 2148 L
3352 2144 L
3353 2122 L
3353 2113 L
3353 2158 L
3354 2205 L
3354 2149 L
3355 2219 L
3355 2207 L
3355 2215 L
3356 2134 L
3356 2125 L
3357 2224 L
3357 2104 L
3358 2094 L
3358 2218 L
3358 2099 L
3359 2089 L
3359 2146 L
3360 2137 L
3360 2218 L
3360 2126 L
3361 2160 L
3361 2177 L
3362 2179 L
3362 2109 L
3362 2170 L
3363 2149 L
3363 2203 L
3364 2234 L
3364 2159 L
3364 2159 L
3365 2120 L
3365 2238 L
3365 2122 L
3366 2176 L
3366 2259 L
3367 2242 L
3367 2252 L
3367 2146 L
3368 2234 L
3368 2212 L
3369 2116 L
3369 2186 L
3369 2125 L
3370 2094 L
3370 2199 L
3371 2173 L
3371 2131 L
3371 2210 L
3372 2154 L
3372 2191 L
3372 2178 L
3373 2098 L
3373 2161 L
3374 2208 L
3374 2126 L
3374 2337 L
3375 2178 L
3375 2171 L
3375 2202 L
3376 2228 L
3376 2210 L
3377 2194 L
3377 2195 L
3377 2121 L
3378 2165 L
3378 2208 L
3378 2233 L
3379 2252 L
3379 2153 L
3380 2109 L
3380 2219 L
3380 2288 L
3381 2247 L
3381 2139 L
3381 2213 L
3382 2182 L
3382 2220 L
3383 2200 L
3383 2220 L
3383 2168 L
3384 2226 L
3384 2295 L
3384 2243 L
3385 2178 L
3385 2210 L
3385 2227 L
3386 2192 L
3386 2233 L
3387 2228 L
3387 2188 L
3387 2293 L
3388 2208 L
3388 2265 L
3388 2089 L
3389 2215 L
3389 2183 L
3389 2191 L
3390 2158 L
3390 2321 L
3391 2213 L
3391 2238 L
3391 2243 L
3392 2182 L
3392 2187 L
3392 2292 L
3393 2248 L
3393 2039 L
3393 2228 L
3394 2198 L
3394 2197 L
3394 2155 L
3395 2269 L
3395 2217 L
3395 2228 L
3396 2262 L
3396 2191 L
3396 2270 L
3397 2177 L
3397 2179 L
3398 2142 L
3398 2267 L
3398 2187 L
3399 2196 L
3399 2222 L
3399 2190 L
3400 2179 L
3400 2213 L
3400 2194 L
3401 2264 L
3401 2292 L
3401 2258 L
3402 2162 L
3402 2299 L
3402 2209 L
3403 2333 L
3403 2231 L
3403 2233 L
3404 2265 L
3404 2196 L
3404 2173 L
3405 2333 L
3405 2175 L
3405 2245 L
3406 2256 L
3406 2266 L
3406 2255 L
3407 2255 L
3407 2341 L
3407 2127 L
3408 2114 L
3408 2112 L
3408 2244 L
3409 2216 L
3409 2201 L
3409 2234 L
3410 2234 L
3410 2274 L
3410 2354 L
3411 2252 L
3411 2296 L
3411 2274 L
3412 2193 L
3412 2187 L
3412 2311 L
3413 2332 L
3413 2245 L
3413 2249 L
3414 2292 L
3414 2282 L
3414 2233 L
3415 2292 L
3415 2215 L
3415 2342 L
3416 2265 L
3416 2199 L
3416 2132 L
3417 2325 L
3417 2336 L
3417 2264 L
3417 2179 L
3418 2261 L
3418 2293 L
3418 2197 L
3419 2267 L
3419 2346 L
3419 2155 L
3420 2284 L
3420 2258 L
3420 2253 L
3421 2290 L
3421 2234 L
3421 2249 L
3422 2241 L
3422 2345 L
3422 2170 L
3423 2198 L
3423 2305 L
3423 2255 L
3423 2325 L
3424 2296 L
3424 2296 L
3424 2168 L
3425 2244 L
3425 2332 L
3425 2286 L
3426 2360 L
3426 2371 L
3426 2401 L
3427 2173 L
3427 2293 L
3427 2195 L
3428 2181 L
3428 2220 L
3428 2262 L
3428 2343 L
3429 2158 L
3429 2290 L
3429 2333 L
3430 2400 L
3430 2209 L
3430 2222 L
3431 2182 L
3431 2216 L
3431 2317 L
3431 2262 L
3432 2250 L
3432 2238 L
3432 2291 L
3433 2329 L
3433 2343 L
3433 2318 L
3434 2276 L
3434 2321 L
3434 2270 L
3434 2258 L
3435 2225 L
3435 2243 L
3435 2302 L
3436 2329 L
3436 2367 L
3436 2287 L
3437 2311 L
3437 2292 L
3437 2307 L
3437 2238 L
3438 2238 L
3438 2232 L
3438 2292 L
3439 2233 L
3439 2259 L
3439 2292 L
3440 2352 L
3440 2330 L
3440 2327 L
3440 2293 L
3441 2345 L
3441 2319 L
3441 2275 L
3442 2276 L
3442 2272 L
3442 2334 L
3442 2289 L
3443 2365 L
3443 2419 L
3443 2293 L
3444 2325 L
3444 2306 L
3444 2308 L
3444 2410 L
3445 2289 L
3445 2283 L
3445 2358 L
3446 2255 L
3446 2252 L
3446 2333 L
3446 2287 L
3447 2163 L
3447 2259 L
3447 2382 L
3448 2296 L
3448 2296 L
3448 2267 L
3448 2269 L
3449 2297 L
3449 2291 L
3449 2266 L
3450 2271 L
3450 2384 L
3450 2337 L
3450 2298 L
3451 2325 L
3451 2306 L
3451 2246 L
3452 2299 L
3452 2306 L
3452 2210 L
3452 2317 L
3453 2441 L
3453 2405 L
3453 2465 L
3454 2268 L
3454 2281 L
3454 2240 L
3454 2297 L
3455 2246 L
3455 2277 L
3455 2239 L
3455 2342 L
3456 2251 L
3456 2275 L
3456 2282 L
3457 2428 L
3457 2330 L
3457 2215 L
3457 2225 L
3458 2190 L
3458 2325 L
3458 2287 L
3458 2394 L
3459 2277 L
3459 2278 L
3459 2249 L
3460 2321 L
3460 2269 L
3460 2262 L
3460 2430 L
3461 2324 L
3461 2387 L
3461 2271 L
3461 2511 L
3462 2293 L
3462 2388 L
3462 2336 L
3463 2259 L
3463 2245 L
3463 2286 L
3463 2305 L
3464 2201 L
3464 2269 L
3464 2323 L
3464 2373 L
3465 2317 L
3465 2285 L
3465 2320 L
3465 2360 L
3466 2185 L
3466 2292 L
3466 2384 L
3466 2372 L
3467 2211 L
3467 2374 L
3467 2295 L
3468 2306 L
3468 2395 L
3468 2376 L
3468 2354 L
3469 2249 L
3469 2298 L
3469 2307 L
3469 2319 L
3470 2376 L
3470 2382 L
3470 2316 L
3470 2311 L
3471 2302 L
3471 2541 L
3471 2322 L
3471 2293 L
3472 2316 L
3472 2469 L
3472 2503 L
3472 2312 L
3473 2303 L
3473 2383 L
3473 2423 L
3474 2348 L
3474 2391 L
3474 2375 L
3474 2256 L
3475 2331 L
3475 2332 L
3475 2361 L
3475 2406 L
3476 2276 L
3476 2408 L
3476 2336 L
3476 2422 L
3477 2356 L
3477 2483 L
3477 2368 L
3477 2340 L
3478 2309 L
3478 2448 L
3478 2396 L
3478 2298 L
3479 2435 L
3479 2301 L
3479 2424 L
3479 2393 L
3480 2311 L
3480 2343 L
3480 2361 L
3480 2309 L
3481 2428 L
3481 2315 L
3481 2356 L
3481 2377 L
3482 2277 L
3482 2385 L
3482 2396 L
3482 2413 L
3483 2320 L
3483 2402 L
3483 2379 L
3483 2426 L
3484 2388 L
3484 2387 L
3484 2438 L
3484 2345 L
3485 2401 L
3485 2366 L
3485 2271 L
3485 2227 L
3486 2276 L
3486 2320 L
3486 2367 L
3486 2287 L
3487 2320 L
3487 2376 L
3487 2409 L
3487 2385 L
3488 2383 L
3488 2402 L
3488 2447 L
3488 2466 L
3488 2393 L
3489 2357 L
3489 2323 L
3489 2335 L
3489 2407 L
3490 2429 L
3490 2364 L
3490 2345 L
3490 2202 L
3491 2358 L
3491 2411 L
3491 2307 L
3491 2385 L
3492 2392 L
3492 2345 L
3492 2403 L
3492 2334 L
3493 2305 L
3493 2356 L
3493 2293 L
3493 2363 L
3494 2396 L
3494 2360 L
3494 2370 L
3494 2351 L
3494 2479 L
3495 2374 L
3495 2255 L
3495 2439 L
3495 2426 L
3496 2363 L
3496 2459 L
3496 2337 L
3496 2322 L
3497 2435 L
3497 2341 L
3497 2252 L
3497 2336 L
3498 2398 L
3498 2294 L
3498 2487 L
3498 2324 L
3498 2375 L
3499 2403 L
3499 2436 L
3499 2430 L
3499 2362 L
3500 2293 L
3500 2471 L
3506 2331 L
3511 2361 L
3517 2455 L
3522 2377 L
3527 2478 L
3532 2403 L
3537 2432 L
3542 2389 L
3547 2501 L
3552 2488 L
3557 2396 L
3561 2463 L
3566 2461 L
3570 2532 L
3575 2500 L
3579 2525 L
3583 2583 L
3587 2465 L
3591 2504 L
3595 2585 L
3599 2591 L
3603 2493 L
3607 2453 L
3611 2505 L
3614 2417 L
3618 2535 L
3622 2584 L
3625 2606 L
3629 2494 L
3632 2539 L
3636 2489 L
3639 2525 L
3642 2587 L
3646 2488 L
3649 2654 L
3652 2408 L
3655 2463 L
3658 2578 L
3661 2617 L
3664 2561 L
3667 2407 L
3670 2611 L
3673 2579 L
3676 2652 L
3679 2603 L
3682 2606 L
3685 2544 L
3688 2557 L
3690 2435 L
3693 2487 L
3696 2633 L
3698 2472 L
3701 2591 L
3704 2485 L
3706 2592 L
3709 2472 L
3711 2649 L
3714 2582 L
3716 2557 L
3719 2598 L
3721 2534 L
3724 2429 L
3726 2515 L
3728 2593 L
3731 2589 L
3733 2517 L
3735 2621 L
3738 2514 L
3740 2513 L
3742 2609 L
3744 2716 L
3747 2585 L
3749 2463 L
3751 2588 L
3753 2604 L
3755 2414 L
3757 2442 L
3760 2682 L
3762 2529 L
3764 2461 L
3766 2652 L
3768 2559 L
3770 2481 L
3772 2653 L
3774 2625 L
3776 2536 L
3778 2576 L
3780 2621 L
3781 2519 L
3783 2590 L
3785 2532 L
3787 2673 L
3789 2516 L
3791 2628 L
3793 2562 L
3795 2607 L
3796 2621 L
3798 2527 L
3800 2513 L
3802 2577 L
3803 2627 L
3805 2520 L
3807 2632 L
3809 2611 L
3810 2636 L
3812 2635 L
3814 2553 L
3816 2591 L
3817 2614 L
3819 2572 L
3820 2423 L
3822 2649 L
3824 2388 L
3825 2633 L
3827 2543 L
3829 2524 L
3830 2544 L
3832 2588 L
3833 2662 L
3835 2671 L
3836 2448 L
3838 2610 L
3839 2565 L
3841 2638 L
3842 2474 L
3844 2571 L
3845 2582 L
3847 2486 L
3848 2709 L
3850 2679 L
3851 2572 L
3853 2534 L
3854 2571 L
3856 2570 L
3857 2588 L
3859 2605 L
3860 2593 L
3861 2482 L
3863 2580 L
3864 2589 L
3866 2521 L
3867 2509 L
3868 2742 L
3870 2517 L
3871 2556 L
3872 2604 L
3874 2589 L
3875 2591 L
3876 2526 L
3878 2567 L
3879 2674 L
3880 2541 L
3882 2447 L
3883 2489 L
3884 2612 L
3885 2646 L
3887 2540 L
3888 2649 L
3889 2604 L
3890 2549 L
3892 2641 L
3893 2635 L
3894 2583 L
3895 2649 L
3897 2535 L
3898 2536 L
3899 2648 L
3900 2689 L
3901 2501 L
3903 2543 L
3904 2723 L
3905 2589 L
3906 2522 L
3907 2714 L
3908 2603 L
3910 2569 L
3911 2613 L
3912 2543 L
3913 2521 L
3914 2580 L
3915 2496 L
3917 2551 L
3918 2605 L
3919 2534 L
3920 2521 L
3921 2443 L
3922 2457 L
3923 2563 L
3924 2625 L
3925 2565 L
3926 2506 L
3928 2481 L
3929 2605 L
3930 2506 L
3931 2562 L
3932 2476 L
3933 2517 L
3934 2525 L
3935 2598 L
3936 2492 L
3937 2573 L
3938 2645 L
3939 2665 L
3940 2569 L
3941 2517 L
3942 2691 L
3943 2572 L
3944 2619 L
3945 2541 L
3946 2563 L
3947 2348 L
3948 2566 L
3949 2594 L
3950 2623 L
3951 2611 L
3952 2489 L
3953 2596 L
3954 2594 L
3955 2667 L
3956 2566 L
3957 2506 L
3958 2583 L
3959 2596 L
3960 2552 L
3961 2566 L
3962 2578 L
3963 2623 L
3964 2506 L
3965 2511 L
3966 2510 L
3966 2470 L
3967 2627 L
3968 2700 L
3969 2622 L
3970 2523 L
3971 2544 L
3972 2454 L
3973 2654 L
3974 2604 L
3975 2499 L
3976 2509 L
3976 2611 L
3977 2543 L
3978 2535 L
3979 2557 L
3980 2589 L
3981 2466 L
3982 2495 L
3983 2664 L
3983 2623 L
3984 2652 L
3985 2526 L
3986 2576 L
3987 2598 L
3988 2528 L
3989 2712 L
3989 2469 L
3990 2571 L
3991 2546 L
3992 2661 L
3993 2557 L
3994 2619 L
3995 2464 L
3995 2563 L
3996 2649 L
3997 2625 L
3998 2639 L
3999 2640 L
3999 2485 L
4000 2526 L
4001 2375 L
4002 2531 L
4003 2502 L
4003 2484 L
4004 2607 L
4005 2504 L
4006 2611 L
4007 2598 L
4007 2508 L
4008 2577 L
4009 2499 L
4010 2626 L
4011 2513 L
4011 2470 L
4012 2513 L
4013 2562 L
4014 2539 L
4014 2620 L
4015 2542 L
4016 2557 L
4017 2579 L
4017 2588 L
4018 2499 L
4019 2555 L
4020 2762 L
4021 2558 L
4021 2536 L
4022 2581 L
4023 2494 L
4023 2557 L
4024 2521 L
4025 2426 L
4026 2536 L
4026 2626 L
4027 2613 L
4028 2519 L
4029 2547 L
4029 2608 L
4030 2562 L
4031 2499 L
4032 2515 L
4032 2828 L
4033 2507 L
4034 2607 L
4034 2473 L
4035 2608 L
4036 2574 L
4036 2576 L
4037 2488 L
4038 2528 L
4039 2624 L
4039 2464 L
4040 2693 L
4041 2611 L
4041 2500 L
4042 2607 L
4043 2529 L
4043 2592 L
4044 2595 L
4045 2553 L
4045 2627 L
4046 2605 L
4047 2489 L
4047 2641 L
4048 2613 L
4049 2600 L
4050 2471 L
4050 2452 L
4051 2623 L
4052 2511 L
4052 2603 L
4053 2537 L
4053 2683 L
4054 2529 L
4055 2562 L
4055 2517 L
4056 2523 L
4057 2457 L
4057 2647 L
4058 2490 L
4059 2685 L
4059 2570 L
4060 2529 L
4061 2619 L
4061 2469 L
4062 2538 L
L2 C04 COSGR

%
%================
% Legend - Begin
%================
%
GSN 4240 5180 M
4480 5180 L
LWMC SL  C04 COSGR
GSN 4540 5141 M helvM (2.0 uM) show grestore
%
%================
% Legend - End
%================
%

%
% Residuals:
%
GSN 777 750 M
1388 848 L
1552 865 L
1652 961 L
1723 1076 L
1778 1104 L
1824 1117 L
1863 1183 L
1896 1222 L
1926 1237 L
1952 1264 L
1976 1318 L
1998 1331 L
2019 1366 L
2037 1392 L
2055 1425 L
2071 1393 L
2086 1401 L
2101 1426 L
2115 1442 L
2128 1444 L
2140 1428 L
2152 1507 L
2163 1506 L
2174 1512 L
2184 1541 L
2194 1497 L
2204 1510 L
2213 1487 L
2222 1524 L
2230 1505 L
2239 1544 L
2247 1500 L
2255 1545 L
2262 1569 L
2270 1528 L
2277 1499 L
2284 1516 L
2290 1480 L
2297 1516 L
2303 1544 L
2310 1541 L
2316 1533 L
2322 1500 L
2328 1505 L
2333 1513 L
2339 1537 L
2344 1535 L
2350 1535 L
2355 1528 L
2360 1519 L
2365 1518 L
2370 1496 L
2375 1532 L
2380 1514 L
2384 1526 L
2389 1518 L
2393 1537 L
2398 1542 L
2402 1531 L
2407 1475 L
2411 1497 L
2415 1514 L
2419 1524 L
2423 1527 L
2427 1481 L
2431 1526 L
2435 1528 L
2438 1564 L
2442 1470 L
2446 1487 L
2449 1455 L
2453 1454 L
2456 1468 L
2460 1480 L
2463 1487 L
2467 1510 L
2470 1517 L
2473 1500 L
2476 1522 L
2480 1520 L
2483 1504 L
2486 1440 L
2489 1491 L
2492 1454 L
2495 1478 L
2498 1482 L
2501 1511 L
2504 1527 L
2507 1470 L
2510 1490 L
2512 1455 L
2515 1511 L
2518 1468 L
2521 1490 L
2523 1471 L
2526 1487 L
2529 1427 L
2531 1498 L
2534 1449 L
2536 1471 L
2539 1442 L
2541 1453 L
2544 1494 L
2546 1475 L
2549 1464 L
2551 1466 L
2554 1486 L
2556 1477 L
2558 1443 L
2561 1468 L
2563 1443 L
2565 1473 L
2568 1458 L
2570 1422 L
2572 1420 L
2574 1461 L
2576 1477 L
2579 1440 L
2581 1426 L
2583 1451 L
2585 1453 L
2587 1455 L
2589 1443 L
2591 1421 L
2593 1464 L
2595 1436 L
2597 1449 L
2599 1431 L
2601 1417 L
2603 1395 L
2605 1413 L
2607 1430 L
2609 1460 L
2611 1414 L
2613 1435 L
2615 1392 L
2617 1395 L
2618 1404 L
2620 1412 L
2622 1383 L
2624 1442 L
2626 1443 L
2627 1385 L
2629 1401 L
2631 1417 L
2633 1415 L
2634 1406 L
2636 1404 L
2638 1417 L
2640 1391 L
2641 1387 L
2643 1433 L
2645 1416 L
2646 1402 L
2648 1377 L
2650 1422 L
2651 1414 L
2653 1410 L
2654 1396 L
2656 1389 L
2658 1401 L
2659 1434 L
2661 1419 L
2662 1404 L
2664 1399 L
2665 1339 L
2667 1367 L
2668 1370 L
2670 1414 L
2671 1387 L
2673 1403 L
2674 1386 L
2676 1376 L
2677 1350 L
2679 1369 L
2680 1383 L
2682 1381 L
2683 1410 L
2685 1374 L
2686 1391 L
2687 1338 L
2689 1362 L
2690 1351 L
2692 1352 L
2693 1424 L
2694 1402 L
2696 1372 L
2697 1380 L
2698 1372 L
2700 1344 L
2701 1388 L
2702 1352 L
2704 1369 L
2705 1385 L
2706 1373 L
2708 1349 L
2709 1343 L
2710 1357 L
2712 1345 L
2713 1372 L
2714 1342 L
2715 1368 L
2717 1375 L
2718 1326 L
2719 1366 L
2720 1362 L
2722 1342 L
2723 1348 L
2724 1336 L
2725 1360 L
2726 1343 L
2728 1339 L
2729 1341 L
2730 1353 L
2731 1305 L
2732 1346 L
2734 1337 L
2735 1327 L
2736 1368 L
2737 1376 L
2738 1288 L
2739 1280 L
2741 1294 L
2742 1381 L
2743 1372 L
2744 1354 L
2745 1365 L
2746 1332 L
2747 1351 L
2748 1317 L
2749 1332 L
2751 1352 L
2752 1353 L
2753 1352 L
2754 1337 L
2755 1320 L
2756 1329 L
2757 1307 L
2758 1341 L
2759 1291 L
2760 1300 L
2761 1314 L
2762 1370 L
2763 1308 L
2764 1311 L
2765 1292 L
2767 1314 L
2768 1291 L
2769 1279 L
2770 1319 L
2771 1356 L
2772 1335 L
2773 1303 L
2774 1295 L
2775 1344 L
2776 1313 L
2777 1324 L
2778 1316 L
2779 1311 L
2780 1351 L
2781 1297 L
2782 1349 L
2783 1334 L
2783 1327 L
2784 1306 L
2785 1298 L
2786 1338 L
2787 1252 L
2788 1309 L
2789 1291 L
2790 1256 L
2791 1327 L
2792 1311 L
2793 1280 L
2794 1337 L
2795 1302 L
2796 1274 L
2797 1306 L
2798 1320 L
2798 1267 L
2799 1242 L
2800 1307 L
2801 1295 L
2802 1277 L
2803 1291 L
2804 1322 L
2805 1310 L
2806 1257 L
2807 1298 L
2807 1291 L
2808 1255 L
2809 1306 L
2810 1289 L
2811 1275 L
2812 1249 L
2813 1294 L
2813 1302 L
2814 1274 L
2815 1270 L
2816 1248 L
2817 1318 L
2818 1276 L
2819 1300 L
2819 1255 L
2820 1277 L
2821 1300 L
2822 1247 L
2823 1285 L
2824 1252 L
2824 1290 L
2825 1304 L
2826 1280 L
2827 1250 L
2828 1218 L
2828 1275 L
2829 1245 L
2830 1294 L
2831 1269 L
2832 1286 L
2832 1253 L
2833 1252 L
2834 1238 L
2835 1234 L
2836 1225 L
2836 1246 L
2837 1247 L
2838 1288 L
2839 1291 L
2840 1272 L
2840 1218 L
2841 1260 L
2842 1228 L
2843 1277 L
2843 1238 L
2844 1255 L
2845 1279 L
2846 1223 L
2846 1228 L
2847 1239 L
2848 1247 L
2849 1233 L
2849 1242 L
2850 1271 L
2851 1258 L
2852 1235 L
2852 1211 L
2853 1256 L
2854 1260 L
2855 1239 L
2855 1256 L
2856 1204 L
2857 1231 L
2857 1255 L
2858 1256 L
2859 1279 L
2860 1241 L
2860 1235 L
2861 1232 L
2862 1240 L
2862 1238 L
2863 1253 L
2864 1233 L
2865 1204 L
2865 1204 L
2866 1231 L
2867 1250 L
2867 1254 L
2868 1204 L
2869 1222 L
2869 1236 L
2870 1219 L
2871 1250 L
2871 1245 L
2872 1215 L
2873 1255 L
2873 1205 L
2874 1232 L
2875 1245 L
2876 1274 L
2876 1220 L
2877 1216 L
2878 1192 L
2878 1204 L
2879 1236 L
2880 1203 L
2880 1196 L
2881 1229 L
2881 1227 L
2882 1210 L
2883 1271 L
2883 1208 L
2884 1240 L
2885 1204 L
2885 1212 L
2886 1202 L
2887 1207 L
2887 1244 L
2888 1216 L
2889 1216 L
2889 1257 L
2892 1219 L
2894 1153 L
2897 1231 L
2899 1197 L
2902 1145 L
2904 1180 L
2907 1184 L
2909 1220 L
2911 1216 L
2914 1225 L
2916 1204 L
2918 1219 L
2921 1207 L
2923 1177 L
2925 1160 L
2927 1168 L
2929 1192 L
2932 1199 L
2934 1142 L
2936 1152 L
2938 1159 L
2940 1200 L
2942 1179 L
2944 1168 L
2946 1171 L
2948 1143 L
2950 1164 L
2952 1172 L
2954 1170 L
2956 1137 L
2958 1170 L
2960 1131 L
2962 1121 L
2964 1185 L
2966 1129 L
2968 1153 L
2970 1174 L
2971 1167 L
2973 1137 L
2975 1153 L
2977 1202 L
2979 1155 L
2980 1160 L
2982 1138 L
2984 1147 L
2986 1125 L
2987 1091 L
2989 1151 L
2991 1145 L
2993 1129 L
2994 1135 L
2996 1136 L
2998 1134 L
2999 1165 L
3001 1121 L
3003 1153 L
3004 1107 L
3006 1147 L
3007 1150 L
3009 1093 L
3011 1156 L
3012 1125 L
3014 1124 L
3015 1105 L
3017 1103 L
3018 1096 L
3020 1102 L
3021 1059 L
3023 1114 L
3024 1109 L
3026 1104 L
3027 1076 L
3029 1111 L
3030 1091 L
3032 1155 L
3033 1070 L
3035 1073 L
3036 1137 L
3038 1098 L
3039 1094 L
3040 1129 L
3042 1100 L
3043 1094 L
3045 1089 L
3046 1105 L
3047 1113 L
3049 1107 L
3050 1073 L
3051 1061 L
3053 1111 L
3054 1085 L
3055 1101 L
3057 1057 L
3058 1106 L
3059 1105 L
3061 1089 L
3062 1089 L
3063 1087 L
3065 1119 L
3066 1031 L
3067 1087 L
3068 1102 L
3070 1047 L
3071 1091 L
3072 1059 L
3073 1092 L
3075 1051 L
3076 1087 L
3077 1050 L
3078 1089 L
3079 1088 L
3081 1096 L
3082 1056 L
3083 1089 L
3084 1082 L
3085 1062 L
3087 1081 L
3088 1085 L
3089 1069 L
3090 1081 L
3091 1076 L
3092 1072 L
3094 1137 L
3095 1133 L
3096 1049 L
3097 1079 L
3098 1060 L
3099 1072 L
3100 1052 L
3101 1074 L
3103 1042 L
3104 1064 L
3105 1097 L
3106 1083 L
3107 1104 L
3108 1032 L
3109 1069 L
3110 1055 L
3111 1097 L
3112 1066 L
3113 1066 L
3114 1080 L
3115 1060 L
3116 1040 L
3117 1068 L
3119 1073 L
3120 1080 L
3121 1026 L
3122 1071 L
3123 1051 L
3124 1067 L
3125 1027 L
3126 1051 L
3127 1052 L
3128 1031 L
3129 1121 L
3130 1047 L
3131 1051 L
3132 1027 L
3133 1087 L
3134 1030 L
3135 1071 L
3136 1049 L
3136 1078 L
3137 1059 L
3138 1052 L
3139 1080 L
3140 1035 L
3141 1067 L
3142 1050 L
3143 1068 L
3144 1035 L
3145 1047 L
3146 1100 L
3147 1058 L
3148 1068 L
3149 1050 L
3150 1044 L
3151 1057 L
3151 1073 L
3152 1052 L
3153 1026 L
3154 1050 L
3155 1047 L
3156 1023 L
3157 1042 L
3158 1068 L
3159 1055 L
3160 1010 L
3160 1044 L
3161 1083 L
3162 1067 L
3163 1051 L
3164 1081 L
3165 1071 L
3166 1044 L
3166 1063 L
3167 1065 L
3168 1049 L
3169 1045 L
3170 1062 L
3171 1056 L
3172 1062 L
3172 1054 L
3173 1051 L
3174 1035 L
3175 1049 L
3176 1059 L
3177 1061 L
3177 1041 L
3178 1077 L
3179 1044 L
3180 1063 L
3181 1047 L
3181 1049 L
3182 1052 L
3183 1052 L
3184 1035 L
3185 1040 L
3185 1046 L
3186 1071 L
3187 1044 L
3188 1039 L
3189 1046 L
3189 1050 L
3190 1011 L
3191 1042 L
3192 1066 L
3193 1066 L
3193 1055 L
3194 1059 L
3195 1073 L
3196 1047 L
3196 1066 L
3197 1056 L
3198 1081 L
3199 1050 L
3199 1073 L
3200 1080 L
3201 1067 L
3202 1062 L
3202 1077 L
3203 1064 L
3204 1060 L
3205 1022 L
3205 1041 L
3206 1044 L
3207 1056 L
3208 1047 L
3208 1055 L
3209 1032 L
3210 1021 L
3210 1074 L
3211 1025 L
3212 1081 L
3213 1036 L
3213 1059 L
3214 1048 L
3215 1045 L
3215 1051 L
3216 1049 L
3217 1046 L
3218 1037 L
3218 1047 L
3219 1058 L
3220 990 L
3220 1045 L
3221 1052 L
3222 1042 L
3222 1053 L
3223 1042 L
3224 1049 L
3224 1061 L
3225 1071 L
3226 1068 L
3227 1011 L
3227 1045 L
3228 1076 L
3229 1060 L
3229 1054 L
3230 1031 L
3231 1061 L
3231 1062 L
3232 1052 L
3233 1047 L
3233 1073 L
3234 1051 L
3235 1036 L
3235 1051 L
3236 1043 L
3236 1053 L
3237 1037 L
3238 1054 L
3238 1065 L
3239 1053 L
3240 1032 L
3240 1083 L
3241 1021 L
3242 1017 L
3242 1064 L
3243 1053 L
3244 1014 L
3244 1085 L
3245 1066 L
3245 1062 L
3246 1069 L
3247 1079 L
3247 1053 L
3248 1054 L
3249 1058 L
3249 1102 L
3250 1076 L
3250 1060 L
3251 1080 L
3252 1069 L
3252 1067 L
3253 1048 L
3253 1082 L
3254 1116 L
3255 1068 L
3255 1063 L
3256 1024 L
3257 1062 L
3257 1075 L
3258 1088 L
3258 1066 L
3259 1082 L
3259 1044 L
3260 1064 L
3261 1097 L
3261 1064 L
3262 1071 L
3262 1040 L
3263 1088 L
3264 1006 L
3264 1099 L
3265 1036 L
3265 1074 L
3266 1099 L
3267 1025 L
3267 1101 L
3268 1059 L
3268 1096 L
3269 1060 L
3269 1052 L
3270 1075 L
3271 1078 L
3271 1085 L
3272 1072 L
3272 1097 L
3273 1089 L
3273 1059 L
3274 1071 L
3275 1060 L
3275 1084 L
3276 1059 L
3276 1073 L
3277 1059 L
3277 1092 L
3278 1053 L
3278 1070 L
3279 1127 L
3280 1073 L
3280 1057 L
3281 1073 L
3281 1102 L
3282 1084 L
3282 1089 L
3283 1006 L
3283 1074 L
3284 1048 L
3284 1079 L
3285 1088 L
3285 1073 L
3286 1071 L
3287 1094 L
3287 1117 L
3288 1046 L
3288 1098 L
3289 1065 L
3289 1059 L
3290 1075 L
3290 1092 L
3291 1071 L
3291 1089 L
3292 1088 L
3292 1067 L
3293 1083 L
3293 1070 L
3294 1061 L
3294 1091 L
3295 1057 L
3295 1087 L
3296 1097 L
3297 1074 L
3297 1056 L
3298 1047 L
3298 1105 L
3299 1046 L
3299 1046 L
3300 1053 L
3300 1093 L
3301 1057 L
3301 1095 L
3302 1073 L
3302 1104 L
3303 1086 L
3303 1094 L
3304 1094 L
3304 1099 L
3305 1059 L
3305 1084 L
3306 1120 L
3306 1067 L
3307 1057 L
3307 1087 L
3308 1111 L
3308 1069 L
3309 1053 L
3309 1092 L
3310 1087 L
3310 1088 L
3311 1115 L
3311 1079 L
3312 1078 L
3312 1077 L
3312 1097 L
3313 1089 L
3313 1078 L
3314 1076 L
3314 1108 L
3315 1087 L
3315 1072 L
3316 1067 L
3316 1073 L
3317 1124 L
3317 1104 L
3318 1074 L
3318 1105 L
3319 1115 L
3319 1095 L
3320 1066 L
3320 1058 L
3321 1073 L
3321 1077 L
3321 1119 L
3322 1085 L
3322 1110 L
3323 1084 L
3323 1113 L
3324 1081 L
3324 1069 L
3325 1071 L
3325 1047 L
3326 1096 L
3326 1098 L
3327 1097 L
3327 1119 L
3327 1084 L
3328 1101 L
3328 1140 L
3329 1087 L
3329 1093 L
3330 1116 L
3330 1116 L
3331 1125 L
3331 1080 L
3332 1090 L
3332 1049 L
3332 1080 L
3333 1080 L
3333 1089 L
3334 1104 L
3334 1075 L
3335 1080 L
3335 1099 L
3336 1119 L
3336 1076 L
3336 1104 L
3337 1113 L
3337 1118 L
3338 1102 L
3338 1060 L
3339 1085 L
3339 1104 L
3339 1096 L
3340 1066 L
3340 1115 L
3341 1114 L
3341 1082 L
3342 1094 L
3342 1121 L
3343 1089 L
3343 1090 L
3343 1089 L
3344 1112 L
3344 1121 L
3345 1121 L
3345 1112 L
3346 1092 L
3346 1112 L
3346 1119 L
3347 1071 L
3347 1144 L
3348 1109 L
3348 1118 L
3348 1088 L
3349 1090 L
3349 1093 L
3350 1135 L
3350 1086 L
3351 1101 L
3351 1083 L
3351 1106 L
3352 1101 L
3352 1099 L
3353 1091 L
3353 1088 L
3353 1104 L
3354 1120 L
3354 1101 L
3355 1126 L
3355 1121 L
3355 1124 L
3356 1096 L
3356 1093 L
3357 1127 L
3357 1085 L
3358 1082 L
3358 1125 L
3358 1083 L
3359 1080 L
3359 1100 L
3360 1097 L
3360 1125 L
3360 1093 L
3361 1105 L
3361 1111 L
3362 1112 L
3362 1087 L
3362 1108 L
3363 1101 L
3363 1120 L
3364 1131 L
3364 1104 L
3364 1105 L
3365 1091 L
3365 1132 L
3365 1091 L
3366 1110 L
3366 1139 L
3367 1134 L
3367 1137 L
3367 1100 L
3368 1131 L
3368 1123 L
3369 1089 L
3369 1114 L
3369 1093 L
3370 1082 L
3370 1119 L
3371 1109 L
3371 1095 L
3371 1122 L
3372 1103 L
3372 1116 L
3372 1111 L
3373 1083 L
3373 1105 L
3374 1122 L
3374 1093 L
3374 1167 L
3375 1111 L
3375 1109 L
3375 1120 L
3376 1129 L
3376 1122 L
3377 1117 L
3377 1117 L
3377 1091 L
3378 1106 L
3378 1122 L
3378 1130 L
3379 1137 L
3379 1102 L
3380 1087 L
3380 1126 L
3380 1150 L
3381 1135 L
3381 1097 L
3381 1124 L
3382 1112 L
3382 1126 L
3383 1119 L
3383 1126 L
3383 1108 L
3384 1128 L
3384 1152 L
3384 1134 L
3385 1111 L
3385 1122 L
3385 1128 L
3386 1116 L
3386 1130 L
3387 1129 L
3387 1114 L
3387 1151 L
3388 1121 L
3388 1141 L
3388 1080 L
3389 1124 L
3389 1113 L
3389 1116 L
3390 1104 L
3390 1161 L
3391 1123 L
3391 1132 L
3391 1134 L
3392 1113 L
3392 1114 L
3392 1151 L
3393 1136 L
3393 1062 L
3393 1129 L
3394 1118 L
3394 1118 L
3394 1103 L
3395 1143 L
3395 1125 L
3395 1129 L
3396 1140 L
3396 1116 L
3396 1143 L
3397 1111 L
3397 1111 L
3398 1098 L
3398 1142 L
3398 1114 L
3399 1117 L
3399 1126 L
3399 1115 L
3400 1112 L
3400 1123 L
3400 1117 L
3401 1141 L
3401 1151 L
3401 1139 L
3402 1105 L
3402 1154 L
3402 1122 L
3403 1165 L
3403 1130 L
3403 1130 L
3404 1142 L
3404 1117 L
3404 1109 L
3405 1165 L
3405 1110 L
3405 1134 L
3406 1138 L
3406 1142 L
3406 1138 L
3407 1138 L
3407 1168 L
3407 1093 L
3408 1089 L
3408 1088 L
3408 1134 L
3409 1124 L
3409 1119 L
3409 1131 L
3410 1131 L
3410 1145 L
3410 1173 L
3411 1137 L
3411 1153 L
3411 1145 L
3412 1116 L
3412 1114 L
3412 1158 L
3413 1165 L
3413 1135 L
3413 1136 L
3414 1151 L
3414 1148 L
3414 1130 L
3415 1151 L
3415 1124 L
3415 1169 L
3416 1142 L
3416 1118 L
3416 1095 L
3417 1163 L
3417 1166 L
3417 1141 L
3417 1111 L
3418 1140 L
3418 1151 L
3418 1118 L
3419 1142 L
3419 1170 L
3419 1103 L
3420 1148 L
3420 1139 L
3420 1137 L
3421 1150 L
3421 1131 L
3421 1136 L
3422 1133 L
3422 1169 L
3422 1108 L
3423 1118 L
3423 1156 L
3423 1138 L
3423 1162 L
3424 1152 L
3424 1152 L
3424 1108 L
3425 1134 L
3425 1165 L
3425 1149 L
3426 1175 L
3426 1179 L
3426 1189 L
3427 1110 L
3427 1151 L
3427 1117 L
3428 1112 L
3428 1126 L
3428 1141 L
3428 1169 L
3429 1104 L
3429 1150 L
3429 1165 L
3430 1189 L
3430 1122 L
3430 1127 L
3431 1112 L
3431 1125 L
3431 1160 L
3431 1141 L
3432 1136 L
3432 1132 L
3432 1151 L
3433 1164 L
3433 1169 L
3433 1160 L
3434 1145 L
3434 1161 L
3434 1143 L
3434 1139 L
3435 1127 L
3435 1134 L
3435 1155 L
3436 1164 L
3436 1177 L
3436 1149 L
3437 1158 L
3437 1151 L
3437 1156 L
3437 1132 L
3438 1132 L
3438 1130 L
3438 1151 L
3439 1130 L
3439 1139 L
3439 1151 L
3440 1172 L
3440 1164 L
3440 1163 L
3440 1151 L
3441 1169 L
3441 1160 L
3441 1145 L
3442 1145 L
3442 1144 L
3442 1166 L
3442 1150 L
3443 1177 L
3443 1195 L
3443 1151 L
3444 1163 L
3444 1156 L
3444 1157 L
3444 1192 L
3445 1150 L
3445 1148 L
3445 1174 L
3446 1138 L
3446 1137 L
3446 1165 L
3446 1149 L
3447 1106 L
3447 1140 L
3447 1183 L
3448 1152 L
3448 1152 L
3448 1142 L
3448 1143 L
3449 1153 L
3449 1151 L
3449 1142 L
3450 1143 L
3450 1183 L
3450 1167 L
3450 1153 L
3451 1163 L
3451 1156 L
3451 1135 L
3452 1153 L
3452 1156 L
3452 1122 L
3452 1160 L
3453 1203 L
3453 1191 L
3453 1212 L
3454 1143 L
3454 1147 L
3454 1133 L
3454 1153 L
3455 1135 L
3455 1146 L
3455 1132 L
3455 1168 L
3456 1137 L
3456 1145 L
3456 1148 L
3457 1199 L
3457 1164 L
3457 1124 L
3457 1127 L
3458 1115 L
3458 1163 L
3458 1149 L
3458 1187 L
3459 1146 L
3459 1146 L
3459 1136 L
3460 1161 L
3460 1143 L
3460 1141 L
3460 1199 L
3461 1162 L
3461 1184 L
3461 1144 L
3461 1228 L
3462 1151 L
3462 1185 L
3462 1166 L
3463 1139 L
3463 1135 L
3463 1149 L
3463 1156 L
3464 1119 L
3464 1143 L
3464 1162 L
3464 1179 L
3465 1160 L
3465 1148 L
3465 1161 L
3465 1175 L
3466 1114 L
3466 1151 L
3466 1183 L
3466 1179 L
3467 1123 L
3467 1180 L
3467 1152 L
3468 1156 L
3468 1187 L
3468 1181 L
3468 1173 L
3469 1136 L
3469 1153 L
3469 1156 L
3469 1160 L
3470 1180 L
3470 1182 L
3470 1159 L
3470 1158 L
3471 1155 L
3471 1238 L
3471 1162 L
3471 1151 L
3472 1159 L
3472 1213 L
3472 1225 L
3472 1158 L
3473 1155 L
3473 1183 L
3473 1197 L
3474 1171 L
3474 1186 L
3474 1180 L
3474 1139 L
3475 1165 L
3475 1165 L
3475 1175 L
3475 1191 L
3476 1145 L
3476 1192 L
3476 1166 L
3476 1196 L
3477 1173 L
3477 1218 L
3477 1178 L
3477 1168 L
3478 1157 L
3478 1205 L
3478 1187 L
3478 1153 L
3479 1201 L
3479 1154 L
3479 1197 L
3479 1186 L
3480 1158 L
3480 1169 L
3480 1175 L
3480 1157 L
3481 1199 L
3481 1159 L
3481 1173 L
3481 1181 L
3482 1146 L
3482 1183 L
3482 1187 L
3482 1193 L
3483 1161 L
3483 1190 L
3483 1181 L
3483 1198 L
3484 1185 L
3484 1184 L
3484 1202 L
3484 1169 L
3485 1189 L
3485 1177 L
3485 1144 L
3485 1128 L
3486 1145 L
3486 1161 L
3486 1177 L
3486 1149 L
3487 1161 L
3487 1180 L
3487 1192 L
3487 1184 L
3488 1183 L
3488 1189 L
3488 1205 L
3488 1212 L
3488 1186 L
3489 1174 L
3489 1162 L
3489 1166 L
3489 1191 L
3490 1199 L
3490 1176 L
3490 1169 L
3490 1119 L
3491 1174 L
3491 1193 L
3491 1156 L
3491 1184 L
3492 1186 L
3492 1170 L
3492 1190 L
3492 1166 L
3493 1156 L
3493 1173 L
3493 1151 L
3493 1176 L
3494 1187 L
3494 1175 L
3494 1178 L
3494 1172 L
3494 1216 L
3495 1180 L
3495 1138 L
3495 1202 L
3495 1198 L
3496 1176 L
3496 1209 L
3496 1167 L
3496 1162 L
3497 1201 L
3497 1168 L
3497 1137 L
3497 1167 L
3498 1188 L
3498 1152 L
3498 1219 L
3498 1162 L
3498 1180 L
3499 1190 L
3499 1201 L
3499 1199 L
3499 1176 L
3500 1151 L
3500 1214 L
3506 1165 L
3511 1175 L
3517 1208 L
3522 1181 L
3527 1216 L
3532 1190 L
3537 1200 L
3542 1185 L
3547 1224 L
3552 1220 L
3557 1187 L
3561 1211 L
3566 1210 L
3570 1235 L
3575 1224 L
3579 1232 L
3583 1253 L
3587 1212 L
3591 1225 L
3595 1254 L
3599 1256 L
3603 1222 L
3607 1207 L
3611 1226 L
3614 1195 L
3618 1236 L
3622 1253 L
3625 1261 L
3629 1222 L
3632 1238 L
3636 1220 L
3639 1233 L
3642 1254 L
3646 1220 L
3649 1278 L
3652 1192 L
3655 1211 L
3658 1251 L
3661 1265 L
3664 1245 L
3667 1191 L
3670 1263 L
3673 1251 L
3676 1277 L
3679 1260 L
3682 1261 L
3685 1239 L
3688 1244 L
3690 1201 L
3693 1219 L
3696 1270 L
3698 1214 L
3701 1256 L
3704 1219 L
3706 1256 L
3709 1214 L
3711 1276 L
3714 1252 L
3716 1244 L
3719 1258 L
3721 1236 L
3724 1199 L
3726 1229 L
3728 1256 L
3731 1255 L
3733 1230 L
3735 1266 L
3738 1229 L
3740 1228 L
3742 1262 L
3744 1299 L
3747 1254 L
3749 1211 L
3751 1255 L
3753 1260 L
3755 1194 L
3757 1204 L
3760 1288 L
3762 1234 L
3764 1210 L
3766 1277 L
3768 1245 L
3770 1217 L
3772 1277 L
3774 1268 L
3776 1237 L
3778 1251 L
3780 1266 L
3781 1230 L
3783 1255 L
3785 1235 L
3787 1284 L
3789 1229 L
3791 1269 L
3793 1246 L
3795 1261 L
3796 1266 L
3798 1233 L
3800 1228 L
3802 1251 L
3803 1268 L
3805 1231 L
3807 1270 L
3809 1263 L
3810 1271 L
3812 1271 L
3814 1242 L
3816 1255 L
3817 1264 L
3819 1249 L
3820 1197 L
3822 1276 L
3824 1185 L
3825 1270 L
3827 1239 L
3829 1232 L
3830 1239 L
3832 1255 L
3833 1281 L
3835 1284 L
3836 1205 L
3838 1262 L
3839 1246 L
3841 1272 L
3842 1215 L
3844 1249 L
3845 1253 L
3847 1219 L
3848 1297 L
3850 1286 L
3851 1249 L
3853 1236 L
3854 1249 L
3856 1248 L
3857 1255 L
3859 1261 L
3860 1256 L
3861 1218 L
3863 1252 L
3864 1255 L
3866 1231 L
3867 1227 L
3868 1309 L
3870 1230 L
3871 1244 L
3872 1260 L
3874 1255 L
3875 1256 L
3876 1233 L
3878 1247 L
3879 1285 L
3880 1238 L
3882 1205 L
3883 1220 L
3884 1263 L
3885 1275 L
3887 1238 L
3888 1276 L
3889 1260 L
3890 1241 L
3892 1273 L
3893 1271 L
3894 1253 L
3895 1276 L
3897 1236 L
3898 1237 L
3899 1276 L
3900 1290 L
3901 1224 L
3903 1239 L
3904 1302 L
3905 1255 L
3906 1232 L
3907 1299 L
3908 1260 L
3910 1248 L
3911 1263 L
3912 1239 L
3913 1231 L
3914 1252 L
3915 1222 L
3917 1242 L
3918 1261 L
3919 1236 L
3920 1231 L
3921 1204 L
3922 1209 L
3923 1246 L
3924 1268 L
3925 1247 L
3926 1226 L
3928 1217 L
3929 1260 L
3930 1226 L
3931 1245 L
3932 1215 L
3933 1230 L
3934 1232 L
3935 1258 L
3936 1221 L
3937 1249 L
3938 1274 L
3939 1282 L
3940 1248 L
3941 1230 L
3942 1291 L
3943 1249 L
3944 1265 L
3945 1238 L
3946 1246 L
3947 1171 L
3948 1247 L
3949 1257 L
3950 1267 L
3951 1263 L
3952 1220 L
3953 1257 L
3954 1257 L
3955 1282 L
3956 1247 L
3957 1226 L
3958 1253 L
3959 1257 L
3960 1242 L
3961 1247 L
3962 1251 L
3963 1267 L
3964 1226 L
3965 1228 L
3966 1227 L
3966 1213 L
3967 1268 L
3968 1294 L
3969 1266 L
3970 1232 L
3971 1239 L
3972 1208 L
3973 1278 L
3974 1260 L
3975 1224 L
3976 1227 L
3976 1263 L
3977 1239 L
3978 1236 L
3979 1244 L
3980 1255 L
3981 1212 L
3982 1222 L
3983 1281 L
3983 1267 L
3984 1277 L
3985 1233 L
3986 1250 L
3987 1258 L
3988 1234 L
3989 1298 L
3989 1213 L
3990 1249 L
3991 1240 L
3992 1280 L
3993 1244 L
3994 1265 L
3995 1211 L
3995 1246 L
3996 1276 L
3997 1267 L
3998 1272 L
3999 1273 L
3999 1218 L
4000 1233 L
4001 1180 L
4002 1235 L
4003 1224 L
4003 1218 L
4004 1261 L
4005 1225 L
4006 1263 L
4007 1258 L
4007 1227 L
4008 1251 L
4009 1223 L
4010 1268 L
4011 1228 L
4011 1213 L
4012 1228 L
4013 1245 L
4014 1237 L
4014 1266 L
4015 1239 L
4016 1244 L
4017 1251 L
4017 1255 L
4018 1224 L
4019 1243 L
4020 1316 L
4021 1244 L
4021 1236 L
4022 1252 L
4023 1222 L
4023 1244 L
4024 1231 L
4025 1198 L
4026 1236 L
4026 1268 L
4027 1263 L
4028 1230 L
4029 1240 L
4029 1262 L
4030 1246 L
4031 1224 L
4032 1229 L
4032 1339 L
4033 1226 L
4034 1261 L
4034 1214 L
4035 1262 L
4036 1250 L
4036 1250 L
4037 1220 L
4038 1234 L
4039 1267 L
4039 1211 L
4040 1291 L
4041 1263 L
4041 1224 L
4042 1261 L
4043 1234 L
4043 1256 L
4044 1257 L
4045 1242 L
4045 1268 L
4046 1261 L
4047 1220 L
4047 1273 L
4048 1264 L
4049 1259 L
4050 1213 L
4050 1207 L
4051 1267 L
4052 1228 L
4052 1260 L
4053 1237 L
4053 1288 L
4054 1234 L
4055 1246 L
4055 1230 L
4056 1232 L
4057 1209 L
4057 1275 L
4058 1220 L
4059 1289 L
4059 1248 L
4060 1234 L
4061 1266 L
4061 1213 L
4062 1237 L
L2 C04 COSGR

%
% Main frame
%
L10
GSN 
620 1700 M
4220 1700 L
4220 5300 L
620 5300 L
closepath SGR

%
% X axis: large tics
%
L10
GSN 1130 1700 M 0  54 rL SGR
GSN 1130 5300 M 0 -54 rL SGR
helvS (0.0001) 1130 470 xlabel
GSN 1716 1700 M 0  54 rL SGR
GSN 1716 5300 M 0 -54 rL SGR
helvS (0.001) 1716 470 xlabel
GSN 2303 1700 M 0  54 rL SGR
GSN 2303 5300 M 0 -54 rL SGR
helvS (0.01) 2303 470 xlabel
GSN 2889 1700 M 0  54 rL SGR
GSN 2889 5300 M 0 -54 rL SGR
helvS (0.1) 2889 470 xlabel
GSN 3476 1700 M 0  54 rL SGR
GSN 3476 5300 M 0 -54 rL SGR
helvS (1) 3476 470 xlabel
GSN 4062 1700 M 0  54 rL SGR
GSN 4062 5300 M 0 -54 rL SGR
helvS (10) 4062 470 xlabel
%
% X axis: small tics
%
L5
GSN 720 1700 M 0  36 rL SGR
GSN 720 5300 M 0 -36 rL SGR
GSN 824 1700 M 0  36 rL SGR
GSN 824 5300 M 0 -36 rL SGR
GSN 897 1700 M 0  36 rL SGR
GSN 897 5300 M 0 -36 rL SGR
GSN 954 1700 M 0  36 rL SGR
GSN 954 5300 M 0 -36 rL SGR
GSN 1000 1700 M 0  36 rL SGR
GSN 1000 5300 M 0 -36 rL SGR
GSN 1039 1700 M 0  36 rL SGR
GSN 1039 5300 M 0 -36 rL SGR
GSN 1073 1700 M 0  36 rL SGR
GSN 1073 5300 M 0 -36 rL SGR
GSN 1103 1700 M 0  36 rL SGR
GSN 1103 5300 M 0 -36 rL SGR
GSN 1307 1700 M 0  36 rL SGR
GSN 1307 5300 M 0 -36 rL SGR
GSN 1410 1700 M 0  36 rL SGR
GSN 1410 5300 M 0 -36 rL SGR
GSN 1483 1700 M 0  36 rL SGR
GSN 1483 5300 M 0 -36 rL SGR
GSN 1540 1700 M 0  36 rL SGR
GSN 1540 5300 M 0 -36 rL SGR
GSN 1586 1700 M 0  36 rL SGR
GSN 1586 5300 M 0 -36 rL SGR
GSN 1626 1700 M 0  36 rL SGR
GSN 1626 5300 M 0 -36 rL SGR
GSN 1660 1700 M 0  36 rL SGR
GSN 1660 5300 M 0 -36 rL SGR
GSN 1690 1700 M 0  36 rL SGR
GSN 1690 5300 M 0 -36 rL SGR
GSN 1893 1700 M 0  36 rL SGR
GSN 1893 5300 M 0 -36 rL SGR
GSN 1996 1700 M 0  36 rL SGR
GSN 1996 5300 M 0 -36 rL SGR
GSN 2069 1700 M 0  36 rL SGR
GSN 2069 5300 M 0 -36 rL SGR
GSN 2126 1700 M 0  36 rL SGR
GSN 2126 5300 M 0 -36 rL SGR
GSN 2173 1700 M 0  36 rL SGR
GSN 2173 5300 M 0 -36 rL SGR
GSN 2212 1700 M 0  36 rL SGR
GSN 2212 5300 M 0 -36 rL SGR
GSN 2246 1700 M 0  36 rL SGR
GSN 2246 5300 M 0 -36 rL SGR
GSN 2276 1700 M 0  36 rL SGR
GSN 2276 5300 M 0 -36 rL SGR
GSN 2479 1700 M 0  36 rL SGR
GSN 2479 5300 M 0 -36 rL SGR
GSN 2583 1700 M 0  36 rL SGR
GSN 2583 5300 M 0 -36 rL SGR
GSN 2656 1700 M 0  36 rL SGR
GSN 2656 5300 M 0 -36 rL SGR
GSN 2713 1700 M 0  36 rL SGR
GSN 2713 5300 M 0 -36 rL SGR
GSN 2759 1700 M 0  36 rL SGR
GSN 2759 5300 M 0 -36 rL SGR
GSN 2798 1700 M 0  36 rL SGR
GSN 2798 5300 M 0 -36 rL SGR
GSN 2832 1700 M 0  36 rL SGR
GSN 2832 5300 M 0 -36 rL SGR
GSN 2862 1700 M 0  36 rL SGR
GSN 2862 5300 M 0 -36 rL SGR
GSN 3066 1700 M 0  36 rL SGR
GSN 3066 5300 M 0 -36 rL SGR
GSN 3169 1700 M 0  36 rL SGR
GSN 3169 5300 M 0 -36 rL SGR
GSN 3242 1700 M 0  36 rL SGR
GSN 3242 5300 M 0 -36 rL SGR
GSN 3299 1700 M 0  36 rL SGR
GSN 3299 5300 M 0 -36 rL SGR
GSN 3345 1700 M 0  36 rL SGR
GSN 3345 5300 M 0 -36 rL SGR
GSN 3385 1700 M 0  36 rL SGR
GSN 3385 5300 M 0 -36 rL SGR
GSN 3419 1700 M 0  36 rL SGR
GSN 3419 5300 M 0 -36 rL SGR
GSN 3449 1700 M 0  36 rL SGR
GSN 3449 5300 M 0 -36 rL SGR
GSN 3652 1700 M 0  36 rL SGR
GSN 3652 5300 M 0 -36 rL SGR
GSN 3755 1700 M 0  36 rL SGR
GSN 3755 5300 M 0 -36 rL SGR
GSN 3829 1700 M 0  36 rL SGR
GSN 3829 5300 M 0 -36 rL SGR
GSN 3885 1700 M 0  36 rL SGR
GSN 3885 5300 M 0 -36 rL SGR
GSN 3932 1700 M 0  36 rL SGR
GSN 3932 5300 M 0 -36 rL SGR
GSN 3971 1700 M 0  36 rL SGR
GSN 3971 5300 M 0 -36 rL SGR
GSN 4005 1700 M 0  36 rL SGR
GSN 4005 5300 M 0 -36 rL SGR
GSN 4035 1700 M 0  36 rL SGR
GSN 4035 5300 M 0 -36 rL SGR
%
% Y axis: large tics
%
L10
GSN 620 2152 M 54 0 rL SGR
GSN 4220 2152 M -54 0 rL SGR
helvS (1) 560 2152 ylabel
GSN 620 3376 M 54 0 rL SGR
GSN 4220 3376 M -54 0 rL SGR
helvS (1.05) 560 3376 ylabel
GSN 620 4600 M 54 0 rL SGR
GSN 4220 4600 M -54 0 rL SGR
helvS (1.1) 560 4600 ylabel
%
% Y axis: small tics
%
L5
GSN 620 1907 M 36 0 rL SGR
GSN 4220 1907 M -36 0 rL SGR
GSN 620 2152 M 36 0 rL SGR
GSN 4220 2152 M -36 0 rL SGR
GSN 620 2397 M 36 0 rL SGR
GSN 4220 2397 M -36 0 rL SGR
GSN 620 2642 M 36 0 rL SGR
GSN 4220 2642 M -36 0 rL SGR
GSN 620 2887 M 36 0 rL SGR
GSN 4220 2887 M -36 0 rL SGR
GSN 620 3131 M 36 0 rL SGR
GSN 4220 3131 M -36 0 rL SGR
GSN 620 3376 M 36 0 rL SGR
GSN 4220 3376 M -36 0 rL SGR
GSN 620 3621 M 36 0 rL SGR
GSN 4220 3621 M -36 0 rL SGR
GSN 620 3866 M 36 0 rL SGR
GSN 4220 3866 M -36 0 rL SGR
GSN 620 4111 M 36 0 rL SGR
GSN 4220 4111 M -36 0 rL SGR
GSN 620 4355 M 36 0 rL SGR
GSN 4220 4355 M -36 0 rL SGR
GSN 620 4600 M 36 0 rL SGR
GSN 4220 4600 M -36 0 rL SGR
GSN 620 4845 M 36 0 rL SGR
GSN 4220 4845 M -36 0 rL SGR
GSN 620 5090 M 36 0 rL SGR
GSN 4220 5090 M -36 0 rL SGR

%
% X-Axis label:
%
gsave 2420 290 M 
[
[(Helvetica) 180 0 true true 0 (t)]
[(Helvetica) 180 0 true true 0 (i)]
[(Helvetica) 180 0 true true 0 (m)]
[(Helvetica) 180 0 true true 0 (e)]
] 0 MCshow grestore

%
% Y-Axis label:
%
gsave 234 3500 M 
currentpoint gsave translate 90 rotate 0 0 moveto
[
[(Helvetica) 180 0 true true 0 (s)]
[(Helvetica) 180 0 true true 0 (i)]
[(Helvetica) 180 0 true true 0 (g)]
[(Helvetica) 180 0 true true 0 (n)]
[(Helvetica) 180 0 true true 0 (a)]
[(Helvetica) 180 0 true true 0 (l)]
] 0 MCshow grestore

%
% Residuals:
%
gsave 129 1160 M 
currentpoint gsave translate 90 rotate 0 0 moveto
[
[(Helvetica) 150 0 true true 0 (r)]
[(Helvetica) 150 0 true true 0 (e)]
[(Helvetica) 150 0 true true 0 (s)]
[(Helvetica) 150 0 true true 0 (i)]
[(Helvetica) 150 0 true true 0 (d)]
[(Helvetica) 150 0 true true 0 (u)]
[(Helvetica) 150 0 true true 0 (a)]
[(Helvetica) 150 0 true true 0 (l)]
[(Helvetica) 150 0 true true 0 (s)]
] 0 MCshow grestore

%
% Residual frame
%
L10
GSN 
620 620 M
4220 620 L
4220 1700 L
620 1700 L
closepath SGR
%
% X axis: large tics - residual frame
%
L10
GSN 1130 620 M 0  54 rL SGR
GSN 1130 1700 M 0 -54 rL SGR
GSN 1716 620 M 0  54 rL SGR
GSN 1716 1700 M 0 -54 rL SGR
GSN 2303 620 M 0  54 rL SGR
GSN 2303 1700 M 0 -54 rL SGR
GSN 2889 620 M 0  54 rL SGR
GSN 2889 1700 M 0 -54 rL SGR
GSN 3476 620 M 0  54 rL SGR
GSN 3476 1700 M 0 -54 rL SGR
GSN 4062 620 M 0  54 rL SGR
GSN 4062 1700 M 0 -54 rL SGR
%
% X axis: small tics - residual frame
%
L5
GSN 720 620 M 0  36 rL SGR
GSN 720 1700 M 0 -36 rL SGR
GSN 824 620 M 0  36 rL SGR
GSN 824 1700 M 0 -36 rL SGR
GSN 897 620 M 0  36 rL SGR
GSN 897 1700 M 0 -36 rL SGR
GSN 954 620 M 0  36 rL SGR
GSN 954 1700 M 0 -36 rL SGR
GSN 1000 620 M 0  36 rL SGR
GSN 1000 1700 M 0 -36 rL SGR
GSN 1039 620 M 0  36 rL SGR
GSN 1039 1700 M 0 -36 rL SGR
GSN 1073 620 M 0  36 rL SGR
GSN 1073 1700 M 0 -36 rL SGR
GSN 1103 620 M 0  36 rL SGR
GSN 1103 1700 M 0 -36 rL SGR
GSN 1307 620 M 0  36 rL SGR
GSN 1307 1700 M 0 -36 rL SGR
GSN 1410 620 M 0  36 rL SGR
GSN 1410 1700 M 0 -36 rL SGR
GSN 1483 620 M 0  36 rL SGR
GSN 1483 1700 M 0 -36 rL SGR
GSN 1540 620 M 0  36 rL SGR
GSN 1540 1700 M 0 -36 rL SGR
GSN 1586 620 M 0  36 rL SGR
GSN 1586 1700 M 0 -36 rL SGR
GSN 1626 620 M 0  36 rL SGR
GSN 1626 1700 M 0 -36 rL SGR
GSN 1660 620 M 0  36 rL SGR
GSN 1660 1700 M 0 -36 rL SGR
GSN 1690 620 M 0  36 rL SGR
GSN 1690 1700 M 0 -36 rL SGR
GSN 1893 620 M 0  36 rL SGR
GSN 1893 1700 M 0 -36 rL SGR
GSN 1996 620 M 0  36 rL SGR
GSN 1996 1700 M 0 -36 rL SGR
GSN 2069 620 M 0  36 rL SGR
GSN 2069 1700 M 0 -36 rL SGR
GSN 2126 620 M 0  36 rL SGR
GSN 2126 1700 M 0 -36 rL SGR
GSN 2173 620 M 0  36 rL SGR
GSN 2173 1700 M 0 -36 rL SGR
GSN 2212 620 M 0  36 rL SGR
GSN 2212 1700 M 0 -36 rL SGR
GSN 2246 620 M 0  36 rL SGR
GSN 2246 1700 M 0 -36 rL SGR
GSN 2276 620 M 0  36 rL SGR
GSN 2276 1700 M 0 -36 rL SGR
GSN 2479 620 M 0  36 rL SGR
GSN 2479 1700 M 0 -36 rL SGR
GSN 2583 620 M 0  36 rL SGR
GSN 2583 1700 M 0 -36 rL SGR
GSN 2656 620 M 0  36 rL SGR
GSN 2656 1700 M 0 -36 rL SGR
GSN 2713 620 M 0  36 rL SGR
GSN 2713 1700 M 0 -36 rL SGR
GSN 2759 620 M 0  36 rL SGR
GSN 2759 1700 M 0 -36 rL SGR
GSN 2798 620 M 0  36 rL SGR
GSN 2798 1700 M 0 -36 rL SGR
GSN 2832 620 M 0  36 rL SGR
GSN 2832 1700 M 0 -36 rL SGR
GSN 2862 620 M 0  36 rL SGR
GSN 2862 1700 M 0 -36 rL SGR
GSN 3066 620 M 0  36 rL SGR
GSN 3066 1700 M 0 -36 rL SGR
GSN 3169 620 M 0  36 rL SGR
GSN 3169 1700 M 0 -36 rL SGR
GSN 3242 620 M 0  36 rL SGR
GSN 3242 1700 M 0 -36 rL SGR
GSN 3299 620 M 0  36 rL SGR
GSN 3299 1700 M 0 -36 rL SGR
GSN 3345 620 M 0  36 rL SGR
GSN 3345 1700 M 0 -36 rL SGR
GSN 3385 620 M 0  36 rL SGR
GSN 3385 1700 M 0 -36 rL SGR
GSN 3419 620 M 0  36 rL SGR
GSN 3419 1700 M 0 -36 rL SGR
GSN 3449 620 M 0  36 rL SGR
GSN 3449 1700 M 0 -36 rL SGR
GSN 3652 620 M 0  36 rL SGR
GSN 3652 1700 M 0 -36 rL SGR
GSN 3755 620 M 0  36 rL SGR
GSN 3755 1700 M 0 -36 rL SGR
GSN 3829 620 M 0  36 rL SGR
GSN 3829 1700 M 0 -36 rL SGR
GSN 3885 620 M 0  36 rL SGR
GSN 3885 1700 M 0 -36 rL SGR
GSN 3932 620 M 0  36 rL SGR
GSN 3932 1700 M 0 -36 rL SGR
GSN 3971 620 M 0  36 rL SGR
GSN 3971 1700 M 0 -36 rL SGR
GSN 4005 620 M 0  36 rL SGR
GSN 4005 1700 M 0 -36 rL SGR
GSN 4035 620 M 0  36 rL SGR
GSN 4035 1700 M 0 -36 rL SGR
%
% Y axis: large tics - residual frame
%
L10
GSN 620 767 M 54 0 rL SGR
GSN 4220 767 M -54 0 rL SGR
helvS (-0.05) 560 767 ylabelresid
GSN 620 1196 M 54 0 rL SGR
GSN 4220 1196 M -54 0 rL SGR
helvS (0) 560 1196 ylabelresid
GSN 620 1624 M 54 0 rL SGR
GSN 4220 1624 M -54 0 rL SGR
helvS (0.05) 560 1624 ylabelresid

%
% X axis - residual panel
%
GSN L5 620 1196 M 4220 1196 L SDA G50 SGR

end
showpage
%%Trailer
%%EOF
