%!PS-Adobe-3.0 EPSF-3.0
%%BoundingBox: 0 0 514 550
%%Creator: BioKin Ltd.
%%DocumentFonts: Symbol Helvetica
%%EndComments
%
/bkdict 256 dict def
bkdict begin
/M {moveto} def 
/R {rmoveto} def
/L {lineto} def
/rL {rlineto} def
/GSN {gsave newpath} def
/SGR {stroke grestore} def
/COSGR {gsave setrgbcolor stroke grestore grestore} def
/SL {setlinewidth} def
/LWMB {12} def             % line width - model curves, black & white
/LWMC {10} def             % line width - model curves, color
/L2 {2.5 setlinewidth} def
/L5 {5 setlinewidth} def
/L10 {10 setlinewidth} def
/G50 {0.5 setgray} def
/SDA {[10  20] 0 setdash} def % axes
/helvT {/Helvetica findfont 100 scalefont setfont} def % tiny
/helvS {/Helvetica findfont 125 scalefont setfont} def % small
/helvM {/Helvetica findfont 150 scalefont setfont} def % medium
/helvL {/Helvetica findfont 175 scalefont setfont} def % large
/xlabel {gsave M dup
   stringwidth exch -0.5 mul exch rmoveto show grestore} def 
/ylabel {gsave M 90 rotate dup
   stringwidth exch -0.5 mul exch rmoveto show grestore} def
/ylabelresid {gsave M dup
   stringwidth exch -1 mul exch rmoveto show grestore} def
% ======
% Shapes
% ======
% Circle:
/Circ {0 360 arc closepath} def
%
% Square:
/Squa {dup dup -0.5 mul dup dup R -2 mul 0 exch rL 1 mul 0 rL dup 0 exch -1 mul rL closepath} def
%
% Triangle Up:
/TriU {dup dup dup -0.4 mul exch -0.5 mul exch R dup 0.5 mul exch rL dup -1 mul exch 0.5 mul exch rL closepath} def 
%
% Triangle Down:
/TriD {dup dup dup 0.4 mul exch -0.5 mul exch R dup 0.5 mul exch -1 mul rL dup 0.5 mul exch rL closepath} def 
%
% Diamond:
/Diam {45 rotate Squa} def
% ======
% Fills
% ======
/GRF {gsave setgray fill grestore} def                    % gray-level Fill
/COF {gsave setrgbcolor fill grestore} def                % color fill
% ======
% Colors
% ======
/C01 {1.00	0.00	0.00} def      % Red
/C02 {0.00	0.00	1.00} def      % Blue
/C03 {0.00	0.39	0.00} def      % Dark Green
/C04 {0.78	0.08	0.52} def      % Medium Violet Red
/C05 {0.55	0.27	0.07} def      % Saddle Brown
/C06 {0.10	0.70	0.70} def      % (cyan)
/C07 {1.00	0.55	0.00} def      % Dark Orange
/C08 {0.63	0.13	0.94} def      % Purple
/C09 {0.00	0.75	1.00} def      % Deep Sky Blue
/C10 {0.20	0.80	0.20} def      % Lime Green
/C11 {0.47	0.53	0.60} def      % Light Slate Gray
/C12 {0.00	0.00	0.00} def      % Black            % or: {0.19	0.31	0.31} def      % Dark Slate Gray
%
/LGR {0.75} def % light gray
/DGR {0.33} def % dark gray
%
% =============
% Dash patterns
% =============
/dash01 { [80  20] 0 setdash } def
/dash02 { [40  20] 0 setdash } def
/dash03 { [80  20  10  20] 0 setdash } def
/dash04 { [40  20  10  20] 0 setdash } def
/dash05 { [80  20  10  10  10  20] 0 setdash } def
/dash06 { [40  20  10  10  10  20] 0 setdash } def
/dash07 { [10  10] 0 setdash } def
%
/MFshow {
   { dup 5 get 3 ge
     { 5 get 3 eq {gsave} {grestore} ifelse }
     {dup dup 0 get findfont exch 1 get scalefont setfont
     [ currentpoint ] exch dup 2 get 0 exch R dup 5 get 2 ne {dup dup 6
     get exch 4 get {show} {stringwidth pop 0 R} ifelse }if dup 5 get 0 eq
     {dup 3 get {2 get neg 0 exch R pop} {pop aload pop M} ifelse} {dup 5
     get 1 eq {dup 2 get exch dup 3 get exch 6 get stringwidth pop -2 div
     dup 0 R} {dup 6 get stringwidth pop -2 div 0 R 6 get
     show 2 index {aload pop M neg 3 -1 roll neg R pop pop} {pop pop pop
     pop aload pop M} ifelse }ifelse }ifelse }
     ifelse }
   forall} bind def
/MFwidth {0 exch {dup 3 get{dup dup 0 get findfont exch 1 get scalefont
     setfont 6 get stringwidth pop add} {pop} ifelse} forall} bind def
/MCshow { currentpoint stroke M
  exch dup MFwidth -2 div 3 -1 roll R MFshow } def
%
end
%%EndProlog
bkdict begin
0.1 0.1 scale
%
% Residuals:
%
GSN 620 3039 M
620 4500 L
620 4566 L
620 4863 L
620 4693 L
620 4559 L
620 4576 L
620 4566 L
620 4604 L
620 4515 L
620 4533 L
620 4249 L
620 4719 L
620 4310 L
620 4483 L
620 4551 L
620 4483 L
620 4536 L
620 4196 L
620 4338 L
620 4252 L
620 4099 L
620 4163 L
620 4259 L
620 4049 L
620 4305 L
620 4444 L
620 4236 L
620 4366 L
620 4148 L
620 4008 L
620 3696 L
620 3871 L
620 3901 L
620 4145 L
620 4132 L
620 3967 L
620 3980 L
620 4067 L
620 4049 L
620 4171 L
620 4351 L
620 3782 L
620 3902 L
620 3579 L
620 3722 L
620 3590 L
620 3864 L
620 3876 L
620 3803 L
620 3889 L
620 3968 L
620 3539 L
620 3123 L
620 3366 L
620 3612 L
620 3782 L
620 3978 L
620 3612 L
620 3475 L
620 3343 L
620 3739 L
620 3298 L
620 3445 L
620 3729 L
620 3645 L
620 3265 L
620 3503 L
620 3478 L
620 3326 L
620 3282 L
620 3612 L
620 3392 L
620 3490 L
620 3260 L
620 3470 L
620 3480 L
620 3435 L
620 3351 L
620 3356 L
620 3427 L
620 3191 L
620 3148 L
620 3232 L
620 3326 L
620 3257 L
620 3288 L
620 3308 L
620 2897 L
620 2973 L
620 3034 L
620 3422 L
620 2904 L
620 2582 L
620 3189 L
620 2818 L
620 3049 L
620 2684 L
620 3016 L
620 2910 L
620 2755 L
620 2610 L
620 2907 L
620 2765 L
620 2288 L
620 2719 L
620 2760 L
620 2321 L
620 2806 L
620 2608 L
620 2866 L
620 2455 L
620 2899 L
620 2887 L
620 2790 L
620 2633 L
620 2646 L
620 2684 L
620 2524 L
620 2590 L
620 2684 L
620 2658 L
620 2633 L
620 2359 L
620 2552 L
620 2506 L
620 2336 L
620 2476 L
620 2699 L
620 2372 L
620 2595 L
620 2387 L
620 2407 L
620 2341 L
620 2499 L
620 2453 L
620 2390 L
620 2407 L
620 2605 L
620 2344 L
620 2501 L
620 2311 L
620 2364 L
620 2417 L
620 2372 L
620 2336 L
620 2290 L
620 2329 L
620 2303 L
620 2461 L
620 2549 L
620 2351 L
620 2539 L
620 2795 L
620 2359 L
620 2296 L
620 2321 L
620 2628 L
620 2453 L
620 2445 L
620 2821 L
620 2732 L
620 2257 L
620 2582 L
620 2349 L
620 2557 L
620 2555 L
620 2534 L
620 2572 L
620 2570 L
620 2694 L
620 2359 L
620 2788 L
620 2770 L
620 2618 L
620 2905 L
620 2136 L
620 2435 L
620 2706 L
620 2448 L
620 2521 L
620 2539 L
620 2529 L
620 2628 L
620 2187 L
620 2656 L
620 2768 L
620 3234 L
620 2567 L
620 3090 L
620 2321 L
620 2834 L
620 2719 L
620 2341 L
620 2691 L
620 2762 L
620 2722 L
620 2438 L
620 2719 L
620 2526 L
620 2575 L
620 2595 L
620 2707 L
620 2763 L
620 2466 L
620 2534 L
620 2521 L
620 2874 L
620 2790 L
620 2468 L
620 2790 L
620 2668 L
620 2811 L
620 3019 L
620 2907 L
620 2856 L
620 2889 L
620 2897 L
620 3092 L
620 2737 L
620 2800 L
620 3054 L
620 2935 L
620 2664 L
620 2704 L
620 2960 L
620 2628 L
620 2993 L
620 2455 L
620 2699 L
620 2887 L
620 3057 L
620 3024 L
620 2866 L
620 2839 L
620 2712 L
620 2709 L
620 2795 L
620 2704 L
620 2894 L
620 2653 L
620 2631 L
620 2615 L
620 2811 L
620 2752 L
620 2747 L
620 2821 L
620 2636 L
620 2854 L
620 3047 L
620 2948 L
620 2618 L
620 3082 L
620 3186 L
620 2920 L
620 2724 L
620 2656 L
620 2826 L
620 2823 L
620 2636 L
620 2516 L
620 2684 L
620 2486 L
620 2623 L
620 3260 L
620 3067 L
620 2861 L
620 2899 L
620 3219 L
620 3163 L
620 2877 L
620 2537 L
620 2562 L
620 3135 L
620 3222 L
620 2894 L
620 3212 L
620 3042 L
620 2631 L
620 2897 L
620 2686 L
620 2813 L
620 2991 L
620 2925 L
620 2811 L
620 3130 L
620 2765 L
620 3082 L
620 3194 L
620 3062 L
620 2966 L
620 3151 L
620 3181 L
620 3110 L
620 3260 L
620 3321 L
620 2958 L
620 3077 L
620 2935 L
620 3184 L
620 2737 L
620 2915 L
620 2922 L
620 2963 L
620 3214 L
620 2943 L
620 3128 L
620 3376 L
620 3011 L
620 3049 L
620 3009 L
620 3184 L
620 2889 L
620 2955 L
620 3016 L
620 3029 L
620 2991 L
620 3008 L
620 3166 L
620 2780 L
620 3351 L
620 3422 L
620 2920 L
620 3168 L
620 2628 L
620 3016 L
620 3328 L
620 2851 L
620 2735 L
620 2940 L
620 3130 L
620 3374 L
620 2993 L
620 2745 L
620 2978 L
620 3019 L
620 3239 L
620 2922 L
620 2986 L
620 2902 L
620 2818 L
620 3171 L
620 3031 L
620 2861 L
620 3125 L
620 2958 L
620 3062 L
620 3275 L
620 2910 L
620 2806 L
620 3199 L
620 3123 L
620 2777 L
620 2788 L
620 2973 L
620 2750 L
620 2940 L
620 3024 L
620 2930 L
620 3404 L
620 2709 L
620 3113 L
620 3110 L
620 3346 L
620 2856 L
620 2945 L
620 2869 L
620 3067 L
620 2722 L
620 2938 L
620 2851 L
620 2887 L
620 3092 L
620 2737 L
620 3181 L
620 3250 L
620 3009 L
620 2833 L
620 2732 L
620 3148 L
620 3014 L
620 3135 L
620 2681 L
620 2940 L
620 3026 L
620 2935 L
620 3026 L
620 2877 L
620 3194 L
620 2912 L
620 3052 L
620 2963 L
620 3014 L
620 3021 L
620 2948 L
620 2971 L
620 3184 L
620 2778 L
620 2907 L
620 3064 L
620 3138 L
620 2801 L
620 3163 L
620 3001 L
620 3287 L
620 2704 L
620 3194 L
620 3059 L
620 2965 L
620 2846 L
620 2978 L
620 3004 L
620 3161 L
620 3138 L
620 2691 L
620 2788 L
620 2953 L
620 2828 L
620 3004 L
620 3168 L
620 2689 L
620 2783 L
620 2795 L
620 3100 L
620 2610 L
620 2889 L
620 2755 L
620 2922 L
620 2983 L
620 3072 L
620 3133 L
620 3029 L
620 2872 L
620 3080 L
620 3080 L
620 3069 L
620 3011 L
620 2915 L
620 2562 L
620 2836 L
620 3293 L
620 3181 L
620 2935 L
620 3044 L
620 3171 L
620 2608 L
620 3095 L
620 3067 L
620 2707 L
620 2998 L
620 2638 L
620 2917 L
620 3166 L
620 3237 L
620 2849 L
620 3305 L
620 2750 L
620 3003 L
620 2983 L
620 3277 L
620 2714 L
620 3201 L
620 3166 L
620 3006 L
620 2897 L
620 2953 L
620 2902 L
620 3280 L
620 2894 L
620 3034 L
620 3199 L
620 2943 L
620 3001 L
620 2935 L
620 3311 L
620 2932 L
620 2798 L
620 3194 L
620 3085 L
620 3148 L
620 2790 L
620 3118 L
620 3069 L
620 3229 L
620 3293 L
620 3168 L
620 2973 L
620 3097 L
620 2996 L
620 3102 L
620 3450 L
620 3047 L
620 3168 L
620 2922 L
620 3148 L
620 2958 L
620 3069 L
620 3059 L
620 3123 L
620 2851 L
620 2927 L
620 2732 L
620 3143 L
620 3440 L
620 2598 L
620 3283 L
620 2998 L
620 2914 L
620 3174 L
620 3237 L
620 2960 L
620 3303 L
620 3179 L
620 2915 L
620 3049 L
620 3021 L
620 3064 L
620 3272 L
620 3156 L
620 2991 L
620 3511 L
620 3003 L
620 3032 L
620 3204 L
620 3163 L
620 2760 L
620 3049 L
620 2676 L
620 2950 L
620 3100 L
620 3189 L
620 2922 L
620 3151 L
L2 C01 COSGR

%
%================
% Legend - Begin
%================
%
GSN 4240 5180 M
4480 5180 L
LWMC SL  C01 COSGR
GSN 4540 5141 M helvM (0.5 uM) show grestore
%
%================
% Legend - End
%================
%

%
% Main frame
%
L10
GSN 
620 1700 M
4220 1700 L
4220 5300 L
620 5300 L
closepath SGR

%
% X axis: large tics
%
L10
%
% X axis: small tics
%
L5
%
% Y axis: large tics
%
L10
GSN 620 2041 M 54 0 rL SGR
GSN 4220 2041 M -54 0 rL SGR
helvS (-0.02) 560 2041 ylabel
GSN 620 3039 M 54 0 rL SGR
GSN 4220 3039 M -54 0 rL SGR
helvS (0) 560 3039 ylabel
GSN 620 4036 M 54 0 rL SGR
GSN 4220 4036 M -54 0 rL SGR
helvS (0.02) 560 4036 ylabel
GSN 620 5034 M 54 0 rL SGR
GSN 4220 5034 M -54 0 rL SGR
helvS (0.04) 560 5034 ylabel
%
% Y axis: small tics
%
L5
GSN 620 1792 M 36 0 rL SGR
GSN 4220 1792 M -36 0 rL SGR
GSN 620 2041 M 36 0 rL SGR
GSN 4220 2041 M -36 0 rL SGR
GSN 620 2290 M 36 0 rL SGR
GSN 4220 2290 M -36 0 rL SGR
GSN 620 2540 M 36 0 rL SGR
GSN 4220 2540 M -36 0 rL SGR
GSN 620 2789 M 36 0 rL SGR
GSN 4220 2789 M -36 0 rL SGR
GSN 620 3039 M 36 0 rL SGR
GSN 4220 3039 M -36 0 rL SGR
GSN 620 3288 M 36 0 rL SGR
GSN 4220 3288 M -36 0 rL SGR
GSN 620 3537 M 36 0 rL SGR
GSN 4220 3537 M -36 0 rL SGR
GSN 620 3787 M 36 0 rL SGR
GSN 4220 3787 M -36 0 rL SGR
GSN 620 4036 M 36 0 rL SGR
GSN 4220 4036 M -36 0 rL SGR
GSN 620 4286 M 36 0 rL SGR
GSN 4220 4286 M -36 0 rL SGR
GSN 620 4535 M 36 0 rL SGR
GSN 4220 4535 M -36 0 rL SGR
GSN 620 4784 M 36 0 rL SGR
GSN 4220 4784 M -36 0 rL SGR
GSN 620 5034 M 36 0 rL SGR
GSN 4220 5034 M -36 0 rL SGR
GSN 620 5283 M 36 0 rL SGR
GSN 4220 5283 M -36 0 rL SGR

%
% X axis - residual panel
%
GSN L5 620 3039 M 4220 3039 L SDA G50 SGR

%
% X-Axis label:
%
gsave 620 1370 M 
[
[(Helvetica) 180 0 true true 0 (t)]
[(Helvetica) 180 0 true true 0 (i)]
[(Helvetica) 180 0 true true 0 (m)]
[(Helvetica) 180 0 true true 0 (e)]
] 0 MCshow grestore

%
% Y-Axis label:
%
gsave 234 3500 M 
currentpoint gsave translate 90 rotate 0 0 moveto
[
[(Helvetica) 180 0 true true 0 (r)]
[(Helvetica) 180 0 true true 0 (e)]
[(Helvetica) 180 0 true true 0 (s)]
[(Helvetica) 180 0 true true 0 (i)]
[(Helvetica) 180 0 true true 0 (d)]
[(Helvetica) 180 0 true true 0 (u)]
[(Helvetica) 180 0 true true 0 (a)]
[(Helvetica) 180 0 true true 0 (l)]
[(Helvetica) 180 0 true true 0 (s)]
] 0 MCshow grestore

end
showpage
%%Trailer
%%EOF
