%!PS-Adobe-3.0 EPSF-3.0
%%BoundingBox: 0 0 514 550
%%Creator: BioKin Ltd.
%%DocumentFonts: Symbol Helvetica
%%EndComments
%
/bkdict 256 dict def
bkdict begin
/M {moveto} def 
/R {rmoveto} def
/L {lineto} def
/rL {rlineto} def
/GSN {gsave newpath} def
/SGR {stroke grestore} def
/COSGR {gsave setrgbcolor stroke grestore grestore} def
/SL {setlinewidth} def
/LWMB {12} def             % line width - model curves, black & white
/LWMC {10} def             % line width - model curves, color
/L2 {2.5 setlinewidth} def
/L5 {5 setlinewidth} def
/L10 {10 setlinewidth} def
/G50 {0.5 setgray} def
/SDA {[10  20] 0 setdash} def % axes
/helvT {/Helvetica findfont 100 scalefont setfont} def % tiny
/helvS {/Helvetica findfont 125 scalefont setfont} def % small
/helvM {/Helvetica findfont 150 scalefont setfont} def % medium
/helvL {/Helvetica findfont 175 scalefont setfont} def % large
/xlabel {gsave M dup
   stringwidth exch -0.5 mul exch rmoveto show grestore} def 
/ylabel {gsave M 90 rotate dup
   stringwidth exch -0.5 mul exch rmoveto show grestore} def
/ylabelresid {gsave M dup
   stringwidth exch -1 mul exch rmoveto show grestore} def
% ======
% Shapes
% ======
% Circle:
/Circ {0 360 arc closepath} def
%
% Square:
/Squa {dup dup -0.5 mul dup dup R -2 mul 0 exch rL 1 mul 0 rL dup 0 exch -1 mul rL closepath} def
%
% Triangle Up:
/TriU {dup dup dup -0.4 mul exch -0.5 mul exch R dup 0.5 mul exch rL dup -1 mul exch 0.5 mul exch rL closepath} def 
%
% Triangle Down:
/TriD {dup dup dup 0.4 mul exch -0.5 mul exch R dup 0.5 mul exch -1 mul rL dup 0.5 mul exch rL closepath} def 
%
% Diamond:
/Diam {45 rotate Squa} def
% ======
% Fills
% ======
/GRF {gsave setgray fill grestore} def                    % gray-level Fill
/COF {gsave setrgbcolor fill grestore} def                % color fill
% ======
% Colors
% ======
/C01 {1.00	0.00	0.00} def      % Red
/C02 {0.00	0.00	1.00} def      % Blue
/C03 {0.00	0.39	0.00} def      % Dark Green
/C04 {0.78	0.08	0.52} def      % Medium Violet Red
/C05 {0.55	0.27	0.07} def      % Saddle Brown
/C06 {0.10	0.70	0.70} def      % (cyan)
/C07 {1.00	0.55	0.00} def      % Dark Orange
/C08 {0.63	0.13	0.94} def      % Purple
/C09 {0.00	0.75	1.00} def      % Deep Sky Blue
/C10 {0.20	0.80	0.20} def      % Lime Green
/C11 {0.47	0.53	0.60} def      % Light Slate Gray
/C12 {0.00	0.00	0.00} def      % Black            % or: {0.19	0.31	0.31} def      % Dark Slate Gray
%
/LGR {0.75} def % light gray
/DGR {0.33} def % dark gray
%
% =============
% Dash patterns
% =============
/dash01 { [80  20] 0 setdash } def
/dash02 { [40  20] 0 setdash } def
/dash03 { [80  20  10  20] 0 setdash } def
/dash04 { [40  20  10  20] 0 setdash } def
/dash05 { [80  20  10  10  10  20] 0 setdash } def
/dash06 { [40  20  10  10  10  20] 0 setdash } def
/dash07 { [10  10] 0 setdash } def
%
/MFshow {
   { dup 5 get 3 ge
     { 5 get 3 eq {gsave} {grestore} ifelse }
     {dup dup 0 get findfont exch 1 get scalefont setfont
     [ currentpoint ] exch dup 2 get 0 exch R dup 5 get 2 ne {dup dup 6
     get exch 4 get {show} {stringwidth pop 0 R} ifelse }if dup 5 get 0 eq
     {dup 3 get {2 get neg 0 exch R pop} {pop aload pop M} ifelse} {dup 5
     get 1 eq {dup 2 get exch dup 3 get exch 6 get stringwidth pop -2 div
     dup 0 R} {dup 6 get stringwidth pop -2 div 0 R 6 get
     show 2 index {aload pop M neg 3 -1 roll neg R pop pop} {pop pop pop
     pop aload pop M} ifelse }ifelse }ifelse }
     ifelse }
   forall} bind def
/MFwidth {0 exch {dup 3 get{dup dup 0 get findfont exch 1 get scalefont
     setfont 6 get stringwidth pop add} {pop} ifelse} forall} bind def
/MCshow { currentpoint stroke M
  exch dup MFwidth -2 div 3 -1 roll R MFshow } def
%
end
%%EndProlog
bkdict begin
0.1 0.1 scale
%
% Residuals:
%
GSN 620 4863 M
620 4540 L
620 4377 L
620 4553 L
620 4499 L
620 4328 L
620 4284 L
620 4245 L
620 4254 L
620 4202 L
620 4060 L
620 4174 L
620 3972 L
620 3973 L
620 4173 L
620 3962 L
620 3972 L
620 3818 L
620 3836 L
620 3828 L
620 3806 L
620 3704 L
620 3621 L
620 3648 L
620 3804 L
620 3640 L
620 3682 L
620 3602 L
620 3649 L
620 3625 L
620 3621 L
620 3535 L
620 3451 L
620 3360 L
620 3437 L
620 3421 L
620 3341 L
620 3445 L
620 3515 L
620 3436 L
620 3400 L
620 3296 L
620 3400 L
620 3201 L
620 3220 L
620 3263 L
620 3293 L
620 3239 L
620 3238 L
620 3226 L
620 3123 L
620 3133 L
620 3131 L
620 3058 L
620 2896 L
620 3201 L
620 3050 L
620 3069 L
620 3019 L
620 3182 L
620 3026 L
620 2947 L
620 3248 L
620 2909 L
620 3060 L
620 3021 L
620 2927 L
620 2967 L
620 2932 L
620 3060 L
620 2957 L
620 2817 L
620 3018 L
620 3118 L
620 2936 L
620 2907 L
620 2972 L
620 2788 L
620 2883 L
620 2897 L
620 2868 L
620 2731 L
620 2760 L
620 2897 L
620 2644 L
620 2679 L
620 2746 L
620 2693 L
620 2603 L
620 2538 L
620 2533 L
620 2554 L
620 2316 L
620 2511 L
620 2416 L
620 2626 L
620 2400 L
620 2475 L
620 2262 L
620 2353 L
620 2368 L
620 2287 L
620 2421 L
620 2308 L
620 2434 L
620 2444 L
620 2342 L
620 2251 L
620 2253 L
620 2426 L
620 2309 L
620 2272 L
620 2289 L
620 2370 L
620 2281 L
620 2321 L
620 2251 L
620 2361 L
620 2371 L
620 2331 L
620 2350 L
620 2360 L
620 2231 L
620 2472 L
620 2408 L
620 2136 L
620 2373 L
620 2333 L
620 2408 L
620 2314 L
620 2348 L
620 2257 L
620 2363 L
620 2368 L
620 2503 L
620 2213 L
620 2353 L
620 2430 L
620 2449 L
620 2430 L
620 2416 L
620 2273 L
620 2295 L
620 2395 L
620 2341 L
620 2393 L
620 2422 L
620 2400 L
620 2428 L
620 2444 L
620 2326 L
620 2445 L
620 2385 L
620 2330 L
620 2497 L
620 2514 L
620 2352 L
620 2368 L
620 2535 L
620 2500 L
620 2490 L
620 2492 L
620 2351 L
620 2491 L
620 2538 L
620 2509 L
620 2410 L
620 2427 L
620 2434 L
620 2520 L
620 2526 L
620 2526 L
620 2436 L
620 2607 L
620 2557 L
620 2377 L
620 2621 L
620 2441 L
620 2462 L
620 2520 L
620 2495 L
620 2596 L
620 2516 L
620 2596 L
620 2594 L
620 2560 L
620 2528 L
620 2595 L
620 2473 L
620 2556 L
620 2688 L
620 2451 L
620 2701 L
620 2529 L
620 2420 L
620 2555 L
620 2702 L
620 2430 L
620 2500 L
620 2629 L
620 2668 L
620 2543 L
620 2515 L
620 2532 L
620 2721 L
620 2604 L
620 2650 L
620 2691 L
620 2693 L
620 2684 L
620 2784 L
620 2670 L
620 2755 L
620 2683 L
620 2697 L
620 2512 L
620 2607 L
620 2736 L
620 2494 L
620 2631 L
620 2649 L
620 2619 L
620 2763 L
620 2653 L
620 2707 L
620 2686 L
620 2693 L
620 2663 L
620 2683 L
620 2795 L
620 2612 L
620 2682 L
620 2615 L
620 2615 L
620 2714 L
620 2622 L
620 2736 L
620 2686 L
620 2766 L
620 2742 L
620 2844 L
620 2825 L
620 2764 L
620 2781 L
620 2690 L
620 2716 L
620 2625 L
620 2783 L
620 2741 L
620 2661 L
620 2786 L
620 2753 L
620 2809 L
620 2650 L
620 2667 L
620 2946 L
620 2921 L
620 2674 L
620 2790 L
620 2868 L
620 2782 L
620 2773 L
620 2816 L
620 2770 L
620 2924 L
620 2680 L
620 2781 L
620 2803 L
620 2739 L
620 2816 L
620 2829 L
620 2832 L
620 2787 L
620 2875 L
620 2836 L
620 2734 L
620 2745 L
620 2869 L
620 2838 L
620 2855 L
620 2765 L
620 3003 L
620 2847 L
620 2898 L
620 3080 L
620 2959 L
620 3092 L
620 3092 L
620 3167 L
620 2962 L
620 3126 L
620 3089 L
620 3136 L
620 2993 L
620 3041 L
620 2953 L
620 3005 L
620 3203 L
620 3067 L
620 3138 L
620 3023 L
620 2953 L
620 2966 L
620 2900 L
620 3021 L
620 3072 L
620 3133 L
620 2962 L
620 3034 L
620 3279 L
620 2982 L
620 3059 L
620 2991 L
620 3203 L
620 2890 L
620 3123 L
620 3076 L
620 3185 L
620 3038 L
620 3028 L
620 3042 L
620 3004 L
620 3206 L
620 3135 L
620 2991 L
620 2941 L
620 2954 L
620 3011 L
620 3194 L
620 3000 L
620 3034 L
620 3024 L
620 3162 L
620 3102 L
620 2962 L
620 3095 L
620 3000 L
620 3075 L
620 2979 L
620 3069 L
620 3089 L
620 3048 L
620 2989 L
620 3190 L
620 2983 L
620 3170 L
620 3011 L
620 3033 L
620 3083 L
620 2772 L
620 2951 L
620 3019 L
620 3026 L
620 3106 L
620 3086 L
620 3093 L
620 2999 L
620 2896 L
620 3030 L
620 3016 L
620 3074 L
620 2949 L
620 2963 L
620 2853 L
620 3034 L
620 3000 L
620 2919 L
620 3002 L
620 2928 L
620 3107 L
620 2909 L
620 3201 L
620 3036 L
620 2852 L
620 3021 L
620 2944 L
620 2976 L
620 3160 L
620 2866 L
620 2875 L
620 3016 L
620 2961 L
620 2893 L
620 2960 L
620 3023 L
620 2976 L
620 2823 L
620 2938 L
620 2706 L
620 2850 L
620 2968 L
620 2973 L
620 2890 L
620 2788 L
620 3010 L
620 2861 L
620 2714 L
620 3083 L
620 2807 L
620 2793 L
620 3104 L
620 2881 L
620 2803 L
620 2934 L
620 2866 L
620 2827 L
620 3002 L
620 2983 L
620 2899 L
620 2858 L
620 2887 L
620 2786 L
620 2790 L
620 2872 L
620 2823 L
620 2890 L
620 2910 L
620 2789 L
620 2832 L
620 2942 L
620 2688 L
620 3071 L
620 2857 L
620 3012 L
620 2977 L
620 2802 L
620 2867 L
620 2820 L
620 2902 L
620 2887 L
620 2755 L
620 2744 L
620 2969 L
620 2762 L
620 2858 L
620 2912 L
620 2798 L
620 2812 L
620 2830 L
620 2808 L
620 2766 L
620 2764 L
620 2896 L
620 2799 L
620 2853 L
620 2671 L
620 2841 L
620 2837 L
620 2754 L
620 2793 L
620 2808 L
620 2924 L
620 2906 L
620 2828 L
620 2761 L
620 2710 L
620 2860 L
620 2893 L
620 2795 L
620 2756 L
620 2770 L
620 3002 L
620 2901 L
620 2800 L
620 2706 L
620 2689 L
620 2888 L
620 2869 L
620 2869 L
620 2905 L
620 2858 L
620 2784 L
620 2725 L
620 2812 L
620 2719 L
620 2740 L
620 2859 L
620 2927 L
620 2763 L
620 2745 L
620 2781 L
620 2934 L
620 2767 L
620 2754 L
620 2919 L
620 2931 L
620 2811 L
620 2949 L
620 2580 L
620 2601 L
620 2910 L
620 2828 L
620 2654 L
620 2841 L
620 2807 L
620 2984 L
620 2834 L
620 2963 L
620 2684 L
620 2960 L
620 2816 L
620 2839 L
620 2827 L
620 2812 L
620 2744 L
620 2783 L
620 2777 L
620 2783 L
620 2816 L
620 2720 L
620 2592 L
620 2882 L
620 2723 L
620 2677 L
620 2748 L
620 2778 L
620 2844 L
620 2859 L
620 2642 L
620 2848 L
620 2831 L
620 2722 L
620 2834 L
620 2689 L
620 2706 L
620 2875 L
620 2777 L
620 2792 L
620 2657 L
620 2814 L
620 2552 L
620 2728 L
620 2816 L
L2 C05 COSGR

%
%================
% Legend - Begin
%================
%
GSN 4240 5180 M
4480 5180 L
LWMC SL  C05 COSGR
GSN 4540 5141 M helvM (2.5 uM) show grestore
%
%================
% Legend - End
%================
%

%
% Main frame
%
L10
GSN 
620 1700 M
4220 1700 L
4220 5300 L
620 5300 L
closepath SGR

%
% X axis: large tics
%
L10
%
% X axis: small tics
%
L5
%
% Y axis: large tics
%
L10
GSN 620 2027 M 54 0 rL SGR
GSN 4220 2027 M -54 0 rL SGR
helvS (-0.025) 560 2027 ylabel
GSN 620 2864 M 54 0 rL SGR
GSN 4220 2864 M -54 0 rL SGR
helvS (0) 560 2864 ylabel
GSN 620 3701 M 54 0 rL SGR
GSN 4220 3701 M -54 0 rL SGR
helvS (0.025) 560 3701 ylabel
GSN 620 4538 M 54 0 rL SGR
GSN 4220 4538 M -54 0 rL SGR
helvS (0.05) 560 4538 ylabel
%
% Y axis: small tics
%
L5
GSN 620 1859 M 36 0 rL SGR
GSN 4220 1859 M -36 0 rL SGR
GSN 620 2278 M 36 0 rL SGR
GSN 4220 2278 M -36 0 rL SGR
GSN 620 2697 M 36 0 rL SGR
GSN 4220 2697 M -36 0 rL SGR
GSN 620 3115 M 36 0 rL SGR
GSN 4220 3115 M -36 0 rL SGR
GSN 620 3534 M 36 0 rL SGR
GSN 4220 3534 M -36 0 rL SGR
GSN 620 3952 M 36 0 rL SGR
GSN 4220 3952 M -36 0 rL SGR
GSN 620 4371 M 36 0 rL SGR
GSN 4220 4371 M -36 0 rL SGR
GSN 620 4789 M 36 0 rL SGR
GSN 4220 4789 M -36 0 rL SGR
GSN 620 5208 M 36 0 rL SGR
GSN 4220 5208 M -36 0 rL SGR

%
% X axis - residual panel
%
GSN L5 620 2864 M 4220 2864 L SDA G50 SGR

%
% X-Axis label:
%
gsave 620 1370 M 
[
[(Helvetica) 180 0 true true 0 (t)]
[(Helvetica) 180 0 true true 0 (i)]
[(Helvetica) 180 0 true true 0 (m)]
[(Helvetica) 180 0 true true 0 (e)]
] 0 MCshow grestore

%
% Y-Axis label:
%
gsave 234 3499 M 
currentpoint gsave translate 90 rotate 0 0 moveto
[
[(Helvetica) 180 0 true true 0 (r)]
[(Helvetica) 180 0 true true 0 (e)]
[(Helvetica) 180 0 true true 0 (s)]
[(Helvetica) 180 0 true true 0 (i)]
[(Helvetica) 180 0 true true 0 (d)]
[(Helvetica) 180 0 true true 0 (u)]
[(Helvetica) 180 0 true true 0 (a)]
[(Helvetica) 180 0 true true 0 (l)]
[(Helvetica) 180 0 true true 0 (s)]
] 0 MCshow grestore

end
showpage
%%Trailer
%%EOF
