%!PS-Adobe-3.0 EPSF-3.0
%%BoundingBox: 0 0 514 550
%%Creator: BioKin Ltd.
%%DocumentFonts: Symbol Helvetica
%%EndComments
%
/bkdict 256 dict def
bkdict begin
/M {moveto} def 
/R {rmoveto} def
/L {lineto} def
/rL {rlineto} def
/GSN {gsave newpath} def
/SGR {stroke grestore} def
/COSGR {gsave setrgbcolor stroke grestore grestore} def
/SL {setlinewidth} def
/LWMB {12} def             % line width - model curves, black & white
/LWMC {10} def             % line width - model curves, color
/L2 {2.5 setlinewidth} def
/L5 {5 setlinewidth} def
/L10 {10 setlinewidth} def
/G50 {0.5 setgray} def
/SDA {[10  20] 0 setdash} def % axes
/helvT {/Helvetica findfont 100 scalefont setfont} def % tiny
/helvS {/Helvetica findfont 125 scalefont setfont} def % small
/helvM {/Helvetica findfont 150 scalefont setfont} def % medium
/helvL {/Helvetica findfont 175 scalefont setfont} def % large
/xlabel {gsave M dup
   stringwidth exch -0.5 mul exch rmoveto show grestore} def 
/ylabel {gsave M 90 rotate dup
   stringwidth exch -0.5 mul exch rmoveto show grestore} def
/ylabelresid {gsave M dup
   stringwidth exch -1 mul exch rmoveto show grestore} def
% ======
% Shapes
% ======
% Circle:
/Circ {0 360 arc closepath} def
%
% Square:
/Squa {dup dup -0.5 mul dup dup R -2 mul 0 exch rL 1 mul 0 rL dup 0 exch -1 mul rL closepath} def
%
% Triangle Up:
/TriU {dup dup dup -0.4 mul exch -0.5 mul exch R dup 0.5 mul exch rL dup -1 mul exch 0.5 mul exch rL closepath} def 
%
% Triangle Down:
/TriD {dup dup dup 0.4 mul exch -0.5 mul exch R dup 0.5 mul exch -1 mul rL dup 0.5 mul exch rL closepath} def 
%
% Diamond:
/Diam {45 rotate Squa} def
% ======
% Fills
% ======
/GRF {gsave setgray fill grestore} def                    % gray-level Fill
/COF {gsave setrgbcolor fill grestore} def                % color fill
% ======
% Colors
% ======
/C01 {1.00	0.00	0.00} def      % Red
/C02 {0.00	0.00	1.00} def      % Blue
/C03 {0.00	0.39	0.00} def      % Dark Green
/C04 {0.78	0.08	0.52} def      % Medium Violet Red
/C05 {0.55	0.27	0.07} def      % Saddle Brown
/C06 {0.10	0.70	0.70} def      % (cyan)
/C07 {1.00	0.55	0.00} def      % Dark Orange
/C08 {0.63	0.13	0.94} def      % Purple
/C09 {0.00	0.75	1.00} def      % Deep Sky Blue
/C10 {0.20	0.80	0.20} def      % Lime Green
/C11 {0.47	0.53	0.60} def      % Light Slate Gray
/C12 {0.00	0.00	0.00} def      % Black            % or: {0.19	0.31	0.31} def      % Dark Slate Gray
%
/LGR {0.75} def % light gray
/DGR {0.33} def % dark gray
%
% =============
% Dash patterns
% =============
/dash01 { [80  20] 0 setdash } def
/dash02 { [40  20] 0 setdash } def
/dash03 { [80  20  10  20] 0 setdash } def
/dash04 { [40  20  10  20] 0 setdash } def
/dash05 { [80  20  10  10  10  20] 0 setdash } def
/dash06 { [40  20  10  10  10  20] 0 setdash } def
/dash07 { [10  10] 0 setdash } def
%
/MFshow {
   { dup 5 get 3 ge
     { 5 get 3 eq {gsave} {grestore} ifelse }
     {dup dup 0 get findfont exch 1 get scalefont setfont
     [ currentpoint ] exch dup 2 get 0 exch R dup 5 get 2 ne {dup dup 6
     get exch 4 get {show} {stringwidth pop 0 R} ifelse }if dup 5 get 0 eq
     {dup 3 get {2 get neg 0 exch R pop} {pop aload pop M} ifelse} {dup 5
     get 1 eq {dup 2 get exch dup 3 get exch 6 get stringwidth pop -2 div
     dup 0 R} {dup 6 get stringwidth pop -2 div 0 R 6 get
     show 2 index {aload pop M neg 3 -1 roll neg R pop pop} {pop pop pop
     pop aload pop M} ifelse }ifelse }ifelse }
     ifelse }
   forall} bind def
/MFwidth {0 exch {dup 3 get{dup dup 0 get findfont exch 1 get scalefont
     setfont 6 get stringwidth pop add} {pop} ifelse} forall} bind def
/MCshow { currentpoint stroke M
  exch dup MFwidth -2 div 3 -1 roll R MFshow } def
%
end
%%EndProlog
bkdict begin
0.1 0.1 scale
%
% Residuals:
%
GSN 620 4102 M
620 3473 L
620 3217 L
620 3765 L
620 3762 L
620 3476 L
620 3488 L
620 3509 L
620 3639 L
620 3623 L
620 3387 L
620 3760 L
620 3375 L
620 3472 L
620 4042 L
620 3628 L
620 3737 L
620 3454 L
620 3577 L
620 3636 L
620 3660 L
620 3491 L
620 3364 L
620 3498 L
620 3937 L
620 3612 L
620 3777 L
620 3647 L
620 3818 L
620 3818 L
620 3865 L
620 3714 L
620 3567 L
620 3402 L
620 3635 L
620 3644 L
620 3501 L
620 3794 L
620 4004 L
620 3859 L
620 3814 L
620 3607 L
620 3894 L
620 3456 L
620 3537 L
620 3676 L
620 3781 L
620 3687 L
620 3718 L
620 3719 L
620 3506 L
620 3557 L
620 3582 L
620 3435 L
620 3075 L
620 3829 L
620 3495 L
620 3566 L
620 3470 L
620 3882 L
620 3533 L
620 3366 L
620 4103 L
620 3317 L
620 3696 L
620 3622 L
620 3418 L
620 3531 L
620 3464 L
620 3787 L
620 3559 L
620 3240 L
620 3735 L
620 3988 L
620 3569 L
620 3515 L
620 3684 L
620 3259 L
620 3498 L
620 3543 L
620 3487 L
620 3205 L
620 3314 L
620 3676 L
620 3105 L
620 3218 L
620 3401 L
620 3297 L
620 3102 L
620 2963 L
620 2967 L
620 3030 L
620 2475 L
620 2950 L
620 2733 L
620 3243 L
620 2709 L
620 2895 L
620 2393 L
620 2616 L
620 2657 L
620 2466 L
620 2791 L
620 2522 L
620 2826 L
620 2854 L
620 2613 L
620 2398 L
620 2404 L
620 2818 L
620 2540 L
620 2452 L
620 2495 L
620 2689 L
620 2478 L
620 2574 L
620 2408 L
620 2669 L
620 2694 L
620 2598 L
620 2645 L
620 2668 L
620 2363 L
620 2935 L
620 2783 L
620 2136 L
620 2701 L
620 2605 L
620 2785 L
620 2560 L
620 2642 L
620 2427 L
620 2679 L
620 2691 L
620 3011 L
620 2321 L
620 2653 L
620 2839 L
620 2882 L
620 2837 L
620 2806 L
620 2465 L
620 2516 L
620 2756 L
620 2626 L
620 2751 L
620 2819 L
620 2766 L
620 2833 L
620 2872 L
620 2592 L
620 2874 L
620 2732 L
620 2599 L
620 2997 L
620 3040 L
620 2654 L
620 2692 L
620 3090 L
620 3005 L
620 2983 L
620 2986 L
620 2650 L
620 2985 L
620 3096 L
620 3028 L
620 2790 L
620 2830 L
620 2847 L
620 3052 L
620 3068 L
620 3067 L
620 2854 L
620 3260 L
620 3142 L
620 2711 L
620 3294 L
620 2865 L
620 2916 L
620 3052 L
620 2994 L
620 3234 L
620 3044 L
620 3234 L
620 3230 L
620 3148 L
620 3073 L
620 3231 L
620 2940 L
620 3140 L
620 3453 L
620 2889 L
620 3486 L
620 3074 L
620 2815 L
620 3137 L
620 3488 L
620 2838 L
620 3006 L
620 3314 L
620 3405 L
620 3108 L
620 3042 L
620 3081 L
620 3532 L
620 3254 L
620 3363 L
620 3461 L
620 3465 L
620 3444 L
620 3683 L
620 3411 L
620 3612 L
620 3442 L
620 3476 L
620 3034 L
620 3260 L
620 3568 L
620 2991 L
620 3318 L
620 3361 L
620 3290 L
620 3632 L
620 3370 L
620 3498 L
620 3449 L
620 3465 L
620 3393 L
620 3442 L
620 3710 L
620 3272 L
620 3438 L
620 3279 L
620 3280 L
620 3515 L
620 3296 L
620 3568 L
620 3448 L
620 3640 L
620 3582 L
620 3825 L
620 3780 L
620 3635 L
620 3676 L
620 3458 L
620 3520 L
620 3303 L
620 3679 L
620 3579 L
620 3388 L
620 3687 L
620 3609 L
620 3743 L
620 3363 L
620 3404 L
620 4069 L
620 4009 L
620 3421 L
620 3697 L
620 3883 L
620 3678 L
620 3656 L
620 3758 L
620 3650 L
620 4015 L
620 3434 L
620 3676 L
620 3727 L
620 3576 L
620 3760 L
620 3790 L
620 3797 L
620 3690 L
620 3900 L
620 3806 L
620 3564 L
620 3590 L
620 3885 L
620 3812 L
620 3851 L
620 3638 L
620 4204 L
620 3833 L
620 3954 L
620 4387 L
620 4099 L
620 4417 L
620 4416 L
620 4595 L
620 4107 L
620 4498 L
620 4410 L
620 4522 L
620 4181 L
620 4294 L
620 4085 L
620 4209 L
620 4680 L
620 4358 L
620 4525 L
620 4251 L
620 4085 L
620 4117 L
620 3959 L
620 4248 L
620 4368 L
620 4515 L
620 4107 L
620 4277 L
620 4863 L
620 4155 L
620 4338 L
620 4177 L
620 4682 L
620 3935 L
620 4490 L
620 4378 L
620 4638 L
620 4288 L
620 4265 L
620 4298 L
620 4206 L
620 4688 L
620 4519 L
620 4175 L
620 4056 L
620 4088 L
620 4224 L
620 4661 L
620 4196 L
620 4277 L
620 4254 L
620 4583 L
620 4440 L
620 4107 L
620 4423 L
620 4196 L
620 4376 L
620 4146 L
620 4362 L
620 4410 L
620 4312 L
620 4171 L
620 4650 L
620 4157 L
620 4603 L
620 4222 L
620 4276 L
620 4396 L
620 3655 L
620 4079 L
620 4242 L
620 4259 L
620 4449 L
620 4402 L
620 4419 L
620 4195 L
620 3950 L
620 4270 L
620 4236 L
620 4375 L
620 4075 L
620 4108 L
620 3848 L
620 4277 L
620 4196 L
620 4005 L
620 4201 L
620 4026 L
620 4452 L
620 3980 L
620 4676 L
620 4283 L
620 3845 L
620 4248 L
620 4064 L
620 4140 L
620 4578 L
620 3877 L
620 3898 L
620 4234 L
620 4105 L
620 3942 L
620 4102 L
620 4253 L
620 4140 L
620 3775 L
620 4050 L
620 3496 L
620 3839 L
620 4122 L
620 4132 L
620 3936 L
620 3693 L
620 4221 L
620 3866 L
620 3514 L
620 4396 L
620 3738 L
620 3705 L
620 4445 L
620 3913 L
620 3728 L
620 4040 L
620 3877 L
620 3784 L
620 4203 L
620 4157 L
620 3956 L
620 3858 L
620 3929 L
620 3688 L
620 3697 L
620 3892 L
620 3775 L
620 3936 L
620 3982 L
620 3694 L
620 3796 L
620 4058 L
620 3454 L
620 4365 L
620 3855 L
620 4225 L
620 4142 L
620 3726 L
620 3881 L
620 3769 L
620 3964 L
620 3927 L
620 3613 L
620 3586 L
620 4123 L
620 3630 L
620 3859 L
620 3988 L
620 3715 L
620 3749 L
620 3793 L
620 3740 L
620 3639 L
620 3635 L
620 3950 L
620 3717 L
620 3846 L
620 3414 L
620 3817 L
620 3810 L
620 3610 L
620 3703 L
620 3740 L
620 4017 L
620 3973 L
620 3787 L
620 3627 L
620 3507 L
620 3863 L
620 3942 L
620 3709 L
620 3615 L
620 3648 L
620 4201 L
620 3962 L
620 3721 L
620 3496 L
620 3457 L
620 3930 L
620 3884 L
620 3884 L
620 3971 L
620 3859 L
620 3683 L
620 3542 L
620 3749 L
620 3528 L
620 3578 L
620 3862 L
620 4023 L
620 3632 L
620 3589 L
620 3674 L
620 4040 L
620 3641 L
620 3610 L
620 4003 L
620 4032 L
620 3747 L
620 4076 L
620 3196 L
620 3247 L
620 3982 L
620 3787 L
620 3371 L
620 3819 L
620 3737 L
620 4158 L
620 3801 L
620 4110 L
620 3443 L
620 4102 L
620 3760 L
620 3814 L
620 3785 L
620 3749 L
620 3586 L
620 3680 L
620 3665 L
620 3679 L
620 3758 L
620 3530 L
620 3224 L
620 3916 L
620 3536 L
620 3426 L
620 3597 L
620 3668 L
620 3825 L
620 3862 L
620 3344 L
620 3836 L
620 3795 L
620 3534 L
620 3802 L
620 3457 L
620 3496 L
620 3900 L
620 3667 L
620 3700 L
620 3379 L
620 3755 L
620 3129 L
620 3548 L
620 3760 L
L2 C05 COSGR

%
%================
% Legend - Begin
%================
%
GSN 4240 5180 M
4480 5180 L
LWMC SL  C05 COSGR
GSN 4540 5141 M helvM (2.5 uM) show grestore
%
%================
% Legend - End
%================
%

%
% Main frame
%
L10
GSN 
620 1700 M
4220 1700 L
4220 5300 L
620 5300 L
closepath SGR

%
% X axis: large tics
%
L10
%
% X axis: small tics
%
L5
%
% Y axis: large tics
%
L10
GSN 620 2012 M 54 0 rL SGR
GSN 4220 2012 M -54 0 rL SGR
helvS (-0.02) 560 2012 ylabel
GSN 620 2810 M 54 0 rL SGR
GSN 4220 2810 M -54 0 rL SGR
helvS (-0.01) 560 2810 ylabel
GSN 620 3608 M 54 0 rL SGR
GSN 4220 3608 M -54 0 rL SGR
helvS (0) 560 3608 ylabel
GSN 620 4406 M 54 0 rL SGR
GSN 4220 4406 M -54 0 rL SGR
helvS (0.01) 560 4406 ylabel
GSN 620 5204 M 54 0 rL SGR
GSN 4220 5204 M -54 0 rL SGR
helvS (0.02) 560 5204 ylabel
%
% Y axis: small tics
%
L5
GSN 620 1813 M 36 0 rL SGR
GSN 4220 1813 M -36 0 rL SGR
GSN 620 2012 M 36 0 rL SGR
GSN 4220 2012 M -36 0 rL SGR
GSN 620 2212 M 36 0 rL SGR
GSN 4220 2212 M -36 0 rL SGR
GSN 620 2411 M 36 0 rL SGR
GSN 4220 2411 M -36 0 rL SGR
GSN 620 2611 M 36 0 rL SGR
GSN 4220 2611 M -36 0 rL SGR
GSN 620 2810 M 36 0 rL SGR
GSN 4220 2810 M -36 0 rL SGR
GSN 620 3010 M 36 0 rL SGR
GSN 4220 3010 M -36 0 rL SGR
GSN 620 3209 M 36 0 rL SGR
GSN 4220 3209 M -36 0 rL SGR
GSN 620 3409 M 36 0 rL SGR
GSN 4220 3409 M -36 0 rL SGR
GSN 620 3608 M 36 0 rL SGR
GSN 4220 3608 M -36 0 rL SGR
GSN 620 3808 M 36 0 rL SGR
GSN 4220 3808 M -36 0 rL SGR
GSN 620 4007 M 36 0 rL SGR
GSN 4220 4007 M -36 0 rL SGR
GSN 620 4207 M 36 0 rL SGR
GSN 4220 4207 M -36 0 rL SGR
GSN 620 4406 M 36 0 rL SGR
GSN 4220 4406 M -36 0 rL SGR
GSN 620 4606 M 36 0 rL SGR
GSN 4220 4606 M -36 0 rL SGR
GSN 620 4805 M 36 0 rL SGR
GSN 4220 4805 M -36 0 rL SGR
GSN 620 5005 M 36 0 rL SGR
GSN 4220 5005 M -36 0 rL SGR
GSN 620 5204 M 36 0 rL SGR
GSN 4220 5204 M -36 0 rL SGR

%
% X axis - residual panel
%
GSN L5 620 3608 M 4220 3608 L SDA G50 SGR

%
% X-Axis label:
%
gsave 620 1370 M 
[
[(Helvetica) 180 0 true true 0 (t)]
[(Helvetica) 180 0 true true 0 (i)]
[(Helvetica) 180 0 true true 0 (m)]
[(Helvetica) 180 0 true true 0 (e)]
] 0 MCshow grestore

%
% Y-Axis label:
%
gsave 234 3499 M 
currentpoint gsave translate 90 rotate 0 0 moveto
[
[(Helvetica) 180 0 true true 0 (r)]
[(Helvetica) 180 0 true true 0 (e)]
[(Helvetica) 180 0 true true 0 (s)]
[(Helvetica) 180 0 true true 0 (i)]
[(Helvetica) 180 0 true true 0 (d)]
[(Helvetica) 180 0 true true 0 (u)]
[(Helvetica) 180 0 true true 0 (a)]
[(Helvetica) 180 0 true true 0 (l)]
[(Helvetica) 180 0 true true 0 (s)]
] 0 MCshow grestore

end
showpage
%%Trailer
%%EOF
