%!PS-Adobe-3.0 EPSF-3.0
%%BoundingBox: 0 0 514 550
%%Creator: BioKin Ltd.
%%DocumentFonts: Symbol Helvetica
%%EndComments
%
/bkdict 256 dict def
bkdict begin
/M {moveto} def 
/R {rmoveto} def
/L {lineto} def
/rL {rlineto} def
/GSN {gsave newpath} def
/SGR {stroke grestore} def
/COSGR {gsave setrgbcolor stroke grestore grestore} def
/SL {setlinewidth} def
/LWMB {12} def             % line width - model curves, black & white
/LWMC {10} def             % line width - model curves, color
/L2 {2.5 setlinewidth} def
/L5 {5 setlinewidth} def
/L10 {10 setlinewidth} def
/G50 {0.5 setgray} def
/SDA {[10  20] 0 setdash} def % axes
/helvT {/Helvetica findfont 100 scalefont setfont} def % tiny
/helvS {/Helvetica findfont 125 scalefont setfont} def % small
/helvM {/Helvetica findfont 150 scalefont setfont} def % medium
/helvL {/Helvetica findfont 175 scalefont setfont} def % large
/xlabel {gsave M dup
   stringwidth exch -0.5 mul exch rmoveto show grestore} def 
/ylabel {gsave M 90 rotate dup
   stringwidth exch -0.5 mul exch rmoveto show grestore} def
/ylabelresid {gsave M dup
   stringwidth exch -1 mul exch rmoveto show grestore} def
% ======
% Shapes
% ======
% Circle:
/Circ {0 360 arc closepath} def
%
% Square:
/Squa {dup dup -0.5 mul dup dup R -2 mul 0 exch rL 1 mul 0 rL dup 0 exch -1 mul rL closepath} def
%
% Triangle Up:
/TriU {dup dup dup -0.4 mul exch -0.5 mul exch R dup 0.5 mul exch rL dup -1 mul exch 0.5 mul exch rL closepath} def 
%
% Triangle Down:
/TriD {dup dup dup 0.4 mul exch -0.5 mul exch R dup 0.5 mul exch -1 mul rL dup 0.5 mul exch rL closepath} def 
%
% Diamond:
/Diam {45 rotate Squa} def
% ======
% Fills
% ======
/GRF {gsave setgray fill grestore} def                    % gray-level Fill
/COF {gsave setrgbcolor fill grestore} def                % color fill
% ======
% Colors
% ======
/C01 {1.00	0.00	0.00} def      % Red
/C02 {0.00	0.00	1.00} def      % Blue
/C03 {0.00	0.39	0.00} def      % Dark Green
/C04 {0.78	0.08	0.52} def      % Medium Violet Red
/C05 {0.55	0.27	0.07} def      % Saddle Brown
/C06 {0.10	0.70	0.70} def      % (cyan)
/C07 {1.00	0.55	0.00} def      % Dark Orange
/C08 {0.63	0.13	0.94} def      % Purple
/C09 {0.00	0.75	1.00} def      % Deep Sky Blue
/C10 {0.20	0.80	0.20} def      % Lime Green
/C11 {0.47	0.53	0.60} def      % Light Slate Gray
/C12 {0.00	0.00	0.00} def      % Black            % or: {0.19	0.31	0.31} def      % Dark Slate Gray
%
/LGR {0.75} def % light gray
/DGR {0.33} def % dark gray
%
% =============
% Dash patterns
% =============
/dash01 { [80  20] 0 setdash } def
/dash02 { [40  20] 0 setdash } def
/dash03 { [80  20  10  20] 0 setdash } def
/dash04 { [40  20  10  20] 0 setdash } def
/dash05 { [80  20  10  10  10  20] 0 setdash } def
/dash06 { [40  20  10  10  10  20] 0 setdash } def
/dash07 { [10  10] 0 setdash } def
%
/MFshow {
   { dup 5 get 3 ge
     { 5 get 3 eq {gsave} {grestore} ifelse }
     {dup dup 0 get findfont exch 1 get scalefont setfont
     [ currentpoint ] exch dup 2 get 0 exch R dup 5 get 2 ne {dup dup 6
     get exch 4 get {show} {stringwidth pop 0 R} ifelse }if dup 5 get 0 eq
     {dup 3 get {2 get neg 0 exch R pop} {pop aload pop M} ifelse} {dup 5
     get 1 eq {dup 2 get exch dup 3 get exch 6 get stringwidth pop -2 div
     dup 0 R} {dup 6 get stringwidth pop -2 div 0 R 6 get
     show 2 index {aload pop M neg 3 -1 roll neg R pop pop} {pop pop pop
     pop aload pop M} ifelse }ifelse }ifelse }
     ifelse }
   forall} bind def
/MFwidth {0 exch {dup 3 get{dup dup 0 get findfont exch 1 get scalefont
     setfont 6 get stringwidth pop add} {pop} ifelse} forall} bind def
/MCshow { currentpoint stroke M
  exch dup MFwidth -2 div 3 -1 roll R MFshow } def
%
end
%%EndProlog
bkdict begin
0.1 0.1 scale
%
% Residuals:
%
GSN 620 2885 M
620 2614 L
620 2942 L
620 3878 L
620 3891 L
620 3564 L
620 3565 L
620 3425 L
620 3494 L
620 3552 L
620 3455 L
620 3864 L
620 3439 L
620 3822 L
620 3876 L
620 3656 L
620 3632 L
620 3770 L
620 3622 L
620 3869 L
620 3736 L
620 3772 L
620 3978 L
620 4115 L
620 3538 L
620 3909 L
620 4392 L
620 3942 L
620 4044 L
620 3976 L
620 3906 L
620 3926 L
620 3673 L
620 4194 L
620 4062 L
620 3999 L
620 3725 L
620 4208 L
620 4173 L
620 3795 L
620 3876 L
620 3908 L
620 3999 L
620 3613 L
620 3518 L
620 4141 L
620 3796 L
620 3570 L
620 3684 L
620 3992 L
620 3313 L
620 3452 L
620 3782 L
620 3918 L
620 3547 L
620 3928 L
620 3916 L
620 3781 L
620 3431 L
620 3957 L
620 4222 L
620 3941 L
620 3422 L
620 3196 L
620 3716 L
620 3520 L
620 3512 L
620 3625 L
620 3743 L
620 3247 L
620 4112 L
620 3583 L
620 3497 L
620 3465 L
620 3766 L
620 3195 L
620 4061 L
620 3769 L
620 3960 L
620 3412 L
620 3625 L
620 3454 L
620 3439 L
620 3284 L
620 3189 L
620 3197 L
620 3259 L
620 3573 L
620 3006 L
620 3076 L
620 3536 L
620 3154 L
620 3223 L
620 3100 L
620 3068 L
620 3172 L
620 2505 L
620 3096 L
620 2939 L
620 2837 L
620 2965 L
620 2864 L
620 2376 L
620 2609 L
620 3174 L
620 2582 L
620 2858 L
620 3172 L
620 2663 L
620 2732 L
620 2383 L
620 2263 L
620 2486 L
620 2387 L
620 2484 L
620 2429 L
620 2575 L
620 2449 L
620 2439 L
620 2700 L
620 2241 L
620 2433 L
620 2494 L
620 2447 L
620 2209 L
620 2368 L
620 2823 L
620 2477 L
620 2573 L
620 2230 L
620 2637 L
620 2595 L
620 2332 L
620 2155 L
620 3189 L
620 2602 L
620 2310 L
620 2136 L
620 2578 L
620 2793 L
620 2334 L
620 2449 L
620 3031 L
620 2600 L
620 2689 L
620 2808 L
620 2540 L
620 2857 L
620 2350 L
620 2518 L
620 2856 L
620 2718 L
620 2796 L
620 2517 L
620 2882 L
620 3168 L
620 2615 L
620 3035 L
620 2519 L
620 2612 L
620 2914 L
620 2447 L
620 3005 L
620 3105 L
620 2830 L
620 2841 L
620 2668 L
620 3042 L
620 2886 L
620 2329 L
620 2689 L
620 3180 L
620 2932 L
620 2588 L
620 2609 L
620 2999 L
620 3082 L
620 2536 L
620 3004 L
620 2646 L
620 2834 L
620 2855 L
620 2451 L
620 3280 L
620 2863 L
620 2896 L
620 3581 L
620 3185 L
620 3286 L
620 3298 L
620 3279 L
620 2914 L
620 2993 L
620 3052 L
620 2356 L
620 2812 L
620 3234 L
620 3264 L
620 2817 L
620 2851 L
620 3281 L
620 3039 L
620 3165 L
620 3430 L
620 2972 L
620 3203 L
620 3029 L
620 3127 L
620 3034 L
620 3382 L
620 3482 L
620 3456 L
620 3081 L
620 3221 L
620 2952 L
620 3483 L
620 3026 L
620 3250 L
620 3579 L
620 3259 L
620 3378 L
620 3449 L
620 3215 L
620 3092 L
620 3240 L
620 3598 L
620 3511 L
620 3376 L
620 3607 L
620 3348 L
620 3035 L
620 3362 L
620 3149 L
620 3467 L
620 3311 L
620 3465 L
620 3519 L
620 3708 L
620 3360 L
620 3445 L
620 3627 L
620 3277 L
620 3621 L
620 3442 L
620 3469 L
620 3142 L
620 2978 L
620 3861 L
620 3764 L
620 3708 L
620 3626 L
620 3276 L
620 3794 L
620 3262 L
620 3643 L
620 3732 L
620 3837 L
620 3947 L
620 3687 L
620 3575 L
620 3593 L
620 3362 L
620 3696 L
620 3677 L
620 3822 L
620 3714 L
620 3938 L
620 3347 L
620 3875 L
620 3367 L
620 3965 L
620 3283 L
620 3419 L
620 3273 L
620 3890 L
620 3394 L
620 3828 L
620 3238 L
620 3749 L
620 4020 L
620 3716 L
620 4194 L
620 4194 L
620 4352 L
620 4022 L
620 3954 L
620 4500 L
620 4419 L
620 3697 L
620 4177 L
620 4262 L
620 4194 L
620 4444 L
620 4695 L
620 4383 L
620 4422 L
620 4439 L
620 4505 L
620 4485 L
620 4579 L
620 4450 L
620 4016 L
620 4070 L
620 4157 L
620 4214 L
620 4727 L
620 4328 L
620 4620 L
620 4444 L
620 4797 L
620 4682 L
620 4430 L
620 4767 L
620 4319 L
620 4801 L
620 4312 L
620 4815 L
620 4370 L
620 4656 L
620 4673 L
620 4300 L
620 4365 L
620 4417 L
620 4378 L
620 4588 L
620 4184 L
620 4769 L
620 4280 L
620 3965 L
620 4492 L
620 3788 L
620 4317 L
620 4192 L
620 4297 L
620 3922 L
620 4863 L
620 3812 L
620 4217 L
620 4326 L
620 4492 L
620 4096 L
620 4273 L
620 4393 L
620 4402 L
620 4457 L
620 4409 L
620 4319 L
620 4212 L
620 3753 L
620 3666 L
620 4437 L
620 4393 L
620 4177 L
620 3918 L
620 4109 L
620 4341 L
620 4282 L
620 4286 L
620 4208 L
620 4330 L
620 4171 L
620 4350 L
620 3996 L
620 3620 L
620 3996 L
620 4059 L
620 4319 L
620 4048 L
620 3982 L
620 4323 L
620 4723 L
620 3895 L
620 4086 L
620 4168 L
620 4232 L
620 3968 L
620 3790 L
620 3692 L
620 3888 L
620 4496 L
620 4341 L
620 3790 L
620 3961 L
620 3876 L
620 3812 L
620 3585 L
620 4180 L
620 3657 L
620 3802 L
620 4136 L
620 4323 L
620 3535 L
620 3948 L
620 4042 L
620 3729 L
620 3603 L
620 3952 L
620 3865 L
620 3432 L
620 3828 L
620 3609 L
620 4064 L
620 4175 L
620 3655 L
620 3441 L
620 4192 L
620 3408 L
620 3686 L
620 4064 L
620 3893 L
620 3723 L
620 3766 L
620 3725 L
620 3780 L
620 4046 L
620 3618 L
620 3511 L
620 3642 L
620 3790 L
620 3965 L
620 3400 L
620 3784 L
620 3566 L
620 3727 L
620 3666 L
620 3738 L
620 3742 L
620 3325 L
620 4210 L
620 3692 L
620 3756 L
620 3758 L
620 3070 L
620 3793 L
620 3492 L
620 3968 L
620 3592 L
620 3821 L
620 3771 L
620 3880 L
620 3778 L
620 3786 L
620 3821 L
620 3473 L
620 3797 L
620 3378 L
620 3522 L
620 3981 L
620 3544 L
620 3806 L
620 3861 L
620 3887 L
620 3493 L
620 3260 L
620 3480 L
620 3246 L
620 3729 L
620 3738 L
620 3539 L
620 3471 L
620 3434 L
620 3401 L
620 3513 L
620 3701 L
620 3598 L
620 3153 L
620 3572 L
620 3671 L
620 3498 L
620 3061 L
620 3318 L
620 3935 L
620 3694 L
620 3602 L
620 3212 L
620 3179 L
620 3369 L
620 3275 L
620 3666 L
620 3247 L
620 3157 L
620 3590 L
620 3522 L
620 3533 L
620 3969 L
620 3246 L
620 3699 L
620 3513 L
620 3078 L
620 3185 L
620 3489 L
620 3605 L
620 3388 L
620 3395 L
620 3577 L
620 3607 L
620 3992 L
620 3782 L
620 3924 L
620 3308 L
620 3393 L
620 3629 L
620 3670 L
620 3391 L
620 3498 L
620 3303 L
620 3745 L
620 3380 L
620 3465 L
620 3808 L
620 3889 L
620 3496 L
620 3624 L
620 3688 L
620 3620 L
620 3207 L
620 3585 L
620 3773 L
620 3330 L
620 3533 L
620 3493 L
620 3583 L
620 3190 L
620 3576 L
620 3635 L
620 3867 L
620 3369 L
620 3631 L
620 3271 L
620 3657 L
620 3465 L
620 3600 L
620 3561 L
L2 C03 COSGR

%
%================
% Legend - Begin
%================
%
GSN 4240 5180 M
4480 5180 L
LWMC SL  C03 COSGR
GSN 4540 5141 M helvM (1.5 uM) show grestore
%
%================
% Legend - End
%================
%

%
% Main frame
%
L10
GSN 
620 1700 M
4220 1700 L
4220 5300 L
620 5300 L
closepath SGR

%
% X axis: large tics
%
L10
%
% X axis: small tics
%
L5
%
% Y axis: large tics
%
L10
GSN 620 2586 M 54 0 rL SGR
GSN 4220 2586 M -54 0 rL SGR
helvS (-0.01) 560 2586 ylabel
GSN 620 3553 M 54 0 rL SGR
GSN 4220 3553 M -54 0 rL SGR
helvS (0) 560 3553 ylabel
GSN 620 4520 M 54 0 rL SGR
GSN 4220 4520 M -54 0 rL SGR
helvS (0.01) 560 4520 ylabel
%
% Y axis: small tics
%
L5
GSN 620 1861 M 36 0 rL SGR
GSN 4220 1861 M -36 0 rL SGR
GSN 620 2102 M 36 0 rL SGR
GSN 4220 2102 M -36 0 rL SGR
GSN 620 2344 M 36 0 rL SGR
GSN 4220 2344 M -36 0 rL SGR
GSN 620 2586 M 36 0 rL SGR
GSN 4220 2586 M -36 0 rL SGR
GSN 620 2828 M 36 0 rL SGR
GSN 4220 2828 M -36 0 rL SGR
GSN 620 3069 M 36 0 rL SGR
GSN 4220 3069 M -36 0 rL SGR
GSN 620 3311 M 36 0 rL SGR
GSN 4220 3311 M -36 0 rL SGR
GSN 620 3553 M 36 0 rL SGR
GSN 4220 3553 M -36 0 rL SGR
GSN 620 3795 M 36 0 rL SGR
GSN 4220 3795 M -36 0 rL SGR
GSN 620 4036 M 36 0 rL SGR
GSN 4220 4036 M -36 0 rL SGR
GSN 620 4278 M 36 0 rL SGR
GSN 4220 4278 M -36 0 rL SGR
GSN 620 4520 M 36 0 rL SGR
GSN 4220 4520 M -36 0 rL SGR
GSN 620 4761 M 36 0 rL SGR
GSN 4220 4761 M -36 0 rL SGR
GSN 620 5003 M 36 0 rL SGR
GSN 4220 5003 M -36 0 rL SGR
GSN 620 5245 M 36 0 rL SGR
GSN 4220 5245 M -36 0 rL SGR

%
% X axis - residual panel
%
GSN L5 620 3553 M 4220 3553 L SDA G50 SGR

%
% X-Axis label:
%
gsave 620 1370 M 
[
[(Helvetica) 180 0 true true 0 (t)]
[(Helvetica) 180 0 true true 0 (i)]
[(Helvetica) 180 0 true true 0 (m)]
[(Helvetica) 180 0 true true 0 (e)]
] 0 MCshow grestore

%
% Y-Axis label:
%
gsave 234 3500 M 
currentpoint gsave translate 90 rotate 0 0 moveto
[
[(Helvetica) 180 0 true true 0 (r)]
[(Helvetica) 180 0 true true 0 (e)]
[(Helvetica) 180 0 true true 0 (s)]
[(Helvetica) 180 0 true true 0 (i)]
[(Helvetica) 180 0 true true 0 (d)]
[(Helvetica) 180 0 true true 0 (u)]
[(Helvetica) 180 0 true true 0 (a)]
[(Helvetica) 180 0 true true 0 (l)]
[(Helvetica) 180 0 true true 0 (s)]
] 0 MCshow grestore

end
showpage
%%Trailer
%%EOF
