%!PS-Adobe-3.0 EPSF-3.0
%%BoundingBox: 0 0 514 550
%%Creator: BioKin Ltd.
%%DocumentFonts: Symbol Helvetica
%%EndComments
%
/bkdict 256 dict def
bkdict begin
/M {moveto} def 
/R {rmoveto} def
/L {lineto} def
/rL {rlineto} def
/GSN {gsave newpath} def
/SGR {stroke grestore} def
/COSGR {gsave setrgbcolor stroke grestore grestore} def
/SL {setlinewidth} def
/LWMB {12} def             % line width - model curves, black & white
/LWMC {10} def             % line width - model curves, color
/L2 {2.5 setlinewidth} def
/L5 {5 setlinewidth} def
/L10 {10 setlinewidth} def
/G50 {0.5 setgray} def
/SDA {[10  20] 0 setdash} def % axes
/helvT {/Helvetica findfont 100 scalefont setfont} def % tiny
/helvS {/Helvetica findfont 125 scalefont setfont} def % small
/helvM {/Helvetica findfont 150 scalefont setfont} def % medium
/helvL {/Helvetica findfont 175 scalefont setfont} def % large
/xlabel {gsave M dup
   stringwidth exch -0.5 mul exch rmoveto show grestore} def 
/ylabel {gsave M 90 rotate dup
   stringwidth exch -0.5 mul exch rmoveto show grestore} def
/ylabelresid {gsave M dup
   stringwidth exch -1 mul exch rmoveto show grestore} def
% ======
% Shapes
% ======
% Circle:
/Circ {0 360 arc closepath} def
%
% Square:
/Squa {dup dup -0.5 mul dup dup R -2 mul 0 exch rL 1 mul 0 rL dup 0 exch -1 mul rL closepath} def
%
% Triangle Up:
/TriU {dup dup dup -0.4 mul exch -0.5 mul exch R dup 0.5 mul exch rL dup -1 mul exch 0.5 mul exch rL closepath} def 
%
% Triangle Down:
/TriD {dup dup dup 0.4 mul exch -0.5 mul exch R dup 0.5 mul exch -1 mul rL dup 0.5 mul exch rL closepath} def 
%
% Diamond:
/Diam {45 rotate Squa} def
% ======
% Fills
% ======
/GRF {gsave setgray fill grestore} def                    % gray-level Fill
/COF {gsave setrgbcolor fill grestore} def                % color fill
% ======
% Colors
% ======
/C01 {1.00	0.00	0.00} def      % Red
/C02 {0.00	0.00	1.00} def      % Blue
/C03 {0.00	0.39	0.00} def      % Dark Green
/C04 {0.78	0.08	0.52} def      % Medium Violet Red
/C05 {0.55	0.27	0.07} def      % Saddle Brown
/C06 {0.10	0.70	0.70} def      % (cyan)
/C07 {1.00	0.55	0.00} def      % Dark Orange
/C08 {0.63	0.13	0.94} def      % Purple
/C09 {0.00	0.75	1.00} def      % Deep Sky Blue
/C10 {0.20	0.80	0.20} def      % Lime Green
/C11 {0.47	0.53	0.60} def      % Light Slate Gray
/C12 {0.00	0.00	0.00} def      % Black            % or: {0.19	0.31	0.31} def      % Dark Slate Gray
%
/LGR {0.75} def % light gray
/DGR {0.33} def % dark gray
%
% =============
% Dash patterns
% =============
/dash01 { [80  20] 0 setdash } def
/dash02 { [40  20] 0 setdash } def
/dash03 { [80  20  10  20] 0 setdash } def
/dash04 { [40  20  10  20] 0 setdash } def
/dash05 { [80  20  10  10  10  20] 0 setdash } def
/dash06 { [40  20  10  10  10  20] 0 setdash } def
/dash07 { [10  10] 0 setdash } def
%
/MFshow {
   { dup 5 get 3 ge
     { 5 get 3 eq {gsave} {grestore} ifelse }
     {dup dup 0 get findfont exch 1 get scalefont setfont
     [ currentpoint ] exch dup 2 get 0 exch R dup 5 get 2 ne {dup dup 6
     get exch 4 get {show} {stringwidth pop 0 R} ifelse }if dup 5 get 0 eq
     {dup 3 get {2 get neg 0 exch R pop} {pop aload pop M} ifelse} {dup 5
     get 1 eq {dup 2 get exch dup 3 get exch 6 get stringwidth pop -2 div
     dup 0 R} {dup 6 get stringwidth pop -2 div 0 R 6 get
     show 2 index {aload pop M neg 3 -1 roll neg R pop pop} {pop pop pop
     pop aload pop M} ifelse }ifelse }ifelse }
     ifelse }
   forall} bind def
/MFwidth {0 exch {dup 3 get{dup dup 0 get findfont exch 1 get scalefont
     setfont 6 get stringwidth pop add} {pop} ifelse} forall} bind def
/MCshow { currentpoint stroke M
  exch dup MFwidth -2 div 3 -1 roll R MFshow } def
%
end
%%EndProlog
bkdict begin
0.1 0.1 scale
%
% Model curves:
%

GSN 753 4959 M
753 4959 L
786 4730 L
820 4576 L
853 4480 L
886 4425 L
903 4408 L
919 4396 L
953 4383 L
986 4378 L
1020 4376 L
1053 4375 L
1053 4375 L
1086 4373 L
1120 4372 L
1153 4371 L
1186 4369 L
1203 4368 L
1220 4367 L
1253 4365 L
1286 4362 L
1320 4359 L
1353 4355 L
1353 4355 L
1386 4351 L
1420 4346 L
1453 4340 L
1486 4334 L
1503 4330 L
1520 4326 L
1553 4317 L
1586 4306 L
1620 4294 L
1653 4280 L
1653 4280 L
1686 4264 L
1720 4245 L
1753 4223 L
1786 4197 L
1804 4183 L
1820 4168 L
1853 4135 L
1886 4096 L
1920 4052 L
1953 4001 L
1954 4000 L
1986 3944 L
2020 3879 L
2053 3805 L
2086 3723 L
2104 3676 L
2120 3631 L
2153 3530 L
2186 3419 L
2220 3299 L
2253 3170 L
2254 3166 L
2286 3034 L
2320 2893 L
2353 2749 L
2386 2605 L
2404 2530 L
2420 2466 L
2453 2335 L
2486 2216 L
2520 2113 L
2553 2027 L
2554 2024 L
2586 1959 L
2620 1909 L
2653 1876 L
2686 1854 L
2704 1847 L
2720 1843 L
2753 1837 L
2786 1834 L
2820 1833 L
2853 1833 L
2854 1833 L
2886 1833 L
2920 1833 L
2953 1833 L
2986 1833 L
3004 1833 L
3020 1833 L
3053 1833 L
3068 1833 L
3086 1833 L
3120 1833 L
3153 1833 L
3155 1833 L
3186 1833 L
3220 1833 L
3253 1833 L
3286 1833 L
3305 1833 L
3320 1833 L
3353 1833 L
3386 1833 L
3420 1833 L
3453 1833 L
3455 1833 L
3486 1833 L
3520 1833 L
3553 1833 L
3586 1833 L
3605 1833 L
3620 1833 L
3653 1833 L
3686 1833 L
3720 1833 L
3753 1833 L
3755 1833 L
3786 1833 L
3820 1833 L
3853 1833 L
3886 1833 L
3905 1833 L
3920 1833 L
3953 1833 L
3986 1833 L
4020 1833 L
4053 1833 L
4086 1833 L
LWMC SL  C03 COSGR

%
% Experimental data:
%
GSN 773 4945 M
1625 4746 L
1773 4819 L
1860 5166 L
1922 5104 L
1970 4893 L
2009 4831 L
2043 4708 L
2072 4681 L
2097 4652 L
2120 4556 L
2140 4688 L
2159 4449 L
2176 4573 L
2192 4552 L
2207 4409 L
2221 4356 L
2234 4377 L
2247 4272 L
2259 4344 L
2270 4248 L
2280 4228 L
2290 4286 L
2300 4314 L
2309 4023 L
2318 4158 L
2326 4344 L
2335 4113 L
2342 4130 L
2350 4072 L
2357 4014 L
2364 3997 L
2371 3858 L
2378 4067 L
2384 3984 L
2391 3932 L
2397 3787 L
2403 3981 L
2409 3944 L
2414 3754 L
2420 3770 L
2425 3764 L
2430 3785 L
2435 3594 L
2440 3533 L
2445 3794 L
2450 3622 L
2455 3504 L
2459 3538 L
2464 3660 L
2468 3340 L
2472 3387 L
2476 3519 L
2481 3565 L
2485 3385 L
2489 3542 L
2492 3522 L
2496 3449 L
2500 3279 L
2504 3501 L
2507 3607 L
2511 3469 L
2514 3224 L
2518 3111 L
2521 3333 L
2525 3234 L
2528 3219 L
2531 3259 L
2534 3301 L
2538 3069 L
2541 3446 L
2544 3199 L
2547 3151 L
2550 3127 L
2553 3252 L
2556 2987 L
2559 3366 L
2561 3226 L
2564 3303 L
2567 3049 L
2570 3136 L
2580 3028 L
2590 2991 L
2600 2894 L
2609 2826 L
2618 2806 L
2627 2812 L
2635 2932 L
2643 2658 L
2650 2671 L
2658 2860 L
2665 2673 L
2672 2689 L
2678 2621 L
2685 2593 L
2691 2627 L
2697 2317 L
2703 2570 L
2709 2490 L
2714 2434 L
2720 2483 L
2725 2428 L
2730 2202 L
2735 2298 L
2740 2544 L
2745 2272 L
2750 2389 L
2755 2524 L
2759 2290 L
2764 2315 L
2768 2154 L
2772 2095 L
2777 2190 L
2781 2141 L
2785 2180 L
2789 2152 L
2793 2213 L
2796 2153 L
2800 2145 L
2804 2259 L
2808 2050 L
2811 2133 L
2815 2158 L
2818 2134 L
2822 2025 L
2825 2093 L
2828 2295 L
2831 2138 L
2835 2179 L
2838 2023 L
2841 2204 L
2844 2183 L
2847 2064 L
2850 1983 L
2853 2444 L
2856 2180 L
2859 2048 L
2862 1969 L
2864 2165 L
2867 2261 L
2870 2054 L
2873 2104 L
2875 2364 L
2878 2170 L
2880 2209 L
2883 2261 L
2886 2140 L
2888 2282 L
2891 2054 L
2893 2128 L
2895 2279 L
2898 2216 L
2900 2251 L
2902 2125 L
2905 2288 L
2907 2416 L
2909 2167 L
2912 2355 L
2914 2124 L
2916 2165 L
2918 2300 L
2920 2090 L
2922 2340 L
2925 2384 L
2927 2261 L
2929 2265 L
2931 2187 L
2933 2354 L
2935 2284 L
2937 2035 L
2939 2196 L
2941 2415 L
2943 2304 L
2945 2150 L
2947 2159 L
2948 2333 L
2950 2370 L
2952 2126 L
2954 2335 L
2956 2175 L
2958 2259 L
2959 2268 L
2961 2087 L
2963 2458 L
2965 2271 L
2966 2286 L
2968 2592 L
2970 2415 L
2972 2460 L
2973 2465 L
2975 2457 L
2977 2293 L
2978 2329 L
2980 2355 L
2982 2043 L
2983 2247 L
2985 2436 L
2986 2450 L
2988 2249 L
2989 2265 L
2991 2457 L
2993 2348 L
2994 2405 L
2996 2523 L
2997 2318 L
2999 2422 L
3000 2344 L
3002 2387 L
3003 2346 L
3005 2502 L
3006 2547 L
3007 2535 L
3009 2367 L
3010 2430 L
3012 2309 L
3013 2547 L
3014 2342 L
3016 2442 L
3017 2590 L
3019 2446 L
3020 2500 L
3021 2532 L
3023 2426 L
3024 2372 L
3025 2438 L
3027 2598 L
3028 2559 L
3029 2498 L
3031 2602 L
3032 2486 L
3033 2346 L
3034 2492 L
3036 2397 L
3037 2539 L
3038 2469 L
3039 2538 L
3041 2562 L
3042 2647 L
3043 2491 L
3044 2529 L
3045 2611 L
3047 2454 L
3048 2608 L
3049 2528 L
3050 2540 L
3051 2393 L
3053 2320 L
3054 2716 L
3055 2672 L
3056 2647 L
3057 2610 L
3058 2454 L
3059 2685 L
3061 2448 L
3062 2618 L
3063 2658 L
3064 2705 L
3065 2754 L
3066 2638 L
3067 2588 L
3068 2596 L
3069 2492 L
3070 2642 L
3071 2633 L
3073 2698 L
3074 2650 L
3075 2750 L
3076 2485 L
3077 2722 L
3078 2495 L
3079 2762 L
3080 2457 L
3081 2518 L
3082 2452 L
3083 2728 L
3084 2506 L
3085 2701 L
3086 2436 L
3087 2666 L
3088 2787 L
3089 2650 L
3112 2864 L
3133 2864 L
3152 2935 L
3170 2788 L
3186 2757 L
3201 3002 L
3216 2965 L
3229 2642 L
3241 2857 L
3253 2895 L
3264 2864 L
3275 2977 L
3285 3089 L
3295 2949 L
3304 2967 L
3313 2974 L
3322 3004 L
3330 2995 L
3338 3037 L
3346 2979 L
3353 2785 L
3360 2809 L
3367 2848 L
3374 2873 L
3380 3103 L
3387 2925 L
3393 3055 L
3399 2977 L
3405 3134 L
3410 3083 L
3416 2970 L
3421 3121 L
3426 2921 L
3431 3136 L
3436 2917 L
3441 3143 L
3446 2944 L
3451 3072 L
3455 3079 L
3460 2912 L
3464 2941 L
3469 2964 L
3473 2947 L
3477 3041 L
3481 2860 L
3485 3122 L
3489 2903 L
3493 2762 L
3496 2998 L
3500 2683 L
3504 2920 L
3507 2863 L
3511 2911 L
3514 2743 L
3518 3164 L
3521 2693 L
3525 2875 L
3528 2924 L
3531 2998 L
3534 2821 L
3537 2900 L
3540 2954 L
3543 2958 L
3546 2982 L
3549 2961 L
3552 2921 L
3555 2873 L
3558 2667 L
3561 2628 L
3564 2973 L
3566 2954 L
3575 2857 L
3586 2741 L
3595 2826 L
3605 2930 L
3613 2904 L
3622 2906 L
3630 2871 L
3638 2925 L
3646 2854 L
3653 2935 L
3660 2776 L
3667 2608 L
3674 2776 L
3681 2804 L
3687 2921 L
3693 2799 L
3699 2769 L
3705 2922 L
3710 3101 L
3716 2731 L
3721 2816 L
3727 2853 L
3732 2882 L
3737 2764 L
3742 2684 L
3746 2640 L
3751 2727 L
3756 3000 L
3760 2930 L
3764 2684 L
3769 2760 L
3773 2722 L
3777 2693 L
3781 2592 L
3785 2859 L
3789 2624 L
3793 2689 L
3797 2839 L
3800 2922 L
3804 2570 L
3808 2754 L
3811 2797 L
3815 2656 L
3818 2600 L
3821 2756 L
3825 2717 L
3828 2523 L
3831 2701 L
3834 2603 L
3838 2807 L
3841 2856 L
3844 2623 L
3847 2528 L
3850 2863 L
3853 2513 L
3855 2637 L
3858 2806 L
3861 2730 L
3864 2654 L
3867 2673 L
3869 2655 L
3872 2679 L
3875 2798 L
3877 2607 L
3880 2559 L
3882 2617 L
3885 2683 L
3887 2762 L
3890 2509 L
3892 2681 L
3895 2583 L
3897 2655 L
3899 2628 L
3902 2660 L
3904 2662 L
3906 2475 L
3908 2872 L
3911 2640 L
3913 2669 L
3915 2669 L
3917 2361 L
3919 2685 L
3921 2550 L
3923 2764 L
3926 2595 L
3928 2698 L
3930 2675 L
3932 2724 L
3934 2678 L
3936 2682 L
3938 2698 L
3940 2542 L
3942 2687 L
3943 2499 L
3945 2564 L
3947 2769 L
3949 2574 L
3951 2691 L
3953 2716 L
3955 2727 L
3956 2551 L
3958 2446 L
3960 2545 L
3962 2440 L
3963 2656 L
3965 2660 L
3967 2571 L
3969 2541 L
3970 2524 L
3972 2509 L
3974 2560 L
3975 2644 L
3977 2598 L
3978 2399 L
3980 2586 L
3982 2631 L
3983 2553 L
3985 2357 L
3986 2472 L
3988 2749 L
3990 2641 L
3991 2599 L
3993 2425 L
3994 2410 L
3996 2495 L
3997 2453 L
3999 2628 L
4000 2441 L
4001 2400 L
4003 2594 L
4004 2564 L
4006 2569 L
4007 2764 L
4009 2440 L
4010 2643 L
4011 2560 L
4013 2365 L
4014 2413 L
4016 2549 L
4017 2601 L
4018 2504 L
4020 2507 L
4021 2588 L
4022 2602 L
4024 2774 L
4025 2680 L
4026 2744 L
4028 2468 L
4029 2506 L
4030 2612 L
4031 2630 L
4033 2505 L
4034 2553 L
4035 2465 L
4036 2664 L
4038 2500 L
4039 2538 L
4040 2692 L
4041 2728 L
4042 2552 L
4044 2609 L
4045 2638 L
4046 2608 L
4047 2422 L
4048 2592 L
4050 2676 L
4051 2478 L
4052 2569 L
4053 2551 L
4054 2591 L
4055 2415 L
4056 2588 L
4058 2614 L
4059 2718 L
4060 2495 L
4061 2613 L
4062 2451 L
4063 2624 L
4064 2538 L
4065 2598 L
4066 2581 L
L2 C03 COSGR

%
%================
% Legend - Begin
%================
%
GSN 4240 5180 M
4480 5180 L
LWMC SL  C03 COSGR
GSN 4540 5141 M helvM (1.5 uM) show grestore
%
%================
% Legend - End
%================
%

%
% Residuals:
%
GSN 773 752 M
1625 944 L
1773 1039 L
1860 1300 L
1922 1310 L
1970 1227 L
2009 1234 L
2043 1202 L
2072 1228 L
2097 1250 L
2120 1230 L
2140 1348 L
2159 1239 L
2176 1349 L
2192 1370 L
2207 1316 L
2221 1315 L
2234 1358 L
2247 1323 L
2259 1396 L
2270 1364 L
2280 1379 L
2290 1440 L
2300 1481 L
2309 1328 L
2318 1433 L
2326 1569 L
2335 1449 L
2342 1481 L
2350 1465 L
2357 1449 L
2364 1457 L
2371 1391 L
2378 1535 L
2384 1502 L
2391 1486 L
2397 1414 L
2403 1547 L
2409 1539 L
2414 1437 L
2420 1461 L
2425 1471 L
2430 1496 L
2435 1392 L
2440 1367 L
2445 1537 L
2450 1444 L
2455 1382 L
2459 1414 L
2464 1497 L
2468 1313 L
2472 1350 L
2476 1440 L
2481 1477 L
2485 1375 L
2489 1479 L
2492 1475 L
2496 1437 L
2500 1341 L
2504 1484 L
2507 1555 L
2511 1477 L
2514 1335 L
2518 1273 L
2521 1413 L
2525 1358 L
2528 1355 L
2531 1385 L
2534 1416 L
2538 1279 L
2541 1513 L
2544 1368 L
2547 1343 L
2550 1333 L
2553 1413 L
2556 1256 L
2559 1490 L
2561 1409 L
2564 1459 L
2567 1309 L
2570 1365 L
2580 1311 L
2590 1300 L
2600 1250 L
2609 1217 L
2618 1212 L
2627 1222 L
2635 1300 L
2643 1138 L
2650 1151 L
2658 1269 L
2665 1158 L
2672 1171 L
2678 1131 L
2685 1116 L
2691 1139 L
2697 952 L
2703 1107 L
2709 1060 L
2714 1027 L
2720 1057 L
2725 1025 L
2730 888 L
2735 947 L
2740 1097 L
2745 932 L
2750 1003 L
2755 1086 L
2759 944 L
2764 959 L
2768 861 L
2772 826 L
2777 884 L
2781 854 L
2785 878 L
2789 861 L
2793 898 L
2796 862 L
2800 857 L
2804 926 L
2808 799 L
2811 850 L
2815 865 L
2818 851 L
2822 784 L
2825 826 L
2828 949 L
2831 853 L
2835 878 L
2838 784 L
2841 893 L
2844 881 L
2847 808 L
2850 759 L
2853 1040 L
2856 879 L
2859 799 L
2862 750 L
2864 870 L
2867 928 L
2870 802 L
2873 833 L
2875 991 L
2878 873 L
2880 897 L
2883 928 L
2886 855 L
2888 941 L
2891 802 L
2893 848 L
2895 939 L
2898 901 L
2900 922 L
2902 846 L
2905 945 L
2907 1022 L
2909 871 L
2912 985 L
2914 845 L
2916 870 L
2918 952 L
2920 824 L
2922 976 L
2925 1003 L
2927 928 L
2929 931 L
2931 883 L
2933 985 L
2935 942 L
2937 791 L
2939 889 L
2941 1022 L
2943 955 L
2945 860 L
2947 866 L
2948 972 L
2950 995 L
2952 846 L
2954 973 L
2956 876 L
2958 927 L
2959 932 L
2961 822 L
2963 1048 L
2965 934 L
2966 943 L
2968 1130 L
2970 1022 L
2972 1049 L
2973 1052 L
2975 1047 L
2977 948 L
2978 969 L
2980 985 L
2982 796 L
2983 920 L
2985 1035 L
2986 1043 L
2988 921 L
2989 930 L
2991 1047 L
2993 981 L
2994 1016 L
2996 1088 L
2997 963 L
2999 1026 L
3000 979 L
3002 1005 L
3003 980 L
3005 1075 L
3006 1102 L
3007 1095 L
3009 993 L
3010 1031 L
3012 957 L
3013 1102 L
3014 977 L
3016 1038 L
3017 1128 L
3019 1041 L
3020 1073 L
3021 1093 L
3023 1029 L
3024 996 L
3025 1036 L
3027 1133 L
3028 1110 L
3029 1073 L
3031 1136 L
3032 1065 L
3033 980 L
3034 1069 L
3036 1011 L
3037 1097 L
3038 1055 L
3039 1097 L
3041 1112 L
3042 1163 L
3043 1068 L
3044 1091 L
3045 1141 L
3047 1046 L
3048 1139 L
3049 1091 L
3050 1098 L
3051 1009 L
3053 964 L
3054 1205 L
3055 1178 L
3056 1163 L
3057 1141 L
3058 1045 L
3059 1186 L
3061 1042 L
3062 1145 L
3063 1169 L
3064 1198 L
3065 1228 L
3066 1157 L
3067 1127 L
3068 1132 L
3069 1069 L
3070 1160 L
3071 1155 L
3073 1194 L
3074 1165 L
3075 1226 L
3076 1065 L
3077 1208 L
3078 1070 L
3079 1233 L
3080 1047 L
3081 1084 L
3082 1044 L
3083 1212 L
3084 1077 L
3085 1196 L
3086 1035 L
3087 1174 L
3088 1248 L
3089 1165 L
3112 1295 L
3133 1295 L
3152 1338 L
3170 1248 L
3186 1230 L
3201 1379 L
3216 1356 L
3229 1160 L
3241 1291 L
3253 1314 L
3264 1295 L
3275 1363 L
3285 1432 L
3295 1347 L
3304 1357 L
3313 1362 L
3322 1380 L
3330 1374 L
3338 1400 L
3346 1365 L
3353 1247 L
3360 1261 L
3367 1285 L
3374 1301 L
3380 1440 L
3387 1332 L
3393 1411 L
3399 1363 L
3405 1459 L
3410 1428 L
3416 1359 L
3421 1451 L
3426 1329 L
3431 1460 L
3436 1327 L
3441 1464 L
3446 1343 L
3451 1421 L
3455 1426 L
3460 1324 L
3464 1342 L
3469 1356 L
3473 1345 L
3477 1403 L
3481 1293 L
3485 1452 L
3489 1319 L
3493 1233 L
3496 1376 L
3500 1185 L
3504 1329 L
3507 1295 L
3511 1323 L
3514 1221 L
3518 1477 L
3521 1191 L
3525 1302 L
3528 1331 L
3531 1376 L
3534 1268 L
3537 1317 L
3540 1349 L
3543 1352 L
3546 1367 L
3549 1354 L
3552 1329 L
3555 1300 L
3558 1175 L
3561 1152 L
3564 1361 L
3566 1349 L
3575 1291 L
3586 1220 L
3595 1272 L
3605 1335 L
3613 1319 L
3622 1320 L
3630 1299 L
3638 1332 L
3646 1289 L
3653 1338 L
3660 1241 L
3667 1139 L
3674 1241 L
3681 1258 L
3687 1329 L
3693 1255 L
3699 1237 L
3705 1330 L
3710 1439 L
3716 1214 L
3721 1266 L
3727 1288 L
3732 1306 L
3737 1234 L
3742 1185 L
3746 1159 L
3751 1212 L
3756 1377 L
3760 1335 L
3764 1185 L
3769 1232 L
3773 1209 L
3777 1191 L
3781 1129 L
3785 1292 L
3789 1149 L
3793 1189 L
3797 1280 L
3800 1330 L
3804 1116 L
3808 1228 L
3811 1254 L
3815 1169 L
3818 1134 L
3821 1229 L
3825 1206 L
3828 1088 L
3831 1196 L
3834 1136 L
3838 1260 L
3841 1290 L
3844 1148 L
3847 1090 L
3850 1295 L
3853 1081 L
3855 1157 L
3858 1260 L
3861 1213 L
3864 1167 L
3867 1179 L
3869 1168 L
3872 1183 L
3875 1255 L
3877 1138 L
3880 1109 L
3882 1145 L
3885 1185 L
3887 1233 L
3890 1079 L
3892 1184 L
3895 1124 L
3897 1168 L
3899 1151 L
3902 1171 L
3904 1172 L
3906 1059 L
3908 1300 L
3911 1158 L
3913 1176 L
3915 1177 L
3917 989 L
3919 1186 L
3921 1104 L
3923 1234 L
3926 1131 L
3928 1194 L
3930 1180 L
3932 1210 L
3934 1182 L
3936 1184 L
3938 1194 L
3940 1099 L
3942 1187 L
3943 1073 L
3945 1112 L
3947 1237 L
3949 1118 L
3951 1190 L
3953 1205 L
3955 1212 L
3956 1104 L
3958 1041 L
3960 1101 L
3962 1037 L
3963 1169 L
3965 1171 L
3967 1117 L
3969 1098 L
3970 1088 L
3972 1079 L
3974 1110 L
3975 1161 L
3977 1133 L
3978 1012 L
3980 1126 L
3982 1153 L
3983 1106 L
3985 987 L
3986 1057 L
3988 1225 L
3990 1159 L
3991 1134 L
3993 1028 L
3994 1019 L
3996 1071 L
3997 1045 L
3999 1152 L
4000 1037 L
4001 1013 L
4003 1131 L
4004 1112 L
4006 1115 L
4007 1234 L
4009 1037 L
4010 1160 L
4011 1110 L
4013 991 L
4014 1020 L
4016 1103 L
4017 1135 L
4018 1076 L
4020 1078 L
4021 1127 L
4022 1135 L
4024 1240 L
4025 1183 L
4026 1222 L
4028 1054 L
4029 1077 L
4030 1141 L
4031 1152 L
4033 1077 L
4034 1106 L
4035 1053 L
4036 1173 L
4038 1074 L
4039 1097 L
4040 1190 L
4041 1212 L
4042 1105 L
4044 1140 L
4045 1157 L
4046 1139 L
4047 1026 L
4048 1129 L
4050 1181 L
4051 1060 L
4052 1115 L
4053 1104 L
4054 1129 L
4055 1022 L
4056 1127 L
4058 1143 L
4059 1206 L
4060 1071 L
4061 1142 L
4062 1044 L
4063 1149 L
4064 1097 L
4065 1133 L
4066 1123 L
L2 C03 COSGR

%
% Main frame
%
L10
GSN 
620 1700 M
4220 1700 L
4220 5300 L
620 5300 L
closepath SGR

%
% X axis: large tics
%
L10
GSN 1074 1700 M 0  54 rL SGR
GSN 1074 5300 M 0 -54 rL SGR
helvS (0.0001) 1074 470 xlabel
GSN 1572 1700 M 0  54 rL SGR
GSN 1572 5300 M 0 -54 rL SGR
helvS (0.001) 1572 470 xlabel
GSN 2071 1700 M 0  54 rL SGR
GSN 2071 5300 M 0 -54 rL SGR
helvS (0.01) 2071 470 xlabel
GSN 2570 1700 M 0  54 rL SGR
GSN 2570 5300 M 0 -54 rL SGR
helvS (0.1) 2570 470 xlabel
GSN 3068 1700 M 0  54 rL SGR
GSN 3068 5300 M 0 -54 rL SGR
helvS (1) 3068 470 xlabel
GSN 3567 1700 M 0  54 rL SGR
GSN 3567 5300 M 0 -54 rL SGR
helvS (10) 3567 470 xlabel
GSN 4066 1700 M 0  54 rL SGR
GSN 4066 5300 M 0 -54 rL SGR
helvS (100) 4066 470 xlabel
%
% X axis: small tics
%
L5
GSN 725 1700 M 0  36 rL SGR
GSN 725 5300 M 0 -36 rL SGR
GSN 813 1700 M 0  36 rL SGR
GSN 813 5300 M 0 -36 rL SGR
GSN 875 1700 M 0  36 rL SGR
GSN 875 5300 M 0 -36 rL SGR
GSN 924 1700 M 0  36 rL SGR
GSN 924 5300 M 0 -36 rL SGR
GSN 963 1700 M 0  36 rL SGR
GSN 963 5300 M 0 -36 rL SGR
GSN 996 1700 M 0  36 rL SGR
GSN 996 5300 M 0 -36 rL SGR
GSN 1025 1700 M 0  36 rL SGR
GSN 1025 5300 M 0 -36 rL SGR
GSN 1051 1700 M 0  36 rL SGR
GSN 1051 5300 M 0 -36 rL SGR
GSN 1224 1700 M 0  36 rL SGR
GSN 1224 5300 M 0 -36 rL SGR
GSN 1312 1700 M 0  36 rL SGR
GSN 1312 5300 M 0 -36 rL SGR
GSN 1374 1700 M 0  36 rL SGR
GSN 1374 5300 M 0 -36 rL SGR
GSN 1422 1700 M 0  36 rL SGR
GSN 1422 5300 M 0 -36 rL SGR
GSN 1462 1700 M 0  36 rL SGR
GSN 1462 5300 M 0 -36 rL SGR
GSN 1495 1700 M 0  36 rL SGR
GSN 1495 5300 M 0 -36 rL SGR
GSN 1524 1700 M 0  36 rL SGR
GSN 1524 5300 M 0 -36 rL SGR
GSN 1550 1700 M 0  36 rL SGR
GSN 1550 5300 M 0 -36 rL SGR
GSN 1722 1700 M 0  36 rL SGR
GSN 1722 5300 M 0 -36 rL SGR
GSN 1810 1700 M 0  36 rL SGR
GSN 1810 5300 M 0 -36 rL SGR
GSN 1873 1700 M 0  36 rL SGR
GSN 1873 5300 M 0 -36 rL SGR
GSN 1921 1700 M 0  36 rL SGR
GSN 1921 5300 M 0 -36 rL SGR
GSN 1960 1700 M 0  36 rL SGR
GSN 1960 5300 M 0 -36 rL SGR
GSN 1994 1700 M 0  36 rL SGR
GSN 1994 5300 M 0 -36 rL SGR
GSN 2023 1700 M 0  36 rL SGR
GSN 2023 5300 M 0 -36 rL SGR
GSN 2048 1700 M 0  36 rL SGR
GSN 2048 5300 M 0 -36 rL SGR
GSN 2221 1700 M 0  36 rL SGR
GSN 2221 5300 M 0 -36 rL SGR
GSN 2309 1700 M 0  36 rL SGR
GSN 2309 5300 M 0 -36 rL SGR
GSN 2371 1700 M 0  36 rL SGR
GSN 2371 5300 M 0 -36 rL SGR
GSN 2420 1700 M 0  36 rL SGR
GSN 2420 5300 M 0 -36 rL SGR
GSN 2459 1700 M 0  36 rL SGR
GSN 2459 5300 M 0 -36 rL SGR
GSN 2492 1700 M 0  36 rL SGR
GSN 2492 5300 M 0 -36 rL SGR
GSN 2521 1700 M 0  36 rL SGR
GSN 2521 5300 M 0 -36 rL SGR
GSN 2547 1700 M 0  36 rL SGR
GSN 2547 5300 M 0 -36 rL SGR
GSN 2720 1700 M 0  36 rL SGR
GSN 2720 5300 M 0 -36 rL SGR
GSN 2808 1700 M 0  36 rL SGR
GSN 2808 5300 M 0 -36 rL SGR
GSN 2870 1700 M 0  36 rL SGR
GSN 2870 5300 M 0 -36 rL SGR
GSN 2918 1700 M 0  36 rL SGR
GSN 2918 5300 M 0 -36 rL SGR
GSN 2958 1700 M 0  36 rL SGR
GSN 2958 5300 M 0 -36 rL SGR
GSN 2991 1700 M 0  36 rL SGR
GSN 2991 5300 M 0 -36 rL SGR
GSN 3020 1700 M 0  36 rL SGR
GSN 3020 5300 M 0 -36 rL SGR
GSN 3045 1700 M 0  36 rL SGR
GSN 3045 5300 M 0 -36 rL SGR
GSN 3218 1700 M 0  36 rL SGR
GSN 3218 5300 M 0 -36 rL SGR
GSN 3306 1700 M 0  36 rL SGR
GSN 3306 5300 M 0 -36 rL SGR
GSN 3368 1700 M 0  36 rL SGR
GSN 3368 5300 M 0 -36 rL SGR
GSN 3417 1700 M 0  36 rL SGR
GSN 3417 5300 M 0 -36 rL SGR
GSN 3456 1700 M 0  36 rL SGR
GSN 3456 5300 M 0 -36 rL SGR
GSN 3490 1700 M 0  36 rL SGR
GSN 3490 5300 M 0 -36 rL SGR
GSN 3519 1700 M 0  36 rL SGR
GSN 3519 5300 M 0 -36 rL SGR
GSN 3544 1700 M 0  36 rL SGR
GSN 3544 5300 M 0 -36 rL SGR
GSN 3717 1700 M 0  36 rL SGR
GSN 3717 5300 M 0 -36 rL SGR
GSN 3805 1700 M 0  36 rL SGR
GSN 3805 5300 M 0 -36 rL SGR
GSN 3867 1700 M 0  36 rL SGR
GSN 3867 5300 M 0 -36 rL SGR
GSN 3915 1700 M 0  36 rL SGR
GSN 3915 5300 M 0 -36 rL SGR
GSN 3955 1700 M 0  36 rL SGR
GSN 3955 5300 M 0 -36 rL SGR
GSN 3988 1700 M 0  36 rL SGR
GSN 3988 5300 M 0 -36 rL SGR
GSN 4017 1700 M 0  36 rL SGR
GSN 4017 5300 M 0 -36 rL SGR
GSN 4043 1700 M 0  36 rL SGR
GSN 4043 5300 M 0 -36 rL SGR
GSN 4216 1700 M 0  36 rL SGR
GSN 4216 5300 M 0 -36 rL SGR
%
% Y axis: large tics
%
L10
GSN 620 2196 M 54 0 rL SGR
GSN 4220 2196 M -54 0 rL SGR
helvS (1.04) 560 2196 ylabel
GSN 620 3062 M 54 0 rL SGR
GSN 4220 3062 M -54 0 rL SGR
helvS (1.06) 560 3062 ylabel
GSN 620 3928 M 54 0 rL SGR
GSN 4220 3928 M -54 0 rL SGR
helvS (1.08) 560 3928 ylabel
GSN 620 4794 M 54 0 rL SGR
GSN 4220 4794 M -54 0 rL SGR
helvS (1.1) 560 4794 ylabel
%
% Y axis: small tics
%
L5
GSN 620 1763 M 36 0 rL SGR
GSN 4220 1763 M -36 0 rL SGR
GSN 620 1979 M 36 0 rL SGR
GSN 4220 1979 M -36 0 rL SGR
GSN 620 2196 M 36 0 rL SGR
GSN 4220 2196 M -36 0 rL SGR
GSN 620 2412 M 36 0 rL SGR
GSN 4220 2412 M -36 0 rL SGR
GSN 620 2629 M 36 0 rL SGR
GSN 4220 2629 M -36 0 rL SGR
GSN 620 2845 M 36 0 rL SGR
GSN 4220 2845 M -36 0 rL SGR
GSN 620 3062 M 36 0 rL SGR
GSN 4220 3062 M -36 0 rL SGR
GSN 620 3278 M 36 0 rL SGR
GSN 4220 3278 M -36 0 rL SGR
GSN 620 3495 M 36 0 rL SGR
GSN 4220 3495 M -36 0 rL SGR
GSN 620 3711 M 36 0 rL SGR
GSN 4220 3711 M -36 0 rL SGR
GSN 620 3928 M 36 0 rL SGR
GSN 4220 3928 M -36 0 rL SGR
GSN 620 4144 M 36 0 rL SGR
GSN 4220 4144 M -36 0 rL SGR
GSN 620 4361 M 36 0 rL SGR
GSN 4220 4361 M -36 0 rL SGR
GSN 620 4577 M 36 0 rL SGR
GSN 4220 4577 M -36 0 rL SGR
GSN 620 4794 M 36 0 rL SGR
GSN 4220 4794 M -36 0 rL SGR
GSN 620 5010 M 36 0 rL SGR
GSN 4220 5010 M -36 0 rL SGR
GSN 620 5227 M 36 0 rL SGR
GSN 4220 5227 M -36 0 rL SGR

%
% X-Axis label:
%
gsave 2420 290 M 
[
[(Helvetica) 180 0 true true 0 (t)]
[(Helvetica) 180 0 true true 0 (i)]
[(Helvetica) 180 0 true true 0 (m)]
[(Helvetica) 180 0 true true 0 (e)]
] 0 MCshow grestore

%
% Y-Axis label:
%
gsave 234 3500 M 
currentpoint gsave translate 90 rotate 0 0 moveto
[
[(Helvetica) 180 0 true true 0 (s)]
[(Helvetica) 180 0 true true 0 (i)]
[(Helvetica) 180 0 true true 0 (g)]
[(Helvetica) 180 0 true true 0 (n)]
[(Helvetica) 180 0 true true 0 (a)]
[(Helvetica) 180 0 true true 0 (l)]
] 0 MCshow grestore

%
% Residuals:
%
gsave 129 1160 M 
currentpoint gsave translate 90 rotate 0 0 moveto
[
[(Helvetica) 150 0 true true 0 (r)]
[(Helvetica) 150 0 true true 0 (e)]
[(Helvetica) 150 0 true true 0 (s)]
[(Helvetica) 150 0 true true 0 (i)]
[(Helvetica) 150 0 true true 0 (d)]
[(Helvetica) 150 0 true true 0 (u)]
[(Helvetica) 150 0 true true 0 (a)]
[(Helvetica) 150 0 true true 0 (l)]
[(Helvetica) 150 0 true true 0 (s)]
] 0 MCshow grestore

%
% Residual frame
%
L10
GSN 
620 620 M
4220 620 L
4220 1700 L
620 1700 L
closepath SGR
%
% X axis: large tics - residual frame
%
L10
GSN 1074 620 M 0  54 rL SGR
GSN 1074 1700 M 0 -54 rL SGR
GSN 1572 620 M 0  54 rL SGR
GSN 1572 1700 M 0 -54 rL SGR
GSN 2071 620 M 0  54 rL SGR
GSN 2071 1700 M 0 -54 rL SGR
GSN 2570 620 M 0  54 rL SGR
GSN 2570 1700 M 0 -54 rL SGR
GSN 3068 620 M 0  54 rL SGR
GSN 3068 1700 M 0 -54 rL SGR
GSN 3567 620 M 0  54 rL SGR
GSN 3567 1700 M 0 -54 rL SGR
GSN 4066 620 M 0  54 rL SGR
GSN 4066 1700 M 0 -54 rL SGR
%
% X axis: small tics - residual frame
%
L5
GSN 725 620 M 0  36 rL SGR
GSN 725 1700 M 0 -36 rL SGR
GSN 813 620 M 0  36 rL SGR
GSN 813 1700 M 0 -36 rL SGR
GSN 875 620 M 0  36 rL SGR
GSN 875 1700 M 0 -36 rL SGR
GSN 924 620 M 0  36 rL SGR
GSN 924 1700 M 0 -36 rL SGR
GSN 963 620 M 0  36 rL SGR
GSN 963 1700 M 0 -36 rL SGR
GSN 996 620 M 0  36 rL SGR
GSN 996 1700 M 0 -36 rL SGR
GSN 1025 620 M 0  36 rL SGR
GSN 1025 1700 M 0 -36 rL SGR
GSN 1051 620 M 0  36 rL SGR
GSN 1051 1700 M 0 -36 rL SGR
GSN 1224 620 M 0  36 rL SGR
GSN 1224 1700 M 0 -36 rL SGR
GSN 1312 620 M 0  36 rL SGR
GSN 1312 1700 M 0 -36 rL SGR
GSN 1374 620 M 0  36 rL SGR
GSN 1374 1700 M 0 -36 rL SGR
GSN 1422 620 M 0  36 rL SGR
GSN 1422 1700 M 0 -36 rL SGR
GSN 1462 620 M 0  36 rL SGR
GSN 1462 1700 M 0 -36 rL SGR
GSN 1495 620 M 0  36 rL SGR
GSN 1495 1700 M 0 -36 rL SGR
GSN 1524 620 M 0  36 rL SGR
GSN 1524 1700 M 0 -36 rL SGR
GSN 1550 620 M 0  36 rL SGR
GSN 1550 1700 M 0 -36 rL SGR
GSN 1722 620 M 0  36 rL SGR
GSN 1722 1700 M 0 -36 rL SGR
GSN 1810 620 M 0  36 rL SGR
GSN 1810 1700 M 0 -36 rL SGR
GSN 1873 620 M 0  36 rL SGR
GSN 1873 1700 M 0 -36 rL SGR
GSN 1921 620 M 0  36 rL SGR
GSN 1921 1700 M 0 -36 rL SGR
GSN 1960 620 M 0  36 rL SGR
GSN 1960 1700 M 0 -36 rL SGR
GSN 1994 620 M 0  36 rL SGR
GSN 1994 1700 M 0 -36 rL SGR
GSN 2023 620 M 0  36 rL SGR
GSN 2023 1700 M 0 -36 rL SGR
GSN 2048 620 M 0  36 rL SGR
GSN 2048 1700 M 0 -36 rL SGR
GSN 2221 620 M 0  36 rL SGR
GSN 2221 1700 M 0 -36 rL SGR
GSN 2309 620 M 0  36 rL SGR
GSN 2309 1700 M 0 -36 rL SGR
GSN 2371 620 M 0  36 rL SGR
GSN 2371 1700 M 0 -36 rL SGR
GSN 2420 620 M 0  36 rL SGR
GSN 2420 1700 M 0 -36 rL SGR
GSN 2459 620 M 0  36 rL SGR
GSN 2459 1700 M 0 -36 rL SGR
GSN 2492 620 M 0  36 rL SGR
GSN 2492 1700 M 0 -36 rL SGR
GSN 2521 620 M 0  36 rL SGR
GSN 2521 1700 M 0 -36 rL SGR
GSN 2547 620 M 0  36 rL SGR
GSN 2547 1700 M 0 -36 rL SGR
GSN 2720 620 M 0  36 rL SGR
GSN 2720 1700 M 0 -36 rL SGR
GSN 2808 620 M 0  36 rL SGR
GSN 2808 1700 M 0 -36 rL SGR
GSN 2870 620 M 0  36 rL SGR
GSN 2870 1700 M 0 -36 rL SGR
GSN 2918 620 M 0  36 rL SGR
GSN 2918 1700 M 0 -36 rL SGR
GSN 2958 620 M 0  36 rL SGR
GSN 2958 1700 M 0 -36 rL SGR
GSN 2991 620 M 0  36 rL SGR
GSN 2991 1700 M 0 -36 rL SGR
GSN 3020 620 M 0  36 rL SGR
GSN 3020 1700 M 0 -36 rL SGR
GSN 3045 620 M 0  36 rL SGR
GSN 3045 1700 M 0 -36 rL SGR
GSN 3218 620 M 0  36 rL SGR
GSN 3218 1700 M 0 -36 rL SGR
GSN 3306 620 M 0  36 rL SGR
GSN 3306 1700 M 0 -36 rL SGR
GSN 3368 620 M 0  36 rL SGR
GSN 3368 1700 M 0 -36 rL SGR
GSN 3417 620 M 0  36 rL SGR
GSN 3417 1700 M 0 -36 rL SGR
GSN 3456 620 M 0  36 rL SGR
GSN 3456 1700 M 0 -36 rL SGR
GSN 3490 620 M 0  36 rL SGR
GSN 3490 1700 M 0 -36 rL SGR
GSN 3519 620 M 0  36 rL SGR
GSN 3519 1700 M 0 -36 rL SGR
GSN 3544 620 M 0  36 rL SGR
GSN 3544 1700 M 0 -36 rL SGR
GSN 3717 620 M 0  36 rL SGR
GSN 3717 1700 M 0 -36 rL SGR
GSN 3805 620 M 0  36 rL SGR
GSN 3805 1700 M 0 -36 rL SGR
GSN 3867 620 M 0  36 rL SGR
GSN 3867 1700 M 0 -36 rL SGR
GSN 3915 620 M 0  36 rL SGR
GSN 3915 1700 M 0 -36 rL SGR
GSN 3955 620 M 0  36 rL SGR
GSN 3955 1700 M 0 -36 rL SGR
GSN 3988 620 M 0  36 rL SGR
GSN 3988 1700 M 0 -36 rL SGR
GSN 4017 620 M 0  36 rL SGR
GSN 4017 1700 M 0 -36 rL SGR
GSN 4043 620 M 0  36 rL SGR
GSN 4043 1700 M 0 -36 rL SGR
GSN 4216 620 M 0  36 rL SGR
GSN 4216 1700 M 0 -36 rL SGR
%
% Y axis: large tics - residual frame
%
L10
GSN 620 668 M 54 0 rL SGR
GSN 4220 668 M -54 0 rL SGR
helvS (0) 560 668 ylabelresid
GSN 620 931 M 54 0 rL SGR
GSN 4220 931 M -54 0 rL SGR
helvS (0.01) 560 931 ylabelresid
GSN 620 1194 M 54 0 rL SGR
GSN 4220 1194 M -54 0 rL SGR
helvS (0.02) 560 1194 ylabelresid
GSN 620 1458 M 54 0 rL SGR
GSN 4220 1458 M -54 0 rL SGR
helvS (0.03) 560 1458 ylabelresid

%
% X axis - residual panel
%
GSN L5 620 668 M 4220 668 L SDA G50 SGR

end
showpage
%%Trailer
%%EOF
