%!PS-Adobe-3.0 EPSF-3.0
%%BoundingBox: 0 0 514 550
%%Creator: BioKin Ltd.
%%DocumentFonts: Symbol Helvetica
%%EndComments
%
/bkdict 256 dict def
bkdict begin
/M {moveto} def 
/R {rmoveto} def
/L {lineto} def
/rL {rlineto} def
/GSN {gsave newpath} def
/SGR {stroke grestore} def
/COSGR {gsave setrgbcolor stroke grestore grestore} def
/SL {setlinewidth} def
/LWMB {12} def             % line width - model curves, black & white
/LWMC {10} def             % line width - model curves, color
/L2 {2.5 setlinewidth} def
/L5 {5 setlinewidth} def
/L10 {10 setlinewidth} def
/G50 {0.5 setgray} def
/SDA {[10  20] 0 setdash} def % axes
/helvT {/Helvetica findfont 100 scalefont setfont} def % tiny
/helvS {/Helvetica findfont 125 scalefont setfont} def % small
/helvM {/Helvetica findfont 150 scalefont setfont} def % medium
/helvL {/Helvetica findfont 175 scalefont setfont} def % large
/xlabel {gsave M dup
   stringwidth exch -0.5 mul exch rmoveto show grestore} def 
/ylabel {gsave M 90 rotate dup
   stringwidth exch -0.5 mul exch rmoveto show grestore} def
/ylabelresid {gsave M dup
   stringwidth exch -1 mul exch rmoveto show grestore} def
% ======
% Shapes
% ======
% Circle:
/Circ {0 360 arc closepath} def
%
% Square:
/Squa {dup dup -0.5 mul dup dup R -2 mul 0 exch rL 1 mul 0 rL dup 0 exch -1 mul rL closepath} def
%
% Triangle Up:
/TriU {dup dup dup -0.4 mul exch -0.5 mul exch R dup 0.5 mul exch rL dup -1 mul exch 0.5 mul exch rL closepath} def 
%
% Triangle Down:
/TriD {dup dup dup 0.4 mul exch -0.5 mul exch R dup 0.5 mul exch -1 mul rL dup 0.5 mul exch rL closepath} def 
%
% Diamond:
/Diam {45 rotate Squa} def
% ======
% Fills
% ======
/GRF {gsave setgray fill grestore} def                    % gray-level Fill
/COF {gsave setrgbcolor fill grestore} def                % color fill
% ======
% Colors
% ======
/C01 {1.00	0.00	0.00} def      % Red
/C02 {0.00	0.00	1.00} def      % Blue
/C03 {0.00	0.39	0.00} def      % Dark Green
/C04 {0.78	0.08	0.52} def      % Medium Violet Red
/C05 {0.55	0.27	0.07} def      % Saddle Brown
/C06 {0.10	0.70	0.70} def      % (cyan)
/C07 {1.00	0.55	0.00} def      % Dark Orange
/C08 {0.63	0.13	0.94} def      % Purple
/C09 {0.00	0.75	1.00} def      % Deep Sky Blue
/C10 {0.20	0.80	0.20} def      % Lime Green
/C11 {0.47	0.53	0.60} def      % Light Slate Gray
/C12 {0.00	0.00	0.00} def      % Black            % or: {0.19	0.31	0.31} def      % Dark Slate Gray
%
/LGR {0.75} def % light gray
/DGR {0.33} def % dark gray
%
% =============
% Dash patterns
% =============
/dash01 { [80  20] 0 setdash } def
/dash02 { [40  20] 0 setdash } def
/dash03 { [80  20  10  20] 0 setdash } def
/dash04 { [40  20  10  20] 0 setdash } def
/dash05 { [80  20  10  10  10  20] 0 setdash } def
/dash06 { [40  20  10  10  10  20] 0 setdash } def
/dash07 { [10  10] 0 setdash } def
%
/MFshow {
   { dup 5 get 3 ge
     { 5 get 3 eq {gsave} {grestore} ifelse }
     {dup dup 0 get findfont exch 1 get scalefont setfont
     [ currentpoint ] exch dup 2 get 0 exch R dup 5 get 2 ne {dup dup 6
     get exch 4 get {show} {stringwidth pop 0 R} ifelse }if dup 5 get 0 eq
     {dup 3 get {2 get neg 0 exch R pop} {pop aload pop M} ifelse} {dup 5
     get 1 eq {dup 2 get exch dup 3 get exch 6 get stringwidth pop -2 div
     dup 0 R} {dup 6 get stringwidth pop -2 div 0 R 6 get
     show 2 index {aload pop M neg 3 -1 roll neg R pop pop} {pop pop pop
     pop aload pop M} ifelse }ifelse }ifelse }
     ifelse }
   forall} bind def
/MFwidth {0 exch {dup 3 get{dup dup 0 get findfont exch 1 get scalefont
     setfont 6 get stringwidth pop add} {pop} ifelse} forall} bind def
/MCshow { currentpoint stroke M
  exch dup MFwidth -2 div 3 -1 roll R MFshow } def
%
end
%%EndProlog
bkdict begin
0.1 0.1 scale
%
% Model curves:
%

GSN 753 4936 M
753 4936 L
786 4936 L
820 4936 L
853 4936 L
886 4936 L
920 4936 L
929 4936 L
953 4935 L
986 4935 L
1020 4935 L
1053 4935 L
1086 4934 L
1106 4934 L
1120 4934 L
1153 4933 L
1186 4933 L
1220 4932 L
1253 4932 L
1282 4931 L
1286 4931 L
1319 4930 L
1353 4929 L
1386 4928 L
1419 4927 L
1453 4925 L
1459 4925 L
1486 4924 L
1519 4922 L
1553 4919 L
1586 4917 L
1619 4914 L
1635 4913 L
1653 4911 L
1686 4907 L
1719 4903 L
1753 4899 L
1786 4893 L
1812 4889 L
1819 4887 L
1853 4880 L
1886 4873 L
1919 4864 L
1953 4854 L
1986 4842 L
1988 4842 L
2019 4829 L
2053 4815 L
2086 4798 L
2119 4779 L
2153 4758 L
2165 4750 L
2186 4734 L
2219 4707 L
2253 4677 L
2286 4643 L
2319 4605 L
2341 4578 L
2353 4563 L
2386 4515 L
2419 4462 L
2453 4404 L
2486 4339 L
2518 4272 L
2519 4268 L
2553 4191 L
2586 4106 L
2619 4014 L
2653 3915 L
2686 3810 L
2694 3782 L
2719 3698 L
2753 3580 L
2786 3457 L
2819 3330 L
2853 3200 L
2871 3129 L
2886 3070 L
2919 2940 L
2953 2814 L
2986 2692 L
3019 2578 L
3047 2490 L
3053 2474 L
3086 2382 L
3119 2304 L
3153 2242 L
3186 2197 L
3219 2171 L
3224 2169 L
3253 2163 L
3286 2175 L
3319 2204 L
3353 2248 L
3386 2306 L
3400 2334 L
3419 2374 L
3453 2448 L
3476 2501 L
3486 2525 L
3519 2601 L
3553 2671 L
3577 2718 L
3586 2735 L
3619 2790 L
3653 2834 L
3686 2868 L
3719 2891 L
3753 2906 L
3754 2906 L
3786 2913 L
3819 2914 L
3853 2911 L
3886 2904 L
3919 2894 L
3930 2891 L
3953 2883 L
3986 2869 L
4019 2854 L
4053 2836 L
4086 2816 L
4086 2816 L
LWMC SL  C03 COSGR

%
% Experimental data:
%
GSN 777 4939 M
1388 4928 L
1552 4963 L
1652 5100 L
1723 4882 L
1778 4734 L
1824 4750 L
1863 4702 L
1896 4676 L
1926 4723 L
1952 4809 L
1976 4874 L
1998 5069 L
2019 5163 L
2037 4832 L
2055 5165 L
2071 5006 L
2086 4845 L
2101 4817 L
2115 4840 L
2128 5101 L
2140 4872 L
2152 4794 L
2163 5166 L
2174 5093 L
2184 4884 L
2194 4699 L
2204 4604 L
2213 4851 L
2222 4880 L
2230 4821 L
2239 4918 L
2247 4752 L
2255 4740 L
2262 4932 L
2270 4695 L
2277 4768 L
2284 4685 L
2290 4906 L
2297 4810 L
2303 4668 L
2310 4501 L
2316 4608 L
2322 4545 L
2328 4591 L
2333 4638 L
2339 4699 L
2344 4672 L
2350 4780 L
2355 4526 L
2360 4539 L
2365 4625 L
2370 4684 L
2375 4585 L
2380 4409 L
2384 4675 L
2389 4597 L
2393 4832 L
2398 4603 L
2402 4436 L
2407 4430 L
2411 4619 L
2415 4550 L
2419 4508 L
2423 4677 L
2427 4557 L
2431 4805 L
2435 4541 L
2438 4428 L
2442 4589 L
2446 4535 L
2449 4412 L
2453 4443 L
2456 4539 L
2460 4477 L
2463 4389 L
2467 4279 L
2470 4336 L
2473 4457 L
2476 4518 L
2480 4335 L
2483 4374 L
2486 4598 L
2489 4378 L
2492 4509 L
2495 4356 L
2498 4440 L
2501 4275 L
2504 4511 L
2507 4420 L
2510 4248 L
2512 4415 L
2515 4503 L
2518 4378 L
2521 4427 L
2523 4323 L
2526 4362 L
2529 4216 L
2531 4029 L
2534 4239 L
2536 4224 L
2539 4289 L
2541 4256 L
2544 4147 L
2546 4034 L
2549 4203 L
2551 4263 L
2554 4226 L
2556 4147 L
2558 4214 L
2561 4263 L
2563 4063 L
2565 4046 L
2568 4421 L
2570 4346 L
2572 4291 L
2574 4172 L
2576 3977 L
2579 4557 L
2581 4117 L
2583 3994 L
2585 4189 L
2587 4295 L
2589 4168 L
2591 4071 L
2593 4132 L
2595 4042 L
2597 4168 L
2599 4075 L
2601 4083 L
2603 4323 L
2605 3893 L
2607 3999 L
2609 4048 L
2611 4126 L
2613 4086 L
2615 3872 L
2617 3942 L
2618 4061 L
2620 4101 L
2622 4103 L
2624 4153 L
2626 4102 L
2627 3853 L
2629 3918 L
2631 4044 L
2633 4055 L
2634 3975 L
2636 4129 L
2638 3941 L
2640 3984 L
2641 3922 L
2643 4050 L
2645 3883 L
2646 4063 L
2648 3967 L
2650 3601 L
2651 3965 L
2653 3860 L
2654 3983 L
2656 3824 L
2658 3983 L
2659 3822 L
2661 3673 L
2662 3812 L
2664 4038 L
2665 4011 L
2667 3786 L
2668 3891 L
2670 3969 L
2671 3953 L
2673 3758 L
2674 3896 L
2676 3902 L
2677 3774 L
2679 3900 L
2680 3855 L
2682 3828 L
2683 3827 L
2685 3769 L
2686 3751 L
2687 3873 L
2689 3753 L
2690 3795 L
2692 3478 L
2693 3950 L
2694 3850 L
2696 3684 L
2697 3646 L
2698 3869 L
2700 3912 L
2701 3755 L
2702 3902 L
2704 3711 L
2705 3681 L
2706 3717 L
2708 3614 L
2709 3835 L
2710 3701 L
2712 3810 L
2713 3734 L
2714 3774 L
2715 3831 L
2717 3632 L
2718 3643 L
2719 3728 L
2720 3868 L
2722 3700 L
2723 3583 L
2724 3823 L
2725 3750 L
2726 3604 L
2728 3690 L
2729 3556 L
2730 3651 L
2731 3554 L
2732 3761 L
2734 3600 L
2735 3715 L
2736 3487 L
2737 3491 L
2738 3664 L
2739 3563 L
2741 3514 L
2742 3410 L
2743 3759 L
2744 3472 L
2745 3642 L
2746 3526 L
2747 3844 L
2748 3583 L
2749 3599 L
2751 3618 L
2752 3506 L
2753 3815 L
2754 3462 L
2755 3553 L
2756 3588 L
2757 3468 L
2758 3599 L
2759 3497 L
2760 3553 L
2761 3733 L
2762 3612 L
2763 3575 L
2764 3621 L
2765 3386 L
2767 3757 L
2768 3799 L
2769 3612 L
2770 3294 L
2771 3604 L
2772 3490 L
2773 3476 L
2774 3643 L
2775 3342 L
2776 3548 L
2777 3425 L
2778 3648 L
2779 3470 L
2780 3477 L
2781 3560 L
2782 3309 L
2783 3553 L
2783 3575 L
2784 3525 L
2785 3409 L
2786 3514 L
2787 3305 L
2788 3404 L
2789 3340 L
2790 3442 L
2791 3244 L
2792 3599 L
2793 3455 L
2794 3500 L
2795 3433 L
2796 3424 L
2797 3286 L
2798 3614 L
2798 3480 L
2799 3643 L
2800 3463 L
2801 3632 L
2802 3484 L
2803 3405 L
2804 3298 L
2805 3473 L
2806 3307 L
2807 3426 L
2807 3231 L
2808 3476 L
2809 3498 L
2810 3344 L
2811 3334 L
2812 3459 L
2813 3275 L
2813 3241 L
2814 3114 L
2815 3388 L
2816 3567 L
2817 3273 L
2818 3421 L
2819 3463 L
2819 3350 L
2820 3426 L
2821 3107 L
2822 3314 L
2823 3549 L
2824 3265 L
2824 3175 L
2825 3298 L
2826 3314 L
2827 3700 L
2828 3271 L
2828 3059 L
2829 3255 L
2830 3200 L
2831 3281 L
2832 3147 L
2832 3286 L
2833 3172 L
2834 3262 L
2835 3391 L
2836 3189 L
2836 3185 L
2837 3106 L
2838 3299 L
2839 3151 L
2840 3117 L
2840 3170 L
2841 3143 L
2842 3231 L
2843 3400 L
2843 3157 L
2844 3210 L
2845 3177 L
2846 3001 L
2846 3206 L
2847 3047 L
2848 3254 L
2849 3490 L
2849 3053 L
2850 3103 L
2851 3336 L
2852 3015 L
2852 3204 L
2853 3227 L
2854 3259 L
2855 3299 L
2855 3402 L
2856 3151 L
2857 3236 L
2857 3177 L
2858 3116 L
2859 3149 L
2860 3201 L
2860 3028 L
2861 3079 L
2862 3032 L
2862 3099 L
2863 3007 L
2864 3312 L
2865 3017 L
2865 3413 L
2866 3075 L
2867 2941 L
2867 3082 L
2868 3181 L
2869 3285 L
2869 3204 L
2870 3130 L
2871 3320 L
2871 3156 L
2872 3067 L
2873 2932 L
2873 3104 L
2874 3292 L
2875 3007 L
2876 3143 L
2876 3320 L
2877 3065 L
2878 3040 L
2878 3025 L
2879 3214 L
2880 3177 L
2880 3001 L
2881 3131 L
2881 3009 L
2882 3070 L
2883 3256 L
2883 3084 L
2884 3214 L
2885 3275 L
2885 2943 L
2886 2996 L
2887 3280 L
2887 3217 L
2888 3003 L
2889 3099 L
2889 3084 L
2892 3308 L
2894 3167 L
2897 3082 L
2899 3221 L
2902 2973 L
2904 3209 L
2907 3193 L
2909 2810 L
2911 2913 L
2914 2936 L
2916 2992 L
2918 2871 L
2921 3133 L
2923 2850 L
2925 2837 L
2927 2883 L
2929 2870 L
2932 2875 L
2934 2924 L
2936 2767 L
2938 2915 L
2940 2897 L
2942 2866 L
2944 2893 L
2946 2747 L
2948 2919 L
2950 2847 L
2952 2708 L
2954 2748 L
2956 2752 L
2958 2819 L
2960 2542 L
2962 2797 L
2964 2872 L
2966 2875 L
2968 2776 L
2970 2848 L
2971 2774 L
2973 2722 L
2975 2595 L
2977 2562 L
2979 2713 L
2980 2588 L
2982 2802 L
2984 2609 L
2986 2703 L
2987 2680 L
2989 2832 L
2991 2684 L
2993 2802 L
2994 2607 L
2996 2751 L
2998 2695 L
2999 2596 L
3001 2611 L
3003 2398 L
3004 2753 L
3006 2499 L
3007 2582 L
3009 2627 L
3011 2575 L
3012 2517 L
3014 2403 L
3015 2650 L
3017 2556 L
3018 2446 L
3020 2480 L
3021 2390 L
3023 2607 L
3024 2528 L
3026 2529 L
3027 2467 L
3029 2304 L
3030 2556 L
3032 2563 L
3033 2556 L
3035 2451 L
3036 2485 L
3038 2675 L
3039 2245 L
3040 2626 L
3042 2363 L
3043 2512 L
3045 2521 L
3046 2505 L
3047 2352 L
3049 2654 L
3050 2476 L
3051 2579 L
3053 2422 L
3054 2252 L
3055 2377 L
3057 2387 L
3058 2467 L
3059 2365 L
3061 2376 L
3062 2313 L
3063 2165 L
3065 2283 L
3066 2415 L
3067 2366 L
3068 2243 L
3070 2420 L
3071 2390 L
3072 2359 L
3073 2531 L
3075 2196 L
3076 2287 L
3077 2464 L
3078 2127 L
3079 2380 L
3081 2448 L
3082 2402 L
3083 2399 L
3084 2226 L
3085 2400 L
3087 2276 L
3088 2415 L
3089 1953 L
3090 2478 L
3091 2259 L
3092 2183 L
3094 2301 L
3095 2185 L
3096 2199 L
3097 2300 L
3098 2322 L
3099 2322 L
3100 2245 L
3101 2319 L
3103 2265 L
3104 2189 L
3105 2370 L
3106 2165 L
3107 2457 L
3108 2195 L
3109 2109 L
3110 2343 L
3111 2235 L
3112 2217 L
3113 2343 L
3114 2423 L
3115 2218 L
3116 2252 L
3117 2243 L
3119 2170 L
3120 2224 L
3121 2022 L
3122 2220 L
3123 2078 L
3124 2001 L
3125 2103 L
3126 2171 L
3127 2103 L
3128 2018 L
3129 2248 L
3130 2180 L
3131 1967 L
3132 2217 L
3133 2115 L
3134 2447 L
3135 2101 L
3136 2098 L
3136 2021 L
3137 2065 L
3138 2146 L
3139 2328 L
3140 2304 L
3141 2222 L
3142 2105 L
3143 2192 L
3144 2133 L
3145 2240 L
3146 2074 L
3147 2076 L
3148 2349 L
3149 2042 L
3150 2104 L
3151 2121 L
3151 2139 L
3152 2257 L
3153 2170 L
3154 1997 L
3155 2080 L
3156 2077 L
3157 2166 L
3158 2206 L
3159 2061 L
3160 2060 L
3160 2069 L
3161 1984 L
3162 2045 L
3163 2102 L
3164 2152 L
3165 2185 L
3166 2001 L
3166 2100 L
3167 2070 L
3168 2001 L
3169 1972 L
3170 1984 L
3171 2060 L
3172 2148 L
3172 2208 L
3173 2057 L
3174 2250 L
3175 2105 L
3176 2292 L
3177 2016 L
3177 2082 L
3178 2144 L
3179 2317 L
3180 2153 L
3181 1870 L
3181 2058 L
3182 2160 L
3183 2002 L
3184 2116 L
3185 2112 L
3185 1946 L
3186 2092 L
3187 2070 L
3188 2093 L
3189 2213 L
3189 2016 L
3190 2043 L
3191 2229 L
3192 2148 L
3193 2033 L
3193 2223 L
3194 2066 L
3195 2021 L
3196 2062 L
3196 1977 L
3197 2062 L
3198 2032 L
3199 1842 L
3199 2158 L
3200 2071 L
3201 2104 L
3202 2016 L
3202 2228 L
3203 2035 L
3204 1893 L
3205 1944 L
3205 1902 L
3206 1994 L
3207 2241 L
3208 2009 L
3208 2129 L
3209 2174 L
3210 2173 L
3210 1846 L
3211 1957 L
3212 2108 L
3213 2222 L
3213 2084 L
3214 2089 L
3215 2152 L
3215 1986 L
3216 2039 L
3217 2217 L
3218 2140 L
3218 2034 L
3219 1903 L
3220 2222 L
3220 2078 L
3221 2417 L
3222 2136 L
3222 2376 L
3223 2146 L
3224 2328 L
3224 1860 L
3225 2036 L
3226 2105 L
3227 1990 L
3227 2244 L
3228 1916 L
3229 2195 L
3229 1970 L
3230 2131 L
3231 2103 L
3231 1900 L
3232 2181 L
3233 1888 L
3233 2177 L
3234 2007 L
3235 2248 L
3235 2057 L
3236 2090 L
3236 2109 L
3237 2064 L
3238 1959 L
3238 2070 L
3239 2187 L
3240 2091 L
3240 2066 L
3241 2140 L
3242 2015 L
3242 1976 L
3243 1884 L
3244 2127 L
3244 1982 L
3245 2202 L
3245 2027 L
3246 2083 L
3247 2072 L
3247 1833 L
3248 2016 L
3249 2293 L
3249 2127 L
3250 1943 L
3250 2029 L
3251 2135 L
3252 2095 L
3252 2120 L
3253 2015 L
3253 2001 L
3254 2106 L
3255 2135 L
3255 2142 L
3256 1894 L
3257 2262 L
3257 1983 L
3258 2188 L
3258 2058 L
3259 2354 L
3259 1944 L
3260 2175 L
3261 2064 L
3261 2024 L
3262 2048 L
3262 2165 L
3263 2232 L
3264 2209 L
3264 2129 L
3265 2095 L
3265 2240 L
3266 1942 L
3267 1976 L
3267 2138 L
3268 1978 L
3268 2147 L
3269 2232 L
3269 2052 L
3270 2172 L
3271 2005 L
3271 2117 L
3272 1999 L
3272 2206 L
3273 2041 L
3273 2188 L
3274 2134 L
3275 2201 L
3275 2142 L
3276 2067 L
3276 1986 L
3277 2237 L
3277 2223 L
3278 2177 L
3278 2009 L
3279 2079 L
3280 2222 L
3280 2238 L
3281 2049 L
3281 2147 L
3282 2137 L
3282 2137 L
3283 2114 L
3283 2216 L
3284 2049 L
3284 2145 L
3285 2138 L
3285 2072 L
3286 2347 L
3287 2037 L
3287 2182 L
3288 2198 L
3288 2225 L
3289 2092 L
3289 2107 L
3290 2152 L
3290 2318 L
3291 1991 L
3291 2284 L
3292 2048 L
3292 2173 L
3293 2267 L
3293 2009 L
3294 2047 L
3294 2201 L
3295 2141 L
3295 2185 L
3296 2133 L
3297 2089 L
3297 2192 L
3298 2074 L
3298 2254 L
3299 2179 L
3299 2227 L
3300 1995 L
3300 2078 L
3301 2108 L
3301 2127 L
3302 2013 L
3302 2088 L
3303 1919 L
3303 2311 L
3304 2055 L
3304 2269 L
3305 2278 L
3305 2079 L
3306 2014 L
3306 2257 L
3307 2314 L
3307 2171 L
3308 2047 L
3308 2070 L
3309 2120 L
3309 2188 L
3310 2079 L
3310 2330 L
3311 2105 L
3311 2177 L
3312 2192 L
3312 2305 L
3312 1932 L
3313 2370 L
3313 2067 L
3314 2112 L
3314 2275 L
3315 2030 L
3315 2122 L
3316 2157 L
3316 2284 L
3317 2215 L
3317 2412 L
3318 2030 L
3318 2125 L
3319 2212 L
3319 2028 L
3320 2181 L
3320 2153 L
3321 2133 L
3321 1956 L
3321 2138 L
3322 2164 L
3322 2147 L
3323 2152 L
3323 2121 L
3324 2420 L
3324 2159 L
3325 2269 L
3325 2313 L
3326 2346 L
3326 2296 L
3327 2106 L
3327 2256 L
3327 2433 L
3328 2232 L
3328 2098 L
3329 2275 L
3329 2031 L
3330 2258 L
3330 2074 L
3331 2240 L
3331 2239 L
3332 2420 L
3332 2167 L
3332 2083 L
3333 2238 L
3333 2556 L
3334 2064 L
3334 1974 L
3335 2262 L
3335 2171 L
3336 2195 L
3336 2179 L
3336 2102 L
3337 2300 L
3337 1997 L
3338 2359 L
3338 2085 L
3339 2387 L
3339 2049 L
3339 2361 L
3340 2214 L
3340 2089 L
3341 2259 L
3341 2264 L
3342 2325 L
3342 2165 L
3343 2246 L
3343 2224 L
3343 2099 L
3344 2259 L
3344 2112 L
3345 2072 L
3345 2224 L
3346 2186 L
3346 2077 L
3346 2269 L
3347 2336 L
3347 2218 L
3348 2195 L
3348 2299 L
3348 2290 L
3349 2074 L
3349 2278 L
3350 2009 L
3350 2165 L
3351 2131 L
3351 2289 L
3351 2312 L
3352 2390 L
3352 2133 L
3353 2118 L
3353 2212 L
3353 2200 L
3354 2198 L
3354 2129 L
3355 2147 L
3355 2228 L
3355 2335 L
3356 2213 L
3356 2263 L
3357 2187 L
3357 2259 L
3358 2179 L
3358 2527 L
3358 2200 L
3359 2311 L
3359 2355 L
3360 2177 L
3360 2346 L
3360 2191 L
3361 2532 L
3361 2218 L
3362 2267 L
3362 2392 L
3362 2201 L
3363 1974 L
3363 2305 L
3364 2198 L
3364 2397 L
3364 2324 L
3365 1995 L
3365 2330 L
3365 2407 L
3366 2389 L
3366 2369 L
3367 2224 L
3367 2238 L
3367 2244 L
3368 2221 L
3368 2438 L
3369 2168 L
3369 2357 L
3369 2329 L
3370 2257 L
3370 2326 L
3371 2270 L
3371 2351 L
3371 2315 L
3372 2284 L
3372 2207 L
3372 2192 L
3373 1974 L
3373 2208 L
3374 1965 L
3374 2306 L
3374 2022 L
3375 2351 L
3375 2368 L
3375 2174 L
3376 2343 L
3376 2182 L
3377 2290 L
3377 2661 L
3377 2368 L
3378 2244 L
3378 2035 L
3378 2296 L
3379 2194 L
3379 2381 L
3380 2214 L
3380 2221 L
3380 2305 L
3381 2495 L
3381 2176 L
3381 2324 L
3382 2295 L
3382 2143 L
3383 2277 L
3383 2192 L
3383 2426 L
3384 2182 L
3384 2630 L
3384 2227 L
3385 2389 L
3385 2381 L
3385 2329 L
3386 2221 L
3386 2477 L
3387 2278 L
3387 2322 L
3387 2483 L
3388 2131 L
3388 2255 L
3388 2335 L
3389 2247 L
3389 2397 L
3389 2239 L
3390 2217 L
3390 2457 L
3391 2250 L
3391 2357 L
3391 2218 L
3392 2333 L
3392 2246 L
3392 2447 L
3393 2219 L
3393 2466 L
3393 2384 L
3394 2353 L
3394 2127 L
3394 2199 L
3395 2256 L
3395 2169 L
3395 2273 L
3396 2416 L
3396 2229 L
3396 2273 L
3397 2222 L
3397 2317 L
3398 2328 L
3398 2229 L
3398 2303 L
3399 2250 L
3399 2275 L
3399 2231 L
3400 2266 L
3400 2262 L
3400 2234 L
3401 2435 L
3401 2186 L
3401 2359 L
3402 2495 L
3402 2376 L
3402 2481 L
3403 2383 L
3403 2327 L
3403 2460 L
3404 2391 L
3404 2469 L
3404 2524 L
3405 2483 L
3405 2227 L
3405 2345 L
3406 2297 L
3406 2242 L
3406 2315 L
3407 2335 L
3407 2328 L
3407 2361 L
3408 2375 L
3408 2357 L
3408 2430 L
3409 2461 L
3409 2237 L
3409 2420 L
3410 2207 L
3410 2296 L
3410 2477 L
3411 2481 L
3411 2264 L
3411 2371 L
3412 2541 L
3412 2490 L
3412 2271 L
3413 2430 L
3413 2272 L
3413 2277 L
3414 2439 L
3414 2374 L
3414 2357 L
3415 2320 L
3415 2104 L
3415 2417 L
3416 2525 L
3416 2249 L
3416 2450 L
3417 2203 L
3417 2394 L
3417 2378 L
3417 2316 L
3418 2410 L
3418 2466 L
3418 2414 L
3419 2433 L
3419 2317 L
3419 2185 L
3420 2387 L
3420 2709 L
3420 2465 L
3421 2398 L
3421 2317 L
3421 2390 L
3422 2286 L
3422 2357 L
3422 2372 L
3423 2550 L
3423 2288 L
3423 2473 L
3423 2301 L
3424 2498 L
3424 2496 L
3424 2462 L
3425 2527 L
3425 2369 L
3425 2363 L
3426 2330 L
3426 2272 L
3426 2460 L
3427 2533 L
3427 2274 L
3427 2431 L
3428 2324 L
3428 2889 L
3428 2494 L
3428 2298 L
3429 2261 L
3429 2375 L
3429 2642 L
3430 2431 L
3430 2391 L
3430 2349 L
3431 2462 L
3431 2287 L
3431 2538 L
3431 2497 L
3432 2391 L
3432 2371 L
3432 2341 L
3433 2418 L
3433 2494 L
3433 2331 L
3434 2402 L
3434 2539 L
3434 2275 L
3434 2611 L
3435 2508 L
3435 2581 L
3435 2549 L
3436 2425 L
3436 2401 L
3436 2453 L
3437 2389 L
3437 2440 L
3437 2327 L
3437 2374 L
3438 2524 L
3438 2515 L
3438 2527 L
3439 2473 L
3439 2484 L
3439 2615 L
3440 2630 L
3440 2339 L
3440 2401 L
3440 2505 L
3441 2508 L
3441 2319 L
3441 2353 L
3442 2472 L
3442 2636 L
3442 2590 L
3442 2762 L
3443 2579 L
3443 2497 L
3443 2452 L
3444 2456 L
3444 2447 L
3444 2382 L
3444 2584 L
3445 2175 L
3445 2725 L
3445 2391 L
3446 2327 L
3446 2424 L
3446 2624 L
3446 2316 L
3447 2462 L
3447 2367 L
3447 2463 L
3448 2525 L
3448 2561 L
3448 2519 L
3448 2403 L
3449 2546 L
3449 2623 L
3449 2612 L
3450 2243 L
3450 2340 L
3450 2386 L
3450 2502 L
3451 2267 L
3451 2368 L
3451 2410 L
3452 2544 L
3452 2472 L
3452 2427 L
3452 2483 L
3453 2273 L
3453 2462 L
3453 2384 L
3454 2573 L
3454 2501 L
3454 2523 L
3454 2474 L
3455 2613 L
3455 2418 L
3455 2505 L
3455 2447 L
3456 2324 L
3456 2512 L
3456 2589 L
3457 2336 L
3457 2431 L
3457 2248 L
3457 2512 L
3458 2337 L
3458 2514 L
3458 2468 L
3458 2654 L
3459 2454 L
3459 2631 L
3459 2444 L
3460 2605 L
3460 2609 L
3460 2385 L
3460 2397 L
3461 2424 L
3461 2543 L
3461 2584 L
3461 2345 L
3462 2487 L
3462 2517 L
3462 2471 L
3463 2546 L
3463 2356 L
3463 2395 L
3463 2530 L
3464 2483 L
3464 2385 L
3464 2447 L
3464 2531 L
3465 2675 L
3465 2344 L
3465 2623 L
3465 2436 L
3466 2446 L
3466 2586 L
3466 2551 L
3466 2379 L
3467 2482 L
3467 2479 L
3467 2583 L
3468 2597 L
3468 2554 L
3468 2518 L
3468 2611 L
3469 2634 L
3469 2634 L
3469 2594 L
3469 2468 L
3470 2548 L
3470 2432 L
3470 2612 L
3470 2643 L
3471 2567 L
3471 2743 L
3471 2535 L
3471 2693 L
3472 2693 L
3472 2548 L
3472 2460 L
3472 2632 L
3473 2577 L
3473 2574 L
3473 2370 L
3474 2726 L
3474 2498 L
3474 2582 L
3474 2523 L
3475 2347 L
3475 2554 L
3475 2482 L
3475 2541 L
3476 2531 L
3476 2626 L
3476 2426 L
3476 2467 L
3477 2468 L
3477 2424 L
3477 2571 L
3477 2544 L
3478 2515 L
3478 2601 L
3478 2578 L
3478 2457 L
3479 2507 L
3479 2531 L
3479 2584 L
3479 2569 L
3480 2550 L
3480 2609 L
3480 2498 L
3480 2559 L
3481 2636 L
3481 2515 L
3481 2682 L
3481 2705 L
3482 2625 L
3482 2586 L
3482 2521 L
3482 2647 L
3483 2667 L
3483 2659 L
3483 2689 L
3483 2490 L
3484 2601 L
3484 2532 L
3484 2448 L
3484 2418 L
3485 2582 L
3485 2492 L
3485 2539 L
3485 2342 L
3486 2660 L
3486 2419 L
3486 2396 L
3486 2548 L
3487 2606 L
3487 2427 L
3487 2505 L
3487 2499 L
3488 2632 L
3488 2637 L
3488 2701 L
3488 2447 L
3488 2731 L
3489 2545 L
3489 2454 L
3489 2389 L
3489 2724 L
3490 2600 L
3490 2678 L
3490 2433 L
3490 2451 L
3491 2818 L
3491 2734 L
3491 2378 L
3491 2527 L
3492 2384 L
3492 2536 L
3492 2629 L
3492 2489 L
3493 2633 L
3493 2667 L
3493 2595 L
3493 2535 L
3494 2521 L
3494 2538 L
3494 2439 L
3494 2590 L
3494 2387 L
3495 2557 L
3495 2603 L
3495 2638 L
3495 2495 L
3496 2452 L
3496 2479 L
3496 2843 L
3496 2368 L
3497 2653 L
3497 2583 L
3497 2585 L
3497 2646 L
3498 2602 L
3498 2715 L
3498 2569 L
3498 2476 L
3498 2639 L
3499 2726 L
3499 2748 L
3499 2628 L
3499 2793 L
3500 2528 L
3500 2587 L
3506 2735 L
3511 2505 L
3517 2669 L
3522 2722 L
3527 2806 L
3532 2657 L
3537 2727 L
3542 2735 L
3547 2651 L
3552 2806 L
3557 2732 L
3561 2633 L
3566 2717 L
3570 2917 L
3575 2879 L
3579 2795 L
3583 2991 L
3587 2985 L
3591 3035 L
3595 2728 L
3599 2831 L
3603 2802 L
3607 2775 L
3611 2832 L
3614 2696 L
3618 2914 L
3622 2800 L
3625 2683 L
3629 2699 L
3632 2947 L
3636 3051 L
3639 2887 L
3642 2778 L
3646 2825 L
3649 2909 L
3652 2982 L
3655 2915 L
3658 3176 L
3661 2766 L
3664 2578 L
3667 2834 L
3670 2765 L
3673 2890 L
3676 2901 L
3679 2799 L
3682 2859 L
3685 3020 L
3688 2705 L
3690 2943 L
3693 2838 L
3696 2808 L
3698 2990 L
3701 2704 L
3704 2706 L
3706 2806 L
3709 2837 L
3711 2920 L
3714 2928 L
3716 2901 L
3719 2921 L
3721 2718 L
3724 3030 L
3726 2541 L
3728 2971 L
3731 3036 L
3733 2916 L
3735 2814 L
3738 2920 L
3740 2953 L
3742 2893 L
3744 3012 L
3747 2887 L
3749 3172 L
3751 2876 L
3753 2911 L
3755 3095 L
3757 2967 L
3760 2958 L
3762 3223 L
3764 2919 L
3766 2966 L
3768 2755 L
3770 2892 L
3772 2911 L
3774 2949 L
3776 2924 L
3778 3032 L
3780 2885 L
3781 2875 L
3783 2940 L
3785 2789 L
3787 2985 L
3789 2858 L
3791 2939 L
3793 2983 L
3795 2905 L
3796 2816 L
3798 2714 L
3800 3057 L
3802 2924 L
3803 2864 L
3805 2913 L
3807 3028 L
3809 3012 L
3810 2725 L
3812 2786 L
3814 3061 L
3816 2990 L
3817 2715 L
3819 2749 L
3820 2682 L
3822 2963 L
3824 2979 L
3825 2851 L
3827 2789 L
3829 3080 L
3830 2896 L
3832 3008 L
3833 2904 L
3835 2815 L
3836 2931 L
3838 2824 L
3839 2977 L
3841 3158 L
3842 3051 L
3844 2804 L
3845 2969 L
3847 3114 L
3848 2867 L
3850 2868 L
3851 3113 L
3853 2726 L
3854 2955 L
3856 2755 L
3857 3002 L
3859 2951 L
3860 3044 L
3861 2943 L
3863 2906 L
3864 2921 L
3866 2880 L
3867 2857 L
3868 2931 L
3870 2839 L
3871 3083 L
3872 3072 L
3874 2980 L
3875 2752 L
3876 3310 L
3878 3030 L
3879 2843 L
3880 3057 L
3882 2754 L
3883 2832 L
3884 2915 L
3885 3102 L
3887 2942 L
3888 2947 L
3889 2936 L
3890 3069 L
3892 3098 L
3893 3112 L
3894 2892 L
3895 2874 L
3897 2864 L
3898 2985 L
3899 2955 L
3900 2858 L
3901 3038 L
3903 3085 L
3904 2923 L
3905 2940 L
3906 2702 L
3907 2788 L
3908 2860 L
3910 2616 L
3911 2962 L
3912 2836 L
3913 2986 L
3914 3091 L
3915 2673 L
3917 2778 L
3918 2571 L
3919 2980 L
3920 2887 L
3921 3029 L
3922 2856 L
3923 2981 L
3924 3121 L
3925 3019 L
3926 2980 L
3928 3022 L
3929 2944 L
3930 2909 L
3931 3026 L
3932 2905 L
3933 2788 L
3934 2732 L
3935 3041 L
3936 2855 L
3937 3026 L
3938 2899 L
3939 3086 L
3940 2794 L
3941 2885 L
3942 3025 L
3943 3005 L
3944 2918 L
3945 3225 L
3946 2909 L
3947 2698 L
3948 2797 L
3949 2795 L
3950 3140 L
3951 2891 L
3952 2851 L
3953 2860 L
3954 2831 L
3955 2859 L
3956 2987 L
3957 3074 L
3958 2900 L
3959 2947 L
3960 2772 L
3961 2802 L
3962 2811 L
3963 3088 L
3964 2849 L
3965 2958 L
3966 3070 L
3966 2744 L
3967 2842 L
3968 2879 L
3969 2798 L
3970 2846 L
3971 2831 L
3972 2845 L
3973 2889 L
3974 2946 L
3975 2701 L
3976 2800 L
3976 2817 L
3977 2614 L
3978 2906 L
3979 2943 L
3980 2958 L
3981 2996 L
3982 2997 L
3983 2854 L
3983 2620 L
3984 2620 L
3985 3007 L
3986 2751 L
3987 2986 L
3988 2863 L
3989 2826 L
3989 2933 L
3990 2703 L
3991 2782 L
3992 2805 L
3993 2848 L
3994 2864 L
3995 2876 L
3995 2728 L
3996 2854 L
3997 2753 L
3998 2841 L
3999 2968 L
3999 2929 L
4000 2682 L
4001 2673 L
4002 2770 L
4003 2919 L
4003 2905 L
4004 3113 L
4005 3000 L
4006 2791 L
4007 3002 L
4007 2874 L
4008 2631 L
4009 2851 L
4010 2906 L
4011 2933 L
4011 2618 L
4012 2817 L
4013 2707 L
4014 3036 L
4014 2749 L
4015 2901 L
4016 2867 L
4017 2875 L
4017 2964 L
4018 3007 L
4019 3085 L
4020 2943 L
4021 3075 L
4021 2838 L
4022 2974 L
4023 2866 L
4023 2761 L
4024 2920 L
4025 3118 L
4026 2780 L
4026 2889 L
4027 2843 L
4028 2864 L
4029 3001 L
4029 2920 L
4030 2981 L
4031 2898 L
4032 2777 L
4032 3003 L
4033 2924 L
4034 2859 L
4034 2902 L
4035 3106 L
4036 2825 L
4036 2746 L
4037 3070 L
4038 2927 L
4039 2875 L
4039 2979 L
4040 2829 L
4041 2952 L
4041 2905 L
4042 2720 L
4043 2721 L
4043 2798 L
4044 2948 L
4045 2864 L
4045 2730 L
4046 2751 L
4047 2909 L
4047 2867 L
4048 2815 L
4049 2916 L
4050 3102 L
4050 2876 L
4051 3080 L
4052 2604 L
4052 2969 L
4053 2685 L
4053 3063 L
4054 3097 L
4055 2564 L
4055 2863 L
4056 2981 L
4057 2761 L
4057 3005 L
4058 2918 L
4059 2844 L
4059 2631 L
4060 2884 L
4061 2474 L
4061 2898 L
4062 2608 L
L2 C03 COSGR

%
%================
% Legend - Begin
%================
%
GSN 4240 5180 M
4480 5180 L
LWMC SL  C03 COSGR
GSN 4540 5141 M helvM (1.5 uM) show grestore
%
%================
% Legend - End
%================
%

%
% Residuals:
%
GSN 777 1128 M
1388 1126 L
1552 1165 L
1652 1294 L
1723 1107 L
1778 983 L
1824 1005 L
1863 969 L
1896 953 L
1926 1002 L
1952 1086 L
1976 1151 L
1998 1332 L
2019 1423 L
2037 1135 L
2055 1439 L
2071 1305 L
2086 1168 L
2101 1150 L
2115 1177 L
2128 1417 L
2140 1220 L
2152 1157 L
2163 1496 L
2174 1437 L
2184 1258 L
2194 1100 L
2204 1022 L
2213 1249 L
2222 1282 L
2230 1236 L
2239 1329 L
2247 1187 L
2255 1183 L
2262 1361 L
2270 1157 L
2277 1228 L
2284 1161 L
2290 1365 L
2297 1285 L
2303 1165 L
2310 1023 L
2316 1125 L
2322 1075 L
2328 1122 L
2333 1170 L
2339 1231 L
2344 1213 L
2350 1316 L
2355 1096 L
2360 1114 L
2365 1196 L
2370 1256 L
2375 1174 L
2380 1023 L
2384 1266 L
2389 1203 L
2393 1418 L
2398 1220 L
2402 1078 L
2407 1078 L
2411 1253 L
2415 1197 L
2419 1166 L
2423 1323 L
2427 1221 L
2431 1448 L
2435 1219 L
2438 1124 L
2442 1274 L
2446 1231 L
2449 1127 L
2453 1161 L
2456 1252 L
2460 1203 L
2463 1130 L
2467 1038 L
2470 1094 L
2473 1208 L
2476 1267 L
2480 1110 L
2483 1151 L
2486 1356 L
2489 1166 L
2492 1288 L
2495 1158 L
2498 1238 L
2501 1096 L
2504 1312 L
2507 1236 L
2510 1089 L
2512 1243 L
2515 1326 L
2518 1221 L
2521 1270 L
2523 1182 L
2526 1222 L
2529 1097 L
2531 936 L
2534 1129 L
2536 1121 L
2539 1184 L
2541 1160 L
2544 1068 L
2546 973 L
2549 1129 L
2551 1187 L
2554 1160 L
2556 1094 L
2558 1159 L
2561 1208 L
2563 1034 L
2565 1025 L
2568 1364 L
2570 1302 L
2572 1258 L
2574 1157 L
2576 989 L
2579 1510 L
2581 1123 L
2583 1018 L
2585 1197 L
2587 1297 L
2589 1188 L
2591 1106 L
2593 1166 L
2595 1091 L
2597 1208 L
2599 1130 L
2601 1142 L
2603 1360 L
2605 982 L
2607 1081 L
2609 1130 L
2611 1204 L
2613 1173 L
2615 987 L
2617 1054 L
2618 1165 L
2620 1205 L
2622 1212 L
2624 1261 L
2626 1220 L
2627 1003 L
2629 1065 L
2631 1182 L
2633 1196 L
2634 1129 L
2636 1272 L
2638 1108 L
2640 1152 L
2641 1101 L
2643 1220 L
2645 1075 L
2646 1239 L
2648 1158 L
2650 837 L
2651 1166 L
2653 1076 L
2654 1190 L
2656 1054 L
2658 1199 L
2659 1060 L
2661 932 L
2662 1060 L
2664 1266 L
2665 1246 L
2667 1050 L
2668 1147 L
2670 1222 L
2671 1211 L
2673 1042 L
2674 1169 L
2676 1178 L
2677 1069 L
2679 1185 L
2680 1150 L
2682 1130 L
2683 1133 L
2685 1085 L
2686 1073 L
2687 1186 L
2689 1083 L
2690 1124 L
2692 846 L
2693 1271 L
2694 1186 L
2696 1042 L
2697 1012 L
2698 1215 L
2700 1257 L
2701 1121 L
2702 1256 L
2704 1090 L
2705 1067 L
2706 1104 L
2708 1016 L
2709 1216 L
2710 1101 L
2712 1201 L
2713 1138 L
2714 1178 L
2715 1232 L
2717 1059 L
2718 1072 L
2719 1152 L
2720 1280 L
2722 1134 L
2723 1034 L
2724 1252 L
2725 1190 L
2726 1064 L
2728 1145 L
2729 1029 L
2730 1117 L
2731 1034 L
2732 1222 L
2734 1082 L
2735 1189 L
2736 989 L
2737 997 L
2738 1154 L
2739 1068 L
2741 1028 L
2742 938 L
2743 1253 L
2744 1001 L
2745 1156 L
2746 1057 L
2747 1344 L
2748 1114 L
2749 1132 L
2751 1153 L
2752 1057 L
2753 1335 L
2754 1024 L
2755 1109 L
2756 1144 L
2757 1040 L
2758 1160 L
2759 1073 L
2760 1126 L
2761 1290 L
2762 1186 L
2763 1156 L
2764 1201 L
2765 994 L
2767 1329 L
2768 1370 L
2769 1206 L
2770 926 L
2771 1205 L
2772 1107 L
2773 1099 L
2774 1250 L
2775 985 L
2776 1172 L
2777 1066 L
2778 1268 L
2779 1112 L
2780 1122 L
2781 1200 L
2782 979 L
2783 1199 L
2783 1223 L
2784 1181 L
2785 1081 L
2786 1177 L
2787 995 L
2788 1086 L
2789 1032 L
2790 1126 L
2791 952 L
2792 1272 L
2793 1148 L
2794 1190 L
2795 1134 L
2796 1129 L
2797 1009 L
2798 1304 L
2798 1188 L
2799 1336 L
2800 1179 L
2801 1333 L
2802 1204 L
2803 1136 L
2804 1044 L
2805 1203 L
2806 1058 L
2807 1167 L
2807 996 L
2808 1218 L
2809 1240 L
2810 1107 L
2811 1100 L
2812 1214 L
2813 1054 L
2813 1026 L
2814 915 L
2815 1163 L
2816 1326 L
2817 1066 L
2818 1201 L
2819 1242 L
2819 1143 L
2820 1214 L
2821 933 L
2822 1120 L
2823 1332 L
2824 1082 L
2824 1005 L
2825 1117 L
2826 1134 L
2827 1481 L
2828 1102 L
2828 916 L
2829 1093 L
2830 1046 L
2831 1122 L
2832 1005 L
2832 1132 L
2833 1033 L
2834 1116 L
2835 1234 L
2836 1056 L
2836 1055 L
2837 988 L
2838 1162 L
2839 1033 L
2840 1005 L
2840 1055 L
2841 1034 L
2842 1115 L
2843 1268 L
2843 1054 L
2844 1105 L
2845 1078 L
2846 923 L
2846 1109 L
2847 970 L
2848 1156 L
2849 1369 L
2849 982 L
2850 1030 L
2851 1240 L
2852 957 L
2852 1128 L
2853 1150 L
2854 1182 L
2855 1220 L
2855 1314 L
2856 1093 L
2857 1171 L
2857 1121 L
2858 1069 L
2859 1101 L
2860 1150 L
2860 999 L
2861 1046 L
2862 1007 L
2862 1069 L
2863 990 L
2864 1264 L
2865 1003 L
2865 1358 L
2866 1060 L
2867 943 L
2867 1071 L
2868 1162 L
2869 1257 L
2869 1187 L
2870 1123 L
2871 1295 L
2871 1151 L
2872 1074 L
2873 957 L
2873 1112 L
2874 1282 L
2875 1030 L
2876 1154 L
2876 1314 L
2877 1089 L
2878 1069 L
2878 1058 L
2879 1229 L
2880 1198 L
2880 1044 L
2881 1161 L
2881 1056 L
2882 1112 L
2883 1280 L
2883 1129 L
2884 1248 L
2885 1304 L
2885 1010 L
2886 1060 L
2887 1315 L
2887 1261 L
2888 1073 L
2889 1160 L
2889 1150 L
2892 1358 L
2894 1241 L
2897 1174 L
2899 1307 L
2902 1095 L
2904 1313 L
2907 1307 L
2909 974 L
2911 1074 L
2914 1102 L
2916 1160 L
2918 1060 L
2921 1301 L
2923 1056 L
2925 1052 L
2927 1102 L
2929 1097 L
2932 1109 L
2934 1160 L
2936 1027 L
2938 1167 L
2940 1157 L
2942 1137 L
2944 1167 L
2946 1044 L
2948 1205 L
2950 1147 L
2952 1030 L
2954 1072 L
2956 1082 L
2958 1148 L
2960 908 L
2962 1142 L
2964 1214 L
2966 1224 L
2968 1141 L
2970 1212 L
2971 1152 L
2973 1111 L
2975 1004 L
2977 980 L
2979 1121 L
2980 1015 L
2982 1211 L
2984 1044 L
2986 1134 L
2987 1119 L
2989 1260 L
2991 1133 L
2993 1244 L
2994 1076 L
2996 1209 L
2998 1164 L
2999 1081 L
3001 1099 L
3003 915 L
3004 1237 L
3006 1015 L
3007 1094 L
3009 1138 L
3011 1097 L
3012 1050 L
3014 953 L
3015 1178 L
3017 1099 L
3018 1005 L
3020 1040 L
3021 964 L
3023 1161 L
3024 1096 L
3026 1101 L
3027 1050 L
3029 909 L
3030 1137 L
3032 1148 L
3033 1146 L
3035 1057 L
3036 1090 L
3038 1264 L
3039 885 L
3040 1228 L
3042 998 L
3043 1134 L
3045 1146 L
3046 1135 L
3047 1003 L
3049 1275 L
3050 1120 L
3051 1216 L
3053 1080 L
3054 931 L
3055 1046 L
3057 1059 L
3058 1133 L
3059 1046 L
3061 1059 L
3062 1006 L
3063 878 L
3065 986 L
3066 1107 L
3067 1067 L
3068 960 L
3070 1121 L
3071 1097 L
3072 1073 L
3073 1229 L
3075 933 L
3076 1017 L
3077 1178 L
3078 881 L
3079 1109 L
3081 1172 L
3082 1134 L
3083 1135 L
3084 983 L
3085 1141 L
3087 1032 L
3088 1159 L
3089 750 L
3090 1221 L
3091 1028 L
3092 963 L
3094 1071 L
3095 970 L
3096 985 L
3097 1077 L
3098 1099 L
3099 1102 L
3100 1035 L
3101 1103 L
3103 1058 L
3104 992 L
3105 1156 L
3106 976 L
3107 1238 L
3108 1007 L
3109 932 L
3110 1142 L
3111 1049 L
3112 1035 L
3113 1149 L
3114 1223 L
3115 1042 L
3116 1075 L
3117 1068 L
3119 1005 L
3120 1055 L
3121 877 L
3122 1055 L
3123 930 L
3124 864 L
3125 957 L
3126 1019 L
3127 960 L
3128 886 L
3129 1093 L
3130 1034 L
3131 846 L
3132 1071 L
3133 981 L
3134 1279 L
3135 973 L
3136 971 L
3136 904 L
3137 945 L
3138 1018 L
3139 1183 L
3140 1163 L
3141 1091 L
3142 988 L
3143 1067 L
3144 1016 L
3145 1113 L
3146 967 L
3147 969 L
3148 1214 L
3149 942 L
3150 999 L
3151 1015 L
3151 1032 L
3152 1139 L
3153 1063 L
3154 910 L
3155 985 L
3156 984 L
3157 1064 L
3158 1102 L
3159 973 L
3160 973 L
3160 983 L
3161 908 L
3162 963 L
3163 1016 L
3164 1061 L
3165 1092 L
3166 928 L
3166 1018 L
3167 992 L
3168 932 L
3169 907 L
3170 919 L
3171 987 L
3172 1067 L
3172 1121 L
3173 988 L
3174 1161 L
3175 1032 L
3176 1200 L
3177 955 L
3177 1015 L
3178 1071 L
3179 1226 L
3180 1080 L
3181 829 L
3181 997 L
3182 1090 L
3183 949 L
3184 1052 L
3185 1049 L
3185 901 L
3186 1033 L
3187 1013 L
3188 1035 L
3189 1143 L
3189 968 L
3190 992 L
3191 1159 L
3192 1088 L
3193 985 L
3193 1155 L
3194 1016 L
3195 977 L
3196 1014 L
3196 939 L
3197 1015 L
3198 990 L
3199 820 L
3199 1103 L
3200 1026 L
3201 1055 L
3202 977 L
3202 1167 L
3203 996 L
3204 870 L
3205 916 L
3205 878 L
3206 961 L
3207 1182 L
3208 976 L
3208 1083 L
3209 1123 L
3210 1123 L
3210 831 L
3211 931 L
3212 1066 L
3213 1168 L
3213 1046 L
3214 1051 L
3215 1107 L
3215 959 L
3216 1007 L
3217 1166 L
3218 1098 L
3218 1004 L
3219 887 L
3220 1172 L
3220 1044 L
3221 1346 L
3222 1096 L
3222 1310 L
3223 1105 L
3224 1268 L
3224 851 L
3225 1008 L
3226 1070 L
3227 968 L
3227 1194 L
3228 902 L
3229 1151 L
3229 950 L
3230 1094 L
3231 1069 L
3231 889 L
3232 1140 L
3233 879 L
3233 1136 L
3234 985 L
3235 1200 L
3235 1030 L
3236 1059 L
3236 1076 L
3237 1037 L
3238 943 L
3238 1042 L
3239 1147 L
3240 1061 L
3240 1039 L
3241 1105 L
3242 993 L
3242 958 L
3243 877 L
3244 1093 L
3244 965 L
3245 1160 L
3245 1004 L
3246 1054 L
3247 1044 L
3247 831 L
3248 995 L
3249 1242 L
3249 1093 L
3250 930 L
3250 1006 L
3251 1101 L
3252 1065 L
3252 1088 L
3253 994 L
3253 981 L
3254 1075 L
3255 1100 L
3255 1107 L
3256 885 L
3257 1213 L
3257 965 L
3258 1148 L
3258 1031 L
3259 1295 L
3259 929 L
3260 1135 L
3261 1037 L
3261 1001 L
3262 1022 L
3262 1126 L
3263 1185 L
3264 1165 L
3264 1094 L
3265 1063 L
3265 1192 L
3266 927 L
3267 956 L
3267 1100 L
3268 958 L
3268 1109 L
3269 1184 L
3269 1024 L
3270 1130 L
3271 982 L
3271 1081 L
3272 975 L
3272 1160 L
3273 1013 L
3273 1144 L
3274 1095 L
3275 1155 L
3275 1102 L
3276 1035 L
3276 963 L
3277 1186 L
3277 1174 L
3278 1132 L
3278 982 L
3279 1044 L
3280 1171 L
3280 1185 L
3281 1016 L
3281 1104 L
3282 1095 L
3282 1094 L
3283 1073 L
3283 1164 L
3284 1015 L
3284 1100 L
3285 1094 L
3285 1034 L
3286 1279 L
3287 1003 L
3287 1132 L
3288 1146 L
3288 1170 L
3289 1051 L
3289 1064 L
3290 1104 L
3290 1251 L
3291 960 L
3291 1221 L
3292 1010 L
3292 1120 L
3293 1204 L
3293 974 L
3294 1008 L
3294 1144 L
3295 1090 L
3295 1129 L
3296 1082 L
3297 1043 L
3297 1134 L
3298 1029 L
3298 1189 L
3299 1122 L
3299 1165 L
3300 957 L
3300 1031 L
3301 1057 L
3301 1073 L
3302 972 L
3302 1038 L
3303 887 L
3303 1236 L
3304 1008 L
3304 1198 L
3305 1205 L
3305 1027 L
3306 969 L
3306 1185 L
3307 1236 L
3307 1108 L
3308 998 L
3308 1018 L
3309 1062 L
3309 1121 L
3310 1024 L
3310 1247 L
3311 1046 L
3311 1110 L
3312 1123 L
3312 1223 L
3312 891 L
3313 1280 L
3313 1010 L
3314 1050 L
3314 1194 L
3315 975 L
3315 1057 L
3316 1088 L
3316 1200 L
3317 1139 L
3317 1314 L
3318 973 L
3318 1057 L
3319 1134 L
3319 969 L
3320 1106 L
3320 1080 L
3321 1062 L
3321 904 L
3321 1065 L
3322 1088 L
3322 1072 L
3323 1076 L
3323 1048 L
3324 1314 L
3324 1081 L
3325 1179 L
3325 1217 L
3326 1246 L
3326 1202 L
3327 1031 L
3327 1165 L
3327 1322 L
3328 1143 L
3328 1022 L
3329 1179 L
3329 961 L
3330 1163 L
3330 999 L
3331 1147 L
3331 1145 L
3332 1306 L
3332 1079 L
3332 1005 L
3333 1142 L
3333 1425 L
3334 986 L
3334 905 L
3335 1161 L
3335 1079 L
3336 1101 L
3336 1086 L
3336 1017 L
3337 1193 L
3337 922 L
3338 1244 L
3338 1000 L
3339 1268 L
3339 967 L
3339 1244 L
3340 1112 L
3340 1000 L
3341 1151 L
3341 1155 L
3342 1209 L
3342 1066 L
3343 1138 L
3343 1117 L
3343 1006 L
3344 1148 L
3344 1016 L
3345 980 L
3345 1115 L
3346 1080 L
3346 982 L
3346 1153 L
3347 1213 L
3347 1106 L
3348 1085 L
3348 1178 L
3348 1169 L
3349 976 L
3349 1157 L
3350 917 L
3350 1055 L
3351 1025 L
3351 1165 L
3351 1185 L
3352 1254 L
3352 1024 L
3353 1010 L
3353 1093 L
3353 1082 L
3354 1080 L
3354 1018 L
3355 1033 L
3355 1105 L
3355 1200 L
3356 1090 L
3356 1134 L
3357 1066 L
3357 1129 L
3358 1058 L
3358 1367 L
3358 1075 L
3359 1174 L
3359 1212 L
3360 1052 L
3360 1203 L
3360 1064 L
3361 1367 L
3361 1087 L
3362 1130 L
3362 1241 L
3362 1070 L
3363 867 L
3363 1161 L
3364 1066 L
3364 1243 L
3364 1176 L
3365 883 L
3365 1181 L
3365 1249 L
3366 1232 L
3366 1214 L
3367 1084 L
3367 1096 L
3367 1101 L
3368 1079 L
3368 1272 L
3369 1031 L
3369 1199 L
3369 1174 L
3370 1109 L
3370 1170 L
3371 1119 L
3371 1191 L
3371 1158 L
3372 1130 L
3372 1061 L
3372 1047 L
3373 852 L
3373 1060 L
3374 842 L
3374 1146 L
3374 892 L
3375 1184 L
3375 1199 L
3375 1026 L
3376 1175 L
3376 1032 L
3377 1127 L
3377 1457 L
3377 1195 L
3378 1085 L
3378 897 L
3378 1130 L
3379 1038 L
3379 1204 L
3380 1055 L
3380 1060 L
3380 1135 L
3381 1303 L
3381 1018 L
3381 1149 L
3382 1123 L
3382 988 L
3383 1106 L
3383 1029 L
3383 1238 L
3384 1020 L
3384 1418 L
3384 1058 L
3385 1202 L
3385 1194 L
3385 1147 L
3386 1051 L
3386 1278 L
3387 1100 L
3387 1139 L
3387 1282 L
3388 967 L
3388 1077 L
3388 1148 L
3389 1069 L
3389 1202 L
3389 1060 L
3390 1040 L
3390 1253 L
3391 1069 L
3391 1163 L
3391 1039 L
3392 1140 L
3392 1063 L
3392 1241 L
3393 1037 L
3393 1257 L
3393 1183 L
3394 1154 L
3394 953 L
3394 1016 L
3395 1066 L
3395 988 L
3395 1080 L
3396 1207 L
3396 1040 L
3396 1078 L
3397 1032 L
3397 1117 L
3398 1125 L
3398 1037 L
3398 1102 L
3399 1054 L
3399 1076 L
3399 1036 L
3400 1067 L
3400 1062 L
3400 1037 L
3401 1215 L
3401 992 L
3401 1147 L
3402 1267 L
3402 1161 L
3402 1253 L
3403 1165 L
3403 1115 L
3403 1233 L
3404 1171 L
3404 1239 L
3404 1288 L
3405 1251 L
3405 1022 L
3405 1127 L
3406 1083 L
3406 1034 L
3406 1098 L
3407 1115 L
3407 1108 L
3407 1137 L
3408 1149 L
3408 1132 L
3408 1197 L
3409 1224 L
3409 1023 L
3409 1186 L
3410 996 L
3410 1075 L
3410 1235 L
3411 1238 L
3411 1044 L
3411 1139 L
3412 1289 L
3412 1244 L
3412 1048 L
3413 1189 L
3413 1047 L
3413 1051 L
3414 1195 L
3414 1136 L
3414 1121 L
3415 1087 L
3415 894 L
3415 1172 L
3416 1268 L
3416 1021 L
3416 1199 L
3417 979 L
3417 1149 L
3417 1134 L
3417 1078 L
3418 1161 L
3418 1210 L
3418 1164 L
3419 1179 L
3419 1076 L
3419 957 L
3420 1137 L
3420 1424 L
3420 1205 L
3421 1145 L
3421 1072 L
3421 1137 L
3422 1043 L
3422 1106 L
3422 1118 L
3423 1277 L
3423 1042 L
3423 1207 L
3423 1053 L
3424 1228 L
3424 1225 L
3424 1194 L
3425 1252 L
3425 1111 L
3425 1105 L
3426 1074 L
3426 1022 L
3426 1189 L
3427 1254 L
3427 1022 L
3427 1161 L
3428 1066 L
3428 1569 L
3428 1216 L
3428 1041 L
3429 1007 L
3429 1108 L
3429 1345 L
3430 1157 L
3430 1120 L
3430 1083 L
3431 1183 L
3431 1026 L
3431 1249 L
3431 1213 L
3432 1117 L
3432 1099 L
3432 1071 L
3433 1140 L
3433 1207 L
3433 1061 L
3434 1123 L
3434 1245 L
3434 1009 L
3434 1307 L
3435 1215 L
3435 1280 L
3435 1251 L
3436 1140 L
3436 1117 L
3436 1163 L
3437 1106 L
3437 1151 L
3437 1049 L
3437 1091 L
3438 1224 L
3438 1215 L
3438 1226 L
3439 1177 L
3439 1186 L
3439 1302 L
3440 1314 L
3440 1055 L
3440 1110 L
3440 1201 L
3441 1204 L
3441 1034 L
3441 1065 L
3442 1170 L
3442 1316 L
3442 1274 L
3442 1426 L
3443 1263 L
3443 1189 L
3443 1149 L
3444 1151 L
3444 1143 L
3444 1084 L
3444 1263 L
3445 898 L
3445 1388 L
3445 1090 L
3446 1032 L
3446 1118 L
3446 1296 L
3446 1021 L
3447 1150 L
3447 1065 L
3447 1150 L
3448 1205 L
3448 1237 L
3448 1199 L
3448 1094 L
3449 1222 L
3449 1289 L
3449 1279 L
3450 949 L
3450 1035 L
3450 1076 L
3450 1178 L
3451 969 L
3451 1058 L
3451 1095 L
3452 1213 L
3452 1149 L
3452 1109 L
3452 1158 L
3453 970 L
3453 1138 L
3453 1068 L
3454 1236 L
3454 1171 L
3454 1190 L
3454 1146 L
3455 1269 L
3455 1094 L
3455 1172 L
3455 1119 L
3456 1009 L
3456 1177 L
3456 1244 L
3457 1019 L
3457 1103 L
3457 939 L
3457 1173 L
3458 1017 L
3458 1174 L
3458 1132 L
3458 1298 L
3459 1119 L
3459 1276 L
3459 1109 L
3460 1252 L
3460 1255 L
3460 1055 L
3460 1065 L
3461 1088 L
3461 1194 L
3461 1229 L
3461 1016 L
3462 1142 L
3462 1169 L
3462 1127 L
3463 1193 L
3463 1023 L
3463 1057 L
3463 1177 L
3464 1135 L
3464 1047 L
3464 1101 L
3464 1176 L
3465 1304 L
3465 1009 L
3465 1256 L
3465 1089 L
3466 1098 L
3466 1222 L
3466 1190 L
3466 1036 L
3467 1127 L
3467 1124 L
3467 1216 L
3468 1228 L
3468 1189 L
3468 1157 L
3468 1240 L
3469 1259 L
3469 1258 L
3469 1223 L
3469 1109 L
3470 1181 L
3470 1076 L
3470 1236 L
3470 1263 L
3471 1195 L
3471 1351 L
3471 1165 L
3471 1306 L
3472 1306 L
3472 1176 L
3472 1096 L
3472 1250 L
3473 1200 L
3473 1197 L
3473 1014 L
3474 1331 L
3474 1127 L
3474 1201 L
3474 1148 L
3475 991 L
3475 1175 L
3475 1110 L
3475 1163 L
3476 1153 L
3476 1237 L
3476 1058 L
3476 1094 L
3477 1095 L
3477 1055 L
3477 1186 L
3477 1161 L
3478 1135 L
3478 1211 L
3478 1190 L
3478 1081 L
3479 1125 L
3479 1146 L
3479 1193 L
3479 1179 L
3480 1161 L
3480 1214 L
3480 1114 L
3480 1168 L
3481 1236 L
3481 1127 L
3481 1276 L
3481 1296 L
3482 1225 L
3482 1189 L
3482 1131 L
3482 1243 L
3483 1260 L
3483 1252 L
3483 1279 L
3483 1101 L
3484 1199 L
3484 1137 L
3484 1062 L
3484 1034 L
3485 1180 L
3485 1099 L
3485 1140 L
3485 964 L
3486 1248 L
3486 1032 L
3486 1011 L
3486 1146 L
3487 1197 L
3487 1037 L
3487 1106 L
3487 1100 L
3488 1219 L
3488 1222 L
3488 1279 L
3488 1052 L
3488 1305 L
3489 1138 L
3489 1056 L
3489 998 L
3489 1296 L
3490 1185 L
3490 1255 L
3490 1035 L
3490 1051 L
3491 1378 L
3491 1302 L
3491 985 L
3491 1117 L
3492 989 L
3492 1124 L
3492 1207 L
3492 1082 L
3493 1209 L
3493 1239 L
3493 1174 L
3493 1120 L
3494 1107 L
3494 1122 L
3494 1034 L
3494 1167 L
3494 986 L
3495 1137 L
3495 1178 L
3495 1209 L
3495 1080 L
3496 1041 L
3496 1065 L
3496 1389 L
3496 965 L
3497 1219 L
3497 1156 L
3497 1157 L
3497 1211 L
3498 1172 L
3498 1271 L
3498 1141 L
3498 1058 L
3498 1202 L
3499 1280 L
3499 1299 L
3499 1191 L
3499 1338 L
3500 1101 L
3500 1153 L
3506 1274 L
3511 1057 L
3517 1193 L
3522 1230 L
3527 1294 L
3532 1151 L
3537 1204 L
3542 1202 L
3547 1118 L
3552 1248 L
3557 1173 L
3561 1076 L
3566 1143 L
3570 1314 L
3575 1273 L
3579 1191 L
3583 1359 L
3587 1347 L
3591 1385 L
3595 1105 L
3599 1191 L
3603 1160 L
3607 1130 L
3611 1176 L
3614 1050 L
3618 1239 L
3622 1133 L
3625 1024 L
3629 1033 L
3632 1250 L
3636 1339 L
3639 1188 L
3642 1088 L
3646 1126 L
3649 1197 L
3652 1259 L
3655 1196 L
3658 1425 L
3661 1056 L
3664 887 L
3667 1112 L
3670 1047 L
3673 1156 L
3676 1164 L
3679 1070 L
3682 1121 L
3685 1263 L
3688 979 L
3690 1190 L
3693 1094 L
3696 1065 L
3698 1226 L
3701 969 L
3704 970 L
3706 1057 L
3709 1084 L
3711 1156 L
3714 1161 L
3716 1136 L
3719 1153 L
3721 970 L
3724 1248 L
3726 811 L
3728 1193 L
3731 1250 L
3733 1142 L
3735 1050 L
3738 1143 L
3740 1171 L
3742 1118 L
3744 1223 L
3747 1111 L
3749 1364 L
3751 1100 L
3753 1130 L
3755 1293 L
3757 1179 L
3760 1171 L
3762 1406 L
3764 1134 L
3766 1176 L
3768 987 L
3770 1110 L
3772 1126 L
3774 1160 L
3776 1137 L
3778 1233 L
3780 1101 L
3781 1093 L
3783 1150 L
3785 1015 L
3787 1190 L
3789 1076 L
3791 1148 L
3793 1187 L
3795 1118 L
3796 1039 L
3798 947 L
3800 1253 L
3802 1134 L
3803 1081 L
3805 1124 L
3807 1227 L
3809 1212 L
3810 957 L
3812 1011 L
3814 1256 L
3816 1193 L
3817 948 L
3819 979 L
3820 919 L
3822 1169 L
3824 1183 L
3825 1070 L
3827 1015 L
3829 1274 L
3830 1110 L
3832 1210 L
3833 1118 L
3835 1039 L
3836 1142 L
3838 1047 L
3839 1183 L
3841 1345 L
3842 1249 L
3844 1030 L
3845 1176 L
3847 1306 L
3848 1086 L
3850 1087 L
3851 1306 L
3853 961 L
3854 1165 L
3856 987 L
3857 1207 L
3859 1162 L
3860 1246 L
3861 1156 L
3863 1123 L
3864 1137 L
3866 1100 L
3867 1080 L
3868 1146 L
3870 1065 L
3871 1282 L
3872 1273 L
3874 1191 L
3875 988 L
3876 1486 L
3878 1237 L
3879 1070 L
3880 1261 L
3882 991 L
3883 1061 L
3884 1135 L
3885 1302 L
3887 1160 L
3888 1165 L
3889 1155 L
3890 1274 L
3892 1300 L
3893 1313 L
3894 1117 L
3895 1101 L
3897 1092 L
3898 1201 L
3899 1175 L
3900 1088 L
3901 1249 L
3903 1291 L
3904 1147 L
3905 1162 L
3906 951 L
3907 1028 L
3908 1093 L
3910 875 L
3911 1184 L
3912 1072 L
3913 1206 L
3914 1300 L
3915 928 L
3917 1021 L
3918 837 L
3919 1202 L
3920 1120 L
3921 1246 L
3922 1092 L
3923 1204 L
3924 1329 L
3925 1238 L
3926 1204 L
3928 1242 L
3929 1173 L
3930 1141 L
3931 1247 L
3932 1139 L
3933 1035 L
3934 985 L
3935 1261 L
3936 1096 L
3937 1249 L
3938 1136 L
3939 1303 L
3940 1043 L
3941 1124 L
3942 1249 L
3943 1232 L
3944 1154 L
3945 1428 L
3946 1147 L
3947 959 L
3948 1048 L
3949 1047 L
3950 1354 L
3951 1133 L
3952 1097 L
3953 1105 L
3954 1080 L
3955 1105 L
3956 1220 L
3957 1298 L
3958 1143 L
3959 1185 L
3960 1030 L
3961 1057 L
3962 1065 L
3963 1312 L
3964 1100 L
3965 1197 L
3966 1297 L
3966 1007 L
3967 1094 L
3968 1128 L
3969 1056 L
3970 1099 L
3971 1086 L
3972 1099 L
3973 1139 L
3974 1190 L
3975 972 L
3976 1060 L
3976 1076 L
3977 895 L
3978 1156 L
3979 1189 L
3980 1202 L
3981 1237 L
3982 1239 L
3983 1111 L
3983 903 L
3984 903 L
3985 1248 L
3986 1021 L
3987 1231 L
3988 1121 L
3989 1089 L
3989 1184 L
3990 979 L
3991 1051 L
3992 1071 L
3993 1109 L
3994 1125 L
3995 1135 L
3995 1004 L
3996 1116 L
3997 1027 L
3998 1105 L
3999 1219 L
3999 1184 L
4000 965 L
4001 957 L
4002 1044 L
4003 1177 L
4003 1165 L
4004 1351 L
4005 1250 L
4006 1064 L
4007 1252 L
4007 1139 L
4008 923 L
4009 1119 L
4010 1168 L
4011 1193 L
4011 913 L
4012 1090 L
4013 993 L
4014 1286 L
4014 1030 L
4015 1166 L
4016 1136 L
4017 1144 L
4017 1224 L
4018 1262 L
4019 1332 L
4020 1206 L
4021 1324 L
4021 1112 L
4022 1234 L
4023 1139 L
4023 1045 L
4024 1187 L
4025 1364 L
4026 1063 L
4026 1161 L
4027 1120 L
4028 1139 L
4029 1261 L
4029 1190 L
4030 1244 L
4031 1170 L
4032 1063 L
4032 1265 L
4033 1195 L
4034 1138 L
4034 1176 L
4035 1358 L
4036 1108 L
4036 1038 L
4037 1327 L
4038 1200 L
4039 1154 L
4039 1247 L
4040 1113 L
4041 1223 L
4041 1182 L
4042 1017 L
4043 1019 L
4043 1087 L
4044 1222 L
4045 1147 L
4045 1028 L
4046 1047 L
4047 1189 L
4047 1151 L
4048 1105 L
4049 1196 L
4050 1361 L
4050 1160 L
4051 1343 L
4052 919 L
4052 1245 L
4053 992 L
4053 1328 L
4054 1360 L
4055 885 L
4055 1151 L
4056 1257 L
4057 1062 L
4057 1279 L
4058 1202 L
4059 1136 L
4059 947 L
4060 1173 L
4061 807 L
4061 1185 L
4062 928 L
L2 C03 COSGR

%
% Main frame
%
L10
GSN 
620 1700 M
4220 1700 L
4220 5300 L
620 5300 L
closepath SGR

%
% X axis: large tics
%
L10
GSN 1130 1700 M 0  54 rL SGR
GSN 1130 5300 M 0 -54 rL SGR
helvS (0.0001) 1130 470 xlabel
GSN 1716 1700 M 0  54 rL SGR
GSN 1716 5300 M 0 -54 rL SGR
helvS (0.001) 1716 470 xlabel
GSN 2303 1700 M 0  54 rL SGR
GSN 2303 5300 M 0 -54 rL SGR
helvS (0.01) 2303 470 xlabel
GSN 2889 1700 M 0  54 rL SGR
GSN 2889 5300 M 0 -54 rL SGR
helvS (0.1) 2889 470 xlabel
GSN 3476 1700 M 0  54 rL SGR
GSN 3476 5300 M 0 -54 rL SGR
helvS (1) 3476 470 xlabel
GSN 4062 1700 M 0  54 rL SGR
GSN 4062 5300 M 0 -54 rL SGR
helvS (10) 4062 470 xlabel
%
% X axis: small tics
%
L5
GSN 720 1700 M 0  36 rL SGR
GSN 720 5300 M 0 -36 rL SGR
GSN 824 1700 M 0  36 rL SGR
GSN 824 5300 M 0 -36 rL SGR
GSN 897 1700 M 0  36 rL SGR
GSN 897 5300 M 0 -36 rL SGR
GSN 954 1700 M 0  36 rL SGR
GSN 954 5300 M 0 -36 rL SGR
GSN 1000 1700 M 0  36 rL SGR
GSN 1000 5300 M 0 -36 rL SGR
GSN 1039 1700 M 0  36 rL SGR
GSN 1039 5300 M 0 -36 rL SGR
GSN 1073 1700 M 0  36 rL SGR
GSN 1073 5300 M 0 -36 rL SGR
GSN 1103 1700 M 0  36 rL SGR
GSN 1103 5300 M 0 -36 rL SGR
GSN 1307 1700 M 0  36 rL SGR
GSN 1307 5300 M 0 -36 rL SGR
GSN 1410 1700 M 0  36 rL SGR
GSN 1410 5300 M 0 -36 rL SGR
GSN 1483 1700 M 0  36 rL SGR
GSN 1483 5300 M 0 -36 rL SGR
GSN 1540 1700 M 0  36 rL SGR
GSN 1540 5300 M 0 -36 rL SGR
GSN 1586 1700 M 0  36 rL SGR
GSN 1586 5300 M 0 -36 rL SGR
GSN 1626 1700 M 0  36 rL SGR
GSN 1626 5300 M 0 -36 rL SGR
GSN 1660 1700 M 0  36 rL SGR
GSN 1660 5300 M 0 -36 rL SGR
GSN 1690 1700 M 0  36 rL SGR
GSN 1690 5300 M 0 -36 rL SGR
GSN 1893 1700 M 0  36 rL SGR
GSN 1893 5300 M 0 -36 rL SGR
GSN 1996 1700 M 0  36 rL SGR
GSN 1996 5300 M 0 -36 rL SGR
GSN 2069 1700 M 0  36 rL SGR
GSN 2069 5300 M 0 -36 rL SGR
GSN 2126 1700 M 0  36 rL SGR
GSN 2126 5300 M 0 -36 rL SGR
GSN 2173 1700 M 0  36 rL SGR
GSN 2173 5300 M 0 -36 rL SGR
GSN 2212 1700 M 0  36 rL SGR
GSN 2212 5300 M 0 -36 rL SGR
GSN 2246 1700 M 0  36 rL SGR
GSN 2246 5300 M 0 -36 rL SGR
GSN 2276 1700 M 0  36 rL SGR
GSN 2276 5300 M 0 -36 rL SGR
GSN 2479 1700 M 0  36 rL SGR
GSN 2479 5300 M 0 -36 rL SGR
GSN 2583 1700 M 0  36 rL SGR
GSN 2583 5300 M 0 -36 rL SGR
GSN 2656 1700 M 0  36 rL SGR
GSN 2656 5300 M 0 -36 rL SGR
GSN 2713 1700 M 0  36 rL SGR
GSN 2713 5300 M 0 -36 rL SGR
GSN 2759 1700 M 0  36 rL SGR
GSN 2759 5300 M 0 -36 rL SGR
GSN 2798 1700 M 0  36 rL SGR
GSN 2798 5300 M 0 -36 rL SGR
GSN 2832 1700 M 0  36 rL SGR
GSN 2832 5300 M 0 -36 rL SGR
GSN 2862 1700 M 0  36 rL SGR
GSN 2862 5300 M 0 -36 rL SGR
GSN 3066 1700 M 0  36 rL SGR
GSN 3066 5300 M 0 -36 rL SGR
GSN 3169 1700 M 0  36 rL SGR
GSN 3169 5300 M 0 -36 rL SGR
GSN 3242 1700 M 0  36 rL SGR
GSN 3242 5300 M 0 -36 rL SGR
GSN 3299 1700 M 0  36 rL SGR
GSN 3299 5300 M 0 -36 rL SGR
GSN 3345 1700 M 0  36 rL SGR
GSN 3345 5300 M 0 -36 rL SGR
GSN 3385 1700 M 0  36 rL SGR
GSN 3385 5300 M 0 -36 rL SGR
GSN 3419 1700 M 0  36 rL SGR
GSN 3419 5300 M 0 -36 rL SGR
GSN 3449 1700 M 0  36 rL SGR
GSN 3449 5300 M 0 -36 rL SGR
GSN 3652 1700 M 0  36 rL SGR
GSN 3652 5300 M 0 -36 rL SGR
GSN 3755 1700 M 0  36 rL SGR
GSN 3755 5300 M 0 -36 rL SGR
GSN 3829 1700 M 0  36 rL SGR
GSN 3829 5300 M 0 -36 rL SGR
GSN 3885 1700 M 0  36 rL SGR
GSN 3885 5300 M 0 -36 rL SGR
GSN 3932 1700 M 0  36 rL SGR
GSN 3932 5300 M 0 -36 rL SGR
GSN 3971 1700 M 0  36 rL SGR
GSN 3971 5300 M 0 -36 rL SGR
GSN 4005 1700 M 0  36 rL SGR
GSN 4005 5300 M 0 -36 rL SGR
GSN 4035 1700 M 0  36 rL SGR
GSN 4035 5300 M 0 -36 rL SGR
%
% Y axis: large tics
%
L10
GSN 620 2121 M 54 0 rL SGR
GSN 4220 2121 M -54 0 rL SGR
helvS (1.04) 560 2121 ylabel
GSN 620 3008 M 54 0 rL SGR
GSN 4220 3008 M -54 0 rL SGR
helvS (1.06) 560 3008 ylabel
GSN 620 3896 M 54 0 rL SGR
GSN 4220 3896 M -54 0 rL SGR
helvS (1.08) 560 3896 ylabel
GSN 620 4783 M 54 0 rL SGR
GSN 4220 4783 M -54 0 rL SGR
helvS (1.1) 560 4783 ylabel
%
% Y axis: small tics
%
L5
GSN 620 1899 M 36 0 rL SGR
GSN 4220 1899 M -36 0 rL SGR
GSN 620 2121 M 36 0 rL SGR
GSN 4220 2121 M -36 0 rL SGR
GSN 620 2343 M 36 0 rL SGR
GSN 4220 2343 M -36 0 rL SGR
GSN 620 2565 M 36 0 rL SGR
GSN 4220 2565 M -36 0 rL SGR
GSN 620 2787 M 36 0 rL SGR
GSN 4220 2787 M -36 0 rL SGR
GSN 620 3008 M 36 0 rL SGR
GSN 4220 3008 M -36 0 rL SGR
GSN 620 3230 M 36 0 rL SGR
GSN 4220 3230 M -36 0 rL SGR
GSN 620 3452 M 36 0 rL SGR
GSN 4220 3452 M -36 0 rL SGR
GSN 620 3674 M 36 0 rL SGR
GSN 4220 3674 M -36 0 rL SGR
GSN 620 3896 M 36 0 rL SGR
GSN 4220 3896 M -36 0 rL SGR
GSN 620 4118 M 36 0 rL SGR
GSN 4220 4118 M -36 0 rL SGR
GSN 620 4339 M 36 0 rL SGR
GSN 4220 4339 M -36 0 rL SGR
GSN 620 4561 M 36 0 rL SGR
GSN 4220 4561 M -36 0 rL SGR
GSN 620 4783 M 36 0 rL SGR
GSN 4220 4783 M -36 0 rL SGR
GSN 620 5005 M 36 0 rL SGR
GSN 4220 5005 M -36 0 rL SGR
GSN 620 5227 M 36 0 rL SGR
GSN 4220 5227 M -36 0 rL SGR

%
% X-Axis label:
%
gsave 2420 290 M 
[
[(Helvetica) 180 0 true true 0 (t)]
[(Helvetica) 180 0 true true 0 (i)]
[(Helvetica) 180 0 true true 0 (m)]
[(Helvetica) 180 0 true true 0 (e)]
] 0 MCshow grestore

%
% Y-Axis label:
%
gsave 234 3500 M 
currentpoint gsave translate 90 rotate 0 0 moveto
[
[(Helvetica) 180 0 true true 0 (s)]
[(Helvetica) 180 0 true true 0 (i)]
[(Helvetica) 180 0 true true 0 (g)]
[(Helvetica) 180 0 true true 0 (n)]
[(Helvetica) 180 0 true true 0 (a)]
[(Helvetica) 180 0 true true 0 (l)]
] 0 MCshow grestore

%
% Residuals:
%
gsave 129 1160 M 
currentpoint gsave translate 90 rotate 0 0 moveto
[
[(Helvetica) 150 0 true true 0 (r)]
[(Helvetica) 150 0 true true 0 (e)]
[(Helvetica) 150 0 true true 0 (s)]
[(Helvetica) 150 0 true true 0 (i)]
[(Helvetica) 150 0 true true 0 (d)]
[(Helvetica) 150 0 true true 0 (u)]
[(Helvetica) 150 0 true true 0 (a)]
[(Helvetica) 150 0 true true 0 (l)]
[(Helvetica) 150 0 true true 0 (s)]
] 0 MCshow grestore

%
% Residual frame
%
L10
GSN 
620 620 M
4220 620 L
4220 1700 L
620 1700 L
closepath SGR
%
% X axis: large tics - residual frame
%
L10
GSN 1130 620 M 0  54 rL SGR
GSN 1130 1700 M 0 -54 rL SGR
GSN 1716 620 M 0  54 rL SGR
GSN 1716 1700 M 0 -54 rL SGR
GSN 2303 620 M 0  54 rL SGR
GSN 2303 1700 M 0 -54 rL SGR
GSN 2889 620 M 0  54 rL SGR
GSN 2889 1700 M 0 -54 rL SGR
GSN 3476 620 M 0  54 rL SGR
GSN 3476 1700 M 0 -54 rL SGR
GSN 4062 620 M 0  54 rL SGR
GSN 4062 1700 M 0 -54 rL SGR
%
% X axis: small tics - residual frame
%
L5
GSN 720 620 M 0  36 rL SGR
GSN 720 1700 M 0 -36 rL SGR
GSN 824 620 M 0  36 rL SGR
GSN 824 1700 M 0 -36 rL SGR
GSN 897 620 M 0  36 rL SGR
GSN 897 1700 M 0 -36 rL SGR
GSN 954 620 M 0  36 rL SGR
GSN 954 1700 M 0 -36 rL SGR
GSN 1000 620 M 0  36 rL SGR
GSN 1000 1700 M 0 -36 rL SGR
GSN 1039 620 M 0  36 rL SGR
GSN 1039 1700 M 0 -36 rL SGR
GSN 1073 620 M 0  36 rL SGR
GSN 1073 1700 M 0 -36 rL SGR
GSN 1103 620 M 0  36 rL SGR
GSN 1103 1700 M 0 -36 rL SGR
GSN 1307 620 M 0  36 rL SGR
GSN 1307 1700 M 0 -36 rL SGR
GSN 1410 620 M 0  36 rL SGR
GSN 1410 1700 M 0 -36 rL SGR
GSN 1483 620 M 0  36 rL SGR
GSN 1483 1700 M 0 -36 rL SGR
GSN 1540 620 M 0  36 rL SGR
GSN 1540 1700 M 0 -36 rL SGR
GSN 1586 620 M 0  36 rL SGR
GSN 1586 1700 M 0 -36 rL SGR
GSN 1626 620 M 0  36 rL SGR
GSN 1626 1700 M 0 -36 rL SGR
GSN 1660 620 M 0  36 rL SGR
GSN 1660 1700 M 0 -36 rL SGR
GSN 1690 620 M 0  36 rL SGR
GSN 1690 1700 M 0 -36 rL SGR
GSN 1893 620 M 0  36 rL SGR
GSN 1893 1700 M 0 -36 rL SGR
GSN 1996 620 M 0  36 rL SGR
GSN 1996 1700 M 0 -36 rL SGR
GSN 2069 620 M 0  36 rL SGR
GSN 2069 1700 M 0 -36 rL SGR
GSN 2126 620 M 0  36 rL SGR
GSN 2126 1700 M 0 -36 rL SGR
GSN 2173 620 M 0  36 rL SGR
GSN 2173 1700 M 0 -36 rL SGR
GSN 2212 620 M 0  36 rL SGR
GSN 2212 1700 M 0 -36 rL SGR
GSN 2246 620 M 0  36 rL SGR
GSN 2246 1700 M 0 -36 rL SGR
GSN 2276 620 M 0  36 rL SGR
GSN 2276 1700 M 0 -36 rL SGR
GSN 2479 620 M 0  36 rL SGR
GSN 2479 1700 M 0 -36 rL SGR
GSN 2583 620 M 0  36 rL SGR
GSN 2583 1700 M 0 -36 rL SGR
GSN 2656 620 M 0  36 rL SGR
GSN 2656 1700 M 0 -36 rL SGR
GSN 2713 620 M 0  36 rL SGR
GSN 2713 1700 M 0 -36 rL SGR
GSN 2759 620 M 0  36 rL SGR
GSN 2759 1700 M 0 -36 rL SGR
GSN 2798 620 M 0  36 rL SGR
GSN 2798 1700 M 0 -36 rL SGR
GSN 2832 620 M 0  36 rL SGR
GSN 2832 1700 M 0 -36 rL SGR
GSN 2862 620 M 0  36 rL SGR
GSN 2862 1700 M 0 -36 rL SGR
GSN 3066 620 M 0  36 rL SGR
GSN 3066 1700 M 0 -36 rL SGR
GSN 3169 620 M 0  36 rL SGR
GSN 3169 1700 M 0 -36 rL SGR
GSN 3242 620 M 0  36 rL SGR
GSN 3242 1700 M 0 -36 rL SGR
GSN 3299 620 M 0  36 rL SGR
GSN 3299 1700 M 0 -36 rL SGR
GSN 3345 620 M 0  36 rL SGR
GSN 3345 1700 M 0 -36 rL SGR
GSN 3385 620 M 0  36 rL SGR
GSN 3385 1700 M 0 -36 rL SGR
GSN 3419 620 M 0  36 rL SGR
GSN 3419 1700 M 0 -36 rL SGR
GSN 3449 620 M 0  36 rL SGR
GSN 3449 1700 M 0 -36 rL SGR
GSN 3652 620 M 0  36 rL SGR
GSN 3652 1700 M 0 -36 rL SGR
GSN 3755 620 M 0  36 rL SGR
GSN 3755 1700 M 0 -36 rL SGR
GSN 3829 620 M 0  36 rL SGR
GSN 3829 1700 M 0 -36 rL SGR
GSN 3885 620 M 0  36 rL SGR
GSN 3885 1700 M 0 -36 rL SGR
GSN 3932 620 M 0  36 rL SGR
GSN 3932 1700 M 0 -36 rL SGR
GSN 3971 620 M 0  36 rL SGR
GSN 3971 1700 M 0 -36 rL SGR
GSN 4005 620 M 0  36 rL SGR
GSN 4005 1700 M 0 -36 rL SGR
GSN 4035 620 M 0  36 rL SGR
GSN 4035 1700 M 0 -36 rL SGR
%
% Y axis: large tics - residual frame
%
L10
GSN 620 731 M 54 0 rL SGR
GSN 4220 731 M -54 0 rL SGR
helvS (-0.01) 560 731 ylabelresid
GSN 620 1126 M 54 0 rL SGR
GSN 4220 1126 M -54 0 rL SGR
helvS (0) 560 1126 ylabelresid
GSN 620 1521 M 54 0 rL SGR
GSN 4220 1521 M -54 0 rL SGR
helvS (0.01) 560 1521 ylabelresid

%
% X axis - residual panel
%
GSN L5 620 1126 M 4220 1126 L SDA G50 SGR

end
showpage
%%Trailer
%%EOF
