%!PS-Adobe-3.0 EPSF-3.0
%%BoundingBox: 0 0 514 442
%%Creator: BioKin Ltd.
%%DocumentFonts: Symbol Helvetica
%%EndComments
%
/bkdict 256 dict def
bkdict begin
/M {moveto} def 
/R {rmoveto} def
/L {lineto} def
/rL {rlineto} def
/GSN {gsave newpath} def
/SGR {stroke grestore} def
/COSGR {gsave setrgbcolor stroke grestore grestore} def
/SL {setlinewidth} def
/LWMB {12} def             % line width - model curves, black & white
/LWMC {10} def             % line width - model curves, color
/L2 {2.5 setlinewidth} def
/L5 {5 setlinewidth} def
/L10 {10 setlinewidth} def
/G50 {0.5 setgray} def
/SDA {[10  20] 0 setdash} def % axes
/helvT {/Helvetica findfont 100 scalefont setfont} def % tiny
/helvS {/Helvetica findfont 125 scalefont setfont} def % small
/helvM {/Helvetica findfont 150 scalefont setfont} def % medium
/helvL {/Helvetica findfont 175 scalefont setfont} def % large
/xlabel {gsave M dup
   stringwidth exch -0.5 mul exch rmoveto show grestore} def 
/ylabel {gsave M 90 rotate dup
   stringwidth exch -0.5 mul exch rmoveto show grestore} def
/ylabelresid {gsave M dup
   stringwidth exch -1 mul exch rmoveto show grestore} def
% ======
% Shapes
% ======
% Circle:
/Circ {0 360 arc closepath} def
%
% Square:
/Squa {dup dup -0.5 mul dup dup R -2 mul 0 exch rL 1 mul 0 rL dup 0 exch -1 mul rL closepath} def
%
% Triangle Up:
/TriU {dup dup dup -0.4 mul exch -0.5 mul exch R dup 0.5 mul exch rL dup -1 mul exch 0.5 mul exch rL closepath} def 
%
% Triangle Down:
/TriD {dup dup dup 0.4 mul exch -0.5 mul exch R dup 0.5 mul exch -1 mul rL dup 0.5 mul exch rL closepath} def 
%
% Diamond:
/Diam {45 rotate Squa} def
% ======
% Fills
% ======
/GRF {gsave setgray fill grestore} def                    % gray-level Fill
/COF {gsave setrgbcolor fill grestore} def                % color fill
% ======
% Colors
% ======
/C01 {1.00	0.00	0.00} def      % Red
/C02 {0.00	0.00	1.00} def      % Blue
/C03 {0.00	0.39	0.00} def      % Dark Green
/C04 {0.78	0.08	0.52} def      % Medium Violet Red
/C05 {0.55	0.27	0.07} def      % Saddle Brown
/C06 {0.10	0.70	0.70} def      % (cyan)
/C07 {1.00	0.55	0.00} def      % Dark Orange
/C08 {0.63	0.13	0.94} def      % Purple
/C09 {0.00	0.75	1.00} def      % Deep Sky Blue
/C10 {0.20	0.80	0.20} def      % Lime Green
/C11 {0.47	0.53	0.60} def      % Light Slate Gray
/C12 {0.00	0.00	0.00} def      % Black            % or: {0.19	0.31	0.31} def      % Dark Slate Gray
%
/LGR {0.75} def % light gray
/DGR {0.33} def % dark gray
%
% =============
% Dash patterns
% =============
/dash01 { [80  20] 0 setdash } def
/dash02 { [40  20] 0 setdash } def
/dash03 { [80  20  10  20] 0 setdash } def
/dash04 { [40  20  10  20] 0 setdash } def
/dash05 { [80  20  10  10  10  20] 0 setdash } def
/dash06 { [40  20  10  10  10  20] 0 setdash } def
/dash07 { [10  10] 0 setdash } def
%
/MFshow {
   { dup 5 get 3 ge
     { 5 get 3 eq {gsave} {grestore} ifelse }
     {dup dup 0 get findfont exch 1 get scalefont setfont
     [ currentpoint ] exch dup 2 get 0 exch R dup 5 get 2 ne {dup dup 6
     get exch 4 get {show} {stringwidth pop 0 R} ifelse }if dup 5 get 0 eq
     {dup 3 get {2 get neg 0 exch R pop} {pop aload pop M} ifelse} {dup 5
     get 1 eq {dup 2 get exch dup 3 get exch 6 get stringwidth pop -2 div
     dup 0 R} {dup 6 get stringwidth pop -2 div 0 R 6 get
     show 2 index {aload pop M neg 3 -1 roll neg R pop pop} {pop pop pop
     pop aload pop M} ifelse }ifelse }ifelse }
     ifelse }
   forall} bind def
/MFwidth {0 exch {dup 3 get{dup dup 0 get findfont exch 1 get scalefont
     setfont 6 get stringwidth pop add} {pop} ifelse} forall} bind def
/MCshow { currentpoint stroke M
  exch dup MFwidth -2 div 3 -1 roll R MFshow } def
%
end
%%EndProlog
bkdict begin
0.1 0.1 scale
%
% Model curves:
%

GSN 753 3476 M
770 3476 L
803 3476 L
837 3476 L
870 3476 L
895 3476 L
911 3476 L
937 3476 L
970 3476 L
1003 3476 L
1037 3476 L
1053 3476 L
1070 3476 L
1103 3477 L
1137 3477 L
1170 3477 L
1195 3477 L
1211 3477 L
1237 3478 L
1270 3478 L
1303 3478 L
1337 3479 L
1353 3479 L
1370 3479 L
1403 3480 L
1437 3481 L
1470 3482 L
1495 3483 L
1512 3483 L
1537 3484 L
1570 3486 L
1603 3487 L
1637 3489 L
1653 3491 L
1670 3491 L
1703 3494 L
1737 3497 L
1770 3500 L
1795 3504 L
1812 3507 L
1837 3509 L
1870 3514 L
1903 3521 L
1937 3528 L
1953 3536 L
1971 3536 L
2003 3545 L
2037 3555 L
2070 3567 L
2095 3581 L
2112 3589 L
2137 3596 L
2170 3613 L
2203 3631 L
2237 3652 L
2253 3674 L
2271 3675 L
2303 3699 L
2337 3724 L
2370 3752 L
2395 3781 L
2412 3796 L
2437 3810 L
2470 3840 L
2503 3870 L
2537 3899 L
2553 3928 L
2571 3929 L
2603 3954 L
2637 3979 L
2670 4001 L
2695 4021 L
2712 4030 L
2737 4038 L
2770 4051 L
2803 4062 L
2837 4071 L
2854 4077 L
2871 4077 L
2903 4081 L
2937 4083 L
2970 4085 L
2995 4086 L
3012 4086 L
3037 4086 L
3061 4086 L
3077 4086 L
3103 4086 L
3137 4086 L
3154 4086 L
3171 4086 L
3203 4086 L
3237 4086 L
3270 4086 L
3296 4086 L
3312 4086 L
3337 4086 L
3370 4086 L
3403 4086 L
3437 4086 L
3454 4086 L
3471 4086 L
3503 4086 L
3537 4086 L
3570 4086 L
3596 4086 L
3612 4086 L
3637 4086 L
3670 4086 L
3703 4086 L
3737 4086 L
3754 4086 L
3771 4086 L
3803 4086 L
3837 4086 L
3870 4086 L
3896 4086 L
3912 4086 L
3937 4086 L
3970 4086 L
4003 4086 L
4037 4086 L
4070 4086 L
LWMC SL dash01 C01 COSGR

GSN 753 2949 M
770 2949 L
803 2949 L
837 2949 L
870 2950 L
895 2950 L
911 2950 L
937 2950 L
970 2950 L
1003 2950 L
1037 2951 L
1053 2951 L
1070 2951 L
1103 2951 L
1137 2952 L
1170 2952 L
1195 2953 L
1211 2953 L
1237 2954 L
1270 2955 L
1303 2956 L
1337 2957 L
1353 2958 L
1370 2958 L
1403 2960 L
1437 2962 L
1470 2964 L
1495 2966 L
1512 2968 L
1537 2969 L
1570 2972 L
1603 2976 L
1637 2981 L
1653 2986 L
1670 2986 L
1703 2992 L
1737 2999 L
1770 3007 L
1795 3016 L
1812 3022 L
1837 3027 L
1870 3039 L
1903 3053 L
1937 3069 L
1953 3087 L
1971 3088 L
2003 3108 L
2037 3131 L
2070 3158 L
2095 3187 L
2112 3204 L
2137 3220 L
2170 3256 L
2203 3295 L
2237 3338 L
2253 3383 L
2271 3385 L
2303 3432 L
2337 3483 L
2370 3536 L
2395 3589 L
2412 3618 L
2437 3643 L
2470 3697 L
2503 3748 L
2537 3798 L
2553 3844 L
2571 3846 L
2603 3887 L
2637 3925 L
2670 3959 L
2695 3988 L
2712 4002 L
2737 4013 L
2770 4033 L
2803 4049 L
2837 4061 L
2854 4071 L
2871 4071 L
2903 4077 L
2937 4081 L
2970 4084 L
2995 4085 L
3012 4085 L
3037 4086 L
3061 4086 L
3077 4086 L
3103 4086 L
3137 4086 L
3154 4086 L
3171 4086 L
3203 4086 L
3237 4086 L
3270 4086 L
3296 4086 L
3312 4086 L
3337 4086 L
3370 4086 L
3403 4086 L
3437 4086 L
3454 4086 L
3471 4086 L
3503 4086 L
3537 4086 L
3570 4086 L
3596 4086 L
3612 4086 L
3637 4086 L
3670 4086 L
3703 4086 L
3737 4086 L
3754 4086 L
3771 4086 L
3803 4086 L
3837 4086 L
3870 4086 L
3896 4086 L
3912 4086 L
3937 4086 L
3970 4086 L
4003 4086 L
4037 4086 L
4070 4086 L
LWMC SL dash02 C02 COSGR

GSN 753 2505 M
770 2505 L
803 2505 L
837 2506 L
870 2506 L
895 2506 L
911 2506 L
937 2506 L
970 2507 L
1003 2507 L
1037 2508 L
1053 2508 L
1070 2508 L
1103 2509 L
1137 2510 L
1170 2511 L
1195 2512 L
1211 2512 L
1237 2513 L
1270 2514 L
1303 2516 L
1337 2518 L
1353 2520 L
1370 2520 L
1403 2523 L
1437 2526 L
1470 2529 L
1495 2533 L
1512 2536 L
1537 2538 L
1570 2544 L
1603 2550 L
1637 2558 L
1653 2566 L
1670 2567 L
1703 2576 L
1737 2588 L
1770 2601 L
1795 2617 L
1812 2626 L
1837 2634 L
1870 2655 L
1903 2678 L
1937 2704 L
1953 2734 L
1971 2734 L
2003 2767 L
2037 2805 L
2070 2847 L
2095 2894 L
2112 2920 L
2137 2945 L
2170 3001 L
2203 3062 L
2237 3127 L
2253 3196 L
2271 3199 L
2303 3268 L
2337 3343 L
2370 3419 L
2395 3495 L
2412 3535 L
2437 3569 L
2470 3642 L
2503 3711 L
2537 3775 L
2553 3833 L
2571 3835 L
2603 3885 L
2637 3931 L
2670 3970 L
2695 4002 L
2712 4016 L
2737 4027 L
2770 4047 L
2803 4062 L
2837 4072 L
2854 4078 L
2871 4079 L
2903 4082 L
2937 4085 L
2970 4086 L
2995 4086 L
3012 4086 L
3037 4086 L
3061 4086 L
3077 4086 L
3103 4086 L
3137 4086 L
3154 4086 L
3171 4086 L
3203 4086 L
3237 4086 L
3270 4086 L
3296 4086 L
3312 4086 L
3337 4086 L
3370 4086 L
3403 4086 L
3437 4086 L
3454 4086 L
3471 4086 L
3503 4086 L
3537 4086 L
3570 4086 L
3596 4086 L
3612 4086 L
3637 4086 L
3670 4086 L
3703 4086 L
3737 4086 L
3754 4086 L
3771 4086 L
3803 4086 L
3837 4086 L
3870 4086 L
3896 4086 L
3912 4086 L
3937 4086 L
3970 4086 L
4003 4086 L
4037 4086 L
4070 4086 L
LWMC SL dash03 C03 COSGR

GSN 753 2054 M
770 2054 L
803 2054 L
837 2054 L
870 2055 L
895 2055 L
911 2055 L
937 2056 L
970 2056 L
1003 2057 L
1037 2057 L
1053 2058 L
1070 2058 L
1103 2059 L
1137 2061 L
1170 2062 L
1195 2064 L
1211 2064 L
1237 2065 L
1270 2068 L
1303 2070 L
1337 2073 L
1353 2077 L
1370 2077 L
1403 2081 L
1437 2085 L
1470 2091 L
1495 2097 L
1512 2100 L
1537 2104 L
1570 2113 L
1603 2122 L
1637 2134 L
1653 2147 L
1670 2147 L
1703 2162 L
1737 2180 L
1770 2200 L
1795 2223 L
1812 2236 L
1837 2249 L
1870 2279 L
1903 2314 L
1937 2353 L
1953 2397 L
1971 2398 L
2003 2446 L
2037 2502 L
2070 2563 L
2095 2630 L
2112 2669 L
2137 2704 L
2170 2784 L
2203 2870 L
2237 2960 L
2253 3055 L
2271 3058 L
2303 3153 L
2337 3252 L
2370 3352 L
2395 3450 L
2412 3501 L
2437 3545 L
2470 3634 L
2503 3717 L
2537 3792 L
2553 3858 L
2571 3861 L
2603 3915 L
2637 3963 L
2670 4001 L
2695 4030 L
2712 4043 L
2737 4052 L
2770 4066 L
2803 4076 L
2837 4081 L
2854 4084 L
2871 4084 L
2903 4085 L
2937 4086 L
2970 4086 L
2995 4086 L
3012 4086 L
3037 4086 L
3061 4086 L
3077 4086 L
3103 4086 L
3137 4086 L
3154 4086 L
3171 4086 L
3203 4086 L
3237 4086 L
3270 4086 L
3296 4086 L
3312 4086 L
3337 4086 L
3370 4086 L
3403 4086 L
3437 4086 L
3454 4086 L
3471 4086 L
3503 4086 L
3537 4086 L
3570 4086 L
3596 4086 L
3612 4086 L
3637 4086 L
3670 4086 L
3703 4086 L
3737 4086 L
3754 4086 L
3771 4086 L
3803 4086 L
3837 4086 L
3870 4086 L
3896 4086 L
3912 4086 L
3937 4086 L
3970 4086 L
4003 4086 L
4037 4086 L
4070 4086 L
LWMC SL dash04 C04 COSGR

GSN 753 1565 M
770 1565 L
803 1565 L
837 1566 L
870 1566 L
895 1567 L
911 1567 L
937 1567 L
970 1568 L
1003 1569 L
1037 1570 L
1053 1571 L
1070 1571 L
1103 1573 L
1137 1575 L
1170 1577 L
1195 1579 L
1211 1580 L
1237 1582 L
1270 1585 L
1303 1588 L
1337 1593 L
1353 1598 L
1370 1598 L
1403 1603 L
1437 1610 L
1470 1618 L
1495 1627 L
1512 1632 L
1537 1638 L
1570 1650 L
1603 1664 L
1637 1680 L
1653 1699 L
1670 1699 L
1703 1721 L
1737 1746 L
1770 1775 L
1795 1807 L
1812 1826 L
1837 1845 L
1870 1888 L
1903 1937 L
1937 1991 L
1953 2053 L
1971 2055 L
2003 2122 L
2037 2199 L
2070 2283 L
2095 2376 L
2112 2428 L
2137 2476 L
2170 2583 L
2203 2697 L
2237 2817 L
2253 2940 L
2271 2944 L
2303 3066 L
2337 3192 L
2370 3315 L
2395 3434 L
2412 3496 L
2437 3547 L
2470 3651 L
2503 3745 L
2537 3827 L
2553 3896 L
2571 3898 L
2603 3953 L
2637 3997 L
2670 4030 L
2695 4054 L
2712 4063 L
2737 4069 L
2770 4078 L
2803 4082 L
2837 4085 L
2854 4086 L
2871 4086 L
2903 4086 L
2937 4086 L
2970 4086 L
2995 4086 L
3012 4086 L
3037 4086 L
3061 4086 L
3077 4086 L
3103 4086 L
3137 4086 L
3154 4086 L
3171 4086 L
3203 4086 L
3237 4086 L
3270 4086 L
3296 4086 L
3312 4086 L
3337 4086 L
3370 4086 L
3403 4086 L
3437 4086 L
3454 4086 L
3471 4086 L
3503 4086 L
3537 4086 L
3570 4086 L
3596 4086 L
3612 4086 L
3637 4086 L
3670 4086 L
3703 4086 L
3737 4086 L
3754 4086 L
3771 4086 L
3803 4086 L
3837 4086 L
3870 4086 L
3896 4086 L
3912 4086 L
3937 4086 L
3970 4086 L
4003 4086 L
4037 4086 L
4070 4086 L
LWMC SL dash05 C05 COSGR

GSN 753 1270 M
770 1270 L
803 1271 L
837 1271 L
870 1272 L
895 1273 L
911 1273 L
937 1274 L
970 1274 L
1003 1276 L
1037 1277 L
1053 1278 L
1070 1278 L
1103 1280 L
1137 1282 L
1170 1285 L
1195 1288 L
1211 1289 L
1237 1291 L
1270 1295 L
1303 1299 L
1337 1304 L
1353 1310 L
1370 1310 L
1403 1317 L
1437 1325 L
1470 1335 L
1495 1346 L
1512 1352 L
1537 1358 L
1570 1373 L
1603 1390 L
1637 1410 L
1653 1433 L
1670 1433 L
1703 1459 L
1737 1489 L
1770 1523 L
1795 1563 L
1812 1586 L
1837 1608 L
1870 1659 L
1903 1717 L
1937 1783 L
1953 1856 L
1971 1858 L
2003 1938 L
2037 2029 L
2070 2128 L
2095 2237 L
2112 2297 L
2137 2354 L
2170 2478 L
2203 2610 L
2237 2747 L
2253 2888 L
2271 2892 L
2303 3029 L
2337 3170 L
2370 3307 L
2395 3437 L
2412 3504 L
2437 3559 L
2470 3670 L
2503 3767 L
2537 3851 L
2553 3920 L
2571 3922 L
2603 3974 L
2637 4015 L
2670 4044 L
2695 4063 L
2712 4070 L
2737 4075 L
2770 4081 L
2803 4084 L
2837 4086 L
2854 4086 L
2871 4086 L
2903 4086 L
2937 4086 L
2970 4086 L
2995 4086 L
3012 4086 L
3037 4086 L
3061 4086 L
3077 4086 L
3103 4086 L
3137 4086 L
3154 4086 L
3171 4086 L
3203 4086 L
3237 4086 L
3270 4086 L
3296 4086 L
3312 4086 L
3337 4086 L
3370 4086 L
3403 4086 L
3437 4086 L
3454 4086 L
3471 4086 L
3503 4086 L
3537 4086 L
3570 4086 L
3596 4086 L
3612 4086 L
3637 4086 L
3670 4086 L
3703 4086 L
3737 4086 L
3754 4086 L
3771 4086 L
3803 4086 L
3837 4086 L
3870 4086 L
3896 4086 L
3912 4086 L
3937 4086 L
3970 4086 L
4003 4086 L
4037 4086 L
4070 4086 L
LWMC SL dash06 C06 COSGR

GSN 753 753 M
770 753 L
803 753 L
837 754 L
870 755 L
895 756 L
911 756 L
937 757 L
970 758 L
1003 760 L
1037 762 L
1053 764 L
1070 764 L
1103 766 L
1137 769 L
1170 772 L
1195 776 L
1211 778 L
1237 780 L
1270 785 L
1303 791 L
1337 798 L
1353 806 L
1370 806 L
1403 816 L
1437 827 L
1470 839 L
1495 854 L
1512 862 L
1537 871 L
1570 891 L
1603 913 L
1637 940 L
1653 970 L
1670 971 L
1703 1005 L
1737 1045 L
1770 1091 L
1795 1143 L
1812 1173 L
1837 1203 L
1870 1271 L
1903 1347 L
1937 1433 L
1953 1528 L
1971 1531 L
2003 1635 L
2037 1752 L
2070 1879 L
2095 2017 L
2112 2094 L
2137 2165 L
2170 2322 L
2203 2485 L
2237 2653 L
2253 2823 L
2271 2828 L
2303 2992 L
2337 3157 L
2370 3315 L
2395 3462 L
2412 3535 L
2437 3595 L
2470 3713 L
2503 3813 L
2537 3895 L
2553 3960 L
2571 3962 L
2603 4008 L
2637 4041 L
2670 4062 L
2695 4075 L
2712 4079 L
2737 4081 L
2770 4084 L
2803 4086 L
2837 4086 L
2854 4086 L
2871 4086 L
2903 4086 L
2937 4086 L
2970 4086 L
2995 4086 L
3012 4086 L
3037 4086 L
3061 4086 L
3077 4086 L
3103 4086 L
3137 4086 L
3154 4086 L
3171 4086 L
3203 4086 L
3237 4086 L
3270 4086 L
3296 4086 L
3312 4086 L
3337 4086 L
3370 4086 L
3403 4086 L
3437 4086 L
3454 4086 L
3471 4086 L
3503 4086 L
3537 4086 L
3570 4086 L
3596 4086 L
3612 4086 L
3637 4086 L
3670 4086 L
3703 4086 L
3737 4086 L
3754 4086 L
3771 4086 L
3803 4086 L
3837 4086 L
3870 4086 L
3896 4086 L
3912 4086 L
3937 4086 L
3970 4086 L
4003 4086 L
4037 4086 L
4070 4086 L
LWMC SL dash07 C07 COSGR

%
%================
% Legend - Begin
%================
%
GSN 4240 4040 M
4480 4040 L
LWMC SL dash01 C01 COSGR
GSN 4540 4001 M helvM (0.5 uM) show grestore
GSN 4240 3860 M
4480 3860 L
LWMC SL dash02 C02 COSGR
GSN 4540 3821 M helvM (1.0 uM) show grestore
GSN 4240 3680 M
4480 3680 L
LWMC SL dash03 C03 COSGR
GSN 4540 3641 M helvM (1.5 uM) show grestore
GSN 4240 3500 M
4480 3500 L
LWMC SL dash04 C04 COSGR
GSN 4540 3461 M helvM (2.0 uM) show grestore
GSN 4240 3320 M
4480 3320 L
LWMC SL dash05 C05 COSGR
GSN 4540 3281 M helvM (2.5 uM) show grestore
GSN 4240 3140 M
4480 3140 L
LWMC SL dash06 C06 COSGR
GSN 4540 3101 M helvM (3.0 uM) show grestore
GSN 4240 2960 M
4480 2960 L
LWMC SL dash07 C07 COSGR
GSN 4540 2921 M helvM (4.0 uM) show grestore
%
%================
% Legend - End
%================
%

%
% Main frame
%
L10
GSN 
620 620 M
4220 620 L
4220 4220 L
620 4220 L
closepath SGR

%
% X axis: large tics
%
L10
GSN 1074 620 M 0  54 rL SGR
GSN 1074 4220 M 0 -54 rL SGR
helvS (0.0001) 1074 470 xlabel
GSN 1572 620 M 0  54 rL SGR
GSN 1572 4220 M 0 -54 rL SGR
helvS (0.001) 1572 470 xlabel
GSN 2071 620 M 0  54 rL SGR
GSN 2071 4220 M 0 -54 rL SGR
helvS (0.01) 2071 470 xlabel
GSN 2570 620 M 0  54 rL SGR
GSN 2570 4220 M 0 -54 rL SGR
helvS (0.1) 2570 470 xlabel
GSN 3068 620 M 0  54 rL SGR
GSN 3068 4220 M 0 -54 rL SGR
helvS (1) 3068 470 xlabel
GSN 3567 620 M 0  54 rL SGR
GSN 3567 4220 M 0 -54 rL SGR
helvS (10) 3567 470 xlabel
GSN 4066 620 M 0  54 rL SGR
GSN 4066 4220 M 0 -54 rL SGR
helvS (100) 4066 470 xlabel
%
% X axis: small tics
%
L5
GSN 725 620 M 0  36 rL SGR
GSN 725 4220 M 0 -36 rL SGR
GSN 813 620 M 0  36 rL SGR
GSN 813 4220 M 0 -36 rL SGR
GSN 875 620 M 0  36 rL SGR
GSN 875 4220 M 0 -36 rL SGR
GSN 924 620 M 0  36 rL SGR
GSN 924 4220 M 0 -36 rL SGR
GSN 963 620 M 0  36 rL SGR
GSN 963 4220 M 0 -36 rL SGR
GSN 996 620 M 0  36 rL SGR
GSN 996 4220 M 0 -36 rL SGR
GSN 1025 620 M 0  36 rL SGR
GSN 1025 4220 M 0 -36 rL SGR
GSN 1051 620 M 0  36 rL SGR
GSN 1051 4220 M 0 -36 rL SGR
GSN 1224 620 M 0  36 rL SGR
GSN 1224 4220 M 0 -36 rL SGR
GSN 1312 620 M 0  36 rL SGR
GSN 1312 4220 M 0 -36 rL SGR
GSN 1374 620 M 0  36 rL SGR
GSN 1374 4220 M 0 -36 rL SGR
GSN 1422 620 M 0  36 rL SGR
GSN 1422 4220 M 0 -36 rL SGR
GSN 1462 620 M 0  36 rL SGR
GSN 1462 4220 M 0 -36 rL SGR
GSN 1495 620 M 0  36 rL SGR
GSN 1495 4220 M 0 -36 rL SGR
GSN 1524 620 M 0  36 rL SGR
GSN 1524 4220 M 0 -36 rL SGR
GSN 1550 620 M 0  36 rL SGR
GSN 1550 4220 M 0 -36 rL SGR
GSN 1722 620 M 0  36 rL SGR
GSN 1722 4220 M 0 -36 rL SGR
GSN 1810 620 M 0  36 rL SGR
GSN 1810 4220 M 0 -36 rL SGR
GSN 1873 620 M 0  36 rL SGR
GSN 1873 4220 M 0 -36 rL SGR
GSN 1921 620 M 0  36 rL SGR
GSN 1921 4220 M 0 -36 rL SGR
GSN 1960 620 M 0  36 rL SGR
GSN 1960 4220 M 0 -36 rL SGR
GSN 1994 620 M 0  36 rL SGR
GSN 1994 4220 M 0 -36 rL SGR
GSN 2023 620 M 0  36 rL SGR
GSN 2023 4220 M 0 -36 rL SGR
GSN 2048 620 M 0  36 rL SGR
GSN 2048 4220 M 0 -36 rL SGR
GSN 2221 620 M 0  36 rL SGR
GSN 2221 4220 M 0 -36 rL SGR
GSN 2309 620 M 0  36 rL SGR
GSN 2309 4220 M 0 -36 rL SGR
GSN 2371 620 M 0  36 rL SGR
GSN 2371 4220 M 0 -36 rL SGR
GSN 2420 620 M 0  36 rL SGR
GSN 2420 4220 M 0 -36 rL SGR
GSN 2459 620 M 0  36 rL SGR
GSN 2459 4220 M 0 -36 rL SGR
GSN 2492 620 M 0  36 rL SGR
GSN 2492 4220 M 0 -36 rL SGR
GSN 2521 620 M 0  36 rL SGR
GSN 2521 4220 M 0 -36 rL SGR
GSN 2547 620 M 0  36 rL SGR
GSN 2547 4220 M 0 -36 rL SGR
GSN 2720 620 M 0  36 rL SGR
GSN 2720 4220 M 0 -36 rL SGR
GSN 2808 620 M 0  36 rL SGR
GSN 2808 4220 M 0 -36 rL SGR
GSN 2870 620 M 0  36 rL SGR
GSN 2870 4220 M 0 -36 rL SGR
GSN 2918 620 M 0  36 rL SGR
GSN 2918 4220 M 0 -36 rL SGR
GSN 2958 620 M 0  36 rL SGR
GSN 2958 4220 M 0 -36 rL SGR
GSN 2991 620 M 0  36 rL SGR
GSN 2991 4220 M 0 -36 rL SGR
GSN 3020 620 M 0  36 rL SGR
GSN 3020 4220 M 0 -36 rL SGR
GSN 3045 620 M 0  36 rL SGR
GSN 3045 4220 M 0 -36 rL SGR
GSN 3218 620 M 0  36 rL SGR
GSN 3218 4220 M 0 -36 rL SGR
GSN 3306 620 M 0  36 rL SGR
GSN 3306 4220 M 0 -36 rL SGR
GSN 3368 620 M 0  36 rL SGR
GSN 3368 4220 M 0 -36 rL SGR
GSN 3417 620 M 0  36 rL SGR
GSN 3417 4220 M 0 -36 rL SGR
GSN 3456 620 M 0  36 rL SGR
GSN 3456 4220 M 0 -36 rL SGR
GSN 3490 620 M 0  36 rL SGR
GSN 3490 4220 M 0 -36 rL SGR
GSN 3519 620 M 0  36 rL SGR
GSN 3519 4220 M 0 -36 rL SGR
GSN 3544 620 M 0  36 rL SGR
GSN 3544 4220 M 0 -36 rL SGR
GSN 3717 620 M 0  36 rL SGR
GSN 3717 4220 M 0 -36 rL SGR
GSN 3805 620 M 0  36 rL SGR
GSN 3805 4220 M 0 -36 rL SGR
GSN 3867 620 M 0  36 rL SGR
GSN 3867 4220 M 0 -36 rL SGR
GSN 3915 620 M 0  36 rL SGR
GSN 3915 4220 M 0 -36 rL SGR
GSN 3955 620 M 0  36 rL SGR
GSN 3955 4220 M 0 -36 rL SGR
GSN 3988 620 M 0  36 rL SGR
GSN 3988 4220 M 0 -36 rL SGR
GSN 4017 620 M 0  36 rL SGR
GSN 4017 4220 M 0 -36 rL SGR
GSN 4043 620 M 0  36 rL SGR
GSN 4043 4220 M 0 -36 rL SGR
GSN 4216 620 M 0  36 rL SGR
GSN 4216 4220 M 0 -36 rL SGR
%
% Y axis: large tics
%
L10
GSN 620 1476 M 54 0 rL SGR
GSN 4220 1476 M -54 0 rL SGR
helvS (-2) 560 1476 ylabel
GSN 620 2781 M 54 0 rL SGR
GSN 4220 2781 M -54 0 rL SGR
helvS (-1) 560 2781 ylabel
GSN 620 4086 M 54 0 rL SGR
GSN 4220 4086 M -54 0 rL SGR
helvS (0) 560 4086 ylabel
%
% Y axis: small tics
%
L5
GSN 620 823 M 36 0 rL SGR
GSN 4220 823 M -36 0 rL SGR
GSN 620 1150 M 36 0 rL SGR
GSN 4220 1150 M -36 0 rL SGR
GSN 620 1476 M 36 0 rL SGR
GSN 4220 1476 M -36 0 rL SGR
GSN 620 1802 M 36 0 rL SGR
GSN 4220 1802 M -36 0 rL SGR
GSN 620 2128 M 36 0 rL SGR
GSN 4220 2128 M -36 0 rL SGR
GSN 620 2455 M 36 0 rL SGR
GSN 4220 2455 M -36 0 rL SGR
GSN 620 2781 M 36 0 rL SGR
GSN 4220 2781 M -36 0 rL SGR
GSN 620 3107 M 36 0 rL SGR
GSN 4220 3107 M -36 0 rL SGR
GSN 620 3434 M 36 0 rL SGR
GSN 4220 3434 M -36 0 rL SGR
GSN 620 3760 M 36 0 rL SGR
GSN 4220 3760 M -36 0 rL SGR
GSN 620 4086 M 36 0 rL SGR
GSN 4220 4086 M -36 0 rL SGR

%
% X axis
%
GSN L5 620 4086 M 4220 4086 L SDA G50 SGR

%
% X-Axis label:
%
gsave 2420 290 M 
[
[(Helvetica) 180 0 true true 0 (t)]
[(Helvetica) 180 0 true true 0 (i)]
[(Helvetica) 180 0 true true 0 (m)]
[(Helvetica) 180 0 true true 0 (e)]
] 0 MCshow grestore

%
% Y-Axis label:
%
gsave 234 2420 M 
currentpoint gsave translate 90 rotate 0 0 moveto
[
[(Helvetica) 180 0 true true 0 (d)]
[(Helvetica) 180 0 true true 0 (\()]
[(Helvetica) 180 0 true true 0 (s)]
[(Helvetica) 180 0 true true 0 (i)]
[(Helvetica) 180 0 true true 0 (g)]
[(Helvetica) 180 0 true true 0 (n)]
[(Helvetica) 180 0 true true 0 (a)]
[(Helvetica) 180 0 true true 0 (l)]
[(Helvetica) 180 0 true true 0 (\))]
[(Helvetica) 180 0 true true 0 ( )]
[(Helvetica) 180 0 true true 0 (/)]
[(Helvetica) 180 0 true true 0 ( )]
[(Helvetica) 180 0 true true 0 (d)]
[(Helvetica) 180 0 true true 0 (t)]
] 0 MCshow grestore

end
showpage
%%Trailer
%%EOF
