%!PS-Adobe-3.0 EPSF-3.0
%%BoundingBox: 0 0 514 550
%%Creator: BioKin Ltd.
%%DocumentFonts: Symbol Helvetica
%%EndComments
%
/bkdict 256 dict def
bkdict begin
/M {moveto} def 
/R {rmoveto} def
/L {lineto} def
/rL {rlineto} def
/GSN {gsave newpath} def
/SGR {stroke grestore} def
/COSGR {gsave setrgbcolor stroke grestore grestore} def
/SL {setlinewidth} def
/LWMB {12} def             % line width - model curves, black & white
/LWMC {10} def             % line width - model curves, color
/L2 {2.5 setlinewidth} def
/L5 {5 setlinewidth} def
/L10 {10 setlinewidth} def
/G50 {0.5 setgray} def
/SDA {[10  20] 0 setdash} def % axes
/helvT {/Helvetica findfont 100 scalefont setfont} def % tiny
/helvS {/Helvetica findfont 125 scalefont setfont} def % small
/helvM {/Helvetica findfont 150 scalefont setfont} def % medium
/helvL {/Helvetica findfont 175 scalefont setfont} def % large
/xlabel {gsave M dup
   stringwidth exch -0.5 mul exch rmoveto show grestore} def 
/ylabel {gsave M 90 rotate dup
   stringwidth exch -0.5 mul exch rmoveto show grestore} def
/ylabelresid {gsave M dup
   stringwidth exch -1 mul exch rmoveto show grestore} def
% ======
% Shapes
% ======
% Circle:
/Circ {0 360 arc closepath} def
%
% Square:
/Squa {dup dup -0.5 mul dup dup R -2 mul 0 exch rL 1 mul 0 rL dup 0 exch -1 mul rL closepath} def
%
% Triangle Up:
/TriU {dup dup dup -0.4 mul exch -0.5 mul exch R dup 0.5 mul exch rL dup -1 mul exch 0.5 mul exch rL closepath} def 
%
% Triangle Down:
/TriD {dup dup dup 0.4 mul exch -0.5 mul exch R dup 0.5 mul exch -1 mul rL dup 0.5 mul exch rL closepath} def 
%
% Diamond:
/Diam {45 rotate Squa} def
% ======
% Fills
% ======
/GRF {gsave setgray fill grestore} def                    % gray-level Fill
/COF {gsave setrgbcolor fill grestore} def                % color fill
% ======
% Colors
% ======
/C01 {1.00	0.00	0.00} def      % Red
/C02 {0.00	0.00	1.00} def      % Blue
/C03 {0.00	0.39	0.00} def      % Dark Green
/C04 {0.78	0.08	0.52} def      % Medium Violet Red
/C05 {0.55	0.27	0.07} def      % Saddle Brown
/C06 {0.10	0.70	0.70} def      % (cyan)
/C07 {1.00	0.55	0.00} def      % Dark Orange
/C08 {0.63	0.13	0.94} def      % Purple
/C09 {0.00	0.75	1.00} def      % Deep Sky Blue
/C10 {0.20	0.80	0.20} def      % Lime Green
/C11 {0.47	0.53	0.60} def      % Light Slate Gray
/C12 {0.00	0.00	0.00} def      % Black            % or: {0.19	0.31	0.31} def      % Dark Slate Gray
%
/LGR {0.75} def % light gray
/DGR {0.33} def % dark gray
%
% =============
% Dash patterns
% =============
/dash01 { [80  20] 0 setdash } def
/dash02 { [40  20] 0 setdash } def
/dash03 { [80  20  10  20] 0 setdash } def
/dash04 { [40  20  10  20] 0 setdash } def
/dash05 { [80  20  10  10  10  20] 0 setdash } def
/dash06 { [40  20  10  10  10  20] 0 setdash } def
/dash07 { [10  10] 0 setdash } def
%
/MFshow {
   { dup 5 get 3 ge
     { 5 get 3 eq {gsave} {grestore} ifelse }
     {dup dup 0 get findfont exch 1 get scalefont setfont
     [ currentpoint ] exch dup 2 get 0 exch R dup 5 get 2 ne {dup dup 6
     get exch 4 get {show} {stringwidth pop 0 R} ifelse }if dup 5 get 0 eq
     {dup 3 get {2 get neg 0 exch R pop} {pop aload pop M} ifelse} {dup 5
     get 1 eq {dup 2 get exch dup 3 get exch 6 get stringwidth pop -2 div
     dup 0 R} {dup 6 get stringwidth pop -2 div 0 R 6 get
     show 2 index {aload pop M neg 3 -1 roll neg R pop pop} {pop pop pop
     pop aload pop M} ifelse }ifelse }ifelse }
     ifelse }
   forall} bind def
/MFwidth {0 exch {dup 3 get{dup dup 0 get findfont exch 1 get scalefont
     setfont 6 get stringwidth pop add} {pop} ifelse} forall} bind def
/MCshow { currentpoint stroke M
  exch dup MFwidth -2 div 3 -1 roll R MFshow } def
%
end
%%EndProlog
bkdict begin
0.1 0.1 scale
%
% Residuals:
%
GSN 620 2535 M
620 3231 L
620 3178 L
620 2819 L
620 3268 L
620 3189 L
620 2996 L
620 3194 L
620 3005 L
620 3038 L
620 3421 L
620 3240 L
620 3184 L
620 3447 L
620 3455 L
620 3340 L
620 3504 L
620 3270 L
620 3469 L
620 3581 L
620 3740 L
620 3880 L
620 3557 L
620 3534 L
620 3450 L
620 3621 L
620 4132 L
620 4059 L
620 3778 L
620 3804 L
620 3771 L
620 3801 L
620 3864 L
620 4054 L
620 3392 L
620 4140 L
620 3615 L
620 3658 L
620 3545 L
620 3795 L
620 3816 L
620 3338 L
620 3794 L
620 3805 L
620 3521 L
620 3740 L
620 3974 L
620 3947 L
620 3499 L
620 3626 L
620 3690 L
620 3511 L
620 3470 L
620 3691 L
620 3775 L
620 3541 L
620 3385 L
620 3430 L
620 3435 L
620 3822 L
620 3530 L
620 3799 L
620 3812 L
620 3524 L
620 3562 L
620 3349 L
620 3323 L
620 3748 L
620 3591 L
620 3787 L
620 3267 L
620 3499 L
620 3589 L
620 3643 L
620 3576 L
620 3511 L
620 3308 L
620 3315 L
620 3504 L
620 3551 L
620 3620 L
620 3238 L
620 3151 L
620 3121 L
620 2753 L
620 3163 L
620 3316 L
620 3049 L
620 3083 L
620 2988 L
620 3192 L
620 2538 L
620 3080 L
620 2799 L
620 2712 L
620 2510 L
620 2556 L
620 2724 L
620 2650 L
620 2426 L
620 2591 L
620 2679 L
620 2934 L
620 2516 L
620 2666 L
620 2846 L
620 2605 L
620 2671 L
620 2531 L
620 2646 L
620 2550 L
620 2631 L
620 2315 L
620 2180 L
620 2294 L
620 2136 L
620 2376 L
620 2179 L
620 2661 L
620 2551 L
620 2591 L
620 2469 L
620 2701 L
620 2783 L
620 2338 L
620 2515 L
620 2713 L
620 2347 L
620 2922 L
620 2534 L
620 2327 L
620 2807 L
620 2838 L
620 2810 L
620 2590 L
620 2169 L
620 2972 L
620 2634 L
620 2549 L
620 2506 L
620 2967 L
620 2690 L
620 2640 L
620 3209 L
620 2453 L
620 2406 L
620 2674 L
620 2653 L
620 2750 L
620 2603 L
620 2400 L
620 2767 L
620 2984 L
620 2774 L
620 2721 L
620 2591 L
620 2537 L
620 3072 L
620 2815 L
620 2516 L
620 2956 L
620 2638 L
620 2654 L
620 3106 L
620 2772 L
620 2772 L
620 3223 L
620 2926 L
620 2837 L
620 3059 L
620 3146 L
620 2952 L
620 2747 L
620 2935 L
620 3360 L
620 3133 L
620 2747 L
620 3290 L
620 3231 L
620 2938 L
620 2715 L
620 3258 L
620 3287 L
620 3032 L
620 2625 L
620 3264 L
620 3104 L
620 3161 L
620 3497 L
620 3064 L
620 3223 L
620 3405 L
620 3081 L
620 3201 L
620 3104 L
620 3345 L
620 3402 L
620 3207 L
620 3103 L
620 3077 L
620 3118 L
620 3305 L
620 3606 L
620 3268 L
620 3384 L
620 2889 L
620 3455 L
620 3180 L
620 3451 L
620 3308 L
620 3170 L
620 3626 L
620 3587 L
620 3220 L
620 3371 L
620 3506 L
620 3632 L
620 3235 L
620 3572 L
620 3696 L
620 3490 L
620 3419 L
620 3130 L
620 3520 L
620 3157 L
620 3426 L
620 3539 L
620 3520 L
620 3643 L
620 3591 L
620 3302 L
620 3890 L
620 3399 L
620 3360 L
620 3830 L
620 3556 L
620 3513 L
620 3597 L
620 3202 L
620 3336 L
620 3897 L
620 3784 L
620 3683 L
620 3939 L
620 3493 L
620 3367 L
620 3461 L
620 3921 L
620 3714 L
620 3459 L
620 3573 L
620 3824 L
620 3674 L
620 3681 L
620 3336 L
620 3829 L
620 4007 L
620 3642 L
620 3594 L
620 3677 L
620 3774 L
620 3678 L
620 3715 L
620 3784 L
620 3410 L
620 3932 L
620 3793 L
620 3704 L
620 3802 L
620 3973 L
620 3348 L
620 3589 L
620 3733 L
620 3987 L
620 3661 L
620 3830 L
620 3718 L
620 3827 L
620 3836 L
620 3306 L
620 4093 L
620 3867 L
620 4231 L
620 3904 L
620 3843 L
620 4325 L
620 4310 L
620 4115 L
620 4026 L
620 4462 L
620 4195 L
620 4326 L
620 3940 L
620 4261 L
620 4156 L
620 4280 L
620 4227 L
620 4382 L
620 4250 L
620 4111 L
620 4393 L
620 4232 L
620 4261 L
620 4325 L
620 4422 L
620 4253 L
620 4085 L
620 4466 L
620 4219 L
620 4613 L
620 4863 L
620 4465 L
620 4298 L
620 4147 L
620 4579 L
620 4416 L
620 4105 L
620 4250 L
620 4344 L
620 4632 L
620 4722 L
620 4144 L
620 4126 L
620 4216 L
620 4456 L
620 4288 L
620 4525 L
620 4440 L
620 4267 L
620 4288 L
620 4258 L
620 4278 L
620 4297 L
620 4061 L
620 4182 L
620 4764 L
620 4193 L
620 4324 L
620 4014 L
620 4055 L
620 4296 L
620 4165 L
620 4223 L
620 4132 L
620 4313 L
620 4482 L
620 4071 L
620 4735 L
620 4160 L
620 4229 L
620 4420 L
620 4060 L
620 3972 L
620 4387 L
620 4485 L
620 3906 L
620 4263 L
620 3937 L
620 4011 L
620 4416 L
620 4181 L
620 4108 L
620 3888 L
620 4084 L
620 4134 L
620 4409 L
620 4260 L
620 3948 L
620 4086 L
620 4082 L
620 4234 L
620 3749 L
620 3970 L
620 3879 L
620 3840 L
620 4070 L
620 3886 L
620 3841 L
620 4159 L
620 4487 L
620 4246 L
620 4031 L
620 3706 L
620 4160 L
620 3655 L
620 3985 L
620 4100 L
620 3879 L
620 3960 L
620 4076 L
620 4088 L
620 3800 L
620 3676 L
620 3665 L
620 3665 L
620 3841 L
620 3846 L
620 3614 L
620 3764 L
620 3775 L
620 3420 L
620 3764 L
620 3911 L
620 3879 L
620 3694 L
620 3766 L
620 3689 L
620 3926 L
620 3700 L
620 3857 L
620 4148 L
620 3923 L
620 3699 L
620 3930 L
620 3811 L
620 3820 L
620 3869 L
620 3407 L
620 3494 L
620 3746 L
620 3909 L
620 3805 L
620 3608 L
620 3655 L
620 3716 L
620 3871 L
620 3700 L
620 4042 L
620 3853 L
620 3756 L
620 4082 L
620 3889 L
620 3735 L
620 3764 L
620 3764 L
620 3671 L
620 3465 L
620 3920 L
620 3544 L
620 3952 L
620 3994 L
620 3782 L
620 3629 L
620 3642 L
620 3918 L
620 3972 L
620 3680 L
620 3788 L
620 3946 L
620 3747 L
620 3682 L
620 3694 L
620 3528 L
620 3280 L
620 3407 L
620 3431 L
620 3434 L
620 3606 L
620 3562 L
620 3724 L
620 3871 L
620 3610 L
620 3639 L
620 3978 L
620 3773 L
620 3501 L
620 3771 L
620 4146 L
620 3488 L
620 3649 L
620 3825 L
620 3264 L
620 3352 L
620 3384 L
620 3958 L
620 3757 L
620 3493 L
620 3619 L
620 3368 L
620 3594 L
620 3062 L
620 3805 L
620 3530 L
620 3323 L
620 3266 L
620 3823 L
620 3575 L
620 3184 L
620 3800 L
620 3719 L
620 3802 L
620 3322 L
620 3568 L
620 3335 L
620 3440 L
620 3780 L
620 3335 L
620 3616 L
620 3306 L
620 3155 L
620 3487 L
620 3534 L
620 3641 L
620 3587 L
620 3638 L
620 3633 L
620 3857 L
620 3743 L
620 3680 L
620 3488 L
620 3483 L
620 3248 L
620 3343 L
620 3543 L
620 3506 L
620 3558 L
620 3447 L
620 3681 L
620 3381 L
620 3982 L
620 3343 L
620 3643 L
620 3380 L
620 3342 L
620 3863 L
620 3472 L
620 3498 L
620 3456 L
620 3746 L
620 3798 L
620 3436 L
620 3524 L
620 3284 L
L2 C06 COSGR

%
%================
% Legend - Begin
%================
%
GSN 4240 5180 M
4480 5180 L
LWMC SL  C06 COSGR
GSN 4540 5141 M helvM (3.0 uM) show grestore
%
%================
% Legend - End
%================
%

%
% Main frame
%
L10
GSN 
620 1700 M
4220 1700 L
4220 5300 L
620 5300 L
closepath SGR

%
% X axis: large tics
%
L10
%
% X axis: small tics
%
L5
%
% Y axis: large tics
%
L10
GSN 620 2052 M 54 0 rL SGR
GSN 4220 2052 M -54 0 rL SGR
helvS (-0.02) 560 2052 ylabel
GSN 620 2800 M 54 0 rL SGR
GSN 4220 2800 M -54 0 rL SGR
helvS (-0.01) 560 2800 ylabel
GSN 620 3548 M 54 0 rL SGR
GSN 4220 3548 M -54 0 rL SGR
helvS (0) 560 3548 ylabel
GSN 620 4295 M 54 0 rL SGR
GSN 4220 4295 M -54 0 rL SGR
helvS (0.01) 560 4295 ylabel
GSN 620 5043 M 54 0 rL SGR
GSN 4220 5043 M -54 0 rL SGR
helvS (0.02) 560 5043 ylabel
%
% Y axis: small tics
%
L5
GSN 620 1865 M 36 0 rL SGR
GSN 4220 1865 M -36 0 rL SGR
GSN 620 2052 M 36 0 rL SGR
GSN 4220 2052 M -36 0 rL SGR
GSN 620 2239 M 36 0 rL SGR
GSN 4220 2239 M -36 0 rL SGR
GSN 620 2426 M 36 0 rL SGR
GSN 4220 2426 M -36 0 rL SGR
GSN 620 2613 M 36 0 rL SGR
GSN 4220 2613 M -36 0 rL SGR
GSN 620 2800 M 36 0 rL SGR
GSN 4220 2800 M -36 0 rL SGR
GSN 620 2987 M 36 0 rL SGR
GSN 4220 2987 M -36 0 rL SGR
GSN 620 3174 M 36 0 rL SGR
GSN 4220 3174 M -36 0 rL SGR
GSN 620 3361 M 36 0 rL SGR
GSN 4220 3361 M -36 0 rL SGR
GSN 620 3548 M 36 0 rL SGR
GSN 4220 3548 M -36 0 rL SGR
GSN 620 3735 M 36 0 rL SGR
GSN 4220 3735 M -36 0 rL SGR
GSN 620 3922 M 36 0 rL SGR
GSN 4220 3922 M -36 0 rL SGR
GSN 620 4109 M 36 0 rL SGR
GSN 4220 4109 M -36 0 rL SGR
GSN 620 4295 M 36 0 rL SGR
GSN 4220 4295 M -36 0 rL SGR
GSN 620 4482 M 36 0 rL SGR
GSN 4220 4482 M -36 0 rL SGR
GSN 620 4669 M 36 0 rL SGR
GSN 4220 4669 M -36 0 rL SGR
GSN 620 4856 M 36 0 rL SGR
GSN 4220 4856 M -36 0 rL SGR
GSN 620 5043 M 36 0 rL SGR
GSN 4220 5043 M -36 0 rL SGR
GSN 620 5230 M 36 0 rL SGR
GSN 4220 5230 M -36 0 rL SGR

%
% X axis - residual panel
%
GSN L5 620 3548 M 4220 3548 L SDA G50 SGR

%
% X-Axis label:
%
gsave 620 1370 M 
[
[(Helvetica) 180 0 true true 0 (t)]
[(Helvetica) 180 0 true true 0 (i)]
[(Helvetica) 180 0 true true 0 (m)]
[(Helvetica) 180 0 true true 0 (e)]
] 0 MCshow grestore

%
% Y-Axis label:
%
gsave 234 3500 M 
currentpoint gsave translate 90 rotate 0 0 moveto
[
[(Helvetica) 180 0 true true 0 (r)]
[(Helvetica) 180 0 true true 0 (e)]
[(Helvetica) 180 0 true true 0 (s)]
[(Helvetica) 180 0 true true 0 (i)]
[(Helvetica) 180 0 true true 0 (d)]
[(Helvetica) 180 0 true true 0 (u)]
[(Helvetica) 180 0 true true 0 (a)]
[(Helvetica) 180 0 true true 0 (l)]
[(Helvetica) 180 0 true true 0 (s)]
] 0 MCshow grestore

end
showpage
%%Trailer
%%EOF
