%!PS-Adobe-3.0 EPSF-3.0
%%BoundingBox: 0 0 514 442
%%Creator: BioKin Ltd.
%%DocumentFonts: Symbol Helvetica
%%EndComments
%
/bkdict 256 dict def
bkdict begin
/M {moveto} def 
/R {rmoveto} def
/L {lineto} def
/rL {rlineto} def
/GSN {gsave newpath} def
/SGR {stroke grestore} def
/COSGR {gsave setrgbcolor stroke grestore grestore} def
/SL {setlinewidth} def
/LWMB {12} def             % line width - model curves, black & white
/LWMC {10} def             % line width - model curves, color
/L2 {2.5 setlinewidth} def
/L5 {5 setlinewidth} def
/L10 {10 setlinewidth} def
/G50 {0.5 setgray} def
/SDA {[10  20] 0 setdash} def % axes
/helvT {/Helvetica findfont 100 scalefont setfont} def % tiny
/helvS {/Helvetica findfont 125 scalefont setfont} def % small
/helvM {/Helvetica findfont 150 scalefont setfont} def % medium
/helvL {/Helvetica findfont 175 scalefont setfont} def % large
/xlabel {gsave M dup
   stringwidth exch -0.5 mul exch rmoveto show grestore} def 
/ylabel {gsave M 90 rotate dup
   stringwidth exch -0.5 mul exch rmoveto show grestore} def
/ylabelresid {gsave M dup
   stringwidth exch -1 mul exch rmoveto show grestore} def
% ======
% Shapes
% ======
% Circle:
/Circ {0 360 arc closepath} def
%
% Square:
/Squa {dup dup -0.5 mul dup dup R -2 mul 0 exch rL 1 mul 0 rL dup 0 exch -1 mul rL closepath} def
%
% Triangle Up:
/TriU {dup dup dup -0.4 mul exch -0.5 mul exch R dup 0.5 mul exch rL dup -1 mul exch 0.5 mul exch rL closepath} def 
%
% Triangle Down:
/TriD {dup dup dup 0.4 mul exch -0.5 mul exch R dup 0.5 mul exch -1 mul rL dup 0.5 mul exch rL closepath} def 
%
% Diamond:
/Diam {45 rotate Squa} def
% ======
% Fills
% ======
/GRF {gsave setgray fill grestore} def                    % gray-level Fill
/COF {gsave setrgbcolor fill grestore} def                % color fill
% ======
% Colors
% ======
/C01 {1.00	0.00	0.00} def      % Red
/C02 {0.00	0.00	1.00} def      % Blue
/C03 {0.00	0.39	0.00} def      % Dark Green
/C04 {0.78	0.08	0.52} def      % Medium Violet Red
/C05 {0.55	0.27	0.07} def      % Saddle Brown
/C06 {0.10	0.70	0.70} def      % (cyan)
/C07 {1.00	0.55	0.00} def      % Dark Orange
/C08 {0.63	0.13	0.94} def      % Purple
/C09 {0.00	0.75	1.00} def      % Deep Sky Blue
/C10 {0.20	0.80	0.20} def      % Lime Green
/C11 {0.47	0.53	0.60} def      % Light Slate Gray
/C12 {0.00	0.00	0.00} def      % Black            % or: {0.19	0.31	0.31} def      % Dark Slate Gray
%
/LGR {0.75} def % light gray
/DGR {0.33} def % dark gray
%
% =============
% Dash patterns
% =============
/dash01 { [80  20] 0 setdash } def
/dash02 { [40  20] 0 setdash } def
/dash03 { [80  20  10  20] 0 setdash } def
/dash04 { [40  20  10  20] 0 setdash } def
/dash05 { [80  20  10  10  10  20] 0 setdash } def
/dash06 { [40  20  10  10  10  20] 0 setdash } def
/dash07 { [10  10] 0 setdash } def
%
/MFshow {
   { dup 5 get 3 ge
     { 5 get 3 eq {gsave} {grestore} ifelse }
     {dup dup 0 get findfont exch 1 get scalefont setfont
     [ currentpoint ] exch dup 2 get 0 exch R dup 5 get 2 ne {dup dup 6
     get exch 4 get {show} {stringwidth pop 0 R} ifelse }if dup 5 get 0 eq
     {dup 3 get {2 get neg 0 exch R pop} {pop aload pop M} ifelse} {dup 5
     get 1 eq {dup 2 get exch dup 3 get exch 6 get stringwidth pop -2 div
     dup 0 R} {dup 6 get stringwidth pop -2 div 0 R 6 get
     show 2 index {aload pop M neg 3 -1 roll neg R pop pop} {pop pop pop
     pop aload pop M} ifelse }ifelse }ifelse }
     ifelse }
   forall} bind def
/MFwidth {0 exch {dup 3 get{dup dup 0 get findfont exch 1 get scalefont
     setfont 6 get stringwidth pop add} {pop} ifelse} forall} bind def
/MCshow { currentpoint stroke M
  exch dup MFwidth -2 div 3 -1 roll R MFshow } def
%
end
%%EndProlog
bkdict begin
0.1 0.1 scale
%
% Model curves:
%

GSN 753 3578 M
770 3578 L
803 3578 L
837 3578 L
870 3578 L
895 3578 L
911 3578 L
937 3578 L
970 3578 L
1003 3578 L
1037 3578 L
1053 3578 L
1070 3578 L
1103 3579 L
1137 3579 L
1170 3579 L
1195 3579 L
1211 3579 L
1237 3580 L
1270 3580 L
1303 3581 L
1337 3581 L
1353 3582 L
1370 3582 L
1403 3582 L
1437 3583 L
1470 3584 L
1495 3585 L
1512 3586 L
1537 3587 L
1570 3588 L
1603 3590 L
1637 3592 L
1653 3595 L
1670 3595 L
1703 3597 L
1737 3601 L
1770 3604 L
1795 3609 L
1812 3611 L
1837 3614 L
1870 3619 L
1903 3626 L
1937 3633 L
1953 3642 L
1971 3642 L
2003 3651 L
2037 3662 L
2070 3674 L
2095 3687 L
2112 3695 L
2137 3702 L
2170 3719 L
2203 3737 L
2237 3756 L
2253 3777 L
2271 3778 L
2303 3799 L
2337 3822 L
2370 3845 L
2395 3869 L
2412 3882 L
2437 3893 L
2470 3917 L
2503 3940 L
2537 3961 L
2553 3982 L
2571 3982 L
2603 4000 L
2637 4017 L
2670 4031 L
2695 4044 L
2712 4050 L
2737 4054 L
2770 4063 L
2803 4070 L
2837 4075 L
2854 4079 L
2871 4079 L
2903 4082 L
2937 4084 L
2970 4085 L
2995 4086 L
3012 4086 L
3037 4086 L
3061 4086 L
3077 4086 L
3103 4086 L
3137 4086 L
3154 4086 L
3171 4086 L
3203 4086 L
3237 4086 L
3270 4086 L
3296 4086 L
3312 4086 L
3337 4086 L
3370 4086 L
3403 4086 L
3437 4086 L
3454 4086 L
3471 4086 L
3503 4086 L
3537 4086 L
3570 4086 L
3596 4086 L
3612 4086 L
3637 4086 L
3670 4086 L
3703 4086 L
3737 4086 L
3754 4086 L
3771 4086 L
3803 4086 L
3837 4086 L
3870 4086 L
3896 4086 L
3912 4086 L
3937 4086 L
3970 4086 L
4003 4086 L
4037 4086 L
4070 4086 L
LWMC SL dash01 C01 COSGR

GSN 753 3246 M
770 3246 L
803 3246 L
837 3247 L
870 3247 L
895 3247 L
911 3247 L
937 3247 L
970 3247 L
1003 3247 L
1037 3248 L
1053 3248 L
1070 3248 L
1103 3248 L
1137 3249 L
1170 3249 L
1195 3250 L
1211 3250 L
1237 3251 L
1270 3251 L
1303 3252 L
1337 3253 L
1353 3255 L
1370 3255 L
1403 3256 L
1437 3258 L
1470 3260 L
1495 3262 L
1512 3263 L
1537 3265 L
1570 3268 L
1603 3271 L
1637 3276 L
1653 3280 L
1670 3280 L
1703 3286 L
1737 3292 L
1770 3300 L
1795 3308 L
1812 3313 L
1837 3318 L
1870 3329 L
1903 3341 L
1937 3356 L
1953 3372 L
1971 3372 L
2003 3390 L
2037 3411 L
2070 3433 L
2095 3458 L
2112 3472 L
2137 3486 L
2170 3515 L
2203 3548 L
2237 3582 L
2253 3617 L
2271 3619 L
2303 3655 L
2337 3693 L
2370 3731 L
2395 3769 L
2412 3789 L
2437 3807 L
2470 3842 L
2503 3876 L
2537 3907 L
2553 3936 L
2571 3937 L
2603 3961 L
2637 3984 L
2670 4003 L
2695 4020 L
2712 4028 L
2737 4034 L
2770 4045 L
2803 4054 L
2837 4062 L
2854 4068 L
2871 4068 L
2903 4073 L
2937 4076 L
2970 4079 L
2995 4081 L
3012 4082 L
3037 4083 L
3061 4084 L
3077 4084 L
3103 4085 L
3137 4085 L
3154 4086 L
3171 4086 L
3203 4086 L
3237 4086 L
3270 4086 L
3296 4086 L
3312 4086 L
3337 4086 L
3370 4086 L
3403 4086 L
3437 4086 L
3454 4086 L
3471 4086 L
3503 4086 L
3537 4086 L
3570 4086 L
3596 4086 L
3612 4086 L
3637 4086 L
3670 4086 L
3703 4086 L
3737 4086 L
3754 4086 L
3771 4086 L
3803 4086 L
3837 4086 L
3870 4086 L
3896 4086 L
3912 4086 L
3937 4086 L
3970 4086 L
4003 4086 L
4037 4086 L
4070 4086 L
LWMC SL dash02 C02 COSGR

GSN 753 2729 M
770 2729 L
803 2729 L
837 2730 L
870 2730 L
895 2730 L
911 2730 L
937 2731 L
970 2731 L
1003 2731 L
1037 2732 L
1053 2733 L
1070 2733 L
1103 2733 L
1137 2734 L
1170 2735 L
1195 2737 L
1211 2737 L
1237 2738 L
1270 2740 L
1303 2742 L
1337 2744 L
1353 2747 L
1370 2747 L
1403 2750 L
1437 2753 L
1470 2757 L
1495 2762 L
1512 2765 L
1537 2768 L
1570 2774 L
1603 2782 L
1637 2790 L
1653 2800 L
1670 2801 L
1703 2812 L
1737 2825 L
1770 2840 L
1795 2858 L
1812 2868 L
1837 2877 L
1870 2900 L
1903 2925 L
1937 2954 L
1953 2986 L
1971 2987 L
2003 3022 L
2037 3062 L
2070 3106 L
2095 3153 L
2112 3180 L
2137 3205 L
2170 3260 L
2203 3318 L
2237 3378 L
2253 3440 L
2271 3442 L
2303 3504 L
2337 3567 L
2370 3629 L
2395 3688 L
2412 3719 L
2437 3745 L
2470 3798 L
2503 3847 L
2537 3890 L
2553 3928 L
2571 3930 L
2603 3962 L
2637 3990 L
2670 4014 L
2695 4033 L
2712 4041 L
2737 4048 L
2770 4060 L
2803 4069 L
2837 4075 L
2854 4080 L
2871 4080 L
2903 4083 L
2937 4084 L
2970 4085 L
2995 4086 L
3012 4086 L
3037 4086 L
3061 4086 L
3077 4086 L
3103 4086 L
3137 4086 L
3154 4086 L
3171 4086 L
3203 4086 L
3237 4086 L
3270 4086 L
3296 4086 L
3312 4086 L
3337 4086 L
3370 4086 L
3403 4086 L
3437 4086 L
3454 4086 L
3471 4086 L
3503 4086 L
3537 4086 L
3570 4086 L
3596 4086 L
3612 4086 L
3637 4086 L
3670 4086 L
3703 4086 L
3737 4086 L
3754 4086 L
3771 4086 L
3803 4086 L
3837 4086 L
3870 4086 L
3896 4086 L
3912 4086 L
3937 4086 L
3970 4086 L
4003 4086 L
4037 4086 L
4070 4086 L
LWMC SL dash03 C03 COSGR

GSN 753 2208 M
770 2208 L
803 2208 L
837 2208 L
870 2209 L
895 2209 L
911 2210 L
937 2210 L
970 2211 L
1003 2211 L
1037 2212 L
1053 2214 L
1070 2214 L
1103 2215 L
1137 2216 L
1170 2218 L
1195 2220 L
1211 2221 L
1237 2223 L
1270 2225 L
1303 2229 L
1337 2232 L
1353 2237 L
1370 2237 L
1403 2242 L
1437 2248 L
1470 2255 L
1495 2263 L
1512 2268 L
1537 2272 L
1570 2283 L
1603 2295 L
1637 2310 L
1653 2326 L
1670 2327 L
1703 2345 L
1737 2367 L
1770 2392 L
1795 2420 L
1812 2437 L
1837 2453 L
1870 2489 L
1903 2530 L
1937 2577 L
1953 2628 L
1971 2629 L
2003 2685 L
2037 2747 L
2070 2815 L
2095 2888 L
2112 2929 L
2137 2966 L
2170 3049 L
2203 3134 L
2237 3222 L
2253 3311 L
2271 3314 L
2303 3400 L
2337 3487 L
2370 3570 L
2395 3649 L
2412 3689 L
2437 3723 L
2470 3789 L
2503 3848 L
2537 3900 L
2553 3944 L
2571 3946 L
2603 3981 L
2637 4011 L
2670 4035 L
2695 4053 L
2712 4060 L
2737 4065 L
2770 4074 L
2803 4080 L
2837 4083 L
2854 4085 L
2871 4085 L
2903 4086 L
2937 4086 L
2970 4086 L
2995 4086 L
3012 4086 L
3037 4086 L
3061 4086 L
3077 4086 L
3103 4086 L
3137 4086 L
3154 4086 L
3171 4086 L
3203 4086 L
3237 4086 L
3270 4086 L
3296 4086 L
3312 4086 L
3337 4086 L
3370 4086 L
3403 4086 L
3437 4086 L
3454 4086 L
3471 4086 L
3503 4086 L
3537 4086 L
3570 4086 L
3596 4086 L
3612 4086 L
3637 4086 L
3670 4086 L
3703 4086 L
3737 4086 L
3754 4086 L
3771 4086 L
3803 4086 L
3837 4086 L
3870 4086 L
3896 4086 L
3912 4086 L
3937 4086 L
3970 4086 L
4003 4086 L
4037 4086 L
4070 4086 L
LWMC SL dash04 C04 COSGR

GSN 753 2115 M
770 2115 L
803 2116 L
837 2116 L
870 2117 L
895 2117 L
911 2117 L
937 2118 L
970 2119 L
1003 2120 L
1037 2121 L
1053 2122 L
1070 2122 L
1103 2123 L
1137 2125 L
1170 2127 L
1195 2129 L
1211 2131 L
1237 2132 L
1270 2135 L
1303 2139 L
1337 2143 L
1353 2148 L
1370 2148 L
1403 2153 L
1437 2160 L
1470 2168 L
1495 2177 L
1512 2182 L
1537 2187 L
1570 2199 L
1603 2213 L
1637 2228 L
1653 2247 L
1670 2247 L
1703 2268 L
1737 2292 L
1770 2319 L
1795 2351 L
1812 2369 L
1837 2386 L
1870 2426 L
1903 2472 L
1937 2522 L
1953 2579 L
1971 2580 L
2003 2641 L
2037 2709 L
2070 2783 L
2095 2862 L
2112 2907 L
2137 2947 L
2170 3036 L
2203 3128 L
2237 3222 L
2253 3317 L
2271 3320 L
2303 3411 L
2337 3503 L
2370 3590 L
2395 3673 L
2412 3714 L
2437 3748 L
2470 3816 L
2503 3876 L
2537 3927 L
2553 3969 L
2571 3971 L
2603 4004 L
2637 4031 L
2670 4051 L
2695 4065 L
2712 4071 L
2737 4075 L
2770 4080 L
2803 4084 L
2837 4085 L
2854 4086 L
2871 4086 L
2903 4086 L
2937 4086 L
2970 4086 L
2995 4086 L
3012 4086 L
3037 4086 L
3061 4086 L
3077 4086 L
3103 4086 L
3137 4086 L
3154 4086 L
3171 4086 L
3203 4086 L
3237 4086 L
3270 4086 L
3296 4086 L
3312 4086 L
3337 4086 L
3370 4086 L
3403 4086 L
3437 4086 L
3454 4086 L
3471 4086 L
3503 4086 L
3537 4086 L
3570 4086 L
3596 4086 L
3612 4086 L
3637 4086 L
3670 4086 L
3703 4086 L
3737 4086 L
3754 4086 L
3771 4086 L
3803 4086 L
3837 4086 L
3870 4086 L
3896 4086 L
3912 4086 L
3937 4086 L
3970 4086 L
4003 4086 L
4037 4086 L
4070 4086 L
LWMC SL dash05 C05 COSGR

GSN 753 1804 M
770 1804 L
803 1805 L
837 1806 L
870 1806 L
895 1807 L
911 1807 L
937 1808 L
970 1809 L
1003 1810 L
1037 1811 L
1053 1813 L
1070 1813 L
1103 1815 L
1137 1817 L
1170 1819 L
1195 1822 L
1211 1824 L
1237 1826 L
1270 1830 L
1303 1834 L
1337 1840 L
1353 1846 L
1370 1846 L
1403 1853 L
1437 1862 L
1470 1871 L
1495 1883 L
1512 1889 L
1537 1896 L
1570 1911 L
1603 1928 L
1637 1949 L
1653 1972 L
1670 1972 L
1703 1998 L
1737 2029 L
1770 2064 L
1795 2103 L
1812 2126 L
1837 2148 L
1870 2198 L
1903 2255 L
1937 2318 L
1953 2388 L
1971 2390 L
2003 2465 L
2037 2548 L
2070 2639 L
2095 2736 L
2112 2789 L
2137 2838 L
2170 2944 L
2203 3054 L
2237 3165 L
2253 3276 L
2271 3279 L
2303 3384 L
2337 3489 L
2370 3587 L
2395 3679 L
2412 3724 L
2437 3761 L
2470 3834 L
2503 3896 L
2537 3948 L
2553 3990 L
2571 3991 L
2603 4022 L
2637 4046 L
2670 4063 L
2695 4074 L
2712 4078 L
2737 4080 L
2770 4084 L
2803 4085 L
2837 4086 L
2854 4086 L
2871 4086 L
2903 4086 L
2937 4086 L
2970 4086 L
2995 4086 L
3012 4086 L
3037 4086 L
3061 4086 L
3077 4086 L
3103 4086 L
3137 4086 L
3154 4086 L
3171 4086 L
3203 4086 L
3237 4086 L
3270 4086 L
3296 4086 L
3312 4086 L
3337 4086 L
3370 4086 L
3403 4086 L
3437 4086 L
3454 4086 L
3471 4086 L
3503 4086 L
3537 4086 L
3570 4086 L
3596 4086 L
3612 4086 L
3637 4086 L
3670 4086 L
3703 4086 L
3737 4086 L
3754 4086 L
3771 4086 L
3803 4086 L
3837 4086 L
3870 4086 L
3896 4086 L
3912 4086 L
3937 4086 L
3970 4086 L
4003 4086 L
4037 4086 L
4070 4086 L
LWMC SL dash06 C06 COSGR

GSN 753 753 M
770 753 L
803 754 L
837 755 L
870 756 L
895 757 L
911 758 L
937 759 L
970 761 L
1003 763 L
1037 765 L
1053 768 L
1070 768 L
1103 772 L
1137 776 L
1170 780 L
1195 786 L
1211 789 L
1237 792 L
1270 800 L
1303 808 L
1337 818 L
1353 830 L
1370 830 L
1403 843 L
1437 858 L
1470 876 L
1495 897 L
1512 909 L
1537 921 L
1570 949 L
1603 981 L
1637 1017 L
1653 1059 L
1670 1060 L
1703 1107 L
1737 1162 L
1770 1224 L
1795 1295 L
1812 1335 L
1837 1374 L
1870 1462 L
1903 1561 L
1937 1669 L
1953 1789 L
1971 1792 L
2003 1918 L
2037 2057 L
2070 2205 L
2095 2361 L
2112 2446 L
2137 2522 L
2170 2687 L
2203 2853 L
2237 3016 L
2253 3175 L
2271 3180 L
2303 3326 L
2337 3466 L
2370 3594 L
2395 3706 L
2412 3760 L
2437 3803 L
2470 3883 L
2503 3948 L
2537 3997 L
2553 4032 L
2571 4033 L
2603 4056 L
2637 4071 L
2670 4079 L
2695 4083 L
2712 4084 L
2737 4085 L
2770 4086 L
2803 4086 L
2837 4086 L
2854 4086 L
2871 4086 L
2903 4086 L
2937 4086 L
2970 4086 L
2995 4086 L
3012 4086 L
3037 4086 L
3061 4086 L
3077 4086 L
3103 4086 L
3137 4086 L
3154 4086 L
3171 4086 L
3203 4086 L
3237 4086 L
3270 4086 L
3296 4086 L
3312 4086 L
3337 4086 L
3370 4086 L
3403 4086 L
3437 4086 L
3454 4086 L
3471 4086 L
3503 4086 L
3537 4086 L
3570 4086 L
3596 4086 L
3612 4086 L
3637 4086 L
3670 4086 L
3703 4086 L
3737 4086 L
3754 4086 L
3771 4086 L
3803 4086 L
3837 4086 L
3870 4086 L
3896 4086 L
3912 4086 L
3937 4086 L
3970 4086 L
4003 4086 L
4037 4086 L
4070 4086 L
LWMC SL dash07 C07 COSGR

%
%================
% Legend - Begin
%================
%
GSN 4240 4040 M
4480 4040 L
LWMC SL dash01 C01 COSGR
GSN 4540 4001 M helvM (0.5 uM) show grestore
GSN 4240 3860 M
4480 3860 L
LWMC SL dash02 C02 COSGR
GSN 4540 3821 M helvM (1.0 uM) show grestore
GSN 4240 3680 M
4480 3680 L
LWMC SL dash03 C03 COSGR
GSN 4540 3641 M helvM (1.5 uM) show grestore
GSN 4240 3500 M
4480 3500 L
LWMC SL dash04 C04 COSGR
GSN 4540 3461 M helvM (2.0 uM) show grestore
GSN 4240 3320 M
4480 3320 L
LWMC SL dash05 C05 COSGR
GSN 4540 3281 M helvM (2.5 uM) show grestore
GSN 4240 3140 M
4480 3140 L
LWMC SL dash06 C06 COSGR
GSN 4540 3101 M helvM (3.0 uM) show grestore
GSN 4240 2960 M
4480 2960 L
LWMC SL dash07 C07 COSGR
GSN 4540 2921 M helvM (4.0 uM) show grestore
%
%================
% Legend - End
%================
%

%
% Main frame
%
L10
GSN 
620 620 M
4220 620 L
4220 4220 L
620 4220 L
closepath SGR

%
% X axis: large tics
%
L10
GSN 1074 620 M 0  54 rL SGR
GSN 1074 4220 M 0 -54 rL SGR
helvS (0.0001) 1074 470 xlabel
GSN 1572 620 M 0  54 rL SGR
GSN 1572 4220 M 0 -54 rL SGR
helvS (0.001) 1572 470 xlabel
GSN 2071 620 M 0  54 rL SGR
GSN 2071 4220 M 0 -54 rL SGR
helvS (0.01) 2071 470 xlabel
GSN 2570 620 M 0  54 rL SGR
GSN 2570 4220 M 0 -54 rL SGR
helvS (0.1) 2570 470 xlabel
GSN 3068 620 M 0  54 rL SGR
GSN 3068 4220 M 0 -54 rL SGR
helvS (1) 3068 470 xlabel
GSN 3567 620 M 0  54 rL SGR
GSN 3567 4220 M 0 -54 rL SGR
helvS (10) 3567 470 xlabel
GSN 4066 620 M 0  54 rL SGR
GSN 4066 4220 M 0 -54 rL SGR
helvS (100) 4066 470 xlabel
%
% X axis: small tics
%
L5
GSN 725 620 M 0  36 rL SGR
GSN 725 4220 M 0 -36 rL SGR
GSN 813 620 M 0  36 rL SGR
GSN 813 4220 M 0 -36 rL SGR
GSN 875 620 M 0  36 rL SGR
GSN 875 4220 M 0 -36 rL SGR
GSN 924 620 M 0  36 rL SGR
GSN 924 4220 M 0 -36 rL SGR
GSN 963 620 M 0  36 rL SGR
GSN 963 4220 M 0 -36 rL SGR
GSN 996 620 M 0  36 rL SGR
GSN 996 4220 M 0 -36 rL SGR
GSN 1025 620 M 0  36 rL SGR
GSN 1025 4220 M 0 -36 rL SGR
GSN 1051 620 M 0  36 rL SGR
GSN 1051 4220 M 0 -36 rL SGR
GSN 1224 620 M 0  36 rL SGR
GSN 1224 4220 M 0 -36 rL SGR
GSN 1312 620 M 0  36 rL SGR
GSN 1312 4220 M 0 -36 rL SGR
GSN 1374 620 M 0  36 rL SGR
GSN 1374 4220 M 0 -36 rL SGR
GSN 1422 620 M 0  36 rL SGR
GSN 1422 4220 M 0 -36 rL SGR
GSN 1462 620 M 0  36 rL SGR
GSN 1462 4220 M 0 -36 rL SGR
GSN 1495 620 M 0  36 rL SGR
GSN 1495 4220 M 0 -36 rL SGR
GSN 1524 620 M 0  36 rL SGR
GSN 1524 4220 M 0 -36 rL SGR
GSN 1550 620 M 0  36 rL SGR
GSN 1550 4220 M 0 -36 rL SGR
GSN 1722 620 M 0  36 rL SGR
GSN 1722 4220 M 0 -36 rL SGR
GSN 1810 620 M 0  36 rL SGR
GSN 1810 4220 M 0 -36 rL SGR
GSN 1873 620 M 0  36 rL SGR
GSN 1873 4220 M 0 -36 rL SGR
GSN 1921 620 M 0  36 rL SGR
GSN 1921 4220 M 0 -36 rL SGR
GSN 1960 620 M 0  36 rL SGR
GSN 1960 4220 M 0 -36 rL SGR
GSN 1994 620 M 0  36 rL SGR
GSN 1994 4220 M 0 -36 rL SGR
GSN 2023 620 M 0  36 rL SGR
GSN 2023 4220 M 0 -36 rL SGR
GSN 2048 620 M 0  36 rL SGR
GSN 2048 4220 M 0 -36 rL SGR
GSN 2221 620 M 0  36 rL SGR
GSN 2221 4220 M 0 -36 rL SGR
GSN 2309 620 M 0  36 rL SGR
GSN 2309 4220 M 0 -36 rL SGR
GSN 2371 620 M 0  36 rL SGR
GSN 2371 4220 M 0 -36 rL SGR
GSN 2420 620 M 0  36 rL SGR
GSN 2420 4220 M 0 -36 rL SGR
GSN 2459 620 M 0  36 rL SGR
GSN 2459 4220 M 0 -36 rL SGR
GSN 2492 620 M 0  36 rL SGR
GSN 2492 4220 M 0 -36 rL SGR
GSN 2521 620 M 0  36 rL SGR
GSN 2521 4220 M 0 -36 rL SGR
GSN 2547 620 M 0  36 rL SGR
GSN 2547 4220 M 0 -36 rL SGR
GSN 2720 620 M 0  36 rL SGR
GSN 2720 4220 M 0 -36 rL SGR
GSN 2808 620 M 0  36 rL SGR
GSN 2808 4220 M 0 -36 rL SGR
GSN 2870 620 M 0  36 rL SGR
GSN 2870 4220 M 0 -36 rL SGR
GSN 2918 620 M 0  36 rL SGR
GSN 2918 4220 M 0 -36 rL SGR
GSN 2958 620 M 0  36 rL SGR
GSN 2958 4220 M 0 -36 rL SGR
GSN 2991 620 M 0  36 rL SGR
GSN 2991 4220 M 0 -36 rL SGR
GSN 3020 620 M 0  36 rL SGR
GSN 3020 4220 M 0 -36 rL SGR
GSN 3045 620 M 0  36 rL SGR
GSN 3045 4220 M 0 -36 rL SGR
GSN 3218 620 M 0  36 rL SGR
GSN 3218 4220 M 0 -36 rL SGR
GSN 3306 620 M 0  36 rL SGR
GSN 3306 4220 M 0 -36 rL SGR
GSN 3368 620 M 0  36 rL SGR
GSN 3368 4220 M 0 -36 rL SGR
GSN 3417 620 M 0  36 rL SGR
GSN 3417 4220 M 0 -36 rL SGR
GSN 3456 620 M 0  36 rL SGR
GSN 3456 4220 M 0 -36 rL SGR
GSN 3490 620 M 0  36 rL SGR
GSN 3490 4220 M 0 -36 rL SGR
GSN 3519 620 M 0  36 rL SGR
GSN 3519 4220 M 0 -36 rL SGR
GSN 3544 620 M 0  36 rL SGR
GSN 3544 4220 M 0 -36 rL SGR
GSN 3717 620 M 0  36 rL SGR
GSN 3717 4220 M 0 -36 rL SGR
GSN 3805 620 M 0  36 rL SGR
GSN 3805 4220 M 0 -36 rL SGR
GSN 3867 620 M 0  36 rL SGR
GSN 3867 4220 M 0 -36 rL SGR
GSN 3915 620 M 0  36 rL SGR
GSN 3915 4220 M 0 -36 rL SGR
GSN 3955 620 M 0  36 rL SGR
GSN 3955 4220 M 0 -36 rL SGR
GSN 3988 620 M 0  36 rL SGR
GSN 3988 4220 M 0 -36 rL SGR
GSN 4017 620 M 0  36 rL SGR
GSN 4017 4220 M 0 -36 rL SGR
GSN 4043 620 M 0  36 rL SGR
GSN 4043 4220 M 0 -36 rL SGR
GSN 4216 620 M 0  36 rL SGR
GSN 4216 4220 M 0 -36 rL SGR
%
% Y axis: large tics
%
L10
GSN 620 1333 M 54 0 rL SGR
GSN 4220 1333 M -54 0 rL SGR
helvS (-3) 560 1333 ylabel
GSN 620 2250 M 54 0 rL SGR
GSN 4220 2250 M -54 0 rL SGR
helvS (-2) 560 2250 ylabel
GSN 620 3168 M 54 0 rL SGR
GSN 4220 3168 M -54 0 rL SGR
helvS (-1) 560 3168 ylabel
GSN 620 4086 M 54 0 rL SGR
GSN 4220 4086 M -54 0 rL SGR
helvS (0) 560 4086 ylabel
%
% Y axis: small tics
%
L5
GSN 620 644 M 36 0 rL SGR
GSN 4220 644 M -36 0 rL SGR
GSN 620 874 M 36 0 rL SGR
GSN 4220 874 M -36 0 rL SGR
GSN 620 1103 M 36 0 rL SGR
GSN 4220 1103 M -36 0 rL SGR
GSN 620 1333 M 36 0 rL SGR
GSN 4220 1333 M -36 0 rL SGR
GSN 620 1562 M 36 0 rL SGR
GSN 4220 1562 M -36 0 rL SGR
GSN 620 1792 M 36 0 rL SGR
GSN 4220 1792 M -36 0 rL SGR
GSN 620 2021 M 36 0 rL SGR
GSN 4220 2021 M -36 0 rL SGR
GSN 620 2250 M 36 0 rL SGR
GSN 4220 2250 M -36 0 rL SGR
GSN 620 2480 M 36 0 rL SGR
GSN 4220 2480 M -36 0 rL SGR
GSN 620 2709 M 36 0 rL SGR
GSN 4220 2709 M -36 0 rL SGR
GSN 620 2939 M 36 0 rL SGR
GSN 4220 2939 M -36 0 rL SGR
GSN 620 3168 M 36 0 rL SGR
GSN 4220 3168 M -36 0 rL SGR
GSN 620 3398 M 36 0 rL SGR
GSN 4220 3398 M -36 0 rL SGR
GSN 620 3627 M 36 0 rL SGR
GSN 4220 3627 M -36 0 rL SGR
GSN 620 3857 M 36 0 rL SGR
GSN 4220 3857 M -36 0 rL SGR
GSN 620 4086 M 36 0 rL SGR
GSN 4220 4086 M -36 0 rL SGR

%
% X axis
%
GSN L5 620 4086 M 4220 4086 L SDA G50 SGR

%
% X-Axis label:
%
gsave 2420 290 M 
[
[(Helvetica) 180 0 true true 0 (t)]
[(Helvetica) 180 0 true true 0 (i)]
[(Helvetica) 180 0 true true 0 (m)]
[(Helvetica) 180 0 true true 0 (e)]
] 0 MCshow grestore

%
% Y-Axis label:
%
gsave 234 2420 M 
currentpoint gsave translate 90 rotate 0 0 moveto
[
[(Helvetica) 180 0 true true 0 (d)]
[(Helvetica) 180 0 true true 0 (\()]
[(Helvetica) 180 0 true true 0 (s)]
[(Helvetica) 180 0 true true 0 (i)]
[(Helvetica) 180 0 true true 0 (g)]
[(Helvetica) 180 0 true true 0 (n)]
[(Helvetica) 180 0 true true 0 (a)]
[(Helvetica) 180 0 true true 0 (l)]
[(Helvetica) 180 0 true true 0 (\))]
[(Helvetica) 180 0 true true 0 ( )]
[(Helvetica) 180 0 true true 0 (/)]
[(Helvetica) 180 0 true true 0 ( )]
[(Helvetica) 180 0 true true 0 (d)]
[(Helvetica) 180 0 true true 0 (t)]
] 0 MCshow grestore

end
showpage
%%Trailer
%%EOF
