%!PS-Adobe-3.0 EPSF-3.0
%%BoundingBox: 0 0 514 550
%%Creator: BioKin Ltd.
%%DocumentFonts: Symbol Helvetica
%%EndComments
%
/bkdict 256 dict def
bkdict begin
/M {moveto} def 
/R {rmoveto} def
/L {lineto} def
/rL {rlineto} def
/GSN {gsave newpath} def
/SGR {stroke grestore} def
/COSGR {gsave setrgbcolor stroke grestore grestore} def
/SL {setlinewidth} def
/LWMB {12} def             % line width - model curves, black & white
/LWMC {10} def             % line width - model curves, color
/L2 {2.5 setlinewidth} def
/L5 {5 setlinewidth} def
/L10 {10 setlinewidth} def
/G50 {0.5 setgray} def
/SDA {[10  20] 0 setdash} def % axes
/helvT {/Helvetica findfont 100 scalefont setfont} def % tiny
/helvS {/Helvetica findfont 125 scalefont setfont} def % small
/helvM {/Helvetica findfont 150 scalefont setfont} def % medium
/helvL {/Helvetica findfont 175 scalefont setfont} def % large
/xlabel {gsave M dup
   stringwidth exch -0.5 mul exch rmoveto show grestore} def 
/ylabel {gsave M 90 rotate dup
   stringwidth exch -0.5 mul exch rmoveto show grestore} def
/ylabelresid {gsave M dup
   stringwidth exch -1 mul exch rmoveto show grestore} def
% ======
% Shapes
% ======
% Circle:
/Circ {0 360 arc closepath} def
%
% Square:
/Squa {dup dup -0.5 mul dup dup R -2 mul 0 exch rL 1 mul 0 rL dup 0 exch -1 mul rL closepath} def
%
% Triangle Up:
/TriU {dup dup dup -0.4 mul exch -0.5 mul exch R dup 0.5 mul exch rL dup -1 mul exch 0.5 mul exch rL closepath} def 
%
% Triangle Down:
/TriD {dup dup dup 0.4 mul exch -0.5 mul exch R dup 0.5 mul exch -1 mul rL dup 0.5 mul exch rL closepath} def 
%
% Diamond:
/Diam {45 rotate Squa} def
% ======
% Fills
% ======
/GRF {gsave setgray fill grestore} def                    % gray-level Fill
/COF {gsave setrgbcolor fill grestore} def                % color fill
% ======
% Colors
% ======
/C01 {1.00	0.00	0.00} def      % Red
/C02 {0.00	0.00	1.00} def      % Blue
/C03 {0.00	0.39	0.00} def      % Dark Green
/C04 {0.78	0.08	0.52} def      % Medium Violet Red
/C05 {0.55	0.27	0.07} def      % Saddle Brown
/C06 {0.10	0.70	0.70} def      % (cyan)
/C07 {1.00	0.55	0.00} def      % Dark Orange
/C08 {0.63	0.13	0.94} def      % Purple
/C09 {0.00	0.75	1.00} def      % Deep Sky Blue
/C10 {0.20	0.80	0.20} def      % Lime Green
/C11 {0.47	0.53	0.60} def      % Light Slate Gray
/C12 {0.00	0.00	0.00} def      % Black            % or: {0.19	0.31	0.31} def      % Dark Slate Gray
%
/LGR {0.75} def % light gray
/DGR {0.33} def % dark gray
%
% =============
% Dash patterns
% =============
/dash01 { [80  20] 0 setdash } def
/dash02 { [40  20] 0 setdash } def
/dash03 { [80  20  10  20] 0 setdash } def
/dash04 { [40  20  10  20] 0 setdash } def
/dash05 { [80  20  10  10  10  20] 0 setdash } def
/dash06 { [40  20  10  10  10  20] 0 setdash } def
/dash07 { [10  10] 0 setdash } def
%
/MFshow {
   { dup 5 get 3 ge
     { 5 get 3 eq {gsave} {grestore} ifelse }
     {dup dup 0 get findfont exch 1 get scalefont setfont
     [ currentpoint ] exch dup 2 get 0 exch R dup 5 get 2 ne {dup dup 6
     get exch 4 get {show} {stringwidth pop 0 R} ifelse }if dup 5 get 0 eq
     {dup 3 get {2 get neg 0 exch R pop} {pop aload pop M} ifelse} {dup 5
     get 1 eq {dup 2 get exch dup 3 get exch 6 get stringwidth pop -2 div
     dup 0 R} {dup 6 get stringwidth pop -2 div 0 R 6 get
     show 2 index {aload pop M neg 3 -1 roll neg R pop pop} {pop pop pop
     pop aload pop M} ifelse }ifelse }ifelse }
     ifelse }
   forall} bind def
/MFwidth {0 exch {dup 3 get{dup dup 0 get findfont exch 1 get scalefont
     setfont 6 get stringwidth pop add} {pop} ifelse} forall} bind def
/MCshow { currentpoint stroke M
  exch dup MFwidth -2 div 3 -1 roll R MFshow } def
%
end
%%EndProlog
bkdict begin
0.1 0.1 scale
%
% Residuals:
%
GSN 620 2214 M
620 3303 L
620 3127 L
620 2439 L
620 3132 L
620 2935 L
620 2552 L
620 2837 L
620 2471 L
620 2488 L
620 3105 L
620 2766 L
620 2643 L
620 3068 L
620 3061 L
620 2848 L
620 3113 L
620 2703 L
620 3033 L
620 3216 L
620 3483 L
620 3719 L
620 3168 L
620 3130 L
620 2990 L
620 3283 L
620 4158 L
620 4040 L
620 3570 L
620 3623 L
620 3576 L
620 3637 L
620 3755 L
620 4091 L
620 2977 L
620 4262 L
620 3383 L
620 3470 L
620 3293 L
620 3733 L
620 3785 L
620 2987 L
620 3780 L
620 3814 L
620 3349 L
620 3738 L
620 4153 L
620 4124 L
620 3380 L
620 3613 L
620 3740 L
620 3452 L
620 3401 L
620 3796 L
620 3956 L
620 3575 L
620 3327 L
620 3423 L
620 3449 L
620 4124 L
620 3646 L
620 4122 L
620 4161 L
620 3688 L
620 3771 L
620 3425 L
620 3399 L
620 4138 L
620 3889 L
620 4238 L
620 3371 L
620 3781 L
620 3951 L
620 4059 L
620 3962 L
620 3867 L
620 3538 L
620 3565 L
620 3902 L
620 3998 L
620 4132 L
620 3539 L
620 3446 L
620 3448 L
620 2873 L
620 3618 L
620 3921 L
620 3508 L
620 3604 L
620 3478 L
620 3858 L
620 2775 L
620 3727 L
620 3273 L
620 3148 L
620 2825 L
620 2922 L
620 3226 L
620 3115 L
620 2746 L
620 3037 L
620 3198 L
620 3640 L
620 2934 L
620 3196 L
620 3506 L
620 3099 L
620 3212 L
620 2974 L
620 3170 L
620 3005 L
620 3140 L
620 2599 L
620 2366 L
620 2554 L
620 2279 L
620 2682 L
620 2341 L
620 3152 L
620 2958 L
620 3018 L
620 2801 L
620 3187 L
620 3317 L
620 2550 L
620 2840 L
620 3167 L
620 2533 L
620 3500 L
620 2829 L
620 2465 L
620 3269 L
620 3311 L
620 3250 L
620 2864 L
620 2136 L
620 3490 L
620 2902 L
620 2744 L
620 2658 L
620 3430 L
620 2946 L
620 2848 L
620 3804 L
620 2504 L
620 2411 L
620 2855 L
620 2805 L
620 2958 L
620 2695 L
620 2337 L
620 2948 L
620 3304 L
620 2934 L
620 2832 L
620 2598 L
620 2493 L
620 3391 L
620 2941 L
620 2419 L
620 3156 L
620 2603 L
620 2617 L
620 3374 L
620 2794 L
620 2782 L
620 3537 L
620 3020 L
620 2855 L
620 3222 L
620 3358 L
620 3016 L
620 2655 L
620 2964 L
620 3675 L
620 3278 L
620 2609 L
620 3522 L
620 3412 L
620 2901 L
620 2511 L
620 3425 L
620 3462 L
620 3017 L
620 2314 L
620 3391 L
620 3109 L
620 3195 L
620 3755 L
620 3010 L
620 3269 L
620 3569 L
620 3008 L
620 3202 L
620 3027 L
620 3427 L
620 3515 L
620 3172 L
620 2986 L
620 2932 L
620 2993 L
620 3302 L
620 3805 L
620 3220 L
620 3408 L
620 2556 L
620 3511 L
620 3034 L
620 3486 L
620 3234 L
620 2990 L
620 3758 L
620 3684 L
620 3049 L
620 3298 L
620 3520 L
620 3726 L
620 3043 L
620 3607 L
620 3810 L
620 3453 L
620 3323 L
620 2823 L
620 3480 L
620 2853 L
620 3304 L
620 3488 L
620 3449 L
620 3650 L
620 3556 L
620 3055 L
620 4048 L
620 3206 L
620 3133 L
620 3925 L
620 3451 L
620 3372 L
620 3508 L
620 2829 L
620 3050 L
620 3997 L
620 3799 L
620 3620 L
620 4050 L
620 3283 L
620 3063 L
620 3217 L
620 3992 L
620 3634 L
620 3193 L
620 3381 L
620 3802 L
620 3541 L
620 3547 L
620 2954 L
620 3788 L
620 4085 L
620 3458 L
620 3369 L
620 3504 L
620 3664 L
620 3495 L
620 3553 L
620 3664 L
620 3022 L
620 3905 L
620 3664 L
620 3506 L
620 3668 L
620 3954 L
620 2885 L
620 3290 L
620 3530 L
620 3957 L
620 3396 L
620 3680 L
620 3483 L
620 3665 L
620 3675 L
620 2767 L
620 4103 L
620 3610 L
620 4141 L
620 3514 L
620 3354 L
620 4128 L
620 4066 L
620 3703 L
620 3528 L
620 4250 L
620 3780 L
620 3991 L
620 3325 L
620 3862 L
620 3678 L
620 3884 L
620 3789 L
620 4050 L
620 3824 L
620 3586 L
620 4065 L
620 3789 L
620 3838 L
620 3947 L
620 4111 L
620 3824 L
620 3537 L
620 4187 L
620 3767 L
620 4436 L
620 4863 L
620 4186 L
620 3902 L
620 3647 L
620 4382 L
620 4105 L
620 3576 L
620 3823 L
620 3984 L
620 4474 L
620 4629 L
620 3646 L
620 3615 L
620 3770 L
620 4178 L
620 3894 L
620 4297 L
620 4153 L
620 3860 L
620 3896 L
620 3845 L
620 3879 L
620 3913 L
620 3513 L
620 3719 L
620 4709 L
620 3738 L
620 3962 L
620 3435 L
620 3505 L
620 3916 L
620 3695 L
620 3794 L
620 3639 L
620 3947 L
620 4236 L
620 3537 L
620 4668 L
620 3690 L
620 3809 L
620 4134 L
620 3522 L
620 3374 L
620 4083 L
620 4253 L
620 3270 L
620 3879 L
620 3328 L
620 3457 L
620 4149 L
620 3750 L
620 3629 L
620 3258 L
620 3593 L
620 3680 L
620 4151 L
620 3901 L
620 3372 L
620 3610 L
620 3605 L
620 3867 L
620 3044 L
620 3423 L
620 3270 L
620 3207 L
620 3600 L
620 3289 L
620 3216 L
620 3760 L
620 4321 L
620 3913 L
620 3549 L
620 2998 L
620 3775 L
620 2918 L
620 3481 L
620 3680 L
620 3306 L
620 3447 L
620 3646 L
620 3670 L
620 3182 L
620 2974 L
620 2957 L
620 2959 L
620 3263 L
620 3272 L
620 2881 L
620 3139 L
620 3161 L
620 2559 L
620 3146 L
620 3398 L
620 3347 L
620 3034 L
620 3161 L
620 3032 L
620 3437 L
620 3056 L
620 3326 L
620 3823 L
620 3442 L
620 3064 L
620 3459 L
620 3260 L
620 3277 L
620 3364 L
620 2581 L
620 2731 L
620 3163 L
620 3442 L
620 3267 L
620 2935 L
620 3017 L
620 3124 L
620 3391 L
620 3102 L
620 3687 L
620 3367 L
620 3204 L
620 3763 L
620 3437 L
620 3178 L
620 3229 L
620 3231 L
620 3076 L
620 2729 L
620 3505 L
620 2867 L
620 3564 L
620 3639 L
620 3280 L
620 3022 L
620 3046 L
620 3520 L
620 3614 L
620 3119 L
620 3306 L
620 3578 L
620 3241 L
620 3134 L
620 3156 L
620 2877 L
620 2457 L
620 2675 L
620 2719 L
620 2726 L
620 3022 L
620 2949 L
620 3229 L
620 3481 L
620 3039 L
620 3090 L
620 3670 L
620 3323 L
620 2865 L
620 3326 L
620 3966 L
620 2850 L
620 3127 L
620 3428 L
620 2476 L
620 2629 L
620 2685 L
620 3665 L
620 3326 L
620 2879 L
620 3095 L
620 2670 L
620 3059 L
620 2156 L
620 3423 L
620 2957 L
620 2607 L
620 2513 L
620 3464 L
620 3044 L
620 2381 L
620 3432 L
620 3297 L
620 3440 L
620 2627 L
620 3047 L
620 2653 L
620 2835 L
620 3415 L
620 2661 L
620 3141 L
620 2617 L
620 2362 L
620 2930 L
620 3013 L
620 3197 L
620 3107 L
620 3197 L
620 3192 L
620 3576 L
620 3384 L
620 3280 L
620 2954 L
620 2949 L
620 2551 L
620 2716 L
620 3059 L
620 2998 L
620 3090 L
620 2903 L
620 3304 L
620 2796 L
620 3821 L
620 2736 L
620 3250 L
620 2804 L
620 2743 L
620 3632 L
620 2969 L
620 3015 L
620 2947 L
620 3442 L
620 3534 L
620 2920 L
620 3073 L
620 2665 L
L2 C06 COSGR

%
%================
% Legend - Begin
%================
%
GSN 4240 5180 M
4480 5180 L
LWMC SL  C06 COSGR
GSN 4540 5141 M helvM (3.0 uM) show grestore
%
%================
% Legend - End
%================
%

%
% Main frame
%
L10
GSN 
620 1700 M
4220 1700 L
4220 5300 L
620 5300 L
closepath SGR

%
% X axis: large tics
%
L10
%
% X axis: small tics
%
L5
%
% Y axis: large tics
%
L10
GSN 620 2073 M 54 0 rL SGR
GSN 4220 2073 M -54 0 rL SGR
helvS (-0.01) 560 2073 ylabel
GSN 620 3346 M 54 0 rL SGR
GSN 4220 3346 M -54 0 rL SGR
helvS (0) 560 3346 ylabel
GSN 620 4619 M 54 0 rL SGR
GSN 4220 4619 M -54 0 rL SGR
helvS (0.01) 560 4619 ylabel
%
% Y axis: small tics
%
L5
GSN 620 1755 M 36 0 rL SGR
GSN 4220 1755 M -36 0 rL SGR
GSN 620 2073 M 36 0 rL SGR
GSN 4220 2073 M -36 0 rL SGR
GSN 620 2392 M 36 0 rL SGR
GSN 4220 2392 M -36 0 rL SGR
GSN 620 2710 M 36 0 rL SGR
GSN 4220 2710 M -36 0 rL SGR
GSN 620 3028 M 36 0 rL SGR
GSN 4220 3028 M -36 0 rL SGR
GSN 620 3346 M 36 0 rL SGR
GSN 4220 3346 M -36 0 rL SGR
GSN 620 3664 M 36 0 rL SGR
GSN 4220 3664 M -36 0 rL SGR
GSN 620 3982 M 36 0 rL SGR
GSN 4220 3982 M -36 0 rL SGR
GSN 620 4300 M 36 0 rL SGR
GSN 4220 4300 M -36 0 rL SGR
GSN 620 4619 M 36 0 rL SGR
GSN 4220 4619 M -36 0 rL SGR
GSN 620 4937 M 36 0 rL SGR
GSN 4220 4937 M -36 0 rL SGR
GSN 620 5255 M 36 0 rL SGR
GSN 4220 5255 M -36 0 rL SGR

%
% X axis - residual panel
%
GSN L5 620 3346 M 4220 3346 L SDA G50 SGR

%
% X-Axis label:
%
gsave 620 1370 M 
[
[(Helvetica) 180 0 true true 0 (t)]
[(Helvetica) 180 0 true true 0 (i)]
[(Helvetica) 180 0 true true 0 (m)]
[(Helvetica) 180 0 true true 0 (e)]
] 0 MCshow grestore

%
% Y-Axis label:
%
gsave 234 3500 M 
currentpoint gsave translate 90 rotate 0 0 moveto
[
[(Helvetica) 180 0 true true 0 (r)]
[(Helvetica) 180 0 true true 0 (e)]
[(Helvetica) 180 0 true true 0 (s)]
[(Helvetica) 180 0 true true 0 (i)]
[(Helvetica) 180 0 true true 0 (d)]
[(Helvetica) 180 0 true true 0 (u)]
[(Helvetica) 180 0 true true 0 (a)]
[(Helvetica) 180 0 true true 0 (l)]
[(Helvetica) 180 0 true true 0 (s)]
] 0 MCshow grestore

end
showpage
%%Trailer
%%EOF
