%!PS-Adobe-3.0 EPSF-3.0
%%BoundingBox: 0 0 514 550
%%Creator: BioKin Ltd.
%%DocumentFonts: Symbol Helvetica
%%EndComments
%
/bkdict 256 dict def
bkdict begin
/M {moveto} def 
/R {rmoveto} def
/L {lineto} def
/rL {rlineto} def
/GSN {gsave newpath} def
/SGR {stroke grestore} def
/COSGR {gsave setrgbcolor stroke grestore grestore} def
/SL {setlinewidth} def
/LWMB {12} def             % line width - model curves, black & white
/LWMC {10} def             % line width - model curves, color
/L2 {2.5 setlinewidth} def
/L5 {5 setlinewidth} def
/L10 {10 setlinewidth} def
/G50 {0.5 setgray} def
/SDA {[10  20] 0 setdash} def % axes
/helvT {/Helvetica findfont 100 scalefont setfont} def % tiny
/helvS {/Helvetica findfont 125 scalefont setfont} def % small
/helvM {/Helvetica findfont 150 scalefont setfont} def % medium
/helvL {/Helvetica findfont 175 scalefont setfont} def % large
/xlabel {gsave M dup
   stringwidth exch -0.5 mul exch rmoveto show grestore} def 
/ylabel {gsave M 90 rotate dup
   stringwidth exch -0.5 mul exch rmoveto show grestore} def
/ylabelresid {gsave M dup
   stringwidth exch -1 mul exch rmoveto show grestore} def
% ======
% Shapes
% ======
% Circle:
/Circ {0 360 arc closepath} def
%
% Square:
/Squa {dup dup -0.5 mul dup dup R -2 mul 0 exch rL 1 mul 0 rL dup 0 exch -1 mul rL closepath} def
%
% Triangle Up:
/TriU {dup dup dup -0.4 mul exch -0.5 mul exch R dup 0.5 mul exch rL dup -1 mul exch 0.5 mul exch rL closepath} def 
%
% Triangle Down:
/TriD {dup dup dup 0.4 mul exch -0.5 mul exch R dup 0.5 mul exch -1 mul rL dup 0.5 mul exch rL closepath} def 
%
% Diamond:
/Diam {45 rotate Squa} def
% ======
% Fills
% ======
/GRF {gsave setgray fill grestore} def                    % gray-level Fill
/COF {gsave setrgbcolor fill grestore} def                % color fill
% ======
% Colors
% ======
/C01 {1.00	0.00	0.00} def      % Red
/C02 {0.00	0.00	1.00} def      % Blue
/C03 {0.00	0.39	0.00} def      % Dark Green
/C04 {0.78	0.08	0.52} def      % Medium Violet Red
/C05 {0.55	0.27	0.07} def      % Saddle Brown
/C06 {0.10	0.70	0.70} def      % (cyan)
/C07 {1.00	0.55	0.00} def      % Dark Orange
/C08 {0.63	0.13	0.94} def      % Purple
/C09 {0.00	0.75	1.00} def      % Deep Sky Blue
/C10 {0.20	0.80	0.20} def      % Lime Green
/C11 {0.47	0.53	0.60} def      % Light Slate Gray
/C12 {0.00	0.00	0.00} def      % Black            % or: {0.19	0.31	0.31} def      % Dark Slate Gray
%
/LGR {0.75} def % light gray
/DGR {0.33} def % dark gray
%
% =============
% Dash patterns
% =============
/dash01 { [80  20] 0 setdash } def
/dash02 { [40  20] 0 setdash } def
/dash03 { [80  20  10  20] 0 setdash } def
/dash04 { [40  20  10  20] 0 setdash } def
/dash05 { [80  20  10  10  10  20] 0 setdash } def
/dash06 { [40  20  10  10  10  20] 0 setdash } def
/dash07 { [10  10] 0 setdash } def
%
/MFshow {
   { dup 5 get 3 ge
     { 5 get 3 eq {gsave} {grestore} ifelse }
     {dup dup 0 get findfont exch 1 get scalefont setfont
     [ currentpoint ] exch dup 2 get 0 exch R dup 5 get 2 ne {dup dup 6
     get exch 4 get {show} {stringwidth pop 0 R} ifelse }if dup 5 get 0 eq
     {dup 3 get {2 get neg 0 exch R pop} {pop aload pop M} ifelse} {dup 5
     get 1 eq {dup 2 get exch dup 3 get exch 6 get stringwidth pop -2 div
     dup 0 R} {dup 6 get stringwidth pop -2 div 0 R 6 get
     show 2 index {aload pop M neg 3 -1 roll neg R pop pop} {pop pop pop
     pop aload pop M} ifelse }ifelse }ifelse }
     ifelse }
   forall} bind def
/MFwidth {0 exch {dup 3 get{dup dup 0 get findfont exch 1 get scalefont
     setfont 6 get stringwidth pop add} {pop} ifelse} forall} bind def
/MCshow { currentpoint stroke M
  exch dup MFwidth -2 div 3 -1 roll R MFshow } def
%
end
%%EndProlog
bkdict begin
0.1 0.1 scale
%
% Model curves:
%

GSN 753 5166 M
753 5166 L
786 5166 L
820 5165 L
853 5165 L
886 5164 L
903 5164 L
919 5163 L
953 5163 L
986 5162 L
1020 5161 L
1053 5159 L
1053 5159 L
1086 5158 L
1120 5156 L
1153 5154 L
1186 5151 L
1203 5150 L
1220 5148 L
1253 5145 L
1286 5141 L
1320 5137 L
1353 5131 L
1353 5131 L
1386 5125 L
1420 5118 L
1453 5110 L
1486 5100 L
1503 5095 L
1520 5089 L
1553 5076 L
1586 5061 L
1620 5043 L
1653 5023 L
1653 5023 L
1686 5000 L
1720 4973 L
1753 4941 L
1786 4905 L
1804 4885 L
1820 4864 L
1853 4817 L
1886 4762 L
1920 4701 L
1953 4631 L
1954 4629 L
1986 4552 L
2020 4463 L
2053 4364 L
2086 4254 L
2104 4192 L
2120 4134 L
2153 4002 L
2186 3861 L
2220 3711 L
2253 3555 L
2254 3550 L
2286 3394 L
2320 3233 L
2353 3075 L
2386 2924 L
2404 2848 L
2420 2785 L
2453 2662 L
2486 2558 L
2520 2474 L
2553 2411 L
2554 2409 L
2586 2366 L
2620 2337 L
2653 2320 L
2686 2311 L
2704 2309 L
2720 2307 L
2753 2306 L
2786 2305 L
2820 2305 L
2853 2305 L
2854 2305 L
2886 2305 L
2920 2305 L
2953 2305 L
2986 2305 L
3004 2305 L
3020 2305 L
3053 2305 L
3068 2305 L
3086 2305 L
3120 2305 L
3153 2305 L
3155 2305 L
3186 2305 L
3220 2305 L
3253 2305 L
3286 2305 L
3305 2305 L
3320 2305 L
3353 2305 L
3386 2305 L
3420 2305 L
3453 2305 L
3455 2305 L
3486 2305 L
3520 2305 L
3553 2305 L
3586 2305 L
3605 2305 L
3620 2305 L
3653 2305 L
3686 2305 L
3720 2305 L
3753 2305 L
3755 2305 L
3786 2305 L
3820 2305 L
3853 2305 L
3886 2305 L
3905 2305 L
3920 2305 L
3953 2305 L
3986 2305 L
4020 2305 L
4053 2305 L
4086 2305 L
LWMC SL  C07 COSGR

%
% Experimental data:
%
GSN 773 4452 M
1625 4094 L
1773 3957 L
1860 3920 L
1922 3916 L
1970 3640 L
2009 3923 L
2043 3743 L
2072 3733 L
2097 3646 L
2120 3430 L
2140 3610 L
2159 3435 L
2176 3367 L
2192 3432 L
2207 3314 L
2221 3266 L
2234 3360 L
2247 3144 L
2259 3279 L
2270 3313 L
2280 3206 L
2290 3311 L
2300 3117 L
2309 3229 L
2318 3268 L
2326 3034 L
2335 3117 L
2342 3090 L
2350 3172 L
2357 2973 L
2364 2853 L
2371 3161 L
2378 2906 L
2384 3042 L
2391 2957 L
2397 2906 L
2403 2916 L
2409 2879 L
2414 2839 L
2420 2703 L
2425 2881 L
2430 2791 L
2435 2782 L
2440 2780 L
2445 2683 L
2450 2780 L
2455 2607 L
2459 2611 L
2464 2668 L
2468 2667 L
2472 2538 L
2476 2484 L
2481 2454 L
2485 2660 L
2489 2548 L
2492 2637 L
2496 2524 L
2500 2597 L
2504 2611 L
2507 2486 L
2511 2600 L
2514 2591 L
2518 2656 L
2521 2492 L
2525 2404 L
2528 2404 L
2531 2436 L
2534 2246 L
2538 2462 L
2541 2422 L
2544 2355 L
2547 2594 L
2550 2276 L
2553 2384 L
2556 2504 L
2559 2238 L
2561 2222 L
2564 2397 L
2567 2331 L
2570 2325 L
2580 2277 L
2590 2298 L
2600 2372 L
2609 2217 L
2618 2119 L
2627 2235 L
2635 2056 L
2643 2101 L
2650 2109 L
2658 2226 L
2665 2014 L
2672 2179 L
2678 2083 L
2685 2002 L
2691 2022 L
2697 1970 L
2703 1958 L
2709 2055 L
2714 1965 L
2720 2121 L
2725 1986 L
2730 2052 L
2735 1910 L
2740 2033 L
2745 1906 L
2750 1994 L
2755 1950 L
2759 2070 L
2764 2031 L
2768 2044 L
2772 1946 L
2777 1861 L
2781 1833 L
2785 1963 L
2789 1942 L
2793 1989 L
2796 2111 L
2800 2041 L
2804 1971 L
2808 1971 L
2811 1942 L
2815 1991 L
2818 1896 L
2822 2034 L
2825 1992 L
2828 1884 L
2831 1926 L
2835 1978 L
2838 1982 L
2841 1956 L
2844 2043 L
2847 1970 L
2850 2070 L
2853 1857 L
2856 2087 L
2859 1913 L
2862 2196 L
2864 2065 L
2867 2124 L
2870 2071 L
2873 1900 L
2875 2113 L
2878 2116 L
2880 2100 L
2883 2051 L
2886 2156 L
2888 1949 L
2891 2046 L
2893 2005 L
2895 2124 L
2898 2056 L
2900 2101 L
2902 2066 L
2905 1977 L
2907 2258 L
2909 2100 L
2912 2072 L
2914 2177 L
2916 1937 L
2918 2178 L
2920 2219 L
2922 2156 L
2925 2117 L
2927 2169 L
2929 2117 L
2931 2135 L
2933 2120 L
2935 2171 L
2937 2208 L
2939 2192 L
2941 2108 L
2943 2190 L
2945 2271 L
2947 2215 L
2948 2140 L
2950 2219 L
2952 2103 L
2954 2254 L
2956 2232 L
2958 2159 L
2959 2313 L
2961 2201 L
2963 2235 L
2965 2180 L
2966 2137 L
2968 2169 L
2970 2210 L
2972 2162 L
2973 2460 L
2975 2314 L
2977 2198 L
2978 2325 L
2980 2147 L
2982 2344 L
2983 2368 L
2985 2387 L
2986 2307 L
2988 2271 L
2989 2300 L
2991 2238 L
2993 2251 L
2994 2370 L
2996 2307 L
2997 2315 L
2999 2300 L
3000 2400 L
3002 2338 L
3003 2257 L
3005 2321 L
3006 2224 L
3007 2432 L
3009 2116 L
3010 2363 L
3012 2284 L
3013 2395 L
3014 2319 L
3016 2308 L
3017 2343 L
3019 2348 L
3020 2391 L
3021 2439 L
3023 2250 L
3024 2329 L
3025 2314 L
3027 2375 L
3028 2239 L
3029 2409 L
3031 2378 L
3032 2289 L
3033 2412 L
3034 2311 L
3036 2388 L
3037 2324 L
3038 2318 L
3039 2402 L
3041 2436 L
3042 2468 L
3043 2316 L
3044 2402 L
3045 2464 L
3047 2356 L
3048 2464 L
3049 2352 L
3050 2217 L
3051 2412 L
3053 2464 L
3054 2417 L
3055 2317 L
3056 2341 L
3057 2542 L
3058 2374 L
3059 2395 L
3061 2453 L
3062 2561 L
3063 2296 L
3064 2281 L
3065 2407 L
3066 2505 L
3067 2600 L
3068 2432 L
3069 2383 L
3070 2534 L
3071 2416 L
3073 2467 L
3074 2344 L
3075 2408 L
3076 2247 L
3077 2394 L
3078 2338 L
3079 2565 L
3080 2508 L
3081 2625 L
3082 2378 L
3083 2403 L
3084 2555 L
3085 2505 L
3086 2513 L
3087 2382 L
3088 2298 L
3089 2440 L
3112 2557 L
3133 2277 L
3152 2686 L
3170 2563 L
3186 2606 L
3201 2534 L
3216 2641 L
3229 2566 L
3241 2427 L
3253 2407 L
3264 2580 L
3275 2572 L
3285 2548 L
3295 2579 L
3304 2546 L
3313 2689 L
3322 2570 L
3330 2474 L
3338 2647 L
3346 2577 L
3353 2681 L
3360 2741 L
3367 2588 L
3374 2513 L
3380 2544 L
3387 2580 L
3393 2632 L
3399 2468 L
3405 2415 L
3410 2599 L
3416 2568 L
3421 2759 L
3426 2657 L
3431 2603 L
3436 2561 L
3441 2578 L
3446 2631 L
3451 2783 L
3455 2677 L
3460 2703 L
3464 2640 L
3469 2495 L
3473 2652 L
3477 2639 L
3481 2516 L
3485 2594 L
3489 2703 L
3493 2644 L
3496 2557 L
3500 2748 L
3504 2541 L
3507 2595 L
3511 2610 L
3514 2775 L
3518 2469 L
3521 2619 L
3525 2594 L
3528 2571 L
3531 2577 L
3534 2566 L
3537 2526 L
3540 2503 L
3543 2607 L
3546 2623 L
3549 2741 L
3552 2406 L
3555 2635 L
3558 2639 L
3561 2590 L
3564 2617 L
3566 2602 L
3575 2609 L
3586 2693 L
3595 2543 L
3605 2672 L
3613 2495 L
3622 2510 L
3630 2498 L
3638 2449 L
3646 2561 L
3653 2499 L
3660 2460 L
3667 2499 L
3674 2714 L
3681 2451 L
3687 2554 L
3693 2488 L
3699 2466 L
3705 2499 L
3710 2715 L
3716 2410 L
3721 2444 L
3727 2407 L
3732 2465 L
3737 2406 L
3742 2395 L
3746 2394 L
3751 2437 L
3756 2484 L
3760 2301 L
3764 2469 L
3769 2380 L
3773 2541 L
3777 2511 L
3781 2410 L
3785 2466 L
3789 2333 L
3793 2326 L
3797 2410 L
3800 2356 L
3804 2466 L
3808 2362 L
3811 2506 L
3815 2370 L
3818 2442 L
3821 2546 L
3825 2342 L
3828 2372 L
3831 2403 L
3834 2291 L
3838 2293 L
3841 2491 L
3844 2472 L
3847 2166 L
3850 2360 L
3853 2527 L
3855 2357 L
3858 2465 L
3861 2500 L
3864 2501 L
3867 2278 L
3869 2499 L
3872 2302 L
3875 2478 L
3877 2274 L
3880 2288 L
3882 2268 L
3885 2377 L
3887 2420 L
3890 2483 L
3892 2372 L
3895 2387 L
3897 2393 L
3899 2372 L
3902 2385 L
3904 2430 L
3906 2331 L
3908 2348 L
3911 2470 L
3913 2152 L
3915 2192 L
3917 2379 L
3919 2362 L
3921 2378 L
3923 2447 L
3926 2275 L
3928 2445 L
3930 2400 L
3932 2289 L
3934 2477 L
3936 2458 L
3938 2360 L
3940 2436 L
3942 2341 L
3943 2377 L
3945 2333 L
3947 2392 L
3949 2448 L
3951 2392 L
3953 2329 L
3955 2129 L
3956 2425 L
3958 2467 L
3960 2425 L
3962 2231 L
3963 2243 L
3965 2360 L
3967 2459 L
3969 2291 L
3970 2249 L
3972 2450 L
3974 2400 L
3975 2330 L
3977 2239 L
3978 2235 L
3980 2346 L
3982 2304 L
3983 2257 L
3985 2265 L
3986 2174 L
3988 2352 L
3990 2200 L
3991 2325 L
3993 2327 L
3994 2415 L
3996 2273 L
3997 2284 L
3999 2425 L
4000 2387 L
4001 2293 L
4003 2182 L
4004 2241 L
4006 2299 L
4007 2308 L
4009 2208 L
4010 2341 L
4011 2352 L
4013 2352 L
4014 2339 L
4016 2363 L
4017 2108 L
4018 2271 L
4020 2177 L
4021 2299 L
4022 2358 L
4024 2156 L
4025 2492 L
4026 2293 L
4028 2401 L
4029 2349 L
4030 2150 L
4031 2185 L
4033 2190 L
4034 2345 L
4035 2193 L
4036 2104 L
4038 2385 L
4039 2219 L
4040 2238 L
4041 2285 L
4042 2170 L
4044 2203 L
4045 2384 L
4046 2205 L
4047 2339 L
4048 2237 L
4050 2264 L
4051 2435 L
4052 2307 L
4053 2374 L
4054 2124 L
4055 2251 L
4056 2284 L
4058 2357 L
4059 2205 L
4060 2239 L
4061 2316 L
4062 2129 L
4063 2296 L
4064 2266 L
4065 2305 L
4066 2411 L
L2 C07 COSGR

%
%================
% Legend - Begin
%================
%
GSN 4240 5180 M
4480 5180 L
LWMC SL  C07 COSGR
GSN 4540 5141 M helvM (4.0 uM) show grestore
%
%================
% Legend - End
%================
%

%
% Residuals:
%
GSN 773 892 M
1625 760 L
1773 750 L
1860 795 L
1922 855 L
1970 757 L
2009 975 L
2043 927 L
2072 974 L
2097 973 L
2120 898 L
2140 1046 L
2159 990 L
2176 993 L
2192 1070 L
2207 1040 L
2221 1049 L
2234 1138 L
2247 1048 L
2259 1156 L
2270 1206 L
2280 1174 L
2290 1261 L
2300 1177 L
2309 1267 L
2318 1313 L
2326 1203 L
2335 1273 L
2342 1279 L
2350 1345 L
2357 1252 L
2364 1202 L
2371 1395 L
2378 1267 L
2384 1360 L
2391 1327 L
2397 1313 L
2403 1333 L
2409 1326 L
2414 1316 L
2420 1251 L
2425 1364 L
2430 1324 L
2435 1330 L
2440 1339 L
2445 1294 L
2450 1359 L
2455 1269 L
2459 1280 L
2464 1321 L
2468 1328 L
2472 1263 L
2476 1239 L
2481 1229 L
2485 1353 L
2489 1295 L
2492 1352 L
2496 1294 L
2500 1341 L
2504 1354 L
2507 1288 L
2511 1358 L
2514 1357 L
2518 1399 L
2521 1310 L
2525 1264 L
2528 1268 L
2531 1290 L
2534 1186 L
2538 1312 L
2541 1292 L
2544 1257 L
2547 1396 L
2550 1218 L
2553 1282 L
2556 1353 L
2559 1205 L
2561 1198 L
2564 1300 L
2567 1264 L
2570 1263 L
2580 1243 L
2590 1261 L
2600 1309 L
2609 1225 L
2618 1173 L
2627 1242 L
2635 1143 L
2643 1170 L
2650 1177 L
2658 1245 L
2665 1126 L
2672 1220 L
2678 1167 L
2685 1122 L
2691 1134 L
2697 1105 L
2703 1098 L
2709 1154 L
2714 1103 L
2720 1192 L
2725 1115 L
2730 1153 L
2735 1072 L
2740 1143 L
2745 1070 L
2750 1121 L
2755 1096 L
2759 1164 L
2764 1142 L
2768 1149 L
2772 1093 L
2777 1045 L
2781 1029 L
2785 1103 L
2789 1091 L
2793 1118 L
2796 1187 L
2800 1148 L
2804 1108 L
2808 1108 L
2811 1091 L
2815 1119 L
2818 1065 L
2822 1143 L
2825 1120 L
2828 1058 L
2831 1082 L
2835 1112 L
2838 1114 L
2841 1099 L
2844 1149 L
2847 1107 L
2850 1164 L
2853 1043 L
2856 1174 L
2859 1075 L
2862 1236 L
2864 1161 L
2867 1195 L
2870 1164 L
2873 1068 L
2875 1189 L
2878 1190 L
2880 1181 L
2883 1153 L
2886 1213 L
2888 1095 L
2891 1150 L
2893 1127 L
2895 1195 L
2898 1156 L
2900 1182 L
2902 1162 L
2905 1111 L
2907 1271 L
2909 1181 L
2912 1165 L
2914 1225 L
2916 1089 L
2918 1226 L
2920 1249 L
2922 1213 L
2925 1191 L
2927 1221 L
2929 1190 L
2931 1201 L
2933 1192 L
2935 1221 L
2937 1242 L
2939 1233 L
2941 1186 L
2943 1232 L
2945 1278 L
2947 1247 L
2948 1204 L
2950 1249 L
2952 1183 L
2954 1268 L
2956 1256 L
2958 1215 L
2959 1302 L
2961 1238 L
2963 1258 L
2965 1226 L
2966 1202 L
2968 1221 L
2970 1243 L
2972 1216 L
2973 1385 L
2975 1302 L
2977 1237 L
2978 1309 L
2980 1207 L
2982 1319 L
2983 1333 L
2985 1344 L
2986 1298 L
2988 1278 L
2989 1295 L
2991 1259 L
2993 1267 L
2994 1334 L
2996 1298 L
2997 1303 L
2999 1295 L
3000 1351 L
3002 1316 L
3003 1270 L
3005 1307 L
3006 1251 L
3007 1370 L
3009 1190 L
3010 1331 L
3012 1286 L
3013 1349 L
3014 1305 L
3016 1299 L
3017 1319 L
3019 1322 L
3020 1346 L
3021 1373 L
3023 1266 L
3024 1311 L
3025 1302 L
3027 1337 L
3028 1260 L
3029 1356 L
3031 1339 L
3032 1288 L
3033 1358 L
3034 1301 L
3036 1345 L
3037 1308 L
3038 1305 L
3039 1353 L
3041 1372 L
3042 1390 L
3043 1304 L
3044 1353 L
3045 1388 L
3047 1326 L
3048 1388 L
3049 1324 L
3050 1247 L
3051 1358 L
3053 1388 L
3054 1361 L
3055 1304 L
3056 1318 L
3057 1432 L
3058 1337 L
3059 1349 L
3061 1381 L
3062 1443 L
3063 1292 L
3064 1284 L
3065 1355 L
3066 1411 L
3067 1465 L
3068 1370 L
3069 1342 L
3070 1427 L
3071 1360 L
3073 1390 L
3074 1320 L
3075 1356 L
3076 1264 L
3077 1348 L
3078 1316 L
3079 1445 L
3080 1413 L
3081 1479 L
3082 1339 L
3083 1353 L
3084 1439 L
3085 1411 L
3086 1416 L
3087 1341 L
3088 1294 L
3089 1374 L
3112 1441 L
3133 1282 L
3152 1514 L
3170 1444 L
3186 1468 L
3201 1428 L
3216 1488 L
3229 1446 L
3241 1367 L
3253 1355 L
3264 1454 L
3275 1449 L
3285 1435 L
3295 1453 L
3304 1434 L
3313 1515 L
3322 1448 L
3330 1393 L
3338 1491 L
3346 1452 L
3353 1511 L
3360 1545 L
3367 1458 L
3374 1416 L
3380 1433 L
3387 1454 L
3393 1483 L
3399 1390 L
3405 1360 L
3410 1464 L
3416 1447 L
3421 1555 L
3426 1497 L
3431 1467 L
3436 1443 L
3441 1452 L
3446 1483 L
3451 1569 L
3455 1509 L
3460 1523 L
3464 1488 L
3469 1405 L
3473 1495 L
3477 1487 L
3481 1417 L
3485 1462 L
3489 1524 L
3493 1490 L
3496 1440 L
3500 1549 L
3504 1431 L
3507 1462 L
3511 1471 L
3514 1564 L
3518 1391 L
3521 1476 L
3525 1462 L
3528 1449 L
3531 1452 L
3534 1445 L
3537 1423 L
3540 1410 L
3543 1469 L
3546 1478 L
3549 1545 L
3552 1355 L
3555 1485 L
3558 1487 L
3561 1459 L
3564 1474 L
3566 1466 L
3575 1470 L
3586 1518 L
3595 1432 L
3605 1506 L
3613 1405 L
3622 1414 L
3630 1407 L
3638 1379 L
3646 1443 L
3653 1408 L
3660 1386 L
3667 1408 L
3674 1530 L
3681 1381 L
3687 1439 L
3693 1401 L
3699 1389 L
3705 1408 L
3710 1530 L
3716 1357 L
3721 1376 L
3727 1356 L
3732 1388 L
3737 1355 L
3742 1348 L
3746 1348 L
3751 1373 L
3756 1399 L
3760 1295 L
3764 1391 L
3769 1340 L
3773 1432 L
3777 1415 L
3781 1357 L
3785 1389 L
3789 1313 L
3793 1310 L
3797 1357 L
3800 1327 L
3804 1389 L
3808 1330 L
3811 1411 L
3815 1334 L
3818 1375 L
3821 1434 L
3825 1319 L
3828 1336 L
3831 1353 L
3834 1290 L
3838 1290 L
3841 1403 L
3844 1392 L
3847 1219 L
3850 1329 L
3853 1424 L
3855 1327 L
3858 1388 L
3861 1408 L
3864 1409 L
3867 1282 L
3869 1408 L
3872 1296 L
3875 1396 L
3877 1280 L
3880 1288 L
3882 1277 L
3885 1338 L
3887 1363 L
3890 1398 L
3892 1335 L
3895 1344 L
3897 1347 L
3899 1336 L
3902 1343 L
3904 1368 L
3906 1312 L
3908 1322 L
3911 1391 L
3913 1210 L
3915 1233 L
3917 1339 L
3919 1330 L
3921 1339 L
3923 1378 L
3926 1281 L
3928 1377 L
3930 1351 L
3932 1289 L
3934 1395 L
3936 1384 L
3938 1329 L
3940 1372 L
3942 1318 L
3943 1339 L
3945 1313 L
3947 1347 L
3949 1379 L
3951 1347 L
3953 1311 L
3955 1198 L
3956 1366 L
3958 1390 L
3960 1365 L
3962 1256 L
3963 1262 L
3965 1329 L
3967 1385 L
3969 1289 L
3970 1266 L
3972 1380 L
3974 1351 L
3975 1312 L
3977 1260 L
3978 1258 L
3980 1321 L
3982 1297 L
3983 1270 L
3985 1275 L
3986 1223 L
3988 1324 L
3990 1238 L
3991 1309 L
3993 1310 L
3994 1360 L
3996 1279 L
3997 1286 L
3999 1366 L
4000 1344 L
4001 1290 L
4003 1227 L
4004 1261 L
4006 1294 L
4007 1299 L
4009 1243 L
4010 1318 L
4011 1324 L
4013 1324 L
4014 1317 L
4016 1330 L
4017 1186 L
4018 1278 L
4020 1225 L
4021 1294 L
4022 1328 L
4024 1213 L
4025 1404 L
4026 1290 L
4028 1352 L
4029 1323 L
4030 1209 L
4031 1229 L
4033 1232 L
4034 1320 L
4035 1234 L
4036 1183 L
4038 1343 L
4039 1249 L
4040 1260 L
4041 1286 L
4042 1221 L
4044 1240 L
4045 1342 L
4046 1241 L
4047 1317 L
4048 1259 L
4050 1275 L
4051 1372 L
4052 1299 L
4053 1337 L
4054 1195 L
4055 1267 L
4056 1286 L
4058 1327 L
4059 1241 L
4060 1260 L
4061 1304 L
4062 1198 L
4063 1292 L
4064 1275 L
4065 1298 L
4066 1358 L
L2 C07 COSGR

%
% Main frame
%
L10
GSN 
620 1700 M
4220 1700 L
4220 5300 L
620 5300 L
closepath SGR

%
% X axis: large tics
%
L10
GSN 1074 1700 M 0  54 rL SGR
GSN 1074 5300 M 0 -54 rL SGR
helvS (0.0001) 1074 470 xlabel
GSN 1572 1700 M 0  54 rL SGR
GSN 1572 5300 M 0 -54 rL SGR
helvS (0.001) 1572 470 xlabel
GSN 2071 1700 M 0  54 rL SGR
GSN 2071 5300 M 0 -54 rL SGR
helvS (0.01) 2071 470 xlabel
GSN 2570 1700 M 0  54 rL SGR
GSN 2570 5300 M 0 -54 rL SGR
helvS (0.1) 2570 470 xlabel
GSN 3068 1700 M 0  54 rL SGR
GSN 3068 5300 M 0 -54 rL SGR
helvS (1) 3068 470 xlabel
GSN 3567 1700 M 0  54 rL SGR
GSN 3567 5300 M 0 -54 rL SGR
helvS (10) 3567 470 xlabel
GSN 4066 1700 M 0  54 rL SGR
GSN 4066 5300 M 0 -54 rL SGR
helvS (100) 4066 470 xlabel
%
% X axis: small tics
%
L5
GSN 725 1700 M 0  36 rL SGR
GSN 725 5300 M 0 -36 rL SGR
GSN 813 1700 M 0  36 rL SGR
GSN 813 5300 M 0 -36 rL SGR
GSN 875 1700 M 0  36 rL SGR
GSN 875 5300 M 0 -36 rL SGR
GSN 924 1700 M 0  36 rL SGR
GSN 924 5300 M 0 -36 rL SGR
GSN 963 1700 M 0  36 rL SGR
GSN 963 5300 M 0 -36 rL SGR
GSN 996 1700 M 0  36 rL SGR
GSN 996 5300 M 0 -36 rL SGR
GSN 1025 1700 M 0  36 rL SGR
GSN 1025 5300 M 0 -36 rL SGR
GSN 1051 1700 M 0  36 rL SGR
GSN 1051 5300 M 0 -36 rL SGR
GSN 1224 1700 M 0  36 rL SGR
GSN 1224 5300 M 0 -36 rL SGR
GSN 1312 1700 M 0  36 rL SGR
GSN 1312 5300 M 0 -36 rL SGR
GSN 1374 1700 M 0  36 rL SGR
GSN 1374 5300 M 0 -36 rL SGR
GSN 1422 1700 M 0  36 rL SGR
GSN 1422 5300 M 0 -36 rL SGR
GSN 1462 1700 M 0  36 rL SGR
GSN 1462 5300 M 0 -36 rL SGR
GSN 1495 1700 M 0  36 rL SGR
GSN 1495 5300 M 0 -36 rL SGR
GSN 1524 1700 M 0  36 rL SGR
GSN 1524 5300 M 0 -36 rL SGR
GSN 1550 1700 M 0  36 rL SGR
GSN 1550 5300 M 0 -36 rL SGR
GSN 1722 1700 M 0  36 rL SGR
GSN 1722 5300 M 0 -36 rL SGR
GSN 1810 1700 M 0  36 rL SGR
GSN 1810 5300 M 0 -36 rL SGR
GSN 1873 1700 M 0  36 rL SGR
GSN 1873 5300 M 0 -36 rL SGR
GSN 1921 1700 M 0  36 rL SGR
GSN 1921 5300 M 0 -36 rL SGR
GSN 1960 1700 M 0  36 rL SGR
GSN 1960 5300 M 0 -36 rL SGR
GSN 1994 1700 M 0  36 rL SGR
GSN 1994 5300 M 0 -36 rL SGR
GSN 2023 1700 M 0  36 rL SGR
GSN 2023 5300 M 0 -36 rL SGR
GSN 2048 1700 M 0  36 rL SGR
GSN 2048 5300 M 0 -36 rL SGR
GSN 2221 1700 M 0  36 rL SGR
GSN 2221 5300 M 0 -36 rL SGR
GSN 2309 1700 M 0  36 rL SGR
GSN 2309 5300 M 0 -36 rL SGR
GSN 2371 1700 M 0  36 rL SGR
GSN 2371 5300 M 0 -36 rL SGR
GSN 2420 1700 M 0  36 rL SGR
GSN 2420 5300 M 0 -36 rL SGR
GSN 2459 1700 M 0  36 rL SGR
GSN 2459 5300 M 0 -36 rL SGR
GSN 2492 1700 M 0  36 rL SGR
GSN 2492 5300 M 0 -36 rL SGR
GSN 2521 1700 M 0  36 rL SGR
GSN 2521 5300 M 0 -36 rL SGR
GSN 2547 1700 M 0  36 rL SGR
GSN 2547 5300 M 0 -36 rL SGR
GSN 2720 1700 M 0  36 rL SGR
GSN 2720 5300 M 0 -36 rL SGR
GSN 2808 1700 M 0  36 rL SGR
GSN 2808 5300 M 0 -36 rL SGR
GSN 2870 1700 M 0  36 rL SGR
GSN 2870 5300 M 0 -36 rL SGR
GSN 2918 1700 M 0  36 rL SGR
GSN 2918 5300 M 0 -36 rL SGR
GSN 2958 1700 M 0  36 rL SGR
GSN 2958 5300 M 0 -36 rL SGR
GSN 2991 1700 M 0  36 rL SGR
GSN 2991 5300 M 0 -36 rL SGR
GSN 3020 1700 M 0  36 rL SGR
GSN 3020 5300 M 0 -36 rL SGR
GSN 3045 1700 M 0  36 rL SGR
GSN 3045 5300 M 0 -36 rL SGR
GSN 3218 1700 M 0  36 rL SGR
GSN 3218 5300 M 0 -36 rL SGR
GSN 3306 1700 M 0  36 rL SGR
GSN 3306 5300 M 0 -36 rL SGR
GSN 3368 1700 M 0  36 rL SGR
GSN 3368 5300 M 0 -36 rL SGR
GSN 3417 1700 M 0  36 rL SGR
GSN 3417 5300 M 0 -36 rL SGR
GSN 3456 1700 M 0  36 rL SGR
GSN 3456 5300 M 0 -36 rL SGR
GSN 3490 1700 M 0  36 rL SGR
GSN 3490 5300 M 0 -36 rL SGR
GSN 3519 1700 M 0  36 rL SGR
GSN 3519 5300 M 0 -36 rL SGR
GSN 3544 1700 M 0  36 rL SGR
GSN 3544 5300 M 0 -36 rL SGR
GSN 3717 1700 M 0  36 rL SGR
GSN 3717 5300 M 0 -36 rL SGR
GSN 3805 1700 M 0  36 rL SGR
GSN 3805 5300 M 0 -36 rL SGR
GSN 3867 1700 M 0  36 rL SGR
GSN 3867 5300 M 0 -36 rL SGR
GSN 3915 1700 M 0  36 rL SGR
GSN 3915 5300 M 0 -36 rL SGR
GSN 3955 1700 M 0  36 rL SGR
GSN 3955 5300 M 0 -36 rL SGR
GSN 3988 1700 M 0  36 rL SGR
GSN 3988 5300 M 0 -36 rL SGR
GSN 4017 1700 M 0  36 rL SGR
GSN 4017 5300 M 0 -36 rL SGR
GSN 4043 1700 M 0  36 rL SGR
GSN 4043 5300 M 0 -36 rL SGR
GSN 4216 1700 M 0  36 rL SGR
GSN 4216 5300 M 0 -36 rL SGR
%
% Y axis: large tics
%
L10
GSN 620 1742 M 54 0 rL SGR
GSN 4220 1742 M -54 0 rL SGR
helvS (0.875) 560 1742 ylabel
GSN 620 2559 M 54 0 rL SGR
GSN 4220 2559 M -54 0 rL SGR
helvS (0.9) 560 2559 ylabel
GSN 620 3377 M 54 0 rL SGR
GSN 4220 3377 M -54 0 rL SGR
helvS (0.925) 560 3377 ylabel
GSN 620 4194 M 54 0 rL SGR
GSN 4220 4194 M -54 0 rL SGR
helvS (0.95) 560 4194 ylabel
GSN 620 5011 M 54 0 rL SGR
GSN 4220 5011 M -54 0 rL SGR
helvS (0.975) 560 5011 ylabel
%
% Y axis: small tics
%
L5
GSN 620 1906 M 36 0 rL SGR
GSN 4220 1906 M -36 0 rL SGR
GSN 620 2314 M 36 0 rL SGR
GSN 4220 2314 M -36 0 rL SGR
GSN 620 2723 M 36 0 rL SGR
GSN 4220 2723 M -36 0 rL SGR
GSN 620 3131 M 36 0 rL SGR
GSN 4220 3131 M -36 0 rL SGR
GSN 620 3540 M 36 0 rL SGR
GSN 4220 3540 M -36 0 rL SGR
GSN 620 3949 M 36 0 rL SGR
GSN 4220 3949 M -36 0 rL SGR
GSN 620 4357 M 36 0 rL SGR
GSN 4220 4357 M -36 0 rL SGR
GSN 620 4766 M 36 0 rL SGR
GSN 4220 4766 M -36 0 rL SGR
GSN 620 5174 M 36 0 rL SGR
GSN 4220 5174 M -36 0 rL SGR

%
% X-Axis label:
%
gsave 2420 290 M 
[
[(Helvetica) 180 0 true true 0 (t)]
[(Helvetica) 180 0 true true 0 (i)]
[(Helvetica) 180 0 true true 0 (m)]
[(Helvetica) 180 0 true true 0 (e)]
] 0 MCshow grestore

%
% Y-Axis label:
%
gsave 234 3499 M 
currentpoint gsave translate 90 rotate 0 0 moveto
[
[(Helvetica) 180 0 true true 0 (s)]
[(Helvetica) 180 0 true true 0 (i)]
[(Helvetica) 180 0 true true 0 (g)]
[(Helvetica) 180 0 true true 0 (n)]
[(Helvetica) 180 0 true true 0 (a)]
[(Helvetica) 180 0 true true 0 (l)]
] 0 MCshow grestore

%
% Residuals:
%
gsave 129 1160 M 
currentpoint gsave translate 90 rotate 0 0 moveto
[
[(Helvetica) 150 0 true true 0 (r)]
[(Helvetica) 150 0 true true 0 (e)]
[(Helvetica) 150 0 true true 0 (s)]
[(Helvetica) 150 0 true true 0 (i)]
[(Helvetica) 150 0 true true 0 (d)]
[(Helvetica) 150 0 true true 0 (u)]
[(Helvetica) 150 0 true true 0 (a)]
[(Helvetica) 150 0 true true 0 (l)]
[(Helvetica) 150 0 true true 0 (s)]
] 0 MCshow grestore

%
% Residual frame
%
L10
GSN 
620 620 M
4220 620 L
4220 1700 L
620 1700 L
closepath SGR
%
% X axis: large tics - residual frame
%
L10
GSN 1074 620 M 0  54 rL SGR
GSN 1074 1700 M 0 -54 rL SGR
GSN 1572 620 M 0  54 rL SGR
GSN 1572 1700 M 0 -54 rL SGR
GSN 2071 620 M 0  54 rL SGR
GSN 2071 1700 M 0 -54 rL SGR
GSN 2570 620 M 0  54 rL SGR
GSN 2570 1700 M 0 -54 rL SGR
GSN 3068 620 M 0  54 rL SGR
GSN 3068 1700 M 0 -54 rL SGR
GSN 3567 620 M 0  54 rL SGR
GSN 3567 1700 M 0 -54 rL SGR
GSN 4066 620 M 0  54 rL SGR
GSN 4066 1700 M 0 -54 rL SGR
%
% X axis: small tics - residual frame
%
L5
GSN 725 620 M 0  36 rL SGR
GSN 725 1700 M 0 -36 rL SGR
GSN 813 620 M 0  36 rL SGR
GSN 813 1700 M 0 -36 rL SGR
GSN 875 620 M 0  36 rL SGR
GSN 875 1700 M 0 -36 rL SGR
GSN 924 620 M 0  36 rL SGR
GSN 924 1700 M 0 -36 rL SGR
GSN 963 620 M 0  36 rL SGR
GSN 963 1700 M 0 -36 rL SGR
GSN 996 620 M 0  36 rL SGR
GSN 996 1700 M 0 -36 rL SGR
GSN 1025 620 M 0  36 rL SGR
GSN 1025 1700 M 0 -36 rL SGR
GSN 1051 620 M 0  36 rL SGR
GSN 1051 1700 M 0 -36 rL SGR
GSN 1224 620 M 0  36 rL SGR
GSN 1224 1700 M 0 -36 rL SGR
GSN 1312 620 M 0  36 rL SGR
GSN 1312 1700 M 0 -36 rL SGR
GSN 1374 620 M 0  36 rL SGR
GSN 1374 1700 M 0 -36 rL SGR
GSN 1422 620 M 0  36 rL SGR
GSN 1422 1700 M 0 -36 rL SGR
GSN 1462 620 M 0  36 rL SGR
GSN 1462 1700 M 0 -36 rL SGR
GSN 1495 620 M 0  36 rL SGR
GSN 1495 1700 M 0 -36 rL SGR
GSN 1524 620 M 0  36 rL SGR
GSN 1524 1700 M 0 -36 rL SGR
GSN 1550 620 M 0  36 rL SGR
GSN 1550 1700 M 0 -36 rL SGR
GSN 1722 620 M 0  36 rL SGR
GSN 1722 1700 M 0 -36 rL SGR
GSN 1810 620 M 0  36 rL SGR
GSN 1810 1700 M 0 -36 rL SGR
GSN 1873 620 M 0  36 rL SGR
GSN 1873 1700 M 0 -36 rL SGR
GSN 1921 620 M 0  36 rL SGR
GSN 1921 1700 M 0 -36 rL SGR
GSN 1960 620 M 0  36 rL SGR
GSN 1960 1700 M 0 -36 rL SGR
GSN 1994 620 M 0  36 rL SGR
GSN 1994 1700 M 0 -36 rL SGR
GSN 2023 620 M 0  36 rL SGR
GSN 2023 1700 M 0 -36 rL SGR
GSN 2048 620 M 0  36 rL SGR
GSN 2048 1700 M 0 -36 rL SGR
GSN 2221 620 M 0  36 rL SGR
GSN 2221 1700 M 0 -36 rL SGR
GSN 2309 620 M 0  36 rL SGR
GSN 2309 1700 M 0 -36 rL SGR
GSN 2371 620 M 0  36 rL SGR
GSN 2371 1700 M 0 -36 rL SGR
GSN 2420 620 M 0  36 rL SGR
GSN 2420 1700 M 0 -36 rL SGR
GSN 2459 620 M 0  36 rL SGR
GSN 2459 1700 M 0 -36 rL SGR
GSN 2492 620 M 0  36 rL SGR
GSN 2492 1700 M 0 -36 rL SGR
GSN 2521 620 M 0  36 rL SGR
GSN 2521 1700 M 0 -36 rL SGR
GSN 2547 620 M 0  36 rL SGR
GSN 2547 1700 M 0 -36 rL SGR
GSN 2720 620 M 0  36 rL SGR
GSN 2720 1700 M 0 -36 rL SGR
GSN 2808 620 M 0  36 rL SGR
GSN 2808 1700 M 0 -36 rL SGR
GSN 2870 620 M 0  36 rL SGR
GSN 2870 1700 M 0 -36 rL SGR
GSN 2918 620 M 0  36 rL SGR
GSN 2918 1700 M 0 -36 rL SGR
GSN 2958 620 M 0  36 rL SGR
GSN 2958 1700 M 0 -36 rL SGR
GSN 2991 620 M 0  36 rL SGR
GSN 2991 1700 M 0 -36 rL SGR
GSN 3020 620 M 0  36 rL SGR
GSN 3020 1700 M 0 -36 rL SGR
GSN 3045 620 M 0  36 rL SGR
GSN 3045 1700 M 0 -36 rL SGR
GSN 3218 620 M 0  36 rL SGR
GSN 3218 1700 M 0 -36 rL SGR
GSN 3306 620 M 0  36 rL SGR
GSN 3306 1700 M 0 -36 rL SGR
GSN 3368 620 M 0  36 rL SGR
GSN 3368 1700 M 0 -36 rL SGR
GSN 3417 620 M 0  36 rL SGR
GSN 3417 1700 M 0 -36 rL SGR
GSN 3456 620 M 0  36 rL SGR
GSN 3456 1700 M 0 -36 rL SGR
GSN 3490 620 M 0  36 rL SGR
GSN 3490 1700 M 0 -36 rL SGR
GSN 3519 620 M 0  36 rL SGR
GSN 3519 1700 M 0 -36 rL SGR
GSN 3544 620 M 0  36 rL SGR
GSN 3544 1700 M 0 -36 rL SGR
GSN 3717 620 M 0  36 rL SGR
GSN 3717 1700 M 0 -36 rL SGR
GSN 3805 620 M 0  36 rL SGR
GSN 3805 1700 M 0 -36 rL SGR
GSN 3867 620 M 0  36 rL SGR
GSN 3867 1700 M 0 -36 rL SGR
GSN 3915 620 M 0  36 rL SGR
GSN 3915 1700 M 0 -36 rL SGR
GSN 3955 620 M 0  36 rL SGR
GSN 3955 1700 M 0 -36 rL SGR
GSN 3988 620 M 0  36 rL SGR
GSN 3988 1700 M 0 -36 rL SGR
GSN 4017 620 M 0  36 rL SGR
GSN 4017 1700 M 0 -36 rL SGR
GSN 4043 620 M 0  36 rL SGR
GSN 4043 1700 M 0 -36 rL SGR
GSN 4216 620 M 0  36 rL SGR
GSN 4216 1700 M 0 -36 rL SGR
%
% Y axis: large tics - residual frame
%
L10
GSN 620 926 M 54 0 rL SGR
GSN 4220 926 M -54 0 rL SGR
helvS (-0.02) 560 926 ylabelresid
GSN 620 1297 M 54 0 rL SGR
GSN 4220 1297 M -54 0 rL SGR
helvS (0) 560 1297 ylabelresid
GSN 620 1669 M 54 0 rL SGR
GSN 4220 1669 M -54 0 rL SGR
helvS (0.02) 560 1669 ylabelresid

%
% X axis - residual panel
%
GSN L5 620 1297 M 4220 1297 L SDA G50 SGR

end
showpage
%%Trailer
%%EOF
