%!PS-Adobe-3.0 EPSF-3.0
%%BoundingBox: 0 0 514 550
%%Creator: BioKin Ltd.
%%DocumentFonts: Symbol Helvetica
%%EndComments
%
/bkdict 256 dict def
bkdict begin
/M {moveto} def 
/R {rmoveto} def
/L {lineto} def
/rL {rlineto} def
/GSN {gsave newpath} def
/SGR {stroke grestore} def
/COSGR {gsave setrgbcolor stroke grestore grestore} def
/SL {setlinewidth} def
/LWMB {12} def             % line width - model curves, black & white
/LWMC {10} def             % line width - model curves, color
/L2 {2.5 setlinewidth} def
/L5 {5 setlinewidth} def
/L10 {10 setlinewidth} def
/G50 {0.5 setgray} def
/SDA {[10  20] 0 setdash} def % axes
/helvT {/Helvetica findfont 100 scalefont setfont} def % tiny
/helvS {/Helvetica findfont 125 scalefont setfont} def % small
/helvM {/Helvetica findfont 150 scalefont setfont} def % medium
/helvL {/Helvetica findfont 175 scalefont setfont} def % large
/xlabel {gsave M dup
   stringwidth exch -0.5 mul exch rmoveto show grestore} def 
/ylabel {gsave M 90 rotate dup
   stringwidth exch -0.5 mul exch rmoveto show grestore} def
/ylabelresid {gsave M dup
   stringwidth exch -1 mul exch rmoveto show grestore} def
% ======
% Shapes
% ======
% Circle:
/Circ {0 360 arc closepath} def
%
% Square:
/Squa {dup dup -0.5 mul dup dup R -2 mul 0 exch rL 1 mul 0 rL dup 0 exch -1 mul rL closepath} def
%
% Triangle Up:
/TriU {dup dup dup -0.4 mul exch -0.5 mul exch R dup 0.5 mul exch rL dup -1 mul exch 0.5 mul exch rL closepath} def 
%
% Triangle Down:
/TriD {dup dup dup 0.4 mul exch -0.5 mul exch R dup 0.5 mul exch -1 mul rL dup 0.5 mul exch rL closepath} def 
%
% Diamond:
/Diam {45 rotate Squa} def
% ======
% Fills
% ======
/GRF {gsave setgray fill grestore} def                    % gray-level Fill
/COF {gsave setrgbcolor fill grestore} def                % color fill
% ======
% Colors
% ======
/C01 {1.00	0.00	0.00} def      % Red
/C02 {0.00	0.00	1.00} def      % Blue
/C03 {0.00	0.39	0.00} def      % Dark Green
/C04 {0.78	0.08	0.52} def      % Medium Violet Red
/C05 {0.55	0.27	0.07} def      % Saddle Brown
/C06 {0.10	0.70	0.70} def      % (cyan)
/C07 {1.00	0.55	0.00} def      % Dark Orange
/C08 {0.63	0.13	0.94} def      % Purple
/C09 {0.00	0.75	1.00} def      % Deep Sky Blue
/C10 {0.20	0.80	0.20} def      % Lime Green
/C11 {0.47	0.53	0.60} def      % Light Slate Gray
/C12 {0.00	0.00	0.00} def      % Black            % or: {0.19	0.31	0.31} def      % Dark Slate Gray
%
/LGR {0.75} def % light gray
/DGR {0.33} def % dark gray
%
% =============
% Dash patterns
% =============
/dash01 { [80  20] 0 setdash } def
/dash02 { [40  20] 0 setdash } def
/dash03 { [80  20  10  20] 0 setdash } def
/dash04 { [40  20  10  20] 0 setdash } def
/dash05 { [80  20  10  10  10  20] 0 setdash } def
/dash06 { [40  20  10  10  10  20] 0 setdash } def
/dash07 { [10  10] 0 setdash } def
%
/MFshow {
   { dup 5 get 3 ge
     { 5 get 3 eq {gsave} {grestore} ifelse }
     {dup dup 0 get findfont exch 1 get scalefont setfont
     [ currentpoint ] exch dup 2 get 0 exch R dup 5 get 2 ne {dup dup 6
     get exch 4 get {show} {stringwidth pop 0 R} ifelse }if dup 5 get 0 eq
     {dup 3 get {2 get neg 0 exch R pop} {pop aload pop M} ifelse} {dup 5
     get 1 eq {dup 2 get exch dup 3 get exch 6 get stringwidth pop -2 div
     dup 0 R} {dup 6 get stringwidth pop -2 div 0 R 6 get
     show 2 index {aload pop M neg 3 -1 roll neg R pop pop} {pop pop pop
     pop aload pop M} ifelse }ifelse }ifelse }
     ifelse }
   forall} bind def
/MFwidth {0 exch {dup 3 get{dup dup 0 get findfont exch 1 get scalefont
     setfont 6 get stringwidth pop add} {pop} ifelse} forall} bind def
/MCshow { currentpoint stroke M
  exch dup MFwidth -2 div 3 -1 roll R MFshow } def
%
end
%%EndProlog
bkdict begin
0.1 0.1 scale
%
% Residuals:
%
GSN 620 2136 M
620 3032 L
620 3839 L
620 3957 L
620 4399 L
620 4365 L
620 4528 L
620 4603 L
620 4554 L
620 4511 L
620 4688 L
620 4659 L
620 4863 L
620 4683 L
620 4766 L
620 4760 L
620 4786 L
620 4738 L
620 4696 L
620 4716 L
620 4603 L
620 4644 L
620 4794 L
620 4683 L
620 4618 L
620 4832 L
620 4720 L
620 4743 L
620 4694 L
620 4767 L
620 4703 L
620 4538 L
620 4738 L
620 4530 L
620 4784 L
620 4782 L
620 4519 L
620 4777 L
620 4395 L
620 4791 L
620 4634 L
620 4728 L
620 4526 L
620 4706 L
620 4675 L
620 4543 L
620 4522 L
620 4555 L
620 4662 L
620 4583 L
620 4549 L
620 4651 L
620 4522 L
620 4508 L
620 4519 L
620 4535 L
620 4452 L
620 4598 L
620 4539 L
620 4410 L
620 4394 L
620 4637 L
620 4333 L
620 4578 L
620 4340 L
620 4514 L
620 4239 L
620 4395 L
620 4213 L
620 4392 L
620 4409 L
620 4296 L
620 4276 L
620 4436 L
620 4169 L
620 4152 L
620 4429 L
620 4172 L
620 4174 L
620 4273 L
620 4436 L
620 4107 L
620 4086 L
620 4200 L
620 4182 L
620 4140 L
620 4202 L
620 4144 L
620 3983 L
620 3930 L
620 3865 L
620 3948 L
620 3976 L
620 4001 L
620 3735 L
620 3807 L
620 3994 L
620 3912 L
620 3689 L
620 4018 L
620 3952 L
620 3866 L
620 3874 L
620 3811 L
620 3843 L
620 3705 L
620 3552 L
620 3685 L
620 3622 L
620 3794 L
620 3784 L
620 3805 L
620 3743 L
620 3610 L
620 3602 L
620 3779 L
620 3509 L
620 3693 L
620 3412 L
620 3733 L
620 3500 L
620 3518 L
620 3577 L
620 3766 L
620 3600 L
620 3809 L
620 3772 L
620 3419 L
620 3617 L
620 3430 L
620 3640 L
620 3571 L
620 3484 L
620 3283 L
620 3656 L
620 3464 L
620 3513 L
620 3650 L
620 3721 L
620 3539 L
620 3545 L
620 3391 L
620 3420 L
620 3397 L
620 3528 L
620 3559 L
620 3637 L
620 3492 L
620 3653 L
620 3545 L
620 3505 L
620 3504 L
620 3445 L
620 3369 L
620 3447 L
620 3473 L
620 3436 L
620 3401 L
620 3504 L
620 3478 L
620 3521 L
620 3630 L
620 3665 L
620 3689 L
620 3502 L
620 3638 L
620 3797 L
620 3539 L
620 3575 L
620 3520 L
620 3727 L
620 3477 L
620 3509 L
620 3632 L
620 3644 L
620 3588 L
620 3457 L
620 3649 L
620 3667 L
620 3559 L
620 3498 L
620 3652 L
620 3636 L
620 3603 L
620 3424 L
620 3651 L
620 3539 L
620 3592 L
620 3478 L
620 3875 L
620 3710 L
620 3471 L
620 3813 L
620 3488 L
620 3656 L
620 3795 L
620 3663 L
620 3709 L
620 3728 L
620 3792 L
620 3714 L
620 3797 L
620 3417 L
620 3530 L
620 3690 L
620 3617 L
620 3629 L
620 3587 L
620 3663 L
620 3595 L
620 3634 L
620 3660 L
620 3786 L
620 3728 L
620 3679 L
620 3759 L
620 3602 L
620 3662 L
620 3570 L
620 3638 L
620 3624 L
620 3799 L
620 3696 L
620 3635 L
620 3639 L
620 3769 L
620 3925 L
620 3677 L
620 3786 L
620 3535 L
620 3659 L
620 3681 L
620 3696 L
620 3653 L
620 3772 L
620 3818 L
620 3715 L
620 3854 L
620 3629 L
620 3459 L
620 3795 L
620 3585 L
620 3862 L
620 3880 L
620 3747 L
620 3433 L
620 3731 L
620 3893 L
620 3764 L
620 3620 L
620 3786 L
620 3824 L
620 3909 L
620 3719 L
620 3725 L
620 3786 L
620 3832 L
620 3763 L
620 3794 L
620 3767 L
620 3788 L
620 3663 L
620 3730 L
620 3854 L
620 3771 L
620 3697 L
620 3773 L
620 3738 L
620 3722 L
620 3686 L
620 3517 L
620 3628 L
620 3784 L
620 3879 L
620 3768 L
620 3803 L
620 3873 L
620 3702 L
620 3838 L
620 3772 L
620 3703 L
620 3886 L
620 3836 L
620 4115 L
620 3919 L
620 3819 L
620 3809 L
620 3735 L
620 3929 L
620 3820 L
620 3990 L
620 3872 L
620 4045 L
620 4032 L
620 4001 L
620 4131 L
620 4017 L
620 3973 L
620 4013 L
620 4114 L
620 4081 L
620 3925 L
620 4109 L
620 3970 L
620 3955 L
620 4133 L
620 3796 L
620 4045 L
620 3952 L
620 4056 L
620 4111 L
620 3841 L
620 3874 L
620 4082 L
620 4128 L
620 4070 L
620 3902 L
620 3729 L
620 4039 L
620 3852 L
620 3816 L
620 3966 L
620 4096 L
620 3809 L
620 3895 L
620 3994 L
620 3906 L
620 4018 L
620 4029 L
620 4172 L
620 4049 L
620 4144 L
620 3864 L
620 4049 L
620 3972 L
620 4137 L
620 3856 L
620 3768 L
620 3738 L
620 4084 L
620 3911 L
620 4114 L
620 3963 L
620 3961 L
620 3982 L
620 3998 L
620 3989 L
620 3832 L
620 3891 L
620 3996 L
620 4001 L
620 3875 L
620 3783 L
620 3884 L
620 3896 L
620 3813 L
620 3815 L
620 3825 L
620 3854 L
620 3989 L
620 3996 L
620 3834 L
620 3926 L
620 3706 L
620 3815 L
620 3798 L
620 3929 L
620 4010 L
620 3694 L
620 3924 L
620 3722 L
620 3722 L
620 3753 L
620 3798 L
620 3749 L
620 3737 L
620 3838 L
620 3775 L
620 3902 L
620 3722 L
620 3723 L
620 3933 L
620 3670 L
620 3915 L
620 3760 L
620 3876 L
620 3807 L
620 3891 L
620 3703 L
620 3810 L
620 3741 L
620 3710 L
620 3770 L
620 3791 L
620 3898 L
620 3525 L
620 3914 L
620 3727 L
620 3689 L
620 3874 L
620 3661 L
620 3738 L
620 3710 L
620 3701 L
620 3703 L
620 3634 L
620 3896 L
620 3625 L
620 3668 L
620 3696 L
620 3616 L
620 3585 L
620 3732 L
620 3840 L
620 3731 L
620 3767 L
620 3810 L
620 3952 L
620 3781 L
620 3865 L
620 3978 L
620 3858 L
620 3703 L
620 3739 L
620 3931 L
620 3750 L
620 3743 L
620 3511 L
620 3907 L
620 3584 L
620 3712 L
620 3789 L
620 3727 L
620 3627 L
620 3708 L
620 3841 L
620 3810 L
620 3883 L
620 3961 L
620 3699 L
620 4009 L
620 3736 L
620 3767 L
620 3637 L
620 3769 L
620 3656 L
620 3827 L
620 3677 L
620 3786 L
620 3706 L
620 3763 L
620 3782 L
620 3654 L
620 3865 L
620 3618 L
620 3841 L
620 3774 L
620 3857 L
620 3698 L
620 3570 L
620 3627 L
620 3615 L
620 3724 L
620 3793 L
620 3724 L
620 3667 L
620 3912 L
620 3629 L
620 3936 L
620 3890 L
620 3454 L
620 3617 L
620 3703 L
620 3923 L
620 3639 L
620 3810 L
620 3795 L
620 3601 L
620 3508 L
620 3675 L
620 3729 L
620 3781 L
620 3795 L
620 3699 L
620 3720 L
620 3831 L
620 3627 L
620 3627 L
620 3812 L
620 3786 L
620 3712 L
620 3627 L
620 3705 L
620 3878 L
620 3577 L
620 3487 L
620 3525 L
620 3795 L
620 3725 L
620 3622 L
620 3886 L
620 3781 L
620 3642 L
620 3585 L
620 3617 L
620 3667 L
620 3698 L
620 3632 L
620 3563 L
620 3826 L
620 3630 L
620 3684 L
620 3905 L
620 3667 L
620 3492 L
620 3755 L
620 3539 L
620 3819 L
620 3771 L
620 3712 L
620 3611 L
620 3867 L
620 3577 L
620 3739 L
620 3672 L
620 3872 L
620 3743 L
620 3682 L
620 3738 L
620 3764 L
620 3847 L
620 3708 L
620 3745 L
L2 C02 COSGR

%
%================
% Legend - Begin
%================
%
GSN 4240 5180 M
4480 5180 L
LWMC SL  C02 COSGR
GSN 4540 5141 M helvM (1.0 uM) show grestore
%
%================
% Legend - End
%================
%

%
% Main frame
%
L10
GSN 
620 1700 M
4220 1700 L
4220 5300 L
620 5300 L
closepath SGR

%
% X axis: large tics
%
L10
%
% X axis: small tics
%
L5
%
% Y axis: large tics
%
L10
GSN 620 2168 M 54 0 rL SGR
GSN 4220 2168 M -54 0 rL SGR
helvS (-0.05) 560 2168 ylabel
GSN 620 3017 M 54 0 rL SGR
GSN 4220 3017 M -54 0 rL SGR
helvS (-0.025) 560 3017 ylabel
GSN 620 3867 M 54 0 rL SGR
GSN 4220 3867 M -54 0 rL SGR
helvS (0) 560 3867 ylabel
GSN 620 4717 M 54 0 rL SGR
GSN 4220 4717 M -54 0 rL SGR
helvS (0.025) 560 4717 ylabel
%
% Y axis: small tics
%
L5
GSN 620 1743 M 36 0 rL SGR
GSN 4220 1743 M -36 0 rL SGR
GSN 620 2168 M 36 0 rL SGR
GSN 4220 2168 M -36 0 rL SGR
GSN 620 2593 M 36 0 rL SGR
GSN 4220 2593 M -36 0 rL SGR
GSN 620 3017 M 36 0 rL SGR
GSN 4220 3017 M -36 0 rL SGR
GSN 620 3442 M 36 0 rL SGR
GSN 4220 3442 M -36 0 rL SGR
GSN 620 3867 M 36 0 rL SGR
GSN 4220 3867 M -36 0 rL SGR
GSN 620 4292 M 36 0 rL SGR
GSN 4220 4292 M -36 0 rL SGR
GSN 620 4717 M 36 0 rL SGR
GSN 4220 4717 M -36 0 rL SGR
GSN 620 5142 M 36 0 rL SGR
GSN 4220 5142 M -36 0 rL SGR

%
% X axis - residual panel
%
GSN L5 620 3867 M 4220 3867 L SDA G50 SGR

%
% X-Axis label:
%
gsave 620 1370 M 
[
[(Helvetica) 180 0 true true 0 (t)]
[(Helvetica) 180 0 true true 0 (i)]
[(Helvetica) 180 0 true true 0 (m)]
[(Helvetica) 180 0 true true 0 (e)]
] 0 MCshow grestore

%
% Y-Axis label:
%
gsave 234 3500 M 
currentpoint gsave translate 90 rotate 0 0 moveto
[
[(Helvetica) 180 0 true true 0 (r)]
[(Helvetica) 180 0 true true 0 (e)]
[(Helvetica) 180 0 true true 0 (s)]
[(Helvetica) 180 0 true true 0 (i)]
[(Helvetica) 180 0 true true 0 (d)]
[(Helvetica) 180 0 true true 0 (u)]
[(Helvetica) 180 0 true true 0 (a)]
[(Helvetica) 180 0 true true 0 (l)]
[(Helvetica) 180 0 true true 0 (s)]
] 0 MCshow grestore

end
showpage
%%Trailer
%%EOF
