%!PS-Adobe-3.0 EPSF-3.0
%%BoundingBox: 0 0 514 442
%%Creator: BioKin Ltd.
%%DocumentFonts: Symbol Helvetica
%%EndComments
%
/bkdict 256 dict def
bkdict begin
/M {moveto} def 
/R {rmoveto} def
/L {lineto} def
/rL {rlineto} def
/GSN {gsave newpath} def
/SGR {stroke grestore} def
/COSGR {gsave setrgbcolor stroke grestore grestore} def
/SL {setlinewidth} def
/LWMB {12} def             % line width - model curves, black & white
/LWMC {10} def             % line width - model curves, color
/L2 {2.5 setlinewidth} def
/L5 {5 setlinewidth} def
/L10 {10 setlinewidth} def
/G50 {0.5 setgray} def
/SDA {[10  20] 0 setdash} def % axes
/helvT {/Helvetica findfont 100 scalefont setfont} def % tiny
/helvS {/Helvetica findfont 125 scalefont setfont} def % small
/helvM {/Helvetica findfont 150 scalefont setfont} def % medium
/helvL {/Helvetica findfont 175 scalefont setfont} def % large
/xlabel {gsave M dup
   stringwidth exch -0.5 mul exch rmoveto show grestore} def 
/ylabel {gsave M 90 rotate dup
   stringwidth exch -0.5 mul exch rmoveto show grestore} def
/ylabelresid {gsave M dup
   stringwidth exch -1 mul exch rmoveto show grestore} def
% ======
% Shapes
% ======
% Circle:
/Circ {0 360 arc closepath} def
%
% Square:
/Squa {dup dup -0.5 mul dup dup R -2 mul 0 exch rL 1 mul 0 rL dup 0 exch -1 mul rL closepath} def
%
% Triangle Up:
/TriU {dup dup dup -0.4 mul exch -0.5 mul exch R dup 0.5 mul exch rL dup -1 mul exch 0.5 mul exch rL closepath} def 
%
% Triangle Down:
/TriD {dup dup dup 0.4 mul exch -0.5 mul exch R dup 0.5 mul exch -1 mul rL dup 0.5 mul exch rL closepath} def 
%
% Diamond:
/Diam {45 rotate Squa} def
% ======
% Fills
% ======
/GRF {gsave setgray fill grestore} def                    % gray-level Fill
/COF {gsave setrgbcolor fill grestore} def                % color fill
% ======
% Colors
% ======
/C01 {1.00	0.00	0.00} def      % Red
/C02 {0.00	0.00	1.00} def      % Blue
/C03 {0.00	0.39	0.00} def      % Dark Green
/C04 {0.78	0.08	0.52} def      % Medium Violet Red
/C05 {0.55	0.27	0.07} def      % Saddle Brown
/C06 {0.10	0.70	0.70} def      % (cyan)
/C07 {1.00	0.55	0.00} def      % Dark Orange
/C08 {0.63	0.13	0.94} def      % Purple
/C09 {0.00	0.75	1.00} def      % Deep Sky Blue
/C10 {0.20	0.80	0.20} def      % Lime Green
/C11 {0.47	0.53	0.60} def      % Light Slate Gray
/C12 {0.00	0.00	0.00} def      % Black            % or: {0.19	0.31	0.31} def      % Dark Slate Gray
%
/LGR {0.75} def % light gray
/DGR {0.33} def % dark gray
%
% =============
% Dash patterns
% =============
/dash01 { [80  20] 0 setdash } def
/dash02 { [40  20] 0 setdash } def
/dash03 { [80  20  10  20] 0 setdash } def
/dash04 { [40  20  10  20] 0 setdash } def
/dash05 { [80  20  10  10  10  20] 0 setdash } def
/dash06 { [40  20  10  10  10  20] 0 setdash } def
/dash07 { [10  10] 0 setdash } def
%
/MFshow {
   { dup 5 get 3 ge
     { 5 get 3 eq {gsave} {grestore} ifelse }
     {dup dup 0 get findfont exch 1 get scalefont setfont
     [ currentpoint ] exch dup 2 get 0 exch R dup 5 get 2 ne {dup dup 6
     get exch 4 get {show} {stringwidth pop 0 R} ifelse }if dup 5 get 0 eq
     {dup 3 get {2 get neg 0 exch R pop} {pop aload pop M} ifelse} {dup 5
     get 1 eq {dup 2 get exch dup 3 get exch 6 get stringwidth pop -2 div
     dup 0 R} {dup 6 get stringwidth pop -2 div 0 R 6 get
     show 2 index {aload pop M neg 3 -1 roll neg R pop pop} {pop pop pop
     pop aload pop M} ifelse }ifelse }ifelse }
     ifelse }
   forall} bind def
/MFwidth {0 exch {dup 3 get{dup dup 0 get findfont exch 1 get scalefont
     setfont 6 get stringwidth pop add} {pop} ifelse} forall} bind def
/MCshow { currentpoint stroke M
  exch dup MFwidth -2 div 3 -1 roll R MFshow } def
%
end
%%EndProlog
bkdict begin
0.1 0.1 scale
%
% Model curves:
%

GSN 753 2661 M
770 2661 L
803 2814 L
837 2966 L
870 3115 L
903 3259 L
924 3396 L
941 3434 L
970 3523 L
1003 3638 L
1037 3739 L
1070 3826 L
1096 3898 L
1113 3934 L
1137 3956 L
1170 3999 L
1203 4031 L
1237 4053 L
1268 4067 L
1284 4074 L
1303 4075 L
1337 4079 L
1370 4081 L
1403 4082 L
1437 4083 L
1456 4083 L
1473 4083 L
1503 4083 L
1537 4083 L
1570 4083 L
1603 4083 L
1628 4083 L
1644 4083 L
1670 4083 L
1703 4083 L
1737 4083 L
1770 4083 L
1799 4083 L
1816 4083 L
1837 4083 L
1870 4083 L
1903 4083 L
1937 4083 L
1970 4083 L
1987 4083 L
2004 4083 L
2037 4083 L
2070 4083 L
2103 4083 L
2137 4083 L
2159 4083 L
2176 4083 L
2203 4083 L
2237 4083 L
2270 4083 L
2303 4083 L
2331 4083 L
2347 4083 L
2370 4083 L
2403 4083 L
2437 4083 L
2470 4083 L
2503 4083 L
2519 4083 L
2537 4083 L
2570 4083 L
2603 4083 L
2637 4084 L
2670 4084 L
2690 4084 L
2707 4084 L
2737 4084 L
2770 4084 L
2803 4084 L
2837 4084 L
2862 4084 L
2879 4084 L
2903 4085 L
2937 4085 L
2970 4085 L
3003 4085 L
3034 4085 L
3050 4085 L
3070 4085 L
3103 4085 L
3137 4086 L
3170 4086 L
3203 4086 L
3222 4086 L
3239 4086 L
3270 4086 L
3303 4086 L
3337 4086 L
3370 4086 L
3393 4086 L
3410 4086 L
3437 4086 L
3464 4086 L
3481 4086 L
3503 4086 L
3537 4086 L
3565 4086 L
3582 4086 L
3603 4086 L
3637 4086 L
3670 4086 L
3703 4086 L
3737 4086 L
3753 4086 L
3770 4086 L
3803 4086 L
3837 4086 L
3870 4086 L
3903 4086 L
3925 4086 L
3942 4086 L
3970 4086 L
4003 4086 L
4037 4086 L
4070 4086 L
4086 4086 L
LWMC SL dash01 C01 COSGR

GSN 753 1977 M
770 1977 L
803 2225 L
837 2469 L
870 2703 L
903 2926 L
924 3132 L
941 3190 L
970 3320 L
1003 3487 L
1037 3631 L
1070 3752 L
1096 3850 L
1113 3898 L
1137 3926 L
1170 3983 L
1203 4022 L
1237 4048 L
1268 4064 L
1284 4072 L
1303 4073 L
1337 4078 L
1370 4080 L
1403 4081 L
1437 4081 L
1456 4081 L
1473 4081 L
1503 4081 L
1537 4081 L
1570 4081 L
1603 4081 L
1628 4081 L
1644 4081 L
1670 4081 L
1703 4081 L
1737 4081 L
1770 4081 L
1799 4081 L
1816 4081 L
1837 4081 L
1870 4081 L
1903 4081 L
1937 4081 L
1970 4081 L
1987 4081 L
2004 4081 L
2037 4081 L
2070 4081 L
2103 4081 L
2137 4081 L
2159 4081 L
2176 4081 L
2203 4081 L
2237 4082 L
2270 4082 L
2303 4082 L
2331 4082 L
2347 4082 L
2370 4082 L
2403 4082 L
2437 4082 L
2470 4082 L
2503 4082 L
2519 4082 L
2537 4082 L
2570 4082 L
2603 4082 L
2637 4082 L
2670 4083 L
2690 4083 L
2707 4083 L
2737 4083 L
2770 4083 L
2803 4083 L
2837 4084 L
2862 4084 L
2879 4084 L
2903 4084 L
2937 4084 L
2970 4084 L
3003 4085 L
3034 4085 L
3050 4085 L
3070 4085 L
3103 4085 L
3137 4085 L
3170 4086 L
3203 4086 L
3222 4086 L
3239 4086 L
3270 4086 L
3303 4086 L
3337 4086 L
3370 4086 L
3393 4086 L
3410 4086 L
3437 4086 L
3464 4086 L
3481 4086 L
3503 4086 L
3537 4086 L
3565 4086 L
3582 4086 L
3603 4086 L
3637 4086 L
3670 4086 L
3703 4086 L
3737 4086 L
3753 4086 L
3770 4086 L
3803 4086 L
3837 4086 L
3870 4086 L
3903 4086 L
3925 4086 L
3942 4086 L
3970 4086 L
4003 4086 L
4037 4086 L
4070 4086 L
4086 4086 L
LWMC SL dash02 C02 COSGR

GSN 753 1302 M
770 1302 L
803 1676 L
837 2034 L
870 2371 L
903 2682 L
924 2964 L
941 3041 L
970 3212 L
1003 3426 L
1037 3604 L
1070 3747 L
1096 3858 L
1113 3909 L
1137 3939 L
1170 3996 L
1203 4033 L
1237 4056 L
1268 4069 L
1284 4075 L
1303 4075 L
1337 4078 L
1370 4079 L
1403 4080 L
1437 4080 L
1456 4080 L
1473 4080 L
1503 4080 L
1537 4080 L
1570 4080 L
1603 4080 L
1628 4080 L
1644 4080 L
1670 4080 L
1703 4080 L
1737 4080 L
1770 4080 L
1799 4080 L
1816 4080 L
1837 4080 L
1870 4080 L
1903 4080 L
1937 4080 L
1970 4080 L
1987 4080 L
2004 4080 L
2037 4080 L
2070 4080 L
2103 4080 L
2137 4080 L
2159 4080 L
2176 4080 L
2203 4080 L
2237 4080 L
2270 4080 L
2303 4080 L
2331 4080 L
2347 4081 L
2370 4081 L
2403 4081 L
2437 4081 L
2470 4081 L
2503 4081 L
2519 4081 L
2537 4081 L
2570 4081 L
2603 4081 L
2637 4082 L
2670 4082 L
2690 4082 L
2707 4082 L
2737 4082 L
2770 4083 L
2803 4083 L
2837 4083 L
2862 4083 L
2879 4084 L
2903 4084 L
2937 4084 L
2970 4084 L
3003 4085 L
3034 4085 L
3050 4085 L
3070 4085 L
3103 4085 L
3137 4085 L
3170 4086 L
3203 4086 L
3222 4086 L
3239 4086 L
3270 4086 L
3303 4086 L
3337 4086 L
3370 4086 L
3393 4086 L
3410 4086 L
3437 4086 L
3464 4086 L
3481 4086 L
3503 4086 L
3537 4086 L
3565 4086 L
3582 4086 L
3603 4086 L
3637 4086 L
3670 4086 L
3703 4086 L
3737 4086 L
3753 4086 L
3770 4086 L
3803 4086 L
3837 4086 L
3870 4086 L
3903 4086 L
3925 4086 L
3942 4086 L
3970 4086 L
4003 4086 L
4037 4086 L
4070 4086 L
4086 4086 L
LWMC SL dash03 C03 COSGR

GSN 753 900 M
770 900 L
803 1389 L
837 1847 L
870 2268 L
903 2645 L
924 2975 L
941 3063 L
970 3256 L
1003 3488 L
1037 3672 L
1070 3812 L
1096 3913 L
1113 3958 L
1137 3983 L
1170 4027 L
1203 4053 L
1237 4067 L
1268 4074 L
1284 4077 L
1303 4077 L
1337 4078 L
1370 4079 L
1403 4079 L
1437 4079 L
1456 4079 L
1473 4079 L
1503 4079 L
1537 4079 L
1570 4079 L
1603 4079 L
1628 4079 L
1644 4079 L
1670 4079 L
1703 4079 L
1737 4079 L
1770 4079 L
1799 4079 L
1816 4079 L
1837 4079 L
1870 4079 L
1903 4079 L
1937 4079 L
1970 4079 L
1987 4079 L
2004 4079 L
2037 4079 L
2070 4079 L
2103 4079 L
2137 4079 L
2159 4079 L
2176 4079 L
2203 4079 L
2237 4080 L
2270 4080 L
2303 4080 L
2331 4080 L
2347 4080 L
2370 4080 L
2403 4080 L
2437 4080 L
2470 4080 L
2503 4080 L
2519 4081 L
2537 4081 L
2570 4081 L
2603 4081 L
2637 4081 L
2670 4081 L
2690 4082 L
2707 4082 L
2737 4082 L
2770 4082 L
2803 4083 L
2837 4083 L
2862 4083 L
2879 4083 L
2903 4084 L
2937 4084 L
2970 4084 L
3003 4085 L
3034 4085 L
3050 4085 L
3070 4085 L
3103 4085 L
3137 4086 L
3170 4086 L
3203 4086 L
3222 4086 L
3239 4086 L
3270 4086 L
3303 4086 L
3337 4086 L
3370 4086 L
3393 4086 L
3410 4086 L
3437 4086 L
3464 4086 L
3481 4086 L
3503 4086 L
3537 4086 L
3565 4086 L
3582 4086 L
3603 4086 L
3637 4086 L
3670 4086 L
3703 4086 L
3737 4086 L
3753 4086 L
3770 4086 L
3803 4086 L
3837 4086 L
3870 4086 L
3903 4086 L
3925 4086 L
3942 4086 L
3970 4086 L
4003 4086 L
4037 4086 L
4070 4086 L
4086 4086 L
LWMC SL dash04 C04 COSGR

GSN 753 770 M
770 770 L
803 1346 L
837 1873 L
870 2344 L
903 2754 L
924 3100 L
941 3190 L
970 3383 L
1003 3606 L
1037 3773 L
1070 3892 L
1096 3972 L
1113 4005 L
1137 4022 L
1170 4051 L
1203 4067 L
1237 4074 L
1268 4077 L
1284 4078 L
1303 4078 L
1337 4078 L
1370 4079 L
1403 4079 L
1437 4079 L
1456 4079 L
1473 4079 L
1503 4079 L
1537 4079 L
1570 4079 L
1603 4079 L
1628 4079 L
1644 4079 L
1670 4079 L
1703 4079 L
1737 4079 L
1770 4079 L
1799 4079 L
1816 4079 L
1837 4079 L
1870 4079 L
1903 4079 L
1937 4079 L
1970 4079 L
1987 4079 L
2004 4079 L
2037 4079 L
2070 4079 L
2103 4079 L
2137 4079 L
2159 4079 L
2176 4079 L
2203 4079 L
2237 4079 L
2270 4079 L
2303 4079 L
2331 4079 L
2347 4079 L
2370 4080 L
2403 4080 L
2437 4080 L
2470 4080 L
2503 4080 L
2519 4080 L
2537 4080 L
2570 4081 L
2603 4081 L
2637 4081 L
2670 4081 L
2690 4082 L
2707 4082 L
2737 4082 L
2770 4082 L
2803 4083 L
2837 4083 L
2862 4083 L
2879 4084 L
2903 4084 L
2937 4084 L
2970 4084 L
3003 4085 L
3034 4085 L
3050 4085 L
3070 4085 L
3103 4086 L
3137 4086 L
3170 4086 L
3203 4086 L
3222 4086 L
3239 4086 L
3270 4086 L
3303 4086 L
3337 4086 L
3370 4086 L
3393 4086 L
3410 4086 L
3437 4086 L
3464 4086 L
3481 4086 L
3503 4086 L
3537 4086 L
3565 4086 L
3582 4086 L
3603 4086 L
3637 4086 L
3670 4086 L
3703 4086 L
3737 4086 L
3753 4086 L
3770 4086 L
3803 4086 L
3837 4086 L
3870 4086 L
3903 4086 L
3925 4086 L
3942 4086 L
3970 4086 L
4003 4086 L
4037 4086 L
4070 4086 L
4086 4086 L
LWMC SL dash05 C05 COSGR

GSN 753 753 M
770 753 L
803 1409 L
837 1993 L
870 2498 L
903 2922 L
924 3266 L
941 3352 L
970 3533 L
1003 3731 L
1037 3870 L
1070 3962 L
1096 4018 L
1113 4039 L
1137 4050 L
1170 4066 L
1203 4074 L
1237 4077 L
1268 4078 L
1284 4078 L
1303 4078 L
1337 4078 L
1370 4078 L
1403 4078 L
1437 4078 L
1456 4078 L
1473 4078 L
1503 4078 L
1537 4078 L
1570 4078 L
1603 4078 L
1628 4078 L
1644 4078 L
1670 4078 L
1703 4078 L
1737 4078 L
1770 4078 L
1799 4078 L
1816 4078 L
1837 4078 L
1870 4078 L
1903 4078 L
1937 4078 L
1970 4078 L
1987 4078 L
2004 4078 L
2037 4078 L
2070 4078 L
2103 4078 L
2137 4079 L
2159 4079 L
2176 4079 L
2203 4079 L
2237 4079 L
2270 4079 L
2303 4079 L
2331 4079 L
2347 4079 L
2370 4079 L
2403 4079 L
2437 4079 L
2470 4080 L
2503 4080 L
2519 4080 L
2537 4080 L
2570 4080 L
2603 4081 L
2637 4081 L
2670 4081 L
2690 4081 L
2707 4082 L
2737 4082 L
2770 4082 L
2803 4083 L
2837 4083 L
2862 4083 L
2879 4084 L
2903 4084 L
2937 4084 L
2970 4084 L
3003 4085 L
3034 4085 L
3050 4085 L
3070 4085 L
3103 4086 L
3137 4086 L
3170 4086 L
3203 4086 L
3222 4086 L
3239 4086 L
3270 4086 L
3303 4086 L
3337 4086 L
3370 4086 L
3393 4086 L
3410 4086 L
3437 4086 L
3464 4086 L
3481 4086 L
3503 4086 L
3537 4086 L
3565 4086 L
3582 4086 L
3603 4086 L
3637 4086 L
3670 4086 L
3703 4086 L
3737 4086 L
3753 4086 L
3770 4086 L
3803 4086 L
3837 4086 L
3870 4086 L
3903 4086 L
3925 4086 L
3942 4086 L
3970 4086 L
4003 4086 L
4037 4086 L
4070 4086 L
4086 4086 L
LWMC SL dash06 C06 COSGR

GSN 753 1264 M
770 1264 L
803 1969 L
837 2555 L
870 3025 L
903 3384 L
924 3646 L
941 3707 L
970 3826 L
1003 3941 L
1037 4010 L
1070 4047 L
1096 4065 L
1113 4071 L
1137 4073 L
1170 4076 L
1203 4077 L
1237 4078 L
1268 4078 L
1284 4078 L
1303 4078 L
1337 4078 L
1370 4078 L
1403 4078 L
1437 4078 L
1456 4078 L
1473 4078 L
1503 4078 L
1537 4078 L
1570 4078 L
1603 4078 L
1628 4078 L
1644 4078 L
1670 4078 L
1703 4078 L
1737 4078 L
1770 4078 L
1799 4078 L
1816 4078 L
1837 4078 L
1870 4078 L
1903 4078 L
1937 4078 L
1970 4078 L
1987 4078 L
2004 4078 L
2037 4078 L
2070 4078 L
2103 4078 L
2137 4078 L
2159 4078 L
2176 4078 L
2203 4078 L
2237 4079 L
2270 4079 L
2303 4079 L
2331 4079 L
2347 4079 L
2370 4079 L
2403 4079 L
2437 4079 L
2470 4080 L
2503 4080 L
2519 4080 L
2537 4080 L
2570 4080 L
2603 4080 L
2637 4081 L
2670 4081 L
2690 4081 L
2707 4082 L
2737 4082 L
2770 4082 L
2803 4083 L
2837 4083 L
2862 4083 L
2879 4084 L
2903 4084 L
2937 4084 L
2970 4085 L
3003 4085 L
3034 4085 L
3050 4085 L
3070 4086 L
3103 4086 L
3137 4086 L
3170 4086 L
3203 4086 L
3222 4086 L
3239 4086 L
3270 4086 L
3303 4086 L
3337 4086 L
3370 4086 L
3393 4086 L
3410 4086 L
3437 4086 L
3464 4086 L
3481 4086 L
3503 4086 L
3537 4086 L
3565 4086 L
3582 4086 L
3603 4086 L
3637 4086 L
3670 4086 L
3703 4086 L
3737 4086 L
3753 4086 L
3770 4086 L
3803 4086 L
3837 4086 L
3870 4086 L
3903 4086 L
3925 4086 L
3942 4086 L
3970 4086 L
4003 4086 L
4037 4086 L
4070 4086 L
4086 4086 L
LWMC SL dash07 C07 COSGR

%
%================
% Legend - Begin
%================
%
GSN 4240 4040 M
4480 4040 L
LWMC SL dash01 C01 COSGR
GSN 4540 4001 M helvM (0.5 uM) show grestore
GSN 4240 3860 M
4480 3860 L
LWMC SL dash02 C02 COSGR
GSN 4540 3821 M helvM (1.0 uM) show grestore
GSN 4240 3680 M
4480 3680 L
LWMC SL dash03 C03 COSGR
GSN 4540 3641 M helvM (1.5 uM) show grestore
GSN 4240 3500 M
4480 3500 L
LWMC SL dash04 C04 COSGR
GSN 4540 3461 M helvM (2.0 uM) show grestore
GSN 4240 3320 M
4480 3320 L
LWMC SL dash05 C05 COSGR
GSN 4540 3281 M helvM (2.5 uM) show grestore
GSN 4240 3140 M
4480 3140 L
LWMC SL dash06 C06 COSGR
GSN 4540 3101 M helvM (3.0 uM) show grestore
GSN 4240 2960 M
4480 2960 L
LWMC SL dash07 C07 COSGR
GSN 4540 2921 M helvM (4.0 uM) show grestore
%
%================
% Legend - End
%================
%

%
% Main frame
%
L10
GSN 
620 620 M
4220 620 L
4220 4220 L
620 4220 L
closepath SGR

%
% X axis: large tics
%
L10
GSN 1130 620 M 0  54 rL SGR
GSN 1130 4220 M 0 -54 rL SGR
helvS (0.0001) 1130 470 xlabel
GSN 1716 620 M 0  54 rL SGR
GSN 1716 4220 M 0 -54 rL SGR
helvS (0.001) 1716 470 xlabel
GSN 2303 620 M 0  54 rL SGR
GSN 2303 4220 M 0 -54 rL SGR
helvS (0.01) 2303 470 xlabel
GSN 2889 620 M 0  54 rL SGR
GSN 2889 4220 M 0 -54 rL SGR
helvS (0.1) 2889 470 xlabel
GSN 3476 620 M 0  54 rL SGR
GSN 3476 4220 M 0 -54 rL SGR
helvS (1) 3476 470 xlabel
GSN 4062 620 M 0  54 rL SGR
GSN 4062 4220 M 0 -54 rL SGR
helvS (10) 4062 470 xlabel
%
% X axis: small tics
%
L5
GSN 720 620 M 0  36 rL SGR
GSN 720 4220 M 0 -36 rL SGR
GSN 824 620 M 0  36 rL SGR
GSN 824 4220 M 0 -36 rL SGR
GSN 897 620 M 0  36 rL SGR
GSN 897 4220 M 0 -36 rL SGR
GSN 954 620 M 0  36 rL SGR
GSN 954 4220 M 0 -36 rL SGR
GSN 1000 620 M 0  36 rL SGR
GSN 1000 4220 M 0 -36 rL SGR
GSN 1039 620 M 0  36 rL SGR
GSN 1039 4220 M 0 -36 rL SGR
GSN 1073 620 M 0  36 rL SGR
GSN 1073 4220 M 0 -36 rL SGR
GSN 1103 620 M 0  36 rL SGR
GSN 1103 4220 M 0 -36 rL SGR
GSN 1307 620 M 0  36 rL SGR
GSN 1307 4220 M 0 -36 rL SGR
GSN 1410 620 M 0  36 rL SGR
GSN 1410 4220 M 0 -36 rL SGR
GSN 1483 620 M 0  36 rL SGR
GSN 1483 4220 M 0 -36 rL SGR
GSN 1540 620 M 0  36 rL SGR
GSN 1540 4220 M 0 -36 rL SGR
GSN 1586 620 M 0  36 rL SGR
GSN 1586 4220 M 0 -36 rL SGR
GSN 1626 620 M 0  36 rL SGR
GSN 1626 4220 M 0 -36 rL SGR
GSN 1660 620 M 0  36 rL SGR
GSN 1660 4220 M 0 -36 rL SGR
GSN 1690 620 M 0  36 rL SGR
GSN 1690 4220 M 0 -36 rL SGR
GSN 1893 620 M 0  36 rL SGR
GSN 1893 4220 M 0 -36 rL SGR
GSN 1996 620 M 0  36 rL SGR
GSN 1996 4220 M 0 -36 rL SGR
GSN 2069 620 M 0  36 rL SGR
GSN 2069 4220 M 0 -36 rL SGR
GSN 2126 620 M 0  36 rL SGR
GSN 2126 4220 M 0 -36 rL SGR
GSN 2173 620 M 0  36 rL SGR
GSN 2173 4220 M 0 -36 rL SGR
GSN 2212 620 M 0  36 rL SGR
GSN 2212 4220 M 0 -36 rL SGR
GSN 2246 620 M 0  36 rL SGR
GSN 2246 4220 M 0 -36 rL SGR
GSN 2276 620 M 0  36 rL SGR
GSN 2276 4220 M 0 -36 rL SGR
GSN 2479 620 M 0  36 rL SGR
GSN 2479 4220 M 0 -36 rL SGR
GSN 2583 620 M 0  36 rL SGR
GSN 2583 4220 M 0 -36 rL SGR
GSN 2656 620 M 0  36 rL SGR
GSN 2656 4220 M 0 -36 rL SGR
GSN 2713 620 M 0  36 rL SGR
GSN 2713 4220 M 0 -36 rL SGR
GSN 2759 620 M 0  36 rL SGR
GSN 2759 4220 M 0 -36 rL SGR
GSN 2798 620 M 0  36 rL SGR
GSN 2798 4220 M 0 -36 rL SGR
GSN 2832 620 M 0  36 rL SGR
GSN 2832 4220 M 0 -36 rL SGR
GSN 2862 620 M 0  36 rL SGR
GSN 2862 4220 M 0 -36 rL SGR
GSN 3066 620 M 0  36 rL SGR
GSN 3066 4220 M 0 -36 rL SGR
GSN 3169 620 M 0  36 rL SGR
GSN 3169 4220 M 0 -36 rL SGR
GSN 3242 620 M 0  36 rL SGR
GSN 3242 4220 M 0 -36 rL SGR
GSN 3299 620 M 0  36 rL SGR
GSN 3299 4220 M 0 -36 rL SGR
GSN 3345 620 M 0  36 rL SGR
GSN 3345 4220 M 0 -36 rL SGR
GSN 3385 620 M 0  36 rL SGR
GSN 3385 4220 M 0 -36 rL SGR
GSN 3419 620 M 0  36 rL SGR
GSN 3419 4220 M 0 -36 rL SGR
GSN 3449 620 M 0  36 rL SGR
GSN 3449 4220 M 0 -36 rL SGR
GSN 3652 620 M 0  36 rL SGR
GSN 3652 4220 M 0 -36 rL SGR
GSN 3755 620 M 0  36 rL SGR
GSN 3755 4220 M 0 -36 rL SGR
GSN 3829 620 M 0  36 rL SGR
GSN 3829 4220 M 0 -36 rL SGR
GSN 3885 620 M 0  36 rL SGR
GSN 3885 4220 M 0 -36 rL SGR
GSN 3932 620 M 0  36 rL SGR
GSN 3932 4220 M 0 -36 rL SGR
GSN 3971 620 M 0  36 rL SGR
GSN 3971 4220 M 0 -36 rL SGR
GSN 4005 620 M 0  36 rL SGR
GSN 4005 4220 M 0 -36 rL SGR
GSN 4035 620 M 0  36 rL SGR
GSN 4035 4220 M 0 -36 rL SGR
%
% Y axis: large tics
%
L10
GSN 620 1477 M 54 0 rL SGR
GSN 4220 1477 M -54 0 rL SGR
helvS (-300) 560 1477 ylabel
GSN 620 2346 M 54 0 rL SGR
GSN 4220 2346 M -54 0 rL SGR
helvS (-200) 560 2346 ylabel
GSN 620 3216 M 54 0 rL SGR
GSN 4220 3216 M -54 0 rL SGR
helvS (-100) 560 3216 ylabel
GSN 620 4086 M 54 0 rL SGR
GSN 4220 4086 M -54 0 rL SGR
helvS (0) 560 4086 ylabel
%
% Y axis: small tics
%
L5
GSN 620 824 M 36 0 rL SGR
GSN 4220 824 M -36 0 rL SGR
GSN 620 1042 M 36 0 rL SGR
GSN 4220 1042 M -36 0 rL SGR
GSN 620 1259 M 36 0 rL SGR
GSN 4220 1259 M -36 0 rL SGR
GSN 620 1477 M 36 0 rL SGR
GSN 4220 1477 M -36 0 rL SGR
GSN 620 1694 M 36 0 rL SGR
GSN 4220 1694 M -36 0 rL SGR
GSN 620 1912 M 36 0 rL SGR
GSN 4220 1912 M -36 0 rL SGR
GSN 620 2129 M 36 0 rL SGR
GSN 4220 2129 M -36 0 rL SGR
GSN 620 2346 M 36 0 rL SGR
GSN 4220 2346 M -36 0 rL SGR
GSN 620 2564 M 36 0 rL SGR
GSN 4220 2564 M -36 0 rL SGR
GSN 620 2781 M 36 0 rL SGR
GSN 4220 2781 M -36 0 rL SGR
GSN 620 2999 M 36 0 rL SGR
GSN 4220 2999 M -36 0 rL SGR
GSN 620 3216 M 36 0 rL SGR
GSN 4220 3216 M -36 0 rL SGR
GSN 620 3434 M 36 0 rL SGR
GSN 4220 3434 M -36 0 rL SGR
GSN 620 3651 M 36 0 rL SGR
GSN 4220 3651 M -36 0 rL SGR
GSN 620 3868 M 36 0 rL SGR
GSN 4220 3868 M -36 0 rL SGR
GSN 620 4086 M 36 0 rL SGR
GSN 4220 4086 M -36 0 rL SGR

%
% X axis
%
GSN L5 620 4086 M 4220 4086 L SDA G50 SGR

%
% X-Axis label:
%
gsave 2420 290 M 
[
[(Helvetica) 180 0 true true 0 (t)]
[(Helvetica) 180 0 true true 0 (i)]
[(Helvetica) 180 0 true true 0 (m)]
[(Helvetica) 180 0 true true 0 (e)]
] 0 MCshow grestore

%
% Y-Axis label:
%
gsave 234 2420 M 
currentpoint gsave translate 90 rotate 0 0 moveto
[
[(Helvetica) 180 0 true true 0 (d)]
[(Helvetica) 180 0 true true 0 (\()]
[(Helvetica) 180 0 true true 0 (s)]
[(Helvetica) 180 0 true true 0 (i)]
[(Helvetica) 180 0 true true 0 (g)]
[(Helvetica) 180 0 true true 0 (n)]
[(Helvetica) 180 0 true true 0 (a)]
[(Helvetica) 180 0 true true 0 (l)]
[(Helvetica) 180 0 true true 0 (\))]
[(Helvetica) 180 0 true true 0 ( )]
[(Helvetica) 180 0 true true 0 (/)]
[(Helvetica) 180 0 true true 0 ( )]
[(Helvetica) 180 0 true true 0 (d)]
[(Helvetica) 180 0 true true 0 (t)]
] 0 MCshow grestore

end
showpage
%%Trailer
%%EOF
