%!PS-Adobe-3.0 EPSF-3.0
%%BoundingBox: 0 0 514 550
%%Creator: BioKin Ltd.
%%DocumentFonts: Symbol Helvetica
%%EndComments
%
/bkdict 256 dict def
bkdict begin
/M {moveto} def 
/R {rmoveto} def
/L {lineto} def
/rL {rlineto} def
/GSN {gsave newpath} def
/SGR {stroke grestore} def
/COSGR {gsave setrgbcolor stroke grestore grestore} def
/SL {setlinewidth} def
/LWMB {12} def             % line width - model curves, black & white
/LWMC {10} def             % line width - model curves, color
/L2 {2.5 setlinewidth} def
/L5 {5 setlinewidth} def
/L10 {10 setlinewidth} def
/G50 {0.5 setgray} def
/SDA {[10  20] 0 setdash} def % axes
/helvT {/Helvetica findfont 100 scalefont setfont} def % tiny
/helvS {/Helvetica findfont 125 scalefont setfont} def % small
/helvM {/Helvetica findfont 150 scalefont setfont} def % medium
/helvL {/Helvetica findfont 175 scalefont setfont} def % large
/xlabel {gsave M dup
   stringwidth exch -0.5 mul exch rmoveto show grestore} def 
/ylabel {gsave M 90 rotate dup
   stringwidth exch -0.5 mul exch rmoveto show grestore} def
/ylabelresid {gsave M dup
   stringwidth exch -1 mul exch rmoveto show grestore} def
% ======
% Shapes
% ======
% Circle:
/Circ {0 360 arc closepath} def
%
% Square:
/Squa {dup dup -0.5 mul dup dup R -2 mul 0 exch rL 1 mul 0 rL dup 0 exch -1 mul rL closepath} def
%
% Triangle Up:
/TriU {dup dup dup -0.4 mul exch -0.5 mul exch R dup 0.5 mul exch rL dup -1 mul exch 0.5 mul exch rL closepath} def 
%
% Triangle Down:
/TriD {dup dup dup 0.4 mul exch -0.5 mul exch R dup 0.5 mul exch -1 mul rL dup 0.5 mul exch rL closepath} def 
%
% Diamond:
/Diam {45 rotate Squa} def
% ======
% Fills
% ======
/GRF {gsave setgray fill grestore} def                    % gray-level Fill
/COF {gsave setrgbcolor fill grestore} def                % color fill
% ======
% Colors
% ======
/C01 {1.00	0.00	0.00} def      % Red
/C02 {0.00	0.00	1.00} def      % Blue
/C03 {0.00	0.39	0.00} def      % Dark Green
/C04 {0.78	0.08	0.52} def      % Medium Violet Red
/C05 {0.55	0.27	0.07} def      % Saddle Brown
/C06 {0.10	0.70	0.70} def      % (cyan)
/C07 {1.00	0.55	0.00} def      % Dark Orange
/C08 {0.63	0.13	0.94} def      % Purple
/C09 {0.00	0.75	1.00} def      % Deep Sky Blue
/C10 {0.20	0.80	0.20} def      % Lime Green
/C11 {0.47	0.53	0.60} def      % Light Slate Gray
/C12 {0.00	0.00	0.00} def      % Black            % or: {0.19	0.31	0.31} def      % Dark Slate Gray
%
/LGR {0.75} def % light gray
/DGR {0.33} def % dark gray
%
% =============
% Dash patterns
% =============
/dash01 { [80  20] 0 setdash } def
/dash02 { [40  20] 0 setdash } def
/dash03 { [80  20  10  20] 0 setdash } def
/dash04 { [40  20  10  20] 0 setdash } def
/dash05 { [80  20  10  10  10  20] 0 setdash } def
/dash06 { [40  20  10  10  10  20] 0 setdash } def
/dash07 { [10  10] 0 setdash } def
%
/MFshow {
   { dup 5 get 3 ge
     { 5 get 3 eq {gsave} {grestore} ifelse }
     {dup dup 0 get findfont exch 1 get scalefont setfont
     [ currentpoint ] exch dup 2 get 0 exch R dup 5 get 2 ne {dup dup 6
     get exch 4 get {show} {stringwidth pop 0 R} ifelse }if dup 5 get 0 eq
     {dup 3 get {2 get neg 0 exch R pop} {pop aload pop M} ifelse} {dup 5
     get 1 eq {dup 2 get exch dup 3 get exch 6 get stringwidth pop -2 div
     dup 0 R} {dup 6 get stringwidth pop -2 div 0 R 6 get
     show 2 index {aload pop M neg 3 -1 roll neg R pop pop} {pop pop pop
     pop aload pop M} ifelse }ifelse }ifelse }
     ifelse }
   forall} bind def
/MFwidth {0 exch {dup 3 get{dup dup 0 get findfont exch 1 get scalefont
     setfont 6 get stringwidth pop add} {pop} ifelse} forall} bind def
/MCshow { currentpoint stroke M
  exch dup MFwidth -2 div 3 -1 roll R MFshow } def
%
end
%%EndProlog
bkdict begin
0.1 0.1 scale
%
% Residuals:
%
GSN 620 4607 M
620 3852 L
620 4034 L
620 4714 L
620 4385 L
620 4132 L
620 4208 L
620 4223 L
620 4341 L
620 4185 L
620 4259 L
620 3680 L
620 4729 L
620 3880 L
620 4287 L
620 4468 L
620 4353 L
620 4501 L
620 3799 L
620 4138 L
620 3983 L
620 3685 L
620 3853 L
620 4092 L
620 3667 L
620 4250 L
620 4581 L
620 4161 L
620 4469 L
620 4026 L
620 3752 L
620 3106 L
620 3512 L
620 3604 L
620 4157 L
620 4157 L
620 3827 L
620 3880 L
620 4092 L
620 4079 L
620 4368 L
620 4782 L
620 3578 L
620 3860 L
620 3188 L
620 3519 L
620 3257 L
620 3873 L
620 3923 L
620 3787 L
620 3995 L
620 4188 L
620 3283 L
620 2406 L
620 2954 L
620 3507 L
620 3895 L
620 4338 L
620 3570 L
620 3294 L
620 3029 L
620 3904 L
620 2971 L
620 3308 L
620 3942 L
620 3780 L
620 2977 L
620 3511 L
620 3474 L
620 3164 L
620 3089 L
620 3820 L
620 3361 L
620 3592 L
620 3111 L
620 3583 L
620 3623 L
620 3541 L
620 3376 L
620 3405 L
620 3575 L
620 3129 L
620 3098 L
620 3338 L
620 3598 L
620 3505 L
620 3624 L
620 3718 L
620 2879 L
620 3090 L
620 3267 L
620 4149 L
620 3072 L
620 2417 L
620 3765 L
620 3003 L
620 3537 L
620 2782 L
620 3534 L
620 3335 L
620 3032 L
620 2749 L
620 3419 L
620 3140 L
620 2136 L
620 3093 L
620 3206 L
620 2281 L
620 3351 L
620 2946 L
620 3526 L
620 2658 L
620 3637 L
620 3629 L
620 3438 L
620 3116 L
620 3161 L
620 3259 L
620 2929 L
620 3087 L
620 3304 L
620 3263 L
620 3222 L
620 2642 L
620 3071 L
620 2984 L
620 2629 L
620 2941 L
620 3433 L
620 2737 L
620 3229 L
620 2788 L
620 2841 L
620 2707 L
620 3055 L
620 2964 L
620 2834 L
620 2880 L
620 3314 L
620 2756 L
620 3102 L
620 2696 L
620 2817 L
620 2938 L
620 2844 L
620 2772 L
620 2678 L
620 2764 L
620 2713 L
620 3057 L
620 3253 L
620 2828 L
620 3238 L
620 3794 L
620 2854 L
620 2720 L
620 2777 L
620 3443 L
620 3066 L
620 3052 L
620 3865 L
620 3675 L
620 2651 L
620 3354 L
620 2851 L
620 3301 L
620 3297 L
620 3254 L
620 3337 L
620 3332 L
620 3601 L
620 2877 L
620 3804 L
620 3766 L
620 3437 L
620 4056 L
620 2395 L
620 3042 L
620 3628 L
620 3068 L
620 3227 L
620 3264 L
620 3242 L
620 3455 L
620 2500 L
620 3514 L
620 3754 L
620 4761 L
620 3319 L
620 4446 L
620 2784 L
620 3890 L
620 3642 L
620 2824 L
620 3579 L
620 3731 L
620 3642 L
620 3026 L
620 3633 L
620 3215 L
620 3317 L
620 3360 L
620 3599 L
620 3718 L
620 3075 L
620 3221 L
620 3191 L
620 3951 L
620 3768 L
620 3070 L
620 3764 L
620 3499 L
620 3804 L
620 4251 L
620 4008 L
620 3896 L
620 3965 L
620 3980 L
620 4399 L
620 3630 L
620 3764 L
620 4311 L
620 4050 L
620 3462 L
620 3547 L
620 4098 L
620 3377 L
620 4165 L
620 3000 L
620 3524 L
620 3927 L
620 4292 L
620 4219 L
620 3876 L
620 3814 L
620 3538 L
620 3529 L
620 3713 L
620 3514 L
620 3922 L
620 3399 L
620 3347 L
620 3312 L
620 3732 L
620 3603 L
620 3590 L
620 3746 L
620 3344 L
620 3813 L
620 4227 L
620 4011 L
620 3296 L
620 4297 L
620 4519 L
620 3941 L
620 3517 L
620 3366 L
620 3731 L
620 3723 L
620 3315 L
620 3055 L
620 3414 L
620 2984 L
620 3278 L
620 4652 L
620 4233 L
620 3787 L
620 3866 L
620 4555 L
620 4432 L
620 3810 L
620 3073 L
620 3126 L
620 4362 L
620 4546 L
620 3837 L
620 4520 L
620 4150 L
620 3260 L
620 3833 L
620 3376 L
620 3598 L
620 3937 L
620 3756 L
620 3478 L
620 4143 L
620 3332 L
620 4000 L
620 4228 L
620 3932 L
620 3716 L
620 4109 L
620 4169 L
620 4012 L
620 4332 L
620 4461 L
620 3675 L
620 3931 L
620 3623 L
620 4159 L
620 3194 L
620 3577 L
620 3593 L
620 3680 L
620 4223 L
620 3636 L
620 4036 L
620 4573 L
620 3784 L
620 3866 L
620 3778 L
620 4156 L
620 3520 L
620 3663 L
620 3794 L
620 3822 L
620 3739 L
620 3777 L
620 4117 L
620 3284 L
620 4518 L
620 4671 L
620 3586 L
620 4123 L
620 2955 L
620 3794 L
620 4468 L
620 3438 L
620 3186 L
620 3630 L
620 4041 L
620 4567 L
620 3745 L
620 3208 L
620 3712 L
620 3800 L
620 4276 L
620 3591 L
620 3728 L
620 3548 L
620 3367 L
620 4128 L
620 3827 L
620 3459 L
620 4030 L
620 3668 L
620 3893 L
620 4353 L
620 3564 L
620 3339 L
620 4189 L
620 4024 L
620 3278 L
620 3301 L
620 3701 L
620 3218 L
620 3630 L
620 3810 L
620 3608 L
620 4633 L
620 3131 L
620 4002 L
620 3997 L
620 4507 L
620 3449 L
620 3641 L
620 3476 L
620 3904 L
620 3158 L
620 3624 L
620 3438 L
620 3514 L
620 3959 L
620 3191 L
620 4150 L
620 4298 L
620 3778 L
620 3399 L
620 3180 L
620 4080 L
620 3789 L
620 4052 L
620 3070 L
620 3629 L
620 3816 L
620 3619 L
620 3816 L
620 3493 L
620 4178 L
620 3569 L
620 3871 L
620 3679 L
620 3789 L
620 3805 L
620 3646 L
620 3696 L
620 4156 L
620 3279 L
620 3558 L
620 3899 L
620 4057 L
620 3328 L
620 4112 L
620 3761 L
620 4380 L
620 3120 L
620 4178 L
620 3887 L
620 3684 L
620 3427 L
620 3712 L
620 3767 L
620 4107 L
620 4057 L
620 3092 L
620 3300 L
620 3657 L
620 3388 L
620 3767 L
620 4123 L
620 3087 L
620 3290 L
620 3317 L
620 3975 L
620 2917 L
620 3520 L
620 3230 L
620 3591 L
620 3723 L
620 3915 L
620 4046 L
620 3822 L
620 3482 L
620 3932 L
620 3931 L
620 3909 L
620 3783 L
620 3575 L
620 2813 L
620 3405 L
620 4391 L
620 4150 L
620 3619 L
620 3855 L
620 4129 L
620 2912 L
620 3964 L
620 3904 L
620 3125 L
620 3756 L
620 2977 L
620 3580 L
620 4118 L
620 4271 L
620 3432 L
620 4419 L
620 3218 L
620 3767 L
620 3723 L
620 4359 L
620 3142 L
620 4194 L
620 4118 L
620 3772 L
620 3536 L
620 3657 L
620 3548 L
620 4364 L
620 3531 L
620 3832 L
620 4189 L
620 3635 L
620 3761 L
620 3619 L
620 4430 L
620 3613 L
620 3322 L
620 4178 L
620 3942 L
620 4079 L
620 3306 L
620 4013 L
620 3909 L
620 4255 L
620 4391 L
620 4123 L
620 3701 L
620 3970 L
620 3750 L
620 3980 L
620 4732 L
620 3860 L
620 4123 L
620 3591 L
620 4080 L
620 3668 L
620 3909 L
620 3887 L
620 4024 L
620 3438 L
620 3602 L
620 3180 L
620 4068 L
620 4709 L
620 2890 L
620 4370 L
620 3756 L
620 3574 L
620 4134 L
620 4271 L
620 3673 L
620 4413 L
620 4145 L
620 3575 L
620 3865 L
620 3805 L
620 3899 L
620 4348 L
620 4096 L
620 3739 L
620 4863 L
620 3767 L
620 3827 L
620 4200 L
620 4112 L
620 3241 L
620 3865 L
620 3059 L
620 3652 L
620 3975 L
620 4167 L
620 3591 L
620 4085 L
L2 C01 COSGR

%
%================
% Legend - Begin
%================
%
GSN 4240 5180 M
4480 5180 L
LWMC SL  C01 COSGR
GSN 4540 5141 M helvM (0.5 uM) show grestore
%
%================
% Legend - End
%================
%

%
% Main frame
%
L10
GSN 
620 1700 M
4220 1700 L
4220 5300 L
620 5300 L
closepath SGR

%
% X axis: large tics
%
L10
%
% X axis: small tics
%
L5
%
% Y axis: large tics
%
L10
GSN 620 2577 M 54 0 rL SGR
GSN 4220 2577 M -54 0 rL SGR
helvS (-0.01) 560 2577 ylabel
GSN 620 3655 M 54 0 rL SGR
GSN 4220 3655 M -54 0 rL SGR
helvS (0) 560 3655 ylabel
GSN 620 4733 M 54 0 rL SGR
GSN 4220 4733 M -54 0 rL SGR
helvS (0.01) 560 4733 ylabel
%
% Y axis: small tics
%
L5
GSN 620 1769 M 36 0 rL SGR
GSN 4220 1769 M -36 0 rL SGR
GSN 620 2038 M 36 0 rL SGR
GSN 4220 2038 M -36 0 rL SGR
GSN 620 2308 M 36 0 rL SGR
GSN 4220 2308 M -36 0 rL SGR
GSN 620 2577 M 36 0 rL SGR
GSN 4220 2577 M -36 0 rL SGR
GSN 620 2847 M 36 0 rL SGR
GSN 4220 2847 M -36 0 rL SGR
GSN 620 3116 M 36 0 rL SGR
GSN 4220 3116 M -36 0 rL SGR
GSN 620 3386 M 36 0 rL SGR
GSN 4220 3386 M -36 0 rL SGR
GSN 620 3655 M 36 0 rL SGR
GSN 4220 3655 M -36 0 rL SGR
GSN 620 3924 M 36 0 rL SGR
GSN 4220 3924 M -36 0 rL SGR
GSN 620 4194 M 36 0 rL SGR
GSN 4220 4194 M -36 0 rL SGR
GSN 620 4463 M 36 0 rL SGR
GSN 4220 4463 M -36 0 rL SGR
GSN 620 4733 M 36 0 rL SGR
GSN 4220 4733 M -36 0 rL SGR
GSN 620 5002 M 36 0 rL SGR
GSN 4220 5002 M -36 0 rL SGR
GSN 620 5272 M 36 0 rL SGR
GSN 4220 5272 M -36 0 rL SGR

%
% X axis - residual panel
%
GSN L5 620 3655 M 4220 3655 L SDA G50 SGR

%
% X-Axis label:
%
gsave 620 1370 M 
[
[(Helvetica) 180 0 true true 0 (t)]
[(Helvetica) 180 0 true true 0 (i)]
[(Helvetica) 180 0 true true 0 (m)]
[(Helvetica) 180 0 true true 0 (e)]
] 0 MCshow grestore

%
% Y-Axis label:
%
gsave 234 3500 M 
currentpoint gsave translate 90 rotate 0 0 moveto
[
[(Helvetica) 180 0 true true 0 (r)]
[(Helvetica) 180 0 true true 0 (e)]
[(Helvetica) 180 0 true true 0 (s)]
[(Helvetica) 180 0 true true 0 (i)]
[(Helvetica) 180 0 true true 0 (d)]
[(Helvetica) 180 0 true true 0 (u)]
[(Helvetica) 180 0 true true 0 (a)]
[(Helvetica) 180 0 true true 0 (l)]
[(Helvetica) 180 0 true true 0 (s)]
] 0 MCshow grestore

end
showpage
%%Trailer
%%EOF
