%!PS-Adobe-3.0 EPSF-3.0
%%BoundingBox: 0 0 514 442
%%Creator: BioKin Ltd.
%%DocumentFonts: Symbol Helvetica
%%EndComments
%
/bkdict 256 dict def
bkdict begin
/M {moveto} def 
/R {rmoveto} def
/L {lineto} def
/rL {rlineto} def
/GSN {gsave newpath} def
/SGR {stroke grestore} def
/COSGR {gsave setrgbcolor stroke grestore grestore} def
/SL {setlinewidth} def
/LWMB {12} def             % line width - model curves, black & white
/LWMC {10} def             % line width - model curves, color
/L2 {2.5 setlinewidth} def
/L5 {5 setlinewidth} def
/L10 {10 setlinewidth} def
/G50 {0.5 setgray} def
/SDA {[10  20] 0 setdash} def % axes
/helvT {/Helvetica findfont 100 scalefont setfont} def % tiny
/helvS {/Helvetica findfont 125 scalefont setfont} def % small
/helvM {/Helvetica findfont 150 scalefont setfont} def % medium
/helvL {/Helvetica findfont 175 scalefont setfont} def % large
/xlabel {gsave M dup
   stringwidth exch -0.5 mul exch rmoveto show grestore} def 
/ylabel {gsave M 90 rotate dup
   stringwidth exch -0.5 mul exch rmoveto show grestore} def
/ylabelresid {gsave M dup
   stringwidth exch -1 mul exch rmoveto show grestore} def
% ======
% Shapes
% ======
% Circle:
/Circ {0 360 arc closepath} def
%
% Square:
/Squa {dup dup -0.5 mul dup dup R -2 mul 0 exch rL 1 mul 0 rL dup 0 exch -1 mul rL closepath} def
%
% Triangle Up:
/TriU {dup dup dup -0.4 mul exch -0.5 mul exch R dup 0.5 mul exch rL dup -1 mul exch 0.5 mul exch rL closepath} def 
%
% Triangle Down:
/TriD {dup dup dup 0.4 mul exch -0.5 mul exch R dup 0.5 mul exch -1 mul rL dup 0.5 mul exch rL closepath} def 
%
% Diamond:
/Diam {45 rotate Squa} def
% ======
% Fills
% ======
/GRF {gsave setgray fill grestore} def                    % gray-level Fill
/COF {gsave setrgbcolor fill grestore} def                % color fill
% ======
% Colors
% ======
/C01 {1.00	0.00	0.00} def      % Red
/C02 {0.00	0.00	1.00} def      % Blue
/C03 {0.00	0.39	0.00} def      % Dark Green
/C04 {0.78	0.08	0.52} def      % Medium Violet Red
/C05 {0.55	0.27	0.07} def      % Saddle Brown
/C06 {0.10	0.70	0.70} def      % (cyan)
/C07 {1.00	0.55	0.00} def      % Dark Orange
/C08 {0.63	0.13	0.94} def      % Purple
/C09 {0.00	0.75	1.00} def      % Deep Sky Blue
/C10 {0.20	0.80	0.20} def      % Lime Green
/C11 {0.47	0.53	0.60} def      % Light Slate Gray
/C12 {0.00	0.00	0.00} def      % Black            % or: {0.19	0.31	0.31} def      % Dark Slate Gray
%
/LGR {0.75} def % light gray
/DGR {0.33} def % dark gray
%
% =============
% Dash patterns
% =============
/dash01 { [80  20] 0 setdash } def
/dash02 { [40  20] 0 setdash } def
/dash03 { [80  20  10  20] 0 setdash } def
/dash04 { [40  20  10  20] 0 setdash } def
/dash05 { [80  20  10  10  10  20] 0 setdash } def
/dash06 { [40  20  10  10  10  20] 0 setdash } def
/dash07 { [10  10] 0 setdash } def
%
/MFshow {
   { dup 5 get 3 ge
     { 5 get 3 eq {gsave} {grestore} ifelse }
     {dup dup 0 get findfont exch 1 get scalefont setfont
     [ currentpoint ] exch dup 2 get 0 exch R dup 5 get 2 ne {dup dup 6
     get exch 4 get {show} {stringwidth pop 0 R} ifelse }if dup 5 get 0 eq
     {dup 3 get {2 get neg 0 exch R pop} {pop aload pop M} ifelse} {dup 5
     get 1 eq {dup 2 get exch dup 3 get exch 6 get stringwidth pop -2 div
     dup 0 R} {dup 6 get stringwidth pop -2 div 0 R 6 get
     show 2 index {aload pop M neg 3 -1 roll neg R pop pop} {pop pop pop
     pop aload pop M} ifelse }ifelse }ifelse }
     ifelse }
   forall} bind def
/MFwidth {0 exch {dup 3 get{dup dup 0 get findfont exch 1 get scalefont
     setfont 6 get stringwidth pop add} {pop} ifelse} forall} bind def
/MCshow { currentpoint stroke M
  exch dup MFwidth -2 div 3 -1 roll R MFshow } def
%
end
%%EndProlog
bkdict begin
0.1 0.1 scale
%
% Model curves:
%

GSN 753 3536 M
770 3536 L
803 3538 L
837 3540 L
870 3542 L
903 3545 L
924 3548 L
941 3549 L
970 3551 L
1003 3555 L
1037 3559 L
1070 3564 L
1096 3569 L
1113 3572 L
1137 3575 L
1170 3581 L
1203 3588 L
1237 3596 L
1268 3604 L
1284 3612 L
1303 3613 L
1337 3623 L
1370 3634 L
1403 3645 L
1437 3657 L
1456 3669 L
1473 3671 L
1503 3682 L
1537 3694 L
1570 3707 L
1603 3719 L
1628 3731 L
1644 3736 L
1670 3742 L
1703 3752 L
1737 3760 L
1770 3768 L
1799 3774 L
1816 3778 L
1837 3779 L
1870 3782 L
1903 3785 L
1937 3787 L
1970 3788 L
1987 3790 L
2004 3790 L
2037 3791 L
2070 3792 L
2103 3793 L
2137 3794 L
2159 3796 L
2176 3796 L
2203 3797 L
2237 3799 L
2270 3801 L
2303 3803 L
2331 3806 L
2347 3808 L
2370 3809 L
2403 3812 L
2437 3816 L
2470 3820 L
2503 3825 L
2519 3829 L
2537 3830 L
2570 3835 L
2603 3841 L
2637 3848 L
2670 3856 L
2690 3864 L
2707 3866 L
2737 3872 L
2770 3882 L
2803 3891 L
2837 3902 L
2862 3913 L
2879 3919 L
2903 3924 L
2937 3936 L
2970 3947 L
3003 3959 L
3034 3971 L
3050 3980 L
3070 3982 L
3103 3993 L
3137 4004 L
3170 4013 L
3203 4022 L
3222 4030 L
3239 4031 L
3270 4037 L
3303 4042 L
3337 4047 L
3370 4050 L
3393 4053 L
3410 4054 L
3437 4055 L
3464 4055 L
3481 4056 L
3503 4056 L
3537 4055 L
3565 4055 L
3582 4054 L
3603 4054 L
3637 4053 L
3670 4052 L
3703 4051 L
3737 4050 L
3753 4050 L
3770 4050 L
3803 4050 L
3837 4049 L
3870 4049 L
3903 4049 L
3925 4049 L
3942 4049 L
3970 4049 L
4003 4049 L
4037 4049 L
4070 4049 L
4086 4049 L
LWMC SL dash01 C01 COSGR

GSN 753 3035 M
770 3035 L
803 3039 L
837 3043 L
870 3048 L
903 3053 L
924 3059 L
941 3060 L
970 3065 L
1003 3072 L
1037 3081 L
1070 3090 L
1096 3100 L
1113 3107 L
1137 3112 L
1170 3124 L
1203 3138 L
1237 3154 L
1268 3170 L
1284 3186 L
1303 3189 L
1337 3208 L
1370 3229 L
1403 3251 L
1437 3275 L
1456 3299 L
1473 3304 L
1503 3324 L
1537 3349 L
1570 3374 L
1603 3399 L
1628 3422 L
1644 3432 L
1670 3443 L
1703 3463 L
1737 3481 L
1770 3495 L
1799 3507 L
1816 3515 L
1837 3517 L
1870 3525 L
1903 3530 L
1937 3535 L
1970 3538 L
1987 3541 L
2004 3541 L
2037 3543 L
2070 3546 L
2103 3549 L
2137 3552 L
2159 3556 L
2176 3557 L
2203 3560 L
2237 3565 L
2270 3570 L
2303 3576 L
2331 3582 L
2347 3587 L
2370 3590 L
2403 3598 L
2437 3607 L
2470 3617 L
2503 3628 L
2519 3640 L
2537 3640 L
2570 3653 L
2603 3668 L
2637 3684 L
2670 3701 L
2690 3719 L
2707 3723 L
2737 3738 L
2770 3758 L
2803 3779 L
2837 3800 L
2862 3823 L
2879 3835 L
2903 3845 L
2937 3867 L
2970 3889 L
3003 3911 L
3034 3932 L
3050 3948 L
3070 3951 L
3103 3969 L
3137 3986 L
3170 4001 L
3203 4014 L
3222 4026 L
3239 4027 L
3270 4035 L
3303 4043 L
3337 4049 L
3370 4053 L
3393 4056 L
3410 4057 L
3437 4058 L
3464 4059 L
3481 4059 L
3503 4058 L
3537 4058 L
3565 4056 L
3582 4055 L
3603 4055 L
3637 4054 L
3670 4053 L
3703 4052 L
3737 4051 L
3753 4050 L
3770 4050 L
3803 4050 L
3837 4050 L
3870 4050 L
3903 4049 L
3925 4049 L
3942 4049 L
3970 4049 L
4003 4049 L
4037 4049 L
4070 4049 L
4086 4049 L
LWMC SL dash02 C02 COSGR

GSN 753 2552 M
770 2552 L
803 2557 L
837 2563 L
870 2570 L
903 2578 L
924 2586 L
941 2589 L
970 2596 L
1003 2607 L
1037 2619 L
1070 2633 L
1096 2648 L
1113 2658 L
1137 2665 L
1170 2684 L
1203 2704 L
1237 2727 L
1268 2752 L
1284 2775 L
1303 2779 L
1337 2808 L
1370 2839 L
1403 2872 L
1437 2906 L
1456 2942 L
1473 2949 L
1503 2979 L
1537 3017 L
1570 3054 L
1603 3090 L
1628 3125 L
1644 3140 L
1670 3157 L
1703 3186 L
1737 3212 L
1770 3234 L
1799 3253 L
1816 3264 L
1837 3267 L
1870 3279 L
1903 3288 L
1937 3294 L
1970 3300 L
1987 3305 L
2004 3305 L
2037 3309 L
2070 3314 L
2103 3319 L
2137 3325 L
2159 3332 L
2176 3334 L
2203 3339 L
2237 3348 L
2270 3357 L
2303 3367 L
2331 3379 L
2347 3387 L
2370 3392 L
2403 3406 L
2437 3422 L
2470 3440 L
2503 3459 L
2519 3478 L
2537 3479 L
2570 3502 L
2603 3526 L
2637 3553 L
2670 3580 L
2690 3610 L
2707 3617 L
2737 3640 L
2770 3672 L
2803 3705 L
2837 3738 L
2862 3771 L
2879 3789 L
2903 3804 L
2937 3836 L
2970 3867 L
3003 3897 L
3034 3925 L
3050 3947 L
3070 3951 L
3103 3974 L
3137 3995 L
3170 4013 L
3203 4028 L
3222 4041 L
3239 4042 L
3270 4050 L
3303 4058 L
3337 4063 L
3370 4065 L
3393 4066 L
3410 4066 L
3437 4066 L
3464 4064 L
3481 4062 L
3503 4062 L
3537 4059 L
3565 4057 L
3582 4055 L
3603 4055 L
3637 4053 L
3670 4052 L
3703 4051 L
3737 4051 L
3753 4051 L
3770 4050 L
3803 4050 L
3837 4050 L
3870 4050 L
3903 4050 L
3925 4050 L
3942 4050 L
3970 4050 L
4003 4049 L
4037 4049 L
4070 4049 L
4086 4049 L
LWMC SL dash03 C03 COSGR

GSN 753 2049 M
770 2049 L
803 2057 L
837 2065 L
870 2074 L
903 2084 L
924 2096 L
941 2099 L
970 2109 L
1003 2123 L
1037 2139 L
1070 2158 L
1096 2178 L
1113 2191 L
1137 2201 L
1170 2226 L
1203 2254 L
1237 2284 L
1268 2317 L
1284 2349 L
1303 2353 L
1337 2392 L
1370 2434 L
1403 2478 L
1437 2524 L
1456 2573 L
1473 2582 L
1503 2622 L
1537 2672 L
1570 2722 L
1603 2771 L
1628 2817 L
1644 2838 L
1670 2861 L
1703 2900 L
1737 2935 L
1770 2965 L
1799 2990 L
1816 3006 L
1837 3010 L
1870 3026 L
1903 3038 L
1937 3048 L
1970 3056 L
1987 3064 L
2004 3064 L
2037 3071 L
2070 3079 L
2103 3087 L
2137 3096 L
2159 3107 L
2176 3111 L
2203 3118 L
2237 3131 L
2270 3146 L
2303 3162 L
2331 3180 L
2347 3193 L
2370 3200 L
2403 3222 L
2437 3246 L
2470 3273 L
2503 3302 L
2519 3332 L
2537 3333 L
2570 3367 L
2603 3403 L
2637 3441 L
2670 3481 L
2690 3523 L
2707 3534 L
2737 3566 L
2770 3611 L
2803 3656 L
2837 3700 L
2862 3745 L
2879 3768 L
2903 3788 L
2937 3829 L
2970 3868 L
3003 3905 L
3034 3938 L
3050 3963 L
3070 3968 L
3103 3994 L
3137 4016 L
3170 4035 L
3203 4049 L
3222 4060 L
3239 4061 L
3270 4068 L
3303 4072 L
3337 4073 L
3370 4073 L
3393 4071 L
3410 4069 L
3437 4068 L
3464 4064 L
3481 4062 L
3503 4061 L
3537 4058 L
3565 4056 L
3582 4055 L
3603 4054 L
3637 4053 L
3670 4052 L
3703 4051 L
3737 4051 L
3753 4050 L
3770 4050 L
3803 4050 L
3837 4050 L
3870 4050 L
3903 4050 L
3925 4050 L
3942 4050 L
3970 4050 L
4003 4050 L
4037 4050 L
4070 4049 L
4086 4049 L
LWMC SL dash04 C04 COSGR

GSN 753 1813 M
770 1813 L
803 1821 L
837 1830 L
870 1840 L
903 1852 L
924 1865 L
941 1869 L
970 1879 L
1003 1895 L
1037 1914 L
1070 1934 L
1096 1957 L
1113 1972 L
1137 1982 L
1170 2011 L
1203 2042 L
1237 2076 L
1268 2113 L
1284 2148 L
1303 2153 L
1337 2197 L
1370 2243 L
1403 2293 L
1437 2345 L
1456 2399 L
1473 2409 L
1503 2455 L
1537 2511 L
1570 2566 L
1603 2621 L
1628 2673 L
1644 2697 L
1670 2722 L
1703 2766 L
1737 2806 L
1770 2839 L
1799 2867 L
1816 2886 L
1837 2890 L
1870 2908 L
1903 2923 L
1937 2934 L
1970 2944 L
1987 2952 L
2004 2953 L
2037 2961 L
2070 2970 L
2103 2980 L
2137 2991 L
2159 3004 L
2176 3008 L
2203 3018 L
2237 3033 L
2270 3051 L
2303 3070 L
2331 3092 L
2347 3107 L
2370 3115 L
2403 3142 L
2437 3170 L
2470 3202 L
2503 3236 L
2519 3271 L
2537 3273 L
2570 3312 L
2603 3354 L
2637 3398 L
2670 3445 L
2690 3493 L
2707 3505 L
2737 3543 L
2770 3593 L
2803 3643 L
2837 3694 L
2862 3743 L
2879 3769 L
2903 3790 L
2937 3835 L
2970 3877 L
3003 3916 L
3034 3951 L
3050 3977 L
3070 3982 L
3103 4008 L
3137 4030 L
3170 4047 L
3203 4060 L
3222 4069 L
3239 4070 L
3270 4074 L
3303 4076 L
3337 4076 L
3370 4074 L
3393 4071 L
3410 4069 L
3437 4067 L
3464 4064 L
3481 4061 L
3503 4060 L
3537 4058 L
3565 4056 L
3582 4054 L
3603 4054 L
3637 4053 L
3670 4052 L
3703 4051 L
3737 4051 L
3753 4050 L
3770 4050 L
3803 4050 L
3837 4050 L
3870 4050 L
3903 4050 L
3925 4050 L
3942 4050 L
3970 4050 L
4003 4050 L
4037 4050 L
4070 4049 L
4086 4049 L
LWMC SL dash05 C05 COSGR

GSN 753 1563 M
770 1563 L
803 1571 L
837 1582 L
870 1593 L
903 1606 L
924 1620 L
941 1625 L
970 1636 L
1003 1654 L
1037 1675 L
1070 1698 L
1096 1723 L
1113 1739 L
1137 1751 L
1170 1783 L
1203 1817 L
1237 1855 L
1268 1896 L
1284 1936 L
1303 1941 L
1337 1990 L
1370 2042 L
1403 2097 L
1437 2155 L
1456 2215 L
1473 2226 L
1503 2277 L
1537 2340 L
1570 2402 L
1603 2463 L
1628 2521 L
1644 2547 L
1670 2575 L
1703 2625 L
1737 2668 L
1770 2706 L
1799 2738 L
1816 2758 L
1837 2764 L
1870 2784 L
1903 2800 L
1937 2813 L
1970 2824 L
1987 2834 L
2004 2835 L
2037 2845 L
2070 2855 L
2103 2867 L
2137 2880 L
2159 2895 L
2176 2901 L
2203 2912 L
2237 2930 L
2270 2951 L
2303 2973 L
2331 2999 L
2347 3017 L
2370 3026 L
2403 3057 L
2437 3091 L
2470 3127 L
2503 3167 L
2519 3207 L
2537 3209 L
2570 3255 L
2603 3303 L
2637 3354 L
2670 3407 L
2690 3461 L
2707 3475 L
2737 3517 L
2770 3573 L
2803 3630 L
2837 3685 L
2862 3739 L
2879 3767 L
2903 3791 L
2937 3839 L
2970 3884 L
3003 3925 L
3034 3961 L
3050 3988 L
3070 3992 L
3103 4018 L
3137 4040 L
3170 4056 L
3203 4067 L
3222 4075 L
3239 4075 L
3270 4078 L
3303 4079 L
3337 4077 L
3370 4075 L
3393 4071 L
3410 4069 L
3437 4067 L
3464 4063 L
3481 4061 L
3503 4060 L
3537 4058 L
3565 4055 L
3582 4054 L
3603 4054 L
3637 4053 L
3670 4052 L
3703 4051 L
3737 4051 L
3753 4050 L
3770 4050 L
3803 4050 L
3837 4050 L
3870 4050 L
3903 4050 L
3925 4050 L
3942 4050 L
3970 4050 L
4003 4050 L
4037 4050 L
4070 4050 L
4086 4049 L
LWMC SL dash06 C06 COSGR

GSN 753 753 M
770 753 L
803 765 L
837 778 L
870 793 L
903 810 L
924 829 L
941 835 L
970 851 L
1003 875 L
1037 902 L
1070 933 L
1096 966 L
1113 988 L
1137 1004 L
1170 1046 L
1203 1092 L
1237 1142 L
1268 1197 L
1284 1250 L
1303 1257 L
1337 1322 L
1370 1391 L
1403 1465 L
1437 1542 L
1456 1622 L
1473 1637 L
1503 1705 L
1537 1788 L
1570 1871 L
1603 1953 L
1628 2030 L
1644 2066 L
1670 2103 L
1703 2170 L
1737 2229 L
1770 2280 L
1799 2323 L
1816 2351 L
1837 2359 L
1870 2387 L
1903 2411 L
1937 2430 L
1970 2447 L
1987 2462 L
2004 2463 L
2037 2479 L
2070 2496 L
2103 2515 L
2137 2536 L
2159 2559 L
2176 2568 L
2203 2585 L
2237 2615 L
2270 2647 L
2303 2683 L
2331 2722 L
2347 2750 L
2370 2765 L
2403 2813 L
2437 2864 L
2470 2920 L
2503 2979 L
2519 3039 L
2537 3042 L
2570 3109 L
2603 3179 L
2637 3252 L
2670 3327 L
2690 3402 L
2707 3421 L
2737 3478 L
2770 3553 L
2803 3626 L
2837 3697 L
2862 3763 L
2879 3797 L
2903 3824 L
2937 3880 L
2970 3929 L
3003 3972 L
3034 4007 L
3050 4031 L
3070 4035 L
3103 4056 L
3137 4071 L
3170 4080 L
3203 4085 L
3222 4086 L
3239 4086 L
3270 4085 L
3303 4082 L
3337 4078 L
3370 4074 L
3393 4069 L
3410 4068 L
3437 4066 L
3464 4062 L
3481 4060 L
3503 4059 L
3537 4057 L
3565 4055 L
3582 4054 L
3603 4053 L
3637 4052 L
3670 4051 L
3703 4051 L
3737 4051 L
3753 4050 L
3770 4050 L
3803 4050 L
3837 4050 L
3870 4050 L
3903 4050 L
3925 4050 L
3942 4050 L
3970 4050 L
4003 4050 L
4037 4050 L
4070 4050 L
4086 4049 L
LWMC SL dash07 C07 COSGR

%
%================
% Legend - Begin
%================
%
GSN 4240 4040 M
4480 4040 L
LWMC SL dash01 C01 COSGR
GSN 4540 4001 M helvM (0.5 uM) show grestore
GSN 4240 3860 M
4480 3860 L
LWMC SL dash02 C02 COSGR
GSN 4540 3821 M helvM (1.0 uM) show grestore
GSN 4240 3680 M
4480 3680 L
LWMC SL dash03 C03 COSGR
GSN 4540 3641 M helvM (1.5 uM) show grestore
GSN 4240 3500 M
4480 3500 L
LWMC SL dash04 C04 COSGR
GSN 4540 3461 M helvM (2.0 uM) show grestore
GSN 4240 3320 M
4480 3320 L
LWMC SL dash05 C05 COSGR
GSN 4540 3281 M helvM (2.5 uM) show grestore
GSN 4240 3140 M
4480 3140 L
LWMC SL dash06 C06 COSGR
GSN 4540 3101 M helvM (3.0 uM) show grestore
GSN 4240 2960 M
4480 2960 L
LWMC SL dash07 C07 COSGR
GSN 4540 2921 M helvM (4.0 uM) show grestore
%
%================
% Legend - End
%================
%

%
% Main frame
%
L10
GSN 
620 620 M
4220 620 L
4220 4220 L
620 4220 L
closepath SGR

%
% X axis: large tics
%
L10
GSN 1130 620 M 0  54 rL SGR
GSN 1130 4220 M 0 -54 rL SGR
helvS (0.0001) 1130 470 xlabel
GSN 1716 620 M 0  54 rL SGR
GSN 1716 4220 M 0 -54 rL SGR
helvS (0.001) 1716 470 xlabel
GSN 2303 620 M 0  54 rL SGR
GSN 2303 4220 M 0 -54 rL SGR
helvS (0.01) 2303 470 xlabel
GSN 2889 620 M 0  54 rL SGR
GSN 2889 4220 M 0 -54 rL SGR
helvS (0.1) 2889 470 xlabel
GSN 3476 620 M 0  54 rL SGR
GSN 3476 4220 M 0 -54 rL SGR
helvS (1) 3476 470 xlabel
GSN 4062 620 M 0  54 rL SGR
GSN 4062 4220 M 0 -54 rL SGR
helvS (10) 4062 470 xlabel
%
% X axis: small tics
%
L5
GSN 720 620 M 0  36 rL SGR
GSN 720 4220 M 0 -36 rL SGR
GSN 824 620 M 0  36 rL SGR
GSN 824 4220 M 0 -36 rL SGR
GSN 897 620 M 0  36 rL SGR
GSN 897 4220 M 0 -36 rL SGR
GSN 954 620 M 0  36 rL SGR
GSN 954 4220 M 0 -36 rL SGR
GSN 1000 620 M 0  36 rL SGR
GSN 1000 4220 M 0 -36 rL SGR
GSN 1039 620 M 0  36 rL SGR
GSN 1039 4220 M 0 -36 rL SGR
GSN 1073 620 M 0  36 rL SGR
GSN 1073 4220 M 0 -36 rL SGR
GSN 1103 620 M 0  36 rL SGR
GSN 1103 4220 M 0 -36 rL SGR
GSN 1307 620 M 0  36 rL SGR
GSN 1307 4220 M 0 -36 rL SGR
GSN 1410 620 M 0  36 rL SGR
GSN 1410 4220 M 0 -36 rL SGR
GSN 1483 620 M 0  36 rL SGR
GSN 1483 4220 M 0 -36 rL SGR
GSN 1540 620 M 0  36 rL SGR
GSN 1540 4220 M 0 -36 rL SGR
GSN 1586 620 M 0  36 rL SGR
GSN 1586 4220 M 0 -36 rL SGR
GSN 1626 620 M 0  36 rL SGR
GSN 1626 4220 M 0 -36 rL SGR
GSN 1660 620 M 0  36 rL SGR
GSN 1660 4220 M 0 -36 rL SGR
GSN 1690 620 M 0  36 rL SGR
GSN 1690 4220 M 0 -36 rL SGR
GSN 1893 620 M 0  36 rL SGR
GSN 1893 4220 M 0 -36 rL SGR
GSN 1996 620 M 0  36 rL SGR
GSN 1996 4220 M 0 -36 rL SGR
GSN 2069 620 M 0  36 rL SGR
GSN 2069 4220 M 0 -36 rL SGR
GSN 2126 620 M 0  36 rL SGR
GSN 2126 4220 M 0 -36 rL SGR
GSN 2173 620 M 0  36 rL SGR
GSN 2173 4220 M 0 -36 rL SGR
GSN 2212 620 M 0  36 rL SGR
GSN 2212 4220 M 0 -36 rL SGR
GSN 2246 620 M 0  36 rL SGR
GSN 2246 4220 M 0 -36 rL SGR
GSN 2276 620 M 0  36 rL SGR
GSN 2276 4220 M 0 -36 rL SGR
GSN 2479 620 M 0  36 rL SGR
GSN 2479 4220 M 0 -36 rL SGR
GSN 2583 620 M 0  36 rL SGR
GSN 2583 4220 M 0 -36 rL SGR
GSN 2656 620 M 0  36 rL SGR
GSN 2656 4220 M 0 -36 rL SGR
GSN 2713 620 M 0  36 rL SGR
GSN 2713 4220 M 0 -36 rL SGR
GSN 2759 620 M 0  36 rL SGR
GSN 2759 4220 M 0 -36 rL SGR
GSN 2798 620 M 0  36 rL SGR
GSN 2798 4220 M 0 -36 rL SGR
GSN 2832 620 M 0  36 rL SGR
GSN 2832 4220 M 0 -36 rL SGR
GSN 2862 620 M 0  36 rL SGR
GSN 2862 4220 M 0 -36 rL SGR
GSN 3066 620 M 0  36 rL SGR
GSN 3066 4220 M 0 -36 rL SGR
GSN 3169 620 M 0  36 rL SGR
GSN 3169 4220 M 0 -36 rL SGR
GSN 3242 620 M 0  36 rL SGR
GSN 3242 4220 M 0 -36 rL SGR
GSN 3299 620 M 0  36 rL SGR
GSN 3299 4220 M 0 -36 rL SGR
GSN 3345 620 M 0  36 rL SGR
GSN 3345 4220 M 0 -36 rL SGR
GSN 3385 620 M 0  36 rL SGR
GSN 3385 4220 M 0 -36 rL SGR
GSN 3419 620 M 0  36 rL SGR
GSN 3419 4220 M 0 -36 rL SGR
GSN 3449 620 M 0  36 rL SGR
GSN 3449 4220 M 0 -36 rL SGR
GSN 3652 620 M 0  36 rL SGR
GSN 3652 4220 M 0 -36 rL SGR
GSN 3755 620 M 0  36 rL SGR
GSN 3755 4220 M 0 -36 rL SGR
GSN 3829 620 M 0  36 rL SGR
GSN 3829 4220 M 0 -36 rL SGR
GSN 3885 620 M 0  36 rL SGR
GSN 3885 4220 M 0 -36 rL SGR
GSN 3932 620 M 0  36 rL SGR
GSN 3932 4220 M 0 -36 rL SGR
GSN 3971 620 M 0  36 rL SGR
GSN 3971 4220 M 0 -36 rL SGR
GSN 4005 620 M 0  36 rL SGR
GSN 4005 4220 M 0 -36 rL SGR
GSN 4035 620 M 0  36 rL SGR
GSN 4035 4220 M 0 -36 rL SGR
%
% Y axis: large tics
%
L10
GSN 620 839 M 54 0 rL SGR
GSN 4220 839 M -54 0 rL SGR
helvS (-3) 560 839 ylabel
GSN 620 1909 M 54 0 rL SGR
GSN 4220 1909 M -54 0 rL SGR
helvS (-2) 560 1909 ylabel
GSN 620 2979 M 54 0 rL SGR
GSN 4220 2979 M -54 0 rL SGR
helvS (-1) 560 2979 ylabel
GSN 620 4049 M 54 0 rL SGR
GSN 4220 4049 M -54 0 rL SGR
helvS (0) 560 4049 ylabel
%
% Y axis: small tics
%
L5
GSN 620 839 M 36 0 rL SGR
GSN 4220 839 M -36 0 rL SGR
GSN 620 1107 M 36 0 rL SGR
GSN 4220 1107 M -36 0 rL SGR
GSN 620 1374 M 36 0 rL SGR
GSN 4220 1374 M -36 0 rL SGR
GSN 620 1642 M 36 0 rL SGR
GSN 4220 1642 M -36 0 rL SGR
GSN 620 1909 M 36 0 rL SGR
GSN 4220 1909 M -36 0 rL SGR
GSN 620 2177 M 36 0 rL SGR
GSN 4220 2177 M -36 0 rL SGR
GSN 620 2444 M 36 0 rL SGR
GSN 4220 2444 M -36 0 rL SGR
GSN 620 2712 M 36 0 rL SGR
GSN 4220 2712 M -36 0 rL SGR
GSN 620 2979 M 36 0 rL SGR
GSN 4220 2979 M -36 0 rL SGR
GSN 620 3247 M 36 0 rL SGR
GSN 4220 3247 M -36 0 rL SGR
GSN 620 3514 M 36 0 rL SGR
GSN 4220 3514 M -36 0 rL SGR
GSN 620 3782 M 36 0 rL SGR
GSN 4220 3782 M -36 0 rL SGR
GSN 620 4049 M 36 0 rL SGR
GSN 4220 4049 M -36 0 rL SGR

%
% X axis
%
GSN L5 620 4049 M 4220 4049 L SDA G50 SGR

%
% X-Axis label:
%
gsave 2420 290 M 
[
[(Helvetica) 180 0 true true 0 (t)]
[(Helvetica) 180 0 true true 0 (i)]
[(Helvetica) 180 0 true true 0 (m)]
[(Helvetica) 180 0 true true 0 (e)]
] 0 MCshow grestore

%
% Y-Axis label:
%
gsave 234 2420 M 
currentpoint gsave translate 90 rotate 0 0 moveto
[
[(Helvetica) 180 0 true true 0 (d)]
[(Helvetica) 180 0 true true 0 (\()]
[(Helvetica) 180 0 true true 0 (s)]
[(Helvetica) 180 0 true true 0 (i)]
[(Helvetica) 180 0 true true 0 (g)]
[(Helvetica) 180 0 true true 0 (n)]
[(Helvetica) 180 0 true true 0 (a)]
[(Helvetica) 180 0 true true 0 (l)]
[(Helvetica) 180 0 true true 0 (\))]
[(Helvetica) 180 0 true true 0 ( )]
[(Helvetica) 180 0 true true 0 (/)]
[(Helvetica) 180 0 true true 0 ( )]
[(Helvetica) 180 0 true true 0 (d)]
[(Helvetica) 180 0 true true 0 (t)]
] 0 MCshow grestore

end
showpage
%%Trailer
%%EOF
