%!PS-Adobe-3.0 EPSF-3.0
%%BoundingBox: 0 0 514 442
%%Creator: BioKin Ltd.
%%DocumentFonts: Symbol Helvetica
%%EndComments
%
/bkdict 256 dict def
bkdict begin
/M {moveto} def 
/R {rmoveto} def
/L {lineto} def
/rL {rlineto} def
/GSN {gsave newpath} def
/SGR {stroke grestore} def
/COSGR {gsave setrgbcolor stroke grestore grestore} def
/SL {setlinewidth} def
/LWMB {12} def             % line width - model curves, black & white
/LWMC {10} def             % line width - model curves, color
/L2 {2.5 setlinewidth} def
/L5 {5 setlinewidth} def
/L10 {10 setlinewidth} def
/G50 {0.5 setgray} def
/SDA {[10  20] 0 setdash} def % axes
/helvT {/Helvetica findfont 100 scalefont setfont} def % tiny
/helvS {/Helvetica findfont 125 scalefont setfont} def % small
/helvM {/Helvetica findfont 150 scalefont setfont} def % medium
/helvL {/Helvetica findfont 175 scalefont setfont} def % large
/xlabel {gsave M dup
   stringwidth exch -0.5 mul exch rmoveto show grestore} def 
/ylabel {gsave M 90 rotate dup
   stringwidth exch -0.5 mul exch rmoveto show grestore} def
/ylabelresid {gsave M dup
   stringwidth exch -1 mul exch rmoveto show grestore} def
% ======
% Shapes
% ======
% Circle:
/Circ {0 360 arc closepath} def
%
% Square:
/Squa {dup dup -0.5 mul dup dup R -2 mul 0 exch rL 1 mul 0 rL dup 0 exch -1 mul rL closepath} def
%
% Triangle Up:
/TriU {dup dup dup -0.4 mul exch -0.5 mul exch R dup 0.5 mul exch rL dup -1 mul exch 0.5 mul exch rL closepath} def 
%
% Triangle Down:
/TriD {dup dup dup 0.4 mul exch -0.5 mul exch R dup 0.5 mul exch -1 mul rL dup 0.5 mul exch rL closepath} def 
%
% Diamond:
/Diam {45 rotate Squa} def
% ======
% Fills
% ======
/GRF {gsave setgray fill grestore} def                    % gray-level Fill
/COF {gsave setrgbcolor fill grestore} def                % color fill
% ======
% Colors
% ======
/C01 {1.00	0.00	0.00} def      % Red
/C02 {0.00	0.00	1.00} def      % Blue
/C03 {0.00	0.39	0.00} def      % Dark Green
/C04 {0.78	0.08	0.52} def      % Medium Violet Red
/C05 {0.55	0.27	0.07} def      % Saddle Brown
/C06 {0.10	0.70	0.70} def      % (cyan)
/C07 {1.00	0.55	0.00} def      % Dark Orange
/C08 {0.63	0.13	0.94} def      % Purple
/C09 {0.00	0.75	1.00} def      % Deep Sky Blue
/C10 {0.20	0.80	0.20} def      % Lime Green
/C11 {0.47	0.53	0.60} def      % Light Slate Gray
/C12 {0.00	0.00	0.00} def      % Black            % or: {0.19	0.31	0.31} def      % Dark Slate Gray
%
/LGR {0.75} def % light gray
/DGR {0.33} def % dark gray
%
% =============
% Dash patterns
% =============
/dash01 { [80  20] 0 setdash } def
/dash02 { [40  20] 0 setdash } def
/dash03 { [80  20  10  20] 0 setdash } def
/dash04 { [40  20  10  20] 0 setdash } def
/dash05 { [80  20  10  10  10  20] 0 setdash } def
/dash06 { [40  20  10  10  10  20] 0 setdash } def
/dash07 { [10  10] 0 setdash } def
%
/MFshow {
   { dup 5 get 3 ge
     { 5 get 3 eq {gsave} {grestore} ifelse }
     {dup dup 0 get findfont exch 1 get scalefont setfont
     [ currentpoint ] exch dup 2 get 0 exch R dup 5 get 2 ne {dup dup 6
     get exch 4 get {show} {stringwidth pop 0 R} ifelse }if dup 5 get 0 eq
     {dup 3 get {2 get neg 0 exch R pop} {pop aload pop M} ifelse} {dup 5
     get 1 eq {dup 2 get exch dup 3 get exch 6 get stringwidth pop -2 div
     dup 0 R} {dup 6 get stringwidth pop -2 div 0 R 6 get
     show 2 index {aload pop M neg 3 -1 roll neg R pop pop} {pop pop pop
     pop aload pop M} ifelse }ifelse }ifelse }
     ifelse }
   forall} bind def
/MFwidth {0 exch {dup 3 get{dup dup 0 get findfont exch 1 get scalefont
     setfont 6 get stringwidth pop add} {pop} ifelse} forall} bind def
/MCshow { currentpoint stroke M
  exch dup MFwidth -2 div 3 -1 roll R MFshow } def
%
end
%%EndProlog
bkdict begin
0.1 0.1 scale
%
% Model curves:
%

GSN 753 3714 M
770 3714 L
803 3731 L
837 3750 L
870 3771 L
895 3794 L
911 3806 L
937 3819 L
970 3845 L
1003 3872 L
1037 3900 L
1053 3928 L
1070 3928 L
1103 3956 L
1137 3982 L
1170 4005 L
1195 4026 L
1211 4036 L
1237 4044 L
1270 4058 L
1303 4069 L
1337 4076 L
1353 4081 L
1370 4081 L
1403 4084 L
1437 4085 L
1470 4086 L
1495 4086 L
1512 4086 L
1537 4086 L
1570 4086 L
1603 4086 L
1637 4086 L
1653 4086 L
1670 4086 L
1703 4086 L
1737 4086 L
1770 4086 L
1795 4086 L
1812 4086 L
1837 4086 L
1870 4086 L
1903 4086 L
1937 4086 L
1953 4086 L
1971 4086 L
2003 4086 L
2037 4086 L
2070 4086 L
2095 4086 L
2112 4086 L
2137 4086 L
2170 4086 L
2203 4086 L
2237 4086 L
2253 4086 L
2271 4086 L
2303 4086 L
2337 4086 L
2370 4086 L
2395 4086 L
2412 4086 L
2437 4086 L
2470 4086 L
2503 4086 L
2537 4086 L
2553 4086 L
2571 4086 L
2603 4086 L
2637 4086 L
2670 4086 L
2695 4086 L
2712 4086 L
2737 4086 L
2770 4086 L
2803 4086 L
2837 4086 L
2854 4086 L
2871 4086 L
2903 4086 L
2937 4086 L
2970 4086 L
2995 4086 L
3012 4086 L
3037 4086 L
3061 4086 L
3077 4086 L
3103 4086 L
3137 4086 L
3154 4086 L
3171 4086 L
3203 4086 L
3237 4086 L
3270 4086 L
3296 4086 L
3312 4086 L
3337 4086 L
3370 4086 L
3403 4086 L
3437 4086 L
3454 4086 L
3471 4086 L
3503 4086 L
3537 4086 L
3570 4086 L
3596 4086 L
3612 4086 L
3637 4086 L
3670 4086 L
3703 4086 L
3737 4086 L
3754 4086 L
3771 4086 L
3803 4086 L
3837 4086 L
3870 4086 L
3896 4086 L
3912 4086 L
3937 4086 L
3970 4086 L
4003 4086 L
4037 4086 L
4070 4086 L
LWMC SL dash01 C01 COSGR

GSN 753 3190 M
770 3190 L
803 3232 L
837 3278 L
870 3329 L
895 3385 L
911 3414 L
937 3444 L
970 3507 L
1003 3573 L
1037 3640 L
1053 3707 L
1070 3708 L
1103 3773 L
1137 3836 L
1170 3893 L
1195 3944 L
1211 3966 L
1237 3986 L
1270 4020 L
1303 4045 L
1337 4063 L
1353 4074 L
1370 4074 L
1403 4081 L
1437 4084 L
1470 4085 L
1495 4086 L
1512 4086 L
1537 4086 L
1570 4086 L
1603 4086 L
1637 4086 L
1653 4086 L
1670 4086 L
1703 4086 L
1737 4086 L
1770 4086 L
1795 4086 L
1812 4086 L
1837 4086 L
1870 4086 L
1903 4086 L
1937 4086 L
1953 4086 L
1971 4086 L
2003 4086 L
2037 4086 L
2070 4086 L
2095 4086 L
2112 4086 L
2137 4086 L
2170 4086 L
2203 4086 L
2237 4086 L
2253 4086 L
2271 4086 L
2303 4086 L
2337 4086 L
2370 4086 L
2395 4086 L
2412 4086 L
2437 4086 L
2470 4086 L
2503 4086 L
2537 4086 L
2553 4086 L
2571 4086 L
2603 4086 L
2637 4086 L
2670 4086 L
2695 4086 L
2712 4086 L
2737 4086 L
2770 4086 L
2803 4086 L
2837 4086 L
2854 4086 L
2871 4086 L
2903 4086 L
2937 4086 L
2970 4086 L
2995 4086 L
3012 4086 L
3037 4086 L
3061 4086 L
3077 4086 L
3103 4086 L
3137 4086 L
3154 4086 L
3171 4086 L
3203 4086 L
3237 4086 L
3270 4086 L
3296 4086 L
3312 4086 L
3337 4086 L
3370 4086 L
3403 4086 L
3437 4086 L
3454 4086 L
3471 4086 L
3503 4086 L
3537 4086 L
3570 4086 L
3596 4086 L
3612 4086 L
3637 4086 L
3670 4086 L
3703 4086 L
3737 4086 L
3754 4086 L
3771 4086 L
3803 4086 L
3837 4086 L
3870 4086 L
3896 4086 L
3912 4086 L
3937 4086 L
3970 4086 L
4003 4086 L
4037 4086 L
4070 4086 L
LWMC SL dash02 C02 COSGR

GSN 753 2737 M
770 2737 L
803 2800 L
837 2870 L
870 2947 L
895 3030 L
911 3074 L
937 3120 L
970 3215 L
1003 3314 L
1037 3415 L
1053 3517 L
1070 3518 L
1103 3616 L
1137 3710 L
1170 3796 L
1195 3872 L
1211 3907 L
1237 3936 L
1270 3987 L
1303 4025 L
1337 4051 L
1353 4068 L
1370 4068 L
1403 4078 L
1437 4083 L
1470 4085 L
1495 4086 L
1512 4086 L
1537 4086 L
1570 4086 L
1603 4086 L
1637 4086 L
1653 4086 L
1670 4086 L
1703 4086 L
1737 4086 L
1770 4086 L
1795 4086 L
1812 4086 L
1837 4086 L
1870 4086 L
1903 4086 L
1937 4086 L
1953 4086 L
1971 4086 L
2003 4086 L
2037 4086 L
2070 4086 L
2095 4086 L
2112 4086 L
2137 4086 L
2170 4086 L
2203 4086 L
2237 4086 L
2253 4086 L
2271 4086 L
2303 4086 L
2337 4086 L
2370 4086 L
2395 4086 L
2412 4086 L
2437 4086 L
2470 4086 L
2503 4086 L
2537 4086 L
2553 4086 L
2571 4086 L
2603 4086 L
2637 4086 L
2670 4086 L
2695 4086 L
2712 4086 L
2737 4086 L
2770 4086 L
2803 4086 L
2837 4086 L
2854 4086 L
2871 4086 L
2903 4086 L
2937 4086 L
2970 4086 L
2995 4086 L
3012 4086 L
3037 4086 L
3061 4086 L
3077 4086 L
3103 4086 L
3137 4086 L
3154 4086 L
3171 4086 L
3203 4086 L
3237 4086 L
3270 4086 L
3296 4086 L
3312 4086 L
3337 4086 L
3370 4086 L
3403 4086 L
3437 4086 L
3454 4086 L
3471 4086 L
3503 4086 L
3537 4086 L
3570 4086 L
3596 4086 L
3612 4086 L
3637 4086 L
3670 4086 L
3703 4086 L
3737 4086 L
3754 4086 L
3771 4086 L
3803 4086 L
3837 4086 L
3870 4086 L
3896 4086 L
3912 4086 L
3937 4086 L
3970 4086 L
4003 4086 L
4037 4086 L
4070 4086 L
LWMC SL dash03 C03 COSGR

GSN 753 2392 M
770 2392 L
803 2472 L
837 2560 L
870 2656 L
895 2761 L
911 2817 L
937 2874 L
970 2993 L
1003 3118 L
1037 3245 L
1053 3373 L
1070 3374 L
1103 3497 L
1137 3616 L
1170 3724 L
1195 3819 L
1211 3862 L
1237 3899 L
1270 3962 L
1303 4010 L
1337 4043 L
1353 4064 L
1370 4064 L
1403 4076 L
1437 4082 L
1470 4085 L
1495 4086 L
1512 4086 L
1537 4086 L
1570 4086 L
1603 4086 L
1637 4086 L
1653 4086 L
1670 4086 L
1703 4086 L
1737 4086 L
1770 4086 L
1795 4086 L
1812 4086 L
1837 4086 L
1870 4086 L
1903 4086 L
1937 4086 L
1953 4086 L
1971 4086 L
2003 4086 L
2037 4086 L
2070 4086 L
2095 4086 L
2112 4086 L
2137 4086 L
2170 4086 L
2203 4086 L
2237 4086 L
2253 4086 L
2271 4086 L
2303 4086 L
2337 4086 L
2370 4086 L
2395 4086 L
2412 4086 L
2437 4086 L
2470 4086 L
2503 4086 L
2537 4086 L
2553 4086 L
2571 4086 L
2603 4086 L
2637 4086 L
2670 4086 L
2695 4086 L
2712 4086 L
2737 4086 L
2770 4086 L
2803 4086 L
2837 4086 L
2854 4086 L
2871 4086 L
2903 4086 L
2937 4086 L
2970 4086 L
2995 4086 L
3012 4086 L
3037 4086 L
3061 4086 L
3077 4086 L
3103 4086 L
3137 4086 L
3154 4086 L
3171 4086 L
3203 4086 L
3237 4086 L
3270 4086 L
3296 4086 L
3312 4086 L
3337 4086 L
3370 4086 L
3403 4086 L
3437 4086 L
3454 4086 L
3471 4086 L
3503 4086 L
3537 4086 L
3570 4086 L
3596 4086 L
3612 4086 L
3637 4086 L
3670 4086 L
3703 4086 L
3737 4086 L
3754 4086 L
3771 4086 L
3803 4086 L
3837 4086 L
3870 4086 L
3896 4086 L
3912 4086 L
3937 4086 L
3970 4086 L
4003 4086 L
4037 4086 L
4070 4086 L
LWMC SL dash04 C04 COSGR

GSN 753 2175 M
770 2175 L
803 2265 L
837 2364 L
870 2473 L
895 2592 L
911 2655 L
937 2719 L
970 2854 L
1003 2995 L
1037 3139 L
1053 3283 L
1070 3283 L
1103 3423 L
1137 3556 L
1170 3678 L
1195 3785 L
1211 3834 L
1237 3876 L
1270 3947 L
1303 4000 L
1337 4037 L
1353 4061 L
1370 4061 L
1403 4074 L
1437 4081 L
1470 4084 L
1495 4086 L
1512 4086 L
1537 4086 L
1570 4086 L
1603 4086 L
1637 4086 L
1653 4086 L
1670 4086 L
1703 4086 L
1737 4086 L
1770 4086 L
1795 4086 L
1812 4086 L
1837 4086 L
1870 4086 L
1903 4086 L
1937 4086 L
1953 4086 L
1971 4086 L
2003 4086 L
2037 4086 L
2070 4086 L
2095 4086 L
2112 4086 L
2137 4086 L
2170 4086 L
2203 4086 L
2237 4086 L
2253 4086 L
2271 4086 L
2303 4086 L
2337 4086 L
2370 4086 L
2395 4086 L
2412 4086 L
2437 4086 L
2470 4086 L
2503 4086 L
2537 4086 L
2553 4086 L
2571 4086 L
2603 4086 L
2637 4086 L
2670 4086 L
2695 4086 L
2712 4086 L
2737 4086 L
2770 4086 L
2803 4086 L
2837 4086 L
2854 4086 L
2871 4086 L
2903 4086 L
2937 4086 L
2970 4086 L
2995 4086 L
3012 4086 L
3037 4086 L
3061 4086 L
3077 4086 L
3103 4086 L
3137 4086 L
3154 4086 L
3171 4086 L
3203 4086 L
3237 4086 L
3270 4086 L
3296 4086 L
3312 4086 L
3337 4086 L
3370 4086 L
3403 4086 L
3437 4086 L
3454 4086 L
3471 4086 L
3503 4086 L
3537 4086 L
3570 4086 L
3596 4086 L
3612 4086 L
3637 4086 L
3670 4086 L
3703 4086 L
3737 4086 L
3754 4086 L
3771 4086 L
3803 4086 L
3837 4086 L
3870 4086 L
3896 4086 L
3912 4086 L
3937 4086 L
3970 4086 L
4003 4086 L
4037 4086 L
4070 4086 L
LWMC SL dash05 C05 COSGR

GSN 753 2089 M
770 2089 L
803 2183 L
837 2287 L
870 2401 L
895 2525 L
911 2591 L
937 2658 L
970 2799 L
1003 2946 L
1037 3097 L
1053 3247 L
1070 3248 L
1103 3394 L
1137 3533 L
1170 3661 L
1195 3773 L
1211 3823 L
1237 3867 L
1270 3941 L
1303 3997 L
1337 4035 L
1353 4060 L
1370 4060 L
1403 4074 L
1437 4081 L
1470 4084 L
1495 4086 L
1512 4086 L
1537 4086 L
1570 4086 L
1603 4086 L
1637 4086 L
1653 4086 L
1670 4086 L
1703 4086 L
1737 4086 L
1770 4086 L
1795 4086 L
1812 4086 L
1837 4086 L
1870 4086 L
1903 4086 L
1937 4086 L
1953 4086 L
1971 4086 L
2003 4086 L
2037 4086 L
2070 4086 L
2095 4086 L
2112 4086 L
2137 4086 L
2170 4086 L
2203 4086 L
2237 4086 L
2253 4086 L
2271 4086 L
2303 4086 L
2337 4086 L
2370 4086 L
2395 4086 L
2412 4086 L
2437 4086 L
2470 4086 L
2503 4086 L
2537 4086 L
2553 4086 L
2571 4086 L
2603 4086 L
2637 4086 L
2670 4086 L
2695 4086 L
2712 4086 L
2737 4086 L
2770 4086 L
2803 4086 L
2837 4086 L
2854 4086 L
2871 4086 L
2903 4086 L
2937 4086 L
2970 4086 L
2995 4086 L
3012 4086 L
3037 4086 L
3061 4086 L
3077 4086 L
3103 4086 L
3137 4086 L
3154 4086 L
3171 4086 L
3203 4086 L
3237 4086 L
3270 4086 L
3296 4086 L
3312 4086 L
3337 4086 L
3370 4086 L
3403 4086 L
3437 4086 L
3454 4086 L
3471 4086 L
3503 4086 L
3537 4086 L
3570 4086 L
3596 4086 L
3612 4086 L
3637 4086 L
3670 4086 L
3703 4086 L
3737 4086 L
3754 4086 L
3771 4086 L
3803 4086 L
3837 4086 L
3870 4086 L
3896 4086 L
3912 4086 L
3937 4086 L
3970 4086 L
4003 4086 L
4037 4086 L
4070 4086 L
LWMC SL dash06 C06 COSGR

GSN 753 753 M
770 753 L
803 911 L
837 1085 L
870 1277 L
895 1485 L
911 1595 L
937 1708 L
970 1944 L
1003 2190 L
1037 2442 L
1053 2693 L
1070 2695 L
1103 2939 L
1137 3171 L
1170 3383 L
1195 3569 L
1211 3652 L
1237 3725 L
1270 3848 L
1303 3940 L
1337 4003 L
1353 4044 L
1370 4044 L
1403 4067 L
1437 4078 L
1470 4083 L
1495 4085 L
1512 4086 L
1537 4086 L
1570 4086 L
1603 4086 L
1637 4086 L
1653 4086 L
1670 4086 L
1703 4086 L
1737 4086 L
1770 4086 L
1795 4086 L
1812 4086 L
1837 4086 L
1870 4086 L
1903 4086 L
1937 4086 L
1953 4086 L
1971 4086 L
2003 4086 L
2037 4086 L
2070 4086 L
2095 4086 L
2112 4086 L
2137 4086 L
2170 4086 L
2203 4086 L
2237 4086 L
2253 4086 L
2271 4086 L
2303 4086 L
2337 4086 L
2370 4086 L
2395 4086 L
2412 4086 L
2437 4086 L
2470 4086 L
2503 4086 L
2537 4086 L
2553 4086 L
2571 4086 L
2603 4086 L
2637 4086 L
2670 4086 L
2695 4086 L
2712 4086 L
2737 4086 L
2770 4086 L
2803 4086 L
2837 4086 L
2854 4086 L
2871 4086 L
2903 4086 L
2937 4086 L
2970 4086 L
2995 4086 L
3012 4086 L
3037 4086 L
3061 4086 L
3077 4086 L
3103 4086 L
3137 4086 L
3154 4086 L
3171 4086 L
3203 4086 L
3237 4086 L
3270 4086 L
3296 4086 L
3312 4086 L
3337 4086 L
3370 4086 L
3403 4086 L
3437 4086 L
3454 4086 L
3471 4086 L
3503 4086 L
3537 4086 L
3570 4086 L
3596 4086 L
3612 4086 L
3637 4086 L
3670 4086 L
3703 4086 L
3737 4086 L
3754 4086 L
3771 4086 L
3803 4086 L
3837 4086 L
3870 4086 L
3896 4086 L
3912 4086 L
3937 4086 L
3970 4086 L
4003 4086 L
4037 4086 L
4070 4086 L
LWMC SL dash07 C07 COSGR

%
%================
% Legend - Begin
%================
%
GSN 4240 4040 M
4480 4040 L
LWMC SL dash01 C01 COSGR
GSN 4540 4001 M helvM (0.5 uM) show grestore
GSN 4240 3860 M
4480 3860 L
LWMC SL dash02 C02 COSGR
GSN 4540 3821 M helvM (1.0 uM) show grestore
GSN 4240 3680 M
4480 3680 L
LWMC SL dash03 C03 COSGR
GSN 4540 3641 M helvM (1.5 uM) show grestore
GSN 4240 3500 M
4480 3500 L
LWMC SL dash04 C04 COSGR
GSN 4540 3461 M helvM (2.0 uM) show grestore
GSN 4240 3320 M
4480 3320 L
LWMC SL dash05 C05 COSGR
GSN 4540 3281 M helvM (2.5 uM) show grestore
GSN 4240 3140 M
4480 3140 L
LWMC SL dash06 C06 COSGR
GSN 4540 3101 M helvM (3.0 uM) show grestore
GSN 4240 2960 M
4480 2960 L
LWMC SL dash07 C07 COSGR
GSN 4540 2921 M helvM (4.0 uM) show grestore
%
%================
% Legend - End
%================
%

%
% Main frame
%
L10
GSN 
620 620 M
4220 620 L
4220 4220 L
620 4220 L
closepath SGR

%
% X axis: large tics
%
L10
GSN 1074 620 M 0  54 rL SGR
GSN 1074 4220 M 0 -54 rL SGR
helvS (0.0001) 1074 470 xlabel
GSN 1572 620 M 0  54 rL SGR
GSN 1572 4220 M 0 -54 rL SGR
helvS (0.001) 1572 470 xlabel
GSN 2071 620 M 0  54 rL SGR
GSN 2071 4220 M 0 -54 rL SGR
helvS (0.01) 2071 470 xlabel
GSN 2570 620 M 0  54 rL SGR
GSN 2570 4220 M 0 -54 rL SGR
helvS (0.1) 2570 470 xlabel
GSN 3068 620 M 0  54 rL SGR
GSN 3068 4220 M 0 -54 rL SGR
helvS (1) 3068 470 xlabel
GSN 3567 620 M 0  54 rL SGR
GSN 3567 4220 M 0 -54 rL SGR
helvS (10) 3567 470 xlabel
GSN 4066 620 M 0  54 rL SGR
GSN 4066 4220 M 0 -54 rL SGR
helvS (100) 4066 470 xlabel
%
% X axis: small tics
%
L5
GSN 725 620 M 0  36 rL SGR
GSN 725 4220 M 0 -36 rL SGR
GSN 813 620 M 0  36 rL SGR
GSN 813 4220 M 0 -36 rL SGR
GSN 875 620 M 0  36 rL SGR
GSN 875 4220 M 0 -36 rL SGR
GSN 924 620 M 0  36 rL SGR
GSN 924 4220 M 0 -36 rL SGR
GSN 963 620 M 0  36 rL SGR
GSN 963 4220 M 0 -36 rL SGR
GSN 996 620 M 0  36 rL SGR
GSN 996 4220 M 0 -36 rL SGR
GSN 1025 620 M 0  36 rL SGR
GSN 1025 4220 M 0 -36 rL SGR
GSN 1051 620 M 0  36 rL SGR
GSN 1051 4220 M 0 -36 rL SGR
GSN 1224 620 M 0  36 rL SGR
GSN 1224 4220 M 0 -36 rL SGR
GSN 1312 620 M 0  36 rL SGR
GSN 1312 4220 M 0 -36 rL SGR
GSN 1374 620 M 0  36 rL SGR
GSN 1374 4220 M 0 -36 rL SGR
GSN 1422 620 M 0  36 rL SGR
GSN 1422 4220 M 0 -36 rL SGR
GSN 1462 620 M 0  36 rL SGR
GSN 1462 4220 M 0 -36 rL SGR
GSN 1495 620 M 0  36 rL SGR
GSN 1495 4220 M 0 -36 rL SGR
GSN 1524 620 M 0  36 rL SGR
GSN 1524 4220 M 0 -36 rL SGR
GSN 1550 620 M 0  36 rL SGR
GSN 1550 4220 M 0 -36 rL SGR
GSN 1722 620 M 0  36 rL SGR
GSN 1722 4220 M 0 -36 rL SGR
GSN 1810 620 M 0  36 rL SGR
GSN 1810 4220 M 0 -36 rL SGR
GSN 1873 620 M 0  36 rL SGR
GSN 1873 4220 M 0 -36 rL SGR
GSN 1921 620 M 0  36 rL SGR
GSN 1921 4220 M 0 -36 rL SGR
GSN 1960 620 M 0  36 rL SGR
GSN 1960 4220 M 0 -36 rL SGR
GSN 1994 620 M 0  36 rL SGR
GSN 1994 4220 M 0 -36 rL SGR
GSN 2023 620 M 0  36 rL SGR
GSN 2023 4220 M 0 -36 rL SGR
GSN 2048 620 M 0  36 rL SGR
GSN 2048 4220 M 0 -36 rL SGR
GSN 2221 620 M 0  36 rL SGR
GSN 2221 4220 M 0 -36 rL SGR
GSN 2309 620 M 0  36 rL SGR
GSN 2309 4220 M 0 -36 rL SGR
GSN 2371 620 M 0  36 rL SGR
GSN 2371 4220 M 0 -36 rL SGR
GSN 2420 620 M 0  36 rL SGR
GSN 2420 4220 M 0 -36 rL SGR
GSN 2459 620 M 0  36 rL SGR
GSN 2459 4220 M 0 -36 rL SGR
GSN 2492 620 M 0  36 rL SGR
GSN 2492 4220 M 0 -36 rL SGR
GSN 2521 620 M 0  36 rL SGR
GSN 2521 4220 M 0 -36 rL SGR
GSN 2547 620 M 0  36 rL SGR
GSN 2547 4220 M 0 -36 rL SGR
GSN 2720 620 M 0  36 rL SGR
GSN 2720 4220 M 0 -36 rL SGR
GSN 2808 620 M 0  36 rL SGR
GSN 2808 4220 M 0 -36 rL SGR
GSN 2870 620 M 0  36 rL SGR
GSN 2870 4220 M 0 -36 rL SGR
GSN 2918 620 M 0  36 rL SGR
GSN 2918 4220 M 0 -36 rL SGR
GSN 2958 620 M 0  36 rL SGR
GSN 2958 4220 M 0 -36 rL SGR
GSN 2991 620 M 0  36 rL SGR
GSN 2991 4220 M 0 -36 rL SGR
GSN 3020 620 M 0  36 rL SGR
GSN 3020 4220 M 0 -36 rL SGR
GSN 3045 620 M 0  36 rL SGR
GSN 3045 4220 M 0 -36 rL SGR
GSN 3218 620 M 0  36 rL SGR
GSN 3218 4220 M 0 -36 rL SGR
GSN 3306 620 M 0  36 rL SGR
GSN 3306 4220 M 0 -36 rL SGR
GSN 3368 620 M 0  36 rL SGR
GSN 3368 4220 M 0 -36 rL SGR
GSN 3417 620 M 0  36 rL SGR
GSN 3417 4220 M 0 -36 rL SGR
GSN 3456 620 M 0  36 rL SGR
GSN 3456 4220 M 0 -36 rL SGR
GSN 3490 620 M 0  36 rL SGR
GSN 3490 4220 M 0 -36 rL SGR
GSN 3519 620 M 0  36 rL SGR
GSN 3519 4220 M 0 -36 rL SGR
GSN 3544 620 M 0  36 rL SGR
GSN 3544 4220 M 0 -36 rL SGR
GSN 3717 620 M 0  36 rL SGR
GSN 3717 4220 M 0 -36 rL SGR
GSN 3805 620 M 0  36 rL SGR
GSN 3805 4220 M 0 -36 rL SGR
GSN 3867 620 M 0  36 rL SGR
GSN 3867 4220 M 0 -36 rL SGR
GSN 3915 620 M 0  36 rL SGR
GSN 3915 4220 M 0 -36 rL SGR
GSN 3955 620 M 0  36 rL SGR
GSN 3955 4220 M 0 -36 rL SGR
GSN 3988 620 M 0  36 rL SGR
GSN 3988 4220 M 0 -36 rL SGR
GSN 4017 620 M 0  36 rL SGR
GSN 4017 4220 M 0 -36 rL SGR
GSN 4043 620 M 0  36 rL SGR
GSN 4043 4220 M 0 -36 rL SGR
GSN 4216 620 M 0  36 rL SGR
GSN 4216 4220 M 0 -36 rL SGR
%
% Y axis: large tics
%
L10
GSN 620 1282 M 54 0 rL SGR
GSN 4220 1282 M -54 0 rL SGR
helvS (-100) 560 1282 ylabel
GSN 620 2684 M 54 0 rL SGR
GSN 4220 2684 M -54 0 rL SGR
helvS (-50) 560 2684 ylabel
GSN 620 4086 M 54 0 rL SGR
GSN 4220 4086 M -54 0 rL SGR
helvS (0) 560 4086 ylabel
%
% Y axis: small tics
%
L5
GSN 620 721 M 36 0 rL SGR
GSN 4220 721 M -36 0 rL SGR
GSN 620 1001 M 36 0 rL SGR
GSN 4220 1001 M -36 0 rL SGR
GSN 620 1282 M 36 0 rL SGR
GSN 4220 1282 M -36 0 rL SGR
GSN 620 1562 M 36 0 rL SGR
GSN 4220 1562 M -36 0 rL SGR
GSN 620 1843 M 36 0 rL SGR
GSN 4220 1843 M -36 0 rL SGR
GSN 620 2123 M 36 0 rL SGR
GSN 4220 2123 M -36 0 rL SGR
GSN 620 2403 M 36 0 rL SGR
GSN 4220 2403 M -36 0 rL SGR
GSN 620 2684 M 36 0 rL SGR
GSN 4220 2684 M -36 0 rL SGR
GSN 620 2964 M 36 0 rL SGR
GSN 4220 2964 M -36 0 rL SGR
GSN 620 3245 M 36 0 rL SGR
GSN 4220 3245 M -36 0 rL SGR
GSN 620 3525 M 36 0 rL SGR
GSN 4220 3525 M -36 0 rL SGR
GSN 620 3806 M 36 0 rL SGR
GSN 4220 3806 M -36 0 rL SGR
GSN 620 4086 M 36 0 rL SGR
GSN 4220 4086 M -36 0 rL SGR

%
% X axis
%
GSN L5 620 4086 M 4220 4086 L SDA G50 SGR

%
% X-Axis label:
%
gsave 2420 290 M 
[
[(Helvetica) 180 0 true true 0 (t)]
[(Helvetica) 180 0 true true 0 (i)]
[(Helvetica) 180 0 true true 0 (m)]
[(Helvetica) 180 0 true true 0 (e)]
] 0 MCshow grestore

%
% Y-Axis label:
%
gsave 234 2420 M 
currentpoint gsave translate 90 rotate 0 0 moveto
[
[(Helvetica) 180 0 true true 0 (d)]
[(Helvetica) 180 0 true true 0 (\()]
[(Helvetica) 180 0 true true 0 (s)]
[(Helvetica) 180 0 true true 0 (i)]
[(Helvetica) 180 0 true true 0 (g)]
[(Helvetica) 180 0 true true 0 (n)]
[(Helvetica) 180 0 true true 0 (a)]
[(Helvetica) 180 0 true true 0 (l)]
[(Helvetica) 180 0 true true 0 (\))]
[(Helvetica) 180 0 true true 0 ( )]
[(Helvetica) 180 0 true true 0 (/)]
[(Helvetica) 180 0 true true 0 ( )]
[(Helvetica) 180 0 true true 0 (d)]
[(Helvetica) 180 0 true true 0 (t)]
] 0 MCshow grestore

end
showpage
%%Trailer
%%EOF
