%!PS-Adobe-3.0 EPSF-3.0
%%BoundingBox: 0 0 514 550
%%Creator: BioKin Ltd.
%%DocumentFonts: Symbol Helvetica
%%EndComments
%
/bkdict 256 dict def
bkdict begin
/M {moveto} def 
/R {rmoveto} def
/L {lineto} def
/rL {rlineto} def
/GSN {gsave newpath} def
/SGR {stroke grestore} def
/COSGR {gsave setrgbcolor stroke grestore grestore} def
/SL {setlinewidth} def
/LWMB {12} def             % line width - model curves, black & white
/LWMC {10} def             % line width - model curves, color
/L2 {2.5 setlinewidth} def
/L5 {5 setlinewidth} def
/L10 {10 setlinewidth} def
/G50 {0.5 setgray} def
/SDA {[10  20] 0 setdash} def % axes
/helvT {/Helvetica findfont 100 scalefont setfont} def % tiny
/helvS {/Helvetica findfont 125 scalefont setfont} def % small
/helvM {/Helvetica findfont 150 scalefont setfont} def % medium
/helvL {/Helvetica findfont 175 scalefont setfont} def % large
/xlabel {gsave M dup
   stringwidth exch -0.5 mul exch rmoveto show grestore} def 
/ylabel {gsave M 90 rotate dup
   stringwidth exch -0.5 mul exch rmoveto show grestore} def
/ylabelresid {gsave M dup
   stringwidth exch -1 mul exch rmoveto show grestore} def
% ======
% Shapes
% ======
% Circle:
/Circ {0 360 arc closepath} def
%
% Square:
/Squa {dup dup -0.5 mul dup dup R -2 mul 0 exch rL 1 mul 0 rL dup 0 exch -1 mul rL closepath} def
%
% Triangle Up:
/TriU {dup dup dup -0.4 mul exch -0.5 mul exch R dup 0.5 mul exch rL dup -1 mul exch 0.5 mul exch rL closepath} def 
%
% Triangle Down:
/TriD {dup dup dup 0.4 mul exch -0.5 mul exch R dup 0.5 mul exch -1 mul rL dup 0.5 mul exch rL closepath} def 
%
% Diamond:
/Diam {45 rotate Squa} def
% ======
% Fills
% ======
/GRF {gsave setgray fill grestore} def                    % gray-level Fill
/COF {gsave setrgbcolor fill grestore} def                % color fill
% ======
% Colors
% ======
/C01 {1.00	0.00	0.00} def      % Red
/C02 {0.00	0.00	1.00} def      % Blue
/C03 {0.00	0.39	0.00} def      % Dark Green
/C04 {0.78	0.08	0.52} def      % Medium Violet Red
/C05 {0.55	0.27	0.07} def      % Saddle Brown
/C06 {0.10	0.70	0.70} def      % (cyan)
/C07 {1.00	0.55	0.00} def      % Dark Orange
/C08 {0.63	0.13	0.94} def      % Purple
/C09 {0.00	0.75	1.00} def      % Deep Sky Blue
/C10 {0.20	0.80	0.20} def      % Lime Green
/C11 {0.47	0.53	0.60} def      % Light Slate Gray
/C12 {0.00	0.00	0.00} def      % Black            % or: {0.19	0.31	0.31} def      % Dark Slate Gray
%
/LGR {0.75} def % light gray
/DGR {0.33} def % dark gray
%
% =============
% Dash patterns
% =============
/dash01 { [80  20] 0 setdash } def
/dash02 { [40  20] 0 setdash } def
/dash03 { [80  20  10  20] 0 setdash } def
/dash04 { [40  20  10  20] 0 setdash } def
/dash05 { [80  20  10  10  10  20] 0 setdash } def
/dash06 { [40  20  10  10  10  20] 0 setdash } def
/dash07 { [10  10] 0 setdash } def
%
/MFshow {
   { dup 5 get 3 ge
     { 5 get 3 eq {gsave} {grestore} ifelse }
     {dup dup 0 get findfont exch 1 get scalefont setfont
     [ currentpoint ] exch dup 2 get 0 exch R dup 5 get 2 ne {dup dup 6
     get exch 4 get {show} {stringwidth pop 0 R} ifelse }if dup 5 get 0 eq
     {dup 3 get {2 get neg 0 exch R pop} {pop aload pop M} ifelse} {dup 5
     get 1 eq {dup 2 get exch dup 3 get exch 6 get stringwidth pop -2 div
     dup 0 R} {dup 6 get stringwidth pop -2 div 0 R 6 get
     show 2 index {aload pop M neg 3 -1 roll neg R pop pop} {pop pop pop
     pop aload pop M} ifelse }ifelse }ifelse }
     ifelse }
   forall} bind def
/MFwidth {0 exch {dup 3 get{dup dup 0 get findfont exch 1 get scalefont
     setfont 6 get stringwidth pop add} {pop} ifelse} forall} bind def
/MCshow { currentpoint stroke M
  exch dup MFwidth -2 div 3 -1 roll R MFshow } def
%
end
%%EndProlog
bkdict begin
0.1 0.1 scale
%
% Residuals:
%
GSN 620 4863 M
620 4496 L
620 4562 L
620 4858 L
620 4688 L
620 4554 L
620 4572 L
620 4562 L
620 4600 L
620 4511 L
620 4529 L
620 4245 L
620 4714 L
620 4306 L
620 4478 L
620 4547 L
620 4478 L
620 4532 L
620 4192 L
620 4334 L
620 4248 L
620 4096 L
620 4159 L
620 4256 L
620 4045 L
620 4301 L
620 4440 L
620 4233 L
620 4362 L
620 4144 L
620 4005 L
620 3693 L
620 3868 L
620 3898 L
620 4142 L
620 4129 L
620 3964 L
620 3977 L
620 4063 L
620 4045 L
620 4167 L
620 4347 L
620 3780 L
620 3899 L
620 3577 L
620 3719 L
620 3587 L
620 3861 L
620 3873 L
620 3800 L
620 3886 L
620 3964 L
620 3536 L
620 3121 L
620 3365 L
620 3610 L
620 3779 L
620 3974 L
620 3610 L
620 3473 L
620 3342 L
620 3736 L
620 3296 L
620 3443 L
620 3726 L
620 3643 L
620 3263 L
620 3501 L
620 3476 L
620 3324 L
620 3281 L
620 3610 L
620 3390 L
620 3488 L
620 3258 L
620 3468 L
620 3478 L
620 3433 L
620 3349 L
620 3354 L
620 3425 L
620 3189 L
620 3147 L
620 3230 L
620 3324 L
620 3255 L
620 3286 L
620 3306 L
620 2896 L
620 2972 L
620 3033 L
620 3420 L
620 2903 L
620 2582 L
620 3187 L
620 2818 L
620 3048 L
620 2683 L
620 3015 L
620 2908 L
620 2754 L
620 2610 L
620 2906 L
620 2764 L
620 2288 L
620 2719 L
620 2759 L
620 2321 L
620 2805 L
620 2607 L
620 2865 L
620 2455 L
620 2898 L
620 2886 L
620 2789 L
620 2633 L
620 2645 L
620 2683 L
620 2524 L
620 2589 L
620 2683 L
620 2658 L
620 2633 L
620 2359 L
620 2551 L
620 2506 L
620 2336 L
620 2476 L
620 2698 L
620 2372 L
620 2594 L
620 2387 L
620 2407 L
620 2341 L
620 2498 L
620 2453 L
620 2389 L
620 2407 L
620 2605 L
620 2344 L
620 2501 L
620 2311 L
620 2364 L
620 2417 L
620 2371 L
620 2336 L
620 2290 L
620 2328 L
620 2303 L
620 2460 L
620 2549 L
620 2351 L
620 2539 L
620 2794 L
620 2359 L
620 2295 L
620 2321 L
620 2627 L
620 2452 L
620 2445 L
620 2819 L
620 2731 L
620 2257 L
620 2581 L
620 2349 L
620 2556 L
620 2554 L
620 2533 L
620 2571 L
620 2569 L
620 2693 L
620 2359 L
620 2786 L
620 2769 L
620 2617 L
620 2903 L
620 2136 L
620 2435 L
620 2705 L
620 2447 L
620 2521 L
620 2538 L
620 2528 L
620 2627 L
620 2186 L
620 2655 L
620 2766 L
620 3232 L
620 2566 L
620 3087 L
620 2321 L
620 2832 L
620 2718 L
620 2341 L
620 2690 L
620 2761 L
620 2721 L
620 2437 L
620 2718 L
620 2525 L
620 2574 L
620 2594 L
620 2705 L
620 2761 L
620 2465 L
620 2533 L
620 2520 L
620 2872 L
620 2789 L
620 2467 L
620 2789 L
620 2667 L
620 2809 L
620 3017 L
620 2905 L
620 2854 L
620 2887 L
620 2895 L
620 3090 L
620 2735 L
620 2799 L
620 3052 L
620 2933 L
620 2662 L
620 2702 L
620 2958 L
620 2626 L
620 2991 L
620 2454 L
620 2697 L
620 2885 L
620 3054 L
620 3022 L
620 2864 L
620 2837 L
620 2710 L
620 2707 L
620 2793 L
620 2702 L
620 2892 L
620 2652 L
620 2629 L
620 2614 L
620 2809 L
620 2751 L
620 2745 L
620 2819 L
620 2634 L
620 2852 L
620 3044 L
620 2945 L
620 2616 L
620 3080 L
620 3183 L
620 2917 L
620 2723 L
620 2654 L
620 2824 L
620 2821 L
620 2634 L
620 2515 L
620 2682 L
620 2484 L
620 2621 L
620 3257 L
620 3064 L
620 2859 L
620 2897 L
620 3216 L
620 3160 L
620 2874 L
620 2535 L
620 2560 L
620 3132 L
620 3219 L
620 2892 L
620 3209 L
620 3039 L
620 2629 L
620 2894 L
620 2684 L
620 2811 L
620 2988 L
620 2922 L
620 2808 L
620 3127 L
620 2762 L
620 3078 L
620 3189 L
620 3058 L
620 2961 L
620 3146 L
620 3176 L
620 3105 L
620 3254 L
620 3315 L
620 2953 L
620 3072 L
620 2930 L
620 3178 L
620 2732 L
620 2909 L
620 2917 L
620 2957 L
620 3208 L
620 2937 L
620 3121 L
620 3369 L
620 3005 L
620 3043 L
620 3002 L
620 3177 L
620 2883 L
620 2949 L
620 3009 L
620 3022 L
620 2984 L
620 3001 L
620 3158 L
620 2773 L
620 3343 L
620 3414 L
620 2912 L
620 3161 L
620 2621 L
620 3008 L
620 3320 L
620 2844 L
620 2727 L
620 2932 L
620 3122 L
620 3365 L
620 2986 L
620 2737 L
620 2970 L
620 3011 L
620 3231 L
620 2914 L
620 2978 L
620 2894 L
620 2811 L
620 3162 L
620 3023 L
620 2853 L
620 3117 L
620 2950 L
620 3053 L
620 3266 L
620 2902 L
620 2798 L
620 3190 L
620 3114 L
620 2770 L
620 2780 L
620 2965 L
620 2742 L
620 2932 L
620 3016 L
620 2922 L
620 3396 L
620 2703 L
620 3105 L
620 3103 L
620 3339 L
620 2850 L
620 2939 L
620 2864 L
620 3062 L
620 2717 L
620 2933 L
620 2847 L
620 2883 L
620 3089 L
620 2735 L
620 3178 L
620 3247 L
620 3007 L
620 2833 L
620 2732 L
620 3148 L
620 3014 L
620 3136 L
620 2683 L
620 2942 L
620 3029 L
620 2938 L
620 3030 L
620 2881 L
620 3198 L
620 2918 L
620 3057 L
620 2969 L
620 3021 L
620 3029 L
620 2956 L
620 2979 L
620 3193 L
620 2788 L
620 2918 L
620 3076 L
620 3150 L
620 2814 L
620 3176 L
620 3015 L
620 3301 L
620 2720 L
620 3209 L
620 3076 L
620 2983 L
620 2864 L
620 2996 L
620 3023 L
620 3180 L
620 3158 L
620 2713 L
620 2810 L
620 2975 L
620 2852 L
620 3027 L
620 3192 L
620 2715 L
620 2809 L
620 2822 L
620 3127 L
620 2639 L
620 2918 L
620 2785 L
620 2952 L
620 3014 L
620 3103 L
620 3164 L
620 3061 L
620 2905 L
620 3114 L
620 3114 L
620 3105 L
620 3047 L
620 2951 L
620 2600 L
620 2874 L
620 3331 L
620 3220 L
620 2975 L
620 3085 L
620 3212 L
620 2651 L
620 3137 L
620 3110 L
620 2751 L
620 3043 L
620 2684 L
620 2963 L
620 3212 L
620 3284 L
620 2897 L
620 3353 L
620 2799 L
620 3053 L
620 3034 L
620 3328 L
620 2767 L
620 3253 L
620 3218 L
620 3060 L
620 2951 L
620 3007 L
620 2958 L
620 3336 L
620 2951 L
620 3091 L
620 3256 L
620 3001 L
620 3060 L
620 2995 L
620 3370 L
620 2993 L
620 2860 L
620 3255 L
620 3147 L
620 3211 L
620 2855 L
620 3182 L
620 3134 L
620 3294 L
620 3358 L
620 3235 L
620 3040 L
620 3165 L
620 3064 L
620 3171 L
620 3519 L
620 3117 L
620 3239 L
620 2994 L
620 3220 L
620 3030 L
620 3142 L
620 3133 L
620 3196 L
620 2926 L
620 3002 L
620 2808 L
620 3219 L
620 3515 L
620 2675 L
620 3360 L
620 3077 L
620 2993 L
620 3252 L
620 3316 L
620 3040 L
620 3383 L
620 3259 L
620 2996 L
620 3131 L
620 3104 L
620 3147 L
620 3355 L
620 3239 L
620 3075 L
620 3595 L
620 3089 L
620 3117 L
620 3290 L
620 3250 L
620 2848 L
620 3137 L
620 2765 L
620 3039 L
620 3189 L
620 3278 L
620 3012 L
620 3240 L
L2 C01 COSGR

%
%================
% Legend - Begin
%================
%
GSN 4240 5180 M
4480 5180 L
LWMC SL  C01 COSGR
GSN 4540 5141 M helvM (0.5 uM) show grestore
%
%================
% Legend - End
%================
%

%
% Main frame
%
L10
GSN 
620 1700 M
4220 1700 L
4220 5300 L
620 5300 L
closepath SGR

%
% X axis: large tics
%
L10
%
% X axis: small tics
%
L5
%
% Y axis: large tics
%
L10
GSN 620 2058 M 54 0 rL SGR
GSN 4220 2058 M -54 0 rL SGR
helvS (-0.02) 560 2058 ylabel
GSN 620 3054 M 54 0 rL SGR
GSN 4220 3054 M -54 0 rL SGR
helvS (0) 560 3054 ylabel
GSN 620 4049 M 54 0 rL SGR
GSN 4220 4049 M -54 0 rL SGR
helvS (0.02) 560 4049 ylabel
GSN 620 5044 M 54 0 rL SGR
GSN 4220 5044 M -54 0 rL SGR
helvS (0.04) 560 5044 ylabel
%
% Y axis: small tics
%
L5
GSN 620 1809 M 36 0 rL SGR
GSN 4220 1809 M -36 0 rL SGR
GSN 620 2058 M 36 0 rL SGR
GSN 4220 2058 M -36 0 rL SGR
GSN 620 2307 M 36 0 rL SGR
GSN 4220 2307 M -36 0 rL SGR
GSN 620 2556 M 36 0 rL SGR
GSN 4220 2556 M -36 0 rL SGR
GSN 620 2805 M 36 0 rL SGR
GSN 4220 2805 M -36 0 rL SGR
GSN 620 3054 M 36 0 rL SGR
GSN 4220 3054 M -36 0 rL SGR
GSN 620 3302 M 36 0 rL SGR
GSN 4220 3302 M -36 0 rL SGR
GSN 620 3551 M 36 0 rL SGR
GSN 4220 3551 M -36 0 rL SGR
GSN 620 3800 M 36 0 rL SGR
GSN 4220 3800 M -36 0 rL SGR
GSN 620 4049 M 36 0 rL SGR
GSN 4220 4049 M -36 0 rL SGR
GSN 620 4298 M 36 0 rL SGR
GSN 4220 4298 M -36 0 rL SGR
GSN 620 4547 M 36 0 rL SGR
GSN 4220 4547 M -36 0 rL SGR
GSN 620 4796 M 36 0 rL SGR
GSN 4220 4796 M -36 0 rL SGR
GSN 620 5044 M 36 0 rL SGR
GSN 4220 5044 M -36 0 rL SGR
GSN 620 5293 M 36 0 rL SGR
GSN 4220 5293 M -36 0 rL SGR

%
% X axis - residual panel
%
GSN L5 620 3054 M 4220 3054 L SDA G50 SGR

%
% X-Axis label:
%
gsave 620 1370 M 
[
[(Helvetica) 180 0 true true 0 (t)]
[(Helvetica) 180 0 true true 0 (i)]
[(Helvetica) 180 0 true true 0 (m)]
[(Helvetica) 180 0 true true 0 (e)]
] 0 MCshow grestore

%
% Y-Axis label:
%
gsave 234 3500 M 
currentpoint gsave translate 90 rotate 0 0 moveto
[
[(Helvetica) 180 0 true true 0 (r)]
[(Helvetica) 180 0 true true 0 (e)]
[(Helvetica) 180 0 true true 0 (s)]
[(Helvetica) 180 0 true true 0 (i)]
[(Helvetica) 180 0 true true 0 (d)]
[(Helvetica) 180 0 true true 0 (u)]
[(Helvetica) 180 0 true true 0 (a)]
[(Helvetica) 180 0 true true 0 (l)]
[(Helvetica) 180 0 true true 0 (s)]
] 0 MCshow grestore

end
showpage
%%Trailer
%%EOF
