%!PS-Adobe-3.0 EPSF-3.0
%%BoundingBox: 0 0 514 550
%%Creator: BioKin Ltd.
%%DocumentFonts: Symbol Helvetica
%%EndComments
%
/bkdict 256 dict def
bkdict begin
/M {moveto} def 
/R {rmoveto} def
/L {lineto} def
/rL {rlineto} def
/GSN {gsave newpath} def
/SGR {stroke grestore} def
/COSGR {gsave setrgbcolor stroke grestore grestore} def
/SL {setlinewidth} def
/LWMB {12} def             % line width - model curves, black & white
/LWMC {10} def             % line width - model curves, color
/L2 {2.5 setlinewidth} def
/L5 {5 setlinewidth} def
/L10 {10 setlinewidth} def
/G50 {0.5 setgray} def
/SDA {[10  20] 0 setdash} def % axes
/helvT {/Helvetica findfont 100 scalefont setfont} def % tiny
/helvS {/Helvetica findfont 125 scalefont setfont} def % small
/helvM {/Helvetica findfont 150 scalefont setfont} def % medium
/helvL {/Helvetica findfont 175 scalefont setfont} def % large
/xlabel {gsave M dup
   stringwidth exch -0.5 mul exch rmoveto show grestore} def 
/ylabel {gsave M 90 rotate dup
   stringwidth exch -0.5 mul exch rmoveto show grestore} def
/ylabelresid {gsave M dup
   stringwidth exch -1 mul exch rmoveto show grestore} def
% ======
% Shapes
% ======
% Circle:
/Circ {0 360 arc closepath} def
%
% Square:
/Squa {dup dup -0.5 mul dup dup R -2 mul 0 exch rL 1 mul 0 rL dup 0 exch -1 mul rL closepath} def
%
% Triangle Up:
/TriU {dup dup dup -0.4 mul exch -0.5 mul exch R dup 0.5 mul exch rL dup -1 mul exch 0.5 mul exch rL closepath} def 
%
% Triangle Down:
/TriD {dup dup dup 0.4 mul exch -0.5 mul exch R dup 0.5 mul exch -1 mul rL dup 0.5 mul exch rL closepath} def 
%
% Diamond:
/Diam {45 rotate Squa} def
% ======
% Fills
% ======
/GRF {gsave setgray fill grestore} def                    % gray-level Fill
/COF {gsave setrgbcolor fill grestore} def                % color fill
% ======
% Colors
% ======
/C01 {1.00	0.00	0.00} def      % Red
/C02 {0.00	0.00	1.00} def      % Blue
/C03 {0.00	0.39	0.00} def      % Dark Green
/C04 {0.78	0.08	0.52} def      % Medium Violet Red
/C05 {0.55	0.27	0.07} def      % Saddle Brown
/C06 {0.10	0.70	0.70} def      % (cyan)
/C07 {1.00	0.55	0.00} def      % Dark Orange
/C08 {0.63	0.13	0.94} def      % Purple
/C09 {0.00	0.75	1.00} def      % Deep Sky Blue
/C10 {0.20	0.80	0.20} def      % Lime Green
/C11 {0.47	0.53	0.60} def      % Light Slate Gray
/C12 {0.00	0.00	0.00} def      % Black            % or: {0.19	0.31	0.31} def      % Dark Slate Gray
%
/LGR {0.75} def % light gray
/DGR {0.33} def % dark gray
%
% =============
% Dash patterns
% =============
/dash01 { [80  20] 0 setdash } def
/dash02 { [40  20] 0 setdash } def
/dash03 { [80  20  10  20] 0 setdash } def
/dash04 { [40  20  10  20] 0 setdash } def
/dash05 { [80  20  10  10  10  20] 0 setdash } def
/dash06 { [40  20  10  10  10  20] 0 setdash } def
/dash07 { [10  10] 0 setdash } def
%
/MFshow {
   { dup 5 get 3 ge
     { 5 get 3 eq {gsave} {grestore} ifelse }
     {dup dup 0 get findfont exch 1 get scalefont setfont
     [ currentpoint ] exch dup 2 get 0 exch R dup 5 get 2 ne {dup dup 6
     get exch 4 get {show} {stringwidth pop 0 R} ifelse }if dup 5 get 0 eq
     {dup 3 get {2 get neg 0 exch R pop} {pop aload pop M} ifelse} {dup 5
     get 1 eq {dup 2 get exch dup 3 get exch 6 get stringwidth pop -2 div
     dup 0 R} {dup 6 get stringwidth pop -2 div 0 R 6 get
     show 2 index {aload pop M neg 3 -1 roll neg R pop pop} {pop pop pop
     pop aload pop M} ifelse }ifelse }ifelse }
     ifelse }
   forall} bind def
/MFwidth {0 exch {dup 3 get{dup dup 0 get findfont exch 1 get scalefont
     setfont 6 get stringwidth pop add} {pop} ifelse} forall} bind def
/MCshow { currentpoint stroke M
  exch dup MFwidth -2 div 3 -1 roll R MFshow } def
%
end
%%EndProlog
bkdict begin
0.1 0.1 scale
%
% Model curves:
%

GSN 753 4724 M
753 4724 L
786 4724 L
820 4724 L
853 4723 L
886 4723 L
920 4723 L
929 4722 L
953 4722 L
986 4721 L
1020 4721 L
1053 4720 L
1086 4719 L
1106 4718 L
1120 4718 L
1153 4717 L
1186 4716 L
1220 4714 L
1253 4712 L
1282 4711 L
1286 4710 L
1319 4708 L
1353 4706 L
1386 4703 L
1419 4700 L
1453 4696 L
1459 4695 L
1486 4692 L
1519 4687 L
1553 4682 L
1586 4676 L
1619 4669 L
1635 4665 L
1653 4661 L
1686 4652 L
1719 4642 L
1753 4631 L
1786 4618 L
1812 4607 L
1819 4604 L
1853 4587 L
1886 4569 L
1919 4549 L
1953 4526 L
1986 4500 L
1988 4498 L
2019 4472 L
2053 4440 L
2086 4405 L
2119 4367 L
2153 4325 L
2165 4308 L
2186 4278 L
2219 4228 L
2253 4173 L
2286 4114 L
2319 4051 L
2341 4007 L
2353 3983 L
2386 3911 L
2419 3835 L
2453 3755 L
2486 3671 L
2518 3588 L
2519 3583 L
2553 3493 L
2586 3400 L
2619 3304 L
2653 3205 L
2686 3105 L
2694 3080 L
2719 3003 L
2753 2899 L
2786 2794 L
2819 2689 L
2853 2585 L
2871 2528 L
2886 2482 L
2919 2382 L
2953 2289 L
2986 2203 L
3019 2129 L
3047 2077 L
3053 2068 L
3086 2024 L
3119 1998 L
3153 1992 L
3186 2006 L
3219 2039 L
3224 2045 L
3253 2089 L
3286 2153 L
3319 2227 L
3353 2306 L
3386 2386 L
3400 2420 L
3419 2464 L
3453 2536 L
3476 2581 L
3486 2600 L
3519 2656 L
3553 2702 L
3577 2730 L
3586 2739 L
3619 2768 L
3653 2791 L
3686 2807 L
3719 2820 L
3753 2830 L
3754 2830 L
3786 2838 L
3819 2844 L
3853 2850 L
3886 2855 L
3919 2860 L
3930 2862 L
3953 2865 L
3986 2869 L
4019 2873 L
4053 2876 L
4086 2880 L
4086 2880 L
LWMC SL  C07 COSGR

%
% Experimental data:
%
GSN 777 4979 M
1388 5166 L
1552 4816 L
1652 4802 L
1723 4763 L
1778 4555 L
1824 4087 L
1863 4553 L
1896 4315 L
1926 4231 L
1952 4393 L
1976 4271 L
1998 4491 L
2019 4426 L
2037 4588 L
2055 4350 L
2071 4306 L
2086 4277 L
2101 4383 L
2115 4316 L
2128 4345 L
2140 4222 L
2152 4261 L
2163 4251 L
2174 4163 L
2184 4019 L
2194 4318 L
2204 4236 L
2213 4291 L
2222 4347 L
2230 4353 L
2239 4163 L
2247 4307 L
2255 4277 L
2262 4284 L
2270 4141 L
2277 4163 L
2284 4159 L
2290 4245 L
2297 4141 L
2303 4129 L
2310 4071 L
2316 3901 L
2322 4157 L
2328 4129 L
2333 4025 L
2339 3891 L
2344 4036 L
2350 3930 L
2355 3916 L
2360 3770 L
2365 3920 L
2370 3949 L
2375 3887 L
2380 3780 L
2384 3983 L
2389 3932 L
2393 3987 L
2398 3983 L
2402 3716 L
2407 3776 L
2411 4081 L
2415 3886 L
2419 3786 L
2423 3844 L
2427 3696 L
2431 3755 L
2435 3927 L
2438 3686 L
2442 3791 L
2446 3773 L
2449 3888 L
2453 3920 L
2456 3826 L
2460 3947 L
2463 3633 L
2467 3792 L
2470 3770 L
2473 3866 L
2476 3640 L
2480 3576 L
2483 3648 L
2486 3651 L
2489 3938 L
2492 3707 L
2495 3688 L
2498 3535 L
2501 3681 L
2504 3743 L
2507 3627 L
2510 3431 L
2512 3510 L
2515 3671 L
2518 3650 L
2521 3648 L
2523 3591 L
2526 3671 L
2529 3611 L
2531 3733 L
2534 3489 L
2536 3632 L
2539 3740 L
2541 3603 L
2544 3695 L
2546 3605 L
2549 3505 L
2551 3529 L
2554 3505 L
2556 3519 L
2558 3427 L
2561 3630 L
2563 3463 L
2565 3552 L
2568 3536 L
2570 3450 L
2572 3400 L
2574 3396 L
2576 3351 L
2579 3605 L
2581 3430 L
2583 3532 L
2585 3474 L
2587 3378 L
2589 3422 L
2591 3414 L
2593 3578 L
2595 3146 L
2597 3400 L
2599 3351 L
2601 3358 L
2603 3302 L
2605 3486 L
2607 3381 L
2609 3606 L
2611 3478 L
2613 3400 L
2615 3336 L
2617 3339 L
2618 3485 L
2620 3340 L
2622 3368 L
2624 3340 L
2626 3292 L
2627 3341 L
2629 3348 L
2631 3466 L
2633 3387 L
2634 3370 L
2636 3457 L
2638 3223 L
2640 3230 L
2641 3366 L
2643 3292 L
2645 3259 L
2646 3257 L
2648 3088 L
2650 3158 L
2651 3200 L
2653 3244 L
2654 3302 L
2656 3453 L
2658 3371 L
2659 3275 L
2661 3197 L
2662 3228 L
2664 3150 L
2665 3187 L
2667 3236 L
2668 3227 L
2670 3126 L
2671 3312 L
2673 3076 L
2674 3133 L
2676 3082 L
2677 3127 L
2679 3211 L
2680 3141 L
2682 3123 L
2683 3230 L
2685 3042 L
2686 3151 L
2687 3112 L
2689 3062 L
2690 3130 L
2692 3050 L
2693 3162 L
2694 3178 L
2696 3035 L
2697 3079 L
2698 3246 L
2700 3119 L
2701 3021 L
2702 3047 L
2704 2978 L
2705 2907 L
2706 3071 L
2708 3014 L
2709 2883 L
2710 2994 L
2712 3057 L
2713 2910 L
2714 2754 L
2715 3010 L
2717 3120 L
2718 3075 L
2719 3121 L
2720 3133 L
2722 2947 L
2723 2876 L
2724 2942 L
2725 3015 L
2726 3012 L
2728 2932 L
2729 2989 L
2730 3013 L
2731 3004 L
2732 2927 L
2734 2928 L
2735 3004 L
2736 2836 L
2737 3001 L
2738 2937 L
2739 2944 L
2741 3046 L
2742 2709 L
2743 2886 L
2744 2993 L
2745 2784 L
2746 2787 L
2747 2863 L
2748 3002 L
2749 2958 L
2751 2867 L
2752 2931 L
2753 2818 L
2754 2797 L
2755 2833 L
2756 2992 L
2757 2838 L
2758 2834 L
2759 2801 L
2760 2790 L
2761 2887 L
2762 2889 L
2763 3100 L
2764 2869 L
2765 2901 L
2767 2988 L
2768 2845 L
2769 2792 L
2770 2867 L
2771 2762 L
2772 2761 L
2773 2806 L
2774 2895 L
2775 2715 L
2776 2499 L
2777 2857 L
2778 2731 L
2779 2806 L
2780 2652 L
2781 2817 L
2782 2946 L
2783 2924 L
2783 2820 L
2784 2616 L
2785 2630 L
2786 2868 L
2787 2922 L
2788 2886 L
2789 2859 L
2790 2639 L
2791 2725 L
2792 2757 L
2793 2716 L
2794 2726 L
2795 2757 L
2796 2897 L
2797 2849 L
2798 2882 L
2798 2833 L
2799 2859 L
2800 2692 L
2801 2631 L
2802 2597 L
2803 2699 L
2804 2750 L
2805 2693 L
2806 2799 L
2807 2519 L
2807 2785 L
2808 2655 L
2809 2780 L
2810 2726 L
2811 2801 L
2812 2801 L
2813 2630 L
2813 2759 L
2814 2600 L
2815 2679 L
2816 2654 L
2817 2572 L
2818 2591 L
2819 2689 L
2819 2630 L
2820 2788 L
2821 2726 L
2822 2729 L
2823 2576 L
2824 2675 L
2824 2778 L
2825 2603 L
2826 2591 L
2827 2882 L
2828 2575 L
2828 2854 L
2829 2548 L
2830 2587 L
2831 2634 L
2832 2624 L
2832 2660 L
2833 2554 L
2834 2609 L
2835 2492 L
2836 2675 L
2836 2557 L
2837 2608 L
2838 2711 L
2839 2730 L
2840 2610 L
2840 2557 L
2841 2573 L
2842 2619 L
2843 2639 L
2843 2469 L
2844 2594 L
2845 2683 L
2846 2610 L
2846 2699 L
2847 2326 L
2848 2370 L
2849 2423 L
2849 2654 L
2850 2843 L
2851 2506 L
2852 2626 L
2852 2512 L
2853 2464 L
2854 2620 L
2855 2521 L
2855 2578 L
2856 2492 L
2857 2638 L
2857 2372 L
2858 2541 L
2859 2498 L
2860 2395 L
2860 2560 L
2861 2605 L
2862 2548 L
2862 2782 L
2863 2523 L
2864 2406 L
2865 2642 L
2865 2519 L
2866 2405 L
2867 2484 L
2867 2613 L
2868 2426 L
2869 2452 L
2869 2534 L
2870 2522 L
2871 2511 L
2871 2626 L
2872 2388 L
2873 2675 L
2873 2379 L
2874 2601 L
2875 2577 L
2876 2485 L
2876 2361 L
2877 2387 L
2878 2391 L
2878 2383 L
2879 2457 L
2880 2341 L
2880 2649 L
2881 2469 L
2881 2548 L
2882 2578 L
2883 2549 L
2883 2576 L
2884 2541 L
2885 2467 L
2885 2480 L
2886 2470 L
2887 2439 L
2887 2361 L
2888 2303 L
2889 2436 L
2889 2463 L
2892 2515 L
2894 2489 L
2897 2575 L
2899 2411 L
2902 2407 L
2904 2292 L
2907 2232 L
2909 2507 L
2911 2468 L
2914 2432 L
2916 2524 L
2918 2420 L
2921 2340 L
2923 2336 L
2925 2519 L
2927 2294 L
2929 2320 L
2932 2330 L
2934 2293 L
2936 2335 L
2938 2361 L
2940 2364 L
2942 2055 L
2944 2278 L
2946 2220 L
2948 2296 L
2950 2182 L
2952 2268 L
2954 2273 L
2956 2357 L
2958 2265 L
2960 2348 L
2962 2125 L
2964 2250 L
2966 2145 L
2968 2147 L
2970 2210 L
2971 2210 L
2973 2324 L
2975 2198 L
2977 2212 L
2979 2204 L
2980 2332 L
2982 2190 L
2984 2207 L
2986 2204 L
2987 2018 L
2989 2272 L
2991 2244 L
2993 2347 L
2994 2000 L
2996 2377 L
2998 2130 L
2999 1962 L
3001 2096 L
3003 2196 L
3004 2110 L
3006 2104 L
3007 2082 L
3009 2291 L
3011 2135 L
3012 2145 L
3014 2092 L
3015 2018 L
3017 2177 L
3018 2223 L
3020 2176 L
3021 2112 L
3023 2111 L
3024 2082 L
3026 2208 L
3027 1938 L
3029 2033 L
3030 1993 L
3032 2105 L
3033 2231 L
3035 2125 L
3036 2075 L
3038 2072 L
3039 2043 L
3040 2230 L
3042 2061 L
3043 1990 L
3045 2029 L
3046 2029 L
3047 2037 L
3049 2117 L
3050 2115 L
3051 2125 L
3053 2144 L
3054 2005 L
3055 2082 L
3057 2123 L
3058 1949 L
3059 2038 L
3061 1942 L
3062 2019 L
3063 1935 L
3065 2062 L
3066 2222 L
3067 2042 L
3068 1999 L
3070 2022 L
3071 2224 L
3072 2063 L
3073 2052 L
3075 1977 L
3076 2050 L
3077 1995 L
3078 2141 L
3079 2096 L
3081 1876 L
3082 2029 L
3083 2151 L
3084 1973 L
3085 2098 L
3087 1972 L
3088 1949 L
3089 2077 L
3090 2118 L
3091 2143 L
3092 1911 L
3094 2035 L
3095 1912 L
3096 1967 L
3097 1905 L
3098 2063 L
3099 2150 L
3100 1930 L
3101 2072 L
3103 2054 L
3104 1855 L
3105 1977 L
3106 2059 L
3107 2020 L
3108 1943 L
3109 2066 L
3110 1848 L
3111 2156 L
3112 2161 L
3113 2085 L
3114 2262 L
3115 1915 L
3116 2026 L
3117 2115 L
3119 2106 L
3120 1833 L
3121 2010 L
3122 1976 L
3123 2131 L
3124 2074 L
3125 1959 L
3126 2026 L
3127 2065 L
3128 2015 L
3129 1992 L
3130 2067 L
3131 1962 L
3132 1934 L
3133 1914 L
3134 1979 L
3135 2161 L
3136 1912 L
3136 1980 L
3137 1881 L
3138 1994 L
3139 1945 L
3140 1945 L
3141 1904 L
3142 2035 L
3143 2123 L
3144 1946 L
3145 2006 L
3146 1947 L
3147 2010 L
3148 2115 L
3149 2261 L
3150 1978 L
3151 1933 L
3151 2066 L
3152 2024 L
3153 1981 L
3154 1894 L
3155 1878 L
3156 2210 L
3157 2046 L
3158 2298 L
3159 2089 L
3160 2058 L
3160 2128 L
3161 2089 L
3162 2037 L
3163 1977 L
3164 1990 L
3165 2045 L
3166 1949 L
3166 1984 L
3167 2216 L
3168 1955 L
3169 2045 L
3170 1933 L
3171 1866 L
3172 2075 L
3172 1960 L
3173 2010 L
3174 1987 L
3175 2027 L
3176 2049 L
3177 2046 L
3177 2068 L
3178 2183 L
3179 1964 L
3180 1843 L
3181 2077 L
3181 1956 L
3182 2111 L
3183 2106 L
3184 2019 L
3185 2112 L
3185 2119 L
3186 1946 L
3187 1846 L
3188 1921 L
3189 2132 L
3189 2069 L
3190 1864 L
3191 2057 L
3192 2028 L
3193 1997 L
3193 1941 L
3194 1993 L
3195 1918 L
3196 1954 L
3196 2029 L
3197 1991 L
3198 2140 L
3199 2090 L
3199 2125 L
3200 2137 L
3201 2053 L
3202 2072 L
3202 2094 L
3203 2319 L
3204 2024 L
3205 2058 L
3205 2277 L
3206 2168 L
3207 1987 L
3208 2141 L
3208 2027 L
3209 1963 L
3210 2107 L
3210 2066 L
3211 2084 L
3212 2130 L
3213 1980 L
3213 2164 L
3214 2201 L
3215 2257 L
3215 2043 L
3216 2107 L
3217 1987 L
3218 2117 L
3218 2079 L
3219 2162 L
3220 2065 L
3220 2154 L
3221 2269 L
3222 2122 L
3222 1910 L
3223 2230 L
3224 2099 L
3224 2128 L
3225 2105 L
3226 2181 L
3227 2304 L
3227 1986 L
3228 2061 L
3229 2206 L
3229 1976 L
3230 2141 L
3231 2052 L
3231 2175 L
3232 2008 L
3233 2311 L
3233 2027 L
3234 2047 L
3235 2057 L
3235 2110 L
3236 2155 L
3236 2078 L
3237 2032 L
3238 2055 L
3238 2138 L
3239 2226 L
3240 2045 L
3240 2189 L
3241 2233 L
3242 2273 L
3242 2163 L
3243 2108 L
3244 2074 L
3244 2184 L
3245 2015 L
3245 1961 L
3246 2234 L
3247 2127 L
3247 2147 L
3248 2049 L
3249 2213 L
3249 2218 L
3250 2248 L
3250 2123 L
3251 2229 L
3252 2216 L
3252 2345 L
3253 1945 L
3253 2125 L
3254 2129 L
3255 2197 L
3255 1918 L
3256 2169 L
3257 2180 L
3257 1980 L
3258 2139 L
3258 2190 L
3259 2104 L
3259 1958 L
3260 2291 L
3261 2263 L
3261 2057 L
3262 2299 L
3262 2010 L
3263 2111 L
3264 2019 L
3264 2229 L
3265 2241 L
3265 2151 L
3266 2257 L
3267 2133 L
3267 2143 L
3268 2106 L
3268 2302 L
3269 2135 L
3269 2085 L
3270 2084 L
3271 2204 L
3271 2317 L
3272 2269 L
3272 2226 L
3273 2143 L
3273 2183 L
3274 2225 L
3275 2327 L
3275 2145 L
3276 2196 L
3276 2107 L
3277 2146 L
3277 2181 L
3278 2199 L
3278 2235 L
3279 2239 L
3280 2149 L
3280 2189 L
3281 2157 L
3281 2146 L
3282 2177 L
3282 2180 L
3283 2069 L
3283 2052 L
3284 2217 L
3284 2388 L
3285 2150 L
3285 2134 L
3286 2384 L
3287 2260 L
3287 2212 L
3288 2273 L
3288 2128 L
3289 2197 L
3289 2059 L
3290 2190 L
3290 2176 L
3291 2237 L
3291 2164 L
3292 2210 L
3292 2207 L
3293 2202 L
3293 2295 L
3294 2289 L
3294 2173 L
3295 2320 L
3295 2427 L
3296 2320 L
3297 2004 L
3297 2151 L
3298 2154 L
3298 2069 L
3299 2128 L
3299 2290 L
3300 2255 L
3300 2232 L
3301 2020 L
3301 2342 L
3302 2338 L
3302 2166 L
3303 2264 L
3303 2275 L
3304 2232 L
3304 2263 L
3305 2228 L
3305 2318 L
3306 2282 L
3306 2217 L
3307 2217 L
3307 2237 L
3308 2203 L
3308 2166 L
3309 2330 L
3309 2279 L
3310 2371 L
3310 2409 L
3311 2179 L
3311 2234 L
3312 2217 L
3312 2249 L
3312 2381 L
3313 2160 L
3313 2298 L
3314 2238 L
3314 2224 L
3315 2071 L
3315 2129 L
3316 2402 L
3316 2221 L
3317 2266 L
3317 2214 L
3318 2305 L
3318 2281 L
3319 2281 L
3319 2274 L
3320 2267 L
3320 2349 L
3321 2150 L
3321 2325 L
3321 2587 L
3322 2387 L
3322 2252 L
3323 2240 L
3323 2306 L
3324 2266 L
3324 2160 L
3325 2312 L
3325 2423 L
3326 2207 L
3326 2273 L
3327 2283 L
3327 2243 L
3327 2249 L
3328 2304 L
3328 2263 L
3329 2149 L
3329 2168 L
3330 2271 L
3330 2399 L
3331 2333 L
3331 2364 L
3332 2355 L
3332 2210 L
3332 2334 L
3333 2407 L
3333 2291 L
3334 2230 L
3334 2004 L
3335 2244 L
3335 2225 L
3336 2218 L
3336 2408 L
3336 2243 L
3337 2338 L
3337 2318 L
3338 2408 L
3338 2315 L
3339 2242 L
3339 2201 L
3339 2331 L
3340 2388 L
3340 2447 L
3341 2339 L
3341 2379 L
3342 2272 L
3342 2321 L
3343 2314 L
3343 2194 L
3343 2354 L
3344 2341 L
3344 2287 L
3345 2423 L
3345 2213 L
3346 2267 L
3346 2223 L
3346 2339 L
3347 2340 L
3347 2374 L
3348 2449 L
3348 2286 L
3348 2278 L
3349 2318 L
3349 2442 L
3350 2317 L
3350 2308 L
3351 2250 L
3351 2344 L
3351 2350 L
3352 2357 L
3352 2296 L
3353 2468 L
3353 2238 L
3353 2314 L
3354 2292 L
3354 2416 L
3355 2285 L
3355 2305 L
3355 2288 L
3356 2241 L
3356 2194 L
3357 2460 L
3357 2386 L
3358 2295 L
3358 2279 L
3358 2415 L
3359 2464 L
3359 2262 L
3360 2275 L
3360 2327 L
3360 2250 L
3361 2211 L
3361 2279 L
3362 2436 L
3362 2271 L
3362 2364 L
3363 2250 L
3363 2356 L
3364 2275 L
3364 2623 L
3364 2418 L
3365 2260 L
3365 2464 L
3365 2393 L
3366 2450 L
3366 2402 L
3367 2335 L
3367 2410 L
3367 2673 L
3368 2314 L
3368 2446 L
3369 2306 L
3369 2354 L
3369 2437 L
3370 2463 L
3370 2497 L
3371 2573 L
3371 2359 L
3371 2250 L
3372 2252 L
3372 2335 L
3372 2455 L
3373 2268 L
3373 2476 L
3374 2485 L
3374 2360 L
3374 2468 L
3375 2315 L
3375 2224 L
3375 2515 L
3376 2257 L
3376 2521 L
3377 2423 L
3377 2374 L
3377 2537 L
3378 2318 L
3378 2416 L
3378 2361 L
3379 2413 L
3379 2442 L
3380 2506 L
3380 2470 L
3380 2239 L
3381 2403 L
3381 2399 L
3381 2445 L
3382 2326 L
3382 2370 L
3383 2491 L
3383 2434 L
3383 2398 L
3384 2345 L
3384 2365 L
3384 2299 L
3385 2360 L
3385 2302 L
3385 2624 L
3386 2450 L
3386 2619 L
3387 2376 L
3387 2400 L
3387 2382 L
3388 2531 L
3388 2457 L
3388 2516 L
3389 2509 L
3389 2434 L
3389 2571 L
3390 2368 L
3390 2442 L
3391 2482 L
3391 2427 L
3391 2420 L
3392 2329 L
3392 2452 L
3392 2434 L
3393 2499 L
3393 2250 L
3393 2489 L
3394 2434 L
3394 2498 L
3394 2548 L
3395 2601 L
3395 2353 L
3395 2552 L
3396 2304 L
3396 2534 L
3396 2411 L
3397 2370 L
3397 2478 L
3398 2399 L
3398 2330 L
3398 2413 L
3399 2484 L
3399 2383 L
3399 2452 L
3400 2616 L
3400 2374 L
3400 2481 L
3401 2459 L
3401 2481 L
3401 2422 L
3402 2240 L
3402 2537 L
3402 2344 L
3403 2473 L
3403 2355 L
3403 2478 L
3404 2436 L
3404 2590 L
3404 2445 L
3405 2532 L
3405 2583 L
3405 2411 L
3406 2216 L
3406 2410 L
3406 2489 L
3407 2536 L
3407 2434 L
3407 2509 L
3408 2599 L
3408 2453 L
3408 2475 L
3409 2390 L
3409 2415 L
3409 2409 L
3410 2471 L
3410 2440 L
3410 2275 L
3411 2547 L
3411 2278 L
3411 2369 L
3412 2490 L
3412 2390 L
3412 2456 L
3413 2499 L
3413 2358 L
3413 2448 L
3414 2504 L
3414 2443 L
3414 2396 L
3415 2468 L
3415 2269 L
3415 2501 L
3416 2485 L
3416 2545 L
3416 2432 L
3417 2586 L
3417 2535 L
3417 2491 L
3417 2439 L
3418 2547 L
3418 2488 L
3418 2493 L
3419 2541 L
3419 2517 L
3419 2511 L
3420 2578 L
3420 2244 L
3420 2598 L
3421 2465 L
3421 2565 L
3421 2544 L
3422 2464 L
3422 2374 L
3422 2505 L
3423 2611 L
3423 2347 L
3423 2470 L
3423 2468 L
3424 2429 L
3424 2655 L
3424 2533 L
3425 2552 L
3425 2450 L
3425 2459 L
3426 2581 L
3426 2552 L
3426 2547 L
3427 2523 L
3427 2443 L
3427 2570 L
3428 2335 L
3428 2571 L
3428 2361 L
3428 2552 L
3429 2447 L
3429 2603 L
3429 2620 L
3430 2562 L
3430 2481 L
3430 2551 L
3431 2580 L
3431 2553 L
3431 2527 L
3431 2701 L
3432 2613 L
3432 2555 L
3432 2401 L
3433 2421 L
3433 2472 L
3433 2370 L
3434 2508 L
3434 2542 L
3434 2567 L
3434 2499 L
3435 2509 L
3435 2422 L
3435 2468 L
3436 2447 L
3436 2440 L
3436 2356 L
3437 2534 L
3437 2447 L
3437 2538 L
3437 2522 L
3438 2418 L
3438 2516 L
3438 2600 L
3439 2462 L
3439 2391 L
3439 2557 L
3440 2516 L
3440 2473 L
3440 2455 L
3440 2419 L
3441 2515 L
3441 2492 L
3441 2556 L
3442 2555 L
3442 2548 L
3442 2405 L
3442 2504 L
3443 2445 L
3443 2594 L
3443 2442 L
3444 2613 L
3444 2516 L
3444 2306 L
3444 2633 L
3445 2584 L
3445 2555 L
3445 2537 L
3446 2484 L
3446 2453 L
3446 2441 L
3446 2568 L
3447 2593 L
3447 2502 L
3447 2555 L
3448 2423 L
3448 2754 L
3448 2515 L
3448 2459 L
3449 2628 L
3449 2453 L
3449 2439 L
3450 2709 L
3450 2550 L
3450 2500 L
3450 2423 L
3451 2605 L
3451 2655 L
3451 2582 L
3452 2627 L
3452 2458 L
3452 2475 L
3452 2318 L
3453 2450 L
3453 2495 L
3453 2485 L
3454 2471 L
3454 2575 L
3454 2452 L
3454 2335 L
3455 2634 L
3455 2448 L
3455 2437 L
3455 2535 L
3456 2566 L
3456 2465 L
3456 2617 L
3457 2675 L
3457 2450 L
3457 2628 L
3457 2464 L
3458 2666 L
3458 2540 L
3458 2553 L
3458 2573 L
3459 2529 L
3459 2547 L
3459 2509 L
3460 2709 L
3460 2454 L
3460 2406 L
3460 2563 L
3461 2455 L
3461 2610 L
3461 2482 L
3461 2528 L
3462 2614 L
3462 2679 L
3462 2561 L
3463 2720 L
3463 2575 L
3463 2622 L
3463 2606 L
3464 2603 L
3464 2522 L
3464 2548 L
3464 2542 L
3465 2632 L
3465 2447 L
3465 2547 L
3465 2690 L
3466 2569 L
3466 2629 L
3466 2577 L
3466 2614 L
3467 2515 L
3467 2721 L
3467 2462 L
3468 2460 L
3468 2742 L
3468 2593 L
3468 2386 L
3469 2447 L
3469 2698 L
3469 2429 L
3469 2532 L
3470 2669 L
3470 2609 L
3470 2472 L
3470 2411 L
3471 2545 L
3471 2594 L
3471 2383 L
3471 2504 L
3472 2560 L
3472 2505 L
3472 2787 L
3472 2690 L
3473 2384 L
3473 2676 L
3473 2664 L
3474 2574 L
3474 2481 L
3474 2700 L
3474 2789 L
3475 2492 L
3475 2502 L
3475 2714 L
3475 2653 L
3476 2590 L
3476 2662 L
3476 2491 L
3476 2524 L
3477 2532 L
3477 2532 L
3477 2416 L
3477 2565 L
3478 2548 L
3478 2552 L
3478 2710 L
3478 2500 L
3479 2710 L
3479 2472 L
3479 2505 L
3479 2571 L
3480 2449 L
3480 2473 L
3480 2416 L
3480 2666 L
3481 2632 L
3481 2603 L
3481 2705 L
3481 2718 L
3482 2582 L
3482 2486 L
3482 2587 L
3482 2524 L
3483 2617 L
3483 2570 L
3483 2561 L
3483 2575 L
3484 2739 L
3484 2440 L
3484 2593 L
3484 2371 L
3485 2580 L
3485 2655 L
3485 2503 L
3485 2575 L
3486 2545 L
3486 2745 L
3486 2565 L
3486 2671 L
3487 2575 L
3487 2479 L
3487 2621 L
3487 2644 L
3488 2534 L
3488 2538 L
3488 2748 L
3488 2585 L
3488 2636 L
3489 2613 L
3489 2721 L
3489 2680 L
3489 2653 L
3490 2706 L
3490 2634 L
3490 2597 L
3490 2818 L
3491 2553 L
3491 2719 L
3491 2712 L
3491 2627 L
3492 2527 L
3492 2564 L
3492 2662 L
3492 2693 L
3493 2677 L
3493 2556 L
3493 2547 L
3493 2534 L
3494 2564 L
3494 2518 L
3494 2735 L
3494 2656 L
3494 2731 L
3495 2613 L
3495 2564 L
3495 2676 L
3495 2524 L
3496 2647 L
3496 2692 L
3496 2486 L
3496 2686 L
3497 2571 L
3497 2699 L
3497 2626 L
3497 2734 L
3498 2531 L
3498 2576 L
3498 2663 L
3498 2764 L
3498 2761 L
3499 2432 L
3499 2659 L
3499 2311 L
3499 2563 L
3500 2503 L
3500 2600 L
3506 2623 L
3511 2661 L
3517 2738 L
3522 2472 L
3527 2738 L
3532 2770 L
3537 2729 L
3542 2682 L
3547 2741 L
3552 2406 L
3557 2646 L
3561 2815 L
3566 2729 L
3570 2829 L
3575 2890 L
3579 2754 L
3583 2650 L
3587 2682 L
3591 2690 L
3595 2745 L
3599 2797 L
3603 2723 L
3607 2796 L
3611 2793 L
3614 2796 L
3618 2694 L
3622 2892 L
3625 2863 L
3629 2627 L
3632 2711 L
3636 2808 L
3639 2873 L
3642 2568 L
3646 2814 L
3649 2837 L
3652 2763 L
3655 2883 L
3658 2639 L
3661 2827 L
3664 2749 L
3667 2755 L
3670 2560 L
3673 2818 L
3676 2492 L
3679 2584 L
3682 2658 L
3685 2771 L
3688 2572 L
3690 2760 L
3693 2561 L
3696 2769 L
3698 2780 L
3701 2871 L
3704 2695 L
3706 2765 L
3709 2860 L
3711 2678 L
3714 2660 L
3716 2867 L
3719 2756 L
3721 3013 L
3724 2841 L
3726 2679 L
3728 2707 L
3731 2727 L
3733 2826 L
3735 2659 L
3738 2763 L
3740 2656 L
3742 2763 L
3744 2875 L
3747 2907 L
3749 2840 L
3751 2842 L
3753 2724 L
3755 2831 L
3757 2870 L
3760 3032 L
3762 2620 L
3764 2894 L
3766 2825 L
3768 2856 L
3770 2775 L
3772 2831 L
3774 2753 L
3776 2690 L
3778 2865 L
3780 2729 L
3781 2693 L
3783 2639 L
3785 2923 L
3787 2917 L
3789 2726 L
3791 2669 L
3793 2844 L
3795 2849 L
3796 2757 L
3798 2701 L
3800 2702 L
3802 2762 L
3803 2860 L
3805 2707 L
3807 2850 L
3809 2718 L
3810 2884 L
3812 2729 L
3814 2643 L
3816 2568 L
3817 2735 L
3819 2955 L
3820 2768 L
3822 2700 L
3824 2759 L
3825 2900 L
3827 2774 L
3829 2770 L
3830 2769 L
3832 2716 L
3833 2765 L
3835 2686 L
3836 2709 L
3838 2906 L
3839 2706 L
3841 2958 L
3842 2722 L
3844 2843 L
3845 2678 L
3847 2588 L
3848 2809 L
3850 2765 L
3851 2611 L
3853 2909 L
3854 2822 L
3856 2771 L
3857 2827 L
3859 2712 L
3860 2690 L
3861 2759 L
3863 2642 L
3864 2633 L
3866 2918 L
3867 2696 L
3868 2677 L
3870 2866 L
3871 2570 L
3872 2985 L
3874 2914 L
3875 2802 L
3876 2690 L
3878 2787 L
3879 2720 L
3880 2837 L
3882 2810 L
3883 2775 L
3884 2751 L
3885 2722 L
3887 2860 L
3888 2774 L
3889 2704 L
3890 2976 L
3892 2869 L
3893 2906 L
3894 2879 L
3895 2869 L
3897 2855 L
3898 2978 L
3899 2799 L
3900 3024 L
3901 2794 L
3903 2792 L
3904 2872 L
3905 2691 L
3906 2943 L
3907 2874 L
3908 2743 L
3910 2795 L
3911 2676 L
3912 2807 L
3913 2788 L
3914 2763 L
3915 2708 L
3917 2723 L
3918 2813 L
3919 2746 L
3920 2825 L
3921 2834 L
3922 2700 L
3923 2834 L
3924 2983 L
3925 3004 L
3926 2936 L
3928 2720 L
3929 2963 L
3930 2822 L
3931 2880 L
3932 2728 L
3933 2590 L
3934 2738 L
3935 2846 L
3936 2910 L
3937 2751 L
3938 2945 L
3939 2674 L
3940 2704 L
3941 2836 L
3942 2982 L
3943 2869 L
3944 2857 L
3945 2747 L
3946 2665 L
3947 2714 L
3948 2859 L
3949 2607 L
3950 2752 L
3951 2850 L
3952 2750 L
3953 3001 L
3954 2612 L
3955 2765 L
3956 2834 L
3957 2559 L
3958 2836 L
3959 2849 L
3960 2845 L
3961 2690 L
3962 2693 L
3963 2743 L
3964 2733 L
3965 2802 L
3966 2782 L
3966 2740 L
3967 2839 L
3968 2709 L
3969 2821 L
3970 2911 L
3971 2723 L
3972 2708 L
3973 2637 L
3974 2742 L
3975 2840 L
3976 2794 L
3976 2894 L
3977 2707 L
3978 2660 L
3979 2738 L
3980 2819 L
3981 2843 L
3982 2713 L
3983 2826 L
3983 2964 L
3984 2539 L
3985 2895 L
3986 2660 L
3987 2794 L
3988 2718 L
3989 2930 L
3989 2937 L
3990 2808 L
3991 2927 L
3992 2782 L
3993 2695 L
3994 2825 L
3995 2576 L
3995 2821 L
3996 2801 L
3997 2650 L
3998 2839 L
3999 2726 L
3999 2709 L
4000 2996 L
4001 2842 L
4002 2819 L
4003 2675 L
4003 2976 L
4004 2634 L
4005 2767 L
4006 2687 L
4007 3083 L
4007 2679 L
4008 2811 L
4009 2908 L
4010 2651 L
4011 2882 L
4011 2713 L
4012 2782 L
4013 2810 L
4014 2774 L
4014 2671 L
4015 2878 L
4016 2754 L
4017 2917 L
4017 3077 L
4018 2837 L
4019 2923 L
4020 2762 L
4021 2770 L
4021 2757 L
4022 2836 L
4023 2906 L
4023 2748 L
4024 2981 L
4025 2808 L
4026 2660 L
4026 2829 L
4027 2701 L
4028 2971 L
4029 2735 L
4029 2763 L
4030 2704 L
4031 2673 L
4032 2926 L
4032 2771 L
4033 2767 L
4034 2755 L
4034 2796 L
4035 2643 L
4036 2912 L
4036 2810 L
4037 2892 L
4038 2816 L
4039 2947 L
4039 2903 L
4040 2809 L
4041 2857 L
4041 2956 L
4042 2848 L
4043 2834 L
4043 2648 L
4044 2722 L
4045 2559 L
4045 2729 L
4046 2582 L
4047 2776 L
4047 2728 L
4048 2830 L
4049 2709 L
4050 2666 L
4050 2857 L
4051 2866 L
4052 2834 L
4052 2782 L
4053 2912 L
4053 2859 L
4054 2628 L
4055 2777 L
4055 2764 L
4056 2859 L
4057 3000 L
4057 2771 L
4058 2808 L
4059 2729 L
4059 2729 L
4060 2788 L
4061 2661 L
4061 2791 L
4062 2830 L
L2 C07 COSGR

%
%================
% Legend - Begin
%================
%
GSN 4240 5180 M
4480 5180 L
LWMC SL  C07 COSGR
GSN 4540 5141 M helvM (4.0 uM) show grestore
%
%================
% Legend - End
%================
%

%
% Residuals:
%
GSN 777 1394 M
1388 1569 L
1552 1294 L
1652 1298 L
1723 1283 L
1778 1126 L
1824 750 L
1863 1157 L
1896 973 L
1926 918 L
1952 1070 L
1976 983 L
1998 1182 L
2019 1142 L
2037 1292 L
2055 1107 L
2071 1084 L
2086 1073 L
2101 1176 L
2115 1134 L
2128 1171 L
2140 1081 L
2152 1126 L
2163 1131 L
2174 1070 L
2184 961 L
2194 1224 L
2204 1167 L
2213 1225 L
2222 1283 L
2230 1300 L
2239 1152 L
2247 1285 L
2255 1270 L
2262 1287 L
2270 1178 L
2277 1208 L
2284 1215 L
2290 1297 L
2297 1220 L
2303 1221 L
2310 1182 L
2316 1050 L
2322 1274 L
2328 1260 L
2333 1183 L
2339 1080 L
2344 1211 L
2350 1131 L
2355 1129 L
2360 1016 L
2365 1150 L
2370 1184 L
2375 1140 L
2380 1060 L
2384 1238 L
2389 1204 L
2393 1258 L
2398 1264 L
2402 1048 L
2407 1107 L
2411 1370 L
2415 1214 L
2419 1140 L
2423 1196 L
2427 1079 L
2431 1137 L
2435 1288 L
2438 1094 L
2442 1190 L
2446 1182 L
2449 1285 L
2453 1320 L
2456 1248 L
2460 1357 L
2463 1100 L
2467 1241 L
2470 1229 L
2473 1317 L
2476 1134 L
2480 1088 L
2483 1155 L
2486 1164 L
2489 1411 L
2492 1224 L
2495 1215 L
2498 1093 L
2501 1222 L
2504 1280 L
2507 1189 L
2510 1032 L
2512 1104 L
2515 1245 L
2518 1233 L
2521 1237 L
2523 1196 L
2526 1269 L
2529 1225 L
2531 1332 L
2534 1134 L
2536 1260 L
2539 1356 L
2541 1247 L
2544 1330 L
2546 1260 L
2549 1182 L
2551 1207 L
2554 1193 L
2556 1210 L
2558 1138 L
2561 1313 L
2563 1179 L
2565 1259 L
2568 1251 L
2570 1184 L
2572 1147 L
2574 1150 L
2576 1117 L
2579 1334 L
2581 1193 L
2583 1284 L
2585 1241 L
2587 1165 L
2589 1207 L
2591 1205 L
2593 1347 L
2595 990 L
2597 1208 L
2599 1172 L
2601 1182 L
2603 1140 L
2605 1299 L
2607 1216 L
2609 1408 L
2611 1306 L
2613 1245 L
2615 1196 L
2617 1203 L
2618 1330 L
2620 1213 L
2622 1241 L
2624 1222 L
2626 1186 L
2627 1231 L
2629 1241 L
2631 1344 L
2633 1283 L
2634 1273 L
2636 1350 L
2638 1159 L
2640 1169 L
2641 1287 L
2643 1229 L
2645 1205 L
2646 1208 L
2648 1071 L
2650 1133 L
2651 1172 L
2653 1213 L
2654 1265 L
2656 1396 L
2658 1332 L
2659 1255 L
2661 1194 L
2662 1223 L
2664 1162 L
2665 1197 L
2667 1241 L
2668 1238 L
2670 1157 L
2671 1316 L
2673 1123 L
2674 1174 L
2676 1135 L
2677 1177 L
2679 1251 L
2680 1196 L
2682 1185 L
2683 1278 L
2685 1124 L
2686 1219 L
2687 1190 L
2689 1151 L
2690 1212 L
2692 1149 L
2693 1246 L
2694 1263 L
2696 1147 L
2697 1187 L
2698 1330 L
2700 1227 L
2701 1149 L
2702 1174 L
2704 1119 L
2705 1064 L
2706 1204 L
2708 1160 L
2709 1054 L
2710 1150 L
2712 1206 L
2713 1086 L
2714 959 L
2715 1176 L
2717 1271 L
2718 1237 L
2719 1278 L
2720 1292 L
2722 1140 L
2723 1084 L
2724 1142 L
2725 1206 L
2726 1207 L
2728 1143 L
2729 1194 L
2730 1217 L
2731 1213 L
2732 1151 L
2734 1155 L
2735 1222 L
2736 1084 L
2737 1225 L
2738 1175 L
2739 1183 L
2741 1272 L
2742 993 L
2743 1144 L
2744 1236 L
2745 1065 L
2746 1069 L
2747 1136 L
2748 1255 L
2749 1222 L
2751 1149 L
2752 1204 L
2753 1113 L
2754 1098 L
2755 1131 L
2756 1267 L
2757 1141 L
2758 1140 L
2759 1116 L
2760 1109 L
2761 1193 L
2762 1197 L
2763 1377 L
2764 1186 L
2765 1216 L
2767 1292 L
2768 1174 L
2769 1133 L
2770 1199 L
2771 1113 L
2772 1115 L
2773 1155 L
2774 1232 L
2775 1084 L
2776 906 L
2777 1209 L
2778 1106 L
2779 1171 L
2780 1044 L
2781 1185 L
2782 1296 L
2783 1280 L
2783 1196 L
2784 1027 L
2785 1042 L
2786 1243 L
2787 1291 L
2788 1263 L
2789 1243 L
2790 1062 L
2791 1136 L
2792 1165 L
2793 1133 L
2794 1145 L
2795 1173 L
2796 1292 L
2797 1254 L
2798 1284 L
2798 1245 L
2799 1270 L
2800 1133 L
2801 1084 L
2802 1058 L
2803 1145 L
2804 1191 L
2805 1146 L
2806 1236 L
2807 1004 L
2807 1230 L
2808 1122 L
2809 1229 L
2810 1187 L
2811 1252 L
2812 1254 L
2813 1113 L
2813 1223 L
2814 1093 L
2815 1161 L
2816 1142 L
2817 1076 L
2818 1094 L
2819 1178 L
2819 1131 L
2820 1266 L
2821 1216 L
2822 1220 L
2823 1095 L
2824 1180 L
2824 1268 L
2825 1124 L
2826 1116 L
2827 1361 L
2828 1107 L
2828 1343 L
2829 1089 L
2830 1123 L
2831 1165 L
2832 1159 L
2832 1191 L
2833 1104 L
2834 1152 L
2835 1056 L
2836 1211 L
2836 1115 L
2837 1160 L
2838 1248 L
2839 1266 L
2840 1167 L
2840 1125 L
2841 1140 L
2842 1181 L
2843 1199 L
2843 1060 L
2844 1166 L
2845 1243 L
2846 1183 L
2846 1260 L
2847 950 L
2848 989 L
2849 1035 L
2849 1230 L
2850 1390 L
2851 1110 L
2852 1212 L
2852 1119 L
2853 1081 L
2854 1213 L
2855 1132 L
2855 1182 L
2856 1112 L
2857 1236 L
2857 1015 L
2858 1159 L
2859 1124 L
2860 1040 L
2860 1180 L
2861 1219 L
2862 1173 L
2862 1371 L
2863 1156 L
2864 1060 L
2865 1259 L
2865 1159 L
2866 1065 L
2867 1133 L
2867 1243 L
2868 1088 L
2869 1111 L
2869 1181 L
2870 1174 L
2871 1166 L
2871 1264 L
2872 1067 L
2873 1309 L
2873 1063 L
2874 1250 L
2875 1232 L
2876 1157 L
2876 1054 L
2877 1078 L
2878 1083 L
2878 1078 L
2879 1142 L
2880 1047 L
2880 1305 L
2881 1157 L
2881 1224 L
2882 1252 L
2883 1229 L
2883 1253 L
2884 1225 L
2885 1165 L
2885 1178 L
2886 1171 L
2887 1146 L
2887 1083 L
2888 1036 L
2889 1149 L
2889 1174 L
2892 1223 L
2894 1208 L
2897 1286 L
2899 1155 L
2902 1158 L
2904 1068 L
2907 1023 L
2909 1259 L
2911 1232 L
2914 1208 L
2916 1290 L
2918 1209 L
2921 1148 L
2923 1150 L
2925 1308 L
2927 1125 L
2929 1153 L
2932 1166 L
2934 1140 L
2936 1181 L
2938 1207 L
2940 1215 L
2942 961 L
2944 1152 L
2946 1108 L
2948 1177 L
2950 1086 L
2952 1162 L
2954 1171 L
2956 1246 L
2958 1173 L
2960 1246 L
2962 1064 L
2964 1174 L
2966 1090 L
2968 1095 L
2970 1152 L
2971 1156 L
2973 1255 L
2975 1154 L
2977 1169 L
2979 1167 L
2980 1277 L
2982 1162 L
2984 1180 L
2986 1181 L
2987 1029 L
2989 1244 L
2991 1224 L
2993 1314 L
2994 1027 L
2996 1346 L
2998 1142 L
2999 1005 L
3001 1120 L
3003 1207 L
3004 1138 L
3006 1136 L
3007 1121 L
3009 1298 L
3011 1171 L
3012 1182 L
3014 1141 L
3015 1081 L
3017 1217 L
3018 1258 L
3020 1221 L
3021 1170 L
3023 1172 L
3024 1150 L
3026 1258 L
3027 1034 L
3029 1116 L
3030 1085 L
3032 1181 L
3033 1289 L
3035 1202 L
3036 1163 L
3038 1162 L
3039 1141 L
3040 1299 L
3042 1159 L
3043 1102 L
3045 1137 L
3046 1139 L
3047 1147 L
3049 1216 L
3050 1216 L
3051 1227 L
3053 1244 L
3054 1130 L
3055 1196 L
3057 1232 L
3058 1088 L
3059 1164 L
3061 1085 L
3062 1152 L
3063 1083 L
3065 1190 L
3066 1326 L
3067 1177 L
3068 1142 L
3070 1163 L
3071 1333 L
3072 1200 L
3073 1192 L
3075 1131 L
3076 1193 L
3077 1148 L
3078 1271 L
3079 1236 L
3081 1053 L
3082 1181 L
3083 1284 L
3084 1136 L
3085 1242 L
3087 1138 L
3088 1120 L
3089 1228 L
3090 1263 L
3091 1285 L
3092 1092 L
3094 1197 L
3095 1094 L
3096 1142 L
3097 1090 L
3098 1224 L
3099 1297 L
3100 1114 L
3101 1233 L
3103 1219 L
3104 1053 L
3105 1156 L
3106 1225 L
3107 1193 L
3108 1129 L
3109 1233 L
3110 1051 L
3111 1309 L
3112 1314 L
3113 1251 L
3114 1399 L
3115 1110 L
3116 1203 L
3117 1278 L
3119 1271 L
3120 1043 L
3121 1192 L
3122 1163 L
3123 1294 L
3124 1246 L
3125 1150 L
3126 1207 L
3127 1240 L
3128 1198 L
3129 1179 L
3130 1242 L
3131 1154 L
3132 1131 L
3133 1115 L
3134 1169 L
3135 1322 L
3136 1114 L
3136 1171 L
3137 1088 L
3138 1182 L
3139 1142 L
3140 1142 L
3141 1107 L
3142 1217 L
3143 1291 L
3144 1143 L
3145 1193 L
3146 1143 L
3147 1196 L
3148 1284 L
3149 1406 L
3150 1169 L
3151 1132 L
3151 1243 L
3152 1208 L
3153 1172 L
3154 1098 L
3155 1086 L
3156 1363 L
3157 1225 L
3158 1436 L
3159 1262 L
3160 1235 L
3160 1293 L
3161 1261 L
3162 1217 L
3163 1167 L
3164 1178 L
3165 1223 L
3166 1142 L
3166 1172 L
3167 1365 L
3168 1147 L
3169 1222 L
3170 1128 L
3171 1072 L
3172 1246 L
3172 1149 L
3173 1191 L
3174 1172 L
3175 1205 L
3176 1223 L
3177 1220 L
3177 1238 L
3178 1333 L
3179 1150 L
3180 1048 L
3181 1243 L
3181 1141 L
3182 1271 L
3183 1266 L
3184 1193 L
3185 1270 L
3185 1276 L
3186 1131 L
3187 1046 L
3188 1109 L
3189 1285 L
3189 1232 L
3190 1059 L
3191 1221 L
3192 1196 L
3193 1170 L
3193 1122 L
3194 1165 L
3195 1102 L
3196 1131 L
3196 1194 L
3197 1161 L
3198 1285 L
3199 1243 L
3199 1271 L
3200 1281 L
3201 1210 L
3202 1225 L
3202 1243 L
3203 1431 L
3204 1183 L
3205 1211 L
3205 1393 L
3206 1302 L
3207 1150 L
3208 1278 L
3208 1182 L
3209 1127 L
3210 1247 L
3210 1213 L
3211 1226 L
3212 1265 L
3213 1138 L
3213 1292 L
3214 1322 L
3215 1368 L
3215 1189 L
3216 1241 L
3217 1140 L
3218 1248 L
3218 1215 L
3219 1284 L
3220 1202 L
3220 1276 L
3221 1372 L
3222 1248 L
3222 1069 L
3223 1337 L
3224 1226 L
3224 1250 L
3225 1230 L
3226 1293 L
3227 1394 L
3227 1128 L
3228 1189 L
3229 1310 L
3229 1117 L
3230 1255 L
3231 1179 L
3231 1281 L
3232 1141 L
3233 1394 L
3233 1155 L
3234 1171 L
3235 1179 L
3235 1222 L
3236 1259 L
3236 1193 L
3237 1154 L
3238 1172 L
3238 1242 L
3239 1314 L
3240 1162 L
3240 1281 L
3241 1317 L
3242 1350 L
3242 1257 L
3243 1211 L
3244 1181 L
3244 1273 L
3245 1130 L
3245 1084 L
3246 1311 L
3247 1221 L
3247 1237 L
3248 1154 L
3249 1290 L
3249 1294 L
3250 1318 L
3250 1213 L
3251 1300 L
3252 1288 L
3252 1395 L
3253 1061 L
3253 1210 L
3254 1212 L
3255 1269 L
3255 1034 L
3256 1243 L
3257 1252 L
3257 1083 L
3258 1215 L
3258 1257 L
3259 1184 L
3259 1062 L
3260 1339 L
3261 1314 L
3261 1141 L
3262 1343 L
3262 1100 L
3263 1184 L
3264 1106 L
3264 1281 L
3265 1290 L
3265 1214 L
3266 1301 L
3267 1197 L
3267 1204 L
3268 1172 L
3268 1335 L
3269 1195 L
3269 1152 L
3270 1150 L
3271 1250 L
3271 1343 L
3272 1303 L
3272 1265 L
3273 1195 L
3273 1227 L
3274 1262 L
3275 1346 L
3275 1193 L
3276 1235 L
3276 1159 L
3277 1191 L
3277 1220 L
3278 1233 L
3278 1263 L
3279 1265 L
3280 1189 L
3280 1221 L
3281 1193 L
3281 1184 L
3282 1208 L
3282 1210 L
3283 1116 L
3283 1101 L
3284 1238 L
3284 1381 L
3285 1180 L
3285 1166 L
3286 1375 L
3287 1270 L
3287 1228 L
3288 1279 L
3288 1156 L
3289 1213 L
3289 1097 L
3290 1205 L
3290 1193 L
3291 1243 L
3291 1181 L
3292 1219 L
3292 1215 L
3293 1210 L
3293 1287 L
3294 1281 L
3294 1183 L
3295 1305 L
3295 1393 L
3296 1303 L
3297 1038 L
3297 1160 L
3298 1162 L
3298 1089 L
3299 1138 L
3299 1272 L
3300 1242 L
3300 1222 L
3301 1044 L
3301 1312 L
3302 1308 L
3302 1163 L
3303 1244 L
3303 1252 L
3304 1216 L
3304 1241 L
3305 1210 L
3305 1285 L
3306 1253 L
3306 1199 L
3307 1198 L
3307 1214 L
3308 1184 L
3308 1151 L
3309 1288 L
3309 1245 L
3310 1321 L
3310 1351 L
3311 1158 L
3311 1203 L
3312 1188 L
3312 1214 L
3312 1323 L
3313 1138 L
3313 1252 L
3314 1201 L
3314 1189 L
3315 1060 L
3315 1107 L
3316 1335 L
3316 1182 L
3317 1219 L
3317 1175 L
3318 1250 L
3318 1228 L
3319 1228 L
3319 1221 L
3320 1214 L
3320 1282 L
3321 1114 L
3321 1260 L
3321 1478 L
3322 1311 L
3322 1196 L
3323 1185 L
3323 1240 L
3324 1205 L
3324 1116 L
3325 1242 L
3325 1334 L
3326 1152 L
3326 1207 L
3327 1214 L
3327 1180 L
3327 1184 L
3328 1229 L
3328 1194 L
3329 1098 L
3329 1113 L
3330 1198 L
3330 1304 L
3331 1248 L
3331 1273 L
3332 1265 L
3332 1142 L
3332 1245 L
3333 1306 L
3333 1207 L
3334 1156 L
3334 966 L
3335 1166 L
3335 1148 L
3336 1142 L
3336 1300 L
3336 1161 L
3337 1240 L
3337 1223 L
3338 1297 L
3338 1218 L
3339 1156 L
3339 1121 L
3339 1229 L
3340 1276 L
3340 1325 L
3341 1233 L
3341 1266 L
3342 1175 L
3342 1215 L
3343 1209 L
3343 1107 L
3343 1240 L
3344 1229 L
3344 1183 L
3345 1295 L
3345 1119 L
3346 1163 L
3346 1126 L
3346 1222 L
3347 1221 L
3347 1249 L
3348 1311 L
3348 1174 L
3348 1166 L
3349 1199 L
3349 1302 L
3350 1196 L
3350 1189 L
3351 1139 L
3351 1217 L
3351 1221 L
3352 1226 L
3352 1174 L
3353 1317 L
3353 1124 L
3353 1186 L
3354 1167 L
3354 1270 L
3355 1160 L
3355 1176 L
3355 1160 L
3356 1121 L
3356 1081 L
3357 1302 L
3357 1239 L
3358 1163 L
3358 1149 L
3358 1261 L
3359 1301 L
3359 1131 L
3360 1142 L
3360 1185 L
3360 1120 L
3361 1086 L
3361 1142 L
3362 1273 L
3362 1133 L
3362 1210 L
3363 1114 L
3363 1202 L
3364 1134 L
3364 1424 L
3364 1252 L
3365 1119 L
3365 1289 L
3365 1229 L
3366 1275 L
3366 1234 L
3367 1177 L
3367 1239 L
3367 1459 L
3368 1157 L
3368 1267 L
3369 1149 L
3369 1189 L
3369 1257 L
3370 1279 L
3370 1306 L
3371 1369 L
3371 1189 L
3371 1097 L
3372 1098 L
3372 1167 L
3372 1266 L
3373 1109 L
3373 1282 L
3374 1289 L
3374 1184 L
3374 1273 L
3375 1145 L
3375 1068 L
3375 1310 L
3376 1094 L
3376 1313 L
3377 1231 L
3377 1190 L
3377 1325 L
3378 1141 L
3378 1222 L
3378 1175 L
3379 1218 L
3379 1241 L
3380 1294 L
3380 1264 L
3380 1069 L
3381 1206 L
3381 1202 L
3381 1239 L
3382 1139 L
3382 1175 L
3383 1276 L
3383 1228 L
3383 1197 L
3384 1152 L
3384 1168 L
3384 1112 L
3385 1162 L
3385 1113 L
3385 1382 L
3386 1235 L
3386 1376 L
3387 1172 L
3387 1191 L
3387 1175 L
3388 1300 L
3388 1237 L
3388 1286 L
3389 1279 L
3389 1215 L
3389 1329 L
3390 1159 L
3390 1220 L
3391 1252 L
3391 1206 L
3391 1200 L
3392 1123 L
3392 1224 L
3392 1209 L
3393 1263 L
3393 1054 L
3393 1253 L
3394 1206 L
3394 1259 L
3394 1300 L
3395 1344 L
3395 1135 L
3395 1301 L
3396 1093 L
3396 1285 L
3396 1182 L
3397 1147 L
3397 1236 L
3398 1169 L
3398 1111 L
3398 1180 L
3399 1239 L
3399 1153 L
3399 1211 L
3400 1347 L
3400 1144 L
3400 1232 L
3401 1213 L
3401 1231 L
3401 1181 L
3402 1028 L
3402 1276 L
3402 1114 L
3403 1222 L
3403 1122 L
3403 1224 L
3404 1188 L
3404 1317 L
3404 1194 L
3405 1266 L
3405 1308 L
3405 1165 L
3406 1001 L
3406 1162 L
3406 1227 L
3407 1266 L
3407 1181 L
3407 1242 L
3408 1317 L
3408 1194 L
3408 1212 L
3409 1140 L
3409 1160 L
3409 1155 L
3410 1206 L
3410 1180 L
3410 1041 L
3411 1267 L
3411 1042 L
3411 1117 L
3412 1218 L
3412 1134 L
3412 1188 L
3413 1224 L
3413 1105 L
3413 1180 L
3414 1226 L
3414 1174 L
3414 1134 L
3415 1194 L
3415 1027 L
3415 1220 L
3416 1206 L
3416 1256 L
3416 1161 L
3417 1289 L
3417 1246 L
3417 1208 L
3417 1164 L
3418 1254 L
3418 1204 L
3418 1208 L
3419 1247 L
3419 1227 L
3419 1221 L
3420 1277 L
3420 996 L
3420 1292 L
3421 1180 L
3421 1263 L
3421 1245 L
3422 1177 L
3422 1102 L
3422 1211 L
3423 1299 L
3423 1077 L
3423 1179 L
3423 1177 L
3424 1144 L
3424 1332 L
3424 1230 L
3425 1246 L
3425 1159 L
3425 1166 L
3426 1268 L
3426 1243 L
3426 1238 L
3427 1217 L
3427 1150 L
3427 1256 L
3428 1059 L
3428 1255 L
3428 1079 L
3428 1239 L
3429 1150 L
3429 1279 L
3429 1293 L
3430 1245 L
3430 1176 L
3430 1234 L
3431 1257 L
3431 1235 L
3431 1212 L
3431 1357 L
3432 1283 L
3432 1234 L
3432 1105 L
3433 1121 L
3433 1163 L
3433 1077 L
3434 1192 L
3434 1220 L
3434 1240 L
3434 1183 L
3435 1191 L
3435 1117 L
3435 1155 L
3436 1137 L
3436 1131 L
3436 1060 L
3437 1208 L
3437 1135 L
3437 1211 L
3437 1196 L
3438 1109 L
3438 1191 L
3438 1261 L
3439 1144 L
3439 1085 L
3439 1222 L
3440 1188 L
3440 1152 L
3440 1135 L
3440 1105 L
3441 1185 L
3441 1165 L
3441 1218 L
3442 1217 L
3442 1210 L
3442 1090 L
3442 1173 L
3443 1122 L
3443 1247 L
3443 1119 L
3444 1262 L
3444 1181 L
3444 1004 L
3444 1277 L
3445 1236 L
3445 1211 L
3445 1195 L
3446 1150 L
3446 1124 L
3446 1113 L
3446 1219 L
3447 1240 L
3447 1163 L
3447 1207 L
3448 1096 L
3448 1372 L
3448 1172 L
3448 1125 L
3449 1265 L
3449 1119 L
3449 1106 L
3450 1332 L
3450 1198 L
3450 1156 L
3450 1091 L
3451 1243 L
3451 1284 L
3451 1222 L
3452 1260 L
3452 1118 L
3452 1131 L
3452 999 L
3453 1109 L
3453 1147 L
3453 1138 L
3454 1126 L
3454 1212 L
3454 1109 L
3454 1011 L
3455 1261 L
3455 1104 L
3455 1095 L
3455 1176 L
3456 1201 L
3456 1116 L
3456 1243 L
3457 1291 L
3457 1103 L
3457 1251 L
3457 1113 L
3458 1282 L
3458 1176 L
3458 1186 L
3458 1202 L
3459 1165 L
3459 1180 L
3459 1148 L
3460 1314 L
3460 1101 L
3460 1060 L
3460 1191 L
3461 1100 L
3461 1230 L
3461 1122 L
3461 1160 L
3462 1231 L
3462 1285 L
3462 1187 L
3463 1319 L
3463 1197 L
3463 1236 L
3463 1222 L
3464 1219 L
3464 1151 L
3464 1172 L
3464 1167 L
3465 1242 L
3465 1087 L
3465 1169 L
3465 1289 L
3466 1187 L
3466 1237 L
3466 1193 L
3466 1224 L
3467 1141 L
3467 1312 L
3467 1095 L
3468 1093 L
3468 1329 L
3468 1204 L
3468 1030 L
3469 1080 L
3469 1290 L
3469 1065 L
3469 1150 L
3470 1264 L
3470 1214 L
3470 1099 L
3470 1047 L
3471 1159 L
3471 1200 L
3471 1022 L
3471 1124 L
3472 1170 L
3472 1123 L
3472 1359 L
3472 1277 L
3473 1021 L
3473 1265 L
3473 1254 L
3474 1179 L
3474 1101 L
3474 1283 L
3474 1357 L
3475 1108 L
3475 1117 L
3475 1294 L
3475 1242 L
3476 1189 L
3476 1249 L
3476 1105 L
3476 1132 L
3477 1139 L
3477 1138 L
3477 1041 L
3477 1165 L
3478 1151 L
3478 1154 L
3478 1285 L
3478 1109 L
3479 1284 L
3479 1085 L
3479 1112 L
3479 1167 L
3480 1064 L
3480 1085 L
3480 1036 L
3480 1245 L
3481 1216 L
3481 1191 L
3481 1276 L
3481 1287 L
3482 1173 L
3482 1092 L
3482 1176 L
3482 1123 L
3483 1200 L
3483 1161 L
3483 1153 L
3483 1165 L
3484 1301 L
3484 1051 L
3484 1178 L
3484 992 L
3485 1166 L
3485 1229 L
3485 1101 L
3485 1161 L
3486 1136 L
3486 1303 L
3486 1152 L
3486 1240 L
3487 1160 L
3487 1079 L
3487 1198 L
3487 1216 L
3488 1123 L
3488 1127 L
3488 1302 L
3488 1166 L
3488 1207 L
3489 1188 L
3489 1278 L
3489 1243 L
3489 1221 L
3490 1265 L
3490 1204 L
3490 1172 L
3490 1357 L
3491 1135 L
3491 1274 L
3491 1267 L
3491 1196 L
3492 1111 L
3492 1143 L
3492 1224 L
3492 1249 L
3493 1236 L
3493 1134 L
3493 1126 L
3493 1115 L
3494 1140 L
3494 1101 L
3494 1282 L
3494 1216 L
3494 1278 L
3495 1179 L
3495 1138 L
3495 1231 L
3495 1103 L
3496 1207 L
3496 1244 L
3496 1071 L
3496 1238 L
3497 1141 L
3497 1248 L
3497 1186 L
3497 1277 L
3498 1107 L
3498 1144 L
3498 1217 L
3498 1301 L
3498 1297 L
3499 1022 L
3499 1212 L
3499 920 L
3499 1131 L
3500 1081 L
3500 1161 L
3506 1172 L
3511 1196 L
3517 1253 L
3522 1024 L
3527 1240 L
3532 1261 L
3537 1221 L
3542 1176 L
3547 1220 L
3552 935 L
3557 1130 L
3561 1267 L
3566 1191 L
3570 1270 L
3575 1317 L
3579 1200 L
3583 1109 L
3587 1132 L
3591 1136 L
3595 1178 L
3599 1219 L
3603 1154 L
3607 1212 L
3611 1207 L
3614 1207 L
3618 1120 L
3622 1283 L
3625 1256 L
3629 1057 L
3632 1125 L
3636 1205 L
3639 1257 L
3642 1000 L
3646 1204 L
3649 1222 L
3652 1158 L
3655 1257 L
3658 1052 L
3661 1208 L
3664 1141 L
3667 1145 L
3670 980 L
3673 1195 L
3676 921 L
3679 997 L
3682 1058 L
3685 1151 L
3688 984 L
3690 1140 L
3693 972 L
3696 1146 L
3698 1154 L
3701 1229 L
3704 1082 L
3706 1139 L
3709 1218 L
3711 1064 L
3714 1049 L
3716 1221 L
3719 1128 L
3721 1342 L
3724 1198 L
3726 1061 L
3728 1084 L
3731 1100 L
3733 1182 L
3735 1042 L
3738 1129 L
3740 1039 L
3742 1128 L
3744 1220 L
3747 1247 L
3749 1190 L
3751 1192 L
3753 1093 L
3755 1182 L
3757 1214 L
3760 1349 L
3762 1004 L
3764 1232 L
3766 1175 L
3768 1200 L
3770 1132 L
3772 1178 L
3774 1113 L
3776 1059 L
3778 1206 L
3780 1091 L
3781 1061 L
3783 1016 L
3785 1252 L
3787 1247 L
3789 1088 L
3791 1039 L
3793 1185 L
3795 1189 L
3796 1112 L
3798 1064 L
3800 1065 L
3802 1115 L
3803 1197 L
3805 1068 L
3807 1188 L
3809 1077 L
3810 1216 L
3812 1085 L
3814 1014 L
3816 950 L
3817 1090 L
3819 1274 L
3820 1117 L
3822 1060 L
3824 1109 L
3825 1226 L
3827 1121 L
3829 1117 L
3830 1117 L
3832 1072 L
3833 1112 L
3835 1046 L
3836 1065 L
3838 1230 L
3839 1062 L
3841 1273 L
3842 1075 L
3844 1176 L
3845 1038 L
3847 962 L
3848 1147 L
3850 1110 L
3851 981 L
3853 1230 L
3854 1158 L
3856 1115 L
3857 1161 L
3859 1064 L
3860 1046 L
3861 1103 L
3863 1005 L
3864 998 L
3866 1236 L
3867 1050 L
3868 1034 L
3870 1192 L
3871 944 L
3872 1291 L
3874 1231 L
3875 1137 L
3876 1044 L
3878 1125 L
3879 1068 L
3880 1166 L
3882 1143 L
3883 1114 L
3884 1094 L
3885 1069 L
3887 1185 L
3888 1112 L
3889 1054 L
3890 1282 L
3892 1191 L
3893 1222 L
3894 1200 L
3895 1191 L
3897 1180 L
3898 1282 L
3899 1133 L
3900 1320 L
3901 1127 L
3903 1126 L
3904 1192 L
3905 1041 L
3906 1252 L
3907 1194 L
3908 1084 L
3910 1128 L
3911 1027 L
3912 1137 L
3913 1122 L
3914 1100 L
3915 1054 L
3917 1066 L
3918 1141 L
3919 1086 L
3920 1152 L
3921 1159 L
3922 1047 L
3923 1159 L
3924 1283 L
3925 1301 L
3926 1243 L
3928 1063 L
3929 1266 L
3930 1148 L
3931 1196 L
3932 1069 L
3933 953 L
3934 1077 L
3935 1167 L
3936 1221 L
3937 1087 L
3938 1249 L
3939 1023 L
3940 1048 L
3941 1158 L
3942 1280 L
3943 1186 L
3944 1175 L
3945 1083 L
3946 1014 L
3947 1055 L
3948 1177 L
3949 966 L
3950 1087 L
3951 1169 L
3952 1085 L
3953 1295 L
3954 970 L
3955 1097 L
3956 1155 L
3957 925 L
3958 1157 L
3959 1167 L
3960 1164 L
3961 1034 L
3962 1037 L
3963 1078 L
3964 1070 L
3965 1127 L
3966 1110 L
3966 1075 L
3967 1158 L
3968 1049 L
3969 1142 L
3970 1218 L
3971 1060 L
3972 1048 L
3973 989 L
3974 1076 L
3975 1158 L
3976 1120 L
3976 1203 L
3977 1047 L
3978 1007 L
3979 1072 L
3980 1140 L
3981 1160 L
3982 1051 L
3983 1145 L
3983 1261 L
3984 905 L
3985 1203 L
3986 1006 L
3987 1118 L
3988 1055 L
3989 1232 L
3989 1238 L
3990 1130 L
3991 1229 L
3992 1108 L
3993 1035 L
3994 1144 L
3995 935 L
3995 1140 L
3996 1123 L
3997 997 L
3998 1154 L
3999 1061 L
3999 1046 L
4000 1286 L
4001 1157 L
4002 1138 L
4003 1017 L
4003 1269 L
4004 982 L
4005 1094 L
4006 1027 L
4007 1358 L
4007 1020 L
4008 1131 L
4009 1211 L
4010 997 L
4011 1190 L
4011 1048 L
4012 1106 L
4013 1129 L
4014 1099 L
4014 1013 L
4015 1186 L
4016 1082 L
4017 1218 L
4017 1352 L
4018 1151 L
4019 1223 L
4020 1088 L
4021 1095 L
4021 1084 L
4022 1150 L
4023 1209 L
4023 1076 L
4024 1271 L
4025 1127 L
4026 1002 L
4026 1144 L
4027 1037 L
4028 1262 L
4029 1065 L
4029 1088 L
4030 1038 L
4031 1013 L
4032 1224 L
4032 1095 L
4033 1091 L
4034 1081 L
4034 1116 L
4035 987 L
4036 1213 L
4036 1127 L
4037 1196 L
4038 1132 L
4039 1241 L
4039 1204 L
4040 1126 L
4041 1166 L
4041 1248 L
4042 1158 L
4043 1147 L
4043 991 L
4044 1053 L
4045 916 L
4045 1059 L
4046 935 L
4047 1097 L
4047 1057 L
4048 1143 L
4049 1042 L
4050 1005 L
4050 1165 L
4051 1172 L
4052 1146 L
4052 1102 L
4053 1210 L
4053 1167 L
4054 973 L
4055 1097 L
4055 1087 L
4056 1166 L
4057 1284 L
4057 1092 L
4058 1124 L
4059 1057 L
4059 1057 L
4060 1107 L
4061 1000 L
4061 1109 L
4062 1141 L
L2 C07 COSGR

%
% Main frame
%
L10
GSN 
620 1700 M
4220 1700 L
4220 5300 L
620 5300 L
closepath SGR

%
% X axis: large tics
%
L10
GSN 1130 1700 M 0  54 rL SGR
GSN 1130 5300 M 0 -54 rL SGR
helvS (0.0001) 1130 470 xlabel
GSN 1716 1700 M 0  54 rL SGR
GSN 1716 5300 M 0 -54 rL SGR
helvS (0.001) 1716 470 xlabel
GSN 2303 1700 M 0  54 rL SGR
GSN 2303 5300 M 0 -54 rL SGR
helvS (0.01) 2303 470 xlabel
GSN 2889 1700 M 0  54 rL SGR
GSN 2889 5300 M 0 -54 rL SGR
helvS (0.1) 2889 470 xlabel
GSN 3476 1700 M 0  54 rL SGR
GSN 3476 5300 M 0 -54 rL SGR
helvS (1) 3476 470 xlabel
GSN 4062 1700 M 0  54 rL SGR
GSN 4062 5300 M 0 -54 rL SGR
helvS (10) 4062 470 xlabel
%
% X axis: small tics
%
L5
GSN 720 1700 M 0  36 rL SGR
GSN 720 5300 M 0 -36 rL SGR
GSN 824 1700 M 0  36 rL SGR
GSN 824 5300 M 0 -36 rL SGR
GSN 897 1700 M 0  36 rL SGR
GSN 897 5300 M 0 -36 rL SGR
GSN 954 1700 M 0  36 rL SGR
GSN 954 5300 M 0 -36 rL SGR
GSN 1000 1700 M 0  36 rL SGR
GSN 1000 5300 M 0 -36 rL SGR
GSN 1039 1700 M 0  36 rL SGR
GSN 1039 5300 M 0 -36 rL SGR
GSN 1073 1700 M 0  36 rL SGR
GSN 1073 5300 M 0 -36 rL SGR
GSN 1103 1700 M 0  36 rL SGR
GSN 1103 5300 M 0 -36 rL SGR
GSN 1307 1700 M 0  36 rL SGR
GSN 1307 5300 M 0 -36 rL SGR
GSN 1410 1700 M 0  36 rL SGR
GSN 1410 5300 M 0 -36 rL SGR
GSN 1483 1700 M 0  36 rL SGR
GSN 1483 5300 M 0 -36 rL SGR
GSN 1540 1700 M 0  36 rL SGR
GSN 1540 5300 M 0 -36 rL SGR
GSN 1586 1700 M 0  36 rL SGR
GSN 1586 5300 M 0 -36 rL SGR
GSN 1626 1700 M 0  36 rL SGR
GSN 1626 5300 M 0 -36 rL SGR
GSN 1660 1700 M 0  36 rL SGR
GSN 1660 5300 M 0 -36 rL SGR
GSN 1690 1700 M 0  36 rL SGR
GSN 1690 5300 M 0 -36 rL SGR
GSN 1893 1700 M 0  36 rL SGR
GSN 1893 5300 M 0 -36 rL SGR
GSN 1996 1700 M 0  36 rL SGR
GSN 1996 5300 M 0 -36 rL SGR
GSN 2069 1700 M 0  36 rL SGR
GSN 2069 5300 M 0 -36 rL SGR
GSN 2126 1700 M 0  36 rL SGR
GSN 2126 5300 M 0 -36 rL SGR
GSN 2173 1700 M 0  36 rL SGR
GSN 2173 5300 M 0 -36 rL SGR
GSN 2212 1700 M 0  36 rL SGR
GSN 2212 5300 M 0 -36 rL SGR
GSN 2246 1700 M 0  36 rL SGR
GSN 2246 5300 M 0 -36 rL SGR
GSN 2276 1700 M 0  36 rL SGR
GSN 2276 5300 M 0 -36 rL SGR
GSN 2479 1700 M 0  36 rL SGR
GSN 2479 5300 M 0 -36 rL SGR
GSN 2583 1700 M 0  36 rL SGR
GSN 2583 5300 M 0 -36 rL SGR
GSN 2656 1700 M 0  36 rL SGR
GSN 2656 5300 M 0 -36 rL SGR
GSN 2713 1700 M 0  36 rL SGR
GSN 2713 5300 M 0 -36 rL SGR
GSN 2759 1700 M 0  36 rL SGR
GSN 2759 5300 M 0 -36 rL SGR
GSN 2798 1700 M 0  36 rL SGR
GSN 2798 5300 M 0 -36 rL SGR
GSN 2832 1700 M 0  36 rL SGR
GSN 2832 5300 M 0 -36 rL SGR
GSN 2862 1700 M 0  36 rL SGR
GSN 2862 5300 M 0 -36 rL SGR
GSN 3066 1700 M 0  36 rL SGR
GSN 3066 5300 M 0 -36 rL SGR
GSN 3169 1700 M 0  36 rL SGR
GSN 3169 5300 M 0 -36 rL SGR
GSN 3242 1700 M 0  36 rL SGR
GSN 3242 5300 M 0 -36 rL SGR
GSN 3299 1700 M 0  36 rL SGR
GSN 3299 5300 M 0 -36 rL SGR
GSN 3345 1700 M 0  36 rL SGR
GSN 3345 5300 M 0 -36 rL SGR
GSN 3385 1700 M 0  36 rL SGR
GSN 3385 5300 M 0 -36 rL SGR
GSN 3419 1700 M 0  36 rL SGR
GSN 3419 5300 M 0 -36 rL SGR
GSN 3449 1700 M 0  36 rL SGR
GSN 3449 5300 M 0 -36 rL SGR
GSN 3652 1700 M 0  36 rL SGR
GSN 3652 5300 M 0 -36 rL SGR
GSN 3755 1700 M 0  36 rL SGR
GSN 3755 5300 M 0 -36 rL SGR
GSN 3829 1700 M 0  36 rL SGR
GSN 3829 5300 M 0 -36 rL SGR
GSN 3885 1700 M 0  36 rL SGR
GSN 3885 5300 M 0 -36 rL SGR
GSN 3932 1700 M 0  36 rL SGR
GSN 3932 5300 M 0 -36 rL SGR
GSN 3971 1700 M 0  36 rL SGR
GSN 3971 5300 M 0 -36 rL SGR
GSN 4005 1700 M 0  36 rL SGR
GSN 4005 5300 M 0 -36 rL SGR
GSN 4035 1700 M 0  36 rL SGR
GSN 4035 5300 M 0 -36 rL SGR
%
% Y axis: large tics
%
L10
GSN 620 1967 M 54 0 rL SGR
GSN 4220 1967 M -54 0 rL SGR
helvS (0.88) 560 1967 ylabel
GSN 620 2741 M 54 0 rL SGR
GSN 4220 2741 M -54 0 rL SGR
helvS (0.9) 560 2741 ylabel
GSN 620 3514 M 54 0 rL SGR
GSN 4220 3514 M -54 0 rL SGR
helvS (0.92) 560 3514 ylabel
GSN 620 4287 M 54 0 rL SGR
GSN 4220 4287 M -54 0 rL SGR
helvS (0.94) 560 4287 ylabel
GSN 620 5060 M 54 0 rL SGR
GSN 4220 5060 M -54 0 rL SGR
helvS (0.96) 560 5060 ylabel
%
% Y axis: small tics
%
L5
GSN 620 1774 M 36 0 rL SGR
GSN 4220 1774 M -36 0 rL SGR
GSN 620 1967 M 36 0 rL SGR
GSN 4220 1967 M -36 0 rL SGR
GSN 620 2161 M 36 0 rL SGR
GSN 4220 2161 M -36 0 rL SGR
GSN 620 2354 M 36 0 rL SGR
GSN 4220 2354 M -36 0 rL SGR
GSN 620 2547 M 36 0 rL SGR
GSN 4220 2547 M -36 0 rL SGR
GSN 620 2741 M 36 0 rL SGR
GSN 4220 2741 M -36 0 rL SGR
GSN 620 2934 M 36 0 rL SGR
GSN 4220 2934 M -36 0 rL SGR
GSN 620 3127 M 36 0 rL SGR
GSN 4220 3127 M -36 0 rL SGR
GSN 620 3320 M 36 0 rL SGR
GSN 4220 3320 M -36 0 rL SGR
GSN 620 3514 M 36 0 rL SGR
GSN 4220 3514 M -36 0 rL SGR
GSN 620 3707 M 36 0 rL SGR
GSN 4220 3707 M -36 0 rL SGR
GSN 620 3900 M 36 0 rL SGR
GSN 4220 3900 M -36 0 rL SGR
GSN 620 4094 M 36 0 rL SGR
GSN 4220 4094 M -36 0 rL SGR
GSN 620 4287 M 36 0 rL SGR
GSN 4220 4287 M -36 0 rL SGR
GSN 620 4480 M 36 0 rL SGR
GSN 4220 4480 M -36 0 rL SGR
GSN 620 4673 M 36 0 rL SGR
GSN 4220 4673 M -36 0 rL SGR
GSN 620 4867 M 36 0 rL SGR
GSN 4220 4867 M -36 0 rL SGR
GSN 620 5060 M 36 0 rL SGR
GSN 4220 5060 M -36 0 rL SGR
GSN 620 5253 M 36 0 rL SGR
GSN 4220 5253 M -36 0 rL SGR

%
% X-Axis label:
%
gsave 2420 290 M 
[
[(Helvetica) 180 0 true true 0 (t)]
[(Helvetica) 180 0 true true 0 (i)]
[(Helvetica) 180 0 true true 0 (m)]
[(Helvetica) 180 0 true true 0 (e)]
] 0 MCshow grestore

%
% Y-Axis label:
%
gsave 234 3500 M 
currentpoint gsave translate 90 rotate 0 0 moveto
[
[(Helvetica) 180 0 true true 0 (s)]
[(Helvetica) 180 0 true true 0 (i)]
[(Helvetica) 180 0 true true 0 (g)]
[(Helvetica) 180 0 true true 0 (n)]
[(Helvetica) 180 0 true true 0 (a)]
[(Helvetica) 180 0 true true 0 (l)]
] 0 MCshow grestore

%
% Residuals:
%
gsave 129 1160 M 
currentpoint gsave translate 90 rotate 0 0 moveto
[
[(Helvetica) 150 0 true true 0 (r)]
[(Helvetica) 150 0 true true 0 (e)]
[(Helvetica) 150 0 true true 0 (s)]
[(Helvetica) 150 0 true true 0 (i)]
[(Helvetica) 150 0 true true 0 (d)]
[(Helvetica) 150 0 true true 0 (u)]
[(Helvetica) 150 0 true true 0 (a)]
[(Helvetica) 150 0 true true 0 (l)]
[(Helvetica) 150 0 true true 0 (s)]
] 0 MCshow grestore

%
% Residual frame
%
L10
GSN 
620 620 M
4220 620 L
4220 1700 L
620 1700 L
closepath SGR
%
% X axis: large tics - residual frame
%
L10
GSN 1130 620 M 0  54 rL SGR
GSN 1130 1700 M 0 -54 rL SGR
GSN 1716 620 M 0  54 rL SGR
GSN 1716 1700 M 0 -54 rL SGR
GSN 2303 620 M 0  54 rL SGR
GSN 2303 1700 M 0 -54 rL SGR
GSN 2889 620 M 0  54 rL SGR
GSN 2889 1700 M 0 -54 rL SGR
GSN 3476 620 M 0  54 rL SGR
GSN 3476 1700 M 0 -54 rL SGR
GSN 4062 620 M 0  54 rL SGR
GSN 4062 1700 M 0 -54 rL SGR
%
% X axis: small tics - residual frame
%
L5
GSN 720 620 M 0  36 rL SGR
GSN 720 1700 M 0 -36 rL SGR
GSN 824 620 M 0  36 rL SGR
GSN 824 1700 M 0 -36 rL SGR
GSN 897 620 M 0  36 rL SGR
GSN 897 1700 M 0 -36 rL SGR
GSN 954 620 M 0  36 rL SGR
GSN 954 1700 M 0 -36 rL SGR
GSN 1000 620 M 0  36 rL SGR
GSN 1000 1700 M 0 -36 rL SGR
GSN 1039 620 M 0  36 rL SGR
GSN 1039 1700 M 0 -36 rL SGR
GSN 1073 620 M 0  36 rL SGR
GSN 1073 1700 M 0 -36 rL SGR
GSN 1103 620 M 0  36 rL SGR
GSN 1103 1700 M 0 -36 rL SGR
GSN 1307 620 M 0  36 rL SGR
GSN 1307 1700 M 0 -36 rL SGR
GSN 1410 620 M 0  36 rL SGR
GSN 1410 1700 M 0 -36 rL SGR
GSN 1483 620 M 0  36 rL SGR
GSN 1483 1700 M 0 -36 rL SGR
GSN 1540 620 M 0  36 rL SGR
GSN 1540 1700 M 0 -36 rL SGR
GSN 1586 620 M 0  36 rL SGR
GSN 1586 1700 M 0 -36 rL SGR
GSN 1626 620 M 0  36 rL SGR
GSN 1626 1700 M 0 -36 rL SGR
GSN 1660 620 M 0  36 rL SGR
GSN 1660 1700 M 0 -36 rL SGR
GSN 1690 620 M 0  36 rL SGR
GSN 1690 1700 M 0 -36 rL SGR
GSN 1893 620 M 0  36 rL SGR
GSN 1893 1700 M 0 -36 rL SGR
GSN 1996 620 M 0  36 rL SGR
GSN 1996 1700 M 0 -36 rL SGR
GSN 2069 620 M 0  36 rL SGR
GSN 2069 1700 M 0 -36 rL SGR
GSN 2126 620 M 0  36 rL SGR
GSN 2126 1700 M 0 -36 rL SGR
GSN 2173 620 M 0  36 rL SGR
GSN 2173 1700 M 0 -36 rL SGR
GSN 2212 620 M 0  36 rL SGR
GSN 2212 1700 M 0 -36 rL SGR
GSN 2246 620 M 0  36 rL SGR
GSN 2246 1700 M 0 -36 rL SGR
GSN 2276 620 M 0  36 rL SGR
GSN 2276 1700 M 0 -36 rL SGR
GSN 2479 620 M 0  36 rL SGR
GSN 2479 1700 M 0 -36 rL SGR
GSN 2583 620 M 0  36 rL SGR
GSN 2583 1700 M 0 -36 rL SGR
GSN 2656 620 M 0  36 rL SGR
GSN 2656 1700 M 0 -36 rL SGR
GSN 2713 620 M 0  36 rL SGR
GSN 2713 1700 M 0 -36 rL SGR
GSN 2759 620 M 0  36 rL SGR
GSN 2759 1700 M 0 -36 rL SGR
GSN 2798 620 M 0  36 rL SGR
GSN 2798 1700 M 0 -36 rL SGR
GSN 2832 620 M 0  36 rL SGR
GSN 2832 1700 M 0 -36 rL SGR
GSN 2862 620 M 0  36 rL SGR
GSN 2862 1700 M 0 -36 rL SGR
GSN 3066 620 M 0  36 rL SGR
GSN 3066 1700 M 0 -36 rL SGR
GSN 3169 620 M 0  36 rL SGR
GSN 3169 1700 M 0 -36 rL SGR
GSN 3242 620 M 0  36 rL SGR
GSN 3242 1700 M 0 -36 rL SGR
GSN 3299 620 M 0  36 rL SGR
GSN 3299 1700 M 0 -36 rL SGR
GSN 3345 620 M 0  36 rL SGR
GSN 3345 1700 M 0 -36 rL SGR
GSN 3385 620 M 0  36 rL SGR
GSN 3385 1700 M 0 -36 rL SGR
GSN 3419 620 M 0  36 rL SGR
GSN 3419 1700 M 0 -36 rL SGR
GSN 3449 620 M 0  36 rL SGR
GSN 3449 1700 M 0 -36 rL SGR
GSN 3652 620 M 0  36 rL SGR
GSN 3652 1700 M 0 -36 rL SGR
GSN 3755 620 M 0  36 rL SGR
GSN 3755 1700 M 0 -36 rL SGR
GSN 3829 620 M 0  36 rL SGR
GSN 3829 1700 M 0 -36 rL SGR
GSN 3885 620 M 0  36 rL SGR
GSN 3885 1700 M 0 -36 rL SGR
GSN 3932 620 M 0  36 rL SGR
GSN 3932 1700 M 0 -36 rL SGR
GSN 3971 620 M 0  36 rL SGR
GSN 3971 1700 M 0 -36 rL SGR
GSN 4005 620 M 0  36 rL SGR
GSN 4005 1700 M 0 -36 rL SGR
GSN 4035 620 M 0  36 rL SGR
GSN 4035 1700 M 0 -36 rL SGR
%
% Y axis: large tics - residual frame
%
L10
GSN 620 858 M 54 0 rL SGR
GSN 4220 858 M -54 0 rL SGR
helvS (-0.01) 560 858 ylabelresid
GSN 620 1181 M 54 0 rL SGR
GSN 4220 1181 M -54 0 rL SGR
helvS (0) 560 1181 ylabelresid
GSN 620 1504 M 54 0 rL SGR
GSN 4220 1504 M -54 0 rL SGR
helvS (0.01) 560 1504 ylabelresid

%
% X axis - residual panel
%
GSN L5 620 1181 M 4220 1181 L SDA G50 SGR

end
showpage
%%Trailer
%%EOF
