%!PS-Adobe-3.0 EPSF-3.0
%%BoundingBox: 0 0 514 442
%%Creator: BioKin Ltd.
%%DocumentFonts: Symbol Helvetica
%%EndComments
%
/bkdict 256 dict def
bkdict begin
/M {moveto} def 
/R {rmoveto} def
/L {lineto} def
/rL {rlineto} def
/GSN {gsave newpath} def
/SGR {stroke grestore} def
/COSGR {gsave setrgbcolor stroke grestore grestore} def
/SL {setlinewidth} def
/LWMB {12} def             % line width - model curves, black & white
/LWMC {10} def             % line width - model curves, color
/L2 {2.5 setlinewidth} def
/L5 {5 setlinewidth} def
/L10 {10 setlinewidth} def
/G50 {0.5 setgray} def
/SDA {[10  20] 0 setdash} def % axes
/helvT {/Helvetica findfont 100 scalefont setfont} def % tiny
/helvS {/Helvetica findfont 125 scalefont setfont} def % small
/helvM {/Helvetica findfont 150 scalefont setfont} def % medium
/helvL {/Helvetica findfont 175 scalefont setfont} def % large
/xlabel {gsave M dup
   stringwidth exch -0.5 mul exch rmoveto show grestore} def 
/ylabel {gsave M 90 rotate dup
   stringwidth exch -0.5 mul exch rmoveto show grestore} def
/ylabelresid {gsave M dup
   stringwidth exch -1 mul exch rmoveto show grestore} def
% ======
% Shapes
% ======
% Circle:
/Circ {0 360 arc closepath} def
%
% Square:
/Squa {dup dup -0.5 mul dup dup R -2 mul 0 exch rL 1 mul 0 rL dup 0 exch -1 mul rL closepath} def
%
% Triangle Up:
/TriU {dup dup dup -0.4 mul exch -0.5 mul exch R dup 0.5 mul exch rL dup -1 mul exch 0.5 mul exch rL closepath} def 
%
% Triangle Down:
/TriD {dup dup dup 0.4 mul exch -0.5 mul exch R dup 0.5 mul exch -1 mul rL dup 0.5 mul exch rL closepath} def 
%
% Diamond:
/Diam {45 rotate Squa} def
% ======
% Fills
% ======
/GRF {gsave setgray fill grestore} def                    % gray-level Fill
/COF {gsave setrgbcolor fill grestore} def                % color fill
% ======
% Colors
% ======
/C01 {1.00	0.00	0.00} def      % Red
/C02 {0.00	0.00	1.00} def      % Blue
/C03 {0.00	0.39	0.00} def      % Dark Green
/C04 {0.78	0.08	0.52} def      % Medium Violet Red
/C05 {0.55	0.27	0.07} def      % Saddle Brown
/C06 {0.10	0.70	0.70} def      % (cyan)
/C07 {1.00	0.55	0.00} def      % Dark Orange
/C08 {0.63	0.13	0.94} def      % Purple
/C09 {0.00	0.75	1.00} def      % Deep Sky Blue
/C10 {0.20	0.80	0.20} def      % Lime Green
/C11 {0.47	0.53	0.60} def      % Light Slate Gray
/C12 {0.00	0.00	0.00} def      % Black            % or: {0.19	0.31	0.31} def      % Dark Slate Gray
%
/LGR {0.75} def % light gray
/DGR {0.33} def % dark gray
%
% =============
% Dash patterns
% =============
/dash01 { [80  20] 0 setdash } def
/dash02 { [40  20] 0 setdash } def
/dash03 { [80  20  10  20] 0 setdash } def
/dash04 { [40  20  10  20] 0 setdash } def
/dash05 { [80  20  10  10  10  20] 0 setdash } def
/dash06 { [40  20  10  10  10  20] 0 setdash } def
/dash07 { [10  10] 0 setdash } def
%
/MFshow {
   { dup 5 get 3 ge
     { 5 get 3 eq {gsave} {grestore} ifelse }
     {dup dup 0 get findfont exch 1 get scalefont setfont
     [ currentpoint ] exch dup 2 get 0 exch R dup 5 get 2 ne {dup dup 6
     get exch 4 get {show} {stringwidth pop 0 R} ifelse }if dup 5 get 0 eq
     {dup 3 get {2 get neg 0 exch R pop} {pop aload pop M} ifelse} {dup 5
     get 1 eq {dup 2 get exch dup 3 get exch 6 get stringwidth pop -2 div
     dup 0 R} {dup 6 get stringwidth pop -2 div 0 R 6 get
     show 2 index {aload pop M neg 3 -1 roll neg R pop pop} {pop pop pop
     pop aload pop M} ifelse }ifelse }ifelse }
     ifelse }
   forall} bind def
/MFwidth {0 exch {dup 3 get{dup dup 0 get findfont exch 1 get scalefont
     setfont 6 get stringwidth pop add} {pop} ifelse} forall} bind def
/MCshow { currentpoint stroke M
  exch dup MFwidth -2 div 3 -1 roll R MFshow } def
%
end
%%EndProlog
bkdict begin
0.1 0.1 scale
%
% Model curves:
%

GSN 753 3427 M
770 3427 L
803 3427 L
837 3427 L
870 3427 L
895 3427 L
911 3427 L
937 3427 L
970 3427 L
1003 3427 L
1037 3427 L
1053 3427 L
1070 3427 L
1103 3427 L
1137 3428 L
1170 3428 L
1195 3428 L
1211 3428 L
1237 3428 L
1270 3428 L
1303 3428 L
1337 3429 L
1353 3429 L
1370 3429 L
1403 3429 L
1437 3430 L
1470 3430 L
1495 3431 L
1512 3431 L
1537 3432 L
1570 3432 L
1603 3433 L
1637 3434 L
1653 3435 L
1670 3436 L
1703 3437 L
1737 3439 L
1770 3441 L
1795 3443 L
1812 3444 L
1837 3445 L
1870 3448 L
1903 3452 L
1937 3456 L
1953 3461 L
1971 3461 L
2003 3466 L
2037 3472 L
2070 3479 L
2095 3487 L
2112 3492 L
2137 3497 L
2170 3507 L
2203 3519 L
2237 3533 L
2253 3548 L
2271 3548 L
2303 3565 L
2337 3584 L
2370 3605 L
2395 3627 L
2412 3640 L
2437 3652 L
2470 3678 L
2503 3706 L
2537 3735 L
2553 3765 L
2571 3767 L
2603 3796 L
2637 3827 L
2670 3857 L
2695 3886 L
2712 3901 L
2737 3913 L
2770 3938 L
2803 3961 L
2837 3980 L
2854 3997 L
2871 3997 L
2903 4010 L
2937 4020 L
2970 4028 L
2995 4032 L
3012 4034 L
3037 4035 L
3061 4035 L
3077 4035 L
3103 4035 L
3137 4033 L
3154 4031 L
3171 4031 L
3203 4030 L
3237 4028 L
3270 4027 L
3296 4027 L
3312 4027 L
3337 4026 L
3370 4026 L
3403 4026 L
3437 4026 L
3454 4026 L
3471 4026 L
3503 4026 L
3537 4026 L
3570 4026 L
3596 4026 L
3612 4026 L
3637 4026 L
3670 4026 L
3703 4026 L
3737 4026 L
3754 4026 L
3771 4026 L
3803 4026 L
3837 4026 L
3870 4026 L
3896 4026 L
3912 4026 L
3937 4026 L
3970 4026 L
4003 4026 L
4037 4026 L
4070 4026 L
LWMC SL dash01 C01 COSGR

GSN 753 3036 M
770 3036 L
803 3036 L
837 3036 L
870 3036 L
895 3036 L
911 3036 L
937 3036 L
970 3036 L
1003 3036 L
1037 3036 L
1053 3037 L
1070 3037 L
1103 3037 L
1137 3037 L
1170 3037 L
1195 3037 L
1211 3038 L
1237 3038 L
1270 3038 L
1303 3039 L
1337 3039 L
1353 3040 L
1370 3040 L
1403 3040 L
1437 3041 L
1470 3042 L
1495 3043 L
1512 3044 L
1537 3045 L
1570 3046 L
1603 3048 L
1637 3050 L
1653 3053 L
1670 3053 L
1703 3055 L
1737 3059 L
1770 3063 L
1795 3067 L
1812 3070 L
1837 3072 L
1870 3078 L
1903 3085 L
1937 3093 L
1953 3102 L
1971 3102 L
2003 3112 L
2037 3124 L
2070 3138 L
2095 3154 L
2112 3163 L
2137 3171 L
2170 3191 L
2203 3214 L
2237 3239 L
2253 3268 L
2271 3269 L
2303 3299 L
2337 3333 L
2370 3370 L
2395 3411 L
2412 3433 L
2437 3454 L
2470 3499 L
2503 3546 L
2537 3594 L
2553 3643 L
2571 3645 L
2603 3692 L
2637 3739 L
2670 3785 L
2695 3827 L
2712 3849 L
2737 3867 L
2770 3902 L
2803 3933 L
2837 3960 L
2854 3981 L
2871 3982 L
2903 3999 L
2937 4012 L
2970 4021 L
2995 4028 L
3012 4030 L
3037 4031 L
3061 4032 L
3077 4033 L
3103 4032 L
3137 4031 L
3154 4030 L
3171 4030 L
3203 4029 L
3237 4028 L
3270 4027 L
3296 4027 L
3312 4026 L
3337 4026 L
3370 4026 L
3403 4026 L
3437 4026 L
3454 4026 L
3471 4026 L
3503 4026 L
3537 4026 L
3570 4026 L
3596 4026 L
3612 4026 L
3637 4026 L
3670 4026 L
3703 4026 L
3737 4026 L
3754 4026 L
3771 4026 L
3803 4026 L
3837 4026 L
3870 4026 L
3896 4026 L
3912 4026 L
3937 4026 L
3970 4026 L
4003 4026 L
4037 4026 L
4070 4026 L
LWMC SL dash02 C02 COSGR

GSN 753 2457 M
770 2457 L
803 2457 L
837 2457 L
870 2458 L
895 2458 L
911 2458 L
937 2458 L
970 2458 L
1003 2458 L
1037 2459 L
1053 2459 L
1070 2459 L
1103 2459 L
1137 2460 L
1170 2460 L
1195 2461 L
1211 2461 L
1237 2461 L
1270 2462 L
1303 2463 L
1337 2464 L
1353 2466 L
1370 2466 L
1403 2467 L
1437 2469 L
1470 2471 L
1495 2473 L
1512 2474 L
1537 2476 L
1570 2479 L
1603 2482 L
1637 2487 L
1653 2491 L
1670 2492 L
1703 2497 L
1737 2504 L
1770 2511 L
1795 2520 L
1812 2525 L
1837 2530 L
1870 2542 L
1903 2556 L
1937 2572 L
1953 2589 L
1971 2590 L
2003 2610 L
2037 2634 L
2070 2660 L
2095 2691 L
2112 2708 L
2137 2725 L
2170 2763 L
2203 2806 L
2237 2854 L
2253 2906 L
2271 2908 L
2303 2964 L
2337 3026 L
2370 3092 L
2395 3163 L
2412 3202 L
2437 3237 L
2470 3313 L
2503 3390 L
2537 3468 L
2553 3544 L
2571 3547 L
2603 3618 L
2637 3689 L
2670 3754 L
2695 3814 L
2712 3843 L
2737 3867 L
2770 3913 L
2803 3951 L
2837 3983 L
2854 4008 L
2871 4009 L
2903 4026 L
2937 4039 L
2970 4046 L
2995 4049 L
3012 4050 L
3037 4049 L
3061 4047 L
3077 4045 L
3103 4043 L
3137 4039 L
3154 4035 L
3171 4035 L
3203 4032 L
3237 4029 L
3270 4028 L
3296 4027 L
3312 4027 L
3337 4027 L
3370 4026 L
3403 4026 L
3437 4026 L
3454 4026 L
3471 4026 L
3503 4026 L
3537 4026 L
3570 4026 L
3596 4026 L
3612 4026 L
3637 4026 L
3670 4026 L
3703 4026 L
3737 4026 L
3754 4026 L
3771 4026 L
3803 4026 L
3837 4026 L
3870 4026 L
3896 4026 L
3912 4026 L
3937 4026 L
3970 4026 L
4003 4026 L
4037 4026 L
4070 4026 L
LWMC SL dash03 C03 COSGR

GSN 753 1845 M
770 1845 L
803 1845 L
837 1845 L
870 1846 L
895 1846 L
911 1846 L
937 1846 L
970 1846 L
1003 1847 L
1037 1847 L
1053 1848 L
1070 1848 L
1103 1848 L
1137 1849 L
1170 1850 L
1195 1851 L
1211 1851 L
1237 1852 L
1270 1853 L
1303 1855 L
1337 1857 L
1353 1859 L
1370 1859 L
1403 1861 L
1437 1864 L
1470 1868 L
1495 1871 L
1512 1874 L
1537 1876 L
1570 1881 L
1603 1887 L
1637 1894 L
1653 1903 L
1670 1903 L
1703 1912 L
1737 1923 L
1770 1936 L
1795 1951 L
1812 1959 L
1837 1968 L
1870 1987 L
1903 2010 L
1937 2036 L
1953 2066 L
1971 2066 L
2003 2100 L
2037 2138 L
2070 2182 L
2095 2231 L
2112 2260 L
2137 2286 L
2170 2348 L
2203 2416 L
2237 2491 L
2253 2573 L
2271 2576 L
2303 2662 L
2337 2757 L
2370 2857 L
2395 2961 L
2412 3018 L
2437 3069 L
2470 3178 L
2503 3287 L
2537 3394 L
2553 3497 L
2571 3500 L
2603 3594 L
2637 3684 L
2670 3765 L
2695 3837 L
2712 3872 L
2737 3899 L
2770 3950 L
2803 3991 L
2837 4022 L
2854 4044 L
2871 4045 L
2903 4058 L
2937 4064 L
2970 4066 L
2995 4063 L
3012 4060 L
3037 4058 L
3061 4051 L
3077 4048 L
3103 4045 L
3137 4039 L
3154 4035 L
3171 4035 L
3203 4031 L
3237 4029 L
3270 4028 L
3296 4027 L
3312 4027 L
3337 4026 L
3370 4026 L
3403 4026 L
3437 4026 L
3454 4026 L
3471 4026 L
3503 4026 L
3537 4026 L
3570 4026 L
3596 4026 L
3612 4026 L
3637 4026 L
3670 4026 L
3703 4026 L
3737 4026 L
3754 4026 L
3771 4026 L
3803 4026 L
3837 4026 L
3870 4026 L
3896 4026 L
3912 4026 L
3937 4026 L
3970 4026 L
4003 4026 L
4037 4026 L
4070 4026 L
LWMC SL dash04 C04 COSGR

GSN 753 1740 M
770 1740 L
803 1740 L
837 1740 L
870 1740 L
895 1741 L
911 1741 L
937 1741 L
970 1741 L
1003 1742 L
1037 1742 L
1053 1743 L
1070 1743 L
1103 1743 L
1137 1744 L
1170 1745 L
1195 1746 L
1211 1747 L
1237 1748 L
1270 1749 L
1303 1751 L
1337 1753 L
1353 1755 L
1370 1755 L
1403 1758 L
1437 1761 L
1470 1765 L
1495 1769 L
1512 1772 L
1537 1774 L
1570 1780 L
1603 1787 L
1637 1794 L
1653 1804 L
1670 1804 L
1703 1814 L
1737 1826 L
1770 1841 L
1795 1857 L
1812 1867 L
1837 1876 L
1870 1898 L
1903 1923 L
1937 1951 L
1953 1984 L
1971 1985 L
2003 2022 L
2037 2064 L
2070 2112 L
2095 2167 L
2112 2198 L
2137 2227 L
2170 2295 L
2203 2370 L
2237 2452 L
2253 2541 L
2271 2544 L
2303 2637 L
2337 2740 L
2370 2848 L
2395 2960 L
2412 3022 L
2437 3075 L
2470 3192 L
2503 3307 L
2537 3419 L
2553 3527 L
2571 3531 L
2603 3627 L
2637 3719 L
2670 3801 L
2695 3872 L
2712 3906 L
2737 3932 L
2770 3980 L
2803 4017 L
2837 4043 L
2854 4059 L
2871 4060 L
2903 4068 L
2937 4070 L
2970 4068 L
2995 4063 L
3012 4059 L
3037 4056 L
3061 4049 L
3077 4046 L
3103 4043 L
3137 4038 L
3154 4034 L
3171 4034 L
3203 4031 L
3237 4029 L
3270 4028 L
3296 4027 L
3312 4027 L
3337 4026 L
3370 4026 L
3403 4026 L
3437 4026 L
3454 4026 L
3471 4026 L
3503 4026 L
3537 4026 L
3570 4026 L
3596 4026 L
3612 4026 L
3637 4026 L
3670 4026 L
3703 4026 L
3737 4026 L
3754 4026 L
3771 4026 L
3803 4026 L
3837 4026 L
3870 4026 L
3896 4026 L
3912 4026 L
3937 4026 L
3970 4026 L
4003 4026 L
4037 4026 L
4070 4026 L
LWMC SL dash05 C05 COSGR

GSN 753 1435 M
770 1435 L
803 1435 L
837 1435 L
870 1436 L
895 1436 L
911 1436 L
937 1436 L
970 1437 L
1003 1437 L
1037 1438 L
1053 1439 L
1070 1439 L
1103 1440 L
1137 1441 L
1170 1442 L
1195 1443 L
1211 1444 L
1237 1445 L
1270 1446 L
1303 1449 L
1337 1451 L
1353 1454 L
1370 1454 L
1403 1457 L
1437 1461 L
1470 1466 L
1495 1471 L
1512 1474 L
1537 1477 L
1570 1484 L
1603 1492 L
1637 1502 L
1653 1513 L
1670 1513 L
1703 1526 L
1737 1541 L
1770 1558 L
1795 1578 L
1812 1590 L
1837 1601 L
1870 1628 L
1903 1658 L
1937 1693 L
1953 1733 L
1971 1734 L
2003 1778 L
2037 1829 L
2070 1888 L
2095 1953 L
2112 1990 L
2137 2026 L
2170 2106 L
2203 2196 L
2237 2293 L
2253 2398 L
2271 2402 L
2303 2511 L
2337 2631 L
2370 2757 L
2395 2886 L
2412 2957 L
2437 3018 L
2470 3150 L
2503 3280 L
2537 3405 L
2553 3524 L
2571 3528 L
2603 3633 L
2637 3732 L
2670 3819 L
2695 3892 L
2712 3927 L
2737 3953 L
2770 4000 L
2803 4034 L
2837 4057 L
2854 4070 L
2871 4071 L
2903 4076 L
2937 4075 L
2970 4071 L
2995 4064 L
3012 4060 L
3037 4057 L
3061 4050 L
3077 4047 L
3103 4043 L
3137 4038 L
3154 4034 L
3171 4034 L
3203 4031 L
3237 4029 L
3270 4027 L
3296 4027 L
3312 4027 L
3337 4026 L
3370 4026 L
3403 4026 L
3437 4026 L
3454 4026 L
3471 4026 L
3503 4026 L
3537 4026 L
3570 4026 L
3596 4026 L
3612 4026 L
3637 4026 L
3670 4026 L
3703 4026 L
3737 4026 L
3754 4026 L
3771 4026 L
3803 4026 L
3837 4026 L
3870 4026 L
3896 4026 L
3912 4026 L
3937 4026 L
3970 4026 L
4003 4026 L
4037 4026 L
4070 4026 L
LWMC SL dash06 C06 COSGR

GSN 753 753 M
770 753 L
803 753 L
837 754 L
870 754 L
895 755 L
911 755 L
937 755 L
970 756 L
1003 757 L
1037 758 L
1053 759 L
1070 759 L
1103 760 L
1137 762 L
1170 763 L
1195 765 L
1211 767 L
1237 768 L
1270 771 L
1303 774 L
1337 778 L
1353 782 L
1370 782 L
1403 787 L
1437 793 L
1470 800 L
1495 808 L
1512 813 L
1537 818 L
1570 829 L
1603 841 L
1637 856 L
1653 873 L
1670 874 L
1703 893 L
1737 916 L
1770 943 L
1795 973 L
1812 991 L
1837 1008 L
1870 1048 L
1903 1095 L
1937 1147 L
1953 1207 L
1971 1209 L
2003 1275 L
2037 1352 L
2070 1438 L
2095 1534 L
2112 1590 L
2137 1641 L
2170 1759 L
2203 1887 L
2237 2026 L
2253 2174 L
2271 2179 L
2303 2332 L
2337 2496 L
2370 2664 L
2395 2835 L
2412 2927 L
2437 3005 L
2470 3172 L
2503 3330 L
2537 3479 L
2553 3613 L
2571 3618 L
2603 3732 L
2637 3834 L
2670 3917 L
2695 3981 L
2712 4009 L
2737 4028 L
2770 4060 L
2803 4078 L
2837 4085 L
2854 4086 L
2871 4086 L
2903 4082 L
2937 4076 L
2970 4069 L
2995 4061 L
3012 4057 L
3037 4054 L
3061 4047 L
3077 4044 L
3103 4041 L
3137 4037 L
3154 4033 L
3171 4033 L
3203 4030 L
3237 4028 L
3270 4027 L
3296 4027 L
3312 4027 L
3337 4026 L
3370 4026 L
3403 4026 L
3437 4026 L
3454 4026 L
3471 4026 L
3503 4026 L
3537 4026 L
3570 4026 L
3596 4026 L
3612 4026 L
3637 4026 L
3670 4026 L
3703 4026 L
3737 4026 L
3754 4026 L
3771 4026 L
3803 4026 L
3837 4026 L
3870 4026 L
3896 4026 L
3912 4026 L
3937 4026 L
3970 4026 L
4003 4026 L
4037 4026 L
4070 4026 L
LWMC SL dash07 C07 COSGR

%
%================
% Legend - Begin
%================
%
GSN 4240 4040 M
4480 4040 L
LWMC SL dash01 C01 COSGR
GSN 4540 4001 M helvM (0.5 uM) show grestore
GSN 4240 3860 M
4480 3860 L
LWMC SL dash02 C02 COSGR
GSN 4540 3821 M helvM (1.0 uM) show grestore
GSN 4240 3680 M
4480 3680 L
LWMC SL dash03 C03 COSGR
GSN 4540 3641 M helvM (1.5 uM) show grestore
GSN 4240 3500 M
4480 3500 L
LWMC SL dash04 C04 COSGR
GSN 4540 3461 M helvM (2.0 uM) show grestore
GSN 4240 3320 M
4480 3320 L
LWMC SL dash05 C05 COSGR
GSN 4540 3281 M helvM (2.5 uM) show grestore
GSN 4240 3140 M
4480 3140 L
LWMC SL dash06 C06 COSGR
GSN 4540 3101 M helvM (3.0 uM) show grestore
GSN 4240 2960 M
4480 2960 L
LWMC SL dash07 C07 COSGR
GSN 4540 2921 M helvM (4.0 uM) show grestore
%
%================
% Legend - End
%================
%

%
% Main frame
%
L10
GSN 
620 620 M
4220 620 L
4220 4220 L
620 4220 L
closepath SGR

%
% X axis: large tics
%
L10
GSN 1074 620 M 0  54 rL SGR
GSN 1074 4220 M 0 -54 rL SGR
helvS (0.0001) 1074 470 xlabel
GSN 1572 620 M 0  54 rL SGR
GSN 1572 4220 M 0 -54 rL SGR
helvS (0.001) 1572 470 xlabel
GSN 2071 620 M 0  54 rL SGR
GSN 2071 4220 M 0 -54 rL SGR
helvS (0.01) 2071 470 xlabel
GSN 2570 620 M 0  54 rL SGR
GSN 2570 4220 M 0 -54 rL SGR
helvS (0.1) 2570 470 xlabel
GSN 3068 620 M 0  54 rL SGR
GSN 3068 4220 M 0 -54 rL SGR
helvS (1) 3068 470 xlabel
GSN 3567 620 M 0  54 rL SGR
GSN 3567 4220 M 0 -54 rL SGR
helvS (10) 3567 470 xlabel
GSN 4066 620 M 0  54 rL SGR
GSN 4066 4220 M 0 -54 rL SGR
helvS (100) 4066 470 xlabel
%
% X axis: small tics
%
L5
GSN 725 620 M 0  36 rL SGR
GSN 725 4220 M 0 -36 rL SGR
GSN 813 620 M 0  36 rL SGR
GSN 813 4220 M 0 -36 rL SGR
GSN 875 620 M 0  36 rL SGR
GSN 875 4220 M 0 -36 rL SGR
GSN 924 620 M 0  36 rL SGR
GSN 924 4220 M 0 -36 rL SGR
GSN 963 620 M 0  36 rL SGR
GSN 963 4220 M 0 -36 rL SGR
GSN 996 620 M 0  36 rL SGR
GSN 996 4220 M 0 -36 rL SGR
GSN 1025 620 M 0  36 rL SGR
GSN 1025 4220 M 0 -36 rL SGR
GSN 1051 620 M 0  36 rL SGR
GSN 1051 4220 M 0 -36 rL SGR
GSN 1224 620 M 0  36 rL SGR
GSN 1224 4220 M 0 -36 rL SGR
GSN 1312 620 M 0  36 rL SGR
GSN 1312 4220 M 0 -36 rL SGR
GSN 1374 620 M 0  36 rL SGR
GSN 1374 4220 M 0 -36 rL SGR
GSN 1422 620 M 0  36 rL SGR
GSN 1422 4220 M 0 -36 rL SGR
GSN 1462 620 M 0  36 rL SGR
GSN 1462 4220 M 0 -36 rL SGR
GSN 1495 620 M 0  36 rL SGR
GSN 1495 4220 M 0 -36 rL SGR
GSN 1524 620 M 0  36 rL SGR
GSN 1524 4220 M 0 -36 rL SGR
GSN 1550 620 M 0  36 rL SGR
GSN 1550 4220 M 0 -36 rL SGR
GSN 1722 620 M 0  36 rL SGR
GSN 1722 4220 M 0 -36 rL SGR
GSN 1810 620 M 0  36 rL SGR
GSN 1810 4220 M 0 -36 rL SGR
GSN 1873 620 M 0  36 rL SGR
GSN 1873 4220 M 0 -36 rL SGR
GSN 1921 620 M 0  36 rL SGR
GSN 1921 4220 M 0 -36 rL SGR
GSN 1960 620 M 0  36 rL SGR
GSN 1960 4220 M 0 -36 rL SGR
GSN 1994 620 M 0  36 rL SGR
GSN 1994 4220 M 0 -36 rL SGR
GSN 2023 620 M 0  36 rL SGR
GSN 2023 4220 M 0 -36 rL SGR
GSN 2048 620 M 0  36 rL SGR
GSN 2048 4220 M 0 -36 rL SGR
GSN 2221 620 M 0  36 rL SGR
GSN 2221 4220 M 0 -36 rL SGR
GSN 2309 620 M 0  36 rL SGR
GSN 2309 4220 M 0 -36 rL SGR
GSN 2371 620 M 0  36 rL SGR
GSN 2371 4220 M 0 -36 rL SGR
GSN 2420 620 M 0  36 rL SGR
GSN 2420 4220 M 0 -36 rL SGR
GSN 2459 620 M 0  36 rL SGR
GSN 2459 4220 M 0 -36 rL SGR
GSN 2492 620 M 0  36 rL SGR
GSN 2492 4220 M 0 -36 rL SGR
GSN 2521 620 M 0  36 rL SGR
GSN 2521 4220 M 0 -36 rL SGR
GSN 2547 620 M 0  36 rL SGR
GSN 2547 4220 M 0 -36 rL SGR
GSN 2720 620 M 0  36 rL SGR
GSN 2720 4220 M 0 -36 rL SGR
GSN 2808 620 M 0  36 rL SGR
GSN 2808 4220 M 0 -36 rL SGR
GSN 2870 620 M 0  36 rL SGR
GSN 2870 4220 M 0 -36 rL SGR
GSN 2918 620 M 0  36 rL SGR
GSN 2918 4220 M 0 -36 rL SGR
GSN 2958 620 M 0  36 rL SGR
GSN 2958 4220 M 0 -36 rL SGR
GSN 2991 620 M 0  36 rL SGR
GSN 2991 4220 M 0 -36 rL SGR
GSN 3020 620 M 0  36 rL SGR
GSN 3020 4220 M 0 -36 rL SGR
GSN 3045 620 M 0  36 rL SGR
GSN 3045 4220 M 0 -36 rL SGR
GSN 3218 620 M 0  36 rL SGR
GSN 3218 4220 M 0 -36 rL SGR
GSN 3306 620 M 0  36 rL SGR
GSN 3306 4220 M 0 -36 rL SGR
GSN 3368 620 M 0  36 rL SGR
GSN 3368 4220 M 0 -36 rL SGR
GSN 3417 620 M 0  36 rL SGR
GSN 3417 4220 M 0 -36 rL SGR
GSN 3456 620 M 0  36 rL SGR
GSN 3456 4220 M 0 -36 rL SGR
GSN 3490 620 M 0  36 rL SGR
GSN 3490 4220 M 0 -36 rL SGR
GSN 3519 620 M 0  36 rL SGR
GSN 3519 4220 M 0 -36 rL SGR
GSN 3544 620 M 0  36 rL SGR
GSN 3544 4220 M 0 -36 rL SGR
GSN 3717 620 M 0  36 rL SGR
GSN 3717 4220 M 0 -36 rL SGR
GSN 3805 620 M 0  36 rL SGR
GSN 3805 4220 M 0 -36 rL SGR
GSN 3867 620 M 0  36 rL SGR
GSN 3867 4220 M 0 -36 rL SGR
GSN 3915 620 M 0  36 rL SGR
GSN 3915 4220 M 0 -36 rL SGR
GSN 3955 620 M 0  36 rL SGR
GSN 3955 4220 M 0 -36 rL SGR
GSN 3988 620 M 0  36 rL SGR
GSN 3988 4220 M 0 -36 rL SGR
GSN 4017 620 M 0  36 rL SGR
GSN 4017 4220 M 0 -36 rL SGR
GSN 4043 620 M 0  36 rL SGR
GSN 4043 4220 M 0 -36 rL SGR
GSN 4216 620 M 0  36 rL SGR
GSN 4216 4220 M 0 -36 rL SGR
%
% Y axis: large tics
%
L10
GSN 620 1008 M 54 0 rL SGR
GSN 4220 1008 M -54 0 rL SGR
helvS (-1.5) 560 1008 ylabel
GSN 620 2014 M 54 0 rL SGR
GSN 4220 2014 M -54 0 rL SGR
helvS (-1) 560 2014 ylabel
GSN 620 3020 M 54 0 rL SGR
GSN 4220 3020 M -54 0 rL SGR
helvS (-0.5) 560 3020 ylabel
GSN 620 4026 M 54 0 rL SGR
GSN 4220 4026 M -54 0 rL SGR
helvS (0) 560 4026 ylabel
%
% Y axis: small tics
%
L5
GSN 620 807 M 36 0 rL SGR
GSN 4220 807 M -36 0 rL SGR
GSN 620 1008 M 36 0 rL SGR
GSN 4220 1008 M -36 0 rL SGR
GSN 620 1209 M 36 0 rL SGR
GSN 4220 1209 M -36 0 rL SGR
GSN 620 1410 M 36 0 rL SGR
GSN 4220 1410 M -36 0 rL SGR
GSN 620 1612 M 36 0 rL SGR
GSN 4220 1612 M -36 0 rL SGR
GSN 620 1813 M 36 0 rL SGR
GSN 4220 1813 M -36 0 rL SGR
GSN 620 2014 M 36 0 rL SGR
GSN 4220 2014 M -36 0 rL SGR
GSN 620 2215 M 36 0 rL SGR
GSN 4220 2215 M -36 0 rL SGR
GSN 620 2416 M 36 0 rL SGR
GSN 4220 2416 M -36 0 rL SGR
GSN 620 2618 M 36 0 rL SGR
GSN 4220 2618 M -36 0 rL SGR
GSN 620 2819 M 36 0 rL SGR
GSN 4220 2819 M -36 0 rL SGR
GSN 620 3020 M 36 0 rL SGR
GSN 4220 3020 M -36 0 rL SGR
GSN 620 3221 M 36 0 rL SGR
GSN 4220 3221 M -36 0 rL SGR
GSN 620 3423 M 36 0 rL SGR
GSN 4220 3423 M -36 0 rL SGR
GSN 620 3624 M 36 0 rL SGR
GSN 4220 3624 M -36 0 rL SGR
GSN 620 3825 M 36 0 rL SGR
GSN 4220 3825 M -36 0 rL SGR
GSN 620 4026 M 36 0 rL SGR
GSN 4220 4026 M -36 0 rL SGR

%
% X axis
%
GSN L5 620 4026 M 4220 4026 L SDA G50 SGR

%
% X-Axis label:
%
gsave 2420 290 M 
[
[(Helvetica) 180 0 true true 0 (t)]
[(Helvetica) 180 0 true true 0 (i)]
[(Helvetica) 180 0 true true 0 (m)]
[(Helvetica) 180 0 true true 0 (e)]
] 0 MCshow grestore

%
% Y-Axis label:
%
gsave 234 2420 M 
currentpoint gsave translate 90 rotate 0 0 moveto
[
[(Helvetica) 180 0 true true 0 (d)]
[(Helvetica) 180 0 true true 0 (\()]
[(Helvetica) 180 0 true true 0 (s)]
[(Helvetica) 180 0 true true 0 (i)]
[(Helvetica) 180 0 true true 0 (g)]
[(Helvetica) 180 0 true true 0 (n)]
[(Helvetica) 180 0 true true 0 (a)]
[(Helvetica) 180 0 true true 0 (l)]
[(Helvetica) 180 0 true true 0 (\))]
[(Helvetica) 180 0 true true 0 ( )]
[(Helvetica) 180 0 true true 0 (/)]
[(Helvetica) 180 0 true true 0 ( )]
[(Helvetica) 180 0 true true 0 (d)]
[(Helvetica) 180 0 true true 0 (t)]
] 0 MCshow grestore

end
showpage
%%Trailer
%%EOF
