%!PS-Adobe-3.0 EPSF-3.0
%%BoundingBox: 0 0 514 550
%%Creator: BioKin Ltd.
%%DocumentFonts: Symbol Helvetica
%%EndComments
%
/bkdict 256 dict def
bkdict begin
/M {moveto} def 
/R {rmoveto} def
/L {lineto} def
/rL {rlineto} def
/GSN {gsave newpath} def
/SGR {stroke grestore} def
/COSGR {gsave setrgbcolor stroke grestore grestore} def
/SL {setlinewidth} def
/LWMB {12} def             % line width - model curves, black & white
/LWMC {10} def             % line width - model curves, color
/L2 {2.5 setlinewidth} def
/L5 {5 setlinewidth} def
/L10 {10 setlinewidth} def
/G50 {0.5 setgray} def
/SDA {[10  20] 0 setdash} def % axes
/helvT {/Helvetica findfont 100 scalefont setfont} def % tiny
/helvS {/Helvetica findfont 125 scalefont setfont} def % small
/helvM {/Helvetica findfont 150 scalefont setfont} def % medium
/helvL {/Helvetica findfont 175 scalefont setfont} def % large
/xlabel {gsave M dup
   stringwidth exch -0.5 mul exch rmoveto show grestore} def 
/ylabel {gsave M 90 rotate dup
   stringwidth exch -0.5 mul exch rmoveto show grestore} def
/ylabelresid {gsave M dup
   stringwidth exch -1 mul exch rmoveto show grestore} def
% ======
% Shapes
% ======
% Circle:
/Circ {0 360 arc closepath} def
%
% Square:
/Squa {dup dup -0.5 mul dup dup R -2 mul 0 exch rL 1 mul 0 rL dup 0 exch -1 mul rL closepath} def
%
% Triangle Up:
/TriU {dup dup dup -0.4 mul exch -0.5 mul exch R dup 0.5 mul exch rL dup -1 mul exch 0.5 mul exch rL closepath} def 
%
% Triangle Down:
/TriD {dup dup dup 0.4 mul exch -0.5 mul exch R dup 0.5 mul exch -1 mul rL dup 0.5 mul exch rL closepath} def 
%
% Diamond:
/Diam {45 rotate Squa} def
% ======
% Fills
% ======
/GRF {gsave setgray fill grestore} def                    % gray-level Fill
/COF {gsave setrgbcolor fill grestore} def                % color fill
% ======
% Colors
% ======
/C01 {1.00	0.00	0.00} def      % Red
/C02 {0.00	0.00	1.00} def      % Blue
/C03 {0.00	0.39	0.00} def      % Dark Green
/C04 {0.78	0.08	0.52} def      % Medium Violet Red
/C05 {0.55	0.27	0.07} def      % Saddle Brown
/C06 {0.10	0.70	0.70} def      % (cyan)
/C07 {1.00	0.55	0.00} def      % Dark Orange
/C08 {0.63	0.13	0.94} def      % Purple
/C09 {0.00	0.75	1.00} def      % Deep Sky Blue
/C10 {0.20	0.80	0.20} def      % Lime Green
/C11 {0.47	0.53	0.60} def      % Light Slate Gray
/C12 {0.00	0.00	0.00} def      % Black            % or: {0.19	0.31	0.31} def      % Dark Slate Gray
%
/LGR {0.75} def % light gray
/DGR {0.33} def % dark gray
%
% =============
% Dash patterns
% =============
/dash01 { [80  20] 0 setdash } def
/dash02 { [40  20] 0 setdash } def
/dash03 { [80  20  10  20] 0 setdash } def
/dash04 { [40  20  10  20] 0 setdash } def
/dash05 { [80  20  10  10  10  20] 0 setdash } def
/dash06 { [40  20  10  10  10  20] 0 setdash } def
/dash07 { [10  10] 0 setdash } def
%
/MFshow {
   { dup 5 get 3 ge
     { 5 get 3 eq {gsave} {grestore} ifelse }
     {dup dup 0 get findfont exch 1 get scalefont setfont
     [ currentpoint ] exch dup 2 get 0 exch R dup 5 get 2 ne {dup dup 6
     get exch 4 get {show} {stringwidth pop 0 R} ifelse }if dup 5 get 0 eq
     {dup 3 get {2 get neg 0 exch R pop} {pop aload pop M} ifelse} {dup 5
     get 1 eq {dup 2 get exch dup 3 get exch 6 get stringwidth pop -2 div
     dup 0 R} {dup 6 get stringwidth pop -2 div 0 R 6 get
     show 2 index {aload pop M neg 3 -1 roll neg R pop pop} {pop pop pop
     pop aload pop M} ifelse }ifelse }ifelse }
     ifelse }
   forall} bind def
/MFwidth {0 exch {dup 3 get{dup dup 0 get findfont exch 1 get scalefont
     setfont 6 get stringwidth pop add} {pop} ifelse} forall} bind def
/MCshow { currentpoint stroke M
  exch dup MFwidth -2 div 3 -1 roll R MFshow } def
%
end
%%EndProlog
bkdict begin
0.1 0.1 scale
%
% Residuals:
%
GSN 620 3690 M
620 3612 L
620 3643 L
620 3881 L
620 3453 L
620 3165 L
620 3194 L
620 3103 L
620 3059 L
620 3156 L
620 3327 L
620 3462 L
620 3844 L
620 4038 L
620 3420 L
620 4068 L
620 3782 L
620 3491 L
620 3452 L
620 3513 L
620 4027 L
620 3608 L
620 3476 L
620 4202 L
620 4081 L
620 3702 L
620 3366 L
620 3204 L
620 3691 L
620 3766 L
620 3671 L
620 3875 L
620 3576 L
620 3572 L
620 3956 L
620 3524 L
620 3681 L
620 3542 L
620 3981 L
620 3816 L
620 3564 L
620 3265 L
620 3487 L
620 3384 L
620 3490 L
620 3599 L
620 3733 L
620 3700 L
620 3924 L
620 3457 L
620 3501 L
620 3682 L
620 3813 L
620 3642 L
620 3325 L
620 3848 L
620 3719 L
620 4182 L
620 3764 L
620 3464 L
620 3469 L
620 3847 L
620 3733 L
620 3670 L
620 4010 L
620 3797 L
620 4286 L
620 3800 L
620 3603 L
620 3927 L
620 3840 L
620 3623 L
620 3698 L
620 3898 L
620 3796 L
620 3645 L
620 3452 L
620 3577 L
620 3823 L
620 3955 L
620 3623 L
620 3714 L
620 4155 L
620 3753 L
620 4019 L
620 3743 L
620 3919 L
620 3620 L
620 4084 L
620 3927 L
620 3615 L
620 3947 L
620 4130 L
620 3908 L
620 4016 L
620 3833 L
620 3923 L
620 3659 L
620 3318 L
620 3733 L
620 3719 L
620 3857 L
620 3810 L
620 3616 L
620 3417 L
620 3754 L
620 3881 L
620 3826 L
620 3688 L
620 3831 L
620 3938 L
620 3571 L
620 3554 L
620 4282 L
620 4152 L
620 4062 L
620 3850 L
620 3492 L
620 4609 L
620 3785 L
620 3564 L
620 3949 L
620 4166 L
620 3937 L
620 3765 L
620 3894 L
620 3737 L
620 3990 L
620 3825 L
620 3854 L
620 4323 L
620 3519 L
620 3733 L
620 3839 L
620 4001 L
620 3936 L
620 3542 L
620 3688 L
620 3928 L
620 4015 L
620 4033 L
620 4141 L
620 4055 L
620 3593 L
620 3729 L
620 3981 L
620 4014 L
620 3874 L
620 4180 L
620 3834 L
620 3928 L
620 3821 L
620 4078 L
620 3770 L
620 4125 L
620 3954 L
620 3269 L
620 3974 L
620 3785 L
620 4031 L
620 3741 L
620 4054 L
620 3759 L
620 3486 L
620 3763 L
620 4205 L
620 4164 L
620 3747 L
620 3957 L
620 4118 L
620 4098 L
620 3738 L
620 4011 L
620 4032 L
620 3801 L
620 4051 L
620 3977 L
620 3936 L
620 3944 L
620 3844 L
620 3821 L
620 4064 L
620 3845 L
620 3935 L
620 3342 L
620 4252 L
620 4071 L
620 3765 L
620 3703 L
620 4138 L
620 4231 L
620 3942 L
620 4230 L
620 3876 L
620 3830 L
620 3909 L
620 3723 L
620 4153 L
620 3908 L
620 4124 L
620 3989 L
620 4076 L
620 4194 L
620 3825 L
620 3855 L
620 4027 L
620 4302 L
620 3991 L
620 3779 L
620 4244 L
620 4114 L
620 3846 L
620 4020 L
620 3773 L
620 3963 L
620 3787 L
620 4190 L
620 3892 L
620 4120 L
620 3696 L
620 3713 L
620 4050 L
620 3867 L
620 3783 L
620 3592 L
620 4266 L
620 3728 L
620 4060 L
620 3849 L
620 4463 L
620 3974 L
620 4013 L
620 4058 L
620 3853 L
620 4450 L
620 3785 L
620 3967 L
620 4043 L
620 3823 L
620 4080 L
620 3893 L
620 4008 L
620 4359 L
620 4138 L
620 4074 L
620 4171 L
620 3730 L
620 4446 L
620 4534 L
620 4184 L
620 3586 L
620 4185 L
620 3976 L
620 3958 L
620 4282 L
620 3716 L
620 4117 L
620 3890 L
620 4323 L
620 3990 L
620 4012 L
620 4178 L
620 3707 L
620 4179 L
620 4229 L
620 4139 L
620 3927 L
620 4133 L
620 3744 L
620 3939 L
620 3824 L
620 4025 L
620 3655 L
620 4339 L
620 4072 L
620 4165 L
620 4044 L
620 4033 L
620 3777 L
620 4409 L
620 4162 L
620 4478 L
620 4142 L
620 4471 L
620 4196 L
620 4052 L
620 3855 L
620 4195 L
620 3886 L
620 4118 L
620 3754 L
620 4227 L
620 4276 L
620 3990 L
620 3976 L
620 4221 L
620 3878 L
620 3818 L
620 3583 L
620 4111 L
620 4459 L
620 3906 L
620 4193 L
620 4280 L
620 4070 L
620 4221 L
620 3620 L
620 4020 L
620 4474 L
620 3938 L
620 3774 L
620 4014 L
620 4051 L
620 4791 L
620 3981 L
620 3584 L
620 3962 L
620 3863 L
620 4024 L
620 3775 L
620 4045 L
620 3834 L
620 4011 L
620 4262 L
620 3882 L
620 3880 L
620 3737 L
620 4109 L
620 3833 L
620 3774 L
620 3880 L
620 3834 L
620 4007 L
620 4335 L
620 3878 L
620 3985 L
620 3927 L
620 3597 L
620 3993 L
620 3696 L
620 4094 L
620 4549 L
620 3722 L
620 3824 L
620 4271 L
620 3667 L
620 4032 L
620 4079 L
620 4146 L
620 4228 L
620 4429 L
620 3956 L
620 4123 L
620 4015 L
620 3904 L
620 3972 L
620 4076 L
620 3752 L
620 3854 L
620 3769 L
620 3903 L
620 3732 L
620 4317 L
620 3760 L
620 4518 L
620 3880 L
620 3630 L
620 3903 L
620 4097 L
620 4299 L
620 4149 L
620 4013 L
620 4380 L
620 4071 L
620 3907 L
620 3655 L
620 3987 L
620 4350 L
620 3811 L
620 4075 L
620 4416 L
620 3935 L
620 3892 L
620 3868 L
620 4232 L
620 4167 L
620 3836 L
620 4086 L
620 3860 L
620 3980 L
620 4338 L
620 4015 L
620 4268 L
620 4388 L
620 3759 L
620 3864 L
620 4410 L
620 4294 L
620 3891 L
620 4077 L
620 4055 L
620 4497 L
620 4244 L
620 4098 L
620 4379 L
620 3923 L
620 4386 L
620 4370 L
620 3656 L
620 3866 L
620 3924 L
620 4044 L
620 3828 L
620 4340 L
620 3813 L
620 3801 L
620 3903 L
620 3889 L
620 3912 L
620 4017 L
620 3730 L
620 4023 L
620 4000 L
620 3953 L
620 4014 L
620 3747 L
620 4086 L
620 3960 L
620 3705 L
620 3791 L
620 3808 L
620 3946 L
620 3428 L
620 3924 L
620 4075 L
620 4090 L
620 3910 L
620 4056 L
620 3924 L
620 3834 L
620 3600 L
620 3545 L
620 3842 L
620 3611 L
620 4025 L
620 3665 L
620 3853 L
620 3816 L
620 4113 L
620 3838 L
620 4070 L
620 3706 L
620 3987 L
620 3886 L
620 3705 L
620 3739 L
620 3341 L
620 4023 L
620 3545 L
620 3709 L
620 3800 L
620 3708 L
620 3603 L
620 3392 L
620 3867 L
620 3694 L
620 3490 L
620 3559 L
620 3393 L
620 3810 L
620 3666 L
620 3672 L
620 3560 L
620 3254 L
620 3738 L
620 3757 L
620 3747 L
620 3553 L
620 3620 L
620 3987 L
620 3172 L
620 3901 L
620 3406 L
620 3693 L
620 3714 L
620 3687 L
620 3399 L
620 3978 L
620 3642 L
620 3843 L
620 3548 L
620 3226 L
620 3468 L
620 3491 L
620 3646 L
620 3456 L
620 3478 L
620 3362 L
620 3084 L
620 3311 L
620 3565 L
620 3475 L
620 3243 L
620 3584 L
620 3529 L
620 3473 L
620 3802 L
620 3167 L
620 3343 L
620 3682 L
620 3044 L
620 3527 L
620 3659 L
620 3574 L
620 3571 L
620 3244 L
620 3577 L
620 3342 L
620 3610 L
620 2733 L
620 3734 L
620 3319 L
620 3177 L
620 3403 L
620 3184 L
620 3212 L
620 3406 L
620 3449 L
620 3452 L
620 3307 L
620 3449 L
620 3349 L
620 3205 L
620 3551 L
620 3163 L
620 3720 L
620 3223 L
620 3060 L
620 3507 L
620 3303 L
620 3271 L
620 3511 L
620 3665 L
620 3276 L
620 3343 L
620 3326 L
620 3188 L
620 3293 L
620 2908 L
620 3288 L
620 3018 L
620 2872 L
620 3068 L
620 3198 L
620 3070 L
620 2908 L
620 3349 L
620 3220 L
620 2815 L
620 3293 L
620 3099 L
620 3732 L
620 3075 L
620 3069 L
620 2924 L
620 3008 L
620 3162 L
620 3511 L
620 3465 L
620 3310 L
620 3088 L
620 3255 L
620 3144 L
620 3347 L
620 3033 L
620 3036 L
620 3557 L
620 2973 L
620 3093 L
620 3124 L
620 3159 L
620 3386 L
620 3220 L
620 2892 L
620 3050 L
620 3045 L
620 3214 L
620 3292 L
620 3016 L
620 3014 L
620 3032 L
620 2871 L
620 2987 L
620 3097 L
620 3193 L
620 3256 L
620 2905 L
620 3094 L
620 3037 L
620 2907 L
620 2851 L
620 2876 L
620 3019 L
620 3187 L
620 3302 L
620 3015 L
620 3384 L
620 3107 L
620 3463 L
620 2938 L
620 3064 L
620 3183 L
620 3513 L
620 3201 L
620 2662 L
620 3019 L
620 3216 L
620 2914 L
620 3132 L
620 3125 L
620 2808 L
620 3086 L
620 3044 L
620 3089 L
620 3318 L
620 2943 L
620 2993 L
620 3348 L
620 3195 L
620 2975 L
620 3337 L
620 3038 L
620 2953 L
620 3031 L
620 2870 L
620 3031 L
620 2976 L
620 2612 L
620 3216 L
620 3049 L
620 3111 L
620 2944 L
620 3349 L
620 2982 L
620 2711 L
620 2809 L
620 2728 L
620 2903 L
620 3374 L
620 2933 L
620 3161 L
620 3247 L
620 3244 L
620 2621 L
620 2834 L
620 3122 L
620 3338 L
620 3075 L
620 3086 L
620 3206 L
620 2888 L
620 2989 L
620 3328 L
620 3182 L
620 2981 L
620 2731 L
620 3339 L
620 3064 L
620 3710 L
620 3175 L
620 3631 L
620 3193 L
620 3541 L
620 2649 L
620 2984 L
620 3115 L
620 2897 L
620 3380 L
620 2756 L
620 3287 L
620 2857 L
620 3164 L
620 3111 L
620 2726 L
620 3261 L
620 2703 L
620 3252 L
620 2928 L
620 3387 L
620 3023 L
620 3086 L
620 3122 L
620 3037 L
620 2836 L
620 3049 L
620 3272 L
620 3089 L
620 3041 L
620 3181 L
620 2943 L
620 2868 L
620 2694 L
620 3155 L
620 2881 L
620 3298 L
620 2966 L
620 3072 L
620 3050 L
620 2595 L
620 2944 L
620 3472 L
620 3154 L
620 2805 L
620 2969 L
620 3171 L
620 3093 L
620 3142 L
620 2941 L
620 2914 L
620 3115 L
620 3169 L
620 3183 L
620 2710 L
620 3411 L
620 2880 L
620 3270 L
620 3021 L
620 3586 L
620 2805 L
620 3244 L
620 3034 L
620 2958 L
620 3003 L
620 3224 L
620 3352 L
620 3309 L
620 3157 L
620 3091 L
620 3367 L
620 2801 L
620 2864 L
620 3172 L
620 2867 L
620 3190 L
620 3352 L
620 3009 L
620 3237 L
620 2920 L
620 3132 L
620 2906 L
620 3302 L
620 2987 L
620 3267 L
620 3164 L
620 3291 L
620 3179 L
620 3036 L
620 2882 L
620 3359 L
620 3333 L
620 3245 L
620 2924 L
620 3058 L
620 3330 L
620 3359 L
620 2999 L
620 3186 L
620 3168 L
620 3167 L
620 3123 L
620 3317 L
620 2999 L
620 3182 L
620 3168 L
620 3042 L
620 3565 L
620 2976 L
620 3252 L
620 3282 L
620 3334 L
620 3080 L
620 3108 L
620 3194 L
620 3509 L
620 2887 L
620 3445 L
620 2995 L
620 3232 L
620 3411 L
620 2920 L
620 2993 L
620 3286 L
620 3171 L
620 3254 L
620 3155 L
620 3072 L
620 3267 L
620 3042 L
620 3386 L
620 3242 L
620 3334 L
620 2891 L
620 3049 L
620 3106 L
620 3142 L
620 2925 L
620 3068 L
620 2747 L
620 3492 L
620 3005 L
620 3411 L
620 3428 L
620 3049 L
620 2925 L
620 3388 L
620 3497 L
620 3223 L
620 2989 L
620 3032 L
620 3128 L
620 3255 L
620 3049 L
620 3525 L
620 3097 L
620 3235 L
620 3263 L
620 3477 L
620 2768 L
620 3600 L
620 3024 L
620 3110 L
620 3420 L
620 2953 L
620 3128 L
620 3195 L
620 3436 L
620 3305 L
620 3680 L
620 2952 L
620 3132 L
620 3298 L
620 2947 L
620 3240 L
620 3186 L
620 3148 L
620 2810 L
620 3157 L
620 3207 L
620 3173 L
620 3182 L
620 3124 L
620 3692 L
620 3196 L
620 3404 L
620 3488 L
620 3551 L
620 3456 L
620 3093 L
620 3379 L
620 3716 L
620 3333 L
620 3077 L
620 3414 L
620 2949 L
620 3382 L
620 3031 L
620 3348 L
620 3345 L
620 3690 L
620 3207 L
620 3048 L
620 3342 L
620 3949 L
620 3011 L
620 2840 L
620 3387 L
620 3213 L
620 3259 L
620 3228 L
620 3083 L
620 3459 L
620 2882 L
620 3571 L
620 3050 L
620 3624 L
620 2981 L
620 3575 L
620 3294 L
620 3055 L
620 3378 L
620 3389 L
620 3505 L
620 3200 L
620 3355 L
620 3312 L
620 3074 L
620 3378 L
620 3097 L
620 3023 L
620 3311 L
620 3238 L
620 3030 L
620 3397 L
620 3524 L
620 3299 L
620 3254 L
620 3453 L
620 3435 L
620 3025 L
620 3411 L
620 2901 L
620 3197 L
620 3132 L
620 3432 L
620 3476 L
620 3624 L
620 3135 L
620 3106 L
620 3285 L
620 3261 L
620 3258 L
620 3127 L
620 3160 L
620 3315 L
620 3518 L
620 3286 L
620 3380 L
620 3235 L
620 3372 L
620 3221 L
620 3883 L
620 3259 L
620 3472 L
620 3555 L
620 3215 L
620 3537 L
620 3241 L
620 3891 L
620 3292 L
620 3386 L
620 3623 L
620 3260 L
620 2827 L
620 3456 L
620 3254 L
620 3633 L
620 3492 L
620 2867 L
620 3505 L
620 3650 L
620 3615 L
620 3578 L
620 3302 L
620 3328 L
620 3340 L
620 3295 L
620 3708 L
620 3194 L
620 3553 L
620 3500 L
620 3363 L
620 3495 L
620 3387 L
620 3542 L
620 3472 L
620 3414 L
620 3267 L
620 3238 L
620 2823 L
620 3269 L
620 2805 L
620 3454 L
620 2913 L
620 3539 L
620 3572 L
620 3202 L
620 3523 L
620 3217 L
620 3422 L
620 4128 L
620 3570 L
620 3335 L
620 2935 L
620 3434 L
620 3238 L
620 3595 L
620 3276 L
620 3289 L
620 3450 L
620 3811 L
620 3203 L
620 3484 L
620 3430 L
620 3141 L
620 3395 L
620 3232 L
620 3679 L
620 3214 L
620 4067 L
620 3298 L
620 3606 L
620 3592 L
620 3492 L
620 3287 L
620 3774 L
620 3394 L
620 3479 L
620 3785 L
620 3114 L
620 3349 L
620 3503 L
620 3335 L
620 3621 L
620 3319 L
620 3276 L
620 3734 L
620 3340 L
620 3543 L
620 3278 L
620 3497 L
620 3332 L
620 3715 L
620 3279 L
620 3750 L
620 3594 L
620 3533 L
620 3104 L
620 3240 L
620 3349 L
620 3183 L
620 3380 L
620 3652 L
620 3296 L
620 3380 L
620 3283 L
620 3465 L
620 3484 L
620 3295 L
620 3437 L
620 3335 L
620 3383 L
620 3299 L
620 3366 L
620 3357 L
620 3304 L
620 3686 L
620 3211 L
620 3542 L
620 3800 L
620 3574 L
620 3773 L
620 3587 L
620 3480 L
620 3733 L
620 3602 L
620 3749 L
620 3854 L
620 3776 L
620 3288 L
620 3513 L
620 3420 L
620 3317 L
620 3456 L
620 3493 L
620 3479 L
620 3542 L
620 3569 L
620 3534 L
620 3673 L
620 3732 L
620 3305 L
620 3653 L
620 3248 L
620 3418 L
620 3762 L
620 3768 L
620 3355 L
620 3559 L
620 3882 L
620 3786 L
620 3368 L
620 3671 L
620 3370 L
620 3379 L
620 3688 L
620 3563 L
620 3532 L
620 3460 L
620 3049 L
620 3644 L
620 3849 L
620 3324 L
620 3706 L
620 3236 L
620 3599 L
620 3569 L
620 3451 L
620 3629 L
620 3735 L
620 3637 L
620 3672 L
620 3453 L
620 3200 L
620 3584 L
620 4199 L
620 3733 L
620 3605 L
620 3450 L
620 3589 L
620 3391 L
620 3527 L
620 3554 L
620 3893 L
620 3394 L
620 3746 L
620 3419 L
620 3794 L
620 3789 L
620 3724 L
620 3848 L
620 3547 L
620 3536 L
620 3472 L
620 3362 L
620 3719 L
620 3860 L
620 3365 L
620 3663 L
620 3461 L
620 4536 L
620 3783 L
620 3410 L
620 3339 L
620 3557 L
620 4064 L
620 3663 L
620 3586 L
620 3507 L
620 3722 L
620 3388 L
620 3865 L
620 3788 L
620 3585 L
620 3547 L
620 3490 L
620 3637 L
620 3781 L
620 3470 L
620 3605 L
620 3866 L
620 3363 L
620 4002 L
620 3806 L
620 3946 L
620 3884 L
620 3648 L
620 3601 L
620 3701 L
620 3579 L
620 3676 L
620 3460 L
620 3550 L
620 3835 L
620 3818 L
620 3841 L
620 3738 L
620 3758 L
620 4008 L
620 4035 L
620 3482 L
620 3600 L
620 3797 L
620 3803 L
620 3442 L
620 3508 L
620 3733 L
620 4046 L
620 3959 L
620 4284 L
620 3938 L
620 3780 L
620 3695 L
620 3701 L
620 3685 L
620 3560 L
620 3944 L
620 3166 L
620 4213 L
620 3578 L
620 3455 L
620 3639 L
620 4019 L
620 3434 L
620 3711 L
620 3530 L
620 3713 L
620 3831 L
620 3900 L
620 3819 L
620 3598 L
620 3871 L
620 4016 L
620 3995 L
620 3293 L
620 3477 L
620 3564 L
620 3785 L
620 3338 L
620 3530 L
620 3609 L
620 3864 L
620 3727 L
620 3642 L
620 3748 L
620 3347 L
620 3707 L
620 3558 L
620 3919 L
620 3781 L
620 3822 L
620 3729 L
620 3993 L
620 3622 L
620 3788 L
620 3677 L
620 3442 L
620 3801 L
620 3947 L
620 3466 L
620 3646 L
620 3298 L
620 3799 L
620 3467 L
620 3804 L
620 3715 L
620 4069 L
620 3688 L
620 4025 L
620 3669 L
620 3976 L
620 3983 L
620 3557 L
620 3579 L
620 3629 L
620 3856 L
620 3933 L
620 3479 L
620 3749 L
620 3807 L
620 3718 L
620 3860 L
620 3499 L
620 3573 L
620 3830 L
620 3740 L
620 3554 L
620 3671 L
620 3831 L
620 4105 L
620 3476 L
620 4006 L
620 3650 L
620 3669 L
620 3935 L
620 3868 L
620 3540 L
620 3736 L
620 3731 L
620 3928 L
620 3955 L
620 3872 L
620 3804 L
620 3982 L
620 4024 L
620 4024 L
620 3949 L
620 3707 L
620 3861 L
620 3639 L
620 3981 L
620 4039 L
620 3895 L
620 4230 L
620 3834 L
620 4135 L
620 4135 L
620 3859 L
620 3690 L
620 4019 L
620 3912 L
620 3907 L
620 3518 L
620 4196 L
620 3761 L
620 3921 L
620 3808 L
620 3473 L
620 3867 L
620 3731 L
620 3844 L
620 3823 L
620 4004 L
620 3623 L
620 3701 L
620 3704 L
620 3620 L
620 3899 L
620 3846 L
620 3792 L
620 3955 L
620 3911 L
620 3680 L
620 3776 L
620 3821 L
620 3921 L
620 3894 L
620 3856 L
620 3969 L
620 3757 L
620 3874 L
620 4019 L
620 3788 L
620 4106 L
620 4151 L
620 3999 L
620 3924 L
620 3800 L
620 4040 L
620 4078 L
620 4061 L
620 4119 L
620 3740 L
620 3950 L
620 3820 L
620 3660 L
620 3601 L
620 3914 L
620 3743 L
620 3832 L
620 3456 L
620 4062 L
620 3603 L
620 3559 L
620 3849 L
620 3958 L
620 3618 L
620 3766 L
620 3754 L
620 4008 L
620 4017 L
620 4139 L
620 3654 L
620 4195 L
620 3841 L
620 3666 L
620 3542 L
620 4180 L
620 3944 L
620 4094 L
620 3626 L
620 3660 L
620 4359 L
620 4199 L
620 3522 L
620 3804 L
620 3532 L
620 3821 L
620 3999 L
620 3732 L
620 4005 L
620 4069 L
620 3933 L
620 3818 L
620 3790 L
620 3824 L
620 3635 L
620 3922 L
620 3535 L
620 3859 L
620 3947 L
620 4013 L
620 3740 L
620 3658 L
620 3709 L
620 4402 L
620 3497 L
620 4041 L
620 3907 L
620 3910 L
620 4027 L
620 3943 L
620 4157 L
620 3879 L
620 3702 L
620 4012 L
620 4178 L
620 4220 L
620 3990 L
620 4306 L
620 3800 L
620 3912 L
620 4189 L
620 3747 L
620 4055 L
620 4152 L
620 4307 L
620 4019 L
620 4147 L
620 4158 L
620 3994 L
620 4285 L
620 4140 L
620 3945 L
620 4100 L
620 4478 L
620 4400 L
620 4237 L
620 4606 L
620 4588 L
620 4679 L
620 4090 L
620 4282 L
620 4223 L
620 4167 L
620 4272 L
620 4008 L
620 4419 L
620 4197 L
620 3970 L
620 3995 L
620 4462 L
620 4658 L
620 4339 L
620 4128 L
620 4212 L
620 4369 L
620 4503 L
620 4371 L
620 4863 L
620 4077 L
620 3717 L
620 4199 L
620 4062 L
620 4296 L
620 4313 L
620 4113 L
620 4223 L
620 4526 L
620 3921 L
620 4371 L
620 4165 L
620 4104 L
620 4446 L
620 3897 L
620 3897 L
620 4083 L
620 4138 L
620 4292 L
620 4302 L
620 4246 L
620 4280 L
620 3888 L
620 4479 L
620 3543 L
620 4357 L
620 4477 L
620 4243 L
620 4045 L
620 4242 L
620 4299 L
620 4182 L
620 4403 L
620 4162 L
620 4699 L
620 4132 L
620 4194 L
620 4539 L
620 4291 L
620 4270 L
620 4769 L
620 4186 L
620 4272 L
620 3864 L
620 4123 L
620 4154 L
620 4222 L
620 4170 L
620 4371 L
620 4086 L
620 4063 L
620 4182 L
620 3890 L
620 4260 L
620 4012 L
620 4162 L
620 4242 L
620 4089 L
620 3915 L
620 3716 L
620 4364 L
620 4106 L
620 3988 L
620 4077 L
620 4291 L
620 4256 L
620 3706 L
620 3817 L
620 4336 L
620 4197 L
620 3669 L
620 3730 L
620 3597 L
620 4127 L
620 4153 L
620 3906 L
620 3784 L
620 4332 L
620 3978 L
620 4188 L
620 3985 L
620 3812 L
620 4028 L
620 3819 L
620 4106 L
620 4446 L
620 4237 L
620 3764 L
620 4072 L
620 4345 L
620 3870 L
620 3867 L
620 4330 L
620 3588 L
620 4020 L
620 3634 L
620 4100 L
620 3998 L
620 4171 L
620 3975 L
620 3899 L
620 3924 L
620 3841 L
620 3793 L
620 3929 L
620 3751 L
620 4210 L
620 4184 L
620 4005 L
620 3567 L
620 4626 L
620 4088 L
620 3726 L
620 4129 L
620 3548 L
620 3692 L
620 3845 L
620 4197 L
620 3888 L
620 3895 L
620 3868 L
620 4118 L
620 4168 L
620 4191 L
620 3766 L
620 3728 L
620 3704 L
620 3930 L
620 3869 L
620 3680 L
620 4018 L
620 4103 L
620 3790 L
620 3818 L
620 3361 L
620 3521 L
620 3654 L
620 3184 L
620 3838 L
620 3594 L
620 3876 L
620 4072 L
620 3271 L
620 3467 L
620 3068 L
620 3843 L
620 3661 L
620 3926 L
620 3593 L
620 3826 L
620 4088 L
620 3889 L
620 3810 L
620 3887 L
620 3734 L
620 3662 L
620 3882 L
620 3647 L
620 3418 L
620 3308 L
620 3891 L
620 3534 L
620 3855 L
620 3609 L
620 3961 L
620 3400 L
620 3568 L
620 3830 L
620 3788 L
620 3618 L
620 4198 L
620 3592 L
620 3186 L
620 3370 L
620 3363 L
620 4014 L
620 3536 L
620 3456 L
620 3467 L
620 3408 L
620 3457 L
620 3698 L
620 3858 L
620 3523 L
620 3607 L
620 3271 L
620 3323 L
620 3336 L
620 3858 L
620 3400 L
620 3602 L
620 3812 L
620 3187 L
620 3368 L
620 3434 L
620 3275 L
620 3363 L
620 3329 L
620 3352 L
620 3432 L
620 3535 L
620 3065 L
620 3249 L
620 3277 L
620 2886 L
620 3437 L
620 3504 L
620 3527 L
620 3595 L
620 3594 L
620 3318 L
620 2867 L
620 2862 L
620 3594 L
620 3103 L
620 3547 L
620 3307 L
620 3234 L
620 3432 L
620 2990 L
620 3137 L
620 3176 L
620 3252 L
620 3280 L
620 3297 L
620 3012 L
620 3246 L
620 3050 L
620 3213 L
620 3450 L
620 3372 L
620 2897 L
620 2877 L
620 3056 L
620 3335 L
620 3305 L
620 3697 L
620 3477 L
620 3074 L
620 3471 L
620 3224 L
620 2757 L
620 3171 L
620 3272 L
620 3319 L
620 2715 L
620 3089 L
620 2876 L
620 3498 L
620 2946 L
620 3231 L
620 3163 L
620 3173 L
620 3339 L
620 3416 L
620 3561 L
620 3286 L
620 3533 L
620 3076 L
620 3331 L
620 3122 L
620 2918 L
620 3215 L
620 3589 L
620 2940 L
620 3144 L
620 3051 L
620 3087 L
620 3343 L
620 3186 L
620 3296 L
620 3134 L
620 2900 L
620 3327 L
620 3171 L
620 3044 L
620 3120 L
620 3504 L
620 2965 L
620 2811 L
620 3423 L
620 3147 L
620 3044 L
620 3236 L
620 2947 L
620 3176 L
620 3083 L
620 2726 L
620 2725 L
620 2866 L
620 3148 L
620 2983 L
620 2724 L
620 2759 L
620 3057 L
620 2972 L
620 2868 L
620 3057 L
620 3405 L
620 2971 L
620 3356 L
620 2445 L
620 3136 L
620 2591 L
620 3305 L
620 3367 L
620 2347 L
620 2912 L
620 3133 L
620 2710 L
620 3169 L
620 2999 L
620 2853 L
620 2444 L
620 2922 L
620 2136 L
620 2939 L
620 2383 L
L2 C03 COSGR

%
%================
% Legend - Begin
%================
%
GSN 4240 5180 M
4480 5180 L
LWMC SL  C03 COSGR
GSN 4540 5141 M helvM (1.5 uM) show grestore
%
%================
% Legend - End
%================
%

%
% Main frame
%
L10
GSN 
620 1700 M
4220 1700 L
4220 5300 L
620 5300 L
closepath SGR

%
% X axis: large tics
%
L10
%
% X axis: small tics
%
L5
%
% Y axis: large tics
%
L10
GSN 620 1925 M 54 0 rL SGR
GSN 4220 1925 M -54 0 rL SGR
helvS (-0.02) 560 1925 ylabel
GSN 620 2769 M 54 0 rL SGR
GSN 4220 2769 M -54 0 rL SGR
helvS (-0.01) 560 2769 ylabel
GSN 620 3614 M 54 0 rL SGR
GSN 4220 3614 M -54 0 rL SGR
helvS (0) 560 3614 ylabel
GSN 620 4459 M 54 0 rL SGR
GSN 4220 4459 M -54 0 rL SGR
helvS (0.01) 560 4459 ylabel
%
% Y axis: small tics
%
L5
GSN 620 1713 M 36 0 rL SGR
GSN 4220 1713 M -36 0 rL SGR
GSN 620 1925 M 36 0 rL SGR
GSN 4220 1925 M -36 0 rL SGR
GSN 620 2136 M 36 0 rL SGR
GSN 4220 2136 M -36 0 rL SGR
GSN 620 2347 M 36 0 rL SGR
GSN 4220 2347 M -36 0 rL SGR
GSN 620 2558 M 36 0 rL SGR
GSN 4220 2558 M -36 0 rL SGR
GSN 620 2769 M 36 0 rL SGR
GSN 4220 2769 M -36 0 rL SGR
GSN 620 2981 M 36 0 rL SGR
GSN 4220 2981 M -36 0 rL SGR
GSN 620 3192 M 36 0 rL SGR
GSN 4220 3192 M -36 0 rL SGR
GSN 620 3403 M 36 0 rL SGR
GSN 4220 3403 M -36 0 rL SGR
GSN 620 3614 M 36 0 rL SGR
GSN 4220 3614 M -36 0 rL SGR
GSN 620 3825 M 36 0 rL SGR
GSN 4220 3825 M -36 0 rL SGR
GSN 620 4036 M 36 0 rL SGR
GSN 4220 4036 M -36 0 rL SGR
GSN 620 4248 M 36 0 rL SGR
GSN 4220 4248 M -36 0 rL SGR
GSN 620 4459 M 36 0 rL SGR
GSN 4220 4459 M -36 0 rL SGR
GSN 620 4670 M 36 0 rL SGR
GSN 4220 4670 M -36 0 rL SGR
GSN 620 4881 M 36 0 rL SGR
GSN 4220 4881 M -36 0 rL SGR
GSN 620 5092 M 36 0 rL SGR
GSN 4220 5092 M -36 0 rL SGR

%
% X axis - residual panel
%
GSN L5 620 3614 M 4220 3614 L SDA G50 SGR

%
% X-Axis label:
%
gsave 620 1370 M 
[
[(Helvetica) 180 0 true true 0 (t)]
[(Helvetica) 180 0 true true 0 (i)]
[(Helvetica) 180 0 true true 0 (m)]
[(Helvetica) 180 0 true true 0 (e)]
] 0 MCshow grestore

%
% Y-Axis label:
%
gsave 234 3500 M 
currentpoint gsave translate 90 rotate 0 0 moveto
[
[(Helvetica) 180 0 true true 0 (r)]
[(Helvetica) 180 0 true true 0 (e)]
[(Helvetica) 180 0 true true 0 (s)]
[(Helvetica) 180 0 true true 0 (i)]
[(Helvetica) 180 0 true true 0 (d)]
[(Helvetica) 180 0 true true 0 (u)]
[(Helvetica) 180 0 true true 0 (a)]
[(Helvetica) 180 0 true true 0 (l)]
[(Helvetica) 180 0 true true 0 (s)]
] 0 MCshow grestore

end
showpage
%%Trailer
%%EOF
