%!PS-Adobe-3.0 EPSF-3.0
%%BoundingBox: 0 0 514 550
%%Creator: BioKin Ltd.
%%DocumentFonts: Symbol Helvetica
%%EndComments
%
/bkdict 256 dict def
bkdict begin
/M {moveto} def 
/R {rmoveto} def
/L {lineto} def
/rL {rlineto} def
/GSN {gsave newpath} def
/SGR {stroke grestore} def
/COSGR {gsave setrgbcolor stroke grestore grestore} def
/SL {setlinewidth} def
/LWMB {12} def             % line width - model curves, black & white
/LWMC {10} def             % line width - model curves, color
/L2 {2.5 setlinewidth} def
/L5 {5 setlinewidth} def
/L10 {10 setlinewidth} def
/G50 {0.5 setgray} def
/SDA {[10  20] 0 setdash} def % axes
/helvT {/Helvetica findfont 100 scalefont setfont} def % tiny
/helvS {/Helvetica findfont 125 scalefont setfont} def % small
/helvM {/Helvetica findfont 150 scalefont setfont} def % medium
/helvL {/Helvetica findfont 175 scalefont setfont} def % large
/xlabel {gsave M dup
   stringwidth exch -0.5 mul exch rmoveto show grestore} def 
/ylabel {gsave M 90 rotate dup
   stringwidth exch -0.5 mul exch rmoveto show grestore} def
/ylabelresid {gsave M dup
   stringwidth exch -1 mul exch rmoveto show grestore} def
% ======
% Shapes
% ======
% Circle:
/Circ {0 360 arc closepath} def
%
% Square:
/Squa {dup dup -0.5 mul dup dup R -2 mul 0 exch rL 1 mul 0 rL dup 0 exch -1 mul rL closepath} def
%
% Triangle Up:
/TriU {dup dup dup -0.4 mul exch -0.5 mul exch R dup 0.5 mul exch rL dup -1 mul exch 0.5 mul exch rL closepath} def 
%
% Triangle Down:
/TriD {dup dup dup 0.4 mul exch -0.5 mul exch R dup 0.5 mul exch -1 mul rL dup 0.5 mul exch rL closepath} def 
%
% Diamond:
/Diam {45 rotate Squa} def
% ======
% Fills
% ======
/GRF {gsave setgray fill grestore} def                    % gray-level Fill
/COF {gsave setrgbcolor fill grestore} def                % color fill
% ======
% Colors
% ======
/C01 {1.00	0.00	0.00} def      % Red
/C02 {0.00	0.00	1.00} def      % Blue
/C03 {0.00	0.39	0.00} def      % Dark Green
/C04 {0.78	0.08	0.52} def      % Medium Violet Red
/C05 {0.55	0.27	0.07} def      % Saddle Brown
/C06 {0.10	0.70	0.70} def      % (cyan)
/C07 {1.00	0.55	0.00} def      % Dark Orange
/C08 {0.63	0.13	0.94} def      % Purple
/C09 {0.00	0.75	1.00} def      % Deep Sky Blue
/C10 {0.20	0.80	0.20} def      % Lime Green
/C11 {0.47	0.53	0.60} def      % Light Slate Gray
/C12 {0.00	0.00	0.00} def      % Black            % or: {0.19	0.31	0.31} def      % Dark Slate Gray
%
/LGR {0.75} def % light gray
/DGR {0.33} def % dark gray
%
% =============
% Dash patterns
% =============
/dash01 { [80  20] 0 setdash } def
/dash02 { [40  20] 0 setdash } def
/dash03 { [80  20  10  20] 0 setdash } def
/dash04 { [40  20  10  20] 0 setdash } def
/dash05 { [80  20  10  10  10  20] 0 setdash } def
/dash06 { [40  20  10  10  10  20] 0 setdash } def
/dash07 { [10  10] 0 setdash } def
%
/MFshow {
   { dup 5 get 3 ge
     { 5 get 3 eq {gsave} {grestore} ifelse }
     {dup dup 0 get findfont exch 1 get scalefont setfont
     [ currentpoint ] exch dup 2 get 0 exch R dup 5 get 2 ne {dup dup 6
     get exch 4 get {show} {stringwidth pop 0 R} ifelse }if dup 5 get 0 eq
     {dup 3 get {2 get neg 0 exch R pop} {pop aload pop M} ifelse} {dup 5
     get 1 eq {dup 2 get exch dup 3 get exch 6 get stringwidth pop -2 div
     dup 0 R} {dup 6 get stringwidth pop -2 div 0 R 6 get
     show 2 index {aload pop M neg 3 -1 roll neg R pop pop} {pop pop pop
     pop aload pop M} ifelse }ifelse }ifelse }
     ifelse }
   forall} bind def
/MFwidth {0 exch {dup 3 get{dup dup 0 get findfont exch 1 get scalefont
     setfont 6 get stringwidth pop add} {pop} ifelse} forall} bind def
/MCshow { currentpoint stroke M
  exch dup MFwidth -2 div 3 -1 roll R MFshow } def
%
end
%%EndProlog
bkdict begin
0.1 0.1 scale
%
% Residuals:
%
GSN 620 4274 M
620 3577 L
620 3770 L
620 4438 L
620 4143 L
620 3921 L
620 4011 L
620 4042 L
620 4171 L
620 4038 L
620 4123 L
620 3586 L
620 4598 L
620 3804 L
620 4203 L
620 4388 L
620 4290 L
620 4442 L
620 3784 L
620 4117 L
620 3979 L
620 3705 L
620 3873 L
620 4109 L
620 3713 L
620 4276 L
620 4598 L
620 4205 L
620 4505 L
620 4090 L
620 3835 L
620 3226 L
620 3617 L
620 3711 L
620 4242 L
620 4246 L
620 3936 L
620 3991 L
620 4197 L
620 4188 L
620 4466 L
620 4863 L
620 3721 L
620 3992 L
620 3355 L
620 3672 L
620 3426 L
620 4014 L
620 4063 L
620 3935 L
620 4135 L
620 4320 L
620 3460 L
620 2627 L
620 3150 L
620 3676 L
620 4047 L
620 4469 L
620 3738 L
620 3476 L
620 3225 L
620 4057 L
620 3169 L
620 3490 L
620 4092 L
620 3938 L
620 3174 L
620 3681 L
620 3646 L
620 3350 L
620 3278 L
620 3973 L
620 3535 L
620 3754 L
620 3296 L
620 3744 L
620 3780 L
620 3701 L
620 3544 L
620 3569 L
620 3730 L
620 3300 L
620 3263 L
620 3484 L
620 3724 L
620 3626 L
620 3730 L
620 3811 L
620 3003 L
620 3194 L
620 3353 L
620 4182 L
620 3147 L
620 2514 L
620 3787 L
620 3051 L
620 3549 L
620 2821 L
620 3525 L
620 3327 L
620 3028 L
620 2750 L
620 3377 L
620 3102 L
620 2137 L
620 3039 L
620 3137 L
620 2249 L
620 3258 L
620 2864 L
620 3407 L
620 2573 L
620 3497 L
620 3481 L
620 3293 L
620 2979 L
620 3014 L
620 3100 L
620 2779 L
620 2923 L
620 3123 L
620 3078 L
620 3032 L
620 2475 L
620 2877 L
620 2789 L
620 2446 L
620 2738 L
620 3201 L
620 2533 L
620 2997 L
620 2573 L
620 2619 L
620 2488 L
620 2815 L
620 2724 L
620 2598 L
620 2637 L
620 3047 L
620 2513 L
620 2839 L
620 2450 L
620 2562 L
620 2674 L
620 2583 L
620 2512 L
620 2420 L
620 2501 L
620 2450 L
620 2776 L
620 2960 L
620 2555 L
620 2943 L
620 3471 L
620 2575 L
620 2446 L
620 2499 L
620 3132 L
620 2773 L
620 2759 L
620 3532 L
620 3350 L
620 2376 L
620 3045 L
620 2566 L
620 2994 L
620 2990 L
620 2949 L
620 3028 L
620 3024 L
620 3280 L
620 2592 L
620 3474 L
620 3438 L
620 3126 L
620 3716 L
620 2136 L
620 2752 L
620 3310 L
620 2779 L
620 2930 L
620 2967 L
620 2947 L
620 3151 L
620 2244 L
620 3209 L
620 3439 L
620 4399 L
620 3027 L
620 4102 L
620 2522 L
620 3576 L
620 3341 L
620 2564 L
620 3284 L
620 3430 L
620 3347 L
620 2763 L
620 3342 L
620 2946 L
620 3046 L
620 3088 L
620 3317 L
620 3432 L
620 2822 L
620 2963 L
620 2937 L
620 3662 L
620 3490 L
620 2828 L
620 3490 L
620 3239 L
620 3532 L
620 3960 L
620 3731 L
620 3626 L
620 3694 L
620 3710 L
620 4111 L
620 3381 L
620 3512 L
620 4034 L
620 3788 L
620 3230 L
620 3314 L
620 3841 L
620 3157 L
620 3908 L
620 2803 L
620 3303 L
620 3689 L
620 4039 L
620 3972 L
620 3648 L
620 3590 L
620 3330 L
620 3325 L
620 3502 L
620 3314 L
620 3705 L
620 3210 L
620 3163 L
620 3132 L
620 3534 L
620 3414 L
620 3403 L
620 3554 L
620 3174 L
620 3622 L
620 4018 L
620 3815 L
620 3137 L
620 4092 L
620 4305 L
620 3758 L
620 3356 L
620 3215 L
620 3565 L
620 3560 L
620 3174 L
620 2929 L
620 3272 L
620 2866 L
620 3147 L
620 4457 L
620 4060 L
620 3638 L
620 3716 L
620 4373 L
620 4258 L
620 3669 L
620 2970 L
620 3022 L
620 4201 L
620 4378 L
620 3706 L
620 4358 L
620 4008 L
620 3163 L
620 3711 L
620 3277 L
620 3538 L
620 3903 L
620 3767 L
620 3533 L
620 4189 L
620 3438 L
620 4090 L
620 4319 L
620 4047 L
620 3849 L
620 4229 L
620 4292 L
620 4145 L
620 4453 L
620 4578 L
620 3832 L
620 4077 L
620 3784 L
620 4295 L
620 3377 L
620 3742 L
620 3757 L
620 3840 L
620 4356 L
620 3798 L
620 4178 L
620 4689 L
620 3938 L
620 4016 L
620 3932 L
620 4292 L
620 3686 L
620 3822 L
620 3947 L
620 3973 L
620 3894 L
620 3930 L
620 4253 L
620 3460 L
620 4633 L
620 4779 L
620 3746 L
620 4257 L
620 3146 L
620 3944 L
620 4585 L
620 3604 L
620 3364 L
620 3786 L
620 4177 L
620 4678 L
620 3895 L
620 3384 L
620 3863 L
620 3946 L
620 4400 L
620 3748 L
620 3877 L
620 3705 L
620 3533 L
620 4257 L
620 3970 L
620 3620 L
620 4163 L
620 3818 L
620 4032 L
620 4470 L
620 3719 L
620 3504 L
620 4312 L
620 4156 L
620 3445 L
620 3465 L
620 3845 L
620 3385 L
620 3775 L
620 3946 L
620 3752 L
620 4726 L
620 3296 L
620 4124 L
620 4118 L
620 4602 L
620 3594 L
620 3775 L
620 3618 L
620 4024 L
620 3313 L
620 3756 L
620 3577 L
620 3649 L
620 4070 L
620 3339 L
620 4251 L
620 4391 L
620 3894 L
620 3533 L
620 3323 L
620 4178 L
620 3900 L
620 4149 L
620 3214 L
620 3745 L
620 3922 L
620 3733 L
620 3920 L
620 3611 L
620 4262 L
620 3682 L
620 3967 L
620 3784 L
620 3887 L
620 3902 L
620 3749 L
620 3795 L
620 4232 L
620 3397 L
620 3661 L
620 3984 L
620 4134 L
620 3439 L
620 4184 L
620 3849 L
620 4437 L
620 3236 L
620 4242 L
620 3965 L
620 3770 L
620 3524 L
620 3794 L
620 3846 L
620 4168 L
620 4120 L
620 3201 L
620 3397 L
620 3735 L
620 3479 L
620 3838 L
620 4176 L
620 3189 L
620 3381 L
620 3406 L
620 4031 L
620 3023 L
620 3595 L
620 3318 L
620 3661 L
620 3786 L
620 3967 L
620 4091 L
620 3876 L
620 3552 L
620 3979 L
620 3977 L
620 3955 L
620 3834 L
620 3635 L
620 2909 L
620 3471 L
620 4408 L
620 4178 L
620 3671 L
620 3895 L
620 4154 L
620 2995 L
620 3995 L
620 3937 L
620 3195 L
620 3794 L
620 3052 L
620 3625 L
620 4135 L
620 4280 L
620 3481 L
620 4419 L
620 3275 L
620 3796 L
620 3753 L
620 4357 L
620 3198 L
620 4198 L
620 4124 L
620 3795 L
620 3569 L
620 3682 L
620 3577 L
620 4354 L
620 3559 L
620 3845 L
620 4183 L
620 3655 L
620 3774 L
620 3637 L
620 4409 L
620 3630 L
620 3352 L
620 4165 L
620 3940 L
620 4069 L
620 3333 L
620 4004 L
620 3904 L
620 4232 L
620 4361 L
620 4104 L
620 3701 L
620 3956 L
620 3746 L
620 3964 L
620 4678 L
620 3848 L
620 4097 L
620 3590 L
620 4053 L
620 3660 L
620 3889 L
620 3867 L
620 3996 L
620 3437 L
620 3592 L
620 3190 L
620 4034 L
620 4643 L
620 2910 L
620 4317 L
620 3732 L
620 3558 L
620 4090 L
620 4219 L
620 3649 L
620 4352 L
620 4096 L
620 3552 L
620 3828 L
620 3769 L
620 3857 L
620 4283 L
620 4043 L
620 3702 L
620 4771 L
620 3726 L
620 3783 L
620 4136 L
620 4051 L
620 3221 L
620 3815 L
620 3047 L
620 3609 L
620 3916 L
620 4097 L
620 3548 L
620 4018 L
L2 C01 COSGR

%
%================
% Legend - Begin
%================
%
GSN 4240 5180 M
4480 5180 L
LWMC SL  C01 COSGR
GSN 4540 5141 M helvM (0.5 uM) show grestore
%
%================
% Legend - End
%================
%

%
% Main frame
%
L10
GSN 
620 1700 M
4220 1700 L
4220 5300 L
620 5300 L
closepath SGR

%
% X axis: large tics
%
L10
%
% X axis: small tics
%
L5
%
% Y axis: large tics
%
L10
GSN 620 2599 M 54 0 rL SGR
GSN 4220 2599 M -54 0 rL SGR
helvS (-0.01) 560 2599 ylabel
GSN 620 3624 M 54 0 rL SGR
GSN 4220 3624 M -54 0 rL SGR
helvS (0) 560 3624 ylabel
GSN 620 4650 M 54 0 rL SGR
GSN 4220 4650 M -54 0 rL SGR
helvS (0.01) 560 4650 ylabel
%
% Y axis: small tics
%
L5
GSN 620 1829 M 36 0 rL SGR
GSN 4220 1829 M -36 0 rL SGR
GSN 620 2086 M 36 0 rL SGR
GSN 4220 2086 M -36 0 rL SGR
GSN 620 2342 M 36 0 rL SGR
GSN 4220 2342 M -36 0 rL SGR
GSN 620 2599 M 36 0 rL SGR
GSN 4220 2599 M -36 0 rL SGR
GSN 620 2855 M 36 0 rL SGR
GSN 4220 2855 M -36 0 rL SGR
GSN 620 3111 M 36 0 rL SGR
GSN 4220 3111 M -36 0 rL SGR
GSN 620 3368 M 36 0 rL SGR
GSN 4220 3368 M -36 0 rL SGR
GSN 620 3624 M 36 0 rL SGR
GSN 4220 3624 M -36 0 rL SGR
GSN 620 3881 M 36 0 rL SGR
GSN 4220 3881 M -36 0 rL SGR
GSN 620 4137 M 36 0 rL SGR
GSN 4220 4137 M -36 0 rL SGR
GSN 620 4393 M 36 0 rL SGR
GSN 4220 4393 M -36 0 rL SGR
GSN 620 4650 M 36 0 rL SGR
GSN 4220 4650 M -36 0 rL SGR
GSN 620 4906 M 36 0 rL SGR
GSN 4220 4906 M -36 0 rL SGR
GSN 620 5163 M 36 0 rL SGR
GSN 4220 5163 M -36 0 rL SGR

%
% X axis - residual panel
%
GSN L5 620 3624 M 4220 3624 L SDA G50 SGR

%
% X-Axis label:
%
gsave 620 1370 M 
[
[(Helvetica) 180 0 true true 0 (t)]
[(Helvetica) 180 0 true true 0 (i)]
[(Helvetica) 180 0 true true 0 (m)]
[(Helvetica) 180 0 true true 0 (e)]
] 0 MCshow grestore

%
% Y-Axis label:
%
gsave 234 3500 M 
currentpoint gsave translate 90 rotate 0 0 moveto
[
[(Helvetica) 180 0 true true 0 (r)]
[(Helvetica) 180 0 true true 0 (e)]
[(Helvetica) 180 0 true true 0 (s)]
[(Helvetica) 180 0 true true 0 (i)]
[(Helvetica) 180 0 true true 0 (d)]
[(Helvetica) 180 0 true true 0 (u)]
[(Helvetica) 180 0 true true 0 (a)]
[(Helvetica) 180 0 true true 0 (l)]
[(Helvetica) 180 0 true true 0 (s)]
] 0 MCshow grestore

end
showpage
%%Trailer
%%EOF
