%!PS-Adobe-3.0 EPSF-3.0
%%BoundingBox: 0 0 514 550
%%Creator: BioKin Ltd.
%%DocumentFonts: Symbol Helvetica
%%EndComments
%
/bkdict 256 dict def
bkdict begin
/M {moveto} def 
/R {rmoveto} def
/L {lineto} def
/rL {rlineto} def
/GSN {gsave newpath} def
/SGR {stroke grestore} def
/COSGR {gsave setrgbcolor stroke grestore grestore} def
/SL {setlinewidth} def
/LWMB {12} def             % line width - model curves, black & white
/LWMC {10} def             % line width - model curves, color
/L2 {2.5 setlinewidth} def
/L5 {5 setlinewidth} def
/L10 {10 setlinewidth} def
/G50 {0.5 setgray} def
/SDA {[10  20] 0 setdash} def % axes
/helvT {/Helvetica findfont 100 scalefont setfont} def % tiny
/helvS {/Helvetica findfont 125 scalefont setfont} def % small
/helvM {/Helvetica findfont 150 scalefont setfont} def % medium
/helvL {/Helvetica findfont 175 scalefont setfont} def % large
/xlabel {gsave M dup
   stringwidth exch -0.5 mul exch rmoveto show grestore} def 
/ylabel {gsave M 90 rotate dup
   stringwidth exch -0.5 mul exch rmoveto show grestore} def
/ylabelresid {gsave M dup
   stringwidth exch -1 mul exch rmoveto show grestore} def
% ======
% Shapes
% ======
% Circle:
/Circ {0 360 arc closepath} def
%
% Square:
/Squa {dup dup -0.5 mul dup dup R -2 mul 0 exch rL 1 mul 0 rL dup 0 exch -1 mul rL closepath} def
%
% Triangle Up:
/TriU {dup dup dup -0.4 mul exch -0.5 mul exch R dup 0.5 mul exch rL dup -1 mul exch 0.5 mul exch rL closepath} def 
%
% Triangle Down:
/TriD {dup dup dup 0.4 mul exch -0.5 mul exch R dup 0.5 mul exch -1 mul rL dup 0.5 mul exch rL closepath} def 
%
% Diamond:
/Diam {45 rotate Squa} def
% ======
% Fills
% ======
/GRF {gsave setgray fill grestore} def                    % gray-level Fill
/COF {gsave setrgbcolor fill grestore} def                % color fill
% ======
% Colors
% ======
/C01 {1.00	0.00	0.00} def      % Red
/C02 {0.00	0.00	1.00} def      % Blue
/C03 {0.00	0.39	0.00} def      % Dark Green
/C04 {0.78	0.08	0.52} def      % Medium Violet Red
/C05 {0.55	0.27	0.07} def      % Saddle Brown
/C06 {0.10	0.70	0.70} def      % (cyan)
/C07 {1.00	0.55	0.00} def      % Dark Orange
/C08 {0.63	0.13	0.94} def      % Purple
/C09 {0.00	0.75	1.00} def      % Deep Sky Blue
/C10 {0.20	0.80	0.20} def      % Lime Green
/C11 {0.47	0.53	0.60} def      % Light Slate Gray
/C12 {0.00	0.00	0.00} def      % Black            % or: {0.19	0.31	0.31} def      % Dark Slate Gray
%
/LGR {0.75} def % light gray
/DGR {0.33} def % dark gray
%
% =============
% Dash patterns
% =============
/dash01 { [80  20] 0 setdash } def
/dash02 { [40  20] 0 setdash } def
/dash03 { [80  20  10  20] 0 setdash } def
/dash04 { [40  20  10  20] 0 setdash } def
/dash05 { [80  20  10  10  10  20] 0 setdash } def
/dash06 { [40  20  10  10  10  20] 0 setdash } def
/dash07 { [10  10] 0 setdash } def
%
/MFshow {
   { dup 5 get 3 ge
     { 5 get 3 eq {gsave} {grestore} ifelse }
     {dup dup 0 get findfont exch 1 get scalefont setfont
     [ currentpoint ] exch dup 2 get 0 exch R dup 5 get 2 ne {dup dup 6
     get exch 4 get {show} {stringwidth pop 0 R} ifelse }if dup 5 get 0 eq
     {dup 3 get {2 get neg 0 exch R pop} {pop aload pop M} ifelse} {dup 5
     get 1 eq {dup 2 get exch dup 3 get exch 6 get stringwidth pop -2 div
     dup 0 R} {dup 6 get stringwidth pop -2 div 0 R 6 get
     show 2 index {aload pop M neg 3 -1 roll neg R pop pop} {pop pop pop
     pop aload pop M} ifelse }ifelse }ifelse }
     ifelse }
   forall} bind def
/MFwidth {0 exch {dup 3 get{dup dup 0 get findfont exch 1 get scalefont
     setfont 6 get stringwidth pop add} {pop} ifelse} forall} bind def
/MCshow { currentpoint stroke M
  exch dup MFwidth -2 div 3 -1 roll R MFshow } def
%
end
%%EndProlog
bkdict begin
0.1 0.1 scale
%
% Residuals:
%
GSN 620 2696 M
620 2166 L
620 3310 L
620 2879 L
620 3689 L
620 3230 L
620 3470 L
620 3516 L
620 3236 L
620 3012 L
620 3477 L
620 3342 L
620 3926 L
620 3366 L
620 3608 L
620 3590 L
620 3672 L
620 3541 L
620 3428 L
620 3509 L
620 3190 L
620 3338 L
620 3815 L
620 3508 L
620 3343 L
620 4014 L
620 3711 L
620 3811 L
620 3696 L
620 3945 L
620 3785 L
620 3323 L
620 3955 L
620 3362 L
620 4160 L
620 4185 L
620 3426 L
620 4236 L
620 3120 L
620 4342 L
620 3899 L
620 4214 L
620 3637 L
620 4208 L
620 4147 L
620 3778 L
620 3747 L
620 3874 L
620 4224 L
620 4015 L
620 3942 L
620 4274 L
620 3915 L
620 3899 L
620 3959 L
620 4035 L
620 3810 L
620 4275 L
620 4123 L
620 3760 L
620 3735 L
620 4490 L
620 3600 L
620 4361 L
620 3668 L
620 4214 L
620 3411 L
620 3902 L
620 3375 L
620 3935 L
620 4007 L
620 3689 L
620 3652 L
620 4151 L
620 3369 L
620 3338 L
620 4191 L
620 3438 L
620 3460 L
620 3778 L
620 4288 L
620 3371 L
620 3375 L
620 3780 L
620 3787 L
620 3716 L
620 3957 L
620 3832 L
620 3397 L
620 3285 L
620 3132 L
620 3424 L
620 3547 L
620 3659 L
620 2896 L
620 3144 L
620 3738 L
620 3522 L
620 2881 L
620 3897 L
620 3724 L
620 3491 L
620 3537 L
620 3371 L
620 3489 L
620 3095 L
620 2654 L
620 3072 L
620 2901 L
620 3435 L
620 3421 L
620 3497 L
620 3327 L
620 2941 L
620 2929 L
620 3474 L
620 2677 L
620 3239 L
620 2406 L
620 3381 L
620 2691 L
620 2756 L
620 2942 L
620 3517 L
620 3028 L
620 3665 L
620 3561 L
620 2505 L
620 3110 L
620 2552 L
620 3191 L
620 2988 L
620 2734 L
620 2136 L
620 3261 L
620 2690 L
620 2840 L
620 3258 L
620 3474 L
620 2933 L
620 2954 L
620 2495 L
620 2584 L
620 2519 L
620 2917 L
620 3014 L
620 3252 L
620 2818 L
620 3305 L
620 2981 L
620 2864 L
620 2863 L
620 2690 L
620 2463 L
620 2699 L
620 2780 L
620 2669 L
620 2566 L
620 2876 L
620 2801 L
620 2931 L
620 3261 L
620 3368 L
620 3440 L
620 2880 L
620 3291 L
620 3768 L
620 2994 L
620 3104 L
620 2939 L
620 3564 L
620 2813 L
620 2908 L
620 3279 L
620 3315 L
620 3148 L
620 2756 L
620 3333 L
620 3389 L
620 3063 L
620 2880 L
620 3345 L
620 3295 L
620 3199 L
620 2662 L
620 3344 L
620 3006 L
620 3166 L
620 2824 L
620 4017 L
620 3523 L
620 2802 L
620 3831 L
620 2854 L
620 3361 L
620 3779 L
620 3381 L
620 3518 L
620 3577 L
620 3768 L
620 3535 L
620 3785 L
620 2643 L
620 2983 L
620 3462 L
620 3244 L
620 3280 L
620 3155 L
620 3382 L
620 3179 L
620 3297 L
620 3375 L
620 3753 L
620 3578 L
620 3430 L
620 3672 L
620 3200 L
620 3380 L
620 3103 L
620 3307 L
620 3264 L
620 3789 L
620 3482 L
620 3299 L
620 3311 L
620 3701 L
620 4168 L
620 3424 L
620 3751 L
620 2995 L
620 3370 L
620 3436 L
620 3479 L
620 3351 L
620 3709 L
620 3846 L
620 3538 L
620 3955 L
620 3277 L
620 2766 L
620 3776 L
620 3144 L
620 3979 L
620 4033 L
620 3632 L
620 2689 L
620 3585 L
620 4072 L
620 3683 L
620 3250 L
620 3749 L
620 3862 L
620 4119 L
620 3546 L
620 3566 L
620 3749 L
620 3886 L
620 3679 L
620 3772 L
620 3691 L
620 3753 L
620 3379 L
620 3578 L
620 3952 L
620 3702 L
620 3480 L
620 3706 L
620 3601 L
620 3554 L
620 3445 L
620 2939 L
620 3270 L
620 3741 L
620 4026 L
620 3691 L
620 3796 L
620 4007 L
620 3492 L
620 3901 L
620 3703 L
620 3497 L
620 4043 L
620 3892 L
620 4728 L
620 4135 L
620 3833 L
620 3802 L
620 3578 L
620 4159 L
620 3831 L
620 4340 L
620 3986 L
620 4506 L
620 4463 L
620 4370 L
620 4759 L
620 4416 L
620 4285 L
620 4404 L
620 4705 L
620 4606 L
620 4138 L
620 4688 L
620 4272 L
620 4225 L
620 4760 L
620 3746 L
620 4494 L
620 4213 L
620 4524 L
620 4690 L
620 3879 L
620 3977 L
620 4600 L
620 4740 L
620 4563 L
620 4058 L
620 3538 L
620 4468 L
620 3906 L
620 3797 L
620 4249 L
620 4638 L
620 3774 L
620 4034 L
620 4330 L
620 4064 L
620 4402 L
620 4433 L
620 4863 L
620 4494 L
620 4779 L
620 3937 L
620 4493 L
620 4258 L
620 4756 L
620 3909 L
620 3644 L
620 3555 L
620 4594 L
620 4074 L
620 4681 L
620 4229 L
620 4223 L
620 4285 L
620 4331 L
620 4305 L
620 3832 L
620 4008 L
620 4324 L
620 4339 L
620 3960 L
620 3683 L
620 3983 L
620 4017 L
620 3766 L
620 3770 L
620 3799 L
620 3885 L
620 4289 L
620 4308 L
620 3818 L
620 4092 L
620 3430 L
620 3755 L
620 3702 L
620 4095 L
620 4337 L
620 3385 L
620 4074 L
620 3464 L
620 3462 L
620 3554 L
620 3687 L
620 3541 L
620 3502 L
620 3802 L
620 3613 L
620 3990 L
620 3448 L
620 3452 L
620 4078 L
620 3287 L
620 4023 L
620 3554 L
620 3900 L
620 3691 L
620 3943 L
620 3375 L
620 3695 L
620 3486 L
620 3390 L
620 3571 L
620 3631 L
620 3952 L
620 2828 L
620 3995 L
620 3432 L
620 3316 L
620 3870 L
620 3229 L
620 3456 L
620 3371 L
620 3344 L
620 3347 L
620 3138 L
620 3925 L
620 3108 L
620 3236 L
620 3317 L
620 3077 L
620 2982 L
620 3421 L
620 3742 L
620 3412 L
620 3520 L
620 3648 L
620 4072 L
620 3556 L
620 3809 L
620 4145 L
620 3784 L
620 3315 L
620 3423 L
620 3997 L
620 3450 L
620 3428 L
620 2730 L
620 3918 L
620 2944 L
620 3327 L
620 3559 L
620 3370 L
620 3067 L
620 3309 L
620 3708 L
620 3613 L
620 3829 L
620 4061 L
620 3275 L
620 4203 L
620 3380 L
620 3472 L
620 3081 L
620 3474 L
620 3134 L
620 3647 L
620 3193 L
620 3519 L
620 3278 L
620 3447 L
620 3503 L
620 3117 L
620 3749 L
620 3004 L
620 3673 L
620 3468 L
620 3716 L
620 3236 L
620 2849 L
620 3020 L
620 2981 L
620 3307 L
620 3513 L
620 3303 L
620 3130 L
620 3866 L
620 3012 L
620 3935 L
620 3793 L
620 2482 L
620 2969 L
620 3227 L
620 3885 L
620 3031 L
620 3544 L
620 3495 L
620 2911 L
620 2629 L
620 3132 L
620 3290 L
620 3445 L
620 3485 L
620 3197 L
620 3258 L
620 3588 L
620 2973 L
620 2972 L
620 3526 L
620 3447 L
620 3221 L
620 2965 L
620 3197 L
620 3715 L
620 2809 L
620 2537 L
620 2650 L
620 3458 L
620 3249 L
620 2935 L
620 3728 L
620 3410 L
620 2992 L
620 2819 L
620 2911 L
620 3060 L
620 3151 L
620 2952 L
620 2743 L
620 3531 L
620 2942 L
620 3101 L
620 3764 L
620 3045 L
620 2519 L
620 3307 L
620 2655 L
620 3496 L
620 3349 L
620 3170 L
620 2867 L
620 3634 L
620 2759 L
620 3246 L
620 3042 L
620 3643 L
620 3251 L
620 3068 L
620 3232 L
620 3308 L
620 3556 L
620 3139 L
620 3248 L
L2 C02 COSGR

%
%================
% Legend - Begin
%================
%
GSN 4240 5180 M
4480 5180 L
LWMC SL  C02 COSGR
GSN 4540 5141 M helvM (1.0 uM) show grestore
%
%================
% Legend - End
%================
%

%
% Main frame
%
L10
GSN 
620 1700 M
4220 1700 L
4220 5300 L
620 5300 L
closepath SGR

%
% X axis: large tics
%
L10
%
% X axis: small tics
%
L5
%
% Y axis: large tics
%
L10
GSN 620 2514 M 54 0 rL SGR
GSN 4220 2514 M -54 0 rL SGR
helvS (-0.01) 560 2514 ylabel
GSN 620 3536 M 54 0 rL SGR
GSN 4220 3536 M -54 0 rL SGR
helvS (0) 560 3536 ylabel
GSN 620 4557 M 54 0 rL SGR
GSN 4220 4557 M -54 0 rL SGR
helvS (0.01) 560 4557 ylabel
%
% Y axis: small tics
%
L5
GSN 620 1748 M 36 0 rL SGR
GSN 4220 1748 M -36 0 rL SGR
GSN 620 2003 M 36 0 rL SGR
GSN 4220 2003 M -36 0 rL SGR
GSN 620 2259 M 36 0 rL SGR
GSN 4220 2259 M -36 0 rL SGR
GSN 620 2514 M 36 0 rL SGR
GSN 4220 2514 M -36 0 rL SGR
GSN 620 2770 M 36 0 rL SGR
GSN 4220 2770 M -36 0 rL SGR
GSN 620 3025 M 36 0 rL SGR
GSN 4220 3025 M -36 0 rL SGR
GSN 620 3280 M 36 0 rL SGR
GSN 4220 3280 M -36 0 rL SGR
GSN 620 3536 M 36 0 rL SGR
GSN 4220 3536 M -36 0 rL SGR
GSN 620 3791 M 36 0 rL SGR
GSN 4220 3791 M -36 0 rL SGR
GSN 620 4046 M 36 0 rL SGR
GSN 4220 4046 M -36 0 rL SGR
GSN 620 4302 M 36 0 rL SGR
GSN 4220 4302 M -36 0 rL SGR
GSN 620 4557 M 36 0 rL SGR
GSN 4220 4557 M -36 0 rL SGR
GSN 620 4813 M 36 0 rL SGR
GSN 4220 4813 M -36 0 rL SGR
GSN 620 5068 M 36 0 rL SGR
GSN 4220 5068 M -36 0 rL SGR

%
% X axis - residual panel
%
GSN L5 620 3536 M 4220 3536 L SDA G50 SGR

%
% X-Axis label:
%
gsave 620 1370 M 
[
[(Helvetica) 180 0 true true 0 (t)]
[(Helvetica) 180 0 true true 0 (i)]
[(Helvetica) 180 0 true true 0 (m)]
[(Helvetica) 180 0 true true 0 (e)]
] 0 MCshow grestore

%
% Y-Axis label:
%
gsave 234 3500 M 
currentpoint gsave translate 90 rotate 0 0 moveto
[
[(Helvetica) 180 0 true true 0 (r)]
[(Helvetica) 180 0 true true 0 (e)]
[(Helvetica) 180 0 true true 0 (s)]
[(Helvetica) 180 0 true true 0 (i)]
[(Helvetica) 180 0 true true 0 (d)]
[(Helvetica) 180 0 true true 0 (u)]
[(Helvetica) 180 0 true true 0 (a)]
[(Helvetica) 180 0 true true 0 (l)]
[(Helvetica) 180 0 true true 0 (s)]
] 0 MCshow grestore

end
showpage
%%Trailer
%%EOF
