%!PS-Adobe-3.0 EPSF-3.0
%%BoundingBox: 0 0 514 550
%%Creator: BioKin Ltd.
%%DocumentFonts: Symbol Helvetica
%%EndComments
%
/bkdict 256 dict def
bkdict begin
/M {moveto} def 
/R {rmoveto} def
/L {lineto} def
/rL {rlineto} def
/GSN {gsave newpath} def
/SGR {stroke grestore} def
/COSGR {gsave setrgbcolor stroke grestore grestore} def
/SL {setlinewidth} def
/LWMB {12} def             % line width - model curves, black & white
/LWMC {10} def             % line width - model curves, color
/L2 {2.5 setlinewidth} def
/L5 {5 setlinewidth} def
/L10 {10 setlinewidth} def
/G50 {0.5 setgray} def
/SDA {[10  20] 0 setdash} def % axes
/helvT {/Helvetica findfont 100 scalefont setfont} def % tiny
/helvS {/Helvetica findfont 125 scalefont setfont} def % small
/helvM {/Helvetica findfont 150 scalefont setfont} def % medium
/helvL {/Helvetica findfont 175 scalefont setfont} def % large
/xlabel {gsave M dup
   stringwidth exch -0.5 mul exch rmoveto show grestore} def 
/ylabel {gsave M 90 rotate dup
   stringwidth exch -0.5 mul exch rmoveto show grestore} def
/ylabelresid {gsave M dup
   stringwidth exch -1 mul exch rmoveto show grestore} def
% ======
% Shapes
% ======
% Circle:
/Circ {0 360 arc closepath} def
%
% Square:
/Squa {dup dup -0.5 mul dup dup R -2 mul 0 exch rL 1 mul 0 rL dup 0 exch -1 mul rL closepath} def
%
% Triangle Up:
/TriU {dup dup dup -0.4 mul exch -0.5 mul exch R dup 0.5 mul exch rL dup -1 mul exch 0.5 mul exch rL closepath} def 
%
% Triangle Down:
/TriD {dup dup dup 0.4 mul exch -0.5 mul exch R dup 0.5 mul exch -1 mul rL dup 0.5 mul exch rL closepath} def 
%
% Diamond:
/Diam {45 rotate Squa} def
% ======
% Fills
% ======
/GRF {gsave setgray fill grestore} def                    % gray-level Fill
/COF {gsave setrgbcolor fill grestore} def                % color fill
% ======
% Colors
% ======
/C01 {1.00	0.00	0.00} def      % Red
/C02 {0.00	0.00	1.00} def      % Blue
/C03 {0.00	0.39	0.00} def      % Dark Green
/C04 {0.78	0.08	0.52} def      % Medium Violet Red
/C05 {0.55	0.27	0.07} def      % Saddle Brown
/C06 {0.10	0.70	0.70} def      % (cyan)
/C07 {1.00	0.55	0.00} def      % Dark Orange
/C08 {0.63	0.13	0.94} def      % Purple
/C09 {0.00	0.75	1.00} def      % Deep Sky Blue
/C10 {0.20	0.80	0.20} def      % Lime Green
/C11 {0.47	0.53	0.60} def      % Light Slate Gray
/C12 {0.00	0.00	0.00} def      % Black            % or: {0.19	0.31	0.31} def      % Dark Slate Gray
%
/LGR {0.75} def % light gray
/DGR {0.33} def % dark gray
%
% =============
% Dash patterns
% =============
/dash01 { [80  20] 0 setdash } def
/dash02 { [40  20] 0 setdash } def
/dash03 { [80  20  10  20] 0 setdash } def
/dash04 { [40  20  10  20] 0 setdash } def
/dash05 { [80  20  10  10  10  20] 0 setdash } def
/dash06 { [40  20  10  10  10  20] 0 setdash } def
/dash07 { [10  10] 0 setdash } def
%
/MFshow {
   { dup 5 get 3 ge
     { 5 get 3 eq {gsave} {grestore} ifelse }
     {dup dup 0 get findfont exch 1 get scalefont setfont
     [ currentpoint ] exch dup 2 get 0 exch R dup 5 get 2 ne {dup dup 6
     get exch 4 get {show} {stringwidth pop 0 R} ifelse }if dup 5 get 0 eq
     {dup 3 get {2 get neg 0 exch R pop} {pop aload pop M} ifelse} {dup 5
     get 1 eq {dup 2 get exch dup 3 get exch 6 get stringwidth pop -2 div
     dup 0 R} {dup 6 get stringwidth pop -2 div 0 R 6 get
     show 2 index {aload pop M neg 3 -1 roll neg R pop pop} {pop pop pop
     pop aload pop M} ifelse }ifelse }ifelse }
     ifelse }
   forall} bind def
/MFwidth {0 exch {dup 3 get{dup dup 0 get findfont exch 1 get scalefont
     setfont 6 get stringwidth pop add} {pop} ifelse} forall} bind def
/MCshow { currentpoint stroke M
  exch dup MFwidth -2 div 3 -1 roll R MFshow } def
%
end
%%EndProlog
bkdict begin
0.1 0.1 scale
%
% Model curves:
%

GSN 753 5166 M
753 5166 L
786 5163 L
820 5159 L
853 5155 L
886 5150 L
903 5147 L
919 5144 L
953 5138 L
986 5130 L
1020 5121 L
1053 5111 L
1053 5111 L
1086 5099 L
1120 5085 L
1153 5069 L
1186 5050 L
1203 5040 L
1220 5029 L
1253 5005 L
1286 4977 L
1320 4945 L
1353 4909 L
1353 4909 L
1386 4868 L
1420 4823 L
1453 4771 L
1486 4714 L
1503 4682 L
1520 4650 L
1553 4580 L
1586 4504 L
1620 4422 L
1653 4333 L
1653 4332 L
1686 4239 L
1720 4140 L
1753 4038 L
1786 3932 L
1804 3876 L
1820 3824 L
1853 3716 L
1886 3609 L
1920 3504 L
1953 3402 L
1954 3399 L
1986 3304 L
2020 3211 L
2053 3124 L
2086 3043 L
2104 3002 L
2120 2968 L
2153 2899 L
2186 2837 L
2220 2781 L
2253 2730 L
2254 2729 L
2286 2686 L
2320 2646 L
2353 2611 L
2386 2580 L
2404 2565 L
2420 2553 L
2453 2529 L
2486 2508 L
2520 2490 L
2553 2475 L
2554 2474 L
2586 2461 L
2620 2450 L
2653 2440 L
2686 2431 L
2704 2427 L
2720 2423 L
2753 2417 L
2786 2411 L
2820 2406 L
2853 2402 L
2854 2402 L
2886 2399 L
2920 2395 L
2953 2393 L
2986 2390 L
3004 2389 L
3020 2388 L
3053 2386 L
3068 2386 L
3086 2385 L
3120 2383 L
3153 2382 L
3155 2382 L
3186 2381 L
3220 2380 L
3253 2379 L
3286 2378 L
3305 2377 L
3320 2377 L
3353 2375 L
3386 2374 L
3420 2373 L
3453 2372 L
3455 2372 L
3486 2370 L
3520 2369 L
3553 2367 L
3586 2365 L
3605 2364 L
3620 2363 L
3653 2360 L
3686 2357 L
3720 2354 L
3753 2350 L
3755 2349 L
3786 2345 L
3820 2340 L
3853 2334 L
3886 2327 L
3905 2323 L
3920 2319 L
3953 2310 L
3986 2300 L
4020 2289 L
4053 2276 L
4086 2262 L
LWMC SL  C02 COSGR

%
% Experimental data:
%
GSN 773 3740 M
1625 3540 L
1773 3865 L
1860 3697 L
1922 3920 L
1970 3745 L
2009 3790 L
2043 3776 L
2072 3660 L
2097 3562 L
2120 3681 L
2140 3612 L
2159 3769 L
2176 3569 L
2192 3621 L
2207 3591 L
2221 3594 L
2234 3530 L
2247 3473 L
2259 3477 L
2270 3356 L
2280 3381 L
2290 3511 L
2300 3395 L
2309 3324 L
2318 3516 L
2326 3402 L
2335 3416 L
2342 3362 L
2350 3423 L
2357 3356 L
2364 3195 L
2371 3377 L
2378 3175 L
2384 3409 L
2391 3402 L
2397 3150 L
2403 3389 L
2409 3025 L
2414 3394 L
2420 3241 L
2425 3327 L
2430 3133 L
2435 3298 L
2440 3267 L
2445 3139 L
2450 3117 L
2455 3145 L
2459 3242 L
2464 3165 L
2468 3131 L
2472 3224 L
2476 3101 L
2481 3085 L
2485 3093 L
2489 3107 L
2492 3026 L
2496 3162 L
2500 3104 L
2504 2981 L
2507 2964 L
2511 3191 L
2514 2903 L
2518 3133 L
2521 2907 L
2525 3069 L
2528 2809 L
2531 2954 L
2534 2781 L
2538 2948 L
2541 2963 L
2544 2855 L
2547 2836 L
2550 2985 L
2553 2732 L
2556 2715 L
2559 2975 L
2561 2732 L
2564 2732 L
2567 2825 L
2570 2977 L
2580 2664 L
2590 2641 L
2600 2744 L
2609 2725 L
2618 2682 L
2627 2738 L
2635 2681 L
2643 2527 L
2650 2476 L
2658 2413 L
2665 2489 L
2672 2514 L
2678 2536 L
2685 2284 L
2691 2350 L
2697 2525 L
2703 2447 L
2709 2236 L
2714 2544 L
2720 2481 L
2725 2399 L
2730 2405 L
2735 2345 L
2740 2375 L
2745 2244 L
2750 2099 L
2755 2223 L
2759 2164 L
2764 2325 L
2768 2315 L
2772 2333 L
2777 2275 L
2781 2149 L
2785 2140 L
2789 2306 L
2793 2053 L
2796 2225 L
2800 1960 L
2804 2261 L
2808 2041 L
2811 2059 L
2815 2114 L
2818 2290 L
2822 2134 L
2825 2331 L
2828 2295 L
2831 1962 L
2835 2149 L
2838 1972 L
2841 2170 L
2844 2104 L
2847 2022 L
2850 1833 L
2853 2183 L
2856 2002 L
2859 2048 L
2862 2177 L
2864 2243 L
2867 2072 L
2870 2077 L
2873 1932 L
2875 1958 L
2878 1937 L
2880 2060 L
2883 2089 L
2886 2162 L
2888 2026 L
2891 2177 L
2893 2075 L
2895 2037 L
2898 2035 L
2900 1981 L
2902 1909 L
2905 1982 L
2907 2006 L
2909 1971 L
2912 1938 L
2914 2034 L
2916 2010 L
2918 2050 L
2920 2153 L
2922 2186 L
2925 2208 L
2927 2032 L
2929 2160 L
2931 2309 L
2933 2066 L
2935 2100 L
2937 2048 L
2939 2243 L
2941 2007 L
2943 2037 L
2945 2153 L
2947 2164 L
2948 2111 L
2950 1988 L
2952 2168 L
2954 2186 L
2956 2083 L
2958 2026 L
2959 2171 L
2961 2155 L
2963 2125 L
2965 1956 L
2966 2170 L
2968 2064 L
2970 2113 L
2972 2006 L
2973 2380 L
2975 2225 L
2977 1999 L
2978 2321 L
2980 2015 L
2982 2173 L
2983 2304 L
2985 2179 L
2986 2222 L
2988 2240 L
2989 2300 L
2991 2227 L
2993 2305 L
2994 1948 L
2996 2054 L
2997 2204 L
2999 2135 L
3000 2147 L
3002 2107 L
3003 2178 L
3005 2115 L
3006 2151 L
3007 2176 L
3009 2294 L
3010 2239 L
3012 2193 L
3013 2268 L
3014 2121 L
3016 2177 L
3017 2090 L
3019 2154 L
3020 2140 L
3021 2305 L
3023 2209 L
3024 2151 L
3025 2155 L
3027 2277 L
3028 2424 L
3029 2190 L
3031 2293 L
3032 2056 L
3033 2173 L
3034 2194 L
3036 2208 L
3037 2167 L
3038 2280 L
3039 2322 L
3041 2226 L
3042 2356 L
3043 2144 L
3044 1984 L
3045 2300 L
3047 2103 L
3048 2364 L
3049 2381 L
3050 2255 L
3051 1960 L
3053 2240 L
3054 2393 L
3055 2271 L
3056 2135 L
3057 2292 L
3058 2327 L
3059 2408 L
3061 2228 L
3062 2234 L
3063 2292 L
3064 2335 L
3065 2270 L
3066 2299 L
3067 2273 L
3068 2293 L
3069 2176 L
3070 2238 L
3071 2355 L
3073 2277 L
3074 2208 L
3075 2278 L
3076 2245 L
3077 2231 L
3078 2197 L
3079 2038 L
3080 2142 L
3081 2289 L
3082 2378 L
3083 2273 L
3084 2306 L
3085 2372 L
3086 2211 L
3087 2339 L
3088 2277 L
3089 2213 L
3112 2384 L
3133 2336 L
3152 2598 L
3170 2413 L
3186 2319 L
3201 2309 L
3216 2239 L
3229 2421 L
3241 2319 L
3253 2478 L
3264 2367 L
3275 2530 L
3285 2517 L
3295 2488 L
3304 2610 L
3313 2503 L
3322 2462 L
3330 2499 L
3338 2594 L
3346 2563 L
3353 2416 L
3360 2589 L
3367 2458 L
3374 2444 L
3380 2611 L
3387 2294 L
3393 2529 L
3399 2441 L
3405 2538 L
3410 2590 L
3416 2336 L
3421 2367 L
3426 2563 L
3431 2607 L
3436 2551 L
3441 2393 L
3446 2231 L
3451 2522 L
3455 2346 L
3460 2312 L
3464 2454 L
3469 2576 L
3473 2305 L
3477 2387 L
3481 2480 L
3485 2397 L
3489 2503 L
3493 2512 L
3496 2647 L
3500 2532 L
3504 2621 L
3507 2358 L
3511 2532 L
3514 2458 L
3518 2615 L
3521 2349 L
3525 2267 L
3528 2239 L
3531 2564 L
3534 2402 L
3537 2592 L
3540 2450 L
3543 2449 L
3546 2468 L
3549 2483 L
3552 2475 L
3555 2327 L
3558 2382 L
3561 2481 L
3564 2486 L
3566 2367 L
3575 2281 L
3586 2375 L
3595 2387 L
3605 2309 L
3613 2310 L
3622 2320 L
3630 2348 L
3638 2475 L
3646 2481 L
3653 2328 L
3660 2415 L
3667 2208 L
3674 2310 L
3681 2294 L
3687 2418 L
3693 2494 L
3699 2197 L
3705 2413 L
3710 2223 L
3716 2222 L
3721 2252 L
3727 2294 L
3732 2249 L
3737 2237 L
3742 2332 L
3746 2273 L
3751 2392 L
3756 2222 L
3760 2224 L
3764 2421 L
3769 2174 L
3773 2405 L
3777 2258 L
3781 2367 L
3785 2302 L
3789 2382 L
3793 2205 L
3797 2305 L
3800 2240 L
3804 2211 L
3808 2268 L
3811 2288 L
3815 2389 L
3818 2037 L
3821 2403 L
3825 2227 L
3828 2192 L
3831 2366 L
3834 2166 L
3838 2237 L
3841 2211 L
3844 2203 L
3847 2205 L
3850 2140 L
3853 2387 L
3855 2131 L
3858 2172 L
3861 2198 L
3864 2123 L
3867 2094 L
3869 2232 L
3872 2333 L
3875 2231 L
3877 2265 L
3880 2306 L
3882 2439 L
3885 2278 L
3887 2358 L
3890 2463 L
3892 2351 L
3895 2205 L
3897 2239 L
3899 2419 L
3902 2249 L
3904 2242 L
3906 2024 L
3908 2397 L
3911 2092 L
3913 2213 L
3915 2286 L
3917 2227 L
3919 2133 L
3921 2209 L
3923 2335 L
3926 2306 L
3928 2374 L
3930 2447 L
3932 2201 L
3934 2493 L
3936 2236 L
3938 2265 L
3940 2143 L
3942 2267 L
3943 2161 L
3945 2322 L
3947 2180 L
3949 2283 L
3951 2208 L
3953 2262 L
3955 2280 L
3956 2159 L
3958 2358 L
3960 2125 L
3962 2335 L
3963 2271 L
3965 2349 L
3967 2200 L
3969 2079 L
3970 2133 L
3972 2122 L
3974 2224 L
3975 2289 L
3977 2224 L
3978 2170 L
3980 2402 L
3982 2135 L
3983 2424 L
3985 2380 L
3986 1970 L
3988 2123 L
3990 2205 L
3991 2411 L
3993 2144 L
3994 2306 L
3996 2291 L
3997 2109 L
3999 2021 L
4000 2179 L
4001 2229 L
4003 2278 L
4004 2291 L
4006 2201 L
4007 2221 L
4009 2325 L
4010 2133 L
4011 2133 L
4013 2307 L
4014 2283 L
4016 2213 L
4017 2133 L
4018 2206 L
4020 2369 L
4021 2086 L
4022 2001 L
4024 2037 L
4025 2291 L
4026 2226 L
4028 2128 L
4029 2377 L
4030 2278 L
4031 2148 L
4033 2094 L
4034 2123 L
4035 2171 L
4036 2200 L
4038 2138 L
4039 2073 L
4040 2320 L
4041 2136 L
4042 2187 L
4044 2395 L
4045 2170 L
4046 2006 L
4047 2254 L
4048 2050 L
4050 2314 L
4051 2268 L
4052 2213 L
4053 2118 L
4054 2359 L
4055 2086 L
4056 2239 L
4058 2175 L
4059 2364 L
4060 2242 L
4061 2185 L
4062 2237 L
4063 2262 L
4064 2340 L
4065 2210 L
4066 2244 L
L2 C02 COSGR

%
%================
% Legend - Begin
%================
%
GSN 4240 5180 M
4480 5180 L
LWMC SL  C02 COSGR
GSN 4540 5141 M helvM (1.0 uM) show grestore
%
%================
% Legend - End
%================
%

%
% Residuals:
%
GSN 773 750 M
1625 948 L
1773 1217 L
1860 1257 L
1922 1406 L
1970 1395 L
2009 1451 L
2043 1477 L
2072 1462 L
2097 1449 L
2120 1509 L
2140 1500 L
2159 1569 L
2176 1509 L
2192 1537 L
2207 1536 L
2221 1545 L
2234 1530 L
2247 1516 L
2259 1523 L
2270 1486 L
2280 1500 L
2290 1550 L
2300 1513 L
2309 1492 L
2318 1563 L
2326 1526 L
2335 1534 L
2342 1518 L
2350 1543 L
2357 1521 L
2364 1467 L
2371 1533 L
2378 1464 L
2384 1549 L
2391 1549 L
2397 1461 L
2403 1547 L
2409 1420 L
2414 1552 L
2420 1500 L
2425 1531 L
2430 1464 L
2435 1524 L
2440 1514 L
2445 1470 L
2450 1463 L
2455 1474 L
2459 1510 L
2464 1484 L
2468 1473 L
2472 1506 L
2476 1464 L
2481 1459 L
2485 1463 L
2489 1468 L
2492 1440 L
2496 1489 L
2500 1470 L
2504 1427 L
2507 1421 L
2511 1502 L
2514 1401 L
2518 1483 L
2521 1403 L
2525 1462 L
2528 1370 L
2531 1422 L
2534 1361 L
2538 1421 L
2541 1427 L
2544 1389 L
2547 1383 L
2550 1436 L
2553 1347 L
2556 1341 L
2559 1434 L
2561 1348 L
2564 1348 L
2567 1382 L
2570 1436 L
2580 1327 L
2590 1320 L
2600 1358 L
2609 1352 L
2618 1338 L
2627 1359 L
2635 1339 L
2643 1286 L
2650 1268 L
2658 1246 L
2665 1274 L
2672 1284 L
2678 1292 L
2685 1203 L
2691 1227 L
2697 1290 L
2703 1263 L
2709 1188 L
2714 1298 L
2720 1276 L
2725 1247 L
2730 1250 L
2735 1229 L
2740 1240 L
2745 1194 L
2750 1143 L
2755 1187 L
2759 1166 L
2764 1224 L
2768 1220 L
2772 1227 L
2777 1207 L
2781 1162 L
2785 1159 L
2789 1218 L
2793 1129 L
2796 1190 L
2800 1096 L
2804 1203 L
2808 1125 L
2811 1132 L
2815 1151 L
2818 1214 L
2822 1159 L
2825 1229 L
2828 1217 L
2831 1099 L
2835 1165 L
2838 1102 L
2841 1173 L
2844 1149 L
2847 1120 L
2850 1053 L
2853 1178 L
2856 1114 L
2859 1130 L
2862 1176 L
2864 1199 L
2867 1139 L
2870 1141 L
2873 1089 L
2875 1099 L
2878 1091 L
2880 1135 L
2883 1146 L
2886 1172 L
2888 1123 L
2891 1177 L
2893 1141 L
2895 1127 L
2898 1127 L
2900 1108 L
2902 1082 L
2905 1108 L
2907 1117 L
2909 1105 L
2912 1093 L
2914 1127 L
2916 1119 L
2918 1133 L
2920 1169 L
2922 1181 L
2925 1189 L
2927 1127 L
2929 1172 L
2931 1225 L
2933 1139 L
2935 1151 L
2937 1133 L
2939 1202 L
2941 1119 L
2943 1129 L
2945 1170 L
2947 1174 L
2948 1156 L
2950 1112 L
2952 1176 L
2954 1182 L
2956 1146 L
2958 1125 L
2959 1177 L
2961 1171 L
2963 1161 L
2965 1101 L
2966 1177 L
2968 1139 L
2970 1157 L
2972 1119 L
2973 1251 L
2975 1196 L
2977 1116 L
2978 1231 L
2980 1122 L
2982 1178 L
2983 1225 L
2985 1181 L
2986 1196 L
2988 1202 L
2989 1224 L
2991 1198 L
2993 1225 L
2994 1099 L
2996 1136 L
2997 1190 L
2999 1165 L
3000 1169 L
3002 1156 L
3003 1181 L
3005 1158 L
3006 1171 L
3007 1180 L
3009 1222 L
3010 1202 L
3012 1186 L
3013 1213 L
3014 1161 L
3016 1181 L
3017 1150 L
3019 1172 L
3020 1168 L
3021 1226 L
3023 1192 L
3024 1172 L
3025 1173 L
3027 1216 L
3028 1268 L
3029 1186 L
3031 1222 L
3032 1138 L
3033 1180 L
3034 1187 L
3036 1192 L
3037 1177 L
3038 1217 L
3039 1233 L
3041 1198 L
3042 1245 L
3043 1169 L
3044 1113 L
3045 1225 L
3047 1155 L
3048 1247 L
3049 1253 L
3050 1209 L
3051 1104 L
3053 1204 L
3054 1258 L
3055 1215 L
3056 1167 L
3057 1222 L
3058 1235 L
3059 1263 L
3061 1200 L
3062 1202 L
3063 1222 L
3064 1237 L
3065 1214 L
3066 1225 L
3067 1216 L
3068 1223 L
3069 1181 L
3070 1203 L
3071 1245 L
3073 1217 L
3074 1192 L
3075 1218 L
3076 1206 L
3077 1201 L
3078 1189 L
3079 1132 L
3080 1169 L
3081 1222 L
3082 1253 L
3083 1216 L
3084 1228 L
3085 1251 L
3086 1194 L
3087 1239 L
3088 1217 L
3089 1195 L
3112 1255 L
3133 1239 L
3152 1332 L
3170 1267 L
3186 1233 L
3201 1230 L
3216 1205 L
3229 1270 L
3241 1234 L
3253 1291 L
3264 1252 L
3275 1309 L
3285 1305 L
3295 1295 L
3304 1338 L
3313 1300 L
3322 1286 L
3330 1299 L
3338 1333 L
3346 1322 L
3353 1270 L
3360 1331 L
3367 1285 L
3374 1280 L
3380 1340 L
3387 1227 L
3393 1310 L
3399 1279 L
3405 1314 L
3410 1332 L
3416 1242 L
3421 1253 L
3426 1323 L
3431 1338 L
3436 1319 L
3441 1263 L
3446 1205 L
3451 1309 L
3455 1246 L
3460 1234 L
3464 1285 L
3469 1328 L
3473 1232 L
3477 1261 L
3481 1294 L
3485 1265 L
3489 1302 L
3493 1306 L
3496 1354 L
3500 1313 L
3504 1345 L
3507 1251 L
3511 1313 L
3514 1287 L
3518 1343 L
3521 1249 L
3525 1219 L
3528 1210 L
3531 1325 L
3534 1267 L
3537 1335 L
3540 1285 L
3543 1284 L
3546 1291 L
3549 1297 L
3552 1294 L
3555 1241 L
3558 1261 L
3561 1296 L
3564 1298 L
3566 1256 L
3575 1225 L
3586 1259 L
3595 1263 L
3605 1236 L
3613 1237 L
3622 1240 L
3630 1250 L
3638 1296 L
3646 1298 L
3653 1244 L
3660 1275 L
3667 1202 L
3674 1239 L
3681 1233 L
3687 1277 L
3693 1304 L
3699 1199 L
3705 1276 L
3710 1209 L
3716 1209 L
3721 1219 L
3727 1235 L
3732 1219 L
3737 1215 L
3742 1249 L
3746 1228 L
3751 1270 L
3756 1211 L
3760 1211 L
3764 1281 L
3769 1194 L
3773 1276 L
3777 1224 L
3781 1263 L
3785 1240 L
3789 1269 L
3793 1206 L
3797 1242 L
3800 1219 L
3804 1209 L
3808 1229 L
3811 1236 L
3815 1273 L
3818 1148 L
3821 1278 L
3825 1216 L
3828 1203 L
3831 1265 L
3834 1195 L
3838 1220 L
3841 1211 L
3844 1209 L
3847 1209 L
3850 1186 L
3853 1274 L
3855 1184 L
3858 1198 L
3861 1208 L
3864 1182 L
3867 1171 L
3869 1221 L
3872 1257 L
3875 1220 L
3877 1233 L
3880 1247 L
3882 1295 L
3885 1238 L
3887 1266 L
3890 1304 L
3892 1265 L
3895 1213 L
3897 1225 L
3899 1289 L
3902 1229 L
3904 1227 L
3906 1150 L
3908 1282 L
3911 1174 L
3913 1217 L
3915 1243 L
3917 1223 L
3919 1190 L
3921 1217 L
3923 1261 L
3926 1251 L
3928 1276 L
3930 1302 L
3932 1215 L
3934 1318 L
3936 1227 L
3938 1238 L
3940 1195 L
3942 1239 L
3943 1202 L
3945 1259 L
3947 1209 L
3949 1245 L
3951 1219 L
3953 1238 L
3955 1245 L
3956 1202 L
3958 1273 L
3960 1190 L
3962 1265 L
3963 1243 L
3965 1271 L
3967 1218 L
3969 1175 L
3970 1195 L
3972 1191 L
3974 1227 L
3975 1250 L
3977 1228 L
3978 1209 L
3980 1291 L
3982 1196 L
3983 1299 L
3985 1284 L
3986 1139 L
3988 1193 L
3990 1222 L
3991 1296 L
3993 1201 L
3994 1258 L
3996 1253 L
3997 1189 L
3999 1158 L
4000 1214 L
4001 1232 L
4003 1250 L
4004 1254 L
4006 1223 L
4007 1230 L
4009 1267 L
4010 1199 L
4011 1199 L
4013 1261 L
4014 1253 L
4016 1228 L
4017 1200 L
4018 1226 L
4020 1284 L
4021 1184 L
4022 1154 L
4024 1167 L
4025 1257 L
4026 1234 L
4028 1200 L
4029 1288 L
4030 1253 L
4031 1207 L
4033 1188 L
4034 1199 L
4035 1216 L
4036 1226 L
4038 1204 L
4039 1182 L
4040 1269 L
4041 1204 L
4042 1222 L
4044 1296 L
4045 1217 L
4046 1159 L
4047 1247 L
4048 1175 L
4050 1268 L
4051 1252 L
4052 1233 L
4053 1200 L
4054 1285 L
4055 1188 L
4056 1243 L
4058 1221 L
4059 1288 L
4060 1245 L
4061 1224 L
4062 1243 L
4063 1252 L
4064 1280 L
4065 1234 L
4066 1246 L
L2 C02 COSGR

%
% Main frame
%
L10
GSN 
620 1700 M
4220 1700 L
4220 5300 L
620 5300 L
closepath SGR

%
% X axis: large tics
%
L10
GSN 1074 1700 M 0  54 rL SGR
GSN 1074 5300 M 0 -54 rL SGR
helvS (0.0001) 1074 470 xlabel
GSN 1572 1700 M 0  54 rL SGR
GSN 1572 5300 M 0 -54 rL SGR
helvS (0.001) 1572 470 xlabel
GSN 2071 1700 M 0  54 rL SGR
GSN 2071 5300 M 0 -54 rL SGR
helvS (0.01) 2071 470 xlabel
GSN 2570 1700 M 0  54 rL SGR
GSN 2570 5300 M 0 -54 rL SGR
helvS (0.1) 2570 470 xlabel
GSN 3068 1700 M 0  54 rL SGR
GSN 3068 5300 M 0 -54 rL SGR
helvS (1) 3068 470 xlabel
GSN 3567 1700 M 0  54 rL SGR
GSN 3567 5300 M 0 -54 rL SGR
helvS (10) 3567 470 xlabel
GSN 4066 1700 M 0  54 rL SGR
GSN 4066 5300 M 0 -54 rL SGR
helvS (100) 4066 470 xlabel
%
% X axis: small tics
%
L5
GSN 725 1700 M 0  36 rL SGR
GSN 725 5300 M 0 -36 rL SGR
GSN 813 1700 M 0  36 rL SGR
GSN 813 5300 M 0 -36 rL SGR
GSN 875 1700 M 0  36 rL SGR
GSN 875 5300 M 0 -36 rL SGR
GSN 924 1700 M 0  36 rL SGR
GSN 924 5300 M 0 -36 rL SGR
GSN 963 1700 M 0  36 rL SGR
GSN 963 5300 M 0 -36 rL SGR
GSN 996 1700 M 0  36 rL SGR
GSN 996 5300 M 0 -36 rL SGR
GSN 1025 1700 M 0  36 rL SGR
GSN 1025 5300 M 0 -36 rL SGR
GSN 1051 1700 M 0  36 rL SGR
GSN 1051 5300 M 0 -36 rL SGR
GSN 1224 1700 M 0  36 rL SGR
GSN 1224 5300 M 0 -36 rL SGR
GSN 1312 1700 M 0  36 rL SGR
GSN 1312 5300 M 0 -36 rL SGR
GSN 1374 1700 M 0  36 rL SGR
GSN 1374 5300 M 0 -36 rL SGR
GSN 1422 1700 M 0  36 rL SGR
GSN 1422 5300 M 0 -36 rL SGR
GSN 1462 1700 M 0  36 rL SGR
GSN 1462 5300 M 0 -36 rL SGR
GSN 1495 1700 M 0  36 rL SGR
GSN 1495 5300 M 0 -36 rL SGR
GSN 1524 1700 M 0  36 rL SGR
GSN 1524 5300 M 0 -36 rL SGR
GSN 1550 1700 M 0  36 rL SGR
GSN 1550 5300 M 0 -36 rL SGR
GSN 1722 1700 M 0  36 rL SGR
GSN 1722 5300 M 0 -36 rL SGR
GSN 1810 1700 M 0  36 rL SGR
GSN 1810 5300 M 0 -36 rL SGR
GSN 1873 1700 M 0  36 rL SGR
GSN 1873 5300 M 0 -36 rL SGR
GSN 1921 1700 M 0  36 rL SGR
GSN 1921 5300 M 0 -36 rL SGR
GSN 1960 1700 M 0  36 rL SGR
GSN 1960 5300 M 0 -36 rL SGR
GSN 1994 1700 M 0  36 rL SGR
GSN 1994 5300 M 0 -36 rL SGR
GSN 2023 1700 M 0  36 rL SGR
GSN 2023 5300 M 0 -36 rL SGR
GSN 2048 1700 M 0  36 rL SGR
GSN 2048 5300 M 0 -36 rL SGR
GSN 2221 1700 M 0  36 rL SGR
GSN 2221 5300 M 0 -36 rL SGR
GSN 2309 1700 M 0  36 rL SGR
GSN 2309 5300 M 0 -36 rL SGR
GSN 2371 1700 M 0  36 rL SGR
GSN 2371 5300 M 0 -36 rL SGR
GSN 2420 1700 M 0  36 rL SGR
GSN 2420 5300 M 0 -36 rL SGR
GSN 2459 1700 M 0  36 rL SGR
GSN 2459 5300 M 0 -36 rL SGR
GSN 2492 1700 M 0  36 rL SGR
GSN 2492 5300 M 0 -36 rL SGR
GSN 2521 1700 M 0  36 rL SGR
GSN 2521 5300 M 0 -36 rL SGR
GSN 2547 1700 M 0  36 rL SGR
GSN 2547 5300 M 0 -36 rL SGR
GSN 2720 1700 M 0  36 rL SGR
GSN 2720 5300 M 0 -36 rL SGR
GSN 2808 1700 M 0  36 rL SGR
GSN 2808 5300 M 0 -36 rL SGR
GSN 2870 1700 M 0  36 rL SGR
GSN 2870 5300 M 0 -36 rL SGR
GSN 2918 1700 M 0  36 rL SGR
GSN 2918 5300 M 0 -36 rL SGR
GSN 2958 1700 M 0  36 rL SGR
GSN 2958 5300 M 0 -36 rL SGR
GSN 2991 1700 M 0  36 rL SGR
GSN 2991 5300 M 0 -36 rL SGR
GSN 3020 1700 M 0  36 rL SGR
GSN 3020 5300 M 0 -36 rL SGR
GSN 3045 1700 M 0  36 rL SGR
GSN 3045 5300 M 0 -36 rL SGR
GSN 3218 1700 M 0  36 rL SGR
GSN 3218 5300 M 0 -36 rL SGR
GSN 3306 1700 M 0  36 rL SGR
GSN 3306 5300 M 0 -36 rL SGR
GSN 3368 1700 M 0  36 rL SGR
GSN 3368 5300 M 0 -36 rL SGR
GSN 3417 1700 M 0  36 rL SGR
GSN 3417 5300 M 0 -36 rL SGR
GSN 3456 1700 M 0  36 rL SGR
GSN 3456 5300 M 0 -36 rL SGR
GSN 3490 1700 M 0  36 rL SGR
GSN 3490 5300 M 0 -36 rL SGR
GSN 3519 1700 M 0  36 rL SGR
GSN 3519 5300 M 0 -36 rL SGR
GSN 3544 1700 M 0  36 rL SGR
GSN 3544 5300 M 0 -36 rL SGR
GSN 3717 1700 M 0  36 rL SGR
GSN 3717 5300 M 0 -36 rL SGR
GSN 3805 1700 M 0  36 rL SGR
GSN 3805 5300 M 0 -36 rL SGR
GSN 3867 1700 M 0  36 rL SGR
GSN 3867 5300 M 0 -36 rL SGR
GSN 3915 1700 M 0  36 rL SGR
GSN 3915 5300 M 0 -36 rL SGR
GSN 3955 1700 M 0  36 rL SGR
GSN 3955 5300 M 0 -36 rL SGR
GSN 3988 1700 M 0  36 rL SGR
GSN 3988 5300 M 0 -36 rL SGR
GSN 4017 1700 M 0  36 rL SGR
GSN 4017 5300 M 0 -36 rL SGR
GSN 4043 1700 M 0  36 rL SGR
GSN 4043 5300 M 0 -36 rL SGR
GSN 4216 1700 M 0  36 rL SGR
GSN 4216 5300 M 0 -36 rL SGR
%
% Y axis: large tics
%
L10
GSN 620 2357 M 54 0 rL SGR
GSN 4220 2357 M -54 0 rL SGR
helvS (1.1) 560 2357 ylabel
GSN 620 3156 M 54 0 rL SGR
GSN 4220 3156 M -54 0 rL SGR
helvS (1.125) 560 3156 ylabel
GSN 620 3956 M 54 0 rL SGR
GSN 4220 3956 M -54 0 rL SGR
helvS (1.15) 560 3956 ylabel
GSN 620 4756 M 54 0 rL SGR
GSN 4220 4756 M -54 0 rL SGR
helvS (1.175) 560 4756 ylabel
%
% Y axis: small tics
%
L5
GSN 620 1717 M 36 0 rL SGR
GSN 4220 1717 M -36 0 rL SGR
GSN 620 2117 M 36 0 rL SGR
GSN 4220 2117 M -36 0 rL SGR
GSN 620 2516 M 36 0 rL SGR
GSN 4220 2516 M -36 0 rL SGR
GSN 620 2916 M 36 0 rL SGR
GSN 4220 2916 M -36 0 rL SGR
GSN 620 3316 M 36 0 rL SGR
GSN 4220 3316 M -36 0 rL SGR
GSN 620 3716 M 36 0 rL SGR
GSN 4220 3716 M -36 0 rL SGR
GSN 620 4116 M 36 0 rL SGR
GSN 4220 4116 M -36 0 rL SGR
GSN 620 4516 M 36 0 rL SGR
GSN 4220 4516 M -36 0 rL SGR
GSN 620 4916 M 36 0 rL SGR
GSN 4220 4916 M -36 0 rL SGR

%
% X-Axis label:
%
gsave 2420 290 M 
[
[(Helvetica) 180 0 true true 0 (t)]
[(Helvetica) 180 0 true true 0 (i)]
[(Helvetica) 180 0 true true 0 (m)]
[(Helvetica) 180 0 true true 0 (e)]
] 0 MCshow grestore

%
% Y-Axis label:
%
gsave 234 3500 M 
currentpoint gsave translate 90 rotate 0 0 moveto
[
[(Helvetica) 180 0 true true 0 (s)]
[(Helvetica) 180 0 true true 0 (i)]
[(Helvetica) 180 0 true true 0 (g)]
[(Helvetica) 180 0 true true 0 (n)]
[(Helvetica) 180 0 true true 0 (a)]
[(Helvetica) 180 0 true true 0 (l)]
] 0 MCshow grestore

%
% Residuals:
%
gsave 129 1160 M 
currentpoint gsave translate 90 rotate 0 0 moveto
[
[(Helvetica) 150 0 true true 0 (r)]
[(Helvetica) 150 0 true true 0 (e)]
[(Helvetica) 150 0 true true 0 (s)]
[(Helvetica) 150 0 true true 0 (i)]
[(Helvetica) 150 0 true true 0 (d)]
[(Helvetica) 150 0 true true 0 (u)]
[(Helvetica) 150 0 true true 0 (a)]
[(Helvetica) 150 0 true true 0 (l)]
[(Helvetica) 150 0 true true 0 (s)]
] 0 MCshow grestore

%
% Residual frame
%
L10
GSN 
620 620 M
4220 620 L
4220 1700 L
620 1700 L
closepath SGR
%
% X axis: large tics - residual frame
%
L10
GSN 1074 620 M 0  54 rL SGR
GSN 1074 1700 M 0 -54 rL SGR
GSN 1572 620 M 0  54 rL SGR
GSN 1572 1700 M 0 -54 rL SGR
GSN 2071 620 M 0  54 rL SGR
GSN 2071 1700 M 0 -54 rL SGR
GSN 2570 620 M 0  54 rL SGR
GSN 2570 1700 M 0 -54 rL SGR
GSN 3068 620 M 0  54 rL SGR
GSN 3068 1700 M 0 -54 rL SGR
GSN 3567 620 M 0  54 rL SGR
GSN 3567 1700 M 0 -54 rL SGR
GSN 4066 620 M 0  54 rL SGR
GSN 4066 1700 M 0 -54 rL SGR
%
% X axis: small tics - residual frame
%
L5
GSN 725 620 M 0  36 rL SGR
GSN 725 1700 M 0 -36 rL SGR
GSN 813 620 M 0  36 rL SGR
GSN 813 1700 M 0 -36 rL SGR
GSN 875 620 M 0  36 rL SGR
GSN 875 1700 M 0 -36 rL SGR
GSN 924 620 M 0  36 rL SGR
GSN 924 1700 M 0 -36 rL SGR
GSN 963 620 M 0  36 rL SGR
GSN 963 1700 M 0 -36 rL SGR
GSN 996 620 M 0  36 rL SGR
GSN 996 1700 M 0 -36 rL SGR
GSN 1025 620 M 0  36 rL SGR
GSN 1025 1700 M 0 -36 rL SGR
GSN 1051 620 M 0  36 rL SGR
GSN 1051 1700 M 0 -36 rL SGR
GSN 1224 620 M 0  36 rL SGR
GSN 1224 1700 M 0 -36 rL SGR
GSN 1312 620 M 0  36 rL SGR
GSN 1312 1700 M 0 -36 rL SGR
GSN 1374 620 M 0  36 rL SGR
GSN 1374 1700 M 0 -36 rL SGR
GSN 1422 620 M 0  36 rL SGR
GSN 1422 1700 M 0 -36 rL SGR
GSN 1462 620 M 0  36 rL SGR
GSN 1462 1700 M 0 -36 rL SGR
GSN 1495 620 M 0  36 rL SGR
GSN 1495 1700 M 0 -36 rL SGR
GSN 1524 620 M 0  36 rL SGR
GSN 1524 1700 M 0 -36 rL SGR
GSN 1550 620 M 0  36 rL SGR
GSN 1550 1700 M 0 -36 rL SGR
GSN 1722 620 M 0  36 rL SGR
GSN 1722 1700 M 0 -36 rL SGR
GSN 1810 620 M 0  36 rL SGR
GSN 1810 1700 M 0 -36 rL SGR
GSN 1873 620 M 0  36 rL SGR
GSN 1873 1700 M 0 -36 rL SGR
GSN 1921 620 M 0  36 rL SGR
GSN 1921 1700 M 0 -36 rL SGR
GSN 1960 620 M 0  36 rL SGR
GSN 1960 1700 M 0 -36 rL SGR
GSN 1994 620 M 0  36 rL SGR
GSN 1994 1700 M 0 -36 rL SGR
GSN 2023 620 M 0  36 rL SGR
GSN 2023 1700 M 0 -36 rL SGR
GSN 2048 620 M 0  36 rL SGR
GSN 2048 1700 M 0 -36 rL SGR
GSN 2221 620 M 0  36 rL SGR
GSN 2221 1700 M 0 -36 rL SGR
GSN 2309 620 M 0  36 rL SGR
GSN 2309 1700 M 0 -36 rL SGR
GSN 2371 620 M 0  36 rL SGR
GSN 2371 1700 M 0 -36 rL SGR
GSN 2420 620 M 0  36 rL SGR
GSN 2420 1700 M 0 -36 rL SGR
GSN 2459 620 M 0  36 rL SGR
GSN 2459 1700 M 0 -36 rL SGR
GSN 2492 620 M 0  36 rL SGR
GSN 2492 1700 M 0 -36 rL SGR
GSN 2521 620 M 0  36 rL SGR
GSN 2521 1700 M 0 -36 rL SGR
GSN 2547 620 M 0  36 rL SGR
GSN 2547 1700 M 0 -36 rL SGR
GSN 2720 620 M 0  36 rL SGR
GSN 2720 1700 M 0 -36 rL SGR
GSN 2808 620 M 0  36 rL SGR
GSN 2808 1700 M 0 -36 rL SGR
GSN 2870 620 M 0  36 rL SGR
GSN 2870 1700 M 0 -36 rL SGR
GSN 2918 620 M 0  36 rL SGR
GSN 2918 1700 M 0 -36 rL SGR
GSN 2958 620 M 0  36 rL SGR
GSN 2958 1700 M 0 -36 rL SGR
GSN 2991 620 M 0  36 rL SGR
GSN 2991 1700 M 0 -36 rL SGR
GSN 3020 620 M 0  36 rL SGR
GSN 3020 1700 M 0 -36 rL SGR
GSN 3045 620 M 0  36 rL SGR
GSN 3045 1700 M 0 -36 rL SGR
GSN 3218 620 M 0  36 rL SGR
GSN 3218 1700 M 0 -36 rL SGR
GSN 3306 620 M 0  36 rL SGR
GSN 3306 1700 M 0 -36 rL SGR
GSN 3368 620 M 0  36 rL SGR
GSN 3368 1700 M 0 -36 rL SGR
GSN 3417 620 M 0  36 rL SGR
GSN 3417 1700 M 0 -36 rL SGR
GSN 3456 620 M 0  36 rL SGR
GSN 3456 1700 M 0 -36 rL SGR
GSN 3490 620 M 0  36 rL SGR
GSN 3490 1700 M 0 -36 rL SGR
GSN 3519 620 M 0  36 rL SGR
GSN 3519 1700 M 0 -36 rL SGR
GSN 3544 620 M 0  36 rL SGR
GSN 3544 1700 M 0 -36 rL SGR
GSN 3717 620 M 0  36 rL SGR
GSN 3717 1700 M 0 -36 rL SGR
GSN 3805 620 M 0  36 rL SGR
GSN 3805 1700 M 0 -36 rL SGR
GSN 3867 620 M 0  36 rL SGR
GSN 3867 1700 M 0 -36 rL SGR
GSN 3915 620 M 0  36 rL SGR
GSN 3915 1700 M 0 -36 rL SGR
GSN 3955 620 M 0  36 rL SGR
GSN 3955 1700 M 0 -36 rL SGR
GSN 3988 620 M 0  36 rL SGR
GSN 3988 1700 M 0 -36 rL SGR
GSN 4017 620 M 0  36 rL SGR
GSN 4017 1700 M 0 -36 rL SGR
GSN 4043 620 M 0  36 rL SGR
GSN 4043 1700 M 0 -36 rL SGR
GSN 4216 620 M 0  36 rL SGR
GSN 4216 1700 M 0 -36 rL SGR
%
% Y axis: large tics - residual frame
%
L10
GSN 620 802 M 54 0 rL SGR
GSN 4220 802 M -54 0 rL SGR
helvS (-0.04) 560 802 ylabelresid
GSN 620 1029 M 54 0 rL SGR
GSN 4220 1029 M -54 0 rL SGR
helvS (-0.02) 560 1029 ylabelresid
GSN 620 1256 M 54 0 rL SGR
GSN 4220 1256 M -54 0 rL SGR
helvS (0) 560 1256 ylabelresid
GSN 620 1482 M 54 0 rL SGR
GSN 4220 1482 M -54 0 rL SGR
helvS (0.02) 560 1482 ylabelresid

%
% X axis - residual panel
%
GSN L5 620 1256 M 4220 1256 L SDA G50 SGR

end
showpage
%%Trailer
%%EOF
