# data set	./hsmug/series//U-Trp-R243A.1.csv:col(6)
# fraction of residuals inside model inference band	0.977486
#   x(mesh)	    y(mesh)	       rate	   y(mesh)-	   y(mesh)+	    x(data)	    y(data)	   y(model)	   y(error)	   residual	     weight	  residual*	   leverage	  y(model)-	  y(model)+	
2.27273e-005	     1.02125	     -1.1336	-9.53706e+006	9.53706e+006	    2.5e-005	     1.02909	     1.02125	           0	  0.00783542	           1	           0	     20820.8	   -0.130269	     2.17277	
2.27273e-005	     1.02125	     -1.1336	-9.53706e+006	9.53706e+006	    0.001275	     1.01943	     1.01985	           0	-0.000423026	           1	           0	    -4215.83	     1.01985	     1.01985	
2.65091e-005	     1.02125	    -1.13351	-9.53706e+006	9.53706e+006	    0.002525	     1.01456	     1.01849	           0	 -0.00392509	           1	           0	    -1994.19	     1.01849	     1.01849	
3.09203e-005	     1.02124	    -1.13342	-9.53706e+006	9.53706e+006	    0.003775	     1.01981	     1.01715	           0	  0.00265772	           1	           0	     754.055	    0.798012	     1.23629	
3.60656e-005	     1.02124	     -1.1333	-9.53706e+006	9.53706e+006	    0.005025	     1.01821	     1.01585	           0	  0.00235785	           1	           0	     4511.58	    0.479825	     1.55188	
 4.2067e-005	     1.02123	    -1.13316	-9.53706e+006	9.53706e+006	    0.006275	     1.01311	     1.01458	           0	 -0.00146911	           1	           0	     12050.4	    0.138545	     1.89062	
4.54545e-005	     1.02123	    -1.13309	-9.53706e+006	9.53706e+006	    0.007525	      1.0118	     1.01334	           0	 -0.00154099	           1	           0	    -6212.47	     1.01334	     1.01334	
 4.9067e-005	     1.02122	    -1.13301	-9.53706e+006	9.53706e+006	    0.008775	     1.01064	     1.01213	           0	 -0.00149228	           1	           0	    -1847.47	     1.01213	     1.01213	
5.72319e-005	     1.02121	    -1.13282	-9.53706e+006	9.53706e+006	    0.010025	     1.01088	     1.01095	           0	-6.58996e-005	           1	           0	     8418.22	    0.278744	     1.74315	
6.67554e-005	      1.0212	    -1.13261	-9.53706e+006	9.53706e+006	    0.011275	     1.00934	     1.00979	           0	-0.000448995	           1	           0	    -5971.07	     1.00979	     1.00979	
7.78637e-005	     1.02119	    -1.13236	-9.53706e+006	9.53706e+006	    0.012525	     1.00509	     1.00866	           0	 -0.00357875	           1	           0	     8082.14	    0.291224	      1.7261	
9.08204e-005	     1.02118	    -1.13207	-9.53706e+006	9.53706e+006	    0.013775	      1.0085	     1.00756	           0	 0.000940802	           1	           0	     3951.48	    0.505909	     1.50921	
9.09091e-005	     1.02118	    -1.13207	-9.53706e+006	9.53706e+006	    0.015025	     1.00246	     1.00648	           0	 -0.00402037	           1	           0	    -1179.54	     1.00648	     1.00648	
 0.000105933	     1.02116	    -1.13173	-9.53706e+006	9.53706e+006	    0.016275	     1.00249	     1.00543	           0	 -0.00293855	           1	           0	     1471.57	    0.699293	     1.31156	
 0.000123561	     1.02114	    -1.13133	-9.53706e+006	9.53706e+006	    0.017525	     1.00849	      1.0044	           0	  0.00408995	           1	           0	    -2073.38	      1.0044	      1.0044	
 0.000144121	     1.02112	    -1.13087	-9.53706e+006	9.53706e+006	    0.018775	     1.00219	     1.00339	           0	 -0.00120278	           1	           0	    -5509.59	     1.00339	     1.00339	
 0.000168104	     1.02109	    -1.13034	-9.53706e+006	9.53706e+006	    0.020025	     1.00248	      1.0024	           0	7.10821e-005	           1	           0	    -3648.55	      1.0024	      1.0024	
 0.000181818	     1.02107	    -1.13003	-9.53706e+006	9.53706e+006	    0.021275	    0.997883	     1.00144	           0	 -0.00355643	           1	           0	     6031.36	     0.38167	     1.62121	
 0.000196077	     1.02106	    -1.12971	-9.53706e+006	9.53706e+006	    0.022525	    0.998402	      1.0005	           0	 -0.00209472	           1	           0	     9859.67	     0.20808	     1.79291	
 0.000228704	     1.02102	    -1.12898	-9.53706e+006	9.53706e+006	    0.023775	    0.998158	    0.999574	           0	 -0.00141602	           1	           0	     1015.25	    0.745296	     1.25385	
 0.000266761	     1.02098	    -1.12813	-9.53706e+006	9.53706e+006	    0.025025	    0.997502	    0.998671	           0	 -0.00116876	           1	           0	     7815.19	    0.293179	     1.70416	
 0.000311151	     1.02093	    -1.12714	-9.53706e+006	9.53706e+006	    0.026275	    0.994466	    0.997788	           0	 -0.00332201	           1	           0	      2089.7	    0.632979	      1.3626	
 0.000362927	     1.02087	    -1.12598	-9.53706e+006	9.53706e+006	    0.027525	    0.991978	    0.996923	           0	 -0.00494466	           1	           0	    -3249.35	    0.996923	    0.996923	
 0.000363636	     1.02087	    -1.12596	-9.53706e+006	9.53706e+006	    0.028775	    0.992787	    0.996076	           0	  -0.0032894	           1	           0	     18546.7	  -0.0907393	     2.08289	
 0.000423319	      1.0208	    -1.12464	-9.53706e+006	9.53706e+006	    0.030025	    0.997441	    0.995248	           0	  0.00219325	           1	           0	     4730.47	    0.446371	     1.54412	
 0.000493761	     1.02072	    -1.12307	-9.53706e+006	9.53706e+006	    0.031275	    0.992543	    0.994436	           0	 -0.00189366	           1	           0	     6941.05	    0.329569	      1.6593	
 0.000575924	     1.02063	    -1.12125	-9.53706e+006	9.53706e+006	    0.032525	    0.993824	    0.993642	           0	 0.000182347	           1	           0	     5491.39	    0.402266	     1.58502	
 0.000671759	     1.02052	    -1.11912	-9.53706e+006	9.53706e+006	    0.033775	    0.991429	    0.992864	           0	 -0.00143511	           1	           0	     12864.6	   0.0877139	     1.89801	
 0.000727273	     1.02046	     -1.1179	-9.53706e+006	9.53706e+006	    0.035025	    0.992818	    0.992102	           0	 0.000715384	           1	           0	     8722.75	    0.246771	     1.73743	
 0.000783541	      1.0204	    -1.11666	-9.53706e+006	9.53706e+006	    0.036275	      0.9921	    0.991356	           0	 0.000744444	           1	           0	     10377.9	     0.17838	     1.80433	
 0.000913924	     1.02025	    -1.11379	-9.53706e+006	9.53706e+006	    0.037525	    0.991978	    0.990625	           0	  0.00135346	           1	           0	     23992.9	   -0.245504	     2.22675	
    0.001066	     1.02008	    -1.11045	-9.53706e+006	9.53706e+006	    0.038775	    0.989415	    0.989909	           0	-0.000493986	           1	           0	     5376.91	    0.404729	     1.57509	
  0.00124339	     1.01989	    -1.10658	-9.53706e+006	9.53706e+006	    0.040025	    0.986912	    0.989207	           0	 -0.00229493	           1	           0	     6931.63	    0.324791	     1.65362	
  0.00145029	     1.01966	    -1.10208	-9.53706e+006	9.53706e+006	    0.041275	    0.984196	     0.98852	           0	 -0.00432321	           1	           0	     149.421	    0.890969	     1.08607	
  0.00145455	     1.01965	    -1.10199	-9.53706e+006	9.53706e+006	    0.042525	      0.9865	    0.987846	           0	 -0.00134569	           1	           0	     13093.3	   0.0746852	     1.90101	
  0.00169162	     1.01939	    -1.09687	-9.53706e+006	9.53706e+006	    0.043775	    0.986012	    0.987186	           0	 -0.00117363	           1	           0	      8765.1	    0.240047	     1.73432	
  0.00197312	     1.01908	    -1.09083	-9.53706e+006	9.53706e+006	    0.045025	    0.983632	    0.986539	           0	 -0.00290691	           1	           0	     17207.5	  -0.0603055	     2.03338	
  0.00230145	     1.01873	    -1.08384	-9.53706e+006	9.53706e+006	    0.046275	    0.986729	    0.985904	           0	 0.000825193	           1	           0	     7284.48	    0.304787	     1.66702	
  0.00268441	     1.01831	    -1.07577	-9.53706e+006	9.53706e+006	    0.047525	     0.98882	    0.985282	           0	  0.00353717	           1	           0	     22540.6	   -0.212851	     2.18342	
  0.00290909	     1.01807	    -1.07107	-9.53706e+006	9.53706e+006	    0.048775	     0.98647	    0.984673	           0	  0.00179692	           1	           0	     20570.3	   -0.159898	     2.12924	
  0.00313111	     1.01784	    -1.06645	-9.53706e+006	9.53706e+006	    0.050025	    0.985387	    0.984075	           0	  0.00131153	           1	           0	     14366.2	   0.0275551	      1.9406	
  0.00365213	     1.01728	    -1.05571	-9.53706e+006	9.53706e+006	    0.051275	    0.982289	    0.983489	           0	 -0.00120032	           1	           0	       10483	    0.166406	     1.80057	
  0.00425985	     1.01664	    -1.04337	-9.53706e+006	9.53706e+006	    0.052525	    0.985402	    0.982915	           0	  0.00248723	           1	           0	       10526	    0.164159	     1.80167	
   0.0049687	     1.01591	    -1.02921	-9.53706e+006	9.53706e+006	    0.053775	    0.979436	    0.982351	           0	 -0.00291575	           1	           0	     21695.8	   -0.193116	     2.15782	
  0.00579551	     1.01507	    -1.01302	-9.53706e+006	9.53706e+006	    0.055025	        0.98	    0.981799	           0	 -0.00179862	           1	           0	     16971.7	  -0.0578466	     2.02144	
  0.00581818	     1.01504	    -1.01258	-9.53706e+006	9.53706e+006	    0.056275	    0.981297	    0.981257	           0	4.02846e-005	           1	           0	     13345.8	   0.0593332	     1.90318	
   0.0067599	      1.0141	   -0.994548	-9.53706e+006	9.53706e+006	    0.057525	    0.982182	    0.980725	           0	  0.00145679	           1	           0	     10687.1	    0.155729	     1.80572	
  0.00788476	     1.01299	   -0.973561	-9.53706e+006	9.53706e+006	    0.058775	     0.98058	    0.980204	           0	 0.000375727	           1	           0	       19160	   -0.124435	     2.08484	
  0.00919681	     1.01173	   -0.949808	-9.53706e+006	9.53706e+006	    0.060025	    0.980565	    0.979693	           0	 0.000871926	           1	           0	     16833.7	  -0.0557184	      2.0151	
   0.0107272	      1.0103	   -0.923051	-9.53706e+006	9.53706e+006	    0.061275	    0.980183	    0.979191	           0	 0.000992005	           1	           0	     13069.3	   0.0668677	     1.89151	
   0.0116364	     1.00946	   -0.907618	-9.53706e+006	9.53706e+006	    0.062525	    0.977131	    0.978699	           0	 -0.00156743	           1	           0	     4589.56	    0.438059	     1.51934	
   0.0125122	     1.00868	   -0.893067	-9.53706e+006	9.53706e+006	    0.063775	    0.977406	    0.978216	           0	-0.000809958	           1	           0	     12857.6	   0.0733107	     1.88312	
   0.0145943	     1.00685	    -0.85967	-9.53706e+006	9.53706e+006	    0.065025	     0.97736	    0.977742	           0	-0.000381791	           1	           0	     18590.3	   -0.110349	     2.06583	
   0.0170228	     1.00481	   -0.822724	-9.53706e+006	9.53706e+006	    0.066275	    0.975163	    0.977277	           0	 -0.00211413	           1	           0	     22161.3	   -0.210733	     2.16529	
   0.0198554	     1.00254	   -0.782166	-9.53706e+006	9.53706e+006	    0.067525	    0.970326	    0.976821	           0	 -0.00649518	           1	           0	     16732.7	  -0.0554792	     2.00912	
   0.0231594	     1.00003	   -0.738024	-9.53706e+006	9.53706e+006	    0.068775	    0.979436	    0.976374	           0	  0.00306203	           1	           0	       18261	    -0.10204	     2.05479	
   0.0232727	    0.999942	   -0.736567	-9.53706e+006	9.53706e+006	    0.070025	    0.974934	    0.975934	           0	  -0.0010001	           1	           0	      1243.7	    0.694498	     1.25737	
   0.0270132	    0.997275	   -0.690444	-9.53706e+006	9.53706e+006	    0.071275	    0.975514	    0.975503	           0	1.09925e-005	           1	           0	     4931.68	    0.415075	     1.53593	
   0.0315083	    0.994287	   -0.639705	-9.53706e+006	9.53706e+006	    0.072525	    0.974019	     0.97508	           0	 -0.00106132	           1	           0	     19155.6	   -0.129432	     2.07959	
   0.0367513	    0.991076	   -0.586235	-9.53706e+006	9.53706e+006	    0.073775	    0.978886	    0.974665	           0	  0.00422133	           1	           0	      5335.8	    0.391727	      1.5576	
   0.0428668	    0.987664	   -0.530614	-9.53706e+006	9.53706e+006	    0.075025	    0.974232	    0.974257	           0	-2.51009e-005	           1	           0	     130.879	     0.88296	     1.06555	
   0.0465455	    0.985769	   -0.500229	-9.53706e+006	9.53706e+006	    0.076275	    0.971867	    0.973857	           0	 -0.00198985	           1	           0	     19109.5	   -0.129324	     2.07704	
        0.05	    0.984087	   -0.473573	-9.53706e+006	9.53706e+006	    0.077525	    0.980839	    0.973465	           0	  0.00737484	           1	           0	     25901.3	   -0.310885	     2.25781	
   0.0583201	    0.980393	   -0.415971	-9.53706e+006	9.53706e+006	    0.078775	    0.970738	    0.973079	           0	 -0.00234109	           1	           0	     20504.3	   -0.169654	     2.11581	
   0.0680247	    0.976641	   -0.358765	-9.53706e+006	9.53706e+006	    0.080025	    0.975239	    0.972701	           0	   0.0025385	           1	           0	     22250.4	   -0.217697	      2.1631	
   0.0793442	    0.972906	   -0.302964	-9.53706e+006	9.53706e+006	    0.081275	    0.974065	    0.972329	           0	  0.00173537	           1	           0	     14314.4	   0.0175358	     1.92712	
   0.0925473	    0.969271	   -0.249578	-9.53706e+006	9.53706e+006	    0.082525	    0.971272	    0.971965	           0	-0.000692149	           1	           0	      312.18	    0.830963	     1.11297	
   0.0930909	    0.969135	   -0.247607	-9.53706e+006	9.53706e+006	    0.083775	    0.972462	    0.971607	           0	 0.000855873	           1	           0	     10467.5	    0.155128	     1.78809	
    0.107947	    0.965827	   -0.199559	-9.53706e+006	9.53706e+006	    0.085025	     0.97141	    0.971255	           0	 0.000154571	           1	           0	     10629.7	    0.148476	     1.79403	
     0.12591	    0.962671	    -0.15375	-9.53706e+006	9.53706e+006	    0.086275	    0.975239	     0.97091	           0	  0.00432947	           1	           0	    -664.874	     0.97091	     0.97091	
    0.146862	    0.959898	   -0.112839	-9.53706e+006	9.53706e+006	    0.087525	    0.972172	    0.970571	           0	   0.0016013	           1	           0	     19429.1	   -0.141799	     2.08294	
      0.1713	    0.957597	  -0.0773252	-9.53706e+006	9.53706e+006	    0.088775	    0.967976	    0.970238	           0	 -0.00226222	           1	           0	       27609	   -0.355775	     2.29625	
    0.186182	    0.956576	  -0.0604676	-9.53706e+006	9.53706e+006	    0.090025	    0.973988	    0.969912	           0	  0.00407643	           1	           0	     18001.4	   -0.100809	     2.04063	
    0.199805	    0.955843	  -0.0475013	-9.53706e+006	9.53706e+006	    0.091275	    0.976964	    0.969591	           0	  0.00737277	           1	           0	     12807.4	   0.0664545	     1.87273	
    0.233053	     0.95469	  -0.0234444	-9.53706e+006	9.53706e+006	    0.092525	    0.971532	    0.969276	           0	  0.00225551	           1	           0	     19650.2	   -0.149405	     2.08796	
    0.271834	    0.954165	 -0.00501688	-9.53706e+006	9.53706e+006	    0.093775	    0.970677	    0.968967	           0	  0.00171035	           1	           0	       19315	   -0.140131	     2.07806	
    0.317067	    0.954262	  0.00812695	-9.53706e+006	9.53706e+006	    0.095025	    0.972615	    0.968663	           0	  0.00395162	           1	           0	     23245.7	   -0.248065	     2.18539	
    0.369828	    0.954937	   0.0165273	-9.53706e+006	9.53706e+006	    0.096275	    0.967122	    0.968365	           0	 -0.00124339	           1	           0	     22201.3	   -0.220718	     2.15745	
    0.372364	    0.954979	   0.0168009	-9.53706e+006	9.53706e+006	    0.097525	     0.96996	    0.968072	           0	  0.00188782	           1	           0	     15749.7	  -0.0334466	     1.96959	
    0.431368	    0.956111	   0.0208942	-9.53706e+006	9.53706e+006	    0.098775	    0.970372	    0.967785	           0	  0.00258717	           1	           0	     29824.9	   -0.410414	     2.34598	
    0.503149	     0.95767	   0.0220629	-9.53706e+006	9.53706e+006	      0.1001	    0.969502	    0.967485	           0	  0.00201652	           1	           0	     20887.2	    -0.18587	     2.12084	
    0.586875	    0.959481	    0.020926	-9.53706e+006	9.53706e+006	      0.1051	    0.965397	    0.966407	           0	 -0.00100963	           1	           0	     18093.5	   -0.107048	     2.03986	
    0.684532	    0.961404	   0.0183467	-9.53706e+006	9.53706e+006	      0.1101	    0.966267	    0.965404	           0	 0.000863417	           1	           0	     11834.3	   0.0972556	     1.83355	
    0.744727	    0.962456	   0.0165991	-9.53706e+006	9.53706e+006	      0.1151	    0.970357	    0.964471	           0	  0.00588557	           1	           0	     25146.3	   -0.301023	     2.22997	
     0.79844	    0.963306	   0.0150732	-9.53706e+006	9.53706e+006	      0.1201	    0.962803	    0.963603	           0	-0.000799934	           1	           0	       13942	   0.0213133	     1.90589	
    0.931302	    0.965076	   0.0116799	-9.53706e+006	9.53706e+006	      0.1251	    0.963872	    0.962796	           0	  0.00107516	           1	           0	     21804.4	    -0.21561	      2.1412	
           1	    0.965826	   0.0101837	-9.53706e+006	9.53706e+006	      0.1301	    0.965855	    0.962046	           0	  0.00380894	           1	           0	     10770.5	    0.133835	     1.79026	
     1.08627	    0.966633	  0.00855082	-9.53706e+006	9.53706e+006	      0.1351	    0.964284	    0.961349	           0	  0.00293456	           1	           0	     20283.3	   -0.175211	     2.09791	
     1.26703	    0.967925	  0.00590122	-9.53706e+006	9.53706e+006	      0.1401	    0.961598	    0.960701	           0	 0.000896685	           1	           0	     16330.2	  -0.0591061	     1.98051	
     1.47787	    0.968933	  0.00381718	-9.53706e+006	9.53706e+006	      0.1451	    0.959645	      0.9601	           0	-0.000454885	           1	           0	     8520.37	    0.223466	     1.69673	
     1.48945	    0.968977	  0.00372675	-9.53706e+006	9.53706e+006	      0.1501	    0.959508	    0.959542	           0	-3.41959e-005	           1	           0	     16494.3	  -0.0653765	     1.98446	
     1.72379	    0.969669	  0.00229395	-9.53706e+006	9.53706e+006	      0.1551	    0.960118	    0.959024	           0	  0.00109349	           1	           0	     4688.37	    0.412595	     1.50545	
     2.01063	    0.970165	  0.00126615	-9.53706e+006	9.53706e+006	      0.1601	    0.953023	    0.958545	           0	 -0.00552209	           1	           0	     22909.4	    -0.24935	     2.16644	
     2.34521	    0.970471	 0.000632999	-9.53706e+006	9.53706e+006	      0.1651	    0.958836	    0.958101	           0	 0.000735227	           1	           0	     26484.2	   -0.340621	     2.25682	
     2.73546	     0.97064	 0.000281979	-9.53706e+006	9.53706e+006	      0.1701	    0.955998	    0.957691	           0	 -0.00169298	           1	           0	     18760.2	   -0.135362	     2.05074	
     2.97891	    0.970694	 0.000170268	-9.53706e+006	9.53706e+006	      0.1751	    0.962285	    0.957312	           0	  0.00497253	           1	           0	     19924.1	   -0.169138	     2.08376	
     3.19064	    0.970723	 0.000109797	-9.53706e+006	9.53706e+006	      0.1801	     0.95551	    0.956963	           0	 -0.00145315	           1	           0	     15217.5	  -0.0274883	     1.94141	
     3.72157	    0.970758	 3.6543e-005	-9.53706e+006	9.53706e+006	      0.1851	    0.957753	    0.956642	           0	  0.00111116	           1	           0	     19730.6	   -0.164327	     2.07761	
     4.34085	    0.970771	1.01277e-005	-9.53706e+006	9.53706e+006	      0.1901	     0.95139	    0.956347	           0	  -0.0049567	           1	           0	     30532.3	   -0.438103	      2.3508	
     5.06318	    0.970775	2.26716e-006	-9.53706e+006	9.53706e+006	      0.1951	    0.954121	    0.956076	           0	 -0.00195497	           1	           0	     10110.2	    0.153655	      1.7585	
     5.90571	    0.970776	3.95629e-007	-9.53706e+006	9.53706e+006	      0.2001	    0.954579	    0.955829	           0	 -0.00124982	           1	           0	     14357.4	-0.000396734	     1.91205	
     5.95782	    0.970776	3.55137e-007	-9.53706e+006	9.53706e+006	      0.2051	    0.952137	    0.955603	           0	  -0.0034659	           1	           0	     21844.1	   -0.223874	     2.13508	
     6.88843	    0.970776	5.16332e-008	-9.53706e+006	9.53706e+006	      0.2101	    0.956166	    0.955398	           0	 0.000767461	           1	           0	     15986.7	  -0.0536284	     1.96443	
     8.03469	    0.970776	4.80186e-009	-9.53706e+006	9.53706e+006	      0.2151	    0.952763	    0.955213	           0	 -0.00244975	           1	           0	     25390.5	   -0.316409	     2.22683	
     9.37168	    0.970776	3.00777e-010	-9.53706e+006	9.53706e+006	      0.2201	    0.956532	    0.955045	           0	  0.00148679	           1	           0	       26387	   -0.341292	     2.25138	
     10.9312	    0.970776	1.18812e-011	-9.53706e+006	9.53706e+006	      0.2251	    0.956853	    0.954895	           0	  0.00195732	           1	           0	     11819.3	   0.0872979	     1.82249	
     11.9156	    0.970776	1.54541e-012	-9.53706e+006	9.53706e+006	      0.2301	    0.953801	    0.954761	           0	-0.000960782	           1	           0	     13169.9	   0.0389344	     1.87059	
     12.7501	    0.970776	2.74666e-013	-9.53706e+006	9.53706e+006	      0.2351	    0.951084	    0.954643	           0	 -0.00355838	           1	           0	     24410.6	     -0.2922	     2.20149	
     14.8718	    0.970776	3.73703e-015	-9.53706e+006	9.53706e+006	      0.2401	    0.951146	    0.954539	           0	 -0.00339261	           1	           0	     23735.4	   -0.274939	     2.18402	
     17.3465	    0.970776	1.88533e-016	-9.53706e+006	9.53706e+006	      0.2451	    0.956303	    0.954448	           0	  0.00185515	           1	           0	     23379.7	   -0.265782	     2.17468	
      20.233	    0.970776	-8.08744e-017	-9.53706e+006	9.53706e+006	      0.2501	    0.952809	     0.95437	           0	 -0.00156133	           1	           0	     30722.7	    -0.44442	     2.35316	
     23.5998	    0.970776	-1.43564e-017	-9.53706e+006	9.53706e+006	      0.2551	    0.951695	    0.954305	           0	 -0.00260971	           1	           0	     20640.6	   -0.192221	     2.10083	
     23.8313	    0.970776	-5.83452e-017	-9.53706e+006	9.53706e+006	      0.2601	    0.952214	    0.954251	           0	 -0.00203672	           1	           0	     17679.4	   -0.106851	     2.01535	
     27.5269	    0.970776	-1.62749e-017	-9.53706e+006	9.53706e+006	      0.2651	     0.95464	    0.954207	           0	 0.000432898	           1	           0	     22512.5	    -0.24318	     2.15159	
     32.1074	    0.970776	-6.34821e-019	-9.53706e+006	9.53706e+006	      0.2701	    0.951985	    0.954174	           0	 -0.00218884	           1	           0	     16602.3	   -0.074095	     1.98244	
     37.4501	    0.970776	-1.79125e-017	-9.53706e+006	9.53706e+006	      0.2751	    0.953175	     0.95415	           0	 -0.00097497	           1	           0	     15345.2	  -0.0344228	     1.94272	
     43.6819	    0.970776	1.69093e-016	-9.53706e+006	9.53706e+006	      0.2801	    0.951085	    0.954136	           0	 -0.00305073	           1	           0	     18033.6	   -0.117542	     2.02581	
     47.6625	    0.970776	-4.07168e-016	-9.53706e+006	9.53706e+006	      0.2851	     0.95435	    0.954129	           0	 0.000220587	           1	           0	     14367.9	 -0.00244521	      1.9107	
     50.9507	    0.970776	-1.87956e-016	-9.53706e+006	9.53706e+006	      0.2901	    0.954655	    0.954131	           0	 0.000523875	           1	           0	     20818.3	   -0.197319	     2.10558	
     59.4291	    0.970776	-1.16858e-017	-9.53706e+006	9.53706e+006	      0.2951	     0.95345	    0.954141	           0	-0.000691005	           1	           0	     26819.3	   -0.352771	     2.26105	
     69.3182	    0.970776	-6.0551e-020	-9.53706e+006	9.53706e+006	      0.3001	     0.95403	    0.954157	           0	-0.000127616	           1	           0	       11387	    0.102575	     1.80574	
     80.8529	    0.970776	-4.6606e-022	-9.53706e+006	9.53706e+006	      0.3051	    0.954319	    0.954181	           0	 0.000138658	           1	           0	     16248.4	  -0.0630689	     1.97143	
     94.3071	    0.970776	-4.6606e-022	-9.53706e+006	9.53706e+006	      0.3101	     0.95049	     0.95421	           0	 -0.00372039	           1	           0	     12034.5	   0.0787478	     1.82967	
         110	    0.970776	-4.6606e-022	-9.53706e+006	9.53706e+006	      0.3151	    0.957661	    0.954246	           0	  0.00341521	           1	           0	       21014	   -0.202603	      2.1111	
 --	 --	 --	 --	 --	      0.3201	    0.955754	    0.954287	           0	   0.0014666	           1	           0	     21106.1	   -0.205095	     2.11367	
 --	 --	 --	 --	 --	      0.3251	    0.947636	    0.954334	           0	 -0.00669766	           1	           0	     22483.2	   -0.242274	     2.15094	
 --	 --	 --	 --	 --	      0.3301	    0.954716	    0.954385	           0	 0.000331124	           1	           0	     20823.3	   -0.197203	     2.10597	
 --	 --	 --	 --	 --	      0.3351	    0.953511	    0.954441	           0	-0.000930339	           1	           0	     22985.4	   -0.255457	     2.16434	
 --	 --	 --	 --	 --	      0.3401	    0.955769	    0.954502	           0	  0.00126744	           1	           0	     19425.9	   -0.157775	     2.06678	
 --	 --	 --	 --	 --	      0.3451	    0.952946	    0.954566	           0	 -0.00161968	           1	           0	     23302.7	   -0.263654	     2.17279	
 --	 --	 --	 --	 --	      0.3501	    0.953968	    0.954634	           0	-0.000666036	           1	           0	     18396.5	   -0.127772	     2.03704	
 --	 --	 --	 --	 --	      0.3551	    0.951268	    0.954706	           0	 -0.00343838	           1	           0	     22575.4	   -0.244351	     2.15376	
 --	 --	 --	 --	 --	      0.3601	    0.954426	    0.954782	           0	-0.000355292	           1	           0	     26260.5	   -0.338444	     2.24801	
 --	 --	 --	 --	 --	      0.3651	    0.954579	     0.95486	           0	-0.000281344	           1	           0	     17047.7	  -0.0871102	     1.99683	
 --	 --	 --	 --	 --	      0.3701	    0.958592	    0.954942	           0	  0.00365027	           1	           0	     19533.4	   -0.160411	     2.07029	
 --	 --	 --	 --	 --	      0.3751	     0.94994	    0.955026	           0	 -0.00508525	           1	           0	     24953.9	   -0.305617	     2.21567	
 --	 --	 --	 --	 --	      0.3801	    0.954106	    0.955112	           0	 -0.00100632	           1	           0	     10377.1	    0.142168	     1.76806	
 --	 --	 --	 --	 --	      0.3851	    0.956425	    0.955201	           0	  0.00122404	           1	           0	     22430.9	   -0.240014	     2.15042	
 --	 --	 --	 --	 --	      0.3901	    0.956975	    0.955293	           0	    0.001682	           1	           0	     22363.3	   -0.238119	      2.1487	
 --	 --	 --	 --	 --	      0.3951	     0.95641	    0.955386	           0	  0.00102391	           1	           0	     19752.5	   -0.166204	     2.07698	
 --	 --	 --	 --	 --	      0.4001	    0.956013	    0.955481	           0	 0.000532143	           1	           0	     17250.1	  -0.0926562	     2.00362	
 --	 --	 --	 --	 --	      0.4051	    0.951741	    0.955578	           0	 -0.00383717	           1	           0	     24452.2	   -0.292328	     2.20348	
 --	 --	 --	 --	 --	      0.4101	    0.952382	    0.955676	           0	 -0.00329489	           1	           0	     28805.1	   -0.398756	     2.31011	
 --	 --	 --	 --	 --	      0.4151	    0.955388	    0.955776	           0	 -0.00038888	           1	           0	     24030.9	   -0.281331	     2.19288	
 --	 --	 --	 --	 --	      0.4201	    0.953755	    0.955878	           0	 -0.00212282	           1	           0	     18720.2	   -0.136008	     2.04776	
 --	 --	 --	 --	 --	      0.4251	    0.955327	     0.95598	           0	-0.000653795	           1	           0	     13049.5	   0.0443494	     1.86761	
 --	 --	 --	 --	 --	      0.4301	    0.956181	    0.956084	           0	 9.7112e-005	           1	           0	     24040.7	   -0.281277	     2.19345	
 --	 --	 --	 --	 --	      0.4351	     0.95551	    0.956189	           0	-0.000678795	           1	           0	     17912.1	   -0.111873	     2.02425	
 --	 --	 --	 --	 --	      0.4401	    0.956349	    0.956294	           0	 5.4586e-005	           1	           0	     12313.5	    0.070743	     1.84185	
 --	 --	 --	 --	 --	      0.4451	    0.956837	    0.956401	           0	  0.00043655	           1	           0	     17760.7	   -0.107135	     2.01994	
 --	 --	 --	 --	 --	      0.4501	    0.953328	    0.956508	           0	 -0.00318021	           1	           0	     5306.44	    0.375176	     1.53784	
 --	 --	 --	 --	 --	      0.4551	    0.956868	    0.956616	           0	 0.000252188	           1	           0	     19819.4	    -0.16687	      2.0801	
 --	 --	 --	 --	 --	      0.4601	    0.955082	    0.956724	           0	 -0.00164177	           1	           0	     23163.5	   -0.257852	      2.1713	
 --	 --	 --	 --	 --	      0.4651	    0.953419	    0.956833	           0	 -0.00341381	           1	           0	     24833.1	   -0.300755	     2.21442	
 --	 --	 --	 --	 --	      0.4701	    0.958409	    0.956942	           0	  0.00146675	           1	           0	     18032.4	     -0.1147	     2.02858	
 --	 --	 --	 --	 --	      0.4751	    0.958943	    0.957052	           0	  0.00189117	           1	           0	     23235.5	    -0.25941	     2.17351	
 --	 --	 --	 --	 --	      0.4801	    0.954106	    0.957162	           0	 -0.00305588	           1	           0	     15929.5	  -0.0500567	     1.96438	
 --	 --	 --	 --	 --	      0.4851	    0.954579	    0.957272	           0	 -0.00269293	           1	           0	     16200.9	  -0.0584897	     1.97303	
 --	 --	 --	 --	 --	      0.4901	    0.959569	    0.957382	           0	  0.00218666	           1	           0	     13300.7	   0.0370187	     1.87775	
 --	 --	 --	 --	 --	      0.4951	      0.9585	    0.957492	           0	  0.00100817	           1	           0	     18604.2	   -0.131008	     2.04599	
 --	 --	 --	 --	 --	      0.5001	    0.958226	    0.957603	           0	 0.000623441	           1	           0	       12224	   0.0752773	     1.83993	
 --	 --	 --	 --	 --	      0.5051	    0.958272	    0.957713	           0	 0.000558724	           1	           0	     14708.2	  -0.0101242	     1.92555	
 --	 --	 --	 --	 --	      0.5101	     0.95406	    0.957823	           0	 -0.00376293	           1	           0	     23787.7	   -0.273008	     2.18865	
 --	 --	 --	 --	 --	      0.5151	    0.958257	    0.957933	           0	  0.00032332	           1	           0	     4570.56	    0.418413	     1.49745	
 --	 --	 --	 --	 --	      0.5201	    0.959645	    0.958043	           0	  0.00160152	           1	           0	       22446	   -0.237574	     2.15366	
 --	 --	 --	 --	 --	      0.5251	     0.95879	    0.958153	           0	  0.00063711	           1	           0	     14873.4	  -0.0151044	     1.93141	
 --	 --	 --	 --	 --	      0.5301	    0.955815	    0.958263	           0	 -0.00244787	           1	           0	       14127	  0.00974143	     1.90678	
 --	 --	 --	 --	 --	      0.5351	    0.956319	    0.958372	           0	 -0.00205339	           1	           0	     27947.6	   -0.375748	     2.29249	
 --	 --	 --	 --	 --	      0.5401	    0.956532	    0.958481	           0	 -0.00194901	           1	           0	     15279.9	  -0.0279873	     1.94495	
 --	 --	 --	 --	 --	      0.5451	    0.959096	     0.95859	           0	 0.000505901	           1	           0	     25161.2	   -0.307278	     2.22446	
 --	 --	 --	 --	 --	      0.5501	    0.959294	    0.958698	           0	 0.000595773	           1	           0	     20812.5	   -0.192592	     2.10999	
 --	 --	 --	 --	 --	      0.5551	    0.959279	    0.958806	           0	 0.000472833	           1	           0	     19171.1	   -0.146152	     2.06376	
 --	 --	 --	 --	 --	      0.5601	    0.956608	    0.958913	           0	 -0.00230549	           1	           0	     17765.8	   -0.104777	      2.0226	
 --	 --	 --	 --	 --	      0.5651	    0.961705	    0.959021	           0	  0.00268443	           1	           0	     11161.4	    0.115913	     1.80213	
 --	 --	 --	 --	 --	      0.5701	    0.960225	    0.959127	           0	  0.00109741	           1	           0	     21209.8	   -0.203101	     2.12136	
 --	 --	 --	 --	 --	      0.5751	    0.954823	    0.959233	           0	 -0.00441012	           1	           0	     22912.3	    -0.24874	     2.16721	
 --	 --	 --	 --	 --	      0.5801	    0.962132	    0.959339	           0	  0.00279326	           1	           0	     21559.1	   -0.212419	      2.1311	
 --	 --	 --	 --	 --	      0.5851	    0.956746	    0.959444	           0	 -0.00269824	           1	           0	     17367.3	  -0.0922484	     2.01114	
 --	 --	 --	 --	 --	      0.5901	    0.957387	    0.959549	           0	 -0.00216199	           1	           0	     14370.3	  0.00289463	      1.9162	
 --	 --	 --	 --	 --	      0.5951	    0.959095	    0.959653	           0	-0.000557173	           1	           0	     15398.3	  -0.0306293	     1.94993	
 --	 --	 --	 --	 --	      0.6001	    0.958363	    0.959756	           0	 -0.00139258	           1	           0	     18851.9	   -0.135965	     2.05548	
 --	 --	 --	 --	 --	      0.6051	    0.961369	    0.959859	           0	  0.00151061	           1	           0	     17910.5	   -0.108155	     2.02787	
 --	 --	 --	 --	 --	      0.6101	    0.958989	    0.959961	           0	-0.000972199	           1	           0	     22626.5	   -0.240455	     2.16038	
 --	 --	 --	 --	 --	      0.6151	    0.961369	    0.960063	           0	  0.00130641	           1	           0	     12497.9	   0.0679058	     1.85222	
 --	 --	 --	 --	 --	      0.6201	    0.961323	    0.960164	           0	  0.00115966	           1	           0	       15478	  -0.0326789	     1.95301	
 --	 --	 --	 --	 --	      0.6251	    0.960301	    0.960264	           0	3.71504e-005	           1	           0	     18569.5	    -0.12722	     2.04775	
 --	 --	 --	 --	 --	      0.6301	    0.959355	    0.960364	           0	 -0.00100871	           1	           0	     26402.7	   -0.336359	     2.25709	
 --	 --	 --	 --	 --	      0.6351	    0.961338	    0.960463	           0	 0.000875898	           1	           0	      9799.2	    0.170479	     1.75045	
 --	 --	 --	 --	 --	      0.6401	    0.957692	    0.960561	           0	 -0.00286903	           1	           0	     12525.3	   0.0674261	      1.8537	
 --	 --	 --	 --	 --	      0.6451	    0.960194	    0.960658	           0	 -0.00046427	           1	           0	       16797	  -0.0736224	     1.99494	
 --	 --	 --	 --	 --	      0.6501	    0.964116	    0.960755	           0	  0.00336037	           1	           0	     18278.1	   -0.118161	     2.03967	
 --	 --	 --	 --	 --	      0.6551	    0.957051	    0.960852	           0	  -0.0038009	           1	           0	     26888.8	   -0.347754	     2.26946	
 --	 --	 --	 --	 --	      0.6601	    0.964528	    0.960947	           0	  0.00358034	           1	           0	     16840.6	  -0.0746741	     1.99657	
 --	 --	 --	 --	 --	      0.6651	     0.95937	    0.961042	           0	 -0.00167193	           1	           0	     22401.7	   -0.233393	     2.15548	
 --	 --	 --	 --	 --	      0.6701	     0.95612	    0.961136	           0	 -0.00501609	           1	           0	     21921.7	   -0.220434	     2.14271	
 --	 --	 --	 --	 --	      0.6751	    0.960164	     0.96123	           0	 -0.00106593	           1	           0	     17176.6	  -0.0846728	     2.00713	
 --	 --	 --	 --	 --	      0.6801	    0.964558	    0.961322	           0	  0.00323594	           1	           0	     17259.4	  -0.0870969	     2.00974	
 --	 --	 --	 --	 --	      0.6851	     0.95641	    0.961414	           0	 -0.00500447	           1	           0	     12544.4	   0.0675989	     1.85523	
 --	 --	 --	 --	 --	      0.6901	    0.958516	    0.961506	           0	 -0.00299017	           1	           0	     27436.6	   -0.360362	     2.28337	
 --	 --	 --	 --	 --	      0.6951	    0.962376	    0.961596	           0	 0.000779867	           1	           0	     12652.5	   0.0639393	     1.85925	
 --	 --	 --	 --	 --	      0.7001	    0.963521	    0.961686	           0	  0.00183442	           1	           0	     10934.7	    0.127185	     1.79619	
 --	 --	 --	 --	 --	      0.7051	    0.959797	    0.961775	           0	 -0.00197809	           1	           0	     23695.3	   -0.266664	     2.19021	
 --	 --	 --	 --	 --	      0.7101	    0.958973	    0.961864	           0	 -0.00289028	           1	           0	     17921.3	   -0.106472	      2.0302	
 --	 --	 --	 --	 --	      0.7151	    0.959462	    0.961951	           0	 -0.00248954	           1	           0	     12113.3	    0.083628	     1.84027	
 --	 --	 --	 --	 --	      0.7201	    0.965108	    0.962038	           0	  0.00306932	           1	           0	     12068.5	   0.0853417	     1.83873	
 --	 --	 --	 --	 --	      0.7251	    0.961629	    0.962124	           0	-0.000495684	           1	           0	     20889.8	   -0.191303	     2.11555	
 --	 --	 --	 --	 --	      0.7301	    0.962987	     0.96221	           0	 0.000776637	           1	           0	     9889.34	    0.168602	     1.75582	
 --	 --	 --	 --	 --	      0.7351	    0.964223	    0.962295	           0	  0.00192788	           1	           0	     11719.2	   0.0983802	     1.82621	
 --	 --	 --	 --	 --	      0.7401	    0.964268	    0.962379	           0	  0.00188966	           1	           0	     12732.6	   0.0618835	     1.86287	
 --	 --	 --	 --	 --	      0.7451	    0.964009	    0.962462	           0	  0.00154715	           1	           0	     4477.25	    0.428478	     1.49645	
 --	 --	 --	 --	 --	      0.7501	       0.967	    0.962545	           0	  0.00445497	           1	           0	     14913.4	  -0.0120213	     1.93711	
 --	 --	 --	 --	 --	      0.7551	    0.963597	    0.962626	           0	 0.000970713	           1	           0	       17972	   -0.107219	     2.03247	
 --	 --	 --	 --	 --	      0.7601	    0.966115	    0.962708	           0	  0.00340697	           1	           0	     22138.1	    -0.22468	      2.1501	
 --	 --	 --	 --	 --	      0.7651	    0.963978	    0.962788	           0	  0.00119015	           1	           0	     16791.9	  -0.0713345	     1.99691	
 --	 --	 --	 --	 --	      0.7701	    0.964406	    0.962868	           0	  0.00153784	           1	           0	     21741.4	   -0.213833	     2.13957	
 --	 --	 --	 --	 --	      0.7751	    0.958867	    0.962947	           0	 -0.00408016	           1	           0	     13279.1	   0.0433311	     1.88256	
 --	 --	 --	 --	 --	      0.7801	    0.961705	    0.963025	           0	 -0.00132005	           1	           0	     29964.3	   -0.418392	     2.34444	
 --	 --	 --	 --	 --	      0.7851	    0.965565	    0.963103	           0	  0.00246277	           1	           0	     24266.8	   -0.280064	     2.20627	
 --	 --	 --	 --	 --	      0.7901	    0.958333	     0.96318	           0	 -0.00484691	           1	           0	      9933.4	    0.167805	     1.75855	
 --	 --	 --	 --	 --	      0.7951	    0.962422	    0.963256	           0	-0.000833689	           1	           0	     21733.3	   -0.213228	     2.13974	
 --	 --	 --	 --	 --	      0.8001	    0.962971	    0.963331	           0	-0.000359972	           1	           0	     12911.4	   0.0565369	     1.87013	
 --	 --	 --	 --	 --	      0.8051	    0.962071	    0.963406	           0	 -0.00133496	           1	           0	     21502.7	   -0.206819	     2.13363	
 --	 --	 --	 --	 --	      0.8101	    0.966359	     0.96348	           0	  0.00287854	           1	           0	     3476.74	    0.492927	     1.43403	
 --	 --	 --	 --	 --	      0.8151	    0.963078	    0.963553	           0	-0.000475676	           1	           0	     19605.6	   -0.153857	     2.08096	
 --	 --	 --	 --	 --	      0.8201	     0.96468	    0.963626	           0	  0.00105419	           1	           0	     17158.8	  -0.0817356	     2.00899	
 --	 --	 --	 --	 --	      0.8251	     0.96407	    0.963698	           0	 0.000371537	           1	           0	     12210.2	    0.081869	     1.84553	
 --	 --	 --	 --	 --	      0.8301	    0.964268	     0.96377	           0	 0.000498757	           1	           0	     15579.9	  -0.0323349	     1.95987	
 --	 --	 --	 --	 --	      0.8351	    0.963368	     0.96384	           0	-0.000472353	           1	           0	     23404.9	   -0.257049	     2.18473	
 --	 --	 --	 --	 --	      0.8401	    0.963978	     0.96391	           0	6.80026e-005	           1	           0	     11849.5	   0.0952045	     1.83262	
 --	 --	 --	 --	 --	      0.8451	    0.967335	     0.96398	           0	  0.00335542	           1	           0	     21875.8	   -0.216353	     2.14431	
 --	 --	 --	 --	 --	      0.8501	    0.961857	    0.964049	           0	 -0.00219131	           1	           0	       22605	   -0.235795	     2.16389	
 --	 --	 --	 --	 --	      0.8551	    0.963933	    0.964117	           0	-0.000183778	           1	           0	     23248.2	   -0.252677	     2.18091	
 --	 --	 --	 --	 --	      0.8601	    0.961934	    0.964184	           0	  -0.0022502	           1	           0	     10275.5	    0.155231	     1.77314	
 --	 --	 --	 --	 --	      0.8651	    0.961949	    0.964251	           0	 -0.00230198	           1	           0	     10240.5	    0.156677	     1.77182	
 --	 --	 --	 --	 --	      0.8701	    0.964894	    0.964317	           0	 0.000577079	           1	           0	     26290.8	   -0.329655	     2.25829	
 --	 --	 --	 --	 --	      0.8751	    0.962147	    0.964382	           0	 -0.00223523	           1	           0	     16253.9	  -0.0530407	     1.98181	
 --	 --	 --	 --	 --	      0.8801	    0.965565	    0.964447	           0	   0.0011181	           1	           0	     9851.59	    0.172355	     1.75654	
 --	 --	 --	 --	 --	      0.8851	    0.964055	    0.964512	           0	-0.000456949	           1	           0	     22590.7	   -0.234952	     2.16398	
 --	 --	 --	 --	 --	      0.8901	    0.966466	    0.964575	           0	  0.00189062	           1	           0	     10831.5	    0.134023	     1.79513	
 --	 --	 --	 --	 --	      0.8951	    0.965733	    0.964638	           0	  0.00109501	           1	           0	     23511.8	   -0.259035	     2.18831	
 --	 --	 --	 --	 --	      0.9001	    0.968785	    0.964701	           0	  0.00408441	           1	           0	     19959.7	   -0.162756	     2.09216	
 --	 --	 --	 --	 --	      0.9051	     0.96822	    0.964762	           0	  0.00345782	           1	           0	     11335.6	    0.115102	     1.81442	
 --	 --	 --	 --	 --	      0.9101	    0.966405	    0.964824	           0	  0.00158103	           1	           0	     19595.3	   -0.152293	     2.08194	
 --	 --	 --	 --	 --	      0.9151	    0.966908	    0.964884	           0	  0.00202404	           1	           0	      8459.4	     0.23089	     1.69888	
 --	 --	 --	 --	 --	      0.9201	    0.964177	    0.964944	           0	-0.000767362	           1	           0	     17817.7	   -0.100298	     2.03019	
 --	 --	 --	 --	 --	      0.9251	    0.964955	    0.965004	           0	-4.83736e-005	           1	           0	     10617.3	    0.142703	      1.7873	
 --	 --	 --	 --	 --	      0.9301	    0.962239	    0.965062	           0	  -0.0028234	           1	           0	       17447	  -0.0890402	     2.01916	
 --	 --	 --	 --	 --	      0.9351	    0.966954	    0.965121	           0	  0.00183295	           1	           0	     17404.8	  -0.0877077	     2.01795	
 --	 --	 --	 --	 --	      0.9401	    0.965703	    0.965178	           0	 0.000524271	           1	           0	     19245.7	   -0.141929	     2.07229	
 --	 --	 --	 --	 --	      0.9451	    0.963307	    0.965235	           0	 -0.00192844	           1	           0	     16500.8	  -0.0598845	     1.99036	
 --	 --	 --	 --	 --	      0.9501	    0.967045	    0.965292	           0	  0.00175342	           1	           0	       27037	   -0.346913	      2.2775	
 --	 --	 --	 --	 --	      0.9551	    0.966069	    0.965348	           0	 0.000720835	           1	           0	     20621.2	    -0.18064	     2.11134	
 --	 --	 --	 --	 --	      0.9601	    0.967747	    0.965403	           0	  0.00234401	           1	           0	     15908.7	  -0.0411574	     1.97196	
 --	 --	 --	 --	 --	      0.9651	    0.962987	    0.965458	           0	 -0.00247167	           1	           0	     19507.8	   -0.149161	     2.08008	
 --	 --	 --	 --	 --	      0.9701	    0.963505	    0.965513	           0	 -0.00200721	           1	           0	     15745.7	  -0.0358795	      1.9669	
 --	 --	 --	 --	 --	      0.9751	    0.971837	    0.965566	           0	  0.00627019	           1	           0	     12717.5	   0.0656046	     1.86553	
 --	 --	 --	 --	 --	      0.9801	    0.971089	     0.96562	           0	  0.00546934	           1	           0	     25601.6	   -0.311279	     2.24252	
 --	 --	 --	 --	 --	      0.9851	    0.963719	    0.965672	           0	 -0.00195359	           1	           0	     24498.4	   -0.283412	     2.21476	
 --	 --	 --	 --	 --	      0.9901	    0.967183	    0.965725	           0	   0.0014582	           1	           0	     16626.8	  -0.0633042	     1.99475	
 --	 --	 --	 --	 --	      0.9951	    0.969502	    0.965776	           0	  0.00372592	           1	           0	     7394.57	    0.279531	     1.65202	
 --	 --	 --	 --	 --	      1.0001	    0.966939	    0.965827	           0	  0.00111116	           1	           0	     15708.7	  -0.0343867	     1.96604	
 --	 --	 --	 --	 --	      1.0051	    0.966664	    0.965878	           0	 0.000785903	           1	           0	     30952.4	   -0.438132	     2.36989	
 --	 --	 --	 --	 --	      1.0101	    0.967946	    0.965928	           0	  0.00201736	           1	           0	     6659.62	    0.314679	     1.61718	
 --	 --	 --	 --	 --	      1.0151	    0.966588	    0.965978	           0	 0.000609715	           1	           0	     21750.5	    -0.21097	     2.14293	
 --	 --	 --	 --	 --	      1.0201	    0.971165	    0.966027	           0	  0.00513837	           1	           0	       17265	   -0.082563	     2.01462	
 --	 --	 --	 --	 --	      1.0251	    0.963887	    0.966076	           0	 -0.00218868	           1	           0	     13962.8	   0.0230804	     1.90907	
 --	 --	 --	 --	 --	      1.0301	    0.966908	    0.966124	           0	 0.000784157	           1	           0	     10418.5	    0.151562	     1.78069	
 --	 --	 --	 --	 --	      1.0351	    0.967549	    0.966172	           0	  0.00137728	           1	           0	     9310.93	    0.196121	     1.73622	
 --	 --	 --	 --	 --	      1.0401	    0.965657	    0.966219	           0	-0.000561719	           1	           0	     11512.8	    0.109942	      1.8225	
 --	 --	 --	 --	 --	      1.0451	    0.967961	    0.966265	           0	  0.00169556	           1	           0	     16789.7	  -0.0677899	     2.00032	
 --	 --	 --	 --	 --	      1.0501	    0.968342	    0.966312	           0	  0.00203071	           1	           0	     11905.9	   0.0955426	     1.83708	
 --	 --	 --	 --	 --	      1.0551	    0.968434	    0.966357	           0	  0.00207612	           1	           0	     17353.4	  -0.0849134	     2.01763	
 --	 --	 --	 --	 --	      1.0601	    0.967091	    0.966403	           0	 0.000688402	           1	           0	      8026.5	    0.251436	     1.68137	
 --	 --	 --	 --	 --	      1.0651	    0.969716	    0.966448	           0	  0.00326794	           1	           0	     11863.6	   0.0972253	     1.83567	
 --	 --	 --	 --	 --	      1.0701	    0.968541	    0.966492	           0	  0.00204873	           1	           0	     6428.38	    0.326649	     1.60634	
 --	 --	 --	 --	 --	      1.0751	    0.965504	    0.966536	           0	 -0.00103163	           1	           0	     13510.4	   0.0389429	     1.89413	
 --	 --	 --	 --	 --	      1.0801	     0.96584	     0.96658	           0	 -0.00073955	           1	           0	     23599.9	   -0.259385	     2.19254	
 --	 --	 --	 --	 --	      1.0851	    0.969533	    0.966623	           0	  0.00290997	           1	           0	     13436.1	    0.041584	     1.89166	
 --	 --	 --	 --	 --	      1.0901	    0.968617	    0.966665	           0	  0.00195174	           1	           0	     17973.5	   -0.103224	     2.03655	
 --	 --	 --	 --	 --	      1.0951	    0.969105	    0.966707	           0	  0.00239773	           1	           0	     2753.02	    0.547984	     1.38543	
 --	 --	 --	 --	 --	         1.1	    0.966434	    0.966748	           0	-0.000313918	           1	           0	       14791	 -0.00380928	     1.93731	
 --	 --	 --	 --	 --	       1.225	     0.97353	    0.967665	           0	  0.00586432	           1	           0	       14041	   0.0220344	      1.9133	
 --	 --	 --	 --	 --	        1.35	    0.968876	    0.968375	           0	 0.000501224	           1	           0	     16987.6	  -0.0717595	     2.00851	
 --	 --	 --	 --	 --	       1.475	    0.970402	    0.968922	           0	  0.00147947	           1	           0	     12564.6	   0.0743869	     1.86346	
 --	 --	 --	 --	 --	         1.6	    0.975818	    0.969345	           0	   0.0064733	           1	           0	     8384.67	      0.2386	     1.70009	
 --	 --	 --	 --	 --	       1.725	    0.972214	    0.969672	           0	  0.00254209	           1	           0	     19137.6	   -0.134322	     2.07367	
 --	 --	 --	 --	 --	        1.85	      0.9762	    0.969924	           0	  0.00627659	           1	           0	     9950.76	    0.173854	     1.76599	
 --	 --	 --	 --	 --	       1.975	    0.976181	    0.970118	           0	   0.0060631	           1	           0	     13919.6	    0.028585	     1.91165	
 --	 --	 --	 --	 --	         2.1	    0.978432	    0.970268	           0	  0.00816348	           1	           0	     14310.3	   0.0156106	     1.92493	
 --	 --	 --	 --	 --	       2.225	    0.972309	    0.970384	           0	  0.00192512	           1	           0	     10394.9	    0.156744	     1.78402	
 --	 --	 --	 --	 --	        2.35	    0.977211	    0.970474	           0	  0.00673719	           1	           0	     18405.7	   -0.112203	     2.05315	
 --	 --	 --	 --	 --	       2.475	    0.976105	    0.970543	           0	  0.00556242	           1	           0	     11182.9	    0.126624	     1.81446	
 --	 --	 --	 --	 --	         2.6	    0.977516	    0.970596	           0	   0.0069204	           1	           0	     4085.01	    0.460538	     1.48065	
 --	 --	 --	 --	 --	       2.725	    0.973244	    0.970637	           0	  0.00260679	           1	           0	     -2730.3	    0.970637	    0.970637	
 --	 --	 --	 --	 --	        2.85	    0.974655	    0.970669	           0	  0.00398656	           1	           0	     5485.78	    0.379594	     1.56174	
 --	 --	 --	 --	 --	       2.975	    0.972042	    0.970693	           0	  0.00134881	           1	           0	     15270.8	  -0.0154804	     1.95687	
 --	 --	 --	 --	 --	         3.1	    0.973587	    0.970712	           0	  0.00287516	           1	           0	     14946.2	 -0.00492365	     1.94635	
 --	 --	 --	 --	 --	       3.225	      0.9795	    0.970727	           0	  0.00877307	           1	           0	     8624.29	    0.229614	     1.71184	
 --	 --	 --	 --	 --	        3.35	    0.975456	    0.970738	           0	  0.00471831	           1	           0	     9943.65	    0.174953	     1.76652	
 --	 --	 --	 --	 --	       3.475	    0.977554	    0.970747	           0	  0.00680787	           1	           0	     6030.55	    0.351019	     1.59047	
 --	 --	 --	 --	 --	         3.6	    0.974121	    0.970753	           0	  0.00336766	           1	           0	     18739.8	   -0.121704	     2.06321	
 --	 --	 --	 --	 --	       3.725	    0.972042	    0.970759	           0	  0.00128374	           1	           0	     9273.95	    0.202239	     1.73928	
 --	 --	 --	 --	 --	        3.85	    0.972443	    0.970763	           0	  0.00168024	           1	           0	     9293.54	    0.201432	     1.74009	
 --	 --	 --	 --	 --	       3.975	    0.970459	    0.970766	           0	-0.000306594	           1	           0	     18494.2	    -0.11451	     2.05604	
 --	 --	 --	 --	 --	         4.1	    0.974083	    0.970768	           0	  0.00331503	           1	           0	     10128.3	    0.167629	     1.77391	
 --	 --	 --	 --	 --	       4.225	     0.97559	     0.97077	           0	  0.00481994	           1	           0	       16822	  -0.0642818	     2.00582	
 --	 --	 --	 --	 --	        4.35	    0.977421	    0.970771	           0	  0.00664952	           1	           0	     15566.2	  -0.0248963	     1.96644	
 --	 --	 --	 --	 --	       4.475	    0.972309	    0.970772	           0	  0.00153668	           1	           0	     1572.08	    0.654355	     1.28719	
 --	 --	 --	 --	 --	         4.6	    0.974445	    0.970773	           0	  0.00367233	           1	           0	     10895.2	    0.137781	     1.80377	
 --	 --	 --	 --	 --	       4.725	    0.981789	    0.970774	           0	   0.0110149	           1	           0	      878.39	    0.734255	     1.20729	
 --	 --	 --	 --	 --	        4.85	    0.972919	    0.970774	           0	  0.00214518	           1	           0	     21154.3	    -0.18993	     2.13148	
 --	 --	 --	 --	 --	       4.975	    0.975208	    0.970775	           0	  0.00443379	           1	           0	     17782.5	  -0.0934157	     2.03497	
 --	 --	 --	 --	 --	         5.1	    0.973186	    0.970775	           0	  0.00241149	           1	           0	       19450	   -0.142192	     2.08374	
 --	 --	 --	 --	 --	       5.225	    0.979519	    0.970775	           0	  0.00874376	           1	           0	     19027.3	   -0.130031	     2.07158	
 --	 --	 --	 --	 --	        5.35	    0.970154	    0.970775	           0	-0.000621671	           1	           0	     4423.16	    0.440027	     1.50152	
 --	 --	 --	 --	 --	       5.475	    0.977116	    0.970776	           0	  0.00634019	           1	           0	     19706.4	   -0.149505	     2.09106	
 --	 --	 --	 --	 --	         5.6	    0.975704	    0.970776	           0	  0.00492883	           1	           0	     28361.1	   -0.373177	     2.31473	
 --	 --	 --	 --	 --	       5.725	    0.978966	    0.970776	           0	  0.00818975	           1	           0	     12585.5	   0.0754974	     1.86605	
 --	 --	 --	 --	 --	        5.85	    0.974579	    0.970776	           0	  0.00380319	           1	           0	     15851.5	  -0.0339741	     1.97553	
 --	 --	 --	 --	 --	       5.975	    0.974293	    0.970776	           0	  0.00351714	           1	           0	     10472.2	    0.154114	     1.78744	
 --	 --	 --	 --	 --	         6.1	    0.974712	    0.970776	           0	  0.00393635	           1	           0	     9816.66	    0.180089	     1.76146	
 --	 --	 --	 --	 --	       6.225	    0.973549	    0.970776	           0	  0.00277282	           1	           0	     9075.43	    0.210526	     1.73103	
 --	 --	 --	 --	 --	        6.35	    0.979595	    0.970776	           0	   0.0088193	           1	           0	     11163.8	    0.127581	     1.81397	
 --	 --	 --	 --	 --	       6.475	    0.977478	    0.970776	           0	  0.00670228	           1	           0	     18532.6	   -0.115626	     2.05718	
 --	 --	 --	 --	 --	         6.6	    0.973167	    0.970776	           0	  0.00239127	           1	           0	     8117.34	    0.251775	     1.68978	
 --	 --	 --	 --	 --	       6.725	     0.97168	    0.970776	           0	  0.00090376	           1	           0	     13255.7	     0.05197	     1.88958	
 --	 --	 --	 --	 --	        6.85	     0.97208	    0.970776	           0	  0.00130425	           1	           0	     5322.57	    0.388561	     1.55299	
 --	 --	 --	 --	 --	       6.975	    0.973778	    0.970776	           0	  0.00300175	           1	           0	     10817.5	    0.140761	     1.80079	
 --	 --	 --	 --	 --	         7.1	    0.979252	    0.970776	           0	  0.00847599	           1	           0	     11722.7	     0.10673	     1.83482	
 --	 --	 --	 --	 --	       7.225	    0.973434	    0.970776	           0	  0.00265849	           1	           0	     1200.46	    0.694275	     1.24728	
 --	 --	 --	 --	 --	        7.35	    0.974445	    0.970776	           0	  0.00366923	           1	           0	     10865.6	    0.138917	     1.80264	
 --	 --	 --	 --	 --	       7.475	    0.974159	    0.970776	           0	  0.00338323	           1	           0	       12661	   0.0728152	     1.86874	
 --	 --	 --	 --	 --	         7.6	    0.978279	    0.970776	           0	  0.00750298	           1	           0	     3285.04	     0.51338	     1.42817	
 --	 --	 --	 --	 --	       7.725	    0.976486	    0.970776	           0	  0.00571048	           1	           0	     12549.5	   0.0767786	     1.86477	
 --	 --	 --	 --	 --	        7.85	    0.972309	    0.970776	           0	  0.00153323	           1	           0	     12432.8	   0.0809448	     1.86061	
 --	 --	 --	 --	 --	       7.975	    0.976276	    0.970776	           0	  0.00550023	           1	           0	     23284.2	    -0.24696	     2.18851	
 --	 --	 --	 --	 --	         8.1	    0.973434	    0.970776	           0	  0.00265848	           1	           0	     21276.7	   -0.193282	     2.13483	
 --	 --	 --	 --	 --	       8.225	    0.975685	    0.970776	           0	  0.00490898	           1	           0	     14346.7	   0.0149051	     1.92665	
 --	 --	 --	 --	 --	        8.35	    0.972805	    0.970776	           0	  0.00202923	           1	           0	     4116.01	    0.458787	     1.48277	
 --	 --	 --	 --	 --	       8.475	    0.975514	    0.970776	           0	  0.00473773	           1	           0	     8024.17	    0.255913	     1.68564	
 --	 --	 --	 --	 --	         8.6	    0.976105	    0.970776	           0	  0.00532873	           1	           0	     6283.16	    0.338202	     1.60335	
 --	 --	 --	 --	 --	       8.725	    0.974884	    0.970776	           0	  0.00410823	           1	           0	     14647.3	  0.00494566	     1.93661	
 --	 --	 --	 --	 --	        8.85	     0.97311	    0.970776	           0	  0.00233423	           1	           0	     1988.35	    0.614924	     1.32663	
 --	 --	 --	 --	 --	       8.975	    0.979118	    0.970776	           0	  0.00834223	           1	           0	     2154.49	    0.600355	      1.3412	
 --	 --	 --	 --	 --	         9.1	    0.972939	    0.970776	           0	  0.00216248	           1	           0	     15872.3	  -0.0346334	     1.97619	
 --	 --	 --	 --	 --	       9.225	    0.978527	    0.970776	           0	  0.00775123	           1	           0	     16535.1	  -0.0554099	     1.99696	
 --	 --	 --	 --	 --	        9.35	    0.973759	    0.970776	           0	  0.00298273	           1	           0	     3993.05	    0.466492	     1.47506	
 --	 --	 --	 --	 --	       9.475	    0.974426	    0.970776	           0	  0.00365048	           1	           0	     10964.7	    0.135134	     1.80642	
 --	 --	 --	 --	 --	         9.6	    0.975933	    0.970776	           0	  0.00515723	           1	           0	     17490.8	  -0.0846483	      2.0262	
 --	 --	 --	 --	 --	       9.725	    0.966645	    0.970776	           0	 -0.00413152	           1	           0	     15000.5	 -0.00663214	     1.94818	
 --	 --	 --	 --	 --	        9.85	    0.971966	    0.970776	           0	  0.00118973	           1	           0	      6599.7	    0.322463	     1.61909	
 --	 --	 --	 --	 --	       9.975	    0.974007	    0.970776	           0	  0.00323073	           1	           0	     11553.8	    0.112979	     1.82857	
 --	 --	 --	 --	 --	        10.4	    0.974217	    0.970776	           0	  0.00344048	           1	           0	     15317.5	  -0.0169052	     1.95846	
 --	 --	 --	 --	 --	        10.9	      0.9766	    0.970776	           0	  0.00582448	           1	           0	     9415.26	    0.196423	     1.74513	
 --	 --	 --	 --	 --	        11.4	    0.976009	    0.970776	           0	  0.00523323	           1	           0	     12639.6	   0.0735745	     1.86798	
 --	 --	 --	 --	 --	        11.9	    0.976219	    0.970776	           0	  0.00544323	           1	           0	     10599.6	    0.149163	     1.79239	
 --	 --	 --	 --	 --	        12.4	    0.973416	    0.970776	           0	  0.00263948	           1	           0	     4830.69	    0.416116	     1.52544	
 --	 --	 --	 --	 --	        12.9	    0.970344	    0.970776	           0	-0.000431775	           1	           0	       12632	   0.0738445	     1.86771	
 --	 --	 --	 --	 --	        13.4	     0.97435	    0.970776	           0	  0.00357423	           1	           0	       11214	    0.125687	     1.81587	
 --	 --	 --	 --	 --	        13.9	    0.973931	    0.970776	           0	  0.00315448	           1	           0	     11213.9	    0.125689	     1.81586	
 --	 --	 --	 --	 --	        14.4	    0.975666	    0.970776	           0	  0.00488998	           1	           0	     11049.3	    0.131916	     1.80964	
 --	 --	 --	 --	 --	        14.9	    0.971908	    0.970776	           0	  0.00113248	           1	           0	     11213.9	    0.125689	     1.81586	
 --	 --	 --	 --	 --	        15.4	    0.972328	    0.970776	           0	  0.00155223	           1	           0	     17166.9	  -0.0748322	     2.01638	
 --	 --	 --	 --	 --	        15.9	    0.969067	    0.970776	           0	 -0.00170927	           1	           0	     17167.1	  -0.0748362	     2.01639	
 --	 --	 --	 --	 --	        16.4	    0.974445	    0.970776	           0	  0.00366923	           1	           0	     11049.2	    0.131917	     1.80963	
 --	 --	 --	 --	 --	        16.9	    0.973434	    0.970776	           0	  0.00265848	           1	           0	     11213.9	    0.125688	     1.81586	
 --	 --	 --	 --	 --	        17.4	    0.971031	    0.970776	           0	 0.000255225	           1	           0	     11049.2	     0.13192	     1.80963	
 --	 --	 --	 --	 --	        17.9	    0.973492	    0.970776	           0	  0.00271573	           1	           0	     11049.2	     0.13192	     1.80963	
 --	 --	 --	 --	 --	        18.4	    0.971298	    0.970776	           0	 0.000522225	           1	           0	     11049.3	    0.131916	     1.80964	
 --	 --	 --	 --	 --	        18.9	    0.976639	    0.970776	           0	  0.00586273	           1	           0	       11214	    0.125685	     1.81587	
 --	 --	 --	 --	 --	        19.4	    0.970726	    0.970776	           0	-4.9775e-005	           1	           0	       11214	    0.125687	     1.81587	
 --	 --	 --	 --	 --	        19.9	    0.979443	    0.970776	           0	  0.00866673	           1	           0	     11049.2	    0.131917	     1.80963	
 --	 --	 --	 --	 --	        20.4	    0.974522	    0.970776	           0	  0.00374573	           1	           0	     11049.2	    0.131918	     1.80963	
 --	 --	 --	 --	 --	        20.9	    0.969028	    0.970776	           0	 -0.00174752	           1	           0	     17166.9	  -0.0748322	     2.01638	
 --	 --	 --	 --	 --	        21.4	    0.974083	    0.970776	           0	  0.00330698	           1	           0	     11049.2	    0.131917	     1.80963	
 --	 --	 --	 --	 --	        21.9	    0.971775	    0.970776	           0	 0.000998975	           1	           0	     11213.9	    0.125688	     1.81586	
 --	 --	 --	 --	 --	        22.4	    0.972729	    0.970776	           0	  0.00195273	           1	           0	       11214	    0.125687	     1.81587	
 --	 --	 --	 --	 --	        22.9	    0.978222	    0.970776	           0	  0.00744598	           1	           0	     11049.3	    0.131915	     1.80964	
 --	 --	 --	 --	 --	        23.4	    0.969429	    0.970776	           0	 -0.00134702	           1	           0	     11049.3	    0.131915	     1.80964	
 --	 --	 --	 --	 --	        23.9	    0.969696	    0.970776	           0	 -0.00108002	           1	           0	     17493.9	  -0.0847438	      2.0263	
 --	 --	 --	 --	 --	        24.4	    0.973911	    0.970776	           0	  0.00313548	           1	           0	     11213.9	    0.125688	     1.81586	
 --	 --	 --	 --	 --	        24.9	     0.97229	    0.970776	           0	  0.00151423	           1	           0	     11049.3	    0.131916	     1.80964	
 --	 --	 --	 --	 --	        25.4	    0.970249	    0.970776	           0	-0.000527025	           1	           0	       17167	  -0.0748342	     2.01639	
 --	 --	 --	 --	 --	        25.9	    0.972252	    0.970776	           0	  0.00147598	           1	           0	       17167	  -0.0748342	     2.01639	
 --	 --	 --	 --	 --	        26.4	     0.97414	    0.970776	           0	  0.00336423	           1	           0	     11213.9	     0.12569	     1.81586	
 --	 --	 --	 --	 --	        26.9	    0.972729	    0.970776	           0	  0.00195273	           1	           0	     11213.9	     0.12569	     1.81586	
 --	 --	 --	 --	 --	        27.4	    0.968151	    0.970776	           0	 -0.00262477	           1	           0	     11049.2	    0.131918	     1.80963	
 --	 --	 --	 --	 --	        27.9	    0.971603	    0.970776	           0	 0.000827475	           1	           0	     17331.7	  -0.0798372	     2.02139	
 --	 --	 --	 --	 --	        28.4	    0.964661	    0.970776	           0	 -0.00611527	           1	           0	     11213.9	    0.125689	     1.81586	
 --	 --	 --	 --	 --	        28.9	    0.968952	    0.970776	           0	 -0.00182402	           1	           0	     11213.9	    0.125688	     1.81586	
 --	 --	 --	 --	 --	        29.4	      0.9725	    0.970776	           0	  0.00172398	           1	           0	     11213.9	    0.125688	     1.81586	
 --	 --	 --	 --	 --	        29.9	    0.972633	    0.970776	           0	  0.00185748	           1	           0	     11213.9	    0.125689	     1.81586	
 --	 --	 --	 --	 --	        30.4	    0.970173	    0.970776	           0	-0.000603275	           1	           0	     11049.2	    0.131917	     1.80963	
 --	 --	 --	 --	 --	        30.9	    0.967121	    0.970776	           0	 -0.00365502	           1	           0	     17331.6	  -0.0798363	     2.02139	
 --	 --	 --	 --	 --	        31.4	     0.97374	    0.970776	           0	  0.00296373	           1	           0	       11214	    0.125687	     1.81587	
 --	 --	 --	 --	 --	        31.9	    0.969296	    0.970776	           0	 -0.00148027	           1	           0	     11213.9	    0.125688	     1.81586	
 --	 --	 --	 --	 --	        32.4	     0.96489	    0.970776	           0	 -0.00588652	           1	           0	     11213.9	    0.125688	     1.81586	
 --	 --	 --	 --	 --	        32.9	    0.975933	    0.970776	           0	  0.00515698	           1	           0	     11213.9	    0.125688	     1.81586	
 --	 --	 --	 --	 --	        33.4	    0.967693	    0.970776	           0	 -0.00308277	           1	           0	     11213.9	    0.125688	     1.81586	
 --	 --	 --	 --	 --	        33.9	    0.967274	    0.970776	           0	 -0.00350252	           1	           0	     11213.9	    0.125688	     1.81586	
 --	 --	 --	 --	 --	        34.4	    0.976543	    0.970776	           0	  0.00576748	           1	           0	     11213.9	    0.125688	     1.81586	
 --	 --	 --	 --	 --	        34.9	    0.969887	    0.970776	           0	-0.000889025	           1	           0	     11213.9	    0.125688	     1.81586	
 --	 --	 --	 --	 --	        35.4	     0.96756	    0.970776	           0	 -0.00321627	           1	           0	     11213.9	    0.125688	     1.81586	
 --	 --	 --	 --	 --	        35.9	     0.97147	    0.970776	           0	 0.000693975	           1	           0	     11213.9	    0.125691	     1.81586	
 --	 --	 --	 --	 --	        36.4	    0.969429	    0.970776	           0	 -0.00134702	           1	           0	     11213.9	    0.125689	     1.81586	
 --	 --	 --	 --	 --	        36.9	    0.968266	    0.970776	           0	 -0.00251052	           1	           0	     11213.8	    0.125692	     1.81586	
 --	 --	 --	 --	 --	        37.4	    0.973511	    0.970776	           0	  0.00273498	           1	           0	     11213.9	    0.125691	     1.81586	
 --	 --	 --	 --	 --	        37.9	    0.972939	    0.970776	           0	  0.00216248	           1	           0	     11213.9	    0.125691	     1.81586	
 --	 --	 --	 --	 --	        38.4	    0.970421	    0.970776	           0	-0.000355025	           1	           0	     11213.8	    0.125692	     1.81586	
 --	 --	 --	 --	 --	        38.9	      0.9692	    0.970776	           0	 -0.00157602	           1	           0	     11213.9	    0.125691	     1.81586	
 --	 --	 --	 --	 --	        39.4	    0.970078	    0.970776	           0	-0.000698275	           1	           0	     11213.9	    0.125691	     1.81586	
 --	 --	 --	 --	 --	        39.9	    0.967064	    0.970776	           0	 -0.00371227	           1	           0	     11213.8	    0.125692	     1.81586	
 --	 --	 --	 --	 --	        40.4	    0.967178	    0.970776	           0	 -0.00359777	           1	           0	     11213.9	    0.125691	     1.81586	
 --	 --	 --	 --	 --	        40.9	     0.96962	    0.970776	           0	 -0.00115627	           1	           0	     11213.9	    0.125688	     1.81586	
 --	 --	 --	 --	 --	        41.4	    0.968151	    0.970776	           0	 -0.00262502	           1	           0	     11213.9	    0.125688	     1.81586	
 --	 --	 --	 --	 --	        41.9	    0.970173	    0.970776	           0	-0.000603025	           1	           0	       11214	    0.125687	     1.81587	
 --	 --	 --	 --	 --	        42.4	    0.970745	    0.970776	           0	-3.1025e-005	           1	           0	       11214	    0.125687	     1.81587	
 --	 --	 --	 --	 --	        42.9	     0.96714	    0.970776	           0	 -0.00363577	           1	           0	     17331.7	  -0.0798383	     2.02139	
 --	 --	 --	 --	 --	        43.4	    0.968418	    0.970776	           0	 -0.00235777	           1	           0	     17331.7	  -0.0798383	     2.02139	
 --	 --	 --	 --	 --	        43.9	    0.971699	    0.970776	           0	 0.000922725	           1	           0	     17331.7	  -0.0798383	     2.02139	
 --	 --	 --	 --	 --	        44.4	    0.964126	    0.970776	           0	 -0.00664952	           1	           0	     17331.7	  -0.0798383	     2.02139	
 --	 --	 --	 --	 --	        44.9	    0.975552	    0.970776	           0	  0.00477573	           1	           0	     11049.2	    0.131917	     1.80963	
 --	 --	 --	 --	 --	        45.4	    0.969162	    0.970776	           0	 -0.00161402	           1	           0	       11214	    0.125685	     1.81587	
 --	 --	 --	 --	 --	        45.9	    0.973797	    0.970776	           0	  0.00302073	           1	           0	       11214	    0.125687	     1.81587	
 --	 --	 --	 --	 --	        46.4	    0.972748	    0.970776	           0	  0.00197173	           1	           0	       11214	    0.125687	     1.81587	
 --	 --	 --	 --	 --	        46.9	    0.967541	    0.970776	           0	 -0.00323527	           1	           0	       11214	    0.125687	     1.81587	
 --	 --	 --	 --	 --	        47.4	    0.969486	    0.970776	           0	 -0.00128977	           1	           0	       11214	    0.125687	     1.81587	
 --	 --	 --	 --	 --	        47.9	    0.968075	    0.970776	           0	 -0.00270127	           1	           0	       11214	    0.125687	     1.81587	
 --	 --	 --	 --	 --	        48.4	    0.970516	    0.970776	           0	-0.000259775	           1	           0	       11214	    0.125685	     1.81587	
 --	 --	 --	 --	 --	        48.9	    0.970058	    0.970776	           0	-0.000717775	           1	           0	       11214	    0.125687	     1.81587	
 --	 --	 --	 --	 --	        49.4	    0.966129	    0.970776	           0	 -0.00464702	           1	           0	       11214	    0.125687	     1.81587	
 --	 --	 --	 --	 --	        49.9	    0.965786	    0.970776	           0	 -0.00499002	           1	           0	       11214	    0.125687	     1.81587	
 --	 --	 --	 --	 --	        50.4	    0.972519	    0.970776	           0	  0.00174298	           1	           0	       11214	    0.125687	     1.81587	
 --	 --	 --	 --	 --	        50.9	    0.966339	    0.970776	           0	 -0.00443702	           1	           0	       11214	    0.125687	     1.81587	
 --	 --	 --	 --	 --	        51.4	      0.9692	    0.970776	           0	 -0.00157577	           1	           0	       11214	    0.125687	     1.81587	
 --	 --	 --	 --	 --	        51.9	    0.970822	    0.970776	           0	 4.5475e-005	           1	           0	       11214	    0.125687	     1.81587	
 --	 --	 --	 --	 --	        52.4	    0.967407	    0.970776	           0	 -0.00336877	           1	           0	       11214	    0.125687	     1.81587	
 --	 --	 --	 --	 --	        52.9	    0.967827	    0.970776	           0	 -0.00294902	           1	           0	       11214	    0.125687	     1.81587	
 --	 --	 --	 --	 --	        53.4	     0.96838	    0.970776	           0	 -0.00239627	           1	           0	       11214	    0.125687	     1.81587	
 --	 --	 --	 --	 --	        53.9	    0.967712	    0.970776	           0	 -0.00306352	           1	           0	       11214	    0.125687	     1.81587	
 --	 --	 --	 --	 --	        54.4	    0.966454	    0.970776	           0	 -0.00432227	           1	           0	       11214	    0.125687	     1.81587	
 --	 --	 --	 --	 --	        54.9	    0.966396	    0.970776	           0	 -0.00437952	           1	           0	       11214	    0.125687	     1.81587	
 --	 --	 --	 --	 --	        55.4	    0.970344	    0.970776	           0	-0.000431525	           1	           0	     11049.3	    0.131916	     1.80964	
 --	 --	 --	 --	 --	        55.9	    0.967426	    0.970776	           0	 -0.00334977	           1	           0	     17331.7	  -0.0798383	     2.02139	
 --	 --	 --	 --	 --	        56.4	    0.969048	    0.970776	           0	 -0.00172827	           1	           0	     17331.7	  -0.0798383	     2.02139	
 --	 --	 --	 --	 --	        56.9	    0.963631	    0.970776	           0	 -0.00714527	           1	           0	     17331.7	  -0.0798374	     2.02139	
 --	 --	 --	 --	 --	        57.4	    0.968685	    0.970776	           0	 -0.00209077	           1	           0	     17331.7	  -0.0798374	     2.02139	
 --	 --	 --	 --	 --	        57.9	     0.96859	    0.970776	           0	 -0.00218627	           1	           0	     11213.9	    0.125688	     1.81586	
 --	 --	 --	 --	 --	        58.4	    0.966091	    0.970776	           0	 -0.00468502	           1	           0	     11213.9	    0.125688	     1.81586	
 --	 --	 --	 --	 --	        58.9	    0.967255	    0.970776	           0	 -0.00352127	           1	           0	     11213.9	    0.125688	     1.81586	
 --	 --	 --	 --	 --	        59.4	    0.967712	    0.970776	           0	 -0.00306352	           1	           0	     11213.9	    0.125688	     1.81586	
 --	 --	 --	 --	 --	        59.9	    0.971184	    0.970776	           0	 0.000407725	           1	           0	     11213.9	    0.125688	     1.81586	
 --	 --	 --	 --	 --	        60.4	    0.970631	    0.970776	           0	-0.000145275	           1	           0	     11213.9	    0.125688	     1.81586	
 --	 --	 --	 --	 --	        60.9	    0.968304	    0.970776	           0	 -0.00247202	           1	           0	     11213.9	    0.125688	     1.81586	
 --	 --	 --	 --	 --	        61.4	    0.966301	    0.970776	           0	 -0.00447502	           1	           0	     11213.9	    0.125688	     1.81586	
 --	 --	 --	 --	 --	        61.9	    0.964795	    0.970776	           0	 -0.00598152	           1	           0	     11213.9	    0.125688	     1.81586	
 --	 --	 --	 --	 --	        62.4	    0.969258	    0.970776	           0	 -0.00151852	           1	           0	     11213.9	    0.125688	     1.81586	
 --	 --	 --	 --	 --	        62.9	    0.970249	    0.970776	           0	-0.000527025	           1	           0	     11213.9	    0.125688	     1.81586	
 --	 --	 --	 --	 --	        63.4	    0.967331	    0.970776	           0	 -0.00344502	           1	           0	     11213.9	    0.125688	     1.81586	
 --	 --	 --	 --	 --	        63.9	    0.966149	    0.970776	           0	 -0.00462752	           1	           0	     11213.9	    0.125688	     1.81586	
 --	 --	 --	 --	 --	        64.4	    0.966568	    0.970776	           0	 -0.00420777	           1	           0	       11214	    0.125687	     1.81587	
 --	 --	 --	 --	 --	        64.9	    0.973492	    0.970776	           0	  0.00271548	           1	           0	       11214	    0.125687	     1.81587	
 --	 --	 --	 --	 --	        65.4	    0.970497	    0.970776	           0	-0.000279025	           1	           0	     11213.9	    0.125688	     1.81586	
 --	 --	 --	 --	 --	        65.9	    0.967483	    0.970776	           0	 -0.00329252	           1	           0	       11214	    0.125687	     1.81587	
 --	 --	 --	 --	 --	        66.4	    0.964661	    0.970776	           0	 -0.00611527	           1	           0	       11214	    0.125687	     1.81587	
 --	 --	 --	 --	 --	        66.9	    0.964165	    0.970776	           0	 -0.00661102	           1	           0	       11214	    0.125687	     1.81587	
 --	 --	 --	 --	 --	        67.4	    0.970097	    0.970776	           0	-0.000679525	           1	           0	     11213.9	    0.125688	     1.81586	
 --	 --	 --	 --	 --	        67.9	    0.969524	    0.970776	           0	 -0.00125177	           1	           0	     11213.9	    0.125688	     1.81586	
 --	 --	 --	 --	 --	        68.4	    0.969525	    0.970776	           0	 -0.00125152	           1	           0	     11213.9	    0.125688	     1.81586	
 --	 --	 --	 --	 --	        68.9	    0.970611	    0.970776	           0	-0.000164525	           1	           0	       11214	    0.125687	     1.81587	
 --	 --	 --	 --	 --	        69.4	      0.9692	    0.970776	           0	 -0.00157577	           1	           0	     11213.9	    0.125688	     1.81586	
 --	 --	 --	 --	 --	        69.9	    0.967007	    0.970776	           0	 -0.00376927	           1	           0	     11213.9	    0.125688	     1.81586	
 --	 --	 --	 --	 --	        70.4	    0.965233	    0.970776	           0	 -0.00554302	           1	           0	     11213.9	    0.125688	     1.81586	
 --	 --	 --	 --	 --	        70.9	    0.967827	    0.970776	           0	 -0.00294927	           1	           0	     11213.9	    0.125688	     1.81586	
 --	 --	 --	 --	 --	        71.4	    0.965061	    0.970776	           0	 -0.00571477	           1	           0	     11213.9	    0.125688	     1.81586	
 --	 --	 --	 --	 --	        71.9	    0.965691	    0.970776	           0	 -0.00508552	           1	           0	     11213.9	    0.125688	     1.81586	
 --	 --	 --	 --	 --	        72.4	    0.969239	    0.970776	           0	 -0.00153752	           1	           0	     11213.9	    0.125688	     1.81586	
 --	 --	 --	 --	 --	        72.9	     0.97126	    0.970776	           0	 0.000483975	           1	           0	       11214	    0.125687	     1.81587	
 --	 --	 --	 --	 --	        73.4	    0.966358	    0.970776	           0	 -0.00441777	           1	           0	       11214	    0.125687	     1.81587	
 --	 --	 --	 --	 --	        73.9	    0.965824	    0.970776	           0	 -0.00495177	           1	           0	       11214	    0.125687	     1.81587	
 --	 --	 --	 --	 --	        74.4	    0.966892	    0.970776	           0	 -0.00388402	           1	           0	       11214	    0.125687	     1.81587	
 --	 --	 --	 --	 --	        74.9	     0.97147	    0.970776	           0	 0.000693975	           1	           0	       11214	    0.125687	     1.81587	
 --	 --	 --	 --	 --	        75.4	    0.966473	    0.970776	           0	 -0.00430327	           1	           0	       11214	    0.125687	     1.81587	
 --	 --	 --	 --	 --	        75.9	    0.966091	    0.970776	           0	 -0.00468477	           1	           0	       11214	    0.125687	     1.81587	
 --	 --	 --	 --	 --	        76.4	    0.971012	    0.970776	           0	 0.000236225	           1	           0	       11214	    0.125687	     1.81587	
 --	 --	 --	 --	 --	        76.9	    0.971375	    0.970776	           0	 0.000598475	           1	           0	       11214	    0.125687	     1.81587	
 --	 --	 --	 --	 --	        77.4	    0.967808	    0.970776	           0	 -0.00296852	           1	           0	       11214	    0.125687	     1.81587	
 --	 --	 --	 --	 --	        77.9	    0.971928	    0.970776	           0	  0.00115198	           1	           0	       11214	    0.125687	     1.81587	
 --	 --	 --	 --	 --	        78.4	    0.960903	    0.970776	           0	 -0.00987277	           1	           0	       11214	    0.125687	     1.81587	
 --	 --	 --	 --	 --	        78.9	    0.961533	    0.970776	           0	 -0.00924327	           1	           0	       11214	    0.125687	     1.81587	
 --	 --	 --	 --	 --	        79.4	    0.970745	    0.970776	           0	-3.1025e-005	           1	           0	       11214	    0.125687	     1.81587	
 --	 --	 --	 --	 --	        79.9	    0.968304	    0.970776	           0	 -0.00247227	           1	           0	       11214	    0.125687	     1.81587	
 --	 --	 --	 --	 --	        80.4	    0.963097	    0.970776	           0	 -0.00767952	           1	           0	       11214	    0.125687	     1.81587	
 --	 --	 --	 --	 --	        80.9	    0.968704	    0.970776	           0	 -0.00207177	           1	           0	       11214	    0.125687	     1.81587	
 --	 --	 --	 --	 --	        81.4	    0.967674	    0.970776	           0	 -0.00310177	           1	           0	       11214	    0.125687	     1.81587	
 --	 --	 --	 --	 --	        81.9	    0.972958	    0.970776	           0	  0.00218148	           1	           0	       11214	    0.125687	     1.81587	
 --	 --	 --	 --	 --	        82.4	    0.968475	    0.970776	           0	 -0.00230077	           1	           0	       11214	    0.125687	     1.81587	
 --	 --	 --	 --	 --	        82.9	    0.972348	    0.970776	           0	  0.00157148	           1	           0	       11214	    0.125687	     1.81587	
 --	 --	 --	 --	 --	        83.4	    0.963993	    0.970776	           0	 -0.00678302	           1	           0	       11214	    0.125687	     1.81587	
 --	 --	 --	 --	 --	        83.9	    0.972252	    0.970776	           0	  0.00147598	           1	           0	       11214	    0.125687	     1.81587	
 --	 --	 --	 --	 --	        84.4	     0.96796	    0.970776	           0	 -0.00281577	           1	           0	       11214	    0.125687	     1.81587	
 --	 --	 --	 --	 --	        84.9	    0.968647	    0.970776	           0	 -0.00212902	           1	           0	       11214	    0.125687	     1.81587	
 --	 --	 --	 --	 --	        85.4	    0.968284	    0.970776	           0	 -0.00249152	           1	           0	       11214	    0.125687	     1.81587	
 --	 --	 --	 --	 --	        85.9	    0.967827	    0.970776	           0	 -0.00294902	           1	           0	       11214	    0.125687	     1.81587	
 --	 --	 --	 --	 --	        86.4	    0.965786	    0.970776	           0	 -0.00499002	           1	           0	       11214	    0.125687	     1.81587	
 --	 --	 --	 --	 --	        86.9	    0.966968	    0.970776	           0	 -0.00380752	           1	           0	       11214	    0.125687	     1.81587	
 --	 --	 --	 --	 --	        87.4	    0.966778	    0.970776	           0	 -0.00399827	           1	           0	       11214	    0.125687	     1.81587	
 --	 --	 --	 --	 --	        87.9	     0.96695	    0.970776	           0	 -0.00382652	           1	           0	       11214	    0.125687	     1.81587	
 --	 --	 --	 --	 --	        88.4	    0.967941	    0.970776	           0	 -0.00283477	           1	           0	       11214	    0.125687	     1.81587	
 --	 --	 --	 --	 --	        88.9	    0.965081	    0.970776	           0	 -0.00569552	           1	           0	       11214	    0.125687	     1.81587	
 --	 --	 --	 --	 --	        89.4	    0.961247	    0.970776	           0	 -0.00952927	           1	           0	       11214	    0.125686	     1.81587	
 --	 --	 --	 --	 --	        89.9	    0.969925	    0.970776	           0	-0.000851275	           1	           0	       11214	    0.125687	     1.81587	
 --	 --	 --	 --	 --	        90.4	    0.965157	    0.970776	           0	 -0.00561927	           1	           0	       11214	    0.125687	     1.81587	
 --	 --	 --	 --	 --	        90.9	    0.963783	    0.970776	           0	 -0.00699277	           1	           0	       11214	    0.125687	     1.81587	
 --	 --	 --	 --	 --	        91.4	     0.96592	    0.970776	           0	 -0.00485627	           1	           0	       11214	    0.125687	     1.81587	
 --	 --	 --	 --	 --	        91.9	    0.966816	    0.970776	           0	 -0.00396027	           1	           0	       11214	    0.125687	     1.81587	
 --	 --	 --	 --	 --	        92.4	    0.968781	    0.970776	           0	 -0.00199527	           1	           0	       11214	    0.125686	     1.81587	
 --	 --	 --	 --	 --	        92.9	    0.969238	    0.970776	           0	 -0.00153802	           1	           0	       11214	    0.125686	     1.81587	
 --	 --	 --	 --	 --	        93.4	    0.962753	    0.970776	           0	 -0.00802277	           1	           0	       11214	    0.125686	     1.81587	
 --	 --	 --	 --	 --	        93.9	    0.968914	    0.970776	           0	 -0.00186177	           1	           0	       11214	    0.125687	     1.81587	
 --	 --	 --	 --	 --	        94.4	    0.968399	    0.970776	           0	 -0.00237702	           1	           0	       11214	    0.125687	     1.81587	
 --	 --	 --	 --	 --	        94.9	    0.965137	    0.970776	           0	 -0.00563852	           1	           0	       11214	    0.125687	     1.81587	
 --	 --	 --	 --	 --	        95.4	    0.968494	    0.970776	           0	 -0.00228152	           1	           0	       11214	    0.125687	     1.81587	
 --	 --	 --	 --	 --	        95.9	    0.964165	    0.970776	           0	 -0.00661127	           1	           0	       11214	    0.125687	     1.81587	
 --	 --	 --	 --	 --	        96.4	    0.964661	    0.970776	           0	 -0.00611527	           1	           0	       11214	    0.125687	     1.81587	
 --	 --	 --	 --	 --	        96.9	    0.969715	    0.970776	           0	 -0.00106077	           1	           0	       11214	    0.125687	     1.81587	
 --	 --	 --	 --	 --	        97.4	    0.966797	    0.970776	           0	 -0.00397927	           1	           0	       11214	    0.125687	     1.81587	
 --	 --	 --	 --	 --	        97.9	    0.967217	    0.970776	           0	 -0.00355927	           1	           0	       11214	    0.125687	     1.81587	
 --	 --	 --	 --	 --	        98.4	    0.963192	    0.970776	           0	 -0.00758402	           1	           0	       11214	    0.125687	     1.81587	
 --	 --	 --	 --	 --	        98.9	    0.967903	    0.970776	           0	 -0.00287277	           1	           0	       11214	    0.125687	     1.81587	
 --	 --	 --	 --	 --	        99.4	    0.960064	    0.970776	           0	   -0.010712	           1	           0	       11214	    0.125687	     1.81587	
 --	 --	 --	 --	 --	        99.9	    0.965309	    0.970776	           0	 -0.00546677	           1	           0	       11214	    0.125687	     1.81587	
 --	 --	 --	 --	 --	         100	    0.967961	    0.970776	           0	 -0.00281552	           1	           0	       11214	    0.125687	     1.81587	
