%!PS-Adobe-3.0 EPSF-3.0
%%BoundingBox: 0 0 514 550
%%Creator: BioKin Ltd.
%%DocumentFonts: Symbol Helvetica
%%EndComments
%
/bkdict 256 dict def
bkdict begin
/M {moveto} def 
/R {rmoveto} def
/L {lineto} def
/rL {rlineto} def
/GSN {gsave newpath} def
/SGR {stroke grestore} def
/COSGR {gsave setrgbcolor stroke grestore grestore} def
/SL {setlinewidth} def
/LWMB {12} def             % line width - model curves, black & white
/LWMC {10} def             % line width - model curves, color
/L2 {2.5 setlinewidth} def
/L5 {5 setlinewidth} def
/L10 {10 setlinewidth} def
/G50 {0.5 setgray} def
/SDA {[10  20] 0 setdash} def % axes
/helvT {/Helvetica findfont 100 scalefont setfont} def % tiny
/helvS {/Helvetica findfont 125 scalefont setfont} def % small
/helvM {/Helvetica findfont 150 scalefont setfont} def % medium
/helvL {/Helvetica findfont 175 scalefont setfont} def % large
/xlabel {gsave M dup
   stringwidth exch -0.5 mul exch rmoveto show grestore} def 
/ylabel {gsave M 90 rotate dup
   stringwidth exch -0.5 mul exch rmoveto show grestore} def
/ylabelresid {gsave M dup
   stringwidth exch -1 mul exch rmoveto show grestore} def
% ======
% Shapes
% ======
% Circle:
/Circ {0 360 arc closepath} def
%
% Square:
/Squa {dup dup -0.5 mul dup dup R -2 mul 0 exch rL 1 mul 0 rL dup 0 exch -1 mul rL closepath} def
%
% Triangle Up:
/TriU {dup dup dup -0.4 mul exch -0.5 mul exch R dup 0.5 mul exch rL dup -1 mul exch 0.5 mul exch rL closepath} def 
%
% Triangle Down:
/TriD {dup dup dup 0.4 mul exch -0.5 mul exch R dup 0.5 mul exch -1 mul rL dup 0.5 mul exch rL closepath} def 
%
% Diamond:
/Diam {45 rotate Squa} def
% ======
% Fills
% ======
/GRF {gsave setgray fill grestore} def                    % gray-level Fill
/COF {gsave setrgbcolor fill grestore} def                % color fill
% ======
% Colors
% ======
/C01 {1.00	0.00	0.00} def      % Red
/C02 {0.00	0.00	1.00} def      % Blue
/C03 {0.00	0.39	0.00} def      % Dark Green
/C04 {0.78	0.08	0.52} def      % Medium Violet Red
/C05 {0.55	0.27	0.07} def      % Saddle Brown
/C06 {0.10	0.70	0.70} def      % (cyan)
/C07 {1.00	0.55	0.00} def      % Dark Orange
/C08 {0.63	0.13	0.94} def      % Purple
/C09 {0.00	0.75	1.00} def      % Deep Sky Blue
/C10 {0.20	0.80	0.20} def      % Lime Green
/C11 {0.47	0.53	0.60} def      % Light Slate Gray
/C12 {0.00	0.00	0.00} def      % Black            % or: {0.19	0.31	0.31} def      % Dark Slate Gray
%
/LGR {0.75} def % light gray
/DGR {0.33} def % dark gray
%
% =============
% Dash patterns
% =============
/dash01 { [80  20] 0 setdash } def
/dash02 { [40  20] 0 setdash } def
/dash03 { [80  20  10  20] 0 setdash } def
/dash04 { [40  20  10  20] 0 setdash } def
/dash05 { [80  20  10  10  10  20] 0 setdash } def
/dash06 { [40  20  10  10  10  20] 0 setdash } def
/dash07 { [10  10] 0 setdash } def
%
/MFshow {
   { dup 5 get 3 ge
     { 5 get 3 eq {gsave} {grestore} ifelse }
     {dup dup 0 get findfont exch 1 get scalefont setfont
     [ currentpoint ] exch dup 2 get 0 exch R dup 5 get 2 ne {dup dup 6
     get exch 4 get {show} {stringwidth pop 0 R} ifelse }if dup 5 get 0 eq
     {dup 3 get {2 get neg 0 exch R pop} {pop aload pop M} ifelse} {dup 5
     get 1 eq {dup 2 get exch dup 3 get exch 6 get stringwidth pop -2 div
     dup 0 R} {dup 6 get stringwidth pop -2 div 0 R 6 get
     show 2 index {aload pop M neg 3 -1 roll neg R pop pop} {pop pop pop
     pop aload pop M} ifelse }ifelse }ifelse }
     ifelse }
   forall} bind def
/MFwidth {0 exch {dup 3 get{dup dup 0 get findfont exch 1 get scalefont
     setfont 6 get stringwidth pop add} {pop} ifelse} forall} bind def
/MCshow { currentpoint stroke M
  exch dup MFwidth -2 div 3 -1 roll R MFshow } def
%
end
%%EndProlog
bkdict begin
0.1 0.1 scale
%
% Residuals:
%
GSN 620 2970 M
620 2603 L
620 2928 L
620 3865 L
620 3880 L
620 3554 L
620 3557 L
620 3417 L
620 3487 L
620 3546 L
620 3450 L
620 3860 L
620 3436 L
620 3819 L
620 3874 L
620 3654 L
620 3631 L
620 3769 L
620 3622 L
620 3869 L
620 3737 L
620 3772 L
620 3979 L
620 4116 L
620 3539 L
620 3910 L
620 4394 L
620 3944 L
620 4046 L
620 3978 L
620 3908 L
620 3929 L
620 3676 L
620 4197 L
620 4064 L
620 4001 L
620 3727 L
620 4211 L
620 4176 L
620 3798 L
620 3879 L
620 3911 L
620 4001 L
620 3616 L
620 3521 L
620 4144 L
620 3799 L
620 3573 L
620 3687 L
620 3994 L
620 3316 L
620 3455 L
620 3784 L
620 3920 L
620 3550 L
620 3931 L
620 3919 L
620 3784 L
620 3434 L
620 3960 L
620 4224 L
620 3943 L
620 3424 L
620 3198 L
620 3718 L
620 3522 L
620 3514 L
620 3627 L
620 3745 L
620 3249 L
620 4114 L
620 3584 L
620 3499 L
620 3466 L
620 3768 L
620 3197 L
620 4062 L
620 3771 L
620 3961 L
620 3414 L
620 3627 L
620 3456 L
620 3440 L
620 3285 L
620 3189 L
620 3198 L
620 3259 L
620 3574 L
620 3006 L
620 3076 L
620 3535 L
620 3154 L
620 3222 L
620 3100 L
620 3068 L
620 3172 L
620 2505 L
620 3096 L
620 2939 L
620 2837 L
620 2965 L
620 2863 L
620 2376 L
620 2608 L
620 3174 L
620 2581 L
620 2857 L
620 3172 L
620 2663 L
620 2731 L
620 2383 L
620 2263 L
620 2486 L
620 2387 L
620 2483 L
620 2429 L
620 2575 L
620 2449 L
620 2438 L
620 2699 L
620 2240 L
620 2433 L
620 2494 L
620 2446 L
620 2209 L
620 2367 L
620 2822 L
620 2476 L
620 2572 L
620 2230 L
620 2637 L
620 2595 L
620 2332 L
620 2155 L
620 3188 L
620 2602 L
620 2310 L
620 2136 L
620 2578 L
620 2793 L
620 2334 L
620 2449 L
620 3030 L
620 2600 L
620 2689 L
620 2808 L
620 2540 L
620 2857 L
620 2350 L
620 2518 L
620 2856 L
620 2718 L
620 2796 L
620 2517 L
620 2882 L
620 3168 L
620 2615 L
620 3035 L
620 2520 L
620 2612 L
620 2914 L
620 2447 L
620 3006 L
620 3105 L
620 2830 L
620 2841 L
620 2668 L
620 3042 L
620 2886 L
620 2329 L
620 2690 L
620 3180 L
620 2933 L
620 2588 L
620 2609 L
620 2999 L
620 3082 L
620 2537 L
620 3005 L
620 2646 L
620 2834 L
620 2855 L
620 2451 L
620 3281 L
620 2863 L
620 2896 L
620 3581 L
620 3186 L
620 3286 L
620 3298 L
620 3279 L
620 2914 L
620 2994 L
620 3053 L
620 2357 L
620 2813 L
620 3235 L
620 3264 L
620 2818 L
620 2852 L
620 3281 L
620 3039 L
620 3165 L
620 3430 L
620 2972 L
620 3204 L
620 3029 L
620 3127 L
620 3034 L
620 3382 L
620 3483 L
620 3456 L
620 3082 L
620 3222 L
620 2952 L
620 3483 L
620 3026 L
620 3250 L
620 3579 L
620 3259 L
620 3379 L
620 3450 L
620 3215 L
620 3093 L
620 3240 L
620 3599 L
620 3512 L
620 3376 L
620 3608 L
620 3348 L
620 3035 L
620 3363 L
620 3149 L
620 3468 L
620 3311 L
620 3465 L
620 3519 L
620 3708 L
620 3360 L
620 3446 L
620 3627 L
620 3278 L
620 3621 L
620 3443 L
620 3469 L
620 3142 L
620 2978 L
620 3862 L
620 3764 L
620 3708 L
620 3626 L
620 3276 L
620 3794 L
620 3263 L
620 3643 L
620 3732 L
620 3837 L
620 3948 L
620 3688 L
620 3576 L
620 3594 L
620 3362 L
620 3697 L
620 3678 L
620 3822 L
620 3714 L
620 3939 L
620 3347 L
620 3875 L
620 3368 L
620 3965 L
620 3284 L
620 3420 L
620 3273 L
620 3890 L
620 3394 L
620 3828 L
620 3238 L
620 3750 L
620 4020 L
620 3716 L
620 4194 L
620 4194 L
620 4352 L
620 4022 L
620 3954 L
620 4500 L
620 4419 L
620 3698 L
620 4177 L
620 4262 L
620 4194 L
620 4444 L
620 4695 L
620 4383 L
620 4422 L
620 4439 L
620 4505 L
620 4485 L
620 4579 L
620 4450 L
620 4017 L
620 4070 L
620 4157 L
620 4214 L
620 4727 L
620 4328 L
620 4620 L
620 4445 L
620 4797 L
620 4682 L
620 4430 L
620 4767 L
620 4319 L
620 4801 L
620 4312 L
620 4815 L
620 4371 L
620 4657 L
620 4673 L
620 4301 L
620 4365 L
620 4417 L
620 4378 L
620 4588 L
620 4184 L
620 4769 L
620 4280 L
620 3965 L
620 4492 L
620 3788 L
620 4317 L
620 4192 L
620 4297 L
620 3923 L
620 4863 L
620 3812 L
620 4218 L
620 4326 L
620 4492 L
620 4096 L
620 4273 L
620 4393 L
620 4402 L
620 4457 L
620 4409 L
620 4319 L
620 4212 L
620 3753 L
620 3666 L
620 4437 L
620 4393 L
620 4177 L
620 3919 L
620 4109 L
620 4341 L
620 4282 L
620 4286 L
620 4208 L
620 4330 L
620 4171 L
620 4350 L
620 3997 L
620 3620 L
620 3996 L
620 4059 L
620 4319 L
620 4048 L
620 3982 L
620 4323 L
620 4723 L
620 3895 L
620 4087 L
620 4168 L
620 4232 L
620 3969 L
620 3790 L
620 3692 L
620 3888 L
620 4496 L
620 4341 L
620 3790 L
620 3961 L
620 3877 L
620 3812 L
620 3585 L
620 4181 L
620 3657 L
620 3803 L
620 4137 L
620 4323 L
620 3535 L
620 3948 L
620 4043 L
620 3729 L
620 3604 L
620 3952 L
620 3866 L
620 3432 L
620 3829 L
620 3609 L
620 4065 L
620 4175 L
620 3655 L
620 3442 L
620 4192 L
620 3409 L
620 3687 L
620 4064 L
620 3893 L
620 3723 L
620 3766 L
620 3726 L
620 3781 L
620 4046 L
620 3619 L
620 3512 L
620 3642 L
620 3790 L
620 3965 L
620 3401 L
620 3784 L
620 3567 L
620 3727 L
620 3666 L
620 3738 L
620 3742 L
620 3325 L
620 4210 L
620 3692 L
620 3757 L
620 3758 L
620 3071 L
620 3794 L
620 3493 L
620 3969 L
620 3593 L
620 3821 L
620 3772 L
620 3880 L
620 3779 L
620 3786 L
620 3821 L
620 3473 L
620 3797 L
620 3379 L
620 3523 L
620 3982 L
620 3545 L
620 3807 L
620 3862 L
620 3888 L
620 3493 L
620 3261 L
620 3480 L
620 3246 L
620 3729 L
620 3738 L
620 3539 L
620 3471 L
620 3434 L
620 3401 L
620 3513 L
620 3701 L
620 3598 L
620 3154 L
620 3572 L
620 3672 L
620 3498 L
620 3062 L
620 3318 L
620 3935 L
620 3694 L
620 3602 L
620 3213 L
620 3180 L
620 3369 L
620 3276 L
620 3667 L
620 3248 L
620 3158 L
620 3591 L
620 3523 L
620 3533 L
620 3969 L
620 3246 L
620 3699 L
620 3513 L
620 3078 L
620 3185 L
620 3489 L
620 3606 L
620 3388 L
620 3395 L
620 3578 L
620 3607 L
620 3993 L
620 3783 L
620 3925 L
620 3309 L
620 3394 L
620 3629 L
620 3670 L
620 3392 L
620 3498 L
620 3303 L
620 3746 L
620 3381 L
620 3465 L
620 3808 L
620 3889 L
620 3497 L
620 3624 L
620 3688 L
620 3620 L
620 3207 L
620 3585 L
620 3773 L
620 3331 L
620 3533 L
620 3493 L
620 3583 L
620 3191 L
620 3576 L
620 3635 L
620 3867 L
620 3369 L
620 3632 L
620 3272 L
620 3657 L
620 3465 L
620 3600 L
620 3561 L
L2 C03 COSGR

%
%================
% Legend - Begin
%================
%
GSN 4240 5180 M
4480 5180 L
LWMC SL  C03 COSGR
GSN 4540 5141 M helvM (1.5 uM) show grestore
%
%================
% Legend - End
%================
%

%
% Main frame
%
L10
GSN 
620 1700 M
4220 1700 L
4220 5300 L
620 5300 L
closepath SGR

%
% X axis: large tics
%
L10
%
% X axis: small tics
%
L5
%
% Y axis: large tics
%
L10
GSN 620 2587 M 54 0 rL SGR
GSN 4220 2587 M -54 0 rL SGR
helvS (-0.01) 560 2587 ylabel
GSN 620 3553 M 54 0 rL SGR
GSN 4220 3553 M -54 0 rL SGR
helvS (0) 560 3553 ylabel
GSN 620 4520 M 54 0 rL SGR
GSN 4220 4520 M -54 0 rL SGR
helvS (0.01) 560 4520 ylabel
%
% Y axis: small tics
%
L5
GSN 620 1862 M 36 0 rL SGR
GSN 4220 1862 M -36 0 rL SGR
GSN 620 2103 M 36 0 rL SGR
GSN 4220 2103 M -36 0 rL SGR
GSN 620 2345 M 36 0 rL SGR
GSN 4220 2345 M -36 0 rL SGR
GSN 620 2587 M 36 0 rL SGR
GSN 4220 2587 M -36 0 rL SGR
GSN 620 2828 M 36 0 rL SGR
GSN 4220 2828 M -36 0 rL SGR
GSN 620 3070 M 36 0 rL SGR
GSN 4220 3070 M -36 0 rL SGR
GSN 620 3312 M 36 0 rL SGR
GSN 4220 3312 M -36 0 rL SGR
GSN 620 3553 M 36 0 rL SGR
GSN 4220 3553 M -36 0 rL SGR
GSN 620 3795 M 36 0 rL SGR
GSN 4220 3795 M -36 0 rL SGR
GSN 620 4037 M 36 0 rL SGR
GSN 4220 4037 M -36 0 rL SGR
GSN 620 4278 M 36 0 rL SGR
GSN 4220 4278 M -36 0 rL SGR
GSN 620 4520 M 36 0 rL SGR
GSN 4220 4520 M -36 0 rL SGR
GSN 620 4762 M 36 0 rL SGR
GSN 4220 4762 M -36 0 rL SGR
GSN 620 5003 M 36 0 rL SGR
GSN 4220 5003 M -36 0 rL SGR
GSN 620 5245 M 36 0 rL SGR
GSN 4220 5245 M -36 0 rL SGR

%
% X axis - residual panel
%
GSN L5 620 3553 M 4220 3553 L SDA G50 SGR

%
% X-Axis label:
%
gsave 620 1370 M 
[
[(Helvetica) 180 0 true true 0 (t)]
[(Helvetica) 180 0 true true 0 (i)]
[(Helvetica) 180 0 true true 0 (m)]
[(Helvetica) 180 0 true true 0 (e)]
] 0 MCshow grestore

%
% Y-Axis label:
%
gsave 234 3500 M 
currentpoint gsave translate 90 rotate 0 0 moveto
[
[(Helvetica) 180 0 true true 0 (r)]
[(Helvetica) 180 0 true true 0 (e)]
[(Helvetica) 180 0 true true 0 (s)]
[(Helvetica) 180 0 true true 0 (i)]
[(Helvetica) 180 0 true true 0 (d)]
[(Helvetica) 180 0 true true 0 (u)]
[(Helvetica) 180 0 true true 0 (a)]
[(Helvetica) 180 0 true true 0 (l)]
[(Helvetica) 180 0 true true 0 (s)]
] 0 MCshow grestore

end
showpage
%%Trailer
%%EOF
