%!PS-Adobe-3.0 EPSF-3.0
%%BoundingBox: 0 0 514 550
%%Creator: BioKin Ltd.
%%DocumentFonts: Symbol Helvetica
%%EndComments
%
/bkdict 256 dict def
bkdict begin
/M {moveto} def 
/R {rmoveto} def
/L {lineto} def
/rL {rlineto} def
/GSN {gsave newpath} def
/SGR {stroke grestore} def
/COSGR {gsave setrgbcolor stroke grestore grestore} def
/SL {setlinewidth} def
/LWMB {12} def             % line width - model curves, black & white
/LWMC {10} def             % line width - model curves, color
/L2 {2.5 setlinewidth} def
/L5 {5 setlinewidth} def
/L10 {10 setlinewidth} def
/G50 {0.5 setgray} def
/SDA {[10  20] 0 setdash} def % axes
/helvT {/Helvetica findfont 100 scalefont setfont} def % tiny
/helvS {/Helvetica findfont 125 scalefont setfont} def % small
/helvM {/Helvetica findfont 150 scalefont setfont} def % medium
/helvL {/Helvetica findfont 175 scalefont setfont} def % large
/xlabel {gsave M dup
   stringwidth exch -0.5 mul exch rmoveto show grestore} def 
/ylabel {gsave M 90 rotate dup
   stringwidth exch -0.5 mul exch rmoveto show grestore} def
/ylabelresid {gsave M dup
   stringwidth exch -1 mul exch rmoveto show grestore} def
% ======
% Shapes
% ======
% Circle:
/Circ {0 360 arc closepath} def
%
% Square:
/Squa {dup dup -0.5 mul dup dup R -2 mul 0 exch rL 1 mul 0 rL dup 0 exch -1 mul rL closepath} def
%
% Triangle Up:
/TriU {dup dup dup -0.4 mul exch -0.5 mul exch R dup 0.5 mul exch rL dup -1 mul exch 0.5 mul exch rL closepath} def 
%
% Triangle Down:
/TriD {dup dup dup 0.4 mul exch -0.5 mul exch R dup 0.5 mul exch -1 mul rL dup 0.5 mul exch rL closepath} def 
%
% Diamond:
/Diam {45 rotate Squa} def
% ======
% Fills
% ======
/GRF {gsave setgray fill grestore} def                    % gray-level Fill
/COF {gsave setrgbcolor fill grestore} def                % color fill
% ======
% Colors
% ======
/C01 {1.00	0.00	0.00} def      % Red
/C02 {0.00	0.00	1.00} def      % Blue
/C03 {0.00	0.39	0.00} def      % Dark Green
/C04 {0.78	0.08	0.52} def      % Medium Violet Red
/C05 {0.55	0.27	0.07} def      % Saddle Brown
/C06 {0.10	0.70	0.70} def      % (cyan)
/C07 {1.00	0.55	0.00} def      % Dark Orange
/C08 {0.63	0.13	0.94} def      % Purple
/C09 {0.00	0.75	1.00} def      % Deep Sky Blue
/C10 {0.20	0.80	0.20} def      % Lime Green
/C11 {0.47	0.53	0.60} def      % Light Slate Gray
/C12 {0.00	0.00	0.00} def      % Black            % or: {0.19	0.31	0.31} def      % Dark Slate Gray
%
/LGR {0.75} def % light gray
/DGR {0.33} def % dark gray
%
% =============
% Dash patterns
% =============
/dash01 { [80  20] 0 setdash } def
/dash02 { [40  20] 0 setdash } def
/dash03 { [80  20  10  20] 0 setdash } def
/dash04 { [40  20  10  20] 0 setdash } def
/dash05 { [80  20  10  10  10  20] 0 setdash } def
/dash06 { [40  20  10  10  10  20] 0 setdash } def
/dash07 { [10  10] 0 setdash } def
%
/MFshow {
   { dup 5 get 3 ge
     { 5 get 3 eq {gsave} {grestore} ifelse }
     {dup dup 0 get findfont exch 1 get scalefont setfont
     [ currentpoint ] exch dup 2 get 0 exch R dup 5 get 2 ne {dup dup 6
     get exch 4 get {show} {stringwidth pop 0 R} ifelse }if dup 5 get 0 eq
     {dup 3 get {2 get neg 0 exch R pop} {pop aload pop M} ifelse} {dup 5
     get 1 eq {dup 2 get exch dup 3 get exch 6 get stringwidth pop -2 div
     dup 0 R} {dup 6 get stringwidth pop -2 div 0 R 6 get
     show 2 index {aload pop M neg 3 -1 roll neg R pop pop} {pop pop pop
     pop aload pop M} ifelse }ifelse }ifelse }
     ifelse }
   forall} bind def
/MFwidth {0 exch {dup 3 get{dup dup 0 get findfont exch 1 get scalefont
     setfont 6 get stringwidth pop add} {pop} ifelse} forall} bind def
/MCshow { currentpoint stroke M
  exch dup MFwidth -2 div 3 -1 roll R MFshow } def
%
end
%%EndProlog
bkdict begin
0.1 0.1 scale
%
% Model curves:
%

GSN 753 5166 M
753 5166 L
786 5111 L
820 5052 L
853 4986 L
886 4915 L
920 4838 L
929 4814 L
953 4756 L
986 4667 L
1020 4574 L
1053 4475 L
1086 4372 L
1106 4310 L
1120 4266 L
1153 4156 L
1186 4043 L
1220 3930 L
1253 3815 L
1282 3715 L
1286 3702 L
1319 3590 L
1353 3480 L
1386 3374 L
1419 3272 L
1453 3175 L
1459 3158 L
1486 3084 L
1519 3000 L
1553 2922 L
1586 2850 L
1619 2786 L
1635 2758 L
1653 2730 L
1686 2680 L
1719 2637 L
1753 2601 L
1786 2572 L
1812 2553 L
1819 2548 L
1853 2530 L
1886 2516 L
1919 2506 L
1953 2500 L
1986 2496 L
1988 2496 L
2019 2493 L
2053 2492 L
2086 2492 L
2119 2491 L
2153 2491 L
2165 2491 L
2186 2491 L
2219 2491 L
2253 2491 L
2286 2491 L
2319 2491 L
2341 2491 L
2353 2491 L
2386 2491 L
2419 2491 L
2453 2491 L
2486 2491 L
2518 2491 L
2519 2491 L
2553 2491 L
2586 2491 L
2619 2491 L
2653 2491 L
2686 2491 L
2694 2491 L
2719 2491 L
2753 2492 L
2786 2492 L
2819 2492 L
2853 2492 L
2871 2492 L
2886 2492 L
2919 2492 L
2953 2492 L
2986 2492 L
3019 2492 L
3047 2492 L
3053 2493 L
3086 2493 L
3119 2493 L
3153 2493 L
3186 2494 L
3219 2494 L
3224 2494 L
3253 2494 L
3286 2495 L
3319 2495 L
3353 2496 L
3386 2496 L
3400 2497 L
3419 2497 L
3453 2498 L
3476 2499 L
3486 2499 L
3519 2500 L
3553 2501 L
3577 2502 L
3586 2503 L
3619 2504 L
3653 2506 L
3686 2508 L
3719 2511 L
3753 2513 L
3754 2513 L
3786 2517 L
3819 2520 L
3853 2524 L
3886 2529 L
3919 2534 L
3930 2536 L
3953 2540 L
3986 2547 L
4019 2554 L
4053 2563 L
4086 2573 L
4086 2573 L
LWMC SL  C03 COSGR

%
% Experimental data:
%
GSN 777 4013 M
1388 4006 L
1552 4030 L
1652 4126 L
1723 3973 L
1778 3870 L
1824 3881 L
1863 3847 L
1896 3829 L
1926 3862 L
1952 3922 L
1976 3968 L
1998 4104 L
2019 4171 L
2037 3938 L
2055 4172 L
2071 4061 L
2086 3948 L
2101 3928 L
2115 3944 L
2128 4127 L
2140 3967 L
2152 3912 L
2163 4173 L
2174 4122 L
2184 3975 L
2194 3845 L
2204 3778 L
2213 3951 L
2222 3972 L
2230 3931 L
2239 3999 L
2247 3882 L
2255 3874 L
2262 4008 L
2270 3842 L
2277 3894 L
2284 3836 L
2290 3991 L
2297 3923 L
2303 3823 L
2310 3706 L
2316 3781 L
2322 3737 L
2328 3769 L
2333 3802 L
2339 3845 L
2344 3826 L
2350 3902 L
2355 3723 L
2360 3733 L
2365 3793 L
2370 3835 L
2375 3765 L
2380 3642 L
2384 3828 L
2389 3774 L
2393 3938 L
2398 3778 L
2402 3661 L
2407 3656 L
2411 3789 L
2415 3741 L
2419 3711 L
2423 3830 L
2427 3745 L
2431 3919 L
2435 3734 L
2438 3655 L
2442 3768 L
2446 3730 L
2449 3644 L
2453 3665 L
2456 3733 L
2460 3689 L
2463 3627 L
2467 3550 L
2470 3590 L
2473 3675 L
2476 3718 L
2480 3589 L
2483 3617 L
2486 3774 L
2489 3620 L
2492 3712 L
2495 3605 L
2498 3663 L
2501 3548 L
2504 3713 L
2507 3649 L
2510 3528 L
2512 3645 L
2515 3707 L
2518 3620 L
2521 3654 L
2523 3581 L
2526 3608 L
2529 3506 L
2531 3374 L
2534 3522 L
2536 3511 L
2539 3557 L
2541 3534 L
2544 3457 L
2546 3378 L
2549 3497 L
2551 3539 L
2554 3513 L
2556 3457 L
2558 3505 L
2561 3539 L
2563 3398 L
2565 3387 L
2568 3650 L
2570 3597 L
2572 3559 L
2574 3475 L
2576 3338 L
2579 3745 L
2581 3436 L
2583 3350 L
2585 3487 L
2587 3562 L
2589 3472 L
2591 3404 L
2593 3447 L
2595 3384 L
2597 3472 L
2599 3407 L
2601 3413 L
2603 3581 L
2605 3279 L
2607 3354 L
2609 3388 L
2611 3443 L
2613 3414 L
2615 3264 L
2617 3314 L
2618 3397 L
2620 3425 L
2622 3427 L
2624 3462 L
2626 3426 L
2627 3251 L
2629 3297 L
2631 3385 L
2633 3393 L
2634 3336 L
2636 3445 L
2638 3313 L
2640 3343 L
2641 3299 L
2643 3390 L
2645 3272 L
2646 3398 L
2648 3331 L
2650 3074 L
2651 3330 L
2653 3256 L
2654 3342 L
2656 3231 L
2658 3342 L
2659 3229 L
2661 3125 L
2662 3222 L
2664 3381 L
2665 3362 L
2667 3204 L
2668 3278 L
2670 3333 L
2671 3321 L
2673 3184 L
2674 3281 L
2676 3285 L
2677 3196 L
2679 3284 L
2680 3253 L
2682 3234 L
2683 3233 L
2685 3192 L
2686 3180 L
2687 3265 L
2689 3181 L
2690 3210 L
2692 2988 L
2693 3319 L
2694 3249 L
2696 3132 L
2697 3106 L
2698 3262 L
2700 3293 L
2701 3182 L
2702 3285 L
2704 3151 L
2705 3130 L
2706 3156 L
2708 3084 L
2709 3239 L
2710 3144 L
2712 3221 L
2713 3167 L
2714 3196 L
2715 3236 L
2717 3096 L
2718 3104 L
2719 3163 L
2720 3261 L
2722 3144 L
2723 3062 L
2724 3230 L
2725 3179 L
2726 3076 L
2728 3137 L
2729 3043 L
2730 3109 L
2731 3041 L
2732 3186 L
2734 3073 L
2735 3154 L
2736 2994 L
2737 2997 L
2738 3118 L
2739 3048 L
2741 3013 L
2742 2940 L
2743 3185 L
2744 2983 L
2745 3103 L
2746 3021 L
2747 3245 L
2748 3061 L
2749 3073 L
2751 3086 L
2752 3008 L
2753 3224 L
2754 2976 L
2755 3040 L
2756 3065 L
2757 2981 L
2758 3073 L
2759 3001 L
2760 3040 L
2761 3167 L
2762 3082 L
2763 3056 L
2764 3088 L
2765 2923 L
2767 3184 L
2768 3213 L
2769 3082 L
2770 2858 L
2771 3076 L
2772 2996 L
2773 2987 L
2774 3104 L
2775 2892 L
2776 3037 L
2777 2951 L
2778 3107 L
2779 2982 L
2780 2987 L
2781 3046 L
2782 2869 L
2783 3040 L
2783 3056 L
2784 3020 L
2785 2940 L
2786 3013 L
2787 2866 L
2788 2936 L
2789 2891 L
2790 2962 L
2791 2823 L
2792 3073 L
2793 2972 L
2794 3003 L
2795 2956 L
2796 2950 L
2797 2853 L
2798 3083 L
2798 2990 L
2799 3104 L
2800 2977 L
2801 3096 L
2802 2992 L
2803 2936 L
2804 2861 L
2805 2984 L
2806 2868 L
2807 2951 L
2807 2814 L
2808 2986 L
2809 3002 L
2810 2894 L
2811 2886 L
2812 2974 L
2813 2846 L
2813 2821 L
2814 2732 L
2815 2924 L
2816 3050 L
2817 2844 L
2818 2948 L
2819 2978 L
2819 2898 L
2820 2951 L
2821 2727 L
2822 2873 L
2823 3038 L
2824 2838 L
2824 2775 L
2825 2861 L
2826 2873 L
2827 3144 L
2828 2843 L
2828 2694 L
2829 2831 L
2830 2792 L
2831 2850 L
2832 2756 L
2832 2853 L
2833 2773 L
2834 2837 L
2835 2927 L
2836 2785 L
2836 2782 L
2837 2727 L
2838 2862 L
2839 2758 L
2840 2734 L
2840 2771 L
2841 2752 L
2842 2814 L
2843 2933 L
2843 2762 L
2844 2800 L
2845 2777 L
2846 2653 L
2846 2797 L
2847 2685 L
2848 2830 L
2849 2996 L
2849 2689 L
2850 2725 L
2851 2888 L
2852 2663 L
2852 2796 L
2853 2811 L
2854 2834 L
2855 2862 L
2855 2934 L
2856 2758 L
2857 2818 L
2857 2776 L
2858 2733 L
2859 2757 L
2860 2793 L
2860 2672 L
2861 2708 L
2862 2674 L
2862 2722 L
2863 2657 L
2864 2871 L
2865 2664 L
2865 2942 L
2866 2705 L
2867 2611 L
2867 2710 L
2868 2780 L
2869 2852 L
2869 2795 L
2870 2743 L
2871 2877 L
2871 2761 L
2872 2699 L
2873 2605 L
2873 2725 L
2874 2857 L
2875 2657 L
2876 2753 L
2876 2877 L
2877 2698 L
2878 2680 L
2878 2670 L
2879 2802 L
2880 2777 L
2880 2653 L
2881 2744 L
2881 2659 L
2882 2702 L
2883 2832 L
2883 2711 L
2884 2803 L
2885 2846 L
2885 2612 L
2886 2649 L
2887 2849 L
2887 2805 L
2888 2655 L
2889 2721 L
2889 2712 L
2892 2868 L
2894 2769 L
2897 2710 L
2899 2807 L
2902 2634 L
2904 2799 L
2907 2788 L
2909 2519 L
2911 2591 L
2914 2607 L
2916 2646 L
2918 2562 L
2921 2746 L
2923 2547 L
2925 2538 L
2927 2570 L
2929 2561 L
2932 2565 L
2934 2599 L
2936 2489 L
2938 2593 L
2940 2580 L
2942 2559 L
2944 2577 L
2946 2474 L
2948 2596 L
2950 2545 L
2952 2447 L
2954 2475 L
2956 2478 L
2958 2525 L
2960 2331 L
2962 2510 L
2964 2562 L
2966 2565 L
2968 2495 L
2970 2546 L
2971 2494 L
2973 2457 L
2975 2368 L
2977 2345 L
2979 2451 L
2980 2363 L
2982 2513 L
2984 2377 L
2986 2444 L
2987 2427 L
2989 2534 L
2991 2430 L
2993 2513 L
2994 2376 L
2996 2478 L
2998 2438 L
2999 2369 L
3001 2379 L
3003 2230 L
3004 2479 L
3006 2300 L
3007 2359 L
3009 2390 L
3011 2354 L
3012 2313 L
3014 2233 L
3015 2406 L
3017 2341 L
3018 2263 L
3020 2287 L
3021 2224 L
3023 2376 L
3024 2321 L
3026 2321 L
3027 2278 L
3029 2164 L
3030 2340 L
3032 2346 L
3033 2340 L
3035 2267 L
3036 2290 L
3038 2424 L
3039 2122 L
3040 2389 L
3042 2205 L
3043 2310 L
3045 2316 L
3046 2305 L
3047 2197 L
3049 2409 L
3050 2284 L
3051 2357 L
3053 2247 L
3054 2127 L
3055 2215 L
3057 2222 L
3058 2278 L
3059 2207 L
3061 2214 L
3062 2170 L
3063 2066 L
3065 2149 L
3066 2241 L
3067 2207 L
3068 2121 L
3070 2245 L
3071 2224 L
3072 2203 L
3073 2323 L
3075 2088 L
3076 2152 L
3077 2276 L
3078 2040 L
3079 2217 L
3081 2265 L
3082 2233 L
3083 2231 L
3084 2109 L
3085 2231 L
3087 2144 L
3088 2242 L
3089 1917 L
3090 2286 L
3091 2132 L
3092 2079 L
3094 2162 L
3095 2080 L
3096 2090 L
3097 2161 L
3098 2176 L
3099 2176 L
3100 2122 L
3101 2174 L
3103 2137 L
3104 2083 L
3105 2210 L
3106 2066 L
3107 2271 L
3108 2087 L
3109 2027 L
3110 2191 L
3111 2115 L
3112 2103 L
3113 2191 L
3114 2247 L
3115 2103 L
3116 2127 L
3117 2121 L
3119 2069 L
3120 2107 L
3121 1965 L
3122 2105 L
3123 2005 L
3124 1951 L
3125 2022 L
3126 2070 L
3127 2022 L
3128 1963 L
3129 2125 L
3130 2077 L
3131 1927 L
3132 2103 L
3133 2031 L
3134 2264 L
3135 2021 L
3136 2019 L
3136 1965 L
3137 1996 L
3138 2052 L
3139 2181 L
3140 2164 L
3141 2106 L
3142 2024 L
3143 2085 L
3144 2044 L
3145 2118 L
3146 2002 L
3147 2003 L
3148 2195 L
3149 1980 L
3150 2023 L
3151 2035 L
3151 2048 L
3152 2131 L
3153 2070 L
3154 1948 L
3155 2006 L
3156 2004 L
3157 2067 L
3158 2095 L
3159 1993 L
3160 1992 L
3160 1999 L
3161 1939 L
3162 1982 L
3163 2022 L
3164 2057 L
3165 2080 L
3166 1951 L
3166 2020 L
3167 1999 L
3168 1951 L
3169 1930 L
3170 1939 L
3171 1992 L
3172 2054 L
3172 2096 L
3173 1990 L
3174 2126 L
3175 2024 L
3176 2155 L
3177 1961 L
3177 2008 L
3178 2051 L
3179 2173 L
3180 2058 L
3181 1859 L
3181 1991 L
3182 2063 L
3183 1952 L
3184 2032 L
3185 2029 L
3185 1912 L
3186 2015 L
3187 1999 L
3188 2016 L
3189 2100 L
3189 1962 L
3190 1980 L
3191 2111 L
3192 2054 L
3193 1973 L
3193 2107 L
3194 1996 L
3195 1965 L
3196 1993 L
3196 1934 L
3197 1993 L
3198 1973 L
3199 1839 L
3199 2061 L
3200 2000 L
3201 2023 L
3202 1961 L
3202 2110 L
3203 1975 L
3204 1875 L
3205 1911 L
3205 1881 L
3206 1946 L
3207 2119 L
3208 1957 L
3208 2041 L
3209 2072 L
3210 2071 L
3210 1842 L
3211 1920 L
3212 2026 L
3213 2106 L
3213 2009 L
3214 2013 L
3215 2057 L
3215 1940 L
3216 1977 L
3217 2102 L
3218 2049 L
3218 1974 L
3219 1882 L
3220 2106 L
3220 2005 L
3221 2243 L
3222 2046 L
3222 2214 L
3223 2052 L
3224 2181 L
3224 1852 L
3225 1975 L
3226 2024 L
3227 1944 L
3227 2121 L
3228 1891 L
3229 2087 L
3229 1929 L
3230 2042 L
3231 2022 L
3231 1880 L
3232 2078 L
3233 1872 L
3233 2074 L
3234 1955 L
3235 2124 L
3235 1990 L
3236 2013 L
3236 2027 L
3237 1995 L
3238 1921 L
3238 2000 L
3239 2082 L
3240 2014 L
3240 1997 L
3241 2049 L
3242 1961 L
3242 1933 L
3243 1869 L
3244 2039 L
3244 1938 L
3245 2092 L
3245 1969 L
3246 2009 L
3247 2001 L
3247 1833 L
3248 1962 L
3249 2156 L
3249 2039 L
3250 1910 L
3250 1971 L
3251 2045 L
3252 2017 L
3252 2035 L
3253 1961 L
3253 1951 L
3254 2025 L
3255 2045 L
3255 2050 L
3256 1876 L
3257 2134 L
3257 1938 L
3258 2082 L
3258 1991 L
3259 2199 L
3259 1911 L
3260 2073 L
3261 1995 L
3261 1967 L
3262 1984 L
3262 2066 L
3263 2113 L
3264 2097 L
3264 2041 L
3265 2017 L
3265 2118 L
3266 1910 L
3267 1933 L
3267 2047 L
3268 1934 L
3268 2053 L
3269 2113 L
3269 1987 L
3270 2071 L
3271 1954 L
3271 2032 L
3272 1949 L
3272 2095 L
3273 1979 L
3273 2082 L
3274 2044 L
3275 2091 L
3275 2050 L
3276 1997 L
3276 1941 L
3277 2117 L
3277 2107 L
3278 2075 L
3278 1956 L
3279 2006 L
3280 2106 L
3280 2117 L
3281 1984 L
3281 2053 L
3282 2047 L
3282 2046 L
3283 2030 L
3283 2102 L
3284 1984 L
3284 2052 L
3285 2047 L
3285 2001 L
3286 2194 L
3287 1976 L
3287 2078 L
3288 2089 L
3288 2108 L
3289 2015 L
3289 2025 L
3290 2057 L
3290 2173 L
3291 1944 L
3291 2150 L
3292 1984 L
3292 2071 L
3293 2137 L
3293 1956 L
3294 1983 L
3294 2091 L
3295 2049 L
3295 2080 L
3296 2043 L
3297 2013 L
3297 2085 L
3298 2002 L
3298 2129 L
3299 2076 L
3299 2110 L
3300 1946 L
3300 2005 L
3301 2026 L
3301 2039 L
3302 1959 L
3302 2012 L
3303 1894 L
3303 2168 L
3304 1989 L
3304 2139 L
3305 2145 L
3305 2005 L
3306 1960 L
3306 2130 L
3307 2171 L
3307 2070 L
3308 1983 L
3308 2000 L
3309 2035 L
3309 2082 L
3310 2006 L
3310 2182 L
3311 2024 L
3311 2075 L
3312 2085 L
3312 2164 L
3312 1903 L
3313 2210 L
3313 1997 L
3314 2029 L
3314 2143 L
3315 1971 L
3315 2036 L
3316 2060 L
3316 2149 L
3317 2101 L
3317 2240 L
3318 1971 L
3318 2038 L
3319 2099 L
3319 1970 L
3320 2078 L
3320 2058 L
3321 2044 L
3321 1919 L
3321 2047 L
3322 2066 L
3322 2053 L
3323 2057 L
3323 2035 L
3324 2245 L
3324 2062 L
3325 2139 L
3325 2170 L
3326 2193 L
3326 2158 L
3327 2024 L
3327 2130 L
3327 2254 L
3328 2113 L
3328 2019 L
3329 2143 L
3329 1972 L
3330 2131 L
3330 2002 L
3331 2119 L
3331 2118 L
3332 2245 L
3332 2067 L
3332 2009 L
3333 2117 L
3333 2341 L
3334 1995 L
3334 1932 L
3335 2134 L
3335 2070 L
3336 2087 L
3336 2076 L
3336 2022 L
3337 2161 L
3337 1948 L
3338 2202 L
3338 2010 L
3339 2222 L
3339 1985 L
3339 2204 L
3340 2100 L
3340 2012 L
3341 2132 L
3341 2136 L
3342 2178 L
3342 2066 L
3343 2123 L
3343 2107 L
3343 2020 L
3344 2132 L
3344 2029 L
3345 2001 L
3345 2108 L
3346 2080 L
3346 2004 L
3346 2139 L
3347 2186 L
3347 2103 L
3348 2087 L
3348 2160 L
3348 2154 L
3349 2002 L
3349 2145 L
3350 1957 L
3350 2066 L
3351 2042 L
3351 2153 L
3351 2169 L
3352 2224 L
3352 2044 L
3353 2033 L
3353 2099 L
3353 2090 L
3354 2089 L
3354 2041 L
3355 2053 L
3355 2110 L
3355 2185 L
3356 2100 L
3356 2135 L
3357 2081 L
3357 2132 L
3358 2076 L
3358 2320 L
3358 2090 L
3359 2169 L
3359 2200 L
3360 2074 L
3360 2193 L
3360 2084 L
3361 2324 L
3361 2103 L
3362 2138 L
3362 2225 L
3362 2091 L
3363 1932 L
3363 2164 L
3364 2089 L
3364 2229 L
3364 2177 L
3365 1947 L
3365 2182 L
3365 2236 L
3366 2223 L
3366 2209 L
3367 2108 L
3367 2117 L
3367 2122 L
3368 2105 L
3368 2258 L
3369 2068 L
3369 2201 L
3369 2181 L
3370 2131 L
3370 2179 L
3371 2140 L
3371 2197 L
3371 2171 L
3372 2150 L
3372 2096 L
3372 2085 L
3373 1932 L
3373 2097 L
3374 1925 L
3374 2165 L
3374 1965 L
3375 2196 L
3375 2209 L
3375 2072 L
3376 2191 L
3376 2078 L
3377 2154 L
3377 2414 L
3377 2208 L
3378 2122 L
3378 1974 L
3378 2158 L
3379 2086 L
3379 2218 L
3380 2100 L
3380 2105 L
3380 2165 L
3381 2298 L
3381 2074 L
3381 2177 L
3382 2157 L
3382 2051 L
3383 2145 L
3383 2085 L
3383 2250 L
3384 2078 L
3384 2393 L
3384 2109 L
3385 2223 L
3385 2218 L
3385 2181 L
3386 2106 L
3386 2285 L
3387 2145 L
3387 2176 L
3387 2289 L
3388 2042 L
3388 2129 L
3388 2185 L
3389 2124 L
3389 2229 L
3389 2118 L
3390 2102 L
3390 2271 L
3391 2126 L
3391 2201 L
3391 2103 L
3392 2184 L
3392 2123 L
3392 2264 L
3393 2104 L
3393 2278 L
3393 2220 L
3394 2198 L
3394 2040 L
3394 2090 L
3395 2130 L
3395 2069 L
3395 2142 L
3396 2242 L
3396 2111 L
3396 2142 L
3397 2106 L
3397 2173 L
3398 2180 L
3398 2111 L
3398 2163 L
3399 2126 L
3399 2143 L
3399 2112 L
3400 2137 L
3400 2134 L
3400 2115 L
3401 2255 L
3401 2080 L
3401 2203 L
3402 2298 L
3402 2214 L
3402 2288 L
3403 2219 L
3403 2180 L
3403 2273 L
3404 2225 L
3404 2279 L
3404 2318 L
3405 2289 L
3405 2109 L
3405 2193 L
3406 2158 L
3406 2120 L
3406 2172 L
3407 2185 L
3407 2180 L
3407 2203 L
3408 2213 L
3408 2201 L
3408 2252 L
3409 2274 L
3409 2117 L
3409 2245 L
3410 2096 L
3410 2158 L
3410 2285 L
3411 2288 L
3411 2136 L
3411 2211 L
3412 2330 L
3412 2294 L
3412 2140 L
3413 2252 L
3413 2141 L
3413 2145 L
3414 2259 L
3414 2213 L
3414 2201 L
3415 2175 L
3415 2023 L
3415 2243 L
3416 2319 L
3416 2125 L
3416 2266 L
3417 2093 L
3417 2227 L
3417 2215 L
3417 2172 L
3418 2238 L
3418 2277 L
3418 2241 L
3419 2254 L
3419 2173 L
3419 2080 L
3420 2222 L
3420 2448 L
3420 2277 L
3421 2230 L
3421 2173 L
3421 2224 L
3422 2151 L
3422 2201 L
3422 2211 L
3423 2336 L
3423 2152 L
3423 2282 L
3423 2162 L
3424 2300 L
3424 2298 L
3424 2274 L
3425 2320 L
3425 2209 L
3425 2205 L
3426 2182 L
3426 2141 L
3426 2273 L
3427 2325 L
3427 2142 L
3427 2252 L
3428 2178 L
3428 2574 L
3428 2297 L
3428 2159 L
3429 2133 L
3429 2214 L
3429 2401 L
3430 2253 L
3430 2224 L
3430 2195 L
3431 2275 L
3431 2152 L
3431 2328 L
3431 2299 L
3432 2224 L
3432 2211 L
3432 2190 L
3433 2244 L
3433 2297 L
3433 2183 L
3434 2232 L
3434 2329 L
3434 2143 L
3434 2379 L
3435 2307 L
3435 2358 L
3435 2336 L
3436 2249 L
3436 2231 L
3436 2268 L
3437 2223 L
3437 2259 L
3437 2180 L
3437 2213 L
3438 2318 L
3438 2312 L
3438 2320 L
3439 2282 L
3439 2290 L
3439 2382 L
3440 2392 L
3440 2188 L
3440 2232 L
3440 2305 L
3441 2307 L
3441 2174 L
3441 2198 L
3442 2281 L
3442 2397 L
3442 2365 L
3442 2485 L
3443 2357 L
3443 2299 L
3443 2268 L
3444 2270 L
3444 2264 L
3444 2218 L
3444 2360 L
3445 2073 L
3445 2459 L
3445 2225 L
3446 2180 L
3446 2248 L
3446 2388 L
3446 2172 L
3447 2274 L
3447 2208 L
3447 2275 L
3448 2319 L
3448 2344 L
3448 2315 L
3448 2233 L
3449 2334 L
3449 2387 L
3449 2380 L
3450 2121 L
3450 2189 L
3450 2221 L
3450 2302 L
3451 2138 L
3451 2209 L
3451 2238 L
3452 2332 L
3452 2282 L
3452 2250 L
3452 2290 L
3453 2142 L
3453 2274 L
3453 2220 L
3454 2353 L
3454 2302 L
3454 2317 L
3454 2283 L
3455 2380 L
3455 2243 L
3455 2305 L
3455 2264 L
3456 2177 L
3456 2310 L
3456 2364 L
3457 2186 L
3457 2253 L
3457 2125 L
3457 2309 L
3458 2187 L
3458 2311 L
3458 2279 L
3458 2409 L
3459 2269 L
3459 2393 L
3459 2262 L
3460 2375 L
3460 2378 L
3460 2221 L
3460 2229 L
3461 2248 L
3461 2331 L
3461 2360 L
3461 2193 L
3462 2292 L
3462 2313 L
3462 2281 L
3463 2333 L
3463 2200 L
3463 2227 L
3463 2322 L
3464 2289 L
3464 2221 L
3464 2264 L
3464 2323 L
3465 2424 L
3465 2192 L
3465 2387 L
3465 2256 L
3466 2263 L
3466 2362 L
3466 2337 L
3466 2216 L
3467 2289 L
3467 2287 L
3467 2359 L
3468 2369 L
3468 2339 L
3468 2314 L
3468 2379 L
3469 2395 L
3469 2395 L
3469 2367 L
3469 2279 L
3470 2335 L
3470 2253 L
3470 2380 L
3470 2401 L
3471 2348 L
3471 2472 L
3471 2326 L
3471 2437 L
3472 2437 L
3472 2335 L
3472 2273 L
3472 2394 L
3473 2355 L
3473 2353 L
3473 2210 L
3474 2460 L
3474 2299 L
3474 2358 L
3474 2317 L
3475 2194 L
3475 2339 L
3475 2289 L
3475 2330 L
3476 2323 L
3476 2390 L
3476 2249 L
3476 2278 L
3477 2279 L
3477 2248 L
3477 2351 L
3477 2332 L
3478 2312 L
3478 2372 L
3478 2356 L
3478 2271 L
3479 2306 L
3479 2323 L
3479 2360 L
3479 2350 L
3480 2336 L
3480 2378 L
3480 2299 L
3480 2343 L
3481 2396 L
3481 2311 L
3481 2429 L
3481 2445 L
3482 2389 L
3482 2362 L
3482 2316 L
3482 2405 L
3483 2419 L
3483 2413 L
3483 2434 L
3483 2294 L
3484 2372 L
3484 2324 L
3484 2265 L
3484 2243 L
3485 2359 L
3485 2296 L
3485 2328 L
3485 2190 L
3486 2414 L
3486 2244 L
3486 2228 L
3486 2335 L
3487 2376 L
3487 2250 L
3487 2305 L
3487 2300 L
3488 2394 L
3488 2397 L
3488 2443 L
3488 2264 L
3488 2463 L
3489 2333 L
3489 2269 L
3489 2223 L
3489 2458 L
3490 2371 L
3490 2426 L
3490 2254 L
3490 2267 L
3491 2524 L
3491 2465 L
3491 2216 L
3491 2320 L
3492 2220 L
3492 2327 L
3492 2392 L
3492 2294 L
3493 2395 L
3493 2418 L
3493 2368 L
3493 2326 L
3494 2316 L
3494 2328 L
3494 2259 L
3494 2364 L
3494 2222 L
3495 2341 L
3495 2374 L
3495 2398 L
3495 2298 L
3496 2267 L
3496 2286 L
3496 2542 L
3496 2208 L
3497 2409 L
3497 2359 L
3497 2361 L
3497 2404 L
3498 2373 L
3498 2452 L
3498 2349 L
3498 2284 L
3498 2399 L
3499 2460 L
3499 2475 L
3499 2391 L
3499 2507 L
3500 2321 L
3500 2362 L
3506 2466 L
3511 2305 L
3517 2420 L
3522 2457 L
3527 2516 L
3532 2412 L
3537 2460 L
3542 2466 L
3547 2407 L
3552 2516 L
3557 2464 L
3561 2394 L
3566 2453 L
3570 2594 L
3575 2567 L
3579 2508 L
3583 2646 L
3587 2641 L
3591 2677 L
3595 2461 L
3599 2533 L
3603 2513 L
3607 2494 L
3611 2535 L
3614 2439 L
3618 2592 L
3622 2512 L
3625 2430 L
3629 2441 L
3632 2615 L
3636 2688 L
3639 2573 L
3642 2497 L
3646 2529 L
3649 2589 L
3652 2640 L
3655 2593 L
3658 2776 L
3661 2488 L
3664 2356 L
3667 2536 L
3670 2487 L
3673 2575 L
3676 2583 L
3679 2511 L
3682 2553 L
3685 2666 L
3688 2445 L
3690 2612 L
3693 2538 L
3696 2517 L
3698 2645 L
3701 2444 L
3704 2446 L
3706 2516 L
3709 2538 L
3711 2596 L
3714 2602 L
3716 2583 L
3719 2597 L
3721 2454 L
3724 2674 L
3726 2330 L
3728 2632 L
3731 2678 L
3733 2593 L
3735 2522 L
3738 2596 L
3740 2619 L
3742 2577 L
3744 2660 L
3747 2573 L
3749 2773 L
3751 2565 L
3753 2590 L
3755 2719 L
3757 2629 L
3760 2623 L
3762 2808 L
3764 2595 L
3766 2628 L
3768 2480 L
3770 2577 L
3772 2590 L
3774 2617 L
3776 2599 L
3778 2675 L
3780 2571 L
3781 2565 L
3783 2610 L
3785 2504 L
3787 2642 L
3789 2552 L
3791 2609 L
3793 2640 L
3795 2586 L
3796 2523 L
3798 2451 L
3800 2692 L
3802 2599 L
3803 2557 L
3805 2591 L
3807 2672 L
3809 2661 L
3810 2459 L
3812 2502 L
3814 2695 L
3816 2645 L
3817 2452 L
3819 2476 L
3820 2429 L
3822 2626 L
3824 2637 L
3825 2548 L
3827 2504 L
3829 2708 L
3830 2579 L
3832 2658 L
3833 2585 L
3835 2523 L
3836 2604 L
3838 2529 L
3839 2636 L
3841 2763 L
3842 2688 L
3844 2515 L
3845 2630 L
3847 2732 L
3848 2559 L
3850 2560 L
3851 2732 L
3853 2460 L
3854 2621 L
3856 2480 L
3857 2653 L
3859 2618 L
3860 2683 L
3861 2612 L
3863 2586 L
3864 2597 L
3866 2568 L
3867 2552 L
3868 2604 L
3870 2539 L
3871 2710 L
3872 2703 L
3874 2638 L
3875 2478 L
3876 2870 L
3878 2674 L
3879 2542 L
3880 2692 L
3882 2479 L
3883 2534 L
3884 2592 L
3885 2724 L
3887 2611 L
3888 2615 L
3889 2607 L
3890 2701 L
3892 2721 L
3893 2731 L
3894 2576 L
3895 2564 L
3897 2557 L
3898 2642 L
3899 2621 L
3900 2552 L
3901 2679 L
3903 2712 L
3904 2598 L
3905 2610 L
3906 2443 L
3907 2504 L
3908 2554 L
3910 2382 L
3911 2625 L
3912 2537 L
3913 2643 L
3914 2716 L
3915 2423 L
3917 2497 L
3918 2351 L
3919 2638 L
3920 2573 L
3921 2672 L
3922 2551 L
3923 2639 L
3924 2737 L
3925 2665 L
3926 2638 L
3928 2668 L
3929 2613 L
3930 2588 L
3931 2671 L
3932 2586 L
3933 2503 L
3934 2464 L
3935 2681 L
3936 2551 L
3937 2671 L
3938 2581 L
3939 2713 L
3940 2508 L
3941 2571 L
3942 2669 L
3943 2656 L
3944 2595 L
3945 2810 L
3946 2588 L
3947 2440 L
3948 2510 L
3949 2508 L
3950 2750 L
3951 2576 L
3952 2548 L
3953 2554 L
3954 2533 L
3955 2553 L
3956 2643 L
3957 2704 L
3958 2582 L
3959 2615 L
3960 2492 L
3961 2513 L
3962 2520 L
3963 2714 L
3964 2546 L
3965 2623 L
3966 2702 L
3966 2473 L
3967 2541 L
3968 2567 L
3969 2510 L
3970 2544 L
3971 2533 L
3972 2543 L
3973 2574 L
3974 2614 L
3975 2442 L
3976 2512 L
3976 2524 L
3977 2381 L
3978 2586 L
3979 2612 L
3980 2623 L
3981 2649 L
3982 2650 L
3983 2550 L
3983 2385 L
3984 2385 L
3985 2657 L
3986 2478 L
3987 2643 L
3988 2556 L
3989 2530 L
3989 2605 L
3990 2444 L
3991 2499 L
3992 2516 L
3993 2545 L
3994 2557 L
3995 2565 L
3995 2461 L
3996 2549 L
3997 2479 L
3998 2541 L
3999 2630 L
3999 2602 L
4000 2429 L
4001 2423 L
4002 2491 L
4003 2595 L
4003 2586 L
4004 2732 L
4005 2652 L
4006 2505 L
4007 2653 L
4007 2564 L
4008 2393 L
4009 2548 L
4010 2586 L
4011 2605 L
4011 2384 L
4012 2524 L
4013 2447 L
4014 2678 L
4014 2476 L
4015 2583 L
4016 2559 L
4017 2564 L
4017 2627 L
4018 2657 L
4019 2712 L
4020 2612 L
4021 2705 L
4021 2538 L
4022 2634 L
4023 2558 L
4023 2485 L
4024 2596 L
4025 2735 L
4026 2498 L
4026 2574 L
4027 2542 L
4028 2557 L
4029 2653 L
4029 2596 L
4030 2639 L
4031 2580 L
4032 2496 L
4032 2655 L
4033 2599 L
4034 2554 L
4034 2583 L
4035 2726 L
4036 2529 L
4036 2474 L
4037 2701 L
4038 2601 L
4039 2565 L
4039 2637 L
4040 2532 L
4041 2618 L
4041 2586 L
4042 2456 L
4043 2457 L
4043 2510 L
4044 2616 L
4045 2557 L
4045 2463 L
4046 2477 L
4047 2589 L
4047 2559 L
4048 2522 L
4049 2593 L
4050 2724 L
4050 2565 L
4051 2709 L
4052 2374 L
4052 2631 L
4053 2431 L
4053 2696 L
4054 2721 L
4055 2346 L
4055 2556 L
4056 2639 L
4057 2485 L
4057 2656 L
4058 2595 L
4059 2542 L
4059 2393 L
4060 2571 L
4061 2283 L
4061 2580 L
4062 2377 L
L2 C03 COSGR

%
%================
% Legend - Begin
%================
%
GSN 4240 5180 M
4480 5180 L
LWMC SL  C03 COSGR
GSN 4540 5141 M helvM (1.5 uM) show grestore
%
%================
% Legend - End
%================
%

%
% Residuals:
%
GSN 777 750 M
1388 1263 L
1552 1401 L
1652 1485 L
1723 1469 L
1778 1454 L
1824 1467 L
1863 1463 L
1896 1462 L
1926 1474 L
1952 1493 L
1976 1507 L
1998 1548 L
2019 1567 L
2037 1499 L
2055 1568 L
2071 1536 L
2086 1503 L
2101 1497 L
2115 1501 L
2128 1555 L
2140 1508 L
2152 1492 L
2163 1569 L
2174 1554 L
2184 1511 L
2194 1473 L
2204 1453 L
2213 1504 L
2222 1510 L
2230 1498 L
2239 1518 L
2247 1483 L
2255 1481 L
2262 1520 L
2270 1472 L
2277 1487 L
2284 1470 L
2290 1515 L
2297 1495 L
2303 1466 L
2310 1432 L
2316 1454 L
2322 1441 L
2328 1450 L
2333 1460 L
2339 1473 L
2344 1467 L
2350 1489 L
2355 1437 L
2360 1440 L
2365 1457 L
2370 1470 L
2375 1449 L
2380 1413 L
2384 1468 L
2389 1452 L
2393 1500 L
2398 1453 L
2402 1419 L
2407 1417 L
2411 1456 L
2415 1442 L
2419 1433 L
2423 1468 L
2427 1443 L
2431 1494 L
2435 1440 L
2438 1417 L
2442 1450 L
2446 1439 L
2449 1414 L
2453 1420 L
2456 1440 L
2460 1427 L
2463 1409 L
2467 1386 L
2470 1398 L
2473 1423 L
2476 1435 L
2480 1398 L
2483 1406 L
2486 1452 L
2489 1407 L
2492 1434 L
2495 1402 L
2498 1419 L
2501 1385 L
2504 1434 L
2507 1415 L
2510 1380 L
2512 1414 L
2515 1432 L
2518 1407 L
2521 1417 L
2523 1395 L
2526 1403 L
2529 1373 L
2531 1335 L
2534 1378 L
2536 1375 L
2539 1388 L
2541 1382 L
2544 1359 L
2546 1336 L
2549 1371 L
2551 1383 L
2554 1375 L
2556 1359 L
2558 1373 L
2561 1383 L
2563 1342 L
2565 1338 L
2568 1416 L
2570 1400 L
2572 1389 L
2574 1364 L
2576 1324 L
2579 1443 L
2581 1353 L
2583 1328 L
2585 1368 L
2587 1390 L
2589 1363 L
2591 1343 L
2593 1356 L
2595 1338 L
2597 1363 L
2599 1344 L
2601 1346 L
2603 1395 L
2605 1307 L
2607 1329 L
2609 1339 L
2611 1355 L
2613 1347 L
2615 1303 L
2617 1317 L
2618 1342 L
2620 1350 L
2622 1350 L
2624 1360 L
2626 1350 L
2627 1299 L
2629 1312 L
2631 1338 L
2633 1340 L
2634 1324 L
2636 1355 L
2638 1317 L
2640 1326 L
2641 1313 L
2643 1339 L
2645 1305 L
2646 1342 L
2648 1322 L
2650 1247 L
2651 1322 L
2653 1300 L
2654 1325 L
2656 1293 L
2658 1325 L
2659 1292 L
2661 1262 L
2662 1290 L
2664 1337 L
2665 1331 L
2667 1285 L
2668 1306 L
2670 1323 L
2671 1319 L
2673 1279 L
2674 1308 L
2676 1309 L
2677 1282 L
2679 1308 L
2680 1299 L
2682 1294 L
2683 1293 L
2685 1281 L
2686 1278 L
2687 1303 L
2689 1278 L
2690 1287 L
2692 1222 L
2693 1319 L
2694 1298 L
2696 1264 L
2697 1256 L
2698 1302 L
2700 1311 L
2701 1279 L
2702 1309 L
2704 1269 L
2705 1263 L
2706 1271 L
2708 1250 L
2709 1295 L
2710 1267 L
2712 1290 L
2713 1274 L
2714 1282 L
2715 1294 L
2717 1253 L
2718 1256 L
2719 1273 L
2720 1302 L
2722 1267 L
2723 1243 L
2724 1293 L
2725 1277 L
2726 1247 L
2728 1265 L
2729 1238 L
2730 1257 L
2731 1237 L
2732 1280 L
2734 1247 L
2735 1270 L
2736 1223 L
2737 1224 L
2738 1260 L
2739 1239 L
2741 1229 L
2742 1208 L
2743 1279 L
2744 1220 L
2745 1255 L
2746 1231 L
2747 1297 L
2748 1243 L
2749 1246 L
2751 1250 L
2752 1227 L
2753 1291 L
2754 1218 L
2755 1237 L
2756 1244 L
2757 1220 L
2758 1246 L
2759 1225 L
2760 1237 L
2761 1274 L
2762 1249 L
2763 1241 L
2764 1251 L
2765 1203 L
2767 1279 L
2768 1288 L
2769 1249 L
2770 1184 L
2771 1247 L
2772 1224 L
2773 1221 L
2774 1255 L
2775 1194 L
2776 1236 L
2777 1211 L
2778 1257 L
2779 1220 L
2780 1221 L
2781 1239 L
2782 1187 L
2783 1237 L
2783 1242 L
2784 1231 L
2785 1207 L
2786 1229 L
2787 1186 L
2788 1206 L
2789 1193 L
2790 1214 L
2791 1173 L
2792 1246 L
2793 1217 L
2794 1226 L
2795 1212 L
2796 1210 L
2797 1182 L
2798 1249 L
2798 1222 L
2799 1255 L
2800 1218 L
2801 1253 L
2802 1223 L
2803 1207 L
2804 1185 L
2805 1221 L
2806 1186 L
2807 1211 L
2807 1171 L
2808 1221 L
2809 1226 L
2810 1194 L
2811 1192 L
2812 1218 L
2813 1180 L
2813 1173 L
2814 1147 L
2815 1203 L
2816 1240 L
2817 1179 L
2818 1210 L
2819 1219 L
2819 1195 L
2820 1211 L
2821 1145 L
2822 1188 L
2823 1236 L
2824 1178 L
2824 1159 L
2825 1184 L
2826 1188 L
2827 1267 L
2828 1179 L
2828 1136 L
2829 1176 L
2830 1164 L
2831 1181 L
2832 1154 L
2832 1182 L
2833 1159 L
2834 1177 L
2835 1204 L
2836 1162 L
2836 1161 L
2837 1145 L
2838 1185 L
2839 1154 L
2840 1147 L
2840 1158 L
2841 1153 L
2842 1171 L
2843 1206 L
2843 1156 L
2844 1167 L
2845 1160 L
2846 1124 L
2846 1166 L
2847 1133 L
2848 1175 L
2849 1224 L
2849 1134 L
2850 1145 L
2851 1192 L
2852 1126 L
2852 1165 L
2853 1170 L
2854 1177 L
2855 1185 L
2855 1206 L
2856 1154 L
2857 1172 L
2857 1160 L
2858 1147 L
2859 1154 L
2860 1165 L
2860 1129 L
2861 1140 L
2862 1130 L
2862 1144 L
2863 1125 L
2864 1187 L
2865 1127 L
2865 1208 L
2866 1139 L
2867 1111 L
2867 1140 L
2868 1161 L
2869 1182 L
2869 1165 L
2870 1150 L
2871 1189 L
2871 1155 L
2872 1137 L
2873 1109 L
2873 1145 L
2874 1183 L
2875 1125 L
2876 1153 L
2876 1189 L
2877 1137 L
2878 1131 L
2878 1128 L
2879 1167 L
2880 1160 L
2880 1124 L
2881 1150 L
2881 1125 L
2882 1138 L
2883 1176 L
2883 1141 L
2884 1167 L
2885 1180 L
2885 1112 L
2886 1122 L
2887 1181 L
2887 1168 L
2888 1124 L
2889 1144 L
2889 1141 L
2892 1187 L
2894 1158 L
2897 1140 L
2899 1169 L
2902 1118 L
2904 1166 L
2907 1163 L
2909 1084 L
2911 1105 L
2914 1110 L
2916 1122 L
2918 1097 L
2921 1151 L
2923 1092 L
2925 1090 L
2927 1099 L
2929 1097 L
2932 1098 L
2934 1108 L
2936 1075 L
2938 1106 L
2940 1102 L
2942 1096 L
2944 1101 L
2946 1071 L
2948 1107 L
2950 1092 L
2952 1063 L
2954 1071 L
2956 1072 L
2958 1086 L
2960 1029 L
2962 1082 L
2964 1097 L
2966 1098 L
2968 1077 L
2970 1092 L
2971 1077 L
2973 1066 L
2975 1040 L
2977 1033 L
2979 1064 L
2980 1039 L
2982 1082 L
2984 1043 L
2986 1062 L
2987 1057 L
2989 1089 L
2991 1058 L
2993 1083 L
2994 1042 L
2996 1072 L
2998 1060 L
2999 1040 L
3001 1043 L
3003 999 L
3004 1073 L
3006 1020 L
3007 1037 L
3009 1046 L
3011 1036 L
3012 1024 L
3014 1001 L
3015 1051 L
3017 1032 L
3018 1009 L
3020 1016 L
3021 998 L
3023 1042 L
3024 1026 L
3026 1026 L
3027 1014 L
3029 980 L
3030 1032 L
3032 1033 L
3033 1032 L
3035 1010 L
3036 1017 L
3038 1056 L
3039 968 L
3040 1046 L
3042 992 L
3043 1023 L
3045 1025 L
3046 1021 L
3047 990 L
3049 1052 L
3050 1015 L
3051 1037 L
3053 1004 L
3054 969 L
3055 995 L
3057 997 L
3058 1014 L
3059 993 L
3061 995 L
3062 982 L
3063 952 L
3065 976 L
3066 1003 L
3067 993 L
3068 968 L
3070 1004 L
3071 998 L
3072 991 L
3073 1027 L
3075 958 L
3076 977 L
3077 1013 L
3078 944 L
3079 996 L
3081 1010 L
3082 1000 L
3083 1000 L
3084 964 L
3085 1000 L
3087 974 L
3088 1003 L
3089 908 L
3090 1016 L
3091 971 L
3092 955 L
3094 979 L
3095 956 L
3096 958 L
3097 979 L
3098 984 L
3099 984 L
3100 968 L
3101 983 L
3103 972 L
3104 956 L
3105 993 L
3106 951 L
3107 1011 L
3108 958 L
3109 940 L
3110 988 L
3111 966 L
3112 962 L
3113 988 L
3114 1004 L
3115 962 L
3116 969 L
3117 967 L
3119 952 L
3120 964 L
3121 922 L
3122 963 L
3123 933 L
3124 918 L
3125 939 L
3126 953 L
3127 939 L
3128 921 L
3129 969 L
3130 954 L
3131 911 L
3132 962 L
3133 941 L
3134 1009 L
3135 938 L
3136 938 L
3136 922 L
3137 931 L
3138 947 L
3139 985 L
3140 980 L
3141 963 L
3142 939 L
3143 957 L
3144 945 L
3145 967 L
3146 933 L
3147 933 L
3148 989 L
3149 926 L
3150 939 L
3151 942 L
3151 946 L
3152 970 L
3153 952 L
3154 917 L
3155 934 L
3156 933 L
3157 951 L
3158 960 L
3159 930 L
3160 930 L
3160 932 L
3161 914 L
3162 927 L
3163 938 L
3164 949 L
3165 955 L
3166 918 L
3166 938 L
3167 932 L
3168 918 L
3169 912 L
3170 914 L
3171 930 L
3172 948 L
3172 960 L
3173 929 L
3174 969 L
3175 939 L
3176 977 L
3177 921 L
3177 934 L
3178 947 L
3179 983 L
3180 949 L
3181 891 L
3181 929 L
3182 950 L
3183 918 L
3184 941 L
3185 940 L
3185 906 L
3186 936 L
3187 932 L
3188 937 L
3189 961 L
3189 921 L
3190 926 L
3191 964 L
3192 948 L
3193 924 L
3193 963 L
3194 931 L
3195 922 L
3196 930 L
3196 913 L
3197 930 L
3198 924 L
3199 885 L
3199 950 L
3200 932 L
3201 939 L
3202 920 L
3202 964 L
3203 925 L
3204 895 L
3205 906 L
3205 897 L
3206 916 L
3207 967 L
3208 919 L
3208 944 L
3209 953 L
3210 953 L
3210 886 L
3211 908 L
3212 940 L
3213 963 L
3213 935 L
3214 936 L
3215 949 L
3215 914 L
3216 925 L
3217 962 L
3218 946 L
3218 924 L
3219 897 L
3220 963 L
3220 933 L
3221 1003 L
3222 945 L
3222 994 L
3223 947 L
3224 985 L
3224 888 L
3225 925 L
3226 939 L
3227 915 L
3227 967 L
3228 900 L
3229 957 L
3229 911 L
3230 944 L
3231 938 L
3231 897 L
3232 954 L
3233 894 L
3233 953 L
3234 919 L
3235 968 L
3235 929 L
3236 936 L
3236 940 L
3237 930 L
3238 909 L
3238 932 L
3239 956 L
3240 936 L
3240 931 L
3241 946 L
3242 920 L
3242 912 L
3243 893 L
3244 943 L
3244 914 L
3245 959 L
3245 923 L
3246 934 L
3247 932 L
3247 883 L
3248 920 L
3249 977 L
3249 943 L
3250 905 L
3250 923 L
3251 945 L
3252 937 L
3252 942 L
3253 920 L
3253 917 L
3254 939 L
3255 945 L
3255 946 L
3256 895 L
3257 971 L
3257 914 L
3258 956 L
3258 929 L
3259 990 L
3259 906 L
3260 953 L
3261 930 L
3261 922 L
3262 927 L
3262 951 L
3263 965 L
3264 960 L
3264 944 L
3265 937 L
3265 966 L
3266 905 L
3267 912 L
3267 945 L
3268 912 L
3268 947 L
3269 965 L
3269 928 L
3270 952 L
3271 918 L
3271 941 L
3272 917 L
3272 959 L
3273 926 L
3273 956 L
3274 945 L
3275 958 L
3275 946 L
3276 931 L
3276 914 L
3277 966 L
3277 963 L
3278 953 L
3278 919 L
3279 933 L
3280 963 L
3280 966 L
3281 927 L
3281 947 L
3282 945 L
3282 945 L
3283 940 L
3283 961 L
3284 927 L
3284 947 L
3285 945 L
3285 932 L
3286 988 L
3287 925 L
3287 954 L
3288 958 L
3288 963 L
3289 936 L
3289 939 L
3290 948 L
3290 982 L
3291 915 L
3291 975 L
3292 927 L
3292 952 L
3293 972 L
3293 919 L
3294 927 L
3294 958 L
3295 946 L
3295 955 L
3296 944 L
3297 935 L
3297 956 L
3298 932 L
3298 969 L
3299 954 L
3299 964 L
3300 916 L
3300 933 L
3301 939 L
3301 943 L
3302 920 L
3302 935 L
3303 900 L
3303 981 L
3304 928 L
3304 972 L
3305 974 L
3305 933 L
3306 920 L
3306 970 L
3307 981 L
3307 952 L
3308 927 L
3308 931 L
3309 942 L
3309 955 L
3310 933 L
3310 985 L
3311 938 L
3311 953 L
3312 956 L
3312 979 L
3312 903 L
3313 993 L
3313 931 L
3314 940 L
3314 973 L
3315 923 L
3315 942 L
3316 949 L
3316 975 L
3317 961 L
3317 1002 L
3318 923 L
3318 942 L
3319 960 L
3319 923 L
3320 954 L
3320 948 L
3321 944 L
3321 908 L
3321 945 L
3322 951 L
3322 947 L
3323 948 L
3323 942 L
3324 1003 L
3324 950 L
3325 972 L
3325 981 L
3326 988 L
3326 978 L
3327 939 L
3327 969 L
3327 1006 L
3328 965 L
3328 937 L
3329 973 L
3329 923 L
3330 970 L
3330 932 L
3331 966 L
3331 966 L
3332 1003 L
3332 951 L
3332 934 L
3333 966 L
3333 1031 L
3334 930 L
3334 911 L
3335 971 L
3335 952 L
3336 957 L
3336 953 L
3336 938 L
3337 978 L
3337 916 L
3338 990 L
3338 934 L
3339 996 L
3339 927 L
3339 991 L
3340 961 L
3340 935 L
3341 970 L
3341 971 L
3342 984 L
3342 951 L
3343 967 L
3343 963 L
3343 937 L
3344 970 L
3344 940 L
3345 932 L
3345 963 L
3346 955 L
3346 932 L
3346 972 L
3347 986 L
3347 961 L
3348 957 L
3348 978 L
3348 976 L
3349 932 L
3349 974 L
3350 919 L
3350 951 L
3351 944 L
3351 976 L
3351 981 L
3352 997 L
3352 944 L
3353 941 L
3353 960 L
3353 958 L
3354 957 L
3354 943 L
3355 947 L
3355 964 L
3355 986 L
3356 960 L
3356 971 L
3357 955 L
3357 970 L
3358 954 L
3358 1025 L
3358 958 L
3359 981 L
3359 990 L
3360 953 L
3360 988 L
3360 956 L
3361 1026 L
3361 961 L
3362 972 L
3362 997 L
3362 958 L
3363 911 L
3363 979 L
3364 957 L
3364 998 L
3364 983 L
3365 916 L
3365 984 L
3365 1000 L
3366 996 L
3366 992 L
3367 963 L
3367 966 L
3367 967 L
3368 962 L
3368 1007 L
3369 951 L
3369 990 L
3369 984 L
3370 969 L
3370 984 L
3371 972 L
3371 989 L
3371 981 L
3372 975 L
3372 959 L
3372 956 L
3373 911 L
3373 959 L
3374 909 L
3374 979 L
3374 921 L
3375 989 L
3375 992 L
3375 952 L
3376 987 L
3376 954 L
3377 976 L
3377 1052 L
3377 992 L
3378 967 L
3378 924 L
3378 977 L
3379 956 L
3379 995 L
3380 960 L
3380 962 L
3380 979 L
3381 1018 L
3381 953 L
3381 983 L
3382 977 L
3382 946 L
3383 973 L
3383 956 L
3383 1004 L
3384 954 L
3384 1046 L
3384 963 L
3385 996 L
3385 995 L
3385 984 L
3386 962 L
3386 1015 L
3387 974 L
3387 983 L
3387 1016 L
3388 943 L
3388 969 L
3388 985 L
3389 967 L
3389 998 L
3389 966 L
3390 961 L
3390 1010 L
3391 968 L
3391 990 L
3391 961 L
3392 985 L
3392 967 L
3392 1008 L
3393 961 L
3393 1012 L
3393 995 L
3394 989 L
3394 943 L
3394 957 L
3395 969 L
3395 951 L
3395 972 L
3396 1002 L
3396 963 L
3396 972 L
3397 962 L
3397 982 L
3398 984 L
3398 963 L
3398 979 L
3399 968 L
3399 973 L
3399 964 L
3400 971 L
3400 970 L
3400 965 L
3401 1006 L
3401 955 L
3401 990 L
3402 1018 L
3402 994 L
3402 1015 L
3403 995 L
3403 984 L
3403 1011 L
3404 997 L
3404 1013 L
3404 1024 L
3405 1016 L
3405 963 L
3405 987 L
3406 977 L
3406 966 L
3406 981 L
3407 985 L
3407 984 L
3407 990 L
3408 993 L
3408 990 L
3408 1005 L
3409 1011 L
3409 965 L
3409 1003 L
3410 959 L
3410 977 L
3410 1014 L
3411 1015 L
3411 971 L
3411 993 L
3412 1027 L
3412 1017 L
3412 972 L
3413 1005 L
3413 972 L
3413 973 L
3414 1007 L
3414 993 L
3414 990 L
3415 982 L
3415 938 L
3415 1002 L
3416 1024 L
3416 967 L
3416 1009 L
3417 958 L
3417 997 L
3417 994 L
3417 981 L
3418 1000 L
3418 1012 L
3418 1001 L
3419 1005 L
3419 982 L
3419 954 L
3420 996 L
3420 1062 L
3420 1012 L
3421 998 L
3421 981 L
3421 996 L
3422 975 L
3422 990 L
3422 993 L
3423 1029 L
3423 975 L
3423 1013 L
3423 978 L
3424 1019 L
3424 1018 L
3424 1011 L
3425 1024 L
3425 992 L
3425 991 L
3426 984 L
3426 972 L
3426 1011 L
3427 1026 L
3427 972 L
3427 1005 L
3428 983 L
3428 1099 L
3428 1018 L
3428 977 L
3429 970 L
3429 993 L
3429 1048 L
3430 1005 L
3430 996 L
3430 988 L
3431 1011 L
3431 975 L
3431 1027 L
3431 1018 L
3432 996 L
3432 992 L
3432 986 L
3433 1002 L
3433 1018 L
3433 984 L
3434 999 L
3434 1027 L
3434 973 L
3434 1042 L
3435 1020 L
3435 1036 L
3435 1029 L
3436 1004 L
3436 998 L
3436 1009 L
3437 996 L
3437 1007 L
3437 983 L
3437 993 L
3438 1024 L
3438 1022 L
3438 1024 L
3439 1013 L
3439 1016 L
3439 1043 L
3440 1046 L
3440 986 L
3440 999 L
3440 1020 L
3441 1021 L
3441 982 L
3441 989 L
3442 1013 L
3442 1047 L
3442 1037 L
3442 1073 L
3443 1035 L
3443 1018 L
3443 1009 L
3444 1010 L
3444 1008 L
3444 995 L
3444 1036 L
3445 952 L
3445 1065 L
3445 996 L
3446 983 L
3446 1003 L
3446 1044 L
3446 981 L
3447 1011 L
3447 991 L
3447 1011 L
3448 1024 L
3448 1031 L
3448 1023 L
3448 999 L
3449 1028 L
3449 1044 L
3449 1042 L
3450 966 L
3450 986 L
3450 995 L
3450 1019 L
3451 971 L
3451 992 L
3451 1000 L
3452 1028 L
3452 1013 L
3452 1004 L
3452 1015 L
3453 972 L
3453 1011 L
3453 995 L
3454 1034 L
3454 1019 L
3454 1023 L
3454 1013 L
3455 1042 L
3455 1002 L
3455 1020 L
3455 1008 L
3456 983 L
3456 1021 L
3456 1037 L
3457 985 L
3457 1005 L
3457 967 L
3457 1021 L
3458 985 L
3458 1022 L
3458 1012 L
3458 1050 L
3459 1009 L
3459 1046 L
3459 1007 L
3460 1040 L
3460 1041 L
3460 995 L
3460 998 L
3461 1003 L
3461 1028 L
3461 1036 L
3461 987 L
3462 1016 L
3462 1022 L
3462 1013 L
3463 1028 L
3463 989 L
3463 997 L
3463 1025 L
3464 1015 L
3464 995 L
3464 1008 L
3464 1025 L
3465 1055 L
3465 987 L
3465 1044 L
3465 1006 L
3466 1008 L
3466 1036 L
3466 1029 L
3466 994 L
3467 1015 L
3467 1014 L
3467 1036 L
3468 1039 L
3468 1030 L
3468 1022 L
3468 1042 L
3469 1046 L
3469 1046 L
3469 1038 L
3469 1012 L
3470 1029 L
3470 1005 L
3470 1042 L
3470 1048 L
3471 1032 L
3471 1068 L
3471 1026 L
3471 1058 L
3472 1058 L
3472 1029 L
3472 1010 L
3472 1046 L
3473 1034 L
3473 1034 L
3473 992 L
3474 1065 L
3474 1018 L
3474 1035 L
3474 1023 L
3475 987 L
3475 1030 L
3475 1015 L
3475 1027 L
3476 1025 L
3476 1044 L
3476 1003 L
3476 1012 L
3477 1012 L
3477 1003 L
3477 1033 L
3477 1028 L
3478 1022 L
3478 1039 L
3478 1035 L
3478 1010 L
3479 1020 L
3479 1025 L
3479 1036 L
3479 1033 L
3480 1029 L
3480 1041 L
3480 1018 L
3480 1031 L
3481 1046 L
3481 1022 L
3481 1056 L
3481 1061 L
3482 1044 L
3482 1036 L
3482 1023 L
3482 1049 L
3483 1053 L
3483 1051 L
3483 1057 L
3483 1016 L
3484 1039 L
3484 1025 L
3484 1008 L
3484 1002 L
3485 1035 L
3485 1017 L
3485 1026 L
3485 986 L
3486 1051 L
3486 1002 L
3486 997 L
3486 1028 L
3487 1040 L
3487 1004 L
3487 1020 L
3487 1018 L
3488 1046 L
3488 1047 L
3488 1060 L
3488 1008 L
3488 1066 L
3489 1028 L
3489 1009 L
3489 996 L
3489 1064 L
3490 1039 L
3490 1055 L
3490 1005 L
3490 1008 L
3491 1084 L
3491 1066 L
3491 993 L
3491 1024 L
3492 995 L
3492 1026 L
3492 1045 L
3492 1016 L
3493 1046 L
3493 1053 L
3493 1038 L
3493 1026 L
3494 1023 L
3494 1026 L
3494 1006 L
3494 1037 L
3494 995 L
3495 1030 L
3495 1040 L
3495 1047 L
3495 1017 L
3496 1008 L
3496 1014 L
3496 1089 L
3496 991 L
3497 1050 L
3497 1035 L
3497 1036 L
3497 1048 L
3498 1039 L
3498 1063 L
3498 1032 L
3498 1013 L
3498 1047 L
3499 1065 L
3499 1069 L
3499 1045 L
3499 1079 L
3500 1024 L
3500 1036 L
3506 1067 L
3511 1019 L
3517 1053 L
3522 1064 L
3527 1081 L
3532 1050 L
3537 1065 L
3542 1066 L
3547 1049 L
3552 1081 L
3557 1066 L
3561 1045 L
3566 1062 L
3570 1103 L
3575 1095 L
3579 1078 L
3583 1118 L
3587 1117 L
3591 1127 L
3595 1064 L
3599 1085 L
3603 1079 L
3607 1074 L
3611 1085 L
3614 1057 L
3618 1102 L
3622 1079 L
3625 1054 L
3629 1058 L
3632 1108 L
3636 1130 L
3639 1096 L
3642 1074 L
3646 1083 L
3649 1101 L
3652 1115 L
3655 1102 L
3658 1155 L
3661 1071 L
3664 1032 L
3667 1085 L
3670 1070 L
3673 1096 L
3676 1098 L
3679 1077 L
3682 1090 L
3685 1123 L
3688 1058 L
3690 1107 L
3693 1085 L
3696 1079 L
3698 1116 L
3701 1057 L
3704 1058 L
3706 1078 L
3709 1085 L
3711 1102 L
3714 1103 L
3716 1098 L
3719 1102 L
3721 1060 L
3724 1124 L
3726 1023 L
3728 1112 L
3731 1125 L
3733 1100 L
3735 1079 L
3738 1101 L
3740 1108 L
3742 1095 L
3744 1120 L
3747 1094 L
3749 1152 L
3751 1092 L
3753 1099 L
3755 1136 L
3757 1110 L
3760 1108 L
3762 1162 L
3764 1100 L
3766 1110 L
3768 1066 L
3770 1094 L
3772 1098 L
3774 1106 L
3776 1101 L
3778 1123 L
3780 1093 L
3781 1091 L
3783 1104 L
3785 1073 L
3787 1113 L
3789 1087 L
3791 1103 L
3793 1112 L
3795 1096 L
3796 1078 L
3798 1057 L
3800 1127 L
3802 1100 L
3803 1088 L
3805 1098 L
3807 1121 L
3809 1118 L
3810 1059 L
3812 1071 L
3814 1128 L
3816 1113 L
3817 1057 L
3819 1064 L
3820 1050 L
3822 1107 L
3824 1111 L
3825 1084 L
3827 1071 L
3829 1131 L
3830 1093 L
3832 1116 L
3833 1095 L
3835 1077 L
3836 1100 L
3838 1078 L
3839 1110 L
3841 1147 L
3842 1125 L
3844 1074 L
3845 1108 L
3847 1138 L
3848 1087 L
3850 1087 L
3851 1137 L
3853 1058 L
3854 1105 L
3856 1063 L
3857 1114 L
3859 1104 L
3860 1123 L
3861 1102 L
3863 1094 L
3864 1097 L
3866 1089 L
3867 1084 L
3868 1099 L
3870 1080 L
3871 1130 L
3872 1128 L
3874 1109 L
3875 1062 L
3876 1177 L
3878 1119 L
3879 1080 L
3880 1124 L
3882 1062 L
3883 1078 L
3884 1095 L
3885 1133 L
3887 1100 L
3888 1102 L
3889 1099 L
3890 1127 L
3892 1132 L
3893 1135 L
3894 1090 L
3895 1086 L
3897 1084 L
3898 1109 L
3899 1103 L
3900 1083 L
3901 1120 L
3903 1129 L
3904 1096 L
3905 1099 L
3906 1050 L
3907 1068 L
3908 1083 L
3910 1032 L
3911 1104 L
3912 1078 L
3913 1108 L
3914 1130 L
3915 1044 L
3917 1066 L
3918 1023 L
3919 1107 L
3920 1088 L
3921 1117 L
3922 1081 L
3923 1107 L
3924 1136 L
3925 1114 L
3926 1106 L
3928 1115 L
3929 1099 L
3930 1092 L
3931 1116 L
3932 1091 L
3933 1067 L
3934 1055 L
3935 1119 L
3936 1080 L
3937 1115 L
3938 1089 L
3939 1128 L
3940 1068 L
3941 1086 L
3942 1115 L
3943 1111 L
3944 1093 L
3945 1156 L
3946 1091 L
3947 1047 L
3948 1068 L
3949 1067 L
3950 1138 L
3951 1087 L
3952 1079 L
3953 1080 L
3954 1074 L
3955 1080 L
3956 1106 L
3957 1124 L
3958 1088 L
3959 1098 L
3960 1062 L
3961 1068 L
3962 1070 L
3963 1127 L
3964 1078 L
3965 1100 L
3966 1123 L
3966 1056 L
3967 1076 L
3968 1083 L
3969 1067 L
3970 1077 L
3971 1073 L
3972 1076 L
3973 1085 L
3974 1097 L
3975 1047 L
3976 1067 L
3976 1070 L
3977 1028 L
3978 1088 L
3979 1096 L
3980 1099 L
3981 1107 L
3982 1107 L
3983 1078 L
3983 1029 L
3984 1029 L
3985 1109 L
3986 1056 L
3987 1104 L
3988 1079 L
3989 1071 L
3989 1093 L
3990 1046 L
3991 1062 L
3992 1067 L
3993 1075 L
3994 1079 L
3995 1081 L
3995 1051 L
3996 1076 L
3997 1056 L
3998 1074 L
3999 1100 L
3999 1092 L
4000 1041 L
4001 1039 L
4002 1059 L
4003 1089 L
4003 1087 L
4004 1129 L
4005 1106 L
4006 1063 L
4007 1106 L
4007 1080 L
4008 1030 L
4009 1075 L
4010 1086 L
4011 1092 L
4011 1027 L
4012 1068 L
4013 1045 L
4014 1113 L
4014 1054 L
4015 1085 L
4016 1078 L
4017 1079 L
4017 1098 L
4018 1106 L
4019 1123 L
4020 1093 L
4021 1120 L
4021 1071 L
4022 1099 L
4023 1077 L
4023 1056 L
4024 1088 L
4025 1129 L
4026 1059 L
4026 1082 L
4027 1072 L
4028 1076 L
4029 1104 L
4029 1088 L
4030 1100 L
4031 1083 L
4032 1058 L
4032 1105 L
4033 1088 L
4034 1075 L
4034 1084 L
4035 1125 L
4036 1068 L
4036 1052 L
4037 1118 L
4038 1089 L
4039 1078 L
4039 1099 L
4040 1068 L
4041 1093 L
4041 1084 L
4042 1046 L
4043 1046 L
4043 1062 L
4044 1092 L
4045 1075 L
4045 1047 L
4046 1052 L
4047 1084 L
4047 1075 L
4048 1065 L
4049 1085 L
4050 1124 L
4050 1077 L
4051 1119 L
4052 1021 L
4052 1096 L
4053 1038 L
4053 1115 L
4054 1122 L
4055 1013 L
4055 1074 L
4056 1098 L
4057 1053 L
4057 1103 L
4058 1085 L
4059 1070 L
4059 1026 L
4060 1078 L
4061 994 L
4061 1081 L
4062 1021 L
L2 C03 COSGR

%
% Main frame
%
L10
GSN 
620 1700 M
4220 1700 L
4220 5300 L
620 5300 L
closepath SGR

%
% X axis: large tics
%
L10
GSN 1130 1700 M 0  54 rL SGR
GSN 1130 5300 M 0 -54 rL SGR
helvS (0.0001) 1130 470 xlabel
GSN 1716 1700 M 0  54 rL SGR
GSN 1716 5300 M 0 -54 rL SGR
helvS (0.001) 1716 470 xlabel
GSN 2303 1700 M 0  54 rL SGR
GSN 2303 5300 M 0 -54 rL SGR
helvS (0.01) 2303 470 xlabel
GSN 2889 1700 M 0  54 rL SGR
GSN 2889 5300 M 0 -54 rL SGR
helvS (0.1) 2889 470 xlabel
GSN 3476 1700 M 0  54 rL SGR
GSN 3476 5300 M 0 -54 rL SGR
helvS (1) 3476 470 xlabel
GSN 4062 1700 M 0  54 rL SGR
GSN 4062 5300 M 0 -54 rL SGR
helvS (10) 4062 470 xlabel
%
% X axis: small tics
%
L5
GSN 720 1700 M 0  36 rL SGR
GSN 720 5300 M 0 -36 rL SGR
GSN 824 1700 M 0  36 rL SGR
GSN 824 5300 M 0 -36 rL SGR
GSN 897 1700 M 0  36 rL SGR
GSN 897 5300 M 0 -36 rL SGR
GSN 954 1700 M 0  36 rL SGR
GSN 954 5300 M 0 -36 rL SGR
GSN 1000 1700 M 0  36 rL SGR
GSN 1000 5300 M 0 -36 rL SGR
GSN 1039 1700 M 0  36 rL SGR
GSN 1039 5300 M 0 -36 rL SGR
GSN 1073 1700 M 0  36 rL SGR
GSN 1073 5300 M 0 -36 rL SGR
GSN 1103 1700 M 0  36 rL SGR
GSN 1103 5300 M 0 -36 rL SGR
GSN 1307 1700 M 0  36 rL SGR
GSN 1307 5300 M 0 -36 rL SGR
GSN 1410 1700 M 0  36 rL SGR
GSN 1410 5300 M 0 -36 rL SGR
GSN 1483 1700 M 0  36 rL SGR
GSN 1483 5300 M 0 -36 rL SGR
GSN 1540 1700 M 0  36 rL SGR
GSN 1540 5300 M 0 -36 rL SGR
GSN 1586 1700 M 0  36 rL SGR
GSN 1586 5300 M 0 -36 rL SGR
GSN 1626 1700 M 0  36 rL SGR
GSN 1626 5300 M 0 -36 rL SGR
GSN 1660 1700 M 0  36 rL SGR
GSN 1660 5300 M 0 -36 rL SGR
GSN 1690 1700 M 0  36 rL SGR
GSN 1690 5300 M 0 -36 rL SGR
GSN 1893 1700 M 0  36 rL SGR
GSN 1893 5300 M 0 -36 rL SGR
GSN 1996 1700 M 0  36 rL SGR
GSN 1996 5300 M 0 -36 rL SGR
GSN 2069 1700 M 0  36 rL SGR
GSN 2069 5300 M 0 -36 rL SGR
GSN 2126 1700 M 0  36 rL SGR
GSN 2126 5300 M 0 -36 rL SGR
GSN 2173 1700 M 0  36 rL SGR
GSN 2173 5300 M 0 -36 rL SGR
GSN 2212 1700 M 0  36 rL SGR
GSN 2212 5300 M 0 -36 rL SGR
GSN 2246 1700 M 0  36 rL SGR
GSN 2246 5300 M 0 -36 rL SGR
GSN 2276 1700 M 0  36 rL SGR
GSN 2276 5300 M 0 -36 rL SGR
GSN 2479 1700 M 0  36 rL SGR
GSN 2479 5300 M 0 -36 rL SGR
GSN 2583 1700 M 0  36 rL SGR
GSN 2583 5300 M 0 -36 rL SGR
GSN 2656 1700 M 0  36 rL SGR
GSN 2656 5300 M 0 -36 rL SGR
GSN 2713 1700 M 0  36 rL SGR
GSN 2713 5300 M 0 -36 rL SGR
GSN 2759 1700 M 0  36 rL SGR
GSN 2759 5300 M 0 -36 rL SGR
GSN 2798 1700 M 0  36 rL SGR
GSN 2798 5300 M 0 -36 rL SGR
GSN 2832 1700 M 0  36 rL SGR
GSN 2832 5300 M 0 -36 rL SGR
GSN 2862 1700 M 0  36 rL SGR
GSN 2862 5300 M 0 -36 rL SGR
GSN 3066 1700 M 0  36 rL SGR
GSN 3066 5300 M 0 -36 rL SGR
GSN 3169 1700 M 0  36 rL SGR
GSN 3169 5300 M 0 -36 rL SGR
GSN 3242 1700 M 0  36 rL SGR
GSN 3242 5300 M 0 -36 rL SGR
GSN 3299 1700 M 0  36 rL SGR
GSN 3299 5300 M 0 -36 rL SGR
GSN 3345 1700 M 0  36 rL SGR
GSN 3345 5300 M 0 -36 rL SGR
GSN 3385 1700 M 0  36 rL SGR
GSN 3385 5300 M 0 -36 rL SGR
GSN 3419 1700 M 0  36 rL SGR
GSN 3419 5300 M 0 -36 rL SGR
GSN 3449 1700 M 0  36 rL SGR
GSN 3449 5300 M 0 -36 rL SGR
GSN 3652 1700 M 0  36 rL SGR
GSN 3652 5300 M 0 -36 rL SGR
GSN 3755 1700 M 0  36 rL SGR
GSN 3755 5300 M 0 -36 rL SGR
GSN 3829 1700 M 0  36 rL SGR
GSN 3829 5300 M 0 -36 rL SGR
GSN 3885 1700 M 0  36 rL SGR
GSN 3885 5300 M 0 -36 rL SGR
GSN 3932 1700 M 0  36 rL SGR
GSN 3932 5300 M 0 -36 rL SGR
GSN 3971 1700 M 0  36 rL SGR
GSN 3971 5300 M 0 -36 rL SGR
GSN 4005 1700 M 0  36 rL SGR
GSN 4005 5300 M 0 -36 rL SGR
GSN 4035 1700 M 0  36 rL SGR
GSN 4035 5300 M 0 -36 rL SGR
%
% Y axis: large tics
%
L10
GSN 620 2347 M 54 0 rL SGR
GSN 4220 2347 M -54 0 rL SGR
helvS (1.05) 560 2347 ylabel
GSN 620 3125 M 54 0 rL SGR
GSN 4220 3125 M -54 0 rL SGR
helvS (1.075) 560 3125 ylabel
GSN 620 3904 M 54 0 rL SGR
GSN 4220 3904 M -54 0 rL SGR
helvS (1.1) 560 3904 ylabel
GSN 620 4683 M 54 0 rL SGR
GSN 4220 4683 M -54 0 rL SGR
helvS (1.125) 560 4683 ylabel
%
% Y axis: small tics
%
L5
GSN 620 1724 M 36 0 rL SGR
GSN 4220 1724 M -36 0 rL SGR
GSN 620 2113 M 36 0 rL SGR
GSN 4220 2113 M -36 0 rL SGR
GSN 620 2502 M 36 0 rL SGR
GSN 4220 2502 M -36 0 rL SGR
GSN 620 2892 M 36 0 rL SGR
GSN 4220 2892 M -36 0 rL SGR
GSN 620 3281 M 36 0 rL SGR
GSN 4220 3281 M -36 0 rL SGR
GSN 620 3670 M 36 0 rL SGR
GSN 4220 3670 M -36 0 rL SGR
GSN 620 4060 M 36 0 rL SGR
GSN 4220 4060 M -36 0 rL SGR
GSN 620 4449 M 36 0 rL SGR
GSN 4220 4449 M -36 0 rL SGR
GSN 620 4838 M 36 0 rL SGR
GSN 4220 4838 M -36 0 rL SGR
GSN 620 5228 M 36 0 rL SGR
GSN 4220 5228 M -36 0 rL SGR

%
% X-Axis label:
%
gsave 2420 290 M 
[
[(Helvetica) 180 0 true true 0 (t)]
[(Helvetica) 180 0 true true 0 (i)]
[(Helvetica) 180 0 true true 0 (m)]
[(Helvetica) 180 0 true true 0 (e)]
] 0 MCshow grestore

%
% Y-Axis label:
%
gsave 234 3500 M 
currentpoint gsave translate 90 rotate 0 0 moveto
[
[(Helvetica) 180 0 true true 0 (s)]
[(Helvetica) 180 0 true true 0 (i)]
[(Helvetica) 180 0 true true 0 (g)]
[(Helvetica) 180 0 true true 0 (n)]
[(Helvetica) 180 0 true true 0 (a)]
[(Helvetica) 180 0 true true 0 (l)]
] 0 MCshow grestore

%
% Residuals:
%
gsave 129 1160 M 
currentpoint gsave translate 90 rotate 0 0 moveto
[
[(Helvetica) 150 0 true true 0 (r)]
[(Helvetica) 150 0 true true 0 (e)]
[(Helvetica) 150 0 true true 0 (s)]
[(Helvetica) 150 0 true true 0 (i)]
[(Helvetica) 150 0 true true 0 (d)]
[(Helvetica) 150 0 true true 0 (u)]
[(Helvetica) 150 0 true true 0 (a)]
[(Helvetica) 150 0 true true 0 (l)]
[(Helvetica) 150 0 true true 0 (s)]
] 0 MCshow grestore

%
% Residual frame
%
L10
GSN 
620 620 M
4220 620 L
4220 1700 L
620 1700 L
closepath SGR
%
% X axis: large tics - residual frame
%
L10
GSN 1130 620 M 0  54 rL SGR
GSN 1130 1700 M 0 -54 rL SGR
GSN 1716 620 M 0  54 rL SGR
GSN 1716 1700 M 0 -54 rL SGR
GSN 2303 620 M 0  54 rL SGR
GSN 2303 1700 M 0 -54 rL SGR
GSN 2889 620 M 0  54 rL SGR
GSN 2889 1700 M 0 -54 rL SGR
GSN 3476 620 M 0  54 rL SGR
GSN 3476 1700 M 0 -54 rL SGR
GSN 4062 620 M 0  54 rL SGR
GSN 4062 1700 M 0 -54 rL SGR
%
% X axis: small tics - residual frame
%
L5
GSN 720 620 M 0  36 rL SGR
GSN 720 1700 M 0 -36 rL SGR
GSN 824 620 M 0  36 rL SGR
GSN 824 1700 M 0 -36 rL SGR
GSN 897 620 M 0  36 rL SGR
GSN 897 1700 M 0 -36 rL SGR
GSN 954 620 M 0  36 rL SGR
GSN 954 1700 M 0 -36 rL SGR
GSN 1000 620 M 0  36 rL SGR
GSN 1000 1700 M 0 -36 rL SGR
GSN 1039 620 M 0  36 rL SGR
GSN 1039 1700 M 0 -36 rL SGR
GSN 1073 620 M 0  36 rL SGR
GSN 1073 1700 M 0 -36 rL SGR
GSN 1103 620 M 0  36 rL SGR
GSN 1103 1700 M 0 -36 rL SGR
GSN 1307 620 M 0  36 rL SGR
GSN 1307 1700 M 0 -36 rL SGR
GSN 1410 620 M 0  36 rL SGR
GSN 1410 1700 M 0 -36 rL SGR
GSN 1483 620 M 0  36 rL SGR
GSN 1483 1700 M 0 -36 rL SGR
GSN 1540 620 M 0  36 rL SGR
GSN 1540 1700 M 0 -36 rL SGR
GSN 1586 620 M 0  36 rL SGR
GSN 1586 1700 M 0 -36 rL SGR
GSN 1626 620 M 0  36 rL SGR
GSN 1626 1700 M 0 -36 rL SGR
GSN 1660 620 M 0  36 rL SGR
GSN 1660 1700 M 0 -36 rL SGR
GSN 1690 620 M 0  36 rL SGR
GSN 1690 1700 M 0 -36 rL SGR
GSN 1893 620 M 0  36 rL SGR
GSN 1893 1700 M 0 -36 rL SGR
GSN 1996 620 M 0  36 rL SGR
GSN 1996 1700 M 0 -36 rL SGR
GSN 2069 620 M 0  36 rL SGR
GSN 2069 1700 M 0 -36 rL SGR
GSN 2126 620 M 0  36 rL SGR
GSN 2126 1700 M 0 -36 rL SGR
GSN 2173 620 M 0  36 rL SGR
GSN 2173 1700 M 0 -36 rL SGR
GSN 2212 620 M 0  36 rL SGR
GSN 2212 1700 M 0 -36 rL SGR
GSN 2246 620 M 0  36 rL SGR
GSN 2246 1700 M 0 -36 rL SGR
GSN 2276 620 M 0  36 rL SGR
GSN 2276 1700 M 0 -36 rL SGR
GSN 2479 620 M 0  36 rL SGR
GSN 2479 1700 M 0 -36 rL SGR
GSN 2583 620 M 0  36 rL SGR
GSN 2583 1700 M 0 -36 rL SGR
GSN 2656 620 M 0  36 rL SGR
GSN 2656 1700 M 0 -36 rL SGR
GSN 2713 620 M 0  36 rL SGR
GSN 2713 1700 M 0 -36 rL SGR
GSN 2759 620 M 0  36 rL SGR
GSN 2759 1700 M 0 -36 rL SGR
GSN 2798 620 M 0  36 rL SGR
GSN 2798 1700 M 0 -36 rL SGR
GSN 2832 620 M 0  36 rL SGR
GSN 2832 1700 M 0 -36 rL SGR
GSN 2862 620 M 0  36 rL SGR
GSN 2862 1700 M 0 -36 rL SGR
GSN 3066 620 M 0  36 rL SGR
GSN 3066 1700 M 0 -36 rL SGR
GSN 3169 620 M 0  36 rL SGR
GSN 3169 1700 M 0 -36 rL SGR
GSN 3242 620 M 0  36 rL SGR
GSN 3242 1700 M 0 -36 rL SGR
GSN 3299 620 M 0  36 rL SGR
GSN 3299 1700 M 0 -36 rL SGR
GSN 3345 620 M 0  36 rL SGR
GSN 3345 1700 M 0 -36 rL SGR
GSN 3385 620 M 0  36 rL SGR
GSN 3385 1700 M 0 -36 rL SGR
GSN 3419 620 M 0  36 rL SGR
GSN 3419 1700 M 0 -36 rL SGR
GSN 3449 620 M 0  36 rL SGR
GSN 3449 1700 M 0 -36 rL SGR
GSN 3652 620 M 0  36 rL SGR
GSN 3652 1700 M 0 -36 rL SGR
GSN 3755 620 M 0  36 rL SGR
GSN 3755 1700 M 0 -36 rL SGR
GSN 3829 620 M 0  36 rL SGR
GSN 3829 1700 M 0 -36 rL SGR
GSN 3885 620 M 0  36 rL SGR
GSN 3885 1700 M 0 -36 rL SGR
GSN 3932 620 M 0  36 rL SGR
GSN 3932 1700 M 0 -36 rL SGR
GSN 3971 620 M 0  36 rL SGR
GSN 3971 1700 M 0 -36 rL SGR
GSN 4005 620 M 0  36 rL SGR
GSN 4005 1700 M 0 -36 rL SGR
GSN 4035 620 M 0  36 rL SGR
GSN 4035 1700 M 0 -36 rL SGR
%
% Y axis: large tics - residual frame
%
L10
GSN 620 621 M 54 0 rL SGR
GSN 4220 621 M -54 0 rL SGR
helvS (-0.05) 560 621 ylabelresid
GSN 620 1076 M 54 0 rL SGR
GSN 4220 1076 M -54 0 rL SGR
helvS (0) 560 1076 ylabelresid
GSN 620 1532 M 54 0 rL SGR
GSN 4220 1532 M -54 0 rL SGR
helvS (0.05) 560 1532 ylabelresid

%
% X axis - residual panel
%
GSN L5 620 1076 M 4220 1076 L SDA G50 SGR

end
showpage
%%Trailer
%%EOF
