%!PS-Adobe-3.0 EPSF-3.0
%%BoundingBox: 0 0 514 550
%%Creator: BioKin Ltd.
%%DocumentFonts: Symbol Helvetica
%%EndComments
%
/bkdict 256 dict def
bkdict begin
/M {moveto} def 
/R {rmoveto} def
/L {lineto} def
/rL {rlineto} def
/GSN {gsave newpath} def
/SGR {stroke grestore} def
/COSGR {gsave setrgbcolor stroke grestore grestore} def
/SL {setlinewidth} def
/LWMB {12} def             % line width - model curves, black & white
/LWMC {10} def             % line width - model curves, color
/L2 {2.5 setlinewidth} def
/L5 {5 setlinewidth} def
/L10 {10 setlinewidth} def
/G50 {0.5 setgray} def
/SDA {[10  20] 0 setdash} def % axes
/helvT {/Helvetica findfont 100 scalefont setfont} def % tiny
/helvS {/Helvetica findfont 125 scalefont setfont} def % small
/helvM {/Helvetica findfont 150 scalefont setfont} def % medium
/helvL {/Helvetica findfont 175 scalefont setfont} def % large
/xlabel {gsave M dup
   stringwidth exch -0.5 mul exch rmoveto show grestore} def 
/ylabel {gsave M 90 rotate dup
   stringwidth exch -0.5 mul exch rmoveto show grestore} def
/ylabelresid {gsave M dup
   stringwidth exch -1 mul exch rmoveto show grestore} def
% ======
% Shapes
% ======
% Circle:
/Circ {0 360 arc closepath} def
%
% Square:
/Squa {dup dup -0.5 mul dup dup R -2 mul 0 exch rL 1 mul 0 rL dup 0 exch -1 mul rL closepath} def
%
% Triangle Up:
/TriU {dup dup dup -0.4 mul exch -0.5 mul exch R dup 0.5 mul exch rL dup -1 mul exch 0.5 mul exch rL closepath} def 
%
% Triangle Down:
/TriD {dup dup dup 0.4 mul exch -0.5 mul exch R dup 0.5 mul exch -1 mul rL dup 0.5 mul exch rL closepath} def 
%
% Diamond:
/Diam {45 rotate Squa} def
% ======
% Fills
% ======
/GRF {gsave setgray fill grestore} def                    % gray-level Fill
/COF {gsave setrgbcolor fill grestore} def                % color fill
% ======
% Colors
% ======
/C01 {1.00	0.00	0.00} def      % Red
/C02 {0.00	0.00	1.00} def      % Blue
/C03 {0.00	0.39	0.00} def      % Dark Green
/C04 {0.78	0.08	0.52} def      % Medium Violet Red
/C05 {0.55	0.27	0.07} def      % Saddle Brown
/C06 {0.10	0.70	0.70} def      % (cyan)
/C07 {1.00	0.55	0.00} def      % Dark Orange
/C08 {0.63	0.13	0.94} def      % Purple
/C09 {0.00	0.75	1.00} def      % Deep Sky Blue
/C10 {0.20	0.80	0.20} def      % Lime Green
/C11 {0.47	0.53	0.60} def      % Light Slate Gray
/C12 {0.00	0.00	0.00} def      % Black            % or: {0.19	0.31	0.31} def      % Dark Slate Gray
%
/LGR {0.75} def % light gray
/DGR {0.33} def % dark gray
%
% =============
% Dash patterns
% =============
/dash01 { [80  20] 0 setdash } def
/dash02 { [40  20] 0 setdash } def
/dash03 { [80  20  10  20] 0 setdash } def
/dash04 { [40  20  10  20] 0 setdash } def
/dash05 { [80  20  10  10  10  20] 0 setdash } def
/dash06 { [40  20  10  10  10  20] 0 setdash } def
/dash07 { [10  10] 0 setdash } def
%
/MFshow {
   { dup 5 get 3 ge
     { 5 get 3 eq {gsave} {grestore} ifelse }
     {dup dup 0 get findfont exch 1 get scalefont setfont
     [ currentpoint ] exch dup 2 get 0 exch R dup 5 get 2 ne {dup dup 6
     get exch 4 get {show} {stringwidth pop 0 R} ifelse }if dup 5 get 0 eq
     {dup 3 get {2 get neg 0 exch R pop} {pop aload pop M} ifelse} {dup 5
     get 1 eq {dup 2 get exch dup 3 get exch 6 get stringwidth pop -2 div
     dup 0 R} {dup 6 get stringwidth pop -2 div 0 R 6 get
     show 2 index {aload pop M neg 3 -1 roll neg R pop pop} {pop pop pop
     pop aload pop M} ifelse }ifelse }ifelse }
     ifelse }
   forall} bind def
/MFwidth {0 exch {dup 3 get{dup dup 0 get findfont exch 1 get scalefont
     setfont 6 get stringwidth pop add} {pop} ifelse} forall} bind def
/MCshow { currentpoint stroke M
  exch dup MFwidth -2 div 3 -1 roll R MFshow } def
%
end
%%EndProlog
bkdict begin
0.1 0.1 scale
%
% Residuals:
%
GSN 620 4295 M
620 3621 L
620 3329 L
620 3844 L
620 3812 L
620 3501 L
620 3491 L
620 3493 L
620 3607 L
620 3577 L
620 3329 L
620 3693 L
620 3301 L
620 3391 L
620 3958 L
620 3540 L
620 3648 L
620 3364 L
620 3486 L
620 3546 L
620 3572 L
620 3405 L
620 3281 L
620 3418 L
620 3861 L
620 3539 L
620 3708 L
620 3583 L
620 3758 L
620 3763 L
620 3814 L
620 3668 L
620 3526 L
620 3365 L
620 3603 L
620 3617 L
620 3478 L
620 3775 L
620 3990 L
620 3849 L
620 3808 L
620 3605 L
620 3896 L
620 3461 L
620 3546 L
620 3689 L
620 3797 L
620 3706 L
620 3740 L
620 3744 L
620 3533 L
620 3587 L
620 3615 L
620 3469 L
620 3112 L
620 3868 L
620 3536 L
620 3608 L
620 3515 L
620 3928 L
620 3580 L
620 3415 L
620 4153 L
620 3368 L
620 3749 L
620 3675 L
620 3472 L
620 3585 L
620 3520 L
620 3843 L
620 3615 L
620 3297 L
620 3793 L
620 4046 L
620 3627 L
620 3573 L
620 3741 L
620 3316 L
620 3556 L
620 3601 L
620 3545 L
620 3261 L
620 3369 L
620 3729 L
620 3155 L
620 3266 L
620 3446 L
620 3340 L
620 3142 L
620 3001 L
620 3002 L
620 3062 L
620 2505 L
620 2977 L
620 2758 L
620 3266 L
620 2730 L
620 2914 L
620 2410 L
620 2631 L
620 2671 L
620 2479 L
620 2803 L
620 2533 L
620 2835 L
620 2863 L
620 2620 L
620 2404 L
620 2410 L
620 2823 L
620 2545 L
620 2456 L
620 2498 L
620 2692 L
620 2481 L
620 2576 L
620 2410 L
620 2671 L
620 2695 L
620 2599 L
620 2646 L
620 2669 L
620 2363 L
620 2936 L
620 2784 L
620 2136 L
620 2701 L
620 2605 L
620 2785 L
620 2560 L
620 2642 L
620 2426 L
620 2678 L
620 2691 L
620 3011 L
620 2320 L
620 2653 L
620 2838 L
620 2882 L
620 2837 L
620 2805 L
620 2464 L
620 2515 L
620 2755 L
620 2625 L
620 2750 L
620 2819 L
620 2765 L
620 2832 L
620 2871 L
620 2591 L
620 2873 L
620 2731 L
620 2598 L
620 2997 L
620 3039 L
620 2653 L
620 2691 L
620 3089 L
620 3004 L
620 2982 L
620 2986 L
620 2649 L
620 2984 L
620 3095 L
620 3027 L
620 2789 L
620 2830 L
620 2847 L
620 3051 L
620 3067 L
620 3066 L
620 2853 L
620 3260 L
620 3141 L
620 2710 L
620 3294 L
620 2864 L
620 2915 L
620 3051 L
620 2993 L
620 3233 L
620 3043 L
620 3233 L
620 3229 L
620 3148 L
620 3072 L
620 3230 L
620 2939 L
620 3139 L
620 3452 L
620 2888 L
620 3485 L
620 3073 L
620 2814 L
620 3137 L
620 3487 L
620 2837 L
620 3005 L
620 3313 L
620 3405 L
620 3107 L
620 3042 L
620 3081 L
620 3531 L
620 3254 L
620 3362 L
620 3461 L
620 3464 L
620 3444 L
620 3682 L
620 3411 L
620 3612 L
620 3441 L
620 3475 L
620 3033 L
620 3260 L
620 3568 L
620 2990 L
620 3317 L
620 3361 L
620 3289 L
620 3631 L
620 3369 L
620 3497 L
620 3448 L
620 3464 L
620 3392 L
620 3441 L
620 3709 L
620 3272 L
620 3438 L
620 3278 L
620 3279 L
620 3514 L
620 3295 L
620 3568 L
620 3447 L
620 3640 L
620 3581 L
620 3825 L
620 3780 L
620 3635 L
620 3675 L
620 3457 L
620 3519 L
620 3302 L
620 3679 L
620 3579 L
620 3388 L
620 3686 L
620 3608 L
620 3742 L
620 3362 L
620 3403 L
620 4069 L
620 4009 L
620 3420 L
620 3697 L
620 3882 L
620 3678 L
620 3656 L
620 3758 L
620 3649 L
620 4015 L
620 3434 L
620 3675 L
620 3726 L
620 3575 L
620 3759 L
620 3790 L
620 3797 L
620 3690 L
620 3899 L
620 3805 L
620 3563 L
620 3590 L
620 3885 L
620 3812 L
620 3851 L
620 3637 L
620 4204 L
620 3832 L
620 3954 L
620 4386 L
620 4099 L
620 4417 L
620 4415 L
620 4595 L
620 4106 L
620 4498 L
620 4409 L
620 4522 L
620 4181 L
620 4294 L
620 4085 L
620 4208 L
620 4680 L
620 4358 L
620 4525 L
620 4251 L
620 4085 L
620 4117 L
620 3959 L
620 4248 L
620 4368 L
620 4514 L
620 4106 L
620 4277 L
620 4863 L
620 4155 L
620 4338 L
620 4176 L
620 4682 L
620 3934 L
620 4490 L
620 4377 L
620 4638 L
620 4288 L
620 4265 L
620 4298 L
620 4205 L
620 4688 L
620 4519 L
620 4175 L
620 4056 L
620 4088 L
620 4224 L
620 4661 L
620 4196 L
620 4277 L
620 4254 L
620 4583 L
620 4440 L
620 4106 L
620 4423 L
620 4196 L
620 4376 L
620 4146 L
620 4362 L
620 4409 L
620 4312 L
620 4170 L
620 4650 L
620 4157 L
620 4603 L
620 4222 L
620 4275 L
620 4396 L
620 3654 L
620 4079 L
620 4242 L
620 4259 L
620 4449 L
620 4402 L
620 4418 L
620 4195 L
620 3949 L
620 4269 L
620 4236 L
620 4374 L
620 4074 L
620 4108 L
620 3847 L
620 4277 L
620 4196 L
620 4004 L
620 4201 L
620 4026 L
620 4452 L
620 3980 L
620 4676 L
620 4283 L
620 3844 L
620 4248 L
620 4064 L
620 4140 L
620 4578 L
620 3876 L
620 3898 L
620 4234 L
620 4105 L
620 3942 L
620 4102 L
620 4252 L
620 4140 L
620 3774 L
620 4050 L
620 3496 L
620 3838 L
620 4122 L
620 4132 L
620 3936 L
620 3692 L
620 4221 L
620 3866 L
620 3514 L
620 4396 L
620 3738 L
620 3704 L
620 4444 L
620 3913 L
620 3727 L
620 4039 L
620 3876 L
620 3783 L
620 4202 L
620 4157 L
620 3956 L
620 3858 L
620 3928 L
620 3688 L
620 3697 L
620 3892 L
620 3774 L
620 3936 L
620 3981 L
620 3694 L
620 3796 L
620 4058 L
620 3453 L
620 4365 L
620 3855 L
620 4225 L
620 4141 L
620 3726 L
620 3881 L
620 3768 L
620 3963 L
620 3927 L
620 3613 L
620 3585 L
620 4123 L
620 3630 L
620 3858 L
620 3988 L
620 3715 L
620 3748 L
620 3793 L
620 3739 L
620 3639 L
620 3634 L
620 3949 L
620 3716 L
620 3846 L
620 3413 L
620 3817 L
620 3809 L
620 3610 L
620 3703 L
620 3739 L
620 4016 L
620 3972 L
620 3787 L
620 3627 L
620 3506 L
620 3863 L
620 3942 L
620 3709 L
620 3614 L
620 3648 L
620 4201 L
620 3962 L
620 3721 L
620 3496 L
620 3456 L
620 3930 L
620 3884 L
620 3884 L
620 3971 L
620 3858 L
620 3683 L
620 3541 L
620 3748 L
620 3528 L
620 3578 L
620 3861 L
620 4023 L
620 3631 L
620 3589 L
620 3674 L
620 4039 L
620 3640 L
620 3610 L
620 4003 L
620 4032 L
620 3747 L
620 4076 L
620 3196 L
620 3246 L
620 3981 L
620 3787 L
620 3371 L
620 3818 L
620 3736 L
620 4158 L
620 3800 L
620 4109 L
620 3442 L
620 4102 L
620 3759 L
620 3814 L
620 3785 L
620 3748 L
620 3585 L
620 3680 L
620 3665 L
620 3678 L
620 3758 L
620 3529 L
620 3223 L
620 3916 L
620 3535 L
620 3426 L
620 3596 L
620 3668 L
620 3825 L
620 3861 L
620 3343 L
620 3835 L
620 3794 L
620 3534 L
620 3802 L
620 3456 L
620 3496 L
620 3899 L
620 3666 L
620 3700 L
620 3378 L
620 3755 L
620 3129 L
620 3547 L
620 3759 L
L2 C05 COSGR

%
%================
% Legend - Begin
%================
%
GSN 4240 5180 M
4480 5180 L
LWMC SL  C05 COSGR
GSN 4540 5141 M helvM (2.5 uM) show grestore
%
%================
% Legend - End
%================
%

%
% Main frame
%
L10
GSN 
620 1700 M
4220 1700 L
4220 5300 L
620 5300 L
closepath SGR

%
% X axis: large tics
%
L10
%
% X axis: small tics
%
L5
%
% Y axis: large tics
%
L10
GSN 620 2013 M 54 0 rL SGR
GSN 4220 2013 M -54 0 rL SGR
helvS (-0.02) 560 2013 ylabel
GSN 620 2811 M 54 0 rL SGR
GSN 4220 2811 M -54 0 rL SGR
helvS (-0.01) 560 2811 ylabel
GSN 620 3610 M 54 0 rL SGR
GSN 4220 3610 M -54 0 rL SGR
helvS (0) 560 3610 ylabel
GSN 620 4408 M 54 0 rL SGR
GSN 4220 4408 M -54 0 rL SGR
helvS (0.01) 560 4408 ylabel
GSN 620 5207 M 54 0 rL SGR
GSN 4220 5207 M -54 0 rL SGR
helvS (0.02) 560 5207 ylabel
%
% Y axis: small tics
%
L5
GSN 620 1813 M 36 0 rL SGR
GSN 4220 1813 M -36 0 rL SGR
GSN 620 2013 M 36 0 rL SGR
GSN 4220 2013 M -36 0 rL SGR
GSN 620 2213 M 36 0 rL SGR
GSN 4220 2213 M -36 0 rL SGR
GSN 620 2412 M 36 0 rL SGR
GSN 4220 2412 M -36 0 rL SGR
GSN 620 2612 M 36 0 rL SGR
GSN 4220 2612 M -36 0 rL SGR
GSN 620 2811 M 36 0 rL SGR
GSN 4220 2811 M -36 0 rL SGR
GSN 620 3011 M 36 0 rL SGR
GSN 4220 3011 M -36 0 rL SGR
GSN 620 3211 M 36 0 rL SGR
GSN 4220 3211 M -36 0 rL SGR
GSN 620 3410 M 36 0 rL SGR
GSN 4220 3410 M -36 0 rL SGR
GSN 620 3610 M 36 0 rL SGR
GSN 4220 3610 M -36 0 rL SGR
GSN 620 3809 M 36 0 rL SGR
GSN 4220 3809 M -36 0 rL SGR
GSN 620 4009 M 36 0 rL SGR
GSN 4220 4009 M -36 0 rL SGR
GSN 620 4209 M 36 0 rL SGR
GSN 4220 4209 M -36 0 rL SGR
GSN 620 4408 M 36 0 rL SGR
GSN 4220 4408 M -36 0 rL SGR
GSN 620 4608 M 36 0 rL SGR
GSN 4220 4608 M -36 0 rL SGR
GSN 620 4807 M 36 0 rL SGR
GSN 4220 4807 M -36 0 rL SGR
GSN 620 5007 M 36 0 rL SGR
GSN 4220 5007 M -36 0 rL SGR
GSN 620 5207 M 36 0 rL SGR
GSN 4220 5207 M -36 0 rL SGR

%
% X axis - residual panel
%
GSN L5 620 3610 M 4220 3610 L SDA G50 SGR

%
% X-Axis label:
%
gsave 620 1370 M 
[
[(Helvetica) 180 0 true true 0 (t)]
[(Helvetica) 180 0 true true 0 (i)]
[(Helvetica) 180 0 true true 0 (m)]
[(Helvetica) 180 0 true true 0 (e)]
] 0 MCshow grestore

%
% Y-Axis label:
%
gsave 234 3499 M 
currentpoint gsave translate 90 rotate 0 0 moveto
[
[(Helvetica) 180 0 true true 0 (r)]
[(Helvetica) 180 0 true true 0 (e)]
[(Helvetica) 180 0 true true 0 (s)]
[(Helvetica) 180 0 true true 0 (i)]
[(Helvetica) 180 0 true true 0 (d)]
[(Helvetica) 180 0 true true 0 (u)]
[(Helvetica) 180 0 true true 0 (a)]
[(Helvetica) 180 0 true true 0 (l)]
[(Helvetica) 180 0 true true 0 (s)]
] 0 MCshow grestore

end
showpage
%%Trailer
%%EOF
