%!PS-Adobe-3.0 EPSF-3.0
%%BoundingBox: 0 0 514 550
%%Creator: BioKin Ltd.
%%DocumentFonts: Symbol Helvetica
%%EndComments
%
/bkdict 256 dict def
bkdict begin
/M {moveto} def 
/R {rmoveto} def
/L {lineto} def
/rL {rlineto} def
/GSN {gsave newpath} def
/SGR {stroke grestore} def
/COSGR {gsave setrgbcolor stroke grestore grestore} def
/SL {setlinewidth} def
/LWMB {12} def             % line width - model curves, black & white
/LWMC {10} def             % line width - model curves, color
/L2 {2.5 setlinewidth} def
/L5 {5 setlinewidth} def
/L10 {10 setlinewidth} def
/G50 {0.5 setgray} def
/SDA {[10  20] 0 setdash} def % axes
/helvT {/Helvetica findfont 100 scalefont setfont} def % tiny
/helvS {/Helvetica findfont 125 scalefont setfont} def % small
/helvM {/Helvetica findfont 150 scalefont setfont} def % medium
/helvL {/Helvetica findfont 175 scalefont setfont} def % large
/xlabel {gsave M dup
   stringwidth exch -0.5 mul exch rmoveto show grestore} def 
/ylabel {gsave M 90 rotate dup
   stringwidth exch -0.5 mul exch rmoveto show grestore} def
/ylabelresid {gsave M dup
   stringwidth exch -1 mul exch rmoveto show grestore} def
% ======
% Shapes
% ======
% Circle:
/Circ {0 360 arc closepath} def
%
% Square:
/Squa {dup dup -0.5 mul dup dup R -2 mul 0 exch rL 1 mul 0 rL dup 0 exch -1 mul rL closepath} def
%
% Triangle Up:
/TriU {dup dup dup -0.4 mul exch -0.5 mul exch R dup 0.5 mul exch rL dup -1 mul exch 0.5 mul exch rL closepath} def 
%
% Triangle Down:
/TriD {dup dup dup 0.4 mul exch -0.5 mul exch R dup 0.5 mul exch -1 mul rL dup 0.5 mul exch rL closepath} def 
%
% Diamond:
/Diam {45 rotate Squa} def
% ======
% Fills
% ======
/GRF {gsave setgray fill grestore} def                    % gray-level Fill
/COF {gsave setrgbcolor fill grestore} def                % color fill
% ======
% Colors
% ======
/C01 {1.00	0.00	0.00} def      % Red
/C02 {0.00	0.00	1.00} def      % Blue
/C03 {0.00	0.39	0.00} def      % Dark Green
/C04 {0.78	0.08	0.52} def      % Medium Violet Red
/C05 {0.55	0.27	0.07} def      % Saddle Brown
/C06 {0.10	0.70	0.70} def      % (cyan)
/C07 {1.00	0.55	0.00} def      % Dark Orange
/C08 {0.63	0.13	0.94} def      % Purple
/C09 {0.00	0.75	1.00} def      % Deep Sky Blue
/C10 {0.20	0.80	0.20} def      % Lime Green
/C11 {0.47	0.53	0.60} def      % Light Slate Gray
/C12 {0.00	0.00	0.00} def      % Black            % or: {0.19	0.31	0.31} def      % Dark Slate Gray
%
/LGR {0.75} def % light gray
/DGR {0.33} def % dark gray
%
% =============
% Dash patterns
% =============
/dash01 { [80  20] 0 setdash } def
/dash02 { [40  20] 0 setdash } def
/dash03 { [80  20  10  20] 0 setdash } def
/dash04 { [40  20  10  20] 0 setdash } def
/dash05 { [80  20  10  10  10  20] 0 setdash } def
/dash06 { [40  20  10  10  10  20] 0 setdash } def
/dash07 { [10  10] 0 setdash } def
%
/MFshow {
   { dup 5 get 3 ge
     { 5 get 3 eq {gsave} {grestore} ifelse }
     {dup dup 0 get findfont exch 1 get scalefont setfont
     [ currentpoint ] exch dup 2 get 0 exch R dup 5 get 2 ne {dup dup 6
     get exch 4 get {show} {stringwidth pop 0 R} ifelse }if dup 5 get 0 eq
     {dup 3 get {2 get neg 0 exch R pop} {pop aload pop M} ifelse} {dup 5
     get 1 eq {dup 2 get exch dup 3 get exch 6 get stringwidth pop -2 div
     dup 0 R} {dup 6 get stringwidth pop -2 div 0 R 6 get
     show 2 index {aload pop M neg 3 -1 roll neg R pop pop} {pop pop pop
     pop aload pop M} ifelse }ifelse }ifelse }
     ifelse }
   forall} bind def
/MFwidth {0 exch {dup 3 get{dup dup 0 get findfont exch 1 get scalefont
     setfont 6 get stringwidth pop add} {pop} ifelse} forall} bind def
/MCshow { currentpoint stroke M
  exch dup MFwidth -2 div 3 -1 roll R MFshow } def
%
end
%%EndProlog
bkdict begin
0.1 0.1 scale
%
% Residuals:
%
GSN 620 3224 M
620 2602 L
620 3787 L
620 3276 L
620 4106 L
620 3568 L
620 3786 L
620 3798 L
620 3459 L
620 3183 L
620 3650 L
620 3473 L
620 4072 L
620 3439 L
620 3672 L
620 3626 L
620 3689 L
620 3524 L
620 3379 L
620 3443 L
620 3079 L
620 3218 L
620 3713 L
620 3363 L
620 3168 L
620 3876 L
620 3532 L
620 3625 L
620 3486 L
620 3742 L
620 3556 L
620 3045 L
620 3716 L
620 3065 L
620 3915 L
620 3931 L
620 3103 L
620 3968 L
620 2756 L
620 4065 L
620 3580 L
620 3913 L
620 3283 L
620 3893 L
620 3821 L
620 3417 L
620 3378 L
620 3511 L
620 3883 L
620 3653 L
620 3571 L
620 3924 L
620 3534 L
620 3513 L
620 3576 L
620 3655 L
620 3410 L
620 3909 L
620 3743 L
620 3350 L
620 3321 L
620 4134 L
620 3173 L
620 3993 L
620 3245 L
620 3833 L
620 2967 L
620 3495 L
620 2927 L
620 3531 L
620 3609 L
620 3266 L
620 3226 L
620 3765 L
620 2922 L
620 2889 L
620 3810 L
620 2999 L
620 3024 L
620 3369 L
620 3920 L
620 2936 L
620 2948 L
620 3394 L
620 3411 L
620 3345 L
620 3616 L
620 3492 L
620 3035 L
620 2926 L
620 2774 L
620 3102 L
620 3247 L
620 3381 L
620 2571 L
620 2852 L
620 3505 L
620 3285 L
620 2606 L
620 3716 L
620 3542 L
620 3303 L
620 3365 L
620 3199 L
620 3338 L
620 2925 L
620 2460 L
620 2923 L
620 2750 L
620 3336 L
620 3333 L
620 3426 L
620 3252 L
620 2846 L
620 2844 L
620 3441 L
620 2591 L
620 3207 L
620 2317 L
620 3377 L
620 2641 L
620 2721 L
620 2930 L
620 3558 L
620 3038 L
620 3732 L
620 3628 L
620 2496 L
620 3155 L
620 2560 L
620 3256 L
620 3043 L
620 2775 L
620 2136 L
620 3355 L
620 2745 L
620 2912 L
620 3368 L
620 3606 L
620 3028 L
620 3054 L
620 2564 L
620 2665 L
620 2598 L
620 3031 L
620 3140 L
620 3400 L
620 2937 L
620 3465 L
620 3119 L
620 2995 L
620 2997 L
620 2814 L
620 2572 L
620 2829 L
620 2919 L
620 2801 L
620 2692 L
620 3029 L
620 2950 L
620 3092 L
620 3449 L
620 3566 L
620 3646 L
620 3043 L
620 3488 L
620 4004 L
620 3170 L
620 3290 L
620 3113 L
620 3787 L
620 2978 L
620 3081 L
620 3482 L
620 3522 L
620 3343 L
620 2919 L
620 3543 L
620 3603 L
620 3251 L
620 3054 L
620 3556 L
620 3502 L
620 3398 L
620 2818 L
620 3554 L
620 3189 L
620 3361 L
620 2992 L
620 4279 L
620 3745 L
620 2967 L
620 4077 L
620 3022 L
620 3568 L
620 4018 L
620 3588 L
620 3735 L
620 3798 L
620 4003 L
620 3750 L
620 4019 L
620 2787 L
620 3151 L
620 3668 L
620 3432 L
620 3469 L
620 3333 L
620 3576 L
620 3357 L
620 3482 L
620 3565 L
620 3971 L
620 3781 L
620 3620 L
620 3880 L
620 3370 L
620 3562 L
620 3262 L
620 3480 L
620 3432 L
620 3998 L
620 3664 L
620 3465 L
620 3477 L
620 3896 L
620 4399 L
620 3594 L
620 3946 L
620 3129 L
620 3531 L
620 3601 L
620 3645 L
620 3505 L
620 3890 L
620 4036 L
620 3702 L
620 4150 L
620 3417 L
620 2865 L
620 3952 L
620 3269 L
620 4167 L
620 4224 L
620 3789 L
620 2770 L
620 3735 L
620 4259 L
620 3838 L
620 3369 L
620 3905 L
620 4025 L
620 4301 L
620 3681 L
620 3701 L
620 3896 L
620 4042 L
620 3817 L
620 3917 L
620 3826 L
620 3892 L
620 3487 L
620 3699 L
620 4101 L
620 3830 L
620 3589 L
620 3831 L
620 3716 L
620 3664 L
620 3544 L
620 2996 L
620 3352 L
620 3859 L
620 4164 L
620 3801 L
620 3912 L
620 4138 L
620 3581 L
620 4021 L
620 3805 L
620 3582 L
620 4130 L
620 3932 L
620 4805 L
620 4141 L
620 3796 L
620 3747 L
620 3493 L
620 4111 L
620 3750 L
620 4293 L
620 3908 L
620 4465 L
620 4417 L
620 4315 L
620 4734 L
620 4363 L
620 4222 L
620 4351 L
620 4676 L
620 4569 L
620 4065 L
620 4659 L
620 4211 L
620 4160 L
620 4738 L
620 3645 L
620 4453 L
620 4150 L
620 4486 L
620 4666 L
620 3791 L
620 3898 L
620 4571 L
620 4722 L
620 4532 L
620 3988 L
620 3428 L
620 4432 L
620 3826 L
620 3708 L
620 4196 L
620 4616 L
620 3686 L
620 3966 L
620 4286 L
620 4000 L
620 4365 L
620 4398 L
620 4863 L
620 4465 L
620 4774 L
620 3866 L
620 4465 L
620 4213 L
620 4751 L
620 3838 L
620 3552 L
620 3457 L
620 4577 L
620 4017 L
620 4673 L
620 4185 L
620 4180 L
620 4247 L
620 4297 L
620 4269 L
620 3759 L
620 3950 L
620 4292 L
620 4308 L
620 3899 L
620 3602 L
620 3927 L
620 3967 L
620 3698 L
620 3703 L
620 3737 L
620 3832 L
620 4269 L
620 4292 L
620 3765 L
620 4062 L
620 3350 L
620 3703 L
620 3647 L
620 4073 L
620 4337 L
620 3311 L
620 4057 L
620 3401 L
620 3400 L
620 3501 L
620 3647 L
620 3491 L
620 3451 L
620 3776 L
620 3574 L
620 3984 L
620 3400 L
620 3406 L
620 4084 L
620 3232 L
620 4028 L
620 3524 L
620 3899 L
620 3675 L
620 3950 L
620 3339 L
620 3686 L
620 3462 L
620 3361 L
620 3557 L
620 3625 L
620 3972 L
620 2762 L
620 4022 L
620 3417 L
620 3294 L
620 3894 L
620 3204 L
620 3451 L
620 3361 L
620 3333 L
620 3339 L
620 3115 L
620 3967 L
620 3087 L
620 3226 L
620 3316 L
620 3059 L
620 2958 L
620 3434 L
620 3782 L
620 3428 L
620 3546 L
620 3686 L
620 4146 L
620 3591 L
620 3866 L
620 4230 L
620 3843 L
620 3338 L
620 3457 L
620 4079 L
620 3490 L
620 3468 L
620 2717 L
620 4000 L
620 2952 L
620 3367 L
620 3619 L
620 3417 L
620 3092 L
620 3355 L
620 3787 L
620 3686 L
620 3922 L
620 4174 L
620 3327 L
620 4331 L
620 3445 L
620 3546 L
620 3126 L
620 3552 L
620 3188 L
620 3742 L
620 3255 L
620 3608 L
620 3350 L
620 3535 L
620 3597 L
620 3182 L
620 3866 L
620 3064 L
620 3787 L
620 3568 L
620 3838 L
620 3322 L
620 2907 L
620 3092 L
620 3053 L
620 3406 L
620 3630 L
620 3406 L
620 3221 L
620 4017 L
620 3098 L
620 4095 L
620 3944 L
620 2532 L
620 3059 L
620 3339 L
620 4051 L
620 3131 L
620 3686 L
620 3636 L
620 3008 L
620 2706 L
620 3249 L
620 3423 L
620 3591 L
620 3636 L
620 3327 L
620 3395 L
620 3754 L
620 3092 L
620 3092 L
620 3692 L
620 3608 L
620 3367 L
620 3092 L
620 3344 L
620 3905 L
620 2930 L
620 2638 L
620 2762 L
620 3636 L
620 3412 L
620 3075 L
620 3933 L
620 3591 L
620 3143 L
620 2958 L
620 3059 L
620 3221 L
620 3322 L
620 3109 L
620 2885 L
620 3737 L
620 3103 L
620 3277 L
620 3995 L
620 3221 L
620 2655 L
620 3507 L
620 2806 L
620 3715 L
620 3558 L
620 3367 L
620 3042 L
620 3871 L
620 2930 L
620 3456 L
620 3238 L
620 3888 L
620 3468 L
620 3272 L
620 3451 L
620 3535 L
620 3804 L
620 3356 L
620 3474 L
L2 C02 COSGR

%
%================
% Legend - Begin
%================
%
GSN 4240 5180 M
4480 5180 L
LWMC SL  C02 COSGR
GSN 4540 5141 M helvM (1.0 uM) show grestore
%
%================
% Legend - End
%================
%

%
% Main frame
%
L10
GSN 
620 1700 M
4220 1700 L
4220 5300 L
620 5300 L
closepath SGR

%
% X axis: large tics
%
L10
%
% X axis: small tics
%
L5
%
% Y axis: large tics
%
L10
GSN 620 2450 M 54 0 rL SGR
GSN 4220 2450 M -54 0 rL SGR
helvS (-0.01) 560 2450 ylabel
GSN 620 3552 M 54 0 rL SGR
GSN 4220 3552 M -54 0 rL SGR
helvS (0) 560 3552 ylabel
GSN 620 4654 M 54 0 rL SGR
GSN 4220 4654 M -54 0 rL SGR
helvS (0.01) 560 4654 ylabel
%
% Y axis: small tics
%
L5
GSN 620 1899 M 36 0 rL SGR
GSN 4220 1899 M -36 0 rL SGR
GSN 620 2175 M 36 0 rL SGR
GSN 4220 2175 M -36 0 rL SGR
GSN 620 2450 M 36 0 rL SGR
GSN 4220 2450 M -36 0 rL SGR
GSN 620 2726 M 36 0 rL SGR
GSN 4220 2726 M -36 0 rL SGR
GSN 620 3001 M 36 0 rL SGR
GSN 4220 3001 M -36 0 rL SGR
GSN 620 3277 M 36 0 rL SGR
GSN 4220 3277 M -36 0 rL SGR
GSN 620 3552 M 36 0 rL SGR
GSN 4220 3552 M -36 0 rL SGR
GSN 620 3828 M 36 0 rL SGR
GSN 4220 3828 M -36 0 rL SGR
GSN 620 4103 M 36 0 rL SGR
GSN 4220 4103 M -36 0 rL SGR
GSN 620 4379 M 36 0 rL SGR
GSN 4220 4379 M -36 0 rL SGR
GSN 620 4654 M 36 0 rL SGR
GSN 4220 4654 M -36 0 rL SGR
GSN 620 4930 M 36 0 rL SGR
GSN 4220 4930 M -36 0 rL SGR
GSN 620 5205 M 36 0 rL SGR
GSN 4220 5205 M -36 0 rL SGR

%
% X axis - residual panel
%
GSN L5 620 3552 M 4220 3552 L SDA G50 SGR

%
% X-Axis label:
%
gsave 620 1370 M 
[
[(Helvetica) 180 0 true true 0 (t)]
[(Helvetica) 180 0 true true 0 (i)]
[(Helvetica) 180 0 true true 0 (m)]
[(Helvetica) 180 0 true true 0 (e)]
] 0 MCshow grestore

%
% Y-Axis label:
%
gsave 234 3500 M 
currentpoint gsave translate 90 rotate 0 0 moveto
[
[(Helvetica) 180 0 true true 0 (r)]
[(Helvetica) 180 0 true true 0 (e)]
[(Helvetica) 180 0 true true 0 (s)]
[(Helvetica) 180 0 true true 0 (i)]
[(Helvetica) 180 0 true true 0 (d)]
[(Helvetica) 180 0 true true 0 (u)]
[(Helvetica) 180 0 true true 0 (a)]
[(Helvetica) 180 0 true true 0 (l)]
[(Helvetica) 180 0 true true 0 (s)]
] 0 MCshow grestore

end
showpage
%%Trailer
%%EOF
