%!PS-Adobe-3.0 EPSF-3.0
%%BoundingBox: 0 0 514 550
%%Creator: BioKin Ltd.
%%DocumentFonts: Symbol Helvetica
%%EndComments
%
/bkdict 256 dict def
bkdict begin
/M {moveto} def 
/R {rmoveto} def
/L {lineto} def
/rL {rlineto} def
/GSN {gsave newpath} def
/SGR {stroke grestore} def
/COSGR {gsave setrgbcolor stroke grestore grestore} def
/SL {setlinewidth} def
/LWMB {12} def             % line width - model curves, black & white
/LWMC {10} def             % line width - model curves, color
/L2 {2.5 setlinewidth} def
/L5 {5 setlinewidth} def
/L10 {10 setlinewidth} def
/G50 {0.5 setgray} def
/SDA {[10  20] 0 setdash} def % axes
/helvT {/Helvetica findfont 100 scalefont setfont} def % tiny
/helvS {/Helvetica findfont 125 scalefont setfont} def % small
/helvM {/Helvetica findfont 150 scalefont setfont} def % medium
/helvL {/Helvetica findfont 175 scalefont setfont} def % large
/xlabel {gsave M dup
   stringwidth exch -0.5 mul exch rmoveto show grestore} def 
/ylabel {gsave M 90 rotate dup
   stringwidth exch -0.5 mul exch rmoveto show grestore} def
/ylabelresid {gsave M dup
   stringwidth exch -1 mul exch rmoveto show grestore} def
% ======
% Shapes
% ======
% Circle:
/Circ {0 360 arc closepath} def
%
% Square:
/Squa {dup dup -0.5 mul dup dup R -2 mul 0 exch rL 1 mul 0 rL dup 0 exch -1 mul rL closepath} def
%
% Triangle Up:
/TriU {dup dup dup -0.4 mul exch -0.5 mul exch R dup 0.5 mul exch rL dup -1 mul exch 0.5 mul exch rL closepath} def 
%
% Triangle Down:
/TriD {dup dup dup 0.4 mul exch -0.5 mul exch R dup 0.5 mul exch -1 mul rL dup 0.5 mul exch rL closepath} def 
%
% Diamond:
/Diam {45 rotate Squa} def
% ======
% Fills
% ======
/GRF {gsave setgray fill grestore} def                    % gray-level Fill
/COF {gsave setrgbcolor fill grestore} def                % color fill
% ======
% Colors
% ======
/C01 {1.00	0.00	0.00} def      % Red
/C02 {0.00	0.00	1.00} def      % Blue
/C03 {0.00	0.39	0.00} def      % Dark Green
/C04 {0.78	0.08	0.52} def      % Medium Violet Red
/C05 {0.55	0.27	0.07} def      % Saddle Brown
/C06 {0.10	0.70	0.70} def      % (cyan)
/C07 {1.00	0.55	0.00} def      % Dark Orange
/C08 {0.63	0.13	0.94} def      % Purple
/C09 {0.00	0.75	1.00} def      % Deep Sky Blue
/C10 {0.20	0.80	0.20} def      % Lime Green
/C11 {0.47	0.53	0.60} def      % Light Slate Gray
/C12 {0.00	0.00	0.00} def      % Black            % or: {0.19	0.31	0.31} def      % Dark Slate Gray
%
/LGR {0.75} def % light gray
/DGR {0.33} def % dark gray
%
% =============
% Dash patterns
% =============
/dash01 { [80  20] 0 setdash } def
/dash02 { [40  20] 0 setdash } def
/dash03 { [80  20  10  20] 0 setdash } def
/dash04 { [40  20  10  20] 0 setdash } def
/dash05 { [80  20  10  10  10  20] 0 setdash } def
/dash06 { [40  20  10  10  10  20] 0 setdash } def
/dash07 { [10  10] 0 setdash } def
%
/MFshow {
   { dup 5 get 3 ge
     { 5 get 3 eq {gsave} {grestore} ifelse }
     {dup dup 0 get findfont exch 1 get scalefont setfont
     [ currentpoint ] exch dup 2 get 0 exch R dup 5 get 2 ne {dup dup 6
     get exch 4 get {show} {stringwidth pop 0 R} ifelse }if dup 5 get 0 eq
     {dup 3 get {2 get neg 0 exch R pop} {pop aload pop M} ifelse} {dup 5
     get 1 eq {dup 2 get exch dup 3 get exch 6 get stringwidth pop -2 div
     dup 0 R} {dup 6 get stringwidth pop -2 div 0 R 6 get
     show 2 index {aload pop M neg 3 -1 roll neg R pop pop} {pop pop pop
     pop aload pop M} ifelse }ifelse }ifelse }
     ifelse }
   forall} bind def
/MFwidth {0 exch {dup 3 get{dup dup 0 get findfont exch 1 get scalefont
     setfont 6 get stringwidth pop add} {pop} ifelse} forall} bind def
/MCshow { currentpoint stroke M
  exch dup MFwidth -2 div 3 -1 roll R MFshow } def
%
end
%%EndProlog
bkdict begin
0.1 0.1 scale
%
% Residuals:
%
GSN 620 4597 M
620 3841 L
620 4024 L
620 4705 L
620 4376 L
620 4123 L
620 4199 L
620 4214 L
620 4334 L
620 4177 L
620 4252 L
620 3672 L
620 4723 L
620 3873 L
620 4281 L
620 4463 L
620 4348 L
620 4496 L
620 3793 L
620 4133 L
620 3978 L
620 3680 L
620 3848 L
620 4087 L
620 3662 L
620 4246 L
620 4578 L
620 4157 L
620 4466 L
620 4023 L
620 3749 L
620 3101 L
620 3508 L
620 3601 L
620 4155 L
620 4155 L
620 3824 L
620 3878 L
620 4091 L
620 4078 L
620 4367 L
620 4781 L
620 3576 L
620 3859 L
620 3185 L
620 3517 L
620 3255 L
620 3872 L
620 3922 L
620 3786 L
620 3995 L
620 4188 L
620 3282 L
620 2404 L
620 2953 L
620 3506 L
620 3895 L
620 4339 L
620 3570 L
620 3293 L
620 3028 L
620 3905 L
620 2970 L
620 3308 L
620 3942 L
620 3781 L
620 2976 L
620 3511 L
620 3475 L
620 3164 L
620 3089 L
620 3821 L
620 3361 L
620 3593 L
620 3111 L
620 3584 L
620 3624 L
620 3542 L
620 3377 L
620 3406 L
620 3576 L
620 3130 L
620 3099 L
620 3340 L
620 3600 L
620 3507 L
620 3626 L
620 3721 L
620 2880 L
620 3092 L
620 3269 L
620 4152 L
620 3074 L
620 2417 L
620 3768 L
620 3004 L
620 3540 L
620 2783 L
620 3536 L
620 3337 L
620 3034 L
620 2750 L
620 3421 L
620 3141 L
620 2136 L
620 3095 L
620 3207 L
620 2281 L
620 3353 L
620 2947 L
620 3528 L
620 2659 L
620 3639 L
620 3631 L
620 3440 L
620 3118 L
620 3162 L
620 3260 L
620 2930 L
620 3088 L
620 3305 L
620 3264 L
620 3223 L
620 2642 L
620 3071 L
620 2985 L
620 2628 L
620 2941 L
620 3434 L
620 2736 L
620 3229 L
620 2788 L
620 2841 L
620 2706 L
620 3055 L
620 2964 L
620 2834 L
620 2879 L
620 3314 L
620 2755 L
620 3102 L
620 2695 L
620 2816 L
620 2937 L
620 2843 L
620 2771 L
620 2676 L
620 2763 L
620 2712 L
620 3057 L
620 3252 L
620 2827 L
620 3237 L
620 3794 L
620 2853 L
620 2718 L
620 2775 L
620 3442 L
620 3065 L
620 3050 L
620 3865 L
620 3674 L
620 2649 L
620 3353 L
620 2849 L
620 3300 L
620 3296 L
620 3253 L
620 3335 L
620 3331 L
620 3600 L
620 2875 L
620 3804 L
620 3765 L
620 3436 L
620 4056 L
620 2392 L
620 3040 L
620 3627 L
620 3066 L
620 3225 L
620 3262 L
620 3240 L
620 3453 L
620 2497 L
620 3512 L
620 3752 L
620 4762 L
620 3317 L
620 4446 L
620 2782 L
620 3889 L
620 3641 L
620 2821 L
620 3577 L
620 3729 L
620 3640 L
620 3023 L
620 3631 L
620 3212 L
620 3315 L
620 3357 L
620 3597 L
620 3716 L
620 3072 L
620 3218 L
620 3188 L
620 3950 L
620 3767 L
620 3067 L
620 3762 L
620 3496 L
620 3802 L
620 4250 L
620 4007 L
620 3894 L
620 3963 L
620 3978 L
620 4398 L
620 3627 L
620 3762 L
620 4310 L
620 4048 L
620 3459 L
620 3544 L
620 4097 L
620 3375 L
620 4163 L
620 2997 L
620 3521 L
620 3926 L
620 4291 L
620 4218 L
620 3875 L
620 3812 L
620 3535 L
620 3527 L
620 3711 L
620 3511 L
620 3920 L
620 3396 L
620 3345 L
620 3309 L
620 3730 L
620 3601 L
620 3587 L
620 3744 L
620 3341 L
620 3811 L
620 4225 L
620 4009 L
620 3293 L
620 4296 L
620 4518 L
620 3939 L
620 3514 L
620 3363 L
620 3729 L
620 3721 L
620 3312 L
620 3052 L
620 3411 L
620 2981 L
620 3275 L
620 4651 L
620 4231 L
620 3784 L
620 3864 L
620 4554 L
620 4430 L
620 3808 L
620 3069 L
620 3122 L
620 4361 L
620 4545 L
620 3835 L
620 4519 L
620 4149 L
620 3257 L
620 3831 L
620 3373 L
620 3596 L
620 3935 L
620 3754 L
620 3475 L
620 4141 L
620 3329 L
620 3999 L
620 4227 L
620 3931 L
620 3714 L
620 4107 L
620 4168 L
620 4010 L
620 4331 L
620 4460 L
620 3673 L
620 3930 L
620 3621 L
620 4158 L
620 3191 L
620 3575 L
620 3591 L
620 3678 L
620 4222 L
620 3634 L
620 4035 L
620 4572 L
620 3782 L
620 3864 L
620 3776 L
620 4155 L
620 3518 L
620 3661 L
620 3793 L
620 3820 L
620 3738 L
620 3776 L
620 4116 L
620 3282 L
620 4517 L
620 4671 L
620 3584 L
620 4122 L
620 2952 L
620 3792 L
620 4468 L
620 3436 L
620 3183 L
620 3628 L
620 4039 L
620 4567 L
620 3743 L
620 3205 L
620 3710 L
620 3798 L
620 4275 L
620 3589 L
620 3726 L
620 3545 L
620 3364 L
620 4127 L
620 3825 L
620 3457 L
620 4029 L
620 3666 L
620 3891 L
620 4353 L
620 3562 L
620 3337 L
620 4188 L
620 4023 L
620 3276 L
620 3298 L
620 3699 L
620 3216 L
620 3628 L
620 3809 L
620 3606 L
620 4632 L
620 3128 L
620 4001 L
620 3996 L
620 4506 L
620 3446 L
620 3639 L
620 3474 L
620 3902 L
620 3155 L
620 3622 L
620 3435 L
620 3512 L
620 3957 L
620 3188 L
620 4149 L
620 4297 L
620 3776 L
620 3397 L
620 3177 L
620 4078 L
620 3787 L
620 4050 L
620 3067 L
620 3627 L
620 3814 L
620 3617 L
620 3815 L
620 3490 L
620 4177 L
620 3567 L
620 3869 L
620 3677 L
620 3787 L
620 3803 L
620 3644 L
620 3694 L
620 4155 L
620 3277 L
620 3556 L
620 3897 L
620 4056 L
620 3326 L
620 4111 L
620 3759 L
620 4379 L
620 3117 L
620 4177 L
620 3886 L
620 3682 L
620 3424 L
620 3710 L
620 3765 L
620 4105 L
620 4056 L
620 3089 L
620 3298 L
620 3655 L
620 3386 L
620 3765 L
620 4122 L
620 3084 L
620 3287 L
620 3315 L
620 3974 L
620 2914 L
620 3518 L
620 3227 L
620 3589 L
620 3721 L
620 3913 L
620 4045 L
620 3820 L
620 3480 L
620 3930 L
620 3930 L
620 3908 L
620 3781 L
620 3573 L
620 2809 L
620 3402 L
620 4391 L
620 4149 L
620 3617 L
620 3853 L
620 4128 L
620 2908 L
620 3962 L
620 3902 L
620 3123 L
620 3754 L
620 2974 L
620 3578 L
620 4116 L
620 4270 L
620 3430 L
620 4418 L
620 3216 L
620 3765 L
620 3721 L
620 4358 L
620 3139 L
620 4193 L
620 4116 L
620 3771 L
620 3534 L
620 3655 L
620 3545 L
620 4364 L
620 3529 L
620 3831 L
620 4188 L
620 3633 L
620 3759 L
620 3617 L
620 4430 L
620 3611 L
620 3320 L
620 4177 L
620 3940 L
620 4078 L
620 3304 L
620 4012 L
620 3908 L
620 4254 L
620 4391 L
620 4121 L
620 3699 L
620 3968 L
620 3748 L
620 3979 L
620 4731 L
620 3858 L
620 4122 L
620 3589 L
620 4078 L
620 3666 L
620 3908 L
620 3886 L
620 4023 L
620 3436 L
620 3600 L
620 3178 L
620 4067 L
620 4709 L
620 2886 L
620 4369 L
620 3754 L
620 3572 L
620 4133 L
620 4270 L
620 3671 L
620 4413 L
620 4144 L
620 3573 L
620 3864 L
620 3803 L
620 3897 L
620 4347 L
620 4094 L
620 3738 L
620 4863 L
620 3765 L
620 3826 L
620 4198 L
620 4111 L
620 3238 L
620 3864 L
620 3056 L
620 3650 L
620 3974 L
620 4166 L
620 3589 L
620 4083 L
L2 C01 COSGR

%
%================
% Legend - Begin
%================
%
GSN 4240 5180 M
4480 5180 L
LWMC SL  C01 COSGR
GSN 4540 5141 M helvM (0.5 uM) show grestore
%
%================
% Legend - End
%================
%

%
% Main frame
%
L10
GSN 
620 1700 M
4220 1700 L
4220 5300 L
620 5300 L
closepath SGR

%
% X axis: large tics
%
L10
%
% X axis: small tics
%
L5
%
% Y axis: large tics
%
L10
GSN 620 2574 M 54 0 rL SGR
GSN 4220 2574 M -54 0 rL SGR
helvS (-0.01) 560 2574 ylabel
GSN 620 3653 M 54 0 rL SGR
GSN 4220 3653 M -54 0 rL SGR
helvS (0) 560 3653 ylabel
GSN 620 4733 M 54 0 rL SGR
GSN 4220 4733 M -54 0 rL SGR
helvS (0.01) 560 4733 ylabel
%
% Y axis: small tics
%
L5
GSN 620 1764 M 36 0 rL SGR
GSN 4220 1764 M -36 0 rL SGR
GSN 620 2034 M 36 0 rL SGR
GSN 4220 2034 M -36 0 rL SGR
GSN 620 2304 M 36 0 rL SGR
GSN 4220 2304 M -36 0 rL SGR
GSN 620 2574 M 36 0 rL SGR
GSN 4220 2574 M -36 0 rL SGR
GSN 620 2844 M 36 0 rL SGR
GSN 4220 2844 M -36 0 rL SGR
GSN 620 3113 M 36 0 rL SGR
GSN 4220 3113 M -36 0 rL SGR
GSN 620 3383 M 36 0 rL SGR
GSN 4220 3383 M -36 0 rL SGR
GSN 620 3653 M 36 0 rL SGR
GSN 4220 3653 M -36 0 rL SGR
GSN 620 3923 M 36 0 rL SGR
GSN 4220 3923 M -36 0 rL SGR
GSN 620 4193 M 36 0 rL SGR
GSN 4220 4193 M -36 0 rL SGR
GSN 620 4463 M 36 0 rL SGR
GSN 4220 4463 M -36 0 rL SGR
GSN 620 4733 M 36 0 rL SGR
GSN 4220 4733 M -36 0 rL SGR
GSN 620 5003 M 36 0 rL SGR
GSN 4220 5003 M -36 0 rL SGR
GSN 620 5273 M 36 0 rL SGR
GSN 4220 5273 M -36 0 rL SGR

%
% X axis - residual panel
%
GSN L5 620 3653 M 4220 3653 L SDA G50 SGR

%
% X-Axis label:
%
gsave 620 1370 M 
[
[(Helvetica) 180 0 true true 0 (t)]
[(Helvetica) 180 0 true true 0 (i)]
[(Helvetica) 180 0 true true 0 (m)]
[(Helvetica) 180 0 true true 0 (e)]
] 0 MCshow grestore

%
% Y-Axis label:
%
gsave 234 3500 M 
currentpoint gsave translate 90 rotate 0 0 moveto
[
[(Helvetica) 180 0 true true 0 (r)]
[(Helvetica) 180 0 true true 0 (e)]
[(Helvetica) 180 0 true true 0 (s)]
[(Helvetica) 180 0 true true 0 (i)]
[(Helvetica) 180 0 true true 0 (d)]
[(Helvetica) 180 0 true true 0 (u)]
[(Helvetica) 180 0 true true 0 (a)]
[(Helvetica) 180 0 true true 0 (l)]
[(Helvetica) 180 0 true true 0 (s)]
] 0 MCshow grestore

end
showpage
%%Trailer
%%EOF
