%!PS-Adobe-3.0 EPSF-3.0
%%BoundingBox: 0 0 514 550
%%Creator: BioKin Ltd.
%%DocumentFonts: Symbol Helvetica
%%EndComments
%
/bkdict 256 dict def
bkdict begin
/M {moveto} def 
/R {rmoveto} def
/L {lineto} def
/rL {rlineto} def
/GSN {gsave newpath} def
/SGR {stroke grestore} def
/COSGR {gsave setrgbcolor stroke grestore grestore} def
/SL {setlinewidth} def
/LWMB {12} def             % line width - model curves, black & white
/LWMC {10} def             % line width - model curves, color
/L2 {2.5 setlinewidth} def
/L5 {5 setlinewidth} def
/L10 {10 setlinewidth} def
/G50 {0.5 setgray} def
/SDA {[10  20] 0 setdash} def % axes
/helvT {/Helvetica findfont 100 scalefont setfont} def % tiny
/helvS {/Helvetica findfont 125 scalefont setfont} def % small
/helvM {/Helvetica findfont 150 scalefont setfont} def % medium
/helvL {/Helvetica findfont 175 scalefont setfont} def % large
/xlabel {gsave M dup
   stringwidth exch -0.5 mul exch rmoveto show grestore} def 
/ylabel {gsave M 90 rotate dup
   stringwidth exch -0.5 mul exch rmoveto show grestore} def
/ylabelresid {gsave M dup
   stringwidth exch -1 mul exch rmoveto show grestore} def
% ======
% Shapes
% ======
% Circle:
/Circ {0 360 arc closepath} def
%
% Square:
/Squa {dup dup -0.5 mul dup dup R -2 mul 0 exch rL 1 mul 0 rL dup 0 exch -1 mul rL closepath} def
%
% Triangle Up:
/TriU {dup dup dup -0.4 mul exch -0.5 mul exch R dup 0.5 mul exch rL dup -1 mul exch 0.5 mul exch rL closepath} def 
%
% Triangle Down:
/TriD {dup dup dup 0.4 mul exch -0.5 mul exch R dup 0.5 mul exch -1 mul rL dup 0.5 mul exch rL closepath} def 
%
% Diamond:
/Diam {45 rotate Squa} def
% ======
% Fills
% ======
/GRF {gsave setgray fill grestore} def                    % gray-level Fill
/COF {gsave setrgbcolor fill grestore} def                % color fill
% ======
% Colors
% ======
/C01 {1.00	0.00	0.00} def      % Red
/C02 {0.00	0.00	1.00} def      % Blue
/C03 {0.00	0.39	0.00} def      % Dark Green
/C04 {0.78	0.08	0.52} def      % Medium Violet Red
/C05 {0.55	0.27	0.07} def      % Saddle Brown
/C06 {0.10	0.70	0.70} def      % (cyan)
/C07 {1.00	0.55	0.00} def      % Dark Orange
/C08 {0.63	0.13	0.94} def      % Purple
/C09 {0.00	0.75	1.00} def      % Deep Sky Blue
/C10 {0.20	0.80	0.20} def      % Lime Green
/C11 {0.47	0.53	0.60} def      % Light Slate Gray
/C12 {0.00	0.00	0.00} def      % Black            % or: {0.19	0.31	0.31} def      % Dark Slate Gray
%
/LGR {0.75} def % light gray
/DGR {0.33} def % dark gray
%
% =============
% Dash patterns
% =============
/dash01 { [80  20] 0 setdash } def
/dash02 { [40  20] 0 setdash } def
/dash03 { [80  20  10  20] 0 setdash } def
/dash04 { [40  20  10  20] 0 setdash } def
/dash05 { [80  20  10  10  10  20] 0 setdash } def
/dash06 { [40  20  10  10  10  20] 0 setdash } def
/dash07 { [10  10] 0 setdash } def
%
/MFshow {
   { dup 5 get 3 ge
     { 5 get 3 eq {gsave} {grestore} ifelse }
     {dup dup 0 get findfont exch 1 get scalefont setfont
     [ currentpoint ] exch dup 2 get 0 exch R dup 5 get 2 ne {dup dup 6
     get exch 4 get {show} {stringwidth pop 0 R} ifelse }if dup 5 get 0 eq
     {dup 3 get {2 get neg 0 exch R pop} {pop aload pop M} ifelse} {dup 5
     get 1 eq {dup 2 get exch dup 3 get exch 6 get stringwidth pop -2 div
     dup 0 R} {dup 6 get stringwidth pop -2 div 0 R 6 get
     show 2 index {aload pop M neg 3 -1 roll neg R pop pop} {pop pop pop
     pop aload pop M} ifelse }ifelse }ifelse }
     ifelse }
   forall} bind def
/MFwidth {0 exch {dup 3 get{dup dup 0 get findfont exch 1 get scalefont
     setfont 6 get stringwidth pop add} {pop} ifelse} forall} bind def
/MCshow { currentpoint stroke M
  exch dup MFwidth -2 div 3 -1 roll R MFshow } def
%
end
%%EndProlog
bkdict begin
0.1 0.1 scale
%
% Residuals:
%
GSN 620 4458 M
620 3547 L
620 3319 L
620 3395 L
620 3568 L
620 2889 L
620 3942 L
620 3552 L
620 3684 L
620 3569 L
620 3051 L
620 3761 L
620 3361 L
620 3288 L
620 3627 L
620 3390 L
620 3370 L
620 3788 L
620 3233 L
620 3771 L
620 3992 L
620 3769 L
620 4204 L
620 3703 L
620 4154 L
620 4374 L
620 3742 L
620 4094 L
620 4101 L
620 4446 L
620 3913 L
620 3622 L
620 4662 L
620 3945 L
620 4447 L
620 4257 L
620 4171 L
620 4273 L
620 4228 L
620 4169 L
620 3811 L
620 4428 L
620 4213 L
620 4245 L
620 4296 L
620 4050 L
620 4410 L
620 3925 L
620 3990 L
620 4220 L
620 4265 L
620 3913 L
620 3793 L
620 3745 L
620 4431 L
620 4125 L
620 4447 L
620 4137 L
620 4405 L
620 4487 L
620 4137 L
620 4528 L
620 4537 L
620 4774 L
620 4298 L
620 4060 L
620 4093 L
620 4223 L
620 3664 L
620 4366 L
620 4270 L
620 4089 L
620 4863 L
620 3899 L
620 4263 L
620 4662 L
620 3860 L
620 3833 L
620 4403 L
620 4219 L
620 4224 L
620 4159 L
620 4299 L
620 4595 L
620 4172 L
620 3920 L
620 4328 L
620 3812 L
620 3986 L
620 4042 L
620 4435 L
620 3799 L
620 4330 L
620 4047 L
620 3811 L
620 3882 L
620 3728 L
620 3697 L
620 4002 L
620 3724 L
620 4210 L
620 3790 L
620 3991 L
620 3545 L
620 3923 L
620 3519 L
620 3788 L
620 3641 L
620 4004 L
620 3873 L
620 3905 L
620 3588 L
620 3311 L
620 3212 L
620 3602 L
620 3524 L
620 3660 L
620 4023 L
620 3793 L
620 3560 L
620 3547 L
620 3439 L
620 3578 L
620 3267 L
620 3682 L
620 3536 L
620 3184 L
620 3300 L
620 3447 L
620 3446 L
620 3348 L
620 3605 L
620 3361 L
620 3658 L
620 2979 L
620 3679 L
620 3124 L
620 3990 L
620 3566 L
620 3735 L
620 3555 L
620 3009 L
620 3657 L
620 3650 L
620 3588 L
620 3420 L
620 3731 L
620 3075 L
620 3362 L
620 3221 L
620 3578 L
620 3353 L
620 3479 L
620 3355 L
620 3067 L
620 3927 L
620 3421 L
620 3322 L
620 3637 L
620 2876 L
620 3615 L
620 3728 L
620 3520 L
620 3386 L
620 3537 L
620 3360 L
620 3404 L
620 3347 L
620 3494 L
620 3597 L
620 3536 L
620 3264 L
620 3507 L
620 3747 L
620 3564 L
620 3317 L
620 3552 L
620 3182 L
620 3640 L
620 3562 L
620 3324 L
620 3791 L
620 3433 L
620 3530 L
620 3348 L
620 3205 L
620 3296 L
620 3412 L
620 3253 L
620 4170 L
620 3706 L
620 3338 L
620 3723 L
620 3158 L
620 3762 L
620 3830 L
620 3880 L
620 3620 L
620 3500 L
620 3583 L
620 3380 L
620 3414 L
620 3775 L
620 3569 L
620 3587 L
620 3533 L
620 3835 L
620 3633 L
620 3375 L
620 3566 L
620 3256 L
620 3897 L
620 2906 L
620 3668 L
620 3414 L
620 3752 L
620 3506 L
620 3465 L
620 3568 L
620 3576 L
620 3703 L
620 3845 L
620 3250 L
620 3488 L
620 3435 L
620 3621 L
620 3189 L
620 3712 L
620 3611 L
620 3327 L
620 3704 L
620 3382 L
620 3617 L
620 3409 L
620 3384 L
620 3642 L
620 3740 L
620 3835 L
620 3356 L
620 3619 L
620 3806 L
620 3463 L
620 3793 L
620 3440 L
620 3014 L
620 3615 L
620 3773 L
620 3622 L
620 3304 L
620 3374 L
620 3994 L
620 3468 L
620 3528 L
620 3701 L
620 4033 L
620 3204 L
620 3151 L
620 3539 L
620 3838 L
620 4132 L
620 3604 L
620 3446 L
620 3910 L
620 3539 L
620 3695 L
620 3307 L
620 3501 L
620 2996 L
620 3449 L
620 3272 L
620 3975 L
620 3792 L
620 4153 L
620 3381 L
620 3454 L
620 3921 L
620 3761 L
620 3784 L
620 3374 L
620 3108 L
620 3546 L
620 3828 L
620 2892 L
620 4115 L
620 3695 L
620 3799 L
620 3553 L
620 3868 L
620 3621 L
620 3178 L
620 3108 L
620 3639 L
620 3611 L
620 3532 L
620 3624 L
620 3519 L
620 3963 L
620 3591 L
620 3291 L
620 3828 L
620 3612 L
620 3934 L
620 4119 L
620 3644 L
620 3411 L
620 3506 L
620 3618 L
620 3781 L
620 3271 L
620 3106 L
620 3676 L
620 3581 L
620 4174 L
620 3856 L
620 3690 L
620 3560 L
620 3612 L
620 3777 L
620 4248 L
620 3920 L
620 4000 L
620 3804 L
620 3354 L
620 3843 L
620 3800 L
620 3420 L
620 3662 L
620 4002 L
620 3816 L
620 3546 L
620 4141 L
620 3496 L
620 3664 L
620 3713 L
620 4225 L
620 3272 L
620 3740 L
620 3662 L
620 3591 L
620 3610 L
620 3573 L
620 3451 L
620 3377 L
620 3701 L
620 3752 L
620 4120 L
620 3077 L
620 3790 L
620 3800 L
620 3649 L
620 3732 L
620 3688 L
620 3707 L
620 3971 L
620 3501 L
620 3903 L
620 3354 L
620 3400 L
620 3362 L
620 3210 L
620 3559 L
620 3367 L
620 3245 L
620 3366 L
620 4035 L
620 3218 L
620 3538 L
620 3331 L
620 3265 L
620 3367 L
620 4039 L
620 3088 L
620 3195 L
620 3080 L
620 3259 L
620 3077 L
620 3042 L
620 3040 L
620 3174 L
620 3319 L
620 2751 L
620 3272 L
620 2995 L
620 3497 L
620 3404 L
620 3090 L
620 3263 L
620 2850 L
620 2828 L
620 3088 L
620 2921 L
620 3263 L
620 2939 L
620 3387 L
620 2964 L
620 3189 L
620 3511 L
620 2879 L
620 2972 L
620 3069 L
620 2720 L
620 2724 L
620 3340 L
620 3282 L
620 2330 L
620 2933 L
620 3453 L
620 2925 L
620 3259 L
620 3367 L
620 3371 L
620 2679 L
620 3366 L
620 2753 L
620 3302 L
620 2665 L
620 2710 L
620 2648 L
620 2985 L
620 3119 L
620 3315 L
620 2970 L
620 3018 L
620 3036 L
620 2972 L
620 3011 L
620 3150 L
620 2844 L
620 2896 L
620 3274 L
620 2285 L
620 2409 L
620 2991 L
620 2941 L
620 2989 L
620 3203 L
620 2669 L
620 3199 L
620 3057 L
620 2714 L
620 3298 L
620 3238 L
620 2933 L
620 3170 L
620 2875 L
620 2987 L
620 2850 L
620 3032 L
620 3208 L
620 3034 L
620 2838 L
620 2215 L
620 3137 L
620 3267 L
620 3135 L
620 2533 L
620 2570 L
620 2933 L
620 3241 L
620 2718 L
620 2588 L
620 3214 L
620 3057 L
620 2840 L
620 2557 L
620 2543 L
620 2890 L
620 2758 L
620 2613 L
620 2638 L
620 2355 L
620 2908 L
620 2436 L
620 2824 L
620 2832 L
620 3106 L
620 2663 L
620 2698 L
620 3137 L
620 3018 L
620 2724 L
620 2378 L
620 2563 L
620 2745 L
620 2772 L
620 2462 L
620 2875 L
620 2910 L
620 2908 L
620 2867 L
620 2943 L
620 2149 L
620 2658 L
620 2365 L
620 2743 L
620 2927 L
620 2299 L
620 3344 L
620 2724 L
620 3061 L
620 2900 L
620 2279 L
620 2388 L
620 2404 L
620 2886 L
620 2413 L
620 2136 L
620 3013 L
620 2495 L
620 2555 L
620 2700 L
620 2343 L
620 2446 L
620 3007 L
620 2452 L
620 2867 L
620 2551 L
620 2636 L
620 3168 L
620 2770 L
620 2978 L
620 2198 L
620 2596 L
620 2698 L
620 2925 L
620 2450 L
620 2557 L
620 2797 L
620 2215 L
620 2733 L
620 2640 L
620 2762 L
620 3092 L
L2 C07 COSGR

%
%================
% Legend - Begin
%================
%
GSN 4240 5180 M
4480 5180 L
LWMC SL  C07 COSGR
GSN 4540 5141 M helvM (4.0 uM) show grestore
%
%================
% Legend - End
%================
%

%
% Main frame
%
L10
GSN 
620 1700 M
4220 1700 L
4220 5300 L
620 5300 L
closepath SGR

%
% X axis: large tics
%
L10
%
% X axis: small tics
%
L5
%
% Y axis: large tics
%
L10
GSN 620 2428 M 54 0 rL SGR
GSN 4220 2428 M -54 0 rL SGR
helvS (-0.01) 560 2428 ylabel
GSN 620 3445 M 54 0 rL SGR
GSN 4220 3445 M -54 0 rL SGR
helvS (0) 560 3445 ylabel
GSN 620 4462 M 54 0 rL SGR
GSN 4220 4462 M -54 0 rL SGR
helvS (0.01) 560 4462 ylabel
%
% Y axis: small tics
%
L5
GSN 620 1920 M 36 0 rL SGR
GSN 4220 1920 M -36 0 rL SGR
GSN 620 2174 M 36 0 rL SGR
GSN 4220 2174 M -36 0 rL SGR
GSN 620 2428 M 36 0 rL SGR
GSN 4220 2428 M -36 0 rL SGR
GSN 620 2683 M 36 0 rL SGR
GSN 4220 2683 M -36 0 rL SGR
GSN 620 2937 M 36 0 rL SGR
GSN 4220 2937 M -36 0 rL SGR
GSN 620 3191 M 36 0 rL SGR
GSN 4220 3191 M -36 0 rL SGR
GSN 620 3445 M 36 0 rL SGR
GSN 4220 3445 M -36 0 rL SGR
GSN 620 3699 M 36 0 rL SGR
GSN 4220 3699 M -36 0 rL SGR
GSN 620 3954 M 36 0 rL SGR
GSN 4220 3954 M -36 0 rL SGR
GSN 620 4208 M 36 0 rL SGR
GSN 4220 4208 M -36 0 rL SGR
GSN 620 4462 M 36 0 rL SGR
GSN 4220 4462 M -36 0 rL SGR
GSN 620 4716 M 36 0 rL SGR
GSN 4220 4716 M -36 0 rL SGR
GSN 620 4971 M 36 0 rL SGR
GSN 4220 4971 M -36 0 rL SGR
GSN 620 5225 M 36 0 rL SGR
GSN 4220 5225 M -36 0 rL SGR

%
% X axis - residual panel
%
GSN L5 620 3445 M 4220 3445 L SDA G50 SGR

%
% X-Axis label:
%
gsave 620 1370 M 
[
[(Helvetica) 180 0 true true 0 (t)]
[(Helvetica) 180 0 true true 0 (i)]
[(Helvetica) 180 0 true true 0 (m)]
[(Helvetica) 180 0 true true 0 (e)]
] 0 MCshow grestore

%
% Y-Axis label:
%
gsave 234 3499 M 
currentpoint gsave translate 90 rotate 0 0 moveto
[
[(Helvetica) 180 0 true true 0 (r)]
[(Helvetica) 180 0 true true 0 (e)]
[(Helvetica) 180 0 true true 0 (s)]
[(Helvetica) 180 0 true true 0 (i)]
[(Helvetica) 180 0 true true 0 (d)]
[(Helvetica) 180 0 true true 0 (u)]
[(Helvetica) 180 0 true true 0 (a)]
[(Helvetica) 180 0 true true 0 (l)]
[(Helvetica) 180 0 true true 0 (s)]
] 0 MCshow grestore

end
showpage
%%Trailer
%%EOF
