%!PS-Adobe-3.0 EPSF-3.0
%%BoundingBox: 0 0 514 442
%%Creator: BioKin Ltd.
%%DocumentFonts: Symbol Helvetica
%%EndComments
%
/bkdict 256 dict def
bkdict begin
/M {moveto} def 
/R {rmoveto} def
/L {lineto} def
/rL {rlineto} def
/GSN {gsave newpath} def
/SGR {stroke grestore} def
/COSGR {gsave setrgbcolor stroke grestore grestore} def
/SL {setlinewidth} def
/LWMB {12} def             % line width - model curves, black & white
/LWMC {10} def             % line width - model curves, color
/L2 {2.5 setlinewidth} def
/L5 {5 setlinewidth} def
/L10 {10 setlinewidth} def
/G50 {0.5 setgray} def
/SDA {[10  20] 0 setdash} def % axes
/helvT {/Helvetica findfont 100 scalefont setfont} def % tiny
/helvS {/Helvetica findfont 125 scalefont setfont} def % small
/helvM {/Helvetica findfont 150 scalefont setfont} def % medium
/helvL {/Helvetica findfont 175 scalefont setfont} def % large
/xlabel {gsave M dup
   stringwidth exch -0.5 mul exch rmoveto show grestore} def 
/ylabel {gsave M 90 rotate dup
   stringwidth exch -0.5 mul exch rmoveto show grestore} def
/ylabelresid {gsave M dup
   stringwidth exch -1 mul exch rmoveto show grestore} def
% ======
% Shapes
% ======
% Circle:
/Circ {0 360 arc closepath} def
%
% Square:
/Squa {dup dup -0.5 mul dup dup R -2 mul 0 exch rL 1 mul 0 rL dup 0 exch -1 mul rL closepath} def
%
% Triangle Up:
/TriU {dup dup dup -0.4 mul exch -0.5 mul exch R dup 0.5 mul exch rL dup -1 mul exch 0.5 mul exch rL closepath} def 
%
% Triangle Down:
/TriD {dup dup dup 0.4 mul exch -0.5 mul exch R dup 0.5 mul exch -1 mul rL dup 0.5 mul exch rL closepath} def 
%
% Diamond:
/Diam {45 rotate Squa} def
% ======
% Fills
% ======
/GRF {gsave setgray fill grestore} def                    % gray-level Fill
/COF {gsave setrgbcolor fill grestore} def                % color fill
% ======
% Colors
% ======
/C01 {1.00	0.00	0.00} def      % Red
/C02 {0.00	0.00	1.00} def      % Blue
/C03 {0.00	0.39	0.00} def      % Dark Green
/C04 {0.78	0.08	0.52} def      % Medium Violet Red
/C05 {0.55	0.27	0.07} def      % Saddle Brown
/C06 {0.10	0.70	0.70} def      % (cyan)
/C07 {1.00	0.55	0.00} def      % Dark Orange
/C08 {0.63	0.13	0.94} def      % Purple
/C09 {0.00	0.75	1.00} def      % Deep Sky Blue
/C10 {0.20	0.80	0.20} def      % Lime Green
/C11 {0.47	0.53	0.60} def      % Light Slate Gray
/C12 {0.00	0.00	0.00} def      % Black            % or: {0.19	0.31	0.31} def      % Dark Slate Gray
%
/LGR {0.75} def % light gray
/DGR {0.33} def % dark gray
%
% =============
% Dash patterns
% =============
/dash01 { [80  20] 0 setdash } def
/dash02 { [40  20] 0 setdash } def
/dash03 { [80  20  10  20] 0 setdash } def
/dash04 { [40  20  10  20] 0 setdash } def
/dash05 { [80  20  10  10  10  20] 0 setdash } def
/dash06 { [40  20  10  10  10  20] 0 setdash } def
/dash07 { [10  10] 0 setdash } def
%
/MFshow {
   { dup 5 get 3 ge
     { 5 get 3 eq {gsave} {grestore} ifelse }
     {dup dup 0 get findfont exch 1 get scalefont setfont
     [ currentpoint ] exch dup 2 get 0 exch R dup 5 get 2 ne {dup dup 6
     get exch 4 get {show} {stringwidth pop 0 R} ifelse }if dup 5 get 0 eq
     {dup 3 get {2 get neg 0 exch R pop} {pop aload pop M} ifelse} {dup 5
     get 1 eq {dup 2 get exch dup 3 get exch 6 get stringwidth pop -2 div
     dup 0 R} {dup 6 get stringwidth pop -2 div 0 R 6 get
     show 2 index {aload pop M neg 3 -1 roll neg R pop pop} {pop pop pop
     pop aload pop M} ifelse }ifelse }ifelse }
     ifelse }
   forall} bind def
/MFwidth {0 exch {dup 3 get{dup dup 0 get findfont exch 1 get scalefont
     setfont 6 get stringwidth pop add} {pop} ifelse} forall} bind def
/MCshow { currentpoint stroke M
  exch dup MFwidth -2 div 3 -1 roll R MFshow } def
%
end
%%EndProlog
bkdict begin
0.1 0.1 scale
%
% Model curves:
%

GSN 753 3580 M
770 3580 L
803 3580 L
837 3580 L
870 3580 L
903 3580 L
924 3580 L
941 3580 L
970 3580 L
1003 3580 L
1037 3581 L
1070 3581 L
1096 3581 L
1113 3581 L
1137 3581 L
1170 3581 L
1203 3581 L
1237 3581 L
1268 3581 L
1284 3582 L
1303 3582 L
1337 3582 L
1370 3582 L
1403 3582 L
1437 3583 L
1456 3583 L
1473 3583 L
1503 3583 L
1537 3584 L
1570 3584 L
1603 3585 L
1628 3586 L
1644 3586 L
1670 3586 L
1703 3587 L
1737 3588 L
1770 3590 L
1799 3591 L
1816 3592 L
1837 3592 L
1870 3594 L
1903 3596 L
1937 3598 L
1970 3601 L
1987 3603 L
2004 3604 L
2037 3606 L
2070 3610 L
2103 3614 L
2137 3618 L
2159 3624 L
2176 3626 L
2203 3629 L
2237 3636 L
2270 3643 L
2303 3651 L
2331 3659 L
2347 3666 L
2370 3669 L
2403 3680 L
2437 3691 L
2470 3704 L
2503 3718 L
2519 3732 L
2537 3733 L
2570 3749 L
2603 3766 L
2637 3785 L
2670 3804 L
2690 3824 L
2707 3829 L
2737 3844 L
2770 3865 L
2803 3886 L
2837 3907 L
2862 3927 L
2879 3938 L
2903 3947 L
2937 3966 L
2970 3984 L
3003 4001 L
3034 4016 L
3050 4027 L
3070 4030 L
3103 4042 L
3137 4052 L
3170 4061 L
3203 4068 L
3222 4073 L
3239 4074 L
3270 4078 L
3303 4081 L
3337 4083 L
3370 4084 L
3393 4085 L
3410 4086 L
3437 4086 L
3464 4086 L
3481 4086 L
3503 4086 L
3537 4086 L
3565 4086 L
3582 4086 L
3603 4086 L
3637 4086 L
3670 4086 L
3703 4086 L
3737 4086 L
3753 4086 L
3770 4086 L
3803 4086 L
3837 4086 L
3870 4086 L
3903 4086 L
3925 4086 L
3942 4086 L
3970 4086 L
4003 4086 L
4037 4086 L
4070 4086 L
4086 4086 L
LWMC SL dash01 C01 COSGR

GSN 753 3070 M
770 3070 L
803 3070 L
837 3070 L
870 3070 L
903 3070 L
924 3070 L
941 3070 L
970 3071 L
1003 3071 L
1037 3071 L
1070 3071 L
1096 3071 L
1113 3071 L
1137 3072 L
1170 3072 L
1203 3072 L
1237 3073 L
1268 3073 L
1284 3074 L
1303 3074 L
1337 3074 L
1370 3075 L
1403 3076 L
1437 3076 L
1456 3077 L
1473 3078 L
1503 3079 L
1537 3080 L
1570 3081 L
1603 3083 L
1628 3085 L
1644 3086 L
1670 3087 L
1703 3089 L
1737 3092 L
1770 3095 L
1799 3098 L
1816 3102 L
1837 3102 L
1870 3107 L
1903 3112 L
1937 3118 L
1970 3124 L
1987 3132 L
2004 3132 L
2037 3140 L
2070 3149 L
2103 3160 L
2137 3171 L
2159 3184 L
2176 3189 L
2203 3199 L
2237 3215 L
2270 3233 L
2303 3253 L
2331 3275 L
2347 3290 L
2370 3299 L
2403 3325 L
2437 3353 L
2470 3383 L
2503 3416 L
2519 3449 L
2537 3450 L
2570 3487 L
2603 3525 L
2637 3564 L
2670 3605 L
2690 3646 L
2707 3656 L
2737 3687 L
2770 3727 L
2803 3767 L
2837 3806 L
2862 3843 L
2879 3862 L
2903 3877 L
2937 3909 L
2970 3939 L
3003 3965 L
3034 3989 L
3050 4006 L
3070 4009 L
3103 4027 L
3137 4041 L
3170 4053 L
3203 4063 L
3222 4070 L
3239 4071 L
3270 4076 L
3303 4080 L
3337 4082 L
3370 4084 L
3393 4085 L
3410 4085 L
3437 4086 L
3464 4086 L
3481 4086 L
3503 4086 L
3537 4086 L
3565 4086 L
3582 4086 L
3603 4086 L
3637 4086 L
3670 4086 L
3703 4086 L
3737 4086 L
3753 4086 L
3770 4086 L
3803 4086 L
3837 4086 L
3870 4086 L
3903 4086 L
3925 4086 L
3942 4086 L
3970 4086 L
4003 4086 L
4037 4086 L
4070 4086 L
4086 4086 L
LWMC SL dash02 C02 COSGR

GSN 753 2562 M
770 2562 L
803 2562 L
837 2562 L
870 2562 L
903 2563 L
924 2563 L
941 2563 L
970 2563 L
1003 2563 L
1037 2564 L
1070 2564 L
1096 2564 L
1113 2565 L
1137 2565 L
1170 2566 L
1203 2566 L
1237 2567 L
1268 2568 L
1284 2569 L
1303 2569 L
1337 2570 L
1370 2571 L
1403 2572 L
1437 2574 L
1456 2576 L
1473 2576 L
1503 2578 L
1537 2580 L
1570 2583 L
1603 2586 L
1628 2590 L
1644 2591 L
1670 2593 L
1703 2598 L
1737 2603 L
1770 2609 L
1799 2615 L
1816 2621 L
1837 2623 L
1870 2631 L
1903 2641 L
1937 2651 L
1970 2663 L
1987 2677 L
2004 2678 L
2037 2692 L
2070 2709 L
2103 2728 L
2137 2749 L
2159 2773 L
2176 2782 L
2203 2799 L
2237 2829 L
2270 2861 L
2303 2896 L
2331 2934 L
2347 2961 L
2370 2976 L
2403 3021 L
2437 3069 L
2470 3121 L
2503 3175 L
2519 3229 L
2537 3232 L
2570 3291 L
2603 3352 L
2637 3414 L
2670 3476 L
2690 3539 L
2707 3554 L
2737 3600 L
2770 3659 L
2803 3716 L
2837 3769 L
2862 3819 L
2879 3844 L
2903 3864 L
2937 3905 L
2970 3942 L
3003 3973 L
3034 4000 L
3050 4019 L
3070 4023 L
3103 4041 L
3137 4055 L
3170 4066 L
3203 4073 L
3222 4079 L
3239 4079 L
3270 4082 L
3303 4084 L
3337 4085 L
3370 4086 L
3393 4086 L
3410 4086 L
3437 4086 L
3464 4086 L
3481 4086 L
3503 4086 L
3537 4086 L
3565 4086 L
3582 4086 L
3603 4086 L
3637 4086 L
3670 4086 L
3703 4086 L
3737 4086 L
3753 4086 L
3770 4086 L
3803 4086 L
3837 4086 L
3870 4086 L
3903 4086 L
3925 4086 L
3942 4086 L
3970 4086 L
4003 4086 L
4037 4086 L
4070 4086 L
4086 4086 L
LWMC SL dash03 C03 COSGR

GSN 753 2057 M
770 2057 L
803 2057 L
837 2057 L
870 2057 L
903 2058 L
924 2058 L
941 2058 L
970 2058 L
1003 2059 L
1037 2059 L
1070 2060 L
1096 2061 L
1113 2061 L
1137 2062 L
1170 2062 L
1203 2064 L
1237 2065 L
1268 2066 L
1284 2067 L
1303 2068 L
1337 2069 L
1370 2071 L
1403 2074 L
1437 2076 L
1456 2079 L
1473 2080 L
1503 2082 L
1537 2086 L
1570 2090 L
1603 2095 L
1628 2101 L
1644 2104 L
1670 2107 L
1703 2114 L
1737 2122 L
1770 2131 L
1799 2142 L
1816 2151 L
1837 2154 L
1870 2167 L
1903 2182 L
1937 2199 L
1970 2218 L
1987 2239 L
2004 2240 L
2037 2263 L
2070 2289 L
2103 2319 L
2137 2352 L
2159 2389 L
2176 2403 L
2203 2430 L
2237 2474 L
2270 2523 L
2303 2577 L
2331 2634 L
2347 2675 L
2370 2697 L
2403 2764 L
2437 2835 L
2470 2910 L
2503 2988 L
2519 3065 L
2537 3069 L
2570 3152 L
2603 3236 L
2637 3321 L
2670 3405 L
2690 3487 L
2707 3507 L
2737 3566 L
2770 3641 L
2803 3711 L
2837 3776 L
2862 3835 L
2879 3864 L
2903 3887 L
2937 3932 L
2970 3970 L
3003 4001 L
3034 4027 L
3050 4043 L
3070 4046 L
3103 4061 L
3137 4071 L
3170 4077 L
3203 4082 L
3222 4084 L
3239 4084 L
3270 4085 L
3303 4086 L
3337 4086 L
3370 4086 L
3393 4086 L
3410 4086 L
3437 4086 L
3464 4086 L
3481 4086 L
3503 4086 L
3537 4086 L
3565 4086 L
3582 4086 L
3603 4086 L
3637 4086 L
3670 4086 L
3703 4086 L
3737 4086 L
3753 4086 L
3770 4086 L
3803 4086 L
3837 4086 L
3870 4086 L
3903 4086 L
3925 4086 L
3942 4086 L
3970 4086 L
4003 4086 L
4037 4086 L
4070 4086 L
4086 4086 L
LWMC SL dash04 C04 COSGR

GSN 753 1636 M
770 1636 L
803 1637 L
837 1637 L
870 1637 L
903 1638 L
924 1638 L
941 1639 L
970 1639 L
1003 1640 L
1037 1640 L
1070 1641 L
1096 1642 L
1113 1643 L
1137 1643 L
1170 1645 L
1203 1646 L
1237 1648 L
1268 1649 L
1284 1651 L
1303 1652 L
1337 1654 L
1370 1657 L
1403 1660 L
1437 1663 L
1456 1667 L
1473 1668 L
1503 1672 L
1537 1677 L
1570 1683 L
1603 1690 L
1628 1697 L
1644 1701 L
1670 1706 L
1703 1716 L
1737 1727 L
1770 1739 L
1799 1753 L
1816 1766 L
1837 1769 L
1870 1788 L
1903 1808 L
1937 1831 L
1970 1857 L
1987 1886 L
2004 1888 L
2037 1918 L
2070 1954 L
2103 1994 L
2137 2039 L
2159 2088 L
2176 2107 L
2203 2142 L
2237 2202 L
2270 2267 L
2303 2337 L
2331 2413 L
2347 2466 L
2370 2495 L
2403 2581 L
2437 2673 L
2470 2768 L
2503 2867 L
2519 2964 L
2537 2969 L
2570 3072 L
2603 3176 L
2637 3279 L
2670 3379 L
2690 3476 L
2707 3499 L
2737 3567 L
2770 3653 L
2803 3732 L
2837 3802 L
2862 3864 L
2879 3894 L
2903 3917 L
2937 3962 L
2970 3998 L
3003 4026 L
3034 4047 L
3050 4060 L
3070 4062 L
3103 4073 L
3137 4079 L
3170 4083 L
3203 4085 L
3222 4086 L
3239 4086 L
3270 4086 L
3303 4086 L
3337 4086 L
3370 4086 L
3393 4086 L
3410 4086 L
3437 4086 L
3464 4086 L
3481 4086 L
3503 4086 L
3537 4086 L
3565 4086 L
3582 4086 L
3603 4086 L
3637 4086 L
3670 4086 L
3703 4086 L
3737 4086 L
3753 4086 L
3770 4086 L
3803 4086 L
3837 4086 L
3870 4086 L
3903 4086 L
3925 4086 L
3942 4086 L
3970 4086 L
4003 4086 L
4037 4086 L
4070 4086 L
4086 4086 L
LWMC SL dash05 C05 COSGR

GSN 753 1422 M
770 1422 L
803 1422 L
837 1423 L
870 1423 L
903 1424 L
924 1424 L
941 1424 L
970 1425 L
1003 1426 L
1037 1427 L
1070 1428 L
1096 1429 L
1113 1429 L
1137 1430 L
1170 1431 L
1203 1433 L
1237 1435 L
1268 1437 L
1284 1439 L
1303 1439 L
1337 1442 L
1370 1445 L
1403 1449 L
1437 1453 L
1456 1458 L
1473 1459 L
1503 1463 L
1537 1469 L
1570 1476 L
1603 1484 L
1628 1492 L
1644 1497 L
1670 1502 L
1703 1514 L
1737 1526 L
1770 1541 L
1799 1557 L
1816 1571 L
1837 1576 L
1870 1596 L
1903 1620 L
1937 1646 L
1970 1676 L
1987 1709 L
2004 1712 L
2037 1746 L
2070 1788 L
2103 1834 L
2137 1885 L
2159 1941 L
2176 1963 L
2203 2003 L
2237 2070 L
2270 2144 L
2303 2224 L
2331 2310 L
2347 2369 L
2370 2401 L
2403 2499 L
2437 2601 L
2470 2708 L
2503 2818 L
2519 2925 L
2537 2930 L
2570 3043 L
2603 3157 L
2637 3268 L
2670 3376 L
2690 3479 L
2707 3504 L
2737 3577 L
2770 3666 L
2803 3748 L
2837 3820 L
2862 3882 L
2879 3912 L
2903 3935 L
2937 3978 L
2970 4012 L
3003 4038 L
3034 4056 L
3050 4067 L
3070 4069 L
3103 4077 L
3137 4082 L
3170 4084 L
3203 4085 L
3222 4086 L
3239 4086 L
3270 4086 L
3303 4086 L
3337 4086 L
3370 4086 L
3393 4086 L
3410 4086 L
3437 4086 L
3464 4086 L
3481 4086 L
3503 4086 L
3537 4086 L
3565 4086 L
3582 4086 L
3603 4086 L
3637 4086 L
3670 4086 L
3703 4086 L
3737 4086 L
3753 4086 L
3770 4086 L
3803 4086 L
3837 4086 L
3870 4086 L
3903 4086 L
3925 4086 L
3942 4086 L
3970 4086 L
4003 4086 L
4037 4086 L
4070 4086 L
4086 4086 L
LWMC SL dash06 C06 COSGR

GSN 753 753 M
770 753 L
803 753 L
837 754 L
870 755 L
903 755 L
924 756 L
941 756 L
970 757 L
1003 758 L
1037 760 L
1070 761 L
1096 763 L
1113 764 L
1137 765 L
1170 767 L
1203 769 L
1237 772 L
1268 775 L
1284 778 L
1303 779 L
1337 783 L
1370 787 L
1403 793 L
1437 799 L
1456 806 L
1473 807 L
1503 813 L
1537 822 L
1570 832 L
1603 844 L
1628 857 L
1644 864 L
1670 871 L
1703 888 L
1737 907 L
1770 928 L
1799 952 L
1816 973 L
1837 979 L
1870 1010 L
1903 1044 L
1937 1083 L
1970 1126 L
1987 1174 L
2004 1178 L
2037 1228 L
2070 1288 L
2103 1354 L
2137 1427 L
2159 1507 L
2176 1538 L
2203 1595 L
2237 1690 L
2270 1793 L
2303 1904 L
2331 2023 L
2347 2105 L
2370 2148 L
2403 2280 L
2437 2417 L
2470 2558 L
2503 2702 L
2519 2840 L
2537 2846 L
2570 2990 L
2603 3131 L
2637 3266 L
2670 3395 L
2690 3515 L
2707 3543 L
2737 3624 L
2770 3722 L
2803 3807 L
2837 3879 L
2862 3938 L
2879 3965 L
2903 3985 L
2937 4020 L
2970 4046 L
3003 4063 L
3034 4074 L
3050 4079 L
3070 4080 L
3103 4083 L
3137 4085 L
3170 4086 L
3203 4086 L
3222 4086 L
3239 4086 L
3270 4086 L
3303 4086 L
3337 4086 L
3370 4086 L
3393 4086 L
3410 4086 L
3437 4086 L
3464 4086 L
3481 4086 L
3503 4086 L
3537 4086 L
3565 4086 L
3582 4086 L
3603 4086 L
3637 4086 L
3670 4086 L
3703 4086 L
3737 4086 L
3753 4086 L
3770 4086 L
3803 4086 L
3837 4086 L
3870 4086 L
3903 4086 L
3925 4086 L
3942 4086 L
3970 4086 L
4003 4086 L
4037 4086 L
4070 4086 L
4086 4086 L
LWMC SL dash07 C07 COSGR

%
%================
% Legend - Begin
%================
%
GSN 4240 4040 M
4480 4040 L
LWMC SL dash01 C01 COSGR
GSN 4540 4001 M helvM (0.5 uM) show grestore
GSN 4240 3860 M
4480 3860 L
LWMC SL dash02 C02 COSGR
GSN 4540 3821 M helvM (1.0 uM) show grestore
GSN 4240 3680 M
4480 3680 L
LWMC SL dash03 C03 COSGR
GSN 4540 3641 M helvM (1.5 uM) show grestore
GSN 4240 3500 M
4480 3500 L
LWMC SL dash04 C04 COSGR
GSN 4540 3461 M helvM (2.0 uM) show grestore
GSN 4240 3320 M
4480 3320 L
LWMC SL dash05 C05 COSGR
GSN 4540 3281 M helvM (2.5 uM) show grestore
GSN 4240 3140 M
4480 3140 L
LWMC SL dash06 C06 COSGR
GSN 4540 3101 M helvM (3.0 uM) show grestore
GSN 4240 2960 M
4480 2960 L
LWMC SL dash07 C07 COSGR
GSN 4540 2921 M helvM (4.0 uM) show grestore
%
%================
% Legend - End
%================
%

%
% Main frame
%
L10
GSN 
620 620 M
4220 620 L
4220 4220 L
620 4220 L
closepath SGR

%
% X axis: large tics
%
L10
GSN 1130 620 M 0  54 rL SGR
GSN 1130 4220 M 0 -54 rL SGR
helvS (0.0001) 1130 470 xlabel
GSN 1716 620 M 0  54 rL SGR
GSN 1716 4220 M 0 -54 rL SGR
helvS (0.001) 1716 470 xlabel
GSN 2303 620 M 0  54 rL SGR
GSN 2303 4220 M 0 -54 rL SGR
helvS (0.01) 2303 470 xlabel
GSN 2889 620 M 0  54 rL SGR
GSN 2889 4220 M 0 -54 rL SGR
helvS (0.1) 2889 470 xlabel
GSN 3476 620 M 0  54 rL SGR
GSN 3476 4220 M 0 -54 rL SGR
helvS (1) 3476 470 xlabel
GSN 4062 620 M 0  54 rL SGR
GSN 4062 4220 M 0 -54 rL SGR
helvS (10) 4062 470 xlabel
%
% X axis: small tics
%
L5
GSN 720 620 M 0  36 rL SGR
GSN 720 4220 M 0 -36 rL SGR
GSN 824 620 M 0  36 rL SGR
GSN 824 4220 M 0 -36 rL SGR
GSN 897 620 M 0  36 rL SGR
GSN 897 4220 M 0 -36 rL SGR
GSN 954 620 M 0  36 rL SGR
GSN 954 4220 M 0 -36 rL SGR
GSN 1000 620 M 0  36 rL SGR
GSN 1000 4220 M 0 -36 rL SGR
GSN 1039 620 M 0  36 rL SGR
GSN 1039 4220 M 0 -36 rL SGR
GSN 1073 620 M 0  36 rL SGR
GSN 1073 4220 M 0 -36 rL SGR
GSN 1103 620 M 0  36 rL SGR
GSN 1103 4220 M 0 -36 rL SGR
GSN 1307 620 M 0  36 rL SGR
GSN 1307 4220 M 0 -36 rL SGR
GSN 1410 620 M 0  36 rL SGR
GSN 1410 4220 M 0 -36 rL SGR
GSN 1483 620 M 0  36 rL SGR
GSN 1483 4220 M 0 -36 rL SGR
GSN 1540 620 M 0  36 rL SGR
GSN 1540 4220 M 0 -36 rL SGR
GSN 1586 620 M 0  36 rL SGR
GSN 1586 4220 M 0 -36 rL SGR
GSN 1626 620 M 0  36 rL SGR
GSN 1626 4220 M 0 -36 rL SGR
GSN 1660 620 M 0  36 rL SGR
GSN 1660 4220 M 0 -36 rL SGR
GSN 1690 620 M 0  36 rL SGR
GSN 1690 4220 M 0 -36 rL SGR
GSN 1893 620 M 0  36 rL SGR
GSN 1893 4220 M 0 -36 rL SGR
GSN 1996 620 M 0  36 rL SGR
GSN 1996 4220 M 0 -36 rL SGR
GSN 2069 620 M 0  36 rL SGR
GSN 2069 4220 M 0 -36 rL SGR
GSN 2126 620 M 0  36 rL SGR
GSN 2126 4220 M 0 -36 rL SGR
GSN 2173 620 M 0  36 rL SGR
GSN 2173 4220 M 0 -36 rL SGR
GSN 2212 620 M 0  36 rL SGR
GSN 2212 4220 M 0 -36 rL SGR
GSN 2246 620 M 0  36 rL SGR
GSN 2246 4220 M 0 -36 rL SGR
GSN 2276 620 M 0  36 rL SGR
GSN 2276 4220 M 0 -36 rL SGR
GSN 2479 620 M 0  36 rL SGR
GSN 2479 4220 M 0 -36 rL SGR
GSN 2583 620 M 0  36 rL SGR
GSN 2583 4220 M 0 -36 rL SGR
GSN 2656 620 M 0  36 rL SGR
GSN 2656 4220 M 0 -36 rL SGR
GSN 2713 620 M 0  36 rL SGR
GSN 2713 4220 M 0 -36 rL SGR
GSN 2759 620 M 0  36 rL SGR
GSN 2759 4220 M 0 -36 rL SGR
GSN 2798 620 M 0  36 rL SGR
GSN 2798 4220 M 0 -36 rL SGR
GSN 2832 620 M 0  36 rL SGR
GSN 2832 4220 M 0 -36 rL SGR
GSN 2862 620 M 0  36 rL SGR
GSN 2862 4220 M 0 -36 rL SGR
GSN 3066 620 M 0  36 rL SGR
GSN 3066 4220 M 0 -36 rL SGR
GSN 3169 620 M 0  36 rL SGR
GSN 3169 4220 M 0 -36 rL SGR
GSN 3242 620 M 0  36 rL SGR
GSN 3242 4220 M 0 -36 rL SGR
GSN 3299 620 M 0  36 rL SGR
GSN 3299 4220 M 0 -36 rL SGR
GSN 3345 620 M 0  36 rL SGR
GSN 3345 4220 M 0 -36 rL SGR
GSN 3385 620 M 0  36 rL SGR
GSN 3385 4220 M 0 -36 rL SGR
GSN 3419 620 M 0  36 rL SGR
GSN 3419 4220 M 0 -36 rL SGR
GSN 3449 620 M 0  36 rL SGR
GSN 3449 4220 M 0 -36 rL SGR
GSN 3652 620 M 0  36 rL SGR
GSN 3652 4220 M 0 -36 rL SGR
GSN 3755 620 M 0  36 rL SGR
GSN 3755 4220 M 0 -36 rL SGR
GSN 3829 620 M 0  36 rL SGR
GSN 3829 4220 M 0 -36 rL SGR
GSN 3885 620 M 0  36 rL SGR
GSN 3885 4220 M 0 -36 rL SGR
GSN 3932 620 M 0  36 rL SGR
GSN 3932 4220 M 0 -36 rL SGR
GSN 3971 620 M 0  36 rL SGR
GSN 3971 4220 M 0 -36 rL SGR
GSN 4005 620 M 0  36 rL SGR
GSN 4005 4220 M 0 -36 rL SGR
GSN 4035 620 M 0  36 rL SGR
GSN 4035 4220 M 0 -36 rL SGR
%
% Y axis: large tics
%
L10
GSN 620 1574 M 54 0 rL SGR
GSN 4220 1574 M -54 0 rL SGR
helvS (-2) 560 1574 ylabel
GSN 620 2830 M 54 0 rL SGR
GSN 4220 2830 M -54 0 rL SGR
helvS (-1) 560 2830 ylabel
GSN 620 4086 M 54 0 rL SGR
GSN 4220 4086 M -54 0 rL SGR
helvS (0) 560 4086 ylabel
%
% Y axis: small tics
%
L5
GSN 620 632 M 36 0 rL SGR
GSN 4220 632 M -36 0 rL SGR
GSN 620 946 M 36 0 rL SGR
GSN 4220 946 M -36 0 rL SGR
GSN 620 1260 M 36 0 rL SGR
GSN 4220 1260 M -36 0 rL SGR
GSN 620 1574 M 36 0 rL SGR
GSN 4220 1574 M -36 0 rL SGR
GSN 620 1888 M 36 0 rL SGR
GSN 4220 1888 M -36 0 rL SGR
GSN 620 2202 M 36 0 rL SGR
GSN 4220 2202 M -36 0 rL SGR
GSN 620 2516 M 36 0 rL SGR
GSN 4220 2516 M -36 0 rL SGR
GSN 620 2830 M 36 0 rL SGR
GSN 4220 2830 M -36 0 rL SGR
GSN 620 3144 M 36 0 rL SGR
GSN 4220 3144 M -36 0 rL SGR
GSN 620 3458 M 36 0 rL SGR
GSN 4220 3458 M -36 0 rL SGR
GSN 620 3772 M 36 0 rL SGR
GSN 4220 3772 M -36 0 rL SGR
GSN 620 4086 M 36 0 rL SGR
GSN 4220 4086 M -36 0 rL SGR

%
% X axis
%
GSN L5 620 4086 M 4220 4086 L SDA G50 SGR

%
% X-Axis label:
%
gsave 2420 290 M 
[
[(Helvetica) 180 0 true true 0 (t)]
[(Helvetica) 180 0 true true 0 (i)]
[(Helvetica) 180 0 true true 0 (m)]
[(Helvetica) 180 0 true true 0 (e)]
] 0 MCshow grestore

%
% Y-Axis label:
%
gsave 234 2420 M 
currentpoint gsave translate 90 rotate 0 0 moveto
[
[(Helvetica) 180 0 true true 0 (d)]
[(Helvetica) 180 0 true true 0 (\()]
[(Helvetica) 180 0 true true 0 (s)]
[(Helvetica) 180 0 true true 0 (i)]
[(Helvetica) 180 0 true true 0 (g)]
[(Helvetica) 180 0 true true 0 (n)]
[(Helvetica) 180 0 true true 0 (a)]
[(Helvetica) 180 0 true true 0 (l)]
[(Helvetica) 180 0 true true 0 (\))]
[(Helvetica) 180 0 true true 0 ( )]
[(Helvetica) 180 0 true true 0 (/)]
[(Helvetica) 180 0 true true 0 ( )]
[(Helvetica) 180 0 true true 0 (d)]
[(Helvetica) 180 0 true true 0 (t)]
] 0 MCshow grestore

end
showpage
%%Trailer
%%EOF
