%!PS-Adobe-3.0 EPSF-3.0
%%BoundingBox: 0 0 514 550
%%Creator: BioKin Ltd.
%%DocumentFonts: Symbol Helvetica
%%EndComments
%
/bkdict 256 dict def
bkdict begin
/M {moveto} def 
/R {rmoveto} def
/L {lineto} def
/rL {rlineto} def
/GSN {gsave newpath} def
/SGR {stroke grestore} def
/COSGR {gsave setrgbcolor stroke grestore grestore} def
/SL {setlinewidth} def
/LWMB {12} def             % line width - model curves, black & white
/LWMC {10} def             % line width - model curves, color
/L2 {2.5 setlinewidth} def
/L5 {5 setlinewidth} def
/L10 {10 setlinewidth} def
/G50 {0.5 setgray} def
/SDA {[10  20] 0 setdash} def % axes
/helvT {/Helvetica findfont 100 scalefont setfont} def % tiny
/helvS {/Helvetica findfont 125 scalefont setfont} def % small
/helvM {/Helvetica findfont 150 scalefont setfont} def % medium
/helvL {/Helvetica findfont 175 scalefont setfont} def % large
/xlabel {gsave M dup
   stringwidth exch -0.5 mul exch rmoveto show grestore} def 
/ylabel {gsave M 90 rotate dup
   stringwidth exch -0.5 mul exch rmoveto show grestore} def
/ylabelresid {gsave M dup
   stringwidth exch -1 mul exch rmoveto show grestore} def
% ======
% Shapes
% ======
% Circle:
/Circ {0 360 arc closepath} def
%
% Square:
/Squa {dup dup -0.5 mul dup dup R -2 mul 0 exch rL 1 mul 0 rL dup 0 exch -1 mul rL closepath} def
%
% Triangle Up:
/TriU {dup dup dup -0.4 mul exch -0.5 mul exch R dup 0.5 mul exch rL dup -1 mul exch 0.5 mul exch rL closepath} def 
%
% Triangle Down:
/TriD {dup dup dup 0.4 mul exch -0.5 mul exch R dup 0.5 mul exch -1 mul rL dup 0.5 mul exch rL closepath} def 
%
% Diamond:
/Diam {45 rotate Squa} def
% ======
% Fills
% ======
/GRF {gsave setgray fill grestore} def                    % gray-level Fill
/COF {gsave setrgbcolor fill grestore} def                % color fill
% ======
% Colors
% ======
/C01 {1.00	0.00	0.00} def      % Red
/C02 {0.00	0.00	1.00} def      % Blue
/C03 {0.00	0.39	0.00} def      % Dark Green
/C04 {0.78	0.08	0.52} def      % Medium Violet Red
/C05 {0.55	0.27	0.07} def      % Saddle Brown
/C06 {0.10	0.70	0.70} def      % (cyan)
/C07 {1.00	0.55	0.00} def      % Dark Orange
/C08 {0.63	0.13	0.94} def      % Purple
/C09 {0.00	0.75	1.00} def      % Deep Sky Blue
/C10 {0.20	0.80	0.20} def      % Lime Green
/C11 {0.47	0.53	0.60} def      % Light Slate Gray
/C12 {0.00	0.00	0.00} def      % Black            % or: {0.19	0.31	0.31} def      % Dark Slate Gray
%
/LGR {0.75} def % light gray
/DGR {0.33} def % dark gray
%
% =============
% Dash patterns
% =============
/dash01 { [80  20] 0 setdash } def
/dash02 { [40  20] 0 setdash } def
/dash03 { [80  20  10  20] 0 setdash } def
/dash04 { [40  20  10  20] 0 setdash } def
/dash05 { [80  20  10  10  10  20] 0 setdash } def
/dash06 { [40  20  10  10  10  20] 0 setdash } def
/dash07 { [10  10] 0 setdash } def
%
/MFshow {
   { dup 5 get 3 ge
     { 5 get 3 eq {gsave} {grestore} ifelse }
     {dup dup 0 get findfont exch 1 get scalefont setfont
     [ currentpoint ] exch dup 2 get 0 exch R dup 5 get 2 ne {dup dup 6
     get exch 4 get {show} {stringwidth pop 0 R} ifelse }if dup 5 get 0 eq
     {dup 3 get {2 get neg 0 exch R pop} {pop aload pop M} ifelse} {dup 5
     get 1 eq {dup 2 get exch dup 3 get exch 6 get stringwidth pop -2 div
     dup 0 R} {dup 6 get stringwidth pop -2 div 0 R 6 get
     show 2 index {aload pop M neg 3 -1 roll neg R pop pop} {pop pop pop
     pop aload pop M} ifelse }ifelse }ifelse }
     ifelse }
   forall} bind def
/MFwidth {0 exch {dup 3 get{dup dup 0 get findfont exch 1 get scalefont
     setfont 6 get stringwidth pop add} {pop} ifelse} forall} bind def
/MCshow { currentpoint stroke M
  exch dup MFwidth -2 div 3 -1 roll R MFshow } def
%
end
%%EndProlog
bkdict begin
0.1 0.1 scale
%
% Model curves:
%

GSN 753 5166 M
753 5166 L
786 5152 L
820 5138 L
853 5123 L
886 5107 L
903 5099 L
919 5091 L
953 5075 L
986 5059 L
1020 5044 L
1053 5031 L
1053 5030 L
1086 5018 L
1120 5007 L
1153 4998 L
1186 4990 L
1203 4987 L
1220 4984 L
1253 4979 L
1286 4975 L
1320 4972 L
1353 4969 L
1353 4969 L
1386 4966 L
1420 4962 L
1453 4958 L
1486 4953 L
1503 4951 L
1520 4948 L
1553 4942 L
1586 4935 L
1620 4926 L
1653 4917 L
1653 4916 L
1686 4905 L
1720 4892 L
1753 4877 L
1786 4859 L
1804 4849 L
1820 4839 L
1853 4815 L
1886 4788 L
1920 4757 L
1953 4721 L
1954 4720 L
1986 4680 L
2020 4633 L
2053 4580 L
2086 4520 L
2104 4485 L
2120 4452 L
2153 4376 L
2186 4292 L
2220 4198 L
2253 4096 L
2254 4092 L
2286 3984 L
2320 3865 L
2353 3738 L
2386 3606 L
2404 3533 L
2420 3469 L
2453 3332 L
2486 3196 L
2520 3065 L
2553 2941 L
2554 2936 L
2586 2828 L
2620 2728 L
2653 2643 L
2686 2574 L
2704 2543 L
2720 2521 L
2753 2482 L
2786 2455 L
2820 2439 L
2853 2430 L
2854 2430 L
2886 2425 L
2920 2423 L
2953 2422 L
2986 2422 L
3004 2422 L
3020 2422 L
3053 2422 L
3068 2422 L
3086 2422 L
3120 2422 L
3153 2422 L
3155 2422 L
3186 2422 L
3220 2422 L
3253 2422 L
3286 2422 L
3305 2422 L
3320 2422 L
3353 2422 L
3386 2422 L
3420 2422 L
3453 2422 L
3455 2422 L
3486 2422 L
3520 2422 L
3553 2422 L
3586 2422 L
3605 2422 L
3620 2422 L
3653 2422 L
3686 2422 L
3720 2422 L
3753 2422 L
3755 2422 L
3786 2422 L
3820 2422 L
3853 2422 L
3886 2422 L
3905 2422 L
3920 2422 L
3953 2422 L
3986 2422 L
4020 2422 L
4053 2422 L
4086 2422 L
LWMC SL  C03 COSGR

%
% Experimental data:
%
GSN 773 4706 M
1625 4513 L
1773 4583 L
1860 4919 L
1922 4859 L
1970 4655 L
2009 4595 L
2043 4476 L
2072 4451 L
2097 4422 L
2120 4330 L
2140 4457 L
2159 4226 L
2176 4346 L
2192 4326 L
2207 4188 L
2221 4137 L
2234 4157 L
2247 4055 L
2259 4125 L
2270 4032 L
2280 4013 L
2290 4069 L
2300 4096 L
2309 3816 L
2318 3946 L
2326 4125 L
2335 3902 L
2342 3919 L
2350 3863 L
2357 3807 L
2364 3790 L
2371 3656 L
2378 3858 L
2384 3777 L
2391 3728 L
2397 3587 L
2403 3775 L
2409 3739 L
2414 3555 L
2420 3571 L
2425 3566 L
2430 3586 L
2435 3401 L
2440 3343 L
2445 3594 L
2450 3429 L
2455 3314 L
2459 3348 L
2464 3465 L
2468 3156 L
2472 3202 L
2476 3329 L
2481 3374 L
2485 3200 L
2489 3351 L
2492 3332 L
2496 3261 L
2500 3097 L
2504 3312 L
2507 3414 L
2511 3281 L
2514 3045 L
2518 2936 L
2521 3149 L
2525 3054 L
2528 3040 L
2531 3078 L
2534 3119 L
2538 2894 L
2541 3258 L
2544 3020 L
2547 2973 L
2550 2950 L
2553 3072 L
2556 2816 L
2559 3181 L
2561 3047 L
2564 3121 L
2567 2876 L
2570 2959 L
2580 2855 L
2590 2820 L
2600 2726 L
2609 2660 L
2618 2641 L
2627 2646 L
2635 2762 L
2643 2498 L
2650 2511 L
2658 2693 L
2665 2513 L
2672 2528 L
2678 2462 L
2685 2435 L
2691 2468 L
2697 2169 L
2703 2414 L
2709 2336 L
2714 2282 L
2720 2329 L
2725 2276 L
2730 2058 L
2735 2151 L
2740 2388 L
2745 2125 L
2750 2238 L
2755 2368 L
2759 2143 L
2764 2167 L
2768 2011 L
2772 1954 L
2777 2046 L
2781 1999 L
2785 2037 L
2789 2009 L
2793 2069 L
2796 2011 L
2800 2003 L
2804 2113 L
2808 1911 L
2811 1992 L
2815 2015 L
2818 1992 L
2822 1887 L
2825 1953 L
2828 2148 L
2831 1996 L
2835 2036 L
2838 1886 L
2841 2060 L
2844 2040 L
2847 1925 L
2850 1847 L
2853 2292 L
2856 2037 L
2859 1909 L
2862 1833 L
2864 2023 L
2867 2115 L
2870 1915 L
2873 1964 L
2875 2214 L
2878 2027 L
2880 2065 L
2883 2115 L
2886 1999 L
2888 2135 L
2891 1915 L
2893 1987 L
2895 2132 L
2898 2072 L
2900 2105 L
2902 1984 L
2905 2141 L
2907 2264 L
2909 2025 L
2912 2206 L
2914 1983 L
2916 2022 L
2918 2152 L
2920 1950 L
2922 2191 L
2925 2234 L
2927 2115 L
2929 2119 L
2931 2044 L
2933 2205 L
2935 2138 L
2937 1897 L
2939 2052 L
2941 2264 L
2943 2157 L
2945 2007 L
2947 2016 L
2948 2185 L
2950 2220 L
2952 1984 L
2954 2187 L
2956 2032 L
2958 2113 L
2959 2122 L
2961 1947 L
2963 2305 L
2965 2125 L
2966 2139 L
2968 2435 L
2970 2264 L
2972 2307 L
2973 2312 L
2975 2304 L
2977 2146 L
2978 2180 L
2980 2206 L
2982 1905 L
2983 2102 L
2985 2284 L
2986 2297 L
2988 2104 L
2989 2118 L
2991 2304 L
2993 2199 L
2994 2254 L
2996 2368 L
2997 2170 L
2999 2270 L
3000 2195 L
3002 2237 L
3003 2197 L
3005 2347 L
3006 2391 L
3007 2379 L
3009 2217 L
3010 2278 L
3012 2161 L
3013 2391 L
3014 2193 L
3016 2290 L
3017 2432 L
3019 2294 L
3020 2345 L
3021 2376 L
3023 2275 L
3024 2222 L
3025 2285 L
3027 2440 L
3028 2403 L
3029 2344 L
3031 2444 L
3032 2332 L
3033 2197 L
3034 2338 L
3036 2246 L
3037 2384 L
3038 2316 L
3039 2382 L
3041 2406 L
3042 2488 L
3043 2337 L
3044 2374 L
3045 2453 L
3047 2301 L
3048 2450 L
3049 2373 L
3050 2384 L
3051 2243 L
3053 2172 L
3054 2554 L
3055 2512 L
3056 2488 L
3057 2452 L
3058 2301 L
3059 2525 L
3061 2295 L
3062 2459 L
3063 2498 L
3064 2543 L
3065 2591 L
3066 2479 L
3067 2430 L
3068 2438 L
3069 2338 L
3070 2482 L
3071 2474 L
3073 2537 L
3074 2490 L
3075 2587 L
3076 2331 L
3077 2560 L
3078 2340 L
3079 2599 L
3080 2304 L
3081 2363 L
3082 2299 L
3083 2566 L
3084 2352 L
3085 2539 L
3086 2284 L
3087 2505 L
3088 2622 L
3089 2491 L
3112 2697 L
3133 2697 L
3152 2766 L
3170 2623 L
3186 2594 L
3201 2830 L
3216 2794 L
3229 2483 L
3241 2690 L
3253 2727 L
3264 2697 L
3275 2806 L
3285 2914 L
3295 2779 L
3304 2796 L
3313 2803 L
3322 2832 L
3330 2823 L
3338 2864 L
3346 2808 L
3353 2621 L
3360 2644 L
3367 2681 L
3374 2706 L
3380 2928 L
3387 2755 L
3393 2881 L
3399 2806 L
3405 2958 L
3410 2908 L
3416 2799 L
3421 2945 L
3426 2751 L
3431 2960 L
3436 2748 L
3441 2966 L
3446 2774 L
3451 2897 L
3455 2904 L
3460 2743 L
3464 2771 L
3469 2794 L
3473 2777 L
3477 2868 L
3481 2693 L
3485 2946 L
3489 2735 L
3493 2598 L
3496 2826 L
3500 2522 L
3504 2751 L
3507 2696 L
3511 2742 L
3514 2580 L
3518 2987 L
3521 2532 L
3525 2708 L
3528 2755 L
3531 2826 L
3534 2655 L
3537 2731 L
3540 2783 L
3543 2787 L
3546 2811 L
3549 2790 L
3552 2751 L
3555 2705 L
3558 2507 L
3561 2469 L
3564 2803 L
3566 2783 L
3575 2690 L
3586 2578 L
3595 2661 L
3605 2761 L
3613 2736 L
3622 2737 L
3630 2704 L
3638 2756 L
3646 2688 L
3653 2765 L
3660 2612 L
3667 2449 L
3674 2612 L
3681 2639 L
3687 2751 L
3693 2634 L
3699 2606 L
3705 2753 L
3710 2926 L
3716 2568 L
3721 2651 L
3727 2686 L
3732 2714 L
3737 2600 L
3742 2523 L
3746 2480 L
3751 2565 L
3756 2828 L
3760 2761 L
3764 2523 L
3769 2597 L
3773 2560 L
3777 2532 L
3781 2434 L
3785 2692 L
3789 2465 L
3793 2528 L
3797 2673 L
3800 2753 L
3804 2413 L
3808 2591 L
3811 2632 L
3815 2496 L
3818 2442 L
3821 2593 L
3825 2555 L
3828 2368 L
3831 2539 L
3834 2445 L
3838 2641 L
3841 2689 L
3844 2464 L
3847 2372 L
3850 2696 L
3853 2358 L
3855 2478 L
3858 2641 L
3861 2567 L
3864 2494 L
3867 2512 L
3869 2495 L
3872 2519 L
3875 2634 L
3877 2449 L
3880 2402 L
3882 2459 L
3885 2523 L
3887 2598 L
3890 2354 L
3892 2520 L
3895 2426 L
3897 2496 L
3899 2469 L
3902 2500 L
3904 2502 L
3906 2322 L
3908 2704 L
3911 2480 L
3913 2508 L
3915 2509 L
3917 2212 L
3919 2524 L
3921 2394 L
3923 2600 L
3926 2437 L
3928 2536 L
3930 2515 L
3932 2562 L
3934 2518 L
3936 2521 L
3938 2536 L
3940 2386 L
3942 2526 L
3943 2345 L
3945 2407 L
3947 2606 L
3949 2417 L
3951 2530 L
3953 2554 L
3955 2565 L
3956 2394 L
3958 2294 L
3960 2389 L
3962 2288 L
3963 2496 L
3965 2500 L
3967 2414 L
3969 2385 L
3970 2369 L
3972 2355 L
3974 2403 L
3975 2484 L
3977 2440 L
3978 2248 L
3980 2429 L
3982 2472 L
3983 2397 L
3985 2208 L
3986 2319 L
3988 2586 L
3990 2481 L
3991 2441 L
3993 2273 L
3994 2259 L
3996 2341 L
3997 2300 L
3999 2469 L
4000 2288 L
4001 2249 L
4003 2437 L
4004 2407 L
4006 2412 L
4007 2600 L
4009 2288 L
4010 2484 L
4011 2403 L
4013 2215 L
4014 2261 L
4016 2393 L
4017 2443 L
4018 2349 L
4020 2352 L
4021 2431 L
4022 2444 L
4024 2610 L
4025 2520 L
4026 2581 L
4028 2315 L
4029 2351 L
4030 2453 L
4031 2471 L
4033 2351 L
4034 2397 L
4035 2312 L
4036 2504 L
4038 2346 L
4039 2382 L
4040 2531 L
4041 2566 L
4042 2396 L
4044 2451 L
4045 2479 L
4046 2449 L
4047 2271 L
4048 2434 L
4050 2516 L
4051 2324 L
4052 2412 L
4053 2394 L
4054 2433 L
4055 2264 L
4056 2430 L
4058 2456 L
4059 2556 L
4060 2341 L
4061 2454 L
4062 2299 L
4063 2465 L
4064 2382 L
4065 2441 L
4066 2424 L
L2 C03 COSGR

%
%================
% Legend - Begin
%================
%
GSN 4240 5180 M
4480 5180 L
LWMC SL  C03 COSGR
GSN 4540 5141 M helvM (1.5 uM) show grestore
%
%================
% Legend - End
%================
%

%
% Residuals:
%
GSN 773 851 M
1625 880 L
1773 971 L
1860 1247 L
1922 1244 L
1970 1138 L
2009 1133 L
2043 1085 L
2072 1102 L
2097 1116 L
2120 1084 L
2140 1206 L
2159 1075 L
2176 1191 L
2192 1206 L
2207 1138 L
2221 1131 L
2234 1173 L
2247 1128 L
2259 1204 L
2270 1164 L
2280 1176 L
2290 1240 L
2300 1283 L
2309 1109 L
2318 1223 L
2326 1372 L
2335 1237 L
2342 1270 L
2350 1251 L
2357 1231 L
2364 1239 L
2371 1164 L
2378 1325 L
2384 1287 L
2391 1269 L
2397 1188 L
2403 1337 L
2409 1329 L
2414 1215 L
2420 1242 L
2425 1254 L
2430 1284 L
2435 1168 L
2440 1141 L
2445 1333 L
2450 1230 L
2455 1163 L
2459 1200 L
2464 1295 L
2468 1090 L
2472 1134 L
2476 1237 L
2481 1280 L
2485 1169 L
2489 1286 L
2492 1284 L
2496 1245 L
2500 1140 L
2504 1302 L
2507 1384 L
2511 1300 L
2514 1143 L
2518 1075 L
2521 1235 L
2525 1177 L
2528 1176 L
2531 1211 L
2534 1249 L
2538 1099 L
2541 1364 L
2544 1203 L
2547 1178 L
2550 1170 L
2553 1262 L
2556 1089 L
2559 1354 L
2561 1266 L
2564 1325 L
2567 1159 L
2570 1225 L
2580 1176 L
2590 1174 L
2600 1129 L
2609 1102 L
2618 1106 L
2627 1126 L
2635 1223 L
2643 1051 L
2650 1073 L
2658 1213 L
2665 1097 L
2672 1118 L
2678 1081 L
2685 1071 L
2691 1102 L
2697 898 L
2703 1078 L
2709 1029 L
2714 997 L
2720 1035 L
2725 1004 L
2730 854 L
2735 924 L
2740 1095 L
2745 914 L
2750 997 L
2755 1092 L
2759 935 L
2764 955 L
2768 848 L
2772 810 L
2777 877 L
2781 846 L
2785 874 L
2789 857 L
2793 900 L
2796 861 L
2800 857 L
2804 935 L
2808 795 L
2811 852 L
2815 870 L
2818 855 L
2822 781 L
2825 829 L
2828 967 L
2831 861 L
2835 889 L
2838 784 L
2841 908 L
2844 894 L
2847 813 L
2850 759 L
2853 1073 L
2856 894 L
2859 804 L
2862 750 L
2864 885 L
2867 950 L
2870 809 L
2873 844 L
2875 1021 L
2878 889 L
2880 916 L
2883 952 L
2886 869 L
2888 966 L
2891 811 L
2893 862 L
2895 964 L
2898 922 L
2900 945 L
2902 860 L
2905 971 L
2907 1058 L
2909 889 L
2912 1017 L
2914 859 L
2916 887 L
2918 979 L
2920 837 L
2922 1007 L
2925 1037 L
2927 953 L
2929 956 L
2931 903 L
2933 1017 L
2935 969 L
2937 799 L
2939 909 L
2941 1058 L
2943 983 L
2945 878 L
2947 884 L
2948 1003 L
2950 1028 L
2952 862 L
2954 1004 L
2956 895 L
2958 952 L
2959 958 L
2961 835 L
2963 1088 L
2965 961 L
2966 970 L
2968 1179 L
2970 1059 L
2972 1089 L
2973 1093 L
2975 1087 L
2977 975 L
2978 1000 L
2980 1018 L
2982 805 L
2983 944 L
2985 1073 L
2986 1082 L
2988 946 L
2989 956 L
2991 1087 L
2993 1013 L
2994 1052 L
2996 1132 L
2997 993 L
2999 1063 L
3000 1010 L
3002 1040 L
3003 1012 L
3005 1118 L
3006 1148 L
3007 1140 L
3009 1026 L
3010 1069 L
3012 986 L
3013 1148 L
3014 1009 L
3016 1077 L
3017 1177 L
3019 1080 L
3020 1116 L
3021 1138 L
3023 1066 L
3024 1029 L
3025 1074 L
3027 1183 L
3028 1157 L
3029 1115 L
3031 1186 L
3032 1107 L
3033 1012 L
3034 1111 L
3036 1046 L
3037 1143 L
3038 1096 L
3039 1142 L
3041 1159 L
3042 1217 L
3043 1110 L
3044 1137 L
3045 1192 L
3047 1085 L
3048 1190 L
3049 1136 L
3050 1144 L
3051 1044 L
3053 994 L
3054 1263 L
3055 1234 L
3056 1217 L
3057 1191 L
3058 1085 L
3059 1243 L
3061 1081 L
3062 1197 L
3063 1224 L
3064 1256 L
3065 1289 L
3066 1210 L
3067 1176 L
3068 1182 L
3069 1111 L
3070 1213 L
3071 1207 L
3073 1251 L
3074 1218 L
3075 1287 L
3076 1106 L
3077 1267 L
3078 1113 L
3079 1295 L
3080 1087 L
3081 1128 L
3082 1084 L
3083 1272 L
3084 1121 L
3085 1253 L
3086 1073 L
3087 1229 L
3088 1311 L
3089 1219 L
3112 1364 L
3133 1364 L
3152 1413 L
3170 1312 L
3186 1291 L
3201 1458 L
3216 1433 L
3229 1213 L
3241 1359 L
3253 1385 L
3264 1364 L
3275 1441 L
3285 1517 L
3295 1422 L
3304 1434 L
3313 1439 L
3322 1460 L
3330 1453 L
3338 1482 L
3346 1443 L
3353 1310 L
3360 1327 L
3367 1353 L
3374 1371 L
3380 1527 L
3387 1406 L
3393 1494 L
3399 1441 L
3405 1548 L
3410 1513 L
3416 1436 L
3421 1539 L
3426 1403 L
3431 1550 L
3436 1401 L
3441 1554 L
3446 1418 L
3451 1506 L
3455 1511 L
3460 1397 L
3464 1417 L
3469 1432 L
3473 1421 L
3477 1485 L
3481 1362 L
3485 1540 L
3489 1391 L
3493 1295 L
3496 1456 L
3500 1241 L
3504 1402 L
3507 1364 L
3511 1396 L
3514 1282 L
3518 1569 L
3521 1248 L
3525 1372 L
3528 1405 L
3531 1456 L
3534 1335 L
3537 1389 L
3540 1425 L
3543 1428 L
3546 1445 L
3549 1430 L
3552 1403 L
3555 1370 L
3558 1230 L
3561 1204 L
3564 1439 L
3566 1425 L
3575 1359 L
3586 1281 L
3595 1339 L
3605 1410 L
3613 1392 L
3622 1393 L
3630 1369 L
3638 1406 L
3646 1358 L
3653 1412 L
3660 1304 L
3667 1190 L
3674 1304 L
3681 1323 L
3687 1403 L
3693 1320 L
3699 1300 L
3705 1404 L
3710 1526 L
3716 1273 L
3721 1332 L
3727 1357 L
3732 1376 L
3737 1296 L
3742 1241 L
3746 1212 L
3751 1271 L
3756 1457 L
3760 1410 L
3764 1241 L
3769 1294 L
3773 1268 L
3777 1248 L
3781 1179 L
3785 1361 L
3789 1201 L
3793 1245 L
3797 1347 L
3800 1404 L
3804 1164 L
3808 1290 L
3811 1318 L
3815 1223 L
3818 1185 L
3821 1291 L
3825 1264 L
3828 1132 L
3831 1253 L
3834 1186 L
3838 1325 L
3841 1359 L
3844 1200 L
3847 1135 L
3850 1364 L
3853 1125 L
3855 1210 L
3858 1325 L
3861 1273 L
3864 1221 L
3867 1234 L
3869 1222 L
3872 1239 L
3875 1320 L
3877 1189 L
3880 1157 L
3882 1196 L
3885 1241 L
3887 1295 L
3890 1123 L
3892 1240 L
3895 1173 L
3897 1222 L
3899 1204 L
3902 1226 L
3904 1227 L
3906 1100 L
3908 1370 L
3911 1212 L
3913 1231 L
3915 1232 L
3917 1022 L
3919 1242 L
3921 1151 L
3923 1296 L
3926 1181 L
3928 1251 L
3930 1236 L
3932 1269 L
3934 1238 L
3936 1240 L
3938 1251 L
3940 1145 L
3942 1244 L
3943 1116 L
3945 1160 L
3947 1300 L
3949 1167 L
3951 1246 L
3953 1263 L
3955 1271 L
3956 1151 L
3958 1080 L
3960 1147 L
3962 1076 L
3963 1223 L
3965 1226 L
3967 1165 L
3969 1144 L
3970 1133 L
3972 1123 L
3974 1157 L
3975 1214 L
3977 1183 L
3978 1047 L
3980 1175 L
3982 1205 L
3983 1153 L
3985 1019 L
3986 1097 L
3988 1286 L
3990 1212 L
3991 1184 L
3993 1065 L
3994 1055 L
3996 1113 L
3997 1085 L
3999 1204 L
4000 1076 L
4001 1049 L
4003 1181 L
4004 1160 L
4006 1163 L
4007 1296 L
4009 1076 L
4010 1214 L
4011 1157 L
4013 1024 L
4014 1057 L
4016 1150 L
4017 1185 L
4018 1119 L
4020 1121 L
4021 1177 L
4022 1186 L
4024 1303 L
4025 1239 L
4026 1282 L
4028 1095 L
4029 1121 L
4030 1192 L
4031 1205 L
4033 1120 L
4034 1153 L
4035 1093 L
4036 1228 L
4038 1117 L
4039 1142 L
4040 1247 L
4041 1272 L
4042 1152 L
4044 1191 L
4045 1210 L
4046 1190 L
4047 1064 L
4048 1179 L
4050 1236 L
4051 1101 L
4052 1163 L
4053 1151 L
4054 1178 L
4055 1059 L
4056 1176 L
4058 1194 L
4059 1265 L
4060 1113 L
4061 1193 L
4062 1083 L
4063 1201 L
4064 1142 L
4065 1183 L
4066 1172 L
L2 C03 COSGR

%
% Main frame
%
L10
GSN 
620 1700 M
4220 1700 L
4220 5300 L
620 5300 L
closepath SGR

%
% X axis: large tics
%
L10
GSN 1074 1700 M 0  54 rL SGR
GSN 1074 5300 M 0 -54 rL SGR
helvS (0.0001) 1074 470 xlabel
GSN 1572 1700 M 0  54 rL SGR
GSN 1572 5300 M 0 -54 rL SGR
helvS (0.001) 1572 470 xlabel
GSN 2071 1700 M 0  54 rL SGR
GSN 2071 5300 M 0 -54 rL SGR
helvS (0.01) 2071 470 xlabel
GSN 2570 1700 M 0  54 rL SGR
GSN 2570 5300 M 0 -54 rL SGR
helvS (0.1) 2570 470 xlabel
GSN 3068 1700 M 0  54 rL SGR
GSN 3068 5300 M 0 -54 rL SGR
helvS (1) 3068 470 xlabel
GSN 3567 1700 M 0  54 rL SGR
GSN 3567 5300 M 0 -54 rL SGR
helvS (10) 3567 470 xlabel
GSN 4066 1700 M 0  54 rL SGR
GSN 4066 5300 M 0 -54 rL SGR
helvS (100) 4066 470 xlabel
%
% X axis: small tics
%
L5
GSN 725 1700 M 0  36 rL SGR
GSN 725 5300 M 0 -36 rL SGR
GSN 813 1700 M 0  36 rL SGR
GSN 813 5300 M 0 -36 rL SGR
GSN 875 1700 M 0  36 rL SGR
GSN 875 5300 M 0 -36 rL SGR
GSN 924 1700 M 0  36 rL SGR
GSN 924 5300 M 0 -36 rL SGR
GSN 963 1700 M 0  36 rL SGR
GSN 963 5300 M 0 -36 rL SGR
GSN 996 1700 M 0  36 rL SGR
GSN 996 5300 M 0 -36 rL SGR
GSN 1025 1700 M 0  36 rL SGR
GSN 1025 5300 M 0 -36 rL SGR
GSN 1051 1700 M 0  36 rL SGR
GSN 1051 5300 M 0 -36 rL SGR
GSN 1224 1700 M 0  36 rL SGR
GSN 1224 5300 M 0 -36 rL SGR
GSN 1312 1700 M 0  36 rL SGR
GSN 1312 5300 M 0 -36 rL SGR
GSN 1374 1700 M 0  36 rL SGR
GSN 1374 5300 M 0 -36 rL SGR
GSN 1422 1700 M 0  36 rL SGR
GSN 1422 5300 M 0 -36 rL SGR
GSN 1462 1700 M 0  36 rL SGR
GSN 1462 5300 M 0 -36 rL SGR
GSN 1495 1700 M 0  36 rL SGR
GSN 1495 5300 M 0 -36 rL SGR
GSN 1524 1700 M 0  36 rL SGR
GSN 1524 5300 M 0 -36 rL SGR
GSN 1550 1700 M 0  36 rL SGR
GSN 1550 5300 M 0 -36 rL SGR
GSN 1722 1700 M 0  36 rL SGR
GSN 1722 5300 M 0 -36 rL SGR
GSN 1810 1700 M 0  36 rL SGR
GSN 1810 5300 M 0 -36 rL SGR
GSN 1873 1700 M 0  36 rL SGR
GSN 1873 5300 M 0 -36 rL SGR
GSN 1921 1700 M 0  36 rL SGR
GSN 1921 5300 M 0 -36 rL SGR
GSN 1960 1700 M 0  36 rL SGR
GSN 1960 5300 M 0 -36 rL SGR
GSN 1994 1700 M 0  36 rL SGR
GSN 1994 5300 M 0 -36 rL SGR
GSN 2023 1700 M 0  36 rL SGR
GSN 2023 5300 M 0 -36 rL SGR
GSN 2048 1700 M 0  36 rL SGR
GSN 2048 5300 M 0 -36 rL SGR
GSN 2221 1700 M 0  36 rL SGR
GSN 2221 5300 M 0 -36 rL SGR
GSN 2309 1700 M 0  36 rL SGR
GSN 2309 5300 M 0 -36 rL SGR
GSN 2371 1700 M 0  36 rL SGR
GSN 2371 5300 M 0 -36 rL SGR
GSN 2420 1700 M 0  36 rL SGR
GSN 2420 5300 M 0 -36 rL SGR
GSN 2459 1700 M 0  36 rL SGR
GSN 2459 5300 M 0 -36 rL SGR
GSN 2492 1700 M 0  36 rL SGR
GSN 2492 5300 M 0 -36 rL SGR
GSN 2521 1700 M 0  36 rL SGR
GSN 2521 5300 M 0 -36 rL SGR
GSN 2547 1700 M 0  36 rL SGR
GSN 2547 5300 M 0 -36 rL SGR
GSN 2720 1700 M 0  36 rL SGR
GSN 2720 5300 M 0 -36 rL SGR
GSN 2808 1700 M 0  36 rL SGR
GSN 2808 5300 M 0 -36 rL SGR
GSN 2870 1700 M 0  36 rL SGR
GSN 2870 5300 M 0 -36 rL SGR
GSN 2918 1700 M 0  36 rL SGR
GSN 2918 5300 M 0 -36 rL SGR
GSN 2958 1700 M 0  36 rL SGR
GSN 2958 5300 M 0 -36 rL SGR
GSN 2991 1700 M 0  36 rL SGR
GSN 2991 5300 M 0 -36 rL SGR
GSN 3020 1700 M 0  36 rL SGR
GSN 3020 5300 M 0 -36 rL SGR
GSN 3045 1700 M 0  36 rL SGR
GSN 3045 5300 M 0 -36 rL SGR
GSN 3218 1700 M 0  36 rL SGR
GSN 3218 5300 M 0 -36 rL SGR
GSN 3306 1700 M 0  36 rL SGR
GSN 3306 5300 M 0 -36 rL SGR
GSN 3368 1700 M 0  36 rL SGR
GSN 3368 5300 M 0 -36 rL SGR
GSN 3417 1700 M 0  36 rL SGR
GSN 3417 5300 M 0 -36 rL SGR
GSN 3456 1700 M 0  36 rL SGR
GSN 3456 5300 M 0 -36 rL SGR
GSN 3490 1700 M 0  36 rL SGR
GSN 3490 5300 M 0 -36 rL SGR
GSN 3519 1700 M 0  36 rL SGR
GSN 3519 5300 M 0 -36 rL SGR
GSN 3544 1700 M 0  36 rL SGR
GSN 3544 5300 M 0 -36 rL SGR
GSN 3717 1700 M 0  36 rL SGR
GSN 3717 5300 M 0 -36 rL SGR
GSN 3805 1700 M 0  36 rL SGR
GSN 3805 5300 M 0 -36 rL SGR
GSN 3867 1700 M 0  36 rL SGR
GSN 3867 5300 M 0 -36 rL SGR
GSN 3915 1700 M 0  36 rL SGR
GSN 3915 5300 M 0 -36 rL SGR
GSN 3955 1700 M 0  36 rL SGR
GSN 3955 5300 M 0 -36 rL SGR
GSN 3988 1700 M 0  36 rL SGR
GSN 3988 5300 M 0 -36 rL SGR
GSN 4017 1700 M 0  36 rL SGR
GSN 4017 5300 M 0 -36 rL SGR
GSN 4043 1700 M 0  36 rL SGR
GSN 4043 5300 M 0 -36 rL SGR
GSN 4216 1700 M 0  36 rL SGR
GSN 4216 5300 M 0 -36 rL SGR
%
% Y axis: large tics
%
L10
GSN 620 2052 M 54 0 rL SGR
GSN 4220 2052 M -54 0 rL SGR
helvS (1.04) 560 2052 ylabel
GSN 620 2888 M 54 0 rL SGR
GSN 4220 2888 M -54 0 rL SGR
helvS (1.06) 560 2888 ylabel
GSN 620 3723 M 54 0 rL SGR
GSN 4220 3723 M -54 0 rL SGR
helvS (1.08) 560 3723 ylabel
GSN 620 4559 M 54 0 rL SGR
GSN 4220 4559 M -54 0 rL SGR
helvS (1.1) 560 4559 ylabel
%
% Y axis: small tics
%
L5
GSN 620 1843 M 36 0 rL SGR
GSN 4220 1843 M -36 0 rL SGR
GSN 620 2052 M 36 0 rL SGR
GSN 4220 2052 M -36 0 rL SGR
GSN 620 2261 M 36 0 rL SGR
GSN 4220 2261 M -36 0 rL SGR
GSN 620 2470 M 36 0 rL SGR
GSN 4220 2470 M -36 0 rL SGR
GSN 620 2679 M 36 0 rL SGR
GSN 4220 2679 M -36 0 rL SGR
GSN 620 2888 M 36 0 rL SGR
GSN 4220 2888 M -36 0 rL SGR
GSN 620 3097 M 36 0 rL SGR
GSN 4220 3097 M -36 0 rL SGR
GSN 620 3306 M 36 0 rL SGR
GSN 4220 3306 M -36 0 rL SGR
GSN 620 3515 M 36 0 rL SGR
GSN 4220 3515 M -36 0 rL SGR
GSN 620 3723 M 36 0 rL SGR
GSN 4220 3723 M -36 0 rL SGR
GSN 620 3932 M 36 0 rL SGR
GSN 4220 3932 M -36 0 rL SGR
GSN 620 4141 M 36 0 rL SGR
GSN 4220 4141 M -36 0 rL SGR
GSN 620 4350 M 36 0 rL SGR
GSN 4220 4350 M -36 0 rL SGR
GSN 620 4559 M 36 0 rL SGR
GSN 4220 4559 M -36 0 rL SGR
GSN 620 4768 M 36 0 rL SGR
GSN 4220 4768 M -36 0 rL SGR
GSN 620 4977 M 36 0 rL SGR
GSN 4220 4977 M -36 0 rL SGR
GSN 620 5186 M 36 0 rL SGR
GSN 4220 5186 M -36 0 rL SGR

%
% X-Axis label:
%
gsave 2420 290 M 
[
[(Helvetica) 180 0 true true 0 (t)]
[(Helvetica) 180 0 true true 0 (i)]
[(Helvetica) 180 0 true true 0 (m)]
[(Helvetica) 180 0 true true 0 (e)]
] 0 MCshow grestore

%
% Y-Axis label:
%
gsave 234 3500 M 
currentpoint gsave translate 90 rotate 0 0 moveto
[
[(Helvetica) 180 0 true true 0 (s)]
[(Helvetica) 180 0 true true 0 (i)]
[(Helvetica) 180 0 true true 0 (g)]
[(Helvetica) 180 0 true true 0 (n)]
[(Helvetica) 180 0 true true 0 (a)]
[(Helvetica) 180 0 true true 0 (l)]
] 0 MCshow grestore

%
% Residuals:
%
gsave 129 1160 M 
currentpoint gsave translate 90 rotate 0 0 moveto
[
[(Helvetica) 150 0 true true 0 (r)]
[(Helvetica) 150 0 true true 0 (e)]
[(Helvetica) 150 0 true true 0 (s)]
[(Helvetica) 150 0 true true 0 (i)]
[(Helvetica) 150 0 true true 0 (d)]
[(Helvetica) 150 0 true true 0 (u)]
[(Helvetica) 150 0 true true 0 (a)]
[(Helvetica) 150 0 true true 0 (l)]
[(Helvetica) 150 0 true true 0 (s)]
] 0 MCshow grestore

%
% Residual frame
%
L10
GSN 
620 620 M
4220 620 L
4220 1700 L
620 1700 L
closepath SGR
%
% X axis: large tics - residual frame
%
L10
GSN 1074 620 M 0  54 rL SGR
GSN 1074 1700 M 0 -54 rL SGR
GSN 1572 620 M 0  54 rL SGR
GSN 1572 1700 M 0 -54 rL SGR
GSN 2071 620 M 0  54 rL SGR
GSN 2071 1700 M 0 -54 rL SGR
GSN 2570 620 M 0  54 rL SGR
GSN 2570 1700 M 0 -54 rL SGR
GSN 3068 620 M 0  54 rL SGR
GSN 3068 1700 M 0 -54 rL SGR
GSN 3567 620 M 0  54 rL SGR
GSN 3567 1700 M 0 -54 rL SGR
GSN 4066 620 M 0  54 rL SGR
GSN 4066 1700 M 0 -54 rL SGR
%
% X axis: small tics - residual frame
%
L5
GSN 725 620 M 0  36 rL SGR
GSN 725 1700 M 0 -36 rL SGR
GSN 813 620 M 0  36 rL SGR
GSN 813 1700 M 0 -36 rL SGR
GSN 875 620 M 0  36 rL SGR
GSN 875 1700 M 0 -36 rL SGR
GSN 924 620 M 0  36 rL SGR
GSN 924 1700 M 0 -36 rL SGR
GSN 963 620 M 0  36 rL SGR
GSN 963 1700 M 0 -36 rL SGR
GSN 996 620 M 0  36 rL SGR
GSN 996 1700 M 0 -36 rL SGR
GSN 1025 620 M 0  36 rL SGR
GSN 1025 1700 M 0 -36 rL SGR
GSN 1051 620 M 0  36 rL SGR
GSN 1051 1700 M 0 -36 rL SGR
GSN 1224 620 M 0  36 rL SGR
GSN 1224 1700 M 0 -36 rL SGR
GSN 1312 620 M 0  36 rL SGR
GSN 1312 1700 M 0 -36 rL SGR
GSN 1374 620 M 0  36 rL SGR
GSN 1374 1700 M 0 -36 rL SGR
GSN 1422 620 M 0  36 rL SGR
GSN 1422 1700 M 0 -36 rL SGR
GSN 1462 620 M 0  36 rL SGR
GSN 1462 1700 M 0 -36 rL SGR
GSN 1495 620 M 0  36 rL SGR
GSN 1495 1700 M 0 -36 rL SGR
GSN 1524 620 M 0  36 rL SGR
GSN 1524 1700 M 0 -36 rL SGR
GSN 1550 620 M 0  36 rL SGR
GSN 1550 1700 M 0 -36 rL SGR
GSN 1722 620 M 0  36 rL SGR
GSN 1722 1700 M 0 -36 rL SGR
GSN 1810 620 M 0  36 rL SGR
GSN 1810 1700 M 0 -36 rL SGR
GSN 1873 620 M 0  36 rL SGR
GSN 1873 1700 M 0 -36 rL SGR
GSN 1921 620 M 0  36 rL SGR
GSN 1921 1700 M 0 -36 rL SGR
GSN 1960 620 M 0  36 rL SGR
GSN 1960 1700 M 0 -36 rL SGR
GSN 1994 620 M 0  36 rL SGR
GSN 1994 1700 M 0 -36 rL SGR
GSN 2023 620 M 0  36 rL SGR
GSN 2023 1700 M 0 -36 rL SGR
GSN 2048 620 M 0  36 rL SGR
GSN 2048 1700 M 0 -36 rL SGR
GSN 2221 620 M 0  36 rL SGR
GSN 2221 1700 M 0 -36 rL SGR
GSN 2309 620 M 0  36 rL SGR
GSN 2309 1700 M 0 -36 rL SGR
GSN 2371 620 M 0  36 rL SGR
GSN 2371 1700 M 0 -36 rL SGR
GSN 2420 620 M 0  36 rL SGR
GSN 2420 1700 M 0 -36 rL SGR
GSN 2459 620 M 0  36 rL SGR
GSN 2459 1700 M 0 -36 rL SGR
GSN 2492 620 M 0  36 rL SGR
GSN 2492 1700 M 0 -36 rL SGR
GSN 2521 620 M 0  36 rL SGR
GSN 2521 1700 M 0 -36 rL SGR
GSN 2547 620 M 0  36 rL SGR
GSN 2547 1700 M 0 -36 rL SGR
GSN 2720 620 M 0  36 rL SGR
GSN 2720 1700 M 0 -36 rL SGR
GSN 2808 620 M 0  36 rL SGR
GSN 2808 1700 M 0 -36 rL SGR
GSN 2870 620 M 0  36 rL SGR
GSN 2870 1700 M 0 -36 rL SGR
GSN 2918 620 M 0  36 rL SGR
GSN 2918 1700 M 0 -36 rL SGR
GSN 2958 620 M 0  36 rL SGR
GSN 2958 1700 M 0 -36 rL SGR
GSN 2991 620 M 0  36 rL SGR
GSN 2991 1700 M 0 -36 rL SGR
GSN 3020 620 M 0  36 rL SGR
GSN 3020 1700 M 0 -36 rL SGR
GSN 3045 620 M 0  36 rL SGR
GSN 3045 1700 M 0 -36 rL SGR
GSN 3218 620 M 0  36 rL SGR
GSN 3218 1700 M 0 -36 rL SGR
GSN 3306 620 M 0  36 rL SGR
GSN 3306 1700 M 0 -36 rL SGR
GSN 3368 620 M 0  36 rL SGR
GSN 3368 1700 M 0 -36 rL SGR
GSN 3417 620 M 0  36 rL SGR
GSN 3417 1700 M 0 -36 rL SGR
GSN 3456 620 M 0  36 rL SGR
GSN 3456 1700 M 0 -36 rL SGR
GSN 3490 620 M 0  36 rL SGR
GSN 3490 1700 M 0 -36 rL SGR
GSN 3519 620 M 0  36 rL SGR
GSN 3519 1700 M 0 -36 rL SGR
GSN 3544 620 M 0  36 rL SGR
GSN 3544 1700 M 0 -36 rL SGR
GSN 3717 620 M 0  36 rL SGR
GSN 3717 1700 M 0 -36 rL SGR
GSN 3805 620 M 0  36 rL SGR
GSN 3805 1700 M 0 -36 rL SGR
GSN 3867 620 M 0  36 rL SGR
GSN 3867 1700 M 0 -36 rL SGR
GSN 3915 620 M 0  36 rL SGR
GSN 3915 1700 M 0 -36 rL SGR
GSN 3955 620 M 0  36 rL SGR
GSN 3955 1700 M 0 -36 rL SGR
GSN 3988 620 M 0  36 rL SGR
GSN 3988 1700 M 0 -36 rL SGR
GSN 4017 620 M 0  36 rL SGR
GSN 4017 1700 M 0 -36 rL SGR
GSN 4043 620 M 0  36 rL SGR
GSN 4043 1700 M 0 -36 rL SGR
GSN 4216 620 M 0  36 rL SGR
GSN 4216 1700 M 0 -36 rL SGR
%
% Y axis: large tics - residual frame
%
L10
GSN 620 876 M 54 0 rL SGR
GSN 4220 876 M -54 0 rL SGR
helvS (-0.01) 560 876 ylabelresid
GSN 620 1170 M 54 0 rL SGR
GSN 4220 1170 M -54 0 rL SGR
helvS (0) 560 1170 ylabelresid
GSN 620 1465 M 54 0 rL SGR
GSN 4220 1465 M -54 0 rL SGR
helvS (0.01) 560 1465 ylabelresid

%
% X axis - residual panel
%
GSN L5 620 1170 M 4220 1170 L SDA G50 SGR

end
showpage
%%Trailer
%%EOF
