%!PS-Adobe-3.0 EPSF-3.0
%%BoundingBox: 0 0 514 442
%%Creator: BioKin Ltd.
%%DocumentFonts: Symbol Helvetica
%%EndComments
%
/bkdict 256 dict def
bkdict begin
/M {moveto} def 
/R {rmoveto} def
/L {lineto} def
/rL {rlineto} def
/GSN {gsave newpath} def
/SGR {stroke grestore} def
/COSGR {gsave setrgbcolor stroke grestore grestore} def
/SL {setlinewidth} def
/LWMB {12} def             % line width - model curves, black & white
/LWMC {10} def             % line width - model curves, color
/L2 {2.5 setlinewidth} def
/L5 {5 setlinewidth} def
/L10 {10 setlinewidth} def
/G50 {0.5 setgray} def
/SDA {[10  20] 0 setdash} def % axes
/helvT {/Helvetica findfont 100 scalefont setfont} def % tiny
/helvS {/Helvetica findfont 125 scalefont setfont} def % small
/helvM {/Helvetica findfont 150 scalefont setfont} def % medium
/helvL {/Helvetica findfont 175 scalefont setfont} def % large
/xlabel {gsave M dup
   stringwidth exch -0.5 mul exch rmoveto show grestore} def 
/ylabel {gsave M 90 rotate dup
   stringwidth exch -0.5 mul exch rmoveto show grestore} def
/ylabelresid {gsave M dup
   stringwidth exch -1 mul exch rmoveto show grestore} def
% ======
% Shapes
% ======
% Circle:
/Circ {0 360 arc closepath} def
%
% Square:
/Squa {dup dup -0.5 mul dup dup R -2 mul 0 exch rL 1 mul 0 rL dup 0 exch -1 mul rL closepath} def
%
% Triangle Up:
/TriU {dup dup dup -0.4 mul exch -0.5 mul exch R dup 0.5 mul exch rL dup -1 mul exch 0.5 mul exch rL closepath} def 
%
% Triangle Down:
/TriD {dup dup dup 0.4 mul exch -0.5 mul exch R dup 0.5 mul exch -1 mul rL dup 0.5 mul exch rL closepath} def 
%
% Diamond:
/Diam {45 rotate Squa} def
% ======
% Fills
% ======
/GRF {gsave setgray fill grestore} def                    % gray-level Fill
/COF {gsave setrgbcolor fill grestore} def                % color fill
% ======
% Colors
% ======
/C01 {1.00	0.00	0.00} def      % Red
/C02 {0.00	0.00	1.00} def      % Blue
/C03 {0.00	0.39	0.00} def      % Dark Green
/C04 {0.78	0.08	0.52} def      % Medium Violet Red
/C05 {0.55	0.27	0.07} def      % Saddle Brown
/C06 {0.10	0.70	0.70} def      % (cyan)
/C07 {1.00	0.55	0.00} def      % Dark Orange
/C08 {0.63	0.13	0.94} def      % Purple
/C09 {0.00	0.75	1.00} def      % Deep Sky Blue
/C10 {0.20	0.80	0.20} def      % Lime Green
/C11 {0.47	0.53	0.60} def      % Light Slate Gray
/C12 {0.00	0.00	0.00} def      % Black            % or: {0.19	0.31	0.31} def      % Dark Slate Gray
%
/LGR {0.75} def % light gray
/DGR {0.33} def % dark gray
%
% =============
% Dash patterns
% =============
/dash01 { [80  20] 0 setdash } def
/dash02 { [40  20] 0 setdash } def
/dash03 { [80  20  10  20] 0 setdash } def
/dash04 { [40  20  10  20] 0 setdash } def
/dash05 { [80  20  10  10  10  20] 0 setdash } def
/dash06 { [40  20  10  10  10  20] 0 setdash } def
/dash07 { [10  10] 0 setdash } def
%
/MFshow {
   { dup 5 get 3 ge
     { 5 get 3 eq {gsave} {grestore} ifelse }
     {dup dup 0 get findfont exch 1 get scalefont setfont
     [ currentpoint ] exch dup 2 get 0 exch R dup 5 get 2 ne {dup dup 6
     get exch 4 get {show} {stringwidth pop 0 R} ifelse }if dup 5 get 0 eq
     {dup 3 get {2 get neg 0 exch R pop} {pop aload pop M} ifelse} {dup 5
     get 1 eq {dup 2 get exch dup 3 get exch 6 get stringwidth pop -2 div
     dup 0 R} {dup 6 get stringwidth pop -2 div 0 R 6 get
     show 2 index {aload pop M neg 3 -1 roll neg R pop pop} {pop pop pop
     pop aload pop M} ifelse }ifelse }ifelse }
     ifelse }
   forall} bind def
/MFwidth {0 exch {dup 3 get{dup dup 0 get findfont exch 1 get scalefont
     setfont 6 get stringwidth pop add} {pop} ifelse} forall} bind def
/MCshow { currentpoint stroke M
  exch dup MFwidth -2 div 3 -1 roll R MFshow } def
%
end
%%EndProlog
bkdict begin
0.1 0.1 scale
%
% Model curves:
%

GSN 753 3589 M
770 3589 L
803 3589 L
837 3590 L
870 3591 L
895 3592 L
911 3592 L
937 3593 L
970 3594 L
1003 3595 L
1037 3597 L
1053 3599 L
1070 3599 L
1103 3601 L
1137 3603 L
1170 3606 L
1195 3609 L
1211 3611 L
1237 3613 L
1270 3617 L
1303 3622 L
1337 3628 L
1353 3634 L
1370 3634 L
1403 3642 L
1437 3650 L
1470 3659 L
1495 3670 L
1512 3676 L
1537 3682 L
1570 3696 L
1603 3710 L
1637 3727 L
1653 3744 L
1670 3745 L
1703 3763 L
1737 3784 L
1770 3805 L
1795 3828 L
1812 3840 L
1837 3851 L
1870 3874 L
1903 3897 L
1937 3920 L
1953 3942 L
1971 3942 L
2003 3962 L
2037 3982 L
2070 3999 L
2095 4015 L
2112 4023 L
2137 4029 L
2170 4041 L
2203 4051 L
2237 4060 L
2253 4067 L
2271 4067 L
2303 4072 L
2337 4077 L
2370 4080 L
2395 4082 L
2412 4083 L
2437 4084 L
2470 4085 L
2503 4086 L
2537 4086 L
2553 4086 L
2571 4086 L
2603 4086 L
2637 4086 L
2670 4086 L
2695 4086 L
2712 4086 L
2737 4086 L
2770 4086 L
2803 4086 L
2837 4086 L
2854 4086 L
2871 4086 L
2903 4086 L
2937 4086 L
2970 4086 L
2995 4086 L
3012 4086 L
3037 4086 L
3061 4086 L
3077 4086 L
3103 4086 L
3137 4086 L
3154 4086 L
3171 4086 L
3203 4086 L
3237 4086 L
3270 4086 L
3296 4086 L
3312 4086 L
3337 4086 L
3370 4086 L
3403 4086 L
3437 4086 L
3454 4086 L
3471 4086 L
3503 4086 L
3537 4086 L
3570 4086 L
3596 4086 L
3612 4086 L
3637 4086 L
3670 4086 L
3703 4086 L
3737 4086 L
3754 4086 L
3771 4086 L
3803 4086 L
3837 4086 L
3870 4086 L
3896 4086 L
3912 4086 L
3937 4086 L
3970 4086 L
4003 4086 L
4037 4086 L
4070 4086 L
LWMC SL dash01 C01 COSGR

GSN 753 3266 M
770 3266 L
803 3267 L
837 3268 L
870 3270 L
895 3271 L
911 3272 L
937 3273 L
970 3276 L
1003 3278 L
1037 3282 L
1053 3285 L
1070 3285 L
1103 3289 L
1137 3294 L
1170 3300 L
1195 3307 L
1211 3310 L
1237 3314 L
1270 3323 L
1303 3333 L
1337 3344 L
1353 3357 L
1370 3357 L
1403 3371 L
1437 3388 L
1470 3406 L
1495 3427 L
1512 3439 L
1537 3450 L
1570 3475 L
1603 3503 L
1637 3533 L
1653 3565 L
1670 3566 L
1703 3599 L
1737 3635 L
1770 3672 L
1795 3709 L
1812 3729 L
1837 3747 L
1870 3784 L
1903 3820 L
1937 3855 L
1953 3887 L
1971 3888 L
2003 3917 L
2037 3944 L
2070 3968 L
2095 3989 L
2112 3999 L
2137 4007 L
2170 4023 L
2203 4036 L
2237 4046 L
2253 4055 L
2271 4055 L
2303 4062 L
2337 4067 L
2370 4072 L
2395 4075 L
2412 4077 L
2437 4078 L
2470 4080 L
2503 4081 L
2537 4083 L
2553 4083 L
2571 4084 L
2603 4084 L
2637 4085 L
2670 4085 L
2695 4085 L
2712 4085 L
2737 4086 L
2770 4086 L
2803 4086 L
2837 4086 L
2854 4086 L
2871 4086 L
2903 4086 L
2937 4086 L
2970 4086 L
2995 4086 L
3012 4086 L
3037 4086 L
3061 4086 L
3077 4086 L
3103 4086 L
3137 4086 L
3154 4086 L
3171 4086 L
3203 4086 L
3237 4086 L
3270 4086 L
3296 4086 L
3312 4086 L
3337 4086 L
3370 4086 L
3403 4086 L
3437 4086 L
3454 4086 L
3471 4086 L
3503 4086 L
3537 4086 L
3570 4086 L
3596 4086 L
3612 4086 L
3637 4086 L
3670 4086 L
3703 4086 L
3737 4086 L
3754 4086 L
3771 4086 L
3803 4086 L
3837 4086 L
3870 4086 L
3896 4086 L
3912 4086 L
3937 4086 L
3970 4086 L
4003 4086 L
4037 4086 L
4070 4086 L
LWMC SL dash02 C02 COSGR

GSN 753 2601 M
770 2601 L
803 2604 L
837 2607 L
870 2611 L
895 2615 L
911 2617 L
937 2620 L
970 2626 L
1003 2632 L
1037 2640 L
1053 2649 L
1070 2649 L
1103 2659 L
1137 2671 L
1170 2685 L
1195 2700 L
1211 2709 L
1237 2718 L
1270 2739 L
1303 2762 L
1337 2788 L
1353 2818 L
1370 2819 L
1403 2852 L
1437 2889 L
1470 2931 L
1495 2977 L
1512 3002 L
1537 3027 L
1570 3081 L
1603 3139 L
1637 3201 L
1653 3266 L
1670 3267 L
1703 3333 L
1737 3401 L
1770 3470 L
1795 3538 L
1812 3573 L
1837 3604 L
1870 3667 L
1903 3726 L
1937 3781 L
1953 3831 L
1971 3832 L
2003 3875 L
2037 3914 L
2070 3947 L
2095 3975 L
2112 3988 L
2137 3999 L
2170 4018 L
2203 4034 L
2237 4047 L
2253 4057 L
2271 4057 L
2303 4065 L
2337 4071 L
2370 4075 L
2395 4079 L
2412 4080 L
2437 4081 L
2470 4083 L
2503 4084 L
2537 4085 L
2553 4086 L
2571 4086 L
2603 4086 L
2637 4086 L
2670 4086 L
2695 4086 L
2712 4086 L
2737 4086 L
2770 4086 L
2803 4086 L
2837 4086 L
2854 4086 L
2871 4086 L
2903 4086 L
2937 4086 L
2970 4086 L
2995 4086 L
3012 4086 L
3037 4086 L
3061 4086 L
3077 4086 L
3103 4086 L
3137 4086 L
3154 4086 L
3171 4086 L
3203 4086 L
3237 4086 L
3270 4086 L
3296 4086 L
3312 4086 L
3337 4086 L
3370 4086 L
3403 4086 L
3437 4086 L
3454 4086 L
3471 4086 L
3503 4086 L
3537 4086 L
3570 4086 L
3596 4086 L
3612 4086 L
3637 4086 L
3670 4086 L
3703 4086 L
3737 4086 L
3754 4086 L
3771 4086 L
3803 4086 L
3837 4086 L
3870 4086 L
3896 4086 L
3912 4086 L
3937 4086 L
3970 4086 L
4003 4086 L
4037 4086 L
4070 4086 L
LWMC SL dash03 C03 COSGR

GSN 753 2110 M
770 2110 L
803 2114 L
837 2119 L
870 2125 L
895 2132 L
911 2136 L
937 2140 L
970 2149 L
1003 2159 L
1037 2171 L
1053 2185 L
1070 2185 L
1103 2201 L
1137 2219 L
1170 2241 L
1195 2265 L
1211 2279 L
1237 2293 L
1270 2324 L
1303 2360 L
1337 2400 L
1353 2446 L
1370 2446 L
1403 2497 L
1437 2553 L
1470 2615 L
1495 2683 L
1512 2720 L
1537 2757 L
1570 2835 L
1603 2919 L
1637 3007 L
1653 3098 L
1670 3100 L
1703 3190 L
1737 3283 L
1770 3375 L
1795 3465 L
1812 3510 L
1837 3550 L
1870 3630 L
1903 3704 L
1937 3771 L
1953 3831 L
1971 3832 L
2003 3883 L
2037 3927 L
2070 3964 L
2095 3995 L
2112 4009 L
2137 4020 L
2170 4040 L
2203 4055 L
2237 4066 L
2253 4074 L
2271 4074 L
2303 4079 L
2337 4083 L
2370 4084 L
2395 4085 L
2412 4086 L
2437 4086 L
2470 4086 L
2503 4086 L
2537 4086 L
2553 4086 L
2571 4086 L
2603 4086 L
2637 4086 L
2670 4086 L
2695 4086 L
2712 4086 L
2737 4086 L
2770 4086 L
2803 4086 L
2837 4086 L
2854 4086 L
2871 4086 L
2903 4086 L
2937 4086 L
2970 4086 L
2995 4086 L
3012 4086 L
3037 4086 L
3061 4086 L
3077 4086 L
3103 4086 L
3137 4086 L
3154 4086 L
3171 4086 L
3203 4086 L
3237 4086 L
3270 4086 L
3296 4086 L
3312 4086 L
3337 4086 L
3370 4086 L
3403 4086 L
3437 4086 L
3454 4086 L
3471 4086 L
3503 4086 L
3537 4086 L
3570 4086 L
3596 4086 L
3612 4086 L
3637 4086 L
3670 4086 L
3703 4086 L
3737 4086 L
3754 4086 L
3771 4086 L
3803 4086 L
3837 4086 L
3870 4086 L
3896 4086 L
3912 4086 L
3937 4086 L
3970 4086 L
4003 4086 L
4037 4086 L
4070 4086 L
LWMC SL dash04 C04 COSGR

GSN 753 1628 M
770 1628 L
803 1634 L
837 1641 L
870 1649 L
895 1659 L
911 1664 L
937 1670 L
970 1683 L
1003 1698 L
1037 1715 L
1053 1735 L
1070 1735 L
1103 1758 L
1137 1784 L
1170 1814 L
1195 1848 L
1211 1868 L
1237 1887 L
1270 1932 L
1303 1982 L
1337 2039 L
1353 2102 L
1370 2103 L
1403 2172 L
1437 2250 L
1470 2335 L
1495 2427 L
1512 2477 L
1537 2526 L
1570 2631 L
1603 2742 L
1637 2857 L
1653 2974 L
1670 2976 L
1703 3092 L
1737 3210 L
1770 3324 L
1795 3433 L
1812 3488 L
1837 3536 L
1870 3631 L
1903 3716 L
1937 3792 L
1953 3858 L
1971 3859 L
2003 3914 L
2037 3960 L
2070 3997 L
2095 4026 L
2112 4038 L
2137 4047 L
2170 4063 L
2203 4073 L
2237 4079 L
2253 4083 L
2271 4083 L
2303 4085 L
2337 4086 L
2370 4086 L
2395 4086 L
2412 4086 L
2437 4086 L
2470 4086 L
2503 4086 L
2537 4086 L
2553 4086 L
2571 4086 L
2603 4086 L
2637 4086 L
2670 4086 L
2695 4086 L
2712 4086 L
2737 4086 L
2770 4086 L
2803 4086 L
2837 4086 L
2854 4086 L
2871 4086 L
2903 4086 L
2937 4086 L
2970 4086 L
2995 4086 L
3012 4086 L
3037 4086 L
3061 4086 L
3077 4086 L
3103 4086 L
3137 4086 L
3154 4086 L
3171 4086 L
3203 4086 L
3237 4086 L
3270 4086 L
3296 4086 L
3312 4086 L
3337 4086 L
3370 4086 L
3403 4086 L
3437 4086 L
3454 4086 L
3471 4086 L
3503 4086 L
3537 4086 L
3570 4086 L
3596 4086 L
3612 4086 L
3637 4086 L
3670 4086 L
3703 4086 L
3737 4086 L
3754 4086 L
3771 4086 L
3803 4086 L
3837 4086 L
3870 4086 L
3896 4086 L
3912 4086 L
3937 4086 L
3970 4086 L
4003 4086 L
4037 4086 L
4070 4086 L
LWMC SL dash05 C05 COSGR

GSN 753 1644 M
770 1644 L
803 1651 L
837 1659 L
870 1668 L
895 1678 L
911 1684 L
937 1690 L
970 1704 L
1003 1719 L
1037 1738 L
1053 1759 L
1070 1759 L
1103 1784 L
1137 1812 L
1170 1844 L
1195 1880 L
1211 1901 L
1237 1922 L
1270 1970 L
1303 2023 L
1337 2083 L
1353 2150 L
1370 2151 L
1403 2225 L
1437 2307 L
1470 2397 L
1495 2494 L
1512 2547 L
1537 2599 L
1570 2709 L
1603 2825 L
1637 2944 L
1653 3066 L
1670 3068 L
1703 3188 L
1737 3307 L
1770 3423 L
1795 3533 L
1812 3587 L
1837 3634 L
1870 3726 L
1903 3808 L
1937 3878 L
1953 3936 L
1971 3937 L
2003 3982 L
2037 4018 L
2070 4044 L
2095 4062 L
2112 4069 L
2137 4074 L
2170 4080 L
2203 4084 L
2237 4085 L
2253 4086 L
2271 4086 L
2303 4086 L
2337 4086 L
2370 4086 L
2395 4086 L
2412 4086 L
2437 4086 L
2470 4086 L
2503 4086 L
2537 4086 L
2553 4086 L
2571 4086 L
2603 4086 L
2637 4086 L
2670 4086 L
2695 4086 L
2712 4086 L
2737 4086 L
2770 4086 L
2803 4086 L
2837 4086 L
2854 4086 L
2871 4086 L
2903 4086 L
2937 4086 L
2970 4086 L
2995 4086 L
3012 4086 L
3037 4086 L
3061 4086 L
3077 4086 L
3103 4086 L
3137 4086 L
3154 4086 L
3171 4086 L
3203 4086 L
3237 4086 L
3270 4086 L
3296 4086 L
3312 4086 L
3337 4086 L
3370 4086 L
3403 4086 L
3437 4086 L
3454 4086 L
3471 4086 L
3503 4086 L
3537 4086 L
3570 4086 L
3596 4086 L
3612 4086 L
3637 4086 L
3670 4086 L
3703 4086 L
3737 4086 L
3754 4086 L
3771 4086 L
3803 4086 L
3837 4086 L
3870 4086 L
3896 4086 L
3912 4086 L
3937 4086 L
3970 4086 L
4003 4086 L
4037 4086 L
4070 4086 L
LWMC SL dash06 C06 COSGR

GSN 753 753 M
770 753 L
803 764 L
837 777 L
870 792 L
895 810 L
911 820 L
937 830 L
970 854 L
1003 881 L
1037 912 L
1053 948 L
1070 948 L
1103 989 L
1137 1037 L
1170 1091 L
1195 1152 L
1211 1186 L
1237 1221 L
1270 1300 L
1303 1388 L
1337 1486 L
1353 1594 L
1370 1596 L
1403 1714 L
1437 1844 L
1470 1984 L
1495 2135 L
1512 2215 L
1537 2293 L
1570 2458 L
1603 2628 L
1637 2799 L
1653 2969 L
1670 2972 L
1703 3135 L
1737 3293 L
1770 3441 L
1795 3576 L
1812 3640 L
1837 3695 L
1870 3797 L
1903 3881 L
1937 3948 L
1953 3998 L
1971 3999 L
2003 4034 L
2037 4058 L
2070 4072 L
2095 4080 L
2112 4082 L
2137 4084 L
2170 4085 L
2203 4086 L
2237 4086 L
2253 4086 L
2271 4086 L
2303 4086 L
2337 4086 L
2370 4086 L
2395 4086 L
2412 4086 L
2437 4086 L
2470 4086 L
2503 4086 L
2537 4086 L
2553 4086 L
2571 4086 L
2603 4086 L
2637 4086 L
2670 4086 L
2695 4086 L
2712 4086 L
2737 4086 L
2770 4086 L
2803 4086 L
2837 4086 L
2854 4086 L
2871 4086 L
2903 4086 L
2937 4086 L
2970 4086 L
2995 4086 L
3012 4086 L
3037 4086 L
3061 4086 L
3077 4086 L
3103 4086 L
3137 4086 L
3154 4086 L
3171 4086 L
3203 4086 L
3237 4086 L
3270 4086 L
3296 4086 L
3312 4086 L
3337 4086 L
3370 4086 L
3403 4086 L
3437 4086 L
3454 4086 L
3471 4086 L
3503 4086 L
3537 4086 L
3570 4086 L
3596 4086 L
3612 4086 L
3637 4086 L
3670 4086 L
3703 4086 L
3737 4086 L
3754 4086 L
3771 4086 L
3803 4086 L
3837 4086 L
3870 4086 L
3896 4086 L
3912 4086 L
3937 4086 L
3970 4086 L
4003 4086 L
4037 4086 L
4070 4086 L
LWMC SL dash07 C07 COSGR

%
%================
% Legend - Begin
%================
%
GSN 4240 4040 M
4480 4040 L
LWMC SL dash01 C01 COSGR
GSN 4540 4001 M helvM (0.5 uM) show grestore
GSN 4240 3860 M
4480 3860 L
LWMC SL dash02 C02 COSGR
GSN 4540 3821 M helvM (1.0 uM) show grestore
GSN 4240 3680 M
4480 3680 L
LWMC SL dash03 C03 COSGR
GSN 4540 3641 M helvM (1.5 uM) show grestore
GSN 4240 3500 M
4480 3500 L
LWMC SL dash04 C04 COSGR
GSN 4540 3461 M helvM (2.0 uM) show grestore
GSN 4240 3320 M
4480 3320 L
LWMC SL dash05 C05 COSGR
GSN 4540 3281 M helvM (2.5 uM) show grestore
GSN 4240 3140 M
4480 3140 L
LWMC SL dash06 C06 COSGR
GSN 4540 3101 M helvM (3.0 uM) show grestore
GSN 4240 2960 M
4480 2960 L
LWMC SL dash07 C07 COSGR
GSN 4540 2921 M helvM (4.0 uM) show grestore
%
%================
% Legend - End
%================
%

%
% Main frame
%
L10
GSN 
620 620 M
4220 620 L
4220 4220 L
620 4220 L
closepath SGR

%
% X axis: large tics
%
L10
GSN 1074 620 M 0  54 rL SGR
GSN 1074 4220 M 0 -54 rL SGR
helvS (0.0001) 1074 470 xlabel
GSN 1572 620 M 0  54 rL SGR
GSN 1572 4220 M 0 -54 rL SGR
helvS (0.001) 1572 470 xlabel
GSN 2071 620 M 0  54 rL SGR
GSN 2071 4220 M 0 -54 rL SGR
helvS (0.01) 2071 470 xlabel
GSN 2570 620 M 0  54 rL SGR
GSN 2570 4220 M 0 -54 rL SGR
helvS (0.1) 2570 470 xlabel
GSN 3068 620 M 0  54 rL SGR
GSN 3068 4220 M 0 -54 rL SGR
helvS (1) 3068 470 xlabel
GSN 3567 620 M 0  54 rL SGR
GSN 3567 4220 M 0 -54 rL SGR
helvS (10) 3567 470 xlabel
GSN 4066 620 M 0  54 rL SGR
GSN 4066 4220 M 0 -54 rL SGR
helvS (100) 4066 470 xlabel
%
% X axis: small tics
%
L5
GSN 725 620 M 0  36 rL SGR
GSN 725 4220 M 0 -36 rL SGR
GSN 813 620 M 0  36 rL SGR
GSN 813 4220 M 0 -36 rL SGR
GSN 875 620 M 0  36 rL SGR
GSN 875 4220 M 0 -36 rL SGR
GSN 924 620 M 0  36 rL SGR
GSN 924 4220 M 0 -36 rL SGR
GSN 963 620 M 0  36 rL SGR
GSN 963 4220 M 0 -36 rL SGR
GSN 996 620 M 0  36 rL SGR
GSN 996 4220 M 0 -36 rL SGR
GSN 1025 620 M 0  36 rL SGR
GSN 1025 4220 M 0 -36 rL SGR
GSN 1051 620 M 0  36 rL SGR
GSN 1051 4220 M 0 -36 rL SGR
GSN 1224 620 M 0  36 rL SGR
GSN 1224 4220 M 0 -36 rL SGR
GSN 1312 620 M 0  36 rL SGR
GSN 1312 4220 M 0 -36 rL SGR
GSN 1374 620 M 0  36 rL SGR
GSN 1374 4220 M 0 -36 rL SGR
GSN 1422 620 M 0  36 rL SGR
GSN 1422 4220 M 0 -36 rL SGR
GSN 1462 620 M 0  36 rL SGR
GSN 1462 4220 M 0 -36 rL SGR
GSN 1495 620 M 0  36 rL SGR
GSN 1495 4220 M 0 -36 rL SGR
GSN 1524 620 M 0  36 rL SGR
GSN 1524 4220 M 0 -36 rL SGR
GSN 1550 620 M 0  36 rL SGR
GSN 1550 4220 M 0 -36 rL SGR
GSN 1722 620 M 0  36 rL SGR
GSN 1722 4220 M 0 -36 rL SGR
GSN 1810 620 M 0  36 rL SGR
GSN 1810 4220 M 0 -36 rL SGR
GSN 1873 620 M 0  36 rL SGR
GSN 1873 4220 M 0 -36 rL SGR
GSN 1921 620 M 0  36 rL SGR
GSN 1921 4220 M 0 -36 rL SGR
GSN 1960 620 M 0  36 rL SGR
GSN 1960 4220 M 0 -36 rL SGR
GSN 1994 620 M 0  36 rL SGR
GSN 1994 4220 M 0 -36 rL SGR
GSN 2023 620 M 0  36 rL SGR
GSN 2023 4220 M 0 -36 rL SGR
GSN 2048 620 M 0  36 rL SGR
GSN 2048 4220 M 0 -36 rL SGR
GSN 2221 620 M 0  36 rL SGR
GSN 2221 4220 M 0 -36 rL SGR
GSN 2309 620 M 0  36 rL SGR
GSN 2309 4220 M 0 -36 rL SGR
GSN 2371 620 M 0  36 rL SGR
GSN 2371 4220 M 0 -36 rL SGR
GSN 2420 620 M 0  36 rL SGR
GSN 2420 4220 M 0 -36 rL SGR
GSN 2459 620 M 0  36 rL SGR
GSN 2459 4220 M 0 -36 rL SGR
GSN 2492 620 M 0  36 rL SGR
GSN 2492 4220 M 0 -36 rL SGR
GSN 2521 620 M 0  36 rL SGR
GSN 2521 4220 M 0 -36 rL SGR
GSN 2547 620 M 0  36 rL SGR
GSN 2547 4220 M 0 -36 rL SGR
GSN 2720 620 M 0  36 rL SGR
GSN 2720 4220 M 0 -36 rL SGR
GSN 2808 620 M 0  36 rL SGR
GSN 2808 4220 M 0 -36 rL SGR
GSN 2870 620 M 0  36 rL SGR
GSN 2870 4220 M 0 -36 rL SGR
GSN 2918 620 M 0  36 rL SGR
GSN 2918 4220 M 0 -36 rL SGR
GSN 2958 620 M 0  36 rL SGR
GSN 2958 4220 M 0 -36 rL SGR
GSN 2991 620 M 0  36 rL SGR
GSN 2991 4220 M 0 -36 rL SGR
GSN 3020 620 M 0  36 rL SGR
GSN 3020 4220 M 0 -36 rL SGR
GSN 3045 620 M 0  36 rL SGR
GSN 3045 4220 M 0 -36 rL SGR
GSN 3218 620 M 0  36 rL SGR
GSN 3218 4220 M 0 -36 rL SGR
GSN 3306 620 M 0  36 rL SGR
GSN 3306 4220 M 0 -36 rL SGR
GSN 3368 620 M 0  36 rL SGR
GSN 3368 4220 M 0 -36 rL SGR
GSN 3417 620 M 0  36 rL SGR
GSN 3417 4220 M 0 -36 rL SGR
GSN 3456 620 M 0  36 rL SGR
GSN 3456 4220 M 0 -36 rL SGR
GSN 3490 620 M 0  36 rL SGR
GSN 3490 4220 M 0 -36 rL SGR
GSN 3519 620 M 0  36 rL SGR
GSN 3519 4220 M 0 -36 rL SGR
GSN 3544 620 M 0  36 rL SGR
GSN 3544 4220 M 0 -36 rL SGR
GSN 3717 620 M 0  36 rL SGR
GSN 3717 4220 M 0 -36 rL SGR
GSN 3805 620 M 0  36 rL SGR
GSN 3805 4220 M 0 -36 rL SGR
GSN 3867 620 M 0  36 rL SGR
GSN 3867 4220 M 0 -36 rL SGR
GSN 3915 620 M 0  36 rL SGR
GSN 3915 4220 M 0 -36 rL SGR
GSN 3955 620 M 0  36 rL SGR
GSN 3955 4220 M 0 -36 rL SGR
GSN 3988 620 M 0  36 rL SGR
GSN 3988 4220 M 0 -36 rL SGR
GSN 4017 620 M 0  36 rL SGR
GSN 4017 4220 M 0 -36 rL SGR
GSN 4043 620 M 0  36 rL SGR
GSN 4043 4220 M 0 -36 rL SGR
GSN 4216 620 M 0  36 rL SGR
GSN 4216 4220 M 0 -36 rL SGR
%
% Y axis: large tics
%
L10
GSN 620 986 M 54 0 rL SGR
GSN 4220 986 M -54 0 rL SGR
helvS (-60) 560 986 ylabel
GSN 620 2019 M 54 0 rL SGR
GSN 4220 2019 M -54 0 rL SGR
helvS (-40) 560 2019 ylabel
GSN 620 3053 M 54 0 rL SGR
GSN 4220 3053 M -54 0 rL SGR
helvS (-20) 560 3053 ylabel
GSN 620 4086 M 54 0 rL SGR
GSN 4220 4086 M -54 0 rL SGR
helvS (0) 560 4086 ylabel
%
% Y axis: small tics
%
L5
GSN 620 728 M 36 0 rL SGR
GSN 4220 728 M -36 0 rL SGR
GSN 620 986 M 36 0 rL SGR
GSN 4220 986 M -36 0 rL SGR
GSN 620 1244 M 36 0 rL SGR
GSN 4220 1244 M -36 0 rL SGR
GSN 620 1503 M 36 0 rL SGR
GSN 4220 1503 M -36 0 rL SGR
GSN 620 1761 M 36 0 rL SGR
GSN 4220 1761 M -36 0 rL SGR
GSN 620 2019 M 36 0 rL SGR
GSN 4220 2019 M -36 0 rL SGR
GSN 620 2278 M 36 0 rL SGR
GSN 4220 2278 M -36 0 rL SGR
GSN 620 2536 M 36 0 rL SGR
GSN 4220 2536 M -36 0 rL SGR
GSN 620 2794 M 36 0 rL SGR
GSN 4220 2794 M -36 0 rL SGR
GSN 620 3053 M 36 0 rL SGR
GSN 4220 3053 M -36 0 rL SGR
GSN 620 3311 M 36 0 rL SGR
GSN 4220 3311 M -36 0 rL SGR
GSN 620 3569 M 36 0 rL SGR
GSN 4220 3569 M -36 0 rL SGR
GSN 620 3828 M 36 0 rL SGR
GSN 4220 3828 M -36 0 rL SGR
GSN 620 4086 M 36 0 rL SGR
GSN 4220 4086 M -36 0 rL SGR

%
% X axis
%
GSN L5 620 4086 M 4220 4086 L SDA G50 SGR

%
% X-Axis label:
%
gsave 2420 290 M 
[
[(Helvetica) 180 0 true true 0 (t)]
[(Helvetica) 180 0 true true 0 (i)]
[(Helvetica) 180 0 true true 0 (m)]
[(Helvetica) 180 0 true true 0 (e)]
] 0 MCshow grestore

%
% Y-Axis label:
%
gsave 234 2420 M 
currentpoint gsave translate 90 rotate 0 0 moveto
[
[(Helvetica) 180 0 true true 0 (d)]
[(Helvetica) 180 0 true true 0 (\()]
[(Helvetica) 180 0 true true 0 (s)]
[(Helvetica) 180 0 true true 0 (i)]
[(Helvetica) 180 0 true true 0 (g)]
[(Helvetica) 180 0 true true 0 (n)]
[(Helvetica) 180 0 true true 0 (a)]
[(Helvetica) 180 0 true true 0 (l)]
[(Helvetica) 180 0 true true 0 (\))]
[(Helvetica) 180 0 true true 0 ( )]
[(Helvetica) 180 0 true true 0 (/)]
[(Helvetica) 180 0 true true 0 ( )]
[(Helvetica) 180 0 true true 0 (d)]
[(Helvetica) 180 0 true true 0 (t)]
] 0 MCshow grestore

end
showpage
%%Trailer
%%EOF
