%!PS-Adobe-3.0 EPSF-3.0
%%BoundingBox: 0 0 514 550
%%Creator: BioKin Ltd.
%%DocumentFonts: Symbol Helvetica
%%EndComments
%
/bkdict 256 dict def
bkdict begin
/M {moveto} def 
/R {rmoveto} def
/L {lineto} def
/rL {rlineto} def
/GSN {gsave newpath} def
/SGR {stroke grestore} def
/COSGR {gsave setrgbcolor stroke grestore grestore} def
/SL {setlinewidth} def
/LWMB {12} def             % line width - model curves, black & white
/LWMC {10} def             % line width - model curves, color
/L2 {2.5 setlinewidth} def
/L5 {5 setlinewidth} def
/L10 {10 setlinewidth} def
/G50 {0.5 setgray} def
/SDA {[10  20] 0 setdash} def % axes
/helvT {/Helvetica findfont 100 scalefont setfont} def % tiny
/helvS {/Helvetica findfont 125 scalefont setfont} def % small
/helvM {/Helvetica findfont 150 scalefont setfont} def % medium
/helvL {/Helvetica findfont 175 scalefont setfont} def % large
/xlabel {gsave M dup
   stringwidth exch -0.5 mul exch rmoveto show grestore} def 
/ylabel {gsave M 90 rotate dup
   stringwidth exch -0.5 mul exch rmoveto show grestore} def
/ylabelresid {gsave M dup
   stringwidth exch -1 mul exch rmoveto show grestore} def
% ======
% Shapes
% ======
% Circle:
/Circ {0 360 arc closepath} def
%
% Square:
/Squa {dup dup -0.5 mul dup dup R -2 mul 0 exch rL 1 mul 0 rL dup 0 exch -1 mul rL closepath} def
%
% Triangle Up:
/TriU {dup dup dup -0.4 mul exch -0.5 mul exch R dup 0.5 mul exch rL dup -1 mul exch 0.5 mul exch rL closepath} def 
%
% Triangle Down:
/TriD {dup dup dup 0.4 mul exch -0.5 mul exch R dup 0.5 mul exch -1 mul rL dup 0.5 mul exch rL closepath} def 
%
% Diamond:
/Diam {45 rotate Squa} def
% ======
% Fills
% ======
/GRF {gsave setgray fill grestore} def                    % gray-level Fill
/COF {gsave setrgbcolor fill grestore} def                % color fill
% ======
% Colors
% ======
/C01 {1.00	0.00	0.00} def      % Red
/C02 {0.00	0.00	1.00} def      % Blue
/C03 {0.00	0.39	0.00} def      % Dark Green
/C04 {0.78	0.08	0.52} def      % Medium Violet Red
/C05 {0.55	0.27	0.07} def      % Saddle Brown
/C06 {0.10	0.70	0.70} def      % (cyan)
/C07 {1.00	0.55	0.00} def      % Dark Orange
/C08 {0.63	0.13	0.94} def      % Purple
/C09 {0.00	0.75	1.00} def      % Deep Sky Blue
/C10 {0.20	0.80	0.20} def      % Lime Green
/C11 {0.47	0.53	0.60} def      % Light Slate Gray
/C12 {0.00	0.00	0.00} def      % Black            % or: {0.19	0.31	0.31} def      % Dark Slate Gray
%
/LGR {0.75} def % light gray
/DGR {0.33} def % dark gray
%
% =============
% Dash patterns
% =============
/dash01 { [80  20] 0 setdash } def
/dash02 { [40  20] 0 setdash } def
/dash03 { [80  20  10  20] 0 setdash } def
/dash04 { [40  20  10  20] 0 setdash } def
/dash05 { [80  20  10  10  10  20] 0 setdash } def
/dash06 { [40  20  10  10  10  20] 0 setdash } def
/dash07 { [10  10] 0 setdash } def
%
/MFshow {
   { dup 5 get 3 ge
     { 5 get 3 eq {gsave} {grestore} ifelse }
     {dup dup 0 get findfont exch 1 get scalefont setfont
     [ currentpoint ] exch dup 2 get 0 exch R dup 5 get 2 ne {dup dup 6
     get exch 4 get {show} {stringwidth pop 0 R} ifelse }if dup 5 get 0 eq
     {dup 3 get {2 get neg 0 exch R pop} {pop aload pop M} ifelse} {dup 5
     get 1 eq {dup 2 get exch dup 3 get exch 6 get stringwidth pop -2 div
     dup 0 R} {dup 6 get stringwidth pop -2 div 0 R 6 get
     show 2 index {aload pop M neg 3 -1 roll neg R pop pop} {pop pop pop
     pop aload pop M} ifelse }ifelse }ifelse }
     ifelse }
   forall} bind def
/MFwidth {0 exch {dup 3 get{dup dup 0 get findfont exch 1 get scalefont
     setfont 6 get stringwidth pop add} {pop} ifelse} forall} bind def
/MCshow { currentpoint stroke M
  exch dup MFwidth -2 div 3 -1 roll R MFshow } def
%
end
%%EndProlog
bkdict begin
0.1 0.1 scale
%
% Residuals:
%
GSN 620 3361 M
620 2824 L
620 3205 L
620 4512 L
620 4433 L
620 3846 L
620 3762 L
620 3470 L
620 3501 L
620 3522 L
620 3313 L
620 3874 L
620 3179 L
620 3710 L
620 3747 L
620 3372 L
620 3299 L
620 3474 L
620 3218 L
620 3564 L
620 3337 L
620 3367 L
620 3659 L
620 3846 L
620 2956 L
620 3502 L
620 4221 L
620 3528 L
620 3672 L
620 3561 L
620 3448 L
620 3472 L
620 3085 L
620 3870 L
620 3667 L
620 3571 L
620 3156 L
620 3887 L
620 3836 L
620 3266 L
620 3392 L
620 3444 L
620 3585 L
620 3007 L
620 2868 L
620 3817 L
620 3302 L
620 2967 L
620 3147 L
620 3620 L
620 2601 L
620 2821 L
620 3328 L
620 3543 L
620 2992 L
620 3578 L
620 3570 L
620 3376 L
620 2858 L
620 3664 L
620 4075 L
620 3661 L
620 2887 L
620 2557 L
620 3355 L
620 3070 L
620 3071 L
620 3253 L
620 3444 L
620 2705 L
620 4027 L
620 3238 L
620 3120 L
620 3084 L
620 3553 L
620 2701 L
620 4023 L
620 3595 L
620 3896 L
620 3080 L
620 3415 L
620 3207 L
620 3233 L
620 3047 L
620 2951 L
620 3012 L
620 3151 L
620 3673 L
620 2858 L
620 3007 L
620 3744 L
620 3206 L
620 3350 L
620 3203 L
620 3190 L
620 3383 L
620 2407 L
620 3334 L
620 3128 L
620 3003 L
620 3227 L
620 3101 L
620 2389 L
620 2767 L
620 3647 L
620 2773 L
620 3213 L
620 3710 L
620 2960 L
620 3082 L
620 2574 L
620 2409 L
620 2763 L
620 2628 L
620 2789 L
620 2720 L
620 2954 L
620 2775 L
620 2771 L
620 3177 L
620 2492 L
620 2793 L
620 2893 L
620 2830 L
620 2477 L
620 2724 L
620 3419 L
620 2901 L
620 3051 L
620 2537 L
620 3157 L
620 3097 L
620 2702 L
620 2437 L
620 4003 L
620 3116 L
620 2675 L
620 2413 L
620 3082 L
620 3408 L
620 2712 L
620 2885 L
620 3765 L
620 3112 L
620 3245 L
620 3423 L
620 3014 L
620 3492 L
620 2721 L
620 2973 L
620 3481 L
620 3267 L
620 3381 L
620 2954 L
620 3503 L
620 3931 L
620 3089 L
620 3719 L
620 2934 L
620 3069 L
620 3520 L
620 2807 L
620 3646 L
620 3791 L
620 3369 L
620 3379 L
620 3110 L
620 3669 L
620 3426 L
620 2576 L
620 3114 L
620 3850 L
620 3468 L
620 2938 L
620 2963 L
620 3545 L
620 3664 L
620 2830 L
620 3530 L
620 2980 L
620 3257 L
620 3280 L
620 2661 L
620 3908 L
620 3268 L
620 3309 L
620 4337 L
620 3731 L
620 3874 L
620 3884 L
620 3847 L
620 3285 L
620 3397 L
620 3478 L
620 2416 L
620 3097 L
620 3727 L
620 3764 L
620 3079 L
620 3121 L
620 3763 L
620 3388 L
620 3569 L
620 3962 L
620 3260 L
620 3601 L
620 3329 L
620 3468 L
620 3319 L
620 3837 L
620 3980 L
620 3932 L
620 3356 L
620 3559 L
620 3142 L
620 3937 L
620 3237 L
620 3568 L
620 4057 L
620 3564 L
620 3736 L
620 3835 L
620 3472 L
620 3278 L
620 3493 L
620 4027 L
620 3887 L
620 3673 L
620 4016 L
620 3614 L
620 3133 L
620 3620 L
620 3288 L
620 3762 L
620 3518 L
620 3742 L
620 3816 L
620 4094 L
620 3559 L
620 3681 L
620 3948 L
620 3411 L
620 3923 L
620 3645 L
620 3678 L
620 3175 L
620 2919 L
620 4249 L
620 4094 L
620 4001 L
620 3869 L
620 3332 L
620 4109 L
620 3297 L
620 3866 L
620 3993 L
620 4145 L
620 4305 L
620 3904 L
620 3728 L
620 3748 L
620 3390 L
620 3890 L
620 3854 L
620 4066 L
620 3896 L
620 4229 L
620 3326 L
620 4120 L
620 3345 L
620 4242 L
620 3204 L
620 3403 L
620 3176 L
620 4102 L
620 3346 L
620 3996 L
620 3097 L
620 3865 L
620 4268 L
620 3802 L
620 4386 L
620 4272 L
620 4420 L
620 3848 L
620 3688 L
620 4469 L
620 4310 L
620 3191 L
620 3896 L
620 4008 L
620 3892 L
620 4262 L
620 4634 L
620 4156 L
620 4211 L
620 4232 L
620 4330 L
620 4297 L
620 4438 L
620 4241 L
620 3585 L
620 3665 L
620 3796 L
620 3882 L
620 4658 L
620 4054 L
620 4495 L
620 4230 L
620 4763 L
620 4590 L
620 4207 L
620 4718 L
620 4040 L
620 4768 L
620 4029 L
620 4790 L
620 4118 L
620 4550 L
620 4576 L
620 4011 L
620 4109 L
620 4187 L
620 4129 L
620 4447 L
620 3836 L
620 4721 L
620 3981 L
620 3504 L
620 4302 L
620 3236 L
620 4037 L
620 3847 L
620 4006 L
620 3439 L
620 4863 L
620 3272 L
620 3886 L
620 4051 L
620 4302 L
620 3702 L
620 3970 L
620 4151 L
620 4165 L
620 4249 L
620 4176 L
620 4040 L
620 3878 L
620 3183 L
620 3052 L
620 4219 L
620 4151 L
620 3825 L
620 3433 L
620 3721 L
620 4073 L
620 3984 L
620 3990 L
620 3872 L
620 4056 L
620 3816 L
620 4087 L
620 3551 L
620 2982 L
620 3551 L
620 3646 L
620 4040 L
620 3629 L
620 3529 L
620 4046 L
620 4651 L
620 3398 L
620 3688 L
620 3811 L
620 3908 L
620 3509 L
620 3239 L
620 3091 L
620 3387 L
620 4307 L
620 4073 L
620 3239 L
620 3498 L
620 3370 L
620 3272 L
620 2929 L
620 3830 L
620 3038 L
620 3258 L
620 3763 L
620 4046 L
620 2853 L
620 3478 L
620 3621 L
620 3146 L
620 2957 L
620 3484 L
620 3353 L
620 2697 L
620 3297 L
620 2965 L
620 3654 L
620 3822 L
620 3035 L
620 2711 L
620 3847 L
620 2661 L
620 3082 L
620 3654 L
620 3395 L
620 3138 L
620 3202 L
620 3141 L
620 3225 L
620 3627 L
620 2979 L
620 2817 L
620 3015 L
620 3238 L
620 3504 L
620 2649 L
620 3230 L
620 2900 L
620 3144 L
620 3051 L
620 3161 L
620 3166 L
620 2535 L
620 3875 L
620 3090 L
620 3188 L
620 3191 L
620 2150 L
620 3244 L
620 2789 L
620 3509 L
620 2940 L
620 3286 L
620 3211 L
620 3375 L
620 3222 L
620 3233 L
620 3286 L
620 2759 L
620 3250 L
620 2616 L
620 2834 L
620 3529 L
620 2867 L
620 3264 L
620 3347 L
620 3386 L
620 2789 L
620 2437 L
620 2770 L
620 2415 L
620 3146 L
620 3161 L
620 2859 L
620 2756 L
620 2700 L
620 2650 L
620 2820 L
620 3105 L
620 2948 L
620 2275 L
620 2909 L
620 3060 L
620 2797 L
620 2136 L
620 2524 L
620 3459 L
620 3093 L
620 2954 L
620 2365 L
620 2315 L
620 2602 L
620 2460 L
620 3052 L
620 2418 L
620 2281 L
620 2937 L
620 2834 L
620 2850 L
620 3510 L
620 2415 L
620 3101 L
620 2820 L
620 2161 L
620 2323 L
620 2783 L
620 2960 L
620 2630 L
620 2641 L
620 2917 L
620 2962 L
620 3545 L
620 3228 L
620 3442 L
620 2510 L
620 2639 L
620 2996 L
620 3057 L
620 2636 L
620 2797 L
620 2502 L
620 3171 L
620 2619 L
620 2747 L
620 3266 L
620 3389 L
620 2795 L
620 2987 L
620 3085 L
620 2982 L
620 2356 L
620 2929 L
620 3214 L
620 2544 L
620 2850 L
620 2789 L
620 2926 L
620 2331 L
620 2915 L
620 3004 L
620 3356 L
620 2602 L
620 2999 L
620 2454 L
620 3038 L
620 2747 L
620 2951 L
620 2892 L
L2 C03 COSGR

%
%================
% Legend - Begin
%================
%
GSN 4240 5180 M
4480 5180 L
LWMC SL  C03 COSGR
GSN 4540 5141 M helvM (1.5 uM) show grestore
%
%================
% Legend - End
%================
%

%
% Main frame
%
L10
GSN 
620 1700 M
4220 1700 L
4220 5300 L
620 5300 L
closepath SGR

%
% X axis: large tics
%
L10
%
% X axis: small tics
%
L5
%
% Y axis: large tics
%
L10
GSN 620 1931 M 54 0 rL SGR
GSN 4220 1931 M -54 0 rL SGR
helvS (-0.01) 560 1931 ylabel
GSN 620 3394 M 54 0 rL SGR
GSN 4220 3394 M -54 0 rL SGR
helvS (0) 560 3394 ylabel
GSN 620 4857 M 54 0 rL SGR
GSN 4220 4857 M -54 0 rL SGR
helvS (0.01) 560 4857 ylabel
%
% Y axis: small tics
%
L5
GSN 620 1931 M 36 0 rL SGR
GSN 4220 1931 M -36 0 rL SGR
GSN 620 2297 M 36 0 rL SGR
GSN 4220 2297 M -36 0 rL SGR
GSN 620 2662 M 36 0 rL SGR
GSN 4220 2662 M -36 0 rL SGR
GSN 620 3028 M 36 0 rL SGR
GSN 4220 3028 M -36 0 rL SGR
GSN 620 3394 M 36 0 rL SGR
GSN 4220 3394 M -36 0 rL SGR
GSN 620 3760 M 36 0 rL SGR
GSN 4220 3760 M -36 0 rL SGR
GSN 620 4126 M 36 0 rL SGR
GSN 4220 4126 M -36 0 rL SGR
GSN 620 4492 M 36 0 rL SGR
GSN 4220 4492 M -36 0 rL SGR
GSN 620 4857 M 36 0 rL SGR
GSN 4220 4857 M -36 0 rL SGR
GSN 620 5223 M 36 0 rL SGR
GSN 4220 5223 M -36 0 rL SGR

%
% X axis - residual panel
%
GSN L5 620 3394 M 4220 3394 L SDA G50 SGR

%
% X-Axis label:
%
gsave 620 1370 M 
[
[(Helvetica) 180 0 true true 0 (t)]
[(Helvetica) 180 0 true true 0 (i)]
[(Helvetica) 180 0 true true 0 (m)]
[(Helvetica) 180 0 true true 0 (e)]
] 0 MCshow grestore

%
% Y-Axis label:
%
gsave 234 3500 M 
currentpoint gsave translate 90 rotate 0 0 moveto
[
[(Helvetica) 180 0 true true 0 (r)]
[(Helvetica) 180 0 true true 0 (e)]
[(Helvetica) 180 0 true true 0 (s)]
[(Helvetica) 180 0 true true 0 (i)]
[(Helvetica) 180 0 true true 0 (d)]
[(Helvetica) 180 0 true true 0 (u)]
[(Helvetica) 180 0 true true 0 (a)]
[(Helvetica) 180 0 true true 0 (l)]
[(Helvetica) 180 0 true true 0 (s)]
] 0 MCshow grestore

end
showpage
%%Trailer
%%EOF
