%!PS-Adobe-3.0 EPSF-3.0
%%BoundingBox: 0 0 514 550
%%Creator: BioKin Ltd.
%%DocumentFonts: Symbol Helvetica
%%EndComments
%
/bkdict 256 dict def
bkdict begin
/M {moveto} def 
/R {rmoveto} def
/L {lineto} def
/rL {rlineto} def
/GSN {gsave newpath} def
/SGR {stroke grestore} def
/COSGR {gsave setrgbcolor stroke grestore grestore} def
/SL {setlinewidth} def
/LWMB {12} def             % line width - model curves, black & white
/LWMC {10} def             % line width - model curves, color
/L2 {2.5 setlinewidth} def
/L5 {5 setlinewidth} def
/L10 {10 setlinewidth} def
/G50 {0.5 setgray} def
/SDA {[10  20] 0 setdash} def % axes
/helvT {/Helvetica findfont 100 scalefont setfont} def % tiny
/helvS {/Helvetica findfont 125 scalefont setfont} def % small
/helvM {/Helvetica findfont 150 scalefont setfont} def % medium
/helvL {/Helvetica findfont 175 scalefont setfont} def % large
/xlabel {gsave M dup
   stringwidth exch -0.5 mul exch rmoveto show grestore} def 
/ylabel {gsave M 90 rotate dup
   stringwidth exch -0.5 mul exch rmoveto show grestore} def
/ylabelresid {gsave M dup
   stringwidth exch -1 mul exch rmoveto show grestore} def
% ======
% Shapes
% ======
% Circle:
/Circ {0 360 arc closepath} def
%
% Square:
/Squa {dup dup -0.5 mul dup dup R -2 mul 0 exch rL 1 mul 0 rL dup 0 exch -1 mul rL closepath} def
%
% Triangle Up:
/TriU {dup dup dup -0.4 mul exch -0.5 mul exch R dup 0.5 mul exch rL dup -1 mul exch 0.5 mul exch rL closepath} def 
%
% Triangle Down:
/TriD {dup dup dup 0.4 mul exch -0.5 mul exch R dup 0.5 mul exch -1 mul rL dup 0.5 mul exch rL closepath} def 
%
% Diamond:
/Diam {45 rotate Squa} def
% ======
% Fills
% ======
/GRF {gsave setgray fill grestore} def                    % gray-level Fill
/COF {gsave setrgbcolor fill grestore} def                % color fill
% ======
% Colors
% ======
/C01 {1.00	0.00	0.00} def      % Red
/C02 {0.00	0.00	1.00} def      % Blue
/C03 {0.00	0.39	0.00} def      % Dark Green
/C04 {0.78	0.08	0.52} def      % Medium Violet Red
/C05 {0.55	0.27	0.07} def      % Saddle Brown
/C06 {0.10	0.70	0.70} def      % (cyan)
/C07 {1.00	0.55	0.00} def      % Dark Orange
/C08 {0.63	0.13	0.94} def      % Purple
/C09 {0.00	0.75	1.00} def      % Deep Sky Blue
/C10 {0.20	0.80	0.20} def      % Lime Green
/C11 {0.47	0.53	0.60} def      % Light Slate Gray
/C12 {0.00	0.00	0.00} def      % Black            % or: {0.19	0.31	0.31} def      % Dark Slate Gray
%
/LGR {0.75} def % light gray
/DGR {0.33} def % dark gray
%
% =============
% Dash patterns
% =============
/dash01 { [80  20] 0 setdash } def
/dash02 { [40  20] 0 setdash } def
/dash03 { [80  20  10  20] 0 setdash } def
/dash04 { [40  20  10  20] 0 setdash } def
/dash05 { [80  20  10  10  10  20] 0 setdash } def
/dash06 { [40  20  10  10  10  20] 0 setdash } def
/dash07 { [10  10] 0 setdash } def
%
/MFshow {
   { dup 5 get 3 ge
     { 5 get 3 eq {gsave} {grestore} ifelse }
     {dup dup 0 get findfont exch 1 get scalefont setfont
     [ currentpoint ] exch dup 2 get 0 exch R dup 5 get 2 ne {dup dup 6
     get exch 4 get {show} {stringwidth pop 0 R} ifelse }if dup 5 get 0 eq
     {dup 3 get {2 get neg 0 exch R pop} {pop aload pop M} ifelse} {dup 5
     get 1 eq {dup 2 get exch dup 3 get exch 6 get stringwidth pop -2 div
     dup 0 R} {dup 6 get stringwidth pop -2 div 0 R 6 get
     show 2 index {aload pop M neg 3 -1 roll neg R pop pop} {pop pop pop
     pop aload pop M} ifelse }ifelse }ifelse }
     ifelse }
   forall} bind def
/MFwidth {0 exch {dup 3 get{dup dup 0 get findfont exch 1 get scalefont
     setfont 6 get stringwidth pop add} {pop} ifelse} forall} bind def
/MCshow { currentpoint stroke M
  exch dup MFwidth -2 div 3 -1 roll R MFshow } def
%
end
%%EndProlog
bkdict begin
0.1 0.1 scale
%
% Model curves:
%

GSN 753 5145 M
753 5145 L
786 5147 L
820 5149 L
853 5151 L
886 5154 L
903 5155 L
919 5156 L
953 5159 L
986 5161 L
1020 5163 L
1053 5164 L
1053 5164 L
1086 5166 L
1120 5166 L
1153 5166 L
1186 5165 L
1203 5164 L
1220 5162 L
1253 5159 L
1286 5155 L
1320 5149 L
1353 5142 L
1353 5142 L
1386 5133 L
1420 5124 L
1453 5112 L
1486 5099 L
1503 5091 L
1520 5083 L
1553 5065 L
1586 5044 L
1620 5020 L
1653 4993 L
1653 4992 L
1686 4961 L
1720 4925 L
1753 4883 L
1786 4836 L
1804 4809 L
1820 4782 L
1853 4722 L
1886 4653 L
1920 4577 L
1953 4492 L
1954 4490 L
1986 4398 L
2020 4295 L
2053 4184 L
2086 4064 L
2104 3997 L
2120 3936 L
2153 3802 L
2186 3664 L
2220 3522 L
2253 3381 L
2254 3376 L
2286 3241 L
2320 3107 L
2353 2982 L
2386 2867 L
2404 2811 L
2420 2765 L
2453 2678 L
2486 2607 L
2520 2552 L
2553 2512 L
2554 2510 L
2586 2484 L
2620 2467 L
2653 2457 L
2686 2452 L
2704 2450 L
2720 2449 L
2753 2449 L
2786 2448 L
2820 2448 L
2853 2448 L
2854 2448 L
2886 2448 L
2920 2448 L
2953 2448 L
2986 2448 L
3004 2448 L
3020 2448 L
3053 2448 L
3068 2448 L
3086 2448 L
3120 2448 L
3153 2448 L
3155 2448 L
3186 2448 L
3220 2448 L
3253 2448 L
3286 2448 L
3305 2448 L
3320 2448 L
3353 2448 L
3386 2448 L
3420 2448 L
3453 2448 L
3455 2448 L
3486 2448 L
3520 2448 L
3553 2448 L
3586 2448 L
3605 2448 L
3620 2448 L
3653 2448 L
3686 2448 L
3720 2448 L
3753 2448 L
3755 2448 L
3786 2448 L
3820 2448 L
3853 2448 L
3886 2448 L
3905 2448 L
3920 2448 L
3953 2448 L
3986 2448 L
4020 2448 L
4053 2448 L
4086 2448 L
LWMC SL  C07 COSGR

%
% Experimental data:
%
GSN 773 4973 M
1625 4543 L
1773 4380 L
1860 4335 L
1922 4331 L
1970 4000 L
2009 4339 L
2043 4124 L
2072 4112 L
2097 4006 L
2120 3748 L
2140 3964 L
2159 3754 L
2176 3672 L
2192 3751 L
2207 3608 L
2221 3551 L
2234 3664 L
2247 3404 L
2259 3566 L
2270 3608 L
2280 3479 L
2290 3605 L
2300 3372 L
2309 3507 L
2318 3553 L
2326 3273 L
2335 3373 L
2342 3340 L
2350 3439 L
2357 3200 L
2364 3056 L
2371 3426 L
2378 3119 L
2384 3283 L
2391 3181 L
2397 3120 L
2403 3132 L
2409 3087 L
2414 3039 L
2420 2876 L
2425 3089 L
2430 2982 L
2435 2971 L
2440 2968 L
2445 2852 L
2450 2969 L
2455 2761 L
2459 2766 L
2464 2834 L
2468 2833 L
2472 2678 L
2476 2614 L
2481 2577 L
2485 2824 L
2489 2690 L
2492 2797 L
2496 2662 L
2500 2750 L
2504 2766 L
2507 2616 L
2511 2753 L
2514 2742 L
2518 2819 L
2521 2623 L
2525 2518 L
2528 2518 L
2531 2556 L
2534 2329 L
2538 2587 L
2541 2539 L
2544 2458 L
2547 2746 L
2550 2364 L
2553 2494 L
2556 2638 L
2559 2319 L
2561 2299 L
2564 2510 L
2567 2430 L
2570 2423 L
2580 2366 L
2590 2391 L
2600 2479 L
2609 2293 L
2618 2176 L
2627 2315 L
2635 2101 L
2643 2154 L
2650 2164 L
2658 2305 L
2665 2050 L
2672 2248 L
2678 2132 L
2685 2036 L
2691 2059 L
2697 1997 L
2703 1983 L
2709 2099 L
2714 1991 L
2720 2178 L
2725 2017 L
2730 2096 L
2735 1926 L
2740 2073 L
2745 1920 L
2750 2027 L
2755 1973 L
2759 2117 L
2764 2070 L
2768 2086 L
2772 1969 L
2777 1866 L
2781 1833 L
2785 1988 L
2789 1963 L
2793 2021 L
2796 2166 L
2800 2083 L
2804 1998 L
2808 1999 L
2811 1963 L
2815 2022 L
2818 1908 L
2822 2074 L
2825 2024 L
2828 1894 L
2831 1944 L
2835 2007 L
2838 2012 L
2841 1981 L
2844 2085 L
2847 1997 L
2850 2117 L
2853 1862 L
2856 2137 L
2859 1929 L
2862 2269 L
2864 2111 L
2867 2182 L
2870 2118 L
2873 1914 L
2875 2169 L
2878 2172 L
2880 2153 L
2883 2094 L
2886 2220 L
2888 1972 L
2891 2088 L
2893 2039 L
2895 2182 L
2898 2101 L
2900 2155 L
2902 2112 L
2905 2006 L
2907 2343 L
2909 2153 L
2912 2120 L
2914 2246 L
2916 1958 L
2918 2247 L
2920 2296 L
2922 2220 L
2925 2174 L
2927 2236 L
2929 2173 L
2931 2195 L
2933 2177 L
2935 2238 L
2937 2283 L
2939 2263 L
2941 2163 L
2943 2261 L
2945 2358 L
2947 2291 L
2948 2201 L
2950 2296 L
2952 2157 L
2954 2338 L
2956 2312 L
2958 2224 L
2959 2408 L
2961 2274 L
2963 2315 L
2965 2249 L
2966 2198 L
2968 2236 L
2970 2285 L
2972 2227 L
2973 2584 L
2975 2409 L
2977 2271 L
2978 2423 L
2980 2209 L
2982 2445 L
2983 2475 L
2985 2498 L
2986 2401 L
2988 2358 L
2989 2393 L
2991 2318 L
2993 2335 L
2994 2477 L
2996 2401 L
2997 2411 L
2999 2393 L
3000 2513 L
3002 2438 L
3003 2342 L
3005 2418 L
3006 2302 L
3007 2552 L
3009 2172 L
3010 2469 L
3012 2374 L
3013 2507 L
3014 2415 L
3016 2402 L
3017 2445 L
3019 2451 L
3020 2502 L
3021 2559 L
3023 2333 L
3024 2427 L
3025 2409 L
3027 2483 L
3028 2320 L
3029 2523 L
3031 2487 L
3032 2380 L
3033 2528 L
3034 2406 L
3036 2499 L
3037 2421 L
3038 2414 L
3039 2516 L
3041 2556 L
3042 2595 L
3043 2412 L
3044 2516 L
3045 2590 L
3047 2460 L
3048 2589 L
3049 2455 L
3050 2293 L
3051 2527 L
3053 2590 L
3054 2534 L
3055 2413 L
3056 2442 L
3057 2683 L
3058 2482 L
3059 2507 L
3061 2576 L
3062 2706 L
3063 2388 L
3064 2370 L
3065 2521 L
3066 2638 L
3067 2753 L
3068 2552 L
3069 2492 L
3070 2673 L
3071 2532 L
3073 2593 L
3074 2446 L
3075 2522 L
3076 2329 L
3077 2506 L
3078 2439 L
3079 2711 L
3080 2642 L
3081 2783 L
3082 2487 L
3083 2517 L
3084 2698 L
3085 2638 L
3086 2648 L
3087 2492 L
3088 2391 L
3089 2561 L
3112 2702 L
3133 2365 L
3152 2856 L
3170 2708 L
3186 2760 L
3201 2674 L
3216 2802 L
3229 2712 L
3241 2545 L
3253 2522 L
3264 2729 L
3275 2720 L
3285 2690 L
3295 2727 L
3304 2687 L
3313 2859 L
3322 2717 L
3330 2602 L
3338 2809 L
3346 2726 L
3353 2850 L
3360 2921 L
3367 2738 L
3374 2649 L
3380 2685 L
3387 2729 L
3393 2791 L
3399 2595 L
3405 2531 L
3410 2751 L
3416 2714 L
3421 2943 L
3426 2821 L
3431 2756 L
3436 2706 L
3441 2726 L
3446 2790 L
3451 2972 L
3455 2845 L
3460 2876 L
3464 2800 L
3469 2627 L
3473 2815 L
3477 2799 L
3481 2652 L
3485 2746 L
3489 2877 L
3493 2805 L
3496 2701 L
3500 2930 L
3504 2681 L
3507 2747 L
3511 2765 L
3514 2963 L
3518 2596 L
3521 2776 L
3525 2746 L
3528 2718 L
3531 2726 L
3534 2711 L
3537 2664 L
3540 2636 L
3543 2761 L
3546 2780 L
3549 2922 L
3552 2520 L
3555 2795 L
3558 2799 L
3561 2741 L
3564 2773 L
3566 2755 L
3575 2763 L
3586 2865 L
3595 2684 L
3605 2838 L
3613 2627 L
3622 2645 L
3630 2630 L
3638 2572 L
3646 2706 L
3653 2632 L
3660 2585 L
3667 2631 L
3674 2889 L
3681 2575 L
3687 2698 L
3693 2618 L
3699 2593 L
3705 2632 L
3710 2891 L
3716 2525 L
3721 2566 L
3727 2522 L
3732 2590 L
3737 2520 L
3742 2507 L
3746 2506 L
3751 2557 L
3756 2613 L
3760 2394 L
3764 2596 L
3769 2489 L
3773 2682 L
3777 2646 L
3781 2525 L
3785 2592 L
3789 2433 L
3793 2424 L
3797 2525 L
3800 2460 L
3804 2592 L
3808 2467 L
3811 2640 L
3815 2477 L
3818 2563 L
3821 2687 L
3825 2444 L
3828 2480 L
3831 2517 L
3834 2382 L
3838 2384 L
3841 2622 L
3844 2599 L
3847 2232 L
3850 2465 L
3853 2665 L
3855 2462 L
3858 2590 L
3861 2632 L
3864 2634 L
3867 2367 L
3869 2631 L
3872 2395 L
3875 2607 L
3877 2362 L
3880 2379 L
3882 2355 L
3885 2485 L
3887 2536 L
3890 2612 L
3892 2479 L
3895 2498 L
3897 2504 L
3899 2480 L
3902 2495 L
3904 2548 L
3906 2430 L
3908 2451 L
3911 2596 L
3913 2215 L
3915 2263 L
3917 2487 L
3919 2468 L
3921 2486 L
3923 2569 L
3926 2363 L
3928 2567 L
3930 2513 L
3932 2380 L
3934 2605 L
3936 2582 L
3938 2465 L
3940 2556 L
3942 2442 L
3943 2486 L
3945 2433 L
3947 2503 L
3949 2571 L
3951 2504 L
3953 2428 L
3955 2188 L
3956 2543 L
3958 2593 L
3960 2542 L
3962 2311 L
3963 2325 L
3965 2465 L
3967 2584 L
3969 2382 L
3970 2332 L
3972 2573 L
3974 2513 L
3975 2429 L
3977 2320 L
3978 2314 L
3980 2448 L
3982 2397 L
3983 2341 L
3985 2351 L
3986 2242 L
3988 2455 L
3990 2273 L
3991 2423 L
3993 2426 L
3994 2531 L
3996 2361 L
3997 2374 L
3999 2543 L
4000 2498 L
4001 2384 L
4003 2251 L
4004 2322 L
4006 2392 L
4007 2403 L
4009 2283 L
4010 2442 L
4011 2456 L
4013 2455 L
4014 2439 L
4016 2468 L
4017 2163 L
4018 2359 L
4020 2246 L
4021 2391 L
4022 2462 L
4024 2220 L
4025 2623 L
4026 2384 L
4028 2514 L
4029 2452 L
4030 2213 L
4031 2255 L
4033 2261 L
4034 2447 L
4035 2264 L
4036 2158 L
4038 2495 L
4039 2296 L
4040 2319 L
4041 2375 L
4042 2238 L
4044 2277 L
4045 2493 L
4046 2279 L
4047 2439 L
4048 2317 L
4050 2350 L
4051 2555 L
4052 2402 L
4053 2482 L
4054 2181 L
4055 2335 L
4056 2374 L
4058 2462 L
4059 2279 L
4060 2320 L
4061 2412 L
4062 2188 L
4063 2388 L
4064 2352 L
4065 2399 L
4066 2526 L
L2 C07 COSGR

%
%================
% Legend - Begin
%================
%
GSN 4240 5180 M
4480 5180 L
LWMC SL  C07 COSGR
GSN 4540 5141 M helvM (4.0 uM) show grestore
%
%================
% Legend - End
%================
%

%
% Residuals:
%
GSN 773 1068 M
1625 853 L
1773 851 L
1860 925 L
1922 1020 L
1970 873 L
2009 1201 L
2043 1124 L
2072 1188 L
2097 1181 L
2120 1058 L
2140 1272 L
2159 1177 L
2176 1169 L
2192 1274 L
2207 1217 L
2221 1219 L
2234 1341 L
2247 1191 L
2259 1343 L
2270 1406 L
2280 1346 L
2290 1466 L
2300 1327 L
2309 1450 L
2318 1508 L
2326 1331 L
2335 1425 L
2342 1423 L
2350 1514 L
2357 1361 L
2364 1276 L
2371 1559 L
2378 1354 L
2384 1488 L
2391 1429 L
2397 1399 L
2403 1421 L
2409 1401 L
2414 1378 L
2420 1272 L
2425 1436 L
2430 1370 L
2435 1372 L
2440 1379 L
2445 1304 L
2450 1396 L
2455 1255 L
2459 1266 L
2464 1322 L
2468 1328 L
2472 1224 L
2476 1183 L
2481 1163 L
2485 1346 L
2489 1255 L
2492 1337 L
2496 1245 L
2500 1313 L
2504 1329 L
2507 1225 L
2511 1327 L
2514 1324 L
2518 1383 L
2521 1245 L
2525 1173 L
2528 1177 L
2531 1207 L
2534 1046 L
2538 1235 L
2541 1203 L
2544 1147 L
2547 1356 L
2550 1084 L
2553 1180 L
2556 1285 L
2559 1058 L
2561 1046 L
2564 1199 L
2567 1143 L
2570 1140 L
2580 1105 L
2590 1128 L
2600 1195 L
2609 1065 L
2618 983 L
2627 1086 L
2635 934 L
2643 973 L
2650 982 L
2658 1084 L
2665 902 L
2672 1045 L
2678 963 L
2685 894 L
2691 911 L
2697 867 L
2703 857 L
2709 940 L
2714 863 L
2720 998 L
2725 882 L
2730 939 L
2735 817 L
2740 923 L
2745 813 L
2750 889 L
2755 851 L
2759 954 L
2764 921 L
2768 933 L
2772 848 L
2777 774 L
2781 750 L
2785 862 L
2789 844 L
2793 885 L
2796 990 L
2800 930 L
2804 869 L
2808 870 L
2811 844 L
2815 887 L
2818 805 L
2822 924 L
2825 888 L
2828 794 L
2831 830 L
2835 876 L
2838 879 L
2841 857 L
2844 932 L
2847 869 L
2850 955 L
2853 771 L
2856 969 L
2859 820 L
2862 1064 L
2864 950 L
2867 1001 L
2870 955 L
2873 808 L
2875 992 L
2878 994 L
2880 981 L
2883 938 L
2886 1028 L
2888 851 L
2891 934 L
2893 899 L
2895 1001 L
2898 943 L
2900 982 L
2902 951 L
2905 875 L
2907 1117 L
2909 980 L
2912 957 L
2914 1047 L
2916 840 L
2918 1048 L
2920 1083 L
2922 1029 L
2925 995 L
2927 1040 L
2929 995 L
2931 1010 L
2933 998 L
2935 1042 L
2937 1074 L
2939 1060 L
2941 988 L
2943 1058 L
2945 1128 L
2947 1080 L
2948 1015 L
2950 1083 L
2952 983 L
2954 1113 L
2956 1095 L
2958 1031 L
2959 1164 L
2961 1068 L
2963 1097 L
2965 1050 L
2966 1013 L
2968 1040 L
2970 1075 L
2972 1034 L
2973 1291 L
2975 1165 L
2977 1065 L
2978 1175 L
2980 1021 L
2982 1190 L
2983 1212 L
2985 1228 L
2986 1159 L
2988 1128 L
2989 1153 L
2991 1099 L
2993 1111 L
2994 1213 L
2996 1159 L
2997 1166 L
2999 1153 L
3000 1239 L
3002 1185 L
3003 1116 L
3005 1171 L
3006 1087 L
3007 1267 L
3009 995 L
3010 1208 L
3012 1139 L
3013 1235 L
3014 1169 L
3016 1159 L
3017 1190 L
3019 1194 L
3020 1231 L
3021 1272 L
3023 1110 L
3024 1178 L
3025 1165 L
3027 1218 L
3028 1100 L
3029 1247 L
3031 1220 L
3032 1144 L
3033 1250 L
3034 1162 L
3036 1229 L
3037 1173 L
3038 1168 L
3039 1241 L
3041 1270 L
3042 1298 L
3043 1167 L
3044 1241 L
3045 1294 L
3047 1201 L
3048 1294 L
3049 1198 L
3050 1081 L
3051 1249 L
3053 1294 L
3054 1254 L
3055 1168 L
3056 1188 L
3057 1361 L
3058 1217 L
3059 1235 L
3061 1285 L
3062 1378 L
3063 1150 L
3064 1136 L
3065 1245 L
3066 1329 L
3067 1412 L
3068 1267 L
3069 1224 L
3070 1354 L
3071 1253 L
3073 1297 L
3074 1191 L
3075 1246 L
3076 1107 L
3077 1234 L
3078 1186 L
3079 1382 L
3080 1332 L
3081 1433 L
3082 1220 L
3083 1242 L
3084 1372 L
3085 1329 L
3086 1336 L
3087 1224 L
3088 1151 L
3089 1274 L
3112 1375 L
3133 1133 L
3152 1485 L
3170 1380 L
3186 1417 L
3201 1355 L
3216 1447 L
3229 1382 L
3241 1262 L
3253 1245 L
3264 1394 L
3275 1388 L
3285 1367 L
3295 1393 L
3304 1365 L
3313 1488 L
3322 1385 L
3330 1303 L
3338 1452 L
3346 1392 L
3353 1481 L
3360 1533 L
3367 1401 L
3374 1337 L
3380 1363 L
3387 1394 L
3393 1439 L
3399 1298 L
3405 1252 L
3410 1410 L
3416 1384 L
3421 1548 L
3426 1460 L
3431 1414 L
3436 1378 L
3441 1392 L
3446 1438 L
3451 1569 L
3455 1478 L
3460 1500 L
3464 1446 L
3469 1321 L
3473 1456 L
3477 1445 L
3481 1339 L
3485 1406 L
3489 1500 L
3493 1449 L
3496 1374 L
3500 1539 L
3504 1360 L
3507 1407 L
3511 1420 L
3514 1562 L
3518 1298 L
3521 1428 L
3525 1406 L
3528 1387 L
3531 1392 L
3534 1382 L
3537 1348 L
3540 1327 L
3543 1417 L
3546 1431 L
3549 1533 L
3552 1244 L
3555 1442 L
3558 1445 L
3561 1403 L
3564 1426 L
3566 1413 L
3575 1419 L
3586 1492 L
3595 1362 L
3605 1473 L
3613 1321 L
3622 1334 L
3630 1323 L
3638 1281 L
3646 1378 L
3653 1325 L
3660 1291 L
3667 1324 L
3674 1510 L
3681 1283 L
3687 1372 L
3693 1315 L
3699 1296 L
3705 1325 L
3710 1511 L
3716 1247 L
3721 1277 L
3727 1245 L
3732 1295 L
3737 1244 L
3742 1235 L
3746 1234 L
3751 1271 L
3756 1311 L
3760 1154 L
3764 1298 L
3769 1222 L
3773 1361 L
3777 1335 L
3781 1248 L
3785 1296 L
3789 1181 L
3793 1175 L
3797 1247 L
3800 1201 L
3804 1296 L
3808 1206 L
3811 1330 L
3815 1213 L
3818 1275 L
3821 1365 L
3825 1189 L
3828 1215 L
3831 1242 L
3834 1145 L
3838 1146 L
3841 1317 L
3844 1301 L
3847 1037 L
3850 1204 L
3853 1348 L
3855 1202 L
3858 1295 L
3861 1325 L
3864 1326 L
3867 1134 L
3869 1324 L
3872 1155 L
3875 1307 L
3877 1130 L
3880 1143 L
3882 1126 L
3885 1219 L
3887 1256 L
3890 1310 L
3892 1215 L
3895 1228 L
3897 1233 L
3899 1215 L
3902 1226 L
3904 1265 L
3906 1180 L
3908 1194 L
3911 1299 L
3913 1025 L
3915 1059 L
3917 1221 L
3919 1207 L
3921 1220 L
3923 1279 L
3926 1131 L
3928 1278 L
3930 1239 L
3932 1144 L
3934 1305 L
3936 1289 L
3938 1204 L
3940 1270 L
3942 1188 L
3943 1220 L
3945 1181 L
3947 1232 L
3949 1281 L
3951 1232 L
3953 1178 L
3955 1006 L
3956 1261 L
3958 1297 L
3960 1260 L
3962 1094 L
3963 1104 L
3965 1204 L
3967 1290 L
3969 1145 L
3970 1109 L
3972 1282 L
3974 1239 L
3975 1179 L
3977 1100 L
3978 1097 L
3980 1193 L
3982 1156 L
3983 1116 L
3985 1123 L
3986 1044 L
3988 1197 L
3990 1067 L
3991 1174 L
3993 1177 L
3994 1252 L
3996 1130 L
3997 1140 L
3999 1261 L
4000 1228 L
4001 1146 L
4003 1051 L
4004 1102 L
4006 1152 L
4007 1160 L
4009 1074 L
4010 1188 L
4011 1198 L
4013 1198 L
4014 1186 L
4016 1207 L
4017 988 L
4018 1128 L
4020 1047 L
4021 1152 L
4022 1203 L
4024 1029 L
4025 1318 L
4026 1146 L
4028 1240 L
4029 1195 L
4030 1023 L
4031 1054 L
4033 1058 L
4034 1192 L
4035 1061 L
4036 984 L
4038 1226 L
4039 1083 L
4040 1100 L
4041 1140 L
4042 1041 L
4044 1070 L
4045 1225 L
4046 1071 L
4047 1186 L
4048 1099 L
4050 1122 L
4051 1269 L
4052 1159 L
4053 1217 L
4054 1001 L
4055 1111 L
4056 1139 L
4058 1202 L
4059 1071 L
4060 1100 L
4061 1167 L
4062 1006 L
4063 1149 L
4064 1123 L
4065 1157 L
4066 1249 L
L2 C07 COSGR

%
% Main frame
%
L10
GSN 
620 1700 M
4220 1700 L
4220 5300 L
620 5300 L
closepath SGR

%
% X axis: large tics
%
L10
GSN 1074 1700 M 0  54 rL SGR
GSN 1074 5300 M 0 -54 rL SGR
helvS (0.0001) 1074 470 xlabel
GSN 1572 1700 M 0  54 rL SGR
GSN 1572 5300 M 0 -54 rL SGR
helvS (0.001) 1572 470 xlabel
GSN 2071 1700 M 0  54 rL SGR
GSN 2071 5300 M 0 -54 rL SGR
helvS (0.01) 2071 470 xlabel
GSN 2570 1700 M 0  54 rL SGR
GSN 2570 5300 M 0 -54 rL SGR
helvS (0.1) 2570 470 xlabel
GSN 3068 1700 M 0  54 rL SGR
GSN 3068 5300 M 0 -54 rL SGR
helvS (1) 3068 470 xlabel
GSN 3567 1700 M 0  54 rL SGR
GSN 3567 5300 M 0 -54 rL SGR
helvS (10) 3567 470 xlabel
GSN 4066 1700 M 0  54 rL SGR
GSN 4066 5300 M 0 -54 rL SGR
helvS (100) 4066 470 xlabel
%
% X axis: small tics
%
L5
GSN 725 1700 M 0  36 rL SGR
GSN 725 5300 M 0 -36 rL SGR
GSN 813 1700 M 0  36 rL SGR
GSN 813 5300 M 0 -36 rL SGR
GSN 875 1700 M 0  36 rL SGR
GSN 875 5300 M 0 -36 rL SGR
GSN 924 1700 M 0  36 rL SGR
GSN 924 5300 M 0 -36 rL SGR
GSN 963 1700 M 0  36 rL SGR
GSN 963 5300 M 0 -36 rL SGR
GSN 996 1700 M 0  36 rL SGR
GSN 996 5300 M 0 -36 rL SGR
GSN 1025 1700 M 0  36 rL SGR
GSN 1025 5300 M 0 -36 rL SGR
GSN 1051 1700 M 0  36 rL SGR
GSN 1051 5300 M 0 -36 rL SGR
GSN 1224 1700 M 0  36 rL SGR
GSN 1224 5300 M 0 -36 rL SGR
GSN 1312 1700 M 0  36 rL SGR
GSN 1312 5300 M 0 -36 rL SGR
GSN 1374 1700 M 0  36 rL SGR
GSN 1374 5300 M 0 -36 rL SGR
GSN 1422 1700 M 0  36 rL SGR
GSN 1422 5300 M 0 -36 rL SGR
GSN 1462 1700 M 0  36 rL SGR
GSN 1462 5300 M 0 -36 rL SGR
GSN 1495 1700 M 0  36 rL SGR
GSN 1495 5300 M 0 -36 rL SGR
GSN 1524 1700 M 0  36 rL SGR
GSN 1524 5300 M 0 -36 rL SGR
GSN 1550 1700 M 0  36 rL SGR
GSN 1550 5300 M 0 -36 rL SGR
GSN 1722 1700 M 0  36 rL SGR
GSN 1722 5300 M 0 -36 rL SGR
GSN 1810 1700 M 0  36 rL SGR
GSN 1810 5300 M 0 -36 rL SGR
GSN 1873 1700 M 0  36 rL SGR
GSN 1873 5300 M 0 -36 rL SGR
GSN 1921 1700 M 0  36 rL SGR
GSN 1921 5300 M 0 -36 rL SGR
GSN 1960 1700 M 0  36 rL SGR
GSN 1960 5300 M 0 -36 rL SGR
GSN 1994 1700 M 0  36 rL SGR
GSN 1994 5300 M 0 -36 rL SGR
GSN 2023 1700 M 0  36 rL SGR
GSN 2023 5300 M 0 -36 rL SGR
GSN 2048 1700 M 0  36 rL SGR
GSN 2048 5300 M 0 -36 rL SGR
GSN 2221 1700 M 0  36 rL SGR
GSN 2221 5300 M 0 -36 rL SGR
GSN 2309 1700 M 0  36 rL SGR
GSN 2309 5300 M 0 -36 rL SGR
GSN 2371 1700 M 0  36 rL SGR
GSN 2371 5300 M 0 -36 rL SGR
GSN 2420 1700 M 0  36 rL SGR
GSN 2420 5300 M 0 -36 rL SGR
GSN 2459 1700 M 0  36 rL SGR
GSN 2459 5300 M 0 -36 rL SGR
GSN 2492 1700 M 0  36 rL SGR
GSN 2492 5300 M 0 -36 rL SGR
GSN 2521 1700 M 0  36 rL SGR
GSN 2521 5300 M 0 -36 rL SGR
GSN 2547 1700 M 0  36 rL SGR
GSN 2547 5300 M 0 -36 rL SGR
GSN 2720 1700 M 0  36 rL SGR
GSN 2720 5300 M 0 -36 rL SGR
GSN 2808 1700 M 0  36 rL SGR
GSN 2808 5300 M 0 -36 rL SGR
GSN 2870 1700 M 0  36 rL SGR
GSN 2870 5300 M 0 -36 rL SGR
GSN 2918 1700 M 0  36 rL SGR
GSN 2918 5300 M 0 -36 rL SGR
GSN 2958 1700 M 0  36 rL SGR
GSN 2958 5300 M 0 -36 rL SGR
GSN 2991 1700 M 0  36 rL SGR
GSN 2991 5300 M 0 -36 rL SGR
GSN 3020 1700 M 0  36 rL SGR
GSN 3020 5300 M 0 -36 rL SGR
GSN 3045 1700 M 0  36 rL SGR
GSN 3045 5300 M 0 -36 rL SGR
GSN 3218 1700 M 0  36 rL SGR
GSN 3218 5300 M 0 -36 rL SGR
GSN 3306 1700 M 0  36 rL SGR
GSN 3306 5300 M 0 -36 rL SGR
GSN 3368 1700 M 0  36 rL SGR
GSN 3368 5300 M 0 -36 rL SGR
GSN 3417 1700 M 0  36 rL SGR
GSN 3417 5300 M 0 -36 rL SGR
GSN 3456 1700 M 0  36 rL SGR
GSN 3456 5300 M 0 -36 rL SGR
GSN 3490 1700 M 0  36 rL SGR
GSN 3490 5300 M 0 -36 rL SGR
GSN 3519 1700 M 0  36 rL SGR
GSN 3519 5300 M 0 -36 rL SGR
GSN 3544 1700 M 0  36 rL SGR
GSN 3544 5300 M 0 -36 rL SGR
GSN 3717 1700 M 0  36 rL SGR
GSN 3717 5300 M 0 -36 rL SGR
GSN 3805 1700 M 0  36 rL SGR
GSN 3805 5300 M 0 -36 rL SGR
GSN 3867 1700 M 0  36 rL SGR
GSN 3867 5300 M 0 -36 rL SGR
GSN 3915 1700 M 0  36 rL SGR
GSN 3915 5300 M 0 -36 rL SGR
GSN 3955 1700 M 0  36 rL SGR
GSN 3955 5300 M 0 -36 rL SGR
GSN 3988 1700 M 0  36 rL SGR
GSN 3988 5300 M 0 -36 rL SGR
GSN 4017 1700 M 0  36 rL SGR
GSN 4017 5300 M 0 -36 rL SGR
GSN 4043 1700 M 0  36 rL SGR
GSN 4043 5300 M 0 -36 rL SGR
GSN 4216 1700 M 0  36 rL SGR
GSN 4216 5300 M 0 -36 rL SGR
%
% Y axis: large tics
%
L10
GSN 620 1920 M 54 0 rL SGR
GSN 4220 1920 M -54 0 rL SGR
helvS (0.88) 560 1920 ylabel
GSN 620 2704 M 54 0 rL SGR
GSN 4220 2704 M -54 0 rL SGR
helvS (0.9) 560 2704 ylabel
GSN 620 3488 M 54 0 rL SGR
GSN 4220 3488 M -54 0 rL SGR
helvS (0.92) 560 3488 ylabel
GSN 620 4272 M 54 0 rL SGR
GSN 4220 4272 M -54 0 rL SGR
helvS (0.94) 560 4272 ylabel
GSN 620 5055 M 54 0 rL SGR
GSN 4220 5055 M -54 0 rL SGR
helvS (0.96) 560 5055 ylabel
%
% Y axis: small tics
%
L5
GSN 620 1724 M 36 0 rL SGR
GSN 4220 1724 M -36 0 rL SGR
GSN 620 1920 M 36 0 rL SGR
GSN 4220 1920 M -36 0 rL SGR
GSN 620 2116 M 36 0 rL SGR
GSN 4220 2116 M -36 0 rL SGR
GSN 620 2312 M 36 0 rL SGR
GSN 4220 2312 M -36 0 rL SGR
GSN 620 2508 M 36 0 rL SGR
GSN 4220 2508 M -36 0 rL SGR
GSN 620 2704 M 36 0 rL SGR
GSN 4220 2704 M -36 0 rL SGR
GSN 620 2900 M 36 0 rL SGR
GSN 4220 2900 M -36 0 rL SGR
GSN 620 3096 M 36 0 rL SGR
GSN 4220 3096 M -36 0 rL SGR
GSN 620 3292 M 36 0 rL SGR
GSN 4220 3292 M -36 0 rL SGR
GSN 620 3488 M 36 0 rL SGR
GSN 4220 3488 M -36 0 rL SGR
GSN 620 3684 M 36 0 rL SGR
GSN 4220 3684 M -36 0 rL SGR
GSN 620 3880 M 36 0 rL SGR
GSN 4220 3880 M -36 0 rL SGR
GSN 620 4076 M 36 0 rL SGR
GSN 4220 4076 M -36 0 rL SGR
GSN 620 4272 M 36 0 rL SGR
GSN 4220 4272 M -36 0 rL SGR
GSN 620 4467 M 36 0 rL SGR
GSN 4220 4467 M -36 0 rL SGR
GSN 620 4663 M 36 0 rL SGR
GSN 4220 4663 M -36 0 rL SGR
GSN 620 4859 M 36 0 rL SGR
GSN 4220 4859 M -36 0 rL SGR
GSN 620 5055 M 36 0 rL SGR
GSN 4220 5055 M -36 0 rL SGR
GSN 620 5251 M 36 0 rL SGR
GSN 4220 5251 M -36 0 rL SGR

%
% X-Axis label:
%
gsave 2420 290 M 
[
[(Helvetica) 180 0 true true 0 (t)]
[(Helvetica) 180 0 true true 0 (i)]
[(Helvetica) 180 0 true true 0 (m)]
[(Helvetica) 180 0 true true 0 (e)]
] 0 MCshow grestore

%
% Y-Axis label:
%
gsave 234 3499 M 
currentpoint gsave translate 90 rotate 0 0 moveto
[
[(Helvetica) 180 0 true true 0 (s)]
[(Helvetica) 180 0 true true 0 (i)]
[(Helvetica) 180 0 true true 0 (g)]
[(Helvetica) 180 0 true true 0 (n)]
[(Helvetica) 180 0 true true 0 (a)]
[(Helvetica) 180 0 true true 0 (l)]
] 0 MCshow grestore

%
% Residuals:
%
gsave 129 1160 M 
currentpoint gsave translate 90 rotate 0 0 moveto
[
[(Helvetica) 150 0 true true 0 (r)]
[(Helvetica) 150 0 true true 0 (e)]
[(Helvetica) 150 0 true true 0 (s)]
[(Helvetica) 150 0 true true 0 (i)]
[(Helvetica) 150 0 true true 0 (d)]
[(Helvetica) 150 0 true true 0 (u)]
[(Helvetica) 150 0 true true 0 (a)]
[(Helvetica) 150 0 true true 0 (l)]
[(Helvetica) 150 0 true true 0 (s)]
] 0 MCshow grestore

%
% Residual frame
%
L10
GSN 
620 620 M
4220 620 L
4220 1700 L
620 1700 L
closepath SGR
%
% X axis: large tics - residual frame
%
L10
GSN 1074 620 M 0  54 rL SGR
GSN 1074 1700 M 0 -54 rL SGR
GSN 1572 620 M 0  54 rL SGR
GSN 1572 1700 M 0 -54 rL SGR
GSN 2071 620 M 0  54 rL SGR
GSN 2071 1700 M 0 -54 rL SGR
GSN 2570 620 M 0  54 rL SGR
GSN 2570 1700 M 0 -54 rL SGR
GSN 3068 620 M 0  54 rL SGR
GSN 3068 1700 M 0 -54 rL SGR
GSN 3567 620 M 0  54 rL SGR
GSN 3567 1700 M 0 -54 rL SGR
GSN 4066 620 M 0  54 rL SGR
GSN 4066 1700 M 0 -54 rL SGR
%
% X axis: small tics - residual frame
%
L5
GSN 725 620 M 0  36 rL SGR
GSN 725 1700 M 0 -36 rL SGR
GSN 813 620 M 0  36 rL SGR
GSN 813 1700 M 0 -36 rL SGR
GSN 875 620 M 0  36 rL SGR
GSN 875 1700 M 0 -36 rL SGR
GSN 924 620 M 0  36 rL SGR
GSN 924 1700 M 0 -36 rL SGR
GSN 963 620 M 0  36 rL SGR
GSN 963 1700 M 0 -36 rL SGR
GSN 996 620 M 0  36 rL SGR
GSN 996 1700 M 0 -36 rL SGR
GSN 1025 620 M 0  36 rL SGR
GSN 1025 1700 M 0 -36 rL SGR
GSN 1051 620 M 0  36 rL SGR
GSN 1051 1700 M 0 -36 rL SGR
GSN 1224 620 M 0  36 rL SGR
GSN 1224 1700 M 0 -36 rL SGR
GSN 1312 620 M 0  36 rL SGR
GSN 1312 1700 M 0 -36 rL SGR
GSN 1374 620 M 0  36 rL SGR
GSN 1374 1700 M 0 -36 rL SGR
GSN 1422 620 M 0  36 rL SGR
GSN 1422 1700 M 0 -36 rL SGR
GSN 1462 620 M 0  36 rL SGR
GSN 1462 1700 M 0 -36 rL SGR
GSN 1495 620 M 0  36 rL SGR
GSN 1495 1700 M 0 -36 rL SGR
GSN 1524 620 M 0  36 rL SGR
GSN 1524 1700 M 0 -36 rL SGR
GSN 1550 620 M 0  36 rL SGR
GSN 1550 1700 M 0 -36 rL SGR
GSN 1722 620 M 0  36 rL SGR
GSN 1722 1700 M 0 -36 rL SGR
GSN 1810 620 M 0  36 rL SGR
GSN 1810 1700 M 0 -36 rL SGR
GSN 1873 620 M 0  36 rL SGR
GSN 1873 1700 M 0 -36 rL SGR
GSN 1921 620 M 0  36 rL SGR
GSN 1921 1700 M 0 -36 rL SGR
GSN 1960 620 M 0  36 rL SGR
GSN 1960 1700 M 0 -36 rL SGR
GSN 1994 620 M 0  36 rL SGR
GSN 1994 1700 M 0 -36 rL SGR
GSN 2023 620 M 0  36 rL SGR
GSN 2023 1700 M 0 -36 rL SGR
GSN 2048 620 M 0  36 rL SGR
GSN 2048 1700 M 0 -36 rL SGR
GSN 2221 620 M 0  36 rL SGR
GSN 2221 1700 M 0 -36 rL SGR
GSN 2309 620 M 0  36 rL SGR
GSN 2309 1700 M 0 -36 rL SGR
GSN 2371 620 M 0  36 rL SGR
GSN 2371 1700 M 0 -36 rL SGR
GSN 2420 620 M 0  36 rL SGR
GSN 2420 1700 M 0 -36 rL SGR
GSN 2459 620 M 0  36 rL SGR
GSN 2459 1700 M 0 -36 rL SGR
GSN 2492 620 M 0  36 rL SGR
GSN 2492 1700 M 0 -36 rL SGR
GSN 2521 620 M 0  36 rL SGR
GSN 2521 1700 M 0 -36 rL SGR
GSN 2547 620 M 0  36 rL SGR
GSN 2547 1700 M 0 -36 rL SGR
GSN 2720 620 M 0  36 rL SGR
GSN 2720 1700 M 0 -36 rL SGR
GSN 2808 620 M 0  36 rL SGR
GSN 2808 1700 M 0 -36 rL SGR
GSN 2870 620 M 0  36 rL SGR
GSN 2870 1700 M 0 -36 rL SGR
GSN 2918 620 M 0  36 rL SGR
GSN 2918 1700 M 0 -36 rL SGR
GSN 2958 620 M 0  36 rL SGR
GSN 2958 1700 M 0 -36 rL SGR
GSN 2991 620 M 0  36 rL SGR
GSN 2991 1700 M 0 -36 rL SGR
GSN 3020 620 M 0  36 rL SGR
GSN 3020 1700 M 0 -36 rL SGR
GSN 3045 620 M 0  36 rL SGR
GSN 3045 1700 M 0 -36 rL SGR
GSN 3218 620 M 0  36 rL SGR
GSN 3218 1700 M 0 -36 rL SGR
GSN 3306 620 M 0  36 rL SGR
GSN 3306 1700 M 0 -36 rL SGR
GSN 3368 620 M 0  36 rL SGR
GSN 3368 1700 M 0 -36 rL SGR
GSN 3417 620 M 0  36 rL SGR
GSN 3417 1700 M 0 -36 rL SGR
GSN 3456 620 M 0  36 rL SGR
GSN 3456 1700 M 0 -36 rL SGR
GSN 3490 620 M 0  36 rL SGR
GSN 3490 1700 M 0 -36 rL SGR
GSN 3519 620 M 0  36 rL SGR
GSN 3519 1700 M 0 -36 rL SGR
GSN 3544 620 M 0  36 rL SGR
GSN 3544 1700 M 0 -36 rL SGR
GSN 3717 620 M 0  36 rL SGR
GSN 3717 1700 M 0 -36 rL SGR
GSN 3805 620 M 0  36 rL SGR
GSN 3805 1700 M 0 -36 rL SGR
GSN 3867 620 M 0  36 rL SGR
GSN 3867 1700 M 0 -36 rL SGR
GSN 3915 620 M 0  36 rL SGR
GSN 3915 1700 M 0 -36 rL SGR
GSN 3955 620 M 0  36 rL SGR
GSN 3955 1700 M 0 -36 rL SGR
GSN 3988 620 M 0  36 rL SGR
GSN 3988 1700 M 0 -36 rL SGR
GSN 4017 620 M 0  36 rL SGR
GSN 4017 1700 M 0 -36 rL SGR
GSN 4043 620 M 0  36 rL SGR
GSN 4043 1700 M 0 -36 rL SGR
GSN 4216 620 M 0  36 rL SGR
GSN 4216 1700 M 0 -36 rL SGR
%
% Y axis: large tics - residual frame
%
L10
GSN 620 630 M 54 0 rL SGR
GSN 4220 630 M -54 0 rL SGR
helvS (-0.02) 560 630 ylabelresid
GSN 620 911 M 54 0 rL SGR
GSN 4220 911 M -54 0 rL SGR
helvS (-0.01) 560 911 ylabelresid
GSN 620 1193 M 54 0 rL SGR
GSN 4220 1193 M -54 0 rL SGR
helvS (0) 560 1193 ylabelresid
GSN 620 1474 M 54 0 rL SGR
GSN 4220 1474 M -54 0 rL SGR
helvS (0.01) 560 1474 ylabelresid

%
% X axis - residual panel
%
GSN L5 620 1193 M 4220 1193 L SDA G50 SGR

end
showpage
%%Trailer
%%EOF
