%!PS-Adobe-3.0 EPSF-3.0
%%BoundingBox: 0 0 514 442
%%Creator: BioKin Ltd.
%%DocumentFonts: Symbol Helvetica
%%EndComments
%
/bkdict 256 dict def
bkdict begin
/M {moveto} def 
/R {rmoveto} def
/L {lineto} def
/rL {rlineto} def
/GSN {gsave newpath} def
/SGR {stroke grestore} def
/COSGR {gsave setrgbcolor stroke grestore grestore} def
/SL {setlinewidth} def
/LWMB {12} def             % line width - model curves, black & white
/LWMC {10} def             % line width - model curves, color
/L2 {2.5 setlinewidth} def
/L5 {5 setlinewidth} def
/L10 {10 setlinewidth} def
/G50 {0.5 setgray} def
/SDA {[10  20] 0 setdash} def % axes
/helvT {/Helvetica findfont 100 scalefont setfont} def % tiny
/helvS {/Helvetica findfont 125 scalefont setfont} def % small
/helvM {/Helvetica findfont 150 scalefont setfont} def % medium
/helvL {/Helvetica findfont 175 scalefont setfont} def % large
/xlabel {gsave M dup
   stringwidth exch -0.5 mul exch rmoveto show grestore} def 
/ylabel {gsave M 90 rotate dup
   stringwidth exch -0.5 mul exch rmoveto show grestore} def
/ylabelresid {gsave M dup
   stringwidth exch -1 mul exch rmoveto show grestore} def
% ======
% Shapes
% ======
% Circle:
/Circ {0 360 arc closepath} def
%
% Square:
/Squa {dup dup -0.5 mul dup dup R -2 mul 0 exch rL 1 mul 0 rL dup 0 exch -1 mul rL closepath} def
%
% Triangle Up:
/TriU {dup dup dup -0.4 mul exch -0.5 mul exch R dup 0.5 mul exch rL dup -1 mul exch 0.5 mul exch rL closepath} def 
%
% Triangle Down:
/TriD {dup dup dup 0.4 mul exch -0.5 mul exch R dup 0.5 mul exch -1 mul rL dup 0.5 mul exch rL closepath} def 
%
% Diamond:
/Diam {45 rotate Squa} def
% ======
% Fills
% ======
/GRF {gsave setgray fill grestore} def                    % gray-level Fill
/COF {gsave setrgbcolor fill grestore} def                % color fill
% ======
% Colors
% ======
/C01 {1.00	0.00	0.00} def      % Red
/C02 {0.00	0.00	1.00} def      % Blue
/C03 {0.00	0.39	0.00} def      % Dark Green
/C04 {0.78	0.08	0.52} def      % Medium Violet Red
/C05 {0.55	0.27	0.07} def      % Saddle Brown
/C06 {0.10	0.70	0.70} def      % (cyan)
/C07 {1.00	0.55	0.00} def      % Dark Orange
/C08 {0.63	0.13	0.94} def      % Purple
/C09 {0.00	0.75	1.00} def      % Deep Sky Blue
/C10 {0.20	0.80	0.20} def      % Lime Green
/C11 {0.47	0.53	0.60} def      % Light Slate Gray
/C12 {0.00	0.00	0.00} def      % Black            % or: {0.19	0.31	0.31} def      % Dark Slate Gray
%
/LGR {0.75} def % light gray
/DGR {0.33} def % dark gray
%
% =============
% Dash patterns
% =============
/dash01 { [80  20] 0 setdash } def
/dash02 { [40  20] 0 setdash } def
/dash03 { [80  20  10  20] 0 setdash } def
/dash04 { [40  20  10  20] 0 setdash } def
/dash05 { [80  20  10  10  10  20] 0 setdash } def
/dash06 { [40  20  10  10  10  20] 0 setdash } def
/dash07 { [10  10] 0 setdash } def
%
/MFshow {
   { dup 5 get 3 ge
     { 5 get 3 eq {gsave} {grestore} ifelse }
     {dup dup 0 get findfont exch 1 get scalefont setfont
     [ currentpoint ] exch dup 2 get 0 exch R dup 5 get 2 ne {dup dup 6
     get exch 4 get {show} {stringwidth pop 0 R} ifelse }if dup 5 get 0 eq
     {dup 3 get {2 get neg 0 exch R pop} {pop aload pop M} ifelse} {dup 5
     get 1 eq {dup 2 get exch dup 3 get exch 6 get stringwidth pop -2 div
     dup 0 R} {dup 6 get stringwidth pop -2 div 0 R 6 get
     show 2 index {aload pop M neg 3 -1 roll neg R pop pop} {pop pop pop
     pop aload pop M} ifelse }ifelse }ifelse }
     ifelse }
   forall} bind def
/MFwidth {0 exch {dup 3 get{dup dup 0 get findfont exch 1 get scalefont
     setfont 6 get stringwidth pop add} {pop} ifelse} forall} bind def
/MCshow { currentpoint stroke M
  exch dup MFwidth -2 div 3 -1 roll R MFshow } def
%
end
%%EndProlog
bkdict begin
0.1 0.1 scale
%
% Model curves:
%

GSN 753 3573 M
770 3573 L
803 3573 L
837 3573 L
870 3573 L
903 3573 L
924 3574 L
941 3574 L
970 3574 L
1003 3574 L
1037 3574 L
1070 3574 L
1096 3574 L
1113 3574 L
1137 3574 L
1170 3574 L
1203 3574 L
1237 3574 L
1268 3574 L
1284 3575 L
1303 3575 L
1337 3575 L
1370 3575 L
1403 3575 L
1437 3575 L
1456 3576 L
1473 3576 L
1503 3576 L
1537 3577 L
1570 3577 L
1603 3578 L
1628 3578 L
1644 3578 L
1670 3579 L
1703 3580 L
1737 3580 L
1770 3581 L
1799 3583 L
1816 3584 L
1837 3584 L
1870 3585 L
1903 3587 L
1937 3589 L
1970 3591 L
1987 3594 L
2004 3594 L
2037 3596 L
2070 3599 L
2103 3603 L
2137 3607 L
2159 3611 L
2176 3613 L
2203 3616 L
2237 3622 L
2270 3628 L
2303 3635 L
2331 3643 L
2347 3649 L
2370 3652 L
2403 3662 L
2437 3672 L
2470 3684 L
2503 3697 L
2519 3710 L
2537 3710 L
2570 3725 L
2603 3742 L
2637 3759 L
2670 3777 L
2690 3796 L
2707 3801 L
2737 3816 L
2770 3836 L
2803 3857 L
2837 3878 L
2862 3899 L
2879 3911 L
2903 3920 L
2937 3940 L
2970 3959 L
3003 3978 L
3034 3995 L
3050 4008 L
3070 4010 L
3103 4024 L
3137 4036 L
3170 4047 L
3203 4056 L
3222 4064 L
3239 4065 L
3270 4070 L
3303 4075 L
3337 4078 L
3370 4081 L
3393 4082 L
3410 4083 L
3437 4083 L
3464 4084 L
3481 4084 L
3503 4084 L
3537 4084 L
3565 4085 L
3582 4085 L
3603 4085 L
3637 4085 L
3670 4085 L
3703 4085 L
3737 4085 L
3753 4085 L
3770 4085 L
3803 4085 L
3837 4085 L
3870 4085 L
3903 4085 L
3925 4085 L
3942 4085 L
3970 4085 L
4003 4085 L
4037 4085 L
4070 4085 L
4086 4085 L
LWMC SL dash01 C01 COSGR

GSN 753 3071 M
770 3071 L
803 3071 L
837 3071 L
870 3071 L
903 3071 L
924 3071 L
941 3071 L
970 3071 L
1003 3071 L
1037 3072 L
1070 3072 L
1096 3072 L
1113 3072 L
1137 3072 L
1170 3072 L
1203 3073 L
1237 3073 L
1268 3073 L
1284 3074 L
1303 3074 L
1337 3074 L
1370 3075 L
1403 3076 L
1437 3076 L
1456 3077 L
1473 3077 L
1503 3078 L
1537 3079 L
1570 3080 L
1603 3082 L
1628 3083 L
1644 3084 L
1670 3085 L
1703 3087 L
1737 3090 L
1770 3092 L
1799 3095 L
1816 3098 L
1837 3099 L
1870 3103 L
1903 3107 L
1937 3112 L
1970 3118 L
1987 3124 L
2004 3124 L
2037 3131 L
2070 3139 L
2103 3148 L
2137 3158 L
2159 3170 L
2176 3174 L
2203 3183 L
2237 3197 L
2270 3213 L
2303 3231 L
2331 3250 L
2347 3264 L
2370 3271 L
2403 3295 L
2437 3321 L
2470 3348 L
2503 3378 L
2519 3409 L
2537 3410 L
2570 3444 L
2603 3480 L
2637 3518 L
2670 3557 L
2690 3597 L
2707 3607 L
2737 3638 L
2770 3678 L
2803 3719 L
2837 3759 L
2862 3797 L
2879 3817 L
2903 3834 L
2937 3869 L
2970 3901 L
3003 3931 L
3034 3958 L
3050 3978 L
3070 3981 L
3103 4002 L
3137 4020 L
3170 4036 L
3203 4048 L
3222 4059 L
3239 4060 L
3270 4067 L
3303 4073 L
3337 4077 L
3370 4081 L
3393 4083 L
3410 4083 L
3437 4084 L
3464 4085 L
3481 4085 L
3503 4085 L
3537 4085 L
3565 4086 L
3582 4086 L
3603 4086 L
3637 4086 L
3670 4086 L
3703 4086 L
3737 4086 L
3753 4086 L
3770 4086 L
3803 4086 L
3837 4086 L
3870 4086 L
3903 4086 L
3925 4086 L
3942 4086 L
3970 4086 L
4003 4086 L
4037 4086 L
4070 4086 L
4086 4086 L
LWMC SL dash02 C02 COSGR

GSN 753 2578 M
770 2578 L
803 2578 L
837 2578 L
870 2579 L
903 2579 L
924 2579 L
941 2579 L
970 2579 L
1003 2579 L
1037 2580 L
1070 2580 L
1096 2580 L
1113 2581 L
1137 2581 L
1170 2581 L
1203 2582 L
1237 2582 L
1268 2583 L
1284 2584 L
1303 2584 L
1337 2585 L
1370 2586 L
1403 2587 L
1437 2588 L
1456 2590 L
1473 2590 L
1503 2592 L
1537 2594 L
1570 2596 L
1603 2599 L
1628 2602 L
1644 2603 L
1670 2605 L
1703 2609 L
1737 2613 L
1770 2618 L
1799 2624 L
1816 2628 L
1837 2630 L
1870 2637 L
1903 2645 L
1937 2654 L
1970 2665 L
1987 2676 L
2004 2677 L
2037 2690 L
2070 2704 L
2103 2721 L
2137 2739 L
2159 2760 L
2176 2768 L
2203 2783 L
2237 2809 L
2270 2837 L
2303 2868 L
2331 2902 L
2347 2926 L
2370 2940 L
2403 2980 L
2437 3024 L
2470 3071 L
2503 3122 L
2519 3172 L
2537 3175 L
2570 3231 L
2603 3289 L
2637 3348 L
2670 3409 L
2690 3471 L
2707 3486 L
2737 3532 L
2770 3593 L
2803 3651 L
2837 3708 L
2862 3761 L
2879 3789 L
2903 3811 L
2937 3857 L
2970 3898 L
3003 3935 L
3034 3967 L
3050 3990 L
3070 3994 L
3103 4017 L
3137 4036 L
3170 4051 L
3203 4062 L
3222 4071 L
3239 4072 L
3270 4077 L
3303 4081 L
3337 4083 L
3370 4085 L
3393 4085 L
3410 4086 L
3437 4086 L
3464 4086 L
3481 4086 L
3503 4086 L
3537 4086 L
3565 4086 L
3582 4086 L
3603 4086 L
3637 4086 L
3670 4086 L
3703 4086 L
3737 4086 L
3753 4086 L
3770 4086 L
3803 4086 L
3837 4086 L
3870 4086 L
3903 4086 L
3925 4086 L
3942 4086 L
3970 4086 L
4003 4086 L
4037 4086 L
4070 4086 L
4086 4086 L
LWMC SL dash03 C03 COSGR

GSN 753 2067 M
770 2067 L
803 2067 L
837 2068 L
870 2068 L
903 2068 L
924 2068 L
941 2069 L
970 2069 L
1003 2069 L
1037 2070 L
1070 2070 L
1096 2071 L
1113 2071 L
1137 2072 L
1170 2072 L
1203 2073 L
1237 2074 L
1268 2075 L
1284 2077 L
1303 2077 L
1337 2078 L
1370 2080 L
1403 2082 L
1437 2084 L
1456 2086 L
1473 2087 L
1503 2089 L
1537 2093 L
1570 2096 L
1603 2100 L
1628 2105 L
1644 2108 L
1670 2111 L
1703 2117 L
1737 2124 L
1770 2132 L
1799 2141 L
1816 2148 L
1837 2151 L
1870 2162 L
1903 2175 L
1937 2190 L
1970 2206 L
1987 2225 L
2004 2226 L
2037 2246 L
2070 2269 L
2103 2295 L
2137 2324 L
2159 2357 L
2176 2369 L
2203 2393 L
2237 2432 L
2270 2476 L
2303 2524 L
2331 2577 L
2347 2614 L
2370 2634 L
2403 2695 L
2437 2761 L
2470 2830 L
2503 2904 L
2519 2978 L
2537 2982 L
2570 3062 L
2603 3144 L
2637 3228 L
2670 3312 L
2690 3395 L
2707 3415 L
2737 3476 L
2770 3555 L
2803 3631 L
2837 3701 L
2862 3766 L
2879 3799 L
2903 3825 L
2937 3878 L
2970 3924 L
3003 3963 L
3034 3996 L
3050 4018 L
3070 4022 L
3103 4042 L
3137 4058 L
3170 4069 L
3203 4076 L
3222 4081 L
3239 4081 L
3270 4083 L
3303 4085 L
3337 4086 L
3370 4086 L
3393 4086 L
3410 4086 L
3437 4086 L
3464 4086 L
3481 4086 L
3503 4086 L
3537 4086 L
3565 4086 L
3582 4086 L
3603 4086 L
3637 4086 L
3670 4086 L
3703 4086 L
3737 4086 L
3753 4086 L
3770 4086 L
3803 4086 L
3837 4086 L
3870 4086 L
3903 4086 L
3925 4086 L
3942 4086 L
3970 4086 L
4003 4086 L
4037 4086 L
4070 4086 L
4086 4086 L
LWMC SL dash04 C04 COSGR

GSN 753 1701 M
770 1701 L
803 1702 L
837 1702 L
870 1702 L
903 1703 L
924 1703 L
941 1703 L
970 1704 L
1003 1704 L
1037 1705 L
1070 1705 L
1096 1706 L
1113 1707 L
1137 1707 L
1170 1708 L
1203 1709 L
1237 1711 L
1268 1712 L
1284 1714 L
1303 1714 L
1337 1716 L
1370 1718 L
1403 1721 L
1437 1724 L
1456 1727 L
1473 1728 L
1503 1731 L
1537 1735 L
1570 1740 L
1603 1746 L
1628 1752 L
1644 1755 L
1670 1759 L
1703 1767 L
1737 1776 L
1770 1787 L
1799 1799 L
1816 1809 L
1837 1812 L
1870 1827 L
1903 1844 L
1937 1864 L
1970 1885 L
1987 1910 L
2004 1912 L
2037 1937 L
2070 1968 L
2103 2002 L
2137 2040 L
2159 2082 L
2176 2099 L
2203 2129 L
2237 2181 L
2270 2237 L
2303 2299 L
2331 2366 L
2347 2413 L
2370 2439 L
2403 2517 L
2437 2599 L
2470 2687 L
2503 2779 L
2519 2870 L
2537 2875 L
2570 2973 L
2603 3073 L
2637 3173 L
2670 3273 L
2690 3371 L
2707 3395 L
2737 3466 L
2770 3557 L
2803 3641 L
2837 3719 L
2862 3790 L
2879 3825 L
2903 3852 L
2937 3907 L
2970 3952 L
3003 3990 L
3034 4019 L
3050 4039 L
3070 4042 L
3103 4059 L
3137 4070 L
3170 4077 L
3203 4082 L
3222 4084 L
3239 4084 L
3270 4085 L
3303 4086 L
3337 4086 L
3370 4086 L
3393 4086 L
3410 4086 L
3437 4086 L
3464 4086 L
3481 4086 L
3503 4086 L
3537 4086 L
3565 4086 L
3582 4086 L
3603 4086 L
3637 4086 L
3670 4086 L
3703 4086 L
3737 4086 L
3753 4086 L
3770 4086 L
3803 4086 L
3837 4086 L
3870 4086 L
3903 4086 L
3925 4086 L
3942 4086 L
3970 4086 L
4003 4086 L
4037 4086 L
4070 4086 L
4086 4086 L
LWMC SL dash05 C05 COSGR

GSN 753 1432 M
770 1432 L
803 1432 L
837 1432 L
870 1433 L
903 1433 L
924 1434 L
941 1434 L
970 1434 L
1003 1435 L
1037 1436 L
1070 1437 L
1096 1437 L
1113 1438 L
1137 1439 L
1170 1440 L
1203 1441 L
1237 1443 L
1268 1445 L
1284 1446 L
1303 1447 L
1337 1449 L
1370 1452 L
1403 1455 L
1437 1458 L
1456 1462 L
1473 1463 L
1503 1467 L
1537 1472 L
1570 1478 L
1603 1484 L
1628 1492 L
1644 1496 L
1670 1501 L
1703 1510 L
1737 1521 L
1770 1534 L
1799 1548 L
1816 1560 L
1837 1564 L
1870 1582 L
1903 1602 L
1937 1625 L
1970 1651 L
1987 1680 L
2004 1682 L
2037 1712 L
2070 1749 L
2103 1789 L
2137 1834 L
2159 1884 L
2176 1903 L
2203 1939 L
2237 1999 L
2270 2066 L
2303 2138 L
2331 2216 L
2347 2271 L
2370 2301 L
2403 2391 L
2437 2486 L
2470 2587 L
2503 2692 L
2519 2796 L
2537 2801 L
2570 2912 L
2603 3025 L
2637 3137 L
2670 3248 L
2690 3356 L
2707 3383 L
2737 3460 L
2770 3558 L
2803 3648 L
2837 3731 L
2862 3804 L
2879 3840 L
2903 3868 L
2937 3923 L
2970 3968 L
3003 4004 L
3034 4031 L
3050 4049 L
3070 4052 L
3103 4066 L
3137 4075 L
3170 4080 L
3203 4083 L
3222 4085 L
3239 4085 L
3270 4086 L
3303 4086 L
3337 4086 L
3370 4086 L
3393 4086 L
3410 4086 L
3437 4086 L
3464 4086 L
3481 4086 L
3503 4086 L
3537 4086 L
3565 4086 L
3582 4086 L
3603 4086 L
3637 4086 L
3670 4086 L
3703 4086 L
3737 4086 L
3753 4086 L
3770 4086 L
3803 4086 L
3837 4086 L
3870 4086 L
3903 4086 L
3925 4086 L
3942 4086 L
3970 4086 L
4003 4086 L
4037 4086 L
4070 4086 L
4086 4086 L
LWMC SL dash06 C06 COSGR

GSN 753 753 M
770 753 L
803 753 L
837 754 L
870 754 L
903 755 L
924 756 L
941 756 L
970 757 L
1003 758 L
1037 759 L
1070 760 L
1096 761 L
1113 762 L
1137 763 L
1170 765 L
1203 767 L
1237 769 L
1268 772 L
1284 775 L
1303 775 L
1337 779 L
1370 783 L
1403 787 L
1437 793 L
1456 799 L
1473 800 L
1503 805 L
1537 813 L
1570 822 L
1603 832 L
1628 843 L
1644 849 L
1670 856 L
1703 870 L
1737 887 L
1770 905 L
1799 926 L
1816 944 L
1837 950 L
1870 977 L
1903 1007 L
1937 1041 L
1970 1079 L
1987 1121 L
2004 1124 L
2037 1169 L
2070 1222 L
2103 1281 L
2137 1346 L
2159 1418 L
2176 1446 L
2203 1498 L
2237 1584 L
2270 1679 L
2303 1781 L
2331 1891 L
2347 1968 L
2370 2009 L
2403 2133 L
2437 2264 L
2470 2400 L
2503 2540 L
2519 2677 L
2537 2684 L
2570 2828 L
2603 2972 L
2637 3113 L
2670 3249 L
2690 3378 L
2707 3409 L
2737 3499 L
2770 3610 L
2803 3709 L
2837 3796 L
2862 3869 L
2879 3904 L
2903 3930 L
2937 3979 L
2970 4015 L
3003 4042 L
3034 4060 L
3050 4071 L
3070 4072 L
3103 4079 L
3137 4083 L
3170 4085 L
3203 4086 L
3222 4086 L
3239 4086 L
3270 4086 L
3303 4086 L
3337 4086 L
3370 4086 L
3393 4086 L
3410 4086 L
3437 4086 L
3464 4086 L
3481 4086 L
3503 4086 L
3537 4086 L
3565 4086 L
3582 4086 L
3603 4086 L
3637 4086 L
3670 4086 L
3703 4086 L
3737 4086 L
3753 4086 L
3770 4086 L
3803 4086 L
3837 4086 L
3870 4086 L
3903 4086 L
3925 4086 L
3942 4086 L
3970 4086 L
4003 4086 L
4037 4086 L
4070 4086 L
4086 4086 L
LWMC SL dash07 C07 COSGR

%
%================
% Legend - Begin
%================
%
GSN 4240 4040 M
4480 4040 L
LWMC SL dash01 C01 COSGR
GSN 4540 4001 M helvM (0.5 uM) show grestore
GSN 4240 3860 M
4480 3860 L
LWMC SL dash02 C02 COSGR
GSN 4540 3821 M helvM (1.0 uM) show grestore
GSN 4240 3680 M
4480 3680 L
LWMC SL dash03 C03 COSGR
GSN 4540 3641 M helvM (1.5 uM) show grestore
GSN 4240 3500 M
4480 3500 L
LWMC SL dash04 C04 COSGR
GSN 4540 3461 M helvM (2.0 uM) show grestore
GSN 4240 3320 M
4480 3320 L
LWMC SL dash05 C05 COSGR
GSN 4540 3281 M helvM (2.5 uM) show grestore
GSN 4240 3140 M
4480 3140 L
LWMC SL dash06 C06 COSGR
GSN 4540 3101 M helvM (3.0 uM) show grestore
GSN 4240 2960 M
4480 2960 L
LWMC SL dash07 C07 COSGR
GSN 4540 2921 M helvM (4.0 uM) show grestore
%
%================
% Legend - End
%================
%

%
% Main frame
%
L10
GSN 
620 620 M
4220 620 L
4220 4220 L
620 4220 L
closepath SGR

%
% X axis: large tics
%
L10
GSN 1130 620 M 0  54 rL SGR
GSN 1130 4220 M 0 -54 rL SGR
helvS (0.0001) 1130 470 xlabel
GSN 1716 620 M 0  54 rL SGR
GSN 1716 4220 M 0 -54 rL SGR
helvS (0.001) 1716 470 xlabel
GSN 2303 620 M 0  54 rL SGR
GSN 2303 4220 M 0 -54 rL SGR
helvS (0.01) 2303 470 xlabel
GSN 2889 620 M 0  54 rL SGR
GSN 2889 4220 M 0 -54 rL SGR
helvS (0.1) 2889 470 xlabel
GSN 3476 620 M 0  54 rL SGR
GSN 3476 4220 M 0 -54 rL SGR
helvS (1) 3476 470 xlabel
GSN 4062 620 M 0  54 rL SGR
GSN 4062 4220 M 0 -54 rL SGR
helvS (10) 4062 470 xlabel
%
% X axis: small tics
%
L5
GSN 720 620 M 0  36 rL SGR
GSN 720 4220 M 0 -36 rL SGR
GSN 824 620 M 0  36 rL SGR
GSN 824 4220 M 0 -36 rL SGR
GSN 897 620 M 0  36 rL SGR
GSN 897 4220 M 0 -36 rL SGR
GSN 954 620 M 0  36 rL SGR
GSN 954 4220 M 0 -36 rL SGR
GSN 1000 620 M 0  36 rL SGR
GSN 1000 4220 M 0 -36 rL SGR
GSN 1039 620 M 0  36 rL SGR
GSN 1039 4220 M 0 -36 rL SGR
GSN 1073 620 M 0  36 rL SGR
GSN 1073 4220 M 0 -36 rL SGR
GSN 1103 620 M 0  36 rL SGR
GSN 1103 4220 M 0 -36 rL SGR
GSN 1307 620 M 0  36 rL SGR
GSN 1307 4220 M 0 -36 rL SGR
GSN 1410 620 M 0  36 rL SGR
GSN 1410 4220 M 0 -36 rL SGR
GSN 1483 620 M 0  36 rL SGR
GSN 1483 4220 M 0 -36 rL SGR
GSN 1540 620 M 0  36 rL SGR
GSN 1540 4220 M 0 -36 rL SGR
GSN 1586 620 M 0  36 rL SGR
GSN 1586 4220 M 0 -36 rL SGR
GSN 1626 620 M 0  36 rL SGR
GSN 1626 4220 M 0 -36 rL SGR
GSN 1660 620 M 0  36 rL SGR
GSN 1660 4220 M 0 -36 rL SGR
GSN 1690 620 M 0  36 rL SGR
GSN 1690 4220 M 0 -36 rL SGR
GSN 1893 620 M 0  36 rL SGR
GSN 1893 4220 M 0 -36 rL SGR
GSN 1996 620 M 0  36 rL SGR
GSN 1996 4220 M 0 -36 rL SGR
GSN 2069 620 M 0  36 rL SGR
GSN 2069 4220 M 0 -36 rL SGR
GSN 2126 620 M 0  36 rL SGR
GSN 2126 4220 M 0 -36 rL SGR
GSN 2173 620 M 0  36 rL SGR
GSN 2173 4220 M 0 -36 rL SGR
GSN 2212 620 M 0  36 rL SGR
GSN 2212 4220 M 0 -36 rL SGR
GSN 2246 620 M 0  36 rL SGR
GSN 2246 4220 M 0 -36 rL SGR
GSN 2276 620 M 0  36 rL SGR
GSN 2276 4220 M 0 -36 rL SGR
GSN 2479 620 M 0  36 rL SGR
GSN 2479 4220 M 0 -36 rL SGR
GSN 2583 620 M 0  36 rL SGR
GSN 2583 4220 M 0 -36 rL SGR
GSN 2656 620 M 0  36 rL SGR
GSN 2656 4220 M 0 -36 rL SGR
GSN 2713 620 M 0  36 rL SGR
GSN 2713 4220 M 0 -36 rL SGR
GSN 2759 620 M 0  36 rL SGR
GSN 2759 4220 M 0 -36 rL SGR
GSN 2798 620 M 0  36 rL SGR
GSN 2798 4220 M 0 -36 rL SGR
GSN 2832 620 M 0  36 rL SGR
GSN 2832 4220 M 0 -36 rL SGR
GSN 2862 620 M 0  36 rL SGR
GSN 2862 4220 M 0 -36 rL SGR
GSN 3066 620 M 0  36 rL SGR
GSN 3066 4220 M 0 -36 rL SGR
GSN 3169 620 M 0  36 rL SGR
GSN 3169 4220 M 0 -36 rL SGR
GSN 3242 620 M 0  36 rL SGR
GSN 3242 4220 M 0 -36 rL SGR
GSN 3299 620 M 0  36 rL SGR
GSN 3299 4220 M 0 -36 rL SGR
GSN 3345 620 M 0  36 rL SGR
GSN 3345 4220 M 0 -36 rL SGR
GSN 3385 620 M 0  36 rL SGR
GSN 3385 4220 M 0 -36 rL SGR
GSN 3419 620 M 0  36 rL SGR
GSN 3419 4220 M 0 -36 rL SGR
GSN 3449 620 M 0  36 rL SGR
GSN 3449 4220 M 0 -36 rL SGR
GSN 3652 620 M 0  36 rL SGR
GSN 3652 4220 M 0 -36 rL SGR
GSN 3755 620 M 0  36 rL SGR
GSN 3755 4220 M 0 -36 rL SGR
GSN 3829 620 M 0  36 rL SGR
GSN 3829 4220 M 0 -36 rL SGR
GSN 3885 620 M 0  36 rL SGR
GSN 3885 4220 M 0 -36 rL SGR
GSN 3932 620 M 0  36 rL SGR
GSN 3932 4220 M 0 -36 rL SGR
GSN 3971 620 M 0  36 rL SGR
GSN 3971 4220 M 0 -36 rL SGR
GSN 4005 620 M 0  36 rL SGR
GSN 4005 4220 M 0 -36 rL SGR
GSN 4035 620 M 0  36 rL SGR
GSN 4035 4220 M 0 -36 rL SGR
%
% Y axis: large tics
%
L10
GSN 620 1287 M 54 0 rL SGR
GSN 4220 1287 M -54 0 rL SGR
helvS (-2) 560 1287 ylabel
GSN 620 2685 M 54 0 rL SGR
GSN 4220 2685 M -54 0 rL SGR
helvS (-1) 560 2685 ylabel
GSN 620 4083 M 54 0 rL SGR
GSN 4220 4083 M -54 0 rL SGR
helvS (0) 560 4083 ylabel
%
% Y axis: small tics
%
L5
GSN 620 937 M 36 0 rL SGR
GSN 4220 937 M -36 0 rL SGR
GSN 620 1287 M 36 0 rL SGR
GSN 4220 1287 M -36 0 rL SGR
GSN 620 1636 M 36 0 rL SGR
GSN 4220 1636 M -36 0 rL SGR
GSN 620 1986 M 36 0 rL SGR
GSN 4220 1986 M -36 0 rL SGR
GSN 620 2335 M 36 0 rL SGR
GSN 4220 2335 M -36 0 rL SGR
GSN 620 2685 M 36 0 rL SGR
GSN 4220 2685 M -36 0 rL SGR
GSN 620 3034 M 36 0 rL SGR
GSN 4220 3034 M -36 0 rL SGR
GSN 620 3384 M 36 0 rL SGR
GSN 4220 3384 M -36 0 rL SGR
GSN 620 3733 M 36 0 rL SGR
GSN 4220 3733 M -36 0 rL SGR
GSN 620 4083 M 36 0 rL SGR
GSN 4220 4083 M -36 0 rL SGR

%
% X axis
%
GSN L5 620 4083 M 4220 4083 L SDA G50 SGR

%
% X-Axis label:
%
gsave 2420 290 M 
[
[(Helvetica) 180 0 true true 0 (t)]
[(Helvetica) 180 0 true true 0 (i)]
[(Helvetica) 180 0 true true 0 (m)]
[(Helvetica) 180 0 true true 0 (e)]
] 0 MCshow grestore

%
% Y-Axis label:
%
gsave 234 2420 M 
currentpoint gsave translate 90 rotate 0 0 moveto
[
[(Helvetica) 180 0 true true 0 (d)]
[(Helvetica) 180 0 true true 0 (\()]
[(Helvetica) 180 0 true true 0 (s)]
[(Helvetica) 180 0 true true 0 (i)]
[(Helvetica) 180 0 true true 0 (g)]
[(Helvetica) 180 0 true true 0 (n)]
[(Helvetica) 180 0 true true 0 (a)]
[(Helvetica) 180 0 true true 0 (l)]
[(Helvetica) 180 0 true true 0 (\))]
[(Helvetica) 180 0 true true 0 ( )]
[(Helvetica) 180 0 true true 0 (/)]
[(Helvetica) 180 0 true true 0 ( )]
[(Helvetica) 180 0 true true 0 (d)]
[(Helvetica) 180 0 true true 0 (t)]
] 0 MCshow grestore

end
showpage
%%Trailer
%%EOF
