%!PS-Adobe-3.0 EPSF-3.0
%%BoundingBox: 0 0 514 550
%%Creator: BioKin Ltd.
%%DocumentFonts: Symbol Helvetica
%%EndComments
%
/bkdict 256 dict def
bkdict begin
/M {moveto} def 
/R {rmoveto} def
/L {lineto} def
/rL {rlineto} def
/GSN {gsave newpath} def
/SGR {stroke grestore} def
/COSGR {gsave setrgbcolor stroke grestore grestore} def
/SL {setlinewidth} def
/LWMB {12} def             % line width - model curves, black & white
/LWMC {10} def             % line width - model curves, color
/L2 {2.5 setlinewidth} def
/L5 {5 setlinewidth} def
/L10 {10 setlinewidth} def
/G50 {0.5 setgray} def
/SDA {[10  20] 0 setdash} def % axes
/helvT {/Helvetica findfont 100 scalefont setfont} def % tiny
/helvS {/Helvetica findfont 125 scalefont setfont} def % small
/helvM {/Helvetica findfont 150 scalefont setfont} def % medium
/helvL {/Helvetica findfont 175 scalefont setfont} def % large
/xlabel {gsave M dup
   stringwidth exch -0.5 mul exch rmoveto show grestore} def 
/ylabel {gsave M 90 rotate dup
   stringwidth exch -0.5 mul exch rmoveto show grestore} def
/ylabelresid {gsave M dup
   stringwidth exch -1 mul exch rmoveto show grestore} def
% ======
% Shapes
% ======
% Circle:
/Circ {0 360 arc closepath} def
%
% Square:
/Squa {dup dup -0.5 mul dup dup R -2 mul 0 exch rL 1 mul 0 rL dup 0 exch -1 mul rL closepath} def
%
% Triangle Up:
/TriU {dup dup dup -0.4 mul exch -0.5 mul exch R dup 0.5 mul exch rL dup -1 mul exch 0.5 mul exch rL closepath} def 
%
% Triangle Down:
/TriD {dup dup dup 0.4 mul exch -0.5 mul exch R dup 0.5 mul exch -1 mul rL dup 0.5 mul exch rL closepath} def 
%
% Diamond:
/Diam {45 rotate Squa} def
% ======
% Fills
% ======
/GRF {gsave setgray fill grestore} def                    % gray-level Fill
/COF {gsave setrgbcolor fill grestore} def                % color fill
% ======
% Colors
% ======
/C01 {1.00	0.00	0.00} def      % Red
/C02 {0.00	0.00	1.00} def      % Blue
/C03 {0.00	0.39	0.00} def      % Dark Green
/C04 {0.78	0.08	0.52} def      % Medium Violet Red
/C05 {0.55	0.27	0.07} def      % Saddle Brown
/C06 {0.10	0.70	0.70} def      % (cyan)
/C07 {1.00	0.55	0.00} def      % Dark Orange
/C08 {0.63	0.13	0.94} def      % Purple
/C09 {0.00	0.75	1.00} def      % Deep Sky Blue
/C10 {0.20	0.80	0.20} def      % Lime Green
/C11 {0.47	0.53	0.60} def      % Light Slate Gray
/C12 {0.00	0.00	0.00} def      % Black            % or: {0.19	0.31	0.31} def      % Dark Slate Gray
%
/LGR {0.75} def % light gray
/DGR {0.33} def % dark gray
%
% =============
% Dash patterns
% =============
/dash01 { [80  20] 0 setdash } def
/dash02 { [40  20] 0 setdash } def
/dash03 { [80  20  10  20] 0 setdash } def
/dash04 { [40  20  10  20] 0 setdash } def
/dash05 { [80  20  10  10  10  20] 0 setdash } def
/dash06 { [40  20  10  10  10  20] 0 setdash } def
/dash07 { [10  10] 0 setdash } def
%
/MFshow {
   { dup 5 get 3 ge
     { 5 get 3 eq {gsave} {grestore} ifelse }
     {dup dup 0 get findfont exch 1 get scalefont setfont
     [ currentpoint ] exch dup 2 get 0 exch R dup 5 get 2 ne {dup dup 6
     get exch 4 get {show} {stringwidth pop 0 R} ifelse }if dup 5 get 0 eq
     {dup 3 get {2 get neg 0 exch R pop} {pop aload pop M} ifelse} {dup 5
     get 1 eq {dup 2 get exch dup 3 get exch 6 get stringwidth pop -2 div
     dup 0 R} {dup 6 get stringwidth pop -2 div 0 R 6 get
     show 2 index {aload pop M neg 3 -1 roll neg R pop pop} {pop pop pop
     pop aload pop M} ifelse }ifelse }ifelse }
     ifelse }
   forall} bind def
/MFwidth {0 exch {dup 3 get{dup dup 0 get findfont exch 1 get scalefont
     setfont 6 get stringwidth pop add} {pop} ifelse} forall} bind def
/MCshow { currentpoint stroke M
  exch dup MFwidth -2 div 3 -1 roll R MFshow } def
%
end
%%EndProlog
bkdict begin
0.1 0.1 scale
%
% Model curves:
%

GSN 753 4901 M
753 4901 L
786 4901 L
820 4902 L
853 4902 L
886 4902 L
920 4903 L
929 4903 L
953 4904 L
986 4904 L
1020 4905 L
1053 4906 L
1086 4907 L
1106 4907 L
1120 4908 L
1153 4908 L
1186 4909 L
1220 4910 L
1253 4911 L
1282 4912 L
1286 4912 L
1319 4913 L
1353 4913 L
1386 4913 L
1419 4913 L
1453 4913 L
1459 4913 L
1486 4912 L
1519 4910 L
1553 4908 L
1586 4905 L
1619 4901 L
1635 4898 L
1653 4896 L
1686 4889 L
1719 4882 L
1753 4872 L
1786 4862 L
1812 4852 L
1819 4849 L
1853 4834 L
1886 4817 L
1919 4798 L
1953 4776 L
1986 4751 L
1988 4749 L
2019 4723 L
2053 4691 L
2086 4657 L
2119 4618 L
2153 4576 L
2165 4560 L
2186 4531 L
2219 4481 L
2253 4427 L
2286 4369 L
2319 4307 L
2341 4263 L
2353 4240 L
2386 4168 L
2419 4093 L
2453 4013 L
2486 3930 L
2518 3848 L
2519 3843 L
2553 3755 L
2586 3664 L
2619 3573 L
2653 3481 L
2686 3390 L
2694 3368 L
2719 3301 L
2753 3215 L
2786 3132 L
2819 3054 L
2853 2980 L
2871 2943 L
2886 2912 L
2919 2850 L
2953 2795 L
2986 2746 L
3019 2704 L
3047 2674 L
3053 2669 L
3086 2641 L
3119 2618 L
3153 2601 L
3186 2589 L
3219 2580 L
3224 2579 L
3253 2575 L
3286 2572 L
3319 2570 L
3353 2569 L
3386 2569 L
3400 2568 L
3419 2568 L
3453 2568 L
3476 2568 L
3486 2568 L
3519 2568 L
3553 2568 L
3577 2568 L
3586 2568 L
3619 2568 L
3653 2568 L
3686 2568 L
3719 2568 L
3753 2568 L
3754 2568 L
3786 2568 L
3819 2568 L
3853 2568 L
3886 2568 L
3919 2568 L
3930 2568 L
3953 2568 L
3986 2568 L
4019 2568 L
4053 2568 L
4086 2568 L
4086 2568 L
LWMC SL  C03 COSGR

%
% Experimental data:
%
GSN 777 4939 M
1388 4928 L
1552 4963 L
1652 5100 L
1723 4882 L
1778 4734 L
1824 4750 L
1863 4702 L
1896 4676 L
1926 4723 L
1952 4809 L
1976 4874 L
1998 5069 L
2019 5163 L
2037 4832 L
2055 5165 L
2071 5006 L
2086 4845 L
2101 4817 L
2115 4840 L
2128 5101 L
2140 4872 L
2152 4794 L
2163 5166 L
2174 5093 L
2184 4884 L
2194 4699 L
2204 4604 L
2213 4851 L
2222 4880 L
2230 4821 L
2239 4918 L
2247 4752 L
2255 4740 L
2262 4932 L
2270 4695 L
2277 4768 L
2284 4685 L
2290 4906 L
2297 4810 L
2303 4668 L
2310 4501 L
2316 4608 L
2322 4545 L
2328 4591 L
2333 4638 L
2339 4699 L
2344 4672 L
2350 4780 L
2355 4526 L
2360 4539 L
2365 4625 L
2370 4684 L
2375 4585 L
2380 4409 L
2384 4675 L
2389 4597 L
2393 4832 L
2398 4603 L
2402 4436 L
2407 4430 L
2411 4619 L
2415 4550 L
2419 4508 L
2423 4677 L
2427 4557 L
2431 4805 L
2435 4541 L
2438 4428 L
2442 4589 L
2446 4535 L
2449 4412 L
2453 4443 L
2456 4539 L
2460 4477 L
2463 4389 L
2467 4279 L
2470 4336 L
2473 4457 L
2476 4518 L
2480 4335 L
2483 4374 L
2486 4598 L
2489 4378 L
2492 4509 L
2495 4356 L
2498 4440 L
2501 4275 L
2504 4511 L
2507 4420 L
2510 4248 L
2512 4415 L
2515 4503 L
2518 4378 L
2521 4427 L
2523 4323 L
2526 4362 L
2529 4216 L
2531 4029 L
2534 4239 L
2536 4224 L
2539 4289 L
2541 4256 L
2544 4147 L
2546 4034 L
2549 4203 L
2551 4263 L
2554 4226 L
2556 4147 L
2558 4214 L
2561 4263 L
2563 4063 L
2565 4046 L
2568 4421 L
2570 4346 L
2572 4291 L
2574 4172 L
2576 3977 L
2579 4557 L
2581 4117 L
2583 3994 L
2585 4189 L
2587 4295 L
2589 4168 L
2591 4071 L
2593 4132 L
2595 4042 L
2597 4168 L
2599 4075 L
2601 4083 L
2603 4323 L
2605 3893 L
2607 3999 L
2609 4048 L
2611 4126 L
2613 4086 L
2615 3872 L
2617 3942 L
2618 4061 L
2620 4101 L
2622 4103 L
2624 4153 L
2626 4102 L
2627 3853 L
2629 3918 L
2631 4044 L
2633 4055 L
2634 3975 L
2636 4129 L
2638 3941 L
2640 3984 L
2641 3922 L
2643 4050 L
2645 3883 L
2646 4063 L
2648 3967 L
2650 3601 L
2651 3965 L
2653 3860 L
2654 3983 L
2656 3824 L
2658 3983 L
2659 3822 L
2661 3673 L
2662 3812 L
2664 4038 L
2665 4011 L
2667 3786 L
2668 3891 L
2670 3969 L
2671 3953 L
2673 3758 L
2674 3896 L
2676 3902 L
2677 3774 L
2679 3900 L
2680 3855 L
2682 3828 L
2683 3827 L
2685 3769 L
2686 3751 L
2687 3873 L
2689 3753 L
2690 3795 L
2692 3478 L
2693 3950 L
2694 3850 L
2696 3684 L
2697 3646 L
2698 3869 L
2700 3912 L
2701 3755 L
2702 3902 L
2704 3711 L
2705 3681 L
2706 3717 L
2708 3614 L
2709 3835 L
2710 3701 L
2712 3810 L
2713 3734 L
2714 3774 L
2715 3831 L
2717 3632 L
2718 3643 L
2719 3728 L
2720 3868 L
2722 3700 L
2723 3583 L
2724 3823 L
2725 3750 L
2726 3604 L
2728 3690 L
2729 3556 L
2730 3651 L
2731 3554 L
2732 3761 L
2734 3600 L
2735 3715 L
2736 3487 L
2737 3491 L
2738 3664 L
2739 3563 L
2741 3514 L
2742 3410 L
2743 3759 L
2744 3472 L
2745 3642 L
2746 3526 L
2747 3844 L
2748 3583 L
2749 3599 L
2751 3618 L
2752 3506 L
2753 3815 L
2754 3462 L
2755 3553 L
2756 3588 L
2757 3468 L
2758 3599 L
2759 3497 L
2760 3553 L
2761 3733 L
2762 3612 L
2763 3575 L
2764 3621 L
2765 3386 L
2767 3757 L
2768 3799 L
2769 3612 L
2770 3294 L
2771 3604 L
2772 3490 L
2773 3476 L
2774 3643 L
2775 3342 L
2776 3548 L
2777 3425 L
2778 3648 L
2779 3470 L
2780 3477 L
2781 3560 L
2782 3309 L
2783 3553 L
2783 3575 L
2784 3525 L
2785 3409 L
2786 3514 L
2787 3305 L
2788 3404 L
2789 3340 L
2790 3442 L
2791 3244 L
2792 3599 L
2793 3455 L
2794 3500 L
2795 3433 L
2796 3424 L
2797 3286 L
2798 3614 L
2798 3480 L
2799 3643 L
2800 3463 L
2801 3632 L
2802 3484 L
2803 3405 L
2804 3298 L
2805 3473 L
2806 3307 L
2807 3426 L
2807 3231 L
2808 3476 L
2809 3498 L
2810 3344 L
2811 3334 L
2812 3459 L
2813 3275 L
2813 3241 L
2814 3114 L
2815 3388 L
2816 3567 L
2817 3273 L
2818 3421 L
2819 3463 L
2819 3350 L
2820 3426 L
2821 3107 L
2822 3314 L
2823 3549 L
2824 3265 L
2824 3175 L
2825 3298 L
2826 3314 L
2827 3700 L
2828 3271 L
2828 3059 L
2829 3255 L
2830 3200 L
2831 3281 L
2832 3147 L
2832 3286 L
2833 3172 L
2834 3262 L
2835 3391 L
2836 3189 L
2836 3185 L
2837 3106 L
2838 3299 L
2839 3151 L
2840 3117 L
2840 3170 L
2841 3143 L
2842 3231 L
2843 3400 L
2843 3157 L
2844 3210 L
2845 3177 L
2846 3001 L
2846 3206 L
2847 3047 L
2848 3254 L
2849 3490 L
2849 3053 L
2850 3103 L
2851 3336 L
2852 3015 L
2852 3204 L
2853 3227 L
2854 3259 L
2855 3299 L
2855 3402 L
2856 3151 L
2857 3236 L
2857 3177 L
2858 3116 L
2859 3149 L
2860 3201 L
2860 3028 L
2861 3079 L
2862 3032 L
2862 3099 L
2863 3007 L
2864 3312 L
2865 3017 L
2865 3413 L
2866 3075 L
2867 2941 L
2867 3082 L
2868 3181 L
2869 3285 L
2869 3204 L
2870 3130 L
2871 3320 L
2871 3156 L
2872 3067 L
2873 2932 L
2873 3104 L
2874 3292 L
2875 3007 L
2876 3143 L
2876 3320 L
2877 3065 L
2878 3040 L
2878 3025 L
2879 3214 L
2880 3177 L
2880 3001 L
2881 3131 L
2881 3009 L
2882 3070 L
2883 3256 L
2883 3084 L
2884 3214 L
2885 3275 L
2885 2943 L
2886 2996 L
2887 3280 L
2887 3217 L
2888 3003 L
2889 3099 L
2889 3084 L
2892 3308 L
2894 3167 L
2897 3082 L
2899 3221 L
2902 2973 L
2904 3209 L
2907 3193 L
2909 2810 L
2911 2913 L
2914 2936 L
2916 2992 L
2918 2871 L
2921 3133 L
2923 2850 L
2925 2837 L
2927 2883 L
2929 2870 L
2932 2875 L
2934 2924 L
2936 2767 L
2938 2915 L
2940 2897 L
2942 2866 L
2944 2893 L
2946 2747 L
2948 2919 L
2950 2847 L
2952 2708 L
2954 2748 L
2956 2752 L
2958 2819 L
2960 2542 L
2962 2797 L
2964 2872 L
2966 2875 L
2968 2776 L
2970 2848 L
2971 2774 L
2973 2722 L
2975 2595 L
2977 2562 L
2979 2713 L
2980 2588 L
2982 2802 L
2984 2609 L
2986 2703 L
2987 2680 L
2989 2832 L
2991 2684 L
2993 2802 L
2994 2607 L
2996 2751 L
2998 2695 L
2999 2596 L
3001 2611 L
3003 2398 L
3004 2753 L
3006 2499 L
3007 2582 L
3009 2627 L
3011 2575 L
3012 2517 L
3014 2403 L
3015 2650 L
3017 2556 L
3018 2446 L
3020 2480 L
3021 2390 L
3023 2607 L
3024 2528 L
3026 2529 L
3027 2467 L
3029 2304 L
3030 2556 L
3032 2563 L
3033 2556 L
3035 2451 L
3036 2485 L
3038 2675 L
3039 2245 L
3040 2626 L
3042 2363 L
3043 2512 L
3045 2521 L
3046 2505 L
3047 2352 L
3049 2654 L
3050 2476 L
3051 2579 L
3053 2422 L
3054 2252 L
3055 2377 L
3057 2387 L
3058 2467 L
3059 2365 L
3061 2376 L
3062 2313 L
3063 2165 L
3065 2283 L
3066 2415 L
3067 2366 L
3068 2243 L
3070 2420 L
3071 2390 L
3072 2359 L
3073 2531 L
3075 2196 L
3076 2287 L
3077 2464 L
3078 2127 L
3079 2380 L
3081 2448 L
3082 2402 L
3083 2399 L
3084 2226 L
3085 2400 L
3087 2276 L
3088 2415 L
3089 1953 L
3090 2478 L
3091 2259 L
3092 2183 L
3094 2301 L
3095 2185 L
3096 2199 L
3097 2300 L
3098 2322 L
3099 2322 L
3100 2245 L
3101 2319 L
3103 2265 L
3104 2189 L
3105 2370 L
3106 2165 L
3107 2457 L
3108 2195 L
3109 2109 L
3110 2343 L
3111 2235 L
3112 2217 L
3113 2343 L
3114 2423 L
3115 2218 L
3116 2252 L
3117 2243 L
3119 2170 L
3120 2224 L
3121 2022 L
3122 2220 L
3123 2078 L
3124 2001 L
3125 2103 L
3126 2171 L
3127 2103 L
3128 2018 L
3129 2248 L
3130 2180 L
3131 1967 L
3132 2217 L
3133 2115 L
3134 2447 L
3135 2101 L
3136 2098 L
3136 2021 L
3137 2065 L
3138 2146 L
3139 2328 L
3140 2304 L
3141 2222 L
3142 2105 L
3143 2192 L
3144 2133 L
3145 2240 L
3146 2074 L
3147 2076 L
3148 2349 L
3149 2042 L
3150 2104 L
3151 2121 L
3151 2139 L
3152 2257 L
3153 2170 L
3154 1997 L
3155 2080 L
3156 2077 L
3157 2166 L
3158 2206 L
3159 2061 L
3160 2060 L
3160 2069 L
3161 1984 L
3162 2045 L
3163 2102 L
3164 2152 L
3165 2185 L
3166 2001 L
3166 2100 L
3167 2070 L
3168 2001 L
3169 1972 L
3170 1984 L
3171 2060 L
3172 2148 L
3172 2208 L
3173 2057 L
3174 2250 L
3175 2105 L
3176 2292 L
3177 2016 L
3177 2082 L
3178 2144 L
3179 2317 L
3180 2153 L
3181 1870 L
3181 2058 L
3182 2160 L
3183 2002 L
3184 2116 L
3185 2112 L
3185 1946 L
3186 2092 L
3187 2070 L
3188 2093 L
3189 2213 L
3189 2016 L
3190 2043 L
3191 2229 L
3192 2148 L
3193 2033 L
3193 2223 L
3194 2066 L
3195 2021 L
3196 2062 L
3196 1977 L
3197 2062 L
3198 2032 L
3199 1842 L
3199 2158 L
3200 2071 L
3201 2104 L
3202 2016 L
3202 2228 L
3203 2035 L
3204 1893 L
3205 1944 L
3205 1902 L
3206 1994 L
3207 2241 L
3208 2009 L
3208 2129 L
3209 2174 L
3210 2173 L
3210 1846 L
3211 1957 L
3212 2108 L
3213 2222 L
3213 2084 L
3214 2089 L
3215 2152 L
3215 1986 L
3216 2039 L
3217 2217 L
3218 2140 L
3218 2034 L
3219 1903 L
3220 2222 L
3220 2078 L
3221 2417 L
3222 2136 L
3222 2376 L
3223 2146 L
3224 2328 L
3224 1860 L
3225 2036 L
3226 2105 L
3227 1990 L
3227 2244 L
3228 1916 L
3229 2195 L
3229 1970 L
3230 2131 L
3231 2103 L
3231 1900 L
3232 2181 L
3233 1888 L
3233 2177 L
3234 2007 L
3235 2248 L
3235 2057 L
3236 2090 L
3236 2109 L
3237 2064 L
3238 1959 L
3238 2070 L
3239 2187 L
3240 2091 L
3240 2066 L
3241 2140 L
3242 2015 L
3242 1976 L
3243 1884 L
3244 2127 L
3244 1982 L
3245 2202 L
3245 2027 L
3246 2083 L
3247 2072 L
3247 1833 L
3248 2016 L
3249 2293 L
3249 2127 L
3250 1943 L
3250 2029 L
3251 2135 L
3252 2095 L
3252 2120 L
3253 2015 L
3253 2001 L
3254 2106 L
3255 2135 L
3255 2142 L
3256 1894 L
3257 2262 L
3257 1983 L
3258 2188 L
3258 2058 L
3259 2354 L
3259 1944 L
3260 2175 L
3261 2064 L
3261 2024 L
3262 2048 L
3262 2165 L
3263 2232 L
3264 2209 L
3264 2129 L
3265 2095 L
3265 2240 L
3266 1942 L
3267 1976 L
3267 2138 L
3268 1978 L
3268 2147 L
3269 2232 L
3269 2052 L
3270 2172 L
3271 2005 L
3271 2117 L
3272 1999 L
3272 2206 L
3273 2041 L
3273 2188 L
3274 2134 L
3275 2201 L
3275 2142 L
3276 2067 L
3276 1986 L
3277 2237 L
3277 2223 L
3278 2177 L
3278 2009 L
3279 2079 L
3280 2222 L
3280 2238 L
3281 2049 L
3281 2147 L
3282 2137 L
3282 2137 L
3283 2114 L
3283 2216 L
3284 2049 L
3284 2145 L
3285 2138 L
3285 2072 L
3286 2347 L
3287 2037 L
3287 2182 L
3288 2198 L
3288 2225 L
3289 2092 L
3289 2107 L
3290 2152 L
3290 2318 L
3291 1991 L
3291 2284 L
3292 2048 L
3292 2173 L
3293 2267 L
3293 2009 L
3294 2047 L
3294 2201 L
3295 2141 L
3295 2185 L
3296 2133 L
3297 2089 L
3297 2192 L
3298 2074 L
3298 2254 L
3299 2179 L
3299 2227 L
3300 1995 L
3300 2078 L
3301 2108 L
3301 2127 L
3302 2013 L
3302 2088 L
3303 1919 L
3303 2311 L
3304 2055 L
3304 2269 L
3305 2278 L
3305 2079 L
3306 2014 L
3306 2257 L
3307 2314 L
3307 2171 L
3308 2047 L
3308 2070 L
3309 2120 L
3309 2188 L
3310 2079 L
3310 2330 L
3311 2105 L
3311 2177 L
3312 2192 L
3312 2305 L
3312 1932 L
3313 2370 L
3313 2067 L
3314 2112 L
3314 2275 L
3315 2030 L
3315 2122 L
3316 2157 L
3316 2284 L
3317 2215 L
3317 2412 L
3318 2030 L
3318 2125 L
3319 2212 L
3319 2028 L
3320 2181 L
3320 2153 L
3321 2133 L
3321 1956 L
3321 2138 L
3322 2164 L
3322 2147 L
3323 2152 L
3323 2121 L
3324 2420 L
3324 2159 L
3325 2269 L
3325 2313 L
3326 2346 L
3326 2296 L
3327 2106 L
3327 2256 L
3327 2433 L
3328 2232 L
3328 2098 L
3329 2275 L
3329 2031 L
3330 2258 L
3330 2074 L
3331 2240 L
3331 2239 L
3332 2420 L
3332 2167 L
3332 2083 L
3333 2238 L
3333 2556 L
3334 2064 L
3334 1974 L
3335 2262 L
3335 2171 L
3336 2195 L
3336 2179 L
3336 2102 L
3337 2300 L
3337 1997 L
3338 2359 L
3338 2085 L
3339 2387 L
3339 2049 L
3339 2361 L
3340 2214 L
3340 2089 L
3341 2259 L
3341 2264 L
3342 2325 L
3342 2165 L
3343 2246 L
3343 2224 L
3343 2099 L
3344 2259 L
3344 2112 L
3345 2072 L
3345 2224 L
3346 2186 L
3346 2077 L
3346 2269 L
3347 2336 L
3347 2218 L
3348 2195 L
3348 2299 L
3348 2290 L
3349 2074 L
3349 2278 L
3350 2009 L
3350 2165 L
3351 2131 L
3351 2289 L
3351 2312 L
3352 2390 L
3352 2133 L
3353 2118 L
3353 2212 L
3353 2200 L
3354 2198 L
3354 2129 L
3355 2147 L
3355 2228 L
3355 2335 L
3356 2213 L
3356 2263 L
3357 2187 L
3357 2259 L
3358 2179 L
3358 2527 L
3358 2200 L
3359 2311 L
3359 2355 L
3360 2177 L
3360 2346 L
3360 2191 L
3361 2532 L
3361 2218 L
3362 2267 L
3362 2392 L
3362 2201 L
3363 1974 L
3363 2305 L
3364 2198 L
3364 2397 L
3364 2324 L
3365 1995 L
3365 2330 L
3365 2407 L
3366 2389 L
3366 2369 L
3367 2224 L
3367 2238 L
3367 2244 L
3368 2221 L
3368 2438 L
3369 2168 L
3369 2357 L
3369 2329 L
3370 2257 L
3370 2326 L
3371 2270 L
3371 2351 L
3371 2315 L
3372 2284 L
3372 2207 L
3372 2192 L
3373 1974 L
3373 2208 L
3374 1965 L
3374 2306 L
3374 2022 L
3375 2351 L
3375 2368 L
3375 2174 L
3376 2343 L
3376 2182 L
3377 2290 L
3377 2661 L
3377 2368 L
3378 2244 L
3378 2035 L
3378 2296 L
3379 2194 L
3379 2381 L
3380 2214 L
3380 2221 L
3380 2305 L
3381 2495 L
3381 2176 L
3381 2324 L
3382 2295 L
3382 2143 L
3383 2277 L
3383 2192 L
3383 2426 L
3384 2182 L
3384 2630 L
3384 2227 L
3385 2389 L
3385 2381 L
3385 2329 L
3386 2221 L
3386 2477 L
3387 2278 L
3387 2322 L
3387 2483 L
3388 2131 L
3388 2255 L
3388 2335 L
3389 2247 L
3389 2397 L
3389 2239 L
3390 2217 L
3390 2457 L
3391 2250 L
3391 2357 L
3391 2218 L
3392 2333 L
3392 2246 L
3392 2447 L
3393 2219 L
3393 2466 L
3393 2384 L
3394 2353 L
3394 2127 L
3394 2199 L
3395 2256 L
3395 2169 L
3395 2273 L
3396 2416 L
3396 2229 L
3396 2273 L
3397 2222 L
3397 2317 L
3398 2328 L
3398 2229 L
3398 2303 L
3399 2250 L
3399 2275 L
3399 2231 L
3400 2266 L
3400 2262 L
3400 2234 L
3401 2435 L
3401 2186 L
3401 2359 L
3402 2495 L
3402 2376 L
3402 2481 L
3403 2383 L
3403 2327 L
3403 2460 L
3404 2391 L
3404 2469 L
3404 2524 L
3405 2483 L
3405 2227 L
3405 2345 L
3406 2297 L
3406 2242 L
3406 2315 L
3407 2335 L
3407 2328 L
3407 2361 L
3408 2375 L
3408 2357 L
3408 2430 L
3409 2461 L
3409 2237 L
3409 2420 L
3410 2207 L
3410 2296 L
3410 2477 L
3411 2481 L
3411 2264 L
3411 2371 L
3412 2541 L
3412 2490 L
3412 2271 L
3413 2430 L
3413 2272 L
3413 2277 L
3414 2439 L
3414 2374 L
3414 2357 L
3415 2320 L
3415 2104 L
3415 2417 L
3416 2525 L
3416 2249 L
3416 2450 L
3417 2203 L
3417 2394 L
3417 2378 L
3417 2316 L
3418 2410 L
3418 2466 L
3418 2414 L
3419 2433 L
3419 2317 L
3419 2185 L
3420 2387 L
3420 2709 L
3420 2465 L
3421 2398 L
3421 2317 L
3421 2390 L
3422 2286 L
3422 2357 L
3422 2372 L
3423 2550 L
3423 2288 L
3423 2473 L
3423 2301 L
3424 2498 L
3424 2496 L
3424 2462 L
3425 2527 L
3425 2369 L
3425 2363 L
3426 2330 L
3426 2272 L
3426 2460 L
3427 2533 L
3427 2274 L
3427 2431 L
3428 2324 L
3428 2889 L
3428 2494 L
3428 2298 L
3429 2261 L
3429 2375 L
3429 2642 L
3430 2431 L
3430 2391 L
3430 2349 L
3431 2462 L
3431 2287 L
3431 2538 L
3431 2497 L
3432 2391 L
3432 2371 L
3432 2341 L
3433 2418 L
3433 2494 L
3433 2331 L
3434 2402 L
3434 2539 L
3434 2275 L
3434 2611 L
3435 2508 L
3435 2581 L
3435 2549 L
3436 2425 L
3436 2401 L
3436 2453 L
3437 2389 L
3437 2440 L
3437 2327 L
3437 2374 L
3438 2524 L
3438 2515 L
3438 2527 L
3439 2473 L
3439 2484 L
3439 2615 L
3440 2630 L
3440 2339 L
3440 2401 L
3440 2505 L
3441 2508 L
3441 2319 L
3441 2353 L
3442 2472 L
3442 2636 L
3442 2590 L
3442 2762 L
3443 2579 L
3443 2497 L
3443 2452 L
3444 2456 L
3444 2447 L
3444 2382 L
3444 2584 L
3445 2175 L
3445 2725 L
3445 2391 L
3446 2327 L
3446 2424 L
3446 2624 L
3446 2316 L
3447 2462 L
3447 2367 L
3447 2463 L
3448 2525 L
3448 2561 L
3448 2519 L
3448 2403 L
3449 2546 L
3449 2623 L
3449 2612 L
3450 2243 L
3450 2340 L
3450 2386 L
3450 2502 L
3451 2267 L
3451 2368 L
3451 2410 L
3452 2544 L
3452 2472 L
3452 2427 L
3452 2483 L
3453 2273 L
3453 2462 L
3453 2384 L
3454 2573 L
3454 2501 L
3454 2523 L
3454 2474 L
3455 2613 L
3455 2418 L
3455 2505 L
3455 2447 L
3456 2324 L
3456 2512 L
3456 2589 L
3457 2336 L
3457 2431 L
3457 2248 L
3457 2512 L
3458 2337 L
3458 2514 L
3458 2468 L
3458 2654 L
3459 2454 L
3459 2631 L
3459 2444 L
3460 2605 L
3460 2609 L
3460 2385 L
3460 2397 L
3461 2424 L
3461 2543 L
3461 2584 L
3461 2345 L
3462 2487 L
3462 2517 L
3462 2471 L
3463 2546 L
3463 2356 L
3463 2395 L
3463 2530 L
3464 2483 L
3464 2385 L
3464 2447 L
3464 2531 L
3465 2675 L
3465 2344 L
3465 2623 L
3465 2436 L
3466 2446 L
3466 2586 L
3466 2551 L
3466 2379 L
3467 2482 L
3467 2479 L
3467 2583 L
3468 2597 L
3468 2554 L
3468 2518 L
3468 2611 L
3469 2634 L
3469 2634 L
3469 2594 L
3469 2468 L
3470 2548 L
3470 2432 L
3470 2612 L
3470 2643 L
3471 2567 L
3471 2743 L
3471 2535 L
3471 2693 L
3472 2693 L
3472 2548 L
3472 2460 L
3472 2632 L
3473 2577 L
3473 2574 L
3473 2370 L
3474 2726 L
3474 2498 L
3474 2582 L
3474 2523 L
3475 2347 L
3475 2554 L
3475 2482 L
3475 2541 L
3476 2531 L
3476 2626 L
3476 2426 L
3476 2467 L
3477 2468 L
3477 2424 L
3477 2571 L
3477 2544 L
3478 2515 L
3478 2601 L
3478 2578 L
3478 2457 L
3479 2507 L
3479 2531 L
3479 2584 L
3479 2569 L
3480 2550 L
3480 2609 L
3480 2498 L
3480 2559 L
3481 2636 L
3481 2515 L
3481 2682 L
3481 2705 L
3482 2625 L
3482 2586 L
3482 2521 L
3482 2647 L
3483 2667 L
3483 2659 L
3483 2689 L
3483 2490 L
3484 2601 L
3484 2532 L
3484 2448 L
3484 2418 L
3485 2582 L
3485 2492 L
3485 2539 L
3485 2342 L
3486 2660 L
3486 2419 L
3486 2396 L
3486 2548 L
3487 2606 L
3487 2427 L
3487 2505 L
3487 2499 L
3488 2632 L
3488 2637 L
3488 2701 L
3488 2447 L
3488 2731 L
3489 2545 L
3489 2454 L
3489 2389 L
3489 2724 L
3490 2600 L
3490 2678 L
3490 2433 L
3490 2451 L
3491 2818 L
3491 2734 L
3491 2378 L
3491 2527 L
3492 2384 L
3492 2536 L
3492 2629 L
3492 2489 L
3493 2633 L
3493 2667 L
3493 2595 L
3493 2535 L
3494 2521 L
3494 2538 L
3494 2439 L
3494 2590 L
3494 2387 L
3495 2557 L
3495 2603 L
3495 2638 L
3495 2495 L
3496 2452 L
3496 2479 L
3496 2843 L
3496 2368 L
3497 2653 L
3497 2583 L
3497 2585 L
3497 2646 L
3498 2602 L
3498 2715 L
3498 2569 L
3498 2476 L
3498 2639 L
3499 2726 L
3499 2748 L
3499 2628 L
3499 2793 L
3500 2528 L
3500 2587 L
3506 2735 L
3511 2505 L
3517 2669 L
3522 2722 L
3527 2806 L
3532 2657 L
3537 2727 L
3542 2735 L
3547 2651 L
3552 2806 L
3557 2732 L
3561 2633 L
3566 2717 L
3570 2917 L
3575 2879 L
3579 2795 L
3583 2991 L
3587 2985 L
3591 3035 L
3595 2728 L
3599 2831 L
3603 2802 L
3607 2775 L
3611 2832 L
3614 2696 L
3618 2914 L
3622 2800 L
3625 2683 L
3629 2699 L
3632 2947 L
3636 3051 L
3639 2887 L
3642 2778 L
3646 2825 L
3649 2909 L
3652 2982 L
3655 2915 L
3658 3176 L
3661 2766 L
3664 2578 L
3667 2834 L
3670 2765 L
3673 2890 L
3676 2901 L
3679 2799 L
3682 2859 L
3685 3020 L
3688 2705 L
3690 2943 L
3693 2838 L
3696 2808 L
3698 2990 L
3701 2704 L
3704 2706 L
3706 2806 L
3709 2837 L
3711 2920 L
3714 2928 L
3716 2901 L
3719 2921 L
3721 2718 L
3724 3030 L
3726 2541 L
3728 2971 L
3731 3036 L
3733 2916 L
3735 2814 L
3738 2920 L
3740 2953 L
3742 2893 L
3744 3012 L
3747 2887 L
3749 3172 L
3751 2876 L
3753 2911 L
3755 3095 L
3757 2967 L
3760 2958 L
3762 3223 L
3764 2919 L
3766 2966 L
3768 2755 L
3770 2892 L
3772 2911 L
3774 2949 L
3776 2924 L
3778 3032 L
3780 2885 L
3781 2875 L
3783 2940 L
3785 2789 L
3787 2985 L
3789 2858 L
3791 2939 L
3793 2983 L
3795 2905 L
3796 2816 L
3798 2714 L
3800 3057 L
3802 2924 L
3803 2864 L
3805 2913 L
3807 3028 L
3809 3012 L
3810 2725 L
3812 2786 L
3814 3061 L
3816 2990 L
3817 2715 L
3819 2749 L
3820 2682 L
3822 2963 L
3824 2979 L
3825 2851 L
3827 2789 L
3829 3080 L
3830 2896 L
3832 3008 L
3833 2904 L
3835 2815 L
3836 2931 L
3838 2824 L
3839 2977 L
3841 3158 L
3842 3051 L
3844 2804 L
3845 2969 L
3847 3114 L
3848 2867 L
3850 2868 L
3851 3113 L
3853 2726 L
3854 2955 L
3856 2755 L
3857 3002 L
3859 2951 L
3860 3044 L
3861 2943 L
3863 2906 L
3864 2921 L
3866 2880 L
3867 2857 L
3868 2931 L
3870 2839 L
3871 3083 L
3872 3072 L
3874 2980 L
3875 2752 L
3876 3310 L
3878 3030 L
3879 2843 L
3880 3057 L
3882 2754 L
3883 2832 L
3884 2915 L
3885 3102 L
3887 2942 L
3888 2947 L
3889 2936 L
3890 3069 L
3892 3098 L
3893 3112 L
3894 2892 L
3895 2874 L
3897 2864 L
3898 2985 L
3899 2955 L
3900 2858 L
3901 3038 L
3903 3085 L
3904 2923 L
3905 2940 L
3906 2702 L
3907 2788 L
3908 2860 L
3910 2616 L
3911 2962 L
3912 2836 L
3913 2986 L
3914 3091 L
3915 2673 L
3917 2778 L
3918 2571 L
3919 2980 L
3920 2887 L
3921 3029 L
3922 2856 L
3923 2981 L
3924 3121 L
3925 3019 L
3926 2980 L
3928 3022 L
3929 2944 L
3930 2909 L
3931 3026 L
3932 2905 L
3933 2788 L
3934 2732 L
3935 3041 L
3936 2855 L
3937 3026 L
3938 2899 L
3939 3086 L
3940 2794 L
3941 2885 L
3942 3025 L
3943 3005 L
3944 2918 L
3945 3225 L
3946 2909 L
3947 2698 L
3948 2797 L
3949 2795 L
3950 3140 L
3951 2891 L
3952 2851 L
3953 2860 L
3954 2831 L
3955 2859 L
3956 2987 L
3957 3074 L
3958 2900 L
3959 2947 L
3960 2772 L
3961 2802 L
3962 2811 L
3963 3088 L
3964 2849 L
3965 2958 L
3966 3070 L
3966 2744 L
3967 2842 L
3968 2879 L
3969 2798 L
3970 2846 L
3971 2831 L
3972 2845 L
3973 2889 L
3974 2946 L
3975 2701 L
3976 2800 L
3976 2817 L
3977 2614 L
3978 2906 L
3979 2943 L
3980 2958 L
3981 2996 L
3982 2997 L
3983 2854 L
3983 2620 L
3984 2620 L
3985 3007 L
3986 2751 L
3987 2986 L
3988 2863 L
3989 2826 L
3989 2933 L
3990 2703 L
3991 2782 L
3992 2805 L
3993 2848 L
3994 2864 L
3995 2876 L
3995 2728 L
3996 2854 L
3997 2753 L
3998 2841 L
3999 2968 L
3999 2929 L
4000 2682 L
4001 2673 L
4002 2770 L
4003 2919 L
4003 2905 L
4004 3113 L
4005 3000 L
4006 2791 L
4007 3002 L
4007 2874 L
4008 2631 L
4009 2851 L
4010 2906 L
4011 2933 L
4011 2618 L
4012 2817 L
4013 2707 L
4014 3036 L
4014 2749 L
4015 2901 L
4016 2867 L
4017 2875 L
4017 2964 L
4018 3007 L
4019 3085 L
4020 2943 L
4021 3075 L
4021 2838 L
4022 2974 L
4023 2866 L
4023 2761 L
4024 2920 L
4025 3118 L
4026 2780 L
4026 2889 L
4027 2843 L
4028 2864 L
4029 3001 L
4029 2920 L
4030 2981 L
4031 2898 L
4032 2777 L
4032 3003 L
4033 2924 L
4034 2859 L
4034 2902 L
4035 3106 L
4036 2825 L
4036 2746 L
4037 3070 L
4038 2927 L
4039 2875 L
4039 2979 L
4040 2829 L
4041 2952 L
4041 2905 L
4042 2720 L
4043 2721 L
4043 2798 L
4044 2948 L
4045 2864 L
4045 2730 L
4046 2751 L
4047 2909 L
4047 2867 L
4048 2815 L
4049 2916 L
4050 3102 L
4050 2876 L
4051 3080 L
4052 2604 L
4052 2969 L
4053 2685 L
4053 3063 L
4054 3097 L
4055 2564 L
4055 2863 L
4056 2981 L
4057 2761 L
4057 3005 L
4058 2918 L
4059 2844 L
4059 2631 L
4060 2884 L
4061 2474 L
4061 2898 L
4062 2608 L
L2 C03 COSGR

%
%================
% Legend - Begin
%================
%
GSN 4240 5180 M
4480 5180 L
LWMC SL  C03 COSGR
GSN 4540 5141 M helvM (1.5 uM) show grestore
%
%================
% Legend - End
%================
%

%
% Residuals:
%
GSN 777 1146 M
1388 1134 L
1552 1155 L
1652 1230 L
1723 1127 L
1778 1061 L
1824 1078 L
1863 1062 L
1896 1058 L
1926 1091 L
1952 1143 L
1976 1185 L
1998 1293 L
2019 1350 L
2037 1190 L
2055 1368 L
2071 1296 L
2086 1223 L
2101 1216 L
2115 1236 L
2128 1376 L
2140 1268 L
2152 1236 L
2163 1433 L
2174 1403 L
2184 1305 L
2194 1218 L
2204 1177 L
2213 1309 L
2222 1331 L
2230 1308 L
2239 1364 L
2247 1286 L
2255 1287 L
2262 1391 L
2270 1277 L
2277 1321 L
2284 1285 L
2290 1403 L
2297 1360 L
2303 1294 L
2310 1216 L
2316 1276 L
2322 1250 L
2328 1279 L
2333 1309 L
2339 1345 L
2344 1337 L
2350 1398 L
2355 1274 L
2360 1286 L
2365 1335 L
2370 1371 L
2375 1326 L
2380 1242 L
2384 1381 L
2389 1347 L
2393 1471 L
2398 1360 L
2402 1281 L
2407 1282 L
2411 1383 L
2415 1353 L
2419 1337 L
2423 1427 L
2427 1371 L
2431 1501 L
2435 1372 L
2438 1319 L
2442 1406 L
2446 1383 L
2449 1325 L
2453 1345 L
2456 1398 L
2460 1371 L
2463 1330 L
2467 1279 L
2470 1312 L
2473 1377 L
2476 1412 L
2480 1324 L
2483 1348 L
2486 1465 L
2489 1358 L
2492 1428 L
2495 1355 L
2498 1401 L
2501 1321 L
2504 1444 L
2507 1402 L
2510 1319 L
2512 1407 L
2515 1455 L
2518 1396 L
2521 1424 L
2523 1375 L
2526 1398 L
2529 1328 L
2531 1237 L
2534 1346 L
2536 1342 L
2539 1379 L
2541 1366 L
2544 1313 L
2546 1260 L
2549 1349 L
2551 1382 L
2554 1367 L
2556 1330 L
2558 1367 L
2561 1395 L
2563 1297 L
2565 1292 L
2568 1485 L
2570 1449 L
2572 1425 L
2574 1368 L
2576 1272 L
2579 1569 L
2581 1349 L
2583 1289 L
2585 1391 L
2587 1448 L
2589 1386 L
2591 1340 L
2593 1374 L
2595 1331 L
2597 1398 L
2599 1353 L
2601 1360 L
2603 1484 L
2605 1269 L
2607 1326 L
2609 1353 L
2611 1395 L
2613 1377 L
2615 1272 L
2617 1310 L
2618 1373 L
2620 1395 L
2622 1399 L
2624 1427 L
2626 1404 L
2627 1280 L
2629 1315 L
2631 1382 L
2633 1389 L
2634 1351 L
2636 1432 L
2638 1339 L
2640 1363 L
2641 1334 L
2643 1402 L
2645 1319 L
2646 1412 L
2648 1366 L
2650 1183 L
2651 1370 L
2653 1319 L
2654 1383 L
2656 1305 L
2658 1388 L
2659 1308 L
2661 1235 L
2662 1308 L
2664 1424 L
2665 1413 L
2667 1301 L
2668 1356 L
2670 1398 L
2671 1392 L
2673 1295 L
2674 1367 L
2676 1372 L
2677 1309 L
2679 1375 L
2680 1354 L
2682 1343 L
2683 1344 L
2685 1317 L
2686 1310 L
2687 1373 L
2689 1314 L
2690 1337 L
2692 1179 L
2693 1420 L
2694 1371 L
2696 1288 L
2697 1271 L
2698 1386 L
2700 1410 L
2701 1332 L
2702 1408 L
2704 1313 L
2705 1300 L
2706 1320 L
2708 1270 L
2709 1383 L
2710 1317 L
2712 1374 L
2713 1337 L
2714 1359 L
2715 1390 L
2717 1291 L
2718 1298 L
2719 1343 L
2720 1415 L
2722 1332 L
2723 1274 L
2724 1397 L
2725 1362 L
2726 1289 L
2728 1335 L
2729 1268 L
2730 1318 L
2731 1270 L
2732 1377 L
2734 1297 L
2735 1357 L
2736 1243 L
2737 1246 L
2738 1335 L
2739 1286 L
2741 1263 L
2742 1211 L
2743 1389 L
2744 1245 L
2745 1333 L
2746 1276 L
2747 1438 L
2748 1307 L
2749 1317 L
2751 1328 L
2752 1273 L
2753 1431 L
2754 1253 L
2755 1301 L
2756 1320 L
2757 1261 L
2758 1328 L
2759 1278 L
2760 1308 L
2761 1400 L
2762 1340 L
2763 1323 L
2764 1348 L
2765 1230 L
2767 1419 L
2768 1442 L
2769 1348 L
2770 1188 L
2771 1346 L
2772 1290 L
2773 1284 L
2774 1370 L
2775 1219 L
2776 1325 L
2777 1263 L
2778 1378 L
2779 1289 L
2780 1294 L
2781 1337 L
2782 1211 L
2783 1335 L
2783 1348 L
2784 1323 L
2785 1266 L
2786 1320 L
2787 1216 L
2788 1267 L
2789 1236 L
2790 1289 L
2791 1189 L
2792 1370 L
2793 1299 L
2794 1323 L
2795 1290 L
2796 1286 L
2797 1217 L
2798 1385 L
2798 1318 L
2799 1402 L
2800 1311 L
2801 1398 L
2802 1324 L
2803 1285 L
2804 1232 L
2805 1322 L
2806 1239 L
2807 1300 L
2807 1202 L
2808 1328 L
2809 1340 L
2810 1263 L
2811 1259 L
2812 1323 L
2813 1231 L
2813 1215 L
2814 1151 L
2815 1291 L
2816 1383 L
2817 1235 L
2818 1311 L
2819 1333 L
2819 1277 L
2820 1316 L
2821 1156 L
2822 1261 L
2823 1381 L
2824 1238 L
2824 1194 L
2825 1257 L
2826 1266 L
2827 1463 L
2828 1246 L
2828 1140 L
2829 1240 L
2830 1213 L
2831 1255 L
2832 1188 L
2832 1259 L
2833 1203 L
2834 1249 L
2835 1315 L
2836 1214 L
2836 1212 L
2837 1174 L
2838 1272 L
2839 1198 L
2840 1182 L
2840 1209 L
2841 1196 L
2842 1242 L
2843 1328 L
2843 1206 L
2844 1234 L
2845 1218 L
2846 1130 L
2846 1234 L
2847 1155 L
2848 1260 L
2849 1381 L
2849 1160 L
2850 1186 L
2851 1305 L
2852 1143 L
2852 1240 L
2853 1252 L
2854 1269 L
2855 1290 L
2855 1343 L
2856 1217 L
2857 1261 L
2857 1231 L
2858 1201 L
2859 1219 L
2860 1246 L
2860 1159 L
2861 1186 L
2862 1162 L
2862 1198 L
2863 1152 L
2864 1307 L
2865 1158 L
2865 1359 L
2866 1189 L
2867 1122 L
2867 1194 L
2868 1245 L
2869 1298 L
2869 1258 L
2870 1221 L
2871 1318 L
2871 1235 L
2872 1191 L
2873 1124 L
2873 1211 L
2874 1307 L
2875 1163 L
2876 1233 L
2876 1323 L
2877 1195 L
2878 1183 L
2878 1176 L
2879 1272 L
2880 1255 L
2880 1166 L
2881 1232 L
2881 1171 L
2882 1203 L
2883 1298 L
2883 1211 L
2884 1278 L
2885 1310 L
2885 1142 L
2886 1169 L
2887 1314 L
2887 1283 L
2888 1175 L
2889 1224 L
2889 1217 L
2892 1333 L
2894 1264 L
2897 1223 L
2899 1296 L
2902 1173 L
2904 1295 L
2907 1289 L
2909 1097 L
2911 1151 L
2914 1165 L
2916 1195 L
2918 1136 L
2921 1271 L
2923 1129 L
2925 1125 L
2927 1150 L
2929 1145 L
2932 1150 L
2934 1177 L
2936 1099 L
2938 1176 L
2940 1168 L
2942 1154 L
2944 1170 L
2946 1097 L
2948 1186 L
2950 1151 L
2952 1082 L
2954 1104 L
2956 1108 L
2958 1143 L
2960 1005 L
2962 1135 L
2964 1174 L
2966 1178 L
2968 1129 L
2970 1167 L
2971 1131 L
2973 1106 L
2975 1042 L
2977 1027 L
2979 1105 L
2980 1043 L
2982 1152 L
2984 1056 L
2986 1105 L
2987 1094 L
2989 1172 L
2991 1098 L
2993 1160 L
2994 1062 L
2996 1136 L
2998 1108 L
2999 1060 L
3001 1068 L
3003 961 L
3004 1142 L
3006 1015 L
3007 1058 L
3009 1081 L
3011 1056 L
3012 1028 L
3014 971 L
3015 1097 L
3017 1050 L
3018 995 L
3020 1013 L
3021 969 L
3023 1079 L
3024 1040 L
3026 1042 L
3027 1011 L
3029 929 L
3030 1058 L
3032 1062 L
3033 1059 L
3035 1007 L
3036 1025 L
3038 1122 L
3039 905 L
3040 1099 L
3042 967 L
3043 1043 L
3045 1048 L
3046 1040 L
3047 964 L
3049 1117 L
3050 1028 L
3051 1081 L
3053 1002 L
3054 916 L
3055 980 L
3057 986 L
3058 1027 L
3059 976 L
3061 982 L
3062 951 L
3063 877 L
3065 937 L
3066 1004 L
3067 980 L
3068 918 L
3070 1009 L
3071 994 L
3072 979 L
3073 1066 L
3075 897 L
3076 944 L
3077 1034 L
3078 864 L
3079 992 L
3081 1027 L
3082 1004 L
3083 1004 L
3084 916 L
3085 1005 L
3087 942 L
3088 1013 L
3089 780 L
3090 1046 L
3091 936 L
3092 898 L
3094 958 L
3095 900 L
3096 907 L
3097 958 L
3098 970 L
3099 970 L
3100 932 L
3101 970 L
3103 943 L
3104 904 L
3105 996 L
3106 893 L
3107 1041 L
3108 909 L
3109 866 L
3110 984 L
3111 930 L
3112 922 L
3113 986 L
3114 1027 L
3115 923 L
3116 941 L
3117 936 L
3119 900 L
3120 927 L
3121 825 L
3122 926 L
3123 854 L
3124 815 L
3125 868 L
3126 902 L
3127 868 L
3128 825 L
3129 942 L
3130 908 L
3131 800 L
3132 927 L
3133 876 L
3134 1044 L
3135 870 L
3136 868 L
3136 829 L
3137 852 L
3138 893 L
3139 986 L
3140 974 L
3141 932 L
3142 873 L
3143 918 L
3144 888 L
3145 942 L
3146 859 L
3147 860 L
3148 998 L
3149 843 L
3150 875 L
3151 883 L
3151 893 L
3152 953 L
3153 909 L
3154 821 L
3155 864 L
3156 862 L
3157 907 L
3158 928 L
3159 855 L
3160 854 L
3160 859 L
3161 816 L
3162 847 L
3163 877 L
3164 902 L
3165 919 L
3166 826 L
3166 876 L
3167 861 L
3168 826 L
3169 811 L
3170 818 L
3171 856 L
3172 901 L
3172 932 L
3173 855 L
3174 954 L
3175 880 L
3176 975 L
3177 835 L
3177 869 L
3178 901 L
3179 988 L
3180 905 L
3181 762 L
3181 857 L
3182 909 L
3183 829 L
3184 887 L
3185 886 L
3185 801 L
3186 875 L
3187 864 L
3188 876 L
3189 937 L
3189 838 L
3190 851 L
3191 945 L
3192 905 L
3193 846 L
3193 943 L
3194 863 L
3195 841 L
3196 861 L
3196 819 L
3197 862 L
3198 847 L
3199 750 L
3199 911 L
3200 867 L
3201 883 L
3202 839 L
3202 947 L
3203 849 L
3204 777 L
3205 803 L
3205 782 L
3206 828 L
3207 954 L
3208 837 L
3208 897 L
3209 920 L
3210 919 L
3210 754 L
3211 811 L
3212 887 L
3213 945 L
3213 875 L
3214 878 L
3215 910 L
3215 825 L
3216 852 L
3217 943 L
3218 904 L
3218 850 L
3219 784 L
3220 946 L
3220 873 L
3221 1044 L
3222 902 L
3222 1024 L
3223 907 L
3224 1000 L
3224 763 L
3225 852 L
3226 887 L
3227 829 L
3227 957 L
3228 791 L
3229 933 L
3229 819 L
3230 900 L
3231 886 L
3231 784 L
3232 926 L
3233 778 L
3233 924 L
3234 838 L
3235 960 L
3235 863 L
3236 880 L
3236 890 L
3237 867 L
3238 814 L
3238 870 L
3239 930 L
3240 881 L
3240 869 L
3241 906 L
3242 843 L
3242 823 L
3243 776 L
3244 899 L
3244 826 L
3245 938 L
3245 849 L
3246 878 L
3247 872 L
3247 751 L
3248 844 L
3249 984 L
3249 900 L
3250 807 L
3250 850 L
3251 904 L
3252 884 L
3252 897 L
3253 843 L
3253 836 L
3254 890 L
3255 904 L
3255 908 L
3256 782 L
3257 969 L
3257 827 L
3258 931 L
3258 865 L
3259 1015 L
3259 808 L
3260 925 L
3261 869 L
3261 849 L
3262 861 L
3262 920 L
3263 954 L
3264 942 L
3264 902 L
3265 885 L
3265 958 L
3266 807 L
3267 824 L
3267 906 L
3268 825 L
3268 911 L
3269 954 L
3269 863 L
3270 924 L
3271 840 L
3271 896 L
3272 836 L
3272 941 L
3273 858 L
3273 932 L
3274 905 L
3275 939 L
3275 909 L
3276 871 L
3276 830 L
3277 957 L
3277 950 L
3278 927 L
3278 842 L
3279 877 L
3280 950 L
3280 958 L
3281 862 L
3281 912 L
3282 907 L
3282 907 L
3283 895 L
3283 947 L
3284 862 L
3284 911 L
3285 907 L
3285 874 L
3286 1013 L
3287 856 L
3287 930 L
3288 938 L
3288 952 L
3289 884 L
3289 892 L
3290 915 L
3290 998 L
3291 833 L
3291 982 L
3292 862 L
3292 925 L
3293 973 L
3293 842 L
3294 862 L
3294 940 L
3295 909 L
3295 931 L
3296 905 L
3297 883 L
3297 935 L
3298 875 L
3298 967 L
3299 928 L
3299 953 L
3300 835 L
3300 877 L
3301 892 L
3301 902 L
3302 844 L
3302 883 L
3303 797 L
3303 995 L
3304 866 L
3304 974 L
3305 979 L
3305 878 L
3306 845 L
3306 968 L
3307 997 L
3307 924 L
3308 862 L
3308 874 L
3309 899 L
3309 933 L
3310 878 L
3310 1005 L
3311 891 L
3311 928 L
3312 936 L
3312 992 L
3312 804 L
3313 1025 L
3313 872 L
3314 895 L
3314 977 L
3315 853 L
3315 900 L
3316 918 L
3316 982 L
3317 947 L
3317 1047 L
3318 853 L
3318 901 L
3319 946 L
3319 852 L
3320 930 L
3320 916 L
3321 906 L
3321 816 L
3321 908 L
3322 922 L
3322 913 L
3323 915 L
3323 900 L
3324 1051 L
3324 919 L
3325 975 L
3325 997 L
3326 1014 L
3326 989 L
3327 892 L
3327 968 L
3327 1058 L
3328 956 L
3328 888 L
3329 978 L
3329 854 L
3330 969 L
3330 876 L
3331 960 L
3331 960 L
3332 1051 L
3332 923 L
3332 881 L
3333 959 L
3333 1120 L
3334 871 L
3334 826 L
3335 971 L
3335 925 L
3336 937 L
3336 929 L
3336 890 L
3337 991 L
3337 837 L
3338 1020 L
3338 882 L
3339 1035 L
3339 864 L
3339 1022 L
3340 947 L
3340 884 L
3341 970 L
3341 972 L
3342 1003 L
3342 922 L
3343 963 L
3343 952 L
3343 889 L
3344 970 L
3344 895 L
3345 875 L
3345 952 L
3346 933 L
3346 877 L
3346 975 L
3347 1009 L
3347 949 L
3348 937 L
3348 990 L
3348 985 L
3349 876 L
3349 979 L
3350 844 L
3350 922 L
3351 905 L
3351 985 L
3351 997 L
3352 1036 L
3352 906 L
3353 898 L
3353 946 L
3353 940 L
3354 939 L
3354 904 L
3355 913 L
3355 954 L
3355 1009 L
3356 947 L
3356 972 L
3357 933 L
3357 970 L
3358 930 L
3358 1106 L
3358 940 L
3359 997 L
3359 1019 L
3360 928 L
3360 1014 L
3360 936 L
3361 1108 L
3361 949 L
3362 974 L
3362 1037 L
3362 941 L
3363 825 L
3363 993 L
3364 939 L
3364 1040 L
3364 1003 L
3365 836 L
3365 1006 L
3365 1045 L
3366 1036 L
3366 1026 L
3367 952 L
3367 960 L
3367 963 L
3368 951 L
3368 1061 L
3369 924 L
3369 1020 L
3369 1006 L
3370 969 L
3370 1004 L
3371 976 L
3371 1017 L
3371 998 L
3372 983 L
3372 944 L
3372 936 L
3373 826 L
3373 944 L
3374 821 L
3374 994 L
3374 850 L
3375 1016 L
3375 1025 L
3375 927 L
3376 1012 L
3376 931 L
3377 986 L
3377 1174 L
3377 1025 L
3378 963 L
3378 856 L
3378 989 L
3379 937 L
3379 1032 L
3380 947 L
3380 951 L
3380 994 L
3381 1090 L
3381 928 L
3381 1003 L
3382 988 L
3382 912 L
3383 979 L
3383 936 L
3383 1055 L
3384 931 L
3384 1158 L
3384 954 L
3385 1036 L
3385 1032 L
3385 1006 L
3386 951 L
3386 1081 L
3387 980 L
3387 1002 L
3387 1084 L
3388 905 L
3388 968 L
3388 1009 L
3389 964 L
3389 1040 L
3389 960 L
3390 949 L
3390 1070 L
3391 966 L
3391 1020 L
3391 949 L
3392 1008 L
3392 964 L
3392 1066 L
3393 950 L
3393 1075 L
3393 1034 L
3394 1018 L
3394 903 L
3394 940 L
3395 969 L
3395 925 L
3395 977 L
3396 1050 L
3396 955 L
3396 977 L
3397 951 L
3397 1000 L
3398 1005 L
3398 955 L
3398 993 L
3399 966 L
3399 978 L
3399 956 L
3400 974 L
3400 972 L
3400 958 L
3401 1059 L
3401 933 L
3401 1021 L
3402 1090 L
3402 1030 L
3402 1082 L
3403 1033 L
3403 1005 L
3403 1072 L
3404 1037 L
3404 1076 L
3404 1104 L
3405 1084 L
3405 954 L
3405 1014 L
3406 989 L
3406 962 L
3406 999 L
3407 1009 L
3407 1005 L
3407 1022 L
3408 1029 L
3408 1020 L
3408 1057 L
3409 1073 L
3409 959 L
3409 1052 L
3410 944 L
3410 989 L
3410 1081 L
3411 1082 L
3411 973 L
3411 1027 L
3412 1113 L
3412 1087 L
3412 976 L
3413 1057 L
3413 977 L
3413 979 L
3414 1062 L
3414 1028 L
3414 1020 L
3415 1001 L
3415 892 L
3415 1050 L
3416 1105 L
3416 965 L
3416 1067 L
3417 942 L
3417 1039 L
3417 1030 L
3417 999 L
3418 1046 L
3418 1075 L
3418 1049 L
3419 1058 L
3419 1000 L
3419 933 L
3420 1035 L
3420 1198 L
3420 1075 L
3421 1041 L
3421 999 L
3421 1037 L
3422 984 L
3422 1020 L
3422 1027 L
3423 1117 L
3423 985 L
3423 1078 L
3423 992 L
3424 1091 L
3424 1090 L
3424 1073 L
3425 1106 L
3425 1026 L
3425 1023 L
3426 1006 L
3426 977 L
3426 1072 L
3427 1109 L
3427 978 L
3427 1057 L
3428 1003 L
3428 1289 L
3428 1089 L
3428 990 L
3429 971 L
3429 1029 L
3429 1164 L
3430 1057 L
3430 1037 L
3430 1016 L
3431 1073 L
3431 984 L
3431 1111 L
3431 1091 L
3432 1037 L
3432 1027 L
3432 1012 L
3433 1051 L
3433 1089 L
3433 1007 L
3434 1043 L
3434 1112 L
3434 978 L
3434 1148 L
3435 1096 L
3435 1134 L
3435 1117 L
3436 1054 L
3436 1042 L
3436 1068 L
3437 1036 L
3437 1062 L
3437 1005 L
3437 1029 L
3438 1104 L
3438 1100 L
3438 1106 L
3439 1079 L
3439 1084 L
3439 1151 L
3440 1158 L
3440 1011 L
3440 1042 L
3440 1095 L
3441 1096 L
3441 1001 L
3441 1018 L
3442 1078 L
3442 1161 L
3442 1138 L
3442 1225 L
3443 1133 L
3443 1091 L
3443 1068 L
3444 1070 L
3444 1066 L
3444 1032 L
3444 1135 L
3445 927 L
3445 1206 L
3445 1037 L
3446 1005 L
3446 1054 L
3446 1155 L
3446 999 L
3447 1073 L
3447 1025 L
3447 1074 L
3448 1105 L
3448 1123 L
3448 1102 L
3448 1043 L
3449 1116 L
3449 1154 L
3449 1149 L
3450 962 L
3450 1011 L
3450 1034 L
3450 1093 L
3451 974 L
3451 1026 L
3451 1047 L
3452 1114 L
3452 1078 L
3452 1055 L
3452 1084 L
3453 977 L
3453 1073 L
3453 1033 L
3454 1129 L
3454 1093 L
3454 1104 L
3454 1079 L
3455 1149 L
3455 1051 L
3455 1095 L
3455 1065 L
3456 1003 L
3456 1099 L
3456 1137 L
3457 1009 L
3457 1057 L
3457 965 L
3457 1098 L
3458 1010 L
3458 1100 L
3458 1076 L
3458 1170 L
3459 1069 L
3459 1159 L
3459 1064 L
3460 1146 L
3460 1148 L
3460 1034 L
3460 1040 L
3461 1054 L
3461 1114 L
3461 1135 L
3461 1014 L
3462 1086 L
3462 1101 L
3462 1077 L
3463 1115 L
3463 1019 L
3463 1039 L
3463 1108 L
3464 1083 L
3464 1034 L
3464 1065 L
3464 1108 L
3465 1181 L
3465 1014 L
3465 1155 L
3465 1060 L
3466 1065 L
3466 1136 L
3466 1118 L
3466 1031 L
3467 1083 L
3467 1082 L
3467 1134 L
3468 1141 L
3468 1120 L
3468 1101 L
3468 1149 L
3469 1160 L
3469 1160 L
3469 1140 L
3469 1076 L
3470 1117 L
3470 1058 L
3470 1149 L
3470 1164 L
3471 1126 L
3471 1215 L
3471 1110 L
3471 1190 L
3472 1190 L
3472 1117 L
3472 1072 L
3472 1159 L
3473 1131 L
3473 1130 L
3473 1026 L
3474 1207 L
3474 1091 L
3474 1134 L
3474 1104 L
3475 1015 L
3475 1120 L
3475 1083 L
3475 1113 L
3476 1108 L
3476 1156 L
3476 1055 L
3476 1076 L
3477 1076 L
3477 1054 L
3477 1128 L
3477 1114 L
3478 1100 L
3478 1144 L
3478 1132 L
3478 1070 L
3479 1096 L
3479 1108 L
3479 1135 L
3479 1127 L
3480 1117 L
3480 1148 L
3480 1091 L
3480 1122 L
3481 1161 L
3481 1100 L
3481 1184 L
3481 1196 L
3482 1156 L
3482 1136 L
3482 1103 L
3482 1167 L
3483 1177 L
3483 1173 L
3483 1188 L
3483 1087 L
3484 1143 L
3484 1109 L
3484 1066 L
3484 1051 L
3485 1134 L
3485 1088 L
3485 1112 L
3485 1012 L
3486 1173 L
3486 1051 L
3486 1040 L
3486 1117 L
3487 1146 L
3487 1055 L
3487 1095 L
3487 1092 L
3488 1159 L
3488 1162 L
3488 1194 L
3488 1065 L
3488 1209 L
3489 1115 L
3489 1069 L
3489 1036 L
3489 1206 L
3490 1143 L
3490 1183 L
3490 1058 L
3490 1067 L
3491 1253 L
3491 1211 L
3491 1031 L
3491 1106 L
3492 1033 L
3492 1111 L
3492 1158 L
3492 1087 L
3493 1160 L
3493 1177 L
3493 1140 L
3493 1110 L
3494 1103 L
3494 1112 L
3494 1062 L
3494 1138 L
3494 1035 L
3495 1121 L
3495 1145 L
3495 1162 L
3495 1090 L
3496 1068 L
3496 1082 L
3496 1266 L
3496 1025 L
3497 1170 L
3497 1134 L
3497 1135 L
3497 1166 L
3498 1144 L
3498 1201 L
3498 1127 L
3498 1080 L
3498 1163 L
3499 1207 L
3499 1218 L
3499 1157 L
3499 1241 L
3500 1107 L
3500 1136 L
3506 1211 L
3511 1095 L
3517 1178 L
3522 1205 L
3527 1247 L
3532 1172 L
3537 1207 L
3542 1211 L
3547 1169 L
3552 1247 L
3557 1210 L
3561 1159 L
3566 1202 L
3570 1304 L
3575 1284 L
3579 1242 L
3583 1341 L
3587 1338 L
3591 1363 L
3595 1208 L
3599 1260 L
3603 1245 L
3607 1232 L
3611 1261 L
3614 1192 L
3618 1302 L
3622 1244 L
3625 1185 L
3629 1193 L
3632 1319 L
3636 1372 L
3639 1288 L
3642 1233 L
3646 1257 L
3649 1300 L
3652 1336 L
3655 1303 L
3658 1435 L
3661 1227 L
3664 1132 L
3667 1262 L
3670 1226 L
3673 1290 L
3676 1295 L
3679 1244 L
3682 1274 L
3685 1356 L
3688 1196 L
3690 1317 L
3693 1263 L
3696 1248 L
3698 1340 L
3701 1195 L
3704 1197 L
3706 1247 L
3709 1263 L
3711 1305 L
3714 1309 L
3716 1295 L
3719 1306 L
3721 1203 L
3724 1361 L
3726 1113 L
3728 1331 L
3731 1364 L
3733 1303 L
3735 1252 L
3738 1305 L
3740 1322 L
3742 1291 L
3744 1351 L
3747 1289 L
3749 1432 L
3751 1283 L
3753 1301 L
3755 1394 L
3757 1329 L
3760 1324 L
3762 1458 L
3764 1304 L
3766 1328 L
3768 1221 L
3770 1291 L
3772 1301 L
3774 1320 L
3776 1307 L
3778 1362 L
3780 1287 L
3781 1282 L
3783 1315 L
3785 1239 L
3787 1338 L
3789 1274 L
3791 1315 L
3793 1337 L
3795 1298 L
3796 1252 L
3798 1201 L
3800 1374 L
3802 1307 L
3803 1277 L
3805 1301 L
3807 1360 L
3809 1352 L
3810 1206 L
3812 1237 L
3814 1376 L
3816 1340 L
3817 1201 L
3819 1219 L
3820 1184 L
3822 1327 L
3824 1335 L
3825 1270 L
3827 1239 L
3829 1386 L
3830 1293 L
3832 1350 L
3833 1297 L
3835 1252 L
3836 1311 L
3838 1256 L
3839 1334 L
3841 1426 L
3842 1371 L
3844 1246 L
3845 1330 L
3847 1403 L
3848 1278 L
3850 1279 L
3851 1403 L
3853 1207 L
3854 1323 L
3856 1221 L
3857 1346 L
3859 1321 L
3860 1368 L
3861 1317 L
3863 1298 L
3864 1306 L
3866 1285 L
3867 1273 L
3868 1310 L
3870 1264 L
3871 1388 L
3872 1382 L
3874 1335 L
3875 1220 L
3876 1503 L
3878 1361 L
3879 1266 L
3880 1374 L
3882 1221 L
3883 1260 L
3884 1302 L
3885 1397 L
3887 1316 L
3888 1319 L
3889 1313 L
3890 1381 L
3892 1395 L
3893 1403 L
3894 1291 L
3895 1282 L
3897 1277 L
3898 1338 L
3899 1323 L
3900 1274 L
3901 1365 L
3903 1388 L
3904 1306 L
3905 1315 L
3906 1195 L
3907 1238 L
3908 1275 L
3910 1151 L
3911 1326 L
3912 1262 L
3913 1339 L
3914 1392 L
3915 1180 L
3917 1233 L
3918 1128 L
3919 1336 L
3920 1289 L
3921 1360 L
3922 1273 L
3923 1336 L
3924 1407 L
3925 1355 L
3926 1335 L
3928 1357 L
3929 1317 L
3930 1299 L
3931 1359 L
3932 1298 L
3933 1238 L
3934 1210 L
3935 1366 L
3936 1272 L
3937 1359 L
3938 1295 L
3939 1389 L
3940 1241 L
3941 1287 L
3942 1358 L
3943 1348 L
3944 1304 L
3945 1460 L
3946 1299 L
3947 1193 L
3948 1243 L
3949 1242 L
3950 1416 L
3951 1290 L
3952 1270 L
3953 1274 L
3954 1260 L
3955 1274 L
3956 1339 L
3957 1383 L
3958 1295 L
3959 1319 L
3960 1230 L
3961 1245 L
3962 1250 L
3963 1390 L
3964 1269 L
3965 1324 L
3966 1381 L
3966 1216 L
3967 1265 L
3968 1284 L
3969 1243 L
3970 1268 L
3971 1260 L
3972 1267 L
3973 1289 L
3974 1318 L
3975 1194 L
3976 1244 L
3976 1253 L
3977 1150 L
3978 1298 L
3979 1317 L
3980 1324 L
3981 1343 L
3982 1344 L
3983 1272 L
3983 1153 L
3984 1153 L
3985 1349 L
3986 1220 L
3987 1339 L
3988 1276 L
3989 1258 L
3989 1312 L
3990 1195 L
3991 1235 L
3992 1247 L
3993 1268 L
3994 1277 L
3995 1283 L
3995 1208 L
3996 1271 L
3997 1220 L
3998 1265 L
3999 1329 L
3999 1309 L
4000 1184 L
4001 1180 L
4002 1229 L
4003 1304 L
4003 1298 L
4004 1403 L
4005 1346 L
4006 1240 L
4007 1346 L
4007 1282 L
4008 1159 L
4009 1270 L
4010 1298 L
4011 1312 L
4011 1152 L
4012 1253 L
4013 1197 L
4014 1364 L
4014 1218 L
4015 1295 L
4016 1278 L
4017 1282 L
4017 1327 L
4018 1349 L
4019 1389 L
4020 1317 L
4021 1384 L
4021 1263 L
4022 1332 L
4023 1278 L
4023 1225 L
4024 1305 L
4025 1406 L
4026 1234 L
4026 1289 L
4027 1266 L
4028 1277 L
4029 1346 L
4029 1305 L
4030 1336 L
4031 1294 L
4032 1233 L
4032 1347 L
4033 1307 L
4034 1274 L
4034 1296 L
4035 1399 L
4036 1257 L
4036 1217 L
4037 1381 L
4038 1309 L
4039 1282 L
4039 1335 L
4040 1259 L
4041 1321 L
4041 1297 L
4042 1204 L
4043 1204 L
4043 1243 L
4044 1319 L
4045 1277 L
4045 1209 L
4046 1219 L
4047 1300 L
4047 1278 L
4048 1252 L
4049 1303 L
4050 1397 L
4050 1283 L
4051 1386 L
4052 1145 L
4052 1330 L
4053 1186 L
4053 1377 L
4054 1395 L
4055 1125 L
4055 1276 L
4056 1336 L
4057 1225 L
4057 1348 L
4058 1304 L
4059 1266 L
4059 1159 L
4060 1287 L
4061 1079 L
4061 1294 L
4062 1147 L
L2 C03 COSGR

%
% Main frame
%
L10
GSN 
620 1700 M
4220 1700 L
4220 5300 L
620 5300 L
closepath SGR

%
% X axis: large tics
%
L10
GSN 1130 1700 M 0  54 rL SGR
GSN 1130 5300 M 0 -54 rL SGR
helvS (0.0001) 1130 470 xlabel
GSN 1716 1700 M 0  54 rL SGR
GSN 1716 5300 M 0 -54 rL SGR
helvS (0.001) 1716 470 xlabel
GSN 2303 1700 M 0  54 rL SGR
GSN 2303 5300 M 0 -54 rL SGR
helvS (0.01) 2303 470 xlabel
GSN 2889 1700 M 0  54 rL SGR
GSN 2889 5300 M 0 -54 rL SGR
helvS (0.1) 2889 470 xlabel
GSN 3476 1700 M 0  54 rL SGR
GSN 3476 5300 M 0 -54 rL SGR
helvS (1) 3476 470 xlabel
GSN 4062 1700 M 0  54 rL SGR
GSN 4062 5300 M 0 -54 rL SGR
helvS (10) 4062 470 xlabel
%
% X axis: small tics
%
L5
GSN 720 1700 M 0  36 rL SGR
GSN 720 5300 M 0 -36 rL SGR
GSN 824 1700 M 0  36 rL SGR
GSN 824 5300 M 0 -36 rL SGR
GSN 897 1700 M 0  36 rL SGR
GSN 897 5300 M 0 -36 rL SGR
GSN 954 1700 M 0  36 rL SGR
GSN 954 5300 M 0 -36 rL SGR
GSN 1000 1700 M 0  36 rL SGR
GSN 1000 5300 M 0 -36 rL SGR
GSN 1039 1700 M 0  36 rL SGR
GSN 1039 5300 M 0 -36 rL SGR
GSN 1073 1700 M 0  36 rL SGR
GSN 1073 5300 M 0 -36 rL SGR
GSN 1103 1700 M 0  36 rL SGR
GSN 1103 5300 M 0 -36 rL SGR
GSN 1307 1700 M 0  36 rL SGR
GSN 1307 5300 M 0 -36 rL SGR
GSN 1410 1700 M 0  36 rL SGR
GSN 1410 5300 M 0 -36 rL SGR
GSN 1483 1700 M 0  36 rL SGR
GSN 1483 5300 M 0 -36 rL SGR
GSN 1540 1700 M 0  36 rL SGR
GSN 1540 5300 M 0 -36 rL SGR
GSN 1586 1700 M 0  36 rL SGR
GSN 1586 5300 M 0 -36 rL SGR
GSN 1626 1700 M 0  36 rL SGR
GSN 1626 5300 M 0 -36 rL SGR
GSN 1660 1700 M 0  36 rL SGR
GSN 1660 5300 M 0 -36 rL SGR
GSN 1690 1700 M 0  36 rL SGR
GSN 1690 5300 M 0 -36 rL SGR
GSN 1893 1700 M 0  36 rL SGR
GSN 1893 5300 M 0 -36 rL SGR
GSN 1996 1700 M 0  36 rL SGR
GSN 1996 5300 M 0 -36 rL SGR
GSN 2069 1700 M 0  36 rL SGR
GSN 2069 5300 M 0 -36 rL SGR
GSN 2126 1700 M 0  36 rL SGR
GSN 2126 5300 M 0 -36 rL SGR
GSN 2173 1700 M 0  36 rL SGR
GSN 2173 5300 M 0 -36 rL SGR
GSN 2212 1700 M 0  36 rL SGR
GSN 2212 5300 M 0 -36 rL SGR
GSN 2246 1700 M 0  36 rL SGR
GSN 2246 5300 M 0 -36 rL SGR
GSN 2276 1700 M 0  36 rL SGR
GSN 2276 5300 M 0 -36 rL SGR
GSN 2479 1700 M 0  36 rL SGR
GSN 2479 5300 M 0 -36 rL SGR
GSN 2583 1700 M 0  36 rL SGR
GSN 2583 5300 M 0 -36 rL SGR
GSN 2656 1700 M 0  36 rL SGR
GSN 2656 5300 M 0 -36 rL SGR
GSN 2713 1700 M 0  36 rL SGR
GSN 2713 5300 M 0 -36 rL SGR
GSN 2759 1700 M 0  36 rL SGR
GSN 2759 5300 M 0 -36 rL SGR
GSN 2798 1700 M 0  36 rL SGR
GSN 2798 5300 M 0 -36 rL SGR
GSN 2832 1700 M 0  36 rL SGR
GSN 2832 5300 M 0 -36 rL SGR
GSN 2862 1700 M 0  36 rL SGR
GSN 2862 5300 M 0 -36 rL SGR
GSN 3066 1700 M 0  36 rL SGR
GSN 3066 5300 M 0 -36 rL SGR
GSN 3169 1700 M 0  36 rL SGR
GSN 3169 5300 M 0 -36 rL SGR
GSN 3242 1700 M 0  36 rL SGR
GSN 3242 5300 M 0 -36 rL SGR
GSN 3299 1700 M 0  36 rL SGR
GSN 3299 5300 M 0 -36 rL SGR
GSN 3345 1700 M 0  36 rL SGR
GSN 3345 5300 M 0 -36 rL SGR
GSN 3385 1700 M 0  36 rL SGR
GSN 3385 5300 M 0 -36 rL SGR
GSN 3419 1700 M 0  36 rL SGR
GSN 3419 5300 M 0 -36 rL SGR
GSN 3449 1700 M 0  36 rL SGR
GSN 3449 5300 M 0 -36 rL SGR
GSN 3652 1700 M 0  36 rL SGR
GSN 3652 5300 M 0 -36 rL SGR
GSN 3755 1700 M 0  36 rL SGR
GSN 3755 5300 M 0 -36 rL SGR
GSN 3829 1700 M 0  36 rL SGR
GSN 3829 5300 M 0 -36 rL SGR
GSN 3885 1700 M 0  36 rL SGR
GSN 3885 5300 M 0 -36 rL SGR
GSN 3932 1700 M 0  36 rL SGR
GSN 3932 5300 M 0 -36 rL SGR
GSN 3971 1700 M 0  36 rL SGR
GSN 3971 5300 M 0 -36 rL SGR
GSN 4005 1700 M 0  36 rL SGR
GSN 4005 5300 M 0 -36 rL SGR
GSN 4035 1700 M 0  36 rL SGR
GSN 4035 5300 M 0 -36 rL SGR
%
% Y axis: large tics
%
L10
GSN 620 2121 M 54 0 rL SGR
GSN 4220 2121 M -54 0 rL SGR
helvS (1.04) 560 2121 ylabel
GSN 620 3008 M 54 0 rL SGR
GSN 4220 3008 M -54 0 rL SGR
helvS (1.06) 560 3008 ylabel
GSN 620 3896 M 54 0 rL SGR
GSN 4220 3896 M -54 0 rL SGR
helvS (1.08) 560 3896 ylabel
GSN 620 4783 M 54 0 rL SGR
GSN 4220 4783 M -54 0 rL SGR
helvS (1.1) 560 4783 ylabel
%
% Y axis: small tics
%
L5
GSN 620 1899 M 36 0 rL SGR
GSN 4220 1899 M -36 0 rL SGR
GSN 620 2121 M 36 0 rL SGR
GSN 4220 2121 M -36 0 rL SGR
GSN 620 2343 M 36 0 rL SGR
GSN 4220 2343 M -36 0 rL SGR
GSN 620 2565 M 36 0 rL SGR
GSN 4220 2565 M -36 0 rL SGR
GSN 620 2787 M 36 0 rL SGR
GSN 4220 2787 M -36 0 rL SGR
GSN 620 3008 M 36 0 rL SGR
GSN 4220 3008 M -36 0 rL SGR
GSN 620 3230 M 36 0 rL SGR
GSN 4220 3230 M -36 0 rL SGR
GSN 620 3452 M 36 0 rL SGR
GSN 4220 3452 M -36 0 rL SGR
GSN 620 3674 M 36 0 rL SGR
GSN 4220 3674 M -36 0 rL SGR
GSN 620 3896 M 36 0 rL SGR
GSN 4220 3896 M -36 0 rL SGR
GSN 620 4118 M 36 0 rL SGR
GSN 4220 4118 M -36 0 rL SGR
GSN 620 4339 M 36 0 rL SGR
GSN 4220 4339 M -36 0 rL SGR
GSN 620 4561 M 36 0 rL SGR
GSN 4220 4561 M -36 0 rL SGR
GSN 620 4783 M 36 0 rL SGR
GSN 4220 4783 M -36 0 rL SGR
GSN 620 5005 M 36 0 rL SGR
GSN 4220 5005 M -36 0 rL SGR
GSN 620 5227 M 36 0 rL SGR
GSN 4220 5227 M -36 0 rL SGR

%
% X-Axis label:
%
gsave 2420 290 M 
[
[(Helvetica) 180 0 true true 0 (t)]
[(Helvetica) 180 0 true true 0 (i)]
[(Helvetica) 180 0 true true 0 (m)]
[(Helvetica) 180 0 true true 0 (e)]
] 0 MCshow grestore

%
% Y-Axis label:
%
gsave 234 3500 M 
currentpoint gsave translate 90 rotate 0 0 moveto
[
[(Helvetica) 180 0 true true 0 (s)]
[(Helvetica) 180 0 true true 0 (i)]
[(Helvetica) 180 0 true true 0 (g)]
[(Helvetica) 180 0 true true 0 (n)]
[(Helvetica) 180 0 true true 0 (a)]
[(Helvetica) 180 0 true true 0 (l)]
] 0 MCshow grestore

%
% Residuals:
%
gsave 129 1160 M 
currentpoint gsave translate 90 rotate 0 0 moveto
[
[(Helvetica) 150 0 true true 0 (r)]
[(Helvetica) 150 0 true true 0 (e)]
[(Helvetica) 150 0 true true 0 (s)]
[(Helvetica) 150 0 true true 0 (i)]
[(Helvetica) 150 0 true true 0 (d)]
[(Helvetica) 150 0 true true 0 (u)]
[(Helvetica) 150 0 true true 0 (a)]
[(Helvetica) 150 0 true true 0 (l)]
[(Helvetica) 150 0 true true 0 (s)]
] 0 MCshow grestore

%
% Residual frame
%
L10
GSN 
620 620 M
4220 620 L
4220 1700 L
620 1700 L
closepath SGR
%
% X axis: large tics - residual frame
%
L10
GSN 1130 620 M 0  54 rL SGR
GSN 1130 1700 M 0 -54 rL SGR
GSN 1716 620 M 0  54 rL SGR
GSN 1716 1700 M 0 -54 rL SGR
GSN 2303 620 M 0  54 rL SGR
GSN 2303 1700 M 0 -54 rL SGR
GSN 2889 620 M 0  54 rL SGR
GSN 2889 1700 M 0 -54 rL SGR
GSN 3476 620 M 0  54 rL SGR
GSN 3476 1700 M 0 -54 rL SGR
GSN 4062 620 M 0  54 rL SGR
GSN 4062 1700 M 0 -54 rL SGR
%
% X axis: small tics - residual frame
%
L5
GSN 720 620 M 0  36 rL SGR
GSN 720 1700 M 0 -36 rL SGR
GSN 824 620 M 0  36 rL SGR
GSN 824 1700 M 0 -36 rL SGR
GSN 897 620 M 0  36 rL SGR
GSN 897 1700 M 0 -36 rL SGR
GSN 954 620 M 0  36 rL SGR
GSN 954 1700 M 0 -36 rL SGR
GSN 1000 620 M 0  36 rL SGR
GSN 1000 1700 M 0 -36 rL SGR
GSN 1039 620 M 0  36 rL SGR
GSN 1039 1700 M 0 -36 rL SGR
GSN 1073 620 M 0  36 rL SGR
GSN 1073 1700 M 0 -36 rL SGR
GSN 1103 620 M 0  36 rL SGR
GSN 1103 1700 M 0 -36 rL SGR
GSN 1307 620 M 0  36 rL SGR
GSN 1307 1700 M 0 -36 rL SGR
GSN 1410 620 M 0  36 rL SGR
GSN 1410 1700 M 0 -36 rL SGR
GSN 1483 620 M 0  36 rL SGR
GSN 1483 1700 M 0 -36 rL SGR
GSN 1540 620 M 0  36 rL SGR
GSN 1540 1700 M 0 -36 rL SGR
GSN 1586 620 M 0  36 rL SGR
GSN 1586 1700 M 0 -36 rL SGR
GSN 1626 620 M 0  36 rL SGR
GSN 1626 1700 M 0 -36 rL SGR
GSN 1660 620 M 0  36 rL SGR
GSN 1660 1700 M 0 -36 rL SGR
GSN 1690 620 M 0  36 rL SGR
GSN 1690 1700 M 0 -36 rL SGR
GSN 1893 620 M 0  36 rL SGR
GSN 1893 1700 M 0 -36 rL SGR
GSN 1996 620 M 0  36 rL SGR
GSN 1996 1700 M 0 -36 rL SGR
GSN 2069 620 M 0  36 rL SGR
GSN 2069 1700 M 0 -36 rL SGR
GSN 2126 620 M 0  36 rL SGR
GSN 2126 1700 M 0 -36 rL SGR
GSN 2173 620 M 0  36 rL SGR
GSN 2173 1700 M 0 -36 rL SGR
GSN 2212 620 M 0  36 rL SGR
GSN 2212 1700 M 0 -36 rL SGR
GSN 2246 620 M 0  36 rL SGR
GSN 2246 1700 M 0 -36 rL SGR
GSN 2276 620 M 0  36 rL SGR
GSN 2276 1700 M 0 -36 rL SGR
GSN 2479 620 M 0  36 rL SGR
GSN 2479 1700 M 0 -36 rL SGR
GSN 2583 620 M 0  36 rL SGR
GSN 2583 1700 M 0 -36 rL SGR
GSN 2656 620 M 0  36 rL SGR
GSN 2656 1700 M 0 -36 rL SGR
GSN 2713 620 M 0  36 rL SGR
GSN 2713 1700 M 0 -36 rL SGR
GSN 2759 620 M 0  36 rL SGR
GSN 2759 1700 M 0 -36 rL SGR
GSN 2798 620 M 0  36 rL SGR
GSN 2798 1700 M 0 -36 rL SGR
GSN 2832 620 M 0  36 rL SGR
GSN 2832 1700 M 0 -36 rL SGR
GSN 2862 620 M 0  36 rL SGR
GSN 2862 1700 M 0 -36 rL SGR
GSN 3066 620 M 0  36 rL SGR
GSN 3066 1700 M 0 -36 rL SGR
GSN 3169 620 M 0  36 rL SGR
GSN 3169 1700 M 0 -36 rL SGR
GSN 3242 620 M 0  36 rL SGR
GSN 3242 1700 M 0 -36 rL SGR
GSN 3299 620 M 0  36 rL SGR
GSN 3299 1700 M 0 -36 rL SGR
GSN 3345 620 M 0  36 rL SGR
GSN 3345 1700 M 0 -36 rL SGR
GSN 3385 620 M 0  36 rL SGR
GSN 3385 1700 M 0 -36 rL SGR
GSN 3419 620 M 0  36 rL SGR
GSN 3419 1700 M 0 -36 rL SGR
GSN 3449 620 M 0  36 rL SGR
GSN 3449 1700 M 0 -36 rL SGR
GSN 3652 620 M 0  36 rL SGR
GSN 3652 1700 M 0 -36 rL SGR
GSN 3755 620 M 0  36 rL SGR
GSN 3755 1700 M 0 -36 rL SGR
GSN 3829 620 M 0  36 rL SGR
GSN 3829 1700 M 0 -36 rL SGR
GSN 3885 620 M 0  36 rL SGR
GSN 3885 1700 M 0 -36 rL SGR
GSN 3932 620 M 0  36 rL SGR
GSN 3932 1700 M 0 -36 rL SGR
GSN 3971 620 M 0  36 rL SGR
GSN 3971 1700 M 0 -36 rL SGR
GSN 4005 620 M 0  36 rL SGR
GSN 4005 1700 M 0 -36 rL SGR
GSN 4035 620 M 0  36 rL SGR
GSN 4035 1700 M 0 -36 rL SGR
%
% Y axis: large tics - residual frame
%
L10
GSN 620 678 M 54 0 rL SGR
GSN 4220 678 M -54 0 rL SGR
helvS (-0.02) 560 678 ylabelresid
GSN 620 902 M 54 0 rL SGR
GSN 4220 902 M -54 0 rL SGR
helvS (-0.01) 560 902 ylabelresid
GSN 620 1127 M 54 0 rL SGR
GSN 4220 1127 M -54 0 rL SGR
helvS (0) 560 1127 ylabelresid
GSN 620 1352 M 54 0 rL SGR
GSN 4220 1352 M -54 0 rL SGR
helvS (0.01) 560 1352 ylabelresid
GSN 620 1576 M 54 0 rL SGR
GSN 4220 1576 M -54 0 rL SGR
helvS (0.02) 560 1576 ylabelresid

%
% X axis - residual panel
%
GSN L5 620 1127 M 4220 1127 L SDA G50 SGR

end
showpage
%%Trailer
%%EOF
