%!PS-Adobe-3.0 EPSF-3.0
%%BoundingBox: 0 0 514 550
%%Creator: BioKin Ltd.
%%DocumentFonts: Symbol Helvetica
%%EndComments
%
/bkdict 256 dict def
bkdict begin
/M {moveto} def 
/R {rmoveto} def
/L {lineto} def
/rL {rlineto} def
/GSN {gsave newpath} def
/SGR {stroke grestore} def
/COSGR {gsave setrgbcolor stroke grestore grestore} def
/SL {setlinewidth} def
/LWMB {12} def             % line width - model curves, black & white
/LWMC {10} def             % line width - model curves, color
/L2 {2.5 setlinewidth} def
/L5 {5 setlinewidth} def
/L10 {10 setlinewidth} def
/G50 {0.5 setgray} def
/SDA {[10  20] 0 setdash} def % axes
/helvT {/Helvetica findfont 100 scalefont setfont} def % tiny
/helvS {/Helvetica findfont 125 scalefont setfont} def % small
/helvM {/Helvetica findfont 150 scalefont setfont} def % medium
/helvL {/Helvetica findfont 175 scalefont setfont} def % large
/xlabel {gsave M dup
   stringwidth exch -0.5 mul exch rmoveto show grestore} def 
/ylabel {gsave M 90 rotate dup
   stringwidth exch -0.5 mul exch rmoveto show grestore} def
/ylabelresid {gsave M dup
   stringwidth exch -1 mul exch rmoveto show grestore} def
% ======
% Shapes
% ======
% Circle:
/Circ {0 360 arc closepath} def
%
% Square:
/Squa {dup dup -0.5 mul dup dup R -2 mul 0 exch rL 1 mul 0 rL dup 0 exch -1 mul rL closepath} def
%
% Triangle Up:
/TriU {dup dup dup -0.4 mul exch -0.5 mul exch R dup 0.5 mul exch rL dup -1 mul exch 0.5 mul exch rL closepath} def 
%
% Triangle Down:
/TriD {dup dup dup 0.4 mul exch -0.5 mul exch R dup 0.5 mul exch -1 mul rL dup 0.5 mul exch rL closepath} def 
%
% Diamond:
/Diam {45 rotate Squa} def
% ======
% Fills
% ======
/GRF {gsave setgray fill grestore} def                    % gray-level Fill
/COF {gsave setrgbcolor fill grestore} def                % color fill
% ======
% Colors
% ======
/C01 {1.00	0.00	0.00} def      % Red
/C02 {0.00	0.00	1.00} def      % Blue
/C03 {0.00	0.39	0.00} def      % Dark Green
/C04 {0.78	0.08	0.52} def      % Medium Violet Red
/C05 {0.55	0.27	0.07} def      % Saddle Brown
/C06 {0.10	0.70	0.70} def      % (cyan)
/C07 {1.00	0.55	0.00} def      % Dark Orange
/C08 {0.63	0.13	0.94} def      % Purple
/C09 {0.00	0.75	1.00} def      % Deep Sky Blue
/C10 {0.20	0.80	0.20} def      % Lime Green
/C11 {0.47	0.53	0.60} def      % Light Slate Gray
/C12 {0.00	0.00	0.00} def      % Black            % or: {0.19	0.31	0.31} def      % Dark Slate Gray
%
/LGR {0.75} def % light gray
/DGR {0.33} def % dark gray
%
% =============
% Dash patterns
% =============
/dash01 { [80  20] 0 setdash } def
/dash02 { [40  20] 0 setdash } def
/dash03 { [80  20  10  20] 0 setdash } def
/dash04 { [40  20  10  20] 0 setdash } def
/dash05 { [80  20  10  10  10  20] 0 setdash } def
/dash06 { [40  20  10  10  10  20] 0 setdash } def
/dash07 { [10  10] 0 setdash } def
%
/MFshow {
   { dup 5 get 3 ge
     { 5 get 3 eq {gsave} {grestore} ifelse }
     {dup dup 0 get findfont exch 1 get scalefont setfont
     [ currentpoint ] exch dup 2 get 0 exch R dup 5 get 2 ne {dup dup 6
     get exch 4 get {show} {stringwidth pop 0 R} ifelse }if dup 5 get 0 eq
     {dup 3 get {2 get neg 0 exch R pop} {pop aload pop M} ifelse} {dup 5
     get 1 eq {dup 2 get exch dup 3 get exch 6 get stringwidth pop -2 div
     dup 0 R} {dup 6 get stringwidth pop -2 div 0 R 6 get
     show 2 index {aload pop M neg 3 -1 roll neg R pop pop} {pop pop pop
     pop aload pop M} ifelse }ifelse }ifelse }
     ifelse }
   forall} bind def
/MFwidth {0 exch {dup 3 get{dup dup 0 get findfont exch 1 get scalefont
     setfont 6 get stringwidth pop add} {pop} ifelse} forall} bind def
/MCshow { currentpoint stroke M
  exch dup MFwidth -2 div 3 -1 roll R MFshow } def
%
end
%%EndProlog
bkdict begin
0.1 0.1 scale
%
% Residuals:
%
GSN 620 3454 M
620 3415 L
620 3484 L
620 3735 L
620 3393 L
620 3171 L
620 3228 L
620 3175 L
620 3162 L
620 3272 L
620 3446 L
620 3586 L
620 3944 L
620 4134 L
620 3603 L
620 4194 L
620 3954 L
620 3710 L
620 3689 L
620 3755 L
620 4223 L
620 3862 L
620 3755 L
620 4410 L
620 4311 L
620 3983 L
620 3695 L
620 3558 L
620 3998 L
620 4072 L
620 3994 L
620 4181 L
620 3922 L
620 3924 L
620 4270 L
620 3892 L
620 4036 L
620 3918 L
620 4311 L
620 4169 L
620 3949 L
620 3688 L
620 3889 L
620 3801 L
620 3898 L
620 3997 L
620 4119 L
620 4092 L
620 4293 L
620 3882 L
620 3923 L
620 4085 L
620 4203 L
620 4054 L
620 3774 L
620 4239 L
620 4126 L
620 4538 L
620 4169 L
620 3904 L
620 3909 L
620 4245 L
620 4145 L
620 4090 L
620 4392 L
620 4204 L
620 4637 L
620 4207 L
620 4033 L
620 4320 L
620 4243 L
620 4050 L
620 4117 L
620 4294 L
620 4203 L
620 4069 L
620 3898 L
620 4008 L
620 4225 L
620 4342 L
620 4047 L
620 4127 L
620 4517 L
620 4160 L
620 4395 L
620 4150 L
620 4304 L
620 4038 L
620 4449 L
620 4308 L
620 4030 L
620 4324 L
620 4485 L
620 4287 L
620 4381 L
620 4217 L
620 4295 L
620 4060 L
620 3756 L
620 4122 L
620 4109 L
620 4230 L
620 4186 L
620 4012 L
620 3834 L
620 4131 L
620 4242 L
620 4191 L
620 4067 L
620 4192 L
620 4285 L
620 3957 L
620 3940 L
620 4584 L
620 4466 L
620 4385 L
620 4194 L
620 3875 L
620 4863 L
620 4130 L
620 3932 L
620 4271 L
620 4461 L
620 4256 L
620 4101 L
620 4213 L
620 4071 L
620 4293 L
620 4145 L
620 4168 L
620 4581 L
620 3866 L
620 4053 L
620 4145 L
620 4286 L
620 4226 L
620 3874 L
620 4001 L
620 4211 L
620 4286 L
620 4299 L
620 4392 L
620 4313 L
620 3901 L
620 4019 L
620 4240 L
620 4266 L
620 4139 L
620 4408 L
620 4098 L
620 4179 L
620 4082 L
620 4307 L
620 4031 L
620 4343 L
620 4188 L
620 3578 L
620 4201 L
620 4030 L
620 4246 L
620 3985 L
620 4260 L
620 3996 L
620 3751 L
620 3994 L
620 4383 L
620 4344 L
620 3971 L
620 4155 L
620 4294 L
620 4274 L
620 3951 L
620 4191 L
620 4207 L
620 3999 L
620 4218 L
620 4149 L
620 4110 L
620 4115 L
620 4023 L
620 4000 L
620 4212 L
620 4015 L
620 4092 L
620 3563 L
620 4367 L
620 4204 L
620 3929 L
620 3872 L
620 4255 L
620 4334 L
620 4075 L
620 4328 L
620 4011 L
620 3967 L
620 4035 L
620 3867 L
620 4245 L
620 4025 L
620 4213 L
620 4091 L
620 4165 L
620 4267 L
620 3937 L
620 3960 L
620 4110 L
620 4351 L
620 4073 L
620 3882 L
620 4292 L
620 4173 L
620 3932 L
620 4084 L
620 3863 L
620 4028 L
620 3869 L
620 4224 L
620 3957 L
620 4156 L
620 3777 L
620 3789 L
620 4086 L
620 3920 L
620 3843 L
620 3671 L
620 4266 L
620 3786 L
620 4077 L
620 3887 L
620 4429 L
620 3992 L
620 4025 L
620 4062 L
620 3878 L
620 4403 L
620 3811 L
620 3970 L
620 4034 L
620 3837 L
620 4062 L
620 3894 L
620 3993 L
620 4302 L
620 4103 L
620 4043 L
620 4126 L
620 3733 L
620 4365 L
620 4440 L
620 4128 L
620 3595 L
620 4123 L
620 3935 L
620 3916 L
620 4201 L
620 3697 L
620 4050 L
620 3846 L
620 4227 L
620 3930 L
620 3946 L
620 4091 L
620 3671 L
620 4086 L
620 4128 L
620 4046 L
620 3856 L
620 4036 L
620 3688 L
620 3858 L
620 3754 L
620 3930 L
620 3599 L
620 4203 L
620 3964 L
620 4043 L
620 3934 L
620 3922 L
620 3692 L
620 4250 L
620 4029 L
620 4307 L
620 4006 L
620 4295 L
620 4049 L
620 3919 L
620 3742 L
620 4041 L
620 3765 L
620 3968 L
620 3643 L
620 4060 L
620 4101 L
620 3845 L
620 3830 L
620 4045 L
620 3738 L
620 3683 L
620 3472 L
620 3938 L
620 4244 L
620 3751 L
620 4004 L
620 4079 L
620 3890 L
620 4022 L
620 3487 L
620 3839 L
620 4239 L
620 3762 L
620 3615 L
620 3825 L
620 3855 L
620 4510 L
620 3789 L
620 3435 L
620 3768 L
620 3677 L
620 3819 L
620 3595 L
620 3833 L
620 3643 L
620 3799 L
620 4019 L
620 3680 L
620 3676 L
620 3547 L
620 3875 L
620 3628 L
620 3573 L
620 3665 L
620 3622 L
620 3774 L
620 4063 L
620 3655 L
620 3748 L
620 3695 L
620 3400 L
620 3749 L
620 3484 L
620 3835 L
620 4237 L
620 3501 L
620 3589 L
620 3984 L
620 3446 L
620 3767 L
620 3808 L
620 3865 L
620 3935 L
620 4112 L
620 3690 L
620 3837 L
620 3739 L
620 3639 L
620 3697 L
620 3787 L
620 3499 L
620 3587 L
620 3509 L
620 3626 L
620 3473 L
620 3990 L
620 3494 L
620 4165 L
620 3597 L
620 3373 L
620 3614 L
620 3784 L
620 3961 L
620 3827 L
620 3704 L
620 4028 L
620 3752 L
620 3605 L
620 3380 L
620 3672 L
620 3993 L
620 3512 L
620 3746 L
620 4046 L
620 3617 L
620 3578 L
620 3555 L
620 3876 L
620 3816 L
620 3521 L
620 3742 L
620 3539 L
620 3645 L
620 3960 L
620 3672 L
620 3894 L
620 4000 L
620 3440 L
620 3532 L
620 4014 L
620 3910 L
620 3551 L
620 3714 L
620 3693 L
620 4078 L
620 3848 L
620 3712 L
620 3955 L
620 3545 L
620 3950 L
620 3930 L
620 3292 L
620 3472 L
620 3518 L
620 3619 L
620 3423 L
620 3872 L
620 3399 L
620 3384 L
620 3469 L
620 3453 L
620 3468 L
620 3557 L
620 3297 L
620 3554 L
620 3529 L
620 3483 L
620 3533 L
620 3292 L
620 3589 L
620 3473 L
620 3243 L
620 3315 L
620 3327 L
620 3445 L
620 2983 L
620 3419 L
620 3549 L
620 3560 L
620 3397 L
620 3523 L
620 3403 L
620 3320 L
620 3109 L
620 3058 L
620 3318 L
620 3111 L
620 3475 L
620 3153 L
620 3317 L
620 3281 L
620 3543 L
620 3296 L
620 3500 L
620 3174 L
620 3422 L
620 3329 L
620 3167 L
620 3195 L
620 2839 L
620 3443 L
620 3016 L
620 3160 L
620 3239 L
620 3155 L
620 3060 L
620 2871 L
620 3291 L
620 3136 L
620 2953 L
620 3013 L
620 2864 L
620 3232 L
620 3103 L
620 3107 L
620 3005 L
620 2733 L
620 3161 L
620 3176 L
620 3166 L
620 2992 L
620 3051 L
620 3375 L
620 2651 L
620 3296 L
620 2856 L
620 3110 L
620 3128 L
620 3102 L
620 2846 L
620 3358 L
620 3060 L
620 3237 L
620 2974 L
620 2688 L
620 2902 L
620 2921 L
620 3058 L
620 2888 L
620 2908 L
620 2803 L
620 2556 L
620 2757 L
620 2982 L
620 2901 L
620 2695 L
620 2996 L
620 2947 L
620 2897 L
620 3188 L
620 2624 L
620 2780 L
620 3080 L
620 2514 L
620 2942 L
620 3059 L
620 2983 L
620 2980 L
620 2689 L
620 2984 L
620 2775 L
620 3012 L
620 2234 L
620 3121 L
620 2754 L
620 2627 L
620 2827 L
620 2633 L
620 2657 L
620 2829 L
620 2867 L
620 2869 L
620 2740 L
620 2866 L
620 2777 L
620 2649 L
620 2956 L
620 2612 L
620 3106 L
620 2665 L
620 2521 L
620 2916 L
620 2735 L
620 2707 L
620 2920 L
620 3057 L
620 2711 L
620 2771 L
620 2756 L
620 2633 L
620 2726 L
620 2385 L
620 2721 L
620 2482 L
620 2353 L
620 2526 L
620 2641 L
620 2528 L
620 2385 L
620 2776 L
620 2661 L
620 2302 L
620 2726 L
620 2554 L
620 3115 L
620 2533 L
620 2528 L
620 2399 L
620 2474 L
620 2611 L
620 2920 L
620 2880 L
620 2742 L
620 2545 L
620 2693 L
620 2595 L
620 2775 L
620 2497 L
620 2500 L
620 2961 L
620 2444 L
620 2550 L
620 2578 L
620 2610 L
620 2810 L
620 2664 L
620 2373 L
620 2513 L
620 2509 L
620 2659 L
620 2729 L
620 2483 L
620 2482 L
620 2498 L
620 2356 L
620 2458 L
620 2556 L
620 2641 L
620 2698 L
620 2386 L
620 2555 L
620 2504 L
620 2389 L
620 2339 L
620 2362 L
620 2489 L
620 2638 L
620 2740 L
620 2486 L
620 2813 L
620 2568 L
620 2884 L
620 2418 L
620 2531 L
620 2636 L
620 2929 L
620 2652 L
620 2175 L
620 2492 L
620 2666 L
620 2399 L
620 2593 L
620 2586 L
620 2305 L
620 2553 L
620 2515 L
620 2556 L
620 2758 L
620 2426 L
620 2471 L
620 2786 L
620 2650 L
620 2455 L
620 2777 L
620 2512 L
620 2437 L
620 2506 L
620 2363 L
620 2507 L
620 2458 L
620 2136 L
620 2671 L
620 2524 L
620 2579 L
620 2431 L
620 2790 L
620 2465 L
620 2225 L
620 2312 L
620 2240 L
620 2396 L
620 2814 L
620 2423 L
620 2626 L
620 2701 L
620 2699 L
620 2147 L
620 2336 L
620 2592 L
620 2784 L
620 2551 L
620 2560 L
620 2667 L
620 2386 L
620 2475 L
620 2776 L
620 2647 L
620 2469 L
620 2248 L
620 2786 L
620 2543 L
620 3116 L
620 2642 L
620 3047 L
620 2658 L
620 2967 L
620 2177 L
620 2474 L
620 2591 L
620 2398 L
620 2825 L
620 2273 L
620 2744 L
620 2363 L
620 2635 L
620 2589 L
620 2247 L
620 2722 L
620 2227 L
620 2714 L
620 2427 L
620 2834 L
620 2512 L
620 2568 L
620 2601 L
620 2525 L
620 2347 L
620 2536 L
620 2734 L
620 2572 L
620 2530 L
620 2654 L
620 2443 L
620 2377 L
620 2223 L
620 2632 L
620 2389 L
620 2760 L
620 2465 L
620 2560 L
620 2540 L
620 2137 L
620 2447 L
620 2915 L
620 2634 L
620 2324 L
620 2469 L
620 2649 L
620 2580 L
620 2624 L
620 2446 L
620 2422 L
620 2600 L
620 2648 L
620 2661 L
620 2242 L
620 2864 L
620 2393 L
620 2739 L
620 2519 L
620 3019 L
620 2327 L
620 2717 L
620 2531 L
620 2463 L
620 2503 L
620 2700 L
620 2813 L
620 2776 L
620 2641 L
620 2583 L
620 2828 L
620 2326 L
620 2382 L
620 2655 L
620 2386 L
620 2672 L
620 2815 L
620 2512 L
620 2714 L
620 2433 L
620 2622 L
620 2422 L
620 2773 L
620 2494 L
620 2742 L
620 2651 L
620 2764 L
620 2665 L
620 2538 L
620 2402 L
620 2825 L
620 2802 L
620 2724 L
620 2440 L
620 2559 L
620 2800 L
620 2826 L
620 2508 L
620 2673 L
620 2658 L
620 2656 L
620 2618 L
620 2790 L
620 2508 L
620 2670 L
620 2659 L
620 2547 L
620 3011 L
620 2489 L
620 2734 L
620 2761 L
620 2807 L
620 2582 L
620 2607 L
620 2683 L
620 2963 L
620 2412 L
620 2907 L
620 2508 L
620 2718 L
620 2877 L
620 2442 L
620 2507 L
620 2767 L
620 2665 L
620 2739 L
620 2651 L
620 2578 L
620 2751 L
620 2552 L
620 2857 L
620 2729 L
620 2811 L
620 2418 L
620 2559 L
620 2609 L
620 2641 L
620 2449 L
620 2576 L
620 2292 L
620 2952 L
620 2521 L
620 2881 L
620 2896 L
620 2560 L
620 2451 L
620 2861 L
620 2958 L
620 2716 L
620 2508 L
620 2547 L
620 2632 L
620 2745 L
620 2562 L
620 2985 L
620 2605 L
620 2728 L
620 2753 L
620 2943 L
620 2314 L
620 3052 L
620 2542 L
620 2618 L
620 2893 L
620 2479 L
620 2634 L
620 2694 L
620 2908 L
620 2792 L
620 3125 L
620 2479 L
620 2639 L
620 2787 L
620 2476 L
620 2735 L
620 2687 L
620 2654 L
620 2355 L
620 2662 L
620 2707 L
620 2677 L
620 2685 L
620 2634 L
620 3138 L
620 2698 L
620 2883 L
620 2957 L
620 3013 L
620 2930 L
620 2608 L
620 2861 L
620 3161 L
620 2822 L
620 2594 L
620 2893 L
620 2481 L
620 2865 L
620 2554 L
620 2835 L
620 2833 L
620 3139 L
620 2711 L
620 2570 L
620 2831 L
620 3369 L
620 2538 L
620 2386 L
620 2872 L
620 2718 L
620 2759 L
620 2732 L
620 2602 L
620 2936 L
620 2425 L
620 3036 L
620 2574 L
620 3084 L
620 2513 L
620 3040 L
620 2791 L
620 2580 L
620 2866 L
620 2876 L
620 2979 L
620 2709 L
620 2846 L
620 2808 L
620 2598 L
620 2868 L
620 2619 L
620 2552 L
620 2808 L
620 2743 L
620 2559 L
620 2885 L
620 2998 L
620 2798 L
620 2759 L
620 2935 L
620 2919 L
620 2556 L
620 2899 L
620 2446 L
620 2709 L
620 2652 L
620 2918 L
620 2957 L
620 3089 L
620 2655 L
620 2629 L
620 2788 L
620 2767 L
620 2765 L
620 2649 L
620 2678 L
620 2816 L
620 2996 L
620 2790 L
620 2874 L
620 2746 L
620 2867 L
620 2733 L
620 3321 L
620 2768 L
620 2956 L
620 3031 L
620 2729 L
620 3015 L
620 2753 L
620 3329 L
620 2799 L
620 2882 L
620 3092 L
620 2770 L
620 2386 L
620 2945 L
620 2766 L
620 3101 L
620 2977 L
620 2423 L
620 2988 L
620 3118 L
620 3087 L
620 3054 L
620 2809 L
620 2833 L
620 2843 L
620 2803 L
620 3170 L
620 2714 L
620 3033 L
620 2986 L
620 2865 L
620 2982 L
620 2887 L
620 3024 L
620 2962 L
620 2911 L
620 2780 L
620 2755 L
620 2387 L
620 2783 L
620 2371 L
620 2947 L
620 2467 L
620 3023 L
620 3053 L
620 2725 L
620 3009 L
620 2738 L
620 2920 L
620 3546 L
620 3051 L
620 2844 L
620 2489 L
620 2931 L
620 2758 L
620 3074 L
620 2792 L
620 2803 L
620 2946 L
620 3266 L
620 2728 L
620 2977 L
620 2929 L
620 2673 L
620 2898 L
620 2754 L
620 3151 L
620 2739 L
620 3495 L
620 2814 L
620 3087 L
620 3075 L
620 2986 L
620 2805 L
620 3237 L
620 2900 L
620 2975 L
620 3247 L
620 2652 L
620 2861 L
620 2997 L
620 2848 L
620 3102 L
620 2835 L
620 2797 L
620 3202 L
620 2854 L
620 3033 L
620 2799 L
620 2993 L
620 2847 L
620 3187 L
620 2800 L
620 3219 L
620 3080 L
620 3027 L
620 2646 L
620 2767 L
620 2863 L
620 2717 L
620 2892 L
620 3133 L
620 2817 L
620 2892 L
620 2806 L
620 2967 L
620 2984 L
620 2817 L
620 2943 L
620 2853 L
620 2895 L
620 2821 L
620 2880 L
620 2873 L
620 2827 L
620 3165 L
620 2744 L
620 3038 L
620 3267 L
620 3067 L
620 3243 L
620 3078 L
620 2983 L
620 3208 L
620 3092 L
620 3222 L
620 3316 L
620 3247 L
620 2814 L
620 3014 L
620 2932 L
620 2840 L
620 2964 L
620 2997 L
620 2984 L
620 3040 L
620 3064 L
620 3033 L
620 3157 L
620 3210 L
620 2831 L
620 3140 L
620 2781 L
620 2932 L
620 3237 L
620 3243 L
620 2877 L
620 3057 L
620 3345 L
620 3259 L
620 2888 L
620 3158 L
620 2890 L
620 2899 L
620 3173 L
620 3062 L
620 3035 L
620 2972 L
620 2607 L
620 3135 L
620 3317 L
620 2852 L
620 3190 L
620 2774 L
620 3096 L
620 3069 L
620 2965 L
620 3123 L
620 3217 L
620 3131 L
620 3162 L
620 2967 L
620 2743 L
620 3084 L
620 3629 L
620 3217 L
620 3103 L
620 2966 L
620 3090 L
620 2914 L
620 3035 L
620 3059 L
620 3359 L
620 2917 L
620 3229 L
620 2940 L
620 3273 L
620 3268 L
620 3211 L
620 3321 L
620 3054 L
620 3044 L
620 2988 L
620 2891 L
620 3207 L
620 3332 L
620 2893 L
620 3158 L
620 2979 L
620 3932 L
620 3265 L
620 2934 L
620 2871 L
620 3065 L
620 3515 L
620 3159 L
620 3091 L
620 3021 L
620 3212 L
620 2916 L
620 3339 L
620 3271 L
620 3091 L
620 3057 L
620 3007 L
620 3138 L
620 3265 L
620 2990 L
620 3110 L
620 3341 L
620 2895 L
620 3462 L
620 3289 L
620 3413 L
620 3358 L
620 3149 L
620 3108 L
620 3196 L
620 3088 L
620 3174 L
620 2983 L
620 3063 L
620 3316 L
620 3301 L
620 3322 L
620 3230 L
620 3248 L
620 3470 L
620 3494 L
620 3004 L
620 3109 L
620 3284 L
620 3289 L
620 2970 L
620 3028 L
620 3228 L
620 3506 L
620 3428 L
620 3717 L
620 3410 L
620 3270 L
620 3195 L
620 3201 L
620 3187 L
620 3076 L
620 3416 L
620 2726 L
620 3655 L
620 3092 L
620 2984 L
620 3147 L
620 3484 L
620 2965 L
620 3211 L
620 3051 L
620 3213 L
620 3318 L
620 3379 L
620 3308 L
620 3111 L
620 3354 L
620 3483 L
620 3464 L
620 2842 L
620 3005 L
620 3083 L
620 3278 L
620 2883 L
620 3053 L
620 3123 L
620 3349 L
620 3228 L
620 3153 L
620 3247 L
620 2892 L
620 3211 L
620 3079 L
620 3399 L
620 3277 L
620 3314 L
620 3231 L
620 3466 L
620 3137 L
620 3284 L
620 3186 L
620 2978 L
620 3296 L
620 3426 L
620 2999 L
620 3159 L
620 2851 L
620 3295 L
620 3000 L
620 3300 L
620 3221 L
620 3535 L
620 3197 L
620 3497 L
620 3181 L
620 3453 L
620 3460 L
620 3082 L
620 3102 L
620 3147 L
620 3348 L
620 3417 L
620 3014 L
620 3253 L
620 3305 L
620 3226 L
620 3353 L
620 3033 L
620 3098 L
620 3326 L
620 3246 L
620 3082 L
620 3186 L
620 3327 L
620 3571 L
620 3013 L
620 3483 L
620 3167 L
620 3185 L
620 3421 L
620 3362 L
620 3071 L
620 3245 L
620 3241 L
620 3415 L
620 3439 L
620 3366 L
620 3306 L
620 3464 L
620 3501 L
620 3501 L
620 3435 L
620 3221 L
620 3357 L
620 3161 L
620 3465 L
620 3516 L
620 3388 L
620 3685 L
620 3334 L
620 3602 L
620 3602 L
620 3357 L
620 3207 L
620 3499 L
620 3405 L
620 3401 L
620 3055 L
620 3657 L
620 3271 L
620 3413 L
620 3314 L
620 3016 L
620 3366 L
620 3245 L
620 3346 L
620 3327 L
620 3488 L
620 3150 L
620 3220 L
620 3222 L
620 3148 L
620 3396 L
620 3349 L
620 3301 L
620 3446 L
620 3407 L
620 3203 L
620 3287 L
620 3327 L
620 3417 L
620 3393 L
620 3359 L
620 3460 L
620 3271 L
620 3375 L
620 3505 L
620 3300 L
620 3582 L
620 3622 L
620 3487 L
620 3421 L
620 3311 L
620 3524 L
620 3558 L
620 3543 L
620 3595 L
620 3259 L
620 3445 L
620 3330 L
620 3188 L
620 3136 L
620 3414 L
620 3262 L
620 3341 L
620 3008 L
620 3546 L
620 3139 L
620 3100 L
620 3357 L
620 3454 L
620 3153 L
620 3284 L
620 3274 L
620 3499 L
620 3507 L
620 3616 L
620 3186 L
620 3666 L
620 3351 L
620 3197 L
620 3087 L
620 3653 L
620 3444 L
620 3577 L
620 3162 L
620 3193 L
620 3812 L
620 3670 L
620 3070 L
620 3321 L
620 3079 L
620 3336 L
620 3494 L
620 3258 L
620 3500 L
620 3557 L
620 3436 L
620 3334 L
620 3310 L
620 3340 L
620 3173 L
620 3427 L
620 3084 L
620 3372 L
620 3450 L
620 3509 L
620 3267 L
620 3194 L
620 3240 L
620 3854 L
620 3052 L
620 3534 L
620 3415 L
620 3419 L
620 3523 L
620 3448 L
620 3638 L
620 3391 L
620 3235 L
620 3510 L
620 3658 L
620 3694 L
620 3491 L
620 3771 L
620 3323 L
620 3422 L
620 3672 L
620 3284 L
620 3561 L
620 3651 L
620 3792 L
620 3541 L
620 3658 L
620 3672 L
620 3531 L
620 3792 L
620 3668 L
620 3499 L
620 3641 L
620 3980 L
620 3915 L
620 3774 L
620 4105 L
620 4094 L
620 4178 L
620 3660 L
620 3834 L
620 3785 L
620 3740 L
620 3837 L
620 3607 L
620 3975 L
620 3782 L
620 3585 L
620 3611 L
620 4030 L
620 4207 L
620 3928 L
620 3745 L
620 3824 L
620 3967 L
620 4089 L
620 3977 L
620 4417 L
620 3724 L
620 3408 L
620 3840 L
620 3722 L
620 3934 L
620 3953 L
620 3780 L
620 3881 L
620 4154 L
620 3621 L
620 4024 L
620 3845 L
620 3795 L
620 4102 L
620 3619 L
620 3624 L
620 3792 L
620 3845 L
620 3985 L
620 3998 L
620 3953 L
620 3987 L
620 3644 L
620 4171 L
620 3345 L
620 4071 L
620 4181 L
620 3978 L
620 3806 L
620 3985 L
620 4040 L
620 3939 L
620 4139 L
620 3930 L
620 4409 L
620 3911 L
620 3970 L
620 4280 L
620 4064 L
620 4049 L
620 4495 L
620 3983 L
620 4062 L
620 3705 L
620 3938 L
620 3970 L
620 4034 L
620 3992 L
620 4174 L
620 3925 L
620 3909 L
620 4018 L
620 3764 L
620 4095 L
620 3880 L
620 4017 L
620 4091 L
620 3960 L
620 3809 L
620 3637 L
620 4215 L
620 3991 L
620 3890 L
620 3972 L
620 4167 L
620 4140 L
620 3655 L
620 3758 L
620 4222 L
620 4102 L
620 3638 L
620 3697 L
620 3582 L
620 4057 L
620 4084 L
620 3868 L
620 3764 L
620 4254 L
620 3944 L
620 4134 L
620 3958 L
620 3808 L
620 4004 L
620 3822 L
620 4081 L
620 4387 L
620 4206 L
620 3789 L
620 4067 L
620 4312 L
620 3895 L
620 3897 L
620 4311 L
620 3657 L
620 4044 L
620 3706 L
620 4123 L
620 4037 L
620 4194 L
620 4024 L
620 3961 L
620 3987 L
620 3917 L
620 3878 L
620 4003 L
620 3848 L
620 4260 L
620 4241 L
620 4085 L
620 3701 L
620 4644 L
620 4171 L
620 3854 L
620 4215 L
620 3704 L
620 3835 L
620 3975 L
620 4291 L
620 4021 L
620 4031 L
620 4011 L
620 4237 L
620 4286 L
620 4310 L
620 3937 L
620 3907 L
620 3890 L
620 4094 L
620 4044 L
620 3880 L
620 4184 L
620 4263 L
620 3989 L
620 4018 L
620 3617 L
620 3763 L
620 3884 L
620 3471 L
620 4055 L
620 3842 L
620 4097 L
620 4274 L
620 3568 L
620 3745 L
620 3395 L
620 4087 L
620 3930 L
620 4168 L
620 3877 L
620 4087 L
620 4324 L
620 4151 L
620 4085 L
620 4157 L
620 4025 L
620 3965 L
620 4164 L
620 3960 L
620 3761 L
620 3667 L
620 4188 L
620 3875 L
620 4164 L
620 3950 L
620 4265 L
620 3772 L
620 3925 L
620 4161 L
620 4128 L
620 3981 L
620 4500 L
620 3965 L
620 3610 L
620 3777 L
620 3774 L
620 4355 L
620 3935 L
620 3868 L
620 3883 L
620 3834 L
620 3881 L
620 4098 L
620 4244 L
620 3951 L
620 4030 L
620 3735 L
620 3785 L
620 3801 L
620 4268 L
620 3865 L
620 4048 L
620 4238 L
620 3688 L
620 3853 L
620 3915 L
620 3778 L
620 3860 L
620 3834 L
620 3858 L
620 3933 L
620 4028 L
620 3615 L
620 3782 L
620 3811 L
620 3468 L
620 3961 L
620 4024 L
620 4048 L
620 4112 L
620 4115 L
620 3874 L
620 3478 L
620 3478 L
620 4131 L
620 3700 L
620 4097 L
620 3888 L
620 3827 L
620 4006 L
620 3618 L
620 3752 L
620 3791 L
620 3862 L
620 3891 L
620 3910 L
620 3661 L
620 3872 L
620 3702 L
620 3851 L
620 4065 L
620 3999 L
620 3582 L
620 3568 L
620 3731 L
620 3982 L
620 3960 L
620 4311 L
620 4120 L
620 3767 L
620 4123 L
620 3907 L
620 3497 L
620 3868 L
620 3961 L
620 4007 L
620 3475 L
620 3811 L
620 3625 L
620 4181 L
620 3695 L
620 3952 L
620 3895 L
620 3908 L
620 4059 L
620 4131 L
620 4264 L
620 4024 L
620 4247 L
620 3845 L
620 4075 L
620 3894 L
620 3717 L
620 3984 L
620 4320 L
620 3748 L
620 3932 L
620 3854 L
620 3890 L
620 4121 L
620 3985 L
620 4087 L
620 3947 L
620 3744 L
620 4125 L
620 3991 L
620 3882 L
620 3954 L
620 4298 L
620 3824 L
620 3691 L
620 4238 L
620 3997 L
620 3909 L
620 4084 L
620 3831 L
620 4038 L
620 3959 L
620 3647 L
620 3649 L
620 3778 L
620 4033 L
620 3890 L
620 3664 L
620 3699 L
620 3967 L
620 3895 L
620 3807 L
620 3978 L
620 4291 L
620 3910 L
620 4255 L
620 3451 L
620 4068 L
620 3588 L
620 4225 L
620 4284 L
620 3384 L
620 3888 L
620 4088 L
620 3717 L
620 4128 L
620 3981 L
620 3856 L
620 3497 L
620 3924 L
620 3231 L
620 3947 L
620 3458 L
L2 C03 COSGR

%
%================
% Legend - Begin
%================
%
GSN 4240 5180 M
4480 5180 L
LWMC SL  C03 COSGR
GSN 4540 5141 M helvM (1.5 uM) show grestore
%
%================
% Legend - End
%================
%

%
% Main frame
%
L10
GSN 
620 1700 M
4220 1700 L
4220 5300 L
620 5300 L
closepath SGR

%
% X axis: large tics
%
L10
%
% X axis: small tics
%
L5
%
% Y axis: large tics
%
L10
GSN 620 1893 M 54 0 rL SGR
GSN 4220 1893 M -54 0 rL SGR
helvS (-0.02) 560 1893 ylabel
GSN 620 2642 M 54 0 rL SGR
GSN 4220 2642 M -54 0 rL SGR
helvS (-0.01) 560 2642 ylabel
GSN 620 3391 M 54 0 rL SGR
GSN 4220 3391 M -54 0 rL SGR
helvS (0) 560 3391 ylabel
GSN 620 4140 M 54 0 rL SGR
GSN 4220 4140 M -54 0 rL SGR
helvS (0.01) 560 4140 ylabel
GSN 620 4889 M 54 0 rL SGR
GSN 4220 4889 M -54 0 rL SGR
helvS (0.02) 560 4889 ylabel
%
% Y axis: small tics
%
L5
GSN 620 1706 M 36 0 rL SGR
GSN 4220 1706 M -36 0 rL SGR
GSN 620 1893 M 36 0 rL SGR
GSN 4220 1893 M -36 0 rL SGR
GSN 620 2080 M 36 0 rL SGR
GSN 4220 2080 M -36 0 rL SGR
GSN 620 2267 M 36 0 rL SGR
GSN 4220 2267 M -36 0 rL SGR
GSN 620 2455 M 36 0 rL SGR
GSN 4220 2455 M -36 0 rL SGR
GSN 620 2642 M 36 0 rL SGR
GSN 4220 2642 M -36 0 rL SGR
GSN 620 2829 M 36 0 rL SGR
GSN 4220 2829 M -36 0 rL SGR
GSN 620 3016 M 36 0 rL SGR
GSN 4220 3016 M -36 0 rL SGR
GSN 620 3204 M 36 0 rL SGR
GSN 4220 3204 M -36 0 rL SGR
GSN 620 3391 M 36 0 rL SGR
GSN 4220 3391 M -36 0 rL SGR
GSN 620 3578 M 36 0 rL SGR
GSN 4220 3578 M -36 0 rL SGR
GSN 620 3765 M 36 0 rL SGR
GSN 4220 3765 M -36 0 rL SGR
GSN 620 3953 M 36 0 rL SGR
GSN 4220 3953 M -36 0 rL SGR
GSN 620 4140 M 36 0 rL SGR
GSN 4220 4140 M -36 0 rL SGR
GSN 620 4327 M 36 0 rL SGR
GSN 4220 4327 M -36 0 rL SGR
GSN 620 4515 M 36 0 rL SGR
GSN 4220 4515 M -36 0 rL SGR
GSN 620 4702 M 36 0 rL SGR
GSN 4220 4702 M -36 0 rL SGR
GSN 620 4889 M 36 0 rL SGR
GSN 4220 4889 M -36 0 rL SGR
GSN 620 5076 M 36 0 rL SGR
GSN 4220 5076 M -36 0 rL SGR
GSN 620 5264 M 36 0 rL SGR
GSN 4220 5264 M -36 0 rL SGR

%
% X axis - residual panel
%
GSN L5 620 3391 M 4220 3391 L SDA G50 SGR

%
% X-Axis label:
%
gsave 620 1370 M 
[
[(Helvetica) 180 0 true true 0 (t)]
[(Helvetica) 180 0 true true 0 (i)]
[(Helvetica) 180 0 true true 0 (m)]
[(Helvetica) 180 0 true true 0 (e)]
] 0 MCshow grestore

%
% Y-Axis label:
%
gsave 234 3500 M 
currentpoint gsave translate 90 rotate 0 0 moveto
[
[(Helvetica) 180 0 true true 0 (r)]
[(Helvetica) 180 0 true true 0 (e)]
[(Helvetica) 180 0 true true 0 (s)]
[(Helvetica) 180 0 true true 0 (i)]
[(Helvetica) 180 0 true true 0 (d)]
[(Helvetica) 180 0 true true 0 (u)]
[(Helvetica) 180 0 true true 0 (a)]
[(Helvetica) 180 0 true true 0 (l)]
[(Helvetica) 180 0 true true 0 (s)]
] 0 MCshow grestore

end
showpage
%%Trailer
%%EOF
