%!PS-Adobe-3.0 EPSF-3.0
%%BoundingBox: 0 0 514 550
%%Creator: BioKin Ltd.
%%DocumentFonts: Symbol Helvetica
%%EndComments
%
/bkdict 256 dict def
bkdict begin
/M {moveto} def 
/R {rmoveto} def
/L {lineto} def
/rL {rlineto} def
/GSN {gsave newpath} def
/SGR {stroke grestore} def
/COSGR {gsave setrgbcolor stroke grestore grestore} def
/SL {setlinewidth} def
/LWMB {12} def             % line width - model curves, black & white
/LWMC {10} def             % line width - model curves, color
/L2 {2.5 setlinewidth} def
/L5 {5 setlinewidth} def
/L10 {10 setlinewidth} def
/G50 {0.5 setgray} def
/SDA {[10  20] 0 setdash} def % axes
/helvT {/Helvetica findfont 100 scalefont setfont} def % tiny
/helvS {/Helvetica findfont 125 scalefont setfont} def % small
/helvM {/Helvetica findfont 150 scalefont setfont} def % medium
/helvL {/Helvetica findfont 175 scalefont setfont} def % large
/xlabel {gsave M dup
   stringwidth exch -0.5 mul exch rmoveto show grestore} def 
/ylabel {gsave M 90 rotate dup
   stringwidth exch -0.5 mul exch rmoveto show grestore} def
/ylabelresid {gsave M dup
   stringwidth exch -1 mul exch rmoveto show grestore} def
% ======
% Shapes
% ======
% Circle:
/Circ {0 360 arc closepath} def
%
% Square:
/Squa {dup dup -0.5 mul dup dup R -2 mul 0 exch rL 1 mul 0 rL dup 0 exch -1 mul rL closepath} def
%
% Triangle Up:
/TriU {dup dup dup -0.4 mul exch -0.5 mul exch R dup 0.5 mul exch rL dup -1 mul exch 0.5 mul exch rL closepath} def 
%
% Triangle Down:
/TriD {dup dup dup 0.4 mul exch -0.5 mul exch R dup 0.5 mul exch -1 mul rL dup 0.5 mul exch rL closepath} def 
%
% Diamond:
/Diam {45 rotate Squa} def
% ======
% Fills
% ======
/GRF {gsave setgray fill grestore} def                    % gray-level Fill
/COF {gsave setrgbcolor fill grestore} def                % color fill
% ======
% Colors
% ======
/C01 {1.00	0.00	0.00} def      % Red
/C02 {0.00	0.00	1.00} def      % Blue
/C03 {0.00	0.39	0.00} def      % Dark Green
/C04 {0.78	0.08	0.52} def      % Medium Violet Red
/C05 {0.55	0.27	0.07} def      % Saddle Brown
/C06 {0.10	0.70	0.70} def      % (cyan)
/C07 {1.00	0.55	0.00} def      % Dark Orange
/C08 {0.63	0.13	0.94} def      % Purple
/C09 {0.00	0.75	1.00} def      % Deep Sky Blue
/C10 {0.20	0.80	0.20} def      % Lime Green
/C11 {0.47	0.53	0.60} def      % Light Slate Gray
/C12 {0.00	0.00	0.00} def      % Black            % or: {0.19	0.31	0.31} def      % Dark Slate Gray
%
/LGR {0.75} def % light gray
/DGR {0.33} def % dark gray
%
% =============
% Dash patterns
% =============
/dash01 { [80  20] 0 setdash } def
/dash02 { [40  20] 0 setdash } def
/dash03 { [80  20  10  20] 0 setdash } def
/dash04 { [40  20  10  20] 0 setdash } def
/dash05 { [80  20  10  10  10  20] 0 setdash } def
/dash06 { [40  20  10  10  10  20] 0 setdash } def
/dash07 { [10  10] 0 setdash } def
%
/MFshow {
   { dup 5 get 3 ge
     { 5 get 3 eq {gsave} {grestore} ifelse }
     {dup dup 0 get findfont exch 1 get scalefont setfont
     [ currentpoint ] exch dup 2 get 0 exch R dup 5 get 2 ne {dup dup 6
     get exch 4 get {show} {stringwidth pop 0 R} ifelse }if dup 5 get 0 eq
     {dup 3 get {2 get neg 0 exch R pop} {pop aload pop M} ifelse} {dup 5
     get 1 eq {dup 2 get exch dup 3 get exch 6 get stringwidth pop -2 div
     dup 0 R} {dup 6 get stringwidth pop -2 div 0 R 6 get
     show 2 index {aload pop M neg 3 -1 roll neg R pop pop} {pop pop pop
     pop aload pop M} ifelse }ifelse }ifelse }
     ifelse }
   forall} bind def
/MFwidth {0 exch {dup 3 get{dup dup 0 get findfont exch 1 get scalefont
     setfont 6 get stringwidth pop add} {pop} ifelse} forall} bind def
/MCshow { currentpoint stroke M
  exch dup MFwidth -2 div 3 -1 roll R MFshow } def
%
end
%%EndProlog
bkdict begin
0.1 0.1 scale
%
% Residuals:
%
GSN 620 3512 M
620 4324 L
620 3998 L
620 3301 L
620 3012 L
620 3140 L
620 3786 L
620 3493 L
620 3630 L
620 3635 L
620 3889 L
620 3770 L
620 4029 L
620 3616 L
620 3482 L
620 3636 L
620 3892 L
620 3632 L
620 3846 L
620 4123 L
620 4172 L
620 3952 L
620 3749 L
620 3906 L
620 4034 L
620 3895 L
620 4060 L
620 3966 L
620 3650 L
620 4231 L
620 4062 L
620 4141 L
620 4230 L
620 3876 L
620 3659 L
620 4103 L
620 3987 L
620 3680 L
620 4156 L
620 4020 L
620 3934 L
620 4089 L
620 4166 L
620 4142 L
620 3928 L
620 3799 L
620 3985 L
620 4376 L
620 4167 L
620 4266 L
620 4102 L
620 4260 L
620 3959 L
620 4134 L
620 4285 L
620 4021 L
620 3965 L
620 4066 L
620 4142 L
620 4192 L
620 4397 L
620 4060 L
620 4076 L
620 3736 L
620 4264 L
620 4043 L
620 4141 L
620 4007 L
620 4176 L
620 4171 L
620 4199 L
620 3829 L
620 4229 L
620 4271 L
620 4477 L
620 4189 L
620 4191 L
620 4121 L
620 3857 L
620 3990 L
620 4241 L
620 4260 L
620 4488 L
620 4445 L
620 4106 L
620 4157 L
620 4251 L
620 4247 L
620 4119 L
620 4369 L
620 4084 L
620 3931 L
620 4076 L
620 4007 L
620 4115 L
620 4133 L
620 4463 L
620 4205 L
620 4039 L
620 4352 L
620 3928 L
620 4097 L
620 4153 L
620 4307 L
620 4243 L
620 4019 L
620 4066 L
620 4104 L
620 4261 L
620 4507 L
620 4320 L
620 4163 L
620 3852 L
620 4168 L
620 4150 L
620 4120 L
620 4043 L
620 4863 L
620 4281 L
620 4400 L
620 4011 L
620 4423 L
620 4176 L
620 4153 L
620 4463 L
620 4435 L
620 4364 L
620 4120 L
620 4328 L
620 4483 L
620 4236 L
620 3982 L
620 4008 L
620 4139 L
620 4294 L
620 4295 L
620 4488 L
620 4260 L
620 4291 L
620 4225 L
620 4216 L
620 4167 L
620 4146 L
620 4212 L
620 3904 L
620 4370 L
620 4515 L
620 4140 L
620 4360 L
620 4015 L
620 4262 L
620 4382 L
620 3997 L
620 4325 L
620 4032 L
620 3961 L
620 4222 L
620 4275 L
620 4358 L
620 4278 L
620 4358 L
620 4042 L
620 4331 L
620 4155 L
620 3926 L
620 3973 L
620 4446 L
620 4170 L
620 4352 L
620 4536 L
620 4476 L
620 4053 L
620 4583 L
620 4324 L
620 4244 L
620 4485 L
620 4211 L
620 3982 L
620 4071 L
620 4173 L
620 3994 L
620 4026 L
620 3884 L
620 4480 L
620 4308 L
620 4504 L
620 4327 L
620 4207 L
620 4271 L
620 4402 L
620 3785 L
620 4068 L
620 4348 L
620 4138 L
620 4349 L
620 4557 L
620 4218 L
620 4175 L
620 4281 L
620 4121 L
620 4267 L
620 4346 L
620 4337 L
620 4091 L
620 4400 L
620 4461 L
620 3956 L
620 4216 L
620 4324 L
620 4390 L
620 4086 L
620 4455 L
620 4235 L
620 4209 L
620 4429 L
620 4443 L
620 3904 L
620 4050 L
620 4536 L
620 4455 L
620 4397 L
620 4002 L
620 4183 L
620 4251 L
620 4334 L
620 4154 L
620 4441 L
620 4491 L
620 4022 L
620 3969 L
620 4126 L
620 4082 L
620 3946 L
620 4288 L
620 4185 L
620 4200 L
620 4117 L
620 4299 L
620 4200 L
620 4169 L
620 4416 L
620 4401 L
620 3925 L
620 3946 L
620 3966 L
620 4275 L
620 4253 L
620 4428 L
620 4113 L
620 4337 L
620 4221 L
620 4279 L
620 4565 L
620 3678 L
620 4129 L
620 4425 L
620 4229 L
620 3842 L
620 3997 L
620 4300 L
620 4189 L
620 3980 L
620 4356 L
620 4091 L
620 4121 L
620 4171 L
620 4298 L
620 4097 L
620 4398 L
620 4443 L
620 4202 L
620 4235 L
620 4220 L
620 4108 L
620 4099 L
620 4243 L
620 4278 L
620 4194 L
620 4050 L
620 4358 L
620 4092 L
620 4068 L
620 3849 L
620 4262 L
620 4275 L
620 4382 L
620 3886 L
620 4145 L
620 4591 L
620 4146 L
620 4277 L
620 3790 L
620 3747 L
620 3807 L
620 4135 L
620 4039 L
620 4081 L
620 4113 L
620 4362 L
620 4003 L
620 4015 L
620 4053 L
620 4281 L
620 3796 L
620 4084 L
620 4490 L
620 4154 L
620 3840 L
620 4173 L
620 4253 L
620 3914 L
620 4051 L
620 3951 L
620 4068 L
620 3916 L
620 4393 L
620 4179 L
620 3795 L
620 3992 L
620 4053 L
620 3944 L
620 3834 L
620 4008 L
620 3908 L
620 3937 L
620 4285 L
620 4310 L
620 4068 L
620 3826 L
620 4166 L
620 3766 L
620 3959 L
620 4339 L
620 3836 L
620 4401 L
620 4072 L
620 4444 L
620 4419 L
620 3898 L
620 4017 L
620 3728 L
620 4028 L
620 4128 L
620 4498 L
620 3686 L
620 4079 L
620 3974 L
620 3903 L
620 3940 L
620 3773 L
620 4118 L
620 3642 L
620 4410 L
620 3865 L
620 4118 L
620 3908 L
620 4002 L
620 4208 L
620 4491 L
620 3923 L
620 3877 L
620 4481 L
620 3948 L
620 4034 L
620 4081 L
620 4189 L
620 4027 L
620 4048 L
620 4013 L
620 4106 L
620 3683 L
620 4083 L
620 4050 L
620 3778 L
620 4070 L
620 3657 L
620 3740 L
620 4170 L
620 3915 L
620 3959 L
620 4195 L
620 3845 L
620 4021 L
620 3861 L
620 4178 L
620 3707 L
620 3856 L
620 4213 L
620 3665 L
620 4146 L
620 3715 L
620 3816 L
620 4024 L
620 3944 L
620 4266 L
620 3912 L
620 3936 L
620 3808 L
620 3697 L
620 4092 L
620 4230 L
620 3771 L
620 3938 L
620 3912 L
620 3875 L
620 3619 L
620 3801 L
620 4306 L
620 3787 L
620 3896 L
620 3598 L
620 3980 L
620 3833 L
620 3763 L
620 3626 L
620 3832 L
620 3983 L
620 4070 L
620 3679 L
620 3770 L
620 3814 L
620 3512 L
620 3842 L
620 3963 L
620 3521 L
620 3747 L
620 4031 L
620 3548 L
620 3524 L
620 3821 L
620 3879 L
620 3447 L
620 3458 L
620 3966 L
620 3502 L
620 3779 L
620 3558 L
620 3618 L
620 3780 L
620 3326 L
620 3481 L
620 3929 L
620 3417 L
620 3641 L
620 3594 L
620 3390 L
620 3796 L
620 3483 L
620 3405 L
620 3358 L
620 3274 L
620 3602 L
620 3366 L
620 3117 L
620 3602 L
620 3442 L
620 3280 L
620 3027 L
620 3810 L
620 3725 L
620 3503 L
620 3677 L
620 3634 L
620 3206 L
620 3553 L
620 3558 L
620 3344 L
620 3656 L
620 3350 L
620 3697 L
620 3055 L
620 3559 L
620 3559 L
620 3145 L
620 3084 L
620 3198 L
620 3431 L
620 3425 L
620 3307 L
620 3752 L
620 3562 L
620 3511 L
620 3264 L
620 3395 L
620 3349 L
620 3410 L
620 3416 L
620 3497 L
620 3285 L
620 3490 L
620 2987 L
620 3199 L
620 3631 L
620 3043 L
620 3414 L
620 3622 L
620 3365 L
620 3376 L
620 3133 L
620 2926 L
620 3499 L
620 3211 L
620 3277 L
620 3072 L
620 3359 L
620 3338 L
620 3135 L
620 3208 L
620 3251 L
620 3369 L
620 3355 L
620 3137 L
620 3235 L
620 2918 L
620 3180 L
620 3238 L
620 3100 L
620 3100 L
620 3235 L
620 3169 L
620 3302 L
620 3022 L
620 3020 L
620 3162 L
620 3002 L
620 3040 L
620 3274 L
620 2972 L
620 3609 L
620 2861 L
620 2748 L
620 3509 L
620 2771 L
620 3100 L
620 3213 L
620 3005 L
620 3142 L
620 3178 L
620 3392 L
620 3054 L
620 2886 L
620 3003 L
620 3283 L
620 3219 L
620 3067 L
620 3217 L
620 2867 L
620 2970 L
620 3172 L
620 3033 L
620 3200 L
620 3049 L
620 3268 L
620 3075 L
620 2752 L
620 3240 L
620 2840 L
620 2828 L
620 3378 L
620 2608 L
620 3123 L
620 3039 L
620 2728 L
620 3045 L
620 3010 L
620 2869 L
620 2874 L
620 3007 L
620 3067 L
620 2642 L
620 2854 L
620 2757 L
620 3071 L
620 3260 L
620 3109 L
620 3194 L
620 2794 L
620 2645 L
620 3018 L
620 2936 L
620 2678 L
620 2778 L
620 2704 L
620 2980 L
620 2583 L
620 3031 L
620 3232 L
620 3098 L
620 2838 L
620 2945 L
620 2492 L
620 2811 L
620 2752 L
620 2951 L
620 2902 L
620 3108 L
620 2845 L
620 2728 L
620 3022 L
620 2982 L
620 2662 L
620 2953 L
620 2899 L
620 3172 L
620 2819 L
620 2698 L
620 2678 L
620 2651 L
620 2858 L
620 2962 L
620 2811 L
620 2891 L
620 2804 L
620 2794 L
620 2941 L
620 3173 L
620 2996 L
620 2521 L
620 3066 L
620 2947 L
620 2855 L
620 3131 L
620 2617 L
620 2943 L
620 2913 L
620 3257 L
620 3033 L
620 2787 L
620 2583 L
620 2854 L
620 3185 L
620 2643 L
620 2800 L
620 2860 L
620 2654 L
620 2507 L
620 2992 L
620 2542 L
620 2470 L
620 3010 L
620 2888 L
620 2682 L
620 2829 L
620 2856 L
620 2852 L
620 2528 L
620 3163 L
620 2765 L
620 2700 L
620 2646 L
620 2932 L
620 2830 L
620 2696 L
620 2942 L
620 2619 L
620 2798 L
620 2821 L
620 2851 L
620 2881 L
620 2983 L
620 2632 L
620 2697 L
620 2859 L
620 2747 L
620 2411 L
620 2247 L
620 2988 L
620 2772 L
620 2732 L
620 2710 L
620 2961 L
620 2586 L
620 3024 L
620 2564 L
620 2822 L
620 2594 L
620 2586 L
620 2584 L
620 2596 L
620 2845 L
620 2686 L
620 2512 L
620 2786 L
620 2831 L
620 2674 L
620 2950 L
620 2692 L
620 2607 L
620 3028 L
620 2570 L
620 3085 L
620 2844 L
620 2677 L
620 2809 L
620 2620 L
620 2737 L
620 2916 L
620 2685 L
620 2762 L
620 2705 L
620 2747 L
620 2717 L
620 2611 L
620 2683 L
620 2834 L
620 2452 L
620 2643 L
620 2509 L
620 2317 L
620 2827 L
620 2506 L
620 2850 L
620 2877 L
620 2544 L
620 2671 L
620 2462 L
620 2937 L
620 2494 L
620 2997 L
620 2800 L
620 2714 L
620 2686 L
620 2880 L
620 2756 L
620 2893 L
620 2773 L
620 2773 L
620 2641 L
620 2450 L
620 2619 L
620 2923 L
620 2836 L
620 2654 L
620 2547 L
620 2794 L
620 2644 L
620 2766 L
620 2921 L
620 2881 L
620 2729 L
620 2953 L
620 2679 L
620 2806 L
620 2801 L
620 2893 L
620 2744 L
620 2856 L
620 2672 L
620 2844 L
620 2518 L
620 2667 L
620 2520 L
620 3050 L
620 3107 L
620 3003 L
620 2665 L
620 2924 L
620 2822 L
620 2871 L
620 2635 L
620 2553 L
620 2692 L
620 2598 L
620 3016 L
620 2620 L
620 2407 L
620 3003 L
620 3063 L
620 2817 L
620 2747 L
620 2556 L
620 2616 L
620 2379 L
620 2695 L
620 2292 L
620 2606 L
620 2772 L
620 2546 L
620 2959 L
620 2656 L
620 2534 L
620 2136 L
620 2849 L
620 2815 L
620 2509 L
620 2466 L
620 2830 L
620 2882 L
620 2576 L
620 2626 L
620 2663 L
620 2638 L
620 2628 L
620 2521 L
620 2909 L
620 2613 L
620 2768 L
620 2626 L
620 2927 L
620 2708 L
620 2696 L
620 2566 L
620 2768 L
620 2750 L
620 2765 L
620 2905 L
620 2614 L
620 2708 L
620 3293 L
620 2894 L
620 2972 L
620 3032 L
620 2790 L
620 2549 L
620 2636 L
620 3017 L
620 2999 L
620 2989 L
620 2606 L
620 2857 L
620 2658 L
620 2746 L
620 2743 L
620 2930 L
620 2842 L
620 2920 L
620 2686 L
620 2855 L
620 2688 L
620 2935 L
620 3223 L
620 2785 L
620 2716 L
620 2738 L
620 2947 L
620 2728 L
620 2855 L
620 2890 L
620 2318 L
620 2711 L
620 2798 L
620 2674 L
620 2882 L
620 2808 L
620 2887 L
620 2691 L
620 2950 L
620 2781 L
620 2895 L
620 2768 L
620 3089 L
620 2803 L
620 2843 L
620 2741 L
620 2768 L
620 2609 L
620 2584 L
620 2890 L
620 3263 L
620 2716 L
620 2669 L
620 2460 L
620 2746 L
620 3029 L
620 3082 L
620 2905 L
620 2987 L
620 2798 L
620 2813 L
620 2873 L
620 2927 L
620 2564 L
620 2950 L
620 2947 L
620 3024 L
620 2821 L
620 2932 L
620 2945 L
620 3022 L
620 3064 L
620 2569 L
620 2888 L
620 2758 L
620 3039 L
620 2840 L
620 2937 L
620 2696 L
620 2244 L
620 2589 L
620 2908 L
620 2972 L
620 2813 L
620 3092 L
620 3104 L
620 2788 L
620 2764 L
620 2756 L
620 3472 L
620 2778 L
620 2960 L
620 2646 L
620 2848 L
620 2532 L
620 3049 L
620 2535 L
620 2943 L
620 2617 L
620 2846 L
620 3127 L
620 2783 L
620 2910 L
620 2980 L
620 2848 L
620 2820 L
620 2510 L
620 2848 L
620 3069 L
620 3025 L
620 2997 L
620 2746 L
620 2505 L
620 2617 L
620 2522 L
620 2674 L
620 3497 L
620 2940 L
620 2865 L
620 2776 L
620 2913 L
620 3298 L
620 2724 L
620 3122 L
620 2582 L
620 2878 L
620 2577 L
620 2825 L
620 2704 L
620 2836 L
620 2953 L
620 2830 L
620 2607 L
620 3057 L
620 2689 L
620 3072 L
620 2968 L
620 3368 L
620 2316 L
620 2801 L
620 2918 L
620 2983 L
620 3052 L
620 2495 L
620 3012 L
620 3152 L
620 3045 L
620 2592 L
620 2522 L
620 2699 L
620 2771 L
620 2933 L
620 3248 L
620 3124 L
620 3147 L
620 2900 L
620 2500 L
620 2624 L
620 2602 L
620 2711 L
620 2761 L
620 2769 L
620 2948 L
620 2716 L
620 2955 L
620 2803 L
620 2860 L
620 3214 L
620 2701 L
620 2694 L
620 2843 L
620 2841 L
620 2960 L
620 2716 L
620 2756 L
620 3119 L
620 2649 L
620 3047 L
620 2766 L
620 3181 L
620 3042 L
620 3224 L
620 3084 L
620 2684 L
620 2587 L
620 2900 L
620 2982 L
620 3206 L
620 2863 L
620 2950 L
620 2774 L
620 2783 L
620 3057 L
620 2878 L
620 2627 L
620 2510 L
620 2642 L
620 3216 L
620 2731 L
620 3045 L
620 2943 L
620 3089 L
620 2487 L
620 2823 L
620 2557 L
620 3099 L
620 3132 L
620 2704 L
620 2863 L
620 2776 L
620 3109 L
620 2808 L
620 3010 L
620 3002 L
620 2712 L
620 2950 L
620 2826 L
620 2870 L
620 3241 L
620 2781 L
620 2597 L
620 3032 L
620 2893 L
620 3017 L
620 2908 L
620 2796 L
620 3099 L
620 2813 L
620 3263 L
620 2766 L
620 3060 L
620 2905 L
620 2958 L
620 3164 L
620 3070 L
620 3117 L
620 3037 L
620 2828 L
620 3025 L
620 2687 L
620 2873 L
620 2933 L
620 2903 L
620 2724 L
620 3157 L
620 2701 L
620 2982 L
620 2953 L
620 2960 L
620 3296 L
620 2871 L
620 2789 L
620 3194 L
620 2838 L
620 2836 L
620 3008 L
620 3090 L
620 3082 L
620 3363 L
620 3015 L
620 3176 L
620 2851 L
620 2988 L
620 2739 L
620 3107 L
620 2873 L
620 2878 L
620 3142 L
620 2913 L
620 3191 L
620 2930 L
620 3196 L
620 2841 L
620 3214 L
620 2843 L
620 2871 L
620 2988 L
620 2955 L
620 2836 L
620 3204 L
620 2995 L
620 3094 L
620 2779 L
620 2970 L
620 2908 L
620 3082 L
620 2751 L
620 2908 L
620 3124 L
620 2923 L
620 2967 L
620 3139 L
620 2881 L
620 2982 L
620 3316 L
620 2938 L
620 3020 L
620 3216 L
620 3154 L
620 3206 L
620 2933 L
620 2928 L
620 3020 L
620 2858 L
620 3010 L
620 2960 L
620 2898 L
620 2903 L
620 3144 L
620 2856 L
620 2881 L
620 3181 L
620 2910 L
620 3194 L
620 3216 L
620 3144 L
620 2858 L
620 3159 L
620 2950 L
620 2928 L
620 3333 L
620 2958 L
620 3458 L
620 3470 L
620 2672 L
620 3097 L
620 3102 L
620 2982 L
620 2965 L
620 2970 L
620 3020 L
620 2997 L
620 3191 L
620 3204 L
620 3074 L
620 2893 L
620 2808 L
620 2709 L
620 3248 L
620 3194 L
620 3144 L
620 3236 L
620 2948 L
620 2771 L
620 3122 L
620 2756 L
620 3368 L
620 2990 L
620 3246 L
620 2918 L
620 2998 L
620 3042 L
620 3017 L
620 3089 L
620 3062 L
620 2783 L
620 3042 L
620 2935 L
620 3239 L
620 3035 L
620 3288 L
620 3273 L
620 3164 L
620 2962 L
620 2836 L
620 3027 L
620 3087 L
620 3251 L
620 3313 L
620 2878 L
620 3035 L
620 3084 L
620 3055 L
620 3107 L
620 2963 L
620 3231 L
620 3373 L
620 3321 L
620 3211 L
620 3037 L
620 2960 L
620 3256 L
620 2888 L
620 3064 L
620 2950 L
620 3179 L
620 3085 L
620 2562 L
620 3184 L
620 3184 L
620 3090 L
620 2803 L
620 3206 L
620 3172 L
620 3047 L
620 3197 L
620 2968 L
620 2803 L
620 3052 L
620 2995 L
620 2901 L
620 3090 L
620 3336 L
620 3062 L
620 3236 L
620 3099 L
620 3012 L
620 3371 L
620 3149 L
620 3171 L
620 2915 L
620 2973 L
620 3114 L
620 3045 L
620 3370 L
620 3323 L
620 3271 L
620 2512 L
620 3254 L
620 3234 L
620 3226 L
620 3388 L
620 3084 L
620 3122 L
620 2977 L
620 3338 L
620 3152 L
620 3395 L
620 3164 L
620 3124 L
620 3485 L
620 3171 L
620 3147 L
620 3224 L
620 3326 L
620 2975 L
620 3005 L
620 2871 L
620 3149 L
620 3152 L
620 2828 L
620 3132 L
620 3189 L
620 3276 L
620 3323 L
620 3385 L
620 2696 L
620 3261 L
620 3251 L
620 2980 L
620 3341 L
620 3060 L
620 3425 L
620 2731 L
620 3199 L
620 3084 L
620 3405 L
620 3059 L
620 3144 L
620 3204 L
620 3258 L
620 3201 L
620 3072 L
620 3219 L
620 3502 L
620 3540 L
620 3127 L
620 3189 L
620 2943 L
620 3117 L
620 3117 L
620 2953 L
620 3276 L
620 3333 L
620 3448 L
620 3500 L
620 2716 L
620 3144 L
620 3540 L
620 2928 L
620 3047 L
620 3007 L
620 3204 L
620 3082 L
620 3082 L
620 3032 L
620 3271 L
620 3152 L
620 2878 L
620 3224 L
620 2707 L
620 2848 L
620 3191 L
620 3082 L
620 3236 L
620 2918 L
620 2973 L
620 2953 L
620 3388 L
620 3082 L
620 3214 L
620 3438 L
620 3079 L
620 3197 L
620 2955 L
620 3331 L
620 3383 L
620 3318 L
620 2861 L
620 2950 L
620 3027 L
620 3162 L
620 3159 L
620 3005 L
620 3184 L
620 2995 L
620 3087 L
620 3017 L
620 3269 L
620 3390 L
620 3209 L
620 3114 L
620 3162 L
620 3196 L
620 3500 L
620 3077 L
620 3273 L
620 3094 L
620 3079 L
620 3274 L
620 2948 L
620 3477 L
620 3064 L
620 3609 L
620 3490 L
620 3047 L
620 3236 L
620 2995 L
620 3229 L
620 3070 L
620 3500 L
620 3239 L
620 2672 L
620 3428 L
620 3293 L
620 2841 L
620 3244 L
620 2883 L
620 3219 L
620 3450 L
620 3234 L
620 3182 L
620 3184 L
620 3241 L
620 3271 L
620 3313 L
620 3219 L
620 3366 L
620 3281 L
620 3144 L
620 3296 L
620 3114 L
620 3152 L
620 3271 L
620 2960 L
620 3077 L
620 3343 L
620 3219 L
620 2863 L
620 2975 L
620 3015 L
620 3483 L
620 3353 L
620 3114 L
620 2662 L
620 3248 L
620 3361 L
620 3025 L
620 3274 L
620 2754 L
620 3191 L
620 3087 L
620 3286 L
620 3572 L
620 3154 L
620 3246 L
620 3458 L
620 3159 L
620 3336 L
620 2883 L
620 3614 L
620 2995 L
620 3028 L
620 3260 L
620 3177 L
620 3419 L
620 3210 L
620 3376 L
620 3025 L
620 3754 L
620 3131 L
620 3413 L
620 3280 L
620 3260 L
620 3559 L
620 2899 L
620 3562 L
620 3814 L
620 3449 L
620 2826 L
620 3240 L
620 3336 L
620 3436 L
620 3459 L
620 3469 L
620 3857 L
620 3303 L
620 3244 L
620 3376 L
620 3177 L
620 3035 L
620 3479 L
620 3224 L
620 3599 L
620 2909 L
620 3940 L
620 3648 L
620 3081 L
620 3264 L
620 3589 L
620 3671 L
620 3336 L
620 3453 L
620 3217 L
620 3433 L
620 3787 L
620 3615 L
620 3244 L
620 3512 L
620 3466 L
620 3648 L
620 3343 L
620 3569 L
620 3648 L
620 3496 L
620 3410 L
620 3685 L
620 3343 L
620 3376 L
620 3605 L
620 3486 L
620 3625 L
620 3675 L
620 3668 L
620 3665 L
620 3539 L
620 3453 L
620 3648 L
620 3555 L
620 3449 L
620 3502 L
620 3476 L
620 3589 L
620 3642 L
620 3386 L
620 3734 L
620 3602 L
620 3837 L
620 3824 L
620 3413 L
620 3532 L
620 3565 L
620 3619 L
620 3360 L
620 3602 L
620 3250 L
620 3890 L
620 3535 L
620 3715 L
620 3692 L
620 3721 L
620 3728 L
620 3612 L
620 3549 L
620 4066 L
620 3380 L
620 3277 L
620 3804 L
620 3509 L
620 3502 L
620 3585 L
620 3840 L
620 3741 L
620 3585 L
620 3506 L
620 3486 L
620 3678 L
620 3443 L
620 3701 L
620 3403 L
620 3496 L
620 3668 L
620 3794 L
620 3642 L
620 3754 L
620 3884 L
620 3512 L
620 3529 L
620 3512 L
620 3585 L
620 3628 L
620 3579 L
620 3499 L
620 3552 L
620 3220 L
620 3058 L
620 3847 L
620 3841 L
620 3403 L
620 3983 L
620 3340 L
620 3798 L
620 3194 L
620 3999 L
620 3482 L
620 3718 L
620 3844 L
620 3672 L
620 3323 L
620 3509 L
620 3715 L
620 3768 L
620 3492 L
620 3635 L
620 3804 L
620 3612 L
620 3688 L
620 3691 L
620 3366 L
620 3472 L
620 3592 L
620 3018 L
620 3798 L
620 3267 L
620 3217 L
620 3502 L
620 3602 L
620 3280 L
620 3230 L
620 3389 L
620 3721 L
620 3509 L
620 3343 L
620 3453 L
620 3519 L
620 3201 L
620 3711 L
620 3741 L
620 3562 L
620 3751 L
620 3705 L
620 3870 L
620 3831 L
620 3363 L
620 3569 L
620 3456 L
620 3403 L
620 3718 L
620 3917 L
620 3277 L
620 3380 L
620 3532 L
620 3396 L
620 3854 L
620 2955 L
620 3589 L
620 3522 L
620 3065 L
620 3731 L
620 3860 L
620 4020 L
620 3947 L
620 3658 L
620 4056 L
620 3569 L
620 3658 L
620 3622 L
620 3300 L
620 3413 L
620 3389 L
620 3887 L
620 3277 L
620 3230 L
620 3499 L
620 3675 L
620 3383 L
620 3612 L
620 3519 L
620 3254 L
620 3108 L
620 3668 L
620 3347 L
620 3768 L
620 3167 L
620 3681 L
620 3860 L
620 3482 L
620 3217 L
620 3496 L
620 3373 L
620 3602 L
620 3665 L
620 3383 L
620 3486 L
620 3313 L
620 3967 L
620 3492 L
620 3572 L
620 3546 L
620 3847 L
620 3290 L
620 3532 L
620 3403 L
620 3635 L
620 3399 L
620 3439 L
620 3210 L
620 3619 L
620 3409 L
620 3515 L
620 3585 L
620 3502 L
620 3638 L
620 3486 L
620 3552 L
620 3532 L
620 3612 L
620 3913 L
620 3502 L
620 3393 L
620 3791 L
620 3526 L
620 3678 L
620 3708 L
620 3350 L
620 3652 L
620 3273 L
620 3860 L
620 3204 L
620 3297 L
620 3194 L
620 3692 L
620 3323 L
620 3764 L
620 3605 L
620 2902 L
620 3466 L
620 3678 L
620 3340 L
620 3784 L
620 3479 L
620 3668 L
620 3529 L
620 3409 L
620 2886 L
620 3675 L
620 3257 L
620 3847 L
620 3512 L
620 3622 L
620 3764 L
620 2935 L
620 3307 L
620 3283 L
620 3449 L
620 3728 L
620 3416 L
620 3138 L
620 3675 L
620 3366 L
620 3210 L
620 3337 L
620 3081 L
620 3496 L
620 3638 L
620 3701 L
620 3469 L
620 3744 L
620 3721 L
620 3257 L
620 3662 L
620 3330 L
620 3413 L
620 3711 L
620 3164 L
620 3313 L
620 3536 L
620 3801 L
620 3336 L
620 3240 L
620 3214 L
620 3403 L
620 3512 L
620 3529 L
620 3227 L
620 3463 L
620 3582 L
620 3509 L
620 3708 L
620 3648 L
620 3595 L
620 3005 L
620 3549 L
620 3257 L
620 3967 L
620 3579 L
620 3516 L
620 3579 L
620 3472 L
620 3141 L
620 3552 L
620 3655 L
620 3562 L
620 3562 L
620 3221 L
620 3260 L
620 3469 L
620 3260 L
620 3443 L
620 3230 L
620 3327 L
620 3446 L
620 3373 L
620 3439 L
620 3476 L
620 3469 L
620 3346 L
620 3575 L
620 3652 L
620 3482 L
620 3588 L
620 3652 L
620 3585 L
620 3363 L
620 3562 L
620 3433 L
620 3277 L
620 3343 L
620 3695 L
L2 C02 COSGR

%
%================
% Legend - Begin
%================
%
GSN 4240 5180 M
4480 5180 L
LWMC SL  C02 COSGR
GSN 4540 5141 M helvM (1.0 uM) show grestore
%
%================
% Legend - End
%================
%

%
% Main frame
%
L10
GSN 
620 1700 M
4220 1700 L
4220 5300 L
620 5300 L
closepath SGR

%
% X axis: large tics
%
L10
%
% X axis: small tics
%
L5
%
% Y axis: large tics
%
L10
GSN 620 2062 M 54 0 rL SGR
GSN 4220 2062 M -54 0 rL SGR
helvS (-0.02) 560 2062 ylabel
GSN 620 3366 M 54 0 rL SGR
GSN 4220 3366 M -54 0 rL SGR
helvS (0) 560 3366 ylabel
GSN 620 4670 M 54 0 rL SGR
GSN 4220 4670 M -54 0 rL SGR
helvS (0.02) 560 4670 ylabel
%
% Y axis: small tics
%
L5
GSN 620 1736 M 36 0 rL SGR
GSN 4220 1736 M -36 0 rL SGR
GSN 620 2062 M 36 0 rL SGR
GSN 4220 2062 M -36 0 rL SGR
GSN 620 2388 M 36 0 rL SGR
GSN 4220 2388 M -36 0 rL SGR
GSN 620 2714 M 36 0 rL SGR
GSN 4220 2714 M -36 0 rL SGR
GSN 620 3040 M 36 0 rL SGR
GSN 4220 3040 M -36 0 rL SGR
GSN 620 3366 M 36 0 rL SGR
GSN 4220 3366 M -36 0 rL SGR
GSN 620 3692 M 36 0 rL SGR
GSN 4220 3692 M -36 0 rL SGR
GSN 620 4018 M 36 0 rL SGR
GSN 4220 4018 M -36 0 rL SGR
GSN 620 4344 M 36 0 rL SGR
GSN 4220 4344 M -36 0 rL SGR
GSN 620 4670 M 36 0 rL SGR
GSN 4220 4670 M -36 0 rL SGR
GSN 620 4996 M 36 0 rL SGR
GSN 4220 4996 M -36 0 rL SGR

%
% X axis - residual panel
%
GSN L5 620 3366 M 4220 3366 L SDA G50 SGR

%
% X-Axis label:
%
gsave 620 1370 M 
[
[(Helvetica) 180 0 true true 0 (t)]
[(Helvetica) 180 0 true true 0 (i)]
[(Helvetica) 180 0 true true 0 (m)]
[(Helvetica) 180 0 true true 0 (e)]
] 0 MCshow grestore

%
% Y-Axis label:
%
gsave 234 3500 M 
currentpoint gsave translate 90 rotate 0 0 moveto
[
[(Helvetica) 180 0 true true 0 (r)]
[(Helvetica) 180 0 true true 0 (e)]
[(Helvetica) 180 0 true true 0 (s)]
[(Helvetica) 180 0 true true 0 (i)]
[(Helvetica) 180 0 true true 0 (d)]
[(Helvetica) 180 0 true true 0 (u)]
[(Helvetica) 180 0 true true 0 (a)]
[(Helvetica) 180 0 true true 0 (l)]
[(Helvetica) 180 0 true true 0 (s)]
] 0 MCshow grestore

end
showpage
%%Trailer
%%EOF
