%!PS-Adobe-3.0 EPSF-3.0
%%BoundingBox: 0 0 514 550
%%Creator: BioKin Ltd.
%%DocumentFonts: Symbol Helvetica
%%EndComments
%
/bkdict 256 dict def
bkdict begin
/M {moveto} def 
/R {rmoveto} def
/L {lineto} def
/rL {rlineto} def
/GSN {gsave newpath} def
/SGR {stroke grestore} def
/COSGR {gsave setrgbcolor stroke grestore grestore} def
/SL {setlinewidth} def
/LWMB {12} def             % line width - model curves, black & white
/LWMC {10} def             % line width - model curves, color
/L2 {2.5 setlinewidth} def
/L5 {5 setlinewidth} def
/L10 {10 setlinewidth} def
/G50 {0.5 setgray} def
/SDA {[10  20] 0 setdash} def % axes
/helvT {/Helvetica findfont 100 scalefont setfont} def % tiny
/helvS {/Helvetica findfont 125 scalefont setfont} def % small
/helvM {/Helvetica findfont 150 scalefont setfont} def % medium
/helvL {/Helvetica findfont 175 scalefont setfont} def % large
/xlabel {gsave M dup
   stringwidth exch -0.5 mul exch rmoveto show grestore} def 
/ylabel {gsave M 90 rotate dup
   stringwidth exch -0.5 mul exch rmoveto show grestore} def
/ylabelresid {gsave M dup
   stringwidth exch -1 mul exch rmoveto show grestore} def
% ======
% Shapes
% ======
% Circle:
/Circ {0 360 arc closepath} def
%
% Square:
/Squa {dup dup -0.5 mul dup dup R -2 mul 0 exch rL 1 mul 0 rL dup 0 exch -1 mul rL closepath} def
%
% Triangle Up:
/TriU {dup dup dup -0.4 mul exch -0.5 mul exch R dup 0.5 mul exch rL dup -1 mul exch 0.5 mul exch rL closepath} def 
%
% Triangle Down:
/TriD {dup dup dup 0.4 mul exch -0.5 mul exch R dup 0.5 mul exch -1 mul rL dup 0.5 mul exch rL closepath} def 
%
% Diamond:
/Diam {45 rotate Squa} def
% ======
% Fills
% ======
/GRF {gsave setgray fill grestore} def                    % gray-level Fill
/COF {gsave setrgbcolor fill grestore} def                % color fill
% ======
% Colors
% ======
/C01 {1.00	0.00	0.00} def      % Red
/C02 {0.00	0.00	1.00} def      % Blue
/C03 {0.00	0.39	0.00} def      % Dark Green
/C04 {0.78	0.08	0.52} def      % Medium Violet Red
/C05 {0.55	0.27	0.07} def      % Saddle Brown
/C06 {0.10	0.70	0.70} def      % (cyan)
/C07 {1.00	0.55	0.00} def      % Dark Orange
/C08 {0.63	0.13	0.94} def      % Purple
/C09 {0.00	0.75	1.00} def      % Deep Sky Blue
/C10 {0.20	0.80	0.20} def      % Lime Green
/C11 {0.47	0.53	0.60} def      % Light Slate Gray
/C12 {0.00	0.00	0.00} def      % Black            % or: {0.19	0.31	0.31} def      % Dark Slate Gray
%
/LGR {0.75} def % light gray
/DGR {0.33} def % dark gray
%
% =============
% Dash patterns
% =============
/dash01 { [80  20] 0 setdash } def
/dash02 { [40  20] 0 setdash } def
/dash03 { [80  20  10  20] 0 setdash } def
/dash04 { [40  20  10  20] 0 setdash } def
/dash05 { [80  20  10  10  10  20] 0 setdash } def
/dash06 { [40  20  10  10  10  20] 0 setdash } def
/dash07 { [10  10] 0 setdash } def
%
/MFshow {
   { dup 5 get 3 ge
     { 5 get 3 eq {gsave} {grestore} ifelse }
     {dup dup 0 get findfont exch 1 get scalefont setfont
     [ currentpoint ] exch dup 2 get 0 exch R dup 5 get 2 ne {dup dup 6
     get exch 4 get {show} {stringwidth pop 0 R} ifelse }if dup 5 get 0 eq
     {dup 3 get {2 get neg 0 exch R pop} {pop aload pop M} ifelse} {dup 5
     get 1 eq {dup 2 get exch dup 3 get exch 6 get stringwidth pop -2 div
     dup 0 R} {dup 6 get stringwidth pop -2 div 0 R 6 get
     show 2 index {aload pop M neg 3 -1 roll neg R pop pop} {pop pop pop
     pop aload pop M} ifelse }ifelse }ifelse }
     ifelse }
   forall} bind def
/MFwidth {0 exch {dup 3 get{dup dup 0 get findfont exch 1 get scalefont
     setfont 6 get stringwidth pop add} {pop} ifelse} forall} bind def
/MCshow { currentpoint stroke M
  exch dup MFwidth -2 div 3 -1 roll R MFshow } def
%
end
%%EndProlog
bkdict begin
0.1 0.1 scale
%
% Residuals:
%
GSN 620 3904 M
620 3509 L
620 3039 L
620 3076 L
620 3481 L
620 3295 L
620 3066 L
620 2878 L
620 3305 L
620 3158 L
620 3047 L
620 3010 L
620 3189 L
620 3207 L
620 3128 L
620 3582 L
620 3246 L
620 3197 L
620 3399 L
620 3515 L
620 3580 L
620 3344 L
620 3279 L
620 3621 L
620 3634 L
620 3303 L
620 3325 L
620 3455 L
620 3232 L
620 3209 L
620 3316 L
620 3209 L
620 3283 L
620 3697 L
620 3237 L
620 3338 L
620 3425 L
620 3568 L
620 3501 L
620 3444 L
620 3466 L
620 3434 L
620 3481 L
620 3265 L
620 3119 L
620 3452 L
620 3597 L
620 3481 L
620 3341 L
620 3002 L
620 3223 L
620 3345 L
620 3271 L
620 3416 L
620 3537 L
620 3588 L
620 3356 L
620 3230 L
620 3349 L
620 3212 L
620 3215 L
620 3195 L
620 3260 L
620 3323 L
620 3360 L
620 3311 L
620 3346 L
620 3003 L
620 3261 L
620 3155 L
620 3868 L
620 3565 L
620 3224 L
620 3183 L
620 3523 L
620 3466 L
620 3508 L
620 3468 L
620 3517 L
620 3365 L
620 3575 L
620 3562 L
620 3553 L
620 3085 L
620 4026 L
620 3301 L
620 3621 L
620 3234 L
620 3353 L
620 3640 L
620 3422 L
620 3251 L
620 3581 L
620 3830 L
620 3141 L
620 3481 L
620 3480 L
620 3491 L
620 3403 L
620 3691 L
620 3506 L
620 3408 L
620 3324 L
620 3398 L
620 3379 L
620 3344 L
620 3647 L
620 3364 L
620 3341 L
620 3117 L
620 3222 L
620 3879 L
620 3470 L
620 3000 L
620 3755 L
620 3355 L
620 3385 L
620 3958 L
620 3531 L
620 3634 L
620 3785 L
620 3680 L
620 3597 L
620 3816 L
620 3583 L
620 3469 L
620 3394 L
620 3350 L
620 3202 L
620 3455 L
620 3633 L
620 3550 L
620 3242 L
620 3804 L
620 3539 L
620 3508 L
620 3801 L
620 3960 L
620 3682 L
620 3795 L
620 3677 L
620 3433 L
620 3444 L
620 3689 L
620 4005 L
620 3679 L
620 3517 L
620 3655 L
620 3250 L
620 3732 L
620 3726 L
620 3538 L
620 3499 L
620 3498 L
620 3546 L
620 3582 L
620 3641 L
620 3699 L
620 3829 L
620 3570 L
620 3441 L
620 3792 L
620 3715 L
620 3517 L
620 3541 L
620 3282 L
620 3736 L
620 3423 L
620 3288 L
620 3456 L
620 3511 L
620 3621 L
620 3396 L
620 3500 L
620 3414 L
620 3522 L
620 3250 L
620 3363 L
620 3814 L
620 3424 L
620 3385 L
620 3667 L
620 3772 L
620 3511 L
620 3316 L
620 3672 L
620 3658 L
620 3410 L
620 3522 L
620 3545 L
620 3879 L
620 3530 L
620 3591 L
620 3459 L
620 3096 L
620 3740 L
620 3708 L
620 3685 L
620 3225 L
620 3553 L
620 3698 L
620 3640 L
620 3589 L
620 3542 L
620 3500 L
620 3498 L
620 3562 L
620 3864 L
620 3761 L
620 3557 L
620 3780 L
620 3789 L
620 3475 L
620 3780 L
620 3572 L
620 3355 L
620 3560 L
620 3947 L
620 3681 L
620 3641 L
620 3437 L
620 3616 L
620 3932 L
620 3594 L
620 3786 L
620 3574 L
620 3803 L
620 3483 L
620 3092 L
620 3586 L
620 3678 L
620 3957 L
620 3736 L
620 3417 L
620 3910 L
620 3588 L
620 3905 L
620 3563 L
620 3479 L
620 3412 L
620 3621 L
620 4006 L
620 3580 L
620 3447 L
620 3822 L
620 3623 L
620 3276 L
620 3446 L
620 3538 L
620 3503 L
620 3418 L
620 3509 L
620 3526 L
620 3548 L
620 3385 L
620 3470 L
620 3784 L
620 3496 L
620 3672 L
620 3451 L
620 3496 L
620 3215 L
620 3581 L
620 3720 L
620 3707 L
620 3354 L
620 3600 L
620 3425 L
620 4042 L
620 3626 L
620 3006 L
620 3659 L
620 3662 L
620 3266 L
620 3154 L
620 3742 L
620 3516 L
620 3650 L
620 3794 L
620 3399 L
620 3419 L
620 3553 L
620 3854 L
620 3681 L
620 3596 L
620 3489 L
620 3503 L
620 3204 L
620 3786 L
620 3791 L
620 3398 L
620 3515 L
620 3653 L
620 3329 L
620 3806 L
620 3801 L
620 3087 L
620 3668 L
620 3824 L
620 3715 L
620 3463 L
620 3517 L
620 3541 L
620 3582 L
620 3560 L
620 3302 L
620 3698 L
620 3570 L
620 3579 L
620 3414 L
620 4022 L
620 3375 L
620 3681 L
620 3599 L
620 3570 L
620 3258 L
620 3683 L
620 3445 L
620 3627 L
620 3372 L
620 3629 L
620 3723 L
620 3614 L
620 3815 L
620 3520 L
620 3559 L
620 3344 L
620 3525 L
620 3750 L
620 3407 L
620 3361 L
620 3304 L
620 3514 L
620 3490 L
620 3548 L
620 3473 L
620 3660 L
620 3215 L
620 3393 L
620 3607 L
620 3410 L
620 3614 L
620 3618 L
620 3431 L
620 3438 L
620 3726 L
620 3390 L
620 3161 L
620 3739 L
620 3266 L
620 3505 L
620 3803 L
620 3426 L
620 3420 L
620 3452 L
620 3196 L
620 3284 L
620 3556 L
620 3688 L
620 3584 L
620 3681 L
620 3758 L
620 3415 L
620 3385 L
620 3427 L
620 3928 L
620 3125 L
620 2969 L
620 3551 L
620 3234 L
620 3522 L
620 3419 L
620 3245 L
620 3508 L
620 3497 L
620 3471 L
620 3392 L
620 3669 L
620 3437 L
620 3453 L
620 3636 L
620 3037 L
620 3294 L
620 3454 L
620 3440 L
620 3223 L
620 3206 L
620 3481 L
620 3459 L
620 3337 L
620 3458 L
620 3304 L
620 3478 L
620 3397 L
620 3313 L
620 3504 L
620 3438 L
620 3115 L
620 3423 L
620 3669 L
620 3451 L
620 3609 L
620 3007 L
620 3433 L
620 3205 L
620 3181 L
620 3344 L
620 3362 L
620 3284 L
620 3066 L
620 3293 L
620 3272 L
620 3177 L
620 3247 L
620 3397 L
620 3650 L
620 3073 L
620 3174 L
620 3161 L
620 2883 L
620 3097 L
620 3564 L
620 3104 L
620 3263 L
620 3129 L
620 3212 L
620 3112 L
620 2968 L
620 3151 L
620 2770 L
620 3394 L
620 2674 L
620 3020 L
620 3267 L
620 3071 L
620 3297 L
620 3023 L
620 3166 L
620 3088 L
620 2992 L
620 3110 L
620 3204 L
620 3218 L
620 3019 L
620 3122 L
620 2978 L
620 3326 L
620 3051 L
620 2898 L
620 3092 L
620 2985 L
620 2786 L
620 3069 L
620 2734 L
620 2939 L
620 3048 L
620 2825 L
620 3249 L
620 2769 L
620 3177 L
620 2510 L
620 3026 L
620 3211 L
620 3427 L
620 2837 L
620 2975 L
620 2757 L
620 2839 L
620 3103 L
620 2814 L
620 2765 L
620 2863 L
620 2700 L
620 2845 L
620 3156 L
620 3264 L
620 3123 L
620 2602 L
620 2595 L
620 2907 L
620 2746 L
620 2910 L
620 2633 L
620 2736 L
620 2845 L
620 2928 L
620 2879 L
620 2821 L
620 2791 L
620 3314 L
620 2440 L
620 2988 L
620 2647 L
620 2792 L
620 2680 L
620 2659 L
620 2743 L
620 2645 L
620 2269 L
620 2359 L
620 2700 L
620 2396 L
620 2879 L
620 2747 L
620 2425 L
620 2515 L
620 2417 L
620 2746 L
620 2665 L
620 2659 L
620 2833 L
620 2863 L
620 2574 L
620 2989 L
620 2749 L
620 2573 L
620 2735 L
620 2725 L
620 2805 L
620 2352 L
620 2869 L
620 2280 L
620 2752 L
620 2849 L
620 2649 L
620 2897 L
620 2378 L
620 2642 L
620 2694 L
620 2299 L
620 2663 L
620 2711 L
620 2377 L
620 2759 L
620 2670 L
620 2454 L
620 2426 L
620 2785 L
620 2796 L
620 2343 L
620 2461 L
620 2458 L
620 2844 L
620 2914 L
620 2518 L
620 2864 L
620 2136 L
620 2796 L
620 2916 L
620 2764 L
620 2594 L
620 2792 L
620 2701 L
620 2454 L
620 2369 L
620 2509 L
620 2433 L
620 2585 L
620 2509 L
620 2367 L
620 2551 L
620 2894 L
620 2560 L
620 2510 L
620 2851 L
620 2741 L
620 2486 L
620 2603 L
620 2883 L
620 2249 L
620 2536 L
620 2491 L
620 2637 L
620 2223 L
620 2795 L
620 2629 L
620 2649 L
620 2586 L
620 2814 L
620 2533 L
620 2467 L
620 2640 L
620 2382 L
620 2838 L
620 2491 L
620 2722 L
620 2331 L
620 2493 L
620 2794 L
620 2456 L
620 2747 L
620 2513 L
620 2455 L
620 2425 L
620 3044 L
620 2654 L
620 2325 L
620 2518 L
620 2984 L
620 2601 L
620 2699 L
620 2735 L
620 2616 L
620 2467 L
620 2717 L
620 2722 L
620 2589 L
620 2643 L
620 2433 L
620 2784 L
620 2425 L
620 2850 L
620 2675 L
620 2927 L
620 2931 L
620 2983 L
620 2680 L
620 2664 L
620 2221 L
620 2422 L
620 2835 L
620 2468 L
620 2773 L
620 2452 L
620 2572 L
620 2204 L
620 3124 L
620 2439 L
620 2540 L
620 2601 L
620 2755 L
620 2581 L
620 2329 L
620 3123 L
620 2531 L
620 2661 L
620 2794 L
620 2355 L
620 2368 L
620 3015 L
620 2837 L
620 2799 L
620 2757 L
620 2497 L
620 2580 L
620 2618 L
620 2802 L
620 2781 L
620 2778 L
620 2412 L
620 2698 L
620 2613 L
620 2795 L
620 2520 L
620 2624 L
620 2488 L
620 2692 L
620 2539 L
620 2533 L
620 2319 L
620 2734 L
620 2602 L
620 2519 L
620 2630 L
620 2620 L
620 2746 L
620 2525 L
620 2650 L
620 2490 L
620 2496 L
620 3058 L
620 2538 L
620 2911 L
620 2371 L
620 2662 L
620 2385 L
620 2640 L
620 2622 L
620 2446 L
620 2509 L
620 2709 L
620 3089 L
620 2742 L
620 2365 L
620 2706 L
620 2890 L
620 2684 L
620 2314 L
620 2663 L
620 2786 L
620 2932 L
620 2611 L
620 2894 L
620 2595 L
620 2779 L
620 2889 L
620 2650 L
620 2804 L
620 2592 L
620 2461 L
620 2858 L
620 2464 L
620 2486 L
620 2701 L
620 2650 L
620 2525 L
620 2772 L
620 2562 L
620 2736 L
620 2751 L
620 2575 L
620 2705 L
620 2664 L
620 2572 L
620 3023 L
620 2809 L
620 2491 L
620 3017 L
620 2570 L
620 2644 L
620 2682 L
620 2158 L
620 2672 L
620 2724 L
620 2637 L
620 2805 L
620 2659 L
620 2617 L
620 2829 L
620 2908 L
620 2871 L
620 2756 L
620 2867 L
620 2701 L
620 2605 L
620 2819 L
620 2908 L
620 2599 L
620 2697 L
620 2586 L
620 2884 L
620 2627 L
620 2703 L
620 2892 L
620 2813 L
620 2922 L
620 2657 L
620 2284 L
620 2625 L
620 2622 L
620 2649 L
620 2813 L
620 2818 L
620 2862 L
620 2928 L
620 2925 L
620 2838 L
620 2533 L
620 2447 L
620 2656 L
620 2786 L
620 2557 L
620 2922 L
620 2662 L
620 3065 L
620 2656 L
620 2945 L
620 2737 L
620 2789 L
620 2846 L
620 3044 L
620 2682 L
620 2857 L
620 2731 L
620 2738 L
620 3086 L
620 3330 L
620 2682 L
620 2785 L
620 2947 L
620 2710 L
620 2684 L
620 2776 L
620 2818 L
620 2417 L
620 2747 L
620 3084 L
620 2973 L
620 2523 L
620 2650 L
620 3135 L
620 2750 L
620 2903 L
620 2808 L
620 2877 L
620 3052 L
620 2544 L
620 2954 L
620 2959 L
620 3009 L
620 3030 L
620 2567 L
620 2579 L
620 2984 L
620 2884 L
620 3034 L
620 2748 L
620 3124 L
620 2838 L
620 2935 L
620 2706 L
620 2743 L
620 3137 L
620 3100 L
620 2950 L
620 3033 L
620 3088 L
620 2818 L
620 3052 L
620 3169 L
620 3141 L
620 3077 L
620 2876 L
620 2767 L
620 2804 L
620 3074 L
620 2760 L
620 3144 L
620 2805 L
620 2965 L
620 2843 L
620 3020 L
620 3125 L
620 2824 L
620 2780 L
620 2882 L
620 2696 L
620 3034 L
620 3014 L
620 2716 L
620 2899 L
620 3008 L
620 2855 L
620 3205 L
620 3058 L
620 3098 L
620 2978 L
620 2624 L
620 2750 L
620 3200 L
620 3113 L
620 2970 L
620 2937 L
620 3265 L
620 2810 L
620 3112 L
620 2925 L
620 2833 L
620 2985 L
620 2717 L
620 2904 L
620 3174 L
620 3149 L
620 2685 L
620 2848 L
620 3301 L
620 3059 L
620 2868 L
620 3215 L
620 3023 L
620 3186 L
620 2863 L
620 3421 L
620 2878 L
620 2971 L
620 2766 L
620 2922 L
620 3270 L
620 2872 L
620 2630 L
620 3334 L
620 3179 L
620 3309 L
620 2830 L
620 3126 L
620 2915 L
620 3389 L
620 3080 L
620 3280 L
620 3294 L
620 2965 L
620 3200 L
620 2685 L
620 3145 L
620 3227 L
620 3098 L
620 2853 L
620 3244 L
620 2914 L
620 2952 L
620 3041 L
620 2922 L
620 3017 L
620 3027 L
620 2938 L
620 3275 L
620 2697 L
620 3244 L
620 3135 L
620 3350 L
620 3090 L
620 3408 L
620 2825 L
620 2705 L
620 2886 L
620 3275 L
620 3172 L
620 3220 L
620 2824 L
620 3245 L
620 3271 L
620 3053 L
620 3116 L
620 2931 L
620 3433 L
620 3192 L
620 3231 L
620 2954 L
620 3211 L
620 2978 L
620 3118 L
620 3359 L
620 3202 L
620 2912 L
620 2937 L
620 3272 L
620 3036 L
620 3353 L
620 3143 L
620 3229 L
620 2989 L
620 3004 L
620 3340 L
620 2980 L
620 3103 L
620 3183 L
620 3168 L
620 3785 L
620 3218 L
620 3185 L
620 3488 L
620 3434 L
620 3041 L
620 3174 L
620 3242 L
620 2939 L
620 3136 L
620 3005 L
620 3122 L
620 3325 L
620 3520 L
620 3295 L
620 3143 L
620 3106 L
620 3136 L
620 3119 L
620 3345 L
620 3236 L
620 3200 L
620 3046 L
620 2867 L
620 3234 L
620 3301 L
620 2931 L
620 3083 L
620 3181 L
620 2933 L
620 3193 L
620 3105 L
620 3297 L
620 3523 L
620 2933 L
620 3088 L
620 3291 L
620 3074 L
620 2889 L
620 3403 L
620 3373 L
620 3126 L
620 3702 L
620 3053 L
620 3169 L
620 3347 L
620 3668 L
620 3593 L
620 3353 L
620 3269 L
620 3264 L
620 3367 L
620 2776 L
620 3442 L
620 3244 L
620 3113 L
620 2902 L
620 2939 L
620 3153 L
620 3535 L
620 3154 L
620 3474 L
620 3284 L
620 3088 L
620 3426 L
620 3030 L
620 3557 L
620 3417 L
620 3126 L
620 3242 L
620 3445 L
620 3250 L
620 3249 L
620 3566 L
620 3307 L
620 3300 L
620 3474 L
620 3272 L
620 3295 L
620 3464 L
620 3405 L
620 2999 L
620 3384 L
620 3401 L
620 3223 L
620 3093 L
620 3244 L
620 3164 L
620 3497 L
620 3586 L
620 3499 L
620 3537 L
620 3212 L
620 3500 L
620 3373 L
620 3509 L
620 2947 L
620 3318 L
620 3480 L
620 3602 L
620 3186 L
620 3155 L
620 3238 L
620 3713 L
620 2964 L
620 3436 L
620 3757 L
620 3128 L
620 3448 L
620 3030 L
620 3234 L
620 3440 L
620 3124 L
620 3644 L
620 3367 L
620 3456 L
620 3283 L
620 3334 L
620 3478 L
620 3373 L
620 3446 L
620 3290 L
620 3162 L
620 3511 L
620 3542 L
620 3462 L
620 3410 L
620 3374 L
620 3080 L
620 3364 L
620 3681 L
620 3325 L
620 3525 L
620 3301 L
620 3364 L
620 3772 L
620 3033 L
620 3140 L
620 3601 L
620 3674 L
620 3280 L
620 3685 L
620 3367 L
620 3039 L
620 3440 L
620 3553 L
620 3182 L
620 3341 L
620 3357 L
620 3376 L
620 3366 L
620 3325 L
620 3290 L
620 3399 L
620 3614 L
620 3417 L
620 3732 L
620 3497 L
620 3329 L
620 3513 L
620 3416 L
620 3416 L
620 3386 L
620 3663 L
620 3649 L
620 3300 L
620 3410 L
620 3218 L
620 3408 L
620 3115 L
620 3255 L
620 3925 L
620 3753 L
620 3532 L
620 3783 L
620 3498 L
620 3252 L
620 3572 L
620 3485 L
620 3295 L
620 3790 L
620 3539 L
620 3777 L
620 3500 L
620 3435 L
620 3351 L
620 3582 L
620 3435 L
620 3430 L
620 3100 L
620 3633 L
620 3232 L
620 3459 L
620 3478 L
620 3674 L
620 3380 L
620 3201 L
620 3670 L
620 3739 L
620 3538 L
620 3303 L
620 3498 L
620 3314 L
620 3313 L
620 3666 L
620 3618 L
620 3531 L
620 3345 L
620 3474 L
620 3611 L
620 3588 L
620 3580 L
620 3623 L
620 3319 L
620 3325 L
620 3466 L
620 3822 L
620 3945 L
620 3320 L
620 3938 L
620 3615 L
620 3300 L
620 3596 L
620 3549 L
620 3798 L
620 3990 L
620 3573 L
620 3626 L
620 3335 L
620 3537 L
620 3506 L
620 3428 L
620 3683 L
620 3601 L
620 3649 L
620 3681 L
620 3643 L
620 3369 L
620 3484 L
620 3734 L
620 3545 L
620 3587 L
620 3674 L
620 3671 L
620 3427 L
620 3665 L
620 3727 L
620 3160 L
620 3614 L
620 3656 L
620 3452 L
620 3675 L
620 3879 L
620 3852 L
620 3269 L
620 3353 L
620 3485 L
620 3510 L
620 3808 L
620 3615 L
620 3518 L
620 3496 L
620 3931 L
620 3666 L
620 3348 L
620 3599 L
620 3763 L
620 3842 L
620 3706 L
620 3939 L
620 3430 L
620 3443 L
620 3541 L
620 3493 L
620 3507 L
620 3329 L
620 3774 L
620 3445 L
620 3554 L
620 3839 L
620 3367 L
620 3621 L
620 3346 L
620 3342 L
620 3416 L
620 3674 L
620 3727 L
620 3589 L
620 3709 L
620 3624 L
620 3619 L
620 3884 L
620 3493 L
620 3612 L
620 3755 L
620 3214 L
620 3414 L
620 3606 L
620 3426 L
620 3925 L
620 3703 L
620 3471 L
620 3815 L
620 3716 L
620 3485 L
620 3580 L
620 3554 L
620 3687 L
620 3640 L
620 3617 L
620 3460 L
620 3515 L
620 3595 L
620 3771 L
620 3825 L
620 3575 L
620 3744 L
620 3771 L
620 3401 L
620 3331 L
620 3879 L
620 3925 L
620 3351 L
620 3441 L
620 3947 L
620 3747 L
620 3770 L
620 3416 L
620 4089 L
620 3849 L
620 3580 L
620 3841 L
620 3690 L
620 4031 L
620 3867 L
620 3704 L
620 3828 L
620 3567 L
620 3458 L
620 3732 L
620 3365 L
620 3701 L
620 3468 L
620 3727 L
620 3642 L
620 3494 L
620 3981 L
620 3999 L
620 3907 L
620 3657 L
620 3702 L
620 3572 L
620 3697 L
620 3708 L
620 3313 L
620 3748 L
620 3227 L
620 3536 L
620 3687 L
620 3347 L
620 3747 L
620 3397 L
620 3782 L
620 3786 L
620 3663 L
620 3602 L
620 3850 L
620 3602 L
620 3681 L
620 3665 L
620 3674 L
620 3748 L
620 3778 L
620 4037 L
620 3793 L
620 3604 L
620 3301 L
620 3598 L
620 3471 L
620 4150 L
620 3499 L
620 3885 L
620 3551 L
620 3706 L
620 3510 L
620 3638 L
620 3950 L
620 3822 L
620 3755 L
620 3833 L
620 3709 L
620 3888 L
620 3357 L
620 3608 L
620 3782 L
620 3596 L
620 3915 L
620 4062 L
620 3788 L
620 3233 L
620 3823 L
620 3817 L
620 4042 L
620 3817 L
620 3570 L
620 3700 L
620 4324 L
620 3479 L
620 3824 L
620 3433 L
620 3969 L
620 3329 L
620 3726 L
620 3720 L
620 3722 L
620 3516 L
620 3798 L
620 3196 L
620 3924 L
620 3721 L
620 3948 L
620 3695 L
620 3750 L
620 3833 L
620 3942 L
620 3786 L
620 4034 L
620 3468 L
620 3596 L
620 3535 L
620 3890 L
620 3723 L
620 3716 L
620 3623 L
620 3763 L
620 3566 L
620 3399 L
620 3575 L
620 3910 L
620 3624 L
620 3576 L
620 3854 L
620 3599 L
620 3839 L
620 3314 L
620 4019 L
620 3447 L
620 3846 L
620 3877 L
620 3955 L
620 3596 L
620 4158 L
620 3720 L
620 3669 L
620 3943 L
620 3909 L
620 4138 L
620 3909 L
620 4221 L
620 4108 L
620 4114 L
620 3842 L
620 4179 L
620 3859 L
620 3967 L
620 4109 L
620 3891 L
620 4141 L
620 3977 L
620 4040 L
620 4074 L
620 4041 L
620 4390 L
620 4399 L
620 3847 L
620 4239 L
620 4379 L
620 4063 L
620 4118 L
620 4198 L
620 4060 L
620 4187 L
620 4190 L
620 4428 L
620 4056 L
620 3936 L
620 4274 L
620 3920 L
620 4427 L
620 4111 L
620 4336 L
620 4409 L
620 4362 L
620 4602 L
620 4292 L
620 4552 L
620 4304 L
620 4283 L
620 4126 L
620 4092 L
620 4135 L
620 3854 L
620 4234 L
620 4507 L
620 4534 L
620 4052 L
620 4510 L
620 4385 L
620 4421 L
620 4227 L
620 4071 L
620 4552 L
620 3979 L
620 4531 L
620 4415 L
620 4491 L
620 4474 L
620 4090 L
620 4198 L
620 4520 L
620 4247 L
620 4437 L
620 4526 L
620 4308 L
620 4584 L
620 4402 L
620 4458 L
620 4253 L
620 4105 L
620 3777 L
620 4313 L
620 4393 L
620 4341 L
620 4225 L
620 3924 L
620 4086 L
620 4144 L
620 4657 L
620 4685 L
620 4078 L
620 4129 L
620 4332 L
620 4437 L
620 4371 L
620 4445 L
620 4390 L
620 4290 L
620 4414 L
620 4534 L
620 4420 L
620 4187 L
620 3848 L
620 4402 L
620 4267 L
620 4200 L
620 4135 L
620 4485 L
620 4366 L
620 4105 L
620 3801 L
620 4552 L
620 3691 L
620 4605 L
620 4136 L
620 4227 L
620 4102 L
620 4437 L
620 4194 L
620 3982 L
620 4328 L
620 4368 L
620 4295 L
620 4495 L
620 4264 L
620 4460 L
620 4547 L
620 4150 L
620 4224 L
620 4381 L
620 4194 L
620 4779 L
620 4344 L
620 4285 L
620 4523 L
620 4543 L
620 4584 L
620 4133 L
620 4371 L
620 4126 L
620 4503 L
620 4460 L
620 4437 L
620 4477 L
620 4292 L
620 4555 L
620 4089 L
620 4608 L
620 4451 L
620 4863 L
620 4466 L
620 4250 L
620 4316 L
620 4313 L
620 4173 L
620 4047 L
620 4467 L
620 4592 L
620 4428 L
620 4351 L
620 4466 L
620 4388 L
620 4215 L
620 4184 L
620 4194 L
620 4154 L
620 4374 L
620 3860 L
620 4207 L
620 4687 L
620 4449 L
620 4247 L
620 4124 L
620 4403 L
620 3958 L
620 4654 L
620 4790 L
620 4274 L
620 4259 L
620 4500 L
620 4277 L
620 4359 L
620 4114 L
620 4483 L
620 4390 L
620 4639 L
620 4506 L
620 4448 L
620 4658 L
620 4644 L
620 4593 L
620 4253 L
620 4120 L
620 4773 L
620 4302 L
620 4163 L
620 4279 L
620 4615 L
620 4673 L
620 4280 L
620 4460 L
620 4473 L
620 4391 L
620 4006 L
620 4313 L
620 4601 L
620 4339 L
620 4385 L
620 4635 L
620 4222 L
620 4234 L
620 4451 L
620 4712 L
620 3924 L
620 4693 L
620 4231 L
620 4107 L
620 4433 L
620 4359 L
620 4528 L
620 4178 L
620 4154 L
620 4145 L
620 4599 L
620 4193 L
620 4563 L
620 4108 L
620 4371 L
620 4267 L
620 4077 L
620 4366 L
620 4150 L
620 4494 L
620 4046 L
620 4108 L
620 4072 L
620 4290 L
620 4362 L
620 3905 L
620 4240 L
620 4253 L
620 4519 L
620 4417 L
620 4163 L
620 4666 L
620 4289 L
620 4124 L
620 3917 L
620 4436 L
620 4213 L
620 4022 L
620 4096 L
620 4639 L
620 4188 L
620 4292 L
620 4351 L
620 4411 L
620 4491 L
620 4411 L
620 4270 L
620 4175 L
620 4301 L
620 4415 L
620 4184 L
620 4590 L
620 4500 L
620 4215 L
620 4565 L
620 4612 L
620 4451 L
620 4160 L
620 4185 L
620 4185 L
620 4526 L
620 4126 L
620 4382 L
620 4556 L
620 4427 L
620 4397 L
620 4434 L
620 4126 L
620 4216 L
620 4621 L
620 4313 L
620 4213 L
620 4185 L
620 4409 L
620 4341 L
620 4460 L
620 4388 L
620 4428 L
620 4446 L
620 4107 L
620 4350 L
620 4164 L
620 4552 L
620 4411 L
620 4653 L
620 4543 L
620 4375 L
620 4270 L
620 4400 L
620 4497 L
620 4258 L
620 4421 L
620 4218 L
620 4136 L
620 4173 L
620 4531 L
620 4326 L
620 3964 L
620 4436 L
620 4691 L
620 4549 L
620 4188 L
620 4519 L
620 4059 L
620 4153 L
620 4541 L
620 4655 L
620 4345 L
620 4522 L
620 3992 L
620 4427 L
620 4175 L
620 3961 L
620 4053 L
620 4166 L
620 4357 L
620 4610 L
620 4092 L
620 4224 L
620 3969 L
620 4064 L
620 4239 L
620 4296 L
620 4199 L
620 4546 L
620 4130 L
620 4291 L
620 4024 L
620 4031 L
620 4463 L
620 4836 L
620 4408 L
620 4339 L
620 3954 L
620 3970 L
620 4345 L
620 3685 L
620 4452 L
620 4261 L
620 4296 L
620 4262 L
620 4099 L
620 4166 L
620 4268 L
620 3877 L
620 4021 L
620 4258 L
620 4691 L
L2 C05 COSGR

%
%================
% Legend - Begin
%================
%
GSN 4240 5180 M
4480 5180 L
LWMC SL  C05 COSGR
GSN 4540 5141 M helvM (2.5 uM) show grestore
%
%================
% Legend - End
%================
%

%
% Main frame
%
L10
GSN 
620 1700 M
4220 1700 L
4220 5300 L
620 5300 L
closepath SGR

%
% X axis: large tics
%
L10
%
% X axis: small tics
%
L5
%
% Y axis: large tics
%
L10
GSN 620 1899 M 54 0 rL SGR
GSN 4220 1899 M -54 0 rL SGR
helvS (-0.02) 560 1899 ylabel
GSN 620 2677 M 54 0 rL SGR
GSN 4220 2677 M -54 0 rL SGR
helvS (-0.01) 560 2677 ylabel
GSN 620 3455 M 54 0 rL SGR
GSN 4220 3455 M -54 0 rL SGR
helvS (0) 560 3455 ylabel
GSN 620 4232 M 54 0 rL SGR
GSN 4220 4232 M -54 0 rL SGR
helvS (0.01) 560 4232 ylabel
GSN 620 5010 M 54 0 rL SGR
GSN 4220 5010 M -54 0 rL SGR
helvS (0.02) 560 5010 ylabel
%
% Y axis: small tics
%
L5
GSN 620 1704 M 36 0 rL SGR
GSN 4220 1704 M -36 0 rL SGR
GSN 620 1899 M 36 0 rL SGR
GSN 4220 1899 M -36 0 rL SGR
GSN 620 2093 M 36 0 rL SGR
GSN 4220 2093 M -36 0 rL SGR
GSN 620 2288 M 36 0 rL SGR
GSN 4220 2288 M -36 0 rL SGR
GSN 620 2482 M 36 0 rL SGR
GSN 4220 2482 M -36 0 rL SGR
GSN 620 2677 M 36 0 rL SGR
GSN 4220 2677 M -36 0 rL SGR
GSN 620 2871 M 36 0 rL SGR
GSN 4220 2871 M -36 0 rL SGR
GSN 620 3066 M 36 0 rL SGR
GSN 4220 3066 M -36 0 rL SGR
GSN 620 3260 M 36 0 rL SGR
GSN 4220 3260 M -36 0 rL SGR
GSN 620 3455 M 36 0 rL SGR
GSN 4220 3455 M -36 0 rL SGR
GSN 620 3649 M 36 0 rL SGR
GSN 4220 3649 M -36 0 rL SGR
GSN 620 3843 M 36 0 rL SGR
GSN 4220 3843 M -36 0 rL SGR
GSN 620 4038 M 36 0 rL SGR
GSN 4220 4038 M -36 0 rL SGR
GSN 620 4232 M 36 0 rL SGR
GSN 4220 4232 M -36 0 rL SGR
GSN 620 4427 M 36 0 rL SGR
GSN 4220 4427 M -36 0 rL SGR
GSN 620 4621 M 36 0 rL SGR
GSN 4220 4621 M -36 0 rL SGR
GSN 620 4816 M 36 0 rL SGR
GSN 4220 4816 M -36 0 rL SGR
GSN 620 5010 M 36 0 rL SGR
GSN 4220 5010 M -36 0 rL SGR
GSN 620 5205 M 36 0 rL SGR
GSN 4220 5205 M -36 0 rL SGR

%
% X axis - residual panel
%
GSN L5 620 3455 M 4220 3455 L SDA G50 SGR

%
% X-Axis label:
%
gsave 620 1370 M 
[
[(Helvetica) 180 0 true true 0 (t)]
[(Helvetica) 180 0 true true 0 (i)]
[(Helvetica) 180 0 true true 0 (m)]
[(Helvetica) 180 0 true true 0 (e)]
] 0 MCshow grestore

%
% Y-Axis label:
%
gsave 234 3500 M 
currentpoint gsave translate 90 rotate 0 0 moveto
[
[(Helvetica) 180 0 true true 0 (r)]
[(Helvetica) 180 0 true true 0 (e)]
[(Helvetica) 180 0 true true 0 (s)]
[(Helvetica) 180 0 true true 0 (i)]
[(Helvetica) 180 0 true true 0 (d)]
[(Helvetica) 180 0 true true 0 (u)]
[(Helvetica) 180 0 true true 0 (a)]
[(Helvetica) 180 0 true true 0 (l)]
[(Helvetica) 180 0 true true 0 (s)]
] 0 MCshow grestore

end
showpage
%%Trailer
%%EOF
