%!PS-Adobe-3.0 EPSF-3.0
%%BoundingBox: 0 0 514 442
%%Creator: BioKin Ltd.
%%DocumentFonts: Symbol Helvetica
%%EndComments
%
/bkdict 256 dict def
bkdict begin
/M {moveto} def 
/R {rmoveto} def
/L {lineto} def
/rL {rlineto} def
/GSN {gsave newpath} def
/SGR {stroke grestore} def
/COSGR {gsave setrgbcolor stroke grestore grestore} def
/SL {setlinewidth} def
/LWMB {12} def             % line width - model curves, black & white
/LWMC {10} def             % line width - model curves, color
/L2 {2.5 setlinewidth} def
/L5 {5 setlinewidth} def
/L10 {10 setlinewidth} def
/G50 {0.5 setgray} def
/SDA {[10  20] 0 setdash} def % axes
/helvT {/Helvetica findfont 100 scalefont setfont} def % tiny
/helvS {/Helvetica findfont 125 scalefont setfont} def % small
/helvM {/Helvetica findfont 150 scalefont setfont} def % medium
/helvL {/Helvetica findfont 175 scalefont setfont} def % large
/xlabel {gsave M dup
   stringwidth exch -0.5 mul exch rmoveto show grestore} def 
/ylabel {gsave M 90 rotate dup
   stringwidth exch -0.5 mul exch rmoveto show grestore} def
/ylabelresid {gsave M dup
   stringwidth exch -1 mul exch rmoveto show grestore} def
% ======
% Shapes
% ======
% Circle:
/Circ {0 360 arc closepath} def
%
% Square:
/Squa {dup dup -0.5 mul dup dup R -2 mul 0 exch rL 1 mul 0 rL dup 0 exch -1 mul rL closepath} def
%
% Triangle Up:
/TriU {dup dup dup -0.4 mul exch -0.5 mul exch R dup 0.5 mul exch rL dup -1 mul exch 0.5 mul exch rL closepath} def 
%
% Triangle Down:
/TriD {dup dup dup 0.4 mul exch -0.5 mul exch R dup 0.5 mul exch -1 mul rL dup 0.5 mul exch rL closepath} def 
%
% Diamond:
/Diam {45 rotate Squa} def
% ======
% Fills
% ======
/GRF {gsave setgray fill grestore} def                    % gray-level Fill
/COF {gsave setrgbcolor fill grestore} def                % color fill
% ======
% Colors
% ======
/C01 {1.00	0.00	0.00} def      % Red
/C02 {0.00	0.00	1.00} def      % Blue
/C03 {0.00	0.39	0.00} def      % Dark Green
/C04 {0.78	0.08	0.52} def      % Medium Violet Red
/C05 {0.55	0.27	0.07} def      % Saddle Brown
/C06 {0.10	0.70	0.70} def      % (cyan)
/C07 {1.00	0.55	0.00} def      % Dark Orange
/C08 {0.63	0.13	0.94} def      % Purple
/C09 {0.00	0.75	1.00} def      % Deep Sky Blue
/C10 {0.20	0.80	0.20} def      % Lime Green
/C11 {0.47	0.53	0.60} def      % Light Slate Gray
/C12 {0.00	0.00	0.00} def      % Black            % or: {0.19	0.31	0.31} def      % Dark Slate Gray
%
/LGR {0.75} def % light gray
/DGR {0.33} def % dark gray
%
% =============
% Dash patterns
% =============
/dash01 { [80  20] 0 setdash } def
/dash02 { [40  20] 0 setdash } def
/dash03 { [80  20  10  20] 0 setdash } def
/dash04 { [40  20  10  20] 0 setdash } def
/dash05 { [80  20  10  10  10  20] 0 setdash } def
/dash06 { [40  20  10  10  10  20] 0 setdash } def
/dash07 { [10  10] 0 setdash } def
%
/MFshow {
   { dup 5 get 3 ge
     { 5 get 3 eq {gsave} {grestore} ifelse }
     {dup dup 0 get findfont exch 1 get scalefont setfont
     [ currentpoint ] exch dup 2 get 0 exch R dup 5 get 2 ne {dup dup 6
     get exch 4 get {show} {stringwidth pop 0 R} ifelse }if dup 5 get 0 eq
     {dup 3 get {2 get neg 0 exch R pop} {pop aload pop M} ifelse} {dup 5
     get 1 eq {dup 2 get exch dup 3 get exch 6 get stringwidth pop -2 div
     dup 0 R} {dup 6 get stringwidth pop -2 div 0 R 6 get
     show 2 index {aload pop M neg 3 -1 roll neg R pop pop} {pop pop pop
     pop aload pop M} ifelse }ifelse }ifelse }
     ifelse }
   forall} bind def
/MFwidth {0 exch {dup 3 get{dup dup 0 get findfont exch 1 get scalefont
     setfont 6 get stringwidth pop add} {pop} ifelse} forall} bind def
/MCshow { currentpoint stroke M
  exch dup MFwidth -2 div 3 -1 roll R MFshow } def
%
end
%%EndProlog
bkdict begin
0.1 0.1 scale
%
% Model curves:
%

GSN 753 1671 M
770 1671 L
803 1602 L
837 1614 L
870 1671 L
903 1749 L
924 1836 L
941 1862 L
970 1924 L
1003 2008 L
1037 2087 L
1070 2157 L
1096 2218 L
1113 2250 L
1137 2270 L
1170 2311 L
1203 2343 L
1237 2366 L
1268 2381 L
1284 2390 L
1303 2391 L
1337 2397 L
1370 2400 L
1403 2401 L
1437 2402 L
1456 2402 L
1473 2402 L
1503 2402 L
1537 2402 L
1570 2402 L
1603 2402 L
1628 2402 L
1644 2402 L
1670 2402 L
1703 2402 L
1737 2402 L
1770 2402 L
1799 2402 L
1816 2402 L
1837 2402 L
1870 2403 L
1903 2403 L
1937 2403 L
1970 2403 L
1987 2403 L
2004 2403 L
2037 2403 L
2070 2403 L
2103 2403 L
2137 2403 L
2159 2403 L
2176 2403 L
2203 2403 L
2237 2403 L
2270 2404 L
2303 2404 L
2331 2404 L
2347 2404 L
2370 2404 L
2403 2404 L
2437 2405 L
2470 2405 L
2503 2405 L
2519 2406 L
2537 2406 L
2570 2406 L
2603 2406 L
2637 2407 L
2670 2407 L
2690 2408 L
2707 2408 L
2737 2408 L
2770 2409 L
2803 2410 L
2837 2410 L
2862 2411 L
2879 2411 L
2903 2411 L
2937 2412 L
2970 2412 L
3003 2413 L
3034 2413 L
3050 2413 L
3070 2413 L
3103 2414 L
3137 2414 L
3170 2414 L
3203 2414 L
3222 2414 L
3239 2414 L
3270 2414 L
3303 2414 L
3337 2414 L
3370 2414 L
3393 2414 L
3410 2414 L
3437 2414 L
3464 2414 L
3481 2414 L
3503 2414 L
3537 2414 L
3565 2414 L
3582 2414 L
3603 2414 L
3637 2414 L
3670 2414 L
3703 2414 L
3737 2414 L
3753 2414 L
3770 2414 L
3803 2414 L
3837 2414 L
3870 2414 L
3903 2414 L
3925 2414 L
3942 2414 L
3970 2414 L
4003 2414 L
4037 2414 L
4070 2414 L
4086 2414 L
LWMC SL dash01 C01 COSGR

GSN 753 4086 M
770 4086 L
803 3388 L
837 2876 L
870 2512 L
903 2268 L
924 2119 L
941 2089 L
970 2041 L
1003 2018 L
1037 2033 L
1070 2073 L
1096 2126 L
1113 2160 L
1137 2183 L
1170 2238 L
1203 2286 L
1237 2324 L
1268 2352 L
1284 2369 L
1303 2371 L
1337 2382 L
1370 2388 L
1403 2391 L
1437 2392 L
1456 2393 L
1473 2393 L
1503 2393 L
1537 2393 L
1570 2393 L
1603 2393 L
1628 2393 L
1644 2393 L
1670 2393 L
1703 2393 L
1737 2393 L
1770 2393 L
1799 2393 L
1816 2393 L
1837 2393 L
1870 2393 L
1903 2393 L
1937 2393 L
1970 2394 L
1987 2394 L
2004 2394 L
2037 2394 L
2070 2394 L
2103 2394 L
2137 2394 L
2159 2395 L
2176 2395 L
2203 2395 L
2237 2395 L
2270 2395 L
2303 2396 L
2331 2396 L
2347 2396 L
2370 2396 L
2403 2397 L
2437 2397 L
2470 2398 L
2503 2399 L
2519 2399 L
2537 2399 L
2570 2400 L
2603 2401 L
2637 2402 L
2670 2403 L
2690 2403 L
2707 2404 L
2737 2404 L
2770 2405 L
2803 2406 L
2837 2407 L
2862 2408 L
2879 2409 L
2903 2409 L
2937 2410 L
2970 2411 L
3003 2411 L
3034 2412 L
3050 2412 L
3070 2413 L
3103 2413 L
3137 2414 L
3170 2414 L
3203 2414 L
3222 2414 L
3239 2414 L
3270 2414 L
3303 2414 L
3337 2414 L
3370 2414 L
3393 2414 L
3410 2414 L
3437 2414 L
3464 2414 L
3481 2414 L
3503 2414 L
3537 2414 L
3565 2414 L
3582 2414 L
3603 2414 L
3637 2414 L
3670 2414 L
3703 2414 L
3737 2414 L
3753 2414 L
3770 2414 L
3803 2414 L
3837 2414 L
3870 2414 L
3903 2414 L
3925 2414 L
3942 2414 L
3970 2414 L
4003 2414 L
4037 2414 L
4070 2414 L
4086 2414 L
LWMC SL dash02 C02 COSGR

GSN 753 1253 M
770 1253 L
803 1106 L
837 1096 L
870 1171 L
903 1291 L
924 1433 L
941 1476 L
970 1580 L
1003 1722 L
1037 1856 L
1070 1976 L
1096 2080 L
1113 2134 L
1137 2168 L
1170 2239 L
1203 2292 L
1237 2332 L
1268 2358 L
1284 2373 L
1303 2375 L
1337 2385 L
1370 2390 L
1403 2392 L
1437 2393 L
1456 2394 L
1473 2394 L
1503 2394 L
1537 2394 L
1570 2394 L
1603 2394 L
1628 2394 L
1644 2394 L
1670 2394 L
1703 2394 L
1737 2394 L
1770 2394 L
1799 2394 L
1816 2394 L
1837 2394 L
1870 2394 L
1903 2394 L
1937 2395 L
1970 2395 L
1987 2395 L
2004 2395 L
2037 2395 L
2070 2395 L
2103 2395 L
2137 2395 L
2159 2396 L
2176 2396 L
2203 2396 L
2237 2396 L
2270 2396 L
2303 2397 L
2331 2397 L
2347 2397 L
2370 2397 L
2403 2398 L
2437 2398 L
2470 2399 L
2503 2399 L
2519 2400 L
2537 2400 L
2570 2401 L
2603 2401 L
2637 2402 L
2670 2403 L
2690 2404 L
2707 2404 L
2737 2405 L
2770 2406 L
2803 2407 L
2837 2408 L
2862 2409 L
2879 2409 L
2903 2410 L
2937 2410 L
2970 2411 L
3003 2412 L
3034 2412 L
3050 2413 L
3070 2413 L
3103 2413 L
3137 2413 L
3170 2414 L
3203 2414 L
3222 2414 L
3239 2414 L
3270 2414 L
3303 2413 L
3337 2414 L
3370 2414 L
3393 2414 L
3410 2414 L
3437 2414 L
3464 2414 L
3481 2414 L
3503 2414 L
3537 2414 L
3565 2414 L
3582 2414 L
3603 2414 L
3637 2414 L
3670 2414 L
3703 2414 L
3737 2414 L
3753 2414 L
3770 2414 L
3803 2414 L
3837 2414 L
3870 2414 L
3903 2414 L
3925 2414 L
3942 2414 L
3970 2414 L
4003 2414 L
4037 2414 L
4070 2414 L
4086 2414 L
LWMC SL dash03 C03 COSGR

GSN 753 753 M
770 753 L
803 890 L
837 1035 L
870 1182 L
903 1332 L
924 1479 L
941 1522 L
970 1623 L
1003 1759 L
1037 1885 L
1070 1999 L
1096 2098 L
1113 2149 L
1137 2181 L
1170 2247 L
1203 2298 L
1237 2335 L
1268 2360 L
1284 2375 L
1303 2376 L
1337 2386 L
1370 2390 L
1403 2393 L
1437 2394 L
1456 2394 L
1473 2394 L
1503 2394 L
1537 2394 L
1570 2394 L
1603 2394 L
1628 2394 L
1644 2394 L
1670 2394 L
1703 2395 L
1737 2395 L
1770 2395 L
1799 2395 L
1816 2395 L
1837 2395 L
1870 2395 L
1903 2395 L
1937 2395 L
1970 2395 L
1987 2395 L
2004 2395 L
2037 2395 L
2070 2395 L
2103 2396 L
2137 2396 L
2159 2396 L
2176 2396 L
2203 2396 L
2237 2396 L
2270 2397 L
2303 2397 L
2331 2397 L
2347 2398 L
2370 2398 L
2403 2398 L
2437 2399 L
2470 2399 L
2503 2400 L
2519 2400 L
2537 2400 L
2570 2401 L
2603 2402 L
2637 2402 L
2670 2403 L
2690 2404 L
2707 2404 L
2737 2405 L
2770 2406 L
2803 2407 L
2837 2408 L
2862 2409 L
2879 2409 L
2903 2410 L
2937 2411 L
2970 2411 L
3003 2412 L
3034 2412 L
3050 2413 L
3070 2413 L
3103 2413 L
3137 2413 L
3170 2414 L
3203 2414 L
3222 2414 L
3239 2414 L
3270 2414 L
3303 2414 L
3337 2414 L
3370 2414 L
3393 2414 L
3410 2414 L
3437 2414 L
3464 2414 L
3481 2414 L
3503 2414 L
3537 2414 L
3565 2414 L
3582 2414 L
3603 2414 L
3637 2414 L
3670 2414 L
3703 2414 L
3737 2414 L
3753 2414 L
3770 2414 L
3803 2414 L
3837 2414 L
3870 2414 L
3903 2414 L
3925 2414 L
3942 2414 L
3970 2414 L
4003 2414 L
4037 2414 L
4070 2414 L
4086 2414 L
LWMC SL dash04 C04 COSGR

GSN 753 789 M
770 789 L
803 925 L
837 1066 L
870 1211 L
903 1356 L
924 1501 L
941 1543 L
970 1641 L
1003 1774 L
1037 1897 L
1070 2008 L
1096 2105 L
1113 2155 L
1137 2186 L
1170 2251 L
1203 2301 L
1237 2337 L
1268 2362 L
1284 2376 L
1303 2377 L
1337 2386 L
1370 2391 L
1403 2393 L
1437 2394 L
1456 2395 L
1473 2395 L
1503 2395 L
1537 2395 L
1570 2395 L
1603 2395 L
1628 2395 L
1644 2395 L
1670 2395 L
1703 2395 L
1737 2395 L
1770 2395 L
1799 2395 L
1816 2395 L
1837 2395 L
1870 2395 L
1903 2395 L
1937 2395 L
1970 2395 L
1987 2395 L
2004 2395 L
2037 2396 L
2070 2396 L
2103 2396 L
2137 2396 L
2159 2396 L
2176 2396 L
2203 2396 L
2237 2397 L
2270 2397 L
2303 2397 L
2331 2398 L
2347 2398 L
2370 2398 L
2403 2398 L
2437 2399 L
2470 2399 L
2503 2400 L
2519 2401 L
2537 2401 L
2570 2401 L
2603 2402 L
2637 2403 L
2670 2404 L
2690 2404 L
2707 2405 L
2737 2405 L
2770 2406 L
2803 2407 L
2837 2408 L
2862 2409 L
2879 2409 L
2903 2410 L
2937 2411 L
2970 2411 L
3003 2412 L
3034 2412 L
3050 2413 L
3070 2413 L
3103 2413 L
3137 2413 L
3170 2414 L
3203 2414 L
3222 2414 L
3239 2414 L
3270 2414 L
3303 2414 L
3337 2414 L
3370 2414 L
3393 2414 L
3410 2414 L
3437 2414 L
3464 2414 L
3481 2414 L
3503 2414 L
3537 2414 L
3565 2414 L
3582 2414 L
3603 2414 L
3637 2414 L
3670 2414 L
3703 2414 L
3737 2414 L
3753 2414 L
3770 2414 L
3803 2414 L
3837 2414 L
3870 2414 L
3903 2414 L
3925 2414 L
3942 2414 L
3970 2414 L
4003 2414 L
4037 2414 L
4070 2414 L
4086 2414 L
LWMC SL dash05 C05 COSGR

GSN 753 792 M
770 792 L
803 928 L
837 1069 L
870 1213 L
903 1358 L
924 1502 L
941 1544 L
970 1642 L
1003 1775 L
1037 1898 L
1070 2009 L
1096 2105 L
1113 2155 L
1137 2186 L
1170 2251 L
1203 2301 L
1237 2337 L
1268 2362 L
1284 2376 L
1303 2377 L
1337 2386 L
1370 2391 L
1403 2393 L
1437 2394 L
1456 2394 L
1473 2395 L
1503 2395 L
1537 2395 L
1570 2395 L
1603 2395 L
1628 2395 L
1644 2395 L
1670 2395 L
1703 2395 L
1737 2395 L
1770 2395 L
1799 2395 L
1816 2395 L
1837 2395 L
1870 2395 L
1903 2395 L
1937 2395 L
1970 2395 L
1987 2395 L
2004 2395 L
2037 2395 L
2070 2396 L
2103 2396 L
2137 2396 L
2159 2396 L
2176 2396 L
2203 2396 L
2237 2397 L
2270 2397 L
2303 2397 L
2331 2397 L
2347 2398 L
2370 2398 L
2403 2398 L
2437 2399 L
2470 2399 L
2503 2400 L
2519 2400 L
2537 2400 L
2570 2401 L
2603 2402 L
2637 2403 L
2670 2403 L
2690 2404 L
2707 2405 L
2737 2405 L
2770 2406 L
2803 2407 L
2837 2408 L
2862 2409 L
2879 2409 L
2903 2410 L
2937 2411 L
2970 2411 L
3003 2412 L
3034 2412 L
3050 2413 L
3070 2413 L
3103 2413 L
3137 2413 L
3170 2414 L
3203 2414 L
3222 2414 L
3239 2414 L
3270 2414 L
3303 2414 L
3337 2414 L
3370 2414 L
3393 2414 L
3410 2414 L
3437 2414 L
3464 2414 L
3481 2414 L
3503 2414 L
3537 2414 L
3565 2414 L
3582 2414 L
3603 2414 L
3637 2414 L
3670 2414 L
3703 2414 L
3737 2414 L
3753 2414 L
3770 2414 L
3803 2414 L
3837 2414 L
3870 2414 L
3903 2414 L
3925 2414 L
3942 2414 L
3970 2414 L
4003 2414 L
4037 2414 L
4070 2414 L
4086 2414 L
LWMC SL dash06 C06 COSGR

GSN 753 814 M
770 814 L
803 948 L
837 1087 L
870 1230 L
903 1373 L
924 1515 L
941 1556 L
970 1653 L
1003 1784 L
1037 1905 L
1070 2015 L
1096 2110 L
1113 2159 L
1137 2189 L
1170 2253 L
1203 2302 L
1237 2338 L
1268 2362 L
1284 2376 L
1303 2377 L
1337 2386 L
1370 2391 L
1403 2393 L
1437 2394 L
1456 2395 L
1473 2395 L
1503 2395 L
1537 2395 L
1570 2395 L
1603 2395 L
1628 2395 L
1644 2395 L
1670 2395 L
1703 2395 L
1737 2395 L
1770 2395 L
1799 2395 L
1816 2395 L
1837 2395 L
1870 2395 L
1903 2395 L
1937 2395 L
1970 2395 L
1987 2395 L
2004 2395 L
2037 2396 L
2070 2396 L
2103 2396 L
2137 2396 L
2159 2396 L
2176 2396 L
2203 2396 L
2237 2397 L
2270 2397 L
2303 2397 L
2331 2398 L
2347 2398 L
2370 2398 L
2403 2398 L
2437 2399 L
2470 2399 L
2503 2400 L
2519 2401 L
2537 2401 L
2570 2401 L
2603 2402 L
2637 2403 L
2670 2404 L
2690 2404 L
2707 2405 L
2737 2405 L
2770 2406 L
2803 2407 L
2837 2408 L
2862 2409 L
2879 2409 L
2903 2410 L
2937 2411 L
2970 2411 L
3003 2412 L
3034 2412 L
3050 2413 L
3070 2413 L
3103 2413 L
3137 2413 L
3170 2414 L
3203 2414 L
3222 2414 L
3239 2414 L
3270 2414 L
3303 2414 L
3337 2414 L
3370 2414 L
3393 2414 L
3410 2414 L
3437 2414 L
3464 2414 L
3481 2414 L
3503 2414 L
3537 2414 L
3565 2414 L
3582 2414 L
3603 2414 L
3637 2414 L
3670 2414 L
3703 2414 L
3737 2414 L
3753 2414 L
3770 2414 L
3803 2414 L
3837 2414 L
3870 2414 L
3903 2414 L
3925 2414 L
3942 2414 L
3970 2414 L
4003 2414 L
4037 2414 L
4070 2414 L
4086 2414 L
LWMC SL dash07 C07 COSGR

%
%================
% Legend - Begin
%================
%
GSN 4240 4040 M
4480 4040 L
LWMC SL dash01 C01 COSGR
GSN 4540 4001 M helvM (0.5 uM) show grestore
GSN 4240 3860 M
4480 3860 L
LWMC SL dash02 C02 COSGR
GSN 4540 3821 M helvM (1.0 uM) show grestore
GSN 4240 3680 M
4480 3680 L
LWMC SL dash03 C03 COSGR
GSN 4540 3641 M helvM (1.5 uM) show grestore
GSN 4240 3500 M
4480 3500 L
LWMC SL dash04 C04 COSGR
GSN 4540 3461 M helvM (2.0 uM) show grestore
GSN 4240 3320 M
4480 3320 L
LWMC SL dash05 C05 COSGR
GSN 4540 3281 M helvM (2.5 uM) show grestore
GSN 4240 3140 M
4480 3140 L
LWMC SL dash06 C06 COSGR
GSN 4540 3101 M helvM (3.0 uM) show grestore
GSN 4240 2960 M
4480 2960 L
LWMC SL dash07 C07 COSGR
GSN 4540 2921 M helvM (4.0 uM) show grestore
%
%================
% Legend - End
%================
%

%
% Main frame
%
L10
GSN 
620 620 M
4220 620 L
4220 4220 L
620 4220 L
closepath SGR

%
% X axis: large tics
%
L10
GSN 1130 620 M 0  54 rL SGR
GSN 1130 4220 M 0 -54 rL SGR
helvS (0.0001) 1130 470 xlabel
GSN 1716 620 M 0  54 rL SGR
GSN 1716 4220 M 0 -54 rL SGR
helvS (0.001) 1716 470 xlabel
GSN 2303 620 M 0  54 rL SGR
GSN 2303 4220 M 0 -54 rL SGR
helvS (0.01) 2303 470 xlabel
GSN 2889 620 M 0  54 rL SGR
GSN 2889 4220 M 0 -54 rL SGR
helvS (0.1) 2889 470 xlabel
GSN 3476 620 M 0  54 rL SGR
GSN 3476 4220 M 0 -54 rL SGR
helvS (1) 3476 470 xlabel
GSN 4062 620 M 0  54 rL SGR
GSN 4062 4220 M 0 -54 rL SGR
helvS (10) 4062 470 xlabel
%
% X axis: small tics
%
L5
GSN 720 620 M 0  36 rL SGR
GSN 720 4220 M 0 -36 rL SGR
GSN 824 620 M 0  36 rL SGR
GSN 824 4220 M 0 -36 rL SGR
GSN 897 620 M 0  36 rL SGR
GSN 897 4220 M 0 -36 rL SGR
GSN 954 620 M 0  36 rL SGR
GSN 954 4220 M 0 -36 rL SGR
GSN 1000 620 M 0  36 rL SGR
GSN 1000 4220 M 0 -36 rL SGR
GSN 1039 620 M 0  36 rL SGR
GSN 1039 4220 M 0 -36 rL SGR
GSN 1073 620 M 0  36 rL SGR
GSN 1073 4220 M 0 -36 rL SGR
GSN 1103 620 M 0  36 rL SGR
GSN 1103 4220 M 0 -36 rL SGR
GSN 1307 620 M 0  36 rL SGR
GSN 1307 4220 M 0 -36 rL SGR
GSN 1410 620 M 0  36 rL SGR
GSN 1410 4220 M 0 -36 rL SGR
GSN 1483 620 M 0  36 rL SGR
GSN 1483 4220 M 0 -36 rL SGR
GSN 1540 620 M 0  36 rL SGR
GSN 1540 4220 M 0 -36 rL SGR
GSN 1586 620 M 0  36 rL SGR
GSN 1586 4220 M 0 -36 rL SGR
GSN 1626 620 M 0  36 rL SGR
GSN 1626 4220 M 0 -36 rL SGR
GSN 1660 620 M 0  36 rL SGR
GSN 1660 4220 M 0 -36 rL SGR
GSN 1690 620 M 0  36 rL SGR
GSN 1690 4220 M 0 -36 rL SGR
GSN 1893 620 M 0  36 rL SGR
GSN 1893 4220 M 0 -36 rL SGR
GSN 1996 620 M 0  36 rL SGR
GSN 1996 4220 M 0 -36 rL SGR
GSN 2069 620 M 0  36 rL SGR
GSN 2069 4220 M 0 -36 rL SGR
GSN 2126 620 M 0  36 rL SGR
GSN 2126 4220 M 0 -36 rL SGR
GSN 2173 620 M 0  36 rL SGR
GSN 2173 4220 M 0 -36 rL SGR
GSN 2212 620 M 0  36 rL SGR
GSN 2212 4220 M 0 -36 rL SGR
GSN 2246 620 M 0  36 rL SGR
GSN 2246 4220 M 0 -36 rL SGR
GSN 2276 620 M 0  36 rL SGR
GSN 2276 4220 M 0 -36 rL SGR
GSN 2479 620 M 0  36 rL SGR
GSN 2479 4220 M 0 -36 rL SGR
GSN 2583 620 M 0  36 rL SGR
GSN 2583 4220 M 0 -36 rL SGR
GSN 2656 620 M 0  36 rL SGR
GSN 2656 4220 M 0 -36 rL SGR
GSN 2713 620 M 0  36 rL SGR
GSN 2713 4220 M 0 -36 rL SGR
GSN 2759 620 M 0  36 rL SGR
GSN 2759 4220 M 0 -36 rL SGR
GSN 2798 620 M 0  36 rL SGR
GSN 2798 4220 M 0 -36 rL SGR
GSN 2832 620 M 0  36 rL SGR
GSN 2832 4220 M 0 -36 rL SGR
GSN 2862 620 M 0  36 rL SGR
GSN 2862 4220 M 0 -36 rL SGR
GSN 3066 620 M 0  36 rL SGR
GSN 3066 4220 M 0 -36 rL SGR
GSN 3169 620 M 0  36 rL SGR
GSN 3169 4220 M 0 -36 rL SGR
GSN 3242 620 M 0  36 rL SGR
GSN 3242 4220 M 0 -36 rL SGR
GSN 3299 620 M 0  36 rL SGR
GSN 3299 4220 M 0 -36 rL SGR
GSN 3345 620 M 0  36 rL SGR
GSN 3345 4220 M 0 -36 rL SGR
GSN 3385 620 M 0  36 rL SGR
GSN 3385 4220 M 0 -36 rL SGR
GSN 3419 620 M 0  36 rL SGR
GSN 3419 4220 M 0 -36 rL SGR
GSN 3449 620 M 0  36 rL SGR
GSN 3449 4220 M 0 -36 rL SGR
GSN 3652 620 M 0  36 rL SGR
GSN 3652 4220 M 0 -36 rL SGR
GSN 3755 620 M 0  36 rL SGR
GSN 3755 4220 M 0 -36 rL SGR
GSN 3829 620 M 0  36 rL SGR
GSN 3829 4220 M 0 -36 rL SGR
GSN 3885 620 M 0  36 rL SGR
GSN 3885 4220 M 0 -36 rL SGR
GSN 3932 620 M 0  36 rL SGR
GSN 3932 4220 M 0 -36 rL SGR
GSN 3971 620 M 0  36 rL SGR
GSN 3971 4220 M 0 -36 rL SGR
GSN 4005 620 M 0  36 rL SGR
GSN 4005 4220 M 0 -36 rL SGR
GSN 4035 620 M 0  36 rL SGR
GSN 4035 4220 M 0 -36 rL SGR
%
% Y axis: large tics
%
L10
GSN 620 1388 M 54 0 rL SGR
GSN 4220 1388 M -54 0 rL SGR
helvS (-50) 560 1388 ylabel
GSN 620 2414 M 54 0 rL SGR
GSN 4220 2414 M -54 0 rL SGR
helvS (0) 560 2414 ylabel
GSN 620 3440 M 54 0 rL SGR
GSN 4220 3440 M -54 0 rL SGR
helvS (50) 560 3440 ylabel
%
% Y axis: small tics
%
L5
GSN 620 772 M 36 0 rL SGR
GSN 4220 772 M -36 0 rL SGR
GSN 620 978 M 36 0 rL SGR
GSN 4220 978 M -36 0 rL SGR
GSN 620 1183 M 36 0 rL SGR
GSN 4220 1183 M -36 0 rL SGR
GSN 620 1388 M 36 0 rL SGR
GSN 4220 1388 M -36 0 rL SGR
GSN 620 1593 M 36 0 rL SGR
GSN 4220 1593 M -36 0 rL SGR
GSN 620 1798 M 36 0 rL SGR
GSN 4220 1798 M -36 0 rL SGR
GSN 620 2003 M 36 0 rL SGR
GSN 4220 2003 M -36 0 rL SGR
GSN 620 2209 M 36 0 rL SGR
GSN 4220 2209 M -36 0 rL SGR
GSN 620 2414 M 36 0 rL SGR
GSN 4220 2414 M -36 0 rL SGR
GSN 620 2619 M 36 0 rL SGR
GSN 4220 2619 M -36 0 rL SGR
GSN 620 2824 M 36 0 rL SGR
GSN 4220 2824 M -36 0 rL SGR
GSN 620 3029 M 36 0 rL SGR
GSN 4220 3029 M -36 0 rL SGR
GSN 620 3235 M 36 0 rL SGR
GSN 4220 3235 M -36 0 rL SGR
GSN 620 3440 M 36 0 rL SGR
GSN 4220 3440 M -36 0 rL SGR
GSN 620 3645 M 36 0 rL SGR
GSN 4220 3645 M -36 0 rL SGR
GSN 620 3850 M 36 0 rL SGR
GSN 4220 3850 M -36 0 rL SGR
GSN 620 4055 M 36 0 rL SGR
GSN 4220 4055 M -36 0 rL SGR

%
% X axis
%
GSN L5 620 2414 M 4220 2414 L SDA G50 SGR

%
% X-Axis label:
%
gsave 2420 290 M 
[
[(Helvetica) 180 0 true true 0 (t)]
[(Helvetica) 180 0 true true 0 (i)]
[(Helvetica) 180 0 true true 0 (m)]
[(Helvetica) 180 0 true true 0 (e)]
] 0 MCshow grestore

%
% Y-Axis label:
%
gsave 234 2420 M 
currentpoint gsave translate 90 rotate 0 0 moveto
[
[(Helvetica) 180 0 true true 0 (d)]
[(Helvetica) 180 0 true true 0 (\()]
[(Helvetica) 180 0 true true 0 (s)]
[(Helvetica) 180 0 true true 0 (i)]
[(Helvetica) 180 0 true true 0 (g)]
[(Helvetica) 180 0 true true 0 (n)]
[(Helvetica) 180 0 true true 0 (a)]
[(Helvetica) 180 0 true true 0 (l)]
[(Helvetica) 180 0 true true 0 (\))]
[(Helvetica) 180 0 true true 0 ( )]
[(Helvetica) 180 0 true true 0 (/)]
[(Helvetica) 180 0 true true 0 ( )]
[(Helvetica) 180 0 true true 0 (d)]
[(Helvetica) 180 0 true true 0 (t)]
] 0 MCshow grestore

end
showpage
%%Trailer
%%EOF
