%!PS-Adobe-3.0 EPSF-3.0
%%BoundingBox: 0 0 514 550
%%Creator: BioKin Ltd.
%%DocumentFonts: Symbol Helvetica
%%EndComments
%
/bkdict 256 dict def
bkdict begin
/M {moveto} def 
/R {rmoveto} def
/L {lineto} def
/rL {rlineto} def
/GSN {gsave newpath} def
/SGR {stroke grestore} def
/COSGR {gsave setrgbcolor stroke grestore grestore} def
/SL {setlinewidth} def
/LWMB {12} def             % line width - model curves, black & white
/LWMC {10} def             % line width - model curves, color
/L2 {2.5 setlinewidth} def
/L5 {5 setlinewidth} def
/L10 {10 setlinewidth} def
/G50 {0.5 setgray} def
/SDA {[10  20] 0 setdash} def % axes
/helvT {/Helvetica findfont 100 scalefont setfont} def % tiny
/helvS {/Helvetica findfont 125 scalefont setfont} def % small
/helvM {/Helvetica findfont 150 scalefont setfont} def % medium
/helvL {/Helvetica findfont 175 scalefont setfont} def % large
/xlabel {gsave M dup
   stringwidth exch -0.5 mul exch rmoveto show grestore} def 
/ylabel {gsave M 90 rotate dup
   stringwidth exch -0.5 mul exch rmoveto show grestore} def
/ylabelresid {gsave M dup
   stringwidth exch -1 mul exch rmoveto show grestore} def
% ======
% Shapes
% ======
% Circle:
/Circ {0 360 arc closepath} def
%
% Square:
/Squa {dup dup -0.5 mul dup dup R -2 mul 0 exch rL 1 mul 0 rL dup 0 exch -1 mul rL closepath} def
%
% Triangle Up:
/TriU {dup dup dup -0.4 mul exch -0.5 mul exch R dup 0.5 mul exch rL dup -1 mul exch 0.5 mul exch rL closepath} def 
%
% Triangle Down:
/TriD {dup dup dup 0.4 mul exch -0.5 mul exch R dup 0.5 mul exch -1 mul rL dup 0.5 mul exch rL closepath} def 
%
% Diamond:
/Diam {45 rotate Squa} def
% ======
% Fills
% ======
/GRF {gsave setgray fill grestore} def                    % gray-level Fill
/COF {gsave setrgbcolor fill grestore} def                % color fill
% ======
% Colors
% ======
/C01 {1.00	0.00	0.00} def      % Red
/C02 {0.00	0.00	1.00} def      % Blue
/C03 {0.00	0.39	0.00} def      % Dark Green
/C04 {0.78	0.08	0.52} def      % Medium Violet Red
/C05 {0.55	0.27	0.07} def      % Saddle Brown
/C06 {0.10	0.70	0.70} def      % (cyan)
/C07 {1.00	0.55	0.00} def      % Dark Orange
/C08 {0.63	0.13	0.94} def      % Purple
/C09 {0.00	0.75	1.00} def      % Deep Sky Blue
/C10 {0.20	0.80	0.20} def      % Lime Green
/C11 {0.47	0.53	0.60} def      % Light Slate Gray
/C12 {0.00	0.00	0.00} def      % Black            % or: {0.19	0.31	0.31} def      % Dark Slate Gray
%
/LGR {0.75} def % light gray
/DGR {0.33} def % dark gray
%
% =============
% Dash patterns
% =============
/dash01 { [80  20] 0 setdash } def
/dash02 { [40  20] 0 setdash } def
/dash03 { [80  20  10  20] 0 setdash } def
/dash04 { [40  20  10  20] 0 setdash } def
/dash05 { [80  20  10  10  10  20] 0 setdash } def
/dash06 { [40  20  10  10  10  20] 0 setdash } def
/dash07 { [10  10] 0 setdash } def
%
/MFshow {
   { dup 5 get 3 ge
     { 5 get 3 eq {gsave} {grestore} ifelse }
     {dup dup 0 get findfont exch 1 get scalefont setfont
     [ currentpoint ] exch dup 2 get 0 exch R dup 5 get 2 ne {dup dup 6
     get exch 4 get {show} {stringwidth pop 0 R} ifelse }if dup 5 get 0 eq
     {dup 3 get {2 get neg 0 exch R pop} {pop aload pop M} ifelse} {dup 5
     get 1 eq {dup 2 get exch dup 3 get exch 6 get stringwidth pop -2 div
     dup 0 R} {dup 6 get stringwidth pop -2 div 0 R 6 get
     show 2 index {aload pop M neg 3 -1 roll neg R pop pop} {pop pop pop
     pop aload pop M} ifelse }ifelse }ifelse }
     ifelse }
   forall} bind def
/MFwidth {0 exch {dup 3 get{dup dup 0 get findfont exch 1 get scalefont
     setfont 6 get stringwidth pop add} {pop} ifelse} forall} bind def
/MCshow { currentpoint stroke M
  exch dup MFwidth -2 div 3 -1 roll R MFshow } def
%
end
%%EndProlog
bkdict begin
0.1 0.1 scale
%
% Residuals:
%
GSN 620 2831 M
620 2366 L
620 3368 L
620 2994 L
620 3704 L
620 3304 L
620 3514 L
620 3555 L
620 3310 L
620 3114 L
620 3519 L
620 3400 L
620 3908 L
620 3418 L
620 3626 L
620 3608 L
620 3677 L
620 3560 L
620 3458 L
620 3525 L
620 3244 L
620 3369 L
620 3782 L
620 3510 L
620 3362 L
620 3945 L
620 3676 L
620 3759 L
620 3655 L
620 3869 L
620 3725 L
620 3317 L
620 3866 L
620 3344 L
620 4036 L
620 4054 L
620 3387 L
620 4091 L
620 3112 L
620 4175 L
620 3784 L
620 4056 L
620 3547 L
620 4042 L
620 3985 L
620 3659 L
620 3628 L
620 3736 L
620 4037 L
620 3851 L
620 3784 L
620 4070 L
620 3753 L
620 3735 L
620 3785 L
620 3847 L
620 3648 L
620 4050 L
620 3914 L
620 3594 L
620 3569 L
620 4225 L
620 3445 L
620 4106 L
620 3499 L
620 3972 L
620 3269 L
620 3694 L
620 3231 L
620 3717 L
620 3778 L
620 3497 L
620 3462 L
620 3895 L
620 3210 L
620 3180 L
620 3923 L
620 3263 L
620 3280 L
620 3556 L
620 3999 L
620 3189 L
620 3185 L
620 3531 L
620 3531 L
620 3463 L
620 3669 L
620 3555 L
620 3170 L
620 3069 L
620 2932 L
620 3184 L
620 3289 L
620 3385 L
620 2717 L
620 2933 L
620 3450 L
620 3261 L
620 2701 L
620 3589 L
620 3438 L
620 3235 L
620 3276 L
620 3132 L
620 3236 L
620 2893 L
620 2509 L
620 2876 L
620 2729 L
620 3196 L
620 3187 L
620 3256 L
620 3109 L
620 2775 L
620 2767 L
620 3245 L
620 2552 L
620 3046 L
620 2322 L
620 3176 L
620 2576 L
620 2637 L
620 2803 L
620 3308 L
620 2884 L
620 3443 L
620 3356 L
620 2438 L
620 2969 L
620 2486 L
620 3047 L
620 2872 L
620 2654 L
620 2136 L
620 3121 L
620 2626 L
620 2761 L
620 3130 L
620 3322 L
620 2853 L
620 2875 L
620 2477 L
620 2559 L
620 2505 L
620 2856 L
620 2944 L
620 3155 L
620 2781 L
620 3209 L
620 2929 L
620 2830 L
620 2833 L
620 2685 L
620 2490 L
620 2700 L
620 2774 L
620 2680 L
620 2593 L
620 2867 L
620 2804 L
620 2922 L
620 3212 L
620 3309 L
620 3374 L
620 2889 L
620 3251 L
620 3670 L
620 2997 L
620 3096 L
620 2955 L
620 3503 L
620 2850 L
620 2936 L
620 3262 L
620 3297 L
620 3154 L
620 2814 L
620 3321 L
620 3372 L
620 3090 L
620 2933 L
620 3341 L
620 3300 L
620 3218 L
620 2751 L
620 3350 L
620 3057 L
620 3199 L
620 2902 L
620 3946 L
620 3517 L
620 2890 L
620 3791 L
620 2940 L
620 3385 L
620 3751 L
620 3406 L
620 3528 L
620 3582 L
620 3750 L
620 3548 L
620 3768 L
620 2774 L
620 3072 L
620 3493 L
620 3304 L
620 3337 L
620 3230 L
620 3429 L
620 3254 L
620 3358 L
620 3428 L
620 3760 L
620 3609 L
620 3481 L
620 3694 L
620 3284 L
620 3442 L
620 3202 L
620 3381 L
620 3345 L
620 3806 L
620 3539 L
620 3380 L
620 3392 L
620 3734 L
620 4144 L
620 3495 L
620 3782 L
620 3124 L
620 3452 L
620 3511 L
620 3550 L
620 3439 L
620 3753 L
620 3874 L
620 3606 L
620 3971 L
620 3380 L
620 2936 L
620 3818 L
620 3268 L
620 3997 L
620 4046 L
620 3697 L
620 2874 L
620 3658 L
620 4084 L
620 3745 L
620 3368 L
620 3805 L
620 3905 L
620 4130 L
620 3631 L
620 3649 L
620 3810 L
620 3930 L
620 3750 L
620 3833 L
620 3762 L
620 3818 L
620 3492 L
620 3666 L
620 3994 L
620 3777 L
620 3584 L
620 3782 L
620 3691 L
620 3650 L
620 3556 L
620 3114 L
620 3404 L
620 3817 L
620 4066 L
620 3774 L
620 3866 L
620 4051 L
620 3602 L
620 3960 L
620 3787 L
620 3609 L
620 4098 L
620 3976 L
620 4712 L
620 4199 L
620 3939 L
620 3915 L
620 3721 L
620 4230 L
620 3945 L
620 4390 L
620 4082 L
620 4536 L
620 4500 L
620 4419 L
620 4759 L
620 4460 L
620 4346 L
620 4450 L
620 4714 L
620 4627 L
620 4219 L
620 4700 L
620 4337 L
620 4296 L
620 4764 L
620 3879 L
620 4532 L
620 4287 L
620 4559 L
620 4705 L
620 3996 L
620 4083 L
620 4627 L
620 4750 L
620 4596 L
620 4155 L
620 3702 L
620 4514 L
620 4024 L
620 3929 L
620 4324 L
620 4664 L
620 3910 L
620 4137 L
620 4396 L
620 4164 L
620 4460 L
620 4487 L
620 4863 L
620 4541 L
620 4791 L
620 4056 L
620 4541 L
620 4337 L
620 4772 L
620 4033 L
620 3802 L
620 3725 L
620 4632 L
620 4178 L
620 4709 L
620 4314 L
620 4310 L
620 4365 L
620 4405 L
620 4382 L
620 3969 L
620 4124 L
620 4401 L
620 4414 L
620 4083 L
620 3842 L
620 4106 L
620 4137 L
620 3920 L
620 3924 L
620 3951 L
620 4028 L
620 4382 L
620 4401 L
620 3974 L
620 4215 L
620 3639 L
620 3924 L
620 3879 L
620 4224 L
620 4437 L
620 3607 L
620 4210 L
620 3679 L
620 3679 L
620 3761 L
620 3879 L
620 3752 L
620 3720 L
620 3983 L
620 3820 L
620 4151 L
620 3679 L
620 3684 L
620 4233 L
620 3543 L
620 4187 L
620 3779 L
620 4083 L
620 3902 L
620 4124 L
620 3629 L
620 3910 L
620 3729 L
620 3647 L
620 3806 L
620 3861 L
620 4142 L
620 3162 L
620 4183 L
620 3693 L
620 3593 L
620 4079 L
620 3521 L
620 3720 L
620 3647 L
620 3625 L
620 3629 L
620 3448 L
620 4137 L
620 3425 L
620 3538 L
620 3611 L
620 3402 L
620 3321 L
620 3706 L
620 3988 L
620 3702 L
620 3797 L
620 3911 L
620 4283 L
620 3833 L
620 4056 L
620 4351 L
620 4038 L
620 3629 L
620 3725 L
620 4228 L
620 3752 L
620 3734 L
620 3126 L
620 4165 L
620 3316 L
620 3652 L
620 3856 L
620 3693 L
620 3430 L
620 3643 L
620 3992 L
620 3911 L
620 4101 L
620 4305 L
620 3620 L
620 4432 L
620 3716 L
620 3797 L
620 3457 L
620 3802 L
620 3507 L
620 3956 L
620 3562 L
620 3847 L
620 3638 L
620 3788 L
620 3838 L
620 3502 L
620 4056 L
620 3407 L
620 3992 L
620 3815 L
620 4033 L
620 3616 L
620 3280 L
620 3430 L
620 3398 L
620 3684 L
620 3865 L
620 3684 L
620 3534 L
620 4178 L
620 3434 L
620 4241 L
620 4119 L
620 2976 L
620 3402 L
620 3629 L
620 4206 L
620 3461 L
620 3911 L
620 3870 L
620 3361 L
620 3117 L
620 3557 L
620 3697 L
620 3833 L
620 3870 L
620 3620 L
620 3675 L
620 3965 L
620 3430 L
620 3430 L
620 3915 L
620 3847 L
620 3652 L
620 3430 L
620 3634 L
620 4087 L
620 3298 L
620 3062 L
620 3162 L
620 3870 L
620 3688 L
620 3416 L
620 4110 L
620 3834 L
620 3471 L
620 3321 L
620 3402 L
620 3534 L
620 3616 L
620 3443 L
620 3262 L
620 3952 L
620 3439 L
620 3579 L
620 4160 L
620 3534 L
620 3076 L
620 3765 L
620 3198 L
620 3933 L
620 3807 L
620 3652 L
620 3389 L
620 4060 L
620 3298 L
620 3724 L
620 3548 L
620 4074 L
620 3734 L
620 3575 L
620 3720 L
620 3788 L
620 4006 L
620 3643 L
620 3738 L
L2 C02 COSGR

%
%================
% Legend - Begin
%================
%
GSN 4240 5180 M
4480 5180 L
LWMC SL  C02 COSGR
GSN 4540 5141 M helvM (1.0 uM) show grestore
%
%================
% Legend - End
%================
%

%
% Main frame
%
L10
GSN 
620 1700 M
4220 1700 L
4220 5300 L
620 5300 L
closepath SGR

%
% X axis: large tics
%
L10
%
% X axis: small tics
%
L5
%
% Y axis: large tics
%
L10
GSN 620 1849 M 54 0 rL SGR
GSN 4220 1849 M -54 0 rL SGR
helvS (-0.02) 560 1849 ylabel
GSN 620 2741 M 54 0 rL SGR
GSN 4220 2741 M -54 0 rL SGR
helvS (-0.01) 560 2741 ylabel
GSN 620 3633 M 54 0 rL SGR
GSN 4220 3633 M -54 0 rL SGR
helvS (0) 560 3633 ylabel
GSN 620 4525 M 54 0 rL SGR
GSN 4220 4525 M -54 0 rL SGR
helvS (0.01) 560 4525 ylabel
%
% Y axis: small tics
%
L5
GSN 620 1849 M 36 0 rL SGR
GSN 4220 1849 M -36 0 rL SGR
GSN 620 2072 M 36 0 rL SGR
GSN 4220 2072 M -36 0 rL SGR
GSN 620 2295 M 36 0 rL SGR
GSN 4220 2295 M -36 0 rL SGR
GSN 620 2518 M 36 0 rL SGR
GSN 4220 2518 M -36 0 rL SGR
GSN 620 2741 M 36 0 rL SGR
GSN 4220 2741 M -36 0 rL SGR
GSN 620 2964 M 36 0 rL SGR
GSN 4220 2964 M -36 0 rL SGR
GSN 620 3187 M 36 0 rL SGR
GSN 4220 3187 M -36 0 rL SGR
GSN 620 3410 M 36 0 rL SGR
GSN 4220 3410 M -36 0 rL SGR
GSN 620 3633 M 36 0 rL SGR
GSN 4220 3633 M -36 0 rL SGR
GSN 620 3856 M 36 0 rL SGR
GSN 4220 3856 M -36 0 rL SGR
GSN 620 4079 M 36 0 rL SGR
GSN 4220 4079 M -36 0 rL SGR
GSN 620 4302 M 36 0 rL SGR
GSN 4220 4302 M -36 0 rL SGR
GSN 620 4525 M 36 0 rL SGR
GSN 4220 4525 M -36 0 rL SGR
GSN 620 4748 M 36 0 rL SGR
GSN 4220 4748 M -36 0 rL SGR
GSN 620 4970 M 36 0 rL SGR
GSN 4220 4970 M -36 0 rL SGR
GSN 620 5193 M 36 0 rL SGR
GSN 4220 5193 M -36 0 rL SGR

%
% X axis - residual panel
%
GSN L5 620 3633 M 4220 3633 L SDA G50 SGR

%
% X-Axis label:
%
gsave 620 1370 M 
[
[(Helvetica) 180 0 true true 0 (t)]
[(Helvetica) 180 0 true true 0 (i)]
[(Helvetica) 180 0 true true 0 (m)]
[(Helvetica) 180 0 true true 0 (e)]
] 0 MCshow grestore

%
% Y-Axis label:
%
gsave 234 3500 M 
currentpoint gsave translate 90 rotate 0 0 moveto
[
[(Helvetica) 180 0 true true 0 (r)]
[(Helvetica) 180 0 true true 0 (e)]
[(Helvetica) 180 0 true true 0 (s)]
[(Helvetica) 180 0 true true 0 (i)]
[(Helvetica) 180 0 true true 0 (d)]
[(Helvetica) 180 0 true true 0 (u)]
[(Helvetica) 180 0 true true 0 (a)]
[(Helvetica) 180 0 true true 0 (l)]
[(Helvetica) 180 0 true true 0 (s)]
] 0 MCshow grestore

end
showpage
%%Trailer
%%EOF
