%!PS-Adobe-3.0 EPSF-3.0
%%BoundingBox: 0 0 514 550
%%Creator: BioKin Ltd.
%%DocumentFonts: Symbol Helvetica
%%EndComments
%
/bkdict 256 dict def
bkdict begin
/M {moveto} def 
/R {rmoveto} def
/L {lineto} def
/rL {rlineto} def
/GSN {gsave newpath} def
/SGR {stroke grestore} def
/COSGR {gsave setrgbcolor stroke grestore grestore} def
/SL {setlinewidth} def
/LWMB {12} def             % line width - model curves, black & white
/LWMC {10} def             % line width - model curves, color
/L2 {2.5 setlinewidth} def
/L5 {5 setlinewidth} def
/L10 {10 setlinewidth} def
/G50 {0.5 setgray} def
/SDA {[10  20] 0 setdash} def % axes
/helvT {/Helvetica findfont 100 scalefont setfont} def % tiny
/helvS {/Helvetica findfont 125 scalefont setfont} def % small
/helvM {/Helvetica findfont 150 scalefont setfont} def % medium
/helvL {/Helvetica findfont 175 scalefont setfont} def % large
/xlabel {gsave M dup
   stringwidth exch -0.5 mul exch rmoveto show grestore} def 
/ylabel {gsave M 90 rotate dup
   stringwidth exch -0.5 mul exch rmoveto show grestore} def
/ylabelresid {gsave M dup
   stringwidth exch -1 mul exch rmoveto show grestore} def
% ======
% Shapes
% ======
% Circle:
/Circ {0 360 arc closepath} def
%
% Square:
/Squa {dup dup -0.5 mul dup dup R -2 mul 0 exch rL 1 mul 0 rL dup 0 exch -1 mul rL closepath} def
%
% Triangle Up:
/TriU {dup dup dup -0.4 mul exch -0.5 mul exch R dup 0.5 mul exch rL dup -1 mul exch 0.5 mul exch rL closepath} def 
%
% Triangle Down:
/TriD {dup dup dup 0.4 mul exch -0.5 mul exch R dup 0.5 mul exch -1 mul rL dup 0.5 mul exch rL closepath} def 
%
% Diamond:
/Diam {45 rotate Squa} def
% ======
% Fills
% ======
/GRF {gsave setgray fill grestore} def                    % gray-level Fill
/COF {gsave setrgbcolor fill grestore} def                % color fill
% ======
% Colors
% ======
/C01 {1.00	0.00	0.00} def      % Red
/C02 {0.00	0.00	1.00} def      % Blue
/C03 {0.00	0.39	0.00} def      % Dark Green
/C04 {0.78	0.08	0.52} def      % Medium Violet Red
/C05 {0.55	0.27	0.07} def      % Saddle Brown
/C06 {0.10	0.70	0.70} def      % (cyan)
/C07 {1.00	0.55	0.00} def      % Dark Orange
/C08 {0.63	0.13	0.94} def      % Purple
/C09 {0.00	0.75	1.00} def      % Deep Sky Blue
/C10 {0.20	0.80	0.20} def      % Lime Green
/C11 {0.47	0.53	0.60} def      % Light Slate Gray
/C12 {0.00	0.00	0.00} def      % Black            % or: {0.19	0.31	0.31} def      % Dark Slate Gray
%
/LGR {0.75} def % light gray
/DGR {0.33} def % dark gray
%
% =============
% Dash patterns
% =============
/dash01 { [80  20] 0 setdash } def
/dash02 { [40  20] 0 setdash } def
/dash03 { [80  20  10  20] 0 setdash } def
/dash04 { [40  20  10  20] 0 setdash } def
/dash05 { [80  20  10  10  10  20] 0 setdash } def
/dash06 { [40  20  10  10  10  20] 0 setdash } def
/dash07 { [10  10] 0 setdash } def
%
/MFshow {
   { dup 5 get 3 ge
     { 5 get 3 eq {gsave} {grestore} ifelse }
     {dup dup 0 get findfont exch 1 get scalefont setfont
     [ currentpoint ] exch dup 2 get 0 exch R dup 5 get 2 ne {dup dup 6
     get exch 4 get {show} {stringwidth pop 0 R} ifelse }if dup 5 get 0 eq
     {dup 3 get {2 get neg 0 exch R pop} {pop aload pop M} ifelse} {dup 5
     get 1 eq {dup 2 get exch dup 3 get exch 6 get stringwidth pop -2 div
     dup 0 R} {dup 6 get stringwidth pop -2 div 0 R 6 get
     show 2 index {aload pop M neg 3 -1 roll neg R pop pop} {pop pop pop
     pop aload pop M} ifelse }ifelse }ifelse }
     ifelse }
   forall} bind def
/MFwidth {0 exch {dup 3 get{dup dup 0 get findfont exch 1 get scalefont
     setfont 6 get stringwidth pop add} {pop} ifelse} forall} bind def
/MCshow { currentpoint stroke M
  exch dup MFwidth -2 div 3 -1 roll R MFshow } def
%
end
%%EndProlog
bkdict begin
0.1 0.1 scale
%
% Model curves:
%

GSN 753 5166 M
753 5166 L
786 5142 L
820 5119 L
853 5096 L
886 5073 L
903 5062 L
919 5051 L
953 5028 L
986 5005 L
1020 4981 L
1053 4953 L
1053 4953 L
1086 4923 L
1120 4889 L
1153 4850 L
1186 4806 L
1203 4782 L
1220 4757 L
1253 4702 L
1286 4640 L
1320 4572 L
1353 4497 L
1353 4496 L
1386 4415 L
1420 4327 L
1453 4232 L
1486 4131 L
1503 4077 L
1520 4026 L
1553 3917 L
1586 3805 L
1620 3693 L
1653 3581 L
1653 3579 L
1686 3472 L
1720 3367 L
1753 3267 L
1786 3175 L
1804 3130 L
1820 3091 L
1853 3016 L
1886 2952 L
1920 2897 L
1953 2853 L
1954 2852 L
1986 2819 L
2020 2794 L
2053 2776 L
2086 2765 L
2104 2761 L
2120 2758 L
2153 2754 L
2186 2753 L
2220 2752 L
2253 2752 L
2254 2752 L
2286 2752 L
2320 2752 L
2353 2752 L
2386 2752 L
2404 2752 L
2420 2752 L
2453 2752 L
2486 2752 L
2520 2752 L
2553 2752 L
2554 2752 L
2586 2752 L
2620 2752 L
2653 2752 L
2686 2752 L
2704 2752 L
2720 2752 L
2753 2752 L
2786 2752 L
2820 2752 L
2853 2752 L
2854 2752 L
2886 2752 L
2920 2752 L
2953 2752 L
2986 2752 L
3004 2752 L
3020 2752 L
3053 2752 L
3068 2752 L
3086 2752 L
3120 2752 L
3153 2752 L
3155 2752 L
3186 2752 L
3220 2752 L
3253 2752 L
3286 2752 L
3305 2752 L
3320 2752 L
3353 2752 L
3386 2752 L
3420 2752 L
3453 2752 L
3455 2752 L
3486 2752 L
3520 2752 L
3553 2752 L
3586 2752 L
3605 2752 L
3620 2752 L
3653 2752 L
3686 2752 L
3720 2752 L
3753 2752 L
3755 2752 L
3786 2752 L
3820 2752 L
3853 2752 L
3886 2752 L
3905 2752 L
3920 2752 L
3953 2752 L
3986 2752 L
4020 2752 L
4053 2752 L
4086 2752 L
LWMC SL  C01 COSGR

%
% Experimental data:
%
GSN 773 4628 M
1625 4252 L
1773 4320 L
1860 4623 L
1922 4449 L
1970 4312 L
2009 4330 L
2043 4320 L
2072 4359 L
2097 4268 L
2120 4286 L
2140 3995 L
2159 4476 L
2176 4057 L
2192 4234 L
2207 4304 L
2221 4234 L
2234 4289 L
2247 3941 L
2259 4086 L
2270 3998 L
2280 3842 L
2290 3907 L
2300 4005 L
2309 3790 L
2318 4052 L
2326 4195 L
2335 3982 L
2342 4115 L
2350 3892 L
2357 3748 L
2364 3429 L
2371 3608 L
2378 3639 L
2384 3889 L
2391 3876 L
2397 3707 L
2403 3720 L
2409 3808 L
2414 3790 L
2420 3915 L
2425 4099 L
2430 3517 L
2435 3640 L
2440 3310 L
2445 3455 L
2450 3320 L
2455 3601 L
2459 3614 L
2464 3538 L
2468 3626 L
2472 3707 L
2476 3268 L
2481 2843 L
2485 3092 L
2489 3344 L
2492 3517 L
2496 3717 L
2500 3344 L
2504 3203 L
2507 3068 L
2511 3473 L
2514 3022 L
2518 3172 L
2521 3463 L
2525 3377 L
2528 2988 L
2531 3232 L
2534 3206 L
2538 3050 L
2541 3006 L
2544 3344 L
2547 3118 L
2550 3219 L
2553 2983 L
2556 3198 L
2559 3209 L
2561 3162 L
2564 3076 L
2567 3082 L
2570 3154 L
2580 2912 L
2590 2869 L
2600 2954 L
2609 3050 L
2618 2980 L
2627 3011 L
2635 3032 L
2643 2611 L
2650 2689 L
2658 2752 L
2665 3149 L
2672 2619 L
2678 2290 L
2685 2910 L
2691 2531 L
2697 2767 L
2703 2393 L
2709 2733 L
2714 2624 L
2720 2466 L
2725 2318 L
2730 2622 L
2735 2476 L
2740 1988 L
2745 2430 L
2750 2471 L
2755 2022 L
2759 2518 L
2764 2316 L
2768 2580 L
2772 2160 L
2777 2614 L
2781 2601 L
2785 2502 L
2789 2342 L
2793 2355 L
2796 2394 L
2800 2230 L
2804 2297 L
2808 2394 L
2811 2368 L
2815 2342 L
2818 2061 L
2822 2258 L
2825 2212 L
2828 2038 L
2831 2181 L
2835 2409 L
2838 2074 L
2841 2303 L
2844 2090 L
2847 2110 L
2850 2043 L
2853 2204 L
2856 2157 L
2859 2092 L
2862 2110 L
2864 2313 L
2867 2046 L
2870 2207 L
2873 2012 L
2875 2066 L
2878 2121 L
2880 2074 L
2883 2038 L
2886 1991 L
2888 2030 L
2891 2004 L
2893 2165 L
2895 2256 L
2898 2053 L
2900 2246 L
2902 2508 L
2905 2061 L
2907 1996 L
2909 2022 L
2912 2336 L
2914 2157 L
2916 2149 L
2918 2534 L
2920 2443 L
2922 1957 L
2925 2290 L
2927 2051 L
2929 2264 L
2931 2261 L
2933 2240 L
2935 2279 L
2937 2277 L
2939 2404 L
2941 2061 L
2943 2500 L
2945 2482 L
2947 2326 L
2948 2619 L
2950 1833 L
2952 2139 L
2954 2417 L
2956 2152 L
2958 2227 L
2959 2245 L
2961 2235 L
2963 2336 L
2965 1885 L
2966 2365 L
2968 2479 L
2970 2957 L
2972 2274 L
2973 2809 L
2975 2022 L
2977 2547 L
2978 2430 L
2980 2043 L
2982 2401 L
2983 2474 L
2985 2433 L
2986 2142 L
2988 2430 L
2989 2232 L
2991 2282 L
2993 2303 L
2994 2417 L
2996 2474 L
2997 2170 L
2999 2240 L
3000 2227 L
3002 2588 L
3003 2503 L
3005 2173 L
3006 2502 L
3007 2378 L
3009 2523 L
3010 2736 L
3012 2622 L
3013 2570 L
3014 2604 L
3016 2612 L
3017 2811 L
3019 2448 L
3020 2513 L
3021 2773 L
3023 2650 L
3024 2373 L
3025 2414 L
3027 2676 L
3028 2336 L
3029 2710 L
3031 2160 L
3032 2409 L
3033 2601 L
3034 2775 L
3036 2741 L
3037 2580 L
3038 2552 L
3039 2422 L
3041 2419 L
3042 2508 L
3043 2414 L
3044 2609 L
3045 2362 L
3047 2339 L
3048 2323 L
3049 2523 L
3050 2464 L
3051 2458 L
3053 2534 L
3054 2344 L
3055 2567 L
3056 2765 L
3057 2663 L
3058 2326 L
3059 2801 L
3061 2907 L
3062 2635 L
3063 2435 L
3064 2365 L
3065 2539 L
3066 2536 L
3067 2344 L
3068 2222 L
3069 2393 L
3070 2191 L
3071 2331 L
3073 2983 L
3074 2786 L
3075 2575 L
3076 2614 L
3077 2941 L
3078 2884 L
3079 2591 L
3080 2243 L
3081 2269 L
3082 2855 L
3083 2944 L
3084 2609 L
3085 2934 L
3086 2759 L
3087 2339 L
3088 2611 L
3089 2396 L
3112 2526 L
3133 2708 L
3152 2640 L
3170 2523 L
3186 2850 L
3201 2477 L
3216 2801 L
3229 2915 L
3241 2780 L
3253 2682 L
3264 2871 L
3275 2902 L
3285 2830 L
3295 2983 L
3304 3045 L
3313 2674 L
3322 2796 L
3330 2650 L
3338 2905 L
3346 2448 L
3353 2630 L
3360 2638 L
3367 2679 L
3374 2936 L
3380 2658 L
3387 2848 L
3393 3102 L
3399 2728 L
3405 2767 L
3410 2726 L
3416 2905 L
3421 2604 L
3426 2671 L
3431 2734 L
3436 2747 L
3441 2708 L
3446 2726 L
3451 2887 L
3455 2492 L
3460 3076 L
3464 3149 L
3469 2635 L
3473 2889 L
3477 2336 L
3481 2733 L
3485 3053 L
3489 2565 L
3493 2445 L
3496 2656 L
3500 2850 L
3504 3100 L
3507 2710 L
3511 2456 L
3514 2695 L
3518 2736 L
3521 2962 L
3525 2638 L
3528 2702 L
3531 2617 L
3534 2531 L
3537 2892 L
3540 2749 L
3543 2575 L
3546 2845 L
3549 2674 L
3552 2780 L
3555 2998 L
3558 2625 L
3561 2518 L
3564 2920 L
3566 2843 L
3575 2489 L
3586 2500 L
3595 2689 L
3605 2461 L
3613 2656 L
3622 2741 L
3630 2645 L
3638 3131 L
3646 2419 L
3653 2832 L
3660 2830 L
3667 3071 L
3674 2570 L
3681 2661 L
3687 2583 L
3693 2786 L
3699 2432 L
3705 2653 L
3710 2565 L
3716 2601 L
3721 2811 L
3727 2448 L
3732 2902 L
3737 2972 L
3742 2726 L
3746 2547 L
3751 2443 L
3756 2869 L
3760 2731 L
3764 2855 L
3769 2391 L
3773 2656 L
3777 2744 L
3781 2650 L
3785 2744 L
3789 2591 L
3793 2915 L
3797 2627 L
3800 2770 L
3804 2679 L
3808 2731 L
3811 2739 L
3815 2664 L
3818 2687 L
3821 2905 L
3825 2490 L
3828 2622 L
3831 2783 L
3834 2858 L
3838 2513 L
3841 2884 L
3844 2718 L
3847 3011 L
3850 2414 L
3853 2915 L
3855 2778 L
3858 2682 L
3861 2560 L
3864 2695 L
3867 2721 L
3869 2881 L
3872 2858 L
3875 2401 L
3877 2500 L
3880 2668 L
3882 2541 L
3885 2721 L
3887 2889 L
3890 2399 L
3892 2495 L
3895 2508 L
3897 2819 L
3899 2318 L
3902 2604 L
3904 2466 L
3906 2638 L
3908 2700 L
3911 2791 L
3913 2853 L
3915 2747 L
3917 2586 L
3919 2799 L
3921 2798 L
3923 2788 L
3926 2728 L
3928 2630 L
3930 2269 L
3932 2549 L
3934 3016 L
3936 2902 L
3938 2650 L
3940 2762 L
3942 2892 L
3943 2316 L
3945 2814 L
3947 2785 L
3949 2417 L
3951 2715 L
3953 2347 L
3955 2632 L
3956 2887 L
3958 2960 L
3960 2562 L
3962 3029 L
3963 2461 L
3965 2721 L
3967 2700 L
3969 3001 L
3970 2425 L
3972 2923 L
3974 2887 L
3975 2723 L
3977 2611 L
3978 2668 L
3980 2617 L
3982 3004 L
3983 2609 L
3985 2752 L
3986 2921 L
3988 2658 L
3990 2718 L
3991 2650 L
3993 3035 L
3994 2648 L
3996 2510 L
3997 2915 L
3999 2804 L
4000 2868 L
4001 2503 L
4003 2837 L
4004 2788 L
4006 2952 L
4007 3016 L
4009 2889 L
4010 2689 L
4011 2817 L
4013 2713 L
4014 2822 L
4016 3177 L
4017 2765 L
4018 2889 L
4020 2638 L
4021 2869 L
4022 2674 L
4024 2788 L
4025 2778 L
4026 2843 L
4028 2565 L
4029 2643 L
4030 2443 L
4031 2863 L
4033 3167 L
4034 2305 L
4035 3006 L
4036 2715 L
4038 2630 L
4039 2895 L
4040 2959 L
4041 2676 L
4042 3027 L
4044 2900 L
4045 2630 L
4046 2767 L
4047 2739 L
4048 2783 L
4050 2996 L
4051 2876 L
4052 2708 L
4053 3240 L
4054 2721 L
4055 2749 L
4056 2926 L
4058 2884 L
4059 2471 L
4060 2767 L
4061 2386 L
4062 2666 L
4063 2819 L
4064 2910 L
4065 2638 L
4066 2871 L
L2 C01 COSGR

%
%================
% Legend - Begin
%================
%
GSN 4240 5180 M
4480 5180 L
LWMC SL  C01 COSGR
GSN 4540 5141 M helvM (0.5 uM) show grestore
%
%================
% Legend - End
%================
%

%
% Residuals:
%
GSN 773 873 M
1625 1214 L
1773 1379 L
1860 1538 L
1922 1517 L
1970 1493 L
2009 1509 L
2043 1512 L
2072 1528 L
2097 1502 L
2120 1509 L
2140 1419 L
2159 1569 L
2176 1439 L
2192 1494 L
2207 1516 L
2221 1494 L
2234 1511 L
2247 1404 L
2259 1449 L
2270 1421 L
2280 1373 L
2290 1393 L
2300 1424 L
2309 1357 L
2318 1438 L
2326 1482 L
2335 1416 L
2342 1457 L
2350 1388 L
2357 1344 L
2364 1245 L
2371 1301 L
2378 1310 L
2384 1387 L
2391 1383 L
2397 1331 L
2403 1335 L
2409 1363 L
2414 1357 L
2420 1396 L
2425 1453 L
2430 1272 L
2435 1310 L
2440 1208 L
2445 1253 L
2450 1211 L
2455 1298 L
2459 1302 L
2464 1279 L
2468 1306 L
2472 1331 L
2476 1195 L
2481 1063 L
2485 1141 L
2489 1219 L
2492 1272 L
2496 1334 L
2500 1219 L
2504 1175 L
2507 1133 L
2511 1259 L
2514 1119 L
2518 1165 L
2521 1256 L
2525 1229 L
2528 1108 L
2531 1184 L
2534 1176 L
2538 1128 L
2541 1114 L
2544 1219 L
2547 1149 L
2550 1180 L
2553 1107 L
2556 1173 L
2559 1177 L
2561 1162 L
2564 1136 L
2567 1137 L
2570 1160 L
2580 1085 L
2590 1071 L
2600 1098 L
2609 1128 L
2618 1106 L
2627 1116 L
2635 1122 L
2643 992 L
2650 1016 L
2658 1035 L
2665 1158 L
2672 994 L
2678 892 L
2685 1084 L
2691 967 L
2697 1040 L
2703 924 L
2709 1029 L
2714 996 L
2720 947 L
2725 901 L
2730 995 L
2735 950 L
2740 799 L
2745 935 L
2750 948 L
2755 809 L
2759 963 L
2764 900 L
2768 982 L
2772 852 L
2777 992 L
2781 988 L
2785 958 L
2789 908 L
2793 912 L
2796 924 L
2800 873 L
2804 894 L
2808 924 L
2811 916 L
2815 908 L
2818 821 L
2822 882 L
2825 868 L
2828 814 L
2831 858 L
2835 929 L
2838 825 L
2841 896 L
2844 830 L
2847 836 L
2850 816 L
2853 865 L
2856 851 L
2859 831 L
2862 836 L
2864 899 L
2867 816 L
2870 866 L
2873 806 L
2875 823 L
2878 840 L
2880 825 L
2883 814 L
2886 799 L
2888 812 L
2891 803 L
2893 853 L
2895 882 L
2898 819 L
2900 878 L
2902 960 L
2905 821 L
2907 801 L
2909 809 L
2912 906 L
2914 851 L
2916 849 L
2918 968 L
2920 939 L
2922 789 L
2925 892 L
2927 818 L
2929 884 L
2931 883 L
2933 877 L
2935 889 L
2937 888 L
2939 927 L
2941 821 L
2943 957 L
2945 952 L
2947 903 L
2948 994 L
2950 750 L
2952 845 L
2954 931 L
2956 849 L
2958 873 L
2959 878 L
2961 875 L
2963 906 L
2965 766 L
2966 915 L
2968 951 L
2970 1099 L
2972 887 L
2973 1053 L
2975 809 L
2977 972 L
2978 935 L
2980 816 L
2982 927 L
2983 949 L
2985 936 L
2986 846 L
2988 935 L
2989 874 L
2991 890 L
2993 896 L
2994 931 L
2996 949 L
2997 855 L
2999 877 L
3000 873 L
3002 984 L
3003 958 L
3005 856 L
3006 958 L
3007 919 L
3009 964 L
3010 1030 L
3012 995 L
3013 979 L
3014 989 L
3016 992 L
3017 1054 L
3019 941 L
3020 961 L
3021 1042 L
3023 1004 L
3024 918 L
3025 931 L
3027 1012 L
3028 906 L
3029 1022 L
3031 852 L
3032 929 L
3033 988 L
3034 1042 L
3036 1032 L
3037 982 L
3038 973 L
3039 933 L
3041 932 L
3042 959 L
3043 931 L
3044 991 L
3045 914 L
3047 907 L
3048 902 L
3049 964 L
3050 946 L
3051 944 L
3053 968 L
3054 909 L
3055 978 L
3056 1039 L
3057 1008 L
3058 903 L
3059 1050 L
3061 1083 L
3062 999 L
3063 937 L
3064 915 L
3065 969 L
3066 968 L
3067 909 L
3068 871 L
3069 924 L
3070 861 L
3071 905 L
3073 1107 L
3074 1046 L
3075 980 L
3076 992 L
3077 1094 L
3078 1076 L
3079 985 L
3080 877 L
3081 886 L
3082 1067 L
3083 1095 L
3084 991 L
3085 1091 L
3086 1038 L
3087 907 L
3088 992 L
3089 925 L
3112 965 L
3133 1021 L
3152 1001 L
3170 964 L
3186 1066 L
3201 950 L
3216 1050 L
3229 1086 L
3241 1044 L
3253 1013 L
3264 1072 L
3275 1082 L
3285 1059 L
3295 1107 L
3304 1126 L
3313 1011 L
3322 1049 L
3330 1004 L
3338 1083 L
3346 941 L
3353 997 L
3360 1000 L
3367 1013 L
3374 1092 L
3380 1006 L
3387 1065 L
3393 1144 L
3399 1028 L
3405 1040 L
3410 1027 L
3416 1083 L
3421 989 L
3426 1010 L
3431 1030 L
3436 1034 L
3441 1021 L
3446 1027 L
3451 1077 L
3455 955 L
3460 1136 L
3464 1158 L
3469 999 L
3473 1078 L
3477 906 L
3481 1029 L
3485 1128 L
3489 977 L
3493 940 L
3496 1005 L
3500 1066 L
3504 1143 L
3507 1022 L
3511 943 L
3514 1017 L
3518 1030 L
3521 1100 L
3525 1000 L
3528 1020 L
3531 993 L
3534 967 L
3537 1079 L
3540 1034 L
3543 980 L
3546 1064 L
3549 1011 L
3552 1044 L
3555 1112 L
3558 996 L
3561 963 L
3564 1087 L
3566 1063 L
3575 954 L
3586 957 L
3595 1016 L
3605 945 L
3613 1005 L
3622 1032 L
3630 1002 L
3638 1153 L
3646 932 L
3653 1060 L
3660 1059 L
3667 1134 L
3674 979 L
3681 1007 L
3687 983 L
3693 1046 L
3699 936 L
3705 1005 L
3710 977 L
3716 988 L
3721 1054 L
3727 941 L
3732 1082 L
3737 1103 L
3742 1027 L
3746 972 L
3751 939 L
3756 1071 L
3760 1029 L
3764 1067 L
3769 923 L
3773 1005 L
3777 1033 L
3781 1004 L
3785 1033 L
3789 985 L
3793 1086 L
3797 997 L
3800 1041 L
3804 1013 L
3808 1029 L
3811 1031 L
3815 1008 L
3818 1015 L
3821 1083 L
3825 954 L
3828 995 L
3831 1045 L
3834 1068 L
3838 961 L
3841 1076 L
3844 1025 L
3847 1116 L
3850 931 L
3853 1086 L
3855 1043 L
3858 1013 L
3861 976 L
3864 1017 L
3867 1026 L
3869 1075 L
3872 1068 L
3875 927 L
3877 957 L
3880 1009 L
3882 970 L
3885 1026 L
3887 1078 L
3890 926 L
3892 956 L
3895 960 L
3897 1056 L
3899 901 L
3902 989 L
3904 947 L
3906 1000 L
3908 1019 L
3911 1047 L
3913 1066 L
3915 1034 L
3917 984 L
3919 1050 L
3921 1050 L
3923 1046 L
3926 1028 L
3928 997 L
3930 886 L
3932 972 L
3934 1117 L
3936 1082 L
3938 1004 L
3940 1038 L
3942 1079 L
3943 900 L
3945 1054 L
3947 1046 L
3949 931 L
3951 1024 L
3953 910 L
3955 998 L
3956 1077 L
3958 1100 L
3960 976 L
3962 1121 L
3963 945 L
3965 1025 L
3967 1019 L
3969 1112 L
3970 934 L
3972 1088 L
3974 1077 L
3975 1026 L
3977 992 L
3978 1009 L
3980 993 L
3982 1113 L
3983 991 L
3985 1035 L
3986 1087 L
3988 1006 L
3990 1025 L
3991 1004 L
3993 1123 L
3994 1003 L
3996 960 L
3997 1086 L
3999 1051 L
4000 1071 L
4001 958 L
4003 1062 L
4004 1046 L
4006 1097 L
4007 1117 L
4009 1078 L
4010 1016 L
4011 1055 L
4013 1023 L
4014 1057 L
4016 1167 L
4017 1039 L
4018 1078 L
4020 1000 L
4021 1071 L
4022 1011 L
4024 1046 L
4025 1043 L
4026 1063 L
4028 977 L
4029 1001 L
4030 939 L
4031 1070 L
4033 1164 L
4034 897 L
4035 1114 L
4036 1024 L
4038 997 L
4039 1079 L
4040 1099 L
4041 1012 L
4042 1120 L
4044 1081 L
4045 997 L
4046 1040 L
4047 1031 L
4048 1045 L
4050 1111 L
4051 1074 L
4052 1021 L
4053 1186 L
4054 1025 L
4055 1034 L
4056 1089 L
4058 1076 L
4059 948 L
4060 1040 L
4061 922 L
4062 1009 L
4063 1056 L
4064 1084 L
4065 1000 L
4066 1072 L
L2 C01 COSGR

%
% Main frame
%
L10
GSN 
620 1700 M
4220 1700 L
4220 5300 L
620 5300 L
closepath SGR

%
% X axis: large tics
%
L10
GSN 1074 1700 M 0  54 rL SGR
GSN 1074 5300 M 0 -54 rL SGR
helvS (0.0001) 1074 470 xlabel
GSN 1572 1700 M 0  54 rL SGR
GSN 1572 5300 M 0 -54 rL SGR
helvS (0.001) 1572 470 xlabel
GSN 2071 1700 M 0  54 rL SGR
GSN 2071 5300 M 0 -54 rL SGR
helvS (0.01) 2071 470 xlabel
GSN 2570 1700 M 0  54 rL SGR
GSN 2570 5300 M 0 -54 rL SGR
helvS (0.1) 2570 470 xlabel
GSN 3068 1700 M 0  54 rL SGR
GSN 3068 5300 M 0 -54 rL SGR
helvS (1) 3068 470 xlabel
GSN 3567 1700 M 0  54 rL SGR
GSN 3567 5300 M 0 -54 rL SGR
helvS (10) 3567 470 xlabel
GSN 4066 1700 M 0  54 rL SGR
GSN 4066 5300 M 0 -54 rL SGR
helvS (100) 4066 470 xlabel
%
% X axis: small tics
%
L5
GSN 725 1700 M 0  36 rL SGR
GSN 725 5300 M 0 -36 rL SGR
GSN 813 1700 M 0  36 rL SGR
GSN 813 5300 M 0 -36 rL SGR
GSN 875 1700 M 0  36 rL SGR
GSN 875 5300 M 0 -36 rL SGR
GSN 924 1700 M 0  36 rL SGR
GSN 924 5300 M 0 -36 rL SGR
GSN 963 1700 M 0  36 rL SGR
GSN 963 5300 M 0 -36 rL SGR
GSN 996 1700 M 0  36 rL SGR
GSN 996 5300 M 0 -36 rL SGR
GSN 1025 1700 M 0  36 rL SGR
GSN 1025 5300 M 0 -36 rL SGR
GSN 1051 1700 M 0  36 rL SGR
GSN 1051 5300 M 0 -36 rL SGR
GSN 1224 1700 M 0  36 rL SGR
GSN 1224 5300 M 0 -36 rL SGR
GSN 1312 1700 M 0  36 rL SGR
GSN 1312 5300 M 0 -36 rL SGR
GSN 1374 1700 M 0  36 rL SGR
GSN 1374 5300 M 0 -36 rL SGR
GSN 1422 1700 M 0  36 rL SGR
GSN 1422 5300 M 0 -36 rL SGR
GSN 1462 1700 M 0  36 rL SGR
GSN 1462 5300 M 0 -36 rL SGR
GSN 1495 1700 M 0  36 rL SGR
GSN 1495 5300 M 0 -36 rL SGR
GSN 1524 1700 M 0  36 rL SGR
GSN 1524 5300 M 0 -36 rL SGR
GSN 1550 1700 M 0  36 rL SGR
GSN 1550 5300 M 0 -36 rL SGR
GSN 1722 1700 M 0  36 rL SGR
GSN 1722 5300 M 0 -36 rL SGR
GSN 1810 1700 M 0  36 rL SGR
GSN 1810 5300 M 0 -36 rL SGR
GSN 1873 1700 M 0  36 rL SGR
GSN 1873 5300 M 0 -36 rL SGR
GSN 1921 1700 M 0  36 rL SGR
GSN 1921 5300 M 0 -36 rL SGR
GSN 1960 1700 M 0  36 rL SGR
GSN 1960 5300 M 0 -36 rL SGR
GSN 1994 1700 M 0  36 rL SGR
GSN 1994 5300 M 0 -36 rL SGR
GSN 2023 1700 M 0  36 rL SGR
GSN 2023 5300 M 0 -36 rL SGR
GSN 2048 1700 M 0  36 rL SGR
GSN 2048 5300 M 0 -36 rL SGR
GSN 2221 1700 M 0  36 rL SGR
GSN 2221 5300 M 0 -36 rL SGR
GSN 2309 1700 M 0  36 rL SGR
GSN 2309 5300 M 0 -36 rL SGR
GSN 2371 1700 M 0  36 rL SGR
GSN 2371 5300 M 0 -36 rL SGR
GSN 2420 1700 M 0  36 rL SGR
GSN 2420 5300 M 0 -36 rL SGR
GSN 2459 1700 M 0  36 rL SGR
GSN 2459 5300 M 0 -36 rL SGR
GSN 2492 1700 M 0  36 rL SGR
GSN 2492 5300 M 0 -36 rL SGR
GSN 2521 1700 M 0  36 rL SGR
GSN 2521 5300 M 0 -36 rL SGR
GSN 2547 1700 M 0  36 rL SGR
GSN 2547 5300 M 0 -36 rL SGR
GSN 2720 1700 M 0  36 rL SGR
GSN 2720 5300 M 0 -36 rL SGR
GSN 2808 1700 M 0  36 rL SGR
GSN 2808 5300 M 0 -36 rL SGR
GSN 2870 1700 M 0  36 rL SGR
GSN 2870 5300 M 0 -36 rL SGR
GSN 2918 1700 M 0  36 rL SGR
GSN 2918 5300 M 0 -36 rL SGR
GSN 2958 1700 M 0  36 rL SGR
GSN 2958 5300 M 0 -36 rL SGR
GSN 2991 1700 M 0  36 rL SGR
GSN 2991 5300 M 0 -36 rL SGR
GSN 3020 1700 M 0  36 rL SGR
GSN 3020 5300 M 0 -36 rL SGR
GSN 3045 1700 M 0  36 rL SGR
GSN 3045 5300 M 0 -36 rL SGR
GSN 3218 1700 M 0  36 rL SGR
GSN 3218 5300 M 0 -36 rL SGR
GSN 3306 1700 M 0  36 rL SGR
GSN 3306 5300 M 0 -36 rL SGR
GSN 3368 1700 M 0  36 rL SGR
GSN 3368 5300 M 0 -36 rL SGR
GSN 3417 1700 M 0  36 rL SGR
GSN 3417 5300 M 0 -36 rL SGR
GSN 3456 1700 M 0  36 rL SGR
GSN 3456 5300 M 0 -36 rL SGR
GSN 3490 1700 M 0  36 rL SGR
GSN 3490 5300 M 0 -36 rL SGR
GSN 3519 1700 M 0  36 rL SGR
GSN 3519 5300 M 0 -36 rL SGR
GSN 3544 1700 M 0  36 rL SGR
GSN 3544 5300 M 0 -36 rL SGR
GSN 3717 1700 M 0  36 rL SGR
GSN 3717 5300 M 0 -36 rL SGR
GSN 3805 1700 M 0  36 rL SGR
GSN 3805 5300 M 0 -36 rL SGR
GSN 3867 1700 M 0  36 rL SGR
GSN 3867 5300 M 0 -36 rL SGR
GSN 3915 1700 M 0  36 rL SGR
GSN 3915 5300 M 0 -36 rL SGR
GSN 3955 1700 M 0  36 rL SGR
GSN 3955 5300 M 0 -36 rL SGR
GSN 3988 1700 M 0  36 rL SGR
GSN 3988 5300 M 0 -36 rL SGR
GSN 4017 1700 M 0  36 rL SGR
GSN 4017 5300 M 0 -36 rL SGR
GSN 4043 1700 M 0  36 rL SGR
GSN 4043 5300 M 0 -36 rL SGR
GSN 4216 1700 M 0  36 rL SGR
GSN 4216 5300 M 0 -36 rL SGR
%
% Y axis: large tics
%
L10
GSN 620 2623 M 54 0 rL SGR
GSN 4220 2623 M -54 0 rL SGR
helvS (1.14) 560 2623 ylabel
GSN 620 3643 M 54 0 rL SGR
GSN 4220 3643 M -54 0 rL SGR
helvS (1.16) 560 3643 ylabel
GSN 620 4664 M 54 0 rL SGR
GSN 4220 4664 M -54 0 rL SGR
helvS (1.18) 560 4664 ylabel
%
% Y axis: small tics
%
L5
GSN 620 1857 M 36 0 rL SGR
GSN 4220 1857 M -36 0 rL SGR
GSN 620 2112 M 36 0 rL SGR
GSN 4220 2112 M -36 0 rL SGR
GSN 620 2368 M 36 0 rL SGR
GSN 4220 2368 M -36 0 rL SGR
GSN 620 2623 M 36 0 rL SGR
GSN 4220 2623 M -36 0 rL SGR
GSN 620 2878 M 36 0 rL SGR
GSN 4220 2878 M -36 0 rL SGR
GSN 620 3133 M 36 0 rL SGR
GSN 4220 3133 M -36 0 rL SGR
GSN 620 3388 M 36 0 rL SGR
GSN 4220 3388 M -36 0 rL SGR
GSN 620 3643 M 36 0 rL SGR
GSN 4220 3643 M -36 0 rL SGR
GSN 620 3899 M 36 0 rL SGR
GSN 4220 3899 M -36 0 rL SGR
GSN 620 4154 M 36 0 rL SGR
GSN 4220 4154 M -36 0 rL SGR
GSN 620 4409 M 36 0 rL SGR
GSN 4220 4409 M -36 0 rL SGR
GSN 620 4664 M 36 0 rL SGR
GSN 4220 4664 M -36 0 rL SGR
GSN 620 4919 M 36 0 rL SGR
GSN 4220 4919 M -36 0 rL SGR
GSN 620 5175 M 36 0 rL SGR
GSN 4220 5175 M -36 0 rL SGR

%
% X-Axis label:
%
gsave 2420 290 M 
[
[(Helvetica) 180 0 true true 0 (t)]
[(Helvetica) 180 0 true true 0 (i)]
[(Helvetica) 180 0 true true 0 (m)]
[(Helvetica) 180 0 true true 0 (e)]
] 0 MCshow grestore

%
% Y-Axis label:
%
gsave 234 3500 M 
currentpoint gsave translate 90 rotate 0 0 moveto
[
[(Helvetica) 180 0 true true 0 (s)]
[(Helvetica) 180 0 true true 0 (i)]
[(Helvetica) 180 0 true true 0 (g)]
[(Helvetica) 180 0 true true 0 (n)]
[(Helvetica) 180 0 true true 0 (a)]
[(Helvetica) 180 0 true true 0 (l)]
] 0 MCshow grestore

%
% Residuals:
%
gsave 129 1160 M 
currentpoint gsave translate 90 rotate 0 0 moveto
[
[(Helvetica) 150 0 true true 0 (r)]
[(Helvetica) 150 0 true true 0 (e)]
[(Helvetica) 150 0 true true 0 (s)]
[(Helvetica) 150 0 true true 0 (i)]
[(Helvetica) 150 0 true true 0 (d)]
[(Helvetica) 150 0 true true 0 (u)]
[(Helvetica) 150 0 true true 0 (a)]
[(Helvetica) 150 0 true true 0 (l)]
[(Helvetica) 150 0 true true 0 (s)]
] 0 MCshow grestore

%
% Residual frame
%
L10
GSN 
620 620 M
4220 620 L
4220 1700 L
620 1700 L
closepath SGR
%
% X axis: large tics - residual frame
%
L10
GSN 1074 620 M 0  54 rL SGR
GSN 1074 1700 M 0 -54 rL SGR
GSN 1572 620 M 0  54 rL SGR
GSN 1572 1700 M 0 -54 rL SGR
GSN 2071 620 M 0  54 rL SGR
GSN 2071 1700 M 0 -54 rL SGR
GSN 2570 620 M 0  54 rL SGR
GSN 2570 1700 M 0 -54 rL SGR
GSN 3068 620 M 0  54 rL SGR
GSN 3068 1700 M 0 -54 rL SGR
GSN 3567 620 M 0  54 rL SGR
GSN 3567 1700 M 0 -54 rL SGR
GSN 4066 620 M 0  54 rL SGR
GSN 4066 1700 M 0 -54 rL SGR
%
% X axis: small tics - residual frame
%
L5
GSN 725 620 M 0  36 rL SGR
GSN 725 1700 M 0 -36 rL SGR
GSN 813 620 M 0  36 rL SGR
GSN 813 1700 M 0 -36 rL SGR
GSN 875 620 M 0  36 rL SGR
GSN 875 1700 M 0 -36 rL SGR
GSN 924 620 M 0  36 rL SGR
GSN 924 1700 M 0 -36 rL SGR
GSN 963 620 M 0  36 rL SGR
GSN 963 1700 M 0 -36 rL SGR
GSN 996 620 M 0  36 rL SGR
GSN 996 1700 M 0 -36 rL SGR
GSN 1025 620 M 0  36 rL SGR
GSN 1025 1700 M 0 -36 rL SGR
GSN 1051 620 M 0  36 rL SGR
GSN 1051 1700 M 0 -36 rL SGR
GSN 1224 620 M 0  36 rL SGR
GSN 1224 1700 M 0 -36 rL SGR
GSN 1312 620 M 0  36 rL SGR
GSN 1312 1700 M 0 -36 rL SGR
GSN 1374 620 M 0  36 rL SGR
GSN 1374 1700 M 0 -36 rL SGR
GSN 1422 620 M 0  36 rL SGR
GSN 1422 1700 M 0 -36 rL SGR
GSN 1462 620 M 0  36 rL SGR
GSN 1462 1700 M 0 -36 rL SGR
GSN 1495 620 M 0  36 rL SGR
GSN 1495 1700 M 0 -36 rL SGR
GSN 1524 620 M 0  36 rL SGR
GSN 1524 1700 M 0 -36 rL SGR
GSN 1550 620 M 0  36 rL SGR
GSN 1550 1700 M 0 -36 rL SGR
GSN 1722 620 M 0  36 rL SGR
GSN 1722 1700 M 0 -36 rL SGR
GSN 1810 620 M 0  36 rL SGR
GSN 1810 1700 M 0 -36 rL SGR
GSN 1873 620 M 0  36 rL SGR
GSN 1873 1700 M 0 -36 rL SGR
GSN 1921 620 M 0  36 rL SGR
GSN 1921 1700 M 0 -36 rL SGR
GSN 1960 620 M 0  36 rL SGR
GSN 1960 1700 M 0 -36 rL SGR
GSN 1994 620 M 0  36 rL SGR
GSN 1994 1700 M 0 -36 rL SGR
GSN 2023 620 M 0  36 rL SGR
GSN 2023 1700 M 0 -36 rL SGR
GSN 2048 620 M 0  36 rL SGR
GSN 2048 1700 M 0 -36 rL SGR
GSN 2221 620 M 0  36 rL SGR
GSN 2221 1700 M 0 -36 rL SGR
GSN 2309 620 M 0  36 rL SGR
GSN 2309 1700 M 0 -36 rL SGR
GSN 2371 620 M 0  36 rL SGR
GSN 2371 1700 M 0 -36 rL SGR
GSN 2420 620 M 0  36 rL SGR
GSN 2420 1700 M 0 -36 rL SGR
GSN 2459 620 M 0  36 rL SGR
GSN 2459 1700 M 0 -36 rL SGR
GSN 2492 620 M 0  36 rL SGR
GSN 2492 1700 M 0 -36 rL SGR
GSN 2521 620 M 0  36 rL SGR
GSN 2521 1700 M 0 -36 rL SGR
GSN 2547 620 M 0  36 rL SGR
GSN 2547 1700 M 0 -36 rL SGR
GSN 2720 620 M 0  36 rL SGR
GSN 2720 1700 M 0 -36 rL SGR
GSN 2808 620 M 0  36 rL SGR
GSN 2808 1700 M 0 -36 rL SGR
GSN 2870 620 M 0  36 rL SGR
GSN 2870 1700 M 0 -36 rL SGR
GSN 2918 620 M 0  36 rL SGR
GSN 2918 1700 M 0 -36 rL SGR
GSN 2958 620 M 0  36 rL SGR
GSN 2958 1700 M 0 -36 rL SGR
GSN 2991 620 M 0  36 rL SGR
GSN 2991 1700 M 0 -36 rL SGR
GSN 3020 620 M 0  36 rL SGR
GSN 3020 1700 M 0 -36 rL SGR
GSN 3045 620 M 0  36 rL SGR
GSN 3045 1700 M 0 -36 rL SGR
GSN 3218 620 M 0  36 rL SGR
GSN 3218 1700 M 0 -36 rL SGR
GSN 3306 620 M 0  36 rL SGR
GSN 3306 1700 M 0 -36 rL SGR
GSN 3368 620 M 0  36 rL SGR
GSN 3368 1700 M 0 -36 rL SGR
GSN 3417 620 M 0  36 rL SGR
GSN 3417 1700 M 0 -36 rL SGR
GSN 3456 620 M 0  36 rL SGR
GSN 3456 1700 M 0 -36 rL SGR
GSN 3490 620 M 0  36 rL SGR
GSN 3490 1700 M 0 -36 rL SGR
GSN 3519 620 M 0  36 rL SGR
GSN 3519 1700 M 0 -36 rL SGR
GSN 3544 620 M 0  36 rL SGR
GSN 3544 1700 M 0 -36 rL SGR
GSN 3717 620 M 0  36 rL SGR
GSN 3717 1700 M 0 -36 rL SGR
GSN 3805 620 M 0  36 rL SGR
GSN 3805 1700 M 0 -36 rL SGR
GSN 3867 620 M 0  36 rL SGR
GSN 3867 1700 M 0 -36 rL SGR
GSN 3915 620 M 0  36 rL SGR
GSN 3915 1700 M 0 -36 rL SGR
GSN 3955 620 M 0  36 rL SGR
GSN 3955 1700 M 0 -36 rL SGR
GSN 3988 620 M 0  36 rL SGR
GSN 3988 1700 M 0 -36 rL SGR
GSN 4017 620 M 0  36 rL SGR
GSN 4017 1700 M 0 -36 rL SGR
GSN 4043 620 M 0  36 rL SGR
GSN 4043 1700 M 0 -36 rL SGR
GSN 4216 620 M 0  36 rL SGR
GSN 4216 1700 M 0 -36 rL SGR
%
% Y axis: large tics - residual frame
%
L10
GSN 620 719 M 54 0 rL SGR
GSN 4220 719 M -54 0 rL SGR
helvS (-0.02) 560 719 ylabelresid
GSN 620 1035 M 54 0 rL SGR
GSN 4220 1035 M -54 0 rL SGR
helvS (0) 560 1035 ylabelresid
GSN 620 1351 M 54 0 rL SGR
GSN 4220 1351 M -54 0 rL SGR
helvS (0.02) 560 1351 ylabelresid
GSN 620 1668 M 54 0 rL SGR
GSN 4220 1668 M -54 0 rL SGR
helvS (0.04) 560 1668 ylabelresid

%
% X axis - residual panel
%
GSN L5 620 1035 M 4220 1035 L SDA G50 SGR

end
showpage
%%Trailer
%%EOF
