
PARAMETERS AND CONFIDENCE INTERVALS

NO.	SET	           PARAMETER	     INITIAL	    LIMIT-LO	    LIMIT-HI	         FIT	      STDERR	         CV%	      F(SDI)	   CONLIN-LO	   CONLIN-HI	   CONLIN-P%	

  1	  1	                time	           0	
  2	  1	             restart	           0	
  3	  *	                 k.1	 0.000870647	      1e-006	      1e+006	     33.0325	      244587	2.89085e+006	1.22562e+006	     -479506	      479572	          95	
  4	  *	                k.-1	2.16909e-006	      1e-012	      1e+006	 1.2016e-008	      1.5142	4.91991e+010	2.08588e+010	    -2.96875	     2.96875	          95	
  5	  *	               k.cat	      424.77	      1e-006	      1e+006	     28.2606	     2.77666	     38.3594	     16.2631	     22.8167	     33.7046	          95	
  6	  1	                 [E]	           1	    0.909091	         1.1	    0.949295	     7028.88	 2.8908e+006	 1.2256e+006	    -13779.9	     13781.8	          95	
  7	  1	                 [S]	         0.5	    0.454545	        0.55	        0.55	     4072.28	2.89073e+006	1.22557e+006	    -7983.59	     7984.69	          95	
  8	  1	              [E.S1]	           0	
  9	  1	               [E.P]	           0	
 10	  *	                r(E)	        0.31	    3.1e-007	      310000	     0.44482	6.47875e+007	5.68643e+010	2.41086e+010	-1.27023e+008	1.27023e+008	          95	
 11	  1	                r(S)	           0	
 12	  *	             r(E.S1)	        0.22	    2.2e-007	      220000	    0.434305	6.47875e+007	5.82409e+010	2.46922e+010	-1.27023e+008	1.27023e+008	          95	
 13	  *	              r(E.P)	        0.25	    2.5e-007	      250000	    0.385657	6.47875e+007	6.55876e+010	 2.7807e+010	-1.27023e+008	1.27023e+008	          95	
 14	  1	              offset	      1.1793	     -INFTY	     +INFTY	    0.749835	6.15023e+007	3.20227e+010	1.35766e+010	-1.20582e+008	1.20582e+008	          95	
 15	  1	               delay	           0	
 16	  1	          incubation	           0	
 17	  1	                [E]i	           0	
 18	  1	                [S]i	           0	
 19	  1	             [E.S1]i	           0	
 20	  1	              [E.P]i	           0	
 21	  1	            dilution	           0	
 22	  1	           intensive	           0	
 23	  2	                time	           0	
 24	  2	             restart	           0	
 25	  2	                 [E]	           1	    0.909091	         1.1	         1.1	     8144.72	2.89079e+006	 1.2256e+006	    -15967.5	     15969.7	          95	
 26	  2	                 [S]	           1	    0.909091	         1.1	    0.909091	     6731.04	2.89073e+006	1.22557e+006	      -13196	     13197.8	          95	
 27	  2	              [E.S1]	           0	
 28	  2	               [E.P]	           0	
 29	  2	                r(S)	           0	
 30	  2	              offset	     1.14325	     -INFTY	     +INFTY	    0.660928	7.12661e+007	 4.2098e+010	1.78481e+010	-1.39725e+008	1.39725e+008	          95	
 31	  2	               delay	           0	
 32	  2	          incubation	           0	
 33	  2	                [E]i	           0	
 34	  2	                [S]i	           0	
 35	  2	             [E.S1]i	           0	
 36	  2	              [E.P]i	           0	
 37	  2	            dilution	           0	
 38	  2	           intensive	           0	
 39	  3	                time	           0	
 40	  3	             restart	           0	
 41	  3	                 [E]	           1	    0.909091	         1.1	    0.950271	     7035.95	2.89073e+006	1.22557e+006	    -13793.8	     13795.7	          95	
 42	  3	                 [S]	         1.5	     1.36364	        1.65	     1.49335	     11057.2	2.89079e+006	 1.2256e+006	    -21677.3	     21680.3	          95	
 43	  3	              [E.S1]	           0	
 44	  3	               [E.P]	           0	
 45	  3	                r(S)	           0	
 46	  3	              offset	     1.10351	     -INFTY	     +INFTY	    0.682387	6.15655e+007	 3.5224e+010	1.49338e+010	-1.20706e+008	1.20706e+008	          95	
 47	  3	               delay	           0	
 48	  3	          incubation	           0	
 49	  3	                [E]i	           0	
 50	  3	                [S]i	           0	
 51	  3	             [E.S1]i	           0	
 52	  3	              [E.P]i	           0	
 53	  3	            dilution	           0	
 54	  3	           intensive	           0	
 55	  4	                time	           0	
 56	  4	             restart	           0	
 57	  4	                 [E]	           1	    0.909091	         1.1	     0.95061	     7038.46	2.89073e+006	1.22557e+006	    -13798.7	     13800.6	          95	
 58	  4	                 [S]	           2	     1.81818	         2.2	     2.03267	     15050.5	2.89079e+006	 1.2256e+006	    -29506.1	     29510.2	          95	
 59	  4	              [E.S1]	           0	
 60	  4	               [E.P]	           0	
 61	  4	                r(S)	           0	
 62	  4	              offset	     1.07103	     -INFTY	     +INFTY	    0.640449	6.15875e+007	 3.7544e+010	1.59174e+010	-1.20749e+008	1.20749e+008	          95	
 63	  4	               delay	           0	
 64	  4	          incubation	           0	
 65	  4	                [E]i	           0	
 66	  4	                [S]i	           0	
 67	  4	             [E.S1]i	           0	
 68	  4	              [E.P]i	           0	
 69	  4	            dilution	           0	
 70	  4	           intensive	           0	
 71	  5	                time	           0	
 72	  5	             restart	           0	
 73	  5	                 [E]	           1	    0.909091	         1.1	    0.909091	     6731.05	2.89073e+006	1.22557e+006	      -13196	     13197.8	          95	
 74	  5	                 [S]	         2.5	     2.27273	        2.75	        2.75	     20361.8	2.89078e+006	1.22559e+006	    -39918.6	     39924.1	          95	
 75	  5	              [E.S1]	           0	
 76	  5	               [E.P]	           0	
 77	  5	                r(S)	           0	
 78	  5	              offset	     1.02909	     -INFTY	     +INFTY	     0.61548	5.88976e+007	3.73608e+010	1.58397e+010	-1.15475e+008	1.15475e+008	          95	
 79	  5	               delay	           0	
 80	  5	          incubation	           0	
 81	  5	                [E]i	           0	
 82	  5	                [S]i	           0	
 83	  5	             [E.S1]i	           0	
 84	  5	              [E.P]i	           0	
 85	  5	            dilution	           0	
 86	  5	           intensive	           0	
 87	  6	                time	           0	
 88	  6	             restart	           0	
 89	  6	                 [E]	           1	    0.909091	         1.1	    0.909091	     6731.05	2.89073e+006	1.22557e+006	      -13196	     13197.8	          95	
 90	  6	                 [S]	           3	     2.72727	         3.3	         3.3	     24434.1	2.89077e+006	1.22559e+006	    -47902.3	     47908.9	          95	
 91	  6	              [E.S1]	           0	
 92	  6	               [E.P]	           0	
 93	  6	                r(S)	           0	
 94	  6	              offset	     0.97752	     -INFTY	     +INFTY	     0.57661	5.88976e+007	3.98793e+010	1.69075e+010	-1.15475e+008	1.15475e+008	          95	
 95	  6	               delay	           0	
 96	  6	          incubation	           0	
 97	  6	                [E]i	           0	
 98	  6	                [S]i	           0	
 99	  6	             [E.S1]i	           0	
100	  6	              [E.P]i	           0	
101	  6	            dilution	           0	
102	  6	           intensive	           0	
103	  7	                time	           0	
104	  7	             restart	           0	
105	  7	                 [E]	           1	    0.909091	         1.1	    0.919805	     6810.37	2.89073e+006	1.22557e+006	    -13351.5	     13353.4	          95	
106	  7	                 [S]	           4	     3.63636	         4.4	         4.4	     32578.4	2.89075e+006	1.22558e+006	      -63869	     63877.8	          95	
107	  7	              [E.S1]	           0	
108	  7	               [E.P]	           0	
109	  7	                r(S)	           0	
110	  7	              offset	     0.95791	     -INFTY	     +INFTY	    0.538212	5.95917e+007	 4.3228e+010	1.83272e+010	-1.16836e+008	1.16836e+008	          95	
111	  7	               delay	           0	
112	  7	          incubation	           0	
113	  7	                [E]i	           0	
114	  7	                [S]i	           0	
115	  7	             [E.S1]i	           0	
116	  7	              [E.P]i	           0	
117	  7	            dilution	           0	
118	  7	           intensive	           0	
