%!PS-Adobe-3.0 EPSF-3.0
%%BoundingBox: 0 0 514 550
%%Creator: BioKin Ltd.
%%DocumentFonts: Symbol Helvetica
%%EndComments
%
/bkdict 256 dict def
bkdict begin
/M {moveto} def 
/R {rmoveto} def
/L {lineto} def
/rL {rlineto} def
/GSN {gsave newpath} def
/SGR {stroke grestore} def
/COSGR {gsave setrgbcolor stroke grestore grestore} def
/SL {setlinewidth} def
/LWMB {12} def             % line width - model curves, black & white
/LWMC {10} def             % line width - model curves, color
/L2 {2.5 setlinewidth} def
/L5 {5 setlinewidth} def
/L10 {10 setlinewidth} def
/G50 {0.5 setgray} def
/SDA {[10  20] 0 setdash} def % axes
/helvT {/Helvetica findfont 100 scalefont setfont} def % tiny
/helvS {/Helvetica findfont 125 scalefont setfont} def % small
/helvM {/Helvetica findfont 150 scalefont setfont} def % medium
/helvL {/Helvetica findfont 175 scalefont setfont} def % large
/xlabel {gsave M dup
   stringwidth exch -0.5 mul exch rmoveto show grestore} def 
/ylabel {gsave M 90 rotate dup
   stringwidth exch -0.5 mul exch rmoveto show grestore} def
/ylabelresid {gsave M dup
   stringwidth exch -1 mul exch rmoveto show grestore} def
% ======
% Shapes
% ======
% Circle:
/Circ {0 360 arc closepath} def
%
% Square:
/Squa {dup dup -0.5 mul dup dup R -2 mul 0 exch rL 1 mul 0 rL dup 0 exch -1 mul rL closepath} def
%
% Triangle Up:
/TriU {dup dup dup -0.4 mul exch -0.5 mul exch R dup 0.5 mul exch rL dup -1 mul exch 0.5 mul exch rL closepath} def 
%
% Triangle Down:
/TriD {dup dup dup 0.4 mul exch -0.5 mul exch R dup 0.5 mul exch -1 mul rL dup 0.5 mul exch rL closepath} def 
%
% Diamond:
/Diam {45 rotate Squa} def
% ======
% Fills
% ======
/GRF {gsave setgray fill grestore} def                    % gray-level Fill
/COF {gsave setrgbcolor fill grestore} def                % color fill
% ======
% Colors
% ======
/C01 {1.00	0.00	0.00} def      % Red
/C02 {0.00	0.00	1.00} def      % Blue
/C03 {0.00	0.39	0.00} def      % Dark Green
/C04 {0.78	0.08	0.52} def      % Medium Violet Red
/C05 {0.55	0.27	0.07} def      % Saddle Brown
/C06 {0.10	0.70	0.70} def      % (cyan)
/C07 {1.00	0.55	0.00} def      % Dark Orange
/C08 {0.63	0.13	0.94} def      % Purple
/C09 {0.00	0.75	1.00} def      % Deep Sky Blue
/C10 {0.20	0.80	0.20} def      % Lime Green
/C11 {0.47	0.53	0.60} def      % Light Slate Gray
/C12 {0.00	0.00	0.00} def      % Black            % or: {0.19	0.31	0.31} def      % Dark Slate Gray
%
/LGR {0.75} def % light gray
/DGR {0.33} def % dark gray
%
% =============
% Dash patterns
% =============
/dash01 { [80  20] 0 setdash } def
/dash02 { [40  20] 0 setdash } def
/dash03 { [80  20  10  20] 0 setdash } def
/dash04 { [40  20  10  20] 0 setdash } def
/dash05 { [80  20  10  10  10  20] 0 setdash } def
/dash06 { [40  20  10  10  10  20] 0 setdash } def
/dash07 { [10  10] 0 setdash } def
%
/MFshow {
   { dup 5 get 3 ge
     { 5 get 3 eq {gsave} {grestore} ifelse }
     {dup dup 0 get findfont exch 1 get scalefont setfont
     [ currentpoint ] exch dup 2 get 0 exch R dup 5 get 2 ne {dup dup 6
     get exch 4 get {show} {stringwidth pop 0 R} ifelse }if dup 5 get 0 eq
     {dup 3 get {2 get neg 0 exch R pop} {pop aload pop M} ifelse} {dup 5
     get 1 eq {dup 2 get exch dup 3 get exch 6 get stringwidth pop -2 div
     dup 0 R} {dup 6 get stringwidth pop -2 div 0 R 6 get
     show 2 index {aload pop M neg 3 -1 roll neg R pop pop} {pop pop pop
     pop aload pop M} ifelse }ifelse }ifelse }
     ifelse }
   forall} bind def
/MFwidth {0 exch {dup 3 get{dup dup 0 get findfont exch 1 get scalefont
     setfont 6 get stringwidth pop add} {pop} ifelse} forall} bind def
/MCshow { currentpoint stroke M
  exch dup MFwidth -2 div 3 -1 roll R MFshow } def
%
end
%%EndProlog
bkdict begin
0.1 0.1 scale
%
% Model curves:
%

GSN 753 5166 M
753 5166 L
786 5163 L
820 5160 L
853 5157 L
886 5153 L
903 5150 L
919 5148 L
953 5143 L
986 5137 L
1020 5131 L
1053 5124 L
1053 5124 L
1086 5116 L
1120 5108 L
1153 5099 L
1186 5090 L
1203 5085 L
1220 5081 L
1253 5071 L
1286 5061 L
1320 5051 L
1353 5041 L
1353 5041 L
1386 5032 L
1420 5022 L
1453 5014 L
1486 5006 L
1503 5002 L
1520 4998 L
1553 4990 L
1586 4982 L
1620 4974 L
1653 4965 L
1653 4965 L
1686 4955 L
1720 4944 L
1753 4931 L
1786 4915 L
1804 4907 L
1820 4898 L
1853 4878 L
1886 4854 L
1920 4827 L
1953 4796 L
1954 4795 L
1986 4760 L
2020 4720 L
2053 4673 L
2086 4621 L
2104 4590 L
2120 4562 L
2153 4495 L
2186 4421 L
2220 4338 L
2253 4247 L
2254 4244 L
2286 4148 L
2320 4040 L
2353 3925 L
2386 3804 L
2404 3737 L
2420 3678 L
2453 3549 L
2486 3418 L
2520 3289 L
2553 3164 L
2554 3159 L
2586 3045 L
2620 2934 L
2653 2833 L
2686 2743 L
2704 2699 L
2720 2665 L
2753 2599 L
2786 2546 L
2820 2503 L
2853 2470 L
2854 2469 L
2886 2446 L
2920 2430 L
2953 2419 L
2986 2412 L
3004 2410 L
3020 2409 L
3053 2407 L
3068 2407 L
3086 2407 L
3120 2407 L
3153 2406 L
3155 2406 L
3186 2406 L
3220 2406 L
3253 2406 L
3286 2406 L
3305 2406 L
3320 2406 L
3353 2406 L
3386 2406 L
3420 2406 L
3453 2406 L
3455 2406 L
3486 2406 L
3520 2406 L
3553 2406 L
3586 2406 L
3605 2406 L
3620 2406 L
3653 2406 L
3686 2406 L
3720 2406 L
3753 2406 L
3755 2406 L
3786 2406 L
3820 2406 L
3853 2406 L
3886 2406 L
3905 2406 L
3920 2406 L
3953 2406 L
3986 2406 L
4020 2406 L
4053 2406 L
4086 2406 L
LWMC SL  C02 COSGR

%
% Experimental data:
%
GSN 773 4498 M
1625 4218 L
1773 4672 L
1860 4438 L
1922 4748 L
1970 4505 L
2009 4568 L
2043 4547 L
2072 4385 L
2097 4249 L
2120 4414 L
2140 4319 L
2159 4539 L
2176 4259 L
2192 4331 L
2207 4290 L
2221 4293 L
2234 4205 L
2247 4124 L
2259 4129 L
2270 3961 L
2280 3996 L
2290 4177 L
2300 4015 L
2309 3916 L
2318 4184 L
2326 4025 L
2335 4044 L
2342 3969 L
2350 4054 L
2357 3961 L
2364 3736 L
2371 3990 L
2378 3708 L
2384 4036 L
2391 4025 L
2397 3673 L
2403 4007 L
2409 3499 L
2414 4014 L
2420 3800 L
2425 3920 L
2430 3649 L
2435 3881 L
2440 3836 L
2445 3657 L
2450 3627 L
2455 3666 L
2459 3802 L
2464 3695 L
2468 3647 L
2472 3777 L
2476 3604 L
2481 3582 L
2485 3594 L
2489 3613 L
2492 3500 L
2496 3690 L
2500 3609 L
2504 3437 L
2507 3413 L
2511 3731 L
2514 3328 L
2518 3649 L
2521 3333 L
2525 3560 L
2528 3197 L
2531 3400 L
2534 3158 L
2538 3391 L
2541 3412 L
2544 3262 L
2547 3234 L
2550 3442 L
2553 3089 L
2556 3066 L
2559 3429 L
2561 3089 L
2564 3089 L
2567 3219 L
2570 3432 L
2580 2994 L
2590 2962 L
2600 3107 L
2609 3079 L
2618 3020 L
2627 3098 L
2635 3018 L
2643 2803 L
2650 2731 L
2658 2643 L
2665 2750 L
2672 2784 L
2678 2815 L
2685 2464 L
2691 2556 L
2697 2800 L
2703 2690 L
2709 2395 L
2714 2827 L
2720 2738 L
2725 2624 L
2730 2633 L
2735 2549 L
2740 2590 L
2745 2407 L
2750 2205 L
2755 2378 L
2759 2295 L
2764 2520 L
2768 2506 L
2772 2532 L
2777 2450 L
2781 2274 L
2785 2263 L
2789 2494 L
2793 2140 L
2796 2380 L
2800 2010 L
2804 2431 L
2808 2124 L
2811 2148 L
2815 2225 L
2818 2472 L
2822 2254 L
2825 2529 L
2828 2479 L
2831 2014 L
2835 2274 L
2838 2027 L
2841 2303 L
2844 2211 L
2847 2097 L
2850 1833 L
2853 2322 L
2856 2070 L
2859 2133 L
2862 2314 L
2864 2406 L
2867 2167 L
2870 2174 L
2873 1971 L
2875 2008 L
2878 1978 L
2880 2150 L
2883 2191 L
2886 2293 L
2888 2102 L
2891 2314 L
2893 2171 L
2895 2118 L
2898 2116 L
2900 2039 L
2902 1939 L
2905 2041 L
2907 2075 L
2909 2025 L
2912 1979 L
2914 2114 L
2916 2080 L
2918 2136 L
2920 2280 L
2922 2326 L
2925 2356 L
2927 2111 L
2929 2290 L
2931 2498 L
2933 2159 L
2935 2206 L
2937 2133 L
2939 2406 L
2941 2077 L
2943 2118 L
2945 2280 L
2947 2295 L
2948 2222 L
2950 2049 L
2952 2302 L
2954 2326 L
2956 2182 L
2958 2102 L
2959 2305 L
2961 2283 L
2963 2240 L
2965 2005 L
2966 2303 L
2968 2155 L
2970 2225 L
2972 2075 L
2973 2597 L
2975 2380 L
2977 2065 L
2978 2515 L
2980 2087 L
2982 2309 L
2983 2491 L
2985 2317 L
2986 2377 L
2988 2402 L
2989 2486 L
2991 2383 L
2993 2493 L
2994 1993 L
2996 2141 L
2997 2351 L
2999 2256 L
3000 2271 L
3002 2216 L
3003 2315 L
3005 2227 L
3006 2278 L
3007 2312 L
3009 2477 L
3010 2401 L
3012 2336 L
3013 2441 L
3014 2235 L
3016 2314 L
3017 2193 L
3019 2281 L
3020 2263 L
3021 2493 L
3023 2358 L
3024 2278 L
3025 2283 L
3027 2454 L
3028 2658 L
3029 2332 L
3031 2476 L
3032 2145 L
3033 2309 L
3034 2338 L
3036 2356 L
3037 2300 L
3038 2457 L
3039 2517 L
3041 2382 L
3042 2564 L
3043 2268 L
3044 2044 L
3045 2486 L
3047 2210 L
3048 2575 L
3049 2598 L
3050 2423 L
3051 2010 L
3053 2402 L
3054 2615 L
3055 2445 L
3056 2256 L
3057 2474 L
3058 2523 L
3059 2636 L
3061 2385 L
3062 2394 L
3063 2474 L
3064 2534 L
3065 2443 L
3066 2484 L
3067 2448 L
3068 2476 L
3069 2312 L
3070 2399 L
3071 2563 L
3073 2453 L
3074 2356 L
3075 2455 L
3076 2409 L
3077 2389 L
3078 2341 L
3079 2119 L
3080 2264 L
3081 2471 L
3082 2595 L
3083 2448 L
3084 2494 L
3085 2587 L
3086 2361 L
3087 2540 L
3088 2454 L
3089 2364 L
3112 2602 L
3133 2536 L
3152 2903 L
3170 2643 L
3186 2511 L
3201 2498 L
3216 2400 L
3229 2655 L
3241 2511 L
3253 2734 L
3264 2580 L
3275 2807 L
3285 2789 L
3295 2748 L
3304 2918 L
3313 2768 L
3322 2711 L
3330 2764 L
3338 2896 L
3346 2852 L
3353 2648 L
3360 2889 L
3367 2707 L
3374 2687 L
3380 2921 L
3387 2477 L
3393 2805 L
3399 2682 L
3405 2818 L
3410 2891 L
3416 2536 L
3421 2580 L
3426 2852 L
3431 2914 L
3436 2837 L
3441 2616 L
3446 2389 L
3451 2796 L
3455 2550 L
3460 2502 L
3464 2700 L
3469 2871 L
3473 2493 L
3477 2607 L
3481 2736 L
3485 2621 L
3489 2768 L
3493 2782 L
3496 2971 L
3500 2809 L
3504 2934 L
3507 2566 L
3511 2809 L
3514 2707 L
3518 2925 L
3521 2555 L
3525 2439 L
3528 2400 L
3531 2855 L
3534 2628 L
3537 2893 L
3540 2696 L
3543 2693 L
3546 2721 L
3549 2741 L
3552 2730 L
3555 2523 L
3558 2600 L
3561 2739 L
3564 2746 L
3566 2580 L
3575 2459 L
3586 2591 L
3595 2607 L
3605 2498 L
3613 2500 L
3622 2514 L
3630 2552 L
3638 2730 L
3646 2739 L
3653 2525 L
3660 2646 L
3667 2357 L
3674 2500 L
3681 2477 L
3687 2650 L
3693 2757 L
3699 2341 L
3705 2643 L
3710 2377 L
3716 2377 L
3721 2418 L
3727 2477 L
3732 2414 L
3737 2398 L
3742 2530 L
3746 2448 L
3751 2614 L
3756 2377 L
3760 2380 L
3764 2655 L
3769 2309 L
3773 2632 L
3777 2427 L
3781 2580 L
3785 2489 L
3789 2600 L
3793 2352 L
3797 2493 L
3800 2402 L
3804 2361 L
3808 2441 L
3811 2468 L
3815 2609 L
3818 2118 L
3821 2630 L
3825 2384 L
3828 2334 L
3831 2577 L
3834 2298 L
3838 2398 L
3841 2361 L
3844 2350 L
3847 2352 L
3850 2261 L
3853 2607 L
3855 2250 L
3858 2307 L
3861 2343 L
3864 2239 L
3867 2198 L
3869 2391 L
3872 2532 L
3875 2389 L
3877 2436 L
3880 2493 L
3882 2680 L
3885 2455 L
3887 2566 L
3890 2714 L
3892 2557 L
3895 2352 L
3897 2400 L
3899 2652 L
3902 2414 L
3904 2405 L
3906 2100 L
3908 2621 L
3911 2195 L
3913 2364 L
3915 2466 L
3917 2384 L
3919 2252 L
3921 2359 L
3923 2534 L
3926 2493 L
3928 2589 L
3930 2691 L
3932 2348 L
3934 2755 L
3936 2396 L
3938 2437 L
3940 2266 L
3942 2439 L
3943 2291 L
3945 2516 L
3947 2318 L
3949 2462 L
3951 2357 L
3953 2432 L
3955 2457 L
3956 2289 L
3958 2566 L
3960 2241 L
3962 2534 L
3963 2445 L
3965 2555 L
3967 2345 L
3969 2177 L
3970 2252 L
3972 2236 L
3974 2380 L
3975 2470 L
3977 2380 L
3978 2305 L
3980 2628 L
3982 2254 L
3983 2659 L
3985 2598 L
3986 2025 L
3988 2239 L
3990 2352 L
3991 2641 L
3993 2268 L
3994 2493 L
3996 2473 L
3997 2218 L
3999 2095 L
4000 2316 L
4001 2386 L
4003 2455 L
4004 2473 L
4006 2348 L
4007 2375 L
4009 2521 L
4010 2252 L
4011 2252 L
4013 2496 L
4014 2462 L
4016 2364 L
4017 2252 L
4018 2355 L
4020 2582 L
4021 2186 L
4022 2068 L
4024 2118 L
4025 2473 L
4026 2382 L
4028 2246 L
4029 2593 L
4030 2455 L
4031 2273 L
4033 2198 L
4034 2239 L
4035 2305 L
4036 2345 L
4038 2259 L
4039 2168 L
4040 2514 L
4041 2257 L
4042 2327 L
4044 2618 L
4045 2305 L
4046 2075 L
4047 2421 L
4048 2136 L
4050 2505 L
4051 2441 L
4052 2364 L
4053 2232 L
4054 2568 L
4055 2186 L
4056 2400 L
4058 2311 L
4059 2575 L
4060 2405 L
4061 2325 L
4062 2398 L
4063 2432 L
4064 2541 L
4065 2359 L
4066 2407 L
L2 C02 COSGR

%
%================
% Legend - Begin
%================
%
GSN 4240 5180 M
4480 5180 L
LWMC SL  C02 COSGR
GSN 4540 5141 M helvM (1.0 uM) show grestore
%
%================
% Legend - End
%================
%

%
% Residuals:
%
GSN 773 805 M
1625 750 L
1773 1064 L
1860 949 L
1922 1171 L
1970 1049 L
2009 1116 L
2043 1131 L
2072 1058 L
2097 999 L
2120 1128 L
2140 1093 L
2159 1254 L
2176 1104 L
2192 1172 L
2207 1170 L
2221 1194 L
2234 1161 L
2247 1132 L
2259 1156 L
2270 1071 L
2280 1113 L
2290 1245 L
2300 1163 L
2309 1120 L
2318 1304 L
2326 1224 L
2335 1253 L
2342 1223 L
2350 1292 L
2357 1250 L
2364 1127 L
2371 1300 L
2378 1140 L
2384 1358 L
2391 1366 L
2397 1162 L
2403 1383 L
2409 1081 L
2414 1414 L
2420 1295 L
2425 1382 L
2430 1226 L
2435 1382 L
2440 1366 L
2445 1267 L
2450 1260 L
2455 1295 L
2459 1391 L
2464 1335 L
2468 1316 L
2472 1407 L
2476 1310 L
2481 1307 L
2485 1324 L
2489 1345 L
2492 1285 L
2496 1411 L
2500 1371 L
2504 1273 L
2507 1267 L
2511 1472 L
2514 1231 L
2518 1438 L
2521 1250 L
2525 1399 L
2528 1181 L
2531 1315 L
2534 1172 L
2538 1325 L
2541 1345 L
2544 1259 L
2547 1249 L
2550 1384 L
2553 1172 L
2556 1164 L
2559 1396 L
2561 1192 L
2564 1198 L
2567 1285 L
2570 1423 L
2580 1175 L
2590 1176 L
2600 1286 L
2609 1288 L
2618 1269 L
2627 1334 L
2635 1300 L
2643 1182 L
2650 1151 L
2658 1109 L
2665 1188 L
2672 1221 L
2678 1251 L
2685 1043 L
2691 1110 L
2697 1270 L
2703 1211 L
2709 1037 L
2714 1312 L
2720 1264 L
2725 1201 L
2730 1213 L
2735 1167 L
2740 1198 L
2745 1091 L
2750 971 L
2755 1084 L
2759 1037 L
2764 1181 L
2768 1177 L
2772 1197 L
2777 1151 L
2781 1045 L
2785 1042 L
2789 1189 L
2793 973 L
2796 1125 L
2800 898 L
2804 1163 L
2808 975 L
2811 993 L
2815 1043 L
2818 1199 L
2822 1066 L
2825 1238 L
2828 1210 L
2831 923 L
2835 1087 L
2838 936 L
2841 1109 L
2844 1053 L
2847 984 L
2850 822 L
2853 1127 L
2856 972 L
2859 1013 L
2862 1126 L
2864 1184 L
2867 1038 L
2870 1043 L
2873 918 L
2875 943 L
2878 925 L
2880 1033 L
2883 1059 L
2886 1124 L
2888 1006 L
2891 1138 L
2893 1050 L
2895 1018 L
2898 1018 L
2900 971 L
2902 909 L
2905 973 L
2907 995 L
2909 965 L
2912 937 L
2914 1022 L
2916 1001 L
2918 1036 L
2920 1126 L
2922 1155 L
2925 1174 L
2927 1023 L
2929 1134 L
2931 1264 L
2933 1054 L
2935 1084 L
2937 1039 L
2939 1208 L
2941 1004 L
2943 1030 L
2945 1131 L
2947 1141 L
2948 1096 L
2950 989 L
2952 1146 L
2954 1161 L
2956 1072 L
2958 1023 L
2959 1149 L
2961 1136 L
2963 1109 L
2965 964 L
2966 1149 L
2968 1057 L
2970 1101 L
2972 1008 L
2973 1332 L
2975 1197 L
2977 1002 L
2978 1281 L
2980 1016 L
2982 1154 L
2983 1267 L
2985 1159 L
2986 1196 L
2988 1212 L
2989 1264 L
2991 1201 L
2993 1269 L
2994 959 L
2996 1051 L
2997 1181 L
2999 1122 L
3000 1132 L
3002 1098 L
3003 1160 L
3005 1105 L
3006 1137 L
3007 1158 L
3009 1260 L
3010 1213 L
3012 1173 L
3013 1238 L
3014 1111 L
3016 1159 L
3017 1084 L
3019 1139 L
3020 1128 L
3021 1271 L
3023 1187 L
3024 1137 L
3025 1141 L
3027 1246 L
3028 1373 L
3029 1171 L
3031 1260 L
3032 1055 L
3033 1157 L
3034 1175 L
3036 1186 L
3037 1152 L
3038 1249 L
3039 1286 L
3041 1203 L
3042 1316 L
3043 1132 L
3044 993 L
3045 1267 L
3047 1096 L
3048 1322 L
3049 1337 L
3050 1228 L
3051 972 L
3053 1215 L
3054 1348 L
3055 1242 L
3056 1125 L
3057 1260 L
3058 1291 L
3059 1360 L
3061 1205 L
3062 1210 L
3063 1260 L
3064 1297 L
3065 1241 L
3066 1266 L
3067 1244 L
3068 1261 L
3069 1160 L
3070 1214 L
3071 1315 L
3073 1247 L
3074 1187 L
3075 1249 L
3076 1220 L
3077 1207 L
3078 1178 L
3079 1040 L
3080 1130 L
3081 1258 L
3082 1335 L
3083 1244 L
3084 1273 L
3085 1330 L
3086 1190 L
3087 1301 L
3088 1248 L
3089 1192 L
3112 1340 L
3133 1299 L
3152 1526 L
3170 1366 L
3186 1284 L
3201 1275 L
3216 1215 L
3229 1373 L
3241 1284 L
3253 1422 L
3264 1326 L
3275 1467 L
3285 1456 L
3295 1431 L
3304 1536 L
3313 1443 L
3322 1408 L
3330 1440 L
3338 1522 L
3346 1495 L
3353 1368 L
3360 1518 L
3367 1405 L
3374 1392 L
3380 1538 L
3387 1263 L
3393 1466 L
3399 1389 L
3405 1474 L
3410 1519 L
3416 1299 L
3421 1326 L
3426 1495 L
3431 1533 L
3436 1485 L
3441 1349 L
3446 1208 L
3451 1460 L
3455 1308 L
3460 1278 L
3464 1401 L
3469 1507 L
3473 1272 L
3477 1343 L
3481 1423 L
3485 1351 L
3489 1443 L
3493 1452 L
3496 1569 L
3500 1469 L
3504 1546 L
3507 1318 L
3511 1469 L
3514 1405 L
3518 1540 L
3521 1311 L
3525 1239 L
3528 1215 L
3531 1497 L
3534 1356 L
3537 1521 L
3540 1398 L
3543 1397 L
3546 1414 L
3549 1426 L
3552 1419 L
3555 1291 L
3558 1339 L
3561 1425 L
3564 1429 L
3566 1326 L
3575 1251 L
3586 1333 L
3595 1343 L
3605 1275 L
3613 1277 L
3622 1285 L
3630 1309 L
3638 1419 L
3646 1425 L
3653 1292 L
3660 1367 L
3667 1188 L
3674 1277 L
3681 1263 L
3687 1370 L
3693 1436 L
3699 1178 L
3705 1366 L
3710 1201 L
3716 1200 L
3721 1226 L
3727 1263 L
3732 1223 L
3737 1213 L
3742 1295 L
3746 1244 L
3751 1347 L
3756 1200 L
3760 1202 L
3764 1373 L
3769 1158 L
3773 1358 L
3777 1232 L
3781 1326 L
3785 1270 L
3789 1339 L
3793 1185 L
3797 1272 L
3800 1216 L
3804 1191 L
3808 1240 L
3811 1257 L
3815 1344 L
3818 1040 L
3821 1357 L
3825 1205 L
3828 1174 L
3831 1325 L
3834 1151 L
3838 1213 L
3841 1191 L
3844 1184 L
3847 1185 L
3850 1129 L
3853 1343 L
3855 1122 L
3858 1157 L
3861 1179 L
3864 1115 L
3867 1089 L
3869 1209 L
3872 1297 L
3875 1208 L
3877 1237 L
3880 1272 L
3882 1388 L
3885 1248 L
3887 1318 L
3890 1409 L
3892 1312 L
3895 1185 L
3897 1215 L
3899 1371 L
3902 1223 L
3904 1217 L
3906 1029 L
3908 1352 L
3911 1088 L
3913 1192 L
3915 1256 L
3917 1205 L
3919 1123 L
3921 1189 L
3923 1298 L
3926 1272 L
3928 1332 L
3930 1395 L
3932 1182 L
3934 1435 L
3936 1212 L
3938 1237 L
3940 1131 L
3942 1239 L
3943 1147 L
3945 1287 L
3947 1164 L
3949 1253 L
3951 1188 L
3953 1234 L
3955 1250 L
3956 1146 L
3958 1318 L
3960 1116 L
3962 1298 L
3963 1243 L
3965 1311 L
3967 1181 L
3969 1076 L
3970 1123 L
3972 1113 L
3974 1202 L
3975 1258 L
3977 1202 L
3978 1155 L
3980 1356 L
3982 1124 L
3983 1375 L
3985 1337 L
3986 982 L
3988 1115 L
3990 1185 L
3991 1364 L
3993 1133 L
3994 1272 L
3996 1260 L
3997 1102 L
3999 1026 L
4000 1163 L
4001 1206 L
4003 1248 L
4004 1260 L
4006 1182 L
4007 1199 L
4009 1289 L
4010 1123 L
4011 1123 L
4013 1274 L
4014 1253 L
4016 1192 L
4017 1123 L
4018 1186 L
4020 1327 L
4021 1082 L
4022 1009 L
4024 1040 L
4025 1260 L
4026 1203 L
4028 1119 L
4029 1334 L
4030 1249 L
4031 1136 L
4033 1089 L
4034 1115 L
4035 1155 L
4036 1181 L
4038 1127 L
4039 1071 L
4040 1285 L
4041 1126 L
4042 1170 L
4044 1350 L
4045 1155 L
4046 1013 L
4047 1227 L
4048 1051 L
4050 1280 L
4051 1240 L
4052 1192 L
4053 1110 L
4054 1319 L
4055 1082 L
4056 1215 L
4058 1160 L
4059 1323 L
4060 1217 L
4061 1168 L
4062 1213 L
4063 1234 L
4064 1302 L
4065 1189 L
4066 1219 L
L2 C02 COSGR

%
% Main frame
%
L10
GSN 
620 1700 M
4220 1700 L
4220 5300 L
620 5300 L
closepath SGR

%
% X axis: large tics
%
L10
GSN 1074 1700 M 0  54 rL SGR
GSN 1074 5300 M 0 -54 rL SGR
helvS (0.0001) 1074 470 xlabel
GSN 1572 1700 M 0  54 rL SGR
GSN 1572 5300 M 0 -54 rL SGR
helvS (0.001) 1572 470 xlabel
GSN 2071 1700 M 0  54 rL SGR
GSN 2071 5300 M 0 -54 rL SGR
helvS (0.01) 2071 470 xlabel
GSN 2570 1700 M 0  54 rL SGR
GSN 2570 5300 M 0 -54 rL SGR
helvS (0.1) 2570 470 xlabel
GSN 3068 1700 M 0  54 rL SGR
GSN 3068 5300 M 0 -54 rL SGR
helvS (1) 3068 470 xlabel
GSN 3567 1700 M 0  54 rL SGR
GSN 3567 5300 M 0 -54 rL SGR
helvS (10) 3567 470 xlabel
GSN 4066 1700 M 0  54 rL SGR
GSN 4066 5300 M 0 -54 rL SGR
helvS (100) 4066 470 xlabel
%
% X axis: small tics
%
L5
GSN 725 1700 M 0  36 rL SGR
GSN 725 5300 M 0 -36 rL SGR
GSN 813 1700 M 0  36 rL SGR
GSN 813 5300 M 0 -36 rL SGR
GSN 875 1700 M 0  36 rL SGR
GSN 875 5300 M 0 -36 rL SGR
GSN 924 1700 M 0  36 rL SGR
GSN 924 5300 M 0 -36 rL SGR
GSN 963 1700 M 0  36 rL SGR
GSN 963 5300 M 0 -36 rL SGR
GSN 996 1700 M 0  36 rL SGR
GSN 996 5300 M 0 -36 rL SGR
GSN 1025 1700 M 0  36 rL SGR
GSN 1025 5300 M 0 -36 rL SGR
GSN 1051 1700 M 0  36 rL SGR
GSN 1051 5300 M 0 -36 rL SGR
GSN 1224 1700 M 0  36 rL SGR
GSN 1224 5300 M 0 -36 rL SGR
GSN 1312 1700 M 0  36 rL SGR
GSN 1312 5300 M 0 -36 rL SGR
GSN 1374 1700 M 0  36 rL SGR
GSN 1374 5300 M 0 -36 rL SGR
GSN 1422 1700 M 0  36 rL SGR
GSN 1422 5300 M 0 -36 rL SGR
GSN 1462 1700 M 0  36 rL SGR
GSN 1462 5300 M 0 -36 rL SGR
GSN 1495 1700 M 0  36 rL SGR
GSN 1495 5300 M 0 -36 rL SGR
GSN 1524 1700 M 0  36 rL SGR
GSN 1524 5300 M 0 -36 rL SGR
GSN 1550 1700 M 0  36 rL SGR
GSN 1550 5300 M 0 -36 rL SGR
GSN 1722 1700 M 0  36 rL SGR
GSN 1722 5300 M 0 -36 rL SGR
GSN 1810 1700 M 0  36 rL SGR
GSN 1810 5300 M 0 -36 rL SGR
GSN 1873 1700 M 0  36 rL SGR
GSN 1873 5300 M 0 -36 rL SGR
GSN 1921 1700 M 0  36 rL SGR
GSN 1921 5300 M 0 -36 rL SGR
GSN 1960 1700 M 0  36 rL SGR
GSN 1960 5300 M 0 -36 rL SGR
GSN 1994 1700 M 0  36 rL SGR
GSN 1994 5300 M 0 -36 rL SGR
GSN 2023 1700 M 0  36 rL SGR
GSN 2023 5300 M 0 -36 rL SGR
GSN 2048 1700 M 0  36 rL SGR
GSN 2048 5300 M 0 -36 rL SGR
GSN 2221 1700 M 0  36 rL SGR
GSN 2221 5300 M 0 -36 rL SGR
GSN 2309 1700 M 0  36 rL SGR
GSN 2309 5300 M 0 -36 rL SGR
GSN 2371 1700 M 0  36 rL SGR
GSN 2371 5300 M 0 -36 rL SGR
GSN 2420 1700 M 0  36 rL SGR
GSN 2420 5300 M 0 -36 rL SGR
GSN 2459 1700 M 0  36 rL SGR
GSN 2459 5300 M 0 -36 rL SGR
GSN 2492 1700 M 0  36 rL SGR
GSN 2492 5300 M 0 -36 rL SGR
GSN 2521 1700 M 0  36 rL SGR
GSN 2521 5300 M 0 -36 rL SGR
GSN 2547 1700 M 0  36 rL SGR
GSN 2547 5300 M 0 -36 rL SGR
GSN 2720 1700 M 0  36 rL SGR
GSN 2720 5300 M 0 -36 rL SGR
GSN 2808 1700 M 0  36 rL SGR
GSN 2808 5300 M 0 -36 rL SGR
GSN 2870 1700 M 0  36 rL SGR
GSN 2870 5300 M 0 -36 rL SGR
GSN 2918 1700 M 0  36 rL SGR
GSN 2918 5300 M 0 -36 rL SGR
GSN 2958 1700 M 0  36 rL SGR
GSN 2958 5300 M 0 -36 rL SGR
GSN 2991 1700 M 0  36 rL SGR
GSN 2991 5300 M 0 -36 rL SGR
GSN 3020 1700 M 0  36 rL SGR
GSN 3020 5300 M 0 -36 rL SGR
GSN 3045 1700 M 0  36 rL SGR
GSN 3045 5300 M 0 -36 rL SGR
GSN 3218 1700 M 0  36 rL SGR
GSN 3218 5300 M 0 -36 rL SGR
GSN 3306 1700 M 0  36 rL SGR
GSN 3306 5300 M 0 -36 rL SGR
GSN 3368 1700 M 0  36 rL SGR
GSN 3368 5300 M 0 -36 rL SGR
GSN 3417 1700 M 0  36 rL SGR
GSN 3417 5300 M 0 -36 rL SGR
GSN 3456 1700 M 0  36 rL SGR
GSN 3456 5300 M 0 -36 rL SGR
GSN 3490 1700 M 0  36 rL SGR
GSN 3490 5300 M 0 -36 rL SGR
GSN 3519 1700 M 0  36 rL SGR
GSN 3519 5300 M 0 -36 rL SGR
GSN 3544 1700 M 0  36 rL SGR
GSN 3544 5300 M 0 -36 rL SGR
GSN 3717 1700 M 0  36 rL SGR
GSN 3717 5300 M 0 -36 rL SGR
GSN 3805 1700 M 0  36 rL SGR
GSN 3805 5300 M 0 -36 rL SGR
GSN 3867 1700 M 0  36 rL SGR
GSN 3867 5300 M 0 -36 rL SGR
GSN 3915 1700 M 0  36 rL SGR
GSN 3915 5300 M 0 -36 rL SGR
GSN 3955 1700 M 0  36 rL SGR
GSN 3955 5300 M 0 -36 rL SGR
GSN 3988 1700 M 0  36 rL SGR
GSN 3988 5300 M 0 -36 rL SGR
GSN 4017 1700 M 0  36 rL SGR
GSN 4017 5300 M 0 -36 rL SGR
GSN 4043 1700 M 0  36 rL SGR
GSN 4043 5300 M 0 -36 rL SGR
GSN 4216 1700 M 0  36 rL SGR
GSN 4216 5300 M 0 -36 rL SGR
%
% Y axis: large tics
%
L10
GSN 620 2565 M 54 0 rL SGR
GSN 4220 2565 M -54 0 rL SGR
helvS (1.1) 560 2565 ylabel
GSN 620 3458 M 54 0 rL SGR
GSN 4220 3458 M -54 0 rL SGR
helvS (1.12) 560 3458 ylabel
GSN 620 4352 M 54 0 rL SGR
GSN 4220 4352 M -54 0 rL SGR
helvS (1.14) 560 4352 ylabel
GSN 620 5246 M 54 0 rL SGR
GSN 4220 5246 M -54 0 rL SGR
helvS (1.16) 560 5246 ylabel
%
% Y axis: small tics
%
L5
GSN 620 1894 M 36 0 rL SGR
GSN 4220 1894 M -36 0 rL SGR
GSN 620 2118 M 36 0 rL SGR
GSN 4220 2118 M -36 0 rL SGR
GSN 620 2341 M 36 0 rL SGR
GSN 4220 2341 M -36 0 rL SGR
GSN 620 2565 M 36 0 rL SGR
GSN 4220 2565 M -36 0 rL SGR
GSN 620 2788 M 36 0 rL SGR
GSN 4220 2788 M -36 0 rL SGR
GSN 620 3011 M 36 0 rL SGR
GSN 4220 3011 M -36 0 rL SGR
GSN 620 3235 M 36 0 rL SGR
GSN 4220 3235 M -36 0 rL SGR
GSN 620 3458 M 36 0 rL SGR
GSN 4220 3458 M -36 0 rL SGR
GSN 620 3682 M 36 0 rL SGR
GSN 4220 3682 M -36 0 rL SGR
GSN 620 3905 M 36 0 rL SGR
GSN 4220 3905 M -36 0 rL SGR
GSN 620 4129 M 36 0 rL SGR
GSN 4220 4129 M -36 0 rL SGR
GSN 620 4352 M 36 0 rL SGR
GSN 4220 4352 M -36 0 rL SGR
GSN 620 4576 M 36 0 rL SGR
GSN 4220 4576 M -36 0 rL SGR
GSN 620 4799 M 36 0 rL SGR
GSN 4220 4799 M -36 0 rL SGR
GSN 620 5023 M 36 0 rL SGR
GSN 4220 5023 M -36 0 rL SGR
GSN 620 5246 M 36 0 rL SGR
GSN 4220 5246 M -36 0 rL SGR

%
% X-Axis label:
%
gsave 2420 290 M 
[
[(Helvetica) 180 0 true true 0 (t)]
[(Helvetica) 180 0 true true 0 (i)]
[(Helvetica) 180 0 true true 0 (m)]
[(Helvetica) 180 0 true true 0 (e)]
] 0 MCshow grestore

%
% Y-Axis label:
%
gsave 234 3500 M 
currentpoint gsave translate 90 rotate 0 0 moveto
[
[(Helvetica) 180 0 true true 0 (s)]
[(Helvetica) 180 0 true true 0 (i)]
[(Helvetica) 180 0 true true 0 (g)]
[(Helvetica) 180 0 true true 0 (n)]
[(Helvetica) 180 0 true true 0 (a)]
[(Helvetica) 180 0 true true 0 (l)]
] 0 MCshow grestore

%
% Residuals:
%
gsave 129 1160 M 
currentpoint gsave translate 90 rotate 0 0 moveto
[
[(Helvetica) 150 0 true true 0 (r)]
[(Helvetica) 150 0 true true 0 (e)]
[(Helvetica) 150 0 true true 0 (s)]
[(Helvetica) 150 0 true true 0 (i)]
[(Helvetica) 150 0 true true 0 (d)]
[(Helvetica) 150 0 true true 0 (u)]
[(Helvetica) 150 0 true true 0 (a)]
[(Helvetica) 150 0 true true 0 (l)]
[(Helvetica) 150 0 true true 0 (s)]
] 0 MCshow grestore

%
% Residual frame
%
L10
GSN 
620 620 M
4220 620 L
4220 1700 L
620 1700 L
closepath SGR
%
% X axis: large tics - residual frame
%
L10
GSN 1074 620 M 0  54 rL SGR
GSN 1074 1700 M 0 -54 rL SGR
GSN 1572 620 M 0  54 rL SGR
GSN 1572 1700 M 0 -54 rL SGR
GSN 2071 620 M 0  54 rL SGR
GSN 2071 1700 M 0 -54 rL SGR
GSN 2570 620 M 0  54 rL SGR
GSN 2570 1700 M 0 -54 rL SGR
GSN 3068 620 M 0  54 rL SGR
GSN 3068 1700 M 0 -54 rL SGR
GSN 3567 620 M 0  54 rL SGR
GSN 3567 1700 M 0 -54 rL SGR
GSN 4066 620 M 0  54 rL SGR
GSN 4066 1700 M 0 -54 rL SGR
%
% X axis: small tics - residual frame
%
L5
GSN 725 620 M 0  36 rL SGR
GSN 725 1700 M 0 -36 rL SGR
GSN 813 620 M 0  36 rL SGR
GSN 813 1700 M 0 -36 rL SGR
GSN 875 620 M 0  36 rL SGR
GSN 875 1700 M 0 -36 rL SGR
GSN 924 620 M 0  36 rL SGR
GSN 924 1700 M 0 -36 rL SGR
GSN 963 620 M 0  36 rL SGR
GSN 963 1700 M 0 -36 rL SGR
GSN 996 620 M 0  36 rL SGR
GSN 996 1700 M 0 -36 rL SGR
GSN 1025 620 M 0  36 rL SGR
GSN 1025 1700 M 0 -36 rL SGR
GSN 1051 620 M 0  36 rL SGR
GSN 1051 1700 M 0 -36 rL SGR
GSN 1224 620 M 0  36 rL SGR
GSN 1224 1700 M 0 -36 rL SGR
GSN 1312 620 M 0  36 rL SGR
GSN 1312 1700 M 0 -36 rL SGR
GSN 1374 620 M 0  36 rL SGR
GSN 1374 1700 M 0 -36 rL SGR
GSN 1422 620 M 0  36 rL SGR
GSN 1422 1700 M 0 -36 rL SGR
GSN 1462 620 M 0  36 rL SGR
GSN 1462 1700 M 0 -36 rL SGR
GSN 1495 620 M 0  36 rL SGR
GSN 1495 1700 M 0 -36 rL SGR
GSN 1524 620 M 0  36 rL SGR
GSN 1524 1700 M 0 -36 rL SGR
GSN 1550 620 M 0  36 rL SGR
GSN 1550 1700 M 0 -36 rL SGR
GSN 1722 620 M 0  36 rL SGR
GSN 1722 1700 M 0 -36 rL SGR
GSN 1810 620 M 0  36 rL SGR
GSN 1810 1700 M 0 -36 rL SGR
GSN 1873 620 M 0  36 rL SGR
GSN 1873 1700 M 0 -36 rL SGR
GSN 1921 620 M 0  36 rL SGR
GSN 1921 1700 M 0 -36 rL SGR
GSN 1960 620 M 0  36 rL SGR
GSN 1960 1700 M 0 -36 rL SGR
GSN 1994 620 M 0  36 rL SGR
GSN 1994 1700 M 0 -36 rL SGR
GSN 2023 620 M 0  36 rL SGR
GSN 2023 1700 M 0 -36 rL SGR
GSN 2048 620 M 0  36 rL SGR
GSN 2048 1700 M 0 -36 rL SGR
GSN 2221 620 M 0  36 rL SGR
GSN 2221 1700 M 0 -36 rL SGR
GSN 2309 620 M 0  36 rL SGR
GSN 2309 1700 M 0 -36 rL SGR
GSN 2371 620 M 0  36 rL SGR
GSN 2371 1700 M 0 -36 rL SGR
GSN 2420 620 M 0  36 rL SGR
GSN 2420 1700 M 0 -36 rL SGR
GSN 2459 620 M 0  36 rL SGR
GSN 2459 1700 M 0 -36 rL SGR
GSN 2492 620 M 0  36 rL SGR
GSN 2492 1700 M 0 -36 rL SGR
GSN 2521 620 M 0  36 rL SGR
GSN 2521 1700 M 0 -36 rL SGR
GSN 2547 620 M 0  36 rL SGR
GSN 2547 1700 M 0 -36 rL SGR
GSN 2720 620 M 0  36 rL SGR
GSN 2720 1700 M 0 -36 rL SGR
GSN 2808 620 M 0  36 rL SGR
GSN 2808 1700 M 0 -36 rL SGR
GSN 2870 620 M 0  36 rL SGR
GSN 2870 1700 M 0 -36 rL SGR
GSN 2918 620 M 0  36 rL SGR
GSN 2918 1700 M 0 -36 rL SGR
GSN 2958 620 M 0  36 rL SGR
GSN 2958 1700 M 0 -36 rL SGR
GSN 2991 620 M 0  36 rL SGR
GSN 2991 1700 M 0 -36 rL SGR
GSN 3020 620 M 0  36 rL SGR
GSN 3020 1700 M 0 -36 rL SGR
GSN 3045 620 M 0  36 rL SGR
GSN 3045 1700 M 0 -36 rL SGR
GSN 3218 620 M 0  36 rL SGR
GSN 3218 1700 M 0 -36 rL SGR
GSN 3306 620 M 0  36 rL SGR
GSN 3306 1700 M 0 -36 rL SGR
GSN 3368 620 M 0  36 rL SGR
GSN 3368 1700 M 0 -36 rL SGR
GSN 3417 620 M 0  36 rL SGR
GSN 3417 1700 M 0 -36 rL SGR
GSN 3456 620 M 0  36 rL SGR
GSN 3456 1700 M 0 -36 rL SGR
GSN 3490 620 M 0  36 rL SGR
GSN 3490 1700 M 0 -36 rL SGR
GSN 3519 620 M 0  36 rL SGR
GSN 3519 1700 M 0 -36 rL SGR
GSN 3544 620 M 0  36 rL SGR
GSN 3544 1700 M 0 -36 rL SGR
GSN 3717 620 M 0  36 rL SGR
GSN 3717 1700 M 0 -36 rL SGR
GSN 3805 620 M 0  36 rL SGR
GSN 3805 1700 M 0 -36 rL SGR
GSN 3867 620 M 0  36 rL SGR
GSN 3867 1700 M 0 -36 rL SGR
GSN 3915 620 M 0  36 rL SGR
GSN 3915 1700 M 0 -36 rL SGR
GSN 3955 620 M 0  36 rL SGR
GSN 3955 1700 M 0 -36 rL SGR
GSN 3988 620 M 0  36 rL SGR
GSN 3988 1700 M 0 -36 rL SGR
GSN 4017 620 M 0  36 rL SGR
GSN 4017 1700 M 0 -36 rL SGR
GSN 4043 620 M 0  36 rL SGR
GSN 4043 1700 M 0 -36 rL SGR
GSN 4216 620 M 0  36 rL SGR
GSN 4216 1700 M 0 -36 rL SGR
%
% Y axis: large tics - residual frame
%
L10
GSN 620 664 M 54 0 rL SGR
GSN 4220 664 M -54 0 rL SGR
helvS (-0.02) 560 664 ylabelresid
GSN 620 941 M 54 0 rL SGR
GSN 4220 941 M -54 0 rL SGR
helvS (-0.01) 560 941 ylabelresid
GSN 620 1219 M 54 0 rL SGR
GSN 4220 1219 M -54 0 rL SGR
helvS (0) 560 1219 ylabelresid
GSN 620 1496 M 54 0 rL SGR
GSN 4220 1496 M -54 0 rL SGR
helvS (0.01) 560 1496 ylabelresid

%
% X axis - residual panel
%
GSN L5 620 1219 M 4220 1219 L SDA G50 SGR

end
showpage
%%Trailer
%%EOF
