%!PS-Adobe-3.0 EPSF-3.0
%%BoundingBox: 0 0 514 442
%%Creator: BioKin Ltd.
%%DocumentFonts: Symbol Helvetica
%%EndComments
%
/bkdict 256 dict def
bkdict begin
/M {moveto} def 
/R {rmoveto} def
/L {lineto} def
/rL {rlineto} def
/GSN {gsave newpath} def
/SGR {stroke grestore} def
/COSGR {gsave setrgbcolor stroke grestore grestore} def
/SL {setlinewidth} def
/LWMB {12} def             % line width - model curves, black & white
/LWMC {10} def             % line width - model curves, color
/L2 {2.5 setlinewidth} def
/L5 {5 setlinewidth} def
/L10 {10 setlinewidth} def
/G50 {0.5 setgray} def
/SDA {[10  20] 0 setdash} def % axes
/helvT {/Helvetica findfont 100 scalefont setfont} def % tiny
/helvS {/Helvetica findfont 125 scalefont setfont} def % small
/helvM {/Helvetica findfont 150 scalefont setfont} def % medium
/helvL {/Helvetica findfont 175 scalefont setfont} def % large
/xlabel {gsave M dup
   stringwidth exch -0.5 mul exch rmoveto show grestore} def 
/ylabel {gsave M 90 rotate dup
   stringwidth exch -0.5 mul exch rmoveto show grestore} def
/ylabelresid {gsave M dup
   stringwidth exch -1 mul exch rmoveto show grestore} def
% ======
% Shapes
% ======
% Circle:
/Circ {0 360 arc closepath} def
%
% Square:
/Squa {dup dup -0.5 mul dup dup R -2 mul 0 exch rL 1 mul 0 rL dup 0 exch -1 mul rL closepath} def
%
% Triangle Up:
/TriU {dup dup dup -0.4 mul exch -0.5 mul exch R dup 0.5 mul exch rL dup -1 mul exch 0.5 mul exch rL closepath} def 
%
% Triangle Down:
/TriD {dup dup dup 0.4 mul exch -0.5 mul exch R dup 0.5 mul exch -1 mul rL dup 0.5 mul exch rL closepath} def 
%
% Diamond:
/Diam {45 rotate Squa} def
% ======
% Fills
% ======
/GRF {gsave setgray fill grestore} def                    % gray-level Fill
/COF {gsave setrgbcolor fill grestore} def                % color fill
% ======
% Colors
% ======
/C01 {1.00	0.00	0.00} def      % Red
/C02 {0.00	0.00	1.00} def      % Blue
/C03 {0.00	0.39	0.00} def      % Dark Green
/C04 {0.78	0.08	0.52} def      % Medium Violet Red
/C05 {0.55	0.27	0.07} def      % Saddle Brown
/C06 {0.10	0.70	0.70} def      % (cyan)
/C07 {1.00	0.55	0.00} def      % Dark Orange
/C08 {0.63	0.13	0.94} def      % Purple
/C09 {0.00	0.75	1.00} def      % Deep Sky Blue
/C10 {0.20	0.80	0.20} def      % Lime Green
/C11 {0.47	0.53	0.60} def      % Light Slate Gray
/C12 {0.00	0.00	0.00} def      % Black            % or: {0.19	0.31	0.31} def      % Dark Slate Gray
%
/LGR {0.75} def % light gray
/DGR {0.33} def % dark gray
%
% =============
% Dash patterns
% =============
/dash01 { [80  20] 0 setdash } def
/dash02 { [40  20] 0 setdash } def
/dash03 { [80  20  10  20] 0 setdash } def
/dash04 { [40  20  10  20] 0 setdash } def
/dash05 { [80  20  10  10  10  20] 0 setdash } def
/dash06 { [40  20  10  10  10  20] 0 setdash } def
/dash07 { [10  10] 0 setdash } def
%
/MFshow {
   { dup 5 get 3 ge
     { 5 get 3 eq {gsave} {grestore} ifelse }
     {dup dup 0 get findfont exch 1 get scalefont setfont
     [ currentpoint ] exch dup 2 get 0 exch R dup 5 get 2 ne {dup dup 6
     get exch 4 get {show} {stringwidth pop 0 R} ifelse }if dup 5 get 0 eq
     {dup 3 get {2 get neg 0 exch R pop} {pop aload pop M} ifelse} {dup 5
     get 1 eq {dup 2 get exch dup 3 get exch 6 get stringwidth pop -2 div
     dup 0 R} {dup 6 get stringwidth pop -2 div 0 R 6 get
     show 2 index {aload pop M neg 3 -1 roll neg R pop pop} {pop pop pop
     pop aload pop M} ifelse }ifelse }ifelse }
     ifelse }
   forall} bind def
/MFwidth {0 exch {dup 3 get{dup dup 0 get findfont exch 1 get scalefont
     setfont 6 get stringwidth pop add} {pop} ifelse} forall} bind def
/MCshow { currentpoint stroke M
  exch dup MFwidth -2 div 3 -1 roll R MFshow } def
%
end
%%EndProlog
bkdict begin
0.1 0.1 scale
%
% Model curves:
%

GSN 753 3647 M
770 3647 L
803 3647 L
837 3647 L
870 3647 L
903 3647 L
924 3647 L
941 3647 L
970 3647 L
1003 3647 L
1037 3647 L
1070 3647 L
1096 3647 L
1113 3647 L
1137 3647 L
1170 3647 L
1203 3648 L
1237 3648 L
1268 3648 L
1284 3648 L
1303 3648 L
1337 3648 L
1370 3648 L
1403 3648 L
1437 3648 L
1456 3649 L
1473 3649 L
1503 3649 L
1537 3649 L
1570 3650 L
1603 3650 L
1628 3650 L
1644 3651 L
1670 3651 L
1703 3651 L
1737 3652 L
1770 3653 L
1799 3653 L
1816 3654 L
1837 3654 L
1870 3655 L
1903 3656 L
1937 3658 L
1970 3659 L
1987 3661 L
2004 3661 L
2037 3663 L
2070 3665 L
2103 3668 L
2137 3670 L
2159 3674 L
2176 3675 L
2203 3677 L
2237 3681 L
2270 3686 L
2303 3691 L
2331 3697 L
2347 3701 L
2370 3703 L
2403 3710 L
2437 3718 L
2470 3727 L
2503 3737 L
2519 3748 L
2537 3748 L
2570 3761 L
2603 3774 L
2637 3788 L
2670 3804 L
2690 3821 L
2707 3825 L
2737 3839 L
2770 3858 L
2803 3878 L
2837 3898 L
2862 3919 L
2879 3930 L
2903 3940 L
2937 3961 L
2970 3981 L
3003 3999 L
3034 4017 L
3050 4030 L
3070 4033 L
3103 4046 L
3137 4057 L
3170 4066 L
3203 4073 L
3222 4078 L
3239 4079 L
3270 4082 L
3303 4084 L
3337 4085 L
3370 4086 L
3393 4086 L
3410 4086 L
3437 4086 L
3464 4086 L
3481 4086 L
3503 4086 L
3537 4086 L
3565 4086 L
3582 4086 L
3603 4086 L
3637 4086 L
3670 4086 L
3703 4086 L
3737 4086 L
3753 4086 L
3770 4086 L
3803 4086 L
3837 4086 L
3870 4086 L
3903 4086 L
3925 4086 L
3942 4086 L
3970 4086 L
4003 4086 L
4037 4086 L
4070 4086 L
4086 4086 L
LWMC SL dash01 C01 COSGR

GSN 753 3275 M
770 3275 L
803 3275 L
837 3275 L
870 3275 L
903 3275 L
924 3275 L
941 3275 L
970 3275 L
1003 3275 L
1037 3275 L
1070 3275 L
1096 3275 L
1113 3275 L
1137 3275 L
1170 3275 L
1203 3276 L
1237 3276 L
1268 3276 L
1284 3276 L
1303 3276 L
1337 3276 L
1370 3277 L
1403 3277 L
1437 3277 L
1456 3278 L
1473 3278 L
1503 3278 L
1537 3279 L
1570 3279 L
1603 3280 L
1628 3281 L
1644 3281 L
1670 3282 L
1703 3283 L
1737 3284 L
1770 3286 L
1799 3287 L
1816 3288 L
1837 3289 L
1870 3291 L
1903 3293 L
1937 3296 L
1970 3299 L
1987 3302 L
2004 3302 L
2037 3306 L
2070 3310 L
2103 3315 L
2137 3321 L
2159 3327 L
2176 3329 L
2203 3334 L
2237 3342 L
2270 3351 L
2303 3361 L
2331 3372 L
2347 3380 L
2370 3385 L
2403 3399 L
2437 3415 L
2470 3432 L
2503 3452 L
2519 3472 L
2537 3473 L
2570 3497 L
2603 3522 L
2637 3550 L
2670 3580 L
2690 3612 L
2707 3620 L
2737 3646 L
2770 3682 L
2803 3719 L
2837 3757 L
2862 3795 L
2879 3816 L
2903 3834 L
2937 3871 L
2970 3907 L
3003 3941 L
3034 3971 L
3050 3994 L
3070 3998 L
3103 4021 L
3137 4041 L
3170 4055 L
3203 4067 L
3222 4074 L
3239 4075 L
3270 4080 L
3303 4083 L
3337 4085 L
3370 4086 L
3393 4086 L
3410 4086 L
3437 4086 L
3464 4086 L
3481 4086 L
3503 4086 L
3537 4086 L
3565 4086 L
3582 4086 L
3603 4086 L
3637 4086 L
3670 4086 L
3703 4086 L
3737 4086 L
3753 4086 L
3770 4086 L
3803 4086 L
3837 4086 L
3870 4086 L
3903 4086 L
3925 4086 L
3942 4086 L
3970 4086 L
4003 4086 L
4037 4086 L
4070 4086 L
4086 4086 L
LWMC SL dash02 C02 COSGR

GSN 753 2907 M
770 2907 L
803 2907 L
837 2907 L
870 2907 L
903 2908 L
924 2908 L
941 2908 L
970 2908 L
1003 2908 L
1037 2908 L
1070 2908 L
1096 2908 L
1113 2908 L
1137 2908 L
1170 2909 L
1203 2909 L
1237 2909 L
1268 2909 L
1284 2910 L
1303 2910 L
1337 2910 L
1370 2911 L
1403 2911 L
1437 2912 L
1456 2912 L
1473 2912 L
1503 2913 L
1537 2914 L
1570 2915 L
1603 2916 L
1628 2917 L
1644 2918 L
1670 2919 L
1703 2920 L
1737 2922 L
1770 2924 L
1799 2927 L
1816 2929 L
1837 2930 L
1870 2933 L
1903 2936 L
1937 2940 L
1970 2945 L
1987 2950 L
2004 2951 L
2037 2956 L
2070 2963 L
2103 2970 L
2137 2979 L
2159 2989 L
2176 2992 L
2203 3000 L
2237 3012 L
2270 3026 L
2303 3041 L
2331 3059 L
2347 3071 L
2370 3078 L
2403 3100 L
2437 3124 L
2470 3151 L
2503 3181 L
2519 3212 L
2537 3214 L
2570 3249 L
2603 3288 L
2637 3330 L
2670 3375 L
2690 3423 L
2707 3435 L
2737 3473 L
2770 3526 L
2803 3581 L
2837 3636 L
2862 3692 L
2879 3722 L
2903 3747 L
2937 3800 L
2970 3851 L
3003 3897 L
3034 3939 L
3050 3970 L
3070 3976 L
3103 4006 L
3137 4031 L
3170 4050 L
3203 4064 L
3222 4073 L
3239 4074 L
3270 4079 L
3303 4083 L
3337 4085 L
3370 4086 L
3393 4086 L
3410 4086 L
3437 4086 L
3464 4086 L
3481 4086 L
3503 4086 L
3537 4086 L
3565 4086 L
3582 4086 L
3603 4086 L
3637 4086 L
3670 4086 L
3703 4086 L
3737 4086 L
3753 4086 L
3770 4086 L
3803 4086 L
3837 4086 L
3870 4086 L
3903 4086 L
3925 4086 L
3942 4086 L
3970 4086 L
4003 4086 L
4037 4086 L
4070 4086 L
4086 4086 L
LWMC SL dash03 C03 COSGR

GSN 753 2511 M
770 2511 L
803 2512 L
837 2512 L
870 2512 L
903 2512 L
924 2512 L
941 2512 L
970 2512 L
1003 2512 L
1037 2512 L
1070 2513 L
1096 2513 L
1113 2513 L
1137 2513 L
1170 2513 L
1203 2514 L
1237 2514 L
1268 2515 L
1284 2515 L
1303 2515 L
1337 2516 L
1370 2516 L
1403 2517 L
1437 2518 L
1456 2519 L
1473 2519 L
1503 2520 L
1537 2521 L
1570 2522 L
1603 2524 L
1628 2526 L
1644 2527 L
1670 2528 L
1703 2530 L
1737 2533 L
1770 2536 L
1799 2540 L
1816 2543 L
1837 2544 L
1870 2548 L
1903 2553 L
1937 2559 L
1970 2565 L
1987 2573 L
2004 2573 L
2037 2581 L
2070 2591 L
2103 2602 L
2137 2614 L
2159 2628 L
2176 2633 L
2203 2643 L
2237 2661 L
2270 2681 L
2303 2703 L
2331 2728 L
2347 2746 L
2370 2755 L
2403 2786 L
2437 2820 L
2470 2858 L
2503 2900 L
2519 2943 L
2537 2946 L
2570 2995 L
2603 3049 L
2637 3107 L
2670 3170 L
2690 3235 L
2707 3252 L
2737 3304 L
2770 3376 L
2803 3449 L
2837 3524 L
2862 3598 L
2879 3637 L
2903 3670 L
2937 3739 L
2970 3804 L
3003 3863 L
3034 3915 L
3050 3953 L
3070 3959 L
3103 3996 L
3137 4025 L
3170 4047 L
3203 4063 L
3222 4073 L
3239 4074 L
3270 4079 L
3303 4083 L
3337 4085 L
3370 4086 L
3393 4086 L
3410 4086 L
3437 4086 L
3464 4086 L
3481 4086 L
3503 4086 L
3537 4086 L
3565 4086 L
3582 4086 L
3603 4086 L
3637 4086 L
3670 4086 L
3703 4086 L
3737 4086 L
3753 4086 L
3770 4086 L
3803 4086 L
3837 4086 L
3870 4086 L
3903 4086 L
3925 4086 L
3942 4086 L
3970 4086 L
4003 4086 L
4037 4086 L
4070 4086 L
4086 4086 L
LWMC SL dash04 C04 COSGR

GSN 753 2103 M
770 2103 L
803 2103 L
837 2104 L
870 2104 L
903 2104 L
924 2104 L
941 2104 L
970 2104 L
1003 2104 L
1037 2105 L
1070 2105 L
1096 2105 L
1113 2105 L
1137 2106 L
1170 2106 L
1203 2106 L
1237 2107 L
1268 2107 L
1284 2108 L
1303 2108 L
1337 2109 L
1370 2110 L
1403 2111 L
1437 2112 L
1456 2113 L
1473 2113 L
1503 2115 L
1537 2116 L
1570 2118 L
1603 2120 L
1628 2123 L
1644 2124 L
1670 2126 L
1703 2129 L
1737 2132 L
1770 2136 L
1799 2141 L
1816 2145 L
1837 2146 L
1870 2153 L
1903 2159 L
1937 2167 L
1970 2176 L
1987 2186 L
2004 2187 L
2037 2197 L
2070 2210 L
2103 2225 L
2137 2241 L
2159 2260 L
2176 2267 L
2203 2281 L
2237 2304 L
2270 2330 L
2303 2360 L
2331 2393 L
2347 2417 L
2370 2430 L
2403 2471 L
2437 2516 L
2470 2566 L
2503 2621 L
2519 2678 L
2537 2681 L
2570 2746 L
2603 2817 L
2637 2892 L
2670 2973 L
2690 3058 L
2707 3079 L
2737 3146 L
2770 3238 L
2803 3331 L
2837 3424 L
2862 3516 L
2879 3565 L
2903 3605 L
2937 3689 L
2970 3767 L
3003 3837 L
3034 3898 L
3050 3942 L
3070 3950 L
3103 3991 L
3137 4024 L
3170 4047 L
3203 4063 L
3222 4074 L
3239 4075 L
3270 4080 L
3303 4083 L
3337 4085 L
3370 4086 L
3393 4086 L
3410 4086 L
3437 4086 L
3464 4086 L
3481 4086 L
3503 4086 L
3537 4086 L
3565 4086 L
3582 4086 L
3603 4086 L
3637 4086 L
3670 4086 L
3703 4086 L
3737 4086 L
3753 4086 L
3770 4086 L
3803 4086 L
3837 4086 L
3870 4086 L
3903 4086 L
3925 4086 L
3942 4086 L
3970 4086 L
4003 4086 L
4037 4086 L
4070 4086 L
4086 4086 L
LWMC SL dash05 C05 COSGR

GSN 753 1646 M
770 1646 L
803 1646 L
837 1646 L
870 1646 L
903 1646 L
924 1646 L
941 1646 L
970 1647 L
1003 1647 L
1037 1647 L
1070 1647 L
1096 1648 L
1113 1648 L
1137 1648 L
1170 1649 L
1203 1649 L
1237 1650 L
1268 1651 L
1284 1652 L
1303 1652 L
1337 1653 L
1370 1654 L
1403 1655 L
1437 1657 L
1456 1658 L
1473 1659 L
1503 1660 L
1537 1662 L
1570 1665 L
1603 1668 L
1628 1671 L
1644 1673 L
1670 1675 L
1703 1679 L
1737 1684 L
1770 1689 L
1799 1695 L
1816 1700 L
1837 1702 L
1870 1710 L
1903 1719 L
1937 1729 L
1970 1741 L
1987 1754 L
2004 1755 L
2037 1769 L
2070 1786 L
2103 1805 L
2137 1826 L
2159 1850 L
2176 1860 L
2203 1877 L
2237 1908 L
2270 1942 L
2303 1981 L
2331 2024 L
2347 2055 L
2370 2071 L
2403 2124 L
2437 2183 L
2470 2247 L
2503 2318 L
2519 2391 L
2537 2395 L
2570 2479 L
2603 2568 L
2637 2664 L
2670 2766 L
2690 2873 L
2707 2900 L
2737 2983 L
2770 3097 L
2803 3211 L
2837 3325 L
2862 3437 L
2879 3495 L
2903 3543 L
2937 3644 L
2970 3735 L
3003 3816 L
3034 3886 L
3050 3935 L
3070 3943 L
3103 3989 L
3137 4024 L
3170 4048 L
3203 4065 L
3222 4075 L
3239 4076 L
3270 4081 L
3303 4084 L
3337 4085 L
3370 4086 L
3393 4086 L
3410 4086 L
3437 4086 L
3464 4086 L
3481 4086 L
3503 4086 L
3537 4086 L
3565 4086 L
3582 4086 L
3603 4086 L
3637 4086 L
3670 4086 L
3703 4086 L
3737 4086 L
3753 4086 L
3770 4086 L
3803 4086 L
3837 4086 L
3870 4086 L
3903 4086 L
3925 4086 L
3942 4086 L
3970 4086 L
4003 4086 L
4037 4086 L
4070 4086 L
4086 4086 L
LWMC SL dash06 C06 COSGR

GSN 753 753 M
770 753 L
803 753 L
837 753 L
870 753 L
903 754 L
924 754 L
941 754 L
970 754 L
1003 755 L
1037 755 L
1070 756 L
1096 756 L
1113 757 L
1137 757 L
1170 758 L
1203 759 L
1237 760 L
1268 761 L
1284 762 L
1303 762 L
1337 764 L
1370 766 L
1403 768 L
1437 770 L
1456 773 L
1473 773 L
1503 776 L
1537 779 L
1570 783 L
1603 787 L
1628 792 L
1644 795 L
1670 798 L
1703 804 L
1737 811 L
1770 819 L
1799 829 L
1816 837 L
1837 840 L
1870 852 L
1903 865 L
1937 881 L
1970 899 L
1987 919 L
2004 920 L
2037 941 L
2070 967 L
2103 996 L
2137 1028 L
2159 1065 L
2176 1079 L
2203 1106 L
2237 1153 L
2270 1204 L
2303 1262 L
2331 1327 L
2347 1373 L
2370 1398 L
2403 1477 L
2437 1564 L
2470 1659 L
2503 1763 L
2519 1871 L
2537 1876 L
2570 1998 L
2603 2128 L
2637 2265 L
2670 2410 L
2690 2560 L
2707 2598 L
2737 2714 L
2770 2870 L
2803 3026 L
2837 3178 L
2862 3325 L
2879 3401 L
2903 3463 L
2937 3589 L
2970 3702 L
3003 3799 L
3034 3880 L
3050 3936 L
3070 3945 L
3103 3994 L
3137 4030 L
3170 4054 L
3203 4069 L
3222 4078 L
3239 4079 L
3270 4082 L
3303 4085 L
3337 4086 L
3370 4086 L
3393 4086 L
3410 4086 L
3437 4086 L
3464 4086 L
3481 4086 L
3503 4086 L
3537 4086 L
3565 4086 L
3582 4086 L
3603 4086 L
3637 4086 L
3670 4086 L
3703 4086 L
3737 4086 L
3753 4086 L
3770 4086 L
3803 4086 L
3837 4086 L
3870 4086 L
3903 4086 L
3925 4086 L
3942 4086 L
3970 4086 L
4003 4086 L
4037 4086 L
4070 4086 L
4086 4086 L
LWMC SL dash07 C07 COSGR

%
%================
% Legend - Begin
%================
%
GSN 4240 4040 M
4480 4040 L
LWMC SL dash01 C01 COSGR
GSN 4540 4001 M helvM (0.5 uM) show grestore
GSN 4240 3860 M
4480 3860 L
LWMC SL dash02 C02 COSGR
GSN 4540 3821 M helvM (1.0 uM) show grestore
GSN 4240 3680 M
4480 3680 L
LWMC SL dash03 C03 COSGR
GSN 4540 3641 M helvM (1.5 uM) show grestore
GSN 4240 3500 M
4480 3500 L
LWMC SL dash04 C04 COSGR
GSN 4540 3461 M helvM (2.0 uM) show grestore
GSN 4240 3320 M
4480 3320 L
LWMC SL dash05 C05 COSGR
GSN 4540 3281 M helvM (2.5 uM) show grestore
GSN 4240 3140 M
4480 3140 L
LWMC SL dash06 C06 COSGR
GSN 4540 3101 M helvM (3.0 uM) show grestore
GSN 4240 2960 M
4480 2960 L
LWMC SL dash07 C07 COSGR
GSN 4540 2921 M helvM (4.0 uM) show grestore
%
%================
% Legend - End
%================
%

%
% Main frame
%
L10
GSN 
620 620 M
4220 620 L
4220 4220 L
620 4220 L
closepath SGR

%
% X axis: large tics
%
L10
GSN 1130 620 M 0  54 rL SGR
GSN 1130 4220 M 0 -54 rL SGR
helvS (0.0001) 1130 470 xlabel
GSN 1716 620 M 0  54 rL SGR
GSN 1716 4220 M 0 -54 rL SGR
helvS (0.001) 1716 470 xlabel
GSN 2303 620 M 0  54 rL SGR
GSN 2303 4220 M 0 -54 rL SGR
helvS (0.01) 2303 470 xlabel
GSN 2889 620 M 0  54 rL SGR
GSN 2889 4220 M 0 -54 rL SGR
helvS (0.1) 2889 470 xlabel
GSN 3476 620 M 0  54 rL SGR
GSN 3476 4220 M 0 -54 rL SGR
helvS (1) 3476 470 xlabel
GSN 4062 620 M 0  54 rL SGR
GSN 4062 4220 M 0 -54 rL SGR
helvS (10) 4062 470 xlabel
%
% X axis: small tics
%
L5
GSN 720 620 M 0  36 rL SGR
GSN 720 4220 M 0 -36 rL SGR
GSN 824 620 M 0  36 rL SGR
GSN 824 4220 M 0 -36 rL SGR
GSN 897 620 M 0  36 rL SGR
GSN 897 4220 M 0 -36 rL SGR
GSN 954 620 M 0  36 rL SGR
GSN 954 4220 M 0 -36 rL SGR
GSN 1000 620 M 0  36 rL SGR
GSN 1000 4220 M 0 -36 rL SGR
GSN 1039 620 M 0  36 rL SGR
GSN 1039 4220 M 0 -36 rL SGR
GSN 1073 620 M 0  36 rL SGR
GSN 1073 4220 M 0 -36 rL SGR
GSN 1103 620 M 0  36 rL SGR
GSN 1103 4220 M 0 -36 rL SGR
GSN 1307 620 M 0  36 rL SGR
GSN 1307 4220 M 0 -36 rL SGR
GSN 1410 620 M 0  36 rL SGR
GSN 1410 4220 M 0 -36 rL SGR
GSN 1483 620 M 0  36 rL SGR
GSN 1483 4220 M 0 -36 rL SGR
GSN 1540 620 M 0  36 rL SGR
GSN 1540 4220 M 0 -36 rL SGR
GSN 1586 620 M 0  36 rL SGR
GSN 1586 4220 M 0 -36 rL SGR
GSN 1626 620 M 0  36 rL SGR
GSN 1626 4220 M 0 -36 rL SGR
GSN 1660 620 M 0  36 rL SGR
GSN 1660 4220 M 0 -36 rL SGR
GSN 1690 620 M 0  36 rL SGR
GSN 1690 4220 M 0 -36 rL SGR
GSN 1893 620 M 0  36 rL SGR
GSN 1893 4220 M 0 -36 rL SGR
GSN 1996 620 M 0  36 rL SGR
GSN 1996 4220 M 0 -36 rL SGR
GSN 2069 620 M 0  36 rL SGR
GSN 2069 4220 M 0 -36 rL SGR
GSN 2126 620 M 0  36 rL SGR
GSN 2126 4220 M 0 -36 rL SGR
GSN 2173 620 M 0  36 rL SGR
GSN 2173 4220 M 0 -36 rL SGR
GSN 2212 620 M 0  36 rL SGR
GSN 2212 4220 M 0 -36 rL SGR
GSN 2246 620 M 0  36 rL SGR
GSN 2246 4220 M 0 -36 rL SGR
GSN 2276 620 M 0  36 rL SGR
GSN 2276 4220 M 0 -36 rL SGR
GSN 2479 620 M 0  36 rL SGR
GSN 2479 4220 M 0 -36 rL SGR
GSN 2583 620 M 0  36 rL SGR
GSN 2583 4220 M 0 -36 rL SGR
GSN 2656 620 M 0  36 rL SGR
GSN 2656 4220 M 0 -36 rL SGR
GSN 2713 620 M 0  36 rL SGR
GSN 2713 4220 M 0 -36 rL SGR
GSN 2759 620 M 0  36 rL SGR
GSN 2759 4220 M 0 -36 rL SGR
GSN 2798 620 M 0  36 rL SGR
GSN 2798 4220 M 0 -36 rL SGR
GSN 2832 620 M 0  36 rL SGR
GSN 2832 4220 M 0 -36 rL SGR
GSN 2862 620 M 0  36 rL SGR
GSN 2862 4220 M 0 -36 rL SGR
GSN 3066 620 M 0  36 rL SGR
GSN 3066 4220 M 0 -36 rL SGR
GSN 3169 620 M 0  36 rL SGR
GSN 3169 4220 M 0 -36 rL SGR
GSN 3242 620 M 0  36 rL SGR
GSN 3242 4220 M 0 -36 rL SGR
GSN 3299 620 M 0  36 rL SGR
GSN 3299 4220 M 0 -36 rL SGR
GSN 3345 620 M 0  36 rL SGR
GSN 3345 4220 M 0 -36 rL SGR
GSN 3385 620 M 0  36 rL SGR
GSN 3385 4220 M 0 -36 rL SGR
GSN 3419 620 M 0  36 rL SGR
GSN 3419 4220 M 0 -36 rL SGR
GSN 3449 620 M 0  36 rL SGR
GSN 3449 4220 M 0 -36 rL SGR
GSN 3652 620 M 0  36 rL SGR
GSN 3652 4220 M 0 -36 rL SGR
GSN 3755 620 M 0  36 rL SGR
GSN 3755 4220 M 0 -36 rL SGR
GSN 3829 620 M 0  36 rL SGR
GSN 3829 4220 M 0 -36 rL SGR
GSN 3885 620 M 0  36 rL SGR
GSN 3885 4220 M 0 -36 rL SGR
GSN 3932 620 M 0  36 rL SGR
GSN 3932 4220 M 0 -36 rL SGR
GSN 3971 620 M 0  36 rL SGR
GSN 3971 4220 M 0 -36 rL SGR
GSN 4005 620 M 0  36 rL SGR
GSN 4005 4220 M 0 -36 rL SGR
GSN 4035 620 M 0  36 rL SGR
GSN 4035 4220 M 0 -36 rL SGR
%
% Y axis: large tics
%
L10
GSN 620 1387 M 54 0 rL SGR
GSN 4220 1387 M -54 0 rL SGR
helvS (-0.02) 560 1387 ylabel
GSN 620 2737 M 54 0 rL SGR
GSN 4220 2737 M -54 0 rL SGR
helvS (-0.01) 560 2737 ylabel
GSN 620 4086 M 54 0 rL SGR
GSN 4220 4086 M -54 0 rL SGR
helvS (0) 560 4086 ylabel
%
% Y axis: small tics
%
L5
GSN 620 712 M 36 0 rL SGR
GSN 4220 712 M -36 0 rL SGR
GSN 620 1050 M 36 0 rL SGR
GSN 4220 1050 M -36 0 rL SGR
GSN 620 1387 M 36 0 rL SGR
GSN 4220 1387 M -36 0 rL SGR
GSN 620 1724 M 36 0 rL SGR
GSN 4220 1724 M -36 0 rL SGR
GSN 620 2062 M 36 0 rL SGR
GSN 4220 2062 M -36 0 rL SGR
GSN 620 2399 M 36 0 rL SGR
GSN 4220 2399 M -36 0 rL SGR
GSN 620 2737 M 36 0 rL SGR
GSN 4220 2737 M -36 0 rL SGR
GSN 620 3074 M 36 0 rL SGR
GSN 4220 3074 M -36 0 rL SGR
GSN 620 3411 M 36 0 rL SGR
GSN 4220 3411 M -36 0 rL SGR
GSN 620 3749 M 36 0 rL SGR
GSN 4220 3749 M -36 0 rL SGR
GSN 620 4086 M 36 0 rL SGR
GSN 4220 4086 M -36 0 rL SGR

%
% X axis
%
GSN L5 620 4086 M 4220 4086 L SDA G50 SGR

%
% X-Axis label:
%
gsave 2420 290 M 
[
[(Helvetica) 180 0 true true 0 (t)]
[(Helvetica) 180 0 true true 0 (i)]
[(Helvetica) 180 0 true true 0 (m)]
[(Helvetica) 180 0 true true 0 (e)]
] 0 MCshow grestore

%
% Y-Axis label:
%
gsave 234 2420 M 
currentpoint gsave translate 90 rotate 0 0 moveto
[
[(Helvetica) 180 0 true true 0 (d)]
[(Helvetica) 180 0 true true 0 (\()]
[(Helvetica) 180 0 true true 0 (s)]
[(Helvetica) 180 0 true true 0 (i)]
[(Helvetica) 180 0 true true 0 (g)]
[(Helvetica) 180 0 true true 0 (n)]
[(Helvetica) 180 0 true true 0 (a)]
[(Helvetica) 180 0 true true 0 (l)]
[(Helvetica) 180 0 true true 0 (\))]
[(Helvetica) 180 0 true true 0 ( )]
[(Helvetica) 180 0 true true 0 (/)]
[(Helvetica) 180 0 true true 0 ( )]
[(Helvetica) 180 0 true true 0 (d)]
[(Helvetica) 180 0 true true 0 (t)]
] 0 MCshow grestore

end
showpage
%%Trailer
%%EOF
