%!PS-Adobe-3.0 EPSF-3.0
%%BoundingBox: 0 0 514 550
%%Creator: BioKin Ltd.
%%DocumentFonts: Symbol Helvetica
%%EndComments
%
/bkdict 256 dict def
bkdict begin
/M {moveto} def 
/R {rmoveto} def
/L {lineto} def
/rL {rlineto} def
/GSN {gsave newpath} def
/SGR {stroke grestore} def
/COSGR {gsave setrgbcolor stroke grestore grestore} def
/SL {setlinewidth} def
/LWMB {12} def             % line width - model curves, black & white
/LWMC {10} def             % line width - model curves, color
/L2 {2.5 setlinewidth} def
/L5 {5 setlinewidth} def
/L10 {10 setlinewidth} def
/G50 {0.5 setgray} def
/SDA {[10  20] 0 setdash} def % axes
/helvT {/Helvetica findfont 100 scalefont setfont} def % tiny
/helvS {/Helvetica findfont 125 scalefont setfont} def % small
/helvM {/Helvetica findfont 150 scalefont setfont} def % medium
/helvL {/Helvetica findfont 175 scalefont setfont} def % large
/xlabel {gsave M dup
   stringwidth exch -0.5 mul exch rmoveto show grestore} def 
/ylabel {gsave M 90 rotate dup
   stringwidth exch -0.5 mul exch rmoveto show grestore} def
/ylabelresid {gsave M dup
   stringwidth exch -1 mul exch rmoveto show grestore} def
% ======
% Shapes
% ======
% Circle:
/Circ {0 360 arc closepath} def
%
% Square:
/Squa {dup dup -0.5 mul dup dup R -2 mul 0 exch rL 1 mul 0 rL dup 0 exch -1 mul rL closepath} def
%
% Triangle Up:
/TriU {dup dup dup -0.4 mul exch -0.5 mul exch R dup 0.5 mul exch rL dup -1 mul exch 0.5 mul exch rL closepath} def 
%
% Triangle Down:
/TriD {dup dup dup 0.4 mul exch -0.5 mul exch R dup 0.5 mul exch -1 mul rL dup 0.5 mul exch rL closepath} def 
%
% Diamond:
/Diam {45 rotate Squa} def
% ======
% Fills
% ======
/GRF {gsave setgray fill grestore} def                    % gray-level Fill
/COF {gsave setrgbcolor fill grestore} def                % color fill
% ======
% Colors
% ======
/C01 {1.00	0.00	0.00} def      % Red
/C02 {0.00	0.00	1.00} def      % Blue
/C03 {0.00	0.39	0.00} def      % Dark Green
/C04 {0.78	0.08	0.52} def      % Medium Violet Red
/C05 {0.55	0.27	0.07} def      % Saddle Brown
/C06 {0.10	0.70	0.70} def      % (cyan)
/C07 {1.00	0.55	0.00} def      % Dark Orange
/C08 {0.63	0.13	0.94} def      % Purple
/C09 {0.00	0.75	1.00} def      % Deep Sky Blue
/C10 {0.20	0.80	0.20} def      % Lime Green
/C11 {0.47	0.53	0.60} def      % Light Slate Gray
/C12 {0.00	0.00	0.00} def      % Black            % or: {0.19	0.31	0.31} def      % Dark Slate Gray
%
/LGR {0.75} def % light gray
/DGR {0.33} def % dark gray
%
% =============
% Dash patterns
% =============
/dash01 { [80  20] 0 setdash } def
/dash02 { [40  20] 0 setdash } def
/dash03 { [80  20  10  20] 0 setdash } def
/dash04 { [40  20  10  20] 0 setdash } def
/dash05 { [80  20  10  10  10  20] 0 setdash } def
/dash06 { [40  20  10  10  10  20] 0 setdash } def
/dash07 { [10  10] 0 setdash } def
%
/MFshow {
   { dup 5 get 3 ge
     { 5 get 3 eq {gsave} {grestore} ifelse }
     {dup dup 0 get findfont exch 1 get scalefont setfont
     [ currentpoint ] exch dup 2 get 0 exch R dup 5 get 2 ne {dup dup 6
     get exch 4 get {show} {stringwidth pop 0 R} ifelse }if dup 5 get 0 eq
     {dup 3 get {2 get neg 0 exch R pop} {pop aload pop M} ifelse} {dup 5
     get 1 eq {dup 2 get exch dup 3 get exch 6 get stringwidth pop -2 div
     dup 0 R} {dup 6 get stringwidth pop -2 div 0 R 6 get
     show 2 index {aload pop M neg 3 -1 roll neg R pop pop} {pop pop pop
     pop aload pop M} ifelse }ifelse }ifelse }
     ifelse }
   forall} bind def
/MFwidth {0 exch {dup 3 get{dup dup 0 get findfont exch 1 get scalefont
     setfont 6 get stringwidth pop add} {pop} ifelse} forall} bind def
/MCshow { currentpoint stroke M
  exch dup MFwidth -2 div 3 -1 roll R MFshow } def
%
end
%%EndProlog
bkdict begin
0.1 0.1 scale
%
% Residuals:
%
GSN 620 4356 M
620 4219 L
620 4285 L
620 4863 L
620 4420 L
620 4570 L
620 4267 L
620 4406 L
620 4466 L
620 4452 L
620 4468 L
620 4452 L
620 4246 L
620 4328 L
620 4330 L
620 4240 L
620 4402 L
620 4014 L
620 4312 L
620 4327 L
620 4360 L
620 4255 L
620 4173 L
620 4370 L
620 4327 L
620 4258 L
620 4215 L
620 4215 L
620 4247 L
620 4140 L
620 4111 L
620 4179 L
620 4250 L
620 4231 L
620 4225 L
620 4133 L
620 4198 L
620 4098 L
620 3924 L
620 3978 L
620 3994 L
620 4286 L
620 4098 L
620 4127 L
620 4108 L
620 3952 L
620 4038 L
620 4063 L
620 3888 L
620 3862 L
620 4062 L
620 4096 L
620 4107 L
620 4230 L
620 4077 L
620 3933 L
620 4112 L
620 3789 L
620 4031 L
620 3936 L
620 3860 L
620 3982 L
620 3864 L
620 4001 L
620 3923 L
620 3926 L
620 3866 L
620 4022 L
620 3972 L
620 3929 L
620 3884 L
620 3870 L
620 3920 L
620 3985 L
620 3717 L
620 3792 L
620 3887 L
620 3826 L
620 3765 L
620 3869 L
620 3821 L
620 3877 L
620 3755 L
620 3705 L
620 3936 L
620 3681 L
620 3815 L
620 3721 L
620 3675 L
620 3781 L
620 3729 L
620 3829 L
620 3818 L
620 3866 L
620 3738 L
620 3740 L
620 3669 L
620 3790 L
620 3643 L
620 3618 L
620 3774 L
620 3742 L
620 3622 L
620 3878 L
620 3706 L
620 3800 L
620 3634 L
620 3569 L
620 3571 L
620 3657 L
620 3630 L
620 3941 L
620 3749 L
620 3802 L
620 3613 L
620 3589 L
620 3831 L
620 3649 L
620 3685 L
620 3658 L
620 3524 L
620 3497 L
620 3710 L
620 3710 L
620 3579 L
620 3568 L
620 3557 L
620 3636 L
620 3631 L
620 3762 L
620 3760 L
620 3429 L
620 3529 L
620 3522 L
620 3517 L
620 3702 L
620 3688 L
620 3702 L
620 3567 L
620 3520 L
620 3557 L
620 3544 L
620 3429 L
620 3465 L
620 3569 L
620 3544 L
620 3446 L
620 3637 L
620 3443 L
620 3401 L
620 3506 L
620 3557 L
620 3430 L
620 3421 L
620 3485 L
620 3496 L
620 3537 L
620 3359 L
620 3525 L
620 3514 L
620 3502 L
620 3664 L
620 3382 L
620 3345 L
620 3385 L
620 3563 L
620 3347 L
620 3453 L
620 3372 L
620 3460 L
620 3259 L
620 3394 L
620 3420 L
620 3532 L
620 3318 L
620 3560 L
620 3333 L
620 3165 L
620 3270 L
620 3280 L
620 3316 L
620 3307 L
620 3488 L
620 3364 L
620 3261 L
620 3317 L
620 3328 L
620 3432 L
620 3230 L
620 3290 L
620 3251 L
620 3318 L
620 3274 L
620 3224 L
620 3287 L
620 3341 L
620 3140 L
620 3196 L
620 3205 L
620 3359 L
620 3334 L
620 3194 L
620 3421 L
620 3118 L
620 3300 L
620 3114 L
620 3254 L
620 3262 L
620 3116 L
620 3241 L
620 3295 L
620 3125 L
620 3284 L
620 3321 L
620 3331 L
620 3285 L
620 3246 L
620 3260 L
620 3293 L
620 3056 L
620 3149 L
620 3143 L
620 3134 L
620 3325 L
620 3346 L
620 3230 L
620 3220 L
620 3232 L
620 2931 L
620 3119 L
620 3317 L
620 3337 L
620 3179 L
620 3159 L
620 3118 L
620 3292 L
620 3207 L
620 3329 L
620 3175 L
620 3053 L
620 3089 L
620 3176 L
620 3165 L
620 3134 L
620 3259 L
620 3131 L
620 3067 L
620 3059 L
620 3169 L
620 3102 L
620 3147 L
620 3210 L
620 3102 L
620 3191 L
620 3100 L
620 3060 L
620 3012 L
620 3103 L
620 3134 L
620 3145 L
620 3032 L
620 2932 L
620 3157 L
620 3184 L
620 3025 L
620 3116 L
620 3047 L
620 2907 L
620 3017 L
620 3133 L
620 3142 L
620 3078 L
620 3031 L
620 3227 L
620 2983 L
620 3033 L
620 3113 L
620 3011 L
620 3139 L
620 3096 L
620 2957 L
620 2904 L
620 2862 L
620 3072 L
620 2887 L
620 2967 L
620 2992 L
620 3143 L
620 3009 L
620 3087 L
620 2961 L
620 3037 L
620 3006 L
620 2954 L
620 2894 L
620 3118 L
620 2827 L
620 3022 L
620 2875 L
620 3097 L
620 2985 L
620 3079 L
620 3166 L
620 2880 L
620 2941 L
620 3093 L
620 2943 L
620 2859 L
620 2924 L
620 3059 L
620 3091 L
620 2942 L
620 3052 L
620 3005 L
620 2845 L
620 2960 L
620 3064 L
620 3017 L
620 2954 L
620 2896 L
620 2969 L
620 2988 L
620 2894 L
620 2915 L
620 3003 L
620 2871 L
620 2947 L
620 2998 L
620 2897 L
620 2861 L
620 2854 L
620 2755 L
620 3031 L
620 2758 L
620 2860 L
620 3029 L
620 2907 L
620 2872 L
620 2796 L
620 2855 L
620 2956 L
620 2896 L
620 2882 L
620 2992 L
620 2872 L
620 3034 L
620 2925 L
620 2963 L
620 2882 L
620 2917 L
620 2806 L
620 2912 L
620 3069 L
620 2796 L
620 3020 L
620 2899 L
620 2841 L
620 2816 L
620 2939 L
620 2840 L
620 2933 L
620 2939 L
620 2785 L
620 2900 L
620 3018 L
620 2950 L
620 2883 L
620 2730 L
620 2775 L
620 2861 L
620 2917 L
620 2926 L
620 2754 L
620 2807 L
620 2777 L
620 2884 L
620 2811 L
620 2723 L
620 3013 L
620 2906 L
620 2793 L
620 2790 L
620 2998 L
620 2762 L
620 2673 L
620 2791 L
620 2872 L
620 2910 L
620 2926 L
620 2770 L
620 2868 L
620 2881 L
620 2722 L
620 2827 L
620 2669 L
620 2884 L
620 2803 L
620 2717 L
620 2983 L
620 2927 L
620 2909 L
620 2861 L
620 2766 L
620 2755 L
620 2687 L
620 2730 L
620 2866 L
620 2711 L
620 2583 L
620 2731 L
620 2679 L
620 2669 L
620 2785 L
620 2644 L
620 2776 L
620 2655 L
620 2675 L
620 2695 L
620 2675 L
620 2594 L
620 2487 L
620 2670 L
620 2743 L
620 2550 L
620 2381 L
620 2654 L
620 2631 L
620 2484 L
620 2705 L
620 2596 L
620 2711 L
620 2463 L
620 2571 L
620 2520 L
620 2374 L
620 2590 L
620 2509 L
620 2759 L
620 2547 L
620 2521 L
620 2598 L
620 2720 L
620 2591 L
620 2505 L
620 2651 L
620 2552 L
620 2431 L
620 2535 L
620 2486 L
620 2452 L
620 2635 L
620 2571 L
620 2493 L
620 2512 L
620 2418 L
620 2351 L
620 2504 L
620 2543 L
620 2364 L
620 2529 L
620 2579 L
620 2476 L
620 2346 L
620 2374 L
620 2581 L
620 2456 L
620 2447 L
620 2513 L
620 2441 L
620 2456 L
620 2416 L
620 2378 L
620 2606 L
620 2513 L
620 2386 L
620 2327 L
620 2274 L
620 2501 L
620 2393 L
620 2376 L
620 2344 L
620 2433 L
620 2411 L
620 2373 L
620 2323 L
620 2414 L
620 2383 L
620 2524 L
620 2419 L
620 2421 L
620 2381 L
620 2396 L
620 2360 L
620 2329 L
620 2164 L
620 2283 L
620 2236 L
620 2338 L
620 2463 L
620 2312 L
620 2353 L
620 2397 L
620 2458 L
620 2460 L
620 2398 L
620 2389 L
620 2342 L
620 2493 L
620 2372 L
620 2371 L
620 2498 L
620 2375 L
620 2377 L
620 2355 L
620 2409 L
620 2318 L
620 2319 L
620 2481 L
620 2276 L
620 2189 L
620 2381 L
620 2210 L
620 2423 L
620 2342 L
620 2347 L
620 2458 L
620 2354 L
620 2319 L
620 2263 L
620 2350 L
620 2354 L
620 2403 L
620 2342 L
620 2372 L
620 2210 L
620 2381 L
620 2305 L
620 2424 L
620 2202 L
620 2363 L
620 2321 L
620 2179 L
620 2376 L
620 2296 L
620 2217 L
620 2370 L
620 2296 L
620 2260 L
620 2377 L
620 2311 L
620 2329 L
620 2245 L
620 2381 L
620 2366 L
620 2426 L
620 2363 L
620 2399 L
620 2204 L
620 2342 L
620 2277 L
620 2227 L
620 2388 L
620 2346 L
620 2139 L
620 2163 L
620 2169 L
620 2314 L
620 2301 L
620 2376 L
620 2274 L
620 2218 L
620 2342 L
620 2374 L
620 2235 L
620 2217 L
620 2150 L
620 2334 L
620 2312 L
620 2347 L
620 2191 L
620 2253 L
620 2328 L
620 2417 L
620 2247 L
620 2284 L
620 2168 L
620 2284 L
620 2435 L
620 2325 L
620 2281 L
620 2374 L
620 2295 L
620 2184 L
620 2479 L
620 2176 L
620 2327 L
620 2369 L
620 2148 L
620 2355 L
620 2327 L
620 2344 L
620 2408 L
620 2160 L
620 2354 L
620 2390 L
620 2292 L
620 2193 L
620 2475 L
620 2291 L
620 2261 L
620 2391 L
620 2495 L
620 2369 L
620 2239 L
620 2457 L
620 2426 L
620 2451 L
620 2225 L
620 2331 L
620 2169 L
620 2236 L
620 2312 L
620 2180 L
620 2415 L
620 2333 L
620 2312 L
620 2429 L
620 2385 L
620 2350 L
620 2215 L
620 2396 L
620 2384 L
620 2367 L
620 2379 L
620 2352 L
620 2240 L
620 2323 L
620 2346 L
620 2437 L
620 2199 L
620 2486 L
620 2301 L
620 2269 L
620 2172 L
620 2326 L
620 2320 L
620 2213 L
620 2455 L
620 2348 L
620 2312 L
620 2231 L
620 2239 L
620 2596 L
620 2267 L
620 2408 L
620 2436 L
620 2508 L
620 2244 L
620 2364 L
620 2568 L
620 2450 L
620 2387 L
620 2365 L
620 2205 L
620 2472 L
620 2437 L
620 2299 L
620 2464 L
620 2411 L
620 2369 L
620 2343 L
620 2466 L
620 2464 L
620 2426 L
620 2330 L
620 2163 L
620 2235 L
620 2558 L
620 2406 L
620 2201 L
620 2507 L
620 2268 L
620 2556 L
620 2136 L
620 2434 L
620 2362 L
620 2242 L
620 2458 L
620 2349 L
620 2564 L
620 2326 L
620 2494 L
620 2423 L
620 2373 L
620 2305 L
620 2307 L
620 2389 L
620 2409 L
620 2251 L
620 2465 L
620 2505 L
620 2561 L
620 2249 L
620 2282 L
620 2431 L
620 2386 L
620 2325 L
620 2409 L
620 2370 L
620 2470 L
620 2365 L
620 2376 L
620 2333 L
620 2384 L
620 2320 L
620 2609 L
620 2293 L
620 2406 L
620 2347 L
620 2399 L
620 2285 L
620 2466 L
620 2341 L
620 2467 L
620 2431 L
620 2265 L
620 2442 L
620 2240 L
620 2484 L
620 2488 L
620 2380 L
620 2406 L
620 2406 L
620 2353 L
620 2394 L
620 2370 L
620 2453 L
620 2350 L
620 2370 L
620 2354 L
620 2412 L
620 2519 L
620 2381 L
620 2391 L
620 2389 L
620 2349 L
620 2471 L
620 2274 L
620 2526 L
620 2300 L
620 2262 L
620 2353 L
620 2502 L
620 2270 L
620 2508 L
620 2419 L
620 2367 L
620 2551 L
620 2597 L
620 2529 L
620 2512 L
620 2576 L
620 2532 L
620 2333 L
620 2278 L
620 2422 L
620 2188 L
620 2531 L
620 2256 L
620 2430 L
620 2400 L
620 2694 L
620 2314 L
620 2494 L
620 2557 L
620 2344 L
620 2491 L
620 2364 L
620 2526 L
620 2494 L
620 2321 L
620 2452 L
620 2406 L
620 2493 L
620 2459 L
620 2550 L
620 2479 L
620 2562 L
620 2414 L
620 2376 L
620 2440 L
620 2574 L
620 2328 L
620 2446 L
620 2524 L
620 2312 L
620 2428 L
620 2337 L
620 2374 L
620 2554 L
620 2501 L
620 2426 L
620 2471 L
620 2535 L
620 2493 L
620 2364 L
620 2399 L
620 2392 L
620 2356 L
620 2314 L
620 2371 L
620 2379 L
620 2424 L
620 2341 L
620 2554 L
620 2565 L
620 2436 L
620 2534 L
620 2618 L
620 2439 L
620 2422 L
620 2547 L
620 2421 L
620 2363 L
620 2419 L
620 2422 L
620 2522 L
620 2607 L
620 2454 L
620 2466 L
620 2615 L
620 2524 L
620 2664 L
620 2431 L
620 2376 L
620 2488 L
620 2533 L
620 2444 L
620 2328 L
620 2609 L
620 2449 L
620 2521 L
620 2605 L
620 2519 L
620 2450 L
620 2544 L
620 2571 L
620 2344 L
620 2360 L
620 2472 L
620 2582 L
620 2648 L
620 2575 L
620 2541 L
620 2578 L
620 2499 L
620 2571 L
620 2438 L
620 2374 L
620 2629 L
620 2411 L
620 2424 L
620 2416 L
620 2705 L
620 2577 L
620 2491 L
620 2524 L
620 2495 L
620 2540 L
620 2519 L
620 2673 L
620 2582 L
620 2378 L
620 2565 L
620 2470 L
620 2576 L
620 2445 L
620 2266 L
620 2454 L
620 2542 L
620 2411 L
620 2521 L
620 2565 L
620 2461 L
620 2586 L
620 2643 L
620 2513 L
620 2506 L
620 2441 L
620 2608 L
620 2618 L
620 2450 L
620 2624 L
620 2535 L
620 2272 L
620 2493 L
620 2444 L
620 2559 L
620 2446 L
620 2529 L
620 2397 L
620 2524 L
620 2450 L
620 2700 L
620 2647 L
620 2630 L
620 2549 L
620 2602 L
620 2495 L
620 2526 L
620 2642 L
620 2570 L
620 2414 L
620 2521 L
620 2512 L
620 2533 L
620 2374 L
620 2774 L
620 2678 L
620 2709 L
620 2359 L
620 2755 L
620 2522 L
620 2639 L
620 2474 L
620 2632 L
620 2536 L
620 2687 L
620 2487 L
620 2516 L
620 2564 L
620 2670 L
620 2568 L
620 2554 L
620 2648 L
620 2588 L
620 2549 L
620 2691 L
620 2641 L
620 2491 L
620 2732 L
620 2438 L
620 2664 L
620 2668 L
620 2584 L
620 2547 L
620 2559 L
620 2715 L
620 2534 L
620 2493 L
620 2615 L
620 2511 L
620 2446 L
620 2741 L
620 2623 L
620 2693 L
620 2571 L
620 2540 L
620 2545 L
620 2590 L
620 2554 L
620 2524 L
620 2653 L
620 2528 L
620 2605 L
620 2606 L
620 2723 L
620 2601 L
620 2564 L
620 2639 L
620 2564 L
620 2784 L
620 2603 L
620 2698 L
620 2605 L
620 2667 L
620 2638 L
620 2684 L
620 2726 L
620 2648 L
620 2692 L
620 2684 L
620 2639 L
620 2610 L
620 2559 L
620 2608 L
620 2510 L
620 2532 L
620 2673 L
620 2596 L
620 2563 L
620 2766 L
620 2743 L
620 2546 L
620 2614 L
620 2552 L
620 2565 L
620 2717 L
620 2633 L
620 2626 L
620 2570 L
620 2615 L
620 2495 L
620 2577 L
620 2783 L
620 2650 L
620 2610 L
620 2708 L
620 2710 L
620 2592 L
620 2779 L
620 2722 L
620 2677 L
620 2839 L
620 2669 L
620 2634 L
620 2491 L
620 2725 L
620 2608 L
620 2817 L
620 2684 L
620 2521 L
620 2587 L
620 2769 L
620 2650 L
620 2472 L
620 2595 L
620 2720 L
620 2677 L
620 2819 L
620 2714 L
620 2540 L
620 2767 L
620 2769 L
620 2643 L
620 2596 L
620 2828 L
620 2665 L
620 2803 L
620 2806 L
620 2712 L
620 2615 L
620 2739 L
620 2784 L
620 2641 L
620 2651 L
620 2616 L
620 2635 L
620 2686 L
620 2808 L
620 2592 L
620 2678 L
620 2720 L
620 2786 L
620 2731 L
620 2788 L
620 2755 L
620 2757 L
620 2686 L
620 2582 L
620 2771 L
620 2608 L
620 2619 L
620 2580 L
620 2737 L
620 2614 L
620 2729 L
620 2746 L
620 2599 L
620 2750 L
620 2678 L
620 2713 L
620 2745 L
620 2785 L
620 2773 L
620 2736 L
620 2726 L
620 2860 L
620 2739 L
620 2667 L
620 2790 L
620 2829 L
620 2717 L
620 2577 L
620 2695 L
620 2620 L
620 2543 L
620 2656 L
620 2585 L
620 2744 L
620 2764 L
620 2636 L
620 2617 L
620 2770 L
620 2590 L
620 2817 L
620 2707 L
620 2657 L
620 2711 L
620 2780 L
620 2730 L
620 2728 L
620 2580 L
620 2774 L
620 2668 L
620 2699 L
620 2726 L
620 2843 L
620 2637 L
620 2636 L
620 2575 L
620 2775 L
620 2643 L
620 2622 L
620 2679 L
620 2742 L
620 2739 L
620 2784 L
620 2632 L
620 2678 L
620 2587 L
620 2640 L
620 2690 L
620 2684 L
620 2758 L
620 2702 L
620 2789 L
620 2825 L
620 2755 L
620 2838 L
620 2750 L
620 2726 L
620 2582 L
620 2574 L
620 2766 L
620 2742 L
620 2631 L
620 2682 L
620 2702 L
620 2706 L
620 2795 L
620 2835 L
620 2905 L
620 2913 L
620 2802 L
620 2773 L
620 2723 L
620 2718 L
620 2839 L
620 2885 L
620 2649 L
620 2810 L
620 2818 L
620 2867 L
620 2749 L
620 2901 L
620 2731 L
620 2767 L
620 2831 L
620 2814 L
620 2690 L
620 2816 L
620 2783 L
620 2784 L
620 2722 L
620 2674 L
620 2775 L
620 2761 L
620 2726 L
620 2682 L
620 2875 L
620 2617 L
620 2781 L
620 2891 L
620 2795 L
620 2758 L
620 2849 L
620 2791 L
620 2690 L
620 2726 L
620 2739 L
620 2846 L
620 2746 L
620 2795 L
620 2661 L
620 2775 L
620 2725 L
620 2740 L
620 2604 L
620 2822 L
620 2606 L
620 2808 L
620 2652 L
620 2737 L
620 2858 L
620 2664 L
620 2609 L
620 2932 L
620 2916 L
620 2708 L
620 2904 L
620 2803 L
620 2703 L
620 2872 L
620 2698 L
620 2855 L
620 2857 L
620 2715 L
620 2788 L
620 2825 L
620 2812 L
620 2844 L
620 2836 L
620 2906 L
620 2668 L
620 2922 L
620 2845 L
620 2826 L
620 2754 L
620 2654 L
620 2731 L
620 2634 L
620 2584 L
620 2806 L
620 2952 L
620 2677 L
620 2709 L
620 2781 L
620 2885 L
620 2863 L
620 2717 L
620 2817 L
620 2746 L
620 2798 L
620 2835 L
620 2914 L
620 2795 L
620 2847 L
620 2761 L
620 2714 L
620 2825 L
620 2810 L
620 2713 L
620 2862 L
620 2814 L
620 2716 L
620 2946 L
620 2905 L
620 2824 L
620 2756 L
620 2765 L
620 2883 L
620 2540 L
620 2774 L
620 2788 L
620 2872 L
620 2843 L
620 2649 L
620 2694 L
620 2640 L
620 2808 L
620 2895 L
620 2797 L
620 2726 L
620 2667 L
620 2811 L
620 2894 L
620 2886 L
620 2828 L
620 2846 L
620 2664 L
620 2825 L
620 2779 L
620 2935 L
620 2840 L
620 2875 L
620 2827 L
620 2716 L
620 2697 L
620 2811 L
620 2951 L
620 2853 L
620 2710 L
620 2710 L
620 2723 L
620 2795 L
620 2697 L
620 2825 L
620 2600 L
620 2869 L
620 2774 L
620 2792 L
620 2937 L
620 2915 L
620 2826 L
620 2810 L
620 3004 L
620 2926 L
620 2901 L
620 2905 L
620 2851 L
620 2835 L
620 2973 L
620 2741 L
620 2828 L
620 2810 L
620 2815 L
620 2806 L
620 2838 L
620 2845 L
620 2826 L
620 2827 L
620 2699 L
620 2717 L
620 2898 L
620 2855 L
620 2815 L
620 2842 L
620 2825 L
620 2782 L
620 2695 L
620 2838 L
620 2946 L
620 2778 L
620 2833 L
620 2919 L
620 2830 L
620 2713 L
620 2720 L
620 2938 L
620 2860 L
620 2799 L
620 2856 L
620 2830 L
620 2805 L
620 2821 L
620 2672 L
620 2813 L
620 2850 L
620 3081 L
620 2863 L
620 2849 L
620 2841 L
620 2736 L
620 2728 L
620 2937 L
620 2879 L
620 2960 L
620 2807 L
620 2875 L
620 2669 L
620 2910 L
620 2963 L
620 2886 L
620 2604 L
620 2772 L
620 3005 L
620 2858 L
620 2916 L
620 2830 L
620 2834 L
620 2834 L
620 2695 L
620 2874 L
620 2845 L
620 2943 L
620 2721 L
620 2797 L
620 2812 L
620 2812 L
620 2803 L
620 2927 L
620 2894 L
620 2938 L
620 2796 L
620 2875 L
620 2836 L
620 2737 L
620 2901 L
620 2788 L
620 2827 L
620 2766 L
620 2802 L
620 2717 L
620 2855 L
620 2874 L
620 2899 L
620 2977 L
620 2923 L
620 2770 L
620 2878 L
620 2891 L
620 2910 L
620 2773 L
620 2852 L
620 2651 L
620 2858 L
620 2879 L
620 2766 L
620 2855 L
620 2988 L
620 2622 L
620 2872 L
620 2728 L
620 2887 L
620 2891 L
620 3058 L
620 2797 L
620 2942 L
620 2930 L
620 3047 L
620 3011 L
620 2994 L
620 2978 L
620 3061 L
620 2907 L
620 3023 L
620 2994 L
620 2959 L
620 2921 L
620 2882 L
620 2885 L
620 3136 L
620 3014 L
620 3079 L
620 3088 L
620 2819 L
620 2942 L
620 3016 L
620 3053 L
620 3082 L
620 2967 L
620 3023 L
620 3092 L
620 2965 L
620 2998 L
620 3075 L
620 3013 L
620 2938 L
620 3051 L
620 2960 L
620 3239 L
620 3090 L
620 2938 L
620 3089 L
620 3147 L
620 3016 L
620 3088 L
620 2933 L
620 3028 L
620 3033 L
620 3172 L
620 2945 L
620 2945 L
620 3255 L
620 3089 L
620 3147 L
620 3158 L
620 3091 L
620 2987 L
620 2924 L
620 3254 L
620 2893 L
620 3022 L
620 3091 L
620 3062 L
620 2960 L
620 3232 L
620 2964 L
620 2998 L
620 3017 L
620 3114 L
620 3177 L
620 3000 L
620 3017 L
620 3070 L
620 2996 L
620 3035 L
620 3161 L
620 3013 L
620 3048 L
620 3005 L
620 3073 L
620 2972 L
620 2990 L
620 3114 L
620 3173 L
620 3062 L
620 3015 L
620 3093 L
620 3058 L
620 3048 L
620 3112 L
620 3071 L
620 3070 L
620 2999 L
620 3062 L
620 3018 L
620 2954 L
620 3116 L
620 3120 L
620 3088 L
620 3031 L
620 2978 L
620 3124 L
620 3051 L
620 3098 L
620 3092 L
620 3056 L
620 3095 L
620 3064 L
620 2853 L
620 3043 L
620 3141 L
620 3172 L
620 3091 L
620 3037 L
620 3118 L
620 3108 L
620 3075 L
620 3133 L
620 3158 L
620 3281 L
620 3136 L
620 3210 L
620 3061 L
620 3153 L
620 3149 L
620 3160 L
620 3127 L
620 2989 L
620 3000 L
620 3134 L
620 2963 L
620 3090 L
620 3152 L
620 3097 L
620 3090 L
620 3287 L
620 2949 L
620 3047 L
620 3014 L
620 3010 L
620 3077 L
620 3062 L
620 3215 L
620 3139 L
620 3084 L
620 3122 L
620 3226 L
620 3323 L
620 3017 L
620 3144 L
620 3123 L
620 3039 L
620 3152 L
620 3084 L
620 3126 L
620 3047 L
620 3012 L
620 3081 L
620 3051 L
620 3122 L
620 3241 L
620 3154 L
620 3017 L
620 3191 L
620 2790 L
620 2986 L
620 3051 L
620 3202 L
620 3089 L
620 2937 L
620 3036 L
620 3058 L
620 3132 L
620 3219 L
620 3032 L
620 3290 L
620 3125 L
620 2999 L
620 3017 L
620 3148 L
620 3221 L
620 3111 L
620 3061 L
620 3152 L
620 3029 L
620 3115 L
620 3173 L
620 3101 L
620 3138 L
620 3166 L
620 3200 L
620 2980 L
620 3225 L
620 3245 L
620 3123 L
620 2958 L
620 3236 L
620 3264 L
620 3076 L
620 3055 L
620 3274 L
620 3167 L
620 3017 L
620 3044 L
620 3048 L
620 3159 L
620 2938 L
620 3009 L
620 3087 L
620 2986 L
620 2959 L
620 3095 L
620 3048 L
620 2881 L
620 3059 L
620 3053 L
620 2985 L
620 3150 L
620 2984 L
620 3055 L
620 3099 L
620 3075 L
620 3079 L
620 3170 L
620 2968 L
620 3109 L
620 3014 L
620 3180 L
620 3045 L
620 3028 L
620 3235 L
620 2912 L
620 3144 L
620 2951 L
620 3155 L
620 2981 L
620 3042 L
620 3070 L
620 3233 L
620 3020 L
620 3090 L
620 3142 L
620 3080 L
620 3001 L
620 3228 L
620 3035 L
620 3076 L
620 3067 L
620 3117 L
620 3191 L
620 3153 L
620 3098 L
620 3075 L
620 3086 L
620 3118 L
620 2964 L
620 3117 L
620 3084 L
620 3195 L
620 2985 L
620 3000 L
620 3135 L
620 2983 L
620 2992 L
620 3068 L
620 3040 L
620 3012 L
620 3035 L
620 3086 L
620 2988 L
620 3148 L
620 3073 L
620 3284 L
620 3098 L
620 2954 L
620 3273 L
620 3081 L
620 3040 L
620 3041 L
620 3147 L
620 2974 L
620 3173 L
620 3096 L
620 3051 L
620 3015 L
620 3165 L
620 3186 L
620 2963 L
620 2934 L
620 3090 L
620 3004 L
620 3196 L
620 2981 L
620 3034 L
620 3078 L
620 3027 L
620 3075 L
620 3084 L
620 3162 L
620 3078 L
620 3001 L
620 3147 L
620 3029 L
620 3054 L
620 2993 L
620 3060 L
620 3128 L
620 3054 L
620 3047 L
620 3175 L
620 3314 L
620 3089 L
620 3015 L
620 3160 L
620 2883 L
620 3058 L
620 3107 L
620 3092 L
620 3136 L
620 2950 L
620 3090 L
620 3047 L
620 3165 L
620 3127 L
620 3017 L
620 3021 L
620 3149 L
620 2989 L
620 3134 L
620 3139 L
620 3072 L
620 2976 L
620 3274 L
620 3031 L
620 3064 L
620 3081 L
620 3228 L
620 3028 L
620 3094 L
620 3041 L
620 3131 L
620 3183 L
620 3058 L
620 2832 L
620 3109 L
620 3142 L
620 3093 L
620 3139 L
620 3035 L
620 3205 L
620 3088 L
620 2933 L
620 2985 L
620 3123 L
L2 C06 COSGR

%
%================
% Legend - Begin
%================
%
GSN 4240 5180 M
4480 5180 L
LWMC SL  C06 COSGR
GSN 4540 5141 M helvM (3.0 uM) show grestore
%
%================
% Legend - End
%================
%

%
% Main frame
%
L10
GSN 
620 1700 M
4220 1700 L
4220 5300 L
620 5300 L
closepath SGR

%
% X axis: large tics
%
L10
%
% X axis: small tics
%
L5
%
% Y axis: large tics
%
L10
GSN 620 1958 M 54 0 rL SGR
GSN 4220 1958 M -54 0 rL SGR
helvS (-0.05) 560 1958 ylabel
GSN 620 3559 M 54 0 rL SGR
GSN 4220 3559 M -54 0 rL SGR
helvS (0) 560 3559 ylabel
GSN 620 5159 M 54 0 rL SGR
GSN 4220 5159 M -54 0 rL SGR
helvS (0.05) 560 5159 ylabel
%
% Y axis: small tics
%
L5
GSN 620 1958 M 36 0 rL SGR
GSN 4220 1958 M -36 0 rL SGR
GSN 620 2278 M 36 0 rL SGR
GSN 4220 2278 M -36 0 rL SGR
GSN 620 2598 M 36 0 rL SGR
GSN 4220 2598 M -36 0 rL SGR
GSN 620 2919 M 36 0 rL SGR
GSN 4220 2919 M -36 0 rL SGR
GSN 620 3239 M 36 0 rL SGR
GSN 4220 3239 M -36 0 rL SGR
GSN 620 3559 M 36 0 rL SGR
GSN 4220 3559 M -36 0 rL SGR
GSN 620 3879 M 36 0 rL SGR
GSN 4220 3879 M -36 0 rL SGR
GSN 620 4199 M 36 0 rL SGR
GSN 4220 4199 M -36 0 rL SGR
GSN 620 4519 M 36 0 rL SGR
GSN 4220 4519 M -36 0 rL SGR
GSN 620 4839 M 36 0 rL SGR
GSN 4220 4839 M -36 0 rL SGR
GSN 620 5159 M 36 0 rL SGR
GSN 4220 5159 M -36 0 rL SGR

%
% X axis - residual panel
%
GSN L5 620 3559 M 4220 3559 L SDA G50 SGR

%
% X-Axis label:
%
gsave 620 1370 M 
[
[(Helvetica) 180 0 true true 0 (t)]
[(Helvetica) 180 0 true true 0 (i)]
[(Helvetica) 180 0 true true 0 (m)]
[(Helvetica) 180 0 true true 0 (e)]
] 0 MCshow grestore

%
% Y-Axis label:
%
gsave 234 3500 M 
currentpoint gsave translate 90 rotate 0 0 moveto
[
[(Helvetica) 180 0 true true 0 (r)]
[(Helvetica) 180 0 true true 0 (e)]
[(Helvetica) 180 0 true true 0 (s)]
[(Helvetica) 180 0 true true 0 (i)]
[(Helvetica) 180 0 true true 0 (d)]
[(Helvetica) 180 0 true true 0 (u)]
[(Helvetica) 180 0 true true 0 (a)]
[(Helvetica) 180 0 true true 0 (l)]
[(Helvetica) 180 0 true true 0 (s)]
] 0 MCshow grestore

end
showpage
%%Trailer
%%EOF
