%!PS-Adobe-3.0 EPSF-3.0
%%BoundingBox: 0 0 514 550
%%Creator: BioKin Ltd.
%%DocumentFonts: Symbol Helvetica
%%EndComments
%
/bkdict 256 dict def
bkdict begin
/M {moveto} def 
/R {rmoveto} def
/L {lineto} def
/rL {rlineto} def
/GSN {gsave newpath} def
/SGR {stroke grestore} def
/COSGR {gsave setrgbcolor stroke grestore grestore} def
/SL {setlinewidth} def
/LWMB {12} def             % line width - model curves, black & white
/LWMC {10} def             % line width - model curves, color
/L2 {2.5 setlinewidth} def
/L5 {5 setlinewidth} def
/L10 {10 setlinewidth} def
/G50 {0.5 setgray} def
/SDA {[10  20] 0 setdash} def % axes
/helvT {/Helvetica findfont 100 scalefont setfont} def % tiny
/helvS {/Helvetica findfont 125 scalefont setfont} def % small
/helvM {/Helvetica findfont 150 scalefont setfont} def % medium
/helvL {/Helvetica findfont 175 scalefont setfont} def % large
/xlabel {gsave M dup
   stringwidth exch -0.5 mul exch rmoveto show grestore} def 
/ylabel {gsave M 90 rotate dup
   stringwidth exch -0.5 mul exch rmoveto show grestore} def
/ylabelresid {gsave M dup
   stringwidth exch -1 mul exch rmoveto show grestore} def
% ======
% Shapes
% ======
% Circle:
/Circ {0 360 arc closepath} def
%
% Square:
/Squa {dup dup -0.5 mul dup dup R -2 mul 0 exch rL 1 mul 0 rL dup 0 exch -1 mul rL closepath} def
%
% Triangle Up:
/TriU {dup dup dup -0.4 mul exch -0.5 mul exch R dup 0.5 mul exch rL dup -1 mul exch 0.5 mul exch rL closepath} def 
%
% Triangle Down:
/TriD {dup dup dup 0.4 mul exch -0.5 mul exch R dup 0.5 mul exch -1 mul rL dup 0.5 mul exch rL closepath} def 
%
% Diamond:
/Diam {45 rotate Squa} def
% ======
% Fills
% ======
/GRF {gsave setgray fill grestore} def                    % gray-level Fill
/COF {gsave setrgbcolor fill grestore} def                % color fill
% ======
% Colors
% ======
/C01 {1.00	0.00	0.00} def      % Red
/C02 {0.00	0.00	1.00} def      % Blue
/C03 {0.00	0.39	0.00} def      % Dark Green
/C04 {0.78	0.08	0.52} def      % Medium Violet Red
/C05 {0.55	0.27	0.07} def      % Saddle Brown
/C06 {0.10	0.70	0.70} def      % (cyan)
/C07 {1.00	0.55	0.00} def      % Dark Orange
/C08 {0.63	0.13	0.94} def      % Purple
/C09 {0.00	0.75	1.00} def      % Deep Sky Blue
/C10 {0.20	0.80	0.20} def      % Lime Green
/C11 {0.47	0.53	0.60} def      % Light Slate Gray
/C12 {0.00	0.00	0.00} def      % Black            % or: {0.19	0.31	0.31} def      % Dark Slate Gray
%
/LGR {0.75} def % light gray
/DGR {0.33} def % dark gray
%
% =============
% Dash patterns
% =============
/dash01 { [80  20] 0 setdash } def
/dash02 { [40  20] 0 setdash } def
/dash03 { [80  20  10  20] 0 setdash } def
/dash04 { [40  20  10  20] 0 setdash } def
/dash05 { [80  20  10  10  10  20] 0 setdash } def
/dash06 { [40  20  10  10  10  20] 0 setdash } def
/dash07 { [10  10] 0 setdash } def
%
/MFshow {
   { dup 5 get 3 ge
     { 5 get 3 eq {gsave} {grestore} ifelse }
     {dup dup 0 get findfont exch 1 get scalefont setfont
     [ currentpoint ] exch dup 2 get 0 exch R dup 5 get 2 ne {dup dup 6
     get exch 4 get {show} {stringwidth pop 0 R} ifelse }if dup 5 get 0 eq
     {dup 3 get {2 get neg 0 exch R pop} {pop aload pop M} ifelse} {dup 5
     get 1 eq {dup 2 get exch dup 3 get exch 6 get stringwidth pop -2 div
     dup 0 R} {dup 6 get stringwidth pop -2 div 0 R 6 get
     show 2 index {aload pop M neg 3 -1 roll neg R pop pop} {pop pop pop
     pop aload pop M} ifelse }ifelse }ifelse }
     ifelse }
   forall} bind def
/MFwidth {0 exch {dup 3 get{dup dup 0 get findfont exch 1 get scalefont
     setfont 6 get stringwidth pop add} {pop} ifelse} forall} bind def
/MCshow { currentpoint stroke M
  exch dup MFwidth -2 div 3 -1 roll R MFshow } def
%
end
%%EndProlog
bkdict begin
0.1 0.1 scale
%
% Model curves:
%

GSN 753 4951 M
753 4951 L
786 4950 L
820 4950 L
853 4950 L
886 4950 L
903 4950 L
919 4949 L
953 4949 L
986 4949 L
1020 4948 L
1053 4948 L
1053 4948 L
1086 4947 L
1120 4946 L
1153 4945 L
1186 4944 L
1203 4944 L
1220 4943 L
1253 4942 L
1286 4940 L
1320 4938 L
1353 4936 L
1353 4936 L
1386 4933 L
1420 4930 L
1453 4926 L
1486 4922 L
1503 4920 L
1520 4917 L
1553 4912 L
1586 4905 L
1620 4897 L
1653 4889 L
1653 4888 L
1686 4878 L
1720 4866 L
1753 4852 L
1786 4836 L
1804 4827 L
1820 4818 L
1853 4796 L
1886 4771 L
1920 4743 L
1953 4710 L
1954 4709 L
1986 4672 L
2020 4629 L
2053 4579 L
2086 4523 L
2104 4490 L
2120 4460 L
2153 4388 L
2186 4307 L
2220 4217 L
2253 4118 L
2254 4115 L
2286 4009 L
2320 3889 L
2353 3760 L
2386 3623 L
2404 3546 L
2420 3478 L
2453 3326 L
2486 3171 L
2520 3015 L
2553 2861 L
2554 2855 L
2586 2712 L
2620 2573 L
2653 2446 L
2686 2337 L
2704 2285 L
2720 2247 L
2753 2180 L
2786 2137 L
2820 2120 L
2853 2129 L
2854 2130 L
2886 2160 L
2920 2211 L
2953 2277 L
2986 2352 L
3004 2395 L
3020 2431 L
3053 2507 L
3068 2539 L
3086 2575 L
3120 2633 L
3153 2678 L
3155 2680 L
3186 2712 L
3220 2735 L
3253 2749 L
3286 2757 L
3305 2759 L
3320 2761 L
3353 2763 L
3386 2763 L
3420 2763 L
3453 2763 L
3455 2763 L
3486 2763 L
3520 2763 L
3553 2763 L
3586 2763 L
3605 2763 L
3620 2763 L
3653 2763 L
3686 2763 L
3720 2763 L
3753 2763 L
3755 2763 L
3786 2763 L
3820 2763 L
3853 2763 L
3886 2763 L
3905 2763 L
3920 2763 L
3953 2763 L
3986 2763 L
4020 2763 L
4053 2763 L
4086 2763 L
LWMC SL  C04 COSGR

%
% Experimental data:
%
GSN 773 5166 M
1625 4893 L
1773 4701 L
1860 4921 L
1922 4670 L
1970 4904 L
2009 4585 L
2043 4586 L
2072 4586 L
2097 4383 L
2120 4371 L
2140 4377 L
2159 4111 L
2176 4125 L
2192 4143 L
2207 4131 L
2221 4283 L
2234 4079 L
2247 4132 L
2259 4039 L
2270 4036 L
2280 4002 L
2290 4019 L
2300 3794 L
2309 3940 L
2318 3999 L
2326 3672 L
2335 3862 L
2342 3618 L
2350 3777 L
2357 3652 L
2364 3589 L
2371 3643 L
2378 3693 L
2384 3637 L
2391 3548 L
2397 3653 L
2403 3812 L
2409 3434 L
2414 3567 L
2420 3564 L
2425 3534 L
2430 3507 L
2435 3246 L
2440 3581 L
2445 3565 L
2450 3305 L
2455 3400 L
2459 3179 L
2464 3275 L
2468 3314 L
2472 3434 L
2476 3467 L
2481 3249 L
2485 3179 L
2489 3396 L
2492 3068 L
2496 3181 L
2500 3181 L
2504 2982 L
2507 2977 L
2511 3116 L
2514 3177 L
2518 3107 L
2521 3003 L
2525 2968 L
2528 2836 L
2531 3008 L
2534 2974 L
2538 2916 L
2541 3017 L
2544 3123 L
2547 2930 L
2550 2897 L
2553 2921 L
2556 3010 L
2559 2847 L
2561 2766 L
2564 3088 L
2567 2760 L
2570 3021 L
2580 2489 L
2590 2869 L
2600 2560 L
2609 2523 L
2618 2611 L
2627 2453 L
2635 2412 L
2643 2530 L
2650 2497 L
2658 2415 L
2665 2376 L
2672 2244 L
2678 2293 L
2685 2318 L
2691 2539 L
2697 2248 L
2703 2302 L
2709 2331 L
2714 2300 L
2720 1951 L
2725 2081 L
2730 2224 L
2735 2194 L
2740 2187 L
2745 2036 L
2750 2153 L
2755 2296 L
2759 2118 L
2764 2125 L
2768 2046 L
2772 1953 L
2777 2216 L
2781 2084 L
2785 2039 L
2789 2077 L
2793 2148 L
2796 1913 L
2800 2014 L
2804 2141 L
2808 2016 L
2811 2044 L
2815 1996 L
2818 2036 L
2822 2021 L
2825 2039 L
2828 2066 L
2831 2067 L
2835 2120 L
2838 1907 L
2841 2064 L
2844 2188 L
2847 2043 L
2850 2078 L
2853 2054 L
2856 2128 L
2859 2060 L
2862 2028 L
2864 2009 L
2867 2055 L
2870 2105 L
2873 2099 L
2875 2080 L
2878 2130 L
2880 2124 L
2883 2222 L
2886 2265 L
2888 1833 L
2891 1923 L
2893 2050 L
2895 2261 L
2898 2202 L
2900 2054 L
2902 2151 L
2905 2156 L
2907 2142 L
2909 2112 L
2912 2225 L
2914 2091 L
2916 2154 L
2918 2020 L
2920 2148 L
2922 2272 L
2925 2072 L
2927 2238 L
2929 2172 L
2931 2161 L
2933 2148 L
2935 2350 L
2937 2168 L
2939 2338 L
2941 2260 L
2943 2284 L
2945 2354 L
2947 2184 L
2948 2184 L
2950 2338 L
2952 2297 L
2954 2192 L
2956 2226 L
2958 2237 L
2959 2320 L
2961 2441 L
2963 2280 L
2965 2373 L
2966 2257 L
2968 2396 L
2970 2396 L
2972 2215 L
2973 2297 L
2975 2326 L
2977 2423 L
2978 2190 L
2980 2291 L
2982 2380 L
2983 2370 L
2985 2236 L
2986 2288 L
2988 2265 L
2989 2399 L
2991 2330 L
2993 2413 L
2994 2182 L
2996 2566 L
2997 2344 L
2999 2362 L
3000 2412 L
3002 2331 L
3003 2402 L
3005 2471 L
3006 2380 L
3007 2359 L
3009 2458 L
3010 2245 L
3012 2367 L
3013 2451 L
3014 2550 L
3016 2502 L
3017 2474 L
3019 2471 L
3020 2476 L
3021 2453 L
3023 2605 L
3024 2573 L
3025 2584 L
3027 2322 L
3028 2469 L
3029 2698 L
3031 2559 L
3032 2580 L
3033 2482 L
3034 2580 L
3036 2543 L
3037 2421 L
3038 2576 L
3039 2492 L
3041 2728 L
3042 2714 L
3043 2451 L
3044 2668 L
3045 2527 L
3047 2594 L
3048 2530 L
3049 2706 L
3050 2526 L
3051 2450 L
3053 2391 L
3054 2687 L
3055 2480 L
3056 2484 L
3057 2463 L
3058 2480 L
3059 2564 L
3061 2650 L
3062 2690 L
3063 2543 L
3064 2549 L
3065 2558 L
3066 2669 L
3067 2459 L
3068 2492 L
3069 2835 L
3070 2690 L
3071 2686 L
3073 2744 L
3074 2672 L
3075 2662 L
3076 2605 L
3077 2492 L
3078 2657 L
3079 2775 L
3080 2590 L
3081 2368 L
3082 2685 L
3083 2624 L
3084 2647 L
3085 2761 L
3086 2568 L
3087 2694 L
3088 2703 L
3089 2816 L
3112 2827 L
3133 2843 L
3152 2863 L
3170 3003 L
3186 2726 L
3201 2928 L
3216 3119 L
3229 2964 L
3241 3033 L
3253 2841 L
3264 3015 L
3275 3025 L
3285 3010 L
3295 3044 L
3304 3034 L
3313 2799 L
3322 3070 L
3330 3012 L
3338 2965 L
3346 2991 L
3353 3088 L
3360 2983 L
3367 2934 L
3374 3146 L
3380 2820 L
3387 3159 L
3393 3009 L
3399 3010 L
3405 2956 L
3410 2973 L
3416 3049 L
3421 2944 L
3426 2921 L
3431 2935 L
3436 3033 L
3441 2996 L
3446 2898 L
3451 2971 L
3455 2965 L
3460 2849 L
3464 2891 L
3469 2967 L
3473 3046 L
3477 2972 L
3481 2972 L
3485 2879 L
3489 2901 L
3493 2862 L
3496 2957 L
3500 3067 L
3504 2910 L
3507 3130 L
3511 3109 L
3514 2906 L
3518 3040 L
3521 2990 L
3525 2884 L
3528 2957 L
3531 3297 L
3534 2957 L
3537 3051 L
3540 2862 L
3543 2818 L
3546 2910 L
3549 2863 L
3552 2951 L
3555 3051 L
3558 2881 L
3561 2966 L
3564 2846 L
3566 2811 L
3575 2821 L
3586 2669 L
3595 3061 L
3605 2754 L
3613 2901 L
3622 2845 L
3630 2986 L
3638 2876 L
3646 2857 L
3653 2936 L
3660 2985 L
3667 2908 L
3674 2700 L
3681 2921 L
3687 2915 L
3693 2781 L
3699 2713 L
3705 2829 L
3710 2719 L
3716 3021 L
3721 2840 L
3727 2851 L
3732 2751 L
3737 2863 L
3742 2702 L
3746 2883 L
3751 2890 L
3756 2662 L
3760 2523 L
3764 2822 L
3769 2928 L
3773 2713 L
3777 2644 L
3781 2752 L
3785 2696 L
3789 2795 L
3793 2589 L
3797 2793 L
3800 2818 L
3804 2831 L
3808 2703 L
3811 2747 L
3815 2887 L
3818 2609 L
3821 2556 L
3825 2850 L
3828 2591 L
3831 2751 L
3834 2471 L
3838 2661 L
3841 2545 L
3844 2738 L
3847 2960 L
3850 2683 L
3853 2604 L
3855 2727 L
3858 2400 L
3861 2631 L
3864 2711 L
3867 2773 L
3869 2568 L
3872 2792 L
3875 2576 L
3877 2715 L
3880 2700 L
3882 2721 L
3885 2799 L
3887 2505 L
3890 2744 L
3892 2531 L
3895 2611 L
3897 2642 L
3899 2748 L
3902 2652 L
3904 2587 L
3906 2727 L
3908 2536 L
3911 2612 L
3913 2652 L
3915 2715 L
3917 2655 L
3919 2812 L
3921 2664 L
3923 2863 L
3926 2587 L
3928 2771 L
3930 2701 L
3932 2678 L
3934 2672 L
3936 2680 L
3938 2662 L
3940 2584 L
3942 2601 L
3943 2929 L
3945 2660 L
3947 2547 L
3949 2705 L
3951 2652 L
3953 2869 L
3955 2593 L
3956 2829 L
3958 2840 L
3960 2598 L
3962 2778 L
3963 2641 L
3965 2738 L
3967 2754 L
3969 2795 L
3970 2458 L
3972 2819 L
3974 2519 L
3975 2630 L
3977 2609 L
3978 2737 L
3980 2750 L
3982 2385 L
3983 2550 L
3985 2557 L
3986 2686 L
3988 2811 L
3990 2561 L
3991 2601 L
3993 2314 L
3994 2693 L
3996 2553 L
3997 2714 L
3999 2324 L
4000 2614 L
4001 2802 L
4003 2453 L
4004 2482 L
4006 2530 L
4007 2498 L
4009 2611 L
4010 2636 L
4011 2677 L
4013 2647 L
4014 2592 L
4016 2594 L
4017 2466 L
4018 2675 L
4020 2666 L
4021 2291 L
4022 2625 L
4024 2532 L
4025 2650 L
4026 2568 L
4028 2613 L
4029 2726 L
4030 2628 L
4031 2501 L
4033 2436 L
4034 2612 L
4035 2645 L
4036 2457 L
4038 2434 L
4039 2631 L
4040 2684 L
4041 2468 L
4042 2666 L
4044 2593 L
4045 2437 L
4046 2611 L
4047 2618 L
4048 2943 L
4050 2564 L
4051 2553 L
4052 2693 L
4053 2519 L
4054 2625 L
4055 2735 L
4056 2642 L
4058 2641 L
4059 2501 L
4060 2621 L
4061 2667 L
4062 2619 L
4063 2525 L
4064 2505 L
4065 2581 L
4066 2543 L
L2 C04 COSGR

%
%================
% Legend - Begin
%================
%
GSN 4240 5180 M
4480 5180 L
LWMC SL  C04 COSGR
GSN 4540 5141 M helvM (2.0 uM) show grestore
%
%================
% Legend - End
%================
%

%
% Residuals:
%
GSN 773 1310 M
1625 1132 L
1773 1019 L
1860 1240 L
1922 1077 L
1970 1308 L
2009 1088 L
2043 1127 L
2072 1165 L
2097 1037 L
2120 1063 L
2140 1103 L
2159 921 L
2176 966 L
2192 1014 L
2207 1037 L
2221 1192 L
2234 1057 L
2247 1131 L
2259 1085 L
2270 1111 L
2280 1113 L
2290 1155 L
2300 999 L
2309 1145 L
2318 1219 L
2326 979 L
2335 1158 L
2342 985 L
2350 1139 L
2357 1061 L
2364 1033 L
2371 1100 L
2378 1164 L
2384 1140 L
2391 1090 L
2397 1196 L
2403 1346 L
2409 1059 L
2414 1188 L
2420 1205 L
2425 1201 L
2430 1198 L
2435 1004 L
2440 1295 L
2445 1300 L
2450 1106 L
2455 1200 L
2459 1039 L
2464 1133 L
2468 1181 L
2472 1295 L
2476 1337 L
2481 1177 L
2485 1135 L
2489 1327 L
2492 1074 L
2496 1181 L
2500 1195 L
2504 1048 L
2507 1057 L
2511 1184 L
2514 1247 L
2518 1203 L
2521 1131 L
2525 1116 L
2528 1021 L
2531 1173 L
2534 1158 L
2538 1122 L
2541 1217 L
2544 1314 L
2547 1168 L
2550 1152 L
2553 1183 L
2556 1266 L
2559 1144 L
2561 1089 L
2564 1361 L
2567 1104 L
2570 1327 L
2580 933 L
2590 1277 L
2600 1059 L
2609 1060 L
2618 1161 L
2627 1060 L
2635 1053 L
2643 1172 L
2650 1168 L
2658 1123 L
2665 1111 L
2672 1022 L
2678 1079 L
2685 1116 L
2691 1311 L
2697 1089 L
2703 1146 L
2709 1182 L
2714 1168 L
2720 895 L
2725 1011 L
2730 1136 L
2735 1120 L
2740 1123 L
2745 1008 L
2750 1109 L
2755 1232 L
2759 1093 L
2764 1104 L
2768 1045 L
2772 973 L
2777 1191 L
2781 1087 L
2785 1054 L
2789 1087 L
2793 1148 L
2796 959 L
2800 1043 L
2804 1148 L
2808 1047 L
2811 1071 L
2815 1033 L
2818 1066 L
2822 1054 L
2825 1069 L
2828 1091 L
2831 1091 L
2835 1134 L
2838 960 L
2841 1086 L
2844 1187 L
2847 1068 L
2850 1095 L
2853 1074 L
2856 1132 L
2859 1075 L
2862 1048 L
2864 1031 L
2867 1066 L
2870 1105 L
2873 1097 L
2875 1080 L
2878 1118 L
2880 1111 L
2883 1188 L
2886 1221 L
2888 867 L
2891 937 L
2893 1038 L
2895 1207 L
2898 1156 L
2900 1033 L
2902 1109 L
2905 1110 L
2907 1096 L
2909 1069 L
2912 1157 L
2914 1045 L
2916 1093 L
2918 981 L
2920 1082 L
2922 1180 L
2925 1014 L
2927 1146 L
2929 1089 L
2931 1077 L
2933 1063 L
2935 1224 L
2937 1073 L
2939 1207 L
2941 1141 L
2943 1157 L
2945 1211 L
2947 1069 L
2948 1066 L
2950 1189 L
2952 1152 L
2954 1063 L
2956 1088 L
2958 1094 L
2959 1157 L
2961 1253 L
2963 1119 L
2965 1192 L
2966 1093 L
2968 1203 L
2970 1201 L
2972 1050 L
2973 1114 L
2975 1134 L
2977 1210 L
2978 1017 L
2980 1096 L
2982 1165 L
2983 1154 L
2985 1042 L
2986 1082 L
2988 1060 L
2989 1167 L
2991 1107 L
2993 1172 L
2994 981 L
2996 1291 L
2997 1107 L
2999 1119 L
3000 1157 L
3002 1088 L
3003 1143 L
3005 1196 L
3006 1119 L
3007 1099 L
3009 1177 L
3010 1002 L
3012 1098 L
3013 1164 L
3014 1241 L
3016 1200 L
3017 1174 L
3019 1169 L
3020 1171 L
3021 1149 L
3023 1271 L
3024 1241 L
3025 1249 L
3027 1033 L
3028 1150 L
3029 1333 L
3031 1218 L
3032 1233 L
3033 1150 L
3034 1228 L
3036 1196 L
3037 1094 L
3038 1218 L
3039 1147 L
3041 1337 L
3042 1323 L
3043 1107 L
3044 1281 L
3045 1164 L
3047 1217 L
3048 1163 L
3049 1303 L
3050 1155 L
3051 1091 L
3053 1042 L
3054 1280 L
3055 1109 L
3056 1110 L
3057 1092 L
3058 1104 L
3059 1170 L
3061 1238 L
3062 1268 L
3063 1147 L
3064 1150 L
3065 1155 L
3066 1243 L
3067 1072 L
3068 1096 L
3069 1374 L
3070 1254 L
3071 1248 L
3073 1294 L
3074 1233 L
3075 1224 L
3076 1176 L
3077 1082 L
3078 1215 L
3079 1309 L
3080 1157 L
3081 975 L
3082 1230 L
3083 1180 L
3084 1197 L
3085 1288 L
3086 1130 L
3087 1231 L
3088 1236 L
3089 1326 L
3112 1302 L
3133 1289 L
3152 1285 L
3170 1384 L
3186 1146 L
3201 1300 L
3216 1448 L
3229 1317 L
3241 1369 L
3253 1209 L
3264 1348 L
3275 1354 L
3285 1340 L
3295 1367 L
3304 1358 L
3313 1166 L
3322 1386 L
3330 1338 L
3338 1300 L
3346 1321 L
3353 1399 L
3360 1313 L
3367 1274 L
3374 1446 L
3380 1181 L
3387 1456 L
3393 1334 L
3399 1335 L
3405 1291 L
3410 1305 L
3416 1367 L
3421 1281 L
3426 1263 L
3431 1274 L
3436 1354 L
3441 1323 L
3446 1244 L
3451 1303 L
3455 1298 L
3460 1204 L
3464 1239 L
3469 1300 L
3473 1364 L
3477 1304 L
3481 1305 L
3485 1229 L
3489 1247 L
3493 1215 L
3496 1292 L
3500 1381 L
3504 1254 L
3507 1433 L
3511 1416 L
3514 1251 L
3518 1359 L
3521 1319 L
3525 1233 L
3528 1292 L
3531 1569 L
3534 1292 L
3537 1368 L
3540 1215 L
3543 1179 L
3546 1254 L
3549 1215 L
3552 1287 L
3555 1368 L
3558 1230 L
3561 1300 L
3564 1202 L
3566 1173 L
3575 1181 L
3586 1058 L
3595 1376 L
3605 1127 L
3613 1246 L
3622 1201 L
3630 1315 L
3638 1226 L
3646 1211 L
3653 1275 L
3660 1315 L
3667 1252 L
3674 1083 L
3681 1263 L
3687 1258 L
3693 1149 L
3699 1094 L
3705 1188 L
3710 1099 L
3716 1344 L
3721 1197 L
3727 1206 L
3732 1124 L
3737 1216 L
3742 1085 L
3746 1232 L
3751 1238 L
3756 1053 L
3760 940 L
3764 1182 L
3769 1268 L
3773 1094 L
3777 1038 L
3781 1125 L
3785 1080 L
3789 1161 L
3793 993 L
3797 1159 L
3800 1179 L
3804 1190 L
3808 1085 L
3811 1121 L
3815 1235 L
3818 1009 L
3821 966 L
3825 1205 L
3828 995 L
3831 1124 L
3834 897 L
3838 1051 L
3841 957 L
3844 1114 L
3847 1294 L
3850 1070 L
3853 1005 L
3855 1105 L
3858 840 L
3861 1027 L
3864 1092 L
3867 1142 L
3869 976 L
3872 1158 L
3875 982 L
3877 1095 L
3880 1083 L
3882 1100 L
3885 1163 L
3887 924 L
3890 1119 L
3892 946 L
3895 1010 L
3897 1036 L
3899 1122 L
3902 1044 L
3904 992 L
3906 1105 L
3908 950 L
3911 1012 L
3913 1044 L
3915 1095 L
3917 1047 L
3919 1174 L
3921 1054 L
3923 1216 L
3926 992 L
3928 1141 L
3930 1084 L
3932 1065 L
3934 1060 L
3936 1067 L
3938 1053 L
3940 989 L
3942 1002 L
3943 1269 L
3945 1051 L
3947 959 L
3949 1087 L
3951 1044 L
3953 1220 L
3955 996 L
3956 1188 L
3958 1197 L
3960 1000 L
3962 1147 L
3963 1035 L
3965 1114 L
3967 1127 L
3969 1160 L
3970 887 L
3972 1180 L
3974 936 L
3975 1026 L
3977 1009 L
3978 1114 L
3980 1124 L
3982 827 L
3983 961 L
3985 967 L
3986 1072 L
3988 1173 L
3990 970 L
3991 1002 L
3993 770 L
3994 1078 L
3996 964 L
3997 1095 L
3999 777 L
4000 1013 L
4001 1166 L
4003 882 L
4004 906 L
4006 945 L
4007 919 L
4009 1011 L
4010 1031 L
4011 1065 L
4013 1040 L
4014 995 L
4016 997 L
4017 893 L
4018 1063 L
4020 1056 L
4021 750 L
4022 1022 L
4024 946 L
4025 1043 L
4026 976 L
4028 1012 L
4029 1104 L
4030 1025 L
4031 921 L
4033 868 L
4034 1012 L
4035 1038 L
4036 885 L
4038 867 L
4039 1027 L
4040 1070 L
4041 894 L
4042 1056 L
4044 996 L
4045 870 L
4046 1011 L
4047 1017 L
4048 1281 L
4050 973 L
4051 963 L
4052 1077 L
4053 936 L
4054 1022 L
4055 1112 L
4056 1036 L
4058 1035 L
4059 921 L
4060 1019 L
4061 1056 L
4062 1017 L
4063 941 L
4064 924 L
4065 987 L
4066 955 L
L2 C04 COSGR

%
% Main frame
%
L10
GSN 
620 1700 M
4220 1700 L
4220 5300 L
620 5300 L
closepath SGR

%
% X axis: large tics
%
L10
GSN 1074 1700 M 0  54 rL SGR
GSN 1074 5300 M 0 -54 rL SGR
helvS (0.0001) 1074 470 xlabel
GSN 1572 1700 M 0  54 rL SGR
GSN 1572 5300 M 0 -54 rL SGR
helvS (0.001) 1572 470 xlabel
GSN 2071 1700 M 0  54 rL SGR
GSN 2071 5300 M 0 -54 rL SGR
helvS (0.01) 2071 470 xlabel
GSN 2570 1700 M 0  54 rL SGR
GSN 2570 5300 M 0 -54 rL SGR
helvS (0.1) 2570 470 xlabel
GSN 3068 1700 M 0  54 rL SGR
GSN 3068 5300 M 0 -54 rL SGR
helvS (1) 3068 470 xlabel
GSN 3567 1700 M 0  54 rL SGR
GSN 3567 5300 M 0 -54 rL SGR
helvS (10) 3567 470 xlabel
GSN 4066 1700 M 0  54 rL SGR
GSN 4066 5300 M 0 -54 rL SGR
helvS (100) 4066 470 xlabel
%
% X axis: small tics
%
L5
GSN 725 1700 M 0  36 rL SGR
GSN 725 5300 M 0 -36 rL SGR
GSN 813 1700 M 0  36 rL SGR
GSN 813 5300 M 0 -36 rL SGR
GSN 875 1700 M 0  36 rL SGR
GSN 875 5300 M 0 -36 rL SGR
GSN 924 1700 M 0  36 rL SGR
GSN 924 5300 M 0 -36 rL SGR
GSN 963 1700 M 0  36 rL SGR
GSN 963 5300 M 0 -36 rL SGR
GSN 996 1700 M 0  36 rL SGR
GSN 996 5300 M 0 -36 rL SGR
GSN 1025 1700 M 0  36 rL SGR
GSN 1025 5300 M 0 -36 rL SGR
GSN 1051 1700 M 0  36 rL SGR
GSN 1051 5300 M 0 -36 rL SGR
GSN 1224 1700 M 0  36 rL SGR
GSN 1224 5300 M 0 -36 rL SGR
GSN 1312 1700 M 0  36 rL SGR
GSN 1312 5300 M 0 -36 rL SGR
GSN 1374 1700 M 0  36 rL SGR
GSN 1374 5300 M 0 -36 rL SGR
GSN 1422 1700 M 0  36 rL SGR
GSN 1422 5300 M 0 -36 rL SGR
GSN 1462 1700 M 0  36 rL SGR
GSN 1462 5300 M 0 -36 rL SGR
GSN 1495 1700 M 0  36 rL SGR
GSN 1495 5300 M 0 -36 rL SGR
GSN 1524 1700 M 0  36 rL SGR
GSN 1524 5300 M 0 -36 rL SGR
GSN 1550 1700 M 0  36 rL SGR
GSN 1550 5300 M 0 -36 rL SGR
GSN 1722 1700 M 0  36 rL SGR
GSN 1722 5300 M 0 -36 rL SGR
GSN 1810 1700 M 0  36 rL SGR
GSN 1810 5300 M 0 -36 rL SGR
GSN 1873 1700 M 0  36 rL SGR
GSN 1873 5300 M 0 -36 rL SGR
GSN 1921 1700 M 0  36 rL SGR
GSN 1921 5300 M 0 -36 rL SGR
GSN 1960 1700 M 0  36 rL SGR
GSN 1960 5300 M 0 -36 rL SGR
GSN 1994 1700 M 0  36 rL SGR
GSN 1994 5300 M 0 -36 rL SGR
GSN 2023 1700 M 0  36 rL SGR
GSN 2023 5300 M 0 -36 rL SGR
GSN 2048 1700 M 0  36 rL SGR
GSN 2048 5300 M 0 -36 rL SGR
GSN 2221 1700 M 0  36 rL SGR
GSN 2221 5300 M 0 -36 rL SGR
GSN 2309 1700 M 0  36 rL SGR
GSN 2309 5300 M 0 -36 rL SGR
GSN 2371 1700 M 0  36 rL SGR
GSN 2371 5300 M 0 -36 rL SGR
GSN 2420 1700 M 0  36 rL SGR
GSN 2420 5300 M 0 -36 rL SGR
GSN 2459 1700 M 0  36 rL SGR
GSN 2459 5300 M 0 -36 rL SGR
GSN 2492 1700 M 0  36 rL SGR
GSN 2492 5300 M 0 -36 rL SGR
GSN 2521 1700 M 0  36 rL SGR
GSN 2521 5300 M 0 -36 rL SGR
GSN 2547 1700 M 0  36 rL SGR
GSN 2547 5300 M 0 -36 rL SGR
GSN 2720 1700 M 0  36 rL SGR
GSN 2720 5300 M 0 -36 rL SGR
GSN 2808 1700 M 0  36 rL SGR
GSN 2808 5300 M 0 -36 rL SGR
GSN 2870 1700 M 0  36 rL SGR
GSN 2870 5300 M 0 -36 rL SGR
GSN 2918 1700 M 0  36 rL SGR
GSN 2918 5300 M 0 -36 rL SGR
GSN 2958 1700 M 0  36 rL SGR
GSN 2958 5300 M 0 -36 rL SGR
GSN 2991 1700 M 0  36 rL SGR
GSN 2991 5300 M 0 -36 rL SGR
GSN 3020 1700 M 0  36 rL SGR
GSN 3020 5300 M 0 -36 rL SGR
GSN 3045 1700 M 0  36 rL SGR
GSN 3045 5300 M 0 -36 rL SGR
GSN 3218 1700 M 0  36 rL SGR
GSN 3218 5300 M 0 -36 rL SGR
GSN 3306 1700 M 0  36 rL SGR
GSN 3306 5300 M 0 -36 rL SGR
GSN 3368 1700 M 0  36 rL SGR
GSN 3368 5300 M 0 -36 rL SGR
GSN 3417 1700 M 0  36 rL SGR
GSN 3417 5300 M 0 -36 rL SGR
GSN 3456 1700 M 0  36 rL SGR
GSN 3456 5300 M 0 -36 rL SGR
GSN 3490 1700 M 0  36 rL SGR
GSN 3490 5300 M 0 -36 rL SGR
GSN 3519 1700 M 0  36 rL SGR
GSN 3519 5300 M 0 -36 rL SGR
GSN 3544 1700 M 0  36 rL SGR
GSN 3544 5300 M 0 -36 rL SGR
GSN 3717 1700 M 0  36 rL SGR
GSN 3717 5300 M 0 -36 rL SGR
GSN 3805 1700 M 0  36 rL SGR
GSN 3805 5300 M 0 -36 rL SGR
GSN 3867 1700 M 0  36 rL SGR
GSN 3867 5300 M 0 -36 rL SGR
GSN 3915 1700 M 0  36 rL SGR
GSN 3915 5300 M 0 -36 rL SGR
GSN 3955 1700 M 0  36 rL SGR
GSN 3955 5300 M 0 -36 rL SGR
GSN 3988 1700 M 0  36 rL SGR
GSN 3988 5300 M 0 -36 rL SGR
GSN 4017 1700 M 0  36 rL SGR
GSN 4017 5300 M 0 -36 rL SGR
GSN 4043 1700 M 0  36 rL SGR
GSN 4043 5300 M 0 -36 rL SGR
GSN 4216 1700 M 0  36 rL SGR
GSN 4216 5300 M 0 -36 rL SGR
%
% Y axis: large tics
%
L10
GSN 620 2287 M 54 0 rL SGR
GSN 4220 2287 M -54 0 rL SGR
helvS (1) 560 2287 ylabel
GSN 620 3098 M 54 0 rL SGR
GSN 4220 3098 M -54 0 rL SGR
helvS (1.02) 560 3098 ylabel
GSN 620 3908 M 54 0 rL SGR
GSN 4220 3908 M -54 0 rL SGR
helvS (1.04) 560 3908 ylabel
GSN 620 4719 M 54 0 rL SGR
GSN 4220 4719 M -54 0 rL SGR
helvS (1.06) 560 4719 ylabel
%
% Y axis: small tics
%
L5
GSN 620 1881 M 36 0 rL SGR
GSN 4220 1881 M -36 0 rL SGR
GSN 620 2084 M 36 0 rL SGR
GSN 4220 2084 M -36 0 rL SGR
GSN 620 2287 M 36 0 rL SGR
GSN 4220 2287 M -36 0 rL SGR
GSN 620 2490 M 36 0 rL SGR
GSN 4220 2490 M -36 0 rL SGR
GSN 620 2692 M 36 0 rL SGR
GSN 4220 2692 M -36 0 rL SGR
GSN 620 2895 M 36 0 rL SGR
GSN 4220 2895 M -36 0 rL SGR
GSN 620 3098 M 36 0 rL SGR
GSN 4220 3098 M -36 0 rL SGR
GSN 620 3300 M 36 0 rL SGR
GSN 4220 3300 M -36 0 rL SGR
GSN 620 3503 M 36 0 rL SGR
GSN 4220 3503 M -36 0 rL SGR
GSN 620 3706 M 36 0 rL SGR
GSN 4220 3706 M -36 0 rL SGR
GSN 620 3908 M 36 0 rL SGR
GSN 4220 3908 M -36 0 rL SGR
GSN 620 4111 M 36 0 rL SGR
GSN 4220 4111 M -36 0 rL SGR
GSN 620 4314 M 36 0 rL SGR
GSN 4220 4314 M -36 0 rL SGR
GSN 620 4516 M 36 0 rL SGR
GSN 4220 4516 M -36 0 rL SGR
GSN 620 4719 M 36 0 rL SGR
GSN 4220 4719 M -36 0 rL SGR
GSN 620 4922 M 36 0 rL SGR
GSN 4220 4922 M -36 0 rL SGR
GSN 620 5124 M 36 0 rL SGR
GSN 4220 5124 M -36 0 rL SGR

%
% X-Axis label:
%
gsave 2420 290 M 
[
[(Helvetica) 180 0 true true 0 (t)]
[(Helvetica) 180 0 true true 0 (i)]
[(Helvetica) 180 0 true true 0 (m)]
[(Helvetica) 180 0 true true 0 (e)]
] 0 MCshow grestore

%
% Y-Axis label:
%
gsave 234 3499 M 
currentpoint gsave translate 90 rotate 0 0 moveto
[
[(Helvetica) 180 0 true true 0 (s)]
[(Helvetica) 180 0 true true 0 (i)]
[(Helvetica) 180 0 true true 0 (g)]
[(Helvetica) 180 0 true true 0 (n)]
[(Helvetica) 180 0 true true 0 (a)]
[(Helvetica) 180 0 true true 0 (l)]
] 0 MCshow grestore

%
% Residuals:
%
gsave 129 1160 M 
currentpoint gsave translate 90 rotate 0 0 moveto
[
[(Helvetica) 150 0 true true 0 (r)]
[(Helvetica) 150 0 true true 0 (e)]
[(Helvetica) 150 0 true true 0 (s)]
[(Helvetica) 150 0 true true 0 (i)]
[(Helvetica) 150 0 true true 0 (d)]
[(Helvetica) 150 0 true true 0 (u)]
[(Helvetica) 150 0 true true 0 (a)]
[(Helvetica) 150 0 true true 0 (l)]
[(Helvetica) 150 0 true true 0 (s)]
] 0 MCshow grestore

%
% Residual frame
%
L10
GSN 
620 620 M
4220 620 L
4220 1700 L
620 1700 L
closepath SGR
%
% X axis: large tics - residual frame
%
L10
GSN 1074 620 M 0  54 rL SGR
GSN 1074 1700 M 0 -54 rL SGR
GSN 1572 620 M 0  54 rL SGR
GSN 1572 1700 M 0 -54 rL SGR
GSN 2071 620 M 0  54 rL SGR
GSN 2071 1700 M 0 -54 rL SGR
GSN 2570 620 M 0  54 rL SGR
GSN 2570 1700 M 0 -54 rL SGR
GSN 3068 620 M 0  54 rL SGR
GSN 3068 1700 M 0 -54 rL SGR
GSN 3567 620 M 0  54 rL SGR
GSN 3567 1700 M 0 -54 rL SGR
GSN 4066 620 M 0  54 rL SGR
GSN 4066 1700 M 0 -54 rL SGR
%
% X axis: small tics - residual frame
%
L5
GSN 725 620 M 0  36 rL SGR
GSN 725 1700 M 0 -36 rL SGR
GSN 813 620 M 0  36 rL SGR
GSN 813 1700 M 0 -36 rL SGR
GSN 875 620 M 0  36 rL SGR
GSN 875 1700 M 0 -36 rL SGR
GSN 924 620 M 0  36 rL SGR
GSN 924 1700 M 0 -36 rL SGR
GSN 963 620 M 0  36 rL SGR
GSN 963 1700 M 0 -36 rL SGR
GSN 996 620 M 0  36 rL SGR
GSN 996 1700 M 0 -36 rL SGR
GSN 1025 620 M 0  36 rL SGR
GSN 1025 1700 M 0 -36 rL SGR
GSN 1051 620 M 0  36 rL SGR
GSN 1051 1700 M 0 -36 rL SGR
GSN 1224 620 M 0  36 rL SGR
GSN 1224 1700 M 0 -36 rL SGR
GSN 1312 620 M 0  36 rL SGR
GSN 1312 1700 M 0 -36 rL SGR
GSN 1374 620 M 0  36 rL SGR
GSN 1374 1700 M 0 -36 rL SGR
GSN 1422 620 M 0  36 rL SGR
GSN 1422 1700 M 0 -36 rL SGR
GSN 1462 620 M 0  36 rL SGR
GSN 1462 1700 M 0 -36 rL SGR
GSN 1495 620 M 0  36 rL SGR
GSN 1495 1700 M 0 -36 rL SGR
GSN 1524 620 M 0  36 rL SGR
GSN 1524 1700 M 0 -36 rL SGR
GSN 1550 620 M 0  36 rL SGR
GSN 1550 1700 M 0 -36 rL SGR
GSN 1722 620 M 0  36 rL SGR
GSN 1722 1700 M 0 -36 rL SGR
GSN 1810 620 M 0  36 rL SGR
GSN 1810 1700 M 0 -36 rL SGR
GSN 1873 620 M 0  36 rL SGR
GSN 1873 1700 M 0 -36 rL SGR
GSN 1921 620 M 0  36 rL SGR
GSN 1921 1700 M 0 -36 rL SGR
GSN 1960 620 M 0  36 rL SGR
GSN 1960 1700 M 0 -36 rL SGR
GSN 1994 620 M 0  36 rL SGR
GSN 1994 1700 M 0 -36 rL SGR
GSN 2023 620 M 0  36 rL SGR
GSN 2023 1700 M 0 -36 rL SGR
GSN 2048 620 M 0  36 rL SGR
GSN 2048 1700 M 0 -36 rL SGR
GSN 2221 620 M 0  36 rL SGR
GSN 2221 1700 M 0 -36 rL SGR
GSN 2309 620 M 0  36 rL SGR
GSN 2309 1700 M 0 -36 rL SGR
GSN 2371 620 M 0  36 rL SGR
GSN 2371 1700 M 0 -36 rL SGR
GSN 2420 620 M 0  36 rL SGR
GSN 2420 1700 M 0 -36 rL SGR
GSN 2459 620 M 0  36 rL SGR
GSN 2459 1700 M 0 -36 rL SGR
GSN 2492 620 M 0  36 rL SGR
GSN 2492 1700 M 0 -36 rL SGR
GSN 2521 620 M 0  36 rL SGR
GSN 2521 1700 M 0 -36 rL SGR
GSN 2547 620 M 0  36 rL SGR
GSN 2547 1700 M 0 -36 rL SGR
GSN 2720 620 M 0  36 rL SGR
GSN 2720 1700 M 0 -36 rL SGR
GSN 2808 620 M 0  36 rL SGR
GSN 2808 1700 M 0 -36 rL SGR
GSN 2870 620 M 0  36 rL SGR
GSN 2870 1700 M 0 -36 rL SGR
GSN 2918 620 M 0  36 rL SGR
GSN 2918 1700 M 0 -36 rL SGR
GSN 2958 620 M 0  36 rL SGR
GSN 2958 1700 M 0 -36 rL SGR
GSN 2991 620 M 0  36 rL SGR
GSN 2991 1700 M 0 -36 rL SGR
GSN 3020 620 M 0  36 rL SGR
GSN 3020 1700 M 0 -36 rL SGR
GSN 3045 620 M 0  36 rL SGR
GSN 3045 1700 M 0 -36 rL SGR
GSN 3218 620 M 0  36 rL SGR
GSN 3218 1700 M 0 -36 rL SGR
GSN 3306 620 M 0  36 rL SGR
GSN 3306 1700 M 0 -36 rL SGR
GSN 3368 620 M 0  36 rL SGR
GSN 3368 1700 M 0 -36 rL SGR
GSN 3417 620 M 0  36 rL SGR
GSN 3417 1700 M 0 -36 rL SGR
GSN 3456 620 M 0  36 rL SGR
GSN 3456 1700 M 0 -36 rL SGR
GSN 3490 620 M 0  36 rL SGR
GSN 3490 1700 M 0 -36 rL SGR
GSN 3519 620 M 0  36 rL SGR
GSN 3519 1700 M 0 -36 rL SGR
GSN 3544 620 M 0  36 rL SGR
GSN 3544 1700 M 0 -36 rL SGR
GSN 3717 620 M 0  36 rL SGR
GSN 3717 1700 M 0 -36 rL SGR
GSN 3805 620 M 0  36 rL SGR
GSN 3805 1700 M 0 -36 rL SGR
GSN 3867 620 M 0  36 rL SGR
GSN 3867 1700 M 0 -36 rL SGR
GSN 3915 620 M 0  36 rL SGR
GSN 3915 1700 M 0 -36 rL SGR
GSN 3955 620 M 0  36 rL SGR
GSN 3955 1700 M 0 -36 rL SGR
GSN 3988 620 M 0  36 rL SGR
GSN 3988 1700 M 0 -36 rL SGR
GSN 4017 620 M 0  36 rL SGR
GSN 4017 1700 M 0 -36 rL SGR
GSN 4043 620 M 0  36 rL SGR
GSN 4043 1700 M 0 -36 rL SGR
GSN 4216 620 M 0  36 rL SGR
GSN 4216 1700 M 0 -36 rL SGR
%
% Y axis: large tics - residual frame
%
L10
GSN 620 805 M 54 0 rL SGR
GSN 4220 805 M -54 0 rL SGR
helvS (-0.01) 560 805 ylabelresid
GSN 620 1135 M 54 0 rL SGR
GSN 4220 1135 M -54 0 rL SGR
helvS (0) 560 1135 ylabelresid
GSN 620 1464 M 54 0 rL SGR
GSN 4220 1464 M -54 0 rL SGR
helvS (0.01) 560 1464 ylabelresid

%
% X axis - residual panel
%
GSN L5 620 1135 M 4220 1135 L SDA G50 SGR

end
showpage
%%Trailer
%%EOF
