%!PS-Adobe-3.0 EPSF-3.0
%%BoundingBox: 0 0 514 550
%%Creator: BioKin Ltd.
%%DocumentFonts: Symbol Helvetica
%%EndComments
%
/bkdict 256 dict def
bkdict begin
/M {moveto} def 
/R {rmoveto} def
/L {lineto} def
/rL {rlineto} def
/GSN {gsave newpath} def
/SGR {stroke grestore} def
/COSGR {gsave setrgbcolor stroke grestore grestore} def
/SL {setlinewidth} def
/LWMB {12} def             % line width - model curves, black & white
/LWMC {10} def             % line width - model curves, color
/L2 {2.5 setlinewidth} def
/L5 {5 setlinewidth} def
/L10 {10 setlinewidth} def
/G50 {0.5 setgray} def
/SDA {[10  20] 0 setdash} def % axes
/helvT {/Helvetica findfont 100 scalefont setfont} def % tiny
/helvS {/Helvetica findfont 125 scalefont setfont} def % small
/helvM {/Helvetica findfont 150 scalefont setfont} def % medium
/helvL {/Helvetica findfont 175 scalefont setfont} def % large
/xlabel {gsave M dup
   stringwidth exch -0.5 mul exch rmoveto show grestore} def 
/ylabel {gsave M 90 rotate dup
   stringwidth exch -0.5 mul exch rmoveto show grestore} def
/ylabelresid {gsave M dup
   stringwidth exch -1 mul exch rmoveto show grestore} def
% ======
% Shapes
% ======
% Circle:
/Circ {0 360 arc closepath} def
%
% Square:
/Squa {dup dup -0.5 mul dup dup R -2 mul 0 exch rL 1 mul 0 rL dup 0 exch -1 mul rL closepath} def
%
% Triangle Up:
/TriU {dup dup dup -0.4 mul exch -0.5 mul exch R dup 0.5 mul exch rL dup -1 mul exch 0.5 mul exch rL closepath} def 
%
% Triangle Down:
/TriD {dup dup dup 0.4 mul exch -0.5 mul exch R dup 0.5 mul exch -1 mul rL dup 0.5 mul exch rL closepath} def 
%
% Diamond:
/Diam {45 rotate Squa} def
% ======
% Fills
% ======
/GRF {gsave setgray fill grestore} def                    % gray-level Fill
/COF {gsave setrgbcolor fill grestore} def                % color fill
% ======
% Colors
% ======
/C01 {1.00	0.00	0.00} def      % Red
/C02 {0.00	0.00	1.00} def      % Blue
/C03 {0.00	0.39	0.00} def      % Dark Green
/C04 {0.78	0.08	0.52} def      % Medium Violet Red
/C05 {0.55	0.27	0.07} def      % Saddle Brown
/C06 {0.10	0.70	0.70} def      % (cyan)
/C07 {1.00	0.55	0.00} def      % Dark Orange
/C08 {0.63	0.13	0.94} def      % Purple
/C09 {0.00	0.75	1.00} def      % Deep Sky Blue
/C10 {0.20	0.80	0.20} def      % Lime Green
/C11 {0.47	0.53	0.60} def      % Light Slate Gray
/C12 {0.00	0.00	0.00} def      % Black            % or: {0.19	0.31	0.31} def      % Dark Slate Gray
%
/LGR {0.75} def % light gray
/DGR {0.33} def % dark gray
%
% =============
% Dash patterns
% =============
/dash01 { [80  20] 0 setdash } def
/dash02 { [40  20] 0 setdash } def
/dash03 { [80  20  10  20] 0 setdash } def
/dash04 { [40  20  10  20] 0 setdash } def
/dash05 { [80  20  10  10  10  20] 0 setdash } def
/dash06 { [40  20  10  10  10  20] 0 setdash } def
/dash07 { [10  10] 0 setdash } def
%
/MFshow {
   { dup 5 get 3 ge
     { 5 get 3 eq {gsave} {grestore} ifelse }
     {dup dup 0 get findfont exch 1 get scalefont setfont
     [ currentpoint ] exch dup 2 get 0 exch R dup 5 get 2 ne {dup dup 6
     get exch 4 get {show} {stringwidth pop 0 R} ifelse }if dup 5 get 0 eq
     {dup 3 get {2 get neg 0 exch R pop} {pop aload pop M} ifelse} {dup 5
     get 1 eq {dup 2 get exch dup 3 get exch 6 get stringwidth pop -2 div
     dup 0 R} {dup 6 get stringwidth pop -2 div 0 R 6 get
     show 2 index {aload pop M neg 3 -1 roll neg R pop pop} {pop pop pop
     pop aload pop M} ifelse }ifelse }ifelse }
     ifelse }
   forall} bind def
/MFwidth {0 exch {dup 3 get{dup dup 0 get findfont exch 1 get scalefont
     setfont 6 get stringwidth pop add} {pop} ifelse} forall} bind def
/MCshow { currentpoint stroke M
  exch dup MFwidth -2 div 3 -1 roll R MFshow } def
%
end
%%EndProlog
bkdict begin
0.1 0.1 scale
%
% Residuals:
%
GSN 620 4693 M
620 4500 L
620 4566 L
620 4863 L
620 4693 L
620 4559 L
620 4576 L
620 4566 L
620 4604 L
620 4515 L
620 4533 L
620 4249 L
620 4719 L
620 4310 L
620 4482 L
620 4551 L
620 4482 L
620 4536 L
620 4196 L
620 4338 L
620 4252 L
620 4099 L
620 4163 L
620 4259 L
620 4048 L
620 4305 L
620 4444 L
620 4236 L
620 4366 L
620 4148 L
620 4008 L
620 3695 L
620 3871 L
620 3901 L
620 4145 L
620 4132 L
620 3967 L
620 3980 L
620 4066 L
620 4048 L
620 4170 L
620 4351 L
620 3782 L
620 3901 L
620 3579 L
620 3721 L
620 3589 L
620 3863 L
620 3876 L
620 3802 L
620 3888 L
620 3967 L
620 3538 L
620 3122 L
620 3366 L
620 3612 L
620 3782 L
620 3977 L
620 3612 L
620 3475 L
620 3343 L
620 3739 L
620 3297 L
620 3444 L
620 3729 L
620 3645 L
620 3264 L
620 3503 L
620 3477 L
620 3325 L
620 3282 L
620 3612 L
620 3391 L
620 3490 L
620 3259 L
620 3470 L
620 3480 L
620 3434 L
620 3350 L
620 3356 L
620 3427 L
620 3190 L
620 3148 L
620 3231 L
620 3325 L
620 3257 L
620 3287 L
620 3308 L
620 2896 L
620 2972 L
620 3033 L
620 3422 L
620 2904 L
620 2582 L
620 3188 L
620 2818 L
620 3049 L
620 2683 L
620 3016 L
620 2909 L
620 2754 L
620 2610 L
620 2907 L
620 2764 L
620 2287 L
620 2719 L
620 2759 L
620 2320 L
620 2805 L
620 2607 L
620 2866 L
620 2455 L
620 2899 L
620 2886 L
620 2790 L
620 2633 L
620 2645 L
620 2683 L
620 2523 L
620 2590 L
620 2684 L
620 2658 L
620 2633 L
620 2358 L
620 2551 L
620 2506 L
620 2336 L
620 2475 L
620 2699 L
620 2371 L
620 2595 L
620 2387 L
620 2407 L
620 2341 L
620 2498 L
620 2453 L
620 2389 L
620 2407 L
620 2605 L
620 2344 L
620 2501 L
620 2310 L
620 2364 L
620 2417 L
620 2371 L
620 2336 L
620 2290 L
620 2328 L
620 2303 L
620 2460 L
620 2549 L
620 2351 L
620 2539 L
620 2795 L
620 2359 L
620 2295 L
620 2321 L
620 2628 L
620 2453 L
620 2445 L
620 2821 L
620 2732 L
620 2257 L
620 2582 L
620 2349 L
620 2557 L
620 2555 L
620 2534 L
620 2572 L
620 2570 L
620 2694 L
620 2359 L
620 2788 L
620 2770 L
620 2618 L
620 2905 L
620 2136 L
620 2435 L
620 2707 L
620 2448 L
620 2522 L
620 2539 L
620 2529 L
620 2628 L
620 2187 L
620 2656 L
620 2768 L
620 3235 L
620 2568 L
620 3090 L
620 2321 L
620 2834 L
620 2720 L
620 2341 L
620 2692 L
620 2763 L
620 2722 L
620 2438 L
620 2720 L
620 2527 L
620 2575 L
620 2596 L
620 2707 L
620 2763 L
620 2466 L
620 2535 L
620 2522 L
620 2875 L
620 2791 L
620 2469 L
620 2791 L
620 2669 L
620 2811 L
620 3020 L
620 2908 L
620 2857 L
620 2890 L
620 2898 L
620 3093 L
620 2738 L
620 2801 L
620 3055 L
620 2936 L
620 2664 L
620 2705 L
620 2961 L
620 2629 L
620 2994 L
620 2456 L
620 2700 L
620 2888 L
620 3058 L
620 3025 L
620 2867 L
620 2840 L
620 2713 L
620 2710 L
620 2796 L
620 2705 L
620 2895 L
620 2654 L
620 2631 L
620 2616 L
620 2812 L
620 2753 L
620 2748 L
620 2822 L
620 2637 L
620 2855 L
620 3048 L
620 2949 L
620 2619 L
620 3084 L
620 3187 L
620 2921 L
620 2726 L
620 2657 L
620 2827 L
620 2825 L
620 2637 L
620 2518 L
620 2685 L
620 2487 L
620 2624 L
620 3261 L
620 3068 L
620 2863 L
620 2901 L
620 3221 L
620 3165 L
620 2878 L
620 2538 L
620 2563 L
620 3137 L
620 3223 L
620 2896 L
620 3213 L
620 3043 L
620 2632 L
620 2898 L
620 2688 L
620 2815 L
620 2993 L
620 2927 L
620 2813 L
620 3133 L
620 2768 L
620 3086 L
620 3198 L
620 3066 L
620 2970 L
620 3155 L
620 3186 L
620 3115 L
620 3265 L
620 3327 L
620 2964 L
620 3084 L
620 2942 L
620 3191 L
620 2744 L
620 2922 L
620 2930 L
620 2971 L
620 3223 L
620 2951 L
620 3137 L
620 3386 L
620 3021 L
620 3059 L
620 3019 L
620 3194 L
620 2900 L
620 2966 L
620 3027 L
620 3040 L
620 3003 L
620 3020 L
620 3178 L
620 2793 L
620 3364 L
620 3435 L
620 2933 L
620 3182 L
620 2642 L
620 3030 L
620 3343 L
620 2866 L
620 2750 L
620 2955 L
620 3146 L
620 3390 L
620 3010 L
620 2761 L
620 2995 L
620 3036 L
620 3257 L
620 2940 L
620 3004 L
620 2920 L
620 2837 L
620 3190 L
620 3050 L
620 2881 L
620 3145 L
620 2978 L
620 3082 L
620 3295 L
620 2930 L
620 2826 L
620 3220 L
620 3144 L
620 2800 L
620 2811 L
620 2997 L
620 2775 L
620 2967 L
620 3052 L
620 2959 L
620 3435 L
620 2740 L
620 3145 L
620 3143 L
620 3380 L
620 2892 L
620 2982 L
620 2906 L
620 3106 L
620 2761 L
620 2978 L
620 2893 L
620 2930 L
620 3136 L
620 2782 L
620 3227 L
620 3297 L
620 3057 L
620 2882 L
620 2782 L
620 3200 L
620 3066 L
620 3189 L
620 2735 L
620 2995 L
620 3083 L
620 2992 L
620 3085 L
620 2936 L
620 3254 L
620 2974 L
620 3114 L
620 3026 L
620 3078 L
620 3087 L
620 3014 L
620 3038 L
620 3252 L
620 2847 L
620 2978 L
620 3136 L
620 3211 L
620 2874 L
620 3238 L
620 3076 L
620 3364 L
620 2781 L
620 3272 L
620 3139 L
620 3046 L
620 2927 L
620 3060 L
620 3087 L
620 3245 L
620 3223 L
620 2777 L
620 2875 L
620 3041 L
620 2917 L
620 3094 L
620 3259 L
620 2781 L
620 2876 L
620 2889 L
620 3195 L
620 2706 L
620 2986 L
620 2852 L
620 3021 L
620 3083 L
620 3172 L
620 3234 L
620 3131 L
620 2975 L
620 3184 L
620 3185 L
620 3176 L
620 3118 L
620 3023 L
620 2671 L
620 2946 L
620 3403 L
620 3293 L
620 3047 L
620 3158 L
620 3285 L
620 2723 L
620 3211 L
620 3184 L
620 2824 L
620 3117 L
620 2758 L
620 3038 L
620 3287 L
620 3360 L
620 2972 L
620 3430 L
620 2875 L
620 3129 L
620 3110 L
620 3405 L
620 2843 L
620 3331 L
620 3296 L
620 3137 L
620 3029 L
620 3086 L
620 3036 L
620 3415 L
620 3030 L
620 3170 L
620 3336 L
620 3081 L
620 3140 L
620 3075 L
620 3451 L
620 3074 L
620 2940 L
620 3337 L
620 3229 L
620 3293 L
620 2936 L
620 3264 L
620 3217 L
620 3378 L
620 3442 L
620 3318 L
620 3124 L
620 3249 L
620 3148 L
620 3256 L
620 3605 L
620 3202 L
620 3324 L
620 3079 L
620 3306 L
620 3116 L
620 3229 L
620 3219 L
620 3284 L
620 3013 L
620 3090 L
620 2895 L
620 3307 L
620 3605 L
620 2763 L
620 3449 L
620 3166 L
620 3083 L
620 3343 L
620 3407 L
620 3131 L
620 3474 L
620 3351 L
620 3088 L
620 3223 L
620 3196 L
620 3240 L
620 3449 L
620 3333 L
620 3168 L
620 3690 L
620 3183 L
620 3212 L
620 3385 L
620 3345 L
620 2942 L
620 3232 L
620 2860 L
620 3135 L
620 3285 L
620 3375 L
620 3109 L
620 3338 L
L2 C01 COSGR

%
%================
% Legend - Begin
%================
%
GSN 4240 5180 M
4480 5180 L
LWMC SL  C01 COSGR
GSN 4540 5141 M helvM (0.5 uM) show grestore
%
%================
% Legend - End
%================
%

%
% Main frame
%
L10
GSN 
620 1700 M
4220 1700 L
4220 5300 L
620 5300 L
closepath SGR

%
% X axis: large tics
%
L10
%
% X axis: small tics
%
L5
%
% Y axis: large tics
%
L10
GSN 620 2082 M 54 0 rL SGR
GSN 4220 2082 M -54 0 rL SGR
helvS (-0.02) 560 2082 ylabel
GSN 620 3080 M 54 0 rL SGR
GSN 4220 3080 M -54 0 rL SGR
helvS (0) 560 3080 ylabel
GSN 620 4078 M 54 0 rL SGR
GSN 4220 4078 M -54 0 rL SGR
helvS (0.02) 560 4078 ylabel
GSN 620 5077 M 54 0 rL SGR
GSN 4220 5077 M -54 0 rL SGR
helvS (0.04) 560 5077 ylabel
%
% Y axis: small tics
%
L5
GSN 620 1833 M 36 0 rL SGR
GSN 4220 1833 M -36 0 rL SGR
GSN 620 2082 M 36 0 rL SGR
GSN 4220 2082 M -36 0 rL SGR
GSN 620 2332 M 36 0 rL SGR
GSN 4220 2332 M -36 0 rL SGR
GSN 620 2581 M 36 0 rL SGR
GSN 4220 2581 M -36 0 rL SGR
GSN 620 2831 M 36 0 rL SGR
GSN 4220 2831 M -36 0 rL SGR
GSN 620 3080 M 36 0 rL SGR
GSN 4220 3080 M -36 0 rL SGR
GSN 620 3330 M 36 0 rL SGR
GSN 4220 3330 M -36 0 rL SGR
GSN 620 3579 M 36 0 rL SGR
GSN 4220 3579 M -36 0 rL SGR
GSN 620 3829 M 36 0 rL SGR
GSN 4220 3829 M -36 0 rL SGR
GSN 620 4078 M 36 0 rL SGR
GSN 4220 4078 M -36 0 rL SGR
GSN 620 4328 M 36 0 rL SGR
GSN 4220 4328 M -36 0 rL SGR
GSN 620 4578 M 36 0 rL SGR
GSN 4220 4578 M -36 0 rL SGR
GSN 620 4827 M 36 0 rL SGR
GSN 4220 4827 M -36 0 rL SGR
GSN 620 5077 M 36 0 rL SGR
GSN 4220 5077 M -36 0 rL SGR

%
% X axis - residual panel
%
GSN L5 620 3080 M 4220 3080 L SDA G50 SGR

%
% X-Axis label:
%
gsave 620 1370 M 
[
[(Helvetica) 180 0 true true 0 (t)]
[(Helvetica) 180 0 true true 0 (i)]
[(Helvetica) 180 0 true true 0 (m)]
[(Helvetica) 180 0 true true 0 (e)]
] 0 MCshow grestore

%
% Y-Axis label:
%
gsave 234 3500 M 
currentpoint gsave translate 90 rotate 0 0 moveto
[
[(Helvetica) 180 0 true true 0 (r)]
[(Helvetica) 180 0 true true 0 (e)]
[(Helvetica) 180 0 true true 0 (s)]
[(Helvetica) 180 0 true true 0 (i)]
[(Helvetica) 180 0 true true 0 (d)]
[(Helvetica) 180 0 true true 0 (u)]
[(Helvetica) 180 0 true true 0 (a)]
[(Helvetica) 180 0 true true 0 (l)]
[(Helvetica) 180 0 true true 0 (s)]
] 0 MCshow grestore

end
showpage
%%Trailer
%%EOF
