%!PS-Adobe-3.0 EPSF-3.0
%%BoundingBox: 0 0 514 442
%%Creator: BioKin Ltd.
%%DocumentFonts: Symbol Helvetica
%%EndComments
%
/bkdict 256 dict def
bkdict begin
/M {moveto} def 
/R {rmoveto} def
/L {lineto} def
/rL {rlineto} def
/GSN {gsave newpath} def
/SGR {stroke grestore} def
/COSGR {gsave setrgbcolor stroke grestore grestore} def
/SL {setlinewidth} def
/LWMB {12} def             % line width - model curves, black & white
/LWMC {10} def             % line width - model curves, color
/L2 {2.5 setlinewidth} def
/L5 {5 setlinewidth} def
/L10 {10 setlinewidth} def
/G50 {0.5 setgray} def
/SDA {[10  20] 0 setdash} def % axes
/helvT {/Helvetica findfont 100 scalefont setfont} def % tiny
/helvS {/Helvetica findfont 125 scalefont setfont} def % small
/helvM {/Helvetica findfont 150 scalefont setfont} def % medium
/helvL {/Helvetica findfont 175 scalefont setfont} def % large
/xlabel {gsave M dup
   stringwidth exch -0.5 mul exch rmoveto show grestore} def 
/ylabel {gsave M 90 rotate dup
   stringwidth exch -0.5 mul exch rmoveto show grestore} def
/ylabelresid {gsave M dup
   stringwidth exch -1 mul exch rmoveto show grestore} def
% ======
% Shapes
% ======
% Circle:
/Circ {0 360 arc closepath} def
%
% Square:
/Squa {dup dup -0.5 mul dup dup R -2 mul 0 exch rL 1 mul 0 rL dup 0 exch -1 mul rL closepath} def
%
% Triangle Up:
/TriU {dup dup dup -0.4 mul exch -0.5 mul exch R dup 0.5 mul exch rL dup -1 mul exch 0.5 mul exch rL closepath} def 
%
% Triangle Down:
/TriD {dup dup dup 0.4 mul exch -0.5 mul exch R dup 0.5 mul exch -1 mul rL dup 0.5 mul exch rL closepath} def 
%
% Diamond:
/Diam {45 rotate Squa} def
% ======
% Fills
% ======
/GRF {gsave setgray fill grestore} def                    % gray-level Fill
/COF {gsave setrgbcolor fill grestore} def                % color fill
% ======
% Colors
% ======
/C01 {1.00	0.00	0.00} def      % Red
/C02 {0.00	0.00	1.00} def      % Blue
/C03 {0.00	0.39	0.00} def      % Dark Green
/C04 {0.78	0.08	0.52} def      % Medium Violet Red
/C05 {0.55	0.27	0.07} def      % Saddle Brown
/C06 {0.10	0.70	0.70} def      % (cyan)
/C07 {1.00	0.55	0.00} def      % Dark Orange
/C08 {0.63	0.13	0.94} def      % Purple
/C09 {0.00	0.75	1.00} def      % Deep Sky Blue
/C10 {0.20	0.80	0.20} def      % Lime Green
/C11 {0.47	0.53	0.60} def      % Light Slate Gray
/C12 {0.00	0.00	0.00} def      % Black            % or: {0.19	0.31	0.31} def      % Dark Slate Gray
%
/LGR {0.75} def % light gray
/DGR {0.33} def % dark gray
%
% =============
% Dash patterns
% =============
/dash01 { [80  20] 0 setdash } def
/dash02 { [40  20] 0 setdash } def
/dash03 { [80  20  10  20] 0 setdash } def
/dash04 { [40  20  10  20] 0 setdash } def
/dash05 { [80  20  10  10  10  20] 0 setdash } def
/dash06 { [40  20  10  10  10  20] 0 setdash } def
/dash07 { [10  10] 0 setdash } def
%
/MFshow {
   { dup 5 get 3 ge
     { 5 get 3 eq {gsave} {grestore} ifelse }
     {dup dup 0 get findfont exch 1 get scalefont setfont
     [ currentpoint ] exch dup 2 get 0 exch R dup 5 get 2 ne {dup dup 6
     get exch 4 get {show} {stringwidth pop 0 R} ifelse }if dup 5 get 0 eq
     {dup 3 get {2 get neg 0 exch R pop} {pop aload pop M} ifelse} {dup 5
     get 1 eq {dup 2 get exch dup 3 get exch 6 get stringwidth pop -2 div
     dup 0 R} {dup 6 get stringwidth pop -2 div 0 R 6 get
     show 2 index {aload pop M neg 3 -1 roll neg R pop pop} {pop pop pop
     pop aload pop M} ifelse }ifelse }ifelse }
     ifelse }
   forall} bind def
/MFwidth {0 exch {dup 3 get{dup dup 0 get findfont exch 1 get scalefont
     setfont 6 get stringwidth pop add} {pop} ifelse} forall} bind def
/MCshow { currentpoint stroke M
  exch dup MFwidth -2 div 3 -1 roll R MFshow } def
%
end
%%EndProlog
bkdict begin
0.1 0.1 scale
%
% Model curves:
%

GSN 753 3426 M
770 3426 L
803 3426 L
837 3426 L
870 3426 L
895 3426 L
911 3426 L
937 3426 L
970 3426 L
1003 3426 L
1037 3426 L
1053 3426 L
1070 3426 L
1103 3426 L
1137 3426 L
1170 3427 L
1195 3427 L
1211 3427 L
1237 3427 L
1270 3427 L
1303 3427 L
1337 3428 L
1353 3428 L
1370 3428 L
1403 3428 L
1437 3429 L
1470 3429 L
1495 3430 L
1512 3430 L
1537 3430 L
1570 3431 L
1603 3432 L
1637 3433 L
1653 3434 L
1670 3434 L
1703 3436 L
1737 3437 L
1770 3439 L
1795 3442 L
1812 3443 L
1837 3444 L
1870 3447 L
1903 3451 L
1937 3455 L
1953 3459 L
1971 3459 L
2003 3465 L
2037 3471 L
2070 3478 L
2095 3486 L
2112 3491 L
2137 3495 L
2170 3506 L
2203 3517 L
2237 3531 L
2253 3546 L
2271 3547 L
2303 3563 L
2337 3582 L
2370 3602 L
2395 3625 L
2412 3638 L
2437 3649 L
2470 3676 L
2503 3704 L
2537 3733 L
2553 3763 L
2571 3764 L
2603 3794 L
2637 3824 L
2670 3854 L
2695 3883 L
2712 3898 L
2737 3911 L
2770 3936 L
2803 3959 L
2837 3979 L
2854 3995 L
2871 3996 L
2903 4009 L
2937 4019 L
2970 4026 L
2995 4031 L
3012 4033 L
3037 4033 L
3061 4034 L
3077 4034 L
3103 4033 L
3137 4032 L
3154 4030 L
3171 4030 L
3203 4028 L
3237 4027 L
3270 4026 L
3296 4025 L
3312 4025 L
3337 4025 L
3370 4025 L
3403 4025 L
3437 4025 L
3454 4025 L
3471 4025 L
3503 4025 L
3537 4025 L
3570 4025 L
3596 4025 L
3612 4025 L
3637 4025 L
3670 4025 L
3703 4025 L
3737 4025 L
3754 4025 L
3771 4025 L
3803 4025 L
3837 4025 L
3870 4025 L
3896 4025 L
3912 4025 L
3937 4025 L
3970 4025 L
4003 4025 L
4037 4025 L
4070 4025 L
LWMC SL dash01 C01 COSGR

GSN 753 3035 M
770 3035 L
803 3035 L
837 3035 L
870 3035 L
895 3035 L
911 3035 L
937 3035 L
970 3035 L
1003 3035 L
1037 3035 L
1053 3036 L
1070 3036 L
1103 3036 L
1137 3036 L
1170 3036 L
1195 3037 L
1211 3037 L
1237 3037 L
1270 3037 L
1303 3038 L
1337 3038 L
1353 3039 L
1370 3039 L
1403 3040 L
1437 3040 L
1470 3041 L
1495 3042 L
1512 3043 L
1537 3044 L
1570 3045 L
1603 3047 L
1637 3049 L
1653 3052 L
1670 3052 L
1703 3054 L
1737 3058 L
1770 3061 L
1795 3066 L
1812 3068 L
1837 3071 L
1870 3077 L
1903 3083 L
1937 3091 L
1953 3100 L
1971 3101 L
2003 3111 L
2037 3123 L
2070 3136 L
2095 3152 L
2112 3161 L
2137 3169 L
2170 3189 L
2203 3212 L
2237 3237 L
2253 3265 L
2271 3266 L
2303 3296 L
2337 3330 L
2370 3367 L
2395 3407 L
2412 3430 L
2437 3450 L
2470 3495 L
2503 3543 L
2537 3591 L
2553 3640 L
2571 3642 L
2603 3688 L
2637 3736 L
2670 3782 L
2695 3825 L
2712 3847 L
2737 3864 L
2770 3900 L
2803 3931 L
2837 3958 L
2854 3980 L
2871 3981 L
2903 3998 L
2937 4011 L
2970 4020 L
2995 4026 L
3012 4029 L
3037 4030 L
3061 4031 L
3077 4031 L
3103 4031 L
3137 4030 L
3154 4029 L
3171 4029 L
3203 4028 L
3237 4026 L
3270 4026 L
3296 4025 L
3312 4025 L
3337 4025 L
3370 4025 L
3403 4025 L
3437 4025 L
3454 4025 L
3471 4025 L
3503 4025 L
3537 4025 L
3570 4025 L
3596 4025 L
3612 4025 L
3637 4025 L
3670 4025 L
3703 4025 L
3737 4025 L
3754 4025 L
3771 4025 L
3803 4025 L
3837 4025 L
3870 4025 L
3896 4025 L
3912 4025 L
3937 4025 L
3970 4025 L
4003 4025 L
4037 4025 L
4070 4025 L
LWMC SL dash02 C02 COSGR

GSN 753 2456 M
770 2456 L
803 2456 L
837 2456 L
870 2456 L
895 2456 L
911 2456 L
937 2456 L
970 2457 L
1003 2457 L
1037 2457 L
1053 2457 L
1070 2457 L
1103 2458 L
1137 2458 L
1170 2459 L
1195 2459 L
1211 2460 L
1237 2460 L
1270 2461 L
1303 2462 L
1337 2463 L
1353 2464 L
1370 2464 L
1403 2465 L
1437 2467 L
1470 2469 L
1495 2471 L
1512 2473 L
1537 2474 L
1570 2477 L
1603 2481 L
1637 2485 L
1653 2490 L
1670 2490 L
1703 2495 L
1737 2502 L
1770 2509 L
1795 2518 L
1812 2523 L
1837 2528 L
1870 2540 L
1903 2553 L
1937 2569 L
1953 2587 L
1971 2587 L
2003 2607 L
2037 2631 L
2070 2657 L
2095 2687 L
2112 2705 L
2137 2721 L
2170 2760 L
2203 2802 L
2237 2850 L
2253 2902 L
2271 2904 L
2303 2959 L
2337 3021 L
2370 3087 L
2395 3157 L
2412 3196 L
2437 3231 L
2470 3307 L
2503 3385 L
2537 3463 L
2553 3539 L
2571 3542 L
2603 3614 L
2637 3684 L
2670 3750 L
2695 3810 L
2712 3840 L
2737 3864 L
2770 3910 L
2803 3949 L
2837 3981 L
2854 4006 L
2871 4007 L
2903 4025 L
2937 4038 L
2970 4045 L
2995 4048 L
3012 4049 L
3037 4048 L
3061 4046 L
3077 4044 L
3103 4042 L
3137 4038 L
3154 4034 L
3171 4034 L
3203 4031 L
3237 4028 L
3270 4027 L
3296 4026 L
3312 4025 L
3337 4025 L
3370 4025 L
3403 4025 L
3437 4025 L
3454 4025 L
3471 4025 L
3503 4025 L
3537 4025 L
3570 4025 L
3596 4025 L
3612 4025 L
3637 4025 L
3670 4025 L
3703 4025 L
3737 4025 L
3754 4025 L
3771 4025 L
3803 4025 L
3837 4025 L
3870 4025 L
3896 4025 L
3912 4025 L
3937 4025 L
3970 4025 L
4003 4025 L
4037 4025 L
4070 4025 L
LWMC SL dash03 C03 COSGR

GSN 753 1845 M
770 1845 L
803 1845 L
837 1845 L
870 1846 L
895 1846 L
911 1846 L
937 1846 L
970 1847 L
1003 1847 L
1037 1847 L
1053 1848 L
1070 1848 L
1103 1848 L
1137 1849 L
1170 1850 L
1195 1851 L
1211 1852 L
1237 1852 L
1270 1853 L
1303 1855 L
1337 1857 L
1353 1859 L
1370 1859 L
1403 1861 L
1437 1864 L
1470 1867 L
1495 1871 L
1512 1874 L
1537 1876 L
1570 1881 L
1603 1887 L
1637 1894 L
1653 1902 L
1670 1902 L
1703 1912 L
1737 1922 L
1770 1935 L
1795 1950 L
1812 1958 L
1837 1967 L
1870 1986 L
1903 2009 L
1937 2034 L
1953 2064 L
1971 2065 L
2003 2097 L
2037 2136 L
2070 2179 L
2095 2228 L
2112 2256 L
2137 2283 L
2170 2344 L
2203 2412 L
2237 2486 L
2253 2568 L
2271 2571 L
2303 2656 L
2337 2750 L
2370 2850 L
2395 2954 L
2412 3012 L
2437 3062 L
2470 3171 L
2503 3280 L
2537 3387 L
2553 3491 L
2571 3494 L
2603 3588 L
2637 3679 L
2670 3761 L
2695 3834 L
2712 3869 L
2737 3896 L
2770 3948 L
2803 3989 L
2837 4021 L
2854 4043 L
2871 4044 L
2903 4057 L
2937 4064 L
2970 4065 L
2995 4062 L
3012 4060 L
3037 4057 L
3061 4050 L
3077 4047 L
3103 4044 L
3137 4038 L
3154 4034 L
3171 4033 L
3203 4030 L
3237 4028 L
3270 4026 L
3296 4026 L
3312 4025 L
3337 4025 L
3370 4025 L
3403 4025 L
3437 4025 L
3454 4025 L
3471 4025 L
3503 4025 L
3537 4025 L
3570 4025 L
3596 4025 L
3612 4025 L
3637 4025 L
3670 4025 L
3703 4025 L
3737 4025 L
3754 4025 L
3771 4025 L
3803 4025 L
3837 4025 L
3870 4025 L
3896 4025 L
3912 4025 L
3937 4025 L
3970 4025 L
4003 4025 L
4037 4025 L
4070 4025 L
LWMC SL dash04 C04 COSGR

GSN 753 1739 M
770 1739 L
803 1740 L
837 1740 L
870 1740 L
895 1740 L
911 1740 L
937 1741 L
970 1741 L
1003 1741 L
1037 1742 L
1053 1742 L
1070 1742 L
1103 1743 L
1137 1744 L
1170 1745 L
1195 1746 L
1211 1747 L
1237 1747 L
1270 1749 L
1303 1750 L
1337 1752 L
1353 1755 L
1370 1755 L
1403 1757 L
1437 1761 L
1470 1764 L
1495 1768 L
1512 1771 L
1537 1773 L
1570 1779 L
1603 1786 L
1637 1794 L
1653 1803 L
1670 1803 L
1703 1813 L
1737 1825 L
1770 1839 L
1795 1856 L
1812 1865 L
1837 1874 L
1870 1896 L
1903 1921 L
1937 1949 L
1953 1982 L
1971 1983 L
2003 2019 L
2037 2061 L
2070 2109 L
2095 2163 L
2112 2194 L
2137 2223 L
2170 2290 L
2203 2364 L
2237 2446 L
2253 2535 L
2271 2538 L
2303 2631 L
2337 2733 L
2370 2841 L
2395 2953 L
2412 3014 L
2437 3068 L
2470 3184 L
2503 3300 L
2537 3412 L
2553 3520 L
2571 3524 L
2603 3621 L
2637 3714 L
2670 3797 L
2695 3868 L
2712 3903 L
2737 3929 L
2770 3977 L
2803 4015 L
2837 4041 L
2854 4058 L
2871 4059 L
2903 4067 L
2937 4070 L
2970 4067 L
2995 4062 L
3012 4059 L
3037 4055 L
3061 4049 L
3077 4046 L
3103 4042 L
3137 4037 L
3154 4033 L
3171 4032 L
3203 4030 L
3237 4027 L
3270 4026 L
3296 4026 L
3312 4025 L
3337 4025 L
3370 4025 L
3403 4025 L
3437 4025 L
3454 4025 L
3471 4025 L
3503 4025 L
3537 4025 L
3570 4025 L
3596 4025 L
3612 4025 L
3637 4025 L
3670 4025 L
3703 4025 L
3737 4025 L
3754 4025 L
3771 4025 L
3803 4025 L
3837 4025 L
3870 4025 L
3896 4025 L
3912 4025 L
3937 4025 L
3970 4025 L
4003 4025 L
4037 4025 L
4070 4025 L
LWMC SL dash05 C05 COSGR

GSN 753 1443 M
770 1443 L
803 1443 L
837 1443 L
870 1443 L
895 1444 L
911 1444 L
937 1444 L
970 1445 L
1003 1445 L
1037 1446 L
1053 1446 L
1070 1446 L
1103 1447 L
1137 1448 L
1170 1449 L
1195 1451 L
1211 1451 L
1237 1452 L
1270 1454 L
1303 1456 L
1337 1458 L
1353 1461 L
1370 1461 L
1403 1465 L
1437 1468 L
1470 1473 L
1495 1478 L
1512 1481 L
1537 1484 L
1570 1491 L
1603 1499 L
1637 1509 L
1653 1520 L
1670 1520 L
1703 1532 L
1737 1547 L
1770 1564 L
1795 1584 L
1812 1595 L
1837 1607 L
1870 1633 L
1903 1663 L
1937 1697 L
1953 1737 L
1971 1738 L
2003 1781 L
2037 1832 L
2070 1890 L
2095 1954 L
2112 1991 L
2137 2026 L
2170 2106 L
2203 2194 L
2237 2291 L
2253 2396 L
2271 2399 L
2303 2508 L
2337 2627 L
2370 2752 L
2395 2881 L
2412 2951 L
2437 3013 L
2470 3144 L
2503 3274 L
2537 3399 L
2553 3518 L
2571 3523 L
2603 3628 L
2637 3727 L
2670 3815 L
2695 3889 L
2712 3924 L
2737 3950 L
2770 3998 L
2803 4033 L
2837 4056 L
2854 4070 L
2871 4070 L
2903 4075 L
2937 4074 L
2970 4070 L
2995 4063 L
3012 4059 L
3037 4056 L
3061 4049 L
3077 4045 L
3103 4042 L
3137 4037 L
3154 4033 L
3171 4032 L
3203 4030 L
3237 4027 L
3270 4026 L
3296 4026 L
3312 4025 L
3337 4025 L
3370 4025 L
3403 4025 L
3437 4025 L
3454 4025 L
3471 4025 L
3503 4025 L
3537 4025 L
3570 4025 L
3596 4025 L
3612 4025 L
3637 4025 L
3670 4025 L
3703 4025 L
3737 4025 L
3754 4025 L
3771 4025 L
3803 4025 L
3837 4025 L
3870 4025 L
3896 4025 L
3912 4025 L
3937 4025 L
3970 4025 L
4003 4025 L
4037 4025 L
4070 4025 L
LWMC SL dash06 C06 COSGR

GSN 753 753 M
770 753 L
803 753 L
837 754 L
870 754 L
895 754 L
911 755 L
937 755 L
970 756 L
1003 757 L
1037 758 L
1053 759 L
1070 759 L
1103 760 L
1137 761 L
1170 763 L
1195 765 L
1211 766 L
1237 768 L
1270 770 L
1303 774 L
1337 777 L
1353 782 L
1370 782 L
1403 787 L
1437 793 L
1470 800 L
1495 808 L
1512 812 L
1537 817 L
1570 828 L
1603 841 L
1637 855 L
1653 872 L
1670 872 L
1703 892 L
1737 914 L
1770 941 L
1795 971 L
1812 988 L
1837 1006 L
1870 1046 L
1903 1091 L
1937 1144 L
1953 1203 L
1971 1205 L
2003 1270 L
2037 1347 L
2070 1432 L
2095 1528 L
2112 1582 L
2137 1634 L
2170 1751 L
2203 1878 L
2237 2016 L
2253 2164 L
2271 2169 L
2303 2321 L
2337 2485 L
2370 2653 L
2395 2824 L
2412 2916 L
2437 2995 L
2470 3161 L
2503 3321 L
2537 3470 L
2553 3606 L
2571 3611 L
2603 3726 L
2637 3829 L
2670 3913 L
2695 3978 L
2712 4006 L
2737 4026 L
2770 4058 L
2803 4077 L
2837 4085 L
2854 4086 L
2871 4086 L
2903 4082 L
2937 4076 L
2970 4068 L
2995 4060 L
3012 4056 L
3037 4053 L
3061 4046 L
3077 4043 L
3103 4040 L
3137 4036 L
3154 4032 L
3171 4032 L
3203 4029 L
3237 4027 L
3270 4026 L
3296 4025 L
3312 4025 L
3337 4025 L
3370 4025 L
3403 4025 L
3437 4025 L
3454 4025 L
3471 4025 L
3503 4025 L
3537 4025 L
3570 4025 L
3596 4025 L
3612 4025 L
3637 4025 L
3670 4025 L
3703 4025 L
3737 4025 L
3754 4025 L
3771 4025 L
3803 4025 L
3837 4025 L
3870 4025 L
3896 4025 L
3912 4025 L
3937 4025 L
3970 4025 L
4003 4025 L
4037 4025 L
4070 4025 L
LWMC SL dash07 C07 COSGR

%
%================
% Legend - Begin
%================
%
GSN 4240 4040 M
4480 4040 L
LWMC SL dash01 C01 COSGR
GSN 4540 4001 M helvM (0.5 uM) show grestore
GSN 4240 3860 M
4480 3860 L
LWMC SL dash02 C02 COSGR
GSN 4540 3821 M helvM (1.0 uM) show grestore
GSN 4240 3680 M
4480 3680 L
LWMC SL dash03 C03 COSGR
GSN 4540 3641 M helvM (1.5 uM) show grestore
GSN 4240 3500 M
4480 3500 L
LWMC SL dash04 C04 COSGR
GSN 4540 3461 M helvM (2.0 uM) show grestore
GSN 4240 3320 M
4480 3320 L
LWMC SL dash05 C05 COSGR
GSN 4540 3281 M helvM (2.5 uM) show grestore
GSN 4240 3140 M
4480 3140 L
LWMC SL dash06 C06 COSGR
GSN 4540 3101 M helvM (3.0 uM) show grestore
GSN 4240 2960 M
4480 2960 L
LWMC SL dash07 C07 COSGR
GSN 4540 2921 M helvM (4.0 uM) show grestore
%
%================
% Legend - End
%================
%

%
% Main frame
%
L10
GSN 
620 620 M
4220 620 L
4220 4220 L
620 4220 L
closepath SGR

%
% X axis: large tics
%
L10
GSN 1074 620 M 0  54 rL SGR
GSN 1074 4220 M 0 -54 rL SGR
helvS (0.0001) 1074 470 xlabel
GSN 1572 620 M 0  54 rL SGR
GSN 1572 4220 M 0 -54 rL SGR
helvS (0.001) 1572 470 xlabel
GSN 2071 620 M 0  54 rL SGR
GSN 2071 4220 M 0 -54 rL SGR
helvS (0.01) 2071 470 xlabel
GSN 2570 620 M 0  54 rL SGR
GSN 2570 4220 M 0 -54 rL SGR
helvS (0.1) 2570 470 xlabel
GSN 3068 620 M 0  54 rL SGR
GSN 3068 4220 M 0 -54 rL SGR
helvS (1) 3068 470 xlabel
GSN 3567 620 M 0  54 rL SGR
GSN 3567 4220 M 0 -54 rL SGR
helvS (10) 3567 470 xlabel
GSN 4066 620 M 0  54 rL SGR
GSN 4066 4220 M 0 -54 rL SGR
helvS (100) 4066 470 xlabel
%
% X axis: small tics
%
L5
GSN 725 620 M 0  36 rL SGR
GSN 725 4220 M 0 -36 rL SGR
GSN 813 620 M 0  36 rL SGR
GSN 813 4220 M 0 -36 rL SGR
GSN 875 620 M 0  36 rL SGR
GSN 875 4220 M 0 -36 rL SGR
GSN 924 620 M 0  36 rL SGR
GSN 924 4220 M 0 -36 rL SGR
GSN 963 620 M 0  36 rL SGR
GSN 963 4220 M 0 -36 rL SGR
GSN 996 620 M 0  36 rL SGR
GSN 996 4220 M 0 -36 rL SGR
GSN 1025 620 M 0  36 rL SGR
GSN 1025 4220 M 0 -36 rL SGR
GSN 1051 620 M 0  36 rL SGR
GSN 1051 4220 M 0 -36 rL SGR
GSN 1224 620 M 0  36 rL SGR
GSN 1224 4220 M 0 -36 rL SGR
GSN 1312 620 M 0  36 rL SGR
GSN 1312 4220 M 0 -36 rL SGR
GSN 1374 620 M 0  36 rL SGR
GSN 1374 4220 M 0 -36 rL SGR
GSN 1422 620 M 0  36 rL SGR
GSN 1422 4220 M 0 -36 rL SGR
GSN 1462 620 M 0  36 rL SGR
GSN 1462 4220 M 0 -36 rL SGR
GSN 1495 620 M 0  36 rL SGR
GSN 1495 4220 M 0 -36 rL SGR
GSN 1524 620 M 0  36 rL SGR
GSN 1524 4220 M 0 -36 rL SGR
GSN 1550 620 M 0  36 rL SGR
GSN 1550 4220 M 0 -36 rL SGR
GSN 1722 620 M 0  36 rL SGR
GSN 1722 4220 M 0 -36 rL SGR
GSN 1810 620 M 0  36 rL SGR
GSN 1810 4220 M 0 -36 rL SGR
GSN 1873 620 M 0  36 rL SGR
GSN 1873 4220 M 0 -36 rL SGR
GSN 1921 620 M 0  36 rL SGR
GSN 1921 4220 M 0 -36 rL SGR
GSN 1960 620 M 0  36 rL SGR
GSN 1960 4220 M 0 -36 rL SGR
GSN 1994 620 M 0  36 rL SGR
GSN 1994 4220 M 0 -36 rL SGR
GSN 2023 620 M 0  36 rL SGR
GSN 2023 4220 M 0 -36 rL SGR
GSN 2048 620 M 0  36 rL SGR
GSN 2048 4220 M 0 -36 rL SGR
GSN 2221 620 M 0  36 rL SGR
GSN 2221 4220 M 0 -36 rL SGR
GSN 2309 620 M 0  36 rL SGR
GSN 2309 4220 M 0 -36 rL SGR
GSN 2371 620 M 0  36 rL SGR
GSN 2371 4220 M 0 -36 rL SGR
GSN 2420 620 M 0  36 rL SGR
GSN 2420 4220 M 0 -36 rL SGR
GSN 2459 620 M 0  36 rL SGR
GSN 2459 4220 M 0 -36 rL SGR
GSN 2492 620 M 0  36 rL SGR
GSN 2492 4220 M 0 -36 rL SGR
GSN 2521 620 M 0  36 rL SGR
GSN 2521 4220 M 0 -36 rL SGR
GSN 2547 620 M 0  36 rL SGR
GSN 2547 4220 M 0 -36 rL SGR
GSN 2720 620 M 0  36 rL SGR
GSN 2720 4220 M 0 -36 rL SGR
GSN 2808 620 M 0  36 rL SGR
GSN 2808 4220 M 0 -36 rL SGR
GSN 2870 620 M 0  36 rL SGR
GSN 2870 4220 M 0 -36 rL SGR
GSN 2918 620 M 0  36 rL SGR
GSN 2918 4220 M 0 -36 rL SGR
GSN 2958 620 M 0  36 rL SGR
GSN 2958 4220 M 0 -36 rL SGR
GSN 2991 620 M 0  36 rL SGR
GSN 2991 4220 M 0 -36 rL SGR
GSN 3020 620 M 0  36 rL SGR
GSN 3020 4220 M 0 -36 rL SGR
GSN 3045 620 M 0  36 rL SGR
GSN 3045 4220 M 0 -36 rL SGR
GSN 3218 620 M 0  36 rL SGR
GSN 3218 4220 M 0 -36 rL SGR
GSN 3306 620 M 0  36 rL SGR
GSN 3306 4220 M 0 -36 rL SGR
GSN 3368 620 M 0  36 rL SGR
GSN 3368 4220 M 0 -36 rL SGR
GSN 3417 620 M 0  36 rL SGR
GSN 3417 4220 M 0 -36 rL SGR
GSN 3456 620 M 0  36 rL SGR
GSN 3456 4220 M 0 -36 rL SGR
GSN 3490 620 M 0  36 rL SGR
GSN 3490 4220 M 0 -36 rL SGR
GSN 3519 620 M 0  36 rL SGR
GSN 3519 4220 M 0 -36 rL SGR
GSN 3544 620 M 0  36 rL SGR
GSN 3544 4220 M 0 -36 rL SGR
GSN 3717 620 M 0  36 rL SGR
GSN 3717 4220 M 0 -36 rL SGR
GSN 3805 620 M 0  36 rL SGR
GSN 3805 4220 M 0 -36 rL SGR
GSN 3867 620 M 0  36 rL SGR
GSN 3867 4220 M 0 -36 rL SGR
GSN 3915 620 M 0  36 rL SGR
GSN 3915 4220 M 0 -36 rL SGR
GSN 3955 620 M 0  36 rL SGR
GSN 3955 4220 M 0 -36 rL SGR
GSN 3988 620 M 0  36 rL SGR
GSN 3988 4220 M 0 -36 rL SGR
GSN 4017 620 M 0  36 rL SGR
GSN 4017 4220 M 0 -36 rL SGR
GSN 4043 620 M 0  36 rL SGR
GSN 4043 4220 M 0 -36 rL SGR
GSN 4216 620 M 0  36 rL SGR
GSN 4216 4220 M 0 -36 rL SGR
%
% Y axis: large tics
%
L10
GSN 620 987 M 54 0 rL SGR
GSN 4220 987 M -54 0 rL SGR
helvS (-1.5) 560 987 ylabel
GSN 620 1999 M 54 0 rL SGR
GSN 4220 1999 M -54 0 rL SGR
helvS (-1) 560 1999 ylabel
GSN 620 3012 M 54 0 rL SGR
GSN 4220 3012 M -54 0 rL SGR
helvS (-0.5) 560 3012 ylabel
GSN 620 4025 M 54 0 rL SGR
GSN 4220 4025 M -54 0 rL SGR
helvS (0) 560 4025 ylabel
%
% Y axis: small tics
%
L5
GSN 620 784 M 36 0 rL SGR
GSN 4220 784 M -36 0 rL SGR
GSN 620 987 M 36 0 rL SGR
GSN 4220 987 M -36 0 rL SGR
GSN 620 1189 M 36 0 rL SGR
GSN 4220 1189 M -36 0 rL SGR
GSN 620 1392 M 36 0 rL SGR
GSN 4220 1392 M -36 0 rL SGR
GSN 620 1594 M 36 0 rL SGR
GSN 4220 1594 M -36 0 rL SGR
GSN 620 1797 M 36 0 rL SGR
GSN 4220 1797 M -36 0 rL SGR
GSN 620 1999 M 36 0 rL SGR
GSN 4220 1999 M -36 0 rL SGR
GSN 620 2202 M 36 0 rL SGR
GSN 4220 2202 M -36 0 rL SGR
GSN 620 2405 M 36 0 rL SGR
GSN 4220 2405 M -36 0 rL SGR
GSN 620 2607 M 36 0 rL SGR
GSN 4220 2607 M -36 0 rL SGR
GSN 620 2810 M 36 0 rL SGR
GSN 4220 2810 M -36 0 rL SGR
GSN 620 3012 M 36 0 rL SGR
GSN 4220 3012 M -36 0 rL SGR
GSN 620 3215 M 36 0 rL SGR
GSN 4220 3215 M -36 0 rL SGR
GSN 620 3417 M 36 0 rL SGR
GSN 4220 3417 M -36 0 rL SGR
GSN 620 3620 M 36 0 rL SGR
GSN 4220 3620 M -36 0 rL SGR
GSN 620 3822 M 36 0 rL SGR
GSN 4220 3822 M -36 0 rL SGR
GSN 620 4025 M 36 0 rL SGR
GSN 4220 4025 M -36 0 rL SGR

%
% X axis
%
GSN L5 620 4025 M 4220 4025 L SDA G50 SGR

%
% X-Axis label:
%
gsave 2420 290 M 
[
[(Helvetica) 180 0 true true 0 (t)]
[(Helvetica) 180 0 true true 0 (i)]
[(Helvetica) 180 0 true true 0 (m)]
[(Helvetica) 180 0 true true 0 (e)]
] 0 MCshow grestore

%
% Y-Axis label:
%
gsave 234 2420 M 
currentpoint gsave translate 90 rotate 0 0 moveto
[
[(Helvetica) 180 0 true true 0 (d)]
[(Helvetica) 180 0 true true 0 (\()]
[(Helvetica) 180 0 true true 0 (s)]
[(Helvetica) 180 0 true true 0 (i)]
[(Helvetica) 180 0 true true 0 (g)]
[(Helvetica) 180 0 true true 0 (n)]
[(Helvetica) 180 0 true true 0 (a)]
[(Helvetica) 180 0 true true 0 (l)]
[(Helvetica) 180 0 true true 0 (\))]
[(Helvetica) 180 0 true true 0 ( )]
[(Helvetica) 180 0 true true 0 (/)]
[(Helvetica) 180 0 true true 0 ( )]
[(Helvetica) 180 0 true true 0 (d)]
[(Helvetica) 180 0 true true 0 (t)]
] 0 MCshow grestore

end
showpage
%%Trailer
%%EOF
