# data set	./hsmug/series//U-Trp-R243A.1.csv:col(3)
# fraction of residuals inside model inference band	0.0787992
#   x(mesh)	    y(mesh)	       rate	   y(mesh)-	   y(mesh)+	    x(data)	    y(data)	   y(model)	   y(error)	   residual	     weight	  residual*	   leverage	  y(model)-	  y(model)+	
2.27273e-005	      1.1516	    0.879618	      1.1516	      1.1516	    2.5e-005	     1.14325	      1.1516	           0	 -0.00834248	           1	           0	    -87.8353	      1.1516	      1.1516	
2.27273e-005	      1.1516	    0.879618	      1.1516	      1.1516	    0.001275	       1.137	     1.15107	           0	  -0.0140683	           1	           0	     129.964	     1.01067	     1.29147	
2.65091e-005	      1.1516	    0.859928	      1.1516	      1.1516	    0.002525	     1.14715	        1.15	           0	 -0.00284823	           1	           0	    -75.0565	        1.15	        1.15	
3.09203e-005	      1.1516	    0.837237	     1.09138	     1.21182	    0.003775	     1.14192	     1.14895	           0	 -0.00703122	           1	           0	    -176.894	     1.14895	     1.14895	
3.60656e-005	     1.15161	    0.811139	     1.10654	     1.19667	    0.005025	     1.14886	     1.14794	           0	 0.000922717	           1	           0	     108.376	     1.01973	     1.27615	
 4.2067e-005	     1.15161	    0.781195	    0.994865	     1.30836	    0.006275	     1.14341	     1.14696	           0	 -0.00355246	           1	           0	    -36.2612	     1.14696	     1.14696	
4.54545e-005	     1.15161	    0.764524	     1.15161	     1.15161	    0.007525	     1.14482	     1.14602	           0	 -0.00119758	           1	           0	     144.046	    0.998204	     1.29383	
 4.9067e-005	     1.15162	    0.746929	     1.15162	     1.15162	    0.008775	     1.14436	      1.1451	           0	-0.000741057	           1	           0	     54.9878	     1.05378	     1.23643	
5.72319e-005	     1.15162	    0.707844	     1.03123	     1.27202	    0.010025	     1.14074	     1.14422	           0	  -0.0034814	           1	           0	    -240.774	     1.14422	     1.14422	
6.67554e-005	     1.15163	    0.663428	     1.15163	     1.15163	    0.011275	     1.13768	     1.14336	           0	 -0.00567723	           1	           0	    -254.995	     1.14336	     1.14336	
7.78637e-005	     1.15164	    0.613171	     1.15164	     1.15164	    0.012525	     1.14139	     1.14253	           0	 -0.00114225	           1	           0	    -208.719	     1.14253	     1.14253	
9.08204e-005	     1.15164	    0.556592	    0.956905	     1.34638	    0.013775	     1.13925	     1.14173	           0	 -0.00247522	           1	           0	    -259.564	     1.14173	     1.14173	
9.09091e-005	     1.15164	    0.556212	      1.0322	     1.27109	    0.015025	     1.14417	     1.14095	           0	   0.0032225	           1	           0	    -217.381	     1.14095	     1.14095	
 0.000105933	     1.15165	    0.493271	     1.15165	     1.15165	    0.016275	     1.13791	     1.14019	           0	 -0.00227551	           1	           0	    -201.786	     1.14019	     1.14019	
 0.000123561	     1.15166	    0.422891	     1.07238	     1.23094	    0.017525	     1.13952	     1.13945	           0	6.42639e-005	           1	           0	    -258.328	     1.13945	     1.13945	
 0.000144121	     1.15167	    0.345292	     1.15167	     1.15167	    0.018775	      1.1386	     1.13874	           0	-0.000139711	           1	           0	    -141.985	     1.13874	     1.13874	
 0.000168104	     1.15168	    0.260533	     1.09465	      1.2087	    0.020025	     1.13868	     1.13805	           0	 0.000630966	           1	           0	    -182.936	     1.13805	     1.13805	
 0.000181818	     1.15168	    0.214692	     1.13334	     1.17001	    0.021275	     1.13669	     1.13737	           0	 -0.00068035	           1	           0	     100.165	     1.01411	     1.26063	
 0.000196077	     1.15168	    0.168961	     1.15168	     1.15168	    0.022525	      1.1349	     1.13672	           0	 -0.00182035	           1	           0	    -165.711	     1.13672	     1.13672	
 0.000228704	     1.15169	   0.0712857	     1.15169	     1.15169	    0.023775	     1.13501	     1.13608	           0	 -0.00106828	           1	           0	    -404.396	     1.13608	     1.13608	
 0.000266761	     1.15169	  -0.0313531	     1.04816	     1.25521	    0.025025	     1.13124	     1.13546	           0	  -0.0042234	           1	           0	    -53.1475	     1.13546	     1.13546	
 0.000311151	     1.15168	    -0.13734	    0.990139	     1.31322	    0.026275	     1.13204	     1.13486	           0	 -0.00282005	           1	           0	    -29.3855	     1.13486	     1.13486	
 0.000362927	     1.15167	   -0.244571	     1.01588	     1.28746	    0.027525	     1.13608	     1.13427	           0	  0.00181244	           1	           0	    -29.0766	     1.13427	     1.13427	
 0.000363636	     1.15167	   -0.245928	     1.15167	     1.15167	    0.028775	     1.13246	      1.1337	           0	 -0.00123783	           1	           0	      -27.67	      1.1337	      1.1337	
 0.000423319	     1.15165	   -0.350492	     1.15165	     1.15165	    0.030025	     1.13025	     1.13314	           0	 -0.00289527	           1	           0	    -136.936	     1.13314	     1.13314	
 0.000493761	     1.15163	   -0.452222	      1.0558	     1.24745	    0.031275	     1.13623	      1.1326	           0	  0.00363567	           1	           0	    -93.2252	      1.1326	      1.1326	
 0.000575924	     1.15158	   -0.546746	     1.04908	     1.25409	    0.032525	     1.13268	     1.13207	           0	 0.000618024	           1	           0	    -95.6604	     1.13207	     1.13207	
 0.000671759	     1.15153	   -0.631201	     1.15153	     1.15153	    0.033775	     1.13311	     1.13155	           0	  0.00155478	           1	           0	    -235.908	     1.13155	     1.13155	
 0.000727273	     1.15149	   -0.670022	     1.09757	     1.20541	    0.035025	     1.13143	     1.13105	           0	  0.00038143	           1	           0	    -81.9285	     1.13105	     1.13105	
 0.000783541	     1.15145	    -0.70321	     1.00012	     1.30279	    0.036275	     1.13334	     1.13055	           0	  0.00278092	           1	           0	    -158.375	     1.13055	     1.13055	
 0.000913924	     1.15136	   -0.761218	     1.01806	     1.28465	    0.037525	     1.13124	     1.13007	           0	  0.00116367	           1	           0	    -96.4054	     1.13007	     1.13007	
    0.001066	     1.15124	    -0.80474	     1.15124	     1.15124	    0.038775	      1.1262	      1.1296	           0	 -0.00340489	           1	           0	    -14.9387	      1.1296	      1.1296	
  0.00124339	     1.15109	   -0.834447	     1.15109	     1.15109	    0.040025	     1.13189	     1.12915	           0	  0.00274062	           1	           0	    -257.752	     1.12915	     1.12915	
  0.00145029	     1.15092	    -0.85203	     1.15092	     1.15092	    0.041275	     1.12559	      1.1287	           0	 -0.00310941	           1	           0	    -57.5024	      1.1287	      1.1287	
  0.00145455	     1.15091	   -0.852261	     1.06628	     1.23555	    0.042525	     1.13291	     1.12826	           0	  0.00465286	           1	           0	     65.8624	     1.02831	     1.22821	
  0.00169162	     1.15071	    -0.85984	     1.15071	     1.15071	    0.043775	     1.13268	     1.12783	           0	  0.00485028	           1	           0	     36.6941	     1.05323	     1.20244	
  0.00197312	     1.15047	   -0.860408	      1.0519	     1.24903	    0.045025	     1.12479	     1.12742	           0	 -0.00262433	           1	           0	     61.8181	     1.03059	     1.22425	
  0.00230145	     1.15019	   -0.855981	    0.924855	     1.37552	    0.046275	     1.13227	     1.12701	           0	  0.00526186	           1	           0	     -163.62	     1.12701	     1.12701	
  0.00268441	     1.14986	   -0.848213	    0.891032	     1.40869	    0.047525	      1.1209	     1.12661	           0	 -0.00571087	           1	           0	    -215.534	     1.12661	     1.12661	
  0.00290909	     1.14967	   -0.843185	    0.871124	     1.42822	    0.048775	     1.13242	     1.12622	           0	  0.00620278	           1	           0	    -187.653	     1.12622	     1.12622	
  0.00313111	     1.14948	   -0.838097	    0.804059	     1.49491	    0.050025	     1.12765	     1.12583	           0	  0.00181807	           1	           0	    -261.755	     1.12583	     1.12583	
  0.00365213	     1.14905	   -0.826077	    0.721958	     1.57614	    0.051275	     1.13032	     1.12546	           0	  0.00486278	           1	           0	    -93.3322	     1.12546	     1.12546	
  0.00425985	     1.14855	   -0.812242	    0.666618	     1.63049	    0.052525	     1.12426	     1.12509	           0	-0.000835359	           1	           0	     -107.22	     1.12509	     1.12509	
   0.0049687	     1.14798	   -0.796504	    0.556323	     1.73964	    0.053775	     1.12945	     1.12473	           0	  0.00471141	           1	           0	    -12.6109	     1.12473	     1.12473	
  0.00579551	     1.14733	    -0.77871	    0.451933	     1.84273	    0.055025	     1.12845	     1.12438	           0	  0.00407081	           1	           0	    -174.083	     1.12438	     1.12438	
  0.00581818	     1.14731	   -0.778231	    0.438745	     1.85588	    0.056275	     1.12445	     1.12404	           0	  0.00041307	           1	           0	    -190.879	     1.12404	     1.12404	
   0.0067599	     1.14659	   -0.758696	    0.350748	     1.94243	    0.057525	     1.12376	      1.1237	           0	6.33988e-005	           1	           0	    -56.3794	      1.1237	      1.1237	
  0.00788476	     1.14575	   -0.736307	    0.199934	     2.09156	    0.058775	     1.12464	     1.12337	           0	   0.0012695	           1	           0	    -231.189	     1.12337	     1.12337	
  0.00919681	      1.1448	   -0.711418	   0.0475134	     2.24209	    0.060025	     1.12769	     1.12304	           0	  0.00464658	           1	           0	    -154.606	     1.12304	     1.12304	
   0.0107272	     1.14373	   -0.683945	    -0.12858	     2.41604	    0.061275	     1.12529	     1.12273	           0	  0.00255981	           1	           0	    -196.035	     1.12273	     1.12273	
   0.0116364	     1.14312	   -0.668367	   -0.210925	     2.49716	    0.062525	     1.12422	     1.12241	           0	  0.00180689	           1	           0	    -128.471	     1.12241	     1.12241	
   0.0125122	     1.14254	   -0.653857	   -0.304719	      2.5898	    0.063775	     1.12712	     1.12211	           0	  0.00501049	           1	           0	    -108.117	     1.12211	     1.12211	
   0.0145943	     1.14121	   -0.621195	   -0.506032	     2.78845	    0.065025	     1.12327	     1.12181	           0	  0.00146077	           1	           0	    -29.3026	     1.12181	     1.12181	
   0.0170228	     1.13975	   -0.586086	   -0.723611	      3.0031	    0.066275	     1.12277	     1.12151	           0	  0.00125791	           1	           0	    -299.939	     1.12151	     1.12151	
   0.0198554	     1.13814	   -0.548755	   -0.945965	     3.22224	    0.067525	     1.12304	     1.12122	           0	  0.00181204	           1	           0	    -26.7993	     1.12122	     1.12122	
   0.0231594	     1.13639	    -0.50953	    -1.17941	      3.4522	    0.068775	     1.12345	     1.12094	           0	  0.00251584	           1	           0	    -72.8668	     1.12094	     1.12094	
   0.0232727	     1.13633	   -0.508259	    -1.19411	     3.46678	    0.070025	     1.12094	     1.12066	           0	 0.000276932	           1	           0	        -146	     1.12066	     1.12066	
   0.0270132	     1.13451	   -0.468844	    -1.43552	     3.70453	    0.071275	     1.12517	     1.12039	           0	  0.00478547	           1	           0	     -244.87	     1.12039	     1.12039	
   0.0315083	      1.1325	   -0.427228	    -1.69946	     3.96446	    0.072525	     1.12338	     1.12012	           0	  0.00326158	           1	           0	    -88.7717	     1.12012	     1.12012	
   0.0367513	     1.13037	   -0.385289	      -1.961	     4.22174	    0.073775	     1.11953	     1.11985	           0	-0.000324601	           1	           0	    -208.806	     1.11985	     1.11985	
   0.0428668	     1.12814	   -0.343687	    -2.22985	     4.48614	    0.075025	     1.11899	      1.1196	           0	-0.000605451	           1	           0	     16.9662	     1.06887	     1.17032	
   0.0465455	     1.12692	   -0.321807	    -2.37128	     4.62512	    0.076275	     1.12609	     1.11934	           0	  0.00674665	           1	           0	    -156.678	     1.11934	     1.11934	
        0.05	     1.12584	   -0.303094	    -2.49369	     4.74538	    0.077525	     1.11709	     1.11909	           0	 -0.00200567	           1	           0	    -218.152	     1.11909	     1.11909	
   0.0583201	     1.12349	   -0.264156	    -2.76049	     5.00746	    0.078775	     1.12426	     1.11884	           0	  0.00541268	           1	           0	    -247.444	     1.11884	     1.11884	
   0.0680247	     1.12111	   -0.227453	    -3.01361	     5.25583	    0.080025	      1.1172	      1.1186	           0	 -0.00140317	           1	           0	     -259.58	      1.1186	      1.1186	
   0.0793442	     1.11873	   -0.193464	    -3.26221	     5.49968	    0.081275	     1.12227	     1.11837	           0	  0.00390688	           1	           0	    -236.241	     1.11837	     1.11837	
   0.0925473	     1.11639	   -0.162541	    -3.49807	     5.73086	    0.082525	     1.11415	     1.11813	           0	 -0.00398457	           1	           0	    -134.957	     1.11813	     1.11813	
   0.0930909	      1.1163	   -0.161428	     -3.5053	     5.73791	    0.083775	     1.11869	      1.1179	           0	 0.000785077	           1	           0	    -184.106	      1.1179	      1.1179	
    0.107947	     1.11411	   -0.134895	    -3.72713	     5.95536	    0.085025	     1.11327	     1.11768	           0	 -0.00440658	           1	           0	     -293.87	     1.11768	     1.11768	
     0.12591	     1.11192	   -0.110598	    -3.94638	     6.17022	    0.086275	      1.1185	     1.11745	           0	  0.00104305	           1	           0	      -38.03	     1.11745	     1.11745	
    0.146862	     1.10983	  -0.0895956	    -4.16022	     6.37989	    0.087525	     1.11896	     1.11724	           0	  0.00172156	           1	           0	     126.138	    0.978918	     1.25555	
      0.1713	     1.10787	  -0.0717263	     -4.3696	     6.58535	    0.088775	      1.1156	     1.11702	           0	 -0.00142347	           1	           0	    -296.563	     1.11702	     1.11702	
    0.186182	     1.10687	  -0.0632793	    -4.48576	      6.6995	    0.090025	     1.11499	     1.11681	           0	 -0.00182195	           1	           0	    -204.416	     1.11681	     1.11681	
    0.199805	     1.10605	  -0.0567497	    -4.57996	     6.79206	    0.091275	     1.11964	      1.1166	           0	  0.00303869	           1	           0	     30.9783	     1.04805	     1.18515	
    0.233053	     1.10438	  -0.0443743	    -4.79162	     7.00039	    0.092525	     1.11175	      1.1164	           0	 -0.00465145	           1	           0	     -96.471	      1.1164	      1.1164	
    0.271834	     1.10287	  -0.0342834	    -5.01085	     7.21659	    0.093775	     1.11121	     1.11619	           0	 -0.00498231	           1	           0	    -154.387	     1.11619	     1.11619	
    0.317067	     1.10152	  -0.0261574	    -5.24132	     7.44435	    0.095025	     1.11934	       1.116	           0	  0.00334118	           1	           0	    -60.9775	       1.116	       1.116	
    0.369828	     1.10032	  -0.0196907	    -5.48761	     7.68825	    0.096275	     1.11175	      1.1158	           0	 -0.00405589	           1	           0	     32.0842	     1.04604	     1.18556	
    0.372364	     1.10027	  -0.0194375	    -5.49703	     7.69756	    0.097525	     1.11175	     1.11561	           0	 -0.00386347	           1	           0	    -229.453	     1.11561	     1.11561	
    0.431368	     1.09927	   -0.014603	    -5.75003	     7.94857	    0.098775	     1.11464	     1.11542	           0	-0.000776479	           1	           0	    -152.379	     1.11542	     1.11542	
    0.503149	     1.09838	  -0.0106459	    -6.03138	     8.22813	      0.1001	     1.11941	     1.11522	           0	  0.00418875	           1	           0	     -5.4908	     1.11522	     1.11522	
    0.586875	     1.09762	 -0.00760553	    -6.33323	     8.52847	      0.1051	     1.10961	      1.1145	           0	 -0.00489284	           1	           0	    -63.4697	      1.1145	      1.1145	
    0.684532	       1.097	 -0.00530185	    -6.64824	     8.84224	      0.1101	     1.10888	     1.11383	           0	   -0.004943	           1	           0	    -224.127	     1.11383	     1.11383	
    0.744727	     1.09671	 -0.00429784	    -6.82505	     9.01848	      0.1151	     1.11213	     1.11319	           0	 -0.00105837	           1	           0	    -332.568	     1.11319	     1.11319	
     0.79844	      1.0965	 -0.00358592	    -6.97449	     9.16749	      0.1201	     1.11152	     1.11258	           0	 -0.00106344	           1	           0	    -29.1439	     1.11258	     1.11258	
    0.931302	     1.09611	  -0.0023358	    -7.29664	     9.48887	      0.1251	     1.11018	     1.11201	           0	 -0.00182802	           1	           0	     41.8904	      1.0323	     1.19172	
           1	     1.09597	 -0.00188685	    -7.44018	     9.63212	      0.1301	     1.11194	     1.11146	           0	 0.000470325	           1	           0	      9.8266	     1.07286	     1.15007	
     1.08627	     1.09583	 -0.00145165	    -7.60542	     9.79707	      0.1351	     1.11014	     1.11095	           0	-0.000808729	           1	           0	    -69.2116	     1.11095	     1.11095	
     1.26703	     1.09562	-0.000850867	    -7.88612	     10.0774	      0.1401	     1.10534	     1.11046	           0	  -0.0051207	           1	           0	    -43.9497	     1.11046	     1.11046	
     1.47787	     1.09549	-0.000463882	    -8.11883	     10.3098	      0.1451	     1.10373	     1.10999	           0	 -0.00625881	           1	           0	    -10.6002	     1.10999	     1.10999	
     1.48945	     1.09548	-0.000448828	    -8.12957	     10.3205	      0.1501	     1.10175	     1.10955	           0	 -0.00779392	           1	           0	    -220.107	     1.10955	     1.10955	
     1.72379	     1.09541	-0.000231439	    -8.30009	     10.4909	      0.1551	     1.10415	     1.10912	           0	 -0.00496956	           1	           0	    -66.7713	     1.10912	     1.10912	
     2.01063	     1.09536	-0.000103717	    -8.42742	     10.6181	      0.1601	     1.10492	     1.10872	           0	 -0.00379937	           1	           0	    -61.7543	     1.10872	     1.10872	
     2.34521	     1.09534	-4.08788e-005	    -8.50504	     10.6957	      0.1651	      1.1056	     1.10833	           0	 -0.00272712	           1	           0	     37.4448	     1.03297	     1.18369	
     2.73546	     1.09533	-1.3838e-005	    -8.54607	     10.7367	      0.1701	     1.09775	     1.10796	           0	  -0.0102142	           1	           0	    -263.973	     1.10796	     1.10796	
     2.97891	     1.09533	-7.04486e-006	    -8.55818	     10.7488	      0.1751	      1.0998	      1.1076	           0	 -0.00779952	           1	           0	    -49.6472	      1.1076	      1.1076	
     3.19064	     1.09532	-3.91691e-006	    -8.56494	     10.7556	      0.1801	     1.10526	     1.10726	           0	 -0.00200467	           1	           0	    -153.528	     1.10726	     1.10726	
     3.72157	     1.09532	-8.99145e-007	    -8.57063	     10.7613	      0.1851	     1.10282	     1.10694	           0	 -0.00412125	           1	           0	    -86.0174	     1.10694	     1.10694	
     4.34085	     1.09532	-1.61599e-007	    -8.57263	     10.7633	      0.1901	     1.09622	     1.10663	           0	  -0.0104085	           1	           0	    -140.248	     1.10663	     1.10663	
     5.06318	     1.09532	-2.18289e-008	    -8.57251	     10.7632	      0.1951	     1.10587	     1.10633	           0	-0.000455566	           1	           0	    -181.775	     1.10633	     1.10633	
     5.90571	     1.09532	-2.11327e-009	    -8.57277	     10.7634	      0.2001	     1.10389	     1.10604	           0	 -0.00214935	           1	           0	    -128.069	     1.10604	     1.10604	
     5.95782	     1.09532	-1.82912e-009	    -8.57402	     10.7647	      0.2051	     1.10133	     1.10576	           0	 -0.00442667	           1	           0	    -185.729	     1.10576	     1.10576	
     6.88843	     1.09532	-1.38718e-010	    -8.57313	     10.7638	      0.2101	     1.10152	     1.10549	           0	 -0.00396944	           1	           0	    -216.831	     1.10549	     1.10549	
     8.03469	     1.09532	-5.78675e-012	    -8.57117	     10.7618	      0.2151	     1.09965	     1.10523	           0	  -0.0055846	           1	           0	    -8.92497	     1.10523	     1.10523	
     9.37168	     1.09532	-1.41214e-013	    -8.57133	      10.762	      0.2201	     1.10057	     1.10499	           0	 -0.00441913	           1	           0	    -289.507	     1.10499	     1.10499	
     10.9312	     1.09532	-2.08574e-015	    -8.57209	     10.7627	      0.2251	     1.09648	     1.10475	           0	 -0.00826256	           1	           0	    -158.388	     1.10475	     1.10475	
     11.9156	     1.09532	7.36082e-017	    -8.57209	     10.7627	      0.2301	     1.09195	     1.10452	           0	  -0.0125694	           1	           0	    -6.78916	     1.10452	     1.10452	
     12.7501	     1.09532	1.10183e-018	    -8.57209	     10.7627	      0.2351	     1.09584	     1.10429	           0	 -0.00845684	           1	           0	    -127.634	     1.10429	     1.10429	
     14.8718	     1.09532	-3.5524e-017	    -8.57209	     10.7627	      0.2401	     1.09397	     1.10408	           0	  -0.0101119	           1	           0	    -227.134	     1.10408	     1.10408	
     17.3465	     1.09532	-2.67756e-017	    -8.57209	     10.7627	      0.2451	     1.09901	     1.10387	           0	 -0.00486669	           1	           0	    -250.291	     1.10387	     1.10387	
      20.233	     1.09532	6.96039e-018	     -8.5716	     10.7622	      0.2501	      1.0987	     1.10367	           0	 -0.00497343	           1	           0	    -43.0848	     1.10367	     1.10367	
     23.5998	     1.09532	1.02658e-017	    -8.57209	     10.7627	      0.2551	     1.09927	     1.10348	           0	 -0.00420677	           1	           0	    -140.088	     1.10348	     1.10348	
     23.8313	     1.09532	8.52202e-018	    -8.57209	     10.7627	      0.2601	     1.09744	     1.10329	           0	 -0.00584891	           1	           0	    -40.5662	     1.10329	     1.10329	
     27.5269	     1.09532	-1.33025e-018	    -8.57209	     10.7627	      0.2651	     1.09351	     1.10311	           0	 -0.00959707	           1	           0	    -227.619	     1.10311	     1.10311	
     32.1074	     1.09532	8.23712e-018	    -8.57271	     10.7634	      0.2701	     1.09325	     1.10293	           0	 -0.00968597	           1	           0	    -258.013	     1.10293	     1.10293	
     37.4501	     1.09532	4.20759e-018	    -8.57209	     10.7627	      0.2751	     1.09843	     1.10276	           0	 -0.00432787	           1	           0	    -107.953	     1.10276	     1.10276	
     43.6819	     1.09532	-4.9246e-019	    -8.57209	     10.7627	      0.2801	      1.0905	      1.1026	           0	  -0.0120975	           1	           0	     124.891	    0.964962	     1.24023	
     47.6625	     1.09532	-3.49465e-018	    -8.57209	     10.7627	      0.2851	     1.09587	     1.10243	           0	 -0.00655972	           1	           0	    -217.511	     1.10243	     1.10243	
     50.9507	     1.09532	-5.97461e-018	     -8.5729	     10.7636	      0.2901	      1.0876	     1.10228	           0	  -0.0146842	           1	           0	    -109.091	     1.10228	     1.10228	
     59.4291	     1.09532	-4.38322e-020	    -8.57209	     10.7627	      0.2951	     1.09702	     1.10213	           0	 -0.00511087	           1	           0	     -107.78	     1.10213	     1.10213	
     69.3182	     1.09532	-1.20416e-019	    -8.57209	     10.7627	      0.3001	     1.09015	     1.10198	           0	  -0.0118319	           1	           0	    -348.231	     1.10198	     1.10198	
     80.8529	     1.09532	-2.09744e-019	    -8.57209	     10.7627	      0.3051	     1.09069	     1.10184	           0	  -0.0111548	           1	           0	    -190.755	     1.10184	     1.10184	
     94.3071	     1.09532	6.01153e-020	    -8.57209	     10.7627	      0.3101	      1.0924	      1.1017	           0	 -0.00929667	           1	           0	    -85.4685	      1.1017	      1.1017	
         110	     1.09532	6.01153e-020	    -8.57209	     10.7627	      0.3151	     1.09794	     1.10157	           0	  -0.0036325	           1	           0	    -122.736	     1.10157	     1.10157	
 --	 --	 --	 --	 --	      0.3201	     1.09305	     1.10144	           0	  -0.0083846	           1	           0	     18.1768	     1.04893	     1.15394	
 --	 --	 --	 --	 --	      0.3251	      1.0992	     1.10131	           0	 -0.00211533	           1	           0	    -113.779	     1.10131	     1.10131	
 --	 --	 --	 --	 --	      0.3301	     1.09809	     1.10119	           0	 -0.00309705	           1	           0	    -196.862	     1.10119	     1.10119	
 --	 --	 --	 --	 --	      0.3351	     1.08767	     1.10107	           0	  -0.0133921	           1	           0	    -10.9892	     1.10107	     1.10107	
 --	 --	 --	 --	 --	      0.3401	     1.09351	     1.10095	           0	 -0.00744043	           1	           0	    -257.395	     1.10095	     1.10095	
 --	 --	 --	 --	 --	      0.3451	     1.08798	     1.10084	           0	  -0.0128569	           1	           0	    -224.294	     1.10084	     1.10084	
 --	 --	 --	 --	 --	      0.3501	     1.09416	     1.10073	           0	 -0.00656628	           1	           0	    -165.034	     1.10073	     1.10073	
 --	 --	 --	 --	 --	      0.3551	      1.0921	     1.10062	           0	  -0.0085211	           1	           0	    -96.6958	     1.10062	     1.10062	
 --	 --	 --	 --	 --	      0.3601	     1.08955	     1.10051	           0	  -0.0109687	           1	           0	    -139.087	     1.10051	     1.10051	
 --	 --	 --	 --	 --	      0.3651	     1.08363	     1.10041	           0	  -0.0167815	           1	           0	    -82.7149	     1.10041	     1.10041	
 --	 --	 --	 --	 --	      0.3701	     1.09458	     1.10031	           0	 -0.00573194	           1	           0	     -94.662	     1.10031	     1.10031	
 --	 --	 --	 --	 --	      0.3751	     1.08893	     1.10021	           0	  -0.0112824	           1	           0	    -167.114	     1.10021	     1.10021	
 --	 --	 --	 --	 --	      0.3801	     1.09035	     1.10012	           0	 -0.00977522	           1	           0	      27.096	     1.03601	     1.16423	
 --	 --	 --	 --	 --	      0.3851	     1.09439	     1.10003	           0	 -0.00564042	           1	           0	    -87.5783	     1.10003	     1.10003	
 --	 --	 --	 --	 --	      0.3901	     1.09645	     1.09994	           0	 -0.00349039	           1	           0	    -116.884	     1.09994	     1.09994	
 --	 --	 --	 --	 --	      0.3951	     1.09111	     1.09985	           0	 -0.00874256	           1	           0	    -165.504	     1.09985	     1.09985	
 --	 --	 --	 --	 --	      0.4001	     1.09126	     1.09976	           0	 -0.00850434	           1	           0	     -297.62	     1.09976	     1.09976	
 --	 --	 --	 --	 --	      0.4051	     1.08672	     1.09968	           0	  -0.0129607	           1	           0	    -155.025	     1.09968	     1.09968	
 --	 --	 --	 --	 --	      0.4101	     1.08756	      1.0996	           0	  -0.0120415	           1	           0	    -129.658	      1.0996	      1.0996	
 --	 --	 --	 --	 --	      0.4151	     1.08687	     1.09952	           0	  -0.0126468	           1	           0	    -217.968	     1.09952	     1.09952	
 --	 --	 --	 --	 --	      0.4201	     1.09073	     1.09944	           0	 -0.00871392	           1	           0	    -282.615	     1.09944	     1.09944	
 --	 --	 --	 --	 --	      0.4251	     1.09164	     1.09937	           0	 -0.00772286	           1	           0	    -61.9184	     1.09937	     1.09937	
 --	 --	 --	 --	 --	      0.4301	     1.09393	     1.09929	           0	 -0.00535856	           1	           0	    -115.306	     1.09929	     1.09929	
 --	 --	 --	 --	 --	      0.4351	     1.08966	     1.09922	           0	 -0.00956095	           1	           0	    -185.789	     1.09922	     1.09922	
 --	 --	 --	 --	 --	      0.4401	     1.09439	     1.09915	           0	  -0.0047575	           1	           0	    -37.0142	     1.09915	     1.09915	
 --	 --	 --	 --	 --	      0.4451	     1.09119	     1.09908	           0	 -0.00789315	           1	           0	    -41.0474	     1.09908	     1.09908	
 --	 --	 --	 --	 --	      0.4501	        1.09	     1.09901	           0	 -0.00900786	           1	           0	    -275.961	     1.09901	     1.09901	
 --	 --	 --	 --	 --	      0.4551	     1.08997	     1.09894	           0	 -0.00897907	           1	           0	    -93.8729	     1.09894	     1.09894	
 --	 --	 --	 --	 --	      0.4601	     1.08825	     1.09888	           0	  -0.0106317	           1	           0	     -46.991	     1.09888	     1.09888	
 --	 --	 --	 --	 --	      0.4651	       1.086	     1.09882	           0	  -0.0128183	           1	           0	    -177.379	     1.09882	     1.09882	
 --	 --	 --	 --	 --	      0.4701	     1.08828	     1.09875	           0	  -0.0104713	           1	           0	    -8.66226	     1.09875	     1.09875	
 --	 --	 --	 --	 --	      0.4751	     1.08905	     1.09869	           0	 -0.00964316	           1	           0	    -71.5582	     1.09869	     1.09869	
 --	 --	 --	 --	 --	      0.4801	     1.08794	     1.09863	           0	  -0.0106938	           1	           0	    -428.938	     1.09863	     1.09863	
 --	 --	 --	 --	 --	      0.4851	     1.08691	     1.09858	           0	  -0.0116657	           1	           0	     77.6838	    0.990028	     1.20712	
 --	 --	 --	 --	 --	      0.4901	     1.08993	     1.09852	           0	 -0.00859383	           1	           0	    -89.0351	     1.09852	     1.09852	
 --	 --	 --	 --	 --	      0.4951	     1.08916	     1.09846	           0	 -0.00930067	           1	           0	      -61.28	     1.09846	     1.09846	
 --	 --	 --	 --	 --	      0.5001	     1.09042	     1.09841	           0	 -0.00798618	           1	           0	    -102.527	     1.09841	     1.09841	
 --	 --	 --	 --	 --	      0.5051	     1.09363	     1.09836	           0	 -0.00473033	           1	           0	    -265.368	     1.09836	     1.09836	
 --	 --	 --	 --	 --	      0.5101	     1.09465	      1.0983	           0	 -0.00364808	           1	           0	    -139.228	      1.0983	      1.0983	
 --	 --	 --	 --	 --	      0.5151	     1.09534	     1.09825	           0	 -0.00290941	           1	           0	    -89.7251	     1.09825	     1.09825	
 --	 --	 --	 --	 --	      0.5201	     1.08985	      1.0982	           0	 -0.00835429	           1	           0	     -186.45	      1.0982	      1.0982	
 --	 --	 --	 --	 --	      0.5251	     1.09385	     1.09815	           0	  -0.0043002	           1	           0	     28.4401	     1.03247	     1.16383	
 --	 --	 --	 --	 --	      0.5301	     1.09851	      1.0981	           0	 0.000402903	           1	           0	    -96.3013	      1.0981	      1.0981	
 --	 --	 --	 --	 --	      0.5351	     1.09092	     1.09806	           0	 -0.00713997	           1	           0	      -61.47	     1.09806	     1.09806	
 --	 --	 --	 --	 --	      0.5401	     1.09198	     1.09801	           0	 -0.00602878	           1	           0	    -154.797	     1.09801	     1.09801	
 --	 --	 --	 --	 --	      0.5451	     1.09035	     1.09797	           0	 -0.00761852	           1	           0	     75.6013	    0.990883	     1.20505	
 --	 --	 --	 --	 --	      0.5501	     1.09645	     1.09792	           0	 -0.00147166	           1	           0	    -47.8294	     1.09792	     1.09792	
 --	 --	 --	 --	 --	      0.5551	     1.08909	     1.09788	           0	 -0.00879067	           1	           0	    -101.042	     1.09788	     1.09788	
 --	 --	 --	 --	 --	      0.5601	        1.09	     1.09784	           0	 -0.00783304	           1	           0	    -253.073	     1.09784	     1.09784	
 --	 --	 --	 --	 --	      0.5651	     1.09363	     1.09779	           0	 -0.00416874	           1	           0	     -131.54	     1.09779	     1.09779	
 --	 --	 --	 --	 --	      0.5701	     1.09397	     1.09775	           0	 -0.00378525	           1	           0	    -50.7471	     1.09775	     1.09775	
 --	 --	 --	 --	 --	      0.5751	     1.09233	     1.09771	           0	 -0.00538506	           1	           0	    -67.9025	     1.09771	     1.09771	
 --	 --	 --	 --	 --	      0.5801	     1.08847	     1.09767	           0	 -0.00920065	           1	           0	    -48.5963	     1.09767	     1.09767	
 --	 --	 --	 --	 --	      0.5851	     1.09412	     1.09763	           0	 -0.00351699	           1	           0	     66.4971	    0.997206	     1.19806	
 --	 --	 --	 --	 --	      0.5901	     1.09465	      1.0976	           0	 -0.00294156	           1	           0	    -265.122	      1.0976	      1.0976	
 --	 --	 --	 --	 --	      0.5951	     1.09145	     1.09756	           0	 -0.00610686	           1	           0	    -172.038	     1.09756	     1.09756	
 --	 --	 --	 --	 --	      0.6001	     1.08965	     1.09752	           0	 -0.00786786	           1	           0	    -299.138	     1.09752	     1.09752	
 --	 --	 --	 --	 --	      0.6051	      1.0942	     1.09749	           0	 -0.00328955	           1	           0	    -123.855	     1.09749	     1.09749	
 --	 --	 --	 --	 --	      0.6101	      1.0937	     1.09745	           0	 -0.00375192	           1	           0	     50.1396	     1.01025	     1.18466	
 --	 --	 --	 --	 --	      0.6151	     1.09275	     1.09742	           0	 -0.00466993	           1	           0	    -240.624	     1.09742	     1.09742	
 --	 --	 --	 --	 --	      0.6201	     1.08748	     1.09738	           0	 -0.00990109	           1	           0	     3.61307	     1.07397	     1.12079	
 --	 --	 --	 --	 --	      0.6251	     1.09416	     1.09735	           0	 -0.00319288	           1	           0	     -189.46	     1.09735	     1.09735	
 --	 --	 --	 --	 --	      0.6301	     1.09084	     1.09732	           0	 -0.00647528	           1	           0	     121.133	    0.961771	     1.23286	
 --	 --	 --	 --	 --	      0.6351	      1.0924	     1.09729	           0	 -0.00488577	           1	           0	    -192.158	     1.09729	     1.09729	
 --	 --	 --	 --	 --	      0.6401	     1.08905	     1.09725	           0	 -0.00820935	           1	           0	    -100.264	     1.09725	     1.09725	
 --	 --	 --	 --	 --	      0.6451	     1.10072	     1.09722	           0	  0.00349649	           1	           0	    -168.649	     1.09722	     1.09722	
 --	 --	 --	 --	 --	      0.6501	     1.09587	     1.09719	           0	 -0.00131822	           1	           0	    -199.905	     1.09719	     1.09719	
 --	 --	 --	 --	 --	      0.6551	     1.08882	     1.09716	           0	 -0.00834599	           1	           0	    -213.313	     1.09716	     1.09716	
 --	 --	 --	 --	 --	      0.6601	     1.09889	     1.09713	           0	  0.00175322	           1	           0	     140.416	    0.951197	     1.24307	
 --	 --	 --	 --	 --	      0.6651	     1.08932	     1.09711	           0	  -0.0077906	           1	           0	    -51.3295	     1.09711	     1.09711	
 --	 --	 --	 --	 --	      0.6701	     1.09428	     1.09708	           0	 -0.00280244	           1	           0	    -219.729	     1.09708	     1.09708	
 --	 --	 --	 --	 --	      0.6751	     1.09836	     1.09705	           0	  0.00130523	           1	           0	    -2.83248	     1.09705	     1.09705	
 --	 --	 --	 --	 --	      0.6801	     1.09446	     1.09702	           0	  -0.0025601	           1	           0	    -142.958	     1.09702	     1.09702	
 --	 --	 --	 --	 --	      0.6851	      1.0958	       1.097	           0	 -0.00119591	           1	           0	    -40.9962	       1.097	       1.097	
 --	 --	 --	 --	 --	      0.6901	     1.09637	     1.09697	           0	-0.000597187	           1	           0	    -112.004	     1.09697	     1.09697	
 --	 --	 --	 --	 --	      0.6951	     1.09824	     1.09694	           0	  0.00129608	           1	           0	     12.0562	     1.05418	     1.13971	
 --	 --	 --	 --	 --	      0.7001	     1.09595	     1.09692	           0	-0.000968614	           1	           0	    -124.146	     1.09692	     1.09692	
 --	 --	 --	 --	 --	      0.7051	     1.09839	     1.09689	           0	  0.00149875	           1	           0	    -74.1585	     1.09689	     1.09689	
 --	 --	 --	 --	 --	      0.7101	     1.08722	     1.09687	           0	 -0.00965431	           1	           0	    -57.2427	     1.09687	     1.09687	
 --	 --	 --	 --	 --	      0.7151	     1.09053	     1.09685	           0	  -0.0063128	           1	           0	     -183.18	     1.09685	     1.09685	
 --	 --	 --	 --	 --	      0.7201	     1.09523	     1.09682	           0	  -0.0015942	           1	           0	     48.7532	     1.01083	     1.18281	
 --	 --	 --	 --	 --	      0.7251	     1.09309	      1.0968	           0	  -0.0037085	           1	           0	     -168.99	      1.0968	      1.0968	
 --	 --	 --	 --	 --	      0.7301	     1.09343	     1.09678	           0	 -0.00334071	           1	           0	    -208.722	     1.09678	     1.09678	
 --	 --	 --	 --	 --	      0.7351	     1.09221	     1.09675	           0	 -0.00454081	           1	           0	    -218.307	     1.09675	     1.09675	
 --	 --	 --	 --	 --	      0.7401	     1.09443	     1.09673	           0	 -0.00230379	           1	           0	    -47.4346	     1.09673	     1.09673	
 --	 --	 --	 --	 --	      0.7451	     1.09244	     1.09671	           0	 -0.00426714	           1	           0	    -62.0538	     1.09671	     1.09671	
 --	 --	 --	 --	 --	      0.7501	     1.09359	     1.09669	           0	 -0.00310086	           1	           0	    -111.999	     1.09669	     1.09669	
 --	 --	 --	 --	 --	      0.7551	     1.09435	     1.09667	           0	 -0.00231744	           1	           0	      130.77	    0.955832	      1.2375	
 --	 --	 --	 --	 --	      0.7601	     1.09805	     1.09665	           0	  0.00140063	           1	           0	    -37.5485	     1.09665	     1.09665	
 --	 --	 --	 --	 --	      0.7651	     1.09634	     1.09663	           0	-0.000291654	           1	           0	    -114.567	     1.09663	     1.09663	
 --	 --	 --	 --	 --	      0.7701	     1.09489	     1.09661	           0	 -0.00172177	           1	           0	    -8.08035	     1.09661	     1.09661	
 --	 --	 --	 --	 --	      0.7751	     1.09725	     1.09659	           0	 0.000660277	           1	           0	    -342.367	     1.09659	     1.09659	
 --	 --	 --	 --	 --	      0.7801	     1.09263	     1.09657	           0	  -0.0039355	           1	           0	    -49.4494	     1.09657	     1.09657	
 --	 --	 --	 --	 --	      0.7851	     1.09439	     1.09655	           0	  -0.0021616	           1	           0	    -163.294	     1.09655	     1.09655	
 --	 --	 --	 --	 --	      0.7901	     1.09168	     1.09653	           0	 -0.00485051	           1	           0	    -11.4365	     1.09653	     1.09653	
 --	 --	 --	 --	 --	      0.7951	     1.09367	     1.09651	           0	 -0.00284473	           1	           0	    -121.732	     1.09651	     1.09651	
 --	 --	 --	 --	 --	      0.8001	     1.09325	     1.09649	           0	 -0.00324925	           1	           0	    -171.478	     1.09649	     1.09649	
 --	 --	 --	 --	 --	      0.8051	     1.09839	     1.09648	           0	  0.00191594	           1	           0	    -148.639	     1.09648	     1.09648	
 --	 --	 --	 --	 --	      0.8101	     1.09538	     1.09646	           0	 -0.00108167	           1	           0	    -95.2546	     1.09646	     1.09646	
 --	 --	 --	 --	 --	      0.8151	     1.09359	     1.09644	           0	 -0.00285706	           1	           0	    -144.996	     1.09644	     1.09644	
 --	 --	 --	 --	 --	      0.8201	      1.0937	     1.09643	           0	 -0.00272273	           1	           0	    -196.222	     1.09643	     1.09643	
 --	 --	 --	 --	 --	      0.8251	     1.09752	     1.09641	           0	  0.00110882	           1	           0	    -93.7402	     1.09641	     1.09641	
 --	 --	 --	 --	 --	      0.8301	      1.1021	     1.09639	           0	  0.00570261	           1	           0	    -6.53182	     1.09639	     1.09639	
 --	 --	 --	 --	 --	      0.8351	     1.09481	     1.09638	           0	 -0.00156887	           1	           0	    -145.439	     1.09638	     1.09638	
 --	 --	 --	 --	 --	      0.8401	     1.09801	     1.09636	           0	  0.00164939	           1	           0	    -196.115	     1.09636	     1.09636	
 --	 --	 --	 --	 --	      0.8451	     1.09061	     1.09635	           0	  -0.0057351	           1	           0	    -248.966	     1.09635	     1.09635	
 --	 --	 --	 --	 --	      0.8501	     1.09427	     1.09633	           0	 -0.00205735	           1	           0	    -184.748	     1.09633	     1.09633	
 --	 --	 --	 --	 --	      0.8551	     1.09492	     1.09631	           0	 -0.00139234	           1	           0	    -144.801	     1.09631	     1.09631	
 --	 --	 --	 --	 --	      0.8601	     1.09534	      1.0963	           0	-0.000957566	           1	           0	    -195.819	      1.0963	      1.0963	
 --	 --	 --	 --	 --	      0.8651	     1.09408	     1.09629	           0	 -0.00220303	           1	           0	    -233.469	     1.09629	     1.09629	
 --	 --	 --	 --	 --	      0.8701	      1.0976	     1.09627	           0	  0.00132377	           1	           0	    -398.657	     1.09627	     1.09627	
 --	 --	 --	 --	 --	      0.8751	     1.09893	     1.09626	           0	  0.00267284	           1	           0	    -91.3244	     1.09626	     1.09626	
 --	 --	 --	 --	 --	      0.8801	     1.09592	     1.09624	           0	-0.000328309	           1	           0	    -166.828	     1.09624	     1.09624	
 --	 --	 --	 --	 --	      0.8851	     1.09999	     1.09623	           0	  0.00376282	           1	           0	    -317.562	     1.09623	     1.09623	
 --	 --	 --	 --	 --	      0.8901	     1.09336	     1.09622	           0	 -0.00285627	           1	           0	    -137.267	     1.09622	     1.09622	
 --	 --	 --	 --	 --	      0.8951	     1.08836	      1.0962	           0	 -0.00784307	           1	           0	    -228.335	      1.0962	      1.0962	
 --	 --	 --	 --	 --	      0.9001	     1.09824	     1.09619	           0	  0.00204993	           1	           0	    -62.8992	     1.09619	     1.09619	
 --	 --	 --	 --	 --	      0.9051	     1.09206	     1.09618	           0	 -0.00411729	           1	           0	    -86.3191	     1.09618	     1.09618	
 --	 --	 --	 --	 --	      0.9101	     1.10023	     1.09616	           0	   0.0040603	           1	           0	    -74.7282	     1.09616	     1.09616	
 --	 --	 --	 --	 --	      0.9151	     1.10076	     1.09615	           0	  0.00460769	           1	           0	     92.5661	    0.977662	     1.21464	
 --	 --	 --	 --	 --	      0.9201	     1.09683	     1.09614	           0	 0.000687382	           1	           0	    -25.8244	     1.09614	     1.09614	
 --	 --	 --	 --	 --	      0.9251	      1.0876	     1.09613	           0	 -0.00853061	           1	           0	     53.1834	     1.00631	     1.18594	
 --	 --	 --	 --	 --	      0.9301	     1.09637	     1.09612	           0	 0.000251201	           1	           0	       63.67	    0.997846	     1.19439	
 --	 --	 --	 --	 --	      0.9351	     1.10114	      1.0961	           0	  0.00503283	           1	           0	     37.4282	     1.02076	     1.17145	
 --	 --	 --	 --	 --	      0.9401	     1.09733	     1.09609	           0	  0.00123428	           1	           0	    -168.884	     1.09609	     1.09609	
 --	 --	 --	 --	 --	      0.9451	     1.09309	     1.09608	           0	 -0.00299194	           1	           0	    -397.357	     1.09608	     1.09608	
 --	 --	 --	 --	 --	      0.9501	     1.09797	     1.09607	           0	  0.00190165	           1	           0	    -141.877	     1.09607	     1.09607	
 --	 --	 --	 --	 --	      0.9551	     1.09908	     1.09606	           0	  0.00302008	           1	           0	    -246.801	     1.09606	     1.09606	
 --	 --	 --	 --	 --	      0.9601	      1.1016	     1.09605	           0	  0.00554584	           1	           0	    -54.2513	     1.09605	     1.09605	
 --	 --	 --	 --	 --	      0.9651	     1.09599	     1.09604	           0	-5.10733e-005	           1	           0	    -234.139	     1.09604	     1.09604	
 --	 --	 --	 --	 --	      0.9701	     1.09618	     1.09603	           0	 0.000154354	           1	           0	    -234.833	     1.09603	     1.09603	
 --	 --	 --	 --	 --	      0.9751	     1.09797	     1.09602	           0	  0.00195462	           1	           0	     83.8905	    0.983217	     1.20882	
 --	 --	 --	 --	 --	      0.9801	     1.09931	     1.09601	           0	  0.00330473	           1	           0	    -195.751	     1.09601	     1.09601	
 --	 --	 --	 --	 --	      0.9851	     1.09729	       1.096	           0	  0.00128968	           1	           0	     -235.39	       1.096	       1.096	
 --	 --	 --	 --	 --	      0.9901	      1.0982	     1.09599	           0	  0.00221449	           1	           0	    -210.738	     1.09599	     1.09599	
 --	 --	 --	 --	 --	      0.9951	      1.0974	     1.09598	           0	  0.00142164	           1	           0	     -95.079	     1.09598	     1.09598	
 --	 --	 --	 --	 --	      1.0001	     1.09801	     1.09597	           0	  0.00204364	           1	           0	    -233.444	     1.09597	     1.09597	
 --	 --	 --	 --	 --	      1.0051	     1.09435	     1.09596	           0	   -0.001607	           1	           0	    -185.555	     1.09596	     1.09596	
 --	 --	 --	 --	 --	      1.0101	      1.0963	     1.09595	           0	 0.000344718	           1	           0	    -210.351	     1.09595	     1.09595	
 --	 --	 --	 --	 --	      1.0151	     1.09996	     1.09594	           0	  0.00401879	           1	           0	    -31.4846	     1.09594	     1.09594	
 --	 --	 --	 --	 --	      1.0201	     1.09752	     1.09593	           0	  0.00158273	           1	           0	    -44.7567	     1.09593	     1.09593	
 --	 --	 --	 --	 --	      1.0251	     1.09534	     1.09592	           0	-0.000580964	           1	           0	    -19.2461	     1.09592	     1.09592	
 --	 --	 --	 --	 --	      1.0301	     1.09755	     1.09591	           0	  0.00164021	           1	           0	    -161.351	     1.09591	     1.09591	
 --	 --	 --	 --	 --	      1.0351	     1.09653	     1.09591	           0	 0.000618745	           1	           0	    -95.0782	     1.09591	     1.09591	
 --	 --	 --	 --	 --	      1.0401	     1.09607	      1.0959	           0	 0.000167154	           1	           0	    -135.337	      1.0959	      1.0959	
 --	 --	 --	 --	 --	      1.0451	       1.095	     1.09589	           0	-0.000889563	           1	           0	    -149.321	     1.09589	     1.09589	
 --	 --	 --	 --	 --	      1.0501	     1.09004	     1.09588	           0	 -0.00584141	           1	           0	     -238.74	     1.09588	     1.09588	
 --	 --	 --	 --	 --	      1.0551	     1.09328	     1.09587	           0	 -0.00259087	           1	           0	     -176.77	     1.09587	     1.09587	
 --	 --	 --	 --	 --	      1.0601	      1.0979	     1.09587	           0	  0.00203204	           1	           0	    -99.9573	     1.09587	     1.09587	
 --	 --	 --	 --	 --	      1.0651	     1.10068	     1.09586	           0	  0.00482484	           1	           0	    -138.821	     1.09586	     1.09586	
 --	 --	 --	 --	 --	      1.0701	      1.0974	     1.09585	           0	  0.00155252	           1	           0	    -268.001	     1.09585	     1.09585	
 --	 --	 --	 --	 --	      1.0751	     1.09843	     1.09584	           0	  0.00258758	           1	           0	    -75.0855	     1.09584	     1.09584	
 --	 --	 --	 --	 --	      1.0801	     1.10049	     1.09583	           0	  0.00465753	           1	           0	    -90.3651	     1.09583	     1.09583	
 --	 --	 --	 --	 --	      1.0851	     1.09545	     1.09583	           0	 -0.00037263	           1	           0	    -140.329	     1.09583	     1.09583	
 --	 --	 --	 --	 --	      1.0901	     1.09946	     1.09582	           0	   0.0036396	           1	           0	    -229.002	     1.09582	     1.09582	
 --	 --	 --	 --	 --	      1.0951	     1.09752	     1.09581	           0	  0.00170422	           1	           0	    -88.2608	     1.09581	     1.09581	
 --	 --	 --	 --	 --	         1.1	     1.09551	     1.09581	           0	-0.000299736	           1	           0	    -127.125	     1.09581	     1.09581	
 --	 --	 --	 --	 --	       1.225	     1.10085	     1.09566	           0	  0.00518569	           1	           0	    -35.9072	     1.09566	     1.09566	
 --	 --	 --	 --	 --	        1.35	     1.09937	     1.09556	           0	  0.00381315	           1	           0	    -127.716	     1.09556	     1.09556	
 --	 --	 --	 --	 --	       1.475	     1.10756	     1.09549	           0	   0.0120734	           1	           0	     -177.36	     1.09549	     1.09549	
 --	 --	 --	 --	 --	         1.6	     1.10176	     1.09544	           0	  0.00632263	           1	           0	    -139.431	     1.09544	     1.09544	
 --	 --	 --	 --	 --	       1.725	     1.09881	     1.09541	           0	  0.00340719	           1	           0	    -23.6369	     1.09541	     1.09541	
 --	 --	 --	 --	 --	        1.85	     1.09851	     1.09538	           0	  0.00312817	           1	           0	    -10.4471	     1.09538	     1.09538	
 --	 --	 --	 --	 --	       1.975	     1.09632	     1.09536	           0	 0.000955309	           1	           0	     36.6433	     1.02081	     1.16992	
 --	 --	 --	 --	 --	         2.1	     1.10202	     1.09535	           0	   0.0066674	           1	           0	    -231.325	     1.09535	     1.09535	
 --	 --	 --	 --	 --	       2.225	     1.09881	     1.09534	           0	  0.00346927	           1	           0	    -170.987	     1.09534	     1.09534	
 --	 --	 --	 --	 --	        2.35	      1.1038	     1.09534	           0	  0.00845863	           1	           0	    -95.1687	     1.09534	     1.09534	
 --	 --	 --	 --	 --	       2.475	     1.10034	     1.09533	           0	  0.00500622	           1	           0	      -451.2	     1.09533	     1.09533	
 --	 --	 --	 --	 --	         2.6	     1.10543	     1.09533	           0	   0.0100959	           1	           0	    -92.4447	     1.09533	     1.09533	
 --	 --	 --	 --	 --	       2.725	     1.10502	     1.09533	           0	  0.00968803	           1	           0	    -170.715	     1.09533	     1.09533	
 --	 --	 --	 --	 --	        2.85	     1.10411	     1.09533	           0	  0.00877953	           1	           0	     -132.73	     1.09533	     1.09533	
 --	 --	 --	 --	 --	       2.975	     1.10792	     1.09533	           0	   0.0125939	           1	           0	    -26.7017	     1.09533	     1.09533	
 --	 --	 --	 --	 --	         3.1	     1.10456	     1.09533	           0	  0.00923802	           1	           0	    -129.617	     1.09533	     1.09533	
 --	 --	 --	 --	 --	       3.225	     1.10329	     1.09532	           0	  0.00796188	           1	           0	    -78.0632	     1.09532	     1.09532	
 --	 --	 --	 --	 --	        3.35	     1.10446	     1.09532	           0	  0.00913226	           1	           0	     -114.63	     1.09532	     1.09532	
 --	 --	 --	 --	 --	       3.475	     1.10741	     1.09532	           0	   0.0120859	           1	           0	    -92.6633	     1.09532	     1.09532	
 --	 --	 --	 --	 --	         3.6	     1.10644	     1.09532	           0	   0.0111194	           1	           0	     23.2542	     1.03593	     1.15471	
 --	 --	 --	 --	 --	       3.725	     1.10187	     1.09532	           0	  0.00654285	           1	           0	   -0.571119	     1.09532	     1.09532	
 --	 --	 --	 --	 --	        3.85	     1.10726	     1.09532	           0	   0.0119329	           1	           0	    -167.888	     1.09532	     1.09532	
 --	 --	 --	 --	 --	       3.975	     1.10319	     1.09532	           0	  0.00786301	           1	           0	     77.4154	    0.986963	     1.20368	
 --	 --	 --	 --	 --	         4.1	     1.10273	     1.09532	           0	  0.00740639	           1	           0	    -207.496	     1.09532	     1.09532	
 --	 --	 --	 --	 --	       4.225	     1.10797	     1.09532	           0	   0.0126464	           1	           0	     -144.48	     1.09532	     1.09532	
 --	 --	 --	 --	 --	        4.35	     1.09805	     1.09532	           0	  0.00272644	           1	           0	    -204.555	     1.09532	     1.09532	
 --	 --	 --	 --	 --	       4.475	     1.10538	     1.09532	           0	   0.0100531	           1	           0	    -232.579	     1.09532	     1.09532	
 --	 --	 --	 --	 --	         4.6	     1.10263	     1.09532	           0	  0.00730314	           1	           0	     -92.682	     1.09532	     1.09532	
 --	 --	 --	 --	 --	       4.725	     1.10568	     1.09532	           0	   0.0103565	           1	           0	    -116.156	     1.09532	     1.09532	
 --	 --	 --	 --	 --	        4.85	     1.10731	     1.09532	           0	   0.0119865	           1	           0	    -309.543	     1.09532	     1.09532	
 --	 --	 --	 --	 --	       4.975	     1.09937	     1.09532	           0	  0.00404649	           1	           0	    -92.5946	     1.09532	     1.09532	
 --	 --	 --	 --	 --	         5.1	     1.10034	     1.09532	           0	  0.00501649	           1	           0	    -232.496	     1.09532	     1.09532	
 --	 --	 --	 --	 --	       5.225	     1.10644	     1.09532	           0	   0.0111198	           1	           0	      62.101	    0.998271	     1.19238	
 --	 --	 --	 --	 --	        5.35	     1.10782	     1.09532	           0	   0.0124932	           1	           0	    -53.6761	     1.09532	     1.09532	
 --	 --	 --	 --	 --	       5.475	     1.10609	     1.09532	           0	   0.0107632	           1	           0	    -220.073	     1.09532	     1.09532	
 --	 --	 --	 --	 --	         5.6	     1.10115	     1.09532	           0	   0.0058265	           1	           0	    -220.361	     1.09532	     1.09532	
 --	 --	 --	 --	 --	       5.725	     1.09607	     1.09532	           0	 0.000743166	           1	           0	    -233.876	     1.09532	     1.09532	
 --	 --	 --	 --	 --	        5.85	     1.10517	     1.09532	           0	  0.00984983	           1	           0	    -234.266	     1.09532	     1.09532	
 --	 --	 --	 --	 --	       5.975	     1.09968	     1.09532	           0	  0.00435317	           1	           0	     25.0287	     1.03371	     1.15694	
 --	 --	 --	 --	 --	         6.1	     1.09861	     1.09532	           0	   0.0032865	           1	           0	    -155.505	     1.09532	     1.09532	
 --	 --	 --	 --	 --	       6.225	     1.10304	     1.09532	           0	  0.00771317	           1	           0	    -40.3457	     1.09532	     1.09532	
 --	 --	 --	 --	 --	        6.35	     1.10685	     1.09532	           0	   0.0115265	           1	           0	     -2.9185	     1.09532	     1.09532	
 --	 --	 --	 --	 --	       6.475	      1.0984	     1.09532	           0	  0.00307983	           1	           0	    -79.3776	     1.09532	     1.09532	
 --	 --	 --	 --	 --	         6.6	     1.10095	     1.09532	           0	   0.0056265	           1	           0	     36.3608	     1.02106	     1.16959	
 --	 --	 --	 --	 --	       6.725	     1.10385	     1.09532	           0	  0.00852317	           1	           0	    -221.426	     1.09532	     1.09532	
 --	 --	 --	 --	 --	        6.85	     1.10125	     1.09532	           0	  0.00592983	           1	           0	    -220.764	     1.09532	     1.09532	
 --	 --	 --	 --	 --	       6.975	     1.10456	     1.09532	           0	  0.00923983	           1	           0	    -243.393	     1.09532	     1.09532	
 --	 --	 --	 --	 --	         7.1	     1.10487	     1.09532	           0	  0.00954317	           1	           0	    -259.354	     1.09532	     1.09532	
 --	 --	 --	 --	 --	       7.225	     1.10909	     1.09532	           0	   0.0137632	           1	           0	    -182.214	     1.09532	     1.09532	
 --	 --	 --	 --	 --	        7.35	     1.10548	     1.09532	           0	   0.0101532	           1	           0	     36.1861	     1.02124	     1.16941	
 --	 --	 --	 --	 --	       7.475	     1.10827	     1.09532	           0	   0.0129498	           1	           0	     -208.59	     1.09532	     1.09532	
 --	 --	 --	 --	 --	         7.6	     1.10003	     1.09532	           0	  0.00470983	           1	           0	    -104.975	     1.09532	     1.09532	
 --	 --	 --	 --	 --	       7.725	     1.10548	     1.09532	           0	   0.0101532	           1	           0	     -130.23	     1.09532	     1.09532	
 --	 --	 --	 --	 --	        7.85	     1.10319	     1.09532	           0	  0.00786317	           1	           0	    -270.625	     1.09532	     1.09532	
 --	 --	 --	 --	 --	       7.975	     1.10807	     1.09532	           0	   0.0127432	           1	           0	    -130.286	     1.09532	     1.09532	
 --	 --	 --	 --	 --	         8.1	     1.09978	     1.09532	           0	   0.0044565	           1	           0	    -259.046	     1.09532	     1.09532	
 --	 --	 --	 --	 --	       8.225	     1.09719	     1.09532	           0	  0.00186317	           1	           0	    -119.006	     1.09532	     1.09532	
 --	 --	 --	 --	 --	        8.35	     1.09632	     1.09532	           0	 0.000999834	           1	           0	    -2.64237	     1.09532	     1.09532	
 --	 --	 --	 --	 --	       8.475	     1.10649	     1.09532	           0	   0.0111698	           1	           0	    -283.838	     1.09532	     1.09532	
 --	 --	 --	 --	 --	         8.6	     1.10141	     1.09532	           0	   0.0060865	           1	           0	    -283.838	     1.09532	     1.09532	
 --	 --	 --	 --	 --	       8.725	     1.10736	     1.09532	           0	   0.0120365	           1	           0	    -131.402	     1.09532	     1.09532	
 --	 --	 --	 --	 --	        8.85	     1.10293	     1.09532	           0	  0.00760983	           1	           0	    -131.402	     1.09532	     1.09532	
 --	 --	 --	 --	 --	       8.975	     1.10288	     1.09532	           0	  0.00755983	           1	           0	    -131.402	     1.09532	     1.09532	
 --	 --	 --	 --	 --	         9.1	      1.1035	     1.09532	           0	  0.00817317	           1	           0	    -131.402	     1.09532	     1.09532	
 --	 --	 --	 --	 --	       9.225	     1.10395	     1.09532	           0	   0.0086265	           1	           0	    -131.402	     1.09532	     1.09532	
 --	 --	 --	 --	 --	        9.35	      1.1037	     1.09532	           0	  0.00837317	           1	           0	    -95.0288	     1.09532	     1.09532	
 --	 --	 --	 --	 --	       9.475	     1.09907	     1.09532	           0	  0.00374317	           1	           0	    -107.425	     1.09532	     1.09532	
 --	 --	 --	 --	 --	         9.6	      1.1008	     1.09532	           0	  0.00547317	           1	           0	    -131.402	     1.09532	     1.09532	
 --	 --	 --	 --	 --	       9.725	      1.1039	     1.09532	           0	   0.0085765	           1	           0	    -131.402	     1.09532	     1.09532	
 --	 --	 --	 --	 --	        9.85	     1.10405	     1.09532	           0	   0.0087265	           1	           0	    -107.426	     1.09532	     1.09532	
 --	 --	 --	 --	 --	       9.975	     1.10034	     1.09532	           0	   0.0050165	           1	           0	    -143.797	     1.09532	     1.09532	
 --	 --	 --	 --	 --	        10.4	     1.09764	     1.09532	           0	  0.00231983	           1	           0	    -95.0288	     1.09532	     1.09532	
 --	 --	 --	 --	 --	        10.9	     1.10059	     1.09532	           0	  0.00526983	           1	           0	    -143.797	     1.09532	     1.09532	
 --	 --	 --	 --	 --	        11.4	     1.10095	     1.09532	           0	   0.0056265	           1	           0	    -131.402	     1.09532	     1.09532	
 --	 --	 --	 --	 --	        11.9	     1.09851	     1.09532	           0	   0.0031865	           1	           0	    -131.402	     1.09532	     1.09532	
 --	 --	 --	 --	 --	        12.4	     1.09856	     1.09532	           0	   0.0032365	           1	           0	    -131.402	     1.09532	     1.09532	
 --	 --	 --	 --	 --	        12.9	     1.09886	     1.09532	           0	  0.00353983	           1	           0	    -131.402	     1.09532	     1.09532	
 --	 --	 --	 --	 --	        13.4	     1.09973	     1.09532	           0	  0.00440317	           1	           0	    -131.402	     1.09532	     1.09532	
 --	 --	 --	 --	 --	        13.9	      1.1037	     1.09532	           0	  0.00837317	           1	           0	    -15.0382	     1.09532	     1.09532	
 --	 --	 --	 --	 --	        14.4	      1.1039	     1.09532	           0	  0.00857983	           1	           0	    -15.0382	     1.09532	     1.09532	
 --	 --	 --	 --	 --	        14.9	     1.09912	     1.09532	           0	  0.00379317	           1	           0	    -131.402	     1.09532	     1.09532	
 --	 --	 --	 --	 --	        15.4	     1.10182	     1.09532	           0	  0.00649317	           1	           0	    -143.797	     1.09532	     1.09532	
 --	 --	 --	 --	 --	        15.9	     1.09536	     1.09532	           0	3.31672e-005	           1	           0	    -131.402	     1.09532	     1.09532	
 --	 --	 --	 --	 --	        16.4	     1.09856	     1.09532	           0	   0.0032365	           1	           0	    -131.402	     1.09532	     1.09532	
 --	 --	 --	 --	 --	        16.9	     1.09805	     1.09532	           0	  0.00272983	           1	           0	    -131.402	     1.09532	     1.09532	
 --	 --	 --	 --	 --	        17.4	     1.10192	     1.09532	           0	  0.00659317	           1	           0	    -131.402	     1.09532	     1.09532	
 --	 --	 --	 --	 --	        17.9	     1.10431	     1.09532	           0	  0.00898317	           1	           0	    -131.402	     1.09532	     1.09532	
 --	 --	 --	 --	 --	        18.4	       1.095	     1.09532	           0	  -0.0003235	           1	           0	    -131.402	     1.09532	     1.09532	
 --	 --	 --	 --	 --	        18.9	     1.10177	     1.09532	           0	  0.00644317	           1	           0	    -131.402	     1.09532	     1.09532	
 --	 --	 --	 --	 --	        19.4	     1.09581	     1.09532	           0	 0.000489834	           1	           0	    -131.402	     1.09532	     1.09532	
 --	 --	 --	 --	 --	        19.9	     1.09581	     1.09532	           0	   0.0004865	           1	           0	    -131.402	     1.09532	     1.09532	
 --	 --	 --	 --	 --	        20.4	     1.09673	     1.09532	           0	  0.00140317	           1	           0	    -143.797	     1.09532	     1.09532	
 --	 --	 --	 --	 --	        20.9	     1.09805	     1.09532	           0	   0.0027265	           1	           0	    -143.797	     1.09532	     1.09532	
 --	 --	 --	 --	 --	        21.4	     1.09663	     1.09532	           0	   0.0013065	           1	           0	    -131.402	     1.09532	     1.09532	
 --	 --	 --	 --	 --	        21.9	     1.09627	     1.09532	           0	 0.000949834	           1	           0	    -131.402	     1.09532	     1.09532	
 --	 --	 --	 --	 --	        22.4	     1.09922	     1.09532	           0	   0.0038965	           1	           0	    -131.402	     1.09532	     1.09532	
 --	 --	 --	 --	 --	        22.9	     1.09739	     1.09532	           0	   0.0020665	           1	           0	    -143.797	     1.09532	     1.09532	
 --	 --	 --	 --	 --	        23.4	      1.1011	     1.09532	           0	  0.00577983	           1	           0	    -143.797	     1.09532	     1.09532	
 --	 --	 --	 --	 --	        23.9	     1.09581	     1.09532	           0	   0.0004865	           1	           0	    -143.797	     1.09532	     1.09532	
 --	 --	 --	 --	 --	        24.4	     1.09586	     1.09532	           0	 0.000539834	           1	           0	    -143.797	     1.09532	     1.09532	
 --	 --	 --	 --	 --	        24.9	     1.10202	     1.09532	           0	  0.00669317	           1	           0	    -143.797	     1.09532	     1.09532	
 --	 --	 --	 --	 --	        25.4	     1.09429	     1.09532	           0	 -0.00103683	           1	           0	    -143.797	     1.09532	     1.09532	
 --	 --	 --	 --	 --	        25.9	     1.10151	     1.09532	           0	  0.00618317	           1	           0	    -143.797	     1.09532	     1.09532	
 --	 --	 --	 --	 --	        26.4	     1.09693	     1.09532	           0	  0.00160983	           1	           0	    -143.797	     1.09532	     1.09532	
 --	 --	 --	 --	 --	        26.9	     1.10034	     1.09532	           0	   0.0050165	           1	           0	    -143.797	     1.09532	     1.09532	
 --	 --	 --	 --	 --	        27.4	     1.09831	     1.09532	           0	  0.00298317	           1	           0	    -131.402	     1.09532	     1.09532	
 --	 --	 --	 --	 --	        27.9	      1.1008	     1.09532	           0	  0.00547317	           1	           0	    -131.402	     1.09532	     1.09532	
 --	 --	 --	 --	 --	        28.4	     1.09525	     1.09532	           0	-7.01662e-005	           1	           0	    -131.402	     1.09532	     1.09532	
 --	 --	 --	 --	 --	        28.9	      1.0984	     1.09532	           0	  0.00307983	           1	           0	    -131.402	     1.09532	     1.09532	
 --	 --	 --	 --	 --	        29.4	     1.09637	     1.09532	           0	  0.00104983	           1	           0	    -131.402	     1.09532	     1.09532	
 --	 --	 --	 --	 --	        29.9	     1.09545	     1.09532	           0	 0.000129834	           1	           0	    -131.402	     1.09532	     1.09532	
 --	 --	 --	 --	 --	        30.4	     1.09724	     1.09532	           0	  0.00191317	           1	           0	    -131.402	     1.09532	     1.09532	
 --	 --	 --	 --	 --	        30.9	     1.09785	     1.09532	           0	  0.00252317	           1	           0	    -131.402	     1.09532	     1.09532	
 --	 --	 --	 --	 --	        31.4	       1.101	     1.09532	           0	  0.00567983	           1	           0	    -131.402	     1.09532	     1.09532	
 --	 --	 --	 --	 --	        31.9	     1.09002	     1.09532	           0	 -0.00530683	           1	           0	    -131.402	     1.09532	     1.09532	
 --	 --	 --	 --	 --	        32.4	     1.10146	     1.09532	           0	  0.00613317	           1	           0	    -131.402	     1.09532	     1.09532	
 --	 --	 --	 --	 --	        32.9	     1.09597	     1.09532	           0	 0.000643167	           1	           0	    -131.402	     1.09532	     1.09532	
 --	 --	 --	 --	 --	        33.4	     1.09485	     1.09532	           0	-0.000476833	           1	           0	    -131.402	     1.09532	     1.09532	
 --	 --	 --	 --	 --	        33.9	     1.10029	     1.09532	           0	   0.0049665	           1	           0	    -131.402	     1.09532	     1.09532	
 --	 --	 --	 --	 --	        34.4	     1.09403	     1.09532	           0	 -0.00129017	           1	           0	    -131.402	     1.09532	     1.09532	
 --	 --	 --	 --	 --	        34.9	     1.09627	     1.09532	           0	 0.000949834	           1	           0	    -131.402	     1.09532	     1.09532	
 --	 --	 --	 --	 --	        35.4	     1.09546	     1.09532	           0	 0.000133167	           1	           0	    -131.402	     1.09532	     1.09532	
 --	 --	 --	 --	 --	        35.9	      1.0952	     1.09532	           0	-0.000120166	           1	           0	    -131.402	     1.09532	     1.09532	
 --	 --	 --	 --	 --	        36.4	     1.09525	     1.09532	           0	-7.01662e-005	           1	           0	    -131.402	     1.09532	     1.09532	
 --	 --	 --	 --	 --	        36.9	     1.09322	     1.09532	           0	  -0.0021035	           1	           0	    -131.402	     1.09532	     1.09532	
 --	 --	 --	 --	 --	        37.4	     1.10095	     1.09532	           0	   0.0056265	           1	           0	    -131.402	     1.09532	     1.09532	
 --	 --	 --	 --	 --	        37.9	     1.09296	     1.09532	           0	 -0.00236017	           1	           0	    -131.402	     1.09532	     1.09532	
 --	 --	 --	 --	 --	        38.4	     1.09423	     1.09532	           0	 -0.00109017	           1	           0	    -131.402	     1.09532	     1.09532	
 --	 --	 --	 --	 --	        38.9	     1.09505	     1.09532	           0	  -0.0002735	           1	           0	    -131.402	     1.09532	     1.09532	
 --	 --	 --	 --	 --	        39.4	     1.09271	     1.09532	           0	  -0.0026135	           1	           0	    -131.402	     1.09532	     1.09532	
 --	 --	 --	 --	 --	        39.9	      1.0918	     1.09532	           0	 -0.00352683	           1	           0	    -131.402	     1.09532	     1.09532	
 --	 --	 --	 --	 --	        40.4	     1.09612	     1.09532	           0	 0.000793167	           1	           0	    -131.402	     1.09532	     1.09532	
 --	 --	 --	 --	 --	        40.9	     1.09927	     1.09532	           0	  0.00394983	           1	           0	    -131.402	     1.09532	     1.09532	
 --	 --	 --	 --	 --	        41.4	     1.09607	     1.09532	           0	 0.000743167	           1	           0	    -131.402	     1.09532	     1.09532	
 --	 --	 --	 --	 --	        41.9	     1.09713	     1.09532	           0	  0.00180983	           1	           0	    -131.402	     1.09532	     1.09532	
 --	 --	 --	 --	 --	        42.4	     1.09841	     1.09532	           0	  0.00308317	           1	           0	    -131.402	     1.09532	     1.09532	
 --	 --	 --	 --	 --	        42.9	     1.10258	     1.09532	           0	  0.00725317	           1	           0	    -131.402	     1.09532	     1.09532	
 --	 --	 --	 --	 --	        43.4	     1.09754	     1.09532	           0	   0.0022165	           1	           0	    -131.402	     1.09532	     1.09532	
 --	 --	 --	 --	 --	        43.9	     1.10003	     1.09532	           0	  0.00470983	           1	           0	    -131.402	     1.09532	     1.09532	
 --	 --	 --	 --	 --	        44.4	     1.10334	     1.09532	           0	   0.0080165	           1	           0	    -131.402	     1.09532	     1.09532	
 --	 --	 --	 --	 --	        44.9	     1.09983	     1.09532	           0	   0.0045065	           1	           0	    -131.402	     1.09532	     1.09532	
 --	 --	 --	 --	 --	        45.4	     1.09525	     1.09532	           0	-7.34995e-005	           1	           0	    -131.402	     1.09532	     1.09532	
 --	 --	 --	 --	 --	        45.9	     1.09632	     1.09532	           0	 0.000999834	           1	           0	    -131.402	     1.09532	     1.09532	
 --	 --	 --	 --	 --	        46.4	     1.10197	     1.09532	           0	  0.00664317	           1	           0	    -131.402	     1.09532	     1.09532	
 --	 --	 --	 --	 --	        46.9	     1.09663	     1.09532	           0	  0.00130317	           1	           0	    -131.402	     1.09532	     1.09532	
 --	 --	 --	 --	 --	        47.4	     1.09642	     1.09532	           0	  0.00109983	           1	           0	    -131.402	     1.09532	     1.09532	
 --	 --	 --	 --	 --	        47.9	     1.08961	     1.09532	           0	  -0.0057135	           1	           0	    -131.402	     1.09532	     1.09532	
 --	 --	 --	 --	 --	        48.4	     1.10126	     1.09532	           0	  0.00593317	           1	           0	    -131.402	     1.09532	     1.09532	
 --	 --	 --	 --	 --	        48.9	     1.09174	     1.09532	           0	 -0.00358017	           1	           0	    -131.402	     1.09532	     1.09532	
 --	 --	 --	 --	 --	        49.4	     1.09551	     1.09532	           0	 0.000183167	           1	           0	    -131.402	     1.09532	     1.09532	
 --	 --	 --	 --	 --	        49.9	      1.0978	     1.09532	           0	  0.00247317	           1	           0	    -131.402	     1.09532	     1.09532	
 --	 --	 --	 --	 --	        50.4	     1.09597	     1.09532	           0	 0.000643167	           1	           0	    -131.402	     1.09532	     1.09532	
 --	 --	 --	 --	 --	        50.9	     1.09302	     1.09532	           0	 -0.00230683	           1	           0	    -131.402	     1.09532	     1.09532	
 --	 --	 --	 --	 --	        51.4	      1.0954	     1.09532	           0	7.98338e-005	           1	           0	    -131.402	     1.09532	     1.09532	
 --	 --	 --	 --	 --	        51.9	     1.09932	     1.09532	           0	   0.0039965	           1	           0	    -131.402	     1.09532	     1.09532	
 --	 --	 --	 --	 --	        52.4	     1.09841	     1.09532	           0	  0.00308317	           1	           0	    -131.402	     1.09532	     1.09532	
 --	 --	 --	 --	 --	        52.9	     1.10054	     1.09532	           0	  0.00521983	           1	           0	    -131.402	     1.09532	     1.09532	
 --	 --	 --	 --	 --	        53.4	     1.10283	     1.09532	           0	  0.00750983	           1	           0	    -131.402	     1.09532	     1.09532	
 --	 --	 --	 --	 --	        53.9	     1.09515	     1.09532	           0	  -0.0001735	           1	           0	    -131.402	     1.09532	     1.09532	
 --	 --	 --	 --	 --	        54.4	     1.10426	     1.09532	           0	  0.00893317	           1	           0	    -131.402	     1.09532	     1.09532	
 --	 --	 --	 --	 --	        54.9	     1.09622	     1.09532	           0	   0.0008965	           1	           0	    -131.402	     1.09532	     1.09532	
 --	 --	 --	 --	 --	        55.4	     1.09714	     1.09532	           0	  0.00181317	           1	           0	    -131.402	     1.09532	     1.09532	
 --	 --	 --	 --	 --	        55.9	     1.09332	     1.09532	           0	  -0.0020035	           1	           0	    -131.402	     1.09532	     1.09532	
 --	 --	 --	 --	 --	        56.4	     1.09719	     1.09532	           0	  0.00186317	           1	           0	    -131.402	     1.09532	     1.09532	
 --	 --	 --	 --	 --	        56.9	     1.09388	     1.09532	           0	  -0.0014435	           1	           0	    -131.402	     1.09532	     1.09532	
 --	 --	 --	 --	 --	        57.4	     1.09891	     1.09532	           0	  0.00358983	           1	           0	    -131.402	     1.09532	     1.09532	
 --	 --	 --	 --	 --	        57.9	     1.09449	     1.09532	           0	-0.000830166	           1	           0	    -131.402	     1.09532	     1.09532	
 --	 --	 --	 --	 --	        58.4	      1.0977	     1.09532	           0	  0.00237317	           1	           0	    -131.402	     1.09532	     1.09532	
 --	 --	 --	 --	 --	        58.9	     1.09535	     1.09532	           0	2.98338e-005	           1	           0	    -131.402	     1.09532	     1.09532	
 --	 --	 --	 --	 --	        59.4	     1.09703	     1.09532	           0	   0.0017065	           1	           0	    -131.402	     1.09532	     1.09532	
 --	 --	 --	 --	 --	        59.9	     1.09759	     1.09532	           0	  0.00226983	           1	           0	    -131.402	     1.09532	     1.09532	
 --	 --	 --	 --	 --	        60.4	     1.09383	     1.09532	           0	 -0.00149683	           1	           0	    -131.402	     1.09532	     1.09532	
 --	 --	 --	 --	 --	        60.9	     1.10003	     1.09532	           0	  0.00470983	           1	           0	    -131.402	     1.09532	     1.09532	
 --	 --	 --	 --	 --	        61.4	     1.09276	     1.09532	           0	  -0.0025635	           1	           0	    -131.402	     1.09532	     1.09532	
 --	 --	 --	 --	 --	        61.9	     1.09932	     1.09532	           0	  0.00399983	           1	           0	    -131.402	     1.09532	     1.09532	
 --	 --	 --	 --	 --	        62.4	     1.09734	     1.09532	           0	  0.00201317	           1	           0	    -131.402	     1.09532	     1.09532	
 --	 --	 --	 --	 --	        62.9	     1.09978	     1.09532	           0	   0.0044565	           1	           0	    -131.402	     1.09532	     1.09532	
 --	 --	 --	 --	 --	        63.4	      1.0951	     1.09532	           0	  -0.0002235	           1	           0	    -131.402	     1.09532	     1.09532	
 --	 --	 --	 --	 --	        63.9	     1.09133	     1.09532	           0	 -0.00399017	           1	           0	    -131.402	     1.09532	     1.09532	
 --	 --	 --	 --	 --	        64.4	     1.09302	     1.09532	           0	 -0.00230683	           1	           0	    -131.402	     1.09532	     1.09532	
 --	 --	 --	 --	 --	        64.9	     1.09266	     1.09532	           0	  -0.0026635	           1	           0	    -131.402	     1.09532	     1.09532	
 --	 --	 --	 --	 --	        65.4	     1.09586	     1.09532	           0	 0.000539834	           1	           0	    -131.402	     1.09532	     1.09532	
 --	 --	 --	 --	 --	        65.9	      1.0979	     1.09532	           0	  0.00257317	           1	           0	    -131.402	     1.09532	     1.09532	
 --	 --	 --	 --	 --	        66.4	     1.09586	     1.09532	           0	 0.000539834	           1	           0	    -131.402	     1.09532	     1.09532	
 --	 --	 --	 --	 --	        66.9	     1.09418	     1.09532	           0	 -0.00114017	           1	           0	    -131.402	     1.09532	     1.09532	
 --	 --	 --	 --	 --	        67.4	     1.10141	     1.09532	           0	   0.0060865	           1	           0	    -131.402	     1.09532	     1.09532	
 --	 --	 --	 --	 --	        67.9	     1.09306	     1.09532	           0	 -0.00226017	           1	           0	    -131.402	     1.09532	     1.09532	
 --	 --	 --	 --	 --	        68.4	     1.10212	     1.09532	           0	  0.00679317	           1	           0	    -131.402	     1.09532	     1.09532	
 --	 --	 --	 --	 --	        68.9	     1.10075	     1.09532	           0	  0.00542317	           1	           0	    -131.402	     1.09532	     1.09532	
 --	 --	 --	 --	 --	        69.4	     1.08793	     1.09532	           0	  -0.0073935	           1	           0	    -131.402	     1.09532	     1.09532	
 --	 --	 --	 --	 --	        69.9	     1.09271	     1.09532	           0	  -0.0026135	           1	           0	    -131.402	     1.09532	     1.09532	
 --	 --	 --	 --	 --	        70.4	     1.09525	     1.09532	           0	-7.01662e-005	           1	           0	    -131.402	     1.09532	     1.09532	
 --	 --	 --	 --	 --	        70.9	     1.10171	     1.09532	           0	  0.00638983	           1	           0	    -131.402	     1.09532	     1.09532	
 --	 --	 --	 --	 --	        71.4	     1.09337	     1.09532	           0	  -0.0019535	           1	           0	    -131.402	     1.09532	     1.09532	
 --	 --	 --	 --	 --	        71.9	     1.09841	     1.09532	           0	  0.00308317	           1	           0	    -131.402	     1.09532	     1.09532	
 --	 --	 --	 --	 --	        72.4	     1.09795	     1.09532	           0	  0.00262317	           1	           0	    -131.402	     1.09532	     1.09532	
 --	 --	 --	 --	 --	        72.9	     1.09225	     1.09532	           0	  -0.0030735	           1	           0	    -131.402	     1.09532	     1.09532	
 --	 --	 --	 --	 --	        73.4	     1.08951	     1.09532	           0	 -0.00581683	           1	           0	    -131.402	     1.09532	     1.09532	
 --	 --	 --	 --	 --	        73.9	     1.09444	     1.09532	           0	  -0.0008835	           1	           0	    -131.402	     1.09532	     1.09532	
 --	 --	 --	 --	 --	        74.4	     1.09601	     1.09532	           0	 0.000689834	           1	           0	    -131.402	     1.09532	     1.09532	
 --	 --	 --	 --	 --	        74.9	     1.09754	     1.09532	           0	   0.0022165	           1	           0	    -131.402	     1.09532	     1.09532	
 --	 --	 --	 --	 --	        75.4	     1.09795	     1.09532	           0	   0.0026265	           1	           0	    -131.402	     1.09532	     1.09532	
 --	 --	 --	 --	 --	        75.9	     1.09515	     1.09532	           0	  -0.0001735	           1	           0	    -131.402	     1.09532	     1.09532	
 --	 --	 --	 --	 --	        76.4	     1.09576	     1.09532	           0	 0.000439834	           1	           0	    -131.402	     1.09532	     1.09532	
 --	 --	 --	 --	 --	        76.9	     1.09902	     1.09532	           0	  0.00369317	           1	           0	    -131.402	     1.09532	     1.09532	
 --	 --	 --	 --	 --	        77.4	     1.09301	     1.09532	           0	 -0.00231017	           1	           0	    -131.402	     1.09532	     1.09532	
 --	 --	 --	 --	 --	        77.9	     1.09301	     1.09532	           0	 -0.00231017	           1	           0	    -131.402	     1.09532	     1.09532	
 --	 --	 --	 --	 --	        78.4	     1.09846	     1.09532	           0	  0.00313317	           1	           0	    -131.402	     1.09532	     1.09532	
 --	 --	 --	 --	 --	        78.9	      1.0977	     1.09532	           0	  0.00237317	           1	           0	    -131.402	     1.09532	     1.09532	
 --	 --	 --	 --	 --	        79.4	     1.09551	     1.09532	           0	 0.000183167	           1	           0	    -131.402	     1.09532	     1.09532	
 --	 --	 --	 --	 --	        79.9	     1.09301	     1.09532	           0	 -0.00231017	           1	           0	    -131.402	     1.09532	     1.09532	
 --	 --	 --	 --	 --	        80.4	      1.0953	     1.09532	           0	-2.01662e-005	           1	           0	    -131.402	     1.09532	     1.09532	
 --	 --	 --	 --	 --	        80.9	     1.10039	     1.09532	           0	   0.0050665	           1	           0	    -131.402	     1.09532	     1.09532	
 --	 --	 --	 --	 --	        81.4	     1.09154	     1.09532	           0	  -0.0037835	           1	           0	    -131.402	     1.09532	     1.09532	
 --	 --	 --	 --	 --	        81.9	      1.0889	     1.09532	           0	 -0.00642683	           1	           0	    -131.402	     1.09532	     1.09532	
 --	 --	 --	 --	 --	        82.4	     1.09002	     1.09532	           0	 -0.00530683	           1	           0	    -131.402	     1.09532	     1.09532	
 --	 --	 --	 --	 --	        82.9	     1.09795	     1.09532	           0	  0.00262317	           1	           0	    -131.402	     1.09532	     1.09532	
 --	 --	 --	 --	 --	        83.4	     1.09591	     1.09532	           0	 0.000589834	           1	           0	    -131.402	     1.09532	     1.09532	
 --	 --	 --	 --	 --	        83.9	     1.09286	     1.09532	           0	 -0.00246017	           1	           0	    -131.402	     1.09532	     1.09532	
 --	 --	 --	 --	 --	        84.4	     1.10064	     1.09532	           0	  0.00531983	           1	           0	    -131.402	     1.09532	     1.09532	
 --	 --	 --	 --	 --	        84.9	     1.09754	     1.09532	           0	  0.00221983	           1	           0	    -131.402	     1.09532	     1.09532	
 --	 --	 --	 --	 --	        85.4	     1.09347	     1.09532	           0	 -0.00185017	           1	           0	    -131.402	     1.09532	     1.09532	
 --	 --	 --	 --	 --	        85.9	     1.09179	     1.09532	           0	 -0.00353017	           1	           0	    -131.402	     1.09532	     1.09532	
 --	 --	 --	 --	 --	        86.4	     1.09271	     1.09532	           0	  -0.0026135	           1	           0	    -131.402	     1.09532	     1.09532	
 --	 --	 --	 --	 --	        86.9	     1.09419	     1.09532	           0	 -0.00113683	           1	           0	    -131.402	     1.09532	     1.09532	
 --	 --	 --	 --	 --	        87.4	      1.0951	     1.09532	           0	  -0.0002235	           1	           0	    -131.402	     1.09532	     1.09532	
 --	 --	 --	 --	 --	        87.9	     1.09317	     1.09532	           0	 -0.00215683	           1	           0	    -131.402	     1.09532	     1.09532	
 --	 --	 --	 --	 --	        88.4	     1.09113	     1.09532	           0	 -0.00419017	           1	           0	    -131.402	     1.09532	     1.09532	
 --	 --	 --	 --	 --	        88.9	     1.09887	     1.09532	           0	  0.00354317	           1	           0	    -131.402	     1.09532	     1.09532	
 --	 --	 --	 --	 --	        89.4	     1.09312	     1.09532	           0	 -0.00220683	           1	           0	    -131.402	     1.09532	     1.09532	
 --	 --	 --	 --	 --	        89.9	     1.09469	     1.09532	           0	-0.000630166	           1	           0	    -131.402	     1.09532	     1.09532	
 --	 --	 --	 --	 --	        90.4	      1.1012	     1.09532	           0	  0.00587983	           1	           0	    -131.402	     1.09532	     1.09532	
 --	 --	 --	 --	 --	        90.9	     1.09418	     1.09532	           0	 -0.00114017	           1	           0	    -131.402	     1.09532	     1.09532	
 --	 --	 --	 --	 --	        91.4	     1.08905	     1.09532	           0	  -0.0062735	           1	           0	    -131.402	     1.09532	     1.09532	
 --	 --	 --	 --	 --	        91.9	     1.09678	     1.09532	           0	   0.0014565	           1	           0	    -131.402	     1.09532	     1.09532	
 --	 --	 --	 --	 --	        92.4	     1.09042	     1.09532	           0	 -0.00490683	           1	           0	    -131.402	     1.09532	     1.09532	
 --	 --	 --	 --	 --	        92.9	     1.09866	     1.09532	           0	  0.00333983	           1	           0	    -131.402	     1.09532	     1.09532	
 --	 --	 --	 --	 --	        93.4	     1.09724	     1.09532	           0	   0.0019165	           1	           0	    -131.402	     1.09532	     1.09532	
 --	 --	 --	 --	 --	        93.9	     1.09551	     1.09532	           0	 0.000183167	           1	           0	    -131.402	     1.09532	     1.09532	
 --	 --	 --	 --	 --	        94.4	     1.09256	     1.09532	           0	 -0.00276683	           1	           0	    -131.402	     1.09532	     1.09532	
 --	 --	 --	 --	 --	        94.9	     1.10008	     1.09532	           0	  0.00475983	           1	           0	    -131.402	     1.09532	     1.09532	
 --	 --	 --	 --	 --	        95.4	     1.09154	     1.09532	           0	  -0.0037835	           1	           0	    -131.402	     1.09532	     1.09532	
 --	 --	 --	 --	 --	        95.9	     1.09632	     1.09532	           0	   0.0009965	           1	           0	    -131.402	     1.09532	     1.09532	
 --	 --	 --	 --	 --	        96.4	     1.09434	     1.09532	           0	-0.000986833	           1	           0	    -131.402	     1.09532	     1.09532	
 --	 --	 --	 --	 --	        96.9	     1.10024	     1.09532	           0	  0.00491317	           1	           0	    -131.402	     1.09532	     1.09532	
 --	 --	 --	 --	 --	        97.4	     1.09642	     1.09532	           0	  0.00109983	           1	           0	    -131.402	     1.09532	     1.09532	
 --	 --	 --	 --	 --	        97.9	     1.09464	     1.09532	           0	-0.000680166	           1	           0	    -131.402	     1.09532	     1.09532	
 --	 --	 --	 --	 --	        98.4	     1.09627	     1.09532	           0	   0.0009465	           1	           0	    -131.402	     1.09532	     1.09532	
 --	 --	 --	 --	 --	        98.9	     1.09703	     1.09532	           0	  0.00170983	           1	           0	    -131.402	     1.09532	     1.09532	
 --	 --	 --	 --	 --	        99.4	     1.09948	     1.09532	           0	  0.00415317	           1	           0	    -131.402	     1.09532	     1.09532	
 --	 --	 --	 --	 --	        99.9	     1.09541	     1.09532	           0	8.31672e-005	           1	           0	    -131.402	     1.09532	     1.09532	
 --	 --	 --	 --	 --	         100	     1.09648	     1.09532	           0	  0.00115317	           1	           0	    -131.402	     1.09532	     1.09532	
