%!PS-Adobe-3.0 EPSF-3.0
%%BoundingBox: 0 0 514 550
%%Creator: BioKin Ltd.
%%DocumentFonts: Symbol Helvetica
%%EndComments
%
/bkdict 256 dict def
bkdict begin
/M {moveto} def 
/R {rmoveto} def
/L {lineto} def
/rL {rlineto} def
/GSN {gsave newpath} def
/SGR {stroke grestore} def
/COSGR {gsave setrgbcolor stroke grestore grestore} def
/SL {setlinewidth} def
/LWMB {12} def             % line width - model curves, black & white
/LWMC {10} def             % line width - model curves, color
/L2 {2.5 setlinewidth} def
/L5 {5 setlinewidth} def
/L10 {10 setlinewidth} def
/G50 {0.5 setgray} def
/SDA {[10  20] 0 setdash} def % axes
/helvT {/Helvetica findfont 100 scalefont setfont} def % tiny
/helvS {/Helvetica findfont 125 scalefont setfont} def % small
/helvM {/Helvetica findfont 150 scalefont setfont} def % medium
/helvL {/Helvetica findfont 175 scalefont setfont} def % large
/xlabel {gsave M dup
   stringwidth exch -0.5 mul exch rmoveto show grestore} def 
/ylabel {gsave M 90 rotate dup
   stringwidth exch -0.5 mul exch rmoveto show grestore} def
/ylabelresid {gsave M dup
   stringwidth exch -1 mul exch rmoveto show grestore} def
% ======
% Shapes
% ======
% Circle:
/Circ {0 360 arc closepath} def
%
% Square:
/Squa {dup dup -0.5 mul dup dup R -2 mul 0 exch rL 1 mul 0 rL dup 0 exch -1 mul rL closepath} def
%
% Triangle Up:
/TriU {dup dup dup -0.4 mul exch -0.5 mul exch R dup 0.5 mul exch rL dup -1 mul exch 0.5 mul exch rL closepath} def 
%
% Triangle Down:
/TriD {dup dup dup 0.4 mul exch -0.5 mul exch R dup 0.5 mul exch -1 mul rL dup 0.5 mul exch rL closepath} def 
%
% Diamond:
/Diam {45 rotate Squa} def
% ======
% Fills
% ======
/GRF {gsave setgray fill grestore} def                    % gray-level Fill
/COF {gsave setrgbcolor fill grestore} def                % color fill
% ======
% Colors
% ======
/C01 {1.00	0.00	0.00} def      % Red
/C02 {0.00	0.00	1.00} def      % Blue
/C03 {0.00	0.39	0.00} def      % Dark Green
/C04 {0.78	0.08	0.52} def      % Medium Violet Red
/C05 {0.55	0.27	0.07} def      % Saddle Brown
/C06 {0.10	0.70	0.70} def      % (cyan)
/C07 {1.00	0.55	0.00} def      % Dark Orange
/C08 {0.63	0.13	0.94} def      % Purple
/C09 {0.00	0.75	1.00} def      % Deep Sky Blue
/C10 {0.20	0.80	0.20} def      % Lime Green
/C11 {0.47	0.53	0.60} def      % Light Slate Gray
/C12 {0.00	0.00	0.00} def      % Black            % or: {0.19	0.31	0.31} def      % Dark Slate Gray
%
/LGR {0.75} def % light gray
/DGR {0.33} def % dark gray
%
% =============
% Dash patterns
% =============
/dash01 { [80  20] 0 setdash } def
/dash02 { [40  20] 0 setdash } def
/dash03 { [80  20  10  20] 0 setdash } def
/dash04 { [40  20  10  20] 0 setdash } def
/dash05 { [80  20  10  10  10  20] 0 setdash } def
/dash06 { [40  20  10  10  10  20] 0 setdash } def
/dash07 { [10  10] 0 setdash } def
%
/MFshow {
   { dup 5 get 3 ge
     { 5 get 3 eq {gsave} {grestore} ifelse }
     {dup dup 0 get findfont exch 1 get scalefont setfont
     [ currentpoint ] exch dup 2 get 0 exch R dup 5 get 2 ne {dup dup 6
     get exch 4 get {show} {stringwidth pop 0 R} ifelse }if dup 5 get 0 eq
     {dup 3 get {2 get neg 0 exch R pop} {pop aload pop M} ifelse} {dup 5
     get 1 eq {dup 2 get exch dup 3 get exch 6 get stringwidth pop -2 div
     dup 0 R} {dup 6 get stringwidth pop -2 div 0 R 6 get
     show 2 index {aload pop M neg 3 -1 roll neg R pop pop} {pop pop pop
     pop aload pop M} ifelse }ifelse }ifelse }
     ifelse }
   forall} bind def
/MFwidth {0 exch {dup 3 get{dup dup 0 get findfont exch 1 get scalefont
     setfont 6 get stringwidth pop add} {pop} ifelse} forall} bind def
/MCshow { currentpoint stroke M
  exch dup MFwidth -2 div 3 -1 roll R MFshow } def
%
end
%%EndProlog
bkdict begin
0.1 0.1 scale
%
% Residuals:
%
GSN 620 2154 M
620 3250 L
620 3073 L
620 2379 L
620 3077 L
620 2878 L
620 2492 L
620 2779 L
620 2411 L
620 2427 L
620 3049 L
620 2708 L
620 2584 L
620 3012 L
620 3005 L
620 2791 L
620 3059 L
620 2646 L
620 2979 L
620 3164 L
620 3433 L
620 3671 L
620 3117 L
620 3079 L
620 2938 L
620 3234 L
620 4117 L
620 3998 L
620 3524 L
620 3579 L
620 3533 L
620 3594 L
620 3714 L
620 4053 L
620 2931 L
620 4226 L
620 3342 L
620 3430 L
620 3252 L
620 3696 L
620 3749 L
620 2946 L
620 3745 L
620 3781 L
620 3312 L
620 3705 L
620 4124 L
620 4095 L
620 3347 L
620 3582 L
620 3710 L
620 3421 L
620 3371 L
620 3769 L
620 3930 L
620 3548 L
620 3299 L
620 3396 L
620 3423 L
620 4104 L
620 3622 L
620 4103 L
620 4142 L
620 3667 L
620 3751 L
620 3403 L
620 3377 L
620 4123 L
620 3873 L
620 4225 L
620 3352 L
620 3766 L
620 3937 L
620 4047 L
620 3950 L
620 3855 L
620 3524 L
620 3552 L
620 3892 L
620 3989 L
620 4124 L
620 3530 L
620 3439 L
620 3443 L
620 2866 L
620 3618 L
620 3926 L
620 3512 L
620 3610 L
620 3485 L
620 3870 L
620 2781 L
620 3741 L
620 3285 L
620 3161 L
620 2837 L
620 2935 L
620 3243 L
620 3132 L
620 2762 L
620 3057 L
620 3219 L
620 3666 L
620 2956 L
620 3220 L
620 3534 L
620 3125 L
620 3239 L
620 3001 L
620 3198 L
620 3033 L
620 3169 L
620 2625 L
620 2390 L
620 2580 L
620 2304 L
620 2710 L
620 2367 L
620 3184 L
620 2989 L
620 3050 L
620 2831 L
620 3221 L
620 3351 L
620 2579 L
620 2872 L
620 3201 L
620 2562 L
620 3537 L
620 2861 L
620 2495 L
620 3304 L
620 3346 L
620 3285 L
620 2896 L
620 2163 L
620 3527 L
620 2934 L
620 2775 L
620 2689 L
620 3465 L
620 2978 L
620 2879 L
620 3842 L
620 2533 L
620 2439 L
620 2885 L
620 2836 L
620 2989 L
620 2724 L
620 2363 L
620 2978 L
620 3337 L
620 2964 L
620 2861 L
620 2625 L
620 2519 L
620 3423 L
620 2970 L
620 2444 L
620 3186 L
620 2628 L
620 2642 L
620 3405 L
620 2820 L
620 2808 L
620 3568 L
620 3047 L
620 2880 L
620 3250 L
620 3387 L
620 3042 L
620 2678 L
620 2989 L
620 3705 L
620 3305 L
620 2631 L
620 3550 L
620 3439 L
620 2924 L
620 2531 L
620 3451 L
620 3489 L
620 3040 L
620 2332 L
620 3416 L
620 3131 L
620 3218 L
620 3782 L
620 3031 L
620 3292 L
620 3594 L
620 3029 L
620 3224 L
620 3047 L
620 3450 L
620 3538 L
620 3193 L
620 3004 L
620 2950 L
620 3012 L
620 3322 L
620 3828 L
620 3239 L
620 3428 L
620 2570 L
620 3531 L
620 3050 L
620 3506 L
620 3252 L
620 3006 L
620 3779 L
620 3704 L
620 3065 L
620 3315 L
620 3539 L
620 3745 L
620 3057 L
620 3626 L
620 3830 L
620 3470 L
620 3339 L
620 2835 L
620 3496 L
620 2865 L
620 3319 L
620 3504 L
620 3465 L
620 3667 L
620 3571 L
620 3067 L
620 4067 L
620 3219 L
620 3145 L
620 3942 L
620 3465 L
620 3385 L
620 3522 L
620 2837 L
620 3060 L
620 4014 L
620 3814 L
620 3633 L
620 4066 L
620 3294 L
620 3072 L
620 3227 L
620 4008 L
620 3647 L
620 3203 L
620 3392 L
620 3816 L
620 3552 L
620 3558 L
620 2960 L
620 3800 L
620 4100 L
620 3468 L
620 3378 L
620 3514 L
620 3675 L
620 3505 L
620 3563 L
620 3674 L
620 3028 L
620 3917 L
620 3674 L
620 3515 L
620 3678 L
620 3966 L
620 2889 L
620 3297 L
620 3539 L
620 3969 L
620 3403 L
620 3689 L
620 3491 L
620 3674 L
620 3683 L
620 2769 L
620 4114 L
620 3615 L
620 4147 L
620 3513 L
620 3351 L
620 4129 L
620 4065 L
620 3698 L
620 3521 L
620 4249 L
620 3775 L
620 3986 L
620 3315 L
620 3856 L
620 3670 L
620 3877 L
620 3782 L
620 4045 L
620 3817 L
620 3577 L
620 4059 L
620 3781 L
620 3831 L
620 3940 L
620 4105 L
620 3816 L
620 3527 L
620 4182 L
620 3759 L
620 4433 L
620 4863 L
620 4181 L
620 3895 L
620 3638 L
620 4378 L
620 4100 L
620 3566 L
620 3816 L
620 3977 L
620 4471 L
620 4628 L
620 3637 L
620 3605 L
620 3762 L
620 4173 L
620 3887 L
620 4292 L
620 4148 L
620 3852 L
620 3889 L
620 3838 L
620 3872 L
620 3906 L
620 3503 L
620 3710 L
620 4708 L
620 3730 L
620 3955 L
620 3424 L
620 3495 L
620 3909 L
620 3686 L
620 3786 L
620 3630 L
620 3940 L
620 4231 L
620 3527 L
620 4666 L
620 3681 L
620 3801 L
620 4129 L
620 3512 L
620 3363 L
620 4077 L
620 4248 L
620 3258 L
620 3872 L
620 3317 L
620 3446 L
620 4143 L
620 3742 L
620 3620 L
620 3246 L
620 3583 L
620 3671 L
620 4146 L
620 3894 L
620 3361 L
620 3600 L
620 3596 L
620 3860 L
620 3031 L
620 3412 L
620 3258 L
620 3195 L
620 3591 L
620 3278 L
620 3204 L
620 3752 L
620 4317 L
620 3906 L
620 3539 L
620 2984 L
620 3767 L
620 2904 L
620 3471 L
620 3671 L
620 3295 L
620 3437 L
620 3637 L
620 3662 L
620 3170 L
620 2960 L
620 2943 L
620 2945 L
620 3251 L
620 3261 L
620 2867 L
620 3126 L
620 3148 L
620 2542 L
620 3133 L
620 3388 L
620 3336 L
620 3021 L
620 3148 L
620 3018 L
620 3427 L
620 3043 L
620 3314 L
620 3816 L
620 3432 L
620 3050 L
620 3449 L
620 3248 L
620 3265 L
620 3353 L
620 2564 L
620 2715 L
620 3151 L
620 3432 L
620 3256 L
620 2921 L
620 3004 L
620 3111 L
620 3380 L
620 3089 L
620 3679 L
620 3356 L
620 3192 L
620 3754 L
620 3427 L
620 3165 L
620 3217 L
620 3219 L
620 3063 L
620 2713 L
620 3495 L
620 2852 L
620 3554 L
620 3630 L
620 3268 L
620 3009 L
620 3033 L
620 3510 L
620 3605 L
620 3107 L
620 3295 L
620 3569 L
620 3229 L
620 3121 L
620 3143 L
620 2862 L
620 2439 L
620 2659 L
620 2703 L
620 2710 L
620 3009 L
620 2935 L
620 3217 L
620 3471 L
620 3026 L
620 3077 L
620 3662 L
620 3312 L
620 2850 L
620 3314 L
620 3960 L
620 2835 L
620 3114 L
620 3417 L
620 2459 L
620 2613 L
620 2669 L
620 3657 L
620 3314 L
620 2864 L
620 3082 L
620 2654 L
620 3045 L
620 2136 L
620 3412 L
620 2943 L
620 2591 L
620 2495 L
620 3454 L
620 3031 L
620 2363 L
620 3422 L
620 3285 L
620 3429 L
620 2610 L
620 3033 L
620 2637 L
620 2820 L
620 3405 L
620 2644 L
620 3129 L
620 2600 L
620 2344 L
620 2916 L
620 2999 L
620 3185 L
620 3094 L
620 3185 L
620 3180 L
620 3566 L
620 3373 L
620 3268 L
620 2940 L
620 2935 L
620 2534 L
620 2701 L
620 3045 L
620 2984 L
620 3077 L
620 2889 L
620 3292 L
620 2781 L
620 3813 L
620 2720 L
620 3239 L
620 2789 L
620 2728 L
620 3622 L
620 2955 L
620 3001 L
620 2933 L
620 3432 L
620 3525 L
620 2906 L
620 3060 L
620 2649 L
L2 C06 COSGR

%
%================
% Legend - Begin
%================
%
GSN 4240 5180 M
4480 5180 L
LWMC SL  C06 COSGR
GSN 4540 5141 M helvM (3.0 uM) show grestore
%
%================
% Legend - End
%================
%

%
% Main frame
%
L10
GSN 
620 1700 M
4220 1700 L
4220 5300 L
620 5300 L
closepath SGR

%
% X axis: large tics
%
L10
%
% X axis: small tics
%
L5
%
% Y axis: large tics
%
L10
GSN 620 2061 M 54 0 rL SGR
GSN 4220 2061 M -54 0 rL SGR
helvS (-0.01) 560 2061 ylabel
GSN 620 3343 M 54 0 rL SGR
GSN 4220 3343 M -54 0 rL SGR
helvS (0) 560 3343 ylabel
GSN 620 4625 M 54 0 rL SGR
GSN 4220 4625 M -54 0 rL SGR
helvS (0.01) 560 4625 ylabel
%
% Y axis: small tics
%
L5
GSN 620 1740 M 36 0 rL SGR
GSN 4220 1740 M -36 0 rL SGR
GSN 620 2061 M 36 0 rL SGR
GSN 4220 2061 M -36 0 rL SGR
GSN 620 2381 M 36 0 rL SGR
GSN 4220 2381 M -36 0 rL SGR
GSN 620 2702 M 36 0 rL SGR
GSN 4220 2702 M -36 0 rL SGR
GSN 620 3022 M 36 0 rL SGR
GSN 4220 3022 M -36 0 rL SGR
GSN 620 3343 M 36 0 rL SGR
GSN 4220 3343 M -36 0 rL SGR
GSN 620 3663 M 36 0 rL SGR
GSN 4220 3663 M -36 0 rL SGR
GSN 620 3984 M 36 0 rL SGR
GSN 4220 3984 M -36 0 rL SGR
GSN 620 4304 M 36 0 rL SGR
GSN 4220 4304 M -36 0 rL SGR
GSN 620 4625 M 36 0 rL SGR
GSN 4220 4625 M -36 0 rL SGR
GSN 620 4945 M 36 0 rL SGR
GSN 4220 4945 M -36 0 rL SGR
GSN 620 5266 M 36 0 rL SGR
GSN 4220 5266 M -36 0 rL SGR

%
% X axis - residual panel
%
GSN L5 620 3343 M 4220 3343 L SDA G50 SGR

%
% X-Axis label:
%
gsave 620 1370 M 
[
[(Helvetica) 180 0 true true 0 (t)]
[(Helvetica) 180 0 true true 0 (i)]
[(Helvetica) 180 0 true true 0 (m)]
[(Helvetica) 180 0 true true 0 (e)]
] 0 MCshow grestore

%
% Y-Axis label:
%
gsave 234 3500 M 
currentpoint gsave translate 90 rotate 0 0 moveto
[
[(Helvetica) 180 0 true true 0 (r)]
[(Helvetica) 180 0 true true 0 (e)]
[(Helvetica) 180 0 true true 0 (s)]
[(Helvetica) 180 0 true true 0 (i)]
[(Helvetica) 180 0 true true 0 (d)]
[(Helvetica) 180 0 true true 0 (u)]
[(Helvetica) 180 0 true true 0 (a)]
[(Helvetica) 180 0 true true 0 (l)]
[(Helvetica) 180 0 true true 0 (s)]
] 0 MCshow grestore

end
showpage
%%Trailer
%%EOF
