%!PS-Adobe-3.0 EPSF-3.0
%%BoundingBox: 0 0 514 550
%%Creator: BioKin Ltd.
%%DocumentFonts: Symbol Helvetica
%%EndComments
%
/bkdict 256 dict def
bkdict begin
/M {moveto} def 
/R {rmoveto} def
/L {lineto} def
/rL {rlineto} def
/GSN {gsave newpath} def
/SGR {stroke grestore} def
/COSGR {gsave setrgbcolor stroke grestore grestore} def
/SL {setlinewidth} def
/LWMB {12} def             % line width - model curves, black & white
/LWMC {10} def             % line width - model curves, color
/L2 {2.5 setlinewidth} def
/L5 {5 setlinewidth} def
/L10 {10 setlinewidth} def
/G50 {0.5 setgray} def
/SDA {[10  20] 0 setdash} def % axes
/helvT {/Helvetica findfont 100 scalefont setfont} def % tiny
/helvS {/Helvetica findfont 125 scalefont setfont} def % small
/helvM {/Helvetica findfont 150 scalefont setfont} def % medium
/helvL {/Helvetica findfont 175 scalefont setfont} def % large
/xlabel {gsave M dup
   stringwidth exch -0.5 mul exch rmoveto show grestore} def 
/ylabel {gsave M 90 rotate dup
   stringwidth exch -0.5 mul exch rmoveto show grestore} def
/ylabelresid {gsave M dup
   stringwidth exch -1 mul exch rmoveto show grestore} def
% ======
% Shapes
% ======
% Circle:
/Circ {0 360 arc closepath} def
%
% Square:
/Squa {dup dup -0.5 mul dup dup R -2 mul 0 exch rL 1 mul 0 rL dup 0 exch -1 mul rL closepath} def
%
% Triangle Up:
/TriU {dup dup dup -0.4 mul exch -0.5 mul exch R dup 0.5 mul exch rL dup -1 mul exch 0.5 mul exch rL closepath} def 
%
% Triangle Down:
/TriD {dup dup dup 0.4 mul exch -0.5 mul exch R dup 0.5 mul exch -1 mul rL dup 0.5 mul exch rL closepath} def 
%
% Diamond:
/Diam {45 rotate Squa} def
% ======
% Fills
% ======
/GRF {gsave setgray fill grestore} def                    % gray-level Fill
/COF {gsave setrgbcolor fill grestore} def                % color fill
% ======
% Colors
% ======
/C01 {1.00	0.00	0.00} def      % Red
/C02 {0.00	0.00	1.00} def      % Blue
/C03 {0.00	0.39	0.00} def      % Dark Green
/C04 {0.78	0.08	0.52} def      % Medium Violet Red
/C05 {0.55	0.27	0.07} def      % Saddle Brown
/C06 {0.10	0.70	0.70} def      % (cyan)
/C07 {1.00	0.55	0.00} def      % Dark Orange
/C08 {0.63	0.13	0.94} def      % Purple
/C09 {0.00	0.75	1.00} def      % Deep Sky Blue
/C10 {0.20	0.80	0.20} def      % Lime Green
/C11 {0.47	0.53	0.60} def      % Light Slate Gray
/C12 {0.00	0.00	0.00} def      % Black            % or: {0.19	0.31	0.31} def      % Dark Slate Gray
%
/LGR {0.75} def % light gray
/DGR {0.33} def % dark gray
%
% =============
% Dash patterns
% =============
/dash01 { [80  20] 0 setdash } def
/dash02 { [40  20] 0 setdash } def
/dash03 { [80  20  10  20] 0 setdash } def
/dash04 { [40  20  10  20] 0 setdash } def
/dash05 { [80  20  10  10  10  20] 0 setdash } def
/dash06 { [40  20  10  10  10  20] 0 setdash } def
/dash07 { [10  10] 0 setdash } def
%
/MFshow {
   { dup 5 get 3 ge
     { 5 get 3 eq {gsave} {grestore} ifelse }
     {dup dup 0 get findfont exch 1 get scalefont setfont
     [ currentpoint ] exch dup 2 get 0 exch R dup 5 get 2 ne {dup dup 6
     get exch 4 get {show} {stringwidth pop 0 R} ifelse }if dup 5 get 0 eq
     {dup 3 get {2 get neg 0 exch R pop} {pop aload pop M} ifelse} {dup 5
     get 1 eq {dup 2 get exch dup 3 get exch 6 get stringwidth pop -2 div
     dup 0 R} {dup 6 get stringwidth pop -2 div 0 R 6 get
     show 2 index {aload pop M neg 3 -1 roll neg R pop pop} {pop pop pop
     pop aload pop M} ifelse }ifelse }ifelse }
     ifelse }
   forall} bind def
/MFwidth {0 exch {dup 3 get{dup dup 0 get findfont exch 1 get scalefont
     setfont 6 get stringwidth pop add} {pop} ifelse} forall} bind def
/MCshow { currentpoint stroke M
  exch dup MFwidth -2 div 3 -1 roll R MFshow } def
%
end
%%EndProlog
bkdict begin
0.1 0.1 scale
%
% Residuals:
%
GSN 620 4799 M
620 4130 L
620 4279 L
620 4863 L
620 4567 L
620 4337 L
620 4394 L
620 4399 L
620 4494 L
620 4349 L
620 4406 L
620 3892 L
620 4800 L
620 4052 L
620 4399 L
620 4550 L
620 4443 L
620 4565 L
620 3945 L
620 4234 L
620 4092 L
620 3825 L
620 3965 L
620 4167 L
620 3790 L
620 4294 L
620 4576 L
620 4204 L
620 4467 L
620 4075 L
620 3830 L
620 3261 L
620 3610 L
620 3685 L
620 4163 L
620 4157 L
620 3864 L
620 3906 L
620 4087 L
620 4071 L
620 4318 L
620 4675 L
620 3620 L
620 3862 L
620 3271 L
620 3555 L
620 3323 L
620 3856 L
620 3896 L
620 3773 L
620 3952 L
620 4116 L
620 3323 L
620 2554 L
620 3029 L
620 3507 L
620 3843 L
620 4226 L
620 3553 L
620 3308 L
620 3074 L
620 3835 L
620 3017 L
620 3308 L
620 3858 L
620 3714 L
620 3010 L
620 3474 L
620 3439 L
620 3165 L
620 3098 L
620 3733 L
620 3330 L
620 3529 L
620 3107 L
620 3517 L
620 3548 L
620 3475 L
620 3329 L
620 3351 L
620 3498 L
620 3100 L
620 3065 L
620 3267 L
620 3487 L
620 3399 L
620 3497 L
620 3574 L
620 2836 L
620 3015 L
620 3165 L
620 3930 L
620 2986 L
620 2411 L
620 3584 L
620 2915 L
620 3378 L
620 2716 L
620 3369 L
620 3194 L
620 2927 L
620 2677 L
620 3260 L
620 3014 L
620 2136 L
620 2970 L
620 3066 L
620 2258 L
620 3190 L
620 2834 L
620 3339 L
620 2581 L
620 3434 L
620 3425 L
620 3258 L
620 2976 L
620 3014 L
620 3099 L
620 2810 L
620 2946 L
620 3135 L
620 3099 L
620 3062 L
620 2555 L
620 2929 L
620 2853 L
620 2542 L
620 2814 L
620 3243 L
620 2634 L
620 3063 L
620 2678 L
620 2724 L
620 2607 L
620 2910 L
620 2830 L
620 2717 L
620 2756 L
620 3135 L
620 2647 L
620 2949 L
620 2594 L
620 2699 L
620 2804 L
620 2722 L
620 2660 L
620 2577 L
620 2652 L
620 2608 L
620 2908 L
620 3078 L
620 2707 L
620 3064 L
620 3550 L
620 2729 L
620 2612 L
620 2662 L
620 3243 L
620 2914 L
620 2901 L
620 3611 L
620 3445 L
620 2551 L
620 3165 L
620 2726 L
620 3119 L
620 3115 L
620 3077 L
620 3149 L
620 3145 L
620 3380 L
620 2749 L
620 3557 L
620 3524 L
620 3237 L
620 3778 L
620 2328 L
620 2892 L
620 3404 L
620 2915 L
620 3054 L
620 3087 L
620 3067 L
620 3253 L
620 2420 L
620 3305 L
620 3514 L
620 4394 L
620 3135 L
620 4119 L
620 2669 L
620 3634 L
620 3418 L
620 2704 L
620 3363 L
620 3496 L
620 3418 L
620 2881 L
620 3411 L
620 3046 L
620 3136 L
620 3172 L
620 3381 L
620 3485 L
620 2924 L
620 3052 L
620 3026 L
620 3690 L
620 3531 L
620 2922 L
620 3527 L
620 3296 L
620 3563 L
620 3953 L
620 3741 L
620 3644 L
620 3704 L
620 3717 L
620 4084 L
620 3412 L
620 3530 L
620 4007 L
620 3780 L
620 3267 L
620 3341 L
620 3823 L
620 3194 L
620 3882 L
620 2866 L
620 3323 L
620 3676 L
620 3994 L
620 3931 L
620 3632 L
620 3578 L
620 3337 L
620 3330 L
620 3491 L
620 3317 L
620 3674 L
620 3218 L
620 3173 L
620 3143 L
620 3509 L
620 3397 L
620 3386 L
620 3523 L
620 3172 L
620 3582 L
620 3943 L
620 3755 L
620 3131 L
620 4006 L
620 4200 L
620 3695 L
620 3326 L
620 3194 L
620 3513 L
620 3507 L
620 3151 L
620 2925 L
620 3239 L
620 2864 L
620 3120 L
620 4320 L
620 3955 L
620 3565 L
620 3635 L
620 4237 L
620 4130 L
620 3587 L
620 2945 L
620 2991 L
620 4071 L
620 4232 L
620 3613 L
620 4210 L
620 3887 L
620 3111 L
620 3612 L
620 3213 L
620 3417 L
620 3722 L
620 3573 L
620 3338 L
620 3925 L
620 3223 L
620 3811 L
620 4014 L
620 3759 L
620 3573 L
620 3918 L
620 3973 L
620 3837 L
620 4117 L
620 4231 L
620 3546 L
620 3770 L
620 3501 L
620 3970 L
620 3127 L
620 3462 L
620 3476 L
620 3552 L
620 4026 L
620 3514 L
620 3863 L
620 4331 L
620 3643 L
620 3714 L
620 3638 L
620 3968 L
620 3413 L
620 3537 L
620 3652 L
620 3676 L
620 3604 L
620 3637 L
620 3934 L
620 3207 L
620 4283 L
620 4417 L
620 3470 L
620 3939 L
620 2920 L
620 3652 L
620 4240 L
620 3341 L
620 3121 L
620 3508 L
620 3867 L
620 4327 L
620 3609 L
620 3140 L
620 3580 L
620 3657 L
620 4073 L
620 3475 L
620 3594 L
620 3437 L
620 3279 L
620 3944 L
620 3680 L
620 3360 L
620 3858 L
620 3542 L
620 3738 L
620 4140 L
620 3451 L
620 3255 L
620 3996 L
620 3853 L
620 3202 L
620 3221 L
620 3570 L
620 3149 L
620 3508 L
620 3666 L
620 3489 L
620 4384 L
620 3073 L
620 3834 L
620 3829 L
620 4274 L
620 3350 L
620 3518 L
620 3374 L
620 3748 L
620 3097 L
620 3504 L
620 3341 L
620 3408 L
620 3795 L
620 3126 L
620 3963 L
620 4092 L
620 3638 L
620 3307 L
620 3116 L
620 3901 L
620 3647 L
620 3877 L
620 3020 L
620 3508 L
620 3671 L
620 3499 L
620 3671 L
620 3389 L
620 3987 L
620 3456 L
620 3719 L
620 3551 L
620 3647 L
620 3661 L
620 3523 L
620 3566 L
620 3968 L
620 3202 L
620 3446 L
620 3743 L
620 3882 L
620 3245 L
620 3929 L
620 3623 L
620 4163 L
620 3063 L
620 3987 L
620 3733 L
620 3556 L
620 3331 L
620 3580 L
620 3628 L
620 3925 L
620 3882 L
620 3039 L
620 3221 L
620 3532 L
620 3298 L
620 3628 L
620 3939 L
620 3035 L
620 3212 L
620 3236 L
620 3810 L
620 2886 L
620 3412 L
620 3159 L
620 3475 L
620 3590 L
620 3757 L
620 3872 L
620 3676 L
620 3379 L
620 3772 L
620 3772 L
620 3752 L
620 3642 L
620 3460 L
620 2795 L
620 3312 L
620 4173 L
620 3963 L
620 3499 L
620 3705 L
620 3944 L
620 2882 L
620 3800 L
620 3747 L
620 3068 L
620 3618 L
620 2939 L
620 3465 L
620 3934 L
620 4068 L
620 3336 L
620 4197 L
620 3149 L
620 3628 L
620 3590 L
620 4145 L
620 3083 L
620 4001 L
620 3934 L
620 3633 L
620 3427 L
620 3532 L
620 3437 L
620 4150 L
620 3422 L
620 3685 L
620 3997 L
620 3513 L
620 3623 L
620 3499 L
620 4207 L
620 3494 L
620 3240 L
620 3987 L
620 3781 L
620 3900 L
620 3226 L
620 3843 L
620 3752 L
620 4054 L
620 4173 L
620 3939 L
620 3570 L
620 3805 L
620 3613 L
620 3814 L
620 4470 L
620 3709 L
620 3939 L
620 3475 L
620 3901 L
620 3542 L
620 3752 L
620 3733 L
620 3853 L
620 3341 L
620 3484 L
620 3116 L
620 3891 L
620 4451 L
620 2863 L
620 4154 L
620 3619 L
620 3460 L
620 3949 L
620 4068 L
620 3546 L
620 4192 L
620 3958 L
620 3460 L
620 3714 L
620 3661 L
620 3743 L
620 4135 L
620 3915 L
620 3604 L
620 4585 L
620 3628 L
620 3681 L
620 4006 L
620 3929 L
620 3169 L
620 3714 L
620 3011 L
620 3528 L
620 3810 L
620 3977 L
620 3475 L
620 3905 L
L2 C01 COSGR

%
%================
% Legend - Begin
%================
%
GSN 4240 5180 M
4480 5180 L
LWMC SL  C01 COSGR
GSN 4540 5141 M helvM (0.5 uM) show grestore
%
%================
% Legend - End
%================
%

%
% Main frame
%
L10
GSN 
620 1700 M
4220 1700 L
4220 5300 L
620 5300 L
closepath SGR

%
% X axis: large tics
%
L10
%
% X axis: small tics
%
L5
%
% Y axis: large tics
%
L10
GSN 620 2586 M 54 0 rL SGR
GSN 4220 2586 M -54 0 rL SGR
helvS (-0.01) 560 2586 ylabel
GSN 620 3527 M 54 0 rL SGR
GSN 4220 3527 M -54 0 rL SGR
helvS (0) 560 3527 ylabel
GSN 620 4468 M 54 0 rL SGR
GSN 4220 4468 M -54 0 rL SGR
helvS (0.01) 560 4468 ylabel
%
% Y axis: small tics
%
L5
GSN 620 1881 M 36 0 rL SGR
GSN 4220 1881 M -36 0 rL SGR
GSN 620 2116 M 36 0 rL SGR
GSN 4220 2116 M -36 0 rL SGR
GSN 620 2351 M 36 0 rL SGR
GSN 4220 2351 M -36 0 rL SGR
GSN 620 2586 M 36 0 rL SGR
GSN 4220 2586 M -36 0 rL SGR
GSN 620 2822 M 36 0 rL SGR
GSN 4220 2822 M -36 0 rL SGR
GSN 620 3057 M 36 0 rL SGR
GSN 4220 3057 M -36 0 rL SGR
GSN 620 3292 M 36 0 rL SGR
GSN 4220 3292 M -36 0 rL SGR
GSN 620 3527 M 36 0 rL SGR
GSN 4220 3527 M -36 0 rL SGR
GSN 620 3762 M 36 0 rL SGR
GSN 4220 3762 M -36 0 rL SGR
GSN 620 3997 M 36 0 rL SGR
GSN 4220 3997 M -36 0 rL SGR
GSN 620 4233 M 36 0 rL SGR
GSN 4220 4233 M -36 0 rL SGR
GSN 620 4468 M 36 0 rL SGR
GSN 4220 4468 M -36 0 rL SGR
GSN 620 4703 M 36 0 rL SGR
GSN 4220 4703 M -36 0 rL SGR
GSN 620 4938 M 36 0 rL SGR
GSN 4220 4938 M -36 0 rL SGR
GSN 620 5173 M 36 0 rL SGR
GSN 4220 5173 M -36 0 rL SGR

%
% X axis - residual panel
%
GSN L5 620 3527 M 4220 3527 L SDA G50 SGR

%
% X-Axis label:
%
gsave 620 1370 M 
[
[(Helvetica) 180 0 true true 0 (t)]
[(Helvetica) 180 0 true true 0 (i)]
[(Helvetica) 180 0 true true 0 (m)]
[(Helvetica) 180 0 true true 0 (e)]
] 0 MCshow grestore

%
% Y-Axis label:
%
gsave 234 3500 M 
currentpoint gsave translate 90 rotate 0 0 moveto
[
[(Helvetica) 180 0 true true 0 (r)]
[(Helvetica) 180 0 true true 0 (e)]
[(Helvetica) 180 0 true true 0 (s)]
[(Helvetica) 180 0 true true 0 (i)]
[(Helvetica) 180 0 true true 0 (d)]
[(Helvetica) 180 0 true true 0 (u)]
[(Helvetica) 180 0 true true 0 (a)]
[(Helvetica) 180 0 true true 0 (l)]
[(Helvetica) 180 0 true true 0 (s)]
] 0 MCshow grestore

end
showpage
%%Trailer
%%EOF
