%!PS-Adobe-3.0 EPSF-3.0
%%BoundingBox: 0 0 514 550
%%Creator: BioKin Ltd.
%%DocumentFonts: Symbol Helvetica
%%EndComments
%
/bkdict 256 dict def
bkdict begin
/M {moveto} def 
/R {rmoveto} def
/L {lineto} def
/rL {rlineto} def
/GSN {gsave newpath} def
/SGR {stroke grestore} def
/COSGR {gsave setrgbcolor stroke grestore grestore} def
/SL {setlinewidth} def
/LWMB {12} def             % line width - model curves, black & white
/LWMC {10} def             % line width - model curves, color
/L2 {2.5 setlinewidth} def
/L5 {5 setlinewidth} def
/L10 {10 setlinewidth} def
/G50 {0.5 setgray} def
/SDA {[10  20] 0 setdash} def % axes
/helvT {/Helvetica findfont 100 scalefont setfont} def % tiny
/helvS {/Helvetica findfont 125 scalefont setfont} def % small
/helvM {/Helvetica findfont 150 scalefont setfont} def % medium
/helvL {/Helvetica findfont 175 scalefont setfont} def % large
/xlabel {gsave M dup
   stringwidth exch -0.5 mul exch rmoveto show grestore} def 
/ylabel {gsave M 90 rotate dup
   stringwidth exch -0.5 mul exch rmoveto show grestore} def
/ylabelresid {gsave M dup
   stringwidth exch -1 mul exch rmoveto show grestore} def
% ======
% Shapes
% ======
% Circle:
/Circ {0 360 arc closepath} def
%
% Square:
/Squa {dup dup -0.5 mul dup dup R -2 mul 0 exch rL 1 mul 0 rL dup 0 exch -1 mul rL closepath} def
%
% Triangle Up:
/TriU {dup dup dup -0.4 mul exch -0.5 mul exch R dup 0.5 mul exch rL dup -1 mul exch 0.5 mul exch rL closepath} def 
%
% Triangle Down:
/TriD {dup dup dup 0.4 mul exch -0.5 mul exch R dup 0.5 mul exch -1 mul rL dup 0.5 mul exch rL closepath} def 
%
% Diamond:
/Diam {45 rotate Squa} def
% ======
% Fills
% ======
/GRF {gsave setgray fill grestore} def                    % gray-level Fill
/COF {gsave setrgbcolor fill grestore} def                % color fill
% ======
% Colors
% ======
/C01 {1.00	0.00	0.00} def      % Red
/C02 {0.00	0.00	1.00} def      % Blue
/C03 {0.00	0.39	0.00} def      % Dark Green
/C04 {0.78	0.08	0.52} def      % Medium Violet Red
/C05 {0.55	0.27	0.07} def      % Saddle Brown
/C06 {0.10	0.70	0.70} def      % (cyan)
/C07 {1.00	0.55	0.00} def      % Dark Orange
/C08 {0.63	0.13	0.94} def      % Purple
/C09 {0.00	0.75	1.00} def      % Deep Sky Blue
/C10 {0.20	0.80	0.20} def      % Lime Green
/C11 {0.47	0.53	0.60} def      % Light Slate Gray
/C12 {0.00	0.00	0.00} def      % Black            % or: {0.19	0.31	0.31} def      % Dark Slate Gray
%
/LGR {0.75} def % light gray
/DGR {0.33} def % dark gray
%
% =============
% Dash patterns
% =============
/dash01 { [80  20] 0 setdash } def
/dash02 { [40  20] 0 setdash } def
/dash03 { [80  20  10  20] 0 setdash } def
/dash04 { [40  20  10  20] 0 setdash } def
/dash05 { [80  20  10  10  10  20] 0 setdash } def
/dash06 { [40  20  10  10  10  20] 0 setdash } def
/dash07 { [10  10] 0 setdash } def
%
/MFshow {
   { dup 5 get 3 ge
     { 5 get 3 eq {gsave} {grestore} ifelse }
     {dup dup 0 get findfont exch 1 get scalefont setfont
     [ currentpoint ] exch dup 2 get 0 exch R dup 5 get 2 ne {dup dup 6
     get exch 4 get {show} {stringwidth pop 0 R} ifelse }if dup 5 get 0 eq
     {dup 3 get {2 get neg 0 exch R pop} {pop aload pop M} ifelse} {dup 5
     get 1 eq {dup 2 get exch dup 3 get exch 6 get stringwidth pop -2 div
     dup 0 R} {dup 6 get stringwidth pop -2 div 0 R 6 get
     show 2 index {aload pop M neg 3 -1 roll neg R pop pop} {pop pop pop
     pop aload pop M} ifelse }ifelse }ifelse }
     ifelse }
   forall} bind def
/MFwidth {0 exch {dup 3 get{dup dup 0 get findfont exch 1 get scalefont
     setfont 6 get stringwidth pop add} {pop} ifelse} forall} bind def
/MCshow { currentpoint stroke M
  exch dup MFwidth -2 div 3 -1 roll R MFshow } def
%
end
%%EndProlog
bkdict begin
0.1 0.1 scale
%
% Model curves:
%

GSN 753 2742 M
753 2742 L
786 2727 L
820 2720 L
853 2717 L
886 2716 L
920 2716 L
929 2716 L
953 2716 L
986 2716 L
1020 2716 L
1053 2716 L
1086 2716 L
1106 2716 L
1120 2716 L
1153 2716 L
1186 2716 L
1220 2716 L
1253 2716 L
1282 2716 L
1286 2716 L
1319 2716 L
1353 2716 L
1386 2716 L
1419 2716 L
1453 2716 L
1459 2716 L
1486 2716 L
1519 2716 L
1553 2716 L
1586 2716 L
1619 2716 L
1635 2716 L
1653 2716 L
1686 2716 L
1719 2716 L
1753 2716 L
1786 2716 L
1812 2716 L
1819 2716 L
1853 2716 L
1886 2716 L
1919 2716 L
1953 2716 L
1986 2716 L
1988 2716 L
2019 2716 L
2053 2716 L
2086 2716 L
2119 2716 L
2153 2716 L
2165 2716 L
2186 2716 L
2219 2716 L
2253 2716 L
2286 2716 L
2319 2716 L
2341 2716 L
2353 2716 L
2386 2716 L
2419 2716 L
2453 2716 L
2486 2716 L
2518 2716 L
2519 2716 L
2553 2716 L
2586 2716 L
2619 2716 L
2653 2716 L
2686 2716 L
2694 2716 L
2719 2716 L
2753 2716 L
2786 2716 L
2819 2716 L
2853 2716 L
2871 2717 L
2886 2717 L
2919 2717 L
2953 2717 L
2986 2717 L
3019 2717 L
3047 2718 L
3053 2718 L
3086 2718 L
3119 2718 L
3153 2719 L
3186 2719 L
3219 2720 L
3224 2720 L
3253 2720 L
3286 2721 L
3319 2722 L
3353 2722 L
3386 2723 L
3400 2724 L
3419 2725 L
3453 2726 L
3476 2727 L
3486 2727 L
3519 2729 L
3553 2731 L
3577 2732 L
3586 2733 L
3619 2735 L
3653 2738 L
3686 2741 L
3719 2745 L
3753 2749 L
3754 2749 L
3786 2754 L
3819 2759 L
3853 2765 L
3886 2772 L
3919 2780 L
3930 2783 L
3953 2789 L
3986 2799 L
4019 2811 L
4053 2825 L
4086 2840 L
4086 2840 L
LWMC SL  C05 COSGR

%
% Experimental data:
%
GSN 777 5166 M
1388 4942 L
1552 4683 L
1652 4688 L
1723 4885 L
1778 4774 L
1824 4641 L
1863 4529 L
1896 4738 L
1926 4648 L
1952 4577 L
1976 4544 L
1998 4624 L
2019 4621 L
2037 4566 L
2055 4790 L
2071 4602 L
2086 4563 L
2101 4656 L
2115 4704 L
2128 4725 L
2140 4589 L
2152 4543 L
2163 4709 L
2174 4703 L
2184 4518 L
2194 4517 L
2204 4573 L
2213 4445 L
2222 4421 L
2230 4465 L
2239 4397 L
2247 4424 L
2255 4628 L
2262 4377 L
2270 4418 L
2277 4452 L
2284 4515 L
2290 4469 L
2297 4428 L
2303 4428 L
2310 4400 L
2316 4413 L
2322 4290 L
2328 4202 L
2333 4365 L
2339 4430 L
2344 4359 L
2350 4275 L
2355 4088 L
2360 4192 L
2365 4246 L
2370 4197 L
2375 4262 L
2380 4314 L
2384 4331 L
2389 4200 L
2393 4124 L
2398 4176 L
2402 4094 L
2407 4086 L
2411 4065 L
2415 4090 L
2419 4113 L
2423 4122 L
2427 4087 L
2431 4096 L
2435 3908 L
2438 4033 L
2442 3968 L
2446 4330 L
2449 4163 L
2453 3976 L
2456 3945 L
2460 4113 L
2463 4075 L
2467 4087 L
2470 4057 L
2473 4074 L
2476 3986 L
2480 4086 L
2483 4071 L
2486 4057 L
2489 3805 L
2492 4287 L
2495 3900 L
2498 4059 L
2501 3848 L
2504 3902 L
2507 4043 L
2510 3921 L
2512 3824 L
2515 3987 L
2518 4109 L
2521 3742 L
2523 3911 L
2526 3903 L
2529 3900 L
2531 3846 L
2534 3989 L
2536 3885 L
2539 3826 L
2541 3774 L
2544 3805 L
2546 3787 L
2549 3761 L
2551 3912 L
2554 3756 L
2556 3737 L
2558 3613 L
2561 3661 L
2563 3995 L
2565 3775 L
2568 3522 L
2570 3909 L
2572 3693 L
2574 3702 L
2576 3994 L
2579 3764 L
2581 3810 L
2583 3882 L
2585 3821 L
2587 3771 L
2589 3878 L
2591 3750 L
2593 3683 L
2595 3638 L
2597 3608 L
2599 3524 L
2601 3649 L
2603 3735 L
2605 3686 L
2607 3519 L
2609 3805 L
2611 3661 L
2613 3638 L
2615 3784 L
2617 3861 L
2618 3710 L
2620 3763 L
2622 3695 L
2624 3561 L
2626 3561 L
2627 3683 L
2629 3841 L
2631 3665 L
2633 3575 L
2634 3641 L
2636 3424 L
2638 3669 L
2640 3661 L
2641 3557 L
2643 3530 L
2645 3524 L
2646 3543 L
2648 3556 L
2650 3582 L
2651 3606 L
2653 3669 L
2654 3528 L
2656 3455 L
2658 3633 L
2659 3587 L
2661 3478 L
2662 3485 L
2664 3345 L
2665 3576 L
2667 3408 L
2668 3332 L
2670 3415 L
2671 3438 L
2673 3490 L
2674 3368 L
2676 3417 L
2677 3367 L
2679 3418 L
2680 3272 L
2682 3326 L
2683 3556 L
2685 3347 L
2686 3322 L
2687 3464 L
2689 3514 L
2690 3373 L
2692 3267 L
2693 3448 L
2694 3436 L
2696 3301 L
2697 3355 L
2698 3363 L
2700 3532 L
2701 3345 L
2702 3373 L
2704 3300 L
2705 3106 L
2706 3437 L
2708 3416 L
2709 3399 L
2710 3155 L
2712 3322 L
2713 3393 L
2714 3358 L
2715 3327 L
2717 3299 L
2718 3272 L
2719 3267 L
2720 3296 L
2722 3450 L
2723 3392 L
2724 3282 L
2725 3394 L
2726 3394 L
2728 3226 L
2729 3381 L
2730 3269 L
2731 3152 L
2732 3254 L
2734 3452 L
2735 3310 L
2736 3285 L
2737 3174 L
2738 3264 L
2739 3425 L
2741 3245 L
2742 3342 L
2743 3227 L
2744 3343 L
2745 3172 L
2746 2965 L
2747 3218 L
2748 3263 L
2749 3405 L
2751 3286 L
2752 3116 L
2753 3370 L
2754 3198 L
2755 3360 L
2756 3178 L
2757 3131 L
2758 3092 L
2759 3197 L
2760 3395 L
2761 3170 L
2762 3096 L
2763 3289 L
2764 3182 L
2765 2997 L
2767 3083 L
2768 3127 L
2769 3106 L
2770 3058 L
2771 3103 L
2772 3108 L
2773 3116 L
2774 3028 L
2775 3069 L
2776 3230 L
2777 3077 L
2778 3165 L
2779 3047 L
2780 3067 L
2781 2918 L
2782 3106 L
2783 3175 L
2783 3165 L
2784 2978 L
2785 3103 L
2786 3009 L
2787 3328 L
2788 3108 L
2789 2782 L
2790 3119 L
2791 3118 L
2792 2909 L
2793 2848 L
2794 3152 L
2795 3031 L
2796 3098 L
2797 3170 L
2798 2962 L
2798 2969 L
2799 3036 L
2800 3191 L
2801 3098 L
2802 3051 L
2803 2992 L
2804 2997 L
2805 2838 L
2806 3139 L
2807 3139 L
2807 2932 L
2808 2990 L
2809 3059 L
2810 2888 L
2811 3134 L
2812 3129 L
2813 2754 L
2813 3055 L
2814 3134 L
2815 3074 L
2816 2940 L
2817 2966 L
2818 2976 L
2819 2996 L
2819 2981 L
2820 2844 L
2821 3049 L
2822 2979 L
2823 2982 L
2824 2893 L
2824 3209 L
2825 2869 L
2826 3026 L
2827 2981 L
2828 2963 L
2828 2799 L
2829 3018 L
2830 2892 L
2831 2984 L
2832 2849 L
2832 2981 L
2833 3028 L
2834 2969 L
2835 3072 L
2836 2916 L
2836 2934 L
2837 2820 L
2838 2912 L
2839 3027 L
2840 2846 L
2840 2820 L
2841 2788 L
2842 2896 L
2843 2882 L
2843 2910 L
2844 2869 L
2845 2964 L
2846 2730 L
2846 2821 L
2847 2931 L
2848 2826 L
2849 2931 L
2849 2931 L
2850 2831 L
2851 2833 L
2852 2981 L
2852 2804 L
2853 2683 L
2854 2983 L
2855 2734 L
2855 2857 L
2856 3010 L
2857 2812 L
2857 2807 L
2858 2822 L
2859 2687 L
2860 2731 L
2860 2871 L
2861 2938 L
2862 2882 L
2862 2931 L
2863 2969 L
2864 2789 L
2865 2771 L
2865 2791 L
2866 3051 L
2867 2630 L
2867 2547 L
2868 2849 L
2869 2682 L
2869 2831 L
2870 2776 L
2871 2684 L
2871 2819 L
2872 2812 L
2873 2796 L
2873 2753 L
2874 2897 L
2875 2774 L
2876 2781 L
2876 2875 L
2877 2561 L
2878 2693 L
2878 2775 L
2879 2766 L
2880 2652 L
2880 2641 L
2881 2783 L
2881 2770 L
2882 2705 L
2883 2767 L
2883 2685 L
2884 2775 L
2885 2731 L
2885 2685 L
2886 2784 L
2887 2748 L
2887 2578 L
2888 2737 L
2889 2864 L
2889 2749 L
2892 2826 L
2894 2506 L
2897 2724 L
2899 2599 L
2902 2582 L
2904 2662 L
2907 2667 L
2909 2622 L
2911 2503 L
2914 2617 L
2916 2602 L
2918 2549 L
2921 2581 L
2923 2655 L
2925 2783 L
2927 2479 L
2929 2527 L
2932 2517 L
2934 2368 L
2936 2477 L
2938 2717 L
2940 2474 L
2942 2553 L
2944 2480 L
2946 2520 L
2948 2465 L
2950 2387 L
2952 2479 L
2954 2278 L
2956 2601 L
2958 2222 L
2960 2400 L
2962 2526 L
2964 2422 L
2966 2537 L
2968 2392 L
2970 2464 L
2971 2421 L
2973 2368 L
2975 2428 L
2977 2475 L
2979 2480 L
2980 2374 L
2982 2426 L
2984 2349 L
2986 2528 L
2987 2383 L
2989 2302 L
2991 2401 L
2993 2343 L
2994 2238 L
2996 2384 L
2998 2207 L
2999 2313 L
3001 2368 L
3003 2250 L
3004 2470 L
3006 2218 L
3007 2429 L
3009 2080 L
3011 2348 L
3012 2443 L
3014 2554 L
3015 2245 L
3017 2316 L
3018 2201 L
3020 2243 L
3021 2379 L
3023 2227 L
3024 2201 L
3026 2251 L
3027 2165 L
3029 2239 L
3030 2401 L
3032 2456 L
3033 2381 L
3035 2108 L
3036 2104 L
3038 2266 L
3039 2181 L
3040 2266 L
3042 2120 L
3043 2173 L
3045 2229 L
3046 2272 L
3047 2245 L
3049 2214 L
3050 2198 L
3051 2470 L
3053 2014 L
3054 2298 L
3055 2120 L
3057 2195 L
3058 2136 L
3059 2124 L
3061 2168 L
3062 2116 L
3063 1919 L
3065 1965 L
3066 2143 L
3067 1984 L
3068 2235 L
3070 2166 L
3071 1998 L
3072 2044 L
3073 1992 L
3075 2163 L
3076 2121 L
3077 2117 L
3078 2207 L
3079 2222 L
3081 2071 L
3082 2287 L
3083 2162 L
3084 2069 L
3085 2154 L
3087 2148 L
3088 2189 L
3089 1953 L
3090 2222 L
3091 1915 L
3092 2160 L
3094 2210 L
3095 2106 L
3096 2235 L
3097 1964 L
3098 2102 L
3099 2128 L
3100 1922 L
3101 2111 L
3103 2136 L
3104 1962 L
3105 2161 L
3106 2114 L
3107 2001 L
3108 1986 L
3109 2173 L
3110 2179 L
3111 1942 L
3112 2004 L
3113 2002 L
3114 2203 L
3115 2240 L
3116 2033 L
3117 2213 L
3119 1833 L
3120 2177 L
3121 2240 L
3122 2160 L
3123 2071 L
3124 2174 L
3125 2126 L
3126 1998 L
3127 1953 L
3128 2026 L
3129 1986 L
3130 2065 L
3131 2025 L
3132 1951 L
3133 2047 L
3134 2226 L
3135 2051 L
3136 2025 L
3136 2203 L
3137 2145 L
3138 2012 L
3139 2073 L
3140 2219 L
3141 1889 L
3142 2038 L
3143 2014 L
3144 2090 L
3145 1874 L
3146 2173 L
3147 2086 L
3148 2097 L
3149 2063 L
3150 2182 L
3151 2035 L
3151 2001 L
3152 2091 L
3153 1957 L
3154 2194 L
3155 2013 L
3156 2134 L
3157 1929 L
3158 2014 L
3159 2171 L
3160 1994 L
3160 2146 L
3161 2024 L
3162 1994 L
3163 1978 L
3164 2301 L
3165 2097 L
3166 1926 L
3166 2027 L
3167 2269 L
3168 2069 L
3169 2121 L
3170 2139 L
3171 2077 L
3172 1999 L
3172 2130 L
3173 2132 L
3174 2063 L
3175 2091 L
3176 1981 L
3177 2165 L
3177 1977 L
3178 2199 L
3179 2108 L
3180 2239 L
3181 2241 L
3181 2268 L
3182 2110 L
3183 2102 L
3184 1871 L
3185 1975 L
3185 2191 L
3186 1999 L
3187 2158 L
3188 1991 L
3189 2053 L
3189 1861 L
3190 2341 L
3191 1984 L
3192 2037 L
3193 2068 L
3193 2149 L
3194 2058 L
3195 1926 L
3196 2341 L
3196 2032 L
3197 2100 L
3198 2169 L
3199 1940 L
3199 1947 L
3200 2284 L
3201 2191 L
3202 2171 L
3202 2149 L
3203 2014 L
3204 2057 L
3205 2077 L
3205 2173 L
3206 2162 L
3207 2160 L
3208 1969 L
3208 2118 L
3209 2074 L
3210 2169 L
3210 2025 L
3211 2080 L
3212 2009 L
3213 2115 L
3213 2035 L
3214 2032 L
3215 1921 L
3215 2137 L
3216 2068 L
3217 2025 L
3218 2083 L
3218 2077 L
3219 2143 L
3220 2028 L
3220 2093 L
3221 2010 L
3222 2013 L
3222 2306 L
3223 2035 L
3224 2229 L
3224 1947 L
3225 2099 L
3226 1955 L
3227 2088 L
3227 2079 L
3228 1986 L
3229 2019 L
3229 2124 L
3230 2322 L
3231 2141 L
3231 1944 L
3232 2122 L
3233 2218 L
3233 2111 L
3234 1918 L
3235 2100 L
3235 2164 L
3236 2240 L
3236 2072 L
3237 2220 L
3238 2064 L
3238 2160 L
3239 2217 L
3240 2093 L
3240 2173 L
3241 2063 L
3242 1994 L
3242 2201 L
3243 1996 L
3244 2007 L
3244 2119 L
3245 2093 L
3245 2028 L
3246 2157 L
3247 2047 L
3247 2137 L
3248 2145 L
3249 2054 L
3249 2121 L
3250 2100 L
3250 2052 L
3251 2287 L
3252 2176 L
3252 2010 L
3253 2284 L
3253 2051 L
3254 2090 L
3255 2110 L
3255 1836 L
3256 2104 L
3257 2131 L
3257 2086 L
3258 2173 L
3258 2097 L
3259 2076 L
3259 2186 L
3260 2227 L
3261 2208 L
3261 2148 L
3262 2206 L
3262 2119 L
3263 2069 L
3264 2181 L
3264 2227 L
3265 2066 L
3265 2117 L
3266 2059 L
3267 2215 L
3267 2080 L
3268 2120 L
3268 2219 L
3269 2178 L
3269 2235 L
3270 2097 L
3271 1902 L
3271 2080 L
3272 2078 L
3272 2092 L
3273 2178 L
3273 2180 L
3274 2203 L
3275 2238 L
3275 2236 L
3276 2191 L
3276 2032 L
3277 1987 L
3277 2096 L
3278 2163 L
3278 2044 L
3279 2235 L
3280 2099 L
3280 2309 L
3281 2096 L
3281 2246 L
3282 2138 L
3282 2165 L
3283 2195 L
3283 2298 L
3284 2110 L
3284 2201 L
3285 2135 L
3285 2139 L
3286 2320 L
3287 2448 L
3287 2110 L
3288 2163 L
3288 2248 L
3289 2124 L
3289 2110 L
3290 2158 L
3290 2180 L
3291 1971 L
3291 2143 L
3292 2319 L
3292 2261 L
3293 2027 L
3293 2093 L
3294 2345 L
3294 2145 L
3295 2225 L
3295 2175 L
3296 2211 L
3297 2302 L
3297 2037 L
3298 2251 L
3298 2254 L
3299 2280 L
3299 2291 L
3300 2050 L
3300 2056 L
3301 2267 L
3301 2215 L
3302 2293 L
3302 2144 L
3303 2340 L
3303 2191 L
3304 2241 L
3304 2122 L
3305 2141 L
3305 2347 L
3306 2328 L
3306 2249 L
3307 2292 L
3307 2321 L
3308 2180 L
3308 2302 L
3309 2363 L
3309 2349 L
3310 2315 L
3310 2211 L
3311 2154 L
3311 2173 L
3312 2314 L
3312 2150 L
3312 2350 L
3313 2173 L
3313 2257 L
3314 2193 L
3314 2285 L
3315 2341 L
3315 2183 L
3316 2160 L
3316 2214 L
3317 2116 L
3317 2293 L
3318 2282 L
3318 2127 L
3319 2222 L
3319 2279 L
3320 2199 L
3320 2382 L
3321 2305 L
3321 2326 L
3321 2264 L
3322 2079 L
3322 2145 L
3323 2380 L
3323 2334 L
3324 2259 L
3324 2242 L
3325 2414 L
3325 2176 L
3326 2334 L
3326 2236 L
3327 2188 L
3327 2267 L
3327 2128 L
3328 2225 L
3328 2366 L
3329 2353 L
3329 2111 L
3330 2196 L
3330 2432 L
3331 2306 L
3331 2206 L
3332 2388 L
3332 2287 L
3332 2372 L
3333 2204 L
3333 2495 L
3334 2212 L
3334 2260 L
3335 2153 L
3335 2235 L
3336 2416 L
3336 2209 L
3336 2082 L
3337 2449 L
3337 2368 L
3338 2436 L
3338 2186 L
3339 2341 L
3339 2231 L
3339 2478 L
3340 2317 L
3340 2421 L
3341 2428 L
3341 2257 L
3342 2380 L
3342 2111 L
3343 2351 L
3343 2394 L
3343 2326 L
3344 2199 L
3344 2402 L
3345 2230 L
3345 2250 L
3346 2297 L
3346 2235 L
3346 2284 L
3347 2289 L
3347 2243 L
3348 2419 L
3348 2117 L
3348 2402 L
3349 2345 L
3349 2458 L
3350 2322 L
3350 2488 L
3351 2184 L
3351 2121 L
3351 2215 L
3352 2419 L
3352 2365 L
3353 2390 L
3353 2183 L
3353 2403 L
3354 2417 L
3354 2303 L
3355 2336 L
3355 2239 L
3355 2501 L
3356 2375 L
3356 2396 L
3357 2251 L
3357 2385 L
3358 2264 L
3358 2337 L
3358 2462 L
3359 2381 L
3359 2229 L
3360 2242 L
3360 2417 L
3360 2294 L
3361 2459 L
3361 2350 L
3362 2394 L
3362 2269 L
3362 2277 L
3363 2453 L
3363 2265 L
3364 2329 L
3364 2371 L
3364 2363 L
3365 2685 L
3365 2389 L
3365 2371 L
3366 2530 L
3366 2501 L
3367 2297 L
3367 2366 L
3367 2401 L
3368 2243 L
3368 2346 L
3369 2278 L
3369 2339 L
3369 2445 L
3370 2547 L
3370 2429 L
3371 2350 L
3371 2331 L
3371 2346 L
3372 2337 L
3372 2455 L
3372 2398 L
3373 2380 L
3373 2299 L
3374 2206 L
3374 2397 L
3374 2432 L
3375 2239 L
3375 2318 L
3375 2370 L
3376 2240 L
3376 2376 L
3377 2330 L
3377 2430 L
3377 2548 L
3378 2240 L
3378 2321 L
3378 2427 L
3379 2314 L
3379 2217 L
3380 2485 L
3380 2470 L
3380 2341 L
3381 2641 L
3381 2303 L
3381 2363 L
3382 2456 L
3382 2623 L
3383 2584 L
3383 2459 L
3383 2415 L
3384 2413 L
3384 2467 L
3384 2158 L
3385 2506 L
3385 2402 L
3385 2334 L
3386 2224 L
3386 2243 L
3387 2355 L
3387 2554 L
3387 2355 L
3388 2523 L
3388 2423 L
3388 2321 L
3389 2497 L
3389 2291 L
3389 2566 L
3390 2493 L
3390 2341 L
3391 2401 L
3391 2507 L
3391 2406 L
3392 2405 L
3392 2570 L
3392 2435 L
3393 2432 L
3393 2523 L
3393 2417 L
3394 2429 L
3394 2517 L
3394 2487 L
3395 2275 L
3395 2475 L
3395 2484 L
3396 2391 L
3396 2324 L
3396 2402 L
3397 2361 L
3397 2534 L
3398 2581 L
3398 2536 L
3398 2555 L
3399 2386 L
3399 2536 L
3399 2470 L
3400 2541 L
3400 2248 L
3400 2441 L
3401 2526 L
3401 2589 L
3401 2372 L
3402 2356 L
3402 2399 L
3402 2647 L
3403 2256 L
3403 2503 L
3403 2670 L
3404 2342 L
3404 2509 L
3404 2291 L
3405 2397 L
3405 2505 L
3405 2340 L
3406 2611 L
3406 2467 L
3406 2513 L
3407 2423 L
3407 2449 L
3407 2524 L
3408 2470 L
3408 2508 L
3408 2427 L
3409 2360 L
3409 2542 L
3409 2558 L
3410 2516 L
3410 2489 L
3410 2471 L
3411 2317 L
3411 2465 L
3411 2630 L
3412 2445 L
3412 2549 L
3412 2432 L
3413 2465 L
3413 2678 L
3413 2292 L
3414 2348 L
3414 2589 L
3414 2627 L
3415 2421 L
3415 2633 L
3415 2467 L
3416 2295 L
3416 2505 L
3416 2563 L
3417 2370 L
3417 2453 L
3417 2461 L
3417 2471 L
3418 2466 L
3418 2445 L
3418 2427 L
3419 2484 L
3419 2596 L
3419 2493 L
3420 2657 L
3420 2534 L
3420 2447 L
3421 2543 L
3421 2492 L
3421 2492 L
3422 2477 L
3422 2621 L
3422 2614 L
3423 2432 L
3423 2489 L
3423 2389 L
3423 2488 L
3424 2335 L
3424 2408 L
3424 2758 L
3425 2668 L
3425 2553 L
3425 2684 L
3426 2535 L
3426 2407 L
3426 2573 L
3427 2528 L
3427 2429 L
3427 2687 L
3428 2557 L
3428 2680 L
3428 2536 L
3428 2502 L
3429 2458 L
3429 2579 L
3429 2502 L
3430 2500 L
3430 2328 L
3430 2606 L
3431 2396 L
3431 2514 L
3431 2524 L
3431 2627 L
3432 2474 L
3432 2380 L
3432 2625 L
3433 2661 L
3433 2556 L
3433 2433 L
3434 2535 L
3434 2439 L
3434 2438 L
3434 2623 L
3435 2597 L
3435 2552 L
3435 2455 L
3436 2523 L
3436 2594 L
3436 2582 L
3437 2578 L
3437 2600 L
3437 2441 L
3437 2445 L
3438 2518 L
3438 2704 L
3438 2768 L
3439 2442 L
3439 2765 L
3439 2596 L
3440 2432 L
3440 2586 L
3440 2562 L
3440 2692 L
3441 2792 L
3441 2574 L
3441 2602 L
3442 2450 L
3442 2555 L
3442 2539 L
3442 2498 L
3443 2632 L
3443 2589 L
3443 2614 L
3444 2630 L
3444 2610 L
3444 2467 L
3444 2527 L
3445 2658 L
3445 2560 L
3445 2581 L
3446 2627 L
3446 2625 L
3446 2498 L
3446 2622 L
3447 2654 L
3447 2358 L
3447 2596 L
3448 2617 L
3448 2511 L
3448 2627 L
3448 2734 L
3449 2719 L
3449 2415 L
3449 2459 L
3450 2528 L
3450 2541 L
3450 2697 L
3450 2596 L
3451 2545 L
3451 2534 L
3451 2761 L
3452 2623 L
3452 2457 L
3452 2588 L
3452 2673 L
3453 2714 L
3453 2643 L
3453 2765 L
3454 2500 L
3454 2506 L
3454 2557 L
3454 2532 L
3455 2540 L
3455 2447 L
3455 2679 L
3455 2507 L
3456 2564 L
3456 2713 L
3456 2467 L
3457 2599 L
3457 2456 L
3457 2454 L
3457 2492 L
3458 2627 L
3458 2654 L
3458 2583 L
3458 2645 L
3459 2601 L
3459 2598 L
3459 2736 L
3460 2532 L
3460 2594 L
3460 2669 L
3460 2387 L
3461 2491 L
3461 2591 L
3461 2497 L
3461 2758 L
3462 2642 L
3462 2521 L
3462 2700 L
3463 2649 L
3463 2528 L
3463 2578 L
3463 2564 L
3464 2633 L
3464 2609 L
3464 2597 L
3464 2515 L
3465 2544 L
3465 2586 L
3465 2677 L
3465 2706 L
3466 2575 L
3466 2663 L
3466 2677 L
3466 2484 L
3467 2448 L
3467 2734 L
3467 2758 L
3468 2458 L
3468 2505 L
3468 2769 L
3468 2665 L
3469 2677 L
3469 2492 L
3469 2843 L
3469 2718 L
3470 2578 L
3470 2714 L
3470 2635 L
3470 2813 L
3471 2727 L
3471 2643 L
3471 2707 L
3471 2571 L
3472 2514 L
3472 2657 L
3472 2466 L
3472 2641 L
3473 2519 L
3473 2654 L
3473 2610 L
3474 2533 L
3474 2787 L
3474 2796 L
3474 2749 L
3475 2618 L
3475 2641 L
3475 2573 L
3475 2639 L
3476 2645 L
3476 2438 L
3476 2666 L
3476 2394 L
3477 2555 L
3477 2633 L
3477 2456 L
3477 2665 L
3478 2482 L
3478 2683 L
3478 2685 L
3478 2621 L
3479 2589 L
3479 2719 L
3479 2589 L
3479 2630 L
3480 2622 L
3480 2627 L
3480 2666 L
3480 2681 L
3481 2816 L
3481 2689 L
3481 2590 L
3481 2432 L
3482 2587 L
3482 2521 L
3482 2875 L
3482 2536 L
3483 2737 L
3483 2563 L
3483 2643 L
3483 2541 L
3484 2608 L
3484 2771 L
3484 2704 L
3484 2669 L
3485 2710 L
3485 2645 L
3485 2739 L
3485 2461 L
3486 2593 L
3486 2683 L
3486 2586 L
3486 2752 L
3487 2829 L
3487 2686 L
3487 2397 L
3487 2705 L
3488 2701 L
3488 2818 L
3488 2701 L
3488 2573 L
3488 2640 L
3489 2966 L
3489 2525 L
3489 2705 L
3489 2501 L
3490 2781 L
3490 2447 L
3490 2654 L
3490 2651 L
3491 2652 L
3491 2544 L
3491 2692 L
3491 2378 L
3492 2757 L
3492 2651 L
3492 2770 L
3492 2638 L
3493 2666 L
3493 2710 L
3493 2766 L
3493 2685 L
3494 2815 L
3494 2519 L
3494 2586 L
3494 2554 L
3494 2739 L
3495 2653 L
3495 2649 L
3495 2600 L
3495 2673 L
3496 2570 L
3496 2484 L
3496 2575 L
3496 2750 L
3497 2601 L
3497 2576 L
3497 2721 L
3497 2588 L
3498 2713 L
3498 2439 L
3498 2807 L
3498 2508 L
3498 2716 L
3499 2732 L
3499 2773 L
3499 2586 L
3499 2879 L
3500 2651 L
3500 2624 L
3506 2767 L
3511 2749 L
3517 2869 L
3522 2749 L
3527 2912 L
3532 2853 L
3537 2856 L
3542 2715 L
3547 2890 L
3552 2723 L
3557 2780 L
3561 2854 L
3566 2740 L
3570 2870 L
3575 2785 L
3579 2818 L
3583 2835 L
3587 2818 L
3591 3000 L
3595 3005 L
3599 2717 L
3603 2921 L
3607 2995 L
3611 2830 L
3614 2859 L
3618 2900 L
3622 2828 L
3625 2894 L
3629 2896 L
3632 3020 L
3636 2826 L
3639 2763 L
3642 2940 L
3646 2755 L
3649 3020 L
3652 2855 L
3655 2972 L
3658 3010 L
3661 2985 L
3664 3111 L
3667 2949 L
3670 3085 L
3673 2955 L
3676 2944 L
3679 2862 L
3682 2845 L
3685 2867 L
3688 2721 L
3690 2919 L
3693 3061 L
3696 3075 L
3698 2824 L
3701 3063 L
3704 2998 L
3706 3016 L
3709 2915 L
3711 2834 L
3714 3085 L
3716 2786 L
3719 3074 L
3721 3013 L
3724 3053 L
3726 3044 L
3728 2844 L
3731 2900 L
3733 3068 L
3735 2926 L
3738 3025 L
3740 3071 L
3742 2958 L
3744 3102 L
3747 3006 L
3749 3036 L
3751 2929 L
3753 2852 L
3755 2681 L
3757 2960 L
3760 3002 L
3762 2975 L
3764 2914 L
3766 2757 L
3768 2842 L
3770 2872 L
3772 3139 L
3774 3154 L
3776 2838 L
3778 2864 L
3780 2970 L
3781 3025 L
3783 2990 L
3785 3029 L
3787 3000 L
3789 2948 L
3791 3013 L
3793 3075 L
3795 3016 L
3796 2894 L
3798 2718 L
3800 3006 L
3802 2936 L
3803 2901 L
3805 2867 L
3807 3050 L
3809 2988 L
3810 2852 L
3812 2693 L
3814 3085 L
3816 2636 L
3817 3112 L
3819 2868 L
3820 2915 L
3822 2850 L
3824 3025 L
3825 2898 L
3827 2787 L
3829 2968 L
3830 2989 L
3832 2951 L
3833 3055 L
3835 2934 L
3836 3037 L
3838 3082 L
3839 2875 L
3841 2913 L
3842 2996 L
3844 2898 L
3845 3203 L
3847 2976 L
3848 2945 L
3850 3070 L
3851 3080 L
3853 3102 L
3854 2866 L
3856 2990 L
3857 2862 L
3859 3059 L
3860 3037 L
3861 3025 L
3863 3046 L
3864 2949 L
3866 3086 L
3867 2843 L
3868 3114 L
3870 3032 L
3871 3247 L
3872 3040 L
3874 2927 L
3875 2961 L
3876 2960 L
3878 2887 L
3879 2821 L
3880 3040 L
3882 3105 L
3883 3020 L
3884 2980 L
3885 3040 L
3887 2999 L
3888 2909 L
3889 2893 L
3890 2898 L
3892 2877 L
3893 2992 L
3894 2724 L
3895 2905 L
3897 3155 L
3898 3031 L
3899 2926 L
3900 2862 L
3901 3007 L
3903 2775 L
3904 3138 L
3905 3209 L
3906 2940 L
3907 2932 L
3908 3057 L
3910 2941 L
3911 2984 L
3912 2856 L
3913 3049 L
3914 3000 L
3915 3130 L
3917 3061 L
3918 3030 L
3919 3140 L
3920 3133 L
3921 3106 L
3922 2929 L
3923 2859 L
3924 3200 L
3925 2955 L
3926 2882 L
3928 2942 L
3929 3118 L
3930 3148 L
3931 2943 L
3932 3037 L
3933 3044 L
3934 3001 L
3935 2800 L
3936 2960 L
3937 3110 L
3938 2974 L
3939 2998 L
3940 3128 L
3941 2913 L
3942 2919 L
3943 3032 L
3944 3168 L
3945 2757 L
3946 3158 L
3947 2917 L
3948 2852 L
3949 3023 L
3950 2984 L
3951 3072 L
3952 2890 L
3953 2877 L
3954 2872 L
3955 3109 L
3956 2897 L
3957 3091 L
3958 2853 L
3959 2990 L
3960 2936 L
3961 2837 L
3962 2988 L
3963 2875 L
3964 3054 L
3965 2821 L
3966 2853 L
3966 2835 L
3967 2948 L
3968 2985 L
3969 2747 L
3970 2922 L
3971 2929 L
3972 3068 L
3973 3014 L
3974 2882 L
3975 3144 L
3976 2948 L
3976 2862 L
3977 2753 L
3978 3024 L
3979 2908 L
3980 2808 L
3981 2847 L
3982 3130 L
3983 2895 L
3983 2949 L
3984 2980 L
3985 3011 L
3986 3053 L
3987 3011 L
3988 2937 L
3989 2888 L
3989 2954 L
3990 3013 L
3991 2893 L
3992 3105 L
3993 3057 L
3994 2909 L
3995 3092 L
3995 3116 L
3996 3032 L
3997 2880 L
3998 2893 L
3999 2893 L
3999 3071 L
4000 2862 L
4001 2996 L
4002 3087 L
4003 3020 L
4003 3004 L
4004 3023 L
4005 2862 L
4006 2910 L
4007 3121 L
4007 2960 L
4008 2908 L
4009 2893 L
4010 3010 L
4011 2975 L
4011 3037 L
4012 2999 L
4013 3020 L
4014 3030 L
4014 2852 L
4015 2979 L
4016 2883 L
4017 3085 L
4017 3011 L
4018 3137 L
4019 3080 L
4020 2992 L
4021 2937 L
4021 3006 L
4022 3056 L
4023 2931 L
4023 3016 L
4024 2910 L
4025 2868 L
4026 2887 L
4026 3074 L
4027 2967 L
4028 2778 L
4029 3024 L
4029 3157 L
4030 3083 L
4031 2895 L
4032 3068 L
4032 2828 L
4033 2876 L
4034 3079 L
4034 3139 L
4035 2977 L
4036 3069 L
4036 2793 L
4037 3020 L
4038 2888 L
4039 2777 L
4039 2824 L
4040 2883 L
4041 2983 L
4041 3115 L
4042 2845 L
4043 2914 L
4043 2780 L
4044 2830 L
4045 2921 L
4045 2951 L
4046 2900 L
4047 3081 L
4047 2865 L
4048 2948 L
4049 2809 L
4050 2813 L
4050 3038 L
4051 3233 L
4052 3009 L
4052 2974 L
4053 2773 L
4053 2781 L
4054 2977 L
4055 2633 L
4055 3033 L
4056 2933 L
4057 2951 L
4057 2934 L
4058 2848 L
4059 2883 L
4059 2937 L
4060 2732 L
4061 2807 L
4061 2931 L
4062 3157 L
L2 C05 COSGR

%
%================
% Legend - Begin
%================
%
GSN 4240 5180 M
4480 5180 L
LWMC SL  C05 COSGR
GSN 4540 5141 M helvM (2.5 uM) show grestore
%
%================
% Legend - End
%================
%

%
% Residuals:
%
GSN 777 1569 M
1388 1517 L
1552 1453 L
1652 1454 L
1723 1503 L
1778 1476 L
1824 1443 L
1863 1415 L
1896 1467 L
1926 1445 L
1952 1427 L
1976 1419 L
1998 1439 L
2019 1438 L
2037 1424 L
2055 1479 L
2071 1433 L
2086 1424 L
2101 1447 L
2115 1458 L
2128 1463 L
2140 1430 L
2152 1419 L
2163 1459 L
2174 1458 L
2184 1413 L
2194 1412 L
2204 1426 L
2213 1395 L
2222 1389 L
2230 1399 L
2239 1383 L
2247 1389 L
2255 1440 L
2262 1378 L
2270 1388 L
2277 1396 L
2284 1412 L
2290 1400 L
2297 1390 L
2303 1390 L
2310 1383 L
2316 1387 L
2322 1356 L
2328 1335 L
2333 1375 L
2339 1391 L
2344 1373 L
2350 1353 L
2355 1306 L
2360 1332 L
2365 1345 L
2370 1333 L
2375 1349 L
2380 1362 L
2384 1366 L
2389 1334 L
2393 1315 L
2398 1328 L
2402 1308 L
2407 1306 L
2411 1301 L
2415 1307 L
2419 1313 L
2423 1315 L
2427 1306 L
2431 1308 L
2435 1262 L
2438 1293 L
2442 1277 L
2446 1366 L
2449 1325 L
2453 1279 L
2456 1271 L
2460 1313 L
2463 1303 L
2467 1306 L
2470 1299 L
2473 1303 L
2476 1281 L
2480 1306 L
2483 1302 L
2486 1299 L
2489 1237 L
2492 1356 L
2495 1260 L
2498 1299 L
2501 1247 L
2504 1261 L
2507 1295 L
2510 1265 L
2512 1241 L
2515 1282 L
2518 1312 L
2521 1221 L
2523 1263 L
2526 1261 L
2529 1260 L
2531 1247 L
2534 1282 L
2536 1256 L
2539 1242 L
2541 1229 L
2544 1237 L
2546 1232 L
2549 1226 L
2551 1263 L
2554 1225 L
2556 1220 L
2558 1189 L
2561 1201 L
2563 1284 L
2565 1229 L
2568 1167 L
2570 1263 L
2572 1209 L
2574 1211 L
2576 1283 L
2579 1227 L
2581 1238 L
2583 1256 L
2585 1241 L
2587 1228 L
2589 1255 L
2591 1223 L
2593 1207 L
2595 1196 L
2597 1188 L
2599 1167 L
2601 1198 L
2603 1220 L
2605 1207 L
2607 1166 L
2609 1237 L
2611 1201 L
2613 1196 L
2615 1232 L
2617 1251 L
2618 1213 L
2620 1226 L
2622 1210 L
2624 1177 L
2626 1177 L
2627 1207 L
2629 1246 L
2631 1202 L
2633 1180 L
2634 1196 L
2636 1143 L
2638 1203 L
2640 1201 L
2641 1176 L
2643 1169 L
2645 1168 L
2646 1172 L
2648 1176 L
2650 1182 L
2651 1188 L
2653 1203 L
2654 1169 L
2656 1151 L
2658 1194 L
2659 1183 L
2661 1156 L
2662 1158 L
2664 1123 L
2665 1180 L
2667 1139 L
2668 1120 L
2670 1141 L
2671 1146 L
2673 1159 L
2674 1129 L
2676 1141 L
2677 1129 L
2679 1142 L
2680 1105 L
2682 1119 L
2683 1175 L
2685 1124 L
2686 1118 L
2687 1153 L
2689 1165 L
2690 1130 L
2692 1104 L
2693 1149 L
2694 1146 L
2696 1113 L
2697 1126 L
2698 1128 L
2700 1170 L
2701 1124 L
2702 1130 L
2704 1112 L
2705 1065 L
2706 1146 L
2708 1141 L
2709 1137 L
2710 1077 L
2712 1118 L
2713 1135 L
2714 1127 L
2715 1119 L
2717 1112 L
2718 1106 L
2719 1104 L
2720 1111 L
2722 1149 L
2723 1135 L
2724 1108 L
2725 1135 L
2726 1136 L
2728 1094 L
2729 1132 L
2730 1105 L
2731 1076 L
2732 1101 L
2734 1150 L
2735 1115 L
2736 1109 L
2737 1081 L
2738 1104 L
2739 1143 L
2741 1099 L
2742 1123 L
2743 1094 L
2744 1123 L
2745 1081 L
2746 1030 L
2747 1092 L
2748 1103 L
2749 1138 L
2751 1109 L
2752 1067 L
2753 1129 L
2754 1087 L
2755 1127 L
2756 1082 L
2757 1071 L
2758 1061 L
2759 1087 L
2760 1136 L
2761 1080 L
2762 1062 L
2763 1110 L
2764 1083 L
2765 1038 L
2767 1059 L
2768 1070 L
2769 1064 L
2770 1053 L
2771 1064 L
2772 1065 L
2773 1067 L
2774 1045 L
2775 1055 L
2776 1095 L
2777 1057 L
2778 1079 L
2779 1050 L
2780 1055 L
2781 1018 L
2782 1064 L
2783 1082 L
2783 1079 L
2784 1033 L
2785 1064 L
2786 1041 L
2787 1119 L
2788 1065 L
2789 985 L
2790 1068 L
2791 1068 L
2792 1016 L
2793 1001 L
2794 1076 L
2795 1046 L
2796 1062 L
2797 1080 L
2798 1029 L
2798 1031 L
2799 1047 L
2800 1085 L
2801 1062 L
2802 1051 L
2803 1037 L
2804 1038 L
2805 999 L
2806 1073 L
2807 1073 L
2807 1022 L
2808 1036 L
2809 1053 L
2810 1011 L
2811 1071 L
2812 1070 L
2813 978 L
2813 1052 L
2814 1071 L
2815 1057 L
2816 1024 L
2817 1030 L
2818 1033 L
2819 1037 L
2819 1034 L
2820 1000 L
2821 1050 L
2822 1033 L
2823 1034 L
2824 1012 L
2824 1090 L
2825 1006 L
2826 1045 L
2827 1034 L
2828 1029 L
2828 989 L
2829 1043 L
2830 1012 L
2831 1035 L
2832 1001 L
2832 1034 L
2833 1045 L
2834 1031 L
2835 1056 L
2836 1018 L
2836 1022 L
2837 994 L
2838 1017 L
2839 1045 L
2840 1001 L
2840 994 L
2841 986 L
2842 1013 L
2843 1009 L
2843 1016 L
2844 1006 L
2845 1029 L
2846 972 L
2846 994 L
2847 1021 L
2848 995 L
2849 1021 L
2849 1021 L
2850 997 L
2851 997 L
2852 1034 L
2852 990 L
2853 960 L
2854 1034 L
2855 973 L
2855 1003 L
2856 1041 L
2857 992 L
2857 991 L
2858 994 L
2859 961 L
2860 972 L
2860 1006 L
2861 1023 L
2862 1009 L
2862 1021 L
2863 1031 L
2864 986 L
2865 982 L
2865 987 L
2866 1051 L
2867 947 L
2867 927 L
2868 1001 L
2869 960 L
2869 997 L
2870 983 L
2871 960 L
2871 994 L
2872 992 L
2873 988 L
2873 978 L
2874 1013 L
2875 983 L
2876 984 L
2876 1007 L
2877 930 L
2878 963 L
2878 983 L
2879 981 L
2880 953 L
2880 950 L
2881 985 L
2881 982 L
2882 966 L
2883 981 L
2883 961 L
2884 983 L
2885 972 L
2885 961 L
2886 985 L
2887 976 L
2887 934 L
2888 974 L
2889 1005 L
2889 976 L
2892 995 L
2894 917 L
2897 970 L
2899 940 L
2902 935 L
2904 955 L
2907 956 L
2909 945 L
2911 916 L
2914 944 L
2916 940 L
2918 927 L
2921 935 L
2923 953 L
2925 985 L
2927 910 L
2929 922 L
2932 919 L
2934 883 L
2936 909 L
2938 969 L
2940 909 L
2942 928 L
2944 910 L
2946 920 L
2948 906 L
2950 887 L
2952 910 L
2954 860 L
2956 940 L
2958 847 L
2960 890 L
2962 922 L
2964 896 L
2966 924 L
2968 888 L
2970 906 L
2971 896 L
2973 883 L
2975 897 L
2977 909 L
2979 910 L
2980 884 L
2982 897 L
2984 878 L
2986 922 L
2987 886 L
2989 866 L
2991 891 L
2993 876 L
2994 850 L
2996 886 L
2998 843 L
2999 869 L
3001 882 L
3003 853 L
3004 908 L
3006 846 L
3007 898 L
3009 811 L
3011 878 L
3012 901 L
3014 928 L
3015 852 L
3017 870 L
3018 841 L
3020 852 L
3021 885 L
3023 848 L
3024 841 L
3026 854 L
3027 832 L
3029 851 L
3030 890 L
3032 904 L
3033 886 L
3035 818 L
3036 817 L
3038 857 L
3039 836 L
3040 857 L
3042 821 L
3043 834 L
3045 848 L
3046 859 L
3047 852 L
3049 845 L
3050 841 L
3051 907 L
3053 795 L
3054 865 L
3055 821 L
3057 840 L
3058 825 L
3059 822 L
3061 833 L
3062 820 L
3063 772 L
3065 783 L
3066 827 L
3067 788 L
3068 850 L
3070 833 L
3071 791 L
3072 803 L
3073 790 L
3075 832 L
3076 821 L
3077 821 L
3078 843 L
3079 846 L
3081 809 L
3082 862 L
3083 831 L
3084 809 L
3085 829 L
3087 828 L
3088 838 L
3089 780 L
3090 846 L
3091 771 L
3092 831 L
3094 843 L
3095 818 L
3096 850 L
3097 783 L
3098 817 L
3099 823 L
3100 772 L
3101 819 L
3103 825 L
3104 782 L
3105 831 L
3106 820 L
3107 792 L
3108 788 L
3109 834 L
3110 836 L
3111 777 L
3112 793 L
3113 792 L
3114 842 L
3115 851 L
3116 800 L
3117 844 L
3119 750 L
3120 835 L
3121 851 L
3122 831 L
3123 809 L
3124 834 L
3125 823 L
3126 791 L
3127 780 L
3128 798 L
3129 788 L
3130 808 L
3131 798 L
3132 780 L
3133 803 L
3134 847 L
3135 804 L
3136 798 L
3136 842 L
3137 827 L
3138 795 L
3139 810 L
3140 846 L
3141 764 L
3142 801 L
3143 795 L
3144 814 L
3145 761 L
3146 834 L
3147 813 L
3148 815 L
3149 807 L
3150 836 L
3151 800 L
3151 792 L
3152 814 L
3153 781 L
3154 839 L
3155 795 L
3156 824 L
3157 774 L
3158 795 L
3159 834 L
3160 790 L
3160 827 L
3161 797 L
3162 790 L
3163 786 L
3164 866 L
3165 815 L
3166 773 L
3166 798 L
3167 858 L
3168 809 L
3169 821 L
3170 826 L
3171 810 L
3172 791 L
3172 823 L
3173 824 L
3174 807 L
3175 814 L
3176 787 L
3177 832 L
3177 786 L
3178 840 L
3179 818 L
3180 850 L
3181 851 L
3181 857 L
3182 819 L
3183 816 L
3184 760 L
3185 785 L
3185 838 L
3186 791 L
3187 830 L
3188 789 L
3189 804 L
3189 757 L
3190 875 L
3191 787 L
3192 800 L
3193 808 L
3193 828 L
3194 806 L
3195 773 L
3196 875 L
3196 799 L
3197 816 L
3198 833 L
3199 777 L
3199 778 L
3200 861 L
3201 838 L
3202 834 L
3202 828 L
3203 795 L
3204 805 L
3205 810 L
3205 834 L
3206 831 L
3207 831 L
3208 784 L
3208 820 L
3209 810 L
3210 833 L
3210 798 L
3211 811 L
3212 793 L
3213 820 L
3213 800 L
3214 799 L
3215 772 L
3215 825 L
3216 808 L
3217 797 L
3218 812 L
3218 810 L
3219 826 L
3220 798 L
3220 814 L
3221 794 L
3222 794 L
3222 867 L
3223 800 L
3224 848 L
3224 778 L
3225 816 L
3226 780 L
3227 813 L
3227 811 L
3228 788 L
3229 796 L
3229 822 L
3230 871 L
3231 826 L
3231 777 L
3232 821 L
3233 845 L
3233 818 L
3234 771 L
3235 816 L
3235 832 L
3236 850 L
3236 809 L
3237 845 L
3238 807 L
3238 831 L
3239 845 L
3240 814 L
3240 834 L
3241 807 L
3242 790 L
3242 841 L
3243 790 L
3244 793 L
3244 821 L
3245 814 L
3245 798 L
3246 830 L
3247 803 L
3247 825 L
3248 827 L
3249 804 L
3249 821 L
3250 816 L
3250 804 L
3251 862 L
3252 834 L
3252 794 L
3253 861 L
3253 804 L
3254 813 L
3255 818 L
3255 751 L
3256 817 L
3257 823 L
3257 812 L
3258 834 L
3258 815 L
3259 810 L
3259 837 L
3260 847 L
3261 842 L
3261 828 L
3262 842 L
3262 820 L
3263 808 L
3264 836 L
3264 847 L
3265 807 L
3265 820 L
3266 806 L
3267 844 L
3267 811 L
3268 821 L
3268 845 L
3269 835 L
3269 849 L
3270 815 L
3271 767 L
3271 811 L
3272 810 L
3272 814 L
3273 835 L
3273 835 L
3274 841 L
3275 850 L
3275 849 L
3276 838 L
3276 799 L
3277 788 L
3277 815 L
3278 831 L
3278 802 L
3279 849 L
3280 815 L
3280 867 L
3281 815 L
3281 852 L
3282 825 L
3282 832 L
3283 839 L
3283 864 L
3284 818 L
3284 840 L
3285 824 L
3285 825 L
3286 870 L
3287 901 L
3287 818 L
3288 831 L
3288 852 L
3289 821 L
3289 818 L
3290 830 L
3290 835 L
3291 784 L
3291 826 L
3292 869 L
3292 855 L
3293 797 L
3293 814 L
3294 876 L
3294 827 L
3295 846 L
3295 834 L
3296 843 L
3297 865 L
3297 800 L
3298 853 L
3298 853 L
3299 860 L
3299 863 L
3300 803 L
3300 805 L
3301 857 L
3301 844 L
3302 863 L
3302 826 L
3303 875 L
3303 838 L
3304 850 L
3304 821 L
3305 826 L
3305 876 L
3306 872 L
3306 852 L
3307 863 L
3307 870 L
3308 835 L
3308 865 L
3309 880 L
3309 877 L
3310 868 L
3310 843 L
3311 829 L
3311 833 L
3312 868 L
3312 828 L
3312 877 L
3313 834 L
3313 854 L
3314 838 L
3314 861 L
3315 875 L
3315 836 L
3316 830 L
3316 843 L
3317 819 L
3317 863 L
3318 860 L
3318 822 L
3319 846 L
3319 860 L
3320 840 L
3320 885 L
3321 866 L
3321 871 L
3321 856 L
3322 810 L
3322 826 L
3323 884 L
3323 873 L
3324 855 L
3324 850 L
3325 893 L
3325 834 L
3326 873 L
3326 849 L
3327 837 L
3327 857 L
3327 822 L
3328 846 L
3328 881 L
3329 878 L
3329 818 L
3330 839 L
3330 897 L
3331 866 L
3331 841 L
3332 886 L
3332 861 L
3332 882 L
3333 841 L
3333 913 L
3334 843 L
3334 855 L
3335 828 L
3335 848 L
3336 893 L
3336 842 L
3336 811 L
3337 901 L
3337 881 L
3338 898 L
3338 837 L
3339 875 L
3339 848 L
3339 908 L
3340 869 L
3340 894 L
3341 896 L
3341 854 L
3342 884 L
3342 818 L
3343 877 L
3343 888 L
3343 871 L
3344 840 L
3344 890 L
3345 847 L
3345 852 L
3346 864 L
3346 848 L
3346 861 L
3347 862 L
3347 850 L
3348 894 L
3348 819 L
3348 890 L
3349 876 L
3349 903 L
3350 870 L
3350 911 L
3351 836 L
3351 820 L
3351 844 L
3352 894 L
3352 880 L
3353 887 L
3353 836 L
3353 890 L
3354 893 L
3354 865 L
3355 873 L
3355 849 L
3355 914 L
3356 883 L
3356 888 L
3357 852 L
3357 885 L
3358 855 L
3358 873 L
3358 904 L
3359 884 L
3359 847 L
3360 850 L
3360 893 L
3360 863 L
3361 904 L
3361 877 L
3362 888 L
3362 857 L
3362 859 L
3363 902 L
3363 856 L
3364 871 L
3364 882 L
3364 880 L
3365 959 L
3365 886 L
3365 882 L
3366 921 L
3366 914 L
3367 864 L
3367 881 L
3367 889 L
3368 850 L
3368 876 L
3369 859 L
3369 874 L
3369 900 L
3370 925 L
3370 896 L
3371 877 L
3371 872 L
3371 876 L
3372 874 L
3372 903 L
3372 888 L
3373 884 L
3373 864 L
3374 841 L
3374 888 L
3374 897 L
3375 849 L
3375 869 L
3375 881 L
3376 850 L
3376 883 L
3377 872 L
3377 896 L
3377 925 L
3378 850 L
3378 870 L
3378 896 L
3379 868 L
3379 844 L
3380 910 L
3380 906 L
3380 874 L
3381 948 L
3381 865 L
3381 880 L
3382 903 L
3382 944 L
3383 934 L
3383 903 L
3383 893 L
3384 892 L
3384 905 L
3384 829 L
3385 915 L
3385 889 L
3385 873 L
3386 846 L
3386 850 L
3387 878 L
3387 927 L
3387 878 L
3388 919 L
3388 895 L
3388 869 L
3389 913 L
3389 862 L
3389 930 L
3390 912 L
3390 874 L
3391 889 L
3391 915 L
3391 890 L
3392 890 L
3392 931 L
3392 897 L
3393 897 L
3393 919 L
3393 893 L
3394 896 L
3394 918 L
3394 910 L
3395 858 L
3395 907 L
3395 909 L
3396 887 L
3396 870 L
3396 889 L
3397 879 L
3397 922 L
3398 933 L
3398 922 L
3398 927 L
3399 885 L
3399 922 L
3399 906 L
3400 923 L
3400 851 L
3400 899 L
3401 920 L
3401 935 L
3401 882 L
3402 878 L
3402 889 L
3402 950 L
3403 853 L
3403 914 L
3403 955 L
3404 874 L
3404 916 L
3404 862 L
3405 888 L
3405 914 L
3405 874 L
3406 941 L
3406 905 L
3406 917 L
3407 894 L
3407 901 L
3407 919 L
3408 906 L
3408 915 L
3408 895 L
3409 879 L
3409 924 L
3409 928 L
3410 917 L
3410 911 L
3410 906 L
3411 868 L
3411 905 L
3411 945 L
3412 900 L
3412 925 L
3412 897 L
3413 905 L
3413 957 L
3413 862 L
3414 876 L
3414 935 L
3414 944 L
3415 894 L
3415 946 L
3415 905 L
3416 863 L
3416 914 L
3416 929 L
3417 881 L
3417 902 L
3417 904 L
3417 906 L
3418 905 L
3418 900 L
3418 895 L
3419 909 L
3419 937 L
3419 911 L
3420 952 L
3420 922 L
3420 900 L
3421 924 L
3421 911 L
3421 911 L
3422 907 L
3422 943 L
3422 941 L
3423 896 L
3423 910 L
3423 886 L
3423 910 L
3424 873 L
3424 890 L
3424 977 L
3425 955 L
3425 926 L
3425 958 L
3426 922 L
3426 890 L
3426 931 L
3427 920 L
3427 896 L
3427 959 L
3428 927 L
3428 958 L
3428 922 L
3428 914 L
3429 903 L
3429 933 L
3429 914 L
3430 913 L
3430 871 L
3430 939 L
3431 888 L
3431 917 L
3431 919 L
3431 944 L
3432 907 L
3432 884 L
3432 944 L
3433 953 L
3433 927 L
3433 897 L
3434 922 L
3434 898 L
3434 898 L
3434 943 L
3435 937 L
3435 926 L
3435 902 L
3436 919 L
3436 936 L
3436 933 L
3437 932 L
3437 938 L
3437 899 L
3437 899 L
3438 918 L
3438 963 L
3438 979 L
3439 899 L
3439 978 L
3439 937 L
3440 896 L
3440 934 L
3440 928 L
3440 960 L
3441 985 L
3441 931 L
3441 938 L
3442 901 L
3442 927 L
3442 923 L
3442 913 L
3443 945 L
3443 935 L
3443 941 L
3444 945 L
3444 940 L
3444 905 L
3444 920 L
3445 952 L
3445 928 L
3445 933 L
3446 944 L
3446 944 L
3446 912 L
3446 943 L
3447 951 L
3447 878 L
3447 936 L
3448 942 L
3448 916 L
3448 944 L
3448 970 L
3449 967 L
3449 892 L
3449 903 L
3450 920 L
3450 923 L
3450 961 L
3450 937 L
3451 924 L
3451 921 L
3451 977 L
3452 943 L
3452 902 L
3452 934 L
3452 956 L
3453 966 L
3453 948 L
3453 978 L
3454 913 L
3454 914 L
3454 927 L
3454 921 L
3455 923 L
3455 900 L
3455 957 L
3455 915 L
3456 929 L
3456 965 L
3456 905 L
3457 937 L
3457 902 L
3457 901 L
3457 911 L
3458 944 L
3458 951 L
3458 933 L
3458 949 L
3459 938 L
3459 937 L
3459 971 L
3460 921 L
3460 936 L
3460 955 L
3460 885 L
3461 911 L
3461 935 L
3461 912 L
3461 976 L
3462 948 L
3462 918 L
3462 962 L
3463 949 L
3463 920 L
3463 932 L
3463 929 L
3464 946 L
3464 940 L
3464 937 L
3464 916 L
3465 924 L
3465 934 L
3465 956 L
3465 963 L
3466 931 L
3466 953 L
3466 956 L
3466 909 L
3467 900 L
3467 970 L
3467 976 L
3468 902 L
3468 914 L
3468 979 L
3468 953 L
3469 956 L
3469 911 L
3469 997 L
3469 966 L
3470 932 L
3470 965 L
3470 946 L
3470 990 L
3471 969 L
3471 948 L
3471 964 L
3471 930 L
3472 916 L
3472 951 L
3472 904 L
3472 947 L
3473 917 L
3473 951 L
3473 940 L
3474 921 L
3474 983 L
3474 986 L
3474 974 L
3475 942 L
3475 947 L
3475 931 L
3475 947 L
3476 948 L
3476 897 L
3476 953 L
3476 886 L
3477 926 L
3477 945 L
3477 902 L
3477 953 L
3478 908 L
3478 958 L
3478 958 L
3478 942 L
3479 935 L
3479 967 L
3479 935 L
3479 945 L
3480 943 L
3480 944 L
3480 953 L
3480 957 L
3481 990 L
3481 959 L
3481 935 L
3481 896 L
3482 934 L
3482 918 L
3482 1005 L
3482 921 L
3483 971 L
3483 928 L
3483 948 L
3483 923 L
3484 939 L
3484 979 L
3484 963 L
3484 954 L
3485 964 L
3485 948 L
3485 971 L
3485 903 L
3486 935 L
3486 958 L
3486 934 L
3486 975 L
3487 994 L
3487 958 L
3487 887 L
3487 963 L
3488 962 L
3488 991 L
3488 962 L
3488 930 L
3488 947 L
3489 1027 L
3489 919 L
3489 963 L
3489 913 L
3490 982 L
3490 899 L
3490 950 L
3490 950 L
3491 950 L
3491 923 L
3491 960 L
3491 882 L
3492 976 L
3492 950 L
3492 979 L
3492 946 L
3493 953 L
3493 964 L
3493 978 L
3493 958 L
3494 990 L
3494 917 L
3494 934 L
3494 926 L
3494 971 L
3495 950 L
3495 949 L
3495 937 L
3495 955 L
3496 930 L
3496 908 L
3496 931 L
3496 974 L
3497 937 L
3497 931 L
3497 967 L
3497 934 L
3498 965 L
3498 897 L
3498 988 L
3498 914 L
3498 966 L
3499 970 L
3499 980 L
3499 934 L
3499 1006 L
3500 949 L
3500 943 L
3506 978 L
3511 974 L
3517 1003 L
3522 974 L
3527 1013 L
3532 999 L
3537 1000 L
3542 965 L
3547 1008 L
3552 967 L
3557 980 L
3561 999 L
3566 971 L
3570 1003 L
3575 982 L
3579 989 L
3583 994 L
3587 990 L
3591 1034 L
3595 1035 L
3599 964 L
3603 1015 L
3607 1033 L
3611 992 L
3614 999 L
3618 1009 L
3622 991 L
3625 1008 L
3629 1008 L
3632 1038 L
3636 991 L
3639 975 L
3642 1018 L
3646 973 L
3649 1038 L
3652 997 L
3655 1026 L
3658 1035 L
3661 1029 L
3664 1060 L
3667 1020 L
3670 1053 L
3673 1022 L
3676 1019 L
3679 999 L
3682 994 L
3685 1000 L
3688 963 L
3690 1012 L
3693 1047 L
3696 1051 L
3698 988 L
3701 1047 L
3704 1031 L
3706 1036 L
3709 1011 L
3711 991 L
3714 1052 L
3716 979 L
3719 1050 L
3721 1035 L
3724 1044 L
3726 1042 L
3728 993 L
3731 1006 L
3733 1048 L
3735 1013 L
3738 1037 L
3740 1048 L
3742 1020 L
3744 1056 L
3747 1032 L
3749 1039 L
3751 1013 L
3753 994 L
3755 952 L
3757 1020 L
3760 1031 L
3762 1024 L
3764 1009 L
3766 970 L
3768 991 L
3770 998 L
3772 1064 L
3774 1068 L
3776 990 L
3778 996 L
3780 1022 L
3781 1035 L
3783 1027 L
3785 1036 L
3787 1029 L
3789 1016 L
3791 1032 L
3793 1047 L
3795 1033 L
3796 1003 L
3798 959 L
3800 1030 L
3802 1013 L
3803 1004 L
3805 996 L
3807 1041 L
3809 1025 L
3810 992 L
3812 953 L
3814 1049 L
3816 938 L
3817 1056 L
3819 995 L
3820 1007 L
3822 991 L
3824 1034 L
3825 1002 L
3827 975 L
3829 1019 L
3830 1025 L
3832 1015 L
3833 1041 L
3835 1011 L
3836 1036 L
3838 1047 L
3839 996 L
3841 1006 L
3842 1026 L
3844 1002 L
3845 1077 L
3847 1021 L
3848 1013 L
3850 1044 L
3851 1046 L
3853 1051 L
3854 993 L
3856 1024 L
3857 992 L
3859 1041 L
3860 1035 L
3861 1032 L
3863 1037 L
3864 1013 L
3866 1047 L
3867 987 L
3868 1054 L
3870 1033 L
3871 1086 L
3872 1035 L
3874 1007 L
3875 1016 L
3876 1015 L
3878 997 L
3879 981 L
3880 1035 L
3882 1051 L
3883 1030 L
3884 1020 L
3885 1034 L
3887 1024 L
3888 1002 L
3889 998 L
3890 999 L
3892 994 L
3893 1022 L
3894 956 L
3895 1001 L
3897 1062 L
3898 1032 L
3899 1006 L
3900 990 L
3901 1026 L
3903 968 L
3904 1058 L
3905 1075 L
3906 1009 L
3907 1007 L
3908 1038 L
3910 1009 L
3911 1019 L
3912 988 L
3913 1035 L
3914 1023 L
3915 1055 L
3917 1038 L
3918 1030 L
3919 1057 L
3920 1055 L
3921 1049 L
3922 1005 L
3923 988 L
3924 1072 L
3925 1011 L
3926 993 L
3928 1008 L
3929 1051 L
3930 1058 L
3931 1008 L
3932 1031 L
3933 1033 L
3934 1022 L
3935 972 L
3936 1012 L
3937 1049 L
3938 1015 L
3939 1021 L
3940 1053 L
3941 1000 L
3942 1001 L
3943 1029 L
3944 1062 L
3945 961 L
3946 1060 L
3947 1000 L
3948 984 L
3949 1026 L
3950 1017 L
3951 1038 L
3952 993 L
3953 990 L
3954 989 L
3955 1047 L
3956 995 L
3957 1043 L
3958 984 L
3959 1018 L
3960 1004 L
3961 980 L
3962 1017 L
3963 989 L
3964 1033 L
3965 975 L
3966 983 L
3966 979 L
3967 1007 L
3968 1016 L
3969 957 L
3970 1000 L
3971 1002 L
3972 1036 L
3973 1022 L
3974 990 L
3975 1054 L
3976 1006 L
3976 985 L
3977 958 L
3978 1025 L
3979 996 L
3980 971 L
3981 981 L
3982 1050 L
3983 992 L
3983 1006 L
3984 1013 L
3985 1021 L
3986 1031 L
3987 1021 L
3988 1002 L
3989 990 L
3989 1006 L
3990 1021 L
3991 991 L
3992 1043 L
3993 1032 L
3994 995 L
3995 1040 L
3995 1046 L
3996 1025 L
3997 988 L
3998 991 L
3999 991 L
3999 1034 L
4000 983 L
4001 1016 L
4002 1038 L
4003 1021 L
4003 1017 L
4004 1022 L
4005 982 L
4006 994 L
4007 1046 L
4007 1006 L
4008 993 L
4009 990 L
4010 1018 L
4011 1010 L
4011 1025 L
4012 1016 L
4013 1021 L
4014 1023 L
4014 979 L
4015 1010 L
4016 986 L
4017 1036 L
4017 1018 L
4018 1049 L
4019 1035 L
4020 1013 L
4021 1000 L
4021 1016 L
4022 1029 L
4023 998 L
4023 1019 L
4024 993 L
4025 982 L
4026 987 L
4026 1033 L
4027 1006 L
4028 960 L
4029 1020 L
4029 1053 L
4030 1034 L
4031 988 L
4032 1031 L
4032 971 L
4033 983 L
4034 1033 L
4034 1048 L
4035 1008 L
4036 1030 L
4036 962 L
4037 1018 L
4038 986 L
4039 958 L
4039 970 L
4040 984 L
4041 1009 L
4041 1041 L
4042 975 L
4043 991 L
4043 959 L
4044 971 L
4045 993 L
4045 1001 L
4046 988 L
4047 1032 L
4047 979 L
4048 1000 L
4049 965 L
4050 966 L
4050 1021 L
4051 1069 L
4052 1014 L
4052 1005 L
4053 956 L
4053 958 L
4054 1006 L
4055 921 L
4055 1020 L
4056 995 L
4057 999 L
4057 995 L
4058 974 L
4059 982 L
4059 995 L
4060 945 L
4061 963 L
4061 994 L
4062 1050 L
L2 C05 COSGR

%
% Main frame
%
L10
GSN 
620 1700 M
4220 1700 L
4220 5300 L
620 5300 L
closepath SGR

%
% X axis: large tics
%
L10
GSN 1130 1700 M 0  54 rL SGR
GSN 1130 5300 M 0 -54 rL SGR
helvS (0.0001) 1130 470 xlabel
GSN 1716 1700 M 0  54 rL SGR
GSN 1716 5300 M 0 -54 rL SGR
helvS (0.001) 1716 470 xlabel
GSN 2303 1700 M 0  54 rL SGR
GSN 2303 5300 M 0 -54 rL SGR
helvS (0.01) 2303 470 xlabel
GSN 2889 1700 M 0  54 rL SGR
GSN 2889 5300 M 0 -54 rL SGR
helvS (0.1) 2889 470 xlabel
GSN 3476 1700 M 0  54 rL SGR
GSN 3476 5300 M 0 -54 rL SGR
helvS (1) 3476 470 xlabel
GSN 4062 1700 M 0  54 rL SGR
GSN 4062 5300 M 0 -54 rL SGR
helvS (10) 4062 470 xlabel
%
% X axis: small tics
%
L5
GSN 720 1700 M 0  36 rL SGR
GSN 720 5300 M 0 -36 rL SGR
GSN 824 1700 M 0  36 rL SGR
GSN 824 5300 M 0 -36 rL SGR
GSN 897 1700 M 0  36 rL SGR
GSN 897 5300 M 0 -36 rL SGR
GSN 954 1700 M 0  36 rL SGR
GSN 954 5300 M 0 -36 rL SGR
GSN 1000 1700 M 0  36 rL SGR
GSN 1000 5300 M 0 -36 rL SGR
GSN 1039 1700 M 0  36 rL SGR
GSN 1039 5300 M 0 -36 rL SGR
GSN 1073 1700 M 0  36 rL SGR
GSN 1073 5300 M 0 -36 rL SGR
GSN 1103 1700 M 0  36 rL SGR
GSN 1103 5300 M 0 -36 rL SGR
GSN 1307 1700 M 0  36 rL SGR
GSN 1307 5300 M 0 -36 rL SGR
GSN 1410 1700 M 0  36 rL SGR
GSN 1410 5300 M 0 -36 rL SGR
GSN 1483 1700 M 0  36 rL SGR
GSN 1483 5300 M 0 -36 rL SGR
GSN 1540 1700 M 0  36 rL SGR
GSN 1540 5300 M 0 -36 rL SGR
GSN 1586 1700 M 0  36 rL SGR
GSN 1586 5300 M 0 -36 rL SGR
GSN 1626 1700 M 0  36 rL SGR
GSN 1626 5300 M 0 -36 rL SGR
GSN 1660 1700 M 0  36 rL SGR
GSN 1660 5300 M 0 -36 rL SGR
GSN 1690 1700 M 0  36 rL SGR
GSN 1690 5300 M 0 -36 rL SGR
GSN 1893 1700 M 0  36 rL SGR
GSN 1893 5300 M 0 -36 rL SGR
GSN 1996 1700 M 0  36 rL SGR
GSN 1996 5300 M 0 -36 rL SGR
GSN 2069 1700 M 0  36 rL SGR
GSN 2069 5300 M 0 -36 rL SGR
GSN 2126 1700 M 0  36 rL SGR
GSN 2126 5300 M 0 -36 rL SGR
GSN 2173 1700 M 0  36 rL SGR
GSN 2173 5300 M 0 -36 rL SGR
GSN 2212 1700 M 0  36 rL SGR
GSN 2212 5300 M 0 -36 rL SGR
GSN 2246 1700 M 0  36 rL SGR
GSN 2246 5300 M 0 -36 rL SGR
GSN 2276 1700 M 0  36 rL SGR
GSN 2276 5300 M 0 -36 rL SGR
GSN 2479 1700 M 0  36 rL SGR
GSN 2479 5300 M 0 -36 rL SGR
GSN 2583 1700 M 0  36 rL SGR
GSN 2583 5300 M 0 -36 rL SGR
GSN 2656 1700 M 0  36 rL SGR
GSN 2656 5300 M 0 -36 rL SGR
GSN 2713 1700 M 0  36 rL SGR
GSN 2713 5300 M 0 -36 rL SGR
GSN 2759 1700 M 0  36 rL SGR
GSN 2759 5300 M 0 -36 rL SGR
GSN 2798 1700 M 0  36 rL SGR
GSN 2798 5300 M 0 -36 rL SGR
GSN 2832 1700 M 0  36 rL SGR
GSN 2832 5300 M 0 -36 rL SGR
GSN 2862 1700 M 0  36 rL SGR
GSN 2862 5300 M 0 -36 rL SGR
GSN 3066 1700 M 0  36 rL SGR
GSN 3066 5300 M 0 -36 rL SGR
GSN 3169 1700 M 0  36 rL SGR
GSN 3169 5300 M 0 -36 rL SGR
GSN 3242 1700 M 0  36 rL SGR
GSN 3242 5300 M 0 -36 rL SGR
GSN 3299 1700 M 0  36 rL SGR
GSN 3299 5300 M 0 -36 rL SGR
GSN 3345 1700 M 0  36 rL SGR
GSN 3345 5300 M 0 -36 rL SGR
GSN 3385 1700 M 0  36 rL SGR
GSN 3385 5300 M 0 -36 rL SGR
GSN 3419 1700 M 0  36 rL SGR
GSN 3419 5300 M 0 -36 rL SGR
GSN 3449 1700 M 0  36 rL SGR
GSN 3449 5300 M 0 -36 rL SGR
GSN 3652 1700 M 0  36 rL SGR
GSN 3652 5300 M 0 -36 rL SGR
GSN 3755 1700 M 0  36 rL SGR
GSN 3755 5300 M 0 -36 rL SGR
GSN 3829 1700 M 0  36 rL SGR
GSN 3829 5300 M 0 -36 rL SGR
GSN 3885 1700 M 0  36 rL SGR
GSN 3885 5300 M 0 -36 rL SGR
GSN 3932 1700 M 0  36 rL SGR
GSN 3932 5300 M 0 -36 rL SGR
GSN 3971 1700 M 0  36 rL SGR
GSN 3971 5300 M 0 -36 rL SGR
GSN 4005 1700 M 0  36 rL SGR
GSN 4005 5300 M 0 -36 rL SGR
GSN 4035 1700 M 0  36 rL SGR
GSN 4035 5300 M 0 -36 rL SGR
%
% Y axis: large tics
%
L10
GSN 620 2363 M 54 0 rL SGR
GSN 4220 2363 M -54 0 rL SGR
helvS (0.96) 560 2363 ylabel
GSN 620 3174 M 54 0 rL SGR
GSN 4220 3174 M -54 0 rL SGR
helvS (0.98) 560 3174 ylabel
GSN 620 3986 M 54 0 rL SGR
GSN 4220 3986 M -54 0 rL SGR
helvS (1) 560 3986 ylabel
GSN 620 4797 M 54 0 rL SGR
GSN 4220 4797 M -54 0 rL SGR
helvS (1.02) 560 4797 ylabel
%
% Y axis: small tics
%
L5
GSN 620 1754 M 36 0 rL SGR
GSN 4220 1754 M -36 0 rL SGR
GSN 620 1957 M 36 0 rL SGR
GSN 4220 1957 M -36 0 rL SGR
GSN 620 2160 M 36 0 rL SGR
GSN 4220 2160 M -36 0 rL SGR
GSN 620 2363 M 36 0 rL SGR
GSN 4220 2363 M -36 0 rL SGR
GSN 620 2566 M 36 0 rL SGR
GSN 4220 2566 M -36 0 rL SGR
GSN 620 2769 M 36 0 rL SGR
GSN 4220 2769 M -36 0 rL SGR
GSN 620 2972 M 36 0 rL SGR
GSN 4220 2972 M -36 0 rL SGR
GSN 620 3174 M 36 0 rL SGR
GSN 4220 3174 M -36 0 rL SGR
GSN 620 3377 M 36 0 rL SGR
GSN 4220 3377 M -36 0 rL SGR
GSN 620 3580 M 36 0 rL SGR
GSN 4220 3580 M -36 0 rL SGR
GSN 620 3783 M 36 0 rL SGR
GSN 4220 3783 M -36 0 rL SGR
GSN 620 3986 M 36 0 rL SGR
GSN 4220 3986 M -36 0 rL SGR
GSN 620 4189 M 36 0 rL SGR
GSN 4220 4189 M -36 0 rL SGR
GSN 620 4392 M 36 0 rL SGR
GSN 4220 4392 M -36 0 rL SGR
GSN 620 4595 M 36 0 rL SGR
GSN 4220 4595 M -36 0 rL SGR
GSN 620 4797 M 36 0 rL SGR
GSN 4220 4797 M -36 0 rL SGR
GSN 620 5000 M 36 0 rL SGR
GSN 4220 5000 M -36 0 rL SGR
GSN 620 5203 M 36 0 rL SGR
GSN 4220 5203 M -36 0 rL SGR

%
% X-Axis label:
%
gsave 2420 290 M 
[
[(Helvetica) 180 0 true true 0 (t)]
[(Helvetica) 180 0 true true 0 (i)]
[(Helvetica) 180 0 true true 0 (m)]
[(Helvetica) 180 0 true true 0 (e)]
] 0 MCshow grestore

%
% Y-Axis label:
%
gsave 234 3500 M 
currentpoint gsave translate 90 rotate 0 0 moveto
[
[(Helvetica) 180 0 true true 0 (s)]
[(Helvetica) 180 0 true true 0 (i)]
[(Helvetica) 180 0 true true 0 (g)]
[(Helvetica) 180 0 true true 0 (n)]
[(Helvetica) 180 0 true true 0 (a)]
[(Helvetica) 180 0 true true 0 (l)]
] 0 MCshow grestore

%
% Residuals:
%
gsave 129 1160 M 
currentpoint gsave translate 90 rotate 0 0 moveto
[
[(Helvetica) 150 0 true true 0 (r)]
[(Helvetica) 150 0 true true 0 (e)]
[(Helvetica) 150 0 true true 0 (s)]
[(Helvetica) 150 0 true true 0 (i)]
[(Helvetica) 150 0 true true 0 (d)]
[(Helvetica) 150 0 true true 0 (u)]
[(Helvetica) 150 0 true true 0 (a)]
[(Helvetica) 150 0 true true 0 (l)]
[(Helvetica) 150 0 true true 0 (s)]
] 0 MCshow grestore

%
% Residual frame
%
L10
GSN 
620 620 M
4220 620 L
4220 1700 L
620 1700 L
closepath SGR
%
% X axis: large tics - residual frame
%
L10
GSN 1130 620 M 0  54 rL SGR
GSN 1130 1700 M 0 -54 rL SGR
GSN 1716 620 M 0  54 rL SGR
GSN 1716 1700 M 0 -54 rL SGR
GSN 2303 620 M 0  54 rL SGR
GSN 2303 1700 M 0 -54 rL SGR
GSN 2889 620 M 0  54 rL SGR
GSN 2889 1700 M 0 -54 rL SGR
GSN 3476 620 M 0  54 rL SGR
GSN 3476 1700 M 0 -54 rL SGR
GSN 4062 620 M 0  54 rL SGR
GSN 4062 1700 M 0 -54 rL SGR
%
% X axis: small tics - residual frame
%
L5
GSN 720 620 M 0  36 rL SGR
GSN 720 1700 M 0 -36 rL SGR
GSN 824 620 M 0  36 rL SGR
GSN 824 1700 M 0 -36 rL SGR
GSN 897 620 M 0  36 rL SGR
GSN 897 1700 M 0 -36 rL SGR
GSN 954 620 M 0  36 rL SGR
GSN 954 1700 M 0 -36 rL SGR
GSN 1000 620 M 0  36 rL SGR
GSN 1000 1700 M 0 -36 rL SGR
GSN 1039 620 M 0  36 rL SGR
GSN 1039 1700 M 0 -36 rL SGR
GSN 1073 620 M 0  36 rL SGR
GSN 1073 1700 M 0 -36 rL SGR
GSN 1103 620 M 0  36 rL SGR
GSN 1103 1700 M 0 -36 rL SGR
GSN 1307 620 M 0  36 rL SGR
GSN 1307 1700 M 0 -36 rL SGR
GSN 1410 620 M 0  36 rL SGR
GSN 1410 1700 M 0 -36 rL SGR
GSN 1483 620 M 0  36 rL SGR
GSN 1483 1700 M 0 -36 rL SGR
GSN 1540 620 M 0  36 rL SGR
GSN 1540 1700 M 0 -36 rL SGR
GSN 1586 620 M 0  36 rL SGR
GSN 1586 1700 M 0 -36 rL SGR
GSN 1626 620 M 0  36 rL SGR
GSN 1626 1700 M 0 -36 rL SGR
GSN 1660 620 M 0  36 rL SGR
GSN 1660 1700 M 0 -36 rL SGR
GSN 1690 620 M 0  36 rL SGR
GSN 1690 1700 M 0 -36 rL SGR
GSN 1893 620 M 0  36 rL SGR
GSN 1893 1700 M 0 -36 rL SGR
GSN 1996 620 M 0  36 rL SGR
GSN 1996 1700 M 0 -36 rL SGR
GSN 2069 620 M 0  36 rL SGR
GSN 2069 1700 M 0 -36 rL SGR
GSN 2126 620 M 0  36 rL SGR
GSN 2126 1700 M 0 -36 rL SGR
GSN 2173 620 M 0  36 rL SGR
GSN 2173 1700 M 0 -36 rL SGR
GSN 2212 620 M 0  36 rL SGR
GSN 2212 1700 M 0 -36 rL SGR
GSN 2246 620 M 0  36 rL SGR
GSN 2246 1700 M 0 -36 rL SGR
GSN 2276 620 M 0  36 rL SGR
GSN 2276 1700 M 0 -36 rL SGR
GSN 2479 620 M 0  36 rL SGR
GSN 2479 1700 M 0 -36 rL SGR
GSN 2583 620 M 0  36 rL SGR
GSN 2583 1700 M 0 -36 rL SGR
GSN 2656 620 M 0  36 rL SGR
GSN 2656 1700 M 0 -36 rL SGR
GSN 2713 620 M 0  36 rL SGR
GSN 2713 1700 M 0 -36 rL SGR
GSN 2759 620 M 0  36 rL SGR
GSN 2759 1700 M 0 -36 rL SGR
GSN 2798 620 M 0  36 rL SGR
GSN 2798 1700 M 0 -36 rL SGR
GSN 2832 620 M 0  36 rL SGR
GSN 2832 1700 M 0 -36 rL SGR
GSN 2862 620 M 0  36 rL SGR
GSN 2862 1700 M 0 -36 rL SGR
GSN 3066 620 M 0  36 rL SGR
GSN 3066 1700 M 0 -36 rL SGR
GSN 3169 620 M 0  36 rL SGR
GSN 3169 1700 M 0 -36 rL SGR
GSN 3242 620 M 0  36 rL SGR
GSN 3242 1700 M 0 -36 rL SGR
GSN 3299 620 M 0  36 rL SGR
GSN 3299 1700 M 0 -36 rL SGR
GSN 3345 620 M 0  36 rL SGR
GSN 3345 1700 M 0 -36 rL SGR
GSN 3385 620 M 0  36 rL SGR
GSN 3385 1700 M 0 -36 rL SGR
GSN 3419 620 M 0  36 rL SGR
GSN 3419 1700 M 0 -36 rL SGR
GSN 3449 620 M 0  36 rL SGR
GSN 3449 1700 M 0 -36 rL SGR
GSN 3652 620 M 0  36 rL SGR
GSN 3652 1700 M 0 -36 rL SGR
GSN 3755 620 M 0  36 rL SGR
GSN 3755 1700 M 0 -36 rL SGR
GSN 3829 620 M 0  36 rL SGR
GSN 3829 1700 M 0 -36 rL SGR
GSN 3885 620 M 0  36 rL SGR
GSN 3885 1700 M 0 -36 rL SGR
GSN 3932 620 M 0  36 rL SGR
GSN 3932 1700 M 0 -36 rL SGR
GSN 3971 620 M 0  36 rL SGR
GSN 3971 1700 M 0 -36 rL SGR
GSN 4005 620 M 0  36 rL SGR
GSN 4005 1700 M 0 -36 rL SGR
GSN 4035 620 M 0  36 rL SGR
GSN 4035 1700 M 0 -36 rL SGR
%
% Y axis: large tics - residual frame
%
L10
GSN 620 719 M 54 0 rL SGR
GSN 4220 719 M -54 0 rL SGR
helvS (-0.025) 560 719 ylabelresid
GSN 620 969 M 54 0 rL SGR
GSN 4220 969 M -54 0 rL SGR
helvS (0) 560 969 ylabelresid
GSN 620 1218 M 54 0 rL SGR
GSN 4220 1218 M -54 0 rL SGR
helvS (0.025) 560 1218 ylabelresid
GSN 620 1468 M 54 0 rL SGR
GSN 4220 1468 M -54 0 rL SGR
helvS (0.05) 560 1468 ylabelresid

%
% X axis - residual panel
%
GSN L5 620 969 M 4220 969 L SDA G50 SGR

end
showpage
%%Trailer
%%EOF
