%!PS-Adobe-3.0 EPSF-3.0
%%BoundingBox: 0 0 514 550
%%Creator: BioKin Ltd.
%%DocumentFonts: Symbol Helvetica
%%EndComments
%
/bkdict 256 dict def
bkdict begin
/M {moveto} def 
/R {rmoveto} def
/L {lineto} def
/rL {rlineto} def
/GSN {gsave newpath} def
/SGR {stroke grestore} def
/COSGR {gsave setrgbcolor stroke grestore grestore} def
/SL {setlinewidth} def
/LWMB {12} def             % line width - model curves, black & white
/LWMC {10} def             % line width - model curves, color
/L2 {2.5 setlinewidth} def
/L5 {5 setlinewidth} def
/L10 {10 setlinewidth} def
/G50 {0.5 setgray} def
/SDA {[10  20] 0 setdash} def % axes
/helvT {/Helvetica findfont 100 scalefont setfont} def % tiny
/helvS {/Helvetica findfont 125 scalefont setfont} def % small
/helvM {/Helvetica findfont 150 scalefont setfont} def % medium
/helvL {/Helvetica findfont 175 scalefont setfont} def % large
/xlabel {gsave M dup
   stringwidth exch -0.5 mul exch rmoveto show grestore} def 
/ylabel {gsave M 90 rotate dup
   stringwidth exch -0.5 mul exch rmoveto show grestore} def
/ylabelresid {gsave M dup
   stringwidth exch -1 mul exch rmoveto show grestore} def
% ======
% Shapes
% ======
% Circle:
/Circ {0 360 arc closepath} def
%
% Square:
/Squa {dup dup -0.5 mul dup dup R -2 mul 0 exch rL 1 mul 0 rL dup 0 exch -1 mul rL closepath} def
%
% Triangle Up:
/TriU {dup dup dup -0.4 mul exch -0.5 mul exch R dup 0.5 mul exch rL dup -1 mul exch 0.5 mul exch rL closepath} def 
%
% Triangle Down:
/TriD {dup dup dup 0.4 mul exch -0.5 mul exch R dup 0.5 mul exch -1 mul rL dup 0.5 mul exch rL closepath} def 
%
% Diamond:
/Diam {45 rotate Squa} def
% ======
% Fills
% ======
/GRF {gsave setgray fill grestore} def                    % gray-level Fill
/COF {gsave setrgbcolor fill grestore} def                % color fill
% ======
% Colors
% ======
/C01 {1.00	0.00	0.00} def      % Red
/C02 {0.00	0.00	1.00} def      % Blue
/C03 {0.00	0.39	0.00} def      % Dark Green
/C04 {0.78	0.08	0.52} def      % Medium Violet Red
/C05 {0.55	0.27	0.07} def      % Saddle Brown
/C06 {0.10	0.70	0.70} def      % (cyan)
/C07 {1.00	0.55	0.00} def      % Dark Orange
/C08 {0.63	0.13	0.94} def      % Purple
/C09 {0.00	0.75	1.00} def      % Deep Sky Blue
/C10 {0.20	0.80	0.20} def      % Lime Green
/C11 {0.47	0.53	0.60} def      % Light Slate Gray
/C12 {0.00	0.00	0.00} def      % Black            % or: {0.19	0.31	0.31} def      % Dark Slate Gray
%
/LGR {0.75} def % light gray
/DGR {0.33} def % dark gray
%
% =============
% Dash patterns
% =============
/dash01 { [80  20] 0 setdash } def
/dash02 { [40  20] 0 setdash } def
/dash03 { [80  20  10  20] 0 setdash } def
/dash04 { [40  20  10  20] 0 setdash } def
/dash05 { [80  20  10  10  10  20] 0 setdash } def
/dash06 { [40  20  10  10  10  20] 0 setdash } def
/dash07 { [10  10] 0 setdash } def
%
/MFshow {
   { dup 5 get 3 ge
     { 5 get 3 eq {gsave} {grestore} ifelse }
     {dup dup 0 get findfont exch 1 get scalefont setfont
     [ currentpoint ] exch dup 2 get 0 exch R dup 5 get 2 ne {dup dup 6
     get exch 4 get {show} {stringwidth pop 0 R} ifelse }if dup 5 get 0 eq
     {dup 3 get {2 get neg 0 exch R pop} {pop aload pop M} ifelse} {dup 5
     get 1 eq {dup 2 get exch dup 3 get exch 6 get stringwidth pop -2 div
     dup 0 R} {dup 6 get stringwidth pop -2 div 0 R 6 get
     show 2 index {aload pop M neg 3 -1 roll neg R pop pop} {pop pop pop
     pop aload pop M} ifelse }ifelse }ifelse }
     ifelse }
   forall} bind def
/MFwidth {0 exch {dup 3 get{dup dup 0 get findfont exch 1 get scalefont
     setfont 6 get stringwidth pop add} {pop} ifelse} forall} bind def
/MCshow { currentpoint stroke M
  exch dup MFwidth -2 div 3 -1 roll R MFshow } def
%
end
%%EndProlog
bkdict begin
0.1 0.1 scale
%
% Residuals:
%
GSN 620 4417 M
620 4848 L
620 4665 L
620 4863 L
620 4803 L
620 4610 L
620 4561 L
620 4517 L
620 4526 L
620 4468 L
620 4307 L
620 4436 L
620 4208 L
620 4209 L
620 4435 L
620 4197 L
620 4208 L
620 4035 L
620 4054 L
620 4045 L
620 4020 L
620 3906 L
620 3812 L
620 3842 L
620 4018 L
620 3833 L
620 3881 L
620 3791 L
620 3843 L
620 3816 L
620 3812 L
620 3715 L
620 3620 L
620 3518 L
620 3605 L
620 3586 L
620 3496 L
620 3613 L
620 3692 L
620 3604 L
620 3563 L
620 3446 L
620 3563 L
620 3338 L
620 3359 L
620 3408 L
620 3442 L
620 3381 L
620 3381 L
620 3366 L
620 3251 L
620 3261 L
620 3259 L
620 3176 L
620 2994 L
620 3338 L
620 3168 L
620 3190 L
620 3133 L
620 3317 L
620 3141 L
620 3052 L
620 3391 L
620 3009 L
620 3179 L
620 3135 L
620 3029 L
620 3074 L
620 3035 L
620 3179 L
620 3063 L
620 2905 L
620 3132 L
620 3244 L
620 3039 L
620 3007 L
620 3080 L
620 2873 L
620 2980 L
620 2995 L
620 2963 L
620 2807 L
620 2840 L
620 2995 L
620 2709 L
620 2750 L
620 2825 L
620 2765 L
620 2664 L
620 2590 L
620 2585 L
620 2608 L
620 2340 L
620 2559 L
620 2452 L
620 2690 L
620 2434 L
620 2518 L
620 2278 L
620 2381 L
620 2399 L
620 2306 L
620 2458 L
620 2330 L
620 2472 L
620 2484 L
620 2369 L
620 2266 L
620 2269 L
620 2463 L
620 2331 L
620 2289 L
620 2309 L
620 2401 L
620 2300 L
620 2345 L
620 2266 L
620 2390 L
620 2401 L
620 2356 L
620 2377 L
620 2388 L
620 2244 L
620 2515 L
620 2443 L
620 2136 L
620 2403 L
620 2358 L
620 2443 L
620 2336 L
620 2375 L
620 2273 L
620 2392 L
620 2398 L
620 2550 L
620 2223 L
620 2380 L
620 2468 L
620 2488 L
620 2467 L
620 2452 L
620 2291 L
620 2315 L
620 2428 L
620 2367 L
620 2426 L
620 2458 L
620 2433 L
620 2465 L
620 2483 L
620 2350 L
620 2484 L
620 2417 L
620 2354 L
620 2542 L
620 2563 L
620 2380 L
620 2398 L
620 2586 L
620 2546 L
620 2535 L
620 2537 L
620 2378 L
620 2536 L
620 2589 L
620 2557 L
620 2444 L
620 2463 L
620 2471 L
620 2568 L
620 2576 L
620 2575 L
620 2474 L
620 2667 L
620 2611 L
620 2407 L
620 2683 L
620 2479 L
620 2503 L
620 2568 L
620 2540 L
620 2654 L
620 2564 L
620 2654 L
620 2652 L
620 2613 L
620 2578 L
620 2653 L
620 2515 L
620 2609 L
620 2757 L
620 2491 L
620 2773 L
620 2578 L
620 2455 L
620 2608 L
620 2774 L
620 2466 L
620 2546 L
620 2692 L
620 2735 L
620 2594 L
620 2563 L
620 2581 L
620 2795 L
620 2663 L
620 2715 L
620 2761 L
620 2763 L
620 2753 L
620 2866 L
620 2738 L
620 2833 L
620 2752 L
620 2768 L
620 2559 L
620 2666 L
620 2812 L
620 2539 L
620 2693 L
620 2714 L
620 2680 L
620 2842 L
620 2718 L
620 2778 L
620 2755 L
620 2763 L
620 2729 L
620 2752 L
620 2878 L
620 2672 L
620 2750 L
620 2674 L
620 2675 L
620 2786 L
620 2682 L
620 2812 L
620 2754 L
620 2846 L
620 2818 L
620 2933 L
620 2912 L
620 2843 L
620 2862 L
620 2759 L
620 2788 L
620 2686 L
620 2864 L
620 2817 L
620 2726 L
620 2867 L
620 2830 L
620 2894 L
620 2714 L
620 2733 L
620 3048 L
620 3020 L
620 2742 L
620 2872 L
620 2960 L
620 2863 L
620 2853 L
620 2901 L
620 2850 L
620 3023 L
620 2748 L
620 2862 L
620 2886 L
620 2815 L
620 2902 L
620 2916 L
620 2919 L
620 2869 L
620 2968 L
620 2923 L
620 2809 L
620 2821 L
620 2961 L
620 2926 L
620 2945 L
620 2844 L
620 3111 L
620 2935 L
620 2993 L
620 3197 L
620 3061 L
620 3211 L
620 3210 L
620 3295 L
620 3063 L
620 3248 L
620 3206 L
620 3259 L
620 3098 L
620 3151 L
620 3052 L
620 3110 L
620 3333 L
620 3180 L
620 3259 L
620 3129 L
620 3051 L
620 3066 L
620 2991 L
620 3127 L
620 3184 L
620 3253 L
620 3060 L
620 3140 L
620 3418 L
620 3083 L
620 3169 L
620 3093 L
620 3332 L
620 2978 L
620 3241 L
620 3187 L
620 3310 L
620 3145 L
620 3134 L
620 3150 L
620 3106 L
620 3334 L
620 3254 L
620 3091 L
620 3035 L
620 3050 L
620 3114 L
620 3321 L
620 3101 L
620 3139 L
620 3128 L
620 3284 L
620 3216 L
620 3059 L
620 3209 L
620 3101 L
620 3186 L
620 3078 L
620 3180 L
620 3202 L
620 3156 L
620 3089 L
620 3316 L
620 3083 L
620 3294 L
620 3114 L
620 3139 L
620 3196 L
620 2845 L
620 3047 L
620 3124 L
620 3132 L
620 3222 L
620 3201 L
620 3209 L
620 3104 L
620 2988 L
620 3140 L
620 3125 L
620 3191 L
620 3050 L
620 3067 L
620 2945 L
620 3149 L
620 3111 L
620 3022 L
620 3115 L
620 3034 L
620 3236 L
620 3014 L
620 3344 L
620 3159 L
620 2953 L
620 3145 L
620 3059 L
620 3096 L
620 3305 L
620 2974 L
620 2985 L
620 3145 L
620 3085 L
620 3010 L
620 3086 L
620 3159 L
620 3107 L
620 2935 L
620 3067 L
620 2806 L
620 2969 L
620 3104 L
620 3111 L
620 3019 L
620 2905 L
620 3156 L
620 2990 L
620 2825 L
620 3243 L
620 2933 L
620 2918 L
620 3270 L
620 3020 L
620 2933 L
620 3082 L
620 3006 L
620 2964 L
620 3163 L
620 3143 L
620 3049 L
620 3004 L
620 3038 L
620 2926 L
620 2931 L
620 3025 L
620 2971 L
620 3048 L
620 3071 L
620 2936 L
620 2986 L
620 3111 L
620 2826 L
620 3259 L
620 3019 L
620 3195 L
620 3156 L
620 2961 L
620 3036 L
620 2984 L
620 3077 L
620 3061 L
620 2914 L
620 2902 L
620 3157 L
620 2925 L
620 3034 L
620 3097 L
620 2969 L
620 2986 L
620 3008 L
620 2984 L
620 2937 L
620 2936 L
620 3086 L
620 2977 L
620 3040 L
620 2836 L
620 3028 L
620 3025 L
620 2932 L
620 2977 L
620 2996 L
620 3128 L
620 3108 L
620 3021 L
620 2946 L
620 2890 L
620 3060 L
620 3098 L
620 2989 L
620 2946 L
620 2962 L
620 3225 L
620 3113 L
620 3000 L
620 2894 L
620 2876 L
620 3101 L
620 3081 L
620 3082 L
620 3124 L
620 3071 L
620 2989 L
620 2923 L
620 3022 L
620 2919 L
620 2943 L
620 3078 L
620 3155 L
620 2971 L
620 2952 L
620 2993 L
620 3167 L
620 2979 L
620 2965 L
620 3152 L
620 3167 L
620 3033 L
620 3189 L
620 2773 L
620 2798 L
620 3147 L
620 3055 L
620 2860 L
620 3072 L
620 3034 L
620 3234 L
620 3066 L
620 3213 L
620 2898 L
620 3211 L
620 3049 L
620 3076 L
620 3063 L
620 3047 L
620 2970 L
620 3016 L
620 3009 L
620 3016 L
620 3054 L
620 2947 L
620 2803 L
620 3131 L
620 2952 L
620 2901 L
620 2982 L
620 3017 L
620 3092 L
620 3109 L
620 2865 L
620 3099 L
620 3080 L
620 2957 L
620 3085 L
620 2922 L
620 2941 L
620 3133 L
620 3023 L
620 3039 L
620 2888 L
620 3067 L
620 2771 L
620 2970 L
620 3070 L
L2 C05 COSGR

%
%================
% Legend - Begin
%================
%
GSN 4240 5180 M
4480 5180 L
LWMC SL  C05 COSGR
GSN 4540 5141 M helvM (2.5 uM) show grestore
%
%================
% Legend - End
%================
%

%
% Main frame
%
L10
GSN 
620 1700 M
4220 1700 L
4220 5300 L
620 5300 L
closepath SGR

%
% X axis: large tics
%
L10
%
% X axis: small tics
%
L5
%
% Y axis: large tics
%
L10
GSN 620 2228 M 54 0 rL SGR
GSN 4220 2228 M -54 0 rL SGR
helvS (-0.02) 560 2228 ylabel
GSN 620 2984 M 54 0 rL SGR
GSN 4220 2984 M -54 0 rL SGR
helvS (0) 560 2984 ylabel
GSN 620 3739 M 54 0 rL SGR
GSN 4220 3739 M -54 0 rL SGR
helvS (0.02) 560 3739 ylabel
GSN 620 4495 M 54 0 rL SGR
GSN 4220 4495 M -54 0 rL SGR
helvS (0.04) 560 4495 ylabel
GSN 620 5250 M 54 0 rL SGR
GSN 4220 5250 M -54 0 rL SGR
helvS (0.06) 560 5250 ylabel
%
% Y axis: small tics
%
L5
GSN 620 1851 M 36 0 rL SGR
GSN 4220 1851 M -36 0 rL SGR
GSN 620 2040 M 36 0 rL SGR
GSN 4220 2040 M -36 0 rL SGR
GSN 620 2228 M 36 0 rL SGR
GSN 4220 2228 M -36 0 rL SGR
GSN 620 2417 M 36 0 rL SGR
GSN 4220 2417 M -36 0 rL SGR
GSN 620 2606 M 36 0 rL SGR
GSN 4220 2606 M -36 0 rL SGR
GSN 620 2795 M 36 0 rL SGR
GSN 4220 2795 M -36 0 rL SGR
GSN 620 2984 M 36 0 rL SGR
GSN 4220 2984 M -36 0 rL SGR
GSN 620 3173 M 36 0 rL SGR
GSN 4220 3173 M -36 0 rL SGR
GSN 620 3362 M 36 0 rL SGR
GSN 4220 3362 M -36 0 rL SGR
GSN 620 3551 M 36 0 rL SGR
GSN 4220 3551 M -36 0 rL SGR
GSN 620 3739 M 36 0 rL SGR
GSN 4220 3739 M -36 0 rL SGR
GSN 620 3928 M 36 0 rL SGR
GSN 4220 3928 M -36 0 rL SGR
GSN 620 4117 M 36 0 rL SGR
GSN 4220 4117 M -36 0 rL SGR
GSN 620 4306 M 36 0 rL SGR
GSN 4220 4306 M -36 0 rL SGR
GSN 620 4495 M 36 0 rL SGR
GSN 4220 4495 M -36 0 rL SGR
GSN 620 4684 M 36 0 rL SGR
GSN 4220 4684 M -36 0 rL SGR
GSN 620 4873 M 36 0 rL SGR
GSN 4220 4873 M -36 0 rL SGR
GSN 620 5061 M 36 0 rL SGR
GSN 4220 5061 M -36 0 rL SGR
GSN 620 5250 M 36 0 rL SGR
GSN 4220 5250 M -36 0 rL SGR

%
% X axis - residual panel
%
GSN L5 620 2984 M 4220 2984 L SDA G50 SGR

%
% X-Axis label:
%
gsave 620 1370 M 
[
[(Helvetica) 180 0 true true 0 (t)]
[(Helvetica) 180 0 true true 0 (i)]
[(Helvetica) 180 0 true true 0 (m)]
[(Helvetica) 180 0 true true 0 (e)]
] 0 MCshow grestore

%
% Y-Axis label:
%
gsave 234 3499 M 
currentpoint gsave translate 90 rotate 0 0 moveto
[
[(Helvetica) 180 0 true true 0 (r)]
[(Helvetica) 180 0 true true 0 (e)]
[(Helvetica) 180 0 true true 0 (s)]
[(Helvetica) 180 0 true true 0 (i)]
[(Helvetica) 180 0 true true 0 (d)]
[(Helvetica) 180 0 true true 0 (u)]
[(Helvetica) 180 0 true true 0 (a)]
[(Helvetica) 180 0 true true 0 (l)]
[(Helvetica) 180 0 true true 0 (s)]
] 0 MCshow grestore

end
showpage
%%Trailer
%%EOF
