%!PS-Adobe-3.0 EPSF-3.0
%%BoundingBox: 0 0 514 550
%%Creator: BioKin Ltd.
%%DocumentFonts: Symbol Helvetica
%%EndComments
%
/bkdict 256 dict def
bkdict begin
/M {moveto} def 
/R {rmoveto} def
/L {lineto} def
/rL {rlineto} def
/GSN {gsave newpath} def
/SGR {stroke grestore} def
/COSGR {gsave setrgbcolor stroke grestore grestore} def
/SL {setlinewidth} def
/LWMB {12} def             % line width - model curves, black & white
/LWMC {10} def             % line width - model curves, color
/L2 {2.5 setlinewidth} def
/L5 {5 setlinewidth} def
/L10 {10 setlinewidth} def
/G50 {0.5 setgray} def
/SDA {[10  20] 0 setdash} def % axes
/helvT {/Helvetica findfont 100 scalefont setfont} def % tiny
/helvS {/Helvetica findfont 125 scalefont setfont} def % small
/helvM {/Helvetica findfont 150 scalefont setfont} def % medium
/helvL {/Helvetica findfont 175 scalefont setfont} def % large
/xlabel {gsave M dup
   stringwidth exch -0.5 mul exch rmoveto show grestore} def 
/ylabel {gsave M 90 rotate dup
   stringwidth exch -0.5 mul exch rmoveto show grestore} def
/ylabelresid {gsave M dup
   stringwidth exch -1 mul exch rmoveto show grestore} def
% ======
% Shapes
% ======
% Circle:
/Circ {0 360 arc closepath} def
%
% Square:
/Squa {dup dup -0.5 mul dup dup R -2 mul 0 exch rL 1 mul 0 rL dup 0 exch -1 mul rL closepath} def
%
% Triangle Up:
/TriU {dup dup dup -0.4 mul exch -0.5 mul exch R dup 0.5 mul exch rL dup -1 mul exch 0.5 mul exch rL closepath} def 
%
% Triangle Down:
/TriD {dup dup dup 0.4 mul exch -0.5 mul exch R dup 0.5 mul exch -1 mul rL dup 0.5 mul exch rL closepath} def 
%
% Diamond:
/Diam {45 rotate Squa} def
% ======
% Fills
% ======
/GRF {gsave setgray fill grestore} def                    % gray-level Fill
/COF {gsave setrgbcolor fill grestore} def                % color fill
% ======
% Colors
% ======
/C01 {1.00	0.00	0.00} def      % Red
/C02 {0.00	0.00	1.00} def      % Blue
/C03 {0.00	0.39	0.00} def      % Dark Green
/C04 {0.78	0.08	0.52} def      % Medium Violet Red
/C05 {0.55	0.27	0.07} def      % Saddle Brown
/C06 {0.10	0.70	0.70} def      % (cyan)
/C07 {1.00	0.55	0.00} def      % Dark Orange
/C08 {0.63	0.13	0.94} def      % Purple
/C09 {0.00	0.75	1.00} def      % Deep Sky Blue
/C10 {0.20	0.80	0.20} def      % Lime Green
/C11 {0.47	0.53	0.60} def      % Light Slate Gray
/C12 {0.00	0.00	0.00} def      % Black            % or: {0.19	0.31	0.31} def      % Dark Slate Gray
%
/LGR {0.75} def % light gray
/DGR {0.33} def % dark gray
%
% =============
% Dash patterns
% =============
/dash01 { [80  20] 0 setdash } def
/dash02 { [40  20] 0 setdash } def
/dash03 { [80  20  10  20] 0 setdash } def
/dash04 { [40  20  10  20] 0 setdash } def
/dash05 { [80  20  10  10  10  20] 0 setdash } def
/dash06 { [40  20  10  10  10  20] 0 setdash } def
/dash07 { [10  10] 0 setdash } def
%
/MFshow {
   { dup 5 get 3 ge
     { 5 get 3 eq {gsave} {grestore} ifelse }
     {dup dup 0 get findfont exch 1 get scalefont setfont
     [ currentpoint ] exch dup 2 get 0 exch R dup 5 get 2 ne {dup dup 6
     get exch 4 get {show} {stringwidth pop 0 R} ifelse }if dup 5 get 0 eq
     {dup 3 get {2 get neg 0 exch R pop} {pop aload pop M} ifelse} {dup 5
     get 1 eq {dup 2 get exch dup 3 get exch 6 get stringwidth pop -2 div
     dup 0 R} {dup 6 get stringwidth pop -2 div 0 R 6 get
     show 2 index {aload pop M neg 3 -1 roll neg R pop pop} {pop pop pop
     pop aload pop M} ifelse }ifelse }ifelse }
     ifelse }
   forall} bind def
/MFwidth {0 exch {dup 3 get{dup dup 0 get findfont exch 1 get scalefont
     setfont 6 get stringwidth pop add} {pop} ifelse} forall} bind def
/MCshow { currentpoint stroke M
  exch dup MFwidth -2 div 3 -1 roll R MFshow } def
%
end
%%EndProlog
bkdict begin
0.1 0.1 scale
%
% Model curves:
%

GSN 753 5166 M
753 5166 L
786 5160 L
820 5153 L
853 5145 L
886 5137 L
920 5127 L
929 5124 L
953 5116 L
986 5104 L
1020 5091 L
1053 5076 L
1086 5060 L
1106 5050 L
1120 5043 L
1153 5024 L
1186 5004 L
1220 4983 L
1253 4960 L
1282 4938 L
1286 4936 L
1319 4910 L
1353 4884 L
1386 4858 L
1419 4831 L
1453 4805 L
1459 4800 L
1486 4779 L
1519 4753 L
1553 4729 L
1586 4707 L
1619 4686 L
1635 4677 L
1653 4667 L
1686 4650 L
1719 4634 L
1753 4620 L
1786 4606 L
1812 4597 L
1819 4594 L
1853 4581 L
1886 4567 L
1919 4553 L
1953 4537 L
1986 4519 L
1988 4518 L
2019 4499 L
2053 4477 L
2086 4452 L
2119 4423 L
2153 4391 L
2165 4379 L
2186 4355 L
2219 4316 L
2253 4271 L
2286 4222 L
2319 4167 L
2341 4128 L
2353 4107 L
2386 4041 L
2419 3970 L
2453 3892 L
2486 3808 L
2518 3723 L
2519 3719 L
2553 3625 L
2586 3526 L
2619 3424 L
2653 3320 L
2686 3216 L
2694 3190 L
2719 3112 L
2753 3013 L
2786 2918 L
2819 2831 L
2853 2753 L
2871 2715 L
2886 2686 L
2919 2630 L
2953 2585 L
2986 2551 L
3019 2526 L
3047 2512 L
3053 2510 L
3086 2500 L
3119 2494 L
3153 2491 L
3186 2489 L
3219 2489 L
3224 2488 L
3253 2488 L
3286 2488 L
3319 2488 L
3353 2488 L
3386 2488 L
3400 2488 L
3419 2488 L
3453 2488 L
3476 2488 L
3486 2488 L
3519 2488 L
3553 2488 L
3577 2488 L
3586 2488 L
3619 2488 L
3653 2488 L
3686 2488 L
3719 2488 L
3753 2488 L
3754 2488 L
3786 2488 L
3819 2488 L
3853 2488 L
3886 2488 L
3919 2488 L
3930 2488 L
3953 2488 L
3986 2488 L
4019 2488 L
4053 2488 L
4086 2488 L
4086 2488 L
LWMC SL  C06 COSGR

%
% Experimental data:
%
GSN 777 4447 M
1388 4289 L
1552 4365 L
1652 5034 L
1723 4521 L
1778 4695 L
1824 4344 L
1863 4504 L
1896 4573 L
1926 4558 L
1952 4576 L
1976 4556 L
1998 4319 L
2019 4413 L
2037 4415 L
2055 4310 L
2071 4498 L
2086 4049 L
2101 4394 L
2115 4411 L
2128 4449 L
2140 4327 L
2152 4233 L
2163 4460 L
2174 4411 L
2184 4330 L
2194 4281 L
2204 4281 L
2213 4317 L
2222 4193 L
2230 4159 L
2239 4238 L
2247 4320 L
2255 4297 L
2262 4290 L
2270 4184 L
2277 4259 L
2284 4143 L
2290 3941 L
2297 4003 L
2303 4022 L
2310 4360 L
2316 4142 L
2322 4176 L
2328 4153 L
2333 3972 L
2339 4073 L
2344 4101 L
2350 3899 L
2355 3868 L
2360 4100 L
2365 4139 L
2370 4152 L
2375 4293 L
2380 4116 L
2384 3950 L
2389 4156 L
2393 3783 L
2398 4063 L
2402 3952 L
2407 3864 L
2411 4005 L
2415 3868 L
2419 4027 L
2423 3936 L
2427 3940 L
2431 3870 L
2435 4051 L
2438 3993 L
2442 3943 L
2446 3891 L
2449 3875 L
2453 3933 L
2456 4007 L
2460 3696 L
2463 3783 L
2467 3894 L
2470 3822 L
2473 3752 L
2476 3872 L
2480 3817 L
2483 3881 L
2486 3740 L
2489 3682 L
2492 3950 L
2495 3654 L
2498 3809 L
2501 3700 L
2504 3647 L
2507 3769 L
2510 3708 L
2512 3824 L
2515 3811 L
2518 3867 L
2521 3718 L
2523 3721 L
2526 3639 L
2529 3779 L
2531 3608 L
2534 3579 L
2536 3759 L
2539 3723 L
2541 3583 L
2544 3880 L
2546 3680 L
2549 3790 L
2551 3598 L
2554 3521 L
2556 3524 L
2558 3624 L
2561 3592 L
2563 3952 L
2565 3730 L
2568 3790 L
2570 3571 L
2572 3544 L
2574 3824 L
2576 3613 L
2579 3655 L
2581 3624 L
2583 3468 L
2585 3437 L
2587 3684 L
2589 3683 L
2591 3531 L
2593 3519 L
2595 3506 L
2597 3597 L
2599 3591 L
2601 3743 L
2603 3740 L
2605 3357 L
2607 3473 L
2609 3464 L
2611 3458 L
2613 3673 L
2615 3657 L
2617 3673 L
2618 3516 L
2620 3462 L
2622 3504 L
2624 3489 L
2626 3356 L
2627 3397 L
2629 3518 L
2631 3489 L
2633 3375 L
2634 3596 L
2636 3372 L
2638 3322 L
2640 3445 L
2641 3503 L
2643 3356 L
2645 3346 L
2646 3420 L
2648 3433 L
2650 3480 L
2651 3274 L
2653 3465 L
2654 3453 L
2656 3439 L
2658 3627 L
2659 3299 L
2661 3257 L
2662 3303 L
2664 3508 L
2665 3258 L
2667 3381 L
2668 3287 L
2670 3389 L
2671 3156 L
2673 3313 L
2674 3343 L
2676 3472 L
2677 3225 L
2679 3504 L
2680 3241 L
2682 3047 L
2683 3168 L
2685 3180 L
2686 3222 L
2687 3211 L
2689 3421 L
2690 3277 L
2692 3157 L
2693 3222 L
2694 3235 L
2696 3356 L
2697 3121 L
2698 3191 L
2700 3146 L
2701 3223 L
2702 3172 L
2704 3114 L
2705 3187 L
2706 3250 L
2708 3017 L
2709 3081 L
2710 3092 L
2712 3270 L
2713 3241 L
2714 3079 L
2715 3342 L
2717 2990 L
2718 3201 L
2719 2986 L
2720 3148 L
2722 3157 L
2723 2988 L
2724 3133 L
2725 3194 L
2726 2998 L
2728 3182 L
2729 3224 L
2730 3236 L
2731 3183 L
2732 3137 L
2734 3154 L
2735 3192 L
2736 2917 L
2737 3026 L
2738 3018 L
2739 3008 L
2741 3228 L
2742 3253 L
2743 3118 L
2744 3107 L
2745 3120 L
2746 2772 L
2747 2990 L
2748 3219 L
2749 3242 L
2751 3059 L
2752 3036 L
2753 2988 L
2754 3190 L
2755 3091 L
2756 3232 L
2757 3054 L
2758 2912 L
2759 2954 L
2760 3055 L
2761 3043 L
2762 3006 L
2763 3151 L
2764 3003 L
2765 2928 L
2767 2920 L
2768 3047 L
2769 2968 L
2770 3021 L
2771 3094 L
2772 2969 L
2773 3072 L
2774 2966 L
2775 2920 L
2776 2864 L
2777 2970 L
2778 3006 L
2779 3018 L
2780 2887 L
2781 2771 L
2782 3032 L
2783 3063 L
2783 2879 L
2784 2985 L
2785 2904 L
2786 2742 L
2787 2869 L
2788 3004 L
2789 3014 L
2790 2939 L
2791 2885 L
2792 3112 L
2793 2829 L
2794 2887 L
2795 2980 L
2796 2862 L
2797 3009 L
2798 2960 L
2798 2799 L
2799 2738 L
2800 2689 L
2801 2931 L
2802 2717 L
2803 2811 L
2804 2839 L
2805 3014 L
2806 2859 L
2807 2949 L
2807 2803 L
2808 2891 L
2809 2855 L
2810 2795 L
2811 2725 L
2812 2985 L
2813 2647 L
2813 2874 L
2814 2703 L
2815 2960 L
2816 2830 L
2817 2939 L
2818 3040 L
2819 2709 L
2819 2780 L
2820 2955 L
2821 2781 L
2822 2684 L
2823 2760 L
2824 2916 L
2824 2952 L
2825 2780 L
2826 2907 L
2827 2853 L
2828 2668 L
2828 2801 L
2829 2921 L
2830 2866 L
2831 2793 L
2832 2727 L
2832 2811 L
2833 2833 L
2834 2724 L
2835 2748 L
2836 2849 L
2836 2698 L
2837 2785 L
2838 2844 L
2839 2727 L
2840 2685 L
2840 2677 L
2841 2562 L
2842 2882 L
2843 2565 L
2843 2684 L
2844 2880 L
2845 2738 L
2846 2698 L
2846 2610 L
2847 2678 L
2848 2795 L
2849 2726 L
2849 2709 L
2850 2836 L
2851 2698 L
2852 2885 L
2852 2759 L
2853 2802 L
2854 2709 L
2855 2749 L
2855 2620 L
2856 2743 L
2857 2925 L
2857 2609 L
2858 2869 L
2859 2729 L
2860 2661 L
2860 2632 L
2861 2774 L
2862 2660 L
2862 2767 L
2863 2775 L
2864 2596 L
2865 2729 L
2865 2866 L
2866 2787 L
2867 2709 L
2867 2531 L
2868 2584 L
2869 2684 L
2869 2748 L
2870 2758 L
2871 2559 L
2871 2620 L
2872 2587 L
2873 2710 L
2873 2625 L
2874 2524 L
2875 2859 L
2876 2735 L
2876 2604 L
2877 2601 L
2878 2842 L
2878 2569 L
2879 2465 L
2880 2602 L
2880 2696 L
2881 2739 L
2881 2758 L
2882 2577 L
2883 2690 L
2883 2705 L
2884 2521 L
2885 2644 L
2885 2461 L
2886 2709 L
2887 2615 L
2887 2516 L
2888 2824 L
2889 2759 L
2889 2738 L
2892 2683 L
2894 2572 L
2897 2560 L
2899 2480 L
2902 2530 L
2904 2688 L
2907 2507 L
2909 2360 L
2911 2531 L
2914 2471 L
2916 2459 L
2918 2592 L
2921 2430 L
2923 2582 L
2925 2442 L
2927 2465 L
2929 2488 L
2932 2465 L
2934 2371 L
2936 2247 L
2938 2459 L
2940 2543 L
2942 2319 L
2944 2124 L
2946 2439 L
2948 2413 L
2950 2242 L
2952 2499 L
2954 2372 L
2956 2505 L
2958 2217 L
2960 2343 L
2962 2284 L
2964 2115 L
2966 2365 L
2968 2270 L
2970 2560 L
2971 2314 L
2973 2284 L
2975 2374 L
2977 2515 L
2979 2365 L
2980 2266 L
2982 2434 L
2984 2320 L
2986 2179 L
2987 2299 L
2989 2244 L
2991 2203 L
2993 2415 L
2994 2341 L
2996 2251 L
2998 2273 L
2999 2164 L
3001 2086 L
3003 2263 L
3004 2308 L
3006 2101 L
3007 2292 L
3009 2350 L
3011 2231 L
3012 2080 L
3014 2113 L
3015 2352 L
3017 2207 L
3018 2196 L
3020 2273 L
3021 2189 L
3023 2208 L
3024 2160 L
3026 2117 L
3027 2380 L
3029 2273 L
3030 2126 L
3032 2057 L
3033 1995 L
3035 2258 L
3036 2133 L
3038 2114 L
3039 2077 L
3040 2179 L
3042 2155 L
3043 2110 L
3045 2052 L
3046 2158 L
3047 2121 L
3049 2285 L
3050 2164 L
3051 2166 L
3053 2119 L
3054 2137 L
3055 2095 L
3057 2059 L
3058 1868 L
3059 2006 L
3061 1951 L
3062 2070 L
3063 2214 L
3065 2039 L
3066 2086 L
3067 2138 L
3068 2208 L
3070 2210 L
3071 2138 L
3072 2128 L
3073 2073 L
3075 2248 L
3076 2108 L
3077 2107 L
3078 2254 L
3079 2111 L
3081 2114 L
3082 2089 L
3083 2150 L
3084 2045 L
3085 2047 L
3087 2234 L
3088 1997 L
3089 1896 L
3090 2118 L
3091 1920 L
3092 2167 L
3094 2073 L
3095 2079 L
3096 2207 L
3097 2087 L
3098 2046 L
3099 1981 L
3100 2082 L
3101 2087 L
3103 2143 L
3104 2073 L
3105 2108 L
3106 1920 L
3107 2118 L
3108 2030 L
3109 2167 L
3110 1911 L
3111 2097 L
3112 2048 L
3113 1884 L
3114 2112 L
3115 2019 L
3116 1928 L
3117 2105 L
3119 2019 L
3120 1977 L
3121 2113 L
3122 2037 L
3123 2057 L
3124 1960 L
3125 2117 L
3126 2101 L
3127 2170 L
3128 2097 L
3129 2138 L
3130 1912 L
3131 2073 L
3132 1998 L
3133 1940 L
3134 2126 L
3135 2077 L
3136 1837 L
3136 1865 L
3137 1872 L
3138 2040 L
3139 2024 L
3140 2112 L
3141 1994 L
3142 1928 L
3143 2072 L
3144 2109 L
3145 1949 L
3146 1928 L
3147 1850 L
3148 2063 L
3149 2037 L
3150 2078 L
3151 1897 L
3151 1969 L
3152 2056 L
3153 2159 L
3154 1962 L
3155 2005 L
3156 1871 L
3157 2005 L
3158 2179 L
3159 2052 L
3160 2001 L
3160 2109 L
3161 2017 L
3162 1889 L
3163 2231 L
3164 1880 L
3165 2055 L
3166 2104 L
3166 1848 L
3167 2087 L
3168 2055 L
3169 2075 L
3170 2149 L
3171 1861 L
3172 2086 L
3172 2128 L
3173 2014 L
3174 1899 L
3175 2226 L
3176 2013 L
3177 1978 L
3177 2129 L
3178 2249 L
3179 2103 L
3180 1953 L
3181 2205 L
3181 2169 L
3182 2198 L
3183 1936 L
3184 2059 L
3185 1871 L
3185 1949 L
3186 2036 L
3187 1884 L
3188 2157 L
3189 2061 L
3189 2036 L
3190 2172 L
3191 2121 L
3192 2081 L
3193 1925 L
3193 2135 L
3194 2120 L
3195 2101 L
3196 2115 L
3196 2083 L
3197 1953 L
3198 2050 L
3199 2076 L
3199 2181 L
3200 1906 L
3201 2238 L
3202 2024 L
3202 1988 L
3203 1875 L
3204 2053 L
3205 2046 L
3205 1922 L
3206 2202 L
3207 2078 L
3208 2037 L
3208 1943 L
3209 1952 L
3210 2365 L
3210 1985 L
3211 2147 L
3212 2181 L
3213 2263 L
3213 1959 L
3214 2097 L
3215 2333 L
3215 2196 L
3216 2123 L
3217 2099 L
3218 1913 L
3218 2222 L
3219 2182 L
3220 2022 L
3220 2213 L
3221 2152 L
3222 2103 L
3222 2073 L
3223 2215 L
3224 2212 L
3224 2169 L
3225 2058 L
3226 1865 L
3227 1948 L
3227 2322 L
3228 2145 L
3229 1908 L
3229 2263 L
3230 1986 L
3231 2319 L
3231 1833 L
3232 2179 L
3233 2095 L
3233 1955 L
3234 2205 L
3235 2080 L
3235 2328 L
3236 2053 L
3236 2247 L
3237 2165 L
3238 2107 L
3238 2029 L
3239 2032 L
3240 2126 L
3240 2149 L
3241 1966 L
3242 2214 L
3242 2260 L
3243 2325 L
3244 1964 L
3244 2002 L
3245 2174 L
3245 2123 L
3246 2051 L
3247 2150 L
3247 2104 L
3248 2220 L
3249 2098 L
3249 2111 L
3250 2060 L
3250 2121 L
3251 2046 L
3252 2380 L
3252 2015 L
3253 2146 L
3253 2077 L
3254 2138 L
3255 2005 L
3255 2215 L
3256 2070 L
3257 2216 L
3257 2174 L
3258 1982 L
3258 2187 L
3259 1953 L
3259 2236 L
3260 2241 L
3261 2115 L
3261 2145 L
3262 2145 L
3262 2084 L
3263 2132 L
3264 2104 L
3264 2200 L
3265 2081 L
3265 2104 L
3266 2085 L
3267 2152 L
3267 2276 L
3268 2116 L
3268 2128 L
3269 2126 L
3269 2080 L
3270 2220 L
3271 1993 L
3271 2285 L
3272 2023 L
3272 1979 L
3273 2085 L
3273 2256 L
3274 1988 L
3275 2263 L
3275 2161 L
3276 2100 L
3276 2313 L
3277 2367 L
3277 2288 L
3278 2268 L
3278 2342 L
3279 2291 L
3280 2061 L
3280 1998 L
3281 2164 L
3281 1893 L
3282 2290 L
3282 1972 L
3283 2173 L
3283 2138 L
3284 2479 L
3284 2039 L
3285 2247 L
3285 2321 L
3286 2074 L
3287 2244 L
3287 2097 L
3288 2284 L
3288 2248 L
3289 2047 L
3289 2198 L
3290 2145 L
3290 2246 L
3291 2207 L
3291 2312 L
3292 2230 L
3292 2326 L
3293 2155 L
3293 2111 L
3294 2185 L
3294 2340 L
3295 2056 L
3295 2191 L
3296 2282 L
3297 2036 L
3297 2171 L
3298 2066 L
3298 2109 L
3299 2316 L
3299 2255 L
3300 2169 L
3300 2221 L
3301 2295 L
3301 2246 L
3302 2097 L
3302 2137 L
3303 2129 L
3303 2087 L
3304 2039 L
3304 2105 L
3305 2114 L
3305 2166 L
3306 2070 L
3306 2317 L
3307 2329 L
3307 2181 L
3308 2294 L
3308 2391 L
3309 2184 L
3309 2164 L
3310 2309 L
3310 2163 L
3311 2096 L
3311 2161 L
3312 2164 L
3312 2280 L
3312 2378 L
3313 2201 L
3313 2215 L
3314 2387 L
3314 2282 L
3315 2444 L
3315 2174 L
3316 2111 L
3316 2240 L
3317 2292 L
3317 2190 L
3318 2056 L
3318 2381 L
3319 2196 L
3319 2278 L
3320 2376 L
3320 2276 L
3321 2196 L
3321 2306 L
3321 2336 L
3322 2074 L
3322 2092 L
3323 2222 L
3323 2349 L
3324 2425 L
3324 2341 L
3325 2302 L
3325 2345 L
3326 2253 L
3326 2337 L
3327 2183 L
3327 2108 L
3327 2403 L
3328 2151 L
3328 2166 L
3329 2157 L
3329 2492 L
3330 2343 L
3330 2244 L
3331 2282 L
3331 2249 L
3332 2300 L
3332 2277 L
3332 2455 L
3333 2350 L
3333 2113 L
3334 2330 L
3334 2220 L
3335 2343 L
3335 2191 L
3336 1983 L
3336 2200 L
3336 2303 L
3337 2151 L
3337 2278 L
3338 2330 L
3338 2209 L
3339 2354 L
3339 2420 L
3339 2269 L
3340 2261 L
3340 2186 L
3341 2379 L
3341 2391 L
3342 2196 L
3342 2398 L
3343 2295 L
3343 1990 L
3343 2246 L
3344 2190 L
3344 2322 L
3345 2191 L
3345 2287 L
3346 2135 L
3346 2282 L
3346 2197 L
3347 2486 L
3347 2425 L
3348 2405 L
3348 2311 L
3348 2372 L
3349 2249 L
3349 2284 L
3350 2419 L
3350 2336 L
3351 2155 L
3351 2279 L
3351 2268 L
3352 2292 L
3352 2109 L
3353 2572 L
3353 2460 L
3353 2496 L
3354 2091 L
3354 2550 L
3355 2280 L
3355 2415 L
3355 2225 L
3356 2408 L
3356 2296 L
3357 2471 L
3357 2239 L
3358 2273 L
3358 2328 L
3358 2451 L
3359 2333 L
3359 2316 L
3360 2426 L
3360 2357 L
3360 2311 L
3361 2476 L
3361 2418 L
3362 2244 L
3362 2523 L
3362 2183 L
3363 2444 L
3363 2449 L
3364 2351 L
3364 2309 L
3364 2323 L
3365 2503 L
3365 2293 L
3365 2246 L
3366 2387 L
3366 2267 L
3367 2191 L
3367 2533 L
3367 2397 L
3368 2478 L
3368 2336 L
3369 2301 L
3369 2306 L
3369 2359 L
3370 2317 L
3370 2282 L
3371 2432 L
3371 2287 L
3371 2376 L
3372 2377 L
3372 2512 L
3372 2372 L
3373 2328 L
3373 2415 L
3374 2328 L
3374 2584 L
3374 2373 L
3375 2484 L
3375 2376 L
3375 2448 L
3376 2414 L
3376 2467 L
3377 2517 L
3377 2425 L
3377 2476 L
3378 2467 L
3378 2415 L
3378 2381 L
3379 2323 L
3379 2379 L
3380 2266 L
3380 2291 L
3380 2454 L
3381 2366 L
3381 2328 L
3381 2562 L
3382 2536 L
3382 2308 L
3383 2386 L
3383 2315 L
3383 2330 L
3384 2505 L
3384 2408 L
3384 2400 L
3385 2336 L
3385 2387 L
3385 2249 L
3386 2344 L
3386 2582 L
3387 2428 L
3387 2382 L
3387 2495 L
3388 2497 L
3388 2361 L
3388 2577 L
3389 2512 L
3389 2459 L
3389 2647 L
3390 2450 L
3390 2410 L
3391 2244 L
3391 2515 L
3391 2379 L
3392 2622 L
3392 2467 L
3392 2278 L
3393 2355 L
3393 2566 L
3393 2428 L
3394 2222 L
3394 2365 L
3394 2509 L
3395 2459 L
3395 2623 L
3395 2502 L
3396 2301 L
3396 2564 L
3396 2566 L
3397 2420 L
3397 2366 L
3398 2634 L
3398 2446 L
3398 2606 L
3399 2608 L
3399 2500 L
3399 2388 L
3400 2531 L
3400 2584 L
3400 2418 L
3401 2430 L
3401 2389 L
3401 2410 L
3402 2470 L
3402 2611 L
3402 2361 L
3403 2460 L
3403 2509 L
3403 2585 L
3404 2521 L
3404 2587 L
3404 2549 L
3405 2552 L
3405 2470 L
3405 2350 L
3406 2568 L
3406 2379 L
3406 2392 L
3407 2347 L
3407 2529 L
3407 2386 L
3408 2519 L
3408 2539 L
3408 2369 L
3409 2544 L
3409 2461 L
3409 2501 L
3410 2538 L
3410 2584 L
3410 2570 L
3411 2528 L
3411 2516 L
3411 2671 L
3412 2531 L
3412 2447 L
3412 2590 L
3413 2635 L
3413 2506 L
3413 2343 L
3414 2480 L
3414 2393 L
3414 2304 L
3415 2435 L
3415 2352 L
3415 2537 L
3416 2560 L
3416 2412 L
3416 2389 L
3417 2567 L
3417 2358 L
3417 2622 L
3417 2494 L
3418 2436 L
3418 2499 L
3418 2578 L
3419 2520 L
3419 2518 L
3419 2347 L
3420 2572 L
3420 2449 L
3420 2485 L
3421 2517 L
3421 2652 L
3421 2413 L
3422 2412 L
3422 2341 L
3422 2572 L
3423 2420 L
3423 2396 L
3423 2461 L
3423 2535 L
3424 2531 L
3424 2583 L
3424 2407 L
3425 2460 L
3425 2355 L
3425 2416 L
3426 2474 L
3426 2467 L
3426 2553 L
3427 2488 L
3427 2589 L
3427 2631 L
3428 2550 L
3428 2645 L
3428 2544 L
3428 2517 L
3429 2350 L
3429 2340 L
3429 2562 L
3430 2535 L
3430 2406 L
3430 2465 L
3431 2488 L
3431 2492 L
3431 2596 L
3431 2642 L
3432 2723 L
3432 2732 L
3432 2604 L
3433 2570 L
3433 2513 L
3433 2507 L
3434 2647 L
3434 2700 L
3434 2427 L
3434 2613 L
3435 2623 L
3435 2679 L
3435 2543 L
3436 2718 L
3436 2521 L
3436 2563 L
3437 2638 L
3437 2618 L
3437 2475 L
3437 2620 L
3438 2582 L
3438 2584 L
3438 2511 L
3439 2456 L
3439 2573 L
3439 2557 L
3440 2517 L
3440 2465 L
3440 2688 L
3440 2390 L
3441 2580 L
3441 2707 L
3441 2596 L
3442 2553 L
3442 2659 L
3442 2591 L
3442 2474 L
3443 2516 L
3443 2531 L
3443 2655 L
3444 2539 L
3444 2596 L
3444 2441 L
3444 2573 L
3445 2514 L
3445 2532 L
3445 2375 L
3446 2628 L
3446 2377 L
3446 2611 L
3446 2430 L
3447 2529 L
3447 2669 L
3447 2444 L
3448 2381 L
3448 2755 L
3448 2736 L
3448 2495 L
3449 2722 L
3449 2605 L
3449 2489 L
3450 2685 L
3450 2484 L
3450 2666 L
3450 2668 L
3451 2503 L
3451 2587 L
3451 2631 L
3452 2615 L
3452 2653 L
3452 2643 L
3452 2724 L
3453 2449 L
3453 2743 L
3453 2654 L
3454 2632 L
3454 2548 L
3454 2432 L
3454 2521 L
3455 2410 L
3455 2352 L
3455 2609 L
3455 2778 L
3456 2459 L
3456 2496 L
3456 2579 L
3457 2700 L
3457 2675 L
3457 2506 L
3457 2622 L
3458 2539 L
3458 2599 L
3458 2642 L
3458 2734 L
3459 2596 L
3459 2656 L
3459 2557 L
3460 2502 L
3460 2631 L
3460 2613 L
3460 2501 L
3461 2674 L
3461 2618 L
3461 2504 L
3461 2770 L
3462 2724 L
3462 2630 L
3462 2551 L
3463 2561 L
3463 2698 L
3463 2301 L
3463 2572 L
3464 2588 L
3464 2685 L
3464 2652 L
3464 2427 L
3465 2478 L
3465 2417 L
3465 2611 L
3465 2712 L
3466 2598 L
3466 2517 L
3466 2448 L
3466 2615 L
3467 2711 L
3467 2701 L
3467 2634 L
3468 2654 L
3468 2444 L
3468 2630 L
3468 2577 L
3469 2758 L
3469 2648 L
3469 2688 L
3469 2633 L
3470 2504 L
3470 2482 L
3470 2614 L
3470 2777 L
3471 2664 L
3471 2497 L
3471 2497 L
3471 2512 L
3472 2596 L
3472 2482 L
3472 2630 L
3472 2370 L
3473 2681 L
3473 2572 L
3473 2592 L
3474 2760 L
3474 2735 L
3474 2632 L
3474 2613 L
3475 2837 L
3475 2748 L
3475 2719 L
3475 2724 L
3476 2661 L
3476 2642 L
3476 2801 L
3476 2533 L
3477 2634 L
3477 2613 L
3477 2619 L
3477 2608 L
3478 2645 L
3478 2654 L
3478 2632 L
3478 2633 L
3479 2485 L
3479 2505 L
3479 2715 L
3479 2666 L
3480 2619 L
3480 2650 L
3480 2630 L
3480 2581 L
3481 2480 L
3481 2645 L
3481 2771 L
3481 2577 L
3482 2640 L
3482 2739 L
3482 2636 L
3482 2501 L
3483 2509 L
3483 2761 L
3483 2671 L
3483 2601 L
3484 2667 L
3484 2637 L
3484 2607 L
3484 2626 L
3485 2454 L
3485 2617 L
3485 2659 L
3485 2927 L
3486 2675 L
3486 2658 L
3486 2649 L
3486 2527 L
3487 2519 L
3487 2760 L
3487 2693 L
3487 2787 L
3488 2610 L
3488 2688 L
3488 2450 L
3488 2729 L
3488 2790 L
3489 2702 L
3489 2375 L
3489 2570 L
3489 2839 L
3490 2669 L
3490 2736 L
3490 2636 L
3490 2641 L
3491 2641 L
3491 2480 L
3491 2687 L
3491 2654 L
3492 2767 L
3492 2510 L
3492 2598 L
3492 2615 L
3493 2615 L
3493 2605 L
3493 2749 L
3493 2711 L
3494 2761 L
3494 2597 L
3494 2689 L
3494 2643 L
3494 2529 L
3495 2719 L
3495 2588 L
3495 2633 L
3495 2562 L
3496 2603 L
3496 2506 L
3496 2666 L
3496 2688 L
3497 2716 L
3497 2807 L
3497 2744 L
3497 2567 L
3498 2692 L
3498 2707 L
3498 2729 L
3498 2570 L
3498 2662 L
3499 2429 L
3499 2669 L
3499 2693 L
3499 2562 L
3500 2666 L
3500 2819 L
3506 2395 L
3511 2685 L
3517 2519 L
3522 2703 L
3527 2708 L
3532 2901 L
3537 2599 L
3542 2766 L
3547 2752 L
3552 2888 L
3557 2845 L
3561 2826 L
3566 2808 L
3570 2904 L
3575 2726 L
3579 2860 L
3583 2826 L
3587 2785 L
3591 2741 L
3595 2696 L
3599 2700 L
3603 2990 L
3607 2850 L
3611 2925 L
3614 2935 L
3618 2623 L
3622 2766 L
3625 2852 L
3629 2895 L
3632 2928 L
3636 2795 L
3639 2860 L
3642 2940 L
3646 2793 L
3649 2831 L
3652 2920 L
3655 2848 L
3658 2761 L
3661 2893 L
3664 2787 L
3667 3111 L
3670 2937 L
3673 2762 L
3676 2937 L
3679 3004 L
3682 2852 L
3685 2935 L
3688 2756 L
3690 2866 L
3693 2872 L
3696 3032 L
3698 2769 L
3701 2770 L
3704 3129 L
3706 2937 L
3709 3004 L
3711 3016 L
3714 2939 L
3716 2819 L
3719 2746 L
3721 3127 L
3724 2710 L
3726 2859 L
3728 2939 L
3731 2905 L
3733 2787 L
3735 3101 L
3738 2792 L
3740 2831 L
3742 2853 L
3744 2966 L
3747 3038 L
3749 2833 L
3751 2852 L
3753 2915 L
3755 2829 L
3757 2874 L
3760 3020 L
3762 2848 L
3764 2889 L
3766 2839 L
3768 2918 L
3770 2801 L
3772 2821 L
3774 2966 L
3776 3033 L
3778 2905 L
3780 2850 L
3781 2941 L
3783 2901 L
3785 2889 L
3787 2963 L
3789 2915 L
3791 2915 L
3793 2832 L
3795 2905 L
3796 2854 L
3798 2780 L
3800 2967 L
3802 2972 L
3803 2935 L
3805 2869 L
3807 2808 L
3809 2977 L
3810 2892 L
3812 2947 L
3814 2940 L
3816 2898 L
3817 2943 L
3819 2907 L
3820 2663 L
3822 2884 L
3824 2997 L
3825 3032 L
3827 2939 L
3829 2877 L
3830 2970 L
3832 2958 L
3833 2920 L
3835 2987 L
3836 3016 L
3838 3159 L
3839 2990 L
3841 3076 L
3842 2903 L
3844 3011 L
3845 3006 L
3847 3018 L
3848 2980 L
3850 2820 L
3851 2833 L
3853 2989 L
3854 2791 L
3856 2937 L
3857 3009 L
3859 2945 L
3860 2938 L
3861 3166 L
3863 2774 L
3864 2887 L
3866 2850 L
3867 2845 L
3868 2922 L
3870 2905 L
3871 3082 L
3872 2994 L
3874 2930 L
3875 2975 L
3876 3095 L
3878 3207 L
3879 2853 L
3880 3000 L
3882 2976 L
3883 2879 L
3884 3009 L
3885 2930 L
3887 2979 L
3888 2887 L
3889 2848 L
3890 2927 L
3892 2892 L
3893 2974 L
3894 3113 L
3895 3012 L
3897 2852 L
3898 3054 L
3899 2590 L
3900 2817 L
3901 2892 L
3903 3067 L
3904 2937 L
3905 2760 L
3906 2874 L
3907 2900 L
3908 2986 L
3910 3086 L
3911 2870 L
3912 3169 L
3913 2978 L
3914 2832 L
3915 2853 L
3917 3004 L
3918 3089 L
3919 2961 L
3920 2904 L
3921 3009 L
3922 2867 L
3923 2966 L
3924 3033 L
3925 2951 L
3926 2993 L
3928 3025 L
3929 3065 L
3930 2810 L
3931 3094 L
3932 3117 L
3933 2976 L
3934 2785 L
3935 3106 L
3936 3139 L
3937 2921 L
3938 2897 L
3939 3151 L
3940 3027 L
3941 2852 L
3942 2884 L
3943 2889 L
3944 3018 L
3945 2762 L
3946 2843 L
3947 2934 L
3948 2817 L
3949 2785 L
3950 2943 L
3951 2889 L
3952 2696 L
3953 2901 L
3954 2895 L
3955 2816 L
3956 3007 L
3957 2814 L
3958 2897 L
3959 2948 L
3960 2920 L
3961 2925 L
3962 3031 L
3963 2796 L
3964 2960 L
3965 2849 L
3966 3042 L
3966 2886 L
3967 2866 L
3968 3105 L
3969 2732 L
3970 3000 L
3971 2777 L
3972 3013 L
3973 2811 L
3974 2881 L
3975 2915 L
3976 3103 L
3976 2857 L
3977 2938 L
3978 2997 L
3979 2925 L
3980 2835 L
3981 3098 L
3982 2874 L
3983 2921 L
3983 2910 L
3984 2968 L
3985 3054 L
3986 3010 L
3987 2947 L
3988 2920 L
3989 2932 L
3989 2970 L
3990 2792 L
3991 2969 L
3992 2930 L
3993 3059 L
3994 2816 L
3995 2833 L
3995 2990 L
3996 2814 L
3997 2823 L
3998 2912 L
3999 2880 L
3999 2847 L
4000 2874 L
4001 2932 L
4002 2819 L
4003 3004 L
4003 2918 L
4004 3162 L
4005 2947 L
4006 2780 L
4007 3149 L
4007 2927 L
4008 2879 L
4009 2881 L
4010 3004 L
4011 2804 L
4011 3033 L
4012 2944 L
4013 2893 L
4014 2851 L
4014 3024 L
4015 3049 L
4016 2791 L
4017 2756 L
4017 2937 L
4018 2838 L
4019 3060 L
4020 2811 L
4021 2873 L
4021 2924 L
4022 2864 L
4023 2920 L
4023 2931 L
4024 3021 L
4025 2923 L
4026 2835 L
4026 3004 L
4027 2867 L
4028 2896 L
4029 2825 L
4029 2903 L
4030 2981 L
4031 2896 L
4032 2888 L
4032 3036 L
4033 3197 L
4034 2936 L
4034 2850 L
4035 3018 L
4036 2698 L
4036 2901 L
4037 2957 L
4038 2940 L
4039 2990 L
4039 2775 L
4040 2938 L
4041 2888 L
4041 3024 L
4042 2980 L
4043 2853 L
4043 2857 L
4044 3005 L
4045 2821 L
4045 2989 L
4046 2995 L
4047 2916 L
4047 2806 L
4048 3150 L
4049 2869 L
4050 2907 L
4050 2927 L
4051 3098 L
4052 2865 L
4052 2942 L
4053 2881 L
4053 2985 L
4054 3045 L
4055 2900 L
4055 2639 L
4056 2959 L
4057 2998 L
4057 2941 L
4058 2995 L
4059 2874 L
4059 3070 L
4060 2935 L
4061 2756 L
4061 2816 L
4062 2976 L
L2 C06 COSGR

%
%================
% Legend - Begin
%================
%
GSN 4240 5180 M
4480 5180 L
LWMC SL  C06 COSGR
GSN 4540 5141 M helvM (3.0 uM) show grestore
%
%================
% Legend - End
%================
%

%
% Residuals:
%
GSN 777 750 M
1388 834 L
1552 950 L
1652 1368 L
1723 1095 L
1778 1207 L
1824 1017 L
1863 1117 L
1896 1164 L
1926 1163 L
1952 1180 L
1976 1176 L
1998 1048 L
2019 1109 L
2037 1117 L
2055 1064 L
2071 1178 L
2086 928 L
2101 1132 L
2115 1149 L
2128 1177 L
2140 1115 L
2152 1067 L
2163 1204 L
2174 1182 L
2184 1143 L
2194 1121 L
2204 1127 L
2213 1155 L
2222 1090 L
2230 1077 L
2239 1128 L
2247 1182 L
2255 1175 L
2262 1177 L
2270 1123 L
2277 1172 L
2284 1111 L
2290 1002 L
2297 1043 L
2303 1060 L
2310 1259 L
2316 1140 L
2322 1166 L
2328 1158 L
2333 1061 L
2339 1124 L
2344 1146 L
2350 1036 L
2355 1024 L
2360 1162 L
2365 1190 L
2370 1203 L
2375 1289 L
2380 1193 L
2384 1104 L
2389 1227 L
2393 1019 L
2398 1185 L
2402 1127 L
2407 1082 L
2411 1168 L
2415 1095 L
2419 1190 L
2423 1144 L
2427 1151 L
2431 1116 L
2435 1225 L
2438 1196 L
2442 1173 L
2446 1148 L
2449 1144 L
2453 1182 L
2456 1229 L
2460 1056 L
2463 1111 L
2467 1179 L
2470 1143 L
2473 1108 L
2476 1180 L
2480 1154 L
2483 1195 L
2486 1119 L
2489 1091 L
2492 1248 L
2495 1084 L
2498 1177 L
2501 1119 L
2504 1093 L
2507 1167 L
2510 1137 L
2512 1207 L
2515 1204 L
2518 1240 L
2521 1160 L
2523 1166 L
2526 1123 L
2529 1207 L
2531 1114 L
2534 1101 L
2536 1208 L
2539 1191 L
2541 1116 L
2544 1290 L
2546 1179 L
2549 1246 L
2551 1140 L
2554 1101 L
2556 1106 L
2558 1167 L
2561 1153 L
2563 1362 L
2565 1239 L
2568 1278 L
2570 1156 L
2572 1145 L
2574 1308 L
2576 1191 L
2579 1219 L
2581 1205 L
2583 1119 L
2585 1105 L
2587 1250 L
2589 1253 L
2591 1170 L
2593 1166 L
2595 1162 L
2597 1218 L
2599 1218 L
2601 1308 L
2603 1310 L
2605 1095 L
2607 1164 L
2609 1163 L
2611 1163 L
2613 1289 L
2615 1283 L
2617 1295 L
2618 1209 L
2620 1181 L
2622 1209 L
2624 1203 L
2626 1130 L
2627 1157 L
2629 1229 L
2631 1216 L
2633 1154 L
2634 1283 L
2636 1158 L
2638 1133 L
2640 1206 L
2641 1242 L
2643 1161 L
2645 1158 L
2646 1204 L
2648 1214 L
2650 1244 L
2651 1129 L
2653 1241 L
2654 1237 L
2656 1232 L
2658 1342 L
2659 1158 L
2661 1136 L
2662 1166 L
2664 1286 L
2665 1146 L
2667 1218 L
2668 1167 L
2670 1228 L
2671 1098 L
2673 1190 L
2674 1210 L
2676 1287 L
2677 1148 L
2679 1310 L
2680 1162 L
2682 1054 L
2683 1126 L
2685 1135 L
2686 1162 L
2687 1158 L
2689 1280 L
2690 1201 L
2692 1135 L
2693 1174 L
2694 1184 L
2696 1255 L
2697 1124 L
2698 1166 L
2700 1143 L
2701 1189 L
2702 1162 L
2704 1132 L
2705 1176 L
2706 1214 L
2708 1083 L
2709 1122 L
2710 1131 L
2712 1234 L
2713 1220 L
2714 1130 L
2715 1282 L
2717 1083 L
2718 1206 L
2719 1085 L
2720 1180 L
2722 1187 L
2723 1093 L
2724 1178 L
2725 1215 L
2726 1105 L
2728 1212 L
2729 1238 L
2730 1247 L
2731 1219 L
2732 1195 L
2734 1207 L
2735 1230 L
2736 1075 L
2737 1139 L
2738 1137 L
2739 1133 L
2741 1261 L
2742 1277 L
2743 1202 L
2744 1197 L
2745 1207 L
2746 1010 L
2747 1136 L
2748 1269 L
2749 1284 L
2751 1181 L
2752 1170 L
2753 1144 L
2754 1261 L
2755 1207 L
2756 1289 L
2757 1189 L
2758 1110 L
2759 1136 L
2760 1195 L
2761 1190 L
2762 1171 L
2763 1255 L
2764 1172 L
2765 1131 L
2767 1128 L
2768 1202 L
2769 1159 L
2770 1191 L
2771 1234 L
2772 1164 L
2773 1224 L
2774 1166 L
2775 1141 L
2776 1111 L
2777 1173 L
2778 1195 L
2779 1203 L
2780 1130 L
2781 1066 L
2782 1216 L
2783 1235 L
2783 1132 L
2784 1194 L
2785 1149 L
2786 1058 L
2787 1132 L
2788 1210 L
2789 1218 L
2790 1177 L
2791 1147 L
2792 1278 L
2793 1118 L
2794 1152 L
2795 1207 L
2796 1141 L
2797 1227 L
2798 1200 L
2798 1109 L
2799 1076 L
2800 1049 L
2801 1189 L
2802 1068 L
2803 1123 L
2804 1140 L
2805 1241 L
2806 1154 L
2807 1207 L
2807 1125 L
2808 1176 L
2809 1157 L
2810 1124 L
2811 1085 L
2812 1235 L
2813 1043 L
2813 1174 L
2814 1078 L
2815 1226 L
2816 1153 L
2817 1216 L
2818 1275 L
2819 1087 L
2819 1129 L
2820 1230 L
2821 1132 L
2822 1078 L
2823 1122 L
2824 1212 L
2824 1234 L
2825 1137 L
2826 1211 L
2827 1181 L
2828 1076 L
2828 1153 L
2829 1223 L
2830 1193 L
2831 1152 L
2832 1115 L
2832 1165 L
2833 1178 L
2834 1117 L
2835 1132 L
2836 1191 L
2836 1105 L
2837 1156 L
2838 1191 L
2839 1125 L
2840 1102 L
2840 1099 L
2841 1034 L
2842 1218 L
2843 1038 L
2843 1107 L
2844 1220 L
2845 1139 L
2846 1118 L
2846 1068 L
2847 1108 L
2848 1176 L
2849 1137 L
2849 1129 L
2850 1202 L
2851 1124 L
2852 1232 L
2852 1161 L
2853 1187 L
2854 1134 L
2855 1158 L
2855 1086 L
2856 1157 L
2857 1261 L
2857 1082 L
2858 1231 L
2859 1152 L
2860 1114 L
2860 1098 L
2861 1180 L
2862 1116 L
2862 1178 L
2863 1183 L
2864 1082 L
2865 1158 L
2865 1238 L
2866 1194 L
2867 1150 L
2867 1049 L
2868 1080 L
2869 1138 L
2869 1175 L
2870 1182 L
2871 1069 L
2871 1105 L
2872 1086 L
2873 1158 L
2873 1110 L
2874 1053 L
2875 1245 L
2876 1175 L
2876 1101 L
2877 1100 L
2878 1238 L
2878 1083 L
2879 1024 L
2880 1103 L
2880 1158 L
2881 1183 L
2881 1195 L
2882 1092 L
2883 1157 L
2883 1167 L
2884 1062 L
2885 1133 L
2885 1029 L
2886 1171 L
2887 1118 L
2887 1062 L
2888 1239 L
2889 1203 L
2889 1191 L
2892 1163 L
2894 1102 L
2897 1097 L
2899 1054 L
2902 1085 L
2904 1178 L
2907 1077 L
2909 995 L
2911 1095 L
2914 1062 L
2916 1058 L
2918 1136 L
2921 1045 L
2923 1134 L
2925 1056 L
2927 1071 L
2929 1086 L
2932 1074 L
2934 1022 L
2936 953 L
2938 1076 L
2940 1126 L
2942 999 L
2944 889 L
2946 1071 L
2948 1057 L
2950 961 L
2952 1109 L
2954 1038 L
2956 1115 L
2958 952 L
2960 1025 L
2962 992 L
2964 897 L
2966 1041 L
2968 988 L
2970 1154 L
2971 1015 L
2973 999 L
2975 1051 L
2977 1133 L
2979 1049 L
2980 993 L
2982 1090 L
2984 1025 L
2986 946 L
2987 1015 L
2989 984 L
2991 962 L
2993 1084 L
2994 1043 L
2996 992 L
2998 1005 L
2999 943 L
3001 900 L
3003 1002 L
3004 1028 L
3006 910 L
3007 1020 L
3009 1054 L
3011 986 L
3012 901 L
3014 920 L
3015 1058 L
3017 975 L
3018 969 L
3020 1014 L
3021 966 L
3023 977 L
3024 951 L
3026 927 L
3027 1077 L
3029 1017 L
3030 933 L
3032 894 L
3033 860 L
3035 1010 L
3036 939 L
3038 929 L
3039 908 L
3040 967 L
3042 953 L
3043 928 L
3045 895 L
3046 956 L
3047 935 L
3049 1029 L
3050 960 L
3051 962 L
3053 935 L
3054 946 L
3055 922 L
3057 902 L
3058 793 L
3059 872 L
3061 841 L
3062 909 L
3063 992 L
3065 892 L
3066 919 L
3067 949 L
3068 989 L
3070 990 L
3071 950 L
3072 944 L
3073 913 L
3075 1013 L
3076 933 L
3077 933 L
3078 1017 L
3079 936 L
3081 937 L
3082 923 L
3083 958 L
3084 898 L
3085 900 L
3087 1007 L
3088 871 L
3089 814 L
3090 941 L
3091 828 L
3092 969 L
3094 916 L
3095 919 L
3096 992 L
3097 924 L
3098 901 L
3099 864 L
3100 921 L
3101 924 L
3103 957 L
3104 916 L
3105 937 L
3106 830 L
3107 943 L
3108 893 L
3109 971 L
3110 825 L
3111 931 L
3112 904 L
3113 810 L
3114 940 L
3115 887 L
3116 835 L
3117 936 L
3119 888 L
3120 863 L
3121 941 L
3122 898 L
3123 909 L
3124 854 L
3125 944 L
3126 934 L
3127 974 L
3128 932 L
3129 956 L
3130 827 L
3131 919 L
3132 876 L
3133 843 L
3134 949 L
3135 921 L
3136 784 L
3136 801 L
3137 805 L
3138 900 L
3139 892 L
3140 942 L
3141 874 L
3142 837 L
3143 919 L
3144 940 L
3145 849 L
3146 837 L
3147 792 L
3148 914 L
3149 899 L
3150 923 L
3151 819 L
3151 860 L
3152 910 L
3153 969 L
3154 856 L
3155 881 L
3156 805 L
3157 881 L
3158 981 L
3159 908 L
3160 879 L
3160 941 L
3161 888 L
3162 815 L
3163 1010 L
3164 810 L
3165 910 L
3166 938 L
3166 792 L
3167 929 L
3168 910 L
3169 921 L
3170 964 L
3171 799 L
3172 928 L
3172 952 L
3173 887 L
3174 821 L
3175 1008 L
3176 886 L
3177 867 L
3177 953 L
3178 1021 L
3179 938 L
3180 852 L
3181 996 L
3181 976 L
3182 992 L
3183 842 L
3184 913 L
3185 805 L
3185 850 L
3186 900 L
3187 813 L
3188 969 L
3189 914 L
3189 900 L
3190 977 L
3191 948 L
3192 925 L
3193 836 L
3193 956 L
3194 948 L
3195 937 L
3196 945 L
3196 927 L
3197 852 L
3198 908 L
3199 923 L
3199 983 L
3200 826 L
3201 1015 L
3202 893 L
3202 872 L
3203 808 L
3204 910 L
3205 905 L
3205 835 L
3206 995 L
3207 924 L
3208 901 L
3208 847 L
3209 852 L
3210 1088 L
3210 871 L
3211 964 L
3212 983 L
3213 1030 L
3213 856 L
3214 935 L
3215 1070 L
3215 991 L
3216 950 L
3217 936 L
3218 830 L
3218 1006 L
3219 983 L
3220 892 L
3220 1001 L
3221 966 L
3222 938 L
3222 921 L
3223 1002 L
3224 1001 L
3224 976 L
3225 912 L
3226 802 L
3227 850 L
3227 1063 L
3228 962 L
3229 827 L
3229 1029 L
3230 871 L
3231 1062 L
3231 784 L
3232 981 L
3233 934 L
3233 854 L
3234 997 L
3235 925 L
3235 1067 L
3236 910 L
3236 1021 L
3237 974 L
3238 941 L
3238 896 L
3239 897 L
3240 952 L
3240 965 L
3241 860 L
3242 1002 L
3242 1028 L
3243 1065 L
3244 859 L
3244 881 L
3245 979 L
3245 950 L
3246 909 L
3247 965 L
3247 939 L
3248 1005 L
3249 935 L
3249 943 L
3250 914 L
3250 948 L
3251 906 L
3252 1097 L
3252 888 L
3253 963 L
3253 923 L
3254 958 L
3255 883 L
3255 1002 L
3256 920 L
3257 1003 L
3257 979 L
3258 869 L
3258 986 L
3259 853 L
3259 1014 L
3260 1017 L
3261 945 L
3261 963 L
3262 963 L
3262 927 L
3263 955 L
3264 939 L
3264 994 L
3265 926 L
3265 939 L
3266 928 L
3267 967 L
3267 1037 L
3268 946 L
3268 953 L
3269 952 L
3269 925 L
3270 1005 L
3271 875 L
3271 1042 L
3272 893 L
3272 868 L
3273 928 L
3273 1026 L
3274 873 L
3275 1030 L
3275 971 L
3276 937 L
3276 1058 L
3277 1089 L
3277 1044 L
3278 1033 L
3278 1075 L
3279 1046 L
3280 915 L
3280 878 L
3281 973 L
3281 818 L
3282 1045 L
3282 864 L
3283 978 L
3283 959 L
3284 1153 L
3284 902 L
3285 1021 L
3285 1063 L
3286 922 L
3287 1019 L
3287 935 L
3288 1042 L
3288 1021 L
3289 906 L
3289 993 L
3290 963 L
3290 1020 L
3291 998 L
3291 1058 L
3292 1011 L
3292 1066 L
3293 968 L
3293 943 L
3294 985 L
3294 1074 L
3295 911 L
3295 989 L
3296 1041 L
3297 900 L
3297 977 L
3298 917 L
3298 942 L
3299 1060 L
3299 1025 L
3300 976 L
3300 1006 L
3301 1048 L
3301 1020 L
3302 935 L
3302 958 L
3303 953 L
3303 929 L
3304 902 L
3304 940 L
3305 945 L
3305 974 L
3306 919 L
3306 1061 L
3307 1068 L
3307 983 L
3308 1047 L
3308 1103 L
3309 985 L
3309 973 L
3310 1056 L
3310 973 L
3311 934 L
3311 971 L
3312 973 L
3312 1039 L
3312 1095 L
3313 994 L
3313 1003 L
3314 1101 L
3314 1040 L
3315 1133 L
3315 979 L
3316 943 L
3316 1017 L
3317 1047 L
3317 988 L
3318 911 L
3318 1097 L
3319 991 L
3319 1038 L
3320 1094 L
3320 1037 L
3321 992 L
3321 1054 L
3321 1072 L
3322 922 L
3322 932 L
3323 1007 L
3323 1079 L
3324 1122 L
3324 1074 L
3325 1052 L
3325 1076 L
3326 1024 L
3326 1072 L
3327 984 L
3327 941 L
3327 1110 L
3328 966 L
3328 974 L
3329 969 L
3329 1160 L
3330 1076 L
3330 1019 L
3331 1040 L
3331 1022 L
3332 1051 L
3332 1038 L
3332 1139 L
3333 1079 L
3333 944 L
3334 1068 L
3334 1005 L
3335 1075 L
3335 988 L
3336 870 L
3336 994 L
3336 1053 L
3337 966 L
3337 1038 L
3338 1068 L
3338 999 L
3339 1082 L
3339 1120 L
3339 1033 L
3340 1029 L
3340 986 L
3341 1096 L
3341 1103 L
3342 992 L
3342 1107 L
3343 1048 L
3343 874 L
3343 1020 L
3344 988 L
3344 1063 L
3345 989 L
3345 1044 L
3346 957 L
3346 1040 L
3346 992 L
3347 1157 L
3347 1122 L
3348 1111 L
3348 1057 L
3348 1092 L
3349 1022 L
3349 1042 L
3350 1119 L
3350 1071 L
3351 968 L
3351 1039 L
3351 1033 L
3352 1047 L
3352 942 L
3353 1206 L
3353 1142 L
3353 1163 L
3354 931 L
3354 1193 L
3355 1039 L
3355 1117 L
3355 1008 L
3356 1112 L
3356 1049 L
3357 1149 L
3357 1016 L
3358 1036 L
3358 1067 L
3358 1137 L
3359 1070 L
3359 1060 L
3360 1123 L
3360 1083 L
3360 1057 L
3361 1151 L
3361 1118 L
3362 1019 L
3362 1178 L
3362 984 L
3363 1133 L
3363 1136 L
3364 1080 L
3364 1056 L
3364 1064 L
3365 1167 L
3365 1047 L
3365 1020 L
3366 1101 L
3366 1032 L
3367 989 L
3367 1184 L
3367 1106 L
3368 1152 L
3368 1072 L
3369 1051 L
3369 1054 L
3369 1084 L
3370 1061 L
3370 1040 L
3371 1126 L
3371 1043 L
3371 1094 L
3372 1095 L
3372 1172 L
3372 1092 L
3373 1067 L
3373 1116 L
3374 1067 L
3374 1213 L
3374 1093 L
3375 1156 L
3375 1094 L
3375 1135 L
3376 1116 L
3376 1146 L
3377 1175 L
3377 1122 L
3377 1152 L
3378 1146 L
3378 1117 L
3378 1097 L
3379 1064 L
3379 1096 L
3380 1032 L
3380 1046 L
3380 1139 L
3381 1089 L
3381 1067 L
3381 1201 L
3382 1185 L
3382 1055 L
3383 1100 L
3383 1059 L
3383 1068 L
3384 1168 L
3384 1113 L
3384 1108 L
3385 1071 L
3385 1101 L
3385 1022 L
3386 1076 L
3386 1212 L
3387 1124 L
3387 1098 L
3387 1162 L
3388 1164 L
3388 1086 L
3388 1209 L
3389 1172 L
3389 1142 L
3389 1249 L
3390 1137 L
3390 1114 L
3391 1019 L
3391 1174 L
3391 1096 L
3392 1235 L
3392 1146 L
3392 1038 L
3393 1082 L
3393 1203 L
3393 1124 L
3394 1006 L
3394 1088 L
3394 1170 L
3395 1142 L
3395 1235 L
3395 1166 L
3396 1051 L
3396 1202 L
3396 1203 L
3397 1120 L
3397 1089 L
3398 1242 L
3398 1134 L
3398 1225 L
3399 1227 L
3399 1165 L
3399 1101 L
3400 1183 L
3400 1213 L
3400 1118 L
3401 1125 L
3401 1101 L
3401 1114 L
3402 1148 L
3402 1229 L
3402 1086 L
3403 1142 L
3403 1170 L
3403 1214 L
3404 1177 L
3404 1215 L
3404 1193 L
3405 1195 L
3405 1148 L
3405 1079 L
3406 1204 L
3406 1096 L
3406 1103 L
3407 1078 L
3407 1182 L
3407 1100 L
3408 1176 L
3408 1187 L
3408 1091 L
3409 1190 L
3409 1143 L
3409 1166 L
3410 1187 L
3410 1213 L
3410 1205 L
3411 1181 L
3411 1174 L
3411 1263 L
3412 1183 L
3412 1135 L
3412 1216 L
3413 1242 L
3413 1168 L
3413 1076 L
3414 1154 L
3414 1104 L
3414 1053 L
3415 1128 L
3415 1081 L
3415 1186 L
3416 1200 L
3416 1115 L
3416 1102 L
3417 1204 L
3417 1084 L
3417 1235 L
3417 1162 L
3418 1128 L
3418 1164 L
3418 1210 L
3419 1177 L
3419 1175 L
3419 1078 L
3420 1206 L
3420 1136 L
3420 1156 L
3421 1175 L
3421 1252 L
3421 1116 L
3422 1115 L
3422 1074 L
3422 1206 L
3423 1119 L
3423 1105 L
3423 1143 L
3423 1185 L
3424 1183 L
3424 1212 L
3424 1112 L
3425 1142 L
3425 1082 L
3425 1117 L
3426 1150 L
3426 1146 L
3426 1196 L
3427 1158 L
3427 1216 L
3427 1240 L
3428 1193 L
3428 1248 L
3428 1190 L
3428 1175 L
3429 1079 L
3429 1074 L
3429 1201 L
3430 1185 L
3430 1111 L
3430 1145 L
3431 1158 L
3431 1161 L
3431 1220 L
3431 1246 L
3432 1292 L
3432 1298 L
3432 1225 L
3433 1205 L
3433 1172 L
3433 1169 L
3434 1249 L
3434 1279 L
3434 1123 L
3434 1230 L
3435 1235 L
3435 1267 L
3435 1189 L
3436 1290 L
3436 1177 L
3436 1201 L
3437 1244 L
3437 1232 L
3437 1151 L
3437 1234 L
3438 1212 L
3438 1213 L
3438 1171 L
3439 1140 L
3439 1207 L
3439 1198 L
3440 1175 L
3440 1145 L
3440 1273 L
3440 1102 L
3441 1211 L
3441 1283 L
3441 1220 L
3442 1195 L
3442 1256 L
3442 1217 L
3442 1150 L
3443 1174 L
3443 1183 L
3443 1254 L
3444 1187 L
3444 1220 L
3444 1131 L
3444 1207 L
3445 1173 L
3445 1183 L
3445 1094 L
3446 1238 L
3446 1095 L
3446 1229 L
3446 1125 L
3447 1181 L
3447 1261 L
3447 1133 L
3448 1097 L
3448 1311 L
3448 1300 L
3448 1162 L
3449 1292 L
3449 1225 L
3449 1159 L
3450 1271 L
3450 1156 L
3450 1260 L
3450 1261 L
3451 1167 L
3451 1215 L
3451 1240 L
3452 1231 L
3452 1252 L
3452 1247 L
3452 1293 L
3453 1136 L
3453 1304 L
3453 1253 L
3454 1240 L
3454 1193 L
3454 1126 L
3454 1177 L
3455 1114 L
3455 1080 L
3455 1227 L
3455 1324 L
3456 1142 L
3456 1163 L
3456 1210 L
3457 1279 L
3457 1265 L
3457 1168 L
3457 1235 L
3458 1187 L
3458 1222 L
3458 1246 L
3458 1298 L
3459 1220 L
3459 1254 L
3459 1198 L
3460 1166 L
3460 1240 L
3460 1229 L
3460 1166 L
3461 1264 L
3461 1233 L
3461 1168 L
3461 1319 L
3462 1293 L
3462 1239 L
3462 1194 L
3463 1200 L
3463 1278 L
3463 1051 L
3463 1206 L
3464 1215 L
3464 1271 L
3464 1252 L
3464 1123 L
3465 1153 L
3465 1118 L
3465 1229 L
3465 1286 L
3466 1221 L
3466 1175 L
3466 1135 L
3466 1231 L
3467 1286 L
3467 1280 L
3467 1242 L
3468 1253 L
3468 1133 L
3468 1240 L
3468 1209 L
3469 1313 L
3469 1250 L
3469 1273 L
3469 1241 L
3470 1168 L
3470 1155 L
3470 1230 L
3470 1323 L
3471 1258 L
3471 1164 L
3471 1164 L
3471 1172 L
3472 1220 L
3472 1155 L
3472 1240 L
3472 1091 L
3473 1269 L
3473 1206 L
3473 1218 L
3474 1313 L
3474 1299 L
3474 1240 L
3474 1229 L
3475 1358 L
3475 1307 L
3475 1290 L
3475 1293 L
3476 1257 L
3476 1246 L
3476 1337 L
3476 1184 L
3477 1242 L
3477 1230 L
3477 1233 L
3477 1227 L
3478 1248 L
3478 1253 L
3478 1240 L
3478 1241 L
3479 1156 L
3479 1168 L
3479 1288 L
3479 1260 L
3480 1233 L
3480 1251 L
3480 1240 L
3480 1211 L
3481 1154 L
3481 1248 L
3481 1320 L
3481 1209 L
3482 1245 L
3482 1302 L
3482 1243 L
3482 1166 L
3483 1170 L
3483 1314 L
3483 1263 L
3483 1223 L
3484 1260 L
3484 1243 L
3484 1226 L
3484 1237 L
3485 1139 L
3485 1232 L
3485 1256 L
3485 1409 L
3486 1265 L
3486 1255 L
3486 1250 L
3486 1181 L
3487 1176 L
3487 1313 L
3487 1275 L
3487 1329 L
3488 1228 L
3488 1273 L
3488 1137 L
3488 1296 L
3488 1331 L
3489 1280 L
3489 1094 L
3489 1205 L
3489 1359 L
3490 1262 L
3490 1300 L
3490 1243 L
3490 1246 L
3491 1246 L
3491 1154 L
3491 1272 L
3491 1253 L
3492 1317 L
3492 1171 L
3492 1221 L
3492 1231 L
3493 1231 L
3493 1225 L
3493 1307 L
3493 1286 L
3494 1314 L
3494 1221 L
3494 1273 L
3494 1247 L
3494 1181 L
3495 1290 L
3495 1215 L
3495 1241 L
3495 1200 L
3496 1224 L
3496 1168 L
3496 1260 L
3496 1272 L
3497 1288 L
3497 1340 L
3497 1304 L
3497 1203 L
3498 1275 L
3498 1284 L
3498 1296 L
3498 1205 L
3498 1258 L
3499 1124 L
3499 1262 L
3499 1275 L
3499 1201 L
3500 1260 L
3500 1347 L
3506 1105 L
3511 1271 L
3517 1176 L
3522 1281 L
3527 1284 L
3532 1394 L
3537 1221 L
3542 1317 L
3547 1309 L
3552 1387 L
3557 1362 L
3561 1351 L
3566 1341 L
3570 1396 L
3575 1294 L
3579 1370 L
3583 1351 L
3587 1328 L
3591 1303 L
3595 1277 L
3599 1280 L
3603 1445 L
3607 1365 L
3611 1408 L
3614 1414 L
3618 1236 L
3622 1317 L
3625 1366 L
3629 1391 L
3632 1410 L
3636 1334 L
3639 1370 L
3642 1416 L
3646 1332 L
3649 1354 L
3652 1405 L
3655 1364 L
3658 1314 L
3661 1389 L
3664 1329 L
3667 1514 L
3670 1415 L
3673 1315 L
3676 1414 L
3679 1453 L
3682 1366 L
3685 1414 L
3688 1311 L
3690 1374 L
3693 1377 L
3696 1469 L
3698 1319 L
3701 1319 L
3704 1524 L
3706 1414 L
3709 1453 L
3711 1460 L
3714 1416 L
3716 1347 L
3719 1305 L
3721 1523 L
3724 1285 L
3726 1370 L
3728 1416 L
3731 1396 L
3733 1329 L
3735 1508 L
3738 1332 L
3740 1354 L
3742 1367 L
3744 1431 L
3747 1472 L
3749 1355 L
3751 1366 L
3753 1402 L
3755 1353 L
3757 1378 L
3760 1462 L
3762 1364 L
3764 1387 L
3766 1359 L
3768 1404 L
3770 1337 L
3772 1349 L
3774 1431 L
3776 1470 L
3778 1397 L
3780 1365 L
3781 1417 L
3783 1394 L
3785 1387 L
3787 1429 L
3789 1402 L
3791 1402 L
3793 1355 L
3795 1397 L
3796 1367 L
3798 1325 L
3800 1432 L
3802 1435 L
3803 1414 L
3805 1376 L
3807 1341 L
3809 1437 L
3810 1389 L
3812 1420 L
3814 1416 L
3816 1393 L
3817 1418 L
3819 1397 L
3820 1258 L
3822 1384 L
3824 1449 L
3825 1469 L
3827 1416 L
3829 1380 L
3830 1433 L
3832 1426 L
3833 1405 L
3835 1443 L
3836 1460 L
3838 1541 L
3839 1445 L
3841 1494 L
3842 1395 L
3844 1457 L
3845 1454 L
3847 1461 L
3848 1439 L
3850 1348 L
3851 1355 L
3853 1444 L
3854 1331 L
3856 1415 L
3857 1456 L
3859 1419 L
3860 1415 L
3861 1545 L
3863 1322 L
3864 1386 L
3866 1365 L
3867 1362 L
3868 1406 L
3870 1397 L
3871 1498 L
3872 1447 L
3874 1411 L
3875 1436 L
3876 1505 L
3878 1569 L
3879 1367 L
3880 1451 L
3882 1437 L
3883 1381 L
3884 1456 L
3885 1411 L
3887 1439 L
3888 1386 L
3889 1364 L
3890 1409 L
3892 1389 L
3893 1436 L
3894 1515 L
3895 1457 L
3897 1366 L
3898 1481 L
3899 1217 L
3900 1346 L
3901 1389 L
3903 1489 L
3904 1414 L
3905 1313 L
3906 1379 L
3907 1393 L
3908 1443 L
3910 1500 L
3911 1376 L
3912 1547 L
3913 1438 L
3914 1355 L
3915 1367 L
3917 1453 L
3918 1502 L
3919 1429 L
3920 1396 L
3921 1456 L
3922 1375 L
3923 1431 L
3924 1470 L
3925 1422 L
3926 1447 L
3928 1465 L
3929 1488 L
3930 1342 L
3931 1504 L
3932 1517 L
3933 1437 L
3934 1328 L
3935 1511 L
3936 1530 L
3937 1405 L
3938 1392 L
3939 1537 L
3940 1466 L
3941 1366 L
3942 1385 L
3943 1387 L
3944 1461 L
3945 1315 L
3946 1361 L
3947 1413 L
3948 1346 L
3949 1328 L
3950 1418 L
3951 1387 L
3952 1277 L
3953 1394 L
3954 1391 L
3955 1345 L
3956 1455 L
3957 1345 L
3958 1392 L
3959 1421 L
3960 1405 L
3961 1408 L
3962 1468 L
3963 1334 L
3964 1428 L
3965 1364 L
3966 1475 L
3966 1385 L
3967 1374 L
3968 1510 L
3969 1297 L
3970 1451 L
3971 1323 L
3972 1458 L
3973 1343 L
3974 1383 L
3975 1402 L
3976 1510 L
3976 1369 L
3977 1415 L
3978 1449 L
3979 1408 L
3980 1356 L
3981 1506 L
3982 1378 L
3983 1405 L
3983 1399 L
3984 1433 L
3985 1481 L
3986 1456 L
3987 1420 L
3988 1405 L
3989 1412 L
3989 1433 L
3990 1332 L
3991 1433 L
3992 1411 L
3993 1484 L
3994 1345 L
3995 1355 L
3995 1445 L
3996 1344 L
3997 1350 L
3998 1400 L
3999 1382 L
3999 1363 L
4000 1378 L
4001 1412 L
4002 1347 L
4003 1453 L
4003 1404 L
4004 1543 L
4005 1420 L
4006 1325 L
4007 1536 L
4007 1409 L
4008 1382 L
4009 1382 L
4010 1453 L
4011 1338 L
4011 1470 L
4012 1419 L
4013 1389 L
4014 1366 L
4014 1464 L
4015 1479 L
4016 1331 L
4017 1311 L
4017 1415 L
4018 1358 L
4019 1485 L
4020 1343 L
4021 1378 L
4021 1407 L
4022 1373 L
4023 1405 L
4023 1411 L
4024 1462 L
4025 1407 L
4026 1356 L
4026 1453 L
4027 1374 L
4028 1391 L
4029 1351 L
4029 1395 L
4030 1440 L
4031 1391 L
4032 1387 L
4032 1471 L
4033 1563 L
4034 1414 L
4034 1365 L
4035 1461 L
4036 1278 L
4036 1394 L
4037 1426 L
4038 1416 L
4039 1445 L
4039 1322 L
4040 1415 L
4041 1387 L
4041 1464 L
4042 1439 L
4043 1367 L
4043 1369 L
4044 1454 L
4045 1348 L
4045 1444 L
4046 1447 L
4047 1403 L
4047 1340 L
4048 1536 L
4049 1376 L
4050 1397 L
4050 1409 L
4051 1506 L
4052 1374 L
4052 1417 L
4053 1382 L
4053 1442 L
4054 1476 L
4055 1393 L
4055 1244 L
4056 1427 L
4057 1449 L
4057 1417 L
4058 1447 L
4059 1378 L
4059 1491 L
4060 1414 L
4061 1311 L
4061 1346 L
4062 1437 L
L2 C06 COSGR

%
% Main frame
%
L10
GSN 
620 1700 M
4220 1700 L
4220 5300 L
620 5300 L
closepath SGR

%
% X axis: large tics
%
L10
GSN 1130 1700 M 0  54 rL SGR
GSN 1130 5300 M 0 -54 rL SGR
helvS (0.0001) 1130 470 xlabel
GSN 1716 1700 M 0  54 rL SGR
GSN 1716 5300 M 0 -54 rL SGR
helvS (0.001) 1716 470 xlabel
GSN 2303 1700 M 0  54 rL SGR
GSN 2303 5300 M 0 -54 rL SGR
helvS (0.01) 2303 470 xlabel
GSN 2889 1700 M 0  54 rL SGR
GSN 2889 5300 M 0 -54 rL SGR
helvS (0.1) 2889 470 xlabel
GSN 3476 1700 M 0  54 rL SGR
GSN 3476 5300 M 0 -54 rL SGR
helvS (1) 3476 470 xlabel
GSN 4062 1700 M 0  54 rL SGR
GSN 4062 5300 M 0 -54 rL SGR
helvS (10) 4062 470 xlabel
%
% X axis: small tics
%
L5
GSN 720 1700 M 0  36 rL SGR
GSN 720 5300 M 0 -36 rL SGR
GSN 824 1700 M 0  36 rL SGR
GSN 824 5300 M 0 -36 rL SGR
GSN 897 1700 M 0  36 rL SGR
GSN 897 5300 M 0 -36 rL SGR
GSN 954 1700 M 0  36 rL SGR
GSN 954 5300 M 0 -36 rL SGR
GSN 1000 1700 M 0  36 rL SGR
GSN 1000 5300 M 0 -36 rL SGR
GSN 1039 1700 M 0  36 rL SGR
GSN 1039 5300 M 0 -36 rL SGR
GSN 1073 1700 M 0  36 rL SGR
GSN 1073 5300 M 0 -36 rL SGR
GSN 1103 1700 M 0  36 rL SGR
GSN 1103 5300 M 0 -36 rL SGR
GSN 1307 1700 M 0  36 rL SGR
GSN 1307 5300 M 0 -36 rL SGR
GSN 1410 1700 M 0  36 rL SGR
GSN 1410 5300 M 0 -36 rL SGR
GSN 1483 1700 M 0  36 rL SGR
GSN 1483 5300 M 0 -36 rL SGR
GSN 1540 1700 M 0  36 rL SGR
GSN 1540 5300 M 0 -36 rL SGR
GSN 1586 1700 M 0  36 rL SGR
GSN 1586 5300 M 0 -36 rL SGR
GSN 1626 1700 M 0  36 rL SGR
GSN 1626 5300 M 0 -36 rL SGR
GSN 1660 1700 M 0  36 rL SGR
GSN 1660 5300 M 0 -36 rL SGR
GSN 1690 1700 M 0  36 rL SGR
GSN 1690 5300 M 0 -36 rL SGR
GSN 1893 1700 M 0  36 rL SGR
GSN 1893 5300 M 0 -36 rL SGR
GSN 1996 1700 M 0  36 rL SGR
GSN 1996 5300 M 0 -36 rL SGR
GSN 2069 1700 M 0  36 rL SGR
GSN 2069 5300 M 0 -36 rL SGR
GSN 2126 1700 M 0  36 rL SGR
GSN 2126 5300 M 0 -36 rL SGR
GSN 2173 1700 M 0  36 rL SGR
GSN 2173 5300 M 0 -36 rL SGR
GSN 2212 1700 M 0  36 rL SGR
GSN 2212 5300 M 0 -36 rL SGR
GSN 2246 1700 M 0  36 rL SGR
GSN 2246 5300 M 0 -36 rL SGR
GSN 2276 1700 M 0  36 rL SGR
GSN 2276 5300 M 0 -36 rL SGR
GSN 2479 1700 M 0  36 rL SGR
GSN 2479 5300 M 0 -36 rL SGR
GSN 2583 1700 M 0  36 rL SGR
GSN 2583 5300 M 0 -36 rL SGR
GSN 2656 1700 M 0  36 rL SGR
GSN 2656 5300 M 0 -36 rL SGR
GSN 2713 1700 M 0  36 rL SGR
GSN 2713 5300 M 0 -36 rL SGR
GSN 2759 1700 M 0  36 rL SGR
GSN 2759 5300 M 0 -36 rL SGR
GSN 2798 1700 M 0  36 rL SGR
GSN 2798 5300 M 0 -36 rL SGR
GSN 2832 1700 M 0  36 rL SGR
GSN 2832 5300 M 0 -36 rL SGR
GSN 2862 1700 M 0  36 rL SGR
GSN 2862 5300 M 0 -36 rL SGR
GSN 3066 1700 M 0  36 rL SGR
GSN 3066 5300 M 0 -36 rL SGR
GSN 3169 1700 M 0  36 rL SGR
GSN 3169 5300 M 0 -36 rL SGR
GSN 3242 1700 M 0  36 rL SGR
GSN 3242 5300 M 0 -36 rL SGR
GSN 3299 1700 M 0  36 rL SGR
GSN 3299 5300 M 0 -36 rL SGR
GSN 3345 1700 M 0  36 rL SGR
GSN 3345 5300 M 0 -36 rL SGR
GSN 3385 1700 M 0  36 rL SGR
GSN 3385 5300 M 0 -36 rL SGR
GSN 3419 1700 M 0  36 rL SGR
GSN 3419 5300 M 0 -36 rL SGR
GSN 3449 1700 M 0  36 rL SGR
GSN 3449 5300 M 0 -36 rL SGR
GSN 3652 1700 M 0  36 rL SGR
GSN 3652 5300 M 0 -36 rL SGR
GSN 3755 1700 M 0  36 rL SGR
GSN 3755 5300 M 0 -36 rL SGR
GSN 3829 1700 M 0  36 rL SGR
GSN 3829 5300 M 0 -36 rL SGR
GSN 3885 1700 M 0  36 rL SGR
GSN 3885 5300 M 0 -36 rL SGR
GSN 3932 1700 M 0  36 rL SGR
GSN 3932 5300 M 0 -36 rL SGR
GSN 3971 1700 M 0  36 rL SGR
GSN 3971 5300 M 0 -36 rL SGR
GSN 4005 1700 M 0  36 rL SGR
GSN 4005 5300 M 0 -36 rL SGR
GSN 4035 1700 M 0  36 rL SGR
GSN 4035 5300 M 0 -36 rL SGR
%
% Y axis: large tics
%
L10
GSN 620 2315 M 54 0 rL SGR
GSN 4220 2315 M -54 0 rL SGR
helvS (0.92) 560 2315 ylabel
GSN 620 3057 M 54 0 rL SGR
GSN 4220 3057 M -54 0 rL SGR
helvS (0.94) 560 3057 ylabel
GSN 620 3798 M 54 0 rL SGR
GSN 4220 3798 M -54 0 rL SGR
helvS (0.96) 560 3798 ylabel
GSN 620 4539 M 54 0 rL SGR
GSN 4220 4539 M -54 0 rL SGR
helvS (0.98) 560 4539 ylabel
GSN 620 5281 M 54 0 rL SGR
GSN 4220 5281 M -54 0 rL SGR
helvS (1) 560 5281 ylabel
%
% Y axis: small tics
%
L5
GSN 620 1759 M 36 0 rL SGR
GSN 4220 1759 M -36 0 rL SGR
GSN 620 1944 M 36 0 rL SGR
GSN 4220 1944 M -36 0 rL SGR
GSN 620 2130 M 36 0 rL SGR
GSN 4220 2130 M -36 0 rL SGR
GSN 620 2315 M 36 0 rL SGR
GSN 4220 2315 M -36 0 rL SGR
GSN 620 2501 M 36 0 rL SGR
GSN 4220 2501 M -36 0 rL SGR
GSN 620 2686 M 36 0 rL SGR
GSN 4220 2686 M -36 0 rL SGR
GSN 620 2871 M 36 0 rL SGR
GSN 4220 2871 M -36 0 rL SGR
GSN 620 3057 M 36 0 rL SGR
GSN 4220 3057 M -36 0 rL SGR
GSN 620 3242 M 36 0 rL SGR
GSN 4220 3242 M -36 0 rL SGR
GSN 620 3427 M 36 0 rL SGR
GSN 4220 3427 M -36 0 rL SGR
GSN 620 3613 M 36 0 rL SGR
GSN 4220 3613 M -36 0 rL SGR
GSN 620 3798 M 36 0 rL SGR
GSN 4220 3798 M -36 0 rL SGR
GSN 620 3983 M 36 0 rL SGR
GSN 4220 3983 M -36 0 rL SGR
GSN 620 4169 M 36 0 rL SGR
GSN 4220 4169 M -36 0 rL SGR
GSN 620 4354 M 36 0 rL SGR
GSN 4220 4354 M -36 0 rL SGR
GSN 620 4539 M 36 0 rL SGR
GSN 4220 4539 M -36 0 rL SGR
GSN 620 4725 M 36 0 rL SGR
GSN 4220 4725 M -36 0 rL SGR
GSN 620 4910 M 36 0 rL SGR
GSN 4220 4910 M -36 0 rL SGR
GSN 620 5095 M 36 0 rL SGR
GSN 4220 5095 M -36 0 rL SGR
GSN 620 5281 M 36 0 rL SGR
GSN 4220 5281 M -36 0 rL SGR

%
% X-Axis label:
%
gsave 2420 290 M 
[
[(Helvetica) 180 0 true true 0 (t)]
[(Helvetica) 180 0 true true 0 (i)]
[(Helvetica) 180 0 true true 0 (m)]
[(Helvetica) 180 0 true true 0 (e)]
] 0 MCshow grestore

%
% Y-Axis label:
%
gsave 234 3500 M 
currentpoint gsave translate 90 rotate 0 0 moveto
[
[(Helvetica) 180 0 true true 0 (s)]
[(Helvetica) 180 0 true true 0 (i)]
[(Helvetica) 180 0 true true 0 (g)]
[(Helvetica) 180 0 true true 0 (n)]
[(Helvetica) 180 0 true true 0 (a)]
[(Helvetica) 180 0 true true 0 (l)]
] 0 MCshow grestore

%
% Residuals:
%
gsave 129 1160 M 
currentpoint gsave translate 90 rotate 0 0 moveto
[
[(Helvetica) 150 0 true true 0 (r)]
[(Helvetica) 150 0 true true 0 (e)]
[(Helvetica) 150 0 true true 0 (s)]
[(Helvetica) 150 0 true true 0 (i)]
[(Helvetica) 150 0 true true 0 (d)]
[(Helvetica) 150 0 true true 0 (u)]
[(Helvetica) 150 0 true true 0 (a)]
[(Helvetica) 150 0 true true 0 (l)]
[(Helvetica) 150 0 true true 0 (s)]
] 0 MCshow grestore

%
% Residual frame
%
L10
GSN 
620 620 M
4220 620 L
4220 1700 L
620 1700 L
closepath SGR
%
% X axis: large tics - residual frame
%
L10
GSN 1130 620 M 0  54 rL SGR
GSN 1130 1700 M 0 -54 rL SGR
GSN 1716 620 M 0  54 rL SGR
GSN 1716 1700 M 0 -54 rL SGR
GSN 2303 620 M 0  54 rL SGR
GSN 2303 1700 M 0 -54 rL SGR
GSN 2889 620 M 0  54 rL SGR
GSN 2889 1700 M 0 -54 rL SGR
GSN 3476 620 M 0  54 rL SGR
GSN 3476 1700 M 0 -54 rL SGR
GSN 4062 620 M 0  54 rL SGR
GSN 4062 1700 M 0 -54 rL SGR
%
% X axis: small tics - residual frame
%
L5
GSN 720 620 M 0  36 rL SGR
GSN 720 1700 M 0 -36 rL SGR
GSN 824 620 M 0  36 rL SGR
GSN 824 1700 M 0 -36 rL SGR
GSN 897 620 M 0  36 rL SGR
GSN 897 1700 M 0 -36 rL SGR
GSN 954 620 M 0  36 rL SGR
GSN 954 1700 M 0 -36 rL SGR
GSN 1000 620 M 0  36 rL SGR
GSN 1000 1700 M 0 -36 rL SGR
GSN 1039 620 M 0  36 rL SGR
GSN 1039 1700 M 0 -36 rL SGR
GSN 1073 620 M 0  36 rL SGR
GSN 1073 1700 M 0 -36 rL SGR
GSN 1103 620 M 0  36 rL SGR
GSN 1103 1700 M 0 -36 rL SGR
GSN 1307 620 M 0  36 rL SGR
GSN 1307 1700 M 0 -36 rL SGR
GSN 1410 620 M 0  36 rL SGR
GSN 1410 1700 M 0 -36 rL SGR
GSN 1483 620 M 0  36 rL SGR
GSN 1483 1700 M 0 -36 rL SGR
GSN 1540 620 M 0  36 rL SGR
GSN 1540 1700 M 0 -36 rL SGR
GSN 1586 620 M 0  36 rL SGR
GSN 1586 1700 M 0 -36 rL SGR
GSN 1626 620 M 0  36 rL SGR
GSN 1626 1700 M 0 -36 rL SGR
GSN 1660 620 M 0  36 rL SGR
GSN 1660 1700 M 0 -36 rL SGR
GSN 1690 620 M 0  36 rL SGR
GSN 1690 1700 M 0 -36 rL SGR
GSN 1893 620 M 0  36 rL SGR
GSN 1893 1700 M 0 -36 rL SGR
GSN 1996 620 M 0  36 rL SGR
GSN 1996 1700 M 0 -36 rL SGR
GSN 2069 620 M 0  36 rL SGR
GSN 2069 1700 M 0 -36 rL SGR
GSN 2126 620 M 0  36 rL SGR
GSN 2126 1700 M 0 -36 rL SGR
GSN 2173 620 M 0  36 rL SGR
GSN 2173 1700 M 0 -36 rL SGR
GSN 2212 620 M 0  36 rL SGR
GSN 2212 1700 M 0 -36 rL SGR
GSN 2246 620 M 0  36 rL SGR
GSN 2246 1700 M 0 -36 rL SGR
GSN 2276 620 M 0  36 rL SGR
GSN 2276 1700 M 0 -36 rL SGR
GSN 2479 620 M 0  36 rL SGR
GSN 2479 1700 M 0 -36 rL SGR
GSN 2583 620 M 0  36 rL SGR
GSN 2583 1700 M 0 -36 rL SGR
GSN 2656 620 M 0  36 rL SGR
GSN 2656 1700 M 0 -36 rL SGR
GSN 2713 620 M 0  36 rL SGR
GSN 2713 1700 M 0 -36 rL SGR
GSN 2759 620 M 0  36 rL SGR
GSN 2759 1700 M 0 -36 rL SGR
GSN 2798 620 M 0  36 rL SGR
GSN 2798 1700 M 0 -36 rL SGR
GSN 2832 620 M 0  36 rL SGR
GSN 2832 1700 M 0 -36 rL SGR
GSN 2862 620 M 0  36 rL SGR
GSN 2862 1700 M 0 -36 rL SGR
GSN 3066 620 M 0  36 rL SGR
GSN 3066 1700 M 0 -36 rL SGR
GSN 3169 620 M 0  36 rL SGR
GSN 3169 1700 M 0 -36 rL SGR
GSN 3242 620 M 0  36 rL SGR
GSN 3242 1700 M 0 -36 rL SGR
GSN 3299 620 M 0  36 rL SGR
GSN 3299 1700 M 0 -36 rL SGR
GSN 3345 620 M 0  36 rL SGR
GSN 3345 1700 M 0 -36 rL SGR
GSN 3385 620 M 0  36 rL SGR
GSN 3385 1700 M 0 -36 rL SGR
GSN 3419 620 M 0  36 rL SGR
GSN 3419 1700 M 0 -36 rL SGR
GSN 3449 620 M 0  36 rL SGR
GSN 3449 1700 M 0 -36 rL SGR
GSN 3652 620 M 0  36 rL SGR
GSN 3652 1700 M 0 -36 rL SGR
GSN 3755 620 M 0  36 rL SGR
GSN 3755 1700 M 0 -36 rL SGR
GSN 3829 620 M 0  36 rL SGR
GSN 3829 1700 M 0 -36 rL SGR
GSN 3885 620 M 0  36 rL SGR
GSN 3885 1700 M 0 -36 rL SGR
GSN 3932 620 M 0  36 rL SGR
GSN 3932 1700 M 0 -36 rL SGR
GSN 3971 620 M 0  36 rL SGR
GSN 3971 1700 M 0 -36 rL SGR
GSN 4005 620 M 0  36 rL SGR
GSN 4005 1700 M 0 -36 rL SGR
GSN 4035 620 M 0  36 rL SGR
GSN 4035 1700 M 0 -36 rL SGR
%
% Y axis: large tics - residual frame
%
L10
GSN 620 735 M 54 0 rL SGR
GSN 4220 735 M -54 0 rL SGR
helvS (-0.02) 560 735 ylabelresid
GSN 620 1158 M 54 0 rL SGR
GSN 4220 1158 M -54 0 rL SGR
helvS (0) 560 1158 ylabelresid
GSN 620 1582 M 54 0 rL SGR
GSN 4220 1582 M -54 0 rL SGR
helvS (0.02) 560 1582 ylabelresid

%
% X axis - residual panel
%
GSN L5 620 1158 M 4220 1158 L SDA G50 SGR

end
showpage
%%Trailer
%%EOF
