%!PS-Adobe-3.0 EPSF-3.0
%%BoundingBox: 0 0 514 550
%%Creator: BioKin Ltd.
%%DocumentFonts: Symbol Helvetica
%%EndComments
%
/bkdict 256 dict def
bkdict begin
/M {moveto} def 
/R {rmoveto} def
/L {lineto} def
/rL {rlineto} def
/GSN {gsave newpath} def
/SGR {stroke grestore} def
/COSGR {gsave setrgbcolor stroke grestore grestore} def
/SL {setlinewidth} def
/LWMB {12} def             % line width - model curves, black & white
/LWMC {10} def             % line width - model curves, color
/L2 {2.5 setlinewidth} def
/L5 {5 setlinewidth} def
/L10 {10 setlinewidth} def
/G50 {0.5 setgray} def
/SDA {[10  20] 0 setdash} def % axes
/helvT {/Helvetica findfont 100 scalefont setfont} def % tiny
/helvS {/Helvetica findfont 125 scalefont setfont} def % small
/helvM {/Helvetica findfont 150 scalefont setfont} def % medium
/helvL {/Helvetica findfont 175 scalefont setfont} def % large
/xlabel {gsave M dup
   stringwidth exch -0.5 mul exch rmoveto show grestore} def 
/ylabel {gsave M 90 rotate dup
   stringwidth exch -0.5 mul exch rmoveto show grestore} def
/ylabelresid {gsave M dup
   stringwidth exch -1 mul exch rmoveto show grestore} def
% ======
% Shapes
% ======
% Circle:
/Circ {0 360 arc closepath} def
%
% Square:
/Squa {dup dup -0.5 mul dup dup R -2 mul 0 exch rL 1 mul 0 rL dup 0 exch -1 mul rL closepath} def
%
% Triangle Up:
/TriU {dup dup dup -0.4 mul exch -0.5 mul exch R dup 0.5 mul exch rL dup -1 mul exch 0.5 mul exch rL closepath} def 
%
% Triangle Down:
/TriD {dup dup dup 0.4 mul exch -0.5 mul exch R dup 0.5 mul exch -1 mul rL dup 0.5 mul exch rL closepath} def 
%
% Diamond:
/Diam {45 rotate Squa} def
% ======
% Fills
% ======
/GRF {gsave setgray fill grestore} def                    % gray-level Fill
/COF {gsave setrgbcolor fill grestore} def                % color fill
% ======
% Colors
% ======
/C01 {1.00	0.00	0.00} def      % Red
/C02 {0.00	0.00	1.00} def      % Blue
/C03 {0.00	0.39	0.00} def      % Dark Green
/C04 {0.78	0.08	0.52} def      % Medium Violet Red
/C05 {0.55	0.27	0.07} def      % Saddle Brown
/C06 {0.10	0.70	0.70} def      % (cyan)
/C07 {1.00	0.55	0.00} def      % Dark Orange
/C08 {0.63	0.13	0.94} def      % Purple
/C09 {0.00	0.75	1.00} def      % Deep Sky Blue
/C10 {0.20	0.80	0.20} def      % Lime Green
/C11 {0.47	0.53	0.60} def      % Light Slate Gray
/C12 {0.00	0.00	0.00} def      % Black            % or: {0.19	0.31	0.31} def      % Dark Slate Gray
%
/LGR {0.75} def % light gray
/DGR {0.33} def % dark gray
%
% =============
% Dash patterns
% =============
/dash01 { [80  20] 0 setdash } def
/dash02 { [40  20] 0 setdash } def
/dash03 { [80  20  10  20] 0 setdash } def
/dash04 { [40  20  10  20] 0 setdash } def
/dash05 { [80  20  10  10  10  20] 0 setdash } def
/dash06 { [40  20  10  10  10  20] 0 setdash } def
/dash07 { [10  10] 0 setdash } def
%
/MFshow {
   { dup 5 get 3 ge
     { 5 get 3 eq {gsave} {grestore} ifelse }
     {dup dup 0 get findfont exch 1 get scalefont setfont
     [ currentpoint ] exch dup 2 get 0 exch R dup 5 get 2 ne {dup dup 6
     get exch 4 get {show} {stringwidth pop 0 R} ifelse }if dup 5 get 0 eq
     {dup 3 get {2 get neg 0 exch R pop} {pop aload pop M} ifelse} {dup 5
     get 1 eq {dup 2 get exch dup 3 get exch 6 get stringwidth pop -2 div
     dup 0 R} {dup 6 get stringwidth pop -2 div 0 R 6 get
     show 2 index {aload pop M neg 3 -1 roll neg R pop pop} {pop pop pop
     pop aload pop M} ifelse }ifelse }ifelse }
     ifelse }
   forall} bind def
/MFwidth {0 exch {dup 3 get{dup dup 0 get findfont exch 1 get scalefont
     setfont 6 get stringwidth pop add} {pop} ifelse} forall} bind def
/MCshow { currentpoint stroke M
  exch dup MFwidth -2 div 3 -1 roll R MFshow } def
%
end
%%EndProlog
bkdict begin
0.1 0.1 scale
%
% Residuals:
%
GSN 620 2312 M
620 4366 L
620 4791 L
620 4572 L
620 4863 L
620 4635 L
620 4694 L
620 4675 L
620 4523 L
620 4395 L
620 4550 L
620 4461 L
620 4667 L
620 4405 L
620 4472 L
620 4434 L
620 4437 L
620 4354 L
620 4279 L
620 4283 L
620 4125 L
620 4159 L
620 4328 L
620 4177 L
620 4084 L
620 4335 L
620 4186 L
620 4204 L
620 4133 L
620 4213 L
620 4126 L
620 3915 L
620 4153 L
620 3889 L
620 4196 L
620 4186 L
620 3856 L
620 4169 L
620 3693 L
620 4175 L
620 3976 L
620 4087 L
620 3833 L
620 4051 L
620 4009 L
620 3841 L
620 3813 L
620 3849 L
620 3977 L
620 3877 L
620 3832 L
620 3953 L
620 3792 L
620 3771 L
620 3782 L
620 3800 L
620 3695 L
620 3872 L
620 3797 L
620 3636 L
620 3613 L
620 3910 L
620 3533 L
620 3834 L
620 3538 L
620 3751 L
620 3410 L
620 3601 L
620 3374 L
620 3593 L
620 3612 L
620 3471 L
620 3446 L
620 3640 L
620 3310 L
620 3288 L
620 3628 L
620 3310 L
620 3310 L
620 3431 L
620 3631 L
620 3221 L
620 3190 L
620 3326 L
620 3301 L
620 3245 L
620 3318 L
620 3243 L
620 3042 L
620 2975 L
620 2892 L
620 2993 L
620 3025 L
620 3054 L
620 2725 L
620 2811 L
620 3039 L
620 2937 L
620 2661 L
620 3065 L
620 2982 L
620 2875 L
620 2883 L
620 2805 L
620 2843 L
620 2672 L
620 2482 L
620 2645 L
620 2567 L
620 2778 L
620 2765 L
620 2789 L
620 2713 L
620 2548 L
620 2537 L
620 2755 L
620 2422 L
620 2648 L
620 2301 L
620 2696 L
620 2408 L
620 2431 L
620 2503 L
620 2734 L
620 2530 L
620 2787 L
620 2741 L
620 2305 L
620 2549 L
620 2318 L
620 2577 L
620 2490 L
620 2384 L
620 2136 L
620 2595 L
620 2358 L
620 2417 L
620 2587 L
620 2673 L
620 2449 L
620 2456 L
620 2266 L
620 2301 L
620 2272 L
620 2434 L
620 2472 L
620 2568 L
620 2389 L
620 2587 L
620 2453 L
620 2404 L
620 2402 L
620 2330 L
620 2236 L
620 2332 L
620 2364 L
620 2318 L
620 2275 L
620 2401 L
620 2369 L
620 2422 L
620 2556 L
620 2599 L
620 2628 L
620 2398 L
620 2566 L
620 2761 L
620 2443 L
620 2488 L
620 2419 L
620 2675 L
620 2367 L
620 2405 L
620 2557 L
620 2571 L
620 2503 L
620 2341 L
620 2578 L
620 2600 L
620 2466 L
620 2391 L
620 2581 L
620 2561 L
620 2521 L
620 2300 L
620 2580 L
620 2441 L
620 2507 L
620 2366 L
620 2855 L
620 2652 L
620 2357 L
620 2779 L
620 2378 L
620 2586 L
620 2756 L
620 2593 L
620 2650 L
620 2674 L
620 2752 L
620 2656 L
620 2758 L
620 2290 L
620 2429 L
620 2626 L
620 2537 L
620 2551 L
620 2500 L
620 2593 L
620 2510 L
620 2558 L
620 2590 L
620 2745 L
620 2673 L
620 2612 L
620 2711 L
620 2518 L
620 2592 L
620 2478 L
620 2562 L
620 2544 L
620 2760 L
620 2633 L
620 2558 L
620 2563 L
620 2723 L
620 2915 L
620 2610 L
620 2744 L
620 2434 L
620 2588 L
620 2615 L
620 2633 L
620 2580 L
620 2727 L
620 2783 L
620 2657 L
620 2828 L
620 2550 L
620 2341 L
620 2754 L
620 2496 L
620 2838 L
620 2860 L
620 2696 L
620 2309 L
620 2676 L
620 2876 L
620 2717 L
620 2539 L
620 2744 L
620 2790 L
620 2896 L
620 2661 L
620 2669 L
620 2744 L
620 2800 L
620 2716 L
620 2754 L
620 2720 L
620 2746 L
620 2593 L
620 2674 L
620 2828 L
620 2726 L
620 2635 L
620 2727 L
620 2684 L
620 2665 L
620 2621 L
620 2413 L
620 2549 L
620 2742 L
620 2859 L
620 2721 L
620 2765 L
620 2851 L
620 2640 L
620 2808 L
620 2727 L
620 2642 L
620 2868 L
620 2807 L
620 3152 L
620 2911 L
620 2789 L
620 2777 L
620 2687 L
620 2927 L
620 2795 L
620 3005 L
620 2861 L
620 3076 L
620 3060 L
620 3024 L
620 3185 L
620 3046 L
620 2994 L
620 3044 L
620 3169 L
620 3130 L
620 2940 L
620 3167 L
620 2998 L
620 2980 L
620 3201 L
620 2787 L
620 3095 L
620 2982 L
620 3111 L
620 3180 L
620 2849 L
620 2891 L
620 3148 L
620 3207 L
620 3136 L
620 2931 L
620 2719 L
620 3102 L
620 2873 L
620 2830 L
620 3016 L
620 3177 L
620 2825 L
620 2933 L
620 3056 L
620 2948 L
620 3088 L
620 3102 L
620 3280 L
620 3130 L
620 3249 L
620 2905 L
620 3134 L
620 3039 L
620 3245 L
620 2899 L
620 2792 L
620 2757 L
620 3184 L
620 2972 L
620 3223 L
620 3039 L
620 3038 L
620 3065 L
620 3085 L
620 3075 L
620 2883 L
620 2956 L
620 3088 L
620 3095 L
620 2941 L
620 2832 L
620 2960 L
620 2980 L
620 2882 L
620 2888 L
620 2905 L
620 2946 L
620 3116 L
620 3129 L
620 2933 L
620 3050 L
620 2783 L
620 2921 L
620 2904 L
620 3069 L
620 3173 L
620 2787 L
620 3074 L
620 2828 L
620 2832 L
620 2873 L
620 2932 L
620 2876 L
620 2864 L
620 2991 L
620 2918 L
620 3076 L
620 2858 L
620 2863 L
620 3123 L
620 2803 L
620 3108 L
620 2919 L
620 3065 L
620 2982 L
620 3089 L
620 2860 L
620 2994 L
620 2912 L
620 2876 L
620 2953 L
620 2981 L
620 3116 L
620 2658 L
620 3139 L
620 2912 L
620 2867 L
620 3097 L
620 2838 L
620 2934 L
620 2901 L
620 2893 L
620 2897 L
620 2814 L
620 3140 L
620 2807 L
620 2862 L
620 2898 L
620 2802 L
620 2766 L
620 2949 L
620 3083 L
620 2950 L
620 2996 L
620 3051 L
620 3228 L
620 3018 L
620 3125 L
620 3265 L
620 3119 L
620 2929 L
620 2975 L
620 3213 L
620 2991 L
620 2984 L
620 2700 L
620 3189 L
620 2792 L
620 2951 L
620 3048 L
620 2973 L
620 2851 L
620 2952 L
620 3117 L
620 3080 L
620 3171 L
620 3268 L
620 2947 L
620 3330 L
620 2995 L
620 3034 L
620 2875 L
620 3038 L
620 2901 L
620 3113 L
620 2929 L
620 3064 L
620 2967 L
620 3038 L
620 3062 L
620 2906 L
620 3166 L
620 2863 L
620 3139 L
620 3056 L
620 3159 L
620 2964 L
620 2807 L
620 2879 L
620 2865 L
620 3000 L
620 3085 L
620 3001 L
620 2931 L
620 3235 L
620 2886 L
620 3266 L
620 3209 L
620 2673 L
620 2874 L
620 2981 L
620 3253 L
620 2904 L
620 3115 L
620 3097 L
620 2859 L
620 2744 L
620 2952 L
620 3018 L
620 3083 L
620 3100 L
620 2984 L
620 3010 L
620 3147 L
620 2896 L
620 2896 L
620 3125 L
620 3094 L
620 3002 L
620 2899 L
620 2995 L
620 3208 L
620 2838 L
620 2728 L
620 2775 L
620 3108 L
620 3023 L
620 2896 L
620 3222 L
620 3093 L
620 2923 L
620 2853 L
620 2892 L
620 2954 L
620 2992 L
620 2912 L
620 2827 L
620 3151 L
620 2911 L
620 2977 L
620 3250 L
620 2957 L
620 2742 L
620 3066 L
620 2800 L
620 3146 L
620 3086 L
620 3014 L
620 2891 L
620 3206 L
620 2849 L
620 3049 L
620 2966 L
620 3214 L
620 3054 L
620 2980 L
620 3049 L
620 3081 L
620 3183 L
620 3013 L
620 3058 L
L2 C02 COSGR

%
%================
% Legend - Begin
%================
%
GSN 4240 5180 M
4480 5180 L
LWMC SL  C02 COSGR
GSN 4540 5141 M helvM (1.0 uM) show grestore
%
%================
% Legend - End
%================
%

%
% Main frame
%
L10
GSN 
620 1700 M
4220 1700 L
4220 5300 L
620 5300 L
closepath SGR

%
% X axis: large tics
%
L10
%
% X axis: small tics
%
L5
%
% Y axis: large tics
%
L10
GSN 620 2170 M 54 0 rL SGR
GSN 4220 2170 M -54 0 rL SGR
helvS (-0.02) 560 2170 ylabel
GSN 620 3007 M 54 0 rL SGR
GSN 4220 3007 M -54 0 rL SGR
helvS (0) 560 3007 ylabel
GSN 620 3845 M 54 0 rL SGR
GSN 4220 3845 M -54 0 rL SGR
helvS (0.02) 560 3845 ylabel
GSN 620 4682 M 54 0 rL SGR
GSN 4220 4682 M -54 0 rL SGR
helvS (0.04) 560 4682 ylabel
%
% Y axis: small tics
%
L5
GSN 620 1751 M 36 0 rL SGR
GSN 4220 1751 M -36 0 rL SGR
GSN 620 1960 M 36 0 rL SGR
GSN 4220 1960 M -36 0 rL SGR
GSN 620 2170 M 36 0 rL SGR
GSN 4220 2170 M -36 0 rL SGR
GSN 620 2379 M 36 0 rL SGR
GSN 4220 2379 M -36 0 rL SGR
GSN 620 2588 M 36 0 rL SGR
GSN 4220 2588 M -36 0 rL SGR
GSN 620 2798 M 36 0 rL SGR
GSN 4220 2798 M -36 0 rL SGR
GSN 620 3007 M 36 0 rL SGR
GSN 4220 3007 M -36 0 rL SGR
GSN 620 3217 M 36 0 rL SGR
GSN 4220 3217 M -36 0 rL SGR
GSN 620 3426 M 36 0 rL SGR
GSN 4220 3426 M -36 0 rL SGR
GSN 620 3635 M 36 0 rL SGR
GSN 4220 3635 M -36 0 rL SGR
GSN 620 3845 M 36 0 rL SGR
GSN 4220 3845 M -36 0 rL SGR
GSN 620 4054 M 36 0 rL SGR
GSN 4220 4054 M -36 0 rL SGR
GSN 620 4264 M 36 0 rL SGR
GSN 4220 4264 M -36 0 rL SGR
GSN 620 4473 M 36 0 rL SGR
GSN 4220 4473 M -36 0 rL SGR
GSN 620 4682 M 36 0 rL SGR
GSN 4220 4682 M -36 0 rL SGR
GSN 620 4892 M 36 0 rL SGR
GSN 4220 4892 M -36 0 rL SGR
GSN 620 5101 M 36 0 rL SGR
GSN 4220 5101 M -36 0 rL SGR

%
% X axis - residual panel
%
GSN L5 620 3007 M 4220 3007 L SDA G50 SGR

%
% X-Axis label:
%
gsave 620 1370 M 
[
[(Helvetica) 180 0 true true 0 (t)]
[(Helvetica) 180 0 true true 0 (i)]
[(Helvetica) 180 0 true true 0 (m)]
[(Helvetica) 180 0 true true 0 (e)]
] 0 MCshow grestore

%
% Y-Axis label:
%
gsave 234 3500 M 
currentpoint gsave translate 90 rotate 0 0 moveto
[
[(Helvetica) 180 0 true true 0 (r)]
[(Helvetica) 180 0 true true 0 (e)]
[(Helvetica) 180 0 true true 0 (s)]
[(Helvetica) 180 0 true true 0 (i)]
[(Helvetica) 180 0 true true 0 (d)]
[(Helvetica) 180 0 true true 0 (u)]
[(Helvetica) 180 0 true true 0 (a)]
[(Helvetica) 180 0 true true 0 (l)]
[(Helvetica) 180 0 true true 0 (s)]
] 0 MCshow grestore

end
showpage
%%Trailer
%%EOF
