%!PS-Adobe-3.0 EPSF-3.0
%%BoundingBox: 0 0 514 550
%%Creator: BioKin Ltd.
%%DocumentFonts: Symbol Helvetica
%%EndComments
%
/bkdict 256 dict def
bkdict begin
/M {moveto} def 
/R {rmoveto} def
/L {lineto} def
/rL {rlineto} def
/GSN {gsave newpath} def
/SGR {stroke grestore} def
/COSGR {gsave setrgbcolor stroke grestore grestore} def
/SL {setlinewidth} def
/LWMB {12} def             % line width - model curves, black & white
/LWMC {10} def             % line width - model curves, color
/L2 {2.5 setlinewidth} def
/L5 {5 setlinewidth} def
/L10 {10 setlinewidth} def
/G50 {0.5 setgray} def
/SDA {[10  20] 0 setdash} def % axes
/helvT {/Helvetica findfont 100 scalefont setfont} def % tiny
/helvS {/Helvetica findfont 125 scalefont setfont} def % small
/helvM {/Helvetica findfont 150 scalefont setfont} def % medium
/helvL {/Helvetica findfont 175 scalefont setfont} def % large
/xlabel {gsave M dup
   stringwidth exch -0.5 mul exch rmoveto show grestore} def 
/ylabel {gsave M 90 rotate dup
   stringwidth exch -0.5 mul exch rmoveto show grestore} def
/ylabelresid {gsave M dup
   stringwidth exch -1 mul exch rmoveto show grestore} def
% ======
% Shapes
% ======
% Circle:
/Circ {0 360 arc closepath} def
%
% Square:
/Squa {dup dup -0.5 mul dup dup R -2 mul 0 exch rL 1 mul 0 rL dup 0 exch -1 mul rL closepath} def
%
% Triangle Up:
/TriU {dup dup dup -0.4 mul exch -0.5 mul exch R dup 0.5 mul exch rL dup -1 mul exch 0.5 mul exch rL closepath} def 
%
% Triangle Down:
/TriD {dup dup dup 0.4 mul exch -0.5 mul exch R dup 0.5 mul exch -1 mul rL dup 0.5 mul exch rL closepath} def 
%
% Diamond:
/Diam {45 rotate Squa} def
% ======
% Fills
% ======
/GRF {gsave setgray fill grestore} def                    % gray-level Fill
/COF {gsave setrgbcolor fill grestore} def                % color fill
% ======
% Colors
% ======
/C01 {1.00	0.00	0.00} def      % Red
/C02 {0.00	0.00	1.00} def      % Blue
/C03 {0.00	0.39	0.00} def      % Dark Green
/C04 {0.78	0.08	0.52} def      % Medium Violet Red
/C05 {0.55	0.27	0.07} def      % Saddle Brown
/C06 {0.10	0.70	0.70} def      % (cyan)
/C07 {1.00	0.55	0.00} def      % Dark Orange
/C08 {0.63	0.13	0.94} def      % Purple
/C09 {0.00	0.75	1.00} def      % Deep Sky Blue
/C10 {0.20	0.80	0.20} def      % Lime Green
/C11 {0.47	0.53	0.60} def      % Light Slate Gray
/C12 {0.00	0.00	0.00} def      % Black            % or: {0.19	0.31	0.31} def      % Dark Slate Gray
%
/LGR {0.75} def % light gray
/DGR {0.33} def % dark gray
%
% =============
% Dash patterns
% =============
/dash01 { [80  20] 0 setdash } def
/dash02 { [40  20] 0 setdash } def
/dash03 { [80  20  10  20] 0 setdash } def
/dash04 { [40  20  10  20] 0 setdash } def
/dash05 { [80  20  10  10  10  20] 0 setdash } def
/dash06 { [40  20  10  10  10  20] 0 setdash } def
/dash07 { [10  10] 0 setdash } def
%
/MFshow {
   { dup 5 get 3 ge
     { 5 get 3 eq {gsave} {grestore} ifelse }
     {dup dup 0 get findfont exch 1 get scalefont setfont
     [ currentpoint ] exch dup 2 get 0 exch R dup 5 get 2 ne {dup dup 6
     get exch 4 get {show} {stringwidth pop 0 R} ifelse }if dup 5 get 0 eq
     {dup 3 get {2 get neg 0 exch R pop} {pop aload pop M} ifelse} {dup 5
     get 1 eq {dup 2 get exch dup 3 get exch 6 get stringwidth pop -2 div
     dup 0 R} {dup 6 get stringwidth pop -2 div 0 R 6 get
     show 2 index {aload pop M neg 3 -1 roll neg R pop pop} {pop pop pop
     pop aload pop M} ifelse }ifelse }ifelse }
     ifelse }
   forall} bind def
/MFwidth {0 exch {dup 3 get{dup dup 0 get findfont exch 1 get scalefont
     setfont 6 get stringwidth pop add} {pop} ifelse} forall} bind def
/MCshow { currentpoint stroke M
  exch dup MFwidth -2 div 3 -1 roll R MFshow } def
%
end
%%EndProlog
bkdict begin
0.1 0.1 scale
%
% Model curves:
%

GSN 753 5103 M
753 5103 L
786 4825 L
820 4557 L
853 4303 L
886 4064 L
920 3845 L
929 3784 L
953 3646 L
986 3469 L
1020 3315 L
1053 3184 L
1086 3076 L
1106 3023 L
1120 2990 L
1153 2925 L
1186 2876 L
1220 2843 L
1253 2821 L
1282 2809 L
1286 2808 L
1319 2801 L
1353 2797 L
1386 2795 L
1419 2794 L
1453 2794 L
1459 2794 L
1486 2794 L
1519 2794 L
1553 2794 L
1586 2794 L
1619 2794 L
1635 2794 L
1653 2794 L
1686 2794 L
1719 2794 L
1753 2794 L
1786 2794 L
1812 2794 L
1819 2794 L
1853 2794 L
1886 2794 L
1919 2794 L
1953 2794 L
1986 2794 L
1988 2794 L
2019 2794 L
2053 2794 L
2086 2794 L
2119 2794 L
2153 2794 L
2165 2794 L
2186 2794 L
2219 2794 L
2253 2794 L
2286 2794 L
2319 2794 L
2341 2794 L
2353 2794 L
2386 2794 L
2419 2794 L
2453 2794 L
2486 2794 L
2518 2794 L
2519 2794 L
2553 2794 L
2586 2794 L
2619 2794 L
2653 2795 L
2686 2795 L
2694 2795 L
2719 2795 L
2753 2795 L
2786 2795 L
2819 2795 L
2853 2795 L
2871 2795 L
2886 2795 L
2919 2795 L
2953 2795 L
2986 2796 L
3019 2796 L
3047 2796 L
3053 2796 L
3086 2796 L
3119 2797 L
3153 2797 L
3186 2797 L
3219 2798 L
3224 2798 L
3253 2798 L
3286 2799 L
3319 2800 L
3353 2800 L
3386 2801 L
3400 2802 L
3419 2802 L
3453 2803 L
3476 2804 L
3486 2805 L
3519 2806 L
3553 2808 L
3577 2809 L
3586 2810 L
3619 2812 L
3653 2814 L
3686 2817 L
3719 2820 L
3753 2824 L
3754 2824 L
3786 2828 L
3819 2833 L
3853 2838 L
3886 2844 L
3919 2851 L
3930 2853 L
3953 2859 L
3986 2868 L
4019 2878 L
4053 2890 L
4086 2903 L
4086 2903 L
LWMC SL  C04 COSGR

%
% Experimental data:
%
GSN 777 5166 M
1388 5096 L
1552 4744 L
1652 4819 L
1723 5039 L
1778 4899 L
1824 4722 L
1863 4824 L
1896 4820 L
1926 4728 L
1952 4711 L
1976 4833 L
1998 4774 L
2019 4835 L
2037 4859 L
2055 4927 L
2071 4698 L
2086 4662 L
2101 4715 L
2115 4727 L
2128 4681 L
2140 4554 L
2152 4876 L
2163 4827 L
2174 4815 L
2184 4909 L
2194 4673 L
2204 4700 L
2213 4567 L
2222 4709 L
2230 4597 L
2239 4752 L
2247 4527 L
2255 4715 L
2262 4803 L
2270 4599 L
2277 4447 L
2284 4510 L
2290 4327 L
2297 4480 L
2303 4599 L
2310 4568 L
2316 4521 L
2322 4357 L
2328 4371 L
2333 4400 L
2339 4501 L
2344 4483 L
2350 4477 L
2355 4439 L
2360 4388 L
2365 4378 L
2370 4270 L
2375 4428 L
2380 4341 L
2384 4394 L
2389 4351 L
2393 4435 L
2398 4452 L
2402 4398 L
2407 4134 L
2411 4233 L
2415 4311 L
2419 4353 L
2423 4365 L
2427 4147 L
2431 4354 L
2435 4359 L
2438 4526 L
2442 4087 L
2446 4166 L
2449 4012 L
2453 4009 L
2456 4069 L
2460 4126 L
2463 4153 L
2467 4262 L
2470 4291 L
2473 4213 L
2476 4314 L
2480 4302 L
2483 4227 L
2486 3930 L
2489 4165 L
2492 3994 L
2495 4103 L
2498 4122 L
2501 4255 L
2504 4328 L
2507 4065 L
2510 4155 L
2512 3991 L
2515 4250 L
2518 4053 L
2521 4153 L
2523 4064 L
2526 4139 L
2529 3858 L
2531 4190 L
2534 3961 L
2536 4060 L
2539 3926 L
2541 3980 L
2544 4169 L
2546 4080 L
2549 4028 L
2551 4037 L
2554 4132 L
2556 4088 L
2558 3932 L
2561 4045 L
2563 3931 L
2565 4071 L
2568 4001 L
2570 3832 L
2572 3824 L
2574 4012 L
2576 4088 L
2579 3917 L
2581 3852 L
2583 3967 L
2585 3975 L
2587 3986 L
2589 3927 L
2591 3828 L
2593 4025 L
2595 3898 L
2597 3955 L
2599 3875 L
2601 3806 L
2603 3705 L
2605 3788 L
2607 3869 L
2609 4005 L
2611 3792 L
2613 3890 L
2615 3691 L
2617 3704 L
2618 3746 L
2620 3785 L
2622 3652 L
2624 3921 L
2626 3930 L
2627 3660 L
2629 3735 L
2631 3807 L
2633 3797 L
2634 3758 L
2636 3747 L
2638 3807 L
2640 3685 L
2641 3668 L
2643 3881 L
2645 3804 L
2646 3738 L
2648 3624 L
2650 3830 L
2651 3792 L
2653 3774 L
2654 3709 L
2656 3676 L
2658 3732 L
2659 3885 L
2661 3815 L
2662 3748 L
2664 3726 L
2665 3446 L
2667 3574 L
2668 3588 L
2670 3795 L
2671 3671 L
2673 3741 L
2674 3662 L
2676 3618 L
2677 3495 L
2679 3584 L
2680 3650 L
2682 3643 L
2683 3775 L
2685 3608 L
2686 3686 L
2687 3442 L
2689 3551 L
2690 3503 L
2692 3508 L
2693 3841 L
2694 3737 L
2696 3601 L
2697 3636 L
2698 3597 L
2700 3472 L
2701 3671 L
2702 3509 L
2704 3583 L
2705 3659 L
2706 3602 L
2708 3490 L
2709 3466 L
2710 3529 L
2712 3475 L
2713 3599 L
2714 3458 L
2715 3580 L
2717 3612 L
2718 3387 L
2719 3570 L
2720 3555 L
2722 3460 L
2723 3489 L
2724 3431 L
2725 3544 L
2726 3463 L
2728 3446 L
2729 3457 L
2730 3512 L
2731 3288 L
2732 3481 L
2734 3435 L
2735 3389 L
2736 3582 L
2737 3616 L
2738 3210 L
2739 3172 L
2741 3239 L
2742 3639 L
2743 3601 L
2744 3515 L
2745 3567 L
2746 3412 L
2747 3504 L
2748 3346 L
2749 3414 L
2751 3505 L
2752 3510 L
2753 3504 L
2754 3438 L
2755 3357 L
2756 3400 L
2757 3299 L
2758 3457 L
2759 3223 L
2760 3266 L
2761 3330 L
2762 3591 L
2763 3303 L
2764 3317 L
2765 3228 L
2767 3328 L
2768 3223 L
2769 3169 L
2770 3354 L
2771 3524 L
2772 3427 L
2773 3282 L
2774 3244 L
2775 3472 L
2776 3326 L
2777 3375 L
2778 3338 L
2779 3316 L
2780 3504 L
2781 3250 L
2782 3493 L
2783 3424 L
2783 3392 L
2784 3291 L
2785 3256 L
2786 3442 L
2787 3042 L
2788 3308 L
2789 3223 L
2790 3060 L
2791 3393 L
2792 3317 L
2793 3173 L
2794 3435 L
2795 3273 L
2796 3147 L
2797 3294 L
2798 3357 L
2798 3114 L
2799 3000 L
2800 3297 L
2801 3242 L
2802 3158 L
2803 3225 L
2804 3366 L
2805 3313 L
2806 3066 L
2807 3256 L
2807 3225 L
2808 3056 L
2809 3291 L
2810 3213 L
2811 3150 L
2812 3030 L
2813 3237 L
2813 3275 L
2814 3146 L
2815 3128 L
2816 3025 L
2817 3351 L
2818 3153 L
2819 3266 L
2819 3057 L
2820 3161 L
2821 3267 L
2822 3020 L
2823 3196 L
2824 3046 L
2824 3221 L
2825 3284 L
2826 3173 L
2827 3034 L
2828 2887 L
2828 3152 L
2829 3009 L
2830 3239 L
2831 3123 L
2832 3199 L
2832 3050 L
2833 3045 L
2834 2977 L
2835 2959 L
2836 2918 L
2836 3016 L
2837 3022 L
2838 3210 L
2839 3225 L
2840 3135 L
2840 2887 L
2841 3081 L
2842 2933 L
2843 3158 L
2843 2978 L
2844 3055 L
2845 3169 L
2846 2910 L
2846 2934 L
2847 2983 L
2848 3022 L
2849 2957 L
2849 3000 L
2850 3130 L
2851 3072 L
2852 2965 L
2852 2853 L
2853 3060 L
2854 3081 L
2855 2984 L
2855 3065 L
2856 2821 L
2857 2947 L
2857 3060 L
2858 3065 L
2859 3168 L
2860 2991 L
2860 2967 L
2861 2953 L
2862 2988 L
2862 2979 L
2863 3050 L
2864 2957 L
2865 2820 L
2865 2821 L
2866 2947 L
2867 3037 L
2867 3052 L
2868 2821 L
2869 2905 L
2869 2971 L
2870 2891 L
2871 3035 L
2871 3013 L
2872 2872 L
2873 3057 L
2873 2829 L
2874 2952 L
2875 3012 L
2876 3146 L
2876 2898 L
2877 2879 L
2878 2766 L
2878 2824 L
2879 2971 L
2880 2819 L
2880 2786 L
2881 2939 L
2881 2928 L
2882 2852 L
2883 3133 L
2883 2838 L
2884 2988 L
2885 2820 L
2885 2858 L
2886 2813 L
2887 2833 L
2887 3006 L
2888 2875 L
2889 2876 L
2889 3068 L
2892 2893 L
2894 2584 L
2897 2945 L
2899 2788 L
2902 2548 L
2904 2709 L
2907 2731 L
2909 2895 L
2911 2879 L
2914 2920 L
2916 2823 L
2918 2892 L
2921 2836 L
2923 2699 L
2925 2617 L
2927 2654 L
2929 2766 L
2932 2800 L
2934 2537 L
2936 2581 L
2938 2611 L
2940 2802 L
2942 2708 L
2944 2654 L
2946 2667 L
2948 2539 L
2950 2638 L
2952 2676 L
2954 2666 L
2956 2513 L
2958 2662 L
2960 2484 L
2962 2437 L
2964 2733 L
2966 2473 L
2968 2584 L
2970 2683 L
2971 2651 L
2973 2510 L
2975 2588 L
2977 2810 L
2979 2594 L
2980 2618 L
2982 2515 L
2984 2556 L
2986 2454 L
2987 2300 L
2989 2576 L
2991 2548 L
2993 2475 L
2994 2503 L
2996 2506 L
2998 2500 L
2999 2640 L
3001 2437 L
3003 2585 L
3004 2373 L
3006 2558 L
3007 2572 L
3009 2308 L
3011 2599 L
3012 2455 L
3014 2454 L
3015 2364 L
3017 2356 L
3018 2323 L
3020 2349 L
3021 2150 L
3023 2406 L
3024 2381 L
3026 2360 L
3027 2231 L
3029 2392 L
3030 2298 L
3032 2597 L
3033 2203 L
3035 2215 L
3036 2513 L
3038 2332 L
3039 2313 L
3040 2476 L
3042 2340 L
3043 2312 L
3045 2288 L
3046 2365 L
3047 2402 L
3049 2375 L
3050 2216 L
3051 2160 L
3053 2394 L
3054 2270 L
3055 2346 L
3057 2144 L
3058 2368 L
3059 2363 L
3061 2291 L
3062 2288 L
3063 2279 L
3065 2427 L
3066 2022 L
3067 2279 L
3068 2351 L
3070 2097 L
3071 2301 L
3072 2149 L
3073 2305 L
3075 2113 L
3076 2282 L
3077 2111 L
3078 2289 L
3079 2284 L
3081 2323 L
3082 2138 L
3083 2291 L
3084 2259 L
3085 2163 L
3087 2251 L
3088 2269 L
3089 2199 L
3090 2253 L
3091 2231 L
3092 2211 L
3094 2510 L
3095 2495 L
3096 2105 L
3097 2244 L
3098 2156 L
3099 2212 L
3100 2117 L
3101 2219 L
3103 2073 L
3104 2175 L
3105 2329 L
3106 2262 L
3107 2359 L
3108 2028 L
3109 2197 L
3110 2132 L
3111 2328 L
3112 2185 L
3113 2184 L
3114 2248 L
3115 2156 L
3116 2062 L
3117 2192 L
3119 2218 L
3120 2250 L
3121 2000 L
3122 2207 L
3123 2115 L
3124 2188 L
3125 2003 L
3126 2116 L
3127 2118 L
3128 2023 L
3129 2440 L
3130 2097 L
3131 2115 L
3132 2003 L
3133 2281 L
3134 2018 L
3135 2205 L
3136 2104 L
3136 2239 L
3137 2152 L
3138 2120 L
3139 2248 L
3140 2041 L
3141 2187 L
3142 2107 L
3143 2193 L
3144 2038 L
3145 2097 L
3146 2339 L
3147 2144 L
3148 2192 L
3149 2111 L
3150 2083 L
3151 2142 L
3151 2215 L
3152 2119 L
3153 1997 L
3154 2111 L
3155 2096 L
3156 1985 L
3157 2072 L
3158 2192 L
3159 2134 L
3160 1926 L
3160 2083 L
3161 2261 L
3162 2187 L
3163 2115 L
3164 2254 L
3165 2207 L
3166 2083 L
3166 2172 L
3167 2178 L
3168 2103 L
3169 2085 L
3170 2166 L
3171 2135 L
3172 2164 L
3172 2126 L
3173 2113 L
3174 2040 L
3175 2105 L
3176 2149 L
3177 2158 L
3177 2066 L
3178 2235 L
3179 2081 L
3180 2172 L
3181 2097 L
3181 2105 L
3182 2117 L
3183 2117 L
3184 2038 L
3185 2062 L
3185 2090 L
3186 2204 L
3187 2081 L
3188 2057 L
3189 2091 L
3189 2108 L
3190 1928 L
3191 2072 L
3192 2185 L
3193 2185 L
3193 2134 L
3194 2152 L
3195 2215 L
3196 2095 L
3196 2181 L
3197 2135 L
3198 2253 L
3199 2110 L
3199 2216 L
3200 2250 L
3201 2187 L
3202 2165 L
3202 2234 L
3203 2173 L
3204 2156 L
3205 1979 L
3205 2068 L
3206 2083 L
3207 2137 L
3208 2094 L
3208 2132 L
3209 2027 L
3210 1973 L
3210 2219 L
3211 1994 L
3212 2254 L
3213 2045 L
3213 2149 L
3214 2100 L
3215 2084 L
3215 2112 L
3216 2104 L
3217 2089 L
3218 2049 L
3218 2094 L
3219 2146 L
3220 1833 L
3220 2085 L
3221 2117 L
3222 2072 L
3222 2122 L
3223 2072 L
3224 2103 L
3224 2161 L
3225 2209 L
3226 2195 L
3227 1928 L
3227 2084 L
3228 2231 L
3229 2153 L
3229 2128 L
3230 2022 L
3231 2162 L
3231 2167 L
3232 2120 L
3233 2097 L
3233 2215 L
3234 2115 L
3235 2046 L
3235 2115 L
3236 2078 L
3236 2122 L
3237 2051 L
3238 2128 L
3238 2176 L
3239 2123 L
3240 2027 L
3240 2260 L
3241 1974 L
3242 1957 L
3242 2172 L
3243 2124 L
3244 1944 L
3244 2270 L
3245 2181 L
3245 2166 L
3246 2195 L
3247 2244 L
3247 2122 L
3248 2128 L
3249 2148 L
3249 2349 L
3250 2229 L
3250 2154 L
3251 2248 L
3252 2196 L
3252 2190 L
3253 2099 L
3253 2257 L
3254 2415 L
3255 2191 L
3255 2169 L
3256 1990 L
3257 2166 L
3257 2223 L
3258 2287 L
3258 2182 L
3259 2255 L
3259 2082 L
3260 2175 L
3261 2329 L
3261 2173 L
3262 2208 L
3262 2063 L
3263 2284 L
3264 1906 L
3264 2335 L
3265 2045 L
3265 2222 L
3266 2337 L
3267 1994 L
3267 2344 L
3268 2152 L
3268 2323 L
3269 2156 L
3269 2118 L
3270 2225 L
3271 2238 L
3271 2271 L
3272 2212 L
3272 2325 L
3273 2289 L
3273 2153 L
3274 2205 L
3275 2155 L
3275 2267 L
3276 2149 L
3276 2215 L
3277 2149 L
3277 2302 L
3278 2122 L
3278 2200 L
3279 2466 L
3280 2216 L
3280 2143 L
3281 2217 L
3281 2348 L
3282 2268 L
3282 2289 L
3283 1905 L
3283 2222 L
3284 2098 L
3284 2244 L
3285 2287 L
3285 2217 L
3286 2209 L
3287 2313 L
3287 2418 L
3288 2092 L
3288 2332 L
3289 2179 L
3289 2149 L
3290 2224 L
3290 2302 L
3291 2204 L
3291 2290 L
3292 2285 L
3292 2188 L
3293 2262 L
3293 2202 L
3294 2158 L
3294 2301 L
3295 2141 L
3295 2281 L
3296 2328 L
3297 2220 L
3297 2138 L
3298 2094 L
3298 2362 L
3299 2091 L
3299 2089 L
3300 2123 L
3300 2307 L
3301 2143 L
3301 2316 L
3302 2214 L
3302 2360 L
3303 2274 L
3303 2313 L
3304 2315 L
3304 2336 L
3305 2149 L
3305 2267 L
3306 2435 L
3306 2187 L
3307 2140 L
3307 2282 L
3308 2389 L
3308 2196 L
3309 2122 L
3309 2302 L
3310 2280 L
3310 2287 L
3311 2409 L
3311 2244 L
3312 2238 L
3312 2234 L
3312 2328 L
3313 2290 L
3313 2240 L
3314 2227 L
3314 2377 L
3315 2279 L
3315 2210 L
3316 2186 L
3316 2214 L
3317 2453 L
3317 2361 L
3318 2219 L
3318 2364 L
3319 2412 L
3319 2316 L
3320 2185 L
3320 2144 L
3321 2218 L
3321 2234 L
3321 2428 L
3322 2269 L
3322 2385 L
3323 2267 L
3323 2400 L
3324 2253 L
3324 2198 L
3325 2205 L
3325 2097 L
3326 2324 L
3326 2332 L
3327 2325 L
3327 2427 L
3327 2267 L
3328 2347 L
3328 2524 L
3329 2279 L
3329 2310 L
3330 2417 L
3330 2416 L
3331 2454 L
3331 2246 L
3332 2296 L
3332 2104 L
3332 2249 L
3333 2246 L
3333 2290 L
3334 2359 L
3334 2224 L
3335 2249 L
3335 2337 L
3336 2426 L
3336 2228 L
3336 2358 L
3337 2400 L
3337 2425 L
3338 2351 L
3338 2156 L
3339 2271 L
3339 2360 L
3339 2323 L
3340 2182 L
3340 2410 L
3341 2405 L
3341 2257 L
3342 2312 L
3342 2438 L
3343 2288 L
3343 2293 L
3343 2291 L
3344 2395 L
3344 2438 L
3345 2439 L
3345 2398 L
3346 2302 L
3346 2395 L
3346 2431 L
3347 2207 L
3347 2542 L
3348 2382 L
3348 2423 L
3348 2283 L
3349 2296 L
3349 2307 L
3350 2501 L
3350 2276 L
3351 2345 L
3351 2264 L
3351 2368 L
3352 2343 L
3352 2337 L
3353 2301 L
3353 2286 L
3353 2360 L
3354 2435 L
3354 2345 L
3355 2459 L
3355 2438 L
3355 2452 L
3356 2320 L
3356 2306 L
3357 2467 L
3357 2271 L
3358 2256 L
3358 2457 L
3358 2264 L
3359 2248 L
3359 2340 L
3360 2325 L
3360 2457 L
3360 2308 L
3361 2362 L
3361 2391 L
3362 2394 L
3362 2280 L
3362 2379 L
3363 2345 L
3363 2432 L
3364 2483 L
3364 2360 L
3364 2362 L
3365 2297 L
3365 2489 L
3365 2300 L
3366 2388 L
3366 2522 L
3367 2496 L
3367 2511 L
3367 2340 L
3368 2483 L
3368 2446 L
3369 2291 L
3369 2405 L
3369 2306 L
3370 2255 L
3370 2426 L
3371 2383 L
3371 2316 L
3371 2443 L
3372 2354 L
3372 2412 L
3372 2392 L
3373 2262 L
3373 2364 L
3374 2441 L
3374 2307 L
3374 2649 L
3375 2392 L
3375 2380 L
3375 2431 L
3376 2473 L
3376 2443 L
3377 2418 L
3377 2419 L
3377 2300 L
3378 2370 L
3378 2440 L
3378 2480 L
3379 2512 L
3379 2351 L
3380 2279 L
3380 2459 L
3380 2570 L
3381 2503 L
3381 2329 L
3381 2449 L
3382 2398 L
3382 2460 L
3383 2427 L
3383 2460 L
3383 2376 L
3384 2469 L
3384 2581 L
3384 2497 L
3385 2392 L
3385 2443 L
3385 2471 L
3386 2414 L
3386 2481 L
3387 2474 L
3387 2408 L
3387 2578 L
3388 2440 L
3388 2532 L
3388 2247 L
3389 2452 L
3389 2400 L
3389 2413 L
3390 2359 L
3390 2624 L
3391 2448 L
3391 2490 L
3391 2496 L
3392 2399 L
3392 2406 L
3392 2576 L
3393 2505 L
3393 2167 L
3393 2473 L
3394 2424 L
3394 2423 L
3394 2355 L
3395 2539 L
3395 2455 L
3395 2473 L
3396 2528 L
3396 2412 L
3396 2541 L
3397 2391 L
3397 2393 L
3398 2333 L
3398 2536 L
3398 2406 L
3399 2421 L
3399 2463 L
3399 2412 L
3400 2394 L
3400 2449 L
3400 2418 L
3401 2530 L
3401 2576 L
3401 2522 L
3402 2365 L
3402 2588 L
3402 2441 L
3403 2643 L
3403 2478 L
3403 2480 L
3404 2533 L
3404 2420 L
3404 2383 L
3405 2643 L
3405 2388 L
3405 2500 L
3406 2518 L
3406 2534 L
3406 2516 L
3407 2516 L
3407 2656 L
3407 2310 L
3408 2288 L
3408 2285 L
3408 2499 L
3409 2453 L
3409 2429 L
3409 2483 L
3410 2483 L
3410 2547 L
3410 2676 L
3411 2511 L
3411 2584 L
3411 2548 L
3412 2415 L
3412 2407 L
3412 2608 L
3413 2641 L
3413 2501 L
3413 2506 L
3414 2576 L
3414 2561 L
3414 2481 L
3415 2576 L
3415 2452 L
3415 2658 L
3416 2533 L
3416 2425 L
3416 2317 L
3417 2630 L
3417 2647 L
3417 2530 L
3417 2393 L
3418 2526 L
3418 2578 L
3418 2423 L
3419 2535 L
3419 2663 L
3419 2354 L
3420 2564 L
3420 2521 L
3420 2513 L
3421 2573 L
3421 2482 L
3421 2507 L
3422 2495 L
3422 2662 L
3422 2379 L
3423 2424 L
3423 2598 L
3423 2517 L
3423 2630 L
3424 2583 L
3424 2582 L
3424 2376 L
3425 2500 L
3425 2641 L
3425 2567 L
3426 2686 L
3426 2705 L
3426 2754 L
3427 2385 L
3427 2579 L
3427 2419 L
3428 2396 L
3428 2460 L
3428 2529 L
3428 2659 L
3429 2359 L
3429 2573 L
3429 2642 L
3430 2752 L
3430 2443 L
3430 2463 L
3431 2398 L
3431 2454 L
3431 2616 L
3431 2529 L
3432 2509 L
3432 2490 L
3432 2575 L
3433 2637 L
3433 2660 L
3433 2618 L
3434 2551 L
3434 2624 L
3434 2541 L
3434 2522 L
3435 2467 L
3435 2497 L
3435 2593 L
3436 2637 L
3436 2697 L
3436 2568 L
3437 2608 L
3437 2576 L
3437 2601 L
3437 2489 L
3438 2489 L
3438 2480 L
3438 2576 L
3439 2481 L
3439 2523 L
3439 2577 L
3440 2674 L
3440 2637 L
3440 2633 L
3440 2578 L
3441 2662 L
3441 2620 L
3441 2548 L
3442 2550 L
3442 2544 L
3442 2645 L
3442 2572 L
3443 2695 L
3443 2781 L
3443 2578 L
3444 2631 L
3444 2599 L
3444 2603 L
3444 2768 L
3445 2572 L
3445 2561 L
3445 2683 L
3446 2516 L
3446 2511 L
3446 2643 L
3446 2568 L
3447 2367 L
3447 2524 L
3447 2723 L
3448 2582 L
3448 2582 L
3448 2536 L
3448 2539 L
3449 2585 L
3449 2574 L
3449 2535 L
3450 2542 L
3450 2726 L
3450 2650 L
3450 2587 L
3451 2630 L
3451 2599 L
3451 2501 L
3452 2588 L
3452 2600 L
3452 2444 L
3452 2616 L
3453 2817 L
3453 2760 L
3453 2856 L
3454 2538 L
3454 2559 L
3454 2492 L
3454 2584 L
3455 2502 L
3455 2552 L
3455 2490 L
3455 2657 L
3456 2510 L
3456 2549 L
3456 2561 L
3457 2797 L
3457 2638 L
3457 2452 L
3457 2467 L
3458 2411 L
3458 2630 L
3458 2569 L
3458 2741 L
3459 2553 L
3459 2553 L
3459 2506 L
3460 2623 L
3460 2539 L
3460 2528 L
3460 2800 L
3461 2629 L
3461 2730 L
3461 2542 L
3461 2931 L
3462 2579 L
3462 2732 L
3462 2648 L
3463 2523 L
3463 2501 L
3463 2567 L
3463 2598 L
3464 2429 L
3464 2539 L
3464 2626 L
3464 2708 L
3465 2616 L
3465 2565 L
3465 2621 L
3465 2686 L
3466 2403 L
3466 2576 L
3466 2726 L
3466 2706 L
3467 2446 L
3467 2709 L
3467 2581 L
3468 2599 L
3468 2744 L
3468 2713 L
3468 2677 L
3469 2506 L
3469 2587 L
3469 2601 L
3469 2620 L
3470 2712 L
3470 2722 L
3470 2616 L
3470 2607 L
3471 2593 L
3471 2980 L
3471 2625 L
3471 2578 L
3472 2615 L
3472 2863 L
3472 2918 L
3472 2608 L
3473 2595 L
3473 2723 L
3473 2789 L
3474 2668 L
3474 2737 L
3474 2711 L
3474 2519 L
3475 2640 L
3475 2640 L
3475 2688 L
3475 2761 L
3476 2550 L
3476 2764 L
3476 2648 L
3476 2787 L
3477 2680 L
3477 2887 L
3477 2700 L
3477 2654 L
3478 2604 L
3478 2829 L
3478 2745 L
3478 2587 L
3479 2808 L
3479 2591 L
3479 2790 L
3479 2740 L
3480 2607 L
3480 2660 L
3480 2688 L
3480 2605 L
3481 2797 L
3481 2615 L
3481 2680 L
3481 2714 L
3482 2553 L
3482 2726 L
3482 2745 L
3482 2772 L
3483 2622 L
3483 2755 L
3483 2717 L
3483 2794 L
3484 2732 L
3484 2731 L
3484 2812 L
3484 2662 L
3485 2753 L
3485 2697 L
3485 2542 L
3485 2470 L
3486 2550 L
3486 2621 L
3486 2698 L
3486 2569 L
3487 2622 L
3487 2712 L
3487 2766 L
3487 2728 L
3488 2724 L
3488 2754 L
3488 2827 L
3488 2858 L
3488 2740 L
3489 2681 L
3489 2626 L
3489 2646 L
3489 2762 L
3490 2799 L
3490 2692 L
3490 2662 L
3490 2430 L
3491 2684 L
3491 2770 L
3491 2601 L
3491 2728 L
3492 2739 L
3492 2663 L
3492 2756 L
3492 2644 L
3493 2597 L
3493 2680 L
3493 2578 L
3493 2692 L
3494 2744 L
3494 2687 L
3494 2702 L
3494 2672 L
3494 2879 L
3495 2709 L
3495 2516 L
3495 2814 L
3495 2793 L
3496 2692 L
3496 2847 L
3496 2650 L
3496 2625 L
3497 2807 L
3497 2656 L
3497 2511 L
3497 2648 L
3498 2749 L
3498 2579 L
3498 2892 L
3498 2628 L
3498 2711 L
3499 2757 L
3499 2809 L
3499 2800 L
3499 2691 L
3500 2578 L
3500 2867 L
3506 2639 L
3511 2688 L
3517 2841 L
3522 2714 L
3527 2878 L
3532 2756 L
3537 2804 L
3542 2734 L
3547 2915 L
3552 2894 L
3557 2745 L
3561 2853 L
3566 2850 L
3570 2965 L
3575 2913 L
3579 2953 L
3583 3048 L
3587 2857 L
3591 2919 L
3595 3051 L
3599 3061 L
3603 2903 L
3607 2837 L
3611 2922 L
3614 2779 L
3618 2971 L
3622 3049 L
3625 3086 L
3629 2903 L
3632 2977 L
3636 2895 L
3639 2954 L
3642 3054 L
3646 2894 L
3649 3164 L
3652 2765 L
3655 2854 L
3658 3040 L
3661 3103 L
3664 3012 L
3667 2763 L
3670 3093 L
3673 3041 L
3676 3160 L
3679 3080 L
3682 3085 L
3685 2985 L
3688 3005 L
3690 2808 L
3693 2892 L
3696 3128 L
3698 2869 L
3701 3061 L
3704 2889 L
3706 3062 L
3709 2868 L
3711 3154 L
3714 3046 L
3716 3006 L
3719 3072 L
3721 2968 L
3724 2798 L
3726 2937 L
3728 3064 L
3731 3057 L
3733 2940 L
3735 3110 L
3738 2937 L
3740 2934 L
3742 3090 L
3744 3263 L
3747 3051 L
3749 2854 L
3751 3055 L
3753 3081 L
3755 2773 L
3757 2820 L
3760 3208 L
3762 2960 L
3764 2850 L
3766 3160 L
3768 3009 L
3770 2882 L
3772 3161 L
3774 3116 L
3776 2972 L
3778 3037 L
3780 3109 L
3781 2943 L
3783 3059 L
3785 2966 L
3787 3193 L
3789 2940 L
3791 3120 L
3793 3014 L
3795 3087 L
3796 3109 L
3798 2957 L
3800 2934 L
3802 3039 L
3803 3120 L
3805 2945 L
3807 3127 L
3809 3094 L
3810 3133 L
3812 3133 L
3814 3000 L
3816 3060 L
3817 3098 L
3819 3031 L
3820 2789 L
3822 3155 L
3824 2733 L
3825 3129 L
3827 2983 L
3829 2953 L
3830 2984 L
3832 3056 L
3833 3176 L
3835 3191 L
3836 2829 L
3838 3091 L
3839 3018 L
3841 3137 L
3842 2872 L
3844 3029 L
3845 3046 L
3847 2891 L
3848 3251 L
3850 3203 L
3851 3030 L
3853 2969 L
3854 3029 L
3856 3027 L
3857 3056 L
3859 3084 L
3860 3065 L
3861 2884 L
3863 3043 L
3864 3057 L
3866 2947 L
3867 2928 L
3868 3306 L
3870 2941 L
3871 3005 L
3872 3081 L
3874 3057 L
3875 3061 L
3876 2956 L
3878 3021 L
3879 3195 L
3880 2980 L
3882 2827 L
3883 2895 L
3884 3096 L
3885 3150 L
3887 2978 L
3888 3155 L
3889 3081 L
3890 2993 L
3892 3142 L
3893 3133 L
3894 3047 L
3895 3154 L
3897 2971 L
3898 2972 L
3899 3154 L
3900 3220 L
3901 2915 L
3903 2984 L
3904 3275 L
3905 3057 L
3906 2950 L
3907 3260 L
3908 3080 L
3910 3025 L
3911 3096 L
3912 2983 L
3913 2947 L
3914 3043 L
3915 2907 L
3917 2996 L
3918 3083 L
3919 2968 L
3920 2948 L
3921 2821 L
3922 2844 L
3923 3016 L
3924 3116 L
3925 3019 L
3926 2922 L
3928 2882 L
3929 3083 L
3930 2922 L
3931 3013 L
3932 2875 L
3933 2941 L
3934 2953 L
3935 3071 L
3936 2900 L
3937 3031 L
3938 3148 L
3939 3181 L
3940 3024 L
3941 2941 L
3942 3223 L
3943 3030 L
3944 3105 L
3945 2980 L
3946 3015 L
3947 2667 L
3948 3020 L
3949 3065 L
3950 3112 L
3951 3092 L
3952 2895 L
3953 3068 L
3954 3066 L
3955 3183 L
3956 3020 L
3957 2922 L
3958 3048 L
3959 3069 L
3960 2998 L
3961 3021 L
3962 3040 L
3963 3112 L
3964 2922 L
3965 2931 L
3966 2929 L
3966 2864 L
3967 3119 L
3968 3238 L
3969 3111 L
3970 2951 L
3971 2984 L
3972 2839 L
3973 3163 L
3974 3082 L
3975 2912 L
3976 2928 L
3976 3092 L
3977 2983 L
3978 2971 L
3979 3005 L
3980 3058 L
3981 2858 L
3982 2906 L
3983 3179 L
3983 3113 L
3984 3159 L
3985 2956 L
3986 3036 L
3987 3071 L
3988 2959 L
3989 3257 L
3989 2863 L
3990 3029 L
3991 2987 L
3992 3175 L
3993 3005 L
3994 3106 L
3995 2855 L
3995 3016 L
3996 3154 L
3997 3115 L
3998 3138 L
3999 3139 L
3999 2888 L
4000 2956 L
4001 2711 L
4002 2963 L
4003 2916 L
4003 2888 L
4004 3086 L
4005 2919 L
4006 3093 L
4007 3073 L
4007 2927 L
4008 3038 L
4009 2911 L
4010 3117 L
4011 2934 L
4011 2865 L
4012 2934 L
4013 3013 L
4014 2976 L
4014 3108 L
4015 2982 L
4016 3005 L
4017 3041 L
4017 3056 L
4018 2913 L
4019 3003 L
4020 3338 L
4021 3008 L
4021 2971 L
4022 3044 L
4023 2904 L
4023 3005 L
4024 2948 L
4025 2793 L
4026 2971 L
4026 3117 L
4027 3097 L
4028 2944 L
4029 2989 L
4029 3089 L
4030 3014 L
4031 2912 L
4032 2938 L
4032 3444 L
4033 2924 L
4034 3086 L
4034 2869 L
4035 3088 L
4036 3033 L
4036 3036 L
4037 2894 L
4038 2959 L
4039 3114 L
4039 2856 L
4040 3226 L
4041 3092 L
4041 2913 L
4042 3087 L
4043 2961 L
4043 3062 L
4044 3067 L
4045 2999 L
4045 3119 L
4046 3083 L
4047 2896 L
4047 3142 L
4048 3097 L
4049 3076 L
4050 2866 L
4050 2836 L
4051 3113 L
4052 2931 L
4052 3080 L
4053 2973 L
4053 3210 L
4054 2960 L
4055 3015 L
4055 2941 L
4056 2950 L
4057 2844 L
4057 3152 L
4058 2897 L
4059 3213 L
4059 3027 L
4060 2960 L
4061 3107 L
4061 2863 L
4062 2974 L
L2 C04 COSGR

%
%================
% Legend - Begin
%================
%
GSN 4240 5180 M
4480 5180 L
LWMC SL  C04 COSGR
GSN 4540 5141 M helvM (2.0 uM) show grestore
%
%================
% Legend - End
%================
%

%
% Residuals:
%
GSN 777 1059 M
1388 1569 L
1552 1481 L
1652 1499 L
1723 1555 L
1778 1519 L
1824 1475 L
1863 1501 L
1896 1500 L
1926 1477 L
1952 1472 L
1976 1503 L
1998 1488 L
2019 1503 L
2037 1509 L
2055 1526 L
2071 1469 L
2086 1460 L
2101 1473 L
2115 1476 L
2128 1465 L
2140 1433 L
2152 1514 L
2163 1502 L
2174 1498 L
2184 1522 L
2194 1463 L
2204 1470 L
2213 1436 L
2222 1472 L
2230 1444 L
2239 1483 L
2247 1426 L
2255 1473 L
2262 1495 L
2270 1444 L
2277 1406 L
2284 1422 L
2290 1376 L
2297 1415 L
2303 1444 L
2310 1437 L
2316 1425 L
2322 1384 L
2328 1387 L
2333 1395 L
2339 1420 L
2344 1415 L
2350 1414 L
2355 1404 L
2360 1391 L
2365 1389 L
2370 1362 L
2375 1401 L
2380 1380 L
2384 1393 L
2389 1382 L
2393 1403 L
2398 1408 L
2402 1394 L
2407 1328 L
2411 1353 L
2415 1372 L
2419 1383 L
2423 1386 L
2427 1331 L
2431 1383 L
2435 1384 L
2438 1426 L
2442 1316 L
2446 1336 L
2449 1297 L
2453 1297 L
2456 1311 L
2460 1326 L
2463 1333 L
2467 1360 L
2470 1367 L
2473 1348 L
2476 1373 L
2480 1370 L
2483 1351 L
2486 1277 L
2489 1336 L
2492 1293 L
2495 1320 L
2498 1325 L
2501 1358 L
2504 1376 L
2507 1311 L
2510 1333 L
2512 1292 L
2515 1357 L
2518 1307 L
2521 1333 L
2523 1310 L
2526 1329 L
2529 1259 L
2531 1342 L
2534 1284 L
2536 1309 L
2539 1276 L
2541 1289 L
2544 1337 L
2546 1314 L
2549 1301 L
2551 1304 L
2554 1327 L
2556 1316 L
2558 1277 L
2561 1305 L
2563 1277 L
2565 1312 L
2568 1294 L
2570 1252 L
2572 1250 L
2574 1297 L
2576 1316 L
2579 1273 L
2581 1257 L
2583 1286 L
2585 1288 L
2587 1291 L
2589 1276 L
2591 1251 L
2593 1300 L
2595 1269 L
2597 1283 L
2599 1263 L
2601 1246 L
2603 1220 L
2605 1241 L
2607 1261 L
2609 1295 L
2611 1242 L
2613 1267 L
2615 1217 L
2617 1220 L
2618 1231 L
2620 1240 L
2622 1207 L
2624 1274 L
2626 1277 L
2627 1209 L
2629 1228 L
2631 1246 L
2633 1243 L
2634 1233 L
2636 1231 L
2638 1246 L
2640 1215 L
2641 1211 L
2643 1264 L
2645 1245 L
2646 1228 L
2648 1200 L
2650 1252 L
2651 1242 L
2653 1237 L
2654 1221 L
2656 1213 L
2658 1227 L
2659 1265 L
2661 1248 L
2662 1231 L
2664 1225 L
2665 1155 L
2667 1187 L
2668 1191 L
2670 1243 L
2671 1212 L
2673 1229 L
2674 1209 L
2676 1198 L
2677 1168 L
2679 1190 L
2680 1206 L
2682 1205 L
2683 1238 L
2685 1196 L
2686 1215 L
2687 1154 L
2689 1182 L
2690 1170 L
2692 1171 L
2693 1254 L
2694 1228 L
2696 1194 L
2697 1203 L
2698 1193 L
2700 1162 L
2701 1212 L
2702 1171 L
2704 1190 L
2705 1209 L
2706 1194 L
2708 1166 L
2709 1160 L
2710 1176 L
2712 1163 L
2713 1194 L
2714 1158 L
2715 1189 L
2717 1197 L
2718 1141 L
2719 1186 L
2720 1183 L
2722 1159 L
2723 1166 L
2724 1152 L
2725 1180 L
2726 1160 L
2728 1155 L
2729 1158 L
2730 1172 L
2731 1116 L
2732 1164 L
2734 1153 L
2735 1141 L
2736 1189 L
2737 1198 L
2738 1096 L
2739 1087 L
2741 1103 L
2742 1204 L
2743 1194 L
2744 1173 L
2745 1186 L
2746 1147 L
2747 1170 L
2748 1130 L
2749 1147 L
2751 1170 L
2752 1171 L
2753 1170 L
2754 1153 L
2755 1133 L
2756 1144 L
2757 1119 L
2758 1158 L
2759 1099 L
2760 1110 L
2761 1126 L
2762 1192 L
2763 1119 L
2764 1123 L
2765 1101 L
2767 1126 L
2768 1099 L
2769 1086 L
2770 1132 L
2771 1175 L
2772 1151 L
2773 1114 L
2774 1105 L
2775 1162 L
2776 1125 L
2777 1137 L
2778 1128 L
2779 1123 L
2780 1170 L
2781 1106 L
2782 1167 L
2783 1150 L
2783 1142 L
2784 1117 L
2785 1108 L
2786 1154 L
2787 1054 L
2788 1121 L
2789 1099 L
2790 1059 L
2791 1142 L
2792 1123 L
2793 1087 L
2794 1153 L
2795 1112 L
2796 1080 L
2797 1117 L
2798 1133 L
2798 1072 L
2799 1043 L
2800 1118 L
2801 1104 L
2802 1083 L
2803 1100 L
2804 1135 L
2805 1122 L
2806 1060 L
2807 1108 L
2807 1100 L
2808 1057 L
2809 1117 L
2810 1097 L
2811 1081 L
2812 1051 L
2813 1103 L
2813 1112 L
2814 1080 L
2815 1076 L
2816 1050 L
2817 1131 L
2818 1082 L
2819 1110 L
2819 1058 L
2820 1084 L
2821 1110 L
2822 1049 L
2823 1093 L
2824 1055 L
2824 1099 L
2825 1115 L
2826 1087 L
2827 1052 L
2828 1015 L
2828 1082 L
2829 1046 L
2830 1104 L
2831 1074 L
2832 1094 L
2832 1056 L
2833 1055 L
2834 1038 L
2835 1033 L
2836 1023 L
2836 1048 L
2837 1049 L
2838 1096 L
2839 1100 L
2840 1077 L
2840 1015 L
2841 1064 L
2842 1027 L
2843 1083 L
2843 1038 L
2844 1057 L
2845 1086 L
2846 1021 L
2846 1027 L
2847 1039 L
2848 1049 L
2849 1033 L
2849 1043 L
2850 1076 L
2851 1062 L
2852 1035 L
2852 1007 L
2853 1059 L
2854 1064 L
2855 1040 L
2855 1060 L
2856 999 L
2857 1030 L
2857 1058 L
2858 1060 L
2859 1086 L
2860 1041 L
2860 1035 L
2861 1032 L
2862 1041 L
2862 1038 L
2863 1056 L
2864 1033 L
2865 998 L
2865 999 L
2866 1030 L
2867 1053 L
2867 1057 L
2868 999 L
2869 1020 L
2869 1036 L
2870 1016 L
2871 1052 L
2871 1047 L
2872 1011 L
2873 1058 L
2873 1001 L
2874 1031 L
2875 1046 L
2876 1080 L
2876 1018 L
2877 1013 L
2878 985 L
2878 999 L
2879 1036 L
2880 998 L
2880 990 L
2881 1028 L
2881 1026 L
2882 1006 L
2883 1077 L
2883 1003 L
2884 1040 L
2885 998 L
2885 1008 L
2886 997 L
2887 1002 L
2887 1045 L
2888 1012 L
2889 1013 L
2889 1061 L
2892 1017 L
2894 939 L
2897 1030 L
2899 990 L
2902 930 L
2904 971 L
2907 976 L
2909 1017 L
2911 1013 L
2914 1023 L
2916 999 L
2918 1016 L
2921 1002 L
2923 968 L
2925 947 L
2927 957 L
2929 985 L
2932 993 L
2934 927 L
2936 938 L
2938 946 L
2940 994 L
2942 970 L
2944 957 L
2946 960 L
2948 928 L
2950 953 L
2952 962 L
2954 960 L
2956 921 L
2958 959 L
2960 914 L
2962 902 L
2964 977 L
2966 911 L
2968 939 L
2970 964 L
2971 956 L
2973 921 L
2975 940 L
2977 996 L
2979 942 L
2980 948 L
2982 922 L
2984 932 L
2986 907 L
2987 868 L
2989 937 L
2991 930 L
2993 912 L
2994 919 L
2996 919 L
2998 918 L
2999 953 L
3001 902 L
3003 939 L
3004 886 L
3006 933 L
3007 936 L
3009 870 L
3011 943 L
3012 907 L
3014 906 L
3015 884 L
3017 882 L
3018 874 L
3020 880 L
3021 830 L
3023 894 L
3024 888 L
3026 883 L
3027 851 L
3029 891 L
3030 867 L
3032 942 L
3033 844 L
3035 847 L
3036 921 L
3038 876 L
3039 871 L
3040 912 L
3042 878 L
3043 871 L
3045 865 L
3046 884 L
3047 893 L
3049 887 L
3050 847 L
3051 833 L
3053 891 L
3054 860 L
3055 879 L
3057 829 L
3058 885 L
3059 884 L
3061 866 L
3062 865 L
3063 863 L
3065 900 L
3066 798 L
3067 863 L
3068 881 L
3070 817 L
3071 868 L
3072 830 L
3073 869 L
3075 821 L
3076 863 L
3077 821 L
3078 865 L
3079 864 L
3081 874 L
3082 827 L
3083 866 L
3084 858 L
3085 833 L
3087 856 L
3088 860 L
3089 842 L
3090 856 L
3091 851 L
3092 845 L
3094 920 L
3095 917 L
3096 819 L
3097 854 L
3098 832 L
3099 846 L
3100 822 L
3101 847 L
3103 811 L
3104 837 L
3105 875 L
3106 858 L
3107 883 L
3108 800 L
3109 842 L
3110 826 L
3111 875 L
3112 839 L
3113 839 L
3114 855 L
3115 832 L
3116 808 L
3117 841 L
3119 847 L
3120 855 L
3121 793 L
3122 844 L
3123 821 L
3124 840 L
3125 793 L
3126 822 L
3127 822 L
3128 798 L
3129 903 L
3130 817 L
3131 821 L
3132 793 L
3133 863 L
3134 797 L
3135 844 L
3136 819 L
3136 852 L
3137 831 L
3138 822 L
3139 855 L
3140 803 L
3141 839 L
3142 819 L
3143 841 L
3144 802 L
3145 817 L
3146 877 L
3147 829 L
3148 841 L
3149 820 L
3150 813 L
3151 828 L
3151 846 L
3152 822 L
3153 792 L
3154 820 L
3155 817 L
3156 789 L
3157 811 L
3158 840 L
3159 826 L
3160 774 L
3160 813 L
3161 858 L
3162 839 L
3163 821 L
3164 856 L
3165 844 L
3166 813 L
3166 835 L
3167 837 L
3168 818 L
3169 814 L
3170 834 L
3171 826 L
3172 833 L
3172 824 L
3173 821 L
3174 802 L
3175 819 L
3176 830 L
3177 832 L
3177 809 L
3178 851 L
3179 813 L
3180 835 L
3181 817 L
3181 819 L
3182 822 L
3183 822 L
3184 802 L
3185 808 L
3185 815 L
3186 844 L
3187 813 L
3188 807 L
3189 815 L
3189 819 L
3190 774 L
3191 811 L
3192 839 L
3193 839 L
3193 826 L
3194 830 L
3195 846 L
3196 816 L
3196 838 L
3197 826 L
3198 856 L
3199 820 L
3199 846 L
3200 855 L
3201 839 L
3202 834 L
3202 851 L
3203 836 L
3204 832 L
3205 787 L
3205 809 L
3206 813 L
3207 827 L
3208 816 L
3208 825 L
3209 799 L
3210 786 L
3210 847 L
3211 791 L
3212 856 L
3213 803 L
3213 830 L
3214 817 L
3215 813 L
3215 820 L
3216 818 L
3217 815 L
3218 805 L
3218 816 L
3219 829 L
3220 750 L
3220 814 L
3221 822 L
3222 810 L
3222 823 L
3223 810 L
3224 818 L
3224 833 L
3225 845 L
3226 841 L
3227 774 L
3227 813 L
3228 850 L
3229 831 L
3229 824 L
3230 798 L
3231 833 L
3231 834 L
3232 822 L
3233 816 L
3233 846 L
3234 821 L
3235 804 L
3235 821 L
3236 812 L
3236 823 L
3237 805 L
3238 824 L
3238 836 L
3239 823 L
3240 799 L
3240 857 L
3241 786 L
3242 782 L
3242 835 L
3243 823 L
3244 778 L
3244 860 L
3245 838 L
3245 834 L
3246 841 L
3247 853 L
3247 823 L
3248 824 L
3249 829 L
3249 880 L
3250 850 L
3250 831 L
3251 854 L
3252 841 L
3252 840 L
3253 817 L
3253 857 L
3254 896 L
3255 840 L
3255 835 L
3256 790 L
3257 834 L
3257 848 L
3258 864 L
3258 838 L
3259 856 L
3259 813 L
3260 836 L
3261 875 L
3261 835 L
3262 844 L
3262 808 L
3263 863 L
3264 769 L
3264 876 L
3265 803 L
3265 848 L
3266 876 L
3267 791 L
3267 878 L
3268 830 L
3268 873 L
3269 831 L
3269 822 L
3270 849 L
3271 852 L
3271 860 L
3272 845 L
3272 873 L
3273 864 L
3273 830 L
3274 843 L
3275 831 L
3275 859 L
3276 829 L
3276 846 L
3277 829 L
3277 868 L
3278 823 L
3278 842 L
3279 909 L
3280 846 L
3280 828 L
3281 846 L
3281 879 L
3282 859 L
3282 864 L
3283 768 L
3283 848 L
3284 817 L
3284 853 L
3285 864 L
3285 846 L
3286 844 L
3287 870 L
3287 897 L
3288 815 L
3288 875 L
3289 837 L
3289 829 L
3290 848 L
3290 868 L
3291 843 L
3291 865 L
3292 863 L
3292 839 L
3293 858 L
3293 843 L
3294 832 L
3294 867 L
3295 827 L
3295 862 L
3296 874 L
3297 847 L
3297 826 L
3298 815 L
3298 883 L
3299 815 L
3299 814 L
3300 823 L
3300 869 L
3301 828 L
3301 871 L
3302 846 L
3302 882 L
3303 861 L
3303 870 L
3304 871 L
3304 876 L
3305 829 L
3305 859 L
3306 901 L
3306 839 L
3307 827 L
3307 862 L
3308 889 L
3308 841 L
3309 822 L
3309 868 L
3310 862 L
3310 864 L
3311 894 L
3311 853 L
3312 852 L
3312 850 L
3312 874 L
3313 864 L
3313 852 L
3314 849 L
3314 886 L
3315 862 L
3315 845 L
3316 838 L
3316 845 L
3317 905 L
3317 882 L
3318 847 L
3318 883 L
3319 895 L
3319 871 L
3320 838 L
3320 828 L
3321 846 L
3321 850 L
3321 899 L
3322 859 L
3322 888 L
3323 859 L
3323 892 L
3324 855 L
3324 841 L
3325 843 L
3325 816 L
3326 873 L
3326 875 L
3327 873 L
3327 899 L
3327 859 L
3328 879 L
3328 923 L
3329 862 L
3329 869 L
3330 896 L
3330 896 L
3331 906 L
3331 853 L
3332 866 L
3332 818 L
3332 854 L
3333 853 L
3333 864 L
3334 882 L
3334 848 L
3335 854 L
3335 876 L
3336 899 L
3336 849 L
3336 881 L
3337 892 L
3337 898 L
3338 880 L
3338 831 L
3339 860 L
3339 882 L
3339 873 L
3340 837 L
3340 894 L
3341 893 L
3341 856 L
3342 870 L
3342 902 L
3343 864 L
3343 865 L
3343 865 L
3344 891 L
3344 902 L
3345 902 L
3345 891 L
3346 867 L
3346 891 L
3346 900 L
3347 843 L
3347 927 L
3348 887 L
3348 898 L
3348 863 L
3349 866 L
3349 869 L
3350 917 L
3350 861 L
3351 878 L
3351 858 L
3351 884 L
3352 878 L
3352 876 L
3353 867 L
3353 863 L
3353 882 L
3354 901 L
3354 878 L
3355 907 L
3355 901 L
3355 905 L
3356 872 L
3356 868 L
3357 909 L
3357 860 L
3358 856 L
3358 906 L
3358 858 L
3359 854 L
3359 877 L
3360 873 L
3360 906 L
3360 869 L
3361 882 L
3361 889 L
3362 890 L
3362 862 L
3362 887 L
3363 878 L
3363 900 L
3364 912 L
3364 882 L
3364 882 L
3365 866 L
3365 914 L
3365 867 L
3366 889 L
3366 922 L
3367 916 L
3367 920 L
3367 877 L
3368 913 L
3368 903 L
3369 865 L
3369 893 L
3369 868 L
3370 855 L
3370 898 L
3371 888 L
3371 871 L
3371 903 L
3372 880 L
3372 895 L
3372 890 L
3373 857 L
3373 883 L
3374 902 L
3374 868 L
3374 954 L
3375 890 L
3375 887 L
3375 900 L
3376 910 L
3376 903 L
3377 896 L
3377 896 L
3377 867 L
3378 884 L
3378 902 L
3378 912 L
3379 920 L
3379 880 L
3380 861 L
3380 906 L
3380 934 L
3381 918 L
3381 874 L
3381 904 L
3382 891 L
3382 907 L
3383 898 L
3383 907 L
3383 886 L
3384 909 L
3384 937 L
3384 916 L
3385 890 L
3385 902 L
3385 909 L
3386 895 L
3386 912 L
3387 910 L
3387 894 L
3387 936 L
3388 902 L
3388 925 L
3388 853 L
3389 905 L
3389 892 L
3389 895 L
3390 881 L
3390 948 L
3391 904 L
3391 914 L
3391 916 L
3392 891 L
3392 893 L
3392 936 L
3393 918 L
3393 833 L
3393 910 L
3394 898 L
3394 897 L
3394 880 L
3395 927 L
3395 905 L
3395 910 L
3396 924 L
3396 895 L
3396 927 L
3397 889 L
3397 890 L
3398 875 L
3398 926 L
3398 893 L
3399 897 L
3399 907 L
3399 895 L
3400 890 L
3400 904 L
3400 896 L
3401 924 L
3401 936 L
3401 922 L
3402 883 L
3402 939 L
3402 902 L
3403 953 L
3403 911 L
3403 912 L
3404 925 L
3404 897 L
3404 887 L
3405 952 L
3405 888 L
3405 916 L
3406 921 L
3406 925 L
3406 921 L
3407 921 L
3407 956 L
3407 869 L
3408 863 L
3408 863 L
3408 916 L
3409 905 L
3409 899 L
3409 912 L
3410 912 L
3410 928 L
3410 961 L
3411 919 L
3411 937 L
3411 929 L
3412 895 L
3412 893 L
3412 944 L
3413 952 L
3413 917 L
3413 918 L
3414 935 L
3414 932 L
3414 912 L
3415 936 L
3415 904 L
3415 956 L
3416 925 L
3416 898 L
3416 871 L
3417 949 L
3417 953 L
3417 924 L
3417 890 L
3418 923 L
3418 936 L
3418 897 L
3419 925 L
3419 957 L
3419 880 L
3420 932 L
3420 922 L
3420 920 L
3421 935 L
3421 912 L
3421 918 L
3422 915 L
3422 957 L
3422 886 L
3423 897 L
3423 941 L
3423 921 L
3423 949 L
3424 937 L
3424 937 L
3424 885 L
3425 916 L
3425 952 L
3425 933 L
3426 963 L
3426 968 L
3426 980 L
3427 887 L
3427 936 L
3427 896 L
3428 890 L
3428 906 L
3428 924 L
3428 956 L
3429 881 L
3429 935 L
3429 952 L
3430 979 L
3430 902 L
3430 907 L
3431 891 L
3431 905 L
3431 946 L
3431 924 L
3432 919 L
3432 914 L
3432 935 L
3433 951 L
3433 956 L
3433 946 L
3434 929 L
3434 947 L
3434 927 L
3434 922 L
3435 908 L
3435 916 L
3435 940 L
3436 951 L
3436 966 L
3436 933 L
3437 943 L
3437 935 L
3437 942 L
3437 914 L
3438 914 L
3438 911 L
3438 935 L
3439 912 L
3439 922 L
3439 936 L
3440 960 L
3440 951 L
3440 950 L
3440 936 L
3441 957 L
3441 946 L
3441 928 L
3442 929 L
3442 927 L
3442 953 L
3442 934 L
3443 965 L
3443 987 L
3443 936 L
3444 949 L
3444 941 L
3444 942 L
3444 983 L
3445 934 L
3445 932 L
3445 962 L
3446 920 L
3446 919 L
3446 952 L
3446 933 L
3447 883 L
3447 922 L
3447 972 L
3448 937 L
3448 937 L
3448 925 L
3448 926 L
3449 937 L
3449 935 L
3449 925 L
3450 927 L
3450 973 L
3450 954 L
3450 938 L
3451 949 L
3451 941 L
3451 917 L
3452 938 L
3452 941 L
3452 902 L
3452 945 L
3453 996 L
3453 981 L
3453 1005 L
3454 926 L
3454 931 L
3454 914 L
3454 937 L
3455 917 L
3455 929 L
3455 914 L
3455 956 L
3456 919 L
3456 928 L
3456 931 L
3457 990 L
3457 951 L
3457 904 L
3457 908 L
3458 894 L
3458 949 L
3458 933 L
3458 977 L
3459 929 L
3459 929 L
3459 918 L
3460 947 L
3460 926 L
3460 923 L
3460 991 L
3461 948 L
3461 974 L
3461 927 L
3461 1024 L
3462 936 L
3462 974 L
3462 953 L
3463 922 L
3463 916 L
3463 933 L
3463 941 L
3464 898 L
3464 926 L
3464 948 L
3464 968 L
3465 945 L
3465 932 L
3465 946 L
3465 963 L
3466 892 L
3466 935 L
3466 973 L
3466 968 L
3467 902 L
3467 969 L
3467 936 L
3468 941 L
3468 977 L
3468 969 L
3468 960 L
3469 918 L
3469 938 L
3469 941 L
3469 946 L
3470 969 L
3470 972 L
3470 945 L
3470 943 L
3471 939 L
3471 1036 L
3471 947 L
3471 935 L
3472 945 L
3472 1007 L
3472 1021 L
3472 943 L
3473 940 L
3473 972 L
3473 988 L
3474 958 L
3474 975 L
3474 969 L
3474 921 L
3475 951 L
3475 951 L
3475 963 L
3475 981 L
3476 929 L
3476 982 L
3476 953 L
3476 988 L
3477 961 L
3477 1013 L
3477 966 L
3477 955 L
3478 942 L
3478 998 L
3478 977 L
3478 938 L
3479 993 L
3479 939 L
3479 989 L
3479 976 L
3480 943 L
3480 956 L
3480 963 L
3480 942 L
3481 990 L
3481 945 L
3481 961 L
3481 969 L
3482 929 L
3482 973 L
3482 977 L
3482 984 L
3483 947 L
3483 980 L
3483 970 L
3483 989 L
3484 974 L
3484 974 L
3484 994 L
3484 956 L
3485 979 L
3485 965 L
3485 926 L
3485 908 L
3486 928 L
3486 946 L
3486 965 L
3486 933 L
3487 947 L
3487 969 L
3487 983 L
3487 973 L
3488 972 L
3488 980 L
3488 998 L
3488 1005 L
3488 976 L
3489 961 L
3489 947 L
3489 953 L
3489 981 L
3490 991 L
3490 964 L
3490 956 L
3490 898 L
3491 962 L
3491 983 L
3491 941 L
3491 973 L
3492 976 L
3492 957 L
3492 980 L
3492 952 L
3493 940 L
3493 961 L
3493 935 L
3493 964 L
3494 977 L
3494 963 L
3494 966 L
3494 959 L
3494 1011 L
3495 968 L
3495 920 L
3495 994 L
3495 989 L
3496 964 L
3496 1003 L
3496 953 L
3496 947 L
3497 993 L
3497 955 L
3497 919 L
3497 953 L
3498 978 L
3498 936 L
3498 1014 L
3498 948 L
3498 969 L
3499 980 L
3499 993 L
3499 991 L
3499 963 L
3500 935 L
3500 1008 L
3506 951 L
3511 963 L
3517 1001 L
3522 969 L
3527 1010 L
3532 979 L
3537 991 L
3542 974 L
3547 1019 L
3552 1014 L
3557 976 L
3561 1003 L
3566 1003 L
3570 1031 L
3575 1018 L
3579 1028 L
3583 1052 L
3587 1004 L
3591 1020 L
3595 1052 L
3599 1055 L
3603 1015 L
3607 999 L
3611 1020 L
3614 984 L
3618 1032 L
3622 1051 L
3625 1061 L
3629 1015 L
3632 1033 L
3636 1013 L
3639 1027 L
3642 1052 L
3646 1012 L
3649 1080 L
3652 980 L
3655 1002 L
3658 1049 L
3661 1064 L
3664 1042 L
3667 979 L
3670 1062 L
3673 1049 L
3676 1078 L
3679 1058 L
3682 1059 L
3685 1034 L
3688 1039 L
3690 990 L
3693 1011 L
3696 1070 L
3698 1005 L
3701 1053 L
3704 1010 L
3706 1053 L
3709 1004 L
3711 1076 L
3714 1049 L
3716 1039 L
3719 1055 L
3721 1029 L
3724 987 L
3726 1021 L
3728 1053 L
3731 1051 L
3733 1022 L
3735 1064 L
3738 1021 L
3740 1020 L
3742 1059 L
3744 1103 L
3747 1049 L
3749 1000 L
3751 1050 L
3753 1057 L
3755 979 L
3757 991 L
3760 1088 L
3762 1026 L
3764 999 L
3766 1076 L
3768 1038 L
3770 1006 L
3772 1076 L
3774 1065 L
3776 1029 L
3778 1045 L
3780 1063 L
3781 1021 L
3783 1050 L
3785 1027 L
3787 1084 L
3789 1020 L
3791 1065 L
3793 1039 L
3795 1057 L
3796 1062 L
3798 1024 L
3800 1018 L
3802 1044 L
3803 1065 L
3805 1021 L
3807 1066 L
3809 1058 L
3810 1068 L
3812 1068 L
3814 1034 L
3816 1049 L
3817 1059 L
3819 1042 L
3820 981 L
3822 1073 L
3824 967 L
3825 1066 L
3827 1030 L
3829 1022 L
3830 1030 L
3832 1048 L
3833 1078 L
3835 1081 L
3836 990 L
3838 1056 L
3839 1038 L
3841 1068 L
3842 1001 L
3844 1040 L
3845 1045 L
3847 1006 L
3848 1096 L
3850 1084 L
3851 1040 L
3853 1025 L
3854 1040 L
3856 1039 L
3857 1047 L
3859 1054 L
3860 1049 L
3861 1003 L
3863 1043 L
3864 1047 L
3866 1019 L
3867 1014 L
3868 1109 L
3870 1017 L
3871 1033 L
3872 1052 L
3874 1046 L
3875 1047 L
3876 1021 L
3878 1037 L
3879 1080 L
3880 1026 L
3882 988 L
3883 1005 L
3884 1055 L
3885 1069 L
3887 1026 L
3888 1070 L
3889 1051 L
3890 1029 L
3892 1067 L
3893 1064 L
3894 1043 L
3895 1069 L
3897 1023 L
3898 1024 L
3899 1069 L
3900 1086 L
3901 1009 L
3903 1026 L
3904 1099 L
3905 1045 L
3906 1018 L
3907 1095 L
3908 1050 L
3910 1036 L
3911 1054 L
3912 1026 L
3913 1016 L
3914 1041 L
3915 1006 L
3917 1029 L
3918 1050 L
3919 1022 L
3920 1016 L
3921 985 L
3922 990 L
3923 1033 L
3924 1058 L
3925 1034 L
3926 1010 L
3928 1000 L
3929 1050 L
3930 1009 L
3931 1032 L
3932 997 L
3933 1014 L
3934 1017 L
3935 1046 L
3936 1003 L
3937 1036 L
3938 1065 L
3939 1074 L
3940 1034 L
3941 1013 L
3942 1084 L
3943 1036 L
3944 1054 L
3945 1023 L
3946 1032 L
3947 945 L
3948 1033 L
3949 1044 L
3950 1056 L
3951 1051 L
3952 1001 L
3953 1045 L
3954 1044 L
3955 1073 L
3956 1032 L
3957 1008 L
3958 1039 L
3959 1044 L
3960 1027 L
3961 1032 L
3962 1037 L
3963 1055 L
3964 1007 L
3965 1009 L
3966 1009 L
3966 993 L
3967 1056 L
3968 1086 L
3969 1054 L
3970 1014 L
3971 1022 L
3972 986 L
3973 1067 L
3974 1047 L
3975 1004 L
3976 1008 L
3976 1049 L
3977 1022 L
3978 1018 L
3979 1027 L
3980 1040 L
3981 990 L
3982 1002 L
3983 1070 L
3983 1054 L
3984 1065 L
3985 1014 L
3986 1034 L
3987 1043 L
3988 1015 L
3989 1089 L
3989 991 L
3990 1032 L
3991 1022 L
3992 1069 L
3993 1026 L
3994 1051 L
3995 988 L
3995 1029 L
3996 1063 L
3997 1053 L
3998 1059 L
3999 1059 L
3999 996 L
4000 1013 L
4001 952 L
4002 1015 L
4003 1003 L
4003 996 L
4004 1046 L
4005 1004 L
4006 1047 L
4007 1042 L
4007 1005 L
4008 1033 L
4009 1001 L
4010 1053 L
4011 1007 L
4011 989 L
4012 1007 L
4013 1026 L
4014 1017 L
4014 1050 L
4015 1018 L
4016 1024 L
4017 1033 L
4017 1037 L
4018 1001 L
4019 1023 L
4020 1107 L
4021 1024 L
4021 1015 L
4022 1033 L
4023 998 L
4023 1024 L
4024 1009 L
4025 970 L
4026 1015 L
4026 1051 L
4027 1046 L
4028 1008 L
4029 1019 L
4029 1044 L
4030 1025 L
4031 1000 L
4032 1006 L
4032 1133 L
4033 1002 L
4034 1043 L
4034 989 L
4035 1043 L
4036 1030 L
4036 1030 L
4037 994 L
4038 1011 L
4039 1050 L
4039 985 L
4040 1078 L
4041 1044 L
4041 999 L
4042 1043 L
4043 1011 L
4043 1036 L
4044 1037 L
4045 1020 L
4045 1050 L
4046 1041 L
4047 994 L
4047 1056 L
4048 1044 L
4049 1039 L
4050 986 L
4050 979 L
4051 1048 L
4052 1003 L
4052 1040 L
4053 1013 L
4053 1072 L
4054 1010 L
4055 1023 L
4055 1005 L
4056 1007 L
4057 980 L
4057 1057 L
4058 993 L
4059 1072 L
4059 1026 L
4060 1009 L
4061 1046 L
4061 984 L
4062 1012 L
L2 C04 COSGR

%
% Main frame
%
L10
GSN 
620 1700 M
4220 1700 L
4220 5300 L
620 5300 L
closepath SGR

%
% X axis: large tics
%
L10
GSN 1130 1700 M 0  54 rL SGR
GSN 1130 5300 M 0 -54 rL SGR
helvS (0.0001) 1130 470 xlabel
GSN 1716 1700 M 0  54 rL SGR
GSN 1716 5300 M 0 -54 rL SGR
helvS (0.001) 1716 470 xlabel
GSN 2303 1700 M 0  54 rL SGR
GSN 2303 5300 M 0 -54 rL SGR
helvS (0.01) 2303 470 xlabel
GSN 2889 1700 M 0  54 rL SGR
GSN 2889 5300 M 0 -54 rL SGR
helvS (0.1) 2889 470 xlabel
GSN 3476 1700 M 0  54 rL SGR
GSN 3476 5300 M 0 -54 rL SGR
helvS (1) 3476 470 xlabel
GSN 4062 1700 M 0  54 rL SGR
GSN 4062 5300 M 0 -54 rL SGR
helvS (10) 4062 470 xlabel
%
% X axis: small tics
%
L5
GSN 720 1700 M 0  36 rL SGR
GSN 720 5300 M 0 -36 rL SGR
GSN 824 1700 M 0  36 rL SGR
GSN 824 5300 M 0 -36 rL SGR
GSN 897 1700 M 0  36 rL SGR
GSN 897 5300 M 0 -36 rL SGR
GSN 954 1700 M 0  36 rL SGR
GSN 954 5300 M 0 -36 rL SGR
GSN 1000 1700 M 0  36 rL SGR
GSN 1000 5300 M 0 -36 rL SGR
GSN 1039 1700 M 0  36 rL SGR
GSN 1039 5300 M 0 -36 rL SGR
GSN 1073 1700 M 0  36 rL SGR
GSN 1073 5300 M 0 -36 rL SGR
GSN 1103 1700 M 0  36 rL SGR
GSN 1103 5300 M 0 -36 rL SGR
GSN 1307 1700 M 0  36 rL SGR
GSN 1307 5300 M 0 -36 rL SGR
GSN 1410 1700 M 0  36 rL SGR
GSN 1410 5300 M 0 -36 rL SGR
GSN 1483 1700 M 0  36 rL SGR
GSN 1483 5300 M 0 -36 rL SGR
GSN 1540 1700 M 0  36 rL SGR
GSN 1540 5300 M 0 -36 rL SGR
GSN 1586 1700 M 0  36 rL SGR
GSN 1586 5300 M 0 -36 rL SGR
GSN 1626 1700 M 0  36 rL SGR
GSN 1626 5300 M 0 -36 rL SGR
GSN 1660 1700 M 0  36 rL SGR
GSN 1660 5300 M 0 -36 rL SGR
GSN 1690 1700 M 0  36 rL SGR
GSN 1690 5300 M 0 -36 rL SGR
GSN 1893 1700 M 0  36 rL SGR
GSN 1893 5300 M 0 -36 rL SGR
GSN 1996 1700 M 0  36 rL SGR
GSN 1996 5300 M 0 -36 rL SGR
GSN 2069 1700 M 0  36 rL SGR
GSN 2069 5300 M 0 -36 rL SGR
GSN 2126 1700 M 0  36 rL SGR
GSN 2126 5300 M 0 -36 rL SGR
GSN 2173 1700 M 0  36 rL SGR
GSN 2173 5300 M 0 -36 rL SGR
GSN 2212 1700 M 0  36 rL SGR
GSN 2212 5300 M 0 -36 rL SGR
GSN 2246 1700 M 0  36 rL SGR
GSN 2246 5300 M 0 -36 rL SGR
GSN 2276 1700 M 0  36 rL SGR
GSN 2276 5300 M 0 -36 rL SGR
GSN 2479 1700 M 0  36 rL SGR
GSN 2479 5300 M 0 -36 rL SGR
GSN 2583 1700 M 0  36 rL SGR
GSN 2583 5300 M 0 -36 rL SGR
GSN 2656 1700 M 0  36 rL SGR
GSN 2656 5300 M 0 -36 rL SGR
GSN 2713 1700 M 0  36 rL SGR
GSN 2713 5300 M 0 -36 rL SGR
GSN 2759 1700 M 0  36 rL SGR
GSN 2759 5300 M 0 -36 rL SGR
GSN 2798 1700 M 0  36 rL SGR
GSN 2798 5300 M 0 -36 rL SGR
GSN 2832 1700 M 0  36 rL SGR
GSN 2832 5300 M 0 -36 rL SGR
GSN 2862 1700 M 0  36 rL SGR
GSN 2862 5300 M 0 -36 rL SGR
GSN 3066 1700 M 0  36 rL SGR
GSN 3066 5300 M 0 -36 rL SGR
GSN 3169 1700 M 0  36 rL SGR
GSN 3169 5300 M 0 -36 rL SGR
GSN 3242 1700 M 0  36 rL SGR
GSN 3242 5300 M 0 -36 rL SGR
GSN 3299 1700 M 0  36 rL SGR
GSN 3299 5300 M 0 -36 rL SGR
GSN 3345 1700 M 0  36 rL SGR
GSN 3345 5300 M 0 -36 rL SGR
GSN 3385 1700 M 0  36 rL SGR
GSN 3385 5300 M 0 -36 rL SGR
GSN 3419 1700 M 0  36 rL SGR
GSN 3419 5300 M 0 -36 rL SGR
GSN 3449 1700 M 0  36 rL SGR
GSN 3449 5300 M 0 -36 rL SGR
GSN 3652 1700 M 0  36 rL SGR
GSN 3652 5300 M 0 -36 rL SGR
GSN 3755 1700 M 0  36 rL SGR
GSN 3755 5300 M 0 -36 rL SGR
GSN 3829 1700 M 0  36 rL SGR
GSN 3829 5300 M 0 -36 rL SGR
GSN 3885 1700 M 0  36 rL SGR
GSN 3885 5300 M 0 -36 rL SGR
GSN 3932 1700 M 0  36 rL SGR
GSN 3932 5300 M 0 -36 rL SGR
GSN 3971 1700 M 0  36 rL SGR
GSN 3971 5300 M 0 -36 rL SGR
GSN 4005 1700 M 0  36 rL SGR
GSN 4005 5300 M 0 -36 rL SGR
GSN 4035 1700 M 0  36 rL SGR
GSN 4035 5300 M 0 -36 rL SGR
%
% Y axis: large tics
%
L10
GSN 620 2350 M 54 0 rL SGR
GSN 4220 2350 M -54 0 rL SGR
helvS (1) 560 2350 ylabel
GSN 620 3143 M 54 0 rL SGR
GSN 4220 3143 M -54 0 rL SGR
helvS (1.02) 560 3143 ylabel
GSN 620 3936 M 54 0 rL SGR
GSN 4220 3936 M -54 0 rL SGR
helvS (1.04) 560 3936 ylabel
GSN 620 4729 M 54 0 rL SGR
GSN 4220 4729 M -54 0 rL SGR
helvS (1.06) 560 4729 ylabel
%
% Y axis: small tics
%
L5
GSN 620 1755 M 36 0 rL SGR
GSN 4220 1755 M -36 0 rL SGR
GSN 620 1954 M 36 0 rL SGR
GSN 4220 1954 M -36 0 rL SGR
GSN 620 2152 M 36 0 rL SGR
GSN 4220 2152 M -36 0 rL SGR
GSN 620 2350 M 36 0 rL SGR
GSN 4220 2350 M -36 0 rL SGR
GSN 620 2548 M 36 0 rL SGR
GSN 4220 2548 M -36 0 rL SGR
GSN 620 2747 M 36 0 rL SGR
GSN 4220 2747 M -36 0 rL SGR
GSN 620 2945 M 36 0 rL SGR
GSN 4220 2945 M -36 0 rL SGR
GSN 620 3143 M 36 0 rL SGR
GSN 4220 3143 M -36 0 rL SGR
GSN 620 3341 M 36 0 rL SGR
GSN 4220 3341 M -36 0 rL SGR
GSN 620 3539 M 36 0 rL SGR
GSN 4220 3539 M -36 0 rL SGR
GSN 620 3738 M 36 0 rL SGR
GSN 4220 3738 M -36 0 rL SGR
GSN 620 3936 M 36 0 rL SGR
GSN 4220 3936 M -36 0 rL SGR
GSN 620 4134 M 36 0 rL SGR
GSN 4220 4134 M -36 0 rL SGR
GSN 620 4332 M 36 0 rL SGR
GSN 4220 4332 M -36 0 rL SGR
GSN 620 4531 M 36 0 rL SGR
GSN 4220 4531 M -36 0 rL SGR
GSN 620 4729 M 36 0 rL SGR
GSN 4220 4729 M -36 0 rL SGR
GSN 620 4927 M 36 0 rL SGR
GSN 4220 4927 M -36 0 rL SGR
GSN 620 5125 M 36 0 rL SGR
GSN 4220 5125 M -36 0 rL SGR

%
% X-Axis label:
%
gsave 2420 290 M 
[
[(Helvetica) 180 0 true true 0 (t)]
[(Helvetica) 180 0 true true 0 (i)]
[(Helvetica) 180 0 true true 0 (m)]
[(Helvetica) 180 0 true true 0 (e)]
] 0 MCshow grestore

%
% Y-Axis label:
%
gsave 234 3500 M 
currentpoint gsave translate 90 rotate 0 0 moveto
[
[(Helvetica) 180 0 true true 0 (s)]
[(Helvetica) 180 0 true true 0 (i)]
[(Helvetica) 180 0 true true 0 (g)]
[(Helvetica) 180 0 true true 0 (n)]
[(Helvetica) 180 0 true true 0 (a)]
[(Helvetica) 180 0 true true 0 (l)]
] 0 MCshow grestore

%
% Residuals:
%
gsave 129 1160 M 
currentpoint gsave translate 90 rotate 0 0 moveto
[
[(Helvetica) 150 0 true true 0 (r)]
[(Helvetica) 150 0 true true 0 (e)]
[(Helvetica) 150 0 true true 0 (s)]
[(Helvetica) 150 0 true true 0 (i)]
[(Helvetica) 150 0 true true 0 (d)]
[(Helvetica) 150 0 true true 0 (u)]
[(Helvetica) 150 0 true true 0 (a)]
[(Helvetica) 150 0 true true 0 (l)]
[(Helvetica) 150 0 true true 0 (s)]
] 0 MCshow grestore

%
% Residual frame
%
L10
GSN 
620 620 M
4220 620 L
4220 1700 L
620 1700 L
closepath SGR
%
% X axis: large tics - residual frame
%
L10
GSN 1130 620 M 0  54 rL SGR
GSN 1130 1700 M 0 -54 rL SGR
GSN 1716 620 M 0  54 rL SGR
GSN 1716 1700 M 0 -54 rL SGR
GSN 2303 620 M 0  54 rL SGR
GSN 2303 1700 M 0 -54 rL SGR
GSN 2889 620 M 0  54 rL SGR
GSN 2889 1700 M 0 -54 rL SGR
GSN 3476 620 M 0  54 rL SGR
GSN 3476 1700 M 0 -54 rL SGR
GSN 4062 620 M 0  54 rL SGR
GSN 4062 1700 M 0 -54 rL SGR
%
% X axis: small tics - residual frame
%
L5
GSN 720 620 M 0  36 rL SGR
GSN 720 1700 M 0 -36 rL SGR
GSN 824 620 M 0  36 rL SGR
GSN 824 1700 M 0 -36 rL SGR
GSN 897 620 M 0  36 rL SGR
GSN 897 1700 M 0 -36 rL SGR
GSN 954 620 M 0  36 rL SGR
GSN 954 1700 M 0 -36 rL SGR
GSN 1000 620 M 0  36 rL SGR
GSN 1000 1700 M 0 -36 rL SGR
GSN 1039 620 M 0  36 rL SGR
GSN 1039 1700 M 0 -36 rL SGR
GSN 1073 620 M 0  36 rL SGR
GSN 1073 1700 M 0 -36 rL SGR
GSN 1103 620 M 0  36 rL SGR
GSN 1103 1700 M 0 -36 rL SGR
GSN 1307 620 M 0  36 rL SGR
GSN 1307 1700 M 0 -36 rL SGR
GSN 1410 620 M 0  36 rL SGR
GSN 1410 1700 M 0 -36 rL SGR
GSN 1483 620 M 0  36 rL SGR
GSN 1483 1700 M 0 -36 rL SGR
GSN 1540 620 M 0  36 rL SGR
GSN 1540 1700 M 0 -36 rL SGR
GSN 1586 620 M 0  36 rL SGR
GSN 1586 1700 M 0 -36 rL SGR
GSN 1626 620 M 0  36 rL SGR
GSN 1626 1700 M 0 -36 rL SGR
GSN 1660 620 M 0  36 rL SGR
GSN 1660 1700 M 0 -36 rL SGR
GSN 1690 620 M 0  36 rL SGR
GSN 1690 1700 M 0 -36 rL SGR
GSN 1893 620 M 0  36 rL SGR
GSN 1893 1700 M 0 -36 rL SGR
GSN 1996 620 M 0  36 rL SGR
GSN 1996 1700 M 0 -36 rL SGR
GSN 2069 620 M 0  36 rL SGR
GSN 2069 1700 M 0 -36 rL SGR
GSN 2126 620 M 0  36 rL SGR
GSN 2126 1700 M 0 -36 rL SGR
GSN 2173 620 M 0  36 rL SGR
GSN 2173 1700 M 0 -36 rL SGR
GSN 2212 620 M 0  36 rL SGR
GSN 2212 1700 M 0 -36 rL SGR
GSN 2246 620 M 0  36 rL SGR
GSN 2246 1700 M 0 -36 rL SGR
GSN 2276 620 M 0  36 rL SGR
GSN 2276 1700 M 0 -36 rL SGR
GSN 2479 620 M 0  36 rL SGR
GSN 2479 1700 M 0 -36 rL SGR
GSN 2583 620 M 0  36 rL SGR
GSN 2583 1700 M 0 -36 rL SGR
GSN 2656 620 M 0  36 rL SGR
GSN 2656 1700 M 0 -36 rL SGR
GSN 2713 620 M 0  36 rL SGR
GSN 2713 1700 M 0 -36 rL SGR
GSN 2759 620 M 0  36 rL SGR
GSN 2759 1700 M 0 -36 rL SGR
GSN 2798 620 M 0  36 rL SGR
GSN 2798 1700 M 0 -36 rL SGR
GSN 2832 620 M 0  36 rL SGR
GSN 2832 1700 M 0 -36 rL SGR
GSN 2862 620 M 0  36 rL SGR
GSN 2862 1700 M 0 -36 rL SGR
GSN 3066 620 M 0  36 rL SGR
GSN 3066 1700 M 0 -36 rL SGR
GSN 3169 620 M 0  36 rL SGR
GSN 3169 1700 M 0 -36 rL SGR
GSN 3242 620 M 0  36 rL SGR
GSN 3242 1700 M 0 -36 rL SGR
GSN 3299 620 M 0  36 rL SGR
GSN 3299 1700 M 0 -36 rL SGR
GSN 3345 620 M 0  36 rL SGR
GSN 3345 1700 M 0 -36 rL SGR
GSN 3385 620 M 0  36 rL SGR
GSN 3385 1700 M 0 -36 rL SGR
GSN 3419 620 M 0  36 rL SGR
GSN 3419 1700 M 0 -36 rL SGR
GSN 3449 620 M 0  36 rL SGR
GSN 3449 1700 M 0 -36 rL SGR
GSN 3652 620 M 0  36 rL SGR
GSN 3652 1700 M 0 -36 rL SGR
GSN 3755 620 M 0  36 rL SGR
GSN 3755 1700 M 0 -36 rL SGR
GSN 3829 620 M 0  36 rL SGR
GSN 3829 1700 M 0 -36 rL SGR
GSN 3885 620 M 0  36 rL SGR
GSN 3885 1700 M 0 -36 rL SGR
GSN 3932 620 M 0  36 rL SGR
GSN 3932 1700 M 0 -36 rL SGR
GSN 3971 620 M 0  36 rL SGR
GSN 3971 1700 M 0 -36 rL SGR
GSN 4005 620 M 0  36 rL SGR
GSN 4005 1700 M 0 -36 rL SGR
GSN 4035 620 M 0  36 rL SGR
GSN 4035 1700 M 0 -36 rL SGR
%
% Y axis: large tics - residual frame
%
L10
GSN 620 744 M 54 0 rL SGR
GSN 4220 744 M -54 0 rL SGR
helvS (-0.025) 560 744 ylabelresid
GSN 620 992 M 54 0 rL SGR
GSN 4220 992 M -54 0 rL SGR
helvS (0) 560 992 ylabelresid
GSN 620 1240 M 54 0 rL SGR
GSN 4220 1240 M -54 0 rL SGR
helvS (0.025) 560 1240 ylabelresid
GSN 620 1489 M 54 0 rL SGR
GSN 4220 1489 M -54 0 rL SGR
helvS (0.05) 560 1489 ylabelresid

%
% X axis - residual panel
%
GSN L5 620 992 M 4220 992 L SDA G50 SGR

end
showpage
%%Trailer
%%EOF
