%!PS-Adobe-3.0 EPSF-3.0
%%BoundingBox: 0 0 514 442
%%Creator: BioKin Ltd.
%%DocumentFonts: Symbol Helvetica
%%EndComments
%
/bkdict 256 dict def
bkdict begin
/M {moveto} def 
/R {rmoveto} def
/L {lineto} def
/rL {rlineto} def
/GSN {gsave newpath} def
/SGR {stroke grestore} def
/COSGR {gsave setrgbcolor stroke grestore grestore} def
/SL {setlinewidth} def
/LWMB {12} def             % line width - model curves, black & white
/LWMC {10} def             % line width - model curves, color
/L2 {2.5 setlinewidth} def
/L5 {5 setlinewidth} def
/L10 {10 setlinewidth} def
/G50 {0.5 setgray} def
/SDA {[10  20] 0 setdash} def % axes
/helvT {/Helvetica findfont 100 scalefont setfont} def % tiny
/helvS {/Helvetica findfont 125 scalefont setfont} def % small
/helvM {/Helvetica findfont 150 scalefont setfont} def % medium
/helvL {/Helvetica findfont 175 scalefont setfont} def % large
/xlabel {gsave M dup
   stringwidth exch -0.5 mul exch rmoveto show grestore} def 
/ylabel {gsave M 90 rotate dup
   stringwidth exch -0.5 mul exch rmoveto show grestore} def
/ylabelresid {gsave M dup
   stringwidth exch -1 mul exch rmoveto show grestore} def
% ======
% Shapes
% ======
% Circle:
/Circ {0 360 arc closepath} def
%
% Square:
/Squa {dup dup -0.5 mul dup dup R -2 mul 0 exch rL 1 mul 0 rL dup 0 exch -1 mul rL closepath} def
%
% Triangle Up:
/TriU {dup dup dup -0.4 mul exch -0.5 mul exch R dup 0.5 mul exch rL dup -1 mul exch 0.5 mul exch rL closepath} def 
%
% Triangle Down:
/TriD {dup dup dup 0.4 mul exch -0.5 mul exch R dup 0.5 mul exch -1 mul rL dup 0.5 mul exch rL closepath} def 
%
% Diamond:
/Diam {45 rotate Squa} def
% ======
% Fills
% ======
/GRF {gsave setgray fill grestore} def                    % gray-level Fill
/COF {gsave setrgbcolor fill grestore} def                % color fill
% ======
% Colors
% ======
/C01 {1.00	0.00	0.00} def      % Red
/C02 {0.00	0.00	1.00} def      % Blue
/C03 {0.00	0.39	0.00} def      % Dark Green
/C04 {0.78	0.08	0.52} def      % Medium Violet Red
/C05 {0.55	0.27	0.07} def      % Saddle Brown
/C06 {0.10	0.70	0.70} def      % (cyan)
/C07 {1.00	0.55	0.00} def      % Dark Orange
/C08 {0.63	0.13	0.94} def      % Purple
/C09 {0.00	0.75	1.00} def      % Deep Sky Blue
/C10 {0.20	0.80	0.20} def      % Lime Green
/C11 {0.47	0.53	0.60} def      % Light Slate Gray
/C12 {0.00	0.00	0.00} def      % Black            % or: {0.19	0.31	0.31} def      % Dark Slate Gray
%
/LGR {0.75} def % light gray
/DGR {0.33} def % dark gray
%
% =============
% Dash patterns
% =============
/dash01 { [80  20] 0 setdash } def
/dash02 { [40  20] 0 setdash } def
/dash03 { [80  20  10  20] 0 setdash } def
/dash04 { [40  20  10  20] 0 setdash } def
/dash05 { [80  20  10  10  10  20] 0 setdash } def
/dash06 { [40  20  10  10  10  20] 0 setdash } def
/dash07 { [10  10] 0 setdash } def
%
/MFshow {
   { dup 5 get 3 ge
     { 5 get 3 eq {gsave} {grestore} ifelse }
     {dup dup 0 get findfont exch 1 get scalefont setfont
     [ currentpoint ] exch dup 2 get 0 exch R dup 5 get 2 ne {dup dup 6
     get exch 4 get {show} {stringwidth pop 0 R} ifelse }if dup 5 get 0 eq
     {dup 3 get {2 get neg 0 exch R pop} {pop aload pop M} ifelse} {dup 5
     get 1 eq {dup 2 get exch dup 3 get exch 6 get stringwidth pop -2 div
     dup 0 R} {dup 6 get stringwidth pop -2 div 0 R 6 get
     show 2 index {aload pop M neg 3 -1 roll neg R pop pop} {pop pop pop
     pop aload pop M} ifelse }ifelse }ifelse }
     ifelse }
   forall} bind def
/MFwidth {0 exch {dup 3 get{dup dup 0 get findfont exch 1 get scalefont
     setfont 6 get stringwidth pop add} {pop} ifelse} forall} bind def
/MCshow { currentpoint stroke M
  exch dup MFwidth -2 div 3 -1 roll R MFshow } def
%
end
%%EndProlog
bkdict begin
0.1 0.1 scale
%
% Model curves:
%

GSN 753 3704 M
770 3704 L
803 3763 L
837 3821 L
870 3875 L
895 3924 L
911 3947 L
937 3967 L
970 4003 L
1003 4032 L
1037 4053 L
1053 4067 L
1070 4067 L
1103 4076 L
1137 4082 L
1170 4084 L
1195 4085 L
1211 4086 L
1237 4086 L
1270 4086 L
1303 4086 L
1337 4086 L
1353 4086 L
1370 4086 L
1403 4086 L
1437 4086 L
1470 4086 L
1495 4086 L
1512 4086 L
1537 4086 L
1570 4086 L
1603 4086 L
1637 4086 L
1653 4086 L
1670 4086 L
1703 4086 L
1737 4086 L
1770 4086 L
1795 4086 L
1812 4086 L
1837 4086 L
1870 4086 L
1903 4086 L
1937 4086 L
1953 4086 L
1971 4086 L
2003 4086 L
2037 4086 L
2070 4086 L
2095 4086 L
2112 4086 L
2137 4086 L
2170 4086 L
2203 4086 L
2237 4086 L
2253 4086 L
2271 4086 L
2303 4086 L
2337 4086 L
2370 4086 L
2395 4086 L
2412 4086 L
2437 4086 L
2470 4086 L
2503 4086 L
2537 4086 L
2553 4086 L
2571 4086 L
2603 4086 L
2637 4086 L
2670 4086 L
2695 4086 L
2712 4086 L
2737 4086 L
2770 4086 L
2803 4086 L
2837 4086 L
2854 4086 L
2871 4086 L
2903 4086 L
2937 4086 L
2970 4086 L
2995 4086 L
3012 4086 L
3037 4086 L
3061 4086 L
3077 4086 L
3103 4086 L
3137 4086 L
3154 4086 L
3171 4086 L
3203 4086 L
3237 4086 L
3270 4086 L
3296 4086 L
3312 4086 L
3337 4086 L
3370 4086 L
3403 4086 L
3437 4086 L
3454 4086 L
3471 4086 L
3503 4086 L
3537 4086 L
3570 4086 L
3596 4086 L
3612 4086 L
3637 4086 L
3670 4086 L
3703 4086 L
3737 4086 L
3754 4086 L
3771 4086 L
3803 4086 L
3837 4086 L
3870 4086 L
3896 4086 L
3912 4086 L
3937 4086 L
3970 4086 L
4003 4086 L
4037 4086 L
4070 4086 L
LWMC SL dash01 C01 COSGR

GSN 753 3313 M
770 3313 L
803 3433 L
837 3549 L
870 3658 L
895 3758 L
911 3804 L
937 3846 L
970 3919 L
1003 3976 L
1037 4019 L
1053 4048 L
1070 4048 L
1103 4067 L
1137 4077 L
1170 4082 L
1195 4085 L
1211 4085 L
1237 4085 L
1270 4086 L
1303 4086 L
1337 4086 L
1353 4086 L
1370 4086 L
1403 4086 L
1437 4086 L
1470 4086 L
1495 4086 L
1512 4086 L
1537 4086 L
1570 4086 L
1603 4086 L
1637 4086 L
1653 4086 L
1670 4086 L
1703 4086 L
1737 4086 L
1770 4086 L
1795 4086 L
1812 4086 L
1837 4086 L
1870 4086 L
1903 4086 L
1937 4086 L
1953 4086 L
1971 4086 L
2003 4086 L
2037 4086 L
2070 4086 L
2095 4086 L
2112 4086 L
2137 4086 L
2170 4086 L
2203 4086 L
2237 4086 L
2253 4086 L
2271 4086 L
2303 4086 L
2337 4086 L
2370 4086 L
2395 4086 L
2412 4086 L
2437 4086 L
2470 4086 L
2503 4086 L
2537 4086 L
2553 4086 L
2571 4086 L
2603 4086 L
2637 4086 L
2670 4086 L
2695 4086 L
2712 4086 L
2737 4086 L
2770 4086 L
2803 4086 L
2837 4086 L
2854 4086 L
2871 4086 L
2903 4086 L
2937 4086 L
2970 4086 L
2995 4086 L
3012 4086 L
3037 4086 L
3061 4086 L
3077 4086 L
3103 4086 L
3137 4086 L
3154 4086 L
3171 4086 L
3203 4086 L
3237 4086 L
3270 4086 L
3296 4086 L
3312 4086 L
3337 4086 L
3370 4086 L
3403 4086 L
3437 4086 L
3454 4086 L
3471 4086 L
3503 4086 L
3537 4086 L
3570 4086 L
3596 4086 L
3612 4086 L
3637 4086 L
3670 4086 L
3703 4086 L
3737 4086 L
3754 4086 L
3771 4086 L
3803 4086 L
3837 4086 L
3870 4086 L
3896 4086 L
3912 4086 L
3937 4086 L
3970 4086 L
4003 4086 L
4037 4086 L
4070 4086 L
LWMC SL dash02 C02 COSGR

GSN 753 2920 M
770 2920 L
803 3100 L
837 3276 L
870 3441 L
895 3592 L
911 3661 L
937 3724 L
970 3834 L
1003 3921 L
1037 3985 L
1053 4029 L
1070 4029 L
1103 4057 L
1137 4072 L
1170 4080 L
1195 4084 L
1211 4085 L
1237 4085 L
1270 4085 L
1303 4086 L
1337 4086 L
1353 4086 L
1370 4086 L
1403 4086 L
1437 4086 L
1470 4086 L
1495 4086 L
1512 4086 L
1537 4086 L
1570 4086 L
1603 4086 L
1637 4086 L
1653 4086 L
1670 4086 L
1703 4086 L
1737 4086 L
1770 4086 L
1795 4086 L
1812 4086 L
1837 4086 L
1870 4086 L
1903 4086 L
1937 4086 L
1953 4086 L
1971 4086 L
2003 4086 L
2037 4086 L
2070 4086 L
2095 4086 L
2112 4086 L
2137 4086 L
2170 4086 L
2203 4086 L
2237 4086 L
2253 4086 L
2271 4086 L
2303 4086 L
2337 4086 L
2370 4086 L
2395 4086 L
2412 4086 L
2437 4086 L
2470 4086 L
2503 4086 L
2537 4086 L
2553 4086 L
2571 4086 L
2603 4086 L
2637 4086 L
2670 4086 L
2695 4086 L
2712 4086 L
2737 4086 L
2770 4086 L
2803 4086 L
2837 4086 L
2854 4086 L
2871 4086 L
2903 4086 L
2937 4086 L
2970 4086 L
2995 4086 L
3012 4086 L
3037 4086 L
3061 4086 L
3077 4086 L
3103 4086 L
3137 4086 L
3154 4086 L
3171 4086 L
3203 4086 L
3237 4086 L
3270 4086 L
3296 4086 L
3312 4086 L
3337 4086 L
3370 4086 L
3403 4086 L
3437 4086 L
3454 4086 L
3471 4086 L
3503 4086 L
3537 4086 L
3570 4086 L
3596 4086 L
3612 4086 L
3637 4086 L
3670 4086 L
3703 4086 L
3737 4086 L
3754 4086 L
3771 4086 L
3803 4086 L
3837 4086 L
3870 4086 L
3896 4086 L
3912 4086 L
3937 4086 L
3970 4086 L
4003 4086 L
4037 4086 L
4070 4086 L
LWMC SL dash03 C03 COSGR

GSN 753 2525 M
770 2525 L
803 2767 L
837 3001 L
870 3222 L
895 3424 L
911 3517 L
937 3601 L
970 3748 L
1003 3864 L
1037 3950 L
1053 4009 L
1070 4010 L
1103 4047 L
1137 4068 L
1170 4078 L
1195 4083 L
1211 4084 L
1237 4085 L
1270 4085 L
1303 4085 L
1337 4085 L
1353 4085 L
1370 4085 L
1403 4085 L
1437 4085 L
1470 4085 L
1495 4085 L
1512 4085 L
1537 4085 L
1570 4085 L
1603 4085 L
1637 4085 L
1653 4085 L
1670 4085 L
1703 4085 L
1737 4085 L
1770 4085 L
1795 4085 L
1812 4085 L
1837 4085 L
1870 4085 L
1903 4085 L
1937 4085 L
1953 4085 L
1971 4085 L
2003 4085 L
2037 4085 L
2070 4085 L
2095 4085 L
2112 4085 L
2137 4085 L
2170 4085 L
2203 4085 L
2237 4085 L
2253 4085 L
2271 4085 L
2303 4085 L
2337 4085 L
2370 4085 L
2395 4085 L
2412 4085 L
2437 4085 L
2470 4085 L
2503 4085 L
2537 4085 L
2553 4085 L
2571 4085 L
2603 4085 L
2637 4085 L
2670 4085 L
2695 4085 L
2712 4085 L
2737 4085 L
2770 4085 L
2803 4085 L
2837 4085 L
2854 4085 L
2871 4085 L
2903 4085 L
2937 4085 L
2970 4085 L
2995 4085 L
3012 4085 L
3037 4085 L
3061 4085 L
3077 4085 L
3103 4085 L
3137 4085 L
3154 4085 L
3171 4085 L
3203 4085 L
3237 4085 L
3270 4085 L
3296 4085 L
3312 4085 L
3337 4085 L
3370 4085 L
3403 4085 L
3437 4085 L
3454 4085 L
3471 4085 L
3503 4085 L
3537 4085 L
3570 4085 L
3596 4085 L
3612 4085 L
3637 4085 L
3670 4085 L
3703 4085 L
3737 4085 L
3754 4085 L
3771 4085 L
3803 4085 L
3837 4085 L
3870 4085 L
3896 4085 L
3912 4085 L
3937 4085 L
3970 4085 L
4003 4085 L
4037 4085 L
4070 4085 L
LWMC SL dash04 C04 COSGR

GSN 753 2098 M
770 2098 L
803 2406 L
837 2704 L
870 2986 L
895 3243 L
911 3361 L
937 3468 L
970 3656 L
1003 3804 L
1037 3913 L
1053 3988 L
1070 3989 L
1103 4036 L
1137 4062 L
1170 4076 L
1195 4082 L
1211 4083 L
1237 4084 L
1270 4085 L
1303 4085 L
1337 4085 L
1353 4085 L
1370 4085 L
1403 4085 L
1437 4085 L
1470 4085 L
1495 4085 L
1512 4085 L
1537 4085 L
1570 4085 L
1603 4085 L
1637 4085 L
1653 4085 L
1670 4085 L
1703 4085 L
1737 4085 L
1770 4085 L
1795 4085 L
1812 4085 L
1837 4085 L
1870 4085 L
1903 4085 L
1937 4085 L
1953 4085 L
1971 4085 L
2003 4085 L
2037 4085 L
2070 4085 L
2095 4085 L
2112 4085 L
2137 4085 L
2170 4085 L
2203 4085 L
2237 4085 L
2253 4085 L
2271 4085 L
2303 4085 L
2337 4085 L
2370 4085 L
2395 4085 L
2412 4085 L
2437 4085 L
2470 4085 L
2503 4085 L
2537 4085 L
2553 4085 L
2571 4085 L
2603 4085 L
2637 4085 L
2670 4085 L
2695 4085 L
2712 4085 L
2737 4085 L
2770 4085 L
2803 4085 L
2837 4085 L
2854 4085 L
2871 4085 L
2903 4085 L
2937 4085 L
2970 4085 L
2995 4085 L
3012 4085 L
3037 4085 L
3061 4085 L
3077 4085 L
3103 4085 L
3137 4085 L
3154 4085 L
3171 4085 L
3203 4085 L
3237 4085 L
3270 4085 L
3296 4085 L
3312 4085 L
3337 4085 L
3370 4085 L
3403 4085 L
3437 4085 L
3454 4085 L
3471 4085 L
3503 4085 L
3537 4085 L
3570 4085 L
3596 4085 L
3612 4085 L
3637 4085 L
3670 4085 L
3703 4085 L
3737 4085 L
3754 4085 L
3771 4085 L
3803 4085 L
3837 4085 L
3870 4085 L
3896 4085 L
3912 4085 L
3937 4085 L
3970 4085 L
4003 4085 L
4037 4085 L
4070 4085 L
LWMC SL dash05 C05 COSGR

GSN 753 1691 M
770 1691 L
803 2061 L
837 2421 L
870 2761 L
895 3071 L
911 3212 L
937 3342 L
970 3568 L
1003 3746 L
1037 3878 L
1053 3968 L
1070 3969 L
1103 4025 L
1137 4058 L
1170 4074 L
1195 4081 L
1211 4083 L
1237 4084 L
1270 4085 L
1303 4085 L
1337 4085 L
1353 4085 L
1370 4085 L
1403 4085 L
1437 4085 L
1470 4085 L
1495 4085 L
1512 4085 L
1537 4085 L
1570 4085 L
1603 4085 L
1637 4085 L
1653 4085 L
1670 4085 L
1703 4085 L
1737 4085 L
1770 4085 L
1795 4085 L
1812 4085 L
1837 4085 L
1870 4085 L
1903 4085 L
1937 4085 L
1953 4085 L
1971 4085 L
2003 4085 L
2037 4085 L
2070 4085 L
2095 4085 L
2112 4085 L
2137 4085 L
2170 4085 L
2203 4085 L
2237 4085 L
2253 4085 L
2271 4085 L
2303 4085 L
2337 4085 L
2370 4085 L
2395 4085 L
2412 4085 L
2437 4085 L
2470 4085 L
2503 4085 L
2537 4085 L
2553 4085 L
2571 4085 L
2603 4085 L
2637 4085 L
2670 4085 L
2695 4085 L
2712 4085 L
2737 4085 L
2770 4085 L
2803 4085 L
2837 4085 L
2854 4085 L
2871 4085 L
2903 4085 L
2937 4085 L
2970 4085 L
2995 4085 L
3012 4085 L
3037 4085 L
3061 4085 L
3077 4085 L
3103 4085 L
3137 4085 L
3154 4085 L
3171 4085 L
3203 4085 L
3237 4085 L
3270 4085 L
3296 4085 L
3312 4085 L
3337 4085 L
3370 4085 L
3403 4085 L
3437 4085 L
3454 4085 L
3471 4085 L
3503 4085 L
3537 4085 L
3570 4085 L
3596 4085 L
3612 4085 L
3637 4085 L
3670 4085 L
3703 4085 L
3737 4085 L
3754 4085 L
3771 4085 L
3803 4085 L
3837 4085 L
3870 4085 L
3896 4085 L
3912 4085 L
3937 4085 L
3970 4085 L
4003 4085 L
4037 4085 L
4070 4085 L
LWMC SL dash06 C06 COSGR

GSN 753 753 M
770 753 L
803 1268 L
837 1769 L
870 2242 L
895 2673 L
911 2870 L
937 3050 L
970 3364 L
1003 3613 L
1037 3796 L
1053 3922 L
1070 3923 L
1103 4001 L
1137 4046 L
1170 4069 L
1195 4079 L
1211 4082 L
1237 4083 L
1270 4084 L
1303 4084 L
1337 4084 L
1353 4084 L
1370 4084 L
1403 4084 L
1437 4084 L
1470 4084 L
1495 4084 L
1512 4084 L
1537 4084 L
1570 4084 L
1603 4084 L
1637 4084 L
1653 4084 L
1670 4084 L
1703 4084 L
1737 4084 L
1770 4084 L
1795 4084 L
1812 4084 L
1837 4084 L
1870 4084 L
1903 4084 L
1937 4084 L
1953 4084 L
1971 4084 L
2003 4084 L
2037 4084 L
2070 4084 L
2095 4084 L
2112 4084 L
2137 4084 L
2170 4084 L
2203 4084 L
2237 4084 L
2253 4084 L
2271 4084 L
2303 4084 L
2337 4084 L
2370 4084 L
2395 4084 L
2412 4084 L
2437 4084 L
2470 4084 L
2503 4084 L
2537 4084 L
2553 4084 L
2571 4084 L
2603 4084 L
2637 4084 L
2670 4084 L
2695 4084 L
2712 4084 L
2737 4084 L
2770 4084 L
2803 4084 L
2837 4084 L
2854 4084 L
2871 4084 L
2903 4084 L
2937 4084 L
2970 4084 L
2995 4084 L
3012 4084 L
3037 4084 L
3061 4084 L
3077 4084 L
3103 4084 L
3137 4084 L
3154 4084 L
3171 4084 L
3203 4084 L
3237 4084 L
3270 4084 L
3296 4084 L
3312 4084 L
3337 4084 L
3370 4084 L
3403 4084 L
3437 4084 L
3454 4084 L
3471 4084 L
3503 4084 L
3537 4084 L
3570 4084 L
3596 4084 L
3612 4084 L
3637 4084 L
3670 4084 L
3703 4084 L
3737 4084 L
3754 4084 L
3771 4084 L
3803 4084 L
3837 4084 L
3870 4084 L
3896 4084 L
3912 4084 L
3937 4084 L
3970 4084 L
4003 4084 L
4037 4084 L
4070 4084 L
LWMC SL dash07 C07 COSGR

%
%================
% Legend - Begin
%================
%
GSN 4240 4040 M
4480 4040 L
LWMC SL dash01 C01 COSGR
GSN 4540 4001 M helvM (0.5 uM) show grestore
GSN 4240 3860 M
4480 3860 L
LWMC SL dash02 C02 COSGR
GSN 4540 3821 M helvM (1.0 uM) show grestore
GSN 4240 3680 M
4480 3680 L
LWMC SL dash03 C03 COSGR
GSN 4540 3641 M helvM (1.5 uM) show grestore
GSN 4240 3500 M
4480 3500 L
LWMC SL dash04 C04 COSGR
GSN 4540 3461 M helvM (2.0 uM) show grestore
GSN 4240 3320 M
4480 3320 L
LWMC SL dash05 C05 COSGR
GSN 4540 3281 M helvM (2.5 uM) show grestore
GSN 4240 3140 M
4480 3140 L
LWMC SL dash06 C06 COSGR
GSN 4540 3101 M helvM (3.0 uM) show grestore
GSN 4240 2960 M
4480 2960 L
LWMC SL dash07 C07 COSGR
GSN 4540 2921 M helvM (4.0 uM) show grestore
%
%================
% Legend - End
%================
%

%
% Main frame
%
L10
GSN 
620 620 M
4220 620 L
4220 4220 L
620 4220 L
closepath SGR

%
% X axis: large tics
%
L10
GSN 1074 620 M 0  54 rL SGR
GSN 1074 4220 M 0 -54 rL SGR
helvS (0.0001) 1074 470 xlabel
GSN 1572 620 M 0  54 rL SGR
GSN 1572 4220 M 0 -54 rL SGR
helvS (0.001) 1572 470 xlabel
GSN 2071 620 M 0  54 rL SGR
GSN 2071 4220 M 0 -54 rL SGR
helvS (0.01) 2071 470 xlabel
GSN 2570 620 M 0  54 rL SGR
GSN 2570 4220 M 0 -54 rL SGR
helvS (0.1) 2570 470 xlabel
GSN 3068 620 M 0  54 rL SGR
GSN 3068 4220 M 0 -54 rL SGR
helvS (1) 3068 470 xlabel
GSN 3567 620 M 0  54 rL SGR
GSN 3567 4220 M 0 -54 rL SGR
helvS (10) 3567 470 xlabel
GSN 4066 620 M 0  54 rL SGR
GSN 4066 4220 M 0 -54 rL SGR
helvS (100) 4066 470 xlabel
%
% X axis: small tics
%
L5
GSN 725 620 M 0  36 rL SGR
GSN 725 4220 M 0 -36 rL SGR
GSN 813 620 M 0  36 rL SGR
GSN 813 4220 M 0 -36 rL SGR
GSN 875 620 M 0  36 rL SGR
GSN 875 4220 M 0 -36 rL SGR
GSN 924 620 M 0  36 rL SGR
GSN 924 4220 M 0 -36 rL SGR
GSN 963 620 M 0  36 rL SGR
GSN 963 4220 M 0 -36 rL SGR
GSN 996 620 M 0  36 rL SGR
GSN 996 4220 M 0 -36 rL SGR
GSN 1025 620 M 0  36 rL SGR
GSN 1025 4220 M 0 -36 rL SGR
GSN 1051 620 M 0  36 rL SGR
GSN 1051 4220 M 0 -36 rL SGR
GSN 1224 620 M 0  36 rL SGR
GSN 1224 4220 M 0 -36 rL SGR
GSN 1312 620 M 0  36 rL SGR
GSN 1312 4220 M 0 -36 rL SGR
GSN 1374 620 M 0  36 rL SGR
GSN 1374 4220 M 0 -36 rL SGR
GSN 1422 620 M 0  36 rL SGR
GSN 1422 4220 M 0 -36 rL SGR
GSN 1462 620 M 0  36 rL SGR
GSN 1462 4220 M 0 -36 rL SGR
GSN 1495 620 M 0  36 rL SGR
GSN 1495 4220 M 0 -36 rL SGR
GSN 1524 620 M 0  36 rL SGR
GSN 1524 4220 M 0 -36 rL SGR
GSN 1550 620 M 0  36 rL SGR
GSN 1550 4220 M 0 -36 rL SGR
GSN 1722 620 M 0  36 rL SGR
GSN 1722 4220 M 0 -36 rL SGR
GSN 1810 620 M 0  36 rL SGR
GSN 1810 4220 M 0 -36 rL SGR
GSN 1873 620 M 0  36 rL SGR
GSN 1873 4220 M 0 -36 rL SGR
GSN 1921 620 M 0  36 rL SGR
GSN 1921 4220 M 0 -36 rL SGR
GSN 1960 620 M 0  36 rL SGR
GSN 1960 4220 M 0 -36 rL SGR
GSN 1994 620 M 0  36 rL SGR
GSN 1994 4220 M 0 -36 rL SGR
GSN 2023 620 M 0  36 rL SGR
GSN 2023 4220 M 0 -36 rL SGR
GSN 2048 620 M 0  36 rL SGR
GSN 2048 4220 M 0 -36 rL SGR
GSN 2221 620 M 0  36 rL SGR
GSN 2221 4220 M 0 -36 rL SGR
GSN 2309 620 M 0  36 rL SGR
GSN 2309 4220 M 0 -36 rL SGR
GSN 2371 620 M 0  36 rL SGR
GSN 2371 4220 M 0 -36 rL SGR
GSN 2420 620 M 0  36 rL SGR
GSN 2420 4220 M 0 -36 rL SGR
GSN 2459 620 M 0  36 rL SGR
GSN 2459 4220 M 0 -36 rL SGR
GSN 2492 620 M 0  36 rL SGR
GSN 2492 4220 M 0 -36 rL SGR
GSN 2521 620 M 0  36 rL SGR
GSN 2521 4220 M 0 -36 rL SGR
GSN 2547 620 M 0  36 rL SGR
GSN 2547 4220 M 0 -36 rL SGR
GSN 2720 620 M 0  36 rL SGR
GSN 2720 4220 M 0 -36 rL SGR
GSN 2808 620 M 0  36 rL SGR
GSN 2808 4220 M 0 -36 rL SGR
GSN 2870 620 M 0  36 rL SGR
GSN 2870 4220 M 0 -36 rL SGR
GSN 2918 620 M 0  36 rL SGR
GSN 2918 4220 M 0 -36 rL SGR
GSN 2958 620 M 0  36 rL SGR
GSN 2958 4220 M 0 -36 rL SGR
GSN 2991 620 M 0  36 rL SGR
GSN 2991 4220 M 0 -36 rL SGR
GSN 3020 620 M 0  36 rL SGR
GSN 3020 4220 M 0 -36 rL SGR
GSN 3045 620 M 0  36 rL SGR
GSN 3045 4220 M 0 -36 rL SGR
GSN 3218 620 M 0  36 rL SGR
GSN 3218 4220 M 0 -36 rL SGR
GSN 3306 620 M 0  36 rL SGR
GSN 3306 4220 M 0 -36 rL SGR
GSN 3368 620 M 0  36 rL SGR
GSN 3368 4220 M 0 -36 rL SGR
GSN 3417 620 M 0  36 rL SGR
GSN 3417 4220 M 0 -36 rL SGR
GSN 3456 620 M 0  36 rL SGR
GSN 3456 4220 M 0 -36 rL SGR
GSN 3490 620 M 0  36 rL SGR
GSN 3490 4220 M 0 -36 rL SGR
GSN 3519 620 M 0  36 rL SGR
GSN 3519 4220 M 0 -36 rL SGR
GSN 3544 620 M 0  36 rL SGR
GSN 3544 4220 M 0 -36 rL SGR
GSN 3717 620 M 0  36 rL SGR
GSN 3717 4220 M 0 -36 rL SGR
GSN 3805 620 M 0  36 rL SGR
GSN 3805 4220 M 0 -36 rL SGR
GSN 3867 620 M 0  36 rL SGR
GSN 3867 4220 M 0 -36 rL SGR
GSN 3915 620 M 0  36 rL SGR
GSN 3915 4220 M 0 -36 rL SGR
GSN 3955 620 M 0  36 rL SGR
GSN 3955 4220 M 0 -36 rL SGR
GSN 3988 620 M 0  36 rL SGR
GSN 3988 4220 M 0 -36 rL SGR
GSN 4017 620 M 0  36 rL SGR
GSN 4017 4220 M 0 -36 rL SGR
GSN 4043 620 M 0  36 rL SGR
GSN 4043 4220 M 0 -36 rL SGR
GSN 4216 620 M 0  36 rL SGR
GSN 4216 4220 M 0 -36 rL SGR
%
% Y axis: large tics
%
L10
GSN 620 1042 M 54 0 rL SGR
GSN 4220 1042 M -54 0 rL SGR
helvS (-0.02) 560 1042 ylabel
GSN 620 2564 M 54 0 rL SGR
GSN 4220 2564 M -54 0 rL SGR
helvS (-0.01) 560 2564 ylabel
GSN 620 4086 M 54 0 rL SGR
GSN 4220 4086 M -54 0 rL SGR
helvS (0) 560 4086 ylabel
%
% Y axis: small tics
%
L5
GSN 620 661 M 36 0 rL SGR
GSN 4220 661 M -36 0 rL SGR
GSN 620 1042 M 36 0 rL SGR
GSN 4220 1042 M -36 0 rL SGR
GSN 620 1422 M 36 0 rL SGR
GSN 4220 1422 M -36 0 rL SGR
GSN 620 1803 M 36 0 rL SGR
GSN 4220 1803 M -36 0 rL SGR
GSN 620 2183 M 36 0 rL SGR
GSN 4220 2183 M -36 0 rL SGR
GSN 620 2564 M 36 0 rL SGR
GSN 4220 2564 M -36 0 rL SGR
GSN 620 2944 M 36 0 rL SGR
GSN 4220 2944 M -36 0 rL SGR
GSN 620 3325 M 36 0 rL SGR
GSN 4220 3325 M -36 0 rL SGR
GSN 620 3706 M 36 0 rL SGR
GSN 4220 3706 M -36 0 rL SGR
GSN 620 4086 M 36 0 rL SGR
GSN 4220 4086 M -36 0 rL SGR

%
% X axis
%
GSN L5 620 4086 M 4220 4086 L SDA G50 SGR

%
% X-Axis label:
%
gsave 2420 290 M 
[
[(Helvetica) 180 0 true true 0 (t)]
[(Helvetica) 180 0 true true 0 (i)]
[(Helvetica) 180 0 true true 0 (m)]
[(Helvetica) 180 0 true true 0 (e)]
] 0 MCshow grestore

%
% Y-Axis label:
%
gsave 234 2420 M 
currentpoint gsave translate 90 rotate 0 0 moveto
[
[(Helvetica) 180 0 true true 0 (d)]
[(Helvetica) 180 0 true true 0 (\()]
[(Helvetica) 180 0 true true 0 (s)]
[(Helvetica) 180 0 true true 0 (i)]
[(Helvetica) 180 0 true true 0 (g)]
[(Helvetica) 180 0 true true 0 (n)]
[(Helvetica) 180 0 true true 0 (a)]
[(Helvetica) 180 0 true true 0 (l)]
[(Helvetica) 180 0 true true 0 (\))]
[(Helvetica) 180 0 true true 0 ( )]
[(Helvetica) 180 0 true true 0 (/)]
[(Helvetica) 180 0 true true 0 ( )]
[(Helvetica) 180 0 true true 0 (d)]
[(Helvetica) 180 0 true true 0 (t)]
] 0 MCshow grestore

end
showpage
%%Trailer
%%EOF
