%!PS-Adobe-3.0 EPSF-3.0
%%BoundingBox: 0 0 514 442
%%Creator: BioKin Ltd.
%%DocumentFonts: Symbol Helvetica
%%EndComments
%
/bkdict 256 dict def
bkdict begin
/M {moveto} def 
/R {rmoveto} def
/L {lineto} def
/rL {rlineto} def
/GSN {gsave newpath} def
/SGR {stroke grestore} def
/COSGR {gsave setrgbcolor stroke grestore grestore} def
/SL {setlinewidth} def
/LWMB {12} def             % line width - model curves, black & white
/LWMC {10} def             % line width - model curves, color
/L2 {2.5 setlinewidth} def
/L5 {5 setlinewidth} def
/L10 {10 setlinewidth} def
/G50 {0.5 setgray} def
/SDA {[10  20] 0 setdash} def % axes
/helvT {/Helvetica findfont 100 scalefont setfont} def % tiny
/helvS {/Helvetica findfont 125 scalefont setfont} def % small
/helvM {/Helvetica findfont 150 scalefont setfont} def % medium
/helvL {/Helvetica findfont 175 scalefont setfont} def % large
/xlabel {gsave M dup
   stringwidth exch -0.5 mul exch rmoveto show grestore} def 
/ylabel {gsave M 90 rotate dup
   stringwidth exch -0.5 mul exch rmoveto show grestore} def
/ylabelresid {gsave M dup
   stringwidth exch -1 mul exch rmoveto show grestore} def
% ======
% Shapes
% ======
% Circle:
/Circ {0 360 arc closepath} def
%
% Square:
/Squa {dup dup -0.5 mul dup dup R -2 mul 0 exch rL 1 mul 0 rL dup 0 exch -1 mul rL closepath} def
%
% Triangle Up:
/TriU {dup dup dup -0.4 mul exch -0.5 mul exch R dup 0.5 mul exch rL dup -1 mul exch 0.5 mul exch rL closepath} def 
%
% Triangle Down:
/TriD {dup dup dup 0.4 mul exch -0.5 mul exch R dup 0.5 mul exch -1 mul rL dup 0.5 mul exch rL closepath} def 
%
% Diamond:
/Diam {45 rotate Squa} def
% ======
% Fills
% ======
/GRF {gsave setgray fill grestore} def                    % gray-level Fill
/COF {gsave setrgbcolor fill grestore} def                % color fill
% ======
% Colors
% ======
/C01 {1.00	0.00	0.00} def      % Red
/C02 {0.00	0.00	1.00} def      % Blue
/C03 {0.00	0.39	0.00} def      % Dark Green
/C04 {0.78	0.08	0.52} def      % Medium Violet Red
/C05 {0.55	0.27	0.07} def      % Saddle Brown
/C06 {0.10	0.70	0.70} def      % (cyan)
/C07 {1.00	0.55	0.00} def      % Dark Orange
/C08 {0.63	0.13	0.94} def      % Purple
/C09 {0.00	0.75	1.00} def      % Deep Sky Blue
/C10 {0.20	0.80	0.20} def      % Lime Green
/C11 {0.47	0.53	0.60} def      % Light Slate Gray
/C12 {0.00	0.00	0.00} def      % Black            % or: {0.19	0.31	0.31} def      % Dark Slate Gray
%
/LGR {0.75} def % light gray
/DGR {0.33} def % dark gray
%
% =============
% Dash patterns
% =============
/dash01 { [80  20] 0 setdash } def
/dash02 { [40  20] 0 setdash } def
/dash03 { [80  20  10  20] 0 setdash } def
/dash04 { [40  20  10  20] 0 setdash } def
/dash05 { [80  20  10  10  10  20] 0 setdash } def
/dash06 { [40  20  10  10  10  20] 0 setdash } def
/dash07 { [10  10] 0 setdash } def
%
/MFshow {
   { dup 5 get 3 ge
     { 5 get 3 eq {gsave} {grestore} ifelse }
     {dup dup 0 get findfont exch 1 get scalefont setfont
     [ currentpoint ] exch dup 2 get 0 exch R dup 5 get 2 ne {dup dup 6
     get exch 4 get {show} {stringwidth pop 0 R} ifelse }if dup 5 get 0 eq
     {dup 3 get {2 get neg 0 exch R pop} {pop aload pop M} ifelse} {dup 5
     get 1 eq {dup 2 get exch dup 3 get exch 6 get stringwidth pop -2 div
     dup 0 R} {dup 6 get stringwidth pop -2 div 0 R 6 get
     show 2 index {aload pop M neg 3 -1 roll neg R pop pop} {pop pop pop
     pop aload pop M} ifelse }ifelse }ifelse }
     ifelse }
   forall} bind def
/MFwidth {0 exch {dup 3 get{dup dup 0 get findfont exch 1 get scalefont
     setfont 6 get stringwidth pop add} {pop} ifelse} forall} bind def
/MCshow { currentpoint stroke M
  exch dup MFwidth -2 div 3 -1 roll R MFshow } def
%
end
%%EndProlog
bkdict begin
0.1 0.1 scale
%
% Model curves:
%

GSN 753 1729 M
770 1729 L
803 2562 L
837 2752 L
870 2785 L
895 2790 L
911 2790 L
937 2790 L
970 2790 L
1003 2791 L
1037 2791 L
1053 2791 L
1070 2791 L
1103 2792 L
1137 2792 L
1170 2792 L
1195 2793 L
1211 2793 L
1237 2794 L
1270 2794 L
1303 2795 L
1337 2796 L
1353 2798 L
1370 2798 L
1403 2799 L
1437 2801 L
1470 2803 L
1495 2805 L
1512 2806 L
1537 2807 L
1570 2810 L
1603 2814 L
1637 2818 L
1653 2823 L
1670 2823 L
1703 2828 L
1737 2835 L
1770 2842 L
1795 2851 L
1812 2856 L
1837 2861 L
1870 2872 L
1903 2886 L
1937 2901 L
1953 2918 L
1971 2919 L
2003 2938 L
2037 2961 L
2070 2987 L
2095 3017 L
2112 3034 L
2137 3050 L
2170 3087 L
2203 3129 L
2237 3175 L
2253 3225 L
2271 3227 L
2303 3280 L
2337 3339 L
2370 3401 L
2395 3467 L
2412 3503 L
2437 3535 L
2470 3603 L
2503 3671 L
2537 3738 L
2553 3800 L
2571 3803 L
2603 3858 L
2637 3910 L
2670 3955 L
2695 3993 L
2712 4010 L
2737 4023 L
2770 4046 L
2803 4062 L
2837 4073 L
2854 4079 L
2871 4080 L
2903 4083 L
2937 4085 L
2970 4086 L
2995 4086 L
3012 4086 L
3037 4086 L
3061 4086 L
3077 4086 L
3103 4086 L
3137 4086 L
3154 4086 L
3171 4086 L
3203 4086 L
3237 4086 L
3270 4086 L
3296 4086 L
3312 4086 L
3337 4086 L
3370 4086 L
3403 4086 L
3437 4086 L
3454 4086 L
3471 4086 L
3503 4086 L
3537 4086 L
3570 4086 L
3596 4086 L
3612 4086 L
3637 4086 L
3670 4086 L
3703 4086 L
3737 4086 L
3754 4086 L
3771 4086 L
3803 4086 L
3837 4086 L
3870 4086 L
3896 4086 L
3912 4086 L
3937 4086 L
3970 4086 L
4003 4086 L
4037 4086 L
4070 4086 L
LWMC SL dash01 C01 COSGR

GSN 753 1409 M
770 1409 L
803 1907 L
837 2001 L
870 2014 L
895 2016 L
911 2016 L
937 2016 L
970 2016 L
1003 2017 L
1037 2017 L
1053 2018 L
1070 2018 L
1103 2018 L
1137 2019 L
1170 2020 L
1195 2021 L
1211 2021 L
1237 2022 L
1270 2023 L
1303 2025 L
1337 2026 L
1353 2028 L
1370 2028 L
1403 2031 L
1437 2034 L
1470 2037 L
1495 2041 L
1512 2043 L
1537 2045 L
1570 2050 L
1603 2056 L
1637 2063 L
1653 2071 L
1670 2071 L
1703 2080 L
1737 2091 L
1770 2103 L
1795 2118 L
1812 2126 L
1837 2134 L
1870 2153 L
1903 2176 L
1937 2201 L
1953 2230 L
1971 2231 L
2003 2263 L
2037 2301 L
2070 2344 L
2095 2393 L
2112 2421 L
2137 2448 L
2170 2509 L
2203 2577 L
2237 2652 L
2253 2734 L
2271 2736 L
2303 2822 L
2337 2917 L
2370 3017 L
2395 3121 L
2412 3177 L
2437 3227 L
2470 3333 L
2503 3438 L
2537 3539 L
2553 3633 L
2571 3637 L
2603 3720 L
2637 3796 L
2670 3863 L
2695 3919 L
2712 3945 L
2737 3965 L
2770 4001 L
2803 4028 L
2837 4049 L
2854 4063 L
2871 4064 L
2903 4073 L
2937 4079 L
2970 4083 L
2995 4085 L
3012 4085 L
3037 4086 L
3061 4086 L
3077 4086 L
3103 4086 L
3137 4086 L
3154 4086 L
3171 4086 L
3203 4086 L
3237 4086 L
3270 4086 L
3296 4086 L
3312 4086 L
3337 4086 L
3370 4086 L
3403 4086 L
3437 4086 L
3454 4086 L
3471 4086 L
3503 4086 L
3537 4086 L
3570 4086 L
3596 4086 L
3612 4086 L
3637 4086 L
3670 4086 L
3703 4086 L
3737 4086 L
3754 4086 L
3771 4086 L
3803 4086 L
3837 4086 L
3870 4086 L
3896 4086 L
3912 4086 L
3937 4086 L
3970 4086 L
4003 4086 L
4037 4086 L
4070 4086 L
LWMC SL dash02 C02 COSGR

GSN 753 1344 M
770 1344 L
803 1523 L
837 1550 L
870 1553 L
895 1553 L
911 1554 L
937 1554 L
970 1554 L
1003 1555 L
1037 1555 L
1053 1556 L
1070 1556 L
1103 1557 L
1137 1558 L
1170 1559 L
1195 1560 L
1211 1561 L
1237 1562 L
1270 1563 L
1303 1565 L
1337 1568 L
1353 1570 L
1370 1570 L
1403 1573 L
1437 1577 L
1470 1581 L
1495 1586 L
1512 1589 L
1537 1592 L
1570 1599 L
1603 1606 L
1637 1615 L
1653 1626 L
1670 1626 L
1703 1638 L
1737 1652 L
1770 1669 L
1795 1688 L
1812 1699 L
1837 1709 L
1870 1735 L
1903 1764 L
1937 1797 L
1953 1835 L
1971 1836 L
2003 1879 L
2037 1929 L
2070 1985 L
2095 2049 L
2112 2086 L
2137 2120 L
2170 2200 L
2203 2289 L
2237 2386 L
2253 2493 L
2271 2496 L
2303 2607 L
2337 2729 L
2370 2858 L
2395 2991 L
2412 3063 L
2437 3126 L
2470 3261 L
2503 3392 L
2537 3517 L
2553 3633 L
2571 3637 L
2603 3737 L
2637 3827 L
2670 3902 L
2695 3962 L
2712 3988 L
2737 4007 L
2770 4039 L
2803 4060 L
2837 4073 L
2854 4080 L
2871 4081 L
2903 4084 L
2937 4085 L
2970 4086 L
2995 4086 L
3012 4086 L
3037 4086 L
3061 4086 L
3077 4086 L
3103 4086 L
3137 4086 L
3154 4086 L
3171 4086 L
3203 4086 L
3237 4086 L
3270 4086 L
3296 4086 L
3312 4086 L
3337 4086 L
3370 4086 L
3403 4086 L
3437 4086 L
3454 4086 L
3471 4086 L
3503 4086 L
3537 4086 L
3570 4086 L
3596 4086 L
3612 4086 L
3637 4086 L
3670 4086 L
3703 4086 L
3737 4086 L
3754 4086 L
3771 4086 L
3803 4086 L
3837 4086 L
3870 4086 L
3896 4086 L
3912 4086 L
3937 4086 L
3970 4086 L
4003 4086 L
4037 4086 L
4070 4086 L
LWMC SL dash03 C03 COSGR

GSN 753 1033 M
770 1033 L
803 1051 L
837 1053 L
870 1054 L
895 1054 L
911 1054 L
937 1054 L
970 1055 L
1003 1056 L
1037 1056 L
1053 1057 L
1070 1057 L
1103 1058 L
1137 1060 L
1170 1061 L
1195 1063 L
1211 1064 L
1237 1065 L
1270 1067 L
1303 1070 L
1337 1073 L
1353 1076 L
1370 1076 L
1403 1080 L
1437 1085 L
1470 1091 L
1495 1098 L
1512 1101 L
1537 1105 L
1570 1114 L
1603 1124 L
1637 1136 L
1653 1150 L
1670 1151 L
1703 1167 L
1737 1185 L
1770 1207 L
1795 1232 L
1812 1247 L
1837 1261 L
1870 1295 L
1903 1333 L
1937 1377 L
1953 1428 L
1971 1429 L
2003 1486 L
2037 1552 L
2070 1626 L
2095 1710 L
2112 1758 L
2137 1804 L
2170 1909 L
2203 2025 L
2237 2152 L
2253 2290 L
2271 2295 L
2303 2438 L
2337 2595 L
2370 2759 L
2395 2926 L
2412 3016 L
2437 3094 L
2470 3259 L
2503 3417 L
2537 3562 L
2553 3692 L
2571 3697 L
2603 3803 L
2637 3894 L
2670 3963 L
2695 4013 L
2712 4033 L
2737 4046 L
2770 4067 L
2803 4078 L
2837 4083 L
2854 4085 L
2871 4085 L
2903 4086 L
2937 4086 L
2970 4086 L
2995 4086 L
3012 4086 L
3037 4086 L
3061 4086 L
3077 4086 L
3103 4086 L
3137 4086 L
3154 4086 L
3171 4086 L
3203 4086 L
3237 4086 L
3270 4086 L
3296 4086 L
3312 4086 L
3337 4086 L
3370 4086 L
3403 4086 L
3437 4086 L
3454 4086 L
3471 4086 L
3503 4086 L
3537 4086 L
3570 4086 L
3596 4086 L
3612 4086 L
3637 4086 L
3670 4086 L
3703 4086 L
3737 4086 L
3754 4086 L
3771 4086 L
3803 4086 L
3837 4086 L
3870 4086 L
3896 4086 L
3912 4086 L
3937 4086 L
3970 4086 L
4003 4086 L
4037 4086 L
4070 4086 L
LWMC SL dash04 C04 COSGR

GSN 753 978 M
770 978 L
803 979 L
837 980 L
870 980 L
895 980 L
911 981 L
937 981 L
970 982 L
1003 982 L
1037 983 L
1053 984 L
1070 984 L
1103 985 L
1137 987 L
1170 988 L
1195 990 L
1211 991 L
1237 992 L
1270 995 L
1303 998 L
1337 1001 L
1353 1005 L
1370 1005 L
1403 1010 L
1437 1015 L
1470 1021 L
1495 1029 L
1512 1033 L
1537 1037 L
1570 1047 L
1603 1058 L
1637 1072 L
1653 1087 L
1670 1087 L
1703 1105 L
1737 1126 L
1770 1150 L
1795 1177 L
1812 1194 L
1837 1209 L
1870 1246 L
1903 1289 L
1937 1337 L
1953 1393 L
1971 1395 L
2003 1457 L
2037 1529 L
2070 1610 L
2095 1702 L
2112 1755 L
2137 1805 L
2170 1919 L
2203 2045 L
2237 2182 L
2253 2331 L
2271 2336 L
2303 2489 L
2337 2656 L
2370 2828 L
2395 3003 L
2412 3096 L
2437 3176 L
2470 3344 L
2503 3500 L
2537 3641 L
2553 3763 L
2571 3768 L
2603 3864 L
2637 3943 L
2670 4000 L
2695 4038 L
2712 4053 L
2737 4062 L
2770 4076 L
2803 4082 L
2837 4085 L
2854 4086 L
2871 4086 L
2903 4086 L
2937 4086 L
2970 4086 L
2995 4086 L
3012 4086 L
3037 4086 L
3061 4086 L
3077 4086 L
3103 4086 L
3137 4086 L
3154 4086 L
3171 4086 L
3203 4086 L
3237 4086 L
3270 4086 L
3296 4086 L
3312 4086 L
3337 4086 L
3370 4086 L
3403 4086 L
3437 4086 L
3454 4086 L
3471 4086 L
3503 4086 L
3537 4086 L
3570 4086 L
3596 4086 L
3612 4086 L
3637 4086 L
3670 4086 L
3703 4086 L
3737 4086 L
3754 4086 L
3771 4086 L
3803 4086 L
3837 4086 L
3870 4086 L
3896 4086 L
3912 4086 L
3937 4086 L
3970 4086 L
4003 4086 L
4037 4086 L
4070 4086 L
LWMC SL dash05 C05 COSGR

GSN 753 915 M
770 915 L
803 915 L
837 915 L
870 916 L
895 916 L
911 917 L
937 917 L
970 918 L
1003 918 L
1037 919 L
1053 920 L
1070 920 L
1103 922 L
1137 923 L
1170 925 L
1195 927 L
1211 928 L
1237 929 L
1270 932 L
1303 935 L
1337 938 L
1353 943 L
1370 943 L
1403 948 L
1437 953 L
1470 960 L
1495 968 L
1512 972 L
1537 977 L
1570 987 L
1603 1000 L
1637 1014 L
1653 1030 L
1670 1031 L
1703 1049 L
1737 1071 L
1770 1097 L
1795 1127 L
1812 1144 L
1837 1161 L
1870 1200 L
1903 1245 L
1937 1297 L
1953 1356 L
1971 1358 L
2003 1424 L
2037 1500 L
2070 1587 L
2095 1684 L
2112 1740 L
2137 1793 L
2170 1913 L
2203 2046 L
2237 2190 L
2253 2345 L
2271 2350 L
2303 2510 L
2337 2683 L
2370 2861 L
2395 3040 L
2412 3135 L
2437 3216 L
2470 3384 L
2503 3539 L
2537 3678 L
2553 3796 L
2571 3800 L
2603 3891 L
2637 3963 L
2670 4014 L
2695 4048 L
2712 4060 L
2737 4068 L
2770 4078 L
2803 4083 L
2837 4085 L
2854 4086 L
2871 4086 L
2903 4086 L
2937 4086 L
2970 4086 L
2995 4086 L
3012 4086 L
3037 4086 L
3061 4086 L
3077 4086 L
3103 4086 L
3137 4086 L
3154 4086 L
3171 4086 L
3203 4086 L
3237 4086 L
3270 4086 L
3296 4086 L
3312 4086 L
3337 4086 L
3370 4086 L
3403 4086 L
3437 4086 L
3454 4086 L
3471 4086 L
3503 4086 L
3537 4086 L
3570 4086 L
3596 4086 L
3612 4086 L
3637 4086 L
3670 4086 L
3703 4086 L
3737 4086 L
3754 4086 L
3771 4086 L
3803 4086 L
3837 4086 L
3870 4086 L
3896 4086 L
3912 4086 L
3937 4086 L
3970 4086 L
4003 4086 L
4037 4086 L
4070 4086 L
LWMC SL dash06 C06 COSGR

GSN 753 753 M
770 753 L
803 753 L
837 754 L
870 754 L
895 755 L
911 755 L
937 755 L
970 756 L
1003 757 L
1037 758 L
1053 759 L
1070 759 L
1103 760 L
1137 762 L
1170 764 L
1195 766 L
1211 767 L
1237 769 L
1270 772 L
1303 775 L
1337 779 L
1353 784 L
1370 784 L
1403 789 L
1437 796 L
1470 803 L
1495 812 L
1512 817 L
1537 822 L
1570 833 L
1603 847 L
1637 863 L
1653 881 L
1670 881 L
1703 902 L
1737 927 L
1770 955 L
1795 988 L
1812 1007 L
1837 1026 L
1870 1069 L
1903 1119 L
1937 1176 L
1953 1242 L
1971 1243 L
2003 1316 L
2037 1400 L
2070 1495 L
2095 1602 L
2112 1663 L
2137 1721 L
2170 1852 L
2203 1996 L
2237 2152 L
2253 2320 L
2271 2326 L
2303 2497 L
2337 2682 L
2370 2870 L
2395 3058 L
2412 3156 L
2437 3240 L
2470 3413 L
2503 3570 L
2537 3708 L
2553 3823 L
2571 3827 L
2603 3913 L
2637 3981 L
2670 4027 L
2695 4056 L
2712 4066 L
2737 4072 L
2770 4081 L
2803 4084 L
2837 4086 L
2854 4086 L
2871 4086 L
2903 4086 L
2937 4086 L
2970 4086 L
2995 4086 L
3012 4086 L
3037 4086 L
3061 4086 L
3077 4086 L
3103 4086 L
3137 4086 L
3154 4086 L
3171 4086 L
3203 4086 L
3237 4086 L
3270 4086 L
3296 4086 L
3312 4086 L
3337 4086 L
3370 4086 L
3403 4086 L
3437 4086 L
3454 4086 L
3471 4086 L
3503 4086 L
3537 4086 L
3570 4086 L
3596 4086 L
3612 4086 L
3637 4086 L
3670 4086 L
3703 4086 L
3737 4086 L
3754 4086 L
3771 4086 L
3803 4086 L
3837 4086 L
3870 4086 L
3896 4086 L
3912 4086 L
3937 4086 L
3970 4086 L
4003 4086 L
4037 4086 L
4070 4086 L
LWMC SL dash07 C07 COSGR

%
%================
% Legend - Begin
%================
%
GSN 4240 4040 M
4480 4040 L
LWMC SL dash01 C01 COSGR
GSN 4540 4001 M helvM (0.5 uM) show grestore
GSN 4240 3860 M
4480 3860 L
LWMC SL dash02 C02 COSGR
GSN 4540 3821 M helvM (1.0 uM) show grestore
GSN 4240 3680 M
4480 3680 L
LWMC SL dash03 C03 COSGR
GSN 4540 3641 M helvM (1.5 uM) show grestore
GSN 4240 3500 M
4480 3500 L
LWMC SL dash04 C04 COSGR
GSN 4540 3461 M helvM (2.0 uM) show grestore
GSN 4240 3320 M
4480 3320 L
LWMC SL dash05 C05 COSGR
GSN 4540 3281 M helvM (2.5 uM) show grestore
GSN 4240 3140 M
4480 3140 L
LWMC SL dash06 C06 COSGR
GSN 4540 3101 M helvM (3.0 uM) show grestore
GSN 4240 2960 M
4480 2960 L
LWMC SL dash07 C07 COSGR
GSN 4540 2921 M helvM (4.0 uM) show grestore
%
%================
% Legend - End
%================
%

%
% Main frame
%
L10
GSN 
620 620 M
4220 620 L
4220 4220 L
620 4220 L
closepath SGR

%
% X axis: large tics
%
L10
GSN 1074 620 M 0  54 rL SGR
GSN 1074 4220 M 0 -54 rL SGR
helvS (0.0001) 1074 470 xlabel
GSN 1572 620 M 0  54 rL SGR
GSN 1572 4220 M 0 -54 rL SGR
helvS (0.001) 1572 470 xlabel
GSN 2071 620 M 0  54 rL SGR
GSN 2071 4220 M 0 -54 rL SGR
helvS (0.01) 2071 470 xlabel
GSN 2570 620 M 0  54 rL SGR
GSN 2570 4220 M 0 -54 rL SGR
helvS (0.1) 2570 470 xlabel
GSN 3068 620 M 0  54 rL SGR
GSN 3068 4220 M 0 -54 rL SGR
helvS (1) 3068 470 xlabel
GSN 3567 620 M 0  54 rL SGR
GSN 3567 4220 M 0 -54 rL SGR
helvS (10) 3567 470 xlabel
GSN 4066 620 M 0  54 rL SGR
GSN 4066 4220 M 0 -54 rL SGR
helvS (100) 4066 470 xlabel
%
% X axis: small tics
%
L5
GSN 725 620 M 0  36 rL SGR
GSN 725 4220 M 0 -36 rL SGR
GSN 813 620 M 0  36 rL SGR
GSN 813 4220 M 0 -36 rL SGR
GSN 875 620 M 0  36 rL SGR
GSN 875 4220 M 0 -36 rL SGR
GSN 924 620 M 0  36 rL SGR
GSN 924 4220 M 0 -36 rL SGR
GSN 963 620 M 0  36 rL SGR
GSN 963 4220 M 0 -36 rL SGR
GSN 996 620 M 0  36 rL SGR
GSN 996 4220 M 0 -36 rL SGR
GSN 1025 620 M 0  36 rL SGR
GSN 1025 4220 M 0 -36 rL SGR
GSN 1051 620 M 0  36 rL SGR
GSN 1051 4220 M 0 -36 rL SGR
GSN 1224 620 M 0  36 rL SGR
GSN 1224 4220 M 0 -36 rL SGR
GSN 1312 620 M 0  36 rL SGR
GSN 1312 4220 M 0 -36 rL SGR
GSN 1374 620 M 0  36 rL SGR
GSN 1374 4220 M 0 -36 rL SGR
GSN 1422 620 M 0  36 rL SGR
GSN 1422 4220 M 0 -36 rL SGR
GSN 1462 620 M 0  36 rL SGR
GSN 1462 4220 M 0 -36 rL SGR
GSN 1495 620 M 0  36 rL SGR
GSN 1495 4220 M 0 -36 rL SGR
GSN 1524 620 M 0  36 rL SGR
GSN 1524 4220 M 0 -36 rL SGR
GSN 1550 620 M 0  36 rL SGR
GSN 1550 4220 M 0 -36 rL SGR
GSN 1722 620 M 0  36 rL SGR
GSN 1722 4220 M 0 -36 rL SGR
GSN 1810 620 M 0  36 rL SGR
GSN 1810 4220 M 0 -36 rL SGR
GSN 1873 620 M 0  36 rL SGR
GSN 1873 4220 M 0 -36 rL SGR
GSN 1921 620 M 0  36 rL SGR
GSN 1921 4220 M 0 -36 rL SGR
GSN 1960 620 M 0  36 rL SGR
GSN 1960 4220 M 0 -36 rL SGR
GSN 1994 620 M 0  36 rL SGR
GSN 1994 4220 M 0 -36 rL SGR
GSN 2023 620 M 0  36 rL SGR
GSN 2023 4220 M 0 -36 rL SGR
GSN 2048 620 M 0  36 rL SGR
GSN 2048 4220 M 0 -36 rL SGR
GSN 2221 620 M 0  36 rL SGR
GSN 2221 4220 M 0 -36 rL SGR
GSN 2309 620 M 0  36 rL SGR
GSN 2309 4220 M 0 -36 rL SGR
GSN 2371 620 M 0  36 rL SGR
GSN 2371 4220 M 0 -36 rL SGR
GSN 2420 620 M 0  36 rL SGR
GSN 2420 4220 M 0 -36 rL SGR
GSN 2459 620 M 0  36 rL SGR
GSN 2459 4220 M 0 -36 rL SGR
GSN 2492 620 M 0  36 rL SGR
GSN 2492 4220 M 0 -36 rL SGR
GSN 2521 620 M 0  36 rL SGR
GSN 2521 4220 M 0 -36 rL SGR
GSN 2547 620 M 0  36 rL SGR
GSN 2547 4220 M 0 -36 rL SGR
GSN 2720 620 M 0  36 rL SGR
GSN 2720 4220 M 0 -36 rL SGR
GSN 2808 620 M 0  36 rL SGR
GSN 2808 4220 M 0 -36 rL SGR
GSN 2870 620 M 0  36 rL SGR
GSN 2870 4220 M 0 -36 rL SGR
GSN 2918 620 M 0  36 rL SGR
GSN 2918 4220 M 0 -36 rL SGR
GSN 2958 620 M 0  36 rL SGR
GSN 2958 4220 M 0 -36 rL SGR
GSN 2991 620 M 0  36 rL SGR
GSN 2991 4220 M 0 -36 rL SGR
GSN 3020 620 M 0  36 rL SGR
GSN 3020 4220 M 0 -36 rL SGR
GSN 3045 620 M 0  36 rL SGR
GSN 3045 4220 M 0 -36 rL SGR
GSN 3218 620 M 0  36 rL SGR
GSN 3218 4220 M 0 -36 rL SGR
GSN 3306 620 M 0  36 rL SGR
GSN 3306 4220 M 0 -36 rL SGR
GSN 3368 620 M 0  36 rL SGR
GSN 3368 4220 M 0 -36 rL SGR
GSN 3417 620 M 0  36 rL SGR
GSN 3417 4220 M 0 -36 rL SGR
GSN 3456 620 M 0  36 rL SGR
GSN 3456 4220 M 0 -36 rL SGR
GSN 3490 620 M 0  36 rL SGR
GSN 3490 4220 M 0 -36 rL SGR
GSN 3519 620 M 0  36 rL SGR
GSN 3519 4220 M 0 -36 rL SGR
GSN 3544 620 M 0  36 rL SGR
GSN 3544 4220 M 0 -36 rL SGR
GSN 3717 620 M 0  36 rL SGR
GSN 3717 4220 M 0 -36 rL SGR
GSN 3805 620 M 0  36 rL SGR
GSN 3805 4220 M 0 -36 rL SGR
GSN 3867 620 M 0  36 rL SGR
GSN 3867 4220 M 0 -36 rL SGR
GSN 3915 620 M 0  36 rL SGR
GSN 3915 4220 M 0 -36 rL SGR
GSN 3955 620 M 0  36 rL SGR
GSN 3955 4220 M 0 -36 rL SGR
GSN 3988 620 M 0  36 rL SGR
GSN 3988 4220 M 0 -36 rL SGR
GSN 4017 620 M 0  36 rL SGR
GSN 4017 4220 M 0 -36 rL SGR
GSN 4043 620 M 0  36 rL SGR
GSN 4043 4220 M 0 -36 rL SGR
GSN 4216 620 M 0  36 rL SGR
GSN 4216 4220 M 0 -36 rL SGR
%
% Y axis: large tics
%
L10
GSN 620 740 M 54 0 rL SGR
GSN 4220 740 M -54 0 rL SGR
helvS (-1.5) 560 740 ylabel
GSN 620 1855 M 54 0 rL SGR
GSN 4220 1855 M -54 0 rL SGR
helvS (-1) 560 1855 ylabel
GSN 620 2971 M 54 0 rL SGR
GSN 4220 2971 M -54 0 rL SGR
helvS (-0.5) 560 2971 ylabel
GSN 620 4086 M 54 0 rL SGR
GSN 4220 4086 M -54 0 rL SGR
helvS (0) 560 4086 ylabel
%
% Y axis: small tics
%
L5
GSN 620 740 M 36 0 rL SGR
GSN 4220 740 M -36 0 rL SGR
GSN 620 963 M 36 0 rL SGR
GSN 4220 963 M -36 0 rL SGR
GSN 620 1186 M 36 0 rL SGR
GSN 4220 1186 M -36 0 rL SGR
GSN 620 1409 M 36 0 rL SGR
GSN 4220 1409 M -36 0 rL SGR
GSN 620 1632 M 36 0 rL SGR
GSN 4220 1632 M -36 0 rL SGR
GSN 620 1855 M 36 0 rL SGR
GSN 4220 1855 M -36 0 rL SGR
GSN 620 2079 M 36 0 rL SGR
GSN 4220 2079 M -36 0 rL SGR
GSN 620 2302 M 36 0 rL SGR
GSN 4220 2302 M -36 0 rL SGR
GSN 620 2525 M 36 0 rL SGR
GSN 4220 2525 M -36 0 rL SGR
GSN 620 2748 M 36 0 rL SGR
GSN 4220 2748 M -36 0 rL SGR
GSN 620 2971 M 36 0 rL SGR
GSN 4220 2971 M -36 0 rL SGR
GSN 620 3194 M 36 0 rL SGR
GSN 4220 3194 M -36 0 rL SGR
GSN 620 3417 M 36 0 rL SGR
GSN 4220 3417 M -36 0 rL SGR
GSN 620 3640 M 36 0 rL SGR
GSN 4220 3640 M -36 0 rL SGR
GSN 620 3863 M 36 0 rL SGR
GSN 4220 3863 M -36 0 rL SGR
GSN 620 4086 M 36 0 rL SGR
GSN 4220 4086 M -36 0 rL SGR

%
% X axis
%
GSN L5 620 4086 M 4220 4086 L SDA G50 SGR

%
% X-Axis label:
%
gsave 2420 290 M 
[
[(Helvetica) 180 0 true true 0 (t)]
[(Helvetica) 180 0 true true 0 (i)]
[(Helvetica) 180 0 true true 0 (m)]
[(Helvetica) 180 0 true true 0 (e)]
] 0 MCshow grestore

%
% Y-Axis label:
%
gsave 234 2420 M 
currentpoint gsave translate 90 rotate 0 0 moveto
[
[(Helvetica) 180 0 true true 0 (d)]
[(Helvetica) 180 0 true true 0 (\()]
[(Helvetica) 180 0 true true 0 (s)]
[(Helvetica) 180 0 true true 0 (i)]
[(Helvetica) 180 0 true true 0 (g)]
[(Helvetica) 180 0 true true 0 (n)]
[(Helvetica) 180 0 true true 0 (a)]
[(Helvetica) 180 0 true true 0 (l)]
[(Helvetica) 180 0 true true 0 (\))]
[(Helvetica) 180 0 true true 0 ( )]
[(Helvetica) 180 0 true true 0 (/)]
[(Helvetica) 180 0 true true 0 ( )]
[(Helvetica) 180 0 true true 0 (d)]
[(Helvetica) 180 0 true true 0 (t)]
] 0 MCshow grestore

end
showpage
%%Trailer
%%EOF
