%!PS-Adobe-3.0 EPSF-3.0
%%BoundingBox: 0 0 514 442
%%Creator: BioKin Ltd.
%%DocumentFonts: Symbol Helvetica
%%EndComments
%
/bkdict 256 dict def
bkdict begin
/M {moveto} def 
/R {rmoveto} def
/L {lineto} def
/rL {rlineto} def
/GSN {gsave newpath} def
/SGR {stroke grestore} def
/COSGR {gsave setrgbcolor stroke grestore grestore} def
/SL {setlinewidth} def
/LWMB {12} def             % line width - model curves, black & white
/LWMC {10} def             % line width - model curves, color
/L2 {2.5 setlinewidth} def
/L5 {5 setlinewidth} def
/L10 {10 setlinewidth} def
/G50 {0.5 setgray} def
/SDA {[10  20] 0 setdash} def % axes
/helvT {/Helvetica findfont 100 scalefont setfont} def % tiny
/helvS {/Helvetica findfont 125 scalefont setfont} def % small
/helvM {/Helvetica findfont 150 scalefont setfont} def % medium
/helvL {/Helvetica findfont 175 scalefont setfont} def % large
/xlabel {gsave M dup
   stringwidth exch -0.5 mul exch rmoveto show grestore} def 
/ylabel {gsave M 90 rotate dup
   stringwidth exch -0.5 mul exch rmoveto show grestore} def
/ylabelresid {gsave M dup
   stringwidth exch -1 mul exch rmoveto show grestore} def
% ======
% Shapes
% ======
% Circle:
/Circ {0 360 arc closepath} def
%
% Square:
/Squa {dup dup -0.5 mul dup dup R -2 mul 0 exch rL 1 mul 0 rL dup 0 exch -1 mul rL closepath} def
%
% Triangle Up:
/TriU {dup dup dup -0.4 mul exch -0.5 mul exch R dup 0.5 mul exch rL dup -1 mul exch 0.5 mul exch rL closepath} def 
%
% Triangle Down:
/TriD {dup dup dup 0.4 mul exch -0.5 mul exch R dup 0.5 mul exch -1 mul rL dup 0.5 mul exch rL closepath} def 
%
% Diamond:
/Diam {45 rotate Squa} def
% ======
% Fills
% ======
/GRF {gsave setgray fill grestore} def                    % gray-level Fill
/COF {gsave setrgbcolor fill grestore} def                % color fill
% ======
% Colors
% ======
/C01 {1.00	0.00	0.00} def      % Red
/C02 {0.00	0.00	1.00} def      % Blue
/C03 {0.00	0.39	0.00} def      % Dark Green
/C04 {0.78	0.08	0.52} def      % Medium Violet Red
/C05 {0.55	0.27	0.07} def      % Saddle Brown
/C06 {0.10	0.70	0.70} def      % (cyan)
/C07 {1.00	0.55	0.00} def      % Dark Orange
/C08 {0.63	0.13	0.94} def      % Purple
/C09 {0.00	0.75	1.00} def      % Deep Sky Blue
/C10 {0.20	0.80	0.20} def      % Lime Green
/C11 {0.47	0.53	0.60} def      % Light Slate Gray
/C12 {0.00	0.00	0.00} def      % Black            % or: {0.19	0.31	0.31} def      % Dark Slate Gray
%
/LGR {0.75} def % light gray
/DGR {0.33} def % dark gray
%
% =============
% Dash patterns
% =============
/dash01 { [80  20] 0 setdash } def
/dash02 { [40  20] 0 setdash } def
/dash03 { [80  20  10  20] 0 setdash } def
/dash04 { [40  20  10  20] 0 setdash } def
/dash05 { [80  20  10  10  10  20] 0 setdash } def
/dash06 { [40  20  10  10  10  20] 0 setdash } def
/dash07 { [10  10] 0 setdash } def
%
/MFshow {
   { dup 5 get 3 ge
     { 5 get 3 eq {gsave} {grestore} ifelse }
     {dup dup 0 get findfont exch 1 get scalefont setfont
     [ currentpoint ] exch dup 2 get 0 exch R dup 5 get 2 ne {dup dup 6
     get exch 4 get {show} {stringwidth pop 0 R} ifelse }if dup 5 get 0 eq
     {dup 3 get {2 get neg 0 exch R pop} {pop aload pop M} ifelse} {dup 5
     get 1 eq {dup 2 get exch dup 3 get exch 6 get stringwidth pop -2 div
     dup 0 R} {dup 6 get stringwidth pop -2 div 0 R 6 get
     show 2 index {aload pop M neg 3 -1 roll neg R pop pop} {pop pop pop
     pop aload pop M} ifelse }ifelse }ifelse }
     ifelse }
   forall} bind def
/MFwidth {0 exch {dup 3 get{dup dup 0 get findfont exch 1 get scalefont
     setfont 6 get stringwidth pop add} {pop} ifelse} forall} bind def
/MCshow { currentpoint stroke M
  exch dup MFwidth -2 div 3 -1 roll R MFshow } def
%
end
%%EndProlog
bkdict begin
0.1 0.1 scale
%
% Model curves:
%

GSN 753 3659 M
770 3659 L
803 3667 L
837 3677 L
870 3687 L
903 3699 L
924 3712 L
941 3716 L
970 3725 L
1003 3741 L
1037 3757 L
1070 3775 L
1096 3794 L
1113 3805 L
1137 3814 L
1170 3835 L
1203 3856 L
1237 3879 L
1268 3901 L
1284 3921 L
1303 3924 L
1337 3946 L
1370 3967 L
1403 3988 L
1437 4007 L
1456 4023 L
1473 4026 L
1503 4038 L
1537 4051 L
1570 4061 L
1603 4069 L
1628 4075 L
1644 4078 L
1670 4080 L
1703 4083 L
1737 4084 L
1770 4085 L
1799 4086 L
1816 4086 L
1837 4086 L
1870 4086 L
1903 4086 L
1937 4086 L
1970 4086 L
1987 4086 L
2004 4086 L
2037 4086 L
2070 4086 L
2103 4086 L
2137 4086 L
2159 4086 L
2176 4086 L
2203 4086 L
2237 4086 L
2270 4086 L
2303 4086 L
2331 4086 L
2347 4086 L
2370 4086 L
2403 4086 L
2437 4086 L
2470 4086 L
2503 4086 L
2519 4086 L
2537 4086 L
2570 4086 L
2603 4086 L
2637 4086 L
2670 4086 L
2690 4086 L
2707 4086 L
2737 4086 L
2770 4086 L
2803 4086 L
2837 4086 L
2862 4086 L
2879 4086 L
2903 4086 L
2937 4086 L
2970 4086 L
3003 4086 L
3034 4086 L
3050 4086 L
3070 4086 L
3103 4086 L
3137 4086 L
3170 4086 L
3203 4086 L
3222 4086 L
3239 4086 L
3270 4086 L
3303 4086 L
3337 4086 L
3370 4086 L
3393 4086 L
3410 4086 L
3437 4086 L
3464 4086 L
3481 4086 L
3503 4086 L
3537 4086 L
3565 4086 L
3582 4086 L
3603 4086 L
3637 4086 L
3670 4086 L
3703 4086 L
3737 4086 L
3753 4086 L
3770 4086 L
3803 4086 L
3837 4086 L
3870 4086 L
3903 4086 L
3925 4086 L
3942 4086 L
3970 4086 L
4003 4086 L
4037 4086 L
4070 4086 L
4086 4086 L
LWMC SL dash01 C01 COSGR

GSN 753 3263 M
770 3263 L
803 3283 L
837 3304 L
870 3327 L
903 3353 L
924 3381 L
941 3390 L
970 3411 L
1003 3444 L
1037 3479 L
1070 3517 L
1096 3556 L
1113 3580 L
1137 3597 L
1170 3640 L
1203 3683 L
1237 3727 L
1268 3770 L
1284 3808 L
1303 3813 L
1337 3854 L
1370 3893 L
1403 3929 L
1437 3962 L
1456 3990 L
1473 3995 L
1503 4015 L
1537 4035 L
1570 4051 L
1603 4063 L
1628 4072 L
1644 4075 L
1670 4078 L
1703 4082 L
1737 4084 L
1770 4085 L
1799 4086 L
1816 4086 L
1837 4086 L
1870 4086 L
1903 4086 L
1937 4086 L
1970 4086 L
1987 4086 L
2004 4086 L
2037 4086 L
2070 4086 L
2103 4086 L
2137 4086 L
2159 4086 L
2176 4086 L
2203 4086 L
2237 4086 L
2270 4086 L
2303 4086 L
2331 4086 L
2347 4086 L
2370 4086 L
2403 4086 L
2437 4086 L
2470 4086 L
2503 4086 L
2519 4086 L
2537 4086 L
2570 4086 L
2603 4086 L
2637 4086 L
2670 4086 L
2690 4086 L
2707 4086 L
2737 4086 L
2770 4086 L
2803 4086 L
2837 4086 L
2862 4086 L
2879 4086 L
2903 4086 L
2937 4086 L
2970 4086 L
3003 4086 L
3034 4086 L
3050 4086 L
3070 4086 L
3103 4086 L
3137 4086 L
3170 4086 L
3203 4086 L
3222 4086 L
3239 4086 L
3270 4086 L
3303 4086 L
3337 4086 L
3370 4086 L
3393 4086 L
3410 4086 L
3437 4086 L
3464 4086 L
3481 4086 L
3503 4086 L
3537 4086 L
3565 4086 L
3582 4086 L
3603 4086 L
3637 4086 L
3670 4086 L
3703 4086 L
3737 4086 L
3753 4086 L
3770 4086 L
3803 4086 L
3837 4086 L
3870 4086 L
3903 4086 L
3925 4086 L
3942 4086 L
3970 4086 L
4003 4086 L
4037 4086 L
4070 4086 L
4086 4086 L
LWMC SL dash02 C02 COSGR

GSN 753 2863 M
770 2863 L
803 2896 L
837 2933 L
870 2973 L
903 3016 L
924 3063 L
941 3078 L
970 3114 L
1003 3168 L
1037 3226 L
1070 3286 L
1096 3349 L
1113 3387 L
1137 3413 L
1170 3479 L
1203 3546 L
1237 3611 L
1268 3676 L
1284 3731 L
1303 3738 L
1337 3796 L
1370 3850 L
1403 3898 L
1437 3941 L
1456 3978 L
1473 3984 L
1503 4008 L
1537 4033 L
1570 4051 L
1603 4064 L
1628 4073 L
1644 4077 L
1670 4079 L
1703 4083 L
1737 4085 L
1770 4086 L
1799 4086 L
1816 4086 L
1837 4086 L
1870 4086 L
1903 4086 L
1937 4086 L
1970 4086 L
1987 4086 L
2004 4086 L
2037 4086 L
2070 4086 L
2103 4086 L
2137 4086 L
2159 4086 L
2176 4086 L
2203 4086 L
2237 4086 L
2270 4086 L
2303 4086 L
2331 4086 L
2347 4086 L
2370 4086 L
2403 4086 L
2437 4086 L
2470 4086 L
2503 4086 L
2519 4086 L
2537 4086 L
2570 4086 L
2603 4086 L
2637 4086 L
2670 4086 L
2690 4086 L
2707 4086 L
2737 4086 L
2770 4086 L
2803 4086 L
2837 4086 L
2862 4086 L
2879 4086 L
2903 4086 L
2937 4086 L
2970 4086 L
3003 4086 L
3034 4086 L
3050 4086 L
3070 4086 L
3103 4086 L
3137 4086 L
3170 4086 L
3203 4086 L
3222 4086 L
3239 4086 L
3270 4086 L
3303 4086 L
3337 4086 L
3370 4086 L
3393 4086 L
3410 4086 L
3437 4086 L
3464 4086 L
3481 4086 L
3503 4086 L
3537 4086 L
3565 4086 L
3582 4086 L
3603 4086 L
3637 4086 L
3670 4086 L
3703 4086 L
3737 4086 L
3753 4086 L
3770 4086 L
3803 4086 L
3837 4086 L
3870 4086 L
3903 4086 L
3925 4086 L
3942 4086 L
3970 4086 L
4003 4086 L
4037 4086 L
4070 4086 L
4086 4086 L
LWMC SL dash03 C03 COSGR

GSN 753 2046 M
770 2046 L
803 2116 L
837 2192 L
870 2274 L
903 2363 L
924 2458 L
941 2487 L
970 2558 L
1003 2664 L
1037 2774 L
1070 2887 L
1096 3003 L
1113 3071 L
1137 3119 L
1170 3235 L
1203 3348 L
1237 3457 L
1268 3559 L
1284 3645 L
1303 3655 L
1337 3742 L
1370 3818 L
1403 3884 L
1437 3939 L
1456 3984 L
1473 3991 L
1503 4018 L
1537 4043 L
1570 4061 L
1603 4072 L
1628 4079 L
1644 4081 L
1670 4083 L
1703 4085 L
1737 4086 L
1770 4086 L
1799 4086 L
1816 4086 L
1837 4086 L
1870 4086 L
1903 4086 L
1937 4086 L
1970 4086 L
1987 4086 L
2004 4086 L
2037 4086 L
2070 4086 L
2103 4086 L
2137 4086 L
2159 4086 L
2176 4086 L
2203 4086 L
2237 4086 L
2270 4086 L
2303 4086 L
2331 4086 L
2347 4086 L
2370 4086 L
2403 4086 L
2437 4086 L
2470 4086 L
2503 4086 L
2519 4086 L
2537 4086 L
2570 4086 L
2603 4086 L
2637 4086 L
2670 4086 L
2690 4086 L
2707 4086 L
2737 4086 L
2770 4086 L
2803 4086 L
2837 4086 L
2862 4086 L
2879 4086 L
2903 4086 L
2937 4086 L
2970 4086 L
3003 4086 L
3034 4086 L
3050 4086 L
3070 4086 L
3103 4086 L
3137 4086 L
3170 4086 L
3203 4086 L
3222 4086 L
3239 4086 L
3270 4086 L
3303 4086 L
3337 4086 L
3370 4086 L
3393 4086 L
3410 4086 L
3437 4086 L
3464 4086 L
3481 4086 L
3503 4086 L
3537 4086 L
3565 4086 L
3582 4086 L
3603 4086 L
3637 4086 L
3670 4086 L
3703 4086 L
3737 4086 L
3753 4086 L
3770 4086 L
3803 4086 L
3837 4086 L
3870 4086 L
3903 4086 L
3925 4086 L
3942 4086 L
3970 4086 L
4003 4086 L
4037 4086 L
4070 4086 L
4086 4086 L
LWMC SL dash04 C04 COSGR

GSN 753 1536 M
770 1536 L
803 1635 L
837 1742 L
870 1857 L
903 1980 L
924 2111 L
941 2151 L
970 2248 L
1003 2390 L
1037 2538 L
1070 2687 L
1096 2838 L
1113 2927 L
1137 2988 L
1170 3134 L
1203 3275 L
1237 3408 L
1268 3532 L
1284 3632 L
1303 3644 L
1337 3743 L
1370 3828 L
1403 3899 L
1437 3956 L
1456 4000 L
1473 4006 L
1503 4032 L
1537 4054 L
1570 4069 L
1603 4077 L
1628 4082 L
1644 4083 L
1670 4084 L
1703 4086 L
1737 4086 L
1770 4086 L
1799 4086 L
1816 4086 L
1837 4086 L
1870 4086 L
1903 4086 L
1937 4086 L
1970 4086 L
1987 4086 L
2004 4086 L
2037 4086 L
2070 4086 L
2103 4086 L
2137 4086 L
2159 4086 L
2176 4086 L
2203 4086 L
2237 4086 L
2270 4086 L
2303 4086 L
2331 4086 L
2347 4086 L
2370 4086 L
2403 4086 L
2437 4086 L
2470 4086 L
2503 4086 L
2519 4086 L
2537 4086 L
2570 4086 L
2603 4086 L
2637 4086 L
2670 4086 L
2690 4086 L
2707 4086 L
2737 4086 L
2770 4086 L
2803 4086 L
2837 4086 L
2862 4086 L
2879 4086 L
2903 4086 L
2937 4086 L
2970 4086 L
3003 4086 L
3034 4086 L
3050 4086 L
3070 4086 L
3103 4086 L
3137 4086 L
3170 4086 L
3203 4086 L
3222 4086 L
3239 4086 L
3270 4086 L
3303 4086 L
3337 4086 L
3370 4086 L
3393 4086 L
3410 4086 L
3437 4086 L
3464 4086 L
3481 4086 L
3503 4086 L
3537 4086 L
3565 4086 L
3582 4086 L
3603 4086 L
3637 4086 L
3670 4086 L
3703 4086 L
3737 4086 L
3753 4086 L
3770 4086 L
3803 4086 L
3837 4086 L
3870 4086 L
3903 4086 L
3925 4086 L
3942 4086 L
3970 4086 L
4003 4086 L
4037 4086 L
4070 4086 L
4086 4086 L
LWMC SL dash05 C05 COSGR

GSN 753 1036 M
770 1036 L
803 1167 L
837 1308 L
870 1458 L
903 1618 L
924 1787 L
941 1838 L
970 1963 L
1003 2144 L
1037 2329 L
1070 2516 L
1096 2701 L
1113 2809 L
1137 2883 L
1170 3059 L
1203 3225 L
1237 3380 L
1268 3521 L
1284 3632 L
1303 3646 L
1337 3754 L
1370 3844 L
1403 3917 L
1437 3973 L
1456 4014 L
1473 4021 L
1503 4044 L
1537 4063 L
1570 4074 L
1603 4081 L
1628 4084 L
1644 4085 L
1670 4085 L
1703 4086 L
1737 4086 L
1770 4086 L
1799 4086 L
1816 4086 L
1837 4086 L
1870 4086 L
1903 4086 L
1937 4086 L
1970 4086 L
1987 4086 L
2004 4086 L
2037 4086 L
2070 4086 L
2103 4086 L
2137 4086 L
2159 4086 L
2176 4086 L
2203 4086 L
2237 4086 L
2270 4086 L
2303 4086 L
2331 4086 L
2347 4086 L
2370 4086 L
2403 4086 L
2437 4086 L
2470 4086 L
2503 4086 L
2519 4086 L
2537 4086 L
2570 4086 L
2603 4086 L
2637 4086 L
2670 4086 L
2690 4086 L
2707 4086 L
2737 4086 L
2770 4086 L
2803 4086 L
2837 4086 L
2862 4086 L
2879 4086 L
2903 4086 L
2937 4086 L
2970 4086 L
3003 4086 L
3034 4086 L
3050 4086 L
3070 4086 L
3103 4086 L
3137 4086 L
3170 4086 L
3203 4086 L
3222 4086 L
3239 4086 L
3270 4086 L
3303 4086 L
3337 4086 L
3370 4086 L
3393 4086 L
3410 4086 L
3437 4086 L
3464 4086 L
3481 4086 L
3503 4086 L
3537 4086 L
3565 4086 L
3582 4086 L
3603 4086 L
3637 4086 L
3670 4086 L
3703 4086 L
3737 4086 L
3753 4086 L
3770 4086 L
3803 4086 L
3837 4086 L
3870 4086 L
3903 4086 L
3925 4086 L
3942 4086 L
3970 4086 L
4003 4086 L
4037 4086 L
4070 4086 L
4086 4086 L
LWMC SL dash06 C06 COSGR

GSN 753 753 M
770 753 L
803 906 L
837 1070 L
870 1245 L
903 1430 L
924 1623 L
941 1682 L
970 1824 L
1003 2030 L
1037 2239 L
1070 2449 L
1096 2655 L
1113 2775 L
1137 2856 L
1170 3048 L
1203 3227 L
1237 3392 L
1268 3540 L
1284 3655 L
1303 3669 L
1337 3778 L
1370 3867 L
1403 3938 L
1437 3990 L
1456 4028 L
1473 4033 L
1503 4053 L
1537 4069 L
1570 4078 L
1603 4083 L
1628 4085 L
1644 4085 L
1670 4086 L
1703 4086 L
1737 4086 L
1770 4086 L
1799 4086 L
1816 4086 L
1837 4086 L
1870 4086 L
1903 4086 L
1937 4086 L
1970 4086 L
1987 4086 L
2004 4086 L
2037 4086 L
2070 4086 L
2103 4086 L
2137 4086 L
2159 4086 L
2176 4086 L
2203 4086 L
2237 4086 L
2270 4086 L
2303 4086 L
2331 4086 L
2347 4086 L
2370 4086 L
2403 4086 L
2437 4086 L
2470 4086 L
2503 4086 L
2519 4086 L
2537 4086 L
2570 4086 L
2603 4086 L
2637 4086 L
2670 4086 L
2690 4086 L
2707 4086 L
2737 4086 L
2770 4086 L
2803 4086 L
2837 4086 L
2862 4086 L
2879 4086 L
2903 4086 L
2937 4086 L
2970 4086 L
3003 4086 L
3034 4086 L
3050 4086 L
3070 4086 L
3103 4086 L
3137 4086 L
3170 4086 L
3203 4086 L
3222 4086 L
3239 4086 L
3270 4086 L
3303 4086 L
3337 4086 L
3370 4086 L
3393 4086 L
3410 4086 L
3437 4086 L
3464 4086 L
3481 4086 L
3503 4086 L
3537 4086 L
3565 4086 L
3582 4086 L
3603 4086 L
3637 4086 L
3670 4086 L
3703 4086 L
3737 4086 L
3753 4086 L
3770 4086 L
3803 4086 L
3837 4086 L
3870 4086 L
3903 4086 L
3925 4086 L
3942 4086 L
3970 4086 L
4003 4086 L
4037 4086 L
4070 4086 L
4086 4086 L
LWMC SL dash07 C07 COSGR

%
%================
% Legend - Begin
%================
%
GSN 4240 4040 M
4480 4040 L
LWMC SL dash01 C01 COSGR
GSN 4540 4001 M helvM (0.5 uM) show grestore
GSN 4240 3860 M
4480 3860 L
LWMC SL dash02 C02 COSGR
GSN 4540 3821 M helvM (1.0 uM) show grestore
GSN 4240 3680 M
4480 3680 L
LWMC SL dash03 C03 COSGR
GSN 4540 3641 M helvM (1.5 uM) show grestore
GSN 4240 3500 M
4480 3500 L
LWMC SL dash04 C04 COSGR
GSN 4540 3461 M helvM (2.0 uM) show grestore
GSN 4240 3320 M
4480 3320 L
LWMC SL dash05 C05 COSGR
GSN 4540 3281 M helvM (2.5 uM) show grestore
GSN 4240 3140 M
4480 3140 L
LWMC SL dash06 C06 COSGR
GSN 4540 3101 M helvM (3.0 uM) show grestore
GSN 4240 2960 M
4480 2960 L
LWMC SL dash07 C07 COSGR
GSN 4540 2921 M helvM (4.0 uM) show grestore
%
%================
% Legend - End
%================
%

%
% Main frame
%
L10
GSN 
620 620 M
4220 620 L
4220 4220 L
620 4220 L
closepath SGR

%
% X axis: large tics
%
L10
GSN 1130 620 M 0  54 rL SGR
GSN 1130 4220 M 0 -54 rL SGR
helvS (0.0001) 1130 470 xlabel
GSN 1716 620 M 0  54 rL SGR
GSN 1716 4220 M 0 -54 rL SGR
helvS (0.001) 1716 470 xlabel
GSN 2303 620 M 0  54 rL SGR
GSN 2303 4220 M 0 -54 rL SGR
helvS (0.01) 2303 470 xlabel
GSN 2889 620 M 0  54 rL SGR
GSN 2889 4220 M 0 -54 rL SGR
helvS (0.1) 2889 470 xlabel
GSN 3476 620 M 0  54 rL SGR
GSN 3476 4220 M 0 -54 rL SGR
helvS (1) 3476 470 xlabel
GSN 4062 620 M 0  54 rL SGR
GSN 4062 4220 M 0 -54 rL SGR
helvS (10) 4062 470 xlabel
%
% X axis: small tics
%
L5
GSN 720 620 M 0  36 rL SGR
GSN 720 4220 M 0 -36 rL SGR
GSN 824 620 M 0  36 rL SGR
GSN 824 4220 M 0 -36 rL SGR
GSN 897 620 M 0  36 rL SGR
GSN 897 4220 M 0 -36 rL SGR
GSN 954 620 M 0  36 rL SGR
GSN 954 4220 M 0 -36 rL SGR
GSN 1000 620 M 0  36 rL SGR
GSN 1000 4220 M 0 -36 rL SGR
GSN 1039 620 M 0  36 rL SGR
GSN 1039 4220 M 0 -36 rL SGR
GSN 1073 620 M 0  36 rL SGR
GSN 1073 4220 M 0 -36 rL SGR
GSN 1103 620 M 0  36 rL SGR
GSN 1103 4220 M 0 -36 rL SGR
GSN 1307 620 M 0  36 rL SGR
GSN 1307 4220 M 0 -36 rL SGR
GSN 1410 620 M 0  36 rL SGR
GSN 1410 4220 M 0 -36 rL SGR
GSN 1483 620 M 0  36 rL SGR
GSN 1483 4220 M 0 -36 rL SGR
GSN 1540 620 M 0  36 rL SGR
GSN 1540 4220 M 0 -36 rL SGR
GSN 1586 620 M 0  36 rL SGR
GSN 1586 4220 M 0 -36 rL SGR
GSN 1626 620 M 0  36 rL SGR
GSN 1626 4220 M 0 -36 rL SGR
GSN 1660 620 M 0  36 rL SGR
GSN 1660 4220 M 0 -36 rL SGR
GSN 1690 620 M 0  36 rL SGR
GSN 1690 4220 M 0 -36 rL SGR
GSN 1893 620 M 0  36 rL SGR
GSN 1893 4220 M 0 -36 rL SGR
GSN 1996 620 M 0  36 rL SGR
GSN 1996 4220 M 0 -36 rL SGR
GSN 2069 620 M 0  36 rL SGR
GSN 2069 4220 M 0 -36 rL SGR
GSN 2126 620 M 0  36 rL SGR
GSN 2126 4220 M 0 -36 rL SGR
GSN 2173 620 M 0  36 rL SGR
GSN 2173 4220 M 0 -36 rL SGR
GSN 2212 620 M 0  36 rL SGR
GSN 2212 4220 M 0 -36 rL SGR
GSN 2246 620 M 0  36 rL SGR
GSN 2246 4220 M 0 -36 rL SGR
GSN 2276 620 M 0  36 rL SGR
GSN 2276 4220 M 0 -36 rL SGR
GSN 2479 620 M 0  36 rL SGR
GSN 2479 4220 M 0 -36 rL SGR
GSN 2583 620 M 0  36 rL SGR
GSN 2583 4220 M 0 -36 rL SGR
GSN 2656 620 M 0  36 rL SGR
GSN 2656 4220 M 0 -36 rL SGR
GSN 2713 620 M 0  36 rL SGR
GSN 2713 4220 M 0 -36 rL SGR
GSN 2759 620 M 0  36 rL SGR
GSN 2759 4220 M 0 -36 rL SGR
GSN 2798 620 M 0  36 rL SGR
GSN 2798 4220 M 0 -36 rL SGR
GSN 2832 620 M 0  36 rL SGR
GSN 2832 4220 M 0 -36 rL SGR
GSN 2862 620 M 0  36 rL SGR
GSN 2862 4220 M 0 -36 rL SGR
GSN 3066 620 M 0  36 rL SGR
GSN 3066 4220 M 0 -36 rL SGR
GSN 3169 620 M 0  36 rL SGR
GSN 3169 4220 M 0 -36 rL SGR
GSN 3242 620 M 0  36 rL SGR
GSN 3242 4220 M 0 -36 rL SGR
GSN 3299 620 M 0  36 rL SGR
GSN 3299 4220 M 0 -36 rL SGR
GSN 3345 620 M 0  36 rL SGR
GSN 3345 4220 M 0 -36 rL SGR
GSN 3385 620 M 0  36 rL SGR
GSN 3385 4220 M 0 -36 rL SGR
GSN 3419 620 M 0  36 rL SGR
GSN 3419 4220 M 0 -36 rL SGR
GSN 3449 620 M 0  36 rL SGR
GSN 3449 4220 M 0 -36 rL SGR
GSN 3652 620 M 0  36 rL SGR
GSN 3652 4220 M 0 -36 rL SGR
GSN 3755 620 M 0  36 rL SGR
GSN 3755 4220 M 0 -36 rL SGR
GSN 3829 620 M 0  36 rL SGR
GSN 3829 4220 M 0 -36 rL SGR
GSN 3885 620 M 0  36 rL SGR
GSN 3885 4220 M 0 -36 rL SGR
GSN 3932 620 M 0  36 rL SGR
GSN 3932 4220 M 0 -36 rL SGR
GSN 3971 620 M 0  36 rL SGR
GSN 3971 4220 M 0 -36 rL SGR
GSN 4005 620 M 0  36 rL SGR
GSN 4005 4220 M 0 -36 rL SGR
GSN 4035 620 M 0  36 rL SGR
GSN 4035 4220 M 0 -36 rL SGR
%
% Y axis: large tics
%
L10
GSN 620 1168 M 54 0 rL SGR
GSN 4220 1168 M -54 0 rL SGR
helvS (-800) 560 1168 ylabel
GSN 620 1898 M 54 0 rL SGR
GSN 4220 1898 M -54 0 rL SGR
helvS (-600) 560 1898 ylabel
GSN 620 2627 M 54 0 rL SGR
GSN 4220 2627 M -54 0 rL SGR
helvS (-400) 560 2627 ylabel
GSN 620 3357 M 54 0 rL SGR
GSN 4220 3357 M -54 0 rL SGR
helvS (-200) 560 3357 ylabel
GSN 620 4086 M 54 0 rL SGR
GSN 4220 4086 M -54 0 rL SGR
helvS (0) 560 4086 ylabel
%
% Y axis: small tics
%
L5
GSN 620 621 M 36 0 rL SGR
GSN 4220 621 M -36 0 rL SGR
GSN 620 803 M 36 0 rL SGR
GSN 4220 803 M -36 0 rL SGR
GSN 620 986 M 36 0 rL SGR
GSN 4220 986 M -36 0 rL SGR
GSN 620 1168 M 36 0 rL SGR
GSN 4220 1168 M -36 0 rL SGR
GSN 620 1350 M 36 0 rL SGR
GSN 4220 1350 M -36 0 rL SGR
GSN 620 1533 M 36 0 rL SGR
GSN 4220 1533 M -36 0 rL SGR
GSN 620 1715 M 36 0 rL SGR
GSN 4220 1715 M -36 0 rL SGR
GSN 620 1898 M 36 0 rL SGR
GSN 4220 1898 M -36 0 rL SGR
GSN 620 2080 M 36 0 rL SGR
GSN 4220 2080 M -36 0 rL SGR
GSN 620 2262 M 36 0 rL SGR
GSN 4220 2262 M -36 0 rL SGR
GSN 620 2445 M 36 0 rL SGR
GSN 4220 2445 M -36 0 rL SGR
GSN 620 2627 M 36 0 rL SGR
GSN 4220 2627 M -36 0 rL SGR
GSN 620 2810 M 36 0 rL SGR
GSN 4220 2810 M -36 0 rL SGR
GSN 620 2992 M 36 0 rL SGR
GSN 4220 2992 M -36 0 rL SGR
GSN 620 3174 M 36 0 rL SGR
GSN 4220 3174 M -36 0 rL SGR
GSN 620 3357 M 36 0 rL SGR
GSN 4220 3357 M -36 0 rL SGR
GSN 620 3539 M 36 0 rL SGR
GSN 4220 3539 M -36 0 rL SGR
GSN 620 3721 M 36 0 rL SGR
GSN 4220 3721 M -36 0 rL SGR
GSN 620 3904 M 36 0 rL SGR
GSN 4220 3904 M -36 0 rL SGR
GSN 620 4086 M 36 0 rL SGR
GSN 4220 4086 M -36 0 rL SGR

%
% X axis
%
GSN L5 620 4086 M 4220 4086 L SDA G50 SGR

%
% X-Axis label:
%
gsave 2420 290 M 
[
[(Helvetica) 180 0 true true 0 (t)]
[(Helvetica) 180 0 true true 0 (i)]
[(Helvetica) 180 0 true true 0 (m)]
[(Helvetica) 180 0 true true 0 (e)]
] 0 MCshow grestore

%
% Y-Axis label:
%
gsave 234 2420 M 
currentpoint gsave translate 90 rotate 0 0 moveto
[
[(Helvetica) 180 0 true true 0 (d)]
[(Helvetica) 180 0 true true 0 (\()]
[(Helvetica) 180 0 true true 0 (s)]
[(Helvetica) 180 0 true true 0 (i)]
[(Helvetica) 180 0 true true 0 (g)]
[(Helvetica) 180 0 true true 0 (n)]
[(Helvetica) 180 0 true true 0 (a)]
[(Helvetica) 180 0 true true 0 (l)]
[(Helvetica) 180 0 true true 0 (\))]
[(Helvetica) 180 0 true true 0 ( )]
[(Helvetica) 180 0 true true 0 (/)]
[(Helvetica) 180 0 true true 0 ( )]
[(Helvetica) 180 0 true true 0 (d)]
[(Helvetica) 180 0 true true 0 (t)]
] 0 MCshow grestore

end
showpage
%%Trailer
%%EOF
