%!PS-Adobe-3.0 EPSF-3.0
%%BoundingBox: 0 0 514 550
%%Creator: BioKin Ltd.
%%DocumentFonts: Symbol Helvetica
%%EndComments
%
/bkdict 256 dict def
bkdict begin
/M {moveto} def 
/R {rmoveto} def
/L {lineto} def
/rL {rlineto} def
/GSN {gsave newpath} def
/SGR {stroke grestore} def
/COSGR {gsave setrgbcolor stroke grestore grestore} def
/SL {setlinewidth} def
/LWMB {12} def             % line width - model curves, black & white
/LWMC {10} def             % line width - model curves, color
/L2 {2.5 setlinewidth} def
/L5 {5 setlinewidth} def
/L10 {10 setlinewidth} def
/G50 {0.5 setgray} def
/SDA {[10  20] 0 setdash} def % axes
/helvT {/Helvetica findfont 100 scalefont setfont} def % tiny
/helvS {/Helvetica findfont 125 scalefont setfont} def % small
/helvM {/Helvetica findfont 150 scalefont setfont} def % medium
/helvL {/Helvetica findfont 175 scalefont setfont} def % large
/xlabel {gsave M dup
   stringwidth exch -0.5 mul exch rmoveto show grestore} def 
/ylabel {gsave M 90 rotate dup
   stringwidth exch -0.5 mul exch rmoveto show grestore} def
/ylabelresid {gsave M dup
   stringwidth exch -1 mul exch rmoveto show grestore} def
% ======
% Shapes
% ======
% Circle:
/Circ {0 360 arc closepath} def
%
% Square:
/Squa {dup dup -0.5 mul dup dup R -2 mul 0 exch rL 1 mul 0 rL dup 0 exch -1 mul rL closepath} def
%
% Triangle Up:
/TriU {dup dup dup -0.4 mul exch -0.5 mul exch R dup 0.5 mul exch rL dup -1 mul exch 0.5 mul exch rL closepath} def 
%
% Triangle Down:
/TriD {dup dup dup 0.4 mul exch -0.5 mul exch R dup 0.5 mul exch -1 mul rL dup 0.5 mul exch rL closepath} def 
%
% Diamond:
/Diam {45 rotate Squa} def
% ======
% Fills
% ======
/GRF {gsave setgray fill grestore} def                    % gray-level Fill
/COF {gsave setrgbcolor fill grestore} def                % color fill
% ======
% Colors
% ======
/C01 {1.00	0.00	0.00} def      % Red
/C02 {0.00	0.00	1.00} def      % Blue
/C03 {0.00	0.39	0.00} def      % Dark Green
/C04 {0.78	0.08	0.52} def      % Medium Violet Red
/C05 {0.55	0.27	0.07} def      % Saddle Brown
/C06 {0.10	0.70	0.70} def      % (cyan)
/C07 {1.00	0.55	0.00} def      % Dark Orange
/C08 {0.63	0.13	0.94} def      % Purple
/C09 {0.00	0.75	1.00} def      % Deep Sky Blue
/C10 {0.20	0.80	0.20} def      % Lime Green
/C11 {0.47	0.53	0.60} def      % Light Slate Gray
/C12 {0.00	0.00	0.00} def      % Black            % or: {0.19	0.31	0.31} def      % Dark Slate Gray
%
/LGR {0.75} def % light gray
/DGR {0.33} def % dark gray
%
% =============
% Dash patterns
% =============
/dash01 { [80  20] 0 setdash } def
/dash02 { [40  20] 0 setdash } def
/dash03 { [80  20  10  20] 0 setdash } def
/dash04 { [40  20  10  20] 0 setdash } def
/dash05 { [80  20  10  10  10  20] 0 setdash } def
/dash06 { [40  20  10  10  10  20] 0 setdash } def
/dash07 { [10  10] 0 setdash } def
%
/MFshow {
   { dup 5 get 3 ge
     { 5 get 3 eq {gsave} {grestore} ifelse }
     {dup dup 0 get findfont exch 1 get scalefont setfont
     [ currentpoint ] exch dup 2 get 0 exch R dup 5 get 2 ne {dup dup 6
     get exch 4 get {show} {stringwidth pop 0 R} ifelse }if dup 5 get 0 eq
     {dup 3 get {2 get neg 0 exch R pop} {pop aload pop M} ifelse} {dup 5
     get 1 eq {dup 2 get exch dup 3 get exch 6 get stringwidth pop -2 div
     dup 0 R} {dup 6 get stringwidth pop -2 div 0 R 6 get
     show 2 index {aload pop M neg 3 -1 roll neg R pop pop} {pop pop pop
     pop aload pop M} ifelse }ifelse }ifelse }
     ifelse }
   forall} bind def
/MFwidth {0 exch {dup 3 get{dup dup 0 get findfont exch 1 get scalefont
     setfont 6 get stringwidth pop add} {pop} ifelse} forall} bind def
/MCshow { currentpoint stroke M
  exch dup MFwidth -2 div 3 -1 roll R MFshow } def
%
end
%%EndProlog
bkdict begin
0.1 0.1 scale
%
% Residuals:
%
GSN 620 2136 M
620 2960 L
620 3446 L
620 4065 L
620 4162 L
620 4586 L
620 4491 L
620 4627 L
620 4734 L
620 4650 L
620 4709 L
620 4772 L
620 4596 L
620 4646 L
620 4695 L
620 4712 L
620 4863 L
620 4711 L
620 4773 L
620 4709 L
620 4718 L
620 4700 L
620 4723 L
620 4541 L
620 4670 L
620 4725 L
620 4455 L
620 4618 L
620 4417 L
620 4553 L
620 4451 L
620 4400 L
620 4447 L
620 4491 L
620 4445 L
620 4371 L
620 4460 L
620 4595 L
620 4278 L
620 4390 L
620 4389 L
620 4364 L
620 4342 L
620 4122 L
620 4405 L
620 4391 L
620 4173 L
620 4253 L
620 4068 L
620 4148 L
620 4181 L
620 4282 L
620 4309 L
620 4127 L
620 4068 L
620 4251 L
620 3974 L
620 4070 L
620 4070 L
620 3903 L
620 3898 L
620 4015 L
620 4066 L
620 4008 L
620 3920 L
620 3891 L
620 3780 L
620 3925 L
620 3896 L
620 3847 L
620 3932 L
620 4021 L
620 3859 L
620 3831 L
620 3852 L
620 3926 L
620 3789 L
620 3722 L
620 3992 L
620 3716 L
620 3936 L
620 3489 L
620 3808 L
620 3548 L
620 3517 L
620 3591 L
620 3458 L
620 3424 L
620 3523 L
620 3495 L
620 3426 L
620 3394 L
620 3283 L
620 3324 L
620 3345 L
620 3531 L
620 3287 L
620 3332 L
620 3356 L
620 3330 L
620 3037 L
620 3146 L
620 3266 L
620 3241 L
620 3235 L
620 3108 L
620 3206 L
620 3327 L
620 3177 L
620 3183 L
620 3117 L
620 3038 L
620 3259 L
620 3148 L
620 3110 L
620 3142 L
620 3202 L
620 3005 L
620 3090 L
620 3196 L
620 3091 L
620 3115 L
620 3075 L
620 3108 L
620 3095 L
620 3111 L
620 3133 L
620 3134 L
620 3179 L
620 3000 L
620 3131 L
620 3236 L
620 3114 L
620 3143 L
620 3123 L
620 3185 L
620 3128 L
620 3101 L
620 3086 L
620 3124 L
620 3166 L
620 3161 L
620 3145 L
620 3187 L
620 3182 L
620 3264 L
620 3301 L
620 2937 L
620 3013 L
620 3120 L
620 3297 L
620 3247 L
620 3123 L
620 3205 L
620 3209 L
620 3197 L
620 3172 L
620 3267 L
620 3154 L
620 3207 L
620 3094 L
620 3202 L
620 3307 L
620 3138 L
620 3278 L
620 3223 L
620 3214 L
620 3202 L
620 3372 L
620 3219 L
620 3362 L
620 3297 L
620 3316 L
620 3376 L
620 3232 L
620 3232 L
620 3362 L
620 3328 L
620 3239 L
620 3268 L
620 3278 L
620 3347 L
620 3449 L
620 3313 L
620 3392 L
620 3294 L
620 3411 L
620 3411 L
620 3259 L
620 3328 L
620 3352 L
620 3434 L
620 3238 L
620 3322 L
620 3397 L
620 3389 L
620 3276 L
620 3320 L
620 3301 L
620 3414 L
620 3355 L
620 3425 L
620 3231 L
620 3554 L
620 3368 L
620 3383 L
620 3425 L
620 3356 L
620 3416 L
620 3474 L
620 3398 L
620 3380 L
620 3463 L
620 3284 L
620 3387 L
620 3458 L
620 3541 L
620 3500 L
620 3476 L
620 3474 L
620 3478 L
620 3459 L
620 3587 L
620 3559 L
620 3569 L
620 3349 L
620 3473 L
620 3665 L
620 3548 L
620 3566 L
620 3483 L
620 3566 L
620 3535 L
620 3432 L
620 3562 L
620 3491 L
620 3690 L
620 3679 L
620 3458 L
620 3640 L
620 3521 L
620 3577 L
620 3524 L
620 3671 L
620 3521 L
620 3457 L
620 3407 L
620 3656 L
620 3482 L
620 3485 L
620 3468 L
620 3482 L
620 3552 L
620 3625 L
620 3658 L
620 3535 L
620 3540 L
620 3547 L
620 3640 L
620 3464 L
620 3492 L
620 3781 L
620 3658 L
620 3655 L
620 3704 L
620 3643 L
620 3635 L
620 3587 L
620 3492 L
620 3631 L
620 3730 L
620 3574 L
620 3388 L
620 3654 L
620 3603 L
620 3622 L
620 3718 L
620 3556 L
620 3662 L
620 3669 L
620 3764 L
620 3774 L
620 3787 L
620 3804 L
620 3922 L
620 3689 L
620 3859 L
620 4019 L
620 3890 L
620 3948 L
620 3787 L
620 3933 L
620 3941 L
620 3929 L
620 3957 L
620 3950 L
620 3752 L
620 3980 L
620 3931 L
620 3892 L
620 3914 L
620 3995 L
620 3907 L
620 3867 L
620 4045 L
620 3771 L
620 4055 L
620 3929 L
620 3930 L
620 3886 L
620 3900 L
620 3964 L
620 3876 L
620 3857 L
620 3868 L
620 3951 L
620 3920 L
620 3838 L
620 3899 L
620 3894 L
620 3797 L
620 3832 L
620 3896 L
620 3963 L
620 3900 L
620 3901 L
620 3823 L
620 3842 L
620 3809 L
620 3889 L
620 3981 L
620 3849 L
620 4034 L
620 4017 L
620 3846 L
620 3959 L
620 3917 L
620 3828 L
620 3890 L
620 4176 L
620 3890 L
620 3969 L
620 3810 L
620 3773 L
620 3851 L
620 3811 L
620 3885 L
620 3969 L
620 3827 L
620 3899 L
620 3797 L
620 3768 L
620 3777 L
620 3650 L
620 3980 L
620 3722 L
620 3846 L
620 3800 L
620 3918 L
620 3827 L
620 3811 L
620 3878 L
620 3920 L
620 3856 L
620 3681 L
620 3868 L
620 3863 L
620 3751 L
620 3694 L
620 3792 L
620 3700 L
620 3954 L
620 3803 L
620 3812 L
620 3728 L
620 3823 L
620 3688 L
620 3840 L
620 3847 L
620 3656 L
620 3540 L
620 3791 L
620 3880 L
620 3701 L
620 3643 L
620 3734 L
620 3688 L
620 3771 L
620 3598 L
620 3770 L
620 3792 L
620 3803 L
620 3696 L
620 3733 L
620 3852 L
620 3618 L
620 3574 L
620 3822 L
620 3605 L
620 3739 L
620 3504 L
620 3664 L
620 3567 L
620 3730 L
620 3917 L
620 3685 L
620 3619 L
620 3722 L
620 3448 L
620 3642 L
620 3710 L
620 3763 L
620 3591 L
620 3779 L
620 3598 L
620 3716 L
620 3704 L
620 3722 L
620 3787 L
620 3541 L
620 3742 L
620 3563 L
620 3631 L
620 3658 L
620 3747 L
620 3667 L
620 3613 L
620 3730 L
620 3571 L
620 3635 L
620 3669 L
620 3722 L
620 3672 L
620 3804 L
620 3680 L
620 3848 L
620 3617 L
620 3771 L
620 3713 L
620 3694 L
620 3689 L
620 3697 L
620 3682 L
620 3617 L
620 3631 L
620 3908 L
620 3682 L
620 3587 L
620 3720 L
620 3676 L
620 3859 L
620 3627 L
620 3826 L
620 3835 L
620 3633 L
620 3785 L
620 3669 L
620 3752 L
620 3766 L
620 3800 L
620 3518 L
620 3821 L
620 3569 L
620 3663 L
620 3646 L
620 3754 L
620 3765 L
620 3458 L
620 3598 L
620 3604 L
620 3713 L
620 3818 L
620 3608 L
620 3642 L
620 3402 L
620 3721 L
620 3603 L
620 3739 L
620 3411 L
620 3655 L
620 3814 L
620 3521 L
620 3546 L
620 3586 L
620 3559 L
620 3655 L
620 3676 L
620 3711 L
620 3686 L
620 3640 L
620 3643 L
620 3535 L
620 3711 L
620 3704 L
620 3389 L
620 3670 L
620 3592 L
620 3692 L
620 3623 L
620 3661 L
620 3757 L
620 3675 L
620 3568 L
620 3514 L
620 3663 L
620 3690 L
620 3533 L
620 3513 L
620 3679 L
620 3725 L
620 3543 L
620 3710 L
620 3649 L
620 3519 L
620 3665 L
620 3671 L
620 3945 L
620 3627 L
620 3617 L
620 3735 L
620 3590 L
620 3679 L
620 3772 L
620 3694 L
620 3693 L
620 3576 L
620 3677 L
620 3716 L
620 3676 L
620 3597 L
620 3581 L
620 3646 L
620 3613 L
L2 C04 COSGR

%
%================
% Legend - Begin
%================
%
GSN 4240 5180 M
4480 5180 L
LWMC SL  C04 COSGR
GSN 4540 5141 M helvM (2.0 uM) show grestore
%
%================
% Legend - End
%================
%

%
% Main frame
%
L10
GSN 
620 1700 M
4220 1700 L
4220 5300 L
620 5300 L
closepath SGR

%
% X axis: large tics
%
L10
%
% X axis: small tics
%
L5
%
% Y axis: large tics
%
L10
GSN 620 1977 M 54 0 rL SGR
GSN 4220 1977 M -54 0 rL SGR
helvS (-0.05) 560 1977 ylabel
GSN 620 2829 M 54 0 rL SGR
GSN 4220 2829 M -54 0 rL SGR
helvS (-0.025) 560 2829 ylabel
GSN 620 3680 M 54 0 rL SGR
GSN 4220 3680 M -54 0 rL SGR
helvS (0) 560 3680 ylabel
GSN 620 4532 M 54 0 rL SGR
GSN 4220 4532 M -54 0 rL SGR
helvS (0.025) 560 4532 ylabel
%
% Y axis: small tics
%
L5
GSN 620 1552 M 36 0 rL SGR
GSN 4220 1552 M -36 0 rL SGR
GSN 620 1977 M 36 0 rL SGR
GSN 4220 1977 M -36 0 rL SGR
GSN 620 2403 M 36 0 rL SGR
GSN 4220 2403 M -36 0 rL SGR
GSN 620 2829 M 36 0 rL SGR
GSN 4220 2829 M -36 0 rL SGR
GSN 620 3254 M 36 0 rL SGR
GSN 4220 3254 M -36 0 rL SGR
GSN 620 3680 M 36 0 rL SGR
GSN 4220 3680 M -36 0 rL SGR
GSN 620 4106 M 36 0 rL SGR
GSN 4220 4106 M -36 0 rL SGR
GSN 620 4532 M 36 0 rL SGR
GSN 4220 4532 M -36 0 rL SGR
GSN 620 4958 M 36 0 rL SGR
GSN 4220 4958 M -36 0 rL SGR

%
% X axis - residual panel
%
GSN L5 620 3680 M 4220 3680 L SDA G50 SGR

%
% X-Axis label:
%
gsave 620 1370 M 
[
[(Helvetica) 180 0 true true 0 (t)]
[(Helvetica) 180 0 true true 0 (i)]
[(Helvetica) 180 0 true true 0 (m)]
[(Helvetica) 180 0 true true 0 (e)]
] 0 MCshow grestore

%
% Y-Axis label:
%
gsave 234 3500 M 
currentpoint gsave translate 90 rotate 0 0 moveto
[
[(Helvetica) 180 0 true true 0 (r)]
[(Helvetica) 180 0 true true 0 (e)]
[(Helvetica) 180 0 true true 0 (s)]
[(Helvetica) 180 0 true true 0 (i)]
[(Helvetica) 180 0 true true 0 (d)]
[(Helvetica) 180 0 true true 0 (u)]
[(Helvetica) 180 0 true true 0 (a)]
[(Helvetica) 180 0 true true 0 (l)]
[(Helvetica) 180 0 true true 0 (s)]
] 0 MCshow grestore

end
showpage
%%Trailer
%%EOF
