%!PS-Adobe-3.0 EPSF-3.0
%%BoundingBox: 0 0 514 550
%%Creator: BioKin Ltd.
%%DocumentFonts: Symbol Helvetica
%%EndComments
%
/bkdict 256 dict def
bkdict begin
/M {moveto} def 
/R {rmoveto} def
/L {lineto} def
/rL {rlineto} def
/GSN {gsave newpath} def
/SGR {stroke grestore} def
/COSGR {gsave setrgbcolor stroke grestore grestore} def
/SL {setlinewidth} def
/LWMB {12} def             % line width - model curves, black & white
/LWMC {10} def             % line width - model curves, color
/L2 {2.5 setlinewidth} def
/L5 {5 setlinewidth} def
/L10 {10 setlinewidth} def
/G50 {0.5 setgray} def
/SDA {[10  20] 0 setdash} def % axes
/helvT {/Helvetica findfont 100 scalefont setfont} def % tiny
/helvS {/Helvetica findfont 125 scalefont setfont} def % small
/helvM {/Helvetica findfont 150 scalefont setfont} def % medium
/helvL {/Helvetica findfont 175 scalefont setfont} def % large
/xlabel {gsave M dup
   stringwidth exch -0.5 mul exch rmoveto show grestore} def 
/ylabel {gsave M 90 rotate dup
   stringwidth exch -0.5 mul exch rmoveto show grestore} def
/ylabelresid {gsave M dup
   stringwidth exch -1 mul exch rmoveto show grestore} def
% ======
% Shapes
% ======
% Circle:
/Circ {0 360 arc closepath} def
%
% Square:
/Squa {dup dup -0.5 mul dup dup R -2 mul 0 exch rL 1 mul 0 rL dup 0 exch -1 mul rL closepath} def
%
% Triangle Up:
/TriU {dup dup dup -0.4 mul exch -0.5 mul exch R dup 0.5 mul exch rL dup -1 mul exch 0.5 mul exch rL closepath} def 
%
% Triangle Down:
/TriD {dup dup dup 0.4 mul exch -0.5 mul exch R dup 0.5 mul exch -1 mul rL dup 0.5 mul exch rL closepath} def 
%
% Diamond:
/Diam {45 rotate Squa} def
% ======
% Fills
% ======
/GRF {gsave setgray fill grestore} def                    % gray-level Fill
/COF {gsave setrgbcolor fill grestore} def                % color fill
% ======
% Colors
% ======
/C01 {1.00	0.00	0.00} def      % Red
/C02 {0.00	0.00	1.00} def      % Blue
/C03 {0.00	0.39	0.00} def      % Dark Green
/C04 {0.78	0.08	0.52} def      % Medium Violet Red
/C05 {0.55	0.27	0.07} def      % Saddle Brown
/C06 {0.10	0.70	0.70} def      % (cyan)
/C07 {1.00	0.55	0.00} def      % Dark Orange
/C08 {0.63	0.13	0.94} def      % Purple
/C09 {0.00	0.75	1.00} def      % Deep Sky Blue
/C10 {0.20	0.80	0.20} def      % Lime Green
/C11 {0.47	0.53	0.60} def      % Light Slate Gray
/C12 {0.00	0.00	0.00} def      % Black            % or: {0.19	0.31	0.31} def      % Dark Slate Gray
%
/LGR {0.75} def % light gray
/DGR {0.33} def % dark gray
%
% =============
% Dash patterns
% =============
/dash01 { [80  20] 0 setdash } def
/dash02 { [40  20] 0 setdash } def
/dash03 { [80  20  10  20] 0 setdash } def
/dash04 { [40  20  10  20] 0 setdash } def
/dash05 { [80  20  10  10  10  20] 0 setdash } def
/dash06 { [40  20  10  10  10  20] 0 setdash } def
/dash07 { [10  10] 0 setdash } def
%
/MFshow {
   { dup 5 get 3 ge
     { 5 get 3 eq {gsave} {grestore} ifelse }
     {dup dup 0 get findfont exch 1 get scalefont setfont
     [ currentpoint ] exch dup 2 get 0 exch R dup 5 get 2 ne {dup dup 6
     get exch 4 get {show} {stringwidth pop 0 R} ifelse }if dup 5 get 0 eq
     {dup 3 get {2 get neg 0 exch R pop} {pop aload pop M} ifelse} {dup 5
     get 1 eq {dup 2 get exch dup 3 get exch 6 get stringwidth pop -2 div
     dup 0 R} {dup 6 get stringwidth pop -2 div 0 R 6 get
     show 2 index {aload pop M neg 3 -1 roll neg R pop pop} {pop pop pop
     pop aload pop M} ifelse }ifelse }ifelse }
     ifelse }
   forall} bind def
/MFwidth {0 exch {dup 3 get{dup dup 0 get findfont exch 1 get scalefont
     setfont 6 get stringwidth pop add} {pop} ifelse} forall} bind def
/MCshow { currentpoint stroke M
  exch dup MFwidth -2 div 3 -1 roll R MFshow } def
%
end
%%EndProlog
bkdict begin
0.1 0.1 scale
%
% Residuals:
%
GSN 620 3939 M
620 3306 L
620 3503 L
620 4153 L
620 3885 L
620 3685 L
620 3783 L
620 3824 L
620 3959 L
620 3843 L
620 3935 L
620 3434 L
620 4410 L
620 3662 L
620 4053 L
620 4239 L
620 4155 L
620 4309 L
620 3690 L
620 4016 L
620 3893 L
620 3639 L
620 3808 L
620 4040 L
620 3670 L
620 4214 L
620 4528 L
620 4160 L
620 4453 L
620 4063 L
620 3827 L
620 3251 L
620 3631 L
620 3725 L
620 4237 L
620 4246 L
620 3956 L
620 4013 L
620 4214 L
620 4211 L
620 4480 L
620 4863 L
620 3778 L
620 4040 L
620 3437 L
620 3743 L
620 3511 L
620 4075 L
620 4126 L
620 4007 L
620 4201 L
620 4380 L
620 3563 L
620 2771 L
620 3272 L
620 3777 L
620 4132 L
620 4537 L
620 3842 L
620 3594 L
620 3356 L
620 4152 L
620 3307 L
620 3615 L
620 4191 L
620 4046 L
620 3318 L
620 3803 L
620 3771 L
620 3490 L
620 3422 L
620 4086 L
620 3670 L
620 3880 L
620 3443 L
620 3871 L
620 3907 L
620 3832 L
620 3682 L
620 3707 L
620 3861 L
620 3452 L
620 3418 L
620 3629 L
620 3856 L
620 3762 L
620 3860 L
620 3935 L
620 3161 L
620 3341 L
620 3489 L
620 4277 L
620 3286 L
620 2678 L
620 3889 L
620 3183 L
620 3654 L
620 2955 L
620 3623 L
620 3429 L
620 3141 L
620 2870 L
620 3465 L
620 3198 L
620 2274 L
620 3130 L
620 3219 L
620 2367 L
620 3326 L
620 2946 L
620 3461 L
620 2662 L
620 3539 L
620 3520 L
620 3337 L
620 3034 L
620 3063 L
620 3143 L
620 2833 L
620 2967 L
620 3155 L
620 3109 L
620 3063 L
620 2528 L
620 2909 L
620 2822 L
620 2492 L
620 2768 L
620 3208 L
620 2568 L
620 3008 L
620 2602 L
620 2643 L
620 2516 L
620 2826 L
620 2738 L
620 2615 L
620 2651 L
620 3040 L
620 2529 L
620 2838 L
620 2466 L
620 2571 L
620 2677 L
620 2588 L
620 2519 L
620 2430 L
620 2505 L
620 2456 L
620 2766 L
620 2940 L
620 2552 L
620 2921 L
620 3424 L
620 2569 L
620 2445 L
620 2495 L
620 3097 L
620 2754 L
620 2740 L
620 3476 L
620 3302 L
620 2372 L
620 3009 L
620 2552 L
620 2960 L
620 2956 L
620 2916 L
620 2991 L
620 2986 L
620 3230 L
620 2573 L
620 3414 L
620 3380 L
620 3081 L
620 3643 L
620 2136 L
620 2723 L
620 3255 L
620 2748 L
620 2892 L
620 2927 L
620 2908 L
620 3102 L
620 2236 L
620 3157 L
620 3375 L
620 4291 L
620 2983 L
620 4007 L
620 2500 L
620 3505 L
620 3281 L
620 2540 L
620 3226 L
620 3366 L
620 3286 L
620 2729 L
620 3281 L
620 2903 L
620 2998 L
620 3038 L
620 3257 L
620 3366 L
620 2784 L
620 2918 L
620 2893 L
620 3585 L
620 3421 L
620 2789 L
620 3421 L
620 3182 L
620 3461 L
620 3869 L
620 3650 L
620 3550 L
620 3615 L
620 3630 L
620 4013 L
620 3316 L
620 3441 L
620 3939 L
620 3704 L
620 3172 L
620 3252 L
620 3754 L
620 3102 L
620 3819 L
620 2764 L
620 3241 L
620 3610 L
620 3943 L
620 3879 L
620 3570 L
620 3515 L
620 3267 L
620 3262 L
620 3431 L
620 3252 L
620 3625 L
620 3152 L
620 3108 L
620 3078 L
620 3461 L
620 3347 L
620 3336 L
620 3481 L
620 3118 L
620 3545 L
620 3923 L
620 3729 L
620 3082 L
620 3994 L
620 4197 L
620 3675 L
620 3292 L
620 3157 L
620 3491 L
620 3486 L
620 3118 L
620 2884 L
620 3212 L
620 2824 L
620 3093 L
620 4341 L
620 3964 L
620 3560 L
620 3635 L
620 4262 L
620 4152 L
620 3590 L
620 2923 L
620 2973 L
620 4098 L
620 4267 L
620 3625 L
620 4247 L
620 3914 L
620 3108 L
620 3630 L
620 3217 L
620 3466 L
620 3814 L
620 3685 L
620 3461 L
620 4088 L
620 3371 L
620 3993 L
620 4212 L
620 3953 L
620 3765 L
620 4128 L
620 4187 L
620 4048 L
620 4341 L
620 4461 L
620 3750 L
620 3983 L
620 3705 L
620 4192 L
620 3317 L
620 3665 L
620 3680 L
620 3759 L
620 4252 L
620 3720 L
620 4083 L
620 4570 L
620 3854 L
620 3929 L
620 3849 L
620 4192 L
620 3615 L
620 3744 L
620 3864 L
620 3889 L
620 3814 L
620 3849 L
620 4157 L
620 3401 L
620 4520 L
620 4660 L
620 3675 L
620 4162 L
620 3102 L
620 3864 L
620 4476 L
620 3541 L
620 3312 L
620 3715 L
620 4088 L
620 4565 L
620 3819 L
620 3332 L
620 3789 L
620 3869 L
620 4302 L
620 3680 L
620 3804 L
620 3640 L
620 3476 L
620 4167 L
620 3893 L
620 3560 L
620 4078 L
620 3750 L
620 3953 L
620 4371 L
620 3655 L
620 3451 L
620 4222 L
620 4073 L
620 3396 L
620 3416 L
620 3779 L
620 3341 L
620 3715 L
620 3879 L
620 3695 L
620 4625 L
620 3262 L
620 4053 L
620 4048 L
620 4511 L
620 3550 L
620 3724 L
620 3575 L
620 3964 L
620 3287 L
620 3710 L
620 3540 L
620 3610 L
620 4013 L
620 3317 L
620 4187 L
620 4322 L
620 3849 L
620 3505 L
620 3306 L
620 4123 L
620 3859 L
620 4098 L
620 3207 L
620 3714 L
620 3884 L
620 3705 L
620 3884 L
620 3590 L
620 4212 L
620 3660 L
620 3934 L
620 3759 L
620 3859 L
620 3874 L
620 3730 L
620 3774 L
620 4192 L
620 3396 L
620 3650 L
620 3959 L
620 4103 L
620 3441 L
620 4152 L
620 3834 L
620 4396 L
620 3252 L
620 4212 L
620 3949 L
620 3764 L
620 3530 L
620 3789 L
620 3839 L
620 4147 L
620 4103 L
620 3227 L
620 3416 L
620 3739 L
620 3496 L
620 3839 L
620 4162 L
620 3222 L
620 3406 L
620 3431 L
620 4028 L
620 3068 L
620 3615 L
620 3351 L
620 3680 L
620 3799 L
620 3973 L
620 4093 L
620 3889 L
620 3580 L
620 3989 L
620 3988 L
620 3968 L
620 3854 L
620 3665 L
620 2973 L
620 3510 L
620 4406 L
620 4187 L
620 3705 L
620 3919 L
620 4168 L
620 3063 L
620 4018 L
620 3963 L
620 3257 L
620 3829 L
620 3123 L
620 3670 L
620 4158 L
620 4297 L
620 3535 L
620 4431 L
620 3341 L
620 3839 L
620 3799 L
620 4376 L
620 3272 L
620 4227 L
620 4158 L
620 3844 L
620 3630 L
620 3739 L
620 3640 L
620 4382 L
620 3625 L
620 3899 L
620 4222 L
620 3720 L
620 3834 L
620 3705 L
620 4441 L
620 3699 L
620 3436 L
620 4212 L
620 3998 L
620 4122 L
620 3421 L
620 4063 L
620 3968 L
620 4282 L
620 4406 L
620 4162 L
620 3779 L
620 4023 L
620 3824 L
620 4033 L
620 4715 L
620 3924 L
620 4162 L
620 3680 L
620 4123 L
620 3749 L
620 3968 L
620 3949 L
620 4073 L
620 3541 L
620 3690 L
620 3307 L
620 4113 L
620 4695 L
620 3043 L
620 4386 L
620 3829 L
620 3664 L
620 4173 L
620 4297 L
620 3754 L
620 4426 L
620 4182 L
620 3665 L
620 3929 L
620 3874 L
620 3959 L
620 4366 L
620 4138 L
620 3814 L
620 4834 L
620 3839 L
620 3894 L
620 4232 L
620 4152 L
620 3362 L
620 3929 L
620 3197 L
620 3735 L
620 4028 L
620 4202 L
620 3680 L
620 4128 L
L2 C01 COSGR

%
%================
% Legend - Begin
%================
%
GSN 4240 5180 M
4480 5180 L
LWMC SL  C01 COSGR
GSN 4540 5141 M helvM (0.5 uM) show grestore
%
%================
% Legend - End
%================
%

%
% Main frame
%
L10
GSN 
620 1700 M
4220 1700 L
4220 5300 L
620 5300 L
closepath SGR

%
% X axis: large tics
%
L10
%
% X axis: small tics
%
L5
%
% Y axis: large tics
%
L10
GSN 620 2637 M 54 0 rL SGR
GSN 4220 2637 M -54 0 rL SGR
helvS (-0.01) 560 2637 ylabel
GSN 620 3616 M 54 0 rL SGR
GSN 4220 3616 M -54 0 rL SGR
helvS (0) 560 3616 ylabel
GSN 620 4594 M 54 0 rL SGR
GSN 4220 4594 M -54 0 rL SGR
helvS (0.01) 560 4594 ylabel
%
% Y axis: small tics
%
L5
GSN 620 1904 M 36 0 rL SGR
GSN 4220 1904 M -36 0 rL SGR
GSN 620 2148 M 36 0 rL SGR
GSN 4220 2148 M -36 0 rL SGR
GSN 620 2393 M 36 0 rL SGR
GSN 4220 2393 M -36 0 rL SGR
GSN 620 2637 M 36 0 rL SGR
GSN 4220 2637 M -36 0 rL SGR
GSN 620 2882 M 36 0 rL SGR
GSN 4220 2882 M -36 0 rL SGR
GSN 620 3126 M 36 0 rL SGR
GSN 4220 3126 M -36 0 rL SGR
GSN 620 3371 M 36 0 rL SGR
GSN 4220 3371 M -36 0 rL SGR
GSN 620 3616 M 36 0 rL SGR
GSN 4220 3616 M -36 0 rL SGR
GSN 620 3860 M 36 0 rL SGR
GSN 4220 3860 M -36 0 rL SGR
GSN 620 4105 M 36 0 rL SGR
GSN 4220 4105 M -36 0 rL SGR
GSN 620 4349 M 36 0 rL SGR
GSN 4220 4349 M -36 0 rL SGR
GSN 620 4594 M 36 0 rL SGR
GSN 4220 4594 M -36 0 rL SGR
GSN 620 4838 M 36 0 rL SGR
GSN 4220 4838 M -36 0 rL SGR
GSN 620 5083 M 36 0 rL SGR
GSN 4220 5083 M -36 0 rL SGR

%
% X axis - residual panel
%
GSN L5 620 3616 M 4220 3616 L SDA G50 SGR

%
% X-Axis label:
%
gsave 620 1370 M 
[
[(Helvetica) 180 0 true true 0 (t)]
[(Helvetica) 180 0 true true 0 (i)]
[(Helvetica) 180 0 true true 0 (m)]
[(Helvetica) 180 0 true true 0 (e)]
] 0 MCshow grestore

%
% Y-Axis label:
%
gsave 234 3500 M 
currentpoint gsave translate 90 rotate 0 0 moveto
[
[(Helvetica) 180 0 true true 0 (r)]
[(Helvetica) 180 0 true true 0 (e)]
[(Helvetica) 180 0 true true 0 (s)]
[(Helvetica) 180 0 true true 0 (i)]
[(Helvetica) 180 0 true true 0 (d)]
[(Helvetica) 180 0 true true 0 (u)]
[(Helvetica) 180 0 true true 0 (a)]
[(Helvetica) 180 0 true true 0 (l)]
[(Helvetica) 180 0 true true 0 (s)]
] 0 MCshow grestore

end
showpage
%%Trailer
%%EOF
