%!PS-Adobe-3.0 EPSF-3.0
%%BoundingBox: 0 0 514 550
%%Creator: BioKin Ltd.
%%DocumentFonts: Symbol Helvetica
%%EndComments
%
/bkdict 256 dict def
bkdict begin
/M {moveto} def 
/R {rmoveto} def
/L {lineto} def
/rL {rlineto} def
/GSN {gsave newpath} def
/SGR {stroke grestore} def
/COSGR {gsave setrgbcolor stroke grestore grestore} def
/SL {setlinewidth} def
/LWMB {12} def             % line width - model curves, black & white
/LWMC {10} def             % line width - model curves, color
/L2 {2.5 setlinewidth} def
/L5 {5 setlinewidth} def
/L10 {10 setlinewidth} def
/G50 {0.5 setgray} def
/SDA {[10  20] 0 setdash} def % axes
/helvT {/Helvetica findfont 100 scalefont setfont} def % tiny
/helvS {/Helvetica findfont 125 scalefont setfont} def % small
/helvM {/Helvetica findfont 150 scalefont setfont} def % medium
/helvL {/Helvetica findfont 175 scalefont setfont} def % large
/xlabel {gsave M dup
   stringwidth exch -0.5 mul exch rmoveto show grestore} def 
/ylabel {gsave M 90 rotate dup
   stringwidth exch -0.5 mul exch rmoveto show grestore} def
/ylabelresid {gsave M dup
   stringwidth exch -1 mul exch rmoveto show grestore} def
% ======
% Shapes
% ======
% Circle:
/Circ {0 360 arc closepath} def
%
% Square:
/Squa {dup dup -0.5 mul dup dup R -2 mul 0 exch rL 1 mul 0 rL dup 0 exch -1 mul rL closepath} def
%
% Triangle Up:
/TriU {dup dup dup -0.4 mul exch -0.5 mul exch R dup 0.5 mul exch rL dup -1 mul exch 0.5 mul exch rL closepath} def 
%
% Triangle Down:
/TriD {dup dup dup 0.4 mul exch -0.5 mul exch R dup 0.5 mul exch -1 mul rL dup 0.5 mul exch rL closepath} def 
%
% Diamond:
/Diam {45 rotate Squa} def
% ======
% Fills
% ======
/GRF {gsave setgray fill grestore} def                    % gray-level Fill
/COF {gsave setrgbcolor fill grestore} def                % color fill
% ======
% Colors
% ======
/C01 {1.00	0.00	0.00} def      % Red
/C02 {0.00	0.00	1.00} def      % Blue
/C03 {0.00	0.39	0.00} def      % Dark Green
/C04 {0.78	0.08	0.52} def      % Medium Violet Red
/C05 {0.55	0.27	0.07} def      % Saddle Brown
/C06 {0.10	0.70	0.70} def      % (cyan)
/C07 {1.00	0.55	0.00} def      % Dark Orange
/C08 {0.63	0.13	0.94} def      % Purple
/C09 {0.00	0.75	1.00} def      % Deep Sky Blue
/C10 {0.20	0.80	0.20} def      % Lime Green
/C11 {0.47	0.53	0.60} def      % Light Slate Gray
/C12 {0.00	0.00	0.00} def      % Black            % or: {0.19	0.31	0.31} def      % Dark Slate Gray
%
/LGR {0.75} def % light gray
/DGR {0.33} def % dark gray
%
% =============
% Dash patterns
% =============
/dash01 { [80  20] 0 setdash } def
/dash02 { [40  20] 0 setdash } def
/dash03 { [80  20  10  20] 0 setdash } def
/dash04 { [40  20  10  20] 0 setdash } def
/dash05 { [80  20  10  10  10  20] 0 setdash } def
/dash06 { [40  20  10  10  10  20] 0 setdash } def
/dash07 { [10  10] 0 setdash } def
%
/MFshow {
   { dup 5 get 3 ge
     { 5 get 3 eq {gsave} {grestore} ifelse }
     {dup dup 0 get findfont exch 1 get scalefont setfont
     [ currentpoint ] exch dup 2 get 0 exch R dup 5 get 2 ne {dup dup 6
     get exch 4 get {show} {stringwidth pop 0 R} ifelse }if dup 5 get 0 eq
     {dup 3 get {2 get neg 0 exch R pop} {pop aload pop M} ifelse} {dup 5
     get 1 eq {dup 2 get exch dup 3 get exch 6 get stringwidth pop -2 div
     dup 0 R} {dup 6 get stringwidth pop -2 div 0 R 6 get
     show 2 index {aload pop M neg 3 -1 roll neg R pop pop} {pop pop pop
     pop aload pop M} ifelse }ifelse }ifelse }
     ifelse }
   forall} bind def
/MFwidth {0 exch {dup 3 get{dup dup 0 get findfont exch 1 get scalefont
     setfont 6 get stringwidth pop add} {pop} ifelse} forall} bind def
/MCshow { currentpoint stroke M
  exch dup MFwidth -2 div 3 -1 roll R MFshow } def
%
end
%%EndProlog
bkdict begin
0.1 0.1 scale
%
% Residuals:
%
GSN 620 2975 M
620 2354 L
620 3569 L
620 3060 L
620 3914 L
620 3377 L
620 3608 L
620 3629 L
620 3293 L
620 3020 L
620 3504 L
620 3331 L
620 3948 L
620 3312 L
620 3556 L
620 3515 L
620 3586 L
620 3424 L
620 3283 L
620 3354 L
620 2989 L
620 3136 L
620 3645 L
620 3294 L
620 3101 L
620 3825 L
620 3480 L
620 3579 L
620 3442 L
620 3706 L
620 3521 L
620 3005 L
620 3691 L
620 3033 L
620 3900 L
620 3920 L
620 3081 L
620 3964 L
620 2734 L
620 4069 L
620 3577 L
620 3919 L
620 3281 L
620 3903 L
620 3832 L
620 3424 L
620 3386 L
620 3523 L
620 3904 L
620 3672 L
620 3590 L
620 3952 L
620 3557 L
620 3537 L
620 3602 L
620 3684 L
620 3436 L
620 3945 L
620 3778 L
620 3379 L
620 3352 L
620 4179 L
620 3202 L
620 4038 L
620 3278 L
620 3877 L
620 2997 L
620 3536 L
620 2958 L
620 3573 L
620 3654 L
620 3306 L
620 3265 L
620 3815 L
620 2957 L
620 2925 L
620 3862 L
620 3038 L
620 3064 L
620 3415 L
620 3976 L
620 2977 L
620 2990 L
620 3444 L
620 3462 L
620 3395 L
620 3671 L
620 3545 L
620 3079 L
620 2969 L
620 2813 L
620 3146 L
620 3292 L
620 3428 L
620 2603 L
620 2888 L
620 3551 L
620 3327 L
620 2636 L
620 3763 L
620 3585 L
620 3341 L
620 3404 L
620 3233 L
620 3374 L
620 2953 L
620 2479 L
620 2949 L
620 2772 L
620 3368 L
620 3364 L
620 3457 L
620 3280 L
620 2867 L
620 2863 L
620 3469 L
620 2604 L
620 3230 L
620 2325 L
620 3402 L
620 2654 L
620 2734 L
620 2946 L
620 3585 L
620 3056 L
620 3761 L
620 3654 L
620 2503 L
620 3173 L
620 2568 L
620 3275 L
620 3058 L
620 2786 L
620 2136 L
620 3375 L
620 2755 L
620 2925 L
620 3389 L
620 3630 L
620 3042 L
620 3070 L
620 2570 L
620 2674 L
620 2606 L
620 3046 L
620 3157 L
620 3422 L
620 2950 L
620 3488 L
620 3136 L
620 3010 L
620 3013 L
620 2826 L
620 2580 L
620 2842 L
620 2933 L
620 2814 L
620 2704 L
620 3047 L
620 2966 L
620 3111 L
620 3475 L
620 3594 L
620 3675 L
620 3063 L
620 3515 L
620 4040 L
620 3193 L
620 3315 L
620 3135 L
620 3821 L
620 2999 L
620 3104 L
620 3512 L
620 3552 L
620 3370 L
620 2940 L
620 3575 L
620 3637 L
620 3279 L
620 3079 L
620 3589 L
620 3535 L
620 3429 L
620 2840 L
620 3589 L
620 3218 L
620 3394 L
620 3018 L
620 4327 L
620 3785 L
620 2994 L
620 4123 L
620 3050 L
620 3606 L
620 4064 L
620 3628 L
620 3777 L
620 3841 L
620 4050 L
620 3794 L
620 4067 L
620 2814 L
620 3185 L
620 3711 L
620 3471 L
620 3509 L
620 3371 L
620 3619 L
620 3396 L
620 3523 L
620 3608 L
620 4021 L
620 3829 L
620 3665 L
620 3929 L
620 3411 L
620 3607 L
620 3302 L
620 3524 L
620 3475 L
620 4051 L
620 3712 L
620 3510 L
620 3522 L
620 3948 L
620 4460 L
620 3642 L
620 3999 L
620 3169 L
620 3578 L
620 3649 L
620 3695 L
620 3552 L
620 3944 L
620 4092 L
620 3753 L
620 4208 L
620 3463 L
620 2902 L
620 4007 L
620 3313 L
620 4226 L
620 4285 L
620 3842 L
620 2807 L
620 3788 L
620 4320 L
620 3892 L
620 3415 L
620 3961 L
620 4083 L
620 4363 L
620 3733 L
620 3753 L
620 3952 L
620 4101 L
620 3872 L
620 3973 L
620 3881 L
620 3948 L
620 3536 L
620 3752 L
620 4161 L
620 3885 L
620 3640 L
620 3886 L
620 3769 L
620 3716 L
620 3595 L
620 3037 L
620 3399 L
620 3914 L
620 4224 L
620 3855 L
620 3968 L
620 4198 L
620 3631 L
620 4078 L
620 3859 L
620 3632 L
620 4187 L
620 3981 L
620 4863 L
620 4182 L
620 3824 L
620 3766 L
620 3501 L
620 4123 L
620 3749 L
620 4296 L
620 3898 L
620 4460 L
620 4407 L
620 4300 L
620 4722 L
620 4342 L
620 4196 L
620 4324 L
620 4653 L
620 4543 L
620 4028 L
620 4631 L
620 4174 L
620 4122 L
620 4708 L
620 3596 L
620 4416 L
620 4108 L
620 4450 L
620 4632 L
620 3742 L
620 3850 L
620 4534 L
620 4688 L
620 4494 L
620 3941 L
620 3371 L
620 4391 L
620 3775 L
620 3656 L
620 4152 L
620 4579 L
620 3633 L
620 3918 L
620 4242 L
620 3952 L
620 4323 L
620 4357 L
620 4830 L
620 4425 L
620 4738 L
620 3815 L
620 4425 L
620 4168 L
620 4715 L
620 3787 L
620 3496 L
620 3399 L
620 4539 L
620 3969 L
620 4636 L
620 4140 L
620 4134 L
620 4203 L
620 4254 L
620 4226 L
620 3707 L
620 3901 L
620 4248 L
620 4265 L
620 3849 L
620 3547 L
620 3878 L
620 3918 L
620 3644 L
620 3650 L
620 3684 L
620 3781 L
620 4226 L
620 4249 L
620 3712 L
620 4015 L
620 3291 L
620 3650 L
620 3593 L
620 4026 L
620 4294 L
620 3251 L
620 4009 L
620 3342 L
620 3342 L
620 3444 L
620 3593 L
620 3434 L
620 3394 L
620 3724 L
620 3519 L
620 3935 L
620 3342 L
620 3348 L
620 4037 L
620 3171 L
620 3980 L
620 3468 L
620 3849 L
620 3622 L
620 3901 L
620 3279 L
620 3632 L
620 3405 L
620 3302 L
620 3502 L
620 3570 L
620 3924 L
620 2693 L
620 3975 L
620 3359 L
620 3234 L
620 3844 L
620 3143 L
620 3394 L
620 3302 L
620 3274 L
620 3279 L
620 3052 L
620 3918 L
620 3023 L
620 3165 L
620 3257 L
620 2994 L
620 2892 L
620 3376 L
620 3730 L
620 3371 L
620 3490 L
620 3633 L
620 4100 L
620 3536 L
620 3815 L
620 4186 L
620 3792 L
620 3279 L
620 3399 L
620 4032 L
620 3433 L
620 3411 L
620 2647 L
620 3952 L
620 2886 L
620 3308 L
620 3564 L
620 3359 L
620 3029 L
620 3296 L
620 3735 L
620 3633 L
620 3872 L
620 4129 L
620 3268 L
620 4288 L
620 3388 L
620 3490 L
620 3063 L
620 3496 L
620 3126 L
620 3690 L
620 3194 L
620 3553 L
620 3291 L
620 3478 L
620 3542 L
620 3120 L
620 3815 L
620 3000 L
620 3735 L
620 3513 L
620 3787 L
620 3262 L
620 2840 L
620 3029 L
620 2989 L
620 3348 L
620 3576 L
620 3348 L
620 3159 L
620 3969 L
620 3034 L
620 4048 L
620 3895 L
620 2459 L
620 2994 L
620 3279 L
620 4003 L
620 3068 L
620 3633 L
620 3581 L
620 2943 L
620 2635 L
620 3188 L
620 3365 L
620 3536 L
620 3582 L
620 3268 L
620 3337 L
620 3701 L
620 3028 L
620 3028 L
620 3638 L
620 3553 L
620 3308 L
620 3028 L
620 3285 L
620 3855 L
620 2863 L
620 2567 L
620 2693 L
620 3581 L
620 3353 L
620 3012 L
620 3883 L
620 3536 L
620 3080 L
620 2892 L
620 2994 L
620 3160 L
620 3262 L
620 3046 L
620 2818 L
620 3684 L
620 3040 L
620 3217 L
620 3946 L
620 3159 L
620 2584 L
620 3450 L
620 2737 L
620 3662 L
620 3502 L
620 3308 L
620 2977 L
620 3821 L
620 2863 L
620 3399 L
620 3177 L
620 3838 L
620 3411 L
620 3211 L
620 3393 L
620 3479 L
620 3753 L
620 3297 L
620 3416 L
L2 C02 COSGR

%
%================
% Legend - Begin
%================
%
GSN 4240 5180 M
4480 5180 L
LWMC SL  C02 COSGR
GSN 4540 5141 M helvM (1.0 uM) show grestore
%
%================
% Legend - End
%================
%

%
% Main frame
%
L10
GSN 
620 1700 M
4220 1700 L
4220 5300 L
620 5300 L
closepath SGR

%
% X axis: large tics
%
L10
%
% X axis: small tics
%
L5
%
% Y axis: large tics
%
L10
GSN 620 2418 M 54 0 rL SGR
GSN 4220 2418 M -54 0 rL SGR
helvS (-0.01) 560 2418 ylabel
GSN 620 3539 M 54 0 rL SGR
GSN 4220 3539 M -54 0 rL SGR
helvS (0) 560 3539 ylabel
GSN 620 4659 M 54 0 rL SGR
GSN 4220 4659 M -54 0 rL SGR
helvS (0.01) 560 4659 ylabel
%
% Y axis: small tics
%
L5
GSN 620 1858 M 36 0 rL SGR
GSN 4220 1858 M -36 0 rL SGR
GSN 620 2138 M 36 0 rL SGR
GSN 4220 2138 M -36 0 rL SGR
GSN 620 2418 M 36 0 rL SGR
GSN 4220 2418 M -36 0 rL SGR
GSN 620 2698 M 36 0 rL SGR
GSN 4220 2698 M -36 0 rL SGR
GSN 620 2978 M 36 0 rL SGR
GSN 4220 2978 M -36 0 rL SGR
GSN 620 3259 M 36 0 rL SGR
GSN 4220 3259 M -36 0 rL SGR
GSN 620 3539 M 36 0 rL SGR
GSN 4220 3539 M -36 0 rL SGR
GSN 620 3819 M 36 0 rL SGR
GSN 4220 3819 M -36 0 rL SGR
GSN 620 4099 M 36 0 rL SGR
GSN 4220 4099 M -36 0 rL SGR
GSN 620 4379 M 36 0 rL SGR
GSN 4220 4379 M -36 0 rL SGR
GSN 620 4659 M 36 0 rL SGR
GSN 4220 4659 M -36 0 rL SGR
GSN 620 4939 M 36 0 rL SGR
GSN 4220 4939 M -36 0 rL SGR
GSN 620 5219 M 36 0 rL SGR
GSN 4220 5219 M -36 0 rL SGR

%
% X axis - residual panel
%
GSN L5 620 3539 M 4220 3539 L SDA G50 SGR

%
% X-Axis label:
%
gsave 620 1370 M 
[
[(Helvetica) 180 0 true true 0 (t)]
[(Helvetica) 180 0 true true 0 (i)]
[(Helvetica) 180 0 true true 0 (m)]
[(Helvetica) 180 0 true true 0 (e)]
] 0 MCshow grestore

%
% Y-Axis label:
%
gsave 234 3500 M 
currentpoint gsave translate 90 rotate 0 0 moveto
[
[(Helvetica) 180 0 true true 0 (r)]
[(Helvetica) 180 0 true true 0 (e)]
[(Helvetica) 180 0 true true 0 (s)]
[(Helvetica) 180 0 true true 0 (i)]
[(Helvetica) 180 0 true true 0 (d)]
[(Helvetica) 180 0 true true 0 (u)]
[(Helvetica) 180 0 true true 0 (a)]
[(Helvetica) 180 0 true true 0 (l)]
[(Helvetica) 180 0 true true 0 (s)]
] 0 MCshow grestore

end
showpage
%%Trailer
%%EOF
