%!PS-Adobe-3.0 EPSF-3.0
%%BoundingBox: 0 0 514 550
%%Creator: BioKin Ltd.
%%DocumentFonts: Symbol Helvetica
%%EndComments
%
/bkdict 256 dict def
bkdict begin
/M {moveto} def 
/R {rmoveto} def
/L {lineto} def
/rL {rlineto} def
/GSN {gsave newpath} def
/SGR {stroke grestore} def
/COSGR {gsave setrgbcolor stroke grestore grestore} def
/SL {setlinewidth} def
/LWMB {12} def             % line width - model curves, black & white
/LWMC {10} def             % line width - model curves, color
/L2 {2.5 setlinewidth} def
/L5 {5 setlinewidth} def
/L10 {10 setlinewidth} def
/G50 {0.5 setgray} def
/SDA {[10  20] 0 setdash} def % axes
/helvT {/Helvetica findfont 100 scalefont setfont} def % tiny
/helvS {/Helvetica findfont 125 scalefont setfont} def % small
/helvM {/Helvetica findfont 150 scalefont setfont} def % medium
/helvL {/Helvetica findfont 175 scalefont setfont} def % large
/xlabel {gsave M dup
   stringwidth exch -0.5 mul exch rmoveto show grestore} def 
/ylabel {gsave M 90 rotate dup
   stringwidth exch -0.5 mul exch rmoveto show grestore} def
/ylabelresid {gsave M dup
   stringwidth exch -1 mul exch rmoveto show grestore} def
% ======
% Shapes
% ======
% Circle:
/Circ {0 360 arc closepath} def
%
% Square:
/Squa {dup dup -0.5 mul dup dup R -2 mul 0 exch rL 1 mul 0 rL dup 0 exch -1 mul rL closepath} def
%
% Triangle Up:
/TriU {dup dup dup -0.4 mul exch -0.5 mul exch R dup 0.5 mul exch rL dup -1 mul exch 0.5 mul exch rL closepath} def 
%
% Triangle Down:
/TriD {dup dup dup 0.4 mul exch -0.5 mul exch R dup 0.5 mul exch -1 mul rL dup 0.5 mul exch rL closepath} def 
%
% Diamond:
/Diam {45 rotate Squa} def
% ======
% Fills
% ======
/GRF {gsave setgray fill grestore} def                    % gray-level Fill
/COF {gsave setrgbcolor fill grestore} def                % color fill
% ======
% Colors
% ======
/C01 {1.00	0.00	0.00} def      % Red
/C02 {0.00	0.00	1.00} def      % Blue
/C03 {0.00	0.39	0.00} def      % Dark Green
/C04 {0.78	0.08	0.52} def      % Medium Violet Red
/C05 {0.55	0.27	0.07} def      % Saddle Brown
/C06 {0.10	0.70	0.70} def      % (cyan)
/C07 {1.00	0.55	0.00} def      % Dark Orange
/C08 {0.63	0.13	0.94} def      % Purple
/C09 {0.00	0.75	1.00} def      % Deep Sky Blue
/C10 {0.20	0.80	0.20} def      % Lime Green
/C11 {0.47	0.53	0.60} def      % Light Slate Gray
/C12 {0.00	0.00	0.00} def      % Black            % or: {0.19	0.31	0.31} def      % Dark Slate Gray
%
/LGR {0.75} def % light gray
/DGR {0.33} def % dark gray
%
% =============
% Dash patterns
% =============
/dash01 { [80  20] 0 setdash } def
/dash02 { [40  20] 0 setdash } def
/dash03 { [80  20  10  20] 0 setdash } def
/dash04 { [40  20  10  20] 0 setdash } def
/dash05 { [80  20  10  10  10  20] 0 setdash } def
/dash06 { [40  20  10  10  10  20] 0 setdash } def
/dash07 { [10  10] 0 setdash } def
%
/MFshow {
   { dup 5 get 3 ge
     { 5 get 3 eq {gsave} {grestore} ifelse }
     {dup dup 0 get findfont exch 1 get scalefont setfont
     [ currentpoint ] exch dup 2 get 0 exch R dup 5 get 2 ne {dup dup 6
     get exch 4 get {show} {stringwidth pop 0 R} ifelse }if dup 5 get 0 eq
     {dup 3 get {2 get neg 0 exch R pop} {pop aload pop M} ifelse} {dup 5
     get 1 eq {dup 2 get exch dup 3 get exch 6 get stringwidth pop -2 div
     dup 0 R} {dup 6 get stringwidth pop -2 div 0 R 6 get
     show 2 index {aload pop M neg 3 -1 roll neg R pop pop} {pop pop pop
     pop aload pop M} ifelse }ifelse }ifelse }
     ifelse }
   forall} bind def
/MFwidth {0 exch {dup 3 get{dup dup 0 get findfont exch 1 get scalefont
     setfont 6 get stringwidth pop add} {pop} ifelse} forall} bind def
/MCshow { currentpoint stroke M
  exch dup MFwidth -2 div 3 -1 roll R MFshow } def
%
end
%%EndProlog
bkdict begin
0.1 0.1 scale
%
% Residuals:
%
GSN 620 2136 M
620 3232 L
620 3392 L
620 4440 L
620 3704 L
620 4002 L
620 3506 L
620 3780 L
620 3915 L
620 3921 L
620 3977 L
620 3975 L
620 3643 L
620 3811 L
620 3837 L
620 3703 L
620 4009 L
620 3353 L
620 3895 L
620 3941 L
620 4019 L
620 3856 L
620 3732 L
620 4094 L
620 4038 L
620 3935 L
620 3878 L
620 3896 L
620 3968 L
620 3798 L
620 3763 L
620 3899 L
620 4039 L
620 4021 L
620 4026 L
620 3881 L
620 4010 L
620 3850 L
620 3560 L
620 3669 L
620 3712 L
620 4236 L
620 3922 L
620 3988 L
620 3968 L
620 3709 L
620 3875 L
620 3931 L
620 3640 L
620 3607 L
620 3970 L
620 4044 L
620 4076 L
620 4303 L
620 4049 L
620 3811 L
620 4136 L
620 3586 L
620 4021 L
620 3868 L
620 3747 L
620 3973 L
620 3779 L
620 4031 L
620 3907 L
620 3925 L
620 3833 L
620 4118 L
620 4042 L
620 3979 L
620 3913 L
620 3900 L
620 4000 L
620 4124 L
620 3667 L
620 3810 L
620 3989 L
620 3893 L
620 3799 L
620 3991 L
620 3919 L
620 4028 L
620 3827 L
620 3751 L
620 4165 L
620 3731 L
620 3976 L
620 3823 L
620 3754 L
620 3948 L
620 3869 L
620 4055 L
620 4045 L
620 4140 L
620 3927 L
620 3942 L
620 3828 L
620 4050 L
620 3804 L
620 3771 L
620 4053 L
620 4008 L
620 3808 L
620 4267 L
620 3975 L
620 4151 L
620 3871 L
620 3766 L
620 3781 L
620 3941 L
620 3903 L
620 4456 L
620 4131 L
620 4232 L
620 3912 L
620 3881 L
620 4312 L
620 4004 L
620 4076 L
620 4039 L
620 3814 L
620 3777 L
620 4158 L
620 4167 L
620 3947 L
620 3938 L
620 3927 L
620 4074 L
620 4075 L
620 4313 L
620 4318 L
620 3749 L
620 3933 L
620 3928 L
620 3929 L
620 4262 L
620 4246 L
620 4279 L
620 4051 L
620 3978 L
620 4051 L
620 4037 L
620 3845 L
620 3916 L
620 4106 L
620 4071 L
620 3908 L
620 4250 L
620 3920 L
620 3854 L
620 4047 L
620 4142 L
620 3929 L
620 3922 L
620 4042 L
620 4070 L
620 4149 L
620 3846 L
620 4143 L
620 4133 L
620 4118 L
620 4410 L
620 3924 L
620 3868 L
620 3946 L
620 4263 L
620 3893 L
620 4086 L
620 3952 L
620 4114 L
620 3770 L
620 4015 L
620 4067 L
620 4270 L
620 3904 L
620 4332 L
620 3943 L
620 3658 L
620 3848 L
620 3873 L
620 3944 L
620 3935 L
620 4258 L
620 4048 L
620 3874 L
620 3979 L
620 4006 L
620 4195 L
620 3848 L
620 3961 L
620 3899 L
620 4022 L
620 3953 L
620 3872 L
620 3990 L
620 4090 L
620 3746 L
620 3849 L
620 3873 L
620 4148 L
620 4111 L
620 3872 L
620 4275 L
620 3752 L
620 4076 L
620 3759 L
620 4009 L
620 4030 L
620 3781 L
620 4006 L
620 4105 L
620 3815 L
620 4099 L
620 4169 L
620 4193 L
620 4118 L
620 4056 L
620 4088 L
620 4151 L
620 3743 L
620 3912 L
620 3906 L
620 3897 L
620 4236 L
620 4279 L
620 4082 L
620 4070 L
620 4097 L
620 3578 L
620 3912 L
620 4262 L
620 4303 L
620 4034 L
620 4004 L
620 3937 L
620 4248 L
620 4104 L
620 4322 L
620 4059 L
620 3851 L
620 3920 L
620 4077 L
620 4064 L
620 4015 L
620 4238 L
620 4021 L
620 3913 L
620 3906 L
620 4103 L
620 3990 L
620 4075 L
620 4190 L
620 4007 L
620 4167 L
620 4013 L
620 3948 L
620 3870 L
620 4034 L
620 4093 L
620 4116 L
620 3924 L
620 3754 L
620 4153 L
620 4205 L
620 3932 L
620 4096 L
620 3980 L
620 3740 L
620 3937 L
620 4145 L
620 4165 L
620 4057 L
620 3980 L
620 4327 L
620 3905 L
620 3997 L
620 4143 L
620 3969 L
620 4196 L
620 4127 L
620 3887 L
620 3800 L
620 3731 L
620 4102 L
620 3783 L
620 3928 L
620 3976 L
620 4243 L
620 4014 L
620 4155 L
620 3939 L
620 4077 L
620 4027 L
620 3940 L
620 3839 L
620 4235 L
620 3731 L
620 4076 L
620 3823 L
620 4215 L
620 4024 L
620 4192 L
620 4348 L
620 3853 L
620 3964 L
620 4232 L
620 3974 L
620 3832 L
620 3950 L
620 4190 L
620 4249 L
620 3992 L
620 4188 L
620 4111 L
620 3836 L
620 4040 L
620 4226 L
620 4147 L
620 4040 L
620 3944 L
620 4076 L
620 4112 L
620 3951 L
620 3992 L
620 4149 L
620 3923 L
620 4059 L
620 4152 L
620 3979 L
620 3919 L
620 3911 L
620 3742 L
620 4228 L
620 3754 L
620 3936 L
620 4236 L
620 4025 L
620 3969 L
620 3839 L
620 3946 L
620 4125 L
620 4024 L
620 4002 L
620 4198 L
620 3992 L
620 4278 L
620 4092 L
620 4161 L
620 4023 L
620 4087 L
620 3897 L
620 4086 L
620 4363 L
620 3890 L
620 4284 L
620 4077 L
620 3979 L
620 3937 L
620 4155 L
620 3986 L
620 4151 L
620 4166 L
620 3899 L
620 4103 L
620 4313 L
620 4198 L
620 4082 L
620 3818 L
620 3901 L
620 4055 L
620 4155 L
620 4173 L
620 3875 L
620 3971 L
620 3923 L
620 4113 L
620 3988 L
620 3837 L
620 4346 L
620 4162 L
620 3968 L
620 3966 L
620 4332 L
620 3923 L
620 3769 L
620 3979 L
620 4124 L
620 4192 L
620 4224 L
620 3953 L
620 4127 L
620 4152 L
620 3878 L
620 4065 L
620 3792 L
620 4169 L
620 4030 L
620 3883 L
620 4351 L
620 4255 L
620 4227 L
620 4155 L
620 3998 L
620 3990 L
620 3880 L
620 3966 L
620 4213 L
620 3951 L
620 3738 L
620 4006 L
620 3924 L
620 3915 L
620 4126 L
620 3889 L
620 4127 L
620 3924 L
620 3968 L
620 4011 L
620 3984 L
620 3850 L
620 3672 L
620 3998 L
620 4133 L
620 3803 L
620 3516 L
620 3999 L
620 3965 L
620 3715 L
620 4109 L
620 3924 L
620 4132 L
620 3704 L
620 3899 L
620 3817 L
620 3568 L
620 3951 L
620 3815 L
620 4257 L
620 3893 L
620 3852 L
620 3993 L
620 4212 L
620 3991 L
620 3846 L
620 4106 L
620 3938 L
620 3731 L
620 3917 L
620 3838 L
620 3782 L
620 4107 L
620 3999 L
620 3867 L
620 3906 L
620 3745 L
620 3632 L
620 3904 L
620 3975 L
620 3667 L
620 3958 L
620 4051 L
620 3875 L
620 3650 L
620 3704 L
620 4069 L
620 3853 L
620 3841 L
620 3960 L
620 3837 L
620 3868 L
620 3800 L
620 3738 L
620 4138 L
620 3980 L
620 3761 L
620 3660 L
620 3570 L
620 3969 L
620 3784 L
620 3758 L
620 3704 L
620 3861 L
620 3827 L
620 3762 L
620 3677 L
620 3840 L
620 3787 L
620 4035 L
620 3855 L
620 3861 L
620 3793 L
620 3822 L
620 3761 L
620 3709 L
620 3423 L
620 3633 L
620 3552 L
620 3733 L
620 3953 L
620 3692 L
620 3764 L
620 3844 L
620 3952 L
620 3956 L
620 3850 L
620 3837 L
620 3756 L
620 4021 L
620 3811 L
620 3812 L
620 4034 L
620 3821 L
620 3826 L
620 3790 L
620 3885 L
620 3727 L
620 3732 L
620 4015 L
620 3659 L
620 3509 L
620 3845 L
620 3547 L
620 3921 L
620 3781 L
620 3790 L
620 3985 L
620 3805 L
620 3745 L
620 3648 L
620 3800 L
620 3809 L
620 3895 L
620 3790 L
620 3844 L
620 3562 L
620 3862 L
620 3730 L
620 3938 L
620 3552 L
620 3834 L
620 3761 L
620 3515 L
620 3859 L
620 3719 L
620 3583 L
620 3851 L
620 3723 L
620 3659 L
620 3865 L
620 3751 L
620 3782 L
620 3637 L
620 3874 L
620 3850 L
620 3955 L
620 3845 L
620 3909 L
620 3568 L
620 3811 L
620 3698 L
620 3611 L
620 3892 L
620 3819 L
620 3458 L
620 3502 L
620 3513 L
620 3766 L
620 3743 L
620 3876 L
620 3698 L
620 3599 L
620 3816 L
620 3873 L
620 3632 L
620 3600 L
620 3483 L
620 3806 L
620 3766 L
620 3829 L
620 3556 L
620 3664 L
620 3796 L
620 3952 L
620 3654 L
620 3721 L
620 3518 L
620 3721 L
620 3984 L
620 3792 L
620 3716 L
620 3879 L
620 3741 L
620 3548 L
620 4063 L
620 3533 L
620 3798 L
620 3872 L
620 3486 L
620 3848 L
620 3799 L
620 3829 L
620 3941 L
620 3507 L
620 3846 L
620 3909 L
620 3738 L
620 3565 L
620 4058 L
620 3737 L
620 3685 L
620 3912 L
620 4094 L
620 3873 L
620 3647 L
620 4027 L
620 3973 L
620 4017 L
620 3622 L
620 3807 L
620 3524 L
620 3641 L
620 3773 L
620 3544 L
620 3955 L
620 3811 L
620 3773 L
620 3978 L
620 3901 L
620 3840 L
620 3605 L
620 3922 L
620 3899 L
620 3870 L
620 3892 L
620 3844 L
620 3647 L
620 3793 L
620 3833 L
620 3992 L
620 3577 L
620 4077 L
620 3754 L
620 3699 L
620 3530 L
620 3798 L
620 3786 L
620 3600 L
620 4022 L
620 3835 L
620 3773 L
620 3631 L
620 3645 L
620 4268 L
620 3694 L
620 3939 L
620 3989 L
620 4114 L
620 3654 L
620 3863 L
620 4219 L
620 4012 L
620 3902 L
620 3865 L
620 3584 L
620 4051 L
620 3990 L
620 3749 L
620 4037 L
620 3944 L
620 3870 L
620 3825 L
620 4039 L
620 4035 L
620 3969 L
620 3801 L
620 3510 L
620 3635 L
620 4199 L
620 3932 L
620 3574 L
620 4109 L
620 3691 L
620 4194 L
620 3460 L
620 3981 L
620 3855 L
620 3644 L
620 4021 L
620 3831 L
620 4206 L
620 3790 L
620 4083 L
620 3959 L
620 3872 L
620 3753 L
620 3757 L
620 3900 L
620 3934 L
620 3657 L
620 4031 L
620 4101 L
620 4198 L
620 3653 L
620 3711 L
620 3971 L
620 3893 L
620 3785 L
620 3933 L
620 3864 L
620 4038 L
620 3854 L
620 3874 L
620 3797 L
620 3887 L
620 3774 L
620 4278 L
620 3728 L
620 3925 L
620 3820 L
620 3912 L
620 3712 L
620 4027 L
620 3809 L
620 4029 L
620 3966 L
620 3675 L
620 3984 L
620 3631 L
620 4057 L
620 4065 L
620 3875 L
620 3920 L
620 3920 L
620 3827 L
620 3899 L
620 3857 L
620 4002 L
620 3821 L
620 3855 L
620 3827 L
620 3928 L
620 4115 L
620 3873 L
620 3891 L
620 3888 L
620 3817 L
620 4029 L
620 3685 L
620 4125 L
620 3731 L
620 3664 L
620 3823 L
620 4082 L
620 3677 L
620 4092 L
620 3937 L
620 3845 L
620 4165 L
620 4246 L
620 4127 L
620 4097 L
620 4208 L
620 4131 L
620 3784 L
620 3688 L
620 3939 L
620 3529 L
620 4128 L
620 3648 L
620 3951 L
620 3898 L
620 4412 L
620 3747 L
620 4061 L
620 4172 L
620 3799 L
620 4055 L
620 3834 L
620 4115 L
620 4060 L
620 3757 L
620 3985 L
620 3905 L
620 4056 L
620 3997 L
620 4156 L
620 4032 L
620 4175 L
620 3917 L
620 3850 L
620 3962 L
620 4196 L
620 3766 L
620 3971 L
620 4108 L
620 3737 L
620 3939 L
620 3781 L
620 3844 L
620 4157 L
620 4064 L
620 3934 L
620 4013 L
620 4124 L
620 4050 L
620 3825 L
620 3884 L
620 3872 L
620 3809 L
620 3735 L
620 3835 L
620 3849 L
620 3926 L
620 3781 L
620 4154 L
620 4171 L
620 3947 L
620 4117 L
620 4263 L
620 3951 L
620 3920 L
620 4138 L
620 3918 L
620 3817 L
620 3915 L
620 3918 L
620 4093 L
620 4241 L
620 3974 L
620 3995 L
620 4254 L
620 4094 L
620 4339 L
620 3932 L
620 3835 L
620 4030 L
620 4109 L
620 3954 L
620 3751 L
620 4241 L
620 3961 L
620 4086 L
620 4232 L
620 4082 L
620 3961 L
620 4126 L
620 4171 L
620 3775 L
620 3803 L
620 3999 L
620 4189 L
620 4304 L
620 4177 L
620 4118 L
620 4181 L
620 4042 L
620 4169 L
620 3936 L
620 3823 L
620 4268 L
620 3887 L
620 3909 L
620 3896 L
620 4400 L
620 4176 L
620 4026 L
620 4082 L
620 4032 L
620 4109 L
620 4074 L
620 4342 L
620 4183 L
620 3825 L
620 4152 L
620 3985 L
620 4171 L
620 3941 L
620 3628 L
620 3955 L
620 4109 L
620 3880 L
620 4071 L
620 4149 L
620 3966 L
620 4184 L
620 4284 L
620 4056 L
620 4044 L
620 3930 L
620 4221 L
620 4239 L
620 3944 L
620 4249 L
620 4092 L
620 3633 L
620 4017 L
620 3933 L
620 4132 L
620 3934 L
620 4079 L
620 3849 L
620 4069 L
620 3941 L
620 4377 L
620 4284 L
620 4254 L
620 4111 L
620 4204 L
620 4017 L
620 4070 L
620 4273 L
620 4147 L
620 3873 L
620 4061 L
620 4044 L
620 4080 L
620 3803 L
620 4501 L
620 4332 L
620 4386 L
620 3775 L
620 4466 L
620 4058 L
620 4263 L
620 3975 L
620 4250 L
620 4082 L
620 4346 L
620 3994 L
620 4046 L
620 4129 L
620 4313 L
620 4135 L
620 4110 L
620 4275 L
620 4170 L
620 4101 L
620 4348 L
620 4260 L
620 3999 L
620 4418 L
620 3905 L
620 4298 L
620 4306 L
620 4158 L
620 4094 L
620 4114 L
620 4386 L
620 4069 L
620 3997 L
620 4210 L
620 4028 L
620 3914 L
620 4429 L
620 4223 L
620 4345 L
620 4131 L
620 4077 L
620 4084 L
620 4164 L
620 4101 L
620 4047 L
620 4273 L
620 4054 L
620 4188 L
620 4188 L
620 4393 L
620 4180 L
620 4115 L
620 4244 L
620 4114 L
620 4498 L
620 4180 L
620 4347 L
620 4184 L
620 4292 L
620 4241 L
620 4320 L
620 4394 L
620 4256 L
620 4333 L
620 4319 L
620 4240 L
620 4189 L
620 4100 L
620 4185 L
620 4014 L
620 4051 L
620 4297 L
620 4163 L
620 4105 L
620 4459 L
620 4418 L
620 4074 L
620 4191 L
620 4084 L
620 4106 L
620 4370 L
620 4223 L
620 4210 L
620 4113 L
620 4190 L
620 3981 L
620 4124 L
620 4482 L
620 4251 L
620 4181 L
620 4350 L
620 4354 L
620 4148 L
620 4474 L
620 4374 L
620 4295 L
620 4577 L
620 4280 L
620 4219 L
620 3969 L
620 4377 L
620 4172 L
620 4537 L
620 4303 L
620 4018 L
620 4134 L
620 4451 L
620 4243 L
620 3931 L
620 4146 L
620 4363 L
620 4288 L
620 4535 L
620 4353 L
620 4048 L
620 4445 L
620 4447 L
620 4227 L
620 4145 L
620 4549 L
620 4265 L
620 4505 L
620 4509 L
620 4345 L
620 4176 L
620 4391 L
620 4470 L
620 4219 L
620 4237 L
620 4175 L
620 4207 L
620 4296 L
620 4509 L
620 4131 L
620 4280 L
620 4353 L
620 4468 L
620 4372 L
620 4471 L
620 4413 L
620 4417 L
620 4292 L
620 4111 L
620 4440 L
620 4155 L
620 4174 L
620 4105 L
620 4380 L
620 4163 L
620 4364 L
620 4393 L
620 4137 L
620 4400 L
620 4274 L
620 4334 L
620 4389 L
620 4459 L
620 4437 L
620 4373 L
620 4354 L
620 4589 L
620 4377 L
620 4250 L
620 4465 L
620 4533 L
620 4337 L
620 4091 L
620 4298 L
620 4166 L
620 4031 L
620 4228 L
620 4103 L
620 4381 L
620 4416 L
620 4192 L
620 4157 L
620 4425 L
620 4109 L
620 4507 L
620 4313 L
620 4225 L
620 4320 L
620 4439 L
620 4351 L
620 4347 L
620 4089 L
620 4428 L
620 4243 L
620 4296 L
620 4343 L
620 4547 L
620 4187 L
620 4184 L
620 4077 L
620 4425 L
620 4195 L
620 4158 L
620 4257 L
620 4367 L
620 4362 L
620 4439 L
620 4173 L
620 4253 L
620 4093 L
620 4186 L
620 4273 L
620 4262 L
620 4391 L
620 4293 L
620 4444 L
620 4507 L
620 4384 L
620 4528 L
620 4375 L
620 4333 L
620 4081 L
620 4067 L
620 4401 L
620 4359 L
620 4164 L
620 4253 L
620 4287 L
620 4293 L
620 4449 L
620 4518 L
620 4640 L
620 4653 L
620 4460 L
620 4408 L
620 4321 L
620 4311 L
620 4523 L
620 4603 L
620 4190 L
620 4471 L
620 4484 L
620 4569 L
620 4363 L
620 4627 L
620 4330 L
620 4393 L
620 4505 L
620 4474 L
620 4258 L
620 4477 L
620 4419 L
620 4421 L
620 4311 L
620 4227 L
620 4404 L
620 4379 L
620 4318 L
620 4239 L
620 4576 L
620 4125 L
620 4412 L
620 4602 L
620 4434 L
620 4369 L
620 4528 L
620 4426 L
620 4249 L
620 4312 L
620 4335 L
620 4521 L
620 4346 L
620 4431 L
620 4197 L
620 4396 L
620 4307 L
620 4333 L
620 4096 L
620 4476 L
620 4098 L
620 4451 L
620 4177 L
620 4325 L
620 4536 L
620 4196 L
620 4101 L
620 4665 L
620 4635 L
620 4272 L
620 4613 L
620 4437 L
620 4262 L
620 4557 L
620 4253 L
620 4527 L
620 4530 L
620 4281 L
620 4407 L
620 4473 L
620 4449 L
620 4505 L
620 4490 L
620 4612 L
620 4196 L
620 4639 L
620 4504 L
620 4471 L
620 4344 L
620 4169 L
620 4303 L
620 4134 L
620 4046 L
620 4434 L
620 4688 L
620 4207 L
620 4262 L
620 4387 L
620 4568 L
620 4530 L
620 4275 L
620 4450 L
620 4324 L
620 4415 L
620 4478 L
620 4616 L
620 4409 L
620 4498 L
620 4349 L
620 4266 L
620 4460 L
620 4431 L
620 4263 L
620 4522 L
620 4439 L
620 4267 L
620 4667 L
620 4596 L
620 4454 L
620 4335 L
620 4350 L
620 4556 L
620 3957 L
620 4364 L
620 4389 L
620 4535 L
620 4484 L
620 4144 L
620 4222 L
620 4128 L
620 4421 L
620 4572 L
620 4400 L
620 4277 L
620 4173 L
620 4424 L
620 4569 L
620 4553 L
620 4452 L
620 4482 L
620 4164 L
620 4445 L
620 4365 L
620 4637 L
620 4470 L
620 4531 L
620 4447 L
620 4253 L
620 4218 L
620 4417 L
620 4662 L
620 4491 L
620 4240 L
620 4239 L
620 4261 L
620 4387 L
620 4215 L
620 4438 L
620 4045 L
620 4514 L
620 4348 L
620 4379 L
620 4631 L
620 4593 L
620 4437 L
620 4408 L
620 4747 L
620 4611 L
620 4567 L
620 4574 L
620 4478 L
620 4449 L
620 4690 L
620 4284 L
620 4436 L
620 4405 L
620 4413 L
620 4396 L
620 4451 L
620 4464 L
620 4430 L
620 4432 L
620 4208 L
620 4238 L
620 4554 L
620 4479 L
620 4408 L
620 4455 L
620 4425 L
620 4350 L
620 4198 L
620 4446 L
620 4635 L
620 4341 L
620 4436 L
620 4586 L
620 4430 L
620 4226 L
620 4237 L
620 4617 L
620 4480 L
620 4374 L
620 4474 L
620 4428 L
620 4382 L
620 4411 L
620 4150 L
620 4396 L
620 4460 L
620 4863 L
620 4482 L
620 4456 L
620 4442 L
620 4258 L
620 4245 L
620 4608 L
620 4506 L
620 4649 L
620 4380 L
620 4498 L
620 4139 L
620 4558 L
620 4651 L
620 4517 L
620 4024 L
620 4317 L
620 4722 L
620 4466 L
620 4566 L
620 4415 L
620 4422 L
620 4422 L
620 4179 L
620 4490 L
620 4439 L
620 4610 L
620 4222 L
620 4354 L
620 4380 L
620 4380 L
620 4363 L
620 4580 L
620 4522 L
620 4598 L
620 4350 L
620 4488 L
620 4418 L
620 4245 L
620 4531 L
620 4334 L
620 4401 L
620 4293 L
620 4356 L
620 4208 L
620 4449 L
620 4481 L
620 4524 L
620 4661 L
620 4565 L
620 4297 L
620 4485 L
620 4508 L
620 4540 L
620 4301 L
620 4439 L
620 4087 L
620 4449 L
620 4484 L
620 4287 L
620 4442 L
620 4673 L
620 4022 L
620 4448 L
620 4186 L
620 4452 L
620 4448 L
620 4728 L
620 4262 L
620 4503 L
620 4470 L
620 4664 L
620 4588 L
620 4548 L
620 4509 L
620 4643 L
620 4363 L
620 4554 L
620 4493 L
620 4420 L
620 4343 L
620 4264 L
620 4260 L
620 4687 L
620 4464 L
620 4567 L
620 4573 L
620 4093 L
620 4297 L
620 4417 L
620 4473 L
620 4514 L
620 4304 L
620 4392 L
620 4505 L
620 4274 L
620 4323 L
620 4449 L
620 4332 L
620 4193 L
620 4384 L
620 4217 L
620 4697 L
620 4429 L
620 4157 L
620 4414 L
620 4508 L
620 4273 L
620 4392 L
620 4115 L
620 4276 L
620 4278 L
620 4515 L
620 4113 L
620 4109 L
620 4645 L
620 4350 L
620 4447 L
620 4462 L
620 4340 L
620 4155 L
620 4041 L
620 4613 L
620 3979 L
620 4200 L
620 4317 L
620 4263 L
620 4081 L
620 4553 L
620 4083 L
620 4139 L
620 4170 L
620 4337 L
620 4443 L
620 4131 L
620 4159 L
620 4251 L
620 4120 L
620 4185 L
620 4403 L
620 4143 L
620 4202 L
620 4125 L
620 4243 L
620 4064 L
620 4094 L
620 4310 L
620 4411 L
620 4217 L
620 4132 L
620 4268 L
620 4206 L
620 4187 L
620 4297 L
620 4225 L
620 4223 L
620 4097 L
620 4208 L
620 4129 L
620 4017 L
620 4298 L
620 4305 L
620 4249 L
620 4148 L
620 4055 L
620 4310 L
620 4181 L
620 4264 L
620 4253 L
620 4189 L
620 4256 L
620 4201 L
620 3833 L
620 4165 L
620 4336 L
620 4388 L
620 4247 L
620 4153 L
620 4294 L
620 4275 L
620 4219 L
620 4318 L
620 4363 L
620 4577 L
620 4323 L
620 4452 L
620 4192 L
620 4353 L
620 4346 L
620 4364 L
620 4307 L
620 4065 L
620 4084 L
620 4319 L
620 4021 L
620 4241 L
620 4350 L
620 4253 L
620 4242 L
620 4585 L
620 3994 L
620 4165 L
620 4108 L
620 4101 L
620 4218 L
620 4192 L
620 4459 L
620 4325 L
620 4229 L
620 4297 L
620 4478 L
620 4646 L
620 4113 L
620 4335 L
620 4298 L
620 4151 L
620 4348 L
620 4229 L
620 4302 L
620 4164 L
620 4104 L
620 4223 L
620 4171 L
620 4295 L
620 4504 L
620 4351 L
620 4111 L
620 4415 L
620 3716 L
620 4058 L
620 4171 L
620 4434 L
620 4238 L
620 3972 L
620 4144 L
620 4183 L
620 4313 L
620 4464 L
620 4138 L
620 4589 L
620 4301 L
620 4080 L
620 4112 L
620 4340 L
620 4468 L
620 4275 L
620 4189 L
620 4348 L
620 4133 L
620 4283 L
620 4384 L
620 4259 L
620 4323 L
620 4371 L
620 4432 L
620 4047 L
620 4475 L
620 4510 L
620 4298 L
620 4009 L
620 4494 L
620 4543 L
620 4214 L
620 4178 L
620 4561 L
620 4374 L
620 4111 L
620 4159 L
620 4165 L
620 4360 L
620 3974 L
620 4097 L
620 4234 L
620 4058 L
620 4010 L
620 4247 L
620 4165 L
620 3874 L
620 4184 L
620 4175 L
620 4055 L
620 4344 L
620 4053 L
620 4178 L
620 4255 L
620 4213 L
620 4220 L
620 4380 L
620 4026 L
620 4273 L
620 4106 L
620 4397 L
620 4161 L
620 4131 L
620 4492 L
620 3929 L
620 4334 L
620 3997 L
620 4353 L
620 4049 L
620 4155 L
620 4205 L
620 4489 L
620 4117 L
620 4240 L
620 4329 L
620 4221 L
620 4084 L
620 4481 L
620 4143 L
620 4214 L
620 4198 L
620 4286 L
620 4415 L
620 4349 L
620 4254 L
620 4213 L
620 4231 L
620 4288 L
620 4019 L
620 4287 L
620 4228 L
620 4422 L
620 4055 L
620 4081 L
620 4318 L
620 4052 L
620 4067 L
620 4200 L
620 4152 L
620 4102 L
620 4143 L
620 4231 L
620 4061 L
620 4340 L
620 4210 L
620 4578 L
620 4254 L
620 4002 L
620 4559 L
620 4223 L
620 4151 L
620 4154 L
620 4339 L
620 4037 L
620 4384 L
620 4249 L
620 4172 L
620 4109 L
620 4370 L
620 4407 L
620 4018 L
620 3966 L
620 4239 L
620 4090 L
620 4423 L
620 4049 L
620 4142 L
620 4219 L
620 4129 L
620 4212 L
620 4229 L
620 4365 L
620 4217 L
620 4084 L
620 4339 L
620 4132 L
620 4176 L
620 4069 L
620 4187 L
620 4305 L
620 4176 L
620 4164 L
620 4388 L
620 4630 L
620 4237 L
620 4108 L
620 4360 L
620 3877 L
620 4183 L
620 4269 L
620 4243 L
620 4319 L
620 3995 L
620 4240 L
620 4164 L
620 4370 L
620 4304 L
620 4112 L
620 4118 L
620 4341 L
620 4063 L
620 4317 L
620 4325 L
620 4207 L
620 4040 L
620 4560 L
620 4135 L
620 4193 L
620 4224 L
620 4481 L
620 4130 L
620 4245 L
620 4153 L
620 4311 L
620 4401 L
620 4182 L
620 3789 L
620 4272 L
620 4330 L
620 4244 L
620 4325 L
620 4143 L
620 4439 L
620 4236 L
620 3965 L
620 4056 L
620 4297 L
L2 C06 COSGR

%
%================
% Legend - Begin
%================
%
GSN 4240 5180 M
4480 5180 L
LWMC SL  C06 COSGR
GSN 4540 5141 M helvM (3.0 uM) show grestore
%
%================
% Legend - End
%================
%

%
% Main frame
%
L10
GSN 
620 1700 M
4220 1700 L
4220 5300 L
620 5300 L
closepath SGR

%
% X axis: large tics
%
L10
%
% X axis: small tics
%
L5
%
% Y axis: large tics
%
L10
GSN 620 1878 M 54 0 rL SGR
GSN 4220 1878 M -54 0 rL SGR
helvS (-0.04) 560 1878 ylabel
GSN 620 2996 M 54 0 rL SGR
GSN 4220 2996 M -54 0 rL SGR
helvS (-0.02) 560 2996 ylabel
GSN 620 4114 M 54 0 rL SGR
GSN 4220 4114 M -54 0 rL SGR
helvS (0) 560 4114 ylabel
GSN 620 5232 M 54 0 rL SGR
GSN 4220 5232 M -54 0 rL SGR
helvS (0.02) 560 5232 ylabel
%
% Y axis: small tics
%
L5
GSN 620 1878 M 36 0 rL SGR
GSN 4220 1878 M -36 0 rL SGR
GSN 620 2157 M 36 0 rL SGR
GSN 4220 2157 M -36 0 rL SGR
GSN 620 2437 M 36 0 rL SGR
GSN 4220 2437 M -36 0 rL SGR
GSN 620 2716 M 36 0 rL SGR
GSN 4220 2716 M -36 0 rL SGR
GSN 620 2996 M 36 0 rL SGR
GSN 4220 2996 M -36 0 rL SGR
GSN 620 3275 M 36 0 rL SGR
GSN 4220 3275 M -36 0 rL SGR
GSN 620 3555 M 36 0 rL SGR
GSN 4220 3555 M -36 0 rL SGR
GSN 620 3835 M 36 0 rL SGR
GSN 4220 3835 M -36 0 rL SGR
GSN 620 4114 M 36 0 rL SGR
GSN 4220 4114 M -36 0 rL SGR
GSN 620 4394 M 36 0 rL SGR
GSN 4220 4394 M -36 0 rL SGR
GSN 620 4673 M 36 0 rL SGR
GSN 4220 4673 M -36 0 rL SGR
GSN 620 4953 M 36 0 rL SGR
GSN 4220 4953 M -36 0 rL SGR
GSN 620 5232 M 36 0 rL SGR
GSN 4220 5232 M -36 0 rL SGR

%
% X axis - residual panel
%
GSN L5 620 4114 M 4220 4114 L SDA G50 SGR

%
% X-Axis label:
%
gsave 620 1370 M 
[
[(Helvetica) 180 0 true true 0 (t)]
[(Helvetica) 180 0 true true 0 (i)]
[(Helvetica) 180 0 true true 0 (m)]
[(Helvetica) 180 0 true true 0 (e)]
] 0 MCshow grestore

%
% Y-Axis label:
%
gsave 234 3499 M 
currentpoint gsave translate 90 rotate 0 0 moveto
[
[(Helvetica) 180 0 true true 0 (r)]
[(Helvetica) 180 0 true true 0 (e)]
[(Helvetica) 180 0 true true 0 (s)]
[(Helvetica) 180 0 true true 0 (i)]
[(Helvetica) 180 0 true true 0 (d)]
[(Helvetica) 180 0 true true 0 (u)]
[(Helvetica) 180 0 true true 0 (a)]
[(Helvetica) 180 0 true true 0 (l)]
[(Helvetica) 180 0 true true 0 (s)]
] 0 MCshow grestore

end
showpage
%%Trailer
%%EOF
