%!PS-Adobe-3.0 EPSF-3.0
%%BoundingBox: 0 0 514 550
%%Creator: BioKin Ltd.
%%DocumentFonts: Symbol Helvetica
%%EndComments
%
/bkdict 256 dict def
bkdict begin
/M {moveto} def 
/R {rmoveto} def
/L {lineto} def
/rL {rlineto} def
/GSN {gsave newpath} def
/SGR {stroke grestore} def
/COSGR {gsave setrgbcolor stroke grestore grestore} def
/SL {setlinewidth} def
/LWMB {12} def             % line width - model curves, black & white
/LWMC {10} def             % line width - model curves, color
/L2 {2.5 setlinewidth} def
/L5 {5 setlinewidth} def
/L10 {10 setlinewidth} def
/G50 {0.5 setgray} def
/SDA {[10  20] 0 setdash} def % axes
/helvT {/Helvetica findfont 100 scalefont setfont} def % tiny
/helvS {/Helvetica findfont 125 scalefont setfont} def % small
/helvM {/Helvetica findfont 150 scalefont setfont} def % medium
/helvL {/Helvetica findfont 175 scalefont setfont} def % large
/xlabel {gsave M dup
   stringwidth exch -0.5 mul exch rmoveto show grestore} def 
/ylabel {gsave M 90 rotate dup
   stringwidth exch -0.5 mul exch rmoveto show grestore} def
/ylabelresid {gsave M dup
   stringwidth exch -1 mul exch rmoveto show grestore} def
% ======
% Shapes
% ======
% Circle:
/Circ {0 360 arc closepath} def
%
% Square:
/Squa {dup dup -0.5 mul dup dup R -2 mul 0 exch rL 1 mul 0 rL dup 0 exch -1 mul rL closepath} def
%
% Triangle Up:
/TriU {dup dup dup -0.4 mul exch -0.5 mul exch R dup 0.5 mul exch rL dup -1 mul exch 0.5 mul exch rL closepath} def 
%
% Triangle Down:
/TriD {dup dup dup 0.4 mul exch -0.5 mul exch R dup 0.5 mul exch -1 mul rL dup 0.5 mul exch rL closepath} def 
%
% Diamond:
/Diam {45 rotate Squa} def
% ======
% Fills
% ======
/GRF {gsave setgray fill grestore} def                    % gray-level Fill
/COF {gsave setrgbcolor fill grestore} def                % color fill
% ======
% Colors
% ======
/C01 {1.00	0.00	0.00} def      % Red
/C02 {0.00	0.00	1.00} def      % Blue
/C03 {0.00	0.39	0.00} def      % Dark Green
/C04 {0.78	0.08	0.52} def      % Medium Violet Red
/C05 {0.55	0.27	0.07} def      % Saddle Brown
/C06 {0.10	0.70	0.70} def      % (cyan)
/C07 {1.00	0.55	0.00} def      % Dark Orange
/C08 {0.63	0.13	0.94} def      % Purple
/C09 {0.00	0.75	1.00} def      % Deep Sky Blue
/C10 {0.20	0.80	0.20} def      % Lime Green
/C11 {0.47	0.53	0.60} def      % Light Slate Gray
/C12 {0.00	0.00	0.00} def      % Black            % or: {0.19	0.31	0.31} def      % Dark Slate Gray
%
/LGR {0.75} def % light gray
/DGR {0.33} def % dark gray
%
% =============
% Dash patterns
% =============
/dash01 { [80  20] 0 setdash } def
/dash02 { [40  20] 0 setdash } def
/dash03 { [80  20  10  20] 0 setdash } def
/dash04 { [40  20  10  20] 0 setdash } def
/dash05 { [80  20  10  10  10  20] 0 setdash } def
/dash06 { [40  20  10  10  10  20] 0 setdash } def
/dash07 { [10  10] 0 setdash } def
%
/MFshow {
   { dup 5 get 3 ge
     { 5 get 3 eq {gsave} {grestore} ifelse }
     {dup dup 0 get findfont exch 1 get scalefont setfont
     [ currentpoint ] exch dup 2 get 0 exch R dup 5 get 2 ne {dup dup 6
     get exch 4 get {show} {stringwidth pop 0 R} ifelse }if dup 5 get 0 eq
     {dup 3 get {2 get neg 0 exch R pop} {pop aload pop M} ifelse} {dup 5
     get 1 eq {dup 2 get exch dup 3 get exch 6 get stringwidth pop -2 div
     dup 0 R} {dup 6 get stringwidth pop -2 div 0 R 6 get
     show 2 index {aload pop M neg 3 -1 roll neg R pop pop} {pop pop pop
     pop aload pop M} ifelse }ifelse }ifelse }
     ifelse }
   forall} bind def
/MFwidth {0 exch {dup 3 get{dup dup 0 get findfont exch 1 get scalefont
     setfont 6 get stringwidth pop add} {pop} ifelse} forall} bind def
/MCshow { currentpoint stroke M
  exch dup MFwidth -2 div 3 -1 roll R MFshow } def
%
end
%%EndProlog
bkdict begin
0.1 0.1 scale
%
% Residuals:
%
GSN 620 3179 M
620 2561 L
620 2546 L
620 2788 L
620 3099 L
620 2605 L
620 3693 L
620 3434 L
620 3644 L
620 3615 L
620 3202 L
620 3915 L
620 3594 L
620 3568 L
620 3915 L
620 3723 L
620 3728 L
620 4131 L
620 3632 L
620 4137 L
620 4346 L
620 4142 L
620 4542 L
620 4077 L
620 4486 L
620 4681 L
620 4087 L
620 4400 L
620 4393 L
620 4696 L
620 4187 L
620 3901 L
620 4843 L
620 4162 L
620 4605 L
620 4408 L
620 4308 L
620 4380 L
620 4315 L
620 4238 L
620 3885 L
620 4431 L
620 4209 L
620 4215 L
620 4238 L
620 3988 L
620 4296 L
620 3824 L
620 3860 L
620 4049 L
620 4067 L
620 3719 L
620 3585 L
620 3517 L
620 4127 L
620 3823 L
620 4097 L
620 3788 L
620 4014 L
620 4067 L
620 3723 L
620 4063 L
620 4050 L
620 4248 L
620 3789 L
620 3549 L
620 3559 L
620 3660 L
620 3125 L
620 3754 L
620 3647 L
620 3462 L
620 4158 L
620 3251 L
620 3570 L
620 3921 L
620 3164 L
620 3123 L
620 3633 L
620 3448 L
620 3437 L
620 3318 L
620 3394 L
620 3619 L
620 3185 L
620 2913 L
620 3255 L
620 2747 L
620 2880 L
620 2907 L
620 3248 L
620 2643 L
620 3118 L
620 2843 L
620 2615 L
620 2672 L
620 2524 L
620 2491 L
620 2769 L
620 2512 L
620 2961 L
620 2575 L
620 2764 L
620 2356 L
620 2710 L
620 2344 L
620 2599 L
620 2472 L
620 2816 L
620 2704 L
620 2743 L
620 2461 L
620 2216 L
620 2136 L
620 2508 L
620 2448 L
620 2586 L
620 2934 L
620 2735 L
620 2533 L
620 2534 L
620 2448 L
620 2590 L
620 2317 L
620 2713 L
620 2593 L
620 2282 L
620 2402 L
620 2553 L
620 2566 L
620 2490 L
620 2740 L
620 2530 L
620 2818 L
620 2205 L
620 2865 L
620 2367 L
620 3180 L
620 2802 L
620 2972 L
620 2819 L
620 2329 L
620 2941 L
620 2948 L
620 2904 L
620 2762 L
620 3063 L
620 2470 L
620 2748 L
620 2630 L
620 2972 L
620 2778 L
620 2907 L
620 2805 L
620 2551 L
620 3358 L
620 2902 L
620 2823 L
620 3126 L
620 2435 L
620 3129 L
620 3245 L
620 3064 L
620 2952 L
620 3103 L
620 2951 L
620 3003 L
620 2961 L
620 3107 L
620 3213 L
620 3167 L
620 2927 L
620 3161 L
620 3393 L
620 3235 L
620 3017 L
620 3245 L
620 2912 L
620 3345 L
620 3283 L
620 3073 L
620 3514 L
620 3193 L
620 3292 L
620 3133 L
620 3010 L
620 3103 L
620 3219 L
620 3081 L
620 3936 L
620 3517 L
620 3186 L
620 3550 L
620 3037 L
620 3603 L
620 3674 L
620 3729 L
620 3497 L
620 3394 L
620 3478 L
620 3299 L
620 3338 L
620 3678 L
620 3497 L
620 3521 L
620 3478 L
620 3764 L
620 3585 L
620 3355 L
620 3538 L
620 3259 L
620 3857 L
620 2950 L
620 3660 L
620 3432 L
620 3752 L
620 3531 L
620 3499 L
620 3601 L
620 3615 L
620 3739 L
620 3876 L
620 3333 L
620 3560 L
620 3517 L
620 3694 L
620 3302 L
620 3790 L
620 3703 L
620 3446 L
620 3800 L
620 3509 L
620 3731 L
620 3545 L
620 3528 L
620 3772 L
620 3868 L
620 3961 L
620 3524 L
620 3772 L
620 3949 L
620 3638 L
620 3948 L
620 3627 L
620 3239 L
620 3799 L
620 3949 L
620 3815 L
620 3527 L
620 3595 L
620 4173 L
620 3691 L
620 3752 L
620 3916 L
620 4227 L
620 3467 L
620 3422 L
620 3784 L
620 4065 L
620 4340 L
620 3857 L
620 3716 L
620 4148 L
620 3810 L
620 3958 L
620 3604 L
620 3787 L
620 3325 L
620 3747 L
620 3587 L
620 4240 L
620 4075 L
620 4412 L
620 3703 L
620 3774 L
620 4208 L
620 4065 L
620 4089 L
620 3714 L
620 3472 L
620 3880 L
620 4217 L
620 3411 L
620 4586 L
620 4233 L
620 4357 L
620 4151 L
620 4457 L
620 4242 L
620 3843 L
620 3785 L
620 4281 L
620 4260 L
620 4190 L
620 4278 L
620 4183 L
620 4595 L
620 4253 L
620 3977 L
620 4473 L
620 4274 L
620 4571 L
620 4743 L
620 4305 L
620 4090 L
620 4178 L
620 4281 L
620 4432 L
620 3961 L
620 3809 L
620 4335 L
620 4247 L
620 4795 L
620 4502 L
620 4348 L
620 4228 L
620 4276 L
620 4428 L
620 4863 L
620 4561 L
620 4634 L
620 4453 L
620 4038 L
620 4489 L
620 4450 L
620 4099 L
620 4322 L
620 4636 L
620 4464 L
620 4215 L
620 4765 L
620 4169 L
620 4324 L
620 4369 L
620 4842 L
620 3963 L
620 4394 L
620 4323 L
620 4256 L
620 4274 L
620 4240 L
620 4127 L
620 4059 L
620 4358 L
620 4405 L
620 4745 L
620 3782 L
620 4441 L
620 4450 L
620 4310 L
620 4387 L
620 4346 L
620 4364 L
620 4607 L
620 4174 L
620 4544 L
620 4038 L
620 4081 L
620 4045 L
620 3905 L
620 4228 L
620 4050 L
620 3938 L
620 4049 L
620 4666 L
620 3913 L
620 4208 L
620 4016 L
620 3956 L
620 4050 L
620 4670 L
620 3793 L
620 3891 L
620 3785 L
620 3950 L
620 3782 L
620 3750 L
620 3748 L
620 3871 L
620 4006 L
620 3481 L
620 3963 L
620 3707 L
620 4170 L
620 4084 L
620 3794 L
620 3954 L
620 3572 L
620 3553 L
620 3793 L
620 3639 L
620 3954 L
620 3655 L
620 4068 L
620 3678 L
620 3886 L
620 4183 L
620 3599 L
620 3685 L
620 3775 L
620 3453 L
620 3456 L
620 4025 L
620 3972 L
620 3093 L
620 3649 L
620 4129 L
620 3642 L
620 3950 L
620 4050 L
620 4054 L
620 3415 L
620 4049 L
620 3483 L
620 3990 L
620 3402 L
620 3444 L
620 3386 L
620 3698 L
620 3821 L
620 4002 L
620 3683 L
620 3728 L
620 3744 L
620 3685 L
620 3721 L
620 3850 L
620 3567 L
620 3615 L
620 3964 L
620 3052 L
620 3166 L
620 3703 L
620 3657 L
620 3701 L
620 3898 L
620 3406 L
620 3895 L
620 3764 L
620 3447 L
620 3986 L
620 3930 L
620 3649 L
620 3868 L
620 3596 L
620 3700 L
620 3572 L
620 3741 L
620 3904 L
620 3743 L
620 3562 L
620 2987 L
620 3837 L
620 3957 L
620 3836 L
620 3281 L
620 3315 L
620 3649 L
620 3934 L
620 3451 L
620 3331 L
620 3909 L
620 3764 L
620 3563 L
620 3302 L
620 3290 L
620 3610 L
620 3488 L
620 3354 L
620 3377 L
620 3116 L
620 3626 L
620 3191 L
620 3549 L
620 3556 L
620 3809 L
620 3401 L
620 3433 L
620 3837 L
620 3728 L
620 3456 L
620 3137 L
620 3308 L
620 3476 L
620 3501 L
620 3214 L
620 3596 L
620 3628 L
620 3626 L
620 3589 L
620 3658 L
620 2926 L
620 3395 L
620 3125 L
620 3474 L
620 3644 L
620 3064 L
620 4029 L
620 3456 L
620 3768 L
620 3619 L
620 3046 L
620 3146 L
620 3161 L
620 3606 L
620 3170 L
620 2914 L
620 3723 L
620 3245 L
620 3300 L
620 3435 L
620 3105 L
620 3200 L
620 3717 L
620 3205 L
620 3589 L
620 3297 L
620 3376 L
620 3866 L
620 3499 L
620 3691 L
620 2971 L
620 3338 L
620 3433 L
620 3642 L
620 3204 L
620 3302 L
620 3524 L
620 2987 L
620 3465 L
620 3379 L
620 3492 L
620 3796 L
L2 C07 COSGR

%
%================
% Legend - Begin
%================
%
GSN 4240 5180 M
4480 5180 L
LWMC SL  C07 COSGR
GSN 4540 5141 M helvM (4.0 uM) show grestore
%
%================
% Legend - End
%================
%

%
% Main frame
%
L10
GSN 
620 1700 M
4220 1700 L
4220 5300 L
620 5300 L
closepath SGR

%
% X axis: large tics
%
L10
%
% X axis: small tics
%
L5
%
% Y axis: large tics
%
L10
GSN 620 1735 M 54 0 rL SGR
GSN 4220 1735 M -54 0 rL SGR
helvS (-0.02) 560 1735 ylabel
GSN 620 2674 M 54 0 rL SGR
GSN 4220 2674 M -54 0 rL SGR
helvS (-0.01) 560 2674 ylabel
GSN 620 3613 M 54 0 rL SGR
GSN 4220 3613 M -54 0 rL SGR
helvS (0) 560 3613 ylabel
GSN 620 4551 M 54 0 rL SGR
GSN 4220 4551 M -54 0 rL SGR
helvS (0.01) 560 4551 ylabel
%
% Y axis: small tics
%
L5
GSN 620 1735 M 36 0 rL SGR
GSN 4220 1735 M -36 0 rL SGR
GSN 620 1970 M 36 0 rL SGR
GSN 4220 1970 M -36 0 rL SGR
GSN 620 2205 M 36 0 rL SGR
GSN 4220 2205 M -36 0 rL SGR
GSN 620 2439 M 36 0 rL SGR
GSN 4220 2439 M -36 0 rL SGR
GSN 620 2674 M 36 0 rL SGR
GSN 4220 2674 M -36 0 rL SGR
GSN 620 2909 M 36 0 rL SGR
GSN 4220 2909 M -36 0 rL SGR
GSN 620 3143 M 36 0 rL SGR
GSN 4220 3143 M -36 0 rL SGR
GSN 620 3378 M 36 0 rL SGR
GSN 4220 3378 M -36 0 rL SGR
GSN 620 3613 M 36 0 rL SGR
GSN 4220 3613 M -36 0 rL SGR
GSN 620 3847 M 36 0 rL SGR
GSN 4220 3847 M -36 0 rL SGR
GSN 620 4082 M 36 0 rL SGR
GSN 4220 4082 M -36 0 rL SGR
GSN 620 4316 M 36 0 rL SGR
GSN 4220 4316 M -36 0 rL SGR
GSN 620 4551 M 36 0 rL SGR
GSN 4220 4551 M -36 0 rL SGR
GSN 620 4786 M 36 0 rL SGR
GSN 4220 4786 M -36 0 rL SGR
GSN 620 5020 M 36 0 rL SGR
GSN 4220 5020 M -36 0 rL SGR
GSN 620 5255 M 36 0 rL SGR
GSN 4220 5255 M -36 0 rL SGR

%
% X axis - residual panel
%
GSN L5 620 3613 M 4220 3613 L SDA G50 SGR

%
% X-Axis label:
%
gsave 620 1370 M 
[
[(Helvetica) 180 0 true true 0 (t)]
[(Helvetica) 180 0 true true 0 (i)]
[(Helvetica) 180 0 true true 0 (m)]
[(Helvetica) 180 0 true true 0 (e)]
] 0 MCshow grestore

%
% Y-Axis label:
%
gsave 234 3500 M 
currentpoint gsave translate 90 rotate 0 0 moveto
[
[(Helvetica) 180 0 true true 0 (r)]
[(Helvetica) 180 0 true true 0 (e)]
[(Helvetica) 180 0 true true 0 (s)]
[(Helvetica) 180 0 true true 0 (i)]
[(Helvetica) 180 0 true true 0 (d)]
[(Helvetica) 180 0 true true 0 (u)]
[(Helvetica) 180 0 true true 0 (a)]
[(Helvetica) 180 0 true true 0 (l)]
[(Helvetica) 180 0 true true 0 (s)]
] 0 MCshow grestore

end
showpage
%%Trailer
%%EOF
