%!PS-Adobe-3.0 EPSF-3.0
%%BoundingBox: 0 0 514 550
%%Creator: BioKin Ltd.
%%DocumentFonts: Symbol Helvetica
%%EndComments
%
/bkdict 256 dict def
bkdict begin
/M {moveto} def 
/R {rmoveto} def
/L {lineto} def
/rL {rlineto} def
/GSN {gsave newpath} def
/SGR {stroke grestore} def
/COSGR {gsave setrgbcolor stroke grestore grestore} def
/SL {setlinewidth} def
/LWMB {12} def             % line width - model curves, black & white
/LWMC {10} def             % line width - model curves, color
/L2 {2.5 setlinewidth} def
/L5 {5 setlinewidth} def
/L10 {10 setlinewidth} def
/G50 {0.5 setgray} def
/SDA {[10  20] 0 setdash} def % axes
/helvT {/Helvetica findfont 100 scalefont setfont} def % tiny
/helvS {/Helvetica findfont 125 scalefont setfont} def % small
/helvM {/Helvetica findfont 150 scalefont setfont} def % medium
/helvL {/Helvetica findfont 175 scalefont setfont} def % large
/xlabel {gsave M dup
   stringwidth exch -0.5 mul exch rmoveto show grestore} def 
/ylabel {gsave M 90 rotate dup
   stringwidth exch -0.5 mul exch rmoveto show grestore} def
/ylabelresid {gsave M dup
   stringwidth exch -1 mul exch rmoveto show grestore} def
% ======
% Shapes
% ======
% Circle:
/Circ {0 360 arc closepath} def
%
% Square:
/Squa {dup dup -0.5 mul dup dup R -2 mul 0 exch rL 1 mul 0 rL dup 0 exch -1 mul rL closepath} def
%
% Triangle Up:
/TriU {dup dup dup -0.4 mul exch -0.5 mul exch R dup 0.5 mul exch rL dup -1 mul exch 0.5 mul exch rL closepath} def 
%
% Triangle Down:
/TriD {dup dup dup 0.4 mul exch -0.5 mul exch R dup 0.5 mul exch -1 mul rL dup 0.5 mul exch rL closepath} def 
%
% Diamond:
/Diam {45 rotate Squa} def
% ======
% Fills
% ======
/GRF {gsave setgray fill grestore} def                    % gray-level Fill
/COF {gsave setrgbcolor fill grestore} def                % color fill
% ======
% Colors
% ======
/C01 {1.00	0.00	0.00} def      % Red
/C02 {0.00	0.00	1.00} def      % Blue
/C03 {0.00	0.39	0.00} def      % Dark Green
/C04 {0.78	0.08	0.52} def      % Medium Violet Red
/C05 {0.55	0.27	0.07} def      % Saddle Brown
/C06 {0.10	0.70	0.70} def      % (cyan)
/C07 {1.00	0.55	0.00} def      % Dark Orange
/C08 {0.63	0.13	0.94} def      % Purple
/C09 {0.00	0.75	1.00} def      % Deep Sky Blue
/C10 {0.20	0.80	0.20} def      % Lime Green
/C11 {0.47	0.53	0.60} def      % Light Slate Gray
/C12 {0.00	0.00	0.00} def      % Black            % or: {0.19	0.31	0.31} def      % Dark Slate Gray
%
/LGR {0.75} def % light gray
/DGR {0.33} def % dark gray
%
% =============
% Dash patterns
% =============
/dash01 { [80  20] 0 setdash } def
/dash02 { [40  20] 0 setdash } def
/dash03 { [80  20  10  20] 0 setdash } def
/dash04 { [40  20  10  20] 0 setdash } def
/dash05 { [80  20  10  10  10  20] 0 setdash } def
/dash06 { [40  20  10  10  10  20] 0 setdash } def
/dash07 { [10  10] 0 setdash } def
%
/MFshow {
   { dup 5 get 3 ge
     { 5 get 3 eq {gsave} {grestore} ifelse }
     {dup dup 0 get findfont exch 1 get scalefont setfont
     [ currentpoint ] exch dup 2 get 0 exch R dup 5 get 2 ne {dup dup 6
     get exch 4 get {show} {stringwidth pop 0 R} ifelse }if dup 5 get 0 eq
     {dup 3 get {2 get neg 0 exch R pop} {pop aload pop M} ifelse} {dup 5
     get 1 eq {dup 2 get exch dup 3 get exch 6 get stringwidth pop -2 div
     dup 0 R} {dup 6 get stringwidth pop -2 div 0 R 6 get
     show 2 index {aload pop M neg 3 -1 roll neg R pop pop} {pop pop pop
     pop aload pop M} ifelse }ifelse }ifelse }
     ifelse }
   forall} bind def
/MFwidth {0 exch {dup 3 get{dup dup 0 get findfont exch 1 get scalefont
     setfont 6 get stringwidth pop add} {pop} ifelse} forall} bind def
/MCshow { currentpoint stroke M
  exch dup MFwidth -2 div 3 -1 roll R MFshow } def
%
end
%%EndProlog
bkdict begin
0.1 0.1 scale
%
% Model curves:
%

GSN 753 5013 M
753 5013 L
786 5025 L
820 5039 L
853 5053 L
886 5067 L
920 5081 L
929 5085 L
953 5094 L
986 5107 L
1020 5120 L
1053 5131 L
1086 5141 L
1106 5146 L
1120 5149 L
1153 5155 L
1186 5160 L
1220 5164 L
1253 5166 L
1282 5166 L
1286 5166 L
1319 5166 L
1353 5165 L
1386 5163 L
1419 5161 L
1453 5158 L
1459 5157 L
1486 5155 L
1519 5151 L
1553 5147 L
1586 5143 L
1619 5138 L
1635 5135 L
1653 5132 L
1686 5125 L
1719 5117 L
1753 5109 L
1786 5099 L
1812 5090 L
1819 5088 L
1853 5075 L
1886 5061 L
1919 5045 L
1953 5027 L
1986 5006 L
1988 5005 L
2019 4984 L
2053 4958 L
2086 4929 L
2119 4897 L
2153 4861 L
2165 4847 L
2186 4821 L
2219 4776 L
2253 4727 L
2286 4673 L
2319 4614 L
2341 4572 L
2353 4550 L
2386 4480 L
2419 4404 L
2453 4323 L
2486 4237 L
2518 4150 L
2519 4145 L
2553 4049 L
2586 3949 L
2619 3846 L
2653 3741 L
2686 3633 L
2694 3607 L
2719 3526 L
2753 3419 L
2786 3314 L
2819 3212 L
2853 3114 L
2871 3063 L
2886 3021 L
2919 2935 L
2953 2855 L
2986 2782 L
3019 2718 L
3047 2670 L
3053 2661 L
3086 2613 L
3119 2573 L
3153 2540 L
3186 2515 L
3219 2496 L
3224 2494 L
3253 2483 L
3286 2474 L
3319 2468 L
3353 2465 L
3386 2464 L
3400 2463 L
3419 2463 L
3453 2462 L
3476 2462 L
3486 2462 L
3519 2462 L
3553 2462 L
3577 2462 L
3586 2462 L
3619 2462 L
3653 2462 L
3686 2462 L
3719 2462 L
3753 2462 L
3754 2462 L
3786 2462 L
3819 2462 L
3853 2462 L
3886 2462 L
3919 2462 L
3930 2462 L
3953 2462 L
3986 2462 L
4019 2462 L
4053 2462 L
4086 2462 L
4086 2462 L
LWMC SL  C03 COSGR

%
% Experimental data:
%
GSN 777 4894 M
1388 4883 L
1552 4918 L
1652 5053 L
1723 4838 L
1778 4692 L
1824 4708 L
1863 4660 L
1896 4635 L
1926 4682 L
1952 4766 L
1976 4830 L
1998 5022 L
2019 5115 L
2037 4788 L
2055 5117 L
2071 4961 L
2086 4802 L
2101 4774 L
2115 4797 L
2128 5054 L
2140 4828 L
2152 4751 L
2163 5118 L
2174 5046 L
2184 4841 L
2194 4658 L
2204 4564 L
2213 4807 L
2222 4837 L
2230 4778 L
2239 4874 L
2247 4710 L
2255 4698 L
2262 4887 L
2270 4654 L
2277 4726 L
2284 4644 L
2290 4862 L
2297 4767 L
2303 4627 L
2310 4463 L
2316 4568 L
2322 4506 L
2328 4551 L
2333 4598 L
2339 4658 L
2344 4631 L
2350 4738 L
2355 4487 L
2360 4500 L
2365 4584 L
2370 4643 L
2375 4546 L
2380 4372 L
2384 4634 L
2389 4558 L
2393 4788 L
2398 4563 L
2402 4399 L
2407 4392 L
2411 4579 L
2415 4511 L
2419 4470 L
2423 4636 L
2427 4518 L
2431 4762 L
2435 4502 L
2438 4391 L
2442 4550 L
2446 4496 L
2449 4375 L
2453 4406 L
2456 4500 L
2460 4439 L
2463 4352 L
2467 4244 L
2470 4300 L
2473 4419 L
2476 4479 L
2480 4299 L
2483 4338 L
2486 4558 L
2489 4341 L
2492 4471 L
2495 4320 L
2498 4403 L
2501 4240 L
2504 4472 L
2507 4383 L
2510 4213 L
2512 4378 L
2515 4464 L
2518 4342 L
2521 4390 L
2523 4287 L
2526 4325 L
2529 4181 L
2531 3997 L
2534 4204 L
2536 4189 L
2539 4253 L
2541 4221 L
2544 4113 L
2546 4003 L
2549 4169 L
2551 4228 L
2554 4192 L
2556 4113 L
2558 4180 L
2561 4228 L
2563 4030 L
2565 4015 L
2568 4384 L
2570 4309 L
2572 4256 L
2574 4139 L
2576 3946 L
2579 4518 L
2581 4084 L
2583 3963 L
2585 4155 L
2587 4260 L
2589 4135 L
2591 4039 L
2593 4099 L
2595 4011 L
2597 4135 L
2599 4043 L
2601 4051 L
2603 4287 L
2605 3864 L
2607 3968 L
2609 4016 L
2611 4093 L
2613 4053 L
2615 3842 L
2617 3912 L
2618 4029 L
2620 4068 L
2622 4071 L
2624 4120 L
2626 4069 L
2627 3824 L
2629 3888 L
2631 4012 L
2633 4023 L
2634 3944 L
2636 4096 L
2638 3910 L
2640 3953 L
2641 3892 L
2643 4019 L
2645 3853 L
2646 4031 L
2648 3936 L
2650 3576 L
2651 3934 L
2653 3830 L
2654 3952 L
2656 3796 L
2658 3952 L
2659 3793 L
2661 3646 L
2662 3784 L
2664 4006 L
2665 3980 L
2667 3758 L
2668 3861 L
2670 3938 L
2671 3922 L
2673 3730 L
2674 3866 L
2676 3872 L
2677 3746 L
2679 3870 L
2680 3826 L
2682 3800 L
2683 3798 L
2685 3741 L
2686 3724 L
2687 3844 L
2689 3725 L
2690 3766 L
2692 3454 L
2693 3920 L
2694 3821 L
2696 3657 L
2697 3620 L
2698 3840 L
2700 3882 L
2701 3728 L
2702 3872 L
2704 3684 L
2705 3654 L
2706 3690 L
2708 3589 L
2709 3806 L
2710 3674 L
2712 3781 L
2713 3706 L
2714 3746 L
2715 3802 L
2717 3606 L
2718 3617 L
2719 3701 L
2720 3838 L
2722 3673 L
2723 3558 L
2724 3794 L
2725 3722 L
2726 3578 L
2728 3664 L
2729 3531 L
2730 3625 L
2731 3529 L
2732 3733 L
2734 3574 L
2735 3688 L
2736 3463 L
2737 3467 L
2738 3638 L
2739 3538 L
2741 3490 L
2742 3387 L
2743 3731 L
2744 3448 L
2745 3616 L
2746 3502 L
2747 3815 L
2748 3557 L
2749 3573 L
2751 3592 L
2752 3482 L
2753 3786 L
2754 3438 L
2755 3528 L
2756 3563 L
2757 3445 L
2758 3574 L
2759 3473 L
2760 3528 L
2761 3706 L
2762 3587 L
2763 3550 L
2764 3595 L
2765 3363 L
2767 3730 L
2768 3771 L
2769 3586 L
2770 3273 L
2771 3578 L
2772 3466 L
2773 3453 L
2774 3617 L
2775 3320 L
2776 3524 L
2777 3402 L
2778 3622 L
2779 3446 L
2780 3453 L
2781 3535 L
2782 3288 L
2783 3528 L
2783 3550 L
2784 3500 L
2785 3387 L
2786 3489 L
2787 3284 L
2788 3381 L
2789 3318 L
2790 3419 L
2791 3223 L
2792 3574 L
2793 3432 L
2794 3476 L
2795 3410 L
2796 3401 L
2797 3265 L
2798 3588 L
2798 3457 L
2799 3617 L
2800 3439 L
2801 3606 L
2802 3460 L
2803 3382 L
2804 3277 L
2805 3449 L
2806 3286 L
2807 3403 L
2807 3211 L
2808 3452 L
2809 3474 L
2810 3323 L
2811 3312 L
2812 3435 L
2813 3255 L
2813 3221 L
2814 3095 L
2815 3365 L
2816 3542 L
2817 3252 L
2818 3398 L
2819 3440 L
2819 3328 L
2820 3403 L
2821 3089 L
2822 3293 L
2823 3524 L
2824 3244 L
2824 3156 L
2825 3277 L
2826 3293 L
2827 3673 L
2828 3251 L
2828 3042 L
2829 3235 L
2830 3180 L
2831 3261 L
2832 3128 L
2832 3265 L
2833 3153 L
2834 3242 L
2835 3369 L
2836 3169 L
2836 3165 L
2837 3088 L
2838 3278 L
2839 3132 L
2840 3098 L
2840 3151 L
2841 3124 L
2842 3211 L
2843 3377 L
2843 3138 L
2844 3191 L
2845 3158 L
2846 2984 L
2846 3187 L
2847 3030 L
2848 3233 L
2849 3466 L
2849 3035 L
2850 3085 L
2851 3314 L
2852 2998 L
2852 3185 L
2853 3207 L
2854 3239 L
2855 3278 L
2855 3379 L
2856 3132 L
2857 3216 L
2857 3157 L
2858 3097 L
2859 3130 L
2860 3181 L
2860 3011 L
2861 3061 L
2862 3014 L
2862 3081 L
2863 2990 L
2864 3291 L
2865 3000 L
2865 3390 L
2866 3057 L
2867 2925 L
2867 3064 L
2868 3162 L
2869 3264 L
2869 3184 L
2870 3111 L
2871 3299 L
2871 3137 L
2872 3049 L
2873 2916 L
2873 3086 L
2874 3271 L
2875 2990 L
2876 3124 L
2876 3299 L
2877 3047 L
2878 3022 L
2878 3008 L
2879 3194 L
2880 3158 L
2880 2984 L
2881 3112 L
2881 2992 L
2882 3052 L
2883 3235 L
2883 3066 L
2884 3195 L
2885 3255 L
2885 2927 L
2886 2979 L
2887 3259 L
2887 3197 L
2888 2986 L
2889 3080 L
2889 3066 L
2892 3287 L
2894 3148 L
2897 3064 L
2899 3201 L
2902 2957 L
2904 3189 L
2907 3173 L
2909 2796 L
2911 2898 L
2914 2920 L
2916 2975 L
2918 2856 L
2921 3114 L
2923 2835 L
2925 2822 L
2927 2868 L
2929 2855 L
2932 2860 L
2934 2908 L
2936 2754 L
2938 2900 L
2940 2882 L
2942 2852 L
2944 2878 L
2946 2733 L
2948 2904 L
2950 2833 L
2952 2696 L
2954 2735 L
2956 2739 L
2958 2805 L
2960 2532 L
2962 2784 L
2964 2857 L
2966 2860 L
2968 2762 L
2970 2834 L
2971 2761 L
2973 2710 L
2975 2584 L
2977 2551 L
2979 2701 L
2980 2577 L
2982 2788 L
2984 2597 L
2986 2691 L
2987 2667 L
2989 2818 L
2991 2671 L
2993 2788 L
2994 2596 L
2996 2738 L
2998 2682 L
2999 2585 L
3001 2599 L
3003 2390 L
3004 2740 L
3006 2489 L
3007 2571 L
3009 2615 L
3011 2565 L
3012 2507 L
3014 2395 L
3015 2638 L
3017 2546 L
3018 2437 L
3020 2471 L
3021 2382 L
3023 2595 L
3024 2518 L
3026 2519 L
3027 2458 L
3029 2297 L
3030 2545 L
3032 2553 L
3033 2545 L
3035 2443 L
3036 2475 L
3038 2663 L
3039 2239 L
3040 2614 L
3042 2356 L
3043 2503 L
3045 2511 L
3046 2495 L
3047 2345 L
3049 2642 L
3050 2467 L
3051 2569 L
3053 2414 L
3054 2246 L
3055 2369 L
3057 2379 L
3058 2458 L
3059 2358 L
3061 2368 L
3062 2306 L
3063 2160 L
3065 2276 L
3066 2407 L
3067 2359 L
3068 2237 L
3070 2412 L
3071 2382 L
3072 2352 L
3073 2521 L
3075 2190 L
3076 2280 L
3077 2455 L
3078 2123 L
3079 2372 L
3081 2439 L
3082 2394 L
3083 2391 L
3084 2220 L
3085 2392 L
3087 2269 L
3088 2407 L
3089 1952 L
3090 2469 L
3091 2253 L
3092 2178 L
3094 2294 L
3095 2180 L
3096 2194 L
3097 2293 L
3098 2315 L
3099 2315 L
3100 2239 L
3101 2312 L
3103 2259 L
3104 2184 L
3105 2362 L
3106 2160 L
3107 2448 L
3108 2190 L
3109 2105 L
3110 2335 L
3111 2229 L
3112 2212 L
3113 2335 L
3114 2415 L
3115 2212 L
3116 2246 L
3117 2237 L
3119 2165 L
3120 2218 L
3121 2019 L
3122 2214 L
3123 2074 L
3124 1998 L
3125 2099 L
3126 2166 L
3127 2099 L
3128 2015 L
3129 2242 L
3130 2175 L
3131 1965 L
3132 2212 L
3133 2111 L
3134 2438 L
3135 2098 L
3136 2094 L
3136 2018 L
3137 2062 L
3138 2141 L
3139 2321 L
3140 2297 L
3141 2216 L
3142 2101 L
3143 2187 L
3144 2129 L
3145 2234 L
3146 2071 L
3147 2072 L
3148 2341 L
3149 2039 L
3150 2100 L
3151 2116 L
3151 2134 L
3152 2251 L
3153 2165 L
3154 1995 L
3155 2076 L
3156 2074 L
3157 2161 L
3158 2201 L
3159 2058 L
3160 2056 L
3160 2066 L
3161 1982 L
3162 2042 L
3163 2098 L
3164 2148 L
3165 2180 L
3166 1998 L
3166 2096 L
3167 2066 L
3168 1999 L
3169 1970 L
3170 1982 L
3171 2056 L
3172 2143 L
3172 2202 L
3173 2054 L
3174 2244 L
3175 2101 L
3176 2285 L
3177 2013 L
3177 2078 L
3178 2140 L
3179 2310 L
3180 2148 L
3181 1869 L
3181 2054 L
3182 2156 L
3183 2000 L
3184 2112 L
3185 2108 L
3185 1944 L
3186 2088 L
3187 2066 L
3188 2090 L
3189 2208 L
3189 2014 L
3190 2040 L
3191 2223 L
3192 2144 L
3193 2030 L
3193 2217 L
3194 2062 L
3195 2018 L
3196 2058 L
3196 1975 L
3197 2058 L
3198 2030 L
3199 1842 L
3199 2154 L
3200 2068 L
3201 2100 L
3202 2013 L
3202 2222 L
3203 2032 L
3204 1892 L
3205 1943 L
3205 1901 L
3206 1992 L
3207 2235 L
3208 2007 L
3208 2125 L
3209 2169 L
3210 2168 L
3210 1845 L
3211 1956 L
3212 2104 L
3213 2216 L
3213 2080 L
3214 2086 L
3215 2148 L
3215 1984 L
3216 2036 L
3217 2211 L
3218 2136 L
3218 2032 L
3219 1902 L
3220 2216 L
3220 2074 L
3221 2409 L
3222 2132 L
3222 2368 L
3223 2141 L
3224 2321 L
3224 1860 L
3225 2033 L
3226 2101 L
3227 1988 L
3227 2238 L
3228 1915 L
3229 2190 L
3229 1968 L
3230 2126 L
3231 2099 L
3231 1899 L
3232 2176 L
3233 1888 L
3233 2172 L
3234 2004 L
3235 2242 L
3235 2054 L
3236 2086 L
3236 2105 L
3237 2061 L
3238 1957 L
3238 2067 L
3239 2182 L
3240 2088 L
3240 2063 L
3241 2136 L
3242 2012 L
3242 1974 L
3243 1883 L
3244 2122 L
3244 1980 L
3245 2197 L
3245 2024 L
3246 2080 L
3247 2068 L
3247 1833 L
3248 2014 L
3249 2286 L
3249 2122 L
3250 1942 L
3250 2026 L
3251 2131 L
3252 2091 L
3252 2116 L
3253 2012 L
3253 1998 L
3254 2102 L
3255 2130 L
3255 2138 L
3256 1893 L
3257 2256 L
3257 1981 L
3258 2183 L
3258 2054 L
3259 2347 L
3259 1942 L
3260 2170 L
3261 2061 L
3261 2022 L
3262 2045 L
3262 2160 L
3263 2226 L
3264 2204 L
3264 2125 L
3265 2091 L
3265 2234 L
3266 1941 L
3267 1974 L
3267 2133 L
3268 1976 L
3268 2142 L
3269 2226 L
3269 2049 L
3270 2167 L
3271 2003 L
3271 2113 L
3272 1996 L
3272 2201 L
3273 2038 L
3273 2183 L
3274 2130 L
3275 2196 L
3275 2138 L
3276 2064 L
3276 1984 L
3277 2231 L
3277 2218 L
3278 2172 L
3278 2006 L
3279 2076 L
3280 2216 L
3280 2232 L
3281 2046 L
3281 2142 L
3282 2133 L
3282 2132 L
3283 2110 L
3283 2210 L
3284 2046 L
3284 2140 L
3285 2134 L
3285 2068 L
3286 2339 L
3287 2034 L
3287 2177 L
3288 2193 L
3288 2220 L
3289 2088 L
3289 2103 L
3290 2148 L
3290 2311 L
3291 1989 L
3291 2278 L
3292 2045 L
3292 2168 L
3293 2261 L
3293 2006 L
3294 2044 L
3294 2196 L
3295 2136 L
3295 2180 L
3296 2128 L
3297 2086 L
3297 2186 L
3298 2070 L
3298 2248 L
3299 2174 L
3299 2222 L
3300 1992 L
3300 2074 L
3301 2104 L
3301 2122 L
3302 2010 L
3302 2084 L
3303 1918 L
3303 2304 L
3304 2052 L
3304 2262 L
3305 2271 L
3305 2075 L
3306 2011 L
3306 2251 L
3307 2307 L
3307 2166 L
3308 2044 L
3308 2067 L
3309 2116 L
3309 2182 L
3310 2076 L
3310 2323 L
3311 2101 L
3311 2172 L
3312 2187 L
3312 2298 L
3312 1931 L
3313 2362 L
3313 2064 L
3314 2108 L
3314 2269 L
3315 2027 L
3315 2118 L
3316 2152 L
3316 2277 L
3317 2210 L
3317 2404 L
3318 2027 L
3318 2120 L
3319 2206 L
3319 2025 L
3320 2176 L
3320 2148 L
3321 2129 L
3321 1954 L
3321 2134 L
3322 2160 L
3322 2142 L
3323 2147 L
3323 2117 L
3324 2411 L
3324 2154 L
3325 2262 L
3325 2306 L
3326 2339 L
3326 2290 L
3327 2102 L
3327 2250 L
3327 2425 L
3328 2227 L
3328 2094 L
3329 2268 L
3329 2028 L
3330 2252 L
3330 2070 L
3331 2234 L
3331 2233 L
3332 2412 L
3332 2162 L
3332 2080 L
3333 2232 L
3333 2546 L
3334 2061 L
3334 1972 L
3335 2256 L
3335 2166 L
3336 2190 L
3336 2174 L
3336 2098 L
3337 2293 L
3337 1995 L
3338 2351 L
3338 2082 L
3339 2379 L
3339 2046 L
3339 2354 L
3340 2208 L
3340 2085 L
3341 2252 L
3341 2258 L
3342 2318 L
3342 2160 L
3343 2240 L
3343 2218 L
3343 2096 L
3344 2253 L
3344 2108 L
3345 2069 L
3345 2218 L
3346 2180 L
3346 2073 L
3346 2263 L
3347 2329 L
3347 2212 L
3348 2190 L
3348 2292 L
3348 2283 L
3349 2071 L
3349 2271 L
3350 2007 L
3350 2160 L
3351 2127 L
3351 2282 L
3351 2305 L
3352 2382 L
3352 2129 L
3353 2114 L
3353 2206 L
3353 2194 L
3354 2193 L
3354 2125 L
3355 2142 L
3355 2222 L
3355 2328 L
3356 2208 L
3356 2257 L
3357 2182 L
3357 2253 L
3358 2174 L
3358 2517 L
3358 2194 L
3359 2305 L
3359 2348 L
3360 2172 L
3360 2339 L
3360 2186 L
3361 2522 L
3361 2212 L
3362 2261 L
3362 2384 L
3362 2196 L
3363 1972 L
3363 2298 L
3364 2193 L
3364 2389 L
3364 2316 L
3365 1993 L
3365 2323 L
3365 2399 L
3366 2381 L
3366 2361 L
3367 2218 L
3367 2232 L
3367 2238 L
3368 2215 L
3368 2429 L
3369 2163 L
3369 2349 L
3369 2322 L
3370 2251 L
3370 2319 L
3371 2264 L
3371 2344 L
3371 2308 L
3372 2278 L
3372 2202 L
3372 2187 L
3373 1972 L
3373 2203 L
3374 1963 L
3374 2299 L
3374 2019 L
3375 2343 L
3375 2361 L
3375 2169 L
3376 2335 L
3376 2177 L
3377 2283 L
3377 2649 L
3377 2360 L
3378 2238 L
3378 2032 L
3378 2290 L
3379 2188 L
3379 2373 L
3380 2208 L
3380 2215 L
3380 2298 L
3381 2485 L
3381 2171 L
3381 2317 L
3382 2289 L
3382 2139 L
3383 2270 L
3383 2186 L
3383 2418 L
3384 2177 L
3384 2619 L
3384 2221 L
3385 2381 L
3385 2373 L
3385 2322 L
3386 2216 L
3386 2468 L
3387 2271 L
3387 2315 L
3387 2474 L
3388 2126 L
3388 2248 L
3388 2328 L
3389 2241 L
3389 2389 L
3389 2233 L
3390 2211 L
3390 2448 L
3391 2244 L
3391 2349 L
3391 2212 L
3392 2326 L
3392 2241 L
3392 2439 L
3393 2213 L
3393 2457 L
3393 2377 L
3394 2345 L
3394 2123 L
3394 2194 L
3395 2250 L
3395 2164 L
3395 2266 L
3396 2407 L
3396 2223 L
3396 2266 L
3397 2216 L
3397 2310 L
3398 2321 L
3398 2223 L
3398 2297 L
3399 2244 L
3399 2269 L
3399 2225 L
3400 2260 L
3400 2256 L
3400 2228 L
3401 2426 L
3401 2180 L
3401 2352 L
3402 2485 L
3402 2369 L
3402 2471 L
3403 2375 L
3403 2320 L
3403 2451 L
3404 2383 L
3404 2459 L
3404 2514 L
3405 2474 L
3405 2221 L
3405 2338 L
3406 2290 L
3406 2237 L
3406 2308 L
3407 2328 L
3407 2320 L
3407 2353 L
3408 2367 L
3408 2349 L
3408 2421 L
3409 2452 L
3409 2231 L
3409 2411 L
3410 2202 L
3410 2290 L
3410 2468 L
3411 2471 L
3411 2258 L
3411 2363 L
3412 2531 L
3412 2481 L
3412 2265 L
3413 2422 L
3413 2266 L
3413 2270 L
3414 2431 L
3414 2366 L
3414 2350 L
3415 2313 L
3415 2100 L
3415 2409 L
3416 2515 L
3416 2243 L
3416 2441 L
3417 2198 L
3417 2386 L
3417 2370 L
3417 2309 L
3418 2401 L
3418 2457 L
3418 2406 L
3419 2424 L
3419 2310 L
3419 2180 L
3420 2379 L
3420 2697 L
3420 2456 L
3421 2390 L
3421 2310 L
3421 2382 L
3422 2279 L
3422 2350 L
3422 2364 L
3423 2539 L
3423 2281 L
3423 2463 L
3423 2295 L
3424 2489 L
3424 2486 L
3424 2453 L
3425 2517 L
3425 2361 L
3425 2355 L
3426 2323 L
3426 2266 L
3426 2451 L
3427 2523 L
3427 2267 L
3427 2422 L
3428 2317 L
3428 2874 L
3428 2484 L
3428 2291 L
3429 2254 L
3429 2367 L
3429 2630 L
3430 2423 L
3430 2383 L
3430 2342 L
3431 2453 L
3431 2280 L
3431 2527 L
3431 2488 L
3432 2383 L
3432 2363 L
3432 2334 L
3433 2410 L
3433 2485 L
3433 2324 L
3434 2394 L
3434 2529 L
3434 2268 L
3434 2599 L
3435 2498 L
3435 2571 L
3435 2539 L
3436 2417 L
3436 2393 L
3436 2444 L
3437 2381 L
3437 2431 L
3437 2320 L
3437 2367 L
3438 2514 L
3438 2505 L
3438 2517 L
3439 2464 L
3439 2475 L
3439 2604 L
3440 2618 L
3440 2332 L
3440 2393 L
3440 2495 L
3441 2499 L
3441 2312 L
3441 2346 L
3442 2463 L
3442 2625 L
3442 2579 L
3442 2748 L
3443 2569 L
3443 2487 L
3443 2443 L
3444 2447 L
3444 2439 L
3444 2374 L
3444 2573 L
3445 2170 L
3445 2712 L
3445 2383 L
3446 2320 L
3446 2415 L
3446 2612 L
3446 2309 L
3447 2453 L
3447 2359 L
3447 2454 L
3448 2515 L
3448 2551 L
3448 2509 L
3448 2395 L
3449 2536 L
3449 2611 L
3449 2601 L
3450 2237 L
3450 2333 L
3450 2378 L
3450 2492 L
3451 2261 L
3451 2361 L
3451 2401 L
3452 2533 L
3452 2463 L
3452 2419 L
3452 2474 L
3453 2266 L
3453 2453 L
3453 2376 L
3454 2563 L
3454 2491 L
3454 2513 L
3454 2465 L
3455 2601 L
3455 2409 L
3455 2495 L
3455 2438 L
3456 2317 L
3456 2503 L
3456 2578 L
3457 2329 L
3457 2423 L
3457 2242 L
3457 2502 L
3458 2330 L
3458 2505 L
3458 2459 L
3458 2642 L
3459 2445 L
3459 2619 L
3459 2435 L
3460 2594 L
3460 2598 L
3460 2377 L
3460 2389 L
3461 2415 L
3461 2533 L
3461 2573 L
3461 2338 L
3462 2477 L
3462 2507 L
3462 2461 L
3463 2535 L
3463 2349 L
3463 2387 L
3463 2520 L
3464 2473 L
3464 2377 L
3464 2438 L
3464 2521 L
3465 2663 L
3465 2337 L
3465 2611 L
3465 2427 L
3466 2437 L
3466 2575 L
3466 2541 L
3466 2371 L
3467 2473 L
3467 2470 L
3467 2572 L
3468 2586 L
3468 2543 L
3468 2508 L
3468 2600 L
3469 2622 L
3469 2622 L
3469 2583 L
3469 2459 L
3470 2538 L
3470 2423 L
3470 2601 L
3470 2631 L
3471 2556 L
3471 2730 L
3471 2525 L
3471 2681 L
3472 2681 L
3472 2538 L
3472 2451 L
3472 2621 L
3473 2566 L
3473 2563 L
3473 2362 L
3474 2713 L
3474 2488 L
3474 2571 L
3474 2513 L
3475 2339 L
3475 2543 L
3475 2473 L
3475 2531 L
3476 2521 L
3476 2615 L
3476 2417 L
3476 2458 L
3477 2459 L
3477 2416 L
3477 2561 L
3477 2533 L
3478 2505 L
3478 2590 L
3478 2567 L
3478 2448 L
3479 2497 L
3479 2521 L
3479 2573 L
3479 2559 L
3480 2539 L
3480 2598 L
3480 2488 L
3480 2549 L
3481 2624 L
3481 2505 L
3481 2669 L
3481 2693 L
3482 2614 L
3482 2575 L
3482 2511 L
3482 2635 L
3483 2655 L
3483 2647 L
3483 2677 L
3483 2481 L
3484 2589 L
3484 2522 L
3484 2439 L
3484 2409 L
3485 2571 L
3485 2483 L
3485 2529 L
3485 2334 L
3486 2648 L
3486 2411 L
3486 2388 L
3486 2538 L
3487 2595 L
3487 2419 L
3487 2495 L
3487 2489 L
3488 2621 L
3488 2625 L
3488 2689 L
3488 2438 L
3488 2718 L
3489 2535 L
3489 2445 L
3489 2381 L
3489 2711 L
3490 2589 L
3490 2666 L
3490 2424 L
3490 2442 L
3491 2804 L
3491 2721 L
3491 2371 L
3491 2517 L
3492 2376 L
3492 2526 L
3492 2618 L
3492 2480 L
3493 2621 L
3493 2655 L
3493 2584 L
3493 2525 L
3494 2511 L
3494 2528 L
3494 2431 L
3494 2579 L
3494 2379 L
3495 2547 L
3495 2592 L
3495 2627 L
3495 2485 L
3496 2443 L
3496 2469 L
3496 2828 L
3496 2360 L
3497 2641 L
3497 2572 L
3497 2574 L
3497 2635 L
3498 2591 L
3498 2702 L
3498 2558 L
3498 2467 L
3498 2627 L
3499 2714 L
3499 2735 L
3499 2616 L
3499 2780 L
3500 2518 L
3500 2576 L
3506 2722 L
3511 2495 L
3517 2657 L
3522 2710 L
3527 2792 L
3532 2645 L
3537 2714 L
3542 2722 L
3547 2640 L
3552 2792 L
3557 2719 L
3561 2621 L
3566 2704 L
3570 2901 L
3575 2864 L
3579 2781 L
3583 2975 L
3587 2968 L
3591 3017 L
3595 2715 L
3599 2816 L
3603 2788 L
3607 2761 L
3611 2818 L
3614 2684 L
3618 2899 L
3622 2786 L
3625 2671 L
3629 2686 L
3632 2931 L
3636 3034 L
3639 2871 L
3642 2765 L
3646 2811 L
3649 2894 L
3652 2966 L
3655 2900 L
3658 3157 L
3661 2752 L
3664 2568 L
3667 2820 L
3670 2751 L
3673 2875 L
3676 2886 L
3679 2785 L
3682 2844 L
3685 3003 L
3688 2692 L
3690 2927 L
3693 2823 L
3696 2794 L
3698 2973 L
3701 2691 L
3704 2694 L
3706 2792 L
3709 2823 L
3711 2905 L
3714 2912 L
3716 2886 L
3719 2906 L
3721 2705 L
3724 3013 L
3726 2531 L
3728 2955 L
3731 3019 L
3733 2901 L
3735 2800 L
3738 2905 L
3740 2936 L
3742 2878 L
3744 2995 L
3747 2872 L
3749 3152 L
3751 2861 L
3753 2896 L
3755 3077 L
3757 2951 L
3760 2942 L
3762 3203 L
3764 2903 L
3766 2950 L
3768 2741 L
3770 2877 L
3772 2896 L
3774 2933 L
3776 2909 L
3778 3015 L
3780 2870 L
3781 2860 L
3783 2924 L
3785 2775 L
3787 2969 L
3789 2843 L
3791 2923 L
3793 2967 L
3795 2890 L
3796 2802 L
3798 2701 L
3800 3039 L
3802 2908 L
3803 2849 L
3805 2897 L
3807 3011 L
3809 2995 L
3810 2712 L
3812 2772 L
3814 3043 L
3816 2973 L
3817 2702 L
3819 2736 L
3820 2669 L
3822 2946 L
3824 2962 L
3825 2836 L
3827 2775 L
3829 3062 L
3830 2881 L
3832 2991 L
3833 2889 L
3835 2801 L
3836 2916 L
3838 2810 L
3839 2961 L
3841 3139 L
3842 3033 L
3844 2790 L
3845 2952 L
3847 3096 L
3848 2852 L
3850 2853 L
3851 3095 L
3853 2713 L
3854 2939 L
3856 2741 L
3857 2985 L
3859 2935 L
3860 3027 L
3861 2927 L
3863 2890 L
3864 2906 L
3866 2865 L
3867 2842 L
3868 2915 L
3870 2825 L
3871 3065 L
3872 3054 L
3874 2963 L
3875 2739 L
3876 3289 L
3878 3013 L
3879 2828 L
3880 3039 L
3882 2740 L
3883 2817 L
3884 2899 L
3885 3083 L
3887 2926 L
3888 2931 L
3889 2920 L
3890 3051 L
3892 3080 L
3893 3094 L
3894 2876 L
3895 2859 L
3897 2849 L
3898 2968 L
3899 2939 L
3900 2843 L
3901 3021 L
3903 3067 L
3904 2907 L
3905 2924 L
3906 2690 L
3907 2775 L
3908 2846 L
3910 2604 L
3911 2946 L
3912 2821 L
3913 2970 L
3914 3073 L
3915 2661 L
3917 2765 L
3918 2560 L
3919 2964 L
3920 2872 L
3921 3011 L
3922 2841 L
3923 2964 L
3924 3102 L
3925 3001 L
3926 2963 L
3928 3005 L
3929 2928 L
3930 2893 L
3931 3009 L
3932 2890 L
3933 2774 L
3934 2719 L
3935 3023 L
3936 2840 L
3937 3009 L
3938 2884 L
3939 3068 L
3940 2780 L
3941 2870 L
3942 3007 L
3943 2988 L
3944 2902 L
3945 3205 L
3946 2893 L
3947 2685 L
3948 2783 L
3949 2781 L
3950 3121 L
3951 2876 L
3952 2836 L
3953 2845 L
3954 2816 L
3955 2844 L
3956 2971 L
3957 3056 L
3958 2885 L
3959 2931 L
3960 2759 L
3961 2788 L
3962 2797 L
3963 3070 L
3964 2835 L
3965 2941 L
3966 3052 L
3966 2731 L
3967 2827 L
3968 2864 L
3969 2784 L
3970 2831 L
3971 2816 L
3972 2831 L
3973 2874 L
3974 2930 L
3975 2689 L
3976 2786 L
3976 2803 L
3977 2603 L
3978 2890 L
3979 2927 L
3980 2941 L
3981 2979 L
3982 2981 L
3983 2840 L
3983 2609 L
3984 2609 L
3985 2990 L
3986 2738 L
3987 2970 L
3988 2848 L
3989 2812 L
3989 2917 L
3990 2690 L
3991 2769 L
3992 2791 L
3993 2833 L
3994 2850 L
3995 2861 L
3995 2715 L
3996 2839 L
3997 2740 L
3998 2826 L
3999 2951 L
3999 2913 L
4000 2669 L
4001 2661 L
4002 2756 L
4003 2903 L
4003 2890 L
4004 3095 L
4005 2983 L
4006 2777 L
4007 2985 L
4007 2859 L
4008 2620 L
4009 2836 L
4010 2891 L
4011 2917 L
4011 2607 L
4012 2803 L
4013 2695 L
4014 3019 L
4014 2735 L
4015 2885 L
4016 2852 L
4017 2860 L
4017 2948 L
4018 2990 L
4019 3067 L
4020 2927 L
4021 3057 L
4021 2823 L
4022 2957 L
4023 2851 L
4023 2748 L
4024 2904 L
4025 3100 L
4026 2766 L
4026 2874 L
4027 2828 L
4028 2849 L
4029 2984 L
4029 2905 L
4030 2964 L
4031 2882 L
4032 2764 L
4032 2987 L
4033 2908 L
4034 2845 L
4034 2886 L
4035 3087 L
4036 2811 L
4036 2733 L
4037 3052 L
4038 2911 L
4039 2860 L
4039 2962 L
4040 2815 L
4041 2936 L
4041 2890 L
4042 2707 L
4043 2709 L
4043 2784 L
4044 2932 L
4045 2849 L
4045 2717 L
4046 2738 L
4047 2894 L
4047 2852 L
4048 2801 L
4049 2901 L
4050 3083 L
4050 2861 L
4051 3062 L
4052 2593 L
4052 2953 L
4053 2673 L
4053 3045 L
4054 3079 L
4055 2554 L
4055 2848 L
4056 2965 L
4057 2748 L
4057 2988 L
4058 2902 L
4059 2829 L
4059 2620 L
4060 2869 L
4061 2464 L
4061 2882 L
4062 2597 L
L2 C03 COSGR

%
%================
% Legend - Begin
%================
%
GSN 4240 5180 M
4480 5180 L
LWMC SL  C03 COSGR
GSN 4540 5141 M helvM (1.5 uM) show grestore
%
%================
% Legend - End
%================
%

%
% Residuals:
%
GSN 777 1045 M
1388 962 L
1552 990 L
1652 1072 L
1723 963 L
1778 891 L
1824 908 L
1863 890 L
1896 884 L
1926 918 L
1952 972 L
1976 1015 L
1998 1128 L
2019 1187 L
2037 1016 L
2055 1203 L
2071 1125 L
2086 1046 L
2101 1038 L
2115 1058 L
2128 1206 L
2140 1090 L
2152 1055 L
2163 1263 L
2174 1230 L
2184 1125 L
2194 1032 L
2204 987 L
2213 1127 L
2222 1150 L
2230 1125 L
2239 1184 L
2247 1101 L
2255 1101 L
2262 1211 L
2270 1090 L
2277 1135 L
2284 1097 L
2290 1223 L
2297 1177 L
2303 1106 L
2310 1023 L
2316 1087 L
2322 1058 L
2328 1089 L
2333 1121 L
2339 1159 L
2344 1151 L
2350 1215 L
2355 1083 L
2360 1096 L
2365 1148 L
2370 1186 L
2375 1138 L
2380 1049 L
2384 1198 L
2389 1161 L
2393 1293 L
2398 1175 L
2402 1091 L
2407 1092 L
2411 1200 L
2415 1168 L
2419 1150 L
2423 1247 L
2427 1187 L
2431 1326 L
2435 1188 L
2438 1133 L
2442 1225 L
2446 1200 L
2449 1139 L
2453 1161 L
2456 1217 L
2460 1188 L
2463 1146 L
2467 1091 L
2470 1127 L
2473 1196 L
2476 1234 L
2480 1140 L
2483 1166 L
2486 1291 L
2489 1177 L
2492 1252 L
2495 1174 L
2498 1224 L
2501 1139 L
2504 1271 L
2507 1226 L
2510 1137 L
2512 1232 L
2515 1284 L
2518 1220 L
2521 1251 L
2523 1199 L
2526 1224 L
2529 1149 L
2531 1052 L
2534 1170 L
2536 1166 L
2539 1205 L
2541 1191 L
2544 1136 L
2546 1079 L
2549 1175 L
2551 1211 L
2554 1195 L
2556 1155 L
2558 1196 L
2561 1226 L
2563 1121 L
2565 1116 L
2568 1323 L
2570 1285 L
2572 1260 L
2574 1199 L
2576 1097 L
2579 1414 L
2581 1180 L
2583 1117 L
2585 1226 L
2587 1287 L
2589 1222 L
2591 1173 L
2593 1209 L
2595 1164 L
2597 1235 L
2599 1188 L
2601 1196 L
2603 1329 L
2605 1100 L
2607 1161 L
2609 1190 L
2611 1236 L
2613 1217 L
2615 1105 L
2617 1146 L
2618 1214 L
2620 1238 L
2622 1243 L
2624 1273 L
2626 1248 L
2627 1117 L
2629 1155 L
2631 1226 L
2633 1235 L
2634 1195 L
2636 1281 L
2638 1182 L
2640 1209 L
2641 1178 L
2643 1250 L
2645 1163 L
2646 1263 L
2648 1214 L
2650 1019 L
2651 1219 L
2653 1165 L
2654 1234 L
2656 1151 L
2658 1240 L
2659 1155 L
2661 1078 L
2662 1156 L
2664 1280 L
2665 1269 L
2667 1150 L
2668 1209 L
2670 1254 L
2671 1248 L
2673 1145 L
2674 1222 L
2676 1228 L
2677 1162 L
2679 1232 L
2680 1211 L
2682 1199 L
2683 1200 L
2685 1172 L
2686 1164 L
2687 1233 L
2689 1170 L
2690 1195 L
2692 1027 L
2693 1284 L
2694 1233 L
2696 1145 L
2697 1127 L
2698 1250 L
2700 1276 L
2701 1193 L
2702 1275 L
2704 1174 L
2705 1160 L
2706 1182 L
2708 1129 L
2709 1250 L
2710 1180 L
2712 1241 L
2713 1202 L
2714 1227 L
2715 1260 L
2717 1154 L
2718 1162 L
2719 1211 L
2720 1288 L
2722 1200 L
2723 1139 L
2724 1270 L
2725 1233 L
2726 1156 L
2728 1205 L
2729 1135 L
2730 1188 L
2731 1138 L
2732 1252 L
2734 1167 L
2735 1231 L
2736 1110 L
2737 1114 L
2738 1210 L
2739 1157 L
2741 1133 L
2742 1078 L
2743 1269 L
2744 1116 L
2745 1209 L
2746 1149 L
2747 1323 L
2748 1183 L
2749 1194 L
2751 1206 L
2752 1148 L
2753 1317 L
2754 1128 L
2755 1179 L
2756 1200 L
2757 1137 L
2758 1209 L
2759 1156 L
2760 1188 L
2761 1287 L
2762 1224 L
2763 1205 L
2764 1232 L
2765 1107 L
2767 1309 L
2768 1334 L
2769 1234 L
2770 1064 L
2771 1233 L
2772 1174 L
2773 1168 L
2774 1260 L
2775 1099 L
2776 1212 L
2777 1147 L
2778 1270 L
2779 1175 L
2780 1181 L
2781 1227 L
2782 1093 L
2783 1226 L
2783 1240 L
2784 1214 L
2785 1154 L
2786 1212 L
2787 1101 L
2788 1156 L
2789 1123 L
2790 1179 L
2791 1074 L
2792 1268 L
2793 1192 L
2794 1217 L
2795 1183 L
2796 1179 L
2797 1106 L
2798 1285 L
2798 1214 L
2799 1304 L
2800 1208 L
2801 1301 L
2802 1222 L
2803 1181 L
2804 1125 L
2805 1221 L
2806 1133 L
2807 1198 L
2807 1094 L
2808 1228 L
2809 1242 L
2810 1160 L
2811 1156 L
2812 1225 L
2813 1127 L
2813 1110 L
2814 1043 L
2815 1192 L
2816 1291 L
2817 1133 L
2818 1214 L
2819 1239 L
2819 1179 L
2820 1221 L
2821 1050 L
2822 1163 L
2823 1292 L
2824 1139 L
2824 1093 L
2825 1160 L
2826 1170 L
2827 1380 L
2828 1150 L
2828 1037 L
2829 1144 L
2830 1115 L
2831 1161 L
2832 1089 L
2832 1166 L
2833 1105 L
2834 1155 L
2835 1226 L
2836 1118 L
2836 1117 L
2837 1076 L
2838 1181 L
2839 1103 L
2840 1086 L
2840 1115 L
2841 1102 L
2842 1151 L
2843 1243 L
2843 1113 L
2844 1143 L
2845 1127 L
2846 1033 L
2846 1145 L
2847 1060 L
2848 1173 L
2849 1302 L
2849 1067 L
2850 1095 L
2851 1222 L
2852 1050 L
2852 1153 L
2853 1166 L
2854 1185 L
2855 1208 L
2855 1265 L
2856 1130 L
2857 1177 L
2857 1146 L
2858 1114 L
2859 1133 L
2860 1163 L
2860 1071 L
2861 1099 L
2862 1075 L
2862 1112 L
2863 1064 L
2864 1229 L
2865 1071 L
2865 1286 L
2866 1104 L
2867 1033 L
2867 1110 L
2868 1165 L
2869 1222 L
2869 1179 L
2870 1140 L
2871 1244 L
2871 1156 L
2872 1110 L
2873 1038 L
2873 1132 L
2874 1234 L
2875 1081 L
2876 1156 L
2876 1252 L
2877 1116 L
2878 1103 L
2878 1096 L
2879 1199 L
2880 1180 L
2880 1086 L
2881 1157 L
2881 1093 L
2882 1126 L
2883 1228 L
2883 1136 L
2884 1207 L
2885 1241 L
2885 1063 L
2886 1092 L
2887 1247 L
2887 1214 L
2888 1099 L
2889 1151 L
2889 1145 L
2892 1269 L
2894 1197 L
2897 1154 L
2899 1233 L
2902 1103 L
2904 1234 L
2907 1228 L
2909 1025 L
2911 1084 L
2914 1100 L
2916 1133 L
2918 1071 L
2921 1215 L
2923 1065 L
2925 1061 L
2927 1089 L
2929 1085 L
2932 1091 L
2934 1120 L
2936 1038 L
2938 1121 L
2940 1114 L
2942 1100 L
2944 1117 L
2946 1041 L
2948 1136 L
2950 1100 L
2952 1027 L
2954 1051 L
2956 1056 L
2958 1095 L
2960 948 L
2962 1088 L
2964 1130 L
2966 1134 L
2968 1083 L
2970 1124 L
2971 1087 L
2973 1061 L
2975 994 L
2977 978 L
2979 1062 L
2980 997 L
2982 1114 L
2984 1012 L
2986 1065 L
2987 1054 L
2989 1138 L
2991 1060 L
2993 1126 L
2994 1022 L
2996 1102 L
2998 1073 L
2999 1022 L
3001 1031 L
3003 918 L
3004 1112 L
3006 976 L
3007 1023 L
3009 1049 L
3011 1023 L
3012 993 L
3014 933 L
3015 1068 L
3017 1019 L
3018 961 L
3020 980 L
3021 933 L
3023 1052 L
3024 1011 L
3026 1013 L
3027 981 L
3029 894 L
3030 1032 L
3032 1037 L
3033 1034 L
3035 979 L
3036 999 L
3038 1103 L
3039 872 L
3040 1079 L
3042 938 L
3043 1020 L
3045 1026 L
3046 1019 L
3047 937 L
3049 1101 L
3050 1006 L
3051 1064 L
3053 980 L
3054 889 L
3055 958 L
3057 964 L
3058 1008 L
3059 955 L
3061 961 L
3062 928 L
3063 850 L
3065 914 L
3066 987 L
3067 961 L
3068 896 L
3070 993 L
3071 977 L
3072 962 L
3073 1055 L
3075 875 L
3076 925 L
3077 1022 L
3078 841 L
3079 978 L
3081 1016 L
3082 992 L
3083 992 L
3084 899 L
3085 994 L
3087 927 L
3088 1003 L
3089 755 L
3090 1039 L
3091 922 L
3092 882 L
3094 946 L
3095 884 L
3096 892 L
3097 948 L
3098 960 L
3099 961 L
3100 920 L
3101 961 L
3103 933 L
3104 892 L
3105 991 L
3106 881 L
3107 1039 L
3108 898 L
3109 853 L
3110 979 L
3111 922 L
3112 913 L
3113 981 L
3114 1026 L
3115 915 L
3116 935 L
3117 930 L
3119 891 L
3120 921 L
3121 812 L
3122 920 L
3123 844 L
3124 803 L
3125 859 L
3126 896 L
3127 860 L
3128 814 L
3129 940 L
3130 903 L
3131 789 L
3132 924 L
3133 870 L
3134 1049 L
3135 863 L
3136 862 L
3136 821 L
3137 845 L
3138 889 L
3139 989 L
3140 976 L
3141 932 L
3142 869 L
3143 917 L
3144 886 L
3145 944 L
3146 855 L
3147 856 L
3148 1004 L
3149 839 L
3150 873 L
3151 882 L
3151 892 L
3152 957 L
3153 910 L
3154 817 L
3155 862 L
3156 861 L
3157 909 L
3158 932 L
3159 853 L
3160 853 L
3160 859 L
3161 813 L
3162 846 L
3163 878 L
3164 905 L
3165 923 L
3166 824 L
3166 878 L
3167 862 L
3168 826 L
3169 810 L
3170 817 L
3171 858 L
3172 906 L
3172 939 L
3173 858 L
3174 962 L
3175 884 L
3176 985 L
3177 837 L
3177 873 L
3178 907 L
3179 1001 L
3180 912 L
3181 759 L
3181 861 L
3182 917 L
3183 832 L
3184 894 L
3185 892 L
3185 802 L
3186 881 L
3187 870 L
3188 883 L
3189 948 L
3189 842 L
3190 856 L
3191 957 L
3192 914 L
3193 852 L
3193 954 L
3194 870 L
3195 846 L
3196 868 L
3196 823 L
3197 869 L
3198 853 L
3199 750 L
3199 922 L
3200 875 L
3201 893 L
3202 845 L
3202 960 L
3203 856 L
3204 780 L
3205 808 L
3205 785 L
3206 835 L
3207 969 L
3208 844 L
3208 909 L
3209 933 L
3210 933 L
3210 756 L
3211 817 L
3212 898 L
3213 960 L
3213 886 L
3214 889 L
3215 923 L
3215 833 L
3216 862 L
3217 958 L
3218 917 L
3218 860 L
3219 790 L
3220 962 L
3220 884 L
3221 1068 L
3222 916 L
3222 1046 L
3223 922 L
3224 1020 L
3224 768 L
3225 863 L
3226 900 L
3227 839 L
3227 976 L
3228 799 L
3229 950 L
3229 828 L
3230 915 L
3231 900 L
3231 791 L
3232 943 L
3233 785 L
3233 941 L
3234 849 L
3235 979 L
3235 877 L
3236 895 L
3236 905 L
3237 881 L
3238 824 L
3238 885 L
3239 948 L
3240 896 L
3240 883 L
3241 923 L
3242 855 L
3242 834 L
3243 785 L
3244 916 L
3244 838 L
3245 957 L
3245 863 L
3246 893 L
3247 887 L
3247 758 L
3248 857 L
3249 1007 L
3249 917 L
3250 818 L
3250 865 L
3251 922 L
3252 900 L
3252 914 L
3253 857 L
3253 850 L
3254 907 L
3255 922 L
3255 927 L
3256 792 L
3257 992 L
3257 841 L
3258 952 L
3258 881 L
3259 1042 L
3259 820 L
3260 945 L
3261 885 L
3261 864 L
3262 877 L
3262 940 L
3263 976 L
3264 964 L
3264 921 L
3265 903 L
3265 981 L
3266 820 L
3267 838 L
3267 926 L
3268 840 L
3268 931 L
3269 977 L
3269 880 L
3270 945 L
3271 855 L
3271 916 L
3272 852 L
3272 964 L
3273 875 L
3273 954 L
3274 925 L
3275 961 L
3275 930 L
3276 889 L
3276 846 L
3277 981 L
3277 974 L
3278 949 L
3278 858 L
3279 896 L
3280 973 L
3280 982 L
3281 880 L
3281 933 L
3282 928 L
3282 928 L
3283 915 L
3283 971 L
3284 880 L
3284 932 L
3285 929 L
3285 893 L
3286 1041 L
3287 874 L
3287 953 L
3288 962 L
3288 976 L
3289 904 L
3289 912 L
3290 937 L
3290 1026 L
3291 850 L
3291 1008 L
3292 881 L
3292 948 L
3293 999 L
3293 860 L
3294 881 L
3294 964 L
3295 931 L
3295 955 L
3296 927 L
3297 904 L
3297 959 L
3298 895 L
3298 993 L
3299 952 L
3299 978 L
3300 853 L
3300 898 L
3301 914 L
3301 924 L
3302 863 L
3302 903 L
3303 812 L
3303 1024 L
3304 886 L
3304 1001 L
3305 1006 L
3305 899 L
3306 864 L
3306 995 L
3307 1026 L
3307 948 L
3308 882 L
3308 894 L
3309 922 L
3309 958 L
3310 899 L
3310 1035 L
3311 913 L
3311 952 L
3312 961 L
3312 1021 L
3312 820 L
3313 1056 L
3313 893 L
3314 918 L
3314 1005 L
3315 873 L
3315 923 L
3316 942 L
3316 1010 L
3317 973 L
3317 1080 L
3318 873 L
3318 924 L
3319 972 L
3319 872 L
3320 955 L
3320 940 L
3321 929 L
3321 834 L
3321 932 L
3322 946 L
3322 937 L
3323 939 L
3323 923 L
3324 1084 L
3324 944 L
3325 1003 L
3325 1027 L
3326 1045 L
3326 1018 L
3327 915 L
3327 996 L
3327 1092 L
3328 983 L
3328 911 L
3329 1006 L
3329 874 L
3330 997 L
3330 898 L
3331 988 L
3331 987 L
3332 1085 L
3332 948 L
3332 903 L
3333 987 L
3333 1159 L
3334 893 L
3334 844 L
3335 1000 L
3335 950 L
3336 964 L
3336 955 L
3336 914 L
3337 1020 L
3337 857 L
3338 1052 L
3338 904 L
3339 1068 L
3339 885 L
3339 1054 L
3340 974 L
3340 906 L
3341 998 L
3341 1001 L
3342 1034 L
3342 948 L
3343 992 L
3343 980 L
3343 912 L
3344 999 L
3344 919 L
3345 898 L
3345 980 L
3346 959 L
3346 900 L
3346 1004 L
3347 1041 L
3347 977 L
3348 964 L
3348 1020 L
3348 1015 L
3349 899 L
3349 1009 L
3350 864 L
3350 948 L
3351 930 L
3351 1015 L
3351 1028 L
3352 1070 L
3352 931 L
3353 923 L
3353 974 L
3353 967 L
3354 966 L
3354 929 L
3355 938 L
3355 982 L
3355 1040 L
3356 974 L
3356 1001 L
3357 960 L
3357 999 L
3358 956 L
3358 1144 L
3358 967 L
3359 1027 L
3359 1051 L
3360 955 L
3360 1046 L
3360 962 L
3361 1147 L
3361 977 L
3362 1004 L
3362 1071 L
3362 968 L
3363 845 L
3363 1024 L
3364 967 L
3364 1074 L
3364 1034 L
3365 857 L
3365 1038 L
3365 1079 L
3366 1069 L
3366 1059 L
3367 981 L
3367 988 L
3367 992 L
3368 979 L
3368 1096 L
3369 950 L
3369 1052 L
3369 1037 L
3370 999 L
3370 1036 L
3371 1006 L
3371 1049 L
3371 1030 L
3372 1013 L
3372 972 L
3372 964 L
3373 846 L
3373 972 L
3374 841 L
3374 1025 L
3374 871 L
3375 1049 L
3375 1059 L
3375 954 L
3376 1045 L
3376 958 L
3377 1016 L
3377 1217 L
3377 1058 L
3378 992 L
3378 878 L
3378 1020 L
3379 964 L
3379 1066 L
3380 975 L
3380 979 L
3380 1025 L
3381 1127 L
3381 955 L
3381 1035 L
3382 1019 L
3382 937 L
3383 1009 L
3383 963 L
3383 1090 L
3384 958 L
3384 1200 L
3384 982 L
3385 1070 L
3385 1066 L
3385 1038 L
3386 980 L
3386 1118 L
3387 1010 L
3387 1034 L
3387 1121 L
3388 931 L
3388 998 L
3388 1041 L
3389 994 L
3389 1075 L
3389 989 L
3390 977 L
3390 1107 L
3391 995 L
3391 1053 L
3391 978 L
3392 1040 L
3392 993 L
3392 1102 L
3393 978 L
3393 1112 L
3393 1068 L
3394 1051 L
3394 929 L
3394 968 L
3395 998 L
3395 952 L
3395 1007 L
3396 1085 L
3396 984 L
3396 1008 L
3397 980 L
3397 1032 L
3398 1037 L
3398 984 L
3398 1024 L
3399 995 L
3399 1009 L
3399 985 L
3400 1004 L
3400 1002 L
3400 987 L
3401 1095 L
3401 960 L
3401 1054 L
3402 1128 L
3402 1064 L
3402 1120 L
3403 1067 L
3403 1037 L
3403 1109 L
3404 1072 L
3404 1113 L
3404 1143 L
3405 1121 L
3405 983 L
3405 1047 L
3406 1020 L
3406 991 L
3406 1031 L
3407 1041 L
3407 1037 L
3407 1055 L
3408 1063 L
3408 1053 L
3408 1093 L
3409 1109 L
3409 988 L
3409 1087 L
3410 972 L
3410 1020 L
3410 1118 L
3411 1120 L
3411 1003 L
3411 1061 L
3412 1153 L
3412 1125 L
3412 1007 L
3413 1093 L
3413 1007 L
3413 1010 L
3414 1098 L
3414 1062 L
3414 1053 L
3415 1033 L
3415 917 L
3415 1086 L
3416 1144 L
3416 995 L
3416 1103 L
3417 970 L
3417 1073 L
3417 1064 L
3417 1031 L
3418 1082 L
3418 1112 L
3418 1084 L
3419 1094 L
3419 1032 L
3419 960 L
3420 1069 L
3420 1244 L
3420 1112 L
3421 1075 L
3421 1032 L
3421 1071 L
3422 1015 L
3422 1054 L
3422 1061 L
3423 1157 L
3423 1016 L
3423 1116 L
3423 1023 L
3424 1130 L
3424 1128 L
3424 1110 L
3425 1145 L
3425 1060 L
3425 1056 L
3426 1039 L
3426 1007 L
3426 1109 L
3427 1149 L
3427 1008 L
3427 1093 L
3428 1036 L
3428 1341 L
3428 1127 L
3428 1021 L
3429 1001 L
3429 1063 L
3429 1207 L
3430 1093 L
3430 1072 L
3430 1049 L
3431 1110 L
3431 1016 L
3431 1151 L
3431 1129 L
3432 1071 L
3432 1061 L
3432 1045 L
3433 1087 L
3433 1127 L
3433 1039 L
3434 1078 L
3434 1152 L
3434 1009 L
3434 1190 L
3435 1135 L
3435 1175 L
3435 1157 L
3436 1090 L
3436 1077 L
3436 1105 L
3437 1071 L
3437 1098 L
3437 1037 L
3437 1063 L
3438 1144 L
3438 1139 L
3438 1145 L
3439 1116 L
3439 1122 L
3439 1193 L
3440 1201 L
3440 1044 L
3440 1077 L
3440 1133 L
3441 1135 L
3441 1033 L
3441 1051 L
3442 1115 L
3442 1204 L
3442 1179 L
3442 1272 L
3443 1174 L
3443 1129 L
3443 1105 L
3444 1107 L
3444 1102 L
3444 1067 L
3444 1176 L
3445 955 L
3445 1252 L
3445 1072 L
3446 1037 L
3446 1089 L
3446 1197 L
3446 1031 L
3447 1110 L
3447 1059 L
3447 1111 L
3448 1144 L
3448 1164 L
3448 1141 L
3448 1078 L
3449 1156 L
3449 1197 L
3449 1191 L
3450 992 L
3450 1044 L
3450 1069 L
3450 1132 L
3451 1005 L
3451 1060 L
3451 1082 L
3452 1154 L
3452 1116 L
3452 1091 L
3452 1122 L
3453 1008 L
3453 1110 L
3453 1068 L
3454 1170 L
3454 1131 L
3454 1143 L
3454 1117 L
3455 1192 L
3455 1086 L
3455 1133 L
3455 1102 L
3456 1035 L
3456 1137 L
3456 1179 L
3457 1042 L
3457 1094 L
3457 995 L
3457 1137 L
3458 1043 L
3458 1139 L
3458 1113 L
3458 1214 L
3459 1106 L
3459 1201 L
3459 1100 L
3460 1188 L
3460 1190 L
3460 1069 L
3460 1075 L
3461 1090 L
3461 1154 L
3461 1176 L
3461 1047 L
3462 1124 L
3462 1140 L
3462 1115 L
3463 1155 L
3463 1053 L
3463 1074 L
3463 1147 L
3464 1121 L
3464 1069 L
3464 1102 L
3464 1147 L
3465 1225 L
3465 1047 L
3465 1197 L
3465 1096 L
3466 1102 L
3466 1177 L
3466 1158 L
3466 1065 L
3467 1121 L
3467 1120 L
3467 1175 L
3468 1183 L
3468 1160 L
3468 1140 L
3468 1191 L
3469 1203 L
3469 1203 L
3469 1182 L
3469 1113 L
3470 1157 L
3470 1094 L
3470 1191 L
3470 1208 L
3471 1167 L
3471 1262 L
3471 1150 L
3471 1235 L
3472 1235 L
3472 1157 L
3472 1109 L
3472 1202 L
3473 1172 L
3473 1171 L
3473 1060 L
3474 1253 L
3474 1129 L
3474 1175 L
3474 1143 L
3475 1048 L
3475 1160 L
3475 1121 L
3475 1153 L
3476 1147 L
3476 1199 L
3476 1091 L
3476 1113 L
3477 1114 L
3477 1090 L
3477 1169 L
3477 1154 L
3478 1139 L
3478 1185 L
3478 1173 L
3478 1107 L
3479 1135 L
3479 1147 L
3479 1176 L
3479 1168 L
3480 1158 L
3480 1190 L
3480 1129 L
3480 1163 L
3481 1204 L
3481 1139 L
3481 1229 L
3481 1242 L
3482 1199 L
3482 1177 L
3482 1142 L
3482 1210 L
3483 1221 L
3483 1216 L
3483 1233 L
3483 1125 L
3484 1185 L
3484 1148 L
3484 1103 L
3484 1086 L
3485 1175 L
3485 1127 L
3485 1152 L
3485 1045 L
3486 1217 L
3486 1087 L
3486 1075 L
3486 1157 L
3487 1188 L
3487 1091 L
3487 1133 L
3487 1130 L
3488 1202 L
3488 1205 L
3488 1240 L
3488 1102 L
3488 1256 L
3489 1155 L
3489 1106 L
3489 1071 L
3489 1252 L
3490 1185 L
3490 1227 L
3490 1094 L
3490 1104 L
3491 1302 L
3491 1257 L
3491 1065 L
3491 1145 L
3492 1068 L
3492 1150 L
3492 1201 L
3492 1125 L
3493 1203 L
3493 1221 L
3493 1182 L
3493 1150 L
3494 1142 L
3494 1151 L
3494 1098 L
3494 1179 L
3494 1070 L
3495 1162 L
3495 1187 L
3495 1205 L
3495 1128 L
3496 1105 L
3496 1119 L
3496 1316 L
3496 1059 L
3497 1214 L
3497 1176 L
3497 1177 L
3497 1210 L
3498 1186 L
3498 1247 L
3498 1168 L
3498 1118 L
3498 1206 L
3499 1253 L
3499 1265 L
3499 1200 L
3499 1289 L
3500 1146 L
3500 1178 L
3506 1258 L
3511 1133 L
3517 1222 L
3522 1251 L
3527 1296 L
3532 1216 L
3537 1253 L
3542 1258 L
3547 1213 L
3552 1296 L
3557 1256 L
3561 1202 L
3566 1248 L
3570 1356 L
3575 1335 L
3579 1290 L
3583 1396 L
3587 1393 L
3591 1420 L
3595 1254 L
3599 1309 L
3603 1294 L
3607 1279 L
3611 1310 L
3614 1237 L
3618 1355 L
3622 1293 L
3625 1230 L
3629 1238 L
3632 1372 L
3636 1429 L
3639 1340 L
3642 1281 L
3646 1306 L
3649 1352 L
3652 1391 L
3655 1355 L
3658 1496 L
3661 1274 L
3664 1173 L
3667 1311 L
3670 1274 L
3673 1341 L
3676 1347 L
3679 1292 L
3682 1325 L
3685 1412 L
3688 1241 L
3690 1370 L
3693 1313 L
3696 1297 L
3698 1395 L
3701 1241 L
3704 1242 L
3706 1296 L
3709 1313 L
3711 1358 L
3714 1362 L
3716 1347 L
3719 1358 L
3721 1249 L
3724 1417 L
3726 1153 L
3728 1385 L
3731 1420 L
3733 1356 L
3735 1301 L
3738 1358 L
3740 1375 L
3742 1343 L
3744 1407 L
3747 1340 L
3749 1494 L
3751 1334 L
3753 1353 L
3755 1452 L
3757 1383 L
3760 1378 L
3762 1521 L
3764 1357 L
3766 1383 L
3768 1268 L
3770 1343 L
3772 1353 L
3774 1373 L
3776 1360 L
3778 1418 L
3780 1339 L
3781 1334 L
3783 1368 L
3785 1287 L
3787 1393 L
3789 1324 L
3791 1368 L
3793 1392 L
3795 1350 L
3796 1302 L
3798 1246 L
3800 1431 L
3802 1360 L
3803 1327 L
3805 1354 L
3807 1416 L
3809 1407 L
3810 1252 L
3812 1285 L
3814 1434 L
3816 1395 L
3817 1247 L
3819 1266 L
3820 1229 L
3822 1381 L
3824 1389 L
3825 1320 L
3827 1287 L
3829 1444 L
3830 1345 L
3832 1405 L
3833 1349 L
3835 1301 L
3836 1364 L
3838 1306 L
3839 1389 L
3841 1486 L
3842 1428 L
3844 1295 L
3845 1384 L
3847 1463 L
3848 1329 L
3850 1330 L
3851 1462 L
3853 1253 L
3854 1377 L
3856 1268 L
3857 1402 L
3859 1374 L
3860 1425 L
3861 1370 L
3863 1350 L
3864 1358 L
3866 1336 L
3867 1324 L
3868 1363 L
3870 1314 L
3871 1446 L
3872 1440 L
3874 1390 L
3875 1267 L
3876 1569 L
3878 1417 L
3879 1316 L
3880 1432 L
3882 1268 L
3883 1310 L
3884 1355 L
3885 1456 L
3887 1369 L
3888 1373 L
3889 1366 L
3890 1438 L
3892 1454 L
3893 1462 L
3894 1342 L
3895 1333 L
3897 1327 L
3898 1393 L
3899 1377 L
3900 1324 L
3901 1421 L
3903 1447 L
3904 1359 L
3905 1368 L
3906 1240 L
3907 1287 L
3908 1325 L
3910 1193 L
3911 1380 L
3912 1312 L
3913 1394 L
3914 1450 L
3915 1224 L
3917 1281 L
3918 1169 L
3919 1390 L
3920 1340 L
3921 1416 L
3922 1323 L
3923 1390 L
3924 1466 L
3925 1411 L
3926 1390 L
3928 1413 L
3929 1371 L
3930 1351 L
3931 1415 L
3932 1350 L
3933 1286 L
3934 1256 L
3935 1423 L
3936 1323 L
3937 1415 L
3938 1346 L
3939 1447 L
3940 1290 L
3941 1339 L
3942 1414 L
3943 1404 L
3944 1357 L
3945 1522 L
3946 1351 L
3947 1238 L
3948 1291 L
3949 1290 L
3950 1476 L
3951 1342 L
3952 1320 L
3953 1325 L
3954 1309 L
3955 1325 L
3956 1394 L
3957 1441 L
3958 1347 L
3959 1372 L
3960 1278 L
3961 1294 L
3962 1299 L
3963 1448 L
3964 1319 L
3965 1378 L
3966 1439 L
3966 1263 L
3967 1315 L
3968 1335 L
3969 1292 L
3970 1318 L
3971 1309 L
3972 1317 L
3973 1341 L
3974 1372 L
3975 1240 L
3976 1293 L
3976 1302 L
3977 1192 L
3978 1350 L
3979 1370 L
3980 1378 L
3981 1399 L
3982 1400 L
3983 1322 L
3983 1196 L
3984 1196 L
3985 1404 L
3986 1266 L
3987 1394 L
3988 1327 L
3989 1307 L
3989 1365 L
3990 1240 L
3991 1283 L
3992 1296 L
3993 1319 L
3994 1328 L
3995 1334 L
3995 1254 L
3996 1322 L
3997 1267 L
3998 1315 L
3999 1383 L
3999 1362 L
4000 1229 L
4001 1224 L
4002 1277 L
4003 1357 L
4003 1350 L
4004 1462 L
4005 1401 L
4006 1288 L
4007 1402 L
4007 1333 L
4008 1202 L
4009 1320 L
4010 1350 L
4011 1365 L
4011 1195 L
4012 1302 L
4013 1243 L
4014 1420 L
4014 1265 L
4015 1347 L
4016 1329 L
4017 1333 L
4017 1382 L
4018 1404 L
4019 1447 L
4020 1370 L
4021 1441 L
4021 1313 L
4022 1387 L
4023 1329 L
4023 1272 L
4024 1357 L
4025 1465 L
4026 1282 L
4026 1341 L
4027 1316 L
4028 1327 L
4029 1401 L
4029 1358 L
4030 1390 L
4031 1346 L
4032 1281 L
4032 1403 L
4033 1360 L
4034 1325 L
4034 1348 L
4035 1458 L
4036 1306 L
4036 1264 L
4037 1439 L
4038 1362 L
4039 1334 L
4039 1389 L
4040 1308 L
4041 1375 L
4041 1350 L
4042 1250 L
4043 1250 L
4043 1292 L
4044 1373 L
4045 1327 L
4045 1255 L
4046 1266 L
4047 1352 L
4047 1329 L
4048 1301 L
4049 1356 L
4050 1456 L
4050 1334 L
4051 1444 L
4052 1187 L
4052 1384 L
4053 1231 L
4053 1435 L
4054 1453 L
4055 1165 L
4055 1327 L
4056 1391 L
4057 1272 L
4057 1404 L
4058 1357 L
4059 1316 L
4059 1202 L
4060 1338 L
4061 1117 L
4061 1346 L
4062 1189 L
L2 C03 COSGR

%
% Main frame
%
L10
GSN 
620 1700 M
4220 1700 L
4220 5300 L
620 5300 L
closepath SGR

%
% X axis: large tics
%
L10
GSN 1130 1700 M 0  54 rL SGR
GSN 1130 5300 M 0 -54 rL SGR
helvS (0.0001) 1130 470 xlabel
GSN 1716 1700 M 0  54 rL SGR
GSN 1716 5300 M 0 -54 rL SGR
helvS (0.001) 1716 470 xlabel
GSN 2303 1700 M 0  54 rL SGR
GSN 2303 5300 M 0 -54 rL SGR
helvS (0.01) 2303 470 xlabel
GSN 2889 1700 M 0  54 rL SGR
GSN 2889 5300 M 0 -54 rL SGR
helvS (0.1) 2889 470 xlabel
GSN 3476 1700 M 0  54 rL SGR
GSN 3476 5300 M 0 -54 rL SGR
helvS (1) 3476 470 xlabel
GSN 4062 1700 M 0  54 rL SGR
GSN 4062 5300 M 0 -54 rL SGR
helvS (10) 4062 470 xlabel
%
% X axis: small tics
%
L5
GSN 720 1700 M 0  36 rL SGR
GSN 720 5300 M 0 -36 rL SGR
GSN 824 1700 M 0  36 rL SGR
GSN 824 5300 M 0 -36 rL SGR
GSN 897 1700 M 0  36 rL SGR
GSN 897 5300 M 0 -36 rL SGR
GSN 954 1700 M 0  36 rL SGR
GSN 954 5300 M 0 -36 rL SGR
GSN 1000 1700 M 0  36 rL SGR
GSN 1000 5300 M 0 -36 rL SGR
GSN 1039 1700 M 0  36 rL SGR
GSN 1039 5300 M 0 -36 rL SGR
GSN 1073 1700 M 0  36 rL SGR
GSN 1073 5300 M 0 -36 rL SGR
GSN 1103 1700 M 0  36 rL SGR
GSN 1103 5300 M 0 -36 rL SGR
GSN 1307 1700 M 0  36 rL SGR
GSN 1307 5300 M 0 -36 rL SGR
GSN 1410 1700 M 0  36 rL SGR
GSN 1410 5300 M 0 -36 rL SGR
GSN 1483 1700 M 0  36 rL SGR
GSN 1483 5300 M 0 -36 rL SGR
GSN 1540 1700 M 0  36 rL SGR
GSN 1540 5300 M 0 -36 rL SGR
GSN 1586 1700 M 0  36 rL SGR
GSN 1586 5300 M 0 -36 rL SGR
GSN 1626 1700 M 0  36 rL SGR
GSN 1626 5300 M 0 -36 rL SGR
GSN 1660 1700 M 0  36 rL SGR
GSN 1660 5300 M 0 -36 rL SGR
GSN 1690 1700 M 0  36 rL SGR
GSN 1690 5300 M 0 -36 rL SGR
GSN 1893 1700 M 0  36 rL SGR
GSN 1893 5300 M 0 -36 rL SGR
GSN 1996 1700 M 0  36 rL SGR
GSN 1996 5300 M 0 -36 rL SGR
GSN 2069 1700 M 0  36 rL SGR
GSN 2069 5300 M 0 -36 rL SGR
GSN 2126 1700 M 0  36 rL SGR
GSN 2126 5300 M 0 -36 rL SGR
GSN 2173 1700 M 0  36 rL SGR
GSN 2173 5300 M 0 -36 rL SGR
GSN 2212 1700 M 0  36 rL SGR
GSN 2212 5300 M 0 -36 rL SGR
GSN 2246 1700 M 0  36 rL SGR
GSN 2246 5300 M 0 -36 rL SGR
GSN 2276 1700 M 0  36 rL SGR
GSN 2276 5300 M 0 -36 rL SGR
GSN 2479 1700 M 0  36 rL SGR
GSN 2479 5300 M 0 -36 rL SGR
GSN 2583 1700 M 0  36 rL SGR
GSN 2583 5300 M 0 -36 rL SGR
GSN 2656 1700 M 0  36 rL SGR
GSN 2656 5300 M 0 -36 rL SGR
GSN 2713 1700 M 0  36 rL SGR
GSN 2713 5300 M 0 -36 rL SGR
GSN 2759 1700 M 0  36 rL SGR
GSN 2759 5300 M 0 -36 rL SGR
GSN 2798 1700 M 0  36 rL SGR
GSN 2798 5300 M 0 -36 rL SGR
GSN 2832 1700 M 0  36 rL SGR
GSN 2832 5300 M 0 -36 rL SGR
GSN 2862 1700 M 0  36 rL SGR
GSN 2862 5300 M 0 -36 rL SGR
GSN 3066 1700 M 0  36 rL SGR
GSN 3066 5300 M 0 -36 rL SGR
GSN 3169 1700 M 0  36 rL SGR
GSN 3169 5300 M 0 -36 rL SGR
GSN 3242 1700 M 0  36 rL SGR
GSN 3242 5300 M 0 -36 rL SGR
GSN 3299 1700 M 0  36 rL SGR
GSN 3299 5300 M 0 -36 rL SGR
GSN 3345 1700 M 0  36 rL SGR
GSN 3345 5300 M 0 -36 rL SGR
GSN 3385 1700 M 0  36 rL SGR
GSN 3385 5300 M 0 -36 rL SGR
GSN 3419 1700 M 0  36 rL SGR
GSN 3419 5300 M 0 -36 rL SGR
GSN 3449 1700 M 0  36 rL SGR
GSN 3449 5300 M 0 -36 rL SGR
GSN 3652 1700 M 0  36 rL SGR
GSN 3652 5300 M 0 -36 rL SGR
GSN 3755 1700 M 0  36 rL SGR
GSN 3755 5300 M 0 -36 rL SGR
GSN 3829 1700 M 0  36 rL SGR
GSN 3829 5300 M 0 -36 rL SGR
GSN 3885 1700 M 0  36 rL SGR
GSN 3885 5300 M 0 -36 rL SGR
GSN 3932 1700 M 0  36 rL SGR
GSN 3932 5300 M 0 -36 rL SGR
GSN 3971 1700 M 0  36 rL SGR
GSN 3971 5300 M 0 -36 rL SGR
GSN 4005 1700 M 0  36 rL SGR
GSN 4005 5300 M 0 -36 rL SGR
GSN 4035 1700 M 0  36 rL SGR
GSN 4035 5300 M 0 -36 rL SGR
%
% Y axis: large tics
%
L10
GSN 620 2117 M 54 0 rL SGR
GSN 4220 2117 M -54 0 rL SGR
helvS (1.04) 560 2117 ylabel
GSN 620 2992 M 54 0 rL SGR
GSN 4220 2992 M -54 0 rL SGR
helvS (1.06) 560 2992 ylabel
GSN 620 3866 M 54 0 rL SGR
GSN 4220 3866 M -54 0 rL SGR
helvS (1.08) 560 3866 ylabel
GSN 620 4741 M 54 0 rL SGR
GSN 4220 4741 M -54 0 rL SGR
helvS (1.1) 560 4741 ylabel
%
% Y axis: small tics
%
L5
GSN 620 1898 M 36 0 rL SGR
GSN 4220 1898 M -36 0 rL SGR
GSN 620 2117 M 36 0 rL SGR
GSN 4220 2117 M -36 0 rL SGR
GSN 620 2336 M 36 0 rL SGR
GSN 4220 2336 M -36 0 rL SGR
GSN 620 2554 M 36 0 rL SGR
GSN 4220 2554 M -36 0 rL SGR
GSN 620 2773 M 36 0 rL SGR
GSN 4220 2773 M -36 0 rL SGR
GSN 620 2992 M 36 0 rL SGR
GSN 4220 2992 M -36 0 rL SGR
GSN 620 3210 M 36 0 rL SGR
GSN 4220 3210 M -36 0 rL SGR
GSN 620 3429 M 36 0 rL SGR
GSN 4220 3429 M -36 0 rL SGR
GSN 620 3647 M 36 0 rL SGR
GSN 4220 3647 M -36 0 rL SGR
GSN 620 3866 M 36 0 rL SGR
GSN 4220 3866 M -36 0 rL SGR
GSN 620 4085 M 36 0 rL SGR
GSN 4220 4085 M -36 0 rL SGR
GSN 620 4303 M 36 0 rL SGR
GSN 4220 4303 M -36 0 rL SGR
GSN 620 4522 M 36 0 rL SGR
GSN 4220 4522 M -36 0 rL SGR
GSN 620 4741 M 36 0 rL SGR
GSN 4220 4741 M -36 0 rL SGR
GSN 620 4959 M 36 0 rL SGR
GSN 4220 4959 M -36 0 rL SGR
GSN 620 5178 M 36 0 rL SGR
GSN 4220 5178 M -36 0 rL SGR

%
% X-Axis label:
%
gsave 2420 290 M 
[
[(Helvetica) 180 0 true true 0 (t)]
[(Helvetica) 180 0 true true 0 (i)]
[(Helvetica) 180 0 true true 0 (m)]
[(Helvetica) 180 0 true true 0 (e)]
] 0 MCshow grestore

%
% Y-Axis label:
%
gsave 234 3499 M 
currentpoint gsave translate 90 rotate 0 0 moveto
[
[(Helvetica) 180 0 true true 0 (s)]
[(Helvetica) 180 0 true true 0 (i)]
[(Helvetica) 180 0 true true 0 (g)]
[(Helvetica) 180 0 true true 0 (n)]
[(Helvetica) 180 0 true true 0 (a)]
[(Helvetica) 180 0 true true 0 (l)]
] 0 MCshow grestore

%
% Residuals:
%
gsave 129 1160 M 
currentpoint gsave translate 90 rotate 0 0 moveto
[
[(Helvetica) 150 0 true true 0 (r)]
[(Helvetica) 150 0 true true 0 (e)]
[(Helvetica) 150 0 true true 0 (s)]
[(Helvetica) 150 0 true true 0 (i)]
[(Helvetica) 150 0 true true 0 (d)]
[(Helvetica) 150 0 true true 0 (u)]
[(Helvetica) 150 0 true true 0 (a)]
[(Helvetica) 150 0 true true 0 (l)]
[(Helvetica) 150 0 true true 0 (s)]
] 0 MCshow grestore

%
% Residual frame
%
L10
GSN 
620 620 M
4220 620 L
4220 1700 L
620 1700 L
closepath SGR
%
% X axis: large tics - residual frame
%
L10
GSN 1130 620 M 0  54 rL SGR
GSN 1130 1700 M 0 -54 rL SGR
GSN 1716 620 M 0  54 rL SGR
GSN 1716 1700 M 0 -54 rL SGR
GSN 2303 620 M 0  54 rL SGR
GSN 2303 1700 M 0 -54 rL SGR
GSN 2889 620 M 0  54 rL SGR
GSN 2889 1700 M 0 -54 rL SGR
GSN 3476 620 M 0  54 rL SGR
GSN 3476 1700 M 0 -54 rL SGR
GSN 4062 620 M 0  54 rL SGR
GSN 4062 1700 M 0 -54 rL SGR
%
% X axis: small tics - residual frame
%
L5
GSN 720 620 M 0  36 rL SGR
GSN 720 1700 M 0 -36 rL SGR
GSN 824 620 M 0  36 rL SGR
GSN 824 1700 M 0 -36 rL SGR
GSN 897 620 M 0  36 rL SGR
GSN 897 1700 M 0 -36 rL SGR
GSN 954 620 M 0  36 rL SGR
GSN 954 1700 M 0 -36 rL SGR
GSN 1000 620 M 0  36 rL SGR
GSN 1000 1700 M 0 -36 rL SGR
GSN 1039 620 M 0  36 rL SGR
GSN 1039 1700 M 0 -36 rL SGR
GSN 1073 620 M 0  36 rL SGR
GSN 1073 1700 M 0 -36 rL SGR
GSN 1103 620 M 0  36 rL SGR
GSN 1103 1700 M 0 -36 rL SGR
GSN 1307 620 M 0  36 rL SGR
GSN 1307 1700 M 0 -36 rL SGR
GSN 1410 620 M 0  36 rL SGR
GSN 1410 1700 M 0 -36 rL SGR
GSN 1483 620 M 0  36 rL SGR
GSN 1483 1700 M 0 -36 rL SGR
GSN 1540 620 M 0  36 rL SGR
GSN 1540 1700 M 0 -36 rL SGR
GSN 1586 620 M 0  36 rL SGR
GSN 1586 1700 M 0 -36 rL SGR
GSN 1626 620 M 0  36 rL SGR
GSN 1626 1700 M 0 -36 rL SGR
GSN 1660 620 M 0  36 rL SGR
GSN 1660 1700 M 0 -36 rL SGR
GSN 1690 620 M 0  36 rL SGR
GSN 1690 1700 M 0 -36 rL SGR
GSN 1893 620 M 0  36 rL SGR
GSN 1893 1700 M 0 -36 rL SGR
GSN 1996 620 M 0  36 rL SGR
GSN 1996 1700 M 0 -36 rL SGR
GSN 2069 620 M 0  36 rL SGR
GSN 2069 1700 M 0 -36 rL SGR
GSN 2126 620 M 0  36 rL SGR
GSN 2126 1700 M 0 -36 rL SGR
GSN 2173 620 M 0  36 rL SGR
GSN 2173 1700 M 0 -36 rL SGR
GSN 2212 620 M 0  36 rL SGR
GSN 2212 1700 M 0 -36 rL SGR
GSN 2246 620 M 0  36 rL SGR
GSN 2246 1700 M 0 -36 rL SGR
GSN 2276 620 M 0  36 rL SGR
GSN 2276 1700 M 0 -36 rL SGR
GSN 2479 620 M 0  36 rL SGR
GSN 2479 1700 M 0 -36 rL SGR
GSN 2583 620 M 0  36 rL SGR
GSN 2583 1700 M 0 -36 rL SGR
GSN 2656 620 M 0  36 rL SGR
GSN 2656 1700 M 0 -36 rL SGR
GSN 2713 620 M 0  36 rL SGR
GSN 2713 1700 M 0 -36 rL SGR
GSN 2759 620 M 0  36 rL SGR
GSN 2759 1700 M 0 -36 rL SGR
GSN 2798 620 M 0  36 rL SGR
GSN 2798 1700 M 0 -36 rL SGR
GSN 2832 620 M 0  36 rL SGR
GSN 2832 1700 M 0 -36 rL SGR
GSN 2862 620 M 0  36 rL SGR
GSN 2862 1700 M 0 -36 rL SGR
GSN 3066 620 M 0  36 rL SGR
GSN 3066 1700 M 0 -36 rL SGR
GSN 3169 620 M 0  36 rL SGR
GSN 3169 1700 M 0 -36 rL SGR
GSN 3242 620 M 0  36 rL SGR
GSN 3242 1700 M 0 -36 rL SGR
GSN 3299 620 M 0  36 rL SGR
GSN 3299 1700 M 0 -36 rL SGR
GSN 3345 620 M 0  36 rL SGR
GSN 3345 1700 M 0 -36 rL SGR
GSN 3385 620 M 0  36 rL SGR
GSN 3385 1700 M 0 -36 rL SGR
GSN 3419 620 M 0  36 rL SGR
GSN 3419 1700 M 0 -36 rL SGR
GSN 3449 620 M 0  36 rL SGR
GSN 3449 1700 M 0 -36 rL SGR
GSN 3652 620 M 0  36 rL SGR
GSN 3652 1700 M 0 -36 rL SGR
GSN 3755 620 M 0  36 rL SGR
GSN 3755 1700 M 0 -36 rL SGR
GSN 3829 620 M 0  36 rL SGR
GSN 3829 1700 M 0 -36 rL SGR
GSN 3885 620 M 0  36 rL SGR
GSN 3885 1700 M 0 -36 rL SGR
GSN 3932 620 M 0  36 rL SGR
GSN 3932 1700 M 0 -36 rL SGR
GSN 3971 620 M 0  36 rL SGR
GSN 3971 1700 M 0 -36 rL SGR
GSN 4005 620 M 0  36 rL SGR
GSN 4005 1700 M 0 -36 rL SGR
GSN 4035 620 M 0  36 rL SGR
GSN 4035 1700 M 0 -36 rL SGR
%
% Y axis: large tics - residual frame
%
L10
GSN 620 636 M 54 0 rL SGR
GSN 4220 636 M -54 0 rL SGR
helvS (-0.02) 560 636 ylabelresid
GSN 620 876 M 54 0 rL SGR
GSN 4220 876 M -54 0 rL SGR
helvS (-0.01) 560 876 ylabelresid
GSN 620 1115 M 54 0 rL SGR
GSN 4220 1115 M -54 0 rL SGR
helvS (0) 560 1115 ylabelresid
GSN 620 1355 M 54 0 rL SGR
GSN 4220 1355 M -54 0 rL SGR
helvS (0.01) 560 1355 ylabelresid
GSN 620 1595 M 54 0 rL SGR
GSN 4220 1595 M -54 0 rL SGR
helvS (0.02) 560 1595 ylabelresid

%
% X axis - residual panel
%
GSN L5 620 1115 M 4220 1115 L SDA G50 SGR

end
showpage
%%Trailer
%%EOF
