%!PS-Adobe-3.0 EPSF-3.0
%%BoundingBox: 0 0 514 550
%%Creator: BioKin Ltd.
%%DocumentFonts: Symbol Helvetica
%%EndComments
%
/bkdict 256 dict def
bkdict begin
/M {moveto} def 
/R {rmoveto} def
/L {lineto} def
/rL {rlineto} def
/GSN {gsave newpath} def
/SGR {stroke grestore} def
/COSGR {gsave setrgbcolor stroke grestore grestore} def
/SL {setlinewidth} def
/LWMB {12} def             % line width - model curves, black & white
/LWMC {10} def             % line width - model curves, color
/L2 {2.5 setlinewidth} def
/L5 {5 setlinewidth} def
/L10 {10 setlinewidth} def
/G50 {0.5 setgray} def
/SDA {[10  20] 0 setdash} def % axes
/helvT {/Helvetica findfont 100 scalefont setfont} def % tiny
/helvS {/Helvetica findfont 125 scalefont setfont} def % small
/helvM {/Helvetica findfont 150 scalefont setfont} def % medium
/helvL {/Helvetica findfont 175 scalefont setfont} def % large
/xlabel {gsave M dup
   stringwidth exch -0.5 mul exch rmoveto show grestore} def 
/ylabel {gsave M 90 rotate dup
   stringwidth exch -0.5 mul exch rmoveto show grestore} def
/ylabelresid {gsave M dup
   stringwidth exch -1 mul exch rmoveto show grestore} def
% ======
% Shapes
% ======
% Circle:
/Circ {0 360 arc closepath} def
%
% Square:
/Squa {dup dup -0.5 mul dup dup R -2 mul 0 exch rL 1 mul 0 rL dup 0 exch -1 mul rL closepath} def
%
% Triangle Up:
/TriU {dup dup dup -0.4 mul exch -0.5 mul exch R dup 0.5 mul exch rL dup -1 mul exch 0.5 mul exch rL closepath} def 
%
% Triangle Down:
/TriD {dup dup dup 0.4 mul exch -0.5 mul exch R dup 0.5 mul exch -1 mul rL dup 0.5 mul exch rL closepath} def 
%
% Diamond:
/Diam {45 rotate Squa} def
% ======
% Fills
% ======
/GRF {gsave setgray fill grestore} def                    % gray-level Fill
/COF {gsave setrgbcolor fill grestore} def                % color fill
% ======
% Colors
% ======
/C01 {1.00	0.00	0.00} def      % Red
/C02 {0.00	0.00	1.00} def      % Blue
/C03 {0.00	0.39	0.00} def      % Dark Green
/C04 {0.78	0.08	0.52} def      % Medium Violet Red
/C05 {0.55	0.27	0.07} def      % Saddle Brown
/C06 {0.10	0.70	0.70} def      % (cyan)
/C07 {1.00	0.55	0.00} def      % Dark Orange
/C08 {0.63	0.13	0.94} def      % Purple
/C09 {0.00	0.75	1.00} def      % Deep Sky Blue
/C10 {0.20	0.80	0.20} def      % Lime Green
/C11 {0.47	0.53	0.60} def      % Light Slate Gray
/C12 {0.00	0.00	0.00} def      % Black            % or: {0.19	0.31	0.31} def      % Dark Slate Gray
%
/LGR {0.75} def % light gray
/DGR {0.33} def % dark gray
%
% =============
% Dash patterns
% =============
/dash01 { [80  20] 0 setdash } def
/dash02 { [40  20] 0 setdash } def
/dash03 { [80  20  10  20] 0 setdash } def
/dash04 { [40  20  10  20] 0 setdash } def
/dash05 { [80  20  10  10  10  20] 0 setdash } def
/dash06 { [40  20  10  10  10  20] 0 setdash } def
/dash07 { [10  10] 0 setdash } def
%
/MFshow {
   { dup 5 get 3 ge
     { 5 get 3 eq {gsave} {grestore} ifelse }
     {dup dup 0 get findfont exch 1 get scalefont setfont
     [ currentpoint ] exch dup 2 get 0 exch R dup 5 get 2 ne {dup dup 6
     get exch 4 get {show} {stringwidth pop 0 R} ifelse }if dup 5 get 0 eq
     {dup 3 get {2 get neg 0 exch R pop} {pop aload pop M} ifelse} {dup 5
     get 1 eq {dup 2 get exch dup 3 get exch 6 get stringwidth pop -2 div
     dup 0 R} {dup 6 get stringwidth pop -2 div 0 R 6 get
     show 2 index {aload pop M neg 3 -1 roll neg R pop pop} {pop pop pop
     pop aload pop M} ifelse }ifelse }ifelse }
     ifelse }
   forall} bind def
/MFwidth {0 exch {dup 3 get{dup dup 0 get findfont exch 1 get scalefont
     setfont 6 get stringwidth pop add} {pop} ifelse} forall} bind def
/MCshow { currentpoint stroke M
  exch dup MFwidth -2 div 3 -1 roll R MFshow } def
%
end
%%EndProlog
bkdict begin
0.1 0.1 scale
%
% Model curves:
%

GSN 753 5166 M
753 5166 L
786 5154 L
820 5140 L
853 5123 L
886 5104 L
903 5093 L
919 5082 L
953 5056 L
986 5027 L
1020 4994 L
1053 4955 L
1053 4955 L
1086 4912 L
1120 4862 L
1153 4806 L
1186 4742 L
1203 4707 L
1220 4671 L
1253 4592 L
1286 4504 L
1320 4407 L
1353 4302 L
1353 4301 L
1386 4189 L
1420 4068 L
1453 3940 L
1486 3806 L
1503 3736 L
1520 3670 L
1553 3531 L
1586 3394 L
1620 3261 L
1653 3133 L
1653 3131 L
1686 3016 L
1720 2909 L
1753 2816 L
1786 2738 L
1804 2703 L
1820 2675 L
1853 2627 L
1886 2593 L
1920 2570 L
1953 2556 L
1954 2555 L
1986 2548 L
2020 2544 L
2053 2542 L
2086 2542 L
2104 2542 L
2120 2542 L
2153 2542 L
2186 2542 L
2220 2542 L
2253 2542 L
2254 2542 L
2286 2542 L
2320 2542 L
2353 2542 L
2386 2542 L
2404 2542 L
2420 2542 L
2453 2541 L
2486 2541 L
2520 2541 L
2553 2541 L
2554 2541 L
2586 2541 L
2620 2541 L
2653 2541 L
2686 2541 L
2704 2541 L
2720 2541 L
2753 2541 L
2786 2541 L
2820 2541 L
2853 2541 L
2854 2541 L
2886 2541 L
2920 2541 L
2953 2541 L
2986 2541 L
3004 2541 L
3020 2541 L
3053 2540 L
3068 2540 L
3086 2540 L
3120 2540 L
3153 2540 L
3155 2540 L
3186 2539 L
3220 2539 L
3253 2539 L
3286 2538 L
3305 2538 L
3320 2537 L
3353 2537 L
3386 2536 L
3420 2535 L
3453 2534 L
3455 2534 L
3486 2533 L
3520 2531 L
3553 2530 L
3586 2528 L
3605 2527 L
3620 2526 L
3653 2523 L
3686 2520 L
3720 2516 L
3753 2513 L
3755 2512 L
3786 2508 L
3820 2503 L
3853 2497 L
3886 2490 L
3905 2486 L
3920 2482 L
3953 2474 L
3986 2464 L
4020 2453 L
4053 2441 L
4086 2428 L
LWMC SL  C06 COSGR

%
% Experimental data:
%
GSN 773 3944 M
1625 4146 L
1773 4049 L
1860 3833 L
1922 3946 L
1970 3849 L
2009 3710 L
2043 3731 L
2072 3599 L
2097 3558 L
2120 3662 L
2140 3540 L
2159 3470 L
2176 3532 L
2192 3492 L
2207 3405 L
2221 3432 L
2234 3300 L
2247 3344 L
2259 3354 L
2270 3385 L
2280 3410 L
2290 3249 L
2300 3210 L
2309 3148 L
2318 3190 L
2326 3370 L
2335 3315 L
2342 3178 L
2350 3165 L
2357 3129 L
2364 3120 L
2371 3124 L
2378 3181 L
2384 2895 L
2391 3178 L
2397 2948 L
2403 2948 L
2409 2886 L
2414 2971 L
2420 2964 L
2425 2757 L
2430 2926 L
2435 2916 L
2440 2789 L
2445 2864 L
2450 2946 L
2455 2923 L
2459 2731 L
2464 2770 L
2468 2785 L
2472 2702 L
2476 2676 L
2481 2755 L
2485 2779 L
2489 2676 L
2492 2604 L
2496 2614 L
2500 2608 L
2504 2755 L
2507 2630 L
2511 2731 L
2514 2729 L
2518 2606 L
2521 2614 L
2525 2522 L
2528 2505 L
2531 2670 L
2534 2601 L
2538 2674 L
2541 2459 L
2544 2547 L
2547 2578 L
2550 2595 L
2553 2563 L
2556 2532 L
2559 2446 L
2561 2444 L
2564 2516 L
2567 2531 L
2570 2555 L
2580 2386 L
2590 2337 L
2600 2314 L
2609 2156 L
2618 2312 L
2627 2366 L
2635 2251 L
2643 2259 L
2650 2215 L
2658 2293 L
2665 2025 L
2672 2240 L
2678 2123 L
2685 2085 L
2691 2001 L
2697 2017 L
2703 2083 L
2709 2052 L
2714 1960 L
2720 2025 L
2725 2059 L
2730 2161 L
2735 1991 L
2740 2051 L
2745 2123 L
2750 2025 L
2755 2051 L
2759 1994 L
2764 2040 L
2768 2001 L
2772 2033 L
2777 1906 L
2781 1851 L
2785 1897 L
2789 1833 L
2793 1929 L
2796 1850 L
2800 2044 L
2804 2000 L
2808 2016 L
2811 1966 L
2815 2060 L
2818 2093 L
2822 1913 L
2825 1985 L
2828 2064 L
2831 1917 L
2835 2148 L
2838 1992 L
2841 1909 L
2844 2102 L
2847 2114 L
2850 2103 L
2853 2014 L
2856 1845 L
2859 2168 L
2862 2032 L
2864 1998 L
2867 1981 L
2870 2166 L
2873 2055 L
2875 2035 L
2878 2264 L
2880 1959 L
2883 1940 L
2886 2048 L
2888 2040 L
2891 2079 L
2893 2020 L
2895 1938 L
2898 2086 L
2900 2173 L
2902 2089 L
2905 2067 L
2907 2015 L
2909 1993 L
2912 2209 L
2914 2105 L
2916 1985 L
2918 2162 L
2920 2034 L
2922 2040 L
2925 2223 L
2927 2088 L
2929 2088 L
2931 2270 L
2933 2150 L
2935 2114 L
2937 2204 L
2939 2239 L
2941 2160 L
2943 2078 L
2945 2154 L
2947 2325 L
2948 2233 L
2950 2078 L
2952 2297 L
2954 2273 L
2956 2155 L
2958 2065 L
2959 2284 L
2961 2296 L
2963 2193 L
2965 2029 L
2966 2286 L
2968 2222 L
2970 2245 L
2972 2380 L
2973 2206 L
2975 2270 L
2977 2343 L
2978 2213 L
2980 2261 L
2982 2222 L
2983 2319 L
2985 2342 L
2986 2263 L
2988 2221 L
2989 2211 L
2991 2228 L
2993 2303 L
2994 2424 L
2996 2288 L
2997 2335 L
2999 2135 L
3000 2363 L
3002 2252 L
3003 2362 L
3005 2304 L
3006 2248 L
3007 2432 L
3009 2417 L
3010 2269 L
3012 2329 L
3013 2384 L
3014 2435 L
3016 2275 L
3017 2410 L
3019 2460 L
3020 2378 L
3021 2349 L
3023 2232 L
3024 2390 L
3025 2243 L
3027 2352 L
3028 2397 L
3029 2390 L
3031 2439 L
3032 2419 L
3033 2302 L
3034 2539 L
3036 2341 L
3037 2325 L
3038 2514 L
3039 2404 L
3041 2387 L
3042 2421 L
3043 2262 L
3044 2316 L
3045 2542 L
3047 2496 L
3048 2455 L
3049 2559 L
3050 2379 L
3051 2328 L
3053 2366 L
3054 2551 L
3055 2468 L
3056 2365 L
3057 2411 L
3058 2512 L
3059 2452 L
3061 2455 L
3062 2316 L
3063 2514 L
3064 2586 L
3065 2439 L
3066 2420 L
3067 2453 L
3068 2492 L
3069 2454 L
3070 2469 L
3071 2496 L
3073 2346 L
3074 2556 L
3075 2500 L
3076 2464 L
3077 2504 L
3078 2573 L
3079 2321 L
3080 2418 L
3081 2476 L
3082 2578 L
3083 2447 L
3084 2515 L
3085 2470 L
3086 2514 L
3087 2517 L
3088 2304 L
3089 2621 L
3112 2530 L
3133 2677 L
3152 2545 L
3170 2521 L
3186 2715 L
3201 2709 L
3216 2631 L
3229 2595 L
3241 2771 L
3253 2663 L
3264 2716 L
3275 2561 L
3285 2690 L
3295 2649 L
3304 2699 L
3313 2677 L
3322 2740 L
3330 2687 L
3338 2631 L
3346 2745 L
3353 2680 L
3360 2692 L
3367 2718 L
3374 2757 L
3380 2689 L
3387 2621 L
3393 2776 L
3399 2676 L
3405 2835 L
3410 2936 L
3416 2776 L
3421 2708 L
3426 2648 L
3431 2822 L
3436 2757 L
3441 2631 L
3446 2690 L
3451 2728 L
3455 2844 L
3460 2881 L
3464 2648 L
3469 2640 L
3473 2677 L
3477 2774 L
3481 2707 L
3485 2802 L
3489 2768 L
3493 2699 L
3496 2707 L
3500 2695 L
3504 2703 L
3507 2711 L
3511 2616 L
3514 2665 L
3518 2900 L
3521 2670 L
3525 2723 L
3528 2598 L
3531 2615 L
3534 2712 L
3537 2659 L
3540 2683 L
3543 2646 L
3546 2719 L
3549 2788 L
3552 2622 L
3555 2890 L
3558 2658 L
3561 2686 L
3564 2763 L
3566 2619 L
3575 2584 L
3586 2751 L
3595 2792 L
3605 2559 L
3613 2703 L
3622 2573 L
3630 2603 L
3638 2767 L
3646 2673 L
3653 2644 L
3660 2556 L
3667 2635 L
3674 2656 L
3681 2767 L
3687 2708 L
3693 2583 L
3699 2639 L
3705 2638 L
3710 2700 L
3716 2505 L
3721 2595 L
3727 2559 L
3732 2544 L
3737 2637 L
3742 2563 L
3746 2546 L
3751 2675 L
3756 2808 L
3760 2711 L
3764 2625 L
3769 2494 L
3773 2678 L
3777 2476 L
3781 2609 L
3785 2656 L
3789 2567 L
3793 2601 L
3797 2648 L
3800 2654 L
3804 2538 L
3808 2489 L
3811 2485 L
3815 2485 L
3818 2557 L
3821 2559 L
3825 2467 L
3828 2528 L
3831 2533 L
3834 2390 L
3838 2530 L
3841 2589 L
3844 2577 L
3847 2503 L
3850 2533 L
3853 2503 L
3855 2599 L
3858 2508 L
3861 2572 L
3864 2690 L
3867 2600 L
3869 2510 L
3872 2604 L
3875 2557 L
3877 2561 L
3880 2581 L
3882 2396 L
3885 2431 L
3887 2534 L
3890 2600 L
3892 2558 L
3895 2480 L
3897 2499 L
3899 2524 L
3902 2588 L
3904 2519 L
3906 2658 L
3908 2582 L
3911 2543 L
3913 2676 L
3915 2599 L
3917 2537 L
3919 2549 L
3921 2550 L
3923 2513 L
3926 2431 L
3928 2615 L
3930 2463 L
3932 2628 L
3934 2646 L
3936 2561 L
3938 2500 L
3940 2506 L
3942 2618 L
3943 2640 L
3945 2523 L
3947 2567 L
3949 2632 L
3951 2552 L
3953 2527 L
3955 2532 L
3956 2466 L
3958 2366 L
3960 2418 L
3962 2428 L
3963 2430 L
3965 2500 L
3967 2483 L
3969 2549 L
3970 2609 L
3972 2504 L
3974 2516 L
3975 2654 L
3977 2571 L
3978 2463 L
3980 2572 L
3982 2724 L
3983 2459 L
3985 2525 L
3986 2596 L
3988 2371 L
3990 2407 L
3991 2420 L
3993 2653 L
3994 2572 L
3996 2466 L
3997 2517 L
3999 2417 L
4000 2509 L
4001 2295 L
4003 2595 L
4004 2485 L
4006 2402 L
4007 2380 L
4009 2605 L
4010 2505 L
4011 2348 L
4013 2597 L
4014 2565 L
4016 2599 L
4017 2407 L
4018 2506 L
4020 2413 L
4021 2456 L
4022 2593 L
4024 2415 L
4025 2528 L
4026 2404 L
4028 2344 L
4029 2478 L
4030 2498 L
4031 2542 L
4033 2520 L
4034 2542 L
4035 2540 L
4036 2631 L
4038 2586 L
4039 2561 L
4040 2484 L
4041 2483 L
4042 2389 L
4044 2428 L
4045 2509 L
4046 2494 L
4047 2516 L
4048 2472 L
4050 2567 L
4051 2447 L
4052 2689 L
4053 2432 L
4054 2554 L
4055 2448 L
4056 2434 L
4058 2644 L
4059 2488 L
4060 2499 L
4061 2482 L
4062 2600 L
4063 2621 L
4064 2476 L
4065 2512 L
4066 2416 L
L2 C06 COSGR

%
%================
% Legend - Begin
%================
%
GSN 4240 5180 M
4480 5180 L
LWMC SL  C06 COSGR
GSN 4540 5141 M helvM (3.0 uM) show grestore
%
%================
% Legend - End
%================
%

%
% Residuals:
%
GSN 773 750 M
1625 1420 L
1773 1538 L
1860 1517 L
1922 1569 L
1970 1544 L
2009 1502 L
2043 1509 L
2072 1467 L
2097 1455 L
2120 1487 L
2140 1449 L
2159 1427 L
2176 1446 L
2192 1434 L
2207 1406 L
2221 1415 L
2234 1373 L
2247 1387 L
2259 1390 L
2270 1400 L
2280 1408 L
2290 1357 L
2300 1345 L
2309 1325 L
2318 1338 L
2326 1395 L
2335 1378 L
2342 1335 L
2350 1331 L
2357 1319 L
2364 1316 L
2371 1318 L
2378 1336 L
2384 1245 L
2391 1335 L
2397 1262 L
2403 1262 L
2409 1243 L
2414 1269 L
2420 1267 L
2425 1202 L
2430 1255 L
2435 1252 L
2440 1212 L
2445 1236 L
2450 1261 L
2455 1254 L
2459 1193 L
2464 1206 L
2468 1211 L
2472 1185 L
2476 1176 L
2481 1201 L
2485 1209 L
2489 1176 L
2492 1154 L
2496 1157 L
2500 1155 L
2504 1201 L
2507 1162 L
2511 1194 L
2514 1193 L
2518 1154 L
2521 1157 L
2525 1128 L
2528 1122 L
2531 1174 L
2534 1153 L
2538 1176 L
2541 1108 L
2544 1136 L
2547 1145 L
2550 1151 L
2553 1141 L
2556 1131 L
2559 1104 L
2561 1103 L
2564 1126 L
2567 1131 L
2570 1138 L
2580 1085 L
2590 1069 L
2600 1062 L
2609 1012 L
2618 1061 L
2627 1078 L
2635 1042 L
2643 1045 L
2650 1031 L
2658 1055 L
2665 971 L
2672 1039 L
2678 1002 L
2685 990 L
2691 963 L
2697 968 L
2703 989 L
2709 979 L
2714 950 L
2720 971 L
2725 982 L
2730 1014 L
2735 960 L
2740 979 L
2745 1002 L
2750 971 L
2755 979 L
2759 961 L
2764 976 L
2768 963 L
2772 973 L
2777 933 L
2781 916 L
2785 930 L
2789 910 L
2793 941 L
2796 916 L
2800 977 L
2804 963 L
2808 968 L
2811 952 L
2815 982 L
2818 992 L
2822 936 L
2825 958 L
2828 983 L
2831 937 L
2835 1010 L
2838 960 L
2841 934 L
2844 995 L
2847 999 L
2850 995 L
2853 968 L
2856 914 L
2859 1016 L
2862 973 L
2864 962 L
2867 957 L
2870 1015 L
2873 980 L
2875 974 L
2878 1046 L
2880 950 L
2883 944 L
2886 978 L
2888 976 L
2891 988 L
2893 969 L
2895 943 L
2898 990 L
2900 1018 L
2902 991 L
2905 984 L
2907 968 L
2909 961 L
2912 1029 L
2914 996 L
2916 958 L
2918 1014 L
2920 974 L
2922 976 L
2925 1033 L
2927 991 L
2929 991 L
2931 1048 L
2933 1010 L
2935 999 L
2937 1027 L
2939 1038 L
2941 1014 L
2943 988 L
2945 1012 L
2947 1066 L
2948 1037 L
2950 988 L
2952 1057 L
2954 1049 L
2956 1012 L
2958 984 L
2959 1053 L
2961 1056 L
2963 1024 L
2965 972 L
2966 1053 L
2968 1033 L
2970 1040 L
2972 1083 L
2973 1028 L
2975 1048 L
2977 1071 L
2978 1030 L
2980 1045 L
2982 1033 L
2983 1064 L
2985 1071 L
2986 1046 L
2988 1033 L
2989 1030 L
2991 1035 L
2993 1059 L
2994 1097 L
2996 1054 L
2997 1069 L
2999 1006 L
3000 1078 L
3002 1043 L
3003 1077 L
3005 1059 L
3006 1042 L
3007 1100 L
3009 1095 L
3010 1048 L
3012 1067 L
3013 1084 L
3014 1100 L
3016 1050 L
3017 1093 L
3019 1108 L
3020 1082 L
3021 1073 L
3023 1036 L
3024 1086 L
3025 1040 L
3027 1074 L
3028 1089 L
3029 1086 L
3031 1102 L
3032 1095 L
3033 1058 L
3034 1133 L
3036 1071 L
3037 1066 L
3038 1126 L
3039 1091 L
3041 1085 L
3042 1096 L
3043 1046 L
3044 1063 L
3045 1134 L
3047 1120 L
3048 1107 L
3049 1140 L
3050 1083 L
3051 1067 L
3053 1079 L
3054 1137 L
3055 1111 L
3056 1078 L
3057 1093 L
3058 1125 L
3059 1106 L
3061 1107 L
3062 1063 L
3063 1126 L
3064 1148 L
3065 1102 L
3066 1096 L
3067 1106 L
3068 1119 L
3069 1106 L
3070 1111 L
3071 1120 L
3073 1072 L
3074 1139 L
3075 1121 L
3076 1110 L
3077 1122 L
3078 1144 L
3079 1065 L
3080 1095 L
3081 1113 L
3082 1146 L
3083 1104 L
3084 1126 L
3085 1112 L
3086 1125 L
3087 1127 L
3088 1059 L
3089 1159 L
3112 1131 L
3133 1177 L
3152 1135 L
3170 1128 L
3186 1189 L
3201 1188 L
3216 1163 L
3229 1152 L
3241 1207 L
3253 1173 L
3264 1190 L
3275 1141 L
3285 1182 L
3295 1169 L
3304 1185 L
3313 1178 L
3322 1198 L
3330 1181 L
3338 1163 L
3346 1199 L
3353 1179 L
3360 1183 L
3367 1191 L
3374 1203 L
3380 1182 L
3387 1161 L
3393 1209 L
3399 1178 L
3405 1228 L
3410 1260 L
3416 1210 L
3421 1188 L
3426 1169 L
3431 1224 L
3436 1204 L
3441 1164 L
3446 1183 L
3451 1195 L
3455 1232 L
3460 1243 L
3464 1170 L
3469 1168 L
3473 1179 L
3477 1210 L
3481 1189 L
3485 1219 L
3489 1208 L
3493 1186 L
3496 1189 L
3500 1185 L
3504 1188 L
3507 1190 L
3511 1160 L
3514 1176 L
3518 1250 L
3521 1177 L
3525 1194 L
3528 1155 L
3531 1160 L
3534 1191 L
3537 1174 L
3540 1182 L
3543 1170 L
3546 1193 L
3549 1215 L
3552 1163 L
3555 1248 L
3558 1174 L
3561 1183 L
3564 1208 L
3566 1162 L
3575 1151 L
3586 1204 L
3595 1217 L
3605 1144 L
3613 1190 L
3622 1149 L
3630 1159 L
3638 1210 L
3646 1181 L
3653 1172 L
3660 1144 L
3667 1170 L
3674 1176 L
3681 1212 L
3687 1193 L
3693 1154 L
3699 1172 L
3705 1172 L
3710 1191 L
3716 1130 L
3721 1159 L
3727 1147 L
3732 1143 L
3737 1172 L
3742 1149 L
3746 1144 L
3751 1185 L
3756 1227 L
3760 1197 L
3764 1170 L
3769 1129 L
3773 1187 L
3777 1123 L
3781 1165 L
3785 1180 L
3789 1153 L
3793 1163 L
3797 1178 L
3800 1180 L
3804 1144 L
3808 1129 L
3811 1128 L
3815 1128 L
3818 1151 L
3821 1152 L
3825 1123 L
3828 1142 L
3831 1144 L
3834 1099 L
3838 1143 L
3841 1162 L
3844 1159 L
3847 1135 L
3850 1145 L
3853 1136 L
3855 1166 L
3858 1138 L
3861 1158 L
3864 1195 L
3867 1167 L
3869 1139 L
3872 1169 L
3875 1154 L
3877 1155 L
3880 1162 L
3882 1104 L
3885 1115 L
3887 1148 L
3890 1169 L
3892 1156 L
3895 1131 L
3897 1137 L
3899 1146 L
3902 1166 L
3904 1144 L
3906 1188 L
3908 1164 L
3911 1152 L
3913 1194 L
3915 1170 L
3917 1151 L
3919 1155 L
3921 1155 L
3923 1144 L
3926 1118 L
3928 1176 L
3930 1129 L
3932 1181 L
3934 1187 L
3936 1160 L
3938 1141 L
3940 1143 L
3942 1178 L
3943 1186 L
3945 1149 L
3947 1163 L
3949 1183 L
3951 1158 L
3953 1151 L
3955 1152 L
3956 1132 L
3958 1100 L
3960 1117 L
3962 1120 L
3963 1121 L
3965 1143 L
3967 1138 L
3969 1159 L
3970 1178 L
3972 1145 L
3974 1149 L
3975 1193 L
3977 1167 L
3978 1133 L
3980 1167 L
3982 1215 L
3983 1132 L
3985 1153 L
3986 1176 L
3988 1105 L
3990 1116 L
3991 1120 L
3993 1194 L
3994 1169 L
3996 1135 L
3997 1152 L
3999 1120 L
4000 1149 L
4001 1082 L
4003 1177 L
4004 1142 L
4006 1116 L
4007 1109 L
4009 1181 L
4010 1149 L
4011 1100 L
4013 1179 L
4014 1169 L
4016 1179 L
4017 1119 L
4018 1150 L
4020 1121 L
4021 1135 L
4022 1178 L
4024 1122 L
4025 1158 L
4026 1119 L
4028 1100 L
4029 1143 L
4030 1149 L
4031 1163 L
4033 1156 L
4034 1163 L
4035 1163 L
4036 1192 L
4038 1178 L
4039 1170 L
4040 1146 L
4041 1146 L
4042 1116 L
4044 1128 L
4045 1154 L
4046 1150 L
4047 1157 L
4048 1143 L
4050 1173 L
4051 1135 L
4052 1212 L
4053 1131 L
4054 1170 L
4055 1136 L
4056 1132 L
4058 1199 L
4059 1149 L
4060 1153 L
4061 1148 L
4062 1185 L
4063 1192 L
4064 1146 L
4065 1158 L
4066 1127 L
L2 C06 COSGR

%
% Main frame
%
L10
GSN 
620 1700 M
4220 1700 L
4220 5300 L
620 5300 L
closepath SGR

%
% X axis: large tics
%
L10
GSN 1074 1700 M 0  54 rL SGR
GSN 1074 5300 M 0 -54 rL SGR
helvS (0.0001) 1074 470 xlabel
GSN 1572 1700 M 0  54 rL SGR
GSN 1572 5300 M 0 -54 rL SGR
helvS (0.001) 1572 470 xlabel
GSN 2071 1700 M 0  54 rL SGR
GSN 2071 5300 M 0 -54 rL SGR
helvS (0.01) 2071 470 xlabel
GSN 2570 1700 M 0  54 rL SGR
GSN 2570 5300 M 0 -54 rL SGR
helvS (0.1) 2570 470 xlabel
GSN 3068 1700 M 0  54 rL SGR
GSN 3068 5300 M 0 -54 rL SGR
helvS (1) 3068 470 xlabel
GSN 3567 1700 M 0  54 rL SGR
GSN 3567 5300 M 0 -54 rL SGR
helvS (10) 3567 470 xlabel
GSN 4066 1700 M 0  54 rL SGR
GSN 4066 5300 M 0 -54 rL SGR
helvS (100) 4066 470 xlabel
%
% X axis: small tics
%
L5
GSN 725 1700 M 0  36 rL SGR
GSN 725 5300 M 0 -36 rL SGR
GSN 813 1700 M 0  36 rL SGR
GSN 813 5300 M 0 -36 rL SGR
GSN 875 1700 M 0  36 rL SGR
GSN 875 5300 M 0 -36 rL SGR
GSN 924 1700 M 0  36 rL SGR
GSN 924 5300 M 0 -36 rL SGR
GSN 963 1700 M 0  36 rL SGR
GSN 963 5300 M 0 -36 rL SGR
GSN 996 1700 M 0  36 rL SGR
GSN 996 5300 M 0 -36 rL SGR
GSN 1025 1700 M 0  36 rL SGR
GSN 1025 5300 M 0 -36 rL SGR
GSN 1051 1700 M 0  36 rL SGR
GSN 1051 5300 M 0 -36 rL SGR
GSN 1224 1700 M 0  36 rL SGR
GSN 1224 5300 M 0 -36 rL SGR
GSN 1312 1700 M 0  36 rL SGR
GSN 1312 5300 M 0 -36 rL SGR
GSN 1374 1700 M 0  36 rL SGR
GSN 1374 5300 M 0 -36 rL SGR
GSN 1422 1700 M 0  36 rL SGR
GSN 1422 5300 M 0 -36 rL SGR
GSN 1462 1700 M 0  36 rL SGR
GSN 1462 5300 M 0 -36 rL SGR
GSN 1495 1700 M 0  36 rL SGR
GSN 1495 5300 M 0 -36 rL SGR
GSN 1524 1700 M 0  36 rL SGR
GSN 1524 5300 M 0 -36 rL SGR
GSN 1550 1700 M 0  36 rL SGR
GSN 1550 5300 M 0 -36 rL SGR
GSN 1722 1700 M 0  36 rL SGR
GSN 1722 5300 M 0 -36 rL SGR
GSN 1810 1700 M 0  36 rL SGR
GSN 1810 5300 M 0 -36 rL SGR
GSN 1873 1700 M 0  36 rL SGR
GSN 1873 5300 M 0 -36 rL SGR
GSN 1921 1700 M 0  36 rL SGR
GSN 1921 5300 M 0 -36 rL SGR
GSN 1960 1700 M 0  36 rL SGR
GSN 1960 5300 M 0 -36 rL SGR
GSN 1994 1700 M 0  36 rL SGR
GSN 1994 5300 M 0 -36 rL SGR
GSN 2023 1700 M 0  36 rL SGR
GSN 2023 5300 M 0 -36 rL SGR
GSN 2048 1700 M 0  36 rL SGR
GSN 2048 5300 M 0 -36 rL SGR
GSN 2221 1700 M 0  36 rL SGR
GSN 2221 5300 M 0 -36 rL SGR
GSN 2309 1700 M 0  36 rL SGR
GSN 2309 5300 M 0 -36 rL SGR
GSN 2371 1700 M 0  36 rL SGR
GSN 2371 5300 M 0 -36 rL SGR
GSN 2420 1700 M 0  36 rL SGR
GSN 2420 5300 M 0 -36 rL SGR
GSN 2459 1700 M 0  36 rL SGR
GSN 2459 5300 M 0 -36 rL SGR
GSN 2492 1700 M 0  36 rL SGR
GSN 2492 5300 M 0 -36 rL SGR
GSN 2521 1700 M 0  36 rL SGR
GSN 2521 5300 M 0 -36 rL SGR
GSN 2547 1700 M 0  36 rL SGR
GSN 2547 5300 M 0 -36 rL SGR
GSN 2720 1700 M 0  36 rL SGR
GSN 2720 5300 M 0 -36 rL SGR
GSN 2808 1700 M 0  36 rL SGR
GSN 2808 5300 M 0 -36 rL SGR
GSN 2870 1700 M 0  36 rL SGR
GSN 2870 5300 M 0 -36 rL SGR
GSN 2918 1700 M 0  36 rL SGR
GSN 2918 5300 M 0 -36 rL SGR
GSN 2958 1700 M 0  36 rL SGR
GSN 2958 5300 M 0 -36 rL SGR
GSN 2991 1700 M 0  36 rL SGR
GSN 2991 5300 M 0 -36 rL SGR
GSN 3020 1700 M 0  36 rL SGR
GSN 3020 5300 M 0 -36 rL SGR
GSN 3045 1700 M 0  36 rL SGR
GSN 3045 5300 M 0 -36 rL SGR
GSN 3218 1700 M 0  36 rL SGR
GSN 3218 5300 M 0 -36 rL SGR
GSN 3306 1700 M 0  36 rL SGR
GSN 3306 5300 M 0 -36 rL SGR
GSN 3368 1700 M 0  36 rL SGR
GSN 3368 5300 M 0 -36 rL SGR
GSN 3417 1700 M 0  36 rL SGR
GSN 3417 5300 M 0 -36 rL SGR
GSN 3456 1700 M 0  36 rL SGR
GSN 3456 5300 M 0 -36 rL SGR
GSN 3490 1700 M 0  36 rL SGR
GSN 3490 5300 M 0 -36 rL SGR
GSN 3519 1700 M 0  36 rL SGR
GSN 3519 5300 M 0 -36 rL SGR
GSN 3544 1700 M 0  36 rL SGR
GSN 3544 5300 M 0 -36 rL SGR
GSN 3717 1700 M 0  36 rL SGR
GSN 3717 5300 M 0 -36 rL SGR
GSN 3805 1700 M 0  36 rL SGR
GSN 3805 5300 M 0 -36 rL SGR
GSN 3867 1700 M 0  36 rL SGR
GSN 3867 5300 M 0 -36 rL SGR
GSN 3915 1700 M 0  36 rL SGR
GSN 3915 5300 M 0 -36 rL SGR
GSN 3955 1700 M 0  36 rL SGR
GSN 3955 5300 M 0 -36 rL SGR
GSN 3988 1700 M 0  36 rL SGR
GSN 3988 5300 M 0 -36 rL SGR
GSN 4017 1700 M 0  36 rL SGR
GSN 4017 5300 M 0 -36 rL SGR
GSN 4043 1700 M 0  36 rL SGR
GSN 4043 5300 M 0 -36 rL SGR
GSN 4216 1700 M 0  36 rL SGR
GSN 4216 5300 M 0 -36 rL SGR
%
% Y axis: large tics
%
L10
GSN 620 2362 M 54 0 rL SGR
GSN 4220 2362 M -54 0 rL SGR
helvS (0.925) 560 2362 ylabel
GSN 620 3115 M 54 0 rL SGR
GSN 4220 3115 M -54 0 rL SGR
helvS (0.95) 560 3115 ylabel
GSN 620 3868 M 54 0 rL SGR
GSN 4220 3868 M -54 0 rL SGR
helvS (0.975) 560 3868 ylabel
GSN 620 4622 M 54 0 rL SGR
GSN 4220 4622 M -54 0 rL SGR
helvS (1) 560 4622 ylabel
%
% Y axis: small tics
%
L5
GSN 620 1985 M 36 0 rL SGR
GSN 4220 1985 M -36 0 rL SGR
GSN 620 2362 M 36 0 rL SGR
GSN 4220 2362 M -36 0 rL SGR
GSN 620 2738 M 36 0 rL SGR
GSN 4220 2738 M -36 0 rL SGR
GSN 620 3115 M 36 0 rL SGR
GSN 4220 3115 M -36 0 rL SGR
GSN 620 3492 M 36 0 rL SGR
GSN 4220 3492 M -36 0 rL SGR
GSN 620 3868 M 36 0 rL SGR
GSN 4220 3868 M -36 0 rL SGR
GSN 620 4245 M 36 0 rL SGR
GSN 4220 4245 M -36 0 rL SGR
GSN 620 4622 M 36 0 rL SGR
GSN 4220 4622 M -36 0 rL SGR
GSN 620 4999 M 36 0 rL SGR
GSN 4220 4999 M -36 0 rL SGR

%
% X-Axis label:
%
gsave 2420 290 M 
[
[(Helvetica) 180 0 true true 0 (t)]
[(Helvetica) 180 0 true true 0 (i)]
[(Helvetica) 180 0 true true 0 (m)]
[(Helvetica) 180 0 true true 0 (e)]
] 0 MCshow grestore

%
% Y-Axis label:
%
gsave 234 3500 M 
currentpoint gsave translate 90 rotate 0 0 moveto
[
[(Helvetica) 180 0 true true 0 (s)]
[(Helvetica) 180 0 true true 0 (i)]
[(Helvetica) 180 0 true true 0 (g)]
[(Helvetica) 180 0 true true 0 (n)]
[(Helvetica) 180 0 true true 0 (a)]
[(Helvetica) 180 0 true true 0 (l)]
] 0 MCshow grestore

%
% Residuals:
%
gsave 129 1160 M 
currentpoint gsave translate 90 rotate 0 0 moveto
[
[(Helvetica) 150 0 true true 0 (r)]
[(Helvetica) 150 0 true true 0 (e)]
[(Helvetica) 150 0 true true 0 (s)]
[(Helvetica) 150 0 true true 0 (i)]
[(Helvetica) 150 0 true true 0 (d)]
[(Helvetica) 150 0 true true 0 (u)]
[(Helvetica) 150 0 true true 0 (a)]
[(Helvetica) 150 0 true true 0 (l)]
[(Helvetica) 150 0 true true 0 (s)]
] 0 MCshow grestore

%
% Residual frame
%
L10
GSN 
620 620 M
4220 620 L
4220 1700 L
620 1700 L
closepath SGR
%
% X axis: large tics - residual frame
%
L10
GSN 1074 620 M 0  54 rL SGR
GSN 1074 1700 M 0 -54 rL SGR
GSN 1572 620 M 0  54 rL SGR
GSN 1572 1700 M 0 -54 rL SGR
GSN 2071 620 M 0  54 rL SGR
GSN 2071 1700 M 0 -54 rL SGR
GSN 2570 620 M 0  54 rL SGR
GSN 2570 1700 M 0 -54 rL SGR
GSN 3068 620 M 0  54 rL SGR
GSN 3068 1700 M 0 -54 rL SGR
GSN 3567 620 M 0  54 rL SGR
GSN 3567 1700 M 0 -54 rL SGR
GSN 4066 620 M 0  54 rL SGR
GSN 4066 1700 M 0 -54 rL SGR
%
% X axis: small tics - residual frame
%
L5
GSN 725 620 M 0  36 rL SGR
GSN 725 1700 M 0 -36 rL SGR
GSN 813 620 M 0  36 rL SGR
GSN 813 1700 M 0 -36 rL SGR
GSN 875 620 M 0  36 rL SGR
GSN 875 1700 M 0 -36 rL SGR
GSN 924 620 M 0  36 rL SGR
GSN 924 1700 M 0 -36 rL SGR
GSN 963 620 M 0  36 rL SGR
GSN 963 1700 M 0 -36 rL SGR
GSN 996 620 M 0  36 rL SGR
GSN 996 1700 M 0 -36 rL SGR
GSN 1025 620 M 0  36 rL SGR
GSN 1025 1700 M 0 -36 rL SGR
GSN 1051 620 M 0  36 rL SGR
GSN 1051 1700 M 0 -36 rL SGR
GSN 1224 620 M 0  36 rL SGR
GSN 1224 1700 M 0 -36 rL SGR
GSN 1312 620 M 0  36 rL SGR
GSN 1312 1700 M 0 -36 rL SGR
GSN 1374 620 M 0  36 rL SGR
GSN 1374 1700 M 0 -36 rL SGR
GSN 1422 620 M 0  36 rL SGR
GSN 1422 1700 M 0 -36 rL SGR
GSN 1462 620 M 0  36 rL SGR
GSN 1462 1700 M 0 -36 rL SGR
GSN 1495 620 M 0  36 rL SGR
GSN 1495 1700 M 0 -36 rL SGR
GSN 1524 620 M 0  36 rL SGR
GSN 1524 1700 M 0 -36 rL SGR
GSN 1550 620 M 0  36 rL SGR
GSN 1550 1700 M 0 -36 rL SGR
GSN 1722 620 M 0  36 rL SGR
GSN 1722 1700 M 0 -36 rL SGR
GSN 1810 620 M 0  36 rL SGR
GSN 1810 1700 M 0 -36 rL SGR
GSN 1873 620 M 0  36 rL SGR
GSN 1873 1700 M 0 -36 rL SGR
GSN 1921 620 M 0  36 rL SGR
GSN 1921 1700 M 0 -36 rL SGR
GSN 1960 620 M 0  36 rL SGR
GSN 1960 1700 M 0 -36 rL SGR
GSN 1994 620 M 0  36 rL SGR
GSN 1994 1700 M 0 -36 rL SGR
GSN 2023 620 M 0  36 rL SGR
GSN 2023 1700 M 0 -36 rL SGR
GSN 2048 620 M 0  36 rL SGR
GSN 2048 1700 M 0 -36 rL SGR
GSN 2221 620 M 0  36 rL SGR
GSN 2221 1700 M 0 -36 rL SGR
GSN 2309 620 M 0  36 rL SGR
GSN 2309 1700 M 0 -36 rL SGR
GSN 2371 620 M 0  36 rL SGR
GSN 2371 1700 M 0 -36 rL SGR
GSN 2420 620 M 0  36 rL SGR
GSN 2420 1700 M 0 -36 rL SGR
GSN 2459 620 M 0  36 rL SGR
GSN 2459 1700 M 0 -36 rL SGR
GSN 2492 620 M 0  36 rL SGR
GSN 2492 1700 M 0 -36 rL SGR
GSN 2521 620 M 0  36 rL SGR
GSN 2521 1700 M 0 -36 rL SGR
GSN 2547 620 M 0  36 rL SGR
GSN 2547 1700 M 0 -36 rL SGR
GSN 2720 620 M 0  36 rL SGR
GSN 2720 1700 M 0 -36 rL SGR
GSN 2808 620 M 0  36 rL SGR
GSN 2808 1700 M 0 -36 rL SGR
GSN 2870 620 M 0  36 rL SGR
GSN 2870 1700 M 0 -36 rL SGR
GSN 2918 620 M 0  36 rL SGR
GSN 2918 1700 M 0 -36 rL SGR
GSN 2958 620 M 0  36 rL SGR
GSN 2958 1700 M 0 -36 rL SGR
GSN 2991 620 M 0  36 rL SGR
GSN 2991 1700 M 0 -36 rL SGR
GSN 3020 620 M 0  36 rL SGR
GSN 3020 1700 M 0 -36 rL SGR
GSN 3045 620 M 0  36 rL SGR
GSN 3045 1700 M 0 -36 rL SGR
GSN 3218 620 M 0  36 rL SGR
GSN 3218 1700 M 0 -36 rL SGR
GSN 3306 620 M 0  36 rL SGR
GSN 3306 1700 M 0 -36 rL SGR
GSN 3368 620 M 0  36 rL SGR
GSN 3368 1700 M 0 -36 rL SGR
GSN 3417 620 M 0  36 rL SGR
GSN 3417 1700 M 0 -36 rL SGR
GSN 3456 620 M 0  36 rL SGR
GSN 3456 1700 M 0 -36 rL SGR
GSN 3490 620 M 0  36 rL SGR
GSN 3490 1700 M 0 -36 rL SGR
GSN 3519 620 M 0  36 rL SGR
GSN 3519 1700 M 0 -36 rL SGR
GSN 3544 620 M 0  36 rL SGR
GSN 3544 1700 M 0 -36 rL SGR
GSN 3717 620 M 0  36 rL SGR
GSN 3717 1700 M 0 -36 rL SGR
GSN 3805 620 M 0  36 rL SGR
GSN 3805 1700 M 0 -36 rL SGR
GSN 3867 620 M 0  36 rL SGR
GSN 3867 1700 M 0 -36 rL SGR
GSN 3915 620 M 0  36 rL SGR
GSN 3915 1700 M 0 -36 rL SGR
GSN 3955 620 M 0  36 rL SGR
GSN 3955 1700 M 0 -36 rL SGR
GSN 3988 620 M 0  36 rL SGR
GSN 3988 1700 M 0 -36 rL SGR
GSN 4017 620 M 0  36 rL SGR
GSN 4017 1700 M 0 -36 rL SGR
GSN 4043 620 M 0  36 rL SGR
GSN 4043 1700 M 0 -36 rL SGR
GSN 4216 620 M 0  36 rL SGR
GSN 4216 1700 M 0 -36 rL SGR
%
% Y axis: large tics - residual frame
%
L10
GSN 620 658 M 54 0 rL SGR
GSN 4220 658 M -54 0 rL SGR
helvS (-0.05) 560 658 ylabelresid
GSN 620 1134 M 54 0 rL SGR
GSN 4220 1134 M -54 0 rL SGR
helvS (0) 560 1134 ylabelresid
GSN 620 1609 M 54 0 rL SGR
GSN 4220 1609 M -54 0 rL SGR
helvS (0.05) 560 1609 ylabelresid

%
% X axis - residual panel
%
GSN L5 620 1134 M 4220 1134 L SDA G50 SGR

end
showpage
%%Trailer
%%EOF
