%!PS-Adobe-3.0 EPSF-3.0
%%BoundingBox: 0 0 514 550
%%Creator: BioKin Ltd.
%%DocumentFonts: Symbol Helvetica
%%EndComments
%
/bkdict 256 dict def
bkdict begin
/M {moveto} def 
/R {rmoveto} def
/L {lineto} def
/rL {rlineto} def
/GSN {gsave newpath} def
/SGR {stroke grestore} def
/COSGR {gsave setrgbcolor stroke grestore grestore} def
/SL {setlinewidth} def
/LWMB {12} def             % line width - model curves, black & white
/LWMC {10} def             % line width - model curves, color
/L2 {2.5 setlinewidth} def
/L5 {5 setlinewidth} def
/L10 {10 setlinewidth} def
/G50 {0.5 setgray} def
/SDA {[10  20] 0 setdash} def % axes
/helvT {/Helvetica findfont 100 scalefont setfont} def % tiny
/helvS {/Helvetica findfont 125 scalefont setfont} def % small
/helvM {/Helvetica findfont 150 scalefont setfont} def % medium
/helvL {/Helvetica findfont 175 scalefont setfont} def % large
/xlabel {gsave M dup
   stringwidth exch -0.5 mul exch rmoveto show grestore} def 
/ylabel {gsave M 90 rotate dup
   stringwidth exch -0.5 mul exch rmoveto show grestore} def
/ylabelresid {gsave M dup
   stringwidth exch -1 mul exch rmoveto show grestore} def
% ======
% Shapes
% ======
% Circle:
/Circ {0 360 arc closepath} def
%
% Square:
/Squa {dup dup -0.5 mul dup dup R -2 mul 0 exch rL 1 mul 0 rL dup 0 exch -1 mul rL closepath} def
%
% Triangle Up:
/TriU {dup dup dup -0.4 mul exch -0.5 mul exch R dup 0.5 mul exch rL dup -1 mul exch 0.5 mul exch rL closepath} def 
%
% Triangle Down:
/TriD {dup dup dup 0.4 mul exch -0.5 mul exch R dup 0.5 mul exch -1 mul rL dup 0.5 mul exch rL closepath} def 
%
% Diamond:
/Diam {45 rotate Squa} def
% ======
% Fills
% ======
/GRF {gsave setgray fill grestore} def                    % gray-level Fill
/COF {gsave setrgbcolor fill grestore} def                % color fill
% ======
% Colors
% ======
/C01 {1.00	0.00	0.00} def      % Red
/C02 {0.00	0.00	1.00} def      % Blue
/C03 {0.00	0.39	0.00} def      % Dark Green
/C04 {0.78	0.08	0.52} def      % Medium Violet Red
/C05 {0.55	0.27	0.07} def      % Saddle Brown
/C06 {0.10	0.70	0.70} def      % (cyan)
/C07 {1.00	0.55	0.00} def      % Dark Orange
/C08 {0.63	0.13	0.94} def      % Purple
/C09 {0.00	0.75	1.00} def      % Deep Sky Blue
/C10 {0.20	0.80	0.20} def      % Lime Green
/C11 {0.47	0.53	0.60} def      % Light Slate Gray
/C12 {0.00	0.00	0.00} def      % Black            % or: {0.19	0.31	0.31} def      % Dark Slate Gray
%
/LGR {0.75} def % light gray
/DGR {0.33} def % dark gray
%
% =============
% Dash patterns
% =============
/dash01 { [80  20] 0 setdash } def
/dash02 { [40  20] 0 setdash } def
/dash03 { [80  20  10  20] 0 setdash } def
/dash04 { [40  20  10  20] 0 setdash } def
/dash05 { [80  20  10  10  10  20] 0 setdash } def
/dash06 { [40  20  10  10  10  20] 0 setdash } def
/dash07 { [10  10] 0 setdash } def
%
/MFshow {
   { dup 5 get 3 ge
     { 5 get 3 eq {gsave} {grestore} ifelse }
     {dup dup 0 get findfont exch 1 get scalefont setfont
     [ currentpoint ] exch dup 2 get 0 exch R dup 5 get 2 ne {dup dup 6
     get exch 4 get {show} {stringwidth pop 0 R} ifelse }if dup 5 get 0 eq
     {dup 3 get {2 get neg 0 exch R pop} {pop aload pop M} ifelse} {dup 5
     get 1 eq {dup 2 get exch dup 3 get exch 6 get stringwidth pop -2 div
     dup 0 R} {dup 6 get stringwidth pop -2 div 0 R 6 get
     show 2 index {aload pop M neg 3 -1 roll neg R pop pop} {pop pop pop
     pop aload pop M} ifelse }ifelse }ifelse }
     ifelse }
   forall} bind def
/MFwidth {0 exch {dup 3 get{dup dup 0 get findfont exch 1 get scalefont
     setfont 6 get stringwidth pop add} {pop} ifelse} forall} bind def
/MCshow { currentpoint stroke M
  exch dup MFwidth -2 div 3 -1 roll R MFshow } def
%
end
%%EndProlog
bkdict begin
0.1 0.1 scale
%
% Residuals:
%
GSN 620 3946 M
620 4796 L
620 4863 L
620 4650 L
620 4812 L
620 4695 L
620 4521 L
620 4548 L
620 4380 L
620 4329 L
620 4460 L
620 4306 L
620 4218 L
620 4296 L
620 4245 L
620 4135 L
620 4169 L
620 4001 L
620 4057 L
620 4070 L
620 4110 L
620 4141 L
620 3937 L
620 3888 L
620 3809 L
620 3862 L
620 4090 L
620 4021 L
620 3846 L
620 3830 L
620 3785 L
620 3773 L
620 3779 L
620 3851 L
620 3488 L
620 3846 L
620 3555 L
620 3555 L
620 3477 L
620 3584 L
620 3575 L
620 3312 L
620 3527 L
620 3514 L
620 3353 L
620 3448 L
620 3551 L
620 3522 L
620 3279 L
620 3329 L
620 3348 L
620 3243 L
620 3209 L
620 3310 L
620 3341 L
620 3209 L
620 3118 L
620 3131 L
620 3123 L
620 3310 L
620 3151 L
620 3279 L
620 3276 L
620 3120 L
620 3131 L
620 3014 L
620 2993 L
620 3202 L
620 3114 L
620 3207 L
620 2934 L
620 3046 L
620 3085 L
620 3106 L
620 3066 L
620 3027 L
620 2917 L
620 2915 L
620 3006 L
620 3025 L
620 3055 L
620 2841 L
620 2779 L
620 2749 L
620 2549 L
620 2747 L
620 2815 L
620 2669 L
620 2679 L
620 2623 L
620 2722 L
620 2382 L
620 2654 L
620 2506 L
620 2458 L
620 2352 L
620 2372 L
620 2456 L
620 2415 L
620 2299 L
620 2381 L
620 2424 L
620 2553 L
620 2338 L
620 2414 L
620 2505 L
620 2381 L
620 2414 L
620 2341 L
620 2400 L
620 2350 L
620 2391 L
620 2229 L
620 2159 L
620 2217 L
620 2136 L
620 2258 L
620 2158 L
620 2403 L
620 2347 L
620 2367 L
620 2304 L
620 2423 L
620 2464 L
620 2237 L
620 2327 L
620 2428 L
620 2241 L
620 2535 L
620 2336 L
620 2231 L
620 2475 L
620 2491 L
620 2477 L
620 2364 L
620 2149 L
620 2559 L
620 2386 L
620 2343 L
620 2321 L
620 2556 L
620 2414 L
620 2389 L
620 2680 L
620 2293 L
620 2269 L
620 2406 L
620 2395 L
620 2444 L
620 2369 L
620 2266 L
620 2453 L
620 2563 L
620 2456 L
620 2429 L
620 2363 L
620 2335 L
620 2608 L
620 2477 L
620 2324 L
620 2549 L
620 2386 L
620 2394 L
620 2625 L
620 2454 L
620 2454 L
620 2685 L
620 2533 L
620 2487 L
620 2600 L
620 2645 L
620 2546 L
620 2441 L
620 2537 L
620 2754 L
620 2638 L
620 2440 L
620 2718 L
620 2688 L
620 2537 L
620 2424 L
620 2701 L
620 2716 L
620 2585 L
620 2377 L
620 2704 L
620 2622 L
620 2651 L
620 2822 L
620 2601 L
620 2682 L
620 2775 L
620 2610 L
620 2671 L
620 2621 L
620 2744 L
620 2773 L
620 2673 L
620 2620 L
620 2607 L
620 2628 L
620 2723 L
620 2877 L
620 2704 L
620 2763 L
620 2510 L
620 2799 L
620 2659 L
620 2797 L
620 2724 L
620 2653 L
620 2886 L
620 2867 L
620 2679 L
620 2756 L
620 2825 L
620 2889 L
620 2686 L
620 2858 L
620 2921 L
620 2816 L
620 2780 L
620 2632 L
620 2831 L
620 2645 L
620 2783 L
620 2841 L
620 2831 L
620 2894 L
620 2867 L
620 2719 L
620 3019 L
620 2769 L
620 2749 L
620 2988 L
620 2848 L
620 2827 L
620 2869 L
620 2667 L
620 2736 L
620 3022 L
620 2965 L
620 2913 L
620 3044 L
620 2816 L
620 2751 L
620 2799 L
620 3034 L
620 2928 L
620 2798 L
620 2856 L
620 2984 L
620 2907 L
620 2911 L
620 2735 L
620 2987 L
620 3078 L
620 2891 L
620 2866 L
620 2908 L
620 2958 L
620 2909 L
620 2928 L
620 2963 L
620 2772 L
620 3038 L
620 2967 L
620 2921 L
620 2972 L
620 3059 L
620 2740 L
620 2863 L
620 2936 L
620 3066 L
620 2899 L
620 2986 L
620 2928 L
620 2984 L
620 2988 L
620 2717 L
620 3119 L
620 3002 L
620 3186 L
620 3017 L
620 2984 L
620 3229 L
620 3220 L
620 3118 L
620 3071 L
620 3292 L
620 3154 L
620 3220 L
620 3022 L
620 3184 L
620 3129 L
620 3191 L
620 3163 L
620 3241 L
620 3173 L
620 3101 L
620 3244 L
620 3160 L
620 3175 L
620 3206 L
620 3255 L
620 3168 L
620 3081 L
620 3275 L
620 3148 L
620 3348 L
620 3476 L
620 3272 L
620 3186 L
620 3108 L
620 3328 L
620 3244 L
620 3085 L
620 3159 L
620 3206 L
620 3353 L
620 3399 L
620 3103 L
620 3093 L
620 3139 L
620 3261 L
620 3175 L
620 3295 L
620 3252 L
620 3163 L
620 3174 L
620 3158 L
620 3168 L
620 3178 L
620 3057 L
620 3119 L
620 3416 L
620 3124 L
620 3191 L
620 3032 L
620 3053 L
620 3176 L
620 3109 L
620 3139 L
620 3092 L
620 3185 L
620 3271 L
620 3061 L
620 3400 L
620 3107 L
620 3142 L
620 3240 L
620 3056 L
620 3011 L
620 3223 L
620 3274 L
620 2979 L
620 3162 L
620 2997 L
620 3036 L
620 3244 L
620 3124 L
620 3088 L
620 2977 L
620 3079 L
620 3105 L
620 3247 L
620 3173 L
620 3015 L
620 3087 L
620 3086 L
620 3165 L
620 2919 L
620 3034 L
620 2988 L
620 2970 L
620 3089 L
620 2997 L
620 2975 L
620 3140 L
620 3309 L
620 3187 L
620 3078 L
620 2914 L
620 3148 L
620 2891 L
620 3061 L
620 3122 L
620 3010 L
620 3053 L
620 3113 L
620 3121 L
620 2976 L
620 2914 L
620 2909 L
620 2911 L
620 3002 L
620 3006 L
620 2889 L
620 2967 L
620 2974 L
620 2794 L
620 2971 L
620 3047 L
620 3033 L
620 2939 L
620 2978 L
620 2940 L
620 3062 L
620 2948 L
620 3029 L
620 3179 L
620 3065 L
620 2952 L
620 3071 L
620 3012 L
620 3017 L
620 3044 L
620 2809 L
620 2855 L
620 2985 L
620 3069 L
620 3017 L
620 2917 L
620 2943 L
620 2975 L
620 3055 L
620 2969 L
620 3145 L
620 3049 L
620 3001 L
620 3169 L
620 3071 L
620 2994 L
620 3009 L
620 3010 L
620 2964 L
620 2860 L
620 3093 L
620 2902 L
620 3111 L
620 3134 L
620 3027 L
620 2949 L
620 2957 L
620 3099 L
620 3128 L
620 2980 L
620 3036 L
620 3118 L
620 3017 L
620 2985 L
620 2991 L
620 2908 L
620 2782 L
620 2848 L
620 2861 L
620 2863 L
620 2952 L
620 2931 L
620 3015 L
620 3091 L
620 2958 L
620 2973 L
620 3148 L
620 3044 L
620 2906 L
620 3045 L
620 3237 L
620 2902 L
620 2985 L
620 3076 L
620 2790 L
620 2836 L
620 2853 L
620 3148 L
620 3046 L
620 2912 L
620 2977 L
620 2849 L
620 2966 L
620 2695 L
620 3075 L
620 2936 L
620 2831 L
620 2802 L
620 3088 L
620 2962 L
620 2763 L
620 3079 L
620 3038 L
620 3081 L
620 2837 L
620 2963 L
620 2845 L
620 2900 L
620 3074 L
620 2848 L
620 2992 L
620 2835 L
620 2758 L
620 2929 L
620 2954 L
620 3009 L
620 2982 L
620 3009 L
620 3008 L
620 3123 L
620 3065 L
620 3034 L
620 2936 L
620 2935 L
620 2816 L
620 2865 L
620 2968 L
620 2950 L
620 2977 L
620 2921 L
620 3042 L
620 2889 L
620 3197 L
620 2871 L
620 3026 L
620 2892 L
620 2874 L
620 3140 L
620 2941 L
620 2955 L
620 2935 L
620 3084 L
620 3111 L
620 2927 L
620 2973 L
620 2850 L
L2 C06 COSGR

%
%================
% Legend - Begin
%================
%
GSN 4240 5180 M
4480 5180 L
LWMC SL  C06 COSGR
GSN 4540 5141 M helvM (3.0 uM) show grestore
%
%================
% Legend - End
%================
%

%
% Main frame
%
L10
GSN 
620 1700 M
4220 1700 L
4220 5300 L
620 5300 L
closepath SGR

%
% X axis: large tics
%
L10
%
% X axis: small tics
%
L5
%
% Y axis: large tics
%
L10
GSN 620 2221 M 54 0 rL SGR
GSN 4220 2221 M -54 0 rL SGR
helvS (-0.02) 560 2221 ylabel
GSN 620 2985 M 54 0 rL SGR
GSN 4220 2985 M -54 0 rL SGR
helvS (0) 560 2985 ylabel
GSN 620 3749 M 54 0 rL SGR
GSN 4220 3749 M -54 0 rL SGR
helvS (0.02) 560 3749 ylabel
GSN 620 4513 M 54 0 rL SGR
GSN 4220 4513 M -54 0 rL SGR
helvS (0.04) 560 4513 ylabel
GSN 620 5278 M 54 0 rL SGR
GSN 4220 5278 M -54 0 rL SGR
helvS (0.06) 560 5278 ylabel
%
% Y axis: small tics
%
L5
GSN 620 1839 M 36 0 rL SGR
GSN 4220 1839 M -36 0 rL SGR
GSN 620 2030 M 36 0 rL SGR
GSN 4220 2030 M -36 0 rL SGR
GSN 620 2221 M 36 0 rL SGR
GSN 4220 2221 M -36 0 rL SGR
GSN 620 2412 M 36 0 rL SGR
GSN 4220 2412 M -36 0 rL SGR
GSN 620 2603 M 36 0 rL SGR
GSN 4220 2603 M -36 0 rL SGR
GSN 620 2794 M 36 0 rL SGR
GSN 4220 2794 M -36 0 rL SGR
GSN 620 2985 M 36 0 rL SGR
GSN 4220 2985 M -36 0 rL SGR
GSN 620 3176 M 36 0 rL SGR
GSN 4220 3176 M -36 0 rL SGR
GSN 620 3367 M 36 0 rL SGR
GSN 4220 3367 M -36 0 rL SGR
GSN 620 3558 M 36 0 rL SGR
GSN 4220 3558 M -36 0 rL SGR
GSN 620 3749 M 36 0 rL SGR
GSN 4220 3749 M -36 0 rL SGR
GSN 620 3940 M 36 0 rL SGR
GSN 4220 3940 M -36 0 rL SGR
GSN 620 4131 M 36 0 rL SGR
GSN 4220 4131 M -36 0 rL SGR
GSN 620 4322 M 36 0 rL SGR
GSN 4220 4322 M -36 0 rL SGR
GSN 620 4513 M 36 0 rL SGR
GSN 4220 4513 M -36 0 rL SGR
GSN 620 4704 M 36 0 rL SGR
GSN 4220 4704 M -36 0 rL SGR
GSN 620 4895 M 36 0 rL SGR
GSN 4220 4895 M -36 0 rL SGR
GSN 620 5086 M 36 0 rL SGR
GSN 4220 5086 M -36 0 rL SGR
GSN 620 5278 M 36 0 rL SGR
GSN 4220 5278 M -36 0 rL SGR

%
% X axis - residual panel
%
GSN L5 620 2985 M 4220 2985 L SDA G50 SGR

%
% X-Axis label:
%
gsave 620 1370 M 
[
[(Helvetica) 180 0 true true 0 (t)]
[(Helvetica) 180 0 true true 0 (i)]
[(Helvetica) 180 0 true true 0 (m)]
[(Helvetica) 180 0 true true 0 (e)]
] 0 MCshow grestore

%
% Y-Axis label:
%
gsave 234 3500 M 
currentpoint gsave translate 90 rotate 0 0 moveto
[
[(Helvetica) 180 0 true true 0 (r)]
[(Helvetica) 180 0 true true 0 (e)]
[(Helvetica) 180 0 true true 0 (s)]
[(Helvetica) 180 0 true true 0 (i)]
[(Helvetica) 180 0 true true 0 (d)]
[(Helvetica) 180 0 true true 0 (u)]
[(Helvetica) 180 0 true true 0 (a)]
[(Helvetica) 180 0 true true 0 (l)]
[(Helvetica) 180 0 true true 0 (s)]
] 0 MCshow grestore

end
showpage
%%Trailer
%%EOF
