%!PS-Adobe-3.0 EPSF-3.0
%%BoundingBox: 0 0 514 550
%%Creator: BioKin Ltd.
%%DocumentFonts: Symbol Helvetica
%%EndComments
%
/bkdict 256 dict def
bkdict begin
/M {moveto} def 
/R {rmoveto} def
/L {lineto} def
/rL {rlineto} def
/GSN {gsave newpath} def
/SGR {stroke grestore} def
/COSGR {gsave setrgbcolor stroke grestore grestore} def
/SL {setlinewidth} def
/LWMB {12} def             % line width - model curves, black & white
/LWMC {10} def             % line width - model curves, color
/L2 {2.5 setlinewidth} def
/L5 {5 setlinewidth} def
/L10 {10 setlinewidth} def
/G50 {0.5 setgray} def
/SDA {[10  20] 0 setdash} def % axes
/helvT {/Helvetica findfont 100 scalefont setfont} def % tiny
/helvS {/Helvetica findfont 125 scalefont setfont} def % small
/helvM {/Helvetica findfont 150 scalefont setfont} def % medium
/helvL {/Helvetica findfont 175 scalefont setfont} def % large
/xlabel {gsave M dup
   stringwidth exch -0.5 mul exch rmoveto show grestore} def 
/ylabel {gsave M 90 rotate dup
   stringwidth exch -0.5 mul exch rmoveto show grestore} def
/ylabelresid {gsave M dup
   stringwidth exch -1 mul exch rmoveto show grestore} def
% ======
% Shapes
% ======
% Circle:
/Circ {0 360 arc closepath} def
%
% Square:
/Squa {dup dup -0.5 mul dup dup R -2 mul 0 exch rL 1 mul 0 rL dup 0 exch -1 mul rL closepath} def
%
% Triangle Up:
/TriU {dup dup dup -0.4 mul exch -0.5 mul exch R dup 0.5 mul exch rL dup -1 mul exch 0.5 mul exch rL closepath} def 
%
% Triangle Down:
/TriD {dup dup dup 0.4 mul exch -0.5 mul exch R dup 0.5 mul exch -1 mul rL dup 0.5 mul exch rL closepath} def 
%
% Diamond:
/Diam {45 rotate Squa} def
% ======
% Fills
% ======
/GRF {gsave setgray fill grestore} def                    % gray-level Fill
/COF {gsave setrgbcolor fill grestore} def                % color fill
% ======
% Colors
% ======
/C01 {1.00	0.00	0.00} def      % Red
/C02 {0.00	0.00	1.00} def      % Blue
/C03 {0.00	0.39	0.00} def      % Dark Green
/C04 {0.78	0.08	0.52} def      % Medium Violet Red
/C05 {0.55	0.27	0.07} def      % Saddle Brown
/C06 {0.10	0.70	0.70} def      % (cyan)
/C07 {1.00	0.55	0.00} def      % Dark Orange
/C08 {0.63	0.13	0.94} def      % Purple
/C09 {0.00	0.75	1.00} def      % Deep Sky Blue
/C10 {0.20	0.80	0.20} def      % Lime Green
/C11 {0.47	0.53	0.60} def      % Light Slate Gray
/C12 {0.00	0.00	0.00} def      % Black            % or: {0.19	0.31	0.31} def      % Dark Slate Gray
%
/LGR {0.75} def % light gray
/DGR {0.33} def % dark gray
%
% =============
% Dash patterns
% =============
/dash01 { [80  20] 0 setdash } def
/dash02 { [40  20] 0 setdash } def
/dash03 { [80  20  10  20] 0 setdash } def
/dash04 { [40  20  10  20] 0 setdash } def
/dash05 { [80  20  10  10  10  20] 0 setdash } def
/dash06 { [40  20  10  10  10  20] 0 setdash } def
/dash07 { [10  10] 0 setdash } def
%
/MFshow {
   { dup 5 get 3 ge
     { 5 get 3 eq {gsave} {grestore} ifelse }
     {dup dup 0 get findfont exch 1 get scalefont setfont
     [ currentpoint ] exch dup 2 get 0 exch R dup 5 get 2 ne {dup dup 6
     get exch 4 get {show} {stringwidth pop 0 R} ifelse }if dup 5 get 0 eq
     {dup 3 get {2 get neg 0 exch R pop} {pop aload pop M} ifelse} {dup 5
     get 1 eq {dup 2 get exch dup 3 get exch 6 get stringwidth pop -2 div
     dup 0 R} {dup 6 get stringwidth pop -2 div 0 R 6 get
     show 2 index {aload pop M neg 3 -1 roll neg R pop pop} {pop pop pop
     pop aload pop M} ifelse }ifelse }ifelse }
     ifelse }
   forall} bind def
/MFwidth {0 exch {dup 3 get{dup dup 0 get findfont exch 1 get scalefont
     setfont 6 get stringwidth pop add} {pop} ifelse} forall} bind def
/MCshow { currentpoint stroke M
  exch dup MFwidth -2 div 3 -1 roll R MFshow } def
%
end
%%EndProlog
bkdict begin
0.1 0.1 scale
%
% Residuals:
%
GSN 620 3117 M
620 4863 L
620 4575 L
620 4638 L
620 4822 L
620 4705 L
620 4557 L
620 4642 L
620 4639 L
620 4562 L
620 4548 L
620 4650 L
620 4600 L
620 4651 L
620 4671 L
620 4728 L
620 4536 L
620 4506 L
620 4551 L
620 4561 L
620 4522 L
620 4416 L
620 4685 L
620 4645 L
620 4635 L
620 4714 L
620 4515 L
620 4538 L
620 4427 L
620 4546 L
620 4452 L
620 4582 L
620 4393 L
620 4551 L
620 4625 L
620 4453 L
620 4326 L
620 4379 L
620 4225 L
620 4354 L
620 4453 L
620 4428 L
620 4388 L
620 4251 L
620 4263 L
620 4287 L
620 4371 L
620 4356 L
620 4351 L
620 4320 L
620 4277 L
620 4269 L
620 4178 L
620 4310 L
620 4237 L
620 4282 L
620 4245 L
620 4316 L
620 4331 L
620 4285 L
620 4064 L
620 4147 L
620 4212 L
620 4247 L
620 4258 L
620 4075 L
620 4249 L
620 4253 L
620 4393 L
620 4024 L
620 4090 L
620 3962 L
620 3960 L
620 4009 L
620 4057 L
620 4080 L
620 4171 L
620 4196 L
620 4130 L
620 4215 L
620 4205 L
620 4142 L
620 3893 L
620 4090 L
620 3946 L
620 4038 L
620 4054 L
620 4165 L
620 4226 L
620 4006 L
620 4081 L
620 3944 L
620 4161 L
620 3996 L
620 4080 L
620 4005 L
620 4068 L
620 3833 L
620 4111 L
620 3919 L
620 4002 L
620 3890 L
620 3935 L
620 4093 L
620 4018 L
620 3975 L
620 3983 L
620 4062 L
620 4025 L
620 3895 L
620 3989 L
620 3894 L
620 4011 L
620 3953 L
620 3811 L
620 3804 L
620 3962 L
620 4026 L
620 3882 L
620 3827 L
620 3924 L
620 3931 L
620 3940 L
620 3891 L
620 3807 L
620 3972 L
620 3866 L
620 3914 L
620 3847 L
620 3789 L
620 3705 L
620 3774 L
620 3842 L
620 3956 L
620 3778 L
620 3860 L
620 3692 L
620 3704 L
620 3739 L
620 3772 L
620 3660 L
620 3886 L
620 3893 L
620 3667 L
620 3729 L
620 3790 L
620 3781 L
620 3749 L
620 3740 L
620 3790 L
620 3688 L
620 3674 L
620 3852 L
620 3788 L
620 3732 L
620 3636 L
620 3810 L
620 3778 L
620 3762 L
620 3708 L
620 3680 L
620 3727 L
620 3855 L
620 3797 L
620 3740 L
620 3722 L
620 3487 L
620 3595 L
620 3606 L
620 3780 L
620 3676 L
620 3735 L
620 3668 L
620 3632 L
620 3529 L
620 3603 L
620 3658 L
620 3652 L
620 3763 L
620 3623 L
620 3688 L
620 3484 L
620 3575 L
620 3535 L
620 3539 L
620 3819 L
620 3731 L
620 3617 L
620 3647 L
620 3614 L
620 3509 L
620 3676 L
620 3540 L
620 3602 L
620 3666 L
620 3618 L
620 3525 L
620 3504 L
620 3557 L
620 3512 L
620 3616 L
620 3498 L
620 3600 L
620 3626 L
620 3438 L
620 3592 L
620 3578 L
620 3499 L
620 3524 L
620 3475 L
620 3569 L
620 3502 L
620 3488 L
620 3496 L
620 3543 L
620 3355 L
620 3517 L
620 3479 L
620 3440 L
620 3602 L
620 3630 L
620 3290 L
620 3258 L
620 3314 L
620 3649 L
620 3617 L
620 3545 L
620 3589 L
620 3459 L
620 3536 L
620 3404 L
620 3460 L
620 3537 L
620 3541 L
620 3536 L
620 3481 L
620 3413 L
620 3449 L
620 3365 L
620 3497 L
620 3301 L
620 3337 L
620 3390 L
620 3609 L
620 3368 L
620 3379 L
620 3305 L
620 3389 L
620 3301 L
620 3255 L
620 3411 L
620 3553 L
620 3472 L
620 3350 L
620 3318 L
620 3509 L
620 3387 L
620 3428 L
620 3397 L
620 3378 L
620 3536 L
620 3324 L
620 3527 L
620 3469 L
620 3442 L
620 3358 L
620 3328 L
620 3484 L
620 3149 L
620 3372 L
620 3301 L
620 3164 L
620 3443 L
620 3379 L
620 3259 L
620 3479 L
620 3343 L
620 3237 L
620 3360 L
620 3413 L
620 3209 L
620 3114 L
620 3362 L
620 3316 L
620 3246 L
620 3302 L
620 3420 L
620 3376 L
620 3169 L
620 3329 L
620 3302 L
620 3160 L
620 3358 L
620 3293 L
620 3240 L
620 3139 L
620 3312 L
620 3344 L
620 3236 L
620 3221 L
620 3134 L
620 3408 L
620 3242 L
620 3337 L
620 3162 L
620 3248 L
620 3337 L
620 3131 L
620 3278 L
620 3152 L
620 3299 L
620 3352 L
620 3259 L
620 3142 L
620 3019 L
620 3241 L
620 3122 L
620 3314 L
620 3217 L
620 3281 L
620 3156 L
620 3151 L
620 3095 L
620 3080 L
620 3045 L
620 3127 L
620 3132 L
620 3290 L
620 3303 L
620 3227 L
620 3019 L
620 3182 L
620 3058 L
620 3246 L
620 3095 L
620 3160 L
620 3256 L
620 3039 L
620 3059 L
620 3099 L
620 3132 L
620 3078 L
620 3114 L
620 3223 L
620 3174 L
620 3085 L
620 2991 L
620 3164 L
620 3182 L
620 3100 L
620 3168 L
620 2964 L
620 3069 L
620 3164 L
620 3168 L
620 3255 L
620 3107 L
620 3086 L
620 3074 L
620 3104 L
620 3096 L
620 3156 L
620 3078 L
620 2963 L
620 2964 L
620 3069 L
620 3145 L
620 3158 L
620 2964 L
620 3035 L
620 3089 L
620 3022 L
620 3143 L
620 3125 L
620 3007 L
620 3162 L
620 2970 L
620 3074 L
620 3124 L
620 3236 L
620 3028 L
620 3013 L
620 2917 L
620 2966 L
620 3090 L
620 2962 L
620 2935 L
620 3063 L
620 3054 L
620 2989 L
620 3226 L
620 2978 L
620 3103 L
620 2963 L
620 2994 L
620 2957 L
620 2974 L
620 3119 L
620 3009 L
620 3010 L
620 3171 L
620 3024 L
620 2765 L
620 3067 L
620 2936 L
620 2735 L
620 2870 L
620 2889 L
620 3026 L
620 3013 L
620 3047 L
620 2966 L
620 3023 L
620 2976 L
620 2861 L
620 2793 L
620 2824 L
620 2918 L
620 2946 L
620 2726 L
620 2762 L
620 2788 L
620 2948 L
620 2869 L
620 2824 L
620 2835 L
620 2728 L
620 2810 L
620 2842 L
620 2834 L
620 2706 L
620 2831 L
620 2681 L
620 2642 L
620 2890 L
620 2672 L
620 2765 L
620 2848 L
620 2821 L
620 2704 L
620 2768 L
620 2955 L
620 2774 L
620 2794 L
620 2707 L
620 2742 L
620 2656 L
620 2528 L
620 2759 L
620 2735 L
620 2674 L
620 2698 L
620 2700 L
620 2694 L
620 2812 L
620 2642 L
620 2766 L
620 2589 L
620 2744 L
620 2755 L
620 2534 L
620 2778 L
620 2657 L
620 2656 L
620 2581 L
620 2574 L
620 2546 L
620 2569 L
620 2401 L
620 2616 L
620 2595 L
620 2577 L
620 2469 L
620 2604 L
620 2526 L
620 2776 L
620 2446 L
620 2456 L
620 2706 L
620 2554 L
620 2538 L
620 2675 L
620 2561 L
620 2537 L
620 2518 L
620 2582 L
620 2613 L
620 2590 L
620 2457 L
620 2410 L
620 2606 L
620 2502 L
620 2566 L
620 2396 L
620 2584 L
620 2580 L
620 2520 L
620 2517 L
620 2510 L
620 2634 L
620 2294 L
620 2509 L
620 2570 L
620 2357 L
620 2528 L
620 2400 L
620 2531 L
620 2371 L
620 2512 L
620 2369 L
620 2518 L
620 2514 L
620 2547 L
620 2391 L
620 2520 L
620 2493 L
620 2412 L
620 2487 L
620 2501 L
620 2443 L
620 2488 L
620 2470 L
620 2453 L
620 2703 L
620 2690 L
620 2364 L
620 2481 L
620 2407 L
620 2454 L
620 2374 L
620 2459 L
620 2337 L
620 2423 L
620 2552 L
620 2495 L
620 2577 L
620 2299 L
620 2441 L
620 2386 L
620 2550 L
620 2431 L
620 2430 L
620 2484 L
620 2407 L
620 2327 L
620 2437 L
620 2458 L
620 2485 L
620 2276 L
620 2449 L
620 2372 L
620 2433 L
620 2278 L
620 2373 L
620 2375 L
620 2296 L
620 2644 L
620 2357 L
620 2372 L
620 2278 L
620 2511 L
620 2291 L
620 2448 L
620 2363 L
620 2476 L
620 2403 L
620 2376 L
620 2484 L
620 2310 L
620 2433 L
620 2366 L
620 2438 L
620 2308 L
620 2357 L
620 2560 L
620 2397 L
620 2437 L
620 2369 L
620 2345 L
620 2395 L
620 2456 L
620 2376 L
620 2274 L
620 2369 L
620 2356 L
620 2263 L
620 2337 L
620 2436 L
620 2388 L
620 2214 L
620 2346 L
620 2495 L
620 2433 L
620 2373 L
620 2489 L
620 2450 L
620 2346 L
620 2420 L
620 2425 L
620 2362 L
620 2347 L
620 2415 L
620 2389 L
620 2413 L
620 2381 L
620 2371 L
620 2309 L
620 2364 L
620 2401 L
620 2409 L
620 2331 L
620 2472 L
620 2344 L
620 2420 L
620 2357 L
620 2364 L
620 2374 L
620 2374 L
620 2308 L
620 2327 L
620 2351 L
620 2447 L
620 2344 L
620 2324 L
620 2352 L
620 2367 L
620 2215 L
620 2337 L
620 2431 L
620 2431 L
620 2388 L
620 2403 L
620 2456 L
620 2356 L
620 2428 L
620 2389 L
620 2488 L
620 2368 L
620 2457 L
620 2485 L
620 2432 L
620 2414 L
620 2472 L
620 2421 L
620 2407 L
620 2258 L
620 2333 L
620 2346 L
620 2391 L
620 2355 L
620 2386 L
620 2299 L
620 2253 L
620 2460 L
620 2271 L
620 2489 L
620 2313 L
620 2401 L
620 2360 L
620 2346 L
620 2370 L
620 2363 L
620 2350 L
620 2317 L
620 2355 L
620 2398 L
620 2136 L
620 2347 L
620 2374 L
620 2337 L
620 2378 L
620 2336 L
620 2362 L
620 2411 L
620 2451 L
620 2439 L
620 2215 L
620 2347 L
620 2469 L
620 2405 L
620 2383 L
620 2295 L
620 2412 L
620 2416 L
620 2376 L
620 2357 L
620 2456 L
620 2372 L
620 2314 L
620 2373 L
620 2342 L
620 2378 L
620 2318 L
620 2383 L
620 2424 L
620 2379 L
620 2299 L
620 2494 L
620 2254 L
620 2240 L
620 2420 L
620 2380 L
620 2229 L
620 2502 L
620 2428 L
620 2415 L
620 2439 L
620 2480 L
620 2378 L
620 2383 L
620 2400 L
620 2569 L
620 2468 L
620 2405 L
620 2484 L
620 2440 L
620 2435 L
620 2359 L
620 2491 L
620 2624 L
620 2436 L
620 2418 L
620 2267 L
620 2415 L
620 2463 L
620 2516 L
620 2429 L
620 2490 L
620 2345 L
620 2422 L
620 2551 L
620 2421 L
620 2450 L
620 2328 L
620 2513 L
620 2197 L
620 2557 L
620 2314 L
620 2462 L
620 2558 L
620 2271 L
620 2564 L
620 2403 L
620 2546 L
620 2407 L
620 2375 L
620 2465 L
620 2475 L
620 2503 L
620 2454 L
620 2548 L
620 2518 L
620 2404 L
620 2448 L
620 2406 L
620 2499 L
620 2401 L
620 2456 L
620 2400 L
620 2529 L
620 2378 L
620 2444 L
620 2667 L
620 2457 L
620 2396 L
620 2458 L
620 2567 L
620 2500 L
620 2518 L
620 2197 L
620 2462 L
620 2358 L
620 2481 L
620 2516 L
620 2458 L
620 2451 L
620 2538 L
620 2627 L
620 2353 L
620 2554 L
620 2426 L
620 2401 L
620 2464 L
620 2529 L
620 2447 L
620 2519 L
620 2515 L
620 2433 L
620 2496 L
620 2445 L
620 2409 L
620 2528 L
620 2394 L
620 2511 L
620 2551 L
620 2460 L
620 2391 L
620 2354 L
620 2579 L
620 2352 L
620 2350 L
620 2379 L
620 2533 L
620 2396 L
620 2541 L
620 2455 L
620 2577 L
620 2506 L
620 2538 L
620 2540 L
620 2557 L
620 2401 L
620 2499 L
620 2640 L
620 2432 L
620 2393 L
620 2512 L
620 2602 L
620 2440 L
620 2378 L
620 2529 L
620 2510 L
620 2517 L
620 2618 L
620 2480 L
620 2475 L
620 2472 L
620 2550 L
620 2519 L
620 2477 L
620 2466 L
620 2592 L
620 2510 L
620 2452 L
620 2432 L
620 2455 L
620 2655 L
620 2578 L
620 2459 L
620 2581 L
620 2621 L
620 2540 L
620 2431 L
620 2397 L
620 2458 L
620 2472 L
620 2635 L
620 2501 L
620 2598 L
620 2499 L
620 2611 L
620 2488 L
620 2442 L
620 2448 L
620 2357 L
620 2547 L
620 2554 L
620 2548 L
620 2634 L
620 2499 L
620 2567 L
620 2715 L
620 2509 L
620 2536 L
620 2625 L
620 2624 L
620 2656 L
620 2482 L
620 2524 L
620 2363 L
620 2485 L
620 2482 L
620 2519 L
620 2577 L
620 2464 L
620 2485 L
620 2559 L
620 2633 L
620 2467 L
620 2576 L
620 2611 L
620 2632 L
620 2570 L
620 2407 L
620 2503 L
620 2578 L
620 2547 L
620 2428 L
620 2619 L
620 2615 L
620 2491 L
620 2537 L
620 2643 L
620 2517 L
620 2521 L
620 2520 L
620 2607 L
620 2643 L
620 2644 L
620 2609 L
620 2529 L
620 2607 L
620 2637 L
620 2449 L
620 2730 L
620 2596 L
620 2630 L
620 2513 L
620 2524 L
620 2533 L
620 2696 L
620 2507 L
620 2565 L
620 2497 L
620 2584 L
620 2564 L
620 2558 L
620 2528 L
620 2516 L
620 2577 L
620 2640 L
620 2565 L
620 2660 L
620 2643 L
620 2655 L
620 2544 L
620 2532 L
620 2667 L
620 2503 L
620 2490 L
620 2658 L
620 2497 L
620 2484 L
620 2561 L
620 2548 L
620 2659 L
620 2534 L
620 2579 L
620 2603 L
620 2606 L
620 2510 L
620 2594 L
620 2565 L
620 2638 L
620 2680 L
620 2578 L
620 2579 L
620 2525 L
620 2685 L
620 2528 L
620 2601 L
620 2714 L
620 2691 L
620 2704 L
620 2561 L
620 2681 L
620 2650 L
620 2520 L
620 2615 L
620 2533 L
620 2490 L
620 2633 L
620 2597 L
620 2540 L
620 2647 L
620 2572 L
620 2621 L
620 2605 L
620 2495 L
620 2581 L
620 2645 L
620 2533 L
620 2820 L
620 2604 L
620 2595 L
620 2637 L
620 2673 L
620 2647 L
620 2626 L
620 2627 L
620 2527 L
620 2586 L
620 2645 L
620 2678 L
620 2705 L
620 2570 L
620 2510 L
620 2660 L
620 2753 L
620 2698 L
620 2551 L
620 2652 L
620 2609 L
620 2661 L
620 2634 L
620 2662 L
620 2591 L
620 2669 L
620 2763 L
620 2692 L
620 2604 L
620 2647 L
620 2671 L
620 2623 L
620 2679 L
620 2673 L
620 2617 L
620 2760 L
620 2644 L
620 2722 L
620 2483 L
620 2654 L
620 2611 L
620 2622 L
620 2577 L
620 2798 L
620 2651 L
620 2686 L
620 2692 L
620 2610 L
620 2616 L
620 2758 L
620 2699 L
620 2416 L
620 2672 L
620 2631 L
620 2630 L
620 2573 L
620 2728 L
620 2657 L
620 2672 L
620 2718 L
620 2621 L
620 2729 L
620 2603 L
620 2605 L
620 2555 L
620 2725 L
620 2616 L
620 2629 L
620 2664 L
620 2621 L
620 2606 L
620 2652 L
620 2627 L
620 2720 L
620 2759 L
620 2713 L
620 2582 L
620 2769 L
620 2646 L
620 2815 L
620 2676 L
620 2678 L
620 2723 L
620 2628 L
620 2597 L
620 2815 L
620 2601 L
620 2694 L
620 2710 L
620 2723 L
620 2709 L
620 2709 L
620 2825 L
620 2535 L
620 2517 L
620 2515 L
620 2694 L
620 2655 L
620 2635 L
620 2680 L
620 2681 L
620 2734 L
620 2842 L
620 2704 L
620 2765 L
620 2735 L
620 2624 L
620 2617 L
620 2785 L
620 2813 L
620 2695 L
620 2700 L
620 2758 L
620 2746 L
620 2679 L
620 2759 L
620 2654 L
620 2827 L
620 2722 L
620 2632 L
620 2542 L
620 2804 L
620 2818 L
620 2720 L
620 2605 L
620 2716 L
620 2760 L
620 2631 L
620 2724 L
620 2832 L
620 2573 L
620 2748 L
620 2713 L
620 2706 L
620 2756 L
620 2680 L
620 2701 L
620 2690 L
620 2830 L
620 2593 L
620 2631 L
620 2777 L
620 2709 L
620 2803 L
620 2764 L
620 2764 L
620 2591 L
620 2694 L
620 2813 L
620 2751 L
620 2851 L
620 2867 L
620 2907 L
620 2598 L
620 2761 L
620 2627 L
620 2608 L
620 2661 L
620 2719 L
620 2828 L
620 2577 L
620 2756 L
620 2814 L
620 2906 L
620 2647 L
620 2664 L
620 2609 L
620 2656 L
620 2792 L
620 2719 L
620 2703 L
620 2686 L
620 2757 L
620 2809 L
620 2829 L
620 2794 L
620 2738 L
620 2798 L
620 2729 L
620 2713 L
620 2668 L
620 2692 L
620 2773 L
620 2810 L
620 2860 L
620 2752 L
620 2785 L
620 2759 L
620 2779 L
620 2686 L
620 2686 L
620 2678 L
620 2759 L
620 2679 L
620 2714 L
620 2759 L
620 2841 L
620 2810 L
620 2806 L
620 2760 L
620 2830 L
620 2796 L
620 2735 L
620 2737 L
620 2731 L
620 2816 L
620 2755 L
620 2859 L
620 2931 L
620 2760 L
620 2804 L
620 2778 L
620 2781 L
620 2919 L
620 2755 L
620 2746 L
620 2849 L
620 2708 L
620 2704 L
620 2815 L
620 2752 L
620 2583 L
620 2715 L
620 2881 L
620 2764 L
620 2764 L
620 2725 L
620 2727 L
620 2766 L
620 2757 L
620 2724 L
620 2730 L
620 2884 L
620 2821 L
620 2767 L
620 2804 L
620 2778 L
620 2696 L
620 2768 L
620 2779 L
620 2648 L
620 2792 L
620 2961 L
620 2912 L
620 2994 L
620 2727 L
620 2744 L
620 2688 L
620 2765 L
620 2696 L
620 2739 L
620 2687 L
620 2827 L
620 2703 L
620 2736 L
620 2746 L
620 2943 L
620 2811 L
620 2655 L
620 2668 L
620 2620 L
620 2804 L
620 2753 L
620 2897 L
620 2739 L
620 2740 L
620 2700 L
620 2798 L
620 2727 L
620 2718 L
620 2946 L
620 2803 L
620 2888 L
620 2730 L
620 3056 L
620 2761 L
620 2889 L
620 2819 L
620 2714 L
620 2695 L
620 2751 L
620 2777 L
620 2636 L
620 2728 L
620 2800 L
620 2869 L
620 2792 L
620 2749 L
620 2796 L
620 2851 L
620 2614 L
620 2758 L
620 2884 L
620 2867 L
620 2649 L
620 2870 L
620 2762 L
620 2778 L
620 2899 L
620 2873 L
620 2843 L
620 2700 L
620 2767 L
620 2779 L
620 2795 L
620 2872 L
620 2880 L
620 2792 L
620 2784 L
620 2773 L
620 3097 L
620 2800 L
620 2760 L
620 2791 L
620 2999 L
620 3045 L
620 2786 L
620 2775 L
620 2882 L
620 2937 L
620 2835 L
620 2894 L
620 2872 L
620 2711 L
620 2813 L
620 2813 L
620 2852 L
620 2913 L
620 2737 L
620 2916 L
620 2819 L
620 2935 L
620 2845 L
620 3019 L
620 2863 L
620 2824 L
620 2782 L
620 2970 L
620 2900 L
620 2767 L
620 2953 L
620 2771 L
620 2938 L
620 2896 L
620 2785 L
620 2829 L
620 2852 L
620 2783 L
620 2944 L
620 2791 L
620 2845 L
620 2874 L
620 2739 L
620 2884 L
620 2900 L
620 2923 L
620 2797 L
620 2909 L
620 2877 L
620 2941 L
620 2890 L
620 2888 L
620 2957 L
620 2830 L
620 2907 L
620 2860 L
620 2730 L
620 2670 L
620 2737 L
620 2796 L
620 2861 L
620 2753 L
620 2797 L
620 2873 L
620 2918 L
620 2886 L
620 2882 L
620 2908 L
620 2969 L
620 2994 L
620 2896 L
620 2847 L
620 2800 L
620 2818 L
620 2914 L
620 2945 L
620 2856 L
620 2830 L
620 2636 L
620 2849 L
620 2921 L
620 2779 L
620 2886 L
620 2895 L
620 2831 L
620 2909 L
620 2816 L
620 2777 L
620 2845 L
620 2760 L
620 2856 L
620 2900 L
620 2852 L
620 2864 L
620 2839 L
620 3012 L
620 2870 L
620 2708 L
620 2958 L
620 2940 L
620 2856 L
620 2985 L
620 2821 L
620 2800 L
620 2952 L
620 2826 L
620 2704 L
620 2819 L
620 2903 L
620 2761 L
620 3023 L
620 2802 L
620 2872 L
620 2910 L
620 2954 L
620 2946 L
620 2855 L
620 2760 L
620 3002 L
620 2812 L
620 2852 L
620 2980 L
620 2874 L
620 3012 L
620 2909 L
620 2949 L
620 2891 L
620 3043 L
620 3025 L
620 2900 L
620 2990 L
620 2988 L
620 3085 L
620 3041 L
620 3075 L
620 3154 L
620 2994 L
620 3046 L
620 3156 L
620 3165 L
620 3032 L
620 2977 L
620 3048 L
620 2929 L
620 3089 L
620 3155 L
620 3186 L
620 3033 L
620 3094 L
620 3026 L
620 3075 L
620 3159 L
620 3025 L
620 3251 L
620 2917 L
620 2991 L
620 3148 L
620 3200 L
620 3124 L
620 2915 L
620 3192 L
620 3148 L
620 3248 L
620 3180 L
620 3185 L
620 3101 L
620 3118 L
620 2953 L
620 3023 L
620 3221 L
620 3004 L
620 3165 L
620 3021 L
620 3166 L
620 3003 L
620 3243 L
620 3152 L
620 3119 L
620 3174 L
620 3087 L
620 2945 L
620 3061 L
620 3168 L
620 3162 L
620 3064 L
620 3206 L
620 3061 L
620 3058 L
620 3189 L
620 3334 L
620 3156 L
620 2992 L
620 3160 L
620 3182 L
620 2924 L
620 2963 L
620 3288 L
620 3080 L
620 2989 L
620 3248 L
620 3122 L
620 3015 L
620 3248 L
620 3211 L
620 3090 L
620 3145 L
620 3205 L
620 3066 L
620 3163 L
620 3085 L
620 3275 L
620 3063 L
620 3215 L
620 3125 L
620 3187 L
620 3205 L
620 3078 L
620 3059 L
620 3146 L
620 3214 L
620 3068 L
620 3220 L
620 3192 L
620 3225 L
620 3225 L
620 3113 L
620 3164 L
620 3196 L
620 3139 L
620 2937 L
620 3244 L
620 2890 L
620 3222 L
620 3100 L
620 3074 L
620 3101 L
620 3161 L
620 3262 L
620 3274 L
620 2970 L
620 3190 L
620 3129 L
620 3229 L
620 3006 L
620 3138 L
620 3153 L
620 3022 L
620 3324 L
620 3284 L
620 3139 L
620 3088 L
620 3138 L
620 3137 L
620 3161 L
620 3184 L
620 3168 L
620 3017 L
620 3149 L
620 3161 L
620 3070 L
620 3053 L
620 3370 L
620 3064 L
620 3118 L
620 3182 L
620 3161 L
620 3165 L
620 3077 L
620 3132 L
620 3277 L
620 3097 L
620 2969 L
620 3026 L
620 3194 L
620 3239 L
620 3096 L
620 3244 L
620 3182 L
620 3108 L
620 3233 L
620 3225 L
620 3153 L
620 3243 L
620 3089 L
620 3091 L
620 3243 L
620 3298 L
620 3042 L
620 3100 L
620 3344 L
620 3162 L
620 3072 L
620 3331 L
620 3181 L
620 3135 L
620 3194 L
620 3099 L
620 3069 L
620 3150 L
620 3036 L
620 3111 L
620 3184 L
620 3087 L
620 3070 L
620 2964 L
620 2983 L
620 3127 L
620 3211 L
620 3130 L
620 3049 L
620 3015 L
620 3183 L
620 3049 L
620 3125 L
620 3009 L
620 3065 L
620 3075 L
620 3174 L
620 3030 L
620 3140 L
620 3237 L
620 3265 L
620 3134 L
620 3065 L
620 3301 L
620 3139 L
620 3202 L
620 3097 L
620 3127 L
620 2835 L
620 3131 L
620 3168 L
620 3208 L
620 3191 L
620 3026 L
620 3171 L
620 3169 L
620 3267 L
620 3130 L
620 3049 L
620 3154 L
620 3172 L
620 3112 L
620 3131 L
620 3148 L
620 3208 L
620 3049 L
620 3056 L
620 3055 L
620 3000 L
620 3214 L
620 3313 L
620 3206 L
620 3073 L
620 3101 L
620 2979 L
620 3250 L
620 3182 L
620 3040 L
620 3054 L
620 3191 L
620 3099 L
620 3089 L
620 3118 L
620 3162 L
620 2995 L
620 3035 L
620 3264 L
620 3208 L
620 3247 L
620 3077 L
620 3144 L
620 3174 L
620 3080 L
620 3329 L
620 2999 L
620 3138 L
620 3103 L
620 3260 L
620 3118 L
620 3203 L
620 2992 L
620 3127 L
620 3243 L
620 3210 L
620 3229 L
620 3231 L
620 3020 L
620 3077 L
620 2872 L
620 3083 L
620 3044 L
620 3020 L
620 3186 L
620 3046 L
620 3192 L
620 3175 L
620 3052 L
620 3146 L
620 3039 L
620 3212 L
620 3059 L
620 3001 L
620 3059 L
620 3125 L
620 3094 L
620 3205 L
620 3099 L
620 3118 L
620 3148 L
620 3161 L
620 3040 L
620 3116 L
620 3397 L
620 3120 L
620 3090 L
620 3151 L
620 3033 L
620 3118 L
620 3070 L
620 2940 L
620 3090 L
620 3212 L
620 3195 L
620 3066 L
620 3104 L
620 3188 L
620 3125 L
620 3040 L
620 3061 L
620 3486 L
620 3050 L
620 3186 L
620 3004 L
620 3187 L
620 3142 L
620 3144 L
620 3025 L
620 3080 L
620 3210 L
620 2993 L
620 3303 L
620 3191 L
620 3041 L
620 3187 L
620 3081 L
620 3166 L
620 3170 L
620 3113 L
620 3213 L
620 3184 L
620 3027 L
620 3233 L
620 3195 L
620 3177 L
620 3001 L
620 2977 L
620 3208 L
620 3056 L
620 3181 L
620 3091 L
620 3289 L
620 3080 L
620 3126 L
620 3065 L
620 3072 L
620 2983 L
620 3241 L
620 3027 L
620 3292 L
620 3136 L
620 3080 L
620 3203 L
620 2999 L
620 3092 L
L2 C04 COSGR

%
%================
% Legend - Begin
%================
%
GSN 4240 5180 M
4480 5180 L
LWMC SL  C04 COSGR
GSN 4540 5141 M helvM (2.0 uM) show grestore
%
%================
% Legend - End
%================
%

%
% Main frame
%
L10
GSN 
620 1700 M
4220 1700 L
4220 5300 L
620 5300 L
closepath SGR

%
% X axis: large tics
%
L10
%
% X axis: small tics
%
L5
%
% Y axis: large tics
%
L10
GSN 620 2123 M 54 0 rL SGR
GSN 4220 2123 M -54 0 rL SGR
helvS (-0.025) 560 2123 ylabel
GSN 620 2954 M 54 0 rL SGR
GSN 4220 2954 M -54 0 rL SGR
helvS (0) 560 2954 ylabel
GSN 620 3784 M 54 0 rL SGR
GSN 4220 3784 M -54 0 rL SGR
helvS (0.025) 560 3784 ylabel
GSN 620 4615 M 54 0 rL SGR
GSN 4220 4615 M -54 0 rL SGR
helvS (0.05) 560 4615 ylabel
%
% Y axis: small tics
%
L5
GSN 620 1708 M 36 0 rL SGR
GSN 4220 1708 M -36 0 rL SGR
GSN 620 2123 M 36 0 rL SGR
GSN 4220 2123 M -36 0 rL SGR
GSN 620 2538 M 36 0 rL SGR
GSN 4220 2538 M -36 0 rL SGR
GSN 620 2954 M 36 0 rL SGR
GSN 4220 2954 M -36 0 rL SGR
GSN 620 3369 M 36 0 rL SGR
GSN 4220 3369 M -36 0 rL SGR
GSN 620 3784 M 36 0 rL SGR
GSN 4220 3784 M -36 0 rL SGR
GSN 620 4199 M 36 0 rL SGR
GSN 4220 4199 M -36 0 rL SGR
GSN 620 4615 M 36 0 rL SGR
GSN 4220 4615 M -36 0 rL SGR
GSN 620 5030 M 36 0 rL SGR
GSN 4220 5030 M -36 0 rL SGR

%
% X axis - residual panel
%
GSN L5 620 2954 M 4220 2954 L SDA G50 SGR

%
% X-Axis label:
%
gsave 620 1370 M 
[
[(Helvetica) 180 0 true true 0 (t)]
[(Helvetica) 180 0 true true 0 (i)]
[(Helvetica) 180 0 true true 0 (m)]
[(Helvetica) 180 0 true true 0 (e)]
] 0 MCshow grestore

%
% Y-Axis label:
%
gsave 234 3500 M 
currentpoint gsave translate 90 rotate 0 0 moveto
[
[(Helvetica) 180 0 true true 0 (r)]
[(Helvetica) 180 0 true true 0 (e)]
[(Helvetica) 180 0 true true 0 (s)]
[(Helvetica) 180 0 true true 0 (i)]
[(Helvetica) 180 0 true true 0 (d)]
[(Helvetica) 180 0 true true 0 (u)]
[(Helvetica) 180 0 true true 0 (a)]
[(Helvetica) 180 0 true true 0 (l)]
[(Helvetica) 180 0 true true 0 (s)]
] 0 MCshow grestore

end
showpage
%%Trailer
%%EOF
