%!PS-Adobe-3.0 EPSF-3.0
%%BoundingBox: 0 0 514 550
%%Creator: BioKin Ltd.
%%DocumentFonts: Symbol Helvetica
%%EndComments
%
/bkdict 256 dict def
bkdict begin
/M {moveto} def 
/R {rmoveto} def
/L {lineto} def
/rL {rlineto} def
/GSN {gsave newpath} def
/SGR {stroke grestore} def
/COSGR {gsave setrgbcolor stroke grestore grestore} def
/SL {setlinewidth} def
/LWMB {12} def             % line width - model curves, black & white
/LWMC {10} def             % line width - model curves, color
/L2 {2.5 setlinewidth} def
/L5 {5 setlinewidth} def
/L10 {10 setlinewidth} def
/G50 {0.5 setgray} def
/SDA {[10  20] 0 setdash} def % axes
/helvT {/Helvetica findfont 100 scalefont setfont} def % tiny
/helvS {/Helvetica findfont 125 scalefont setfont} def % small
/helvM {/Helvetica findfont 150 scalefont setfont} def % medium
/helvL {/Helvetica findfont 175 scalefont setfont} def % large
/xlabel {gsave M dup
   stringwidth exch -0.5 mul exch rmoveto show grestore} def 
/ylabel {gsave M 90 rotate dup
   stringwidth exch -0.5 mul exch rmoveto show grestore} def
/ylabelresid {gsave M dup
   stringwidth exch -1 mul exch rmoveto show grestore} def
% ======
% Shapes
% ======
% Circle:
/Circ {0 360 arc closepath} def
%
% Square:
/Squa {dup dup -0.5 mul dup dup R -2 mul 0 exch rL 1 mul 0 rL dup 0 exch -1 mul rL closepath} def
%
% Triangle Up:
/TriU {dup dup dup -0.4 mul exch -0.5 mul exch R dup 0.5 mul exch rL dup -1 mul exch 0.5 mul exch rL closepath} def 
%
% Triangle Down:
/TriD {dup dup dup 0.4 mul exch -0.5 mul exch R dup 0.5 mul exch -1 mul rL dup 0.5 mul exch rL closepath} def 
%
% Diamond:
/Diam {45 rotate Squa} def
% ======
% Fills
% ======
/GRF {gsave setgray fill grestore} def                    % gray-level Fill
/COF {gsave setrgbcolor fill grestore} def                % color fill
% ======
% Colors
% ======
/C01 {1.00	0.00	0.00} def      % Red
/C02 {0.00	0.00	1.00} def      % Blue
/C03 {0.00	0.39	0.00} def      % Dark Green
/C04 {0.78	0.08	0.52} def      % Medium Violet Red
/C05 {0.55	0.27	0.07} def      % Saddle Brown
/C06 {0.10	0.70	0.70} def      % (cyan)
/C07 {1.00	0.55	0.00} def      % Dark Orange
/C08 {0.63	0.13	0.94} def      % Purple
/C09 {0.00	0.75	1.00} def      % Deep Sky Blue
/C10 {0.20	0.80	0.20} def      % Lime Green
/C11 {0.47	0.53	0.60} def      % Light Slate Gray
/C12 {0.00	0.00	0.00} def      % Black            % or: {0.19	0.31	0.31} def      % Dark Slate Gray
%
/LGR {0.75} def % light gray
/DGR {0.33} def % dark gray
%
% =============
% Dash patterns
% =============
/dash01 { [80  20] 0 setdash } def
/dash02 { [40  20] 0 setdash } def
/dash03 { [80  20  10  20] 0 setdash } def
/dash04 { [40  20  10  20] 0 setdash } def
/dash05 { [80  20  10  10  10  20] 0 setdash } def
/dash06 { [40  20  10  10  10  20] 0 setdash } def
/dash07 { [10  10] 0 setdash } def
%
/MFshow {
   { dup 5 get 3 ge
     { 5 get 3 eq {gsave} {grestore} ifelse }
     {dup dup 0 get findfont exch 1 get scalefont setfont
     [ currentpoint ] exch dup 2 get 0 exch R dup 5 get 2 ne {dup dup 6
     get exch 4 get {show} {stringwidth pop 0 R} ifelse }if dup 5 get 0 eq
     {dup 3 get {2 get neg 0 exch R pop} {pop aload pop M} ifelse} {dup 5
     get 1 eq {dup 2 get exch dup 3 get exch 6 get stringwidth pop -2 div
     dup 0 R} {dup 6 get stringwidth pop -2 div 0 R 6 get
     show 2 index {aload pop M neg 3 -1 roll neg R pop pop} {pop pop pop
     pop aload pop M} ifelse }ifelse }ifelse }
     ifelse }
   forall} bind def
/MFwidth {0 exch {dup 3 get{dup dup 0 get findfont exch 1 get scalefont
     setfont 6 get stringwidth pop add} {pop} ifelse} forall} bind def
/MCshow { currentpoint stroke M
  exch dup MFwidth -2 div 3 -1 roll R MFshow } def
%
end
%%EndProlog
bkdict begin
0.1 0.1 scale
%
% Model curves:
%

GSN 753 5166 M
753 5166 L
786 4246 L
820 3600 L
853 3165 L
886 2889 L
903 2796 L
919 2727 L
953 2639 L
986 2597 L
1020 2580 L
1053 2574 L
1053 2574 L
1086 2572 L
1120 2572 L
1153 2572 L
1186 2572 L
1203 2572 L
1220 2572 L
1253 2572 L
1286 2572 L
1320 2572 L
1353 2572 L
1353 2572 L
1386 2572 L
1420 2572 L
1453 2572 L
1486 2572 L
1503 2572 L
1520 2572 L
1553 2572 L
1586 2572 L
1620 2572 L
1653 2572 L
1653 2572 L
1686 2572 L
1720 2572 L
1753 2572 L
1786 2572 L
1804 2572 L
1820 2572 L
1853 2572 L
1886 2572 L
1920 2572 L
1953 2572 L
1954 2572 L
1986 2572 L
2020 2572 L
2053 2572 L
2086 2572 L
2104 2572 L
2120 2572 L
2153 2572 L
2186 2572 L
2220 2572 L
2253 2572 L
2254 2572 L
2286 2572 L
2320 2572 L
2353 2572 L
2386 2572 L
2404 2572 L
2420 2572 L
2453 2572 L
2486 2572 L
2520 2572 L
2553 2572 L
2554 2572 L
2586 2572 L
2620 2572 L
2653 2572 L
2686 2572 L
2704 2572 L
2720 2572 L
2753 2572 L
2786 2572 L
2820 2572 L
2853 2572 L
2854 2572 L
2886 2572 L
2920 2572 L
2953 2572 L
2986 2572 L
3004 2572 L
3020 2572 L
3053 2572 L
3068 2572 L
3086 2572 L
3120 2572 L
3153 2572 L
3155 2572 L
3186 2572 L
3220 2572 L
3253 2572 L
3286 2572 L
3305 2572 L
3320 2572 L
3353 2572 L
3386 2572 L
3420 2572 L
3453 2572 L
3455 2572 L
3486 2572 L
3520 2572 L
3553 2572 L
3586 2572 L
3605 2572 L
3620 2572 L
3653 2572 L
3686 2572 L
3720 2572 L
3753 2572 L
3755 2572 L
3786 2572 L
3820 2572 L
3853 2572 L
3886 2572 L
3905 2572 L
3920 2572 L
3953 2572 L
3986 2572 L
4020 2572 L
4053 2572 L
4086 2572 L
LWMC SL  C03 COSGR

%
% Experimental data:
%
GSN 773 4559 M
1625 4376 L
1773 4443 L
1860 4761 L
1922 4704 L
1970 4510 L
2009 4454 L
2043 4341 L
2072 4317 L
2097 4290 L
2120 4202 L
2140 4323 L
2159 4104 L
2176 4218 L
2192 4198 L
2207 4068 L
2221 4019 L
2234 4039 L
2247 3942 L
2259 4008 L
2270 3920 L
2280 3902 L
2290 3955 L
2300 3980 L
2309 3714 L
2318 3838 L
2326 4008 L
2335 3797 L
2342 3812 L
2350 3759 L
2357 3706 L
2364 3690 L
2371 3563 L
2378 3754 L
2384 3678 L
2391 3631 L
2397 3498 L
2403 3676 L
2409 3642 L
2414 3467 L
2420 3482 L
2425 3477 L
2430 3496 L
2435 3321 L
2440 3265 L
2445 3504 L
2450 3347 L
2455 3239 L
2459 3270 L
2464 3381 L
2468 3089 L
2472 3132 L
2476 3253 L
2481 3295 L
2485 3130 L
2489 3273 L
2492 3256 L
2496 3188 L
2500 3032 L
2504 3236 L
2507 3333 L
2511 3207 L
2514 2983 L
2518 2879 L
2521 3082 L
2525 2991 L
2528 2978 L
2531 3014 L
2534 3053 L
2538 2840 L
2541 3186 L
2544 2959 L
2547 2915 L
2550 2893 L
2553 3008 L
2556 2766 L
2559 3112 L
2561 2985 L
2564 3055 L
2567 2823 L
2570 2902 L
2580 2803 L
2590 2769 L
2600 2680 L
2609 2618 L
2618 2600 L
2627 2605 L
2635 2715 L
2643 2464 L
2650 2476 L
2658 2649 L
2665 2478 L
2672 2493 L
2678 2430 L
2685 2404 L
2691 2436 L
2697 2152 L
2703 2384 L
2709 2310 L
2714 2259 L
2720 2303 L
2725 2254 L
2730 2046 L
2735 2135 L
2740 2360 L
2745 2110 L
2750 2218 L
2755 2341 L
2759 2127 L
2764 2150 L
2768 2002 L
2772 1948 L
2777 2035 L
2781 1991 L
2785 2026 L
2789 2000 L
2793 2057 L
2796 2002 L
2800 1994 L
2804 2098 L
2808 1907 L
2811 1983 L
2815 2006 L
2818 1984 L
2822 1884 L
2825 1947 L
2828 2132 L
2831 1988 L
2835 2025 L
2838 1883 L
2841 2048 L
2844 2029 L
2847 1920 L
2850 1846 L
2853 2268 L
2856 2026 L
2859 1905 L
2862 1833 L
2864 2013 L
2867 2100 L
2870 1911 L
2873 1957 L
2875 2195 L
2878 2017 L
2880 2053 L
2883 2101 L
2886 1990 L
2888 2120 L
2891 1911 L
2893 1979 L
2895 2117 L
2898 2060 L
2900 2091 L
2902 1976 L
2905 2126 L
2907 2242 L
2909 2015 L
2912 2187 L
2914 1975 L
2916 2013 L
2918 2136 L
2920 1944 L
2922 2173 L
2925 2213 L
2927 2100 L
2929 2104 L
2931 2033 L
2933 2186 L
2935 2122 L
2937 1893 L
2939 2041 L
2941 2242 L
2943 2140 L
2945 1999 L
2947 2007 L
2948 2167 L
2950 2201 L
2952 1977 L
2954 2169 L
2956 2021 L
2958 2098 L
2959 2107 L
2961 1941 L
2963 2281 L
2965 2110 L
2966 2123 L
2968 2404 L
2970 2242 L
2972 2283 L
2973 2288 L
2975 2280 L
2977 2130 L
2978 2162 L
2980 2187 L
2982 1901 L
2983 2088 L
2985 2261 L
2986 2273 L
2988 2090 L
2989 2104 L
2991 2280 L
2993 2181 L
2994 2232 L
2996 2341 L
2997 2153 L
2999 2248 L
3000 2176 L
3002 2216 L
3003 2178 L
3005 2321 L
3006 2362 L
3007 2351 L
3009 2198 L
3010 2255 L
3012 2144 L
3013 2362 L
3014 2175 L
3016 2267 L
3017 2401 L
3019 2270 L
3020 2319 L
3021 2348 L
3023 2252 L
3024 2202 L
3025 2262 L
3027 2409 L
3028 2374 L
3029 2318 L
3031 2413 L
3032 2306 L
3033 2178 L
3034 2313 L
3036 2225 L
3037 2355 L
3038 2291 L
3039 2354 L
3041 2377 L
3042 2454 L
3043 2311 L
3044 2346 L
3045 2421 L
3047 2277 L
3048 2418 L
3049 2345 L
3050 2356 L
3051 2222 L
3053 2155 L
3054 2517 L
3055 2477 L
3056 2454 L
3057 2420 L
3058 2277 L
3059 2489 L
3061 2271 L
3062 2427 L
3063 2464 L
3064 2507 L
3065 2552 L
3066 2446 L
3067 2400 L
3068 2407 L
3069 2312 L
3070 2449 L
3071 2441 L
3073 2501 L
3074 2457 L
3075 2549 L
3076 2306 L
3077 2523 L
3078 2314 L
3079 2559 L
3080 2280 L
3081 2336 L
3082 2276 L
3083 2528 L
3084 2325 L
3085 2503 L
3086 2261 L
3087 2471 L
3088 2582 L
3089 2457 L
3112 2653 L
3133 2653 L
3152 2718 L
3170 2583 L
3186 2555 L
3201 2779 L
3216 2745 L
3229 2450 L
3241 2646 L
3253 2681 L
3264 2653 L
3275 2756 L
3285 2859 L
3295 2731 L
3304 2747 L
3313 2754 L
3322 2781 L
3330 2772 L
3338 2811 L
3346 2758 L
3353 2580 L
3360 2602 L
3367 2638 L
3374 2661 L
3380 2872 L
3387 2708 L
3393 2828 L
3399 2756 L
3405 2900 L
3410 2853 L
3416 2750 L
3421 2888 L
3426 2704 L
3431 2902 L
3436 2702 L
3441 2908 L
3446 2726 L
3451 2843 L
3455 2850 L
3460 2697 L
3464 2723 L
3469 2745 L
3473 2729 L
3477 2815 L
3481 2649 L
3485 2889 L
3489 2689 L
3493 2559 L
3496 2776 L
3500 2487 L
3504 2704 L
3507 2652 L
3511 2695 L
3514 2542 L
3518 2928 L
3521 2497 L
3525 2663 L
3528 2707 L
3531 2776 L
3534 2613 L
3537 2686 L
3540 2735 L
3543 2738 L
3546 2761 L
3549 2741 L
3552 2704 L
3555 2661 L
3558 2472 L
3561 2437 L
3564 2753 L
3566 2735 L
3575 2646 L
3586 2540 L
3595 2618 L
3605 2714 L
3613 2689 L
3622 2691 L
3630 2659 L
3638 2709 L
3646 2644 L
3653 2717 L
3660 2572 L
3667 2418 L
3674 2572 L
3681 2598 L
3687 2704 L
3693 2593 L
3699 2566 L
3705 2706 L
3710 2870 L
3716 2531 L
3721 2609 L
3727 2642 L
3732 2669 L
3737 2561 L
3742 2487 L
3746 2447 L
3751 2528 L
3756 2777 L
3760 2714 L
3764 2488 L
3769 2558 L
3773 2523 L
3777 2497 L
3781 2404 L
3785 2648 L
3789 2433 L
3793 2493 L
3797 2630 L
3800 2706 L
3804 2383 L
3808 2552 L
3811 2591 L
3815 2462 L
3818 2411 L
3821 2554 L
3825 2518 L
3828 2341 L
3831 2503 L
3834 2413 L
3838 2600 L
3841 2646 L
3844 2432 L
3847 2345 L
3850 2652 L
3853 2331 L
3855 2445 L
3858 2600 L
3861 2530 L
3864 2460 L
3867 2478 L
3869 2461 L
3872 2484 L
3875 2593 L
3877 2417 L
3880 2373 L
3882 2427 L
3885 2487 L
3887 2559 L
3890 2328 L
3892 2485 L
3895 2396 L
3897 2462 L
3899 2437 L
3902 2466 L
3904 2468 L
3906 2297 L
3908 2660 L
3911 2447 L
3913 2474 L
3915 2475 L
3917 2193 L
3919 2489 L
3921 2366 L
3923 2561 L
3926 2407 L
3928 2500 L
3930 2480 L
3932 2524 L
3934 2483 L
3936 2486 L
3938 2500 L
3940 2357 L
3942 2490 L
3943 2319 L
3945 2378 L
3947 2566 L
3949 2387 L
3951 2494 L
3953 2517 L
3955 2527 L
3956 2366 L
3958 2270 L
3960 2360 L
3962 2264 L
3963 2462 L
3965 2466 L
3967 2385 L
3969 2357 L
3970 2342 L
3972 2328 L
3974 2374 L
3975 2451 L
3977 2409 L
3978 2226 L
3980 2398 L
3982 2439 L
3983 2368 L
3985 2189 L
3986 2294 L
3988 2547 L
3990 2448 L
3991 2410 L
3993 2251 L
3994 2237 L
3996 2315 L
3997 2276 L
3999 2437 L
4000 2265 L
4001 2228 L
4003 2406 L
4004 2378 L
4006 2382 L
4007 2561 L
4009 2264 L
4010 2450 L
4011 2374 L
4013 2196 L
4014 2239 L
4016 2364 L
4017 2412 L
4018 2323 L
4020 2326 L
4021 2400 L
4022 2413 L
4024 2571 L
4025 2484 L
4026 2543 L
4028 2290 L
4029 2325 L
4030 2422 L
4031 2438 L
4033 2324 L
4034 2368 L
4035 2288 L
4036 2469 L
4038 2320 L
4039 2354 L
4040 2495 L
4041 2528 L
4042 2367 L
4044 2419 L
4045 2446 L
4046 2418 L
4047 2248 L
4048 2404 L
4050 2481 L
4051 2299 L
4052 2382 L
4053 2366 L
4054 2403 L
4055 2242 L
4056 2400 L
4058 2424 L
4059 2519 L
4060 2315 L
4061 2423 L
4062 2275 L
4063 2433 L
4064 2354 L
4065 2409 L
4066 2394 L
L2 C03 COSGR

%
%================
% Legend - Begin
%================
%
GSN 4240 5180 M
4480 5180 L
LWMC SL  C03 COSGR
GSN 4540 5141 M helvM (1.5 uM) show grestore
%
%================
% Legend - End
%================
%

%
% Residuals:
%
GSN 773 956 M
1625 1461 L
1773 1480 L
1860 1569 L
1922 1553 L
1970 1499 L
2009 1483 L
2043 1451 L
2072 1445 L
2097 1437 L
2120 1412 L
2140 1446 L
2159 1385 L
2176 1417 L
2192 1411 L
2207 1375 L
2221 1361 L
2234 1367 L
2247 1340 L
2259 1358 L
2270 1334 L
2280 1329 L
2290 1343 L
2300 1350 L
2309 1276 L
2318 1311 L
2326 1358 L
2335 1299 L
2342 1304 L
2350 1289 L
2357 1274 L
2364 1269 L
2371 1234 L
2378 1287 L
2384 1266 L
2391 1253 L
2397 1216 L
2403 1265 L
2409 1256 L
2414 1207 L
2420 1211 L
2425 1210 L
2430 1215 L
2435 1166 L
2440 1151 L
2445 1217 L
2450 1174 L
2455 1143 L
2459 1152 L
2464 1183 L
2468 1101 L
2472 1113 L
2476 1147 L
2481 1159 L
2485 1113 L
2489 1153 L
2492 1148 L
2496 1129 L
2500 1086 L
2504 1143 L
2507 1170 L
2511 1134 L
2514 1072 L
2518 1043 L
2521 1099 L
2525 1074 L
2528 1070 L
2531 1081 L
2534 1091 L
2538 1032 L
2541 1128 L
2544 1065 L
2547 1053 L
2550 1047 L
2553 1079 L
2556 1011 L
2559 1108 L
2561 1072 L
2564 1092 L
2567 1027 L
2570 1049 L
2580 1021 L
2590 1012 L
2600 987 L
2609 970 L
2618 965 L
2627 966 L
2635 997 L
2643 927 L
2650 930 L
2658 979 L
2665 931 L
2672 935 L
2678 917 L
2685 910 L
2691 919 L
2697 839 L
2703 904 L
2709 884 L
2714 870 L
2720 882 L
2725 868 L
2730 810 L
2735 835 L
2740 898 L
2745 828 L
2750 858 L
2755 892 L
2759 833 L
2764 839 L
2768 798 L
2772 783 L
2777 807 L
2781 795 L
2785 804 L
2789 797 L
2793 813 L
2796 798 L
2800 796 L
2804 825 L
2808 771 L
2811 792 L
2815 799 L
2818 793 L
2822 765 L
2825 782 L
2828 834 L
2831 794 L
2835 804 L
2838 764 L
2841 811 L
2844 805 L
2847 775 L
2850 754 L
2853 872 L
2856 804 L
2859 771 L
2862 750 L
2864 801 L
2867 825 L
2870 772 L
2873 785 L
2875 851 L
2878 802 L
2880 812 L
2883 825 L
2886 794 L
2888 831 L
2891 772 L
2893 791 L
2895 830 L
2898 814 L
2900 823 L
2902 790 L
2905 832 L
2907 865 L
2909 801 L
2912 849 L
2914 790 L
2916 801 L
2918 835 L
2920 782 L
2922 845 L
2925 857 L
2927 825 L
2929 826 L
2931 806 L
2933 849 L
2935 831 L
2937 767 L
2939 809 L
2941 865 L
2943 836 L
2945 797 L
2947 799 L
2948 844 L
2950 853 L
2952 791 L
2954 844 L
2956 803 L
2958 825 L
2959 827 L
2961 781 L
2963 876 L
2965 828 L
2966 832 L
2968 910 L
2970 865 L
2972 876 L
2973 877 L
2975 875 L
2977 833 L
2978 843 L
2980 849 L
2982 769 L
2983 822 L
2985 870 L
2986 873 L
2988 822 L
2989 826 L
2991 875 L
2993 848 L
2994 862 L
2996 892 L
2997 840 L
2999 866 L
3000 846 L
3002 858 L
3003 847 L
3005 887 L
3006 898 L
3007 895 L
3009 852 L
3010 868 L
3012 837 L
3013 898 L
3014 846 L
3016 872 L
3017 909 L
3019 873 L
3020 886 L
3021 894 L
3023 868 L
3024 854 L
3025 870 L
3027 911 L
3028 902 L
3029 886 L
3031 913 L
3032 883 L
3033 847 L
3034 884 L
3036 860 L
3037 896 L
3038 879 L
3039 896 L
3041 902 L
3042 924 L
3043 884 L
3044 894 L
3045 915 L
3047 875 L
3048 914 L
3049 894 L
3050 897 L
3051 859 L
3053 840 L
3054 942 L
3055 930 L
3056 924 L
3057 915 L
3058 874 L
3059 934 L
3061 873 L
3062 917 L
3063 927 L
3064 939 L
3065 951 L
3066 922 L
3067 909 L
3068 911 L
3069 884 L
3070 923 L
3071 920 L
3073 937 L
3074 925 L
3075 950 L
3076 883 L
3077 943 L
3078 885 L
3079 953 L
3080 875 L
3081 891 L
3082 874 L
3083 945 L
3084 888 L
3085 938 L
3086 870 L
3087 929 L
3088 960 L
3089 925 L
3112 980 L
3133 980 L
3152 998 L
3170 960 L
3186 952 L
3201 1015 L
3216 1005 L
3229 923 L
3241 978 L
3253 987 L
3264 980 L
3275 1008 L
3285 1037 L
3295 1001 L
3304 1006 L
3313 1008 L
3322 1015 L
3330 1013 L
3338 1024 L
3346 1009 L
3353 959 L
3360 965 L
3367 975 L
3374 982 L
3380 1041 L
3387 995 L
3393 1028 L
3399 1008 L
3405 1049 L
3410 1036 L
3416 1007 L
3421 1045 L
3426 994 L
3431 1049 L
3436 993 L
3441 1051 L
3446 1000 L
3451 1033 L
3455 1035 L
3460 992 L
3464 999 L
3469 1005 L
3473 1001 L
3477 1025 L
3481 979 L
3485 1046 L
3489 990 L
3493 953 L
3496 1014 L
3500 933 L
3504 994 L
3507 979 L
3511 991 L
3514 949 L
3518 1056 L
3521 936 L
3525 982 L
3528 995 L
3531 1014 L
3534 968 L
3537 989 L
3540 1002 L
3543 1003 L
3546 1010 L
3549 1004 L
3552 994 L
3555 982 L
3558 929 L
3561 919 L
3564 1008 L
3566 1002 L
3575 978 L
3586 948 L
3595 970 L
3605 997 L
3613 990 L
3622 990 L
3630 981 L
3638 995 L
3646 977 L
3653 998 L
3660 957 L
3667 914 L
3674 957 L
3681 964 L
3687 994 L
3693 963 L
3699 955 L
3705 994 L
3710 1040 L
3716 945 L
3721 967 L
3727 977 L
3732 984 L
3737 954 L
3742 933 L
3746 922 L
3751 945 L
3756 1014 L
3760 997 L
3764 933 L
3769 953 L
3773 943 L
3777 936 L
3781 910 L
3785 978 L
3789 918 L
3793 935 L
3797 973 L
3800 994 L
3804 904 L
3808 951 L
3811 962 L
3815 926 L
3818 912 L
3821 952 L
3825 942 L
3828 892 L
3831 938 L
3834 913 L
3838 965 L
3841 977 L
3844 918 L
3847 893 L
3850 979 L
3853 890 L
3855 922 L
3858 965 L
3861 945 L
3864 926 L
3867 931 L
3869 926 L
3872 932 L
3875 963 L
3877 914 L
3880 901 L
3882 916 L
3885 933 L
3887 953 L
3890 889 L
3892 933 L
3895 908 L
3897 926 L
3899 919 L
3902 927 L
3904 928 L
3906 880 L
3908 982 L
3911 922 L
3913 930 L
3915 930 L
3917 851 L
3919 934 L
3921 899 L
3923 954 L
3926 911 L
3928 937 L
3930 931 L
3932 944 L
3934 932 L
3936 933 L
3938 937 L
3940 897 L
3942 934 L
3943 886 L
3945 903 L
3947 955 L
3949 905 L
3951 935 L
3953 942 L
3955 945 L
3956 899 L
3958 873 L
3960 898 L
3962 871 L
3963 926 L
3965 927 L
3967 905 L
3969 897 L
3970 893 L
3972 889 L
3974 902 L
3975 923 L
3977 911 L
3978 860 L
3980 908 L
3982 920 L
3983 900 L
3985 850 L
3986 879 L
3988 950 L
3990 922 L
3991 912 L
3993 867 L
3994 863 L
3996 885 L
3997 874 L
3999 919 L
4000 871 L
4001 861 L
4003 910 L
4004 903 L
4006 904 L
4007 954 L
4009 871 L
4010 923 L
4011 902 L
4013 852 L
4014 864 L
4016 899 L
4017 912 L
4018 887 L
4020 888 L
4021 909 L
4022 912 L
4024 957 L
4025 932 L
4026 949 L
4028 878 L
4029 888 L
4030 915 L
4031 920 L
4033 888 L
4034 900 L
4035 878 L
4036 928 L
4038 886 L
4039 896 L
4040 935 L
4041 945 L
4042 900 L
4044 914 L
4045 922 L
4046 914 L
4047 867 L
4048 910 L
4050 931 L
4051 881 L
4052 904 L
4053 899 L
4054 910 L
4055 865 L
4056 909 L
4058 916 L
4059 942 L
4060 885 L
4061 915 L
4062 874 L
4063 918 L
4064 896 L
4065 912 L
4066 907 L
L2 C03 COSGR

%
% Main frame
%
L10
GSN 
620 1700 M
4220 1700 L
4220 5300 L
620 5300 L
closepath SGR

%
% X axis: large tics
%
L10
GSN 1074 1700 M 0  54 rL SGR
GSN 1074 5300 M 0 -54 rL SGR
helvS (0.0001) 1074 470 xlabel
GSN 1572 1700 M 0  54 rL SGR
GSN 1572 5300 M 0 -54 rL SGR
helvS (0.001) 1572 470 xlabel
GSN 2071 1700 M 0  54 rL SGR
GSN 2071 5300 M 0 -54 rL SGR
helvS (0.01) 2071 470 xlabel
GSN 2570 1700 M 0  54 rL SGR
GSN 2570 5300 M 0 -54 rL SGR
helvS (0.1) 2570 470 xlabel
GSN 3068 1700 M 0  54 rL SGR
GSN 3068 5300 M 0 -54 rL SGR
helvS (1) 3068 470 xlabel
GSN 3567 1700 M 0  54 rL SGR
GSN 3567 5300 M 0 -54 rL SGR
helvS (10) 3567 470 xlabel
GSN 4066 1700 M 0  54 rL SGR
GSN 4066 5300 M 0 -54 rL SGR
helvS (100) 4066 470 xlabel
%
% X axis: small tics
%
L5
GSN 725 1700 M 0  36 rL SGR
GSN 725 5300 M 0 -36 rL SGR
GSN 813 1700 M 0  36 rL SGR
GSN 813 5300 M 0 -36 rL SGR
GSN 875 1700 M 0  36 rL SGR
GSN 875 5300 M 0 -36 rL SGR
GSN 924 1700 M 0  36 rL SGR
GSN 924 5300 M 0 -36 rL SGR
GSN 963 1700 M 0  36 rL SGR
GSN 963 5300 M 0 -36 rL SGR
GSN 996 1700 M 0  36 rL SGR
GSN 996 5300 M 0 -36 rL SGR
GSN 1025 1700 M 0  36 rL SGR
GSN 1025 5300 M 0 -36 rL SGR
GSN 1051 1700 M 0  36 rL SGR
GSN 1051 5300 M 0 -36 rL SGR
GSN 1224 1700 M 0  36 rL SGR
GSN 1224 5300 M 0 -36 rL SGR
GSN 1312 1700 M 0  36 rL SGR
GSN 1312 5300 M 0 -36 rL SGR
GSN 1374 1700 M 0  36 rL SGR
GSN 1374 5300 M 0 -36 rL SGR
GSN 1422 1700 M 0  36 rL SGR
GSN 1422 5300 M 0 -36 rL SGR
GSN 1462 1700 M 0  36 rL SGR
GSN 1462 5300 M 0 -36 rL SGR
GSN 1495 1700 M 0  36 rL SGR
GSN 1495 5300 M 0 -36 rL SGR
GSN 1524 1700 M 0  36 rL SGR
GSN 1524 5300 M 0 -36 rL SGR
GSN 1550 1700 M 0  36 rL SGR
GSN 1550 5300 M 0 -36 rL SGR
GSN 1722 1700 M 0  36 rL SGR
GSN 1722 5300 M 0 -36 rL SGR
GSN 1810 1700 M 0  36 rL SGR
GSN 1810 5300 M 0 -36 rL SGR
GSN 1873 1700 M 0  36 rL SGR
GSN 1873 5300 M 0 -36 rL SGR
GSN 1921 1700 M 0  36 rL SGR
GSN 1921 5300 M 0 -36 rL SGR
GSN 1960 1700 M 0  36 rL SGR
GSN 1960 5300 M 0 -36 rL SGR
GSN 1994 1700 M 0  36 rL SGR
GSN 1994 5300 M 0 -36 rL SGR
GSN 2023 1700 M 0  36 rL SGR
GSN 2023 5300 M 0 -36 rL SGR
GSN 2048 1700 M 0  36 rL SGR
GSN 2048 5300 M 0 -36 rL SGR
GSN 2221 1700 M 0  36 rL SGR
GSN 2221 5300 M 0 -36 rL SGR
GSN 2309 1700 M 0  36 rL SGR
GSN 2309 5300 M 0 -36 rL SGR
GSN 2371 1700 M 0  36 rL SGR
GSN 2371 5300 M 0 -36 rL SGR
GSN 2420 1700 M 0  36 rL SGR
GSN 2420 5300 M 0 -36 rL SGR
GSN 2459 1700 M 0  36 rL SGR
GSN 2459 5300 M 0 -36 rL SGR
GSN 2492 1700 M 0  36 rL SGR
GSN 2492 5300 M 0 -36 rL SGR
GSN 2521 1700 M 0  36 rL SGR
GSN 2521 5300 M 0 -36 rL SGR
GSN 2547 1700 M 0  36 rL SGR
GSN 2547 5300 M 0 -36 rL SGR
GSN 2720 1700 M 0  36 rL SGR
GSN 2720 5300 M 0 -36 rL SGR
GSN 2808 1700 M 0  36 rL SGR
GSN 2808 5300 M 0 -36 rL SGR
GSN 2870 1700 M 0  36 rL SGR
GSN 2870 5300 M 0 -36 rL SGR
GSN 2918 1700 M 0  36 rL SGR
GSN 2918 5300 M 0 -36 rL SGR
GSN 2958 1700 M 0  36 rL SGR
GSN 2958 5300 M 0 -36 rL SGR
GSN 2991 1700 M 0  36 rL SGR
GSN 2991 5300 M 0 -36 rL SGR
GSN 3020 1700 M 0  36 rL SGR
GSN 3020 5300 M 0 -36 rL SGR
GSN 3045 1700 M 0  36 rL SGR
GSN 3045 5300 M 0 -36 rL SGR
GSN 3218 1700 M 0  36 rL SGR
GSN 3218 5300 M 0 -36 rL SGR
GSN 3306 1700 M 0  36 rL SGR
GSN 3306 5300 M 0 -36 rL SGR
GSN 3368 1700 M 0  36 rL SGR
GSN 3368 5300 M 0 -36 rL SGR
GSN 3417 1700 M 0  36 rL SGR
GSN 3417 5300 M 0 -36 rL SGR
GSN 3456 1700 M 0  36 rL SGR
GSN 3456 5300 M 0 -36 rL SGR
GSN 3490 1700 M 0  36 rL SGR
GSN 3490 5300 M 0 -36 rL SGR
GSN 3519 1700 M 0  36 rL SGR
GSN 3519 5300 M 0 -36 rL SGR
GSN 3544 1700 M 0  36 rL SGR
GSN 3544 5300 M 0 -36 rL SGR
GSN 3717 1700 M 0  36 rL SGR
GSN 3717 5300 M 0 -36 rL SGR
GSN 3805 1700 M 0  36 rL SGR
GSN 3805 5300 M 0 -36 rL SGR
GSN 3867 1700 M 0  36 rL SGR
GSN 3867 5300 M 0 -36 rL SGR
GSN 3915 1700 M 0  36 rL SGR
GSN 3915 5300 M 0 -36 rL SGR
GSN 3955 1700 M 0  36 rL SGR
GSN 3955 5300 M 0 -36 rL SGR
GSN 3988 1700 M 0  36 rL SGR
GSN 3988 5300 M 0 -36 rL SGR
GSN 4017 1700 M 0  36 rL SGR
GSN 4017 5300 M 0 -36 rL SGR
GSN 4043 1700 M 0  36 rL SGR
GSN 4043 5300 M 0 -36 rL SGR
GSN 4216 1700 M 0  36 rL SGR
GSN 4216 5300 M 0 -36 rL SGR
%
% Y axis: large tics
%
L10
GSN 620 2041 M 54 0 rL SGR
GSN 4220 2041 M -54 0 rL SGR
helvS (1.04) 560 2041 ylabel
GSN 620 2834 M 54 0 rL SGR
GSN 4220 2834 M -54 0 rL SGR
helvS (1.06) 560 2834 ylabel
GSN 620 3627 M 54 0 rL SGR
GSN 4220 3627 M -54 0 rL SGR
helvS (1.08) 560 3627 ylabel
GSN 620 4420 M 54 0 rL SGR
GSN 4220 4420 M -54 0 rL SGR
helvS (1.1) 560 4420 ylabel
GSN 620 5213 M 54 0 rL SGR
GSN 4220 5213 M -54 0 rL SGR
helvS (1.12) 560 5213 ylabel
%
% Y axis: small tics
%
L5
GSN 620 1843 M 36 0 rL SGR
GSN 4220 1843 M -36 0 rL SGR
GSN 620 2041 M 36 0 rL SGR
GSN 4220 2041 M -36 0 rL SGR
GSN 620 2239 M 36 0 rL SGR
GSN 4220 2239 M -36 0 rL SGR
GSN 620 2437 M 36 0 rL SGR
GSN 4220 2437 M -36 0 rL SGR
GSN 620 2636 M 36 0 rL SGR
GSN 4220 2636 M -36 0 rL SGR
GSN 620 2834 M 36 0 rL SGR
GSN 4220 2834 M -36 0 rL SGR
GSN 620 3032 M 36 0 rL SGR
GSN 4220 3032 M -36 0 rL SGR
GSN 620 3230 M 36 0 rL SGR
GSN 4220 3230 M -36 0 rL SGR
GSN 620 3429 M 36 0 rL SGR
GSN 4220 3429 M -36 0 rL SGR
GSN 620 3627 M 36 0 rL SGR
GSN 4220 3627 M -36 0 rL SGR
GSN 620 3825 M 36 0 rL SGR
GSN 4220 3825 M -36 0 rL SGR
GSN 620 4023 M 36 0 rL SGR
GSN 4220 4023 M -36 0 rL SGR
GSN 620 4222 M 36 0 rL SGR
GSN 4220 4222 M -36 0 rL SGR
GSN 620 4420 M 36 0 rL SGR
GSN 4220 4420 M -36 0 rL SGR
GSN 620 4618 M 36 0 rL SGR
GSN 4220 4618 M -36 0 rL SGR
GSN 620 4816 M 36 0 rL SGR
GSN 4220 4816 M -36 0 rL SGR
GSN 620 5014 M 36 0 rL SGR
GSN 4220 5014 M -36 0 rL SGR
GSN 620 5213 M 36 0 rL SGR
GSN 4220 5213 M -36 0 rL SGR

%
% X-Axis label:
%
gsave 2420 290 M 
[
[(Helvetica) 180 0 true true 0 (t)]
[(Helvetica) 180 0 true true 0 (i)]
[(Helvetica) 180 0 true true 0 (m)]
[(Helvetica) 180 0 true true 0 (e)]
] 0 MCshow grestore

%
% Y-Axis label:
%
gsave 234 3499 M 
currentpoint gsave translate 90 rotate 0 0 moveto
[
[(Helvetica) 180 0 true true 0 (s)]
[(Helvetica) 180 0 true true 0 (i)]
[(Helvetica) 180 0 true true 0 (g)]
[(Helvetica) 180 0 true true 0 (n)]
[(Helvetica) 180 0 true true 0 (a)]
[(Helvetica) 180 0 true true 0 (l)]
] 0 MCshow grestore

%
% Residuals:
%
gsave 129 1160 M 
currentpoint gsave translate 90 rotate 0 0 moveto
[
[(Helvetica) 150 0 true true 0 (r)]
[(Helvetica) 150 0 true true 0 (e)]
[(Helvetica) 150 0 true true 0 (s)]
[(Helvetica) 150 0 true true 0 (i)]
[(Helvetica) 150 0 true true 0 (d)]
[(Helvetica) 150 0 true true 0 (u)]
[(Helvetica) 150 0 true true 0 (a)]
[(Helvetica) 150 0 true true 0 (l)]
[(Helvetica) 150 0 true true 0 (s)]
] 0 MCshow grestore

%
% Residual frame
%
L10
GSN 
620 620 M
4220 620 L
4220 1700 L
620 1700 L
closepath SGR
%
% X axis: large tics - residual frame
%
L10
GSN 1074 620 M 0  54 rL SGR
GSN 1074 1700 M 0 -54 rL SGR
GSN 1572 620 M 0  54 rL SGR
GSN 1572 1700 M 0 -54 rL SGR
GSN 2071 620 M 0  54 rL SGR
GSN 2071 1700 M 0 -54 rL SGR
GSN 2570 620 M 0  54 rL SGR
GSN 2570 1700 M 0 -54 rL SGR
GSN 3068 620 M 0  54 rL SGR
GSN 3068 1700 M 0 -54 rL SGR
GSN 3567 620 M 0  54 rL SGR
GSN 3567 1700 M 0 -54 rL SGR
GSN 4066 620 M 0  54 rL SGR
GSN 4066 1700 M 0 -54 rL SGR
%
% X axis: small tics - residual frame
%
L5
GSN 725 620 M 0  36 rL SGR
GSN 725 1700 M 0 -36 rL SGR
GSN 813 620 M 0  36 rL SGR
GSN 813 1700 M 0 -36 rL SGR
GSN 875 620 M 0  36 rL SGR
GSN 875 1700 M 0 -36 rL SGR
GSN 924 620 M 0  36 rL SGR
GSN 924 1700 M 0 -36 rL SGR
GSN 963 620 M 0  36 rL SGR
GSN 963 1700 M 0 -36 rL SGR
GSN 996 620 M 0  36 rL SGR
GSN 996 1700 M 0 -36 rL SGR
GSN 1025 620 M 0  36 rL SGR
GSN 1025 1700 M 0 -36 rL SGR
GSN 1051 620 M 0  36 rL SGR
GSN 1051 1700 M 0 -36 rL SGR
GSN 1224 620 M 0  36 rL SGR
GSN 1224 1700 M 0 -36 rL SGR
GSN 1312 620 M 0  36 rL SGR
GSN 1312 1700 M 0 -36 rL SGR
GSN 1374 620 M 0  36 rL SGR
GSN 1374 1700 M 0 -36 rL SGR
GSN 1422 620 M 0  36 rL SGR
GSN 1422 1700 M 0 -36 rL SGR
GSN 1462 620 M 0  36 rL SGR
GSN 1462 1700 M 0 -36 rL SGR
GSN 1495 620 M 0  36 rL SGR
GSN 1495 1700 M 0 -36 rL SGR
GSN 1524 620 M 0  36 rL SGR
GSN 1524 1700 M 0 -36 rL SGR
GSN 1550 620 M 0  36 rL SGR
GSN 1550 1700 M 0 -36 rL SGR
GSN 1722 620 M 0  36 rL SGR
GSN 1722 1700 M 0 -36 rL SGR
GSN 1810 620 M 0  36 rL SGR
GSN 1810 1700 M 0 -36 rL SGR
GSN 1873 620 M 0  36 rL SGR
GSN 1873 1700 M 0 -36 rL SGR
GSN 1921 620 M 0  36 rL SGR
GSN 1921 1700 M 0 -36 rL SGR
GSN 1960 620 M 0  36 rL SGR
GSN 1960 1700 M 0 -36 rL SGR
GSN 1994 620 M 0  36 rL SGR
GSN 1994 1700 M 0 -36 rL SGR
GSN 2023 620 M 0  36 rL SGR
GSN 2023 1700 M 0 -36 rL SGR
GSN 2048 620 M 0  36 rL SGR
GSN 2048 1700 M 0 -36 rL SGR
GSN 2221 620 M 0  36 rL SGR
GSN 2221 1700 M 0 -36 rL SGR
GSN 2309 620 M 0  36 rL SGR
GSN 2309 1700 M 0 -36 rL SGR
GSN 2371 620 M 0  36 rL SGR
GSN 2371 1700 M 0 -36 rL SGR
GSN 2420 620 M 0  36 rL SGR
GSN 2420 1700 M 0 -36 rL SGR
GSN 2459 620 M 0  36 rL SGR
GSN 2459 1700 M 0 -36 rL SGR
GSN 2492 620 M 0  36 rL SGR
GSN 2492 1700 M 0 -36 rL SGR
GSN 2521 620 M 0  36 rL SGR
GSN 2521 1700 M 0 -36 rL SGR
GSN 2547 620 M 0  36 rL SGR
GSN 2547 1700 M 0 -36 rL SGR
GSN 2720 620 M 0  36 rL SGR
GSN 2720 1700 M 0 -36 rL SGR
GSN 2808 620 M 0  36 rL SGR
GSN 2808 1700 M 0 -36 rL SGR
GSN 2870 620 M 0  36 rL SGR
GSN 2870 1700 M 0 -36 rL SGR
GSN 2918 620 M 0  36 rL SGR
GSN 2918 1700 M 0 -36 rL SGR
GSN 2958 620 M 0  36 rL SGR
GSN 2958 1700 M 0 -36 rL SGR
GSN 2991 620 M 0  36 rL SGR
GSN 2991 1700 M 0 -36 rL SGR
GSN 3020 620 M 0  36 rL SGR
GSN 3020 1700 M 0 -36 rL SGR
GSN 3045 620 M 0  36 rL SGR
GSN 3045 1700 M 0 -36 rL SGR
GSN 3218 620 M 0  36 rL SGR
GSN 3218 1700 M 0 -36 rL SGR
GSN 3306 620 M 0  36 rL SGR
GSN 3306 1700 M 0 -36 rL SGR
GSN 3368 620 M 0  36 rL SGR
GSN 3368 1700 M 0 -36 rL SGR
GSN 3417 620 M 0  36 rL SGR
GSN 3417 1700 M 0 -36 rL SGR
GSN 3456 620 M 0  36 rL SGR
GSN 3456 1700 M 0 -36 rL SGR
GSN 3490 620 M 0  36 rL SGR
GSN 3490 1700 M 0 -36 rL SGR
GSN 3519 620 M 0  36 rL SGR
GSN 3519 1700 M 0 -36 rL SGR
GSN 3544 620 M 0  36 rL SGR
GSN 3544 1700 M 0 -36 rL SGR
GSN 3717 620 M 0  36 rL SGR
GSN 3717 1700 M 0 -36 rL SGR
GSN 3805 620 M 0  36 rL SGR
GSN 3805 1700 M 0 -36 rL SGR
GSN 3867 620 M 0  36 rL SGR
GSN 3867 1700 M 0 -36 rL SGR
GSN 3915 620 M 0  36 rL SGR
GSN 3915 1700 M 0 -36 rL SGR
GSN 3955 620 M 0  36 rL SGR
GSN 3955 1700 M 0 -36 rL SGR
GSN 3988 620 M 0  36 rL SGR
GSN 3988 1700 M 0 -36 rL SGR
GSN 4017 620 M 0  36 rL SGR
GSN 4017 1700 M 0 -36 rL SGR
GSN 4043 620 M 0  36 rL SGR
GSN 4043 1700 M 0 -36 rL SGR
GSN 4216 620 M 0  36 rL SGR
GSN 4216 1700 M 0 -36 rL SGR
%
% Y axis: large tics - residual frame
%
L10
GSN 620 735 M 54 0 rL SGR
GSN 4220 735 M -54 0 rL SGR
helvS (-0.02) 560 735 ylabelresid
GSN 620 957 M 54 0 rL SGR
GSN 4220 957 M -54 0 rL SGR
helvS (0) 560 957 ylabelresid
GSN 620 1178 M 54 0 rL SGR
GSN 4220 1178 M -54 0 rL SGR
helvS (0.02) 560 1178 ylabelresid
GSN 620 1400 M 54 0 rL SGR
GSN 4220 1400 M -54 0 rL SGR
helvS (0.04) 560 1400 ylabelresid
GSN 620 1622 M 54 0 rL SGR
GSN 4220 1622 M -54 0 rL SGR
helvS (0.06) 560 1622 ylabelresid

%
% X axis - residual panel
%
GSN L5 620 957 M 4220 957 L SDA G50 SGR

end
showpage
%%Trailer
%%EOF
