%!PS-Adobe-3.0 EPSF-3.0
%%BoundingBox: 0 0 514 550
%%Creator: BioKin Ltd.
%%DocumentFonts: Symbol Helvetica
%%EndComments
%
/bkdict 256 dict def
bkdict begin
/M {moveto} def 
/R {rmoveto} def
/L {lineto} def
/rL {rlineto} def
/GSN {gsave newpath} def
/SGR {stroke grestore} def
/COSGR {gsave setrgbcolor stroke grestore grestore} def
/SL {setlinewidth} def
/LWMB {12} def             % line width - model curves, black & white
/LWMC {10} def             % line width - model curves, color
/L2 {2.5 setlinewidth} def
/L5 {5 setlinewidth} def
/L10 {10 setlinewidth} def
/G50 {0.5 setgray} def
/SDA {[10  20] 0 setdash} def % axes
/helvT {/Helvetica findfont 100 scalefont setfont} def % tiny
/helvS {/Helvetica findfont 125 scalefont setfont} def % small
/helvM {/Helvetica findfont 150 scalefont setfont} def % medium
/helvL {/Helvetica findfont 175 scalefont setfont} def % large
/xlabel {gsave M dup
   stringwidth exch -0.5 mul exch rmoveto show grestore} def 
/ylabel {gsave M 90 rotate dup
   stringwidth exch -0.5 mul exch rmoveto show grestore} def
/ylabelresid {gsave M dup
   stringwidth exch -1 mul exch rmoveto show grestore} def
% ======
% Shapes
% ======
% Circle:
/Circ {0 360 arc closepath} def
%
% Square:
/Squa {dup dup -0.5 mul dup dup R -2 mul 0 exch rL 1 mul 0 rL dup 0 exch -1 mul rL closepath} def
%
% Triangle Up:
/TriU {dup dup dup -0.4 mul exch -0.5 mul exch R dup 0.5 mul exch rL dup -1 mul exch 0.5 mul exch rL closepath} def 
%
% Triangle Down:
/TriD {dup dup dup 0.4 mul exch -0.5 mul exch R dup 0.5 mul exch -1 mul rL dup 0.5 mul exch rL closepath} def 
%
% Diamond:
/Diam {45 rotate Squa} def
% ======
% Fills
% ======
/GRF {gsave setgray fill grestore} def                    % gray-level Fill
/COF {gsave setrgbcolor fill grestore} def                % color fill
% ======
% Colors
% ======
/C01 {1.00	0.00	0.00} def      % Red
/C02 {0.00	0.00	1.00} def      % Blue
/C03 {0.00	0.39	0.00} def      % Dark Green
/C04 {0.78	0.08	0.52} def      % Medium Violet Red
/C05 {0.55	0.27	0.07} def      % Saddle Brown
/C06 {0.10	0.70	0.70} def      % (cyan)
/C07 {1.00	0.55	0.00} def      % Dark Orange
/C08 {0.63	0.13	0.94} def      % Purple
/C09 {0.00	0.75	1.00} def      % Deep Sky Blue
/C10 {0.20	0.80	0.20} def      % Lime Green
/C11 {0.47	0.53	0.60} def      % Light Slate Gray
/C12 {0.00	0.00	0.00} def      % Black            % or: {0.19	0.31	0.31} def      % Dark Slate Gray
%
/LGR {0.75} def % light gray
/DGR {0.33} def % dark gray
%
% =============
% Dash patterns
% =============
/dash01 { [80  20] 0 setdash } def
/dash02 { [40  20] 0 setdash } def
/dash03 { [80  20  10  20] 0 setdash } def
/dash04 { [40  20  10  20] 0 setdash } def
/dash05 { [80  20  10  10  10  20] 0 setdash } def
/dash06 { [40  20  10  10  10  20] 0 setdash } def
/dash07 { [10  10] 0 setdash } def
%
/MFshow {
   { dup 5 get 3 ge
     { 5 get 3 eq {gsave} {grestore} ifelse }
     {dup dup 0 get findfont exch 1 get scalefont setfont
     [ currentpoint ] exch dup 2 get 0 exch R dup 5 get 2 ne {dup dup 6
     get exch 4 get {show} {stringwidth pop 0 R} ifelse }if dup 5 get 0 eq
     {dup 3 get {2 get neg 0 exch R pop} {pop aload pop M} ifelse} {dup 5
     get 1 eq {dup 2 get exch dup 3 get exch 6 get stringwidth pop -2 div
     dup 0 R} {dup 6 get stringwidth pop -2 div 0 R 6 get
     show 2 index {aload pop M neg 3 -1 roll neg R pop pop} {pop pop pop
     pop aload pop M} ifelse }ifelse }ifelse }
     ifelse }
   forall} bind def
/MFwidth {0 exch {dup 3 get{dup dup 0 get findfont exch 1 get scalefont
     setfont 6 get stringwidth pop add} {pop} ifelse} forall} bind def
/MCshow { currentpoint stroke M
  exch dup MFwidth -2 div 3 -1 roll R MFshow } def
%
end
%%EndProlog
bkdict begin
0.1 0.1 scale
%
% Residuals:
%
GSN 620 4172 M
620 3799 L
620 3521 L
620 3893 L
620 4569 L
620 3545 L
620 3327 L
620 3818 L
620 3854 L
620 3373 L
620 3704 L
620 3970 L
620 4052 L
620 4032 L
620 4626 L
620 4284 L
620 4863 L
620 4203 L
620 4092 L
620 4173 L
620 4016 L
620 3858 L
620 4318 L
620 4644 L
620 4735 L
620 3813 L
620 3862 L
620 4309 L
620 3953 L
620 3523 L
620 3887 L
620 4001 L
620 3747 L
620 4313 L
620 3957 L
620 3910 L
620 4038 L
620 3540 L
620 4041 L
620 4377 L
620 4021 L
620 4057 L
620 3955 L
620 3590 L
620 4156 L
620 3902 L
620 3795 L
620 4048 L
620 3591 L
620 3701 L
620 3977 L
620 3418 L
620 3772 L
620 4011 L
620 3872 L
620 3503 L
620 3880 L
620 3612 L
620 3653 L
620 3910 L
620 4398 L
620 3918 L
620 3926 L
620 3792 L
620 3976 L
620 3698 L
620 3361 L
620 3761 L
620 3548 L
620 3746 L
620 4054 L
620 3693 L
620 3849 L
620 4480 L
620 3719 L
620 4220 L
620 3578 L
620 3698 L
620 3669 L
620 4571 L
620 4137 L
620 3357 L
620 4094 L
620 3835 L
620 3640 L
620 4276 L
620 3832 L
620 3956 L
620 3950 L
620 4253 L
620 3699 L
620 3689 L
620 4444 L
620 4208 L
620 3949 L
620 3998 L
620 3873 L
620 3817 L
620 4516 L
620 3427 L
620 3883 L
620 3499 L
620 4194 L
620 4515 L
620 4371 L
620 3646 L
620 4115 L
620 3902 L
620 4085 L
620 4254 L
620 3801 L
620 3975 L
620 3651 L
620 3973 L
620 3211 L
620 4016 L
620 4489 L
620 4290 L
620 4588 L
620 3697 L
620 3673 L
620 4293 L
620 4467 L
620 4000 L
620 4261 L
620 4177 L
620 4161 L
620 4155 L
620 3859 L
620 3783 L
620 4469 L
620 3919 L
620 3668 L
620 4399 L
620 3310 L
620 4129 L
620 4358 L
620 4452 L
620 4128 L
620 4449 L
620 4401 L
620 3588 L
620 3789 L
620 3916 L
620 3693 L
620 4042 L
620 4265 L
620 3305 L
620 3934 L
620 4066 L
620 3824 L
620 3606 L
620 4240 L
620 4206 L
620 3968 L
620 3293 L
620 3762 L
620 4050 L
620 4089 L
620 3944 L
620 3647 L
620 3704 L
620 4016 L
620 4359 L
620 3541 L
620 3737 L
620 4020 L
620 4613 L
620 3712 L
620 4161 L
620 4214 L
620 4032 L
620 3605 L
620 3681 L
620 3692 L
620 4225 L
620 3600 L
620 4026 L
620 4342 L
620 3754 L
620 3959 L
620 3951 L
620 4216 L
620 3965 L
620 3727 L
620 4014 L
620 3938 L
620 3871 L
620 3970 L
620 4478 L
620 4204 L
620 4012 L
620 3571 L
620 4094 L
620 3561 L
620 4203 L
620 4099 L
620 4589 L
620 3987 L
620 3851 L
620 4456 L
620 3609 L
620 3892 L
620 4069 L
620 4282 L
620 4814 L
620 4286 L
620 4010 L
620 4155 L
620 3949 L
620 3812 L
620 4007 L
620 3603 L
620 4134 L
620 3877 L
620 4058 L
620 3645 L
620 3660 L
620 4099 L
620 3639 L
620 3502 L
620 4347 L
620 4090 L
620 4077 L
620 3525 L
620 3789 L
620 4233 L
620 3634 L
620 3723 L
620 3733 L
620 3578 L
620 4123 L
620 4248 L
620 4618 L
620 3619 L
620 4104 L
620 3800 L
620 3778 L
620 4189 L
620 3996 L
620 4154 L
620 4095 L
620 3303 L
620 3811 L
620 4148 L
620 4047 L
620 4214 L
620 3721 L
620 3764 L
620 3852 L
620 4230 L
620 3622 L
620 3490 L
620 3785 L
620 4509 L
620 4399 L
620 3865 L
620 3492 L
620 4327 L
620 3479 L
620 3645 L
620 4047 L
620 3743 L
620 3804 L
620 4196 L
620 2915 L
620 4109 L
620 3883 L
620 4128 L
620 4317 L
620 3382 L
620 3870 L
620 4576 L
620 3884 L
620 4194 L
620 3853 L
620 3880 L
620 3369 L
620 3480 L
620 3885 L
620 4185 L
620 3553 L
620 4407 L
620 3683 L
620 3734 L
620 4563 L
620 3766 L
620 3489 L
620 4010 L
620 3530 L
620 3922 L
620 3378 L
620 3913 L
620 3737 L
620 3834 L
620 3696 L
620 3912 L
620 4161 L
620 4382 L
620 3331 L
620 3478 L
620 3980 L
620 4123 L
620 3223 L
620 3518 L
620 4218 L
620 3628 L
620 3959 L
620 3982 L
620 3627 L
620 3437 L
620 3594 L
620 3252 L
620 4086 L
620 3440 L
620 3725 L
620 4071 L
620 4010 L
620 3880 L
620 4018 L
620 4262 L
620 4390 L
620 3869 L
620 4205 L
620 3890 L
620 4130 L
620 3391 L
620 3851 L
620 3662 L
620 4150 L
620 3458 L
620 4097 L
620 4023 L
620 4317 L
620 4201 L
620 3910 L
620 3919 L
620 3761 L
620 3612 L
620 4026 L
620 3882 L
620 4126 L
620 4356 L
620 4036 L
620 3210 L
620 3624 L
620 3992 L
620 4060 L
620 3718 L
620 3602 L
620 3564 L
620 4162 L
620 4147 L
620 3169 L
620 3933 L
620 4181 L
620 3898 L
620 3593 L
620 3878 L
620 3683 L
620 3797 L
620 3911 L
620 4122 L
620 3881 L
620 3520 L
620 3993 L
620 4002 L
620 3977 L
620 3506 L
620 3182 L
620 3591 L
620 3829 L
620 4160 L
620 3822 L
620 3613 L
620 3990 L
620 4136 L
620 3871 L
620 4055 L
620 4256 L
620 4024 L
620 3750 L
620 3800 L
620 4301 L
620 3885 L
620 3957 L
620 3351 L
620 3442 L
620 3601 L
620 4079 L
620 3820 L
620 3343 L
620 3130 L
620 3552 L
620 3915 L
620 3844 L
620 3912 L
620 3757 L
620 3834 L
620 3427 L
620 3988 L
620 3456 L
620 3961 L
620 4124 L
620 4024 L
620 3615 L
620 3829 L
620 3471 L
620 3393 L
620 3777 L
620 3589 L
620 3598 L
620 3147 L
620 3784 L
620 4115 L
620 3788 L
620 4451 L
620 4207 L
620 3999 L
620 4298 L
620 4002 L
620 3817 L
620 3687 L
620 3187 L
620 3444 L
620 3917 L
620 3625 L
620 4034 L
620 3774 L
620 3611 L
620 4010 L
620 3607 L
620 3977 L
620 3777 L
620 3507 L
620 4081 L
620 3622 L
620 3651 L
620 3892 L
620 3262 L
620 3365 L
620 3956 L
620 3414 L
620 3774 L
620 3858 L
620 3532 L
620 3611 L
620 3561 L
620 3590 L
620 3069 L
620 3669 L
620 3845 L
620 3637 L
620 3836 L
620 3061 L
620 4398 L
620 3854 L
620 3555 L
620 3679 L
620 3527 L
620 3480 L
620 3194 L
620 3065 L
620 3632 L
620 3262 L
620 2916 L
620 4220 L
620 3726 L
620 3582 L
620 3438 L
620 4037 L
620 3589 L
620 3495 L
620 3711 L
620 3267 L
620 3381 L
620 3343 L
620 3692 L
620 3414 L
620 3007 L
620 3817 L
620 3686 L
620 3445 L
620 3277 L
620 3428 L
620 3168 L
620 3466 L
620 3178 L
620 3545 L
620 3253 L
620 3785 L
620 2995 L
620 3514 L
620 2876 L
620 3016 L
620 3604 L
620 3865 L
620 3825 L
620 3196 L
620 3494 L
620 3335 L
620 3646 L
620 3053 L
620 3562 L
620 3270 L
620 3083 L
620 3550 L
620 2985 L
620 2904 L
620 3561 L
620 3632 L
620 3233 L
620 3174 L
620 3674 L
620 3529 L
620 3383 L
620 2937 L
620 3188 L
620 3231 L
620 3463 L
620 2525 L
620 3296 L
620 3178 L
620 3276 L
620 3084 L
620 3316 L
620 3050 L
620 3126 L
620 2841 L
620 2787 L
620 3397 L
620 3582 L
620 3400 L
620 3535 L
620 3172 L
620 2606 L
620 3515 L
620 3194 L
620 2873 L
620 2768 L
620 3493 L
620 3466 L
620 3283 L
620 3441 L
620 3396 L
620 3139 L
620 3352 L
620 2951 L
620 2939 L
620 2871 L
620 3614 L
620 3490 L
620 3441 L
620 3469 L
620 3701 L
620 2872 L
620 3089 L
620 3155 L
620 3400 L
620 3608 L
620 3683 L
620 3610 L
620 3740 L
620 2907 L
620 2967 L
620 3664 L
620 3476 L
620 3081 L
620 3440 L
620 3598 L
620 3493 L
620 3581 L
620 3181 L
620 2988 L
620 3053 L
620 3211 L
620 2713 L
620 3152 L
620 3337 L
620 2941 L
620 3237 L
620 2915 L
620 3266 L
620 3248 L
620 3184 L
620 3309 L
620 3047 L
620 3070 L
620 3260 L
620 2657 L
620 3021 L
620 2893 L
620 3299 L
620 3377 L
620 3318 L
620 3144 L
620 3218 L
620 3011 L
620 2615 L
620 2754 L
620 3317 L
620 2625 L
620 2787 L
620 3590 L
620 3152 L
620 3273 L
620 2978 L
620 3006 L
620 3140 L
620 3108 L
620 3229 L
620 3174 L
620 3229 L
620 2778 L
620 3373 L
620 2732 L
620 2936 L
620 3613 L
620 3213 L
620 3177 L
620 3084 L
620 3066 L
620 3426 L
620 3256 L
620 3003 L
620 3003 L
620 3460 L
620 2773 L
620 2764 L
620 3023 L
620 2696 L
620 3447 L
620 3065 L
620 3337 L
620 2715 L
620 2951 L
620 3214 L
620 3145 L
620 2919 L
620 2878 L
620 3357 L
620 3155 L
620 3220 L
620 2879 L
620 3382 L
620 2764 L
620 2645 L
620 3438 L
620 2986 L
620 3074 L
620 3171 L
620 3024 L
620 2627 L
620 2651 L
620 2752 L
620 2794 L
620 3665 L
620 2504 L
620 3260 L
620 2790 L
620 2832 L
620 2915 L
620 3049 L
620 3579 L
620 2823 L
620 2713 L
620 3095 L
620 3381 L
620 3054 L
620 3248 L
620 2999 L
620 2631 L
620 3188 L
620 3295 L
620 3258 L
620 2917 L
620 3217 L
620 3945 L
620 3683 L
620 3042 L
620 2803 L
620 2609 L
620 3259 L
620 2955 L
620 2729 L
620 2835 L
620 3223 L
620 3306 L
620 2974 L
620 2988 L
620 3196 L
620 3113 L
620 2951 L
620 3316 L
620 3117 L
620 2721 L
620 2136 L
620 3053 L
620 2998 L
620 3252 L
620 3008 L
620 3072 L
620 3031 L
620 2791 L
620 3570 L
620 2662 L
620 3487 L
620 2814 L
620 3253 L
620 3377 L
620 2759 L
620 2506 L
620 3087 L
620 2630 L
620 2774 L
620 2857 L
620 3263 L
620 2884 L
620 3046 L
620 2631 L
620 2774 L
620 2857 L
620 2359 L
620 2443 L
620 3000 L
620 2710 L
620 3438 L
620 3618 L
620 2766 L
620 3097 L
620 2627 L
620 2586 L
620 3070 L
620 2867 L
620 2720 L
620 2696 L
620 2821 L
620 3024 L
620 3167 L
620 3559 L
620 2651 L
620 2600 L
620 2942 L
620 2960 L
620 2835 L
620 2937 L
620 3011 L
620 3145 L
620 2909 L
620 3107 L
620 3098 L
620 2992 L
620 2665 L
620 3440 L
620 3407 L
620 2739 L
620 2840 L
620 3108 L
620 2896 L
620 3131 L
620 3080 L
620 2873 L
620 3366 L
620 3182 L
620 3408 L
620 3546 L
620 2928 L
620 2975 L
620 2947 L
620 2712 L
620 2753 L
620 3344 L
620 2850 L
620 3274 L
620 3422 L
620 2638 L
620 2749 L
620 3002 L
620 3339 L
620 2791 L
620 2684 L
620 3302 L
620 3192 L
620 3118 L
620 3372 L
620 3242 L
620 2256 L
620 3302 L
620 2768 L
620 2639 L
620 2924 L
620 2805 L
620 3399 L
620 3606 L
620 3077 L
620 2911 L
620 3178 L
620 2916 L
620 2989 L
620 3317 L
620 3593 L
620 3017 L
620 2818 L
620 2962 L
620 3566 L
620 3432 L
620 2865 L
620 3331 L
620 3529 L
620 3192 L
620 2570 L
620 3451 L
620 3225 L
620 2981 L
620 3469 L
620 3160 L
620 3179 L
620 2920 L
620 3386 L
620 3104 L
620 2736 L
620 3128 L
620 2824 L
620 3414 L
620 3299 L
620 3114 L
620 3335 L
620 3363 L
620 3082 L
620 3487 L
620 3110 L
620 3778 L
620 3796 L
620 3022 L
620 3404 L
620 3073 L
620 2962 L
620 3013 L
620 3626 L
620 2870 L
620 3142 L
620 2921 L
620 3322 L
620 3446 L
620 3322 L
620 3137 L
620 2718 L
620 3198 L
620 3230 L
620 3575 L
620 3363 L
620 3386 L
620 3548 L
620 2944 L
620 3257 L
620 2755 L
620 3368 L
620 3128 L
620 3354 L
620 3091 L
620 3534 L
620 3285 L
620 2778 L
620 3377 L
620 3156 L
620 3502 L
620 2990 L
620 3405 L
620 3373 L
620 3414 L
620 3225 L
620 3142 L
620 3161 L
620 3659 L
620 2925 L
620 3746 L
620 3460 L
620 3433 L
620 2552 L
620 3530 L
620 2350 L
620 2995 L
620 3552 L
620 3234 L
620 3110 L
620 2894 L
620 3050 L
620 2866 L
620 3516 L
620 3400 L
620 3386 L
620 2916 L
620 3553 L
620 2695 L
620 3133 L
620 2916 L
620 3378 L
620 2953 L
620 3092 L
620 2465 L
620 3050 L
620 3746 L
620 3165 L
620 2760 L
620 3189 L
620 3082 L
620 3244 L
620 3124 L
620 3640 L
620 2935 L
620 3064 L
620 3110 L
620 3106 L
620 2686 L
620 3271 L
620 3244 L
620 2939 L
620 2972 L
620 3364 L
620 2893 L
620 2442 L
620 3668 L
620 3124 L
620 3142 L
620 2967 L
620 3295 L
620 3590 L
620 3539 L
620 3013 L
620 2612 L
620 3497 L
620 3129 L
620 2981 L
620 3299 L
620 3004 L
620 4346 L
620 2921 L
620 3092 L
620 3129 L
620 2926 L
620 3133 L
620 3479 L
620 3470 L
620 3816 L
620 2985 L
620 4083 L
620 3576 L
620 3530 L
620 3304 L
620 3179 L
620 2686 L
620 3294 L
620 3410 L
620 2903 L
620 3359 L
620 3617 L
620 2894 L
620 3608 L
620 3175 L
620 3424 L
620 3410 L
620 3539 L
620 3036 L
620 2852 L
620 3585 L
620 2723 L
620 3686 L
620 2769 L
620 3078 L
620 3184 L
620 3359 L
620 2912 L
620 3419 L
620 3539 L
620 3470 L
620 3488 L
620 3322 L
620 3424 L
620 3428 L
620 3354 L
620 3415 L
620 3120 L
620 3723 L
620 2999 L
620 3354 L
620 2898 L
620 3654 L
620 3742 L
620 3677 L
620 2949 L
620 3410 L
620 3419 L
620 3640 L
620 2875 L
620 3092 L
620 3059 L
620 3082 L
620 3244 L
620 3590 L
620 3004 L
620 3147 L
620 3170 L
620 3290 L
620 3313 L
620 3364 L
620 3184 L
620 2894 L
620 3756 L
620 3290 L
620 3410 L
620 3387 L
620 3391 L
620 3903 L
620 2815 L
620 2907 L
620 3488 L
620 3608 L
620 3212 L
620 3230 L
620 3327 L
620 2949 L
620 3350 L
620 3082 L
620 3405 L
620 3364 L
620 3074 L
620 3221 L
620 3336 L
620 2257 L
620 3608 L
620 3050 L
620 3668 L
620 3055 L
620 3281 L
620 3285 L
620 3691 L
620 3590 L
620 3401 L
620 2995 L
620 3691 L
620 3539 L
620 3392 L
620 3502 L
620 4051 L
620 3820 L
620 2954 L
620 3313 L
620 3534 L
620 3802 L
620 3543 L
620 3539 L
620 3889 L
620 3590 L
620 3765 L
620 3525 L
620 3317 L
620 3134 L
620 3456 L
620 4009 L
620 2788 L
620 3576 L
620 3807 L
620 3387 L
620 3138 L
620 3147 L
620 3954 L
620 3451 L
620 3078 L
620 3779 L
620 3290 L
620 3751 L
620 3410 L
620 3221 L
620 3493 L
620 3622 L
620 3659 L
620 3673 L
620 3382 L
620 3110 L
620 3156 L
620 3719 L
620 2862 L
620 3318 L
620 3650 L
620 3650 L
620 3733 L
620 3659 L
620 3746 L
620 3963 L
620 3230 L
620 4088 L
620 3498 L
620 3193 L
620 3101 L
620 3230 L
620 3442 L
620 3511 L
620 2963 L
620 3331 L
620 3244 L
620 3557 L
620 3276 L
620 3474 L
620 3147 L
620 3608 L
620 4019 L
620 3645 L
620 3534 L
620 3696 L
620 2834 L
620 3801 L
620 3037 L
620 3857 L
620 3830 L
620 2843 L
620 3309 L
620 3511 L
620 4162 L
620 3405 L
620 3691 L
620 3382 L
620 3687 L
620 3604 L
620 3437 L
620 3299 L
620 3848 L
620 3548 L
620 3557 L
620 3557 L
620 3392 L
620 3244 L
620 3936 L
620 3627 L
620 3179 L
620 3479 L
620 3908 L
620 2880 L
620 3465 L
620 2815 L
620 2783 L
620 2931 L
620 3424 L
620 3096 L
620 3871 L
620 3023 L
620 3373 L
620 3535 L
620 3793 L
620 3866 L
620 3419 L
620 3714 L
620 3783 L
620 3968 L
620 3230 L
620 3387 L
620 4023 L
620 3073 L
620 3460 L
620 2861 L
620 3691 L
620 3963 L
620 3170 L
620 3350 L
620 3783 L
620 3663 L
620 3677 L
620 3581 L
620 3456 L
620 3369 L
620 3737 L
620 3627 L
620 3470 L
620 3696 L
620 3949 L
620 3249 L
620 3396 L
620 3954 L
620 3419 L
620 4166 L
620 2912 L
620 3392 L
620 3756 L
620 3336 L
620 3636 L
620 3424 L
620 3548 L
620 3373 L
620 3525 L
620 3880 L
620 3765 L
620 3382 L
620 3659 L
620 3530 L
620 3189 L
620 2903 L
620 3728 L
620 3368 L
620 3986 L
620 3272 L
620 3014 L
620 3290 L
620 3894 L
620 3419 L
620 3530 L
620 3908 L
620 3249 L
620 3129 L
620 3723 L
620 3945 L
620 3387 L
620 3221 L
620 3392 L
620 3747 L
620 3341 L
620 3470 L
620 3576 L
620 3765 L
620 3295 L
620 4258 L
620 3834 L
620 3470 L
620 3373 L
620 3193 L
620 4240 L
620 3751 L
620 3461 L
620 3862 L
620 3465 L
620 3779 L
620 3940 L
620 3594 L
620 3184 L
620 3728 L
620 3829 L
620 4060 L
620 3258 L
620 3779 L
620 4383 L
620 3014 L
620 3567 L
620 3654 L
620 3848 L
620 3668 L
620 3594 L
620 3032 L
620 4004 L
620 3521 L
620 3373 L
620 3885 L
620 3834 L
620 3825 L
620 3437 L
620 3659 L
620 4166 L
620 3437 L
620 3225 L
620 2866 L
620 4101 L
620 3959 L
620 3539 L
620 4069 L
620 3645 L
620 3687 L
620 2783 L
620 3175 L
620 4258 L
620 3516 L
620 3968 L
620 4065 L
620 3511 L
620 3774 L
620 3663 L
620 3853 L
620 3664 L
620 3355 L
620 3419 L
620 3437 L
620 3198 L
620 3608 L
620 3511 L
620 3295 L
620 3184 L
620 3618 L
620 3972 L
620 3917 L
620 3604 L
620 3105 L
620 3760 L
620 3816 L
620 4023 L
620 3599 L
620 4295 L
620 4097 L
620 3885 L
620 3369 L
620 3258 L
620 4097 L
620 3230 L
620 3433 L
620 3461 L
620 3041 L
620 4429 L
620 3152 L
620 3880 L
620 3931 L
620 3345 L
620 3972 L
620 3590 L
620 3055 L
620 3650 L
620 2986 L
620 3498 L
620 4074 L
620 3765 L
620 4037 L
620 3235 L
620 4208 L
620 3899 L
620 4180 L
620 3460 L
620 4392 L
620 3567 L
620 4014 L
620 4037 L
620 4106 L
620 4042 L
620 3226 L
620 4258 L
620 3678 L
620 3903 L
620 3668 L
620 3290 L
620 4267 L
620 4115 L
620 3797 L
620 3737 L
620 3143 L
620 3834 L
620 3848 L
620 3534 L
620 4318 L
620 3839 L
620 3622 L
620 3737 L
620 3595 L
620 4217 L
620 3534 L
620 4060 L
620 3724 L
620 3784 L
620 3696 L
620 4166 L
620 3604 L
620 3871 L
620 3733 L
620 3078 L
620 4277 L
620 3009 L
620 3788 L
620 3742 L
620 3124 L
620 3617 L
620 4443 L
620 3696 L
620 3843 L
620 4166 L
620 3811 L
620 4207 L
620 3889 L
620 3295 L
620 4323 L
620 3825 L
620 4185 L
620 3926 L
620 3354 L
620 3728 L
620 3539 L
620 4189 L
620 3816 L
620 3475 L
620 4304 L
620 4014 L
620 4069 L
620 3737 L
620 3580 L
620 3995 L
620 3585 L
620 3973 L
620 3590 L
620 3590 L
620 3249 L
620 3521 L
620 3392 L
620 4055 L
620 3645 L
620 3733 L
620 3806 L
620 4106 L
620 3548 L
620 3585 L
620 3350 L
620 3880 L
620 3885 L
620 3917 L
620 3078 L
620 3581 L
620 3853 L
620 3742 L
620 4410 L
620 4392 L
620 3903 L
620 3779 L
620 3636 L
620 3802 L
620 4028 L
620 3783 L
620 3466 L
620 3912 L
620 4558 L
620 3511 L
620 3576 L
620 4369 L
620 3687 L
620 3627 L
620 4018 L
620 4157 L
620 4268 L
620 3700 L
620 3806 L
620 3318 L
620 3493 L
620 4079 L
620 3875 L
620 4821 L
620 4101 L
620 4069 L
620 3889 L
620 3724 L
620 4194 L
620 3502 L
620 4272 L
620 4208 L
620 3866 L
620 3774 L
620 3489 L
620 4032 L
620 4180 L
620 4834 L
620 4549 L
620 4042 L
620 3857 L
620 4037 L
620 4101 L
620 4420 L
620 3516 L
620 4194 L
620 3350 L
620 3931 L
620 4171 L
620 4079 L
620 4249 L
620 3650 L
620 4134 L
620 3926 L
620 4701 L
620 4120 L
620 4484 L
620 3760 L
620 4194 L
620 4424 L
620 4392 L
620 3889 L
620 3788 L
620 3654 L
620 3710 L
620 4502 L
620 3465 L
620 4115 L
620 3862 L
620 4420 L
620 3843 L
620 3871 L
620 4212 L
620 3709 L
620 4369 L
620 4060 L
620 3917 L
620 4230 L
620 4217 L
620 3479 L
620 3802 L
620 3595 L
620 4023 L
620 4235 L
620 4401 L
620 4254 L
620 3954 L
620 3857 L
620 4235 L
620 4369 L
620 3443 L
620 4217 L
620 3535 L
620 4097 L
620 4000 L
620 3765 L
620 4115 L
620 3742 L
620 3631 L
620 4134 L
620 3779 L
620 4023 L
620 4484 L
620 4613 L
620 4539 L
620 3853 L
620 3747 L
620 4000 L
620 3765 L
620 4272 L
620 4309 L
620 4240 L
620 3857 L
620 4507 L
620 3590 L
620 3816 L
620 4023 L
620 4383 L
620 4203 L
620 4078 L
620 4152 L
620 4069 L
620 3498 L
620 4055 L
620 3747 L
620 4604 L
620 3954 L
620 4461 L
620 3742 L
620 4489 L
620 3940 L
620 4396 L
620 4198 L
620 3793 L
620 4470 L
620 4009 L
620 4023 L
620 4037 L
620 3686 L
620 4134 L
620 3936 L
620 4157 L
620 3373 L
620 3682 L
620 4410 L
620 4253 L
620 4203 L
620 3857 L
620 3686 L
620 4337 L
620 3719 L
620 4184 L
620 3645 L
620 3714 L
620 3668 L
620 3839 L
620 3677 L
620 4751 L
620 3331 L
620 3945 L
620 3950 L
620 4447 L
620 4609 L
620 4378 L
620 4032 L
620 3972 L
620 3525 L
620 4189 L
620 3848 L
620 3811 L
620 3903 L
620 3539 L
620 4042 L
620 3898 L
620 4452 L
620 3935 L
620 3488 L
620 3475 L
620 4484 L
620 3885 L
620 4221 L
620 4189 L
620 4429 L
620 3479 L
620 3784 L
620 3521 L
620 4092 L
620 3737 L
620 4194 L
620 4074 L
620 4558 L
620 3710 L
620 4185 L
620 3756 L
620 3746 L
620 4687 L
620 4184 L
620 3834 L
620 4051 L
620 4198 L
620 3774 L
620 3714 L
620 3521 L
620 3765 L
620 4046 L
620 4226 L
620 3936 L
620 3792 L
620 3839 L
620 4249 L
620 3244 L
620 3654 L
620 3802 L
620 4659 L
620 4185 L
620 3949 L
620 4244 L
620 4028 L
620 3894 L
620 4009 L
620 4516 L
620 4083 L
620 3839 L
620 3917 L
620 3724 L
620 3650 L
620 3894 L
620 4203 L
620 3460 L
620 4198 L
620 3438 L
620 3493 L
620 4134 L
620 3908 L
620 3995 L
620 3811 L
620 3894 L
620 3792 L
620 3843 L
620 3866 L
620 4157 L
620 4069 L
620 3202 L
620 4143 L
620 3608 L
620 4599 L
620 4120 L
620 4226 L
620 4198 L
620 3728 L
620 3908 L
620 4153 L
620 3696 L
620 3737 L
620 3590 L
620 3456 L
620 3714 L
620 3968 L
620 3816 L
620 3853 L
620 3880 L
620 3899 L
620 4466 L
620 4336 L
620 3701 L
620 3954 L
620 3963 L
620 4281 L
620 4235 L
620 3848 L
620 4355 L
620 4125 L
620 4185 L
620 4314 L
620 4028 L
620 3779 L
620 4553 L
620 3783 L
620 3428 L
620 3783 L
620 3894 L
620 3696 L
620 3539 L
620 3737 L
620 3424 L
620 3742 L
620 4272 L
620 3977 L
620 4272 L
620 3742 L
620 3590 L
620 4065 L
620 4221 L
620 3802 L
620 3756 L
620 4230 L
620 4235 L
620 3954 L
620 4309 L
620 4355 L
620 3977 L
620 3797 L
620 3862 L
620 3594 L
620 4129 L
620 3668 L
620 3816 L
620 4079 L
620 3880 L
620 3627 L
620 4148 L
620 3747 L
620 3654 L
620 3871 L
620 3557 L
620 3843 L
620 3926 L
620 4009 L
620 3857 L
620 4000 L
620 4032 L
620 4221 L
620 4046 L
620 3802 L
620 3931 L
620 4420 L
620 3848 L
620 3323 L
620 3498 L
620 4180 L
620 3756 L
620 3143 L
620 4041 L
620 3802 L
620 4069 L
620 3567 L
620 3553 L
620 3438 L
620 3972 L
620 3590 L
620 4281 L
620 3258 L
620 4005 L
620 3843 L
620 4304 L
620 4143 L
620 4194 L
L2 C01 COSGR

%
%================
% Legend - Begin
%================
%
GSN 4240 5180 M
4480 5180 L
LWMC SL  C01 COSGR
GSN 4540 5141 M helvM (0.5 uM) show grestore
%
%================
% Legend - End
%================
%

%
% Main frame
%
L10
GSN 
620 1700 M
4220 1700 L
4220 5300 L
620 5300 L
closepath SGR

%
% X axis: large tics
%
L10
%
% X axis: small tics
%
L5
%
% Y axis: large tics
%
L10
GSN 620 1798 M 54 0 rL SGR
GSN 4220 1798 M -54 0 rL SGR
helvS (-0.02) 560 1798 ylabel
GSN 620 2704 M 54 0 rL SGR
GSN 4220 2704 M -54 0 rL SGR
helvS (-0.01) 560 2704 ylabel
GSN 620 3610 M 54 0 rL SGR
GSN 4220 3610 M -54 0 rL SGR
helvS (0) 560 3610 ylabel
GSN 620 4517 M 54 0 rL SGR
GSN 4220 4517 M -54 0 rL SGR
helvS (0.01) 560 4517 ylabel
%
% Y axis: small tics
%
L5
GSN 620 1798 M 36 0 rL SGR
GSN 4220 1798 M -36 0 rL SGR
GSN 620 2024 M 36 0 rL SGR
GSN 4220 2024 M -36 0 rL SGR
GSN 620 2251 M 36 0 rL SGR
GSN 4220 2251 M -36 0 rL SGR
GSN 620 2477 M 36 0 rL SGR
GSN 4220 2477 M -36 0 rL SGR
GSN 620 2704 M 36 0 rL SGR
GSN 4220 2704 M -36 0 rL SGR
GSN 620 2931 M 36 0 rL SGR
GSN 4220 2931 M -36 0 rL SGR
GSN 620 3157 M 36 0 rL SGR
GSN 4220 3157 M -36 0 rL SGR
GSN 620 3384 M 36 0 rL SGR
GSN 4220 3384 M -36 0 rL SGR
GSN 620 3610 M 36 0 rL SGR
GSN 4220 3610 M -36 0 rL SGR
GSN 620 3837 M 36 0 rL SGR
GSN 4220 3837 M -36 0 rL SGR
GSN 620 4063 M 36 0 rL SGR
GSN 4220 4063 M -36 0 rL SGR
GSN 620 4290 M 36 0 rL SGR
GSN 4220 4290 M -36 0 rL SGR
GSN 620 4517 M 36 0 rL SGR
GSN 4220 4517 M -36 0 rL SGR
GSN 620 4743 M 36 0 rL SGR
GSN 4220 4743 M -36 0 rL SGR
GSN 620 4970 M 36 0 rL SGR
GSN 4220 4970 M -36 0 rL SGR
GSN 620 5196 M 36 0 rL SGR
GSN 4220 5196 M -36 0 rL SGR

%
% X axis - residual panel
%
GSN L5 620 3610 M 4220 3610 L SDA G50 SGR

%
% X-Axis label:
%
gsave 620 1370 M 
[
[(Helvetica) 180 0 true true 0 (t)]
[(Helvetica) 180 0 true true 0 (i)]
[(Helvetica) 180 0 true true 0 (m)]
[(Helvetica) 180 0 true true 0 (e)]
] 0 MCshow grestore

%
% Y-Axis label:
%
gsave 234 3499 M 
currentpoint gsave translate 90 rotate 0 0 moveto
[
[(Helvetica) 180 0 true true 0 (r)]
[(Helvetica) 180 0 true true 0 (e)]
[(Helvetica) 180 0 true true 0 (s)]
[(Helvetica) 180 0 true true 0 (i)]
[(Helvetica) 180 0 true true 0 (d)]
[(Helvetica) 180 0 true true 0 (u)]
[(Helvetica) 180 0 true true 0 (a)]
[(Helvetica) 180 0 true true 0 (l)]
[(Helvetica) 180 0 true true 0 (s)]
] 0 MCshow grestore

end
showpage
%%Trailer
%%EOF
