%!PS-Adobe-3.0 EPSF-3.0
%%BoundingBox: 0 0 514 442
%%Creator: BioKin Ltd.
%%DocumentFonts: Symbol Helvetica
%%EndComments
%
/bkdict 256 dict def
bkdict begin
/M {moveto} def 
/R {rmoveto} def
/L {lineto} def
/rL {rlineto} def
/GSN {gsave newpath} def
/SGR {stroke grestore} def
/COSGR {gsave setrgbcolor stroke grestore grestore} def
/SL {setlinewidth} def
/LWMB {12} def             % line width - model curves, black & white
/LWMC {10} def             % line width - model curves, color
/L2 {2.5 setlinewidth} def
/L5 {5 setlinewidth} def
/L10 {10 setlinewidth} def
/G50 {0.5 setgray} def
/SDA {[10  20] 0 setdash} def % axes
/helvT {/Helvetica findfont 100 scalefont setfont} def % tiny
/helvS {/Helvetica findfont 125 scalefont setfont} def % small
/helvM {/Helvetica findfont 150 scalefont setfont} def % medium
/helvL {/Helvetica findfont 175 scalefont setfont} def % large
/xlabel {gsave M dup
   stringwidth exch -0.5 mul exch rmoveto show grestore} def 
/ylabel {gsave M 90 rotate dup
   stringwidth exch -0.5 mul exch rmoveto show grestore} def
/ylabelresid {gsave M dup
   stringwidth exch -1 mul exch rmoveto show grestore} def
% ======
% Shapes
% ======
% Circle:
/Circ {0 360 arc closepath} def
%
% Square:
/Squa {dup dup -0.5 mul dup dup R -2 mul 0 exch rL 1 mul 0 rL dup 0 exch -1 mul rL closepath} def
%
% Triangle Up:
/TriU {dup dup dup -0.4 mul exch -0.5 mul exch R dup 0.5 mul exch rL dup -1 mul exch 0.5 mul exch rL closepath} def 
%
% Triangle Down:
/TriD {dup dup dup 0.4 mul exch -0.5 mul exch R dup 0.5 mul exch -1 mul rL dup 0.5 mul exch rL closepath} def 
%
% Diamond:
/Diam {45 rotate Squa} def
% ======
% Fills
% ======
/GRF {gsave setgray fill grestore} def                    % gray-level Fill
/COF {gsave setrgbcolor fill grestore} def                % color fill
% ======
% Colors
% ======
/C01 {1.00	0.00	0.00} def      % Red
/C02 {0.00	0.00	1.00} def      % Blue
/C03 {0.00	0.39	0.00} def      % Dark Green
/C04 {0.78	0.08	0.52} def      % Medium Violet Red
/C05 {0.55	0.27	0.07} def      % Saddle Brown
/C06 {0.10	0.70	0.70} def      % (cyan)
/C07 {1.00	0.55	0.00} def      % Dark Orange
/C08 {0.63	0.13	0.94} def      % Purple
/C09 {0.00	0.75	1.00} def      % Deep Sky Blue
/C10 {0.20	0.80	0.20} def      % Lime Green
/C11 {0.47	0.53	0.60} def      % Light Slate Gray
/C12 {0.00	0.00	0.00} def      % Black            % or: {0.19	0.31	0.31} def      % Dark Slate Gray
%
/LGR {0.75} def % light gray
/DGR {0.33} def % dark gray
%
% =============
% Dash patterns
% =============
/dash01 { [80  20] 0 setdash } def
/dash02 { [40  20] 0 setdash } def
/dash03 { [80  20  10  20] 0 setdash } def
/dash04 { [40  20  10  20] 0 setdash } def
/dash05 { [80  20  10  10  10  20] 0 setdash } def
/dash06 { [40  20  10  10  10  20] 0 setdash } def
/dash07 { [10  10] 0 setdash } def
%
/MFshow {
   { dup 5 get 3 ge
     { 5 get 3 eq {gsave} {grestore} ifelse }
     {dup dup 0 get findfont exch 1 get scalefont setfont
     [ currentpoint ] exch dup 2 get 0 exch R dup 5 get 2 ne {dup dup 6
     get exch 4 get {show} {stringwidth pop 0 R} ifelse }if dup 5 get 0 eq
     {dup 3 get {2 get neg 0 exch R pop} {pop aload pop M} ifelse} {dup 5
     get 1 eq {dup 2 get exch dup 3 get exch 6 get stringwidth pop -2 div
     dup 0 R} {dup 6 get stringwidth pop -2 div 0 R 6 get
     show 2 index {aload pop M neg 3 -1 roll neg R pop pop} {pop pop pop
     pop aload pop M} ifelse }ifelse }ifelse }
     ifelse }
   forall} bind def
/MFwidth {0 exch {dup 3 get{dup dup 0 get findfont exch 1 get scalefont
     setfont 6 get stringwidth pop add} {pop} ifelse} forall} bind def
/MCshow { currentpoint stroke M
  exch dup MFwidth -2 div 3 -1 roll R MFshow } def
%
end
%%EndProlog
bkdict begin
0.1 0.1 scale
%
% Model curves:
%

GSN 753 3435 M
770 3435 L
803 3435 L
837 3435 L
870 3435 L
895 3435 L
911 3435 L
937 3435 L
970 3435 L
1003 3435 L
1037 3435 L
1053 3435 L
1070 3435 L
1103 3435 L
1137 3435 L
1170 3435 L
1195 3435 L
1211 3436 L
1237 3436 L
1270 3436 L
1303 3436 L
1337 3436 L
1353 3437 L
1370 3437 L
1403 3437 L
1437 3438 L
1470 3438 L
1495 3439 L
1512 3439 L
1537 3439 L
1570 3440 L
1603 3441 L
1637 3442 L
1653 3444 L
1670 3444 L
1703 3445 L
1737 3447 L
1770 3449 L
1795 3452 L
1812 3453 L
1837 3455 L
1870 3458 L
1903 3462 L
1937 3466 L
1953 3471 L
1971 3471 L
2003 3477 L
2037 3484 L
2070 3491 L
2095 3500 L
2112 3505 L
2137 3510 L
2170 3521 L
2203 3534 L
2237 3548 L
2253 3565 L
2271 3565 L
2303 3583 L
2337 3602 L
2370 3624 L
2395 3648 L
2412 3661 L
2437 3673 L
2470 3700 L
2503 3729 L
2537 3758 L
2553 3788 L
2571 3789 L
2603 3819 L
2637 3849 L
2670 3878 L
2695 3906 L
2712 3920 L
2737 3932 L
2770 3955 L
2803 3976 L
2837 3994 L
2854 4010 L
2871 4010 L
2903 4022 L
2937 4031 L
2970 4037 L
2995 4042 L
3012 4043 L
3037 4044 L
3061 4044 L
3077 4044 L
3103 4043 L
3137 4042 L
3154 4040 L
3171 4040 L
3203 4039 L
3237 4038 L
3270 4037 L
3296 4036 L
3312 4036 L
3337 4036 L
3370 4036 L
3403 4036 L
3437 4036 L
3454 4036 L
3471 4036 L
3503 4036 L
3537 4036 L
3570 4036 L
3596 4036 L
3612 4036 L
3637 4036 L
3670 4036 L
3703 4036 L
3737 4036 L
3754 4036 L
3771 4036 L
3803 4036 L
3837 4036 L
3870 4036 L
3896 4036 L
3912 4036 L
3937 4036 L
3970 4036 L
4003 4036 L
4037 4036 L
4070 4036 L
LWMC SL dash01 C01 COSGR

GSN 753 3042 M
770 3042 L
803 3042 L
837 3042 L
870 3042 L
895 3042 L
911 3042 L
937 3042 L
970 3043 L
1003 3043 L
1037 3043 L
1053 3043 L
1070 3043 L
1103 3043 L
1137 3043 L
1170 3044 L
1195 3044 L
1211 3044 L
1237 3044 L
1270 3045 L
1303 3045 L
1337 3046 L
1353 3047 L
1370 3047 L
1403 3047 L
1437 3048 L
1470 3049 L
1495 3051 L
1512 3051 L
1537 3052 L
1570 3054 L
1603 3056 L
1637 3058 L
1653 3061 L
1670 3061 L
1703 3064 L
1737 3067 L
1770 3071 L
1795 3076 L
1812 3079 L
1837 3082 L
1870 3088 L
1903 3096 L
1937 3104 L
1953 3114 L
1971 3114 L
2003 3125 L
2037 3138 L
2070 3153 L
2095 3170 L
2112 3180 L
2137 3189 L
2170 3210 L
2203 3235 L
2237 3261 L
2253 3291 L
2271 3292 L
2303 3324 L
2337 3360 L
2370 3399 L
2395 3440 L
2412 3464 L
2437 3484 L
2470 3530 L
2503 3578 L
2537 3626 L
2553 3674 L
2571 3676 L
2603 3722 L
2637 3768 L
2670 3811 L
2695 3852 L
2712 3872 L
2737 3889 L
2770 3921 L
2803 3950 L
2837 3974 L
2854 3994 L
2871 3995 L
2903 4010 L
2937 4022 L
2970 4031 L
2995 4037 L
3012 4039 L
3037 4040 L
3061 4041 L
3077 4041 L
3103 4041 L
3137 4041 L
3154 4040 L
3171 4040 L
3203 4038 L
3237 4037 L
3270 4037 L
3296 4036 L
3312 4036 L
3337 4036 L
3370 4036 L
3403 4036 L
3437 4036 L
3454 4036 L
3471 4036 L
3503 4036 L
3537 4036 L
3570 4036 L
3596 4036 L
3612 4036 L
3637 4036 L
3670 4036 L
3703 4036 L
3737 4036 L
3754 4036 L
3771 4036 L
3803 4036 L
3837 4036 L
3870 4036 L
3896 4036 L
3912 4036 L
3937 4036 L
3970 4036 L
4003 4036 L
4037 4036 L
4070 4036 L
LWMC SL dash02 C02 COSGR

GSN 753 2462 M
770 2462 L
803 2462 L
837 2463 L
870 2463 L
895 2463 L
911 2463 L
937 2463 L
970 2463 L
1003 2464 L
1037 2464 L
1053 2464 L
1070 2464 L
1103 2465 L
1137 2465 L
1170 2466 L
1195 2466 L
1211 2467 L
1237 2467 L
1270 2468 L
1303 2469 L
1337 2470 L
1353 2471 L
1370 2471 L
1403 2473 L
1437 2475 L
1470 2477 L
1495 2480 L
1512 2481 L
1537 2482 L
1570 2486 L
1603 2490 L
1637 2494 L
1653 2500 L
1670 2500 L
1703 2506 L
1737 2513 L
1770 2522 L
1795 2531 L
1812 2537 L
1837 2542 L
1870 2555 L
1903 2570 L
1937 2587 L
1953 2607 L
1971 2607 L
2003 2629 L
2037 2654 L
2070 2683 L
2095 2716 L
2112 2734 L
2137 2752 L
2170 2793 L
2203 2839 L
2237 2889 L
2253 2944 L
2271 2946 L
2303 3004 L
2337 3069 L
2370 3137 L
2395 3209 L
2412 3249 L
2437 3284 L
2470 3361 L
2503 3438 L
2537 3514 L
2553 3588 L
2571 3591 L
2603 3660 L
2637 3727 L
2670 3788 L
2695 3844 L
2712 3871 L
2737 3893 L
2770 3935 L
2803 3970 L
2837 3998 L
2854 4020 L
2871 4021 L
2903 4036 L
2937 4047 L
2970 4054 L
2995 4057 L
3012 4057 L
3037 4056 L
3061 4054 L
3077 4053 L
3103 4051 L
3137 4047 L
3154 4044 L
3171 4044 L
3203 4041 L
3237 4039 L
3270 4037 L
3296 4036 L
3312 4036 L
3337 4036 L
3370 4036 L
3403 4036 L
3437 4036 L
3454 4036 L
3471 4036 L
3503 4036 L
3537 4036 L
3570 4036 L
3596 4036 L
3612 4036 L
3637 4036 L
3670 4036 L
3703 4036 L
3737 4036 L
3754 4036 L
3771 4036 L
3803 4036 L
3837 4036 L
3870 4036 L
3896 4036 L
3912 4036 L
3937 4036 L
3970 4036 L
4003 4036 L
4037 4036 L
4070 4036 L
LWMC SL dash03 C03 COSGR

GSN 753 1883 M
770 1883 L
803 1883 L
837 1883 L
870 1883 L
895 1884 L
911 1884 L
937 1884 L
970 1884 L
1003 1885 L
1037 1885 L
1053 1886 L
1070 1886 L
1103 1886 L
1137 1887 L
1170 1888 L
1195 1889 L
1211 1890 L
1237 1890 L
1270 1892 L
1303 1893 L
1337 1895 L
1353 1898 L
1370 1898 L
1403 1900 L
1437 1903 L
1470 1907 L
1495 1911 L
1512 1913 L
1537 1916 L
1570 1921 L
1603 1928 L
1637 1936 L
1653 1944 L
1670 1944 L
1703 1954 L
1737 1966 L
1770 1980 L
1795 1996 L
1812 2005 L
1837 2014 L
1870 2035 L
1903 2059 L
1937 2086 L
1953 2118 L
1971 2118 L
2003 2153 L
2037 2194 L
2070 2240 L
2095 2291 L
2112 2321 L
2137 2349 L
2170 2413 L
2203 2484 L
2237 2561 L
2253 2645 L
2271 2648 L
2303 2735 L
2337 2831 L
2370 2931 L
2395 3035 L
2412 3091 L
2437 3141 L
2470 3248 L
2503 3353 L
2537 3456 L
2553 3553 L
2571 3557 L
2603 3645 L
2637 3728 L
2670 3803 L
2695 3868 L
2712 3900 L
2737 3924 L
2770 3969 L
2803 4005 L
2837 4033 L
2854 4051 L
2871 4052 L
2903 4063 L
2937 4069 L
2970 4070 L
2995 4067 L
3012 4065 L
3037 4063 L
3061 4058 L
3077 4055 L
3103 4052 L
3137 4047 L
3154 4044 L
3171 4043 L
3203 4041 L
3237 4038 L
3270 4037 L
3296 4036 L
3312 4036 L
3337 4036 L
3370 4036 L
3403 4036 L
3437 4036 L
3454 4036 L
3471 4036 L
3503 4036 L
3537 4036 L
3570 4036 L
3596 4036 L
3612 4036 L
3637 4036 L
3670 4036 L
3703 4036 L
3737 4036 L
3754 4036 L
3771 4036 L
3803 4036 L
3837 4036 L
3870 4036 L
3896 4036 L
3912 4036 L
3937 4036 L
3970 4036 L
4003 4036 L
4037 4036 L
4070 4036 L
LWMC SL dash04 C04 COSGR

GSN 753 1805 M
770 1805 L
803 1806 L
837 1806 L
870 1806 L
895 1806 L
911 1807 L
937 1807 L
970 1807 L
1003 1808 L
1037 1808 L
1053 1809 L
1070 1809 L
1103 1809 L
1137 1810 L
1170 1811 L
1195 1812 L
1211 1813 L
1237 1814 L
1270 1815 L
1303 1817 L
1337 1819 L
1353 1822 L
1370 1822 L
1403 1825 L
1437 1828 L
1470 1832 L
1495 1836 L
1512 1839 L
1537 1842 L
1570 1848 L
1603 1855 L
1637 1863 L
1653 1872 L
1670 1873 L
1703 1884 L
1737 1896 L
1770 1911 L
1795 1928 L
1812 1938 L
1837 1948 L
1870 1971 L
1903 1997 L
1937 2026 L
1953 2060 L
1971 2061 L
2003 2099 L
2037 2143 L
2070 2193 L
2095 2248 L
2112 2280 L
2137 2311 L
2170 2380 L
2203 2455 L
2237 2538 L
2253 2628 L
2271 2631 L
2303 2724 L
2337 2826 L
2370 2933 L
2395 3043 L
2412 3102 L
2437 3155 L
2470 3266 L
2503 3376 L
2537 3483 L
2553 3583 L
2571 3587 L
2603 3676 L
2637 3761 L
2670 3835 L
2695 3899 L
2712 3929 L
2737 3952 L
2770 3995 L
2803 4027 L
2837 4049 L
2854 4064 L
2871 4064 L
2903 4071 L
2937 4073 L
2970 4071 L
2995 4067 L
3012 4064 L
3037 4061 L
3061 4056 L
3077 4053 L
3103 4051 L
3137 4046 L
3154 4043 L
3171 4043 L
3203 4040 L
3237 4038 L
3270 4037 L
3296 4036 L
3312 4036 L
3337 4036 L
3370 4036 L
3403 4036 L
3437 4036 L
3454 4036 L
3471 4036 L
3503 4036 L
3537 4036 L
3570 4036 L
3596 4036 L
3612 4036 L
3637 4036 L
3670 4036 L
3703 4036 L
3737 4036 L
3754 4036 L
3771 4036 L
3803 4036 L
3837 4036 L
3870 4036 L
3896 4036 L
3912 4036 L
3937 4036 L
3970 4036 L
4003 4036 L
4037 4036 L
4070 4036 L
LWMC SL dash05 C05 COSGR

GSN 753 1411 M
770 1411 L
803 1411 L
837 1411 L
870 1412 L
895 1412 L
911 1412 L
937 1412 L
970 1413 L
1003 1413 L
1037 1414 L
1053 1415 L
1070 1415 L
1103 1416 L
1137 1417 L
1170 1418 L
1195 1420 L
1211 1421 L
1237 1421 L
1270 1423 L
1303 1426 L
1337 1429 L
1353 1432 L
1370 1432 L
1403 1435 L
1437 1440 L
1470 1445 L
1495 1451 L
1512 1454 L
1537 1458 L
1570 1465 L
1603 1475 L
1637 1485 L
1653 1498 L
1670 1498 L
1703 1512 L
1737 1529 L
1770 1548 L
1795 1570 L
1812 1583 L
1837 1595 L
1870 1624 L
1903 1658 L
1937 1696 L
1953 1740 L
1971 1741 L
2003 1790 L
2037 1846 L
2070 1909 L
2095 1979 L
2112 2020 L
2137 2058 L
2170 2145 L
2203 2240 L
2237 2343 L
2253 2454 L
2271 2458 L
2303 2572 L
2337 2696 L
2370 2825 L
2395 2957 L
2412 3028 L
2437 3090 L
2470 3221 L
2503 3349 L
2537 3470 L
2553 3583 L
2571 3587 L
2603 3687 L
2637 3779 L
2670 3858 L
2695 3924 L
2712 3954 L
2737 3977 L
2770 4018 L
2803 4047 L
2837 4065 L
2854 4075 L
2871 4075 L
2903 4079 L
2937 4077 L
2970 4073 L
2995 4068 L
3012 4065 L
3037 4062 L
3061 4056 L
3077 4054 L
3103 4051 L
3137 4046 L
3154 4043 L
3171 4043 L
3203 4040 L
3237 4038 L
3270 4037 L
3296 4036 L
3312 4036 L
3337 4036 L
3370 4036 L
3403 4036 L
3437 4036 L
3454 4036 L
3471 4036 L
3503 4036 L
3537 4036 L
3570 4036 L
3596 4036 L
3612 4036 L
3637 4036 L
3670 4036 L
3703 4036 L
3737 4036 L
3754 4036 L
3771 4036 L
3803 4036 L
3837 4036 L
3870 4036 L
3896 4036 L
3912 4036 L
3937 4036 L
3970 4036 L
4003 4036 L
4037 4036 L
4070 4036 L
LWMC SL dash06 C06 COSGR

GSN 753 753 M
770 753 L
803 753 L
837 754 L
870 754 L
895 755 L
911 755 L
937 755 L
970 756 L
1003 757 L
1037 758 L
1053 759 L
1070 759 L
1103 761 L
1137 762 L
1170 764 L
1195 767 L
1211 768 L
1237 769 L
1270 772 L
1303 776 L
1337 780 L
1353 785 L
1370 785 L
1403 791 L
1437 797 L
1470 805 L
1495 814 L
1512 819 L
1537 824 L
1570 836 L
1603 850 L
1637 867 L
1653 885 L
1670 886 L
1703 907 L
1737 932 L
1770 961 L
1795 995 L
1812 1014 L
1837 1033 L
1870 1077 L
1903 1127 L
1937 1184 L
1953 1249 L
1971 1251 L
2003 1322 L
2037 1405 L
2070 1497 L
2095 1600 L
2112 1659 L
2137 1714 L
2170 1838 L
2203 1973 L
2237 2117 L
2253 2271 L
2271 2276 L
2303 2432 L
2337 2599 L
2370 2769 L
2395 2939 L
2412 3029 L
2437 3106 L
2470 3267 L
2503 3419 L
2537 3559 L
2553 3683 L
2571 3688 L
2603 3791 L
2637 3881 L
2670 3953 L
2695 4007 L
2712 4029 L
2737 4044 L
2770 4068 L
2803 4081 L
2837 4086 L
2854 4086 L
2871 4086 L
2903 4082 L
2937 4077 L
2970 4071 L
2995 4065 L
3012 4062 L
3037 4059 L
3061 4054 L
3077 4052 L
3103 4049 L
3137 4045 L
3154 4042 L
3171 4042 L
3203 4040 L
3237 4038 L
3270 4037 L
3296 4036 L
3312 4036 L
3337 4036 L
3370 4036 L
3403 4036 L
3437 4036 L
3454 4036 L
3471 4036 L
3503 4036 L
3537 4036 L
3570 4036 L
3596 4036 L
3612 4036 L
3637 4036 L
3670 4036 L
3703 4036 L
3737 4036 L
3754 4036 L
3771 4036 L
3803 4036 L
3837 4036 L
3870 4036 L
3896 4036 L
3912 4036 L
3937 4036 L
3970 4036 L
4003 4036 L
4037 4036 L
4070 4036 L
LWMC SL dash07 C07 COSGR

%
%================
% Legend - Begin
%================
%
GSN 4240 4040 M
4480 4040 L
LWMC SL dash01 C01 COSGR
GSN 4540 4001 M helvM (0.5 uM) show grestore
GSN 4240 3860 M
4480 3860 L
LWMC SL dash02 C02 COSGR
GSN 4540 3821 M helvM (1.0 uM) show grestore
GSN 4240 3680 M
4480 3680 L
LWMC SL dash03 C03 COSGR
GSN 4540 3641 M helvM (1.5 uM) show grestore
GSN 4240 3500 M
4480 3500 L
LWMC SL dash04 C04 COSGR
GSN 4540 3461 M helvM (2.0 uM) show grestore
GSN 4240 3320 M
4480 3320 L
LWMC SL dash05 C05 COSGR
GSN 4540 3281 M helvM (2.5 uM) show grestore
GSN 4240 3140 M
4480 3140 L
LWMC SL dash06 C06 COSGR
GSN 4540 3101 M helvM (3.0 uM) show grestore
GSN 4240 2960 M
4480 2960 L
LWMC SL dash07 C07 COSGR
GSN 4540 2921 M helvM (4.0 uM) show grestore
%
%================
% Legend - End
%================
%

%
% Main frame
%
L10
GSN 
620 620 M
4220 620 L
4220 4220 L
620 4220 L
closepath SGR

%
% X axis: large tics
%
L10
GSN 1074 620 M 0  54 rL SGR
GSN 1074 4220 M 0 -54 rL SGR
helvS (0.0001) 1074 470 xlabel
GSN 1572 620 M 0  54 rL SGR
GSN 1572 4220 M 0 -54 rL SGR
helvS (0.001) 1572 470 xlabel
GSN 2071 620 M 0  54 rL SGR
GSN 2071 4220 M 0 -54 rL SGR
helvS (0.01) 2071 470 xlabel
GSN 2570 620 M 0  54 rL SGR
GSN 2570 4220 M 0 -54 rL SGR
helvS (0.1) 2570 470 xlabel
GSN 3068 620 M 0  54 rL SGR
GSN 3068 4220 M 0 -54 rL SGR
helvS (1) 3068 470 xlabel
GSN 3567 620 M 0  54 rL SGR
GSN 3567 4220 M 0 -54 rL SGR
helvS (10) 3567 470 xlabel
GSN 4066 620 M 0  54 rL SGR
GSN 4066 4220 M 0 -54 rL SGR
helvS (100) 4066 470 xlabel
%
% X axis: small tics
%
L5
GSN 725 620 M 0  36 rL SGR
GSN 725 4220 M 0 -36 rL SGR
GSN 813 620 M 0  36 rL SGR
GSN 813 4220 M 0 -36 rL SGR
GSN 875 620 M 0  36 rL SGR
GSN 875 4220 M 0 -36 rL SGR
GSN 924 620 M 0  36 rL SGR
GSN 924 4220 M 0 -36 rL SGR
GSN 963 620 M 0  36 rL SGR
GSN 963 4220 M 0 -36 rL SGR
GSN 996 620 M 0  36 rL SGR
GSN 996 4220 M 0 -36 rL SGR
GSN 1025 620 M 0  36 rL SGR
GSN 1025 4220 M 0 -36 rL SGR
GSN 1051 620 M 0  36 rL SGR
GSN 1051 4220 M 0 -36 rL SGR
GSN 1224 620 M 0  36 rL SGR
GSN 1224 4220 M 0 -36 rL SGR
GSN 1312 620 M 0  36 rL SGR
GSN 1312 4220 M 0 -36 rL SGR
GSN 1374 620 M 0  36 rL SGR
GSN 1374 4220 M 0 -36 rL SGR
GSN 1422 620 M 0  36 rL SGR
GSN 1422 4220 M 0 -36 rL SGR
GSN 1462 620 M 0  36 rL SGR
GSN 1462 4220 M 0 -36 rL SGR
GSN 1495 620 M 0  36 rL SGR
GSN 1495 4220 M 0 -36 rL SGR
GSN 1524 620 M 0  36 rL SGR
GSN 1524 4220 M 0 -36 rL SGR
GSN 1550 620 M 0  36 rL SGR
GSN 1550 4220 M 0 -36 rL SGR
GSN 1722 620 M 0  36 rL SGR
GSN 1722 4220 M 0 -36 rL SGR
GSN 1810 620 M 0  36 rL SGR
GSN 1810 4220 M 0 -36 rL SGR
GSN 1873 620 M 0  36 rL SGR
GSN 1873 4220 M 0 -36 rL SGR
GSN 1921 620 M 0  36 rL SGR
GSN 1921 4220 M 0 -36 rL SGR
GSN 1960 620 M 0  36 rL SGR
GSN 1960 4220 M 0 -36 rL SGR
GSN 1994 620 M 0  36 rL SGR
GSN 1994 4220 M 0 -36 rL SGR
GSN 2023 620 M 0  36 rL SGR
GSN 2023 4220 M 0 -36 rL SGR
GSN 2048 620 M 0  36 rL SGR
GSN 2048 4220 M 0 -36 rL SGR
GSN 2221 620 M 0  36 rL SGR
GSN 2221 4220 M 0 -36 rL SGR
GSN 2309 620 M 0  36 rL SGR
GSN 2309 4220 M 0 -36 rL SGR
GSN 2371 620 M 0  36 rL SGR
GSN 2371 4220 M 0 -36 rL SGR
GSN 2420 620 M 0  36 rL SGR
GSN 2420 4220 M 0 -36 rL SGR
GSN 2459 620 M 0  36 rL SGR
GSN 2459 4220 M 0 -36 rL SGR
GSN 2492 620 M 0  36 rL SGR
GSN 2492 4220 M 0 -36 rL SGR
GSN 2521 620 M 0  36 rL SGR
GSN 2521 4220 M 0 -36 rL SGR
GSN 2547 620 M 0  36 rL SGR
GSN 2547 4220 M 0 -36 rL SGR
GSN 2720 620 M 0  36 rL SGR
GSN 2720 4220 M 0 -36 rL SGR
GSN 2808 620 M 0  36 rL SGR
GSN 2808 4220 M 0 -36 rL SGR
GSN 2870 620 M 0  36 rL SGR
GSN 2870 4220 M 0 -36 rL SGR
GSN 2918 620 M 0  36 rL SGR
GSN 2918 4220 M 0 -36 rL SGR
GSN 2958 620 M 0  36 rL SGR
GSN 2958 4220 M 0 -36 rL SGR
GSN 2991 620 M 0  36 rL SGR
GSN 2991 4220 M 0 -36 rL SGR
GSN 3020 620 M 0  36 rL SGR
GSN 3020 4220 M 0 -36 rL SGR
GSN 3045 620 M 0  36 rL SGR
GSN 3045 4220 M 0 -36 rL SGR
GSN 3218 620 M 0  36 rL SGR
GSN 3218 4220 M 0 -36 rL SGR
GSN 3306 620 M 0  36 rL SGR
GSN 3306 4220 M 0 -36 rL SGR
GSN 3368 620 M 0  36 rL SGR
GSN 3368 4220 M 0 -36 rL SGR
GSN 3417 620 M 0  36 rL SGR
GSN 3417 4220 M 0 -36 rL SGR
GSN 3456 620 M 0  36 rL SGR
GSN 3456 4220 M 0 -36 rL SGR
GSN 3490 620 M 0  36 rL SGR
GSN 3490 4220 M 0 -36 rL SGR
GSN 3519 620 M 0  36 rL SGR
GSN 3519 4220 M 0 -36 rL SGR
GSN 3544 620 M 0  36 rL SGR
GSN 3544 4220 M 0 -36 rL SGR
GSN 3717 620 M 0  36 rL SGR
GSN 3717 4220 M 0 -36 rL SGR
GSN 3805 620 M 0  36 rL SGR
GSN 3805 4220 M 0 -36 rL SGR
GSN 3867 620 M 0  36 rL SGR
GSN 3867 4220 M 0 -36 rL SGR
GSN 3915 620 M 0  36 rL SGR
GSN 3915 4220 M 0 -36 rL SGR
GSN 3955 620 M 0  36 rL SGR
GSN 3955 4220 M 0 -36 rL SGR
GSN 3988 620 M 0  36 rL SGR
GSN 3988 4220 M 0 -36 rL SGR
GSN 4017 620 M 0  36 rL SGR
GSN 4017 4220 M 0 -36 rL SGR
GSN 4043 620 M 0  36 rL SGR
GSN 4043 4220 M 0 -36 rL SGR
GSN 4216 620 M 0  36 rL SGR
GSN 4216 4220 M 0 -36 rL SGR
%
% Y axis: large tics
%
L10
GSN 620 1241 M 54 0 rL SGR
GSN 4220 1241 M -54 0 rL SGR
helvS (-1.5) 560 1241 ylabel
GSN 620 2172 M 54 0 rL SGR
GSN 4220 2172 M -54 0 rL SGR
helvS (-1) 560 2172 ylabel
GSN 620 3104 M 54 0 rL SGR
GSN 4220 3104 M -54 0 rL SGR
helvS (-0.5) 560 3104 ylabel
GSN 620 4036 M 54 0 rL SGR
GSN 4220 4036 M -54 0 rL SGR
helvS (0) 560 4036 ylabel
%
% Y axis: small tics
%
L5
GSN 620 682 M 36 0 rL SGR
GSN 4220 682 M -36 0 rL SGR
GSN 620 868 M 36 0 rL SGR
GSN 4220 868 M -36 0 rL SGR
GSN 620 1054 M 36 0 rL SGR
GSN 4220 1054 M -36 0 rL SGR
GSN 620 1241 M 36 0 rL SGR
GSN 4220 1241 M -36 0 rL SGR
GSN 620 1427 M 36 0 rL SGR
GSN 4220 1427 M -36 0 rL SGR
GSN 620 1613 M 36 0 rL SGR
GSN 4220 1613 M -36 0 rL SGR
GSN 620 1800 M 36 0 rL SGR
GSN 4220 1800 M -36 0 rL SGR
GSN 620 1986 M 36 0 rL SGR
GSN 4220 1986 M -36 0 rL SGR
GSN 620 2172 M 36 0 rL SGR
GSN 4220 2172 M -36 0 rL SGR
GSN 620 2359 M 36 0 rL SGR
GSN 4220 2359 M -36 0 rL SGR
GSN 620 2545 M 36 0 rL SGR
GSN 4220 2545 M -36 0 rL SGR
GSN 620 2731 M 36 0 rL SGR
GSN 4220 2731 M -36 0 rL SGR
GSN 620 2918 M 36 0 rL SGR
GSN 4220 2918 M -36 0 rL SGR
GSN 620 3104 M 36 0 rL SGR
GSN 4220 3104 M -36 0 rL SGR
GSN 620 3290 M 36 0 rL SGR
GSN 4220 3290 M -36 0 rL SGR
GSN 620 3477 M 36 0 rL SGR
GSN 4220 3477 M -36 0 rL SGR
GSN 620 3663 M 36 0 rL SGR
GSN 4220 3663 M -36 0 rL SGR
GSN 620 3849 M 36 0 rL SGR
GSN 4220 3849 M -36 0 rL SGR
GSN 620 4036 M 36 0 rL SGR
GSN 4220 4036 M -36 0 rL SGR

%
% X axis
%
GSN L5 620 4036 M 4220 4036 L SDA G50 SGR

%
% X-Axis label:
%
gsave 2420 290 M 
[
[(Helvetica) 180 0 true true 0 (t)]
[(Helvetica) 180 0 true true 0 (i)]
[(Helvetica) 180 0 true true 0 (m)]
[(Helvetica) 180 0 true true 0 (e)]
] 0 MCshow grestore

%
% Y-Axis label:
%
gsave 234 2420 M 
currentpoint gsave translate 90 rotate 0 0 moveto
[
[(Helvetica) 180 0 true true 0 (d)]
[(Helvetica) 180 0 true true 0 (\()]
[(Helvetica) 180 0 true true 0 (s)]
[(Helvetica) 180 0 true true 0 (i)]
[(Helvetica) 180 0 true true 0 (g)]
[(Helvetica) 180 0 true true 0 (n)]
[(Helvetica) 180 0 true true 0 (a)]
[(Helvetica) 180 0 true true 0 (l)]
[(Helvetica) 180 0 true true 0 (\))]
[(Helvetica) 180 0 true true 0 ( )]
[(Helvetica) 180 0 true true 0 (/)]
[(Helvetica) 180 0 true true 0 ( )]
[(Helvetica) 180 0 true true 0 (d)]
[(Helvetica) 180 0 true true 0 (t)]
] 0 MCshow grestore

end
showpage
%%Trailer
%%EOF
