%!PS-Adobe-3.0 EPSF-3.0
%%BoundingBox: 0 0 514 550
%%Creator: BioKin Ltd.
%%DocumentFonts: Symbol Helvetica
%%EndComments
%
/bkdict 256 dict def
bkdict begin
/M {moveto} def 
/R {rmoveto} def
/L {lineto} def
/rL {rlineto} def
/GSN {gsave newpath} def
/SGR {stroke grestore} def
/COSGR {gsave setrgbcolor stroke grestore grestore} def
/SL {setlinewidth} def
/LWMB {12} def             % line width - model curves, black & white
/LWMC {10} def             % line width - model curves, color
/L2 {2.5 setlinewidth} def
/L5 {5 setlinewidth} def
/L10 {10 setlinewidth} def
/G50 {0.5 setgray} def
/SDA {[10  20] 0 setdash} def % axes
/helvT {/Helvetica findfont 100 scalefont setfont} def % tiny
/helvS {/Helvetica findfont 125 scalefont setfont} def % small
/helvM {/Helvetica findfont 150 scalefont setfont} def % medium
/helvL {/Helvetica findfont 175 scalefont setfont} def % large
/xlabel {gsave M dup
   stringwidth exch -0.5 mul exch rmoveto show grestore} def 
/ylabel {gsave M 90 rotate dup
   stringwidth exch -0.5 mul exch rmoveto show grestore} def
/ylabelresid {gsave M dup
   stringwidth exch -1 mul exch rmoveto show grestore} def
% ======
% Shapes
% ======
% Circle:
/Circ {0 360 arc closepath} def
%
% Square:
/Squa {dup dup -0.5 mul dup dup R -2 mul 0 exch rL 1 mul 0 rL dup 0 exch -1 mul rL closepath} def
%
% Triangle Up:
/TriU {dup dup dup -0.4 mul exch -0.5 mul exch R dup 0.5 mul exch rL dup -1 mul exch 0.5 mul exch rL closepath} def 
%
% Triangle Down:
/TriD {dup dup dup 0.4 mul exch -0.5 mul exch R dup 0.5 mul exch -1 mul rL dup 0.5 mul exch rL closepath} def 
%
% Diamond:
/Diam {45 rotate Squa} def
% ======
% Fills
% ======
/GRF {gsave setgray fill grestore} def                    % gray-level Fill
/COF {gsave setrgbcolor fill grestore} def                % color fill
% ======
% Colors
% ======
/C01 {1.00	0.00	0.00} def      % Red
/C02 {0.00	0.00	1.00} def      % Blue
/C03 {0.00	0.39	0.00} def      % Dark Green
/C04 {0.78	0.08	0.52} def      % Medium Violet Red
/C05 {0.55	0.27	0.07} def      % Saddle Brown
/C06 {0.10	0.70	0.70} def      % (cyan)
/C07 {1.00	0.55	0.00} def      % Dark Orange
/C08 {0.63	0.13	0.94} def      % Purple
/C09 {0.00	0.75	1.00} def      % Deep Sky Blue
/C10 {0.20	0.80	0.20} def      % Lime Green
/C11 {0.47	0.53	0.60} def      % Light Slate Gray
/C12 {0.00	0.00	0.00} def      % Black            % or: {0.19	0.31	0.31} def      % Dark Slate Gray
%
/LGR {0.75} def % light gray
/DGR {0.33} def % dark gray
%
% =============
% Dash patterns
% =============
/dash01 { [80  20] 0 setdash } def
/dash02 { [40  20] 0 setdash } def
/dash03 { [80  20  10  20] 0 setdash } def
/dash04 { [40  20  10  20] 0 setdash } def
/dash05 { [80  20  10  10  10  20] 0 setdash } def
/dash06 { [40  20  10  10  10  20] 0 setdash } def
/dash07 { [10  10] 0 setdash } def
%
/MFshow {
   { dup 5 get 3 ge
     { 5 get 3 eq {gsave} {grestore} ifelse }
     {dup dup 0 get findfont exch 1 get scalefont setfont
     [ currentpoint ] exch dup 2 get 0 exch R dup 5 get 2 ne {dup dup 6
     get exch 4 get {show} {stringwidth pop 0 R} ifelse }if dup 5 get 0 eq
     {dup 3 get {2 get neg 0 exch R pop} {pop aload pop M} ifelse} {dup 5
     get 1 eq {dup 2 get exch dup 3 get exch 6 get stringwidth pop -2 div
     dup 0 R} {dup 6 get stringwidth pop -2 div 0 R 6 get
     show 2 index {aload pop M neg 3 -1 roll neg R pop pop} {pop pop pop
     pop aload pop M} ifelse }ifelse }ifelse }
     ifelse }
   forall} bind def
/MFwidth {0 exch {dup 3 get{dup dup 0 get findfont exch 1 get scalefont
     setfont 6 get stringwidth pop add} {pop} ifelse} forall} bind def
/MCshow { currentpoint stroke M
  exch dup MFwidth -2 div 3 -1 roll R MFshow } def
%
end
%%EndProlog
bkdict begin
0.1 0.1 scale
%
% Residuals:
%
GSN 620 4332 M
620 3305 L
620 2875 L
620 3710 L
620 3680 L
620 3207 L
620 3205 L
620 3217 L
620 3403 L
620 3360 L
620 2973 L
620 3545 L
620 2927 L
620 3067 L
620 3953 L
620 3292 L
620 3456 L
620 3004 L
620 3190 L
620 3278 L
620 3312 L
620 3044 L
620 2842 L
620 3052 L
620 3742 L
620 3230 L
620 3492 L
620 3290 L
620 3561 L
620 3566 L
620 3643 L
620 3412 L
620 3187 L
620 2933 L
620 3307 L
620 3329 L
620 3112 L
620 3580 L
620 3921 L
620 3702 L
620 3641 L
620 3326 L
620 3788 L
620 3110 L
620 3250 L
620 3480 L
620 3658 L
620 3521 L
620 3583 L
620 3598 L
620 3276 L
620 3370 L
620 3423 L
620 3205 L
620 2654 L
620 3853 L
620 3343 L
620 3469 L
620 3333 L
620 3995 L
620 3461 L
620 3214 L
620 4388 L
620 3168 L
620 3779 L
620 3678 L
620 3372 L
620 3565 L
620 3476 L
620 3999 L
620 3656 L
620 3170 L
620 3964 L
620 4377 L
620 3734 L
620 3664 L
620 3944 L
620 3291 L
620 3683 L
620 3770 L
620 3697 L
620 3313 L
620 3544 L
620 4170 L
620 3327 L
620 3558 L
620 3897 L
620 3784 L
620 3525 L
620 3351 L
620 3401 L
620 3539 L
620 2706 L
620 3488 L
620 3181 L
620 4015 L
620 3206 L
620 3525 L
620 2762 L
620 3136 L
620 3223 L
620 2943 L
620 3473 L
620 3068 L
620 3560 L
620 3618 L
620 3251 L
620 2924 L
620 2944 L
620 3602 L
620 3172 L
620 3040 L
620 3112 L
620 3421 L
620 3092 L
620 3244 L
620 2983 L
620 3394 L
620 3432 L
620 3280 L
620 3351 L
620 3384 L
620 2900 L
620 3796 L
620 3552 L
620 2528 L
620 3411 L
620 3253 L
620 3530 L
620 3168 L
620 3288 L
620 2941 L
620 3329 L
620 3339 L
620 3834 L
620 2738 L
620 3251 L
620 3532 L
620 3591 L
620 3509 L
620 3449 L
620 2901 L
620 2970 L
620 3336 L
620 3120 L
620 3306 L
620 3401 L
620 3305 L
620 3398 L
620 3447 L
620 2995 L
620 3427 L
620 3190 L
620 2969 L
620 3583 L
620 3638 L
620 3018 L
620 3065 L
620 3679 L
620 3532 L
620 3485 L
620 3478 L
620 2937 L
620 3452 L
620 3613 L
620 3494 L
620 3108 L
620 3159 L
620 3173 L
620 3482 L
620 3495 L
620 3481 L
620 3133 L
620 3761 L
620 3563 L
620 2873 L
620 3778 L
620 3090 L
620 3159 L
620 3362 L
620 3258 L
620 3624 L
620 3313 L
620 3600 L
620 3583 L
620 3444 L
620 3313 L
620 3551 L
620 3082 L
620 3385 L
620 3866 L
620 2969 L
620 3896 L
620 3238 L
620 2819 L
620 3316 L
620 3857 L
620 2824 L
620 3078 L
620 3552 L
620 3686 L
620 3208 L
620 3094 L
620 3146 L
620 3844 L
620 3398 L
620 3559 L
620 3704 L
620 3700 L
620 3658 L
620 4024 L
620 3587 L
620 3894 L
620 3617 L
620 3661 L
620 2957 L
620 3304 L
620 3780 L
620 2863 L
620 3367 L
620 3428 L
620 3306 L
620 3836 L
620 3415 L
620 3608 L
620 3523 L
620 3540 L
620 3419 L
620 3487 L
620 3900 L
620 3205 L
620 3457 L
620 3199 L
620 3193 L
620 3555 L
620 3202 L
620 3624 L
620 3427 L
620 3722 L
620 3623 L
620 3998 L
620 3920 L
620 3685 L
620 3741 L
620 3392 L
620 3482 L
620 3134 L
620 3719 L
620 3556 L
620 3248 L
620 3711 L
620 3582 L
620 3786 L
620 3182 L
620 3240 L
620 4280 L
620 4180 L
620 3248 L
620 3677 L
620 3962 L
620 3634 L
620 3594 L
620 3749 L
620 3572 L
620 4141 L
620 3222 L
620 3595 L
620 3670 L
620 3427 L
620 3710 L
620 3753 L
620 3759 L
620 3585 L
620 3909 L
620 3756 L
620 3370 L
620 3407 L
620 3865 L
620 3745 L
620 3801 L
620 3461 L
620 4240 L
620 3568 L
620 3691 L
620 4316 L
620 3821 L
620 4287 L
620 4258 L
620 4519 L
620 3734 L
620 4337 L
620 4187 L
620 4356 L
620 3814 L
620 3986 L
620 3654 L
620 3845 L
620 4584 L
620 4075 L
620 4337 L
620 3905 L
620 3643 L
620 3692 L
620 3443 L
620 3897 L
620 4086 L
620 4315 L
620 3674 L
620 3942 L
620 4863 L
620 3750 L
620 4037 L
620 3783 L
620 4578 L
620 3402 L
620 4276 L
620 4099 L
620 4508 L
620 3958 L
620 3922 L
620 3974 L
620 3828 L
620 4587 L
620 4322 L
620 3781 L
620 3594 L
620 3644 L
620 3857 L
620 4544 L
620 3814 L
620 3941 L
620 3905 L
620 4422 L
620 4197 L
620 3673 L
620 4171 L
620 3814 L
620 4097 L
620 3735 L
620 4075 L
620 4149 L
620 3996 L
620 3773 L
620 4527 L
620 3752 L
620 4453 L
620 3855 L
620 3939 L
620 4128 L
620 2962 L
620 3630 L
620 3886 L
620 3912 L
620 4211 L
620 4137 L
620 4164 L
620 3812 L
620 3426 L
620 3929 L
620 3876 L
620 4094 L
620 3623 L
620 3675 L
620 3266 L
620 3941 L
620 3814 L
620 3512 L
620 3821 L
620 3546 L
620 4216 L
620 3474 L
620 4568 L
620 3951 L
620 3261 L
620 3895 L
620 3606 L
620 3725 L
620 4415 L
620 3311 L
620 3345 L
620 3874 L
620 3670 L
620 3414 L
620 3666 L
620 3903 L
620 3725 L
620 3151 L
620 3584 L
620 2713 L
620 3251 L
620 3697 L
620 3714 L
620 3405 L
620 3022 L
620 3852 L
620 3295 L
620 2742 L
620 4128 L
620 3093 L
620 3041 L
620 4204 L
620 3369 L
620 3077 L
620 3567 L
620 3311 L
620 3165 L
620 3824 L
620 3752 L
620 3436 L
620 3283 L
620 3393 L
620 3014 L
620 3029 L
620 3335 L
620 3151 L
620 3405 L
620 3476 L
620 3024 L
620 3184 L
620 3596 L
620 2646 L
620 4080 L
620 3278 L
620 3860 L
620 3728 L
620 3074 L
620 3318 L
620 3141 L
620 3448 L
620 3390 L
620 2897 L
620 2854 L
620 3699 L
620 2923 L
620 3283 L
620 3486 L
620 3058 L
620 3110 L
620 3180 L
620 3096 L
620 2938 L
620 2931 L
620 3426 L
620 3060 L
620 3263 L
620 2584 L
620 3218 L
620 3206 L
620 2892 L
620 3038 L
620 3096 L
620 3532 L
620 3462 L
620 3170 L
620 2919 L
620 2730 L
620 3290 L
620 3414 L
620 3048 L
620 2900 L
620 2952 L
620 3821 L
620 3445 L
620 3067 L
620 2713 L
620 2651 L
620 3395 L
620 3323 L
620 3323 L
620 3460 L
620 3283 L
620 3007 L
620 2785 L
620 3110 L
620 2763 L
620 2842 L
620 3287 L
620 3541 L
620 2926 L
620 2859 L
620 2993 L
620 3567 L
620 2940 L
620 2892 L
620 3510 L
620 3555 L
620 3108 L
620 3625 L
620 2241 L
620 2320 L
620 3476 L
620 3170 L
620 2516 L
620 3220 L
620 3091 L
620 3754 L
620 3192 L
620 3678 L
620 2629 L
620 3666 L
620 3127 L
620 3213 L
620 3168 L
620 3110 L
620 2854 L
620 3002 L
620 2979 L
620 3000 L
620 3125 L
620 2766 L
620 2284 L
620 3374 L
620 2775 L
620 2603 L
620 2871 L
620 2983 L
620 3230 L
620 3287 L
620 2473 L
620 3247 L
620 3182 L
620 2773 L
620 3194 L
620 2651 L
620 2713 L
620 3347 L
620 2981 L
620 3034 L
620 2528 L
620 3120 L
620 2136 L
620 2794 L
620 3127 L
L2 C05 COSGR

%
%================
% Legend - Begin
%================
%
GSN 4240 5180 M
4480 5180 L
LWMC SL  C05 COSGR
GSN 4540 5141 M helvM (2.5 uM) show grestore
%
%================
% Legend - End
%================
%

%
% Main frame
%
L10
GSN 
620 1700 M
4220 1700 L
4220 5300 L
620 5300 L
closepath SGR

%
% X axis: large tics
%
L10
%
% X axis: small tics
%
L5
%
% Y axis: large tics
%
L10
GSN 620 2205 M 54 0 rL SGR
GSN 4220 2205 M -54 0 rL SGR
helvS (-0.01) 560 2205 ylabel
GSN 620 3460 M 54 0 rL SGR
GSN 4220 3460 M -54 0 rL SGR
helvS (0) 560 3460 ylabel
GSN 620 4715 M 54 0 rL SGR
GSN 4220 4715 M -54 0 rL SGR
helvS (0.01) 560 4715 ylabel
%
% Y axis: small tics
%
L5
GSN 620 1891 M 36 0 rL SGR
GSN 4220 1891 M -36 0 rL SGR
GSN 620 2205 M 36 0 rL SGR
GSN 4220 2205 M -36 0 rL SGR
GSN 620 2519 M 36 0 rL SGR
GSN 4220 2519 M -36 0 rL SGR
GSN 620 2833 M 36 0 rL SGR
GSN 4220 2833 M -36 0 rL SGR
GSN 620 3147 M 36 0 rL SGR
GSN 4220 3147 M -36 0 rL SGR
GSN 620 3460 M 36 0 rL SGR
GSN 4220 3460 M -36 0 rL SGR
GSN 620 3774 M 36 0 rL SGR
GSN 4220 3774 M -36 0 rL SGR
GSN 620 4088 M 36 0 rL SGR
GSN 4220 4088 M -36 0 rL SGR
GSN 620 4402 M 36 0 rL SGR
GSN 4220 4402 M -36 0 rL SGR
GSN 620 4715 M 36 0 rL SGR
GSN 4220 4715 M -36 0 rL SGR
GSN 620 5029 M 36 0 rL SGR
GSN 4220 5029 M -36 0 rL SGR

%
% X axis - residual panel
%
GSN L5 620 3460 M 4220 3460 L SDA G50 SGR

%
% X-Axis label:
%
gsave 620 1370 M 
[
[(Helvetica) 180 0 true true 0 (t)]
[(Helvetica) 180 0 true true 0 (i)]
[(Helvetica) 180 0 true true 0 (m)]
[(Helvetica) 180 0 true true 0 (e)]
] 0 MCshow grestore

%
% Y-Axis label:
%
gsave 234 3499 M 
currentpoint gsave translate 90 rotate 0 0 moveto
[
[(Helvetica) 180 0 true true 0 (r)]
[(Helvetica) 180 0 true true 0 (e)]
[(Helvetica) 180 0 true true 0 (s)]
[(Helvetica) 180 0 true true 0 (i)]
[(Helvetica) 180 0 true true 0 (d)]
[(Helvetica) 180 0 true true 0 (u)]
[(Helvetica) 180 0 true true 0 (a)]
[(Helvetica) 180 0 true true 0 (l)]
[(Helvetica) 180 0 true true 0 (s)]
] 0 MCshow grestore

end
showpage
%%Trailer
%%EOF
