%!PS-Adobe-3.0 EPSF-3.0
%%BoundingBox: 0 0 514 550
%%Creator: BioKin Ltd.
%%DocumentFonts: Symbol Helvetica
%%EndComments
%
/bkdict 256 dict def
bkdict begin
/M {moveto} def 
/R {rmoveto} def
/L {lineto} def
/rL {rlineto} def
/GSN {gsave newpath} def
/SGR {stroke grestore} def
/COSGR {gsave setrgbcolor stroke grestore grestore} def
/SL {setlinewidth} def
/LWMB {12} def             % line width - model curves, black & white
/LWMC {10} def             % line width - model curves, color
/L2 {2.5 setlinewidth} def
/L5 {5 setlinewidth} def
/L10 {10 setlinewidth} def
/G50 {0.5 setgray} def
/SDA {[10  20] 0 setdash} def % axes
/helvT {/Helvetica findfont 100 scalefont setfont} def % tiny
/helvS {/Helvetica findfont 125 scalefont setfont} def % small
/helvM {/Helvetica findfont 150 scalefont setfont} def % medium
/helvL {/Helvetica findfont 175 scalefont setfont} def % large
/xlabel {gsave M dup
   stringwidth exch -0.5 mul exch rmoveto show grestore} def 
/ylabel {gsave M 90 rotate dup
   stringwidth exch -0.5 mul exch rmoveto show grestore} def
/ylabelresid {gsave M dup
   stringwidth exch -1 mul exch rmoveto show grestore} def
% ======
% Shapes
% ======
% Circle:
/Circ {0 360 arc closepath} def
%
% Square:
/Squa {dup dup -0.5 mul dup dup R -2 mul 0 exch rL 1 mul 0 rL dup 0 exch -1 mul rL closepath} def
%
% Triangle Up:
/TriU {dup dup dup -0.4 mul exch -0.5 mul exch R dup 0.5 mul exch rL dup -1 mul exch 0.5 mul exch rL closepath} def 
%
% Triangle Down:
/TriD {dup dup dup 0.4 mul exch -0.5 mul exch R dup 0.5 mul exch -1 mul rL dup 0.5 mul exch rL closepath} def 
%
% Diamond:
/Diam {45 rotate Squa} def
% ======
% Fills
% ======
/GRF {gsave setgray fill grestore} def                    % gray-level Fill
/COF {gsave setrgbcolor fill grestore} def                % color fill
% ======
% Colors
% ======
/C01 {1.00	0.00	0.00} def      % Red
/C02 {0.00	0.00	1.00} def      % Blue
/C03 {0.00	0.39	0.00} def      % Dark Green
/C04 {0.78	0.08	0.52} def      % Medium Violet Red
/C05 {0.55	0.27	0.07} def      % Saddle Brown
/C06 {0.10	0.70	0.70} def      % (cyan)
/C07 {1.00	0.55	0.00} def      % Dark Orange
/C08 {0.63	0.13	0.94} def      % Purple
/C09 {0.00	0.75	1.00} def      % Deep Sky Blue
/C10 {0.20	0.80	0.20} def      % Lime Green
/C11 {0.47	0.53	0.60} def      % Light Slate Gray
/C12 {0.00	0.00	0.00} def      % Black            % or: {0.19	0.31	0.31} def      % Dark Slate Gray
%
/LGR {0.75} def % light gray
/DGR {0.33} def % dark gray
%
% =============
% Dash patterns
% =============
/dash01 { [80  20] 0 setdash } def
/dash02 { [40  20] 0 setdash } def
/dash03 { [80  20  10  20] 0 setdash } def
/dash04 { [40  20  10  20] 0 setdash } def
/dash05 { [80  20  10  10  10  20] 0 setdash } def
/dash06 { [40  20  10  10  10  20] 0 setdash } def
/dash07 { [10  10] 0 setdash } def
%
/MFshow {
   { dup 5 get 3 ge
     { 5 get 3 eq {gsave} {grestore} ifelse }
     {dup dup 0 get findfont exch 1 get scalefont setfont
     [ currentpoint ] exch dup 2 get 0 exch R dup 5 get 2 ne {dup dup 6
     get exch 4 get {show} {stringwidth pop 0 R} ifelse }if dup 5 get 0 eq
     {dup 3 get {2 get neg 0 exch R pop} {pop aload pop M} ifelse} {dup 5
     get 1 eq {dup 2 get exch dup 3 get exch 6 get stringwidth pop -2 div
     dup 0 R} {dup 6 get stringwidth pop -2 div 0 R 6 get
     show 2 index {aload pop M neg 3 -1 roll neg R pop pop} {pop pop pop
     pop aload pop M} ifelse }ifelse }ifelse }
     ifelse }
   forall} bind def
/MFwidth {0 exch {dup 3 get{dup dup 0 get findfont exch 1 get scalefont
     setfont 6 get stringwidth pop add} {pop} ifelse} forall} bind def
/MCshow { currentpoint stroke M
  exch dup MFwidth -2 div 3 -1 roll R MFshow } def
%
end
%%EndProlog
bkdict begin
0.1 0.1 scale
%
% Model curves:
%

GSN 753 2842 M
753 2842 L
786 2827 L
820 2813 L
853 2800 L
886 2790 L
903 2785 L
919 2781 L
953 2774 L
986 2769 L
1020 2766 L
1053 2764 L
1053 2764 L
1086 2763 L
1120 2763 L
1153 2763 L
1186 2763 L
1203 2763 L
1220 2763 L
1253 2763 L
1286 2763 L
1320 2763 L
1353 2763 L
1353 2763 L
1386 2763 L
1420 2763 L
1453 2763 L
1486 2763 L
1503 2763 L
1520 2763 L
1553 2763 L
1586 2763 L
1620 2763 L
1653 2763 L
1653 2763 L
1686 2763 L
1720 2763 L
1753 2763 L
1786 2763 L
1804 2763 L
1820 2763 L
1853 2763 L
1886 2763 L
1920 2763 L
1953 2763 L
1954 2763 L
1986 2763 L
2020 2763 L
2053 2763 L
2086 2763 L
2104 2763 L
2120 2763 L
2153 2763 L
2186 2763 L
2220 2763 L
2253 2763 L
2254 2763 L
2286 2763 L
2320 2763 L
2353 2763 L
2386 2763 L
2404 2763 L
2420 2763 L
2453 2763 L
2486 2763 L
2520 2762 L
2553 2762 L
2554 2762 L
2586 2762 L
2620 2762 L
2653 2762 L
2686 2762 L
2704 2762 L
2720 2762 L
2753 2762 L
2786 2762 L
2820 2762 L
2853 2762 L
2854 2762 L
2886 2762 L
2920 2761 L
2953 2761 L
2986 2761 L
3004 2761 L
3020 2761 L
3053 2760 L
3068 2760 L
3086 2760 L
3120 2759 L
3153 2759 L
3155 2759 L
3186 2758 L
3220 2757 L
3253 2756 L
3286 2755 L
3305 2755 L
3320 2754 L
3353 2753 L
3386 2751 L
3420 2749 L
3453 2746 L
3455 2746 L
3486 2744 L
3520 2740 L
3553 2737 L
3586 2732 L
3605 2730 L
3620 2727 L
3653 2722 L
3686 2715 L
3720 2708 L
3753 2700 L
3755 2699 L
3786 2691 L
3820 2681 L
3853 2671 L
3886 2660 L
3905 2654 L
3920 2650 L
3953 2639 L
3986 2628 L
4020 2619 L
4053 2610 L
4086 2602 L
LWMC SL  C05 COSGR

%
% Experimental data:
%
GSN 773 5166 M
1625 4771 L
1773 4572 L
1860 4787 L
1922 4721 L
1970 4512 L
2009 4459 L
2043 4411 L
2072 4421 L
2097 4358 L
2120 4184 L
2140 4324 L
2159 4077 L
2176 4078 L
2192 4323 L
2207 4065 L
2221 4077 L
2234 3889 L
2247 3910 L
2259 3900 L
2270 3874 L
2280 3749 L
2290 3648 L
2300 3681 L
2309 3871 L
2318 3671 L
2326 3723 L
2335 3625 L
2342 3682 L
2350 3653 L
2357 3648 L
2364 3543 L
2371 3440 L
2378 3329 L
2384 3423 L
2391 3403 L
2397 3306 L
2403 3433 L
2409 3518 L
2414 3422 L
2420 3378 L
2425 3251 L
2430 3378 L
2435 3134 L
2440 3157 L
2445 3210 L
2450 3247 L
2455 3181 L
2459 3180 L
2464 3165 L
2468 3040 L
2472 3051 L
2476 3049 L
2481 2959 L
2485 2761 L
2489 3134 L
2492 2950 L
2496 2974 L
2500 2913 L
2504 3112 L
2507 2921 L
2511 2825 L
2514 3192 L
2518 2778 L
2521 2962 L
2525 2914 L
2528 2800 L
2531 2849 L
2534 2806 L
2538 2962 L
2541 2837 L
2544 2665 L
2547 2911 L
2550 3033 L
2553 2811 L
2556 2776 L
2559 2855 L
2561 2630 L
2564 2746 L
2567 2763 L
2570 2728 L
2580 2560 L
2590 2595 L
2600 2763 L
2609 2454 L
2618 2497 L
2627 2578 L
2635 2514 L
2643 2404 L
2650 2324 L
2658 2319 L
2665 2344 L
2672 2053 L
2678 2291 L
2685 2175 L
2691 2432 L
2697 2155 L
2703 2247 L
2709 1986 L
2714 2098 L
2720 2117 L
2725 2017 L
2730 2182 L
2735 2043 L
2740 2197 L
2745 2210 L
2750 2085 L
2755 1974 L
2759 1976 L
2764 2188 L
2768 2045 L
2772 1999 L
2777 2020 L
2781 2119 L
2785 2011 L
2789 2060 L
2793 1974 L
2796 2108 L
2800 2120 L
2804 2071 L
2808 2094 L
2811 2106 L
2815 1950 L
2818 2243 L
2822 2165 L
2825 1833 L
2828 2123 L
2831 2073 L
2835 2166 L
2838 2050 L
2841 2092 L
2844 1981 L
2847 2111 L
2850 2117 L
2853 2281 L
2856 1927 L
2859 2098 L
2862 2193 L
2864 2215 L
2867 2192 L
2870 2176 L
2873 2001 L
2875 2027 L
2878 2150 L
2880 2083 L
2883 2148 L
2886 2183 L
2888 2155 L
2891 2189 L
2893 2209 L
2895 2066 L
2898 2211 L
2900 2138 L
2902 2070 L
2905 2274 L
2907 2296 L
2909 2098 L
2912 2117 L
2914 2321 L
2916 2277 L
2918 2266 L
2920 2268 L
2922 2096 L
2925 2267 L
2927 2324 L
2929 2289 L
2931 2168 L
2933 2188 L
2935 2197 L
2937 2302 L
2939 2310 L
2941 2309 L
2943 2200 L
2945 2409 L
2947 2348 L
2948 2127 L
2950 2426 L
2952 2206 L
2954 2232 L
2956 2302 L
2958 2272 L
2959 2395 L
2961 2297 L
2963 2395 L
2965 2393 L
2966 2351 L
2968 2312 L
2970 2394 L
2972 2244 L
2973 2347 L
2975 2507 L
2977 2218 L
2978 2524 L
2980 2313 L
2982 2180 L
2983 2346 L
2985 2525 L
2986 2192 L
2988 2278 L
2989 2436 L
2991 2483 L
2993 2331 L
2994 2297 L
2996 2317 L
2997 2548 L
2999 2405 L
3000 2461 L
3002 2512 L
3003 2514 L
3005 2503 L
3006 2625 L
3007 2486 L
3009 2589 L
3010 2502 L
3012 2519 L
3013 2292 L
3014 2409 L
3016 2567 L
3017 2271 L
3019 2438 L
3020 2460 L
3021 2424 L
3023 2599 L
3024 2465 L
3025 2530 L
3027 2505 L
3028 2514 L
3029 2477 L
3031 2502 L
3032 2639 L
3033 2415 L
3034 2500 L
3036 2418 L
3037 2419 L
3038 2539 L
3039 2427 L
3041 2567 L
3042 2505 L
3043 2603 L
3044 2573 L
3045 2698 L
3047 2675 L
3048 2601 L
3049 2622 L
3050 2510 L
3051 2542 L
3053 2430 L
3054 2623 L
3055 2572 L
3056 2474 L
3057 2627 L
3058 2587 L
3059 2656 L
3061 2461 L
3062 2482 L
3063 2823 L
3064 2793 L
3065 2491 L
3066 2633 L
3067 2728 L
3068 2623 L
3069 2612 L
3070 2664 L
3071 2608 L
3073 2796 L
3074 2498 L
3075 2622 L
3076 2648 L
3077 2570 L
3078 2665 L
3079 2680 L
3080 2684 L
3081 2629 L
3082 2736 L
3083 2688 L
3084 2564 L
3085 2578 L
3086 2729 L
3087 2691 L
3088 2711 L
3089 2602 L
3112 2893 L
3133 2702 L
3152 2765 L
3170 2986 L
3186 2839 L
3201 3002 L
3216 3001 L
3229 3093 L
3241 2843 L
3253 3043 L
3264 2998 L
3275 3056 L
3285 2881 L
3295 2939 L
3304 2832 L
3313 2895 L
3322 3137 L
3330 2971 L
3338 3057 L
3346 2917 L
3353 2832 L
3360 2848 L
3367 2767 L
3374 2915 L
3380 2977 L
3387 3052 L
3393 2843 L
3399 2930 L
3405 3231 L
3410 2868 L
3416 2961 L
3421 2878 L
3426 3138 L
3431 2754 L
3436 3039 L
3441 2982 L
3446 3115 L
3451 2935 L
3455 2924 L
3460 2941 L
3464 2893 L
3469 3141 L
3473 3054 L
3477 2878 L
3481 2817 L
3485 2833 L
3489 2903 L
3493 3127 L
3496 2889 L
3500 2930 L
3504 2918 L
3507 3087 L
3511 3014 L
3514 2843 L
3518 3005 L
3521 2889 L
3525 2981 L
3528 2863 L
3531 2974 L
3534 2998 L
3537 2948 L
3540 2875 L
3543 3121 L
3546 2868 L
3549 3097 L
3552 2902 L
3555 2929 L
3558 2991 L
3561 2611 L
3564 2829 L
3566 2912 L
3575 2921 L
3586 3018 L
3595 2994 L
3605 3003 L
3613 2888 L
3622 2762 L
3630 2926 L
3638 2909 L
3646 2980 L
3653 2826 L
3660 2843 L
3667 2710 L
3674 2930 L
3681 2889 L
3687 2790 L
3693 2891 L
3699 2801 L
3705 3020 L
3710 2778 L
3716 3135 L
3721 2933 L
3727 2708 L
3732 2915 L
3737 2821 L
3742 2860 L
3746 3085 L
3751 2725 L
3756 2736 L
3760 2908 L
3764 2842 L
3769 2758 L
3773 2840 L
3777 2918 L
3781 2860 L
3785 2672 L
3789 2814 L
3793 2530 L
3797 2705 L
3800 2850 L
3804 2856 L
3808 2755 L
3811 2630 L
3815 2901 L
3818 2719 L
3821 2539 L
3825 2991 L
3828 2654 L
3831 2636 L
3834 3016 L
3838 2743 L
3841 2648 L
3844 2808 L
3847 2725 L
3850 2677 L
3853 2892 L
3855 2868 L
3858 2765 L
3861 2715 L
3864 2751 L
3867 2628 L
3869 2633 L
3872 2733 L
3875 2672 L
3877 2755 L
3880 2779 L
3882 2631 L
3885 2683 L
3887 2818 L
3890 2508 L
3892 2975 L
3895 2714 L
3897 2903 L
3899 2861 L
3902 2647 L
3904 2727 L
3906 2669 L
3908 2769 L
3911 2750 L
3913 2590 L
3915 2576 L
3917 2851 L
3919 2598 L
3921 2715 L
3923 2782 L
3926 2642 L
3928 2659 L
3930 2682 L
3932 2654 L
3934 2603 L
3936 2601 L
3938 2762 L
3940 2643 L
3942 2709 L
3943 2487 L
3945 2694 L
3947 2690 L
3949 2588 L
3951 2636 L
3953 2654 L
3955 2797 L
3956 2774 L
3958 2679 L
3960 2597 L
3962 2535 L
3963 2718 L
3965 2758 L
3967 2639 L
3969 2590 L
3970 2608 L
3972 2891 L
3974 2768 L
3975 2645 L
3977 2530 L
3978 2509 L
3980 2752 L
3982 2729 L
3983 2729 L
3985 2773 L
3986 2715 L
3988 2626 L
3990 2553 L
3991 2659 L
3993 2546 L
3994 2572 L
3996 2717 L
3997 2800 L
3999 2599 L
4000 2577 L
4001 2621 L
4003 2808 L
4004 2604 L
4006 2588 L
4007 2790 L
4009 2804 L
4010 2658 L
4011 2827 L
4013 2376 L
4014 2402 L
4016 2779 L
4017 2679 L
4018 2466 L
4020 2695 L
4021 2653 L
4022 2869 L
4024 2686 L
4025 2844 L
4026 2502 L
4028 2840 L
4029 2665 L
4030 2693 L
4031 2678 L
4033 2659 L
4034 2576 L
4035 2624 L
4036 2616 L
4038 2623 L
4039 2664 L
4040 2547 L
4041 2390 L
4042 2745 L
4044 2550 L
4045 2494 L
4046 2581 L
4047 2618 L
4048 2698 L
4050 2717 L
4051 2452 L
4052 2704 L
4053 2683 L
4054 2549 L
4055 2686 L
4056 2509 L
4058 2530 L
4059 2736 L
4060 2617 L
4061 2634 L
4062 2469 L
4063 2662 L
4064 2341 L
4065 2556 L
4066 2665 L
L2 C05 COSGR

%
%================
% Legend - Begin
%================
%
GSN 4240 5180 M
4480 5180 L
LWMC SL  C05 COSGR
GSN 4540 5141 M helvM (2.5 uM) show grestore
%
%================
% Legend - End
%================
%

%
% Residuals:
%
GSN 773 1569 M
1625 1487 L
1773 1437 L
1860 1491 L
1922 1475 L
1970 1422 L
2009 1409 L
2043 1397 L
2072 1399 L
2097 1384 L
2120 1340 L
2140 1375 L
2159 1313 L
2176 1313 L
2192 1375 L
2207 1310 L
2221 1313 L
2234 1266 L
2247 1271 L
2259 1269 L
2270 1262 L
2280 1231 L
2290 1205 L
2300 1214 L
2309 1261 L
2318 1211 L
2326 1224 L
2335 1200 L
2342 1214 L
2350 1207 L
2357 1205 L
2364 1179 L
2371 1153 L
2378 1125 L
2384 1149 L
2391 1144 L
2397 1120 L
2403 1151 L
2409 1173 L
2414 1149 L
2420 1138 L
2425 1106 L
2430 1138 L
2435 1077 L
2440 1082 L
2445 1096 L
2450 1105 L
2455 1088 L
2459 1088 L
2464 1084 L
2468 1053 L
2472 1056 L
2476 1055 L
2481 1033 L
2485 983 L
2489 1077 L
2492 1030 L
2496 1036 L
2500 1021 L
2504 1071 L
2507 1023 L
2511 999 L
2514 1091 L
2518 987 L
2521 1034 L
2525 1022 L
2528 993 L
2531 1005 L
2534 994 L
2538 1034 L
2541 1002 L
2544 959 L
2547 1021 L
2550 1051 L
2553 996 L
2556 987 L
2559 1007 L
2561 950 L
2564 979 L
2567 984 L
2570 975 L
2580 933 L
2590 941 L
2600 983 L
2609 906 L
2618 917 L
2627 937 L
2635 921 L
2643 894 L
2650 874 L
2658 872 L
2665 878 L
2672 806 L
2678 865 L
2685 836 L
2691 901 L
2697 831 L
2703 854 L
2709 789 L
2714 817 L
2720 822 L
2725 797 L
2730 838 L
2735 803 L
2740 842 L
2745 845 L
2750 814 L
2755 786 L
2759 786 L
2764 839 L
2768 803 L
2772 792 L
2777 797 L
2781 822 L
2785 795 L
2789 807 L
2793 786 L
2796 819 L
2800 822 L
2804 810 L
2808 816 L
2811 819 L
2815 780 L
2818 853 L
2822 834 L
2825 750 L
2828 823 L
2831 811 L
2835 834 L
2838 805 L
2841 815 L
2844 788 L
2847 820 L
2850 822 L
2853 863 L
2856 774 L
2859 817 L
2862 841 L
2864 846 L
2867 841 L
2870 836 L
2873 793 L
2875 799 L
2878 830 L
2880 813 L
2883 829 L
2886 838 L
2888 831 L
2891 840 L
2893 845 L
2895 809 L
2898 845 L
2900 827 L
2902 810 L
2905 861 L
2907 867 L
2909 817 L
2912 822 L
2914 873 L
2916 862 L
2918 859 L
2920 860 L
2922 816 L
2925 860 L
2927 874 L
2929 865 L
2931 834 L
2933 840 L
2935 842 L
2937 868 L
2939 870 L
2941 870 L
2943 843 L
2945 895 L
2947 880 L
2948 824 L
2950 899 L
2952 844 L
2954 851 L
2956 868 L
2958 861 L
2959 892 L
2961 867 L
2963 892 L
2965 891 L
2966 881 L
2968 871 L
2970 891 L
2972 854 L
2973 880 L
2975 920 L
2977 847 L
2978 924 L
2980 871 L
2982 838 L
2983 879 L
2985 924 L
2986 841 L
2988 862 L
2989 902 L
2991 914 L
2993 875 L
2994 867 L
2996 872 L
2997 930 L
2999 894 L
3000 908 L
3002 921 L
3003 921 L
3005 919 L
3006 949 L
3007 915 L
3009 940 L
3010 918 L
3012 923 L
3013 866 L
3014 895 L
3016 935 L
3017 861 L
3019 902 L
3020 908 L
3021 899 L
3023 943 L
3024 909 L
3025 926 L
3027 919 L
3028 921 L
3029 912 L
3031 918 L
3032 953 L
3033 897 L
3034 918 L
3036 898 L
3037 898 L
3038 928 L
3039 900 L
3041 935 L
3042 919 L
3043 944 L
3044 937 L
3045 968 L
3047 962 L
3048 943 L
3049 949 L
3050 921 L
3051 929 L
3053 901 L
3054 949 L
3055 936 L
3056 912 L
3057 950 L
3058 940 L
3059 957 L
3061 908 L
3062 914 L
3063 999 L
3064 992 L
3065 916 L
3066 951 L
3067 975 L
3068 949 L
3069 946 L
3070 959 L
3071 945 L
3073 992 L
3074 918 L
3075 949 L
3076 955 L
3077 936 L
3078 960 L
3079 963 L
3080 964 L
3081 951 L
3082 978 L
3083 965 L
3084 934 L
3085 938 L
3086 976 L
3087 966 L
3088 971 L
3089 944 L
3112 1017 L
3133 969 L
3152 985 L
3170 1041 L
3186 1004 L
3201 1045 L
3216 1045 L
3229 1068 L
3241 1005 L
3253 1055 L
3264 1044 L
3275 1059 L
3285 1015 L
3295 1029 L
3304 1003 L
3313 1019 L
3322 1079 L
3330 1038 L
3338 1060 L
3346 1024 L
3353 1003 L
3360 1007 L
3367 987 L
3374 1024 L
3380 1040 L
3387 1059 L
3393 1006 L
3399 1029 L
3405 1104 L
3410 1013 L
3416 1037 L
3421 1016 L
3426 1081 L
3431 985 L
3436 1057 L
3441 1042 L
3446 1076 L
3451 1031 L
3455 1028 L
3460 1032 L
3464 1020 L
3469 1083 L
3473 1061 L
3477 1017 L
3481 1002 L
3485 1006 L
3489 1023 L
3493 1080 L
3496 1020 L
3500 1030 L
3504 1028 L
3507 1070 L
3511 1052 L
3514 1009 L
3518 1050 L
3521 1021 L
3525 1044 L
3528 1014 L
3531 1042 L
3534 1048 L
3537 1036 L
3540 1018 L
3543 1080 L
3546 1016 L
3549 1074 L
3552 1025 L
3555 1032 L
3558 1047 L
3561 952 L
3564 1007 L
3566 1028 L
3575 1030 L
3586 1055 L
3595 1049 L
3605 1052 L
3613 1023 L
3622 992 L
3630 1034 L
3638 1030 L
3646 1048 L
3653 1010 L
3660 1014 L
3667 981 L
3674 1037 L
3681 1027 L
3687 1002 L
3693 1028 L
3699 1006 L
3705 1061 L
3710 1000 L
3716 1090 L
3721 1040 L
3727 984 L
3732 1036 L
3737 1013 L
3742 1023 L
3746 1079 L
3751 990 L
3756 993 L
3760 1036 L
3764 1020 L
3769 999 L
3773 1020 L
3777 1040 L
3781 1025 L
3785 979 L
3789 1014 L
3793 943 L
3797 988 L
3800 1024 L
3804 1026 L
3808 1001 L
3811 970 L
3815 1038 L
3818 993 L
3821 948 L
3825 1061 L
3828 977 L
3831 973 L
3834 1068 L
3838 1000 L
3841 977 L
3844 1017 L
3847 996 L
3850 985 L
3853 1039 L
3855 1033 L
3858 1007 L
3861 995 L
3864 1004 L
3867 974 L
3869 975 L
3872 1000 L
3875 985 L
3877 1006 L
3880 1012 L
3882 976 L
3885 989 L
3887 1023 L
3890 945 L
3892 1063 L
3895 997 L
3897 1045 L
3899 1035 L
3902 981 L
3904 1002 L
3906 987 L
3908 1012 L
3911 1008 L
3913 968 L
3915 964 L
3917 1034 L
3919 970 L
3921 1000 L
3923 1017 L
3926 982 L
3928 986 L
3930 992 L
3932 986 L
3934 973 L
3936 972 L
3938 1013 L
3940 983 L
3942 1000 L
3943 945 L
3945 997 L
3947 996 L
3949 970 L
3951 982 L
3953 987 L
3955 1023 L
3956 1018 L
3958 994 L
3960 973 L
3962 958 L
3963 1004 L
3965 1014 L
3967 985 L
3969 973 L
3970 977 L
3972 1048 L
3974 1018 L
3975 987 L
3977 958 L
3978 953 L
3980 1014 L
3982 1008 L
3983 1008 L
3985 1020 L
3986 1005 L
3988 983 L
3990 965 L
3991 991 L
3993 963 L
3994 970 L
3996 1006 L
3997 1027 L
3999 977 L
4000 972 L
4001 983 L
4003 1030 L
4004 979 L
4006 975 L
4007 1025 L
4009 1029 L
4010 993 L
4011 1035 L
4013 922 L
4014 929 L
4016 1023 L
4017 998 L
4018 945 L
4020 1003 L
4021 992 L
4022 1046 L
4024 1000 L
4025 1040 L
4026 955 L
4028 1040 L
4029 996 L
4030 1003 L
4031 999 L
4033 994 L
4034 974 L
4035 986 L
4036 984 L
4038 986 L
4039 996 L
4040 967 L
4041 927 L
4042 1017 L
4044 968 L
4045 954 L
4046 976 L
4047 985 L
4048 1005 L
4050 1010 L
4051 944 L
4052 1007 L
4053 1002 L
4054 968 L
4055 1003 L
4056 958 L
4058 964 L
4059 1015 L
4060 986 L
4061 990 L
4062 949 L
4063 997 L
4064 917 L
4065 971 L
4066 998 L
L2 C05 COSGR

%
% Main frame
%
L10
GSN 
620 1700 M
4220 1700 L
4220 5300 L
620 5300 L
closepath SGR

%
% X axis: large tics
%
L10
GSN 1074 1700 M 0  54 rL SGR
GSN 1074 5300 M 0 -54 rL SGR
helvS (0.0001) 1074 470 xlabel
GSN 1572 1700 M 0  54 rL SGR
GSN 1572 5300 M 0 -54 rL SGR
helvS (0.001) 1572 470 xlabel
GSN 2071 1700 M 0  54 rL SGR
GSN 2071 5300 M 0 -54 rL SGR
helvS (0.01) 2071 470 xlabel
GSN 2570 1700 M 0  54 rL SGR
GSN 2570 5300 M 0 -54 rL SGR
helvS (0.1) 2570 470 xlabel
GSN 3068 1700 M 0  54 rL SGR
GSN 3068 5300 M 0 -54 rL SGR
helvS (1) 3068 470 xlabel
GSN 3567 1700 M 0  54 rL SGR
GSN 3567 5300 M 0 -54 rL SGR
helvS (10) 3567 470 xlabel
GSN 4066 1700 M 0  54 rL SGR
GSN 4066 5300 M 0 -54 rL SGR
helvS (100) 4066 470 xlabel
%
% X axis: small tics
%
L5
GSN 725 1700 M 0  36 rL SGR
GSN 725 5300 M 0 -36 rL SGR
GSN 813 1700 M 0  36 rL SGR
GSN 813 5300 M 0 -36 rL SGR
GSN 875 1700 M 0  36 rL SGR
GSN 875 5300 M 0 -36 rL SGR
GSN 924 1700 M 0  36 rL SGR
GSN 924 5300 M 0 -36 rL SGR
GSN 963 1700 M 0  36 rL SGR
GSN 963 5300 M 0 -36 rL SGR
GSN 996 1700 M 0  36 rL SGR
GSN 996 5300 M 0 -36 rL SGR
GSN 1025 1700 M 0  36 rL SGR
GSN 1025 5300 M 0 -36 rL SGR
GSN 1051 1700 M 0  36 rL SGR
GSN 1051 5300 M 0 -36 rL SGR
GSN 1224 1700 M 0  36 rL SGR
GSN 1224 5300 M 0 -36 rL SGR
GSN 1312 1700 M 0  36 rL SGR
GSN 1312 5300 M 0 -36 rL SGR
GSN 1374 1700 M 0  36 rL SGR
GSN 1374 5300 M 0 -36 rL SGR
GSN 1422 1700 M 0  36 rL SGR
GSN 1422 5300 M 0 -36 rL SGR
GSN 1462 1700 M 0  36 rL SGR
GSN 1462 5300 M 0 -36 rL SGR
GSN 1495 1700 M 0  36 rL SGR
GSN 1495 5300 M 0 -36 rL SGR
GSN 1524 1700 M 0  36 rL SGR
GSN 1524 5300 M 0 -36 rL SGR
GSN 1550 1700 M 0  36 rL SGR
GSN 1550 5300 M 0 -36 rL SGR
GSN 1722 1700 M 0  36 rL SGR
GSN 1722 5300 M 0 -36 rL SGR
GSN 1810 1700 M 0  36 rL SGR
GSN 1810 5300 M 0 -36 rL SGR
GSN 1873 1700 M 0  36 rL SGR
GSN 1873 5300 M 0 -36 rL SGR
GSN 1921 1700 M 0  36 rL SGR
GSN 1921 5300 M 0 -36 rL SGR
GSN 1960 1700 M 0  36 rL SGR
GSN 1960 5300 M 0 -36 rL SGR
GSN 1994 1700 M 0  36 rL SGR
GSN 1994 5300 M 0 -36 rL SGR
GSN 2023 1700 M 0  36 rL SGR
GSN 2023 5300 M 0 -36 rL SGR
GSN 2048 1700 M 0  36 rL SGR
GSN 2048 5300 M 0 -36 rL SGR
GSN 2221 1700 M 0  36 rL SGR
GSN 2221 5300 M 0 -36 rL SGR
GSN 2309 1700 M 0  36 rL SGR
GSN 2309 5300 M 0 -36 rL SGR
GSN 2371 1700 M 0  36 rL SGR
GSN 2371 5300 M 0 -36 rL SGR
GSN 2420 1700 M 0  36 rL SGR
GSN 2420 5300 M 0 -36 rL SGR
GSN 2459 1700 M 0  36 rL SGR
GSN 2459 5300 M 0 -36 rL SGR
GSN 2492 1700 M 0  36 rL SGR
GSN 2492 5300 M 0 -36 rL SGR
GSN 2521 1700 M 0  36 rL SGR
GSN 2521 5300 M 0 -36 rL SGR
GSN 2547 1700 M 0  36 rL SGR
GSN 2547 5300 M 0 -36 rL SGR
GSN 2720 1700 M 0  36 rL SGR
GSN 2720 5300 M 0 -36 rL SGR
GSN 2808 1700 M 0  36 rL SGR
GSN 2808 5300 M 0 -36 rL SGR
GSN 2870 1700 M 0  36 rL SGR
GSN 2870 5300 M 0 -36 rL SGR
GSN 2918 1700 M 0  36 rL SGR
GSN 2918 5300 M 0 -36 rL SGR
GSN 2958 1700 M 0  36 rL SGR
GSN 2958 5300 M 0 -36 rL SGR
GSN 2991 1700 M 0  36 rL SGR
GSN 2991 5300 M 0 -36 rL SGR
GSN 3020 1700 M 0  36 rL SGR
GSN 3020 5300 M 0 -36 rL SGR
GSN 3045 1700 M 0  36 rL SGR
GSN 3045 5300 M 0 -36 rL SGR
GSN 3218 1700 M 0  36 rL SGR
GSN 3218 5300 M 0 -36 rL SGR
GSN 3306 1700 M 0  36 rL SGR
GSN 3306 5300 M 0 -36 rL SGR
GSN 3368 1700 M 0  36 rL SGR
GSN 3368 5300 M 0 -36 rL SGR
GSN 3417 1700 M 0  36 rL SGR
GSN 3417 5300 M 0 -36 rL SGR
GSN 3456 1700 M 0  36 rL SGR
GSN 3456 5300 M 0 -36 rL SGR
GSN 3490 1700 M 0  36 rL SGR
GSN 3490 5300 M 0 -36 rL SGR
GSN 3519 1700 M 0  36 rL SGR
GSN 3519 5300 M 0 -36 rL SGR
GSN 3544 1700 M 0  36 rL SGR
GSN 3544 5300 M 0 -36 rL SGR
GSN 3717 1700 M 0  36 rL SGR
GSN 3717 5300 M 0 -36 rL SGR
GSN 3805 1700 M 0  36 rL SGR
GSN 3805 5300 M 0 -36 rL SGR
GSN 3867 1700 M 0  36 rL SGR
GSN 3867 5300 M 0 -36 rL SGR
GSN 3915 1700 M 0  36 rL SGR
GSN 3915 5300 M 0 -36 rL SGR
GSN 3955 1700 M 0  36 rL SGR
GSN 3955 5300 M 0 -36 rL SGR
GSN 3988 1700 M 0  36 rL SGR
GSN 3988 5300 M 0 -36 rL SGR
GSN 4017 1700 M 0  36 rL SGR
GSN 4017 5300 M 0 -36 rL SGR
GSN 4043 1700 M 0  36 rL SGR
GSN 4043 5300 M 0 -36 rL SGR
GSN 4216 1700 M 0  36 rL SGR
GSN 4216 5300 M 0 -36 rL SGR
%
% Y axis: large tics
%
L10
GSN 620 2339 M 54 0 rL SGR
GSN 4220 2339 M -54 0 rL SGR
helvS (0.96) 560 2339 ylabel
GSN 620 3157 M 54 0 rL SGR
GSN 4220 3157 M -54 0 rL SGR
helvS (0.98) 560 3157 ylabel
GSN 620 3976 M 54 0 rL SGR
GSN 4220 3976 M -54 0 rL SGR
helvS (1) 560 3976 ylabel
GSN 620 4794 M 54 0 rL SGR
GSN 4220 4794 M -54 0 rL SGR
helvS (1.02) 560 4794 ylabel
%
% Y axis: small tics
%
L5
GSN 620 1725 M 36 0 rL SGR
GSN 4220 1725 M -36 0 rL SGR
GSN 620 1930 M 36 0 rL SGR
GSN 4220 1930 M -36 0 rL SGR
GSN 620 2134 M 36 0 rL SGR
GSN 4220 2134 M -36 0 rL SGR
GSN 620 2339 M 36 0 rL SGR
GSN 4220 2339 M -36 0 rL SGR
GSN 620 2543 M 36 0 rL SGR
GSN 4220 2543 M -36 0 rL SGR
GSN 620 2748 M 36 0 rL SGR
GSN 4220 2748 M -36 0 rL SGR
GSN 620 2953 M 36 0 rL SGR
GSN 4220 2953 M -36 0 rL SGR
GSN 620 3157 M 36 0 rL SGR
GSN 4220 3157 M -36 0 rL SGR
GSN 620 3362 M 36 0 rL SGR
GSN 4220 3362 M -36 0 rL SGR
GSN 620 3567 M 36 0 rL SGR
GSN 4220 3567 M -36 0 rL SGR
GSN 620 3771 M 36 0 rL SGR
GSN 4220 3771 M -36 0 rL SGR
GSN 620 3976 M 36 0 rL SGR
GSN 4220 3976 M -36 0 rL SGR
GSN 620 4180 M 36 0 rL SGR
GSN 4220 4180 M -36 0 rL SGR
GSN 620 4385 M 36 0 rL SGR
GSN 4220 4385 M -36 0 rL SGR
GSN 620 4590 M 36 0 rL SGR
GSN 4220 4590 M -36 0 rL SGR
GSN 620 4794 M 36 0 rL SGR
GSN 4220 4794 M -36 0 rL SGR
GSN 620 4999 M 36 0 rL SGR
GSN 4220 4999 M -36 0 rL SGR
GSN 620 5204 M 36 0 rL SGR
GSN 4220 5204 M -36 0 rL SGR

%
% X-Axis label:
%
gsave 2420 290 M 
[
[(Helvetica) 180 0 true true 0 (t)]
[(Helvetica) 180 0 true true 0 (i)]
[(Helvetica) 180 0 true true 0 (m)]
[(Helvetica) 180 0 true true 0 (e)]
] 0 MCshow grestore

%
% Y-Axis label:
%
gsave 234 3499 M 
currentpoint gsave translate 90 rotate 0 0 moveto
[
[(Helvetica) 180 0 true true 0 (s)]
[(Helvetica) 180 0 true true 0 (i)]
[(Helvetica) 180 0 true true 0 (g)]
[(Helvetica) 180 0 true true 0 (n)]
[(Helvetica) 180 0 true true 0 (a)]
[(Helvetica) 180 0 true true 0 (l)]
] 0 MCshow grestore

%
% Residuals:
%
gsave 129 1160 M 
currentpoint gsave translate 90 rotate 0 0 moveto
[
[(Helvetica) 150 0 true true 0 (r)]
[(Helvetica) 150 0 true true 0 (e)]
[(Helvetica) 150 0 true true 0 (s)]
[(Helvetica) 150 0 true true 0 (i)]
[(Helvetica) 150 0 true true 0 (d)]
[(Helvetica) 150 0 true true 0 (u)]
[(Helvetica) 150 0 true true 0 (a)]
[(Helvetica) 150 0 true true 0 (l)]
[(Helvetica) 150 0 true true 0 (s)]
] 0 MCshow grestore

%
% Residual frame
%
L10
GSN 
620 620 M
4220 620 L
4220 1700 L
620 1700 L
closepath SGR
%
% X axis: large tics - residual frame
%
L10
GSN 1074 620 M 0  54 rL SGR
GSN 1074 1700 M 0 -54 rL SGR
GSN 1572 620 M 0  54 rL SGR
GSN 1572 1700 M 0 -54 rL SGR
GSN 2071 620 M 0  54 rL SGR
GSN 2071 1700 M 0 -54 rL SGR
GSN 2570 620 M 0  54 rL SGR
GSN 2570 1700 M 0 -54 rL SGR
GSN 3068 620 M 0  54 rL SGR
GSN 3068 1700 M 0 -54 rL SGR
GSN 3567 620 M 0  54 rL SGR
GSN 3567 1700 M 0 -54 rL SGR
GSN 4066 620 M 0  54 rL SGR
GSN 4066 1700 M 0 -54 rL SGR
%
% X axis: small tics - residual frame
%
L5
GSN 725 620 M 0  36 rL SGR
GSN 725 1700 M 0 -36 rL SGR
GSN 813 620 M 0  36 rL SGR
GSN 813 1700 M 0 -36 rL SGR
GSN 875 620 M 0  36 rL SGR
GSN 875 1700 M 0 -36 rL SGR
GSN 924 620 M 0  36 rL SGR
GSN 924 1700 M 0 -36 rL SGR
GSN 963 620 M 0  36 rL SGR
GSN 963 1700 M 0 -36 rL SGR
GSN 996 620 M 0  36 rL SGR
GSN 996 1700 M 0 -36 rL SGR
GSN 1025 620 M 0  36 rL SGR
GSN 1025 1700 M 0 -36 rL SGR
GSN 1051 620 M 0  36 rL SGR
GSN 1051 1700 M 0 -36 rL SGR
GSN 1224 620 M 0  36 rL SGR
GSN 1224 1700 M 0 -36 rL SGR
GSN 1312 620 M 0  36 rL SGR
GSN 1312 1700 M 0 -36 rL SGR
GSN 1374 620 M 0  36 rL SGR
GSN 1374 1700 M 0 -36 rL SGR
GSN 1422 620 M 0  36 rL SGR
GSN 1422 1700 M 0 -36 rL SGR
GSN 1462 620 M 0  36 rL SGR
GSN 1462 1700 M 0 -36 rL SGR
GSN 1495 620 M 0  36 rL SGR
GSN 1495 1700 M 0 -36 rL SGR
GSN 1524 620 M 0  36 rL SGR
GSN 1524 1700 M 0 -36 rL SGR
GSN 1550 620 M 0  36 rL SGR
GSN 1550 1700 M 0 -36 rL SGR
GSN 1722 620 M 0  36 rL SGR
GSN 1722 1700 M 0 -36 rL SGR
GSN 1810 620 M 0  36 rL SGR
GSN 1810 1700 M 0 -36 rL SGR
GSN 1873 620 M 0  36 rL SGR
GSN 1873 1700 M 0 -36 rL SGR
GSN 1921 620 M 0  36 rL SGR
GSN 1921 1700 M 0 -36 rL SGR
GSN 1960 620 M 0  36 rL SGR
GSN 1960 1700 M 0 -36 rL SGR
GSN 1994 620 M 0  36 rL SGR
GSN 1994 1700 M 0 -36 rL SGR
GSN 2023 620 M 0  36 rL SGR
GSN 2023 1700 M 0 -36 rL SGR
GSN 2048 620 M 0  36 rL SGR
GSN 2048 1700 M 0 -36 rL SGR
GSN 2221 620 M 0  36 rL SGR
GSN 2221 1700 M 0 -36 rL SGR
GSN 2309 620 M 0  36 rL SGR
GSN 2309 1700 M 0 -36 rL SGR
GSN 2371 620 M 0  36 rL SGR
GSN 2371 1700 M 0 -36 rL SGR
GSN 2420 620 M 0  36 rL SGR
GSN 2420 1700 M 0 -36 rL SGR
GSN 2459 620 M 0  36 rL SGR
GSN 2459 1700 M 0 -36 rL SGR
GSN 2492 620 M 0  36 rL SGR
GSN 2492 1700 M 0 -36 rL SGR
GSN 2521 620 M 0  36 rL SGR
GSN 2521 1700 M 0 -36 rL SGR
GSN 2547 620 M 0  36 rL SGR
GSN 2547 1700 M 0 -36 rL SGR
GSN 2720 620 M 0  36 rL SGR
GSN 2720 1700 M 0 -36 rL SGR
GSN 2808 620 M 0  36 rL SGR
GSN 2808 1700 M 0 -36 rL SGR
GSN 2870 620 M 0  36 rL SGR
GSN 2870 1700 M 0 -36 rL SGR
GSN 2918 620 M 0  36 rL SGR
GSN 2918 1700 M 0 -36 rL SGR
GSN 2958 620 M 0  36 rL SGR
GSN 2958 1700 M 0 -36 rL SGR
GSN 2991 620 M 0  36 rL SGR
GSN 2991 1700 M 0 -36 rL SGR
GSN 3020 620 M 0  36 rL SGR
GSN 3020 1700 M 0 -36 rL SGR
GSN 3045 620 M 0  36 rL SGR
GSN 3045 1700 M 0 -36 rL SGR
GSN 3218 620 M 0  36 rL SGR
GSN 3218 1700 M 0 -36 rL SGR
GSN 3306 620 M 0  36 rL SGR
GSN 3306 1700 M 0 -36 rL SGR
GSN 3368 620 M 0  36 rL SGR
GSN 3368 1700 M 0 -36 rL SGR
GSN 3417 620 M 0  36 rL SGR
GSN 3417 1700 M 0 -36 rL SGR
GSN 3456 620 M 0  36 rL SGR
GSN 3456 1700 M 0 -36 rL SGR
GSN 3490 620 M 0  36 rL SGR
GSN 3490 1700 M 0 -36 rL SGR
GSN 3519 620 M 0  36 rL SGR
GSN 3519 1700 M 0 -36 rL SGR
GSN 3544 620 M 0  36 rL SGR
GSN 3544 1700 M 0 -36 rL SGR
GSN 3717 620 M 0  36 rL SGR
GSN 3717 1700 M 0 -36 rL SGR
GSN 3805 620 M 0  36 rL SGR
GSN 3805 1700 M 0 -36 rL SGR
GSN 3867 620 M 0  36 rL SGR
GSN 3867 1700 M 0 -36 rL SGR
GSN 3915 620 M 0  36 rL SGR
GSN 3915 1700 M 0 -36 rL SGR
GSN 3955 620 M 0  36 rL SGR
GSN 3955 1700 M 0 -36 rL SGR
GSN 3988 620 M 0  36 rL SGR
GSN 3988 1700 M 0 -36 rL SGR
GSN 4017 620 M 0  36 rL SGR
GSN 4017 1700 M 0 -36 rL SGR
GSN 4043 620 M 0  36 rL SGR
GSN 4043 1700 M 0 -36 rL SGR
GSN 4216 620 M 0  36 rL SGR
GSN 4216 1700 M 0 -36 rL SGR
%
% Y axis: large tics - residual frame
%
L10
GSN 620 727 M 54 0 rL SGR
GSN 4220 727 M -54 0 rL SGR
helvS (-0.025) 560 727 ylabelresid
GSN 620 983 M 54 0 rL SGR
GSN 4220 983 M -54 0 rL SGR
helvS (0) 560 983 ylabelresid
GSN 620 1240 M 54 0 rL SGR
GSN 4220 1240 M -54 0 rL SGR
helvS (0.025) 560 1240 ylabelresid
GSN 620 1497 M 54 0 rL SGR
GSN 4220 1497 M -54 0 rL SGR
helvS (0.05) 560 1497 ylabelresid

%
% X axis - residual panel
%
GSN L5 620 983 M 4220 983 L SDA G50 SGR

end
showpage
%%Trailer
%%EOF
