%!PS-Adobe-3.0 EPSF-3.0
%%BoundingBox: 0 0 514 550
%%Creator: BioKin Ltd.
%%DocumentFonts: Symbol Helvetica
%%EndComments
%
/bkdict 256 dict def
bkdict begin
/M {moveto} def 
/R {rmoveto} def
/L {lineto} def
/rL {rlineto} def
/GSN {gsave newpath} def
/SGR {stroke grestore} def
/COSGR {gsave setrgbcolor stroke grestore grestore} def
/SL {setlinewidth} def
/LWMB {12} def             % line width - model curves, black & white
/LWMC {10} def             % line width - model curves, color
/L2 {2.5 setlinewidth} def
/L5 {5 setlinewidth} def
/L10 {10 setlinewidth} def
/G50 {0.5 setgray} def
/SDA {[10  20] 0 setdash} def % axes
/helvT {/Helvetica findfont 100 scalefont setfont} def % tiny
/helvS {/Helvetica findfont 125 scalefont setfont} def % small
/helvM {/Helvetica findfont 150 scalefont setfont} def % medium
/helvL {/Helvetica findfont 175 scalefont setfont} def % large
/xlabel {gsave M dup
   stringwidth exch -0.5 mul exch rmoveto show grestore} def 
/ylabel {gsave M 90 rotate dup
   stringwidth exch -0.5 mul exch rmoveto show grestore} def
/ylabelresid {gsave M dup
   stringwidth exch -1 mul exch rmoveto show grestore} def
% ======
% Shapes
% ======
% Circle:
/Circ {0 360 arc closepath} def
%
% Square:
/Squa {dup dup -0.5 mul dup dup R -2 mul 0 exch rL 1 mul 0 rL dup 0 exch -1 mul rL closepath} def
%
% Triangle Up:
/TriU {dup dup dup -0.4 mul exch -0.5 mul exch R dup 0.5 mul exch rL dup -1 mul exch 0.5 mul exch rL closepath} def 
%
% Triangle Down:
/TriD {dup dup dup 0.4 mul exch -0.5 mul exch R dup 0.5 mul exch -1 mul rL dup 0.5 mul exch rL closepath} def 
%
% Diamond:
/Diam {45 rotate Squa} def
% ======
% Fills
% ======
/GRF {gsave setgray fill grestore} def                    % gray-level Fill
/COF {gsave setrgbcolor fill grestore} def                % color fill
% ======
% Colors
% ======
/C01 {1.00	0.00	0.00} def      % Red
/C02 {0.00	0.00	1.00} def      % Blue
/C03 {0.00	0.39	0.00} def      % Dark Green
/C04 {0.78	0.08	0.52} def      % Medium Violet Red
/C05 {0.55	0.27	0.07} def      % Saddle Brown
/C06 {0.10	0.70	0.70} def      % (cyan)
/C07 {1.00	0.55	0.00} def      % Dark Orange
/C08 {0.63	0.13	0.94} def      % Purple
/C09 {0.00	0.75	1.00} def      % Deep Sky Blue
/C10 {0.20	0.80	0.20} def      % Lime Green
/C11 {0.47	0.53	0.60} def      % Light Slate Gray
/C12 {0.00	0.00	0.00} def      % Black            % or: {0.19	0.31	0.31} def      % Dark Slate Gray
%
/LGR {0.75} def % light gray
/DGR {0.33} def % dark gray
%
% =============
% Dash patterns
% =============
/dash01 { [80  20] 0 setdash } def
/dash02 { [40  20] 0 setdash } def
/dash03 { [80  20  10  20] 0 setdash } def
/dash04 { [40  20  10  20] 0 setdash } def
/dash05 { [80  20  10  10  10  20] 0 setdash } def
/dash06 { [40  20  10  10  10  20] 0 setdash } def
/dash07 { [10  10] 0 setdash } def
%
/MFshow {
   { dup 5 get 3 ge
     { 5 get 3 eq {gsave} {grestore} ifelse }
     {dup dup 0 get findfont exch 1 get scalefont setfont
     [ currentpoint ] exch dup 2 get 0 exch R dup 5 get 2 ne {dup dup 6
     get exch 4 get {show} {stringwidth pop 0 R} ifelse }if dup 5 get 0 eq
     {dup 3 get {2 get neg 0 exch R pop} {pop aload pop M} ifelse} {dup 5
     get 1 eq {dup 2 get exch dup 3 get exch 6 get stringwidth pop -2 div
     dup 0 R} {dup 6 get stringwidth pop -2 div 0 R 6 get
     show 2 index {aload pop M neg 3 -1 roll neg R pop pop} {pop pop pop
     pop aload pop M} ifelse }ifelse }ifelse }
     ifelse }
   forall} bind def
/MFwidth {0 exch {dup 3 get{dup dup 0 get findfont exch 1 get scalefont
     setfont 6 get stringwidth pop add} {pop} ifelse} forall} bind def
/MCshow { currentpoint stroke M
  exch dup MFwidth -2 div 3 -1 roll R MFshow } def
%
end
%%EndProlog
bkdict begin
0.1 0.1 scale
%
% Residuals:
%
GSN 620 2281 M
620 2136 L
620 3169 L
620 2791 L
620 3525 L
620 3122 L
620 3345 L
620 3394 L
620 3151 L
620 2959 L
620 3383 L
620 3271 L
620 3802 L
620 3308 L
620 3533 L
620 3524 L
620 3605 L
620 3495 L
620 3401 L
620 3480 L
620 3202 L
620 3341 L
620 3775 L
620 3506 L
620 3365 L
620 3973 L
620 3707 L
620 3803 L
620 3705 L
620 3935 L
620 3796 L
620 3388 L
620 3960 L
620 3433 L
620 4154 L
620 4181 L
620 3505 L
620 4236 L
620 3240 L
620 4339 L
620 3946 L
620 4233 L
620 3719 L
620 4235 L
620 4184 L
620 3856 L
620 3832 L
620 3949 L
620 4266 L
620 4082 L
620 4019 L
620 4319 L
620 4001 L
620 3988 L
620 4045 L
620 4116 L
620 3917 L
620 4335 L
620 4201 L
620 3878 L
620 3858 L
620 4537 L
620 3740 L
620 4424 L
620 3805 L
620 4296 L
620 3578 L
620 4019 L
620 3548 L
620 4051 L
620 4118 L
620 3834 L
620 3801 L
620 4250 L
620 3549 L
620 3523 L
620 4288 L
620 3614 L
620 3635 L
620 3921 L
620 4379 L
620 3559 L
620 3564 L
620 3929 L
620 3936 L
620 3873 L
620 4089 L
620 3976 L
620 3585 L
620 3484 L
620 3346 L
620 3607 L
620 3715 L
620 3814 L
620 3129 L
620 3350 L
620 3880 L
620 3685 L
620 3108 L
620 4018 L
620 3861 L
620 3650 L
620 3690 L
620 3539 L
620 3643 L
620 3288 L
620 2891 L
620 3264 L
620 3109 L
620 3586 L
620 3573 L
620 3640 L
620 3485 L
620 3138 L
620 3126 L
620 3613 L
620 2898 L
620 3401 L
620 2653 L
620 3526 L
620 2906 L
620 2964 L
620 3130 L
620 3645 L
620 3205 L
620 3775 L
620 3681 L
620 2734 L
620 3275 L
620 2775 L
620 3347 L
620 3164 L
620 2936 L
620 2399 L
620 3407 L
620 2895 L
620 3029 L
620 3404 L
620 3597 L
620 3112 L
620 3130 L
620 2718 L
620 2798 L
620 2739 L
620 3096 L
620 3183 L
620 3396 L
620 3007 L
620 3443 L
620 3153 L
620 3047 L
620 3046 L
620 2891 L
620 2688 L
620 2899 L
620 2972 L
620 2872 L
620 2780 L
620 3058 L
620 2990 L
620 3107 L
620 3402 L
620 3498 L
620 3563 L
620 3061 L
620 3429 L
620 3857 L
620 3163 L
620 3262 L
620 3114 L
620 3674 L
620 3001 L
620 3086 L
620 3419 L
620 3451 L
620 3302 L
620 2950 L
620 3468 L
620 3518 L
620 3225 L
620 3061 L
620 3478 L
620 3434 L
620 3347 L
620 2866 L
620 3478 L
620 3175 L
620 3318 L
620 3011 L
620 4081 L
620 3638 L
620 2992 L
620 3915 L
620 3039 L
620 3494 L
620 3868 L
620 3512 L
620 3635 L
620 3687 L
620 3859 L
620 3650 L
620 3874 L
620 2850 L
620 3154 L
620 3585 L
620 3389 L
620 3421 L
620 3310 L
620 3513 L
620 3331 L
620 3436 L
620 3507 L
620 3845 L
620 3689 L
620 3556 L
620 3773 L
620 3350 L
620 3511 L
620 3264 L
620 3446 L
620 3407 L
620 3879 L
620 3603 L
620 3439 L
620 3450 L
620 3799 L
620 4219 L
620 3551 L
620 3845 L
620 3167 L
620 3503 L
620 3563 L
620 3601 L
620 3486 L
620 3808 L
620 3930 L
620 3654 L
620 4028 L
620 3420 L
620 2962 L
620 3867 L
620 3301 L
620 4049 L
620 4098 L
620 3738 L
620 2893 L
620 3696 L
620 4133 L
620 3784 L
620 3396 L
620 3844 L
620 3945 L
620 4175 L
620 3662 L
620 3680 L
620 3844 L
620 3967 L
620 3781 L
620 3865 L
620 3792 L
620 3848 L
620 3513 L
620 3690 L
620 4026 L
620 3802 L
620 3603 L
620 3806 L
620 3712 L
620 3670 L
620 3572 L
620 3118 L
620 3415 L
620 3838 L
620 4093 L
620 3792 L
620 3886 L
620 4075 L
620 3614 L
620 3981 L
620 3803 L
620 3619 L
620 4108 L
620 3973 L
620 4724 L
620 4192 L
620 3922 L
620 3894 L
620 3694 L
620 4216 L
620 3922 L
620 4379 L
620 4062 L
620 4528 L
620 4490 L
620 4407 L
620 4756 L
620 4449 L
620 4332 L
620 4439 L
620 4710 L
620 4621 L
620 4202 L
620 4696 L
620 4323 L
620 4281 L
620 4761 L
620 3852 L
620 4523 L
620 4271 L
620 4551 L
620 4700 L
620 3973 L
620 4062 L
620 4621 L
620 4747 L
620 4588 L
620 4136 L
620 3671 L
620 4505 L
620 4001 L
620 3904 L
620 4309 L
620 4658 L
620 3885 L
620 4118 L
620 4383 L
620 4146 L
620 4449 L
620 4477 L
620 4863 L
620 4532 L
620 4789 L
620 4034 L
620 4532 L
620 4323 L
620 4770 L
620 4011 L
620 3773 L
620 3694 L
620 4626 L
620 4160 L
620 4705 L
620 4300 L
620 4295 L
620 4351 L
620 4393 L
620 4369 L
620 3945 L
620 4104 L
620 4388 L
620 4402 L
620 4062 L
620 3815 L
620 4085 L
620 4118 L
620 3894 L
620 3899 L
620 3927 L
620 4006 L
620 4369 L
620 4388 L
620 3950 L
620 4197 L
620 3606 L
620 3899 L
620 3853 L
620 4206 L
620 4425 L
620 3573 L
620 4193 L
620 3647 L
620 3647 L
620 3731 L
620 3852 L
620 3722 L
620 3690 L
620 3959 L
620 3792 L
620 4132 L
620 3647 L
620 3652 L
620 4216 L
620 3508 L
620 4169 L
620 3750 L
620 4062 L
620 3876 L
620 4104 L
620 3596 L
620 3885 L
620 3699 L
620 3614 L
620 3778 L
620 3834 L
620 4123 L
620 3116 L
620 4164 L
620 3661 L
620 3559 L
620 4057 L
620 3484 L
620 3690 L
620 3615 L
620 3592 L
620 3596 L
620 3410 L
620 4118 L
620 3386 L
620 3503 L
620 3577 L
620 3363 L
620 3279 L
620 3675 L
620 3964 L
620 3671 L
620 3768 L
620 3885 L
620 4267 L
620 3806 L
620 4034 L
620 4337 L
620 4015 L
620 3596 L
620 3694 L
620 4211 L
620 3722 L
620 3703 L
620 3079 L
620 4146 L
620 3275 L
620 3619 L
620 3829 L
620 3661 L
620 3391 L
620 3610 L
620 3969 L
620 3885 L
620 4081 L
620 4290 L
620 3587 L
620 4421 L
620 3685 L
620 3769 L
620 3419 L
620 3773 L
620 3470 L
620 3931 L
620 3526 L
620 3820 L
620 3605 L
620 3759 L
620 3810 L
620 3465 L
620 4034 L
620 3368 L
620 3969 L
620 3787 L
620 4011 L
620 3582 L
620 3237 L
620 3391 L
620 3359 L
620 3652 L
620 3838 L
620 3652 L
620 3498 L
620 4160 L
620 3396 L
620 4225 L
620 4099 L
620 2925 L
620 3363 L
620 3596 L
620 4188 L
620 3424 L
620 3885 L
620 3843 L
620 3321 L
620 3070 L
620 3522 L
620 3666 L
620 3806 L
620 3843 L
620 3587 L
620 3643 L
620 3941 L
620 3391 L
620 3391 L
620 3889 L
620 3820 L
620 3619 L
620 3391 L
620 3601 L
620 4067 L
620 3256 L
620 3014 L
620 3116 L
620 3843 L
620 3657 L
620 3377 L
620 4090 L
620 3806 L
620 3433 L
620 3279 L
620 3363 L
620 3498 L
620 3582 L
620 3405 L
620 3219 L
620 3927 L
620 3400 L
620 3545 L
620 4141 L
620 3498 L
620 3028 L
620 3736 L
620 3153 L
620 3908 L
620 3778 L
620 3619 L
620 3349 L
620 4038 L
620 3256 L
620 3694 L
620 3512 L
620 4053 L
620 3703 L
620 3540 L
620 3689 L
620 3759 L
620 3983 L
620 3610 L
620 3708 L
L2 C02 COSGR

%
%================
% Legend - Begin
%================
%
GSN 4240 5180 M
4480 5180 L
LWMC SL  C02 COSGR
GSN 4540 5141 M helvM (1.0 uM) show grestore
%
%================
% Legend - End
%================
%

%
% Main frame
%
L10
GSN 
620 1700 M
4220 1700 L
4220 5300 L
620 5300 L
closepath SGR

%
% X axis: large tics
%
L10
%
% X axis: small tics
%
L5
%
% Y axis: large tics
%
L10
GSN 620 1874 M 54 0 rL SGR
GSN 4220 1874 M -54 0 rL SGR
helvS (-0.02) 560 1874 ylabel
GSN 620 2789 M 54 0 rL SGR
GSN 4220 2789 M -54 0 rL SGR
helvS (-0.01) 560 2789 ylabel
GSN 620 3705 M 54 0 rL SGR
GSN 4220 3705 M -54 0 rL SGR
helvS (0) 560 3705 ylabel
GSN 620 4621 M 54 0 rL SGR
GSN 4220 4621 M -54 0 rL SGR
helvS (0.01) 560 4621 ylabel
%
% Y axis: small tics
%
L5
GSN 620 1874 M 36 0 rL SGR
GSN 4220 1874 M -36 0 rL SGR
GSN 620 2103 M 36 0 rL SGR
GSN 4220 2103 M -36 0 rL SGR
GSN 620 2332 M 36 0 rL SGR
GSN 4220 2332 M -36 0 rL SGR
GSN 620 2561 M 36 0 rL SGR
GSN 4220 2561 M -36 0 rL SGR
GSN 620 2789 M 36 0 rL SGR
GSN 4220 2789 M -36 0 rL SGR
GSN 620 3018 M 36 0 rL SGR
GSN 4220 3018 M -36 0 rL SGR
GSN 620 3247 M 36 0 rL SGR
GSN 4220 3247 M -36 0 rL SGR
GSN 620 3476 M 36 0 rL SGR
GSN 4220 3476 M -36 0 rL SGR
GSN 620 3705 M 36 0 rL SGR
GSN 4220 3705 M -36 0 rL SGR
GSN 620 3934 M 36 0 rL SGR
GSN 4220 3934 M -36 0 rL SGR
GSN 620 4163 M 36 0 rL SGR
GSN 4220 4163 M -36 0 rL SGR
GSN 620 4392 M 36 0 rL SGR
GSN 4220 4392 M -36 0 rL SGR
GSN 620 4621 M 36 0 rL SGR
GSN 4220 4621 M -36 0 rL SGR
GSN 620 4850 M 36 0 rL SGR
GSN 4220 4850 M -36 0 rL SGR
GSN 620 5079 M 36 0 rL SGR
GSN 4220 5079 M -36 0 rL SGR

%
% X axis - residual panel
%
GSN L5 620 3705 M 4220 3705 L SDA G50 SGR

%
% X-Axis label:
%
gsave 620 1370 M 
[
[(Helvetica) 180 0 true true 0 (t)]
[(Helvetica) 180 0 true true 0 (i)]
[(Helvetica) 180 0 true true 0 (m)]
[(Helvetica) 180 0 true true 0 (e)]
] 0 MCshow grestore

%
% Y-Axis label:
%
gsave 234 3500 M 
currentpoint gsave translate 90 rotate 0 0 moveto
[
[(Helvetica) 180 0 true true 0 (r)]
[(Helvetica) 180 0 true true 0 (e)]
[(Helvetica) 180 0 true true 0 (s)]
[(Helvetica) 180 0 true true 0 (i)]
[(Helvetica) 180 0 true true 0 (d)]
[(Helvetica) 180 0 true true 0 (u)]
[(Helvetica) 180 0 true true 0 (a)]
[(Helvetica) 180 0 true true 0 (l)]
[(Helvetica) 180 0 true true 0 (s)]
] 0 MCshow grestore

end
showpage
%%Trailer
%%EOF
