%!PS-Adobe-3.0 EPSF-3.0
%%BoundingBox: 0 0 514 550
%%Creator: BioKin Ltd.
%%DocumentFonts: Symbol Helvetica
%%EndComments
%
/bkdict 256 dict def
bkdict begin
/M {moveto} def 
/R {rmoveto} def
/L {lineto} def
/rL {rlineto} def
/GSN {gsave newpath} def
/SGR {stroke grestore} def
/COSGR {gsave setrgbcolor stroke grestore grestore} def
/SL {setlinewidth} def
/LWMB {12} def             % line width - model curves, black & white
/LWMC {10} def             % line width - model curves, color
/L2 {2.5 setlinewidth} def
/L5 {5 setlinewidth} def
/L10 {10 setlinewidth} def
/G50 {0.5 setgray} def
/SDA {[10  20] 0 setdash} def % axes
/helvT {/Helvetica findfont 100 scalefont setfont} def % tiny
/helvS {/Helvetica findfont 125 scalefont setfont} def % small
/helvM {/Helvetica findfont 150 scalefont setfont} def % medium
/helvL {/Helvetica findfont 175 scalefont setfont} def % large
/xlabel {gsave M dup
   stringwidth exch -0.5 mul exch rmoveto show grestore} def 
/ylabel {gsave M 90 rotate dup
   stringwidth exch -0.5 mul exch rmoveto show grestore} def
/ylabelresid {gsave M dup
   stringwidth exch -1 mul exch rmoveto show grestore} def
% ======
% Shapes
% ======
% Circle:
/Circ {0 360 arc closepath} def
%
% Square:
/Squa {dup dup -0.5 mul dup dup R -2 mul 0 exch rL 1 mul 0 rL dup 0 exch -1 mul rL closepath} def
%
% Triangle Up:
/TriU {dup dup dup -0.4 mul exch -0.5 mul exch R dup 0.5 mul exch rL dup -1 mul exch 0.5 mul exch rL closepath} def 
%
% Triangle Down:
/TriD {dup dup dup 0.4 mul exch -0.5 mul exch R dup 0.5 mul exch -1 mul rL dup 0.5 mul exch rL closepath} def 
%
% Diamond:
/Diam {45 rotate Squa} def
% ======
% Fills
% ======
/GRF {gsave setgray fill grestore} def                    % gray-level Fill
/COF {gsave setrgbcolor fill grestore} def                % color fill
% ======
% Colors
% ======
/C01 {1.00	0.00	0.00} def      % Red
/C02 {0.00	0.00	1.00} def      % Blue
/C03 {0.00	0.39	0.00} def      % Dark Green
/C04 {0.78	0.08	0.52} def      % Medium Violet Red
/C05 {0.55	0.27	0.07} def      % Saddle Brown
/C06 {0.10	0.70	0.70} def      % (cyan)
/C07 {1.00	0.55	0.00} def      % Dark Orange
/C08 {0.63	0.13	0.94} def      % Purple
/C09 {0.00	0.75	1.00} def      % Deep Sky Blue
/C10 {0.20	0.80	0.20} def      % Lime Green
/C11 {0.47	0.53	0.60} def      % Light Slate Gray
/C12 {0.00	0.00	0.00} def      % Black            % or: {0.19	0.31	0.31} def      % Dark Slate Gray
%
/LGR {0.75} def % light gray
/DGR {0.33} def % dark gray
%
% =============
% Dash patterns
% =============
/dash01 { [80  20] 0 setdash } def
/dash02 { [40  20] 0 setdash } def
/dash03 { [80  20  10  20] 0 setdash } def
/dash04 { [40  20  10  20] 0 setdash } def
/dash05 { [80  20  10  10  10  20] 0 setdash } def
/dash06 { [40  20  10  10  10  20] 0 setdash } def
/dash07 { [10  10] 0 setdash } def
%
/MFshow {
   { dup 5 get 3 ge
     { 5 get 3 eq {gsave} {grestore} ifelse }
     {dup dup 0 get findfont exch 1 get scalefont setfont
     [ currentpoint ] exch dup 2 get 0 exch R dup 5 get 2 ne {dup dup 6
     get exch 4 get {show} {stringwidth pop 0 R} ifelse }if dup 5 get 0 eq
     {dup 3 get {2 get neg 0 exch R pop} {pop aload pop M} ifelse} {dup 5
     get 1 eq {dup 2 get exch dup 3 get exch 6 get stringwidth pop -2 div
     dup 0 R} {dup 6 get stringwidth pop -2 div 0 R 6 get
     show 2 index {aload pop M neg 3 -1 roll neg R pop pop} {pop pop pop
     pop aload pop M} ifelse }ifelse }ifelse }
     ifelse }
   forall} bind def
/MFwidth {0 exch {dup 3 get{dup dup 0 get findfont exch 1 get scalefont
     setfont 6 get stringwidth pop add} {pop} ifelse} forall} bind def
/MCshow { currentpoint stroke M
  exch dup MFwidth -2 div 3 -1 roll R MFshow } def
%
end
%%EndProlog
bkdict begin
0.1 0.1 scale
%
% Residuals:
%
GSN 620 3671 M
620 3044 L
620 2798 L
620 3362 L
620 3371 L
620 3094 L
620 3117 L
620 3149 L
620 3290 L
620 3284 L
620 3055 L
620 3441 L
620 3063 L
620 3169 L
620 3753 L
620 3344 L
620 3462 L
620 3185 L
620 3316 L
620 3384 L
620 3415 L
620 3253 L
620 3132 L
620 3274 L
620 3723 L
620 3401 L
620 3574 L
620 3450 L
620 3628 L
620 3634 L
620 3686 L
620 3540 L
620 3397 L
620 3236 L
620 3476 L
620 3490 L
620 3350 L
620 3650 L
620 3867 L
620 3725 L
620 3684 L
620 3479 L
620 3773 L
620 3335 L
620 3421 L
620 3565 L
620 3674 L
620 3582 L
620 3617 L
620 3621 L
620 3410 L
620 3465 L
620 3493 L
620 3347 L
620 2988 L
620 3750 L
620 3416 L
620 3490 L
620 3396 L
620 3814 L
620 3464 L
620 3298 L
620 4044 L
620 3254 L
620 3638 L
620 3565 L
620 3361 L
620 3477 L
620 3412 L
620 3740 L
620 3511 L
620 3192 L
620 3693 L
620 3949 L
620 3528 L
620 3475 L
620 3647 L
620 3220 L
620 3463 L
620 3510 L
620 3454 L
620 3175 L
620 3289 L
620 3658 L
620 3086 L
620 3203 L
620 3390 L
620 3288 L
620 3094 L
620 2956 L
620 2962 L
620 3026 L
620 2468 L
620 2948 L
620 2730 L
620 3245 L
620 2708 L
620 2896 L
620 2390 L
620 2616 L
620 2658 L
620 2466 L
620 2794 L
620 2523 L
620 2830 L
620 2858 L
620 2615 L
620 2399 L
620 2406 L
620 2822 L
620 2543 L
620 2454 L
620 2497 L
620 2694 L
620 2481 L
620 2577 L
620 2410 L
620 2673 L
620 2698 L
620 2602 L
620 2649 L
620 2673 L
620 2365 L
620 2942 L
620 2789 L
620 2136 L
620 2706 L
620 2609 L
620 2791 L
620 2564 L
620 2646 L
620 2429 L
620 2683 L
620 2696 L
620 3019 L
620 2322 L
620 2658 L
620 2844 L
620 2889 L
620 2843 L
620 2811 L
620 2467 L
620 2519 L
620 2761 L
620 2630 L
620 2756 L
620 2825 L
620 2771 L
620 2838 L
620 2878 L
620 2595 L
620 2880 L
620 2736 L
620 2602 L
620 3004 L
620 3047 L
620 2658 L
620 2696 L
620 3097 L
620 3011 L
620 2989 L
620 2993 L
620 2654 L
620 2991 L
620 3103 L
620 3034 L
620 2795 L
620 2835 L
620 2853 L
620 3059 L
620 3075 L
620 3074 L
620 2859 L
620 3269 L
620 3150 L
620 2715 L
620 3303 L
620 2869 L
620 2921 L
620 3059 L
620 3000 L
620 3241 L
620 3050 L
620 3241 L
620 3238 L
620 3155 L
620 3079 L
620 3239 L
620 2945 L
620 3147 L
620 3462 L
620 2894 L
620 3495 L
620 3080 L
620 2819 L
620 3144 L
620 3498 L
620 2842 L
620 3011 L
620 3322 L
620 3414 L
620 3114 L
620 3048 L
620 3087 L
620 3542 L
620 3262 L
620 3371 L
620 3470 L
620 3474 L
620 3453 L
620 3694 L
620 3420 L
620 3623 L
620 3451 L
620 3485 L
620 3039 L
620 3268 L
620 3578 L
620 2996 L
620 3325 L
620 3369 L
620 3297 L
620 3642 L
620 3378 L
620 3507 L
620 3458 L
620 3474 L
620 3401 L
620 3450 L
620 3720 L
620 3279 L
620 3446 L
620 3286 L
620 3287 L
620 3524 L
620 3303 L
620 3578 L
620 3456 L
620 3650 L
620 3591 L
620 3837 L
620 3791 L
620 3645 L
620 3686 L
620 3466 L
620 3528 L
620 3310 L
620 3689 L
620 3588 L
620 3396 L
620 3696 L
620 3618 L
620 3753 L
620 3370 L
620 3411 L
620 4082 L
620 4022 L
620 3429 L
620 3707 L
620 3894 L
620 3688 L
620 3665 L
620 3769 L
620 3659 L
620 4028 L
620 3442 L
620 3685 L
620 3736 L
620 3584 L
620 3770 L
620 3800 L
620 3808 L
620 3699 L
620 3911 L
620 3816 L
620 3572 L
620 3599 L
620 3896 L
620 3822 L
620 3861 L
620 3646 L
620 4217 L
620 3842 L
620 3964 L
620 4399 L
620 4108 L
620 4428 L
620 4426 L
620 4607 L
620 4113 L
620 4507 L
620 4417 L
620 4530 L
620 4186 L
620 4299 L
620 4088 L
620 4211 L
620 4687 L
620 4361 L
620 4529 L
620 4252 L
620 4084 L
620 4115 L
620 3955 L
620 4246 L
620 4367 L
620 4514 L
620 4102 L
620 4273 L
620 4863 L
620 4149 L
620 4332 L
620 4169 L
620 4678 L
620 3924 L
620 4483 L
620 4369 L
620 4631 L
620 4277 L
620 4254 L
620 4287 L
620 4192 L
620 4678 L
620 4507 L
620 4160 L
620 4040 L
620 4071 L
620 4207 L
620 4647 L
620 4178 L
620 4259 L
620 4235 L
620 4566 L
620 4422 L
620 4085 L
620 4403 L
620 4174 L
620 4355 L
620 4122 L
620 4340 L
620 4387 L
620 4288 L
620 4144 L
620 4627 L
620 4129 L
620 4579 L
620 4194 L
620 4247 L
620 4368 L
620 3620 L
620 4048 L
620 4211 L
620 4226 L
620 4416 L
620 4366 L
620 4380 L
620 4153 L
620 3903 L
620 4223 L
620 4187 L
620 4325 L
620 4020 L
620 4052 L
620 3787 L
620 4218 L
620 4135 L
620 3939 L
620 4135 L
620 3957 L
620 4384 L
620 3906 L
620 4606 L
620 4208 L
620 3764 L
620 4169 L
620 3981 L
620 4056 L
620 4496 L
620 3787 L
620 3806 L
620 4144 L
620 4011 L
620 3845 L
620 4005 L
620 4155 L
620 4039 L
620 3669 L
620 3945 L
620 3385 L
620 3729 L
620 4012 L
620 4021 L
620 3822 L
620 3574 L
620 4105 L
620 3746 L
620 3390 L
620 4277 L
620 3612 L
620 3577 L
620 4322 L
620 3784 L
620 3596 L
620 3909 L
620 3743 L
620 3648 L
620 4068 L
620 4021 L
620 3817 L
620 3717 L
620 3786 L
620 3542 L
620 3550 L
620 3745 L
620 3626 L
620 3787 L
620 3832 L
620 3540 L
620 3642 L
620 3905 L
620 3294 L
620 4212 L
620 3697 L
620 4068 L
620 3983 L
620 3562 L
620 3718 L
620 3603 L
620 3798 L
620 3760 L
620 3443 L
620 3414 L
620 3955 L
620 3456 L
620 3685 L
620 3815 L
620 3539 L
620 3571 L
620 3615 L
620 3560 L
620 3458 L
620 3452 L
620 3769 L
620 3533 L
620 3662 L
620 3225 L
620 3631 L
620 3622 L
620 3420 L
620 3513 L
620 3549 L
620 3827 L
620 3782 L
620 3594 L
620 3431 L
620 3309 L
620 3667 L
620 3746 L
620 3511 L
620 3415 L
620 3448 L
620 4004 L
620 3762 L
620 3519 L
620 3291 L
620 3250 L
620 3726 L
620 3680 L
620 3679 L
620 3765 L
620 3651 L
620 3474 L
620 3330 L
620 3538 L
620 3315 L
620 3365 L
620 3650 L
620 3812 L
620 3416 L
620 3373 L
620 3458 L
620 3826 L
620 3423 L
620 3391 L
620 3787 L
620 3815 L
620 3527 L
620 3858 L
620 2971 L
620 3021 L
620 3761 L
620 3564 L
620 3145 L
620 3595 L
620 3512 L
620 3936 L
620 3575 L
620 3886 L
620 3213 L
620 3877 L
620 3531 L
620 3586 L
620 3556 L
620 3519 L
620 3354 L
620 3449 L
620 3433 L
620 3446 L
620 3526 L
620 3295 L
620 2986 L
620 3684 L
620 3300 L
620 3189 L
620 3360 L
620 3432 L
620 3590 L
620 3626 L
620 3104 L
620 3599 L
620 3557 L
620 3294 L
620 3564 L
620 3215 L
620 3255 L
620 3661 L
620 3426 L
620 3459 L
620 3135 L
620 3514 L
620 2882 L
620 3304 L
620 3518 L
L2 C05 COSGR

%
%================
% Legend - Begin
%================
%
GSN 4240 5180 M
4480 5180 L
LWMC SL  C05 COSGR
GSN 4540 5141 M helvM (2.5 uM) show grestore
%
%================
% Legend - End
%================
%

%
% Main frame
%
L10
GSN 
620 1700 M
4220 1700 L
4220 5300 L
620 5300 L
closepath SGR

%
% X axis: large tics
%
L10
%
% X axis: small tics
%
L5
%
% Y axis: large tics
%
L10
GSN 620 1917 M 54 0 rL SGR
GSN 4220 1917 M -54 0 rL SGR
helvS (-0.02) 560 1917 ylabel
GSN 620 2722 M 54 0 rL SGR
GSN 4220 2722 M -54 0 rL SGR
helvS (-0.01) 560 2722 ylabel
GSN 620 3526 M 54 0 rL SGR
GSN 4220 3526 M -54 0 rL SGR
helvS (0) 560 3526 ylabel
GSN 620 4331 M 54 0 rL SGR
GSN 4220 4331 M -54 0 rL SGR
helvS (0.01) 560 4331 ylabel
GSN 620 5136 M 54 0 rL SGR
GSN 4220 5136 M -54 0 rL SGR
helvS (0.02) 560 5136 ylabel
%
% Y axis: small tics
%
L5
GSN 620 1716 M 36 0 rL SGR
GSN 4220 1716 M -36 0 rL SGR
GSN 620 1917 M 36 0 rL SGR
GSN 4220 1917 M -36 0 rL SGR
GSN 620 2118 M 36 0 rL SGR
GSN 4220 2118 M -36 0 rL SGR
GSN 620 2319 M 36 0 rL SGR
GSN 4220 2319 M -36 0 rL SGR
GSN 620 2520 M 36 0 rL SGR
GSN 4220 2520 M -36 0 rL SGR
GSN 620 2722 M 36 0 rL SGR
GSN 4220 2722 M -36 0 rL SGR
GSN 620 2923 M 36 0 rL SGR
GSN 4220 2923 M -36 0 rL SGR
GSN 620 3124 M 36 0 rL SGR
GSN 4220 3124 M -36 0 rL SGR
GSN 620 3325 M 36 0 rL SGR
GSN 4220 3325 M -36 0 rL SGR
GSN 620 3526 M 36 0 rL SGR
GSN 4220 3526 M -36 0 rL SGR
GSN 620 3728 M 36 0 rL SGR
GSN 4220 3728 M -36 0 rL SGR
GSN 620 3929 M 36 0 rL SGR
GSN 4220 3929 M -36 0 rL SGR
GSN 620 4130 M 36 0 rL SGR
GSN 4220 4130 M -36 0 rL SGR
GSN 620 4331 M 36 0 rL SGR
GSN 4220 4331 M -36 0 rL SGR
GSN 620 4532 M 36 0 rL SGR
GSN 4220 4532 M -36 0 rL SGR
GSN 620 4734 M 36 0 rL SGR
GSN 4220 4734 M -36 0 rL SGR
GSN 620 4935 M 36 0 rL SGR
GSN 4220 4935 M -36 0 rL SGR
GSN 620 5136 M 36 0 rL SGR
GSN 4220 5136 M -36 0 rL SGR

%
% X axis - residual panel
%
GSN L5 620 3526 M 4220 3526 L SDA G50 SGR

%
% X-Axis label:
%
gsave 620 1370 M 
[
[(Helvetica) 180 0 true true 0 (t)]
[(Helvetica) 180 0 true true 0 (i)]
[(Helvetica) 180 0 true true 0 (m)]
[(Helvetica) 180 0 true true 0 (e)]
] 0 MCshow grestore

%
% Y-Axis label:
%
gsave 234 3499 M 
currentpoint gsave translate 90 rotate 0 0 moveto
[
[(Helvetica) 180 0 true true 0 (r)]
[(Helvetica) 180 0 true true 0 (e)]
[(Helvetica) 180 0 true true 0 (s)]
[(Helvetica) 180 0 true true 0 (i)]
[(Helvetica) 180 0 true true 0 (d)]
[(Helvetica) 180 0 true true 0 (u)]
[(Helvetica) 180 0 true true 0 (a)]
[(Helvetica) 180 0 true true 0 (l)]
[(Helvetica) 180 0 true true 0 (s)]
] 0 MCshow grestore

end
showpage
%%Trailer
%%EOF
