%!PS-Adobe-3.0 EPSF-3.0
%%BoundingBox: 0 0 514 550
%%Creator: BioKin Ltd.
%%DocumentFonts: Symbol Helvetica
%%EndComments
%
/bkdict 256 dict def
bkdict begin
/M {moveto} def 
/R {rmoveto} def
/L {lineto} def
/rL {rlineto} def
/GSN {gsave newpath} def
/SGR {stroke grestore} def
/COSGR {gsave setrgbcolor stroke grestore grestore} def
/SL {setlinewidth} def
/LWMB {12} def             % line width - model curves, black & white
/LWMC {10} def             % line width - model curves, color
/L2 {2.5 setlinewidth} def
/L5 {5 setlinewidth} def
/L10 {10 setlinewidth} def
/G50 {0.5 setgray} def
/SDA {[10  20] 0 setdash} def % axes
/helvT {/Helvetica findfont 100 scalefont setfont} def % tiny
/helvS {/Helvetica findfont 125 scalefont setfont} def % small
/helvM {/Helvetica findfont 150 scalefont setfont} def % medium
/helvL {/Helvetica findfont 175 scalefont setfont} def % large
/xlabel {gsave M dup
   stringwidth exch -0.5 mul exch rmoveto show grestore} def 
/ylabel {gsave M 90 rotate dup
   stringwidth exch -0.5 mul exch rmoveto show grestore} def
/ylabelresid {gsave M dup
   stringwidth exch -1 mul exch rmoveto show grestore} def
% ======
% Shapes
% ======
% Circle:
/Circ {0 360 arc closepath} def
%
% Square:
/Squa {dup dup -0.5 mul dup dup R -2 mul 0 exch rL 1 mul 0 rL dup 0 exch -1 mul rL closepath} def
%
% Triangle Up:
/TriU {dup dup dup -0.4 mul exch -0.5 mul exch R dup 0.5 mul exch rL dup -1 mul exch 0.5 mul exch rL closepath} def 
%
% Triangle Down:
/TriD {dup dup dup 0.4 mul exch -0.5 mul exch R dup 0.5 mul exch -1 mul rL dup 0.5 mul exch rL closepath} def 
%
% Diamond:
/Diam {45 rotate Squa} def
% ======
% Fills
% ======
/GRF {gsave setgray fill grestore} def                    % gray-level Fill
/COF {gsave setrgbcolor fill grestore} def                % color fill
% ======
% Colors
% ======
/C01 {1.00	0.00	0.00} def      % Red
/C02 {0.00	0.00	1.00} def      % Blue
/C03 {0.00	0.39	0.00} def      % Dark Green
/C04 {0.78	0.08	0.52} def      % Medium Violet Red
/C05 {0.55	0.27	0.07} def      % Saddle Brown
/C06 {0.10	0.70	0.70} def      % (cyan)
/C07 {1.00	0.55	0.00} def      % Dark Orange
/C08 {0.63	0.13	0.94} def      % Purple
/C09 {0.00	0.75	1.00} def      % Deep Sky Blue
/C10 {0.20	0.80	0.20} def      % Lime Green
/C11 {0.47	0.53	0.60} def      % Light Slate Gray
/C12 {0.00	0.00	0.00} def      % Black            % or: {0.19	0.31	0.31} def      % Dark Slate Gray
%
/LGR {0.75} def % light gray
/DGR {0.33} def % dark gray
%
% =============
% Dash patterns
% =============
/dash01 { [80  20] 0 setdash } def
/dash02 { [40  20] 0 setdash } def
/dash03 { [80  20  10  20] 0 setdash } def
/dash04 { [40  20  10  20] 0 setdash } def
/dash05 { [80  20  10  10  10  20] 0 setdash } def
/dash06 { [40  20  10  10  10  20] 0 setdash } def
/dash07 { [10  10] 0 setdash } def
%
/MFshow {
   { dup 5 get 3 ge
     { 5 get 3 eq {gsave} {grestore} ifelse }
     {dup dup 0 get findfont exch 1 get scalefont setfont
     [ currentpoint ] exch dup 2 get 0 exch R dup 5 get 2 ne {dup dup 6
     get exch 4 get {show} {stringwidth pop 0 R} ifelse }if dup 5 get 0 eq
     {dup 3 get {2 get neg 0 exch R pop} {pop aload pop M} ifelse} {dup 5
     get 1 eq {dup 2 get exch dup 3 get exch 6 get stringwidth pop -2 div
     dup 0 R} {dup 6 get stringwidth pop -2 div 0 R 6 get
     show 2 index {aload pop M neg 3 -1 roll neg R pop pop} {pop pop pop
     pop aload pop M} ifelse }ifelse }ifelse }
     ifelse }
   forall} bind def
/MFwidth {0 exch {dup 3 get{dup dup 0 get findfont exch 1 get scalefont
     setfont 6 get stringwidth pop add} {pop} ifelse} forall} bind def
/MCshow { currentpoint stroke M
  exch dup MFwidth -2 div 3 -1 roll R MFshow } def
%
end
%%EndProlog
bkdict begin
0.1 0.1 scale
%
% Residuals:
%
GSN 620 4737 M
620 4260 L
620 4383 L
620 4824 L
620 4618 L
620 4461 L
620 4514 L
620 4527 L
620 4606 L
620 4509 L
620 4559 L
620 4190 L
620 4863 L
620 4321 L
620 4582 L
620 4699 L
620 4625 L
620 4720 L
620 4269 L
620 4485 L
620 4385 L
620 4193 L
620 4299 L
620 4450 L
620 4175 L
620 4546 L
620 4755 L
620 4483 L
620 4677 L
620 4391 L
620 4212 L
620 3794 L
620 4050 L
620 4105 L
620 4455 L
620 4450 L
620 4234 L
620 4263 L
620 4395 L
620 4381 L
620 4561 L
620 4820 L
620 4044 L
620 4220 L
620 3784 L
620 3990 L
620 3816 L
620 4205 L
620 4231 L
620 4138 L
620 4265 L
620 4382 L
620 3796 L
620 3229 L
620 3573 L
620 3921 L
620 4163 L
620 4440 L
620 3941 L
620 3758 L
620 3582 L
620 4135 L
620 3531 L
620 3740 L
620 4139 L
620 4028 L
620 3507 L
620 3842 L
620 3812 L
620 3606 L
620 3552 L
620 4013 L
620 3712 L
620 3853 L
620 3538 L
620 3833 L
620 3851 L
620 3792 L
620 3680 L
620 3691 L
620 3793 L
620 3480 L
620 3432 L
620 3559 L
620 3698 L
620 3612 L
620 3662 L
620 3697 L
620 3135 L
620 3246 L
620 3335 L
620 3876 L
620 3164 L
620 2722 L
620 3564 L
620 3055 L
620 3377 L
620 2873 L
620 3335 L
620 3190 L
620 2977 L
620 2779 L
620 3191 L
620 2995 L
620 2337 L
620 2934 L
620 2991 L
620 2385 L
620 3056 L
620 2783 L
620 3141 L
620 2573 L
620 3188 L
620 3171 L
620 3037 L
620 2820 L
620 2838 L
620 2891 L
620 2670 L
620 2762 L
620 2892 L
620 2857 L
620 2822 L
620 2443 L
620 2710 L
620 2647 L
620 2412 L
620 2605 L
620 2913 L
620 2461 L
620 2770 L
620 2482 L
620 2510 L
620 2419 L
620 2637 L
620 2574 L
620 2486 L
620 2511 L
620 2785 L
620 2423 L
620 2641 L
620 2377 L
620 2451 L
620 2525 L
620 2462 L
620 2413 L
620 2349 L
620 2402 L
620 2367 L
620 2585 L
620 2708 L
620 2434 L
620 2694 L
620 3048 L
620 2444 L
620 2357 L
620 2392 L
620 2816 L
620 2574 L
620 2564 L
620 3083 L
620 2960 L
620 2304 L
620 2753 L
620 2431 L
620 2718 L
620 2715 L
620 2687 L
620 2739 L
620 2736 L
620 2908 L
620 2444 L
620 3038 L
620 3013 L
620 2803 L
620 3199 L
620 2136 L
620 2550 L
620 2925 L
620 2567 L
620 2669 L
620 2694 L
620 2680 L
620 2817 L
620 2206 L
620 2855 L
620 3010 L
620 3655 L
620 2733 L
620 3455 L
620 2392 L
620 3101 L
620 2943 L
620 2420 L
620 2904 L
620 3003 L
620 2947 L
620 2554 L
620 2943 L
620 2676 L
620 2743 L
620 2771 L
620 2926 L
620 3003 L
620 2592 L
620 2687 L
620 2670 L
620 3157 L
620 3042 L
620 2596 L
620 3041 L
620 2873 L
620 3070 L
620 3357 L
620 3203 L
620 3133 L
620 3178 L
620 3189 L
620 3459 L
620 2968 L
620 3056 L
620 3407 L
620 3241 L
620 2866 L
620 2922 L
620 3277 L
620 2817 L
620 3322 L
620 2578 L
620 2915 L
620 3175 L
620 3410 L
620 3365 L
620 3147 L
620 3108 L
620 2933 L
620 2929 L
620 3049 L
620 2923 L
620 3186 L
620 2852 L
620 2821 L
620 2800 L
620 3070 L
620 2989 L
620 2982 L
620 3084 L
620 2828 L
620 3130 L
620 3396 L
620 3259 L
620 2803 L
620 3446 L
620 3589 L
620 3221 L
620 2951 L
620 2856 L
620 3091 L
620 3088 L
620 2828 L
620 2663 L
620 2895 L
620 2621 L
620 2810 L
620 3691 L
620 3425 L
620 3140 L
620 3193 L
620 3635 L
620 3558 L
620 3161 L
620 2691 L
620 2726 L
620 3519 L
620 3639 L
620 3186 L
620 3625 L
620 3390 L
620 2821 L
620 3190 L
620 2898 L
620 3074 L
620 3320 L
620 3229 L
620 3072 L
620 3514 L
620 3009 L
620 3448 L
620 3602 L
620 3420 L
620 3287 L
620 3543 L
620 3586 L
620 3488 L
620 3695 L
620 3779 L
620 3278 L
620 3443 L
620 3247 L
620 3591 L
620 2974 L
620 3220 L
620 3230 L
620 3287 L
620 3635 L
620 3259 L
620 3516 L
620 3860 L
620 3355 L
620 3408 L
620 3352 L
620 3594 L
620 3187 L
620 3279 L
620 3364 L
620 3381 L
620 3329 L
620 3354 L
620 3571 L
620 3038 L
620 3828 L
620 3927 L
620 3232 L
620 3576 L
620 2829 L
620 3366 L
620 3798 L
620 3139 L
620 2978 L
620 3262 L
620 3525 L
620 3863 L
620 3337 L
620 2993 L
620 3316 L
620 3372 L
620 3678 L
620 3240 L
620 3327 L
620 3212 L
620 3097 L
620 3584 L
620 3391 L
620 3157 L
620 3522 L
620 3291 L
620 3435 L
620 3730 L
620 3225 L
620 3081 L
620 3625 L
620 3520 L
620 3044 L
620 3059 L
620 3316 L
620 3008 L
620 3273 L
620 3389 L
620 3261 L
620 3918 L
620 2957 L
620 3516 L
620 3514 L
620 3841 L
620 3165 L
620 3289 L
620 3185 L
620 3460 L
620 2983 L
620 3283 L
620 3164 L
620 3214 L
620 3500 L
620 3009 L
620 3624 L
620 3720 L
620 3388 L
620 3147 L
620 3007 L
620 3584 L
620 3399 L
620 3568 L
620 2941 L
620 3300 L
620 3420 L
620 3295 L
620 3423 L
620 3217 L
620 3656 L
620 3268 L
620 3462 L
620 3340 L
620 3411 L
620 3423 L
620 3322 L
620 3355 L
620 3650 L
620 3090 L
620 3270 L
620 3489 L
620 3591 L
620 3126 L
620 3628 L
620 3405 L
620 3802 L
620 2996 L
620 3674 L
620 3489 L
620 3360 L
620 3197 L
620 3380 L
620 3416 L
620 3635 L
620 3604 L
620 2987 L
620 3122 L
620 3351 L
620 3180 L
620 3423 L
620 3652 L
620 2990 L
620 3121 L
620 3139 L
620 3562 L
620 2885 L
620 3272 L
620 3087 L
620 3320 L
620 3405 L
620 3529 L
620 3614 L
620 3471 L
620 3255 L
620 3544 L
620 3544 L
620 3531 L
620 3452 L
620 3319 L
620 2832 L
620 3212 L
620 3845 L
620 3691 L
620 3352 L
620 3504 L
620 3681 L
620 2902 L
620 3577 L
620 3539 L
620 3042 L
620 3447 L
620 2949 L
620 3336 L
620 3681 L
620 3781 L
620 3244 L
620 3877 L
620 3110 L
620 3461 L
620 3434 L
620 3842 L
620 3064 L
620 3739 L
620 3691 L
620 3471 L
620 3321 L
620 3399 L
620 3330 L
620 3854 L
620 3321 L
620 3515 L
620 3745 L
620 3391 L
620 3472 L
620 3382 L
620 3903 L
620 3380 L
620 3195 L
620 3744 L
620 3594 L
620 3683 L
620 3189 L
620 3643 L
620 3577 L
620 3799 L
620 3887 L
620 3716 L
620 3447 L
620 3620 L
620 3481 L
620 3629 L
620 4111 L
620 3554 L
620 3723 L
620 3384 L
620 3697 L
620 3435 L
620 3590 L
620 3577 L
620 3666 L
620 3291 L
620 3397 L
620 3128 L
620 3698 L
620 4109 L
620 2945 L
620 3894 L
620 3502 L
620 3386 L
620 3746 L
620 3834 L
620 3452 L
620 3927 L
620 3756 L
620 3392 L
620 3579 L
620 3541 L
620 3602 L
620 3891 L
620 3730 L
620 3503 L
620 4223 L
620 3522 L
620 3562 L
620 3801 L
620 3746 L
620 3189 L
620 3590 L
620 3075 L
620 3455 L
620 3663 L
620 3787 L
620 3420 L
620 3735 L
L2 C01 COSGR

%
%================
% Legend - Begin
%================
%
GSN 4240 5180 M
4480 5180 L
LWMC SL  C01 COSGR
GSN 4540 5141 M helvM (0.5 uM) show grestore
%
%================
% Legend - End
%================
%

%
% Main frame
%
L10
GSN 
620 1700 M
4220 1700 L
4220 5300 L
620 5300 L
closepath SGR

%
% X axis: large tics
%
L10
%
% X axis: small tics
%
L5
%
% Y axis: large tics
%
L10
GSN 620 1974 M 54 0 rL SGR
GSN 4220 1974 M -54 0 rL SGR
helvS (-0.02) 560 1974 ylabel
GSN 620 3354 M 54 0 rL SGR
GSN 4220 3354 M -54 0 rL SGR
helvS (0) 560 3354 ylabel
GSN 620 4734 M 54 0 rL SGR
GSN 4220 4734 M -54 0 rL SGR
helvS (0.02) 560 4734 ylabel
%
% Y axis: small tics
%
L5
GSN 620 1974 M 36 0 rL SGR
GSN 4220 1974 M -36 0 rL SGR
GSN 620 2319 M 36 0 rL SGR
GSN 4220 2319 M -36 0 rL SGR
GSN 620 2664 M 36 0 rL SGR
GSN 4220 2664 M -36 0 rL SGR
GSN 620 3009 M 36 0 rL SGR
GSN 4220 3009 M -36 0 rL SGR
GSN 620 3354 M 36 0 rL SGR
GSN 4220 3354 M -36 0 rL SGR
GSN 620 3699 M 36 0 rL SGR
GSN 4220 3699 M -36 0 rL SGR
GSN 620 4044 M 36 0 rL SGR
GSN 4220 4044 M -36 0 rL SGR
GSN 620 4389 M 36 0 rL SGR
GSN 4220 4389 M -36 0 rL SGR
GSN 620 4734 M 36 0 rL SGR
GSN 4220 4734 M -36 0 rL SGR
GSN 620 5079 M 36 0 rL SGR
GSN 4220 5079 M -36 0 rL SGR

%
% X axis - residual panel
%
GSN L5 620 3354 M 4220 3354 L SDA G50 SGR

%
% X-Axis label:
%
gsave 620 1370 M 
[
[(Helvetica) 180 0 true true 0 (t)]
[(Helvetica) 180 0 true true 0 (i)]
[(Helvetica) 180 0 true true 0 (m)]
[(Helvetica) 180 0 true true 0 (e)]
] 0 MCshow grestore

%
% Y-Axis label:
%
gsave 234 3500 M 
currentpoint gsave translate 90 rotate 0 0 moveto
[
[(Helvetica) 180 0 true true 0 (r)]
[(Helvetica) 180 0 true true 0 (e)]
[(Helvetica) 180 0 true true 0 (s)]
[(Helvetica) 180 0 true true 0 (i)]
[(Helvetica) 180 0 true true 0 (d)]
[(Helvetica) 180 0 true true 0 (u)]
[(Helvetica) 180 0 true true 0 (a)]
[(Helvetica) 180 0 true true 0 (l)]
[(Helvetica) 180 0 true true 0 (s)]
] 0 MCshow grestore

end
showpage
%%Trailer
%%EOF
