%!PS-Adobe-3.0 EPSF-3.0
%%BoundingBox: 0 0 514 550
%%Creator: BioKin Ltd.
%%DocumentFonts: Symbol Helvetica
%%EndComments
%
/bkdict 256 dict def
bkdict begin
/M {moveto} def 
/R {rmoveto} def
/L {lineto} def
/rL {rlineto} def
/GSN {gsave newpath} def
/SGR {stroke grestore} def
/COSGR {gsave setrgbcolor stroke grestore grestore} def
/SL {setlinewidth} def
/LWMB {12} def             % line width - model curves, black & white
/LWMC {10} def             % line width - model curves, color
/L2 {2.5 setlinewidth} def
/L5 {5 setlinewidth} def
/L10 {10 setlinewidth} def
/G50 {0.5 setgray} def
/SDA {[10  20] 0 setdash} def % axes
/helvT {/Helvetica findfont 100 scalefont setfont} def % tiny
/helvS {/Helvetica findfont 125 scalefont setfont} def % small
/helvM {/Helvetica findfont 150 scalefont setfont} def % medium
/helvL {/Helvetica findfont 175 scalefont setfont} def % large
/xlabel {gsave M dup
   stringwidth exch -0.5 mul exch rmoveto show grestore} def 
/ylabel {gsave M 90 rotate dup
   stringwidth exch -0.5 mul exch rmoveto show grestore} def
/ylabelresid {gsave M dup
   stringwidth exch -1 mul exch rmoveto show grestore} def
% ======
% Shapes
% ======
% Circle:
/Circ {0 360 arc closepath} def
%
% Square:
/Squa {dup dup -0.5 mul dup dup R -2 mul 0 exch rL 1 mul 0 rL dup 0 exch -1 mul rL closepath} def
%
% Triangle Up:
/TriU {dup dup dup -0.4 mul exch -0.5 mul exch R dup 0.5 mul exch rL dup -1 mul exch 0.5 mul exch rL closepath} def 
%
% Triangle Down:
/TriD {dup dup dup 0.4 mul exch -0.5 mul exch R dup 0.5 mul exch -1 mul rL dup 0.5 mul exch rL closepath} def 
%
% Diamond:
/Diam {45 rotate Squa} def
% ======
% Fills
% ======
/GRF {gsave setgray fill grestore} def                    % gray-level Fill
/COF {gsave setrgbcolor fill grestore} def                % color fill
% ======
% Colors
% ======
/C01 {1.00	0.00	0.00} def      % Red
/C02 {0.00	0.00	1.00} def      % Blue
/C03 {0.00	0.39	0.00} def      % Dark Green
/C04 {0.78	0.08	0.52} def      % Medium Violet Red
/C05 {0.55	0.27	0.07} def      % Saddle Brown
/C06 {0.10	0.70	0.70} def      % (cyan)
/C07 {1.00	0.55	0.00} def      % Dark Orange
/C08 {0.63	0.13	0.94} def      % Purple
/C09 {0.00	0.75	1.00} def      % Deep Sky Blue
/C10 {0.20	0.80	0.20} def      % Lime Green
/C11 {0.47	0.53	0.60} def      % Light Slate Gray
/C12 {0.00	0.00	0.00} def      % Black            % or: {0.19	0.31	0.31} def      % Dark Slate Gray
%
/LGR {0.75} def % light gray
/DGR {0.33} def % dark gray
%
% =============
% Dash patterns
% =============
/dash01 { [80  20] 0 setdash } def
/dash02 { [40  20] 0 setdash } def
/dash03 { [80  20  10  20] 0 setdash } def
/dash04 { [40  20  10  20] 0 setdash } def
/dash05 { [80  20  10  10  10  20] 0 setdash } def
/dash06 { [40  20  10  10  10  20] 0 setdash } def
/dash07 { [10  10] 0 setdash } def
%
/MFshow {
   { dup 5 get 3 ge
     { 5 get 3 eq {gsave} {grestore} ifelse }
     {dup dup 0 get findfont exch 1 get scalefont setfont
     [ currentpoint ] exch dup 2 get 0 exch R dup 5 get 2 ne {dup dup 6
     get exch 4 get {show} {stringwidth pop 0 R} ifelse }if dup 5 get 0 eq
     {dup 3 get {2 get neg 0 exch R pop} {pop aload pop M} ifelse} {dup 5
     get 1 eq {dup 2 get exch dup 3 get exch 6 get stringwidth pop -2 div
     dup 0 R} {dup 6 get stringwidth pop -2 div 0 R 6 get
     show 2 index {aload pop M neg 3 -1 roll neg R pop pop} {pop pop pop
     pop aload pop M} ifelse }ifelse }ifelse }
     ifelse }
   forall} bind def
/MFwidth {0 exch {dup 3 get{dup dup 0 get findfont exch 1 get scalefont
     setfont 6 get stringwidth pop add} {pop} ifelse} forall} bind def
/MCshow { currentpoint stroke M
  exch dup MFwidth -2 div 3 -1 roll R MFshow } def
%
end
%%EndProlog
bkdict begin
0.1 0.1 scale
%
% Residuals:
%
GSN 620 3530 M
620 4076 L
620 4718 L
620 4557 L
620 4863 L
620 4639 L
620 4699 L
620 4680 L
620 4528 L
620 4400 L
620 4556 L
620 4466 L
620 4672 L
620 4410 L
620 4477 L
620 4439 L
620 4442 L
620 4359 L
620 4284 L
620 4288 L
620 4130 L
620 4164 L
620 4333 L
620 4181 L
620 4089 L
620 4340 L
620 4191 L
620 4209 L
620 4138 L
620 4218 L
620 4130 L
620 3919 L
620 4158 L
620 3894 L
620 4201 L
620 4191 L
620 3860 L
620 4174 L
620 3697 L
620 4180 L
620 3980 L
620 4092 L
620 3838 L
620 4055 L
620 4014 L
620 3846 L
620 3817 L
620 3854 L
620 3982 L
620 3881 L
620 3836 L
620 3958 L
620 3796 L
620 3775 L
620 3787 L
620 3804 L
620 3699 L
620 3876 L
620 3801 L
620 3640 L
620 3617 L
620 3915 L
620 3537 L
620 3838 L
620 3542 L
620 3755 L
620 3414 L
620 3604 L
620 3377 L
620 3596 L
620 3616 L
620 3475 L
620 3449 L
620 3644 L
620 3313 L
620 3291 L
620 3632 L
620 3313 L
620 3313 L
620 3435 L
620 3635 L
620 3224 L
620 3193 L
620 3330 L
620 3304 L
620 3248 L
620 3322 L
620 3246 L
620 3045 L
620 2978 L
620 2895 L
620 2995 L
620 3027 L
620 3056 L
620 2727 L
620 2813 L
620 3042 L
620 2940 L
620 2663 L
620 3067 L
620 2984 L
620 2877 L
620 2885 L
620 2807 L
620 2845 L
620 2674 L
620 2484 L
620 2647 L
620 2569 L
620 2780 L
620 2767 L
620 2791 L
620 2714 L
620 2550 L
620 2539 L
620 2756 L
620 2423 L
620 2649 L
620 2302 L
620 2697 L
620 2409 L
620 2431 L
620 2503 L
620 2735 L
620 2531 L
620 2788 L
620 2742 L
620 2305 L
620 2550 L
620 2318 L
620 2577 L
620 2491 L
620 2384 L
620 2136 L
620 2595 L
620 2358 L
620 2417 L
620 2587 L
620 2673 L
620 2449 L
620 2456 L
620 2266 L
620 2301 L
620 2272 L
620 2434 L
620 2472 L
620 2568 L
620 2389 L
620 2587 L
620 2453 L
620 2403 L
620 2402 L
620 2330 L
620 2235 L
620 2331 L
620 2363 L
620 2317 L
620 2274 L
620 2400 L
620 2368 L
620 2421 L
620 2555 L
620 2598 L
620 2627 L
620 2397 L
620 2565 L
620 2760 L
620 2442 L
620 2486 L
620 2418 L
620 2674 L
620 2365 L
620 2404 L
620 2555 L
620 2570 L
620 2501 L
620 2340 L
620 2576 L
620 2599 L
620 2464 L
620 2389 L
620 2580 L
620 2559 L
620 2519 L
620 2298 L
620 2578 L
620 2439 L
620 2504 L
620 2364 L
620 2853 L
620 2650 L
620 2354 L
620 2776 L
620 2375 L
620 2583 L
620 2754 L
620 2591 L
620 2647 L
620 2671 L
620 2749 L
620 2653 L
620 2756 L
620 2287 L
620 2426 L
620 2623 L
620 2533 L
620 2548 L
620 2497 L
620 2590 L
620 2506 L
620 2554 L
620 2586 L
620 2741 L
620 2670 L
620 2609 L
620 2708 L
620 2514 L
620 2588 L
620 2475 L
620 2558 L
620 2540 L
620 2756 L
620 2630 L
620 2555 L
620 2559 L
620 2719 L
620 2911 L
620 2606 L
620 2740 L
620 2430 L
620 2583 L
620 2611 L
620 2628 L
620 2576 L
620 2723 L
620 2779 L
620 2652 L
620 2823 L
620 2545 L
620 2336 L
620 2750 L
620 2491 L
620 2833 L
620 2856 L
620 2691 L
620 2304 L
620 2672 L
620 2871 L
620 2712 L
620 2534 L
620 2739 L
620 2785 L
620 2891 L
620 2656 L
620 2664 L
620 2739 L
620 2795 L
620 2710 L
620 2749 L
620 2715 L
620 2741 L
620 2587 L
620 2669 L
620 2822 L
620 2720 L
620 2629 L
620 2722 L
620 2678 L
620 2659 L
620 2615 L
620 2407 L
620 2543 L
620 2736 L
620 2853 L
620 2715 L
620 2758 L
620 2845 L
620 2634 L
620 2802 L
620 2720 L
620 2636 L
620 2860 L
620 2799 L
620 3142 L
620 2900 L
620 2777 L
620 2764 L
620 2673 L
620 2912 L
620 2778 L
620 2987 L
620 2843 L
620 3056 L
620 3040 L
620 3002 L
620 3162 L
620 3022 L
620 2969 L
620 3018 L
620 3142 L
620 3102 L
620 2911 L
620 3137 L
620 2967 L
620 2948 L
620 3168 L
620 2753 L
620 3060 L
620 2945 L
620 3074 L
620 3142 L
620 2810 L
620 2851 L
620 3107 L
620 3165 L
620 3093 L
620 2887 L
620 2674 L
620 3056 L
620 2826 L
620 2782 L
620 2968 L
620 3128 L
620 2774 L
620 2881 L
620 3003 L
620 2895 L
620 3034 L
620 3047 L
620 3224 L
620 3073 L
620 3191 L
620 2846 L
620 3074 L
620 2979 L
620 3184 L
620 2837 L
620 2729 L
620 2693 L
620 3119 L
620 2907 L
620 3157 L
620 2971 L
620 2970 L
620 2996 L
620 3015 L
620 3005 L
620 2811 L
620 2884 L
620 3015 L
620 3021 L
620 2866 L
620 2754 L
620 2880 L
620 2896 L
620 2795 L
620 2799 L
620 2813 L
620 2851 L
620 3019 L
620 3029 L
620 2830 L
620 2945 L
620 2675 L
620 2811 L
620 2792 L
620 2955 L
620 3057 L
620 2668 L
620 2953 L
620 2705 L
620 2707 L
620 2747 L
620 2804 L
620 2746 L
620 2732 L
620 2857 L
620 2782 L
620 2939 L
620 2719 L
620 2723 L
620 2982 L
620 2660 L
620 2964 L
620 2774 L
620 2918 L
620 2834 L
620 2940 L
620 2709 L
620 2843 L
620 2759 L
620 2722 L
620 2798 L
620 2825 L
620 2959 L
620 2500 L
620 2981 L
620 2753 L
620 2707 L
620 2937 L
620 2676 L
620 2771 L
620 2739 L
620 2729 L
620 2733 L
620 2649 L
620 2975 L
620 2642 L
620 2696 L
620 2732 L
620 2635 L
620 2599 L
620 2781 L
620 2915 L
620 2782 L
620 2828 L
620 2883 L
620 3059 L
620 2850 L
620 2956 L
620 3096 L
620 2950 L
620 2759 L
620 2806 L
620 3044 L
620 2822 L
620 2815 L
620 2530 L
620 3020 L
620 2623 L
620 2782 L
620 2879 L
620 2804 L
620 2682 L
620 2783 L
620 2949 L
620 2912 L
620 3003 L
620 3101 L
620 2780 L
620 3163 L
620 2828 L
620 2868 L
620 2709 L
620 2873 L
620 2735 L
620 2948 L
620 2764 L
620 2900 L
620 2803 L
620 2875 L
620 2900 L
620 2743 L
620 3005 L
620 2701 L
620 2978 L
620 2896 L
620 3000 L
620 2805 L
620 2649 L
620 2721 L
620 2707 L
620 2843 L
620 2930 L
620 2846 L
620 2777 L
620 3081 L
620 2733 L
620 3114 L
620 3058 L
620 2522 L
620 2724 L
620 2832 L
620 3104 L
620 2755 L
620 2968 L
620 2950 L
620 2713 L
620 2599 L
620 2807 L
620 2875 L
620 2940 L
620 2959 L
620 2843 L
620 2870 L
620 3008 L
620 2757 L
620 2759 L
620 2988 L
620 2958 L
620 2867 L
620 2764 L
620 2862 L
620 3076 L
620 2707 L
620 2597 L
620 2646 L
620 2979 L
620 2896 L
620 2769 L
620 3097 L
620 2968 L
620 2799 L
620 2730 L
620 2770 L
620 2833 L
620 2872 L
620 2793 L
620 2709 L
620 3034 L
620 2795 L
620 2862 L
620 3136 L
620 2844 L
620 2630 L
620 2955 L
620 2690 L
620 3037 L
620 2979 L
620 2907 L
620 2785 L
620 3102 L
620 2745 L
620 2947 L
620 2865 L
620 3114 L
620 2955 L
620 2882 L
620 2951 L
620 2985 L
620 3089 L
620 2919 L
620 2964 L
L2 C02 COSGR

%
%================
% Legend - Begin
%================
%
GSN 4240 5180 M
4480 5180 L
LWMC SL  C02 COSGR
GSN 4540 5141 M helvM (1.0 uM) show grestore
%
%================
% Legend - End
%================
%

%
% Main frame
%
L10
GSN 
620 1700 M
4220 1700 L
4220 5300 L
620 5300 L
closepath SGR

%
% X axis: large tics
%
L10
%
% X axis: small tics
%
L5
%
% Y axis: large tics
%
L10
GSN 620 2116 M 54 0 rL SGR
GSN 4220 2116 M -54 0 rL SGR
helvS (-0.02) 560 2116 ylabel
GSN 620 2954 M 54 0 rL SGR
GSN 4220 2954 M -54 0 rL SGR
helvS (0) 560 2954 ylabel
GSN 620 3793 M 54 0 rL SGR
GSN 4220 3793 M -54 0 rL SGR
helvS (0.02) 560 3793 ylabel
GSN 620 4631 M 54 0 rL SGR
GSN 4220 4631 M -54 0 rL SGR
helvS (0.04) 560 4631 ylabel
%
% Y axis: small tics
%
L5
GSN 620 1906 M 36 0 rL SGR
GSN 4220 1906 M -36 0 rL SGR
GSN 620 2116 M 36 0 rL SGR
GSN 4220 2116 M -36 0 rL SGR
GSN 620 2326 M 36 0 rL SGR
GSN 4220 2326 M -36 0 rL SGR
GSN 620 2535 M 36 0 rL SGR
GSN 4220 2535 M -36 0 rL SGR
GSN 620 2745 M 36 0 rL SGR
GSN 4220 2745 M -36 0 rL SGR
GSN 620 2954 M 36 0 rL SGR
GSN 4220 2954 M -36 0 rL SGR
GSN 620 3164 M 36 0 rL SGR
GSN 4220 3164 M -36 0 rL SGR
GSN 620 3373 M 36 0 rL SGR
GSN 4220 3373 M -36 0 rL SGR
GSN 620 3583 M 36 0 rL SGR
GSN 4220 3583 M -36 0 rL SGR
GSN 620 3793 M 36 0 rL SGR
GSN 4220 3793 M -36 0 rL SGR
GSN 620 4002 M 36 0 rL SGR
GSN 4220 4002 M -36 0 rL SGR
GSN 620 4212 M 36 0 rL SGR
GSN 4220 4212 M -36 0 rL SGR
GSN 620 4421 M 36 0 rL SGR
GSN 4220 4421 M -36 0 rL SGR
GSN 620 4631 M 36 0 rL SGR
GSN 4220 4631 M -36 0 rL SGR
GSN 620 4840 M 36 0 rL SGR
GSN 4220 4840 M -36 0 rL SGR
GSN 620 5050 M 36 0 rL SGR
GSN 4220 5050 M -36 0 rL SGR
GSN 620 5260 M 36 0 rL SGR
GSN 4220 5260 M -36 0 rL SGR

%
% X axis - residual panel
%
GSN L5 620 2954 M 4220 2954 L SDA G50 SGR

%
% X-Axis label:
%
gsave 620 1370 M 
[
[(Helvetica) 180 0 true true 0 (t)]
[(Helvetica) 180 0 true true 0 (i)]
[(Helvetica) 180 0 true true 0 (m)]
[(Helvetica) 180 0 true true 0 (e)]
] 0 MCshow grestore

%
% Y-Axis label:
%
gsave 234 3500 M 
currentpoint gsave translate 90 rotate 0 0 moveto
[
[(Helvetica) 180 0 true true 0 (r)]
[(Helvetica) 180 0 true true 0 (e)]
[(Helvetica) 180 0 true true 0 (s)]
[(Helvetica) 180 0 true true 0 (i)]
[(Helvetica) 180 0 true true 0 (d)]
[(Helvetica) 180 0 true true 0 (u)]
[(Helvetica) 180 0 true true 0 (a)]
[(Helvetica) 180 0 true true 0 (l)]
[(Helvetica) 180 0 true true 0 (s)]
] 0 MCshow grestore

end
showpage
%%Trailer
%%EOF
