%!PS-Adobe-3.0 EPSF-3.0
%%BoundingBox: 0 0 514 550
%%Creator: BioKin Ltd.
%%DocumentFonts: Symbol Helvetica
%%EndComments
%
/bkdict 256 dict def
bkdict begin
/M {moveto} def 
/R {rmoveto} def
/L {lineto} def
/rL {rlineto} def
/GSN {gsave newpath} def
/SGR {stroke grestore} def
/COSGR {gsave setrgbcolor stroke grestore grestore} def
/SL {setlinewidth} def
/LWMB {12} def             % line width - model curves, black & white
/LWMC {10} def             % line width - model curves, color
/L2 {2.5 setlinewidth} def
/L5 {5 setlinewidth} def
/L10 {10 setlinewidth} def
/G50 {0.5 setgray} def
/SDA {[10  20] 0 setdash} def % axes
/helvT {/Helvetica findfont 100 scalefont setfont} def % tiny
/helvS {/Helvetica findfont 125 scalefont setfont} def % small
/helvM {/Helvetica findfont 150 scalefont setfont} def % medium
/helvL {/Helvetica findfont 175 scalefont setfont} def % large
/xlabel {gsave M dup
   stringwidth exch -0.5 mul exch rmoveto show grestore} def 
/ylabel {gsave M 90 rotate dup
   stringwidth exch -0.5 mul exch rmoveto show grestore} def
/ylabelresid {gsave M dup
   stringwidth exch -1 mul exch rmoveto show grestore} def
% ======
% Shapes
% ======
% Circle:
/Circ {0 360 arc closepath} def
%
% Square:
/Squa {dup dup -0.5 mul dup dup R -2 mul 0 exch rL 1 mul 0 rL dup 0 exch -1 mul rL closepath} def
%
% Triangle Up:
/TriU {dup dup dup -0.4 mul exch -0.5 mul exch R dup 0.5 mul exch rL dup -1 mul exch 0.5 mul exch rL closepath} def 
%
% Triangle Down:
/TriD {dup dup dup 0.4 mul exch -0.5 mul exch R dup 0.5 mul exch -1 mul rL dup 0.5 mul exch rL closepath} def 
%
% Diamond:
/Diam {45 rotate Squa} def
% ======
% Fills
% ======
/GRF {gsave setgray fill grestore} def                    % gray-level Fill
/COF {gsave setrgbcolor fill grestore} def                % color fill
% ======
% Colors
% ======
/C01 {1.00	0.00	0.00} def      % Red
/C02 {0.00	0.00	1.00} def      % Blue
/C03 {0.00	0.39	0.00} def      % Dark Green
/C04 {0.78	0.08	0.52} def      % Medium Violet Red
/C05 {0.55	0.27	0.07} def      % Saddle Brown
/C06 {0.10	0.70	0.70} def      % (cyan)
/C07 {1.00	0.55	0.00} def      % Dark Orange
/C08 {0.63	0.13	0.94} def      % Purple
/C09 {0.00	0.75	1.00} def      % Deep Sky Blue
/C10 {0.20	0.80	0.20} def      % Lime Green
/C11 {0.47	0.53	0.60} def      % Light Slate Gray
/C12 {0.00	0.00	0.00} def      % Black            % or: {0.19	0.31	0.31} def      % Dark Slate Gray
%
/LGR {0.75} def % light gray
/DGR {0.33} def % dark gray
%
% =============
% Dash patterns
% =============
/dash01 { [80  20] 0 setdash } def
/dash02 { [40  20] 0 setdash } def
/dash03 { [80  20  10  20] 0 setdash } def
/dash04 { [40  20  10  20] 0 setdash } def
/dash05 { [80  20  10  10  10  20] 0 setdash } def
/dash06 { [40  20  10  10  10  20] 0 setdash } def
/dash07 { [10  10] 0 setdash } def
%
/MFshow {
   { dup 5 get 3 ge
     { 5 get 3 eq {gsave} {grestore} ifelse }
     {dup dup 0 get findfont exch 1 get scalefont setfont
     [ currentpoint ] exch dup 2 get 0 exch R dup 5 get 2 ne {dup dup 6
     get exch 4 get {show} {stringwidth pop 0 R} ifelse }if dup 5 get 0 eq
     {dup 3 get {2 get neg 0 exch R pop} {pop aload pop M} ifelse} {dup 5
     get 1 eq {dup 2 get exch dup 3 get exch 6 get stringwidth pop -2 div
     dup 0 R} {dup 6 get stringwidth pop -2 div 0 R 6 get
     show 2 index {aload pop M neg 3 -1 roll neg R pop pop} {pop pop pop
     pop aload pop M} ifelse }ifelse }ifelse }
     ifelse }
   forall} bind def
/MFwidth {0 exch {dup 3 get{dup dup 0 get findfont exch 1 get scalefont
     setfont 6 get stringwidth pop add} {pop} ifelse} forall} bind def
/MCshow { currentpoint stroke M
  exch dup MFwidth -2 div 3 -1 roll R MFshow } def
%
end
%%EndProlog
bkdict begin
0.1 0.1 scale
%
% Residuals:
%
GSN 620 3895 M
620 3329 L
620 3519 L
620 4129 L
620 3885 L
620 3704 L
620 3799 L
620 3842 L
620 3972 L
620 3868 L
620 3957 L
620 3494 L
620 4406 L
620 3713 L
620 4080 L
620 4255 L
620 4180 L
620 4325 L
620 3751 L
620 4057 L
620 3944 L
620 3710 L
620 3869 L
620 4087 L
620 3743 L
620 4251 L
620 4545 L
620 4203 L
620 4477 L
620 4115 L
620 3895 L
620 3360 L
620 3714 L
620 3802 L
620 4280 L
620 4288 L
620 4018 L
620 4071 L
620 4259 L
620 4256 L
620 4506 L
620 4863 L
620 3852 L
620 4096 L
620 3534 L
620 3819 L
620 3602 L
620 4128 L
620 4174 L
620 4063 L
620 4243 L
620 4409 L
620 3647 L
620 2909 L
620 3375 L
620 3844 L
620 4175 L
620 4551 L
620 3903 L
620 3671 L
620 3449 L
620 4189 L
620 3401 L
620 3687 L
620 4222 L
620 4086 L
620 3407 L
620 3858 L
620 3827 L
620 3564 L
620 3500 L
620 4117 L
620 3728 L
620 3923 L
620 3515 L
620 3913 L
620 3944 L
620 3873 L
620 3733 L
620 3755 L
620 3897 L
620 3511 L
620 3475 L
620 3666 L
620 3873 L
620 3781 L
620 3867 L
620 3932 L
620 3207 L
620 3370 L
620 3503 L
620 4232 L
620 3305 L
620 2735 L
620 3858 L
620 3197 L
620 3632 L
620 2977 L
620 3596 L
620 3412 L
620 3140 L
620 2885 L
620 3436 L
620 3184 L
620 2320 L
620 3115 L
620 3195 L
620 2400 L
620 3290 L
620 2934 L
620 3411 L
620 2665 L
620 3480 L
620 3460 L
620 3288 L
620 3004 L
620 3030 L
620 3102 L
620 2813 L
620 2936 L
620 3109 L
620 3065 L
620 3021 L
620 2522 L
620 2875 L
620 2793 L
620 2485 L
620 2741 L
620 3149 L
620 2553 L
620 2962 L
620 2583 L
620 2621 L
620 2501 L
620 2789 L
620 2706 L
620 2591 L
620 2624 L
620 2986 L
620 2510 L
620 2797 L
620 2450 L
620 2548 L
620 2646 L
620 2562 L
620 2498 L
620 2415 L
620 2485 L
620 2438 L
620 2726 L
620 2889 L
620 2527 L
620 2871 L
620 3339 L
620 2542 L
620 2426 L
620 2472 L
620 3034 L
620 2714 L
620 2700 L
620 3386 L
620 3224 L
620 2357 L
620 2951 L
620 2525 L
620 2904 L
620 2900 L
620 2863 L
620 2932 L
620 2928 L
620 3155 L
620 2543 L
620 3327 L
620 3294 L
620 3016 L
620 3540 L
620 2136 L
620 2683 L
620 3178 L
620 2706 L
620 2840 L
620 2872 L
620 2854 L
620 3035 L
620 2229 L
620 3086 L
620 3290 L
620 4143 L
620 2924 L
620 3878 L
620 2474 L
620 3411 L
620 3202 L
620 2511 L
620 3151 L
620 3281 L
620 3207 L
620 2687 L
620 3202 L
620 2850 L
620 2938 L
620 2975 L
620 3179 L
620 3281 L
620 2739 L
620 2864 L
620 2841 L
620 3485 L
620 3332 L
620 2743 L
620 3332 L
620 3109 L
620 3369 L
620 3749 L
620 3545 L
620 3452 L
620 3512 L
620 3527 L
620 3883 L
620 3234 L
620 3350 L
620 3814 L
620 3596 L
620 3100 L
620 3174 L
620 3642 L
620 3035 L
620 3702 L
620 2720 L
620 3165 L
620 3508 L
620 3818 L
620 3758 L
620 3471 L
620 3420 L
620 3188 L
620 3183 L
620 3341 L
620 3174 L
620 3522 L
620 3081 L
620 3040 L
620 3012 L
620 3369 L
620 3262 L
620 3253 L
620 3387 L
620 3049 L
620 3448 L
620 3800 L
620 3619 L
620 3016 L
620 3865 L
620 4055 L
620 3568 L
620 3211 L
620 3086 L
620 3397 L
620 3392 L
620 3049 L
620 2831 L
620 3137 L
620 2776 L
620 3026 L
620 4189 L
620 3837 L
620 3462 L
620 3531 L
620 4115 L
620 4013 L
620 3489 L
620 2868 L
620 2915 L
620 3962 L
620 4119 L
620 3522 L
620 4101 L
620 3791 L
620 3040 L
620 3526 L
620 3142 L
620 3374 L
620 3698 L
620 3577 L
620 3369 L
620 3953 L
620 3286 L
620 3865 L
620 4068 L
620 3828 L
620 3652 L
620 3990 L
620 4045 L
620 3916 L
620 4189 L
620 4300 L
620 3638 L
620 3856 L
620 3596 L
620 4050 L
620 3235 L
620 3559 L
620 3573 L
620 3647 L
620 4106 L
620 3610 L
620 3948 L
620 4402 L
620 3735 L
620 3805 L
620 3730 L
620 4050 L
620 3512 L
620 3633 L
620 3744 L
620 3768 L
620 3698 L
620 3730 L
620 4017 L
620 3313 L
620 4356 L
620 4486 L
620 3568 L
620 4022 L
620 3035 L
620 3744 L
620 4314 L
620 3443 L
620 3230 L
620 3605 L
620 3953 L
620 4398 L
620 3703 L
620 3248 L
620 3675 L
620 3749 L
620 4152 L
620 3573 L
620 3689 L
620 3536 L
620 3383 L
620 4027 L
620 3772 L
620 3461 L
620 3944 L
620 3638 L
620 3828 L
620 4217 L
620 3550 L
620 3360 L
620 4078 L
620 3939 L
620 3308 L
620 3327 L
620 3665 L
620 3258 L
620 3605 L
620 3758 L
620 3587 L
620 4453 L
620 3183 L
620 3920 L
620 3916 L
620 4347 L
620 3452 L
620 3614 L
620 3475 L
620 3837 L
620 3207 L
620 3601 L
620 3443 L
620 3508 L
620 3883 L
620 3234 L
620 4045 L
620 4171 L
620 3730 L
620 3410 L
620 3225 L
620 3986 L
620 3740 L
620 3962 L
620 3132 L
620 3605 L
620 3763 L
620 3596 L
620 3763 L
620 3489 L
620 4069 L
620 3554 L
620 3809 L
620 3647 L
620 3740 L
620 3754 L
620 3619 L
620 3661 L
620 4050 L
620 3309 L
620 3545 L
620 3832 L
620 3967 L
620 3351 L
620 4013 L
620 3716 L
620 4240 L
620 3174 L
620 4069 L
620 3823 L
620 3651 L
620 3434 L
620 3675 L
620 3721 L
620 4008 L
620 3967 L
620 3151 L
620 3327 L
620 3628 L
620 3401 L
620 3721 L
620 4022 L
620 3146 L
620 3318 L
620 3341 L
620 3897 L
620 3003 L
620 3512 L
620 3267 L
620 3573 L
620 3684 L
620 3846 L
620 3957 L
620 3768 L
620 3480 L
620 3860 L
620 3860 L
620 3842 L
620 3735 L
620 3559 L
620 2915 L
620 3415 L
620 4249 L
620 4045 L
620 3596 L
620 3795 L
620 4027 L
620 2998 L
620 3888 L
620 3837 L
620 3179 L
620 3712 L
620 3054 L
620 3563 L
620 4018 L
620 4148 L
620 3438 L
620 4273 L
620 3258 L
620 3721 L
620 3684 L
620 4222 L
620 3193 L
620 4082 L
620 4018 L
620 3726 L
620 3526 L
620 3628 L
620 3536 L
620 4226 L
620 3522 L
620 3777 L
620 4078 L
620 3610 L
620 3716 L
620 3596 L
620 4282 L
620 3591 L
620 3345 L
620 4069 L
620 3869 L
620 3985 L
620 3332 L
620 3930 L
620 3842 L
620 4133 L
620 4249 L
620 4022 L
620 3665 L
620 3893 L
620 3707 L
620 3902 L
620 4537 L
620 3800 L
620 4022 L
620 3573 L
620 3986 L
620 3638 L
620 3842 L
620 3823 L
620 3939 L
620 3443 L
620 3582 L
620 3225 L
620 3976 L
620 4518 L
620 2980 L
620 4231 L
620 3712 L
620 3559 L
620 4032 L
620 4147 L
620 3642 L
620 4268 L
620 4041 L
620 3559 L
620 3805 L
620 3754 L
620 3832 L
620 4212 L
620 3999 L
620 3698 L
620 4648 L
620 3721 L
620 3772 L
620 4087 L
620 4013 L
620 3276 L
620 3805 L
620 3123 L
620 3624 L
620 3897 L
620 4059 L
620 3573 L
620 3990 L
L2 C01 COSGR

%
%================
% Legend - Begin
%================
%
GSN 4240 5180 M
4480 5180 L
LWMC SL  C01 COSGR
GSN 4540 5141 M helvM (0.5 uM) show grestore
%
%================
% Legend - End
%================
%

%
% Main frame
%
L10
GSN 
620 1700 M
4220 1700 L
4220 5300 L
620 5300 L
closepath SGR

%
% X axis: large tics
%
L10
%
% X axis: small tics
%
L5
%
% Y axis: large tics
%
L10
GSN 620 1723 M 54 0 rL SGR
GSN 4220 1723 M -54 0 rL SGR
helvS (-0.02) 560 1723 ylabel
GSN 620 2634 M 54 0 rL SGR
GSN 4220 2634 M -54 0 rL SGR
helvS (-0.01) 560 2634 ylabel
GSN 620 3545 M 54 0 rL SGR
GSN 4220 3545 M -54 0 rL SGR
helvS (0) 560 3545 ylabel
GSN 620 4456 M 54 0 rL SGR
GSN 4220 4456 M -54 0 rL SGR
helvS (0.01) 560 4456 ylabel
%
% Y axis: small tics
%
L5
GSN 620 1723 M 36 0 rL SGR
GSN 4220 1723 M -36 0 rL SGR
GSN 620 1951 M 36 0 rL SGR
GSN 4220 1951 M -36 0 rL SGR
GSN 620 2178 M 36 0 rL SGR
GSN 4220 2178 M -36 0 rL SGR
GSN 620 2406 M 36 0 rL SGR
GSN 4220 2406 M -36 0 rL SGR
GSN 620 2634 M 36 0 rL SGR
GSN 4220 2634 M -36 0 rL SGR
GSN 620 2862 M 36 0 rL SGR
GSN 4220 2862 M -36 0 rL SGR
GSN 620 3090 M 36 0 rL SGR
GSN 4220 3090 M -36 0 rL SGR
GSN 620 3317 M 36 0 rL SGR
GSN 4220 3317 M -36 0 rL SGR
GSN 620 3545 M 36 0 rL SGR
GSN 4220 3545 M -36 0 rL SGR
GSN 620 3773 M 36 0 rL SGR
GSN 4220 3773 M -36 0 rL SGR
GSN 620 4001 M 36 0 rL SGR
GSN 4220 4001 M -36 0 rL SGR
GSN 620 4228 M 36 0 rL SGR
GSN 4220 4228 M -36 0 rL SGR
GSN 620 4456 M 36 0 rL SGR
GSN 4220 4456 M -36 0 rL SGR
GSN 620 4684 M 36 0 rL SGR
GSN 4220 4684 M -36 0 rL SGR
GSN 620 4912 M 36 0 rL SGR
GSN 4220 4912 M -36 0 rL SGR
GSN 620 5140 M 36 0 rL SGR
GSN 4220 5140 M -36 0 rL SGR

%
% X axis - residual panel
%
GSN L5 620 3545 M 4220 3545 L SDA G50 SGR

%
% X-Axis label:
%
gsave 620 1370 M 
[
[(Helvetica) 180 0 true true 0 (t)]
[(Helvetica) 180 0 true true 0 (i)]
[(Helvetica) 180 0 true true 0 (m)]
[(Helvetica) 180 0 true true 0 (e)]
] 0 MCshow grestore

%
% Y-Axis label:
%
gsave 234 3500 M 
currentpoint gsave translate 90 rotate 0 0 moveto
[
[(Helvetica) 180 0 true true 0 (r)]
[(Helvetica) 180 0 true true 0 (e)]
[(Helvetica) 180 0 true true 0 (s)]
[(Helvetica) 180 0 true true 0 (i)]
[(Helvetica) 180 0 true true 0 (d)]
[(Helvetica) 180 0 true true 0 (u)]
[(Helvetica) 180 0 true true 0 (a)]
[(Helvetica) 180 0 true true 0 (l)]
[(Helvetica) 180 0 true true 0 (s)]
] 0 MCshow grestore

end
showpage
%%Trailer
%%EOF
