%!PS-Adobe-3.0 EPSF-3.0
%%BoundingBox: 0 0 514 442
%%Creator: BioKin Ltd.
%%DocumentFonts: Symbol Helvetica
%%EndComments
%
/bkdict 256 dict def
bkdict begin
/M {moveto} def 
/R {rmoveto} def
/L {lineto} def
/rL {rlineto} def
/GSN {gsave newpath} def
/SGR {stroke grestore} def
/COSGR {gsave setrgbcolor stroke grestore grestore} def
/SL {setlinewidth} def
/LWMB {12} def             % line width - model curves, black & white
/LWMC {10} def             % line width - model curves, color
/L2 {2.5 setlinewidth} def
/L5 {5 setlinewidth} def
/L10 {10 setlinewidth} def
/G50 {0.5 setgray} def
/SDA {[10  20] 0 setdash} def % axes
/helvT {/Helvetica findfont 100 scalefont setfont} def % tiny
/helvS {/Helvetica findfont 125 scalefont setfont} def % small
/helvM {/Helvetica findfont 150 scalefont setfont} def % medium
/helvL {/Helvetica findfont 175 scalefont setfont} def % large
/xlabel {gsave M dup
   stringwidth exch -0.5 mul exch rmoveto show grestore} def 
/ylabel {gsave M 90 rotate dup
   stringwidth exch -0.5 mul exch rmoveto show grestore} def
/ylabelresid {gsave M dup
   stringwidth exch -1 mul exch rmoveto show grestore} def
% ======
% Shapes
% ======
% Circle:
/Circ {0 360 arc closepath} def
%
% Square:
/Squa {dup dup -0.5 mul dup dup R -2 mul 0 exch rL 1 mul 0 rL dup 0 exch -1 mul rL closepath} def
%
% Triangle Up:
/TriU {dup dup dup -0.4 mul exch -0.5 mul exch R dup 0.5 mul exch rL dup -1 mul exch 0.5 mul exch rL closepath} def 
%
% Triangle Down:
/TriD {dup dup dup 0.4 mul exch -0.5 mul exch R dup 0.5 mul exch -1 mul rL dup 0.5 mul exch rL closepath} def 
%
% Diamond:
/Diam {45 rotate Squa} def
% ======
% Fills
% ======
/GRF {gsave setgray fill grestore} def                    % gray-level Fill
/COF {gsave setrgbcolor fill grestore} def                % color fill
% ======
% Colors
% ======
/C01 {1.00	0.00	0.00} def      % Red
/C02 {0.00	0.00	1.00} def      % Blue
/C03 {0.00	0.39	0.00} def      % Dark Green
/C04 {0.78	0.08	0.52} def      % Medium Violet Red
/C05 {0.55	0.27	0.07} def      % Saddle Brown
/C06 {0.10	0.70	0.70} def      % (cyan)
/C07 {1.00	0.55	0.00} def      % Dark Orange
/C08 {0.63	0.13	0.94} def      % Purple
/C09 {0.00	0.75	1.00} def      % Deep Sky Blue
/C10 {0.20	0.80	0.20} def      % Lime Green
/C11 {0.47	0.53	0.60} def      % Light Slate Gray
/C12 {0.00	0.00	0.00} def      % Black            % or: {0.19	0.31	0.31} def      % Dark Slate Gray
%
/LGR {0.75} def % light gray
/DGR {0.33} def % dark gray
%
% =============
% Dash patterns
% =============
/dash01 { [80  20] 0 setdash } def
/dash02 { [40  20] 0 setdash } def
/dash03 { [80  20  10  20] 0 setdash } def
/dash04 { [40  20  10  20] 0 setdash } def
/dash05 { [80  20  10  10  10  20] 0 setdash } def
/dash06 { [40  20  10  10  10  20] 0 setdash } def
/dash07 { [10  10] 0 setdash } def
%
/MFshow {
   { dup 5 get 3 ge
     { 5 get 3 eq {gsave} {grestore} ifelse }
     {dup dup 0 get findfont exch 1 get scalefont setfont
     [ currentpoint ] exch dup 2 get 0 exch R dup 5 get 2 ne {dup dup 6
     get exch 4 get {show} {stringwidth pop 0 R} ifelse }if dup 5 get 0 eq
     {dup 3 get {2 get neg 0 exch R pop} {pop aload pop M} ifelse} {dup 5
     get 1 eq {dup 2 get exch dup 3 get exch 6 get stringwidth pop -2 div
     dup 0 R} {dup 6 get stringwidth pop -2 div 0 R 6 get
     show 2 index {aload pop M neg 3 -1 roll neg R pop pop} {pop pop pop
     pop aload pop M} ifelse }ifelse }ifelse }
     ifelse }
   forall} bind def
/MFwidth {0 exch {dup 3 get{dup dup 0 get findfont exch 1 get scalefont
     setfont 6 get stringwidth pop add} {pop} ifelse} forall} bind def
/MCshow { currentpoint stroke M
  exch dup MFwidth -2 div 3 -1 roll R MFshow } def
%
end
%%EndProlog
bkdict begin
0.1 0.1 scale
%
% Model curves:
%

GSN 753 1522 M
770 1522 L
803 1470 L
837 1418 L
870 1365 L
903 1313 L
924 1263 L
941 1249 L
970 1216 L
1003 1173 L
1037 1134 L
1070 1100 L
1096 1073 L
1113 1059 L
1137 1050 L
1170 1034 L
1203 1022 L
1237 1014 L
1268 1009 L
1284 1007 L
1303 1006 L
1337 1005 L
1370 1004 L
1403 1004 L
1437 1004 L
1456 1004 L
1473 1004 L
1503 1004 L
1537 1004 L
1570 1004 L
1603 1004 L
1628 1004 L
1644 1005 L
1670 1005 L
1703 1005 L
1737 1005 L
1770 1005 L
1799 1005 L
1816 1005 L
1837 1005 L
1870 1006 L
1903 1006 L
1937 1006 L
1970 1006 L
1987 1007 L
2004 1007 L
2037 1007 L
2070 1007 L
2103 1008 L
2137 1008 L
2159 1009 L
2176 1009 L
2203 1010 L
2237 1011 L
2270 1011 L
2303 1012 L
2331 1013 L
2347 1014 L
2370 1014 L
2403 1016 L
2437 1017 L
2470 1018 L
2503 1020 L
2519 1021 L
2537 1021 L
2570 1023 L
2603 1025 L
2637 1026 L
2670 1028 L
2690 1030 L
2707 1031 L
2737 1032 L
2770 1034 L
2803 1036 L
2837 1037 L
2862 1039 L
2879 1040 L
2903 1040 L
2937 1042 L
2970 1043 L
3003 1044 L
3034 1045 L
3050 1046 L
3070 1046 L
3103 1047 L
3137 1048 L
3170 1048 L
3203 1049 L
3222 1049 L
3239 1049 L
3270 1049 L
3303 1049 L
3337 1049 L
3370 1050 L
3393 1050 L
3410 1050 L
3437 1050 L
3464 1050 L
3481 1050 L
3503 1050 L
3537 1050 L
3565 1050 L
3582 1050 L
3603 1050 L
3637 1050 L
3670 1050 L
3703 1050 L
3737 1050 L
3753 1050 L
3770 1050 L
3803 1050 L
3837 1050 L
3870 1050 L
3903 1050 L
3925 1050 L
3942 1050 L
3970 1050 L
4003 1050 L
4037 1050 L
4070 1050 L
4086 1050 L
LWMC SL dash01 C01 COSGR

GSN 753 1822 M
770 1822 L
803 1737 L
837 1652 L
870 1566 L
903 1481 L
924 1399 L
941 1375 L
970 1321 L
1003 1250 L
1037 1187 L
1070 1132 L
1096 1087 L
1113 1064 L
1137 1051 L
1170 1024 L
1203 1004 L
1237 991 L
1268 983 L
1284 979 L
1303 979 L
1337 977 L
1370 976 L
1403 975 L
1437 975 L
1456 975 L
1473 975 L
1503 975 L
1537 975 L
1570 975 L
1603 976 L
1628 976 L
1644 976 L
1670 976 L
1703 976 L
1737 976 L
1770 977 L
1799 977 L
1816 977 L
1837 977 L
1870 978 L
1903 978 L
1937 979 L
1970 979 L
1987 980 L
2004 980 L
2037 981 L
2070 982 L
2103 983 L
2137 984 L
2159 985 L
2176 985 L
2203 986 L
2237 987 L
2270 989 L
2303 991 L
2331 993 L
2347 994 L
2370 995 L
2403 997 L
2437 999 L
2470 1002 L
2503 1004 L
2519 1007 L
2537 1007 L
2570 1010 L
2603 1013 L
2637 1015 L
2670 1018 L
2690 1021 L
2707 1022 L
2737 1024 L
2770 1027 L
2803 1030 L
2837 1032 L
2862 1034 L
2879 1035 L
2903 1036 L
2937 1038 L
2970 1040 L
3003 1042 L
3034 1043 L
3050 1044 L
3070 1044 L
3103 1045 L
3137 1046 L
3170 1047 L
3203 1047 L
3222 1048 L
3239 1048 L
3270 1048 L
3303 1049 L
3337 1049 L
3370 1049 L
3393 1049 L
3410 1049 L
3437 1049 L
3464 1049 L
3481 1049 L
3503 1049 L
3537 1050 L
3565 1050 L
3582 1050 L
3603 1050 L
3637 1050 L
3670 1050 L
3703 1050 L
3737 1050 L
3753 1050 L
3770 1050 L
3803 1050 L
3837 1050 L
3870 1050 L
3903 1050 L
3925 1050 L
3942 1050 L
3970 1050 L
4003 1050 L
4037 1050 L
4070 1050 L
4086 1050 L
LWMC SL dash02 C02 COSGR

GSN 753 2475 M
770 2475 L
803 2319 L
837 2161 L
870 2001 L
903 1844 L
924 1693 L
941 1650 L
970 1550 L
1003 1418 L
1037 1301 L
1070 1200 L
1096 1117 L
1113 1075 L
1137 1050 L
1170 1000 L
1203 965 L
1237 941 L
1268 926 L
1284 919 L
1303 918 L
1337 914 L
1370 912 L
1403 912 L
1437 911 L
1456 912 L
1473 912 L
1503 912 L
1537 912 L
1570 913 L
1603 913 L
1628 913 L
1644 914 L
1670 914 L
1703 914 L
1737 915 L
1770 916 L
1799 917 L
1816 917 L
1837 917 L
1870 918 L
1903 920 L
1937 921 L
1970 922 L
1987 924 L
2004 924 L
2037 926 L
2070 928 L
2103 930 L
2137 933 L
2159 935 L
2176 937 L
2203 938 L
2237 942 L
2270 945 L
2303 949 L
2331 953 L
2347 956 L
2370 958 L
2403 963 L
2437 968 L
2470 973 L
2503 978 L
2519 983 L
2537 984 L
2570 989 L
2603 995 L
2637 1000 L
2670 1005 L
2690 1010 L
2707 1012 L
2737 1015 L
2770 1020 L
2803 1024 L
2837 1028 L
2862 1031 L
2879 1033 L
2903 1034 L
2937 1037 L
2970 1039 L
3003 1041 L
3034 1043 L
3050 1044 L
3070 1045 L
3103 1046 L
3137 1047 L
3170 1048 L
3203 1048 L
3222 1049 L
3239 1049 L
3270 1049 L
3303 1049 L
3337 1049 L
3370 1050 L
3393 1050 L
3410 1050 L
3437 1050 L
3464 1050 L
3481 1050 L
3503 1050 L
3537 1050 L
3565 1050 L
3582 1050 L
3603 1050 L
3637 1050 L
3670 1050 L
3703 1050 L
3737 1050 L
3753 1050 L
3770 1050 L
3803 1050 L
3837 1050 L
3870 1050 L
3903 1050 L
3925 1050 L
3942 1050 L
3970 1050 L
4003 1050 L
4037 1050 L
4070 1050 L
4086 1050 L
LWMC SL dash03 C03 COSGR

GSN 753 2867 M
770 2867 L
803 2668 L
837 2466 L
870 2262 L
903 2062 L
924 1868 L
941 1813 L
970 1686 L
1003 1518 L
1037 1369 L
1070 1240 L
1096 1134 L
1113 1081 L
1137 1049 L
1170 986 L
1203 940 L
1237 910 L
1268 892 L
1284 882 L
1303 882 L
1337 876 L
1370 874 L
1403 873 L
1437 873 L
1456 873 L
1473 873 L
1503 874 L
1537 874 L
1570 875 L
1603 875 L
1628 876 L
1644 876 L
1670 877 L
1703 877 L
1737 878 L
1770 879 L
1799 881 L
1816 882 L
1837 882 L
1870 884 L
1903 885 L
1937 887 L
1970 889 L
1987 892 L
2004 892 L
2037 894 L
2070 897 L
2103 901 L
2137 904 L
2159 908 L
2176 910 L
2203 913 L
2237 917 L
2270 922 L
2303 928 L
2331 934 L
2347 938 L
2370 940 L
2403 946 L
2437 953 L
2470 960 L
2503 967 L
2519 974 L
2537 975 L
2570 982 L
2603 989 L
2637 996 L
2670 1002 L
2690 1009 L
2707 1010 L
2737 1014 L
2770 1020 L
2803 1025 L
2837 1029 L
2862 1033 L
2879 1035 L
2903 1036 L
2937 1039 L
2970 1042 L
3003 1044 L
3034 1046 L
3050 1047 L
3070 1047 L
3103 1048 L
3137 1048 L
3170 1049 L
3203 1049 L
3222 1049 L
3239 1049 L
3270 1050 L
3303 1050 L
3337 1050 L
3370 1050 L
3393 1050 L
3410 1050 L
3437 1050 L
3464 1050 L
3481 1050 L
3503 1050 L
3537 1050 L
3565 1050 L
3582 1050 L
3603 1050 L
3637 1050 L
3670 1050 L
3703 1050 L
3737 1050 L
3753 1050 L
3770 1050 L
3803 1050 L
3837 1050 L
3870 1050 L
3903 1050 L
3925 1050 L
3942 1050 L
3970 1050 L
4003 1050 L
4037 1050 L
4070 1050 L
4086 1050 L
LWMC SL dash04 C04 COSGR

GSN 753 3050 M
770 3050 L
803 2831 L
837 2608 L
870 2384 L
903 2163 L
924 1950 L
941 1889 L
970 1749 L
1003 1565 L
1037 1400 L
1070 1259 L
1096 1142 L
1113 1084 L
1137 1049 L
1170 979 L
1203 929 L
1237 896 L
1268 876 L
1284 865 L
1303 864 L
1337 859 L
1370 856 L
1403 855 L
1437 855 L
1456 856 L
1473 856 L
1503 856 L
1537 856 L
1570 857 L
1603 858 L
1628 858 L
1644 859 L
1670 859 L
1703 860 L
1737 861 L
1770 863 L
1799 864 L
1816 865 L
1837 866 L
1870 867 L
1903 870 L
1937 872 L
1970 874 L
1987 877 L
2004 877 L
2037 880 L
2070 884 L
2103 888 L
2137 892 L
2159 896 L
2176 898 L
2203 901 L
2237 907 L
2270 913 L
2303 919 L
2331 926 L
2347 930 L
2370 933 L
2403 940 L
2437 948 L
2470 956 L
2503 964 L
2519 971 L
2537 972 L
2570 980 L
2603 987 L
2637 995 L
2670 1002 L
2690 1009 L
2707 1011 L
2737 1015 L
2770 1021 L
2803 1026 L
2837 1031 L
2862 1035 L
2879 1037 L
2903 1038 L
2937 1041 L
2970 1043 L
3003 1045 L
3034 1047 L
3050 1048 L
3070 1048 L
3103 1048 L
3137 1049 L
3170 1049 L
3203 1049 L
3222 1050 L
3239 1050 L
3270 1050 L
3303 1050 L
3337 1050 L
3370 1050 L
3393 1050 L
3410 1050 L
3437 1050 L
3464 1050 L
3481 1050 L
3503 1050 L
3537 1050 L
3565 1050 L
3582 1050 L
3603 1050 L
3637 1050 L
3670 1050 L
3703 1050 L
3737 1050 L
3753 1050 L
3770 1050 L
3803 1050 L
3837 1050 L
3870 1050 L
3903 1050 L
3925 1050 L
3942 1050 L
3970 1050 L
4003 1050 L
4037 1050 L
4070 1050 L
4086 1050 L
LWMC SL dash05 C05 COSGR

GSN 753 3368 M
770 3368 L
803 3113 L
837 2854 L
870 2595 L
903 2339 L
924 2092 L
941 2022 L
970 1859 L
1003 1645 L
1037 1455 L
1070 1291 L
1096 1155 L
1113 1088 L
1137 1047 L
1170 967 L
1203 909 L
1237 871 L
1268 848 L
1284 835 L
1303 834 L
1337 828 L
1370 825 L
1403 824 L
1437 824 L
1456 824 L
1473 824 L
1503 825 L
1537 826 L
1570 826 L
1603 827 L
1628 828 L
1644 829 L
1670 829 L
1703 831 L
1737 832 L
1770 834 L
1799 835 L
1816 837 L
1837 837 L
1870 840 L
1903 842 L
1937 845 L
1970 848 L
1987 852 L
2004 852 L
2037 856 L
2070 860 L
2103 865 L
2137 870 L
2159 876 L
2176 878 L
2203 882 L
2237 889 L
2270 896 L
2303 904 L
2331 912 L
2347 918 L
2370 921 L
2403 930 L
2437 939 L
2470 948 L
2503 958 L
2519 967 L
2537 967 L
2570 976 L
2603 985 L
2637 994 L
2670 1002 L
2690 1009 L
2707 1011 L
2737 1016 L
2770 1023 L
2803 1028 L
2837 1033 L
2862 1037 L
2879 1039 L
2903 1040 L
2937 1043 L
2970 1045 L
3003 1047 L
3034 1048 L
3050 1048 L
3070 1049 L
3103 1049 L
3137 1049 L
3170 1050 L
3203 1050 L
3222 1050 L
3239 1050 L
3270 1050 L
3303 1050 L
3337 1050 L
3370 1050 L
3393 1050 L
3410 1050 L
3437 1050 L
3464 1050 L
3481 1050 L
3503 1050 L
3537 1050 L
3565 1050 L
3582 1050 L
3603 1050 L
3637 1050 L
3670 1050 L
3703 1050 L
3737 1050 L
3753 1050 L
3770 1050 L
3803 1050 L
3837 1050 L
3870 1050 L
3903 1050 L
3925 1050 L
3942 1050 L
3970 1050 L
4003 1050 L
4037 1050 L
4070 1050 L
4086 1050 L
LWMC SL dash06 C06 COSGR

GSN 753 4086 M
770 4086 L
803 3752 L
837 3412 L
870 3071 L
903 2735 L
924 2411 L
941 2319 L
970 2106 L
1003 1826 L
1037 1576 L
1070 1362 L
1096 1184 L
1113 1097 L
1137 1043 L
1170 938 L
1203 863 L
1237 813 L
1268 783 L
1284 767 L
1303 766 L
1337 757 L
1370 754 L
1403 753 L
1437 753 L
1456 754 L
1473 754 L
1503 755 L
1537 756 L
1570 757 L
1603 758 L
1628 760 L
1644 761 L
1670 762 L
1703 764 L
1737 766 L
1770 768 L
1799 771 L
1816 774 L
1837 775 L
1870 778 L
1903 782 L
1937 787 L
1970 792 L
1987 797 L
2004 798 L
2037 804 L
2070 810 L
2103 818 L
2137 826 L
2159 835 L
2176 838 L
2203 844 L
2237 854 L
2270 865 L
2303 876 L
2331 888 L
2347 896 L
2370 901 L
2403 913 L
2437 926 L
2470 939 L
2503 951 L
2519 963 L
2537 964 L
2570 976 L
2603 987 L
2637 997 L
2670 1007 L
2690 1016 L
2707 1018 L
2737 1023 L
2770 1030 L
2803 1035 L
2837 1039 L
2862 1043 L
2879 1044 L
2903 1045 L
2937 1047 L
2970 1048 L
3003 1049 L
3034 1049 L
3050 1049 L
3070 1049 L
3103 1050 L
3137 1050 L
3170 1050 L
3203 1050 L
3222 1050 L
3239 1050 L
3270 1050 L
3303 1050 L
3337 1050 L
3370 1050 L
3393 1050 L
3410 1050 L
3437 1050 L
3464 1050 L
3481 1050 L
3503 1050 L
3537 1050 L
3565 1050 L
3582 1050 L
3603 1050 L
3637 1050 L
3670 1050 L
3703 1050 L
3737 1050 L
3753 1050 L
3770 1050 L
3803 1050 L
3837 1050 L
3870 1050 L
3903 1050 L
3925 1050 L
3942 1050 L
3970 1050 L
4003 1050 L
4037 1050 L
4070 1050 L
4086 1050 L
LWMC SL dash07 C07 COSGR

%
%================
% Legend - Begin
%================
%
GSN 4240 4040 M
4480 4040 L
LWMC SL dash01 C01 COSGR
GSN 4540 4001 M helvM (0.5 uM) show grestore
GSN 4240 3860 M
4480 3860 L
LWMC SL dash02 C02 COSGR
GSN 4540 3821 M helvM (1.0 uM) show grestore
GSN 4240 3680 M
4480 3680 L
LWMC SL dash03 C03 COSGR
GSN 4540 3641 M helvM (1.5 uM) show grestore
GSN 4240 3500 M
4480 3500 L
LWMC SL dash04 C04 COSGR
GSN 4540 3461 M helvM (2.0 uM) show grestore
GSN 4240 3320 M
4480 3320 L
LWMC SL dash05 C05 COSGR
GSN 4540 3281 M helvM (2.5 uM) show grestore
GSN 4240 3140 M
4480 3140 L
LWMC SL dash06 C06 COSGR
GSN 4540 3101 M helvM (3.0 uM) show grestore
GSN 4240 2960 M
4480 2960 L
LWMC SL dash07 C07 COSGR
GSN 4540 2921 M helvM (4.0 uM) show grestore
%
%================
% Legend - End
%================
%

%
% Main frame
%
L10
GSN 
620 620 M
4220 620 L
4220 4220 L
620 4220 L
closepath SGR

%
% X axis: large tics
%
L10
GSN 1130 620 M 0  54 rL SGR
GSN 1130 4220 M 0 -54 rL SGR
helvS (0.0001) 1130 470 xlabel
GSN 1716 620 M 0  54 rL SGR
GSN 1716 4220 M 0 -54 rL SGR
helvS (0.001) 1716 470 xlabel
GSN 2303 620 M 0  54 rL SGR
GSN 2303 4220 M 0 -54 rL SGR
helvS (0.01) 2303 470 xlabel
GSN 2889 620 M 0  54 rL SGR
GSN 2889 4220 M 0 -54 rL SGR
helvS (0.1) 2889 470 xlabel
GSN 3476 620 M 0  54 rL SGR
GSN 3476 4220 M 0 -54 rL SGR
helvS (1) 3476 470 xlabel
GSN 4062 620 M 0  54 rL SGR
GSN 4062 4220 M 0 -54 rL SGR
helvS (10) 4062 470 xlabel
%
% X axis: small tics
%
L5
GSN 720 620 M 0  36 rL SGR
GSN 720 4220 M 0 -36 rL SGR
GSN 824 620 M 0  36 rL SGR
GSN 824 4220 M 0 -36 rL SGR
GSN 897 620 M 0  36 rL SGR
GSN 897 4220 M 0 -36 rL SGR
GSN 954 620 M 0  36 rL SGR
GSN 954 4220 M 0 -36 rL SGR
GSN 1000 620 M 0  36 rL SGR
GSN 1000 4220 M 0 -36 rL SGR
GSN 1039 620 M 0  36 rL SGR
GSN 1039 4220 M 0 -36 rL SGR
GSN 1073 620 M 0  36 rL SGR
GSN 1073 4220 M 0 -36 rL SGR
GSN 1103 620 M 0  36 rL SGR
GSN 1103 4220 M 0 -36 rL SGR
GSN 1307 620 M 0  36 rL SGR
GSN 1307 4220 M 0 -36 rL SGR
GSN 1410 620 M 0  36 rL SGR
GSN 1410 4220 M 0 -36 rL SGR
GSN 1483 620 M 0  36 rL SGR
GSN 1483 4220 M 0 -36 rL SGR
GSN 1540 620 M 0  36 rL SGR
GSN 1540 4220 M 0 -36 rL SGR
GSN 1586 620 M 0  36 rL SGR
GSN 1586 4220 M 0 -36 rL SGR
GSN 1626 620 M 0  36 rL SGR
GSN 1626 4220 M 0 -36 rL SGR
GSN 1660 620 M 0  36 rL SGR
GSN 1660 4220 M 0 -36 rL SGR
GSN 1690 620 M 0  36 rL SGR
GSN 1690 4220 M 0 -36 rL SGR
GSN 1893 620 M 0  36 rL SGR
GSN 1893 4220 M 0 -36 rL SGR
GSN 1996 620 M 0  36 rL SGR
GSN 1996 4220 M 0 -36 rL SGR
GSN 2069 620 M 0  36 rL SGR
GSN 2069 4220 M 0 -36 rL SGR
GSN 2126 620 M 0  36 rL SGR
GSN 2126 4220 M 0 -36 rL SGR
GSN 2173 620 M 0  36 rL SGR
GSN 2173 4220 M 0 -36 rL SGR
GSN 2212 620 M 0  36 rL SGR
GSN 2212 4220 M 0 -36 rL SGR
GSN 2246 620 M 0  36 rL SGR
GSN 2246 4220 M 0 -36 rL SGR
GSN 2276 620 M 0  36 rL SGR
GSN 2276 4220 M 0 -36 rL SGR
GSN 2479 620 M 0  36 rL SGR
GSN 2479 4220 M 0 -36 rL SGR
GSN 2583 620 M 0  36 rL SGR
GSN 2583 4220 M 0 -36 rL SGR
GSN 2656 620 M 0  36 rL SGR
GSN 2656 4220 M 0 -36 rL SGR
GSN 2713 620 M 0  36 rL SGR
GSN 2713 4220 M 0 -36 rL SGR
GSN 2759 620 M 0  36 rL SGR
GSN 2759 4220 M 0 -36 rL SGR
GSN 2798 620 M 0  36 rL SGR
GSN 2798 4220 M 0 -36 rL SGR
GSN 2832 620 M 0  36 rL SGR
GSN 2832 4220 M 0 -36 rL SGR
GSN 2862 620 M 0  36 rL SGR
GSN 2862 4220 M 0 -36 rL SGR
GSN 3066 620 M 0  36 rL SGR
GSN 3066 4220 M 0 -36 rL SGR
GSN 3169 620 M 0  36 rL SGR
GSN 3169 4220 M 0 -36 rL SGR
GSN 3242 620 M 0  36 rL SGR
GSN 3242 4220 M 0 -36 rL SGR
GSN 3299 620 M 0  36 rL SGR
GSN 3299 4220 M 0 -36 rL SGR
GSN 3345 620 M 0  36 rL SGR
GSN 3345 4220 M 0 -36 rL SGR
GSN 3385 620 M 0  36 rL SGR
GSN 3385 4220 M 0 -36 rL SGR
GSN 3419 620 M 0  36 rL SGR
GSN 3419 4220 M 0 -36 rL SGR
GSN 3449 620 M 0  36 rL SGR
GSN 3449 4220 M 0 -36 rL SGR
GSN 3652 620 M 0  36 rL SGR
GSN 3652 4220 M 0 -36 rL SGR
GSN 3755 620 M 0  36 rL SGR
GSN 3755 4220 M 0 -36 rL SGR
GSN 3829 620 M 0  36 rL SGR
GSN 3829 4220 M 0 -36 rL SGR
GSN 3885 620 M 0  36 rL SGR
GSN 3885 4220 M 0 -36 rL SGR
GSN 3932 620 M 0  36 rL SGR
GSN 3932 4220 M 0 -36 rL SGR
GSN 3971 620 M 0  36 rL SGR
GSN 3971 4220 M 0 -36 rL SGR
GSN 4005 620 M 0  36 rL SGR
GSN 4005 4220 M 0 -36 rL SGR
GSN 4035 620 M 0  36 rL SGR
GSN 4035 4220 M 0 -36 rL SGR
%
% Y axis: large tics
%
L10
GSN 620 1050 M 54 0 rL SGR
GSN 4220 1050 M -54 0 rL SGR
helvS (0) 560 1050 ylabel
GSN 620 1950 M 54 0 rL SGR
GSN 4220 1950 M -54 0 rL SGR
helvS (10) 560 1950 ylabel
GSN 620 2851 M 54 0 rL SGR
GSN 4220 2851 M -54 0 rL SGR
helvS (20) 560 2851 ylabel
GSN 620 3752 M 54 0 rL SGR
GSN 4220 3752 M -54 0 rL SGR
helvS (30) 560 3752 ylabel
%
% Y axis: small tics
%
L5
GSN 620 824 M 36 0 rL SGR
GSN 4220 824 M -36 0 rL SGR
GSN 620 1050 M 36 0 rL SGR
GSN 4220 1050 M -36 0 rL SGR
GSN 620 1275 M 36 0 rL SGR
GSN 4220 1275 M -36 0 rL SGR
GSN 620 1500 M 36 0 rL SGR
GSN 4220 1500 M -36 0 rL SGR
GSN 620 1725 M 36 0 rL SGR
GSN 4220 1725 M -36 0 rL SGR
GSN 620 1950 M 36 0 rL SGR
GSN 4220 1950 M -36 0 rL SGR
GSN 620 2176 M 36 0 rL SGR
GSN 4220 2176 M -36 0 rL SGR
GSN 620 2401 M 36 0 rL SGR
GSN 4220 2401 M -36 0 rL SGR
GSN 620 2626 M 36 0 rL SGR
GSN 4220 2626 M -36 0 rL SGR
GSN 620 2851 M 36 0 rL SGR
GSN 4220 2851 M -36 0 rL SGR
GSN 620 3076 M 36 0 rL SGR
GSN 4220 3076 M -36 0 rL SGR
GSN 620 3302 M 36 0 rL SGR
GSN 4220 3302 M -36 0 rL SGR
GSN 620 3527 M 36 0 rL SGR
GSN 4220 3527 M -36 0 rL SGR
GSN 620 3752 M 36 0 rL SGR
GSN 4220 3752 M -36 0 rL SGR
GSN 620 3977 M 36 0 rL SGR
GSN 4220 3977 M -36 0 rL SGR
GSN 620 4202 M 36 0 rL SGR
GSN 4220 4202 M -36 0 rL SGR

%
% X axis
%
GSN L5 620 1050 M 4220 1050 L SDA G50 SGR

%
% X-Axis label:
%
gsave 2420 290 M 
[
[(Helvetica) 180 0 true true 0 (t)]
[(Helvetica) 180 0 true true 0 (i)]
[(Helvetica) 180 0 true true 0 (m)]
[(Helvetica) 180 0 true true 0 (e)]
] 0 MCshow grestore

%
% Y-Axis label:
%
gsave 234 2420 M 
currentpoint gsave translate 90 rotate 0 0 moveto
[
[(Helvetica) 180 0 true true 0 (d)]
[(Helvetica) 180 0 true true 0 (\()]
[(Helvetica) 180 0 true true 0 (s)]
[(Helvetica) 180 0 true true 0 (i)]
[(Helvetica) 180 0 true true 0 (g)]
[(Helvetica) 180 0 true true 0 (n)]
[(Helvetica) 180 0 true true 0 (a)]
[(Helvetica) 180 0 true true 0 (l)]
[(Helvetica) 180 0 true true 0 (\))]
[(Helvetica) 180 0 true true 0 ( )]
[(Helvetica) 180 0 true true 0 (/)]
[(Helvetica) 180 0 true true 0 ( )]
[(Helvetica) 180 0 true true 0 (d)]
[(Helvetica) 180 0 true true 0 (t)]
] 0 MCshow grestore

end
showpage
%%Trailer
%%EOF
