%!PS-Adobe-3.0 EPSF-3.0
%%BoundingBox: 0 0 514 550
%%Creator: BioKin Ltd.
%%DocumentFonts: Symbol Helvetica
%%EndComments
%
/bkdict 256 dict def
bkdict begin
/M {moveto} def 
/R {rmoveto} def
/L {lineto} def
/rL {rlineto} def
/GSN {gsave newpath} def
/SGR {stroke grestore} def
/COSGR {gsave setrgbcolor stroke grestore grestore} def
/SL {setlinewidth} def
/LWMB {12} def             % line width - model curves, black & white
/LWMC {10} def             % line width - model curves, color
/L2 {2.5 setlinewidth} def
/L5 {5 setlinewidth} def
/L10 {10 setlinewidth} def
/G50 {0.5 setgray} def
/SDA {[10  20] 0 setdash} def % axes
/helvT {/Helvetica findfont 100 scalefont setfont} def % tiny
/helvS {/Helvetica findfont 125 scalefont setfont} def % small
/helvM {/Helvetica findfont 150 scalefont setfont} def % medium
/helvL {/Helvetica findfont 175 scalefont setfont} def % large
/xlabel {gsave M dup
   stringwidth exch -0.5 mul exch rmoveto show grestore} def 
/ylabel {gsave M 90 rotate dup
   stringwidth exch -0.5 mul exch rmoveto show grestore} def
/ylabelresid {gsave M dup
   stringwidth exch -1 mul exch rmoveto show grestore} def
% ======
% Shapes
% ======
% Circle:
/Circ {0 360 arc closepath} def
%
% Square:
/Squa {dup dup -0.5 mul dup dup R -2 mul 0 exch rL 1 mul 0 rL dup 0 exch -1 mul rL closepath} def
%
% Triangle Up:
/TriU {dup dup dup -0.4 mul exch -0.5 mul exch R dup 0.5 mul exch rL dup -1 mul exch 0.5 mul exch rL closepath} def 
%
% Triangle Down:
/TriD {dup dup dup 0.4 mul exch -0.5 mul exch R dup 0.5 mul exch -1 mul rL dup 0.5 mul exch rL closepath} def 
%
% Diamond:
/Diam {45 rotate Squa} def
% ======
% Fills
% ======
/GRF {gsave setgray fill grestore} def                    % gray-level Fill
/COF {gsave setrgbcolor fill grestore} def                % color fill
% ======
% Colors
% ======
/C01 {1.00	0.00	0.00} def      % Red
/C02 {0.00	0.00	1.00} def      % Blue
/C03 {0.00	0.39	0.00} def      % Dark Green
/C04 {0.78	0.08	0.52} def      % Medium Violet Red
/C05 {0.55	0.27	0.07} def      % Saddle Brown
/C06 {0.10	0.70	0.70} def      % (cyan)
/C07 {1.00	0.55	0.00} def      % Dark Orange
/C08 {0.63	0.13	0.94} def      % Purple
/C09 {0.00	0.75	1.00} def      % Deep Sky Blue
/C10 {0.20	0.80	0.20} def      % Lime Green
/C11 {0.47	0.53	0.60} def      % Light Slate Gray
/C12 {0.00	0.00	0.00} def      % Black            % or: {0.19	0.31	0.31} def      % Dark Slate Gray
%
/LGR {0.75} def % light gray
/DGR {0.33} def % dark gray
%
% =============
% Dash patterns
% =============
/dash01 { [80  20] 0 setdash } def
/dash02 { [40  20] 0 setdash } def
/dash03 { [80  20  10  20] 0 setdash } def
/dash04 { [40  20  10  20] 0 setdash } def
/dash05 { [80  20  10  10  10  20] 0 setdash } def
/dash06 { [40  20  10  10  10  20] 0 setdash } def
/dash07 { [10  10] 0 setdash } def
%
/MFshow {
   { dup 5 get 3 ge
     { 5 get 3 eq {gsave} {grestore} ifelse }
     {dup dup 0 get findfont exch 1 get scalefont setfont
     [ currentpoint ] exch dup 2 get 0 exch R dup 5 get 2 ne {dup dup 6
     get exch 4 get {show} {stringwidth pop 0 R} ifelse }if dup 5 get 0 eq
     {dup 3 get {2 get neg 0 exch R pop} {pop aload pop M} ifelse} {dup 5
     get 1 eq {dup 2 get exch dup 3 get exch 6 get stringwidth pop -2 div
     dup 0 R} {dup 6 get stringwidth pop -2 div 0 R 6 get
     show 2 index {aload pop M neg 3 -1 roll neg R pop pop} {pop pop pop
     pop aload pop M} ifelse }ifelse }ifelse }
     ifelse }
   forall} bind def
/MFwidth {0 exch {dup 3 get{dup dup 0 get findfont exch 1 get scalefont
     setfont 6 get stringwidth pop add} {pop} ifelse} forall} bind def
/MCshow { currentpoint stroke M
  exch dup MFwidth -2 div 3 -1 roll R MFshow } def
%
end
%%EndProlog
bkdict begin
0.1 0.1 scale
%
% Model curves:
%

GSN 753 5166 M
753 5166 L
786 5165 L
820 5163 L
853 5161 L
886 5158 L
920 5156 L
929 5155 L
953 5153 L
986 5149 L
1020 5145 L
1053 5141 L
1086 5136 L
1106 5133 L
1120 5131 L
1153 5125 L
1186 5119 L
1220 5112 L
1253 5104 L
1282 5096 L
1286 5095 L
1319 5086 L
1353 5076 L
1386 5065 L
1419 5054 L
1453 5042 L
1459 5040 L
1486 5030 L
1519 5017 L
1553 5004 L
1586 4992 L
1619 4980 L
1635 4974 L
1653 4968 L
1686 4958 L
1719 4948 L
1753 4940 L
1786 4932 L
1812 4928 L
1819 4926 L
1853 4921 L
1886 4916 L
1919 4911 L
1953 4905 L
1986 4898 L
1988 4898 L
2019 4890 L
2053 4879 L
2086 4866 L
2119 4849 L
2153 4830 L
2165 4821 L
2186 4806 L
2219 4778 L
2253 4747 L
2286 4710 L
2319 4669 L
2341 4639 L
2353 4622 L
2386 4571 L
2419 4513 L
2453 4450 L
2486 4382 L
2518 4310 L
2519 4307 L
2553 4226 L
2586 4139 L
2619 4047 L
2653 3951 L
2686 3849 L
2694 3824 L
2719 3745 L
2753 3638 L
2786 3531 L
2819 3424 L
2853 3318 L
2871 3262 L
2886 3216 L
2919 3118 L
2953 3027 L
2986 2942 L
3019 2864 L
3047 2805 L
3053 2794 L
3086 2732 L
3119 2678 L
3153 2632 L
3186 2592 L
3219 2559 L
3224 2555 L
3253 2532 L
3286 2511 L
3319 2494 L
3353 2481 L
3386 2471 L
3400 2468 L
3419 2465 L
3453 2460 L
3476 2458 L
3486 2457 L
3519 2456 L
3553 2455 L
3577 2454 L
3586 2454 L
3619 2454 L
3653 2454 L
3686 2454 L
3719 2454 L
3753 2454 L
3754 2454 L
3786 2454 L
3819 2454 L
3853 2454 L
3886 2454 L
3919 2454 L
3930 2454 L
3953 2454 L
3986 2454 L
4019 2454 L
4053 2454 L
4086 2454 L
4086 2454 L
LWMC SL  C02 COSGR

%
% Experimental data:
%
GSN 777 4534 M
1388 5090 L
1552 4867 L
1652 4388 L
1723 4184 L
1778 4259 L
1824 4684 L
1863 4474 L
1896 4555 L
1926 4546 L
1952 4706 L
1976 4613 L
1998 4776 L
2019 4486 L
2037 4383 L
2055 4476 L
2071 4637 L
2086 4450 L
2101 4583 L
2115 4759 L
2128 4781 L
2140 4622 L
2152 4474 L
2163 4570 L
2174 4645 L
2184 4541 L
2194 4642 L
2204 4568 L
2213 4345 L
2222 4727 L
2230 4603 L
2239 4647 L
2247 4697 L
2255 4449 L
2262 4293 L
2270 4583 L
2277 4496 L
2284 4279 L
2290 4591 L
2297 4491 L
2303 4424 L
2310 4519 L
2316 4563 L
2322 4538 L
2328 4385 L
2333 4289 L
2339 4407 L
2344 4662 L
2350 4513 L
2355 4571 L
2360 4452 L
2365 4551 L
2370 4340 L
2375 4450 L
2380 4544 L
2384 4358 L
2389 4313 L
2393 4373 L
2398 4417 L
2402 4444 L
2407 4575 L
2411 4340 L
2415 4343 L
2419 4106 L
2423 4455 L
2427 4299 L
2431 4358 L
2435 4261 L
2438 4368 L
2442 4358 L
2446 4370 L
2449 4113 L
2453 4377 L
2456 4398 L
2460 4531 L
2463 4330 L
2467 4325 L
2470 4271 L
2473 4086 L
2476 4170 L
2480 4333 L
2483 4340 L
2486 4487 L
2489 4452 L
2492 4217 L
2495 4246 L
2498 4303 L
2501 4294 L
2504 4202 L
2507 4365 L
2510 4167 L
2512 4058 L
2515 4150 L
2518 4098 L
2521 4165 L
2523 4172 L
2526 4388 L
2529 4209 L
2531 4091 L
2534 4298 L
2536 4006 L
2539 4115 L
2541 4147 L
2544 4246 L
2546 4197 L
2549 4041 L
2551 4068 L
2554 4088 L
2556 4189 L
2558 4350 L
2561 4219 L
2563 4108 L
2565 3893 L
2568 4101 L
2570 4085 L
2572 4060 L
2574 4002 L
2576 4551 L
2579 4153 L
2581 4229 L
2583 3962 L
2585 4236 L
2587 4064 L
2589 4044 L
2591 4249 L
2593 4225 L
2595 4173 L
2597 4004 L
2599 4140 L
2601 4241 L
2603 4069 L
2605 3893 L
2607 3907 L
2609 3991 L
2611 4091 L
2613 4088 L
2615 4214 L
2617 4056 L
2618 4073 L
2620 4024 L
2622 4014 L
2624 3977 L
2626 3959 L
2627 3999 L
2629 3788 L
2631 4098 L
2633 4192 L
2634 3935 L
2636 4080 L
2638 3843 L
2640 4006 L
2641 4083 L
2643 3819 L
2645 4038 L
2646 3836 L
2648 3784 L
2650 3957 L
2651 3989 L
2653 4041 L
2654 3984 L
2656 4034 L
2658 3818 L
2659 4009 L
2661 3887 L
2662 3729 L
2664 3757 L
2665 4073 L
2667 3883 L
2668 4002 L
2670 4123 L
2671 4080 L
2673 3791 L
2674 4145 L
2676 3967 L
2677 3910 L
2679 4069 L
2680 3882 L
2682 3724 L
2683 3781 L
2685 3846 L
2686 3722 L
2687 3741 L
2689 3642 L
2690 4041 L
2692 3922 L
2693 4051 L
2694 3929 L
2696 3845 L
2697 3885 L
2698 3971 L
2700 3551 L
2701 3739 L
2702 3925 L
2704 3781 L
2705 3920 L
2706 4058 L
2708 3826 L
2709 3794 L
2710 3863 L
2712 3752 L
2713 3848 L
2714 3898 L
2715 3890 L
2717 3721 L
2718 3927 L
2719 3966 L
2720 3622 L
2722 3794 L
2723 3865 L
2724 3907 L
2725 3699 L
2726 3945 L
2728 3794 L
2729 3774 L
2730 3920 L
2731 3927 L
2732 3561 L
2734 3657 L
2735 3982 L
2736 3925 L
2737 3883 L
2738 3615 L
2739 3734 L
2741 3778 L
2742 3831 L
2743 3707 L
2744 3898 L
2745 3930 L
2746 3612 L
2747 3573 L
2748 3677 L
2749 3645 L
2751 3551 L
2752 3779 L
2753 3707 L
2754 3715 L
2755 3657 L
2756 3777 L
2757 3709 L
2758 3685 L
2759 3850 L
2760 3838 L
2761 3514 L
2762 3526 L
2763 3538 L
2764 3744 L
2765 3727 L
2767 3843 L
2768 3628 L
2769 3778 L
2770 3697 L
2771 3734 L
2772 3925 L
2773 3324 L
2774 3626 L
2775 3825 L
2776 3690 L
2777 3427 L
2778 3529 L
2779 3732 L
2780 3655 L
2781 3512 L
2782 3764 L
2783 3583 L
2783 3601 L
2784 3633 L
2785 3717 L
2786 3580 L
2787 3781 L
2788 3809 L
2789 3645 L
2790 3665 L
2791 3653 L
2792 3576 L
2793 3568 L
2794 3663 L
2795 3685 L
2796 3626 L
2797 3528 L
2798 3734 L
2798 3553 L
2799 3534 L
2800 3385 L
2801 3662 L
2802 3669 L
2803 3739 L
2804 3403 L
2805 3576 L
2806 3875 L
2807 3573 L
2807 3660 L
2808 3330 L
2809 3299 L
2810 3338 L
2811 3558 L
2812 3491 L
2813 3517 L
2813 3538 L
2814 3704 L
2815 3460 L
2816 3467 L
2817 3491 L
2818 3643 L
2819 3314 L
2819 3507 L
2820 3779 L
2821 3551 L
2822 3338 L
2823 3561 L
2824 3613 L
2824 3383 L
2825 3474 L
2826 3405 L
2827 3482 L
2828 3378 L
2828 3699 L
2829 3553 L
2830 3292 L
2831 3424 L
2832 3464 L
2832 3388 L
2833 3313 L
2834 3429 L
2835 3360 L
2836 3378 L
2836 3611 L
2837 3627 L
2838 3462 L
2839 3298 L
2840 3526 L
2840 3254 L
2841 3383 L
2842 3638 L
2843 3298 L
2843 3677 L
2844 3454 L
2845 3704 L
2846 3685 L
2846 3333 L
2847 3412 L
2848 3215 L
2849 3417 L
2849 3482 L
2850 3731 L
2851 3182 L
2852 3445 L
2852 3373 L
2853 3324 L
2854 3348 L
2855 3234 L
2855 3466 L
2856 3143 L
2857 3660 L
2857 3291 L
2858 3460 L
2859 3318 L
2860 3380 L
2860 3517 L
2861 3707 L
2862 3323 L
2862 3291 L
2863 3697 L
2864 3336 L
2865 3393 L
2865 3424 L
2866 3496 L
2867 3385 L
2867 3398 L
2868 3373 L
2869 3435 L
2869 3148 L
2870 3417 L
2871 3393 L
2871 3209 L
2872 3405 L
2873 3125 L
2873 3180 L
2874 3469 L
2875 3296 L
2876 3324 L
2876 3482 L
2877 3246 L
2878 3363 L
2878 3254 L
2879 3467 L
2880 3148 L
2880 3247 L
2881 3487 L
2881 3116 L
2882 3440 L
2883 3148 L
2883 3215 L
2884 3355 L
2885 3299 L
2885 3516 L
2886 3276 L
2887 3291 L
2887 3204 L
2888 3128 L
2889 3393 L
2889 3485 L
2892 3172 L
2894 3281 L
2897 3259 L
2899 3230 L
2902 3054 L
2904 3173 L
2907 3511 L
2909 3157 L
2911 3227 L
2914 3022 L
2916 3278 L
2918 3175 L
2921 3125 L
2923 3029 L
2925 3165 L
2927 3264 L
2929 3319 L
2932 3053 L
2934 3111 L
2936 3138 L
2938 2932 L
2940 3152 L
2942 3230 L
2944 2930 L
2946 3079 L
2948 3269 L
2950 2940 L
2952 2922 L
2954 3120 L
2956 3157 L
2958 2863 L
2960 2868 L
2962 3209 L
2964 2893 L
2966 3078 L
2968 2927 L
2970 2965 L
2971 3073 L
2973 2764 L
2975 2866 L
2977 3167 L
2979 2819 L
2980 2969 L
2982 2935 L
2984 2796 L
2986 3068 L
2987 2855 L
2989 2801 L
2991 2767 L
2993 2709 L
2994 2928 L
2996 2767 L
2998 2598 L
2999 2923 L
3001 2814 L
3003 2704 L
3004 2531 L
3006 3058 L
3007 2999 L
3009 2848 L
3011 2964 L
3012 2933 L
3014 2643 L
3015 2876 L
3017 2878 L
3018 2732 L
3020 2942 L
3021 2734 L
3023 2967 L
3024 2532 L
3026 2871 L
3027 2870 L
3029 2590 L
3030 2548 L
3032 2623 L
3033 2779 L
3035 2774 L
3036 2693 L
3038 2992 L
3039 2863 L
3040 2828 L
3042 2660 L
3043 2747 L
3045 2715 L
3046 2756 L
3047 2759 L
3049 2813 L
3050 2668 L
3051 2806 L
3053 2465 L
3054 2608 L
3055 2898 L
3057 2501 L
3058 2751 L
3059 2890 L
3061 2715 L
3062 2722 L
3063 2558 L
3065 2417 L
3066 2803 L
3067 2608 L
3068 2652 L
3070 2512 L
3071 2705 L
3072 2690 L
3073 2553 L
3075 2601 L
3076 2630 L
3077 2709 L
3078 2699 L
3079 2551 L
3081 2616 L
3082 2402 L
3083 2578 L
3084 2616 L
3085 2522 L
3087 2522 L
3088 2613 L
3089 2568 L
3090 2657 L
3091 2467 L
3092 2465 L
3094 2561 L
3095 2452 L
3096 2477 L
3097 2635 L
3098 2430 L
3099 2860 L
3100 2355 L
3101 2277 L
3103 2791 L
3104 2293 L
3105 2514 L
3106 2589 L
3107 2449 L
3108 2541 L
3109 2564 L
3110 2709 L
3111 2480 L
3112 2366 L
3113 2445 L
3114 2633 L
3115 2590 L
3116 2487 L
3117 2588 L
3119 2351 L
3120 2420 L
3121 2556 L
3122 2462 L
3123 2574 L
3124 2472 L
3125 2620 L
3126 2489 L
3127 2271 L
3128 2600 L
3129 2329 L
3130 2321 L
3131 2692 L
3132 2172 L
3133 2519 L
3134 2462 L
3135 2252 L
3136 2465 L
3136 2442 L
3137 2346 L
3138 2350 L
3139 2439 L
3140 2479 L
3141 2192 L
3142 2335 L
3143 2269 L
3144 2480 L
3145 2608 L
3146 2506 L
3147 2563 L
3148 2293 L
3149 2192 L
3150 2444 L
3151 2388 L
3151 2214 L
3152 2281 L
3153 2230 L
3154 2417 L
3155 2148 L
3156 2450 L
3157 2586 L
3158 2495 L
3159 2319 L
3160 2391 L
3160 2086 L
3161 2301 L
3162 2261 L
3163 2395 L
3164 2361 L
3165 2500 L
3166 2323 L
3166 2244 L
3167 2442 L
3168 2415 L
3169 2198 L
3170 2395 L
3171 2358 L
3172 2542 L
3172 2304 L
3173 2222 L
3174 2209 L
3175 2190 L
3176 2329 L
3177 2400 L
3177 2298 L
3178 2351 L
3179 2293 L
3180 2286 L
3181 2385 L
3181 2541 L
3182 2422 L
3183 2101 L
3184 2469 L
3185 2388 L
3185 2326 L
3186 2512 L
3187 2165 L
3188 2385 L
3189 2365 L
3189 2596 L
3190 2445 L
3191 2279 L
3192 2141 L
3193 2324 L
3193 2548 L
3194 2182 L
3195 2288 L
3196 2328 L
3196 2188 L
3197 2090 L
3198 2417 L
3199 2113 L
3199 2064 L
3200 2428 L
3201 2346 L
3202 2207 L
3202 2306 L
3203 2324 L
3204 2321 L
3205 2103 L
3205 2531 L
3206 2262 L
3207 2219 L
3208 2182 L
3208 2375 L
3209 2306 L
3210 2215 L
3210 2381 L
3211 2163 L
3212 2284 L
3213 2299 L
3213 2319 L
3214 2339 L
3215 2408 L
3215 2172 L
3216 2215 L
3217 2324 L
3218 2249 L
3218 2022 L
3219 1912 L
3220 2412 L
3220 2266 L
3221 2239 L
3222 2224 L
3222 2393 L
3223 2140 L
3224 2435 L
3224 2125 L
3225 2299 L
3226 2145 L
3227 2140 L
3227 2138 L
3228 2146 L
3229 2314 L
3229 2207 L
3230 2090 L
3231 2274 L
3231 2304 L
3232 2199 L
3233 2385 L
3233 2210 L
3234 2153 L
3235 2437 L
3235 2128 L
3236 2475 L
3236 2313 L
3237 2200 L
3238 2289 L
3238 2162 L
3239 2240 L
3240 2361 L
3240 2205 L
3241 2257 L
3242 2219 L
3242 2247 L
3243 2227 L
3244 2155 L
3244 2204 L
3245 2306 L
3245 2047 L
3246 2177 L
3247 2086 L
3247 1957 L
3248 2301 L
3249 2084 L
3249 2316 L
3250 2334 L
3250 2110 L
3251 2195 L
3252 2054 L
3252 2375 L
3253 2076 L
3253 2415 L
3254 2282 L
3255 2224 L
3255 2205 L
3256 2336 L
3257 2252 L
3257 2345 L
3258 2264 L
3258 2264 L
3259 2175 L
3259 2046 L
3260 2160 L
3261 2365 L
3261 2306 L
3262 2183 L
3262 2111 L
3263 2277 L
3264 2177 L
3264 2259 L
3265 2363 L
3265 2336 L
3266 2234 L
3267 2385 L
3267 2200 L
3268 2286 L
3268 2282 L
3269 2344 L
3269 2244 L
3270 2319 L
3271 2195 L
3271 2311 L
3272 2091 L
3272 2192 L
3273 2093 L
3273 2450 L
3274 2489 L
3275 2418 L
3275 2190 L
3276 2365 L
3276 2296 L
3277 2329 L
3277 2170 L
3278 2115 L
3278 2209 L
3279 2145 L
3280 2427 L
3280 2160 L
3281 2016 L
3281 2418 L
3282 2459 L
3282 2292 L
3283 2245 L
3283 2116 L
3284 2157 L
3284 1997 L
3285 2210 L
3285 1939 L
3286 2150 L
3287 2262 L
3287 2110 L
3288 2388 L
3288 2184 L
3289 2101 L
3289 1833 L
3290 2314 L
3290 2291 L
3291 2084 L
3291 2056 L
3292 2301 L
3292 2336 L
3293 2130 L
3293 2163 L
3294 2188 L
3294 2172 L
3295 2165 L
3295 2093 L
3296 2355 L
3297 2155 L
3297 2259 L
3298 2163 L
3298 2366 L
3299 2219 L
3299 2210 L
3300 2123 L
3300 2259 L
3301 2247 L
3301 2257 L
3302 2351 L
3302 2155 L
3303 2219 L
3303 2613 L
3304 2344 L
3304 2397 L
3305 2437 L
3305 2274 L
3306 2111 L
3306 2170 L
3307 2427 L
3307 2415 L
3308 2408 L
3308 2150 L
3309 2319 L
3309 2185 L
3310 2244 L
3310 2242 L
3311 2368 L
3311 2309 L
3312 2361 L
3312 2204 L
3312 2318 L
3313 2205 L
3313 2371 L
3314 2566 L
3314 2271 L
3315 2224 L
3315 2239 L
3316 2380 L
3316 2232 L
3317 2318 L
3317 2341 L
3318 1955 L
3318 2220 L
3319 2279 L
3319 2195 L
3320 2336 L
3320 2286 L
3321 2339 L
3321 2207 L
3321 2382 L
3322 2267 L
3322 2345 L
3323 2259 L
3323 2476 L
3324 2282 L
3324 2309 L
3325 2240 L
3325 2259 L
3326 2152 L
3326 2135 L
3327 2341 L
3327 2593 L
3327 2224 L
3328 2192 L
3328 2051 L
3329 2244 L
3329 2435 L
3330 2470 L
3330 2351 L
3331 2407 L
3331 2279 L
3332 2289 L
3332 2329 L
3332 2366 L
3333 2121 L
3333 2381 L
3334 2380 L
3334 2432 L
3335 2294 L
3335 2370 L
3336 2378 L
3336 2430 L
3336 2459 L
3337 2125 L
3337 2339 L
3338 2252 L
3338 2442 L
3339 2308 L
3339 2373 L
3339 2210 L
3340 1905 L
3340 2138 L
3341 2353 L
3341 2397 L
3342 2289 L
3342 2477 L
3343 2486 L
3343 2272 L
3343 2256 L
3344 2251 L
3344 2734 L
3345 2266 L
3345 2388 L
3346 2177 L
3346 2313 L
3346 2100 L
3347 2449 L
3347 2101 L
3348 2376 L
3348 2157 L
3348 2311 L
3349 2501 L
3349 2269 L
3350 2355 L
3350 2401 L
3351 2313 L
3351 2294 L
3351 2084 L
3352 2313 L
3352 2462 L
3353 2432 L
3353 2413 L
3353 2244 L
3354 2081 L
3354 2157 L
3355 2093 L
3355 2195 L
3355 2751 L
3356 2375 L
3356 2324 L
3357 2264 L
3357 2356 L
3358 2616 L
3358 2229 L
3358 2497 L
3359 2133 L
3359 2333 L
3360 2130 L
3360 2297 L
3360 2215 L
3361 2304 L
3361 2383 L
3362 2301 L
3362 2150 L
3362 2454 L
3363 2205 L
3363 2464 L
3364 2393 L
3364 2663 L
3364 1953 L
3365 2281 L
3365 2360 L
3365 2403 L
3366 2450 L
3366 2074 L
3367 2423 L
3367 2517 L
3367 2445 L
3368 2140 L
3368 2093 L
3369 2212 L
3369 2261 L
3369 2370 L
3370 2583 L
3370 2499 L
3371 2514 L
3371 2348 L
3371 2078 L
3372 2162 L
3372 2147 L
3372 2220 L
3373 2254 L
3373 2259 L
3374 2380 L
3374 2224 L
3374 2385 L
3375 2282 L
3375 2321 L
3375 2559 L
3376 2214 L
3376 2209 L
3377 2309 L
3377 2308 L
3377 2388 L
3378 2224 L
3378 2251 L
3378 2496 L
3379 2178 L
3379 2447 L
3380 2257 L
3380 2538 L
3380 2444 L
3381 2566 L
3381 2472 L
3381 2202 L
3382 2136 L
3382 2348 L
3383 2403 L
3383 2554 L
3383 2323 L
3384 2381 L
3384 2262 L
3384 2269 L
3385 2454 L
3385 2333 L
3385 2163 L
3386 2084 L
3386 2173 L
3387 2561 L
3387 2234 L
3387 2445 L
3388 2376 L
3388 2475 L
3388 2069 L
3389 2296 L
3389 2116 L
3389 2482 L
3390 2504 L
3390 2215 L
3391 2323 L
3391 2264 L
3391 2489 L
3392 2286 L
3392 2422 L
3392 2417 L
3393 2220 L
3393 2381 L
3393 2298 L
3394 2328 L
3394 2578 L
3394 2267 L
3395 2143 L
3395 2437 L
3395 2343 L
3396 2427 L
3396 2353 L
3396 2277 L
3397 2482 L
3397 2289 L
3398 2593 L
3398 2257 L
3398 2455 L
3399 2351 L
3399 2387 L
3399 2526 L
3400 2462 L
3400 2494 L
3400 2440 L
3401 2299 L
3401 2432 L
3401 2204 L
3402 2329 L
3402 2370 L
3402 2350 L
3403 2229 L
3403 2521 L
3403 2214 L
3404 2403 L
3404 2383 L
3404 2388 L
3405 2615 L
3405 2328 L
3405 2272 L
3406 2546 L
3406 2306 L
3406 2304 L
3407 2420 L
3407 2476 L
3407 2470 L
3408 2660 L
3408 2425 L
3408 2534 L
3409 2314 L
3409 2407 L
3409 2239 L
3410 2487 L
3410 2329 L
3410 2333 L
3411 2511 L
3411 2356 L
3411 2544 L
3412 2368 L
3412 2547 L
3412 2308 L
3413 2559 L
3413 2309 L
3413 2328 L
3414 2407 L
3414 2385 L
3414 2304 L
3415 2552 L
3415 2412 L
3415 2479 L
3416 2266 L
3416 2395 L
3416 2353 L
3417 2470 L
3417 2247 L
3417 2353 L
3417 2499 L
3418 2363 L
3418 2393 L
3418 2509 L
3419 2335 L
3419 2403 L
3419 2628 L
3420 2373 L
3420 2428 L
3420 2561 L
3421 2519 L
3421 2554 L
3421 2370 L
3422 2366 L
3422 2428 L
3422 2319 L
3423 2422 L
3423 2388 L
3423 2346 L
3423 2349 L
3424 2512 L
3424 2318 L
3424 2335 L
3425 2537 L
3425 2355 L
3425 2546 L
3426 2561 L
3426 2512 L
3426 2319 L
3427 2522 L
3427 2381 L
3427 2366 L
3428 2640 L
3428 2386 L
3428 2724 L
3428 2732 L
3429 2194 L
3429 2480 L
3429 2484 L
3430 2403 L
3430 2391 L
3430 2395 L
3431 2428 L
3431 2413 L
3431 2544 L
3431 2553 L
3432 2465 L
3432 2343 L
3432 2286 L
3433 2219 L
3433 2583 L
3433 2546 L
3434 2512 L
3434 2574 L
3434 2380 L
3434 2261 L
3435 2497 L
3435 2251 L
3435 2663 L
3436 2408 L
3436 2581 L
3436 2360 L
3437 2413 L
3437 2444 L
3437 2427 L
3437 2475 L
3438 2457 L
3438 2269 L
3438 2444 L
3439 2371 L
3439 2576 L
3439 2439 L
3440 2610 L
3440 2600 L
3440 2526 L
3440 2390 L
3441 2304 L
3441 2433 L
3441 2474 L
3442 2585 L
3442 2626 L
3442 2333 L
3442 2438 L
3443 2472 L
3443 2452 L
3443 2487 L
3444 2390 L
3444 2571 L
3444 2667 L
3444 2631 L
3445 2558 L
3445 2440 L
3445 2388 L
3446 2588 L
3446 2340 L
3446 2459 L
3446 2381 L
3447 2536 L
3447 2472 L
3447 2120 L
3448 2539 L
3448 2539 L
3448 2476 L
3448 2282 L
3449 2554 L
3449 2531 L
3449 2447 L
3450 2548 L
3450 2393 L
3450 2282 L
3450 2450 L
3451 2412 L
3451 2348 L
3451 2476 L
3452 2642 L
3452 2457 L
3452 2574 L
3452 2482 L
3453 2423 L
3453 2665 L
3453 2516 L
3454 2531 L
3454 2358 L
3454 2397 L
3454 2492 L
3455 2445 L
3455 2665 L
3455 2633 L
3455 2598 L
3456 2086 L
3456 2586 L
3456 2573 L
3457 2568 L
3457 2677 L
3457 2472 L
3457 2497 L
3458 2400 L
3458 2643 L
3458 2517 L
3458 2682 L
3459 2526 L
3459 2499 L
3459 2742 L
3460 2531 L
3460 2514 L
3460 2566 L
3460 2635 L
3461 2398 L
3461 2418 L
3461 2328 L
3461 2516 L
3462 2517 L
3462 2299 L
3462 2504 L
3463 2542 L
3463 2601 L
3463 2633 L
3463 2675 L
3464 2210 L
3464 2591 L
3464 2584 L
3464 2402 L
3465 2645 L
3465 2455 L
3465 2702 L
3465 2234 L
3466 2549 L
3466 2472 L
3466 2688 L
3466 2455 L
3467 2512 L
3467 2552 L
3467 2589 L
3468 2551 L
3468 2464 L
3468 2563 L
3468 2754 L
3469 2779 L
3469 2501 L
3469 2542 L
3469 2376 L
3470 2494 L
3470 2494 L
3470 2383 L
3470 2601 L
3471 2640 L
3471 2717 L
3471 2752 L
3471 2224 L
3472 2512 L
3472 2779 L
3472 2366 L
3472 2447 L
3473 2420 L
3473 2553 L
3473 2470 L
3474 2470 L
3474 2437 L
3474 2598 L
3474 2517 L
3475 2333 L
3475 2566 L
3475 2217 L
3475 2313 L
3476 2544 L
3476 2470 L
3476 2574 L
3476 2360 L
3477 2397 L
3477 2383 L
3477 2677 L
3477 2470 L
3478 2559 L
3478 2710 L
3478 2469 L
3478 2548 L
3479 2385 L
3479 2638 L
3479 2673 L
3479 2630 L
3480 2321 L
3480 2381 L
3480 2433 L
3480 2524 L
3481 2522 L
3481 2418 L
3481 2539 L
3481 2412 L
3482 2474 L
3482 2427 L
3482 2596 L
3482 2679 L
3483 2556 L
3483 2492 L
3483 2524 L
3483 2548 L
3484 2752 L
3484 2467 L
3484 2600 L
3484 2479 L
3485 2469 L
3485 2600 L
3485 2380 L
3485 2737 L
3486 2459 L
3486 2826 L
3486 2746 L
3486 2447 L
3487 2574 L
3487 2412 L
3487 2569 L
3487 2462 L
3488 2752 L
3488 2576 L
3488 2194 L
3488 2704 L
3488 2613 L
3489 2308 L
3489 2579 L
3489 2336 L
3489 2563 L
3490 2719 L
3490 2573 L
3490 2538 L
3490 2539 L
3491 2578 L
3491 2598 L
3491 2626 L
3491 2563 L
3492 2662 L
3492 2605 L
3492 2512 L
3492 2615 L
3493 2492 L
3493 2517 L
3493 2598 L
3493 2388 L
3494 2467 L
3494 2647 L
3494 2563 L
3494 2323 L
3494 2398 L
3495 2425 L
3495 2741 L
3495 2653 L
3495 2492 L
3496 2187 L
3496 2583 L
3496 2658 L
3496 2432 L
3497 2600 L
3497 2249 L
3497 2544 L
3497 2474 L
3498 2608 L
3498 2801 L
3498 2519 L
3498 2581 L
3498 2724 L
3499 2522 L
3499 2642 L
3499 2336 L
3499 2830 L
3500 2412 L
3500 2434 L
3506 2591 L
3511 2535 L
3517 2698 L
3522 2557 L
3527 2669 L
3532 2432 L
3537 2924 L
3542 2503 L
3547 2694 L
3552 2604 L
3557 2591 L
3561 2792 L
3566 2347 L
3570 2794 L
3575 2964 L
3579 2718 L
3583 2297 L
3587 2577 L
3591 2642 L
3595 2709 L
3599 2725 L
3603 2732 L
3607 2993 L
3611 2620 L
3614 2579 L
3618 2669 L
3622 2535 L
3625 2439 L
3629 2738 L
3632 2566 L
3636 2819 L
3639 2354 L
3642 3049 L
3646 2852 L
3649 2470 L
3652 2593 L
3655 2812 L
3658 2868 L
3661 2642 L
3664 2721 L
3667 2562 L
3670 2707 L
3673 2946 L
3676 2830 L
3679 2579 L
3682 2761 L
3685 2729 L
3688 2852 L
3690 2646 L
3693 2799 L
3696 2852 L
3698 2750 L
3701 2691 L
3704 2877 L
3706 2647 L
3709 2669 L
3711 2823 L
3714 2743 L
3716 2837 L
3719 2870 L
3721 2866 L
3724 2863 L
3726 2779 L
3728 2721 L
3731 2852 L
3733 2790 L
3735 2718 L
3738 2754 L
3740 2736 L
3742 2812 L
3744 2848 L
3747 2676 L
3749 2911 L
3751 2821 L
3753 2980 L
3755 2971 L
3757 2694 L
3760 2774 L
3762 2796 L
3764 2832 L
3766 2658 L
3768 2821 L
3770 2584 L
3772 3016 L
3774 2776 L
3776 2897 L
3778 2882 L
3780 2902 L
3781 2906 L
3783 2828 L
3785 2785 L
3787 3134 L
3789 2671 L
3791 2602 L
3793 2958 L
3795 2759 L
3796 2754 L
3798 2810 L
3800 2982 L
3802 2915 L
3803 2810 L
3805 2756 L
3807 2743 L
3809 2873 L
3810 2714 L
3812 2888 L
3814 2687 L
3816 2750 L
3817 2866 L
3819 2951 L
3820 2848 L
3822 2924 L
3824 3011 L
3825 2761 L
3827 2772 L
3829 2761 L
3830 2810 L
3832 2839 L
3833 2805 L
3835 2752 L
3836 2788 L
3838 2564 L
3839 2454 L
3841 2987 L
3842 2982 L
3844 2687 L
3845 3078 L
3847 2644 L
3848 2953 L
3850 2546 L
3851 3089 L
3853 2741 L
3854 2899 L
3856 2984 L
3857 2868 L
3859 2633 L
3860 2758 L
3861 2897 L
3863 2933 L
3864 2747 L
3866 2843 L
3867 2957 L
3868 2828 L
3870 2879 L
3871 2882 L
3872 2662 L
3874 2734 L
3875 2814 L
3876 2427 L
3878 2953 L
3879 2595 L
3880 2562 L
3882 2754 L
3883 2821 L
3884 2604 L
3885 2571 L
3887 2678 L
3888 2902 L
3889 2759 L
3890 2647 L
3892 2721 L
3893 2765 L
3894 2550 L
3895 2895 L
3897 2915 L
3898 2794 L
3899 2922 L
3900 2890 L
3901 3002 L
3903 2976 L
3904 2660 L
3905 2799 L
3906 2723 L
3907 2687 L
3908 2899 L
3910 3034 L
3911 2602 L
3912 2671 L
3913 2774 L
3914 2682 L
3915 2991 L
3917 2385 L
3918 2812 L
3919 2767 L
3920 2459 L
3921 2908 L
3922 2996 L
3923 3103 L
3924 3054 L
3925 2859 L
3926 3128 L
3928 2799 L
3929 2859 L
3930 2835 L
3931 2617 L
3932 2694 L
3933 2678 L
3934 3013 L
3935 2602 L
3936 2571 L
3937 2752 L
3938 2870 L
3939 2674 L
3940 2828 L
3941 2765 L
3942 2586 L
3943 2488 L
3944 2866 L
3945 2649 L
3946 2933 L
3947 2528 L
3948 2875 L
3949 2996 L
3950 2741 L
3951 2561 L
3952 2750 L
3953 2667 L
3954 2821 L
3955 2864 L
3956 2673 L
3957 2743 L
3958 2626 L
3959 3067 L
3960 2747 L
3961 2801 L
3962 2783 L
3963 2987 L
3964 2611 L
3965 2774 L
3966 2687 L
3966 2843 L
3967 2685 L
3968 2711 L
3969 2557 L
3970 2832 L
3971 2691 L
3972 2763 L
3973 2810 L
3974 2754 L
3975 2846 L
3976 2743 L
3976 2788 L
3977 2774 L
3978 2828 L
3979 3031 L
3980 2754 L
3981 2680 L
3982 2949 L
3983 2770 L
3983 2873 L
3984 2893 L
3985 2651 L
3986 2855 L
3987 2600 L
3988 2996 L
3989 2553 L
3989 2615 L
3990 2546 L
3991 2882 L
3992 2633 L
3993 2931 L
3994 2823 L
3995 2349 L
3995 2729 L
3996 2873 L
3997 2644 L
3998 2944 L
3999 2738 L
3999 2866 L
4000 2772 L
4001 2691 L
4002 2338 L
4003 2870 L
4003 2588 L
4004 2987 L
4005 2761 L
4006 2835 L
4007 2931 L
4007 2371 L
4008 2622 L
4009 2606 L
4010 2718 L
4011 2906 L
4011 2696 L
4012 2508 L
4013 2870 L
4014 2662 L
4014 2557 L
4015 2642 L
4016 2470 L
4017 2750 L
4017 2846 L
4018 2888 L
4019 2732 L
4020 2917 L
4021 2902 L
4021 2588 L
4022 2862 L
4023 2638 L
4023 2694 L
4024 2895 L
4025 2526 L
4026 2626 L
4026 2776 L
4027 2955 L
4028 2642 L
4029 2577 L
4029 2559 L
4030 2687 L
4031 2761 L
4032 2772 L
4032 2568 L
4033 2727 L
4034 2808 L
4034 2759 L
4035 2893 L
4036 2852 L
4036 2817 L
4037 2418 L
4038 2785 L
4039 2588 L
4039 3067 L
4040 2805 L
4041 2763 L
4041 2805 L
4042 2734 L
4043 2510 L
4043 2788 L
4044 2857 L
4045 2794 L
4045 2794 L
4046 2564 L
4047 2591 L
4047 2732 L
4048 2591 L
4049 2714 L
4050 2571 L
4050 2635 L
4051 2716 L
4052 2667 L
4052 2712 L
4053 2736 L
4053 2732 L
4054 2649 L
4055 2803 L
4055 2855 L
4056 2741 L
4057 2812 L
4057 2855 L
4058 2810 L
4059 2660 L
4059 2794 L
4060 2707 L
4061 2602 L
4061 2647 L
4062 2884 L
L2 C02 COSGR

%
%================
% Legend - Begin
%================
%
GSN 4240 5180 M
4480 5180 L
LWMC SL  C02 COSGR
GSN 4540 5141 M helvM (1.0 uM) show grestore
%
%================
% Legend - End
%================
%

%
% Residuals:
%
GSN 777 826 M
1388 1197 L
1552 1105 L
1652 854 L
1723 750 L
1778 801 L
1824 1046 L
1863 931 L
1896 979 L
1926 977 L
1952 1070 L
1976 1020 L
1998 1115 L
2019 954 L
2037 899 L
2055 955 L
2071 1050 L
2086 948 L
2101 1027 L
2115 1130 L
2128 1147 L
2140 1061 L
2152 981 L
2163 1040 L
2174 1087 L
2184 1032 L
2194 1094 L
2204 1056 L
2213 934 L
2222 1155 L
2230 1089 L
2239 1119 L
2247 1152 L
2255 1015 L
2262 931 L
2270 1100 L
2277 1056 L
2284 937 L
2290 1119 L
2297 1066 L
2303 1032 L
2310 1091 L
2316 1120 L
2322 1111 L
2328 1028 L
2333 979 L
2339 1050 L
2344 1199 L
2350 1118 L
2355 1156 L
2360 1093 L
2365 1153 L
2370 1038 L
2375 1105 L
2380 1162 L
2384 1061 L
2389 1040 L
2393 1078 L
2398 1107 L
2402 1126 L
2407 1205 L
2411 1076 L
2415 1082 L
2419 952 L
2423 1154 L
2427 1069 L
2431 1107 L
2435 1056 L
2438 1121 L
2442 1119 L
2446 1130 L
2449 988 L
2453 1141 L
2456 1158 L
2460 1237 L
2463 1126 L
2467 1128 L
2470 1101 L
2473 1000 L
2476 1052 L
2480 1148 L
2483 1155 L
2486 1243 L
2489 1227 L
2492 1097 L
2495 1117 L
2498 1153 L
2501 1152 L
2504 1104 L
2507 1199 L
2510 1091 L
2512 1033 L
2515 1089 L
2518 1063 L
2521 1105 L
2523 1112 L
2526 1238 L
2529 1140 L
2531 1077 L
2534 1197 L
2536 1035 L
2539 1101 L
2541 1122 L
2544 1182 L
2546 1158 L
2549 1073 L
2551 1091 L
2554 1106 L
2556 1167 L
2558 1261 L
2561 1190 L
2563 1131 L
2565 1013 L
2568 1134 L
2570 1128 L
2572 1117 L
2574 1088 L
2576 1402 L
2579 1180 L
2581 1226 L
2583 1078 L
2585 1236 L
2587 1142 L
2589 1134 L
2591 1253 L
2593 1243 L
2595 1216 L
2597 1123 L
2599 1204 L
2601 1264 L
2603 1170 L
2605 1073 L
2607 1084 L
2609 1134 L
2611 1194 L
2613 1195 L
2615 1270 L
2617 1183 L
2618 1196 L
2620 1171 L
2622 1168 L
2624 1150 L
2626 1143 L
2627 1169 L
2629 1052 L
2631 1230 L
2633 1287 L
2634 1144 L
2636 1228 L
2638 1097 L
2640 1192 L
2641 1239 L
2643 1092 L
2645 1219 L
2646 1107 L
2648 1081 L
2650 1181 L
2651 1202 L
2653 1234 L
2654 1205 L
2656 1236 L
2658 1116 L
2659 1227 L
2661 1160 L
2662 1073 L
2664 1092 L
2665 1274 L
2667 1169 L
2668 1239 L
2670 1310 L
2671 1288 L
2673 1127 L
2674 1330 L
2676 1232 L
2677 1202 L
2679 1295 L
2680 1191 L
2682 1104 L
2683 1139 L
2685 1179 L
2686 1111 L
2687 1124 L
2689 1070 L
2690 1299 L
2692 1234 L
2693 1309 L
2694 1242 L
2696 1197 L
2697 1222 L
2698 1273 L
2700 1038 L
2701 1147 L
2702 1255 L
2704 1175 L
2705 1257 L
2706 1337 L
2708 1208 L
2709 1192 L
2710 1233 L
2712 1173 L
2713 1229 L
2714 1260 L
2715 1258 L
2717 1164 L
2718 1283 L
2719 1307 L
2720 1115 L
2722 1215 L
2723 1257 L
2724 1283 L
2725 1167 L
2726 1309 L
2728 1226 L
2729 1216 L
2730 1301 L
2731 1307 L
2732 1102 L
2734 1158 L
2735 1345 L
2736 1315 L
2737 1293 L
2738 1143 L
2739 1213 L
2741 1240 L
2742 1272 L
2743 1204 L
2744 1314 L
2745 1334 L
2746 1156 L
2747 1136 L
2748 1197 L
2749 1181 L
2751 1129 L
2752 1261 L
2753 1222 L
2754 1229 L
2755 1197 L
2756 1268 L
2757 1231 L
2758 1219 L
2759 1314 L
2760 1310 L
2761 1128 L
2762 1137 L
2763 1145 L
2764 1264 L
2765 1257 L
2767 1324 L
2768 1204 L
2769 1291 L
2770 1247 L
2771 1270 L
2772 1380 L
2773 1041 L
2774 1214 L
2775 1328 L
2776 1254 L
2777 1107 L
2778 1167 L
2779 1283 L
2780 1242 L
2781 1162 L
2782 1307 L
2783 1206 L
2783 1218 L
2784 1238 L
2785 1287 L
2786 1211 L
2787 1327 L
2788 1345 L
2789 1253 L
2790 1266 L
2791 1262 L
2792 1219 L
2793 1216 L
2794 1272 L
2795 1286 L
2796 1255 L
2797 1200 L
2798 1319 L
2798 1218 L
2799 1209 L
2800 1126 L
2801 1285 L
2802 1290 L
2803 1332 L
2804 1143 L
2805 1243 L
2806 1414 L
2807 1244 L
2807 1295 L
2808 1109 L
2809 1094 L
2810 1117 L
2811 1243 L
2812 1207 L
2813 1224 L
2813 1237 L
2814 1332 L
2815 1196 L
2816 1201 L
2817 1216 L
2818 1304 L
2819 1119 L
2819 1230 L
2820 1386 L
2821 1258 L
2822 1139 L
2823 1267 L
2824 1298 L
2824 1169 L
2825 1222 L
2826 1184 L
2827 1230 L
2828 1172 L
2828 1355 L
2829 1274 L
2830 1128 L
2831 1204 L
2832 1228 L
2832 1186 L
2833 1145 L
2834 1212 L
2835 1175 L
2836 1186 L
2836 1320 L
2837 1330 L
2838 1238 L
2839 1146 L
2840 1277 L
2840 1124 L
2841 1199 L
2842 1345 L
2843 1153 L
2843 1370 L
2844 1244 L
2845 1388 L
2846 1378 L
2846 1180 L
2847 1226 L
2848 1116 L
2849 1231 L
2849 1270 L
2850 1412 L
2851 1102 L
2852 1253 L
2852 1213 L
2853 1187 L
2854 1202 L
2855 1138 L
2855 1271 L
2856 1090 L
2857 1384 L
2857 1176 L
2858 1273 L
2859 1194 L
2860 1230 L
2860 1309 L
2861 1418 L
2862 1201 L
2862 1185 L
2863 1416 L
2864 1213 L
2865 1246 L
2865 1265 L
2866 1307 L
2867 1245 L
2867 1254 L
2868 1241 L
2869 1277 L
2869 1116 L
2870 1269 L
2871 1257 L
2871 1154 L
2872 1266 L
2873 1109 L
2873 1141 L
2874 1306 L
2875 1209 L
2876 1226 L
2876 1317 L
2877 1184 L
2878 1252 L
2878 1191 L
2879 1313 L
2880 1133 L
2880 1191 L
2881 1328 L
2881 1119 L
2882 1303 L
2883 1139 L
2883 1178 L
2884 1258 L
2885 1228 L
2885 1352 L
2886 1217 L
2887 1226 L
2887 1178 L
2888 1136 L
2889 1288 L
2889 1341 L
2892 1168 L
2894 1234 L
2897 1226 L
2899 1214 L
2902 1118 L
2904 1189 L
2907 1384 L
2909 1188 L
2911 1232 L
2914 1119 L
2916 1268 L
2918 1213 L
2921 1188 L
2923 1138 L
2925 1218 L
2927 1278 L
2929 1313 L
2932 1165 L
2934 1202 L
2936 1220 L
2938 1107 L
2940 1234 L
2942 1282 L
2944 1115 L
2946 1203 L
2948 1314 L
2950 1130 L
2952 1123 L
2954 1238 L
2956 1262 L
2958 1098 L
2960 1104 L
2962 1300 L
2964 1124 L
2966 1231 L
2968 1148 L
2970 1173 L
2971 1237 L
2973 1064 L
2975 1125 L
2977 1298 L
2979 1103 L
2980 1190 L
2982 1174 L
2984 1097 L
2986 1254 L
2987 1136 L
2989 1108 L
2991 1091 L
2993 1060 L
2994 1187 L
2996 1098 L
2998 1004 L
2999 1191 L
3001 1131 L
3003 1070 L
3004 975 L
3006 1275 L
3007 1244 L
3009 1161 L
3011 1228 L
3012 1213 L
3014 1051 L
3015 1185 L
3017 1188 L
3018 1107 L
3020 1228 L
3021 1112 L
3023 1246 L
3024 1001 L
3026 1195 L
3027 1196 L
3029 1039 L
3030 1017 L
3032 1062 L
3033 1152 L
3035 1151 L
3036 1107 L
3038 1278 L
3039 1206 L
3040 1188 L
3042 1094 L
3043 1146 L
3045 1129 L
3046 1153 L
3047 1157 L
3049 1189 L
3050 1109 L
3051 1188 L
3053 997 L
3054 1079 L
3055 1245 L
3057 1021 L
3058 1164 L
3059 1245 L
3061 1147 L
3062 1152 L
3063 1061 L
3065 982 L
3066 1202 L
3067 1093 L
3068 1119 L
3070 1042 L
3071 1152 L
3072 1145 L
3073 1068 L
3075 1097 L
3076 1115 L
3077 1161 L
3078 1156 L
3079 1074 L
3081 1112 L
3082 991 L
3083 1093 L
3084 1115 L
3085 1063 L
3087 1065 L
3088 1117 L
3089 1093 L
3090 1144 L
3091 1038 L
3092 1038 L
3094 1093 L
3095 1032 L
3096 1048 L
3097 1138 L
3098 1023 L
3099 1268 L
3100 983 L
3101 940 L
3103 1232 L
3104 950 L
3105 1077 L
3106 1121 L
3107 1042 L
3108 1095 L
3109 1109 L
3110 1192 L
3111 1064 L
3112 1000 L
3113 1046 L
3114 1153 L
3115 1129 L
3116 1072 L
3117 1130 L
3119 997 L
3120 1037 L
3121 1115 L
3122 1062 L
3123 1127 L
3124 1070 L
3125 1154 L
3126 1081 L
3127 958 L
3128 1145 L
3129 993 L
3130 989 L
3131 1200 L
3132 906 L
3133 1104 L
3134 1072 L
3135 954 L
3136 1076 L
3136 1063 L
3137 1010 L
3138 1012 L
3139 1063 L
3140 1087 L
3141 925 L
3142 1007 L
3143 970 L
3144 1091 L
3145 1164 L
3146 1106 L
3147 1140 L
3148 987 L
3149 931 L
3150 1074 L
3151 1043 L
3151 945 L
3152 984 L
3153 956 L
3154 1062 L
3155 911 L
3156 1083 L
3157 1160 L
3158 1109 L
3159 1010 L
3160 1052 L
3160 879 L
3161 1002 L
3162 980 L
3163 1056 L
3164 1038 L
3165 1117 L
3166 1017 L
3166 973 L
3167 1086 L
3168 1071 L
3169 949 L
3170 1061 L
3171 1040 L
3172 1146 L
3172 1011 L
3173 965 L
3174 958 L
3175 948 L
3176 1028 L
3177 1068 L
3177 1011 L
3178 1042 L
3179 1009 L
3180 1005 L
3181 1062 L
3181 1151 L
3182 1084 L
3183 903 L
3184 1112 L
3185 1066 L
3185 1032 L
3186 1138 L
3187 941 L
3188 1067 L
3189 1056 L
3189 1187 L
3190 1102 L
3191 1009 L
3192 931 L
3193 1035 L
3193 1162 L
3194 955 L
3195 1016 L
3196 1039 L
3196 960 L
3197 905 L
3198 1091 L
3199 919 L
3199 892 L
3200 1099 L
3201 1052 L
3202 974 L
3202 1030 L
3203 1041 L
3204 1040 L
3205 917 L
3205 1159 L
3206 1008 L
3207 983 L
3208 963 L
3208 1073 L
3209 1034 L
3210 983 L
3210 1078 L
3211 954 L
3212 1023 L
3213 1032 L
3213 1044 L
3214 1056 L
3215 1095 L
3215 961 L
3216 986 L
3217 1049 L
3218 1006 L
3218 878 L
3219 816 L
3220 1099 L
3220 1017 L
3221 1002 L
3222 994 L
3222 1090 L
3223 947 L
3224 1115 L
3224 939 L
3225 1039 L
3226 951 L
3227 949 L
3227 948 L
3228 953 L
3229 1049 L
3229 988 L
3230 922 L
3231 1027 L
3231 1044 L
3232 985 L
3233 1091 L
3233 992 L
3234 960 L
3235 1121 L
3235 946 L
3236 1143 L
3236 1051 L
3237 988 L
3238 1039 L
3238 967 L
3239 1012 L
3240 1081 L
3240 992 L
3241 1022 L
3242 1001 L
3242 1017 L
3243 1006 L
3244 965 L
3244 993 L
3245 1051 L
3245 905 L
3246 979 L
3247 928 L
3247 855 L
3248 1050 L
3249 927 L
3249 1059 L
3250 1070 L
3250 943 L
3251 991 L
3252 912 L
3252 1094 L
3253 925 L
3253 1117 L
3254 1042 L
3255 1009 L
3255 999 L
3256 1073 L
3257 1026 L
3257 1078 L
3258 1033 L
3258 1033 L
3259 983 L
3259 910 L
3260 975 L
3261 1091 L
3261 1058 L
3262 989 L
3262 948 L
3263 1043 L
3264 986 L
3264 1033 L
3265 1092 L
3265 1077 L
3266 1019 L
3267 1105 L
3267 1000 L
3268 1049 L
3268 1048 L
3269 1083 L
3269 1026 L
3270 1069 L
3271 999 L
3271 1065 L
3272 940 L
3272 998 L
3273 942 L
3273 1145 L
3274 1167 L
3275 1127 L
3275 998 L
3276 1097 L
3276 1058 L
3277 1077 L
3277 987 L
3278 956 L
3278 1009 L
3279 973 L
3280 1133 L
3280 982 L
3281 901 L
3281 1129 L
3282 1152 L
3282 1058 L
3283 1032 L
3283 959 L
3284 982 L
3284 892 L
3285 1012 L
3285 859 L
3286 979 L
3287 1042 L
3287 956 L
3288 1114 L
3288 998 L
3289 952 L
3289 800 L
3290 1073 L
3290 1060 L
3291 943 L
3291 927 L
3292 1066 L
3292 1086 L
3293 969 L
3293 989 L
3294 1003 L
3294 994 L
3295 990 L
3295 949 L
3296 1098 L
3297 985 L
3297 1044 L
3298 990 L
3298 1105 L
3299 1021 L
3299 1017 L
3300 968 L
3300 1045 L
3301 1038 L
3301 1044 L
3302 1098 L
3302 986 L
3303 1023 L
3303 1246 L
3304 1094 L
3304 1124 L
3305 1147 L
3305 1055 L
3306 963 L
3306 996 L
3307 1142 L
3307 1135 L
3308 1132 L
3308 985 L
3309 1081 L
3309 1005 L
3310 1039 L
3310 1038 L
3311 1110 L
3311 1076 L
3312 1106 L
3312 1017 L
3312 1082 L
3313 1018 L
3313 1112 L
3314 1223 L
3314 1055 L
3315 1029 L
3315 1038 L
3316 1118 L
3316 1034 L
3317 1083 L
3317 1096 L
3318 878 L
3318 1028 L
3319 1061 L
3319 1014 L
3320 1094 L
3320 1065 L
3321 1096 L
3321 1021 L
3321 1120 L
3322 1055 L
3322 1099 L
3323 1051 L
3323 1174 L
3324 1064 L
3324 1080 L
3325 1041 L
3325 1051 L
3326 991 L
3326 981 L
3327 1098 L
3327 1241 L
3327 1032 L
3328 1014 L
3328 934 L
3329 1044 L
3329 1152 L
3330 1172 L
3330 1105 L
3331 1137 L
3331 1064 L
3332 1070 L
3332 1093 L
3332 1114 L
3333 975 L
3333 1123 L
3334 1122 L
3334 1152 L
3335 1074 L
3335 1117 L
3336 1121 L
3336 1151 L
3336 1167 L
3337 978 L
3337 1100 L
3338 1051 L
3338 1158 L
3339 1082 L
3339 1119 L
3339 1027 L
3340 854 L
3340 986 L
3341 1108 L
3341 1133 L
3342 1072 L
3342 1179 L
3343 1184 L
3343 1063 L
3343 1054 L
3344 1051 L
3344 1325 L
3345 1060 L
3345 1129 L
3346 1009 L
3346 1087 L
3346 966 L
3347 1164 L
3347 967 L
3348 1123 L
3348 998 L
3348 1086 L
3349 1194 L
3349 1062 L
3350 1111 L
3350 1138 L
3351 1087 L
3351 1077 L
3351 958 L
3352 1088 L
3352 1172 L
3353 1155 L
3353 1145 L
3353 1049 L
3354 957 L
3354 1000 L
3355 964 L
3355 1022 L
3355 1337 L
3356 1124 L
3356 1095 L
3357 1061 L
3357 1113 L
3358 1261 L
3358 1041 L
3358 1194 L
3359 987 L
3359 1100 L
3360 985 L
3360 1080 L
3360 1034 L
3361 1085 L
3361 1129 L
3362 1083 L
3362 997 L
3362 1169 L
3363 1029 L
3363 1175 L
3364 1135 L
3364 1289 L
3364 886 L
3365 1072 L
3365 1117 L
3365 1142 L
3366 1168 L
3366 955 L
3367 1153 L
3367 1206 L
3367 1166 L
3368 993 L
3368 966 L
3369 1034 L
3369 1061 L
3369 1123 L
3370 1244 L
3370 1196 L
3371 1205 L
3371 1111 L
3371 958 L
3372 1006 L
3372 997 L
3372 1039 L
3373 1058 L
3373 1061 L
3374 1129 L
3374 1041 L
3374 1132 L
3375 1074 L
3375 1096 L
3375 1232 L
3376 1036 L
3376 1033 L
3377 1090 L
3377 1089 L
3377 1135 L
3378 1042 L
3378 1057 L
3378 1196 L
3379 1016 L
3379 1168 L
3380 1061 L
3380 1220 L
3380 1167 L
3381 1236 L
3381 1183 L
3381 1030 L
3382 993 L
3382 1113 L
3383 1144 L
3383 1230 L
3383 1099 L
3384 1132 L
3384 1064 L
3384 1068 L
3385 1173 L
3385 1105 L
3385 1009 L
3386 964 L
3386 1014 L
3387 1234 L
3387 1049 L
3387 1169 L
3388 1130 L
3388 1186 L
3388 956 L
3389 1084 L
3389 982 L
3389 1190 L
3390 1202 L
3390 1039 L
3391 1099 L
3391 1066 L
3391 1194 L
3392 1079 L
3392 1156 L
3392 1153 L
3393 1042 L
3393 1133 L
3393 1086 L
3394 1103 L
3394 1245 L
3394 1069 L
3395 998 L
3395 1165 L
3395 1112 L
3396 1159 L
3396 1117 L
3396 1075 L
3397 1191 L
3397 1081 L
3398 1253 L
3398 1063 L
3398 1176 L
3399 1117 L
3399 1137 L
3399 1216 L
3400 1180 L
3400 1198 L
3400 1167 L
3401 1087 L
3401 1163 L
3401 1033 L
3402 1105 L
3402 1128 L
3402 1116 L
3403 1048 L
3403 1213 L
3403 1039 L
3404 1147 L
3404 1135 L
3404 1138 L
3405 1267 L
3405 1104 L
3405 1073 L
3406 1228 L
3406 1092 L
3406 1091 L
3407 1157 L
3407 1188 L
3407 1185 L
3408 1293 L
3408 1160 L
3408 1221 L
3409 1097 L
3409 1149 L
3409 1054 L
3410 1195 L
3410 1106 L
3410 1108 L
3411 1208 L
3411 1121 L
3411 1227 L
3412 1128 L
3412 1229 L
3412 1093 L
3413 1236 L
3413 1095 L
3413 1105 L
3414 1150 L
3414 1137 L
3414 1092 L
3415 1232 L
3415 1153 L
3415 1191 L
3416 1070 L
3416 1143 L
3416 1120 L
3417 1186 L
3417 1060 L
3417 1120 L
3417 1202 L
3418 1125 L
3418 1143 L
3418 1208 L
3419 1109 L
3419 1148 L
3419 1276 L
3420 1131 L
3420 1163 L
3420 1238 L
3421 1214 L
3421 1234 L
3421 1130 L
3422 1128 L
3422 1163 L
3422 1101 L
3423 1159 L
3423 1140 L
3423 1116 L
3423 1118 L
3424 1211 L
3424 1100 L
3424 1110 L
3425 1225 L
3425 1121 L
3425 1230 L
3426 1238 L
3426 1211 L
3426 1101 L
3427 1217 L
3427 1137 L
3427 1128 L
3428 1283 L
3428 1140 L
3428 1331 L
3428 1336 L
3429 1030 L
3429 1193 L
3429 1195 L
3430 1149 L
3430 1143 L
3430 1145 L
3431 1164 L
3431 1155 L
3431 1229 L
3431 1234 L
3432 1185 L
3432 1115 L
3432 1083 L
3433 1045 L
3433 1251 L
3433 1230 L
3434 1211 L
3434 1247 L
3434 1136 L
3434 1069 L
3435 1203 L
3435 1063 L
3435 1297 L
3436 1153 L
3436 1251 L
3436 1125 L
3437 1156 L
3437 1173 L
3437 1163 L
3437 1191 L
3438 1180 L
3438 1074 L
3438 1173 L
3439 1132 L
3439 1248 L
3439 1170 L
3440 1267 L
3440 1261 L
3440 1220 L
3440 1142 L
3441 1094 L
3441 1167 L
3441 1190 L
3442 1253 L
3442 1277 L
3442 1110 L
3442 1170 L
3443 1189 L
3443 1178 L
3443 1198 L
3444 1143 L
3444 1246 L
3444 1300 L
3444 1280 L
3445 1238 L
3445 1171 L
3445 1142 L
3446 1255 L
3446 1114 L
3446 1182 L
3446 1138 L
3447 1226 L
3447 1190 L
3447 990 L
3448 1228 L
3448 1228 L
3448 1192 L
3448 1082 L
3449 1236 L
3449 1223 L
3449 1175 L
3450 1233 L
3450 1145 L
3450 1082 L
3450 1177 L
3451 1156 L
3451 1119 L
3451 1192 L
3452 1286 L
3452 1181 L
3452 1248 L
3452 1196 L
3453 1162 L
3453 1299 L
3453 1215 L
3454 1223 L
3454 1125 L
3454 1147 L
3454 1201 L
3455 1175 L
3455 1299 L
3455 1281 L
3455 1261 L
3456 971 L
3456 1255 L
3456 1247 L
3457 1244 L
3457 1306 L
3457 1190 L
3457 1204 L
3458 1149 L
3458 1287 L
3458 1216 L
3458 1309 L
3459 1221 L
3459 1205 L
3459 1343 L
3460 1224 L
3460 1214 L
3460 1244 L
3460 1283 L
3461 1148 L
3461 1160 L
3461 1109 L
3461 1215 L
3462 1216 L
3462 1092 L
3462 1208 L
3463 1230 L
3463 1264 L
3463 1282 L
3463 1306 L
3464 1042 L
3464 1258 L
3464 1254 L
3464 1151 L
3465 1288 L
3465 1181 L
3465 1321 L
3465 1055 L
3466 1234 L
3466 1191 L
3466 1313 L
3466 1181 L
3467 1213 L
3467 1236 L
3467 1257 L
3468 1235 L
3468 1186 L
3468 1242 L
3468 1350 L
3469 1365 L
3469 1207 L
3469 1231 L
3469 1137 L
3470 1203 L
3470 1203 L
3470 1140 L
3470 1264 L
3471 1286 L
3471 1330 L
3471 1350 L
3471 1050 L
3472 1214 L
3472 1365 L
3472 1131 L
3472 1177 L
3473 1161 L
3473 1237 L
3473 1190 L
3474 1190 L
3474 1171 L
3474 1262 L
3474 1217 L
3475 1112 L
3475 1244 L
3475 1047 L
3475 1101 L
3476 1232 L
3476 1190 L
3476 1249 L
3476 1127 L
3477 1148 L
3477 1141 L
3477 1307 L
3477 1190 L
3478 1241 L
3478 1326 L
3478 1189 L
3478 1234 L
3479 1142 L
3479 1285 L
3479 1305 L
3479 1281 L
3480 1106 L
3480 1140 L
3480 1169 L
3480 1221 L
3481 1220 L
3481 1161 L
3481 1229 L
3481 1157 L
3482 1192 L
3482 1166 L
3482 1262 L
3482 1308 L
3483 1239 L
3483 1203 L
3483 1221 L
3483 1234 L
3484 1350 L
3484 1189 L
3484 1264 L
3484 1195 L
3485 1190 L
3485 1264 L
3485 1139 L
3485 1342 L
3486 1184 L
3486 1392 L
3486 1346 L
3486 1177 L
3487 1250 L
3487 1157 L
3487 1247 L
3487 1186 L
3488 1350 L
3488 1250 L
3488 1034 L
3488 1323 L
3488 1271 L
3489 1098 L
3489 1252 L
3489 1115 L
3489 1243 L
3490 1331 L
3490 1249 L
3490 1229 L
3490 1230 L
3491 1252 L
3491 1263 L
3491 1279 L
3491 1243 L
3492 1299 L
3492 1267 L
3492 1215 L
3492 1273 L
3493 1203 L
3493 1217 L
3493 1263 L
3493 1144 L
3494 1189 L
3494 1291 L
3494 1243 L
3494 1107 L
3494 1150 L
3495 1165 L
3495 1344 L
3495 1295 L
3495 1203 L
3496 1030 L
3496 1255 L
3496 1297 L
3496 1169 L
3497 1264 L
3497 1065 L
3497 1233 L
3497 1193 L
3498 1269 L
3498 1378 L
3498 1219 L
3498 1254 L
3498 1335 L
3499 1220 L
3499 1288 L
3499 1115 L
3499 1394 L
3500 1158 L
3500 1170 L
3506 1259 L
3511 1228 L
3517 1320 L
3522 1241 L
3527 1304 L
3532 1170 L
3537 1449 L
3542 1211 L
3547 1318 L
3552 1268 L
3557 1260 L
3561 1374 L
3566 1122 L
3570 1376 L
3575 1472 L
3579 1333 L
3583 1094 L
3587 1253 L
3591 1289 L
3595 1328 L
3599 1336 L
3603 1340 L
3607 1489 L
3611 1277 L
3614 1254 L
3618 1305 L
3622 1229 L
3625 1174 L
3629 1344 L
3632 1247 L
3636 1390 L
3639 1126 L
3642 1520 L
3646 1409 L
3649 1192 L
3652 1262 L
3655 1386 L
3658 1418 L
3661 1290 L
3664 1334 L
3667 1244 L
3670 1326 L
3673 1462 L
3676 1396 L
3679 1254 L
3682 1357 L
3685 1339 L
3688 1409 L
3690 1292 L
3693 1378 L
3696 1409 L
3698 1351 L
3701 1318 L
3704 1423 L
3706 1292 L
3709 1305 L
3711 1392 L
3714 1347 L
3716 1400 L
3719 1419 L
3721 1416 L
3724 1415 L
3726 1367 L
3728 1334 L
3731 1409 L
3733 1373 L
3735 1333 L
3738 1353 L
3740 1343 L
3742 1386 L
3744 1406 L
3747 1309 L
3749 1442 L
3751 1391 L
3753 1481 L
3755 1476 L
3757 1319 L
3760 1364 L
3762 1377 L
3764 1397 L
3766 1299 L
3768 1391 L
3770 1257 L
3772 1501 L
3774 1366 L
3776 1434 L
3778 1425 L
3780 1437 L
3781 1439 L
3783 1395 L
3785 1371 L
3787 1569 L
3789 1306 L
3791 1267 L
3793 1468 L
3795 1356 L
3796 1353 L
3798 1385 L
3800 1482 L
3802 1444 L
3803 1385 L
3805 1354 L
3807 1347 L
3809 1420 L
3810 1330 L
3812 1429 L
3814 1315 L
3816 1351 L
3817 1416 L
3819 1465 L
3820 1406 L
3822 1449 L
3824 1499 L
3825 1357 L
3827 1363 L
3829 1357 L
3830 1385 L
3832 1401 L
3833 1382 L
3835 1352 L
3836 1372 L
3838 1245 L
3839 1183 L
3841 1485 L
3842 1482 L
3844 1315 L
3845 1537 L
3847 1291 L
3848 1466 L
3850 1235 L
3851 1543 L
3853 1345 L
3854 1435 L
3856 1484 L
3857 1418 L
3859 1285 L
3860 1356 L
3861 1434 L
3863 1454 L
3864 1349 L
3866 1404 L
3867 1468 L
3868 1395 L
3870 1424 L
3871 1425 L
3872 1301 L
3874 1342 L
3875 1387 L
3876 1168 L
3878 1466 L
3879 1263 L
3880 1244 L
3882 1353 L
3883 1391 L
3884 1268 L
3885 1249 L
3887 1310 L
3888 1437 L
3889 1356 L
3890 1292 L
3892 1334 L
3893 1359 L
3894 1238 L
3895 1433 L
3897 1444 L
3898 1376 L
3899 1448 L
3900 1430 L
3901 1494 L
3903 1479 L
3904 1300 L
3905 1378 L
3906 1335 L
3907 1315 L
3908 1435 L
3910 1512 L
3911 1267 L
3912 1306 L
3913 1364 L
3914 1312 L
3915 1487 L
3917 1144 L
3918 1386 L
3919 1361 L
3920 1186 L
3921 1441 L
3922 1490 L
3923 1551 L
3924 1523 L
3925 1413 L
3926 1565 L
3928 1378 L
3929 1413 L
3930 1399 L
3931 1276 L
3932 1319 L
3933 1310 L
3934 1500 L
3935 1267 L
3936 1249 L
3937 1352 L
3938 1419 L
3939 1307 L
3940 1395 L
3941 1359 L
3942 1258 L
3943 1202 L
3944 1416 L
3945 1294 L
3946 1454 L
3947 1225 L
3948 1422 L
3949 1490 L
3950 1345 L
3951 1244 L
3952 1351 L
3953 1304 L
3954 1391 L
3955 1415 L
3956 1307 L
3957 1347 L
3958 1281 L
3959 1531 L
3960 1349 L
3961 1380 L
3962 1370 L
3963 1485 L
3964 1272 L
3965 1364 L
3966 1315 L
3966 1404 L
3967 1314 L
3968 1329 L
3969 1241 L
3970 1397 L
3971 1318 L
3972 1358 L
3973 1385 L
3974 1353 L
3975 1405 L
3976 1347 L
3976 1372 L
3977 1364 L
3978 1395 L
3979 1510 L
3980 1353 L
3981 1311 L
3982 1463 L
3983 1362 L
3983 1420 L
3984 1432 L
3985 1295 L
3986 1410 L
3987 1266 L
3988 1490 L
3989 1239 L
3989 1274 L
3990 1235 L
3991 1425 L
3992 1285 L
3993 1453 L
3994 1392 L
3995 1124 L
3995 1339 L
3996 1420 L
3997 1291 L
3998 1461 L
3999 1344 L
3999 1417 L
4000 1363 L
4001 1317 L
4002 1117 L
4003 1419 L
4003 1259 L
4004 1485 L
4005 1357 L
4006 1399 L
4007 1453 L
4007 1136 L
4008 1278 L
4009 1269 L
4010 1333 L
4011 1439 L
4011 1320 L
4012 1214 L
4013 1419 L
4014 1301 L
4014 1241 L
4015 1290 L
4016 1192 L
4017 1351 L
4017 1405 L
4018 1429 L
4019 1340 L
4020 1446 L
4021 1437 L
4021 1259 L
4022 1414 L
4023 1287 L
4023 1319 L
4024 1433 L
4025 1224 L
4026 1281 L
4026 1366 L
4027 1467 L
4028 1290 L
4029 1253 L
4029 1243 L
4030 1315 L
4031 1357 L
4032 1363 L
4032 1248 L
4033 1338 L
4034 1384 L
4034 1356 L
4035 1432 L
4036 1409 L
4036 1389 L
4037 1163 L
4038 1371 L
4039 1259 L
4039 1531 L
4040 1382 L
4041 1358 L
4041 1382 L
4042 1342 L
4043 1215 L
4043 1372 L
4044 1411 L
4045 1376 L
4045 1376 L
4046 1245 L
4047 1260 L
4047 1340 L
4048 1260 L
4049 1330 L
4050 1249 L
4050 1286 L
4051 1332 L
4052 1304 L
4052 1329 L
4053 1343 L
4053 1340 L
4054 1293 L
4055 1381 L
4055 1410 L
4056 1345 L
4057 1386 L
4057 1410 L
4058 1385 L
4059 1300 L
4059 1376 L
4060 1326 L
4061 1267 L
4061 1292 L
4062 1427 L
L2 C02 COSGR

%
% Main frame
%
L10
GSN 
620 1700 M
4220 1700 L
4220 5300 L
620 5300 L
closepath SGR

%
% X axis: large tics
%
L10
GSN 1130 1700 M 0  54 rL SGR
GSN 1130 5300 M 0 -54 rL SGR
helvS (0.0001) 1130 470 xlabel
GSN 1716 1700 M 0  54 rL SGR
GSN 1716 5300 M 0 -54 rL SGR
helvS (0.001) 1716 470 xlabel
GSN 2303 1700 M 0  54 rL SGR
GSN 2303 5300 M 0 -54 rL SGR
helvS (0.01) 2303 470 xlabel
GSN 2889 1700 M 0  54 rL SGR
GSN 2889 5300 M 0 -54 rL SGR
helvS (0.1) 2889 470 xlabel
GSN 3476 1700 M 0  54 rL SGR
GSN 3476 5300 M 0 -54 rL SGR
helvS (1) 3476 470 xlabel
GSN 4062 1700 M 0  54 rL SGR
GSN 4062 5300 M 0 -54 rL SGR
helvS (10) 4062 470 xlabel
%
% X axis: small tics
%
L5
GSN 720 1700 M 0  36 rL SGR
GSN 720 5300 M 0 -36 rL SGR
GSN 824 1700 M 0  36 rL SGR
GSN 824 5300 M 0 -36 rL SGR
GSN 897 1700 M 0  36 rL SGR
GSN 897 5300 M 0 -36 rL SGR
GSN 954 1700 M 0  36 rL SGR
GSN 954 5300 M 0 -36 rL SGR
GSN 1000 1700 M 0  36 rL SGR
GSN 1000 5300 M 0 -36 rL SGR
GSN 1039 1700 M 0  36 rL SGR
GSN 1039 5300 M 0 -36 rL SGR
GSN 1073 1700 M 0  36 rL SGR
GSN 1073 5300 M 0 -36 rL SGR
GSN 1103 1700 M 0  36 rL SGR
GSN 1103 5300 M 0 -36 rL SGR
GSN 1307 1700 M 0  36 rL SGR
GSN 1307 5300 M 0 -36 rL SGR
GSN 1410 1700 M 0  36 rL SGR
GSN 1410 5300 M 0 -36 rL SGR
GSN 1483 1700 M 0  36 rL SGR
GSN 1483 5300 M 0 -36 rL SGR
GSN 1540 1700 M 0  36 rL SGR
GSN 1540 5300 M 0 -36 rL SGR
GSN 1586 1700 M 0  36 rL SGR
GSN 1586 5300 M 0 -36 rL SGR
GSN 1626 1700 M 0  36 rL SGR
GSN 1626 5300 M 0 -36 rL SGR
GSN 1660 1700 M 0  36 rL SGR
GSN 1660 5300 M 0 -36 rL SGR
GSN 1690 1700 M 0  36 rL SGR
GSN 1690 5300 M 0 -36 rL SGR
GSN 1893 1700 M 0  36 rL SGR
GSN 1893 5300 M 0 -36 rL SGR
GSN 1996 1700 M 0  36 rL SGR
GSN 1996 5300 M 0 -36 rL SGR
GSN 2069 1700 M 0  36 rL SGR
GSN 2069 5300 M 0 -36 rL SGR
GSN 2126 1700 M 0  36 rL SGR
GSN 2126 5300 M 0 -36 rL SGR
GSN 2173 1700 M 0  36 rL SGR
GSN 2173 5300 M 0 -36 rL SGR
GSN 2212 1700 M 0  36 rL SGR
GSN 2212 5300 M 0 -36 rL SGR
GSN 2246 1700 M 0  36 rL SGR
GSN 2246 5300 M 0 -36 rL SGR
GSN 2276 1700 M 0  36 rL SGR
GSN 2276 5300 M 0 -36 rL SGR
GSN 2479 1700 M 0  36 rL SGR
GSN 2479 5300 M 0 -36 rL SGR
GSN 2583 1700 M 0  36 rL SGR
GSN 2583 5300 M 0 -36 rL SGR
GSN 2656 1700 M 0  36 rL SGR
GSN 2656 5300 M 0 -36 rL SGR
GSN 2713 1700 M 0  36 rL SGR
GSN 2713 5300 M 0 -36 rL SGR
GSN 2759 1700 M 0  36 rL SGR
GSN 2759 5300 M 0 -36 rL SGR
GSN 2798 1700 M 0  36 rL SGR
GSN 2798 5300 M 0 -36 rL SGR
GSN 2832 1700 M 0  36 rL SGR
GSN 2832 5300 M 0 -36 rL SGR
GSN 2862 1700 M 0  36 rL SGR
GSN 2862 5300 M 0 -36 rL SGR
GSN 3066 1700 M 0  36 rL SGR
GSN 3066 5300 M 0 -36 rL SGR
GSN 3169 1700 M 0  36 rL SGR
GSN 3169 5300 M 0 -36 rL SGR
GSN 3242 1700 M 0  36 rL SGR
GSN 3242 5300 M 0 -36 rL SGR
GSN 3299 1700 M 0  36 rL SGR
GSN 3299 5300 M 0 -36 rL SGR
GSN 3345 1700 M 0  36 rL SGR
GSN 3345 5300 M 0 -36 rL SGR
GSN 3385 1700 M 0  36 rL SGR
GSN 3385 5300 M 0 -36 rL SGR
GSN 3419 1700 M 0  36 rL SGR
GSN 3419 5300 M 0 -36 rL SGR
GSN 3449 1700 M 0  36 rL SGR
GSN 3449 5300 M 0 -36 rL SGR
GSN 3652 1700 M 0  36 rL SGR
GSN 3652 5300 M 0 -36 rL SGR
GSN 3755 1700 M 0  36 rL SGR
GSN 3755 5300 M 0 -36 rL SGR
GSN 3829 1700 M 0  36 rL SGR
GSN 3829 5300 M 0 -36 rL SGR
GSN 3885 1700 M 0  36 rL SGR
GSN 3885 5300 M 0 -36 rL SGR
GSN 3932 1700 M 0  36 rL SGR
GSN 3932 5300 M 0 -36 rL SGR
GSN 3971 1700 M 0  36 rL SGR
GSN 3971 5300 M 0 -36 rL SGR
GSN 4005 1700 M 0  36 rL SGR
GSN 4005 5300 M 0 -36 rL SGR
GSN 4035 1700 M 0  36 rL SGR
GSN 4035 5300 M 0 -36 rL SGR
%
% Y axis: large tics
%
L10
GSN 620 1752 M 54 0 rL SGR
GSN 4220 1752 M -54 0 rL SGR
helvS (1.08) 560 1752 ylabel
GSN 620 2632 M 54 0 rL SGR
GSN 4220 2632 M -54 0 rL SGR
helvS (1.1) 560 2632 ylabel
GSN 620 3511 M 54 0 rL SGR
GSN 4220 3511 M -54 0 rL SGR
helvS (1.12) 560 3511 ylabel
GSN 620 4391 M 54 0 rL SGR
GSN 4220 4391 M -54 0 rL SGR
helvS (1.14) 560 4391 ylabel
GSN 620 5271 M 54 0 rL SGR
GSN 4220 5271 M -54 0 rL SGR
helvS (1.16) 560 5271 ylabel
%
% Y axis: small tics
%
L5
GSN 620 1752 M 36 0 rL SGR
GSN 4220 1752 M -36 0 rL SGR
GSN 620 1972 M 36 0 rL SGR
GSN 4220 1972 M -36 0 rL SGR
GSN 620 2192 M 36 0 rL SGR
GSN 4220 2192 M -36 0 rL SGR
GSN 620 2412 M 36 0 rL SGR
GSN 4220 2412 M -36 0 rL SGR
GSN 620 2632 M 36 0 rL SGR
GSN 4220 2632 M -36 0 rL SGR
GSN 620 2852 M 36 0 rL SGR
GSN 4220 2852 M -36 0 rL SGR
GSN 620 3072 M 36 0 rL SGR
GSN 4220 3072 M -36 0 rL SGR
GSN 620 3291 M 36 0 rL SGR
GSN 4220 3291 M -36 0 rL SGR
GSN 620 3511 M 36 0 rL SGR
GSN 4220 3511 M -36 0 rL SGR
GSN 620 3731 M 36 0 rL SGR
GSN 4220 3731 M -36 0 rL SGR
GSN 620 3951 M 36 0 rL SGR
GSN 4220 3951 M -36 0 rL SGR
GSN 620 4171 M 36 0 rL SGR
GSN 4220 4171 M -36 0 rL SGR
GSN 620 4391 M 36 0 rL SGR
GSN 4220 4391 M -36 0 rL SGR
GSN 620 4611 M 36 0 rL SGR
GSN 4220 4611 M -36 0 rL SGR
GSN 620 4831 M 36 0 rL SGR
GSN 4220 4831 M -36 0 rL SGR
GSN 620 5051 M 36 0 rL SGR
GSN 4220 5051 M -36 0 rL SGR
GSN 620 5271 M 36 0 rL SGR
GSN 4220 5271 M -36 0 rL SGR

%
% X-Axis label:
%
gsave 2420 290 M 
[
[(Helvetica) 180 0 true true 0 (t)]
[(Helvetica) 180 0 true true 0 (i)]
[(Helvetica) 180 0 true true 0 (m)]
[(Helvetica) 180 0 true true 0 (e)]
] 0 MCshow grestore

%
% Y-Axis label:
%
gsave 234 3499 M 
currentpoint gsave translate 90 rotate 0 0 moveto
[
[(Helvetica) 180 0 true true 0 (s)]
[(Helvetica) 180 0 true true 0 (i)]
[(Helvetica) 180 0 true true 0 (g)]
[(Helvetica) 180 0 true true 0 (n)]
[(Helvetica) 180 0 true true 0 (a)]
[(Helvetica) 180 0 true true 0 (l)]
] 0 MCshow grestore

%
% Residuals:
%
gsave 129 1160 M 
currentpoint gsave translate 90 rotate 0 0 moveto
[
[(Helvetica) 150 0 true true 0 (r)]
[(Helvetica) 150 0 true true 0 (e)]
[(Helvetica) 150 0 true true 0 (s)]
[(Helvetica) 150 0 true true 0 (i)]
[(Helvetica) 150 0 true true 0 (d)]
[(Helvetica) 150 0 true true 0 (u)]
[(Helvetica) 150 0 true true 0 (a)]
[(Helvetica) 150 0 true true 0 (l)]
[(Helvetica) 150 0 true true 0 (s)]
] 0 MCshow grestore

%
% Residual frame
%
L10
GSN 
620 620 M
4220 620 L
4220 1700 L
620 1700 L
closepath SGR
%
% X axis: large tics - residual frame
%
L10
GSN 1130 620 M 0  54 rL SGR
GSN 1130 1700 M 0 -54 rL SGR
GSN 1716 620 M 0  54 rL SGR
GSN 1716 1700 M 0 -54 rL SGR
GSN 2303 620 M 0  54 rL SGR
GSN 2303 1700 M 0 -54 rL SGR
GSN 2889 620 M 0  54 rL SGR
GSN 2889 1700 M 0 -54 rL SGR
GSN 3476 620 M 0  54 rL SGR
GSN 3476 1700 M 0 -54 rL SGR
GSN 4062 620 M 0  54 rL SGR
GSN 4062 1700 M 0 -54 rL SGR
%
% X axis: small tics - residual frame
%
L5
GSN 720 620 M 0  36 rL SGR
GSN 720 1700 M 0 -36 rL SGR
GSN 824 620 M 0  36 rL SGR
GSN 824 1700 M 0 -36 rL SGR
GSN 897 620 M 0  36 rL SGR
GSN 897 1700 M 0 -36 rL SGR
GSN 954 620 M 0  36 rL SGR
GSN 954 1700 M 0 -36 rL SGR
GSN 1000 620 M 0  36 rL SGR
GSN 1000 1700 M 0 -36 rL SGR
GSN 1039 620 M 0  36 rL SGR
GSN 1039 1700 M 0 -36 rL SGR
GSN 1073 620 M 0  36 rL SGR
GSN 1073 1700 M 0 -36 rL SGR
GSN 1103 620 M 0  36 rL SGR
GSN 1103 1700 M 0 -36 rL SGR
GSN 1307 620 M 0  36 rL SGR
GSN 1307 1700 M 0 -36 rL SGR
GSN 1410 620 M 0  36 rL SGR
GSN 1410 1700 M 0 -36 rL SGR
GSN 1483 620 M 0  36 rL SGR
GSN 1483 1700 M 0 -36 rL SGR
GSN 1540 620 M 0  36 rL SGR
GSN 1540 1700 M 0 -36 rL SGR
GSN 1586 620 M 0  36 rL SGR
GSN 1586 1700 M 0 -36 rL SGR
GSN 1626 620 M 0  36 rL SGR
GSN 1626 1700 M 0 -36 rL SGR
GSN 1660 620 M 0  36 rL SGR
GSN 1660 1700 M 0 -36 rL SGR
GSN 1690 620 M 0  36 rL SGR
GSN 1690 1700 M 0 -36 rL SGR
GSN 1893 620 M 0  36 rL SGR
GSN 1893 1700 M 0 -36 rL SGR
GSN 1996 620 M 0  36 rL SGR
GSN 1996 1700 M 0 -36 rL SGR
GSN 2069 620 M 0  36 rL SGR
GSN 2069 1700 M 0 -36 rL SGR
GSN 2126 620 M 0  36 rL SGR
GSN 2126 1700 M 0 -36 rL SGR
GSN 2173 620 M 0  36 rL SGR
GSN 2173 1700 M 0 -36 rL SGR
GSN 2212 620 M 0  36 rL SGR
GSN 2212 1700 M 0 -36 rL SGR
GSN 2246 620 M 0  36 rL SGR
GSN 2246 1700 M 0 -36 rL SGR
GSN 2276 620 M 0  36 rL SGR
GSN 2276 1700 M 0 -36 rL SGR
GSN 2479 620 M 0  36 rL SGR
GSN 2479 1700 M 0 -36 rL SGR
GSN 2583 620 M 0  36 rL SGR
GSN 2583 1700 M 0 -36 rL SGR
GSN 2656 620 M 0  36 rL SGR
GSN 2656 1700 M 0 -36 rL SGR
GSN 2713 620 M 0  36 rL SGR
GSN 2713 1700 M 0 -36 rL SGR
GSN 2759 620 M 0  36 rL SGR
GSN 2759 1700 M 0 -36 rL SGR
GSN 2798 620 M 0  36 rL SGR
GSN 2798 1700 M 0 -36 rL SGR
GSN 2832 620 M 0  36 rL SGR
GSN 2832 1700 M 0 -36 rL SGR
GSN 2862 620 M 0  36 rL SGR
GSN 2862 1700 M 0 -36 rL SGR
GSN 3066 620 M 0  36 rL SGR
GSN 3066 1700 M 0 -36 rL SGR
GSN 3169 620 M 0  36 rL SGR
GSN 3169 1700 M 0 -36 rL SGR
GSN 3242 620 M 0  36 rL SGR
GSN 3242 1700 M 0 -36 rL SGR
GSN 3299 620 M 0  36 rL SGR
GSN 3299 1700 M 0 -36 rL SGR
GSN 3345 620 M 0  36 rL SGR
GSN 3345 1700 M 0 -36 rL SGR
GSN 3385 620 M 0  36 rL SGR
GSN 3385 1700 M 0 -36 rL SGR
GSN 3419 620 M 0  36 rL SGR
GSN 3419 1700 M 0 -36 rL SGR
GSN 3449 620 M 0  36 rL SGR
GSN 3449 1700 M 0 -36 rL SGR
GSN 3652 620 M 0  36 rL SGR
GSN 3652 1700 M 0 -36 rL SGR
GSN 3755 620 M 0  36 rL SGR
GSN 3755 1700 M 0 -36 rL SGR
GSN 3829 620 M 0  36 rL SGR
GSN 3829 1700 M 0 -36 rL SGR
GSN 3885 620 M 0  36 rL SGR
GSN 3885 1700 M 0 -36 rL SGR
GSN 3932 620 M 0  36 rL SGR
GSN 3932 1700 M 0 -36 rL SGR
GSN 3971 620 M 0  36 rL SGR
GSN 3971 1700 M 0 -36 rL SGR
GSN 4005 620 M 0  36 rL SGR
GSN 4005 1700 M 0 -36 rL SGR
GSN 4035 620 M 0  36 rL SGR
GSN 4035 1700 M 0 -36 rL SGR
%
% Y axis: large tics - residual frame
%
L10
GSN 620 685 M 54 0 rL SGR
GSN 4220 685 M -54 0 rL SGR
helvS (-0.02) 560 685 ylabelresid
GSN 620 934 M 54 0 rL SGR
GSN 4220 934 M -54 0 rL SGR
helvS (-0.01) 560 934 ylabelresid
GSN 620 1183 M 54 0 rL SGR
GSN 4220 1183 M -54 0 rL SGR
helvS (0) 560 1183 ylabelresid
GSN 620 1432 M 54 0 rL SGR
GSN 4220 1432 M -54 0 rL SGR
helvS (0.01) 560 1432 ylabelresid
GSN 620 1682 M 54 0 rL SGR
GSN 4220 1682 M -54 0 rL SGR
helvS (0.02) 560 1682 ylabelresid

%
% X axis - residual panel
%
GSN L5 620 1183 M 4220 1183 L SDA G50 SGR

end
showpage
%%Trailer
%%EOF
