%!PS-Adobe-3.0 EPSF-3.0
%%BoundingBox: 0 0 514 550
%%Creator: BioKin Ltd.
%%DocumentFonts: Symbol Helvetica
%%EndComments
%
/bkdict 256 dict def
bkdict begin
/M {moveto} def 
/R {rmoveto} def
/L {lineto} def
/rL {rlineto} def
/GSN {gsave newpath} def
/SGR {stroke grestore} def
/COSGR {gsave setrgbcolor stroke grestore grestore} def
/SL {setlinewidth} def
/LWMB {12} def             % line width - model curves, black & white
/LWMC {10} def             % line width - model curves, color
/L2 {2.5 setlinewidth} def
/L5 {5 setlinewidth} def
/L10 {10 setlinewidth} def
/G50 {0.5 setgray} def
/SDA {[10  20] 0 setdash} def % axes
/helvT {/Helvetica findfont 100 scalefont setfont} def % tiny
/helvS {/Helvetica findfont 125 scalefont setfont} def % small
/helvM {/Helvetica findfont 150 scalefont setfont} def % medium
/helvL {/Helvetica findfont 175 scalefont setfont} def % large
/xlabel {gsave M dup
   stringwidth exch -0.5 mul exch rmoveto show grestore} def 
/ylabel {gsave M 90 rotate dup
   stringwidth exch -0.5 mul exch rmoveto show grestore} def
/ylabelresid {gsave M dup
   stringwidth exch -1 mul exch rmoveto show grestore} def
% ======
% Shapes
% ======
% Circle:
/Circ {0 360 arc closepath} def
%
% Square:
/Squa {dup dup -0.5 mul dup dup R -2 mul 0 exch rL 1 mul 0 rL dup 0 exch -1 mul rL closepath} def
%
% Triangle Up:
/TriU {dup dup dup -0.4 mul exch -0.5 mul exch R dup 0.5 mul exch rL dup -1 mul exch 0.5 mul exch rL closepath} def 
%
% Triangle Down:
/TriD {dup dup dup 0.4 mul exch -0.5 mul exch R dup 0.5 mul exch -1 mul rL dup 0.5 mul exch rL closepath} def 
%
% Diamond:
/Diam {45 rotate Squa} def
% ======
% Fills
% ======
/GRF {gsave setgray fill grestore} def                    % gray-level Fill
/COF {gsave setrgbcolor fill grestore} def                % color fill
% ======
% Colors
% ======
/C01 {1.00	0.00	0.00} def      % Red
/C02 {0.00	0.00	1.00} def      % Blue
/C03 {0.00	0.39	0.00} def      % Dark Green
/C04 {0.78	0.08	0.52} def      % Medium Violet Red
/C05 {0.55	0.27	0.07} def      % Saddle Brown
/C06 {0.10	0.70	0.70} def      % (cyan)
/C07 {1.00	0.55	0.00} def      % Dark Orange
/C08 {0.63	0.13	0.94} def      % Purple
/C09 {0.00	0.75	1.00} def      % Deep Sky Blue
/C10 {0.20	0.80	0.20} def      % Lime Green
/C11 {0.47	0.53	0.60} def      % Light Slate Gray
/C12 {0.00	0.00	0.00} def      % Black            % or: {0.19	0.31	0.31} def      % Dark Slate Gray
%
/LGR {0.75} def % light gray
/DGR {0.33} def % dark gray
%
% =============
% Dash patterns
% =============
/dash01 { [80  20] 0 setdash } def
/dash02 { [40  20] 0 setdash } def
/dash03 { [80  20  10  20] 0 setdash } def
/dash04 { [40  20  10  20] 0 setdash } def
/dash05 { [80  20  10  10  10  20] 0 setdash } def
/dash06 { [40  20  10  10  10  20] 0 setdash } def
/dash07 { [10  10] 0 setdash } def
%
/MFshow {
   { dup 5 get 3 ge
     { 5 get 3 eq {gsave} {grestore} ifelse }
     {dup dup 0 get findfont exch 1 get scalefont setfont
     [ currentpoint ] exch dup 2 get 0 exch R dup 5 get 2 ne {dup dup 6
     get exch 4 get {show} {stringwidth pop 0 R} ifelse }if dup 5 get 0 eq
     {dup 3 get {2 get neg 0 exch R pop} {pop aload pop M} ifelse} {dup 5
     get 1 eq {dup 2 get exch dup 3 get exch 6 get stringwidth pop -2 div
     dup 0 R} {dup 6 get stringwidth pop -2 div 0 R 6 get
     show 2 index {aload pop M neg 3 -1 roll neg R pop pop} {pop pop pop
     pop aload pop M} ifelse }ifelse }ifelse }
     ifelse }
   forall} bind def
/MFwidth {0 exch {dup 3 get{dup dup 0 get findfont exch 1 get scalefont
     setfont 6 get stringwidth pop add} {pop} ifelse} forall} bind def
/MCshow { currentpoint stroke M
  exch dup MFwidth -2 div 3 -1 roll R MFshow } def
%
end
%%EndProlog
bkdict begin
0.1 0.1 scale
%
% Residuals:
%
GSN 620 3007 M
620 4505 L
620 4567 L
620 4863 L
620 4810 L
620 4630 L
620 4577 L
620 4472 L
620 4450 L
620 4425 L
620 4343 L
620 4455 L
620 4251 L
620 4357 L
620 4339 L
620 4217 L
620 4172 L
620 4190 L
620 4100 L
620 4162 L
620 4080 L
620 4063 L
620 4113 L
620 4136 L
620 3888 L
620 4003 L
620 4162 L
620 3965 L
620 3980 L
620 3930 L
620 3880 L
620 3866 L
620 3747 L
620 3925 L
620 3854 L
620 3811 L
620 3687 L
620 3852 L
620 3821 L
620 3658 L
620 3672 L
620 3667 L
620 3685 L
620 3522 L
620 3470 L
620 3693 L
620 3546 L
620 3445 L
620 3475 L
620 3578 L
620 3306 L
620 3346 L
620 3458 L
620 3498 L
620 3344 L
620 3477 L
620 3461 L
620 3398 L
620 3253 L
620 3443 L
620 3533 L
620 3416 L
620 3207 L
620 3111 L
620 3299 L
620 3215 L
620 3203 L
620 3236 L
620 3272 L
620 3074 L
620 3396 L
620 3185 L
620 3144 L
620 3124 L
620 3231 L
620 3005 L
620 3328 L
620 3209 L
620 3274 L
620 3058 L
620 3132 L
620 3039 L
620 3008 L
620 2925 L
620 2867 L
620 2850 L
620 2855 L
620 2957 L
620 2724 L
620 2735 L
620 2896 L
620 2737 L
620 2751 L
620 2692 L
620 2668 L
620 2698 L
620 2433 L
620 2649 L
620 2580 L
620 2533 L
620 2574 L
620 2528 L
620 2335 L
620 2417 L
620 2627 L
620 2394 L
620 2494 L
620 2609 L
620 2410 L
620 2431 L
620 2294 L
620 2243 L
620 2325 L
620 2283 L
620 2316 L
620 2292 L
620 2344 L
620 2293 L
620 2286 L
620 2383 L
620 2205 L
620 2276 L
620 2297 L
620 2277 L
620 2184 L
620 2242 L
620 2414 L
620 2280 L
620 2315 L
620 2183 L
620 2336 L
620 2319 L
620 2217 L
620 2148 L
620 2541 L
620 2316 L
620 2203 L
620 2136 L
620 2304 L
620 2385 L
620 2208 L
620 2251 L
620 2473 L
620 2308 L
620 2341 L
620 2385 L
620 2282 L
620 2403 L
620 2209 L
620 2272 L
620 2401 L
620 2347 L
620 2376 L
620 2269 L
620 2409 L
620 2517 L
620 2305 L
620 2465 L
620 2268 L
620 2303 L
620 2418 L
620 2239 L
620 2452 L
620 2490 L
620 2385 L
620 2389 L
620 2322 L
620 2465 L
620 2405 L
620 2192 L
620 2330 L
620 2517 L
620 2422 L
620 2290 L
620 2298 L
620 2447 L
620 2478 L
620 2270 L
620 2449 L
620 2312 L
620 2383 L
620 2391 L
620 2237 L
620 2553 L
620 2394 L
620 2406 L
620 2668 L
620 2517 L
620 2555 L
620 2559 L
620 2552 L
620 2412 L
620 2443 L
620 2465 L
620 2199 L
620 2374 L
620 2535 L
620 2546 L
620 2375 L
620 2388 L
620 2552 L
620 2460 L
620 2508 L
620 2609 L
620 2434 L
620 2522 L
620 2456 L
620 2493 L
620 2458 L
620 2591 L
620 2629 L
620 2619 L
620 2476 L
620 2529 L
620 2426 L
620 2629 L
620 2454 L
620 2540 L
620 2665 L
620 2543 L
620 2589 L
620 2616 L
620 2526 L
620 2480 L
620 2536 L
620 2673 L
620 2640 L
620 2588 L
620 2676 L
620 2577 L
620 2458 L
620 2583 L
620 2501 L
620 2623 L
620 2563 L
620 2622 L
620 2642 L
620 2714 L
620 2581 L
620 2614 L
620 2684 L
620 2550 L
620 2681 L
620 2613 L
620 2623 L
620 2498 L
620 2436 L
620 2773 L
620 2736 L
620 2714 L
620 2683 L
620 2549 L
620 2747 L
620 2544 L
620 2690 L
620 2723 L
620 2764 L
620 2806 L
620 2707 L
620 2664 L
620 2671 L
620 2582 L
620 2710 L
620 2703 L
620 2758 L
620 2717 L
620 2802 L
620 2576 L
620 2778 L
620 2584 L
620 2813 L
620 2552 L
620 2604 L
620 2548 L
620 2784 L
620 2594 L
620 2760 L
620 2535 L
620 2730 L
620 2833 L
620 2717 L
620 2900 L
620 2900 L
620 2960 L
620 2834 L
620 2808 L
620 3017 L
620 2986 L
620 2710 L
620 2893 L
620 2926 L
620 2900 L
620 2995 L
620 3091 L
620 2972 L
620 2987 L
620 2993 L
620 3019 L
620 3011 L
620 3047 L
620 2997 L
620 2832 L
620 2852 L
620 2885 L
620 2907 L
620 3103 L
620 2951 L
620 3062 L
620 2995 L
620 3130 L
620 3086 L
620 2990 L
620 3118 L
620 2947 L
620 3131 L
620 2945 L
620 3137 L
620 2967 L
620 3076 L
620 3083 L
620 2940 L
620 2965 L
620 2985 L
620 2970 L
620 3050 L
620 2896 L
620 3119 L
620 2932 L
620 2812 L
620 3013 L
620 2744 L
620 2946 L
620 2898 L
620 2939 L
620 2796 L
620 3155 L
620 2753 L
620 2908 L
620 2950 L
620 3013 L
620 2862 L
620 2929 L
620 2975 L
620 2979 L
620 3000 L
620 2981 L
620 2947 L
620 2906 L
620 2731 L
620 2698 L
620 2992 L
620 2975 L
620 2893 L
620 2794 L
620 2866 L
620 2955 L
620 2933 L
620 2934 L
620 2904 L
620 2951 L
620 2890 L
620 2958 L
620 2823 L
620 2679 L
620 2823 L
620 2847 L
620 2946 L
620 2843 L
620 2817 L
620 2948 L
620 3100 L
620 2784 L
620 2857 L
620 2888 L
620 2913 L
620 2812 L
620 2744 L
620 2706 L
620 2781 L
620 3013 L
620 2954 L
620 2744 L
620 2809 L
620 2776 L
620 2752 L
620 2665 L
620 2893 L
620 2692 L
620 2748 L
620 2876 L
620 2947 L
620 2646 L
620 2803 L
620 2839 L
620 2720 L
620 2672 L
620 2805 L
620 2772 L
620 2606 L
620 2757 L
620 2674 L
620 2848 L
620 2890 L
620 2691 L
620 2609 L
620 2896 L
620 2597 L
620 2703 L
620 2847 L
620 2782 L
620 2717 L
620 2733 L
620 2718 L
620 2739 L
620 2840 L
620 2677 L
620 2636 L
620 2686 L
620 2742 L
620 2809 L
620 2593 L
620 2740 L
620 2656 L
620 2718 L
620 2694 L
620 2722 L
620 2723 L
620 2564 L
620 2902 L
620 2704 L
620 2729 L
620 2729 L
620 2467 L
620 2743 L
620 2628 L
620 2809 L
620 2666 L
620 2753 L
620 2734 L
620 2775 L
620 2737 L
620 2739 L
620 2753 L
620 2620 L
620 2744 L
620 2584 L
620 2639 L
620 2814 L
620 2647 L
620 2747 L
620 2768 L
620 2778 L
620 2627 L
620 2538 L
620 2622 L
620 2532 L
620 2717 L
620 2720 L
620 2644 L
620 2618 L
620 2604 L
620 2591 L
620 2634 L
620 2706 L
620 2667 L
620 2497 L
620 2657 L
620 2695 L
620 2628 L
620 2461 L
620 2559 L
620 2795 L
620 2703 L
620 2668 L
620 2519 L
620 2506 L
620 2579 L
620 2543 L
620 2692 L
620 2532 L
620 2498 L
620 2663 L
620 2637 L
620 2641 L
620 2807 L
620 2531 L
620 2704 L
620 2633 L
620 2467 L
620 2508 L
620 2624 L
620 2668 L
620 2585 L
620 2588 L
620 2657 L
620 2669 L
620 2816 L
620 2736 L
620 2790 L
620 2555 L
620 2587 L
620 2677 L
620 2692 L
620 2586 L
620 2627 L
620 2552 L
620 2721 L
620 2582 L
620 2614 L
620 2745 L
620 2776 L
620 2626 L
620 2674 L
620 2699 L
620 2673 L
620 2515 L
620 2659 L
620 2731 L
620 2562 L
620 2640 L
620 2624 L
620 2658 L
620 2508 L
620 2656 L
620 2678 L
620 2767 L
620 2577 L
620 2677 L
620 2539 L
620 2686 L
620 2613 L
620 2664 L
620 2650 L
L2 C03 COSGR

%
%================
% Legend - Begin
%================
%
GSN 4240 5180 M
4480 5180 L
LWMC SL  C03 COSGR
GSN 4540 5141 M helvM (1.5 uM) show grestore
%
%================
% Legend - End
%================
%

%
% Main frame
%
L10
GSN 
620 1700 M
4220 1700 L
4220 5300 L
620 5300 L
closepath SGR

%
% X axis: large tics
%
L10
%
% X axis: small tics
%
L5
%
% Y axis: large tics
%
L10
GSN 620 2089 M 54 0 rL SGR
GSN 4220 2089 M -54 0 rL SGR
helvS (-0.02) 560 2089 ylabel
GSN 620 2828 M 54 0 rL SGR
GSN 4220 2828 M -54 0 rL SGR
helvS (0) 560 2828 ylabel
GSN 620 3567 M 54 0 rL SGR
GSN 4220 3567 M -54 0 rL SGR
helvS (0.02) 560 3567 ylabel
GSN 620 4305 M 54 0 rL SGR
GSN 4220 4305 M -54 0 rL SGR
helvS (0.04) 560 4305 ylabel
GSN 620 5044 M 54 0 rL SGR
GSN 4220 5044 M -54 0 rL SGR
helvS (0.06) 560 5044 ylabel
%
% Y axis: small tics
%
L5
GSN 620 1720 M 36 0 rL SGR
GSN 4220 1720 M -36 0 rL SGR
GSN 620 1905 M 36 0 rL SGR
GSN 4220 1905 M -36 0 rL SGR
GSN 620 2089 M 36 0 rL SGR
GSN 4220 2089 M -36 0 rL SGR
GSN 620 2274 M 36 0 rL SGR
GSN 4220 2274 M -36 0 rL SGR
GSN 620 2459 M 36 0 rL SGR
GSN 4220 2459 M -36 0 rL SGR
GSN 620 2643 M 36 0 rL SGR
GSN 4220 2643 M -36 0 rL SGR
GSN 620 2828 M 36 0 rL SGR
GSN 4220 2828 M -36 0 rL SGR
GSN 620 3013 M 36 0 rL SGR
GSN 4220 3013 M -36 0 rL SGR
GSN 620 3197 M 36 0 rL SGR
GSN 4220 3197 M -36 0 rL SGR
GSN 620 3382 M 36 0 rL SGR
GSN 4220 3382 M -36 0 rL SGR
GSN 620 3567 M 36 0 rL SGR
GSN 4220 3567 M -36 0 rL SGR
GSN 620 3751 M 36 0 rL SGR
GSN 4220 3751 M -36 0 rL SGR
GSN 620 3936 M 36 0 rL SGR
GSN 4220 3936 M -36 0 rL SGR
GSN 620 4120 M 36 0 rL SGR
GSN 4220 4120 M -36 0 rL SGR
GSN 620 4305 M 36 0 rL SGR
GSN 4220 4305 M -36 0 rL SGR
GSN 620 4490 M 36 0 rL SGR
GSN 4220 4490 M -36 0 rL SGR
GSN 620 4674 M 36 0 rL SGR
GSN 4220 4674 M -36 0 rL SGR
GSN 620 4859 M 36 0 rL SGR
GSN 4220 4859 M -36 0 rL SGR
GSN 620 5044 M 36 0 rL SGR
GSN 4220 5044 M -36 0 rL SGR
GSN 620 5228 M 36 0 rL SGR
GSN 4220 5228 M -36 0 rL SGR

%
% X axis - residual panel
%
GSN L5 620 2828 M 4220 2828 L SDA G50 SGR

%
% X-Axis label:
%
gsave 620 1370 M 
[
[(Helvetica) 180 0 true true 0 (t)]
[(Helvetica) 180 0 true true 0 (i)]
[(Helvetica) 180 0 true true 0 (m)]
[(Helvetica) 180 0 true true 0 (e)]
] 0 MCshow grestore

%
% Y-Axis label:
%
gsave 234 3500 M 
currentpoint gsave translate 90 rotate 0 0 moveto
[
[(Helvetica) 180 0 true true 0 (r)]
[(Helvetica) 180 0 true true 0 (e)]
[(Helvetica) 180 0 true true 0 (s)]
[(Helvetica) 180 0 true true 0 (i)]
[(Helvetica) 180 0 true true 0 (d)]
[(Helvetica) 180 0 true true 0 (u)]
[(Helvetica) 180 0 true true 0 (a)]
[(Helvetica) 180 0 true true 0 (l)]
[(Helvetica) 180 0 true true 0 (s)]
] 0 MCshow grestore

end
showpage
%%Trailer
%%EOF
