%!PS-Adobe-3.0 EPSF-3.0
%%BoundingBox: 0 0 514 550
%%Creator: BioKin Ltd.
%%DocumentFonts: Symbol Helvetica
%%EndComments
%
/bkdict 256 dict def
bkdict begin
/M {moveto} def 
/R {rmoveto} def
/L {lineto} def
/rL {rlineto} def
/GSN {gsave newpath} def
/SGR {stroke grestore} def
/COSGR {gsave setrgbcolor stroke grestore grestore} def
/SL {setlinewidth} def
/LWMB {12} def             % line width - model curves, black & white
/LWMC {10} def             % line width - model curves, color
/L2 {2.5 setlinewidth} def
/L5 {5 setlinewidth} def
/L10 {10 setlinewidth} def
/G50 {0.5 setgray} def
/SDA {[10  20] 0 setdash} def % axes
/helvT {/Helvetica findfont 100 scalefont setfont} def % tiny
/helvS {/Helvetica findfont 125 scalefont setfont} def % small
/helvM {/Helvetica findfont 150 scalefont setfont} def % medium
/helvL {/Helvetica findfont 175 scalefont setfont} def % large
/xlabel {gsave M dup
   stringwidth exch -0.5 mul exch rmoveto show grestore} def 
/ylabel {gsave M 90 rotate dup
   stringwidth exch -0.5 mul exch rmoveto show grestore} def
/ylabelresid {gsave M dup
   stringwidth exch -1 mul exch rmoveto show grestore} def
% ======
% Shapes
% ======
% Circle:
/Circ {0 360 arc closepath} def
%
% Square:
/Squa {dup dup -0.5 mul dup dup R -2 mul 0 exch rL 1 mul 0 rL dup 0 exch -1 mul rL closepath} def
%
% Triangle Up:
/TriU {dup dup dup -0.4 mul exch -0.5 mul exch R dup 0.5 mul exch rL dup -1 mul exch 0.5 mul exch rL closepath} def 
%
% Triangle Down:
/TriD {dup dup dup 0.4 mul exch -0.5 mul exch R dup 0.5 mul exch -1 mul rL dup 0.5 mul exch rL closepath} def 
%
% Diamond:
/Diam {45 rotate Squa} def
% ======
% Fills
% ======
/GRF {gsave setgray fill grestore} def                    % gray-level Fill
/COF {gsave setrgbcolor fill grestore} def                % color fill
% ======
% Colors
% ======
/C01 {1.00	0.00	0.00} def      % Red
/C02 {0.00	0.00	1.00} def      % Blue
/C03 {0.00	0.39	0.00} def      % Dark Green
/C04 {0.78	0.08	0.52} def      % Medium Violet Red
/C05 {0.55	0.27	0.07} def      % Saddle Brown
/C06 {0.10	0.70	0.70} def      % (cyan)
/C07 {1.00	0.55	0.00} def      % Dark Orange
/C08 {0.63	0.13	0.94} def      % Purple
/C09 {0.00	0.75	1.00} def      % Deep Sky Blue
/C10 {0.20	0.80	0.20} def      % Lime Green
/C11 {0.47	0.53	0.60} def      % Light Slate Gray
/C12 {0.00	0.00	0.00} def      % Black            % or: {0.19	0.31	0.31} def      % Dark Slate Gray
%
/LGR {0.75} def % light gray
/DGR {0.33} def % dark gray
%
% =============
% Dash patterns
% =============
/dash01 { [80  20] 0 setdash } def
/dash02 { [40  20] 0 setdash } def
/dash03 { [80  20  10  20] 0 setdash } def
/dash04 { [40  20  10  20] 0 setdash } def
/dash05 { [80  20  10  10  10  20] 0 setdash } def
/dash06 { [40  20  10  10  10  20] 0 setdash } def
/dash07 { [10  10] 0 setdash } def
%
/MFshow {
   { dup 5 get 3 ge
     { 5 get 3 eq {gsave} {grestore} ifelse }
     {dup dup 0 get findfont exch 1 get scalefont setfont
     [ currentpoint ] exch dup 2 get 0 exch R dup 5 get 2 ne {dup dup 6
     get exch 4 get {show} {stringwidth pop 0 R} ifelse }if dup 5 get 0 eq
     {dup 3 get {2 get neg 0 exch R pop} {pop aload pop M} ifelse} {dup 5
     get 1 eq {dup 2 get exch dup 3 get exch 6 get stringwidth pop -2 div
     dup 0 R} {dup 6 get stringwidth pop -2 div 0 R 6 get
     show 2 index {aload pop M neg 3 -1 roll neg R pop pop} {pop pop pop
     pop aload pop M} ifelse }ifelse }ifelse }
     ifelse }
   forall} bind def
/MFwidth {0 exch {dup 3 get{dup dup 0 get findfont exch 1 get scalefont
     setfont 6 get stringwidth pop add} {pop} ifelse} forall} bind def
/MCshow { currentpoint stroke M
  exch dup MFwidth -2 div 3 -1 roll R MFshow } def
%
end
%%EndProlog
bkdict begin
0.1 0.1 scale
%
% Residuals:
%
GSN 620 4092 M
620 3490 L
620 3107 L
620 3836 L
620 3286 L
620 4046 L
620 3306 L
620 3431 L
620 3550 L
620 3117 L
620 3198 L
620 3326 L
620 2715 L
620 2859 L
620 3015 L
620 3084 L
620 3597 L
620 3143 L
620 3383 L
620 3227 L
620 3310 L
620 3311 L
620 3447 L
620 2924 L
620 3406 L
620 3649 L
620 2847 L
620 3441 L
620 2860 L
620 3369 L
620 3107 L
620 3012 L
620 3231 L
620 3441 L
620 3359 L
620 3188 L
620 3540 L
620 4038 L
620 3080 L
620 3505 L
620 3562 L
620 3544 L
620 3532 L
620 2884 L
620 3853 L
620 3868 L
620 3220 L
620 3533 L
620 2991 L
620 3305 L
620 3463 L
620 3840 L
620 3981 L
620 3444 L
620 3304 L
620 3941 L
620 3098 L
620 3454 L
620 3500 L
620 3007 L
620 3037 L
620 3458 L
620 3668 L
620 3521 L
620 3280 L
620 3228 L
620 2912 L
620 3418 L
620 3365 L
620 3246 L
620 3560 L
620 3884 L
620 3396 L
620 3344 L
620 3447 L
620 3722 L
620 3314 L
620 3130 L
620 4035 L
620 3180 L
620 3922 L
620 2606 L
620 3753 L
620 3024 L
620 3027 L
620 3363 L
620 3027 L
620 3002 L
620 3401 L
620 3388 L
620 3236 L
620 3197 L
620 2903 L
620 3094 L
620 3218 L
620 3868 L
620 3129 L
620 3320 L
620 3441 L
620 3397 L
620 2488 L
620 2874 L
620 3296 L
620 3244 L
620 3254 L
620 2871 L
620 3210 L
620 3621 L
620 3160 L
620 3199 L
620 3002 L
620 2765 L
620 3492 L
620 3149 L
620 3039 L
620 3152 L
620 3356 L
620 2728 L
620 3009 L
620 3360 L
620 3027 L
620 3109 L
620 2982 L
620 3095 L
620 3056 L
620 3108 L
620 3181 L
620 3185 L
620 3327 L
620 2750 L
620 3173 L
620 3509 L
620 3113 L
620 3204 L
620 3136 L
620 3333 L
620 3144 L
620 3053 L
620 2998 L
620 3116 L
620 3247 L
620 3224 L
620 3167 L
620 3295 L
620 3273 L
620 3531 L
620 3641 L
620 2462 L
620 2697 L
620 3035 L
620 3598 L
620 3429 L
620 3020 L
620 3274 L
620 3281 L
620 3233 L
620 3144 L
620 3440 L
620 3067 L
620 3228 L
620 2855 L
620 3193 L
620 3520 L
620 2967 L
620 3408 L
620 3221 L
620 3181 L
620 3134 L
620 3672 L
620 3169 L
620 3618 L
620 3399 L
620 3452 L
620 3633 L
620 3160 L
620 3150 L
620 3559 L
620 3438 L
620 3142 L
620 3225 L
620 3245 L
620 3458 L
620 3778 L
620 3331 L
620 3574 L
620 3247 L
620 3614 L
620 3606 L
620 3105 L
620 3317 L
620 3385 L
620 3638 L
620 2996 L
620 3260 L
620 3491 L
620 3455 L
620 3081 L
620 3214 L
620 3142 L
620 3497 L
620 3298 L
620 3515 L
620 2878 L
620 3911 L
620 3301 L
620 3340 L
620 3466 L
620 3236 L
620 3420 L
620 3598 L
620 3343 L
620 3275 L
620 3536 L
620 2951 L
620 3272 L
620 3492 L
620 3751 L
620 3612 L
620 3526 L
620 3511 L
620 3516 L
620 3446 L
620 3850 L
620 3753 L
620 3777 L
620 3058 L
620 3449 L
620 4059 L
620 3676 L
620 3725 L
620 3451 L
620 3710 L
620 3601 L
620 3264 L
620 3675 L
620 3440 L
620 4073 L
620 4028 L
620 3309 L
620 3888 L
620 3499 L
620 3673 L
620 3493 L
620 3962 L
620 3469 L
620 3256 L
620 3090 L
620 3884 L
620 3316 L
620 3320 L
620 3258 L
620 3298 L
620 3518 L
620 3746 L
620 3846 L
620 3442 L
620 3453 L
620 3470 L
620 3764 L
620 3191 L
620 3273 L
620 4198 L
620 3799 L
620 3781 L
620 3933 L
620 3731 L
620 3700 L
620 3541 L
620 3227 L
620 3670 L
620 3983 L
620 3477 L
620 2872 L
620 3722 L
620 3553 L
620 3610 L
620 3915 L
620 3387 L
620 3724 L
620 3740 L
620 4042 L
620 3963 L
620 3920 L
620 3908 L
620 4239 L
620 3447 L
620 3963 L
620 4457 L
620 4020 L
620 4193 L
620 3663 L
620 4126 L
620 4147 L
620 4100 L
620 4188 L
620 4160 L
620 3519 L
620 4253 L
620 4094 L
620 3968 L
620 4036 L
620 4297 L
620 4012 L
620 3881 L
620 4455 L
620 3571 L
620 4488 L
620 4082 L
620 4084 L
620 3939 L
620 3985 L
620 4191 L
620 3906 L
620 3845 L
620 3880 L
620 4147 L
620 4046 L
620 3782 L
620 3979 L
620 3962 L
620 3648 L
620 3763 L
620 3968 L
620 4182 L
620 3981 L
620 3983 L
620 3730 L
620 3791 L
620 3684 L
620 3941 L
620 4239 L
620 3813 L
620 4410 L
620 4354 L
620 3803 L
620 4165 L
620 4031 L
620 3744 L
620 3941 L
620 4863 L
620 3941 L
620 4195 L
620 3684 L
620 3564 L
620 3814 L
620 3686 L
620 3924 L
620 4195 L
620 3736 L
620 3966 L
620 3640 L
620 3546 L
620 3573 L
620 3160 L
620 4222 L
620 3391 L
620 3788 L
620 3637 L
620 4019 L
620 3721 L
620 3671 L
620 3885 L
620 4017 L
620 3809 L
620 3244 L
620 3845 L
620 3828 L
620 3466 L
620 3281 L
620 3596 L
620 3296 L
620 4115 L
620 3625 L
620 3654 L
620 3382 L
620 3688 L
620 3250 L
620 3740 L
620 3761 L
620 3143 L
620 2766 L
620 3575 L
620 3862 L
620 3281 L
620 3093 L
620 3386 L
620 3235 L
620 3504 L
620 2944 L
620 3497 L
620 3564 L
620 3600 L
620 3252 L
620 3372 L
620 3753 L
620 2999 L
620 2854 L
620 3652 L
620 2950 L
620 3382 L
620 2624 L
620 3139 L
620 2825 L
620 3348 L
620 3949 L
620 3200 L
620 2986 L
620 3317 L
620 2433 L
620 3057 L
620 3275 L
620 3443 L
620 2888 L
620 3493 L
620 2909 L
620 3286 L
620 3246 L
620 3302 L
620 3512 L
620 2716 L
620 3363 L
620 2787 L
620 3003 L
620 3089 L
620 3376 L
620 3116 L
620 2940 L
620 3317 L
620 2802 L
620 3007 L
620 3116 L
620 3285 L
620 3124 L
620 3548 L
620 3147 L
620 3688 L
620 2940 L
620 3437 L
620 3248 L
620 3185 L
620 3168 L
620 3192 L
620 3143 L
620 2932 L
620 2976 L
620 3866 L
620 3137 L
620 2831 L
620 3258 L
620 3116 L
620 3702 L
620 2955 L
620 3596 L
620 3623 L
620 2969 L
620 3458 L
620 3084 L
620 3349 L
620 3393 L
620 3501 L
620 2590 L
620 3566 L
620 2753 L
620 3055 L
620 2999 L
620 3346 L
620 3380 L
620 2391 L
620 2839 L
620 2858 L
620 3208 L
620 3545 L
620 2869 L
620 2976 L
620 2201 L
620 3227 L
620 2848 L
620 3283 L
620 2226 L
620 3011 L
620 3522 L
620 2576 L
620 2655 L
620 2785 L
620 2697 L
620 3005 L
620 3072 L
620 3183 L
620 3101 L
620 2953 L
620 2959 L
620 2611 L
620 3177 L
620 3154 L
620 2136 L
620 3041 L
620 2789 L
620 3110 L
620 2888 L
620 3009 L
620 3315 L
620 3051 L
620 2705 L
620 2529 L
620 3007 L
620 3095 L
620 2586 L
620 2523 L
620 3057 L
620 3202 L
620 2615 L
620 3154 L
620 2955 L
620 2534 L
620 3005 L
620 3024 L
620 3904 L
620 2877 L
620 2846 L
620 3225 L
620 2756 L
620 3043 L
620 3340 L
620 3089 L
620 3085 L
620 2705 L
620 3030 L
620 3156 L
620 3026 L
620 2770 L
620 2716 L
620 2923 L
620 2819 L
L2 C04 COSGR

%
%================
% Legend - Begin
%================
%
GSN 4240 5180 M
4480 5180 L
LWMC SL  C04 COSGR
GSN 4540 5141 M helvM (2.0 uM) show grestore
%
%================
% Legend - End
%================
%

%
% Main frame
%
L10
GSN 
620 1700 M
4220 1700 L
4220 5300 L
620 5300 L
closepath SGR

%
% X axis: large tics
%
L10
%
% X axis: small tics
%
L5
%
% Y axis: large tics
%
L10
GSN 620 2287 M 54 0 rL SGR
GSN 4220 2287 M -54 0 rL SGR
helvS (-0.01) 560 2287 ylabel
GSN 620 3385 M 54 0 rL SGR
GSN 4220 3385 M -54 0 rL SGR
helvS (0) 560 3385 ylabel
GSN 620 4483 M 54 0 rL SGR
GSN 4220 4483 M -54 0 rL SGR
helvS (0.01) 560 4483 ylabel
%
% Y axis: small tics
%
L5
GSN 620 1738 M 36 0 rL SGR
GSN 4220 1738 M -36 0 rL SGR
GSN 620 2012 M 36 0 rL SGR
GSN 4220 2012 M -36 0 rL SGR
GSN 620 2287 M 36 0 rL SGR
GSN 4220 2287 M -36 0 rL SGR
GSN 620 2562 M 36 0 rL SGR
GSN 4220 2562 M -36 0 rL SGR
GSN 620 2836 M 36 0 rL SGR
GSN 4220 2836 M -36 0 rL SGR
GSN 620 3111 M 36 0 rL SGR
GSN 4220 3111 M -36 0 rL SGR
GSN 620 3385 M 36 0 rL SGR
GSN 4220 3385 M -36 0 rL SGR
GSN 620 3660 M 36 0 rL SGR
GSN 4220 3660 M -36 0 rL SGR
GSN 620 3934 M 36 0 rL SGR
GSN 4220 3934 M -36 0 rL SGR
GSN 620 4209 M 36 0 rL SGR
GSN 4220 4209 M -36 0 rL SGR
GSN 620 4483 M 36 0 rL SGR
GSN 4220 4483 M -36 0 rL SGR
GSN 620 4758 M 36 0 rL SGR
GSN 4220 4758 M -36 0 rL SGR
GSN 620 5032 M 36 0 rL SGR
GSN 4220 5032 M -36 0 rL SGR

%
% X axis - residual panel
%
GSN L5 620 3385 M 4220 3385 L SDA G50 SGR

%
% X-Axis label:
%
gsave 620 1370 M 
[
[(Helvetica) 180 0 true true 0 (t)]
[(Helvetica) 180 0 true true 0 (i)]
[(Helvetica) 180 0 true true 0 (m)]
[(Helvetica) 180 0 true true 0 (e)]
] 0 MCshow grestore

%
% Y-Axis label:
%
gsave 234 3499 M 
currentpoint gsave translate 90 rotate 0 0 moveto
[
[(Helvetica) 180 0 true true 0 (r)]
[(Helvetica) 180 0 true true 0 (e)]
[(Helvetica) 180 0 true true 0 (s)]
[(Helvetica) 180 0 true true 0 (i)]
[(Helvetica) 180 0 true true 0 (d)]
[(Helvetica) 180 0 true true 0 (u)]
[(Helvetica) 180 0 true true 0 (a)]
[(Helvetica) 180 0 true true 0 (l)]
[(Helvetica) 180 0 true true 0 (s)]
] 0 MCshow grestore

end
showpage
%%Trailer
%%EOF
