%!PS-Adobe-3.0 EPSF-3.0
%%BoundingBox: 0 0 514 550
%%Creator: BioKin Ltd.
%%DocumentFonts: Symbol Helvetica
%%EndComments
%
/bkdict 256 dict def
bkdict begin
/M {moveto} def 
/R {rmoveto} def
/L {lineto} def
/rL {rlineto} def
/GSN {gsave newpath} def
/SGR {stroke grestore} def
/COSGR {gsave setrgbcolor stroke grestore grestore} def
/SL {setlinewidth} def
/LWMB {12} def             % line width - model curves, black & white
/LWMC {10} def             % line width - model curves, color
/L2 {2.5 setlinewidth} def
/L5 {5 setlinewidth} def
/L10 {10 setlinewidth} def
/G50 {0.5 setgray} def
/SDA {[10  20] 0 setdash} def % axes
/helvT {/Helvetica findfont 100 scalefont setfont} def % tiny
/helvS {/Helvetica findfont 125 scalefont setfont} def % small
/helvM {/Helvetica findfont 150 scalefont setfont} def % medium
/helvL {/Helvetica findfont 175 scalefont setfont} def % large
/xlabel {gsave M dup
   stringwidth exch -0.5 mul exch rmoveto show grestore} def 
/ylabel {gsave M 90 rotate dup
   stringwidth exch -0.5 mul exch rmoveto show grestore} def
/ylabelresid {gsave M dup
   stringwidth exch -1 mul exch rmoveto show grestore} def
% ======
% Shapes
% ======
% Circle:
/Circ {0 360 arc closepath} def
%
% Square:
/Squa {dup dup -0.5 mul dup dup R -2 mul 0 exch rL 1 mul 0 rL dup 0 exch -1 mul rL closepath} def
%
% Triangle Up:
/TriU {dup dup dup -0.4 mul exch -0.5 mul exch R dup 0.5 mul exch rL dup -1 mul exch 0.5 mul exch rL closepath} def 
%
% Triangle Down:
/TriD {dup dup dup 0.4 mul exch -0.5 mul exch R dup 0.5 mul exch -1 mul rL dup 0.5 mul exch rL closepath} def 
%
% Diamond:
/Diam {45 rotate Squa} def
% ======
% Fills
% ======
/GRF {gsave setgray fill grestore} def                    % gray-level Fill
/COF {gsave setrgbcolor fill grestore} def                % color fill
% ======
% Colors
% ======
/C01 {1.00	0.00	0.00} def      % Red
/C02 {0.00	0.00	1.00} def      % Blue
/C03 {0.00	0.39	0.00} def      % Dark Green
/C04 {0.78	0.08	0.52} def      % Medium Violet Red
/C05 {0.55	0.27	0.07} def      % Saddle Brown
/C06 {0.10	0.70	0.70} def      % (cyan)
/C07 {1.00	0.55	0.00} def      % Dark Orange
/C08 {0.63	0.13	0.94} def      % Purple
/C09 {0.00	0.75	1.00} def      % Deep Sky Blue
/C10 {0.20	0.80	0.20} def      % Lime Green
/C11 {0.47	0.53	0.60} def      % Light Slate Gray
/C12 {0.00	0.00	0.00} def      % Black            % or: {0.19	0.31	0.31} def      % Dark Slate Gray
%
/LGR {0.75} def % light gray
/DGR {0.33} def % dark gray
%
% =============
% Dash patterns
% =============
/dash01 { [80  20] 0 setdash } def
/dash02 { [40  20] 0 setdash } def
/dash03 { [80  20  10  20] 0 setdash } def
/dash04 { [40  20  10  20] 0 setdash } def
/dash05 { [80  20  10  10  10  20] 0 setdash } def
/dash06 { [40  20  10  10  10  20] 0 setdash } def
/dash07 { [10  10] 0 setdash } def
%
/MFshow {
   { dup 5 get 3 ge
     { 5 get 3 eq {gsave} {grestore} ifelse }
     {dup dup 0 get findfont exch 1 get scalefont setfont
     [ currentpoint ] exch dup 2 get 0 exch R dup 5 get 2 ne {dup dup 6
     get exch 4 get {show} {stringwidth pop 0 R} ifelse }if dup 5 get 0 eq
     {dup 3 get {2 get neg 0 exch R pop} {pop aload pop M} ifelse} {dup 5
     get 1 eq {dup 2 get exch dup 3 get exch 6 get stringwidth pop -2 div
     dup 0 R} {dup 6 get stringwidth pop -2 div 0 R 6 get
     show 2 index {aload pop M neg 3 -1 roll neg R pop pop} {pop pop pop
     pop aload pop M} ifelse }ifelse }ifelse }
     ifelse }
   forall} bind def
/MFwidth {0 exch {dup 3 get{dup dup 0 get findfont exch 1 get scalefont
     setfont 6 get stringwidth pop add} {pop} ifelse} forall} bind def
/MCshow { currentpoint stroke M
  exch dup MFwidth -2 div 3 -1 roll R MFshow } def
%
end
%%EndProlog
bkdict begin
0.1 0.1 scale
%
% Residuals:
%
GSN 620 3176 M
620 4349 L
620 4547 L
620 4863 L
620 4696 L
620 4562 L
620 4580 L
620 4569 L
620 4608 L
620 4519 L
620 4536 L
620 4252 L
620 4722 L
620 4313 L
620 4486 L
620 4554 L
620 4486 L
620 4539 L
620 4199 L
620 4341 L
620 4254 L
620 4102 L
620 4165 L
620 4262 L
620 4051 L
620 4308 L
620 4447 L
620 4239 L
620 4369 L
620 4150 L
620 4010 L
620 3698 L
620 3873 L
620 3904 L
620 4148 L
620 4135 L
620 3970 L
620 3982 L
620 4069 L
620 4051 L
620 4173 L
620 4354 L
620 3784 L
620 3904 L
620 3581 L
620 3724 L
620 3591 L
620 3866 L
620 3878 L
620 3805 L
620 3891 L
620 3970 L
620 3540 L
620 3124 L
620 3368 L
620 3614 L
620 3784 L
620 3980 L
620 3614 L
620 3477 L
620 3345 L
620 3741 L
620 3299 L
620 3447 L
620 3731 L
620 3647 L
620 3266 L
620 3505 L
620 3480 L
620 3327 L
620 3284 L
620 3614 L
620 3393 L
620 3492 L
620 3261 L
620 3472 L
620 3482 L
620 3436 L
620 3352 L
620 3358 L
620 3429 L
620 3192 L
620 3149 L
620 3233 L
620 3327 L
620 3258 L
620 3289 L
620 3310 L
620 2898 L
620 2974 L
620 3035 L
620 3424 L
620 2905 L
620 2583 L
620 3190 L
620 2819 L
620 3050 L
620 2684 L
620 3017 L
620 2910 L
620 2756 L
620 2611 L
620 2908 L
620 2766 L
620 2288 L
620 2720 L
620 2761 L
620 2321 L
620 2806 L
620 2608 L
620 2867 L
620 2456 L
620 2900 L
620 2888 L
620 2791 L
620 2634 L
620 2646 L
620 2685 L
620 2524 L
620 2591 L
620 2685 L
620 2659 L
620 2634 L
620 2359 L
620 2552 L
620 2507 L
620 2337 L
620 2476 L
620 2700 L
620 2372 L
620 2596 L
620 2387 L
620 2408 L
620 2342 L
620 2499 L
620 2453 L
620 2390 L
620 2408 L
620 2606 L
620 2344 L
620 2502 L
620 2311 L
620 2364 L
620 2418 L
620 2372 L
620 2337 L
620 2291 L
620 2329 L
620 2303 L
620 2461 L
620 2550 L
620 2352 L
620 2540 L
620 2796 L
620 2359 L
620 2296 L
620 2321 L
620 2629 L
620 2453 L
620 2446 L
620 2822 L
620 2733 L
620 2258 L
620 2583 L
620 2349 L
620 2557 L
620 2555 L
620 2535 L
620 2573 L
620 2570 L
620 2695 L
620 2359 L
620 2789 L
620 2771 L
620 2618 L
620 2905 L
620 2136 L
620 2436 L
620 2707 L
620 2448 L
620 2522 L
620 2540 L
620 2530 L
620 2629 L
620 2187 L
620 2657 L
620 2768 L
620 3236 L
620 2568 L
620 3091 L
620 2321 L
620 2834 L
620 2720 L
620 2341 L
620 2692 L
620 2763 L
620 2723 L
620 2438 L
620 2720 L
620 2527 L
620 2575 L
620 2596 L
620 2707 L
620 2763 L
620 2466 L
620 2535 L
620 2522 L
620 2875 L
620 2791 L
620 2469 L
620 2791 L
620 2669 L
620 2812 L
620 3020 L
620 2908 L
620 2857 L
620 2890 L
620 2898 L
620 3093 L
620 2738 L
620 2801 L
620 3055 L
620 2936 L
620 2664 L
620 2705 L
620 2961 L
620 2628 L
620 2994 L
620 2456 L
620 2700 L
620 2888 L
620 3058 L
620 3025 L
620 2867 L
620 2839 L
620 2713 L
620 2710 L
620 2796 L
620 2705 L
620 2895 L
620 2654 L
620 2631 L
620 2616 L
620 2812 L
620 2753 L
620 2748 L
620 2822 L
620 2636 L
620 2855 L
620 3048 L
620 2949 L
620 2618 L
620 3083 L
620 3187 L
620 2921 L
620 2725 L
620 2656 L
620 2827 L
620 2824 L
620 2636 L
620 2517 L
620 2684 L
620 2486 L
620 2623 L
620 3261 L
620 3068 L
620 2862 L
620 2900 L
620 3220 L
620 3165 L
620 2878 L
620 2537 L
620 2563 L
620 3137 L
620 3223 L
620 2895 L
620 3213 L
620 3043 L
620 2631 L
620 2898 L
620 2687 L
620 2814 L
620 2992 L
620 2926 L
620 2812 L
620 3132 L
620 2766 L
620 3083 L
620 3195 L
620 3063 L
620 2967 L
620 3152 L
620 3182 L
620 3111 L
620 3261 L
620 3322 L
620 2959 L
620 3078 L
620 2936 L
620 3185 L
620 2738 L
620 2916 L
620 2923 L
620 2964 L
620 3215 L
620 2944 L
620 3129 L
620 3378 L
620 3012 L
620 3050 L
620 3010 L
620 3185 L
620 2890 L
620 2956 L
620 3017 L
620 3030 L
620 2992 L
620 3010 L
620 3167 L
620 2781 L
620 3352 L
620 3424 L
620 2921 L
620 3170 L
620 2628 L
620 3017 L
620 3330 L
620 2852 L
620 2735 L
620 2941 L
620 3132 L
620 3375 L
620 2995 L
620 2746 L
620 2979 L
620 3020 L
620 3241 L
620 2923 L
620 2987 L
620 2903 L
620 2819 L
620 3172 L
620 3032 L
620 2862 L
620 3127 L
620 2959 L
620 3063 L
620 3276 L
620 2911 L
620 2806 L
620 3200 L
620 3124 L
620 2778 L
620 2789 L
620 2974 L
620 2751 L
620 2941 L
620 3025 L
620 2931 L
620 3406 L
620 2710 L
620 3114 L
620 3111 L
620 3348 L
620 2857 L
620 2946 L
620 2870 L
620 3068 L
620 2723 L
620 2939 L
620 2852 L
620 2888 L
620 3093 L
620 2738 L
620 3182 L
620 3251 L
620 3010 L
620 2834 L
620 2733 L
620 3150 L
620 3015 L
620 3137 L
620 2682 L
620 2941 L
620 3027 L
620 2936 L
620 3028 L
620 2878 L
620 3195 L
620 2913 L
620 3053 L
620 2964 L
620 3015 L
620 3022 L
620 2949 L
620 2972 L
620 3185 L
620 2779 L
620 2908 L
620 3066 L
620 3139 L
620 2801 L
620 3165 L
620 3002 L
620 3289 L
620 2705 L
620 3195 L
620 3060 L
620 2966 L
620 2847 L
620 2979 L
620 3005 L
620 3162 L
620 3139 L
620 2692 L
620 2788 L
620 2954 L
620 2829 L
620 3005 L
620 3170 L
620 2690 L
620 2784 L
620 2796 L
620 3101 L
620 2611 L
620 2890 L
620 2756 L
620 2923 L
620 2984 L
620 3073 L
620 3134 L
620 3030 L
620 2873 L
620 3081 L
620 3081 L
620 3071 L
620 3012 L
620 2916 L
620 2563 L
620 2837 L
620 3294 L
620 3182 L
620 2936 L
620 3045 L
620 3172 L
620 2608 L
620 3096 L
620 3068 L
620 2707 L
620 2999 L
620 2639 L
620 2918 L
620 3167 L
620 3238 L
620 2850 L
620 3307 L
620 2751 L
620 3005 L
620 2984 L
620 3279 L
620 2715 L
620 3203 L
620 3167 L
620 3007 L
620 2898 L
620 2954 L
620 2903 L
620 3282 L
620 2895 L
620 3035 L
620 3200 L
620 2944 L
620 3002 L
620 2936 L
620 3312 L
620 2933 L
620 2799 L
620 3195 L
620 3086 L
620 3149 L
620 2791 L
620 3119 L
620 3071 L
620 3231 L
620 3294 L
620 3170 L
620 2974 L
620 3099 L
620 2997 L
620 3104 L
620 3452 L
620 3048 L
620 3170 L
620 2923 L
620 3150 L
620 2959 L
620 3071 L
620 3060 L
620 3124 L
620 2852 L
620 2928 L
620 2733 L
620 3144 L
620 3441 L
620 2598 L
620 3284 L
620 3000 L
620 2915 L
620 3175 L
620 3238 L
620 2961 L
620 3304 L
620 3180 L
620 2916 L
620 3050 L
620 3022 L
620 3066 L
620 3274 L
620 3157 L
620 2992 L
620 3513 L
620 3005 L
620 3033 L
620 3205 L
620 3165 L
620 2761 L
620 3050 L
620 2677 L
620 2951 L
620 3101 L
620 3190 L
620 2923 L
620 3152 L
L2 C01 COSGR

%
%================
% Legend - Begin
%================
%
GSN 4240 5180 M
4480 5180 L
LWMC SL  C01 COSGR
GSN 4540 5141 M helvM (0.5 uM) show grestore
%
%================
% Legend - End
%================
%

%
% Main frame
%
L10
GSN 
620 1700 M
4220 1700 L
4220 5300 L
620 5300 L
closepath SGR

%
% X axis: large tics
%
L10
%
% X axis: small tics
%
L5
%
% Y axis: large tics
%
L10
GSN 620 2043 M 54 0 rL SGR
GSN 4220 2043 M -54 0 rL SGR
helvS (-0.02) 560 2043 ylabel
GSN 620 3042 M 54 0 rL SGR
GSN 4220 3042 M -54 0 rL SGR
helvS (0) 560 3042 ylabel
GSN 620 4041 M 54 0 rL SGR
GSN 4220 4041 M -54 0 rL SGR
helvS (0.02) 560 4041 ylabel
GSN 620 5040 M 54 0 rL SGR
GSN 4220 5040 M -54 0 rL SGR
helvS (0.04) 560 5040 ylabel
%
% Y axis: small tics
%
L5
GSN 620 1794 M 36 0 rL SGR
GSN 4220 1794 M -36 0 rL SGR
GSN 620 2043 M 36 0 rL SGR
GSN 4220 2043 M -36 0 rL SGR
GSN 620 2293 M 36 0 rL SGR
GSN 4220 2293 M -36 0 rL SGR
GSN 620 2543 M 36 0 rL SGR
GSN 4220 2543 M -36 0 rL SGR
GSN 620 2793 M 36 0 rL SGR
GSN 4220 2793 M -36 0 rL SGR
GSN 620 3042 M 36 0 rL SGR
GSN 4220 3042 M -36 0 rL SGR
GSN 620 3292 M 36 0 rL SGR
GSN 4220 3292 M -36 0 rL SGR
GSN 620 3542 M 36 0 rL SGR
GSN 4220 3542 M -36 0 rL SGR
GSN 620 3791 M 36 0 rL SGR
GSN 4220 3791 M -36 0 rL SGR
GSN 620 4041 M 36 0 rL SGR
GSN 4220 4041 M -36 0 rL SGR
GSN 620 4291 M 36 0 rL SGR
GSN 4220 4291 M -36 0 rL SGR
GSN 620 4541 M 36 0 rL SGR
GSN 4220 4541 M -36 0 rL SGR
GSN 620 4790 M 36 0 rL SGR
GSN 4220 4790 M -36 0 rL SGR
GSN 620 5040 M 36 0 rL SGR
GSN 4220 5040 M -36 0 rL SGR
GSN 620 5290 M 36 0 rL SGR
GSN 4220 5290 M -36 0 rL SGR

%
% X axis - residual panel
%
GSN L5 620 3042 M 4220 3042 L SDA G50 SGR

%
% X-Axis label:
%
gsave 620 1370 M 
[
[(Helvetica) 180 0 true true 0 (t)]
[(Helvetica) 180 0 true true 0 (i)]
[(Helvetica) 180 0 true true 0 (m)]
[(Helvetica) 180 0 true true 0 (e)]
] 0 MCshow grestore

%
% Y-Axis label:
%
gsave 234 3500 M 
currentpoint gsave translate 90 rotate 0 0 moveto
[
[(Helvetica) 180 0 true true 0 (r)]
[(Helvetica) 180 0 true true 0 (e)]
[(Helvetica) 180 0 true true 0 (s)]
[(Helvetica) 180 0 true true 0 (i)]
[(Helvetica) 180 0 true true 0 (d)]
[(Helvetica) 180 0 true true 0 (u)]
[(Helvetica) 180 0 true true 0 (a)]
[(Helvetica) 180 0 true true 0 (l)]
[(Helvetica) 180 0 true true 0 (s)]
] 0 MCshow grestore

end
showpage
%%Trailer
%%EOF
