%!PS-Adobe-3.0 EPSF-3.0
%%BoundingBox: 0 0 514 550
%%Creator: BioKin Ltd.
%%DocumentFonts: Symbol Helvetica
%%EndComments
%
/bkdict 256 dict def
bkdict begin
/M {moveto} def 
/R {rmoveto} def
/L {lineto} def
/rL {rlineto} def
/GSN {gsave newpath} def
/SGR {stroke grestore} def
/COSGR {gsave setrgbcolor stroke grestore grestore} def
/SL {setlinewidth} def
/LWMB {12} def             % line width - model curves, black & white
/LWMC {10} def             % line width - model curves, color
/L2 {2.5 setlinewidth} def
/L5 {5 setlinewidth} def
/L10 {10 setlinewidth} def
/G50 {0.5 setgray} def
/SDA {[10  20] 0 setdash} def % axes
/helvT {/Helvetica findfont 100 scalefont setfont} def % tiny
/helvS {/Helvetica findfont 125 scalefont setfont} def % small
/helvM {/Helvetica findfont 150 scalefont setfont} def % medium
/helvL {/Helvetica findfont 175 scalefont setfont} def % large
/xlabel {gsave M dup
   stringwidth exch -0.5 mul exch rmoveto show grestore} def 
/ylabel {gsave M 90 rotate dup
   stringwidth exch -0.5 mul exch rmoveto show grestore} def
/ylabelresid {gsave M dup
   stringwidth exch -1 mul exch rmoveto show grestore} def
% ======
% Shapes
% ======
% Circle:
/Circ {0 360 arc closepath} def
%
% Square:
/Squa {dup dup -0.5 mul dup dup R -2 mul 0 exch rL 1 mul 0 rL dup 0 exch -1 mul rL closepath} def
%
% Triangle Up:
/TriU {dup dup dup -0.4 mul exch -0.5 mul exch R dup 0.5 mul exch rL dup -1 mul exch 0.5 mul exch rL closepath} def 
%
% Triangle Down:
/TriD {dup dup dup 0.4 mul exch -0.5 mul exch R dup 0.5 mul exch -1 mul rL dup 0.5 mul exch rL closepath} def 
%
% Diamond:
/Diam {45 rotate Squa} def
% ======
% Fills
% ======
/GRF {gsave setgray fill grestore} def                    % gray-level Fill
/COF {gsave setrgbcolor fill grestore} def                % color fill
% ======
% Colors
% ======
/C01 {1.00	0.00	0.00} def      % Red
/C02 {0.00	0.00	1.00} def      % Blue
/C03 {0.00	0.39	0.00} def      % Dark Green
/C04 {0.78	0.08	0.52} def      % Medium Violet Red
/C05 {0.55	0.27	0.07} def      % Saddle Brown
/C06 {0.10	0.70	0.70} def      % (cyan)
/C07 {1.00	0.55	0.00} def      % Dark Orange
/C08 {0.63	0.13	0.94} def      % Purple
/C09 {0.00	0.75	1.00} def      % Deep Sky Blue
/C10 {0.20	0.80	0.20} def      % Lime Green
/C11 {0.47	0.53	0.60} def      % Light Slate Gray
/C12 {0.00	0.00	0.00} def      % Black            % or: {0.19	0.31	0.31} def      % Dark Slate Gray
%
/LGR {0.75} def % light gray
/DGR {0.33} def % dark gray
%
% =============
% Dash patterns
% =============
/dash01 { [80  20] 0 setdash } def
/dash02 { [40  20] 0 setdash } def
/dash03 { [80  20  10  20] 0 setdash } def
/dash04 { [40  20  10  20] 0 setdash } def
/dash05 { [80  20  10  10  10  20] 0 setdash } def
/dash06 { [40  20  10  10  10  20] 0 setdash } def
/dash07 { [10  10] 0 setdash } def
%
/MFshow {
   { dup 5 get 3 ge
     { 5 get 3 eq {gsave} {grestore} ifelse }
     {dup dup 0 get findfont exch 1 get scalefont setfont
     [ currentpoint ] exch dup 2 get 0 exch R dup 5 get 2 ne {dup dup 6
     get exch 4 get {show} {stringwidth pop 0 R} ifelse }if dup 5 get 0 eq
     {dup 3 get {2 get neg 0 exch R pop} {pop aload pop M} ifelse} {dup 5
     get 1 eq {dup 2 get exch dup 3 get exch 6 get stringwidth pop -2 div
     dup 0 R} {dup 6 get stringwidth pop -2 div 0 R 6 get
     show 2 index {aload pop M neg 3 -1 roll neg R pop pop} {pop pop pop
     pop aload pop M} ifelse }ifelse }ifelse }
     ifelse }
   forall} bind def
/MFwidth {0 exch {dup 3 get{dup dup 0 get findfont exch 1 get scalefont
     setfont 6 get stringwidth pop add} {pop} ifelse} forall} bind def
/MCshow { currentpoint stroke M
  exch dup MFwidth -2 div 3 -1 roll R MFshow } def
%
end
%%EndProlog
bkdict begin
0.1 0.1 scale
%
% Model curves:
%

GSN 753 5166 M
753 5166 L
786 5166 L
820 5165 L
853 5165 L
886 5165 L
903 5164 L
919 5164 L
953 5163 L
986 5163 L
1020 5162 L
1053 5161 L
1053 5161 L
1086 5159 L
1120 5158 L
1153 5156 L
1186 5154 L
1203 5153 L
1220 5152 L
1253 5149 L
1286 5146 L
1320 5143 L
1353 5139 L
1353 5139 L
1386 5134 L
1420 5128 L
1453 5122 L
1486 5114 L
1503 5110 L
1520 5105 L
1553 5095 L
1586 5083 L
1620 5069 L
1653 5054 L
1653 5053 L
1686 5035 L
1720 5014 L
1753 4990 L
1786 4962 L
1804 4946 L
1820 4930 L
1853 4893 L
1886 4852 L
1920 4805 L
1953 4752 L
1954 4750 L
1986 4692 L
2020 4625 L
2053 4551 L
2086 4469 L
2104 4423 L
2120 4379 L
2153 4282 L
2186 4178 L
2220 4066 L
2253 3949 L
2254 3945 L
2286 3827 L
2320 3702 L
2353 3576 L
2386 3450 L
2404 3384 L
2420 3327 L
2453 3209 L
2486 3097 L
2520 2994 L
2553 2901 L
2554 2897 L
2586 2819 L
2620 2750 L
2653 2693 L
2686 2649 L
2704 2630 L
2720 2616 L
2753 2593 L
2786 2578 L
2820 2569 L
2853 2565 L
2854 2565 L
2886 2562 L
2920 2562 L
2953 2561 L
2986 2561 L
3004 2561 L
3020 2561 L
3053 2561 L
3068 2561 L
3086 2561 L
3120 2561 L
3153 2561 L
3155 2561 L
3186 2561 L
3220 2561 L
3253 2561 L
3286 2561 L
3305 2561 L
3320 2561 L
3353 2561 L
3386 2561 L
3420 2561 L
3453 2561 L
3455 2561 L
3486 2561 L
3520 2561 L
3553 2561 L
3586 2561 L
3605 2561 L
3620 2561 L
3653 2561 L
3686 2561 L
3720 2561 L
3753 2561 L
3755 2561 L
3786 2561 L
3820 2561 L
3853 2561 L
3886 2561 L
3905 2561 L
3920 2561 L
3953 2561 L
3986 2561 L
4020 2561 L
4053 2561 L
4086 2561 L
LWMC SL  C04 COSGR

%
% Experimental data:
%
GSN 773 5103 M
1625 4835 L
1773 4647 L
1860 4863 L
1922 4616 L
1970 4845 L
2009 4532 L
2043 4534 L
2072 4534 L
2097 4335 L
2120 4323 L
2140 4329 L
2159 4068 L
2176 4081 L
2192 4099 L
2207 4087 L
2221 4236 L
2234 4036 L
2247 4088 L
2259 3997 L
2270 3994 L
2280 3961 L
2290 3978 L
2300 3757 L
2309 3900 L
2318 3958 L
2326 3637 L
2335 3823 L
2342 3584 L
2350 3740 L
2357 3617 L
2364 3556 L
2371 3608 L
2378 3658 L
2384 3603 L
2391 3515 L
2397 3618 L
2403 3774 L
2409 3403 L
2414 3534 L
2420 3531 L
2425 3502 L
2430 3475 L
2435 3219 L
2440 3548 L
2445 3532 L
2450 3277 L
2455 3370 L
2459 3154 L
2464 3248 L
2468 3285 L
2472 3403 L
2476 3435 L
2481 3222 L
2485 3154 L
2489 3367 L
2492 3044 L
2496 3156 L
2500 3156 L
2504 2960 L
2507 2955 L
2511 3091 L
2514 3151 L
2518 3083 L
2521 2980 L
2525 2946 L
2528 2817 L
2531 2986 L
2534 2952 L
2538 2895 L
2541 2995 L
2544 3099 L
2547 2909 L
2550 2877 L
2553 2901 L
2556 2988 L
2559 2827 L
2561 2749 L
2564 3064 L
2567 2742 L
2570 2999 L
2580 2477 L
2590 2850 L
2600 2546 L
2609 2509 L
2618 2596 L
2627 2441 L
2635 2401 L
2643 2517 L
2650 2484 L
2658 2404 L
2665 2366 L
2672 2236 L
2678 2284 L
2685 2309 L
2691 2526 L
2697 2241 L
2703 2293 L
2709 2322 L
2714 2292 L
2720 1949 L
2725 2076 L
2730 2217 L
2735 2187 L
2740 2181 L
2745 2032 L
2750 2147 L
2755 2287 L
2759 2113 L
2764 2120 L
2768 2042 L
2772 1951 L
2777 2208 L
2781 2079 L
2785 2035 L
2789 2072 L
2793 2142 L
2796 1912 L
2800 2011 L
2804 2135 L
2808 2012 L
2811 2040 L
2815 1993 L
2818 2032 L
2822 2017 L
2825 2036 L
2828 2062 L
2831 2063 L
2835 2114 L
2838 1906 L
2841 2059 L
2844 2182 L
2847 2039 L
2850 2073 L
2853 2049 L
2856 2122 L
2859 2056 L
2862 2024 L
2864 2006 L
2867 2051 L
2870 2100 L
2873 2094 L
2875 2076 L
2878 2124 L
2880 2119 L
2883 2215 L
2886 2257 L
2888 1833 L
2891 1921 L
2893 2046 L
2895 2253 L
2898 2194 L
2900 2049 L
2902 2145 L
2905 2150 L
2907 2136 L
2909 2107 L
2912 2218 L
2914 2086 L
2916 2148 L
2918 2016 L
2920 2142 L
2922 2264 L
2925 2067 L
2927 2230 L
2929 2166 L
2931 2155 L
2933 2142 L
2935 2340 L
2937 2162 L
2939 2328 L
2941 2252 L
2943 2275 L
2945 2344 L
2947 2177 L
2948 2177 L
2950 2329 L
2952 2288 L
2954 2185 L
2956 2219 L
2958 2230 L
2959 2310 L
2961 2430 L
2963 2272 L
2965 2363 L
2966 2248 L
2968 2385 L
2970 2386 L
2972 2208 L
2973 2289 L
2975 2316 L
2977 2412 L
2978 2183 L
2980 2282 L
2982 2369 L
2983 2360 L
2985 2228 L
2986 2279 L
2988 2257 L
2989 2389 L
2991 2320 L
2993 2402 L
2994 2175 L
2996 2553 L
2997 2335 L
2999 2352 L
3000 2401 L
3002 2321 L
3003 2391 L
3005 2459 L
3006 2370 L
3007 2349 L
3009 2446 L
3010 2238 L
3012 2357 L
3013 2440 L
3014 2537 L
3016 2489 L
3017 2461 L
3019 2459 L
3020 2464 L
3021 2441 L
3023 2591 L
3024 2559 L
3025 2570 L
3027 2313 L
3028 2457 L
3029 2681 L
3031 2545 L
3032 2566 L
3033 2469 L
3034 2566 L
3036 2529 L
3037 2410 L
3038 2562 L
3039 2479 L
3041 2711 L
3042 2697 L
3043 2440 L
3044 2652 L
3045 2514 L
3047 2579 L
3048 2517 L
3049 2689 L
3050 2513 L
3051 2438 L
3053 2381 L
3054 2671 L
3055 2468 L
3056 2471 L
3057 2451 L
3058 2468 L
3059 2550 L
3061 2635 L
3062 2673 L
3063 2529 L
3064 2536 L
3065 2544 L
3066 2653 L
3067 2447 L
3068 2479 L
3069 2816 L
3070 2674 L
3071 2670 L
3073 2727 L
3074 2656 L
3075 2647 L
3076 2591 L
3077 2479 L
3078 2642 L
3079 2757 L
3080 2576 L
3081 2358 L
3082 2668 L
3083 2609 L
3084 2631 L
3085 2744 L
3086 2554 L
3087 2678 L
3088 2686 L
3089 2797 L
3112 2808 L
3133 2823 L
3152 2843 L
3170 2981 L
3186 2709 L
3201 2907 L
3216 3094 L
3229 2942 L
3241 3010 L
3253 2822 L
3264 2993 L
3275 3002 L
3285 2987 L
3295 3021 L
3304 3011 L
3313 2780 L
3322 3046 L
3330 2989 L
3338 2944 L
3346 2969 L
3353 3064 L
3360 2961 L
3367 2914 L
3374 3121 L
3380 2801 L
3387 3134 L
3393 2986 L
3399 2987 L
3405 2935 L
3410 2952 L
3416 3026 L
3421 2923 L
3426 2901 L
3431 2914 L
3436 3010 L
3441 2974 L
3446 2878 L
3451 2949 L
3455 2943 L
3460 2829 L
3464 2871 L
3469 2945 L
3473 3023 L
3477 2950 L
3481 2951 L
3485 2859 L
3489 2881 L
3493 2842 L
3496 2936 L
3500 3043 L
3504 2889 L
3507 3106 L
3511 3085 L
3514 2886 L
3518 3017 L
3521 2968 L
3525 2864 L
3528 2936 L
3531 3269 L
3534 2936 L
3537 3027 L
3540 2842 L
3543 2799 L
3546 2889 L
3549 2843 L
3552 2930 L
3555 3027 L
3558 2861 L
3561 2945 L
3564 2826 L
3566 2792 L
3575 2802 L
3586 2653 L
3595 3037 L
3605 2736 L
3613 2880 L
3622 2826 L
3630 2964 L
3638 2856 L
3646 2838 L
3653 2915 L
3660 2963 L
3667 2888 L
3674 2683 L
3681 2901 L
3687 2895 L
3693 2763 L
3699 2697 L
3705 2810 L
3710 2702 L
3716 2998 L
3721 2821 L
3727 2832 L
3732 2733 L
3737 2844 L
3742 2685 L
3746 2863 L
3751 2870 L
3756 2647 L
3760 2510 L
3764 2803 L
3769 2907 L
3773 2697 L
3777 2628 L
3781 2735 L
3785 2680 L
3789 2777 L
3793 2575 L
3797 2775 L
3800 2799 L
3804 2812 L
3808 2686 L
3811 2729 L
3815 2867 L
3818 2594 L
3821 2542 L
3825 2831 L
3828 2577 L
3831 2733 L
3834 2459 L
3838 2645 L
3841 2531 L
3844 2721 L
3847 2939 L
3850 2667 L
3853 2590 L
3855 2710 L
3858 2390 L
3861 2616 L
3864 2694 L
3867 2755 L
3869 2554 L
3872 2773 L
3875 2562 L
3877 2698 L
3880 2684 L
3882 2704 L
3885 2780 L
3887 2492 L
3890 2726 L
3892 2518 L
3895 2596 L
3897 2627 L
3899 2731 L
3902 2637 L
3904 2573 L
3906 2710 L
3908 2523 L
3911 2597 L
3913 2637 L
3915 2698 L
3917 2640 L
3919 2793 L
3921 2648 L
3923 2844 L
3926 2573 L
3928 2753 L
3930 2685 L
3932 2662 L
3934 2656 L
3936 2664 L
3938 2647 L
3940 2570 L
3942 2586 L
3943 2908 L
3945 2644 L
3947 2534 L
3949 2688 L
3951 2637 L
3953 2849 L
3955 2578 L
3956 2811 L
3958 2820 L
3960 2584 L
3962 2760 L
3963 2625 L
3965 2721 L
3967 2737 L
3969 2776 L
3970 2446 L
3972 2800 L
3974 2506 L
3975 2615 L
3977 2594 L
3978 2720 L
3980 2732 L
3982 2374 L
3983 2537 L
3985 2544 L
3986 2670 L
3988 2792 L
3990 2547 L
3991 2586 L
3993 2305 L
3994 2677 L
3996 2540 L
3997 2697 L
3999 2314 L
4000 2599 L
4001 2784 L
4003 2441 L
4004 2470 L
4006 2517 L
4007 2485 L
4009 2597 L
4010 2621 L
4011 2661 L
4013 2631 L
4014 2578 L
4016 2580 L
4017 2454 L
4018 2659 L
4020 2650 L
4021 2282 L
4022 2610 L
4024 2518 L
4025 2635 L
4026 2554 L
4028 2598 L
4029 2709 L
4030 2613 L
4031 2488 L
4033 2424 L
4034 2597 L
4035 2629 L
4036 2445 L
4038 2422 L
4039 2616 L
4040 2668 L
4041 2456 L
4042 2650 L
4044 2578 L
4045 2426 L
4046 2597 L
4047 2603 L
4048 2922 L
4050 2550 L
4051 2539 L
4052 2676 L
4053 2506 L
4054 2610 L
4055 2718 L
4056 2627 L
4058 2625 L
4059 2488 L
4060 2606 L
4061 2651 L
4062 2604 L
4063 2512 L
4064 2492 L
4065 2567 L
4066 2529 L
L2 C04 COSGR

%
%================
% Legend - Begin
%================
%
GSN 4240 5180 M
4480 5180 L
LWMC SL  C04 COSGR
GSN 4540 5141 M helvM (2.0 uM) show grestore
%
%================
% Legend - End
%================
%

%
% Residuals:
%
GSN 773 1130 M
1625 1033 L
1773 980 L
1860 1153 L
1922 1060 L
1970 1236 L
2009 1101 L
2043 1142 L
2072 1181 L
2097 1105 L
2120 1134 L
2140 1171 L
2159 1054 L
2176 1093 L
2192 1133 L
2207 1154 L
2221 1266 L
2234 1178 L
2247 1233 L
2259 1205 L
2270 1226 L
2280 1229 L
2290 1260 L
2300 1155 L
2309 1256 L
2318 1307 L
2326 1143 L
2335 1267 L
2342 1148 L
2350 1253 L
2357 1199 L
2364 1179 L
2371 1224 L
2378 1266 L
2384 1249 L
2391 1212 L
2397 1284 L
2403 1385 L
2409 1186 L
2414 1272 L
2420 1282 L
2425 1276 L
2430 1272 L
2435 1136 L
2440 1334 L
2445 1334 L
2450 1199 L
2455 1261 L
2459 1147 L
2464 1209 L
2468 1239 L
2472 1314 L
2476 1340 L
2481 1227 L
2485 1195 L
2489 1324 L
2492 1147 L
2496 1217 L
2500 1224 L
2504 1119 L
2507 1123 L
2511 1207 L
2514 1247 L
2518 1214 L
2521 1161 L
2525 1147 L
2528 1079 L
2531 1180 L
2534 1167 L
2538 1139 L
2541 1201 L
2544 1265 L
2547 1161 L
2550 1147 L
2553 1166 L
2556 1219 L
2559 1132 L
2561 1092 L
2564 1275 L
2567 1096 L
2570 1246 L
2580 963 L
2590 1188 L
2600 1027 L
2609 1017 L
2618 1077 L
2627 997 L
2635 983 L
2643 1056 L
2650 1044 L
2658 1005 L
2665 989 L
2672 921 L
2678 953 L
2685 971 L
2691 1099 L
2697 940 L
2703 973 L
2709 993 L
2714 978 L
2720 786 L
2725 861 L
2730 943 L
2735 928 L
2740 927 L
2745 844 L
2750 911 L
2755 992 L
2759 894 L
2764 900 L
2768 856 L
2772 805 L
2777 953 L
2781 881 L
2785 856 L
2789 878 L
2793 919 L
2796 788 L
2800 845 L
2804 916 L
2808 847 L
2811 864 L
2815 837 L
2818 860 L
2822 852 L
2825 862 L
2828 878 L
2831 878 L
2835 908 L
2838 790 L
2841 877 L
2844 947 L
2847 866 L
2850 886 L
2853 872 L
2856 914 L
2859 876 L
2862 858 L
2864 848 L
2867 874 L
2870 902 L
2873 898 L
2875 888 L
2878 916 L
2880 913 L
2883 967 L
2886 992 L
2888 750 L
2891 801 L
2893 872 L
2895 989 L
2898 956 L
2900 874 L
2902 928 L
2905 931 L
2907 923 L
2909 907 L
2912 970 L
2914 895 L
2916 930 L
2918 855 L
2920 927 L
2922 996 L
2925 884 L
2927 977 L
2929 940 L
2931 934 L
2933 927 L
2935 1040 L
2937 938 L
2939 1033 L
2941 990 L
2943 1003 L
2945 1042 L
2947 947 L
2948 947 L
2950 1033 L
2952 1010 L
2954 951 L
2956 971 L
2958 977 L
2959 1023 L
2961 1091 L
2963 1001 L
2965 1053 L
2966 988 L
2968 1065 L
2970 1066 L
2972 964 L
2973 1010 L
2975 1026 L
2977 1080 L
2978 950 L
2980 1007 L
2982 1056 L
2983 1051 L
2985 976 L
2986 1005 L
2988 992 L
2989 1067 L
2991 1028 L
2993 1075 L
2994 946 L
2996 1161 L
2997 1037 L
2999 1047 L
3000 1075 L
3002 1029 L
3003 1069 L
3005 1107 L
3006 1057 L
3007 1045 L
3009 1100 L
3010 981 L
3012 1049 L
3013 1096 L
3014 1152 L
3016 1125 L
3017 1109 L
3019 1107 L
3020 1110 L
3021 1097 L
3023 1182 L
3024 1164 L
3025 1171 L
3027 1024 L
3028 1106 L
3029 1234 L
3031 1156 L
3032 1168 L
3033 1113 L
3034 1168 L
3036 1147 L
3037 1079 L
3038 1166 L
3039 1119 L
3041 1251 L
3042 1243 L
3043 1096 L
3044 1217 L
3045 1139 L
3047 1176 L
3048 1140 L
3049 1238 L
3050 1138 L
3051 1096 L
3053 1063 L
3054 1228 L
3055 1112 L
3056 1114 L
3057 1103 L
3058 1113 L
3059 1159 L
3061 1208 L
3062 1229 L
3063 1147 L
3064 1151 L
3065 1156 L
3066 1218 L
3067 1101 L
3068 1119 L
3069 1311 L
3070 1230 L
3071 1227 L
3073 1260 L
3074 1219 L
3075 1214 L
3076 1182 L
3077 1119 L
3078 1211 L
3079 1277 L
3080 1174 L
3081 1050 L
3082 1227 L
3083 1193 L
3084 1205 L
3085 1269 L
3086 1162 L
3087 1232 L
3088 1237 L
3089 1300 L
3112 1306 L
3133 1315 L
3152 1326 L
3170 1405 L
3186 1250 L
3201 1362 L
3216 1469 L
3229 1383 L
3241 1421 L
3253 1314 L
3264 1411 L
3275 1417 L
3285 1408 L
3295 1427 L
3304 1422 L
3313 1290 L
3322 1442 L
3330 1409 L
3338 1383 L
3346 1398 L
3353 1452 L
3360 1393 L
3367 1366 L
3374 1484 L
3380 1302 L
3387 1491 L
3393 1408 L
3399 1408 L
3405 1378 L
3410 1388 L
3416 1430 L
3421 1371 L
3426 1359 L
3431 1366 L
3436 1421 L
3441 1400 L
3446 1346 L
3451 1386 L
3455 1383 L
3460 1318 L
3464 1342 L
3469 1384 L
3473 1428 L
3477 1387 L
3481 1387 L
3485 1335 L
3489 1348 L
3493 1326 L
3496 1379 L
3500 1440 L
3504 1352 L
3507 1475 L
3511 1464 L
3514 1350 L
3518 1425 L
3521 1397 L
3525 1338 L
3528 1379 L
3531 1569 L
3534 1379 L
3537 1431 L
3540 1326 L
3543 1301 L
3546 1352 L
3549 1326 L
3552 1375 L
3555 1431 L
3558 1336 L
3561 1384 L
3564 1316 L
3566 1297 L
3575 1303 L
3586 1218 L
3595 1436 L
3605 1265 L
3613 1347 L
3622 1316 L
3630 1395 L
3638 1333 L
3646 1323 L
3653 1367 L
3660 1394 L
3667 1351 L
3674 1235 L
3681 1359 L
3687 1355 L
3693 1281 L
3699 1243 L
3705 1307 L
3710 1246 L
3716 1414 L
3721 1313 L
3727 1320 L
3732 1263 L
3737 1326 L
3742 1236 L
3746 1337 L
3751 1341 L
3756 1214 L
3760 1137 L
3764 1303 L
3769 1362 L
3773 1243 L
3777 1204 L
3781 1264 L
3785 1233 L
3789 1288 L
3793 1173 L
3797 1287 L
3800 1301 L
3804 1308 L
3808 1237 L
3811 1261 L
3815 1340 L
3818 1184 L
3821 1155 L
3825 1319 L
3828 1174 L
3831 1263 L
3834 1107 L
3838 1213 L
3841 1149 L
3844 1256 L
3847 1380 L
3850 1226 L
3853 1182 L
3855 1250 L
3858 1068 L
3861 1196 L
3864 1241 L
3867 1276 L
3869 1162 L
3872 1286 L
3875 1166 L
3877 1244 L
3880 1235 L
3882 1247 L
3885 1290 L
3887 1126 L
3890 1260 L
3892 1141 L
3895 1185 L
3897 1203 L
3899 1262 L
3902 1209 L
3904 1172 L
3906 1250 L
3908 1144 L
3911 1186 L
3913 1209 L
3915 1244 L
3917 1210 L
3919 1298 L
3921 1215 L
3923 1326 L
3926 1172 L
3928 1275 L
3930 1236 L
3932 1223 L
3934 1219 L
3936 1224 L
3938 1214 L
3940 1171 L
3942 1180 L
3943 1363 L
3945 1213 L
3947 1150 L
3949 1238 L
3951 1209 L
3953 1329 L
3955 1175 L
3956 1307 L
3958 1313 L
3960 1178 L
3962 1279 L
3963 1202 L
3965 1256 L
3967 1266 L
3969 1288 L
3970 1100 L
3972 1301 L
3974 1134 L
3975 1196 L
3977 1184 L
3978 1256 L
3980 1263 L
3982 1059 L
3983 1152 L
3985 1156 L
3986 1228 L
3988 1297 L
3990 1158 L
3991 1180 L
3993 1020 L
3994 1231 L
3996 1153 L
3997 1243 L
3999 1025 L
4000 1187 L
4001 1292 L
4003 1097 L
4004 1114 L
4006 1140 L
4007 1122 L
4009 1186 L
4010 1199 L
4011 1222 L
4013 1206 L
4014 1175 L
4016 1176 L
4017 1105 L
4018 1221 L
4020 1216 L
4021 1007 L
4022 1193 L
4024 1141 L
4025 1207 L
4026 1162 L
4028 1187 L
4029 1250 L
4030 1195 L
4031 1124 L
4033 1088 L
4034 1186 L
4035 1204 L
4036 1099 L
4038 1086 L
4039 1196 L
4040 1226 L
4041 1105 L
4042 1216 L
4044 1175 L
4045 1089 L
4046 1186 L
4047 1190 L
4048 1371 L
4050 1159 L
4051 1153 L
4052 1231 L
4053 1134 L
4054 1193 L
4055 1255 L
4056 1203 L
4058 1202 L
4059 1124 L
4060 1191 L
4061 1217 L
4062 1190 L
4063 1137 L
4064 1126 L
4065 1169 L
4066 1147 L
L2 C04 COSGR

%
% Main frame
%
L10
GSN 
620 1700 M
4220 1700 L
4220 5300 L
620 5300 L
closepath SGR

%
% X axis: large tics
%
L10
GSN 1074 1700 M 0  54 rL SGR
GSN 1074 5300 M 0 -54 rL SGR
helvS (0.0001) 1074 470 xlabel
GSN 1572 1700 M 0  54 rL SGR
GSN 1572 5300 M 0 -54 rL SGR
helvS (0.001) 1572 470 xlabel
GSN 2071 1700 M 0  54 rL SGR
GSN 2071 5300 M 0 -54 rL SGR
helvS (0.01) 2071 470 xlabel
GSN 2570 1700 M 0  54 rL SGR
GSN 2570 5300 M 0 -54 rL SGR
helvS (0.1) 2570 470 xlabel
GSN 3068 1700 M 0  54 rL SGR
GSN 3068 5300 M 0 -54 rL SGR
helvS (1) 3068 470 xlabel
GSN 3567 1700 M 0  54 rL SGR
GSN 3567 5300 M 0 -54 rL SGR
helvS (10) 3567 470 xlabel
GSN 4066 1700 M 0  54 rL SGR
GSN 4066 5300 M 0 -54 rL SGR
helvS (100) 4066 470 xlabel
%
% X axis: small tics
%
L5
GSN 725 1700 M 0  36 rL SGR
GSN 725 5300 M 0 -36 rL SGR
GSN 813 1700 M 0  36 rL SGR
GSN 813 5300 M 0 -36 rL SGR
GSN 875 1700 M 0  36 rL SGR
GSN 875 5300 M 0 -36 rL SGR
GSN 924 1700 M 0  36 rL SGR
GSN 924 5300 M 0 -36 rL SGR
GSN 963 1700 M 0  36 rL SGR
GSN 963 5300 M 0 -36 rL SGR
GSN 996 1700 M 0  36 rL SGR
GSN 996 5300 M 0 -36 rL SGR
GSN 1025 1700 M 0  36 rL SGR
GSN 1025 5300 M 0 -36 rL SGR
GSN 1051 1700 M 0  36 rL SGR
GSN 1051 5300 M 0 -36 rL SGR
GSN 1224 1700 M 0  36 rL SGR
GSN 1224 5300 M 0 -36 rL SGR
GSN 1312 1700 M 0  36 rL SGR
GSN 1312 5300 M 0 -36 rL SGR
GSN 1374 1700 M 0  36 rL SGR
GSN 1374 5300 M 0 -36 rL SGR
GSN 1422 1700 M 0  36 rL SGR
GSN 1422 5300 M 0 -36 rL SGR
GSN 1462 1700 M 0  36 rL SGR
GSN 1462 5300 M 0 -36 rL SGR
GSN 1495 1700 M 0  36 rL SGR
GSN 1495 5300 M 0 -36 rL SGR
GSN 1524 1700 M 0  36 rL SGR
GSN 1524 5300 M 0 -36 rL SGR
GSN 1550 1700 M 0  36 rL SGR
GSN 1550 5300 M 0 -36 rL SGR
GSN 1722 1700 M 0  36 rL SGR
GSN 1722 5300 M 0 -36 rL SGR
GSN 1810 1700 M 0  36 rL SGR
GSN 1810 5300 M 0 -36 rL SGR
GSN 1873 1700 M 0  36 rL SGR
GSN 1873 5300 M 0 -36 rL SGR
GSN 1921 1700 M 0  36 rL SGR
GSN 1921 5300 M 0 -36 rL SGR
GSN 1960 1700 M 0  36 rL SGR
GSN 1960 5300 M 0 -36 rL SGR
GSN 1994 1700 M 0  36 rL SGR
GSN 1994 5300 M 0 -36 rL SGR
GSN 2023 1700 M 0  36 rL SGR
GSN 2023 5300 M 0 -36 rL SGR
GSN 2048 1700 M 0  36 rL SGR
GSN 2048 5300 M 0 -36 rL SGR
GSN 2221 1700 M 0  36 rL SGR
GSN 2221 5300 M 0 -36 rL SGR
GSN 2309 1700 M 0  36 rL SGR
GSN 2309 5300 M 0 -36 rL SGR
GSN 2371 1700 M 0  36 rL SGR
GSN 2371 5300 M 0 -36 rL SGR
GSN 2420 1700 M 0  36 rL SGR
GSN 2420 5300 M 0 -36 rL SGR
GSN 2459 1700 M 0  36 rL SGR
GSN 2459 5300 M 0 -36 rL SGR
GSN 2492 1700 M 0  36 rL SGR
GSN 2492 5300 M 0 -36 rL SGR
GSN 2521 1700 M 0  36 rL SGR
GSN 2521 5300 M 0 -36 rL SGR
GSN 2547 1700 M 0  36 rL SGR
GSN 2547 5300 M 0 -36 rL SGR
GSN 2720 1700 M 0  36 rL SGR
GSN 2720 5300 M 0 -36 rL SGR
GSN 2808 1700 M 0  36 rL SGR
GSN 2808 5300 M 0 -36 rL SGR
GSN 2870 1700 M 0  36 rL SGR
GSN 2870 5300 M 0 -36 rL SGR
GSN 2918 1700 M 0  36 rL SGR
GSN 2918 5300 M 0 -36 rL SGR
GSN 2958 1700 M 0  36 rL SGR
GSN 2958 5300 M 0 -36 rL SGR
GSN 2991 1700 M 0  36 rL SGR
GSN 2991 5300 M 0 -36 rL SGR
GSN 3020 1700 M 0  36 rL SGR
GSN 3020 5300 M 0 -36 rL SGR
GSN 3045 1700 M 0  36 rL SGR
GSN 3045 5300 M 0 -36 rL SGR
GSN 3218 1700 M 0  36 rL SGR
GSN 3218 5300 M 0 -36 rL SGR
GSN 3306 1700 M 0  36 rL SGR
GSN 3306 5300 M 0 -36 rL SGR
GSN 3368 1700 M 0  36 rL SGR
GSN 3368 5300 M 0 -36 rL SGR
GSN 3417 1700 M 0  36 rL SGR
GSN 3417 5300 M 0 -36 rL SGR
GSN 3456 1700 M 0  36 rL SGR
GSN 3456 5300 M 0 -36 rL SGR
GSN 3490 1700 M 0  36 rL SGR
GSN 3490 5300 M 0 -36 rL SGR
GSN 3519 1700 M 0  36 rL SGR
GSN 3519 5300 M 0 -36 rL SGR
GSN 3544 1700 M 0  36 rL SGR
GSN 3544 5300 M 0 -36 rL SGR
GSN 3717 1700 M 0  36 rL SGR
GSN 3717 5300 M 0 -36 rL SGR
GSN 3805 1700 M 0  36 rL SGR
GSN 3805 5300 M 0 -36 rL SGR
GSN 3867 1700 M 0  36 rL SGR
GSN 3867 5300 M 0 -36 rL SGR
GSN 3915 1700 M 0  36 rL SGR
GSN 3915 5300 M 0 -36 rL SGR
GSN 3955 1700 M 0  36 rL SGR
GSN 3955 5300 M 0 -36 rL SGR
GSN 3988 1700 M 0  36 rL SGR
GSN 3988 5300 M 0 -36 rL SGR
GSN 4017 1700 M 0  36 rL SGR
GSN 4017 5300 M 0 -36 rL SGR
GSN 4043 1700 M 0  36 rL SGR
GSN 4043 5300 M 0 -36 rL SGR
GSN 4216 1700 M 0  36 rL SGR
GSN 4216 5300 M 0 -36 rL SGR
%
% Y axis: large tics
%
L10
GSN 620 2278 M 54 0 rL SGR
GSN 4220 2278 M -54 0 rL SGR
helvS (1) 560 2278 ylabel
GSN 620 3074 M 54 0 rL SGR
GSN 4220 3074 M -54 0 rL SGR
helvS (1.02) 560 3074 ylabel
GSN 620 3869 M 54 0 rL SGR
GSN 4220 3869 M -54 0 rL SGR
helvS (1.04) 560 3869 ylabel
GSN 620 4664 M 54 0 rL SGR
GSN 4220 4664 M -54 0 rL SGR
helvS (1.06) 560 4664 ylabel
%
% Y axis: small tics
%
L5
GSN 620 1881 M 36 0 rL SGR
GSN 4220 1881 M -36 0 rL SGR
GSN 620 2079 M 36 0 rL SGR
GSN 4220 2079 M -36 0 rL SGR
GSN 620 2278 M 36 0 rL SGR
GSN 4220 2278 M -36 0 rL SGR
GSN 620 2477 M 36 0 rL SGR
GSN 4220 2477 M -36 0 rL SGR
GSN 620 2676 M 36 0 rL SGR
GSN 4220 2676 M -36 0 rL SGR
GSN 620 2875 M 36 0 rL SGR
GSN 4220 2875 M -36 0 rL SGR
GSN 620 3074 M 36 0 rL SGR
GSN 4220 3074 M -36 0 rL SGR
GSN 620 3272 M 36 0 rL SGR
GSN 4220 3272 M -36 0 rL SGR
GSN 620 3471 M 36 0 rL SGR
GSN 4220 3471 M -36 0 rL SGR
GSN 620 3670 M 36 0 rL SGR
GSN 4220 3670 M -36 0 rL SGR
GSN 620 3869 M 36 0 rL SGR
GSN 4220 3869 M -36 0 rL SGR
GSN 620 4068 M 36 0 rL SGR
GSN 4220 4068 M -36 0 rL SGR
GSN 620 4267 M 36 0 rL SGR
GSN 4220 4267 M -36 0 rL SGR
GSN 620 4465 M 36 0 rL SGR
GSN 4220 4465 M -36 0 rL SGR
GSN 620 4664 M 36 0 rL SGR
GSN 4220 4664 M -36 0 rL SGR
GSN 620 4863 M 36 0 rL SGR
GSN 4220 4863 M -36 0 rL SGR
GSN 620 5062 M 36 0 rL SGR
GSN 4220 5062 M -36 0 rL SGR
GSN 620 5261 M 36 0 rL SGR
GSN 4220 5261 M -36 0 rL SGR

%
% X-Axis label:
%
gsave 2420 290 M 
[
[(Helvetica) 180 0 true true 0 (t)]
[(Helvetica) 180 0 true true 0 (i)]
[(Helvetica) 180 0 true true 0 (m)]
[(Helvetica) 180 0 true true 0 (e)]
] 0 MCshow grestore

%
% Y-Axis label:
%
gsave 234 3500 M 
currentpoint gsave translate 90 rotate 0 0 moveto
[
[(Helvetica) 180 0 true true 0 (s)]
[(Helvetica) 180 0 true true 0 (i)]
[(Helvetica) 180 0 true true 0 (g)]
[(Helvetica) 180 0 true true 0 (n)]
[(Helvetica) 180 0 true true 0 (a)]
[(Helvetica) 180 0 true true 0 (l)]
] 0 MCshow grestore

%
% Residuals:
%
gsave 129 1160 M 
currentpoint gsave translate 90 rotate 0 0 moveto
[
[(Helvetica) 150 0 true true 0 (r)]
[(Helvetica) 150 0 true true 0 (e)]
[(Helvetica) 150 0 true true 0 (s)]
[(Helvetica) 150 0 true true 0 (i)]
[(Helvetica) 150 0 true true 0 (d)]
[(Helvetica) 150 0 true true 0 (u)]
[(Helvetica) 150 0 true true 0 (a)]
[(Helvetica) 150 0 true true 0 (l)]
[(Helvetica) 150 0 true true 0 (s)]
] 0 MCshow grestore

%
% Residual frame
%
L10
GSN 
620 620 M
4220 620 L
4220 1700 L
620 1700 L
closepath SGR
%
% X axis: large tics - residual frame
%
L10
GSN 1074 620 M 0  54 rL SGR
GSN 1074 1700 M 0 -54 rL SGR
GSN 1572 620 M 0  54 rL SGR
GSN 1572 1700 M 0 -54 rL SGR
GSN 2071 620 M 0  54 rL SGR
GSN 2071 1700 M 0 -54 rL SGR
GSN 2570 620 M 0  54 rL SGR
GSN 2570 1700 M 0 -54 rL SGR
GSN 3068 620 M 0  54 rL SGR
GSN 3068 1700 M 0 -54 rL SGR
GSN 3567 620 M 0  54 rL SGR
GSN 3567 1700 M 0 -54 rL SGR
GSN 4066 620 M 0  54 rL SGR
GSN 4066 1700 M 0 -54 rL SGR
%
% X axis: small tics - residual frame
%
L5
GSN 725 620 M 0  36 rL SGR
GSN 725 1700 M 0 -36 rL SGR
GSN 813 620 M 0  36 rL SGR
GSN 813 1700 M 0 -36 rL SGR
GSN 875 620 M 0  36 rL SGR
GSN 875 1700 M 0 -36 rL SGR
GSN 924 620 M 0  36 rL SGR
GSN 924 1700 M 0 -36 rL SGR
GSN 963 620 M 0  36 rL SGR
GSN 963 1700 M 0 -36 rL SGR
GSN 996 620 M 0  36 rL SGR
GSN 996 1700 M 0 -36 rL SGR
GSN 1025 620 M 0  36 rL SGR
GSN 1025 1700 M 0 -36 rL SGR
GSN 1051 620 M 0  36 rL SGR
GSN 1051 1700 M 0 -36 rL SGR
GSN 1224 620 M 0  36 rL SGR
GSN 1224 1700 M 0 -36 rL SGR
GSN 1312 620 M 0  36 rL SGR
GSN 1312 1700 M 0 -36 rL SGR
GSN 1374 620 M 0  36 rL SGR
GSN 1374 1700 M 0 -36 rL SGR
GSN 1422 620 M 0  36 rL SGR
GSN 1422 1700 M 0 -36 rL SGR
GSN 1462 620 M 0  36 rL SGR
GSN 1462 1700 M 0 -36 rL SGR
GSN 1495 620 M 0  36 rL SGR
GSN 1495 1700 M 0 -36 rL SGR
GSN 1524 620 M 0  36 rL SGR
GSN 1524 1700 M 0 -36 rL SGR
GSN 1550 620 M 0  36 rL SGR
GSN 1550 1700 M 0 -36 rL SGR
GSN 1722 620 M 0  36 rL SGR
GSN 1722 1700 M 0 -36 rL SGR
GSN 1810 620 M 0  36 rL SGR
GSN 1810 1700 M 0 -36 rL SGR
GSN 1873 620 M 0  36 rL SGR
GSN 1873 1700 M 0 -36 rL SGR
GSN 1921 620 M 0  36 rL SGR
GSN 1921 1700 M 0 -36 rL SGR
GSN 1960 620 M 0  36 rL SGR
GSN 1960 1700 M 0 -36 rL SGR
GSN 1994 620 M 0  36 rL SGR
GSN 1994 1700 M 0 -36 rL SGR
GSN 2023 620 M 0  36 rL SGR
GSN 2023 1700 M 0 -36 rL SGR
GSN 2048 620 M 0  36 rL SGR
GSN 2048 1700 M 0 -36 rL SGR
GSN 2221 620 M 0  36 rL SGR
GSN 2221 1700 M 0 -36 rL SGR
GSN 2309 620 M 0  36 rL SGR
GSN 2309 1700 M 0 -36 rL SGR
GSN 2371 620 M 0  36 rL SGR
GSN 2371 1700 M 0 -36 rL SGR
GSN 2420 620 M 0  36 rL SGR
GSN 2420 1700 M 0 -36 rL SGR
GSN 2459 620 M 0  36 rL SGR
GSN 2459 1700 M 0 -36 rL SGR
GSN 2492 620 M 0  36 rL SGR
GSN 2492 1700 M 0 -36 rL SGR
GSN 2521 620 M 0  36 rL SGR
GSN 2521 1700 M 0 -36 rL SGR
GSN 2547 620 M 0  36 rL SGR
GSN 2547 1700 M 0 -36 rL SGR
GSN 2720 620 M 0  36 rL SGR
GSN 2720 1700 M 0 -36 rL SGR
GSN 2808 620 M 0  36 rL SGR
GSN 2808 1700 M 0 -36 rL SGR
GSN 2870 620 M 0  36 rL SGR
GSN 2870 1700 M 0 -36 rL SGR
GSN 2918 620 M 0  36 rL SGR
GSN 2918 1700 M 0 -36 rL SGR
GSN 2958 620 M 0  36 rL SGR
GSN 2958 1700 M 0 -36 rL SGR
GSN 2991 620 M 0  36 rL SGR
GSN 2991 1700 M 0 -36 rL SGR
GSN 3020 620 M 0  36 rL SGR
GSN 3020 1700 M 0 -36 rL SGR
GSN 3045 620 M 0  36 rL SGR
GSN 3045 1700 M 0 -36 rL SGR
GSN 3218 620 M 0  36 rL SGR
GSN 3218 1700 M 0 -36 rL SGR
GSN 3306 620 M 0  36 rL SGR
GSN 3306 1700 M 0 -36 rL SGR
GSN 3368 620 M 0  36 rL SGR
GSN 3368 1700 M 0 -36 rL SGR
GSN 3417 620 M 0  36 rL SGR
GSN 3417 1700 M 0 -36 rL SGR
GSN 3456 620 M 0  36 rL SGR
GSN 3456 1700 M 0 -36 rL SGR
GSN 3490 620 M 0  36 rL SGR
GSN 3490 1700 M 0 -36 rL SGR
GSN 3519 620 M 0  36 rL SGR
GSN 3519 1700 M 0 -36 rL SGR
GSN 3544 620 M 0  36 rL SGR
GSN 3544 1700 M 0 -36 rL SGR
GSN 3717 620 M 0  36 rL SGR
GSN 3717 1700 M 0 -36 rL SGR
GSN 3805 620 M 0  36 rL SGR
GSN 3805 1700 M 0 -36 rL SGR
GSN 3867 620 M 0  36 rL SGR
GSN 3867 1700 M 0 -36 rL SGR
GSN 3915 620 M 0  36 rL SGR
GSN 3915 1700 M 0 -36 rL SGR
GSN 3955 620 M 0  36 rL SGR
GSN 3955 1700 M 0 -36 rL SGR
GSN 3988 620 M 0  36 rL SGR
GSN 3988 1700 M 0 -36 rL SGR
GSN 4017 620 M 0  36 rL SGR
GSN 4017 1700 M 0 -36 rL SGR
GSN 4043 620 M 0  36 rL SGR
GSN 4043 1700 M 0 -36 rL SGR
GSN 4216 620 M 0  36 rL SGR
GSN 4216 1700 M 0 -36 rL SGR
%
% Y axis: large tics - residual frame
%
L10
GSN 620 713 M 54 0 rL SGR
GSN 4220 713 M -54 0 rL SGR
helvS (-0.02) 560 713 ylabelresid
GSN 620 939 M 54 0 rL SGR
GSN 4220 939 M -54 0 rL SGR
helvS (-0.01) 560 939 ylabelresid
GSN 620 1166 M 54 0 rL SGR
GSN 4220 1166 M -54 0 rL SGR
helvS (0) 560 1166 ylabelresid
GSN 620 1392 M 54 0 rL SGR
GSN 4220 1392 M -54 0 rL SGR
helvS (0.01) 560 1392 ylabelresid
GSN 620 1618 M 54 0 rL SGR
GSN 4220 1618 M -54 0 rL SGR
helvS (0.02) 560 1618 ylabelresid

%
% X axis - residual panel
%
GSN L5 620 1166 M 4220 1166 L SDA G50 SGR

end
showpage
%%Trailer
%%EOF
