%!PS-Adobe-3.0 EPSF-3.0
%%BoundingBox: 0 0 514 550
%%Creator: BioKin Ltd.
%%DocumentFonts: Symbol Helvetica
%%EndComments
%
/bkdict 256 dict def
bkdict begin
/M {moveto} def 
/R {rmoveto} def
/L {lineto} def
/rL {rlineto} def
/GSN {gsave newpath} def
/SGR {stroke grestore} def
/COSGR {gsave setrgbcolor stroke grestore grestore} def
/SL {setlinewidth} def
/LWMB {12} def             % line width - model curves, black & white
/LWMC {10} def             % line width - model curves, color
/L2 {2.5 setlinewidth} def
/L5 {5 setlinewidth} def
/L10 {10 setlinewidth} def
/G50 {0.5 setgray} def
/SDA {[10  20] 0 setdash} def % axes
/helvT {/Helvetica findfont 100 scalefont setfont} def % tiny
/helvS {/Helvetica findfont 125 scalefont setfont} def % small
/helvM {/Helvetica findfont 150 scalefont setfont} def % medium
/helvL {/Helvetica findfont 175 scalefont setfont} def % large
/xlabel {gsave M dup
   stringwidth exch -0.5 mul exch rmoveto show grestore} def 
/ylabel {gsave M 90 rotate dup
   stringwidth exch -0.5 mul exch rmoveto show grestore} def
/ylabelresid {gsave M dup
   stringwidth exch -1 mul exch rmoveto show grestore} def
% ======
% Shapes
% ======
% Circle:
/Circ {0 360 arc closepath} def
%
% Square:
/Squa {dup dup -0.5 mul dup dup R -2 mul 0 exch rL 1 mul 0 rL dup 0 exch -1 mul rL closepath} def
%
% Triangle Up:
/TriU {dup dup dup -0.4 mul exch -0.5 mul exch R dup 0.5 mul exch rL dup -1 mul exch 0.5 mul exch rL closepath} def 
%
% Triangle Down:
/TriD {dup dup dup 0.4 mul exch -0.5 mul exch R dup 0.5 mul exch -1 mul rL dup 0.5 mul exch rL closepath} def 
%
% Diamond:
/Diam {45 rotate Squa} def
% ======
% Fills
% ======
/GRF {gsave setgray fill grestore} def                    % gray-level Fill
/COF {gsave setrgbcolor fill grestore} def                % color fill
% ======
% Colors
% ======
/C01 {1.00	0.00	0.00} def      % Red
/C02 {0.00	0.00	1.00} def      % Blue
/C03 {0.00	0.39	0.00} def      % Dark Green
/C04 {0.78	0.08	0.52} def      % Medium Violet Red
/C05 {0.55	0.27	0.07} def      % Saddle Brown
/C06 {0.10	0.70	0.70} def      % (cyan)
/C07 {1.00	0.55	0.00} def      % Dark Orange
/C08 {0.63	0.13	0.94} def      % Purple
/C09 {0.00	0.75	1.00} def      % Deep Sky Blue
/C10 {0.20	0.80	0.20} def      % Lime Green
/C11 {0.47	0.53	0.60} def      % Light Slate Gray
/C12 {0.00	0.00	0.00} def      % Black            % or: {0.19	0.31	0.31} def      % Dark Slate Gray
%
/LGR {0.75} def % light gray
/DGR {0.33} def % dark gray
%
% =============
% Dash patterns
% =============
/dash01 { [80  20] 0 setdash } def
/dash02 { [40  20] 0 setdash } def
/dash03 { [80  20  10  20] 0 setdash } def
/dash04 { [40  20  10  20] 0 setdash } def
/dash05 { [80  20  10  10  10  20] 0 setdash } def
/dash06 { [40  20  10  10  10  20] 0 setdash } def
/dash07 { [10  10] 0 setdash } def
%
/MFshow {
   { dup 5 get 3 ge
     { 5 get 3 eq {gsave} {grestore} ifelse }
     {dup dup 0 get findfont exch 1 get scalefont setfont
     [ currentpoint ] exch dup 2 get 0 exch R dup 5 get 2 ne {dup dup 6
     get exch 4 get {show} {stringwidth pop 0 R} ifelse }if dup 5 get 0 eq
     {dup 3 get {2 get neg 0 exch R pop} {pop aload pop M} ifelse} {dup 5
     get 1 eq {dup 2 get exch dup 3 get exch 6 get stringwidth pop -2 div
     dup 0 R} {dup 6 get stringwidth pop -2 div 0 R 6 get
     show 2 index {aload pop M neg 3 -1 roll neg R pop pop} {pop pop pop
     pop aload pop M} ifelse }ifelse }ifelse }
     ifelse }
   forall} bind def
/MFwidth {0 exch {dup 3 get{dup dup 0 get findfont exch 1 get scalefont
     setfont 6 get stringwidth pop add} {pop} ifelse} forall} bind def
/MCshow { currentpoint stroke M
  exch dup MFwidth -2 div 3 -1 roll R MFshow } def
%
end
%%EndProlog
bkdict begin
0.1 0.1 scale
%
% Residuals:
%
GSN 620 2482 M
620 2593 L
620 2891 L
620 3811 L
620 3797 L
620 3441 L
620 3421 L
620 3260 L
620 3314 L
620 3360 L
620 3251 L
620 3657 L
620 3218 L
620 3601 L
620 3652 L
620 3424 L
620 3398 L
620 3538 L
620 3387 L
620 3640 L
620 3506 L
620 3544 L
620 3757 L
620 3899 L
620 3317 L
620 3698 L
620 4195 L
620 3742 L
620 3851 L
620 3788 L
620 3723 L
620 3750 L
620 3499 L
620 4035 L
620 3907 L
620 3850 L
620 3578 L
620 4076 L
620 4047 L
620 3670 L
620 3759 L
620 3799 L
620 3897 L
620 3512 L
620 3423 L
620 4062 L
620 3719 L
620 3496 L
620 3618 L
620 3937 L
620 3253 L
620 3401 L
620 3742 L
620 3886 L
620 3516 L
620 3909 L
620 3902 L
620 3771 L
620 3421 L
620 3961 L
620 4235 L
620 3954 L
620 3432 L
620 3207 L
620 3741 L
620 3546 L
620 3543 L
620 3662 L
620 3787 L
620 3287 L
620 4170 L
620 3636 L
620 3553 L
620 3524 L
620 3835 L
620 3258 L
620 4141 L
620 3848 L
620 4045 L
620 3492 L
620 3712 L
620 3549 L
620 3544 L
620 3394 L
620 3305 L
620 3320 L
620 3388 L
620 3712 L
620 3138 L
620 3211 L
620 3680 L
620 3293 L
620 3363 L
620 3239 L
620 3205 L
620 3310 L
620 2630 L
620 3229 L
620 3067 L
620 2961 L
620 3088 L
620 2982 L
620 2483 L
620 2717 L
620 3288 L
620 2683 L
620 2959 L
620 3276 L
620 2755 L
620 2821 L
620 2463 L
620 2338 L
620 2561 L
620 2457 L
620 2551 L
620 2492 L
620 2637 L
620 2506 L
620 2492 L
620 2754 L
620 2284 L
620 2477 L
620 2536 L
620 2485 L
620 2240 L
620 2399 L
620 2859 L
620 2504 L
620 2599 L
620 2249 L
620 2660 L
620 2615 L
620 2345 L
620 2164 L
620 3212 L
620 2613 L
620 2315 L
620 2136 L
620 2584 L
620 2800 L
620 2332 L
620 2447 L
620 3037 L
620 2598 L
620 2687 L
620 2806 L
620 2532 L
620 2854 L
620 2337 L
620 2507 L
620 2849 L
620 2707 L
620 2785 L
620 2501 L
620 2871 L
620 3161 L
620 2597 L
620 3024 L
620 2499 L
620 2592 L
620 2898 L
620 2423 L
620 2990 L
620 3091 L
620 2810 L
620 2821 L
620 2644 L
620 3024 L
620 2865 L
620 2298 L
620 2664 L
620 3162 L
620 2910 L
620 2559 L
620 2580 L
620 2976 L
620 3060 L
620 2505 L
620 2981 L
620 2616 L
620 2807 L
620 2828 L
620 2417 L
620 3260 L
620 2835 L
620 2869 L
620 3565 L
620 3163 L
620 3264 L
620 3277 L
620 3257 L
620 2885 L
620 2966 L
620 3026 L
620 2319 L
620 2782 L
620 3211 L
620 3241 L
620 2787 L
620 2821 L
620 3257 L
620 3011 L
620 3139 L
620 3409 L
620 2943 L
620 3178 L
620 3001 L
620 3100 L
620 3006 L
620 3359 L
620 3461 L
620 3435 L
620 3054 L
620 3196 L
620 2922 L
620 3461 L
620 2997 L
620 3225 L
620 3559 L
620 3233 L
620 3355 L
620 3427 L
620 3188 L
620 3064 L
620 3214 L
620 3578 L
620 3490 L
620 3352 L
620 3588 L
620 3323 L
620 3005 L
620 3338 L
620 3121 L
620 3445 L
620 3286 L
620 3442 L
620 3497 L
620 3689 L
620 3335 L
620 3422 L
620 3607 L
620 3252 L
620 3601 L
620 3419 L
620 3446 L
620 3114 L
620 2947 L
620 3845 L
620 3746 L
620 3689 L
620 3606 L
620 3250 L
620 3776 L
620 3236 L
620 3623 L
620 3713 L
620 3820 L
620 3932 L
620 3668 L
620 3554 L
620 3572 L
620 3337 L
620 3677 L
620 3658 L
620 3805 L
620 3695 L
620 3923 L
620 3322 L
620 3859 L
620 3343 L
620 3950 L
620 3257 L
620 3396 L
620 3247 L
620 3874 L
620 3370 L
620 3811 L
620 3211 L
620 3731 L
620 4006 L
620 3697 L
620 4183 L
620 4183 L
620 4343 L
620 4008 L
620 3939 L
620 4494 L
620 4411 L
620 3678 L
620 4166 L
620 4252 L
620 4183 L
620 4437 L
620 4692 L
620 4375 L
620 4415 L
620 4432 L
620 4500 L
620 4479 L
620 4574 L
620 4443 L
620 4002 L
620 4057 L
620 4145 L
620 4203 L
620 4725 L
620 4319 L
620 4616 L
620 4438 L
620 4796 L
620 4679 L
620 4423 L
620 4765 L
620 4310 L
620 4800 L
620 4303 L
620 4814 L
620 4362 L
620 4653 L
620 4670 L
620 4291 L
620 4357 L
620 4409 L
620 4370 L
620 4584 L
620 4173 L
620 4768 L
620 4271 L
620 3950 L
620 4486 L
620 3770 L
620 4308 L
620 4181 L
620 4287 L
620 3907 L
620 4863 L
620 3795 L
620 4207 L
620 4317 L
620 4486 L
620 4083 L
620 4263 L
620 4385 L
620 4394 L
620 4451 L
620 4402 L
620 4310 L
620 4201 L
620 3734 L
620 3646 L
620 4430 L
620 4385 L
620 4166 L
620 3903 L
620 4096 L
620 4333 L
620 4273 L
620 4276 L
620 4198 L
620 4321 L
620 4160 L
620 4342 L
620 3982 L
620 3600 L
620 3982 L
620 4045 L
620 4310 L
620 4034 L
620 3967 L
620 4314 L
620 4720 L
620 3879 L
620 4074 L
620 4156 L
620 4222 L
620 3954 L
620 3772 L
620 3673 L
620 3871 L
620 4490 L
620 4333 L
620 3772 L
620 3946 L
620 3860 L
620 3794 L
620 3564 L
620 4169 L
620 3637 L
620 3785 L
620 4125 L
620 4314 L
620 3513 L
620 3933 L
620 4029 L
620 3710 L
620 3583 L
620 3937 L
620 3849 L
620 3409 L
620 3811 L
620 3588 L
620 4051 L
620 4164 L
620 3635 L
620 3418 L
620 4181 L
620 3384 L
620 3667 L
620 4051 L
620 3877 L
620 3704 L
620 3748 L
620 3707 L
620 3763 L
620 4033 L
620 3598 L
620 3489 L
620 3622 L
620 3772 L
620 3950 L
620 3376 L
620 3766 L
620 3545 L
620 3708 L
620 3646 L
620 3720 L
620 3723 L
620 3300 L
620 4200 L
620 3672 L
620 3738 L
620 3740 L
620 3041 L
620 3776 L
620 3470 L
620 3954 L
620 3571 L
620 3804 L
620 3753 L
620 3864 L
620 3761 L
620 3768 L
620 3804 L
620 3450 L
620 3780 L
620 3354 L
620 3500 L
620 3967 L
620 3523 L
620 3789 L
620 3845 L
620 3871 L
620 3470 L
620 3234 L
620 3457 L
620 3219 L
620 3710 L
620 3720 L
620 3517 L
620 3448 L
620 3410 L
620 3377 L
620 3491 L
620 3682 L
620 3577 L
620 3125 L
620 3551 L
620 3652 L
620 3476 L
620 3031 L
620 3292 L
620 3920 L
620 3675 L
620 3581 L
620 3185 L
620 3152 L
620 3345 L
620 3249 L
620 3647 L
620 3221 L
620 3129 L
620 3570 L
620 3500 L
620 3511 L
620 3954 L
620 3219 L
620 3680 L
620 3491 L
620 3049 L
620 3157 L
620 3466 L
620 3585 L
620 3363 L
620 3371 L
620 3556 L
620 3586 L
620 3978 L
620 3765 L
620 3909 L
620 3283 L
620 3369 L
620 3609 L
620 3650 L
620 3367 L
620 3476 L
620 3277 L
620 3727 L
620 3356 L
620 3442 L
620 3791 L
620 3873 L
620 3474 L
620 3603 L
620 3669 L
620 3600 L
620 3179 L
620 3564 L
620 3755 L
620 3305 L
620 3511 L
620 3470 L
620 3562 L
620 3163 L
620 3554 L
620 3614 L
620 3851 L
620 3344 L
620 3611 L
620 3245 L
620 3637 L
620 3442 L
620 3579 L
620 3540 L
L2 C03 COSGR

%
%================
% Legend - Begin
%================
%
GSN 4240 5180 M
4480 5180 L
LWMC SL  C03 COSGR
GSN 4540 5141 M helvM (1.5 uM) show grestore
%
%================
% Legend - End
%================
%

%
% Main frame
%
L10
GSN 
620 1700 M
4220 1700 L
4220 5300 L
620 5300 L
closepath SGR

%
% X axis: large tics
%
L10
%
% X axis: small tics
%
L5
%
% Y axis: large tics
%
L10
GSN 620 2552 M 54 0 rL SGR
GSN 4220 2552 M -54 0 rL SGR
helvS (-0.01) 560 2552 ylabel
GSN 620 3534 M 54 0 rL SGR
GSN 4220 3534 M -54 0 rL SGR
helvS (0) 560 3534 ylabel
GSN 620 4517 M 54 0 rL SGR
GSN 4220 4517 M -54 0 rL SGR
helvS (0.01) 560 4517 ylabel
%
% Y axis: small tics
%
L5
GSN 620 1814 M 36 0 rL SGR
GSN 4220 1814 M -36 0 rL SGR
GSN 620 2060 M 36 0 rL SGR
GSN 4220 2060 M -36 0 rL SGR
GSN 620 2306 M 36 0 rL SGR
GSN 4220 2306 M -36 0 rL SGR
GSN 620 2552 M 36 0 rL SGR
GSN 4220 2552 M -36 0 rL SGR
GSN 620 2797 M 36 0 rL SGR
GSN 4220 2797 M -36 0 rL SGR
GSN 620 3043 M 36 0 rL SGR
GSN 4220 3043 M -36 0 rL SGR
GSN 620 3289 M 36 0 rL SGR
GSN 4220 3289 M -36 0 rL SGR
GSN 620 3534 M 36 0 rL SGR
GSN 4220 3534 M -36 0 rL SGR
GSN 620 3780 M 36 0 rL SGR
GSN 4220 3780 M -36 0 rL SGR
GSN 620 4026 M 36 0 rL SGR
GSN 4220 4026 M -36 0 rL SGR
GSN 620 4271 M 36 0 rL SGR
GSN 4220 4271 M -36 0 rL SGR
GSN 620 4517 M 36 0 rL SGR
GSN 4220 4517 M -36 0 rL SGR
GSN 620 4763 M 36 0 rL SGR
GSN 4220 4763 M -36 0 rL SGR
GSN 620 5009 M 36 0 rL SGR
GSN 4220 5009 M -36 0 rL SGR
GSN 620 5254 M 36 0 rL SGR
GSN 4220 5254 M -36 0 rL SGR

%
% X axis - residual panel
%
GSN L5 620 3534 M 4220 3534 L SDA G50 SGR

%
% X-Axis label:
%
gsave 620 1370 M 
[
[(Helvetica) 180 0 true true 0 (t)]
[(Helvetica) 180 0 true true 0 (i)]
[(Helvetica) 180 0 true true 0 (m)]
[(Helvetica) 180 0 true true 0 (e)]
] 0 MCshow grestore

%
% Y-Axis label:
%
gsave 234 3500 M 
currentpoint gsave translate 90 rotate 0 0 moveto
[
[(Helvetica) 180 0 true true 0 (r)]
[(Helvetica) 180 0 true true 0 (e)]
[(Helvetica) 180 0 true true 0 (s)]
[(Helvetica) 180 0 true true 0 (i)]
[(Helvetica) 180 0 true true 0 (d)]
[(Helvetica) 180 0 true true 0 (u)]
[(Helvetica) 180 0 true true 0 (a)]
[(Helvetica) 180 0 true true 0 (l)]
[(Helvetica) 180 0 true true 0 (s)]
] 0 MCshow grestore

end
showpage
%%Trailer
%%EOF
