%!PS-Adobe-3.0 EPSF-3.0
%%BoundingBox: 0 0 514 550
%%Creator: BioKin Ltd.
%%DocumentFonts: Symbol Helvetica
%%EndComments
%
/bkdict 256 dict def
bkdict begin
/M {moveto} def 
/R {rmoveto} def
/L {lineto} def
/rL {rlineto} def
/GSN {gsave newpath} def
/SGR {stroke grestore} def
/COSGR {gsave setrgbcolor stroke grestore grestore} def
/SL {setlinewidth} def
/LWMB {12} def             % line width - model curves, black & white
/LWMC {10} def             % line width - model curves, color
/L2 {2.5 setlinewidth} def
/L5 {5 setlinewidth} def
/L10 {10 setlinewidth} def
/G50 {0.5 setgray} def
/SDA {[10  20] 0 setdash} def % axes
/helvT {/Helvetica findfont 100 scalefont setfont} def % tiny
/helvS {/Helvetica findfont 125 scalefont setfont} def % small
/helvM {/Helvetica findfont 150 scalefont setfont} def % medium
/helvL {/Helvetica findfont 175 scalefont setfont} def % large
/xlabel {gsave M dup
   stringwidth exch -0.5 mul exch rmoveto show grestore} def 
/ylabel {gsave M 90 rotate dup
   stringwidth exch -0.5 mul exch rmoveto show grestore} def
/ylabelresid {gsave M dup
   stringwidth exch -1 mul exch rmoveto show grestore} def
% ======
% Shapes
% ======
% Circle:
/Circ {0 360 arc closepath} def
%
% Square:
/Squa {dup dup -0.5 mul dup dup R -2 mul 0 exch rL 1 mul 0 rL dup 0 exch -1 mul rL closepath} def
%
% Triangle Up:
/TriU {dup dup dup -0.4 mul exch -0.5 mul exch R dup 0.5 mul exch rL dup -1 mul exch 0.5 mul exch rL closepath} def 
%
% Triangle Down:
/TriD {dup dup dup 0.4 mul exch -0.5 mul exch R dup 0.5 mul exch -1 mul rL dup 0.5 mul exch rL closepath} def 
%
% Diamond:
/Diam {45 rotate Squa} def
% ======
% Fills
% ======
/GRF {gsave setgray fill grestore} def                    % gray-level Fill
/COF {gsave setrgbcolor fill grestore} def                % color fill
% ======
% Colors
% ======
/C01 {1.00	0.00	0.00} def      % Red
/C02 {0.00	0.00	1.00} def      % Blue
/C03 {0.00	0.39	0.00} def      % Dark Green
/C04 {0.78	0.08	0.52} def      % Medium Violet Red
/C05 {0.55	0.27	0.07} def      % Saddle Brown
/C06 {0.10	0.70	0.70} def      % (cyan)
/C07 {1.00	0.55	0.00} def      % Dark Orange
/C08 {0.63	0.13	0.94} def      % Purple
/C09 {0.00	0.75	1.00} def      % Deep Sky Blue
/C10 {0.20	0.80	0.20} def      % Lime Green
/C11 {0.47	0.53	0.60} def      % Light Slate Gray
/C12 {0.00	0.00	0.00} def      % Black            % or: {0.19	0.31	0.31} def      % Dark Slate Gray
%
/LGR {0.75} def % light gray
/DGR {0.33} def % dark gray
%
% =============
% Dash patterns
% =============
/dash01 { [80  20] 0 setdash } def
/dash02 { [40  20] 0 setdash } def
/dash03 { [80  20  10  20] 0 setdash } def
/dash04 { [40  20  10  20] 0 setdash } def
/dash05 { [80  20  10  10  10  20] 0 setdash } def
/dash06 { [40  20  10  10  10  20] 0 setdash } def
/dash07 { [10  10] 0 setdash } def
%
/MFshow {
   { dup 5 get 3 ge
     { 5 get 3 eq {gsave} {grestore} ifelse }
     {dup dup 0 get findfont exch 1 get scalefont setfont
     [ currentpoint ] exch dup 2 get 0 exch R dup 5 get 2 ne {dup dup 6
     get exch 4 get {show} {stringwidth pop 0 R} ifelse }if dup 5 get 0 eq
     {dup 3 get {2 get neg 0 exch R pop} {pop aload pop M} ifelse} {dup 5
     get 1 eq {dup 2 get exch dup 3 get exch 6 get stringwidth pop -2 div
     dup 0 R} {dup 6 get stringwidth pop -2 div 0 R 6 get
     show 2 index {aload pop M neg 3 -1 roll neg R pop pop} {pop pop pop
     pop aload pop M} ifelse }ifelse }ifelse }
     ifelse }
   forall} bind def
/MFwidth {0 exch {dup 3 get{dup dup 0 get findfont exch 1 get scalefont
     setfont 6 get stringwidth pop add} {pop} ifelse} forall} bind def
/MCshow { currentpoint stroke M
  exch dup MFwidth -2 div 3 -1 roll R MFshow } def
%
end
%%EndProlog
bkdict begin
0.1 0.1 scale
%
% Residuals:
%
GSN 620 3632 M
620 3262 L
620 3040 L
620 3579 L
620 3238 L
620 3794 L
620 3318 L
620 3435 L
620 3545 L
620 3274 L
620 3354 L
620 3466 L
620 3067 L
620 3186 L
620 3312 L
620 3377 L
620 3746 L
620 3448 L
620 3627 L
620 3532 L
620 3601 L
620 3612 L
620 3715 L
620 3364 L
620 3702 L
620 3876 L
620 3331 L
620 3744 L
620 3350 L
620 3703 L
620 3526 L
620 3463 L
620 3615 L
620 3760 L
620 3705 L
620 3587 L
620 3829 L
620 4170 L
620 3510 L
620 3801 L
620 3837 L
620 3823 L
620 3811 L
620 3362 L
620 4025 L
620 4031 L
620 3581 L
620 3791 L
620 3414 L
620 3625 L
620 3727 L
620 3981 L
620 4072 L
620 3697 L
620 3594 L
620 4026 L
620 3440 L
620 3677 L
620 3702 L
620 3356 L
620 3369 L
620 3652 L
620 3788 L
620 3680 L
620 3507 L
620 3463 L
620 3238 L
620 3577 L
620 3533 L
620 3443 L
620 3651 L
620 3865 L
620 3522 L
620 3478 L
620 3540 L
620 3720 L
620 3432 L
620 3297 L
620 3911 L
620 3314 L
620 3815 L
620 2877 L
620 3632 L
620 3097 L
620 3066 L
620 3265 L
620 3002 L
620 2954 L
620 3198 L
620 3159 L
620 3027 L
620 2973 L
620 2744 L
620 2850 L
620 2911 L
620 3335 L
620 2805 L
620 2915 L
620 2978 L
620 2929 L
620 2286 L
620 2534 L
620 2807 L
620 2757 L
620 2749 L
620 2472 L
620 2693 L
620 2964 L
620 2636 L
620 2652 L
620 2508 L
620 2336 L
620 2828 L
620 2585 L
620 2502 L
620 2574 L
620 2709 L
620 2273 L
620 2462 L
620 2699 L
620 2468 L
620 2522 L
620 2433 L
620 2508 L
620 2480 L
620 2515 L
620 2565 L
620 2568 L
620 2667 L
620 2271 L
620 2563 L
620 2795 L
620 2525 L
620 2590 L
620 2545 L
620 2684 L
620 2557 L
620 2498 L
620 2463 L
620 2548 L
620 2642 L
620 2631 L
620 2596 L
620 2688 L
620 2678 L
620 2860 L
620 2941 L
620 2136 L
620 2303 L
620 2540 L
620 2933 L
620 2822 L
620 2547 L
620 2728 L
620 2738 L
620 2712 L
620 2657 L
620 2866 L
620 2617 L
620 2734 L
620 2484 L
620 2723 L
620 2954 L
620 2581 L
620 2891 L
620 2769 L
620 2748 L
620 2723 L
620 3099 L
620 2761 L
620 3076 L
620 2932 L
620 2976 L
620 3107 L
620 2789 L
620 2789 L
620 3077 L
620 3001 L
620 2804 L
620 2869 L
620 2890 L
620 3043 L
620 3270 L
620 2969 L
620 3143 L
620 2925 L
620 3185 L
620 3186 L
620 2848 L
620 3001 L
620 3054 L
620 3235 L
620 2801 L
620 2989 L
620 3155 L
620 3136 L
620 2886 L
620 2984 L
620 2941 L
620 3191 L
620 3061 L
620 3217 L
620 2786 L
620 3502 L
620 3089 L
620 3122 L
620 3216 L
620 3064 L
620 3196 L
620 3325 L
620 3156 L
620 3115 L
620 3301 L
620 2905 L
620 3132 L
620 3288 L
620 3472 L
620 3383 L
620 3330 L
620 3325 L
620 3334 L
620 3292 L
620 3575 L
620 3514 L
620 3536 L
620 3047 L
620 3322 L
620 3747 L
620 3489 L
620 3528 L
620 3345 L
620 3528 L
620 3459 L
620 3232 L
620 3520 L
620 3363 L
620 3803 L
620 3778 L
620 3288 L
620 3691 L
620 3429 L
620 3553 L
620 3434 L
620 3761 L
620 3428 L
620 3286 L
620 3176 L
620 3727 L
620 3341 L
620 3348 L
620 3310 L
620 3342 L
620 3498 L
620 3659 L
620 3732 L
620 3459 L
620 3470 L
620 3486 L
620 3692 L
620 3303 L
620 3363 L
620 4003 L
620 3733 L
620 3725 L
620 3833 L
620 3698 L
620 3681 L
620 3575 L
620 3363 L
620 3672 L
620 3890 L
620 3546 L
620 3134 L
620 3722 L
620 3609 L
620 3652 L
620 3865 L
620 3506 L
620 3741 L
620 3756 L
620 3966 L
620 3988 L
620 4017 L
620 4054 L
620 4316 L
620 3799 L
620 4175 L
620 4530 L
620 4243 L
620 4371 L
620 4014 L
620 4338 L
620 4356 L
620 4328 L
620 4391 L
620 4374 L
620 3934 L
620 4440 L
620 4332 L
620 4245 L
620 4293 L
620 4473 L
620 4277 L
620 4188 L
620 4582 L
620 3975 L
620 4605 L
620 4326 L
620 4327 L
620 4228 L
620 4260 L
620 4401 L
620 4205 L
620 4163 L
620 4188 L
620 4371 L
620 4302 L
620 4120 L
620 4255 L
620 4244 L
620 4028 L
620 4107 L
620 4248 L
620 4395 L
620 4257 L
620 4258 L
620 4084 L
620 4126 L
620 4052 L
620 4229 L
620 4434 L
620 4142 L
620 4552 L
620 4513 L
620 4135 L
620 4384 L
620 4291 L
620 4094 L
620 4229 L
620 4863 L
620 4229 L
620 4404 L
620 4052 L
620 3970 L
620 4142 L
620 4054 L
620 4218 L
620 4404 L
620 4088 L
620 4247 L
620 4022 L
620 3958 L
620 3976 L
620 3693 L
620 4422 L
620 3851 L
620 4124 L
620 4021 L
620 4283 L
620 4078 L
620 4044 L
620 4191 L
620 4281 L
620 4139 L
620 3750 L
620 4163 L
620 4152 L
620 3903 L
620 3776 L
620 3992 L
620 3786 L
620 4349 L
620 4012 L
620 4032 L
620 3845 L
620 4055 L
620 3754 L
620 4091 L
620 4106 L
620 3681 L
620 3422 L
620 3978 L
620 4175 L
620 3776 L
620 3647 L
620 3848 L
620 3744 L
620 3929 L
620 3544 L
620 3924 L
620 3970 L
620 3995 L
620 3756 L
620 3838 L
620 4100 L
620 3582 L
620 3482 L
620 4031 L
620 3549 L
620 3845 L
620 3324 L
620 3678 L
620 3462 L
620 3822 L
620 4235 L
620 3720 L
620 3573 L
620 3801 L
620 3193 L
620 3622 L
620 3772 L
620 3887 L
620 3505 L
620 3921 L
620 3520 L
620 3779 L
620 3752 L
620 3791 L
620 3934 L
620 3387 L
620 3832 L
620 3436 L
620 3585 L
620 3644 L
620 3841 L
620 3662 L
620 3541 L
620 3800 L
620 3447 L
620 3588 L
620 3662 L
620 3779 L
620 3668 L
620 3959 L
620 3684 L
620 4055 L
620 3541 L
620 3883 L
620 3753 L
620 3710 L
620 3698 L
620 3714 L
620 3681 L
620 3536 L
620 3566 L
620 4178 L
620 3677 L
620 3467 L
620 3760 L
620 3662 L
620 4065 L
620 3552 L
620 3992 L
620 4011 L
620 3562 L
620 3897 L
620 3641 L
620 3822 L
620 3852 L
620 3927 L
620 3301 L
620 3972 L
620 3413 L
620 3621 L
620 3582 L
620 3821 L
620 3844 L
620 3164 L
620 3472 L
620 3485 L
620 3726 L
620 3958 L
620 3492 L
620 3566 L
620 3033 L
620 3739 L
620 3478 L
620 3777 L
620 3051 L
620 3590 L
620 3942 L
620 3291 L
620 3346 L
620 3435 L
620 3374 L
620 3586 L
620 3632 L
620 3709 L
620 3652 L
620 3550 L
620 3554 L
620 3315 L
620 3704 L
620 3688 L
620 2989 L
620 3611 L
620 3438 L
620 3658 L
620 3505 L
620 3589 L
620 3799 L
620 3618 L
620 3380 L
620 3259 L
620 3587 L
620 3648 L
620 3298 L
620 3255 L
620 3622 L
620 3721 L
620 3318 L
620 3688 L
620 3552 L
620 3262 L
620 3586 L
620 3599 L
620 4204 L
620 3498 L
620 3477 L
620 3737 L
620 3415 L
620 3612 L
620 3817 L
620 3644 L
620 3641 L
620 3380 L
620 3603 L
620 3690 L
620 3600 L
620 3425 L
620 3387 L
620 3530 L
620 3458 L
L2 C04 COSGR

%
%================
% Legend - Begin
%================
%
GSN 4240 5180 M
4480 5180 L
LWMC SL  C04 COSGR
GSN 4540 5141 M helvM (2.0 uM) show grestore
%
%================
% Legend - End
%================
%

%
% Main frame
%
L10
GSN 
620 1700 M
4220 1700 L
4220 5300 L
620 5300 L
closepath SGR

%
% X axis: large tics
%
L10
%
% X axis: small tics
%
L5
%
% Y axis: large tics
%
L10
GSN 620 2007 M 54 0 rL SGR
GSN 4220 2007 M -54 0 rL SGR
helvS (-0.02) 560 2007 ylabel
GSN 620 2762 M 54 0 rL SGR
GSN 4220 2762 M -54 0 rL SGR
helvS (-0.01) 560 2762 ylabel
GSN 620 3516 M 54 0 rL SGR
GSN 4220 3516 M -54 0 rL SGR
helvS (0) 560 3516 ylabel
GSN 620 4271 M 54 0 rL SGR
GSN 4220 4271 M -54 0 rL SGR
helvS (0.01) 560 4271 ylabel
GSN 620 5026 M 54 0 rL SGR
GSN 4220 5026 M -54 0 rL SGR
helvS (0.02) 560 5026 ylabel
%
% Y axis: small tics
%
L5
GSN 620 1818 M 36 0 rL SGR
GSN 4220 1818 M -36 0 rL SGR
GSN 620 2007 M 36 0 rL SGR
GSN 4220 2007 M -36 0 rL SGR
GSN 620 2195 M 36 0 rL SGR
GSN 4220 2195 M -36 0 rL SGR
GSN 620 2384 M 36 0 rL SGR
GSN 4220 2384 M -36 0 rL SGR
GSN 620 2573 M 36 0 rL SGR
GSN 4220 2573 M -36 0 rL SGR
GSN 620 2762 M 36 0 rL SGR
GSN 4220 2762 M -36 0 rL SGR
GSN 620 2950 M 36 0 rL SGR
GSN 4220 2950 M -36 0 rL SGR
GSN 620 3139 M 36 0 rL SGR
GSN 4220 3139 M -36 0 rL SGR
GSN 620 3328 M 36 0 rL SGR
GSN 4220 3328 M -36 0 rL SGR
GSN 620 3516 M 36 0 rL SGR
GSN 4220 3516 M -36 0 rL SGR
GSN 620 3705 M 36 0 rL SGR
GSN 4220 3705 M -36 0 rL SGR
GSN 620 3894 M 36 0 rL SGR
GSN 4220 3894 M -36 0 rL SGR
GSN 620 4082 M 36 0 rL SGR
GSN 4220 4082 M -36 0 rL SGR
GSN 620 4271 M 36 0 rL SGR
GSN 4220 4271 M -36 0 rL SGR
GSN 620 4460 M 36 0 rL SGR
GSN 4220 4460 M -36 0 rL SGR
GSN 620 4648 M 36 0 rL SGR
GSN 4220 4648 M -36 0 rL SGR
GSN 620 4837 M 36 0 rL SGR
GSN 4220 4837 M -36 0 rL SGR
GSN 620 5026 M 36 0 rL SGR
GSN 4220 5026 M -36 0 rL SGR
GSN 620 5214 M 36 0 rL SGR
GSN 4220 5214 M -36 0 rL SGR

%
% X axis - residual panel
%
GSN L5 620 3516 M 4220 3516 L SDA G50 SGR

%
% X-Axis label:
%
gsave 620 1370 M 
[
[(Helvetica) 180 0 true true 0 (t)]
[(Helvetica) 180 0 true true 0 (i)]
[(Helvetica) 180 0 true true 0 (m)]
[(Helvetica) 180 0 true true 0 (e)]
] 0 MCshow grestore

%
% Y-Axis label:
%
gsave 234 3499 M 
currentpoint gsave translate 90 rotate 0 0 moveto
[
[(Helvetica) 180 0 true true 0 (r)]
[(Helvetica) 180 0 true true 0 (e)]
[(Helvetica) 180 0 true true 0 (s)]
[(Helvetica) 180 0 true true 0 (i)]
[(Helvetica) 180 0 true true 0 (d)]
[(Helvetica) 180 0 true true 0 (u)]
[(Helvetica) 180 0 true true 0 (a)]
[(Helvetica) 180 0 true true 0 (l)]
[(Helvetica) 180 0 true true 0 (s)]
] 0 MCshow grestore

end
showpage
%%Trailer
%%EOF
