%!PS-Adobe-3.0 EPSF-3.0
%%BoundingBox: 0 0 514 550
%%Creator: BioKin Ltd.
%%DocumentFonts: Symbol Helvetica
%%EndComments
%
/bkdict 256 dict def
bkdict begin
/M {moveto} def 
/R {rmoveto} def
/L {lineto} def
/rL {rlineto} def
/GSN {gsave newpath} def
/SGR {stroke grestore} def
/COSGR {gsave setrgbcolor stroke grestore grestore} def
/SL {setlinewidth} def
/LWMB {12} def             % line width - model curves, black & white
/LWMC {10} def             % line width - model curves, color
/L2 {2.5 setlinewidth} def
/L5 {5 setlinewidth} def
/L10 {10 setlinewidth} def
/G50 {0.5 setgray} def
/SDA {[10  20] 0 setdash} def % axes
/helvT {/Helvetica findfont 100 scalefont setfont} def % tiny
/helvS {/Helvetica findfont 125 scalefont setfont} def % small
/helvM {/Helvetica findfont 150 scalefont setfont} def % medium
/helvL {/Helvetica findfont 175 scalefont setfont} def % large
/xlabel {gsave M dup
   stringwidth exch -0.5 mul exch rmoveto show grestore} def 
/ylabel {gsave M 90 rotate dup
   stringwidth exch -0.5 mul exch rmoveto show grestore} def
/ylabelresid {gsave M dup
   stringwidth exch -1 mul exch rmoveto show grestore} def
% ======
% Shapes
% ======
% Circle:
/Circ {0 360 arc closepath} def
%
% Square:
/Squa {dup dup -0.5 mul dup dup R -2 mul 0 exch rL 1 mul 0 rL dup 0 exch -1 mul rL closepath} def
%
% Triangle Up:
/TriU {dup dup dup -0.4 mul exch -0.5 mul exch R dup 0.5 mul exch rL dup -1 mul exch 0.5 mul exch rL closepath} def 
%
% Triangle Down:
/TriD {dup dup dup 0.4 mul exch -0.5 mul exch R dup 0.5 mul exch -1 mul rL dup 0.5 mul exch rL closepath} def 
%
% Diamond:
/Diam {45 rotate Squa} def
% ======
% Fills
% ======
/GRF {gsave setgray fill grestore} def                    % gray-level Fill
/COF {gsave setrgbcolor fill grestore} def                % color fill
% ======
% Colors
% ======
/C01 {1.00	0.00	0.00} def      % Red
/C02 {0.00	0.00	1.00} def      % Blue
/C03 {0.00	0.39	0.00} def      % Dark Green
/C04 {0.78	0.08	0.52} def      % Medium Violet Red
/C05 {0.55	0.27	0.07} def      % Saddle Brown
/C06 {0.10	0.70	0.70} def      % (cyan)
/C07 {1.00	0.55	0.00} def      % Dark Orange
/C08 {0.63	0.13	0.94} def      % Purple
/C09 {0.00	0.75	1.00} def      % Deep Sky Blue
/C10 {0.20	0.80	0.20} def      % Lime Green
/C11 {0.47	0.53	0.60} def      % Light Slate Gray
/C12 {0.00	0.00	0.00} def      % Black            % or: {0.19	0.31	0.31} def      % Dark Slate Gray
%
/LGR {0.75} def % light gray
/DGR {0.33} def % dark gray
%
% =============
% Dash patterns
% =============
/dash01 { [80  20] 0 setdash } def
/dash02 { [40  20] 0 setdash } def
/dash03 { [80  20  10  20] 0 setdash } def
/dash04 { [40  20  10  20] 0 setdash } def
/dash05 { [80  20  10  10  10  20] 0 setdash } def
/dash06 { [40  20  10  10  10  20] 0 setdash } def
/dash07 { [10  10] 0 setdash } def
%
/MFshow {
   { dup 5 get 3 ge
     { 5 get 3 eq {gsave} {grestore} ifelse }
     {dup dup 0 get findfont exch 1 get scalefont setfont
     [ currentpoint ] exch dup 2 get 0 exch R dup 5 get 2 ne {dup dup 6
     get exch 4 get {show} {stringwidth pop 0 R} ifelse }if dup 5 get 0 eq
     {dup 3 get {2 get neg 0 exch R pop} {pop aload pop M} ifelse} {dup 5
     get 1 eq {dup 2 get exch dup 3 get exch 6 get stringwidth pop -2 div
     dup 0 R} {dup 6 get stringwidth pop -2 div 0 R 6 get
     show 2 index {aload pop M neg 3 -1 roll neg R pop pop} {pop pop pop
     pop aload pop M} ifelse }ifelse }ifelse }
     ifelse }
   forall} bind def
/MFwidth {0 exch {dup 3 get{dup dup 0 get findfont exch 1 get scalefont
     setfont 6 get stringwidth pop add} {pop} ifelse} forall} bind def
/MCshow { currentpoint stroke M
  exch dup MFwidth -2 div 3 -1 roll R MFshow } def
%
end
%%EndProlog
bkdict begin
0.1 0.1 scale
%
% Model curves:
%

GSN 753 5166 M
753 5166 L
786 4986 L
820 4807 L
853 4629 L
886 4453 L
920 4280 L
929 4229 L
953 4109 L
986 3943 L
1020 3782 L
1053 3628 L
1086 3483 L
1106 3402 L
1120 3348 L
1153 3226 L
1186 3118 L
1220 3026 L
1253 2950 L
1282 2895 L
1286 2889 L
1319 2844 L
1353 2812 L
1386 2790 L
1419 2777 L
1453 2769 L
1459 2768 L
1486 2765 L
1519 2763 L
1553 2763 L
1586 2762 L
1619 2762 L
1635 2762 L
1653 2762 L
1686 2762 L
1719 2762 L
1753 2762 L
1786 2762 L
1812 2762 L
1819 2762 L
1853 2762 L
1886 2762 L
1919 2762 L
1953 2762 L
1986 2762 L
1988 2762 L
2019 2762 L
2053 2762 L
2086 2762 L
2119 2762 L
2153 2762 L
2165 2762 L
2186 2762 L
2219 2762 L
2253 2762 L
2286 2762 L
2319 2762 L
2341 2762 L
2353 2762 L
2386 2762 L
2419 2762 L
2453 2762 L
2486 2762 L
2518 2762 L
2519 2762 L
2553 2762 L
2586 2762 L
2619 2762 L
2653 2762 L
2686 2762 L
2694 2762 L
2719 2762 L
2753 2762 L
2786 2762 L
2819 2762 L
2853 2762 L
2871 2762 L
2886 2762 L
2919 2762 L
2953 2762 L
2986 2762 L
3019 2762 L
3047 2762 L
3053 2762 L
3086 2762 L
3119 2762 L
3153 2762 L
3186 2762 L
3219 2762 L
3224 2762 L
3253 2762 L
3286 2762 L
3319 2762 L
3353 2762 L
3386 2762 L
3400 2762 L
3419 2762 L
3453 2762 L
3476 2762 L
3486 2762 L
3519 2762 L
3553 2762 L
3577 2762 L
3586 2762 L
3619 2762 L
3653 2762 L
3686 2762 L
3719 2762 L
3753 2762 L
3754 2762 L
3786 2762 L
3819 2762 L
3853 2762 L
3886 2762 L
3919 2762 L
3930 2762 L
3953 2762 L
3986 2762 L
4019 2762 L
4053 2762 L
4086 2762 L
4086 2762 L
LWMC SL  C03 COSGR

%
% Experimental data:
%
GSN 777 4854 M
1388 4844 L
1552 4878 L
1652 5011 L
1723 4799 L
1778 4655 L
1824 4671 L
1863 4624 L
1896 4599 L
1926 4645 L
1952 4728 L
1976 4791 L
1998 4980 L
2019 5073 L
2037 4750 L
2055 5074 L
2071 4920 L
2086 4763 L
2101 4735 L
2115 4758 L
2128 5012 L
2140 4789 L
2152 4713 L
2163 5075 L
2174 5004 L
2184 4801 L
2194 4621 L
2204 4529 L
2213 4768 L
2222 4797 L
2230 4740 L
2239 4834 L
2247 4672 L
2255 4660 L
2262 4847 L
2270 4617 L
2277 4688 L
2284 4608 L
2290 4823 L
2297 4729 L
2303 4591 L
2310 4429 L
2316 4533 L
2322 4471 L
2328 4516 L
2333 4562 L
2339 4621 L
2344 4595 L
2350 4700 L
2355 4452 L
2360 4466 L
2365 4549 L
2370 4606 L
2375 4510 L
2380 4339 L
2384 4597 L
2389 4522 L
2393 4750 L
2398 4527 L
2402 4365 L
2407 4359 L
2411 4543 L
2415 4476 L
2419 4435 L
2423 4600 L
2427 4483 L
2431 4724 L
2435 4467 L
2438 4358 L
2442 4514 L
2446 4462 L
2449 4342 L
2453 4372 L
2456 4466 L
2460 4405 L
2463 4319 L
2467 4213 L
2470 4268 L
2473 4385 L
2476 4444 L
2480 4267 L
2483 4305 L
2486 4522 L
2489 4309 L
2492 4436 L
2495 4288 L
2498 4369 L
2501 4209 L
2504 4438 L
2507 4350 L
2510 4182 L
2512 4344 L
2515 4430 L
2518 4309 L
2521 4356 L
2523 4255 L
2526 4293 L
2529 4151 L
2531 3969 L
2534 4173 L
2536 4159 L
2539 4222 L
2541 4190 L
2544 4084 L
2546 3974 L
2549 4139 L
2551 4197 L
2554 4161 L
2556 4084 L
2558 4149 L
2561 4197 L
2563 4002 L
2565 3986 L
2568 4351 L
2570 4277 L
2572 4224 L
2574 4109 L
2576 3919 L
2579 4483 L
2581 4055 L
2583 3935 L
2585 4124 L
2587 4228 L
2589 4105 L
2591 4010 L
2593 4069 L
2595 3982 L
2597 4105 L
2599 4014 L
2601 4022 L
2603 4255 L
2605 3837 L
2607 3940 L
2609 3987 L
2611 4064 L
2613 4024 L
2615 3816 L
2617 3885 L
2618 4001 L
2620 4039 L
2622 4041 L
2624 4090 L
2626 4040 L
2627 3798 L
2629 3861 L
2631 3983 L
2633 3994 L
2634 3916 L
2636 4066 L
2638 3883 L
2640 3926 L
2641 3865 L
2643 3990 L
2645 3827 L
2646 4002 L
2648 3908 L
2650 3553 L
2651 3907 L
2653 3804 L
2654 3924 L
2656 3770 L
2658 3924 L
2659 3768 L
2661 3623 L
2662 3758 L
2664 3978 L
2665 3952 L
2667 3733 L
2668 3835 L
2670 3911 L
2671 3895 L
2673 3706 L
2674 3840 L
2676 3845 L
2677 3721 L
2679 3844 L
2680 3800 L
2682 3774 L
2683 3773 L
2685 3716 L
2686 3699 L
2687 3818 L
2689 3700 L
2690 3741 L
2692 3433 L
2693 3893 L
2694 3795 L
2696 3633 L
2697 3596 L
2698 3814 L
2700 3856 L
2701 3703 L
2702 3845 L
2704 3659 L
2705 3631 L
2706 3666 L
2708 3566 L
2709 3781 L
2710 3650 L
2712 3756 L
2713 3682 L
2714 3721 L
2715 3777 L
2717 3583 L
2718 3594 L
2719 3677 L
2720 3812 L
2722 3649 L
2723 3536 L
2724 3769 L
2725 3698 L
2726 3556 L
2728 3640 L
2729 3509 L
2730 3602 L
2731 3507 L
2732 3708 L
2734 3551 L
2735 3663 L
2736 3442 L
2737 3446 L
2738 3614 L
2739 3516 L
2741 3469 L
2742 3367 L
2743 3706 L
2744 3427 L
2745 3592 L
2746 3480 L
2747 3789 L
2748 3535 L
2749 3551 L
2751 3569 L
2752 3461 L
2753 3761 L
2754 3417 L
2755 3506 L
2756 3540 L
2757 3424 L
2758 3551 L
2759 3451 L
2760 3506 L
2761 3681 L
2762 3564 L
2763 3527 L
2764 3572 L
2765 3343 L
2767 3705 L
2768 3746 L
2769 3563 L
2770 3254 L
2771 3555 L
2772 3445 L
2773 3432 L
2774 3594 L
2775 3301 L
2776 3501 L
2777 3382 L
2778 3599 L
2779 3425 L
2780 3432 L
2781 3513 L
2782 3269 L
2783 3506 L
2783 3528 L
2784 3478 L
2785 3366 L
2786 3468 L
2787 3265 L
2788 3361 L
2789 3299 L
2790 3398 L
2791 3205 L
2792 3551 L
2793 3411 L
2794 3455 L
2795 3390 L
2796 3380 L
2797 3246 L
2798 3565 L
2798 3436 L
2799 3594 L
2800 3418 L
2801 3583 L
2802 3439 L
2803 3362 L
2804 3258 L
2805 3428 L
2806 3267 L
2807 3382 L
2807 3193 L
2808 3431 L
2809 3453 L
2810 3303 L
2811 3293 L
2812 3415 L
2813 3236 L
2813 3202 L
2814 3079 L
2815 3345 L
2816 3520 L
2817 3234 L
2818 3378 L
2819 3419 L
2819 3308 L
2820 3382 L
2821 3072 L
2822 3274 L
2823 3502 L
2824 3226 L
2824 3139 L
2825 3258 L
2826 3274 L
2827 3649 L
2828 3232 L
2828 3026 L
2829 3216 L
2830 3162 L
2831 3242 L
2832 3112 L
2832 3247 L
2833 3136 L
2834 3224 L
2835 3349 L
2836 3152 L
2836 3148 L
2837 3072 L
2838 3259 L
2839 3115 L
2840 3082 L
2840 3133 L
2841 3107 L
2842 3193 L
2843 3357 L
2843 3121 L
2844 3173 L
2845 3141 L
2846 2969 L
2846 3169 L
2847 3014 L
2848 3215 L
2849 3445 L
2849 3019 L
2850 3069 L
2851 3295 L
2852 2983 L
2852 3167 L
2853 3189 L
2854 3220 L
2855 3259 L
2855 3359 L
2856 3115 L
2857 3198 L
2857 3140 L
2858 3081 L
2859 3113 L
2860 3164 L
2860 2996 L
2861 3045 L
2862 2999 L
2862 3065 L
2863 2975 L
2864 3272 L
2865 2984 L
2865 3370 L
2866 3041 L
2867 2911 L
2867 3048 L
2868 3145 L
2869 3245 L
2869 3166 L
2870 3095 L
2871 3280 L
2871 3120 L
2872 3033 L
2873 2902 L
2873 3069 L
2874 3253 L
2875 2975 L
2876 3108 L
2876 3279 L
2877 3031 L
2878 3007 L
2878 2992 L
2879 3176 L
2880 3141 L
2880 2969 L
2881 3095 L
2881 2977 L
2882 3037 L
2883 3217 L
2883 3050 L
2884 3177 L
2885 3236 L
2885 2913 L
2886 2964 L
2887 3241 L
2887 3180 L
2888 2971 L
2889 3064 L
2889 3050 L
2892 3268 L
2894 3131 L
2897 3048 L
2899 3183 L
2902 2942 L
2904 3171 L
2907 3156 L
2909 2784 L
2911 2884 L
2914 2906 L
2916 2960 L
2918 2843 L
2921 3098 L
2923 2822 L
2925 2809 L
2927 2855 L
2929 2842 L
2932 2847 L
2934 2894 L
2936 2742 L
2938 2886 L
2940 2868 L
2942 2838 L
2944 2864 L
2946 2722 L
2948 2890 L
2950 2820 L
2952 2684 L
2954 2723 L
2956 2727 L
2958 2792 L
2960 2523 L
2962 2771 L
2964 2844 L
2966 2847 L
2968 2750 L
2970 2821 L
2971 2749 L
2973 2698 L
2975 2574 L
2977 2542 L
2979 2689 L
2980 2568 L
2982 2775 L
2984 2587 L
2986 2680 L
2987 2657 L
2989 2805 L
2991 2661 L
2993 2776 L
2994 2586 L
2996 2726 L
2998 2671 L
2999 2576 L
3001 2589 L
3003 2383 L
3004 2728 L
3006 2481 L
3007 2562 L
3009 2605 L
3011 2555 L
3012 2499 L
3014 2388 L
3015 2628 L
3017 2537 L
3018 2429 L
3020 2462 L
3021 2375 L
3023 2585 L
3024 2509 L
3026 2510 L
3027 2450 L
3029 2291 L
3030 2536 L
3032 2543 L
3033 2536 L
3035 2435 L
3036 2467 L
3038 2652 L
3039 2234 L
3040 2604 L
3042 2349 L
3043 2494 L
3045 2503 L
3046 2487 L
3047 2338 L
3049 2632 L
3050 2458 L
3051 2559 L
3053 2406 L
3054 2240 L
3055 2362 L
3057 2372 L
3058 2450 L
3059 2351 L
3061 2361 L
3062 2300 L
3063 2156 L
3065 2271 L
3066 2399 L
3067 2352 L
3068 2232 L
3070 2404 L
3071 2375 L
3072 2345 L
3073 2512 L
3075 2186 L
3076 2275 L
3077 2447 L
3078 2119 L
3079 2365 L
3081 2431 L
3082 2387 L
3083 2384 L
3084 2215 L
3085 2385 L
3087 2264 L
3088 2399 L
3089 1950 L
3090 2460 L
3091 2248 L
3092 2174 L
3094 2288 L
3095 2176 L
3096 2189 L
3097 2287 L
3098 2308 L
3099 2309 L
3100 2234 L
3101 2306 L
3103 2254 L
3104 2179 L
3105 2355 L
3106 2156 L
3107 2440 L
3108 2185 L
3109 2101 L
3110 2329 L
3111 2224 L
3112 2207 L
3113 2329 L
3114 2407 L
3115 2207 L
3116 2241 L
3117 2232 L
3119 2161 L
3120 2213 L
3121 2016 L
3122 2210 L
3123 2071 L
3124 1996 L
3125 2096 L
3126 2161 L
3127 2096 L
3128 2012 L
3129 2237 L
3130 2171 L
3131 1963 L
3132 2207 L
3133 2107 L
3134 2430 L
3135 2094 L
3136 2091 L
3136 2016 L
3137 2059 L
3138 2137 L
3139 2315 L
3140 2291 L
3141 2211 L
3142 2097 L
3143 2182 L
3144 2125 L
3145 2228 L
3146 2068 L
3147 2069 L
3148 2335 L
3149 2036 L
3150 2097 L
3151 2113 L
3151 2130 L
3152 2246 L
3153 2161 L
3154 1993 L
3155 2073 L
3156 2071 L
3157 2157 L
3158 2196 L
3159 2055 L
3160 2053 L
3160 2063 L
3161 1980 L
3162 2039 L
3163 2095 L
3164 2144 L
3165 2176 L
3166 1996 L
3166 2093 L
3167 2063 L
3168 1997 L
3169 1968 L
3170 1980 L
3171 2053 L
3172 2139 L
3172 2198 L
3173 2051 L
3174 2239 L
3175 2098 L
3176 2279 L
3177 2011 L
3177 2075 L
3178 2136 L
3179 2304 L
3180 2144 L
3181 1869 L
3181 2051 L
3182 2151 L
3183 1997 L
3184 2109 L
3185 2105 L
3185 1943 L
3186 2085 L
3187 2063 L
3188 2086 L
3189 2203 L
3189 2011 L
3190 2037 L
3191 2218 L
3192 2140 L
3193 2027 L
3193 2212 L
3194 2059 L
3195 2016 L
3196 2055 L
3196 1973 L
3197 2055 L
3198 2027 L
3199 1841 L
3199 2150 L
3200 2065 L
3201 2096 L
3202 2011 L
3202 2217 L
3203 2030 L
3204 1891 L
3205 1941 L
3205 1900 L
3206 1989 L
3207 2230 L
3208 2005 L
3208 2121 L
3209 2165 L
3210 2163 L
3210 1845 L
3211 1954 L
3212 2101 L
3213 2211 L
3213 2077 L
3214 2082 L
3215 2144 L
3215 1982 L
3216 2033 L
3217 2206 L
3218 2132 L
3218 2029 L
3219 1901 L
3220 2211 L
3220 2071 L
3221 2401 L
3222 2128 L
3222 2361 L
3223 2137 L
3224 2315 L
3224 1859 L
3225 2030 L
3226 2098 L
3227 1986 L
3227 2233 L
3228 1914 L
3229 2185 L
3229 1966 L
3230 2122 L
3231 2096 L
3231 1899 L
3232 2172 L
3233 1887 L
3233 2167 L
3234 2002 L
3235 2236 L
3235 2051 L
3236 2083 L
3236 2101 L
3237 2058 L
3238 1955 L
3238 2064 L
3239 2178 L
3240 2084 L
3240 2060 L
3241 2132 L
3242 2010 L
3242 1972 L
3243 1883 L
3244 2119 L
3244 1978 L
3245 2192 L
3245 2022 L
3246 2076 L
3247 2065 L
3247 1833 L
3248 2011 L
3249 2281 L
3249 2119 L
3250 1940 L
3250 2024 L
3251 2127 L
3252 2088 L
3252 2113 L
3253 2010 L
3253 1996 L
3254 2099 L
3255 2126 L
3255 2134 L
3256 1892 L
3257 2250 L
3257 1979 L
3258 2179 L
3258 2051 L
3259 2340 L
3259 1941 L
3260 2165 L
3261 2058 L
3261 2019 L
3262 2042 L
3262 2156 L
3263 2221 L
3264 2199 L
3264 2121 L
3265 2088 L
3265 2229 L
3266 1939 L
3267 1972 L
3267 2129 L
3268 1974 L
3268 2138 L
3269 2221 L
3269 2046 L
3270 2163 L
3271 2001 L
3271 2109 L
3272 1994 L
3272 2196 L
3273 2036 L
3273 2179 L
3274 2126 L
3275 2191 L
3275 2134 L
3276 2061 L
3276 1982 L
3277 2226 L
3277 2213 L
3278 2168 L
3278 2004 L
3279 2072 L
3280 2211 L
3280 2227 L
3281 2043 L
3281 2138 L
3282 2129 L
3282 2128 L
3283 2106 L
3283 2206 L
3284 2043 L
3284 2136 L
3285 2130 L
3285 2065 L
3286 2333 L
3287 2032 L
3287 2173 L
3288 2188 L
3288 2215 L
3289 2085 L
3289 2100 L
3290 2144 L
3290 2304 L
3291 1987 L
3291 2272 L
3292 2042 L
3292 2163 L
3293 2255 L
3293 2004 L
3294 2041 L
3294 2191 L
3295 2132 L
3295 2175 L
3296 2125 L
3297 2082 L
3297 2182 L
3298 2067 L
3298 2243 L
3299 2169 L
3299 2217 L
3300 1990 L
3300 2071 L
3301 2100 L
3301 2119 L
3302 2008 L
3302 2081 L
3303 1917 L
3303 2298 L
3304 2049 L
3304 2257 L
3305 2265 L
3305 2072 L
3306 2009 L
3306 2245 L
3307 2301 L
3307 2161 L
3308 2042 L
3308 2064 L
3309 2113 L
3309 2178 L
3310 2072 L
3310 2316 L
3311 2097 L
3311 2168 L
3312 2182 L
3312 2292 L
3312 1930 L
3313 2355 L
3313 2061 L
3314 2105 L
3314 2263 L
3315 2024 L
3315 2114 L
3316 2148 L
3316 2271 L
3317 2205 L
3317 2396 L
3318 2024 L
3318 2117 L
3319 2202 L
3319 2022 L
3320 2172 L
3320 2144 L
3321 2125 L
3321 1953 L
3321 2130 L
3322 2155 L
3322 2138 L
3323 2143 L
3323 2113 L
3324 2404 L
3324 2150 L
3325 2257 L
3325 2300 L
3326 2332 L
3326 2284 L
3327 2098 L
3327 2244 L
3327 2417 L
3328 2221 L
3328 2090 L
3329 2263 L
3329 2025 L
3330 2246 L
3330 2067 L
3331 2229 L
3331 2228 L
3332 2404 L
3332 2157 L
3332 2076 L
3333 2227 L
3333 2537 L
3334 2058 L
3334 1970 L
3335 2250 L
3335 2161 L
3336 2185 L
3336 2169 L
3336 2095 L
3337 2287 L
3337 1993 L
3338 2344 L
3338 2078 L
3339 2372 L
3339 2043 L
3339 2347 L
3340 2203 L
3340 2082 L
3341 2247 L
3341 2252 L
3342 2312 L
3342 2156 L
3343 2235 L
3343 2213 L
3343 2092 L
3344 2248 L
3344 2104 L
3345 2066 L
3345 2213 L
3346 2176 L
3346 2070 L
3346 2257 L
3347 2323 L
3347 2207 L
3348 2185 L
3348 2286 L
3348 2277 L
3349 2068 L
3349 2265 L
3350 2005 L
3350 2156 L
3351 2123 L
3351 2277 L
3351 2299 L
3352 2375 L
3352 2125 L
3353 2110 L
3353 2202 L
3353 2190 L
3354 2188 L
3354 2121 L
3355 2138 L
3355 2217 L
3355 2321 L
3356 2203 L
3356 2251 L
3357 2177 L
3357 2247 L
3358 2170 L
3358 2508 L
3358 2190 L
3359 2298 L
3359 2341 L
3360 2167 L
3360 2332 L
3360 2181 L
3361 2513 L
3361 2207 L
3362 2256 L
3362 2377 L
3362 2191 L
3363 1970 L
3363 2292 L
3364 2188 L
3364 2382 L
3364 2310 L
3365 1991 L
3365 2317 L
3365 2391 L
3366 2373 L
3366 2354 L
3367 2213 L
3367 2227 L
3367 2233 L
3368 2210 L
3368 2421 L
3369 2159 L
3369 2342 L
3369 2316 L
3370 2246 L
3370 2313 L
3371 2258 L
3371 2337 L
3371 2302 L
3372 2272 L
3372 2197 L
3372 2183 L
3373 1970 L
3373 2198 L
3374 1961 L
3374 2293 L
3374 2016 L
3375 2337 L
3375 2354 L
3375 2165 L
3376 2329 L
3376 2173 L
3377 2277 L
3377 2638 L
3377 2353 L
3378 2233 L
3378 2029 L
3378 2284 L
3379 2184 L
3379 2366 L
3380 2204 L
3380 2210 L
3380 2292 L
3381 2477 L
3381 2167 L
3381 2310 L
3382 2283 L
3382 2135 L
3383 2265 L
3383 2182 L
3383 2410 L
3384 2173 L
3384 2609 L
3384 2216 L
3385 2373 L
3385 2366 L
3385 2315 L
3386 2211 L
3386 2460 L
3387 2265 L
3387 2309 L
3387 2466 L
3388 2123 L
3388 2243 L
3388 2321 L
3389 2236 L
3389 2382 L
3389 2228 L
3390 2206 L
3390 2440 L
3391 2239 L
3391 2342 L
3391 2208 L
3392 2319 L
3392 2235 L
3392 2431 L
3393 2208 L
3393 2449 L
3393 2369 L
3394 2339 L
3394 2119 L
3394 2189 L
3395 2244 L
3395 2160 L
3395 2261 L
3396 2400 L
3396 2218 L
3396 2261 L
3397 2211 L
3397 2304 L
3398 2314 L
3398 2218 L
3398 2290 L
3399 2238 L
3399 2263 L
3399 2220 L
3400 2254 L
3400 2250 L
3400 2223 L
3401 2418 L
3401 2176 L
3401 2345 L
3402 2477 L
3402 2362 L
3402 2463 L
3403 2368 L
3403 2314 L
3403 2443 L
3404 2376 L
3404 2451 L
3404 2505 L
3405 2466 L
3405 2216 L
3405 2331 L
3406 2284 L
3406 2231 L
3406 2302 L
3407 2321 L
3407 2314 L
3407 2346 L
3408 2360 L
3408 2342 L
3408 2414 L
3409 2444 L
3409 2226 L
3409 2404 L
3410 2197 L
3410 2284 L
3410 2460 L
3411 2463 L
3411 2252 L
3411 2356 L
3412 2522 L
3412 2472 L
3412 2259 L
3413 2414 L
3413 2260 L
3413 2265 L
3414 2423 L
3414 2359 L
3414 2343 L
3415 2307 L
3415 2097 L
3415 2401 L
3416 2506 L
3416 2238 L
3416 2433 L
3417 2193 L
3417 2379 L
3417 2363 L
3417 2303 L
3418 2394 L
3418 2448 L
3418 2398 L
3419 2416 L
3419 2304 L
3419 2175 L
3420 2371 L
3420 2686 L
3420 2448 L
3421 2383 L
3421 2304 L
3421 2375 L
3422 2273 L
3422 2343 L
3422 2357 L
3423 2530 L
3423 2275 L
3423 2455 L
3423 2289 L
3424 2480 L
3424 2478 L
3424 2445 L
3425 2508 L
3425 2354 L
3425 2348 L
3426 2316 L
3426 2260 L
3426 2443 L
3427 2514 L
3427 2262 L
3427 2414 L
3428 2311 L
3428 2860 L
3428 2476 L
3428 2285 L
3429 2249 L
3429 2360 L
3429 2620 L
3430 2415 L
3430 2375 L
3430 2335 L
3431 2445 L
3431 2275 L
3431 2518 L
3431 2479 L
3432 2375 L
3432 2356 L
3432 2327 L
3433 2402 L
3433 2476 L
3433 2317 L
3434 2387 L
3434 2520 L
3434 2263 L
3434 2589 L
3435 2489 L
3435 2561 L
3435 2529 L
3436 2409 L
3436 2385 L
3436 2436 L
3437 2374 L
3437 2423 L
3437 2313 L
3437 2360 L
3438 2505 L
3438 2497 L
3438 2508 L
3439 2456 L
3439 2466 L
3439 2594 L
3440 2608 L
3440 2325 L
3440 2386 L
3440 2487 L
3441 2490 L
3441 2306 L
3441 2339 L
3442 2454 L
3442 2614 L
3442 2570 L
3442 2736 L
3443 2559 L
3443 2479 L
3443 2435 L
3444 2439 L
3444 2431 L
3444 2367 L
3444 2563 L
3445 2165 L
3445 2701 L
3445 2376 L
3446 2314 L
3446 2408 L
3446 2602 L
3446 2303 L
3447 2445 L
3447 2352 L
3447 2446 L
3448 2506 L
3448 2541 L
3448 2500 L
3448 2387 L
3449 2527 L
3449 2601 L
3449 2591 L
3450 2232 L
3450 2326 L
3450 2371 L
3450 2483 L
3451 2256 L
3451 2354 L
3451 2394 L
3452 2524 L
3452 2455 L
3452 2411 L
3452 2466 L
3453 2261 L
3453 2444 L
3453 2369 L
3454 2553 L
3454 2483 L
3454 2504 L
3454 2456 L
3455 2591 L
3455 2402 L
3455 2487 L
3455 2430 L
3456 2310 L
3456 2494 L
3456 2568 L
3457 2323 L
3457 2415 L
3457 2237 L
3457 2493 L
3458 2323 L
3458 2496 L
3458 2450 L
3458 2632 L
3459 2437 L
3459 2609 L
3459 2427 L
3460 2584 L
3460 2588 L
3460 2370 L
3460 2382 L
3461 2408 L
3461 2524 L
3461 2563 L
3461 2331 L
3462 2469 L
3462 2499 L
3462 2453 L
3463 2526 L
3463 2342 L
3463 2379 L
3463 2511 L
3464 2465 L
3464 2370 L
3464 2430 L
3464 2512 L
3465 2652 L
3465 2330 L
3465 2601 L
3465 2420 L
3466 2429 L
3466 2566 L
3466 2531 L
3466 2364 L
3467 2464 L
3467 2462 L
3467 2562 L
3468 2576 L
3468 2534 L
3468 2499 L
3468 2590 L
3469 2612 L
3469 2612 L
3469 2574 L
3469 2450 L
3470 2529 L
3470 2416 L
3470 2591 L
3470 2620 L
3471 2547 L
3471 2718 L
3471 2516 L
3471 2670 L
3472 2670 L
3472 2529 L
3472 2443 L
3472 2611 L
3473 2556 L
3473 2554 L
3473 2355 L
3474 2701 L
3474 2479 L
3474 2561 L
3474 2504 L
3475 2333 L
3475 2534 L
3475 2464 L
3475 2522 L
3476 2512 L
3476 2604 L
3476 2410 L
3476 2450 L
3477 2451 L
3477 2408 L
3477 2551 L
3477 2524 L
3478 2497 L
3478 2580 L
3478 2558 L
3478 2440 L
3479 2489 L
3479 2512 L
3479 2563 L
3479 2549 L
3480 2530 L
3480 2588 L
3480 2479 L
3480 2539 L
3481 2614 L
3481 2496 L
3481 2658 L
3481 2682 L
3482 2604 L
3482 2566 L
3482 2502 L
3482 2625 L
3483 2645 L
3483 2636 L
3483 2666 L
3483 2472 L
3484 2580 L
3484 2513 L
3484 2431 L
3484 2402 L
3485 2562 L
3485 2474 L
3485 2520 L
3485 2328 L
3486 2638 L
3486 2403 L
3486 2381 L
3486 2529 L
3487 2585 L
3487 2411 L
3487 2487 L
3487 2481 L
3488 2610 L
3488 2615 L
3488 2678 L
3488 2430 L
3488 2707 L
3489 2526 L
3489 2437 L
3489 2373 L
3489 2699 L
3490 2579 L
3490 2655 L
3490 2416 L
3490 2434 L
3491 2791 L
3491 2709 L
3491 2364 L
3491 2508 L
3492 2369 L
3492 2517 L
3492 2608 L
3492 2471 L
3493 2611 L
3493 2644 L
3493 2574 L
3493 2516 L
3494 2502 L
3494 2519 L
3494 2423 L
3494 2569 L
3494 2371 L
3495 2537 L
3495 2582 L
3495 2616 L
3495 2477 L
3496 2435 L
3496 2461 L
3496 2815 L
3496 2353 L
3497 2631 L
3497 2562 L
3497 2564 L
3497 2624 L
3498 2581 L
3498 2691 L
3498 2549 L
3498 2458 L
3498 2617 L
3499 2702 L
3499 2723 L
3499 2606 L
3499 2767 L
3500 2509 L
3500 2566 L
3506 2710 L
3511 2487 L
3517 2646 L
3522 2698 L
3527 2780 L
3532 2635 L
3537 2702 L
3542 2710 L
3547 2629 L
3552 2780 L
3557 2708 L
3561 2611 L
3566 2692 L
3570 2887 L
3575 2850 L
3579 2769 L
3583 2960 L
3587 2953 L
3591 3002 L
3595 2703 L
3599 2804 L
3603 2776 L
3607 2749 L
3611 2805 L
3614 2673 L
3618 2885 L
3622 2774 L
3625 2660 L
3629 2675 L
3632 2916 L
3636 3018 L
3639 2858 L
3642 2753 L
3646 2798 L
3649 2880 L
3652 2951 L
3655 2886 L
3658 3139 L
3661 2740 L
3664 2558 L
3667 2807 L
3670 2739 L
3673 2861 L
3676 2872 L
3679 2772 L
3682 2831 L
3685 2988 L
3688 2681 L
3690 2913 L
3693 2810 L
3696 2781 L
3698 2958 L
3701 2680 L
3704 2683 L
3706 2780 L
3709 2810 L
3711 2891 L
3714 2898 L
3716 2872 L
3719 2892 L
3721 2694 L
3724 2998 L
3726 2522 L
3728 2940 L
3731 3004 L
3733 2887 L
3735 2788 L
3738 2891 L
3740 2922 L
3742 2864 L
3744 2980 L
3747 2859 L
3749 3135 L
3751 2848 L
3753 2882 L
3755 3060 L
3757 2936 L
3760 2928 L
3762 3185 L
3764 2889 L
3766 2935 L
3768 2729 L
3770 2864 L
3772 2882 L
3774 2919 L
3776 2895 L
3778 2999 L
3780 2856 L
3781 2847 L
3783 2910 L
3785 2763 L
3787 2954 L
3789 2830 L
3791 2909 L
3793 2952 L
3795 2876 L
3796 2789 L
3798 2690 L
3800 3023 L
3802 2894 L
3803 2836 L
3805 2883 L
3807 2995 L
3809 2980 L
3810 2701 L
3812 2760 L
3814 3027 L
3816 2958 L
3817 2691 L
3819 2725 L
3820 2659 L
3822 2932 L
3824 2948 L
3825 2823 L
3827 2763 L
3829 3046 L
3830 2867 L
3832 2976 L
3833 2875 L
3835 2789 L
3836 2901 L
3838 2797 L
3839 2946 L
3841 3122 L
3842 3018 L
3844 2778 L
3845 2938 L
3847 3079 L
3848 2839 L
3850 2840 L
3851 3078 L
3853 2701 L
3854 2925 L
3856 2730 L
3857 2970 L
3859 2920 L
3860 3011 L
3861 2913 L
3863 2877 L
3864 2892 L
3866 2851 L
3867 2829 L
3868 2901 L
3870 2812 L
3871 3049 L
3872 3038 L
3874 2948 L
3875 2727 L
3876 3270 L
3878 2998 L
3879 2815 L
3880 3023 L
3882 2728 L
3883 2804 L
3884 2885 L
3885 3067 L
3887 2911 L
3888 2917 L
3889 2906 L
3890 3036 L
3892 3064 L
3893 3078 L
3894 2863 L
3895 2846 L
3897 2836 L
3898 2953 L
3899 2925 L
3900 2830 L
3901 3005 L
3903 3051 L
3904 2893 L
3905 2910 L
3906 2678 L
3907 2762 L
3908 2832 L
3910 2594 L
3911 2931 L
3912 2808 L
3913 2955 L
3914 3057 L
3915 2650 L
3917 2752 L
3918 2551 L
3919 2949 L
3920 2859 L
3921 2996 L
3922 2828 L
3923 2949 L
3924 3086 L
3925 2986 L
3926 2948 L
3928 2990 L
3929 2914 L
3930 2879 L
3931 2994 L
3932 2876 L
3933 2762 L
3934 2707 L
3935 3008 L
3936 2827 L
3937 2994 L
3938 2870 L
3939 3052 L
3940 2768 L
3941 2856 L
3942 2992 L
3943 2973 L
3944 2888 L
3945 3187 L
3946 2879 L
3947 2674 L
3948 2771 L
3949 2769 L
3950 3104 L
3951 2862 L
3952 2823 L
3953 2832 L
3954 2803 L
3955 2831 L
3956 2956 L
3957 3040 L
3958 2871 L
3959 2916 L
3960 2747 L
3961 2775 L
3962 2784 L
3963 3054 L
3964 2822 L
3965 2927 L
3966 3037 L
3966 2720 L
3967 2814 L
3968 2850 L
3969 2771 L
3970 2818 L
3971 2803 L
3972 2817 L
3973 2860 L
3974 2915 L
3975 2678 L
3976 2774 L
3976 2790 L
3977 2593 L
3978 2877 L
3979 2913 L
3980 2927 L
3981 2964 L
3982 2966 L
3983 2827 L
3983 2599 L
3984 2598 L
3985 2975 L
3986 2726 L
3987 2955 L
3988 2835 L
3989 2799 L
3989 2903 L
3990 2679 L
3991 2757 L
3992 2779 L
3993 2820 L
3994 2836 L
3995 2847 L
3995 2704 L
3996 2826 L
3997 2728 L
3998 2813 L
3999 2937 L
3999 2899 L
4000 2659 L
4001 2650 L
4002 2744 L
4003 2889 L
4003 2876 L
4004 3078 L
4005 2968 L
4006 2765 L
4007 2970 L
4007 2845 L
4008 2609 L
4009 2823 L
4010 2877 L
4011 2903 L
4011 2597 L
4012 2790 L
4013 2683 L
4014 3004 L
4014 2724 L
4015 2872 L
4016 2839 L
4017 2846 L
4017 2933 L
4018 2975 L
4019 3051 L
4020 2913 L
4021 3041 L
4021 2810 L
4022 2943 L
4023 2838 L
4023 2736 L
4024 2890 L
4025 3083 L
4026 2754 L
4026 2860 L
4027 2815 L
4028 2836 L
4029 2969 L
4029 2891 L
4030 2949 L
4031 2869 L
4032 2751 L
4032 2971 L
4033 2894 L
4034 2831 L
4034 2873 L
4035 3071 L
4036 2798 L
4036 2721 L
4037 3036 L
4038 2897 L
4039 2847 L
4039 2948 L
4040 2802 L
4041 2921 L
4041 2876 L
4042 2696 L
4043 2697 L
4043 2771 L
4044 2918 L
4045 2836 L
4045 2706 L
4046 2726 L
4047 2880 L
4047 2839 L
4048 2788 L
4049 2887 L
4050 3067 L
4050 2847 L
4051 3046 L
4052 2583 L
4052 2938 L
4053 2662 L
4053 3029 L
4054 3063 L
4055 2544 L
4055 2835 L
4056 2950 L
4057 2736 L
4057 2973 L
4058 2888 L
4059 2816 L
4059 2609 L
4060 2855 L
4061 2456 L
4061 2869 L
4062 2587 L
L2 C03 COSGR

%
%================
% Legend - Begin
%================
%
GSN 4240 5180 M
4480 5180 L
LWMC SL  C03 COSGR
GSN 4540 5141 M helvM (1.5 uM) show grestore
%
%================
% Legend - End
%================
%

%
% Residuals:
%
GSN 777 939 M
1388 1503 L
1552 1519 L
1652 1552 L
1723 1499 L
1778 1463 L
1824 1467 L
1863 1455 L
1896 1448 L
1926 1460 L
1952 1481 L
1976 1497 L
1998 1545 L
2019 1568 L
2037 1486 L
2055 1568 L
2071 1529 L
2086 1490 L
2101 1483 L
2115 1488 L
2128 1553 L
2140 1496 L
2152 1477 L
2163 1569 L
2174 1551 L
2184 1499 L
2194 1454 L
2204 1431 L
2213 1491 L
2222 1498 L
2230 1484 L
2239 1508 L
2247 1467 L
2255 1464 L
2262 1511 L
2270 1453 L
2277 1471 L
2284 1451 L
2290 1505 L
2297 1481 L
2303 1446 L
2310 1405 L
2316 1432 L
2322 1416 L
2328 1427 L
2333 1439 L
2339 1454 L
2344 1447 L
2350 1474 L
2355 1411 L
2360 1415 L
2365 1436 L
2370 1450 L
2375 1426 L
2380 1383 L
2384 1448 L
2389 1429 L
2393 1486 L
2398 1430 L
2402 1389 L
2407 1388 L
2411 1434 L
2415 1417 L
2419 1407 L
2423 1449 L
2427 1419 L
2431 1480 L
2435 1415 L
2438 1387 L
2442 1427 L
2446 1414 L
2449 1383 L
2453 1391 L
2456 1415 L
2460 1399 L
2463 1378 L
2467 1351 L
2470 1365 L
2473 1394 L
2476 1409 L
2480 1365 L
2483 1374 L
2486 1429 L
2489 1375 L
2492 1407 L
2495 1370 L
2498 1390 L
2501 1350 L
2504 1408 L
2507 1385 L
2510 1343 L
2512 1384 L
2515 1406 L
2518 1375 L
2521 1387 L
2523 1362 L
2526 1371 L
2529 1335 L
2531 1289 L
2534 1341 L
2536 1337 L
2539 1353 L
2541 1345 L
2544 1318 L
2546 1291 L
2549 1332 L
2551 1347 L
2554 1338 L
2556 1318 L
2558 1335 L
2561 1347 L
2563 1298 L
2565 1294 L
2568 1386 L
2570 1367 L
2572 1354 L
2574 1325 L
2576 1277 L
2579 1419 L
2581 1311 L
2583 1281 L
2585 1329 L
2587 1355 L
2589 1324 L
2591 1300 L
2593 1315 L
2595 1293 L
2597 1324 L
2599 1301 L
2601 1303 L
2603 1362 L
2605 1256 L
2607 1282 L
2609 1294 L
2611 1313 L
2613 1303 L
2615 1251 L
2617 1268 L
2618 1297 L
2620 1307 L
2622 1308 L
2624 1320 L
2626 1307 L
2627 1246 L
2629 1262 L
2631 1293 L
2633 1296 L
2634 1276 L
2636 1314 L
2638 1268 L
2640 1278 L
2641 1263 L
2643 1295 L
2645 1254 L
2646 1298 L
2648 1274 L
2650 1184 L
2651 1274 L
2653 1248 L
2654 1278 L
2656 1239 L
2658 1278 L
2659 1239 L
2661 1202 L
2662 1236 L
2664 1292 L
2665 1285 L
2667 1230 L
2668 1256 L
2670 1275 L
2671 1271 L
2673 1223 L
2674 1257 L
2676 1258 L
2677 1227 L
2679 1258 L
2680 1247 L
2682 1240 L
2683 1240 L
2685 1226 L
2686 1221 L
2687 1251 L
2689 1222 L
2690 1232 L
2692 1154 L
2693 1270 L
2694 1246 L
2696 1205 L
2697 1195 L
2698 1250 L
2700 1261 L
2701 1222 L
2702 1258 L
2704 1211 L
2705 1204 L
2706 1213 L
2708 1188 L
2709 1242 L
2710 1209 L
2712 1236 L
2713 1217 L
2714 1227 L
2715 1241 L
2717 1192 L
2718 1195 L
2719 1216 L
2720 1250 L
2722 1209 L
2723 1180 L
2724 1239 L
2725 1221 L
2726 1185 L
2728 1206 L
2729 1173 L
2730 1197 L
2731 1173 L
2732 1224 L
2734 1184 L
2735 1212 L
2736 1156 L
2737 1157 L
2738 1200 L
2739 1175 L
2741 1163 L
2742 1137 L
2743 1223 L
2744 1153 L
2745 1194 L
2746 1166 L
2747 1244 L
2748 1180 L
2749 1184 L
2751 1189 L
2752 1161 L
2753 1237 L
2754 1150 L
2755 1173 L
2756 1181 L
2757 1152 L
2758 1184 L
2759 1159 L
2760 1173 L
2761 1217 L
2762 1187 L
2763 1178 L
2764 1189 L
2765 1132 L
2767 1223 L
2768 1233 L
2769 1187 L
2770 1109 L
2771 1185 L
2772 1157 L
2773 1154 L
2774 1195 L
2775 1121 L
2776 1171 L
2777 1141 L
2778 1196 L
2779 1152 L
2780 1154 L
2781 1174 L
2782 1113 L
2783 1173 L
2783 1178 L
2784 1166 L
2785 1137 L
2786 1163 L
2787 1112 L
2788 1136 L
2789 1120 L
2790 1145 L
2791 1097 L
2792 1184 L
2793 1149 L
2794 1160 L
2795 1143 L
2796 1141 L
2797 1107 L
2798 1188 L
2798 1155 L
2799 1195 L
2800 1151 L
2801 1192 L
2802 1156 L
2803 1136 L
2804 1110 L
2805 1153 L
2806 1112 L
2807 1141 L
2807 1094 L
2808 1154 L
2809 1159 L
2810 1121 L
2811 1119 L
2812 1150 L
2813 1104 L
2813 1096 L
2814 1065 L
2815 1132 L
2816 1176 L
2817 1104 L
2818 1140 L
2819 1151 L
2819 1123 L
2820 1141 L
2821 1063 L
2822 1114 L
2823 1172 L
2824 1102 L
2824 1080 L
2825 1110 L
2826 1114 L
2827 1209 L
2828 1103 L
2828 1051 L
2829 1099 L
2830 1086 L
2831 1106 L
2832 1073 L
2832 1107 L
2833 1079 L
2834 1101 L
2835 1133 L
2836 1083 L
2836 1082 L
2837 1063 L
2838 1110 L
2839 1074 L
2840 1066 L
2840 1079 L
2841 1072 L
2842 1094 L
2843 1135 L
2843 1075 L
2844 1089 L
2845 1080 L
2846 1037 L
2846 1088 L
2847 1048 L
2848 1099 L
2849 1157 L
2849 1050 L
2850 1062 L
2851 1119 L
2852 1041 L
2852 1087 L
2853 1093 L
2854 1100 L
2855 1110 L
2855 1136 L
2856 1074 L
2857 1095 L
2857 1080 L
2858 1065 L
2859 1073 L
2860 1086 L
2860 1044 L
2861 1056 L
2862 1045 L
2862 1061 L
2863 1039 L
2864 1113 L
2865 1041 L
2865 1138 L
2866 1055 L
2867 1022 L
2867 1057 L
2868 1081 L
2869 1107 L
2869 1087 L
2870 1069 L
2871 1115 L
2871 1075 L
2872 1053 L
2873 1020 L
2873 1062 L
2874 1109 L
2875 1039 L
2876 1072 L
2876 1115 L
2877 1053 L
2878 1047 L
2878 1043 L
2879 1089 L
2880 1080 L
2880 1037 L
2881 1069 L
2881 1039 L
2882 1054 L
2883 1100 L
2883 1057 L
2884 1090 L
2885 1105 L
2885 1023 L
2886 1036 L
2887 1106 L
2887 1090 L
2888 1038 L
2889 1061 L
2889 1058 L
2892 1112 L
2894 1078 L
2897 1057 L
2899 1091 L
2902 1030 L
2904 1088 L
2907 1084 L
2909 990 L
2911 1016 L
2914 1021 L
2916 1035 L
2918 1005 L
2921 1070 L
2923 1000 L
2925 997 L
2927 1008 L
2929 1005 L
2932 1006 L
2934 1018 L
2936 980 L
2938 1016 L
2940 1012 L
2942 1004 L
2944 1011 L
2946 975 L
2948 1017 L
2950 999 L
2952 965 L
2954 975 L
2956 976 L
2958 992 L
2960 925 L
2962 987 L
2964 1005 L
2966 1006 L
2968 982 L
2970 1000 L
2971 981 L
2973 969 L
2975 937 L
2977 929 L
2979 967 L
2980 936 L
2982 988 L
2984 941 L
2986 964 L
2987 958 L
2989 996 L
2991 959 L
2993 988 L
2994 940 L
2996 976 L
2998 962 L
2999 938 L
3001 941 L
3003 889 L
3004 976 L
3006 914 L
3007 934 L
3009 945 L
3011 933 L
3012 918 L
3014 890 L
3015 951 L
3017 928 L
3018 901 L
3020 909 L
3021 887 L
3023 940 L
3024 921 L
3026 921 L
3027 906 L
3029 866 L
3030 928 L
3032 930 L
3033 928 L
3035 902 L
3036 910 L
3038 957 L
3039 852 L
3040 945 L
3042 881 L
3043 917 L
3045 919 L
3046 915 L
3047 878 L
3049 952 L
3050 908 L
3051 934 L
3053 895 L
3054 853 L
3055 884 L
3057 886 L
3058 906 L
3059 881 L
3061 884 L
3062 868 L
3063 832 L
3065 861 L
3066 893 L
3067 881 L
3068 851 L
3070 895 L
3071 887 L
3072 880 L
3073 922 L
3075 839 L
3076 862 L
3077 905 L
3078 823 L
3079 885 L
3081 901 L
3082 890 L
3083 889 L
3084 847 L
3085 890 L
3087 859 L
3088 893 L
3089 780 L
3090 909 L
3091 855 L
3092 836 L
3094 865 L
3095 837 L
3096 840 L
3097 865 L
3098 870 L
3099 871 L
3100 852 L
3101 870 L
3103 857 L
3104 838 L
3105 882 L
3106 832 L
3107 904 L
3108 839 L
3109 818 L
3110 876 L
3111 849 L
3112 845 L
3113 876 L
3114 895 L
3115 845 L
3116 853 L
3117 851 L
3119 833 L
3120 846 L
3121 797 L
3122 845 L
3123 811 L
3124 792 L
3125 817 L
3126 833 L
3127 817 L
3128 796 L
3129 852 L
3130 836 L
3131 783 L
3132 845 L
3133 820 L
3134 901 L
3135 816 L
3136 816 L
3136 797 L
3137 807 L
3138 827 L
3139 872 L
3140 866 L
3141 846 L
3142 817 L
3143 839 L
3144 824 L
3145 850 L
3146 810 L
3147 810 L
3148 877 L
3149 802 L
3150 817 L
3151 821 L
3151 825 L
3152 855 L
3153 833 L
3154 791 L
3155 811 L
3156 810 L
3157 832 L
3158 842 L
3159 806 L
3160 806 L
3160 808 L
3161 788 L
3162 802 L
3163 817 L
3164 829 L
3165 837 L
3166 792 L
3166 816 L
3167 809 L
3168 792 L
3169 784 L
3170 788 L
3171 806 L
3172 828 L
3172 842 L
3173 805 L
3174 853 L
3175 817 L
3176 863 L
3177 795 L
3177 812 L
3178 827 L
3179 869 L
3180 829 L
3181 760 L
3181 806 L
3182 831 L
3183 792 L
3184 820 L
3185 819 L
3185 778 L
3186 814 L
3187 809 L
3188 814 L
3189 844 L
3189 795 L
3190 802 L
3191 848 L
3192 828 L
3193 799 L
3193 846 L
3194 808 L
3195 797 L
3196 807 L
3196 786 L
3197 807 L
3198 799 L
3199 753 L
3199 830 L
3200 809 L
3201 817 L
3202 795 L
3202 847 L
3203 800 L
3204 765 L
3205 778 L
3205 767 L
3206 790 L
3207 851 L
3208 794 L
3208 823 L
3209 834 L
3210 834 L
3210 754 L
3211 781 L
3212 818 L
3213 846 L
3213 812 L
3214 813 L
3215 829 L
3215 788 L
3216 801 L
3217 845 L
3218 826 L
3218 800 L
3219 768 L
3220 846 L
3220 811 L
3221 894 L
3222 825 L
3222 884 L
3223 827 L
3224 872 L
3224 757 L
3225 800 L
3226 817 L
3227 789 L
3227 851 L
3228 771 L
3229 839 L
3229 784 L
3230 823 L
3231 817 L
3231 767 L
3232 836 L
3233 764 L
3233 835 L
3234 793 L
3235 852 L
3235 805 L
3236 814 L
3236 818 L
3237 807 L
3238 781 L
3238 809 L
3239 837 L
3240 814 L
3240 808 L
3241 826 L
3242 795 L
3242 785 L
3243 763 L
3244 823 L
3244 787 L
3245 841 L
3245 798 L
3246 812 L
3247 809 L
3247 750 L
3248 795 L
3249 863 L
3249 823 L
3250 777 L
3250 799 L
3251 825 L
3252 815 L
3252 821 L
3253 795 L
3253 792 L
3254 818 L
3255 824 L
3255 826 L
3256 765 L
3257 856 L
3257 787 L
3258 838 L
3258 806 L
3259 878 L
3259 778 L
3260 834 L
3261 807 L
3261 797 L
3262 803 L
3262 832 L
3263 848 L
3264 843 L
3264 823 L
3265 815 L
3265 850 L
3266 777 L
3267 785 L
3267 825 L
3268 786 L
3268 828 L
3269 848 L
3269 804 L
3270 834 L
3271 793 L
3271 820 L
3272 791 L
3272 842 L
3273 802 L
3273 838 L
3274 824 L
3275 841 L
3275 826 L
3276 808 L
3276 788 L
3277 850 L
3277 846 L
3278 835 L
3278 794 L
3279 811 L
3280 846 L
3280 850 L
3281 803 L
3281 828 L
3282 825 L
3282 825 L
3283 819 L
3283 844 L
3284 803 L
3284 827 L
3285 825 L
3285 809 L
3286 877 L
3287 801 L
3287 836 L
3288 840 L
3288 847 L
3289 814 L
3289 818 L
3290 829 L
3290 869 L
3291 789 L
3291 861 L
3292 803 L
3292 834 L
3293 857 L
3293 794 L
3294 803 L
3294 841 L
3295 826 L
3295 837 L
3296 824 L
3297 813 L
3297 838 L
3298 810 L
3298 854 L
3299 835 L
3299 847 L
3300 790 L
3300 811 L
3301 818 L
3301 823 L
3302 795 L
3302 813 L
3303 772 L
3303 868 L
3304 805 L
3304 857 L
3305 860 L
3305 811 L
3306 795 L
3306 854 L
3307 869 L
3307 833 L
3308 803 L
3308 809 L
3309 821 L
3309 837 L
3310 811 L
3310 872 L
3311 817 L
3311 835 L
3312 839 L
3312 866 L
3312 775 L
3313 882 L
3313 808 L
3314 819 L
3314 859 L
3315 799 L
3315 821 L
3316 830 L
3316 861 L
3317 844 L
3317 893 L
3318 799 L
3318 822 L
3319 843 L
3319 798 L
3320 836 L
3320 829 L
3321 824 L
3321 781 L
3321 825 L
3322 832 L
3322 827 L
3323 829 L
3323 821 L
3324 894 L
3324 830 L
3325 857 L
3325 868 L
3326 876 L
3326 864 L
3327 817 L
3327 854 L
3327 898 L
3328 848 L
3328 815 L
3329 859 L
3329 799 L
3330 855 L
3330 810 L
3331 850 L
3331 850 L
3332 895 L
3332 832 L
3332 812 L
3333 850 L
3333 928 L
3334 807 L
3334 785 L
3335 856 L
3335 833 L
3336 839 L
3336 835 L
3336 817 L
3337 865 L
3337 791 L
3338 880 L
3338 812 L
3339 886 L
3339 804 L
3339 880 L
3340 844 L
3340 813 L
3341 855 L
3341 856 L
3342 871 L
3342 832 L
3343 852 L
3343 846 L
3343 816 L
3344 855 L
3344 819 L
3345 809 L
3345 846 L
3346 837 L
3346 810 L
3346 858 L
3347 874 L
3347 845 L
3348 839 L
3348 865 L
3348 863 L
3349 810 L
3349 860 L
3350 794 L
3350 832 L
3351 824 L
3351 862 L
3351 868 L
3352 887 L
3352 824 L
3353 820 L
3353 843 L
3353 840 L
3354 840 L
3354 823 L
3355 828 L
3355 847 L
3355 874 L
3356 844 L
3356 856 L
3357 837 L
3357 855 L
3358 835 L
3358 921 L
3358 840 L
3359 868 L
3359 879 L
3360 835 L
3360 876 L
3360 838 L
3361 922 L
3361 845 L
3362 857 L
3362 888 L
3362 841 L
3363 785 L
3363 866 L
3364 840 L
3364 889 L
3364 871 L
3365 790 L
3365 873 L
3365 891 L
3366 887 L
3366 882 L
3367 846 L
3367 850 L
3367 851 L
3368 846 L
3368 899 L
3369 833 L
3369 879 L
3369 872 L
3370 855 L
3370 872 L
3371 858 L
3371 878 L
3371 869 L
3372 861 L
3372 842 L
3372 839 L
3373 785 L
3373 843 L
3374 783 L
3374 867 L
3374 797 L
3375 878 L
3375 882 L
3375 834 L
3376 876 L
3376 836 L
3377 863 L
3377 954 L
3377 882 L
3378 851 L
3378 800 L
3378 864 L
3379 839 L
3379 885 L
3380 844 L
3380 846 L
3380 866 L
3381 913 L
3381 835 L
3381 871 L
3382 864 L
3382 827 L
3383 859 L
3383 838 L
3383 896 L
3384 836 L
3384 946 L
3384 847 L
3385 887 L
3385 885 L
3385 872 L
3386 846 L
3386 909 L
3387 860 L
3387 871 L
3387 910 L
3388 824 L
3388 854 L
3388 874 L
3389 852 L
3389 889 L
3389 850 L
3390 845 L
3390 904 L
3391 853 L
3391 879 L
3391 845 L
3392 873 L
3392 852 L
3392 901 L
3393 845 L
3393 906 L
3393 886 L
3394 878 L
3394 823 L
3394 840 L
3395 854 L
3395 833 L
3395 858 L
3396 893 L
3396 848 L
3396 858 L
3397 846 L
3397 869 L
3398 872 L
3398 848 L
3398 866 L
3399 853 L
3399 859 L
3399 848 L
3400 857 L
3400 856 L
3400 849 L
3401 898 L
3401 837 L
3401 880 L
3402 913 L
3402 884 L
3402 909 L
3403 885 L
3403 872 L
3403 904 L
3404 887 L
3404 906 L
3404 920 L
3405 910 L
3405 847 L
3405 876 L
3406 864 L
3406 851 L
3406 869 L
3407 874 L
3407 872 L
3407 880 L
3408 883 L
3408 879 L
3408 897 L
3409 905 L
3409 850 L
3409 894 L
3410 842 L
3410 864 L
3410 909 L
3411 909 L
3411 856 L
3411 882 L
3412 924 L
3412 912 L
3412 858 L
3413 897 L
3413 858 L
3413 859 L
3414 899 L
3414 883 L
3414 879 L
3415 870 L
3415 817 L
3415 894 L
3416 920 L
3416 853 L
3416 902 L
3417 841 L
3417 888 L
3417 884 L
3417 869 L
3418 892 L
3418 906 L
3418 893 L
3419 898 L
3419 869 L
3419 837 L
3420 886 L
3420 966 L
3420 906 L
3421 889 L
3421 869 L
3421 887 L
3422 862 L
3422 879 L
3422 883 L
3423 926 L
3423 862 L
3423 907 L
3423 865 L
3424 914 L
3424 913 L
3424 905 L
3425 921 L
3425 882 L
3425 881 L
3426 872 L
3426 858 L
3426 904 L
3427 922 L
3427 859 L
3427 897 L
3428 871 L
3428 1010 L
3428 913 L
3428 865 L
3429 855 L
3429 884 L
3429 949 L
3430 897 L
3430 887 L
3430 877 L
3431 905 L
3431 862 L
3431 923 L
3431 914 L
3432 887 L
3432 882 L
3432 875 L
3433 894 L
3433 913 L
3433 873 L
3434 890 L
3434 924 L
3434 859 L
3434 941 L
3435 916 L
3435 934 L
3435 926 L
3436 896 L
3436 890 L
3436 903 L
3437 887 L
3437 899 L
3437 872 L
3437 883 L
3438 920 L
3438 918 L
3438 921 L
3439 908 L
3439 910 L
3439 943 L
3440 946 L
3440 875 L
3440 890 L
3440 915 L
3441 916 L
3441 870 L
3441 878 L
3442 907 L
3442 948 L
3442 936 L
3442 978 L
3443 934 L
3443 913 L
3443 902 L
3444 903 L
3444 901 L
3444 885 L
3444 935 L
3445 834 L
3445 969 L
3445 887 L
3446 872 L
3446 895 L
3446 944 L
3446 869 L
3447 905 L
3447 881 L
3447 905 L
3448 920 L
3448 929 L
3448 919 L
3448 890 L
3449 926 L
3449 944 L
3449 942 L
3450 851 L
3450 875 L
3450 886 L
3450 915 L
3451 857 L
3451 882 L
3451 892 L
3452 925 L
3452 907 L
3452 896 L
3452 910 L
3453 858 L
3453 905 L
3453 886 L
3454 932 L
3454 914 L
3454 920 L
3454 908 L
3455 942 L
3455 894 L
3455 915 L
3455 901 L
3456 871 L
3456 917 L
3456 936 L
3457 874 L
3457 897 L
3457 852 L
3457 917 L
3458 874 L
3458 918 L
3458 906 L
3458 952 L
3459 903 L
3459 946 L
3459 900 L
3460 940 L
3460 941 L
3460 886 L
3460 889 L
3461 895 L
3461 925 L
3461 935 L
3461 876 L
3462 911 L
3462 918 L
3462 907 L
3463 925 L
3463 879 L
3463 888 L
3463 922 L
3464 910 L
3464 886 L
3464 901 L
3464 922 L
3465 957 L
3465 876 L
3465 944 L
3465 898 L
3466 901 L
3466 935 L
3466 927 L
3466 884 L
3467 910 L
3467 909 L
3467 934 L
3468 938 L
3468 927 L
3468 919 L
3468 942 L
3469 947 L
3469 947 L
3469 937 L
3469 906 L
3470 926 L
3470 897 L
3470 942 L
3470 949 L
3471 931 L
3471 974 L
3471 923 L
3471 962 L
3472 962 L
3472 926 L
3472 904 L
3472 947 L
3473 933 L
3473 932 L
3473 882 L
3474 970 L
3474 914 L
3474 934 L
3474 920 L
3475 877 L
3475 927 L
3475 910 L
3475 924 L
3476 922 L
3476 945 L
3476 896 L
3476 906 L
3477 906 L
3477 896 L
3477 932 L
3477 925 L
3478 918 L
3478 939 L
3478 933 L
3478 904 L
3479 916 L
3479 922 L
3479 935 L
3479 931 L
3480 926 L
3480 941 L
3480 914 L
3480 929 L
3481 947 L
3481 918 L
3481 959 L
3481 965 L
3482 945 L
3482 935 L
3482 919 L
3482 950 L
3483 955 L
3483 953 L
3483 961 L
3483 912 L
3484 939 L
3484 922 L
3484 901 L
3484 894 L
3485 934 L
3485 912 L
3485 924 L
3485 875 L
3486 953 L
3486 894 L
3486 889 L
3486 926 L
3487 940 L
3487 896 L
3487 915 L
3487 914 L
3488 947 L
3488 948 L
3488 964 L
3488 901 L
3488 971 L
3489 925 L
3489 903 L
3489 887 L
3489 969 L
3490 939 L
3490 958 L
3490 898 L
3490 902 L
3491 992 L
3491 972 L
3491 884 L
3491 921 L
3492 886 L
3492 923 L
3492 946 L
3492 912 L
3493 947 L
3493 955 L
3493 938 L
3493 923 L
3494 919 L
3494 924 L
3494 899 L
3494 936 L
3494 886 L
3495 928 L
3495 939 L
3495 948 L
3495 913 L
3496 902 L
3496 909 L
3496 998 L
3496 882 L
3497 952 L
3497 935 L
3497 935 L
3497 950 L
3498 939 L
3498 967 L
3498 931 L
3498 908 L
3498 948 L
3499 970 L
3499 975 L
3499 945 L
3499 986 L
3500 921 L
3500 936 L
3506 972 L
3511 915 L
3517 956 L
3522 969 L
3527 989 L
3532 953 L
3537 970 L
3542 972 L
3547 951 L
3552 989 L
3557 971 L
3561 947 L
3566 967 L
3570 1017 L
3575 1007 L
3579 987 L
3583 1035 L
3587 1033 L
3591 1045 L
3595 970 L
3599 995 L
3603 988 L
3607 982 L
3611 996 L
3614 962 L
3618 1016 L
3622 988 L
3625 959 L
3629 963 L
3632 1024 L
3636 1050 L
3639 1009 L
3642 982 L
3646 994 L
3649 1015 L
3652 1032 L
3655 1016 L
3658 1080 L
3661 979 L
3664 933 L
3667 996 L
3670 979 L
3673 1010 L
3676 1013 L
3679 987 L
3682 1002 L
3685 1042 L
3688 964 L
3690 1023 L
3693 997 L
3696 990 L
3698 1034 L
3701 964 L
3704 965 L
3706 989 L
3709 997 L
3711 1017 L
3714 1019 L
3716 1013 L
3719 1018 L
3721 968 L
3724 1044 L
3726 924 L
3728 1030 L
3731 1046 L
3733 1016 L
3735 991 L
3738 1017 L
3740 1025 L
3742 1011 L
3744 1040 L
3747 1009 L
3749 1079 L
3751 1007 L
3753 1015 L
3755 1060 L
3757 1029 L
3760 1027 L
3762 1092 L
3764 1017 L
3766 1029 L
3768 977 L
3770 1010 L
3772 1015 L
3774 1024 L
3776 1018 L
3778 1045 L
3780 1009 L
3781 1006 L
3783 1022 L
3785 985 L
3787 1033 L
3789 1002 L
3791 1022 L
3793 1033 L
3795 1014 L
3796 992 L
3798 967 L
3800 1051 L
3802 1018 L
3803 1003 L
3805 1015 L
3807 1044 L
3809 1040 L
3810 969 L
3812 984 L
3814 1052 L
3816 1034 L
3817 967 L
3819 975 L
3820 959 L
3822 1028 L
3824 1032 L
3825 1000 L
3827 985 L
3829 1056 L
3830 1011 L
3832 1039 L
3833 1013 L
3835 992 L
3836 1020 L
3838 994 L
3839 1031 L
3841 1076 L
3842 1049 L
3844 989 L
3845 1029 L
3847 1065 L
3848 1004 L
3850 1004 L
3851 1065 L
3853 970 L
3854 1026 L
3856 977 L
3857 1037 L
3859 1025 L
3860 1048 L
3861 1023 L
3863 1014 L
3864 1018 L
3866 1007 L
3867 1002 L
3868 1020 L
3870 997 L
3871 1057 L
3872 1055 L
3874 1032 L
3875 976 L
3876 1113 L
3878 1044 L
3879 998 L
3880 1051 L
3882 976 L
3883 996 L
3884 1016 L
3885 1062 L
3887 1023 L
3888 1024 L
3889 1021 L
3890 1054 L
3892 1061 L
3893 1065 L
3894 1010 L
3895 1006 L
3897 1003 L
3898 1033 L
3899 1026 L
3900 1002 L
3901 1046 L
3903 1058 L
3904 1018 L
3905 1022 L
3906 964 L
3907 985 L
3908 1003 L
3910 943 L
3911 1028 L
3912 997 L
3913 1034 L
3914 1059 L
3915 957 L
3917 982 L
3918 932 L
3919 1032 L
3920 1009 L
3921 1044 L
3922 1002 L
3923 1032 L
3924 1067 L
3925 1041 L
3926 1032 L
3928 1042 L
3929 1023 L
3930 1014 L
3931 1043 L
3932 1014 L
3933 985 L
3934 971 L
3935 1047 L
3936 1001 L
3937 1043 L
3938 1012 L
3939 1058 L
3940 986 L
3941 1009 L
3942 1043 L
3943 1038 L
3944 1017 L
3945 1092 L
3946 1014 L
3947 963 L
3948 987 L
3949 987 L
3950 1071 L
3951 1010 L
3952 1000 L
3953 1002 L
3954 995 L
3955 1002 L
3956 1034 L
3957 1055 L
3958 1012 L
3959 1024 L
3960 981 L
3961 988 L
3962 991 L
3963 1058 L
3964 1000 L
3965 1027 L
3966 1054 L
3966 974 L
3967 998 L
3968 1007 L
3969 987 L
3970 999 L
3971 995 L
3972 999 L
3973 1010 L
3974 1024 L
3975 964 L
3976 988 L
3976 992 L
3977 942 L
3978 1014 L
3979 1023 L
3980 1027 L
3981 1036 L
3982 1036 L
3983 1001 L
3983 944 L
3984 944 L
3985 1039 L
3986 976 L
3987 1034 L
3988 1003 L
3989 994 L
3989 1020 L
3990 964 L
3991 983 L
3992 989 L
3993 999 L
3994 1004 L
3995 1006 L
3995 970 L
3996 1001 L
3997 976 L
3998 998 L
3999 1029 L
3999 1019 L
4000 959 L
4001 957 L
4002 980 L
4003 1017 L
4003 1014 L
4004 1065 L
4005 1037 L
4006 986 L
4007 1037 L
4007 1006 L
4008 946 L
4009 1000 L
4010 1014 L
4011 1020 L
4011 943 L
4012 992 L
4013 965 L
4014 1046 L
4014 975 L
4015 1013 L
4016 1004 L
4017 1006 L
4017 1028 L
4018 1039 L
4019 1058 L
4020 1023 L
4021 1055 L
4021 997 L
4022 1030 L
4023 1004 L
4023 978 L
4024 1017 L
4025 1066 L
4026 983 L
4026 1010 L
4027 998 L
4028 1003 L
4029 1037 L
4029 1017 L
4030 1032 L
4031 1012 L
4032 982 L
4032 1038 L
4033 1018 L
4034 1002 L
4034 1013 L
4035 1063 L
4036 994 L
4036 975 L
4037 1054 L
4038 1019 L
4039 1006 L
4039 1032 L
4040 995 L
4041 1025 L
4041 1014 L
4042 968 L
4043 969 L
4043 987 L
4044 1024 L
4045 1003 L
4045 971 L
4046 976 L
4047 1015 L
4047 1004 L
4048 991 L
4049 1016 L
4050 1062 L
4050 1006 L
4051 1057 L
4052 940 L
4052 1029 L
4053 960 L
4053 1052 L
4054 1061 L
4055 930 L
4055 1003 L
4056 1032 L
4057 978 L
4057 1038 L
4058 1017 L
4059 998 L
4059 946 L
4060 1008 L
4061 908 L
4061 1012 L
4062 941 L
L2 C03 COSGR

%
% Main frame
%
L10
GSN 
620 1700 M
4220 1700 L
4220 5300 L
620 5300 L
closepath SGR

%
% X axis: large tics
%
L10
GSN 1130 1700 M 0  54 rL SGR
GSN 1130 5300 M 0 -54 rL SGR
helvS (0.0001) 1130 470 xlabel
GSN 1716 1700 M 0  54 rL SGR
GSN 1716 5300 M 0 -54 rL SGR
helvS (0.001) 1716 470 xlabel
GSN 2303 1700 M 0  54 rL SGR
GSN 2303 5300 M 0 -54 rL SGR
helvS (0.01) 2303 470 xlabel
GSN 2889 1700 M 0  54 rL SGR
GSN 2889 5300 M 0 -54 rL SGR
helvS (0.1) 2889 470 xlabel
GSN 3476 1700 M 0  54 rL SGR
GSN 3476 5300 M 0 -54 rL SGR
helvS (1) 3476 470 xlabel
GSN 4062 1700 M 0  54 rL SGR
GSN 4062 5300 M 0 -54 rL SGR
helvS (10) 4062 470 xlabel
%
% X axis: small tics
%
L5
GSN 720 1700 M 0  36 rL SGR
GSN 720 5300 M 0 -36 rL SGR
GSN 824 1700 M 0  36 rL SGR
GSN 824 5300 M 0 -36 rL SGR
GSN 897 1700 M 0  36 rL SGR
GSN 897 5300 M 0 -36 rL SGR
GSN 954 1700 M 0  36 rL SGR
GSN 954 5300 M 0 -36 rL SGR
GSN 1000 1700 M 0  36 rL SGR
GSN 1000 5300 M 0 -36 rL SGR
GSN 1039 1700 M 0  36 rL SGR
GSN 1039 5300 M 0 -36 rL SGR
GSN 1073 1700 M 0  36 rL SGR
GSN 1073 5300 M 0 -36 rL SGR
GSN 1103 1700 M 0  36 rL SGR
GSN 1103 5300 M 0 -36 rL SGR
GSN 1307 1700 M 0  36 rL SGR
GSN 1307 5300 M 0 -36 rL SGR
GSN 1410 1700 M 0  36 rL SGR
GSN 1410 5300 M 0 -36 rL SGR
GSN 1483 1700 M 0  36 rL SGR
GSN 1483 5300 M 0 -36 rL SGR
GSN 1540 1700 M 0  36 rL SGR
GSN 1540 5300 M 0 -36 rL SGR
GSN 1586 1700 M 0  36 rL SGR
GSN 1586 5300 M 0 -36 rL SGR
GSN 1626 1700 M 0  36 rL SGR
GSN 1626 5300 M 0 -36 rL SGR
GSN 1660 1700 M 0  36 rL SGR
GSN 1660 5300 M 0 -36 rL SGR
GSN 1690 1700 M 0  36 rL SGR
GSN 1690 5300 M 0 -36 rL SGR
GSN 1893 1700 M 0  36 rL SGR
GSN 1893 5300 M 0 -36 rL SGR
GSN 1996 1700 M 0  36 rL SGR
GSN 1996 5300 M 0 -36 rL SGR
GSN 2069 1700 M 0  36 rL SGR
GSN 2069 5300 M 0 -36 rL SGR
GSN 2126 1700 M 0  36 rL SGR
GSN 2126 5300 M 0 -36 rL SGR
GSN 2173 1700 M 0  36 rL SGR
GSN 2173 5300 M 0 -36 rL SGR
GSN 2212 1700 M 0  36 rL SGR
GSN 2212 5300 M 0 -36 rL SGR
GSN 2246 1700 M 0  36 rL SGR
GSN 2246 5300 M 0 -36 rL SGR
GSN 2276 1700 M 0  36 rL SGR
GSN 2276 5300 M 0 -36 rL SGR
GSN 2479 1700 M 0  36 rL SGR
GSN 2479 5300 M 0 -36 rL SGR
GSN 2583 1700 M 0  36 rL SGR
GSN 2583 5300 M 0 -36 rL SGR
GSN 2656 1700 M 0  36 rL SGR
GSN 2656 5300 M 0 -36 rL SGR
GSN 2713 1700 M 0  36 rL SGR
GSN 2713 5300 M 0 -36 rL SGR
GSN 2759 1700 M 0  36 rL SGR
GSN 2759 5300 M 0 -36 rL SGR
GSN 2798 1700 M 0  36 rL SGR
GSN 2798 5300 M 0 -36 rL SGR
GSN 2832 1700 M 0  36 rL SGR
GSN 2832 5300 M 0 -36 rL SGR
GSN 2862 1700 M 0  36 rL SGR
GSN 2862 5300 M 0 -36 rL SGR
GSN 3066 1700 M 0  36 rL SGR
GSN 3066 5300 M 0 -36 rL SGR
GSN 3169 1700 M 0  36 rL SGR
GSN 3169 5300 M 0 -36 rL SGR
GSN 3242 1700 M 0  36 rL SGR
GSN 3242 5300 M 0 -36 rL SGR
GSN 3299 1700 M 0  36 rL SGR
GSN 3299 5300 M 0 -36 rL SGR
GSN 3345 1700 M 0  36 rL SGR
GSN 3345 5300 M 0 -36 rL SGR
GSN 3385 1700 M 0  36 rL SGR
GSN 3385 5300 M 0 -36 rL SGR
GSN 3419 1700 M 0  36 rL SGR
GSN 3419 5300 M 0 -36 rL SGR
GSN 3449 1700 M 0  36 rL SGR
GSN 3449 5300 M 0 -36 rL SGR
GSN 3652 1700 M 0  36 rL SGR
GSN 3652 5300 M 0 -36 rL SGR
GSN 3755 1700 M 0  36 rL SGR
GSN 3755 5300 M 0 -36 rL SGR
GSN 3829 1700 M 0  36 rL SGR
GSN 3829 5300 M 0 -36 rL SGR
GSN 3885 1700 M 0  36 rL SGR
GSN 3885 5300 M 0 -36 rL SGR
GSN 3932 1700 M 0  36 rL SGR
GSN 3932 5300 M 0 -36 rL SGR
GSN 3971 1700 M 0  36 rL SGR
GSN 3971 5300 M 0 -36 rL SGR
GSN 4005 1700 M 0  36 rL SGR
GSN 4005 5300 M 0 -36 rL SGR
GSN 4035 1700 M 0  36 rL SGR
GSN 4035 5300 M 0 -36 rL SGR
%
% Y axis: large tics
%
L10
GSN 620 2113 M 54 0 rL SGR
GSN 4220 2113 M -54 0 rL SGR
helvS (1.04) 560 2113 ylabel
GSN 620 2976 M 54 0 rL SGR
GSN 4220 2976 M -54 0 rL SGR
helvS (1.06) 560 2976 ylabel
GSN 620 3840 M 54 0 rL SGR
GSN 4220 3840 M -54 0 rL SGR
helvS (1.08) 560 3840 ylabel
GSN 620 4703 M 54 0 rL SGR
GSN 4220 4703 M -54 0 rL SGR
helvS (1.1) 560 4703 ylabel
%
% Y axis: small tics
%
L5
GSN 620 1898 M 36 0 rL SGR
GSN 4220 1898 M -36 0 rL SGR
GSN 620 2113 M 36 0 rL SGR
GSN 4220 2113 M -36 0 rL SGR
GSN 620 2329 M 36 0 rL SGR
GSN 4220 2329 M -36 0 rL SGR
GSN 620 2545 M 36 0 rL SGR
GSN 4220 2545 M -36 0 rL SGR
GSN 620 2761 M 36 0 rL SGR
GSN 4220 2761 M -36 0 rL SGR
GSN 620 2976 M 36 0 rL SGR
GSN 4220 2976 M -36 0 rL SGR
GSN 620 3192 M 36 0 rL SGR
GSN 4220 3192 M -36 0 rL SGR
GSN 620 3408 M 36 0 rL SGR
GSN 4220 3408 M -36 0 rL SGR
GSN 620 3624 M 36 0 rL SGR
GSN 4220 3624 M -36 0 rL SGR
GSN 620 3840 M 36 0 rL SGR
GSN 4220 3840 M -36 0 rL SGR
GSN 620 4055 M 36 0 rL SGR
GSN 4220 4055 M -36 0 rL SGR
GSN 620 4271 M 36 0 rL SGR
GSN 4220 4271 M -36 0 rL SGR
GSN 620 4487 M 36 0 rL SGR
GSN 4220 4487 M -36 0 rL SGR
GSN 620 4703 M 36 0 rL SGR
GSN 4220 4703 M -36 0 rL SGR
GSN 620 4918 M 36 0 rL SGR
GSN 4220 4918 M -36 0 rL SGR
GSN 620 5134 M 36 0 rL SGR
GSN 4220 5134 M -36 0 rL SGR

%
% X-Axis label:
%
gsave 2420 290 M 
[
[(Helvetica) 180 0 true true 0 (t)]
[(Helvetica) 180 0 true true 0 (i)]
[(Helvetica) 180 0 true true 0 (m)]
[(Helvetica) 180 0 true true 0 (e)]
] 0 MCshow grestore

%
% Y-Axis label:
%
gsave 234 3500 M 
currentpoint gsave translate 90 rotate 0 0 moveto
[
[(Helvetica) 180 0 true true 0 (s)]
[(Helvetica) 180 0 true true 0 (i)]
[(Helvetica) 180 0 true true 0 (g)]
[(Helvetica) 180 0 true true 0 (n)]
[(Helvetica) 180 0 true true 0 (a)]
[(Helvetica) 180 0 true true 0 (l)]
] 0 MCshow grestore

%
% Residuals:
%
gsave 129 1160 M 
currentpoint gsave translate 90 rotate 0 0 moveto
[
[(Helvetica) 150 0 true true 0 (r)]
[(Helvetica) 150 0 true true 0 (e)]
[(Helvetica) 150 0 true true 0 (s)]
[(Helvetica) 150 0 true true 0 (i)]
[(Helvetica) 150 0 true true 0 (d)]
[(Helvetica) 150 0 true true 0 (u)]
[(Helvetica) 150 0 true true 0 (a)]
[(Helvetica) 150 0 true true 0 (l)]
[(Helvetica) 150 0 true true 0 (s)]
] 0 MCshow grestore

%
% Residual frame
%
L10
GSN 
620 620 M
4220 620 L
4220 1700 L
620 1700 L
closepath SGR
%
% X axis: large tics - residual frame
%
L10
GSN 1130 620 M 0  54 rL SGR
GSN 1130 1700 M 0 -54 rL SGR
GSN 1716 620 M 0  54 rL SGR
GSN 1716 1700 M 0 -54 rL SGR
GSN 2303 620 M 0  54 rL SGR
GSN 2303 1700 M 0 -54 rL SGR
GSN 2889 620 M 0  54 rL SGR
GSN 2889 1700 M 0 -54 rL SGR
GSN 3476 620 M 0  54 rL SGR
GSN 3476 1700 M 0 -54 rL SGR
GSN 4062 620 M 0  54 rL SGR
GSN 4062 1700 M 0 -54 rL SGR
%
% X axis: small tics - residual frame
%
L5
GSN 720 620 M 0  36 rL SGR
GSN 720 1700 M 0 -36 rL SGR
GSN 824 620 M 0  36 rL SGR
GSN 824 1700 M 0 -36 rL SGR
GSN 897 620 M 0  36 rL SGR
GSN 897 1700 M 0 -36 rL SGR
GSN 954 620 M 0  36 rL SGR
GSN 954 1700 M 0 -36 rL SGR
GSN 1000 620 M 0  36 rL SGR
GSN 1000 1700 M 0 -36 rL SGR
GSN 1039 620 M 0  36 rL SGR
GSN 1039 1700 M 0 -36 rL SGR
GSN 1073 620 M 0  36 rL SGR
GSN 1073 1700 M 0 -36 rL SGR
GSN 1103 620 M 0  36 rL SGR
GSN 1103 1700 M 0 -36 rL SGR
GSN 1307 620 M 0  36 rL SGR
GSN 1307 1700 M 0 -36 rL SGR
GSN 1410 620 M 0  36 rL SGR
GSN 1410 1700 M 0 -36 rL SGR
GSN 1483 620 M 0  36 rL SGR
GSN 1483 1700 M 0 -36 rL SGR
GSN 1540 620 M 0  36 rL SGR
GSN 1540 1700 M 0 -36 rL SGR
GSN 1586 620 M 0  36 rL SGR
GSN 1586 1700 M 0 -36 rL SGR
GSN 1626 620 M 0  36 rL SGR
GSN 1626 1700 M 0 -36 rL SGR
GSN 1660 620 M 0  36 rL SGR
GSN 1660 1700 M 0 -36 rL SGR
GSN 1690 620 M 0  36 rL SGR
GSN 1690 1700 M 0 -36 rL SGR
GSN 1893 620 M 0  36 rL SGR
GSN 1893 1700 M 0 -36 rL SGR
GSN 1996 620 M 0  36 rL SGR
GSN 1996 1700 M 0 -36 rL SGR
GSN 2069 620 M 0  36 rL SGR
GSN 2069 1700 M 0 -36 rL SGR
GSN 2126 620 M 0  36 rL SGR
GSN 2126 1700 M 0 -36 rL SGR
GSN 2173 620 M 0  36 rL SGR
GSN 2173 1700 M 0 -36 rL SGR
GSN 2212 620 M 0  36 rL SGR
GSN 2212 1700 M 0 -36 rL SGR
GSN 2246 620 M 0  36 rL SGR
GSN 2246 1700 M 0 -36 rL SGR
GSN 2276 620 M 0  36 rL SGR
GSN 2276 1700 M 0 -36 rL SGR
GSN 2479 620 M 0  36 rL SGR
GSN 2479 1700 M 0 -36 rL SGR
GSN 2583 620 M 0  36 rL SGR
GSN 2583 1700 M 0 -36 rL SGR
GSN 2656 620 M 0  36 rL SGR
GSN 2656 1700 M 0 -36 rL SGR
GSN 2713 620 M 0  36 rL SGR
GSN 2713 1700 M 0 -36 rL SGR
GSN 2759 620 M 0  36 rL SGR
GSN 2759 1700 M 0 -36 rL SGR
GSN 2798 620 M 0  36 rL SGR
GSN 2798 1700 M 0 -36 rL SGR
GSN 2832 620 M 0  36 rL SGR
GSN 2832 1700 M 0 -36 rL SGR
GSN 2862 620 M 0  36 rL SGR
GSN 2862 1700 M 0 -36 rL SGR
GSN 3066 620 M 0  36 rL SGR
GSN 3066 1700 M 0 -36 rL SGR
GSN 3169 620 M 0  36 rL SGR
GSN 3169 1700 M 0 -36 rL SGR
GSN 3242 620 M 0  36 rL SGR
GSN 3242 1700 M 0 -36 rL SGR
GSN 3299 620 M 0  36 rL SGR
GSN 3299 1700 M 0 -36 rL SGR
GSN 3345 620 M 0  36 rL SGR
GSN 3345 1700 M 0 -36 rL SGR
GSN 3385 620 M 0  36 rL SGR
GSN 3385 1700 M 0 -36 rL SGR
GSN 3419 620 M 0  36 rL SGR
GSN 3419 1700 M 0 -36 rL SGR
GSN 3449 620 M 0  36 rL SGR
GSN 3449 1700 M 0 -36 rL SGR
GSN 3652 620 M 0  36 rL SGR
GSN 3652 1700 M 0 -36 rL SGR
GSN 3755 620 M 0  36 rL SGR
GSN 3755 1700 M 0 -36 rL SGR
GSN 3829 620 M 0  36 rL SGR
GSN 3829 1700 M 0 -36 rL SGR
GSN 3885 620 M 0  36 rL SGR
GSN 3885 1700 M 0 -36 rL SGR
GSN 3932 620 M 0  36 rL SGR
GSN 3932 1700 M 0 -36 rL SGR
GSN 3971 620 M 0  36 rL SGR
GSN 3971 1700 M 0 -36 rL SGR
GSN 4005 620 M 0  36 rL SGR
GSN 4005 1700 M 0 -36 rL SGR
GSN 4035 620 M 0  36 rL SGR
GSN 4035 1700 M 0 -36 rL SGR
%
% Y axis: large tics - residual frame
%
L10
GSN 620 767 M 54 0 rL SGR
GSN 4220 767 M -54 0 rL SGR
helvS (-0.02) 560 767 ylabelresid
GSN 620 985 M 54 0 rL SGR
GSN 4220 985 M -54 0 rL SGR
helvS (0) 560 985 ylabelresid
GSN 620 1203 M 54 0 rL SGR
GSN 4220 1203 M -54 0 rL SGR
helvS (0.02) 560 1203 ylabelresid
GSN 620 1420 M 54 0 rL SGR
GSN 4220 1420 M -54 0 rL SGR
helvS (0.04) 560 1420 ylabelresid
GSN 620 1638 M 54 0 rL SGR
GSN 4220 1638 M -54 0 rL SGR
helvS (0.06) 560 1638 ylabelresid

%
% X axis - residual panel
%
GSN L5 620 985 M 4220 985 L SDA G50 SGR

end
showpage
%%Trailer
%%EOF
