%!PS-Adobe-3.0 EPSF-3.0
%%BoundingBox: 0 0 514 550
%%Creator: BioKin Ltd.
%%DocumentFonts: Symbol Helvetica
%%EndComments
%
/bkdict 256 dict def
bkdict begin
/M {moveto} def 
/R {rmoveto} def
/L {lineto} def
/rL {rlineto} def
/GSN {gsave newpath} def
/SGR {stroke grestore} def
/COSGR {gsave setrgbcolor stroke grestore grestore} def
/SL {setlinewidth} def
/LWMB {12} def             % line width - model curves, black & white
/LWMC {10} def             % line width - model curves, color
/L2 {2.5 setlinewidth} def
/L5 {5 setlinewidth} def
/L10 {10 setlinewidth} def
/G50 {0.5 setgray} def
/SDA {[10  20] 0 setdash} def % axes
/helvT {/Helvetica findfont 100 scalefont setfont} def % tiny
/helvS {/Helvetica findfont 125 scalefont setfont} def % small
/helvM {/Helvetica findfont 150 scalefont setfont} def % medium
/helvL {/Helvetica findfont 175 scalefont setfont} def % large
/xlabel {gsave M dup
   stringwidth exch -0.5 mul exch rmoveto show grestore} def 
/ylabel {gsave M 90 rotate dup
   stringwidth exch -0.5 mul exch rmoveto show grestore} def
/ylabelresid {gsave M dup
   stringwidth exch -1 mul exch rmoveto show grestore} def
% ======
% Shapes
% ======
% Circle:
/Circ {0 360 arc closepath} def
%
% Square:
/Squa {dup dup -0.5 mul dup dup R -2 mul 0 exch rL 1 mul 0 rL dup 0 exch -1 mul rL closepath} def
%
% Triangle Up:
/TriU {dup dup dup -0.4 mul exch -0.5 mul exch R dup 0.5 mul exch rL dup -1 mul exch 0.5 mul exch rL closepath} def 
%
% Triangle Down:
/TriD {dup dup dup 0.4 mul exch -0.5 mul exch R dup 0.5 mul exch -1 mul rL dup 0.5 mul exch rL closepath} def 
%
% Diamond:
/Diam {45 rotate Squa} def
% ======
% Fills
% ======
/GRF {gsave setgray fill grestore} def                    % gray-level Fill
/COF {gsave setrgbcolor fill grestore} def                % color fill
% ======
% Colors
% ======
/C01 {1.00	0.00	0.00} def      % Red
/C02 {0.00	0.00	1.00} def      % Blue
/C03 {0.00	0.39	0.00} def      % Dark Green
/C04 {0.78	0.08	0.52} def      % Medium Violet Red
/C05 {0.55	0.27	0.07} def      % Saddle Brown
/C06 {0.10	0.70	0.70} def      % (cyan)
/C07 {1.00	0.55	0.00} def      % Dark Orange
/C08 {0.63	0.13	0.94} def      % Purple
/C09 {0.00	0.75	1.00} def      % Deep Sky Blue
/C10 {0.20	0.80	0.20} def      % Lime Green
/C11 {0.47	0.53	0.60} def      % Light Slate Gray
/C12 {0.00	0.00	0.00} def      % Black            % or: {0.19	0.31	0.31} def      % Dark Slate Gray
%
/LGR {0.75} def % light gray
/DGR {0.33} def % dark gray
%
% =============
% Dash patterns
% =============
/dash01 { [80  20] 0 setdash } def
/dash02 { [40  20] 0 setdash } def
/dash03 { [80  20  10  20] 0 setdash } def
/dash04 { [40  20  10  20] 0 setdash } def
/dash05 { [80  20  10  10  10  20] 0 setdash } def
/dash06 { [40  20  10  10  10  20] 0 setdash } def
/dash07 { [10  10] 0 setdash } def
%
/MFshow {
   { dup 5 get 3 ge
     { 5 get 3 eq {gsave} {grestore} ifelse }
     {dup dup 0 get findfont exch 1 get scalefont setfont
     [ currentpoint ] exch dup 2 get 0 exch R dup 5 get 2 ne {dup dup 6
     get exch 4 get {show} {stringwidth pop 0 R} ifelse }if dup 5 get 0 eq
     {dup 3 get {2 get neg 0 exch R pop} {pop aload pop M} ifelse} {dup 5
     get 1 eq {dup 2 get exch dup 3 get exch 6 get stringwidth pop -2 div
     dup 0 R} {dup 6 get stringwidth pop -2 div 0 R 6 get
     show 2 index {aload pop M neg 3 -1 roll neg R pop pop} {pop pop pop
     pop aload pop M} ifelse }ifelse }ifelse }
     ifelse }
   forall} bind def
/MFwidth {0 exch {dup 3 get{dup dup 0 get findfont exch 1 get scalefont
     setfont 6 get stringwidth pop add} {pop} ifelse} forall} bind def
/MCshow { currentpoint stroke M
  exch dup MFwidth -2 div 3 -1 roll R MFshow } def
%
end
%%EndProlog
bkdict begin
0.1 0.1 scale
%
% Residuals:
%
GSN 620 4607 M
620 4331 L
620 4124 L
620 4356 L
620 4795 L
620 4088 L
620 3926 L
620 4244 L
620 4256 L
620 3920 L
620 4132 L
620 4301 L
620 4347 L
620 4325 L
620 4717 L
620 4479 L
620 4863 L
620 4412 L
620 4331 L
620 4381 L
620 4270 L
620 4160 L
620 4466 L
620 4683 L
620 4741 L
620 4117 L
620 4148 L
620 4447 L
620 4205 L
620 3914 L
620 4158 L
620 4234 L
620 4061 L
620 4442 L
620 4202 L
620 4170 L
620 4256 L
620 3920 L
620 4258 L
620 4485 L
620 4245 L
620 4270 L
620 4201 L
620 3956 L
620 4338 L
620 4168 L
620 4097 L
620 4268 L
620 3960 L
620 4035 L
620 4222 L
620 3847 L
620 4087 L
620 4249 L
620 4156 L
620 3908 L
620 4163 L
620 3984 L
620 4012 L
620 4187 L
620 4517 L
620 4194 L
620 4201 L
620 4111 L
620 4237 L
620 4050 L
620 3824 L
620 4095 L
620 3952 L
620 4087 L
620 4295 L
620 4053 L
620 4159 L
620 4585 L
620 4073 L
620 4412 L
620 3980 L
620 4061 L
620 4043 L
620 4652 L
620 4360 L
620 3835 L
620 4332 L
620 4158 L
620 4028 L
620 4456 L
620 4158 L
620 4242 L
620 4239 L
620 4443 L
620 4070 L
620 4064 L
620 4573 L
620 4414 L
620 4240 L
620 4273 L
620 4189 L
620 4151 L
620 4623 L
620 3889 L
620 4196 L
620 3938 L
620 4406 L
620 4623 L
620 4526 L
620 4037 L
620 4353 L
620 4209 L
620 4333 L
620 4447 L
620 4141 L
620 4258 L
620 4040 L
620 4256 L
620 3742 L
620 4285 L
620 4603 L
620 4469 L
620 4669 L
620 4068 L
620 4051 L
620 4469 L
620 4586 L
620 4271 L
620 4446 L
620 4389 L
620 4378 L
620 4373 L
620 4173 L
620 4121 L
620 4582 L
620 4211 L
620 4041 L
620 4533 L
620 3798 L
620 4349 L
620 4503 L
620 4566 L
620 4347 L
620 4562 L
620 4529 L
620 3980 L
620 4114 L
620 4199 L
620 4048 L
620 4282 L
620 4432 L
620 3783 L
620 4206 L
620 4294 L
620 4130 L
620 3982 L
620 4408 L
620 4384 L
620 4223 L
620 3767 L
620 4081 L
620 4274 L
620 4300 L
620 4201 L
620 3999 L
620 4037 L
620 4245 L
620 4476 L
620 3923 L
620 4053 L
620 4243 L
620 4642 L
620 4033 L
620 4334 L
620 4368 L
620 4244 L
620 3955 L
620 4005 L
620 4011 L
620 4369 L
620 3946 L
620 4232 L
620 4443 L
620 4046 L
620 4182 L
620 4176 L
620 4353 L
620 4182 L
620 4020 L
620 4212 L
620 4159 L
620 4112 L
620 4177 L
620 4519 L
620 4332 L
620 4201 L
620 3902 L
620 4253 L
620 3892 L
620 4324 L
620 4252 L
620 4580 L
620 4173 L
620 4079 L
620 4486 L
620 3913 L
620 4102 L
620 4219 L
620 4362 L
620 4719 L
620 4361 L
620 4173 L
620 4269 L
620 4128 L
620 4034 L
620 4164 L
620 3890 L
620 4246 L
620 4071 L
620 4192 L
620 3911 L
620 3920 L
620 4214 L
620 3902 L
620 3808 L
620 4376 L
620 4200 L
620 4190 L
620 3816 L
620 3992 L
620 4289 L
620 3884 L
620 3942 L
620 3947 L
620 3841 L
620 4206 L
620 4289 L
620 4536 L
620 3861 L
620 4186 L
620 3980 L
620 3963 L
620 4238 L
620 4106 L
620 4210 L
620 4169 L
620 3633 L
620 3973 L
620 4199 L
620 4129 L
620 4240 L
620 3906 L
620 3932 L
620 3990 L
620 4243 L
620 3831 L
620 3740 L
620 3937 L
620 4423 L
620 4347 L
620 3985 L
620 3732 L
620 4293 L
620 3720 L
620 3830 L
620 4099 L
620 3892 L
620 3931 L
620 4193 L
620 3328 L
620 4131 L
620 3977 L
620 4140 L
620 4265 L
620 3633 L
620 3960 L
620 4434 L
620 3966 L
620 4173 L
620 3941 L
620 3958 L
620 3611 L
620 3684 L
620 3955 L
620 4155 L
620 3728 L
620 4301 L
620 3811 L
620 3844 L
620 4401 L
620 3862 L
620 3673 L
620 4022 L
620 3697 L
620 3960 L
620 3591 L
620 3949 L
620 3829 L
620 3892 L
620 3797 L
620 3941 L
620 4107 L
620 4254 L
620 3544 L
620 3641 L
620 3978 L
620 4072 L
620 3464 L
620 3661 L
620 4131 L
620 3731 L
620 3953 L
620 3966 L
620 3725 L
620 3595 L
620 3699 L
620 3466 L
620 4027 L
620 3590 L
620 3780 L
620 4011 L
620 3968 L
620 3879 L
620 3970 L
620 4132 L
620 4217 L
620 3864 L
620 4089 L
620 3875 L
620 4034 L
620 3535 L
620 3843 L
620 3713 L
620 4041 L
620 3572 L
620 4002 L
620 3950 L
620 4146 L
620 4066 L
620 3868 L
620 3872 L
620 3764 L
620 3662 L
620 3940 L
620 3841 L
620 4003 L
620 4156 L
620 3939 L
620 3381 L
620 3658 L
620 3904 L
620 3948 L
620 3716 L
620 3636 L
620 3608 L
620 4010 L
620 3998 L
620 3337 L
620 3850 L
620 4016 L
620 3824 L
620 3616 L
620 3806 L
620 3673 L
620 3748 L
620 3824 L
620 3964 L
620 3800 L
620 3555 L
620 3872 L
620 3876 L
620 3858 L
620 3539 L
620 3319 L
620 3593 L
620 3752 L
620 3973 L
620 3743 L
620 3601 L
620 3853 L
620 3950 L
620 3770 L
620 3892 L
620 4026 L
620 3868 L
620 3682 L
620 3714 L
620 4050 L
620 3768 L
620 3815 L
620 3405 L
620 3464 L
620 3571 L
620 3891 L
620 3714 L
620 3392 L
620 3246 L
620 3529 L
620 3772 L
620 3723 L
620 3767 L
620 3662 L
620 3712 L
620 3436 L
620 3812 L
620 3447 L
620 3781 L
620 3885 L
620 3812 L
620 3531 L
620 3669 L
620 3422 L
620 3364 L
620 3617 L
620 3485 L
620 3485 L
620 3176 L
620 3600 L
620 3818 L
620 3592 L
620 4034 L
620 3865 L
620 3719 L
620 3916 L
620 3712 L
620 3582 L
620 3490 L
620 3148 L
620 3317 L
620 3631 L
620 3430 L
620 3701 L
620 3522 L
620 3407 L
620 3672 L
620 3396 L
620 3642 L
620 3502 L
620 3316 L
620 3699 L
620 3386 L
620 3402 L
620 3560 L
620 3132 L
620 3198 L
620 3593 L
620 3223 L
620 3463 L
620 3516 L
620 3293 L
620 3343 L
620 3306 L
620 3322 L
620 2968 L
620 3369 L
620 3484 L
620 3341 L
620 3472 L
620 2947 L
620 3845 L
620 3476 L
620 3271 L
620 3352 L
620 3246 L
620 3212 L
620 3017 L
620 2927 L
620 3306 L
620 3054 L
620 2819 L
620 3695 L
620 3360 L
620 3260 L
620 3161 L
620 3562 L
620 3258 L
620 3192 L
620 3335 L
620 3034 L
620 3109 L
620 3081 L
620 3314 L
620 3125 L
620 2848 L
620 3392 L
620 3302 L
620 3137 L
620 3022 L
620 3122 L
620 2945 L
620 3144 L
620 2948 L
620 3194 L
620 2995 L
620 3352 L
620 2818 L
620 3166 L
620 2734 L
620 2827 L
620 3222 L
620 3396 L
620 3368 L
620 2943 L
620 3142 L
620 3033 L
620 3241 L
620 2840 L
620 3182 L
620 2983 L
620 2856 L
620 3170 L
620 2788 L
620 2732 L
620 3173 L
620 3220 L
620 2949 L
620 2909 L
620 3244 L
620 3145 L
620 3046 L
620 2744 L
620 2912 L
620 2940 L
620 3096 L
620 2462 L
620 2981 L
620 2900 L
620 2965 L
620 2835 L
620 2990 L
620 2810 L
620 2860 L
620 2667 L
620 2630 L
620 3040 L
620 3164 L
620 3040 L
620 3130 L
620 2884 L
620 2502 L
620 3114 L
620 2897 L
620 2680 L
620 2608 L
620 3096 L
620 3077 L
620 2953 L
620 3059 L
620 3028 L
620 2853 L
620 2996 L
620 2726 L
620 2717 L
620 2670 L
620 3170 L
620 3087 L
620 3052 L
620 3071 L
620 3226 L
620 2667 L
620 2813 L
620 2857 L
620 3021 L
620 3161 L
620 3211 L
620 3161 L
620 3248 L
620 2686 L
620 2726 L
620 3195 L
620 3068 L
620 2801 L
620 3043 L
620 3149 L
620 3077 L
620 3136 L
620 2866 L
620 2735 L
620 2779 L
620 2885 L
620 2549 L
620 2844 L
620 2968 L
620 2701 L
620 2900 L
620 2683 L
620 2919 L
620 2906 L
620 2863 L
620 2947 L
620 2770 L
620 2785 L
620 2913 L
620 2506 L
620 2751 L
620 2664 L
620 2938 L
620 2990 L
620 2950 L
620 2832 L
620 2882 L
620 2742 L
620 2474 L
620 2568 L
620 2947 L
620 2481 L
620 2590 L
620 3130 L
620 2835 L
620 2916 L
620 2717 L
620 2736 L
620 2826 L
620 2804 L
620 2885 L
620 2847 L
620 2885 L
620 2580 L
620 2981 L
620 2549 L
620 2686 L
620 3142 L
620 2872 L
620 2848 L
620 2785 L
620 2773 L
620 3015 L
620 2900 L
620 2729 L
620 2729 L
620 3037 L
620 2574 L
620 2568 L
620 2742 L
620 2521 L
620 3028 L
620 2770 L
620 2953 L
620 2534 L
620 2692 L
620 2869 L
620 2823 L
620 2670 L
620 2642 L
620 2965 L
620 2829 L
620 2872 L
620 2643 L
620 2981 L
620 2565 L
620 2484 L
620 3018 L
620 2714 L
620 2773 L
620 2838 L
620 2739 L
620 2471 L
620 2487 L
620 2555 L
620 2583 L
620 3171 L
620 2388 L
620 2897 L
620 2580 L
620 2608 L
620 2664 L
620 2754 L
620 3111 L
620 2602 L
620 2527 L
620 2785 L
620 2978 L
620 2757 L
620 2888 L
620 2720 L
620 2472 L
620 2847 L
620 2919 L
620 2894 L
620 2664 L
620 2866 L
620 3357 L
620 3180 L
620 2748 L
620 2587 L
620 2456 L
620 2894 L
620 2689 L
620 2537 L
620 2608 L
620 2869 L
620 2925 L
620 2701 L
620 2711 L
620 2851 L
620 2795 L
620 2686 L
620 2931 L
620 2798 L
620 2531 L
620 2136 L
620 2754 L
620 2717 L
620 2888 L
620 2723 L
620 2767 L
620 2739 L
620 2577 L
620 3102 L
620 2490 L
620 3046 L
620 2592 L
620 2888 L
620 2972 L
620 2555 L
620 2385 L
620 2776 L
620 2468 L
620 2565 L
620 2621 L
620 2894 L
620 2639 L
620 2748 L
620 2468 L
620 2565 L
620 2621 L
620 2285 L
620 2341 L
620 2717 L
620 2521 L
620 3012 L
620 3133 L
620 2559 L
620 2782 L
620 2465 L
620 2437 L
620 2763 L
620 2627 L
620 2527 L
620 2512 L
620 2596 L
620 2733 L
620 2829 L
620 3093 L
620 2481 L
620 2447 L
620 2677 L
620 2689 L
620 2605 L
620 2673 L
620 2723 L
620 2813 L
620 2655 L
620 2788 L
620 2782 L
620 2711 L
620 2490 L
620 3012 L
620 2990 L
620 2540 L
620 2608 L
620 2788 L
620 2646 L
620 2804 L
620 2770 L
620 2630 L
620 2962 L
620 2838 L
620 2990 L
620 3084 L
620 2667 L
620 2698 L
620 2680 L
620 2521 L
620 2549 L
620 2947 L
620 2614 L
620 2900 L
620 3000 L
620 2471 L
620 2546 L
620 2717 L
620 2943 L
620 2574 L
620 2502 L
620 2919 L
620 2844 L
620 2795 L
620 2966 L
620 2879 L
620 2214 L
620 2919 L
620 2558 L
620 2471 L
620 2664 L
620 2583 L
620 2984 L
620 3124 L
620 2767 L
620 2655 L
620 2835 L
620 2658 L
620 2708 L
620 2928 L
620 3115 L
620 2726 L
620 2592 L
620 2689 L
620 3096 L
620 3006 L
620 2624 L
620 2938 L
620 3071 L
620 2844 L
620 2425 L
620 3018 L
620 2866 L
620 2702 L
620 3031 L
620 2823 L
620 2835 L
620 2661 L
620 2975 L
620 2785 L
620 2537 L
620 2801 L
620 2596 L
620 2993 L
620 2916 L
620 2791 L
620 2941 L
620 2959 L
620 2770 L
620 3043 L
620 2789 L
620 3239 L
620 3251 L
620 2729 L
620 2987 L
620 2764 L
620 2689 L
620 2723 L
620 3137 L
620 2627 L
620 2810 L
620 2661 L
620 2931 L
620 3015 L
620 2931 L
620 2807 L
620 2524 L
620 2848 L
620 2869 L
620 3102 L
620 2959 L
620 2975 L
620 3084 L
620 2677 L
620 2888 L
620 2549 L
620 2962 L
620 2801 L
620 2953 L
620 2776 L
620 3074 L
620 2906 L
620 2565 L
620 2969 L
620 2819 L
620 3053 L
620 2708 L
620 2987 L
620 2965 L
620 2993 L
620 2866 L
620 2810 L
620 2823 L
620 3158 L
620 2664 L
620 3217 L
620 3024 L
620 3006 L
620 2412 L
620 3071 L
620 2276 L
620 2711 L
620 3087 L
620 2872 L
620 2788 L
620 2643 L
620 2748 L
620 2624 L
620 3062 L
620 2984 L
620 2975 L
620 2658 L
620 3087 L
620 2509 L
620 2804 L
620 2658 L
620 2969 L
620 2683 L
620 2776 L
620 2353 L
620 2748 L
620 3217 L
620 2826 L
620 2552 L
620 2841 L
620 2770 L
620 2879 L
620 2798 L
620 3146 L
620 2670 L
620 2757 L
620 2789 L
620 2785 L
620 2503 L
620 2897 L
620 2879 L
620 2673 L
620 2695 L
620 2959 L
620 2642 L
620 2338 L
620 3164 L
620 2798 L
620 2810 L
620 2692 L
620 2913 L
620 3112 L
620 3077 L
620 2723 L
620 2453 L
620 3049 L
620 2801 L
620 2701 L
620 2916 L
620 2717 L
620 3621 L
620 2661 L
620 2776 L
620 2801 L
620 2664 L
620 2804 L
620 3037 L
620 3031 L
620 3264 L
620 2704 L
620 3444 L
620 3102 L
620 3071 L
620 2919 L
620 2835 L
620 2503 L
620 2913 L
620 2991 L
620 2649 L
620 2956 L
620 3130 L
620 2642 L
620 3124 L
620 2832 L
620 3000 L
620 2990 L
620 3077 L
620 2739 L
620 2614 L
620 3108 L
620 2527 L
620 3177 L
620 2558 L
620 2767 L
620 2838 L
620 2956 L
620 2655 L
620 2996 L
620 3077 L
620 3031 L
620 3043 L
620 2931 L
620 3000 L
620 3003 L
620 2953 L
620 2994 L
620 2795 L
620 3202 L
620 2714 L
620 2953 L
620 2645 L
620 3155 L
620 3214 L
620 3171 L
620 2680 L
620 2990 L
620 2997 L
620 3146 L
620 2630 L
620 2776 L
620 2754 L
620 2770 L
620 2878 L
620 3112 L
620 2717 L
620 2813 L
620 2829 L
620 2909 L
620 2925 L
620 2959 L
620 2838 L
620 2643 L
620 3224 L
620 2910 L
620 2990 L
620 2975 L
620 2978 L
620 3323 L
620 2590 L
620 2651 L
620 3043 L
620 3124 L
620 2857 L
620 2869 L
620 2935 L
620 2680 L
620 2950 L
620 2770 L
620 2987 L
620 2959 L
620 2764 L
620 2863 L
620 2941 L
620 2213 L
620 3124 L
620 2748 L
620 3164 L
620 2751 L
620 2903 L
620 2906 L
620 3180 L
620 3112 L
620 2984 L
620 2711 L
620 3180 L
620 3077 L
620 2978 L
620 3053 L
620 3422 L
620 3267 L
620 2683 L
620 2925 L
620 3074 L
620 3254 L
620 3080 L
620 3077 L
620 3314 L
620 3112 L
620 3230 L
620 3068 L
620 2928 L
620 2804 L
620 3021 L
620 3394 L
620 2571 L
620 3102 L
620 3258 L
620 2975 L
620 2807 L
620 2813 L
620 3357 L
620 3018 L
620 2767 L
620 3239 L
620 2910 L
620 3220 L
620 2990 L
620 2863 L
620 3046 L
620 3133 L
620 3158 L
620 3168 L
620 2972 L
620 2788 L
620 2819 L
620 3198 L
620 2621 L
620 2928 L
620 3152 L
620 3152 L
620 3208 L
620 3158 L
620 3217 L
620 3363 L
620 2869 L
620 3447 L
620 3049 L
620 2844 L
620 2782 L
620 2869 L
620 3012 L
620 3059 L
620 2689 L
620 2937 L
620 2879 L
620 3090 L
620 2900 L
620 3034 L
620 2813 L
620 3124 L
620 3401 L
620 3149 L
620 3074 L
620 3183 L
620 2602 L
620 3254 L
620 2739 L
620 3292 L
620 3273 L
620 2608 L
620 2922 L
620 3059 L
620 3497 L
620 2987 L
620 3180 L
620 2972 L
620 3177 L
620 3121 L
620 3009 L
620 2916 L
620 3286 L
620 3083 L
620 3090 L
620 3090 L
620 2978 L
620 2878 L
620 3345 L
620 3136 L
620 2835 L
620 3037 L
620 3326 L
620 2633 L
620 3028 L
620 2590 L
620 2568 L
620 2667 L
620 3000 L
620 2779 L
620 3301 L
620 2729 L
620 2965 L
620 3074 L
620 3248 L
620 3298 L
620 2996 L
620 3195 L
620 3242 L
620 3366 L
620 2869 L
620 2975 L
620 3404 L
620 2763 L
620 3024 L
620 2621 L
620 3180 L
620 3363 L
620 2829 L
620 2950 L
620 3242 L
620 3161 L
620 3171 L
620 3105 L
620 3021 L
620 2962 L
620 3211 L
620 3136 L
620 3031 L
620 3183 L
620 3354 L
620 2882 L
620 2981 L
620 3357 L
620 2996 L
620 3500 L
620 2655 L
620 2978 L
620 3224 L
620 2941 L
620 3143 L
620 3000 L
620 3083 L
620 2966 L
620 3068 L
620 3307 L
620 3230 L
620 2972 L
620 3158 L
620 3071 L
620 2841 L
620 2649 L
620 3205 L
620 2962 L
620 3379 L
620 2897 L
620 2723 L
620 2909 L
620 3317 L
620 2997 L
620 3071 L
620 3326 L
620 2882 L
620 2801 L
620 3202 L
620 3351 L
620 2975 L
620 2863 L
620 2978 L
620 3217 L
620 2944 L
620 3031 L
620 3102 L
620 3230 L
620 2913 L
620 3562 L
620 3276 L
620 3031 L
620 2965 L
620 2844 L
620 3550 L
620 3220 L
620 3025 L
620 3295 L
620 3028 L
620 3239 L
620 3348 L
620 3115 L
620 2838 L
620 3205 L
620 3273 L
620 3428 L
620 2888 L
620 3239 L
620 3646 L
620 2723 L
620 3096 L
620 3155 L
620 3286 L
620 3164 L
620 3115 L
620 2736 L
620 3391 L
620 3065 L
620 2965 L
620 3310 L
620 3276 L
620 3270 L
620 3009 L
620 3158 L
620 3500 L
620 3009 L
620 2866 L
620 2624 L
620 3456 L
620 3360 L
620 3077 L
620 3435 L
620 3149 L
620 3177 L
620 2568 L
620 2832 L
620 3562 L
620 3062 L
620 3366 L
620 3432 L
620 3059 L
620 3236 L
620 3161 L
620 3289 L
620 3161 L
620 2953 L
620 2997 L
620 3009 L
620 2847 L
620 3124 L
620 3059 L
620 2913 L
620 2838 L
620 3130 L
620 3369 L
620 3332 L
620 3121 L
620 2785 L
620 3227 L
620 3264 L
620 3404 L
620 3118 L
620 3587 L
620 3453 L
620 3310 L
620 2962 L
620 2888 L
620 3453 L
620 2869 L
620 3006 L
620 3025 L
620 2742 L
620 3677 L
620 2816 L
620 3307 L
620 3342 L
620 2947 L
620 3370 L
620 3112 L
620 2751 L
620 3152 L
620 2704 L
620 3049 L
620 3438 L
620 3229 L
620 3413 L
620 2872 L
620 3528 L
620 3320 L
620 3509 L
620 3024 L
620 3652 L
620 3096 L
620 3397 L
620 3413 L
620 3460 L
620 3416 L
620 2866 L
620 3562 L
620 3171 L
620 3323 L
620 3164 L
620 2909 L
620 3568 L
620 3466 L
620 3251 L
620 3211 L
620 2810 L
620 3276 L
620 3286 L
620 3074 L
620 3602 L
620 3280 L
620 3133 L
620 3211 L
620 3115 L
620 3534 L
620 3074 L
620 3429 L
620 3202 L
620 3242 L
620 3183 L
620 3500 L
620 3121 L
620 3301 L
620 3208 L
620 2767 L
620 3575 L
620 2720 L
620 3245 L
620 3214 L
620 2798 L
620 3130 L
620 3686 L
620 3183 L
620 3282 L
620 3500 L
620 3261 L
620 3528 L
620 3314 L
620 2913 L
620 3606 L
620 3270 L
620 3512 L
620 3338 L
620 2953 L
620 3205 L
620 3077 L
620 3516 L
620 3264 L
620 3034 L
620 3593 L
620 3397 L
620 3435 L
620 3211 L
620 3105 L
620 3385 L
620 3108 L
620 3370 L
620 3112 L
620 3112 L
620 2882 L
620 3065 L
620 2978 L
620 3425 L
620 3149 L
620 3208 L
620 3258 L
620 3460 L
620 3084 L
620 3108 L
620 2950 L
620 3307 L
620 3310 L
620 3332 L
620 2767 L
620 3105 L
620 3289 L
620 3214 L
620 3665 L
620 3652 L
620 3323 L
620 3239 L
620 3143 L
620 3254 L
620 3407 L
620 3242 L
620 3028 L
620 3329 L
620 3764 L
620 3059 L
620 3102 L
620 3637 L
620 3177 L
620 3137 L
620 3400 L
620 3494 L
620 3568 L
620 3186 L
620 3258 L
620 2928 L
620 3046 L
620 3441 L
620 3304 L
620 3941 L
620 3456 L
620 3435 L
620 3314 L
620 3202 L
620 3519 L
620 3052 L
620 3571 L
620 3528 L
620 3298 L
620 3236 L
620 3043 L
620 3410 L
620 3509 L
620 3950 L
620 3758 L
620 3416 L
620 3292 L
620 3413 L
620 3456 L
620 3671 L
620 3062 L
620 3519 L
620 2950 L
620 3342 L
620 3503 L
620 3441 L
620 3556 L
620 3152 L
620 3478 L
620 3338 L
620 3860 L
620 3469 L
620 3714 L
620 3227 L
620 3519 L
620 3674 L
620 3652 L
620 3313 L
620 3245 L
620 3155 L
620 3192 L
620 3727 L
620 3028 L
620 3466 L
620 3295 L
620 3671 L
620 3283 L
620 3301 L
620 3531 L
620 3192 L
620 3637 L
620 3429 L
620 3332 L
620 3543 L
620 3534 L
620 3037 L
620 3254 L
620 3115 L
620 3404 L
620 3546 L
620 3658 L
620 3559 L
620 3357 L
620 3292 L
620 3546 L
620 3637 L
620 3012 L
620 3534 L
620 3074 L
620 3453 L
620 3388 L
620 3230 L
620 3466 L
620 3214 L
620 3140 L
620 3478 L
620 3239 L
620 3404 L
620 3714 L
620 3801 L
620 3752 L
620 3289 L
620 3217 L
620 3388 L
620 3230 L
620 3571 L
620 3596 L
620 3550 L
620 3292 L
620 3730 L
620 3112 L
620 3264 L
620 3404 L
620 3646 L
620 3525 L
620 3441 L
620 3491 L
620 3435 L
620 3049 L
620 3425 L
620 3217 L
620 3795 L
620 3357 L
620 3699 L
620 3214 L
620 3718 L
620 3348 L
620 3655 L
620 3522 L
620 3248 L
620 3705 L
620 3394 L
620 3404 L
620 3413 L
620 3177 L
620 3478 L
620 3345 L
620 3494 L
620 2965 L
620 3174 L
620 3665 L
620 3559 L
620 3525 L
620 3292 L
620 3177 L
620 3615 L
620 3198 L
620 3512 L
620 3149 L
620 3195 L
620 3164 L
620 3279 L
620 3171 L
620 3894 L
620 2937 L
620 3351 L
620 3354 L
620 3689 L
620 3798 L
620 3643 L
620 3410 L
620 3370 L
620 3068 L
620 3516 L
620 3286 L
620 3261 L
620 3323 L
620 3077 L
620 3416 L
620 3320 L
620 3692 L
620 3344 L
620 3043 L
620 3034 L
620 3714 L
620 3310 L
620 3537 L
620 3516 L
620 3677 L
620 3037 L
620 3242 L
620 3065 L
620 3450 L
620 3211 L
620 3519 L
620 3438 L
620 3764 L
620 3192 L
620 3512 L
620 3224 L
620 3217 L
620 3851 L
620 3512 L
620 3276 L
620 3422 L
620 3522 L
620 3236 L
620 3196 L
620 3065 L
620 3229 L
620 3419 L
620 3540 L
620 3345 L
620 3248 L
620 3279 L
620 3556 L
620 2878 L
620 3155 L
620 3254 L
620 3833 L
620 3512 L
620 3354 L
620 3553 L
620 3407 L
620 3317 L
620 3394 L
620 3736 L
620 3444 L
620 3279 L
620 3332 L
620 3202 L
620 3152 L
620 3317 L
620 3525 L
620 3024 L
620 3522 L
620 3009 L
620 3046 L
620 3478 L
620 3326 L
620 3385 L
620 3261 L
620 3317 L
620 3248 L
620 3282 L
620 3298 L
620 3494 L
620 3434 L
620 2850 L
620 3484 L
620 3124 L
620 3792 L
620 3469 L
620 3540 L
620 3522 L
620 3205 L
620 3326 L
620 3491 L
620 3183 L
620 3211 L
620 3112 L
620 3021 L
620 3196 L
620 3366 L
620 3264 L
620 3289 L
620 3307 L
620 3320 L
620 3702 L
620 3615 L
620 3186 L
620 3357 L
620 3363 L
620 3578 L
620 3546 L
620 3286 L
620 3627 L
620 3472 L
620 3512 L
620 3599 L
620 3407 L
620 3239 L
620 3761 L
620 3242 L
620 3003 L
620 3242 L
620 3317 L
620 3183 L
620 3077 L
620 3211 L
620 3000 L
620 3214 L
620 3571 L
620 3373 L
620 3572 L
620 3214 L
620 3112 L
620 3432 L
620 3537 L
620 3254 L
620 3223 L
620 3543 L
620 3546 L
620 3357 L
620 3596 L
620 3627 L
620 3372 L
620 3251 L
620 3295 L
620 3115 L
620 3475 L
620 3164 L
620 3264 L
620 3441 L
620 3307 L
620 3137 L
620 3488 L
620 3217 L
620 3155 L
620 3301 L
620 3090 L
620 3283 L
620 3338 L
620 3394 L
620 3292 L
620 3388 L
620 3410 L
620 3537 L
620 3419 L
620 3254 L
620 3341 L
620 3671 L
620 3285 L
620 2931 L
620 3049 L
620 3509 L
620 3224 L
620 2810 L
620 3416 L
620 3254 L
620 3435 L
620 3096 L
620 3087 L
620 3009 L
620 3370 L
620 3112 L
620 3578 L
620 2888 L
620 3391 L
620 3283 L
620 3593 L
620 3484 L
620 3519 L
L2 C01 COSGR

%
%================
% Legend - Begin
%================
%
GSN 4240 5180 M
4480 5180 L
LWMC SL  C01 COSGR
GSN 4540 5141 M helvM (0.5 uM) show grestore
%
%================
% Legend - End
%================
%

%
% Main frame
%
L10
GSN 
620 1700 M
4220 1700 L
4220 5300 L
620 5300 L
closepath SGR

%
% X axis: large tics
%
L10
%
% X axis: small tics
%
L5
%
% Y axis: large tics
%
L10
GSN 620 2087 M 54 0 rL SGR
GSN 4220 2087 M -54 0 rL SGR
helvS (-0.02) 560 2087 ylabel
GSN 620 3309 M 54 0 rL SGR
GSN 4220 3309 M -54 0 rL SGR
helvS (0) 560 3309 ylabel
GSN 620 4530 M 54 0 rL SGR
GSN 4220 4530 M -54 0 rL SGR
helvS (0.02) 560 4530 ylabel
%
% Y axis: small tics
%
L5
GSN 620 1781 M 36 0 rL SGR
GSN 4220 1781 M -36 0 rL SGR
GSN 620 2087 M 36 0 rL SGR
GSN 4220 2087 M -36 0 rL SGR
GSN 620 2392 M 36 0 rL SGR
GSN 4220 2392 M -36 0 rL SGR
GSN 620 2698 M 36 0 rL SGR
GSN 4220 2698 M -36 0 rL SGR
GSN 620 3003 M 36 0 rL SGR
GSN 4220 3003 M -36 0 rL SGR
GSN 620 3309 M 36 0 rL SGR
GSN 4220 3309 M -36 0 rL SGR
GSN 620 3614 M 36 0 rL SGR
GSN 4220 3614 M -36 0 rL SGR
GSN 620 3919 M 36 0 rL SGR
GSN 4220 3919 M -36 0 rL SGR
GSN 620 4225 M 36 0 rL SGR
GSN 4220 4225 M -36 0 rL SGR
GSN 620 4530 M 36 0 rL SGR
GSN 4220 4530 M -36 0 rL SGR
GSN 620 4836 M 36 0 rL SGR
GSN 4220 4836 M -36 0 rL SGR
GSN 620 5141 M 36 0 rL SGR
GSN 4220 5141 M -36 0 rL SGR

%
% X axis - residual panel
%
GSN L5 620 3309 M 4220 3309 L SDA G50 SGR

%
% X-Axis label:
%
gsave 620 1370 M 
[
[(Helvetica) 180 0 true true 0 (t)]
[(Helvetica) 180 0 true true 0 (i)]
[(Helvetica) 180 0 true true 0 (m)]
[(Helvetica) 180 0 true true 0 (e)]
] 0 MCshow grestore

%
% Y-Axis label:
%
gsave 234 3499 M 
currentpoint gsave translate 90 rotate 0 0 moveto
[
[(Helvetica) 180 0 true true 0 (r)]
[(Helvetica) 180 0 true true 0 (e)]
[(Helvetica) 180 0 true true 0 (s)]
[(Helvetica) 180 0 true true 0 (i)]
[(Helvetica) 180 0 true true 0 (d)]
[(Helvetica) 180 0 true true 0 (u)]
[(Helvetica) 180 0 true true 0 (a)]
[(Helvetica) 180 0 true true 0 (l)]
[(Helvetica) 180 0 true true 0 (s)]
] 0 MCshow grestore

end
showpage
%%Trailer
%%EOF
