%!PS-Adobe-3.0 EPSF-3.0
%%BoundingBox: 0 0 514 550
%%Creator: BioKin Ltd.
%%DocumentFonts: Symbol Helvetica
%%EndComments
%
/bkdict 256 dict def
bkdict begin
/M {moveto} def 
/R {rmoveto} def
/L {lineto} def
/rL {rlineto} def
/GSN {gsave newpath} def
/SGR {stroke grestore} def
/COSGR {gsave setrgbcolor stroke grestore grestore} def
/SL {setlinewidth} def
/LWMB {12} def             % line width - model curves, black & white
/LWMC {10} def             % line width - model curves, color
/L2 {2.5 setlinewidth} def
/L5 {5 setlinewidth} def
/L10 {10 setlinewidth} def
/G50 {0.5 setgray} def
/SDA {[10  20] 0 setdash} def % axes
/helvT {/Helvetica findfont 100 scalefont setfont} def % tiny
/helvS {/Helvetica findfont 125 scalefont setfont} def % small
/helvM {/Helvetica findfont 150 scalefont setfont} def % medium
/helvL {/Helvetica findfont 175 scalefont setfont} def % large
/xlabel {gsave M dup
   stringwidth exch -0.5 mul exch rmoveto show grestore} def 
/ylabel {gsave M 90 rotate dup
   stringwidth exch -0.5 mul exch rmoveto show grestore} def
/ylabelresid {gsave M dup
   stringwidth exch -1 mul exch rmoveto show grestore} def
% ======
% Shapes
% ======
% Circle:
/Circ {0 360 arc closepath} def
%
% Square:
/Squa {dup dup -0.5 mul dup dup R -2 mul 0 exch rL 1 mul 0 rL dup 0 exch -1 mul rL closepath} def
%
% Triangle Up:
/TriU {dup dup dup -0.4 mul exch -0.5 mul exch R dup 0.5 mul exch rL dup -1 mul exch 0.5 mul exch rL closepath} def 
%
% Triangle Down:
/TriD {dup dup dup 0.4 mul exch -0.5 mul exch R dup 0.5 mul exch -1 mul rL dup 0.5 mul exch rL closepath} def 
%
% Diamond:
/Diam {45 rotate Squa} def
% ======
% Fills
% ======
/GRF {gsave setgray fill grestore} def                    % gray-level Fill
/COF {gsave setrgbcolor fill grestore} def                % color fill
% ======
% Colors
% ======
/C01 {1.00	0.00	0.00} def      % Red
/C02 {0.00	0.00	1.00} def      % Blue
/C03 {0.00	0.39	0.00} def      % Dark Green
/C04 {0.78	0.08	0.52} def      % Medium Violet Red
/C05 {0.55	0.27	0.07} def      % Saddle Brown
/C06 {0.10	0.70	0.70} def      % (cyan)
/C07 {1.00	0.55	0.00} def      % Dark Orange
/C08 {0.63	0.13	0.94} def      % Purple
/C09 {0.00	0.75	1.00} def      % Deep Sky Blue
/C10 {0.20	0.80	0.20} def      % Lime Green
/C11 {0.47	0.53	0.60} def      % Light Slate Gray
/C12 {0.00	0.00	0.00} def      % Black            % or: {0.19	0.31	0.31} def      % Dark Slate Gray
%
/LGR {0.75} def % light gray
/DGR {0.33} def % dark gray
%
% =============
% Dash patterns
% =============
/dash01 { [80  20] 0 setdash } def
/dash02 { [40  20] 0 setdash } def
/dash03 { [80  20  10  20] 0 setdash } def
/dash04 { [40  20  10  20] 0 setdash } def
/dash05 { [80  20  10  10  10  20] 0 setdash } def
/dash06 { [40  20  10  10  10  20] 0 setdash } def
/dash07 { [10  10] 0 setdash } def
%
/MFshow {
   { dup 5 get 3 ge
     { 5 get 3 eq {gsave} {grestore} ifelse }
     {dup dup 0 get findfont exch 1 get scalefont setfont
     [ currentpoint ] exch dup 2 get 0 exch R dup 5 get 2 ne {dup dup 6
     get exch 4 get {show} {stringwidth pop 0 R} ifelse }if dup 5 get 0 eq
     {dup 3 get {2 get neg 0 exch R pop} {pop aload pop M} ifelse} {dup 5
     get 1 eq {dup 2 get exch dup 3 get exch 6 get stringwidth pop -2 div
     dup 0 R} {dup 6 get stringwidth pop -2 div 0 R 6 get
     show 2 index {aload pop M neg 3 -1 roll neg R pop pop} {pop pop pop
     pop aload pop M} ifelse }ifelse }ifelse }
     ifelse }
   forall} bind def
/MFwidth {0 exch {dup 3 get{dup dup 0 get findfont exch 1 get scalefont
     setfont 6 get stringwidth pop add} {pop} ifelse} forall} bind def
/MCshow { currentpoint stroke M
  exch dup MFwidth -2 div 3 -1 roll R MFshow } def
%
end
%%EndProlog
bkdict begin
0.1 0.1 scale
%
% Model curves:
%

GSN 753 4959 M
753 4959 L
786 4958 L
820 4958 L
853 4958 L
886 4958 L
903 4958 L
919 4958 L
953 4957 L
986 4957 L
1020 4957 L
1053 4956 L
1053 4956 L
1086 4956 L
1120 4955 L
1153 4954 L
1186 4954 L
1203 4953 L
1220 4953 L
1253 4951 L
1286 4950 L
1320 4949 L
1353 4947 L
1353 4947 L
1386 4945 L
1420 4942 L
1453 4939 L
1486 4936 L
1503 4934 L
1520 4932 L
1553 4928 L
1586 4922 L
1620 4916 L
1653 4909 L
1653 4909 L
1686 4901 L
1720 4891 L
1753 4880 L
1786 4867 L
1804 4860 L
1820 4852 L
1853 4835 L
1886 4815 L
1920 4792 L
1953 4765 L
1954 4765 L
1986 4735 L
2020 4699 L
2053 4659 L
2086 4613 L
2104 4586 L
2120 4561 L
2153 4501 L
2186 4434 L
2220 4358 L
2253 4273 L
2254 4271 L
2286 4179 L
2320 4076 L
2353 3962 L
2386 3839 L
2404 3770 L
2420 3708 L
2453 3568 L
2486 3421 L
2520 3270 L
2553 3116 L
2554 3110 L
2586 2962 L
2620 2812 L
2653 2669 L
2686 2536 L
2704 2470 L
2720 2418 L
2753 2316 L
2786 2235 L
2820 2176 L
2853 2141 L
2854 2140 L
2886 2129 L
2920 2140 L
2953 2172 L
2986 2220 L
3004 2251 L
3020 2280 L
3053 2346 L
3068 2376 L
3086 2412 L
3120 2472 L
3153 2524 L
3155 2526 L
3186 2563 L
3220 2591 L
3253 2609 L
3286 2619 L
3305 2622 L
3320 2624 L
3353 2626 L
3386 2626 L
3420 2627 L
3453 2627 L
3455 2627 L
3486 2627 L
3520 2627 L
3553 2627 L
3586 2627 L
3605 2627 L
3620 2627 L
3653 2627 L
3686 2627 L
3720 2627 L
3753 2627 L
3755 2627 L
3786 2627 L
3820 2627 L
3853 2627 L
3886 2627 L
3905 2627 L
3920 2627 L
3953 2627 L
3986 2627 L
4020 2627 L
4053 2627 L
4086 2627 L
LWMC SL  C03 COSGR

%
% Experimental data:
%
GSN 773 4936 M
1625 4728 L
1773 4804 L
1860 5166 L
1922 5101 L
1970 4881 L
2009 4816 L
2043 4688 L
2072 4661 L
2097 4630 L
2120 4530 L
2140 4668 L
2159 4418 L
2176 4548 L
2192 4526 L
2207 4377 L
2221 4322 L
2234 4344 L
2247 4234 L
2259 4309 L
2270 4209 L
2280 4188 L
2290 4249 L
2300 4278 L
2309 3975 L
2318 4115 L
2326 4309 L
2335 4068 L
2342 4086 L
2350 4026 L
2357 3965 L
2364 3947 L
2371 3803 L
2378 4020 L
2384 3933 L
2391 3880 L
2397 3728 L
2403 3931 L
2409 3892 L
2414 3694 L
2420 3710 L
2425 3705 L
2430 3727 L
2435 3527 L
2440 3464 L
2445 3736 L
2450 3557 L
2455 3433 L
2459 3469 L
2464 3596 L
2468 3263 L
2472 3311 L
2476 3449 L
2481 3497 L
2485 3309 L
2489 3473 L
2492 3453 L
2496 3376 L
2500 3199 L
2504 3431 L
2507 3541 L
2511 3397 L
2514 3142 L
2518 3024 L
2521 3255 L
2525 3152 L
2528 3137 L
2531 3178 L
2534 3222 L
2538 2979 L
2541 3373 L
2544 3115 L
2547 3065 L
2550 3040 L
2553 3171 L
2556 2895 L
2559 3289 L
2561 3144 L
2564 3224 L
2567 2960 L
2570 3050 L
2580 2937 L
2590 2899 L
2600 2798 L
2609 2727 L
2618 2706 L
2627 2712 L
2635 2837 L
2643 2552 L
2650 2566 L
2658 2762 L
2665 2568 L
2672 2584 L
2678 2512 L
2685 2484 L
2691 2519 L
2697 2196 L
2703 2460 L
2709 2376 L
2714 2318 L
2720 2369 L
2725 2312 L
2730 2076 L
2735 2176 L
2740 2433 L
2745 2149 L
2750 2271 L
2755 2411 L
2759 2167 L
2764 2194 L
2768 2026 L
2772 1964 L
2777 2063 L
2781 2013 L
2785 2053 L
2789 2024 L
2793 2088 L
2796 2025 L
2800 2017 L
2804 2135 L
2808 1918 L
2811 2004 L
2815 2030 L
2818 2005 L
2822 1891 L
2825 1963 L
2828 2173 L
2831 2009 L
2835 2052 L
2838 1890 L
2841 2078 L
2844 2057 L
2847 1932 L
2850 1848 L
2853 2329 L
2856 2053 L
2859 1915 L
2862 1833 L
2864 2038 L
2867 2137 L
2870 1922 L
2873 1974 L
2875 2245 L
2878 2043 L
2880 2083 L
2883 2138 L
2886 2012 L
2888 2159 L
2891 1922 L
2893 1999 L
2895 2156 L
2898 2091 L
2900 2127 L
2902 1996 L
2905 2166 L
2907 2299 L
2909 2040 L
2912 2236 L
2914 1995 L
2916 2037 L
2918 2178 L
2920 1960 L
2922 2220 L
2925 2266 L
2927 2137 L
2929 2142 L
2931 2061 L
2933 2235 L
2935 2162 L
2937 1902 L
2939 2070 L
2941 2298 L
2943 2183 L
2945 2021 L
2947 2031 L
2948 2213 L
2950 2252 L
2952 1997 L
2954 2215 L
2956 2048 L
2958 2135 L
2959 2145 L
2961 1956 L
2963 2343 L
2965 2148 L
2966 2163 L
2968 2483 L
2970 2298 L
2972 2345 L
2973 2351 L
2975 2342 L
2977 2171 L
2978 2208 L
2980 2236 L
2982 1911 L
2983 2123 L
2985 2320 L
2986 2334 L
2988 2126 L
2989 2141 L
2991 2342 L
2993 2229 L
2994 2287 L
2996 2411 L
2997 2197 L
2999 2305 L
3000 2224 L
3002 2269 L
3003 2226 L
3005 2389 L
3006 2435 L
3007 2423 L
3009 2248 L
3010 2313 L
3012 2187 L
3013 2435 L
3014 2222 L
3016 2327 L
3017 2480 L
3019 2331 L
3020 2387 L
3021 2420 L
3023 2310 L
3024 2253 L
3025 2322 L
3027 2489 L
3028 2449 L
3029 2385 L
3031 2493 L
3032 2372 L
3033 2226 L
3034 2379 L
3036 2279 L
3037 2428 L
3038 2355 L
3039 2427 L
3041 2452 L
3042 2540 L
3043 2377 L
3044 2417 L
3045 2502 L
3047 2339 L
3048 2499 L
3049 2416 L
3050 2429 L
3051 2276 L
3053 2199 L
3054 2612 L
3055 2566 L
3056 2540 L
3057 2502 L
3058 2338 L
3059 2580 L
3061 2332 L
3062 2510 L
3063 2551 L
3064 2600 L
3065 2652 L
3066 2530 L
3067 2478 L
3068 2486 L
3069 2378 L
3070 2535 L
3071 2526 L
3073 2593 L
3074 2543 L
3075 2648 L
3076 2371 L
3077 2618 L
3078 2381 L
3079 2660 L
3080 2342 L
3081 2405 L
3082 2337 L
3083 2625 L
3084 2393 L
3085 2596 L
3086 2320 L
3087 2559 L
3088 2685 L
3089 2544 L
3112 2767 L
3133 2767 L
3152 2840 L
3170 2687 L
3186 2655 L
3201 2910 L
3216 2872 L
3229 2535 L
3241 2759 L
3253 2799 L
3264 2767 L
3275 2884 L
3285 3001 L
3295 2855 L
3304 2873 L
3313 2881 L
3322 2912 L
3330 2903 L
3338 2947 L
3346 2886 L
3353 2684 L
3360 2709 L
3367 2749 L
3374 2776 L
3380 3016 L
3387 2829 L
3393 2966 L
3399 2884 L
3405 3048 L
3410 2995 L
3416 2877 L
3421 3034 L
3426 2825 L
3431 3050 L
3436 2822 L
3441 3057 L
3446 2849 L
3451 2983 L
3455 2990 L
3460 2816 L
3464 2847 L
3469 2871 L
3473 2853 L
3477 2951 L
3481 2762 L
3485 3035 L
3489 2807 L
3493 2660 L
3496 2906 L
3500 2577 L
3504 2824 L
3507 2766 L
3511 2815 L
3514 2640 L
3518 3079 L
3521 2588 L
3525 2778 L
3528 2829 L
3531 2906 L
3534 2721 L
3537 2804 L
3540 2860 L
3543 2864 L
3546 2890 L
3549 2867 L
3552 2825 L
3555 2775 L
3558 2561 L
3561 2520 L
3564 2880 L
3566 2860 L
3575 2759 L
3586 2638 L
3595 2727 L
3605 2836 L
3613 2808 L
3622 2810 L
3630 2773 L
3638 2830 L
3646 2756 L
3653 2840 L
3660 2675 L
3667 2499 L
3674 2674 L
3681 2704 L
3687 2825 L
3693 2699 L
3699 2668 L
3705 2827 L
3710 3014 L
3716 2627 L
3721 2717 L
3727 2755 L
3732 2785 L
3737 2662 L
3742 2578 L
3746 2532 L
3751 2624 L
3756 2908 L
3760 2836 L
3764 2578 L
3769 2658 L
3773 2619 L
3777 2588 L
3781 2483 L
3785 2760 L
3789 2516 L
3793 2584 L
3797 2740 L
3800 2827 L
3804 2459 L
3808 2652 L
3811 2696 L
3815 2550 L
3818 2491 L
3821 2654 L
3825 2613 L
3828 2411 L
3831 2596 L
3834 2494 L
3838 2706 L
3841 2758 L
3844 2515 L
3847 2415 L
3850 2766 L
3853 2400 L
3855 2530 L
3858 2706 L
3861 2626 L
3864 2547 L
3867 2567 L
3869 2548 L
3872 2574 L
3875 2698 L
3877 2498 L
3880 2448 L
3882 2509 L
3885 2578 L
3887 2660 L
3890 2396 L
3892 2575 L
3895 2474 L
3897 2549 L
3899 2520 L
3902 2554 L
3904 2556 L
3906 2361 L
3908 2774 L
3911 2532 L
3913 2563 L
3915 2563 L
3917 2242 L
3919 2580 L
3921 2439 L
3923 2662 L
3926 2486 L
3928 2593 L
3930 2569 L
3932 2620 L
3934 2573 L
3936 2576 L
3938 2593 L
3940 2430 L
3942 2582 L
3943 2386 L
3945 2453 L
3947 2668 L
3949 2463 L
3951 2586 L
3953 2612 L
3955 2624 L
3956 2439 L
3958 2331 L
3960 2433 L
3962 2324 L
3963 2550 L
3965 2554 L
3967 2461 L
3969 2429 L
3970 2412 L
3972 2396 L
3974 2449 L
3975 2537 L
3977 2489 L
3978 2281 L
3980 2476 L
3982 2523 L
3983 2442 L
3985 2238 L
3986 2358 L
3988 2646 L
3990 2533 L
3991 2490 L
3993 2309 L
3994 2293 L
3996 2382 L
3997 2338 L
3999 2520 L
4000 2325 L
4001 2283 L
4003 2485 L
4004 2453 L
4006 2458 L
4007 2662 L
4009 2324 L
4010 2536 L
4011 2449 L
4013 2246 L
4014 2296 L
4016 2438 L
4017 2492 L
4018 2390 L
4020 2394 L
4021 2479 L
4022 2493 L
4024 2673 L
4025 2575 L
4026 2641 L
4028 2353 L
4029 2393 L
4030 2503 L
4031 2522 L
4033 2392 L
4034 2442 L
4035 2351 L
4036 2557 L
4038 2387 L
4039 2427 L
4040 2587 L
4041 2625 L
4042 2441 L
4044 2501 L
4045 2531 L
4046 2499 L
4047 2306 L
4048 2483 L
4050 2570 L
4051 2364 L
4052 2458 L
4053 2439 L
4054 2482 L
4055 2298 L
4056 2478 L
4058 2506 L
4059 2614 L
4060 2382 L
4061 2504 L
4062 2336 L
4063 2516 L
4064 2426 L
4065 2489 L
4066 2471 L
L2 C03 COSGR

%
%================
% Legend - Begin
%================
%
GSN 4240 5180 M
4480 5180 L
LWMC SL  C03 COSGR
GSN 4540 5141 M helvM (1.5 uM) show grestore
%
%================
% Legend - End
%================
%

%
% Residuals:
%
GSN 773 1107 M
1625 946 L
1773 1061 L
1860 1454 L
1922 1431 L
1970 1256 L
2009 1231 L
2043 1144 L
2072 1154 L
2097 1161 L
2120 1099 L
2140 1268 L
2159 1060 L
2176 1219 L
2192 1231 L
2207 1119 L
2221 1097 L
2234 1150 L
2247 1074 L
2259 1178 L
2270 1110 L
2280 1120 L
2290 1208 L
2300 1264 L
2309 998 L
2318 1162 L
2326 1378 L
2335 1170 L
2342 1213 L
2350 1180 L
2357 1147 L
2364 1154 L
2371 1038 L
2378 1274 L
2384 1213 L
2391 1184 L
2397 1060 L
2403 1280 L
2409 1265 L
2414 1094 L
2420 1132 L
2425 1147 L
2430 1190 L
2435 1016 L
2440 975 L
2445 1260 L
2450 1105 L
2455 1005 L
2459 1059 L
2464 1201 L
2468 896 L
2472 961 L
2476 1114 L
2481 1178 L
2485 1013 L
2489 1189 L
2492 1187 L
2496 1129 L
2500 973 L
2504 1215 L
2507 1338 L
2511 1214 L
2514 982 L
2518 883 L
2521 1123 L
2525 1037 L
2528 1037 L
2531 1092 L
2534 1149 L
2538 928 L
2541 1324 L
2544 1087 L
2547 1052 L
2550 1041 L
2553 1182 L
2556 926 L
2559 1323 L
2561 1194 L
2564 1285 L
2567 1040 L
2570 1141 L
2580 1078 L
2590 1086 L
2600 1030 L
2609 1001 L
2618 1019 L
2627 1061 L
2635 1217 L
2643 973 L
2650 1017 L
2658 1238 L
2665 1077 L
2672 1120 L
2678 1075 L
2685 1071 L
2691 1129 L
2697 836 L
2703 1114 L
2709 1052 L
2714 1015 L
2720 1082 L
2725 1044 L
2730 830 L
2735 943 L
2740 1207 L
2745 945 L
2750 1077 L
2755 1226 L
2759 1000 L
2764 1037 L
2768 884 L
2772 835 L
2777 941 L
2781 901 L
2785 949 L
2789 928 L
2793 998 L
2796 944 L
2800 943 L
2804 1065 L
2808 859 L
2811 949 L
2815 979 L
2818 960 L
2822 854 L
2825 928 L
2828 1137 L
2831 981 L
2835 1026 L
2838 872 L
2841 1058 L
2844 1040 L
2847 921 L
2850 842 L
2853 1311 L
2856 1045 L
2859 913 L
2862 834 L
2864 1035 L
2867 1133 L
2870 924 L
2873 976 L
2875 1240 L
2878 1044 L
2880 1084 L
2883 1137 L
2886 1015 L
2888 1158 L
2891 927 L
2893 1002 L
2895 1154 L
2898 1090 L
2900 1124 L
2902 997 L
2905 1161 L
2907 1290 L
2909 1037 L
2912 1226 L
2914 990 L
2916 1031 L
2918 1166 L
2920 952 L
2922 1204 L
2925 1248 L
2927 1121 L
2929 1124 L
2931 1043 L
2933 1211 L
2935 1138 L
2937 883 L
2939 1044 L
2941 1265 L
2943 1151 L
2945 992 L
2947 999 L
2948 1174 L
2950 1209 L
2952 959 L
2954 1169 L
2956 1004 L
2958 1087 L
2959 1094 L
2961 908 L
2963 1283 L
2965 1091 L
2966 1103 L
2968 1411 L
2970 1230 L
2972 1273 L
2973 1275 L
2975 1264 L
2977 1096 L
2978 1130 L
2980 1154 L
2982 835 L
2983 1040 L
2985 1229 L
2986 1239 L
2988 1034 L
2989 1047 L
2991 1239 L
2993 1127 L
2994 1181 L
2996 1299 L
2997 1088 L
2999 1191 L
3000 1109 L
3002 1151 L
3003 1106 L
3005 1262 L
3006 1305 L
3007 1290 L
3009 1117 L
3010 1178 L
3012 1053 L
3013 1292 L
3014 1082 L
3016 1181 L
3017 1328 L
3019 1180 L
3020 1232 L
3021 1261 L
3023 1152 L
3024 1094 L
3025 1159 L
3027 1319 L
3028 1277 L
3029 1213 L
3031 1316 L
3032 1195 L
3033 1051 L
3034 1197 L
3036 1097 L
3037 1240 L
3038 1166 L
3039 1233 L
3041 1256 L
3042 1339 L
3043 1179 L
3044 1215 L
3045 1295 L
3047 1134 L
3048 1288 L
3049 1204 L
3050 1214 L
3051 1063 L
3053 987 L
3054 1386 L
3055 1339 L
3056 1311 L
3057 1272 L
3058 1111 L
3059 1344 L
3061 1100 L
3062 1271 L
3063 1309 L
3064 1354 L
3065 1403 L
3066 1282 L
3067 1229 L
3068 1235 L
3069 1128 L
3070 1278 L
3071 1267 L
3073 1331 L
3074 1280 L
3075 1380 L
3076 1109 L
3077 1347 L
3078 1115 L
3079 1384 L
3080 1072 L
3081 1132 L
3082 1064 L
3083 1342 L
3084 1115 L
3085 1310 L
3086 1040 L
3087 1271 L
3088 1392 L
3089 1252 L
3112 1427 L
3133 1393 L
3152 1437 L
3170 1266 L
3186 1217 L
3201 1451 L
3216 1404 L
3229 1068 L
3241 1279 L
3253 1313 L
3264 1278 L
3275 1389 L
3285 1500 L
3295 1357 L
3304 1373 L
3313 1380 L
3322 1409 L
3330 1399 L
3338 1441 L
3346 1382 L
3353 1185 L
3360 1209 L
3367 1248 L
3374 1274 L
3380 1507 L
3387 1326 L
3393 1458 L
3399 1379 L
3405 1539 L
3410 1487 L
3416 1372 L
3421 1525 L
3426 1322 L
3431 1540 L
3436 1318 L
3441 1547 L
3446 1345 L
3451 1475 L
3455 1482 L
3460 1313 L
3464 1342 L
3469 1366 L
3473 1348 L
3477 1444 L
3481 1260 L
3485 1526 L
3489 1304 L
3493 1161 L
3496 1400 L
3500 1080 L
3504 1321 L
3507 1264 L
3511 1311 L
3514 1141 L
3518 1569 L
3521 1091 L
3525 1275 L
3528 1325 L
3531 1400 L
3534 1220 L
3537 1301 L
3540 1355 L
3543 1359 L
3546 1384 L
3549 1362 L
3552 1322 L
3555 1273 L
3558 1064 L
3561 1025 L
3564 1375 L
3566 1355 L
3575 1257 L
3586 1140 L
3595 1226 L
3605 1332 L
3613 1305 L
3622 1307 L
3630 1271 L
3638 1326 L
3646 1254 L
3653 1336 L
3660 1175 L
3667 1004 L
3674 1175 L
3681 1203 L
3687 1322 L
3693 1198 L
3699 1168 L
3705 1323 L
3710 1505 L
3716 1129 L
3721 1216 L
3727 1253 L
3732 1282 L
3737 1162 L
3742 1081 L
3746 1037 L
3751 1126 L
3756 1402 L
3760 1332 L
3764 1081 L
3769 1159 L
3773 1121 L
3777 1091 L
3781 988 L
3785 1259 L
3789 1021 L
3793 1087 L
3797 1239 L
3800 1323 L
3804 966 L
3808 1153 L
3811 1196 L
3815 1053 L
3818 997 L
3821 1155 L
3825 1116 L
3828 919 L
3831 1099 L
3834 999 L
3838 1206 L
3841 1256 L
3844 1020 L
3847 923 L
3850 1264 L
3853 908 L
3855 1034 L
3858 1206 L
3861 1128 L
3864 1051 L
3867 1070 L
3869 1052 L
3872 1077 L
3875 1198 L
3877 1003 L
3880 955 L
3882 1014 L
3885 1081 L
3887 1161 L
3890 904 L
3892 1079 L
3895 980 L
3897 1053 L
3899 1025 L
3902 1058 L
3904 1059 L
3906 870 L
3908 1272 L
3911 1037 L
3913 1066 L
3915 1067 L
3917 755 L
3919 1083 L
3921 946 L
3923 1162 L
3926 992 L
3928 1095 L
3930 1073 L
3932 1122 L
3934 1076 L
3936 1080 L
3938 1095 L
3940 937 L
3942 1085 L
3943 894 L
3945 960 L
3947 1168 L
3949 970 L
3951 1089 L
3953 1114 L
3955 1126 L
3956 946 L
3958 841 L
3960 941 L
3962 834 L
3963 1054 L
3965 1058 L
3967 967 L
3969 936 L
3970 920 L
3972 905 L
3974 956 L
3975 1041 L
3977 994 L
3978 792 L
3980 982 L
3982 1028 L
3983 949 L
3985 750 L
3986 867 L
3988 1147 L
3990 1038 L
3991 996 L
3993 819 L
3994 804 L
3996 890 L
3997 848 L
3999 1025 L
4000 835 L
4001 794 L
4003 991 L
4004 960 L
4006 965 L
4007 1163 L
4009 834 L
4010 1040 L
4011 956 L
4013 758 L
4014 807 L
4016 945 L
4017 998 L
4018 899 L
4020 902 L
4021 985 L
4022 998 L
4024 1173 L
4025 1078 L
4026 1142 L
4028 863 L
4029 901 L
4030 1008 L
4031 1027 L
4033 900 L
4034 949 L
4035 860 L
4036 1061 L
4038 895 L
4039 934 L
4040 1090 L
4041 1126 L
4042 948 L
4044 1006 L
4045 1035 L
4046 1004 L
4047 817 L
4048 988 L
4050 1074 L
4051 873 L
4052 965 L
4053 946 L
4054 987 L
4055 809 L
4056 984 L
4058 1011 L
4059 1116 L
4060 890 L
4061 1009 L
4062 846 L
4063 1021 L
4064 934 L
4065 995 L
4066 977 L
L2 C03 COSGR

%
% Main frame
%
L10
GSN 
620 1700 M
4220 1700 L
4220 5300 L
620 5300 L
closepath SGR

%
% X axis: large tics
%
L10
GSN 1074 1700 M 0  54 rL SGR
GSN 1074 5300 M 0 -54 rL SGR
helvS (0.0001) 1074 470 xlabel
GSN 1572 1700 M 0  54 rL SGR
GSN 1572 5300 M 0 -54 rL SGR
helvS (0.001) 1572 470 xlabel
GSN 2071 1700 M 0  54 rL SGR
GSN 2071 5300 M 0 -54 rL SGR
helvS (0.01) 2071 470 xlabel
GSN 2570 1700 M 0  54 rL SGR
GSN 2570 5300 M 0 -54 rL SGR
helvS (0.1) 2570 470 xlabel
GSN 3068 1700 M 0  54 rL SGR
GSN 3068 5300 M 0 -54 rL SGR
helvS (1) 3068 470 xlabel
GSN 3567 1700 M 0  54 rL SGR
GSN 3567 5300 M 0 -54 rL SGR
helvS (10) 3567 470 xlabel
GSN 4066 1700 M 0  54 rL SGR
GSN 4066 5300 M 0 -54 rL SGR
helvS (100) 4066 470 xlabel
%
% X axis: small tics
%
L5
GSN 725 1700 M 0  36 rL SGR
GSN 725 5300 M 0 -36 rL SGR
GSN 813 1700 M 0  36 rL SGR
GSN 813 5300 M 0 -36 rL SGR
GSN 875 1700 M 0  36 rL SGR
GSN 875 5300 M 0 -36 rL SGR
GSN 924 1700 M 0  36 rL SGR
GSN 924 5300 M 0 -36 rL SGR
GSN 963 1700 M 0  36 rL SGR
GSN 963 5300 M 0 -36 rL SGR
GSN 996 1700 M 0  36 rL SGR
GSN 996 5300 M 0 -36 rL SGR
GSN 1025 1700 M 0  36 rL SGR
GSN 1025 5300 M 0 -36 rL SGR
GSN 1051 1700 M 0  36 rL SGR
GSN 1051 5300 M 0 -36 rL SGR
GSN 1224 1700 M 0  36 rL SGR
GSN 1224 5300 M 0 -36 rL SGR
GSN 1312 1700 M 0  36 rL SGR
GSN 1312 5300 M 0 -36 rL SGR
GSN 1374 1700 M 0  36 rL SGR
GSN 1374 5300 M 0 -36 rL SGR
GSN 1422 1700 M 0  36 rL SGR
GSN 1422 5300 M 0 -36 rL SGR
GSN 1462 1700 M 0  36 rL SGR
GSN 1462 5300 M 0 -36 rL SGR
GSN 1495 1700 M 0  36 rL SGR
GSN 1495 5300 M 0 -36 rL SGR
GSN 1524 1700 M 0  36 rL SGR
GSN 1524 5300 M 0 -36 rL SGR
GSN 1550 1700 M 0  36 rL SGR
GSN 1550 5300 M 0 -36 rL SGR
GSN 1722 1700 M 0  36 rL SGR
GSN 1722 5300 M 0 -36 rL SGR
GSN 1810 1700 M 0  36 rL SGR
GSN 1810 5300 M 0 -36 rL SGR
GSN 1873 1700 M 0  36 rL SGR
GSN 1873 5300 M 0 -36 rL SGR
GSN 1921 1700 M 0  36 rL SGR
GSN 1921 5300 M 0 -36 rL SGR
GSN 1960 1700 M 0  36 rL SGR
GSN 1960 5300 M 0 -36 rL SGR
GSN 1994 1700 M 0  36 rL SGR
GSN 1994 5300 M 0 -36 rL SGR
GSN 2023 1700 M 0  36 rL SGR
GSN 2023 5300 M 0 -36 rL SGR
GSN 2048 1700 M 0  36 rL SGR
GSN 2048 5300 M 0 -36 rL SGR
GSN 2221 1700 M 0  36 rL SGR
GSN 2221 5300 M 0 -36 rL SGR
GSN 2309 1700 M 0  36 rL SGR
GSN 2309 5300 M 0 -36 rL SGR
GSN 2371 1700 M 0  36 rL SGR
GSN 2371 5300 M 0 -36 rL SGR
GSN 2420 1700 M 0  36 rL SGR
GSN 2420 5300 M 0 -36 rL SGR
GSN 2459 1700 M 0  36 rL SGR
GSN 2459 5300 M 0 -36 rL SGR
GSN 2492 1700 M 0  36 rL SGR
GSN 2492 5300 M 0 -36 rL SGR
GSN 2521 1700 M 0  36 rL SGR
GSN 2521 5300 M 0 -36 rL SGR
GSN 2547 1700 M 0  36 rL SGR
GSN 2547 5300 M 0 -36 rL SGR
GSN 2720 1700 M 0  36 rL SGR
GSN 2720 5300 M 0 -36 rL SGR
GSN 2808 1700 M 0  36 rL SGR
GSN 2808 5300 M 0 -36 rL SGR
GSN 2870 1700 M 0  36 rL SGR
GSN 2870 5300 M 0 -36 rL SGR
GSN 2918 1700 M 0  36 rL SGR
GSN 2918 5300 M 0 -36 rL SGR
GSN 2958 1700 M 0  36 rL SGR
GSN 2958 5300 M 0 -36 rL SGR
GSN 2991 1700 M 0  36 rL SGR
GSN 2991 5300 M 0 -36 rL SGR
GSN 3020 1700 M 0  36 rL SGR
GSN 3020 5300 M 0 -36 rL SGR
GSN 3045 1700 M 0  36 rL SGR
GSN 3045 5300 M 0 -36 rL SGR
GSN 3218 1700 M 0  36 rL SGR
GSN 3218 5300 M 0 -36 rL SGR
GSN 3306 1700 M 0  36 rL SGR
GSN 3306 5300 M 0 -36 rL SGR
GSN 3368 1700 M 0  36 rL SGR
GSN 3368 5300 M 0 -36 rL SGR
GSN 3417 1700 M 0  36 rL SGR
GSN 3417 5300 M 0 -36 rL SGR
GSN 3456 1700 M 0  36 rL SGR
GSN 3456 5300 M 0 -36 rL SGR
GSN 3490 1700 M 0  36 rL SGR
GSN 3490 5300 M 0 -36 rL SGR
GSN 3519 1700 M 0  36 rL SGR
GSN 3519 5300 M 0 -36 rL SGR
GSN 3544 1700 M 0  36 rL SGR
GSN 3544 5300 M 0 -36 rL SGR
GSN 3717 1700 M 0  36 rL SGR
GSN 3717 5300 M 0 -36 rL SGR
GSN 3805 1700 M 0  36 rL SGR
GSN 3805 5300 M 0 -36 rL SGR
GSN 3867 1700 M 0  36 rL SGR
GSN 3867 5300 M 0 -36 rL SGR
GSN 3915 1700 M 0  36 rL SGR
GSN 3915 5300 M 0 -36 rL SGR
GSN 3955 1700 M 0  36 rL SGR
GSN 3955 5300 M 0 -36 rL SGR
GSN 3988 1700 M 0  36 rL SGR
GSN 3988 5300 M 0 -36 rL SGR
GSN 4017 1700 M 0  36 rL SGR
GSN 4017 5300 M 0 -36 rL SGR
GSN 4043 1700 M 0  36 rL SGR
GSN 4043 5300 M 0 -36 rL SGR
GSN 4216 1700 M 0  36 rL SGR
GSN 4216 5300 M 0 -36 rL SGR
%
% Y axis: large tics
%
L10
GSN 620 2070 M 54 0 rL SGR
GSN 4220 2070 M -54 0 rL SGR
helvS (1.04) 560 2070 ylabel
GSN 620 2972 M 54 0 rL SGR
GSN 4220 2972 M -54 0 rL SGR
helvS (1.06) 560 2972 ylabel
GSN 620 3875 M 54 0 rL SGR
GSN 4220 3875 M -54 0 rL SGR
helvS (1.08) 560 3875 ylabel
GSN 620 4778 M 54 0 rL SGR
GSN 4220 4778 M -54 0 rL SGR
helvS (1.1) 560 4778 ylabel
%
% Y axis: small tics
%
L5
GSN 620 1844 M 36 0 rL SGR
GSN 4220 1844 M -36 0 rL SGR
GSN 620 2070 M 36 0 rL SGR
GSN 4220 2070 M -36 0 rL SGR
GSN 620 2295 M 36 0 rL SGR
GSN 4220 2295 M -36 0 rL SGR
GSN 620 2521 M 36 0 rL SGR
GSN 4220 2521 M -36 0 rL SGR
GSN 620 2747 M 36 0 rL SGR
GSN 4220 2747 M -36 0 rL SGR
GSN 620 2972 M 36 0 rL SGR
GSN 4220 2972 M -36 0 rL SGR
GSN 620 3198 M 36 0 rL SGR
GSN 4220 3198 M -36 0 rL SGR
GSN 620 3424 M 36 0 rL SGR
GSN 4220 3424 M -36 0 rL SGR
GSN 620 3649 M 36 0 rL SGR
GSN 4220 3649 M -36 0 rL SGR
GSN 620 3875 M 36 0 rL SGR
GSN 4220 3875 M -36 0 rL SGR
GSN 620 4101 M 36 0 rL SGR
GSN 4220 4101 M -36 0 rL SGR
GSN 620 4326 M 36 0 rL SGR
GSN 4220 4326 M -36 0 rL SGR
GSN 620 4552 M 36 0 rL SGR
GSN 4220 4552 M -36 0 rL SGR
GSN 620 4778 M 36 0 rL SGR
GSN 4220 4778 M -36 0 rL SGR
GSN 620 5003 M 36 0 rL SGR
GSN 4220 5003 M -36 0 rL SGR
GSN 620 5229 M 36 0 rL SGR
GSN 4220 5229 M -36 0 rL SGR

%
% X-Axis label:
%
gsave 2420 290 M 
[
[(Helvetica) 180 0 true true 0 (t)]
[(Helvetica) 180 0 true true 0 (i)]
[(Helvetica) 180 0 true true 0 (m)]
[(Helvetica) 180 0 true true 0 (e)]
] 0 MCshow grestore

%
% Y-Axis label:
%
gsave 234 3500 M 
currentpoint gsave translate 90 rotate 0 0 moveto
[
[(Helvetica) 180 0 true true 0 (s)]
[(Helvetica) 180 0 true true 0 (i)]
[(Helvetica) 180 0 true true 0 (g)]
[(Helvetica) 180 0 true true 0 (n)]
[(Helvetica) 180 0 true true 0 (a)]
[(Helvetica) 180 0 true true 0 (l)]
] 0 MCshow grestore

%
% Residuals:
%
gsave 129 1160 M 
currentpoint gsave translate 90 rotate 0 0 moveto
[
[(Helvetica) 150 0 true true 0 (r)]
[(Helvetica) 150 0 true true 0 (e)]
[(Helvetica) 150 0 true true 0 (s)]
[(Helvetica) 150 0 true true 0 (i)]
[(Helvetica) 150 0 true true 0 (d)]
[(Helvetica) 150 0 true true 0 (u)]
[(Helvetica) 150 0 true true 0 (a)]
[(Helvetica) 150 0 true true 0 (l)]
[(Helvetica) 150 0 true true 0 (s)]
] 0 MCshow grestore

%
% Residual frame
%
L10
GSN 
620 620 M
4220 620 L
4220 1700 L
620 1700 L
closepath SGR
%
% X axis: large tics - residual frame
%
L10
GSN 1074 620 M 0  54 rL SGR
GSN 1074 1700 M 0 -54 rL SGR
GSN 1572 620 M 0  54 rL SGR
GSN 1572 1700 M 0 -54 rL SGR
GSN 2071 620 M 0  54 rL SGR
GSN 2071 1700 M 0 -54 rL SGR
GSN 2570 620 M 0  54 rL SGR
GSN 2570 1700 M 0 -54 rL SGR
GSN 3068 620 M 0  54 rL SGR
GSN 3068 1700 M 0 -54 rL SGR
GSN 3567 620 M 0  54 rL SGR
GSN 3567 1700 M 0 -54 rL SGR
GSN 4066 620 M 0  54 rL SGR
GSN 4066 1700 M 0 -54 rL SGR
%
% X axis: small tics - residual frame
%
L5
GSN 725 620 M 0  36 rL SGR
GSN 725 1700 M 0 -36 rL SGR
GSN 813 620 M 0  36 rL SGR
GSN 813 1700 M 0 -36 rL SGR
GSN 875 620 M 0  36 rL SGR
GSN 875 1700 M 0 -36 rL SGR
GSN 924 620 M 0  36 rL SGR
GSN 924 1700 M 0 -36 rL SGR
GSN 963 620 M 0  36 rL SGR
GSN 963 1700 M 0 -36 rL SGR
GSN 996 620 M 0  36 rL SGR
GSN 996 1700 M 0 -36 rL SGR
GSN 1025 620 M 0  36 rL SGR
GSN 1025 1700 M 0 -36 rL SGR
GSN 1051 620 M 0  36 rL SGR
GSN 1051 1700 M 0 -36 rL SGR
GSN 1224 620 M 0  36 rL SGR
GSN 1224 1700 M 0 -36 rL SGR
GSN 1312 620 M 0  36 rL SGR
GSN 1312 1700 M 0 -36 rL SGR
GSN 1374 620 M 0  36 rL SGR
GSN 1374 1700 M 0 -36 rL SGR
GSN 1422 620 M 0  36 rL SGR
GSN 1422 1700 M 0 -36 rL SGR
GSN 1462 620 M 0  36 rL SGR
GSN 1462 1700 M 0 -36 rL SGR
GSN 1495 620 M 0  36 rL SGR
GSN 1495 1700 M 0 -36 rL SGR
GSN 1524 620 M 0  36 rL SGR
GSN 1524 1700 M 0 -36 rL SGR
GSN 1550 620 M 0  36 rL SGR
GSN 1550 1700 M 0 -36 rL SGR
GSN 1722 620 M 0  36 rL SGR
GSN 1722 1700 M 0 -36 rL SGR
GSN 1810 620 M 0  36 rL SGR
GSN 1810 1700 M 0 -36 rL SGR
GSN 1873 620 M 0  36 rL SGR
GSN 1873 1700 M 0 -36 rL SGR
GSN 1921 620 M 0  36 rL SGR
GSN 1921 1700 M 0 -36 rL SGR
GSN 1960 620 M 0  36 rL SGR
GSN 1960 1700 M 0 -36 rL SGR
GSN 1994 620 M 0  36 rL SGR
GSN 1994 1700 M 0 -36 rL SGR
GSN 2023 620 M 0  36 rL SGR
GSN 2023 1700 M 0 -36 rL SGR
GSN 2048 620 M 0  36 rL SGR
GSN 2048 1700 M 0 -36 rL SGR
GSN 2221 620 M 0  36 rL SGR
GSN 2221 1700 M 0 -36 rL SGR
GSN 2309 620 M 0  36 rL SGR
GSN 2309 1700 M 0 -36 rL SGR
GSN 2371 620 M 0  36 rL SGR
GSN 2371 1700 M 0 -36 rL SGR
GSN 2420 620 M 0  36 rL SGR
GSN 2420 1700 M 0 -36 rL SGR
GSN 2459 620 M 0  36 rL SGR
GSN 2459 1700 M 0 -36 rL SGR
GSN 2492 620 M 0  36 rL SGR
GSN 2492 1700 M 0 -36 rL SGR
GSN 2521 620 M 0  36 rL SGR
GSN 2521 1700 M 0 -36 rL SGR
GSN 2547 620 M 0  36 rL SGR
GSN 2547 1700 M 0 -36 rL SGR
GSN 2720 620 M 0  36 rL SGR
GSN 2720 1700 M 0 -36 rL SGR
GSN 2808 620 M 0  36 rL SGR
GSN 2808 1700 M 0 -36 rL SGR
GSN 2870 620 M 0  36 rL SGR
GSN 2870 1700 M 0 -36 rL SGR
GSN 2918 620 M 0  36 rL SGR
GSN 2918 1700 M 0 -36 rL SGR
GSN 2958 620 M 0  36 rL SGR
GSN 2958 1700 M 0 -36 rL SGR
GSN 2991 620 M 0  36 rL SGR
GSN 2991 1700 M 0 -36 rL SGR
GSN 3020 620 M 0  36 rL SGR
GSN 3020 1700 M 0 -36 rL SGR
GSN 3045 620 M 0  36 rL SGR
GSN 3045 1700 M 0 -36 rL SGR
GSN 3218 620 M 0  36 rL SGR
GSN 3218 1700 M 0 -36 rL SGR
GSN 3306 620 M 0  36 rL SGR
GSN 3306 1700 M 0 -36 rL SGR
GSN 3368 620 M 0  36 rL SGR
GSN 3368 1700 M 0 -36 rL SGR
GSN 3417 620 M 0  36 rL SGR
GSN 3417 1700 M 0 -36 rL SGR
GSN 3456 620 M 0  36 rL SGR
GSN 3456 1700 M 0 -36 rL SGR
GSN 3490 620 M 0  36 rL SGR
GSN 3490 1700 M 0 -36 rL SGR
GSN 3519 620 M 0  36 rL SGR
GSN 3519 1700 M 0 -36 rL SGR
GSN 3544 620 M 0  36 rL SGR
GSN 3544 1700 M 0 -36 rL SGR
GSN 3717 620 M 0  36 rL SGR
GSN 3717 1700 M 0 -36 rL SGR
GSN 3805 620 M 0  36 rL SGR
GSN 3805 1700 M 0 -36 rL SGR
GSN 3867 620 M 0  36 rL SGR
GSN 3867 1700 M 0 -36 rL SGR
GSN 3915 620 M 0  36 rL SGR
GSN 3915 1700 M 0 -36 rL SGR
GSN 3955 620 M 0  36 rL SGR
GSN 3955 1700 M 0 -36 rL SGR
GSN 3988 620 M 0  36 rL SGR
GSN 3988 1700 M 0 -36 rL SGR
GSN 4017 620 M 0  36 rL SGR
GSN 4017 1700 M 0 -36 rL SGR
GSN 4043 620 M 0  36 rL SGR
GSN 4043 1700 M 0 -36 rL SGR
GSN 4216 620 M 0  36 rL SGR
GSN 4216 1700 M 0 -36 rL SGR
%
% Y axis: large tics - residual frame
%
L10
GSN 620 689 M 54 0 rL SGR
GSN 4220 689 M -54 0 rL SGR
helvS (-0.01) 560 689 ylabelresid
GSN 620 1128 M 54 0 rL SGR
GSN 4220 1128 M -54 0 rL SGR
helvS (0) 560 1128 ylabelresid
GSN 620 1567 M 54 0 rL SGR
GSN 4220 1567 M -54 0 rL SGR
helvS (0.01) 560 1567 ylabelresid

%
% X axis - residual panel
%
GSN L5 620 1128 M 4220 1128 L SDA G50 SGR

end
showpage
%%Trailer
%%EOF
