%!PS-Adobe-3.0 EPSF-3.0
%%BoundingBox: 0 0 514 550
%%Creator: BioKin Ltd.
%%DocumentFonts: Symbol Helvetica
%%EndComments
%
/bkdict 256 dict def
bkdict begin
/M {moveto} def 
/R {rmoveto} def
/L {lineto} def
/rL {rlineto} def
/GSN {gsave newpath} def
/SGR {stroke grestore} def
/COSGR {gsave setrgbcolor stroke grestore grestore} def
/SL {setlinewidth} def
/LWMB {12} def             % line width - model curves, black & white
/LWMC {10} def             % line width - model curves, color
/L2 {2.5 setlinewidth} def
/L5 {5 setlinewidth} def
/L10 {10 setlinewidth} def
/G50 {0.5 setgray} def
/SDA {[10  20] 0 setdash} def % axes
/helvT {/Helvetica findfont 100 scalefont setfont} def % tiny
/helvS {/Helvetica findfont 125 scalefont setfont} def % small
/helvM {/Helvetica findfont 150 scalefont setfont} def % medium
/helvL {/Helvetica findfont 175 scalefont setfont} def % large
/xlabel {gsave M dup
   stringwidth exch -0.5 mul exch rmoveto show grestore} def 
/ylabel {gsave M 90 rotate dup
   stringwidth exch -0.5 mul exch rmoveto show grestore} def
/ylabelresid {gsave M dup
   stringwidth exch -1 mul exch rmoveto show grestore} def
% ======
% Shapes
% ======
% Circle:
/Circ {0 360 arc closepath} def
%
% Square:
/Squa {dup dup -0.5 mul dup dup R -2 mul 0 exch rL 1 mul 0 rL dup 0 exch -1 mul rL closepath} def
%
% Triangle Up:
/TriU {dup dup dup -0.4 mul exch -0.5 mul exch R dup 0.5 mul exch rL dup -1 mul exch 0.5 mul exch rL closepath} def 
%
% Triangle Down:
/TriD {dup dup dup 0.4 mul exch -0.5 mul exch R dup 0.5 mul exch -1 mul rL dup 0.5 mul exch rL closepath} def 
%
% Diamond:
/Diam {45 rotate Squa} def
% ======
% Fills
% ======
/GRF {gsave setgray fill grestore} def                    % gray-level Fill
/COF {gsave setrgbcolor fill grestore} def                % color fill
% ======
% Colors
% ======
/C01 {1.00	0.00	0.00} def      % Red
/C02 {0.00	0.00	1.00} def      % Blue
/C03 {0.00	0.39	0.00} def      % Dark Green
/C04 {0.78	0.08	0.52} def      % Medium Violet Red
/C05 {0.55	0.27	0.07} def      % Saddle Brown
/C06 {0.10	0.70	0.70} def      % (cyan)
/C07 {1.00	0.55	0.00} def      % Dark Orange
/C08 {0.63	0.13	0.94} def      % Purple
/C09 {0.00	0.75	1.00} def      % Deep Sky Blue
/C10 {0.20	0.80	0.20} def      % Lime Green
/C11 {0.47	0.53	0.60} def      % Light Slate Gray
/C12 {0.00	0.00	0.00} def      % Black            % or: {0.19	0.31	0.31} def      % Dark Slate Gray
%
/LGR {0.75} def % light gray
/DGR {0.33} def % dark gray
%
% =============
% Dash patterns
% =============
/dash01 { [80  20] 0 setdash } def
/dash02 { [40  20] 0 setdash } def
/dash03 { [80  20  10  20] 0 setdash } def
/dash04 { [40  20  10  20] 0 setdash } def
/dash05 { [80  20  10  10  10  20] 0 setdash } def
/dash06 { [40  20  10  10  10  20] 0 setdash } def
/dash07 { [10  10] 0 setdash } def
%
/MFshow {
   { dup 5 get 3 ge
     { 5 get 3 eq {gsave} {grestore} ifelse }
     {dup dup 0 get findfont exch 1 get scalefont setfont
     [ currentpoint ] exch dup 2 get 0 exch R dup 5 get 2 ne {dup dup 6
     get exch 4 get {show} {stringwidth pop 0 R} ifelse }if dup 5 get 0 eq
     {dup 3 get {2 get neg 0 exch R pop} {pop aload pop M} ifelse} {dup 5
     get 1 eq {dup 2 get exch dup 3 get exch 6 get stringwidth pop -2 div
     dup 0 R} {dup 6 get stringwidth pop -2 div 0 R 6 get
     show 2 index {aload pop M neg 3 -1 roll neg R pop pop} {pop pop pop
     pop aload pop M} ifelse }ifelse }ifelse }
     ifelse }
   forall} bind def
/MFwidth {0 exch {dup 3 get{dup dup 0 get findfont exch 1 get scalefont
     setfont 6 get stringwidth pop add} {pop} ifelse} forall} bind def
/MCshow { currentpoint stroke M
  exch dup MFwidth -2 div 3 -1 roll R MFshow } def
%
end
%%EndProlog
bkdict begin
0.1 0.1 scale
%
% Residuals:
%
GSN 620 4863 M
620 4576 L
620 4411 L
620 4589 L
620 4535 L
620 4361 L
620 4317 L
620 4277 L
620 4286 L
620 4233 L
620 4089 L
620 4205 L
620 3999 L
620 4000 L
620 4204 L
620 3990 L
620 4000 L
620 3844 L
620 3861 L
620 3853 L
620 3831 L
620 3727 L
620 3643 L
620 3670 L
620 3829 L
620 3662 L
620 3706 L
620 3624 L
620 3671 L
620 3647 L
620 3643 L
620 3556 L
620 3471 L
620 3378 L
620 3457 L
620 3440 L
620 3359 L
620 3464 L
620 3536 L
620 3456 L
620 3419 L
620 3314 L
620 3419 L
620 3217 L
620 3236 L
620 3280 L
620 3310 L
620 3255 L
620 3255 L
620 3242 L
620 3138 L
620 3148 L
620 3146 L
620 3071 L
620 2907 L
620 3217 L
620 3063 L
620 3083 L
620 3032 L
620 3198 L
620 3040 L
620 2959 L
620 3264 L
620 2921 L
620 3074 L
620 3034 L
620 2939 L
620 2979 L
620 2944 L
620 3074 L
620 2970 L
620 2827 L
620 3031 L
620 3133 L
620 2948 L
620 2919 L
620 2985 L
620 2798 L
620 2894 L
620 2908 L
620 2879 L
620 2739 L
620 2769 L
620 2908 L
620 2651 L
620 2687 L
620 2755 L
620 2701 L
620 2610 L
620 2544 L
620 2539 L
620 2560 L
620 2319 L
620 2516 L
620 2420 L
620 2634 L
620 2403 L
620 2480 L
620 2263 L
620 2356 L
620 2372 L
620 2289 L
620 2426 L
620 2310 L
620 2438 L
620 2449 L
620 2345 L
620 2253 L
620 2255 L
620 2430 L
620 2312 L
620 2274 L
620 2291 L
620 2374 L
620 2284 L
620 2324 L
620 2253 L
620 2364 L
620 2374 L
620 2333 L
620 2353 L
620 2363 L
620 2233 L
620 2477 L
620 2412 L
620 2136 L
620 2377 L
620 2336 L
620 2412 L
620 2316 L
620 2351 L
620 2259 L
620 2367 L
620 2372 L
620 2508 L
620 2214 L
620 2356 L
620 2435 L
620 2454 L
620 2434 L
620 2421 L
620 2276 L
620 2297 L
620 2400 L
620 2344 L
620 2398 L
620 2427 L
620 2404 L
620 2432 L
620 2449 L
620 2330 L
620 2450 L
620 2389 L
620 2333 L
620 2502 L
620 2521 L
620 2356 L
620 2372 L
620 2542 L
620 2506 L
620 2496 L
620 2498 L
620 2355 L
620 2497 L
620 2545 L
620 2516 L
620 2414 L
620 2432 L
620 2439 L
620 2526 L
620 2533 L
620 2532 L
620 2441 L
620 2615 L
620 2564 L
620 2381 L
620 2629 L
620 2446 L
620 2468 L
620 2526 L
620 2501 L
620 2603 L
620 2522 L
620 2603 L
620 2602 L
620 2567 L
620 2535 L
620 2602 L
620 2478 L
620 2564 L
620 2697 L
620 2457 L
620 2711 L
620 2536 L
620 2425 L
620 2563 L
620 2712 L
620 2435 L
620 2507 L
620 2638 L
620 2677 L
620 2550 L
620 2522 L
620 2539 L
620 2731 L
620 2612 L
620 2659 L
620 2701 L
620 2702 L
620 2693 L
620 2795 L
620 2679 L
620 2765 L
620 2692 L
620 2707 L
620 2519 L
620 2615 L
620 2746 L
620 2501 L
620 2640 L
620 2658 L
620 2628 L
620 2773 L
620 2662 L
620 2716 L
620 2696 L
620 2702 L
620 2672 L
620 2693 L
620 2807 L
620 2621 L
620 2691 L
620 2623 L
620 2624 L
620 2724 L
620 2630 L
620 2747 L
620 2695 L
620 2777 L
620 2752 L
620 2856 L
620 2837 L
620 2775 L
620 2792 L
620 2700 L
620 2726 L
620 2634 L
620 2794 L
620 2751 L
620 2670 L
620 2797 L
620 2764 L
620 2821 L
620 2659 L
620 2677 L
620 2960 L
620 2935 L
620 2684 L
620 2802 L
620 2881 L
620 2794 L
620 2784 L
620 2828 L
620 2782 L
620 2937 L
620 2690 L
620 2793 L
620 2814 L
620 2750 L
620 2828 L
620 2841 L
620 2845 L
620 2799 L
620 2888 L
620 2848 L
620 2745 L
620 2756 L
620 2882 L
620 2851 L
620 2867 L
620 2777 L
620 3018 L
620 2860 L
620 2912 L
620 3097 L
620 2975 L
620 3110 L
620 3110 L
620 3187 L
620 2979 L
620 3146 L
620 3108 L
620 3157 L
620 3012 L
620 3060 L
620 2971 L
620 3024 L
620 3225 L
620 3088 L
620 3160 L
620 3043 L
620 2973 L
620 2987 L
620 2920 L
620 3043 L
620 3095 L
620 3157 L
620 2983 L
620 3056 L
620 3306 L
620 3005 L
620 3083 L
620 3015 L
620 3230 L
620 2912 L
620 3149 L
620 3101 L
620 3212 L
620 3063 L
620 3054 L
620 3068 L
620 3029 L
620 3235 L
620 3163 L
620 3017 L
620 2967 L
620 2980 L
620 3038 L
620 3225 L
620 3027 L
620 3062 L
620 3052 L
620 3193 L
620 3132 L
620 2990 L
620 3125 L
620 3029 L
620 3106 L
620 3008 L
620 3100 L
620 3121 L
620 3080 L
620 3019 L
620 3224 L
620 3014 L
620 3204 L
620 3043 L
620 3065 L
620 3117 L
620 2801 L
620 2983 L
620 3052 L
620 3060 L
620 3142 L
620 3123 L
620 3131 L
620 3037 L
620 2933 L
620 3070 L
620 3057 L
620 3117 L
620 2990 L
620 3005 L
620 2895 L
620 3079 L
620 3046 L
620 2965 L
620 3049 L
620 2976 L
620 3158 L
620 2958 L
620 3255 L
620 3089 L
620 2903 L
620 3076 L
620 2998 L
620 3031 L
620 3219 L
620 2921 L
620 2931 L
620 3075 L
620 3021 L
620 2952 L
620 3021 L
620 3086 L
620 3039 L
620 2884 L
620 3002 L
620 2767 L
620 2914 L
620 3035 L
620 3041 L
620 2958 L
620 2855 L
620 3081 L
620 2930 L
620 2781 L
620 3157 L
620 2878 L
620 2865 L
620 3181 L
620 2955 L
620 2877 L
620 3010 L
620 2942 L
620 2903 L
620 3082 L
620 3063 L
620 2978 L
620 2938 L
620 2968 L
620 2866 L
620 2871 L
620 2955 L
620 2906 L
620 2975 L
620 2995 L
620 2873 L
620 2917 L
620 3030 L
620 2773 L
620 3162 L
620 2946 L
620 3104 L
620 3069 L
620 2892 L
620 2959 L
620 2912 L
620 2996 L
620 2981 L
620 2848 L
620 2837 L
620 3066 L
620 2857 L
620 2955 L
620 3011 L
620 2895 L
620 2910 L
620 2930 L
620 2908 L
620 2865 L
620 2864 L
620 2999 L
620 2900 L
620 2956 L
620 2773 L
620 2945 L
620 2942 L
620 2858 L
620 2898 L
620 2914 L
620 3033 L
620 3015 L
620 2936 L
620 2869 L
620 2818 L
620 2971 L
620 3005 L
620 2906 L
620 2867 L
620 2881 L
620 3117 L
620 3016 L
620 2914 L
620 2819 L
620 2803 L
620 3005 L
620 2986 L
620 2987 L
620 3024 L
620 2977 L
620 2903 L
620 2843 L
620 2932 L
620 2838 L
620 2860 L
620 2981 L
620 3051 L
620 2884 L
620 2867 L
620 2904 L
620 3060 L
620 2890 L
620 2878 L
620 3046 L
620 3059 L
620 2938 L
620 3079 L
620 2704 L
620 2726 L
620 3040 L
620 2957 L
620 2781 L
620 2972 L
620 2938 L
620 3118 L
620 2966 L
620 3098 L
620 2814 L
620 3096 L
620 2950 L
620 2974 L
620 2962 L
620 2947 L
620 2878 L
620 2919 L
620 2913 L
620 2919 L
620 2953 L
620 2857 L
620 2727 L
620 3022 L
620 2861 L
620 2814 L
620 2888 L
620 2918 L
620 2986 L
620 3002 L
620 2782 L
620 2992 L
620 2975 L
620 2864 L
620 2979 L
620 2832 L
620 2849 L
620 3022 L
620 2923 L
620 2938 L
620 2801 L
620 2962 L
620 2696 L
620 2874 L
620 2965 L
L2 C05 COSGR

%
%================
% Legend - Begin
%================
%
GSN 4240 5180 M
4480 5180 L
LWMC SL  C05 COSGR
GSN 4540 5141 M helvM (2.5 uM) show grestore
%
%================
% Legend - End
%================
%

%
% Main frame
%
L10
GSN 
620 1700 M
4220 1700 L
4220 5300 L
620 5300 L
closepath SGR

%
% X axis: large tics
%
L10
%
% X axis: small tics
%
L5
%
% Y axis: large tics
%
L10
GSN 620 2056 M 54 0 rL SGR
GSN 4220 2056 M -54 0 rL SGR
helvS (-0.025) 560 2056 ylabel
GSN 620 2906 M 54 0 rL SGR
GSN 4220 2906 M -54 0 rL SGR
helvS (0) 560 2906 ylabel
GSN 620 3756 M 54 0 rL SGR
GSN 4220 3756 M -54 0 rL SGR
helvS (0.025) 560 3756 ylabel
GSN 620 4606 M 54 0 rL SGR
GSN 4220 4606 M -54 0 rL SGR
helvS (0.05) 560 4606 ylabel
%
% Y axis: small tics
%
L5
GSN 620 1886 M 36 0 rL SGR
GSN 4220 1886 M -36 0 rL SGR
GSN 620 2311 M 36 0 rL SGR
GSN 4220 2311 M -36 0 rL SGR
GSN 620 2736 M 36 0 rL SGR
GSN 4220 2736 M -36 0 rL SGR
GSN 620 3161 M 36 0 rL SGR
GSN 4220 3161 M -36 0 rL SGR
GSN 620 3586 M 36 0 rL SGR
GSN 4220 3586 M -36 0 rL SGR
GSN 620 4011 M 36 0 rL SGR
GSN 4220 4011 M -36 0 rL SGR
GSN 620 4436 M 36 0 rL SGR
GSN 4220 4436 M -36 0 rL SGR
GSN 620 4861 M 36 0 rL SGR
GSN 4220 4861 M -36 0 rL SGR
GSN 620 5286 M 36 0 rL SGR
GSN 4220 5286 M -36 0 rL SGR

%
% X axis - residual panel
%
GSN L5 620 2906 M 4220 2906 L SDA G50 SGR

%
% X-Axis label:
%
gsave 620 1370 M 
[
[(Helvetica) 180 0 true true 0 (t)]
[(Helvetica) 180 0 true true 0 (i)]
[(Helvetica) 180 0 true true 0 (m)]
[(Helvetica) 180 0 true true 0 (e)]
] 0 MCshow grestore

%
% Y-Axis label:
%
gsave 234 3499 M 
currentpoint gsave translate 90 rotate 0 0 moveto
[
[(Helvetica) 180 0 true true 0 (r)]
[(Helvetica) 180 0 true true 0 (e)]
[(Helvetica) 180 0 true true 0 (s)]
[(Helvetica) 180 0 true true 0 (i)]
[(Helvetica) 180 0 true true 0 (d)]
[(Helvetica) 180 0 true true 0 (u)]
[(Helvetica) 180 0 true true 0 (a)]
[(Helvetica) 180 0 true true 0 (l)]
[(Helvetica) 180 0 true true 0 (s)]
] 0 MCshow grestore

end
showpage
%%Trailer
%%EOF
