%!PS-Adobe-3.0 EPSF-3.0
%%BoundingBox: 0 0 514 550
%%Creator: BioKin Ltd.
%%DocumentFonts: Symbol Helvetica
%%EndComments
%
/bkdict 256 dict def
bkdict begin
/M {moveto} def 
/R {rmoveto} def
/L {lineto} def
/rL {rlineto} def
/GSN {gsave newpath} def
/SGR {stroke grestore} def
/COSGR {gsave setrgbcolor stroke grestore grestore} def
/SL {setlinewidth} def
/LWMB {12} def             % line width - model curves, black & white
/LWMC {10} def             % line width - model curves, color
/L2 {2.5 setlinewidth} def
/L5 {5 setlinewidth} def
/L10 {10 setlinewidth} def
/G50 {0.5 setgray} def
/SDA {[10  20] 0 setdash} def % axes
/helvT {/Helvetica findfont 100 scalefont setfont} def % tiny
/helvS {/Helvetica findfont 125 scalefont setfont} def % small
/helvM {/Helvetica findfont 150 scalefont setfont} def % medium
/helvL {/Helvetica findfont 175 scalefont setfont} def % large
/xlabel {gsave M dup
   stringwidth exch -0.5 mul exch rmoveto show grestore} def 
/ylabel {gsave M 90 rotate dup
   stringwidth exch -0.5 mul exch rmoveto show grestore} def
/ylabelresid {gsave M dup
   stringwidth exch -1 mul exch rmoveto show grestore} def
% ======
% Shapes
% ======
% Circle:
/Circ {0 360 arc closepath} def
%
% Square:
/Squa {dup dup -0.5 mul dup dup R -2 mul 0 exch rL 1 mul 0 rL dup 0 exch -1 mul rL closepath} def
%
% Triangle Up:
/TriU {dup dup dup -0.4 mul exch -0.5 mul exch R dup 0.5 mul exch rL dup -1 mul exch 0.5 mul exch rL closepath} def 
%
% Triangle Down:
/TriD {dup dup dup 0.4 mul exch -0.5 mul exch R dup 0.5 mul exch -1 mul rL dup 0.5 mul exch rL closepath} def 
%
% Diamond:
/Diam {45 rotate Squa} def
% ======
% Fills
% ======
/GRF {gsave setgray fill grestore} def                    % gray-level Fill
/COF {gsave setrgbcolor fill grestore} def                % color fill
% ======
% Colors
% ======
/C01 {1.00	0.00	0.00} def      % Red
/C02 {0.00	0.00	1.00} def      % Blue
/C03 {0.00	0.39	0.00} def      % Dark Green
/C04 {0.78	0.08	0.52} def      % Medium Violet Red
/C05 {0.55	0.27	0.07} def      % Saddle Brown
/C06 {0.10	0.70	0.70} def      % (cyan)
/C07 {1.00	0.55	0.00} def      % Dark Orange
/C08 {0.63	0.13	0.94} def      % Purple
/C09 {0.00	0.75	1.00} def      % Deep Sky Blue
/C10 {0.20	0.80	0.20} def      % Lime Green
/C11 {0.47	0.53	0.60} def      % Light Slate Gray
/C12 {0.00	0.00	0.00} def      % Black            % or: {0.19	0.31	0.31} def      % Dark Slate Gray
%
/LGR {0.75} def % light gray
/DGR {0.33} def % dark gray
%
% =============
% Dash patterns
% =============
/dash01 { [80  20] 0 setdash } def
/dash02 { [40  20] 0 setdash } def
/dash03 { [80  20  10  20] 0 setdash } def
/dash04 { [40  20  10  20] 0 setdash } def
/dash05 { [80  20  10  10  10  20] 0 setdash } def
/dash06 { [40  20  10  10  10  20] 0 setdash } def
/dash07 { [10  10] 0 setdash } def
%
/MFshow {
   { dup 5 get 3 ge
     { 5 get 3 eq {gsave} {grestore} ifelse }
     {dup dup 0 get findfont exch 1 get scalefont setfont
     [ currentpoint ] exch dup 2 get 0 exch R dup 5 get 2 ne {dup dup 6
     get exch 4 get {show} {stringwidth pop 0 R} ifelse }if dup 5 get 0 eq
     {dup 3 get {2 get neg 0 exch R pop} {pop aload pop M} ifelse} {dup 5
     get 1 eq {dup 2 get exch dup 3 get exch 6 get stringwidth pop -2 div
     dup 0 R} {dup 6 get stringwidth pop -2 div 0 R 6 get
     show 2 index {aload pop M neg 3 -1 roll neg R pop pop} {pop pop pop
     pop aload pop M} ifelse }ifelse }ifelse }
     ifelse }
   forall} bind def
/MFwidth {0 exch {dup 3 get{dup dup 0 get findfont exch 1 get scalefont
     setfont 6 get stringwidth pop add} {pop} ifelse} forall} bind def
/MCshow { currentpoint stroke M
  exch dup MFwidth -2 div 3 -1 roll R MFshow } def
%
end
%%EndProlog
bkdict begin
0.1 0.1 scale
%
% Model curves:
%

GSN 753 5166 M
753 5166 L
786 5166 L
820 5166 L
853 5165 L
886 5165 L
903 5165 L
919 5164 L
953 5164 L
986 5163 L
1020 5162 L
1053 5161 L
1053 5161 L
1086 5160 L
1120 5159 L
1153 5158 L
1186 5156 L
1203 5155 L
1220 5154 L
1253 5152 L
1286 5149 L
1320 5146 L
1353 5142 L
1353 5142 L
1386 5138 L
1420 5133 L
1453 5127 L
1486 5121 L
1503 5117 L
1520 5113 L
1553 5104 L
1586 5094 L
1620 5081 L
1653 5067 L
1653 5067 L
1686 5051 L
1720 5032 L
1753 5010 L
1786 4985 L
1804 4970 L
1820 4956 L
1853 4923 L
1886 4884 L
1920 4840 L
1953 4790 L
1954 4789 L
1986 4733 L
2020 4668 L
2053 4595 L
2086 4513 L
2104 4466 L
2120 4422 L
2153 4320 L
2186 4208 L
2220 4086 L
2253 3953 L
2254 3949 L
2286 3812 L
2320 3662 L
2353 3505 L
2386 3344 L
2404 3257 L
2420 3181 L
2453 3019 L
2486 2862 L
2520 2713 L
2553 2575 L
2554 2570 L
2586 2453 L
2620 2350 L
2653 2267 L
2686 2208 L
2704 2185 L
2720 2171 L
2753 2158 L
2786 2165 L
2820 2191 L
2853 2231 L
2854 2233 L
2886 2283 L
2920 2342 L
2953 2405 L
2986 2470 L
3004 2505 L
3020 2534 L
3053 2596 L
3068 2623 L
3086 2653 L
3120 2704 L
3153 2747 L
3155 2749 L
3186 2782 L
3220 2808 L
3253 2827 L
3286 2839 L
3305 2844 L
3320 2847 L
3353 2850 L
3386 2852 L
3420 2853 L
3453 2853 L
3455 2853 L
3486 2853 L
3520 2853 L
3553 2853 L
3586 2853 L
3605 2853 L
3620 2853 L
3653 2853 L
3686 2853 L
3720 2853 L
3753 2853 L
3755 2853 L
3786 2853 L
3820 2853 L
3853 2853 L
3886 2853 L
3905 2853 L
3920 2853 L
3953 2853 L
3986 2853 L
4020 2853 L
4053 2853 L
4086 2853 L
LWMC SL  C06 COSGR

%
% Experimental data:
%
GSN 773 4696 M
1625 4968 L
1773 4838 L
1860 4545 L
1922 4697 L
1970 4566 L
2009 4378 L
2043 4406 L
2072 4227 L
2097 4172 L
2120 4312 L
2140 4147 L
2159 4053 L
2176 4136 L
2192 4083 L
2207 3964 L
2221 4001 L
2234 3821 L
2247 3881 L
2259 3896 L
2270 3938 L
2280 3971 L
2290 3753 L
2300 3701 L
2309 3616 L
2318 3673 L
2326 3917 L
2335 3842 L
2342 3656 L
2350 3639 L
2357 3591 L
2364 3578 L
2371 3584 L
2378 3661 L
2384 3273 L
2391 3656 L
2397 3345 L
2403 3345 L
2409 3261 L
2414 3376 L
2420 3366 L
2425 3085 L
2430 3315 L
2435 3302 L
2440 3129 L
2445 3231 L
2450 3341 L
2455 3310 L
2459 3050 L
2464 3104 L
2468 3124 L
2472 3012 L
2476 2976 L
2481 3084 L
2485 3116 L
2489 2976 L
2492 2879 L
2496 2892 L
2500 2883 L
2504 3084 L
2507 2914 L
2511 3051 L
2514 3048 L
2518 2881 L
2521 2893 L
2525 2767 L
2528 2745 L
2531 2968 L
2534 2875 L
2538 2974 L
2541 2682 L
2544 2801 L
2547 2844 L
2550 2866 L
2553 2823 L
2556 2781 L
2559 2664 L
2561 2662 L
2564 2759 L
2567 2780 L
2570 2812 L
2580 2582 L
2590 2517 L
2600 2485 L
2609 2271 L
2618 2483 L
2627 2555 L
2635 2400 L
2643 2410 L
2650 2351 L
2658 2456 L
2665 2093 L
2672 2385 L
2678 2226 L
2685 2175 L
2691 2061 L
2697 2083 L
2703 2173 L
2709 2130 L
2714 2005 L
2720 2093 L
2725 2140 L
2730 2278 L
2735 2048 L
2740 2129 L
2745 2226 L
2750 2094 L
2755 2129 L
2759 2052 L
2764 2114 L
2768 2061 L
2772 2105 L
2777 1932 L
2781 1858 L
2785 1919 L
2789 1833 L
2793 1964 L
2796 1856 L
2800 2119 L
2804 2059 L
2808 2081 L
2811 2014 L
2815 2141 L
2818 2185 L
2822 1942 L
2825 2039 L
2828 2147 L
2831 1947 L
2835 2261 L
2838 2049 L
2841 1936 L
2844 2198 L
2847 2215 L
2850 2199 L
2853 2079 L
2856 1849 L
2859 2288 L
2862 2103 L
2864 2056 L
2867 2033 L
2870 2285 L
2873 2134 L
2875 2106 L
2878 2417 L
2880 2004 L
2883 1979 L
2886 2125 L
2888 2113 L
2891 2166 L
2893 2086 L
2895 1975 L
2898 2176 L
2900 2294 L
2902 2180 L
2905 2151 L
2907 2080 L
2909 2050 L
2912 2342 L
2914 2202 L
2916 2039 L
2918 2279 L
2920 2106 L
2922 2114 L
2925 2361 L
2927 2179 L
2929 2179 L
2931 2425 L
2933 2263 L
2935 2214 L
2937 2335 L
2939 2383 L
2941 2277 L
2943 2165 L
2945 2268 L
2947 2500 L
2948 2376 L
2950 2165 L
2952 2462 L
2954 2430 L
2956 2269 L
2958 2148 L
2959 2445 L
2961 2460 L
2963 2321 L
2965 2099 L
2966 2448 L
2968 2360 L
2970 2392 L
2972 2575 L
2973 2339 L
2975 2425 L
2977 2525 L
2978 2348 L
2980 2413 L
2982 2360 L
2983 2492 L
2985 2523 L
2986 2416 L
2988 2360 L
2989 2346 L
2991 2368 L
2993 2470 L
2994 2635 L
2996 2450 L
2997 2513 L
2999 2243 L
3000 2552 L
3002 2402 L
3003 2550 L
3005 2472 L
3006 2396 L
3007 2646 L
3009 2625 L
3010 2424 L
3012 2506 L
3013 2580 L
3014 2649 L
3016 2432 L
3017 2616 L
3019 2684 L
3020 2572 L
3021 2533 L
3023 2374 L
3024 2588 L
3025 2389 L
3027 2537 L
3028 2598 L
3029 2588 L
3031 2655 L
3032 2627 L
3033 2469 L
3034 2790 L
3036 2522 L
3037 2501 L
3038 2757 L
3039 2607 L
3041 2584 L
3042 2630 L
3043 2414 L
3044 2487 L
3045 2794 L
3047 2732 L
3048 2677 L
3049 2817 L
3050 2573 L
3051 2505 L
3053 2556 L
3054 2807 L
3055 2694 L
3056 2554 L
3057 2617 L
3058 2754 L
3059 2672 L
3061 2676 L
3062 2487 L
3063 2757 L
3064 2854 L
3065 2655 L
3066 2628 L
3067 2674 L
3068 2727 L
3069 2674 L
3070 2695 L
3071 2732 L
3073 2528 L
3074 2813 L
3075 2738 L
3076 2688 L
3077 2742 L
3078 2836 L
3079 2494 L
3080 2626 L
3081 2705 L
3082 2844 L
3083 2665 L
3084 2758 L
3085 2696 L
3086 2756 L
3087 2761 L
3088 2471 L
3089 2901 L
3112 2778 L
3133 2977 L
3152 2798 L
3170 2766 L
3186 3029 L
3201 3021 L
3216 2915 L
3229 2866 L
3241 3105 L
3253 2959 L
3264 3031 L
3275 2820 L
3285 2996 L
3295 2939 L
3304 3007 L
3313 2978 L
3322 3063 L
3330 2991 L
3338 2915 L
3346 3070 L
3353 2982 L
3360 2998 L
3367 3033 L
3374 3086 L
3380 2994 L
3387 2902 L
3393 3111 L
3399 2976 L
3405 3191 L
3410 3328 L
3416 3111 L
3421 3020 L
3426 2938 L
3431 3174 L
3436 3085 L
3441 2915 L
3446 2995 L
3451 3046 L
3455 3204 L
3460 3254 L
3464 2938 L
3469 2928 L
3473 2978 L
3477 3109 L
3481 3017 L
3485 3147 L
3489 3101 L
3493 3007 L
3496 3018 L
3500 3002 L
3504 3013 L
3507 3024 L
3511 2895 L
3514 2961 L
3518 3279 L
3521 2968 L
3525 3039 L
3528 2870 L
3531 2893 L
3534 3024 L
3537 2954 L
3540 2985 L
3543 2936 L
3546 3035 L
3549 3127 L
3552 2903 L
3555 3266 L
3558 2952 L
3561 2990 L
3564 3095 L
3566 2898 L
3575 2851 L
3586 3078 L
3595 3133 L
3605 2817 L
3613 3013 L
3622 2836 L
3630 2877 L
3638 3099 L
3646 2971 L
3653 2932 L
3660 2813 L
3667 2921 L
3674 2949 L
3681 3100 L
3687 3020 L
3693 2850 L
3699 2926 L
3705 2925 L
3710 3009 L
3716 2745 L
3721 2866 L
3727 2817 L
3732 2797 L
3737 2923 L
3742 2823 L
3746 2800 L
3751 2975 L
3756 3155 L
3760 3024 L
3764 2907 L
3769 2730 L
3773 2979 L
3777 2704 L
3781 2885 L
3785 2949 L
3789 2829 L
3793 2874 L
3797 2938 L
3800 2946 L
3804 2789 L
3808 2722 L
3811 2717 L
3815 2717 L
3818 2815 L
3821 2818 L
3825 2692 L
3828 2775 L
3831 2782 L
3834 2589 L
3838 2777 L
3841 2858 L
3844 2842 L
3847 2742 L
3850 2782 L
3853 2741 L
3855 2871 L
3858 2749 L
3861 2835 L
3864 2995 L
3867 2873 L
3869 2751 L
3872 2878 L
3875 2814 L
3877 2820 L
3880 2848 L
3882 2596 L
3885 2644 L
3887 2783 L
3890 2872 L
3892 2816 L
3895 2710 L
3897 2736 L
3899 2770 L
3902 2856 L
3904 2763 L
3906 2951 L
3908 2848 L
3911 2796 L
3913 2975 L
3915 2871 L
3917 2788 L
3919 2804 L
3921 2805 L
3923 2755 L
3926 2643 L
3928 2893 L
3930 2688 L
3932 2911 L
3934 2936 L
3936 2820 L
3938 2738 L
3940 2745 L
3942 2897 L
3943 2928 L
3945 2769 L
3947 2829 L
3949 2916 L
3951 2808 L
3953 2774 L
3955 2781 L
3956 2691 L
3958 2556 L
3960 2626 L
3962 2640 L
3963 2643 L
3965 2738 L
3967 2714 L
3969 2804 L
3970 2885 L
3972 2743 L
3974 2759 L
3975 2946 L
3977 2834 L
3978 2687 L
3980 2835 L
3982 3041 L
3983 2682 L
3985 2771 L
3986 2868 L
3988 2562 L
3990 2611 L
3991 2629 L
3993 2944 L
3994 2835 L
3996 2692 L
3997 2761 L
3999 2625 L
4000 2749 L
4001 2459 L
4003 2866 L
4004 2717 L
4006 2604 L
4007 2574 L
4009 2880 L
4010 2745 L
4011 2532 L
4013 2869 L
4014 2826 L
4016 2872 L
4017 2611 L
4018 2745 L
4020 2619 L
4021 2678 L
4022 2864 L
4024 2622 L
4025 2776 L
4026 2608 L
4028 2526 L
4029 2708 L
4030 2735 L
4031 2794 L
4033 2765 L
4034 2794 L
4035 2792 L
4036 2915 L
4038 2854 L
4039 2820 L
4040 2716 L
4041 2714 L
4042 2587 L
4044 2639 L
4045 2749 L
4046 2730 L
4047 2759 L
4048 2700 L
4050 2828 L
4051 2665 L
4052 2994 L
4053 2646 L
4054 2811 L
4055 2668 L
4056 2648 L
4058 2933 L
4059 2721 L
4060 2735 L
4061 2714 L
4062 2872 L
4063 2902 L
4064 2705 L
4065 2754 L
4066 2623 L
L2 C06 COSGR

%
%================
% Legend - Begin
%================
%
GSN 4240 5180 M
4480 5180 L
LWMC SL  C06 COSGR
GSN 4540 5141 M helvM (3.0 uM) show grestore
%
%================
% Legend - End
%================
%

%
% Residuals:
%
GSN 773 750 M
1625 1061 L
1773 1021 L
1860 837 L
1922 1037 L
1970 988 L
2009 888 L
2043 973 L
2072 877 L
2097 887 L
2120 1063 L
2140 974 L
2159 944 L
2176 1066 L
2192 1068 L
2207 1012 L
2221 1090 L
2234 979 L
2247 1074 L
2259 1128 L
2270 1204 L
2280 1272 L
2290 1122 L
2300 1113 L
2309 1077 L
2318 1160 L
2326 1405 L
2335 1374 L
2342 1245 L
2350 1261 L
2357 1250 L
2364 1268 L
2371 1302 L
2378 1397 L
2384 1088 L
2391 1446 L
2397 1203 L
2403 1228 L
2409 1180 L
2414 1303 L
2420 1318 L
2425 1097 L
2430 1318 L
2435 1328 L
2440 1199 L
2445 1308 L
2450 1423 L
2455 1416 L
2459 1210 L
2464 1275 L
2468 1310 L
2472 1230 L
2476 1217 L
2481 1326 L
2485 1371 L
2489 1265 L
2492 1197 L
2496 1223 L
2500 1230 L
2504 1418 L
2507 1285 L
2511 1417 L
2514 1428 L
2518 1297 L
2521 1320 L
2525 1224 L
2528 1216 L
2531 1422 L
2534 1352 L
2538 1449 L
2541 1208 L
2544 1322 L
2547 1369 L
2550 1399 L
2553 1372 L
2556 1345 L
2559 1253 L
2561 1261 L
2564 1354 L
2567 1380 L
2570 1417 L
2580 1252 L
2590 1225 L
2600 1224 L
2609 1063 L
2618 1269 L
2627 1352 L
2635 1236 L
2643 1261 L
2650 1225 L
2658 1329 L
2665 1027 L
2672 1290 L
2678 1163 L
2685 1127 L
2691 1036 L
2697 1062 L
2703 1145 L
2709 1113 L
2714 1010 L
2720 1090 L
2725 1134 L
2730 1255 L
2735 1059 L
2740 1130 L
2745 1216 L
2750 1102 L
2755 1133 L
2759 1066 L
2764 1119 L
2768 1073 L
2772 1110 L
2777 959 L
2781 894 L
2785 945 L
2789 869 L
2793 980 L
2796 885 L
2800 1110 L
2804 1055 L
2808 1072 L
2811 1011 L
2815 1118 L
2818 1154 L
2822 940 L
2825 1021 L
2828 1111 L
2831 935 L
2835 1203 L
2838 1017 L
2841 915 L
2844 1138 L
2847 1150 L
2850 1133 L
2853 1025 L
2856 823 L
2859 1199 L
2862 1036 L
2864 992 L
2867 968 L
2870 1182 L
2873 1047 L
2875 1020 L
2878 1286 L
2880 925 L
2883 899 L
2886 1022 L
2888 1008 L
2891 1050 L
2893 977 L
2895 878 L
2898 1048 L
2900 1146 L
2902 1044 L
2905 1015 L
2907 950 L
2909 921 L
2912 1171 L
2914 1046 L
2916 901 L
2918 1105 L
2920 952 L
2922 956 L
2925 1166 L
2927 1005 L
2929 1001 L
2931 1211 L
2933 1068 L
2935 1022 L
2937 1124 L
2939 1162 L
2941 1067 L
2943 966 L
2945 1052 L
2947 1250 L
2948 1140 L
2950 954 L
2952 1207 L
2954 1177 L
2956 1035 L
2958 927 L
2959 1180 L
2961 1191 L
2963 1067 L
2965 872 L
2966 1171 L
2968 1093 L
2970 1117 L
2972 1272 L
2973 1065 L
2975 1137 L
2977 1221 L
2978 1065 L
2980 1119 L
2982 1070 L
2983 1182 L
2985 1206 L
2986 1111 L
2988 1059 L
2989 1044 L
2991 1061 L
2993 1147 L
2994 1286 L
2996 1124 L
2997 1176 L
2999 940 L
3000 1205 L
3002 1072 L
3003 1198 L
3005 1128 L
3006 1060 L
3007 1274 L
3009 1253 L
3010 1077 L
3012 1146 L
3013 1208 L
3014 1265 L
3016 1075 L
3017 1232 L
3019 1288 L
3020 1189 L
3021 1153 L
3023 1014 L
3024 1196 L
3025 1022 L
3027 1148 L
3028 1199 L
3029 1188 L
3031 1244 L
3032 1217 L
3033 1078 L
3034 1354 L
3036 1120 L
3037 1100 L
3038 1320 L
3039 1188 L
3041 1166 L
3042 1204 L
3043 1015 L
3044 1077 L
3045 1340 L
3047 1285 L
3048 1235 L
3049 1354 L
3050 1142 L
3051 1081 L
3053 1123 L
3054 1338 L
3055 1239 L
3056 1117 L
3057 1169 L
3058 1286 L
3059 1213 L
3061 1215 L
3062 1050 L
3063 1281 L
3064 1364 L
3065 1190 L
3066 1165 L
3067 1203 L
3068 1247 L
3069 1200 L
3070 1216 L
3071 1247 L
3073 1069 L
3074 1314 L
3075 1247 L
3076 1203 L
3077 1248 L
3078 1327 L
3079 1031 L
3080 1143 L
3081 1210 L
3082 1328 L
3083 1172 L
3084 1251 L
3085 1197 L
3086 1247 L
3087 1250 L
3088 997 L
3089 1368 L
3112 1231 L
3133 1377 L
3152 1202 L
3170 1157 L
3186 1371 L
3201 1353 L
3216 1251 L
3229 1202 L
3241 1402 L
3253 1271 L
3264 1329 L
3275 1144 L
3285 1293 L
3295 1241 L
3304 1298 L
3313 1272 L
3322 1344 L
3330 1281 L
3338 1215 L
3346 1347 L
3353 1271 L
3360 1284 L
3367 1314 L
3374 1360 L
3380 1280 L
3387 1200 L
3393 1381 L
3399 1264 L
3405 1450 L
3410 1569 L
3416 1380 L
3421 1301 L
3426 1231 L
3431 1435 L
3436 1358 L
3441 1211 L
3446 1280 L
3451 1324 L
3455 1460 L
3460 1504 L
3464 1230 L
3469 1222 L
3473 1265 L
3477 1378 L
3481 1299 L
3485 1411 L
3489 1371 L
3493 1290 L
3496 1300 L
3500 1286 L
3504 1295 L
3507 1305 L
3511 1193 L
3514 1251 L
3518 1526 L
3521 1256 L
3525 1318 L
3528 1172 L
3531 1191 L
3534 1305 L
3537 1244 L
3540 1272 L
3543 1228 L
3546 1314 L
3549 1394 L
3552 1200 L
3555 1514 L
3558 1243 L
3561 1276 L
3564 1366 L
3566 1196 L
3575 1155 L
3586 1352 L
3595 1399 L
3605 1126 L
3613 1295 L
3622 1142 L
3630 1178 L
3638 1370 L
3646 1259 L
3653 1226 L
3660 1123 L
3667 1216 L
3674 1240 L
3681 1371 L
3687 1301 L
3693 1154 L
3699 1220 L
3705 1219 L
3710 1292 L
3716 1063 L
3721 1168 L
3727 1126 L
3732 1108 L
3737 1218 L
3742 1131 L
3746 1111 L
3751 1262 L
3756 1418 L
3760 1305 L
3764 1203 L
3769 1050 L
3773 1266 L
3777 1028 L
3781 1185 L
3785 1240 L
3789 1136 L
3793 1175 L
3797 1230 L
3800 1237 L
3804 1102 L
3808 1044 L
3811 1039 L
3815 1040 L
3818 1124 L
3821 1127 L
3825 1018 L
3828 1090 L
3831 1096 L
3834 928 L
3838 1092 L
3841 1162 L
3844 1148 L
3847 1061 L
3850 1096 L
3853 1060 L
3855 1172 L
3858 1067 L
3861 1141 L
3864 1280 L
3867 1174 L
3869 1069 L
3872 1179 L
3875 1123 L
3877 1128 L
3880 1152 L
3882 935 L
3885 976 L
3887 1096 L
3890 1174 L
3892 1125 L
3895 1033 L
3897 1056 L
3899 1086 L
3902 1160 L
3904 1079 L
3906 1242 L
3908 1153 L
3911 1108 L
3913 1263 L
3915 1172 L
3917 1100 L
3919 1114 L
3921 1115 L
3923 1072 L
3926 976 L
3928 1191 L
3930 1014 L
3932 1208 L
3934 1228 L
3936 1129 L
3938 1057 L
3940 1064 L
3942 1195 L
3943 1222 L
3945 1084 L
3947 1136 L
3949 1212 L
3951 1118 L
3953 1088 L
3955 1094 L
3956 1017 L
3958 900 L
3960 961 L
3962 973 L
3963 975 L
3965 1057 L
3967 1037 L
3969 1114 L
3970 1185 L
3972 1062 L
3974 1076 L
3975 1237 L
3977 1141 L
3978 1013 L
3980 1141 L
3982 1319 L
3983 1009 L
3985 1086 L
3986 1170 L
3988 906 L
3990 948 L
3991 963 L
3993 1236 L
3994 1141 L
3996 1017 L
3997 1077 L
3999 959 L
4000 1067 L
4001 817 L
4003 1168 L
4004 1039 L
4006 942 L
4007 916 L
4009 1180 L
4010 1063 L
4011 879 L
4013 1171 L
4014 1133 L
4016 1173 L
4017 947 L
4018 1064 L
4020 955 L
4021 1005 L
4022 1166 L
4024 957 L
4025 1090 L
4026 945 L
4028 874 L
4029 1032 L
4030 1054 L
4031 1106 L
4033 1081 L
4034 1106 L
4035 1104 L
4036 1211 L
4038 1158 L
4039 1129 L
4040 1038 L
4041 1037 L
4042 926 L
4044 972 L
4045 1067 L
4046 1050 L
4047 1076 L
4048 1024 L
4050 1135 L
4051 994 L
4052 1279 L
4053 978 L
4054 1121 L
4055 997 L
4056 980 L
4058 1226 L
4059 1042 L
4060 1055 L
4061 1036 L
4062 1174 L
4063 1199 L
4064 1029 L
4065 1071 L
4066 958 L
L2 C06 COSGR

%
% Main frame
%
L10
GSN 
620 1700 M
4220 1700 L
4220 5300 L
620 5300 L
closepath SGR

%
% X axis: large tics
%
L10
GSN 1074 1700 M 0  54 rL SGR
GSN 1074 5300 M 0 -54 rL SGR
helvS (0.0001) 1074 470 xlabel
GSN 1572 1700 M 0  54 rL SGR
GSN 1572 5300 M 0 -54 rL SGR
helvS (0.001) 1572 470 xlabel
GSN 2071 1700 M 0  54 rL SGR
GSN 2071 5300 M 0 -54 rL SGR
helvS (0.01) 2071 470 xlabel
GSN 2570 1700 M 0  54 rL SGR
GSN 2570 5300 M 0 -54 rL SGR
helvS (0.1) 2570 470 xlabel
GSN 3068 1700 M 0  54 rL SGR
GSN 3068 5300 M 0 -54 rL SGR
helvS (1) 3068 470 xlabel
GSN 3567 1700 M 0  54 rL SGR
GSN 3567 5300 M 0 -54 rL SGR
helvS (10) 3567 470 xlabel
GSN 4066 1700 M 0  54 rL SGR
GSN 4066 5300 M 0 -54 rL SGR
helvS (100) 4066 470 xlabel
%
% X axis: small tics
%
L5
GSN 725 1700 M 0  36 rL SGR
GSN 725 5300 M 0 -36 rL SGR
GSN 813 1700 M 0  36 rL SGR
GSN 813 5300 M 0 -36 rL SGR
GSN 875 1700 M 0  36 rL SGR
GSN 875 5300 M 0 -36 rL SGR
GSN 924 1700 M 0  36 rL SGR
GSN 924 5300 M 0 -36 rL SGR
GSN 963 1700 M 0  36 rL SGR
GSN 963 5300 M 0 -36 rL SGR
GSN 996 1700 M 0  36 rL SGR
GSN 996 5300 M 0 -36 rL SGR
GSN 1025 1700 M 0  36 rL SGR
GSN 1025 5300 M 0 -36 rL SGR
GSN 1051 1700 M 0  36 rL SGR
GSN 1051 5300 M 0 -36 rL SGR
GSN 1224 1700 M 0  36 rL SGR
GSN 1224 5300 M 0 -36 rL SGR
GSN 1312 1700 M 0  36 rL SGR
GSN 1312 5300 M 0 -36 rL SGR
GSN 1374 1700 M 0  36 rL SGR
GSN 1374 5300 M 0 -36 rL SGR
GSN 1422 1700 M 0  36 rL SGR
GSN 1422 5300 M 0 -36 rL SGR
GSN 1462 1700 M 0  36 rL SGR
GSN 1462 5300 M 0 -36 rL SGR
GSN 1495 1700 M 0  36 rL SGR
GSN 1495 5300 M 0 -36 rL SGR
GSN 1524 1700 M 0  36 rL SGR
GSN 1524 5300 M 0 -36 rL SGR
GSN 1550 1700 M 0  36 rL SGR
GSN 1550 5300 M 0 -36 rL SGR
GSN 1722 1700 M 0  36 rL SGR
GSN 1722 5300 M 0 -36 rL SGR
GSN 1810 1700 M 0  36 rL SGR
GSN 1810 5300 M 0 -36 rL SGR
GSN 1873 1700 M 0  36 rL SGR
GSN 1873 5300 M 0 -36 rL SGR
GSN 1921 1700 M 0  36 rL SGR
GSN 1921 5300 M 0 -36 rL SGR
GSN 1960 1700 M 0  36 rL SGR
GSN 1960 5300 M 0 -36 rL SGR
GSN 1994 1700 M 0  36 rL SGR
GSN 1994 5300 M 0 -36 rL SGR
GSN 2023 1700 M 0  36 rL SGR
GSN 2023 5300 M 0 -36 rL SGR
GSN 2048 1700 M 0  36 rL SGR
GSN 2048 5300 M 0 -36 rL SGR
GSN 2221 1700 M 0  36 rL SGR
GSN 2221 5300 M 0 -36 rL SGR
GSN 2309 1700 M 0  36 rL SGR
GSN 2309 5300 M 0 -36 rL SGR
GSN 2371 1700 M 0  36 rL SGR
GSN 2371 5300 M 0 -36 rL SGR
GSN 2420 1700 M 0  36 rL SGR
GSN 2420 5300 M 0 -36 rL SGR
GSN 2459 1700 M 0  36 rL SGR
GSN 2459 5300 M 0 -36 rL SGR
GSN 2492 1700 M 0  36 rL SGR
GSN 2492 5300 M 0 -36 rL SGR
GSN 2521 1700 M 0  36 rL SGR
GSN 2521 5300 M 0 -36 rL SGR
GSN 2547 1700 M 0  36 rL SGR
GSN 2547 5300 M 0 -36 rL SGR
GSN 2720 1700 M 0  36 rL SGR
GSN 2720 5300 M 0 -36 rL SGR
GSN 2808 1700 M 0  36 rL SGR
GSN 2808 5300 M 0 -36 rL SGR
GSN 2870 1700 M 0  36 rL SGR
GSN 2870 5300 M 0 -36 rL SGR
GSN 2918 1700 M 0  36 rL SGR
GSN 2918 5300 M 0 -36 rL SGR
GSN 2958 1700 M 0  36 rL SGR
GSN 2958 5300 M 0 -36 rL SGR
GSN 2991 1700 M 0  36 rL SGR
GSN 2991 5300 M 0 -36 rL SGR
GSN 3020 1700 M 0  36 rL SGR
GSN 3020 5300 M 0 -36 rL SGR
GSN 3045 1700 M 0  36 rL SGR
GSN 3045 5300 M 0 -36 rL SGR
GSN 3218 1700 M 0  36 rL SGR
GSN 3218 5300 M 0 -36 rL SGR
GSN 3306 1700 M 0  36 rL SGR
GSN 3306 5300 M 0 -36 rL SGR
GSN 3368 1700 M 0  36 rL SGR
GSN 3368 5300 M 0 -36 rL SGR
GSN 3417 1700 M 0  36 rL SGR
GSN 3417 5300 M 0 -36 rL SGR
GSN 3456 1700 M 0  36 rL SGR
GSN 3456 5300 M 0 -36 rL SGR
GSN 3490 1700 M 0  36 rL SGR
GSN 3490 5300 M 0 -36 rL SGR
GSN 3519 1700 M 0  36 rL SGR
GSN 3519 5300 M 0 -36 rL SGR
GSN 3544 1700 M 0  36 rL SGR
GSN 3544 5300 M 0 -36 rL SGR
GSN 3717 1700 M 0  36 rL SGR
GSN 3717 5300 M 0 -36 rL SGR
GSN 3805 1700 M 0  36 rL SGR
GSN 3805 5300 M 0 -36 rL SGR
GSN 3867 1700 M 0  36 rL SGR
GSN 3867 5300 M 0 -36 rL SGR
GSN 3915 1700 M 0  36 rL SGR
GSN 3915 5300 M 0 -36 rL SGR
GSN 3955 1700 M 0  36 rL SGR
GSN 3955 5300 M 0 -36 rL SGR
GSN 3988 1700 M 0  36 rL SGR
GSN 3988 5300 M 0 -36 rL SGR
GSN 4017 1700 M 0  36 rL SGR
GSN 4017 5300 M 0 -36 rL SGR
GSN 4043 1700 M 0  36 rL SGR
GSN 4043 5300 M 0 -36 rL SGR
GSN 4216 1700 M 0  36 rL SGR
GSN 4216 5300 M 0 -36 rL SGR
%
% Y axis: large tics
%
L10
GSN 620 2346 M 54 0 rL SGR
GSN 4220 2346 M -54 0 rL SGR
helvS (0.92) 560 2346 ylabel
GSN 620 3163 M 54 0 rL SGR
GSN 4220 3163 M -54 0 rL SGR
helvS (0.94) 560 3163 ylabel
GSN 620 3980 M 54 0 rL SGR
GSN 4220 3980 M -54 0 rL SGR
helvS (0.96) 560 3980 ylabel
GSN 620 4797 M 54 0 rL SGR
GSN 4220 4797 M -54 0 rL SGR
helvS (0.98) 560 4797 ylabel
%
% Y axis: small tics
%
L5
GSN 620 1733 M 36 0 rL SGR
GSN 4220 1733 M -36 0 rL SGR
GSN 620 1937 M 36 0 rL SGR
GSN 4220 1937 M -36 0 rL SGR
GSN 620 2141 M 36 0 rL SGR
GSN 4220 2141 M -36 0 rL SGR
GSN 620 2346 M 36 0 rL SGR
GSN 4220 2346 M -36 0 rL SGR
GSN 620 2550 M 36 0 rL SGR
GSN 4220 2550 M -36 0 rL SGR
GSN 620 2754 M 36 0 rL SGR
GSN 4220 2754 M -36 0 rL SGR
GSN 620 2959 M 36 0 rL SGR
GSN 4220 2959 M -36 0 rL SGR
GSN 620 3163 M 36 0 rL SGR
GSN 4220 3163 M -36 0 rL SGR
GSN 620 3367 M 36 0 rL SGR
GSN 4220 3367 M -36 0 rL SGR
GSN 620 3571 M 36 0 rL SGR
GSN 4220 3571 M -36 0 rL SGR
GSN 620 3776 M 36 0 rL SGR
GSN 4220 3776 M -36 0 rL SGR
GSN 620 3980 M 36 0 rL SGR
GSN 4220 3980 M -36 0 rL SGR
GSN 620 4184 M 36 0 rL SGR
GSN 4220 4184 M -36 0 rL SGR
GSN 620 4389 M 36 0 rL SGR
GSN 4220 4389 M -36 0 rL SGR
GSN 620 4593 M 36 0 rL SGR
GSN 4220 4593 M -36 0 rL SGR
GSN 620 4797 M 36 0 rL SGR
GSN 4220 4797 M -36 0 rL SGR
GSN 620 5001 M 36 0 rL SGR
GSN 4220 5001 M -36 0 rL SGR
GSN 620 5206 M 36 0 rL SGR
GSN 4220 5206 M -36 0 rL SGR

%
% X-Axis label:
%
gsave 2420 290 M 
[
[(Helvetica) 180 0 true true 0 (t)]
[(Helvetica) 180 0 true true 0 (i)]
[(Helvetica) 180 0 true true 0 (m)]
[(Helvetica) 180 0 true true 0 (e)]
] 0 MCshow grestore

%
% Y-Axis label:
%
gsave 234 3499 M 
currentpoint gsave translate 90 rotate 0 0 moveto
[
[(Helvetica) 180 0 true true 0 (s)]
[(Helvetica) 180 0 true true 0 (i)]
[(Helvetica) 180 0 true true 0 (g)]
[(Helvetica) 180 0 true true 0 (n)]
[(Helvetica) 180 0 true true 0 (a)]
[(Helvetica) 180 0 true true 0 (l)]
] 0 MCshow grestore

%
% Residuals:
%
gsave 129 1160 M 
currentpoint gsave translate 90 rotate 0 0 moveto
[
[(Helvetica) 150 0 true true 0 (r)]
[(Helvetica) 150 0 true true 0 (e)]
[(Helvetica) 150 0 true true 0 (s)]
[(Helvetica) 150 0 true true 0 (i)]
[(Helvetica) 150 0 true true 0 (d)]
[(Helvetica) 150 0 true true 0 (u)]
[(Helvetica) 150 0 true true 0 (a)]
[(Helvetica) 150 0 true true 0 (l)]
[(Helvetica) 150 0 true true 0 (s)]
] 0 MCshow grestore

%
% Residual frame
%
L10
GSN 
620 620 M
4220 620 L
4220 1700 L
620 1700 L
closepath SGR
%
% X axis: large tics - residual frame
%
L10
GSN 1074 620 M 0  54 rL SGR
GSN 1074 1700 M 0 -54 rL SGR
GSN 1572 620 M 0  54 rL SGR
GSN 1572 1700 M 0 -54 rL SGR
GSN 2071 620 M 0  54 rL SGR
GSN 2071 1700 M 0 -54 rL SGR
GSN 2570 620 M 0  54 rL SGR
GSN 2570 1700 M 0 -54 rL SGR
GSN 3068 620 M 0  54 rL SGR
GSN 3068 1700 M 0 -54 rL SGR
GSN 3567 620 M 0  54 rL SGR
GSN 3567 1700 M 0 -54 rL SGR
GSN 4066 620 M 0  54 rL SGR
GSN 4066 1700 M 0 -54 rL SGR
%
% X axis: small tics - residual frame
%
L5
GSN 725 620 M 0  36 rL SGR
GSN 725 1700 M 0 -36 rL SGR
GSN 813 620 M 0  36 rL SGR
GSN 813 1700 M 0 -36 rL SGR
GSN 875 620 M 0  36 rL SGR
GSN 875 1700 M 0 -36 rL SGR
GSN 924 620 M 0  36 rL SGR
GSN 924 1700 M 0 -36 rL SGR
GSN 963 620 M 0  36 rL SGR
GSN 963 1700 M 0 -36 rL SGR
GSN 996 620 M 0  36 rL SGR
GSN 996 1700 M 0 -36 rL SGR
GSN 1025 620 M 0  36 rL SGR
GSN 1025 1700 M 0 -36 rL SGR
GSN 1051 620 M 0  36 rL SGR
GSN 1051 1700 M 0 -36 rL SGR
GSN 1224 620 M 0  36 rL SGR
GSN 1224 1700 M 0 -36 rL SGR
GSN 1312 620 M 0  36 rL SGR
GSN 1312 1700 M 0 -36 rL SGR
GSN 1374 620 M 0  36 rL SGR
GSN 1374 1700 M 0 -36 rL SGR
GSN 1422 620 M 0  36 rL SGR
GSN 1422 1700 M 0 -36 rL SGR
GSN 1462 620 M 0  36 rL SGR
GSN 1462 1700 M 0 -36 rL SGR
GSN 1495 620 M 0  36 rL SGR
GSN 1495 1700 M 0 -36 rL SGR
GSN 1524 620 M 0  36 rL SGR
GSN 1524 1700 M 0 -36 rL SGR
GSN 1550 620 M 0  36 rL SGR
GSN 1550 1700 M 0 -36 rL SGR
GSN 1722 620 M 0  36 rL SGR
GSN 1722 1700 M 0 -36 rL SGR
GSN 1810 620 M 0  36 rL SGR
GSN 1810 1700 M 0 -36 rL SGR
GSN 1873 620 M 0  36 rL SGR
GSN 1873 1700 M 0 -36 rL SGR
GSN 1921 620 M 0  36 rL SGR
GSN 1921 1700 M 0 -36 rL SGR
GSN 1960 620 M 0  36 rL SGR
GSN 1960 1700 M 0 -36 rL SGR
GSN 1994 620 M 0  36 rL SGR
GSN 1994 1700 M 0 -36 rL SGR
GSN 2023 620 M 0  36 rL SGR
GSN 2023 1700 M 0 -36 rL SGR
GSN 2048 620 M 0  36 rL SGR
GSN 2048 1700 M 0 -36 rL SGR
GSN 2221 620 M 0  36 rL SGR
GSN 2221 1700 M 0 -36 rL SGR
GSN 2309 620 M 0  36 rL SGR
GSN 2309 1700 M 0 -36 rL SGR
GSN 2371 620 M 0  36 rL SGR
GSN 2371 1700 M 0 -36 rL SGR
GSN 2420 620 M 0  36 rL SGR
GSN 2420 1700 M 0 -36 rL SGR
GSN 2459 620 M 0  36 rL SGR
GSN 2459 1700 M 0 -36 rL SGR
GSN 2492 620 M 0  36 rL SGR
GSN 2492 1700 M 0 -36 rL SGR
GSN 2521 620 M 0  36 rL SGR
GSN 2521 1700 M 0 -36 rL SGR
GSN 2547 620 M 0  36 rL SGR
GSN 2547 1700 M 0 -36 rL SGR
GSN 2720 620 M 0  36 rL SGR
GSN 2720 1700 M 0 -36 rL SGR
GSN 2808 620 M 0  36 rL SGR
GSN 2808 1700 M 0 -36 rL SGR
GSN 2870 620 M 0  36 rL SGR
GSN 2870 1700 M 0 -36 rL SGR
GSN 2918 620 M 0  36 rL SGR
GSN 2918 1700 M 0 -36 rL SGR
GSN 2958 620 M 0  36 rL SGR
GSN 2958 1700 M 0 -36 rL SGR
GSN 2991 620 M 0  36 rL SGR
GSN 2991 1700 M 0 -36 rL SGR
GSN 3020 620 M 0  36 rL SGR
GSN 3020 1700 M 0 -36 rL SGR
GSN 3045 620 M 0  36 rL SGR
GSN 3045 1700 M 0 -36 rL SGR
GSN 3218 620 M 0  36 rL SGR
GSN 3218 1700 M 0 -36 rL SGR
GSN 3306 620 M 0  36 rL SGR
GSN 3306 1700 M 0 -36 rL SGR
GSN 3368 620 M 0  36 rL SGR
GSN 3368 1700 M 0 -36 rL SGR
GSN 3417 620 M 0  36 rL SGR
GSN 3417 1700 M 0 -36 rL SGR
GSN 3456 620 M 0  36 rL SGR
GSN 3456 1700 M 0 -36 rL SGR
GSN 3490 620 M 0  36 rL SGR
GSN 3490 1700 M 0 -36 rL SGR
GSN 3519 620 M 0  36 rL SGR
GSN 3519 1700 M 0 -36 rL SGR
GSN 3544 620 M 0  36 rL SGR
GSN 3544 1700 M 0 -36 rL SGR
GSN 3717 620 M 0  36 rL SGR
GSN 3717 1700 M 0 -36 rL SGR
GSN 3805 620 M 0  36 rL SGR
GSN 3805 1700 M 0 -36 rL SGR
GSN 3867 620 M 0  36 rL SGR
GSN 3867 1700 M 0 -36 rL SGR
GSN 3915 620 M 0  36 rL SGR
GSN 3915 1700 M 0 -36 rL SGR
GSN 3955 620 M 0  36 rL SGR
GSN 3955 1700 M 0 -36 rL SGR
GSN 3988 620 M 0  36 rL SGR
GSN 3988 1700 M 0 -36 rL SGR
GSN 4017 620 M 0  36 rL SGR
GSN 4017 1700 M 0 -36 rL SGR
GSN 4043 620 M 0  36 rL SGR
GSN 4043 1700 M 0 -36 rL SGR
GSN 4216 620 M 0  36 rL SGR
GSN 4216 1700 M 0 -36 rL SGR
%
% Y axis: large tics - residual frame
%
L10
GSN 620 804 M 54 0 rL SGR
GSN 4220 804 M -54 0 rL SGR
helvS (-0.01) 560 804 ylabelresid
GSN 620 1157 M 54 0 rL SGR
GSN 4220 1157 M -54 0 rL SGR
helvS (0) 560 1157 ylabelresid
GSN 620 1511 M 54 0 rL SGR
GSN 4220 1511 M -54 0 rL SGR
helvS (0.01) 560 1511 ylabelresid

%
% X axis - residual panel
%
GSN L5 620 1157 M 4220 1157 L SDA G50 SGR

end
showpage
%%Trailer
%%EOF
