%!PS-Adobe-3.0 EPSF-3.0
%%BoundingBox: 0 0 514 550
%%Creator: BioKin Ltd.
%%DocumentFonts: Symbol Helvetica
%%EndComments
%
/bkdict 256 dict def
bkdict begin
/M {moveto} def 
/R {rmoveto} def
/L {lineto} def
/rL {rlineto} def
/GSN {gsave newpath} def
/SGR {stroke grestore} def
/COSGR {gsave setrgbcolor stroke grestore grestore} def
/SL {setlinewidth} def
/LWMB {12} def             % line width - model curves, black & white
/LWMC {10} def             % line width - model curves, color
/L2 {2.5 setlinewidth} def
/L5 {5 setlinewidth} def
/L10 {10 setlinewidth} def
/G50 {0.5 setgray} def
/SDA {[10  20] 0 setdash} def % axes
/helvT {/Helvetica findfont 100 scalefont setfont} def % tiny
/helvS {/Helvetica findfont 125 scalefont setfont} def % small
/helvM {/Helvetica findfont 150 scalefont setfont} def % medium
/helvL {/Helvetica findfont 175 scalefont setfont} def % large
/xlabel {gsave M dup
   stringwidth exch -0.5 mul exch rmoveto show grestore} def 
/ylabel {gsave M 90 rotate dup
   stringwidth exch -0.5 mul exch rmoveto show grestore} def
/ylabelresid {gsave M dup
   stringwidth exch -1 mul exch rmoveto show grestore} def
% ======
% Shapes
% ======
% Circle:
/Circ {0 360 arc closepath} def
%
% Square:
/Squa {dup dup -0.5 mul dup dup R -2 mul 0 exch rL 1 mul 0 rL dup 0 exch -1 mul rL closepath} def
%
% Triangle Up:
/TriU {dup dup dup -0.4 mul exch -0.5 mul exch R dup 0.5 mul exch rL dup -1 mul exch 0.5 mul exch rL closepath} def 
%
% Triangle Down:
/TriD {dup dup dup 0.4 mul exch -0.5 mul exch R dup 0.5 mul exch -1 mul rL dup 0.5 mul exch rL closepath} def 
%
% Diamond:
/Diam {45 rotate Squa} def
% ======
% Fills
% ======
/GRF {gsave setgray fill grestore} def                    % gray-level Fill
/COF {gsave setrgbcolor fill grestore} def                % color fill
% ======
% Colors
% ======
/C01 {1.00	0.00	0.00} def      % Red
/C02 {0.00	0.00	1.00} def      % Blue
/C03 {0.00	0.39	0.00} def      % Dark Green
/C04 {0.78	0.08	0.52} def      % Medium Violet Red
/C05 {0.55	0.27	0.07} def      % Saddle Brown
/C06 {0.10	0.70	0.70} def      % (cyan)
/C07 {1.00	0.55	0.00} def      % Dark Orange
/C08 {0.63	0.13	0.94} def      % Purple
/C09 {0.00	0.75	1.00} def      % Deep Sky Blue
/C10 {0.20	0.80	0.20} def      % Lime Green
/C11 {0.47	0.53	0.60} def      % Light Slate Gray
/C12 {0.00	0.00	0.00} def      % Black            % or: {0.19	0.31	0.31} def      % Dark Slate Gray
%
/LGR {0.75} def % light gray
/DGR {0.33} def % dark gray
%
% =============
% Dash patterns
% =============
/dash01 { [80  20] 0 setdash } def
/dash02 { [40  20] 0 setdash } def
/dash03 { [80  20  10  20] 0 setdash } def
/dash04 { [40  20  10  20] 0 setdash } def
/dash05 { [80  20  10  10  10  20] 0 setdash } def
/dash06 { [40  20  10  10  10  20] 0 setdash } def
/dash07 { [10  10] 0 setdash } def
%
/MFshow {
   { dup 5 get 3 ge
     { 5 get 3 eq {gsave} {grestore} ifelse }
     {dup dup 0 get findfont exch 1 get scalefont setfont
     [ currentpoint ] exch dup 2 get 0 exch R dup 5 get 2 ne {dup dup 6
     get exch 4 get {show} {stringwidth pop 0 R} ifelse }if dup 5 get 0 eq
     {dup 3 get {2 get neg 0 exch R pop} {pop aload pop M} ifelse} {dup 5
     get 1 eq {dup 2 get exch dup 3 get exch 6 get stringwidth pop -2 div
     dup 0 R} {dup 6 get stringwidth pop -2 div 0 R 6 get
     show 2 index {aload pop M neg 3 -1 roll neg R pop pop} {pop pop pop
     pop aload pop M} ifelse }ifelse }ifelse }
     ifelse }
   forall} bind def
/MFwidth {0 exch {dup 3 get{dup dup 0 get findfont exch 1 get scalefont
     setfont 6 get stringwidth pop add} {pop} ifelse} forall} bind def
/MCshow { currentpoint stroke M
  exch dup MFwidth -2 div 3 -1 roll R MFshow } def
%
end
%%EndProlog
bkdict begin
0.1 0.1 scale
%
% Residuals:
%
GSN 620 2136 M
620 3172 L
620 3036 L
620 2425 L
620 3090 L
620 2929 L
620 2595 L
620 2879 L
620 2559 L
620 2591 L
620 3179 L
620 2880 L
620 2781 L
620 3188 L
620 3194 L
620 3009 L
620 3267 L
620 2898 L
620 3213 L
620 3393 L
620 3649 L
620 3876 L
620 3374 L
620 3346 L
620 3223 L
620 3501 L
620 4318 L
620 4214 L
620 3784 L
620 3839 L
620 3800 L
620 3861 L
620 3975 L
620 4290 L
620 3262 L
620 4455 L
620 3645 L
620 3728 L
620 3567 L
620 3977 L
620 4027 L
620 3291 L
620 4027 L
620 4061 L
620 3632 L
620 3994 L
620 4379 L
620 4354 L
620 3666 L
620 3883 L
620 4001 L
620 3736 L
620 3690 L
620 4055 L
620 4204 L
620 3852 L
620 3623 L
620 3711 L
620 3736 L
620 4361 L
620 3918 L
620 4359 L
620 4395 L
620 3957 L
620 4034 L
620 3713 L
620 3688 L
620 4373 L
620 4142 L
620 4465 L
620 3661 L
620 4041 L
620 4197 L
620 4296 L
620 4206 L
620 4118 L
620 3812 L
620 3837 L
620 4148 L
620 4236 L
620 4359 L
620 3807 L
620 3717 L
620 3715 L
620 3179 L
620 3864 L
620 4140 L
620 3754 L
620 3838 L
620 3717 L
620 4065 L
620 3058 L
620 3935 L
620 3511 L
620 3391 L
620 3089 L
620 3174 L
620 3452 L
620 3346 L
620 3001 L
620 3267 L
620 3413 L
620 3819 L
620 3163 L
620 3402 L
620 3687 L
620 3307 L
620 3410 L
620 3187 L
620 3366 L
620 3211 L
620 3334 L
620 2831 L
620 2613 L
620 2785 L
620 2530 L
620 2901 L
620 2584 L
620 3333 L
620 3152 L
620 3206 L
620 3004 L
620 3361 L
620 3480 L
620 2769 L
620 3037 L
620 3339 L
620 2751 L
620 3645 L
620 3023 L
620 2686 L
620 3429 L
620 3467 L
620 3411 L
620 3053 L
620 2378 L
620 3631 L
620 3087 L
620 2940 L
620 2860 L
620 3574 L
620 3126 L
620 3035 L
620 3920 L
620 2717 L
620 2630 L
620 3041 L
620 2995 L
620 3135 L
620 2892 L
620 2561 L
620 3126 L
620 3456 L
620 3114 L
620 3019 L
620 2802 L
620 2705 L
620 3536 L
620 3120 L
620 2637 L
620 3319 L
620 2807 L
620 2820 L
620 3521 L
620 2984 L
620 2973 L
620 3672 L
620 3193 L
620 3041 L
620 3380 L
620 3506 L
620 3190 L
620 2856 L
620 3142 L
620 3801 L
620 3433 L
620 2814 L
620 3659 L
620 3557 L
620 3084 L
620 2723 L
620 3569 L
620 3604 L
620 3192 L
620 2542 L
620 3539 L
620 3277 L
620 3357 L
620 3876 L
620 3186 L
620 3426 L
620 3704 L
620 3185 L
620 3364 L
620 3202 L
620 3573 L
620 3654 L
620 3337 L
620 3164 L
620 3115 L
620 3171 L
620 3457 L
620 3923 L
620 3382 L
620 3555 L
620 2767 L
620 3651 L
620 3209 L
620 3628 L
620 3395 L
620 3169 L
620 3880 L
620 3811 L
620 3224 L
620 3454 L
620 3660 L
620 3850 L
620 3217 L
620 3740 L
620 3928 L
620 3597 L
620 3477 L
620 3014 L
620 3622 L
620 3042 L
620 3460 L
620 3630 L
620 3594 L
620 3780 L
620 3692 L
620 3229 L
620 4149 L
620 3369 L
620 3301 L
620 4034 L
620 3596 L
620 3522 L
620 3648 L
620 3019 L
620 3224 L
620 4101 L
620 3917 L
620 3751 L
620 4149 L
620 3440 L
620 3236 L
620 3379 L
620 4096 L
620 3764 L
620 3356 L
620 3530 L
620 3920 L
620 3678 L
620 3684 L
620 3134 L
620 3906 L
620 4181 L
620 3601 L
620 3519 L
620 3644 L
620 3791 L
620 3635 L
620 3688 L
620 3791 L
620 3197 L
620 4014 L
620 3791 L
620 3644 L
620 3794 L
620 4059 L
620 3070 L
620 3445 L
620 3667 L
620 4062 L
620 3542 L
620 3805 L
620 3623 L
620 3791 L
620 3800 L
620 2959 L
620 4196 L
620 3737 L
620 4226 L
620 3642 L
620 3491 L
620 4205 L
620 4145 L
620 3806 L
620 3642 L
620 4309 L
620 3872 L
620 4065 L
620 3447 L
620 3943 L
620 3772 L
620 3961 L
620 3873 L
620 4114 L
620 3904 L
620 3683 L
620 4126 L
620 3870 L
620 3916 L
620 4016 L
620 4167 L
620 3901 L
620 3636 L
620 4237 L
620 3848 L
620 4468 L
620 4863 L
620 4236 L
620 3973 L
620 3737 L
620 4417 L
620 4161 L
620 3671 L
620 3900 L
620 4049 L
620 4502 L
620 4646 L
620 3736 L
620 3707 L
620 3851 L
620 4228 L
620 3965 L
620 4338 L
620 4206 L
620 3934 L
620 3967 L
620 3920 L
620 3952 L
620 3983 L
620 3612 L
620 3803 L
620 4720 L
620 3821 L
620 4028 L
620 3540 L
620 3606 L
620 3985 L
620 3781 L
620 3873 L
620 3729 L
620 4015 L
620 4282 L
620 3635 L
620 4682 L
620 3776 L
620 3887 L
620 4188 L
620 3621 L
620 3484 L
620 4140 L
620 4298 L
620 3388 L
620 3952 L
620 3442 L
620 3561 L
620 4201 L
620 3833 L
620 3720 L
620 3376 L
620 3687 L
620 3767 L
620 4203 L
620 3972 L
620 3482 L
620 3702 L
620 3698 L
620 3940 L
620 3179 L
620 3529 L
620 3388 L
620 3329 L
620 3693 L
620 3406 L
620 3338 L
620 3842 L
620 4361 L
620 3983 L
620 3646 L
620 3136 L
620 3855 L
620 3062 L
620 3583 L
620 3767 L
620 3421 L
620 3552 L
620 3736 L
620 3758 L
620 3307 L
620 3114 L
620 3098 L
620 3100 L
620 3381 L
620 3390 L
620 3028 L
620 3266 L
620 3287 L
620 2729 L
620 3273 L
620 3507 L
620 3460 L
620 3170 L
620 3287 L
620 3167 L
620 3543 L
620 3190 L
620 3439 L
620 3900 L
620 3547 L
620 3197 L
620 3563 L
620 3379 L
620 3394 L
620 3475 L
620 2750 L
620 2889 L
620 3289 L
620 3547 L
620 3385 L
620 3078 L
620 3154 L
620 3253 L
620 3500 L
620 3233 L
620 3774 L
620 3478 L
620 3327 L
620 3844 L
620 3543 L
620 3302 L
620 3349 L
620 3352 L
620 3208 L
620 2887 L
620 3606 L
620 3015 L
620 3660 L
620 3729 L
620 3397 L
620 3158 L
620 3181 L
620 3619 L
620 3707 L
620 3248 L
620 3421 L
620 3673 L
620 3361 L
620 3262 L
620 3282 L
620 3024 L
620 2635 L
620 2837 L
620 2878 L
620 2884 L
620 3158 L
620 3091 L
620 3349 L
620 3583 L
620 3174 L
620 3221 L
620 3758 L
620 3437 L
620 3012 L
620 3439 L
620 4033 L
620 2999 L
620 3255 L
620 3534 L
620 2653 L
620 2794 L
620 2846 L
620 3754 L
620 3439 L
620 3026 L
620 3226 L
620 2833 L
620 3192 L
620 2356 L
620 3529 L
620 3098 L
620 2774 L
620 2687 L
620 3567 L
620 3179 L
620 2565 L
620 3538 L
620 3412 L
620 3545 L
620 2792 L
620 3181 L
620 2817 L
620 2985 L
620 3522 L
620 2824 L
620 3269 L
620 2783 L
620 2547 L
620 3073 L
620 3149 L
620 3320 L
620 3237 L
620 3320 L
620 3316 L
620 3671 L
620 3493 L
620 3397 L
620 3096 L
620 3091 L
620 2723 L
620 2875 L
620 3192 L
620 3136 L
620 3221 L
620 3048 L
620 3419 L
620 2949 L
620 3898 L
620 2893 L
620 3370 L
620 2956 L
620 2900 L
620 3723 L
620 3109 L
620 3152 L
620 3089 L
620 3547 L
620 3633 L
620 3064 L
620 3206 L
620 2828 L
L2 C06 COSGR

%
%================
% Legend - Begin
%================
%
GSN 4240 5180 M
4480 5180 L
LWMC SL  C06 COSGR
GSN 4540 5141 M helvM (3.0 uM) show grestore
%
%================
% Legend - End
%================
%

%
% Main frame
%
L10
GSN 
620 1700 M
4220 1700 L
4220 5300 L
620 5300 L
closepath SGR

%
% X axis: large tics
%
L10
%
% X axis: small tics
%
L5
%
% Y axis: large tics
%
L10
GSN 620 2314 M 54 0 rL SGR
GSN 4220 2314 M -54 0 rL SGR
helvS (-0.01) 560 2314 ylabel
GSN 620 3492 M 54 0 rL SGR
GSN 4220 3492 M -54 0 rL SGR
helvS (0) 560 3492 ylabel
GSN 620 4670 M 54 0 rL SGR
GSN 4220 4670 M -54 0 rL SGR
helvS (0.01) 560 4670 ylabel
%
% Y axis: small tics
%
L5
GSN 620 1725 M 36 0 rL SGR
GSN 4220 1725 M -36 0 rL SGR
GSN 620 2019 M 36 0 rL SGR
GSN 4220 2019 M -36 0 rL SGR
GSN 620 2314 M 36 0 rL SGR
GSN 4220 2314 M -36 0 rL SGR
GSN 620 2608 M 36 0 rL SGR
GSN 4220 2608 M -36 0 rL SGR
GSN 620 2903 M 36 0 rL SGR
GSN 4220 2903 M -36 0 rL SGR
GSN 620 3197 M 36 0 rL SGR
GSN 4220 3197 M -36 0 rL SGR
GSN 620 3492 M 36 0 rL SGR
GSN 4220 3492 M -36 0 rL SGR
GSN 620 3787 M 36 0 rL SGR
GSN 4220 3787 M -36 0 rL SGR
GSN 620 4081 M 36 0 rL SGR
GSN 4220 4081 M -36 0 rL SGR
GSN 620 4376 M 36 0 rL SGR
GSN 4220 4376 M -36 0 rL SGR
GSN 620 4670 M 36 0 rL SGR
GSN 4220 4670 M -36 0 rL SGR
GSN 620 4965 M 36 0 rL SGR
GSN 4220 4965 M -36 0 rL SGR
GSN 620 5259 M 36 0 rL SGR
GSN 4220 5259 M -36 0 rL SGR

%
% X axis - residual panel
%
GSN L5 620 3492 M 4220 3492 L SDA G50 SGR

%
% X-Axis label:
%
gsave 620 1370 M 
[
[(Helvetica) 180 0 true true 0 (t)]
[(Helvetica) 180 0 true true 0 (i)]
[(Helvetica) 180 0 true true 0 (m)]
[(Helvetica) 180 0 true true 0 (e)]
] 0 MCshow grestore

%
% Y-Axis label:
%
gsave 234 3499 M 
currentpoint gsave translate 90 rotate 0 0 moveto
[
[(Helvetica) 180 0 true true 0 (r)]
[(Helvetica) 180 0 true true 0 (e)]
[(Helvetica) 180 0 true true 0 (s)]
[(Helvetica) 180 0 true true 0 (i)]
[(Helvetica) 180 0 true true 0 (d)]
[(Helvetica) 180 0 true true 0 (u)]
[(Helvetica) 180 0 true true 0 (a)]
[(Helvetica) 180 0 true true 0 (l)]
[(Helvetica) 180 0 true true 0 (s)]
] 0 MCshow grestore

end
showpage
%%Trailer
%%EOF
