%!PS-Adobe-3.0 EPSF-3.0
%%BoundingBox: 0 0 514 442
%%Creator: BioKin Ltd.
%%DocumentFonts: Symbol Helvetica
%%EndComments
%
/bkdict 256 dict def
bkdict begin
/M {moveto} def 
/R {rmoveto} def
/L {lineto} def
/rL {rlineto} def
/GSN {gsave newpath} def
/SGR {stroke grestore} def
/COSGR {gsave setrgbcolor stroke grestore grestore} def
/SL {setlinewidth} def
/LWMB {12} def             % line width - model curves, black & white
/LWMC {10} def             % line width - model curves, color
/L2 {2.5 setlinewidth} def
/L5 {5 setlinewidth} def
/L10 {10 setlinewidth} def
/G50 {0.5 setgray} def
/SDA {[10  20] 0 setdash} def % axes
/helvT {/Helvetica findfont 100 scalefont setfont} def % tiny
/helvS {/Helvetica findfont 125 scalefont setfont} def % small
/helvM {/Helvetica findfont 150 scalefont setfont} def % medium
/helvL {/Helvetica findfont 175 scalefont setfont} def % large
/xlabel {gsave M dup
   stringwidth exch -0.5 mul exch rmoveto show grestore} def 
/ylabel {gsave M 90 rotate dup
   stringwidth exch -0.5 mul exch rmoveto show grestore} def
/ylabelresid {gsave M dup
   stringwidth exch -1 mul exch rmoveto show grestore} def
% ======
% Shapes
% ======
% Circle:
/Circ {0 360 arc closepath} def
%
% Square:
/Squa {dup dup -0.5 mul dup dup R -2 mul 0 exch rL 1 mul 0 rL dup 0 exch -1 mul rL closepath} def
%
% Triangle Up:
/TriU {dup dup dup -0.4 mul exch -0.5 mul exch R dup 0.5 mul exch rL dup -1 mul exch 0.5 mul exch rL closepath} def 
%
% Triangle Down:
/TriD {dup dup dup 0.4 mul exch -0.5 mul exch R dup 0.5 mul exch -1 mul rL dup 0.5 mul exch rL closepath} def 
%
% Diamond:
/Diam {45 rotate Squa} def
% ======
% Fills
% ======
/GRF {gsave setgray fill grestore} def                    % gray-level Fill
/COF {gsave setrgbcolor fill grestore} def                % color fill
% ======
% Colors
% ======
/C01 {1.00	0.00	0.00} def      % Red
/C02 {0.00	0.00	1.00} def      % Blue
/C03 {0.00	0.39	0.00} def      % Dark Green
/C04 {0.78	0.08	0.52} def      % Medium Violet Red
/C05 {0.55	0.27	0.07} def      % Saddle Brown
/C06 {0.10	0.70	0.70} def      % (cyan)
/C07 {1.00	0.55	0.00} def      % Dark Orange
/C08 {0.63	0.13	0.94} def      % Purple
/C09 {0.00	0.75	1.00} def      % Deep Sky Blue
/C10 {0.20	0.80	0.20} def      % Lime Green
/C11 {0.47	0.53	0.60} def      % Light Slate Gray
/C12 {0.00	0.00	0.00} def      % Black            % or: {0.19	0.31	0.31} def      % Dark Slate Gray
%
/LGR {0.75} def % light gray
/DGR {0.33} def % dark gray
%
% =============
% Dash patterns
% =============
/dash01 { [80  20] 0 setdash } def
/dash02 { [40  20] 0 setdash } def
/dash03 { [80  20  10  20] 0 setdash } def
/dash04 { [40  20  10  20] 0 setdash } def
/dash05 { [80  20  10  10  10  20] 0 setdash } def
/dash06 { [40  20  10  10  10  20] 0 setdash } def
/dash07 { [10  10] 0 setdash } def
%
/MFshow {
   { dup 5 get 3 ge
     { 5 get 3 eq {gsave} {grestore} ifelse }
     {dup dup 0 get findfont exch 1 get scalefont setfont
     [ currentpoint ] exch dup 2 get 0 exch R dup 5 get 2 ne {dup dup 6
     get exch 4 get {show} {stringwidth pop 0 R} ifelse }if dup 5 get 0 eq
     {dup 3 get {2 get neg 0 exch R pop} {pop aload pop M} ifelse} {dup 5
     get 1 eq {dup 2 get exch dup 3 get exch 6 get stringwidth pop -2 div
     dup 0 R} {dup 6 get stringwidth pop -2 div 0 R 6 get
     show 2 index {aload pop M neg 3 -1 roll neg R pop pop} {pop pop pop
     pop aload pop M} ifelse }ifelse }ifelse }
     ifelse }
   forall} bind def
/MFwidth {0 exch {dup 3 get{dup dup 0 get findfont exch 1 get scalefont
     setfont 6 get stringwidth pop add} {pop} ifelse} forall} bind def
/MCshow { currentpoint stroke M
  exch dup MFwidth -2 div 3 -1 roll R MFshow } def
%
end
%%EndProlog
bkdict begin
0.1 0.1 scale
%
% Model curves:
%

GSN 753 3429 M
770 3429 L
803 3429 L
837 3429 L
870 3429 L
895 3429 L
911 3429 L
937 3429 L
970 3429 L
1003 3429 L
1037 3429 L
1053 3429 L
1070 3429 L
1103 3429 L
1137 3429 L
1170 3429 L
1195 3430 L
1211 3430 L
1237 3430 L
1270 3430 L
1303 3430 L
1337 3430 L
1353 3431 L
1370 3431 L
1403 3431 L
1437 3432 L
1470 3432 L
1495 3433 L
1512 3433 L
1537 3433 L
1570 3434 L
1603 3435 L
1637 3436 L
1653 3438 L
1670 3438 L
1703 3439 L
1737 3441 L
1770 3443 L
1795 3445 L
1812 3446 L
1837 3448 L
1870 3451 L
1903 3455 L
1937 3459 L
1953 3464 L
1971 3464 L
2003 3469 L
2037 3475 L
2070 3483 L
2095 3491 L
2112 3496 L
2137 3501 L
2170 3512 L
2203 3524 L
2237 3538 L
2253 3554 L
2271 3554 L
2303 3571 L
2337 3590 L
2370 3612 L
2395 3635 L
2412 3648 L
2437 3660 L
2470 3686 L
2503 3715 L
2537 3744 L
2553 3774 L
2571 3775 L
2603 3805 L
2637 3835 L
2670 3865 L
2695 3894 L
2712 3908 L
2737 3920 L
2770 3945 L
2803 3967 L
2837 3986 L
2854 4002 L
2871 4002 L
2903 4014 L
2937 4024 L
2970 4031 L
2995 4035 L
3012 4036 L
3037 4037 L
3061 4038 L
3077 4037 L
3103 4037 L
3137 4035 L
3154 4033 L
3171 4033 L
3203 4032 L
3237 4030 L
3270 4029 L
3296 4029 L
3312 4029 L
3337 4029 L
3370 4028 L
3403 4028 L
3437 4028 L
3454 4028 L
3471 4028 L
3503 4028 L
3537 4028 L
3570 4028 L
3596 4028 L
3612 4028 L
3637 4028 L
3670 4028 L
3703 4028 L
3737 4028 L
3754 4028 L
3771 4028 L
3803 4028 L
3837 4028 L
3870 4028 L
3896 4028 L
3912 4028 L
3937 4028 L
3970 4028 L
4003 4028 L
4037 4028 L
4070 4028 L
LWMC SL dash01 C01 COSGR

GSN 753 3073 M
770 3073 L
803 3073 L
837 3073 L
870 3073 L
895 3073 L
911 3073 L
937 3073 L
970 3073 L
1003 3073 L
1037 3073 L
1053 3073 L
1070 3073 L
1103 3074 L
1137 3074 L
1170 3074 L
1195 3074 L
1211 3075 L
1237 3075 L
1270 3075 L
1303 3076 L
1337 3076 L
1353 3077 L
1370 3077 L
1403 3077 L
1437 3078 L
1470 3079 L
1495 3080 L
1512 3081 L
1537 3082 L
1570 3083 L
1603 3085 L
1637 3087 L
1653 3089 L
1670 3089 L
1703 3092 L
1737 3095 L
1770 3099 L
1795 3103 L
1812 3106 L
1837 3108 L
1870 3114 L
1903 3121 L
1937 3129 L
1953 3138 L
1971 3138 L
2003 3148 L
2037 3160 L
2070 3173 L
2095 3188 L
2112 3197 L
2137 3206 L
2170 3225 L
2203 3248 L
2237 3272 L
2253 3300 L
2271 3301 L
2303 3331 L
2337 3364 L
2370 3400 L
2395 3439 L
2412 3461 L
2437 3481 L
2470 3525 L
2503 3570 L
2537 3617 L
2553 3664 L
2571 3666 L
2603 3710 L
2637 3756 L
2670 3799 L
2695 3840 L
2712 3861 L
2737 3877 L
2770 3911 L
2803 3940 L
2837 3965 L
2854 3986 L
2871 3987 L
2903 4002 L
2937 4015 L
2970 4024 L
2995 4029 L
3012 4031 L
3037 4033 L
3061 4034 L
3077 4034 L
3103 4034 L
3137 4033 L
3154 4032 L
3171 4032 L
3203 4031 L
3237 4030 L
3270 4029 L
3296 4028 L
3312 4028 L
3337 4028 L
3370 4028 L
3403 4028 L
3437 4028 L
3454 4028 L
3471 4028 L
3503 4028 L
3537 4028 L
3570 4028 L
3596 4028 L
3612 4028 L
3637 4028 L
3670 4028 L
3703 4028 L
3737 4028 L
3754 4028 L
3771 4028 L
3803 4028 L
3837 4028 L
3870 4028 L
3896 4028 L
3912 4028 L
3937 4028 L
3970 4028 L
4003 4028 L
4037 4028 L
4070 4028 L
LWMC SL dash02 C02 COSGR

GSN 753 2453 M
770 2453 L
803 2453 L
837 2453 L
870 2453 L
895 2453 L
911 2453 L
937 2454 L
970 2454 L
1003 2454 L
1037 2454 L
1053 2455 L
1070 2455 L
1103 2455 L
1137 2455 L
1170 2456 L
1195 2457 L
1211 2457 L
1237 2457 L
1270 2458 L
1303 2459 L
1337 2460 L
1353 2461 L
1370 2461 L
1403 2463 L
1437 2465 L
1470 2467 L
1495 2469 L
1512 2471 L
1537 2472 L
1570 2475 L
1603 2479 L
1637 2483 L
1653 2488 L
1670 2489 L
1703 2494 L
1737 2501 L
1770 2509 L
1795 2518 L
1812 2524 L
1837 2529 L
1870 2541 L
1903 2555 L
1937 2572 L
1953 2590 L
1971 2591 L
2003 2612 L
2037 2636 L
2070 2664 L
2095 2695 L
2112 2713 L
2137 2730 L
2170 2770 L
2203 2814 L
2237 2863 L
2253 2917 L
2271 2918 L
2303 2975 L
2337 3038 L
2370 3106 L
2395 3177 L
2412 3217 L
2437 3252 L
2470 3328 L
2503 3406 L
2537 3483 L
2553 3559 L
2571 3562 L
2603 3632 L
2637 3701 L
2670 3765 L
2695 3823 L
2712 3852 L
2737 3875 L
2770 3919 L
2803 3957 L
2837 3987 L
2854 4011 L
2871 4012 L
2903 4028 L
2937 4040 L
2970 4047 L
2995 4051 L
3012 4051 L
3037 4051 L
3061 4048 L
3077 4047 L
3103 4045 L
3137 4041 L
3154 4037 L
3171 4037 L
3203 4034 L
3237 4032 L
3270 4030 L
3296 4029 L
3312 4029 L
3337 4029 L
3370 4028 L
3403 4028 L
3437 4028 L
3454 4028 L
3471 4028 L
3503 4028 L
3537 4028 L
3570 4028 L
3596 4028 L
3612 4028 L
3637 4028 L
3670 4028 L
3703 4028 L
3737 4028 L
3754 4028 L
3771 4028 L
3803 4028 L
3837 4028 L
3870 4028 L
3896 4028 L
3912 4028 L
3937 4028 L
3970 4028 L
4003 4028 L
4037 4028 L
4070 4028 L
LWMC SL dash03 C03 COSGR

GSN 753 2032 M
770 2032 L
803 2032 L
837 2032 L
870 2033 L
895 2033 L
911 2033 L
937 2033 L
970 2033 L
1003 2034 L
1037 2034 L
1053 2035 L
1070 2035 L
1103 2035 L
1137 2036 L
1170 2037 L
1195 2037 L
1211 2038 L
1237 2039 L
1270 2040 L
1303 2041 L
1337 2043 L
1353 2045 L
1370 2045 L
1403 2047 L
1437 2049 L
1470 2052 L
1495 2056 L
1512 2058 L
1537 2060 L
1570 2065 L
1603 2070 L
1637 2077 L
1653 2084 L
1670 2084 L
1703 2093 L
1737 2103 L
1770 2114 L
1795 2127 L
1812 2135 L
1837 2143 L
1870 2161 L
1903 2181 L
1937 2204 L
1953 2231 L
1971 2232 L
2003 2262 L
2037 2297 L
2070 2336 L
2095 2380 L
2112 2406 L
2137 2430 L
2170 2486 L
2203 2548 L
2237 2616 L
2253 2690 L
2271 2692 L
2303 2770 L
2337 2856 L
2370 2946 L
2395 3041 L
2412 3093 L
2437 3139 L
2470 3238 L
2503 3337 L
2537 3434 L
2553 3528 L
2571 3532 L
2603 3617 L
2637 3700 L
2670 3775 L
2695 3841 L
2712 3874 L
2737 3899 L
2770 3947 L
2803 3986 L
2837 4016 L
2854 4038 L
2871 4039 L
2903 4052 L
2937 4060 L
2970 4063 L
2995 4062 L
3012 4060 L
3037 4058 L
3061 4052 L
3077 4050 L
3103 4047 L
3137 4041 L
3154 4037 L
3171 4037 L
3203 4034 L
3237 4031 L
3270 4030 L
3296 4029 L
3312 4029 L
3337 4029 L
3370 4028 L
3403 4028 L
3437 4028 L
3454 4028 L
3471 4028 L
3503 4028 L
3537 4028 L
3570 4028 L
3596 4028 L
3612 4028 L
3637 4028 L
3670 4028 L
3703 4028 L
3737 4028 L
3754 4028 L
3771 4028 L
3803 4028 L
3837 4028 L
3870 4028 L
3896 4028 L
3912 4028 L
3937 4028 L
3970 4028 L
4003 4028 L
4037 4028 L
4070 4028 L
LWMC SL dash04 C04 COSGR

GSN 753 1734 M
770 1734 L
803 1734 L
837 1734 L
870 1734 L
895 1734 L
911 1735 L
937 1735 L
970 1735 L
1003 1736 L
1037 1736 L
1053 1737 L
1070 1737 L
1103 1737 L
1137 1738 L
1170 1739 L
1195 1740 L
1211 1741 L
1237 1742 L
1270 1743 L
1303 1745 L
1337 1747 L
1353 1749 L
1370 1749 L
1403 1752 L
1437 1755 L
1470 1759 L
1495 1764 L
1512 1766 L
1537 1769 L
1570 1775 L
1603 1782 L
1637 1790 L
1653 1799 L
1670 1799 L
1703 1810 L
1737 1822 L
1770 1837 L
1795 1854 L
1812 1863 L
1837 1873 L
1870 1895 L
1903 1921 L
1937 1950 L
1953 1984 L
1971 1985 L
2003 2022 L
2037 2065 L
2070 2114 L
2095 2169 L
2112 2201 L
2137 2231 L
2170 2299 L
2203 2375 L
2237 2458 L
2253 2548 L
2271 2551 L
2303 2645 L
2337 2748 L
2370 2856 L
2395 2968 L
2412 3029 L
2437 3082 L
2470 3198 L
2503 3312 L
2537 3423 L
2553 3528 L
2571 3532 L
2603 3627 L
2637 3718 L
2670 3798 L
2695 3868 L
2712 3902 L
2737 3927 L
2770 3975 L
2803 4012 L
2837 4039 L
2854 4057 L
2871 4058 L
2903 4067 L
2937 4070 L
2970 4069 L
2995 4065 L
3012 4061 L
3037 4059 L
3061 4052 L
3077 4049 L
3103 4046 L
3137 4041 L
3154 4036 L
3171 4036 L
3203 4033 L
3237 4031 L
3270 4030 L
3296 4029 L
3312 4029 L
3337 4029 L
3370 4028 L
3403 4028 L
3437 4028 L
3454 4028 L
3471 4028 L
3503 4028 L
3537 4028 L
3570 4028 L
3596 4028 L
3612 4028 L
3637 4028 L
3670 4028 L
3703 4028 L
3737 4028 L
3754 4028 L
3771 4028 L
3803 4028 L
3837 4028 L
3870 4028 L
3896 4028 L
3912 4028 L
3937 4028 L
3970 4028 L
4003 4028 L
4037 4028 L
4070 4028 L
LWMC SL dash05 C05 COSGR

GSN 753 1377 M
770 1377 L
803 1377 L
837 1378 L
870 1378 L
895 1378 L
911 1378 L
937 1379 L
970 1379 L
1003 1380 L
1037 1380 L
1053 1381 L
1070 1381 L
1103 1382 L
1137 1383 L
1170 1384 L
1195 1386 L
1211 1387 L
1237 1387 L
1270 1389 L
1303 1392 L
1337 1394 L
1353 1397 L
1370 1397 L
1403 1401 L
1437 1405 L
1470 1410 L
1495 1416 L
1512 1419 L
1537 1422 L
1570 1430 L
1603 1439 L
1637 1449 L
1653 1461 L
1670 1461 L
1703 1475 L
1737 1491 L
1770 1509 L
1795 1530 L
1812 1543 L
1837 1555 L
1870 1583 L
1903 1616 L
1937 1653 L
1953 1695 L
1971 1696 L
2003 1743 L
2037 1798 L
2070 1859 L
2095 1928 L
2112 1968 L
2137 2005 L
2170 2090 L
2203 2183 L
2237 2285 L
2253 2395 L
2271 2399 L
2303 2513 L
2337 2637 L
2370 2766 L
2395 2899 L
2412 2971 L
2437 3034 L
2470 3168 L
2503 3299 L
2537 3425 L
2553 3543 L
2571 3547 L
2603 3651 L
2637 3748 L
2670 3833 L
2695 3905 L
2712 3938 L
2737 3963 L
2770 4007 L
2803 4040 L
2837 4061 L
2854 4073 L
2871 4073 L
2903 4077 L
2937 4076 L
2970 4072 L
2995 4065 L
3012 4061 L
3037 4058 L
3061 4051 L
3077 4048 L
3103 4045 L
3137 4040 L
3154 4036 L
3171 4036 L
3203 4033 L
3237 4031 L
3270 4030 L
3296 4029 L
3312 4029 L
3337 4029 L
3370 4028 L
3403 4028 L
3437 4028 L
3454 4028 L
3471 4028 L
3503 4028 L
3537 4028 L
3570 4028 L
3596 4028 L
3612 4028 L
3637 4028 L
3670 4028 L
3703 4028 L
3737 4028 L
3754 4028 L
3771 4028 L
3803 4028 L
3837 4028 L
3870 4028 L
3896 4028 L
3912 4028 L
3937 4028 L
3970 4028 L
4003 4028 L
4037 4028 L
4070 4028 L
LWMC SL dash06 C06 COSGR

GSN 753 753 M
770 753 L
803 753 L
837 754 L
870 754 L
895 755 L
911 755 L
937 755 L
970 756 L
1003 757 L
1037 758 L
1053 759 L
1070 759 L
1103 760 L
1137 762 L
1170 764 L
1195 766 L
1211 767 L
1237 768 L
1270 771 L
1303 775 L
1337 779 L
1353 783 L
1370 783 L
1403 789 L
1437 795 L
1470 802 L
1495 811 L
1512 816 L
1537 821 L
1570 832 L
1603 845 L
1637 861 L
1653 878 L
1670 879 L
1703 899 L
1737 923 L
1770 950 L
1795 982 L
1812 1000 L
1837 1018 L
1870 1060 L
1903 1108 L
1937 1163 L
1953 1225 L
1971 1226 L
2003 1295 L
2037 1374 L
2070 1463 L
2095 1562 L
2112 1619 L
2137 1672 L
2170 1792 L
2203 1923 L
2237 2065 L
2253 2216 L
2271 2220 L
2303 2375 L
2337 2540 L
2370 2710 L
2395 2880 L
2412 2971 L
2437 3050 L
2470 3214 L
2503 3370 L
2537 3515 L
2553 3645 L
2571 3650 L
2603 3759 L
2637 3856 L
2670 3934 L
2695 3994 L
2712 4019 L
2737 4037 L
2770 4064 L
2803 4080 L
2837 4086 L
2854 4086 L
2871 4086 L
2903 4082 L
2937 4076 L
2970 4069 L
2995 4061 L
3012 4058 L
3037 4055 L
3061 4048 L
3077 4046 L
3103 4043 L
3137 4039 L
3154 4035 L
3171 4035 L
3203 4032 L
3237 4031 L
3270 4029 L
3296 4029 L
3312 4029 L
3337 4029 L
3370 4028 L
3403 4028 L
3437 4028 L
3454 4028 L
3471 4028 L
3503 4028 L
3537 4028 L
3570 4028 L
3596 4028 L
3612 4028 L
3637 4028 L
3670 4028 L
3703 4028 L
3737 4028 L
3754 4028 L
3771 4028 L
3803 4028 L
3837 4028 L
3870 4028 L
3896 4028 L
3912 4028 L
3937 4028 L
3970 4028 L
4003 4028 L
4037 4028 L
4070 4028 L
LWMC SL dash07 C07 COSGR

%
%================
% Legend - Begin
%================
%
GSN 4240 4040 M
4480 4040 L
LWMC SL dash01 C01 COSGR
GSN 4540 4001 M helvM (0.5 uM) show grestore
GSN 4240 3860 M
4480 3860 L
LWMC SL dash02 C02 COSGR
GSN 4540 3821 M helvM (1.0 uM) show grestore
GSN 4240 3680 M
4480 3680 L
LWMC SL dash03 C03 COSGR
GSN 4540 3641 M helvM (1.5 uM) show grestore
GSN 4240 3500 M
4480 3500 L
LWMC SL dash04 C04 COSGR
GSN 4540 3461 M helvM (2.0 uM) show grestore
GSN 4240 3320 M
4480 3320 L
LWMC SL dash05 C05 COSGR
GSN 4540 3281 M helvM (2.5 uM) show grestore
GSN 4240 3140 M
4480 3140 L
LWMC SL dash06 C06 COSGR
GSN 4540 3101 M helvM (3.0 uM) show grestore
GSN 4240 2960 M
4480 2960 L
LWMC SL dash07 C07 COSGR
GSN 4540 2921 M helvM (4.0 uM) show grestore
%
%================
% Legend - End
%================
%

%
% Main frame
%
L10
GSN 
620 620 M
4220 620 L
4220 4220 L
620 4220 L
closepath SGR

%
% X axis: large tics
%
L10
GSN 1074 620 M 0  54 rL SGR
GSN 1074 4220 M 0 -54 rL SGR
helvS (0.0001) 1074 470 xlabel
GSN 1572 620 M 0  54 rL SGR
GSN 1572 4220 M 0 -54 rL SGR
helvS (0.001) 1572 470 xlabel
GSN 2071 620 M 0  54 rL SGR
GSN 2071 4220 M 0 -54 rL SGR
helvS (0.01) 2071 470 xlabel
GSN 2570 620 M 0  54 rL SGR
GSN 2570 4220 M 0 -54 rL SGR
helvS (0.1) 2570 470 xlabel
GSN 3068 620 M 0  54 rL SGR
GSN 3068 4220 M 0 -54 rL SGR
helvS (1) 3068 470 xlabel
GSN 3567 620 M 0  54 rL SGR
GSN 3567 4220 M 0 -54 rL SGR
helvS (10) 3567 470 xlabel
GSN 4066 620 M 0  54 rL SGR
GSN 4066 4220 M 0 -54 rL SGR
helvS (100) 4066 470 xlabel
%
% X axis: small tics
%
L5
GSN 725 620 M 0  36 rL SGR
GSN 725 4220 M 0 -36 rL SGR
GSN 813 620 M 0  36 rL SGR
GSN 813 4220 M 0 -36 rL SGR
GSN 875 620 M 0  36 rL SGR
GSN 875 4220 M 0 -36 rL SGR
GSN 924 620 M 0  36 rL SGR
GSN 924 4220 M 0 -36 rL SGR
GSN 963 620 M 0  36 rL SGR
GSN 963 4220 M 0 -36 rL SGR
GSN 996 620 M 0  36 rL SGR
GSN 996 4220 M 0 -36 rL SGR
GSN 1025 620 M 0  36 rL SGR
GSN 1025 4220 M 0 -36 rL SGR
GSN 1051 620 M 0  36 rL SGR
GSN 1051 4220 M 0 -36 rL SGR
GSN 1224 620 M 0  36 rL SGR
GSN 1224 4220 M 0 -36 rL SGR
GSN 1312 620 M 0  36 rL SGR
GSN 1312 4220 M 0 -36 rL SGR
GSN 1374 620 M 0  36 rL SGR
GSN 1374 4220 M 0 -36 rL SGR
GSN 1422 620 M 0  36 rL SGR
GSN 1422 4220 M 0 -36 rL SGR
GSN 1462 620 M 0  36 rL SGR
GSN 1462 4220 M 0 -36 rL SGR
GSN 1495 620 M 0  36 rL SGR
GSN 1495 4220 M 0 -36 rL SGR
GSN 1524 620 M 0  36 rL SGR
GSN 1524 4220 M 0 -36 rL SGR
GSN 1550 620 M 0  36 rL SGR
GSN 1550 4220 M 0 -36 rL SGR
GSN 1722 620 M 0  36 rL SGR
GSN 1722 4220 M 0 -36 rL SGR
GSN 1810 620 M 0  36 rL SGR
GSN 1810 4220 M 0 -36 rL SGR
GSN 1873 620 M 0  36 rL SGR
GSN 1873 4220 M 0 -36 rL SGR
GSN 1921 620 M 0  36 rL SGR
GSN 1921 4220 M 0 -36 rL SGR
GSN 1960 620 M 0  36 rL SGR
GSN 1960 4220 M 0 -36 rL SGR
GSN 1994 620 M 0  36 rL SGR
GSN 1994 4220 M 0 -36 rL SGR
GSN 2023 620 M 0  36 rL SGR
GSN 2023 4220 M 0 -36 rL SGR
GSN 2048 620 M 0  36 rL SGR
GSN 2048 4220 M 0 -36 rL SGR
GSN 2221 620 M 0  36 rL SGR
GSN 2221 4220 M 0 -36 rL SGR
GSN 2309 620 M 0  36 rL SGR
GSN 2309 4220 M 0 -36 rL SGR
GSN 2371 620 M 0  36 rL SGR
GSN 2371 4220 M 0 -36 rL SGR
GSN 2420 620 M 0  36 rL SGR
GSN 2420 4220 M 0 -36 rL SGR
GSN 2459 620 M 0  36 rL SGR
GSN 2459 4220 M 0 -36 rL SGR
GSN 2492 620 M 0  36 rL SGR
GSN 2492 4220 M 0 -36 rL SGR
GSN 2521 620 M 0  36 rL SGR
GSN 2521 4220 M 0 -36 rL SGR
GSN 2547 620 M 0  36 rL SGR
GSN 2547 4220 M 0 -36 rL SGR
GSN 2720 620 M 0  36 rL SGR
GSN 2720 4220 M 0 -36 rL SGR
GSN 2808 620 M 0  36 rL SGR
GSN 2808 4220 M 0 -36 rL SGR
GSN 2870 620 M 0  36 rL SGR
GSN 2870 4220 M 0 -36 rL SGR
GSN 2918 620 M 0  36 rL SGR
GSN 2918 4220 M 0 -36 rL SGR
GSN 2958 620 M 0  36 rL SGR
GSN 2958 4220 M 0 -36 rL SGR
GSN 2991 620 M 0  36 rL SGR
GSN 2991 4220 M 0 -36 rL SGR
GSN 3020 620 M 0  36 rL SGR
GSN 3020 4220 M 0 -36 rL SGR
GSN 3045 620 M 0  36 rL SGR
GSN 3045 4220 M 0 -36 rL SGR
GSN 3218 620 M 0  36 rL SGR
GSN 3218 4220 M 0 -36 rL SGR
GSN 3306 620 M 0  36 rL SGR
GSN 3306 4220 M 0 -36 rL SGR
GSN 3368 620 M 0  36 rL SGR
GSN 3368 4220 M 0 -36 rL SGR
GSN 3417 620 M 0  36 rL SGR
GSN 3417 4220 M 0 -36 rL SGR
GSN 3456 620 M 0  36 rL SGR
GSN 3456 4220 M 0 -36 rL SGR
GSN 3490 620 M 0  36 rL SGR
GSN 3490 4220 M 0 -36 rL SGR
GSN 3519 620 M 0  36 rL SGR
GSN 3519 4220 M 0 -36 rL SGR
GSN 3544 620 M 0  36 rL SGR
GSN 3544 4220 M 0 -36 rL SGR
GSN 3717 620 M 0  36 rL SGR
GSN 3717 4220 M 0 -36 rL SGR
GSN 3805 620 M 0  36 rL SGR
GSN 3805 4220 M 0 -36 rL SGR
GSN 3867 620 M 0  36 rL SGR
GSN 3867 4220 M 0 -36 rL SGR
GSN 3915 620 M 0  36 rL SGR
GSN 3915 4220 M 0 -36 rL SGR
GSN 3955 620 M 0  36 rL SGR
GSN 3955 4220 M 0 -36 rL SGR
GSN 3988 620 M 0  36 rL SGR
GSN 3988 4220 M 0 -36 rL SGR
GSN 4017 620 M 0  36 rL SGR
GSN 4017 4220 M 0 -36 rL SGR
GSN 4043 620 M 0  36 rL SGR
GSN 4043 4220 M 0 -36 rL SGR
GSN 4216 620 M 0  36 rL SGR
GSN 4216 4220 M 0 -36 rL SGR
%
% Y axis: large tics
%
L10
GSN 620 1090 M 54 0 rL SGR
GSN 4220 1090 M -54 0 rL SGR
helvS (-1.5) 560 1090 ylabel
GSN 620 2069 M 54 0 rL SGR
GSN 4220 2069 M -54 0 rL SGR
helvS (-1) 560 2069 ylabel
GSN 620 3049 M 54 0 rL SGR
GSN 4220 3049 M -54 0 rL SGR
helvS (-0.5) 560 3049 ylabel
GSN 620 4028 M 54 0 rL SGR
GSN 4220 4028 M -54 0 rL SGR
helvS (0) 560 4028 ylabel
%
% Y axis: small tics
%
L5
GSN 620 698 M 36 0 rL SGR
GSN 4220 698 M -36 0 rL SGR
GSN 620 894 M 36 0 rL SGR
GSN 4220 894 M -36 0 rL SGR
GSN 620 1090 M 36 0 rL SGR
GSN 4220 1090 M -36 0 rL SGR
GSN 620 1286 M 36 0 rL SGR
GSN 4220 1286 M -36 0 rL SGR
GSN 620 1482 M 36 0 rL SGR
GSN 4220 1482 M -36 0 rL SGR
GSN 620 1678 M 36 0 rL SGR
GSN 4220 1678 M -36 0 rL SGR
GSN 620 1874 M 36 0 rL SGR
GSN 4220 1874 M -36 0 rL SGR
GSN 620 2069 M 36 0 rL SGR
GSN 4220 2069 M -36 0 rL SGR
GSN 620 2265 M 36 0 rL SGR
GSN 4220 2265 M -36 0 rL SGR
GSN 620 2461 M 36 0 rL SGR
GSN 4220 2461 M -36 0 rL SGR
GSN 620 2657 M 36 0 rL SGR
GSN 4220 2657 M -36 0 rL SGR
GSN 620 2853 M 36 0 rL SGR
GSN 4220 2853 M -36 0 rL SGR
GSN 620 3049 M 36 0 rL SGR
GSN 4220 3049 M -36 0 rL SGR
GSN 620 3245 M 36 0 rL SGR
GSN 4220 3245 M -36 0 rL SGR
GSN 620 3441 M 36 0 rL SGR
GSN 4220 3441 M -36 0 rL SGR
GSN 620 3637 M 36 0 rL SGR
GSN 4220 3637 M -36 0 rL SGR
GSN 620 3832 M 36 0 rL SGR
GSN 4220 3832 M -36 0 rL SGR
GSN 620 4028 M 36 0 rL SGR
GSN 4220 4028 M -36 0 rL SGR

%
% X axis
%
GSN L5 620 4028 M 4220 4028 L SDA G50 SGR

%
% X-Axis label:
%
gsave 2420 290 M 
[
[(Helvetica) 180 0 true true 0 (t)]
[(Helvetica) 180 0 true true 0 (i)]
[(Helvetica) 180 0 true true 0 (m)]
[(Helvetica) 180 0 true true 0 (e)]
] 0 MCshow grestore

%
% Y-Axis label:
%
gsave 234 2420 M 
currentpoint gsave translate 90 rotate 0 0 moveto
[
[(Helvetica) 180 0 true true 0 (d)]
[(Helvetica) 180 0 true true 0 (\()]
[(Helvetica) 180 0 true true 0 (s)]
[(Helvetica) 180 0 true true 0 (i)]
[(Helvetica) 180 0 true true 0 (g)]
[(Helvetica) 180 0 true true 0 (n)]
[(Helvetica) 180 0 true true 0 (a)]
[(Helvetica) 180 0 true true 0 (l)]
[(Helvetica) 180 0 true true 0 (\))]
[(Helvetica) 180 0 true true 0 ( )]
[(Helvetica) 180 0 true true 0 (/)]
[(Helvetica) 180 0 true true 0 ( )]
[(Helvetica) 180 0 true true 0 (d)]
[(Helvetica) 180 0 true true 0 (t)]
] 0 MCshow grestore

end
showpage
%%Trailer
%%EOF
