%!PS-Adobe-3.0 EPSF-3.0
%%BoundingBox: 0 0 514 550
%%Creator: BioKin Ltd.
%%DocumentFonts: Symbol Helvetica
%%EndComments
%
/bkdict 256 dict def
bkdict begin
/M {moveto} def 
/R {rmoveto} def
/L {lineto} def
/rL {rlineto} def
/GSN {gsave newpath} def
/SGR {stroke grestore} def
/COSGR {gsave setrgbcolor stroke grestore grestore} def
/SL {setlinewidth} def
/LWMB {12} def             % line width - model curves, black & white
/LWMC {10} def             % line width - model curves, color
/L2 {2.5 setlinewidth} def
/L5 {5 setlinewidth} def
/L10 {10 setlinewidth} def
/G50 {0.5 setgray} def
/SDA {[10  20] 0 setdash} def % axes
/helvT {/Helvetica findfont 100 scalefont setfont} def % tiny
/helvS {/Helvetica findfont 125 scalefont setfont} def % small
/helvM {/Helvetica findfont 150 scalefont setfont} def % medium
/helvL {/Helvetica findfont 175 scalefont setfont} def % large
/xlabel {gsave M dup
   stringwidth exch -0.5 mul exch rmoveto show grestore} def 
/ylabel {gsave M 90 rotate dup
   stringwidth exch -0.5 mul exch rmoveto show grestore} def
/ylabelresid {gsave M dup
   stringwidth exch -1 mul exch rmoveto show grestore} def
% ======
% Shapes
% ======
% Circle:
/Circ {0 360 arc closepath} def
%
% Square:
/Squa {dup dup -0.5 mul dup dup R -2 mul 0 exch rL 1 mul 0 rL dup 0 exch -1 mul rL closepath} def
%
% Triangle Up:
/TriU {dup dup dup -0.4 mul exch -0.5 mul exch R dup 0.5 mul exch rL dup -1 mul exch 0.5 mul exch rL closepath} def 
%
% Triangle Down:
/TriD {dup dup dup 0.4 mul exch -0.5 mul exch R dup 0.5 mul exch -1 mul rL dup 0.5 mul exch rL closepath} def 
%
% Diamond:
/Diam {45 rotate Squa} def
% ======
% Fills
% ======
/GRF {gsave setgray fill grestore} def                    % gray-level Fill
/COF {gsave setrgbcolor fill grestore} def                % color fill
% ======
% Colors
% ======
/C01 {1.00	0.00	0.00} def      % Red
/C02 {0.00	0.00	1.00} def      % Blue
/C03 {0.00	0.39	0.00} def      % Dark Green
/C04 {0.78	0.08	0.52} def      % Medium Violet Red
/C05 {0.55	0.27	0.07} def      % Saddle Brown
/C06 {0.10	0.70	0.70} def      % (cyan)
/C07 {1.00	0.55	0.00} def      % Dark Orange
/C08 {0.63	0.13	0.94} def      % Purple
/C09 {0.00	0.75	1.00} def      % Deep Sky Blue
/C10 {0.20	0.80	0.20} def      % Lime Green
/C11 {0.47	0.53	0.60} def      % Light Slate Gray
/C12 {0.00	0.00	0.00} def      % Black            % or: {0.19	0.31	0.31} def      % Dark Slate Gray
%
/LGR {0.75} def % light gray
/DGR {0.33} def % dark gray
%
% =============
% Dash patterns
% =============
/dash01 { [80  20] 0 setdash } def
/dash02 { [40  20] 0 setdash } def
/dash03 { [80  20  10  20] 0 setdash } def
/dash04 { [40  20  10  20] 0 setdash } def
/dash05 { [80  20  10  10  10  20] 0 setdash } def
/dash06 { [40  20  10  10  10  20] 0 setdash } def
/dash07 { [10  10] 0 setdash } def
%
/MFshow {
   { dup 5 get 3 ge
     { 5 get 3 eq {gsave} {grestore} ifelse }
     {dup dup 0 get findfont exch 1 get scalefont setfont
     [ currentpoint ] exch dup 2 get 0 exch R dup 5 get 2 ne {dup dup 6
     get exch 4 get {show} {stringwidth pop 0 R} ifelse }if dup 5 get 0 eq
     {dup 3 get {2 get neg 0 exch R pop} {pop aload pop M} ifelse} {dup 5
     get 1 eq {dup 2 get exch dup 3 get exch 6 get stringwidth pop -2 div
     dup 0 R} {dup 6 get stringwidth pop -2 div 0 R 6 get
     show 2 index {aload pop M neg 3 -1 roll neg R pop pop} {pop pop pop
     pop aload pop M} ifelse }ifelse }ifelse }
     ifelse }
   forall} bind def
/MFwidth {0 exch {dup 3 get{dup dup 0 get findfont exch 1 get scalefont
     setfont 6 get stringwidth pop add} {pop} ifelse} forall} bind def
/MCshow { currentpoint stroke M
  exch dup MFwidth -2 div 3 -1 roll R MFshow } def
%
end
%%EndProlog
bkdict begin
0.1 0.1 scale
%
% Residuals:
%
GSN 620 2136 M
620 2548 L
620 3036 L
620 3650 L
620 3866 L
620 3913 L
620 4044 L
620 4097 L
620 4206 L
620 4296 L
620 4316 L
620 4509 L
620 4393 L
620 4562 L
620 4606 L
620 4546 L
620 4553 L
620 4616 L
620 4572 L
620 4668 L
620 4625 L
620 4641 L
620 4718 L
620 4768 L
620 4559 L
620 4691 L
620 4863 L
620 4697 L
620 4730 L
620 4701 L
620 4671 L
620 4673 L
620 4576 L
620 4759 L
620 4705 L
620 4676 L
620 4570 L
620 4738 L
620 4719 L
620 4575 L
620 4597 L
620 4602 L
620 4628 L
620 4481 L
620 4440 L
620 4658 L
620 4526 L
620 4437 L
620 4471 L
620 4575 L
620 4323 L
620 4366 L
620 4478 L
620 4520 L
620 4380 L
620 4511 L
620 4499 L
620 4444 L
620 4311 L
620 4494 L
620 4583 L
620 4475 L
620 4282 L
620 4194 L
620 4375 L
620 4298 L
620 4289 L
620 4324 L
620 4361 L
620 4176 L
620 4482 L
620 4285 L
620 4249 L
620 4232 L
620 4335 L
620 4123 L
620 4430 L
620 4320 L
620 4383 L
620 4180 L
620 4252 L
620 4170 L
620 4146 L
620 4072 L
620 4021 L
620 4008 L
620 4015 L
620 4114 L
620 3896 L
620 3908 L
620 4062 L
620 3912 L
620 3926 L
620 3872 L
620 3850 L
620 3879 L
620 3629 L
620 3834 L
620 3770 L
620 3725 L
620 3764 L
620 3721 L
620 3539 L
620 3617 L
620 3815 L
620 3596 L
620 3690 L
620 3799 L
620 3611 L
620 3631 L
620 3501 L
620 3454 L
620 3530 L
620 3491 L
620 3523 L
620 3500 L
620 3549 L
620 3501 L
620 3495 L
620 3586 L
620 3418 L
620 3485 L
620 3505 L
620 3486 L
620 3398 L
620 3453 L
620 3616 L
620 3489 L
620 3522 L
620 3397 L
620 3542 L
620 3526 L
620 3429 L
620 3364 L
620 3736 L
620 3523 L
620 3416 L
620 3353 L
620 3511 L
620 3588 L
620 3421 L
620 3462 L
620 3671 L
620 3515 L
620 3546 L
620 3588 L
620 3491 L
620 3605 L
620 3421 L
620 3481 L
620 3603 L
620 3552 L
620 3580 L
620 3479 L
620 3610 L
620 3713 L
620 3513 L
620 3664 L
620 3478 L
620 3511 L
620 3619 L
620 3450 L
620 3652 L
620 3687 L
620 3588 L
620 3592 L
620 3529 L
620 3664 L
620 3607 L
620 3406 L
620 3536 L
620 3713 L
620 3623 L
620 3498 L
620 3506 L
620 3646 L
620 3676 L
620 3479 L
620 3648 L
620 3519 L
620 3586 L
620 3594 L
620 3448 L
620 3747 L
620 3596 L
620 3608 L
620 3855 L
620 3712 L
620 3749 L
620 3753 L
620 3746 L
620 3614 L
620 3643 L
620 3664 L
620 3413 L
620 3577 L
620 3730 L
620 3740 L
620 3579 L
620 3591 L
620 3746 L
620 3659 L
620 3704 L
620 3800 L
620 3634 L
620 3718 L
620 3655 L
620 3690 L
620 3657 L
620 3782 L
620 3818 L
620 3809 L
620 3674 L
620 3724 L
620 3627 L
620 3818 L
620 3653 L
620 3734 L
620 3853 L
620 3737 L
620 3781 L
620 3806 L
620 3722 L
620 3677 L
620 3731 L
620 3860 L
620 3829 L
620 3780 L
620 3863 L
620 3769 L
620 3657 L
620 3775 L
620 3698 L
620 3813 L
620 3756 L
620 3812 L
620 3831 L
620 3899 L
620 3774 L
620 3805 L
620 3870 L
620 3744 L
620 3868 L
620 3803 L
620 3813 L
620 3695 L
620 3636 L
620 3955 L
620 3920 L
620 3899 L
620 3870 L
620 3743 L
620 3930 L
620 3739 L
620 3876 L
620 3908 L
620 3946 L
620 3986 L
620 3892 L
620 3851 L
620 3858 L
620 3774 L
620 3895 L
620 3888 L
620 3940 L
620 3902 L
620 3983 L
620 3769 L
620 3960 L
620 3776 L
620 3992 L
620 3746 L
620 3795 L
620 3742 L
620 3965 L
620 3786 L
620 3943 L
620 3730 L
620 3914 L
620 4012 L
620 3902 L
620 4075 L
620 4075 L
620 4132 L
620 4013 L
620 3988 L
620 4185 L
620 4156 L
620 3895 L
620 4069 L
620 4099 L
620 4075 L
620 4165 L
620 4256 L
620 4143 L
620 4157 L
620 4163 L
620 4187 L
620 4180 L
620 4214 L
620 4167 L
620 4011 L
620 4030 L
620 4061 L
620 4082 L
620 4267 L
620 4123 L
620 4228 L
620 4165 L
620 4292 L
620 4251 L
620 4160 L
620 4282 L
620 4120 L
620 4294 L
620 4117 L
620 4299 L
620 4138 L
620 4242 L
620 4248 L
620 4113 L
620 4136 L
620 4155 L
620 4141 L
620 4217 L
620 4071 L
620 4282 L
620 4106 L
620 3992 L
620 4182 L
620 3928 L
620 4119 L
620 4074 L
620 4112 L
620 3977 L
620 4316 L
620 3937 L
620 4083 L
620 4122 L
620 4182 L
620 4039 L
620 4103 L
620 4146 L
620 4150 L
620 4170 L
620 4152 L
620 4120 L
620 4081 L
620 3915 L
620 3884 L
620 4162 L
620 4146 L
620 4069 L
620 3975 L
620 4044 L
620 4128 L
620 4107 L
620 4108 L
620 4080 L
620 4124 L
620 4067 L
620 4131 L
620 4003 L
620 3867 L
620 4003 L
620 4026 L
620 4120 L
620 4022 L
620 3998 L
620 4121 L
620 4266 L
620 3967 L
620 4036 L
620 4065 L
620 4088 L
620 3993 L
620 3929 L
620 3893 L
620 3964 L
620 4184 L
620 4128 L
620 3929 L
620 3991 L
620 3960 L
620 3937 L
620 3855 L
620 4070 L
620 3881 L
620 3933 L
620 4054 L
620 4121 L
620 3837 L
620 3986 L
620 4020 L
620 3907 L
620 3862 L
620 3987 L
620 3956 L
620 3800 L
620 3943 L
620 3864 L
620 4028 L
620 4068 L
620 3880 L
620 3803 L
620 4074 L
620 3791 L
620 3892 L
620 4028 L
620 3966 L
620 3905 L
620 3920 L
620 3906 L
620 3925 L
620 4021 L
620 3867 L
620 3828 L
620 3875 L
620 3929 L
620 3992 L
620 3788 L
620 3927 L
620 3848 L
620 3906 L
620 3884 L
620 3910 L
620 3911 L
620 3761 L
620 4081 L
620 3893 L
620 3917 L
620 3917 L
620 3669 L
620 3930 L
620 3821 L
620 3993 L
620 3858 L
620 3940 L
620 3922 L
620 3961 L
620 3925 L
620 3927 L
620 3940 L
620 3814 L
620 3931 L
620 3780 L
620 3832 L
620 3998 L
620 3840 L
620 3935 L
620 3955 L
620 3964 L
620 3822 L
620 3738 L
620 3817 L
620 3732 L
620 3907 L
620 3910 L
620 3838 L
620 3814 L
620 3800 L
620 3788 L
620 3829 L
620 3897 L
620 3860 L
620 3699 L
620 3850 L
620 3886 L
620 3823 L
620 3666 L
620 3758 L
620 3981 L
620 3894 L
620 3861 L
620 3720 L
620 3708 L
620 3777 L
620 3743 L
620 3884 L
620 3733 L
620 3700 L
620 3857 L
620 3832 L
620 3836 L
620 3993 L
620 3732 L
620 3896 L
620 3829 L
620 3672 L
620 3710 L
620 3820 L
620 3862 L
620 3784 L
620 3786 L
620 3852 L
620 3863 L
620 4002 L
620 3926 L
620 3977 L
620 3755 L
620 3786 L
620 3871 L
620 3885 L
620 3785 L
620 3823 L
620 3753 L
620 3913 L
620 3781 L
620 3812 L
620 3935 L
620 3965 L
620 3823 L
620 3869 L
620 3892 L
620 3868 L
620 3718 L
620 3855 L
620 3923 L
620 3763 L
620 3836 L
620 3822 L
620 3854 L
620 3712 L
620 3851 L
620 3873 L
620 3957 L
620 3777 L
620 3872 L
620 3742 L
620 3881 L
620 3812 L
620 3860 L
620 3846 L
L2 C03 COSGR

%
%================
% Legend - Begin
%================
%
GSN 4240 5180 M
4480 5180 L
LWMC SL  C03 COSGR
GSN 4540 5141 M helvM (1.5 uM) show grestore
%
%================
% Legend - End
%================
%

%
% Main frame
%
L10
GSN 
620 1700 M
4220 1700 L
4220 5300 L
620 5300 L
closepath SGR

%
% X axis: large tics
%
L10
%
% X axis: small tics
%
L5
%
% Y axis: large tics
%
L10
GSN 620 2185 M 54 0 rL SGR
GSN 4220 2185 M -54 0 rL SGR
helvS (-0.05) 560 2185 ylabel
GSN 620 3057 M 54 0 rL SGR
GSN 4220 3057 M -54 0 rL SGR
helvS (-0.025) 560 3057 ylabel
GSN 620 3930 M 54 0 rL SGR
GSN 4220 3930 M -54 0 rL SGR
helvS (0) 560 3930 ylabel
GSN 620 4802 M 54 0 rL SGR
GSN 4220 4802 M -54 0 rL SGR
helvS (0.025) 560 4802 ylabel
%
% Y axis: small tics
%
L5
GSN 620 1748 M 36 0 rL SGR
GSN 4220 1748 M -36 0 rL SGR
GSN 620 2185 M 36 0 rL SGR
GSN 4220 2185 M -36 0 rL SGR
GSN 620 2621 M 36 0 rL SGR
GSN 4220 2621 M -36 0 rL SGR
GSN 620 3057 M 36 0 rL SGR
GSN 4220 3057 M -36 0 rL SGR
GSN 620 3493 M 36 0 rL SGR
GSN 4220 3493 M -36 0 rL SGR
GSN 620 3930 M 36 0 rL SGR
GSN 4220 3930 M -36 0 rL SGR
GSN 620 4366 M 36 0 rL SGR
GSN 4220 4366 M -36 0 rL SGR
GSN 620 4802 M 36 0 rL SGR
GSN 4220 4802 M -36 0 rL SGR
GSN 620 5238 M 36 0 rL SGR
GSN 4220 5238 M -36 0 rL SGR

%
% X axis - residual panel
%
GSN L5 620 3930 M 4220 3930 L SDA G50 SGR

%
% X-Axis label:
%
gsave 620 1370 M 
[
[(Helvetica) 180 0 true true 0 (t)]
[(Helvetica) 180 0 true true 0 (i)]
[(Helvetica) 180 0 true true 0 (m)]
[(Helvetica) 180 0 true true 0 (e)]
] 0 MCshow grestore

%
% Y-Axis label:
%
gsave 234 3499 M 
currentpoint gsave translate 90 rotate 0 0 moveto
[
[(Helvetica) 180 0 true true 0 (r)]
[(Helvetica) 180 0 true true 0 (e)]
[(Helvetica) 180 0 true true 0 (s)]
[(Helvetica) 180 0 true true 0 (i)]
[(Helvetica) 180 0 true true 0 (d)]
[(Helvetica) 180 0 true true 0 (u)]
[(Helvetica) 180 0 true true 0 (a)]
[(Helvetica) 180 0 true true 0 (l)]
[(Helvetica) 180 0 true true 0 (s)]
] 0 MCshow grestore

end
showpage
%%Trailer
%%EOF
