%!PS-Adobe-3.0 EPSF-3.0
%%BoundingBox: 0 0 514 550
%%Creator: BioKin Ltd.
%%DocumentFonts: Symbol Helvetica
%%EndComments
%
/bkdict 256 dict def
bkdict begin
/M {moveto} def 
/R {rmoveto} def
/L {lineto} def
/rL {rlineto} def
/GSN {gsave newpath} def
/SGR {stroke grestore} def
/COSGR {gsave setrgbcolor stroke grestore grestore} def
/SL {setlinewidth} def
/LWMB {12} def             % line width - model curves, black & white
/LWMC {10} def             % line width - model curves, color
/L2 {2.5 setlinewidth} def
/L5 {5 setlinewidth} def
/L10 {10 setlinewidth} def
/G50 {0.5 setgray} def
/SDA {[10  20] 0 setdash} def % axes
/helvT {/Helvetica findfont 100 scalefont setfont} def % tiny
/helvS {/Helvetica findfont 125 scalefont setfont} def % small
/helvM {/Helvetica findfont 150 scalefont setfont} def % medium
/helvL {/Helvetica findfont 175 scalefont setfont} def % large
/xlabel {gsave M dup
   stringwidth exch -0.5 mul exch rmoveto show grestore} def 
/ylabel {gsave M 90 rotate dup
   stringwidth exch -0.5 mul exch rmoveto show grestore} def
/ylabelresid {gsave M dup
   stringwidth exch -1 mul exch rmoveto show grestore} def
% ======
% Shapes
% ======
% Circle:
/Circ {0 360 arc closepath} def
%
% Square:
/Squa {dup dup -0.5 mul dup dup R -2 mul 0 exch rL 1 mul 0 rL dup 0 exch -1 mul rL closepath} def
%
% Triangle Up:
/TriU {dup dup dup -0.4 mul exch -0.5 mul exch R dup 0.5 mul exch rL dup -1 mul exch 0.5 mul exch rL closepath} def 
%
% Triangle Down:
/TriD {dup dup dup 0.4 mul exch -0.5 mul exch R dup 0.5 mul exch -1 mul rL dup 0.5 mul exch rL closepath} def 
%
% Diamond:
/Diam {45 rotate Squa} def
% ======
% Fills
% ======
/GRF {gsave setgray fill grestore} def                    % gray-level Fill
/COF {gsave setrgbcolor fill grestore} def                % color fill
% ======
% Colors
% ======
/C01 {1.00	0.00	0.00} def      % Red
/C02 {0.00	0.00	1.00} def      % Blue
/C03 {0.00	0.39	0.00} def      % Dark Green
/C04 {0.78	0.08	0.52} def      % Medium Violet Red
/C05 {0.55	0.27	0.07} def      % Saddle Brown
/C06 {0.10	0.70	0.70} def      % (cyan)
/C07 {1.00	0.55	0.00} def      % Dark Orange
/C08 {0.63	0.13	0.94} def      % Purple
/C09 {0.00	0.75	1.00} def      % Deep Sky Blue
/C10 {0.20	0.80	0.20} def      % Lime Green
/C11 {0.47	0.53	0.60} def      % Light Slate Gray
/C12 {0.00	0.00	0.00} def      % Black            % or: {0.19	0.31	0.31} def      % Dark Slate Gray
%
/LGR {0.75} def % light gray
/DGR {0.33} def % dark gray
%
% =============
% Dash patterns
% =============
/dash01 { [80  20] 0 setdash } def
/dash02 { [40  20] 0 setdash } def
/dash03 { [80  20  10  20] 0 setdash } def
/dash04 { [40  20  10  20] 0 setdash } def
/dash05 { [80  20  10  10  10  20] 0 setdash } def
/dash06 { [40  20  10  10  10  20] 0 setdash } def
/dash07 { [10  10] 0 setdash } def
%
/MFshow {
   { dup 5 get 3 ge
     { 5 get 3 eq {gsave} {grestore} ifelse }
     {dup dup 0 get findfont exch 1 get scalefont setfont
     [ currentpoint ] exch dup 2 get 0 exch R dup 5 get 2 ne {dup dup 6
     get exch 4 get {show} {stringwidth pop 0 R} ifelse }if dup 5 get 0 eq
     {dup 3 get {2 get neg 0 exch R pop} {pop aload pop M} ifelse} {dup 5
     get 1 eq {dup 2 get exch dup 3 get exch 6 get stringwidth pop -2 div
     dup 0 R} {dup 6 get stringwidth pop -2 div 0 R 6 get
     show 2 index {aload pop M neg 3 -1 roll neg R pop pop} {pop pop pop
     pop aload pop M} ifelse }ifelse }ifelse }
     ifelse }
   forall} bind def
/MFwidth {0 exch {dup 3 get{dup dup 0 get findfont exch 1 get scalefont
     setfont 6 get stringwidth pop add} {pop} ifelse} forall} bind def
/MCshow { currentpoint stroke M
  exch dup MFwidth -2 div 3 -1 roll R MFshow } def
%
end
%%EndProlog
bkdict begin
0.1 0.1 scale
%
% Residuals:
%
GSN 620 3139 M
620 2514 L
620 3716 L
620 3203 L
620 4045 L
620 3505 L
620 3729 L
620 3744 L
620 3404 L
620 3127 L
620 3603 L
620 3426 L
620 4035 L
620 3398 L
620 3635 L
620 3591 L
620 3657 L
620 3492 L
620 3348 L
620 3415 L
620 3048 L
620 3191 L
620 3694 L
620 3342 L
620 3146 L
620 3863 L
620 3517 L
620 3613 L
620 3474 L
620 3734 L
620 3547 L
620 3032 L
620 3711 L
620 3054 L
620 3915 L
620 3933 L
620 3097 L
620 3973 L
620 2747 L
620 4073 L
620 3583 L
620 3920 L
620 3284 L
620 3902 L
620 3830 L
620 3422 L
620 3384 L
620 3518 L
620 3896 L
620 3664 L
620 3581 L
620 3940 L
620 3546 L
620 3525 L
620 3589 L
620 3669 L
620 3422 L
620 3927 L
620 3760 L
620 3363 L
620 3335 L
620 4157 L
620 3185 L
620 4015 L
620 3259 L
620 3854 L
620 2978 L
620 3513 L
620 2938 L
620 3549 L
620 3629 L
620 3282 L
620 3242 L
620 3788 L
620 2935 L
620 2902 L
620 3834 L
620 3014 L
620 3039 L
620 3388 L
620 3946 L
620 2951 L
620 2964 L
620 3415 L
620 3432 L
620 3365 L
620 3639 L
620 3515 L
620 3051 L
620 2942 L
620 2788 L
620 3119 L
620 3265 L
620 3400 L
620 2581 L
620 2865 L
620 3525 L
620 3303 L
620 2616 L
620 3738 L
620 3562 L
620 3320 L
620 3382 L
620 3214 L
620 3354 L
620 2936 L
620 2466 L
620 2934 L
620 2758 L
620 3352 L
620 3348 L
620 3441 L
620 3266 L
620 2855 L
620 2852 L
620 3456 L
620 2596 L
620 3219 L
620 2319 L
620 3391 L
620 2647 L
620 2727 L
620 2939 L
620 3574 L
620 3048 L
620 3750 L
620 3644 L
620 2500 L
620 3166 L
620 2565 L
620 3269 L
620 3053 L
620 2782 L
620 2136 L
620 3369 L
620 2752 L
620 2921 L
620 3383 L
620 3623 L
620 3039 L
620 3066 L
620 2569 L
620 2672 L
620 2605 L
620 3043 L
620 3153 L
620 3416 L
620 2947 L
620 3482 L
620 3132 L
620 3007 L
620 3009 L
620 2824 L
620 2579 L
620 2840 L
620 2931 L
620 2812 L
620 2702 L
620 3043 L
620 2963 L
620 3107 L
620 3469 L
620 3587 L
620 3668 L
620 3059 L
620 3508 L
620 4030 L
620 3188 L
620 3309 L
620 3130 L
620 3812 L
620 2994 L
620 3098 L
620 3504 L
620 3544 L
620 3364 L
620 2936 L
620 3566 L
620 3628 L
620 3272 L
620 3073 L
620 3581 L
620 3526 L
620 3421 L
620 2835 L
620 3580 L
620 3211 L
620 3385 L
620 3011 L
620 4313 L
620 3773 L
620 2987 L
620 4110 L
620 3043 L
620 3596 L
620 4050 L
620 3616 L
620 3765 L
620 3829 L
620 4036 L
620 3781 L
620 4053 L
620 2806 L
620 3176 L
620 3698 L
620 3459 L
620 3497 L
620 3360 L
620 3606 L
620 3384 L
620 3511 L
620 3595 L
620 4006 L
620 3814 L
620 3651 L
620 3914 L
620 3398 L
620 3593 L
620 3290 L
620 3510 L
620 3462 L
620 4034 L
620 3697 L
620 3496 L
620 3508 L
620 3931 L
620 4440 L
620 3627 L
620 3982 L
620 3156 L
620 3563 L
620 3633 L
620 3679 L
620 3537 L
620 3927 L
620 4074 L
620 3736 L
620 4189 L
620 3448 L
620 2890 L
620 3989 L
620 3299 L
620 4207 L
620 4265 L
620 3825 L
620 2795 L
620 3770 L
620 4300 L
620 3874 L
620 3400 L
620 3942 L
620 4064 L
620 4343 L
620 3716 L
620 3736 L
620 3934 L
620 4081 L
620 3854 L
620 3954 L
620 3863 L
620 3930 L
620 3520 L
620 3735 L
620 4141 L
620 3867 L
620 3623 L
620 3868 L
620 3751 L
620 3698 L
620 3578 L
620 3023 L
620 3383 L
620 3896 L
620 4204 L
620 3837 L
620 3950 L
620 4178 L
620 3615 L
620 4059 L
620 3841 L
620 3615 L
620 4169 L
620 3967 L
620 4846 L
620 4172 L
620 3820 L
620 3766 L
620 3506 L
620 4128 L
620 3760 L
620 4307 L
620 3915 L
620 4476 L
620 4426 L
620 4321 L
620 4743 L
620 4367 L
620 4223 L
620 4352 L
620 4680 L
620 4571 L
620 4061 L
620 4661 L
620 4207 L
620 4156 L
620 4739 L
620 3633 L
620 4450 L
620 4143 L
620 4484 L
620 4665 L
620 3780 L
620 3888 L
620 4569 L
620 4722 L
620 4529 L
620 3979 L
620 3412 L
620 4427 L
620 3814 L
620 3695 L
620 4189 L
620 4614 L
620 3672 L
620 3956 L
620 4279 L
620 3990 L
620 4359 L
620 4393 L
620 4863 L
620 4461 L
620 4772 L
620 3854 L
620 4461 L
620 4206 L
620 4749 L
620 3826 L
620 3537 L
620 3441 L
620 4574 L
620 4008 L
620 4671 L
620 4177 L
620 4172 L
620 4240 L
620 4291 L
620 4262 L
620 3746 L
620 3939 L
620 4285 L
620 4302 L
620 3888 L
620 3588 L
620 3917 L
620 3956 L
620 3684 L
620 3690 L
620 3724 L
620 3820 L
620 4262 L
620 4285 L
620 3752 L
620 4053 L
620 3333 L
620 3690 L
620 3633 L
620 4064 L
620 4330 L
620 3293 L
620 4047 L
620 3384 L
620 3383 L
620 3486 L
620 3633 L
620 3475 L
620 3435 L
620 3763 L
620 3559 L
620 3973 L
620 3383 L
620 3389 L
620 4075 L
620 3214 L
620 4018 L
620 3509 L
620 3888 L
620 3662 L
620 3939 L
620 3321 L
620 3672 L
620 3446 L
620 3344 L
620 3542 L
620 3610 L
620 3962 L
620 2738 L
620 4013 L
620 3401 L
620 3276 L
620 3883 L
620 3185 L
620 3435 L
620 3344 L
620 3316 L
620 3321 L
620 3095 L
620 3956 L
620 3066 L
620 3208 L
620 3299 L
620 3038 L
620 2936 L
620 3418 L
620 3769 L
620 3412 L
620 3531 L
620 3673 L
620 4138 L
620 3576 L
620 3854 L
620 4223 L
620 3831 L
620 3321 L
620 3441 L
620 4070 L
620 3474 L
620 3452 L
620 2692 L
620 3990 L
620 2930 L
620 3350 L
620 3605 L
620 3401 L
620 3072 L
620 3338 L
620 3775 L
620 3673 L
620 3911 L
620 4166 L
620 3310 L
620 4325 L
620 3429 L
620 3531 L
620 3106 L
620 3537 L
620 3168 L
620 3729 L
620 3237 L
620 3594 L
620 3332 L
620 3519 L
620 3582 L
620 3162 L
620 3854 L
620 3043 L
620 3775 L
620 3554 L
620 3826 L
620 3304 L
620 2884 L
620 3072 L
620 3032 L
620 3389 L
620 3616 L
620 3389 L
620 3202 L
620 4008 L
620 3077 L
620 4086 L
620 3934 L
620 2505 L
620 3038 L
620 3321 L
620 4041 L
620 3111 L
620 3673 L
620 3622 L
620 2987 L
620 2681 L
620 3231 L
620 3406 L
620 3576 L
620 3622 L
620 3310 L
620 3378 L
620 3741 L
620 3072 L
620 3072 L
620 3678 L
620 3594 L
620 3350 L
620 3072 L
620 3327 L
620 3894 L
620 2907 L
620 2613 L
620 2738 L
620 3622 L
620 3395 L
620 3055 L
620 3922 L
620 3577 L
620 3123 L
620 2936 L
620 3038 L
620 3202 L
620 3304 L
620 3089 L
620 2862 L
620 3724 L
620 3083 L
620 3259 L
620 3985 L
620 3202 L
620 2630 L
620 3492 L
620 2782 L
620 3701 L
620 3543 L
620 3350 L
620 3021 L
620 3860 L
620 2907 L
620 3440 L
620 3219 L
620 3877 L
620 3452 L
620 3253 L
620 3435 L
620 3520 L
620 3792 L
620 3338 L
620 3458 L
L2 C02 COSGR

%
%================
% Legend - Begin
%================
%
GSN 4240 5180 M
4480 5180 L
LWMC SL  C02 COSGR
GSN 4540 5141 M helvM (1.0 uM) show grestore
%
%================
% Legend - End
%================
%

%
% Main frame
%
L10
GSN 
620 1700 M
4220 1700 L
4220 5300 L
620 5300 L
closepath SGR

%
% X axis: large tics
%
L10
%
% X axis: small tics
%
L5
%
% Y axis: large tics
%
L10
GSN 620 2440 M 54 0 rL SGR
GSN 4220 2440 M -54 0 rL SGR
helvS (-0.01) 560 2440 ylabel
GSN 620 3554 M 54 0 rL SGR
GSN 4220 3554 M -54 0 rL SGR
helvS (0) 560 3554 ylabel
GSN 620 4669 M 54 0 rL SGR
GSN 4220 4669 M -54 0 rL SGR
helvS (0.01) 560 4669 ylabel
%
% Y axis: small tics
%
L5
GSN 620 1882 M 36 0 rL SGR
GSN 4220 1882 M -36 0 rL SGR
GSN 620 2161 M 36 0 rL SGR
GSN 4220 2161 M -36 0 rL SGR
GSN 620 2440 M 36 0 rL SGR
GSN 4220 2440 M -36 0 rL SGR
GSN 620 2718 M 36 0 rL SGR
GSN 4220 2718 M -36 0 rL SGR
GSN 620 2997 M 36 0 rL SGR
GSN 4220 2997 M -36 0 rL SGR
GSN 620 3276 M 36 0 rL SGR
GSN 4220 3276 M -36 0 rL SGR
GSN 620 3554 M 36 0 rL SGR
GSN 4220 3554 M -36 0 rL SGR
GSN 620 3833 M 36 0 rL SGR
GSN 4220 3833 M -36 0 rL SGR
GSN 620 4111 M 36 0 rL SGR
GSN 4220 4111 M -36 0 rL SGR
GSN 620 4390 M 36 0 rL SGR
GSN 4220 4390 M -36 0 rL SGR
GSN 620 4669 M 36 0 rL SGR
GSN 4220 4669 M -36 0 rL SGR
GSN 620 4947 M 36 0 rL SGR
GSN 4220 4947 M -36 0 rL SGR
GSN 620 5226 M 36 0 rL SGR
GSN 4220 5226 M -36 0 rL SGR

%
% X axis - residual panel
%
GSN L5 620 3554 M 4220 3554 L SDA G50 SGR

%
% X-Axis label:
%
gsave 620 1370 M 
[
[(Helvetica) 180 0 true true 0 (t)]
[(Helvetica) 180 0 true true 0 (i)]
[(Helvetica) 180 0 true true 0 (m)]
[(Helvetica) 180 0 true true 0 (e)]
] 0 MCshow grestore

%
% Y-Axis label:
%
gsave 234 3500 M 
currentpoint gsave translate 90 rotate 0 0 moveto
[
[(Helvetica) 180 0 true true 0 (r)]
[(Helvetica) 180 0 true true 0 (e)]
[(Helvetica) 180 0 true true 0 (s)]
[(Helvetica) 180 0 true true 0 (i)]
[(Helvetica) 180 0 true true 0 (d)]
[(Helvetica) 180 0 true true 0 (u)]
[(Helvetica) 180 0 true true 0 (a)]
[(Helvetica) 180 0 true true 0 (l)]
[(Helvetica) 180 0 true true 0 (s)]
] 0 MCshow grestore

end
showpage
%%Trailer
%%EOF
