%!PS-Adobe-3.0 EPSF-3.0
%%BoundingBox: 0 0 514 442
%%Creator: BioKin Ltd.
%%DocumentFonts: Symbol Helvetica
%%EndComments
%
/bkdict 256 dict def
bkdict begin
/M {moveto} def 
/R {rmoveto} def
/L {lineto} def
/rL {rlineto} def
/GSN {gsave newpath} def
/SGR {stroke grestore} def
/COSGR {gsave setrgbcolor stroke grestore grestore} def
/SL {setlinewidth} def
/LWMB {12} def             % line width - model curves, black & white
/LWMC {10} def             % line width - model curves, color
/L2 {2.5 setlinewidth} def
/L5 {5 setlinewidth} def
/L10 {10 setlinewidth} def
/G50 {0.5 setgray} def
/SDA {[10  20] 0 setdash} def % axes
/helvT {/Helvetica findfont 100 scalefont setfont} def % tiny
/helvS {/Helvetica findfont 125 scalefont setfont} def % small
/helvM {/Helvetica findfont 150 scalefont setfont} def % medium
/helvL {/Helvetica findfont 175 scalefont setfont} def % large
/xlabel {gsave M dup
   stringwidth exch -0.5 mul exch rmoveto show grestore} def 
/ylabel {gsave M 90 rotate dup
   stringwidth exch -0.5 mul exch rmoveto show grestore} def
/ylabelresid {gsave M dup
   stringwidth exch -1 mul exch rmoveto show grestore} def
% ======
% Shapes
% ======
% Circle:
/Circ {0 360 arc closepath} def
%
% Square:
/Squa {dup dup -0.5 mul dup dup R -2 mul 0 exch rL 1 mul 0 rL dup 0 exch -1 mul rL closepath} def
%
% Triangle Up:
/TriU {dup dup dup -0.4 mul exch -0.5 mul exch R dup 0.5 mul exch rL dup -1 mul exch 0.5 mul exch rL closepath} def 
%
% Triangle Down:
/TriD {dup dup dup 0.4 mul exch -0.5 mul exch R dup 0.5 mul exch -1 mul rL dup 0.5 mul exch rL closepath} def 
%
% Diamond:
/Diam {45 rotate Squa} def
% ======
% Fills
% ======
/GRF {gsave setgray fill grestore} def                    % gray-level Fill
/COF {gsave setrgbcolor fill grestore} def                % color fill
% ======
% Colors
% ======
/C01 {1.00	0.00	0.00} def      % Red
/C02 {0.00	0.00	1.00} def      % Blue
/C03 {0.00	0.39	0.00} def      % Dark Green
/C04 {0.78	0.08	0.52} def      % Medium Violet Red
/C05 {0.55	0.27	0.07} def      % Saddle Brown
/C06 {0.10	0.70	0.70} def      % (cyan)
/C07 {1.00	0.55	0.00} def      % Dark Orange
/C08 {0.63	0.13	0.94} def      % Purple
/C09 {0.00	0.75	1.00} def      % Deep Sky Blue
/C10 {0.20	0.80	0.20} def      % Lime Green
/C11 {0.47	0.53	0.60} def      % Light Slate Gray
/C12 {0.00	0.00	0.00} def      % Black            % or: {0.19	0.31	0.31} def      % Dark Slate Gray
%
/LGR {0.75} def % light gray
/DGR {0.33} def % dark gray
%
% =============
% Dash patterns
% =============
/dash01 { [80  20] 0 setdash } def
/dash02 { [40  20] 0 setdash } def
/dash03 { [80  20  10  20] 0 setdash } def
/dash04 { [40  20  10  20] 0 setdash } def
/dash05 { [80  20  10  10  10  20] 0 setdash } def
/dash06 { [40  20  10  10  10  20] 0 setdash } def
/dash07 { [10  10] 0 setdash } def
%
/MFshow {
   { dup 5 get 3 ge
     { 5 get 3 eq {gsave} {grestore} ifelse }
     {dup dup 0 get findfont exch 1 get scalefont setfont
     [ currentpoint ] exch dup 2 get 0 exch R dup 5 get 2 ne {dup dup 6
     get exch 4 get {show} {stringwidth pop 0 R} ifelse }if dup 5 get 0 eq
     {dup 3 get {2 get neg 0 exch R pop} {pop aload pop M} ifelse} {dup 5
     get 1 eq {dup 2 get exch dup 3 get exch 6 get stringwidth pop -2 div
     dup 0 R} {dup 6 get stringwidth pop -2 div 0 R 6 get
     show 2 index {aload pop M neg 3 -1 roll neg R pop pop} {pop pop pop
     pop aload pop M} ifelse }ifelse }ifelse }
     ifelse }
   forall} bind def
/MFwidth {0 exch {dup 3 get{dup dup 0 get findfont exch 1 get scalefont
     setfont 6 get stringwidth pop add} {pop} ifelse} forall} bind def
/MCshow { currentpoint stroke M
  exch dup MFwidth -2 div 3 -1 roll R MFshow } def
%
end
%%EndProlog
bkdict begin
0.1 0.1 scale
%
% Model curves:
%

GSN 753 3665 M
770 3665 L
803 3666 L
837 3668 L
870 3669 L
895 3671 L
911 3672 L
937 3672 L
970 3674 L
1003 3675 L
1037 3677 L
1053 3678 L
1070 3678 L
1103 3679 L
1137 3680 L
1170 3680 L
1195 3681 L
1211 3681 L
1237 3681 L
1270 3681 L
1303 3681 L
1337 3681 L
1353 3681 L
1370 3681 L
1403 3681 L
1437 3681 L
1470 3681 L
1495 3681 L
1512 3681 L
1537 3681 L
1570 3681 L
1603 3681 L
1637 3681 L
1653 3681 L
1670 3681 L
1703 3681 L
1737 3681 L
1770 3681 L
1795 3681 L
1812 3681 L
1837 3681 L
1870 3681 L
1903 3681 L
1937 3681 L
1953 3681 L
1971 3681 L
2003 3681 L
2037 3681 L
2070 3681 L
2095 3681 L
2112 3681 L
2137 3681 L
2170 3681 L
2203 3681 L
2237 3681 L
2253 3681 L
2271 3681 L
2303 3681 L
2337 3681 L
2370 3681 L
2395 3681 L
2412 3681 L
2437 3681 L
2470 3681 L
2503 3681 L
2537 3681 L
2553 3681 L
2571 3681 L
2603 3682 L
2637 3682 L
2670 3682 L
2695 3682 L
2712 3682 L
2737 3682 L
2770 3682 L
2803 3682 L
2837 3682 L
2854 3682 L
2871 3682 L
2903 3682 L
2937 3682 L
2970 3682 L
2995 3682 L
3012 3682 L
3037 3682 L
3061 3683 L
3077 3683 L
3103 3683 L
3137 3683 L
3154 3683 L
3171 3683 L
3203 3684 L
3237 3684 L
3270 3685 L
3296 3685 L
3312 3685 L
3337 3686 L
3370 3686 L
3403 3687 L
3437 3688 L
3454 3689 L
3471 3689 L
3503 3691 L
3537 3692 L
3570 3694 L
3596 3696 L
3612 3697 L
3637 3698 L
3670 3701 L
3703 3704 L
3737 3708 L
3754 3712 L
3771 3712 L
3803 3717 L
3837 3722 L
3870 3728 L
3896 3735 L
3912 3740 L
3937 3743 L
3970 3752 L
4003 3762 L
4037 3774 L
4070 3786 L
LWMC SL dash01 C01 COSGR

GSN 753 2866 M
770 2866 L
803 2870 L
837 2875 L
870 2879 L
895 2884 L
911 2886 L
937 2889 L
970 2893 L
1003 2898 L
1037 2902 L
1053 2905 L
1070 2905 L
1103 2908 L
1137 2910 L
1170 2912 L
1195 2913 L
1211 2914 L
1237 2914 L
1270 2914 L
1303 2915 L
1337 2915 L
1353 2915 L
1370 2915 L
1403 2915 L
1437 2915 L
1470 2915 L
1495 2915 L
1512 2915 L
1537 2915 L
1570 2915 L
1603 2915 L
1637 2915 L
1653 2915 L
1670 2915 L
1703 2915 L
1737 2915 L
1770 2915 L
1795 2915 L
1812 2915 L
1837 2915 L
1870 2915 L
1903 2915 L
1937 2915 L
1953 2915 L
1971 2915 L
2003 2915 L
2037 2915 L
2070 2915 L
2095 2915 L
2112 2915 L
2137 2915 L
2170 2915 L
2203 2915 L
2237 2915 L
2253 2915 L
2271 2915 L
2303 2915 L
2337 2915 L
2370 2915 L
2395 2915 L
2412 2915 L
2437 2915 L
2470 2915 L
2503 2915 L
2537 2915 L
2553 2915 L
2571 2915 L
2603 2915 L
2637 2915 L
2670 2916 L
2695 2916 L
2712 2916 L
2737 2916 L
2770 2916 L
2803 2916 L
2837 2917 L
2854 2917 L
2871 2917 L
2903 2917 L
2937 2918 L
2970 2918 L
2995 2919 L
3012 2919 L
3037 2920 L
3061 2921 L
3077 2921 L
3103 2922 L
3137 2923 L
3154 2924 L
3171 2924 L
3203 2926 L
3237 2927 L
3270 2929 L
3296 2932 L
3312 2933 L
3337 2935 L
3370 2938 L
3403 2942 L
3437 2946 L
3454 2951 L
3471 2952 L
3503 2957 L
3537 2964 L
3570 2972 L
3596 2981 L
3612 2987 L
3637 2992 L
3670 3004 L
3703 3018 L
3737 3033 L
3754 3051 L
3771 3053 L
3803 3072 L
3837 3095 L
3870 3121 L
3896 3150 L
3912 3167 L
3937 3182 L
3970 3217 L
4003 3256 L
4037 3298 L
4070 3343 L
LWMC SL dash02 C02 COSGR

GSN 753 2256 M
770 2256 L
803 2262 L
837 2269 L
870 2276 L
895 2283 L
911 2286 L
937 2290 L
970 2297 L
1003 2303 L
1037 2309 L
1053 2314 L
1070 2314 L
1103 2319 L
1137 2322 L
1170 2325 L
1195 2327 L
1211 2327 L
1237 2328 L
1270 2328 L
1303 2329 L
1337 2329 L
1353 2329 L
1370 2329 L
1403 2329 L
1437 2329 L
1470 2329 L
1495 2329 L
1512 2329 L
1537 2329 L
1570 2329 L
1603 2329 L
1637 2329 L
1653 2329 L
1670 2329 L
1703 2329 L
1737 2329 L
1770 2329 L
1795 2329 L
1812 2329 L
1837 2329 L
1870 2329 L
1903 2329 L
1937 2329 L
1953 2329 L
1971 2329 L
2003 2329 L
2037 2329 L
2070 2329 L
2095 2329 L
2112 2329 L
2137 2329 L
2170 2329 L
2203 2329 L
2237 2329 L
2253 2329 L
2271 2329 L
2303 2329 L
2337 2329 L
2370 2329 L
2395 2329 L
2412 2329 L
2437 2330 L
2470 2330 L
2503 2330 L
2537 2330 L
2553 2330 L
2571 2330 L
2603 2330 L
2637 2330 L
2670 2331 L
2695 2331 L
2712 2331 L
2737 2331 L
2770 2332 L
2803 2332 L
2837 2333 L
2854 2333 L
2871 2333 L
2903 2334 L
2937 2335 L
2970 2336 L
2995 2337 L
3012 2338 L
3037 2338 L
3061 2340 L
3077 2341 L
3103 2342 L
3137 2344 L
3154 2346 L
3171 2347 L
3203 2349 L
3237 2353 L
3270 2357 L
3296 2361 L
3312 2364 L
3337 2366 L
3370 2372 L
3403 2380 L
3437 2388 L
3454 2397 L
3471 2398 L
3503 2408 L
3537 2421 L
3570 2435 L
3596 2452 L
3612 2463 L
3637 2472 L
3670 2494 L
3703 2519 L
3737 2547 L
3754 2580 L
3771 2582 L
3803 2616 L
3837 2657 L
3870 2703 L
3896 2754 L
3912 2785 L
3937 2810 L
3970 2870 L
4003 2936 L
4037 3006 L
4070 3080 L
LWMC SL dash03 C03 COSGR

GSN 753 2063 M
770 2063 L
803 2070 L
837 2077 L
870 2085 L
895 2093 L
911 2097 L
937 2100 L
970 2108 L
1003 2115 L
1037 2122 L
1053 2128 L
1070 2128 L
1103 2132 L
1137 2136 L
1170 2139 L
1195 2141 L
1211 2142 L
1237 2142 L
1270 2143 L
1303 2143 L
1337 2144 L
1353 2144 L
1370 2144 L
1403 2144 L
1437 2144 L
1470 2144 L
1495 2144 L
1512 2144 L
1537 2144 L
1570 2144 L
1603 2144 L
1637 2144 L
1653 2144 L
1670 2144 L
1703 2144 L
1737 2144 L
1770 2144 L
1795 2144 L
1812 2144 L
1837 2144 L
1870 2144 L
1903 2144 L
1937 2144 L
1953 2144 L
1971 2144 L
2003 2144 L
2037 2144 L
2070 2144 L
2095 2144 L
2112 2144 L
2137 2144 L
2170 2144 L
2203 2144 L
2237 2144 L
2253 2144 L
2271 2144 L
2303 2144 L
2337 2144 L
2370 2144 L
2395 2144 L
2412 2144 L
2437 2144 L
2470 2144 L
2503 2145 L
2537 2145 L
2553 2145 L
2571 2145 L
2603 2145 L
2637 2145 L
2670 2146 L
2695 2146 L
2712 2146 L
2737 2146 L
2770 2147 L
2803 2147 L
2837 2148 L
2854 2149 L
2871 2149 L
2903 2150 L
2937 2151 L
2970 2152 L
2995 2153 L
3012 2154 L
3037 2155 L
3061 2157 L
3077 2158 L
3103 2159 L
3137 2161 L
3154 2164 L
3171 2164 L
3203 2168 L
3237 2172 L
3270 2176 L
3296 2181 L
3312 2185 L
3337 2188 L
3370 2195 L
3403 2203 L
3437 2213 L
3454 2224 L
3471 2224 L
3503 2237 L
3537 2252 L
3570 2269 L
3596 2288 L
3612 2300 L
3637 2311 L
3670 2337 L
3703 2366 L
3737 2399 L
3754 2437 L
3771 2439 L
3803 2479 L
3837 2527 L
3870 2580 L
3896 2638 L
3912 2674 L
3937 2702 L
3970 2772 L
4003 2847 L
4037 2926 L
4070 3010 L
LWMC SL dash04 C04 COSGR

GSN 753 2003 M
770 2003 L
803 2010 L
837 2017 L
870 2025 L
895 2033 L
911 2037 L
937 2041 L
970 2049 L
1003 2057 L
1037 2063 L
1053 2069 L
1070 2069 L
1103 2074 L
1137 2078 L
1170 2081 L
1195 2083 L
1211 2084 L
1237 2084 L
1270 2085 L
1303 2086 L
1337 2086 L
1353 2086 L
1370 2086 L
1403 2086 L
1437 2086 L
1470 2086 L
1495 2086 L
1512 2086 L
1537 2086 L
1570 2086 L
1603 2086 L
1637 2086 L
1653 2086 L
1670 2086 L
1703 2086 L
1737 2086 L
1770 2086 L
1795 2086 L
1812 2086 L
1837 2086 L
1870 2086 L
1903 2086 L
1937 2086 L
1953 2086 L
1971 2086 L
2003 2086 L
2037 2086 L
2070 2086 L
2095 2086 L
2112 2086 L
2137 2086 L
2170 2086 L
2203 2086 L
2237 2086 L
2253 2086 L
2271 2086 L
2303 2086 L
2337 2086 L
2370 2086 L
2395 2086 L
2412 2087 L
2437 2087 L
2470 2087 L
2503 2087 L
2537 2087 L
2553 2087 L
2571 2087 L
2603 2087 L
2637 2088 L
2670 2088 L
2695 2088 L
2712 2089 L
2737 2089 L
2770 2089 L
2803 2090 L
2837 2091 L
2854 2092 L
2871 2092 L
2903 2093 L
2937 2094 L
2970 2095 L
2995 2096 L
3012 2097 L
3037 2098 L
3061 2100 L
3077 2101 L
3103 2103 L
3137 2106 L
3154 2109 L
3171 2109 L
3203 2113 L
3237 2117 L
3270 2122 L
3296 2128 L
3312 2132 L
3337 2135 L
3370 2143 L
3403 2152 L
3437 2163 L
3454 2175 L
3471 2176 L
3503 2190 L
3537 2206 L
3570 2226 L
3596 2247 L
3612 2261 L
3637 2273 L
3670 2301 L
3703 2334 L
3737 2371 L
3754 2413 L
3771 2416 L
3803 2460 L
3837 2512 L
3870 2571 L
3896 2635 L
3912 2674 L
3937 2705 L
3970 2782 L
4003 2864 L
4037 2950 L
4070 3042 L
LWMC SL dash05 C05 COSGR

GSN 753 1586 M
770 1586 L
803 1595 L
837 1604 L
870 1613 L
895 1623 L
911 1628 L
937 1632 L
970 1642 L
1003 1651 L
1037 1659 L
1053 1666 L
1070 1666 L
1103 1672 L
1137 1677 L
1170 1680 L
1195 1683 L
1211 1683 L
1237 1684 L
1270 1685 L
1303 1685 L
1337 1686 L
1353 1686 L
1370 1686 L
1403 1686 L
1437 1686 L
1470 1686 L
1495 1686 L
1512 1686 L
1537 1686 L
1570 1686 L
1603 1686 L
1637 1686 L
1653 1686 L
1670 1686 L
1703 1686 L
1737 1686 L
1770 1686 L
1795 1686 L
1812 1686 L
1837 1686 L
1870 1686 L
1903 1686 L
1937 1686 L
1953 1686 L
1971 1686 L
2003 1686 L
2037 1686 L
2070 1686 L
2095 1686 L
2112 1686 L
2137 1686 L
2170 1686 L
2203 1686 L
2237 1686 L
2253 1686 L
2271 1686 L
2303 1686 L
2337 1686 L
2370 1687 L
2395 1687 L
2412 1687 L
2437 1687 L
2470 1687 L
2503 1687 L
2537 1687 L
2553 1688 L
2571 1688 L
2603 1688 L
2637 1688 L
2670 1689 L
2695 1689 L
2712 1690 L
2737 1690 L
2770 1691 L
2803 1692 L
2837 1693 L
2854 1694 L
2871 1694 L
2903 1695 L
2937 1697 L
2970 1698 L
2995 1700 L
3012 1702 L
3037 1703 L
3061 1706 L
3077 1707 L
3103 1709 L
3137 1713 L
3154 1717 L
3171 1717 L
3203 1722 L
3237 1728 L
3270 1735 L
3296 1744 L
3312 1749 L
3337 1753 L
3370 1764 L
3403 1777 L
3437 1791 L
3454 1808 L
3471 1809 L
3503 1828 L
3537 1850 L
3570 1876 L
3596 1906 L
3612 1924 L
3637 1940 L
3670 1979 L
3703 2022 L
3737 2072 L
3754 2128 L
3771 2132 L
3803 2191 L
3837 2260 L
3870 2337 L
3896 2421 L
3912 2472 L
3937 2513 L
3970 2612 L
4003 2717 L
4037 2827 L
4070 2941 L
LWMC SL dash06 C06 COSGR

GSN 753 753 M
770 753 L
803 764 L
837 776 L
870 789 L
895 802 L
911 808 L
937 814 L
970 827 L
1003 839 L
1037 850 L
1053 859 L
1070 859 L
1103 867 L
1137 873 L
1170 878 L
1195 881 L
1211 883 L
1237 883 L
1270 885 L
1303 885 L
1337 885 L
1353 886 L
1370 886 L
1403 886 L
1437 886 L
1470 886 L
1495 886 L
1512 886 L
1537 886 L
1570 886 L
1603 886 L
1637 886 L
1653 886 L
1670 886 L
1703 886 L
1737 886 L
1770 886 L
1795 886 L
1812 886 L
1837 886 L
1870 886 L
1903 886 L
1937 886 L
1953 886 L
1971 886 L
2003 886 L
2037 886 L
2070 886 L
2095 886 L
2112 886 L
2137 886 L
2170 886 L
2203 886 L
2237 886 L
2253 886 L
2271 886 L
2303 887 L
2337 887 L
2370 887 L
2395 887 L
2412 887 L
2437 887 L
2470 888 L
2503 888 L
2537 888 L
2553 889 L
2571 889 L
2603 889 L
2637 890 L
2670 891 L
2695 892 L
2712 892 L
2737 893 L
2770 894 L
2803 895 L
2837 897 L
2854 899 L
2871 899 L
2903 901 L
2937 904 L
2970 907 L
2995 910 L
3012 912 L
3037 914 L
3061 919 L
3077 921 L
3103 924 L
3137 931 L
3154 938 L
3171 938 L
3203 947 L
3237 957 L
3270 968 L
3296 982 L
3312 990 L
3337 997 L
3370 1015 L
3403 1036 L
3437 1061 L
3454 1088 L
3471 1090 L
3503 1120 L
3537 1157 L
3570 1200 L
3596 1248 L
3612 1278 L
3637 1303 L
3670 1365 L
3703 1436 L
3737 1515 L
3754 1604 L
3771 1610 L
3803 1702 L
3837 1811 L
3870 1930 L
3896 2058 L
3912 2135 L
3937 2196 L
3970 2343 L
4003 2497 L
4037 2655 L
4070 2816 L
LWMC SL dash07 C07 COSGR

%
%================
% Legend - Begin
%================
%
GSN 4240 4040 M
4480 4040 L
LWMC SL dash01 C01 COSGR
GSN 4540 4001 M helvM (0.5 uM) show grestore
GSN 4240 3860 M
4480 3860 L
LWMC SL dash02 C02 COSGR
GSN 4540 3821 M helvM (1.0 uM) show grestore
GSN 4240 3680 M
4480 3680 L
LWMC SL dash03 C03 COSGR
GSN 4540 3641 M helvM (1.5 uM) show grestore
GSN 4240 3500 M
4480 3500 L
LWMC SL dash04 C04 COSGR
GSN 4540 3461 M helvM (2.0 uM) show grestore
GSN 4240 3320 M
4480 3320 L
LWMC SL dash05 C05 COSGR
GSN 4540 3281 M helvM (2.5 uM) show grestore
GSN 4240 3140 M
4480 3140 L
LWMC SL dash06 C06 COSGR
GSN 4540 3101 M helvM (3.0 uM) show grestore
GSN 4240 2960 M
4480 2960 L
LWMC SL dash07 C07 COSGR
GSN 4540 2921 M helvM (4.0 uM) show grestore
%
%================
% Legend - End
%================
%

%
% Main frame
%
L10
GSN 
620 620 M
4220 620 L
4220 4220 L
620 4220 L
closepath SGR

%
% X axis: large tics
%
L10
GSN 1074 620 M 0  54 rL SGR
GSN 1074 4220 M 0 -54 rL SGR
helvS (0.0001) 1074 470 xlabel
GSN 1572 620 M 0  54 rL SGR
GSN 1572 4220 M 0 -54 rL SGR
helvS (0.001) 1572 470 xlabel
GSN 2071 620 M 0  54 rL SGR
GSN 2071 4220 M 0 -54 rL SGR
helvS (0.01) 2071 470 xlabel
GSN 2570 620 M 0  54 rL SGR
GSN 2570 4220 M 0 -54 rL SGR
helvS (0.1) 2570 470 xlabel
GSN 3068 620 M 0  54 rL SGR
GSN 3068 4220 M 0 -54 rL SGR
helvS (1) 3068 470 xlabel
GSN 3567 620 M 0  54 rL SGR
GSN 3567 4220 M 0 -54 rL SGR
helvS (10) 3567 470 xlabel
GSN 4066 620 M 0  54 rL SGR
GSN 4066 4220 M 0 -54 rL SGR
helvS (100) 4066 470 xlabel
%
% X axis: small tics
%
L5
GSN 725 620 M 0  36 rL SGR
GSN 725 4220 M 0 -36 rL SGR
GSN 813 620 M 0  36 rL SGR
GSN 813 4220 M 0 -36 rL SGR
GSN 875 620 M 0  36 rL SGR
GSN 875 4220 M 0 -36 rL SGR
GSN 924 620 M 0  36 rL SGR
GSN 924 4220 M 0 -36 rL SGR
GSN 963 620 M 0  36 rL SGR
GSN 963 4220 M 0 -36 rL SGR
GSN 996 620 M 0  36 rL SGR
GSN 996 4220 M 0 -36 rL SGR
GSN 1025 620 M 0  36 rL SGR
GSN 1025 4220 M 0 -36 rL SGR
GSN 1051 620 M 0  36 rL SGR
GSN 1051 4220 M 0 -36 rL SGR
GSN 1224 620 M 0  36 rL SGR
GSN 1224 4220 M 0 -36 rL SGR
GSN 1312 620 M 0  36 rL SGR
GSN 1312 4220 M 0 -36 rL SGR
GSN 1374 620 M 0  36 rL SGR
GSN 1374 4220 M 0 -36 rL SGR
GSN 1422 620 M 0  36 rL SGR
GSN 1422 4220 M 0 -36 rL SGR
GSN 1462 620 M 0  36 rL SGR
GSN 1462 4220 M 0 -36 rL SGR
GSN 1495 620 M 0  36 rL SGR
GSN 1495 4220 M 0 -36 rL SGR
GSN 1524 620 M 0  36 rL SGR
GSN 1524 4220 M 0 -36 rL SGR
GSN 1550 620 M 0  36 rL SGR
GSN 1550 4220 M 0 -36 rL SGR
GSN 1722 620 M 0  36 rL SGR
GSN 1722 4220 M 0 -36 rL SGR
GSN 1810 620 M 0  36 rL SGR
GSN 1810 4220 M 0 -36 rL SGR
GSN 1873 620 M 0  36 rL SGR
GSN 1873 4220 M 0 -36 rL SGR
GSN 1921 620 M 0  36 rL SGR
GSN 1921 4220 M 0 -36 rL SGR
GSN 1960 620 M 0  36 rL SGR
GSN 1960 4220 M 0 -36 rL SGR
GSN 1994 620 M 0  36 rL SGR
GSN 1994 4220 M 0 -36 rL SGR
GSN 2023 620 M 0  36 rL SGR
GSN 2023 4220 M 0 -36 rL SGR
GSN 2048 620 M 0  36 rL SGR
GSN 2048 4220 M 0 -36 rL SGR
GSN 2221 620 M 0  36 rL SGR
GSN 2221 4220 M 0 -36 rL SGR
GSN 2309 620 M 0  36 rL SGR
GSN 2309 4220 M 0 -36 rL SGR
GSN 2371 620 M 0  36 rL SGR
GSN 2371 4220 M 0 -36 rL SGR
GSN 2420 620 M 0  36 rL SGR
GSN 2420 4220 M 0 -36 rL SGR
GSN 2459 620 M 0  36 rL SGR
GSN 2459 4220 M 0 -36 rL SGR
GSN 2492 620 M 0  36 rL SGR
GSN 2492 4220 M 0 -36 rL SGR
GSN 2521 620 M 0  36 rL SGR
GSN 2521 4220 M 0 -36 rL SGR
GSN 2547 620 M 0  36 rL SGR
GSN 2547 4220 M 0 -36 rL SGR
GSN 2720 620 M 0  36 rL SGR
GSN 2720 4220 M 0 -36 rL SGR
GSN 2808 620 M 0  36 rL SGR
GSN 2808 4220 M 0 -36 rL SGR
GSN 2870 620 M 0  36 rL SGR
GSN 2870 4220 M 0 -36 rL SGR
GSN 2918 620 M 0  36 rL SGR
GSN 2918 4220 M 0 -36 rL SGR
GSN 2958 620 M 0  36 rL SGR
GSN 2958 4220 M 0 -36 rL SGR
GSN 2991 620 M 0  36 rL SGR
GSN 2991 4220 M 0 -36 rL SGR
GSN 3020 620 M 0  36 rL SGR
GSN 3020 4220 M 0 -36 rL SGR
GSN 3045 620 M 0  36 rL SGR
GSN 3045 4220 M 0 -36 rL SGR
GSN 3218 620 M 0  36 rL SGR
GSN 3218 4220 M 0 -36 rL SGR
GSN 3306 620 M 0  36 rL SGR
GSN 3306 4220 M 0 -36 rL SGR
GSN 3368 620 M 0  36 rL SGR
GSN 3368 4220 M 0 -36 rL SGR
GSN 3417 620 M 0  36 rL SGR
GSN 3417 4220 M 0 -36 rL SGR
GSN 3456 620 M 0  36 rL SGR
GSN 3456 4220 M 0 -36 rL SGR
GSN 3490 620 M 0  36 rL SGR
GSN 3490 4220 M 0 -36 rL SGR
GSN 3519 620 M 0  36 rL SGR
GSN 3519 4220 M 0 -36 rL SGR
GSN 3544 620 M 0  36 rL SGR
GSN 3544 4220 M 0 -36 rL SGR
GSN 3717 620 M 0  36 rL SGR
GSN 3717 4220 M 0 -36 rL SGR
GSN 3805 620 M 0  36 rL SGR
GSN 3805 4220 M 0 -36 rL SGR
GSN 3867 620 M 0  36 rL SGR
GSN 3867 4220 M 0 -36 rL SGR
GSN 3915 620 M 0  36 rL SGR
GSN 3915 4220 M 0 -36 rL SGR
GSN 3955 620 M 0  36 rL SGR
GSN 3955 4220 M 0 -36 rL SGR
GSN 3988 620 M 0  36 rL SGR
GSN 3988 4220 M 0 -36 rL SGR
GSN 4017 620 M 0  36 rL SGR
GSN 4017 4220 M 0 -36 rL SGR
GSN 4043 620 M 0  36 rL SGR
GSN 4043 4220 M 0 -36 rL SGR
GSN 4216 620 M 0  36 rL SGR
GSN 4216 4220 M 0 -36 rL SGR
%
% Y axis: large tics
%
L10
GSN 620 653 M 54 0 rL SGR
GSN 4220 653 M -54 0 rL SGR
helvS (-0.0001) 560 653 ylabel
GSN 620 2370 M 54 0 rL SGR
GSN 4220 2370 M -54 0 rL SGR
helvS (-5e-005) 560 2370 ylabel
GSN 620 4086 M 54 0 rL SGR
GSN 4220 4086 M -54 0 rL SGR
helvS (0) 560 4086 ylabel
%
% Y axis: small tics
%
L5
GSN 620 653 M 36 0 rL SGR
GSN 4220 653 M -36 0 rL SGR
GSN 620 996 M 36 0 rL SGR
GSN 4220 996 M -36 0 rL SGR
GSN 620 1340 M 36 0 rL SGR
GSN 4220 1340 M -36 0 rL SGR
GSN 620 1683 M 36 0 rL SGR
GSN 4220 1683 M -36 0 rL SGR
GSN 620 2026 M 36 0 rL SGR
GSN 4220 2026 M -36 0 rL SGR
GSN 620 2370 M 36 0 rL SGR
GSN 4220 2370 M -36 0 rL SGR
GSN 620 2713 M 36 0 rL SGR
GSN 4220 2713 M -36 0 rL SGR
GSN 620 3056 M 36 0 rL SGR
GSN 4220 3056 M -36 0 rL SGR
GSN 620 3400 M 36 0 rL SGR
GSN 4220 3400 M -36 0 rL SGR
GSN 620 3743 M 36 0 rL SGR
GSN 4220 3743 M -36 0 rL SGR
GSN 620 4086 M 36 0 rL SGR
GSN 4220 4086 M -36 0 rL SGR

%
% X axis
%
GSN L5 620 4086 M 4220 4086 L SDA G50 SGR

%
% X-Axis label:
%
gsave 2420 290 M 
[
[(Helvetica) 180 0 true true 0 (t)]
[(Helvetica) 180 0 true true 0 (i)]
[(Helvetica) 180 0 true true 0 (m)]
[(Helvetica) 180 0 true true 0 (e)]
] 0 MCshow grestore

%
% Y-Axis label:
%
gsave 234 2420 M 
currentpoint gsave translate 90 rotate 0 0 moveto
[
[(Helvetica) 180 0 true true 0 (d)]
[(Helvetica) 180 0 true true 0 (\()]
[(Helvetica) 180 0 true true 0 (s)]
[(Helvetica) 180 0 true true 0 (i)]
[(Helvetica) 180 0 true true 0 (g)]
[(Helvetica) 180 0 true true 0 (n)]
[(Helvetica) 180 0 true true 0 (a)]
[(Helvetica) 180 0 true true 0 (l)]
[(Helvetica) 180 0 true true 0 (\))]
[(Helvetica) 180 0 true true 0 ( )]
[(Helvetica) 180 0 true true 0 (/)]
[(Helvetica) 180 0 true true 0 ( )]
[(Helvetica) 180 0 true true 0 (d)]
[(Helvetica) 180 0 true true 0 (t)]
] 0 MCshow grestore

end
showpage
%%Trailer
%%EOF
