%!PS-Adobe-3.0 EPSF-3.0
%%BoundingBox: 0 0 514 550
%%Creator: BioKin Ltd.
%%DocumentFonts: Symbol Helvetica
%%EndComments
%
/bkdict 256 dict def
bkdict begin
/M {moveto} def 
/R {rmoveto} def
/L {lineto} def
/rL {rlineto} def
/GSN {gsave newpath} def
/SGR {stroke grestore} def
/COSGR {gsave setrgbcolor stroke grestore grestore} def
/SL {setlinewidth} def
/LWMB {12} def             % line width - model curves, black & white
/LWMC {10} def             % line width - model curves, color
/L2 {2.5 setlinewidth} def
/L5 {5 setlinewidth} def
/L10 {10 setlinewidth} def
/G50 {0.5 setgray} def
/SDA {[10  20] 0 setdash} def % axes
/helvT {/Helvetica findfont 100 scalefont setfont} def % tiny
/helvS {/Helvetica findfont 125 scalefont setfont} def % small
/helvM {/Helvetica findfont 150 scalefont setfont} def % medium
/helvL {/Helvetica findfont 175 scalefont setfont} def % large
/xlabel {gsave M dup
   stringwidth exch -0.5 mul exch rmoveto show grestore} def 
/ylabel {gsave M 90 rotate dup
   stringwidth exch -0.5 mul exch rmoveto show grestore} def
/ylabelresid {gsave M dup
   stringwidth exch -1 mul exch rmoveto show grestore} def
% ======
% Shapes
% ======
% Circle:
/Circ {0 360 arc closepath} def
%
% Square:
/Squa {dup dup -0.5 mul dup dup R -2 mul 0 exch rL 1 mul 0 rL dup 0 exch -1 mul rL closepath} def
%
% Triangle Up:
/TriU {dup dup dup -0.4 mul exch -0.5 mul exch R dup 0.5 mul exch rL dup -1 mul exch 0.5 mul exch rL closepath} def 
%
% Triangle Down:
/TriD {dup dup dup 0.4 mul exch -0.5 mul exch R dup 0.5 mul exch -1 mul rL dup 0.5 mul exch rL closepath} def 
%
% Diamond:
/Diam {45 rotate Squa} def
% ======
% Fills
% ======
/GRF {gsave setgray fill grestore} def                    % gray-level Fill
/COF {gsave setrgbcolor fill grestore} def                % color fill
% ======
% Colors
% ======
/C01 {1.00	0.00	0.00} def      % Red
/C02 {0.00	0.00	1.00} def      % Blue
/C03 {0.00	0.39	0.00} def      % Dark Green
/C04 {0.78	0.08	0.52} def      % Medium Violet Red
/C05 {0.55	0.27	0.07} def      % Saddle Brown
/C06 {0.10	0.70	0.70} def      % (cyan)
/C07 {1.00	0.55	0.00} def      % Dark Orange
/C08 {0.63	0.13	0.94} def      % Purple
/C09 {0.00	0.75	1.00} def      % Deep Sky Blue
/C10 {0.20	0.80	0.20} def      % Lime Green
/C11 {0.47	0.53	0.60} def      % Light Slate Gray
/C12 {0.00	0.00	0.00} def      % Black            % or: {0.19	0.31	0.31} def      % Dark Slate Gray
%
/LGR {0.75} def % light gray
/DGR {0.33} def % dark gray
%
% =============
% Dash patterns
% =============
/dash01 { [80  20] 0 setdash } def
/dash02 { [40  20] 0 setdash } def
/dash03 { [80  20  10  20] 0 setdash } def
/dash04 { [40  20  10  20] 0 setdash } def
/dash05 { [80  20  10  10  10  20] 0 setdash } def
/dash06 { [40  20  10  10  10  20] 0 setdash } def
/dash07 { [10  10] 0 setdash } def
%
/MFshow {
   { dup 5 get 3 ge
     { 5 get 3 eq {gsave} {grestore} ifelse }
     {dup dup 0 get findfont exch 1 get scalefont setfont
     [ currentpoint ] exch dup 2 get 0 exch R dup 5 get 2 ne {dup dup 6
     get exch 4 get {show} {stringwidth pop 0 R} ifelse }if dup 5 get 0 eq
     {dup 3 get {2 get neg 0 exch R pop} {pop aload pop M} ifelse} {dup 5
     get 1 eq {dup 2 get exch dup 3 get exch 6 get stringwidth pop -2 div
     dup 0 R} {dup 6 get stringwidth pop -2 div 0 R 6 get
     show 2 index {aload pop M neg 3 -1 roll neg R pop pop} {pop pop pop
     pop aload pop M} ifelse }ifelse }ifelse }
     ifelse }
   forall} bind def
/MFwidth {0 exch {dup 3 get{dup dup 0 get findfont exch 1 get scalefont
     setfont 6 get stringwidth pop add} {pop} ifelse} forall} bind def
/MCshow { currentpoint stroke M
  exch dup MFwidth -2 div 3 -1 roll R MFshow } def
%
end
%%EndProlog
bkdict begin
0.1 0.1 scale
%
% Residuals:
%
GSN 620 3281 M
620 2660 L
620 3836 L
620 3326 L
620 4149 L
620 3613 L
620 3828 L
620 3838 L
620 3500 L
620 3223 L
620 3686 L
620 3508 L
620 4103 L
620 3472 L
620 3702 L
620 3655 L
620 3716 L
620 3551 L
620 3406 L
620 3469 L
620 3105 L
620 3242 L
620 3734 L
620 3385 L
620 3190 L
620 3892 L
620 3550 L
620 3641 L
620 3502 L
620 3756 L
620 3570 L
620 3061 L
620 3727 L
620 3079 L
620 3923 L
620 3939 L
620 3115 L
620 3974 L
620 2769 L
620 4070 L
620 3586 L
620 3917 L
620 3290 L
620 3896 L
620 3824 L
620 3422 L
620 3382 L
620 3514 L
620 3883 L
620 3654 L
620 3572 L
620 3923 L
620 3535 L
620 3514 L
620 3575 L
620 3654 L
620 3410 L
620 3905 L
620 3740 L
620 3349 L
620 3321 L
620 4128 L
620 3172 L
620 3987 L
620 3243 L
620 3828 L
620 2966 L
620 3492 L
620 2926 L
620 3526 L
620 3604 L
620 3263 L
620 3223 L
620 3758 L
620 2920 L
620 2887 L
620 3803 L
620 2996 L
620 3021 L
620 3363 L
620 3911 L
620 2933 L
620 2944 L
620 3387 L
620 3403 L
620 3337 L
620 3606 L
620 3483 L
620 3028 L
620 2920 L
620 2769 L
620 3094 L
620 3239 L
620 3372 L
620 2567 L
620 2846 L
620 3495 L
620 3277 L
620 2602 L
620 3705 L
620 3532 L
620 3295 L
620 3357 L
620 3191 L
620 3330 L
620 2919 L
620 2457 L
620 2917 L
620 2745 L
620 3329 L
620 3325 L
620 3417 L
620 3245 L
620 2842 L
620 2839 L
620 3432 L
620 2588 L
620 3200 L
620 2316 L
620 3369 L
620 2638 L
620 2717 L
620 2925 L
620 3549 L
620 3033 L
620 3723 L
620 3619 L
620 2494 L
620 3149 L
620 2558 L
620 3249 L
620 3037 L
620 2771 L
620 2136 L
620 3348 L
620 2741 L
620 2907 L
620 3361 L
620 3597 L
620 3022 L
620 3049 L
620 2561 L
620 2662 L
620 2595 L
620 3026 L
620 3134 L
620 3392 L
620 2931 L
620 3457 L
620 3112 L
620 2989 L
620 2991 L
620 2809 L
620 2568 L
620 2824 L
620 2913 L
620 2796 L
620 2688 L
620 3023 L
620 2943 L
620 3085 L
620 3440 L
620 3556 L
620 3635 L
620 3036 L
620 3478 L
620 3991 L
620 3162 L
620 3281 L
620 3105 L
620 3775 L
620 2971 L
620 3073 L
620 3472 L
620 3511 L
620 3333 L
620 2912 L
620 3532 L
620 3592 L
620 3242 L
620 3046 L
620 3544 L
620 3491 L
620 3387 L
620 2811 L
620 3542 L
620 3180 L
620 3351 L
620 2983 L
620 4262 L
620 3732 L
620 2959 L
620 4061 L
620 3013 L
620 3556 L
620 4002 L
620 3576 L
620 3722 L
620 3784 L
620 3988 L
620 3736 L
620 4003 L
620 2778 L
620 3141 L
620 3654 L
620 3419 L
620 3456 L
620 3321 L
620 3563 L
620 3345 L
620 3469 L
620 3551 L
620 3955 L
620 3766 L
620 3606 L
620 3864 L
620 3357 L
620 3548 L
620 3250 L
620 3467 L
620 3419 L
620 3981 L
620 3650 L
620 3452 L
620 3463 L
620 3880 L
620 4380 L
620 3580 L
620 3929 L
620 3117 L
620 3517 L
620 3586 L
620 3631 L
620 3491 L
620 3874 L
620 4019 L
620 3687 L
620 4132 L
620 3404 L
620 2855 L
620 3935 L
620 3256 L
620 4149 L
620 4206 L
620 3774 L
620 2761 L
620 3720 L
620 4240 L
620 3821 L
620 3356 L
620 3889 L
620 4008 L
620 4282 L
620 3666 L
620 3686 L
620 3880 L
620 4025 L
620 3801 L
620 3900 L
620 3810 L
620 3876 L
620 3473 L
620 3684 L
620 4084 L
620 3814 L
620 3575 L
620 3815 L
620 3701 L
620 3649 L
620 3530 L
620 2985 L
620 3339 L
620 3842 L
620 4146 L
620 3785 L
620 3896 L
620 4120 L
620 3567 L
620 4004 L
620 3789 L
620 3567 L
620 4113 L
620 3918 L
620 4787 L
620 4128 L
620 3787 L
620 3739 L
620 3488 L
620 4104 L
620 3746 L
620 4287 L
620 3905 L
620 4460 L
620 4413 L
620 4313 L
620 4730 L
620 4362 L
620 4222 L
620 4350 L
620 4674 L
620 4568 L
620 4067 L
620 4658 L
620 4213 L
620 4163 L
620 4737 L
620 3651 L
620 4454 L
620 4153 L
620 4488 L
620 4667 L
620 3797 L
620 3904 L
620 4572 L
620 4723 L
620 4534 L
620 3993 L
620 3436 L
620 4434 L
620 3832 L
620 3715 L
620 4200 L
620 4618 L
620 3693 L
620 3972 L
620 4289 L
620 4005 L
620 4368 L
620 4401 L
620 4863 L
620 4468 L
620 4774 L
620 3872 L
620 4468 L
620 4217 L
620 4752 L
620 3844 L
620 3560 L
620 3465 L
620 4579 L
620 4022 L
620 4674 L
620 4189 L
620 4184 L
620 4251 L
620 4301 L
620 4273 L
620 3766 L
620 3955 L
620 4295 L
620 4312 L
620 3905 L
620 3610 L
620 3933 L
620 3972 L
620 3705 L
620 3710 L
620 3744 L
620 3838 L
620 4273 L
620 4296 L
620 3771 L
620 4067 L
620 3360 L
620 3710 L
620 3655 L
620 4078 L
620 4340 L
620 3320 L
620 4062 L
620 3410 L
620 3409 L
620 3510 L
620 3655 L
620 3499 L
620 3460 L
620 3783 L
620 3582 L
620 3989 L
620 3409 L
620 3415 L
620 4089 L
620 3242 L
620 4033 L
620 3532 L
620 3905 L
620 3683 L
620 3955 L
620 3348 L
620 3693 L
620 3471 L
620 3370 L
620 3565 L
620 3632 L
620 3978 L
620 2775 L
620 4028 L
620 3426 L
620 3304 L
620 3900 L
620 3215 L
620 3460 L
620 3370 L
620 3343 L
620 3348 L
620 3125 L
620 3972 L
620 3097 L
620 3236 L
620 3326 L
620 3070 L
620 2970 L
620 3443 L
620 3789 L
620 3437 L
620 3554 L
620 3694 L
620 4150 L
620 3599 L
620 3872 L
620 4234 L
620 3849 L
620 3348 L
620 3465 L
620 4083 L
620 3499 L
620 3476 L
620 2730 L
620 4006 L
620 2964 L
620 3376 L
620 3627 L
620 3426 L
620 3103 L
620 3365 L
620 3794 L
620 3694 L
620 3928 L
620 4178 L
620 3337 L
620 4334 L
620 3454 L
620 3554 L
620 3136 L
620 3560 L
620 3198 L
620 3749 L
620 3265 L
620 3616 L
620 3359 L
620 3543 L
620 3604 L
620 3192 L
620 3872 L
620 3075 L
620 3794 L
620 3576 L
620 3844 L
620 3331 L
620 2919 L
620 3103 L
620 3064 L
620 3415 L
620 3638 L
620 3415 L
620 3231 L
620 4023 L
620 3108 L
620 4100 L
620 3950 L
620 2546 L
620 3070 L
620 3348 L
620 4056 L
620 3142 L
620 3694 L
620 3643 L
620 3019 L
620 2719 L
620 3259 L
620 3431 L
620 3599 L
620 3644 L
620 3337 L
620 3404 L
620 3760 L
620 3103 L
620 3103 L
620 3699 L
620 3616 L
620 3376 L
620 3103 L
620 3354 L
620 3911 L
620 2941 L
620 2652 L
620 2775 L
620 3643 L
620 3420 L
620 3086 L
620 3939 L
620 3599 L
620 3153 L
620 2969 L
620 3070 L
620 3231 L
620 3331 L
620 3120 L
620 2897 L
620 3744 L
620 3114 L
620 3287 L
620 4000 L
620 3231 L
620 2669 L
620 3515 L
620 2818 L
620 3722 L
620 3566 L
620 3376 L
620 3053 L
620 3877 L
620 2941 L
620 3465 L
620 3248 L
620 3894 L
620 3476 L
620 3281 L
620 3460 L
620 3543 L
620 3811 L
620 3365 L
620 3482 L
L2 C02 COSGR

%
%================
% Legend - Begin
%================
%
GSN 4240 5180 M
4480 5180 L
LWMC SL  C02 COSGR
GSN 4540 5141 M helvM (1.0 uM) show grestore
%
%================
% Legend - End
%================
%

%
% Main frame
%
L10
GSN 
620 1700 M
4220 1700 L
4220 5300 L
620 5300 L
closepath SGR

%
% X axis: large tics
%
L10
%
% X axis: small tics
%
L5
%
% Y axis: large tics
%
L10
GSN 620 2458 M 54 0 rL SGR
GSN 4220 2458 M -54 0 rL SGR
helvS (-0.01) 560 2458 ylabel
GSN 620 3553 M 54 0 rL SGR
GSN 4220 3553 M -54 0 rL SGR
helvS (0) 560 3553 ylabel
GSN 620 4648 M 54 0 rL SGR
GSN 4220 4648 M -54 0 rL SGR
helvS (0.01) 560 4648 ylabel
%
% Y axis: small tics
%
L5
GSN 620 1910 M 36 0 rL SGR
GSN 4220 1910 M -36 0 rL SGR
GSN 620 2184 M 36 0 rL SGR
GSN 4220 2184 M -36 0 rL SGR
GSN 620 2458 M 36 0 rL SGR
GSN 4220 2458 M -36 0 rL SGR
GSN 620 2732 M 36 0 rL SGR
GSN 4220 2732 M -36 0 rL SGR
GSN 620 3005 M 36 0 rL SGR
GSN 4220 3005 M -36 0 rL SGR
GSN 620 3279 M 36 0 rL SGR
GSN 4220 3279 M -36 0 rL SGR
GSN 620 3553 M 36 0 rL SGR
GSN 4220 3553 M -36 0 rL SGR
GSN 620 3827 M 36 0 rL SGR
GSN 4220 3827 M -36 0 rL SGR
GSN 620 4101 M 36 0 rL SGR
GSN 4220 4101 M -36 0 rL SGR
GSN 620 4375 M 36 0 rL SGR
GSN 4220 4375 M -36 0 rL SGR
GSN 620 4648 M 36 0 rL SGR
GSN 4220 4648 M -36 0 rL SGR
GSN 620 4922 M 36 0 rL SGR
GSN 4220 4922 M -36 0 rL SGR
GSN 620 5196 M 36 0 rL SGR
GSN 4220 5196 M -36 0 rL SGR

%
% X axis - residual panel
%
GSN L5 620 3553 M 4220 3553 L SDA G50 SGR

%
% X-Axis label:
%
gsave 620 1370 M 
[
[(Helvetica) 180 0 true true 0 (t)]
[(Helvetica) 180 0 true true 0 (i)]
[(Helvetica) 180 0 true true 0 (m)]
[(Helvetica) 180 0 true true 0 (e)]
] 0 MCshow grestore

%
% Y-Axis label:
%
gsave 234 3500 M 
currentpoint gsave translate 90 rotate 0 0 moveto
[
[(Helvetica) 180 0 true true 0 (r)]
[(Helvetica) 180 0 true true 0 (e)]
[(Helvetica) 180 0 true true 0 (s)]
[(Helvetica) 180 0 true true 0 (i)]
[(Helvetica) 180 0 true true 0 (d)]
[(Helvetica) 180 0 true true 0 (u)]
[(Helvetica) 180 0 true true 0 (a)]
[(Helvetica) 180 0 true true 0 (l)]
[(Helvetica) 180 0 true true 0 (s)]
] 0 MCshow grestore

end
showpage
%%Trailer
%%EOF
