%!PS-Adobe-3.0 EPSF-3.0
%%BoundingBox: 0 0 514 550
%%Creator: BioKin Ltd.
%%DocumentFonts: Symbol Helvetica
%%EndComments
%
/bkdict 256 dict def
bkdict begin
/M {moveto} def 
/R {rmoveto} def
/L {lineto} def
/rL {rlineto} def
/GSN {gsave newpath} def
/SGR {stroke grestore} def
/COSGR {gsave setrgbcolor stroke grestore grestore} def
/SL {setlinewidth} def
/LWMB {12} def             % line width - model curves, black & white
/LWMC {10} def             % line width - model curves, color
/L2 {2.5 setlinewidth} def
/L5 {5 setlinewidth} def
/L10 {10 setlinewidth} def
/G50 {0.5 setgray} def
/SDA {[10  20] 0 setdash} def % axes
/helvT {/Helvetica findfont 100 scalefont setfont} def % tiny
/helvS {/Helvetica findfont 125 scalefont setfont} def % small
/helvM {/Helvetica findfont 150 scalefont setfont} def % medium
/helvL {/Helvetica findfont 175 scalefont setfont} def % large
/xlabel {gsave M dup
   stringwidth exch -0.5 mul exch rmoveto show grestore} def 
/ylabel {gsave M 90 rotate dup
   stringwidth exch -0.5 mul exch rmoveto show grestore} def
/ylabelresid {gsave M dup
   stringwidth exch -1 mul exch rmoveto show grestore} def
% ======
% Shapes
% ======
% Circle:
/Circ {0 360 arc closepath} def
%
% Square:
/Squa {dup dup -0.5 mul dup dup R -2 mul 0 exch rL 1 mul 0 rL dup 0 exch -1 mul rL closepath} def
%
% Triangle Up:
/TriU {dup dup dup -0.4 mul exch -0.5 mul exch R dup 0.5 mul exch rL dup -1 mul exch 0.5 mul exch rL closepath} def 
%
% Triangle Down:
/TriD {dup dup dup 0.4 mul exch -0.5 mul exch R dup 0.5 mul exch -1 mul rL dup 0.5 mul exch rL closepath} def 
%
% Diamond:
/Diam {45 rotate Squa} def
% ======
% Fills
% ======
/GRF {gsave setgray fill grestore} def                    % gray-level Fill
/COF {gsave setrgbcolor fill grestore} def                % color fill
% ======
% Colors
% ======
/C01 {1.00	0.00	0.00} def      % Red
/C02 {0.00	0.00	1.00} def      % Blue
/C03 {0.00	0.39	0.00} def      % Dark Green
/C04 {0.78	0.08	0.52} def      % Medium Violet Red
/C05 {0.55	0.27	0.07} def      % Saddle Brown
/C06 {0.10	0.70	0.70} def      % (cyan)
/C07 {1.00	0.55	0.00} def      % Dark Orange
/C08 {0.63	0.13	0.94} def      % Purple
/C09 {0.00	0.75	1.00} def      % Deep Sky Blue
/C10 {0.20	0.80	0.20} def      % Lime Green
/C11 {0.47	0.53	0.60} def      % Light Slate Gray
/C12 {0.00	0.00	0.00} def      % Black            % or: {0.19	0.31	0.31} def      % Dark Slate Gray
%
/LGR {0.75} def % light gray
/DGR {0.33} def % dark gray
%
% =============
% Dash patterns
% =============
/dash01 { [80  20] 0 setdash } def
/dash02 { [40  20] 0 setdash } def
/dash03 { [80  20  10  20] 0 setdash } def
/dash04 { [40  20  10  20] 0 setdash } def
/dash05 { [80  20  10  10  10  20] 0 setdash } def
/dash06 { [40  20  10  10  10  20] 0 setdash } def
/dash07 { [10  10] 0 setdash } def
%
/MFshow {
   { dup 5 get 3 ge
     { 5 get 3 eq {gsave} {grestore} ifelse }
     {dup dup 0 get findfont exch 1 get scalefont setfont
     [ currentpoint ] exch dup 2 get 0 exch R dup 5 get 2 ne {dup dup 6
     get exch 4 get {show} {stringwidth pop 0 R} ifelse }if dup 5 get 0 eq
     {dup 3 get {2 get neg 0 exch R pop} {pop aload pop M} ifelse} {dup 5
     get 1 eq {dup 2 get exch dup 3 get exch 6 get stringwidth pop -2 div
     dup 0 R} {dup 6 get stringwidth pop -2 div 0 R 6 get
     show 2 index {aload pop M neg 3 -1 roll neg R pop pop} {pop pop pop
     pop aload pop M} ifelse }ifelse }ifelse }
     ifelse }
   forall} bind def
/MFwidth {0 exch {dup 3 get{dup dup 0 get findfont exch 1 get scalefont
     setfont 6 get stringwidth pop add} {pop} ifelse} forall} bind def
/MCshow { currentpoint stroke M
  exch dup MFwidth -2 div 3 -1 roll R MFshow } def
%
end
%%EndProlog
bkdict begin
0.1 0.1 scale
%
% Residuals:
%
GSN 620 4645 M
620 4505 L
620 4567 L
620 4863 L
620 4810 L
620 4630 L
620 4577 L
620 4472 L
620 4449 L
620 4425 L
620 4342 L
620 4455 L
620 4251 L
620 4357 L
620 4339 L
620 4217 L
620 4172 L
620 4190 L
620 4100 L
620 4162 L
620 4080 L
620 4063 L
620 4112 L
620 4136 L
620 3888 L
620 4003 L
620 4162 L
620 3965 L
620 3979 L
620 3930 L
620 3880 L
620 3866 L
620 3747 L
620 3925 L
620 3854 L
620 3810 L
620 3686 L
620 3852 L
620 3820 L
620 3658 L
620 3672 L
620 3667 L
620 3685 L
620 3522 L
620 3470 L
620 3693 L
620 3546 L
620 3445 L
620 3474 L
620 3578 L
620 3305 L
620 3345 L
620 3458 L
620 3498 L
620 3344 L
620 3477 L
620 3461 L
620 3398 L
620 3253 L
620 3443 L
620 3533 L
620 3415 L
620 3207 L
620 3110 L
620 3299 L
620 3215 L
620 3202 L
620 3236 L
620 3272 L
620 3074 L
620 3396 L
620 3185 L
620 3144 L
620 3123 L
620 3230 L
620 3004 L
620 3327 L
620 3208 L
620 3274 L
620 3057 L
620 3131 L
620 3039 L
620 3008 L
620 2925 L
620 2867 L
620 2850 L
620 2855 L
620 2957 L
620 2724 L
620 2735 L
620 2896 L
620 2737 L
620 2750 L
620 2692 L
620 2668 L
620 2697 L
620 2432 L
620 2649 L
620 2580 L
620 2533 L
620 2574 L
620 2528 L
620 2334 L
620 2417 L
620 2626 L
620 2394 L
620 2494 L
620 2609 L
620 2409 L
620 2431 L
620 2293 L
620 2243 L
620 2324 L
620 2283 L
620 2316 L
620 2292 L
620 2344 L
620 2293 L
620 2286 L
620 2383 L
620 2205 L
620 2276 L
620 2297 L
620 2277 L
620 2184 L
620 2242 L
620 2414 L
620 2280 L
620 2315 L
620 2183 L
620 2336 L
620 2319 L
620 2217 L
620 2148 L
620 2542 L
620 2316 L
620 2203 L
620 2136 L
620 2304 L
620 2385 L
620 2209 L
620 2252 L
620 2473 L
620 2308 L
620 2341 L
620 2386 L
620 2282 L
620 2403 L
620 2209 L
620 2272 L
620 2401 L
620 2347 L
620 2377 L
620 2270 L
620 2409 L
620 2518 L
620 2306 L
620 2466 L
620 2268 L
620 2303 L
620 2418 L
620 2240 L
620 2453 L
620 2491 L
620 2385 L
620 2389 L
620 2323 L
620 2465 L
620 2406 L
620 2192 L
620 2330 L
620 2517 L
620 2423 L
620 2291 L
620 2299 L
620 2447 L
620 2479 L
620 2270 L
620 2449 L
620 2312 L
620 2384 L
620 2392 L
620 2237 L
620 2554 L
620 2394 L
620 2407 L
620 2668 L
620 2517 L
620 2556 L
620 2560 L
620 2553 L
620 2413 L
620 2444 L
620 2466 L
620 2200 L
620 2374 L
620 2535 L
620 2547 L
620 2376 L
620 2389 L
620 2553 L
620 2461 L
620 2508 L
620 2610 L
620 2435 L
620 2523 L
620 2457 L
620 2494 L
620 2458 L
620 2591 L
620 2630 L
620 2620 L
620 2476 L
620 2530 L
620 2427 L
620 2630 L
620 2455 L
620 2541 L
620 2666 L
620 2544 L
620 2590 L
620 2617 L
620 2527 L
620 2481 L
620 2537 L
620 2674 L
620 2641 L
620 2589 L
620 2677 L
620 2578 L
620 2459 L
620 2584 L
620 2502 L
620 2624 L
620 2564 L
620 2623 L
620 2643 L
620 2716 L
620 2583 L
620 2615 L
620 2685 L
620 2551 L
620 2682 L
620 2614 L
620 2624 L
620 2499 L
620 2437 L
620 2774 L
620 2737 L
620 2716 L
620 2684 L
620 2551 L
620 2749 L
620 2546 L
620 2691 L
620 2725 L
620 2765 L
620 2807 L
620 2708 L
620 2665 L
620 2672 L
620 2583 L
620 2711 L
620 2704 L
620 2759 L
620 2718 L
620 2804 L
620 2578 L
620 2780 L
620 2586 L
620 2814 L
620 2554 L
620 2606 L
620 2550 L
620 2785 L
620 2596 L
620 2762 L
620 2536 L
620 2732 L
620 2835 L
620 2719 L
620 2902 L
620 2902 L
620 2963 L
620 2837 L
620 2811 L
620 3020 L
620 2989 L
620 2714 L
620 2897 L
620 2930 L
620 2904 L
620 3000 L
620 3096 L
620 2977 L
620 2992 L
620 2999 L
620 3025 L
620 3017 L
620 3053 L
620 3004 L
620 2839 L
620 2860 L
620 2893 L
620 2915 L
620 3111 L
620 2959 L
620 3071 L
620 3004 L
620 3139 L
620 3095 L
620 2999 L
620 3128 L
620 2957 L
620 3142 L
620 2955 L
620 3148 L
620 2978 L
620 3087 L
620 3094 L
620 2952 L
620 2977 L
620 2997 L
620 2982 L
620 3063 L
620 2909 L
620 3132 L
620 2946 L
620 2826 L
620 3027 L
620 2758 L
620 2961 L
620 2913 L
620 2954 L
620 2811 L
620 3170 L
620 2769 L
620 2924 L
620 2966 L
620 3030 L
620 2878 L
620 2946 L
620 2992 L
620 2996 L
620 3017 L
620 2999 L
620 2965 L
620 2925 L
620 2749 L
620 2716 L
620 3011 L
620 2994 L
620 2913 L
620 2815 L
620 2889 L
620 2978 L
620 2957 L
620 2959 L
620 2930 L
620 2978 L
620 2918 L
620 2987 L
620 2853 L
620 2710 L
620 2855 L
620 2879 L
620 2980 L
620 2877 L
620 2853 L
620 2984 L
620 3137 L
620 2822 L
620 2896 L
620 2928 L
620 2954 L
620 2854 L
620 2786 L
620 2750 L
620 2825 L
620 3058 L
620 3000 L
620 2791 L
620 2857 L
620 2825 L
620 2801 L
620 2716 L
620 2944 L
620 2745 L
620 2801 L
620 2930 L
620 3002 L
620 2701 L
620 2860 L
620 2897 L
620 2778 L
620 2731 L
620 2865 L
620 2833 L
620 2668 L
620 2820 L
620 2737 L
620 2912 L
620 2955 L
620 2757 L
620 2676 L
620 2964 L
620 2665 L
620 2772 L
620 2917 L
620 2853 L
620 2788 L
620 2805 L
620 2791 L
620 2813 L
620 2915 L
620 2752 L
620 2712 L
620 2763 L
620 2820 L
620 2888 L
620 2673 L
620 2820 L
620 2738 L
620 2800 L
620 2777 L
620 2806 L
620 2808 L
620 2649 L
620 2988 L
620 2791 L
620 2816 L
620 2818 L
620 2556 L
620 2832 L
620 2718 L
620 2901 L
620 2758 L
620 2846 L
620 2828 L
620 2870 L
620 2832 L
620 2835 L
620 2849 L
620 2717 L
620 2842 L
620 2682 L
620 2738 L
620 2914 L
620 2748 L
620 2849 L
620 2871 L
620 2881 L
620 2731 L
620 2643 L
620 2727 L
620 2639 L
620 2824 L
620 2828 L
620 2753 L
620 2727 L
620 2714 L
620 2702 L
620 2746 L
620 2818 L
620 2779 L
620 2610 L
620 2771 L
620 2809 L
620 2744 L
620 2578 L
620 2676 L
620 2913 L
620 2821 L
620 2787 L
620 2639 L
620 2627 L
620 2700 L
620 2664 L
620 2815 L
620 2655 L
620 2621 L
620 2787 L
620 2762 L
620 2767 L
620 2934 L
620 2658 L
620 2832 L
620 2762 L
620 2596 L
620 2638 L
620 2754 L
620 2799 L
620 2717 L
620 2720 L
620 2791 L
620 2803 L
620 2950 L
620 2871 L
620 2926 L
620 2691 L
620 2724 L
620 2815 L
620 2831 L
620 2725 L
620 2766 L
620 2692 L
620 2862 L
620 2723 L
620 2756 L
620 2888 L
620 2919 L
620 2770 L
620 2819 L
620 2844 L
620 2819 L
620 2661 L
620 2807 L
620 2879 L
620 2710 L
620 2789 L
620 2774 L
620 2809 L
620 2659 L
620 2807 L
620 2830 L
620 2920 L
620 2730 L
620 2831 L
620 2694 L
620 2842 L
620 2769 L
620 2821 L
620 2806 L
L2 C03 COSGR

%
%================
% Legend - Begin
%================
%
GSN 4240 5180 M
4480 5180 L
LWMC SL  C03 COSGR
GSN 4540 5141 M helvM (1.5 uM) show grestore
%
%================
% Legend - End
%================
%

%
% Main frame
%
L10
GSN 
620 1700 M
4220 1700 L
4220 5300 L
620 5300 L
closepath SGR

%
% X axis: large tics
%
L10
%
% X axis: small tics
%
L5
%
% Y axis: large tics
%
L10
GSN 620 2120 M 54 0 rL SGR
GSN 4220 2120 M -54 0 rL SGR
helvS (-0.02) 560 2120 ylabel
GSN 620 2859 M 54 0 rL SGR
GSN 4220 2859 M -54 0 rL SGR
helvS (0) 560 2859 ylabel
GSN 620 3598 M 54 0 rL SGR
GSN 4220 3598 M -54 0 rL SGR
helvS (0.02) 560 3598 ylabel
GSN 620 4337 M 54 0 rL SGR
GSN 4220 4337 M -54 0 rL SGR
helvS (0.04) 560 4337 ylabel
GSN 620 5076 M 54 0 rL SGR
GSN 4220 5076 M -54 0 rL SGR
helvS (0.06) 560 5076 ylabel
%
% Y axis: small tics
%
L5
GSN 620 1751 M 36 0 rL SGR
GSN 4220 1751 M -36 0 rL SGR
GSN 620 1936 M 36 0 rL SGR
GSN 4220 1936 M -36 0 rL SGR
GSN 620 2120 M 36 0 rL SGR
GSN 4220 2120 M -36 0 rL SGR
GSN 620 2305 M 36 0 rL SGR
GSN 4220 2305 M -36 0 rL SGR
GSN 620 2490 M 36 0 rL SGR
GSN 4220 2490 M -36 0 rL SGR
GSN 620 2675 M 36 0 rL SGR
GSN 4220 2675 M -36 0 rL SGR
GSN 620 2859 M 36 0 rL SGR
GSN 4220 2859 M -36 0 rL SGR
GSN 620 3044 M 36 0 rL SGR
GSN 4220 3044 M -36 0 rL SGR
GSN 620 3229 M 36 0 rL SGR
GSN 4220 3229 M -36 0 rL SGR
GSN 620 3413 M 36 0 rL SGR
GSN 4220 3413 M -36 0 rL SGR
GSN 620 3598 M 36 0 rL SGR
GSN 4220 3598 M -36 0 rL SGR
GSN 620 3783 M 36 0 rL SGR
GSN 4220 3783 M -36 0 rL SGR
GSN 620 3967 M 36 0 rL SGR
GSN 4220 3967 M -36 0 rL SGR
GSN 620 4152 M 36 0 rL SGR
GSN 4220 4152 M -36 0 rL SGR
GSN 620 4337 M 36 0 rL SGR
GSN 4220 4337 M -36 0 rL SGR
GSN 620 4522 M 36 0 rL SGR
GSN 4220 4522 M -36 0 rL SGR
GSN 620 4706 M 36 0 rL SGR
GSN 4220 4706 M -36 0 rL SGR
GSN 620 4891 M 36 0 rL SGR
GSN 4220 4891 M -36 0 rL SGR
GSN 620 5076 M 36 0 rL SGR
GSN 4220 5076 M -36 0 rL SGR
GSN 620 5260 M 36 0 rL SGR
GSN 4220 5260 M -36 0 rL SGR

%
% X axis - residual panel
%
GSN L5 620 2859 M 4220 2859 L SDA G50 SGR

%
% X-Axis label:
%
gsave 620 1370 M 
[
[(Helvetica) 180 0 true true 0 (t)]
[(Helvetica) 180 0 true true 0 (i)]
[(Helvetica) 180 0 true true 0 (m)]
[(Helvetica) 180 0 true true 0 (e)]
] 0 MCshow grestore

%
% Y-Axis label:
%
gsave 234 3500 M 
currentpoint gsave translate 90 rotate 0 0 moveto
[
[(Helvetica) 180 0 true true 0 (r)]
[(Helvetica) 180 0 true true 0 (e)]
[(Helvetica) 180 0 true true 0 (s)]
[(Helvetica) 180 0 true true 0 (i)]
[(Helvetica) 180 0 true true 0 (d)]
[(Helvetica) 180 0 true true 0 (u)]
[(Helvetica) 180 0 true true 0 (a)]
[(Helvetica) 180 0 true true 0 (l)]
[(Helvetica) 180 0 true true 0 (s)]
] 0 MCshow grestore

end
showpage
%%Trailer
%%EOF
