%!PS-Adobe-3.0 EPSF-3.0
%%BoundingBox: 0 0 514 550
%%Creator: BioKin Ltd.
%%DocumentFonts: Symbol Helvetica
%%EndComments
%
/bkdict 256 dict def
bkdict begin
/M {moveto} def 
/R {rmoveto} def
/L {lineto} def
/rL {rlineto} def
/GSN {gsave newpath} def
/SGR {stroke grestore} def
/COSGR {gsave setrgbcolor stroke grestore grestore} def
/SL {setlinewidth} def
/LWMB {12} def             % line width - model curves, black & white
/LWMC {10} def             % line width - model curves, color
/L2 {2.5 setlinewidth} def
/L5 {5 setlinewidth} def
/L10 {10 setlinewidth} def
/G50 {0.5 setgray} def
/SDA {[10  20] 0 setdash} def % axes
/helvT {/Helvetica findfont 100 scalefont setfont} def % tiny
/helvS {/Helvetica findfont 125 scalefont setfont} def % small
/helvM {/Helvetica findfont 150 scalefont setfont} def % medium
/helvL {/Helvetica findfont 175 scalefont setfont} def % large
/xlabel {gsave M dup
   stringwidth exch -0.5 mul exch rmoveto show grestore} def 
/ylabel {gsave M 90 rotate dup
   stringwidth exch -0.5 mul exch rmoveto show grestore} def
/ylabelresid {gsave M dup
   stringwidth exch -1 mul exch rmoveto show grestore} def
% ======
% Shapes
% ======
% Circle:
/Circ {0 360 arc closepath} def
%
% Square:
/Squa {dup dup -0.5 mul dup dup R -2 mul 0 exch rL 1 mul 0 rL dup 0 exch -1 mul rL closepath} def
%
% Triangle Up:
/TriU {dup dup dup -0.4 mul exch -0.5 mul exch R dup 0.5 mul exch rL dup -1 mul exch 0.5 mul exch rL closepath} def 
%
% Triangle Down:
/TriD {dup dup dup 0.4 mul exch -0.5 mul exch R dup 0.5 mul exch -1 mul rL dup 0.5 mul exch rL closepath} def 
%
% Diamond:
/Diam {45 rotate Squa} def
% ======
% Fills
% ======
/GRF {gsave setgray fill grestore} def                    % gray-level Fill
/COF {gsave setrgbcolor fill grestore} def                % color fill
% ======
% Colors
% ======
/C01 {1.00	0.00	0.00} def      % Red
/C02 {0.00	0.00	1.00} def      % Blue
/C03 {0.00	0.39	0.00} def      % Dark Green
/C04 {0.78	0.08	0.52} def      % Medium Violet Red
/C05 {0.55	0.27	0.07} def      % Saddle Brown
/C06 {0.10	0.70	0.70} def      % (cyan)
/C07 {1.00	0.55	0.00} def      % Dark Orange
/C08 {0.63	0.13	0.94} def      % Purple
/C09 {0.00	0.75	1.00} def      % Deep Sky Blue
/C10 {0.20	0.80	0.20} def      % Lime Green
/C11 {0.47	0.53	0.60} def      % Light Slate Gray
/C12 {0.00	0.00	0.00} def      % Black            % or: {0.19	0.31	0.31} def      % Dark Slate Gray
%
/LGR {0.75} def % light gray
/DGR {0.33} def % dark gray
%
% =============
% Dash patterns
% =============
/dash01 { [80  20] 0 setdash } def
/dash02 { [40  20] 0 setdash } def
/dash03 { [80  20  10  20] 0 setdash } def
/dash04 { [40  20  10  20] 0 setdash } def
/dash05 { [80  20  10  10  10  20] 0 setdash } def
/dash06 { [40  20  10  10  10  20] 0 setdash } def
/dash07 { [10  10] 0 setdash } def
%
/MFshow {
   { dup 5 get 3 ge
     { 5 get 3 eq {gsave} {grestore} ifelse }
     {dup dup 0 get findfont exch 1 get scalefont setfont
     [ currentpoint ] exch dup 2 get 0 exch R dup 5 get 2 ne {dup dup 6
     get exch 4 get {show} {stringwidth pop 0 R} ifelse }if dup 5 get 0 eq
     {dup 3 get {2 get neg 0 exch R pop} {pop aload pop M} ifelse} {dup 5
     get 1 eq {dup 2 get exch dup 3 get exch 6 get stringwidth pop -2 div
     dup 0 R} {dup 6 get stringwidth pop -2 div 0 R 6 get
     show 2 index {aload pop M neg 3 -1 roll neg R pop pop} {pop pop pop
     pop aload pop M} ifelse }ifelse }ifelse }
     ifelse }
   forall} bind def
/MFwidth {0 exch {dup 3 get{dup dup 0 get findfont exch 1 get scalefont
     setfont 6 get stringwidth pop add} {pop} ifelse} forall} bind def
/MCshow { currentpoint stroke M
  exch dup MFwidth -2 div 3 -1 roll R MFshow } def
%
end
%%EndProlog
bkdict begin
0.1 0.1 scale
%
% Model curves:
%

GSN 753 5166 M
753 5166 L
786 5156 L
820 5144 L
853 5130 L
886 5113 L
903 5104 L
919 5094 L
953 5072 L
986 5047 L
1020 5018 L
1053 4985 L
1053 4985 L
1086 4946 L
1120 4902 L
1153 4852 L
1186 4795 L
1203 4763 L
1220 4730 L
1253 4657 L
1286 4576 L
1320 4484 L
1353 4384 L
1353 4382 L
1386 4274 L
1420 4154 L
1453 4026 L
1486 3891 L
1503 3820 L
1520 3751 L
1553 3609 L
1586 3467 L
1620 3329 L
1653 3199 L
1653 3197 L
1686 3082 L
1720 2980 L
1753 2895 L
1786 2828 L
1804 2801 L
1820 2780 L
1853 2747 L
1886 2726 L
1920 2714 L
1953 2709 L
1954 2709 L
1986 2706 L
2020 2705 L
2053 2705 L
2086 2705 L
2104 2705 L
2120 2705 L
2153 2705 L
2186 2705 L
2220 2705 L
2253 2705 L
2254 2705 L
2286 2705 L
2320 2705 L
2353 2705 L
2386 2705 L
2404 2705 L
2420 2705 L
2453 2705 L
2486 2705 L
2520 2705 L
2553 2705 L
2554 2705 L
2586 2705 L
2620 2705 L
2653 2705 L
2686 2705 L
2704 2705 L
2720 2705 L
2753 2705 L
2786 2704 L
2820 2704 L
2853 2704 L
2854 2704 L
2886 2704 L
2920 2704 L
2953 2704 L
2986 2704 L
3004 2704 L
3020 2704 L
3053 2703 L
3068 2703 L
3086 2703 L
3120 2703 L
3153 2702 L
3155 2702 L
3186 2702 L
3220 2702 L
3253 2701 L
3286 2700 L
3305 2700 L
3320 2700 L
3353 2699 L
3386 2698 L
3420 2696 L
3453 2695 L
3455 2695 L
3486 2693 L
3520 2691 L
3553 2689 L
3586 2687 L
3605 2685 L
3620 2684 L
3653 2680 L
3686 2676 L
3720 2671 L
3753 2665 L
3755 2665 L
3786 2659 L
3820 2651 L
3853 2642 L
3886 2632 L
3905 2625 L
3920 2620 L
3953 2606 L
3986 2589 L
4020 2570 L
4053 2547 L
4086 2521 L
LWMC SL  C06 COSGR

%
% Experimental data:
%
GSN 773 4422 M
1625 4669 L
1773 4550 L
1860 4285 L
1922 4423 L
1970 4305 L
2009 4135 L
2043 4160 L
2072 3998 L
2097 3949 L
2120 4075 L
2140 3926 L
2159 3841 L
2176 3916 L
2192 3867 L
2207 3760 L
2221 3793 L
2234 3631 L
2247 3686 L
2259 3698 L
2270 3736 L
2280 3767 L
2290 3569 L
2300 3522 L
2309 3446 L
2318 3497 L
2326 3717 L
2335 3650 L
2342 3482 L
2350 3466 L
2357 3423 L
2364 3411 L
2371 3416 L
2378 3486 L
2384 3135 L
2391 3482 L
2397 3201 L
2403 3201 L
2409 3125 L
2414 3228 L
2420 3220 L
2425 2965 L
2430 3173 L
2435 3161 L
2440 3005 L
2445 3097 L
2450 3197 L
2455 3169 L
2459 2934 L
2464 2982 L
2468 3001 L
2472 2899 L
2476 2867 L
2481 2964 L
2485 2994 L
2489 2867 L
2492 2779 L
2496 2791 L
2500 2783 L
2504 2964 L
2507 2810 L
2511 2934 L
2514 2932 L
2518 2781 L
2521 2791 L
2525 2678 L
2528 2657 L
2531 2860 L
2534 2775 L
2538 2865 L
2541 2601 L
2544 2709 L
2547 2747 L
2550 2767 L
2553 2729 L
2556 2691 L
2559 2585 L
2561 2583 L
2564 2671 L
2567 2689 L
2570 2718 L
2580 2511 L
2590 2452 L
2600 2423 L
2609 2229 L
2618 2421 L
2627 2486 L
2635 2346 L
2643 2355 L
2650 2301 L
2658 2397 L
2665 2068 L
2672 2332 L
2678 2189 L
2685 2142 L
2691 2039 L
2697 2059 L
2703 2140 L
2709 2101 L
2714 1989 L
2720 2068 L
2725 2111 L
2730 2235 L
2735 2027 L
2740 2101 L
2745 2189 L
2750 2069 L
2755 2101 L
2759 2031 L
2764 2087 L
2768 2039 L
2772 2079 L
2777 1922 L
2781 1855 L
2785 1911 L
2789 1833 L
2793 1951 L
2796 1854 L
2800 2091 L
2804 2037 L
2808 2057 L
2811 1996 L
2815 2111 L
2818 2151 L
2822 1931 L
2825 2019 L
2828 2117 L
2831 1936 L
2835 2220 L
2838 2028 L
2841 1926 L
2844 2163 L
2847 2178 L
2850 2164 L
2853 2056 L
2856 1848 L
2859 2244 L
2862 2077 L
2864 2035 L
2867 2014 L
2870 2242 L
2873 2105 L
2875 2080 L
2878 2361 L
2880 1988 L
2883 1965 L
2886 2097 L
2888 2087 L
2891 2134 L
2893 2062 L
2895 1962 L
2898 2143 L
2900 2250 L
2902 2146 L
2905 2120 L
2907 2056 L
2909 2029 L
2912 2294 L
2914 2167 L
2916 2019 L
2918 2237 L
2920 2079 L
2922 2087 L
2925 2311 L
2927 2146 L
2929 2146 L
2931 2368 L
2933 2222 L
2935 2177 L
2937 2287 L
2939 2330 L
2941 2235 L
2943 2133 L
2945 2226 L
2947 2436 L
2948 2324 L
2950 2133 L
2952 2402 L
2954 2373 L
2956 2227 L
2958 2118 L
2959 2386 L
2961 2400 L
2963 2274 L
2965 2073 L
2966 2389 L
2968 2310 L
2970 2338 L
2972 2504 L
2973 2290 L
2975 2368 L
2977 2459 L
2978 2299 L
2980 2358 L
2982 2310 L
2983 2429 L
2985 2457 L
2986 2361 L
2988 2309 L
2989 2297 L
2991 2317 L
2993 2409 L
2994 2558 L
2996 2391 L
2997 2448 L
2999 2204 L
3000 2483 L
3002 2347 L
3003 2481 L
3005 2411 L
3006 2342 L
3007 2568 L
3009 2549 L
3010 2367 L
3012 2442 L
3013 2509 L
3014 2571 L
3016 2375 L
3017 2541 L
3019 2602 L
3020 2501 L
3021 2466 L
3023 2323 L
3024 2516 L
3025 2336 L
3027 2469 L
3028 2525 L
3029 2516 L
3031 2576 L
3032 2551 L
3033 2408 L
3034 2698 L
3036 2456 L
3037 2437 L
3038 2669 L
3039 2533 L
3041 2512 L
3042 2554 L
3043 2359 L
3044 2425 L
3045 2702 L
3047 2646 L
3048 2596 L
3049 2723 L
3050 2502 L
3051 2440 L
3053 2487 L
3054 2714 L
3055 2612 L
3056 2485 L
3057 2542 L
3058 2666 L
3059 2592 L
3061 2595 L
3062 2425 L
3063 2669 L
3064 2757 L
3065 2576 L
3066 2552 L
3067 2593 L
3068 2641 L
3069 2594 L
3070 2612 L
3071 2646 L
3073 2461 L
3074 2719 L
3075 2651 L
3076 2607 L
3077 2655 L
3078 2740 L
3079 2431 L
3080 2550 L
3081 2621 L
3082 2747 L
3083 2585 L
3084 2669 L
3085 2614 L
3086 2668 L
3087 2672 L
3088 2410 L
3089 2799 L
3112 2688 L
3133 2868 L
3152 2706 L
3170 2677 L
3186 2915 L
3201 2908 L
3216 2811 L
3229 2767 L
3241 2983 L
3253 2851 L
3264 2916 L
3275 2726 L
3285 2884 L
3295 2833 L
3304 2894 L
3313 2868 L
3322 2945 L
3330 2880 L
3338 2812 L
3346 2951 L
3353 2872 L
3360 2887 L
3367 2918 L
3374 2966 L
3380 2883 L
3387 2800 L
3393 2989 L
3399 2867 L
3405 3061 L
3410 3185 L
3416 2989 L
3421 2906 L
3426 2832 L
3431 3046 L
3436 2965 L
3441 2812 L
3446 2884 L
3451 2930 L
3455 3073 L
3460 3118 L
3464 2832 L
3469 2823 L
3473 2868 L
3477 2987 L
3481 2904 L
3485 3021 L
3489 2980 L
3493 2894 L
3496 2905 L
3500 2890 L
3504 2900 L
3507 2910 L
3511 2794 L
3514 2853 L
3518 3141 L
3521 2859 L
3525 2924 L
3528 2771 L
3531 2791 L
3534 2911 L
3537 2846 L
3540 2875 L
3543 2830 L
3546 2920 L
3549 3004 L
3552 2801 L
3555 3129 L
3558 2845 L
3561 2879 L
3564 2974 L
3566 2796 L
3575 2753 L
3586 2959 L
3595 3008 L
3605 2723 L
3613 2900 L
3622 2740 L
3630 2777 L
3638 2978 L
3646 2863 L
3653 2827 L
3660 2720 L
3667 2817 L
3674 2842 L
3681 2979 L
3687 2906 L
3693 2753 L
3699 2822 L
3705 2820 L
3710 2896 L
3716 2658 L
3721 2767 L
3727 2723 L
3732 2705 L
3737 2819 L
3742 2729 L
3746 2708 L
3751 2865 L
3756 3028 L
3760 2910 L
3764 2804 L
3769 2644 L
3773 2870 L
3777 2621 L
3781 2784 L
3785 2842 L
3789 2734 L
3793 2774 L
3797 2832 L
3800 2839 L
3804 2698 L
3808 2637 L
3811 2632 L
3815 2633 L
3818 2721 L
3821 2724 L
3825 2610 L
3828 2685 L
3831 2691 L
3834 2517 L
3838 2687 L
3841 2760 L
3844 2746 L
3847 2655 L
3850 2691 L
3853 2654 L
3855 2772 L
3858 2661 L
3861 2739 L
3864 2884 L
3867 2773 L
3869 2663 L
3872 2778 L
3875 2720 L
3877 2725 L
3880 2751 L
3882 2523 L
3885 2567 L
3887 2692 L
3890 2773 L
3892 2722 L
3895 2626 L
3897 2650 L
3899 2681 L
3902 2758 L
3904 2674 L
3906 2844 L
3908 2751 L
3911 2704 L
3913 2866 L
3915 2772 L
3917 2696 L
3919 2711 L
3921 2712 L
3923 2667 L
3926 2566 L
3928 2791 L
3930 2606 L
3932 2808 L
3934 2830 L
3936 2726 L
3938 2651 L
3940 2658 L
3942 2796 L
3943 2823 L
3945 2679 L
3947 2734 L
3949 2813 L
3951 2715 L
3953 2684 L
3955 2690 L
3956 2609 L
3958 2487 L
3960 2550 L
3962 2563 L
3963 2565 L
3965 2651 L
3967 2630 L
3969 2711 L
3970 2784 L
3972 2656 L
3974 2671 L
3975 2839 L
3977 2739 L
3978 2605 L
3980 2739 L
3982 2925 L
3983 2601 L
3985 2681 L
3986 2769 L
3988 2493 L
3990 2537 L
3991 2553 L
3993 2838 L
3994 2739 L
3996 2610 L
3997 2672 L
3999 2549 L
4000 2662 L
4001 2400 L
4003 2767 L
4004 2632 L
4006 2531 L
4007 2503 L
4009 2779 L
4010 2658 L
4011 2465 L
4013 2770 L
4014 2731 L
4016 2772 L
4017 2536 L
4018 2658 L
4020 2544 L
4021 2597 L
4022 2765 L
4024 2546 L
4025 2686 L
4026 2533 L
4028 2459 L
4029 2624 L
4030 2648 L
4031 2702 L
4033 2676 L
4034 2702 L
4035 2700 L
4036 2812 L
4038 2756 L
4039 2726 L
4040 2631 L
4041 2630 L
4042 2514 L
4044 2562 L
4045 2662 L
4046 2644 L
4047 2671 L
4048 2617 L
4050 2733 L
4051 2586 L
4052 2883 L
4053 2568 L
4054 2717 L
4055 2588 L
4056 2570 L
4058 2828 L
4059 2636 L
4060 2649 L
4061 2629 L
4062 2773 L
4063 2800 L
4064 2622 L
4065 2666 L
4066 2548 L
L2 C06 COSGR

%
%================
% Legend - Begin
%================
%
GSN 4240 5180 M
4480 5180 L
LWMC SL  C06 COSGR
GSN 4540 5141 M helvM (3.0 uM) show grestore
%
%================
% Legend - End
%================
%

%
% Residuals:
%
GSN 773 793 M
1625 1458 L
1773 1565 L
1860 1516 L
1922 1569 L
1970 1533 L
2009 1480 L
2043 1488 L
2072 1437 L
2097 1421 L
2120 1461 L
2140 1414 L
2159 1387 L
2176 1411 L
2192 1395 L
2207 1361 L
2221 1372 L
2234 1320 L
2247 1338 L
2259 1342 L
2270 1354 L
2280 1363 L
2290 1301 L
2300 1286 L
2309 1262 L
2318 1278 L
2326 1348 L
2335 1326 L
2342 1273 L
2350 1268 L
2357 1254 L
2364 1250 L
2371 1252 L
2378 1274 L
2384 1163 L
2391 1273 L
2397 1184 L
2403 1184 L
2409 1160 L
2414 1193 L
2420 1190 L
2425 1109 L
2430 1175 L
2435 1171 L
2440 1122 L
2445 1151 L
2450 1183 L
2455 1174 L
2459 1099 L
2464 1115 L
2468 1120 L
2472 1088 L
2476 1078 L
2481 1109 L
2485 1118 L
2489 1078 L
2492 1050 L
2496 1054 L
2500 1051 L
2504 1109 L
2507 1060 L
2511 1099 L
2514 1099 L
2518 1051 L
2521 1054 L
2525 1018 L
2528 1012 L
2531 1076 L
2534 1049 L
2538 1077 L
2541 994 L
2544 1028 L
2547 1040 L
2550 1047 L
2553 1034 L
2556 1022 L
2559 989 L
2561 988 L
2564 1016 L
2567 1022 L
2570 1031 L
2580 965 L
2590 946 L
2600 937 L
2609 876 L
2618 937 L
2627 957 L
2635 913 L
2643 916 L
2650 899 L
2658 929 L
2665 825 L
2672 909 L
2678 863 L
2685 848 L
2691 816 L
2697 822 L
2703 848 L
2709 835 L
2714 800 L
2720 825 L
2725 838 L
2730 878 L
2735 812 L
2740 835 L
2745 863 L
2750 825 L
2755 835 L
2759 813 L
2764 831 L
2768 816 L
2772 828 L
2777 779 L
2781 758 L
2785 775 L
2789 750 L
2793 788 L
2796 757 L
2800 832 L
2804 815 L
2808 821 L
2811 802 L
2815 839 L
2818 851 L
2822 782 L
2825 809 L
2828 840 L
2831 783 L
2835 873 L
2838 812 L
2841 780 L
2844 855 L
2847 860 L
2850 855 L
2853 821 L
2856 755 L
2859 881 L
2862 828 L
2864 815 L
2867 808 L
2870 880 L
2873 837 L
2875 829 L
2878 918 L
2880 800 L
2883 792 L
2886 834 L
2888 831 L
2891 846 L
2893 823 L
2895 791 L
2898 849 L
2900 883 L
2902 850 L
2905 842 L
2907 821 L
2909 813 L
2912 897 L
2914 856 L
2916 809 L
2918 879 L
2920 829 L
2922 831 L
2925 902 L
2927 850 L
2929 850 L
2931 920 L
2933 874 L
2935 860 L
2937 895 L
2939 908 L
2941 878 L
2943 846 L
2945 875 L
2947 942 L
2948 906 L
2950 846 L
2952 931 L
2954 922 L
2956 876 L
2958 841 L
2959 926 L
2961 930 L
2963 890 L
2965 827 L
2966 927 L
2968 902 L
2970 911 L
2972 963 L
2973 896 L
2975 920 L
2977 949 L
2978 898 L
2980 917 L
2982 902 L
2983 940 L
2985 949 L
2986 918 L
2988 902 L
2989 898 L
2991 904 L
2993 933 L
2994 980 L
2996 928 L
2997 946 L
2999 868 L
3000 957 L
3002 914 L
3003 956 L
3005 934 L
3006 912 L
3007 984 L
3009 978 L
3010 920 L
3012 944 L
3013 965 L
3014 985 L
3016 922 L
3017 975 L
3019 995 L
3020 962 L
3021 951 L
3023 906 L
3024 967 L
3025 910 L
3027 952 L
3028 970 L
3029 967 L
3031 986 L
3032 978 L
3033 933 L
3034 1025 L
3036 948 L
3037 942 L
3038 1016 L
3039 973 L
3041 966 L
3042 979 L
3043 917 L
3044 938 L
3045 1026 L
3047 1009 L
3048 993 L
3049 1033 L
3050 963 L
3051 943 L
3053 958 L
3054 1030 L
3055 998 L
3056 958 L
3057 975 L
3058 1015 L
3059 991 L
3061 992 L
3062 938 L
3063 1016 L
3064 1044 L
3065 986 L
3066 979 L
3067 992 L
3068 1007 L
3069 992 L
3070 998 L
3071 1009 L
3073 950 L
3074 1032 L
3075 1010 L
3076 996 L
3077 1011 L
3078 1038 L
3079 940 L
3080 978 L
3081 1001 L
3082 1041 L
3083 989 L
3084 1016 L
3085 998 L
3086 1016 L
3087 1017 L
3088 934 L
3089 1057 L
3112 1022 L
3133 1079 L
3152 1028 L
3170 1019 L
3186 1094 L
3201 1092 L
3216 1061 L
3229 1048 L
3241 1116 L
3253 1074 L
3264 1095 L
3275 1035 L
3285 1085 L
3295 1069 L
3304 1088 L
3313 1080 L
3322 1105 L
3330 1084 L
3338 1062 L
3346 1107 L
3353 1082 L
3360 1086 L
3367 1096 L
3374 1112 L
3380 1085 L
3387 1059 L
3393 1119 L
3399 1080 L
3405 1142 L
3410 1182 L
3416 1119 L
3421 1093 L
3426 1070 L
3431 1138 L
3436 1112 L
3441 1064 L
3446 1086 L
3451 1101 L
3455 1146 L
3460 1161 L
3464 1070 L
3469 1068 L
3473 1082 L
3477 1119 L
3481 1093 L
3485 1131 L
3489 1117 L
3493 1090 L
3496 1094 L
3500 1089 L
3504 1092 L
3507 1096 L
3511 1059 L
3514 1078 L
3518 1169 L
3521 1080 L
3525 1100 L
3528 1052 L
3531 1059 L
3534 1096 L
3537 1076 L
3540 1085 L
3543 1071 L
3546 1100 L
3549 1126 L
3552 1062 L
3555 1166 L
3558 1076 L
3561 1087 L
3564 1117 L
3566 1061 L
3575 1048 L
3586 1113 L
3595 1129 L
3605 1039 L
3613 1095 L
3622 1045 L
3630 1057 L
3638 1121 L
3646 1084 L
3653 1073 L
3660 1039 L
3667 1071 L
3674 1079 L
3681 1122 L
3687 1100 L
3693 1051 L
3699 1073 L
3705 1073 L
3710 1098 L
3716 1022 L
3721 1057 L
3727 1044 L
3732 1038 L
3737 1074 L
3742 1046 L
3746 1040 L
3751 1090 L
3756 1142 L
3760 1105 L
3764 1071 L
3769 1021 L
3773 1093 L
3777 1014 L
3781 1066 L
3785 1085 L
3789 1051 L
3793 1064 L
3797 1082 L
3800 1085 L
3804 1040 L
3808 1021 L
3811 1020 L
3815 1020 L
3818 1049 L
3821 1050 L
3825 1014 L
3828 1038 L
3831 1040 L
3834 985 L
3838 1040 L
3841 1063 L
3844 1059 L
3847 1030 L
3850 1042 L
3853 1030 L
3855 1068 L
3858 1033 L
3861 1058 L
3864 1104 L
3867 1069 L
3869 1035 L
3872 1072 L
3875 1053 L
3877 1055 L
3880 1064 L
3882 992 L
3885 1006 L
3887 1046 L
3890 1072 L
3892 1056 L
3895 1026 L
3897 1034 L
3899 1044 L
3902 1068 L
3904 1042 L
3906 1096 L
3908 1067 L
3911 1052 L
3913 1104 L
3915 1074 L
3917 1051 L
3919 1056 L
3921 1056 L
3923 1042 L
3926 1010 L
3928 1082 L
3930 1024 L
3932 1088 L
3934 1095 L
3936 1062 L
3938 1039 L
3940 1041 L
3942 1085 L
3943 1094 L
3945 1049 L
3947 1066 L
3949 1092 L
3951 1061 L
3953 1051 L
3955 1054 L
3956 1028 L
3958 990 L
3960 1010 L
3962 1014 L
3963 1015 L
3965 1043 L
3967 1037 L
3969 1062 L
3970 1086 L
3972 1046 L
3974 1051 L
3975 1104 L
3977 1072 L
3978 1031 L
3980 1073 L
3982 1132 L
3983 1030 L
3985 1056 L
3986 1084 L
3988 996 L
3990 1011 L
3991 1016 L
3993 1107 L
3994 1076 L
3996 1035 L
3997 1055 L
3999 1016 L
4000 1052 L
4001 969 L
4003 1086 L
4004 1044 L
4006 1012 L
4007 1003 L
4009 1091 L
4010 1053 L
4011 992 L
4013 1089 L
4014 1077 L
4016 1090 L
4017 1016 L
4018 1054 L
4020 1019 L
4021 1036 L
4022 1089 L
4024 1020 L
4025 1064 L
4026 1016 L
4028 993 L
4029 1046 L
4030 1054 L
4031 1071 L
4033 1063 L
4034 1071 L
4035 1071 L
4036 1107 L
4038 1089 L
4039 1080 L
4040 1050 L
4041 1050 L
4042 1014 L
4044 1029 L
4045 1061 L
4046 1056 L
4047 1065 L
4048 1048 L
4050 1085 L
4051 1038 L
4052 1133 L
4053 1033 L
4054 1081 L
4055 1040 L
4056 1035 L
4058 1117 L
4059 1056 L
4060 1061 L
4061 1055 L
4062 1100 L
4063 1109 L
4064 1053 L
4065 1067 L
4066 1030 L
L2 C06 COSGR

%
% Main frame
%
L10
GSN 
620 1700 M
4220 1700 L
4220 5300 L
620 5300 L
closepath SGR

%
% X axis: large tics
%
L10
GSN 1074 1700 M 0  54 rL SGR
GSN 1074 5300 M 0 -54 rL SGR
helvS (0.0001) 1074 470 xlabel
GSN 1572 1700 M 0  54 rL SGR
GSN 1572 5300 M 0 -54 rL SGR
helvS (0.001) 1572 470 xlabel
GSN 2071 1700 M 0  54 rL SGR
GSN 2071 5300 M 0 -54 rL SGR
helvS (0.01) 2071 470 xlabel
GSN 2570 1700 M 0  54 rL SGR
GSN 2570 5300 M 0 -54 rL SGR
helvS (0.1) 2570 470 xlabel
GSN 3068 1700 M 0  54 rL SGR
GSN 3068 5300 M 0 -54 rL SGR
helvS (1) 3068 470 xlabel
GSN 3567 1700 M 0  54 rL SGR
GSN 3567 5300 M 0 -54 rL SGR
helvS (10) 3567 470 xlabel
GSN 4066 1700 M 0  54 rL SGR
GSN 4066 5300 M 0 -54 rL SGR
helvS (100) 4066 470 xlabel
%
% X axis: small tics
%
L5
GSN 725 1700 M 0  36 rL SGR
GSN 725 5300 M 0 -36 rL SGR
GSN 813 1700 M 0  36 rL SGR
GSN 813 5300 M 0 -36 rL SGR
GSN 875 1700 M 0  36 rL SGR
GSN 875 5300 M 0 -36 rL SGR
GSN 924 1700 M 0  36 rL SGR
GSN 924 5300 M 0 -36 rL SGR
GSN 963 1700 M 0  36 rL SGR
GSN 963 5300 M 0 -36 rL SGR
GSN 996 1700 M 0  36 rL SGR
GSN 996 5300 M 0 -36 rL SGR
GSN 1025 1700 M 0  36 rL SGR
GSN 1025 5300 M 0 -36 rL SGR
GSN 1051 1700 M 0  36 rL SGR
GSN 1051 5300 M 0 -36 rL SGR
GSN 1224 1700 M 0  36 rL SGR
GSN 1224 5300 M 0 -36 rL SGR
GSN 1312 1700 M 0  36 rL SGR
GSN 1312 5300 M 0 -36 rL SGR
GSN 1374 1700 M 0  36 rL SGR
GSN 1374 5300 M 0 -36 rL SGR
GSN 1422 1700 M 0  36 rL SGR
GSN 1422 5300 M 0 -36 rL SGR
GSN 1462 1700 M 0  36 rL SGR
GSN 1462 5300 M 0 -36 rL SGR
GSN 1495 1700 M 0  36 rL SGR
GSN 1495 5300 M 0 -36 rL SGR
GSN 1524 1700 M 0  36 rL SGR
GSN 1524 5300 M 0 -36 rL SGR
GSN 1550 1700 M 0  36 rL SGR
GSN 1550 5300 M 0 -36 rL SGR
GSN 1722 1700 M 0  36 rL SGR
GSN 1722 5300 M 0 -36 rL SGR
GSN 1810 1700 M 0  36 rL SGR
GSN 1810 5300 M 0 -36 rL SGR
GSN 1873 1700 M 0  36 rL SGR
GSN 1873 5300 M 0 -36 rL SGR
GSN 1921 1700 M 0  36 rL SGR
GSN 1921 5300 M 0 -36 rL SGR
GSN 1960 1700 M 0  36 rL SGR
GSN 1960 5300 M 0 -36 rL SGR
GSN 1994 1700 M 0  36 rL SGR
GSN 1994 5300 M 0 -36 rL SGR
GSN 2023 1700 M 0  36 rL SGR
GSN 2023 5300 M 0 -36 rL SGR
GSN 2048 1700 M 0  36 rL SGR
GSN 2048 5300 M 0 -36 rL SGR
GSN 2221 1700 M 0  36 rL SGR
GSN 2221 5300 M 0 -36 rL SGR
GSN 2309 1700 M 0  36 rL SGR
GSN 2309 5300 M 0 -36 rL SGR
GSN 2371 1700 M 0  36 rL SGR
GSN 2371 5300 M 0 -36 rL SGR
GSN 2420 1700 M 0  36 rL SGR
GSN 2420 5300 M 0 -36 rL SGR
GSN 2459 1700 M 0  36 rL SGR
GSN 2459 5300 M 0 -36 rL SGR
GSN 2492 1700 M 0  36 rL SGR
GSN 2492 5300 M 0 -36 rL SGR
GSN 2521 1700 M 0  36 rL SGR
GSN 2521 5300 M 0 -36 rL SGR
GSN 2547 1700 M 0  36 rL SGR
GSN 2547 5300 M 0 -36 rL SGR
GSN 2720 1700 M 0  36 rL SGR
GSN 2720 5300 M 0 -36 rL SGR
GSN 2808 1700 M 0  36 rL SGR
GSN 2808 5300 M 0 -36 rL SGR
GSN 2870 1700 M 0  36 rL SGR
GSN 2870 5300 M 0 -36 rL SGR
GSN 2918 1700 M 0  36 rL SGR
GSN 2918 5300 M 0 -36 rL SGR
GSN 2958 1700 M 0  36 rL SGR
GSN 2958 5300 M 0 -36 rL SGR
GSN 2991 1700 M 0  36 rL SGR
GSN 2991 5300 M 0 -36 rL SGR
GSN 3020 1700 M 0  36 rL SGR
GSN 3020 5300 M 0 -36 rL SGR
GSN 3045 1700 M 0  36 rL SGR
GSN 3045 5300 M 0 -36 rL SGR
GSN 3218 1700 M 0  36 rL SGR
GSN 3218 5300 M 0 -36 rL SGR
GSN 3306 1700 M 0  36 rL SGR
GSN 3306 5300 M 0 -36 rL SGR
GSN 3368 1700 M 0  36 rL SGR
GSN 3368 5300 M 0 -36 rL SGR
GSN 3417 1700 M 0  36 rL SGR
GSN 3417 5300 M 0 -36 rL SGR
GSN 3456 1700 M 0  36 rL SGR
GSN 3456 5300 M 0 -36 rL SGR
GSN 3490 1700 M 0  36 rL SGR
GSN 3490 5300 M 0 -36 rL SGR
GSN 3519 1700 M 0  36 rL SGR
GSN 3519 5300 M 0 -36 rL SGR
GSN 3544 1700 M 0  36 rL SGR
GSN 3544 5300 M 0 -36 rL SGR
GSN 3717 1700 M 0  36 rL SGR
GSN 3717 5300 M 0 -36 rL SGR
GSN 3805 1700 M 0  36 rL SGR
GSN 3805 5300 M 0 -36 rL SGR
GSN 3867 1700 M 0  36 rL SGR
GSN 3867 5300 M 0 -36 rL SGR
GSN 3915 1700 M 0  36 rL SGR
GSN 3915 5300 M 0 -36 rL SGR
GSN 3955 1700 M 0  36 rL SGR
GSN 3955 5300 M 0 -36 rL SGR
GSN 3988 1700 M 0  36 rL SGR
GSN 3988 5300 M 0 -36 rL SGR
GSN 4017 1700 M 0  36 rL SGR
GSN 4017 5300 M 0 -36 rL SGR
GSN 4043 1700 M 0  36 rL SGR
GSN 4043 5300 M 0 -36 rL SGR
GSN 4216 1700 M 0  36 rL SGR
GSN 4216 5300 M 0 -36 rL SGR
%
% Y axis: large tics
%
L10
GSN 620 2297 M 54 0 rL SGR
GSN 4220 2297 M -54 0 rL SGR
helvS (0.92) 560 2297 ylabel
GSN 620 3036 M 54 0 rL SGR
GSN 4220 3036 M -54 0 rL SGR
helvS (0.94) 560 3036 ylabel
GSN 620 3775 M 54 0 rL SGR
GSN 4220 3775 M -54 0 rL SGR
helvS (0.96) 560 3775 ylabel
GSN 620 4514 M 54 0 rL SGR
GSN 4220 4514 M -54 0 rL SGR
helvS (0.98) 560 4514 ylabel
GSN 620 5253 M 54 0 rL SGR
GSN 4220 5253 M -54 0 rL SGR
helvS (1) 560 5253 ylabel
%
% Y axis: small tics
%
L5
GSN 620 1742 M 36 0 rL SGR
GSN 4220 1742 M -36 0 rL SGR
GSN 620 1927 M 36 0 rL SGR
GSN 4220 1927 M -36 0 rL SGR
GSN 620 2112 M 36 0 rL SGR
GSN 4220 2112 M -36 0 rL SGR
GSN 620 2297 M 36 0 rL SGR
GSN 4220 2297 M -36 0 rL SGR
GSN 620 2481 M 36 0 rL SGR
GSN 4220 2481 M -36 0 rL SGR
GSN 620 2666 M 36 0 rL SGR
GSN 4220 2666 M -36 0 rL SGR
GSN 620 2851 M 36 0 rL SGR
GSN 4220 2851 M -36 0 rL SGR
GSN 620 3036 M 36 0 rL SGR
GSN 4220 3036 M -36 0 rL SGR
GSN 620 3220 M 36 0 rL SGR
GSN 4220 3220 M -36 0 rL SGR
GSN 620 3405 M 36 0 rL SGR
GSN 4220 3405 M -36 0 rL SGR
GSN 620 3590 M 36 0 rL SGR
GSN 4220 3590 M -36 0 rL SGR
GSN 620 3775 M 36 0 rL SGR
GSN 4220 3775 M -36 0 rL SGR
GSN 620 3959 M 36 0 rL SGR
GSN 4220 3959 M -36 0 rL SGR
GSN 620 4144 M 36 0 rL SGR
GSN 4220 4144 M -36 0 rL SGR
GSN 620 4329 M 36 0 rL SGR
GSN 4220 4329 M -36 0 rL SGR
GSN 620 4514 M 36 0 rL SGR
GSN 4220 4514 M -36 0 rL SGR
GSN 620 4698 M 36 0 rL SGR
GSN 4220 4698 M -36 0 rL SGR
GSN 620 4883 M 36 0 rL SGR
GSN 4220 4883 M -36 0 rL SGR
GSN 620 5068 M 36 0 rL SGR
GSN 4220 5068 M -36 0 rL SGR
GSN 620 5253 M 36 0 rL SGR
GSN 4220 5253 M -36 0 rL SGR

%
% X-Axis label:
%
gsave 2420 290 M 
[
[(Helvetica) 180 0 true true 0 (t)]
[(Helvetica) 180 0 true true 0 (i)]
[(Helvetica) 180 0 true true 0 (m)]
[(Helvetica) 180 0 true true 0 (e)]
] 0 MCshow grestore

%
% Y-Axis label:
%
gsave 234 3500 M 
currentpoint gsave translate 90 rotate 0 0 moveto
[
[(Helvetica) 180 0 true true 0 (s)]
[(Helvetica) 180 0 true true 0 (i)]
[(Helvetica) 180 0 true true 0 (g)]
[(Helvetica) 180 0 true true 0 (n)]
[(Helvetica) 180 0 true true 0 (a)]
[(Helvetica) 180 0 true true 0 (l)]
] 0 MCshow grestore

%
% Residuals:
%
gsave 129 1160 M 
currentpoint gsave translate 90 rotate 0 0 moveto
[
[(Helvetica) 150 0 true true 0 (r)]
[(Helvetica) 150 0 true true 0 (e)]
[(Helvetica) 150 0 true true 0 (s)]
[(Helvetica) 150 0 true true 0 (i)]
[(Helvetica) 150 0 true true 0 (d)]
[(Helvetica) 150 0 true true 0 (u)]
[(Helvetica) 150 0 true true 0 (a)]
[(Helvetica) 150 0 true true 0 (l)]
[(Helvetica) 150 0 true true 0 (s)]
] 0 MCshow grestore

%
% Residual frame
%
L10
GSN 
620 620 M
4220 620 L
4220 1700 L
620 1700 L
closepath SGR
%
% X axis: large tics - residual frame
%
L10
GSN 1074 620 M 0  54 rL SGR
GSN 1074 1700 M 0 -54 rL SGR
GSN 1572 620 M 0  54 rL SGR
GSN 1572 1700 M 0 -54 rL SGR
GSN 2071 620 M 0  54 rL SGR
GSN 2071 1700 M 0 -54 rL SGR
GSN 2570 620 M 0  54 rL SGR
GSN 2570 1700 M 0 -54 rL SGR
GSN 3068 620 M 0  54 rL SGR
GSN 3068 1700 M 0 -54 rL SGR
GSN 3567 620 M 0  54 rL SGR
GSN 3567 1700 M 0 -54 rL SGR
GSN 4066 620 M 0  54 rL SGR
GSN 4066 1700 M 0 -54 rL SGR
%
% X axis: small tics - residual frame
%
L5
GSN 725 620 M 0  36 rL SGR
GSN 725 1700 M 0 -36 rL SGR
GSN 813 620 M 0  36 rL SGR
GSN 813 1700 M 0 -36 rL SGR
GSN 875 620 M 0  36 rL SGR
GSN 875 1700 M 0 -36 rL SGR
GSN 924 620 M 0  36 rL SGR
GSN 924 1700 M 0 -36 rL SGR
GSN 963 620 M 0  36 rL SGR
GSN 963 1700 M 0 -36 rL SGR
GSN 996 620 M 0  36 rL SGR
GSN 996 1700 M 0 -36 rL SGR
GSN 1025 620 M 0  36 rL SGR
GSN 1025 1700 M 0 -36 rL SGR
GSN 1051 620 M 0  36 rL SGR
GSN 1051 1700 M 0 -36 rL SGR
GSN 1224 620 M 0  36 rL SGR
GSN 1224 1700 M 0 -36 rL SGR
GSN 1312 620 M 0  36 rL SGR
GSN 1312 1700 M 0 -36 rL SGR
GSN 1374 620 M 0  36 rL SGR
GSN 1374 1700 M 0 -36 rL SGR
GSN 1422 620 M 0  36 rL SGR
GSN 1422 1700 M 0 -36 rL SGR
GSN 1462 620 M 0  36 rL SGR
GSN 1462 1700 M 0 -36 rL SGR
GSN 1495 620 M 0  36 rL SGR
GSN 1495 1700 M 0 -36 rL SGR
GSN 1524 620 M 0  36 rL SGR
GSN 1524 1700 M 0 -36 rL SGR
GSN 1550 620 M 0  36 rL SGR
GSN 1550 1700 M 0 -36 rL SGR
GSN 1722 620 M 0  36 rL SGR
GSN 1722 1700 M 0 -36 rL SGR
GSN 1810 620 M 0  36 rL SGR
GSN 1810 1700 M 0 -36 rL SGR
GSN 1873 620 M 0  36 rL SGR
GSN 1873 1700 M 0 -36 rL SGR
GSN 1921 620 M 0  36 rL SGR
GSN 1921 1700 M 0 -36 rL SGR
GSN 1960 620 M 0  36 rL SGR
GSN 1960 1700 M 0 -36 rL SGR
GSN 1994 620 M 0  36 rL SGR
GSN 1994 1700 M 0 -36 rL SGR
GSN 2023 620 M 0  36 rL SGR
GSN 2023 1700 M 0 -36 rL SGR
GSN 2048 620 M 0  36 rL SGR
GSN 2048 1700 M 0 -36 rL SGR
GSN 2221 620 M 0  36 rL SGR
GSN 2221 1700 M 0 -36 rL SGR
GSN 2309 620 M 0  36 rL SGR
GSN 2309 1700 M 0 -36 rL SGR
GSN 2371 620 M 0  36 rL SGR
GSN 2371 1700 M 0 -36 rL SGR
GSN 2420 620 M 0  36 rL SGR
GSN 2420 1700 M 0 -36 rL SGR
GSN 2459 620 M 0  36 rL SGR
GSN 2459 1700 M 0 -36 rL SGR
GSN 2492 620 M 0  36 rL SGR
GSN 2492 1700 M 0 -36 rL SGR
GSN 2521 620 M 0  36 rL SGR
GSN 2521 1700 M 0 -36 rL SGR
GSN 2547 620 M 0  36 rL SGR
GSN 2547 1700 M 0 -36 rL SGR
GSN 2720 620 M 0  36 rL SGR
GSN 2720 1700 M 0 -36 rL SGR
GSN 2808 620 M 0  36 rL SGR
GSN 2808 1700 M 0 -36 rL SGR
GSN 2870 620 M 0  36 rL SGR
GSN 2870 1700 M 0 -36 rL SGR
GSN 2918 620 M 0  36 rL SGR
GSN 2918 1700 M 0 -36 rL SGR
GSN 2958 620 M 0  36 rL SGR
GSN 2958 1700 M 0 -36 rL SGR
GSN 2991 620 M 0  36 rL SGR
GSN 2991 1700 M 0 -36 rL SGR
GSN 3020 620 M 0  36 rL SGR
GSN 3020 1700 M 0 -36 rL SGR
GSN 3045 620 M 0  36 rL SGR
GSN 3045 1700 M 0 -36 rL SGR
GSN 3218 620 M 0  36 rL SGR
GSN 3218 1700 M 0 -36 rL SGR
GSN 3306 620 M 0  36 rL SGR
GSN 3306 1700 M 0 -36 rL SGR
GSN 3368 620 M 0  36 rL SGR
GSN 3368 1700 M 0 -36 rL SGR
GSN 3417 620 M 0  36 rL SGR
GSN 3417 1700 M 0 -36 rL SGR
GSN 3456 620 M 0  36 rL SGR
GSN 3456 1700 M 0 -36 rL SGR
GSN 3490 620 M 0  36 rL SGR
GSN 3490 1700 M 0 -36 rL SGR
GSN 3519 620 M 0  36 rL SGR
GSN 3519 1700 M 0 -36 rL SGR
GSN 3544 620 M 0  36 rL SGR
GSN 3544 1700 M 0 -36 rL SGR
GSN 3717 620 M 0  36 rL SGR
GSN 3717 1700 M 0 -36 rL SGR
GSN 3805 620 M 0  36 rL SGR
GSN 3805 1700 M 0 -36 rL SGR
GSN 3867 620 M 0  36 rL SGR
GSN 3867 1700 M 0 -36 rL SGR
GSN 3915 620 M 0  36 rL SGR
GSN 3915 1700 M 0 -36 rL SGR
GSN 3955 620 M 0  36 rL SGR
GSN 3955 1700 M 0 -36 rL SGR
GSN 3988 620 M 0  36 rL SGR
GSN 3988 1700 M 0 -36 rL SGR
GSN 4017 620 M 0  36 rL SGR
GSN 4017 1700 M 0 -36 rL SGR
GSN 4043 620 M 0  36 rL SGR
GSN 4043 1700 M 0 -36 rL SGR
GSN 4216 620 M 0  36 rL SGR
GSN 4216 1700 M 0 -36 rL SGR
%
% Y axis: large tics - residual frame
%
L10
GSN 620 792 M 54 0 rL SGR
GSN 4220 792 M -54 0 rL SGR
helvS (-0.02) 560 792 ylabelresid
GSN 620 1027 M 54 0 rL SGR
GSN 4220 1027 M -54 0 rL SGR
helvS (0) 560 1027 ylabelresid
GSN 620 1261 M 54 0 rL SGR
GSN 4220 1261 M -54 0 rL SGR
helvS (0.02) 560 1261 ylabelresid
GSN 620 1495 M 54 0 rL SGR
GSN 4220 1495 M -54 0 rL SGR
helvS (0.04) 560 1495 ylabelresid

%
% X axis - residual panel
%
GSN L5 620 1027 M 4220 1027 L SDA G50 SGR

end
showpage
%%Trailer
%%EOF
