%!PS-Adobe-3.0 EPSF-3.0
%%BoundingBox: 0 0 514 442
%%Creator: BioKin Ltd.
%%DocumentFonts: Symbol Helvetica
%%EndComments
%
/bkdict 256 dict def
bkdict begin
/M {moveto} def 
/R {rmoveto} def
/L {lineto} def
/rL {rlineto} def
/GSN {gsave newpath} def
/SGR {stroke grestore} def
/COSGR {gsave setrgbcolor stroke grestore grestore} def
/SL {setlinewidth} def
/LWMB {12} def             % line width - model curves, black & white
/LWMC {10} def             % line width - model curves, color
/L2 {2.5 setlinewidth} def
/L5 {5 setlinewidth} def
/L10 {10 setlinewidth} def
/G50 {0.5 setgray} def
/SDA {[10  20] 0 setdash} def % axes
/helvT {/Helvetica findfont 100 scalefont setfont} def % tiny
/helvS {/Helvetica findfont 125 scalefont setfont} def % small
/helvM {/Helvetica findfont 150 scalefont setfont} def % medium
/helvL {/Helvetica findfont 175 scalefont setfont} def % large
/xlabel {gsave M dup
   stringwidth exch -0.5 mul exch rmoveto show grestore} def 
/ylabel {gsave M 90 rotate dup
   stringwidth exch -0.5 mul exch rmoveto show grestore} def
/ylabelresid {gsave M dup
   stringwidth exch -1 mul exch rmoveto show grestore} def
% ======
% Shapes
% ======
% Circle:
/Circ {0 360 arc closepath} def
%
% Square:
/Squa {dup dup -0.5 mul dup dup R -2 mul 0 exch rL 1 mul 0 rL dup 0 exch -1 mul rL closepath} def
%
% Triangle Up:
/TriU {dup dup dup -0.4 mul exch -0.5 mul exch R dup 0.5 mul exch rL dup -1 mul exch 0.5 mul exch rL closepath} def 
%
% Triangle Down:
/TriD {dup dup dup 0.4 mul exch -0.5 mul exch R dup 0.5 mul exch -1 mul rL dup 0.5 mul exch rL closepath} def 
%
% Diamond:
/Diam {45 rotate Squa} def
% ======
% Fills
% ======
/GRF {gsave setgray fill grestore} def                    % gray-level Fill
/COF {gsave setrgbcolor fill grestore} def                % color fill
% ======
% Colors
% ======
/C01 {1.00	0.00	0.00} def      % Red
/C02 {0.00	0.00	1.00} def      % Blue
/C03 {0.00	0.39	0.00} def      % Dark Green
/C04 {0.78	0.08	0.52} def      % Medium Violet Red
/C05 {0.55	0.27	0.07} def      % Saddle Brown
/C06 {0.10	0.70	0.70} def      % (cyan)
/C07 {1.00	0.55	0.00} def      % Dark Orange
/C08 {0.63	0.13	0.94} def      % Purple
/C09 {0.00	0.75	1.00} def      % Deep Sky Blue
/C10 {0.20	0.80	0.20} def      % Lime Green
/C11 {0.47	0.53	0.60} def      % Light Slate Gray
/C12 {0.00	0.00	0.00} def      % Black            % or: {0.19	0.31	0.31} def      % Dark Slate Gray
%
/LGR {0.75} def % light gray
/DGR {0.33} def % dark gray
%
% =============
% Dash patterns
% =============
/dash01 { [80  20] 0 setdash } def
/dash02 { [40  20] 0 setdash } def
/dash03 { [80  20  10  20] 0 setdash } def
/dash04 { [40  20  10  20] 0 setdash } def
/dash05 { [80  20  10  10  10  20] 0 setdash } def
/dash06 { [40  20  10  10  10  20] 0 setdash } def
/dash07 { [10  10] 0 setdash } def
%
/MFshow {
   { dup 5 get 3 ge
     { 5 get 3 eq {gsave} {grestore} ifelse }
     {dup dup 0 get findfont exch 1 get scalefont setfont
     [ currentpoint ] exch dup 2 get 0 exch R dup 5 get 2 ne {dup dup 6
     get exch 4 get {show} {stringwidth pop 0 R} ifelse }if dup 5 get 0 eq
     {dup 3 get {2 get neg 0 exch R pop} {pop aload pop M} ifelse} {dup 5
     get 1 eq {dup 2 get exch dup 3 get exch 6 get stringwidth pop -2 div
     dup 0 R} {dup 6 get stringwidth pop -2 div 0 R 6 get
     show 2 index {aload pop M neg 3 -1 roll neg R pop pop} {pop pop pop
     pop aload pop M} ifelse }ifelse }ifelse }
     ifelse }
   forall} bind def
/MFwidth {0 exch {dup 3 get{dup dup 0 get findfont exch 1 get scalefont
     setfont 6 get stringwidth pop add} {pop} ifelse} forall} bind def
/MCshow { currentpoint stroke M
  exch dup MFwidth -2 div 3 -1 roll R MFshow } def
%
end
%%EndProlog
bkdict begin
0.1 0.1 scale
%
% Model curves:
%

GSN 753 3526 M
770 3526 L
803 3526 L
837 3525 L
870 3524 L
903 3524 L
924 3523 L
941 3523 L
970 3523 L
1003 3523 L
1037 3523 L
1070 3523 L
1096 3523 L
1113 3523 L
1137 3523 L
1170 3523 L
1203 3523 L
1237 3523 L
1268 3523 L
1284 3523 L
1303 3523 L
1337 3523 L
1370 3523 L
1403 3524 L
1437 3524 L
1456 3524 L
1473 3524 L
1503 3524 L
1537 3524 L
1570 3525 L
1603 3525 L
1628 3525 L
1644 3526 L
1670 3526 L
1703 3526 L
1737 3527 L
1770 3527 L
1799 3528 L
1816 3529 L
1837 3529 L
1870 3530 L
1903 3531 L
1937 3532 L
1970 3533 L
1987 3535 L
2004 3535 L
2037 3537 L
2070 3539 L
2103 3541 L
2137 3544 L
2159 3546 L
2176 3548 L
2203 3550 L
2237 3553 L
2270 3557 L
2303 3562 L
2331 3567 L
2347 3571 L
2370 3573 L
2403 3580 L
2437 3587 L
2470 3595 L
2503 3604 L
2519 3614 L
2537 3614 L
2570 3625 L
2603 3638 L
2637 3651 L
2670 3665 L
2690 3681 L
2707 3685 L
2737 3698 L
2770 3715 L
2803 3734 L
2837 3754 L
2862 3774 L
2879 3786 L
2903 3796 L
2937 3817 L
2970 3839 L
3003 3860 L
3034 3882 L
3050 3899 L
3070 3902 L
3103 3922 L
3137 3940 L
3170 3957 L
3203 3972 L
3222 3986 L
3239 3988 L
3270 3998 L
3303 4008 L
3337 4016 L
3370 4022 L
3393 4027 L
3410 4028 L
3437 4030 L
3464 4032 L
3481 4032 L
3503 4032 L
3537 4032 L
3565 4031 L
3582 4031 L
3603 4030 L
3637 4029 L
3670 4027 L
3703 4026 L
3737 4025 L
3753 4024 L
3770 4024 L
3803 4024 L
3837 4023 L
3870 4023 L
3903 4023 L
3925 4023 L
3942 4023 L
3970 4023 L
4003 4023 L
4037 4023 L
4070 4023 L
4086 4023 L
LWMC SL dash01 C01 COSGR

GSN 753 3026 M
770 3026 L
803 3024 L
837 3023 L
870 3021 L
903 3020 L
924 3020 L
941 3019 L
970 3019 L
1003 3019 L
1037 3019 L
1070 3019 L
1096 3019 L
1113 3019 L
1137 3019 L
1170 3019 L
1203 3019 L
1237 3019 L
1268 3019 L
1284 3020 L
1303 3020 L
1337 3020 L
1370 3020 L
1403 3021 L
1437 3021 L
1456 3022 L
1473 3022 L
1503 3022 L
1537 3023 L
1570 3024 L
1603 3025 L
1628 3026 L
1644 3026 L
1670 3027 L
1703 3028 L
1737 3030 L
1770 3031 L
1799 3033 L
1816 3035 L
1837 3035 L
1870 3038 L
1903 3041 L
1937 3044 L
1970 3047 L
1987 3051 L
2004 3052 L
2037 3056 L
2070 3061 L
2103 3067 L
2137 3074 L
2159 3081 L
2176 3084 L
2203 3090 L
2237 3100 L
2270 3110 L
2303 3122 L
2331 3136 L
2347 3145 L
2370 3151 L
2403 3167 L
2437 3186 L
2470 3206 L
2503 3229 L
2519 3252 L
2537 3253 L
2570 3280 L
2603 3309 L
2637 3340 L
2670 3373 L
2690 3409 L
2707 3418 L
2737 3446 L
2770 3485 L
2803 3525 L
2837 3567 L
2862 3609 L
2879 3631 L
2903 3651 L
2937 3692 L
2970 3733 L
3003 3772 L
3034 3809 L
3050 3839 L
3070 3844 L
3103 3877 L
3137 3906 L
3170 3932 L
3203 3955 L
3222 3975 L
3239 3977 L
3270 3992 L
3303 4005 L
3337 4016 L
3370 4024 L
3393 4029 L
3410 4031 L
3437 4033 L
3464 4034 L
3481 4035 L
3503 4035 L
3537 4034 L
3565 4033 L
3582 4032 L
3603 4031 L
3637 4030 L
3670 4028 L
3703 4026 L
3737 4025 L
3753 4024 L
3770 4024 L
3803 4024 L
3837 4023 L
3870 4023 L
3903 4023 L
3925 4023 L
3942 4023 L
3970 4023 L
4003 4023 L
4037 4023 L
4070 4023 L
4086 4023 L
LWMC SL dash02 C02 COSGR

GSN 753 2532 M
770 2532 L
803 2529 L
837 2527 L
870 2525 L
903 2524 L
924 2522 L
941 2522 L
970 2522 L
1003 2521 L
1037 2521 L
1070 2521 L
1096 2521 L
1113 2521 L
1137 2521 L
1170 2522 L
1203 2522 L
1237 2522 L
1268 2523 L
1284 2523 L
1303 2523 L
1337 2524 L
1370 2524 L
1403 2525 L
1437 2526 L
1456 2527 L
1473 2527 L
1503 2528 L
1537 2529 L
1570 2531 L
1603 2533 L
1628 2534 L
1644 2535 L
1670 2536 L
1703 2539 L
1737 2542 L
1770 2545 L
1799 2548 L
1816 2551 L
1837 2552 L
1870 2557 L
1903 2562 L
1937 2568 L
1970 2575 L
1987 2582 L
2004 2583 L
2037 2591 L
2070 2600 L
2103 2611 L
2137 2624 L
2159 2637 L
2176 2643 L
2203 2653 L
2237 2670 L
2270 2690 L
2303 2712 L
2331 2736 L
2347 2753 L
2370 2763 L
2403 2792 L
2437 2825 L
2470 2861 L
2503 2900 L
2519 2940 L
2537 2942 L
2570 2988 L
2603 3037 L
2637 3090 L
2670 3145 L
2690 3203 L
2707 3217 L
2737 3263 L
2770 3325 L
2803 3387 L
2837 3451 L
2862 3513 L
2879 3547 L
2903 3575 L
2937 3635 L
2970 3693 L
3003 3747 L
3034 3797 L
3050 3836 L
3070 3843 L
3103 3884 L
3137 3921 L
3170 3953 L
3203 3979 L
3222 4002 L
3239 4004 L
3270 4019 L
3303 4033 L
3337 4042 L
3370 4048 L
3393 4051 L
3410 4052 L
3437 4052 L
3464 4051 L
3481 4049 L
3503 4048 L
3537 4044 L
3565 4040 L
3582 4038 L
3603 4037 L
3637 4033 L
3670 4030 L
3703 4028 L
3737 4026 L
3753 4025 L
3770 4025 L
3803 4024 L
3837 4023 L
3870 4023 L
3903 4023 L
3925 4023 L
3942 4023 L
3970 4023 L
4003 4023 L
4037 4023 L
4070 4023 L
4086 4023 L
LWMC SL dash03 C03 COSGR

GSN 753 2061 M
770 2061 L
803 2058 L
837 2055 L
870 2052 L
903 2051 L
924 2049 L
941 2049 L
970 2048 L
1003 2048 L
1037 2047 L
1070 2047 L
1096 2047 L
1113 2048 L
1137 2048 L
1170 2048 L
1203 2049 L
1237 2049 L
1268 2050 L
1284 2051 L
1303 2051 L
1337 2052 L
1370 2053 L
1403 2054 L
1437 2055 L
1456 2057 L
1473 2057 L
1503 2059 L
1537 2061 L
1570 2063 L
1603 2065 L
1628 2068 L
1644 2070 L
1670 2072 L
1703 2075 L
1737 2080 L
1770 2085 L
1799 2090 L
1816 2095 L
1837 2096 L
1870 2104 L
1903 2112 L
1937 2121 L
1970 2131 L
1987 2143 L
2004 2144 L
2037 2156 L
2070 2171 L
2103 2188 L
2137 2207 L
2159 2228 L
2176 2237 L
2203 2252 L
2237 2279 L
2270 2309 L
2303 2342 L
2331 2378 L
2347 2405 L
2370 2419 L
2403 2464 L
2437 2512 L
2470 2566 L
2503 2623 L
2519 2683 L
2537 2686 L
2570 2752 L
2603 2823 L
2637 2898 L
2670 2976 L
2690 3057 L
2707 3077 L
2737 3140 L
2770 3224 L
2803 3308 L
2837 3392 L
2862 3474 L
2879 3517 L
2903 3553 L
2937 3628 L
2970 3699 L
3003 3764 L
3034 3823 L
3050 3867 L
3070 3875 L
3103 3921 L
3137 3960 L
3170 3992 L
3203 4018 L
3222 4038 L
3239 4040 L
3270 4051 L
3303 4060 L
3337 4065 L
3370 4065 L
3393 4064 L
3410 4062 L
3437 4060 L
3464 4055 L
3481 4052 L
3503 4050 L
3537 4045 L
3565 4040 L
3582 4037 L
3603 4036 L
3637 4032 L
3670 4029 L
3703 4027 L
3737 4025 L
3753 4024 L
3770 4024 L
3803 4024 L
3837 4023 L
3870 4023 L
3903 4023 L
3925 4023 L
3942 4023 L
3970 4023 L
4003 4023 L
4037 4023 L
4070 4023 L
4086 4023 L
LWMC SL dash04 C04 COSGR

GSN 753 1839 M
770 1839 L
803 1835 L
837 1832 L
870 1829 L
903 1827 L
924 1825 L
941 1825 L
970 1824 L
1003 1824 L
1037 1823 L
1070 1823 L
1096 1824 L
1113 1824 L
1137 1824 L
1170 1825 L
1203 1825 L
1237 1826 L
1268 1827 L
1284 1828 L
1303 1828 L
1337 1829 L
1370 1830 L
1403 1832 L
1437 1833 L
1456 1835 L
1473 1835 L
1503 1837 L
1537 1839 L
1570 1842 L
1603 1845 L
1628 1849 L
1644 1851 L
1670 1853 L
1703 1857 L
1737 1862 L
1770 1868 L
1799 1875 L
1816 1881 L
1837 1882 L
1870 1891 L
1903 1901 L
1937 1912 L
1970 1924 L
1987 1938 L
2004 1939 L
2037 1954 L
2070 1972 L
2103 1992 L
2137 2014 L
2159 2040 L
2176 2050 L
2203 2068 L
2237 2100 L
2270 2135 L
2303 2174 L
2331 2218 L
2347 2248 L
2370 2265 L
2403 2318 L
2437 2375 L
2470 2438 L
2503 2505 L
2519 2574 L
2537 2578 L
2570 2655 L
2603 2737 L
2637 2822 L
2670 2912 L
2690 3004 L
2707 3027 L
2737 3098 L
2770 3192 L
2803 3287 L
2837 3380 L
2862 3470 L
2879 3517 L
2903 3556 L
2937 3638 L
2970 3713 L
3003 3782 L
3034 3844 L
3050 3889 L
3070 3897 L
3103 3944 L
3137 3982 L
3170 4012 L
3203 4036 L
3222 4052 L
3239 4054 L
3270 4063 L
3303 4069 L
3337 4070 L
3370 4069 L
3393 4065 L
3410 4063 L
3437 4061 L
3464 4055 L
3481 4051 L
3503 4049 L
3537 4044 L
3565 4039 L
3582 4036 L
3603 4035 L
3637 4032 L
3670 4029 L
3703 4027 L
3737 4025 L
3753 4024 L
3770 4024 L
3803 4024 L
3837 4023 L
3870 4023 L
3903 4023 L
3925 4023 L
3942 4023 L
3970 4023 L
4003 4023 L
4037 4023 L
4070 4023 L
4086 4023 L
LWMC SL dash05 C05 COSGR

GSN 753 1581 M
770 1581 L
803 1577 L
837 1573 L
870 1570 L
903 1568 L
924 1566 L
941 1566 L
970 1565 L
1003 1564 L
1037 1564 L
1070 1564 L
1096 1565 L
1113 1565 L
1137 1565 L
1170 1566 L
1203 1566 L
1237 1567 L
1268 1568 L
1284 1569 L
1303 1570 L
1337 1571 L
1370 1572 L
1403 1574 L
1437 1576 L
1456 1578 L
1473 1579 L
1503 1581 L
1537 1584 L
1570 1587 L
1603 1591 L
1628 1595 L
1644 1597 L
1670 1600 L
1703 1605 L
1737 1611 L
1770 1618 L
1799 1626 L
1816 1633 L
1837 1636 L
1870 1646 L
1903 1658 L
1937 1671 L
1970 1686 L
1987 1703 L
2004 1704 L
2037 1722 L
2070 1743 L
2103 1767 L
2137 1794 L
2159 1825 L
2176 1837 L
2203 1859 L
2237 1897 L
2270 1939 L
2303 1986 L
2331 2037 L
2347 2074 L
2370 2094 L
2403 2156 L
2437 2224 L
2470 2297 L
2503 2377 L
2519 2457 L
2537 2461 L
2570 2551 L
2603 2646 L
2637 2745 L
2670 2848 L
2690 2953 L
2707 2979 L
2737 3059 L
2770 3166 L
2803 3272 L
2837 3374 L
2862 3473 L
2879 3525 L
2903 3567 L
2937 3655 L
2970 3735 L
3003 3807 L
3034 3870 L
3050 3916 L
3070 3924 L
3103 3969 L
3137 4005 L
3170 4033 L
3203 4052 L
3222 4065 L
3239 4067 L
3270 4073 L
3303 4075 L
3337 4074 L
3370 4071 L
3393 4066 L
3410 4064 L
3437 4060 L
3464 4055 L
3481 4051 L
3503 4049 L
3537 4044 L
3565 4039 L
3582 4036 L
3603 4035 L
3637 4031 L
3670 4029 L
3703 4027 L
3737 4025 L
3753 4024 L
3770 4024 L
3803 4024 L
3837 4023 L
3870 4023 L
3903 4023 L
3925 4023 L
3942 4023 L
3970 4023 L
4003 4023 L
4037 4023 L
4070 4023 L
4086 4023 L
LWMC SL dash06 C06 COSGR

GSN 753 774 M
770 774 L
803 769 L
837 764 L
870 761 L
903 758 L
924 755 L
941 755 L
970 754 L
1003 753 L
1037 753 L
1070 753 L
1096 754 L
1113 754 L
1137 754 L
1170 756 L
1203 757 L
1237 758 L
1268 760 L
1284 762 L
1303 762 L
1337 764 L
1370 766 L
1403 769 L
1437 773 L
1456 776 L
1473 777 L
1503 780 L
1537 785 L
1570 790 L
1603 797 L
1628 803 L
1644 807 L
1670 811 L
1703 820 L
1737 831 L
1770 842 L
1799 855 L
1816 867 L
1837 870 L
1870 887 L
1903 906 L
1937 928 L
1970 952 L
1987 979 L
2004 981 L
2037 1010 L
2070 1045 L
2103 1084 L
2137 1127 L
2159 1176 L
2176 1195 L
2203 1230 L
2237 1291 L
2270 1357 L
2303 1431 L
2331 1512 L
2347 1569 L
2370 1600 L
2403 1696 L
2437 1800 L
2470 1912 L
2503 2031 L
2519 2150 L
2537 2156 L
2570 2289 L
2603 2426 L
2637 2567 L
2670 2711 L
2690 2856 L
2707 2892 L
2737 3000 L
2770 3141 L
2803 3277 L
2837 3406 L
2862 3526 L
2879 3587 L
2903 3636 L
2937 3734 L
2970 3820 L
3003 3893 L
3034 3953 L
3050 3993 L
3070 4000 L
3103 4035 L
3137 4059 L
3170 4075 L
3203 4083 L
3222 4086 L
3239 4086 L
3270 4085 L
3303 4082 L
3337 4077 L
3370 4071 L
3393 4065 L
3410 4062 L
3437 4059 L
3464 4053 L
3481 4049 L
3503 4048 L
3537 4043 L
3565 4038 L
3582 4035 L
3603 4034 L
3637 4031 L
3670 4029 L
3703 4027 L
3737 4025 L
3753 4024 L
3770 4024 L
3803 4024 L
3837 4023 L
3870 4023 L
3903 4023 L
3925 4023 L
3942 4023 L
3970 4023 L
4003 4023 L
4037 4023 L
4070 4023 L
4086 4023 L
LWMC SL dash07 C07 COSGR

%
%================
% Legend - Begin
%================
%
GSN 4240 4040 M
4480 4040 L
LWMC SL dash01 C01 COSGR
GSN 4540 4001 M helvM (0.5 uM) show grestore
GSN 4240 3860 M
4480 3860 L
LWMC SL dash02 C02 COSGR
GSN 4540 3821 M helvM (1.0 uM) show grestore
GSN 4240 3680 M
4480 3680 L
LWMC SL dash03 C03 COSGR
GSN 4540 3641 M helvM (1.5 uM) show grestore
GSN 4240 3500 M
4480 3500 L
LWMC SL dash04 C04 COSGR
GSN 4540 3461 M helvM (2.0 uM) show grestore
GSN 4240 3320 M
4480 3320 L
LWMC SL dash05 C05 COSGR
GSN 4540 3281 M helvM (2.5 uM) show grestore
GSN 4240 3140 M
4480 3140 L
LWMC SL dash06 C06 COSGR
GSN 4540 3101 M helvM (3.0 uM) show grestore
GSN 4240 2960 M
4480 2960 L
LWMC SL dash07 C07 COSGR
GSN 4540 2921 M helvM (4.0 uM) show grestore
%
%================
% Legend - End
%================
%

%
% Main frame
%
L10
GSN 
620 620 M
4220 620 L
4220 4220 L
620 4220 L
closepath SGR

%
% X axis: large tics
%
L10
GSN 1130 620 M 0  54 rL SGR
GSN 1130 4220 M 0 -54 rL SGR
helvS (0.0001) 1130 470 xlabel
GSN 1716 620 M 0  54 rL SGR
GSN 1716 4220 M 0 -54 rL SGR
helvS (0.001) 1716 470 xlabel
GSN 2303 620 M 0  54 rL SGR
GSN 2303 4220 M 0 -54 rL SGR
helvS (0.01) 2303 470 xlabel
GSN 2889 620 M 0  54 rL SGR
GSN 2889 4220 M 0 -54 rL SGR
helvS (0.1) 2889 470 xlabel
GSN 3476 620 M 0  54 rL SGR
GSN 3476 4220 M 0 -54 rL SGR
helvS (1) 3476 470 xlabel
GSN 4062 620 M 0  54 rL SGR
GSN 4062 4220 M 0 -54 rL SGR
helvS (10) 4062 470 xlabel
%
% X axis: small tics
%
L5
GSN 720 620 M 0  36 rL SGR
GSN 720 4220 M 0 -36 rL SGR
GSN 824 620 M 0  36 rL SGR
GSN 824 4220 M 0 -36 rL SGR
GSN 897 620 M 0  36 rL SGR
GSN 897 4220 M 0 -36 rL SGR
GSN 954 620 M 0  36 rL SGR
GSN 954 4220 M 0 -36 rL SGR
GSN 1000 620 M 0  36 rL SGR
GSN 1000 4220 M 0 -36 rL SGR
GSN 1039 620 M 0  36 rL SGR
GSN 1039 4220 M 0 -36 rL SGR
GSN 1073 620 M 0  36 rL SGR
GSN 1073 4220 M 0 -36 rL SGR
GSN 1103 620 M 0  36 rL SGR
GSN 1103 4220 M 0 -36 rL SGR
GSN 1307 620 M 0  36 rL SGR
GSN 1307 4220 M 0 -36 rL SGR
GSN 1410 620 M 0  36 rL SGR
GSN 1410 4220 M 0 -36 rL SGR
GSN 1483 620 M 0  36 rL SGR
GSN 1483 4220 M 0 -36 rL SGR
GSN 1540 620 M 0  36 rL SGR
GSN 1540 4220 M 0 -36 rL SGR
GSN 1586 620 M 0  36 rL SGR
GSN 1586 4220 M 0 -36 rL SGR
GSN 1626 620 M 0  36 rL SGR
GSN 1626 4220 M 0 -36 rL SGR
GSN 1660 620 M 0  36 rL SGR
GSN 1660 4220 M 0 -36 rL SGR
GSN 1690 620 M 0  36 rL SGR
GSN 1690 4220 M 0 -36 rL SGR
GSN 1893 620 M 0  36 rL SGR
GSN 1893 4220 M 0 -36 rL SGR
GSN 1996 620 M 0  36 rL SGR
GSN 1996 4220 M 0 -36 rL SGR
GSN 2069 620 M 0  36 rL SGR
GSN 2069 4220 M 0 -36 rL SGR
GSN 2126 620 M 0  36 rL SGR
GSN 2126 4220 M 0 -36 rL SGR
GSN 2173 620 M 0  36 rL SGR
GSN 2173 4220 M 0 -36 rL SGR
GSN 2212 620 M 0  36 rL SGR
GSN 2212 4220 M 0 -36 rL SGR
GSN 2246 620 M 0  36 rL SGR
GSN 2246 4220 M 0 -36 rL SGR
GSN 2276 620 M 0  36 rL SGR
GSN 2276 4220 M 0 -36 rL SGR
GSN 2479 620 M 0  36 rL SGR
GSN 2479 4220 M 0 -36 rL SGR
GSN 2583 620 M 0  36 rL SGR
GSN 2583 4220 M 0 -36 rL SGR
GSN 2656 620 M 0  36 rL SGR
GSN 2656 4220 M 0 -36 rL SGR
GSN 2713 620 M 0  36 rL SGR
GSN 2713 4220 M 0 -36 rL SGR
GSN 2759 620 M 0  36 rL SGR
GSN 2759 4220 M 0 -36 rL SGR
GSN 2798 620 M 0  36 rL SGR
GSN 2798 4220 M 0 -36 rL SGR
GSN 2832 620 M 0  36 rL SGR
GSN 2832 4220 M 0 -36 rL SGR
GSN 2862 620 M 0  36 rL SGR
GSN 2862 4220 M 0 -36 rL SGR
GSN 3066 620 M 0  36 rL SGR
GSN 3066 4220 M 0 -36 rL SGR
GSN 3169 620 M 0  36 rL SGR
GSN 3169 4220 M 0 -36 rL SGR
GSN 3242 620 M 0  36 rL SGR
GSN 3242 4220 M 0 -36 rL SGR
GSN 3299 620 M 0  36 rL SGR
GSN 3299 4220 M 0 -36 rL SGR
GSN 3345 620 M 0  36 rL SGR
GSN 3345 4220 M 0 -36 rL SGR
GSN 3385 620 M 0  36 rL SGR
GSN 3385 4220 M 0 -36 rL SGR
GSN 3419 620 M 0  36 rL SGR
GSN 3419 4220 M 0 -36 rL SGR
GSN 3449 620 M 0  36 rL SGR
GSN 3449 4220 M 0 -36 rL SGR
GSN 3652 620 M 0  36 rL SGR
GSN 3652 4220 M 0 -36 rL SGR
GSN 3755 620 M 0  36 rL SGR
GSN 3755 4220 M 0 -36 rL SGR
GSN 3829 620 M 0  36 rL SGR
GSN 3829 4220 M 0 -36 rL SGR
GSN 3885 620 M 0  36 rL SGR
GSN 3885 4220 M 0 -36 rL SGR
GSN 3932 620 M 0  36 rL SGR
GSN 3932 4220 M 0 -36 rL SGR
GSN 3971 620 M 0  36 rL SGR
GSN 3971 4220 M 0 -36 rL SGR
GSN 4005 620 M 0  36 rL SGR
GSN 4005 4220 M 0 -36 rL SGR
GSN 4035 620 M 0  36 rL SGR
GSN 4035 4220 M 0 -36 rL SGR
%
% Y axis: large tics
%
L10
GSN 620 1038 M 54 0 rL SGR
GSN 4220 1038 M -54 0 rL SGR
helvS (-1.5) 560 1038 ylabel
GSN 620 2033 M 54 0 rL SGR
GSN 4220 2033 M -54 0 rL SGR
helvS (-1) 560 2033 ylabel
GSN 620 3028 M 54 0 rL SGR
GSN 4220 3028 M -54 0 rL SGR
helvS (-0.5) 560 3028 ylabel
GSN 620 4023 M 54 0 rL SGR
GSN 4220 4023 M -54 0 rL SGR
helvS (0) 560 4023 ylabel
%
% Y axis: small tics
%
L5
GSN 620 640 M 36 0 rL SGR
GSN 4220 640 M -36 0 rL SGR
GSN 620 839 M 36 0 rL SGR
GSN 4220 839 M -36 0 rL SGR
GSN 620 1038 M 36 0 rL SGR
GSN 4220 1038 M -36 0 rL SGR
GSN 620 1237 M 36 0 rL SGR
GSN 4220 1237 M -36 0 rL SGR
GSN 620 1436 M 36 0 rL SGR
GSN 4220 1436 M -36 0 rL SGR
GSN 620 1635 M 36 0 rL SGR
GSN 4220 1635 M -36 0 rL SGR
GSN 620 1834 M 36 0 rL SGR
GSN 4220 1834 M -36 0 rL SGR
GSN 620 2033 M 36 0 rL SGR
GSN 4220 2033 M -36 0 rL SGR
GSN 620 2232 M 36 0 rL SGR
GSN 4220 2232 M -36 0 rL SGR
GSN 620 2431 M 36 0 rL SGR
GSN 4220 2431 M -36 0 rL SGR
GSN 620 2630 M 36 0 rL SGR
GSN 4220 2630 M -36 0 rL SGR
GSN 620 2829 M 36 0 rL SGR
GSN 4220 2829 M -36 0 rL SGR
GSN 620 3028 M 36 0 rL SGR
GSN 4220 3028 M -36 0 rL SGR
GSN 620 3227 M 36 0 rL SGR
GSN 4220 3227 M -36 0 rL SGR
GSN 620 3426 M 36 0 rL SGR
GSN 4220 3426 M -36 0 rL SGR
GSN 620 3625 M 36 0 rL SGR
GSN 4220 3625 M -36 0 rL SGR
GSN 620 3824 M 36 0 rL SGR
GSN 4220 3824 M -36 0 rL SGR
GSN 620 4023 M 36 0 rL SGR
GSN 4220 4023 M -36 0 rL SGR

%
% X axis
%
GSN L5 620 4023 M 4220 4023 L SDA G50 SGR

%
% X-Axis label:
%
gsave 2420 290 M 
[
[(Helvetica) 180 0 true true 0 (t)]
[(Helvetica) 180 0 true true 0 (i)]
[(Helvetica) 180 0 true true 0 (m)]
[(Helvetica) 180 0 true true 0 (e)]
] 0 MCshow grestore

%
% Y-Axis label:
%
gsave 234 2420 M 
currentpoint gsave translate 90 rotate 0 0 moveto
[
[(Helvetica) 180 0 true true 0 (d)]
[(Helvetica) 180 0 true true 0 (\()]
[(Helvetica) 180 0 true true 0 (s)]
[(Helvetica) 180 0 true true 0 (i)]
[(Helvetica) 180 0 true true 0 (g)]
[(Helvetica) 180 0 true true 0 (n)]
[(Helvetica) 180 0 true true 0 (a)]
[(Helvetica) 180 0 true true 0 (l)]
[(Helvetica) 180 0 true true 0 (\))]
[(Helvetica) 180 0 true true 0 ( )]
[(Helvetica) 180 0 true true 0 (/)]
[(Helvetica) 180 0 true true 0 ( )]
[(Helvetica) 180 0 true true 0 (d)]
[(Helvetica) 180 0 true true 0 (t)]
] 0 MCshow grestore

end
showpage
%%Trailer
%%EOF
