
===================================================
Least squares Minimization - Trust Region Algorithm
===================================================

Optimized parameters:

     1 	 k.1
     2 	 k.-1
     3 	 k.cat
     4 	 r(E)
     5 	 r(E.S1)
     6 	 r(E.P)
     7 	 [E]#1
     8 	 [S]#1
     9 	 offset#1
    10 	 [E]#2
    11 	 [S]#2
    12 	 offset#2
    13 	 [E]#3
    14 	 [S]#3
    15 	 offset#3
    16 	 [E]#4
    17 	 [S]#4
    18 	 offset#4
    19 	 [E]#5
    20 	 [S]#5
    21 	 offset#5
    22 	 [E]#6
    23 	 [S]#6
    24 	 offset#6
    25 	 [E]#7
    26 	 [S]#7
    27 	 offset#7

:: NL2SOL :: DNLAFB
:: Analytic Jacobian; Constrained

________________________________________________________________________

:: Initial Estimate

     i	     Param p(i)	            Min	            Max
     1	     0.00207418	         1e-006	         1e+006
     2	        85227.1	         1e-012	         1e+006
     3	       0.003805	         1e-006	         1e+006
     4	           0.31	       3.1e-007	         310000
     5	           0.22	       2.2e-007	         220000
     6	           0.25	       2.5e-007	         250000
     7	              1	       0.909091	            1.1
     8	            0.5	       0.454545	           0.55
     9	         1.1793	       -10.6137	        12.9723
    10	              1	       0.909091	            1.1
    11	              1	       0.909091	            1.1
    12	        1.14325	       -10.6497	        12.9363
    13	              1	       0.909091	            1.1
    14	            1.5	        1.36364	           1.65
    15	        1.10351	       -10.6895	        12.8965
    16	              1	       0.909091	            1.1
    17	              2	        1.81818	            2.2
    18	        1.07103	        -10.722	         12.864
    19	              1	       0.909091	            1.1
    20	            2.5	        2.27273	           2.75
    21	        1.02909	       -10.7639	        12.8221
    22	              1	       0.909091	            1.1
    23	              3	        2.72727	            3.3
    24	        0.97752	       -10.8155	        12.7705
    25	              1	       0.909091	            1.1
    26	              4	        3.63636	            4.4
    27	        0.95791	       -10.8351	        12.7509

:: Iterations

     i	 FEval	   F(i) = SSQ	   Param( 1)	   Param( 2)	   Param( 3)	   Param( 4)	   Param( 5)	   Param( 6)	   Param( 7)	   Param( 8)	   Param( 9)	   Param(10)	   Param(11)	   Param(12)	   Param(13)	   Param(14)	   Param(15)	   Param(16)	   Param(17)	   Param(18)	   Param(19)	   Param(20)	   Param(21)	   Param(22)	   Param(23)	   Param(24)	   Param(25)	   Param(26)	   Param(27)	
     0	     1	       487.08	    0.0020742	        85227	     0.003805	         0.31	         0.22	         0.25	            1	          0.5	       1.1793	            1	            1	       1.1433	            1	          1.5	       1.1035	            1	            2	        1.071	            1	          2.5	       1.0291	            1	            3	      0.97752	            1	            4	      0.95791	
     1	     2	      0.60696	       1.6706	        85227	      0.81296	    0.0052698	      0.21568	      0.19868	      0.98818	      0.50006	       1.1411	      0.98736	       1.0006	       1.1005	      0.98496	       1.5004	       1.0529	        0.982	       2.0003	       1.0113	      0.98195	       2.5001	      0.96971	      0.98515	            3	      0.92966	      0.98215	       4.0003	      0.89613	
     2	     3	      0.56707	     0.037541	        85227	      0.72209	     0.019173	      0.17206	     2.5e-007	      0.90922	      0.49212	       1.1287	      0.90909	      0.90909	         1.09	      0.90909	       1.3636	       1.0388	      0.93689	       1.8578	      0.99687	       1.0766	       2.5763	      0.95373	          1.1	       3.0332	       0.9118	      0.90909	       3.9597	      0.87759	
     3	     4	      0.54752	       1.5838	        85227	      0.80851	      0.34229	      0.17843	     2.5e-007	      0.90909	      0.49301	      0.82977	      0.90909	      0.92088	      0.78823	      0.90909	       1.3719	       0.7415	      0.95067	       1.8623	      0.68966	          1.1	       2.5782	      0.59945	       1.0998	       3.0323	      0.55429	      0.90945	       3.9654	      0.58532	
     4	     5	      0.53672	       1.9985	        85227	       0.7949	      0.39456	     0.095534	     2.5e-007	      0.90909	       0.5131	      0.78348	      0.90909	      0.92088	      0.74234	      0.90909	       1.3719	      0.69334	      0.95067	       2.0462	      0.63857	       0.9568	       2.4936	      0.58864	       1.0998	       3.0323	      0.49635	       1.0083	       4.0611	       0.5035	
     5	     7	      0.51358	        2.036	        85227	      0.88907	      0.41728	     0.095333	     2.5e-007	      0.90909	      0.51584	      0.76306	      0.90909	      0.92223	      0.72259	      0.90909	       1.3704	      0.67406	      0.95926	       2.0552	      0.61128	      0.96155	       2.4944	      0.57039	       1.0994	        3.039	      0.47171	       1.0456	       4.0745	      0.46065	
     6	     8	      0.51227	       2.0757	        85227	      0.95896	      0.42201	     0.094529	     2.5e-007	      0.90909	      0.51731	      0.75903	      0.93746	      0.96306	      0.70651	      0.93439	       1.3959	      0.65915	       0.9726	       2.0652	      0.60106	      0.96136	        2.494	      0.56545	       1.0656	       3.0228	      0.48075	       1.0556	       4.0816	      0.45128	
     7	     9	      0.51186	        2.146	        85227	       1.0472	      0.42992	      0.09457	     2.5e-007	      0.90909	       0.5207	      0.75192	       1.0248	       1.0848	      0.66223	       1.0097	       1.4698	      0.62006	       1.0061	       2.0899	      0.57925	      0.94919	       2.4878	      0.56271	      0.96766	       2.9725	      0.51382	       1.0697	       4.0918	      0.43697	
     8	    10	      0.51083	       2.2016	        85227	       1.1149	      0.43557	     0.098321	     2.5e-007	      0.90909	       0.5235	      0.74683	       1.0248	       1.0848	        0.656	       1.0835	       1.5437	      0.58262	       1.0339	       2.1106	      0.56158	      0.93315	       2.4789	      0.56406	      0.96766	       2.9241	      0.50881	       1.0783	       4.0943	      0.42712	
     9	    12	      0.51021	       2.2477	        85227	       1.1653	      0.44009	      0.10294	     2.5e-007	      0.90911	       0.5263	      0.74273	       1.0361	          1.1	      0.64633	       1.0924	        1.635	      0.57378	       1.0613	       2.1318	      0.54492	      0.91157	       2.4664	      0.56909	      0.96766	       2.8623	      0.50464	       1.0833	       4.0907	      0.42003	
    10	    15	       0.5098	       2.2478	        85227	       1.1653	      0.44009	      0.10294	     2.5e-007	      0.90911	       0.5263	      0.74273	       1.0361	          1.1	      0.64638	       1.0918	        1.635	      0.57334	       1.0612	       2.1318	      0.54479	      0.91156	       2.4664	      0.56878	      0.96713	       2.8623	      0.50514	       1.0834	       4.0907	      0.42036	
    11	    17	      0.50969	       2.2478	        85227	       1.1654	      0.44014	      0.10294	     2.5e-007	      0.90909	       0.5263	      0.74269	       1.0361	          1.1	      0.64611	       1.0919	        1.635	      0.57337	       1.0612	       2.1318	      0.54455	      0.91154	       2.4664	       0.5688	      0.96709	       2.8622	      0.50543	       1.0834	       4.0907	      0.42025	
    12	    22	      0.50963	       2.2528	        85227	       1.1747	      0.44064	      0.10291	     2.5e-007	      0.90909	      0.52649	      0.74224	       1.0436	          1.1	      0.64232	        1.098	        1.641	      0.57016	       1.0631	       2.1333	      0.54319	      0.91012	       2.4657	      0.56897	       0.9591	       2.8584	      0.50845	       1.0843	       4.0907	      0.41931	
    13	    24	      0.50949	       2.2679	        85227	       1.2001	      0.44212	      0.10281	     2.5e-007	      0.90909	      0.52709	       0.7409	         1.07	          1.1	      0.62914	        1.098	        1.641	      0.56854	       1.0692	       2.1381	      0.53894	      0.91012	        2.463	      0.56764	      0.93117	       2.8449	      0.51934	       1.0868	       4.0896	      0.41662	
    14	    26	      0.50948	        2.268	        85227	       1.2002	      0.44214	       0.1028	     2.5e-007	      0.90909	      0.52709	      0.74088	       1.0701	          1.1	      0.62905	        1.098	       1.6411	      0.56853	       1.0692	       2.1382	       0.5389	      0.91012	        2.463	      0.56763	      0.93117	       2.8448	      0.51934	       1.0868	       4.0896	      0.41662	
    15	    28	      0.50946	       2.2702	        85227	       1.2043	      0.44239	      0.10279	     2.5e-007	      0.90909	      0.52717	      0.74066	       1.0736	          1.1	      0.62723	        1.098	        1.644	      0.56825	         1.07	       2.1388	      0.53828	      0.91012	       2.4626	      0.56741	      0.92738	       2.8431	       0.5208	       1.0872	       4.0895	      0.41619	
    16	    30	       0.5094	       2.2768	        85227	        1.216	        0.443	      0.10274	     2.5e-007	      0.90909	      0.52741	       0.7401	       1.0848	          1.1	      0.62163	        1.098	        1.644	      0.56758	       1.0725	       2.1408	      0.53653	      0.91012	       2.4614	      0.56685	      0.91544	       2.8375	      0.52551	       1.0883	       4.0889	      0.41504	
    17	  5400	       0.5094	       2.2768	        85227	        1.216	        0.443	      0.10274	     2.5e-007	      0.90909	      0.52741	       0.7401	       1.0848	          1.1	      0.62163	        1.098	        1.644	      0.56758	       1.0725	       2.1408	      0.53653	      0.91012	       2.4614	      0.56685	      0.91544	       2.8375	      0.52551	       1.0883	       4.0889	      0.41504	

:: Function evaluation limit reached

       Squares	       0.509399
     Func Eval	           5400
     Grad Eval	             17

:: Nonlinear parameters

     i	   Final p(i)	  Gradient(i)
     1	      2.27679	  -0.00032858
     2	      85227.1	  8.7996e-009
     3	      1.21597	  -0.00061485
     4	     0.443003	    -0.012821
     5	     0.102742	  1.3709e-006
     6	     2.5e-007	    0.0016919
     7	     0.909091	  -0.00043094
     8	     0.527409	 -1.1246e-005
     9	     0.740098	  -0.00095802
    10	      1.08479	   0.00060292
    11	          1.1	  -0.00077259
    12	     0.621629	    0.0031295
    13	      1.09803	   -0.0010338
    14	      1.64396	  -0.00042964
    15	     0.567581	  -0.00088064
    16	      1.07254	    0.0010466
    17	      2.14078	 -9.5595e-005
    18	     0.536525	     0.002794
    19	     0.910121	   0.00091203
    20	       2.4614	  5.7559e-005
    21	     0.566854	    0.0017073
    22	     0.915441	   -0.0046563
    23	       2.8375	   0.00026534
    24	     0.525513	    -0.012371
    25	      1.08829	   -0.0022925
    26	      4.08891	   2.994e-005
    27	     0.415038	   -0.0054287
