%!PS-Adobe-3.0 EPSF-3.0
%%BoundingBox: 0 0 514 550
%%Creator: BioKin Ltd.
%%DocumentFonts: Symbol Helvetica
%%EndComments
%
/bkdict 256 dict def
bkdict begin
/M {moveto} def 
/R {rmoveto} def
/L {lineto} def
/rL {rlineto} def
/GSN {gsave newpath} def
/SGR {stroke grestore} def
/COSGR {gsave setrgbcolor stroke grestore grestore} def
/SL {setlinewidth} def
/LWMB {12} def             % line width - model curves, black & white
/LWMC {10} def             % line width - model curves, color
/L2 {2.5 setlinewidth} def
/L5 {5 setlinewidth} def
/L10 {10 setlinewidth} def
/G50 {0.5 setgray} def
/SDA {[10  20] 0 setdash} def % axes
/helvT {/Helvetica findfont 100 scalefont setfont} def % tiny
/helvS {/Helvetica findfont 125 scalefont setfont} def % small
/helvM {/Helvetica findfont 150 scalefont setfont} def % medium
/helvL {/Helvetica findfont 175 scalefont setfont} def % large
/xlabel {gsave M dup
   stringwidth exch -0.5 mul exch rmoveto show grestore} def 
/ylabel {gsave M 90 rotate dup
   stringwidth exch -0.5 mul exch rmoveto show grestore} def
/ylabelresid {gsave M dup
   stringwidth exch -1 mul exch rmoveto show grestore} def
% ======
% Shapes
% ======
% Circle:
/Circ {0 360 arc closepath} def
%
% Square:
/Squa {dup dup -0.5 mul dup dup R -2 mul 0 exch rL 1 mul 0 rL dup 0 exch -1 mul rL closepath} def
%
% Triangle Up:
/TriU {dup dup dup -0.4 mul exch -0.5 mul exch R dup 0.5 mul exch rL dup -1 mul exch 0.5 mul exch rL closepath} def 
%
% Triangle Down:
/TriD {dup dup dup 0.4 mul exch -0.5 mul exch R dup 0.5 mul exch -1 mul rL dup 0.5 mul exch rL closepath} def 
%
% Diamond:
/Diam {45 rotate Squa} def
% ======
% Fills
% ======
/GRF {gsave setgray fill grestore} def                    % gray-level Fill
/COF {gsave setrgbcolor fill grestore} def                % color fill
% ======
% Colors
% ======
/C01 {1.00	0.00	0.00} def      % Red
/C02 {0.00	0.00	1.00} def      % Blue
/C03 {0.00	0.39	0.00} def      % Dark Green
/C04 {0.78	0.08	0.52} def      % Medium Violet Red
/C05 {0.55	0.27	0.07} def      % Saddle Brown
/C06 {0.10	0.70	0.70} def      % (cyan)
/C07 {1.00	0.55	0.00} def      % Dark Orange
/C08 {0.63	0.13	0.94} def      % Purple
/C09 {0.00	0.75	1.00} def      % Deep Sky Blue
/C10 {0.20	0.80	0.20} def      % Lime Green
/C11 {0.47	0.53	0.60} def      % Light Slate Gray
/C12 {0.00	0.00	0.00} def      % Black            % or: {0.19	0.31	0.31} def      % Dark Slate Gray
%
/LGR {0.75} def % light gray
/DGR {0.33} def % dark gray
%
% =============
% Dash patterns
% =============
/dash01 { [80  20] 0 setdash } def
/dash02 { [40  20] 0 setdash } def
/dash03 { [80  20  10  20] 0 setdash } def
/dash04 { [40  20  10  20] 0 setdash } def
/dash05 { [80  20  10  10  10  20] 0 setdash } def
/dash06 { [40  20  10  10  10  20] 0 setdash } def
/dash07 { [10  10] 0 setdash } def
%
/MFshow {
   { dup 5 get 3 ge
     { 5 get 3 eq {gsave} {grestore} ifelse }
     {dup dup 0 get findfont exch 1 get scalefont setfont
     [ currentpoint ] exch dup 2 get 0 exch R dup 5 get 2 ne {dup dup 6
     get exch 4 get {show} {stringwidth pop 0 R} ifelse }if dup 5 get 0 eq
     {dup 3 get {2 get neg 0 exch R pop} {pop aload pop M} ifelse} {dup 5
     get 1 eq {dup 2 get exch dup 3 get exch 6 get stringwidth pop -2 div
     dup 0 R} {dup 6 get stringwidth pop -2 div 0 R 6 get
     show 2 index {aload pop M neg 3 -1 roll neg R pop pop} {pop pop pop
     pop aload pop M} ifelse }ifelse }ifelse }
     ifelse }
   forall} bind def
/MFwidth {0 exch {dup 3 get{dup dup 0 get findfont exch 1 get scalefont
     setfont 6 get stringwidth pop add} {pop} ifelse} forall} bind def
/MCshow { currentpoint stroke M
  exch dup MFwidth -2 div 3 -1 roll R MFshow } def
%
end
%%EndProlog
bkdict begin
0.1 0.1 scale
%
% Residuals:
%
GSN 620 3291 M
620 2963 L
620 3131 L
620 4474 L
620 3471 L
620 3832 L
620 3151 L
620 3484 L
620 3638 L
620 3623 L
620 3676 L
620 3653 L
620 3197 L
620 3401 L
620 3420 L
620 3229 L
620 3619 L
620 2743 L
620 3444 L
620 3494 L
620 3587 L
620 3362 L
620 3191 L
620 3659 L
620 3577 L
620 3434 L
620 3353 L
620 3370 L
620 3460 L
620 3229 L
620 3179 L
620 3353 L
620 3533 L
620 3505 L
620 3508 L
620 3314 L
620 3480 L
620 3266 L
620 2882 L
620 3023 L
620 3076 L
620 3764 L
620 3349 L
620 3433 L
620 3405 L
620 3063 L
620 3279 L
620 3352 L
620 2968 L
620 2923 L
620 3400 L
620 3496 L
620 3538 L
620 3835 L
620 3500 L
620 3187 L
620 3613 L
620 2889 L
620 3462 L
620 3259 L
620 3101 L
620 3398 L
620 3142 L
620 3473 L
620 3310 L
620 3333 L
620 3212 L
620 3588 L
620 3487 L
620 3406 L
620 3318 L
620 3302 L
620 3433 L
620 3597 L
620 2997 L
620 3185 L
620 3420 L
620 3295 L
620 3171 L
620 3424 L
620 3331 L
620 3474 L
620 3211 L
620 3111 L
620 3657 L
620 3086 L
620 3409 L
620 3208 L
620 3118 L
620 3375 L
620 3271 L
620 3516 L
620 3505 L
620 3631 L
620 3351 L
620 3371 L
620 3222 L
620 3515 L
620 3191 L
620 3148 L
620 3521 L
620 3462 L
620 3200 L
620 3804 L
620 3422 L
620 3653 L
620 3286 L
620 3149 L
620 3168 L
620 3380 L
620 3331 L
620 4059 L
620 3633 L
620 3767 L
620 3346 L
620 3306 L
620 3874 L
620 3469 L
620 3566 L
620 3517 L
620 3222 L
620 3174 L
620 3677 L
620 3688 L
620 3400 L
620 3389 L
620 3375 L
620 3569 L
620 3571 L
620 3885 L
620 3893 L
620 3145 L
620 3387 L
620 3382 L
620 3383 L
620 3822 L
620 3802 L
620 3845 L
620 3546 L
620 3451 L
620 3547 L
620 3530 L
620 3277 L
620 3371 L
620 3622 L
620 3576 L
620 3362 L
620 3813 L
620 3379 L
620 3292 L
620 3547 L
620 3673 L
620 3392 L
620 3384 L
620 3543 L
620 3579 L
620 3684 L
620 3285 L
620 3677 L
620 3664 L
620 3645 L
620 4029 L
620 3390 L
620 3317 L
620 3420 L
620 3837 L
620 3351 L
620 3605 L
620 3429 L
620 3641 L
620 3190 L
620 3512 L
620 3581 L
620 3847 L
620 3366 L
620 3931 L
620 3418 L
620 3044 L
620 3293 L
620 3327 L
620 3419 L
620 3408 L
620 3833 L
620 3557 L
620 3328 L
620 3467 L
620 3501 L
620 3751 L
620 3294 L
620 3442 L
620 3361 L
620 3523 L
620 3431 L
620 3325 L
620 3479 L
620 3612 L
620 3159 L
620 3294 L
620 3325 L
620 3687 L
620 3638 L
620 3324 L
620 3854 L
620 3165 L
620 3592 L
620 3174 L
620 3503 L
620 3530 L
620 3202 L
620 3498 L
620 3628 L
620 3246 L
620 3619 L
620 3711 L
620 3742 L
620 3644 L
620 3562 L
620 3603 L
620 3685 L
620 3148 L
620 3370 L
620 3362 L
620 3350 L
620 3795 L
620 3852 L
620 3591 L
620 3576 L
620 3610 L
620 2927 L
620 3366 L
620 3826 L
620 3880 L
620 3524 L
620 3485 L
620 3397 L
620 3805 L
620 3615 L
620 3901 L
620 3554 L
620 3280 L
620 3370 L
620 3576 L
620 3558 L
620 3493 L
620 3786 L
620 3499 L
620 3357 L
620 3346 L
620 3605 L
620 3456 L
620 3567 L
620 3718 L
620 3476 L
620 3685 L
620 3482 L
620 3396 L
620 3292 L
620 3507 L
620 3585 L
620 3614 L
620 3361 L
620 3136 L
620 3660 L
620 3727 L
620 3368 L
620 3583 L
620 3429 L
620 3113 L
620 3371 L
620 3643 L
620 3670 L
620 3526 L
620 3424 L
620 3880 L
620 3323 L
620 3444 L
620 3634 L
620 3405 L
620 3703 L
620 3611 L
620 3295 L
620 3179 L
620 3087 L
620 3573 L
620 3153 L
620 3343 L
620 3405 L
620 3756 L
620 3454 L
620 3638 L
620 3352 L
620 3533 L
620 3466 L
620 3351 L
620 3217 L
620 3737 L
620 3072 L
620 3525 L
620 3192 L
620 3706 L
620 3453 L
620 3674 L
620 3878 L
620 3225 L
620 3370 L
620 3722 L
620 3381 L
620 3193 L
620 3348 L
620 3662 L
620 3738 L
620 3400 L
620 3657 L
620 3554 L
620 3191 L
620 3458 L
620 3701 L
620 3597 L
620 3455 L
620 3327 L
620 3499 L
620 3545 L
620 3333 L
620 3386 L
620 3591 L
620 3293 L
620 3471 L
620 3591 L
620 3363 L
620 3282 L
620 3271 L
620 3047 L
620 3685 L
620 3060 L
620 3299 L
620 3692 L
620 3413 L
620 3338 L
620 3166 L
620 3306 L
620 3541 L
620 3406 L
620 3376 L
620 3632 L
620 3360 L
620 3736 L
620 3489 L
620 3578 L
620 3396 L
620 3479 L
620 3227 L
620 3474 L
620 3838 L
620 3214 L
620 3732 L
620 3457 L
620 3327 L
620 3271 L
620 3557 L
620 3334 L
620 3549 L
620 3567 L
620 3215 L
620 3482 L
620 3757 L
620 3604 L
620 3451 L
620 3102 L
620 3210 L
620 3411 L
620 3541 L
620 3564 L
620 3171 L
620 3295 L
620 3231 L
620 3479 L
620 3313 L
620 3114 L
620 3782 L
620 3539 L
620 3282 L
620 3279 L
620 3759 L
620 3220 L
620 3016 L
620 3291 L
620 3480 L
620 3568 L
620 3608 L
620 3251 L
620 3478 L
620 3510 L
620 3148 L
620 3393 L
620 3032 L
620 3527 L
620 3343 L
620 3149 L
620 3763 L
620 3636 L
620 3597 L
620 3496 L
620 3285 L
620 3270 L
620 3119 L
620 3227 L
620 3548 L
620 3198 L
620 2912 L
620 3259 L
620 3146 L
620 3129 L
620 3401 L
620 3085 L
620 3393 L
620 3122 L
620 3174 L
620 3226 L
620 3185 L
620 3004 L
620 2764 L
620 3189 L
620 3362 L
620 2922 L
620 2540 L
620 3171 L
620 3122 L
620 2788 L
620 3302 L
620 3053 L
620 3323 L
620 2755 L
620 3008 L
620 2895 L
620 2563 L
620 3062 L
620 2879 L
620 3457 L
620 2973 L
620 2916 L
620 3097 L
620 3381 L
620 3086 L
620 2891 L
620 3229 L
620 3005 L
620 2728 L
620 2969 L
620 2861 L
620 2783 L
620 3207 L
620 3062 L
620 2884 L
620 2931 L
620 2716 L
620 2564 L
620 2918 L
620 3008 L
620 2599 L
620 2980 L
620 3098 L
620 2863 L
620 2564 L
620 2632 L
620 3109 L
620 2822 L
620 2802 L
620 2957 L
620 2791 L
620 2829 L
620 2736 L
620 2652 L
620 3175 L
620 2965 L
620 2674 L
620 2538 L
620 2417 L
620 2940 L
620 2693 L
620 2656 L
620 2582 L
620 2787 L
620 2739 L
620 2651 L
620 2537 L
620 2749 L
620 2677 L
620 3002 L
620 2763 L
620 2768 L
620 2676 L
620 2712 L
620 2629 L
620 2559 L
620 2180 L
620 2455 L
620 2346 L
620 2582 L
620 2869 L
620 2523 L
620 2617 L
620 2720 L
620 2861 L
620 2864 L
620 2723 L
620 2704 L
620 2595 L
620 2942 L
620 2664 L
620 2663 L
620 2954 L
620 2673 L
620 2677 L
620 2629 L
620 2751 L
620 2543 L
620 2547 L
620 2918 L
620 2448 L
620 2249 L
620 2690 L
620 2296 L
620 2788 L
620 2602 L
620 2613 L
620 2867 L
620 2629 L
620 2549 L
620 2421 L
620 2620 L
620 2630 L
620 2743 L
620 2603 L
620 2673 L
620 2300 L
620 2695 L
620 2519 L
620 2792 L
620 2283 L
620 2653 L
620 2557 L
620 2231 L
620 2683 L
620 2498 L
620 2319 L
620 2670 L
620 2500 L
620 2416 L
620 2686 L
620 2536 L
620 2575 L
620 2383 L
620 2695 L
620 2663 L
620 2800 L
620 2655 L
620 2738 L
620 2289 L
620 2607 L
620 2459 L
620 2344 L
620 2713 L
620 2616 L
620 2141 L
620 2197 L
620 2211 L
620 2544 L
620 2513 L
620 2687 L
620 2453 L
620 2322 L
620 2607 L
620 2682 L
620 2363 L
620 2321 L
620 2167 L
620 2591 L
620 2539 L
620 2620 L
620 2261 L
620 2403 L
620 2576 L
620 2781 L
620 2389 L
620 2476 L
620 2210 L
620 2476 L
620 2822 L
620 2569 L
620 2468 L
620 2683 L
620 2501 L
620 2247 L
620 2924 L
620 2227 L
620 2575 L
620 2672 L
620 2164 L
620 2640 L
620 2575 L
620 2615 L
620 2762 L
620 2191 L
620 2637 L
620 2720 L
620 2494 L
620 2267 L
620 2915 L
620 2493 L
620 2424 L
620 2723 L
620 2962 L
620 2671 L
620 2374 L
620 2873 L
620 2803 L
620 2861 L
620 2340 L
620 2584 L
620 2211 L
620 2365 L
620 2539 L
620 2238 L
620 2778 L
620 2589 L
620 2539 L
620 2809 L
620 2708 L
620 2628 L
620 2318 L
620 2735 L
620 2705 L
620 2667 L
620 2695 L
620 2632 L
620 2374 L
620 2566 L
620 2618 L
620 2827 L
620 2281 L
620 2940 L
620 2514 L
620 2443 L
620 2220 L
620 2573 L
620 2558 L
620 2312 L
620 2868 L
620 2623 L
620 2541 L
620 2355 L
620 2373 L
620 3192 L
620 2437 L
620 2760 L
620 2826 L
620 2990 L
620 2386 L
620 2661 L
620 3129 L
620 2857 L
620 2713 L
620 2663 L
620 2294 L
620 2909 L
620 2829 L
620 2512 L
620 2891 L
620 2769 L
620 2672 L
620 2613 L
620 2895 L
620 2889 L
620 2804 L
620 2582 L
620 2199 L
620 2365 L
620 3107 L
620 2756 L
620 2285 L
620 2989 L
620 2439 L
620 3101 L
620 2136 L
620 2822 L
620 2657 L
620 2379 L
620 2876 L
620 2626 L
620 3120 L
620 2572 L
620 2958 L
620 2796 L
620 2680 L
620 2525 L
620 2530 L
620 2718 L
620 2763 L
620 2400 L
620 2892 L
620 2984 L
620 3113 L
620 2396 L
620 2471 L
620 2814 L
620 2711 L
620 2570 L
620 2765 L
620 2675 L
620 2904 L
620 2662 L
620 2689 L
620 2588 L
620 2707 L
620 2558 L
620 3222 L
620 2498 L
620 2758 L
620 2620 L
620 2741 L
620 2478 L
620 2894 L
620 2608 L
620 2897 L
620 2814 L
620 2432 L
620 2839 L
620 2375 L
620 2936 L
620 2946 L
620 2696 L
620 2756 L
620 2756 L
620 2634 L
620 2730 L
620 2675 L
620 2866 L
620 2629 L
620 2674 L
620 2637 L
620 2770 L
620 3016 L
620 2699 L
620 2723 L
620 2718 L
620 2626 L
620 2905 L
620 2453 L
620 3033 L
620 2514 L
620 2427 L
620 2636 L
620 2977 L
620 2445 L
620 2991 L
620 2787 L
620 2666 L
620 3089 L
620 3196 L
620 3040 L
620 3001 L
620 3146 L
620 3045 L
620 2589 L
620 2463 L
620 2794 L
620 2255 L
620 3044 L
620 2412 L
620 2811 L
620 2742 L
620 3419 L
620 2544 L
620 2958 L
620 3104 L
620 2615 L
620 2951 L
620 2661 L
620 3031 L
620 2960 L
620 2561 L
620 2862 L
620 2756 L
620 2956 L
620 2878 L
620 3088 L
620 2925 L
620 3114 L
620 2775 L
620 2688 L
620 2835 L
620 3144 L
620 2578 L
620 2848 L
620 3029 L
620 2540 L
620 2807 L
620 2599 L
620 2683 L
620 3096 L
620 2974 L
620 2803 L
620 2906 L
620 3054 L
620 2957 L
620 2661 L
620 2739 L
620 2724 L
620 2641 L
620 2544 L
620 2676 L
620 2695 L
620 2797 L
620 2606 L
620 3097 L
620 3121 L
620 2827 L
620 3051 L
620 3243 L
620 2834 L
620 2793 L
620 3081 L
620 2791 L
620 2658 L
620 2787 L
620 2793 L
620 3023 L
620 3218 L
620 2867 L
620 2895 L
620 3236 L
620 3027 L
620 3350 L
620 2814 L
620 2688 L
620 2944 L
620 3048 L
620 2845 L
620 2578 L
620 3224 L
620 2856 L
620 3020 L
620 3214 L
620 3016 L
620 2857 L
620 3075 L
620 3135 L
620 2615 L
620 2651 L
620 2909 L
620 3161 L
620 3312 L
620 3145 L
620 3068 L
620 3152 L
620 2970 L
620 3137 L
620 2831 L
620 2682 L
620 3269 L
620 2768 L
620 2797 L
620 2780 L
620 3444 L
620 3149 L
620 2953 L
620 3027 L
620 2961 L
620 3064 L
620 3017 L
620 3371 L
620 3162 L
620 2692 L
620 3123 L
620 2904 L
620 3148 L
620 2846 L
620 2435 L
620 2866 L
620 3069 L
620 2768 L
620 3020 L
620 3123 L
620 2883 L
620 3170 L
620 3302 L
620 3002 L
620 2987 L
620 2838 L
620 3221 L
620 3245 L
620 2857 L
620 3259 L
620 3052 L
620 2449 L
620 2956 L
620 2845 L
620 3107 L
620 2848 L
620 3038 L
620 2737 L
620 3027 L
620 2859 L
620 3433 L
620 3311 L
620 3271 L
620 3085 L
620 3207 L
620 2961 L
620 3031 L
620 3299 L
620 3134 L
620 2775 L
620 3022 L
620 3001 L
620 3048 L
620 2683 L
620 3603 L
620 3381 L
620 3452 L
620 2648 L
620 3559 L
620 3023 L
620 3292 L
620 2914 L
620 3277 L
620 3055 L
620 3403 L
620 2942 L
620 3010 L
620 3120 L
620 3363 L
620 3128 L
620 3096 L
620 3314 L
620 3176 L
620 3086 L
620 3412 L
620 3297 L
620 2953 L
620 3506 L
620 2831 L
620 3349 L
620 3360 L
620 3165 L
620 3081 L
620 3109 L
620 3466 L
620 3050 L
620 2956 L
620 3236 L
620 2998 L
620 2848 L
620 3525 L
620 3256 L
620 3416 L
620 3135 L
620 3065 L
620 3075 L
620 3180 L
620 3097 L
620 3027 L
620 3325 L
620 3037 L
620 3214 L
620 3215 L
620 3485 L
620 3205 L
620 3120 L
620 3291 L
620 3120 L
620 3626 L
620 3208 L
620 3429 L
620 3214 L
620 3357 L
620 3290 L
620 3395 L
620 3493 L
620 3312 L
620 3413 L
620 3395 L
620 3292 L
620 3225 L
620 3109 L
620 3221 L
620 2996 L
620 3045 L
620 3370 L
620 3194 L
620 3118 L
620 3584 L
620 3531 L
620 3079 L
620 3234 L
620 3093 L
620 3123 L
620 3471 L
620 3278 L
620 3262 L
620 3134 L
620 3236 L
620 2961 L
620 3151 L
620 3622 L
620 3318 L
620 3226 L
620 3450 L
620 3455 L
620 3184 L
620 3614 L
620 3483 L
620 3379 L
620 3751 L
620 3361 L
620 3281 L
620 2953 L
620 3490 L
620 3221 L
620 3702 L
620 3395 L
620 3020 L
620 3173 L
620 3591 L
620 3318 L
620 2908 L
620 3191 L
620 3478 L
620 3379 L
620 3705 L
620 3465 L
620 3065 L
620 3587 L
620 3591 L
620 3302 L
620 3194 L
620 3726 L
620 3353 L
620 3670 L
620 3676 L
620 3461 L
620 3238 L
620 3521 L
620 3626 L
620 3297 L
620 3321 L
620 3239 L
620 3283 L
620 3401 L
620 3681 L
620 3184 L
620 3381 L
620 3478 L
620 3629 L
620 3503 L
620 3633 L
620 3558 L
620 3563 L
620 3401 L
620 3162 L
620 3596 L
620 3221 L
620 3246 L
620 3156 L
620 3518 L
620 3234 L
620 3499 L
620 3538 L
620 3201 L
620 3548 L
620 3382 L
620 3462 L
620 3535 L
620 3628 L
620 3600 L
620 3516 L
620 3492 L
620 3800 L
620 3523 L
620 3356 L
620 3639 L
620 3729 L
620 3472 L
620 3149 L
620 3422 L
620 3249 L
620 3071 L
620 3332 L
620 3168 L
620 3534 L
620 3580 L
620 3285 L
620 3241 L
620 3594 L
620 3179 L
620 3702 L
620 3448 L
620 3333 L
620 3458 L
620 3615 L
620 3500 L
620 3496 L
620 3156 L
620 3603 L
620 3360 L
620 3430 L
620 3493 L
620 3761 L
620 3288 L
620 3285 L
620 3145 L
620 3604 L
620 3301 L
620 3253 L
620 3384 L
620 3530 L
620 3523 L
620 3625 L
620 3276 L
620 3381 L
620 3172 L
620 3294 L
620 3409 L
620 3395 L
620 3566 L
620 3437 L
620 3636 L
620 3720 L
620 3559 L
620 3749 L
620 3548 L
620 3493 L
620 3162 L
620 3144 L
620 3584 L
620 3530 L
620 3273 L
620 3391 L
620 3437 L
620 3445 L
620 3650 L
620 3742 L
620 3903 L
620 3921 L
620 3667 L
620 3600 L
620 3486 L
620 3473 L
620 3753 L
620 3858 L
620 3315 L
620 3685 L
620 3704 L
620 3816 L
620 3545 L
620 3893 L
620 3503 L
620 3586 L
620 3735 L
620 3694 L
620 3410 L
620 3699 L
620 3624 L
620 3626 L
620 3482 L
620 3372 L
620 3605 L
620 3573 L
620 3493 L
620 3391 L
620 3834 L
620 3242 L
620 3619 L
620 3871 L
620 3650 L
620 3565 L
620 3775 L
620 3640 L
620 3409 L
620 3492 L
620 3523 L
620 3768 L
620 3538 L
620 3650 L
620 3343 L
620 3605 L
620 3489 L
620 3524 L
620 3212 L
620 3713 L
620 3217 L
620 3681 L
620 3322 L
620 3517 L
620 3795 L
620 3349 L
620 3224 L
620 3966 L
620 3928 L
620 3451 L
620 3900 L
620 3669 L
620 3438 L
620 3827 L
620 3429 L
620 3789 L
620 3793 L
620 3466 L
620 3633 L
620 3721 L
620 3690 L
620 3764 L
620 3744 L
620 3906 L
620 3358 L
620 3942 L
620 3765 L
620 3722 L
620 3556 L
620 3326 L
620 3503 L
620 3281 L
620 3166 L
620 3677 L
620 4012 L
620 3379 L
620 3452 L
620 3618 L
620 3857 L
620 3808 L
620 3472 L
620 3702 L
620 3538 L
620 3657 L
620 3742 L
620 3924 L
620 3652 L
620 3770 L
620 3573 L
620 3465 L
620 3720 L
620 3684 L
620 3462 L
620 3805 L
620 3695 L
620 3469 L
620 3997 L
620 3904 L
620 3718 L
620 3562 L
620 3582 L
620 3854 L
620 3065 L
620 3603 L
620 3635 L
620 3829 L
620 3761 L
620 3315 L
620 3417 L
620 3295 L
620 3681 L
620 3880 L
620 3655 L
620 3493 L
620 3357 L
620 3688 L
620 3879 L
620 3859 L
620 3726 L
620 3767 L
620 3349 L
620 3719 L
620 3614 L
620 3973 L
620 3754 L
620 3834 L
620 3725 L
620 3469 L
620 3424 L
620 3687 L
620 4010 L
620 3785 L
620 3455 L
620 3455 L
620 3485 L
620 3650 L
620 3424 L
620 3719 L
620 3203 L
620 3820 L
620 3603 L
620 3643 L
620 3976 L
620 3927 L
620 3722 L
620 3684 L
620 4130 L
620 3952 L
620 3895 L
620 3904 L
620 3779 L
620 3742 L
620 4059 L
620 3525 L
620 3726 L
620 3685 L
620 3697 L
620 3676 L
620 3749 L
620 3765 L
620 3722 L
620 3725 L
620 3430 L
620 3471 L
620 3887 L
620 3789 L
620 3697 L
620 3758 L
620 3719 L
620 3621 L
620 3422 L
620 3749 L
620 3998 L
620 3612 L
620 3737 L
620 3935 L
620 3730 L
620 3462 L
620 3478 L
620 3979 L
620 3799 L
620 3660 L
620 3792 L
620 3732 L
620 3673 L
620 3711 L
620 3368 L
620 3692 L
620 3777 L
620 4308 L
620 3807 L
620 3774 L
620 3756 L
620 3514 L
620 3497 L
620 3976 L
620 3843 L
620 4031 L
620 3678 L
620 3834 L
620 3361 L
620 3914 L
620 4036 L
620 3861 L
620 3212 L
620 3598 L
620 4133 L
620 3796 L
620 3928 L
620 3730 L
620 3740 L
620 3740 L
620 3422 L
620 3831 L
620 3765 L
620 3990 L
620 3481 L
620 3655 L
620 3690 L
620 3690 L
620 3669 L
620 3955 L
620 3879 L
620 3979 L
620 3653 L
620 3836 L
620 3744 L
620 3517 L
620 3895 L
620 3635 L
620 3725 L
620 3583 L
620 3666 L
620 3472 L
620 3789 L
620 3833 L
620 3889 L
620 4070 L
620 3945 L
620 3593 L
620 3841 L
620 3872 L
620 3914 L
620 3600 L
620 3782 L
620 3319 L
620 3796 L
620 3844 L
620 3584 L
620 3789 L
620 4094 L
620 3252 L
620 3827 L
620 3498 L
620 3862 L
620 3872 L
620 4255 L
620 3656 L
620 3989 L
620 3961 L
620 4230 L
620 4146 L
620 4108 L
620 4072 L
620 4262 L
620 3909 L
620 4174 L
620 4108 L
620 4027 L
620 3940 L
620 3850 L
620 3858 L
620 4434 L
620 4154 L
620 4303 L
620 4324 L
620 3705 L
620 3987 L
620 4159 L
620 4244 L
620 4310 L
620 4046 L
620 4174 L
620 4334 L
620 4042 L
620 4118 L
620 4295 L
620 4152 L
620 3979 L
620 4240 L
620 4031 L
620 4672 L
620 4328 L
620 3980 L
620 4327 L
620 4460 L
620 4159 L
620 4324 L
620 3968 L
620 4187 L
620 4198 L
620 4516 L
620 3994 L
620 3996 L
620 4709 L
620 4327 L
620 4460 L
620 4486 L
620 4331 L
620 4093 L
620 3948 L
620 4706 L
620 3877 L
620 4173 L
620 4331 L
620 4264 L
620 4029 L
620 4654 L
620 4039 L
620 4117 L
620 4161 L
620 4385 L
620 4528 L
620 4121 L
620 4160 L
620 4284 L
620 4114 L
620 4202 L
620 4493 L
620 4152 L
620 4232 L
620 4133 L
620 4291 L
620 4058 L
620 4098 L
620 4385 L
620 4519 L
620 4265 L
620 4156 L
620 4335 L
620 4255 L
620 4232 L
620 4379 L
620 4285 L
620 4284 L
620 4119 L
620 4265 L
620 4163 L
620 4017 L
620 4387 L
620 4397 L
620 4324 L
620 4192 L
620 4072 L
620 4407 L
620 4239 L
620 4348 L
620 4334 L
620 4251 L
620 4340 L
620 4268 L
620 3784 L
620 4222 L
620 4446 L
620 4516 L
620 4331 L
620 4208 L
620 4393 L
620 4369 L
620 4295 L
620 4427 L
620 4486 L
620 4768 L
620 4434 L
620 4604 L
620 4261 L
620 4474 L
620 4465 L
620 4488 L
620 4414 L
620 4095 L
620 4121 L
620 4431 L
620 4038 L
620 4328 L
620 4472 L
620 4344 L
620 4330 L
620 4782 L
620 4004 L
620 4229 L
620 4154 L
620 4145 L
620 4299 L
620 4265 L
620 4616 L
620 4441 L
620 4314 L
620 4403 L
620 4641 L
620 4863 L
620 4161 L
620 4453 L
620 4406 L
620 4212 L
620 4472 L
620 4314 L
620 4411 L
620 4229 L
620 4150 L
620 4307 L
620 4239 L
620 4401 L
620 4676 L
620 4476 L
620 4160 L
620 4560 L
620 3639 L
620 4090 L
620 4239 L
620 4585 L
620 4327 L
620 3976 L
620 4204 L
620 4254 L
620 4425 L
620 4625 L
620 4195 L
620 4789 L
620 4410 L
620 4119 L
620 4161 L
620 4462 L
620 4630 L
620 4376 L
620 4262 L
620 4472 L
620 4189 L
620 4386 L
620 4519 L
620 4355 L
620 4439 L
620 4502 L
620 4582 L
620 4076 L
620 4639 L
620 4685 L
620 4406 L
620 4025 L
620 4664 L
620 4728 L
620 4296 L
620 4248 L
620 4752 L
620 4507 L
620 4160 L
620 4223 L
620 4232 L
620 4488 L
620 3980 L
620 4142 L
620 4321 L
620 4090 L
620 4027 L
620 4340 L
620 4232 L
620 3848 L
620 4257 L
620 4244 L
620 4087 L
620 4467 L
620 4084 L
620 4248 L
620 4349 L
620 4295 L
620 4303 L
620 4514 L
620 4048 L
620 4373 L
620 4153 L
620 4536 L
620 4226 L
620 4187 L
620 4661 L
620 3920 L
620 4453 L
620 4010 L
620 4479 L
620 4079 L
620 4218 L
620 4284 L
620 4658 L
620 4168 L
620 4330 L
620 4448 L
620 4305 L
620 4125 L
620 4647 L
620 4202 L
620 4296 L
620 4275 L
620 4390 L
620 4560 L
620 4473 L
620 4348 L
620 4295 L
620 4319 L
620 4393 L
620 4039 L
620 4392 L
620 4314 L
620 4570 L
620 4087 L
620 4121 L
620 4432 L
620 4083 L
620 4102 L
620 4278 L
620 4215 L
620 4149 L
620 4202 L
620 4319 L
620 4094 L
620 4462 L
620 4291 L
620 4775 L
620 4348 L
620 4017 L
620 4749 L
620 4307 L
620 4213 L
620 4216 L
620 4460 L
620 4063 L
620 4519 L
620 4342 L
620 4240 L
620 4157 L
620 4501 L
620 4550 L
620 4038 L
620 3969 L
620 4328 L
620 4132 L
620 4571 L
620 4079 L
620 4201 L
620 4302 L
620 4184 L
620 4293 L
620 4316 L
620 4494 L
620 4300 L
620 4125 L
620 4460 L
620 4188 L
620 4246 L
620 4105 L
620 4260 L
620 4415 L
620 4246 L
620 4230 L
620 4525 L
620 4844 L
620 4326 L
620 4156 L
620 4488 L
620 3853 L
620 4255 L
620 4368 L
620 4334 L
620 4434 L
620 4007 L
620 4330 L
620 4230 L
620 4501 L
620 4414 L
620 4161 L
620 4170 L
620 4463 L
620 4097 L
620 4431 L
620 4442 L
620 4286 L
620 4067 L
620 4751 L
620 4192 L
620 4268 L
620 4309 L
620 4647 L
620 4185 L
620 4337 L
620 4216 L
620 4424 L
620 4542 L
620 4254 L
620 3736 L
620 4372 L
620 4449 L
620 4335 L
620 4442 L
620 4202 L
620 4592 L
620 4324 L
620 3968 L
620 4088 L
620 4406 L
L2 C06 COSGR

%
%================
% Legend - Begin
%================
%
GSN 4240 5180 M
4480 5180 L
LWMC SL  C06 COSGR
GSN 4540 5141 M helvM (3.0 uM) show grestore
%
%================
% Legend - End
%================
%

%
% Main frame
%
L10
GSN 
620 1700 M
4220 1700 L
4220 5300 L
620 5300 L
closepath SGR

%
% X axis: large tics
%
L10
%
% X axis: small tics
%
L5
%
% Y axis: large tics
%
L10
GSN 620 1968 M 54 0 rL SGR
GSN 4220 1968 M -54 0 rL SGR
helvS (-0.02) 560 1968 ylabel
GSN 620 2704 M 54 0 rL SGR
GSN 4220 2704 M -54 0 rL SGR
helvS (-0.01) 560 2704 ylabel
GSN 620 3440 M 54 0 rL SGR
GSN 4220 3440 M -54 0 rL SGR
helvS (0) 560 3440 ylabel
GSN 620 4176 M 54 0 rL SGR
GSN 4220 4176 M -54 0 rL SGR
helvS (0.01) 560 4176 ylabel
GSN 620 4911 M 54 0 rL SGR
GSN 4220 4911 M -54 0 rL SGR
helvS (0.02) 560 4911 ylabel
%
% Y axis: small tics
%
L5
GSN 620 1784 M 36 0 rL SGR
GSN 4220 1784 M -36 0 rL SGR
GSN 620 1968 M 36 0 rL SGR
GSN 4220 1968 M -36 0 rL SGR
GSN 620 2152 M 36 0 rL SGR
GSN 4220 2152 M -36 0 rL SGR
GSN 620 2336 M 36 0 rL SGR
GSN 4220 2336 M -36 0 rL SGR
GSN 620 2520 M 36 0 rL SGR
GSN 4220 2520 M -36 0 rL SGR
GSN 620 2704 M 36 0 rL SGR
GSN 4220 2704 M -36 0 rL SGR
GSN 620 2888 M 36 0 rL SGR
GSN 4220 2888 M -36 0 rL SGR
GSN 620 3072 M 36 0 rL SGR
GSN 4220 3072 M -36 0 rL SGR
GSN 620 3256 M 36 0 rL SGR
GSN 4220 3256 M -36 0 rL SGR
GSN 620 3440 M 36 0 rL SGR
GSN 4220 3440 M -36 0 rL SGR
GSN 620 3624 M 36 0 rL SGR
GSN 4220 3624 M -36 0 rL SGR
GSN 620 3808 M 36 0 rL SGR
GSN 4220 3808 M -36 0 rL SGR
GSN 620 3992 M 36 0 rL SGR
GSN 4220 3992 M -36 0 rL SGR
GSN 620 4176 M 36 0 rL SGR
GSN 4220 4176 M -36 0 rL SGR
GSN 620 4360 M 36 0 rL SGR
GSN 4220 4360 M -36 0 rL SGR
GSN 620 4544 M 36 0 rL SGR
GSN 4220 4544 M -36 0 rL SGR
GSN 620 4728 M 36 0 rL SGR
GSN 4220 4728 M -36 0 rL SGR
GSN 620 4911 M 36 0 rL SGR
GSN 4220 4911 M -36 0 rL SGR
GSN 620 5095 M 36 0 rL SGR
GSN 4220 5095 M -36 0 rL SGR
GSN 620 5279 M 36 0 rL SGR
GSN 4220 5279 M -36 0 rL SGR

%
% X axis - residual panel
%
GSN L5 620 3440 M 4220 3440 L SDA G50 SGR

%
% X-Axis label:
%
gsave 620 1370 M 
[
[(Helvetica) 180 0 true true 0 (t)]
[(Helvetica) 180 0 true true 0 (i)]
[(Helvetica) 180 0 true true 0 (m)]
[(Helvetica) 180 0 true true 0 (e)]
] 0 MCshow grestore

%
% Y-Axis label:
%
gsave 234 3500 M 
currentpoint gsave translate 90 rotate 0 0 moveto
[
[(Helvetica) 180 0 true true 0 (r)]
[(Helvetica) 180 0 true true 0 (e)]
[(Helvetica) 180 0 true true 0 (s)]
[(Helvetica) 180 0 true true 0 (i)]
[(Helvetica) 180 0 true true 0 (d)]
[(Helvetica) 180 0 true true 0 (u)]
[(Helvetica) 180 0 true true 0 (a)]
[(Helvetica) 180 0 true true 0 (l)]
[(Helvetica) 180 0 true true 0 (s)]
] 0 MCshow grestore

end
showpage
%%Trailer
%%EOF
