%!PS-Adobe-3.0 EPSF-3.0
%%BoundingBox: 0 0 514 550
%%Creator: BioKin Ltd.
%%DocumentFonts: Symbol Helvetica
%%EndComments
%
/bkdict 256 dict def
bkdict begin
/M {moveto} def 
/R {rmoveto} def
/L {lineto} def
/rL {rlineto} def
/GSN {gsave newpath} def
/SGR {stroke grestore} def
/COSGR {gsave setrgbcolor stroke grestore grestore} def
/SL {setlinewidth} def
/LWMB {12} def             % line width - model curves, black & white
/LWMC {10} def             % line width - model curves, color
/L2 {2.5 setlinewidth} def
/L5 {5 setlinewidth} def
/L10 {10 setlinewidth} def
/G50 {0.5 setgray} def
/SDA {[10  20] 0 setdash} def % axes
/helvT {/Helvetica findfont 100 scalefont setfont} def % tiny
/helvS {/Helvetica findfont 125 scalefont setfont} def % small
/helvM {/Helvetica findfont 150 scalefont setfont} def % medium
/helvL {/Helvetica findfont 175 scalefont setfont} def % large
/xlabel {gsave M dup
   stringwidth exch -0.5 mul exch rmoveto show grestore} def 
/ylabel {gsave M 90 rotate dup
   stringwidth exch -0.5 mul exch rmoveto show grestore} def
/ylabelresid {gsave M dup
   stringwidth exch -1 mul exch rmoveto show grestore} def
% ======
% Shapes
% ======
% Circle:
/Circ {0 360 arc closepath} def
%
% Square:
/Squa {dup dup -0.5 mul dup dup R -2 mul 0 exch rL 1 mul 0 rL dup 0 exch -1 mul rL closepath} def
%
% Triangle Up:
/TriU {dup dup dup -0.4 mul exch -0.5 mul exch R dup 0.5 mul exch rL dup -1 mul exch 0.5 mul exch rL closepath} def 
%
% Triangle Down:
/TriD {dup dup dup 0.4 mul exch -0.5 mul exch R dup 0.5 mul exch -1 mul rL dup 0.5 mul exch rL closepath} def 
%
% Diamond:
/Diam {45 rotate Squa} def
% ======
% Fills
% ======
/GRF {gsave setgray fill grestore} def                    % gray-level Fill
/COF {gsave setrgbcolor fill grestore} def                % color fill
% ======
% Colors
% ======
/C01 {1.00	0.00	0.00} def      % Red
/C02 {0.00	0.00	1.00} def      % Blue
/C03 {0.00	0.39	0.00} def      % Dark Green
/C04 {0.78	0.08	0.52} def      % Medium Violet Red
/C05 {0.55	0.27	0.07} def      % Saddle Brown
/C06 {0.10	0.70	0.70} def      % (cyan)
/C07 {1.00	0.55	0.00} def      % Dark Orange
/C08 {0.63	0.13	0.94} def      % Purple
/C09 {0.00	0.75	1.00} def      % Deep Sky Blue
/C10 {0.20	0.80	0.20} def      % Lime Green
/C11 {0.47	0.53	0.60} def      % Light Slate Gray
/C12 {0.00	0.00	0.00} def      % Black            % or: {0.19	0.31	0.31} def      % Dark Slate Gray
%
/LGR {0.75} def % light gray
/DGR {0.33} def % dark gray
%
% =============
% Dash patterns
% =============
/dash01 { [80  20] 0 setdash } def
/dash02 { [40  20] 0 setdash } def
/dash03 { [80  20  10  20] 0 setdash } def
/dash04 { [40  20  10  20] 0 setdash } def
/dash05 { [80  20  10  10  10  20] 0 setdash } def
/dash06 { [40  20  10  10  10  20] 0 setdash } def
/dash07 { [10  10] 0 setdash } def
%
/MFshow {
   { dup 5 get 3 ge
     { 5 get 3 eq {gsave} {grestore} ifelse }
     {dup dup 0 get findfont exch 1 get scalefont setfont
     [ currentpoint ] exch dup 2 get 0 exch R dup 5 get 2 ne {dup dup 6
     get exch 4 get {show} {stringwidth pop 0 R} ifelse }if dup 5 get 0 eq
     {dup 3 get {2 get neg 0 exch R pop} {pop aload pop M} ifelse} {dup 5
     get 1 eq {dup 2 get exch dup 3 get exch 6 get stringwidth pop -2 div
     dup 0 R} {dup 6 get stringwidth pop -2 div 0 R 6 get
     show 2 index {aload pop M neg 3 -1 roll neg R pop pop} {pop pop pop
     pop aload pop M} ifelse }ifelse }ifelse }
     ifelse }
   forall} bind def
/MFwidth {0 exch {dup 3 get{dup dup 0 get findfont exch 1 get scalefont
     setfont 6 get stringwidth pop add} {pop} ifelse} forall} bind def
/MCshow { currentpoint stroke M
  exch dup MFwidth -2 div 3 -1 roll R MFshow } def
%
end
%%EndProlog
bkdict begin
0.1 0.1 scale
%
% Residuals:
%
GSN 620 3204 M
620 3831 L
620 3718 L
620 3307 L
620 3704 L
620 3580 L
620 3348 L
620 3506 L
620 3284 L
620 3286 L
620 3639 L
620 3432 L
620 3353 L
620 3593 L
620 3581 L
620 3449 L
620 3596 L
620 3348 L
620 3533 L
620 3632 L
620 3779 L
620 3909 L
620 3578 L
620 3548 L
620 3457 L
620 3620 L
620 4122 L
620 4044 L
620 3760 L
620 3782 L
620 3746 L
620 3772 L
620 3832 L
620 4019 L
620 3358 L
620 4100 L
620 3576 L
620 3617 L
620 3504 L
620 3752 L
620 3772 L
620 3296 L
620 3750 L
620 3760 L
620 3478 L
620 3696 L
620 3928 L
620 3901 L
620 3456 L
620 3583 L
620 3647 L
620 3469 L
620 3429 L
620 3650 L
620 3733 L
620 3501 L
620 3346 L
620 3392 L
620 3398 L
620 3783 L
620 3494 L
620 3763 L
620 3776 L
620 3490 L
620 3529 L
620 3317 L
620 3292 L
620 3716 L
620 3561 L
620 3756 L
620 3239 L
620 3471 L
620 3561 L
620 3615 L
620 3550 L
620 3485 L
620 3284 L
620 3292 L
620 3480 L
620 3528 L
620 3597 L
620 3219 L
620 3134 L
620 3106 L
620 2742 L
620 3151 L
620 3304 L
620 3039 L
620 3074 L
620 2980 L
620 3184 L
620 2533 L
620 3074 L
620 2794 L
620 2708 L
620 2507 L
620 2553 L
620 2721 L
620 2647 L
620 2424 L
620 2588 L
620 2676 L
620 2930 L
620 2514 L
620 2664 L
620 2843 L
620 2603 L
620 2668 L
620 2529 L
620 2644 L
620 2548 L
620 2629 L
620 2314 L
620 2180 L
620 2293 L
620 2136 L
620 2375 L
620 2179 L
620 2658 L
620 2549 L
620 2589 L
620 2467 L
620 2699 L
620 2780 L
620 2337 L
620 2513 L
620 2711 L
620 2346 L
620 2918 L
620 2532 L
620 2326 L
620 2803 L
620 2835 L
620 2806 L
620 2588 L
620 2169 L
620 2968 L
620 2632 L
620 2547 L
620 2504 L
620 2963 L
620 2687 L
620 2638 L
620 3204 L
620 2452 L
620 2405 L
620 2672 L
620 2650 L
620 2747 L
620 2601 L
620 2399 L
620 2764 L
620 2980 L
620 2771 L
620 2719 L
620 2589 L
620 2536 L
620 3068 L
620 2812 L
620 2514 L
620 2953 L
620 2636 L
620 2652 L
620 3102 L
620 2770 L
620 2770 L
620 3218 L
620 2923 L
620 2834 L
620 3055 L
620 3142 L
620 2949 L
620 2744 L
620 2932 L
620 3354 L
620 3129 L
620 2744 L
620 3285 L
620 3227 L
620 2934 L
620 2713 L
620 3254 L
620 3282 L
620 3028 L
620 2624 L
620 3259 L
620 3100 L
620 3157 L
620 3491 L
620 3061 L
620 3218 L
620 3400 L
620 3078 L
620 3197 L
620 3100 L
620 3340 L
620 3397 L
620 3203 L
620 3099 L
620 3073 L
620 3115 L
620 3300 L
620 3600 L
620 3264 L
620 3379 L
620 2886 L
620 3449 L
620 3176 L
620 3445 L
620 3303 L
620 3166 L
620 3620 L
620 3581 L
620 3215 L
620 3366 L
620 3501 L
620 3625 L
620 3231 L
620 3566 L
620 3689 L
620 3485 L
620 3414 L
620 3126 L
620 3515 L
620 3153 L
620 3421 L
620 3533 L
620 3515 L
620 3637 L
620 3586 L
620 3298 L
620 3882 L
620 3394 L
620 3356 L
620 3823 L
620 3550 L
620 3508 L
620 3591 L
620 3198 L
620 3332 L
620 3889 L
620 3777 L
620 3677 L
620 3932 L
620 3488 L
620 3363 L
620 3457 L
620 3914 L
620 3708 L
620 3454 L
620 3567 L
620 3817 L
620 3668 L
620 3675 L
620 3332 L
620 3823 L
620 4000 L
620 3637 L
620 3589 L
620 3671 L
620 3767 L
620 3672 L
620 3709 L
620 3777 L
620 3406 L
620 3925 L
620 3787 L
620 3698 L
620 3796 L
620 3966 L
620 3344 L
620 3584 L
620 3728 L
620 3980 L
620 3655 L
620 3824 L
620 3712 L
620 3821 L
620 3830 L
620 3302 L
620 4085 L
620 3861 L
620 4223 L
620 3898 L
620 3839 L
620 4318 L
620 4304 L
620 4110 L
620 4022 L
620 4456 L
620 4190 L
620 4321 L
620 3938 L
620 4257 L
620 4154 L
620 4277 L
620 4225 L
620 4379 L
620 4249 L
620 4111 L
620 4392 L
620 4232 L
620 4261 L
620 4325 L
620 4422 L
620 4254 L
620 4087 L
620 4467 L
620 4222 L
620 4613 L
620 4863 L
620 4467 L
620 4301 L
620 4152 L
620 4582 L
620 4420 L
620 4111 L
620 4256 L
620 4349 L
620 4636 L
620 4727 L
620 4152 L
620 4134 L
620 4225 L
620 4463 L
620 4297 L
620 4532 L
620 4449 L
620 4277 L
620 4298 L
620 4269 L
620 4288 L
620 4308 L
620 4074 L
620 4195 L
620 4774 L
620 4206 L
620 4337 L
620 4029 L
620 4070 L
620 4310 L
620 4181 L
620 4239 L
620 4148 L
620 4328 L
620 4497 L
620 4088 L
620 4750 L
620 4178 L
620 4247 L
620 4437 L
620 4080 L
620 3993 L
620 4408 L
620 4507 L
620 3932 L
620 4288 L
620 3966 L
620 4041 L
620 4446 L
620 4213 L
620 4142 L
620 3925 L
620 4121 L
620 4172 L
620 4447 L
620 4301 L
620 3992 L
620 4131 L
620 4128 L
620 4281 L
620 3800 L
620 4022 L
620 3932 L
620 3895 L
620 4125 L
620 3944 L
620 3901 L
620 4219 L
620 4547 L
620 4308 L
620 4095 L
620 3773 L
620 4227 L
620 3726 L
620 4056 L
620 4172 L
620 3953 L
620 4036 L
620 4152 L
620 4166 L
620 3881 L
620 3759 L
620 3749 L
620 3751 L
620 3928 L
620 3934 L
620 3705 L
620 3856 L
620 3868 L
620 3516 L
620 3860 L
620 4007 L
620 3978 L
620 3795 L
620 3868 L
620 3793 L
620 4030 L
620 3807 L
620 3965 L
620 4256 L
620 4033 L
620 3812 L
620 4043 L
620 3927 L
620 3936 L
620 3988 L
620 3529 L
620 3617 L
620 3870 L
620 4033 L
620 3931 L
620 3736 L
620 3785 L
620 3847 L
620 4003 L
620 3834 L
620 4176 L
620 3989 L
620 3894 L
620 4220 L
620 4030 L
620 3878 L
620 3908 L
620 3910 L
620 3819 L
620 3616 L
620 4070 L
620 3697 L
620 4104 L
620 4148 L
620 3938 L
620 3787 L
620 3802 L
620 4078 L
620 4134 L
620 3844 L
620 3954 L
620 4112 L
620 3915 L
620 3853 L
620 3866 L
620 3702 L
620 3457 L
620 3585 L
620 3610 L
620 3614 L
620 3787 L
620 3745 L
620 3908 L
620 4056 L
620 3797 L
620 3827 L
620 4166 L
620 3963 L
620 3695 L
620 3965 L
620 4339 L
620 3687 L
620 3848 L
620 4024 L
620 3468 L
620 3558 L
620 3590 L
620 4164 L
620 3965 L
620 3704 L
620 3830 L
620 3582 L
620 3809 L
620 3281 L
620 4022 L
620 3749 L
620 3545 L
620 3489 L
620 4046 L
620 3800 L
620 3413 L
620 4027 L
620 3948 L
620 4032 L
620 3556 L
620 3802 L
620 3572 L
620 3678 L
620 4017 L
620 3576 L
620 3857 L
620 3550 L
620 3401 L
620 3734 L
620 3782 L
620 3890 L
620 3837 L
620 3890 L
620 3887 L
620 4111 L
620 3999 L
620 3938 L
620 3748 L
620 3745 L
620 3512 L
620 3609 L
620 3809 L
620 3773 L
620 3827 L
620 3718 L
620 3952 L
620 3655 L
620 4254 L
620 3620 L
620 3921 L
620 3660 L
620 3624 L
620 4144 L
620 3756 L
620 3783 L
620 3743 L
620 4033 L
620 4087 L
620 3728 L
620 3817 L
620 3579 L
L2 C06 COSGR

%
%================
% Legend - Begin
%================
%
GSN 4240 5180 M
4480 5180 L
LWMC SL  C06 COSGR
GSN 4540 5141 M helvM (3.0 uM) show grestore
%
%================
% Legend - End
%================
%

%
% Main frame
%
L10
GSN 
620 1700 M
4220 1700 L
4220 5300 L
620 5300 L
closepath SGR

%
% X axis: large tics
%
L10
%
% X axis: small tics
%
L5
%
% Y axis: large tics
%
L10
GSN 620 2119 M 54 0 rL SGR
GSN 4220 2119 M -54 0 rL SGR
helvS (-0.02) 560 2119 ylabel
GSN 620 2863 M 54 0 rL SGR
GSN 4220 2863 M -54 0 rL SGR
helvS (-0.01) 560 2863 ylabel
GSN 620 3608 M 54 0 rL SGR
GSN 4220 3608 M -54 0 rL SGR
helvS (0) 560 3608 ylabel
GSN 620 4352 M 54 0 rL SGR
GSN 4220 4352 M -54 0 rL SGR
helvS (0.01) 560 4352 ylabel
GSN 620 5096 M 54 0 rL SGR
GSN 4220 5096 M -54 0 rL SGR
helvS (0.02) 560 5096 ylabel
%
% Y axis: small tics
%
L5
GSN 620 1747 M 36 0 rL SGR
GSN 4220 1747 M -36 0 rL SGR
GSN 620 1933 M 36 0 rL SGR
GSN 4220 1933 M -36 0 rL SGR
GSN 620 2119 M 36 0 rL SGR
GSN 4220 2119 M -36 0 rL SGR
GSN 620 2305 M 36 0 rL SGR
GSN 4220 2305 M -36 0 rL SGR
GSN 620 2491 M 36 0 rL SGR
GSN 4220 2491 M -36 0 rL SGR
GSN 620 2677 M 36 0 rL SGR
GSN 4220 2677 M -36 0 rL SGR
GSN 620 2863 M 36 0 rL SGR
GSN 4220 2863 M -36 0 rL SGR
GSN 620 3049 M 36 0 rL SGR
GSN 4220 3049 M -36 0 rL SGR
GSN 620 3235 M 36 0 rL SGR
GSN 4220 3235 M -36 0 rL SGR
GSN 620 3421 M 36 0 rL SGR
GSN 4220 3421 M -36 0 rL SGR
GSN 620 3608 M 36 0 rL SGR
GSN 4220 3608 M -36 0 rL SGR
GSN 620 3794 M 36 0 rL SGR
GSN 4220 3794 M -36 0 rL SGR
GSN 620 3980 M 36 0 rL SGR
GSN 4220 3980 M -36 0 rL SGR
GSN 620 4166 M 36 0 rL SGR
GSN 4220 4166 M -36 0 rL SGR
GSN 620 4352 M 36 0 rL SGR
GSN 4220 4352 M -36 0 rL SGR
GSN 620 4538 M 36 0 rL SGR
GSN 4220 4538 M -36 0 rL SGR
GSN 620 4724 M 36 0 rL SGR
GSN 4220 4724 M -36 0 rL SGR
GSN 620 4910 M 36 0 rL SGR
GSN 4220 4910 M -36 0 rL SGR
GSN 620 5096 M 36 0 rL SGR
GSN 4220 5096 M -36 0 rL SGR
GSN 620 5282 M 36 0 rL SGR
GSN 4220 5282 M -36 0 rL SGR

%
% X axis - residual panel
%
GSN L5 620 3608 M 4220 3608 L SDA G50 SGR

%
% X-Axis label:
%
gsave 620 1370 M 
[
[(Helvetica) 180 0 true true 0 (t)]
[(Helvetica) 180 0 true true 0 (i)]
[(Helvetica) 180 0 true true 0 (m)]
[(Helvetica) 180 0 true true 0 (e)]
] 0 MCshow grestore

%
% Y-Axis label:
%
gsave 234 3500 M 
currentpoint gsave translate 90 rotate 0 0 moveto
[
[(Helvetica) 180 0 true true 0 (r)]
[(Helvetica) 180 0 true true 0 (e)]
[(Helvetica) 180 0 true true 0 (s)]
[(Helvetica) 180 0 true true 0 (i)]
[(Helvetica) 180 0 true true 0 (d)]
[(Helvetica) 180 0 true true 0 (u)]
[(Helvetica) 180 0 true true 0 (a)]
[(Helvetica) 180 0 true true 0 (l)]
[(Helvetica) 180 0 true true 0 (s)]
] 0 MCshow grestore

end
showpage
%%Trailer
%%EOF
