%!PS-Adobe-3.0 EPSF-3.0
%%BoundingBox: 0 0 514 550
%%Creator: BioKin Ltd.
%%DocumentFonts: Symbol Helvetica
%%EndComments
%
/bkdict 256 dict def
bkdict begin
/M {moveto} def 
/R {rmoveto} def
/L {lineto} def
/rL {rlineto} def
/GSN {gsave newpath} def
/SGR {stroke grestore} def
/COSGR {gsave setrgbcolor stroke grestore grestore} def
/SL {setlinewidth} def
/LWMB {12} def             % line width - model curves, black & white
/LWMC {10} def             % line width - model curves, color
/L2 {2.5 setlinewidth} def
/L5 {5 setlinewidth} def
/L10 {10 setlinewidth} def
/G50 {0.5 setgray} def
/SDA {[10  20] 0 setdash} def % axes
/helvT {/Helvetica findfont 100 scalefont setfont} def % tiny
/helvS {/Helvetica findfont 125 scalefont setfont} def % small
/helvM {/Helvetica findfont 150 scalefont setfont} def % medium
/helvL {/Helvetica findfont 175 scalefont setfont} def % large
/xlabel {gsave M dup
   stringwidth exch -0.5 mul exch rmoveto show grestore} def 
/ylabel {gsave M 90 rotate dup
   stringwidth exch -0.5 mul exch rmoveto show grestore} def
/ylabelresid {gsave M dup
   stringwidth exch -1 mul exch rmoveto show grestore} def
% ======
% Shapes
% ======
% Circle:
/Circ {0 360 arc closepath} def
%
% Square:
/Squa {dup dup -0.5 mul dup dup R -2 mul 0 exch rL 1 mul 0 rL dup 0 exch -1 mul rL closepath} def
%
% Triangle Up:
/TriU {dup dup dup -0.4 mul exch -0.5 mul exch R dup 0.5 mul exch rL dup -1 mul exch 0.5 mul exch rL closepath} def 
%
% Triangle Down:
/TriD {dup dup dup 0.4 mul exch -0.5 mul exch R dup 0.5 mul exch -1 mul rL dup 0.5 mul exch rL closepath} def 
%
% Diamond:
/Diam {45 rotate Squa} def
% ======
% Fills
% ======
/GRF {gsave setgray fill grestore} def                    % gray-level Fill
/COF {gsave setrgbcolor fill grestore} def                % color fill
% ======
% Colors
% ======
/C01 {1.00	0.00	0.00} def      % Red
/C02 {0.00	0.00	1.00} def      % Blue
/C03 {0.00	0.39	0.00} def      % Dark Green
/C04 {0.78	0.08	0.52} def      % Medium Violet Red
/C05 {0.55	0.27	0.07} def      % Saddle Brown
/C06 {0.10	0.70	0.70} def      % (cyan)
/C07 {1.00	0.55	0.00} def      % Dark Orange
/C08 {0.63	0.13	0.94} def      % Purple
/C09 {0.00	0.75	1.00} def      % Deep Sky Blue
/C10 {0.20	0.80	0.20} def      % Lime Green
/C11 {0.47	0.53	0.60} def      % Light Slate Gray
/C12 {0.00	0.00	0.00} def      % Black            % or: {0.19	0.31	0.31} def      % Dark Slate Gray
%
/LGR {0.75} def % light gray
/DGR {0.33} def % dark gray
%
% =============
% Dash patterns
% =============
/dash01 { [80  20] 0 setdash } def
/dash02 { [40  20] 0 setdash } def
/dash03 { [80  20  10  20] 0 setdash } def
/dash04 { [40  20  10  20] 0 setdash } def
/dash05 { [80  20  10  10  10  20] 0 setdash } def
/dash06 { [40  20  10  10  10  20] 0 setdash } def
/dash07 { [10  10] 0 setdash } def
%
/MFshow {
   { dup 5 get 3 ge
     { 5 get 3 eq {gsave} {grestore} ifelse }
     {dup dup 0 get findfont exch 1 get scalefont setfont
     [ currentpoint ] exch dup 2 get 0 exch R dup 5 get 2 ne {dup dup 6
     get exch 4 get {show} {stringwidth pop 0 R} ifelse }if dup 5 get 0 eq
     {dup 3 get {2 get neg 0 exch R pop} {pop aload pop M} ifelse} {dup 5
     get 1 eq {dup 2 get exch dup 3 get exch 6 get stringwidth pop -2 div
     dup 0 R} {dup 6 get stringwidth pop -2 div 0 R 6 get
     show 2 index {aload pop M neg 3 -1 roll neg R pop pop} {pop pop pop
     pop aload pop M} ifelse }ifelse }ifelse }
     ifelse }
   forall} bind def
/MFwidth {0 exch {dup 3 get{dup dup 0 get findfont exch 1 get scalefont
     setfont 6 get stringwidth pop add} {pop} ifelse} forall} bind def
/MCshow { currentpoint stroke M
  exch dup MFwidth -2 div 3 -1 roll R MFshow } def
%
end
%%EndProlog
bkdict begin
0.1 0.1 scale
%
% Residuals:
%
GSN 620 3780 M
620 3351 L
620 3548 L
620 4197 L
620 3927 L
620 3726 L
620 3823 L
620 3863 L
620 3996 L
620 3879 L
620 3970 L
620 3467 L
620 4442 L
620 3692 L
620 4082 L
620 4267 L
620 4182 L
620 4334 L
620 3714 L
620 4039 L
620 3914 L
620 3659 L
620 3827 L
620 4058 L
620 3686 L
620 4230 L
620 4543 L
620 4173 L
620 4465 L
620 4074 L
620 3836 L
620 3259 L
620 3638 L
620 3732 L
620 4243 L
620 4251 L
620 3959 L
620 4016 L
620 4216 L
620 4212 L
620 4481 L
620 4863 L
620 3775 L
620 4038 L
620 3432 L
620 3738 L
620 3505 L
620 4069 L
620 4119 L
620 3999 L
620 4193 L
620 4371 L
620 3552 L
620 2759 L
620 3260 L
620 3765 L
620 4120 L
620 4525 L
620 3828 L
620 3580 L
620 3341 L
620 4137 L
620 3290 L
620 3598 L
620 4174 L
620 4028 L
620 3299 L
620 3785 L
620 3752 L
620 3470 L
620 3402 L
620 4066 L
620 3649 L
620 3858 L
620 3421 L
620 3849 L
620 3884 L
620 3809 L
620 3659 L
620 3683 L
620 3837 L
620 3427 L
620 3392 L
620 3602 L
620 3829 L
620 3735 L
620 3832 L
620 3907 L
620 3132 L
620 3312 L
620 3460 L
620 4249 L
620 3258 L
620 2649 L
620 3861 L
620 3155 L
620 3627 L
620 2928 L
620 3598 L
620 3404 L
620 3116 L
620 2846 L
620 3442 L
620 3175 L
620 2250 L
620 3108 L
620 3198 L
620 2346 L
620 3307 L
620 2927 L
620 3443 L
620 2643 L
620 3522 L
620 3504 L
620 3321 L
620 3018 L
620 3049 L
620 3129 L
620 2820 L
620 2954 L
620 3143 L
620 3097 L
620 3051 L
620 2516 L
620 2898 L
620 2812 L
620 2482 L
620 2759 L
620 3199 L
620 2560 L
620 3000 L
620 2594 L
620 2636 L
620 2509 L
620 2819 L
620 2732 L
620 2609 L
620 2645 L
620 3035 L
620 2524 L
620 2834 L
620 2461 L
620 2567 L
620 2673 L
620 2584 L
620 2516 L
620 2427 L
620 2502 L
620 2453 L
620 2763 L
620 2938 L
620 2550 L
620 2920 L
620 3423 L
620 2567 L
620 2443 L
620 2493 L
620 3097 L
620 2753 L
620 2739 L
620 3476 L
620 3303 L
620 2371 L
620 3009 L
620 2552 L
620 2960 L
620 2956 L
620 2916 L
620 2991 L
620 2986 L
620 3230 L
620 2573 L
620 3415 L
620 3381 L
620 3082 L
620 3645 L
620 2136 L
620 2724 L
620 3257 L
620 2749 L
620 2894 L
620 2928 L
620 2909 L
620 3103 L
620 2236 L
620 3158 L
620 3377 L
620 4294 L
620 2984 L
620 4010 L
620 2501 L
620 3507 L
620 3283 L
620 2541 L
620 3228 L
620 3368 L
620 3289 L
620 2730 L
620 3283 L
620 2905 L
620 3000 L
620 3040 L
620 3259 L
620 3368 L
620 2786 L
620 2920 L
620 2895 L
620 3588 L
620 3423 L
620 2791 L
620 3423 L
620 3184 L
620 3463 L
620 3872 L
620 3653 L
620 3553 L
620 3618 L
620 3633 L
620 4016 L
620 3319 L
620 3443 L
620 3942 L
620 3707 L
620 3175 L
620 3254 L
620 3757 L
620 3104 L
620 3822 L
620 2766 L
620 3244 L
620 3613 L
620 3946 L
620 3882 L
620 3573 L
620 3518 L
620 3269 L
620 3264 L
620 3433 L
620 3254 L
620 3628 L
620 3154 L
620 3110 L
620 3080 L
620 3464 L
620 3349 L
620 3339 L
620 3483 L
620 3120 L
620 3548 L
620 3927 L
620 3732 L
620 3085 L
620 3997 L
620 4201 L
620 3678 L
620 3294 L
620 3159 L
620 3493 L
620 3488 L
620 3120 L
620 2886 L
620 3214 L
620 2826 L
620 3095 L
620 4345 L
620 3967 L
620 3563 L
620 3638 L
620 4266 L
620 4156 L
620 3593 L
620 2925 L
620 2975 L
620 4101 L
620 4270 L
620 3628 L
620 4251 L
620 3917 L
620 3110 L
620 3633 L
620 3219 L
620 3469 L
620 3817 L
620 3688 L
620 3464 L
620 4091 L
620 3374 L
620 3997 L
620 4216 L
620 3957 L
620 3768 L
620 4131 L
620 4191 L
620 4051 L
620 4345 L
620 4465 L
620 3753 L
620 3987 L
620 3708 L
620 4196 L
620 3319 L
620 3668 L
620 3683 L
620 3762 L
620 4256 L
620 3723 L
620 4086 L
620 4574 L
620 3857 L
620 3932 L
620 3852 L
620 4196 L
620 3618 L
620 3747 L
620 3867 L
620 3892 L
620 3817 L
620 3852 L
620 4161 L
620 3404 L
620 4524 L
620 4664 L
620 3678 L
620 4166 L
620 3105 L
620 3867 L
620 4480 L
620 3543 L
620 3314 L
620 3718 L
620 4091 L
620 4569 L
620 3823 L
620 3334 L
620 3792 L
620 3872 L
620 4305 L
620 3683 L
620 3807 L
620 3643 L
620 3479 L
620 4171 L
620 3897 L
620 3563 L
620 4081 L
620 3753 L
620 3957 L
620 4375 L
620 3658 L
620 3454 L
620 4226 L
620 4076 L
620 3398 L
620 3419 L
620 3782 L
620 3344 L
620 3718 L
620 3882 L
620 3698 L
620 4629 L
620 3264 L
620 4056 L
620 4051 L
620 4515 L
620 3553 L
620 3727 L
620 3578 L
620 3967 L
620 3289 L
620 3713 L
620 3543 L
620 3613 L
620 4016 L
620 3319 L
620 4191 L
620 4325 L
620 3852 L
620 3508 L
620 3309 L
620 4126 L
620 3862 L
620 4101 L
620 3209 L
620 3717 L
620 3887 L
620 3708 L
620 3887 L
620 3593 L
620 4216 L
620 3663 L
620 3937 L
620 3762 L
620 3862 L
620 3877 L
620 3733 L
620 3777 L
620 4196 L
620 3399 L
620 3653 L
620 3962 L
620 4106 L
620 3444 L
620 4156 L
620 3837 L
620 4400 L
620 3254 L
620 4216 L
620 3952 L
620 3767 L
620 3533 L
620 3792 L
620 3842 L
620 4151 L
620 4106 L
620 3229 L
620 3418 L
620 3742 L
620 3498 L
620 3842 L
620 4166 L
620 3224 L
620 3409 L
620 3434 L
620 4031 L
620 3070 L
620 3618 L
620 3354 L
620 3683 L
620 3803 L
620 3977 L
620 4096 L
620 3892 L
620 3583 L
620 3992 L
620 3992 L
620 3972 L
620 3857 L
620 3668 L
620 2975 L
620 3513 L
620 4410 L
620 4191 L
620 3708 L
620 3922 L
620 4171 L
620 3065 L
620 4021 L
620 3966 L
620 3259 L
620 3832 L
620 3125 L
620 3673 L
620 4161 L
620 4301 L
620 3538 L
620 4435 L
620 3344 L
620 3842 L
620 3802 L
620 4380 L
620 3274 L
620 4231 L
620 4161 L
620 3847 L
620 3633 L
620 3742 L
620 3643 L
620 4385 L
620 3628 L
620 3902 L
620 4226 L
620 3723 L
620 3837 L
620 3708 L
620 4445 L
620 3702 L
620 3438 L
620 4216 L
620 4001 L
620 4126 L
620 3424 L
620 4066 L
620 3972 L
620 4285 L
620 4410 L
620 4166 L
620 3782 L
620 4027 L
620 3827 L
620 4036 L
620 4719 L
620 3927 L
620 4166 L
620 3683 L
620 4126 L
620 3752 L
620 3972 L
620 3952 L
620 4076 L
620 3543 L
620 3693 L
620 3309 L
620 4116 L
620 4699 L
620 3045 L
620 4390 L
620 3832 L
620 3667 L
620 4176 L
620 4300 L
620 3757 L
620 4430 L
620 4186 L
620 3668 L
620 3932 L
620 3877 L
620 3962 L
620 4370 L
620 4141 L
620 3817 L
620 4839 L
620 3842 L
620 3897 L
620 4235 L
620 4156 L
620 3364 L
620 3932 L
620 3199 L
620 3738 L
620 4031 L
620 4206 L
620 3683 L
620 4131 L
L2 C01 COSGR

%
%================
% Legend - Begin
%================
%
GSN 4240 5180 M
4480 5180 L
LWMC SL  C01 COSGR
GSN 4540 5141 M helvM (0.5 uM) show grestore
%
%================
% Legend - End
%================
%

%
% Main frame
%
L10
GSN 
620 1700 M
4220 1700 L
4220 5300 L
620 5300 L
closepath SGR

%
% X axis: large tics
%
L10
%
% X axis: small tics
%
L5
%
% Y axis: large tics
%
L10
GSN 620 2636 M 54 0 rL SGR
GSN 4220 2636 M -54 0 rL SGR
helvS (-0.01) 560 2636 ylabel
GSN 620 3616 M 54 0 rL SGR
GSN 4220 3616 M -54 0 rL SGR
helvS (0) 560 3616 ylabel
GSN 620 4595 M 54 0 rL SGR
GSN 4220 4595 M -54 0 rL SGR
helvS (0.01) 560 4595 ylabel
%
% Y axis: small tics
%
L5
GSN 620 1902 M 36 0 rL SGR
GSN 4220 1902 M -36 0 rL SGR
GSN 620 2147 M 36 0 rL SGR
GSN 4220 2147 M -36 0 rL SGR
GSN 620 2391 M 36 0 rL SGR
GSN 4220 2391 M -36 0 rL SGR
GSN 620 2636 M 36 0 rL SGR
GSN 4220 2636 M -36 0 rL SGR
GSN 620 2881 M 36 0 rL SGR
GSN 4220 2881 M -36 0 rL SGR
GSN 620 3126 M 36 0 rL SGR
GSN 4220 3126 M -36 0 rL SGR
GSN 620 3371 M 36 0 rL SGR
GSN 4220 3371 M -36 0 rL SGR
GSN 620 3616 M 36 0 rL SGR
GSN 4220 3616 M -36 0 rL SGR
GSN 620 3861 M 36 0 rL SGR
GSN 4220 3861 M -36 0 rL SGR
GSN 620 4105 M 36 0 rL SGR
GSN 4220 4105 M -36 0 rL SGR
GSN 620 4350 M 36 0 rL SGR
GSN 4220 4350 M -36 0 rL SGR
GSN 620 4595 M 36 0 rL SGR
GSN 4220 4595 M -36 0 rL SGR
GSN 620 4840 M 36 0 rL SGR
GSN 4220 4840 M -36 0 rL SGR
GSN 620 5085 M 36 0 rL SGR
GSN 4220 5085 M -36 0 rL SGR

%
% X axis - residual panel
%
GSN L5 620 3616 M 4220 3616 L SDA G50 SGR

%
% X-Axis label:
%
gsave 620 1370 M 
[
[(Helvetica) 180 0 true true 0 (t)]
[(Helvetica) 180 0 true true 0 (i)]
[(Helvetica) 180 0 true true 0 (m)]
[(Helvetica) 180 0 true true 0 (e)]
] 0 MCshow grestore

%
% Y-Axis label:
%
gsave 234 3500 M 
currentpoint gsave translate 90 rotate 0 0 moveto
[
[(Helvetica) 180 0 true true 0 (r)]
[(Helvetica) 180 0 true true 0 (e)]
[(Helvetica) 180 0 true true 0 (s)]
[(Helvetica) 180 0 true true 0 (i)]
[(Helvetica) 180 0 true true 0 (d)]
[(Helvetica) 180 0 true true 0 (u)]
[(Helvetica) 180 0 true true 0 (a)]
[(Helvetica) 180 0 true true 0 (l)]
[(Helvetica) 180 0 true true 0 (s)]
] 0 MCshow grestore

end
showpage
%%Trailer
%%EOF
