%!PS-Adobe-3.0 EPSF-3.0
%%BoundingBox: 0 0 514 550
%%Creator: BioKin Ltd.
%%DocumentFonts: Symbol Helvetica
%%EndComments
%
/bkdict 256 dict def
bkdict begin
/M {moveto} def 
/R {rmoveto} def
/L {lineto} def
/rL {rlineto} def
/GSN {gsave newpath} def
/SGR {stroke grestore} def
/COSGR {gsave setrgbcolor stroke grestore grestore} def
/SL {setlinewidth} def
/LWMB {12} def             % line width - model curves, black & white
/LWMC {10} def             % line width - model curves, color
/L2 {2.5 setlinewidth} def
/L5 {5 setlinewidth} def
/L10 {10 setlinewidth} def
/G50 {0.5 setgray} def
/SDA {[10  20] 0 setdash} def % axes
/helvT {/Helvetica findfont 100 scalefont setfont} def % tiny
/helvS {/Helvetica findfont 125 scalefont setfont} def % small
/helvM {/Helvetica findfont 150 scalefont setfont} def % medium
/helvL {/Helvetica findfont 175 scalefont setfont} def % large
/xlabel {gsave M dup
   stringwidth exch -0.5 mul exch rmoveto show grestore} def 
/ylabel {gsave M 90 rotate dup
   stringwidth exch -0.5 mul exch rmoveto show grestore} def
/ylabelresid {gsave M dup
   stringwidth exch -1 mul exch rmoveto show grestore} def
% ======
% Shapes
% ======
% Circle:
/Circ {0 360 arc closepath} def
%
% Square:
/Squa {dup dup -0.5 mul dup dup R -2 mul 0 exch rL 1 mul 0 rL dup 0 exch -1 mul rL closepath} def
%
% Triangle Up:
/TriU {dup dup dup -0.4 mul exch -0.5 mul exch R dup 0.5 mul exch rL dup -1 mul exch 0.5 mul exch rL closepath} def 
%
% Triangle Down:
/TriD {dup dup dup 0.4 mul exch -0.5 mul exch R dup 0.5 mul exch -1 mul rL dup 0.5 mul exch rL closepath} def 
%
% Diamond:
/Diam {45 rotate Squa} def
% ======
% Fills
% ======
/GRF {gsave setgray fill grestore} def                    % gray-level Fill
/COF {gsave setrgbcolor fill grestore} def                % color fill
% ======
% Colors
% ======
/C01 {1.00	0.00	0.00} def      % Red
/C02 {0.00	0.00	1.00} def      % Blue
/C03 {0.00	0.39	0.00} def      % Dark Green
/C04 {0.78	0.08	0.52} def      % Medium Violet Red
/C05 {0.55	0.27	0.07} def      % Saddle Brown
/C06 {0.10	0.70	0.70} def      % (cyan)
/C07 {1.00	0.55	0.00} def      % Dark Orange
/C08 {0.63	0.13	0.94} def      % Purple
/C09 {0.00	0.75	1.00} def      % Deep Sky Blue
/C10 {0.20	0.80	0.20} def      % Lime Green
/C11 {0.47	0.53	0.60} def      % Light Slate Gray
/C12 {0.00	0.00	0.00} def      % Black            % or: {0.19	0.31	0.31} def      % Dark Slate Gray
%
/LGR {0.75} def % light gray
/DGR {0.33} def % dark gray
%
% =============
% Dash patterns
% =============
/dash01 { [80  20] 0 setdash } def
/dash02 { [40  20] 0 setdash } def
/dash03 { [80  20  10  20] 0 setdash } def
/dash04 { [40  20  10  20] 0 setdash } def
/dash05 { [80  20  10  10  10  20] 0 setdash } def
/dash06 { [40  20  10  10  10  20] 0 setdash } def
/dash07 { [10  10] 0 setdash } def
%
/MFshow {
   { dup 5 get 3 ge
     { 5 get 3 eq {gsave} {grestore} ifelse }
     {dup dup 0 get findfont exch 1 get scalefont setfont
     [ currentpoint ] exch dup 2 get 0 exch R dup 5 get 2 ne {dup dup 6
     get exch 4 get {show} {stringwidth pop 0 R} ifelse }if dup 5 get 0 eq
     {dup 3 get {2 get neg 0 exch R pop} {pop aload pop M} ifelse} {dup 5
     get 1 eq {dup 2 get exch dup 3 get exch 6 get stringwidth pop -2 div
     dup 0 R} {dup 6 get stringwidth pop -2 div 0 R 6 get
     show 2 index {aload pop M neg 3 -1 roll neg R pop pop} {pop pop pop
     pop aload pop M} ifelse }ifelse }ifelse }
     ifelse }
   forall} bind def
/MFwidth {0 exch {dup 3 get{dup dup 0 get findfont exch 1 get scalefont
     setfont 6 get stringwidth pop add} {pop} ifelse} forall} bind def
/MCshow { currentpoint stroke M
  exch dup MFwidth -2 div 3 -1 roll R MFshow } def
%
end
%%EndProlog
bkdict begin
0.1 0.1 scale
%
% Residuals:
%
GSN 620 3599 M
620 3975 L
620 3361 L
620 3364 L
620 3324 L
620 2970 L
620 2136 L
620 3027 L
620 2617 L
620 2492 L
620 2822 L
620 2626 L
620 3062 L
620 2970 L
620 3299 L
620 2888 L
620 2835 L
620 2810 L
620 3036 L
620 2940 L
620 3022 L
620 2823 L
620 2922 L
620 2932 L
620 2797 L
620 2559 L
620 3140 L
620 3015 L
620 3144 L
620 3274 L
620 3313 L
620 2988 L
620 3281 L
620 3251 L
620 3292 L
620 3053 L
620 3121 L
620 3139 L
620 3323 L
620 3157 L
620 3161 L
620 3080 L
620 2791 L
620 3290 L
620 3262 L
620 3096 L
620 2873 L
620 3166 L
620 2994 L
620 2993 L
620 2748 L
620 3049 L
620 3128 L
620 3037 L
620 2864 L
620 3263 L
620 3192 L
620 3317 L
620 3334 L
620 2863 L
620 2999 L
620 3584 L
620 3246 L
620 3087 L
620 3216 L
620 2965 L
620 3097 L
620 3437 L
620 3015 L
620 3231 L
620 3219 L
620 3454 L
620 3536 L
620 3383 L
620 3630 L
620 3070 L
620 3385 L
620 3367 L
620 3566 L
620 3169 L
620 3073 L
620 3226 L
620 3253 L
620 3804 L
620 3398 L
620 3384 L
620 3122 L
620 3413 L
620 3547 L
620 3352 L
620 3012 L
620 3177 L
620 3494 L
620 3476 L
620 3491 L
620 3407 L
620 3574 L
620 3483 L
620 3726 L
620 3296 L
620 3579 L
620 3797 L
620 3564 L
620 3753 L
620 3605 L
620 3440 L
620 3502 L
620 3477 L
620 3522 L
620 3369 L
620 3762 L
620 3472 L
620 3655 L
620 3645 L
620 3503 L
620 3428 L
620 3439 L
620 3374 L
620 3860 L
620 3555 L
620 3761 L
620 3672 L
620 3512 L
620 3610 L
620 3613 L
620 3932 L
620 3151 L
620 3638 L
620 3564 L
620 3594 L
620 3506 L
620 3863 L
620 3686 L
620 4117 L
620 3897 L
620 3770 L
620 3669 L
620 3690 L
620 3975 L
620 3723 L
620 3791 L
620 3755 L
620 3683 L
620 3788 L
620 3816 L
620 4049 L
620 3920 L
620 3904 L
620 4079 L
620 3663 L
620 3692 L
620 3958 L
620 3836 L
620 3790 L
620 3800 L
620 3504 L
620 3648 L
620 3739 L
620 3835 L
620 3956 L
620 4250 L
620 4114 L
620 3951 L
620 3821 L
620 3892 L
620 3762 L
620 3845 L
620 3948 L
620 3946 L
620 3773 L
620 4130 L
620 3709 L
620 3827 L
620 3746 L
620 3844 L
620 4012 L
620 3897 L
620 3877 L
620 4086 L
620 3753 L
620 3967 L
620 3909 L
620 3828 L
620 3968 L
620 3834 L
620 4053 L
620 4094 L
620 3843 L
620 3938 L
620 4257 L
620 4036 L
620 3867 L
620 3929 L
620 3813 L
620 3694 L
620 4009 L
620 3917 L
620 3687 L
620 3904 L
620 4032 L
620 3772 L
620 3495 L
620 3981 L
620 4195 L
620 4124 L
620 4219 L
620 4255 L
620 3922 L
620 3803 L
620 3937 L
620 4082 L
620 4088 L
620 3951 L
620 4068 L
620 4123 L
620 4118 L
620 3986 L
620 3998 L
620 4151 L
620 3851 L
620 4167 L
620 4059 L
620 4082 L
620 4282 L
620 3670 L
620 4008 L
620 4214 L
620 3841 L
620 3855 L
620 4006 L
620 4273 L
620 4203 L
620 4045 L
620 4172 L
620 3974 L
620 3945 L
620 4023 L
620 4325 L
620 4051 L
620 4053 L
620 4003 L
620 3991 L
620 4180 L
620 4193 L
620 4594 L
620 4177 L
620 4245 L
620 4415 L
620 4160 L
620 4072 L
620 4220 L
620 4036 L
620 4043 L
620 4134 L
620 4307 L
620 3985 L
620 3595 L
620 4266 L
620 4042 L
620 4189 L
620 3912 L
620 4227 L
620 4473 L
620 4442 L
620 4259 L
620 3890 L
620 3925 L
620 4373 L
620 4482 L
620 4424 L
620 4382 L
620 3984 L
620 4150 L
620 4217 L
620 4151 L
620 4178 L
620 4243 L
620 4509 L
620 4428 L
620 4498 L
620 4415 L
620 4471 L
620 4172 L
620 4066 L
620 4012 L
620 4207 L
620 4310 L
620 4213 L
620 4415 L
620 3906 L
620 4406 L
620 4171 L
620 4410 L
620 4318 L
620 4465 L
620 4472 L
620 4163 L
620 4409 L
620 4123 L
620 4276 L
620 4237 L
620 4093 L
620 4136 L
620 4323 L
620 4221 L
620 4521 L
620 4413 L
620 4425 L
620 4150 L
620 4339 L
620 4536 L
620 4220 L
620 4204 L
620 4748 L
620 4188 L
620 4711 L
620 4153 L
620 4231 L
620 4325 L
620 4313 L
620 4386 L
620 4195 L
620 4304 L
620 4094 L
620 4438 L
620 4227 L
620 4327 L
620 4524 L
620 4565 L
620 4349 L
620 4259 L
620 4293 L
620 4385 L
620 4427 L
620 4121 L
620 4358 L
620 4528 L
620 4398 L
620 4569 L
620 3886 L
620 3974 L
620 4077 L
620 4509 L
620 4863 L
620 4248 L
620 4474 L
620 4271 L
620 4187 L
620 4481 L
620 4303 L
620 4414 L
620 4261 L
620 4536 L
620 4050 L
620 4368 L
620 4294 L
620 4109 L
620 4419 L
620 4507 L
620 4407 L
620 4844 L
620 4372 L
620 4161 L
620 4601 L
620 4381 L
620 4175 L
620 4326 L
620 4569 L
620 4229 L
620 4281 L
620 4437 L
620 4421 L
620 4405 L
620 4623 L
620 4188 L
620 4723 L
620 4181 L
620 4597 L
620 4557 L
620 4392 L
620 4167 L
620 4219 L
620 4232 L
620 4222 L
620 4364 L
620 4154 L
620 4726 L
620 4399 L
620 4548 L
620 4610 L
620 4560 L
620 4614 L
620 4553 L
620 4421 L
620 4451 L
620 4437 L
620 4382 L
620 4244 L
620 4140 L
620 4391 L
620 4446 L
620 4557 L
620 4526 L
620 4700 L
620 4413 L
620 4421 L
620 4223 L
620 4126 L
620 4649 L
620 4590 L
620 4537 L
620 4720 L
620 4541 L
620 4406 L
620 4411 L
620 4760 L
620 4356 L
620 4416 L
620 4444 L
620 4387 L
620 4476 L
620 4533 L
620 4549 L
620 3987 L
620 4408 L
620 4310 L
620 4461 L
620 4258 L
620 4425 L
620 4442 L
620 4606 L
620 4444 L
620 4603 L
620 4199 L
620 4438 L
620 4251 L
620 4259 L
620 4383 L
620 4388 L
620 4604 L
620 4378 L
620 4409 L
620 4401 L
620 4642 L
620 4384 L
620 4421 L
620 4420 L
620 4081 L
620 4553 L
620 4506 L
620 4700 L
620 4064 L
620 4764 L
620 4310 L
620 4004 L
620 4254 L
620 4442 L
620 4286 L
620 4277 L
620 4240 L
620 4627 L
620 4343 L
620 4364 L
620 4268 L
620 4133 L
620 4427 L
620 4514 L
620 4428 L
620 4312 L
620 4313 L
620 4259 L
620 4493 L
620 3996 L
620 4172 L
620 4099 L
620 4306 L
620 4540 L
620 4344 L
620 4253 L
620 4247 L
620 4195 L
620 4540 L
620 4227 L
620 4096 L
620 4169 L
620 4168 L
620 4182 L
620 4330 L
620 4325 L
620 4343 L
620 4377 L
620 4121 L
620 4262 L
620 4337 L
620 4015 L
620 4177 L
620 4000 L
620 4141 L
620 3984 L
620 4217 L
620 4512 L
620 4177 L
620 4098 L
620 4137 L
620 4509 L
620 4211 L
620 4188 L
620 4049 L
620 4183 L
620 4078 L
620 4345 L
620 4262 L
620 3854 L
620 4133 L
620 4356 L
620 4025 L
620 4254 L
620 4020 L
620 3975 L
620 4209 L
620 4283 L
620 4326 L
620 3896 L
620 4122 L
620 3892 L
620 3992 L
620 3874 L
620 4165 L
620 4321 L
620 3914 L
620 4173 L
620 4137 L
620 3767 L
620 3989 L
620 4138 L
620 4063 L
620 3917 L
620 4143 L
620 3738 L
620 4303 L
620 4310 L
620 4167 L
620 4489 L
620 3846 L
620 4048 L
620 4210 L
620 4190 L
620 3683 L
620 4008 L
620 3940 L
620 4225 L
620 4116 L
620 3901 L
620 4022 L
620 4090 L
620 3995 L
620 3949 L
620 4084 L
620 3887 L
620 3833 L
620 3793 L
620 3908 L
620 4243 L
620 3780 L
620 3902 L
620 3716 L
620 3920 L
620 3827 L
620 3824 L
620 3744 L
620 3983 L
620 4143 L
620 3813 L
620 3921 L
620 3807 L
620 3921 L
620 4111 L
620 4378 L
620 3852 L
620 3766 L
620 4009 L
620 3927 L
620 3844 L
620 3680 L
620 3648 L
620 4257 L
620 3951 L
620 4414 L
620 4025 L
620 3963 L
620 4089 L
620 4015 L
620 3915 L
620 3801 L
620 3822 L
620 3919 L
620 3739 L
620 3801 L
620 4225 L
620 3740 L
620 3904 L
620 3694 L
620 3567 L
620 3949 L
620 3734 L
620 3822 L
620 3778 L
620 3848 L
620 3885 L
620 3877 L
620 3914 L
620 4122 L
620 3716 L
620 3489 L
620 3917 L
620 3690 L
620 3974 L
620 3961 L
620 3798 L
620 3966 L
620 3976 L
620 3654 L
620 3465 L
620 3600 L
620 3987 L
620 3869 L
620 3486 L
620 3840 L
620 3783 L
620 3723 L
620 3617 L
620 3709 L
620 3568 L
620 3631 L
620 3767 L
620 3693 L
620 3965 L
620 3870 L
620 3931 L
620 3951 L
620 3793 L
620 3825 L
620 3863 L
620 4276 L
620 3727 L
620 3788 L
620 4189 L
620 3984 L
620 3648 L
620 3930 L
620 3716 L
620 3594 L
620 3858 L
620 3780 L
620 3809 L
620 3892 L
620 3612 L
620 3950 L
620 4015 L
620 4115 L
620 3718 L
620 3833 L
620 3608 L
620 3846 L
620 3772 L
620 3923 L
620 3741 L
620 3903 L
620 4113 L
620 3840 L
620 3444 L
620 4034 L
620 3788 L
620 3839 L
620 3794 L
620 3933 L
620 4156 L
620 3567 L
620 3702 L
620 3967 L
620 3541 L
620 3843 L
620 3676 L
620 3901 L
620 3590 L
620 4147 L
620 3621 L
620 3654 L
620 3670 L
620 3766 L
620 3847 L
620 3701 L
620 3614 L
620 3654 L
620 3806 L
620 3965 L
620 3630 L
620 3892 L
620 3971 L
620 4043 L
620 3837 L
620 3735 L
620 3669 L
620 3870 L
620 3555 L
620 3453 L
620 3955 L
620 3755 L
620 3790 L
620 3608 L
620 3907 L
620 3915 L
620 3968 L
620 3735 L
620 3928 L
620 3902 L
620 4138 L
620 3399 L
620 3729 L
620 3733 L
620 3858 L
620 3341 L
620 3801 L
620 3820 L
620 3448 L
620 3740 L
620 3832 L
620 3671 L
620 3401 L
620 4012 L
620 3958 L
620 3576 L
620 4021 L
620 3485 L
620 3670 L
620 3498 L
620 3885 L
620 3905 L
620 3737 L
620 3930 L
620 3700 L
620 3715 L
620 3646 L
620 4006 L
620 3696 L
620 3601 L
620 3599 L
620 3818 L
620 4024 L
620 3935 L
620 3853 L
620 3699 L
620 3770 L
620 3846 L
620 4032 L
620 3696 L
620 3788 L
620 3621 L
620 3692 L
620 3756 L
620 3786 L
620 3852 L
620 3858 L
620 3689 L
620 3761 L
620 3700 L
620 3679 L
620 3734 L
620 3739 L
620 3532 L
620 3500 L
620 3802 L
620 4117 L
620 3675 L
620 3645 L
620 4105 L
620 3875 L
620 3783 L
620 3895 L
620 3625 L
620 3751 L
620 3496 L
620 3735 L
620 3709 L
620 3821 L
620 3684 L
620 3768 L
620 3761 L
620 3750 L
620 3920 L
620 3907 L
620 3692 L
620 3962 L
620 4158 L
620 3959 L
620 3375 L
620 3645 L
620 3649 L
620 3490 L
620 3599 L
620 3896 L
620 3830 L
620 3785 L
620 3393 L
620 3987 L
620 3977 L
620 3658 L
620 3839 L
620 3857 L
620 3778 L
620 3834 L
620 3767 L
620 3933 L
620 3864 L
620 3744 L
620 3743 L
620 3779 L
620 3715 L
620 3644 L
620 3946 L
620 3852 L
620 4020 L
620 4088 L
620 3663 L
620 3763 L
620 3730 L
620 3789 L
620 4031 L
620 3623 L
620 3876 L
620 3764 L
620 3738 L
620 3454 L
620 3559 L
620 4063 L
620 3727 L
620 3810 L
620 3712 L
620 3880 L
620 3833 L
620 3833 L
620 3819 L
620 3805 L
620 3955 L
620 3586 L
620 3909 L
620 4391 L
620 4022 L
620 3771 L
620 3748 L
620 3869 L
620 3794 L
620 3597 L
620 3877 L
620 4082 L
620 3681 L
620 3803 L
620 3820 L
620 3745 L
620 3755 L
620 3855 L
620 3780 L
620 3568 L
620 3602 L
620 3791 L
620 4027 L
620 3904 L
620 3961 L
620 3944 L
620 3674 L
620 3902 L
620 4037 L
620 3821 L
620 3708 L
620 3290 L
620 3732 L
620 3696 L
620 3683 L
620 4033 L
620 3727 L
620 3902 L
620 3865 L
620 4030 L
620 3858 L
620 3721 L
620 3645 L
620 3885 L
620 3989 L
620 4098 L
620 3897 L
620 3970 L
620 3772 L
620 3861 L
620 3848 L
620 3625 L
620 3920 L
620 3896 L
620 3795 L
620 4045 L
620 3656 L
620 3756 L
620 3675 L
620 3887 L
620 3888 L
620 3950 L
620 4088 L
620 3788 L
620 3771 L
620 3845 L
620 4072 L
620 3840 L
620 3825 L
620 3717 L
620 3890 L
620 3899 L
620 3912 L
620 3800 L
620 4115 L
620 3690 L
620 3829 L
620 3788 L
620 4016 L
620 3775 L
620 3812 L
620 3778 L
620 3692 L
620 3605 L
620 4094 L
620 3957 L
620 3789 L
620 3759 L
620 4009 L
620 4099 L
620 3725 L
620 3749 L
620 3845 L
620 3703 L
620 3629 L
620 3754 L
620 4044 L
620 3737 L
620 3909 L
620 3698 L
620 3893 L
620 3744 L
620 4385 L
620 4006 L
620 3714 L
620 4090 L
620 3959 L
620 4063 L
620 3974 L
620 3849 L
620 3987 L
620 4473 L
620 3809 L
620 4052 L
620 3794 L
620 3882 L
620 4034 L
620 4083 L
620 4144 L
620 4284 L
620 3889 L
620 3687 L
620 3690 L
620 3843 L
620 4063 L
620 3718 L
620 4101 L
620 4118 L
620 3887 L
620 4084 L
620 3803 L
620 3634 L
620 4170 L
620 3694 L
620 4180 L
620 3999 L
620 3909 L
620 4209 L
620 3804 L
620 3984 L
620 3882 L
620 3978 L
620 4031 L
620 4149 L
620 4082 L
620 3655 L
620 3958 L
620 3950 L
620 4034 L
620 3814 L
620 3894 L
620 4117 L
620 4012 L
620 3945 L
620 3848 L
620 3885 L
620 3762 L
620 3874 L
620 3766 L
620 4361 L
620 4038 L
620 4350 L
620 3901 L
620 3946 L
620 3912 L
620 4187 L
620 4049 L
620 4159 L
620 4145 L
620 4005 L
620 4258 L
620 3884 L
620 4018 L
620 4092 L
620 3990 L
620 3978 L
620 3810 L
620 4035 L
620 4002 L
620 4122 L
620 3663 L
620 4102 L
620 4000 L
620 4118 L
620 4211 L
620 4308 L
620 3849 L
620 4216 L
620 3758 L
620 4182 L
620 3956 L
620 3880 L
620 4079 L
620 3932 L
620 3803 L
620 3958 L
620 4088 L
620 3901 L
620 4029 L
620 4331 L
620 3884 L
620 4080 L
620 4039 L
620 4079 L
620 3971 L
620 3634 L
620 4183 L
620 3825 L
620 4064 L
620 3846 L
620 4072 L
620 3994 L
620 4279 L
620 4009 L
620 4170 L
620 4264 L
620 3947 L
620 3587 L
620 3945 L
620 4089 L
620 4176 L
620 3988 L
620 4125 L
620 4292 L
620 4021 L
620 4062 L
620 3905 L
620 3951 L
620 3939 L
620 4053 L
620 3997 L
620 3691 L
620 4192 L
620 3696 L
620 3864 L
620 4086 L
620 3902 L
620 4023 L
620 4103 L
620 3842 L
620 4008 L
620 4110 L
620 3997 L
620 3910 L
620 4042 L
620 3676 L
620 4103 L
620 4073 L
620 4185 L
620 3976 L
620 4260 L
620 4165 L
620 4083 L
620 3988 L
620 4187 L
620 4076 L
620 4087 L
620 4175 L
620 4130 L
620 4119 L
620 4243 L
620 3625 L
620 4278 L
620 4033 L
620 4217 L
620 4177 L
620 4030 L
620 3864 L
620 4105 L
620 4301 L
620 3813 L
620 4039 L
620 4035 L
620 3964 L
620 4379 L
620 4155 L
620 4190 L
620 4001 L
620 4017 L
620 4243 L
620 4188 L
620 4178 L
620 4134 L
620 3986 L
620 4221 L
620 3787 L
620 4222 L
620 3835 L
620 4187 L
620 3993 L
620 4279 L
620 4311 L
620 4205 L
620 4054 L
620 4183 L
620 4236 L
620 4186 L
620 4137 L
620 4459 L
620 4296 L
620 4190 L
620 3904 L
620 3941 L
620 4035 L
620 3846 L
620 4100 L
620 4164 L
620 4209 L
620 4083 L
620 4103 L
620 3941 L
620 4025 L
620 3986 L
620 3973 L
620 3818 L
620 4146 L
620 3987 L
620 4154 L
620 4123 L
620 3931 L
620 4113 L
620 4267 L
620 4011 L
620 3881 L
620 4186 L
620 4111 L
620 4032 L
620 3997 L
620 3931 L
620 4108 L
620 4066 L
620 4183 L
620 4181 L
620 4168 L
620 3904 L
620 4087 L
620 3976 L
620 4253 L
620 3972 L
620 4287 L
620 4108 L
620 3719 L
620 4322 L
620 4233 L
620 4179 L
620 4144 L
620 4047 L
620 3989 L
620 3967 L
620 4202 L
620 4248 L
620 4079 L
620 4176 L
620 3932 L
620 4543 L
620 4102 L
620 3999 L
620 4310 L
620 3988 L
620 3961 L
620 4460 L
620 4165 L
620 4073 L
620 3930 L
620 4266 L
620 4359 L
620 4223 L
620 4307 L
620 3994 L
620 4025 L
620 3735 L
620 3978 L
620 4062 L
620 4043 L
620 4017 L
620 4208 L
620 3982 L
620 3766 L
620 4318 L
620 3973 L
620 3954 L
620 4133 L
620 4190 L
620 4003 L
620 4284 L
620 4391 L
620 3976 L
620 4304 L
620 4001 L
620 4373 L
620 4141 L
620 4165 L
620 4200 L
620 4120 L
620 4153 L
620 4082 L
620 4451 L
620 3980 L
620 3891 L
620 4181 L
620 3981 L
620 4268 L
620 4032 L
620 4115 L
620 4274 L
620 4394 L
620 4177 L
620 4469 L
620 4201 L
620 4288 L
620 4259 L
620 4253 L
620 4102 L
620 4150 L
620 4140 L
620 4305 L
620 3964 L
620 4147 L
620 4412 L
620 4188 L
620 4298 L
620 4202 L
620 4271 L
620 4088 L
620 4467 L
620 3989 L
620 3985 L
620 4507 L
620 4231 L
620 3848 L
620 3960 L
620 4424 L
620 3927 L
620 4117 L
620 4369 L
620 4259 L
620 4005 L
620 3893 L
620 4139 L
620 4231 L
620 3840 L
620 4064 L
620 4167 L
620 4064 L
620 4585 L
620 4406 L
620 3842 L
620 4379 L
620 4357 L
620 4192 L
620 4019 L
620 4423 L
620 4587 L
620 4038 L
620 4058 L
620 4449 L
620 4336 L
620 4219 L
620 4352 L
620 4036 L
620 4096 L
620 4112 L
620 4111 L
620 3896 L
620 4171 L
620 4141 L
620 4148 L
620 4438 L
620 4051 L
620 4438 L
620 3999 L
620 4059 L
620 4180 L
620 3955 L
620 4000 L
620 3894 L
620 4356 L
620 4292 L
620 4238 L
620 4426 L
620 4451 L
620 4199 L
620 4022 L
620 4209 L
620 4092 L
620 4263 L
620 4177 L
620 4160 L
620 4186 L
620 4487 L
620 3936 L
620 4217 L
620 3807 L
620 4193 L
620 4332 L
620 4051 L
620 4183 L
620 4128 L
620 4496 L
620 4164 L
620 4360 L
620 4183 L
620 4005 L
620 4268 L
620 4310 L
620 4105 L
620 4114 L
620 4500 L
620 4201 L
620 4293 L
620 4251 L
620 4449 L
620 4374 L
620 4325 L
620 4423 L
620 4289 L
620 4220 L
620 4629 L
620 4139 L
620 4445 L
620 4432 L
620 4274 L
620 4089 L
620 4158 L
620 4339 L
620 4395 L
620 4366 L
620 4142 L
620 4126 L
620 4101 L
620 4156 L
620 4072 L
620 4471 L
620 4325 L
620 4464 L
620 4245 L
620 4156 L
620 4361 L
620 4080 L
620 4309 L
620 4391 L
620 4010 L
620 4379 L
620 4166 L
620 4402 L
620 4267 L
620 4467 L
620 4093 L
620 4175 L
620 4336 L
620 4522 L
620 4515 L
620 3908 L
620 4328 L
620 3685 L
620 4150 L
620 4040 L
620 4217 L
620 4256 L
620 4320 L
620 4457 L
620 3962 L
620 4449 L
620 4502 L
620 4422 L
620 4331 L
620 4435 L
620 3812 L
620 4249 L
620 4556 L
620 4393 L
620 4572 L
620 4681 L
620 4425 L
620 4227 L
620 4282 L
620 4292 L
620 4388 L
620 4480 L
620 4338 L
620 4468 L
620 4457 L
620 4458 L
620 4265 L
620 4625 L
620 4568 L
620 4127 L
620 4278 L
620 4452 L
620 4567 L
620 3999 L
620 4449 L
620 4487 L
620 4344 L
620 4561 L
620 4108 L
620 4450 L
620 4300 L
620 4307 L
620 3942 L
620 4413 L
620 3807 L
620 3973 L
620 4104 L
620 4309 L
620 3937 L
620 4279 L
620 3906 L
620 4286 L
620 4301 L
620 4465 L
620 4137 L
620 4260 L
620 4431 L
620 4090 L
620 4053 L
620 4430 L
620 4221 L
620 4692 L
620 4370 L
620 4065 L
620 4114 L
620 4146 L
620 4324 L
620 4011 L
620 4199 L
620 3998 L
620 4191 L
620 4392 L
620 4448 L
620 4319 L
620 4319 L
620 4097 L
620 4290 L
620 4358 L
620 4654 L
620 3889 L
620 4389 L
620 4259 L
620 4312 L
620 4158 L
620 4257 L
620 4109 L
620 3988 L
620 4308 L
620 4052 L
620 3983 L
620 3880 L
620 4398 L
620 4384 L
620 4028 L
620 3918 L
620 4237 L
620 4243 L
620 4070 L
620 3962 L
620 3961 L
620 4067 L
620 4245 L
620 3958 L
620 4220 L
620 3971 L
620 4275 L
620 3984 L
620 3823 L
620 3680 L
620 3986 L
620 4388 L
620 4040 L
620 3910 L
620 4016 L
620 4272 L
620 4037 L
620 4026 L
620 4021 L
620 3920 L
620 4006 L
620 3858 L
620 3897 L
620 4258 L
620 3885 L
620 4347 L
620 3908 L
620 4128 L
620 3821 L
620 3651 L
620 4057 L
620 3972 L
620 3685 L
620 4233 L
620 4069 L
620 3972 L
620 4072 L
620 3857 L
620 3813 L
620 3938 L
620 3719 L
620 3700 L
620 4224 L
620 3811 L
620 3773 L
620 4119 L
620 3570 L
620 4334 L
620 4199 L
620 3990 L
620 3781 L
620 3958 L
620 3831 L
620 4045 L
620 3992 L
620 3926 L
620 3879 L
620 3823 L
620 4075 L
620 3914 L
620 3782 L
620 4283 L
620 4082 L
620 4148 L
620 4097 L
620 4076 L
620 4049 L
620 4273 L
620 3941 L
620 4353 L
620 3926 L
620 3921 L
620 4066 L
620 3731 L
620 4194 L
620 4064 L
620 3820 L
620 3915 L
620 3692 L
620 3933 L
620 3897 L
620 3847 L
620 3745 L
620 3770 L
620 3934 L
620 3810 L
620 3954 L
620 3968 L
620 3719 L
620 3965 L
620 4238 L
620 4276 L
620 4148 L
620 3747 L
620 4195 L
620 3933 L
620 4038 L
620 3756 L
620 3500 L
620 3771 L
620 3969 L
620 4086 L
620 3790 L
620 4147 L
620 3646 L
620 3699 L
620 3941 L
620 4211 L
620 4001 L
620 3977 L
620 3772 L
620 3619 L
620 3709 L
620 3975 L
620 3509 L
620 3774 L
620 3955 L
620 3769 L
620 4232 L
620 3512 L
620 3792 L
620 3919 L
620 3410 L
620 3921 L
620 3943 L
620 3935 L
620 3647 L
620 3652 L
620 3742 L
620 3724 L
620 3849 L
620 3811 L
620 3733 L
620 3916 L
620 3675 L
620 3879 L
620 4045 L
620 3697 L
620 3668 L
620 3537 L
620 3729 L
620 3909 L
620 3824 L
620 4007 L
620 3661 L
620 3573 L
620 3715 L
620 3866 L
620 3908 L
620 3668 L
620 3875 L
620 4129 L
620 3344 L
620 4001 L
620 3566 L
620 3812 L
620 3672 L
620 4062 L
620 4075 L
620 3836 L
620 4054 L
620 3787 L
620 3624 L
620 3864 L
620 3404 L
620 3855 L
620 3817 L
620 3538 L
620 3885 L
620 3678 L
620 3645 L
620 4173 L
620 3890 L
620 3847 L
620 3580 L
620 4134 L
620 3502 L
620 3748 L
620 3600 L
620 4331 L
620 3583 L
620 3827 L
620 4005 L
620 3531 L
620 3956 L
620 3644 L
620 3770 L
620 3821 L
620 3754 L
620 3565 L
620 3947 L
620 3717 L
620 4016 L
620 4313 L
620 3868 L
620 4027 L
620 3729 L
620 3743 L
620 3720 L
620 3864 L
620 3994 L
620 3701 L
620 4130 L
620 3812 L
620 3538 L
620 3849 L
620 3613 L
620 4109 L
620 3675 L
620 3726 L
620 3616 L
620 3559 L
620 4024 L
620 3740 L
620 3731 L
620 3709 L
620 3785 L
620 3501 L
620 3998 L
620 3808 L
620 3961 L
620 3819 L
620 4061 L
620 3979 L
620 3806 L
620 3894 L
620 4076 L
620 3877 L
620 3851 L
620 3507 L
620 3643 L
620 3342 L
620 3656 L
620 3384 L
620 3741 L
620 3653 L
620 3842 L
620 3618 L
620 3538 L
620 3890 L
620 3906 L
620 3847 L
620 3752 L
620 3990 L
620 3893 L
620 3467 L
620 3740 L
620 3717 L
620 3892 L
620 4152 L
620 3728 L
620 3797 L
620 3650 L
620 3651 L
620 3760 L
620 3524 L
620 3765 L
620 3836 L
L2 C07 COSGR

%
%================
% Legend - Begin
%================
%
GSN 4240 5180 M
4480 5180 L
LWMC SL  C07 COSGR
GSN 4540 5141 M helvM (4.0 uM) show grestore
%
%================
% Legend - End
%================
%

%
% Main frame
%
L10
GSN 
620 1700 M
4220 1700 L
4220 5300 L
620 5300 L
closepath SGR

%
% X axis: large tics
%
L10
%
% X axis: small tics
%
L5
%
% Y axis: large tics
%
L10
GSN 620 1812 M 54 0 rL SGR
GSN 4220 1812 M -54 0 rL SGR
helvS (-0.03) 560 1812 ylabel
GSN 620 2526 M 54 0 rL SGR
GSN 4220 2526 M -54 0 rL SGR
helvS (-0.02) 560 2526 ylabel
GSN 620 3239 M 54 0 rL SGR
GSN 4220 3239 M -54 0 rL SGR
helvS (-0.01) 560 3239 ylabel
GSN 620 3953 M 54 0 rL SGR
GSN 4220 3953 M -54 0 rL SGR
helvS (3.46945e-018) 560 3953 ylabel
GSN 620 4666 M 54 0 rL SGR
GSN 4220 4666 M -54 0 rL SGR
helvS (0.01) 560 4666 ylabel
%
% Y axis: small tics
%
L5
GSN 620 1812 M 36 0 rL SGR
GSN 4220 1812 M -36 0 rL SGR
GSN 620 2169 M 36 0 rL SGR
GSN 4220 2169 M -36 0 rL SGR
GSN 620 2526 M 36 0 rL SGR
GSN 4220 2526 M -36 0 rL SGR
GSN 620 2883 M 36 0 rL SGR
GSN 4220 2883 M -36 0 rL SGR
GSN 620 3239 M 36 0 rL SGR
GSN 4220 3239 M -36 0 rL SGR
GSN 620 3596 M 36 0 rL SGR
GSN 4220 3596 M -36 0 rL SGR
GSN 620 3953 M 36 0 rL SGR
GSN 4220 3953 M -36 0 rL SGR
GSN 620 4310 M 36 0 rL SGR
GSN 4220 4310 M -36 0 rL SGR
GSN 620 4666 M 36 0 rL SGR
GSN 4220 4666 M -36 0 rL SGR
GSN 620 5023 M 36 0 rL SGR
GSN 4220 5023 M -36 0 rL SGR

%
% X axis - residual panel
%
GSN L5 620 3953 M 4220 3953 L SDA G50 SGR

%
% X-Axis label:
%
gsave 620 1370 M 
[
[(Helvetica) 180 0 true true 0 (t)]
[(Helvetica) 180 0 true true 0 (i)]
[(Helvetica) 180 0 true true 0 (m)]
[(Helvetica) 180 0 true true 0 (e)]
] 0 MCshow grestore

%
% Y-Axis label:
%
gsave 234 3500 M 
currentpoint gsave translate 90 rotate 0 0 moveto
[
[(Helvetica) 180 0 true true 0 (r)]
[(Helvetica) 180 0 true true 0 (e)]
[(Helvetica) 180 0 true true 0 (s)]
[(Helvetica) 180 0 true true 0 (i)]
[(Helvetica) 180 0 true true 0 (d)]
[(Helvetica) 180 0 true true 0 (u)]
[(Helvetica) 180 0 true true 0 (a)]
[(Helvetica) 180 0 true true 0 (l)]
[(Helvetica) 180 0 true true 0 (s)]
] 0 MCshow grestore

end
showpage
%%Trailer
%%EOF
