%!PS-Adobe-3.0 EPSF-3.0
%%BoundingBox: 0 0 514 550
%%Creator: BioKin Ltd.
%%DocumentFonts: Symbol Helvetica
%%EndComments
%
/bkdict 256 dict def
bkdict begin
/M {moveto} def 
/R {rmoveto} def
/L {lineto} def
/rL {rlineto} def
/GSN {gsave newpath} def
/SGR {stroke grestore} def
/COSGR {gsave setrgbcolor stroke grestore grestore} def
/SL {setlinewidth} def
/LWMB {12} def             % line width - model curves, black & white
/LWMC {10} def             % line width - model curves, color
/L2 {2.5 setlinewidth} def
/L5 {5 setlinewidth} def
/L10 {10 setlinewidth} def
/G50 {0.5 setgray} def
/SDA {[10  20] 0 setdash} def % axes
/helvT {/Helvetica findfont 100 scalefont setfont} def % tiny
/helvS {/Helvetica findfont 125 scalefont setfont} def % small
/helvM {/Helvetica findfont 150 scalefont setfont} def % medium
/helvL {/Helvetica findfont 175 scalefont setfont} def % large
/xlabel {gsave M dup
   stringwidth exch -0.5 mul exch rmoveto show grestore} def 
/ylabel {gsave M 90 rotate dup
   stringwidth exch -0.5 mul exch rmoveto show grestore} def
/ylabelresid {gsave M dup
   stringwidth exch -1 mul exch rmoveto show grestore} def
% ======
% Shapes
% ======
% Circle:
/Circ {0 360 arc closepath} def
%
% Square:
/Squa {dup dup -0.5 mul dup dup R -2 mul 0 exch rL 1 mul 0 rL dup 0 exch -1 mul rL closepath} def
%
% Triangle Up:
/TriU {dup dup dup -0.4 mul exch -0.5 mul exch R dup 0.5 mul exch rL dup -1 mul exch 0.5 mul exch rL closepath} def 
%
% Triangle Down:
/TriD {dup dup dup 0.4 mul exch -0.5 mul exch R dup 0.5 mul exch -1 mul rL dup 0.5 mul exch rL closepath} def 
%
% Diamond:
/Diam {45 rotate Squa} def
% ======
% Fills
% ======
/GRF {gsave setgray fill grestore} def                    % gray-level Fill
/COF {gsave setrgbcolor fill grestore} def                % color fill
% ======
% Colors
% ======
/C01 {1.00	0.00	0.00} def      % Red
/C02 {0.00	0.00	1.00} def      % Blue
/C03 {0.00	0.39	0.00} def      % Dark Green
/C04 {0.78	0.08	0.52} def      % Medium Violet Red
/C05 {0.55	0.27	0.07} def      % Saddle Brown
/C06 {0.10	0.70	0.70} def      % (cyan)
/C07 {1.00	0.55	0.00} def      % Dark Orange
/C08 {0.63	0.13	0.94} def      % Purple
/C09 {0.00	0.75	1.00} def      % Deep Sky Blue
/C10 {0.20	0.80	0.20} def      % Lime Green
/C11 {0.47	0.53	0.60} def      % Light Slate Gray
/C12 {0.00	0.00	0.00} def      % Black            % or: {0.19	0.31	0.31} def      % Dark Slate Gray
%
/LGR {0.75} def % light gray
/DGR {0.33} def % dark gray
%
% =============
% Dash patterns
% =============
/dash01 { [80  20] 0 setdash } def
/dash02 { [40  20] 0 setdash } def
/dash03 { [80  20  10  20] 0 setdash } def
/dash04 { [40  20  10  20] 0 setdash } def
/dash05 { [80  20  10  10  10  20] 0 setdash } def
/dash06 { [40  20  10  10  10  20] 0 setdash } def
/dash07 { [10  10] 0 setdash } def
%
/MFshow {
   { dup 5 get 3 ge
     { 5 get 3 eq {gsave} {grestore} ifelse }
     {dup dup 0 get findfont exch 1 get scalefont setfont
     [ currentpoint ] exch dup 2 get 0 exch R dup 5 get 2 ne {dup dup 6
     get exch 4 get {show} {stringwidth pop 0 R} ifelse }if dup 5 get 0 eq
     {dup 3 get {2 get neg 0 exch R pop} {pop aload pop M} ifelse} {dup 5
     get 1 eq {dup 2 get exch dup 3 get exch 6 get stringwidth pop -2 div
     dup 0 R} {dup 6 get stringwidth pop -2 div 0 R 6 get
     show 2 index {aload pop M neg 3 -1 roll neg R pop pop} {pop pop pop
     pop aload pop M} ifelse }ifelse }ifelse }
     ifelse }
   forall} bind def
/MFwidth {0 exch {dup 3 get{dup dup 0 get findfont exch 1 get scalefont
     setfont 6 get stringwidth pop add} {pop} ifelse} forall} bind def
/MCshow { currentpoint stroke M
  exch dup MFwidth -2 div 3 -1 roll R MFshow } def
%
end
%%EndProlog
bkdict begin
0.1 0.1 scale
%
% Model curves:
%

GSN 753 5166 M
753 5166 L
786 5166 L
820 5165 L
853 5164 L
886 5163 L
903 5163 L
919 5162 L
953 5161 L
986 5160 L
1020 5158 L
1053 5156 L
1053 5156 L
1086 5154 L
1120 5152 L
1153 5149 L
1186 5145 L
1203 5143 L
1220 5141 L
1253 5137 L
1286 5131 L
1320 5125 L
1353 5118 L
1353 5118 L
1386 5110 L
1420 5100 L
1453 5088 L
1486 5075 L
1503 5068 L
1520 5060 L
1553 5042 L
1586 5022 L
1620 4998 L
1653 4971 L
1653 4971 L
1686 4940 L
1720 4905 L
1753 4864 L
1786 4817 L
1804 4791 L
1820 4765 L
1853 4705 L
1886 4638 L
1920 4563 L
1953 4480 L
1954 4478 L
1986 4388 L
2020 4287 L
2053 4178 L
2086 4060 L
2104 3995 L
2120 3935 L
2153 3804 L
2186 3668 L
2220 3529 L
2253 3391 L
2254 3386 L
2286 3254 L
2320 3123 L
2353 2999 L
2386 2887 L
2404 2831 L
2420 2786 L
2453 2700 L
2486 2630 L
2520 2574 L
2553 2532 L
2554 2531 L
2586 2503 L
2620 2483 L
2653 2471 L
2686 2463 L
2704 2460 L
2720 2458 L
2753 2455 L
2786 2453 L
2820 2452 L
2853 2451 L
2854 2451 L
2886 2451 L
2920 2451 L
2953 2451 L
2986 2451 L
3004 2451 L
3020 2451 L
3053 2451 L
3068 2451 L
3086 2451 L
3120 2451 L
3153 2451 L
3155 2451 L
3186 2451 L
3220 2451 L
3253 2451 L
3286 2451 L
3305 2451 L
3320 2451 L
3353 2451 L
3386 2451 L
3420 2451 L
3453 2451 L
3455 2451 L
3486 2451 L
3520 2451 L
3553 2451 L
3586 2451 L
3605 2451 L
3620 2451 L
3653 2451 L
3686 2451 L
3720 2451 L
3753 2451 L
3755 2451 L
3786 2451 L
3820 2451 L
3853 2451 L
3886 2451 L
3905 2451 L
3920 2451 L
3953 2451 L
3986 2451 L
4020 2451 L
4053 2451 L
4086 2451 L
LWMC SL  C07 COSGR

%
% Experimental data:
%
GSN 773 4995 M
1625 4562 L
1773 4397 L
1860 4353 L
1922 4348 L
1970 4015 L
2009 4356 L
2043 4139 L
2072 4127 L
2097 4021 L
2120 3761 L
2140 3979 L
2159 3767 L
2176 3685 L
2192 3764 L
2207 3620 L
2221 3563 L
2234 3677 L
2247 3415 L
2259 3578 L
2270 3620 L
2280 3490 L
2290 3617 L
2300 3383 L
2309 3518 L
2318 3565 L
2326 3283 L
2335 3383 L
2342 3351 L
2350 3450 L
2357 3210 L
2364 3065 L
2371 3437 L
2378 3128 L
2384 3293 L
2391 3190 L
2397 3129 L
2403 3141 L
2409 3096 L
2414 3047 L
2420 2883 L
2425 3098 L
2430 2990 L
2435 2979 L
2440 2976 L
2445 2859 L
2450 2977 L
2455 2767 L
2459 2772 L
2464 2841 L
2468 2840 L
2472 2684 L
2476 2619 L
2481 2582 L
2485 2831 L
2489 2696 L
2492 2804 L
2496 2667 L
2500 2756 L
2504 2772 L
2507 2622 L
2511 2759 L
2514 2748 L
2518 2826 L
2521 2628 L
2525 2523 L
2528 2523 L
2531 2561 L
2534 2332 L
2538 2593 L
2541 2544 L
2544 2463 L
2547 2752 L
2550 2367 L
2553 2499 L
2556 2643 L
2559 2322 L
2561 2302 L
2564 2514 L
2567 2434 L
2570 2427 L
2580 2369 L
2590 2395 L
2600 2484 L
2609 2296 L
2618 2178 L
2627 2319 L
2635 2103 L
2643 2156 L
2650 2166 L
2658 2308 L
2665 2052 L
2672 2251 L
2678 2134 L
2685 2038 L
2691 2061 L
2697 1998 L
2703 1984 L
2709 2101 L
2714 1992 L
2720 2181 L
2725 2018 L
2730 2098 L
2735 1926 L
2740 2075 L
2745 1921 L
2750 2028 L
2755 1974 L
2759 2119 L
2764 2072 L
2768 2088 L
2772 1970 L
2777 1867 L
2781 1833 L
2785 1989 L
2789 1964 L
2793 2022 L
2796 2168 L
2800 2085 L
2804 2000 L
2808 2000 L
2811 1964 L
2815 2024 L
2818 1909 L
2822 2075 L
2825 2025 L
2828 1894 L
2831 1945 L
2835 2008 L
2838 2013 L
2841 1982 L
2844 2087 L
2847 1998 L
2850 2119 L
2853 1862 L
2856 2139 L
2859 1930 L
2862 2272 L
2864 2113 L
2867 2184 L
2870 2120 L
2873 1914 L
2875 2171 L
2878 2174 L
2880 2156 L
2883 2096 L
2886 2222 L
2888 1973 L
2891 2090 L
2893 2041 L
2895 2184 L
2898 2103 L
2900 2157 L
2902 2114 L
2905 2007 L
2907 2346 L
2909 2155 L
2912 2122 L
2914 2249 L
2916 1959 L
2918 2250 L
2920 2299 L
2922 2223 L
2925 2176 L
2927 2239 L
2929 2175 L
2931 2197 L
2933 2180 L
2935 2241 L
2937 2286 L
2939 2266 L
2941 2165 L
2943 2264 L
2945 2361 L
2947 2295 L
2948 2203 L
2950 2299 L
2952 2159 L
2954 2341 L
2956 2315 L
2958 2227 L
2959 2412 L
2961 2277 L
2963 2319 L
2965 2252 L
2966 2200 L
2968 2239 L
2970 2288 L
2972 2230 L
2973 2590 L
2975 2413 L
2977 2274 L
2978 2427 L
2980 2212 L
2982 2449 L
2983 2479 L
2985 2502 L
2986 2405 L
2988 2361 L
2989 2397 L
2991 2322 L
2993 2338 L
2994 2481 L
2996 2405 L
2997 2415 L
2999 2397 L
3000 2517 L
3002 2442 L
3003 2345 L
3005 2422 L
3006 2305 L
3007 2557 L
3009 2175 L
3010 2473 L
3012 2378 L
3013 2512 L
3014 2419 L
3016 2406 L
3017 2449 L
3019 2455 L
3020 2507 L
3021 2564 L
3023 2336 L
3024 2431 L
3025 2413 L
3027 2488 L
3028 2323 L
3029 2528 L
3031 2492 L
3032 2384 L
3033 2532 L
3034 2410 L
3036 2504 L
3037 2425 L
3038 2418 L
3039 2520 L
3041 2561 L
3042 2600 L
3043 2416 L
3044 2520 L
3045 2595 L
3047 2464 L
3048 2594 L
3049 2460 L
3050 2296 L
3051 2532 L
3053 2595 L
3054 2538 L
3055 2417 L
3056 2446 L
3057 2689 L
3058 2487 L
3059 2512 L
3061 2581 L
3062 2712 L
3063 2392 L
3064 2374 L
3065 2526 L
3066 2644 L
3067 2759 L
3068 2557 L
3069 2497 L
3070 2679 L
3071 2537 L
3073 2599 L
3074 2450 L
3075 2527 L
3076 2333 L
3077 2510 L
3078 2443 L
3079 2717 L
3080 2648 L
3081 2790 L
3082 2492 L
3083 2522 L
3084 2704 L
3085 2644 L
3086 2654 L
3087 2496 L
3088 2395 L
3089 2566 L
3112 2708 L
3133 2369 L
3152 2863 L
3170 2714 L
3186 2766 L
3201 2680 L
3216 2809 L
3229 2718 L
3241 2550 L
3253 2526 L
3264 2735 L
3275 2726 L
3285 2696 L
3295 2733 L
3304 2693 L
3313 2866 L
3322 2723 L
3330 2607 L
3338 2815 L
3346 2732 L
3353 2857 L
3360 2929 L
3367 2745 L
3374 2654 L
3380 2691 L
3387 2735 L
3393 2798 L
3399 2600 L
3405 2536 L
3410 2757 L
3416 2720 L
3421 2951 L
3426 2827 L
3431 2763 L
3436 2712 L
3441 2732 L
3446 2796 L
3451 2979 L
3455 2852 L
3460 2883 L
3464 2807 L
3469 2632 L
3473 2822 L
3477 2805 L
3481 2658 L
3485 2752 L
3489 2884 L
3493 2812 L
3496 2707 L
3500 2938 L
3504 2687 L
3507 2753 L
3511 2772 L
3514 2970 L
3518 2601 L
3521 2782 L
3525 2752 L
3528 2724 L
3531 2732 L
3534 2717 L
3537 2670 L
3540 2641 L
3543 2767 L
3546 2787 L
3549 2930 L
3552 2525 L
3555 2802 L
3558 2805 L
3561 2747 L
3564 2779 L
3566 2762 L
3575 2769 L
3586 2872 L
3595 2690 L
3605 2845 L
3613 2632 L
3622 2650 L
3630 2635 L
3638 2577 L
3646 2712 L
3653 2638 L
3660 2590 L
3667 2637 L
3674 2897 L
3681 2580 L
3687 2704 L
3693 2623 L
3699 2598 L
3705 2638 L
3710 2898 L
3716 2529 L
3721 2571 L
3727 2526 L
3732 2596 L
3737 2525 L
3742 2511 L
3746 2510 L
3751 2562 L
3756 2619 L
3760 2398 L
3764 2601 L
3769 2493 L
3773 2688 L
3777 2652 L
3781 2530 L
3785 2597 L
3789 2437 L
3793 2428 L
3797 2529 L
3800 2465 L
3804 2597 L
3808 2471 L
3811 2645 L
3815 2481 L
3818 2568 L
3821 2693 L
3825 2448 L
3828 2484 L
3831 2522 L
3834 2386 L
3838 2388 L
3841 2627 L
3844 2605 L
3847 2235 L
3850 2469 L
3853 2671 L
3855 2466 L
3858 2596 L
3861 2638 L
3864 2639 L
3867 2370 L
3869 2637 L
3872 2399 L
3875 2612 L
3877 2365 L
3880 2383 L
3882 2358 L
3885 2489 L
3887 2541 L
3890 2617 L
3892 2483 L
3895 2502 L
3897 2509 L
3899 2484 L
3902 2499 L
3904 2553 L
3906 2434 L
3908 2455 L
3911 2602 L
3913 2218 L
3915 2266 L
3917 2492 L
3919 2472 L
3921 2491 L
3923 2574 L
3926 2367 L
3928 2572 L
3930 2517 L
3932 2384 L
3934 2611 L
3936 2587 L
3938 2469 L
3940 2561 L
3942 2446 L
3943 2490 L
3945 2437 L
3947 2507 L
3949 2576 L
3951 2508 L
3953 2432 L
3955 2191 L
3956 2548 L
3958 2599 L
3960 2547 L
3962 2314 L
3963 2328 L
3965 2469 L
3967 2589 L
3969 2386 L
3970 2335 L
3972 2578 L
3974 2517 L
3975 2433 L
3977 2323 L
3978 2318 L
3980 2453 L
3982 2401 L
3983 2345 L
3985 2355 L
3986 2245 L
3988 2459 L
3990 2276 L
3991 2427 L
3993 2430 L
3994 2536 L
3996 2364 L
3997 2378 L
3999 2548 L
4000 2502 L
4001 2388 L
4003 2254 L
4004 2325 L
4006 2396 L
4007 2407 L
4009 2286 L
4010 2447 L
4011 2460 L
4013 2459 L
4014 2443 L
4016 2473 L
4017 2165 L
4018 2362 L
4020 2249 L
4021 2395 L
4022 2467 L
4024 2223 L
4025 2629 L
4026 2388 L
4028 2519 L
4029 2456 L
4030 2215 L
4031 2258 L
4033 2264 L
4034 2451 L
4035 2267 L
4036 2160 L
4038 2500 L
4039 2299 L
4040 2322 L
4041 2379 L
4042 2240 L
4044 2280 L
4045 2498 L
4046 2282 L
4047 2443 L
4048 2321 L
4050 2354 L
4051 2560 L
4052 2406 L
4053 2486 L
4054 2184 L
4055 2338 L
4056 2378 L
4058 2466 L
4059 2282 L
4060 2323 L
4061 2416 L
4062 2191 L
4063 2392 L
4064 2355 L
4065 2403 L
4066 2531 L
L2 C07 COSGR

%
%================
% Legend - Begin
%================
%
GSN 4240 5180 M
4480 5180 L
LWMC SL  C07 COSGR
GSN 4540 5141 M helvM (4.0 uM) show grestore
%
%================
% Legend - End
%================
%

%
% Residuals:
%
GSN 773 1071 M
1625 885 L
1773 880 L
1860 951 L
1922 1043 L
1970 894 L
2009 1219 L
2043 1141 L
2072 1203 L
2097 1193 L
2120 1069 L
2140 1281 L
2159 1184 L
2176 1176 L
2192 1279 L
2207 1221 L
2221 1222 L
2234 1342 L
2247 1192 L
2259 1343 L
2270 1405 L
2280 1343 L
2290 1462 L
2300 1323 L
2309 1445 L
2318 1503 L
2326 1325 L
2335 1418 L
2342 1416 L
2350 1506 L
2357 1353 L
2364 1268 L
2371 1549 L
2378 1345 L
2384 1478 L
2391 1419 L
2397 1388 L
2403 1410 L
2409 1390 L
2414 1367 L
2420 1261 L
2425 1425 L
2430 1358 L
2435 1360 L
2440 1367 L
2445 1292 L
2450 1384 L
2455 1243 L
2459 1254 L
2464 1310 L
2468 1315 L
2472 1211 L
2476 1171 L
2481 1151 L
2485 1333 L
2489 1242 L
2492 1325 L
2496 1232 L
2500 1300 L
2504 1316 L
2507 1213 L
2511 1315 L
2514 1311 L
2518 1370 L
2521 1233 L
2525 1161 L
2528 1164 L
2531 1194 L
2534 1035 L
2538 1223 L
2541 1191 L
2544 1136 L
2547 1344 L
2550 1073 L
2553 1168 L
2556 1273 L
2559 1047 L
2561 1035 L
2564 1188 L
2567 1132 L
2570 1129 L
2580 1094 L
2590 1117 L
2600 1185 L
2609 1056 L
2618 975 L
2627 1078 L
2635 926 L
2643 966 L
2650 975 L
2658 1077 L
2665 897 L
2672 1039 L
2678 958 L
2685 889 L
2691 907 L
2697 863 L
2703 853 L
2709 937 L
2714 860 L
2720 995 L
2725 880 L
2730 937 L
2735 815 L
2740 921 L
2745 811 L
2750 888 L
2755 850 L
2759 953 L
2764 920 L
2768 932 L
2772 847 L
2777 774 L
2781 750 L
2785 862 L
2789 844 L
2793 885 L
2796 990 L
2800 930 L
2804 870 L
2808 870 L
2811 845 L
2815 887 L
2818 805 L
2822 924 L
2825 888 L
2828 795 L
2831 831 L
2835 876 L
2838 880 L
2841 858 L
2844 933 L
2847 870 L
2850 956 L
2853 773 L
2856 970 L
2859 821 L
2862 1064 L
2864 951 L
2867 1002 L
2870 957 L
2873 810 L
2875 993 L
2878 995 L
2880 982 L
2883 940 L
2886 1030 L
2888 852 L
2891 935 L
2893 900 L
2895 1003 L
2898 944 L
2900 983 L
2902 952 L
2905 877 L
2907 1118 L
2909 982 L
2912 958 L
2914 1049 L
2916 842 L
2918 1049 L
2920 1084 L
2922 1030 L
2925 997 L
2927 1042 L
2929 996 L
2931 1012 L
2933 999 L
2935 1043 L
2937 1075 L
2939 1061 L
2941 989 L
2943 1059 L
2945 1129 L
2947 1081 L
2948 1016 L
2950 1084 L
2952 985 L
2954 1114 L
2956 1096 L
2958 1033 L
2959 1165 L
2961 1069 L
2963 1098 L
2965 1051 L
2966 1014 L
2968 1042 L
2970 1077 L
2972 1035 L
2973 1291 L
2975 1166 L
2977 1067 L
2978 1175 L
2980 1022 L
2982 1191 L
2983 1213 L
2985 1229 L
2986 1160 L
2988 1129 L
2989 1154 L
2991 1101 L
2993 1112 L
2994 1214 L
2996 1160 L
2997 1167 L
2999 1154 L
3000 1240 L
3002 1186 L
3003 1117 L
3005 1172 L
3006 1089 L
3007 1268 L
3009 996 L
3010 1209 L
3012 1140 L
3013 1236 L
3014 1170 L
3016 1161 L
3017 1191 L
3019 1195 L
3020 1232 L
3021 1273 L
3023 1111 L
3024 1179 L
3025 1166 L
3027 1219 L
3028 1101 L
3029 1248 L
3031 1221 L
3032 1145 L
3033 1251 L
3034 1164 L
3036 1230 L
3037 1174 L
3038 1169 L
3039 1242 L
3041 1271 L
3042 1299 L
3043 1168 L
3044 1242 L
3045 1295 L
3047 1202 L
3048 1295 L
3049 1199 L
3050 1083 L
3051 1250 L
3053 1295 L
3054 1255 L
3055 1169 L
3056 1189 L
3057 1362 L
3058 1218 L
3059 1236 L
3061 1285 L
3062 1378 L
3063 1151 L
3064 1137 L
3065 1246 L
3066 1330 L
3067 1412 L
3068 1268 L
3069 1225 L
3070 1355 L
3071 1254 L
3073 1298 L
3074 1192 L
3075 1247 L
3076 1108 L
3077 1235 L
3078 1187 L
3079 1382 L
3080 1333 L
3081 1434 L
3082 1221 L
3083 1243 L
3084 1373 L
3085 1330 L
3086 1337 L
3087 1225 L
3088 1152 L
3089 1274 L
3112 1375 L
3133 1134 L
3152 1486 L
3170 1380 L
3186 1417 L
3201 1355 L
3216 1447 L
3229 1383 L
3241 1263 L
3253 1246 L
3264 1394 L
3275 1388 L
3285 1367 L
3295 1393 L
3304 1365 L
3313 1488 L
3322 1386 L
3330 1303 L
3338 1452 L
3346 1392 L
3353 1481 L
3360 1533 L
3367 1401 L
3374 1337 L
3380 1363 L
3387 1394 L
3393 1439 L
3399 1299 L
3405 1253 L
3410 1411 L
3416 1384 L
3421 1548 L
3426 1460 L
3431 1414 L
3436 1378 L
3441 1393 L
3446 1438 L
3451 1569 L
3455 1478 L
3460 1500 L
3464 1446 L
3469 1322 L
3473 1457 L
3477 1445 L
3481 1340 L
3485 1407 L
3489 1501 L
3493 1449 L
3496 1375 L
3500 1539 L
3504 1361 L
3507 1407 L
3511 1421 L
3514 1562 L
3518 1299 L
3521 1428 L
3525 1407 L
3528 1387 L
3531 1392 L
3534 1382 L
3537 1348 L
3540 1328 L
3543 1418 L
3546 1431 L
3549 1533 L
3552 1245 L
3555 1442 L
3558 1445 L
3561 1403 L
3564 1426 L
3566 1414 L
3575 1419 L
3586 1492 L
3595 1362 L
3605 1473 L
3613 1322 L
3622 1334 L
3630 1324 L
3638 1282 L
3646 1378 L
3653 1325 L
3660 1292 L
3667 1325 L
3674 1510 L
3681 1284 L
3687 1373 L
3693 1315 L
3699 1297 L
3705 1325 L
3710 1511 L
3716 1248 L
3721 1278 L
3727 1246 L
3732 1295 L
3737 1245 L
3742 1235 L
3746 1235 L
3751 1272 L
3756 1312 L
3760 1155 L
3764 1299 L
3769 1223 L
3773 1361 L
3777 1336 L
3781 1249 L
3785 1296 L
3789 1182 L
3793 1176 L
3797 1248 L
3800 1202 L
3804 1296 L
3808 1207 L
3811 1331 L
3815 1214 L
3818 1276 L
3821 1365 L
3825 1190 L
3828 1216 L
3831 1243 L
3834 1146 L
3838 1148 L
3841 1318 L
3844 1302 L
3847 1039 L
3850 1205 L
3853 1349 L
3855 1203 L
3858 1295 L
3861 1325 L
3864 1326 L
3867 1135 L
3869 1325 L
3872 1156 L
3875 1307 L
3877 1131 L
3880 1144 L
3882 1127 L
3885 1220 L
3887 1257 L
3890 1311 L
3892 1216 L
3895 1229 L
3897 1234 L
3899 1216 L
3902 1227 L
3904 1265 L
3906 1181 L
3908 1195 L
3911 1300 L
3913 1026 L
3915 1061 L
3917 1221 L
3919 1208 L
3921 1221 L
3923 1280 L
3926 1133 L
3928 1279 L
3930 1240 L
3932 1145 L
3934 1306 L
3936 1289 L
3938 1205 L
3940 1271 L
3942 1189 L
3943 1220 L
3945 1182 L
3947 1233 L
3949 1281 L
3951 1233 L
3953 1179 L
3955 1007 L
3956 1262 L
3958 1298 L
3960 1261 L
3962 1095 L
3963 1105 L
3965 1205 L
3967 1291 L
3969 1146 L
3970 1110 L
3972 1283 L
3974 1240 L
3975 1180 L
3977 1101 L
3978 1098 L
3980 1194 L
3982 1157 L
3983 1117 L
3985 1124 L
3986 1046 L
3988 1198 L
3990 1068 L
3991 1175 L
3993 1178 L
3994 1253 L
3996 1131 L
3997 1141 L
3999 1262 L
4000 1229 L
4001 1148 L
4003 1052 L
4004 1103 L
4006 1153 L
4007 1161 L
4009 1075 L
4010 1189 L
4011 1199 L
4013 1198 L
4014 1187 L
4016 1208 L
4017 989 L
4018 1129 L
4020 1048 L
4021 1153 L
4022 1204 L
4024 1030 L
4025 1319 L
4026 1148 L
4028 1241 L
4029 1196 L
4030 1025 L
4031 1055 L
4033 1059 L
4034 1193 L
4035 1062 L
4036 985 L
4038 1227 L
4039 1084 L
4040 1101 L
4041 1141 L
4042 1043 L
4044 1071 L
4045 1226 L
4046 1073 L
4047 1187 L
4048 1100 L
4050 1123 L
4051 1270 L
4052 1160 L
4053 1218 L
4054 1002 L
4055 1112 L
4056 1141 L
4058 1203 L
4059 1072 L
4060 1101 L
4061 1168 L
4062 1007 L
4063 1150 L
4064 1125 L
4065 1158 L
4066 1249 L
L2 C07 COSGR

%
% Main frame
%
L10
GSN 
620 1700 M
4220 1700 L
4220 5300 L
620 5300 L
closepath SGR

%
% X axis: large tics
%
L10
GSN 1074 1700 M 0  54 rL SGR
GSN 1074 5300 M 0 -54 rL SGR
helvS (0.0001) 1074 470 xlabel
GSN 1572 1700 M 0  54 rL SGR
GSN 1572 5300 M 0 -54 rL SGR
helvS (0.001) 1572 470 xlabel
GSN 2071 1700 M 0  54 rL SGR
GSN 2071 5300 M 0 -54 rL SGR
helvS (0.01) 2071 470 xlabel
GSN 2570 1700 M 0  54 rL SGR
GSN 2570 5300 M 0 -54 rL SGR
helvS (0.1) 2570 470 xlabel
GSN 3068 1700 M 0  54 rL SGR
GSN 3068 5300 M 0 -54 rL SGR
helvS (1) 3068 470 xlabel
GSN 3567 1700 M 0  54 rL SGR
GSN 3567 5300 M 0 -54 rL SGR
helvS (10) 3567 470 xlabel
GSN 4066 1700 M 0  54 rL SGR
GSN 4066 5300 M 0 -54 rL SGR
helvS (100) 4066 470 xlabel
%
% X axis: small tics
%
L5
GSN 725 1700 M 0  36 rL SGR
GSN 725 5300 M 0 -36 rL SGR
GSN 813 1700 M 0  36 rL SGR
GSN 813 5300 M 0 -36 rL SGR
GSN 875 1700 M 0  36 rL SGR
GSN 875 5300 M 0 -36 rL SGR
GSN 924 1700 M 0  36 rL SGR
GSN 924 5300 M 0 -36 rL SGR
GSN 963 1700 M 0  36 rL SGR
GSN 963 5300 M 0 -36 rL SGR
GSN 996 1700 M 0  36 rL SGR
GSN 996 5300 M 0 -36 rL SGR
GSN 1025 1700 M 0  36 rL SGR
GSN 1025 5300 M 0 -36 rL SGR
GSN 1051 1700 M 0  36 rL SGR
GSN 1051 5300 M 0 -36 rL SGR
GSN 1224 1700 M 0  36 rL SGR
GSN 1224 5300 M 0 -36 rL SGR
GSN 1312 1700 M 0  36 rL SGR
GSN 1312 5300 M 0 -36 rL SGR
GSN 1374 1700 M 0  36 rL SGR
GSN 1374 5300 M 0 -36 rL SGR
GSN 1422 1700 M 0  36 rL SGR
GSN 1422 5300 M 0 -36 rL SGR
GSN 1462 1700 M 0  36 rL SGR
GSN 1462 5300 M 0 -36 rL SGR
GSN 1495 1700 M 0  36 rL SGR
GSN 1495 5300 M 0 -36 rL SGR
GSN 1524 1700 M 0  36 rL SGR
GSN 1524 5300 M 0 -36 rL SGR
GSN 1550 1700 M 0  36 rL SGR
GSN 1550 5300 M 0 -36 rL SGR
GSN 1722 1700 M 0  36 rL SGR
GSN 1722 5300 M 0 -36 rL SGR
GSN 1810 1700 M 0  36 rL SGR
GSN 1810 5300 M 0 -36 rL SGR
GSN 1873 1700 M 0  36 rL SGR
GSN 1873 5300 M 0 -36 rL SGR
GSN 1921 1700 M 0  36 rL SGR
GSN 1921 5300 M 0 -36 rL SGR
GSN 1960 1700 M 0  36 rL SGR
GSN 1960 5300 M 0 -36 rL SGR
GSN 1994 1700 M 0  36 rL SGR
GSN 1994 5300 M 0 -36 rL SGR
GSN 2023 1700 M 0  36 rL SGR
GSN 2023 5300 M 0 -36 rL SGR
GSN 2048 1700 M 0  36 rL SGR
GSN 2048 5300 M 0 -36 rL SGR
GSN 2221 1700 M 0  36 rL SGR
GSN 2221 5300 M 0 -36 rL SGR
GSN 2309 1700 M 0  36 rL SGR
GSN 2309 5300 M 0 -36 rL SGR
GSN 2371 1700 M 0  36 rL SGR
GSN 2371 5300 M 0 -36 rL SGR
GSN 2420 1700 M 0  36 rL SGR
GSN 2420 5300 M 0 -36 rL SGR
GSN 2459 1700 M 0  36 rL SGR
GSN 2459 5300 M 0 -36 rL SGR
GSN 2492 1700 M 0  36 rL SGR
GSN 2492 5300 M 0 -36 rL SGR
GSN 2521 1700 M 0  36 rL SGR
GSN 2521 5300 M 0 -36 rL SGR
GSN 2547 1700 M 0  36 rL SGR
GSN 2547 5300 M 0 -36 rL SGR
GSN 2720 1700 M 0  36 rL SGR
GSN 2720 5300 M 0 -36 rL SGR
GSN 2808 1700 M 0  36 rL SGR
GSN 2808 5300 M 0 -36 rL SGR
GSN 2870 1700 M 0  36 rL SGR
GSN 2870 5300 M 0 -36 rL SGR
GSN 2918 1700 M 0  36 rL SGR
GSN 2918 5300 M 0 -36 rL SGR
GSN 2958 1700 M 0  36 rL SGR
GSN 2958 5300 M 0 -36 rL SGR
GSN 2991 1700 M 0  36 rL SGR
GSN 2991 5300 M 0 -36 rL SGR
GSN 3020 1700 M 0  36 rL SGR
GSN 3020 5300 M 0 -36 rL SGR
GSN 3045 1700 M 0  36 rL SGR
GSN 3045 5300 M 0 -36 rL SGR
GSN 3218 1700 M 0  36 rL SGR
GSN 3218 5300 M 0 -36 rL SGR
GSN 3306 1700 M 0  36 rL SGR
GSN 3306 5300 M 0 -36 rL SGR
GSN 3368 1700 M 0  36 rL SGR
GSN 3368 5300 M 0 -36 rL SGR
GSN 3417 1700 M 0  36 rL SGR
GSN 3417 5300 M 0 -36 rL SGR
GSN 3456 1700 M 0  36 rL SGR
GSN 3456 5300 M 0 -36 rL SGR
GSN 3490 1700 M 0  36 rL SGR
GSN 3490 5300 M 0 -36 rL SGR
GSN 3519 1700 M 0  36 rL SGR
GSN 3519 5300 M 0 -36 rL SGR
GSN 3544 1700 M 0  36 rL SGR
GSN 3544 5300 M 0 -36 rL SGR
GSN 3717 1700 M 0  36 rL SGR
GSN 3717 5300 M 0 -36 rL SGR
GSN 3805 1700 M 0  36 rL SGR
GSN 3805 5300 M 0 -36 rL SGR
GSN 3867 1700 M 0  36 rL SGR
GSN 3867 5300 M 0 -36 rL SGR
GSN 3915 1700 M 0  36 rL SGR
GSN 3915 5300 M 0 -36 rL SGR
GSN 3955 1700 M 0  36 rL SGR
GSN 3955 5300 M 0 -36 rL SGR
GSN 3988 1700 M 0  36 rL SGR
GSN 3988 5300 M 0 -36 rL SGR
GSN 4017 1700 M 0  36 rL SGR
GSN 4017 5300 M 0 -36 rL SGR
GSN 4043 1700 M 0  36 rL SGR
GSN 4043 5300 M 0 -36 rL SGR
GSN 4216 1700 M 0  36 rL SGR
GSN 4216 5300 M 0 -36 rL SGR
%
% Y axis: large tics
%
L10
GSN 620 1921 M 54 0 rL SGR
GSN 4220 1921 M -54 0 rL SGR
helvS (0.88) 560 1921 ylabel
GSN 620 2710 M 54 0 rL SGR
GSN 4220 2710 M -54 0 rL SGR
helvS (0.9) 560 2710 ylabel
GSN 620 3499 M 54 0 rL SGR
GSN 4220 3499 M -54 0 rL SGR
helvS (0.92) 560 3499 ylabel
GSN 620 4288 M 54 0 rL SGR
GSN 4220 4288 M -54 0 rL SGR
helvS (0.94) 560 4288 ylabel
GSN 620 5078 M 54 0 rL SGR
GSN 4220 5078 M -54 0 rL SGR
helvS (0.96) 560 5078 ylabel
%
% Y axis: small tics
%
L5
GSN 620 1723 M 36 0 rL SGR
GSN 4220 1723 M -36 0 rL SGR
GSN 620 1921 M 36 0 rL SGR
GSN 4220 1921 M -36 0 rL SGR
GSN 620 2118 M 36 0 rL SGR
GSN 4220 2118 M -36 0 rL SGR
GSN 620 2315 M 36 0 rL SGR
GSN 4220 2315 M -36 0 rL SGR
GSN 620 2513 M 36 0 rL SGR
GSN 4220 2513 M -36 0 rL SGR
GSN 620 2710 M 36 0 rL SGR
GSN 4220 2710 M -36 0 rL SGR
GSN 620 2907 M 36 0 rL SGR
GSN 4220 2907 M -36 0 rL SGR
GSN 620 3105 M 36 0 rL SGR
GSN 4220 3105 M -36 0 rL SGR
GSN 620 3302 M 36 0 rL SGR
GSN 4220 3302 M -36 0 rL SGR
GSN 620 3499 M 36 0 rL SGR
GSN 4220 3499 M -36 0 rL SGR
GSN 620 3696 M 36 0 rL SGR
GSN 4220 3696 M -36 0 rL SGR
GSN 620 3894 M 36 0 rL SGR
GSN 4220 3894 M -36 0 rL SGR
GSN 620 4091 M 36 0 rL SGR
GSN 4220 4091 M -36 0 rL SGR
GSN 620 4288 M 36 0 rL SGR
GSN 4220 4288 M -36 0 rL SGR
GSN 620 4486 M 36 0 rL SGR
GSN 4220 4486 M -36 0 rL SGR
GSN 620 4683 M 36 0 rL SGR
GSN 4220 4683 M -36 0 rL SGR
GSN 620 4880 M 36 0 rL SGR
GSN 4220 4880 M -36 0 rL SGR
GSN 620 5078 M 36 0 rL SGR
GSN 4220 5078 M -36 0 rL SGR
GSN 620 5275 M 36 0 rL SGR
GSN 4220 5275 M -36 0 rL SGR

%
% X-Axis label:
%
gsave 2420 290 M 
[
[(Helvetica) 180 0 true true 0 (t)]
[(Helvetica) 180 0 true true 0 (i)]
[(Helvetica) 180 0 true true 0 (m)]
[(Helvetica) 180 0 true true 0 (e)]
] 0 MCshow grestore

%
% Y-Axis label:
%
gsave 234 3499 M 
currentpoint gsave translate 90 rotate 0 0 moveto
[
[(Helvetica) 180 0 true true 0 (s)]
[(Helvetica) 180 0 true true 0 (i)]
[(Helvetica) 180 0 true true 0 (g)]
[(Helvetica) 180 0 true true 0 (n)]
[(Helvetica) 180 0 true true 0 (a)]
[(Helvetica) 180 0 true true 0 (l)]
] 0 MCshow grestore

%
% Residuals:
%
gsave 129 1160 M 
currentpoint gsave translate 90 rotate 0 0 moveto
[
[(Helvetica) 150 0 true true 0 (r)]
[(Helvetica) 150 0 true true 0 (e)]
[(Helvetica) 150 0 true true 0 (s)]
[(Helvetica) 150 0 true true 0 (i)]
[(Helvetica) 150 0 true true 0 (d)]
[(Helvetica) 150 0 true true 0 (u)]
[(Helvetica) 150 0 true true 0 (a)]
[(Helvetica) 150 0 true true 0 (l)]
[(Helvetica) 150 0 true true 0 (s)]
] 0 MCshow grestore

%
% Residual frame
%
L10
GSN 
620 620 M
4220 620 L
4220 1700 L
620 1700 L
closepath SGR
%
% X axis: large tics - residual frame
%
L10
GSN 1074 620 M 0  54 rL SGR
GSN 1074 1700 M 0 -54 rL SGR
GSN 1572 620 M 0  54 rL SGR
GSN 1572 1700 M 0 -54 rL SGR
GSN 2071 620 M 0  54 rL SGR
GSN 2071 1700 M 0 -54 rL SGR
GSN 2570 620 M 0  54 rL SGR
GSN 2570 1700 M 0 -54 rL SGR
GSN 3068 620 M 0  54 rL SGR
GSN 3068 1700 M 0 -54 rL SGR
GSN 3567 620 M 0  54 rL SGR
GSN 3567 1700 M 0 -54 rL SGR
GSN 4066 620 M 0  54 rL SGR
GSN 4066 1700 M 0 -54 rL SGR
%
% X axis: small tics - residual frame
%
L5
GSN 725 620 M 0  36 rL SGR
GSN 725 1700 M 0 -36 rL SGR
GSN 813 620 M 0  36 rL SGR
GSN 813 1700 M 0 -36 rL SGR
GSN 875 620 M 0  36 rL SGR
GSN 875 1700 M 0 -36 rL SGR
GSN 924 620 M 0  36 rL SGR
GSN 924 1700 M 0 -36 rL SGR
GSN 963 620 M 0  36 rL SGR
GSN 963 1700 M 0 -36 rL SGR
GSN 996 620 M 0  36 rL SGR
GSN 996 1700 M 0 -36 rL SGR
GSN 1025 620 M 0  36 rL SGR
GSN 1025 1700 M 0 -36 rL SGR
GSN 1051 620 M 0  36 rL SGR
GSN 1051 1700 M 0 -36 rL SGR
GSN 1224 620 M 0  36 rL SGR
GSN 1224 1700 M 0 -36 rL SGR
GSN 1312 620 M 0  36 rL SGR
GSN 1312 1700 M 0 -36 rL SGR
GSN 1374 620 M 0  36 rL SGR
GSN 1374 1700 M 0 -36 rL SGR
GSN 1422 620 M 0  36 rL SGR
GSN 1422 1700 M 0 -36 rL SGR
GSN 1462 620 M 0  36 rL SGR
GSN 1462 1700 M 0 -36 rL SGR
GSN 1495 620 M 0  36 rL SGR
GSN 1495 1700 M 0 -36 rL SGR
GSN 1524 620 M 0  36 rL SGR
GSN 1524 1700 M 0 -36 rL SGR
GSN 1550 620 M 0  36 rL SGR
GSN 1550 1700 M 0 -36 rL SGR
GSN 1722 620 M 0  36 rL SGR
GSN 1722 1700 M 0 -36 rL SGR
GSN 1810 620 M 0  36 rL SGR
GSN 1810 1700 M 0 -36 rL SGR
GSN 1873 620 M 0  36 rL SGR
GSN 1873 1700 M 0 -36 rL SGR
GSN 1921 620 M 0  36 rL SGR
GSN 1921 1700 M 0 -36 rL SGR
GSN 1960 620 M 0  36 rL SGR
GSN 1960 1700 M 0 -36 rL SGR
GSN 1994 620 M 0  36 rL SGR
GSN 1994 1700 M 0 -36 rL SGR
GSN 2023 620 M 0  36 rL SGR
GSN 2023 1700 M 0 -36 rL SGR
GSN 2048 620 M 0  36 rL SGR
GSN 2048 1700 M 0 -36 rL SGR
GSN 2221 620 M 0  36 rL SGR
GSN 2221 1700 M 0 -36 rL SGR
GSN 2309 620 M 0  36 rL SGR
GSN 2309 1700 M 0 -36 rL SGR
GSN 2371 620 M 0  36 rL SGR
GSN 2371 1700 M 0 -36 rL SGR
GSN 2420 620 M 0  36 rL SGR
GSN 2420 1700 M 0 -36 rL SGR
GSN 2459 620 M 0  36 rL SGR
GSN 2459 1700 M 0 -36 rL SGR
GSN 2492 620 M 0  36 rL SGR
GSN 2492 1700 M 0 -36 rL SGR
GSN 2521 620 M 0  36 rL SGR
GSN 2521 1700 M 0 -36 rL SGR
GSN 2547 620 M 0  36 rL SGR
GSN 2547 1700 M 0 -36 rL SGR
GSN 2720 620 M 0  36 rL SGR
GSN 2720 1700 M 0 -36 rL SGR
GSN 2808 620 M 0  36 rL SGR
GSN 2808 1700 M 0 -36 rL SGR
GSN 2870 620 M 0  36 rL SGR
GSN 2870 1700 M 0 -36 rL SGR
GSN 2918 620 M 0  36 rL SGR
GSN 2918 1700 M 0 -36 rL SGR
GSN 2958 620 M 0  36 rL SGR
GSN 2958 1700 M 0 -36 rL SGR
GSN 2991 620 M 0  36 rL SGR
GSN 2991 1700 M 0 -36 rL SGR
GSN 3020 620 M 0  36 rL SGR
GSN 3020 1700 M 0 -36 rL SGR
GSN 3045 620 M 0  36 rL SGR
GSN 3045 1700 M 0 -36 rL SGR
GSN 3218 620 M 0  36 rL SGR
GSN 3218 1700 M 0 -36 rL SGR
GSN 3306 620 M 0  36 rL SGR
GSN 3306 1700 M 0 -36 rL SGR
GSN 3368 620 M 0  36 rL SGR
GSN 3368 1700 M 0 -36 rL SGR
GSN 3417 620 M 0  36 rL SGR
GSN 3417 1700 M 0 -36 rL SGR
GSN 3456 620 M 0  36 rL SGR
GSN 3456 1700 M 0 -36 rL SGR
GSN 3490 620 M 0  36 rL SGR
GSN 3490 1700 M 0 -36 rL SGR
GSN 3519 620 M 0  36 rL SGR
GSN 3519 1700 M 0 -36 rL SGR
GSN 3544 620 M 0  36 rL SGR
GSN 3544 1700 M 0 -36 rL SGR
GSN 3717 620 M 0  36 rL SGR
GSN 3717 1700 M 0 -36 rL SGR
GSN 3805 620 M 0  36 rL SGR
GSN 3805 1700 M 0 -36 rL SGR
GSN 3867 620 M 0  36 rL SGR
GSN 3867 1700 M 0 -36 rL SGR
GSN 3915 620 M 0  36 rL SGR
GSN 3915 1700 M 0 -36 rL SGR
GSN 3955 620 M 0  36 rL SGR
GSN 3955 1700 M 0 -36 rL SGR
GSN 3988 620 M 0  36 rL SGR
GSN 3988 1700 M 0 -36 rL SGR
GSN 4017 620 M 0  36 rL SGR
GSN 4017 1700 M 0 -36 rL SGR
GSN 4043 620 M 0  36 rL SGR
GSN 4043 1700 M 0 -36 rL SGR
GSN 4216 620 M 0  36 rL SGR
GSN 4216 1700 M 0 -36 rL SGR
%
% Y axis: large tics - residual frame
%
L10
GSN 620 631 M 54 0 rL SGR
GSN 4220 631 M -54 0 rL SGR
helvS (-0.02) 560 631 ylabelresid
GSN 620 911 M 54 0 rL SGR
GSN 4220 911 M -54 0 rL SGR
helvS (-0.01) 560 911 ylabelresid
GSN 620 1192 M 54 0 rL SGR
GSN 4220 1192 M -54 0 rL SGR
helvS (0) 560 1192 ylabelresid
GSN 620 1473 M 54 0 rL SGR
GSN 4220 1473 M -54 0 rL SGR
helvS (0.01) 560 1473 ylabelresid

%
% X axis - residual panel
%
GSN L5 620 1192 M 4220 1192 L SDA G50 SGR

end
showpage
%%Trailer
%%EOF
