%!PS-Adobe-3.0 EPSF-3.0
%%BoundingBox: 0 0 514 550
%%Creator: BioKin Ltd.
%%DocumentFonts: Symbol Helvetica
%%EndComments
%
/bkdict 256 dict def
bkdict begin
/M {moveto} def 
/R {rmoveto} def
/L {lineto} def
/rL {rlineto} def
/GSN {gsave newpath} def
/SGR {stroke grestore} def
/COSGR {gsave setrgbcolor stroke grestore grestore} def
/SL {setlinewidth} def
/LWMB {12} def             % line width - model curves, black & white
/LWMC {10} def             % line width - model curves, color
/L2 {2.5 setlinewidth} def
/L5 {5 setlinewidth} def
/L10 {10 setlinewidth} def
/G50 {0.5 setgray} def
/SDA {[10  20] 0 setdash} def % axes
/helvT {/Helvetica findfont 100 scalefont setfont} def % tiny
/helvS {/Helvetica findfont 125 scalefont setfont} def % small
/helvM {/Helvetica findfont 150 scalefont setfont} def % medium
/helvL {/Helvetica findfont 175 scalefont setfont} def % large
/xlabel {gsave M dup
   stringwidth exch -0.5 mul exch rmoveto show grestore} def 
/ylabel {gsave M 90 rotate dup
   stringwidth exch -0.5 mul exch rmoveto show grestore} def
/ylabelresid {gsave M dup
   stringwidth exch -1 mul exch rmoveto show grestore} def
% ======
% Shapes
% ======
% Circle:
/Circ {0 360 arc closepath} def
%
% Square:
/Squa {dup dup -0.5 mul dup dup R -2 mul 0 exch rL 1 mul 0 rL dup 0 exch -1 mul rL closepath} def
%
% Triangle Up:
/TriU {dup dup dup -0.4 mul exch -0.5 mul exch R dup 0.5 mul exch rL dup -1 mul exch 0.5 mul exch rL closepath} def 
%
% Triangle Down:
/TriD {dup dup dup 0.4 mul exch -0.5 mul exch R dup 0.5 mul exch -1 mul rL dup 0.5 mul exch rL closepath} def 
%
% Diamond:
/Diam {45 rotate Squa} def
% ======
% Fills
% ======
/GRF {gsave setgray fill grestore} def                    % gray-level Fill
/COF {gsave setrgbcolor fill grestore} def                % color fill
% ======
% Colors
% ======
/C01 {1.00	0.00	0.00} def      % Red
/C02 {0.00	0.00	1.00} def      % Blue
/C03 {0.00	0.39	0.00} def      % Dark Green
/C04 {0.78	0.08	0.52} def      % Medium Violet Red
/C05 {0.55	0.27	0.07} def      % Saddle Brown
/C06 {0.10	0.70	0.70} def      % (cyan)
/C07 {1.00	0.55	0.00} def      % Dark Orange
/C08 {0.63	0.13	0.94} def      % Purple
/C09 {0.00	0.75	1.00} def      % Deep Sky Blue
/C10 {0.20	0.80	0.20} def      % Lime Green
/C11 {0.47	0.53	0.60} def      % Light Slate Gray
/C12 {0.00	0.00	0.00} def      % Black            % or: {0.19	0.31	0.31} def      % Dark Slate Gray
%
/LGR {0.75} def % light gray
/DGR {0.33} def % dark gray
%
% =============
% Dash patterns
% =============
/dash01 { [80  20] 0 setdash } def
/dash02 { [40  20] 0 setdash } def
/dash03 { [80  20  10  20] 0 setdash } def
/dash04 { [40  20  10  20] 0 setdash } def
/dash05 { [80  20  10  10  10  20] 0 setdash } def
/dash06 { [40  20  10  10  10  20] 0 setdash } def
/dash07 { [10  10] 0 setdash } def
%
/MFshow {
   { dup 5 get 3 ge
     { 5 get 3 eq {gsave} {grestore} ifelse }
     {dup dup 0 get findfont exch 1 get scalefont setfont
     [ currentpoint ] exch dup 2 get 0 exch R dup 5 get 2 ne {dup dup 6
     get exch 4 get {show} {stringwidth pop 0 R} ifelse }if dup 5 get 0 eq
     {dup 3 get {2 get neg 0 exch R pop} {pop aload pop M} ifelse} {dup 5
     get 1 eq {dup 2 get exch dup 3 get exch 6 get stringwidth pop -2 div
     dup 0 R} {dup 6 get stringwidth pop -2 div 0 R 6 get
     show 2 index {aload pop M neg 3 -1 roll neg R pop pop} {pop pop pop
     pop aload pop M} ifelse }ifelse }ifelse }
     ifelse }
   forall} bind def
/MFwidth {0 exch {dup 3 get{dup dup 0 get findfont exch 1 get scalefont
     setfont 6 get stringwidth pop add} {pop} ifelse} forall} bind def
/MCshow { currentpoint stroke M
  exch dup MFwidth -2 div 3 -1 roll R MFshow } def
%
end
%%EndProlog
bkdict begin
0.1 0.1 scale
%
% Residuals:
%
GSN 620 2196 M
620 2136 L
620 3153 L
620 2779 L
620 3502 L
620 3104 L
620 3323 L
620 3371 L
620 3131 L
620 2941 L
620 3359 L
620 3247 L
620 3770 L
620 3283 L
620 3504 L
620 3496 L
620 3575 L
620 3467 L
620 3374 L
620 3452 L
620 3178 L
620 3315 L
620 3743 L
620 3478 L
620 3339 L
620 3939 L
620 3677 L
620 3771 L
620 3675 L
620 3902 L
620 3766 L
620 3363 L
620 3928 L
620 3409 L
620 4119 L
620 4146 L
620 3481 L
620 4202 L
620 3220 L
620 4304 L
620 3917 L
620 4200 L
620 3694 L
620 4203 L
620 4153 L
620 3831 L
620 3807 L
620 3924 L
620 4236 L
620 4055 L
620 3994 L
620 4290 L
620 3977 L
620 3965 L
620 4022 L
620 4092 L
620 3896 L
620 4309 L
620 4178 L
620 3860 L
620 3840 L
620 4510 L
620 3725 L
620 4400 L
620 3790 L
620 4275 L
620 3567 L
620 4003 L
620 3539 L
620 4035 L
620 4101 L
620 3822 L
620 3790 L
620 4233 L
620 3543 L
620 3517 L
620 4272 L
620 3608 L
620 3630 L
620 3912 L
620 4364 L
620 3557 L
620 3564 L
620 3925 L
620 3934 L
620 3873 L
620 4087 L
620 3978 L
620 3594 L
620 3496 L
620 3361 L
620 3618 L
620 3726 L
620 3825 L
620 3150 L
620 3369 L
620 3892 L
620 3701 L
620 3133 L
620 4031 L
620 3877 L
620 3670 L
620 3709 L
620 3561 L
620 3664 L
620 3315 L
620 2923 L
620 3292 L
620 3140 L
620 3610 L
620 3597 L
620 3663 L
620 3511 L
620 3170 L
620 3158 L
620 3638 L
620 2933 L
620 3429 L
620 2692 L
620 3552 L
620 2941 L
620 2999 L
620 3162 L
620 3670 L
620 3237 L
620 3798 L
620 3706 L
620 2772 L
620 3306 L
620 2813 L
620 3376 L
620 3196 L
620 2971 L
620 2442 L
620 3436 L
620 2931 L
620 3063 L
620 3432 L
620 3622 L
620 3144 L
620 3162 L
620 2756 L
620 2835 L
620 2776 L
620 3128 L
620 3213 L
620 3423 L
620 3040 L
620 3470 L
620 3183 L
620 3079 L
620 3078 L
620 2925 L
620 2725 L
620 2933 L
620 3004 L
620 2906 L
620 2815 L
620 3089 L
620 3022 L
620 3137 L
620 3428 L
620 3523 L
620 3586 L
620 3092 L
620 3454 L
620 3876 L
620 3192 L
620 3289 L
620 3143 L
620 3695 L
620 3031 L
620 3115 L
620 3443 L
620 3475 L
620 3328 L
620 2981 L
620 3491 L
620 3540 L
620 3252 L
620 3091 L
620 3501 L
620 3457 L
620 3372 L
620 2897 L
620 3500 L
620 3202 L
620 3343 L
620 3041 L
620 4095 L
620 3658 L
620 3022 L
620 3931 L
620 3067 L
620 3516 L
620 3884 L
620 3533 L
620 3654 L
620 3706 L
620 3875 L
620 3669 L
620 3890 L
620 2881 L
620 3181 L
620 3605 L
620 3412 L
620 3444 L
620 3334 L
620 3534 L
620 3355 L
620 3458 L
620 3528 L
620 3861 L
620 3707 L
620 3576 L
620 3790 L
620 3373 L
620 3532 L
620 3288 L
620 3467 L
620 3429 L
620 3894 L
620 3622 L
620 3460 L
620 3471 L
620 3816 L
620 4229 L
620 3571 L
620 3861 L
620 3193 L
620 3523 L
620 3582 L
620 3620 L
620 3506 L
620 3824 L
620 3944 L
620 3672 L
620 4040 L
620 3442 L
620 2990 L
620 3882 L
620 3325 L
620 4062 L
620 4110 L
620 3755 L
620 2922 L
620 3714 L
620 4144 L
620 3800 L
620 3418 L
620 3859 L
620 3959 L
620 4186 L
620 3680 L
620 3697 L
620 3859 L
620 3980 L
620 3797 L
620 3880 L
620 3807 L
620 3863 L
620 3532 L
620 3708 L
620 4039 L
620 3818 L
620 3622 L
620 3822 L
620 3729 L
620 3687 L
620 3591 L
620 3143 L
620 3436 L
620 3853 L
620 4104 L
620 3808 L
620 3901 L
620 4087 L
620 3632 L
620 3994 L
620 3818 L
620 3637 L
620 4119 L
620 3986 L
620 4726 L
620 4202 L
620 3936 L
620 3908 L
620 3711 L
620 4225 L
620 3936 L
620 4386 L
620 4074 L
620 4533 L
620 4496 L
620 4414 L
620 4758 L
620 4455 L
620 4340 L
620 4445 L
620 4712 L
620 4625 L
620 4211 L
620 4698 L
620 4331 L
620 4289 L
620 4762 L
620 3867 L
620 4528 L
620 4280 L
620 4556 L
620 4703 L
620 3986 L
620 4074 L
620 4625 L
620 4748 L
620 4592 L
620 4147 L
620 3688 L
620 4510 L
620 4014 L
620 3917 L
620 4317 L
620 4661 L
620 3899 L
620 4129 L
620 4390 L
620 4156 L
620 4455 L
620 4482 L
620 4863 L
620 4537 L
620 4790 L
620 4046 L
620 4537 L
620 4331 L
620 4771 L
620 4023 L
620 3789 L
620 3711 L
620 4629 L
620 4170 L
620 4707 L
620 4308 L
620 4303 L
620 4359 L
620 4399 L
620 4377 L
620 3959 L
620 4115 L
620 4395 L
620 4408 L
620 4074 L
620 3830 L
620 4096 L
620 4129 L
620 3908 L
620 3913 L
620 3940 L
620 4018 L
620 4377 L
620 4395 L
620 3963 L
620 4207 L
620 3624 L
620 3913 L
620 3867 L
620 4216 L
620 4432 L
620 3592 L
620 4202 L
620 3665 L
620 3665 L
620 3747 L
620 3867 L
620 3739 L
620 3706 L
620 3972 L
620 3807 L
620 4142 L
620 3665 L
620 3669 L
620 4225 L
620 3527 L
620 4179 L
620 3766 L
620 4074 L
620 3890 L
620 4115 L
620 3614 L
620 3899 L
620 3716 L
620 3632 L
620 3793 L
620 3849 L
620 4133 L
620 3142 L
620 4174 L
620 3679 L
620 3578 L
620 4069 L
620 3504 L
620 3706 L
620 3633 L
620 3610 L
620 3614 L
620 3431 L
620 4129 L
620 3408 L
620 3522 L
620 3596 L
620 3385 L
620 3302 L
620 3692 L
620 3977 L
620 3688 L
620 3784 L
620 3899 L
620 4275 L
620 3821 L
620 4046 L
620 4344 L
620 4028 L
620 3614 L
620 3711 L
620 4220 L
620 3738 L
620 3720 L
620 3105 L
620 4156 L
620 3298 L
620 3637 L
620 3844 L
620 3679 L
620 3413 L
620 3628 L
620 3982 L
620 3899 L
620 4092 L
620 4299 L
620 3605 L
620 4427 L
620 3702 L
620 3784 L
620 3440 L
620 3789 L
620 3490 L
620 3945 L
620 3546 L
620 3835 L
620 3623 L
620 3775 L
620 3826 L
620 3486 L
620 4046 L
620 3389 L
620 3982 L
620 3802 L
620 4023 L
620 3601 L
620 3261 L
620 3413 L
620 3380 L
620 3669 L
620 3853 L
620 3669 L
620 3518 L
620 4170 L
620 3417 L
620 4234 L
620 4110 L
620 2953 L
620 3385 L
620 3614 L
620 4198 L
620 3444 L
620 3899 L
620 3858 L
620 3343 L
620 3096 L
620 3541 L
620 3683 L
620 3821 L
620 3858 L
620 3605 L
620 3660 L
620 3954 L
620 3412 L
620 3412 L
620 3904 L
620 3835 L
620 3637 L
620 3412 L
620 3619 L
620 4078 L
620 3279 L
620 3041 L
620 3142 L
620 3858 L
620 3674 L
620 3399 L
620 4101 L
620 3821 L
620 3454 L
620 3302 L
620 3385 L
620 3518 L
620 3601 L
620 3426 L
620 3243 L
620 3941 L
620 3422 L
620 3564 L
620 4152 L
620 3518 L
620 3054 L
620 3752 L
620 3178 L
620 3922 L
620 3794 L
620 3637 L
620 3371 L
620 4050 L
620 3279 L
620 3711 L
620 3532 L
620 4064 L
620 3720 L
620 3559 L
620 3706 L
620 3775 L
620 3996 L
620 3628 L
620 3725 L
L2 C02 COSGR

%
%================
% Legend - Begin
%================
%
GSN 4240 5180 M
4480 5180 L
LWMC SL  C02 COSGR
GSN 4540 5141 M helvM (1.0 uM) show grestore
%
%================
% Legend - End
%================
%

%
% Main frame
%
L10
GSN 
620 1700 M
4220 1700 L
4220 5300 L
620 5300 L
closepath SGR

%
% X axis: large tics
%
L10
%
% X axis: small tics
%
L5
%
% Y axis: large tics
%
L10
GSN 620 1911 M 54 0 rL SGR
GSN 4220 1911 M -54 0 rL SGR
helvS (-0.02) 560 1911 ylabel
GSN 620 2814 M 54 0 rL SGR
GSN 4220 2814 M -54 0 rL SGR
helvS (-0.01) 560 2814 ylabel
GSN 620 3717 M 54 0 rL SGR
GSN 4220 3717 M -54 0 rL SGR
helvS (0) 560 3717 ylabel
GSN 620 4619 M 54 0 rL SGR
GSN 4220 4619 M -54 0 rL SGR
helvS (0.01) 560 4619 ylabel
%
% Y axis: small tics
%
L5
GSN 620 1911 M 36 0 rL SGR
GSN 4220 1911 M -36 0 rL SGR
GSN 620 2137 M 36 0 rL SGR
GSN 4220 2137 M -36 0 rL SGR
GSN 620 2363 M 36 0 rL SGR
GSN 4220 2363 M -36 0 rL SGR
GSN 620 2588 M 36 0 rL SGR
GSN 4220 2588 M -36 0 rL SGR
GSN 620 2814 M 36 0 rL SGR
GSN 4220 2814 M -36 0 rL SGR
GSN 620 3040 M 36 0 rL SGR
GSN 4220 3040 M -36 0 rL SGR
GSN 620 3265 M 36 0 rL SGR
GSN 4220 3265 M -36 0 rL SGR
GSN 620 3491 M 36 0 rL SGR
GSN 4220 3491 M -36 0 rL SGR
GSN 620 3717 M 36 0 rL SGR
GSN 4220 3717 M -36 0 rL SGR
GSN 620 3942 M 36 0 rL SGR
GSN 4220 3942 M -36 0 rL SGR
GSN 620 4168 M 36 0 rL SGR
GSN 4220 4168 M -36 0 rL SGR
GSN 620 4394 M 36 0 rL SGR
GSN 4220 4394 M -36 0 rL SGR
GSN 620 4619 M 36 0 rL SGR
GSN 4220 4619 M -36 0 rL SGR
GSN 620 4845 M 36 0 rL SGR
GSN 4220 4845 M -36 0 rL SGR
GSN 620 5071 M 36 0 rL SGR
GSN 4220 5071 M -36 0 rL SGR
GSN 620 5296 M 36 0 rL SGR
GSN 4220 5296 M -36 0 rL SGR

%
% X axis - residual panel
%
GSN L5 620 3717 M 4220 3717 L SDA G50 SGR

%
% X-Axis label:
%
gsave 620 1370 M 
[
[(Helvetica) 180 0 true true 0 (t)]
[(Helvetica) 180 0 true true 0 (i)]
[(Helvetica) 180 0 true true 0 (m)]
[(Helvetica) 180 0 true true 0 (e)]
] 0 MCshow grestore

%
% Y-Axis label:
%
gsave 234 3500 M 
currentpoint gsave translate 90 rotate 0 0 moveto
[
[(Helvetica) 180 0 true true 0 (r)]
[(Helvetica) 180 0 true true 0 (e)]
[(Helvetica) 180 0 true true 0 (s)]
[(Helvetica) 180 0 true true 0 (i)]
[(Helvetica) 180 0 true true 0 (d)]
[(Helvetica) 180 0 true true 0 (u)]
[(Helvetica) 180 0 true true 0 (a)]
[(Helvetica) 180 0 true true 0 (l)]
[(Helvetica) 180 0 true true 0 (s)]
] 0 MCshow grestore

end
showpage
%%Trailer
%%EOF
