%!PS-Adobe-3.0 EPSF-3.0
%%BoundingBox: 0 0 514 550
%%Creator: BioKin Ltd.
%%DocumentFonts: Symbol Helvetica
%%EndComments
%
/bkdict 256 dict def
bkdict begin
/M {moveto} def 
/R {rmoveto} def
/L {lineto} def
/rL {rlineto} def
/GSN {gsave newpath} def
/SGR {stroke grestore} def
/COSGR {gsave setrgbcolor stroke grestore grestore} def
/SL {setlinewidth} def
/LWMB {12} def             % line width - model curves, black & white
/LWMC {10} def             % line width - model curves, color
/L2 {2.5 setlinewidth} def
/L5 {5 setlinewidth} def
/L10 {10 setlinewidth} def
/G50 {0.5 setgray} def
/SDA {[10  20] 0 setdash} def % axes
/helvT {/Helvetica findfont 100 scalefont setfont} def % tiny
/helvS {/Helvetica findfont 125 scalefont setfont} def % small
/helvM {/Helvetica findfont 150 scalefont setfont} def % medium
/helvL {/Helvetica findfont 175 scalefont setfont} def % large
/xlabel {gsave M dup
   stringwidth exch -0.5 mul exch rmoveto show grestore} def 
/ylabel {gsave M 90 rotate dup
   stringwidth exch -0.5 mul exch rmoveto show grestore} def
/ylabelresid {gsave M dup
   stringwidth exch -1 mul exch rmoveto show grestore} def
% ======
% Shapes
% ======
% Circle:
/Circ {0 360 arc closepath} def
%
% Square:
/Squa {dup dup -0.5 mul dup dup R -2 mul 0 exch rL 1 mul 0 rL dup 0 exch -1 mul rL closepath} def
%
% Triangle Up:
/TriU {dup dup dup -0.4 mul exch -0.5 mul exch R dup 0.5 mul exch rL dup -1 mul exch 0.5 mul exch rL closepath} def 
%
% Triangle Down:
/TriD {dup dup dup 0.4 mul exch -0.5 mul exch R dup 0.5 mul exch -1 mul rL dup 0.5 mul exch rL closepath} def 
%
% Diamond:
/Diam {45 rotate Squa} def
% ======
% Fills
% ======
/GRF {gsave setgray fill grestore} def                    % gray-level Fill
/COF {gsave setrgbcolor fill grestore} def                % color fill
% ======
% Colors
% ======
/C01 {1.00	0.00	0.00} def      % Red
/C02 {0.00	0.00	1.00} def      % Blue
/C03 {0.00	0.39	0.00} def      % Dark Green
/C04 {0.78	0.08	0.52} def      % Medium Violet Red
/C05 {0.55	0.27	0.07} def      % Saddle Brown
/C06 {0.10	0.70	0.70} def      % (cyan)
/C07 {1.00	0.55	0.00} def      % Dark Orange
/C08 {0.63	0.13	0.94} def      % Purple
/C09 {0.00	0.75	1.00} def      % Deep Sky Blue
/C10 {0.20	0.80	0.20} def      % Lime Green
/C11 {0.47	0.53	0.60} def      % Light Slate Gray
/C12 {0.00	0.00	0.00} def      % Black            % or: {0.19	0.31	0.31} def      % Dark Slate Gray
%
/LGR {0.75} def % light gray
/DGR {0.33} def % dark gray
%
% =============
% Dash patterns
% =============
/dash01 { [80  20] 0 setdash } def
/dash02 { [40  20] 0 setdash } def
/dash03 { [80  20  10  20] 0 setdash } def
/dash04 { [40  20  10  20] 0 setdash } def
/dash05 { [80  20  10  10  10  20] 0 setdash } def
/dash06 { [40  20  10  10  10  20] 0 setdash } def
/dash07 { [10  10] 0 setdash } def
%
/MFshow {
   { dup 5 get 3 ge
     { 5 get 3 eq {gsave} {grestore} ifelse }
     {dup dup 0 get findfont exch 1 get scalefont setfont
     [ currentpoint ] exch dup 2 get 0 exch R dup 5 get 2 ne {dup dup 6
     get exch 4 get {show} {stringwidth pop 0 R} ifelse }if dup 5 get 0 eq
     {dup 3 get {2 get neg 0 exch R pop} {pop aload pop M} ifelse} {dup 5
     get 1 eq {dup 2 get exch dup 3 get exch 6 get stringwidth pop -2 div
     dup 0 R} {dup 6 get stringwidth pop -2 div 0 R 6 get
     show 2 index {aload pop M neg 3 -1 roll neg R pop pop} {pop pop pop
     pop aload pop M} ifelse }ifelse }ifelse }
     ifelse }
   forall} bind def
/MFwidth {0 exch {dup 3 get{dup dup 0 get findfont exch 1 get scalefont
     setfont 6 get stringwidth pop add} {pop} ifelse} forall} bind def
/MCshow { currentpoint stroke M
  exch dup MFwidth -2 div 3 -1 roll R MFshow } def
%
end
%%EndProlog
bkdict begin
0.1 0.1 scale
%
% Residuals:
%
GSN 620 2136 M
620 3365 L
620 3688 L
620 3678 L
620 3742 L
620 3921 L
620 4277 L
620 4229 L
620 4341 L
620 4387 L
620 4526 L
620 4507 L
620 4636 L
620 4489 L
620 4451 L
620 4528 L
620 4643 L
620 4548 L
620 4643 L
620 4762 L
620 4788 L
620 4703 L
620 4625 L
620 4692 L
620 4746 L
620 4692 L
620 4760 L
620 4723 L
620 4595 L
620 4831 L
620 4762 L
620 4794 L
620 4830 L
620 4685 L
620 4596 L
620 4775 L
620 4726 L
620 4600 L
620 4791 L
620 4734 L
620 4697 L
620 4758 L
620 4787 L
620 4775 L
620 4686 L
620 4631 L
620 4704 L
620 4860 L
620 4773 L
620 4810 L
620 4741 L
620 4802 L
620 4677 L
620 4746 L
620 4804 L
620 4694 L
620 4668 L
620 4707 L
620 4734 L
620 4752 L
620 4832 L
620 4693 L
620 4696 L
620 4555 L
620 4766 L
620 4674 L
620 4710 L
620 4653 L
620 4719 L
620 4714 L
620 4722 L
620 4569 L
620 4728 L
620 4743 L
620 4823 L
620 4703 L
620 4701 L
620 4670 L
620 4560 L
620 4611 L
620 4710 L
620 4715 L
620 4804 L
620 4784 L
620 4643 L
620 4661 L
620 4696 L
620 4692 L
620 4637 L
620 4736 L
620 4618 L
620 4553 L
620 4609 L
620 4578 L
620 4619 L
620 4624 L
620 4755 L
620 4647 L
620 4577 L
620 4702 L
620 4527 L
620 4593 L
620 4613 L
620 4673 L
620 4644 L
620 4551 L
620 4567 L
620 4580 L
620 4641 L
620 4738 L
620 4660 L
620 4594 L
620 4465 L
620 4591 L
620 4581 L
620 4567 L
620 4533 L
620 4863 L
620 4624 L
620 4670 L
620 4510 L
620 4675 L
620 4572 L
620 4561 L
620 4684 L
620 4670 L
620 4639 L
620 4538 L
620 4620 L
620 4681 L
620 4578 L
620 4473 L
620 4481 L
620 4532 L
620 4593 L
620 4591 L
620 4667 L
620 4572 L
620 4583 L
620 4554 L
620 4548 L
620 4526 L
620 4515 L
620 4540 L
620 4413 L
620 4600 L
620 4657 L
620 4503 L
620 4590 L
620 4448 L
620 4546 L
620 4592 L
620 4434 L
620 4566 L
620 4445 L
620 4414 L
620 4518 L
620 4537 L
620 4569 L
620 4535 L
620 4565 L
620 4435 L
620 4551 L
620 4477 L
620 4382 L
620 4400 L
620 4590 L
620 4476 L
620 4548 L
620 4621 L
620 4595 L
620 4421 L
620 4634 L
620 4528 L
620 4493 L
620 4590 L
620 4477 L
620 4382 L
620 4416 L
620 4456 L
620 4382 L
620 4393 L
620 4333 L
620 4574 L
620 4502 L
620 4580 L
620 4507 L
620 4456 L
620 4481 L
620 4533 L
620 4280 L
620 4394 L
620 4506 L
620 4419 L
620 4503 L
620 4586 L
620 4447 L
620 4428 L
620 4469 L
620 4403 L
620 4461 L
620 4491 L
620 4486 L
620 4384 L
620 4509 L
620 4532 L
620 4325 L
620 4429 L
620 4472 L
620 4497 L
620 4372 L
620 4521 L
620 4430 L
620 4418 L
620 4506 L
620 4510 L
620 4290 L
620 4348 L
620 4544 L
620 4510 L
620 4484 L
620 4323 L
620 4395 L
620 4421 L
620 4454 L
620 4379 L
620 4494 L
620 4513 L
620 4322 L
620 4299 L
620 4361 L
620 4342 L
620 4286 L
620 4423 L
620 4380 L
620 4385 L
620 4350 L
620 4423 L
620 4381 L
620 4367 L
620 4466 L
620 4459 L
620 4265 L
620 4272 L
620 4279 L
620 4403 L
620 4393 L
620 4463 L
620 4334 L
620 4424 L
620 4376 L
620 4398 L
620 4513 L
620 4152 L
620 4334 L
620 4453 L
620 4372 L
620 4214 L
620 4275 L
620 4398 L
620 4351 L
620 4265 L
620 4417 L
620 4308 L
620 4319 L
620 4339 L
620 4389 L
620 4306 L
620 4428 L
620 4445 L
620 4346 L
620 4358 L
620 4351 L
620 4305 L
620 4300 L
620 4358 L
620 4371 L
620 4335 L
620 4276 L
620 4400 L
620 4291 L
620 4280 L
620 4191 L
620 4357 L
620 4361 L
620 4404 L
620 4202 L
620 4306 L
620 4486 L
620 4304 L
620 4357 L
620 4158 L
620 4140 L
620 4163 L
620 4295 L
620 4255 L
620 4271 L
620 4283 L
620 4384 L
620 4237 L
620 4241 L
620 4256 L
620 4347 L
620 4150 L
620 4266 L
620 4429 L
620 4292 L
620 4164 L
620 4298 L
620 4330 L
620 4191 L
620 4246 L
620 4205 L
620 4251 L
620 4189 L
620 4382 L
620 4294 L
620 4137 L
620 4216 L
620 4240 L
620 4195 L
620 4150 L
620 4220 L
620 4178 L
620 4189 L
620 4330 L
620 4339 L
620 4240 L
620 4141 L
620 4278 L
620 4115 L
620 4193 L
620 4346 L
620 4141 L
620 4370 L
620 4235 L
620 4386 L
620 4375 L
620 4163 L
620 4210 L
620 4092 L
620 4213 L
620 4253 L
620 4402 L
620 4072 L
620 4231 L
620 4188 L
620 4158 L
620 4172 L
620 4104 L
620 4243 L
620 4049 L
620 4360 L
620 4138 L
620 4240 L
620 4155 L
620 4192 L
620 4275 L
620 4389 L
620 4158 L
620 4139 L
620 4383 L
620 4166 L
620 4200 L
620 4219 L
620 4262 L
620 4195 L
620 4204 L
620 4189 L
620 4226 L
620 4053 L
620 4215 L
620 4201 L
620 4090 L
620 4208 L
620 4040 L
620 4073 L
620 4247 L
620 4143 L
620 4160 L
620 4255 L
620 4112 L
620 4183 L
620 4118 L
620 4246 L
620 4054 L
620 4114 L
620 4258 L
620 4035 L
620 4230 L
620 4054 L
620 4095 L
620 4179 L
620 4145 L
620 4275 L
620 4131 L
620 4140 L
620 4088 L
620 4043 L
620 4202 L
620 4258 L
620 4069 L
620 4135 L
620 4122 L
620 4105 L
620 3999 L
620 4071 L
620 4274 L
620 4061 L
620 4103 L
620 3980 L
620 4134 L
620 4073 L
620 4042 L
620 3985 L
620 4067 L
620 4127 L
620 4160 L
620 4000 L
620 4035 L
620 4051 L
620 3927 L
620 4060 L
620 4107 L
620 3927 L
620 4017 L
620 4131 L
620 3933 L
620 3922 L
620 4041 L
620 4064 L
620 3887 L
620 3890 L
620 4095 L
620 3906 L
620 4016 L
620 3926 L
620 3949 L
620 4014 L
620 3828 L
620 3890 L
620 4071 L
620 3862 L
620 3952 L
620 3931 L
620 3848 L
620 4011 L
620 3883 L
620 3851 L
620 3831 L
620 3796 L
620 3928 L
620 3831 L
620 3729 L
620 3925 L
620 3860 L
620 3793 L
620 3689 L
620 4006 L
620 3971 L
620 3880 L
620 3950 L
620 3932 L
620 3757 L
620 3898 L
620 3899 L
620 3811 L
620 3937 L
620 3812 L
620 3953 L
620 3691 L
620 3895 L
620 3894 L
620 3726 L
620 3700 L
620 3746 L
620 3840 L
620 3837 L
620 3788 L
620 3968 L
620 3891 L
620 3869 L
620 3769 L
620 3821 L
620 3802 L
620 3826 L
620 3828 L
620 3861 L
620 3774 L
620 3857 L
620 3652 L
620 3738 L
620 3912 L
620 3673 L
620 3824 L
620 3907 L
620 3803 L
620 3807 L
620 3708 L
620 3623 L
620 3855 L
620 3738 L
620 3764 L
620 3681 L
620 3797 L
620 3788 L
620 3705 L
620 3734 L
620 3752 L
620 3799 L
620 3793 L
620 3704 L
620 3744 L
620 3615 L
620 3721 L
620 3744 L
620 3687 L
620 3687 L
620 3742 L
620 3715 L
620 3768 L
620 3654 L
620 3653 L
620 3711 L
620 3645 L
620 3660 L
620 3755 L
620 3632 L
620 3891 L
620 3587 L
620 3541 L
620 3849 L
620 3550 L
620 3683 L
620 3728 L
620 3644 L
620 3699 L
620 3713 L
620 3800 L
620 3663 L
620 3594 L
620 3642 L
620 3755 L
620 3729 L
620 3667 L
620 3728 L
620 3585 L
620 3627 L
620 3709 L
620 3652 L
620 3720 L
620 3658 L
620 3747 L
620 3668 L
620 3537 L
620 3735 L
620 3573 L
620 3568 L
620 3791 L
620 3478 L
620 3687 L
620 3653 L
620 3526 L
620 3655 L
620 3641 L
620 3583 L
620 3585 L
620 3639 L
620 3663 L
620 3490 L
620 3576 L
620 3537 L
620 3664 L
620 3741 L
620 3679 L
620 3714 L
620 3551 L
620 3491 L
620 3642 L
620 3609 L
620 3504 L
620 3544 L
620 3514 L
620 3626 L
620 3464 L
620 3646 L
620 3728 L
620 3673 L
620 3567 L
620 3611 L
620 3427 L
620 3557 L
620 3532 L
620 3613 L
620 3593 L
620 3677 L
620 3570 L
620 3522 L
620 3641 L
620 3625 L
620 3495 L
620 3613 L
620 3591 L
620 3702 L
620 3559 L
620 3509 L
620 3501 L
620 3490 L
620 3574 L
620 3616 L
620 3555 L
620 3587 L
620 3552 L
620 3548 L
620 3607 L
620 3701 L
620 3630 L
620 3437 L
620 3658 L
620 3610 L
620 3572 L
620 3684 L
620 3475 L
620 3608 L
620 3595 L
620 3735 L
620 3644 L
620 3544 L
620 3461 L
620 3571 L
620 3706 L
620 3486 L
620 3549 L
620 3573 L
620 3490 L
620 3430 L
620 3627 L
620 3444 L
620 3415 L
620 3634 L
620 3585 L
620 3501 L
620 3561 L
620 3572 L
620 3570 L
620 3438 L
620 3696 L
620 3534 L
620 3508 L
620 3486 L
620 3602 L
620 3561 L
620 3506 L
620 3606 L
620 3475 L
620 3548 L
620 3557 L
620 3569 L
620 3581 L
620 3622 L
620 3480 L
620 3506 L
620 3572 L
620 3527 L
620 3390 L
620 3324 L
620 3624 L
620 3537 L
620 3521 L
620 3512 L
620 3614 L
620 3461 L
620 3639 L
620 3452 L
620 3557 L
620 3464 L
620 3461 L
620 3460 L
620 3465 L
620 3566 L
620 3502 L
620 3431 L
620 3542 L
620 3560 L
620 3497 L
620 3609 L
620 3504 L
620 3469 L
620 3640 L
620 3454 L
620 3663 L
620 3565 L
620 3498 L
620 3551 L
620 3475 L
620 3522 L
620 3595 L
620 3501 L
620 3532 L
620 3509 L
620 3526 L
620 3514 L
620 3471 L
620 3500 L
620 3561 L
620 3406 L
620 3484 L
620 3429 L
620 3352 L
620 3559 L
620 3428 L
620 3568 L
620 3579 L
620 3444 L
620 3495 L
620 3410 L
620 3603 L
620 3423 L
620 3627 L
620 3548 L
620 3512 L
620 3501 L
620 3580 L
620 3530 L
620 3585 L
620 3537 L
620 3536 L
620 3483 L
620 3405 L
620 3474 L
620 3597 L
620 3562 L
620 3488 L
620 3445 L
620 3545 L
620 3484 L
620 3534 L
620 3596 L
620 3580 L
620 3518 L
620 3609 L
620 3498 L
620 3550 L
620 3548 L
620 3585 L
620 3525 L
620 3570 L
620 3495 L
620 3565 L
620 3433 L
620 3493 L
620 3434 L
620 3649 L
620 3672 L
620 3630 L
620 3492 L
620 3597 L
620 3556 L
620 3576 L
620 3480 L
620 3447 L
620 3504 L
620 3465 L
620 3635 L
620 3474 L
620 3388 L
620 3630 L
620 3654 L
620 3554 L
620 3526 L
620 3448 L
620 3472 L
620 3376 L
620 3505 L
620 3341 L
620 3468 L
620 3536 L
620 3444 L
620 3612 L
620 3489 L
620 3439 L
620 3278 L
620 3567 L
620 3553 L
620 3429 L
620 3412 L
620 3559 L
620 3581 L
620 3456 L
620 3477 L
620 3492 L
620 3482 L
620 3478 L
620 3434 L
620 3592 L
620 3472 L
620 3534 L
620 3477 L
620 3599 L
620 3510 L
620 3505 L
620 3452 L
620 3534 L
620 3527 L
620 3533 L
620 3590 L
620 3472 L
620 3510 L
620 3747 L
620 3586 L
620 3617 L
620 3641 L
620 3543 L
620 3446 L
620 3481 L
620 3635 L
620 3628 L
620 3624 L
620 3469 L
620 3571 L
620 3490 L
620 3525 L
620 3524 L
620 3600 L
620 3565 L
620 3596 L
620 3501 L
620 3570 L
620 3502 L
620 3602 L
620 3719 L
620 3542 L
620 3513 L
620 3522 L
620 3607 L
620 3518 L
620 3570 L
620 3584 L
620 3352 L
620 3511 L
620 3547 L
620 3496 L
620 3581 L
620 3551 L
620 3583 L
620 3503 L
620 3608 L
620 3540 L
620 3586 L
620 3535 L
620 3665 L
620 3549 L
620 3565 L
620 3524 L
620 3535 L
620 3470 L
620 3460 L
620 3584 L
620 3736 L
620 3513 L
620 3494 L
620 3409 L
620 3526 L
620 3641 L
620 3662 L
620 3590 L
620 3624 L
620 3547 L
620 3553 L
620 3577 L
620 3599 L
620 3452 L
620 3608 L
620 3607 L
620 3639 L
620 3556 L
620 3601 L
620 3606 L
620 3638 L
620 3655 L
620 3454 L
620 3583 L
620 3531 L
620 3645 L
620 3564 L
620 3603 L
620 3506 L
620 3322 L
620 3462 L
620 3591 L
620 3618 L
620 3553 L
620 3666 L
620 3671 L
620 3543 L
620 3533 L
620 3530 L
620 3821 L
620 3539 L
620 3613 L
620 3485 L
620 3567 L
620 3439 L
620 3649 L
620 3440 L
620 3606 L
620 3473 L
620 3566 L
620 3680 L
620 3541 L
620 3592 L
620 3621 L
620 3567 L
620 3556 L
620 3430 L
620 3567 L
620 3657 L
620 3639 L
620 3628 L
620 3526 L
620 3428 L
620 3473 L
620 3435 L
620 3497 L
620 3831 L
620 3605 L
620 3574 L
620 3538 L
620 3594 L
620 3750 L
620 3517 L
620 3678 L
620 3459 L
620 3580 L
620 3457 L
620 3558 L
620 3509 L
620 3562 L
620 3610 L
620 3560 L
620 3469 L
620 3652 L
620 3503 L
620 3658 L
620 3616 L
620 3778 L
620 3351 L
620 3548 L
620 3596 L
620 3622 L
620 3650 L
620 3424 L
620 3634 L
620 3691 L
620 3647 L
620 3464 L
620 3435 L
620 3507 L
620 3536 L
620 3602 L
620 3730 L
620 3680 L
620 3689 L
620 3589 L
620 3426 L
620 3477 L
620 3468 L
620 3512 L
620 3532 L
620 3535 L
620 3608 L
620 3514 L
620 3611 L
620 3549 L
620 3573 L
620 3716 L
620 3508 L
620 3505 L
620 3566 L
620 3565 L
620 3613 L
620 3514 L
620 3530 L
620 3678 L
620 3487 L
620 3648 L
620 3534 L
620 3703 L
620 3646 L
620 3720 L
620 3664 L
620 3501 L
620 3462 L
620 3589 L
620 3622 L
620 3713 L
620 3574 L
620 3609 L
620 3537 L
620 3541 L
620 3652 L
620 3580 L
620 3478 L
620 3430 L
620 3484 L
620 3717 L
620 3520 L
620 3648 L
620 3606 L
620 3666 L
620 3421 L
620 3558 L
620 3450 L
620 3670 L
620 3683 L
620 3509 L
620 3574 L
620 3539 L
620 3674 L
620 3552 L
620 3633 L
620 3630 L
620 3512 L
620 3609 L
620 3559 L
620 3577 L
620 3727 L
620 3541 L
620 3466 L
620 3643 L
620 3586 L
620 3637 L
620 3592 L
620 3547 L
620 3670 L
620 3554 L
620 3736 L
620 3535 L
620 3654 L
620 3591 L
620 3612 L
620 3696 L
620 3658 L
620 3677 L
620 3645 L
620 3560 L
620 3640 L
620 3502 L
620 3578 L
620 3602 L
620 3590 L
620 3517 L
620 3693 L
620 3508 L
620 3622 L
620 3610 L
620 3613 L
620 3750 L
620 3577 L
620 3544 L
620 3708 L
620 3564 L
620 3563 L
620 3633 L
620 3666 L
620 3663 L
620 3777 L
620 3636 L
620 3701 L
620 3569 L
620 3625 L
620 3524 L
620 3673 L
620 3578 L
620 3580 L
620 3687 L
620 3594 L
620 3707 L
620 3601 L
620 3709 L
620 3565 L
620 3716 L
620 3566 L
620 3577 L
620 3625 L
620 3611 L
620 3563 L
620 3712 L
620 3628 L
620 3668 L
620 3540 L
620 3618 L
620 3592 L
620 3663 L
620 3529 L
620 3592 L
620 3680 L
620 3598 L
620 3616 L
620 3686 L
620 3581 L
620 3623 L
620 3758 L
620 3604 L
620 3638 L
620 3717 L
620 3692 L
620 3713 L
620 3602 L
620 3600 L
620 3638 L
620 3572 L
620 3634 L
620 3614 L
620 3588 L
620 3590 L
620 3688 L
620 3571 L
620 3581 L
620 3703 L
620 3593 L
620 3708 L
620 3717 L
620 3688 L
620 3572 L
620 3694 L
620 3610 L
620 3600 L
620 3765 L
620 3613 L
620 3815 L
620 3820 L
620 3497 L
620 3669 L
620 3671 L
620 3623 L
620 3616 L
620 3618 L
620 3638 L
620 3629 L
620 3707 L
620 3713 L
620 3660 L
620 3586 L
620 3552 L
620 3512 L
620 3731 L
620 3708 L
620 3688 L
620 3726 L
620 3609 L
620 3537 L
620 3679 L
620 3531 L
620 3779 L
620 3626 L
620 3730 L
620 3597 L
620 3629 L
620 3647 L
620 3637 L
620 3666 L
620 3655 L
620 3542 L
620 3647 L
620 3604 L
620 3727 L
620 3644 L
620 3747 L
620 3741 L
620 3697 L
620 3615 L
620 3563 L
620 3641 L
620 3665 L
620 3732 L
620 3757 L
620 3580 L
620 3644 L
620 3664 L
620 3652 L
620 3673 L
620 3615 L
620 3724 L
620 3781 L
620 3760 L
620 3716 L
620 3645 L
620 3614 L
620 3734 L
620 3584 L
620 3656 L
620 3610 L
620 3703 L
620 3664 L
620 3452 L
620 3705 L
620 3705 L
620 3666 L
620 3550 L
620 3714 L
620 3700 L
620 3649 L
620 3710 L
620 3617 L
620 3550 L
620 3651 L
620 3628 L
620 3590 L
620 3666 L
620 3766 L
620 3655 L
620 3726 L
620 3670 L
620 3635 L
620 3780 L
620 3691 L
620 3700 L
620 3596 L
620 3619 L
620 3676 L
620 3648 L
620 3780 L
620 3761 L
620 3740 L
620 3432 L
620 3733 L
620 3725 L
620 3722 L
620 3787 L
620 3664 L
620 3679 L
620 3621 L
620 3767 L
620 3691 L
620 3790 L
620 3697 L
620 3680 L
620 3827 L
620 3700 L
620 3690 L
620 3721 L
620 3762 L
620 3620 L
620 3632 L
620 3577 L
620 3691 L
620 3692 L
620 3560 L
620 3683 L
620 3707 L
620 3742 L
620 3761 L
620 3786 L
620 3507 L
620 3736 L
620 3732 L
620 3622 L
620 3768 L
620 3654 L
620 3803 L
620 3521 L
620 3711 L
620 3664 L
620 3794 L
620 3654 L
620 3689 L
620 3713 L
620 3735 L
620 3712 L
620 3659 L
620 3719 L
620 3834 L
620 3849 L
620 3682 L
620 3707 L
620 3607 L
620 3677 L
620 3677 L
620 3611 L
620 3742 L
620 3765 L
620 3812 L
620 3833 L
620 3515 L
620 3689 L
620 3849 L
620 3601 L
620 3649 L
620 3633 L
620 3713 L
620 3663 L
620 3663 L
620 3643 L
620 3740 L
620 3692 L
620 3581 L
620 3721 L
620 3511 L
620 3569 L
620 3708 L
620 3663 L
620 3726 L
620 3597 L
620 3619 L
620 3611 L
620 3788 L
620 3663 L
620 3717 L
620 3808 L
620 3662 L
620 3710 L
620 3612 L
620 3764 L
620 3786 L
620 3759 L
620 3574 L
620 3610 L
620 3641 L
620 3696 L
620 3695 L
620 3632 L
620 3705 L
620 3628 L
620 3665 L
620 3637 L
620 3739 L
620 3789 L
620 3715 L
620 3677 L
620 3696 L
620 3710 L
620 3833 L
620 3661 L
620 3741 L
620 3669 L
620 3662 L
620 3741 L
620 3609 L
620 3824 L
620 3656 L
620 3877 L
620 3829 L
620 3649 L
620 3726 L
620 3628 L
620 3723 L
620 3658 L
620 3833 L
620 3727 L
620 3497 L
620 3804 L
620 3749 L
620 3566 L
620 3729 L
620 3583 L
620 3719 L
620 3813 L
620 3725 L
620 3704 L
620 3705 L
620 3728 L
620 3740 L
620 3757 L
620 3719 L
620 3779 L
620 3744 L
620 3689 L
620 3750 L
620 3677 L
620 3692 L
620 3740 L
620 3614 L
620 3661 L
620 3769 L
620 3719 L
620 3575 L
620 3620 L
620 3636 L
620 3826 L
620 3774 L
620 3677 L
620 3493 L
620 3731 L
620 3777 L
620 3640 L
620 3741 L
620 3530 L
620 3708 L
620 3665 L
620 3746 L
620 3862 L
620 3693 L
620 3730 L
620 3816 L
620 3695 L
620 3767 L
620 3583 L
620 3880 L
620 3628 L
620 3642 L
620 3736 L
620 3702 L
620 3801 L
620 3716 L
620 3783 L
620 3641 L
620 3937 L
620 3684 L
620 3798 L
620 3744 L
620 3736 L
620 3857 L
620 3589 L
620 3859 L
620 3961 L
620 3813 L
620 3560 L
620 3728 L
620 3767 L
620 3808 L
620 3817 L
620 3821 L
620 3979 L
620 3754 L
620 3730 L
620 3783 L
620 3703 L
620 3645 L
620 3825 L
620 3722 L
620 3874 L
620 3594 L
620 4012 L
620 3894 L
620 3664 L
620 3738 L
620 3870 L
620 3903 L
620 3767 L
620 3815 L
620 3719 L
620 3807 L
620 3950 L
620 3881 L
620 3730 L
620 3839 L
620 3820 L
620 3894 L
620 3770 L
620 3862 L
620 3894 L
620 3832 L
620 3797 L
620 3909 L
620 3770 L
620 3784 L
620 3877 L
620 3828 L
620 3885 L
620 3905 L
620 3902 L
620 3901 L
620 3850 L
620 3815 L
620 3894 L
620 3856 L
620 3813 L
620 3835 L
620 3824 L
620 3870 L
620 3891 L
620 3788 L
620 3929 L
620 3875 L
620 3971 L
620 3965 L
620 3799 L
620 3847 L
620 3860 L
620 3882 L
620 3777 L
620 3875 L
620 3733 L
620 3992 L
620 3848 L
620 3921 L
620 3912 L
620 3924 L
620 3926 L
620 3879 L
620 3854 L
620 4064 L
620 3785 L
620 3743 L
620 3957 L
620 3838 L
620 3835 L
620 3869 L
620 3972 L
620 3932 L
620 3869 L
620 3836 L
620 3828 L
620 3906 L
620 3811 L
620 3916 L
620 3795 L
620 3832 L
620 3902 L
620 3953 L
620 3891 L
620 3937 L
620 3990 L
620 3839 L
620 3846 L
620 3839 L
620 3869 L
620 3886 L
620 3866 L
620 3834 L
620 3855 L
620 3721 L
620 3655 L
620 3975 L
620 3972 L
620 3795 L
620 4030 L
620 3769 L
620 3955 L
620 3710 L
620 4037 L
620 3827 L
620 3922 L
620 3974 L
620 3904 L
620 3762 L
620 3838 L
620 3921 L
620 3943 L
620 3831 L
620 3889 L
620 3957 L
620 3879 L
620 3910 L
620 3912 L
620 3780 L
620 3823 L
620 3871 L
620 3639 L
620 3955 L
620 3740 L
620 3719 L
620 3835 L
620 3875 L
620 3745 L
620 3725 L
620 3789 L
620 3924 L
620 3838 L
620 3770 L
620 3815 L
620 3842 L
620 3713 L
620 3920 L
620 3932 L
620 3859 L
620 3936 L
620 3917 L
620 3984 L
620 3968 L
620 3778 L
620 3862 L
620 3816 L
620 3795 L
620 3922 L
620 4003 L
620 3744 L
620 3785 L
620 3847 L
620 3792 L
620 3978 L
620 3613 L
620 3870 L
620 3843 L
620 3657 L
620 3928 L
620 3980 L
620 4045 L
620 4015 L
620 3898 L
620 4060 L
620 3862 L
620 3898 L
620 3883 L
620 3753 L
620 3799 L
620 3789 L
620 3991 L
620 3744 L
620 3725 L
620 3834 L
620 3905 L
620 3787 L
620 3879 L
620 3842 L
620 3734 L
620 3675 L
620 3902 L
620 3772 L
620 3943 L
620 3699 L
620 3908 L
620 3980 L
620 3827 L
620 3719 L
620 3832 L
620 3783 L
620 3875 L
620 3901 L
620 3787 L
620 3828 L
620 3758 L
620 4023 L
620 3831 L
620 3863 L
620 3853 L
620 3975 L
620 3749 L
620 3847 L
620 3795 L
620 3889 L
620 3793 L
620 3809 L
620 3717 L
620 3882 L
620 3797 L
620 3840 L
620 3869 L
620 3835 L
620 3890 L
620 3828 L
620 3855 L
620 3847 L
620 3880 L
620 4002 L
620 3835 L
620 3791 L
620 3952 L
620 3844 L
620 3906 L
620 3918 L
620 3773 L
620 3896 L
620 3742 L
620 3980 L
620 3714 L
620 3752 L
620 3710 L
620 3912 L
620 3762 L
620 3941 L
620 3877 L
620 3591 L
620 3820 L
620 3906 L
620 3769 L
620 3949 L
620 3826 L
620 3902 L
620 3846 L
620 3797 L
620 3585 L
620 3905 L
620 3735 L
620 3975 L
620 3839 L
620 3884 L
620 3941 L
620 3605 L
620 3756 L
620 3746 L
620 3813 L
620 3927 L
620 3800 L
620 3687 L
620 3905 L
620 3780 L
620 3717 L
620 3768 L
620 3664 L
620 3832 L
620 3890 L
620 3916 L
620 3821 L
620 3933 L
620 3924 L
620 3735 L
620 3900 L
620 3765 L
620 3799 L
620 3920 L
620 3698 L
620 3758 L
620 3848 L
620 3956 L
620 3768 L
620 3729 L
620 3718 L
620 3795 L
620 3839 L
620 3846 L
620 3723 L
620 3819 L
620 3867 L
620 3838 L
620 3918 L
620 3894 L
620 3873 L
620 3633 L
620 3854 L
620 3735 L
620 4023 L
620 3866 L
620 3840 L
620 3866 L
620 3823 L
620 3688 L
620 3855 L
620 3897 L
620 3859 L
620 3859 L
620 3721 L
620 3737 L
620 3822 L
620 3737 L
620 3811 L
620 3725 L
620 3764 L
620 3812 L
620 3783 L
620 3810 L
620 3824 L
620 3821 L
620 3772 L
620 3865 L
620 3896 L
620 3827 L
620 3870 L
620 3896 L
620 3869 L
620 3779 L
620 3859 L
620 3807 L
620 3744 L
620 3770 L
620 3913 L
L2 C02 COSGR

%
%================
% Legend - Begin
%================
%
GSN 4240 5180 M
4480 5180 L
LWMC SL  C02 COSGR
GSN 4540 5141 M helvM (1.0 uM) show grestore
%
%================
% Legend - End
%================
%

%
% Main frame
%
L10
GSN 
620 1700 M
4220 1700 L
4220 5300 L
620 5300 L
closepath SGR

%
% X axis: large tics
%
L10
%
% X axis: small tics
%
L5
%
% Y axis: large tics
%
L10
GSN 620 2522 M 54 0 rL SGR
GSN 4220 2522 M -54 0 rL SGR
helvS (-0.05) 560 2522 ylabel
GSN 620 3845 M 54 0 rL SGR
GSN 4220 3845 M -54 0 rL SGR
helvS (0) 560 3845 ylabel
GSN 620 5168 M 54 0 rL SGR
GSN 4220 5168 M -54 0 rL SGR
helvS (0.05) 560 5168 ylabel
%
% Y axis: small tics
%
L5
GSN 620 1728 M 36 0 rL SGR
GSN 4220 1728 M -36 0 rL SGR
GSN 620 1993 M 36 0 rL SGR
GSN 4220 1993 M -36 0 rL SGR
GSN 620 2258 M 36 0 rL SGR
GSN 4220 2258 M -36 0 rL SGR
GSN 620 2522 M 36 0 rL SGR
GSN 4220 2522 M -36 0 rL SGR
GSN 620 2787 M 36 0 rL SGR
GSN 4220 2787 M -36 0 rL SGR
GSN 620 3051 M 36 0 rL SGR
GSN 4220 3051 M -36 0 rL SGR
GSN 620 3316 M 36 0 rL SGR
GSN 4220 3316 M -36 0 rL SGR
GSN 620 3581 M 36 0 rL SGR
GSN 4220 3581 M -36 0 rL SGR
GSN 620 3845 M 36 0 rL SGR
GSN 4220 3845 M -36 0 rL SGR
GSN 620 4110 M 36 0 rL SGR
GSN 4220 4110 M -36 0 rL SGR
GSN 620 4374 M 36 0 rL SGR
GSN 4220 4374 M -36 0 rL SGR
GSN 620 4639 M 36 0 rL SGR
GSN 4220 4639 M -36 0 rL SGR
GSN 620 4904 M 36 0 rL SGR
GSN 4220 4904 M -36 0 rL SGR
GSN 620 5168 M 36 0 rL SGR
GSN 4220 5168 M -36 0 rL SGR

%
% X axis - residual panel
%
GSN L5 620 3845 M 4220 3845 L SDA G50 SGR

%
% X-Axis label:
%
gsave 620 1370 M 
[
[(Helvetica) 180 0 true true 0 (t)]
[(Helvetica) 180 0 true true 0 (i)]
[(Helvetica) 180 0 true true 0 (m)]
[(Helvetica) 180 0 true true 0 (e)]
] 0 MCshow grestore

%
% Y-Axis label:
%
gsave 234 3500 M 
currentpoint gsave translate 90 rotate 0 0 moveto
[
[(Helvetica) 180 0 true true 0 (r)]
[(Helvetica) 180 0 true true 0 (e)]
[(Helvetica) 180 0 true true 0 (s)]
[(Helvetica) 180 0 true true 0 (i)]
[(Helvetica) 180 0 true true 0 (d)]
[(Helvetica) 180 0 true true 0 (u)]
[(Helvetica) 180 0 true true 0 (a)]
[(Helvetica) 180 0 true true 0 (l)]
[(Helvetica) 180 0 true true 0 (s)]
] 0 MCshow grestore

end
showpage
%%Trailer
%%EOF
