%!PS-Adobe-3.0 EPSF-3.0
%%BoundingBox: 0 0 514 550
%%Creator: BioKin Ltd.
%%DocumentFonts: Symbol Helvetica
%%EndComments
%
/bkdict 256 dict def
bkdict begin
/M {moveto} def 
/R {rmoveto} def
/L {lineto} def
/rL {rlineto} def
/GSN {gsave newpath} def
/SGR {stroke grestore} def
/COSGR {gsave setrgbcolor stroke grestore grestore} def
/SL {setlinewidth} def
/LWMB {12} def             % line width - model curves, black & white
/LWMC {10} def             % line width - model curves, color
/L2 {2.5 setlinewidth} def
/L5 {5 setlinewidth} def
/L10 {10 setlinewidth} def
/G50 {0.5 setgray} def
/SDA {[10  20] 0 setdash} def % axes
/helvT {/Helvetica findfont 100 scalefont setfont} def % tiny
/helvS {/Helvetica findfont 125 scalefont setfont} def % small
/helvM {/Helvetica findfont 150 scalefont setfont} def % medium
/helvL {/Helvetica findfont 175 scalefont setfont} def % large
/xlabel {gsave M dup
   stringwidth exch -0.5 mul exch rmoveto show grestore} def 
/ylabel {gsave M 90 rotate dup
   stringwidth exch -0.5 mul exch rmoveto show grestore} def
/ylabelresid {gsave M dup
   stringwidth exch -1 mul exch rmoveto show grestore} def
% ======
% Shapes
% ======
% Circle:
/Circ {0 360 arc closepath} def
%
% Square:
/Squa {dup dup -0.5 mul dup dup R -2 mul 0 exch rL 1 mul 0 rL dup 0 exch -1 mul rL closepath} def
%
% Triangle Up:
/TriU {dup dup dup -0.4 mul exch -0.5 mul exch R dup 0.5 mul exch rL dup -1 mul exch 0.5 mul exch rL closepath} def 
%
% Triangle Down:
/TriD {dup dup dup 0.4 mul exch -0.5 mul exch R dup 0.5 mul exch -1 mul rL dup 0.5 mul exch rL closepath} def 
%
% Diamond:
/Diam {45 rotate Squa} def
% ======
% Fills
% ======
/GRF {gsave setgray fill grestore} def                    % gray-level Fill
/COF {gsave setrgbcolor fill grestore} def                % color fill
% ======
% Colors
% ======
/C01 {1.00	0.00	0.00} def      % Red
/C02 {0.00	0.00	1.00} def      % Blue
/C03 {0.00	0.39	0.00} def      % Dark Green
/C04 {0.78	0.08	0.52} def      % Medium Violet Red
/C05 {0.55	0.27	0.07} def      % Saddle Brown
/C06 {0.10	0.70	0.70} def      % (cyan)
/C07 {1.00	0.55	0.00} def      % Dark Orange
/C08 {0.63	0.13	0.94} def      % Purple
/C09 {0.00	0.75	1.00} def      % Deep Sky Blue
/C10 {0.20	0.80	0.20} def      % Lime Green
/C11 {0.47	0.53	0.60} def      % Light Slate Gray
/C12 {0.00	0.00	0.00} def      % Black            % or: {0.19	0.31	0.31} def      % Dark Slate Gray
%
/LGR {0.75} def % light gray
/DGR {0.33} def % dark gray
%
% =============
% Dash patterns
% =============
/dash01 { [80  20] 0 setdash } def
/dash02 { [40  20] 0 setdash } def
/dash03 { [80  20  10  20] 0 setdash } def
/dash04 { [40  20  10  20] 0 setdash } def
/dash05 { [80  20  10  10  10  20] 0 setdash } def
/dash06 { [40  20  10  10  10  20] 0 setdash } def
/dash07 { [10  10] 0 setdash } def
%
/MFshow {
   { dup 5 get 3 ge
     { 5 get 3 eq {gsave} {grestore} ifelse }
     {dup dup 0 get findfont exch 1 get scalefont setfont
     [ currentpoint ] exch dup 2 get 0 exch R dup 5 get 2 ne {dup dup 6
     get exch 4 get {show} {stringwidth pop 0 R} ifelse }if dup 5 get 0 eq
     {dup 3 get {2 get neg 0 exch R pop} {pop aload pop M} ifelse} {dup 5
     get 1 eq {dup 2 get exch dup 3 get exch 6 get stringwidth pop -2 div
     dup 0 R} {dup 6 get stringwidth pop -2 div 0 R 6 get
     show 2 index {aload pop M neg 3 -1 roll neg R pop pop} {pop pop pop
     pop aload pop M} ifelse }ifelse }ifelse }
     ifelse }
   forall} bind def
/MFwidth {0 exch {dup 3 get{dup dup 0 get findfont exch 1 get scalefont
     setfont 6 get stringwidth pop add} {pop} ifelse} forall} bind def
/MCshow { currentpoint stroke M
  exch dup MFwidth -2 div 3 -1 roll R MFshow } def
%
end
%%EndProlog
bkdict begin
0.1 0.1 scale
%
% Model curves:
%

GSN 753 5166 M
753 5166 L
786 5099 L
820 5025 L
853 4944 L
886 4856 L
920 4761 L
929 4732 L
953 4659 L
986 4550 L
1020 4435 L
1053 4314 L
1086 4188 L
1106 4111 L
1120 4058 L
1153 3925 L
1186 3790 L
1220 3656 L
1253 3523 L
1282 3408 L
1286 3394 L
1319 3270 L
1353 3153 L
1386 3044 L
1419 2946 L
1453 2858 L
1459 2843 L
1486 2782 L
1519 2717 L
1553 2665 L
1586 2624 L
1619 2593 L
1635 2581 L
1653 2571 L
1686 2556 L
1719 2546 L
1753 2541 L
1786 2538 L
1812 2537 L
1819 2537 L
1853 2536 L
1886 2536 L
1919 2536 L
1953 2536 L
1986 2536 L
1988 2536 L
2019 2536 L
2053 2536 L
2086 2536 L
2119 2536 L
2153 2536 L
2165 2536 L
2186 2536 L
2219 2536 L
2253 2536 L
2286 2536 L
2319 2536 L
2341 2536 L
2353 2536 L
2386 2536 L
2419 2536 L
2453 2536 L
2486 2536 L
2518 2536 L
2519 2536 L
2553 2536 L
2586 2536 L
2619 2536 L
2653 2536 L
2686 2536 L
2694 2536 L
2719 2536 L
2753 2536 L
2786 2536 L
2819 2536 L
2853 2536 L
2871 2536 L
2886 2536 L
2919 2536 L
2953 2536 L
2986 2536 L
3019 2536 L
3047 2536 L
3053 2536 L
3086 2536 L
3119 2536 L
3153 2536 L
3186 2536 L
3219 2536 L
3224 2536 L
3253 2536 L
3286 2536 L
3319 2536 L
3353 2536 L
3386 2536 L
3400 2536 L
3419 2536 L
3453 2536 L
3476 2536 L
3486 2536 L
3519 2536 L
3553 2536 L
3577 2536 L
3586 2536 L
3619 2536 L
3653 2536 L
3686 2536 L
3719 2536 L
3753 2536 L
3754 2536 L
3786 2536 L
3819 2536 L
3853 2536 L
3886 2536 L
3919 2536 L
3930 2536 L
3953 2536 L
3986 2536 L
4019 2536 L
4053 2536 L
4086 2536 L
4086 2536 L
LWMC SL  C05 COSGR

%
% Experimental data:
%
GSN 777 4446 M
1388 4270 L
1552 4067 L
1652 4071 L
1723 4225 L
1778 4139 L
1824 4034 L
1863 3946 L
1896 4110 L
1926 4040 L
1952 3984 L
1976 3958 L
1998 4021 L
2019 4018 L
2037 3976 L
2055 4151 L
2071 4003 L
2086 3973 L
2101 4046 L
2115 4083 L
2128 4100 L
2140 3994 L
2152 3957 L
2163 4087 L
2174 4083 L
2184 3938 L
2194 3937 L
2204 3981 L
2213 3880 L
2222 3861 L
2230 3896 L
2239 3843 L
2247 3864 L
2255 4024 L
2262 3827 L
2270 3859 L
2277 3886 L
2284 3935 L
2290 3899 L
2297 3867 L
2303 3867 L
2310 3845 L
2316 3856 L
2322 3759 L
2328 3690 L
2333 3818 L
2339 3869 L
2344 3813 L
2350 3747 L
2355 3600 L
2360 3682 L
2365 3724 L
2370 3686 L
2375 3737 L
2380 3778 L
2384 3791 L
2389 3688 L
2393 3629 L
2398 3669 L
2402 3606 L
2407 3599 L
2411 3583 L
2415 3602 L
2419 3620 L
2423 3628 L
2427 3600 L
2431 3607 L
2435 3459 L
2438 3557 L
2442 3506 L
2446 3791 L
2449 3659 L
2453 3513 L
2456 3489 L
2460 3620 L
2463 3590 L
2467 3600 L
2470 3577 L
2473 3590 L
2476 3521 L
2480 3599 L
2483 3587 L
2486 3577 L
2489 3379 L
2492 3757 L
2495 3453 L
2498 3578 L
2501 3413 L
2504 3455 L
2507 3565 L
2510 3470 L
2512 3394 L
2515 3522 L
2518 3617 L
2521 3329 L
2523 3462 L
2526 3455 L
2529 3453 L
2531 3411 L
2534 3523 L
2536 3441 L
2539 3395 L
2541 3354 L
2544 3379 L
2546 3365 L
2549 3345 L
2551 3463 L
2554 3341 L
2556 3326 L
2558 3228 L
2561 3265 L
2563 3528 L
2565 3355 L
2568 3157 L
2570 3461 L
2572 3291 L
2574 3298 L
2576 3527 L
2579 3347 L
2581 3383 L
2583 3439 L
2585 3391 L
2587 3352 L
2589 3436 L
2591 3335 L
2593 3283 L
2595 3248 L
2597 3224 L
2599 3158 L
2601 3257 L
2603 3324 L
2605 3285 L
2607 3154 L
2609 3379 L
2611 3265 L
2613 3248 L
2615 3363 L
2617 3423 L
2618 3304 L
2620 3346 L
2622 3292 L
2624 3188 L
2626 3187 L
2627 3283 L
2629 3407 L
2631 3269 L
2633 3199 L
2634 3250 L
2636 3080 L
2638 3272 L
2640 3265 L
2641 3184 L
2643 3164 L
2645 3159 L
2646 3174 L
2648 3184 L
2650 3204 L
2651 3223 L
2653 3272 L
2654 3162 L
2656 3104 L
2658 3244 L
2659 3208 L
2661 3123 L
2662 3128 L
2664 3018 L
2665 3199 L
2667 3067 L
2668 3008 L
2670 3073 L
2671 3091 L
2673 3132 L
2674 3036 L
2676 3075 L
2677 3035 L
2679 3076 L
2680 2961 L
2682 3003 L
2683 3183 L
2685 3020 L
2686 3000 L
2687 3112 L
2689 3151 L
2690 3040 L
2692 2957 L
2693 3099 L
2694 3089 L
2696 2984 L
2697 3026 L
2698 3032 L
2700 3165 L
2701 3018 L
2702 3040 L
2704 2983 L
2705 2831 L
2706 3090 L
2708 3074 L
2709 3061 L
2710 2869 L
2712 3000 L
2713 3056 L
2714 3029 L
2715 3004 L
2717 2982 L
2718 2961 L
2719 2957 L
2720 2980 L
2722 3100 L
2723 3055 L
2724 2968 L
2725 3056 L
2726 3057 L
2728 2925 L
2729 3047 L
2730 2958 L
2731 2867 L
2732 2947 L
2734 3102 L
2735 2991 L
2736 2971 L
2737 2885 L
2738 2955 L
2739 3081 L
2741 2940 L
2742 3016 L
2743 2926 L
2744 3017 L
2745 2883 L
2746 2720 L
2747 2919 L
2748 2954 L
2749 3065 L
2751 2972 L
2752 2838 L
2753 3037 L
2754 2903 L
2755 3030 L
2756 2887 L
2757 2850 L
2758 2820 L
2759 2902 L
2760 3057 L
2761 2881 L
2762 2823 L
2763 2974 L
2764 2890 L
2765 2746 L
2767 2813 L
2768 2848 L
2769 2831 L
2770 2793 L
2771 2828 L
2772 2833 L
2773 2839 L
2774 2770 L
2775 2802 L
2776 2928 L
2777 2808 L
2778 2877 L
2779 2785 L
2780 2801 L
2781 2683 L
2782 2831 L
2783 2885 L
2783 2877 L
2784 2731 L
2785 2829 L
2786 2755 L
2787 3005 L
2788 2833 L
2789 2577 L
2790 2841 L
2791 2840 L
2792 2676 L
2793 2628 L
2794 2867 L
2795 2772 L
2796 2824 L
2797 2881 L
2798 2718 L
2798 2723 L
2799 2776 L
2800 2897 L
2801 2824 L
2802 2787 L
2803 2742 L
2804 2745 L
2805 2621 L
2806 2857 L
2807 2857 L
2807 2694 L
2808 2740 L
2809 2794 L
2810 2660 L
2811 2853 L
2812 2849 L
2813 2555 L
2813 2791 L
2814 2852 L
2815 2806 L
2816 2701 L
2817 2721 L
2818 2729 L
2819 2744 L
2819 2733 L
2820 2626 L
2821 2786 L
2822 2732 L
2823 2734 L
2824 2664 L
2824 2911 L
2825 2645 L
2826 2768 L
2827 2733 L
2828 2719 L
2828 2590 L
2829 2762 L
2830 2663 L
2831 2736 L
2832 2630 L
2832 2733 L
2833 2769 L
2834 2723 L
2835 2804 L
2836 2682 L
2836 2696 L
2837 2606 L
2838 2679 L
2839 2769 L
2840 2627 L
2840 2607 L
2841 2582 L
2842 2666 L
2843 2655 L
2843 2677 L
2844 2645 L
2845 2720 L
2846 2536 L
2846 2607 L
2847 2693 L
2848 2611 L
2849 2693 L
2849 2693 L
2850 2615 L
2851 2617 L
2852 2733 L
2852 2594 L
2853 2499 L
2854 2734 L
2855 2539 L
2855 2636 L
2856 2756 L
2857 2600 L
2857 2596 L
2858 2608 L
2859 2502 L
2860 2537 L
2860 2646 L
2861 2699 L
2862 2655 L
2862 2693 L
2863 2723 L
2864 2582 L
2865 2569 L
2865 2584 L
2866 2788 L
2867 2458 L
2867 2393 L
2868 2630 L
2869 2499 L
2869 2615 L
2870 2572 L
2871 2500 L
2871 2606 L
2872 2600 L
2873 2588 L
2873 2554 L
2874 2667 L
2875 2571 L
2876 2576 L
2876 2650 L
2877 2404 L
2878 2507 L
2878 2571 L
2879 2565 L
2880 2475 L
2880 2467 L
2881 2578 L
2881 2568 L
2882 2517 L
2883 2565 L
2883 2501 L
2884 2571 L
2885 2537 L
2885 2501 L
2886 2578 L
2887 2550 L
2887 2417 L
2888 2542 L
2889 2641 L
2889 2551 L
2892 2611 L
2894 2361 L
2897 2531 L
2899 2434 L
2902 2420 L
2904 2483 L
2907 2487 L
2909 2451 L
2911 2358 L
2914 2448 L
2916 2436 L
2918 2394 L
2921 2419 L
2923 2477 L
2925 2578 L
2927 2339 L
2929 2377 L
2932 2369 L
2934 2253 L
2936 2338 L
2938 2526 L
2940 2335 L
2942 2397 L
2944 2340 L
2946 2372 L
2948 2328 L
2950 2267 L
2952 2340 L
2954 2182 L
2956 2435 L
2958 2138 L
2960 2277 L
2962 2376 L
2964 2294 L
2966 2385 L
2968 2271 L
2970 2327 L
2971 2294 L
2973 2253 L
2975 2299 L
2977 2336 L
2979 2340 L
2980 2257 L
2982 2298 L
2984 2237 L
2986 2378 L
2987 2264 L
2989 2200 L
2991 2278 L
2993 2233 L
2994 2150 L
2996 2265 L
2998 2126 L
2999 2209 L
3001 2252 L
3003 2160 L
3004 2332 L
3006 2135 L
3007 2300 L
3009 2026 L
3011 2237 L
3012 2311 L
3014 2398 L
3015 2156 L
3017 2211 L
3018 2122 L
3020 2154 L
3021 2261 L
3023 2142 L
3024 2121 L
3026 2160 L
3027 2093 L
3029 2151 L
3030 2278 L
3032 2321 L
3033 2263 L
3035 2049 L
3036 2045 L
3038 2172 L
3039 2106 L
3040 2172 L
3042 2058 L
3043 2100 L
3045 2143 L
3046 2177 L
3047 2156 L
3049 2132 L
3050 2119 L
3051 2332 L
3053 1975 L
3054 2198 L
3055 2058 L
3057 2117 L
3058 2071 L
3059 2061 L
3061 2095 L
3062 2055 L
3063 1900 L
3065 1937 L
3066 2076 L
3067 1951 L
3068 2148 L
3070 2094 L
3071 1962 L
3072 1998 L
3073 1958 L
3075 2092 L
3076 2059 L
3077 2056 L
3078 2126 L
3079 2138 L
3081 2020 L
3082 2189 L
3083 2091 L
3084 2018 L
3085 2084 L
3087 2080 L
3088 2112 L
3089 1927 L
3090 2138 L
3091 1897 L
3092 2090 L
3094 2129 L
3095 2047 L
3096 2148 L
3097 1936 L
3098 2043 L
3099 2064 L
3100 1903 L
3101 2051 L
3103 2071 L
3104 1934 L
3105 2090 L
3106 2053 L
3107 1965 L
3108 1953 L
3109 2100 L
3110 2104 L
3111 1919 L
3112 1967 L
3113 1965 L
3114 2123 L
3115 2152 L
3116 1990 L
3117 2131 L
3119 1833 L
3120 2103 L
3121 2152 L
3122 2089 L
3123 2020 L
3124 2100 L
3125 2063 L
3126 1962 L
3127 1927 L
3128 1984 L
3129 1953 L
3130 2015 L
3131 1984 L
3132 1926 L
3133 2001 L
3134 2141 L
3135 2004 L
3136 1984 L
3136 2123 L
3137 2078 L
3138 1974 L
3139 2021 L
3140 2136 L
3141 1877 L
3142 1993 L
3143 1975 L
3144 2035 L
3145 1865 L
3146 2099 L
3147 2031 L
3148 2040 L
3149 2013 L
3150 2107 L
3151 1992 L
3151 1965 L
3152 2035 L
3153 1930 L
3154 2116 L
3155 1974 L
3156 2069 L
3157 1909 L
3158 1975 L
3159 2098 L
3160 1959 L
3160 2078 L
3161 1983 L
3162 1959 L
3163 1947 L
3164 2200 L
3165 2040 L
3166 1906 L
3166 1985 L
3167 2175 L
3168 2018 L
3169 2059 L
3170 2073 L
3171 2025 L
3172 1963 L
3172 2066 L
3173 2068 L
3174 2013 L
3175 2035 L
3176 1949 L
3177 2093 L
3177 1946 L
3178 2120 L
3179 2048 L
3180 2151 L
3181 2153 L
3181 2174 L
3182 2050 L
3183 2043 L
3184 1862 L
3185 1944 L
3185 2113 L
3186 1963 L
3187 2088 L
3188 1957 L
3189 2006 L
3189 1855 L
3190 2231 L
3191 1951 L
3192 1992 L
3193 2017 L
3193 2080 L
3194 2009 L
3195 1906 L
3196 2231 L
3196 1989 L
3197 2042 L
3198 2096 L
3199 1917 L
3199 1922 L
3200 2187 L
3201 2114 L
3202 2098 L
3202 2081 L
3203 1975 L
3204 2009 L
3205 2024 L
3205 2099 L
3206 2091 L
3207 2090 L
3208 1940 L
3208 2057 L
3209 2022 L
3210 2096 L
3210 1984 L
3211 2026 L
3212 1971 L
3213 2054 L
3213 1992 L
3214 1989 L
3215 1902 L
3215 2071 L
3216 2017 L
3217 1983 L
3218 2029 L
3218 2025 L
3219 2076 L
3220 1986 L
3220 2037 L
3221 1972 L
3222 1974 L
3222 2204 L
3223 1991 L
3224 2143 L
3224 1923 L
3225 2042 L
3226 1928 L
3227 2033 L
3227 2025 L
3228 1953 L
3229 1979 L
3229 2061 L
3230 2216 L
3231 2075 L
3231 1920 L
3232 2059 L
3233 2135 L
3233 2051 L
3234 1899 L
3235 2042 L
3235 2092 L
3236 2152 L
3236 2021 L
3237 2137 L
3238 2014 L
3238 2090 L
3239 2134 L
3240 2037 L
3240 2100 L
3241 2013 L
3242 1960 L
3242 2122 L
3243 1960 L
3244 1970 L
3244 2058 L
3245 2037 L
3245 1986 L
3246 2087 L
3247 2001 L
3247 2072 L
3248 2078 L
3249 2006 L
3249 2059 L
3250 2042 L
3250 2005 L
3251 2189 L
3252 2102 L
3252 1972 L
3253 2187 L
3253 2004 L
3254 2034 L
3255 2050 L
3255 1835 L
3256 2045 L
3257 2067 L
3257 2031 L
3258 2100 L
3258 2040 L
3259 2023 L
3259 2110 L
3260 2142 L
3261 2127 L
3261 2080 L
3262 2125 L
3262 2058 L
3263 2018 L
3264 2106 L
3264 2142 L
3265 2016 L
3265 2056 L
3266 2010 L
3267 2132 L
3267 2027 L
3268 2058 L
3268 2136 L
3269 2103 L
3269 2148 L
3270 2040 L
3271 1887 L
3271 2026 L
3272 2025 L
3272 2036 L
3273 2103 L
3273 2105 L
3274 2123 L
3275 2150 L
3275 2149 L
3276 2113 L
3276 1989 L
3277 1954 L
3277 2039 L
3278 2092 L
3278 1998 L
3279 2148 L
3280 2042 L
3280 2206 L
3281 2039 L
3281 2157 L
3282 2072 L
3282 2093 L
3283 2117 L
3283 2198 L
3284 2050 L
3284 2121 L
3285 2070 L
3285 2073 L
3286 2215 L
3287 2315 L
3287 2050 L
3288 2092 L
3288 2158 L
3289 2061 L
3289 2050 L
3290 2088 L
3290 2105 L
3291 1941 L
3291 2076 L
3292 2214 L
3292 2169 L
3293 1985 L
3293 2037 L
3294 2235 L
3294 2077 L
3295 2140 L
3295 2101 L
3296 2129 L
3297 2201 L
3297 1993 L
3298 2161 L
3298 2163 L
3299 2183 L
3299 2192 L
3300 2003 L
3300 2008 L
3301 2173 L
3301 2132 L
3302 2193 L
3302 2076 L
3303 2230 L
3303 2113 L
3304 2153 L
3304 2059 L
3305 2075 L
3305 2236 L
3306 2221 L
3306 2159 L
3307 2193 L
3307 2216 L
3308 2105 L
3308 2201 L
3309 2249 L
3309 2237 L
3310 2211 L
3310 2129 L
3311 2084 L
3311 2099 L
3312 2210 L
3312 2081 L
3312 2239 L
3313 2100 L
3313 2165 L
3314 2115 L
3314 2188 L
3315 2231 L
3315 2108 L
3316 2090 L
3316 2131 L
3317 2055 L
3317 2193 L
3318 2185 L
3318 2063 L
3319 2138 L
3319 2183 L
3320 2120 L
3320 2263 L
3321 2203 L
3321 2220 L
3321 2171 L
3322 2026 L
3322 2077 L
3323 2261 L
3323 2226 L
3324 2167 L
3324 2154 L
3325 2288 L
3325 2102 L
3326 2225 L
3326 2149 L
3327 2111 L
3327 2174 L
3327 2064 L
3328 2141 L
3328 2251 L
3329 2241 L
3329 2051 L
3330 2117 L
3330 2303 L
3331 2204 L
3331 2125 L
3332 2268 L
3332 2189 L
3332 2256 L
3333 2124 L
3333 2352 L
3334 2130 L
3334 2168 L
3335 2084 L
3335 2148 L
3336 2290 L
3336 2127 L
3336 2028 L
3337 2316 L
3337 2253 L
3338 2306 L
3338 2110 L
3339 2231 L
3339 2145 L
3339 2339 L
3340 2212 L
3340 2294 L
3341 2300 L
3341 2165 L
3342 2261 L
3342 2051 L
3343 2239 L
3343 2273 L
3343 2220 L
3344 2120 L
3344 2279 L
3345 2144 L
3345 2160 L
3346 2196 L
3346 2148 L
3346 2187 L
3347 2191 L
3347 2154 L
3348 2292 L
3348 2056 L
3348 2279 L
3349 2235 L
3349 2323 L
3350 2216 L
3350 2346 L
3351 2108 L
3351 2059 L
3351 2133 L
3352 2292 L
3352 2250 L
3353 2270 L
3353 2108 L
3353 2280 L
3354 2290 L
3354 2201 L
3355 2227 L
3355 2151 L
3355 2356 L
3356 2258 L
3356 2274 L
3357 2161 L
3357 2266 L
3358 2171 L
3358 2228 L
3358 2326 L
3359 2262 L
3359 2143 L
3360 2154 L
3360 2291 L
3360 2194 L
3361 2324 L
3361 2238 L
3362 2273 L
3362 2175 L
3362 2181 L
3363 2319 L
3363 2172 L
3364 2222 L
3364 2255 L
3364 2248 L
3365 2501 L
3365 2269 L
3365 2255 L
3366 2379 L
3366 2357 L
3367 2196 L
3367 2251 L
3367 2278 L
3368 2155 L
3368 2235 L
3369 2182 L
3369 2229 L
3369 2312 L
3370 2392 L
3370 2300 L
3371 2238 L
3371 2223 L
3371 2235 L
3372 2228 L
3372 2321 L
3372 2276 L
3373 2261 L
3373 2198 L
3374 2125 L
3374 2275 L
3374 2303 L
3375 2151 L
3375 2213 L
3375 2254 L
3376 2152 L
3376 2258 L
3377 2223 L
3377 2301 L
3377 2393 L
3378 2152 L
3378 2216 L
3378 2299 L
3379 2210 L
3379 2134 L
3380 2344 L
3380 2332 L
3380 2231 L
3381 2467 L
3381 2201 L
3381 2249 L
3382 2322 L
3382 2453 L
3383 2422 L
3383 2324 L
3383 2290 L
3384 2288 L
3384 2330 L
3384 2088 L
3385 2360 L
3385 2279 L
3385 2226 L
3386 2140 L
3386 2155 L
3387 2242 L
3387 2398 L
3387 2242 L
3388 2373 L
3388 2296 L
3388 2216 L
3389 2354 L
3389 2192 L
3389 2407 L
3390 2350 L
3390 2231 L
3391 2278 L
3391 2361 L
3391 2282 L
3392 2281 L
3392 2411 L
3392 2305 L
3393 2302 L
3393 2373 L
3393 2291 L
3394 2300 L
3394 2369 L
3394 2345 L
3395 2179 L
3395 2337 L
3395 2343 L
3396 2271 L
3396 2218 L
3396 2279 L
3397 2247 L
3397 2383 L
3398 2419 L
3398 2384 L
3398 2399 L
3399 2266 L
3399 2384 L
3399 2332 L
3400 2388 L
3400 2158 L
3400 2309 L
3401 2376 L
3401 2426 L
3401 2256 L
3402 2243 L
3402 2277 L
3402 2471 L
3403 2165 L
3403 2358 L
3403 2489 L
3404 2232 L
3404 2363 L
3404 2192 L
3405 2275 L
3405 2359 L
3405 2230 L
3406 2443 L
3406 2330 L
3406 2366 L
3407 2295 L
3407 2316 L
3407 2375 L
3408 2332 L
3408 2362 L
3408 2298 L
3409 2246 L
3409 2389 L
3409 2401 L
3410 2369 L
3410 2347 L
3410 2333 L
3411 2212 L
3411 2328 L
3411 2458 L
3412 2312 L
3412 2394 L
3412 2303 L
3413 2328 L
3413 2495 L
3413 2193 L
3414 2237 L
3414 2425 L
3414 2455 L
3415 2294 L
3415 2460 L
3415 2330 L
3416 2195 L
3416 2359 L
3416 2406 L
3417 2254 L
3417 2319 L
3417 2325 L
3417 2333 L
3418 2329 L
3418 2312 L
3418 2298 L
3419 2343 L
3419 2431 L
3419 2350 L
3420 2479 L
3420 2383 L
3420 2314 L
3421 2389 L
3421 2350 L
3421 2350 L
3422 2338 L
3422 2451 L
3422 2445 L
3423 2302 L
3423 2347 L
3423 2269 L
3423 2346 L
3424 2226 L
3424 2284 L
3424 2558 L
3425 2488 L
3425 2397 L
3425 2500 L
3426 2383 L
3426 2283 L
3426 2413 L
3427 2378 L
3427 2300 L
3427 2503 L
3428 2400 L
3428 2497 L
3428 2384 L
3428 2357 L
3429 2323 L
3429 2418 L
3429 2357 L
3430 2356 L
3430 2221 L
3430 2439 L
3431 2274 L
3431 2367 L
3431 2375 L
3431 2455 L
3432 2335 L
3432 2262 L
3432 2454 L
3433 2482 L
3433 2400 L
3433 2304 L
3434 2383 L
3434 2308 L
3434 2307 L
3434 2452 L
3435 2432 L
3435 2397 L
3435 2321 L
3436 2373 L
3436 2429 L
3436 2420 L
3437 2417 L
3437 2434 L
3437 2310 L
3437 2312 L
3438 2370 L
3438 2516 L
3438 2566 L
3439 2310 L
3439 2563 L
3439 2431 L
3440 2302 L
3440 2423 L
3440 2404 L
3440 2506 L
3441 2585 L
3441 2414 L
3441 2436 L
3442 2317 L
3442 2399 L
3442 2387 L
3442 2355 L
3443 2459 L
3443 2425 L
3443 2445 L
3444 2458 L
3444 2442 L
3444 2330 L
3444 2377 L
3445 2480 L
3445 2403 L
3445 2420 L
3446 2455 L
3446 2454 L
3446 2354 L
3446 2452 L
3447 2477 L
3447 2245 L
3447 2431 L
3448 2448 L
3448 2364 L
3448 2455 L
3448 2539 L
3449 2528 L
3449 2290 L
3449 2324 L
3450 2378 L
3450 2388 L
3450 2510 L
3450 2431 L
3451 2391 L
3451 2382 L
3451 2560 L
3452 2452 L
3452 2322 L
3452 2424 L
3452 2491 L
3453 2524 L
3453 2468 L
3453 2564 L
3454 2356 L
3454 2361 L
3454 2401 L
3454 2381 L
3455 2387 L
3455 2314 L
3455 2496 L
3455 2361 L
3456 2406 L
3456 2522 L
3456 2330 L
3457 2434 L
3457 2321 L
3457 2320 L
3457 2350 L
3458 2455 L
3458 2477 L
3458 2421 L
3458 2470 L
3459 2435 L
3459 2433 L
3459 2541 L
3460 2381 L
3460 2430 L
3460 2488 L
3460 2267 L
3461 2349 L
3461 2427 L
3461 2354 L
3461 2558 L
3462 2467 L
3462 2372 L
3462 2513 L
3463 2472 L
3463 2378 L
3463 2417 L
3463 2406 L
3464 2460 L
3464 2441 L
3464 2432 L
3464 2368 L
3465 2390 L
3465 2423 L
3465 2495 L
3465 2517 L
3466 2415 L
3466 2484 L
3466 2495 L
3466 2343 L
3467 2315 L
3467 2539 L
3467 2558 L
3468 2323 L
3468 2360 L
3468 2567 L
3468 2485 L
3469 2494 L
3469 2350 L
3469 2625 L
3469 2527 L
3470 2417 L
3470 2523 L
3470 2462 L
3470 2601 L
3471 2534 L
3471 2468 L
3471 2518 L
3471 2411 L
3472 2367 L
3472 2479 L
3472 2329 L
3472 2466 L
3473 2371 L
3473 2477 L
3473 2442 L
3474 2382 L
3474 2581 L
3474 2588 L
3474 2551 L
3475 2448 L
3475 2467 L
3475 2413 L
3475 2465 L
3476 2469 L
3476 2307 L
3476 2486 L
3476 2273 L
3477 2399 L
3477 2460 L
3477 2322 L
3477 2485 L
3478 2342 L
3478 2499 L
3478 2501 L
3478 2451 L
3479 2426 L
3479 2527 L
3479 2426 L
3479 2458 L
3480 2452 L
3480 2455 L
3480 2486 L
3480 2498 L
3481 2604 L
3481 2504 L
3481 2426 L
3481 2303 L
3482 2424 L
3482 2372 L
3482 2650 L
3482 2384 L
3483 2541 L
3483 2405 L
3483 2468 L
3483 2388 L
3484 2440 L
3484 2568 L
3484 2516 L
3484 2488 L
3485 2520 L
3485 2470 L
3485 2543 L
3485 2325 L
3486 2428 L
3486 2499 L
3486 2423 L
3486 2554 L
3487 2614 L
3487 2502 L
3487 2275 L
3487 2516 L
3488 2514 L
3488 2605 L
3488 2514 L
3488 2413 L
3488 2466 L
3489 2721 L
3489 2375 L
3489 2517 L
3489 2356 L
3490 2576 L
3490 2314 L
3490 2476 L
3490 2474 L
3491 2475 L
3491 2390 L
3491 2506 L
3491 2260 L
3492 2557 L
3492 2474 L
3492 2567 L
3492 2464 L
3493 2486 L
3493 2520 L
3493 2565 L
3493 2501 L
3494 2603 L
3494 2371 L
3494 2423 L
3494 2398 L
3494 2543 L
3495 2475 L
3495 2472 L
3495 2434 L
3495 2491 L
3496 2411 L
3496 2343 L
3496 2415 L
3496 2552 L
3497 2435 L
3497 2415 L
3497 2529 L
3497 2424 L
3498 2522 L
3498 2308 L
3498 2596 L
3498 2362 L
3498 2525 L
3499 2538 L
3499 2570 L
3499 2423 L
3499 2653 L
3500 2474 L
3500 2453 L
3506 2565 L
3511 2551 L
3517 2645 L
3522 2551 L
3527 2679 L
3532 2633 L
3537 2635 L
3542 2524 L
3547 2662 L
3552 2531 L
3557 2575 L
3561 2633 L
3566 2544 L
3570 2646 L
3575 2579 L
3579 2605 L
3583 2619 L
3587 2605 L
3591 2748 L
3595 2752 L
3599 2526 L
3603 2686 L
3607 2744 L
3611 2614 L
3614 2637 L
3618 2670 L
3622 2613 L
3625 2665 L
3629 2666 L
3632 2764 L
3636 2611 L
3639 2562 L
3642 2701 L
3646 2556 L
3649 2763 L
3652 2634 L
3655 2726 L
3658 2756 L
3661 2736 L
3664 2835 L
3667 2708 L
3670 2814 L
3673 2713 L
3676 2704 L
3679 2640 L
3682 2626 L
3685 2644 L
3688 2529 L
3690 2684 L
3693 2796 L
3696 2807 L
3698 2610 L
3701 2797 L
3704 2746 L
3706 2761 L
3709 2681 L
3711 2617 L
3714 2814 L
3716 2580 L
3719 2806 L
3721 2758 L
3724 2789 L
3726 2782 L
3728 2625 L
3731 2670 L
3733 2801 L
3735 2690 L
3738 2767 L
3740 2804 L
3742 2715 L
3744 2827 L
3747 2753 L
3749 2776 L
3751 2692 L
3753 2631 L
3755 2497 L
3757 2716 L
3760 2749 L
3762 2728 L
3764 2681 L
3766 2557 L
3768 2624 L
3770 2647 L
3772 2857 L
3774 2869 L
3776 2620 L
3778 2641 L
3780 2724 L
3781 2767 L
3783 2740 L
3785 2770 L
3787 2748 L
3789 2707 L
3791 2758 L
3793 2807 L
3795 2760 L
3796 2665 L
3798 2526 L
3800 2753 L
3802 2698 L
3803 2670 L
3805 2644 L
3807 2787 L
3809 2738 L
3810 2631 L
3812 2507 L
3814 2814 L
3816 2462 L
3817 2836 L
3819 2644 L
3820 2681 L
3822 2630 L
3824 2767 L
3825 2668 L
3827 2581 L
3829 2722 L
3830 2739 L
3832 2709 L
3833 2791 L
3835 2696 L
3836 2776 L
3838 2812 L
3839 2650 L
3841 2680 L
3842 2744 L
3844 2668 L
3845 2907 L
3847 2729 L
3848 2705 L
3850 2802 L
3851 2810 L
3853 2827 L
3854 2643 L
3856 2740 L
3857 2640 L
3859 2794 L
3860 2776 L
3861 2767 L
3863 2784 L
3864 2708 L
3866 2815 L
3867 2625 L
3868 2837 L
3870 2773 L
3871 2941 L
3872 2779 L
3874 2691 L
3875 2718 L
3876 2716 L
3878 2659 L
3879 2608 L
3880 2779 L
3882 2830 L
3883 2764 L
3884 2732 L
3885 2779 L
3887 2747 L
3888 2676 L
3889 2664 L
3890 2668 L
3892 2651 L
3893 2741 L
3894 2531 L
3895 2673 L
3897 2869 L
3898 2772 L
3899 2690 L
3900 2639 L
3901 2753 L
3903 2571 L
3904 2856 L
3905 2912 L
3906 2701 L
3907 2694 L
3908 2793 L
3910 2702 L
3911 2735 L
3912 2635 L
3913 2786 L
3914 2748 L
3915 2850 L
3917 2795 L
3918 2772 L
3919 2858 L
3920 2852 L
3921 2831 L
3922 2692 L
3923 2637 L
3924 2904 L
3925 2712 L
3926 2655 L
3928 2702 L
3929 2840 L
3930 2864 L
3931 2703 L
3932 2776 L
3933 2782 L
3934 2748 L
3935 2591 L
3936 2716 L
3937 2834 L
3938 2727 L
3939 2746 L
3940 2848 L
3941 2679 L
3942 2684 L
3943 2773 L
3944 2880 L
3945 2557 L
3946 2872 L
3947 2683 L
3948 2632 L
3949 2765 L
3950 2735 L
3951 2804 L
3952 2661 L
3953 2651 L
3954 2648 L
3955 2833 L
3956 2667 L
3957 2819 L
3958 2633 L
3959 2740 L
3960 2698 L
3961 2620 L
3962 2738 L
3963 2650 L
3964 2790 L
3965 2607 L
3966 2633 L
3966 2618 L
3967 2707 L
3968 2736 L
3969 2550 L
3970 2687 L
3971 2692 L
3972 2801 L
3973 2759 L
3974 2655 L
3975 2861 L
3976 2707 L
3976 2639 L
3977 2554 L
3978 2767 L
3979 2676 L
3980 2597 L
3981 2628 L
3982 2850 L
3983 2665 L
3983 2708 L
3984 2732 L
3985 2756 L
3986 2789 L
3987 2756 L
3988 2699 L
3989 2660 L
3989 2711 L
3990 2758 L
3991 2664 L
3992 2830 L
3993 2793 L
3994 2676 L
3995 2819 L
3995 2839 L
3996 2773 L
3997 2654 L
3998 2664 L
3999 2664 L
3999 2804 L
4000 2640 L
4001 2745 L
4002 2816 L
4003 2763 L
4003 2751 L
4004 2766 L
4005 2640 L
4006 2677 L
4007 2843 L
4007 2716 L
4008 2676 L
4009 2664 L
4010 2756 L
4011 2728 L
4011 2776 L
4012 2747 L
4013 2764 L
4014 2771 L
4014 2632 L
4015 2731 L
4016 2656 L
4017 2814 L
4017 2756 L
4018 2855 L
4019 2810 L
4020 2742 L
4021 2699 L
4021 2752 L
4022 2792 L
4023 2694 L
4023 2761 L
4024 2678 L
4025 2644 L
4026 2659 L
4026 2806 L
4027 2722 L
4028 2574 L
4029 2767 L
4029 2871 L
4030 2813 L
4031 2665 L
4032 2801 L
4032 2613 L
4033 2651 L
4034 2810 L
4034 2856 L
4035 2730 L
4036 2802 L
4036 2585 L
4037 2763 L
4038 2660 L
4039 2573 L
4039 2610 L
4040 2656 L
4041 2735 L
4041 2838 L
4042 2626 L
4043 2680 L
4043 2576 L
4044 2614 L
4045 2686 L
4045 2710 L
4046 2670 L
4047 2812 L
4047 2642 L
4048 2707 L
4049 2598 L
4050 2601 L
4050 2778 L
4051 2930 L
4052 2755 L
4052 2727 L
4053 2570 L
4053 2576 L
4054 2730 L
4055 2460 L
4055 2773 L
4056 2695 L
4057 2710 L
4057 2696 L
4058 2629 L
4059 2656 L
4059 2698 L
4060 2538 L
4061 2597 L
4061 2694 L
4062 2871 L
L2 C05 COSGR

%
%================
% Legend - Begin
%================
%
GSN 4240 5180 M
4480 5180 L
LWMC SL  C05 COSGR
GSN 4540 5141 M helvM (2.5 uM) show grestore
%
%================
% Legend - End
%================
%

%
% Residuals:
%
GSN 777 761 M
1388 1414 L
1552 1473 L
1652 1507 L
1723 1569 L
1778 1541 L
1824 1506 L
1863 1476 L
1896 1532 L
1926 1508 L
1952 1489 L
1976 1480 L
1998 1502 L
2019 1501 L
2037 1486 L
2055 1546 L
2071 1496 L
2086 1485 L
2101 1510 L
2115 1523 L
2128 1529 L
2140 1492 L
2152 1480 L
2163 1524 L
2174 1523 L
2184 1473 L
2194 1473 L
2204 1488 L
2213 1453 L
2222 1447 L
2230 1459 L
2239 1441 L
2247 1448 L
2255 1503 L
2262 1435 L
2270 1446 L
2277 1455 L
2284 1472 L
2290 1460 L
2297 1449 L
2303 1449 L
2310 1441 L
2316 1445 L
2322 1412 L
2328 1388 L
2333 1432 L
2339 1449 L
2344 1430 L
2350 1408 L
2355 1357 L
2360 1385 L
2365 1400 L
2370 1387 L
2375 1404 L
2380 1418 L
2384 1423 L
2389 1387 L
2393 1367 L
2398 1381 L
2402 1359 L
2407 1357 L
2411 1351 L
2415 1358 L
2419 1364 L
2423 1367 L
2427 1357 L
2431 1359 L
2435 1309 L
2438 1342 L
2442 1325 L
2446 1423 L
2449 1377 L
2453 1327 L
2456 1319 L
2460 1364 L
2463 1354 L
2467 1357 L
2470 1349 L
2473 1354 L
2476 1330 L
2480 1357 L
2483 1353 L
2486 1349 L
2489 1281 L
2492 1411 L
2495 1307 L
2498 1349 L
2501 1293 L
2504 1307 L
2507 1345 L
2510 1312 L
2512 1286 L
2515 1330 L
2518 1363 L
2521 1264 L
2523 1310 L
2526 1307 L
2529 1307 L
2531 1292 L
2534 1331 L
2536 1303 L
2539 1287 L
2541 1273 L
2544 1281 L
2546 1277 L
2549 1270 L
2551 1310 L
2554 1268 L
2556 1263 L
2558 1230 L
2561 1242 L
2563 1332 L
2565 1273 L
2568 1205 L
2570 1309 L
2572 1251 L
2574 1254 L
2576 1332 L
2579 1270 L
2581 1283 L
2583 1302 L
2585 1285 L
2587 1272 L
2589 1301 L
2591 1266 L
2593 1249 L
2595 1236 L
2597 1228 L
2599 1206 L
2601 1239 L
2603 1263 L
2605 1249 L
2607 1204 L
2609 1281 L
2611 1242 L
2613 1236 L
2615 1276 L
2617 1296 L
2618 1256 L
2620 1270 L
2622 1252 L
2624 1216 L
2626 1216 L
2627 1248 L
2629 1291 L
2631 1244 L
2633 1219 L
2634 1237 L
2636 1179 L
2638 1245 L
2640 1242 L
2641 1214 L
2643 1207 L
2645 1206 L
2646 1211 L
2648 1214 L
2650 1221 L
2651 1228 L
2653 1245 L
2654 1207 L
2656 1187 L
2658 1235 L
2659 1223 L
2661 1193 L
2662 1195 L
2664 1157 L
2665 1220 L
2667 1174 L
2668 1154 L
2670 1176 L
2671 1183 L
2673 1197 L
2674 1164 L
2676 1177 L
2677 1163 L
2679 1177 L
2680 1138 L
2682 1152 L
2683 1214 L
2685 1158 L
2686 1151 L
2687 1190 L
2689 1203 L
2690 1165 L
2692 1136 L
2693 1185 L
2694 1182 L
2696 1146 L
2697 1160 L
2698 1162 L
2700 1208 L
2701 1158 L
2702 1165 L
2704 1145 L
2705 1093 L
2706 1182 L
2708 1177 L
2709 1172 L
2710 1106 L
2712 1151 L
2713 1170 L
2714 1161 L
2715 1153 L
2717 1145 L
2718 1138 L
2719 1137 L
2720 1144 L
2722 1186 L
2723 1170 L
2724 1140 L
2725 1171 L
2726 1171 L
2728 1126 L
2729 1167 L
2730 1137 L
2731 1105 L
2732 1133 L
2734 1186 L
2735 1148 L
2736 1141 L
2737 1112 L
2738 1136 L
2739 1179 L
2741 1131 L
2742 1157 L
2743 1126 L
2744 1157 L
2745 1111 L
2746 1055 L
2747 1123 L
2748 1135 L
2749 1174 L
2751 1142 L
2752 1096 L
2753 1164 L
2754 1118 L
2755 1161 L
2756 1112 L
2757 1100 L
2758 1089 L
2759 1118 L
2760 1171 L
2761 1110 L
2762 1091 L
2763 1142 L
2764 1114 L
2765 1064 L
2767 1087 L
2768 1099 L
2769 1093 L
2770 1080 L
2771 1092 L
2772 1094 L
2773 1096 L
2774 1072 L
2775 1083 L
2776 1127 L
2777 1085 L
2778 1109 L
2779 1077 L
2780 1083 L
2781 1042 L
2782 1093 L
2783 1112 L
2783 1109 L
2784 1059 L
2785 1092 L
2786 1067 L
2787 1153 L
2788 1094 L
2789 1006 L
2790 1097 L
2791 1096 L
2792 1040 L
2793 1024 L
2794 1105 L
2795 1073 L
2796 1091 L
2797 1110 L
2798 1054 L
2798 1056 L
2799 1074 L
2800 1116 L
2801 1091 L
2802 1078 L
2803 1063 L
2804 1064 L
2805 1021 L
2806 1102 L
2807 1102 L
2807 1046 L
2808 1062 L
2809 1081 L
2810 1034 L
2811 1101 L
2812 1099 L
2813 998 L
2813 1079 L
2814 1101 L
2815 1085 L
2816 1049 L
2817 1056 L
2818 1058 L
2819 1063 L
2819 1060 L
2820 1023 L
2821 1078 L
2822 1059 L
2823 1060 L
2824 1036 L
2824 1121 L
2825 1029 L
2826 1072 L
2827 1059 L
2828 1055 L
2828 1010 L
2829 1069 L
2830 1035 L
2831 1060 L
2832 1024 L
2832 1060 L
2833 1072 L
2834 1056 L
2835 1084 L
2836 1042 L
2836 1047 L
2837 1016 L
2838 1041 L
2839 1072 L
2840 1023 L
2840 1016 L
2841 1008 L
2842 1037 L
2843 1033 L
2843 1040 L
2844 1029 L
2845 1055 L
2846 992 L
2846 1016 L
2847 1046 L
2848 1018 L
2849 1046 L
2849 1046 L
2850 1019 L
2851 1020 L
2852 1060 L
2852 1012 L
2853 979 L
2854 1060 L
2855 993 L
2855 1026 L
2856 1067 L
2857 1014 L
2857 1013 L
2858 1017 L
2859 980 L
2860 992 L
2860 1030 L
2861 1048 L
2862 1033 L
2862 1046 L
2863 1056 L
2864 1008 L
2865 1003 L
2865 1008 L
2866 1078 L
2867 965 L
2867 943 L
2868 1024 L
2869 979 L
2869 1019 L
2870 1004 L
2871 979 L
2871 1016 L
2872 1014 L
2873 1010 L
2873 998 L
2874 1037 L
2875 1004 L
2876 1006 L
2876 1031 L
2877 946 L
2878 982 L
2878 1004 L
2879 1002 L
2880 971 L
2880 968 L
2881 1006 L
2881 1003 L
2882 985 L
2883 1002 L
2883 980 L
2884 1004 L
2885 992 L
2885 980 L
2886 1006 L
2887 997 L
2887 951 L
2888 994 L
2889 1028 L
2889 997 L
2892 1018 L
2894 932 L
2897 990 L
2899 957 L
2902 952 L
2904 974 L
2907 975 L
2909 963 L
2911 931 L
2914 962 L
2916 958 L
2918 943 L
2921 952 L
2923 972 L
2925 1006 L
2927 924 L
2929 937 L
2932 935 L
2934 895 L
2936 924 L
2938 988 L
2940 923 L
2942 944 L
2944 925 L
2946 935 L
2948 921 L
2950 900 L
2952 924 L
2954 870 L
2956 957 L
2958 855 L
2960 903 L
2962 937 L
2964 909 L
2966 940 L
2968 901 L
2970 920 L
2971 909 L
2973 895 L
2975 911 L
2977 923 L
2979 925 L
2980 896 L
2982 910 L
2984 889 L
2986 938 L
2987 899 L
2989 877 L
2991 903 L
2993 888 L
2994 859 L
2996 899 L
2998 851 L
2999 880 L
3001 894 L
3003 863 L
3004 922 L
3006 854 L
3007 911 L
3009 817 L
3011 889 L
3012 915 L
3014 945 L
3015 861 L
3017 880 L
3018 850 L
3020 861 L
3021 897 L
3023 857 L
3024 849 L
3026 863 L
3027 840 L
3029 860 L
3030 903 L
3032 918 L
3033 898 L
3035 825 L
3036 823 L
3038 867 L
3039 844 L
3040 867 L
3042 828 L
3043 842 L
3045 857 L
3046 869 L
3047 861 L
3049 853 L
3050 849 L
3051 922 L
3053 799 L
3054 876 L
3055 828 L
3057 848 L
3058 832 L
3059 829 L
3061 841 L
3062 827 L
3063 774 L
3065 786 L
3066 834 L
3067 791 L
3068 859 L
3070 840 L
3071 795 L
3072 807 L
3073 793 L
3075 839 L
3076 828 L
3077 827 L
3078 851 L
3079 855 L
3081 815 L
3082 873 L
3083 839 L
3084 814 L
3085 837 L
3087 835 L
3088 846 L
3089 783 L
3090 855 L
3091 772 L
3092 839 L
3094 852 L
3095 824 L
3096 859 L
3097 786 L
3098 823 L
3099 830 L
3100 774 L
3101 825 L
3103 832 L
3104 785 L
3105 839 L
3106 826 L
3107 796 L
3108 792 L
3109 842 L
3110 844 L
3111 780 L
3112 796 L
3113 796 L
3114 850 L
3115 860 L
3116 804 L
3117 853 L
3119 750 L
3120 843 L
3121 860 L
3122 838 L
3123 815 L
3124 842 L
3125 829 L
3126 795 L
3127 783 L
3128 802 L
3129 792 L
3130 813 L
3131 802 L
3132 782 L
3133 808 L
3134 856 L
3135 809 L
3136 802 L
3136 850 L
3137 835 L
3138 799 L
3139 815 L
3140 854 L
3141 765 L
3142 806 L
3143 799 L
3144 820 L
3145 762 L
3146 842 L
3147 819 L
3148 821 L
3149 812 L
3150 844 L
3151 805 L
3151 796 L
3152 820 L
3153 784 L
3154 848 L
3155 799 L
3156 831 L
3157 776 L
3158 799 L
3159 841 L
3160 794 L
3160 835 L
3161 802 L
3162 794 L
3163 790 L
3164 876 L
3165 822 L
3166 775 L
3166 803 L
3167 868 L
3168 814 L
3169 828 L
3170 833 L
3171 816 L
3172 795 L
3172 830 L
3173 831 L
3174 812 L
3175 820 L
3176 790 L
3177 840 L
3177 789 L
3178 849 L
3179 824 L
3180 860 L
3181 860 L
3181 868 L
3182 825 L
3183 823 L
3184 761 L
3185 789 L
3185 847 L
3186 795 L
3187 838 L
3188 793 L
3189 810 L
3189 758 L
3190 887 L
3191 791 L
3192 805 L
3193 814 L
3193 835 L
3194 811 L
3195 776 L
3196 887 L
3196 804 L
3197 822 L
3198 841 L
3199 779 L
3199 781 L
3200 872 L
3201 847 L
3202 842 L
3202 836 L
3203 799 L
3204 811 L
3205 816 L
3205 842 L
3206 839 L
3207 839 L
3208 787 L
3208 827 L
3209 815 L
3210 841 L
3210 802 L
3211 817 L
3212 798 L
3213 826 L
3213 805 L
3214 804 L
3215 774 L
3215 832 L
3216 814 L
3217 802 L
3218 818 L
3218 816 L
3219 834 L
3220 803 L
3220 820 L
3221 798 L
3222 799 L
3222 878 L
3223 805 L
3224 857 L
3224 781 L
3225 822 L
3226 783 L
3227 819 L
3227 817 L
3228 792 L
3229 801 L
3229 829 L
3230 882 L
3231 833 L
3231 780 L
3232 828 L
3233 854 L
3233 825 L
3234 773 L
3235 822 L
3235 840 L
3236 860 L
3236 815 L
3237 855 L
3238 813 L
3238 839 L
3239 854 L
3240 820 L
3240 842 L
3241 812 L
3242 794 L
3242 850 L
3243 794 L
3244 797 L
3244 828 L
3245 820 L
3245 803 L
3246 838 L
3247 808 L
3247 832 L
3248 835 L
3249 810 L
3249 828 L
3250 822 L
3250 809 L
3251 873 L
3252 843 L
3252 798 L
3253 872 L
3253 809 L
3254 820 L
3255 825 L
3255 751 L
3256 823 L
3257 831 L
3257 819 L
3258 842 L
3258 822 L
3259 816 L
3259 846 L
3260 857 L
3261 851 L
3261 835 L
3262 851 L
3262 828 L
3263 814 L
3264 844 L
3264 857 L
3265 813 L
3265 827 L
3266 811 L
3267 853 L
3267 817 L
3268 828 L
3268 854 L
3269 843 L
3269 859 L
3270 821 L
3271 769 L
3271 817 L
3272 816 L
3272 820 L
3273 843 L
3273 844 L
3274 850 L
3275 859 L
3275 859 L
3276 847 L
3276 804 L
3277 792 L
3277 821 L
3278 839 L
3278 807 L
3279 859 L
3280 822 L
3280 879 L
3281 821 L
3281 862 L
3282 833 L
3282 840 L
3283 848 L
3283 876 L
3284 825 L
3284 849 L
3285 832 L
3285 833 L
3286 882 L
3287 916 L
3287 825 L
3288 839 L
3288 862 L
3289 829 L
3289 825 L
3290 838 L
3290 844 L
3291 788 L
3291 834 L
3292 881 L
3292 866 L
3293 803 L
3293 820 L
3294 888 L
3294 834 L
3295 856 L
3295 843 L
3296 852 L
3297 877 L
3297 805 L
3298 863 L
3298 864 L
3299 871 L
3299 874 L
3300 809 L
3300 810 L
3301 867 L
3301 853 L
3302 874 L
3302 834 L
3303 887 L
3303 847 L
3304 860 L
3304 828 L
3305 833 L
3305 889 L
3306 884 L
3306 862 L
3307 874 L
3307 882 L
3308 844 L
3308 877 L
3309 893 L
3309 889 L
3310 880 L
3310 852 L
3311 837 L
3311 842 L
3312 880 L
3312 836 L
3312 890 L
3313 842 L
3313 865 L
3314 847 L
3314 872 L
3315 887 L
3315 845 L
3316 839 L
3316 853 L
3317 827 L
3317 874 L
3318 871 L
3318 830 L
3319 855 L
3319 871 L
3320 849 L
3320 898 L
3321 878 L
3321 883 L
3321 866 L
3322 817 L
3322 834 L
3323 898 L
3323 885 L
3324 865 L
3324 861 L
3325 907 L
3325 843 L
3326 885 L
3326 859 L
3327 846 L
3327 867 L
3327 830 L
3328 856 L
3328 894 L
3329 890 L
3329 825 L
3330 848 L
3330 912 L
3331 878 L
3331 851 L
3332 900 L
3332 873 L
3332 896 L
3333 850 L
3333 929 L
3334 852 L
3334 865 L
3335 837 L
3335 859 L
3336 907 L
3336 852 L
3336 818 L
3337 916 L
3337 895 L
3338 913 L
3338 846 L
3339 887 L
3339 858 L
3339 924 L
3340 881 L
3340 909 L
3341 911 L
3341 865 L
3342 898 L
3342 825 L
3343 890 L
3343 901 L
3343 883 L
3344 849 L
3344 904 L
3345 857 L
3345 863 L
3346 875 L
3346 859 L
3346 872 L
3347 873 L
3347 861 L
3348 908 L
3348 827 L
3348 904 L
3349 888 L
3349 919 L
3350 882 L
3350 927 L
3351 845 L
3351 828 L
3351 853 L
3352 908 L
3352 894 L
3353 900 L
3353 845 L
3353 904 L
3354 908 L
3354 877 L
3355 886 L
3355 860 L
3355 930 L
3356 896 L
3356 902 L
3357 863 L
3357 899 L
3358 866 L
3358 886 L
3358 920 L
3359 898 L
3359 857 L
3360 861 L
3360 908 L
3360 875 L
3361 919 L
3361 890 L
3362 902 L
3362 868 L
3362 870 L
3363 917 L
3363 867 L
3364 884 L
3364 895 L
3364 893 L
3365 980 L
3365 900 L
3365 895 L
3366 938 L
3366 930 L
3367 875 L
3367 894 L
3367 903 L
3368 861 L
3368 889 L
3369 870 L
3369 887 L
3369 915 L
3370 943 L
3370 911 L
3371 890 L
3371 884 L
3371 889 L
3372 886 L
3372 918 L
3372 903 L
3373 898 L
3373 876 L
3374 851 L
3374 902 L
3374 912 L
3375 860 L
3375 881 L
3375 895 L
3376 860 L
3376 897 L
3377 884 L
3377 911 L
3377 943 L
3378 860 L
3378 882 L
3378 910 L
3379 880 L
3379 854 L
3380 926 L
3380 922 L
3380 887 L
3381 968 L
3381 877 L
3381 893 L
3382 918 L
3382 963 L
3383 953 L
3383 919 L
3383 907 L
3384 907 L
3384 921 L
3384 838 L
3385 932 L
3385 904 L
3385 885 L
3386 856 L
3386 861 L
3387 891 L
3387 945 L
3387 891 L
3388 936 L
3388 909 L
3388 882 L
3389 929 L
3389 874 L
3389 948 L
3390 928 L
3390 887 L
3391 903 L
3391 932 L
3391 905 L
3392 904 L
3392 949 L
3392 913 L
3393 912 L
3393 936 L
3393 908 L
3394 911 L
3394 935 L
3394 926 L
3395 869 L
3395 923 L
3395 926 L
3396 901 L
3396 883 L
3396 904 L
3397 893 L
3397 939 L
3398 952 L
3398 940 L
3398 945 L
3399 899 L
3399 940 L
3399 922 L
3400 941 L
3400 862 L
3400 914 L
3401 937 L
3401 954 L
3401 896 L
3402 891 L
3402 903 L
3402 970 L
3403 864 L
3403 931 L
3403 976 L
3404 887 L
3404 932 L
3404 874 L
3405 902 L
3405 931 L
3405 887 L
3406 960 L
3406 921 L
3406 934 L
3407 909 L
3407 916 L
3407 937 L
3408 922 L
3408 932 L
3408 910 L
3409 892 L
3409 941 L
3409 946 L
3410 934 L
3410 927 L
3410 922 L
3411 881 L
3411 921 L
3411 965 L
3412 915 L
3412 943 L
3412 912 L
3413 921 L
3413 978 L
3413 874 L
3414 889 L
3414 954 L
3414 964 L
3415 909 L
3415 966 L
3415 921 L
3416 875 L
3416 931 L
3416 947 L
3417 895 L
3417 917 L
3417 920 L
3417 922 L
3418 921 L
3418 915 L
3418 910 L
3419 926 L
3419 956 L
3419 928 L
3420 972 L
3420 939 L
3420 916 L
3421 942 L
3421 928 L
3421 928 L
3422 924 L
3422 963 L
3422 961 L
3423 912 L
3423 927 L
3423 900 L
3423 927 L
3424 886 L
3424 905 L
3424 999 L
3425 975 L
3425 944 L
3425 979 L
3426 939 L
3426 905 L
3426 950 L
3427 938 L
3427 911 L
3427 980 L
3428 945 L
3428 979 L
3428 940 L
3428 931 L
3429 919 L
3429 951 L
3429 931 L
3430 930 L
3430 884 L
3430 958 L
3431 902 L
3431 934 L
3431 937 L
3431 964 L
3432 923 L
3432 898 L
3432 964 L
3433 973 L
3433 945 L
3433 912 L
3434 939 L
3434 914 L
3434 913 L
3434 963 L
3435 956 L
3435 944 L
3435 918 L
3436 936 L
3436 955 L
3436 952 L
3437 951 L
3437 957 L
3437 914 L
3437 915 L
3438 935 L
3438 985 L
3438 1002 L
3439 914 L
3439 1001 L
3439 956 L
3440 912 L
3440 953 L
3440 947 L
3440 982 L
3441 1009 L
3441 950 L
3441 957 L
3442 917 L
3442 945 L
3442 941 L
3442 930 L
3443 965 L
3443 954 L
3443 961 L
3444 965 L
3444 960 L
3444 921 L
3444 937 L
3445 973 L
3445 946 L
3445 952 L
3446 964 L
3446 964 L
3446 929 L
3446 963 L
3447 972 L
3447 892 L
3447 956 L
3448 962 L
3448 933 L
3448 964 L
3448 993 L
3449 989 L
3449 907 L
3449 919 L
3450 938 L
3450 941 L
3450 983 L
3450 956 L
3451 942 L
3451 939 L
3451 1000 L
3452 963 L
3452 918 L
3452 954 L
3452 977 L
3453 988 L
3453 969 L
3453 1001 L
3454 930 L
3454 932 L
3454 945 L
3454 939 L
3455 941 L
3455 916 L
3455 978 L
3455 932 L
3456 947 L
3456 987 L
3456 921 L
3457 957 L
3457 918 L
3457 918 L
3457 928 L
3458 964 L
3458 972 L
3458 952 L
3458 969 L
3459 957 L
3459 956 L
3459 994 L
3460 939 L
3460 955 L
3460 976 L
3460 900 L
3461 928 L
3461 955 L
3461 929 L
3461 999 L
3462 968 L
3462 936 L
3462 984 L
3463 970 L
3463 938 L
3463 951 L
3463 947 L
3464 966 L
3464 959 L
3464 956 L
3464 934 L
3465 942 L
3465 953 L
3465 978 L
3465 985 L
3466 950 L
3466 974 L
3466 978 L
3466 926 L
3467 916 L
3467 993 L
3467 999 L
3468 919 L
3468 931 L
3468 1002 L
3468 974 L
3469 978 L
3469 928 L
3469 1022 L
3469 989 L
3470 951 L
3470 988 L
3470 966 L
3470 1014 L
3471 991 L
3471 968 L
3471 986 L
3471 949 L
3472 934 L
3472 972 L
3472 921 L
3472 968 L
3473 935 L
3473 972 L
3473 960 L
3474 939 L
3474 1007 L
3474 1010 L
3474 997 L
3475 962 L
3475 968 L
3475 950 L
3475 967 L
3476 969 L
3476 913 L
3476 975 L
3476 901 L
3477 945 L
3477 966 L
3477 918 L
3477 974 L
3478 925 L
3478 979 L
3478 980 L
3478 963 L
3479 954 L
3479 989 L
3479 954 L
3479 965 L
3480 963 L
3480 964 L
3480 975 L
3480 979 L
3481 1015 L
3481 981 L
3481 954 L
3481 912 L
3482 953 L
3482 936 L
3482 1031 L
3482 940 L
3483 994 L
3483 947 L
3483 969 L
3483 941 L
3484 959 L
3484 1003 L
3484 985 L
3484 976 L
3485 986 L
3485 969 L
3485 994 L
3485 920 L
3486 955 L
3486 979 L
3486 953 L
3486 998 L
3487 1019 L
3487 980 L
3487 902 L
3487 985 L
3488 984 L
3488 1016 L
3488 984 L
3488 950 L
3488 968 L
3489 1055 L
3489 937 L
3489 985 L
3489 930 L
3490 1006 L
3490 916 L
3490 971 L
3490 971 L
3491 971 L
3491 942 L
3491 982 L
3491 897 L
3492 999 L
3492 971 L
3492 1003 L
3492 967 L
3493 975 L
3493 986 L
3493 1002 L
3493 980 L
3494 1015 L
3494 935 L
3494 953 L
3494 945 L
3494 994 L
3495 971 L
3495 970 L
3495 957 L
3495 977 L
3496 949 L
3496 926 L
3496 950 L
3496 997 L
3497 957 L
3497 950 L
3497 989 L
3497 954 L
3498 987 L
3498 914 L
3498 1013 L
3498 932 L
3498 988 L
3499 993 L
3499 1004 L
3499 953 L
3499 1032 L
3500 971 L
3500 963 L
3506 1002 L
3511 997 L
3517 1029 L
3522 997 L
3527 1041 L
3532 1025 L
3537 1026 L
3542 988 L
3547 1035 L
3552 990 L
3557 1005 L
3561 1025 L
3566 995 L
3570 1030 L
3575 1007 L
3579 1015 L
3583 1020 L
3587 1016 L
3591 1065 L
3595 1066 L
3599 988 L
3603 1043 L
3607 1063 L
3611 1019 L
3614 1026 L
3618 1038 L
3622 1018 L
3625 1036 L
3629 1036 L
3632 1070 L
3636 1018 L
3639 1001 L
3642 1048 L
3646 999 L
3649 1070 L
3652 1025 L
3655 1057 L
3658 1067 L
3661 1061 L
3664 1094 L
3667 1051 L
3670 1087 L
3673 1053 L
3676 1050 L
3679 1028 L
3682 1023 L
3685 1029 L
3688 989 L
3690 1043 L
3693 1081 L
3696 1085 L
3698 1017 L
3701 1081 L
3704 1064 L
3706 1069 L
3709 1042 L
3711 1020 L
3714 1087 L
3716 1007 L
3719 1084 L
3721 1068 L
3724 1079 L
3726 1076 L
3728 1023 L
3731 1038 L
3733 1083 L
3735 1045 L
3738 1071 L
3740 1084 L
3742 1053 L
3744 1092 L
3747 1066 L
3749 1074 L
3751 1045 L
3753 1025 L
3755 979 L
3757 1054 L
3760 1065 L
3762 1058 L
3764 1041 L
3766 999 L
3768 1022 L
3770 1030 L
3772 1102 L
3774 1106 L
3776 1021 L
3778 1028 L
3780 1056 L
3781 1071 L
3783 1062 L
3785 1072 L
3787 1065 L
3789 1051 L
3791 1068 L
3793 1085 L
3795 1069 L
3796 1036 L
3798 989 L
3800 1066 L
3802 1047 L
3803 1038 L
3805 1029 L
3807 1078 L
3809 1061 L
3810 1025 L
3812 982 L
3814 1087 L
3816 966 L
3817 1095 L
3819 1029 L
3820 1042 L
3822 1024 L
3824 1071 L
3825 1037 L
3827 1007 L
3829 1056 L
3830 1061 L
3832 1051 L
3833 1079 L
3835 1047 L
3836 1074 L
3838 1087 L
3839 1031 L
3841 1041 L
3842 1063 L
3844 1037 L
3845 1119 L
3847 1058 L
3848 1050 L
3850 1083 L
3851 1086 L
3853 1092 L
3854 1029 L
3856 1062 L
3857 1028 L
3859 1080 L
3860 1074 L
3861 1071 L
3863 1077 L
3864 1051 L
3866 1088 L
3867 1022 L
3868 1095 L
3870 1073 L
3871 1131 L
3872 1075 L
3874 1045 L
3875 1054 L
3876 1054 L
3878 1034 L
3879 1016 L
3880 1075 L
3882 1093 L
3883 1070 L
3884 1059 L
3885 1075 L
3887 1064 L
3888 1040 L
3889 1036 L
3890 1037 L
3892 1031 L
3893 1062 L
3894 990 L
3895 1039 L
3897 1106 L
3898 1073 L
3899 1045 L
3900 1027 L
3901 1066 L
3903 1004 L
3904 1102 L
3905 1121 L
3906 1048 L
3907 1046 L
3908 1080 L
3910 1049 L
3911 1060 L
3912 1026 L
3913 1078 L
3914 1065 L
3915 1100 L
3917 1081 L
3918 1073 L
3919 1102 L
3920 1100 L
3921 1093 L
3922 1045 L
3923 1027 L
3924 1118 L
3925 1052 L
3926 1033 L
3928 1049 L
3929 1096 L
3930 1104 L
3931 1049 L
3932 1074 L
3933 1076 L
3934 1065 L
3935 1011 L
3936 1054 L
3937 1094 L
3938 1058 L
3939 1064 L
3940 1099 L
3941 1041 L
3942 1043 L
3943 1073 L
3944 1110 L
3945 999 L
3946 1107 L
3947 1042 L
3948 1025 L
3949 1071 L
3950 1060 L
3951 1084 L
3952 1035 L
3953 1031 L
3954 1030 L
3955 1094 L
3956 1037 L
3957 1089 L
3958 1025 L
3959 1062 L
3960 1047 L
3961 1021 L
3962 1061 L
3963 1031 L
3964 1079 L
3965 1016 L
3966 1025 L
3966 1020 L
3967 1051 L
3968 1061 L
3969 996 L
3970 1044 L
3971 1045 L
3972 1083 L
3973 1068 L
3974 1033 L
3975 1103 L
3976 1050 L
3976 1027 L
3977 998 L
3978 1071 L
3979 1040 L
3980 1013 L
3981 1023 L
3982 1100 L
3983 1036 L
3983 1051 L
3984 1059 L
3985 1068 L
3986 1079 L
3987 1068 L
3988 1048 L
3989 1034 L
3989 1052 L
3990 1068 L
3991 1036 L
3992 1093 L
3993 1080 L
3994 1040 L
3995 1089 L
3995 1096 L
3996 1073 L
3997 1032 L
3998 1036 L
3999 1036 L
3999 1084 L
4000 1028 L
4001 1064 L
4002 1088 L
4003 1070 L
4003 1066 L
4004 1071 L
4005 1028 L
4006 1040 L
4007 1097 L
4007 1054 L
4008 1040 L
4009 1036 L
4010 1067 L
4011 1058 L
4011 1074 L
4012 1064 L
4013 1070 L
4014 1073 L
4014 1025 L
4015 1059 L
4016 1033 L
4017 1087 L
4017 1068 L
4018 1101 L
4019 1086 L
4020 1063 L
4021 1048 L
4021 1066 L
4022 1080 L
4023 1046 L
4023 1069 L
4024 1040 L
4025 1029 L
4026 1034 L
4026 1084 L
4027 1056 L
4028 1005 L
4029 1071 L
4029 1107 L
4030 1087 L
4031 1036 L
4032 1083 L
4032 1018 L
4033 1031 L
4034 1086 L
4034 1102 L
4035 1058 L
4036 1083 L
4036 1009 L
4037 1070 L
4038 1034 L
4039 1004 L
4039 1017 L
4040 1033 L
4041 1060 L
4041 1095 L
4042 1023 L
4043 1041 L
4043 1005 L
4044 1019 L
4045 1043 L
4045 1051 L
4046 1038 L
4047 1086 L
4047 1028 L
4048 1051 L
4049 1013 L
4050 1014 L
4050 1075 L
4051 1127 L
4052 1067 L
4052 1058 L
4053 1003 L
4053 1006 L
4054 1058 L
4055 966 L
4055 1073 L
4056 1046 L
4057 1051 L
4057 1047 L
4058 1024 L
4059 1033 L
4059 1048 L
4060 993 L
4061 1013 L
4061 1046 L
4062 1107 L
L2 C05 COSGR

%
% Main frame
%
L10
GSN 
620 1700 M
4220 1700 L
4220 5300 L
620 5300 L
closepath SGR

%
% X axis: large tics
%
L10
GSN 1130 1700 M 0  54 rL SGR
GSN 1130 5300 M 0 -54 rL SGR
helvS (0.0001) 1130 470 xlabel
GSN 1716 1700 M 0  54 rL SGR
GSN 1716 5300 M 0 -54 rL SGR
helvS (0.001) 1716 470 xlabel
GSN 2303 1700 M 0  54 rL SGR
GSN 2303 5300 M 0 -54 rL SGR
helvS (0.01) 2303 470 xlabel
GSN 2889 1700 M 0  54 rL SGR
GSN 2889 5300 M 0 -54 rL SGR
helvS (0.1) 2889 470 xlabel
GSN 3476 1700 M 0  54 rL SGR
GSN 3476 5300 M 0 -54 rL SGR
helvS (1) 3476 470 xlabel
GSN 4062 1700 M 0  54 rL SGR
GSN 4062 5300 M 0 -54 rL SGR
helvS (10) 4062 470 xlabel
%
% X axis: small tics
%
L5
GSN 720 1700 M 0  36 rL SGR
GSN 720 5300 M 0 -36 rL SGR
GSN 824 1700 M 0  36 rL SGR
GSN 824 5300 M 0 -36 rL SGR
GSN 897 1700 M 0  36 rL SGR
GSN 897 5300 M 0 -36 rL SGR
GSN 954 1700 M 0  36 rL SGR
GSN 954 5300 M 0 -36 rL SGR
GSN 1000 1700 M 0  36 rL SGR
GSN 1000 5300 M 0 -36 rL SGR
GSN 1039 1700 M 0  36 rL SGR
GSN 1039 5300 M 0 -36 rL SGR
GSN 1073 1700 M 0  36 rL SGR
GSN 1073 5300 M 0 -36 rL SGR
GSN 1103 1700 M 0  36 rL SGR
GSN 1103 5300 M 0 -36 rL SGR
GSN 1307 1700 M 0  36 rL SGR
GSN 1307 5300 M 0 -36 rL SGR
GSN 1410 1700 M 0  36 rL SGR
GSN 1410 5300 M 0 -36 rL SGR
GSN 1483 1700 M 0  36 rL SGR
GSN 1483 5300 M 0 -36 rL SGR
GSN 1540 1700 M 0  36 rL SGR
GSN 1540 5300 M 0 -36 rL SGR
GSN 1586 1700 M 0  36 rL SGR
GSN 1586 5300 M 0 -36 rL SGR
GSN 1626 1700 M 0  36 rL SGR
GSN 1626 5300 M 0 -36 rL SGR
GSN 1660 1700 M 0  36 rL SGR
GSN 1660 5300 M 0 -36 rL SGR
GSN 1690 1700 M 0  36 rL SGR
GSN 1690 5300 M 0 -36 rL SGR
GSN 1893 1700 M 0  36 rL SGR
GSN 1893 5300 M 0 -36 rL SGR
GSN 1996 1700 M 0  36 rL SGR
GSN 1996 5300 M 0 -36 rL SGR
GSN 2069 1700 M 0  36 rL SGR
GSN 2069 5300 M 0 -36 rL SGR
GSN 2126 1700 M 0  36 rL SGR
GSN 2126 5300 M 0 -36 rL SGR
GSN 2173 1700 M 0  36 rL SGR
GSN 2173 5300 M 0 -36 rL SGR
GSN 2212 1700 M 0  36 rL SGR
GSN 2212 5300 M 0 -36 rL SGR
GSN 2246 1700 M 0  36 rL SGR
GSN 2246 5300 M 0 -36 rL SGR
GSN 2276 1700 M 0  36 rL SGR
GSN 2276 5300 M 0 -36 rL SGR
GSN 2479 1700 M 0  36 rL SGR
GSN 2479 5300 M 0 -36 rL SGR
GSN 2583 1700 M 0  36 rL SGR
GSN 2583 5300 M 0 -36 rL SGR
GSN 2656 1700 M 0  36 rL SGR
GSN 2656 5300 M 0 -36 rL SGR
GSN 2713 1700 M 0  36 rL SGR
GSN 2713 5300 M 0 -36 rL SGR
GSN 2759 1700 M 0  36 rL SGR
GSN 2759 5300 M 0 -36 rL SGR
GSN 2798 1700 M 0  36 rL SGR
GSN 2798 5300 M 0 -36 rL SGR
GSN 2832 1700 M 0  36 rL SGR
GSN 2832 5300 M 0 -36 rL SGR
GSN 2862 1700 M 0  36 rL SGR
GSN 2862 5300 M 0 -36 rL SGR
GSN 3066 1700 M 0  36 rL SGR
GSN 3066 5300 M 0 -36 rL SGR
GSN 3169 1700 M 0  36 rL SGR
GSN 3169 5300 M 0 -36 rL SGR
GSN 3242 1700 M 0  36 rL SGR
GSN 3242 5300 M 0 -36 rL SGR
GSN 3299 1700 M 0  36 rL SGR
GSN 3299 5300 M 0 -36 rL SGR
GSN 3345 1700 M 0  36 rL SGR
GSN 3345 5300 M 0 -36 rL SGR
GSN 3385 1700 M 0  36 rL SGR
GSN 3385 5300 M 0 -36 rL SGR
GSN 3419 1700 M 0  36 rL SGR
GSN 3419 5300 M 0 -36 rL SGR
GSN 3449 1700 M 0  36 rL SGR
GSN 3449 5300 M 0 -36 rL SGR
GSN 3652 1700 M 0  36 rL SGR
GSN 3652 5300 M 0 -36 rL SGR
GSN 3755 1700 M 0  36 rL SGR
GSN 3755 5300 M 0 -36 rL SGR
GSN 3829 1700 M 0  36 rL SGR
GSN 3829 5300 M 0 -36 rL SGR
GSN 3885 1700 M 0  36 rL SGR
GSN 3885 5300 M 0 -36 rL SGR
GSN 3932 1700 M 0  36 rL SGR
GSN 3932 5300 M 0 -36 rL SGR
GSN 3971 1700 M 0  36 rL SGR
GSN 3971 5300 M 0 -36 rL SGR
GSN 4005 1700 M 0  36 rL SGR
GSN 4005 5300 M 0 -36 rL SGR
GSN 4035 1700 M 0  36 rL SGR
GSN 4035 5300 M 0 -36 rL SGR
%
% Y axis: large tics
%
L10
GSN 620 1930 M 54 0 rL SGR
GSN 4220 1930 M -54 0 rL SGR
helvS (0.95) 560 1930 ylabel
GSN 620 3521 M 54 0 rL SGR
GSN 4220 3521 M -54 0 rL SGR
helvS (1) 560 3521 ylabel
GSN 620 5111 M 54 0 rL SGR
GSN 4220 5111 M -54 0 rL SGR
helvS (1.05) 560 5111 ylabel
%
% Y axis: small tics
%
L5
GSN 620 1930 M 36 0 rL SGR
GSN 4220 1930 M -36 0 rL SGR
GSN 620 2248 M 36 0 rL SGR
GSN 4220 2248 M -36 0 rL SGR
GSN 620 2566 M 36 0 rL SGR
GSN 4220 2566 M -36 0 rL SGR
GSN 620 2885 M 36 0 rL SGR
GSN 4220 2885 M -36 0 rL SGR
GSN 620 3203 M 36 0 rL SGR
GSN 4220 3203 M -36 0 rL SGR
GSN 620 3521 M 36 0 rL SGR
GSN 4220 3521 M -36 0 rL SGR
GSN 620 3839 M 36 0 rL SGR
GSN 4220 3839 M -36 0 rL SGR
GSN 620 4157 M 36 0 rL SGR
GSN 4220 4157 M -36 0 rL SGR
GSN 620 4475 M 36 0 rL SGR
GSN 4220 4475 M -36 0 rL SGR
GSN 620 4793 M 36 0 rL SGR
GSN 4220 4793 M -36 0 rL SGR
GSN 620 5111 M 36 0 rL SGR
GSN 4220 5111 M -36 0 rL SGR

%
% X-Axis label:
%
gsave 2420 290 M 
[
[(Helvetica) 180 0 true true 0 (t)]
[(Helvetica) 180 0 true true 0 (i)]
[(Helvetica) 180 0 true true 0 (m)]
[(Helvetica) 180 0 true true 0 (e)]
] 0 MCshow grestore

%
% Y-Axis label:
%
gsave 234 3499 M 
currentpoint gsave translate 90 rotate 0 0 moveto
[
[(Helvetica) 180 0 true true 0 (s)]
[(Helvetica) 180 0 true true 0 (i)]
[(Helvetica) 180 0 true true 0 (g)]
[(Helvetica) 180 0 true true 0 (n)]
[(Helvetica) 180 0 true true 0 (a)]
[(Helvetica) 180 0 true true 0 (l)]
] 0 MCshow grestore

%
% Residuals:
%
gsave 129 1160 M 
currentpoint gsave translate 90 rotate 0 0 moveto
[
[(Helvetica) 150 0 true true 0 (r)]
[(Helvetica) 150 0 true true 0 (e)]
[(Helvetica) 150 0 true true 0 (s)]
[(Helvetica) 150 0 true true 0 (i)]
[(Helvetica) 150 0 true true 0 (d)]
[(Helvetica) 150 0 true true 0 (u)]
[(Helvetica) 150 0 true true 0 (a)]
[(Helvetica) 150 0 true true 0 (l)]
[(Helvetica) 150 0 true true 0 (s)]
] 0 MCshow grestore

%
% Residual frame
%
L10
GSN 
620 620 M
4220 620 L
4220 1700 L
620 1700 L
closepath SGR
%
% X axis: large tics - residual frame
%
L10
GSN 1130 620 M 0  54 rL SGR
GSN 1130 1700 M 0 -54 rL SGR
GSN 1716 620 M 0  54 rL SGR
GSN 1716 1700 M 0 -54 rL SGR
GSN 2303 620 M 0  54 rL SGR
GSN 2303 1700 M 0 -54 rL SGR
GSN 2889 620 M 0  54 rL SGR
GSN 2889 1700 M 0 -54 rL SGR
GSN 3476 620 M 0  54 rL SGR
GSN 3476 1700 M 0 -54 rL SGR
GSN 4062 620 M 0  54 rL SGR
GSN 4062 1700 M 0 -54 rL SGR
%
% X axis: small tics - residual frame
%
L5
GSN 720 620 M 0  36 rL SGR
GSN 720 1700 M 0 -36 rL SGR
GSN 824 620 M 0  36 rL SGR
GSN 824 1700 M 0 -36 rL SGR
GSN 897 620 M 0  36 rL SGR
GSN 897 1700 M 0 -36 rL SGR
GSN 954 620 M 0  36 rL SGR
GSN 954 1700 M 0 -36 rL SGR
GSN 1000 620 M 0  36 rL SGR
GSN 1000 1700 M 0 -36 rL SGR
GSN 1039 620 M 0  36 rL SGR
GSN 1039 1700 M 0 -36 rL SGR
GSN 1073 620 M 0  36 rL SGR
GSN 1073 1700 M 0 -36 rL SGR
GSN 1103 620 M 0  36 rL SGR
GSN 1103 1700 M 0 -36 rL SGR
GSN 1307 620 M 0  36 rL SGR
GSN 1307 1700 M 0 -36 rL SGR
GSN 1410 620 M 0  36 rL SGR
GSN 1410 1700 M 0 -36 rL SGR
GSN 1483 620 M 0  36 rL SGR
GSN 1483 1700 M 0 -36 rL SGR
GSN 1540 620 M 0  36 rL SGR
GSN 1540 1700 M 0 -36 rL SGR
GSN 1586 620 M 0  36 rL SGR
GSN 1586 1700 M 0 -36 rL SGR
GSN 1626 620 M 0  36 rL SGR
GSN 1626 1700 M 0 -36 rL SGR
GSN 1660 620 M 0  36 rL SGR
GSN 1660 1700 M 0 -36 rL SGR
GSN 1690 620 M 0  36 rL SGR
GSN 1690 1700 M 0 -36 rL SGR
GSN 1893 620 M 0  36 rL SGR
GSN 1893 1700 M 0 -36 rL SGR
GSN 1996 620 M 0  36 rL SGR
GSN 1996 1700 M 0 -36 rL SGR
GSN 2069 620 M 0  36 rL SGR
GSN 2069 1700 M 0 -36 rL SGR
GSN 2126 620 M 0  36 rL SGR
GSN 2126 1700 M 0 -36 rL SGR
GSN 2173 620 M 0  36 rL SGR
GSN 2173 1700 M 0 -36 rL SGR
GSN 2212 620 M 0  36 rL SGR
GSN 2212 1700 M 0 -36 rL SGR
GSN 2246 620 M 0  36 rL SGR
GSN 2246 1700 M 0 -36 rL SGR
GSN 2276 620 M 0  36 rL SGR
GSN 2276 1700 M 0 -36 rL SGR
GSN 2479 620 M 0  36 rL SGR
GSN 2479 1700 M 0 -36 rL SGR
GSN 2583 620 M 0  36 rL SGR
GSN 2583 1700 M 0 -36 rL SGR
GSN 2656 620 M 0  36 rL SGR
GSN 2656 1700 M 0 -36 rL SGR
GSN 2713 620 M 0  36 rL SGR
GSN 2713 1700 M 0 -36 rL SGR
GSN 2759 620 M 0  36 rL SGR
GSN 2759 1700 M 0 -36 rL SGR
GSN 2798 620 M 0  36 rL SGR
GSN 2798 1700 M 0 -36 rL SGR
GSN 2832 620 M 0  36 rL SGR
GSN 2832 1700 M 0 -36 rL SGR
GSN 2862 620 M 0  36 rL SGR
GSN 2862 1700 M 0 -36 rL SGR
GSN 3066 620 M 0  36 rL SGR
GSN 3066 1700 M 0 -36 rL SGR
GSN 3169 620 M 0  36 rL SGR
GSN 3169 1700 M 0 -36 rL SGR
GSN 3242 620 M 0  36 rL SGR
GSN 3242 1700 M 0 -36 rL SGR
GSN 3299 620 M 0  36 rL SGR
GSN 3299 1700 M 0 -36 rL SGR
GSN 3345 620 M 0  36 rL SGR
GSN 3345 1700 M 0 -36 rL SGR
GSN 3385 620 M 0  36 rL SGR
GSN 3385 1700 M 0 -36 rL SGR
GSN 3419 620 M 0  36 rL SGR
GSN 3419 1700 M 0 -36 rL SGR
GSN 3449 620 M 0  36 rL SGR
GSN 3449 1700 M 0 -36 rL SGR
GSN 3652 620 M 0  36 rL SGR
GSN 3652 1700 M 0 -36 rL SGR
GSN 3755 620 M 0  36 rL SGR
GSN 3755 1700 M 0 -36 rL SGR
GSN 3829 620 M 0  36 rL SGR
GSN 3829 1700 M 0 -36 rL SGR
GSN 3885 620 M 0  36 rL SGR
GSN 3885 1700 M 0 -36 rL SGR
GSN 3932 620 M 0  36 rL SGR
GSN 3932 1700 M 0 -36 rL SGR
GSN 3971 620 M 0  36 rL SGR
GSN 3971 1700 M 0 -36 rL SGR
GSN 4005 620 M 0  36 rL SGR
GSN 4005 1700 M 0 -36 rL SGR
GSN 4035 620 M 0  36 rL SGR
GSN 4035 1700 M 0 -36 rL SGR
%
% Y axis: large tics - residual frame
%
L10
GSN 620 773 M 54 0 rL SGR
GSN 4220 773 M -54 0 rL SGR
helvS (-0.02) 560 773 ylabelresid
GSN 620 992 M 54 0 rL SGR
GSN 4220 992 M -54 0 rL SGR
helvS (0) 560 992 ylabelresid
GSN 620 1210 M 54 0 rL SGR
GSN 4220 1210 M -54 0 rL SGR
helvS (0.02) 560 1210 ylabelresid
GSN 620 1429 M 54 0 rL SGR
GSN 4220 1429 M -54 0 rL SGR
helvS (0.04) 560 1429 ylabelresid
GSN 620 1647 M 54 0 rL SGR
GSN 4220 1647 M -54 0 rL SGR
helvS (0.06) 560 1647 ylabelresid

%
% X axis - residual panel
%
GSN L5 620 992 M 4220 992 L SDA G50 SGR

end
showpage
%%Trailer
%%EOF
