
===================================================
Least squares Minimization - Trust Region Algorithm
===================================================

Optimized parameters:

     1 	 k.1
     2 	 k.-1
     3 	 k.cat
     4 	 r(E)
     5 	 r(E.S1)
     6 	 r(E.P)
     7 	 [E]#1
     8 	 [S]#1
     9 	 offset#1
    10 	 [E]#2
    11 	 [S]#2
    12 	 offset#2
    13 	 [E]#3
    14 	 [S]#3
    15 	 offset#3
    16 	 [E]#4
    17 	 [S]#4
    18 	 offset#4
    19 	 [E]#5
    20 	 [S]#5
    21 	 offset#5
    22 	 [E]#6
    23 	 [S]#6
    24 	 offset#6
    25 	 [E]#7
    26 	 [S]#7
    27 	 offset#7

:: NL2SOL :: DNLAFB
:: Analytic Jacobian; Constrained

________________________________________________________________________

:: Initial Estimate

     i	     Param p(i)	            Min	            Max
     1	        34957.1	         1e-006	         1e+006
     2	         118440	         1e-012	         1e+006
     3	     0.00207877	         1e-006	         1e+006
     4	           0.31	       3.1e-007	         310000
     5	           0.22	       2.2e-007	         220000
     6	           0.25	       2.5e-007	         250000
     7	              1	       0.909091	            1.1
     8	            0.5	       0.454545	           0.55
     9	         1.1793	       -10.6137	        12.9723
    10	              1	       0.909091	            1.1
    11	              1	       0.909091	            1.1
    12	        1.14325	       -10.6497	        12.9363
    13	              1	       0.909091	            1.1
    14	            1.5	        1.36364	           1.65
    15	        1.10351	       -10.6895	        12.8965
    16	              1	       0.909091	            1.1
    17	              2	        1.81818	            2.2
    18	        1.07103	        -10.722	         12.864
    19	              1	       0.909091	            1.1
    20	            2.5	        2.27273	           2.75
    21	        1.02909	       -10.7639	        12.8221
    22	              1	       0.909091	            1.1
    23	              3	        2.72727	            3.3
    24	        0.97752	       -10.8155	        12.7705
    25	              1	       0.909091	            1.1
    26	              4	        3.63636	            4.4
    27	        0.95791	       -10.8351	        12.7509

:: Iterations

     i	 FEval	   F(i) = SSQ	   Param( 1)	   Param( 2)	   Param( 3)	   Param( 4)	   Param( 5)	   Param( 6)	   Param( 7)	   Param( 8)	   Param( 9)	   Param(10)	   Param(11)	   Param(12)	   Param(13)	   Param(14)	   Param(15)	   Param(16)	   Param(17)	   Param(18)	   Param(19)	   Param(20)	   Param(21)	   Param(22)	   Param(23)	   Param(24)	   Param(25)	   Param(26)	   Param(27)	
     0	     1	       412.54	        34957	  1.1844e+005	    0.0020788	         0.31	         0.22	         0.25	            1	          0.5	       1.1793	            1	            1	       1.1433	            1	          1.5	       1.1035	            1	            2	        1.071	            1	          2.5	       1.0291	            1	            3	      0.97752	            1	            4	      0.95791	
     1	     2	       179.34	        34958	  1.1844e+005	      0.12335	      0.49686	     2.2e-007	     2.5e-007	      0.90909	      0.45455	      0.95645	          1.1	          1.1	      0.89343	       1.0979	         1.65	      0.92072	      0.90909	       1.9468	       0.9888	      0.90909	       2.5377	      0.99194	      0.92488	       3.2544	       0.9739	       1.0409	       3.6364	      0.96605	
     2	     3	       5.2898	        34959	  1.1844e+005	      0.12485	     0.096918	     2.2e-007	     2.5e-007	      0.90909	      0.45455	       1.0983	          1.1	          1.1	       1.0481	       1.0979	         1.65	       1.0303	      0.90909	       1.9468	       1.0034	      0.90909	       2.5377	      0.96641	      0.90909	       3.2544	       0.9313	       1.0409	       3.6364	      0.89449	
     3	     4	       2.1835	        34959	  1.1844e+005	      0.12696	     0.061798	     2.2e-007	     2.5e-007	      0.90909	      0.45455	       1.1159	      0.99929	          1.1	       1.0651	       1.0526	         1.65	       1.0381	      0.90909	       2.0224	       1.0047	      0.90909	       2.4189	      0.96562	      0.90909	       3.2544	      0.92863	       1.0676	       3.6364	      0.89294	
     4	     5	       1.1286	        34959	  1.1844e+005	      0.11925	     0.040928	     2.2e-007	     2.5e-007	      0.90909	      0.45455	       1.1239	       0.9506	          1.1	       1.0729	       1.0593	         1.65	       1.0407	      0.90909	       2.1286	        1.006	      0.90909	       2.4499	       0.9658	      0.90909	       3.2544	      0.92822	       1.0849	       3.6364	      0.89239	
     5	     6	      0.77113	        34959	  1.1844e+005	      0.10054	     0.029078	     2.2e-007	     2.5e-007	      0.90909	      0.45455	       1.1273	       0.9506	          1.1	       1.0767	       1.0675	         1.65	       1.0426	      0.90909	       2.0954	       1.0063	      0.90909	       2.4372	      0.96558	      0.90909	       3.2858	      0.92765	        1.087	       3.6364	      0.89236	
     6	     7	      0.64466	        34959	  1.1844e+005	     0.069663	     0.023907	     2.2e-007	     2.5e-007	      0.90909	      0.45455	       1.1278	       0.9506	       1.0795	       1.0783	       1.0259	         1.65	       1.0437	      0.90909	       2.0875	       1.0056	      0.90909	       2.4333	      0.96458	      0.90909	       3.2917	      0.92641	       1.0801	       3.6364	      0.89161	
     7	     9	      0.54255	        34959	  1.1844e+005	     0.063896	     0.017811	     2.2e-007	     2.5e-007	      0.90909	      0.45455	       1.1306	      0.98998	      0.92641	       1.0857	      0.99019	         1.65	       1.0451	      0.90909	       2.0832	       1.0055	      0.90909	       2.4302	      0.96446	      0.90909	       3.2963	       0.9264	       1.0802	       3.6364	      0.89145	
     8	    10	       0.5256	        34959	  1.1844e+005	     0.048691	     0.018319	     2.2e-007	    0.0013111	      0.90909	      0.45455	       1.1292	      0.96614	      0.94328	       1.0856	      0.97548	         1.65	       1.0439	      0.90909	       2.0753	       1.0039	      0.90909	       2.4206	      0.96277	      0.90909	       3.2963	      0.92479	       1.0752	       3.6364	      0.88973	
     9	    11	      0.51779	        34959	  1.1844e+005	     0.047004	     0.017358	     2.2e-007	    0.0020534	      0.90909	      0.45455	       1.1295	      0.93254	      0.93442	        1.087	       0.9626	         1.65	       1.0441	      0.90909	       2.0715	       1.0036	      0.90909	       2.4164	      0.96246	      0.90909	       3.2981	      0.92448	       1.0741	       3.6364	      0.88933	
    10	    13	      0.50649	        34959	  1.1844e+005	      0.04665	     0.038975	     2.2e-007	     0.017559	      0.90909	      0.45455	       1.1111	      0.96743	      0.93855	       1.0734	      0.96493	         1.65	        1.028	      0.90909	       2.0713	      0.98888	      0.90909	       2.4163	      0.94844	      0.90909	       3.2999	      0.91174	       1.0774	       3.6386	      0.87453	
    11	    14	      0.50559	        34959	  1.1844e+005	     0.072599	     0.038213	     2.2e-007	     0.019012	      0.90909	      0.45455	       1.1119	      0.98935	       0.9668	       1.0732	      0.96379	       1.6492	       1.0286	      0.90909	       2.0682	      0.98936	      0.90909	       2.4195	      0.94891	      0.90909	       3.2999	      0.91208	       1.0953	       3.6386	       0.8745	
    12	    15	      0.50498	        34959	  1.1844e+005	     0.093479	     0.038166	     2.2e-007	     0.019131	      0.90909	      0.45455	       1.1121	       1.0076	      0.99343	       1.0727	      0.96156	       1.6467	       1.0288	      0.90909	       2.0655	       0.9894	      0.90909	       2.4276	      0.94897	      0.90909	       3.2999	      0.91206	       1.0953	       3.6386	      0.87442	
    13	    16	      0.50479	        34959	  1.1844e+005	      0.10301	     0.038101	     2.2e-007	     0.019224	      0.90909	      0.45455	       1.1123	       1.0233	       1.0183	       1.0724	      0.96123	       1.6436	       1.0289	      0.90909	       2.0725	      0.98946	      0.90909	       2.4376	      0.94903	      0.90909	       3.2999	      0.91205	       1.0953	       3.6386	       0.8744	
    14	    19	      0.50451	        34959	  1.1844e+005	      0.10127	     0.039331	     2.2e-007	     0.019979	      0.91622	      0.45455	       1.1111	       1.0699	          1.1	       1.0704	      0.97713	       1.6234	       1.0275	       0.9128	       2.0829	      0.98875	      0.90909	       2.4831	      0.94839	      0.90909	       3.2999	      0.91141	       1.0945	       3.6364	      0.87364	
    15	    20	      0.50435	        34959	  1.1844e+005	      0.10401	     0.040143	     2.2e-007	     0.020449	      0.92944	      0.45455	         1.11	          1.1	          1.1	       1.0684	      0.98372	       1.6065	       1.0268	      0.90909	       2.1723	      0.98867	      0.90909	       2.5384	      0.94814	      0.90909	          3.3	      0.91095	       1.0946	       3.6364	       0.8731	
    16	    21	      0.50425	        34959	  1.1844e+005	      0.10947	     0.042579	     2.2e-007	      0.02208	      0.95462	      0.45455	       1.1071	          1.1	          1.1	       1.0665	        1.005	       1.5927	       1.0245	      0.90909	       2.1723	      0.98722	      0.90909	       2.5384	      0.94676	      0.90909	          3.3	      0.90957	       1.0946	       3.6364	      0.87146	
    17	    23	      0.50401	        34959	  1.1844e+005	      0.11335	     0.043125	     2.2e-007	     0.022358	      0.99166	      0.45455	       1.1052	          1.1	          1.1	       1.0662	       1.0044	       1.5913	       1.0242	      0.90909	          2.2	      0.98703	      0.90909	       2.7415	      0.94705	      0.90909	          3.3	       0.9093	          1.1	       3.6364	      0.87101	
    18	    24	      0.50395	        34959	  1.1844e+005	      0.11615	      0.04295	     2.2e-007	     0.022289	       1.0927	      0.45455	       1.1013	          1.1	          1.1	       1.0663	      0.99788	       1.5845	       1.0245	      0.90909	          2.2	      0.98715	      0.90909	         2.75	      0.94715	      0.90909	          3.3	      0.90938	          1.1	       3.6364	      0.87107	
    19	    25	      0.50393	        34959	  1.1844e+005	      0.13104	     0.042193	   0.00091023	     0.022471	          1.1	      0.45455	       1.1017	          1.1	          1.1	       1.0668	      0.98108	       1.5769	       1.0253	      0.90909	          2.2	      0.98732	      0.90909	         2.75	      0.94721	      0.90909	          3.3	      0.90935	          1.1	       3.6364	      0.87102	
    20	    26	      0.50391	        34959	  1.1844e+005	      0.14339	     0.042103	     0.001285	     0.022713	          1.1	      0.45455	       1.1018	          1.1	          1.1	       1.0669	      0.94364	       1.5297	       1.0262	      0.90909	          2.2	      0.98721	      0.90909	         2.75	      0.94709	      0.90909	          3.3	      0.90921	          1.1	       3.6364	      0.87085	
    21	    27	       0.5039	        34959	  1.1844e+005	      0.16589	     0.040814	    0.0009554	     0.022125	          1.1	      0.45455	       1.1031	          1.1	          1.1	       1.0682	      0.90909	       1.4147	       1.0277	      0.90909	          2.2	      0.98804	      0.90909	         2.75	      0.94784	      0.90909	          3.3	      0.90991	          1.1	       3.6364	      0.87166	
    22	    29	       0.5039	        34959	  1.1844e+005	      0.16819	      0.04019	   0.00034193	     0.021489	          1.1	      0.45455	       1.1038	          1.1	          1.1	       1.0689	      0.90909	       1.4136	       1.0283	      0.90909	          2.2	      0.98861	      0.90909	         2.75	       0.9484	      0.90909	          3.3	      0.91047	          1.1	       3.6364	      0.87235	
    23	    32	       0.5039	        34959	  1.1844e+005	      0.17209	     0.039517	     2.2e-007	     0.020993	          1.1	      0.45455	       1.1045	          1.1	          1.1	       1.0695	      0.90909	       1.3816	       1.0287	      0.90909	          2.2	       0.9891	      0.90909	         2.75	      0.94888	      0.90909	          3.3	      0.91094	          1.1	       3.6364	      0.87291	
    24	    33	       0.5039	        34959	  1.1844e+005	      0.17304	     0.039475	     2.2e-007	     0.020979	          1.1	      0.45455	       1.1046	          1.1	          1.1	       1.0695	      0.90909	       1.3816	       1.0287	      0.90909	          2.2	      0.98913	      0.90909	         2.75	      0.94891	      0.90909	          3.3	      0.91096	          1.1	       3.6364	      0.87293	
    25	    34	       0.5039	        34959	  1.1844e+005	      0.17342	     0.039442	     2.2e-007	     0.020961	          1.1	      0.45455	       1.1046	          1.1	          1.1	       1.0696	      0.90909	       1.3816	       1.0287	      0.90909	          2.2	      0.98915	      0.90909	         2.75	      0.94892	      0.90909	          3.3	      0.91097	          1.1	       3.6364	      0.87295	
    26	    35	       0.5039	        34959	  1.1844e+005	      0.17395	     0.047635	    0.0083073	     0.029206	          1.1	      0.45455	       1.0956	          1.1	          1.1	       1.0605	      0.90909	       1.3636	       1.0212	      0.90909	          2.2	      0.98166	      0.90909	         2.75	      0.94143	      0.90909	          3.3	      0.90348	          1.1	       3.6364	      0.86388	
    27	    36	       0.5039	        34959	  1.1844e+005	      0.17405	     0.047697	    0.0083607	     0.029266	          1.1	      0.45455	       1.0955	          1.1	          1.1	       1.0605	      0.90909	       1.3636	       1.0211	      0.90909	          2.2	      0.98161	      0.90909	         2.75	      0.94138	      0.90909	          3.3	      0.90342	          1.1	       3.6364	      0.86381	
    28	    45	      0.50388	        36542	  1.1718e+005	      0.16338	     0.039143	     2.2e-007	      0.02031	          1.1	      0.45455	        1.105	          1.1	          1.1	       1.0702	      0.90909	       1.3636	       1.0292	      0.90909	          2.2	      0.98973	      0.90909	         2.75	      0.94952	      0.90909	          3.3	      0.91157	          1.1	       3.6364	      0.87367	
    29	    46	      0.50386	        39373	  1.1378e+005	      0.15809	     0.039016	     0.002136	     0.020258	          1.1	      0.45455	       1.1053	          1.1	          1.1	       1.0704	      0.90909	       1.3636	       1.0293	      0.90909	          2.2	      0.98987	      0.90909	         2.75	      0.94961	      0.90909	          3.3	      0.91161	          1.1	       3.6364	      0.87367	
    30	    48	      0.50383	        42164	  1.1039e+005	      0.14817	      0.03931	    0.0034051	     0.020255	          1.1	      0.45455	       1.1051	          1.1	          1.1	       1.0704	      0.90909	       1.3636	       1.0294	      0.90909	          2.2	       0.9899	      0.90909	         2.75	      0.94964	      0.90909	          3.3	      0.91162	          1.1	       3.6364	      0.87367	
    31	    49	      0.50382	        42167	  1.1039e+005	      0.16148	     0.040317	    0.0048917	     0.021611	          1.1	      0.45455	       1.1039	          1.1	          1.1	       1.0692	      0.90909	       1.3636	       1.0284	      0.90909	          2.2	      0.98878	      0.90909	         2.75	      0.94847	      0.90909	          3.3	      0.91042	          1.1	       3.6364	      0.87222	
    32	    51	       0.5038	        44388	  1.0926e+005	       0.1766	     0.044726	     0.010626	     0.026341	          1.1	      0.45455	       1.0991	          1.1	          1.1	       1.0644	      0.90909	       1.3636	       1.0244	      0.90909	          2.2	      0.98468	      0.90909	         2.75	       0.9443	      0.90909	          3.3	      0.90621	          1.1	       3.6364	      0.86709	
    33	    53	      0.50377	        46566	  1.0804e+005	      0.17945	     0.047829	     0.014412	     0.029396	          1.1	      0.45455	       1.0958	          1.1	          1.1	       1.0612	      0.90909	       1.3636	       1.0217	      0.90909	          2.2	      0.98197	      0.90909	         2.75	      0.94157	      0.90909	          3.3	      0.90346	          1.1	       3.6364	      0.86375	
    34	    55	      0.50373	        52483	  1.0469e+005	      0.17217	     0.055688	     0.023782	     0.036921	          1.1	      0.45455	       1.0874	          1.1	          1.1	        1.053	      0.90909	       1.3636	        1.015	      0.90909	          2.2	      0.97524	      0.90909	         2.75	       0.9348	      0.90909	          3.3	      0.89664	          1.1	       3.6364	      0.85547	
    35	    56	      0.50367	        63261	        96212	      0.13929	      0.03256	    0.0019247	     0.012538	          1.1	      0.45455	       1.1134	          1.1	          1.1	       1.0796	      0.90909	       1.3636	       1.0372	      0.90909	          2.2	      0.99748	      0.90909	         2.75	        0.957	      0.90909	          3.3	      0.91879	          1.1	       3.6364	      0.88221	
    36	    57	      0.50352	        73158	        86669	      0.12731	     0.033592	    0.0036324	     0.012509	          1.1	      0.45455	       1.1128	          1.1	          1.1	       1.0796	      0.90909	       1.3636	       1.0373	      0.90909	          2.2	      0.99755	      0.90909	         2.75	      0.95705	      0.90909	          3.3	       0.9188	          1.1	       3.6364	      0.88221	
    37	    59	       0.5034	        79639	        76793	      0.12913	     0.033664	    0.0051541	     0.012437	          1.1	      0.45455	       1.1131	          1.1	          1.1	         1.08	      0.90909	       1.3636	       1.0376	      0.90909	          2.2	      0.99779	      0.90909	         2.75	       0.9572	      0.90909	          3.3	      0.91885	          1.1	       3.6364	      0.88221	
    38	    61	      0.50316	        94753	        55070	      0.11007	     0.083647	     0.054206	     0.059428	          1.1	      0.45455	       1.0596	          1.1	          1.1	       1.0282	      0.90909	       1.3636	      0.99509	      0.90909	          2.2	      0.95526	      0.90909	         2.75	       0.9146	      0.90909	          3.3	      0.87617	          1.1	       3.6364	      0.83054	
    39	    63	      0.50316	        94753	        55070	      0.11007	     0.083647	     0.054206	     0.059428	          1.1	      0.45455	       1.0596	          1.1	          1.1	       1.0282	      0.90909	       1.3636	      0.99509	      0.90909	          2.2	      0.95526	      0.90909	         2.75	       0.9146	      0.90909	          3.3	      0.87617	          1.1	       3.6364	      0.83054	

:: Singular convergence

       Squares	       0.503159
     Func Eval	             63
     Grad Eval	             39

:: Nonlinear parameters

     i	   Final p(i)	  Gradient(i)
     1	      94753.2	  8.7992e-009
     2	      55070.2	 -1.2919e-008
     3	     0.110071	  -0.00063693
     4	    0.0836466	     -0.11562
     5	    0.0542055	    -0.095976
     6	    0.0594282	  -0.00049367
     7	          1.1	   -0.0038117
     8	     0.454545	    0.0020412
     9	      1.05956	     -0.04037
    10	          1.1	   -0.0071779
    11	          1.1	    0.0007166
    12	      1.02821	    -0.094379
    13	     0.909091	   -0.0048924
    14	      1.36364	   0.00047557
    15	     0.995086	    -0.070929
    16	     0.909091	   -0.0015912
    17	          2.2	  2.6588e-005
    18	     0.955259	    -0.026079
    19	     0.909091	  1.9915e-005
    20	         2.75	  -0.00019081
    21	     0.914598	   -0.0037685
    22	     0.909091	   0.00094999
    23	          3.3	  -0.00032057
    24	     0.876174	     0.011232
    25	          1.1	   0.00057719
    26	      3.63636	    0.0004279
    27	     0.830537	      0.01594
