%!PS-Adobe-3.0 EPSF-3.0
%%BoundingBox: 0 0 514 550
%%Creator: BioKin Ltd.
%%DocumentFonts: Symbol Helvetica
%%EndComments
%
/bkdict 256 dict def
bkdict begin
/M {moveto} def 
/R {rmoveto} def
/L {lineto} def
/rL {rlineto} def
/GSN {gsave newpath} def
/SGR {stroke grestore} def
/COSGR {gsave setrgbcolor stroke grestore grestore} def
/SL {setlinewidth} def
/LWMB {12} def             % line width - model curves, black & white
/LWMC {10} def             % line width - model curves, color
/L2 {2.5 setlinewidth} def
/L5 {5 setlinewidth} def
/L10 {10 setlinewidth} def
/G50 {0.5 setgray} def
/SDA {[10  20] 0 setdash} def % axes
/helvT {/Helvetica findfont 100 scalefont setfont} def % tiny
/helvS {/Helvetica findfont 125 scalefont setfont} def % small
/helvM {/Helvetica findfont 150 scalefont setfont} def % medium
/helvL {/Helvetica findfont 175 scalefont setfont} def % large
/xlabel {gsave M dup
   stringwidth exch -0.5 mul exch rmoveto show grestore} def 
/ylabel {gsave M 90 rotate dup
   stringwidth exch -0.5 mul exch rmoveto show grestore} def
/ylabelresid {gsave M dup
   stringwidth exch -1 mul exch rmoveto show grestore} def
% ======
% Shapes
% ======
% Circle:
/Circ {0 360 arc closepath} def
%
% Square:
/Squa {dup dup -0.5 mul dup dup R -2 mul 0 exch rL 1 mul 0 rL dup 0 exch -1 mul rL closepath} def
%
% Triangle Up:
/TriU {dup dup dup -0.4 mul exch -0.5 mul exch R dup 0.5 mul exch rL dup -1 mul exch 0.5 mul exch rL closepath} def 
%
% Triangle Down:
/TriD {dup dup dup 0.4 mul exch -0.5 mul exch R dup 0.5 mul exch -1 mul rL dup 0.5 mul exch rL closepath} def 
%
% Diamond:
/Diam {45 rotate Squa} def
% ======
% Fills
% ======
/GRF {gsave setgray fill grestore} def                    % gray-level Fill
/COF {gsave setrgbcolor fill grestore} def                % color fill
% ======
% Colors
% ======
/C01 {1.00	0.00	0.00} def      % Red
/C02 {0.00	0.00	1.00} def      % Blue
/C03 {0.00	0.39	0.00} def      % Dark Green
/C04 {0.78	0.08	0.52} def      % Medium Violet Red
/C05 {0.55	0.27	0.07} def      % Saddle Brown
/C06 {0.10	0.70	0.70} def      % (cyan)
/C07 {1.00	0.55	0.00} def      % Dark Orange
/C08 {0.63	0.13	0.94} def      % Purple
/C09 {0.00	0.75	1.00} def      % Deep Sky Blue
/C10 {0.20	0.80	0.20} def      % Lime Green
/C11 {0.47	0.53	0.60} def      % Light Slate Gray
/C12 {0.00	0.00	0.00} def      % Black            % or: {0.19	0.31	0.31} def      % Dark Slate Gray
%
/LGR {0.75} def % light gray
/DGR {0.33} def % dark gray
%
% =============
% Dash patterns
% =============
/dash01 { [80  20] 0 setdash } def
/dash02 { [40  20] 0 setdash } def
/dash03 { [80  20  10  20] 0 setdash } def
/dash04 { [40  20  10  20] 0 setdash } def
/dash05 { [80  20  10  10  10  20] 0 setdash } def
/dash06 { [40  20  10  10  10  20] 0 setdash } def
/dash07 { [10  10] 0 setdash } def
%
/MFshow {
   { dup 5 get 3 ge
     { 5 get 3 eq {gsave} {grestore} ifelse }
     {dup dup 0 get findfont exch 1 get scalefont setfont
     [ currentpoint ] exch dup 2 get 0 exch R dup 5 get 2 ne {dup dup 6
     get exch 4 get {show} {stringwidth pop 0 R} ifelse }if dup 5 get 0 eq
     {dup 3 get {2 get neg 0 exch R pop} {pop aload pop M} ifelse} {dup 5
     get 1 eq {dup 2 get exch dup 3 get exch 6 get stringwidth pop -2 div
     dup 0 R} {dup 6 get stringwidth pop -2 div 0 R 6 get
     show 2 index {aload pop M neg 3 -1 roll neg R pop pop} {pop pop pop
     pop aload pop M} ifelse }ifelse }ifelse }
     ifelse }
   forall} bind def
/MFwidth {0 exch {dup 3 get{dup dup 0 get findfont exch 1 get scalefont
     setfont 6 get stringwidth pop add} {pop} ifelse} forall} bind def
/MCshow { currentpoint stroke M
  exch dup MFwidth -2 div 3 -1 roll R MFshow } def
%
end
%%EndProlog
bkdict begin
0.1 0.1 scale
%
% Residuals:
%
GSN 620 2295 M
620 3166 L
620 3811 L
620 4444 L
620 4455 L
620 4436 L
620 4539 L
620 4585 L
620 4666 L
620 4600 L
620 4640 L
620 4351 L
620 4863 L
620 4435 L
620 4625 L
620 4702 L
620 4632 L
620 4691 L
620 4330 L
620 4483 L
620 4392 L
620 4230 L
620 4298 L
620 4401 L
620 4177 L
620 4450 L
620 4599 L
620 4377 L
620 4515 L
620 4283 L
620 4134 L
620 3801 L
620 3988 L
620 4020 L
620 4280 L
620 4266 L
620 4090 L
620 4104 L
620 4196 L
620 4177 L
620 4307 L
620 4499 L
620 3893 L
620 4020 L
620 3676 L
620 3828 L
620 3687 L
620 3980 L
620 3993 L
620 3915 L
620 4007 L
620 4091 L
620 3633 L
620 3189 L
620 3449 L
620 3711 L
620 3893 L
620 4101 L
620 3712 L
620 3565 L
620 3425 L
620 3847 L
620 3376 L
620 3533 L
620 3836 L
620 3747 L
620 3341 L
620 3595 L
620 3568 L
620 3405 L
620 3359 L
620 3712 L
620 3476 L
620 3581 L
620 3335 L
620 3560 L
620 3571 L
620 3522 L
620 3433 L
620 3438 L
620 3514 L
620 3262 L
620 3216 L
620 3305 L
620 3406 L
620 3332 L
620 3365 L
620 3387 L
620 2948 L
620 3029 L
620 3094 L
620 3508 L
620 2956 L
620 2612 L
620 3259 L
620 2864 L
620 3111 L
620 2721 L
620 3075 L
620 2961 L
620 2796 L
620 2642 L
620 2959 L
620 2807 L
620 2298 L
620 2758 L
620 2802 L
620 2334 L
620 2851 L
620 2639 L
620 2916 L
620 2477 L
620 2951 L
620 2937 L
620 2834 L
620 2667 L
620 2680 L
620 2721 L
620 2550 L
620 2620 L
620 2721 L
620 2694 L
620 2667 L
620 2374 L
620 2580 L
620 2531 L
620 2350 L
620 2499 L
620 2737 L
620 2388 L
620 2626 L
620 2404 L
620 2425 L
620 2355 L
620 2523 L
620 2474 L
620 2407 L
620 2425 L
620 2637 L
620 2358 L
620 2526 L
620 2323 L
620 2379 L
620 2436 L
620 2387 L
620 2350 L
620 2301 L
620 2342 L
620 2314 L
620 2482 L
620 2577 L
620 2366 L
620 2566 L
620 2840 L
620 2374 L
620 2306 L
620 2333 L
620 2661 L
620 2474 L
620 2466 L
620 2867 L
620 2772 L
620 2266 L
620 2612 L
620 2363 L
620 2585 L
620 2583 L
620 2561 L
620 2601 L
620 2599 L
620 2731 L
620 2374 L
620 2832 L
620 2813 L
620 2650 L
620 2956 L
620 2136 L
620 2455 L
620 2745 L
620 2469 L
620 2547 L
620 2566 L
620 2555 L
620 2661 L
620 2190 L
620 2691 L
620 2810 L
620 3308 L
620 2596 L
620 3154 L
620 2334 L
620 2880 L
620 2758 L
620 2355 L
620 2729 L
620 2804 L
620 2761 L
620 2458 L
620 2758 L
620 2553 L
620 2604 L
620 2626 L
620 2745 L
620 2805 L
620 2488 L
620 2561 L
620 2547 L
620 2924 L
620 2834 L
620 2491 L
620 2834 L
620 2704 L
620 2856 L
620 3078 L
620 2959 L
620 2905 L
620 2940 L
620 2948 L
620 3156 L
620 2777 L
620 2845 L
620 3116 L
620 2988 L
620 2699 L
620 2742 L
620 3016 L
620 2661 L
620 3051 L
620 2477 L
620 2737 L
620 2937 L
620 3118 L
620 3084 L
620 2916 L
620 2886 L
620 2750 L
620 2748 L
620 2840 L
620 2742 L
620 2945 L
620 2688 L
620 2664 L
620 2648 L
620 2856 L
620 2794 L
620 2788 L
620 2867 L
620 2669 L
620 2902 L
620 3108 L
620 3002 L
620 2650 L
620 3146 L
620 3257 L
620 2972 L
620 2764 L
620 2691 L
620 2872 L
620 2870 L
620 2669 L
620 2542 L
620 2721 L
620 2509 L
620 2656 L
620 3335 L
620 3129 L
620 2910 L
620 2951 L
620 3292 L
620 3232 L
620 2926 L
620 2563 L
620 2591 L
620 3202 L
620 3295 L
620 2945 L
620 3284 L
620 3102 L
620 2664 L
620 2948 L
620 2723 L
620 2859 L
620 3048 L
620 2978 L
620 2856 L
620 3197 L
620 2807 L
620 3146 L
620 3265 L
620 3124 L
620 3021 L
620 3219 L
620 3251 L
620 3175 L
620 3335 L
620 3400 L
620 3013 L
620 3140 L
620 2989 L
620 3254 L
620 2778 L
620 2967 L
620 2975 L
620 3018 L
620 3287 L
620 2997 L
620 3194 L
620 3460 L
620 3070 L
620 3111 L
620 3067 L
620 3254 L
620 2940 L
620 3010 L
620 3075 L
620 3089 L
620 3048 L
620 3067 L
620 3235 L
620 2823 L
620 3433 L
620 3508 L
620 2972 L
620 3238 L
620 2661 L
620 3075 L
620 3408 L
620 2899 L
620 2775 L
620 2994 L
620 3197 L
620 3457 L
620 3051 L
620 2786 L
620 3035 L
620 3078 L
620 3313 L
620 2975 L
620 3043 L
620 2953 L
620 2864 L
620 3240 L
620 3091 L
620 2910 L
620 3192 L
620 3013 L
620 3124 L
620 3351 L
620 2962 L
620 2851 L
620 3270 L
620 3189 L
620 2821 L
620 2832 L
620 3029 L
620 2791 L
620 2994 L
620 3083 L
620 2983 L
620 3490 L
620 2748 L
620 3178 L
620 3175 L
620 3427 L
620 2905 L
620 2999 L
620 2918 L
620 3129 L
620 2761 L
620 2991 L
620 2899 L
620 2937 L
620 3156 L
620 2777 L
620 3251 L
620 3324 L
620 3067 L
620 2880 L
620 2772 L
620 3216 L
620 3073 L
620 3202 L
620 2718 L
620 2994 L
620 3086 L
620 2989 L
620 3086 L
620 2926 L
620 3265 L
620 2964 L
620 3113 L
620 3018 L
620 3073 L
620 3081 L
620 3002 L
620 3027 L
620 3254 L
620 2821 L
620 2959 L
620 3127 L
620 3205 L
620 2845 L
620 3232 L
620 3059 L
620 3365 L
620 2742 L
620 3265 L
620 3121 L
620 3021 L
620 2894 L
620 3035 L
620 3062 L
620 3230 L
620 3205 L
620 2729 L
620 2831 L
620 3007 L
620 2875 L
620 3062 L
620 3238 L
620 2726 L
620 2826 L
620 2840 L
620 3165 L
620 2642 L
620 2940 L
620 2796 L
620 2975 L
620 3040 L
620 3135 L
620 3200 L
620 3089 L
620 2921 L
620 3143 L
620 3143 L
620 3132 L
620 3070 L
620 2967 L
620 2591 L
620 2883 L
620 3370 L
620 3251 L
620 2989 L
620 3105 L
620 3241 L
620 2639 L
620 3159 L
620 3129 L
620 2745 L
620 3056 L
620 2672 L
620 2970 L
620 3235 L
620 3311 L
620 2897 L
620 3384 L
620 2791 L
620 3062 L
620 3040 L
620 3354 L
620 2753 L
620 3273 L
620 3235 L
620 3065 L
620 2948 L
620 3007 L
620 2953 L
620 3357 L
620 2945 L
620 3094 L
620 3270 L
620 2997 L
620 3059 L
620 2989 L
620 3389 L
620 2986 L
620 2842 L
620 3265 L
620 3148 L
620 3216 L
620 2834 L
620 3184 L
620 3132 L
620 3303 L
620 3370 L
620 3238 L
620 3029 L
620 3162 L
620 3054 L
620 3167 L
620 3538 L
620 3108 L
620 3238 L
620 2975 L
620 3216 L
620 3013 L
620 3132 L
620 3121 L
620 3189 L
620 2899 L
620 2980 L
620 2772 L
620 3211 L
620 3527 L
620 2629 L
620 3360 L
620 3056 L
620 2967 L
620 3243 L
620 3311 L
620 3016 L
620 3381 L
620 3249 L
620 2967 L
620 3111 L
620 3081 L
620 3127 L
620 3349 L
620 3224 L
620 3048 L
620 3603 L
620 3062 L
620 3092 L
620 3276 L
620 3232 L
620 2802 L
620 3111 L
620 2712 L
620 3005 L
620 3165 L
620 3259 L
620 2975 L
620 3219 L
L2 C01 COSGR

%
%================
% Legend - Begin
%================
%
GSN 4240 5180 M
4480 5180 L
LWMC SL  C01 COSGR
GSN 4540 5141 M helvM (0.5 uM) show grestore
%
%================
% Legend - End
%================
%

%
% Main frame
%
L10
GSN 
620 1700 M
4220 1700 L
4220 5300 L
620 5300 L
closepath SGR

%
% X axis: large tics
%
L10
%
% X axis: small tics
%
L5
%
% Y axis: large tics
%
L10
GSN 620 2025 M 54 0 rL SGR
GSN 4220 2025 M -54 0 rL SGR
helvS (-0.02) 560 2025 ylabel
GSN 620 3089 M 54 0 rL SGR
GSN 4220 3089 M -54 0 rL SGR
helvS (0) 560 3089 ylabel
GSN 620 4154 M 54 0 rL SGR
GSN 4220 4154 M -54 0 rL SGR
helvS (0.02) 560 4154 ylabel
GSN 620 5219 M 54 0 rL SGR
GSN 4220 5219 M -54 0 rL SGR
helvS (0.04) 560 5219 ylabel
%
% Y axis: small tics
%
L5
GSN 620 1759 M 36 0 rL SGR
GSN 4220 1759 M -36 0 rL SGR
GSN 620 2025 M 36 0 rL SGR
GSN 4220 2025 M -36 0 rL SGR
GSN 620 2291 M 36 0 rL SGR
GSN 4220 2291 M -36 0 rL SGR
GSN 620 2557 M 36 0 rL SGR
GSN 4220 2557 M -36 0 rL SGR
GSN 620 2823 M 36 0 rL SGR
GSN 4220 2823 M -36 0 rL SGR
GSN 620 3089 M 36 0 rL SGR
GSN 4220 3089 M -36 0 rL SGR
GSN 620 3356 M 36 0 rL SGR
GSN 4220 3356 M -36 0 rL SGR
GSN 620 3622 M 36 0 rL SGR
GSN 4220 3622 M -36 0 rL SGR
GSN 620 3888 M 36 0 rL SGR
GSN 4220 3888 M -36 0 rL SGR
GSN 620 4154 M 36 0 rL SGR
GSN 4220 4154 M -36 0 rL SGR
GSN 620 4420 M 36 0 rL SGR
GSN 4220 4420 M -36 0 rL SGR
GSN 620 4686 M 36 0 rL SGR
GSN 4220 4686 M -36 0 rL SGR
GSN 620 4952 M 36 0 rL SGR
GSN 4220 4952 M -36 0 rL SGR
GSN 620 5219 M 36 0 rL SGR
GSN 4220 5219 M -36 0 rL SGR

%
% X axis - residual panel
%
GSN L5 620 3089 M 4220 3089 L SDA G50 SGR

%
% X-Axis label:
%
gsave 620 1370 M 
[
[(Helvetica) 180 0 true true 0 (t)]
[(Helvetica) 180 0 true true 0 (i)]
[(Helvetica) 180 0 true true 0 (m)]
[(Helvetica) 180 0 true true 0 (e)]
] 0 MCshow grestore

%
% Y-Axis label:
%
gsave 234 3500 M 
currentpoint gsave translate 90 rotate 0 0 moveto
[
[(Helvetica) 180 0 true true 0 (r)]
[(Helvetica) 180 0 true true 0 (e)]
[(Helvetica) 180 0 true true 0 (s)]
[(Helvetica) 180 0 true true 0 (i)]
[(Helvetica) 180 0 true true 0 (d)]
[(Helvetica) 180 0 true true 0 (u)]
[(Helvetica) 180 0 true true 0 (a)]
[(Helvetica) 180 0 true true 0 (l)]
[(Helvetica) 180 0 true true 0 (s)]
] 0 MCshow grestore

end
showpage
%%Trailer
%%EOF
