%!PS-Adobe-3.0 EPSF-3.0
%%BoundingBox: 0 0 514 550
%%Creator: BioKin Ltd.
%%DocumentFonts: Symbol Helvetica
%%EndComments
%
/bkdict 256 dict def
bkdict begin
/M {moveto} def 
/R {rmoveto} def
/L {lineto} def
/rL {rlineto} def
/GSN {gsave newpath} def
/SGR {stroke grestore} def
/COSGR {gsave setrgbcolor stroke grestore grestore} def
/SL {setlinewidth} def
/LWMB {12} def             % line width - model curves, black & white
/LWMC {10} def             % line width - model curves, color
/L2 {2.5 setlinewidth} def
/L5 {5 setlinewidth} def
/L10 {10 setlinewidth} def
/G50 {0.5 setgray} def
/SDA {[10  20] 0 setdash} def % axes
/helvT {/Helvetica findfont 100 scalefont setfont} def % tiny
/helvS {/Helvetica findfont 125 scalefont setfont} def % small
/helvM {/Helvetica findfont 150 scalefont setfont} def % medium
/helvL {/Helvetica findfont 175 scalefont setfont} def % large
/xlabel {gsave M dup
   stringwidth exch -0.5 mul exch rmoveto show grestore} def 
/ylabel {gsave M 90 rotate dup
   stringwidth exch -0.5 mul exch rmoveto show grestore} def
/ylabelresid {gsave M dup
   stringwidth exch -1 mul exch rmoveto show grestore} def
% ======
% Shapes
% ======
% Circle:
/Circ {0 360 arc closepath} def
%
% Square:
/Squa {dup dup -0.5 mul dup dup R -2 mul 0 exch rL 1 mul 0 rL dup 0 exch -1 mul rL closepath} def
%
% Triangle Up:
/TriU {dup dup dup -0.4 mul exch -0.5 mul exch R dup 0.5 mul exch rL dup -1 mul exch 0.5 mul exch rL closepath} def 
%
% Triangle Down:
/TriD {dup dup dup 0.4 mul exch -0.5 mul exch R dup 0.5 mul exch -1 mul rL dup 0.5 mul exch rL closepath} def 
%
% Diamond:
/Diam {45 rotate Squa} def
% ======
% Fills
% ======
/GRF {gsave setgray fill grestore} def                    % gray-level Fill
/COF {gsave setrgbcolor fill grestore} def                % color fill
% ======
% Colors
% ======
/C01 {1.00	0.00	0.00} def      % Red
/C02 {0.00	0.00	1.00} def      % Blue
/C03 {0.00	0.39	0.00} def      % Dark Green
/C04 {0.78	0.08	0.52} def      % Medium Violet Red
/C05 {0.55	0.27	0.07} def      % Saddle Brown
/C06 {0.10	0.70	0.70} def      % (cyan)
/C07 {1.00	0.55	0.00} def      % Dark Orange
/C08 {0.63	0.13	0.94} def      % Purple
/C09 {0.00	0.75	1.00} def      % Deep Sky Blue
/C10 {0.20	0.80	0.20} def      % Lime Green
/C11 {0.47	0.53	0.60} def      % Light Slate Gray
/C12 {0.00	0.00	0.00} def      % Black            % or: {0.19	0.31	0.31} def      % Dark Slate Gray
%
/LGR {0.75} def % light gray
/DGR {0.33} def % dark gray
%
% =============
% Dash patterns
% =============
/dash01 { [80  20] 0 setdash } def
/dash02 { [40  20] 0 setdash } def
/dash03 { [80  20  10  20] 0 setdash } def
/dash04 { [40  20  10  20] 0 setdash } def
/dash05 { [80  20  10  10  10  20] 0 setdash } def
/dash06 { [40  20  10  10  10  20] 0 setdash } def
/dash07 { [10  10] 0 setdash } def
%
/MFshow {
   { dup 5 get 3 ge
     { 5 get 3 eq {gsave} {grestore} ifelse }
     {dup dup 0 get findfont exch 1 get scalefont setfont
     [ currentpoint ] exch dup 2 get 0 exch R dup 5 get 2 ne {dup dup 6
     get exch 4 get {show} {stringwidth pop 0 R} ifelse }if dup 5 get 0 eq
     {dup 3 get {2 get neg 0 exch R pop} {pop aload pop M} ifelse} {dup 5
     get 1 eq {dup 2 get exch dup 3 get exch 6 get stringwidth pop -2 div
     dup 0 R} {dup 6 get stringwidth pop -2 div 0 R 6 get
     show 2 index {aload pop M neg 3 -1 roll neg R pop pop} {pop pop pop
     pop aload pop M} ifelse }ifelse }ifelse }
     ifelse }
   forall} bind def
/MFwidth {0 exch {dup 3 get{dup dup 0 get findfont exch 1 get scalefont
     setfont 6 get stringwidth pop add} {pop} ifelse} forall} bind def
/MCshow { currentpoint stroke M
  exch dup MFwidth -2 div 3 -1 roll R MFshow } def
%
end
%%EndProlog
bkdict begin
0.1 0.1 scale
%
% Residuals:
%
GSN 620 2136 M
620 4075 L
620 4407 L
620 4775 L
620 4630 L
620 4863 L
620 4601 L
620 4608 L
620 4611 L
620 4437 L
620 4427 L
620 4433 L
620 4203 L
620 4215 L
620 4231 L
620 4220 L
620 4352 L
620 4175 L
620 4221 L
620 4141 L
620 4138 L
620 4109 L
620 4124 L
620 3930 L
620 4056 L
620 4106 L
620 3824 L
620 3988 L
620 3777 L
620 3915 L
620 3807 L
620 3752 L
620 3799 L
620 3842 L
620 3794 L
620 3717 L
620 3807 L
620 3945 L
620 3618 L
620 3733 L
620 3731 L
620 3705 L
620 3682 L
620 3456 L
620 3746 L
620 3732 L
620 3507 L
620 3589 L
620 3399 L
620 3481 L
620 3514 L
620 3618 L
620 3647 L
620 3459 L
620 3399 L
620 3586 L
620 3302 L
620 3400 L
620 3400 L
620 3228 L
620 3223 L
620 3344 L
620 3396 L
620 3336 L
620 3246 L
620 3216 L
620 3102 L
620 3251 L
620 3221 L
620 3171 L
620 3259 L
620 3350 L
620 3183 L
620 3154 L
620 3176 L
620 3252 L
620 3111 L
620 3042 L
620 3320 L
620 3036 L
620 3262 L
620 2802 L
620 3131 L
620 2863 L
620 2831 L
620 2908 L
620 2772 L
620 2736 L
620 2838 L
620 2810 L
620 2739 L
620 2705 L
620 2591 L
620 2633 L
620 2655 L
620 2846 L
620 2595 L
620 2641 L
620 2667 L
620 2640 L
620 2338 L
620 2450 L
620 2574 L
620 2548 L
620 2542 L
620 2412 L
620 2512 L
620 2636 L
620 2482 L
620 2489 L
620 2421 L
620 2340 L
620 2567 L
620 2453 L
620 2414 L
620 2447 L
620 2509 L
620 2306 L
620 2393 L
620 2502 L
620 2395 L
620 2419 L
620 2377 L
620 2412 L
620 2399 L
620 2415 L
620 2438 L
620 2439 L
620 2484 L
620 2301 L
620 2436 L
620 2544 L
620 2418 L
620 2448 L
620 2427 L
620 2492 L
620 2433 L
620 2405 L
620 2389 L
620 2429 L
620 2472 L
620 2467 L
620 2451 L
620 2493 L
620 2489 L
620 2573 L
620 2610 L
620 2237 L
620 2315 L
620 2425 L
620 2607 L
620 2556 L
620 2428 L
620 2512 L
620 2517 L
620 2504 L
620 2479 L
620 2576 L
620 2460 L
620 2515 L
620 2399 L
620 2509 L
620 2617 L
620 2444 L
620 2587 L
620 2531 L
620 2521 L
620 2509 L
620 2684 L
620 2527 L
620 2674 L
620 2607 L
620 2627 L
620 2688 L
620 2541 L
620 2541 L
620 2674 L
620 2639 L
620 2548 L
620 2578 L
620 2587 L
620 2658 L
620 2764 L
620 2624 L
620 2705 L
620 2604 L
620 2724 L
620 2725 L
620 2568 L
620 2639 L
620 2664 L
620 2748 L
620 2546 L
620 2633 L
620 2710 L
620 2702 L
620 2586 L
620 2631 L
620 2612 L
620 2728 L
620 2667 L
620 2739 L
620 2540 L
620 2872 L
620 2680 L
620 2696 L
620 2739 L
620 2668 L
620 2730 L
620 2790 L
620 2711 L
620 2693 L
620 2779 L
620 2595 L
620 2700 L
620 2773 L
620 2858 L
620 2817 L
620 2792 L
620 2790 L
620 2794 L
620 2775 L
620 2906 L
620 2878 L
620 2888 L
620 2661 L
620 2789 L
620 2986 L
620 2866 L
620 2884 L
620 2799 L
620 2884 L
620 2852 L
620 2747 L
620 2881 L
620 2808 L
620 3012 L
620 3000 L
620 2773 L
620 2960 L
620 2839 L
620 2896 L
620 2841 L
620 2993 L
620 2838 L
620 2772 L
620 2722 L
620 2977 L
620 2798 L
620 2801 L
620 2784 L
620 2799 L
620 2871 L
620 2946 L
620 2979 L
620 2853 L
620 2858 L
620 2866 L
620 2961 L
620 2781 L
620 2809 L
620 3106 L
620 2980 L
620 2976 L
620 3027 L
620 2964 L
620 2956 L
620 2907 L
620 2809 L
620 2952 L
620 3053 L
620 2894 L
620 2703 L
620 2976 L
620 2923 L
620 2943 L
620 3042 L
620 2875 L
620 2984 L
620 2991 L
620 3089 L
620 3099 L
620 3113 L
620 3131 L
620 3253 L
620 3014 L
620 3189 L
620 3354 L
620 3221 L
620 3281 L
620 3116 L
620 3267 L
620 3276 L
620 3263 L
620 3293 L
620 3286 L
620 3083 L
620 3318 L
620 3268 L
620 3228 L
620 3251 L
620 3335 L
620 3245 L
620 3204 L
620 3387 L
620 3106 L
620 3399 L
620 3270 L
620 3271 L
620 3225 L
620 3240 L
620 3306 L
620 3216 L
620 3197 L
620 3209 L
620 3294 L
620 3263 L
620 3179 L
620 3242 L
620 3237 L
620 3138 L
620 3175 L
620 3241 L
620 3309 L
620 3246 L
620 3247 L
620 3166 L
620 3186 L
620 3152 L
620 3235 L
620 3330 L
620 3195 L
620 3386 L
620 3368 L
620 3193 L
620 3309 L
620 3267 L
620 3176 L
620 3239 L
620 3533 L
620 3240 L
620 3321 L
620 3158 L
620 3121 L
620 3201 L
620 3160 L
620 3237 L
620 3323 L
620 3177 L
620 3251 L
620 3148 L
620 3118 L
620 3128 L
620 2998 L
620 3338 L
620 3074 L
620 3203 L
620 3156 L
620 3279 L
620 3185 L
620 3171 L
620 3240 L
620 3283 L
620 3219 L
620 3039 L
620 3232 L
620 3228 L
620 3114 L
620 3056 L
620 3158 L
620 3063 L
620 3325 L
620 3170 L
620 3180 L
620 3095 L
620 3193 L
620 3055 L
620 3212 L
620 3219 L
620 3023 L
620 2904 L
620 3163 L
620 3255 L
620 3071 L
620 3012 L
620 3106 L
620 3059 L
620 3145 L
620 2968 L
620 3145 L
620 3167 L
620 3179 L
620 3069 L
620 3107 L
620 3230 L
620 2990 L
620 2944 L
620 3200 L
620 2976 L
620 3115 L
620 2873 L
620 3038 L
620 2939 L
620 3106 L
620 3299 L
620 3060 L
620 2992 L
620 3099 L
620 2817 L
620 3017 L
620 3087 L
620 3141 L
620 2964 L
620 3158 L
620 2972 L
620 3093 L
620 3080 L
620 3099 L
620 3166 L
620 2913 L
620 3119 L
620 2936 L
620 3005 L
620 3033 L
620 3125 L
620 3043 L
620 2987 L
620 3107 L
620 2944 L
620 3009 L
620 3044 L
620 3099 L
620 3048 L
620 3183 L
620 3056 L
620 3228 L
620 2990 L
620 3149 L
620 3089 L
620 3069 L
620 3064 L
620 3072 L
620 3057 L
620 2990 L
620 3004 L
620 3288 L
620 3056 L
620 2958 L
620 3095 L
620 3050 L
620 3237 L
620 2999 L
620 3204 L
620 3212 L
620 3004 L
620 3160 L
620 3041 L
620 3126 L
620 3140 L
620 3175 L
620 2885 L
620 3196 L
620 2937 L
620 3033 L
620 3016 L
620 3127 L
620 3137 L
620 2822 L
620 2965 L
620 2972 L
620 3083 L
620 3191 L
620 2975 L
620 3010 L
620 2763 L
620 3090 L
620 2969 L
620 3108 L
620 2771 L
620 3022 L
620 3185 L
620 2883 L
620 2909 L
620 2950 L
620 2922 L
620 3021 L
620 3042 L
620 3078 L
620 3052 L
620 3004 L
620 3007 L
620 2896 L
620 3076 L
620 3069 L
620 2744 L
620 3033 L
620 2953 L
620 3055 L
620 2985 L
620 3023 L
620 3121 L
620 3037 L
620 2927 L
620 2871 L
620 3023 L
620 3051 L
620 2889 L
620 2869 L
620 3039 L
620 3086 L
620 2899 L
620 3070 L
620 3007 L
620 2873 L
620 3023 L
620 3029 L
620 3310 L
620 2983 L
620 2973 L
620 3094 L
620 2944 L
620 3036 L
620 3131 L
620 3051 L
620 3049 L
620 2928 L
620 3032 L
620 3072 L
620 3031 L
620 2949 L
620 2932 L
620 2998 L
620 2965 L
L2 C04 COSGR

%
%================
% Legend - Begin
%================
%
GSN 4240 5180 M
4480 5180 L
LWMC SL  C04 COSGR
GSN 4540 5141 M helvM (2.0 uM) show grestore
%
%================
% Legend - End
%================
%

%
% Main frame
%
L10
GSN 
620 1700 M
4220 1700 L
4220 5300 L
620 5300 L
closepath SGR

%
% X axis: large tics
%
L10
%
% X axis: small tics
%
L5
%
% Y axis: large tics
%
L10
GSN 620 2165 M 54 0 rL SGR
GSN 4220 2165 M -54 0 rL SGR
helvS (-0.025) 560 2165 ylabel
GSN 620 3040 M 54 0 rL SGR
GSN 4220 3040 M -54 0 rL SGR
helvS (0) 560 3040 ylabel
GSN 620 3916 M 54 0 rL SGR
GSN 4220 3916 M -54 0 rL SGR
helvS (0.025) 560 3916 ylabel
GSN 620 4791 M 54 0 rL SGR
GSN 4220 4791 M -54 0 rL SGR
helvS (0.05) 560 4791 ylabel
%
% Y axis: small tics
%
L5
GSN 620 1727 M 36 0 rL SGR
GSN 4220 1727 M -36 0 rL SGR
GSN 620 2165 M 36 0 rL SGR
GSN 4220 2165 M -36 0 rL SGR
GSN 620 2603 M 36 0 rL SGR
GSN 4220 2603 M -36 0 rL SGR
GSN 620 3040 M 36 0 rL SGR
GSN 4220 3040 M -36 0 rL SGR
GSN 620 3478 M 36 0 rL SGR
GSN 4220 3478 M -36 0 rL SGR
GSN 620 3916 M 36 0 rL SGR
GSN 4220 3916 M -36 0 rL SGR
GSN 620 4354 M 36 0 rL SGR
GSN 4220 4354 M -36 0 rL SGR
GSN 620 4791 M 36 0 rL SGR
GSN 4220 4791 M -36 0 rL SGR
GSN 620 5229 M 36 0 rL SGR
GSN 4220 5229 M -36 0 rL SGR

%
% X axis - residual panel
%
GSN L5 620 3040 M 4220 3040 L SDA G50 SGR

%
% X-Axis label:
%
gsave 620 1370 M 
[
[(Helvetica) 180 0 true true 0 (t)]
[(Helvetica) 180 0 true true 0 (i)]
[(Helvetica) 180 0 true true 0 (m)]
[(Helvetica) 180 0 true true 0 (e)]
] 0 MCshow grestore

%
% Y-Axis label:
%
gsave 234 3499 M 
currentpoint gsave translate 90 rotate 0 0 moveto
[
[(Helvetica) 180 0 true true 0 (r)]
[(Helvetica) 180 0 true true 0 (e)]
[(Helvetica) 180 0 true true 0 (s)]
[(Helvetica) 180 0 true true 0 (i)]
[(Helvetica) 180 0 true true 0 (d)]
[(Helvetica) 180 0 true true 0 (u)]
[(Helvetica) 180 0 true true 0 (a)]
[(Helvetica) 180 0 true true 0 (l)]
[(Helvetica) 180 0 true true 0 (s)]
] 0 MCshow grestore

end
showpage
%%Trailer
%%EOF
