%!PS-Adobe-3.0 EPSF-3.0
%%BoundingBox: 0 0 514 550
%%Creator: BioKin Ltd.
%%DocumentFonts: Symbol Helvetica
%%EndComments
%
/bkdict 256 dict def
bkdict begin
/M {moveto} def 
/R {rmoveto} def
/L {lineto} def
/rL {rlineto} def
/GSN {gsave newpath} def
/SGR {stroke grestore} def
/COSGR {gsave setrgbcolor stroke grestore grestore} def
/SL {setlinewidth} def
/LWMB {12} def             % line width - model curves, black & white
/LWMC {10} def             % line width - model curves, color
/L2 {2.5 setlinewidth} def
/L5 {5 setlinewidth} def
/L10 {10 setlinewidth} def
/G50 {0.5 setgray} def
/SDA {[10  20] 0 setdash} def % axes
/helvT {/Helvetica findfont 100 scalefont setfont} def % tiny
/helvS {/Helvetica findfont 125 scalefont setfont} def % small
/helvM {/Helvetica findfont 150 scalefont setfont} def % medium
/helvL {/Helvetica findfont 175 scalefont setfont} def % large
/xlabel {gsave M dup
   stringwidth exch -0.5 mul exch rmoveto show grestore} def 
/ylabel {gsave M 90 rotate dup
   stringwidth exch -0.5 mul exch rmoveto show grestore} def
/ylabelresid {gsave M dup
   stringwidth exch -1 mul exch rmoveto show grestore} def
% ======
% Shapes
% ======
% Circle:
/Circ {0 360 arc closepath} def
%
% Square:
/Squa {dup dup -0.5 mul dup dup R -2 mul 0 exch rL 1 mul 0 rL dup 0 exch -1 mul rL closepath} def
%
% Triangle Up:
/TriU {dup dup dup -0.4 mul exch -0.5 mul exch R dup 0.5 mul exch rL dup -1 mul exch 0.5 mul exch rL closepath} def 
%
% Triangle Down:
/TriD {dup dup dup 0.4 mul exch -0.5 mul exch R dup 0.5 mul exch -1 mul rL dup 0.5 mul exch rL closepath} def 
%
% Diamond:
/Diam {45 rotate Squa} def
% ======
% Fills
% ======
/GRF {gsave setgray fill grestore} def                    % gray-level Fill
/COF {gsave setrgbcolor fill grestore} def                % color fill
% ======
% Colors
% ======
/C01 {1.00	0.00	0.00} def      % Red
/C02 {0.00	0.00	1.00} def      % Blue
/C03 {0.00	0.39	0.00} def      % Dark Green
/C04 {0.78	0.08	0.52} def      % Medium Violet Red
/C05 {0.55	0.27	0.07} def      % Saddle Brown
/C06 {0.10	0.70	0.70} def      % (cyan)
/C07 {1.00	0.55	0.00} def      % Dark Orange
/C08 {0.63	0.13	0.94} def      % Purple
/C09 {0.00	0.75	1.00} def      % Deep Sky Blue
/C10 {0.20	0.80	0.20} def      % Lime Green
/C11 {0.47	0.53	0.60} def      % Light Slate Gray
/C12 {0.00	0.00	0.00} def      % Black            % or: {0.19	0.31	0.31} def      % Dark Slate Gray
%
/LGR {0.75} def % light gray
/DGR {0.33} def % dark gray
%
% =============
% Dash patterns
% =============
/dash01 { [80  20] 0 setdash } def
/dash02 { [40  20] 0 setdash } def
/dash03 { [80  20  10  20] 0 setdash } def
/dash04 { [40  20  10  20] 0 setdash } def
/dash05 { [80  20  10  10  10  20] 0 setdash } def
/dash06 { [40  20  10  10  10  20] 0 setdash } def
/dash07 { [10  10] 0 setdash } def
%
/MFshow {
   { dup 5 get 3 ge
     { 5 get 3 eq {gsave} {grestore} ifelse }
     {dup dup 0 get findfont exch 1 get scalefont setfont
     [ currentpoint ] exch dup 2 get 0 exch R dup 5 get 2 ne {dup dup 6
     get exch 4 get {show} {stringwidth pop 0 R} ifelse }if dup 5 get 0 eq
     {dup 3 get {2 get neg 0 exch R pop} {pop aload pop M} ifelse} {dup 5
     get 1 eq {dup 2 get exch dup 3 get exch 6 get stringwidth pop -2 div
     dup 0 R} {dup 6 get stringwidth pop -2 div 0 R 6 get
     show 2 index {aload pop M neg 3 -1 roll neg R pop pop} {pop pop pop
     pop aload pop M} ifelse }ifelse }ifelse }
     ifelse }
   forall} bind def
/MFwidth {0 exch {dup 3 get{dup dup 0 get findfont exch 1 get scalefont
     setfont 6 get stringwidth pop add} {pop} ifelse} forall} bind def
/MCshow { currentpoint stroke M
  exch dup MFwidth -2 div 3 -1 roll R MFshow } def
%
end
%%EndProlog
bkdict begin
0.1 0.1 scale
%
% Residuals:
%
GSN 620 2966 M
620 2375 L
620 3516 L
620 3031 L
620 3831 L
620 3321 L
620 3535 L
620 3550 L
620 3230 L
620 2969 L
620 3422 L
620 3256 L
620 3834 L
620 3232 L
620 3459 L
620 3418 L
620 3482 L
620 3327 L
620 3192 L
620 3257 L
620 2911 L
620 3047 L
620 3525 L
620 3193 L
620 3009 L
620 3690 L
620 3364 L
620 3456 L
620 3325 L
620 3573 L
620 3397 L
620 2910 L
620 3556 L
620 2934 L
620 3751 L
620 3770 L
620 2978 L
620 3809 L
620 2649 L
620 3907 L
620 3443 L
620 3765 L
620 3163 L
620 3749 L
620 3682 L
620 3297 L
620 3261 L
620 3390 L
620 3749 L
620 3530 L
620 3453 L
620 3794 L
620 3421 L
620 3403 L
620 3464 L
620 3542 L
620 3308 L
620 3788 L
620 3630 L
620 3255 L
620 3229 L
620 4009 L
620 3089 L
620 3876 L
620 3161 L
620 3726 L
620 2896 L
620 3404 L
620 2860 L
620 3440 L
620 3517 L
620 3189 L
620 3151 L
620 3669 L
620 2862 L
620 2831 L
620 3715 L
620 2939 L
620 2964 L
620 3295 L
620 3824 L
620 2885 L
620 2899 L
620 3329 L
620 3348 L
620 3286 L
620 3548 L
620 3432 L
620 2995 L
620 2893 L
620 2748 L
620 3063 L
620 3203 L
620 3333 L
620 2557 L
620 2828 L
620 3454 L
620 3245 L
620 2594 L
620 3658 L
620 3492 L
620 3263 L
620 3323 L
620 3163 L
620 3297 L
620 2901 L
620 2456 L
620 2899 L
620 2733 L
620 3296 L
620 3292 L
620 3381 L
620 3215 L
620 2825 L
620 2822 L
620 3394 L
620 2579 L
620 3169 L
620 2316 L
620 3332 L
620 2627 L
620 2702 L
620 2902 L
620 3504 L
620 3005 L
620 3670 L
620 3569 L
620 2484 L
620 3115 L
620 2545 L
620 3211 L
620 3006 L
620 2749 L
620 2136 L
620 3304 L
620 2718 L
620 2878 L
620 3315 L
620 3542 L
620 2988 L
620 3013 L
620 2542 L
620 2638 L
620 2574 L
620 2988 L
620 3092 L
620 3341 L
620 2896 L
620 3402 L
620 3069 L
620 2950 L
620 2951 L
620 2775 L
620 2542 L
620 2788 L
620 2874 L
620 2761 L
620 2656 L
620 2978 L
620 2901 L
620 3038 L
620 3379 L
620 3491 L
620 3566 L
620 2989 L
620 3414 L
620 3908 L
620 3108 L
620 3223 L
620 3052 L
620 3698 L
620 2922 L
620 3020 L
620 3404 L
620 3442 L
620 3269 L
620 2863 L
620 3460 L
620 3518 L
620 3180 L
620 2991 L
620 3471 L
620 3419 L
620 3318 L
620 2762 L
620 3467 L
620 3117 L
620 3282 L
620 2927 L
620 4160 L
620 3648 L
620 2902 L
620 3965 L
620 2954 L
620 3477 L
620 3907 L
620 3495 L
620 3636 L
620 3695 L
620 3892 L
620 3649 L
620 3906 L
620 2724 L
620 3074 L
620 3568 L
620 3342 L
620 3377 L
620 3246 L
620 3479 L
620 3268 L
620 3388 L
620 3467 L
620 3856 L
620 3674 L
620 3519 L
620 3767 L
620 3278 L
620 3462 L
620 3174 L
620 3383 L
620 3337 L
620 3879 L
620 3559 L
620 3368 L
620 3378 L
620 3780 L
620 4261 L
620 3490 L
620 3826 L
620 3043 L
620 3428 L
620 3495 L
620 3538 L
620 3403 L
620 3772 L
620 3911 L
620 3591 L
620 4020 L
620 3317 L
620 2787 L
620 3829 L
620 3174 L
620 4035 L
620 4090 L
620 3672 L
620 2696 L
620 3620 L
620 4122 L
620 3718 L
620 3268 L
620 3782 L
620 3897 L
620 4161 L
620 3567 L
620 3585 L
620 3773 L
620 3912 L
620 3697 L
620 3791 L
620 3705 L
620 3768 L
620 3379 L
620 3582 L
620 3968 L
620 3708 L
620 3476 L
620 3708 L
620 3598 L
620 3547 L
620 3433 L
620 2907 L
620 3248 L
620 3734 L
620 4026 L
620 3678 L
620 3785 L
620 4001 L
620 3467 L
620 3888 L
620 3681 L
620 3467 L
620 3991 L
620 3801 L
620 4638 L
620 4004 L
620 3676 L
620 3632 L
620 3393 L
620 3990 L
620 3648 L
620 4174 L
620 3810 L
620 4349 L
620 4309 L
620 4217 L
620 4623 L
620 4273 L
620 4143 L
620 4271 L
620 4588 L
620 4491 L
620 4012 L
620 4586 L
620 4161 L
620 4117 L
620 4675 L
620 3631 L
620 4409 L
620 4123 L
620 4449 L
620 4625 L
620 3790 L
620 3896 L
620 4544 L
620 4692 L
620 4513 L
620 3994 L
620 3460 L
620 4425 L
620 3847 L
620 3737 L
620 4207 L
620 4612 L
620 3722 L
620 3993 L
620 4302 L
620 4030 L
620 4381 L
620 4415 L
620 4863 L
620 4484 L
620 4781 L
620 3912 L
620 4489 L
620 4249 L
620 4766 L
620 3892 L
620 3620 L
620 3530 L
620 4606 L
620 4070 L
620 4700 L
620 4234 L
620 4230 L
620 4296 L
620 4345 L
620 4319 L
620 3831 L
620 4015 L
620 4344 L
620 4361 L
620 3970 L
620 3689 L
620 4004 L
620 4045 L
620 3791 L
620 3799 L
620 3834 L
620 3927 L
620 4349 L
620 4373 L
620 3869 L
620 4157 L
620 3476 L
620 3816 L
620 3764 L
620 4174 L
620 4428 L
620 3446 L
620 4162 L
620 3534 L
620 3535 L
620 3633 L
620 3774 L
620 3625 L
620 3588 L
620 3900 L
620 3708 L
620 4101 L
620 3543 L
620 3549 L
620 4200 L
620 3384 L
620 4147 L
620 3665 L
620 4025 L
620 3811 L
620 4075 L
620 3490 L
620 3823 L
620 3609 L
620 3513 L
620 3701 L
620 3766 L
620 4100 L
620 2940 L
620 4149 L
620 3570 L
620 3452 L
620 4027 L
620 3367 L
620 3603 L
620 3518 L
620 3491 L
620 3497 L
620 3282 L
620 4099 L
620 3256 L
620 3390 L
620 3477 L
620 3230 L
620 3134 L
620 3591 L
620 3924 L
620 3586 L
620 3699 L
620 3833 L
620 4274 L
620 3742 L
620 4006 L
620 4356 L
620 3985 L
620 3501 L
620 3615 L
620 4211 L
620 3648 L
620 3626 L
620 2907 L
620 4137 L
620 3133 L
620 3530 L
620 3772 L
620 3579 L
620 3268 L
620 3520 L
620 3934 L
620 3838 L
620 4063 L
620 4306 L
620 3494 L
620 4456 L
620 3607 L
620 3704 L
620 3301 L
620 3710 L
620 3361 L
620 3893 L
620 3426 L
620 3764 L
620 3517 L
620 3694 L
620 3754 L
620 3356 L
620 4012 L
620 3244 L
620 3937 L
620 3727 L
620 3986 L
620 3491 L
620 3094 L
620 3272 L
620 3234 L
620 3572 L
620 3787 L
620 3573 L
620 3395 L
620 4159 L
620 3277 L
620 4234 L
620 4089 L
620 2735 L
620 3240 L
620 3509 L
620 4191 L
620 3310 L
620 3842 L
620 3794 L
620 3192 L
620 2903 L
620 3424 L
620 3590 L
620 3751 L
620 3795 L
620 3499 L
620 3564 L
620 3908 L
620 3274 L
620 3274 L
620 3849 L
620 3769 L
620 3537 L
620 3274 L
620 3516 L
620 4053 L
620 3119 L
620 2839 L
620 2958 L
620 3796 L
620 3581 L
620 3259 L
620 4081 L
620 3753 L
620 3323 L
620 3146 L
620 3243 L
620 3399 L
620 3495 L
620 3291 L
620 3077 L
620 3893 L
620 3286 L
620 3453 L
620 4140 L
620 3399 L
620 2857 L
620 3673 L
620 3001 L
620 3872 L
620 3722 L
620 3539 L
620 3228 L
620 4023 L
620 3120 L
620 3625 L
620 3416 L
620 4039 L
620 3636 L
620 3448 L
620 3620 L
620 3701 L
620 3959 L
620 3529 L
620 3642 L
L2 C02 COSGR

%
%================
% Legend - Begin
%================
%
GSN 4240 5180 M
4480 5180 L
LWMC SL  C02 COSGR
GSN 4540 5141 M helvM (1.0 uM) show grestore
%
%================
% Legend - End
%================
%

%
% Main frame
%
L10
GSN 
620 1700 M
4220 1700 L
4220 5300 L
620 5300 L
closepath SGR

%
% X axis: large tics
%
L10
%
% X axis: small tics
%
L5
%
% Y axis: large tics
%
L10
GSN 620 2495 M 54 0 rL SGR
GSN 4220 2495 M -54 0 rL SGR
helvS (-0.01) 560 2495 ylabel
GSN 620 3551 M 54 0 rL SGR
GSN 4220 3551 M -54 0 rL SGR
helvS (0) 560 3551 ylabel
GSN 620 4607 M 54 0 rL SGR
GSN 4220 4607 M -54 0 rL SGR
helvS (0.01) 560 4607 ylabel
%
% Y axis: small tics
%
L5
GSN 620 1702 M 36 0 rL SGR
GSN 4220 1702 M -36 0 rL SGR
GSN 620 1966 M 36 0 rL SGR
GSN 4220 1966 M -36 0 rL SGR
GSN 620 2231 M 36 0 rL SGR
GSN 4220 2231 M -36 0 rL SGR
GSN 620 2495 M 36 0 rL SGR
GSN 4220 2495 M -36 0 rL SGR
GSN 620 2759 M 36 0 rL SGR
GSN 4220 2759 M -36 0 rL SGR
GSN 620 3023 M 36 0 rL SGR
GSN 4220 3023 M -36 0 rL SGR
GSN 620 3287 M 36 0 rL SGR
GSN 4220 3287 M -36 0 rL SGR
GSN 620 3551 M 36 0 rL SGR
GSN 4220 3551 M -36 0 rL SGR
GSN 620 3815 M 36 0 rL SGR
GSN 4220 3815 M -36 0 rL SGR
GSN 620 4079 M 36 0 rL SGR
GSN 4220 4079 M -36 0 rL SGR
GSN 620 4343 M 36 0 rL SGR
GSN 4220 4343 M -36 0 rL SGR
GSN 620 4607 M 36 0 rL SGR
GSN 4220 4607 M -36 0 rL SGR
GSN 620 4871 M 36 0 rL SGR
GSN 4220 4871 M -36 0 rL SGR
GSN 620 5135 M 36 0 rL SGR
GSN 4220 5135 M -36 0 rL SGR

%
% X axis - residual panel
%
GSN L5 620 3551 M 4220 3551 L SDA G50 SGR

%
% X-Axis label:
%
gsave 620 1370 M 
[
[(Helvetica) 180 0 true true 0 (t)]
[(Helvetica) 180 0 true true 0 (i)]
[(Helvetica) 180 0 true true 0 (m)]
[(Helvetica) 180 0 true true 0 (e)]
] 0 MCshow grestore

%
% Y-Axis label:
%
gsave 234 3500 M 
currentpoint gsave translate 90 rotate 0 0 moveto
[
[(Helvetica) 180 0 true true 0 (r)]
[(Helvetica) 180 0 true true 0 (e)]
[(Helvetica) 180 0 true true 0 (s)]
[(Helvetica) 180 0 true true 0 (i)]
[(Helvetica) 180 0 true true 0 (d)]
[(Helvetica) 180 0 true true 0 (u)]
[(Helvetica) 180 0 true true 0 (a)]
[(Helvetica) 180 0 true true 0 (l)]
[(Helvetica) 180 0 true true 0 (s)]
] 0 MCshow grestore

end
showpage
%%Trailer
%%EOF
