%!PS-Adobe-3.0 EPSF-3.0
%%BoundingBox: 0 0 514 550
%%Creator: BioKin Ltd.
%%DocumentFonts: Symbol Helvetica
%%EndComments
%
/bkdict 256 dict def
bkdict begin
/M {moveto} def 
/R {rmoveto} def
/L {lineto} def
/rL {rlineto} def
/GSN {gsave newpath} def
/SGR {stroke grestore} def
/COSGR {gsave setrgbcolor stroke grestore grestore} def
/SL {setlinewidth} def
/LWMB {12} def             % line width - model curves, black & white
/LWMC {10} def             % line width - model curves, color
/L2 {2.5 setlinewidth} def
/L5 {5 setlinewidth} def
/L10 {10 setlinewidth} def
/G50 {0.5 setgray} def
/SDA {[10  20] 0 setdash} def % axes
/helvT {/Helvetica findfont 100 scalefont setfont} def % tiny
/helvS {/Helvetica findfont 125 scalefont setfont} def % small
/helvM {/Helvetica findfont 150 scalefont setfont} def % medium
/helvL {/Helvetica findfont 175 scalefont setfont} def % large
/xlabel {gsave M dup
   stringwidth exch -0.5 mul exch rmoveto show grestore} def 
/ylabel {gsave M 90 rotate dup
   stringwidth exch -0.5 mul exch rmoveto show grestore} def
/ylabelresid {gsave M dup
   stringwidth exch -1 mul exch rmoveto show grestore} def
% ======
% Shapes
% ======
% Circle:
/Circ {0 360 arc closepath} def
%
% Square:
/Squa {dup dup -0.5 mul dup dup R -2 mul 0 exch rL 1 mul 0 rL dup 0 exch -1 mul rL closepath} def
%
% Triangle Up:
/TriU {dup dup dup -0.4 mul exch -0.5 mul exch R dup 0.5 mul exch rL dup -1 mul exch 0.5 mul exch rL closepath} def 
%
% Triangle Down:
/TriD {dup dup dup 0.4 mul exch -0.5 mul exch R dup 0.5 mul exch -1 mul rL dup 0.5 mul exch rL closepath} def 
%
% Diamond:
/Diam {45 rotate Squa} def
% ======
% Fills
% ======
/GRF {gsave setgray fill grestore} def                    % gray-level Fill
/COF {gsave setrgbcolor fill grestore} def                % color fill
% ======
% Colors
% ======
/C01 {1.00	0.00	0.00} def      % Red
/C02 {0.00	0.00	1.00} def      % Blue
/C03 {0.00	0.39	0.00} def      % Dark Green
/C04 {0.78	0.08	0.52} def      % Medium Violet Red
/C05 {0.55	0.27	0.07} def      % Saddle Brown
/C06 {0.10	0.70	0.70} def      % (cyan)
/C07 {1.00	0.55	0.00} def      % Dark Orange
/C08 {0.63	0.13	0.94} def      % Purple
/C09 {0.00	0.75	1.00} def      % Deep Sky Blue
/C10 {0.20	0.80	0.20} def      % Lime Green
/C11 {0.47	0.53	0.60} def      % Light Slate Gray
/C12 {0.00	0.00	0.00} def      % Black            % or: {0.19	0.31	0.31} def      % Dark Slate Gray
%
/LGR {0.75} def % light gray
/DGR {0.33} def % dark gray
%
% =============
% Dash patterns
% =============
/dash01 { [80  20] 0 setdash } def
/dash02 { [40  20] 0 setdash } def
/dash03 { [80  20  10  20] 0 setdash } def
/dash04 { [40  20  10  20] 0 setdash } def
/dash05 { [80  20  10  10  10  20] 0 setdash } def
/dash06 { [40  20  10  10  10  20] 0 setdash } def
/dash07 { [10  10] 0 setdash } def
%
/MFshow {
   { dup 5 get 3 ge
     { 5 get 3 eq {gsave} {grestore} ifelse }
     {dup dup 0 get findfont exch 1 get scalefont setfont
     [ currentpoint ] exch dup 2 get 0 exch R dup 5 get 2 ne {dup dup 6
     get exch 4 get {show} {stringwidth pop 0 R} ifelse }if dup 5 get 0 eq
     {dup 3 get {2 get neg 0 exch R pop} {pop aload pop M} ifelse} {dup 5
     get 1 eq {dup 2 get exch dup 3 get exch 6 get stringwidth pop -2 div
     dup 0 R} {dup 6 get stringwidth pop -2 div 0 R 6 get
     show 2 index {aload pop M neg 3 -1 roll neg R pop pop} {pop pop pop
     pop aload pop M} ifelse }ifelse }ifelse }
     ifelse }
   forall} bind def
/MFwidth {0 exch {dup 3 get{dup dup 0 get findfont exch 1 get scalefont
     setfont 6 get stringwidth pop add} {pop} ifelse} forall} bind def
/MCshow { currentpoint stroke M
  exch dup MFwidth -2 div 3 -1 roll R MFshow } def
%
end
%%EndProlog
bkdict begin
0.1 0.1 scale
%
% Residuals:
%
GSN 620 3325 M
620 2706 L
620 3880 L
620 3371 L
620 4193 L
620 3658 L
620 3873 L
620 3882 L
620 3544 L
620 3268 L
620 3731 L
620 3553 L
620 4146 L
620 3517 L
620 3746 L
620 3699 L
620 3760 L
620 3595 L
620 3449 L
620 3512 L
620 3149 L
620 3285 L
620 3776 L
620 3428 L
620 3232 L
620 3933 L
620 3591 L
620 3682 L
620 3543 L
620 3796 L
620 3610 L
620 3102 L
620 3766 L
620 3119 L
620 3962 L
620 3977 L
620 3154 L
620 4012 L
620 2807 L
620 4106 L
620 3623 L
620 3953 L
620 3327 L
620 3931 L
620 3859 L
620 3457 L
620 3417 L
620 3548 L
620 3916 L
620 3687 L
620 3605 L
620 3955 L
620 3567 L
620 3545 L
620 3607 L
620 3684 L
620 3440 L
620 3935 L
620 3769 L
620 3379 L
620 3350 L
620 4156 L
620 3201 L
620 4014 L
620 3271 L
620 3854 L
620 2993 L
620 3518 L
620 2953 L
620 3551 L
620 3628 L
620 3288 L
620 3247 L
620 3782 L
620 2944 L
620 2911 L
620 3825 L
620 3019 L
620 3044 L
620 3385 L
620 3932 L
620 2953 L
620 2963 L
620 3404 L
620 3419 L
620 3351 L
620 3619 L
620 3495 L
620 3039 L
620 2931 L
620 2778 L
620 3102 L
620 3245 L
620 3377 L
620 2573 L
620 2851 L
620 3498 L
620 3280 L
620 2605 L
620 3706 L
620 3533 L
620 3295 L
620 3356 L
620 3191 L
620 3328 L
620 2918 L
620 2457 L
620 2916 L
620 2744 L
620 3326 L
620 3322 L
620 3414 L
620 3242 L
620 2839 L
620 2836 L
620 3429 L
620 2585 L
620 3196 L
620 2313 L
620 3366 L
620 2636 L
620 2714 L
620 2922 L
620 3545 L
620 3030 L
620 3719 L
620 3615 L
620 2492 L
620 3146 L
620 2556 L
620 3247 L
620 3035 L
620 2770 L
620 2136 L
620 3346 L
620 2740 L
620 2907 L
620 3360 L
620 3596 L
620 3023 L
620 3049 L
620 2562 L
620 2663 L
620 2597 L
620 3027 L
620 3136 L
620 3394 L
620 2934 L
620 3459 L
620 3116 L
620 2993 L
620 2996 L
620 2814 L
620 2574 L
620 2829 L
620 2919 L
620 2803 L
620 2695 L
620 3030 L
620 2951 L
620 3093 L
620 3447 L
620 3564 L
620 3643 L
620 3045 L
620 3487 L
620 3999 L
620 3172 L
620 3292 L
620 3116 L
620 3786 L
620 2983 L
620 3085 L
620 3484 L
620 3523 L
620 3346 L
620 2926 L
620 3545 L
620 3605 L
620 3256 L
620 3061 L
620 3559 L
620 3506 L
620 3403 L
620 2828 L
620 3559 L
620 3197 L
620 3368 L
620 3001 L
620 4279 L
620 3749 L
620 2978 L
620 4079 L
620 3032 L
620 3575 L
620 4021 L
620 3595 L
620 3742 L
620 3804 L
620 4008 L
620 3757 L
620 4024 L
620 2801 L
620 3163 L
620 3676 L
620 3442 L
620 3479 L
620 3345 L
620 3586 L
620 3369 L
620 3493 L
620 3576 L
620 3979 L
620 3791 L
620 3631 L
620 3889 L
620 3383 L
620 3574 L
620 3277 L
620 3493 L
620 3446 L
620 4007 L
620 3676 L
620 3479 L
620 3491 L
620 3907 L
620 4406 L
620 3608 L
620 3957 L
620 3146 L
620 3545 L
620 3615 L
620 3659 L
620 3520 L
620 3903 L
620 4048 L
620 3716 L
620 4161 L
620 3434 L
620 2886 L
620 3965 L
620 3287 L
620 4179 L
620 4236 L
620 3804 L
620 2793 L
620 3751 L
620 4271 L
620 3852 L
620 3387 L
620 3920 L
620 4039 L
620 4313 L
620 3698 L
620 3717 L
620 3912 L
620 4057 L
620 3833 L
620 3932 L
620 3842 L
620 3908 L
620 3506 L
620 3717 L
620 4116 L
620 3847 L
620 3608 L
620 3848 L
620 3734 L
620 3682 L
620 3564 L
620 3020 L
620 3373 L
620 3876 L
620 4179 L
620 3818 L
620 3929 L
620 4153 L
620 3600 L
620 4037 L
620 3823 L
620 3601 L
620 4147 L
620 3951 L
620 4817 L
620 4158 L
620 3814 L
620 3764 L
620 3511 L
620 4124 L
620 3765 L
620 4303 L
620 3920 L
620 4472 L
620 4424 L
620 4322 L
620 4738 L
620 4369 L
620 4229 L
620 4356 L
620 4679 L
620 4573 L
620 4072 L
620 4661 L
620 4216 L
620 4166 L
620 4740 L
620 3655 L
620 4456 L
620 4156 L
620 4490 L
620 4668 L
620 3800 L
620 3906 L
620 4573 L
620 4724 L
620 4535 L
620 3995 L
620 3439 L
620 4435 L
620 3834 L
620 3717 L
620 4201 L
620 4618 L
620 3695 L
620 3973 L
620 4290 L
620 4006 L
620 4368 L
620 4402 L
620 4863 L
620 4468 L
620 4774 L
620 3873 L
620 4468 L
620 4218 L
620 4752 L
620 3845 L
620 3562 L
620 3467 L
620 4580 L
620 4024 L
620 4674 L
620 4190 L
620 4185 L
620 4252 L
620 4301 L
620 4274 L
620 3767 L
620 3957 L
620 4296 L
620 4312 L
620 3907 L
620 3612 L
620 3934 L
620 3973 L
620 3707 L
620 3712 L
620 3745 L
620 3840 L
620 4274 L
620 4296 L
620 3773 L
620 4068 L
620 3362 L
620 3712 L
620 3657 L
620 4079 L
620 4340 L
620 3323 L
620 4063 L
620 3412 L
620 3411 L
620 3512 L
620 3656 L
620 3501 L
620 3462 L
620 3784 L
620 3584 L
620 3990 L
620 3411 L
620 3417 L
620 4090 L
620 3245 L
620 4034 L
620 3534 L
620 3907 L
620 3684 L
620 3957 L
620 3350 L
620 3695 L
620 3473 L
620 3372 L
620 3567 L
620 3634 L
620 3979 L
620 2778 L
620 4029 L
620 3428 L
620 3306 L
620 3901 L
620 3217 L
620 3462 L
620 3373 L
620 3345 L
620 3350 L
620 3128 L
620 3973 L
620 3100 L
620 3239 L
620 3328 L
620 3072 L
620 2972 L
620 3445 L
620 3790 L
620 3439 L
620 3556 L
620 3695 L
620 4151 L
620 3600 L
620 3873 L
620 4235 L
620 3851 L
620 3350 L
620 3467 L
620 4085 L
620 3501 L
620 3478 L
620 2733 L
620 4007 L
620 2967 L
620 3378 L
620 3629 L
620 3428 L
620 3106 L
620 3367 L
620 3795 L
620 3695 L
620 3929 L
620 4179 L
620 3339 L
620 4335 L
620 3456 L
620 3556 L
620 3139 L
620 3562 L
620 3200 L
620 3751 L
620 3267 L
620 3618 L
620 3361 L
620 3545 L
620 3606 L
620 3194 L
620 3873 L
620 3078 L
620 3795 L
620 3578 L
620 3845 L
620 3334 L
620 2922 L
620 3106 L
620 3067 L
620 3417 L
620 3639 L
620 3417 L
620 3233 L
620 4024 L
620 3111 L
620 4101 L
620 3951 L
620 2549 L
620 3072 L
620 3350 L
620 4057 L
620 3144 L
620 3695 L
620 3645 L
620 3022 L
620 2722 L
620 3261 L
620 3433 L
620 3600 L
620 3645 L
620 3339 L
620 3406 L
620 3762 L
620 3105 L
620 3105 L
620 3701 L
620 3618 L
620 3378 L
620 3105 L
620 3356 L
620 3912 L
620 2944 L
620 2655 L
620 2778 L
620 3645 L
620 3423 L
620 3089 L
620 3940 L
620 3601 L
620 3156 L
620 2972 L
620 3072 L
620 3234 L
620 3334 L
620 3122 L
620 2900 L
620 3746 L
620 3117 L
620 3289 L
620 4001 L
620 3233 L
620 2672 L
620 3517 L
620 2821 L
620 3723 L
620 3568 L
620 3378 L
620 3055 L
620 3879 L
620 2944 L
620 3467 L
620 3250 L
620 3895 L
620 3478 L
620 3284 L
620 3462 L
620 3545 L
620 3812 L
620 3367 L
620 3484 L
L2 C02 COSGR

%
%================
% Legend - Begin
%================
%
GSN 4240 5180 M
4480 5180 L
LWMC SL  C02 COSGR
GSN 4540 5141 M helvM (1.0 uM) show grestore
%
%================
% Legend - End
%================
%

%
% Main frame
%
L10
GSN 
620 1700 M
4220 1700 L
4220 5300 L
620 5300 L
closepath SGR

%
% X axis: large tics
%
L10
%
% X axis: small tics
%
L5
%
% Y axis: large tics
%
L10
GSN 620 2472 M 54 0 rL SGR
GSN 4220 2472 M -54 0 rL SGR
helvS (-0.01) 560 2472 ylabel
GSN 620 3566 M 54 0 rL SGR
GSN 4220 3566 M -54 0 rL SGR
helvS (0) 560 3566 ylabel
GSN 620 4659 M 54 0 rL SGR
GSN 4220 4659 M -54 0 rL SGR
helvS (0.01) 560 4659 ylabel
%
% Y axis: small tics
%
L5
GSN 620 1925 M 36 0 rL SGR
GSN 4220 1925 M -36 0 rL SGR
GSN 620 2199 M 36 0 rL SGR
GSN 4220 2199 M -36 0 rL SGR
GSN 620 2472 M 36 0 rL SGR
GSN 4220 2472 M -36 0 rL SGR
GSN 620 2746 M 36 0 rL SGR
GSN 4220 2746 M -36 0 rL SGR
GSN 620 3019 M 36 0 rL SGR
GSN 4220 3019 M -36 0 rL SGR
GSN 620 3292 M 36 0 rL SGR
GSN 4220 3292 M -36 0 rL SGR
GSN 620 3566 M 36 0 rL SGR
GSN 4220 3566 M -36 0 rL SGR
GSN 620 3839 M 36 0 rL SGR
GSN 4220 3839 M -36 0 rL SGR
GSN 620 4113 M 36 0 rL SGR
GSN 4220 4113 M -36 0 rL SGR
GSN 620 4386 M 36 0 rL SGR
GSN 4220 4386 M -36 0 rL SGR
GSN 620 4659 M 36 0 rL SGR
GSN 4220 4659 M -36 0 rL SGR
GSN 620 4933 M 36 0 rL SGR
GSN 4220 4933 M -36 0 rL SGR
GSN 620 5206 M 36 0 rL SGR
GSN 4220 5206 M -36 0 rL SGR

%
% X axis - residual panel
%
GSN L5 620 3566 M 4220 3566 L SDA G50 SGR

%
% X-Axis label:
%
gsave 620 1370 M 
[
[(Helvetica) 180 0 true true 0 (t)]
[(Helvetica) 180 0 true true 0 (i)]
[(Helvetica) 180 0 true true 0 (m)]
[(Helvetica) 180 0 true true 0 (e)]
] 0 MCshow grestore

%
% Y-Axis label:
%
gsave 234 3500 M 
currentpoint gsave translate 90 rotate 0 0 moveto
[
[(Helvetica) 180 0 true true 0 (r)]
[(Helvetica) 180 0 true true 0 (e)]
[(Helvetica) 180 0 true true 0 (s)]
[(Helvetica) 180 0 true true 0 (i)]
[(Helvetica) 180 0 true true 0 (d)]
[(Helvetica) 180 0 true true 0 (u)]
[(Helvetica) 180 0 true true 0 (a)]
[(Helvetica) 180 0 true true 0 (l)]
[(Helvetica) 180 0 true true 0 (s)]
] 0 MCshow grestore

end
showpage
%%Trailer
%%EOF
