%!PS-Adobe-3.0 EPSF-3.0
%%BoundingBox: 0 0 514 550
%%Creator: BioKin Ltd.
%%DocumentFonts: Symbol Helvetica
%%EndComments
%
/bkdict 256 dict def
bkdict begin
/M {moveto} def 
/R {rmoveto} def
/L {lineto} def
/rL {rlineto} def
/GSN {gsave newpath} def
/SGR {stroke grestore} def
/COSGR {gsave setrgbcolor stroke grestore grestore} def
/SL {setlinewidth} def
/LWMB {12} def             % line width - model curves, black & white
/LWMC {10} def             % line width - model curves, color
/L2 {2.5 setlinewidth} def
/L5 {5 setlinewidth} def
/L10 {10 setlinewidth} def
/G50 {0.5 setgray} def
/SDA {[10  20] 0 setdash} def % axes
/helvT {/Helvetica findfont 100 scalefont setfont} def % tiny
/helvS {/Helvetica findfont 125 scalefont setfont} def % small
/helvM {/Helvetica findfont 150 scalefont setfont} def % medium
/helvL {/Helvetica findfont 175 scalefont setfont} def % large
/xlabel {gsave M dup
   stringwidth exch -0.5 mul exch rmoveto show grestore} def 
/ylabel {gsave M 90 rotate dup
   stringwidth exch -0.5 mul exch rmoveto show grestore} def
/ylabelresid {gsave M dup
   stringwidth exch -1 mul exch rmoveto show grestore} def
% ======
% Shapes
% ======
% Circle:
/Circ {0 360 arc closepath} def
%
% Square:
/Squa {dup dup -0.5 mul dup dup R -2 mul 0 exch rL 1 mul 0 rL dup 0 exch -1 mul rL closepath} def
%
% Triangle Up:
/TriU {dup dup dup -0.4 mul exch -0.5 mul exch R dup 0.5 mul exch rL dup -1 mul exch 0.5 mul exch rL closepath} def 
%
% Triangle Down:
/TriD {dup dup dup 0.4 mul exch -0.5 mul exch R dup 0.5 mul exch -1 mul rL dup 0.5 mul exch rL closepath} def 
%
% Diamond:
/Diam {45 rotate Squa} def
% ======
% Fills
% ======
/GRF {gsave setgray fill grestore} def                    % gray-level Fill
/COF {gsave setrgbcolor fill grestore} def                % color fill
% ======
% Colors
% ======
/C01 {1.00	0.00	0.00} def      % Red
/C02 {0.00	0.00	1.00} def      % Blue
/C03 {0.00	0.39	0.00} def      % Dark Green
/C04 {0.78	0.08	0.52} def      % Medium Violet Red
/C05 {0.55	0.27	0.07} def      % Saddle Brown
/C06 {0.10	0.70	0.70} def      % (cyan)
/C07 {1.00	0.55	0.00} def      % Dark Orange
/C08 {0.63	0.13	0.94} def      % Purple
/C09 {0.00	0.75	1.00} def      % Deep Sky Blue
/C10 {0.20	0.80	0.20} def      % Lime Green
/C11 {0.47	0.53	0.60} def      % Light Slate Gray
/C12 {0.00	0.00	0.00} def      % Black            % or: {0.19	0.31	0.31} def      % Dark Slate Gray
%
/LGR {0.75} def % light gray
/DGR {0.33} def % dark gray
%
% =============
% Dash patterns
% =============
/dash01 { [80  20] 0 setdash } def
/dash02 { [40  20] 0 setdash } def
/dash03 { [80  20  10  20] 0 setdash } def
/dash04 { [40  20  10  20] 0 setdash } def
/dash05 { [80  20  10  10  10  20] 0 setdash } def
/dash06 { [40  20  10  10  10  20] 0 setdash } def
/dash07 { [10  10] 0 setdash } def
%
/MFshow {
   { dup 5 get 3 ge
     { 5 get 3 eq {gsave} {grestore} ifelse }
     {dup dup 0 get findfont exch 1 get scalefont setfont
     [ currentpoint ] exch dup 2 get 0 exch R dup 5 get 2 ne {dup dup 6
     get exch 4 get {show} {stringwidth pop 0 R} ifelse }if dup 5 get 0 eq
     {dup 3 get {2 get neg 0 exch R pop} {pop aload pop M} ifelse} {dup 5
     get 1 eq {dup 2 get exch dup 3 get exch 6 get stringwidth pop -2 div
     dup 0 R} {dup 6 get stringwidth pop -2 div 0 R 6 get
     show 2 index {aload pop M neg 3 -1 roll neg R pop pop} {pop pop pop
     pop aload pop M} ifelse }ifelse }ifelse }
     ifelse }
   forall} bind def
/MFwidth {0 exch {dup 3 get{dup dup 0 get findfont exch 1 get scalefont
     setfont 6 get stringwidth pop add} {pop} ifelse} forall} bind def
/MCshow { currentpoint stroke M
  exch dup MFwidth -2 div 3 -1 roll R MFshow } def
%
end
%%EndProlog
bkdict begin
0.1 0.1 scale
%
% Model curves:
%

GSN 753 2642 M
753 2642 L
786 2642 L
820 2642 L
853 2642 L
886 2642 L
903 2642 L
919 2642 L
953 2642 L
986 2642 L
1020 2642 L
1053 2642 L
1053 2642 L
1086 2642 L
1120 2642 L
1153 2642 L
1186 2642 L
1203 2642 L
1220 2642 L
1253 2642 L
1286 2642 L
1320 2642 L
1353 2642 L
1353 2642 L
1386 2642 L
1420 2642 L
1453 2642 L
1486 2642 L
1503 2642 L
1520 2642 L
1553 2642 L
1586 2642 L
1620 2642 L
1653 2642 L
1653 2642 L
1686 2642 L
1720 2642 L
1753 2642 L
1786 2642 L
1804 2642 L
1820 2642 L
1853 2642 L
1886 2642 L
1920 2642 L
1953 2642 L
1954 2642 L
1986 2642 L
2020 2642 L
2053 2642 L
2086 2642 L
2104 2642 L
2120 2642 L
2153 2642 L
2186 2642 L
2220 2642 L
2253 2642 L
2254 2642 L
2286 2642 L
2320 2641 L
2353 2641 L
2386 2641 L
2404 2641 L
2420 2641 L
2453 2641 L
2486 2641 L
2520 2641 L
2553 2641 L
2554 2641 L
2586 2641 L
2620 2641 L
2653 2641 L
2686 2641 L
2704 2641 L
2720 2641 L
2753 2641 L
2786 2641 L
2820 2640 L
2853 2640 L
2854 2640 L
2886 2640 L
2920 2640 L
2953 2639 L
2986 2639 L
3004 2639 L
3020 2639 L
3053 2638 L
3068 2638 L
3086 2637 L
3120 2637 L
3153 2636 L
3155 2636 L
3186 2635 L
3220 2634 L
3253 2633 L
3286 2631 L
3305 2630 L
3320 2630 L
3353 2628 L
3386 2625 L
3420 2623 L
3453 2620 L
3455 2619 L
3486 2616 L
3520 2612 L
3553 2607 L
3586 2602 L
3605 2598 L
3620 2596 L
3653 2589 L
3686 2581 L
3720 2571 L
3753 2561 L
3755 2561 L
3786 2550 L
3820 2537 L
3853 2522 L
3886 2507 L
3905 2497 L
3920 2489 L
3953 2471 L
3986 2451 L
4020 2430 L
4053 2408 L
4086 2385 L
LWMC SL  C07 COSGR

%
% Experimental data:
%
GSN 773 5166 M
1625 4710 L
1773 4536 L
1860 4489 L
1922 4484 L
1970 4133 L
2009 4493 L
2043 4264 L
2072 4252 L
2097 4140 L
2120 3865 L
2140 4095 L
2159 3872 L
2176 3785 L
2192 3868 L
2207 3717 L
2221 3657 L
2234 3777 L
2247 3501 L
2259 3673 L
2270 3717 L
2280 3580 L
2290 3714 L
2300 3467 L
2309 3609 L
2318 3659 L
2326 3361 L
2335 3467 L
2342 3433 L
2350 3538 L
2357 3284 L
2364 3131 L
2371 3524 L
2378 3198 L
2384 3372 L
2391 3263 L
2397 3199 L
2403 3211 L
2409 3164 L
2414 3113 L
2420 2940 L
2425 3166 L
2430 3053 L
2435 3041 L
2440 3038 L
2445 2914 L
2450 3039 L
2455 2818 L
2459 2823 L
2464 2896 L
2468 2894 L
2472 2730 L
2476 2662 L
2481 2623 L
2485 2885 L
2489 2742 L
2492 2857 L
2496 2712 L
2500 2806 L
2504 2823 L
2507 2664 L
2511 2809 L
2514 2798 L
2518 2880 L
2521 2671 L
2525 2560 L
2528 2560 L
2531 2600 L
2534 2359 L
2538 2634 L
2541 2582 L
2544 2497 L
2547 2802 L
2550 2396 L
2553 2535 L
2556 2687 L
2559 2349 L
2561 2328 L
2564 2551 L
2567 2467 L
2570 2459 L
2580 2398 L
2590 2425 L
2600 2519 L
2609 2322 L
2618 2197 L
2627 2345 L
2635 2117 L
2643 2174 L
2650 2184 L
2658 2334 L
2665 2064 L
2672 2273 L
2678 2151 L
2685 2049 L
2691 2073 L
2697 2007 L
2703 1992 L
2709 2115 L
2714 2001 L
2720 2200 L
2725 2028 L
2730 2112 L
2735 1931 L
2740 2088 L
2745 1925 L
2750 2038 L
2755 1982 L
2759 2134 L
2764 2085 L
2768 2102 L
2772 1977 L
2777 1868 L
2781 1833 L
2785 1998 L
2789 1971 L
2793 2032 L
2796 2186 L
2800 2098 L
2804 2009 L
2808 2009 L
2811 1971 L
2815 2034 L
2818 1913 L
2822 2089 L
2825 2035 L
2828 1898 L
2831 1951 L
2835 2018 L
2838 2023 L
2841 1990 L
2844 2101 L
2847 2007 L
2850 2135 L
2853 1863 L
2856 2156 L
2859 1935 L
2862 2296 L
2864 2128 L
2867 2203 L
2870 2136 L
2873 1919 L
2875 2190 L
2878 2193 L
2880 2173 L
2883 2110 L
2886 2243 L
2888 1981 L
2891 2104 L
2893 2052 L
2895 2203 L
2898 2117 L
2900 2174 L
2902 2129 L
2905 2017 L
2907 2374 L
2909 2172 L
2912 2137 L
2914 2271 L
2916 1965 L
2918 2273 L
2920 2324 L
2922 2244 L
2925 2195 L
2927 2261 L
2929 2194 L
2931 2217 L
2933 2198 L
2935 2263 L
2937 2310 L
2939 2290 L
2941 2183 L
2943 2287 L
2945 2390 L
2947 2320 L
2948 2223 L
2950 2324 L
2952 2177 L
2954 2369 L
2956 2341 L
2958 2248 L
2959 2443 L
2961 2301 L
2963 2345 L
2965 2275 L
2966 2220 L
2968 2261 L
2970 2313 L
2972 2252 L
2973 2631 L
2975 2445 L
2977 2298 L
2978 2459 L
2980 2232 L
2982 2483 L
2983 2514 L
2985 2539 L
2986 2436 L
2988 2390 L
2989 2428 L
2991 2348 L
2993 2365 L
2994 2516 L
2996 2436 L
2997 2447 L
2999 2428 L
3000 2554 L
3002 2475 L
3003 2373 L
3005 2454 L
3006 2330 L
3007 2596 L
3009 2193 L
3010 2508 L
3012 2407 L
3013 2549 L
3014 2451 L
3016 2437 L
3017 2482 L
3019 2488 L
3020 2543 L
3021 2604 L
3023 2363 L
3024 2464 L
3025 2445 L
3027 2523 L
3028 2349 L
3029 2566 L
3031 2527 L
3032 2414 L
3033 2570 L
3034 2441 L
3036 2540 L
3037 2457 L
3038 2450 L
3039 2558 L
3041 2600 L
3042 2641 L
3043 2448 L
3044 2558 L
3045 2636 L
3047 2499 L
3048 2636 L
3049 2494 L
3050 2322 L
3051 2570 L
3053 2636 L
3054 2577 L
3055 2449 L
3056 2480 L
3057 2735 L
3058 2522 L
3059 2549 L
3061 2622 L
3062 2759 L
3063 2422 L
3064 2403 L
3065 2563 L
3066 2688 L
3067 2810 L
3068 2596 L
3069 2533 L
3070 2725 L
3071 2575 L
3073 2640 L
3074 2483 L
3075 2565 L
3076 2360 L
3077 2547 L
3078 2476 L
3079 2765 L
3080 2692 L
3081 2841 L
3082 2527 L
3083 2559 L
3084 2751 L
3085 2688 L
3086 2699 L
3087 2532 L
3088 2425 L
3089 2606 L
3112 2755 L
3133 2398 L
3152 2918 L
3170 2762 L
3186 2817 L
3201 2726 L
3216 2861 L
3229 2766 L
3241 2589 L
3253 2564 L
3264 2784 L
3275 2774 L
3285 2743 L
3295 2782 L
3304 2740 L
3313 2922 L
3322 2771 L
3330 2649 L
3338 2868 L
3346 2780 L
3353 2912 L
3360 2988 L
3367 2794 L
3374 2699 L
3380 2738 L
3387 2784 L
3393 2850 L
3399 2642 L
3405 2574 L
3410 2807 L
3416 2768 L
3421 3011 L
3426 2881 L
3431 2813 L
3436 2760 L
3441 2781 L
3446 2849 L
3451 3041 L
3455 2907 L
3460 2940 L
3464 2860 L
3469 2676 L
3473 2876 L
3477 2858 L
3481 2703 L
3485 2802 L
3489 2941 L
3493 2864 L
3496 2754 L
3500 2998 L
3504 2734 L
3507 2803 L
3511 2822 L
3514 3032 L
3518 2642 L
3521 2834 L
3525 2802 L
3528 2772 L
3531 2780 L
3534 2765 L
3537 2715 L
3540 2685 L
3543 2818 L
3546 2838 L
3549 2989 L
3552 2562 L
3555 2854 L
3558 2858 L
3561 2796 L
3564 2830 L
3566 2812 L
3575 2820 L
3586 2928 L
3595 2736 L
3605 2900 L
3613 2676 L
3622 2695 L
3630 2679 L
3638 2617 L
3646 2760 L
3653 2681 L
3660 2631 L
3667 2680 L
3674 2954 L
3681 2620 L
3687 2751 L
3693 2666 L
3699 2639 L
3705 2681 L
3710 2956 L
3716 2567 L
3721 2611 L
3727 2564 L
3732 2637 L
3737 2562 L
3742 2548 L
3746 2547 L
3751 2602 L
3756 2661 L
3760 2429 L
3764 2642 L
3769 2529 L
3773 2734 L
3777 2696 L
3781 2568 L
3785 2638 L
3789 2469 L
3793 2461 L
3797 2567 L
3800 2499 L
3804 2638 L
3808 2506 L
3811 2689 L
3815 2516 L
3818 2608 L
3821 2740 L
3825 2481 L
3828 2519 L
3831 2559 L
3834 2416 L
3838 2418 L
3841 2670 L
3844 2646 L
3847 2257 L
3850 2503 L
3853 2716 L
3855 2500 L
3858 2637 L
3861 2681 L
3864 2683 L
3867 2400 L
3869 2680 L
3872 2430 L
3875 2654 L
3877 2394 L
3880 2412 L
3882 2387 L
3885 2525 L
3887 2580 L
3890 2660 L
3892 2519 L
3895 2538 L
3897 2546 L
3899 2519 L
3902 2535 L
3904 2592 L
3906 2467 L
3908 2488 L
3911 2643 L
3913 2239 L
3915 2289 L
3917 2527 L
3919 2507 L
3921 2527 L
3923 2614 L
3926 2396 L
3928 2612 L
3930 2554 L
3932 2414 L
3934 2653 L
3936 2628 L
3938 2504 L
3940 2600 L
3942 2480 L
3943 2526 L
3945 2469 L
3947 2544 L
3949 2616 L
3951 2545 L
3953 2465 L
3955 2210 L
3956 2587 L
3958 2640 L
3960 2586 L
3962 2340 L
3963 2355 L
3965 2504 L
3967 2630 L
3969 2415 L
3970 2362 L
3972 2619 L
3974 2554 L
3975 2465 L
3977 2350 L
3978 2344 L
3980 2486 L
3982 2432 L
3983 2373 L
3985 2383 L
3986 2267 L
3988 2493 L
3990 2300 L
3991 2459 L
3993 2462 L
3994 2574 L
3996 2393 L
3997 2408 L
3999 2587 L
4000 2538 L
4001 2418 L
4003 2277 L
4004 2352 L
4006 2427 L
4007 2438 L
4009 2311 L
4010 2480 L
4011 2494 L
4013 2493 L
4014 2477 L
4016 2507 L
4017 2183 L
4018 2391 L
4020 2271 L
4021 2426 L
4022 2501 L
4024 2244 L
4025 2672 L
4026 2418 L
4028 2556 L
4029 2490 L
4030 2236 L
4031 2281 L
4033 2287 L
4034 2484 L
4035 2291 L
4036 2177 L
4038 2536 L
4039 2324 L
4040 2349 L
4041 2408 L
4042 2262 L
4044 2304 L
4045 2534 L
4046 2307 L
4047 2477 L
4048 2347 L
4050 2382 L
4051 2599 L
4052 2437 L
4053 2522 L
4054 2203 L
4055 2365 L
4056 2408 L
4058 2500 L
4059 2306 L
4060 2350 L
4061 2448 L
4062 2210 L
4063 2422 L
4064 2384 L
4065 2434 L
4066 2569 L
L2 C07 COSGR

%
%================
% Legend - Begin
%================
%
GSN 4240 5180 M
4480 5180 L
LWMC SL  C07 COSGR
GSN 4540 5141 M helvM (4.0 uM) show grestore
%
%================
% Legend - End
%================
%

%
% Residuals:
%
GSN 773 1569 M
1625 1457 L
1773 1414 L
1860 1402 L
1922 1401 L
1970 1315 L
2009 1403 L
2043 1347 L
2072 1344 L
2097 1317 L
2120 1249 L
2140 1306 L
2159 1251 L
2176 1230 L
2192 1250 L
2207 1213 L
2221 1198 L
2234 1227 L
2247 1160 L
2259 1202 L
2270 1213 L
2280 1179 L
2290 1212 L
2300 1151 L
2309 1186 L
2318 1199 L
2326 1125 L
2335 1151 L
2342 1143 L
2350 1169 L
2357 1107 L
2364 1069 L
2371 1165 L
2378 1085 L
2384 1128 L
2391 1101 L
2397 1086 L
2403 1089 L
2409 1077 L
2414 1065 L
2420 1022 L
2425 1078 L
2430 1050 L
2435 1047 L
2440 1046 L
2445 1016 L
2450 1046 L
2455 992 L
2459 993 L
2464 1011 L
2468 1011 L
2472 971 L
2476 954 L
2481 944 L
2485 1009 L
2489 974 L
2492 1002 L
2496 966 L
2500 989 L
2504 993 L
2507 954 L
2511 990 L
2514 987 L
2518 1007 L
2521 956 L
2525 929 L
2528 929 L
2531 939 L
2534 879 L
2538 947 L
2541 934 L
2544 913 L
2547 988 L
2550 889 L
2553 923 L
2556 960 L
2559 877 L
2561 872 L
2564 927 L
2567 906 L
2570 904 L
2580 889 L
2590 896 L
2600 919 L
2609 870 L
2618 840 L
2627 876 L
2635 820 L
2643 834 L
2650 836 L
2658 873 L
2665 807 L
2672 858 L
2678 828 L
2685 803 L
2691 809 L
2697 793 L
2703 789 L
2709 820 L
2714 792 L
2720 840 L
2725 798 L
2730 819 L
2735 775 L
2740 813 L
2745 773 L
2750 801 L
2755 787 L
2759 824 L
2764 812 L
2768 816 L
2772 786 L
2777 759 L
2781 750 L
2785 791 L
2789 784 L
2793 799 L
2796 837 L
2800 816 L
2804 794 L
2808 794 L
2811 784 L
2815 800 L
2818 770 L
2822 813 L
2825 800 L
2828 766 L
2831 779 L
2835 796 L
2838 797 L
2841 789 L
2844 816 L
2847 793 L
2850 825 L
2853 758 L
2856 830 L
2859 776 L
2862 864 L
2864 823 L
2867 842 L
2870 825 L
2873 772 L
2875 838 L
2878 839 L
2880 834 L
2883 819 L
2886 851 L
2888 787 L
2891 817 L
2893 804 L
2895 842 L
2898 820 L
2900 834 L
2902 823 L
2905 796 L
2907 884 L
2909 834 L
2912 825 L
2914 858 L
2916 783 L
2918 859 L
2920 871 L
2922 852 L
2925 839 L
2927 856 L
2929 839 L
2931 845 L
2933 840 L
2935 856 L
2937 868 L
2939 863 L
2941 837 L
2943 862 L
2945 888 L
2947 870 L
2948 847 L
2950 871 L
2952 835 L
2954 882 L
2956 876 L
2958 853 L
2959 901 L
2961 866 L
2963 876 L
2965 859 L
2966 846 L
2968 856 L
2970 869 L
2972 854 L
2973 947 L
2975 901 L
2977 865 L
2978 905 L
2980 849 L
2982 910 L
2983 918 L
2985 924 L
2986 899 L
2988 888 L
2989 897 L
2991 877 L
2993 882 L
2994 919 L
2996 899 L
2997 902 L
2999 897 L
3000 928 L
3002 909 L
3003 883 L
3005 903 L
3006 873 L
3007 938 L
3009 839 L
3010 917 L
3012 892 L
3013 927 L
3014 903 L
3016 899 L
3017 910 L
3019 912 L
3020 925 L
3021 940 L
3023 881 L
3024 906 L
3025 901 L
3027 920 L
3028 878 L
3029 931 L
3031 921 L
3032 894 L
3033 932 L
3034 900 L
3036 925 L
3037 904 L
3038 902 L
3039 929 L
3041 939 L
3042 950 L
3043 902 L
3044 929 L
3045 948 L
3047 914 L
3048 948 L
3049 913 L
3050 871 L
3051 932 L
3053 948 L
3054 934 L
3055 902 L
3056 910 L
3057 973 L
3058 920 L
3059 927 L
3061 945 L
3062 979 L
3063 896 L
3064 891 L
3065 930 L
3066 961 L
3067 991 L
3068 938 L
3069 923 L
3070 970 L
3071 933 L
3073 949 L
3074 911 L
3075 931 L
3076 880 L
3077 926 L
3078 909 L
3079 980 L
3080 962 L
3081 999 L
3082 922 L
3083 929 L
3084 977 L
3085 961 L
3086 964 L
3087 923 L
3088 897 L
3089 941 L
3112 978 L
3133 890 L
3152 1018 L
3170 980 L
3186 993 L
3201 971 L
3216 1005 L
3229 981 L
3241 938 L
3253 932 L
3264 986 L
3275 984 L
3285 976 L
3295 986 L
3304 976 L
3313 1021 L
3322 983 L
3330 954 L
3338 1008 L
3346 986 L
3353 1019 L
3360 1037 L
3367 990 L
3374 967 L
3380 976 L
3387 988 L
3393 1004 L
3399 953 L
3405 937 L
3410 994 L
3416 984 L
3421 1044 L
3426 1012 L
3431 996 L
3436 983 L
3441 988 L
3446 1005 L
3451 1052 L
3455 1019 L
3460 1028 L
3464 1008 L
3469 963 L
3473 1012 L
3477 1008 L
3481 970 L
3485 994 L
3489 1029 L
3493 1010 L
3496 983 L
3500 1043 L
3504 978 L
3507 995 L
3511 1000 L
3514 1052 L
3518 956 L
3521 1003 L
3525 996 L
3528 988 L
3531 990 L
3534 987 L
3537 975 L
3540 967 L
3543 1000 L
3546 1005 L
3549 1042 L
3552 938 L
3555 1009 L
3558 1011 L
3561 995 L
3564 1004 L
3566 1000 L
3575 1002 L
3586 1029 L
3595 982 L
3605 1023 L
3613 968 L
3622 973 L
3630 970 L
3638 955 L
3646 990 L
3653 971 L
3660 960 L
3667 972 L
3674 1040 L
3681 958 L
3687 991 L
3693 970 L
3699 964 L
3705 975 L
3710 1042 L
3716 947 L
3721 958 L
3727 947 L
3732 966 L
3737 948 L
3742 945 L
3746 945 L
3751 959 L
3756 974 L
3760 917 L
3764 970 L
3769 942 L
3773 993 L
3777 984 L
3781 953 L
3785 970 L
3789 929 L
3793 928 L
3797 954 L
3800 938 L
3804 972 L
3808 940 L
3811 985 L
3815 943 L
3818 966 L
3821 999 L
3825 936 L
3828 945 L
3831 955 L
3834 921 L
3838 921 L
3841 984 L
3844 978 L
3847 883 L
3850 944 L
3853 996 L
3855 944 L
3858 977 L
3861 989 L
3864 989 L
3867 920 L
3869 989 L
3872 928 L
3875 984 L
3877 920 L
3880 925 L
3882 919 L
3885 953 L
3887 967 L
3890 987 L
3892 952 L
3895 958 L
3897 960 L
3899 953 L
3902 958 L
3904 972 L
3906 942 L
3908 947 L
3911 985 L
3913 886 L
3915 899 L
3917 958 L
3919 953 L
3921 958 L
3923 980 L
3926 927 L
3928 980 L
3930 966 L
3932 932 L
3934 991 L
3936 985 L
3938 955 L
3940 979 L
3942 949 L
3943 961 L
3945 947 L
3947 966 L
3949 984 L
3951 967 L
3953 947 L
3955 885 L
3956 978 L
3958 991 L
3960 978 L
3962 918 L
3963 922 L
3965 959 L
3967 990 L
3969 937 L
3970 925 L
3972 988 L
3974 972 L
3975 951 L
3977 922 L
3978 921 L
3980 956 L
3982 943 L
3983 929 L
3985 932 L
3986 904 L
3988 959 L
3990 912 L
3991 952 L
3993 953 L
3994 980 L
3996 936 L
3997 940 L
3999 984 L
4000 972 L
4001 943 L
4003 909 L
4004 927 L
4006 946 L
4007 949 L
4009 918 L
4010 960 L
4011 963 L
4013 963 L
4014 959 L
4016 967 L
4017 888 L
4018 939 L
4020 910 L
4021 948 L
4022 967 L
4024 904 L
4025 1009 L
4026 947 L
4028 981 L
4029 965 L
4030 903 L
4031 914 L
4033 916 L
4034 965 L
4035 917 L
4036 890 L
4038 978 L
4039 926 L
4040 932 L
4041 947 L
4042 911 L
4044 922 L
4045 978 L
4046 923 L
4047 965 L
4048 933 L
4050 942 L
4051 996 L
4052 956 L
4053 977 L
4054 899 L
4055 939 L
4056 949 L
4058 972 L
4059 925 L
4060 936 L
4061 960 L
4062 902 L
4063 954 L
4064 945 L
4065 957 L
4066 990 L
L2 C07 COSGR

%
% Main frame
%
L10
GSN 
620 1700 M
4220 1700 L
4220 5300 L
620 5300 L
closepath SGR

%
% X axis: large tics
%
L10
GSN 1074 1700 M 0  54 rL SGR
GSN 1074 5300 M 0 -54 rL SGR
helvS (0.0001) 1074 470 xlabel
GSN 1572 1700 M 0  54 rL SGR
GSN 1572 5300 M 0 -54 rL SGR
helvS (0.001) 1572 470 xlabel
GSN 2071 1700 M 0  54 rL SGR
GSN 2071 5300 M 0 -54 rL SGR
helvS (0.01) 2071 470 xlabel
GSN 2570 1700 M 0  54 rL SGR
GSN 2570 5300 M 0 -54 rL SGR
helvS (0.1) 2570 470 xlabel
GSN 3068 1700 M 0  54 rL SGR
GSN 3068 5300 M 0 -54 rL SGR
helvS (1) 3068 470 xlabel
GSN 3567 1700 M 0  54 rL SGR
GSN 3567 5300 M 0 -54 rL SGR
helvS (10) 3567 470 xlabel
GSN 4066 1700 M 0  54 rL SGR
GSN 4066 5300 M 0 -54 rL SGR
helvS (100) 4066 470 xlabel
%
% X axis: small tics
%
L5
GSN 725 1700 M 0  36 rL SGR
GSN 725 5300 M 0 -36 rL SGR
GSN 813 1700 M 0  36 rL SGR
GSN 813 5300 M 0 -36 rL SGR
GSN 875 1700 M 0  36 rL SGR
GSN 875 5300 M 0 -36 rL SGR
GSN 924 1700 M 0  36 rL SGR
GSN 924 5300 M 0 -36 rL SGR
GSN 963 1700 M 0  36 rL SGR
GSN 963 5300 M 0 -36 rL SGR
GSN 996 1700 M 0  36 rL SGR
GSN 996 5300 M 0 -36 rL SGR
GSN 1025 1700 M 0  36 rL SGR
GSN 1025 5300 M 0 -36 rL SGR
GSN 1051 1700 M 0  36 rL SGR
GSN 1051 5300 M 0 -36 rL SGR
GSN 1224 1700 M 0  36 rL SGR
GSN 1224 5300 M 0 -36 rL SGR
GSN 1312 1700 M 0  36 rL SGR
GSN 1312 5300 M 0 -36 rL SGR
GSN 1374 1700 M 0  36 rL SGR
GSN 1374 5300 M 0 -36 rL SGR
GSN 1422 1700 M 0  36 rL SGR
GSN 1422 5300 M 0 -36 rL SGR
GSN 1462 1700 M 0  36 rL SGR
GSN 1462 5300 M 0 -36 rL SGR
GSN 1495 1700 M 0  36 rL SGR
GSN 1495 5300 M 0 -36 rL SGR
GSN 1524 1700 M 0  36 rL SGR
GSN 1524 5300 M 0 -36 rL SGR
GSN 1550 1700 M 0  36 rL SGR
GSN 1550 5300 M 0 -36 rL SGR
GSN 1722 1700 M 0  36 rL SGR
GSN 1722 5300 M 0 -36 rL SGR
GSN 1810 1700 M 0  36 rL SGR
GSN 1810 5300 M 0 -36 rL SGR
GSN 1873 1700 M 0  36 rL SGR
GSN 1873 5300 M 0 -36 rL SGR
GSN 1921 1700 M 0  36 rL SGR
GSN 1921 5300 M 0 -36 rL SGR
GSN 1960 1700 M 0  36 rL SGR
GSN 1960 5300 M 0 -36 rL SGR
GSN 1994 1700 M 0  36 rL SGR
GSN 1994 5300 M 0 -36 rL SGR
GSN 2023 1700 M 0  36 rL SGR
GSN 2023 5300 M 0 -36 rL SGR
GSN 2048 1700 M 0  36 rL SGR
GSN 2048 5300 M 0 -36 rL SGR
GSN 2221 1700 M 0  36 rL SGR
GSN 2221 5300 M 0 -36 rL SGR
GSN 2309 1700 M 0  36 rL SGR
GSN 2309 5300 M 0 -36 rL SGR
GSN 2371 1700 M 0  36 rL SGR
GSN 2371 5300 M 0 -36 rL SGR
GSN 2420 1700 M 0  36 rL SGR
GSN 2420 5300 M 0 -36 rL SGR
GSN 2459 1700 M 0  36 rL SGR
GSN 2459 5300 M 0 -36 rL SGR
GSN 2492 1700 M 0  36 rL SGR
GSN 2492 5300 M 0 -36 rL SGR
GSN 2521 1700 M 0  36 rL SGR
GSN 2521 5300 M 0 -36 rL SGR
GSN 2547 1700 M 0  36 rL SGR
GSN 2547 5300 M 0 -36 rL SGR
GSN 2720 1700 M 0  36 rL SGR
GSN 2720 5300 M 0 -36 rL SGR
GSN 2808 1700 M 0  36 rL SGR
GSN 2808 5300 M 0 -36 rL SGR
GSN 2870 1700 M 0  36 rL SGR
GSN 2870 5300 M 0 -36 rL SGR
GSN 2918 1700 M 0  36 rL SGR
GSN 2918 5300 M 0 -36 rL SGR
GSN 2958 1700 M 0  36 rL SGR
GSN 2958 5300 M 0 -36 rL SGR
GSN 2991 1700 M 0  36 rL SGR
GSN 2991 5300 M 0 -36 rL SGR
GSN 3020 1700 M 0  36 rL SGR
GSN 3020 5300 M 0 -36 rL SGR
GSN 3045 1700 M 0  36 rL SGR
GSN 3045 5300 M 0 -36 rL SGR
GSN 3218 1700 M 0  36 rL SGR
GSN 3218 5300 M 0 -36 rL SGR
GSN 3306 1700 M 0  36 rL SGR
GSN 3306 5300 M 0 -36 rL SGR
GSN 3368 1700 M 0  36 rL SGR
GSN 3368 5300 M 0 -36 rL SGR
GSN 3417 1700 M 0  36 rL SGR
GSN 3417 5300 M 0 -36 rL SGR
GSN 3456 1700 M 0  36 rL SGR
GSN 3456 5300 M 0 -36 rL SGR
GSN 3490 1700 M 0  36 rL SGR
GSN 3490 5300 M 0 -36 rL SGR
GSN 3519 1700 M 0  36 rL SGR
GSN 3519 5300 M 0 -36 rL SGR
GSN 3544 1700 M 0  36 rL SGR
GSN 3544 5300 M 0 -36 rL SGR
GSN 3717 1700 M 0  36 rL SGR
GSN 3717 5300 M 0 -36 rL SGR
GSN 3805 1700 M 0  36 rL SGR
GSN 3805 5300 M 0 -36 rL SGR
GSN 3867 1700 M 0  36 rL SGR
GSN 3867 5300 M 0 -36 rL SGR
GSN 3915 1700 M 0  36 rL SGR
GSN 3915 5300 M 0 -36 rL SGR
GSN 3955 1700 M 0  36 rL SGR
GSN 3955 5300 M 0 -36 rL SGR
GSN 3988 1700 M 0  36 rL SGR
GSN 3988 5300 M 0 -36 rL SGR
GSN 4017 1700 M 0  36 rL SGR
GSN 4017 5300 M 0 -36 rL SGR
GSN 4043 1700 M 0  36 rL SGR
GSN 4043 5300 M 0 -36 rL SGR
GSN 4216 1700 M 0  36 rL SGR
GSN 4216 5300 M 0 -36 rL SGR
%
% Y axis: large tics
%
L10
GSN 620 1926 M 54 0 rL SGR
GSN 4220 1926 M -54 0 rL SGR
helvS (0.88) 560 1926 ylabel
GSN 620 2757 M 54 0 rL SGR
GSN 4220 2757 M -54 0 rL SGR
helvS (0.9) 560 2757 ylabel
GSN 620 3589 M 54 0 rL SGR
GSN 4220 3589 M -54 0 rL SGR
helvS (0.92) 560 3589 ylabel
GSN 620 4421 M 54 0 rL SGR
GSN 4220 4421 M -54 0 rL SGR
helvS (0.94) 560 4421 ylabel
GSN 620 5253 M 54 0 rL SGR
GSN 4220 5253 M -54 0 rL SGR
helvS (0.96) 560 5253 ylabel
%
% Y axis: small tics
%
L5
GSN 620 1718 M 36 0 rL SGR
GSN 4220 1718 M -36 0 rL SGR
GSN 620 1926 M 36 0 rL SGR
GSN 4220 1926 M -36 0 rL SGR
GSN 620 2134 M 36 0 rL SGR
GSN 4220 2134 M -36 0 rL SGR
GSN 620 2341 M 36 0 rL SGR
GSN 4220 2341 M -36 0 rL SGR
GSN 620 2549 M 36 0 rL SGR
GSN 4220 2549 M -36 0 rL SGR
GSN 620 2757 M 36 0 rL SGR
GSN 4220 2757 M -36 0 rL SGR
GSN 620 2965 M 36 0 rL SGR
GSN 4220 2965 M -36 0 rL SGR
GSN 620 3173 M 36 0 rL SGR
GSN 4220 3173 M -36 0 rL SGR
GSN 620 3381 M 36 0 rL SGR
GSN 4220 3381 M -36 0 rL SGR
GSN 620 3589 M 36 0 rL SGR
GSN 4220 3589 M -36 0 rL SGR
GSN 620 3797 M 36 0 rL SGR
GSN 4220 3797 M -36 0 rL SGR
GSN 620 4005 M 36 0 rL SGR
GSN 4220 4005 M -36 0 rL SGR
GSN 620 4213 M 36 0 rL SGR
GSN 4220 4213 M -36 0 rL SGR
GSN 620 4421 M 36 0 rL SGR
GSN 4220 4421 M -36 0 rL SGR
GSN 620 4629 M 36 0 rL SGR
GSN 4220 4629 M -36 0 rL SGR
GSN 620 4837 M 36 0 rL SGR
GSN 4220 4837 M -36 0 rL SGR
GSN 620 5045 M 36 0 rL SGR
GSN 4220 5045 M -36 0 rL SGR
GSN 620 5253 M 36 0 rL SGR
GSN 4220 5253 M -36 0 rL SGR

%
% X-Axis label:
%
gsave 2420 290 M 
[
[(Helvetica) 180 0 true true 0 (t)]
[(Helvetica) 180 0 true true 0 (i)]
[(Helvetica) 180 0 true true 0 (m)]
[(Helvetica) 180 0 true true 0 (e)]
] 0 MCshow grestore

%
% Y-Axis label:
%
gsave 234 3499 M 
currentpoint gsave translate 90 rotate 0 0 moveto
[
[(Helvetica) 180 0 true true 0 (s)]
[(Helvetica) 180 0 true true 0 (i)]
[(Helvetica) 180 0 true true 0 (g)]
[(Helvetica) 180 0 true true 0 (n)]
[(Helvetica) 180 0 true true 0 (a)]
[(Helvetica) 180 0 true true 0 (l)]
] 0 MCshow grestore

%
% Residuals:
%
gsave 129 1160 M 
currentpoint gsave translate 90 rotate 0 0 moveto
[
[(Helvetica) 150 0 true true 0 (r)]
[(Helvetica) 150 0 true true 0 (e)]
[(Helvetica) 150 0 true true 0 (s)]
[(Helvetica) 150 0 true true 0 (i)]
[(Helvetica) 150 0 true true 0 (d)]
[(Helvetica) 150 0 true true 0 (u)]
[(Helvetica) 150 0 true true 0 (a)]
[(Helvetica) 150 0 true true 0 (l)]
[(Helvetica) 150 0 true true 0 (s)]
] 0 MCshow grestore

%
% Residual frame
%
L10
GSN 
620 620 M
4220 620 L
4220 1700 L
620 1700 L
closepath SGR
%
% X axis: large tics - residual frame
%
L10
GSN 1074 620 M 0  54 rL SGR
GSN 1074 1700 M 0 -54 rL SGR
GSN 1572 620 M 0  54 rL SGR
GSN 1572 1700 M 0 -54 rL SGR
GSN 2071 620 M 0  54 rL SGR
GSN 2071 1700 M 0 -54 rL SGR
GSN 2570 620 M 0  54 rL SGR
GSN 2570 1700 M 0 -54 rL SGR
GSN 3068 620 M 0  54 rL SGR
GSN 3068 1700 M 0 -54 rL SGR
GSN 3567 620 M 0  54 rL SGR
GSN 3567 1700 M 0 -54 rL SGR
GSN 4066 620 M 0  54 rL SGR
GSN 4066 1700 M 0 -54 rL SGR
%
% X axis: small tics - residual frame
%
L5
GSN 725 620 M 0  36 rL SGR
GSN 725 1700 M 0 -36 rL SGR
GSN 813 620 M 0  36 rL SGR
GSN 813 1700 M 0 -36 rL SGR
GSN 875 620 M 0  36 rL SGR
GSN 875 1700 M 0 -36 rL SGR
GSN 924 620 M 0  36 rL SGR
GSN 924 1700 M 0 -36 rL SGR
GSN 963 620 M 0  36 rL SGR
GSN 963 1700 M 0 -36 rL SGR
GSN 996 620 M 0  36 rL SGR
GSN 996 1700 M 0 -36 rL SGR
GSN 1025 620 M 0  36 rL SGR
GSN 1025 1700 M 0 -36 rL SGR
GSN 1051 620 M 0  36 rL SGR
GSN 1051 1700 M 0 -36 rL SGR
GSN 1224 620 M 0  36 rL SGR
GSN 1224 1700 M 0 -36 rL SGR
GSN 1312 620 M 0  36 rL SGR
GSN 1312 1700 M 0 -36 rL SGR
GSN 1374 620 M 0  36 rL SGR
GSN 1374 1700 M 0 -36 rL SGR
GSN 1422 620 M 0  36 rL SGR
GSN 1422 1700 M 0 -36 rL SGR
GSN 1462 620 M 0  36 rL SGR
GSN 1462 1700 M 0 -36 rL SGR
GSN 1495 620 M 0  36 rL SGR
GSN 1495 1700 M 0 -36 rL SGR
GSN 1524 620 M 0  36 rL SGR
GSN 1524 1700 M 0 -36 rL SGR
GSN 1550 620 M 0  36 rL SGR
GSN 1550 1700 M 0 -36 rL SGR
GSN 1722 620 M 0  36 rL SGR
GSN 1722 1700 M 0 -36 rL SGR
GSN 1810 620 M 0  36 rL SGR
GSN 1810 1700 M 0 -36 rL SGR
GSN 1873 620 M 0  36 rL SGR
GSN 1873 1700 M 0 -36 rL SGR
GSN 1921 620 M 0  36 rL SGR
GSN 1921 1700 M 0 -36 rL SGR
GSN 1960 620 M 0  36 rL SGR
GSN 1960 1700 M 0 -36 rL SGR
GSN 1994 620 M 0  36 rL SGR
GSN 1994 1700 M 0 -36 rL SGR
GSN 2023 620 M 0  36 rL SGR
GSN 2023 1700 M 0 -36 rL SGR
GSN 2048 620 M 0  36 rL SGR
GSN 2048 1700 M 0 -36 rL SGR
GSN 2221 620 M 0  36 rL SGR
GSN 2221 1700 M 0 -36 rL SGR
GSN 2309 620 M 0  36 rL SGR
GSN 2309 1700 M 0 -36 rL SGR
GSN 2371 620 M 0  36 rL SGR
GSN 2371 1700 M 0 -36 rL SGR
GSN 2420 620 M 0  36 rL SGR
GSN 2420 1700 M 0 -36 rL SGR
GSN 2459 620 M 0  36 rL SGR
GSN 2459 1700 M 0 -36 rL SGR
GSN 2492 620 M 0  36 rL SGR
GSN 2492 1700 M 0 -36 rL SGR
GSN 2521 620 M 0  36 rL SGR
GSN 2521 1700 M 0 -36 rL SGR
GSN 2547 620 M 0  36 rL SGR
GSN 2547 1700 M 0 -36 rL SGR
GSN 2720 620 M 0  36 rL SGR
GSN 2720 1700 M 0 -36 rL SGR
GSN 2808 620 M 0  36 rL SGR
GSN 2808 1700 M 0 -36 rL SGR
GSN 2870 620 M 0  36 rL SGR
GSN 2870 1700 M 0 -36 rL SGR
GSN 2918 620 M 0  36 rL SGR
GSN 2918 1700 M 0 -36 rL SGR
GSN 2958 620 M 0  36 rL SGR
GSN 2958 1700 M 0 -36 rL SGR
GSN 2991 620 M 0  36 rL SGR
GSN 2991 1700 M 0 -36 rL SGR
GSN 3020 620 M 0  36 rL SGR
GSN 3020 1700 M 0 -36 rL SGR
GSN 3045 620 M 0  36 rL SGR
GSN 3045 1700 M 0 -36 rL SGR
GSN 3218 620 M 0  36 rL SGR
GSN 3218 1700 M 0 -36 rL SGR
GSN 3306 620 M 0  36 rL SGR
GSN 3306 1700 M 0 -36 rL SGR
GSN 3368 620 M 0  36 rL SGR
GSN 3368 1700 M 0 -36 rL SGR
GSN 3417 620 M 0  36 rL SGR
GSN 3417 1700 M 0 -36 rL SGR
GSN 3456 620 M 0  36 rL SGR
GSN 3456 1700 M 0 -36 rL SGR
GSN 3490 620 M 0  36 rL SGR
GSN 3490 1700 M 0 -36 rL SGR
GSN 3519 620 M 0  36 rL SGR
GSN 3519 1700 M 0 -36 rL SGR
GSN 3544 620 M 0  36 rL SGR
GSN 3544 1700 M 0 -36 rL SGR
GSN 3717 620 M 0  36 rL SGR
GSN 3717 1700 M 0 -36 rL SGR
GSN 3805 620 M 0  36 rL SGR
GSN 3805 1700 M 0 -36 rL SGR
GSN 3867 620 M 0  36 rL SGR
GSN 3867 1700 M 0 -36 rL SGR
GSN 3915 620 M 0  36 rL SGR
GSN 3915 1700 M 0 -36 rL SGR
GSN 3955 620 M 0  36 rL SGR
GSN 3955 1700 M 0 -36 rL SGR
GSN 3988 620 M 0  36 rL SGR
GSN 3988 1700 M 0 -36 rL SGR
GSN 4017 620 M 0  36 rL SGR
GSN 4017 1700 M 0 -36 rL SGR
GSN 4043 620 M 0  36 rL SGR
GSN 4043 1700 M 0 -36 rL SGR
GSN 4216 620 M 0  36 rL SGR
GSN 4216 1700 M 0 -36 rL SGR
%
% Y axis: large tics - residual frame
%
L10
GSN 620 693 M 54 0 rL SGR
GSN 4220 693 M -54 0 rL SGR
helvS (-0.025) 560 693 ylabelresid
GSN 620 949 M 54 0 rL SGR
GSN 4220 949 M -54 0 rL SGR
helvS (0) 560 949 ylabelresid
GSN 620 1204 M 54 0 rL SGR
GSN 4220 1204 M -54 0 rL SGR
helvS (0.025) 560 1204 ylabelresid
GSN 620 1459 M 54 0 rL SGR
GSN 4220 1459 M -54 0 rL SGR
helvS (0.05) 560 1459 ylabelresid

%
% X axis - residual panel
%
GSN L5 620 949 M 4220 949 L SDA G50 SGR

end
showpage
%%Trailer
%%EOF
