# data set	./hsmug/series//U-Trp-R243A.1.csv:col(7)
# fraction of residuals inside model inference band	0.440901
#   x(mesh)	    y(mesh)	       rate	   y(mesh)-	   y(mesh)+	    x(data)	    y(data)	   y(model)	   y(error)	   residual	     weight	  residual*	   leverage	  y(model)-	  y(model)+	
2.27273e-005	    0.984011	    -1.29827	-4.05318e+007	4.05318e+007	    2.5e-005	     0.97752	    0.984008	           0	 -0.00648822	           1	           0	    -5012.48	    0.984008	    0.984008	
2.27273e-005	    0.984011	    -1.29827	-4.05318e+007	4.05318e+007	    0.001275	    0.984195	    0.982407	           0	  0.00178786	           1	           0	     18662.4	   -0.109239	     2.07405	
2.65091e-005	    0.984006	    -1.29817	-4.05318e+007	4.05318e+007	    0.002525	    0.980992	    0.980848	           0	 0.000144086	           1	           0	    -44416.5	    0.980848	    0.980848	
3.09203e-005	    0.984001	    -1.29804	-4.05318e+007	4.05318e+007	    0.003775	    0.973823	    0.979331	           0	 -0.00550808	           1	           0	      212491	    -2.70423	     4.66289	
3.60656e-005	    0.983994	     -1.2979	-4.05318e+007	4.05318e+007	    0.005025	     0.97756	    0.977852	           0	-0.000292231	           1	           0	     1156.73	    0.706074	     1.24963	
 4.2067e-005	    0.983986	    -1.29773	-4.05318e+007	4.05318e+007	    0.006275	    0.974355	    0.976412	           0	 -0.00205704	           1	           0	    -47184.3	    0.976412	    0.976412	
4.54545e-005	    0.983982	    -1.29763	-4.05318e+007	4.05318e+007	    0.007525	     0.96974	    0.975009	           0	 -0.00526874	           1	           0	     51058.6	   -0.830637	     2.78065	
 4.9067e-005	    0.983977	    -1.29753	-4.05318e+007	4.05318e+007	    0.008775	    0.970425	    0.973641	           0	 -0.00321609	           1	           0	    -10271.9	    0.973641	    0.973641	
5.72319e-005	    0.983966	     -1.2973	-4.05318e+007	4.05318e+007	    0.010025	    0.966042	    0.972308	           0	 -0.00626545	           1	           0	     -314999	    0.972308	    0.972308	
6.67554e-005	    0.983954	    -1.29704	-4.05318e+007	4.05318e+007	    0.011275	    0.964708	    0.971008	           0	 -0.00630068	           1	           0	      207490	    -2.66895	     4.61097	
7.78637e-005	     0.98394	    -1.29672	-4.05318e+007	4.05318e+007	    0.012525	    0.968137	    0.969741	           0	 -0.00160321	           1	           0	    -33851.2	    0.969741	    0.969741	
9.08204e-005	    0.983923	    -1.29636	-4.05318e+007	4.05318e+007	    0.013775	    0.964092	    0.968505	           0	 -0.00441203	           1	           0	      111900	    -1.70458	     3.64159	
9.09091e-005	    0.983923	    -1.29636	-4.05318e+007	4.05318e+007	    0.015025	    0.961788	    0.967299	           0	 -0.00551115	           1	           0	     30900.4	   -0.437391	     2.37199	
 0.000105933	    0.983903	    -1.29594	-4.05318e+007	4.05318e+007	    0.016275	    0.963827	    0.966122	           0	 -0.00229463	           1	           0	     -211925	    0.966122	    0.966122	
 0.000123561	     0.98388	    -1.29544	-4.05318e+007	4.05318e+007	    0.017525	     0.96251	    0.964974	           0	 -0.00246406	           1	           0	       92676	    -1.46769	     3.39764	
 0.000144121	    0.983854	    -1.29487	-4.05318e+007	4.05318e+007	    0.018775	     0.95961	    0.963854	           0	 -0.00424357	           1	           0	    -14399.5	    0.963854	    0.963854	
 0.000168104	    0.983823	     -1.2942	-4.05318e+007	4.05318e+007	    0.020025	    0.960508	     0.96276	           0	 -0.00225234	           1	           0	     -168068	     0.96276	     0.96276	
 0.000181818	    0.983805	    -1.29381	-4.05318e+007	4.05318e+007	    0.021275	     0.95612	    0.961692	           0	 -0.00557205	           1	           0	    -29337.1	    0.961692	    0.961692	
 0.000196077	    0.983787	    -1.29342	-4.05318e+007	4.05318e+007	    0.022525	    0.957588	    0.960649	           0	 -0.00306195	           1	           0	     -174338	    0.960649	    0.960649	
 0.000228704	    0.983744	     -1.2925	-4.05318e+007	4.05318e+007	    0.023775	    0.957935	    0.959631	           0	 -0.00169628	           1	           0	      145380	    -2.08721	     4.00647	
 0.000266761	    0.983695	    -1.29144	-4.05318e+007	4.05318e+007	    0.025025	    0.958963	    0.958637	           0	 0.000325661	           1	           0	    -8708.02	    0.958637	    0.958637	
 0.000311151	    0.983638	     -1.2902	-4.05318e+007	4.05318e+007	    0.026275	     0.95978	    0.957665	           0	  0.00211456	           1	           0	     -151095	    0.957665	    0.957665	
 0.000362927	    0.983571	    -1.28876	-4.05318e+007	4.05318e+007	    0.027525	    0.954442	    0.956716	           0	 -0.00227393	           1	           0	     -250065	    0.956716	    0.956716	
 0.000363636	     0.98357	    -1.28874	-4.05318e+007	4.05318e+007	    0.028775	    0.953163	    0.955789	           0	 -0.00262666	           1	           0	     -269579	    0.955789	    0.955789	
 0.000423319	    0.983493	    -1.28709	-4.05318e+007	4.05318e+007	    0.030025	    0.951103	    0.954883	           0	 -0.00378028	           1	           0	     -133535	    0.954883	    0.954883	
 0.000493761	    0.983403	    -1.28513	-4.05318e+007	4.05318e+007	    0.031275	    0.952477	    0.953997	           0	 -0.00151995	           1	           0	      203340	    -2.64938	     4.55738	
 0.000575924	    0.983297	    -1.28286	-4.05318e+007	4.05318e+007	    0.032525	    0.958448	    0.953132	           0	  0.00531565	           1	           0	     -143855	    0.953132	    0.953132	
 0.000671759	    0.983174	    -1.28021	-4.05318e+007	4.05318e+007	    0.033775	    0.956635	    0.952286	           0	  0.00434933	           1	           0	     -140070	    0.952286	    0.952286	
 0.000727273	    0.983103	    -1.27868	-4.05318e+007	4.05318e+007	    0.035025	    0.952076	    0.951458	           0	 0.000617847	           1	           0	      239464	    -2.95892	     4.86183	
 0.000783541	    0.983031	    -1.27714	-4.05318e+007	4.05318e+007	    0.036275	    0.951658	     0.95065	           0	  0.00100798	           1	           0	     -166040	     0.95065	     0.95065	
 0.000913924	    0.982865	    -1.27356	-4.05318e+007	4.05318e+007	    0.037525	    0.950475	    0.949859	           0	 0.000615953	           1	           0	     52492.2	   -0.880961	     2.78068	
    0.001066	    0.982672	     -1.2694	-4.05318e+007	4.05318e+007	    0.038775	     0.95015	    0.949085	           0	  0.00106551	           1	           0	      101505	    -1.59681	     3.49498	
  0.00124339	    0.982447	    -1.26458	-4.05318e+007	4.05318e+007	    0.040025	    0.950305	    0.948328	           0	  0.00197659	           1	           0	    -11256.7	    0.948328	    0.948328	
  0.00145029	    0.982186	    -1.25898	-4.05318e+007	4.05318e+007	    0.041275	    0.952192	    0.947588	           0	  0.00460416	           1	           0	      119991	    -1.82045	     3.71563	
  0.00145455	    0.982181	    -1.25887	-4.05318e+007	4.05318e+007	    0.042525	    0.942694	    0.946864	           0	 -0.00417037	           1	           0	    -42261.7	    0.946864	    0.946864	
  0.00169162	    0.981883	     -1.2525	-4.05318e+007	4.05318e+007	    0.043775	    0.952076	    0.946156	           0	  0.00592042	           1	           0	     -149242	    0.946156	    0.946156	
  0.00197312	    0.981531	    -1.24499	-4.05318e+007	4.05318e+007	    0.045025	    0.944467	    0.945463	           0	-0.000996319	           1	           0	     66089.9	    -1.10884	     2.99977	
  0.00230145	    0.981124	     -1.2363	-4.05318e+007	4.05318e+007	    0.046275	    0.944466	    0.944785	           0	-0.000319198	           1	           0	     56087.4	   -0.947693	     2.83726	
  0.00268441	    0.980653	    -1.22627	-4.05318e+007	4.05318e+007	    0.047525	    0.942407	    0.944121	           0	 -0.00171459	           1	           0	    -32607.8	    0.944121	    0.944121	
  0.00290909	    0.980378	    -1.22044	-4.05318e+007	4.05318e+007	    0.048775	    0.945213	    0.943472	           0	  0.00174111	           1	           0	      142666	     -2.0748	     3.96175	
  0.00313111	    0.980107	    -1.21471	-4.05318e+007	4.05318e+007	    0.050025	    0.944982	    0.942836	           0	  0.00214601	           1	           0	     11233.1	   0.0959058	     1.78977	
  0.00365213	    0.979478	     -1.2014	-4.05318e+007	4.05318e+007	    0.051275	    0.938098	    0.942214	           0	  -0.0041163	           1	           0	     59091.4	    -1.00028	     2.88471	
  0.00425985	    0.978753	    -1.18612	-4.05318e+007	4.05318e+007	    0.052525	    0.943721	    0.941605	           0	  0.00211575	           1	           0	     85365.3	    -1.39314	     3.27635	
   0.0049687	    0.977918	    -1.16862	-4.05318e+007	4.05318e+007	    0.053775	    0.943399	    0.941009	           0	  0.00239025	           1	           0	     46544.1	   -0.782963	     2.66498	
  0.00579551	     0.97696	    -1.14862	-4.05318e+007	4.05318e+007	    0.055025	    0.939164	    0.940425	           0	 -0.00126126	           1	           0	     57168.2	     -0.9702	     2.85105	
  0.00581818	    0.976934	    -1.14808	-4.05318e+007	4.05318e+007	    0.056275	    0.941662	    0.939853	           0	  0.00180827	           1	           0	    -56224.7	    0.939853	    0.939853	
   0.0067599	    0.975863	    -1.12586	-4.05318e+007	4.05318e+007	    0.057525	    0.944372	    0.939294	           0	  0.00507839	           1	           0	    -3499.06	    0.939294	    0.939294	
  0.00788476	    0.974612	    -1.10005	-4.05318e+007	4.05318e+007	    0.058775	    0.943608	    0.938746	           0	  0.00486163	           1	           0	     40298.8	   -0.665401	     2.54289	
  0.00919681	    0.973187	     -1.0709	-4.05318e+007	4.05318e+007	    0.060025	    0.937237	    0.938209	           0	-0.000971981	           1	           0	     -192361	    0.938209	    0.938209	
   0.0107272	    0.971574	    -1.03816	-4.05318e+007	4.05318e+007	    0.061275	    0.938554	    0.937684	           0	  0.00087081	           1	           0	      175172	    -2.40681	     4.28218	
   0.0116364	    0.970638	    -1.01932	-4.05318e+007	4.05318e+007	    0.062525	     0.93905	    0.937169	           0	  0.00188152	           1	           0	     -249157	    0.937169	    0.937169	
   0.0125122	    0.969754	    -1.00158	-4.05318e+007	4.05318e+007	    0.063775	    0.936303	    0.936665	           0	 -0.00036136	           1	           0	     87893.5	     -1.4324	     3.30573	
   0.0145943	    0.967711	   -0.960974	-4.05318e+007	4.05318e+007	    0.065025	    0.935426	    0.936171	           0	-0.000745079	           1	           0	     21603.6	   -0.238352	     2.11069	
   0.0170228	    0.965432	    -0.91623	-4.05318e+007	4.05318e+007	    0.066275	    0.938058	    0.935687	           0	   0.0023706	           1	           0	    -36873.1	    0.935687	    0.935687	
   0.0198554	    0.962907	   -0.867326	-4.05318e+007	4.05318e+007	    0.067525	    0.938859	    0.935214	           0	  0.00364564	           1	           0	      220246	    -2.81497	     4.68539	
   0.0231594	     0.96013	   -0.814365	-4.05318e+007	4.05318e+007	    0.068775	    0.935426	    0.934749	           0	 0.000676785	           1	           0	     -132658	    0.934749	    0.934749	
   0.0232727	    0.960038	   -0.812622	-4.05318e+007	4.05318e+007	    0.070025	    0.933042	    0.934295	           0	 -0.00125276	           1	           0	     -206541	    0.934295	    0.934295	
   0.0270132	    0.957102	   -0.757594	-4.05318e+007	4.05318e+007	    0.071275	    0.933366	    0.933849	           0	-0.000483036	           1	           0	     6634.75	    0.282955	     1.58474	
   0.0315083	    0.953834	   -0.697425	-4.05318e+007	4.05318e+007	    0.072525	    0.933157	    0.933413	           0	-0.000256336	           1	           0	    -68928.7	    0.933413	    0.933413	
   0.0367513	    0.950346	   -0.634449	-4.05318e+007	4.05318e+007	    0.073775	    0.938059	    0.932985	           0	  0.00507429	           1	           0	    -51690.6	    0.932985	    0.932985	
   0.0428668	    0.946669	   -0.569432	-4.05318e+007	4.05318e+007	    0.075025	      0.9339	    0.932566	           0	  0.00133403	           1	           0	    -39294.8	    0.932566	    0.932566	
   0.0465455	     0.94464	   -0.534136	-4.05318e+007	4.05318e+007	    0.076275	    0.937257	    0.932156	           0	  0.00510158	           1	           0	     19634.2	   -0.187552	     2.05186	
        0.05	    0.942849	   -0.503306	-4.05318e+007	4.05318e+007	    0.077525	    0.937182	    0.931753	           0	  0.00542811	           1	           0	      344410	    -3.75785	     5.62136	
   0.0583201	    0.938944	   -0.437135	-4.05318e+007	4.05318e+007	    0.078775	    0.933099	    0.931359	           0	  0.00173981	           1	           0	     17859.2	   -0.136538	     1.99926	
   0.0680247	    0.935027	   -0.372073	-4.05318e+007	4.05318e+007	    0.080025	    0.933385	    0.930973	           0	  0.00241235	           1	           0	     -163729	    0.930973	    0.930973	
   0.0793442	    0.931182	   -0.309306	-4.05318e+007	4.05318e+007	    0.081275	    0.930314	    0.930594	           0	-0.000280099	           1	           0	     -106001	    0.930594	    0.930594	
   0.0925473	    0.927505	   -0.249986	-4.05318e+007	4.05318e+007	    0.082525	    0.929762	    0.930223	           0	 -0.00046188	           1	           0	    -85772.4	    0.930223	    0.930223	
   0.0930909	    0.927369	   -0.247811	-4.05318e+007	4.05318e+007	    0.083775	    0.935237	     0.92986	           0	  0.00537667	           1	           0	    -34053.4	     0.92986	     0.92986	
    0.107947	    0.924094	   -0.195167	-4.05318e+007	4.05318e+007	    0.085025	    0.932947	    0.929504	           0	   0.0034432	           1	           0	    -28284.9	    0.929504	    0.929504	
     0.12591	    0.921052	   -0.145745	-4.05318e+007	4.05318e+007	    0.086275	    0.935369	    0.929154	           0	  0.00621463	           1	           0	    -37706.5	    0.929154	    0.929154	
    0.146862	    0.918475	   -0.102412	-4.05318e+007	4.05318e+007	    0.087525	    0.928235	    0.928812	           0	-0.000576662	           1	           0	    -26885.1	    0.928812	    0.928812	
      0.1713	    0.916447	  -0.0656207	-4.05318e+007	4.05318e+007	    0.088775	    0.931153	    0.928477	           0	  0.00267598	           1	           0	     12359.8	   0.0400879	     1.81687	
    0.186182	    0.915602	  -0.0485156	-4.05318e+007	4.05318e+007	    0.090025	    0.932183	    0.928148	           0	  0.00403544	           1	           0	     22772.6	   -0.277732	     2.13403	
    0.199805	    0.915032	  -0.0355637	-4.05318e+007	4.05318e+007	    0.091275	    0.932737	    0.927826	           0	  0.00491085	           1	           0	     -186331	    0.927826	    0.927826	
    0.233053	    0.914267	  -0.0121684	-4.05318e+007	4.05318e+007	    0.092525	    0.931688	     0.92751	           0	  0.00417761	           1	           0	     -164040	     0.92751	     0.92751	
    0.271834	    0.914154	  0.00490266	-4.05318e+007	4.05318e+007	    0.093775	    0.930658	    0.927201	           0	  0.00345733	           1	           0	     -107714	    0.927201	    0.927201	
    0.317067	    0.914659	   0.0162381	-4.05318e+007	4.05318e+007	    0.095025	    0.927797	    0.926897	           0	 0.000899405	           1	           0	     -163820	    0.926897	    0.926897	
    0.369828	    0.915709	   0.0226464	-4.05318e+007	4.05318e+007	    0.096275	     0.92774	      0.9266	           0	   0.0011397	           1	           0	     63901.6	    -1.09341	     2.94661	
    0.372364	    0.915766	   0.0228316	-4.05318e+007	4.05318e+007	    0.097525	    0.930124	    0.926309	           0	  0.00381508	           1	           0	      209864	    -2.73441	     4.58703	
    0.431368	    0.917197	   0.0250992	-4.05318e+007	4.05318e+007	    0.098775	    0.930619	    0.926023	           0	  0.00459642	           1	           0	     -224554	    0.926023	    0.926023	
    0.503149	    0.918996	   0.0246433	-4.05318e+007	4.05318e+007	      0.1001	    0.931401	    0.925727	           0	  0.00567495	           1	           0	      149072	    -2.15956	     4.01102	
    0.586875	    0.920969	   0.0222931	-4.05318e+007	4.05318e+007	      0.1051	    0.925794	    0.924663	           0	    0.001131	           1	           0	      129889	    -1.95528	     3.80461	
    0.684532	    0.922982	   0.0189274	-4.05318e+007	4.05318e+007	      0.1101	    0.924192	    0.923681	           0	 0.000510818	           1	           0	     73068.1	    -1.23636	     3.08372	
    0.744727	     0.92406	   0.0169064	-4.05318e+007	4.05318e+007	      0.1151	     0.92341	    0.922776	           0	 0.000634539	           1	           0	     96186.4	    -1.55553	     3.40108	
     0.79844	    0.924923	   0.0152223	-4.05318e+007	4.05318e+007	      0.1201	    0.918165	    0.921941	           0	 -0.00377599	           1	           0	     -141549	    0.921941	    0.921941	
    0.931302	    0.926698	   0.0116383	-4.05318e+007	4.05318e+007	      0.1251	    0.923353	    0.921171	           0	  0.00218161	           1	           0	      108126	    -1.70645	     3.54879	
           1	    0.927443	   0.0101044	-4.05318e+007	4.05318e+007	      0.1301	    0.925126	    0.920462	           0	  0.00466425	           1	           0	     61425.1	    -1.06002	     2.90095	
     1.08627	    0.928242	  0.00845186	-4.05318e+007	4.05318e+007	      0.1351	    0.921331	     0.91981	           0	  0.00152099	           1	           0	     90410.3	    -1.48293	     3.32255	
     1.26703	    0.929515	  0.00580362	-4.05318e+007	4.05318e+007	      0.1401	    0.921579	     0.91921	           0	  0.00236925	           1	           0	      114212	    -1.78136	     3.61978	
     1.47787	    0.930506	  0.00374006	-4.05318e+007	4.05318e+007	      0.1451	     0.92013	    0.918659	           0	  0.00147093	           1	           0	     -205822	    0.918659	    0.918659	
     1.48945	    0.930548	  0.00365081	-4.05318e+007	4.05318e+007	      0.1501	    0.922704	    0.918153	           0	  0.00455111	           1	           0	      116810	    -1.81294	     3.64925	
     1.72379	    0.931225	  0.00223974	-4.05318e+007	4.05318e+007	      0.1551	    0.913816	     0.91769	           0	 -0.00387364	           1	           0	     -119412	     0.91769	     0.91769	
     2.01063	    0.931709	  0.00123151	-4.05318e+007	4.05318e+007	      0.1601	     0.92095	    0.917266	           0	   0.0036838	           1	           0	     48610.1	   -0.844554	     2.67909	
     2.34521	    0.932005	 0.000612989	-4.05318e+007	4.05318e+007	      0.1651	    0.917078	    0.916879	           0	 0.000198548	           1	           0	     68597.9	    -1.17604	      3.0098	
     2.73546	    0.932169	 0.000271674	-4.05318e+007	4.05318e+007	      0.1701	    0.915818	    0.916527	           0	-0.000708448	           1	           0	    -7004.83	    0.916527	    0.916527	
     2.97891	    0.932221	 0.000163524	-4.05318e+007	4.05318e+007	      0.1751	    0.913034	    0.916207	           0	 -0.00317293	           1	           0	     15265.9	  -0.0711153	     1.90353	
     3.19064	    0.932249	 0.000105157	-4.05318e+007	4.05318e+007	      0.1801	    0.913568	    0.915917	           0	 -0.00234929	           1	           0	      202254	    -2.67782	     4.50966	
     3.72157	    0.932283	3.47562e-005	-4.05318e+007	4.05318e+007	      0.1851	    0.915761	    0.915655	           0	 0.000105925	           1	           0	      163587	    -2.31635	     4.14766	
     4.34085	    0.932295	9.55477e-006	-4.05318e+007	4.05318e+007	      0.1901	    0.914713	     0.91542	           0	-0.000707475	           1	           0	    -26893.5	     0.91542	     0.91542	
     5.06318	    0.932298	2.11879e-006	-4.05318e+007	4.05318e+007	      0.1951	     0.91166	    0.915209	           0	 -0.00354879	           1	           0	     45812.8	   -0.795167	     2.62559	
     5.90571	    0.932299	3.65684e-007	-4.05318e+007	4.05318e+007	      0.2001	    0.913816	    0.915022	           0	 -0.00120596	           1	           0	     51379.7	   -0.896293	     2.72634	
     5.95782	    0.932299	3.28032e-007	-4.05318e+007	4.05318e+007	      0.2051	     0.91496	    0.914856	           0	  0.00010476	           1	           0	     -105736	    0.914856	    0.914856	
     6.88843	    0.932299	4.71153e-008	-4.05318e+007	4.05318e+007	      0.2101	    0.918336	     0.91471	           0	  0.00362623	           1	           0	     58174.6	    -1.01266	     2.84208	
     8.03469	    0.932299	4.31648e-009	-4.05318e+007	4.05318e+007	      0.2151	    0.912709	    0.914583	           0	 -0.00187377	           1	           0	      -69713	    0.914583	    0.914583	
     9.37168	    0.932299	2.65683e-010	-4.05318e+007	4.05318e+007	      0.2201	    0.914693	    0.914474	           0	 0.000219224	           1	           0	      134676	    -2.01806	     3.84701	
     10.9312	    0.932299	1.02835e-011	-4.05318e+007	4.05318e+007	      0.2251	    0.917077	    0.914382	           0	  0.00269557	           1	           0	     1089.35	    0.650639	     1.17813	
     11.9156	    0.932299	1.32047e-012	-4.05318e+007	4.05318e+007	      0.2301	    0.913835	    0.914305	           0	-0.000470166	           1	           0	       63138	     -1.0936	     2.92221	
     12.7501	    0.932299	2.32193e-013	-4.05318e+007	4.05318e+007	      0.2351	    0.914693	    0.914243	           0	 0.000450491	           1	           0	      117088	    -1.82011	      3.6486	
     14.8718	    0.932299	2.70498e-015	-4.05318e+007	4.05318e+007	      0.2401	    0.912805	    0.914195	           0	 -0.00138953	           1	           0	    -26810.6	    0.914195	    0.914195	
     17.3465	    0.932299	2.10479e-016	-4.05318e+007	4.05318e+007	      0.2451	    0.914331	    0.914159	           0	 0.000171879	           1	           0	     13969.7	  -0.0303197	     1.85864	
      20.233	    0.932299	-9.16271e-017	-4.05318e+007	4.05318e+007	      0.2501	    0.913034	    0.914135	           0	 -0.00110121	           1	           0	      118357	    -1.83499	     3.66326	
     23.5998	    0.932299	6.03483e-018	-4.05318e+007	4.05318e+007	      0.2551	    0.914102	    0.914123	           0	-2.07863e-005	           1	           0	     10304.1	     0.10297	     1.72528	
     23.8313	    0.932299	-9.52001e-018	-4.05318e+007	4.05318e+007	      0.2601	    0.909868	    0.914121	           0	 -0.00425313	           1	           0	      204702	     -2.7013	     4.52954	
     27.5269	    0.932299	2.65344e-017	-4.05318e+007	4.05318e+007	      0.2651	    0.908056	    0.914129	           0	 -0.00607308	           1	           0	     41455.3	   -0.712873	     2.54113	
     32.1074	    0.932299	 1.1718e-017	-4.05318e+007	4.05318e+007	      0.2701	    0.909563	    0.914146	           0	 -0.00458348	           1	           0	    -15002.3	    0.914146	    0.914146	
     37.4501	    0.932299	-1.96169e-019	-4.05318e+007	4.05318e+007	      0.2751	    0.907445	    0.914172	           0	 -0.00672651	           1	           0	    -45812.1	    0.914172	    0.914172	
     43.6819	    0.932299	2.47496e-019	-4.05318e+007	4.05318e+007	      0.2801	     0.91065	    0.914206	           0	 -0.00355584	           1	           0	    -45023.5	    0.914206	    0.914206	
     47.6625	    0.932299	2.47496e-019	-4.05318e+007	4.05318e+007	      0.2851	    0.908017	    0.914247	           0	 -0.00622969	           1	           0	    -51687.1	    0.914247	    0.914247	
     50.9507	    0.932299	 1.9771e-021	-4.05318e+007	4.05318e+007	      0.2901	    0.914446	    0.914295	           0	 0.000150165	           1	           0	      240888	    -3.00769	     4.83628	
     59.4291	    0.932299	 1.9771e-021	-4.05318e+007	4.05318e+007	      0.2951	    0.912976	     0.91435	           0	 -0.00137379	           1	           0	    -21739.3	     0.91435	     0.91435	
     69.3182	    0.932299	 1.9771e-021	-4.05318e+007	4.05318e+007	      0.3001	    0.913511	    0.914411	           0	-0.000900867	           1	           0	    -45775.2	    0.914411	    0.914411	
     80.8529	    0.932299	 1.9771e-021	-4.05318e+007	4.05318e+007	      0.3051	     0.91187	    0.914478	           0	  -0.0026079	           1	           0	      262459	    -3.17934	      5.0083	
     94.3071	    0.932299	 1.9771e-021	-4.05318e+007	4.05318e+007	      0.3101	     0.91498	     0.91455	           0	 0.000429245	           1	           0	    -6940.06	     0.91455	     0.91455	
         110	    0.932299	1.57945e-023	-4.05318e+007	4.05318e+007	      0.3151	    0.916067	    0.914627	           0	  0.00143919	           1	           0	     3418.06	    0.447444	     1.38181	
 --	 --	 --	 --	 --	      0.3201	    0.910116	    0.914709	           0	 -0.00459346	           1	           0	      139905	    -2.07421	     3.90363	
 --	 --	 --	 --	 --	      0.3251	    0.912481	    0.914795	           0	 -0.00231438	           1	           0	    -48060.4	    0.914795	    0.914795	
 --	 --	 --	 --	 --	      0.3301	    0.915132	    0.914885	           0	 0.000246984	           1	           0	     17255.6	   -0.134812	     1.96458	
 --	 --	 --	 --	 --	      0.3351	     0.91023	    0.914978	           0	 -0.00474832	           1	           0	     26521.4	   -0.386378	     2.21633	
 --	 --	 --	 --	 --	      0.3401	    0.917917	    0.915075	           0	  0.00284147	           1	           0	    -62722.3	    0.915075	    0.915075	
 --	 --	 --	 --	 --	      0.3451	    0.912729	    0.915175	           0	 -0.00244662	           1	           0	    -83524.3	    0.915175	    0.915175	
 --	 --	 --	 --	 --	      0.3501	    0.909963	    0.915278	           0	 -0.00531511	           1	           0	      116859	    -1.81639	     3.64695	
 --	 --	 --	 --	 --	      0.3551	    0.916372	    0.915384	           0	 0.000987747	           1	           0	     11638.1	   0.0533193	     1.77745	
 --	 --	 --	 --	 --	      0.3601	    0.916791	    0.915492	           0	  0.00129916	           1	           0	      143045	    -2.10679	     3.93777	
 --	 --	 --	 --	 --	      0.3651	     0.91641	    0.915602	           0	 0.000807328	           1	           0	      105100	      -1.675	      3.5062	
 --	 --	 --	 --	 --	      0.3701	    0.913473	    0.915715	           0	  -0.0022423	           1	           0	      193882	    -2.60286	     4.43429	
 --	 --	 --	 --	 --	      0.3751	    0.907846	    0.915829	           0	 -0.00798328	           1	           0	     -100295	    0.915829	    0.915829	
 --	 --	 --	 --	 --	      0.3801	    0.918584	    0.915945	           0	  0.00263905	           1	           0	     87008.7	    -1.44116	     3.27305	
 --	 --	 --	 --	 --	      0.3851	    0.914064	    0.916062	           0	  -0.0019984	           1	           0	      121657	    -1.87113	     3.70325	
 --	 --	 --	 --	 --	      0.3901	    0.912919	    0.916181	           0	 -0.00326173	           1	           0	     -171723	    0.916181	    0.916181	
 --	 --	 --	 --	 --	      0.3951	    0.912347	    0.916301	           0	 -0.00395403	           1	           0	     10543.6	   0.0957761	     1.73683	
 --	 --	 --	 --	 --	      0.4001	    0.918508	    0.916422	           0	  0.00208558	           1	           0	      128361	    -1.94653	     3.77937	
 --	 --	 --	 --	 --	      0.4051	    0.914808	    0.916545	           0	 -0.00173678	           1	           0	     68596.4	    -1.17636	     3.00945	
 --	 --	 --	 --	 --	      0.4101	     0.91414	    0.916667	           0	 -0.00252722	           1	           0	      124308	    -1.90072	     3.73406	
 --	 --	 --	 --	 --	      0.4151	     0.92175	    0.916791	           0	  0.00495935	           1	           0	     49694.2	   -0.864566	     2.69815	
 --	 --	 --	 --	 --	      0.4201	    0.911642	    0.916915	           0	 -0.00527394	           1	           0	       83252	    -1.38874	     3.22258	
 --	 --	 --	 --	 --	      0.4251	    0.911012	     0.91704	           0	 -0.00602825	           1	           0	    -41223.4	     0.91704	     0.91704	
 --	 --	 --	 --	 --	      0.4301	    0.914598	    0.917165	           0	 -0.00256749	           1	           0	    -19427.8	    0.917165	    0.917165	
 --	 --	 --	 --	 --	      0.4351	    0.914312	    0.917291	           0	  -0.0029793	           1	           0	      194216	    -2.60431	     4.43889	
 --	 --	 --	 --	 --	      0.4401	    0.915609	    0.917417	           0	 -0.00180812	           1	           0	    -80881.5	    0.917417	    0.917417	
 --	 --	 --	 --	 --	      0.4451	    0.913644	    0.917543	           0	 -0.00389835	           1	           0	     28602.7	   -0.433911	       2.269	
 --	 --	 --	 --	 --	      0.4501	    0.910936	    0.917669	           0	 -0.00673317	           1	           0	      187974	    -2.54688	     4.38222	
 --	 --	 --	 --	 --	      0.4551	    0.915838	    0.917795	           0	 -0.00195727	           1	           0	     1172.88	    0.644126	     1.19146	
 --	 --	 --	 --	 --	      0.4601	    0.918737	    0.917921	           0	 0.000815678	           1	           0	     82657.9	     -1.3795	     3.21534	
 --	 --	 --	 --	 --	      0.4651	    0.915933	    0.918047	           0	 -0.00211377	           1	           0	      144165	    -2.11604	     3.95213	
 --	 --	 --	 --	 --	      0.4701	    0.915227	    0.918173	           0	  -0.0029453	           1	           0	     23019.5	   -0.294227	     2.13057	
 --	 --	 --	 --	 --	      0.4751	    0.913492	    0.918298	           0	 -0.00480686	           1	           0	     28843.8	    -0.43884	     2.27544	
 --	 --	 --	 --	 --	      0.4801	    0.912767	    0.918424	           0	  -0.0056569	           1	           0	     -135205	    0.918424	    0.918424	
 --	 --	 --	 --	 --	      0.4851	     0.91992	    0.918549	           0	  0.00137088	           1	           0	    -39797.3	    0.918549	    0.918549	
 --	 --	 --	 --	 --	      0.4901	    0.916486	    0.918673	           0	 -0.00218698	           1	           0	     32441.7	   -0.520621	     2.35797	
 --	 --	 --	 --	 --	      0.4951	    0.912481	    0.918797	           0	 -0.00631668	           1	           0	      288377	     -3.3724	     5.20999	
 --	 --	 --	 --	 --	      0.5001	    0.918374	    0.918921	           0	-0.000546933	           1	           0	     15693.9	   -0.082148	     1.91999	
 --	 --	 --	 --	 --	      0.5051	    0.914121	    0.919044	           0	  -0.0049237	           1	           0	     15428.4	  -0.0735185	     1.91161	
 --	 --	 --	 --	 --	      0.5101	    0.914331	    0.919167	           0	 -0.00483671	           1	           0	    -52830.6	    0.919167	    0.919167	
 --	 --	 --	 --	 --	      0.5151	    0.920377	    0.919289	           0	  0.00108759	           1	           0	      176420	     -2.4371	     4.27568	
 --	 --	 --	 --	 --	      0.5201	    0.915914	    0.919411	           0	 -0.00349703	           1	           0	      232568	    -2.93425	     4.77307	
 --	 --	 --	 --	 --	      0.5251	    0.915914	    0.919532	           0	  -0.0036183	           1	           0	      140414	    -2.07483	     3.91389	
 --	 --	 --	 --	 --	      0.5301	    0.921941	    0.919652	           0	  0.00228857	           1	           0	     63922.7	    -1.10069	        2.94	
 --	 --	 --	 --	 --	      0.5351	    0.917974	    0.919772	           0	  -0.0017984	           1	           0	      105145	    -1.67138	     3.51092	
 --	 --	 --	 --	 --	      0.5401	    0.916772	    0.919891	           0	 -0.00311869	           1	           0	    -32495.5	    0.919891	    0.919891	
 --	 --	 --	 --	 --	      0.5451	    0.919748	     0.92001	           0	-0.000261786	           1	           0	    -93926.7	     0.92001	     0.92001	
 --	 --	 --	 --	 --	      0.5501	    0.920911	    0.920127	           0	 0.000784091	           1	           0	     79895.3	    -1.33857	     3.17883	
 --	 --	 --	 --	 --	      0.5551	    0.918317	    0.920244	           0	 -0.00192679	           1	           0	      216280	    -2.79601	      4.6365	
 --	 --	 --	 --	 --	      0.5601	    0.915571	     0.92036	           0	 -0.00478918	           1	           0	     -123237	     0.92036	     0.92036	
 --	 --	 --	 --	 --	      0.5651	    0.918088	    0.920476	           0	 -0.00238729	           1	           0	      241993	    -3.01049	     4.85144	
 --	 --	 --	 --	 --	      0.5701	    0.923772	     0.92059	           0	  0.00318212	           1	           0	     74308.6	    -1.25771	     3.09889	
 --	 --	 --	 --	 --	      0.5751	     0.92074	    0.920704	           0	3.58356e-005	           1	           0	      340376	    -3.74136	     5.58276	
 --	 --	 --	 --	 --	      0.5801	    0.915571	    0.920817	           0	 -0.00524615	           1	           0	      296270	    -3.42871	     5.27034	
 --	 --	 --	 --	 --	      0.5851	    0.922837	    0.920929	           0	  0.00190843	           1	           0	     79051.7	    -1.32581	     3.16767	
 --	 --	 --	 --	 --	      0.5901	    0.922056	     0.92104	           0	  0.00101509	           1	           0	      228131	    -2.89568	     4.73776	
 --	 --	 --	 --	 --	      0.5951	    0.918127	    0.921151	           0	 -0.00302418	           1	           0	    -73516.7	    0.921151	    0.921151	
 --	 --	 --	 --	 --	      0.6001	    0.915151	    0.921261	           0	  -0.0061096	           1	           0	     9129.46	     0.15774	     1.68478	
 --	 --	 --	 --	 --	      0.6051	    0.922418	    0.921369	           0	  0.00104857	           1	           0	    -86296.4	    0.921369	    0.921369	
 --	 --	 --	 --	 --	      0.6101	    0.922799	    0.921477	           0	  0.00132185	           1	           0	      140267	    -2.07131	     3.91426	
 --	 --	 --	 --	 --	      0.6151	    0.919385	    0.921585	           0	 -0.00219902	           1	           0	      143136	    -2.10165	     3.94482	
 --	 --	 --	 --	 --	      0.6201	    0.913949	    0.921691	           0	 -0.00774153	           1	           0	      142540	    -2.09525	     3.93863	
 --	 --	 --	 --	 --	      0.6251	    0.922494	    0.921796	           0	 0.000698069	           1	           0	      379597	    -4.00154	     5.84513	
 --	 --	 --	 --	 --	      0.6301	    0.920358	    0.921901	           0	 -0.00154246	           1	           0	      223468	    -2.85561	     4.69941	
 --	 --	 --	 --	 --	      0.6351	    0.921121	    0.922004	           0	-0.000883373	           1	           0	      163706	    -2.31118	     4.15519	
 --	 --	 --	 --	 --	      0.6401	    0.925603	    0.922107	           0	  0.00349609	           1	           0	      221386	    -2.83776	     4.68198	
 --	 --	 --	 --	 --	      0.6451	    0.919824	    0.922209	           0	 -0.00238534	           1	           0	     29317.2	   -0.446021	     2.29044	
 --	 --	 --	 --	 --	      0.6501	    0.921941	     0.92231	           0	-0.000369134	           1	           0	     77156.7	    -1.29734	     3.14196	
 --	 --	 --	 --	 --	      0.6551	    0.924383	     0.92241	           0	  0.00197244	           1	           0	       41828	   -0.711889	     2.55671	
 --	 --	 --	 --	 --	      0.6601	    0.920053	     0.92251	           0	 -0.00245662	           1	           0	     17444.6	   -0.132919	     1.97794	
 --	 --	 --	 --	 --	      0.6651	    0.921655	    0.922608	           0	-0.000952804	           1	           0	     84774.9	    -1.40405	     3.24926	
 --	 --	 --	 --	 --	      0.6701	    0.920358	    0.922706	           0	 -0.00234737	           1	           0	      130333	    -1.96216	     3.80757	
 --	 --	 --	 --	 --	      0.6751	    0.923582	    0.922802	           0	  0.00077918	           1	           0	    -81711.4	    0.922802	    0.922802	
 --	 --	 --	 --	 --	      0.6801	    0.924345	    0.922898	           0	   0.0014466	           1	           0	      109140	    -1.71702	     3.56281	
 --	 --	 --	 --	 --	      0.6851	    0.921731	    0.922993	           0	 -0.00126187	           1	           0	      199458	    -2.64582	     4.49181	
 --	 --	 --	 --	 --	      0.6901	    0.920339	    0.923087	           0	 -0.00274848	           1	           0	     -143408	    0.923087	    0.923087	
 --	 --	 --	 --	 --	      0.6951	    0.919996	     0.92318	           0	 -0.00318473	           1	           0	      223949	    -2.85839	     4.70475	
 --	 --	 --	 --	 --	      0.7001	    0.920549	    0.923273	           0	 -0.00272413	           1	           0	     17964.7	   -0.147773	     1.99432	
 --	 --	 --	 --	 --	      0.7051	    0.923048	    0.923364	           0	-0.000316675	           1	           0	     98048.2	    -1.57881	     3.42554	
 --	 --	 --	 --	 --	      0.7101	    0.927072	    0.923455	           0	  0.00361688	           1	           0	      168973	    -2.36132	     4.20823	
 --	 --	 --	 --	 --	      0.7151	    0.922552	    0.923545	           0	-0.000993224	           1	           0	    -69030.7	    0.923545	    0.923545	
 --	 --	 --	 --	 --	      0.7201	    0.924096	    0.923634	           0	 0.000462513	           1	           0	      -40886	    0.923634	    0.923634	
 --	 --	 --	 --	 --	      0.7251	    0.917478	    0.923722	           0	 -0.00624391	           1	           0	     10316.9	    0.112064	     1.73538	
 --	 --	 --	 --	 --	      0.7301	     0.92505	     0.92381	           0	  0.00124074	           1	           0	    -13015.6	     0.92381	     0.92381	
 --	 --	 --	 --	 --	      0.7351	    0.921369	    0.923896	           0	 -0.00252678	           1	           0	      129364	    -1.95022	     3.79802	
 --	 --	 --	 --	 --	      0.7401	    0.924993	    0.923982	           0	  0.00101128	           1	           0	      107983	    -1.70191	     3.54987	
 --	 --	 --	 --	 --	      0.7451	    0.923086	    0.924067	           0	-0.000981101	           1	           0	    -19234.9	    0.924067	    0.924067	
 --	 --	 --	 --	 --	      0.7501	    0.921235	    0.924151	           0	 -0.00291517	           1	           0	      324391	    -3.62712	     5.47542	
 --	 --	 --	 --	 --	      0.7551	    0.927339	    0.924234	           0	  0.00310507	           1	           0	      181710	     -2.4821	     4.33057	
 --	 --	 --	 --	 --	      0.7601	    0.926824	    0.924316	           0	  0.00250762	           1	           0	      117895	    -1.81944	     3.66808	
 --	 --	 --	 --	 --	      0.7651	    0.921903	    0.924398	           0	 -0.00249479	           1	           0	      129674	    -1.95317	     3.80196	
 --	 --	 --	 --	 --	      0.7701	    0.923925	    0.924479	           0	-0.000553913	           1	           0	     32245.4	   -0.510456	     2.35941	
 --	 --	 --	 --	 --	      0.7751	    0.925737	    0.924559	           0	  0.00117775	           1	           0	     21721.2	   -0.253155	     2.10227	
 --	 --	 --	 --	 --	      0.7801	    0.927416	    0.924638	           0	   0.0027772	           1	           0	     57436.3	   -0.990461	     2.83974	
 --	 --	 --	 --	 --	      0.7851	    0.922113	    0.924717	           0	 -0.00260408	           1	           0	      150016	    -2.17033	     4.01976	
 --	 --	 --	 --	 --	      0.7901	    0.926614	    0.924795	           0	  0.00181966	           1	           0	     -157437	    0.924795	    0.924795	
 --	 --	 --	 --	 --	      0.7951	    0.928274	    0.924872	           0	  0.00340217	           1	           0	     6217.83	     0.29476	     1.55498	
 --	 --	 --	 --	 --	      0.8001	    0.925527	    0.924948	           0	 0.000579181	           1	           0	      106670	    -1.68492	     3.53482	
 --	 --	 --	 --	 --	      0.8051	    0.924573	    0.925023	           0	-0.000450056	           1	           0	     -107998	    0.925023	    0.925023	
 --	 --	 --	 --	 --	      0.8101	    0.920701	    0.925098	           0	 -0.00439655	           1	           0	     -197675	    0.925098	    0.925098	
 --	 --	 --	 --	 --	      0.8151	    0.925928	    0.925172	           0	 0.000755702	           1	           0	     -136450	    0.925172	    0.925172	
 --	 --	 --	 --	 --	      0.8201	    0.921064	    0.925245	           0	 -0.00418157	           1	           0	    -1956.75	    0.925245	    0.925245	
 --	 --	 --	 --	 --	      0.8251	    0.924669	    0.925318	           0	-0.000648855	           1	           0	      220274	     -2.8251	     4.67574	
 --	 --	 --	 --	 --	      0.8301	    0.926176	     0.92539	           0	 0.000786077	           1	           0	     31869.3	   -0.501152	     2.35193	
 --	 --	 --	 --	 --	      0.8351	    0.925928	    0.925461	           0	 0.000466725	           1	           0	     -108701	    0.925461	    0.925461	
 --	 --	 --	 --	 --	      0.8401	    0.927568	    0.925531	           0	  0.00203683	           1	           0	      110342	    -1.72889	     3.57995	
 --	 --	 --	 --	 --	      0.8451	    0.926881	    0.925601	           0	   0.0012804	           1	           0	     94496.1	    -1.53083	     3.38203	
 --	 --	 --	 --	 --	      0.8501	    0.923009	     0.92567	           0	 -0.00266059	           1	           0	     2118.59	    0.557862	     1.29348	
 --	 --	 --	 --	 --	      0.8551	    0.930868	    0.925738	           0	  0.00513011	           1	           0	      358990	     -3.8621	     5.71358	
 --	 --	 --	 --	 --	      0.8601	    0.924306	    0.925806	           0	 -0.00149975	           1	           0	      207684	    -2.71586	     4.56747	
 --	 --	 --	 --	 --	      0.8651	    0.923792	    0.925873	           0	 -0.00208119	           1	           0	     98843.3	    -1.58643	     3.43817	
 --	 --	 --	 --	 --	      0.8701	    0.930067	    0.925939	           0	  0.00412755	           1	           0	       16816	   -0.110299	     1.96218	
 --	 --	 --	 --	 --	      0.8751	    0.926404	    0.926005	           0	 0.000399713	           1	           0	    -31473.8	    0.926005	    0.926005	
 --	 --	 --	 --	 --	      0.8801	    0.925832	    0.926069	           0	-0.000237216	           1	           0	      135630	    -2.01684	     3.86897	
 --	 --	 --	 --	 --	      0.8851	    0.926957	    0.926134	           0	 0.000823511	           1	           0	      127568	    -1.92796	     3.78023	
 --	 --	 --	 --	 --	      0.8901	    0.921674	    0.926197	           0	 -0.00452336	           1	           0	     55131.6	   -0.950085	     2.80248	
 --	 --	 --	 --	 --	      0.8951	    0.923467	     0.92626	           0	 -0.00279359	           1	           0	      395900	    -4.10169	     5.95421	
 --	 --	 --	 --	 --	      0.9001	    0.930963	    0.926323	           0	  0.00464057	           1	           0	     99924.3	    -1.59968	     3.45232	
 --	 --	 --	 --	 --	      0.9051	    0.929456	    0.926384	           0	  0.00307186	           1	           0	      248082	    -3.05373	      4.9065	
 --	 --	 --	 --	 --	      0.9101	    0.928102	    0.926445	           0	  0.00165653	           1	           0	      246136	    -3.03803	     4.89092	
 --	 --	 --	 --	 --	      0.9151	    0.931535	    0.926506	           0	  0.00502906	           1	           0	     49419.8	   -0.849926	     2.70294	
 --	 --	 --	 --	 --	      0.9201	    0.925565	    0.926566	           0	 -0.00100053	           1	           0	     54125.8	   -0.932523	     2.78565	
 --	 --	 --	 --	 --	      0.9251	    0.923887	    0.926625	           0	 -0.00273827	           1	           0	     77072.4	    -1.29181	     3.14506	
 --	 --	 --	 --	 --	      0.9301	    0.925146	    0.926684	           0	 -0.00153791	           1	           0	      228531	    -2.89338	     4.74675	
 --	 --	 --	 --	 --	      0.9351	    0.931287	    0.926742	           0	  0.00454556	           1	           0	      180871	    -2.47172	      4.3252	
 --	 --	 --	 --	 --	      0.9401	    0.928521	    0.926799	           0	  0.00172211	           1	           0	     44388.1	   -0.756771	     2.61037	
 --	 --	 --	 --	 --	      0.9451	    0.925108	    0.926856	           0	  -0.0017485	           1	           0	    -22613.6	    0.926856	    0.926856	
 --	 --	 --	 --	 --	      0.9501	    0.926633	    0.926912	           0	-0.000279026	           1	           0	      180432	    -2.46743	     4.32125	
 --	 --	 --	 --	 --	      0.9551	     0.92999	    0.926968	           0	  0.00302227	           1	           0	    -4877.97	    0.926968	    0.926968	
 --	 --	 --	 --	 --	      0.9601	    0.927987	    0.927023	           0	 0.000964386	           1	           0	      107791	    -1.69652	     3.55057	
 --	 --	 --	 --	 --	      0.9651	    0.928083	    0.927078	           0	  0.00100532	           1	           0	    -42122.2	    0.927078	    0.927078	
 --	 --	 --	 --	 --	      0.9701	    0.923467	    0.927132	           0	  -0.0036647	           1	           0	      268090	    -3.21037	     5.06464	
 --	 --	 --	 --	 --	      0.9751	    0.930067	    0.927185	           0	  0.00288159	           1	           0	      410364	    -4.19178	     6.04615	
 --	 --	 --	 --	 --	      0.9801	     0.93245	    0.927238	           0	  0.00521193	           1	           0	      267732	     -3.2075	     5.06198	
 --	 --	 --	 --	 --	      0.9851	    0.927568	     0.92729	           0	 0.000277315	           1	           0	    -34005.3	     0.92729	     0.92729	
 --	 --	 --	 --	 --	      0.9901	    0.926919	    0.927342	           0	-0.000423016	           1	           0	    -4857.14	    0.927342	    0.927342	
 --	 --	 --	 --	 --	      0.9951	    0.928026	    0.927394	           0	 0.000632184	           1	           0	      274993	    -3.26304	     5.11783	
 --	 --	 --	 --	 --	      1.0001	    0.929323	    0.927444	           0	  0.00187841	           1	           0	     52268.4	   -0.899467	     2.75436	
 --	 --	 --	 --	 --	      1.0051	    0.928045	    0.927495	           0	 0.000550159	           1	           0	      244444	    -3.02333	     4.87832	
 --	 --	 --	 --	 --	      1.0101	    0.928541	    0.927544	           0	 0.000996173	           1	           0	      412798	    -4.20658	     6.06167	
 --	 --	 --	 --	 --	      1.0151	    0.929457	    0.927594	           0	  0.00186295	           1	           0	     -169483	    0.927594	    0.927594	
 --	 --	 --	 --	 --	      1.0201	    0.924459	    0.927642	           0	 -0.00318302	           1	           0	     64231.4	    -1.09758	     2.95286	
 --	 --	 --	 --	 --	      1.0251	     0.93144	     0.92769	           0	  0.00374926	           1	           0	      106049	    -1.67457	     3.52995	
 --	 --	 --	 --	 --	      1.0301	     0.92959	    0.927738	           0	  0.00185154	           1	           0	      270540	    -3.22863	      5.0841	
 --	 --	 --	 --	 --	      1.0351	    0.928388	    0.927785	           0	  0.00060256	           1	           0	      -51350	    0.927785	    0.927785	
 --	 --	 --	 --	 --	      1.0401	    0.929704	    0.927832	           0	  0.00187182	           1	           0	      209556	     -2.7302	     4.58587	
 --	 --	 --	 --	 --	      1.0451	    0.931993	    0.927878	           0	  0.00411455	           1	           0	     22966.7	    -0.28313	     2.13889	
 --	 --	 --	 --	 --	      1.0501	    0.923639	    0.927924	           0	 -0.00428548	           1	           0	      128709	     -1.9389	     3.79475	
 --	 --	 --	 --	 --	      1.0551	    0.926862	     0.92797	           0	  -0.0011073	           1	           0	     -101144	     0.92797	     0.92797	
 --	 --	 --	 --	 --	      1.0601	    0.928789	    0.928014	           0	 0.000774103	           1	           0	      248504	    -3.05549	     4.91152	
 --	 --	 --	 --	 --	      1.0651	    0.932184	    0.928059	           0	  0.00412572	           1	           0	     -243863	    0.928059	    0.928059	
 --	 --	 --	 --	 --	      1.0701	    0.927816	    0.928103	           0	-0.000286961	           1	           0	     -103616	    0.928103	    0.928103	
 --	 --	 --	 --	 --	      1.0751	    0.930086	    0.928146	           0	  0.00193931	           1	           0	     -121884	    0.928146	    0.928146	
 --	 --	 --	 --	 --	      1.0801	    0.928579	    0.928189	           0	 0.000389537	           1	           0	     25108.2	   -0.338022	      2.1944	
 --	 --	 --	 --	 --	      1.0851	    0.930048	    0.928232	           0	   0.0018157	           1	           0	      279020	    -3.29277	     5.14924	
 --	 --	 --	 --	 --	      1.0901	    0.930162	    0.928274	           0	  0.00188806	           1	           0	     -173376	    0.928274	    0.928274	
 --	 --	 --	 --	 --	      1.0951	    0.923067	    0.928316	           0	  -0.0052489	           1	           0	    -28706.8	    0.928316	    0.928316	
 --	 --	 --	 --	 --	         1.1	    0.933599	    0.928356	           0	  0.00524265	           1	           0	    -76478.5	    0.928356	    0.928356	
 --	 --	 --	 --	 --	       1.225	    0.930584	     0.92926	           0	  0.00132412	           1	           0	      152634	    -2.19267	     4.05119	
 --	 --	 --	 --	 --	        1.35	    0.935449	    0.929958	           0	  0.00549098	           1	           0	      330679	    -3.66521	     5.52512	
 --	 --	 --	 --	 --	       1.475	     0.93108	    0.930495	           0	 0.000585712	           1	           0	     80336.8	    -1.33444	     3.19543	
 --	 --	 --	 --	 --	         1.6	     0.93028	    0.930909	           0	-0.000629312	           1	           0	     62404.6	     -1.0653	     2.92712	
 --	 --	 --	 --	 --	       1.725	    0.936726	    0.931228	           0	  0.00549865	           1	           0	    -26112.3	    0.931228	    0.931228	
 --	 --	 --	 --	 --	        1.85	    0.936535	    0.931474	           0	  0.00506182	           1	           0	      353045	    -3.81656	      5.6795	
 --	 --	 --	 --	 --	       1.975	    0.933923	    0.931663	           0	  0.00225964	           1	           0	      -82071	    0.931663	    0.931663	
 --	 --	 --	 --	 --	         2.1	     0.93274	    0.931809	           0	 0.000931176	           1	           0	      164923	    -2.31337	     4.17699	
 --	 --	 --	 --	 --	       2.225	    0.938577	    0.931922	           0	   0.0066552	           1	           0	      175233	    -2.41315	     4.27699	
 --	 --	 --	 --	 --	        2.35	     0.93501	    0.932008	           0	  0.00300179	           1	           0	    -40404.2	    0.932008	    0.932008	
 --	 --	 --	 --	 --	       2.475	    0.936765	    0.932075	           0	  0.00468975	           1	           0	      138565	     -2.0425	     3.90665	
 --	 --	 --	 --	 --	         2.6	    0.931615	    0.932126	           0	-0.000511703	           1	           0	      312634	     -3.5359	     5.40015	
 --	 --	 --	 --	 --	       2.725	    0.935906	    0.932166	           0	  0.00374015	           1	           0	     -106083	    0.932166	    0.932166	
 --	 --	 --	 --	 --	        2.85	    0.934514	    0.932197	           0	  0.00231709	           1	           0	      238823	    -2.97294	     4.83733	
 --	 --	 --	 --	 --	       2.975	    0.936174	     0.93222	           0	   0.0039533	           1	           0	      152558	    -2.18893	     4.05337	
 --	 --	 --	 --	 --	         3.1	    0.935468	    0.932238	           0	  0.00322941	           1	           0	     -147837	    0.932238	    0.932238	
 --	 --	 --	 --	 --	       3.225	    0.937547	    0.932252	           0	  0.00529443	           1	           0	      150198	    -2.16467	     4.02917	
 --	 --	 --	 --	 --	        3.35	    0.935792	    0.932263	           0	  0.00352891	           1	           0	      624585	    -5.38303	     7.24756	
 --	 --	 --	 --	 --	       3.475	    0.933942	    0.932271	           0	  0.00167036	           1	           0	     80460.5	    -1.33441	     3.19895	
 --	 --	 --	 --	 --	         3.6	    0.937718	    0.932278	           0	  0.00544046	           1	           0	      135085	     -2.0047	     3.86926	
 --	 --	 --	 --	 --	       3.725	    0.935563	    0.932283	           0	  0.00328029	           1	           0	      341135	    -3.73497	     5.59954	
 --	 --	 --	 --	 --	        3.85	    0.935964	    0.932287	           0	  0.00367699	           1	           0	     -248736	    0.932287	    0.932287	
 --	 --	 --	 --	 --	       3.975	    0.936822	    0.932289	           0	  0.00453256	           1	           0	    -38934.3	    0.932289	    0.932289	
 --	 --	 --	 --	 --	         4.1	    0.938119	    0.932292	           0	  0.00582706	           1	           0	    -23080.3	    0.932292	    0.932292	
 --	 --	 --	 --	 --	       4.225	    0.935868	    0.932293	           0	  0.00357457	           1	           0	      177776	    -2.43697	     4.30156	
 --	 --	 --	 --	 --	        4.35	    0.933617	    0.932295	           0	  0.00132273	           1	           0	     40132.1	   -0.668531	     2.53312	
 --	 --	 --	 --	 --	       4.475	    0.938729	    0.932296	           0	  0.00643295	           1	           0	      148352	    -2.14554	     4.01013	
 --	 --	 --	 --	 --	         4.6	     0.93543	    0.932297	           0	  0.00313291	           1	           0	      141438	    -2.07296	     3.93755	
 --	 --	 --	 --	 --	       4.725	    0.940694	    0.932297	           0	  0.00839729	           1	           0	      134702	    -2.00052	     3.86512	
 --	 --	 --	 --	 --	        4.85	    0.944051	    0.932298	           0	   0.0117531	           1	           0	      249584	    -3.05985	     4.92444	
 --	 --	 --	 --	 --	       4.975	    0.938729	    0.932298	           0	  0.00643121	           1	           0	     72161.2	     -1.2143	     3.07889	
 --	 --	 --	 --	 --	         5.1	    0.936497	    0.932298	           0	  0.00419918	           1	           0	      169215	    -2.35484	     4.21943	
 --	 --	 --	 --	 --	       5.225	    0.934495	    0.932299	           0	  0.00219621	           1	           0	     -148725	    0.932299	    0.932299	
 --	 --	 --	 --	 --	        5.35	    0.940274	    0.932299	           0	  0.00797554	           1	           0	     -133596	    0.932299	    0.932299	
 --	 --	 --	 --	 --	       5.475	      0.9381	    0.932299	           0	  0.00580067	           1	           0	      177876	    -2.43791	     4.30251	
 --	 --	 --	 --	 --	         5.6	    0.933942	    0.932299	           0	  0.00164282	           1	           0	      141694	    -2.07567	     3.94027	
 --	 --	 --	 --	 --	       5.725	    0.935887	    0.932299	           0	  0.00358824	           1	           0	     -152481	    0.932299	    0.932299	
 --	 --	 --	 --	 --	        5.85	    0.937146	    0.932299	           0	  0.00484693	           1	           0	      153573	    -2.19922	     4.06382	
 --	 --	 --	 --	 --	       5.975	    0.940999	    0.932299	           0	  0.00869964	           1	           0	      211165	    -2.73975	     4.60435	
 --	 --	 --	 --	 --	         6.1	     0.94222	    0.932299	           0	   0.0099206	           1	           0	      166482	    -2.32818	     4.19278	
 --	 --	 --	 --	 --	       6.225	    0.934495	    0.932299	           0	  0.00219558	           1	           0	      106564	    -1.67628	     3.54088	
 --	 --	 --	 --	 --	        6.35	    0.934247	    0.932299	           0	  0.00194781	           1	           0	      250467	     -3.0669	      4.9315	
 --	 --	 --	 --	 --	       6.475	    0.935468	    0.932299	           0	  0.00316854	           1	           0	      344704	     -3.7593	      5.6239	
 --	 --	 --	 --	 --	         6.6	    0.938672	    0.932299	           0	  0.00637303	           1	           0	     83442.2	    -1.37599	     3.24059	
 --	 --	 --	 --	 --	       6.725	    0.936441	    0.932299	           0	  0.00414127	           1	           0	     -113999	    0.932299	    0.932299	
 --	 --	 --	 --	 --	        6.85	    0.939607	    0.932299	           0	  0.00730726	           1	           0	    -17506.4	    0.932299	    0.932299	
 --	 --	 --	 --	 --	       6.975	    0.938481	    0.932299	           0	  0.00618175	           1	           0	     57702.9	   -0.987239	     2.85184	
 --	 --	 --	 --	 --	         7.1	    0.936173	    0.932299	           0	    0.003874	           1	           0	    -9866.81	    0.932299	    0.932299	
 --	 --	 --	 --	 --	       7.225	    0.936459	    0.932299	           0	  0.00416025	           1	           0	     84478.3	    -1.39028	     3.25488	
 --	 --	 --	 --	 --	        7.35	    0.936059	    0.932299	           0	  0.00375949	           1	           0	     40379.8	    -0.67346	     2.53806	
 --	 --	 --	 --	 --	       7.475	    0.936326	    0.932299	           0	  0.00402674	           1	           0	      335624	     -3.6971	      5.5617	
 --	 --	 --	 --	 --	         7.6	    0.936593	    0.932299	           0	  0.00429374	           1	           0	      119923	    -1.83496	     3.69956	
 --	 --	 --	 --	 --	       7.725	    0.933446	    0.932299	           0	  0.00114674	           1	           0	      145915	    -2.12015	     3.98475	
 --	 --	 --	 --	 --	        7.85	    0.935067	    0.932299	           0	  0.00276774	           1	           0	     -128293	    0.932299	    0.932299	
 --	 --	 --	 --	 --	       7.975	    0.942849	    0.932299	           0	     0.01055	           1	           0	      135760	    -2.01201	     3.87661	
 --	 --	 --	 --	 --	         8.1	    0.935219	    0.932299	           0	  0.00292024	           1	           0	     -131812	    0.932299	    0.932299	
 --	 --	 --	 --	 --	       8.225	    0.936975	    0.932299	           0	  0.00467524	           1	           0	     -115309	    0.932299	    0.932299	
 --	 --	 --	 --	 --	        8.35	    0.932835	    0.932299	           0	 0.000535987	           1	           0	      528188	    -4.87524	     6.73984	
 --	 --	 --	 --	 --	       8.475	    0.933389	    0.932299	           0	  0.00108949	           1	           0	      -61388	    0.932299	    0.932299	
 --	 --	 --	 --	 --	         8.6	    0.936612	    0.932299	           0	  0.00431299	           1	           0	      157105	    -2.23503	     4.09963	
 --	 --	 --	 --	 --	       8.725	    0.934876	    0.932299	           0	  0.00257724	           1	           0	     33685.6	   -0.534329	     2.39893	
 --	 --	 --	 --	 --	        8.85	    0.935658	    0.932299	           0	  0.00335899	           1	           0	      102771	    -1.62943	     3.49403	
 --	 --	 --	 --	 --	       8.975	    0.934438	    0.932299	           0	  0.00213824	           1	           0	     86358.2	    -1.41598	     3.28058	
 --	 --	 --	 --	 --	         9.1	     0.93686	    0.932299	           0	  0.00456074	           1	           0	      149303	    -2.15538	     4.01998	
 --	 --	 --	 --	 --	       9.225	     0.93913	    0.932299	           0	  0.00683049	           1	           0	      114122	    -1.76719	     3.63179	
 --	 --	 --	 --	 --	        9.35	    0.933637	    0.932299	           0	  0.00133749	           1	           0	     76023.6	    -1.27099	     3.13559	
 --	 --	 --	 --	 --	       9.475	    0.942525	    0.932299	           0	   0.0102252	           1	           0	     -176235	    0.932299	    0.932299	
 --	 --	 --	 --	 --	         9.6	    0.934838	    0.932299	           0	  0.00253874	           1	           0	    -1000.11	    0.932299	    0.932299	
 --	 --	 --	 --	 --	       9.725	    0.935773	    0.932299	           0	  0.00347349	           1	           0	     -129020	    0.932299	    0.932299	
 --	 --	 --	 --	 --	        9.85	    0.938329	    0.932299	           0	  0.00602924	           1	           0	     -104539	    0.932299	    0.932299	
 --	 --	 --	 --	 --	       9.975	    0.933522	    0.932299	           0	  0.00122299	           1	           0	      100239	    -1.59768	     3.46228	
 --	 --	 --	 --	 --	        10.4	    0.932358	    0.932299	           0	5.92361e-005	           1	           0	       44178	   -0.747282	     2.61188	
 --	 --	 --	 --	 --	        10.9	    0.937928	    0.932299	           0	  0.00562874	           1	           0	     5540.09	    0.337519	     1.52708	
 --	 --	 --	 --	 --	        11.4	    0.939264	    0.932299	           0	  0.00696424	           1	           0	      227363	    -2.87799	     4.74259	
 --	 --	 --	 --	 --	        11.9	    0.931539	    0.932299	           0	-0.000760764	           1	           0	      158945	    -2.25352	     4.11812	
 --	 --	 --	 --	 --	        12.4	    0.936326	    0.932299	           0	  0.00402649	           1	           0	      140498	    -2.06295	     3.92755	
 --	 --	 --	 --	 --	        12.9	    0.931996	    0.932299	           0	-0.000303014	           1	           0	     -101935	    0.932299	    0.932299	
 --	 --	 --	 --	 --	        13.4	    0.933007	    0.932299	           0	 0.000707986	           1	           0	      352034	    -3.80892	     5.67352	
 --	 --	 --	 --	 --	        13.9	    0.938443	    0.932299	           0	  0.00614399	           1	           0	      166749	    -2.33079	     4.19539	
 --	 --	 --	 --	 --	        14.4	    0.935315	    0.932299	           0	  0.00301574	           1	           0	      352033	    -3.80892	     5.67352	
 --	 --	 --	 --	 --	        14.9	    0.934361	    0.932299	           0	  0.00206199	           1	           0	    -89395.8	    0.932299	    0.932299	
 --	 --	 --	 --	 --	        15.4	    0.931443	    0.932299	           0	-0.000856514	           1	           0	    -89397.1	    0.932299	    0.932299	
 --	 --	 --	 --	 --	        15.9	    0.934075	    0.932299	           0	  0.00177599	           1	           0	    -89396.2	    0.932299	    0.932299	
 --	 --	 --	 --	 --	        16.4	    0.934762	    0.932299	           0	  0.00246274	           1	           0	    -89396.5	    0.932299	    0.932299	
 --	 --	 --	 --	 --	        16.9	    0.938462	    0.932299	           0	  0.00616299	           1	           0	    -26556.7	    0.932299	    0.932299	
 --	 --	 --	 --	 --	        17.4	    0.936498	    0.932299	           0	  0.00419849	           1	           0	    -26556.5	    0.932299	    0.932299	
 --	 --	 --	 --	 --	        17.9	     0.93234	    0.932299	           0	4.02361e-005	           1	           0	    -89395.9	    0.932299	    0.932299	
 --	 --	 --	 --	 --	        18.4	    0.934209	    0.932299	           0	  0.00190949	           1	           0	    -26556.4	    0.932299	    0.932299	
 --	 --	 --	 --	 --	        18.9	    0.934171	    0.932299	           0	  0.00187124	           1	           0	    -89395.3	    0.932299	    0.932299	
 --	 --	 --	 --	 --	        19.4	    0.936231	    0.932299	           0	  0.00393124	           1	           0	    -89395.2	    0.932299	    0.932299	
 --	 --	 --	 --	 --	        19.9	    0.929765	    0.932299	           0	 -0.00253451	           1	           0	    -26557.4	    0.932299	    0.932299	
 --	 --	 --	 --	 --	        20.4	     0.93274	    0.932299	           0	 0.000440986	           1	           0	    -23904.3	    0.932299	    0.932299	
 --	 --	 --	 --	 --	        20.9	    0.931539	    0.932299	           0	-0.000760764	           1	           0	    -26557.6	    0.932299	    0.932299	
 --	 --	 --	 --	 --	        21.4	    0.931042	    0.932299	           0	 -0.00125676	           1	           0	    -89395.8	    0.932299	    0.932299	
 --	 --	 --	 --	 --	        21.9	    0.934133	    0.932299	           0	  0.00183324	           1	           0	    -89397.1	    0.932299	    0.932299	
 --	 --	 --	 --	 --	        22.4	    0.931691	    0.932299	           0	-0.000608264	           1	           0	    -89396.5	    0.932299	    0.932299	
 --	 --	 --	 --	 --	        22.9	    0.931119	    0.932299	           0	 -0.00118026	           1	           0	    -89396.2	    0.932299	    0.932299	
 --	 --	 --	 --	 --	        23.4	    0.935392	    0.932299	           0	  0.00309224	           1	           0	    -26557.4	    0.932299	    0.932299	
 --	 --	 --	 --	 --	        23.9	    0.939797	    0.932299	           0	  0.00749799	           1	           0	    -89395.8	    0.932299	    0.932299	
 --	 --	 --	 --	 --	        24.4	    0.936593	    0.932299	           0	  0.00429374	           1	           0	    -89396.8	    0.932299	    0.932299	
 --	 --	 --	 --	 --	        24.9	    0.933732	    0.932299	           0	  0.00143299	           1	           0	      -26557	    0.932299	    0.932299	
 --	 --	 --	 --	 --	        25.4	    0.929402	    0.932299	           0	 -0.00289701	           1	           0	    -89396.5	    0.932299	    0.932299	
 --	 --	 --	 --	 --	        25.9	    0.935506	    0.932299	           0	  0.00320649	           1	           0	    -89396.4	    0.932299	    0.932299	
 --	 --	 --	 --	 --	        26.4	    0.928773	    0.932299	           0	 -0.00352651	           1	           0	    -89397.1	    0.932299	    0.932299	
 --	 --	 --	 --	 --	        26.9	    0.933198	    0.932299	           0	 0.000898736	           1	           0	    -89397.7	    0.932299	    0.932299	
 --	 --	 --	 --	 --	        27.4	    0.934762	    0.932299	           0	  0.00246249	           1	           0	    -89396.2	    0.932299	    0.932299	
 --	 --	 --	 --	 --	        27.9	    0.931825	    0.932299	           0	-0.000474764	           1	           0	    -26558.3	    0.932299	    0.932299	
 --	 --	 --	 --	 --	        28.4	    0.932931	    0.932299	           0	 0.000631736	           1	           0	    -26557.6	    0.932299	    0.932299	
 --	 --	 --	 --	 --	        28.9	    0.934495	    0.932299	           0	  0.00219574	           1	           0	    -89396.2	    0.932299	    0.932299	
 --	 --	 --	 --	 --	        29.4	    0.934686	    0.932299	           0	  0.00238649	           1	           0	    -89396.2	    0.932299	    0.932299	
 --	 --	 --	 --	 --	        29.9	    0.930852	    0.932299	           0	 -0.00144751	           1	           0	    -89397.1	    0.932299	    0.932299	
 --	 --	 --	 --	 --	        30.4	    0.929211	    0.932299	           0	 -0.00308801	           1	           0	    -89395.9	    0.932299	    0.932299	
 --	 --	 --	 --	 --	        30.9	    0.929078	    0.932299	           0	 -0.00322126	           1	           0	    -89396.8	    0.932299	    0.932299	
 --	 --	 --	 --	 --	        31.4	    0.929097	    0.932299	           0	 -0.00320201	           1	           0	    -89395.5	    0.932299	    0.932299	
 --	 --	 --	 --	 --	        31.9	    0.931481	    0.932299	           0	-0.000818014	           1	           0	    -89396.8	    0.932299	    0.932299	
 --	 --	 --	 --	 --	        32.4	    0.931558	    0.932299	           0	-0.000741514	           1	           0	    -26557.7	    0.932299	    0.932299	
 --	 --	 --	 --	 --	        32.9	    0.928487	    0.932299	           0	 -0.00381251	           1	           0	    -89396.2	    0.932299	    0.932299	
 --	 --	 --	 --	 --	        33.4	    0.930508	    0.932299	           0	 -0.00179076	           1	           0	    -26557.7	    0.932299	    0.932299	
 --	 --	 --	 --	 --	        33.9	     0.93068	    0.932299	           0	 -0.00161901	           1	           0	    -26557.7	    0.932299	    0.932299	
 --	 --	 --	 --	 --	        34.4	     0.92595	    0.932299	           0	 -0.00634926	           1	           0	      -26557	    0.932299	    0.932299	
 --	 --	 --	 --	 --	        34.9	    0.930566	    0.932299	           0	 -0.00173351	           1	           0	    -26557.4	    0.932299	    0.932299	
 --	 --	 --	 --	 --	        35.4	    0.932549	    0.932299	           0	 0.000249986	           1	           0	      -26558	    0.932299	    0.932299	
 --	 --	 --	 --	 --	        35.9	    0.932149	    0.932299	           0	-0.000150514	           1	           0	    -89396.2	    0.932299	    0.932299	
 --	 --	 --	 --	 --	        36.4	    0.929689	    0.932299	           0	 -0.00261076	           1	           0	      -26557	    0.932299	    0.932299	
 --	 --	 --	 --	 --	        36.9	     0.93068	    0.932299	           0	 -0.00161926	           1	           0	    -89396.2	    0.932299	    0.932299	
 --	 --	 --	 --	 --	        37.4	    0.929669	    0.932299	           0	 -0.00263001	           1	           0	    -89396.2	    0.932299	    0.932299	
 --	 --	 --	 --	 --	        37.9	    0.932855	    0.932299	           0	 0.000555236	           1	           0	    -89397.1	    0.932299	    0.932299	
 --	 --	 --	 --	 --	        38.4	     0.92986	    0.932299	           0	 -0.00243926	           1	           0	    -89396.2	    0.932299	    0.932299	
 --	 --	 --	 --	 --	        38.9	    0.931977	    0.932299	           0	-0.000322264	           1	           0	    -89396.8	    0.932299	    0.932299	
 --	 --	 --	 --	 --	        39.4	    0.935887	    0.932299	           0	  0.00358774	           1	           0	    -89397.1	    0.932299	    0.932299	
 --	 --	 --	 --	 --	        39.9	    0.932893	    0.932299	           0	 0.000593736	           1	           0	    -89396.4	    0.932299	    0.932299	
 --	 --	 --	 --	 --	        40.4	    0.929917	    0.932299	           0	 -0.00238201	           1	           0	    -89396.8	    0.932299	    0.932299	
 --	 --	 --	 --	 --	        40.9	    0.933026	    0.932299	           0	 0.000726986	           1	           0	    -89397.1	    0.932299	    0.932299	
 --	 --	 --	 --	 --	        41.4	    0.931462	    0.932299	           0	-0.000837264	           1	           0	    -89396.9	    0.932299	    0.932299	
 --	 --	 --	 --	 --	        41.9	    0.931596	    0.932299	           0	-0.000703514	           1	           0	    -89396.8	    0.932299	    0.932299	
 --	 --	 --	 --	 --	        42.4	    0.932282	    0.932299	           0	-1.70139e-005	           1	           0	    -89396.8	    0.932299	    0.932299	
 --	 --	 --	 --	 --	        42.9	    0.926122	    0.932299	           0	 -0.00617751	           1	           0	    -89397.1	    0.932299	    0.932299	
 --	 --	 --	 --	 --	        43.4	    0.927304	    0.932299	           0	 -0.00499501	           1	           0	    -89397.1	    0.932299	    0.932299	
 --	 --	 --	 --	 --	        43.9	    0.930699	    0.932299	           0	 -0.00160026	           1	           0	    -89396.8	    0.932299	    0.932299	
 --	 --	 --	 --	 --	        44.4	    0.932893	    0.932299	           0	 0.000593486	           1	           0	    -89396.8	    0.932299	    0.932299	
 --	 --	 --	 --	 --	        44.9	    0.931519	    0.932299	           0	-0.000779764	           1	           0	    -89396.8	    0.932299	    0.932299	
 --	 --	 --	 --	 --	        45.4	    0.928906	    0.932299	           0	 -0.00339301	           1	           0	    -89396.2	    0.932299	    0.932299	
 --	 --	 --	 --	 --	        45.9	    0.929555	    0.932299	           0	 -0.00274426	           1	           0	    -89396.4	    0.932299	    0.932299	
 --	 --	 --	 --	 --	        46.4	    0.930394	    0.932299	           0	 -0.00190526	           1	           0	    -89396.4	    0.932299	    0.932299	
 --	 --	 --	 --	 --	        46.9	    0.932492	    0.932299	           0	 0.000192986	           1	           0	    -89397.1	    0.932299	    0.932299	
 --	 --	 --	 --	 --	        47.4	    0.930223	    0.932299	           0	 -0.00207676	           1	           0	    -89396.8	    0.932299	    0.932299	
 --	 --	 --	 --	 --	        47.9	    0.934819	    0.932299	           0	  0.00251999	           1	           0	    -89396.8	    0.932299	    0.932299	
 --	 --	 --	 --	 --	        48.4	    0.932301	    0.932299	           0	2.23613e-006	           1	           0	    -89397.4	    0.932299	    0.932299	
 --	 --	 --	 --	 --	        48.9	    0.931024	    0.932299	           0	 -0.00127576	           1	           0	    -89396.8	    0.932299	    0.932299	
 --	 --	 --	 --	 --	        49.4	     0.93541	    0.932299	           0	  0.00311124	           1	           0	    -89396.8	    0.932299	    0.932299	
 --	 --	 --	 --	 --	        49.9	    0.932855	    0.932299	           0	 0.000555236	           1	           0	    -89396.5	    0.932299	    0.932299	
 --	 --	 --	 --	 --	        50.4	    0.930814	    0.932299	           0	 -0.00148551	           1	           0	    -89396.5	    0.932299	    0.932299	
 --	 --	 --	 --	 --	        50.9	    0.931214	    0.932299	           0	 -0.00108526	           1	           0	    -89396.9	    0.932299	    0.932299	
 --	 --	 --	 --	 --	        51.4	    0.931233	    0.932299	           0	 -0.00106576	           1	           0	    -89396.9	    0.932299	    0.932299	
 --	 --	 --	 --	 --	        51.9	    0.930013	    0.932299	           0	 -0.00228651	           1	           0	    -89397.5	    0.932299	    0.932299	
 --	 --	 --	 --	 --	        52.4	    0.927285	    0.932299	           0	 -0.00501426	           1	           0	    -89396.8	    0.932299	    0.932299	
 --	 --	 --	 --	 --	        52.9	    0.933389	    0.932299	           0	  0.00108924	           1	           0	    -89396.8	    0.932299	    0.932299	
 --	 --	 --	 --	 --	        53.4	    0.928373	    0.932299	           0	 -0.00392676	           1	           0	    -89396.8	    0.932299	    0.932299	
 --	 --	 --	 --	 --	        53.9	    0.933846	    0.932299	           0	  0.00154699	           1	           0	    -89396.8	    0.932299	    0.932299	
 --	 --	 --	 --	 --	        54.4	    0.934438	    0.932299	           0	  0.00213849	           1	           0	    -89396.8	    0.932299	    0.932299	
 --	 --	 --	 --	 --	        54.9	    0.931615	    0.932299	           0	-0.000684264	           1	           0	    -89396.8	    0.932299	    0.932299	
 --	 --	 --	 --	 --	        55.4	    0.929593	    0.932299	           0	 -0.00270651	           1	           0	    -89396.8	    0.932299	    0.932299	
 --	 --	 --	 --	 --	        55.9	    0.929783	    0.932299	           0	 -0.00251576	           1	           0	    -89396.8	    0.932299	    0.932299	
 --	 --	 --	 --	 --	        56.4	    0.933503	    0.932299	           0	  0.00120374	           1	           0	    -89396.8	    0.932299	    0.932299	
 --	 --	 --	 --	 --	        56.9	    0.934247	    0.932299	           0	  0.00194749	           1	           0	    -89396.8	    0.932299	    0.932299	
 --	 --	 --	 --	 --	        57.4	    0.930356	    0.932299	           0	 -0.00194351	           1	           0	    -89396.8	    0.932299	    0.932299	
 --	 --	 --	 --	 --	        57.9	    0.931825	    0.932299	           0	-0.000474514	           1	           0	    -89396.8	    0.932299	    0.932299	
 --	 --	 --	 --	 --	        58.4	    0.933961	    0.932299	           0	  0.00166174	           1	           0	    -89396.8	    0.932299	    0.932299	
 --	 --	 --	 --	 --	        58.9	    0.931309	    0.932299	           0	-0.000989764	           1	           0	    -89396.8	    0.932299	    0.932299	
 --	 --	 --	 --	 --	        59.4	     0.93047	    0.932299	           0	 -0.00182876	           1	           0	    -89396.8	    0.932299	    0.932299	
 --	 --	 --	 --	 --	        59.9	    0.930642	    0.932299	           0	 -0.00165701	           1	           0	    -89396.8	    0.932299	    0.932299	
 --	 --	 --	 --	 --	        60.4	    0.928449	    0.932299	           0	 -0.00385076	           1	           0	    -89397.5	    0.932299	    0.932299	
 --	 --	 --	 --	 --	        60.9	    0.925149	    0.932299	           0	 -0.00715051	           1	           0	    -89396.9	    0.932299	    0.932299	
 --	 --	 --	 --	 --	        61.4	    0.926866	    0.932299	           0	 -0.00543376	           1	           0	    -89396.9	    0.932299	    0.932299	
 --	 --	 --	 --	 --	        61.9	    0.927209	    0.932299	           0	 -0.00509026	           1	           0	    -89396.9	    0.932299	    0.932299	
 --	 --	 --	 --	 --	        62.4	    0.927266	    0.932299	           0	 -0.00503326	           1	           0	    -89396.8	    0.932299	    0.932299	
 --	 --	 --	 --	 --	        62.9	    0.929593	    0.932299	           0	 -0.00270651	           1	           0	    -89396.8	    0.932299	    0.932299	
 --	 --	 --	 --	 --	        63.4	    0.929021	    0.932299	           0	 -0.00327826	           1	           0	    -89396.8	    0.932299	    0.932299	
 --	 --	 --	 --	 --	        63.9	    0.931214	    0.932299	           0	 -0.00108501	           1	           0	    -89396.8	    0.932299	    0.932299	
 --	 --	 --	 --	 --	        64.4	    0.933198	    0.932299	           0	 0.000898486	           1	           0	    -89396.8	    0.932299	    0.932299	
 --	 --	 --	 --	 --	        64.9	    0.929727	    0.932299	           0	 -0.00257251	           1	           0	    -89396.8	    0.932299	    0.932299	
 --	 --	 --	 --	 --	        65.4	    0.930127	    0.932299	           0	 -0.00217226	           1	           0	    -89396.8	    0.932299	    0.932299	
 --	 --	 --	 --	 --	        65.9	    0.934685	    0.932299	           0	  0.00238624	           1	           0	    -89396.8	    0.932299	    0.932299	
 --	 --	 --	 --	 --	        66.4	    0.931958	    0.932299	           0	-0.000341014	           1	           0	    -89396.8	    0.932299	    0.932299	
 --	 --	 --	 --	 --	        66.9	    0.928353	    0.932299	           0	 -0.00394576	           1	           0	    -89396.8	    0.932299	    0.932299	
 --	 --	 --	 --	 --	        67.4	    0.931977	    0.932299	           0	-0.000322264	           1	           0	    -89396.8	    0.932299	    0.932299	
 --	 --	 --	 --	 --	        67.9	    0.937013	    0.932299	           0	  0.00471324	           1	           0	    -89396.8	    0.932299	    0.932299	
 --	 --	 --	 --	 --	        68.4	    0.928239	    0.932299	           0	 -0.00406051	           1	           0	    -89396.8	    0.932299	    0.932299	
 --	 --	 --	 --	 --	        68.9	    0.930413	    0.932299	           0	 -0.00188626	           1	           0	    -89396.8	    0.932299	    0.932299	
 --	 --	 --	 --	 --	        69.4	    0.932778	    0.932299	           0	 0.000479236	           1	           0	    -89396.8	    0.932299	    0.932299	
 --	 --	 --	 --	 --	        69.9	    0.925301	    0.932299	           0	 -0.00699801	           1	           0	    -89396.8	    0.932299	    0.932299	
 --	 --	 --	 --	 --	        70.4	    0.926503	    0.932299	           0	 -0.00579626	           1	           0	    -89396.8	    0.932299	    0.932299	
 --	 --	 --	 --	 --	        70.9	    0.926942	    0.932299	           0	 -0.00535751	           1	           0	    -89396.8	    0.932299	    0.932299	
 --	 --	 --	 --	 --	        71.4	    0.934647	    0.932299	           0	  0.00234799	           1	           0	    -89396.8	    0.932299	    0.932299	
 --	 --	 --	 --	 --	        71.9	    0.931977	    0.932299	           0	-0.000322014	           1	           0	    -89396.8	    0.932299	    0.932299	
 --	 --	 --	 --	 --	        72.4	    0.928468	    0.932299	           0	 -0.00383151	           1	           0	    -89396.8	    0.932299	    0.932299	
 --	 --	 --	 --	 --	        72.9	    0.930165	    0.932299	           0	 -0.00213426	           1	           0	    -89396.8	    0.932299	    0.932299	
 --	 --	 --	 --	 --	        73.4	    0.926827	    0.932299	           0	 -0.00547176	           1	           0	    -89396.8	    0.932299	    0.932299	
 --	 --	 --	 --	 --	        73.9	    0.929879	    0.932299	           0	 -0.00242026	           1	           0	    -89396.8	    0.932299	    0.932299	
 --	 --	 --	 --	 --	        74.4	    0.922784	    0.932299	           0	 -0.00951526	           1	           0	    -89396.8	    0.932299	    0.932299	
 --	 --	 --	 --	 --	        74.9	     0.93274	    0.932299	           0	 0.000440986	           1	           0	    -89396.8	    0.932299	    0.932299	
 --	 --	 --	 --	 --	        75.4	    0.929078	    0.932299	           0	 -0.00322126	           1	           0	    -89396.8	    0.932299	    0.932299	
 --	 --	 --	 --	 --	        75.9	    0.926332	    0.932299	           0	 -0.00596776	           1	           0	    -89396.8	    0.932299	    0.932299	
 --	 --	 --	 --	 --	        76.4	    0.925588	    0.932299	           0	 -0.00671176	           1	           0	    -89396.8	    0.932299	    0.932299	
 --	 --	 --	 --	 --	        76.9	    0.933065	    0.932299	           0	 0.000765236	           1	           0	    -89396.8	    0.932299	    0.932299	
 --	 --	 --	 --	 --	        77.4	    0.929765	    0.932299	           0	 -0.00253451	           1	           0	    -89396.8	    0.932299	    0.932299	
 --	 --	 --	 --	 --	        77.9	    0.924558	    0.932299	           0	 -0.00774176	           1	           0	    -89396.8	    0.932299	    0.932299	
 --	 --	 --	 --	 --	        78.4	    0.932817	    0.932299	           0	 0.000517236	           1	           0	    -89396.8	    0.932299	    0.932299	
 --	 --	 --	 --	 --	        78.9	    0.931749	    0.932299	           0	-0.000550764	           1	           0	    -89396.8	    0.932299	    0.932299	
 --	 --	 --	 --	 --	        79.4	    0.932874	    0.932299	           0	 0.000574486	           1	           0	    -89396.8	    0.932299	    0.932299	
 --	 --	 --	 --	 --	        79.9	    0.926484	    0.932299	           0	 -0.00581526	           1	           0	    -89396.8	    0.932299	    0.932299	
 --	 --	 --	 --	 --	        80.4	    0.929784	    0.932299	           0	 -0.00251551	           1	           0	    -89396.8	    0.932299	    0.932299	
 --	 --	 --	 --	 --	        80.9	    0.926694	    0.932299	           0	 -0.00560526	           1	           0	    -89396.8	    0.932299	    0.932299	
 --	 --	 --	 --	 --	        81.4	    0.928125	    0.932299	           0	 -0.00417476	           1	           0	    -89396.8	    0.932299	    0.932299	
 --	 --	 --	 --	 --	        81.9	    0.932683	    0.932299	           0	 0.000383486	           1	           0	    -89396.8	    0.932299	    0.932299	
 --	 --	 --	 --	 --	        82.4	    0.926751	    0.932299	           0	 -0.00554851	           1	           0	    -89396.8	    0.932299	    0.932299	
 --	 --	 --	 --	 --	        82.9	    0.930527	    0.932299	           0	 -0.00177176	           1	           0	    -89396.8	    0.932299	    0.932299	
 --	 --	 --	 --	 --	        83.4	    0.926408	    0.932299	           0	 -0.00589151	           1	           0	    -89396.8	    0.932299	    0.932299	
 --	 --	 --	 --	 --	        83.9	    0.924405	    0.932299	           0	 -0.00789451	           1	           0	    -89396.8	    0.932299	    0.932299	
 --	 --	 --	 --	 --	        84.4	    0.928868	    0.932299	           0	 -0.00343101	           1	           0	    -89396.8	    0.932299	    0.932299	
 --	 --	 --	 --	 --	        84.9	    0.929517	    0.932299	           0	 -0.00278276	           1	           0	    -89396.8	    0.932299	    0.932299	
 --	 --	 --	 --	 --	        85.4	    0.930966	    0.932299	           0	 -0.00133301	           1	           0	    -89396.8	    0.932299	    0.932299	
 --	 --	 --	 --	 --	        85.9	     0.93026	    0.932299	           0	 -0.00203876	           1	           0	    -89396.8	    0.932299	    0.932299	
 --	 --	 --	 --	 --	        86.4	    0.930967	    0.932299	           0	 -0.00133276	           1	           0	    -89396.8	    0.932299	    0.932299	
 --	 --	 --	 --	 --	        86.9	    0.930928	    0.932299	           0	 -0.00137101	           1	           0	    -89396.8	    0.932299	    0.932299	
 --	 --	 --	 --	 --	        87.4	    0.933942	    0.932299	           0	  0.00164249	           1	           0	    -89396.8	    0.932299	    0.932299	
 --	 --	 --	 --	 --	        87.9	    0.932435	    0.932299	           0	 0.000135486	           1	           0	    -89396.8	    0.932299	    0.932299	
 --	 --	 --	 --	 --	        88.4	    0.931615	    0.932299	           0	-0.000684264	           1	           0	    -89396.8	    0.932299	    0.932299	
 --	 --	 --	 --	 --	        88.9	    0.929059	    0.932299	           0	 -0.00324051	           1	           0	    -89396.8	    0.932299	    0.932299	
 --	 --	 --	 --	 --	        89.4	    0.929021	    0.932299	           0	 -0.00327826	           1	           0	    -89396.8	    0.932299	    0.932299	
 --	 --	 --	 --	 --	        89.9	    0.925893	    0.932299	           0	 -0.00640651	           1	           0	    -89396.8	    0.932299	    0.932299	
 --	 --	 --	 --	 --	        90.4	     0.92719	    0.932299	           0	 -0.00510976	           1	           0	    -89396.8	    0.932299	    0.932299	
 --	 --	 --	 --	 --	        90.9	    0.929879	    0.932299	           0	 -0.00242051	           1	           0	    -89396.8	    0.932299	    0.932299	
 --	 --	 --	 --	 --	        91.4	    0.929402	    0.932299	           0	 -0.00289701	           1	           0	    -89396.8	    0.932299	    0.932299	
 --	 --	 --	 --	 --	        91.9	    0.930127	    0.932299	           0	 -0.00217226	           1	           0	    -89396.8	    0.932299	    0.932299	
 --	 --	 --	 --	 --	        92.4	    0.928658	    0.932299	           0	 -0.00364076	           1	           0	    -89396.8	    0.932299	    0.932299	
 --	 --	 --	 --	 --	        92.9	    0.931806	    0.932299	           0	-0.000493764	           1	           0	    -89396.8	    0.932299	    0.932299	
 --	 --	 --	 --	 --	        93.4	    0.927819	    0.932299	           0	 -0.00448026	           1	           0	    -89396.8	    0.932299	    0.932299	
 --	 --	 --	 --	 --	        93.9	    0.935868	    0.932299	           0	  0.00356899	           1	           0	    -89396.8	    0.932299	    0.932299	
 --	 --	 --	 --	 --	        94.4	    0.927342	    0.932299	           0	 -0.00495676	           1	           0	    -89396.8	    0.932299	    0.932299	
 --	 --	 --	 --	 --	        94.9	    0.931386	    0.932299	           0	-0.000913514	           1	           0	    -89396.8	    0.932299	    0.932299	
 --	 --	 --	 --	 --	        95.4	    0.927876	    0.932299	           0	 -0.00442301	           1	           0	    -89396.8	    0.932299	    0.932299	
 --	 --	 --	 --	 --	        95.9	      0.9274	    0.932299	           0	 -0.00489976	           1	           0	    -89396.8	    0.932299	    0.932299	
 --	 --	 --	 --	 --	        96.4	    0.934381	    0.932299	           0	  0.00208124	           1	           0	    -89396.8	    0.932299	    0.932299	
 --	 --	 --	 --	 --	        96.9	    0.929173	    0.932299	           0	 -0.00312601	           1	           0	    -89396.8	    0.932299	    0.932299	
 --	 --	 --	 --	 --	        97.4	    0.929536	    0.932299	           0	 -0.00276326	           1	           0	    -89396.8	    0.932299	    0.932299	
 --	 --	 --	 --	 --	        97.9	    0.929002	    0.932299	           0	 -0.00329726	           1	           0	    -89396.8	    0.932299	    0.932299	
 --	 --	 --	 --	 --	        98.4	    0.932893	    0.932299	           0	 0.000593486	           1	           0	    -89396.8	    0.932299	    0.932299	
 --	 --	 --	 --	 --	        98.9	    0.933617	    0.932299	           0	  0.00131824	           1	           0	    -89396.8	    0.932299	    0.932299	
 --	 --	 --	 --	 --	        99.4	    0.928792	    0.932299	           0	 -0.00350726	           1	           0	    -89396.8	    0.932299	    0.932299	
 --	 --	 --	 --	 --	        99.9	    0.929993	    0.932299	           0	 -0.00230576	           1	           0	    -89396.8	    0.932299	    0.932299	
 --	 --	 --	 --	 --	         100	    0.926789	    0.932299	           0	 -0.00551001	           1	           0	    -89396.8	    0.932299	    0.932299	
