
PARAMETERS AND CONFIDENCE INTERVALS

NO.	SET	           PARAMETER	     INITIAL	    LIMIT-LO	    LIMIT-HI	         FIT	      STDERR	         CV%	      F(SDI)	   CONLIN-LO	   CONLIN-HI	   CONLIN-P%	

  1	  1	                time	           0	
  2	  1	             restart	           0	
  3	  *	                 k.1	   0.0219572	      1e-006	      1e+006	     771.353	      271826	      137585	     57837.9	     -532171	      533714	          95	
  4	  *	                k.-1	     661.346	      1e-012	      1e+006	     500.874	      2435.8	     1898.65	     798.156	    -4274.77	     5276.52	          95	
  5	  *	               k.cat	     2632.96	      1e-006	      1e+006	     32.8006	     23.1785	      275.89	     115.979	    -12.6433	     78.2445	          95	
  6	  1	                 [E]	           1	    0.909091	         1.1	    0.909091	     320.185	      137508	     57805.4	    -626.848	     628.666	          95	
  7	  1	                 [S]	         0.5	    0.454545	        0.55	        0.55	     193.668	      137476	     57792.4	    -379.157	     380.257	          95	
  8	  1	              [E.S1]	           0	
  9	  1	               [E.P]	           0	
 10	  *	                r(E)	        0.31	    3.1e-007	      310000	   0.0812632	3.92817e+006	1.88724e+010	 7.9336e+009	-7.70158e+006	7.70158e+006	          95	
 11	  1	                r(S)	           0	
 12	  *	             r(E.S1)	        0.22	    2.2e-007	      220000	   0.0743608	3.92817e+006	2.06242e+010	8.67003e+009	-7.70158e+006	7.70158e+006	          95	
 13	  *	              r(E.P)	        0.25	    2.5e-007	      250000	    0.014195	3.92817e+006	1.08041e+011	4.54182e+010	-7.70158e+006	7.70158e+006	          95	
 14	  1	              offset	      1.1793	     -INFTY	     +INFTY	     1.10262	3.57106e+006	1.26445e+009	 5.3155e+008	-7.00144e+006	7.00144e+006	          95	
 15	  1	               delay	           0	
 16	  1	          incubation	           0	
 17	  1	                [E]i	           0	
 18	  1	                [S]i	           0	
 19	  1	             [E.S1]i	           0	
 20	  1	              [E.P]i	           0	
 21	  1	            dilution	           0	
 22	  1	           intensive	           0	
 23	  2	                time	           0	
 24	  2	             restart	           0	
 25	  2	                 [E]	           1	    0.909091	         1.1	    0.909091	     320.112	      137476	     57792.2	    -626.704	     628.522	          95	
 26	  2	                 [S]	           1	    0.909091	         1.1	         1.1	     387.393	      137496	     57800.7	    -758.424	     760.624	          95	
 27	  2	              [E.S1]	           0	
 28	  2	               [E.P]	           0	
 29	  2	                r(S)	           0	
 30	  2	              offset	     1.14325	     -INFTY	     +INFTY	     1.08357	3.57106e+006	1.28669e+009	5.40899e+008	-7.00144e+006	7.00144e+006	          95	
 31	  2	               delay	           0	
 32	  2	          incubation	           0	
 33	  2	                [E]i	           0	
 34	  2	                [S]i	           0	
 35	  2	             [E.S1]i	           0	
 36	  2	              [E.P]i	           0	
 37	  2	            dilution	           0	
 38	  2	           intensive	           0	
 39	  3	                time	           0	
 40	  3	             restart	           0	
 41	  3	                 [E]	           1	    0.909091	         1.1	    0.966291	     340.257	      137477	     57792.8	    -666.143	     668.076	          95	
 42	  3	                 [S]	         1.5	     1.36364	        1.65	     1.51394	     533.172	      137496	     57800.8	    -1043.83	     1046.85	          95	
 43	  3	              [E.S1]	           0	
 44	  3	               [E.P]	           0	
 45	  3	                r(S)	           0	
 46	  3	              offset	     1.10351	     -INFTY	     +INFTY	     1.03514	3.79575e+006	1.43163e+009	6.01828e+008	-7.44197e+006	7.44197e+006	          95	
 47	  3	               delay	           0	
 48	  3	          incubation	           0	
 49	  3	                [E]i	           0	
 50	  3	                [S]i	           0	
 51	  3	             [E.S1]i	           0	
 52	  3	              [E.P]i	           0	
 53	  3	            dilution	           0	
 54	  3	           intensive	           0	
 55	  4	                time	           0	
 56	  4	             restart	           0	
 57	  4	                 [E]	           1	    0.909091	         1.1	    0.972892	     342.581	      137477	     57792.8	    -670.694	     672.639	          95	
 58	  4	                 [S]	           2	     1.81818	         2.2	     2.13241	     750.902	      137482	     57794.5	    -1470.09	     1474.36	          95	
 59	  4	              [E.S1]	           0	
 60	  4	               [E.P]	           0	
 61	  4	                r(S)	           0	
 62	  4	              offset	     1.07103	     -INFTY	     +INFTY	     0.99326	3.82168e+006	1.50219e+009	6.31489e+008	-7.49281e+006	7.49281e+006	          95	
 63	  4	               delay	           0	
 64	  4	          incubation	           0	
 65	  4	                [E]i	           0	
 66	  4	                [S]i	           0	
 67	  4	             [E.S1]i	           0	
 68	  4	              [E.P]i	           0	
 69	  4	            dilution	           0	
 70	  4	           intensive	           0	
 71	  5	                time	           0	
 72	  5	             restart	           0	
 73	  5	                 [E]	           1	    0.909091	         1.1	    0.909091	     320.114	      137477	     57792.6	    -626.708	     628.526	          95	
 74	  5	                 [S]	         2.5	     2.27273	        2.75	        2.75	     968.194	      137455	     57783.6	     -1895.5	        1901	          95	
 75	  5	              [E.S1]	           0	
 76	  5	               [E.P]	           0	
 77	  5	                r(S)	           0	
 78	  5	              offset	     1.02909	     -INFTY	     +INFTY	    0.953168	3.57106e+006	1.46272e+009	6.14897e+008	-7.00144e+006	7.00144e+006	          95	
 79	  5	               delay	           0	
 80	  5	          incubation	           0	
 81	  5	                [E]i	           0	
 82	  5	                [S]i	           0	
 83	  5	             [E.S1]i	           0	
 84	  5	              [E.P]i	           0	
 85	  5	            dilution	           0	
 86	  5	           intensive	           0	
 87	  6	                time	           0	
 88	  6	             restart	           0	
 89	  6	                 [E]	           1	    0.909091	         1.1	    0.909091	     320.088	      137466	     57787.8	    -626.657	     628.475	          95	
 90	  6	                 [S]	           3	     2.72727	         3.3	         3.3	     1160.63	      137313	     57723.6	    -2272.23	     2278.83	          95	
 91	  6	              [E.S1]	           0	
 92	  6	               [E.P]	           0	
 93	  6	                r(S)	           0	
 94	  6	              offset	     0.97752	     -INFTY	     +INFTY	     0.91427	3.57106e+006	1.52495e+009	6.41058e+008	-7.00144e+006	7.00144e+006	          95	
 95	  6	               delay	           0	
 96	  6	          incubation	           0	
 97	  6	                [E]i	           0	
 98	  6	                [S]i	           0	
 99	  6	             [E.S1]i	           0	
100	  6	              [E.P]i	           0	
101	  6	            dilution	           0	
102	  6	           intensive	           0	
103	  7	                time	           0	
104	  7	             restart	           0	
105	  7	                 [E]	           1	    0.909091	         1.1	    0.909091	     320.115	      137477	     57792.8	    -626.711	     628.529	          95	
106	  7	                 [S]	           4	     3.63636	         4.4	         4.4	     1548.39	      137392	     57756.9	    -3031.39	     3040.19	          95	
107	  7	              [E.S1]	           0	
108	  7	               [E.P]	           0	
109	  7	                r(S)	           0	
110	  7	              offset	     0.95791	     -INFTY	     +INFTY	    0.880002	3.57106e+006	1.58433e+009	6.66021e+008	-7.00144e+006	7.00144e+006	          95	
111	  7	               delay	           0	
112	  7	          incubation	           0	
113	  7	                [E]i	           0	
114	  7	                [S]i	           0	
115	  7	             [E.S1]i	           0	
116	  7	              [E.P]i	           0	
117	  7	            dilution	           0	
118	  7	           intensive	           0	
