
===================================================
Least squares Minimization - Trust Region Algorithm
===================================================

Optimized parameters:

     1 	 k.1
     2 	 k.-1
     3 	 k.2
     4 	 k.-2
     5 	 k.cat
     6 	 r(E)
     7 	 r(E.S1)
     8 	 r(E.S2)
     9 	 r(E.P)
    10 	 [E]#1
    11 	 [S]#1
    12 	 [E]#2
    13 	 [S]#2
    14 	 [E]#3
    15 	 [S]#3
    16 	 [E]#4
    17 	 [S]#4
    18 	 [E]#5
    19 	 [S]#5
    20 	 [E]#6
    21 	 [S]#6
    22 	 [E]#7
    23 	 [S]#7

:: NL2SOL :: DNLAFB
:: Analytic Jacobian; Constrained

________________________________________________________________________

:: Initial Estimate

     i	     Param p(i)	            Min	            Max
     1	     1.757e-006	         1e-006	         1e+006
     2	     6.836e-006	         1e-006	         1e+006
     3	       0.006331	         1e-006	         1e+006
     4	         0.4762	         1e-006	         1e+006
     5	          46640	         1e-006	         1e+006
     6	           0.85	       8.5e-007	         850000
     7	           0.83	       8.3e-007	         830000
     8	           0.75	       7.5e-007	         750000
     9	           0.81	       8.1e-007	         810000
    10	              1	       0.909091	            1.1
    11	            0.5	       0.454545	           0.55
    12	              1	       0.909091	            1.1
    13	              1	       0.909091	            1.1
    14	              1	       0.909091	            1.1
    15	            1.5	        1.36364	           1.65
    16	              1	       0.909091	            1.1
    17	              2	        1.81818	            2.2
    18	              1	       0.909091	            1.1
    19	            2.5	        2.27273	           2.75
    20	              1	       0.909091	            1.1
    21	              3	        2.72727	            3.3
    22	              1	       0.909091	            1.1
    23	              4	        3.63636	            4.4

:: Iterations

     i	 FEval	   F(i) = SSQ	   Param( 1)	   Param( 2)	   Param( 3)	   Param( 4)	   Param( 5)	   Param( 6)	   Param( 7)	   Param( 8)	   Param( 9)	   Param(10)	   Param(11)	   Param(12)	   Param(13)	   Param(14)	   Param(15)	   Param(16)	   Param(17)	   Param(18)	   Param(19)	   Param(20)	   Param(21)	   Param(22)	   Param(23)	
     0	     1	       160.29	   1.757e-006	   6.836e-006	     0.006331	       0.4762	        46640	         0.85	         0.83	         0.75	         0.81	            1	          0.5	            1	            1	            1	          1.5	            1	            2	            1	          2.5	            1	            3	            1	            4	
     1	     2	        8.658	       1e-006	       1e-006	     0.079606	       0.4762	        46640	      0.76594	      0.82989	         0.75	      0.77251	       1.0198	      0.50069	       1.0046	       1.0013	      0.99611	       1.5014	      0.98894	       2.0016	       0.9831	        2.502	      0.97857	       3.0024	      0.97314	       4.0034	
     2	     3	       3.6036	       1e-006	       1e-006	       0.1086	       0.4762	        46640	      0.75291	      0.87363	         0.75	      0.80403	        1.023	      0.50029	       1.0055	       1.0007	      0.99478	       1.5013	      0.98773	       2.0019	      0.98268	       2.5024	      0.97895	       3.0029	       0.9741	       4.0037	
     3	     4	       2.6632	       1e-006	       1e-006	      0.11206	       0.4762	        46640	      0.74675	      0.91092	         0.75	      0.84494	       1.0251	      0.49953	       1.0066	      0.99948	      0.99542	        1.501	      0.98831	       2.0024	      0.98348	       2.5031	      0.98001	       3.0039	      0.97521	       4.0044	
     4	     5	       2.5109	       1e-006	       1e-006	      0.11079	       0.4762	        46640	      0.73771	      0.91092	         0.75	      0.84494	       1.0259	      0.49953	        1.009	      0.99948	      0.99542	        1.501	      0.99108	       2.0024	      0.98805	       2.5031	      0.98395	       3.0039	      0.98169	       4.0044	
     5	     7	       2.5094	       1e-006	       1e-006	     0.019237	       0.4762	        46640	      0.73276	      0.79438	         0.75	       1.0332	       1.0327	      0.45455	       1.0145	      0.96565	       1.0024	       1.4948	      0.99963	       2.0109	      0.99632	       2.5118	      0.99105	       3.0143	      0.98794	        3.996	
     6	     8	       2.3935	    0.0027354	       1e-006	      0.12201	       0.4762	        46640	       0.7323	      0.74546	         0.75	       1.0432	       1.0384	      0.45455	       1.0189	      0.96185	       1.0072	       1.4935	       1.0002	       2.0117	      0.99555	       2.5128	      0.99141	       3.0158	      0.98695	       3.9955	
     7	    10	       2.3477	    0.0071359	      0.14596	      0.30242	       0.4762	        46640	      0.76425	      0.30659	         0.75	       1.0533	      0.99461	      0.45455	      0.97621	      0.93215	      0.96547	       1.4875	      0.95877	       2.0233	      0.95427	       2.5226	       0.9513	       3.0282	       0.9471	       3.9853	
     8	    11	       2.2242	     0.013494	      0.54361	       0.5109	       0.4762	        46640	      0.79447	      0.20746	         0.75	      0.85441	      0.95828	      0.48734	      0.94166	      0.97464	      0.93257	       1.5195	      0.92728	       2.0402	        0.924	       2.5243	      0.92216	       3.0198	      0.92005	       3.9557	
     9	    13	       2.0049	     0.022673	      0.62183	      0.60108	      0.47619	        46640	      0.78971	      0.22536	         0.75	      0.93362	      0.96646	      0.50096	      0.95062	      0.99273	      0.94236	       1.5314	      0.93784	       2.0448	      0.93527	       2.5237	      0.93416	       3.0153	      0.93339	       3.9461	
    10	    14	       1.8885	     0.029737	      0.72564	       0.6969	      0.47619	        46640	      0.79767	      0.23477	         0.75	        0.865	      0.95728	       0.5196	      0.94199	       1.0156	      0.93417	       1.5495	      0.93001	       2.0549	      0.92773	        2.525	      0.92691	       3.0107	      0.92662	       3.9276	
    11	    16	       1.7567	     0.051591	       1.3465	       1.0283	      0.47619	        46640	      0.80145	      0.34281	         0.75	      0.80053	      0.95409	         0.55	      0.93948	       1.0923	      0.93209	       1.5773	      0.92918	       2.1444	       0.9266	       2.5277	      0.92565	       2.9513	      0.92546	        3.742	
    12	    17	       1.5224	     0.050653	        1.588	        1.627	      0.47621	        46640	      0.80942	     0.074079	      0.75352	      0.84132	      0.94541	         0.55	      0.93222	          1.1	      0.92523	       1.6007	      0.92252	       2.1541	      0.92067	       2.5406	      0.92063	       2.9454	      0.92094	         3.69	
    13	    20	        1.405	     0.070052	       1.6094	       1.6515	       0.4762	        46640	      0.81461	     0.086311	      0.75352	      0.82084	      0.94059	         0.55	      0.92858	          1.1	      0.92308	       1.6108	      0.92154	       2.1555	      0.92042	       2.5407	      0.92073	       2.9423	       0.9224	        3.675	
    14	    22	       1.3813	     0.076409	       1.6352	       1.6816	       0.4762	        46640	      0.81444	      0.10696	      0.75352	      0.82216	      0.94111	         0.55	      0.92935	          1.1	      0.92417	       1.6229	      0.92267	       2.1611	      0.92158	       2.5405	      0.92198	       2.9382	      0.92358	        3.662	
    15	    24	       1.3221	      0.12335	       2.2007	       2.0336	      0.47667	        46640	      0.81488	      0.32768	      0.75353	      0.80139	      0.94141	         0.55	      0.93026	          1.1	      0.92618	         1.65	      0.92492	          2.2	      0.92327	       2.5399	      0.92293	        2.852	       0.9252	       3.6364	
    16	    25	       1.1461	      0.21188	       2.4865	       2.3663	      0.47694	        46640	      0.81588	       0.4361	      0.75355	       0.7969	       0.9421	         0.55	       0.9319	          1.1	      0.92856	         1.65	      0.92722	          2.2	      0.92582	       2.5337	      0.92516	       2.7997	      0.92779	       3.6364	
    17	    27	      0.91799	      0.28401	       2.5134	       2.4072	      0.47691	        46640	      0.81833	      0.44056	      0.75355	      0.79729	      0.94059	         0.55	      0.93117	          1.1	      0.92866	         1.65	      0.92717	          2.2	      0.92606	       2.5339	      0.92563	       2.7949	      0.92836	       3.6364	
    18	    28	      0.85179	      0.39974	       2.5359	       2.4435	      0.47687	        46640	      0.81542	      0.51743	      0.75355	      0.79115	      0.94494	         0.55	      0.93679	          1.1	      0.93435	         1.65	      0.93453	          2.2	      0.93366	        2.534	      0.93318	       2.7906	      0.93649	       3.6364	
    19	    29	      0.73362	      0.48329	       2.5561	       2.4804	      0.47687	        46640	       0.8162	      0.52757	      0.75356	      0.79058	      0.94512	         0.55	      0.93732	          1.1	        0.935	         1.65	      0.93519	          2.2	      0.93429	       2.5351	      0.93366	        2.788	      0.93681	       3.6364	
    20	    31	      0.65711	      0.61704	       2.5702	       2.5121	      0.47688	        46640	       0.8136	      0.56732	      0.75356	      0.78604	      0.94897	         0.55	      0.94199	          1.1	      0.94004	         1.65	      0.94032	          2.2	       0.9394	       2.5363	      0.93875	       2.7857	      0.94164	       3.6364	
    21	    32	      0.57749	      0.89553	       2.5945	       2.5763	      0.47693	        46640	      0.80929	      0.61374	      0.75356	      0.77807	      0.95605	         0.55	      0.95027	          1.1	      0.94873	         1.65	      0.94901	          2.2	      0.94798	       2.5385	      0.94713	         2.78	      0.94948	       3.6364	
    22	    33	      0.42992	       1.1044	        2.618	       2.6465	      0.47692	        46640	      0.81118	      0.61452	      0.75356	      0.77768	      0.95564	         0.55	      0.95058	          1.1	      0.94931	         1.65	      0.94965	          2.2	      0.94866	       2.5408	      0.94769	       2.7747	      0.94993	       3.6364	
    23	    34	      0.36155	       1.3875	       2.6221	       2.7137	      0.47693	        46640	      0.80988	      0.62672	      0.75356	      0.77262	      0.95905	         0.55	      0.95562	          1.1	      0.95492	         1.65	      0.95541	          2.2	      0.95439	       2.5425	      0.95331	       2.7675	      0.95528	       3.6364	
    24	    35	      0.31286	       1.6521	       2.5843	       2.8442	      0.47679	        46640	      0.80871	      0.62585	      0.75355	      0.76772	      0.96273	         0.55	      0.96081	          1.1	       0.9607	         1.65	      0.96142	          2.2	      0.96048	       2.5477	      0.95929	       2.7617	      0.96121	       3.6364	
    25	    38	      0.26148	       2.1299	       1.1437	       3.1287	      0.48653	        46640	      0.81838	      0.67175	      0.75366	      0.77449	      0.95404	         0.55	      0.95351	          1.1	      0.95287	         1.65	      0.95259	          2.2	      0.95097	       2.5523	      0.94922	       2.7574	      0.94927	       3.6364	
    26	    39	      0.21689	       2.7701	       1e-006	        2.728	      0.50501	        46640	      0.84938	      0.73241	      0.75405	      0.80502	      0.91973	         0.55	      0.91958	          1.1	      0.91737	         1.65	      0.91536	          2.2	      0.91384	       2.6985	      0.91201	       2.9714	      0.90909	       3.6364	
    27	    40	       0.2043	       2.7706	    0.0014047	       2.7306	      0.50499	        46640	      0.85163	      0.73551	      0.75405	      0.80641	      0.91874	         0.55	      0.91882	          1.1	      0.91681	         1.65	      0.91493	          2.2	      0.91312	       2.6952	      0.91071	       2.9675	      0.90909	       3.6364	
    28	    42	       0.1949	       2.9299	       1e-006	        2.716	      0.50505	        46640	      0.85108	      0.73681	      0.75405	      0.80578	      0.91962	         0.55	      0.91976	          1.1	      0.91757	         1.65	       0.9155	          2.2	      0.91336	       2.6626	      0.91127	       2.9226	      0.90909	       3.6364	
    29	    45	      0.17866	       3.3646	    0.0004431	       2.4787	      0.50428	        46640	      0.84729	      0.74196	      0.75405	      0.80141	      0.92454	         0.55	      0.92517	          1.1	      0.92286	         1.65	      0.92049	          2.2	      0.91784	       2.5837	      0.91576	       2.8252	      0.91373	       3.6364	
    30	    46	        0.161	       4.1324	       1e-006	        1.997	      0.50429	        46640	      0.82234	      0.72993	      0.75405	      0.77662	      0.95327	         0.55	      0.95499	          1.1	      0.95248	         1.65	      0.94968	          2.2	      0.94649	       2.5187	      0.94446	       2.8248	      0.94213	       3.6364	
    31	    47	      0.15294	       5.2988	       1e-006	       1.5111	      0.49376	        46640	      0.79727	      0.71489	      0.75404	      0.75093	      0.98481	         0.55	       0.9884	          1.1	      0.98576	         1.65	      0.98263	          2.2	      0.97896	       2.4535	      0.97672	       2.7273	      0.97457	       3.6364	
    32	    48	      0.15162	       5.3041	       1e-006	       1.5195	      0.49376	        46640	      0.79832	      0.71272	      0.75403	      0.75312	      0.98453	         0.55	      0.98836	          1.1	      0.98575	         1.65	      0.98253	          2.2	      0.97892	       2.4573	       0.9766	       2.7289	      0.97457	       3.6364	
    33	    49	      0.15157	       5.4196	    0.0023291	       1.5808	       1.9193	        46640	      0.82081	      0.73383	      0.75047	      0.77295	       0.9573	         0.55	      0.96089	          1.1	      0.95806	         1.65	      0.95484	       2.1886	      0.95147	       2.4419	      0.94915	       2.7273	      0.94715	       3.6364	
    34	    50	      0.14742	         5.47	       1e-006	       1.5773	       1.9127	        46640	      0.82169	      0.73457	      0.74857	      0.77356	      0.95713	         0.55	      0.96086	          1.1	      0.95806	         1.65	      0.95483	         2.18	      0.95131	       2.4354	      0.94922	       2.7273	      0.94715	       3.6364	
    35	    60	      0.14742	         5.47	    0.0001043	       1.5773	       1.9127	        46640	      0.82169	      0.73458	      0.74857	      0.77357	      0.95712	         0.55	      0.96086	          1.1	      0.95807	         1.65	      0.95484	         2.18	      0.95131	       2.4354	      0.94922	       2.7273	      0.94715	       3.6364	
    36	    61	      0.14741	         5.47	   0.00011132	       1.5773	       1.9127	        46640	      0.82171	      0.73456	      0.74857	      0.77356	      0.95708	         0.55	      0.96087	          1.1	      0.95808	         1.65	      0.95484	         2.18	      0.95131	       2.4354	      0.94923	       2.7273	      0.94715	       3.6364	
    37	    62	      0.14741	         5.47	  7.0278e-005	       1.5773	       1.9127	        46640	      0.82173	      0.73454	      0.74857	      0.77356	      0.95706	         0.55	      0.96088	          1.1	      0.95809	         1.65	      0.95484	         2.18	      0.95132	       2.4354	      0.94923	       2.7273	      0.94715	       3.6364	
    38	    63	      0.14741	         5.47	  1.4399e-005	       1.5773	       1.9127	        46640	      0.82173	      0.73454	      0.74857	      0.77357	      0.95705	         0.55	      0.96088	          1.1	      0.95809	         1.65	      0.95484	         2.18	      0.95132	       2.4354	      0.94923	       2.7273	      0.94715	       3.6364	
    39	    64	      0.14741	         5.47	       1e-006	       1.5773	       1.9127	        46640	      0.82173	      0.73454	      0.74857	      0.77357	      0.95705	         0.55	      0.96088	          1.1	      0.95809	         1.65	      0.95484	         2.18	      0.95132	       2.4354	      0.94923	       2.7273	      0.94715	       3.6364	
    40	    71	      0.14741	         5.47	  1.1029e-006	       1.5773	       1.9127	        46640	      0.82173	      0.73454	      0.74857	      0.77357	      0.95705	         0.55	      0.96088	          1.1	      0.95809	         1.65	      0.95484	         2.18	      0.95132	       2.4354	      0.94923	       2.7273	      0.94715	       3.6364	
    41	    76	      0.14741	         5.47	  1.1029e-006	       1.5773	       1.9127	        46640	      0.82173	      0.73454	      0.74857	      0.77357	      0.95705	         0.55	      0.96088	          1.1	      0.95809	         1.65	      0.95484	         2.18	      0.95132	       2.4354	      0.94923	       2.7273	      0.94715	       3.6364	

:: False convergence

       Squares	       0.147414
     Func Eval	             76
     Grad Eval	             41

:: Nonlinear parameters

     i	   Final p(i)	  Gradient(i)
     1	      5.46997	  -0.00014106
     2	 1.10292e-006	     -0.19902
     3	      1.57727	  -0.00016818
     4	      1.91267	  6.7103e-007
     5	        46640	  4.2939e-011
     6	     0.821735	  -0.00014039
     7	     0.734542	   0.00037182
     8	     0.748574	   1.684e-008
     9	     0.773565	   0.00013247
    10	      0.95705	   0.00018461
    11	         0.55	    -0.030076
    12	     0.960876	  3.3213e-005
    13	          1.1	    -0.023462
    14	     0.958087	  4.2693e-005
    15	         1.65	    -0.011247
    16	     0.954841	   0.00042726
    17	      2.17999	 -4.6172e-005
    18	     0.951317	  2.9369e-005
    19	      2.43543	  -5.622e-005
    20	      0.94923	  4.4065e-005
    21	      2.72727	     0.003323
    22	     0.947152	  4.7626e-005
    23	      3.63636	     0.013972
