%!PS-Adobe-3.0 EPSF-3.0
%%BoundingBox: 0 0 514 550
%%Creator: BioKin Ltd.
%%DocumentFonts: Symbol Helvetica
%%EndComments
%
/bkdict 256 dict def
bkdict begin
/M {moveto} def 
/R {rmoveto} def
/L {lineto} def
/rL {rlineto} def
/GSN {gsave newpath} def
/SGR {stroke grestore} def
/COSGR {gsave setrgbcolor stroke grestore grestore} def
/SL {setlinewidth} def
/LWMB {12} def             % line width - model curves, black & white
/LWMC {10} def             % line width - model curves, color
/L2 {2.5 setlinewidth} def
/L5 {5 setlinewidth} def
/L10 {10 setlinewidth} def
/G50 {0.5 setgray} def
/SDA {[10  20] 0 setdash} def % axes
/helvT {/Helvetica findfont 100 scalefont setfont} def % tiny
/helvS {/Helvetica findfont 125 scalefont setfont} def % small
/helvM {/Helvetica findfont 150 scalefont setfont} def % medium
/helvL {/Helvetica findfont 175 scalefont setfont} def % large
/xlabel {gsave M dup
   stringwidth exch -0.5 mul exch rmoveto show grestore} def 
/ylabel {gsave M 90 rotate dup
   stringwidth exch -0.5 mul exch rmoveto show grestore} def
/ylabelresid {gsave M dup
   stringwidth exch -1 mul exch rmoveto show grestore} def
% ======
% Shapes
% ======
% Circle:
/Circ {0 360 arc closepath} def
%
% Square:
/Squa {dup dup -0.5 mul dup dup R -2 mul 0 exch rL 1 mul 0 rL dup 0 exch -1 mul rL closepath} def
%
% Triangle Up:
/TriU {dup dup dup -0.4 mul exch -0.5 mul exch R dup 0.5 mul exch rL dup -1 mul exch 0.5 mul exch rL closepath} def 
%
% Triangle Down:
/TriD {dup dup dup 0.4 mul exch -0.5 mul exch R dup 0.5 mul exch -1 mul rL dup 0.5 mul exch rL closepath} def 
%
% Diamond:
/Diam {45 rotate Squa} def
% ======
% Fills
% ======
/GRF {gsave setgray fill grestore} def                    % gray-level Fill
/COF {gsave setrgbcolor fill grestore} def                % color fill
% ======
% Colors
% ======
/C01 {1.00	0.00	0.00} def      % Red
/C02 {0.00	0.00	1.00} def      % Blue
/C03 {0.00	0.39	0.00} def      % Dark Green
/C04 {0.78	0.08	0.52} def      % Medium Violet Red
/C05 {0.55	0.27	0.07} def      % Saddle Brown
/C06 {0.10	0.70	0.70} def      % (cyan)
/C07 {1.00	0.55	0.00} def      % Dark Orange
/C08 {0.63	0.13	0.94} def      % Purple
/C09 {0.00	0.75	1.00} def      % Deep Sky Blue
/C10 {0.20	0.80	0.20} def      % Lime Green
/C11 {0.47	0.53	0.60} def      % Light Slate Gray
/C12 {0.00	0.00	0.00} def      % Black            % or: {0.19	0.31	0.31} def      % Dark Slate Gray
%
/LGR {0.75} def % light gray
/DGR {0.33} def % dark gray
%
% =============
% Dash patterns
% =============
/dash01 { [80  20] 0 setdash } def
/dash02 { [40  20] 0 setdash } def
/dash03 { [80  20  10  20] 0 setdash } def
/dash04 { [40  20  10  20] 0 setdash } def
/dash05 { [80  20  10  10  10  20] 0 setdash } def
/dash06 { [40  20  10  10  10  20] 0 setdash } def
/dash07 { [10  10] 0 setdash } def
%
/MFshow {
   { dup 5 get 3 ge
     { 5 get 3 eq {gsave} {grestore} ifelse }
     {dup dup 0 get findfont exch 1 get scalefont setfont
     [ currentpoint ] exch dup 2 get 0 exch R dup 5 get 2 ne {dup dup 6
     get exch 4 get {show} {stringwidth pop 0 R} ifelse }if dup 5 get 0 eq
     {dup 3 get {2 get neg 0 exch R pop} {pop aload pop M} ifelse} {dup 5
     get 1 eq {dup 2 get exch dup 3 get exch 6 get stringwidth pop -2 div
     dup 0 R} {dup 6 get stringwidth pop -2 div 0 R 6 get
     show 2 index {aload pop M neg 3 -1 roll neg R pop pop} {pop pop pop
     pop aload pop M} ifelse }ifelse }ifelse }
     ifelse }
   forall} bind def
/MFwidth {0 exch {dup 3 get{dup dup 0 get findfont exch 1 get scalefont
     setfont 6 get stringwidth pop add} {pop} ifelse} forall} bind def
/MCshow { currentpoint stroke M
  exch dup MFwidth -2 div 3 -1 roll R MFshow } def
%
end
%%EndProlog
bkdict begin
0.1 0.1 scale
%
% Model curves:
%

GSN 753 5166 M
753 5166 L
786 5166 L
820 5165 L
853 5165 L
886 5165 L
903 5164 L
919 5164 L
953 5163 L
986 5162 L
1020 5161 L
1053 5160 L
1053 5160 L
1086 5159 L
1120 5158 L
1153 5156 L
1186 5154 L
1203 5153 L
1220 5151 L
1253 5149 L
1286 5145 L
1320 5142 L
1353 5137 L
1353 5137 L
1386 5132 L
1420 5126 L
1453 5119 L
1486 5111 L
1503 5106 L
1520 5102 L
1553 5091 L
1586 5078 L
1620 5064 L
1653 5047 L
1653 5047 L
1686 5028 L
1720 5005 L
1753 4979 L
1786 4949 L
1804 4932 L
1820 4915 L
1853 4876 L
1886 4832 L
1920 4781 L
1953 4724 L
1954 4722 L
1986 4659 L
2020 4587 L
2053 4507 L
2086 4418 L
2104 4367 L
2120 4320 L
2153 4214 L
2186 4100 L
2220 3978 L
2253 3850 L
2254 3846 L
2286 3718 L
2320 3583 L
2353 3447 L
2386 3314 L
2404 3245 L
2420 3187 L
2453 3067 L
2486 2959 L
2520 2864 L
2553 2784 L
2554 2781 L
2586 2719 L
2620 2670 L
2653 2635 L
2686 2611 L
2704 2603 L
2720 2597 L
2753 2590 L
2786 2586 L
2820 2584 L
2853 2584 L
2854 2584 L
2886 2584 L
2920 2584 L
2953 2584 L
2986 2584 L
3004 2584 L
3020 2584 L
3053 2585 L
3068 2585 L
3086 2585 L
3120 2585 L
3153 2585 L
3155 2585 L
3186 2586 L
3220 2586 L
3253 2587 L
3286 2587 L
3305 2588 L
3320 2588 L
3353 2589 L
3386 2590 L
3420 2591 L
3453 2593 L
3455 2593 L
3486 2594 L
3520 2596 L
3553 2598 L
3586 2601 L
3605 2602 L
3620 2604 L
3653 2607 L
3686 2611 L
3720 2616 L
3753 2621 L
3755 2621 L
3786 2627 L
3820 2635 L
3853 2643 L
3886 2653 L
3905 2660 L
3920 2665 L
3953 2679 L
3986 2695 L
4020 2713 L
4053 2735 L
4086 2760 L
LWMC SL  C06 COSGR

%
% Experimental data:
%
GSN 773 4626 M
1625 4892 L
1773 4765 L
1860 4479 L
1922 4628 L
1970 4500 L
2009 4316 L
2043 4343 L
2072 4169 L
2097 4116 L
2120 4252 L
2140 4091 L
2159 3999 L
2176 4080 L
2192 4028 L
2207 3912 L
2221 3948 L
2234 3773 L
2247 3832 L
2259 3846 L
2270 3886 L
2280 3919 L
2290 3706 L
2300 3655 L
2309 3573 L
2318 3628 L
2326 3866 L
2335 3794 L
2342 3612 L
2350 3595 L
2357 3548 L
2364 3535 L
2371 3541 L
2378 3617 L
2384 3238 L
2391 3612 L
2397 3309 L
2403 3309 L
2409 3227 L
2414 3338 L
2420 3329 L
2425 3055 L
2430 3279 L
2435 3266 L
2440 3097 L
2445 3197 L
2450 3305 L
2455 3274 L
2459 3020 L
2464 3073 L
2468 3093 L
2472 2983 L
2476 2948 L
2481 3053 L
2485 3085 L
2489 2948 L
2492 2853 L
2496 2866 L
2500 2858 L
2504 3053 L
2507 2887 L
2511 3021 L
2514 3018 L
2518 2855 L
2521 2867 L
2525 2744 L
2528 2722 L
2531 2941 L
2534 2849 L
2538 2946 L
2541 2662 L
2544 2778 L
2547 2819 L
2550 2841 L
2553 2799 L
2556 2758 L
2559 2644 L
2561 2642 L
2564 2737 L
2567 2757 L
2570 2788 L
2580 2564 L
2590 2500 L
2600 2469 L
2609 2260 L
2618 2467 L
2627 2538 L
2635 2386 L
2643 2396 L
2650 2338 L
2658 2441 L
2665 2087 L
2672 2371 L
2678 2217 L
2685 2167 L
2691 2056 L
2697 2077 L
2703 2164 L
2709 2123 L
2714 2001 L
2720 2087 L
2725 2132 L
2730 2267 L
2735 2043 L
2740 2122 L
2745 2217 L
2750 2088 L
2755 2122 L
2759 2046 L
2764 2107 L
2768 2056 L
2772 2098 L
2777 1929 L
2781 1857 L
2785 1917 L
2789 1833 L
2793 1961 L
2796 1856 L
2800 2112 L
2804 2053 L
2808 2075 L
2811 2009 L
2815 2133 L
2818 2177 L
2822 1939 L
2825 2034 L
2828 2139 L
2831 1944 L
2835 2250 L
2838 2043 L
2841 1933 L
2844 2189 L
2847 2205 L
2850 2190 L
2853 2073 L
2856 1849 L
2859 2277 L
2862 2097 L
2864 2051 L
2867 2028 L
2870 2274 L
2873 2126 L
2875 2100 L
2878 2403 L
2880 2000 L
2883 1975 L
2886 2118 L
2888 2107 L
2891 2158 L
2893 2080 L
2895 1972 L
2898 2167 L
2900 2283 L
2902 2171 L
2905 2143 L
2907 2074 L
2909 2045 L
2912 2330 L
2914 2193 L
2916 2034 L
2918 2269 L
2920 2099 L
2922 2107 L
2925 2348 L
2927 2170 L
2929 2170 L
2931 2411 L
2933 2253 L
2935 2205 L
2937 2323 L
2939 2370 L
2941 2266 L
2943 2157 L
2945 2257 L
2947 2484 L
2948 2363 L
2950 2157 L
2952 2446 L
2954 2415 L
2956 2259 L
2958 2140 L
2959 2430 L
2961 2445 L
2963 2309 L
2965 2092 L
2966 2433 L
2968 2348 L
2970 2378 L
2972 2557 L
2973 2326 L
2975 2411 L
2977 2508 L
2978 2335 L
2980 2399 L
2982 2348 L
2983 2476 L
2985 2507 L
2986 2402 L
2988 2347 L
2989 2333 L
2991 2355 L
2993 2455 L
2994 2615 L
2996 2435 L
2997 2497 L
2999 2233 L
3000 2535 L
3002 2388 L
3003 2532 L
3005 2456 L
3006 2383 L
3007 2626 L
3009 2605 L
3010 2409 L
3012 2490 L
3013 2562 L
3014 2629 L
3016 2418 L
3017 2597 L
3019 2663 L
3020 2554 L
3021 2516 L
3023 2361 L
3024 2570 L
3025 2376 L
3027 2519 L
3028 2579 L
3029 2570 L
3031 2635 L
3032 2608 L
3033 2453 L
3034 2767 L
3036 2505 L
3037 2484 L
3038 2735 L
3039 2589 L
3041 2566 L
3042 2611 L
3043 2400 L
3044 2472 L
3045 2770 L
3047 2710 L
3048 2656 L
3049 2793 L
3050 2555 L
3051 2488 L
3053 2538 L
3054 2783 L
3055 2673 L
3056 2537 L
3057 2598 L
3058 2732 L
3059 2652 L
3061 2656 L
3062 2472 L
3063 2735 L
3064 2830 L
3065 2635 L
3066 2609 L
3067 2653 L
3068 2705 L
3069 2654 L
3070 2674 L
3071 2710 L
3073 2511 L
3074 2789 L
3075 2716 L
3076 2668 L
3077 2720 L
3078 2811 L
3079 2478 L
3080 2607 L
3081 2684 L
3082 2819 L
3083 2645 L
3084 2735 L
3085 2675 L
3086 2734 L
3087 2738 L
3088 2456 L
3089 2875 L
3112 2755 L
3133 2949 L
3152 2775 L
3170 2743 L
3186 3000 L
3201 2992 L
3216 2888 L
3229 2841 L
3241 3074 L
3253 2932 L
3264 3002 L
3275 2796 L
3285 2967 L
3295 2912 L
3304 2978 L
3313 2950 L
3322 3033 L
3330 2963 L
3338 2889 L
3346 3040 L
3353 2954 L
3360 2970 L
3367 3004 L
3374 3056 L
3380 2966 L
3387 2876 L
3393 3080 L
3399 2948 L
3405 3158 L
3410 3292 L
3416 3080 L
3421 2991 L
3426 2911 L
3431 3142 L
3436 3055 L
3441 2889 L
3446 2967 L
3451 3017 L
3455 3170 L
3460 3219 L
3464 2911 L
3469 2901 L
3473 2950 L
3477 3078 L
3481 2989 L
3485 3115 L
3489 3070 L
3493 2978 L
3496 2989 L
3500 2973 L
3504 2984 L
3507 2995 L
3511 2869 L
3514 2934 L
3518 3244 L
3521 2940 L
3525 3010 L
3528 2845 L
3531 2867 L
3534 2996 L
3537 2926 L
3540 2958 L
3543 2909 L
3546 3005 L
3549 3096 L
3552 2877 L
3555 3231 L
3558 2925 L
3561 2962 L
3564 3064 L
3566 2872 L
3575 2826 L
3586 3048 L
3595 3101 L
3605 2793 L
3613 2984 L
3622 2812 L
3630 2852 L
3638 3069 L
3646 2944 L
3653 2906 L
3660 2789 L
3667 2894 L
3674 2922 L
3681 3069 L
3687 2991 L
3693 2825 L
3699 2900 L
3705 2898 L
3710 2980 L
3716 2723 L
3721 2841 L
3727 2793 L
3732 2774 L
3737 2897 L
3742 2799 L
3746 2777 L
3751 2947 L
3756 3122 L
3760 2995 L
3764 2881 L
3769 2708 L
3773 2951 L
3777 2683 L
3781 2859 L
3785 2922 L
3789 2805 L
3793 2849 L
3797 2911 L
3800 2919 L
3804 2766 L
3808 2701 L
3811 2695 L
3815 2696 L
3818 2791 L
3821 2794 L
3825 2672 L
3828 2752 L
3831 2759 L
3834 2570 L
3838 2754 L
3841 2834 L
3844 2818 L
3847 2720 L
3850 2759 L
3853 2719 L
3855 2846 L
3858 2726 L
3861 2811 L
3864 2967 L
3867 2847 L
3869 2729 L
3872 2853 L
3875 2790 L
3877 2796 L
3880 2823 L
3882 2577 L
3885 2624 L
3887 2760 L
3890 2847 L
3892 2793 L
3895 2688 L
3897 2714 L
3899 2748 L
3902 2831 L
3904 2741 L
3906 2924 L
3908 2824 L
3911 2773 L
3913 2948 L
3915 2846 L
3917 2764 L
3919 2780 L
3921 2781 L
3923 2732 L
3926 2624 L
3928 2867 L
3930 2667 L
3932 2885 L
3934 2909 L
3936 2796 L
3938 2716 L
3940 2723 L
3942 2872 L
3943 2901 L
3945 2746 L
3947 2805 L
3949 2890 L
3951 2784 L
3953 2751 L
3955 2758 L
3956 2670 L
3958 2539 L
3960 2607 L
3962 2621 L
3963 2623 L
3965 2716 L
3967 2693 L
3969 2780 L
3970 2859 L
3972 2721 L
3974 2737 L
3975 2919 L
3977 2810 L
3978 2666 L
3980 2811 L
3982 3011 L
3983 2662 L
3985 2748 L
3986 2843 L
3988 2545 L
3990 2593 L
3991 2610 L
3993 2917 L
3994 2811 L
3996 2671 L
3997 2739 L
3999 2605 L
4000 2727 L
4001 2444 L
4003 2841 L
4004 2695 L
4006 2586 L
4007 2556 L
4009 2854 L
4010 2723 L
4011 2515 L
4013 2844 L
4014 2802 L
4016 2847 L
4017 2592 L
4018 2723 L
4020 2600 L
4021 2657 L
4022 2839 L
4024 2602 L
4025 2753 L
4026 2589 L
4028 2509 L
4029 2687 L
4030 2713 L
4031 2770 L
4033 2742 L
4034 2770 L
4035 2769 L
4036 2889 L
4038 2829 L
4039 2796 L
4040 2694 L
4041 2693 L
4042 2568 L
4044 2620 L
4045 2727 L
4046 2708 L
4047 2737 L
4048 2678 L
4050 2804 L
4051 2645 L
4052 2966 L
4053 2626 L
4054 2787 L
4055 2647 L
4056 2628 L
4058 2907 L
4059 2699 L
4060 2713 L
4061 2692 L
4062 2847 L
4063 2876 L
4064 2684 L
4065 2732 L
4066 2604 L
L2 C06 COSGR

%
%================
% Legend - Begin
%================
%
GSN 4240 5180 M
4480 5180 L
LWMC SL  C06 COSGR
GSN 4540 5141 M helvM (3.0 uM) show grestore
%
%================
% Legend - End
%================
%

%
% Residuals:
%
GSN 773 870 M
1625 1079 L
1773 1063 L
1860 956 L
1922 1090 L
1970 1066 L
2009 1009 L
2043 1068 L
2072 1011 L
2097 1021 L
2120 1136 L
2140 1082 L
2159 1065 L
2176 1144 L
2192 1146 L
2207 1112 L
2221 1161 L
2234 1091 L
2247 1150 L
2259 1184 L
2270 1232 L
2280 1274 L
2290 1177 L
2300 1170 L
2309 1145 L
2318 1196 L
2326 1349 L
2335 1327 L
2342 1243 L
2350 1251 L
2357 1241 L
2364 1250 L
2371 1269 L
2378 1326 L
2384 1127 L
2391 1352 L
2397 1194 L
2403 1207 L
2409 1173 L
2414 1248 L
2420 1254 L
2425 1111 L
2430 1248 L
2435 1251 L
2440 1166 L
2445 1232 L
2450 1302 L
2455 1294 L
2459 1159 L
2464 1197 L
2468 1217 L
2472 1163 L
2476 1151 L
2481 1217 L
2485 1242 L
2489 1172 L
2492 1125 L
2496 1139 L
2500 1140 L
2504 1256 L
2507 1169 L
2511 1249 L
2514 1253 L
2518 1167 L
2521 1178 L
2525 1114 L
2528 1107 L
2531 1234 L
2534 1187 L
2538 1246 L
2541 1090 L
2544 1159 L
2547 1186 L
2550 1202 L
2553 1183 L
2556 1163 L
2559 1102 L
2561 1104 L
2564 1161 L
2567 1175 L
2570 1196 L
2580 1081 L
2590 1055 L
2600 1046 L
2609 936 L
2618 1059 L
2627 1104 L
2635 1024 L
2643 1034 L
2650 1006 L
2658 1067 L
2665 871 L
2672 1034 L
2678 949 L
2685 923 L
2691 863 L
2697 876 L
2703 927 L
2709 905 L
2714 837 L
2720 887 L
2725 913 L
2730 990 L
2735 864 L
2740 910 L
2745 964 L
2750 891 L
2755 911 L
2759 869 L
2764 904 L
2768 875 L
2772 899 L
2777 804 L
2781 764 L
2785 798 L
2789 750 L
2793 822 L
2796 763 L
2800 908 L
2804 875 L
2808 887 L
2811 850 L
2815 920 L
2818 945 L
2822 811 L
2825 864 L
2828 924 L
2831 814 L
2835 986 L
2838 870 L
2841 808 L
2844 952 L
2847 961 L
2850 953 L
2853 887 L
2856 760 L
2859 1001 L
2862 900 L
2864 874 L
2867 861 L
2870 1000 L
2873 917 L
2875 902 L
2878 1072 L
2880 846 L
2883 831 L
2886 912 L
2888 905 L
2891 935 L
2893 891 L
2895 830 L
2898 940 L
2900 1005 L
2902 942 L
2905 926 L
2907 887 L
2909 871 L
2912 1031 L
2914 954 L
2916 864 L
2918 997 L
2920 901 L
2922 906 L
2925 1041 L
2927 941 L
2929 941 L
2931 1077 L
2933 988 L
2935 961 L
2937 1027 L
2939 1053 L
2941 995 L
2943 934 L
2945 990 L
2947 1118 L
2948 1050 L
2950 934 L
2952 1097 L
2954 1079 L
2956 991 L
2958 924 L
2959 1087 L
2961 1096 L
2963 1019 L
2965 897 L
2966 1089 L
2968 1041 L
2970 1058 L
2972 1159 L
2973 1029 L
2975 1076 L
2977 1131 L
2978 1034 L
2980 1070 L
2982 1041 L
2983 1113 L
2985 1130 L
2986 1072 L
2988 1040 L
2989 1033 L
2991 1045 L
2993 1101 L
2994 1191 L
2996 1090 L
2997 1125 L
2999 976 L
3000 1146 L
3002 1064 L
3003 1145 L
3005 1102 L
3006 1061 L
3007 1197 L
3009 1186 L
3010 1075 L
3012 1121 L
3013 1161 L
3014 1199 L
3016 1080 L
3017 1181 L
3019 1218 L
3020 1157 L
3021 1135 L
3023 1049 L
3024 1166 L
3025 1057 L
3027 1137 L
3028 1171 L
3029 1166 L
3031 1202 L
3032 1187 L
3033 1100 L
3034 1277 L
3036 1129 L
3037 1118 L
3038 1259 L
3039 1176 L
3041 1164 L
3042 1189 L
3043 1070 L
3044 1110 L
3045 1279 L
3047 1245 L
3048 1214 L
3049 1291 L
3050 1158 L
3051 1120 L
3053 1148 L
3054 1286 L
3055 1224 L
3056 1147 L
3057 1181 L
3058 1257 L
3059 1212 L
3061 1214 L
3062 1110 L
3063 1258 L
3064 1312 L
3065 1202 L
3066 1188 L
3067 1213 L
3068 1242 L
3069 1213 L
3070 1224 L
3071 1245 L
3073 1133 L
3074 1289 L
3075 1248 L
3076 1221 L
3077 1250 L
3078 1302 L
3079 1114 L
3080 1186 L
3081 1230 L
3082 1306 L
3083 1208 L
3084 1259 L
3085 1225 L
3086 1258 L
3087 1260 L
3088 1101 L
3089 1338 L
3112 1270 L
3133 1379 L
3152 1281 L
3170 1263 L
3186 1407 L
3201 1403 L
3216 1344 L
3229 1317 L
3241 1448 L
3253 1368 L
3264 1407 L
3275 1292 L
3285 1388 L
3295 1356 L
3304 1394 L
3313 1378 L
3322 1424 L
3330 1385 L
3338 1343 L
3346 1428 L
3353 1379 L
3360 1388 L
3367 1407 L
3374 1436 L
3380 1386 L
3387 1335 L
3393 1450 L
3399 1375 L
3405 1493 L
3410 1569 L
3416 1449 L
3421 1399 L
3426 1354 L
3431 1483 L
3436 1435 L
3441 1341 L
3446 1385 L
3451 1413 L
3455 1499 L
3460 1526 L
3464 1353 L
3469 1347 L
3473 1375 L
3477 1446 L
3481 1396 L
3485 1467 L
3489 1442 L
3493 1390 L
3496 1396 L
3500 1387 L
3504 1393 L
3507 1399 L
3511 1328 L
3514 1364 L
3518 1539 L
3521 1368 L
3525 1407 L
3528 1314 L
3531 1326 L
3534 1398 L
3537 1359 L
3540 1377 L
3543 1349 L
3546 1403 L
3549 1454 L
3552 1331 L
3555 1530 L
3558 1358 L
3561 1378 L
3564 1436 L
3566 1328 L
3575 1301 L
3586 1426 L
3595 1455 L
3605 1282 L
3613 1388 L
3622 1291 L
3630 1313 L
3638 1435 L
3646 1364 L
3653 1342 L
3660 1276 L
3667 1335 L
3674 1350 L
3681 1432 L
3687 1388 L
3693 1294 L
3699 1336 L
3705 1334 L
3710 1380 L
3716 1234 L
3721 1301 L
3727 1273 L
3732 1262 L
3737 1331 L
3742 1275 L
3746 1262 L
3751 1358 L
3756 1456 L
3760 1384 L
3764 1319 L
3769 1221 L
3773 1358 L
3777 1206 L
3781 1305 L
3785 1340 L
3789 1273 L
3793 1298 L
3797 1332 L
3800 1336 L
3804 1250 L
3808 1213 L
3811 1209 L
3815 1209 L
3818 1262 L
3821 1263 L
3825 1194 L
3828 1239 L
3831 1242 L
3834 1136 L
3838 1239 L
3841 1283 L
3844 1273 L
3847 1218 L
3850 1240 L
3853 1216 L
3855 1287 L
3858 1220 L
3861 1267 L
3864 1354 L
3867 1287 L
3869 1219 L
3872 1289 L
3875 1253 L
3877 1256 L
3880 1271 L
3882 1132 L
3885 1158 L
3887 1234 L
3890 1282 L
3892 1251 L
3895 1192 L
3897 1206 L
3899 1225 L
3902 1271 L
3904 1220 L
3906 1322 L
3908 1266 L
3911 1236 L
3913 1334 L
3915 1277 L
3917 1230 L
3919 1239 L
3921 1239 L
3923 1211 L
3926 1149 L
3928 1286 L
3930 1173 L
3932 1295 L
3934 1308 L
3936 1244 L
3938 1198 L
3940 1202 L
3942 1285 L
3943 1301 L
3945 1214 L
3947 1246 L
3949 1294 L
3951 1234 L
3953 1215 L
3955 1218 L
3956 1168 L
3958 1094 L
3960 1132 L
3962 1139 L
3963 1140 L
3965 1192 L
3967 1178 L
3969 1227 L
3970 1271 L
3972 1193 L
3974 1201 L
3975 1303 L
3977 1242 L
3978 1160 L
3980 1241 L
3982 1354 L
3983 1156 L
3985 1205 L
3986 1257 L
3988 1089 L
3990 1116 L
3991 1125 L
3993 1297 L
3994 1237 L
3996 1158 L
3997 1195 L
3999 1120 L
4000 1188 L
4001 1028 L
4003 1251 L
4004 1169 L
4006 1107 L
4007 1090 L
4009 1257 L
4010 1182 L
4011 1065 L
4013 1250 L
4014 1225 L
4016 1250 L
4017 1107 L
4018 1180 L
4020 1110 L
4021 1142 L
4022 1244 L
4024 1110 L
4025 1194 L
4026 1102 L
4028 1056 L
4029 1156 L
4030 1170 L
4031 1202 L
4033 1186 L
4034 1201 L
4035 1200 L
4036 1267 L
4038 1233 L
4039 1214 L
4040 1156 L
4041 1155 L
4042 1084 L
4044 1113 L
4045 1173 L
4046 1162 L
4047 1177 L
4048 1144 L
4050 1214 L
4051 1124 L
4052 1304 L
4053 1113 L
4054 1203 L
4055 1124 L
4056 1113 L
4058 1269 L
4059 1151 L
4060 1159 L
4061 1147 L
4062 1233 L
4063 1249 L
4064 1141 L
4065 1167 L
4066 1095 L
L2 C06 COSGR

%
% Main frame
%
L10
GSN 
620 1700 M
4220 1700 L
4220 5300 L
620 5300 L
closepath SGR

%
% X axis: large tics
%
L10
GSN 1074 1700 M 0  54 rL SGR
GSN 1074 5300 M 0 -54 rL SGR
helvS (0.0001) 1074 470 xlabel
GSN 1572 1700 M 0  54 rL SGR
GSN 1572 5300 M 0 -54 rL SGR
helvS (0.001) 1572 470 xlabel
GSN 2071 1700 M 0  54 rL SGR
GSN 2071 5300 M 0 -54 rL SGR
helvS (0.01) 2071 470 xlabel
GSN 2570 1700 M 0  54 rL SGR
GSN 2570 5300 M 0 -54 rL SGR
helvS (0.1) 2570 470 xlabel
GSN 3068 1700 M 0  54 rL SGR
GSN 3068 5300 M 0 -54 rL SGR
helvS (1) 3068 470 xlabel
GSN 3567 1700 M 0  54 rL SGR
GSN 3567 5300 M 0 -54 rL SGR
helvS (10) 3567 470 xlabel
GSN 4066 1700 M 0  54 rL SGR
GSN 4066 5300 M 0 -54 rL SGR
helvS (100) 4066 470 xlabel
%
% X axis: small tics
%
L5
GSN 725 1700 M 0  36 rL SGR
GSN 725 5300 M 0 -36 rL SGR
GSN 813 1700 M 0  36 rL SGR
GSN 813 5300 M 0 -36 rL SGR
GSN 875 1700 M 0  36 rL SGR
GSN 875 5300 M 0 -36 rL SGR
GSN 924 1700 M 0  36 rL SGR
GSN 924 5300 M 0 -36 rL SGR
GSN 963 1700 M 0  36 rL SGR
GSN 963 5300 M 0 -36 rL SGR
GSN 996 1700 M 0  36 rL SGR
GSN 996 5300 M 0 -36 rL SGR
GSN 1025 1700 M 0  36 rL SGR
GSN 1025 5300 M 0 -36 rL SGR
GSN 1051 1700 M 0  36 rL SGR
GSN 1051 5300 M 0 -36 rL SGR
GSN 1224 1700 M 0  36 rL SGR
GSN 1224 5300 M 0 -36 rL SGR
GSN 1312 1700 M 0  36 rL SGR
GSN 1312 5300 M 0 -36 rL SGR
GSN 1374 1700 M 0  36 rL SGR
GSN 1374 5300 M 0 -36 rL SGR
GSN 1422 1700 M 0  36 rL SGR
GSN 1422 5300 M 0 -36 rL SGR
GSN 1462 1700 M 0  36 rL SGR
GSN 1462 5300 M 0 -36 rL SGR
GSN 1495 1700 M 0  36 rL SGR
GSN 1495 5300 M 0 -36 rL SGR
GSN 1524 1700 M 0  36 rL SGR
GSN 1524 5300 M 0 -36 rL SGR
GSN 1550 1700 M 0  36 rL SGR
GSN 1550 5300 M 0 -36 rL SGR
GSN 1722 1700 M 0  36 rL SGR
GSN 1722 5300 M 0 -36 rL SGR
GSN 1810 1700 M 0  36 rL SGR
GSN 1810 5300 M 0 -36 rL SGR
GSN 1873 1700 M 0  36 rL SGR
GSN 1873 5300 M 0 -36 rL SGR
GSN 1921 1700 M 0  36 rL SGR
GSN 1921 5300 M 0 -36 rL SGR
GSN 1960 1700 M 0  36 rL SGR
GSN 1960 5300 M 0 -36 rL SGR
GSN 1994 1700 M 0  36 rL SGR
GSN 1994 5300 M 0 -36 rL SGR
GSN 2023 1700 M 0  36 rL SGR
GSN 2023 5300 M 0 -36 rL SGR
GSN 2048 1700 M 0  36 rL SGR
GSN 2048 5300 M 0 -36 rL SGR
GSN 2221 1700 M 0  36 rL SGR
GSN 2221 5300 M 0 -36 rL SGR
GSN 2309 1700 M 0  36 rL SGR
GSN 2309 5300 M 0 -36 rL SGR
GSN 2371 1700 M 0  36 rL SGR
GSN 2371 5300 M 0 -36 rL SGR
GSN 2420 1700 M 0  36 rL SGR
GSN 2420 5300 M 0 -36 rL SGR
GSN 2459 1700 M 0  36 rL SGR
GSN 2459 5300 M 0 -36 rL SGR
GSN 2492 1700 M 0  36 rL SGR
GSN 2492 5300 M 0 -36 rL SGR
GSN 2521 1700 M 0  36 rL SGR
GSN 2521 5300 M 0 -36 rL SGR
GSN 2547 1700 M 0  36 rL SGR
GSN 2547 5300 M 0 -36 rL SGR
GSN 2720 1700 M 0  36 rL SGR
GSN 2720 5300 M 0 -36 rL SGR
GSN 2808 1700 M 0  36 rL SGR
GSN 2808 5300 M 0 -36 rL SGR
GSN 2870 1700 M 0  36 rL SGR
GSN 2870 5300 M 0 -36 rL SGR
GSN 2918 1700 M 0  36 rL SGR
GSN 2918 5300 M 0 -36 rL SGR
GSN 2958 1700 M 0  36 rL SGR
GSN 2958 5300 M 0 -36 rL SGR
GSN 2991 1700 M 0  36 rL SGR
GSN 2991 5300 M 0 -36 rL SGR
GSN 3020 1700 M 0  36 rL SGR
GSN 3020 5300 M 0 -36 rL SGR
GSN 3045 1700 M 0  36 rL SGR
GSN 3045 5300 M 0 -36 rL SGR
GSN 3218 1700 M 0  36 rL SGR
GSN 3218 5300 M 0 -36 rL SGR
GSN 3306 1700 M 0  36 rL SGR
GSN 3306 5300 M 0 -36 rL SGR
GSN 3368 1700 M 0  36 rL SGR
GSN 3368 5300 M 0 -36 rL SGR
GSN 3417 1700 M 0  36 rL SGR
GSN 3417 5300 M 0 -36 rL SGR
GSN 3456 1700 M 0  36 rL SGR
GSN 3456 5300 M 0 -36 rL SGR
GSN 3490 1700 M 0  36 rL SGR
GSN 3490 5300 M 0 -36 rL SGR
GSN 3519 1700 M 0  36 rL SGR
GSN 3519 5300 M 0 -36 rL SGR
GSN 3544 1700 M 0  36 rL SGR
GSN 3544 5300 M 0 -36 rL SGR
GSN 3717 1700 M 0  36 rL SGR
GSN 3717 5300 M 0 -36 rL SGR
GSN 3805 1700 M 0  36 rL SGR
GSN 3805 5300 M 0 -36 rL SGR
GSN 3867 1700 M 0  36 rL SGR
GSN 3867 5300 M 0 -36 rL SGR
GSN 3915 1700 M 0  36 rL SGR
GSN 3915 5300 M 0 -36 rL SGR
GSN 3955 1700 M 0  36 rL SGR
GSN 3955 5300 M 0 -36 rL SGR
GSN 3988 1700 M 0  36 rL SGR
GSN 3988 5300 M 0 -36 rL SGR
GSN 4017 1700 M 0  36 rL SGR
GSN 4017 5300 M 0 -36 rL SGR
GSN 4043 1700 M 0  36 rL SGR
GSN 4043 5300 M 0 -36 rL SGR
GSN 4216 1700 M 0  36 rL SGR
GSN 4216 5300 M 0 -36 rL SGR
%
% Y axis: large tics
%
L10
GSN 620 2333 M 54 0 rL SGR
GSN 4220 2333 M -54 0 rL SGR
helvS (0.92) 560 2333 ylabel
GSN 620 3131 M 54 0 rL SGR
GSN 4220 3131 M -54 0 rL SGR
helvS (0.94) 560 3131 ylabel
GSN 620 3928 M 54 0 rL SGR
GSN 4220 3928 M -54 0 rL SGR
helvS (0.96) 560 3928 ylabel
GSN 620 4725 M 54 0 rL SGR
GSN 4220 4725 M -54 0 rL SGR
helvS (0.98) 560 4725 ylabel
%
% Y axis: small tics
%
L5
GSN 620 1735 M 36 0 rL SGR
GSN 4220 1735 M -36 0 rL SGR
GSN 620 1935 M 36 0 rL SGR
GSN 4220 1935 M -36 0 rL SGR
GSN 620 2134 M 36 0 rL SGR
GSN 4220 2134 M -36 0 rL SGR
GSN 620 2333 M 36 0 rL SGR
GSN 4220 2333 M -36 0 rL SGR
GSN 620 2533 M 36 0 rL SGR
GSN 4220 2533 M -36 0 rL SGR
GSN 620 2732 M 36 0 rL SGR
GSN 4220 2732 M -36 0 rL SGR
GSN 620 2931 M 36 0 rL SGR
GSN 4220 2931 M -36 0 rL SGR
GSN 620 3131 M 36 0 rL SGR
GSN 4220 3131 M -36 0 rL SGR
GSN 620 3330 M 36 0 rL SGR
GSN 4220 3330 M -36 0 rL SGR
GSN 620 3529 M 36 0 rL SGR
GSN 4220 3529 M -36 0 rL SGR
GSN 620 3729 M 36 0 rL SGR
GSN 4220 3729 M -36 0 rL SGR
GSN 620 3928 M 36 0 rL SGR
GSN 4220 3928 M -36 0 rL SGR
GSN 620 4127 M 36 0 rL SGR
GSN 4220 4127 M -36 0 rL SGR
GSN 620 4326 M 36 0 rL SGR
GSN 4220 4326 M -36 0 rL SGR
GSN 620 4526 M 36 0 rL SGR
GSN 4220 4526 M -36 0 rL SGR
GSN 620 4725 M 36 0 rL SGR
GSN 4220 4725 M -36 0 rL SGR
GSN 620 4924 M 36 0 rL SGR
GSN 4220 4924 M -36 0 rL SGR
GSN 620 5124 M 36 0 rL SGR
GSN 4220 5124 M -36 0 rL SGR

%
% X-Axis label:
%
gsave 2420 290 M 
[
[(Helvetica) 180 0 true true 0 (t)]
[(Helvetica) 180 0 true true 0 (i)]
[(Helvetica) 180 0 true true 0 (m)]
[(Helvetica) 180 0 true true 0 (e)]
] 0 MCshow grestore

%
% Y-Axis label:
%
gsave 234 3500 M 
currentpoint gsave translate 90 rotate 0 0 moveto
[
[(Helvetica) 180 0 true true 0 (s)]
[(Helvetica) 180 0 true true 0 (i)]
[(Helvetica) 180 0 true true 0 (g)]
[(Helvetica) 180 0 true true 0 (n)]
[(Helvetica) 180 0 true true 0 (a)]
[(Helvetica) 180 0 true true 0 (l)]
] 0 MCshow grestore

%
% Residuals:
%
gsave 129 1160 M 
currentpoint gsave translate 90 rotate 0 0 moveto
[
[(Helvetica) 150 0 true true 0 (r)]
[(Helvetica) 150 0 true true 0 (e)]
[(Helvetica) 150 0 true true 0 (s)]
[(Helvetica) 150 0 true true 0 (i)]
[(Helvetica) 150 0 true true 0 (d)]
[(Helvetica) 150 0 true true 0 (u)]
[(Helvetica) 150 0 true true 0 (a)]
[(Helvetica) 150 0 true true 0 (l)]
[(Helvetica) 150 0 true true 0 (s)]
] 0 MCshow grestore

%
% Residual frame
%
L10
GSN 
620 620 M
4220 620 L
4220 1700 L
620 1700 L
closepath SGR
%
% X axis: large tics - residual frame
%
L10
GSN 1074 620 M 0  54 rL SGR
GSN 1074 1700 M 0 -54 rL SGR
GSN 1572 620 M 0  54 rL SGR
GSN 1572 1700 M 0 -54 rL SGR
GSN 2071 620 M 0  54 rL SGR
GSN 2071 1700 M 0 -54 rL SGR
GSN 2570 620 M 0  54 rL SGR
GSN 2570 1700 M 0 -54 rL SGR
GSN 3068 620 M 0  54 rL SGR
GSN 3068 1700 M 0 -54 rL SGR
GSN 3567 620 M 0  54 rL SGR
GSN 3567 1700 M 0 -54 rL SGR
GSN 4066 620 M 0  54 rL SGR
GSN 4066 1700 M 0 -54 rL SGR
%
% X axis: small tics - residual frame
%
L5
GSN 725 620 M 0  36 rL SGR
GSN 725 1700 M 0 -36 rL SGR
GSN 813 620 M 0  36 rL SGR
GSN 813 1700 M 0 -36 rL SGR
GSN 875 620 M 0  36 rL SGR
GSN 875 1700 M 0 -36 rL SGR
GSN 924 620 M 0  36 rL SGR
GSN 924 1700 M 0 -36 rL SGR
GSN 963 620 M 0  36 rL SGR
GSN 963 1700 M 0 -36 rL SGR
GSN 996 620 M 0  36 rL SGR
GSN 996 1700 M 0 -36 rL SGR
GSN 1025 620 M 0  36 rL SGR
GSN 1025 1700 M 0 -36 rL SGR
GSN 1051 620 M 0  36 rL SGR
GSN 1051 1700 M 0 -36 rL SGR
GSN 1224 620 M 0  36 rL SGR
GSN 1224 1700 M 0 -36 rL SGR
GSN 1312 620 M 0  36 rL SGR
GSN 1312 1700 M 0 -36 rL SGR
GSN 1374 620 M 0  36 rL SGR
GSN 1374 1700 M 0 -36 rL SGR
GSN 1422 620 M 0  36 rL SGR
GSN 1422 1700 M 0 -36 rL SGR
GSN 1462 620 M 0  36 rL SGR
GSN 1462 1700 M 0 -36 rL SGR
GSN 1495 620 M 0  36 rL SGR
GSN 1495 1700 M 0 -36 rL SGR
GSN 1524 620 M 0  36 rL SGR
GSN 1524 1700 M 0 -36 rL SGR
GSN 1550 620 M 0  36 rL SGR
GSN 1550 1700 M 0 -36 rL SGR
GSN 1722 620 M 0  36 rL SGR
GSN 1722 1700 M 0 -36 rL SGR
GSN 1810 620 M 0  36 rL SGR
GSN 1810 1700 M 0 -36 rL SGR
GSN 1873 620 M 0  36 rL SGR
GSN 1873 1700 M 0 -36 rL SGR
GSN 1921 620 M 0  36 rL SGR
GSN 1921 1700 M 0 -36 rL SGR
GSN 1960 620 M 0  36 rL SGR
GSN 1960 1700 M 0 -36 rL SGR
GSN 1994 620 M 0  36 rL SGR
GSN 1994 1700 M 0 -36 rL SGR
GSN 2023 620 M 0  36 rL SGR
GSN 2023 1700 M 0 -36 rL SGR
GSN 2048 620 M 0  36 rL SGR
GSN 2048 1700 M 0 -36 rL SGR
GSN 2221 620 M 0  36 rL SGR
GSN 2221 1700 M 0 -36 rL SGR
GSN 2309 620 M 0  36 rL SGR
GSN 2309 1700 M 0 -36 rL SGR
GSN 2371 620 M 0  36 rL SGR
GSN 2371 1700 M 0 -36 rL SGR
GSN 2420 620 M 0  36 rL SGR
GSN 2420 1700 M 0 -36 rL SGR
GSN 2459 620 M 0  36 rL SGR
GSN 2459 1700 M 0 -36 rL SGR
GSN 2492 620 M 0  36 rL SGR
GSN 2492 1700 M 0 -36 rL SGR
GSN 2521 620 M 0  36 rL SGR
GSN 2521 1700 M 0 -36 rL SGR
GSN 2547 620 M 0  36 rL SGR
GSN 2547 1700 M 0 -36 rL SGR
GSN 2720 620 M 0  36 rL SGR
GSN 2720 1700 M 0 -36 rL SGR
GSN 2808 620 M 0  36 rL SGR
GSN 2808 1700 M 0 -36 rL SGR
GSN 2870 620 M 0  36 rL SGR
GSN 2870 1700 M 0 -36 rL SGR
GSN 2918 620 M 0  36 rL SGR
GSN 2918 1700 M 0 -36 rL SGR
GSN 2958 620 M 0  36 rL SGR
GSN 2958 1700 M 0 -36 rL SGR
GSN 2991 620 M 0  36 rL SGR
GSN 2991 1700 M 0 -36 rL SGR
GSN 3020 620 M 0  36 rL SGR
GSN 3020 1700 M 0 -36 rL SGR
GSN 3045 620 M 0  36 rL SGR
GSN 3045 1700 M 0 -36 rL SGR
GSN 3218 620 M 0  36 rL SGR
GSN 3218 1700 M 0 -36 rL SGR
GSN 3306 620 M 0  36 rL SGR
GSN 3306 1700 M 0 -36 rL SGR
GSN 3368 620 M 0  36 rL SGR
GSN 3368 1700 M 0 -36 rL SGR
GSN 3417 620 M 0  36 rL SGR
GSN 3417 1700 M 0 -36 rL SGR
GSN 3456 620 M 0  36 rL SGR
GSN 3456 1700 M 0 -36 rL SGR
GSN 3490 620 M 0  36 rL SGR
GSN 3490 1700 M 0 -36 rL SGR
GSN 3519 620 M 0  36 rL SGR
GSN 3519 1700 M 0 -36 rL SGR
GSN 3544 620 M 0  36 rL SGR
GSN 3544 1700 M 0 -36 rL SGR
GSN 3717 620 M 0  36 rL SGR
GSN 3717 1700 M 0 -36 rL SGR
GSN 3805 620 M 0  36 rL SGR
GSN 3805 1700 M 0 -36 rL SGR
GSN 3867 620 M 0  36 rL SGR
GSN 3867 1700 M 0 -36 rL SGR
GSN 3915 620 M 0  36 rL SGR
GSN 3915 1700 M 0 -36 rL SGR
GSN 3955 620 M 0  36 rL SGR
GSN 3955 1700 M 0 -36 rL SGR
GSN 3988 620 M 0  36 rL SGR
GSN 3988 1700 M 0 -36 rL SGR
GSN 4017 620 M 0  36 rL SGR
GSN 4017 1700 M 0 -36 rL SGR
GSN 4043 620 M 0  36 rL SGR
GSN 4043 1700 M 0 -36 rL SGR
GSN 4216 620 M 0  36 rL SGR
GSN 4216 1700 M 0 -36 rL SGR
%
% Y axis: large tics - residual frame
%
L10
GSN 620 725 M 54 0 rL SGR
GSN 4220 725 M -54 0 rL SGR
helvS (-0.02) 560 725 ylabelresid
GSN 620 950 M 54 0 rL SGR
GSN 4220 950 M -54 0 rL SGR
helvS (-0.01) 560 950 ylabelresid
GSN 620 1174 M 54 0 rL SGR
GSN 4220 1174 M -54 0 rL SGR
helvS (0) 560 1174 ylabelresid
GSN 620 1398 M 54 0 rL SGR
GSN 4220 1398 M -54 0 rL SGR
helvS (0.01) 560 1398 ylabelresid
GSN 620 1623 M 54 0 rL SGR
GSN 4220 1623 M -54 0 rL SGR
helvS (0.02) 560 1623 ylabelresid

%
% X axis - residual panel
%
GSN L5 620 1174 M 4220 1174 L SDA G50 SGR

end
showpage
%%Trailer
%%EOF
