%!PS-Adobe-3.0 EPSF-3.0
%%BoundingBox: 0 0 514 550
%%Creator: BioKin Ltd.
%%DocumentFonts: Symbol Helvetica
%%EndComments
%
/bkdict 256 dict def
bkdict begin
/M {moveto} def 
/R {rmoveto} def
/L {lineto} def
/rL {rlineto} def
/GSN {gsave newpath} def
/SGR {stroke grestore} def
/COSGR {gsave setrgbcolor stroke grestore grestore} def
/SL {setlinewidth} def
/LWMB {12} def             % line width - model curves, black & white
/LWMC {10} def             % line width - model curves, color
/L2 {2.5 setlinewidth} def
/L5 {5 setlinewidth} def
/L10 {10 setlinewidth} def
/G50 {0.5 setgray} def
/SDA {[10  20] 0 setdash} def % axes
/helvT {/Helvetica findfont 100 scalefont setfont} def % tiny
/helvS {/Helvetica findfont 125 scalefont setfont} def % small
/helvM {/Helvetica findfont 150 scalefont setfont} def % medium
/helvL {/Helvetica findfont 175 scalefont setfont} def % large
/xlabel {gsave M dup
   stringwidth exch -0.5 mul exch rmoveto show grestore} def 
/ylabel {gsave M 90 rotate dup
   stringwidth exch -0.5 mul exch rmoveto show grestore} def
/ylabelresid {gsave M dup
   stringwidth exch -1 mul exch rmoveto show grestore} def
% ======
% Shapes
% ======
% Circle:
/Circ {0 360 arc closepath} def
%
% Square:
/Squa {dup dup -0.5 mul dup dup R -2 mul 0 exch rL 1 mul 0 rL dup 0 exch -1 mul rL closepath} def
%
% Triangle Up:
/TriU {dup dup dup -0.4 mul exch -0.5 mul exch R dup 0.5 mul exch rL dup -1 mul exch 0.5 mul exch rL closepath} def 
%
% Triangle Down:
/TriD {dup dup dup 0.4 mul exch -0.5 mul exch R dup 0.5 mul exch -1 mul rL dup 0.5 mul exch rL closepath} def 
%
% Diamond:
/Diam {45 rotate Squa} def
% ======
% Fills
% ======
/GRF {gsave setgray fill grestore} def                    % gray-level Fill
/COF {gsave setrgbcolor fill grestore} def                % color fill
% ======
% Colors
% ======
/C01 {1.00	0.00	0.00} def      % Red
/C02 {0.00	0.00	1.00} def      % Blue
/C03 {0.00	0.39	0.00} def      % Dark Green
/C04 {0.78	0.08	0.52} def      % Medium Violet Red
/C05 {0.55	0.27	0.07} def      % Saddle Brown
/C06 {0.10	0.70	0.70} def      % (cyan)
/C07 {1.00	0.55	0.00} def      % Dark Orange
/C08 {0.63	0.13	0.94} def      % Purple
/C09 {0.00	0.75	1.00} def      % Deep Sky Blue
/C10 {0.20	0.80	0.20} def      % Lime Green
/C11 {0.47	0.53	0.60} def      % Light Slate Gray
/C12 {0.00	0.00	0.00} def      % Black            % or: {0.19	0.31	0.31} def      % Dark Slate Gray
%
/LGR {0.75} def % light gray
/DGR {0.33} def % dark gray
%
% =============
% Dash patterns
% =============
/dash01 { [80  20] 0 setdash } def
/dash02 { [40  20] 0 setdash } def
/dash03 { [80  20  10  20] 0 setdash } def
/dash04 { [40  20  10  20] 0 setdash } def
/dash05 { [80  20  10  10  10  20] 0 setdash } def
/dash06 { [40  20  10  10  10  20] 0 setdash } def
/dash07 { [10  10] 0 setdash } def
%
/MFshow {
   { dup 5 get 3 ge
     { 5 get 3 eq {gsave} {grestore} ifelse }
     {dup dup 0 get findfont exch 1 get scalefont setfont
     [ currentpoint ] exch dup 2 get 0 exch R dup 5 get 2 ne {dup dup 6
     get exch 4 get {show} {stringwidth pop 0 R} ifelse }if dup 5 get 0 eq
     {dup 3 get {2 get neg 0 exch R pop} {pop aload pop M} ifelse} {dup 5
     get 1 eq {dup 2 get exch dup 3 get exch 6 get stringwidth pop -2 div
     dup 0 R} {dup 6 get stringwidth pop -2 div 0 R 6 get
     show 2 index {aload pop M neg 3 -1 roll neg R pop pop} {pop pop pop
     pop aload pop M} ifelse }ifelse }ifelse }
     ifelse }
   forall} bind def
/MFwidth {0 exch {dup 3 get{dup dup 0 get findfont exch 1 get scalefont
     setfont 6 get stringwidth pop add} {pop} ifelse} forall} bind def
/MCshow { currentpoint stroke M
  exch dup MFwidth -2 div 3 -1 roll R MFshow } def
%
end
%%EndProlog
bkdict begin
0.1 0.1 scale
%
% Residuals:
%
GSN 620 2538 M
620 4501 L
620 4609 L
620 4863 L
620 4813 L
620 4622 L
620 4572 L
620 4528 L
620 4538 L
620 4479 L
620 4317 L
620 4447 L
620 4218 L
620 4219 L
620 4447 L
620 4207 L
620 4218 L
620 4044 L
620 4064 L
620 4054 L
620 4029 L
620 3914 L
620 3820 L
620 3850 L
620 4027 L
620 3841 L
620 3890 L
620 3799 L
620 3852 L
620 3824 L
620 3820 L
620 3722 L
620 3627 L
620 3524 L
620 3612 L
620 3593 L
620 3503 L
620 3620 L
620 3700 L
620 3610 L
620 3569 L
620 3452 L
620 3570 L
620 3343 L
620 3365 L
620 3414 L
620 3448 L
620 3387 L
620 3386 L
620 3372 L
620 3256 L
620 3266 L
620 3264 L
620 3181 L
620 2997 L
620 3343 L
620 3172 L
620 3194 L
620 3138 L
620 3322 L
620 3146 L
620 3056 L
620 3397 L
620 3013 L
620 3184 L
620 3139 L
620 3033 L
620 3078 L
620 3038 L
620 3184 L
620 3067 L
620 2908 L
620 3136 L
620 3249 L
620 3043 L
620 3011 L
620 3084 L
620 2876 L
620 2983 L
620 2999 L
620 2966 L
620 2810 L
620 2843 L
620 2998 L
620 2712 L
620 2752 L
620 2828 L
620 2768 L
620 2666 L
620 2592 L
620 2586 L
620 2610 L
620 2340 L
620 2561 L
620 2453 L
620 2692 L
620 2435 L
620 2520 L
620 2278 L
620 2382 L
620 2399 L
620 2307 L
620 2460 L
620 2330 L
620 2474 L
620 2486 L
620 2370 L
620 2267 L
620 2269 L
620 2465 L
620 2332 L
620 2290 L
620 2310 L
620 2402 L
620 2301 L
620 2346 L
620 2267 L
620 2391 L
620 2402 L
620 2357 L
620 2379 L
620 2390 L
620 2244 L
620 2517 L
620 2444 L
620 2136 L
620 2405 L
620 2359 L
620 2445 L
620 2338 L
620 2376 L
620 2274 L
620 2394 L
620 2400 L
620 2552 L
620 2223 L
620 2382 L
620 2470 L
620 2491 L
620 2469 L
620 2454 L
620 2292 L
620 2316 L
620 2430 L
620 2368 L
620 2428 L
620 2461 L
620 2435 L
620 2467 L
620 2486 L
620 2352 L
620 2487 L
620 2419 L
620 2356 L
620 2545 L
620 2566 L
620 2382 L
620 2400 L
620 2589 L
620 2549 L
620 2538 L
620 2540 L
620 2380 L
620 2540 L
620 2592 L
620 2560 L
620 2447 L
620 2466 L
620 2474 L
620 2572 L
620 2579 L
620 2579 L
620 2477 L
620 2671 L
620 2615 L
620 2409 L
620 2687 L
620 2482 L
620 2507 L
620 2572 L
620 2544 L
620 2658 L
620 2568 L
620 2658 L
620 2656 L
620 2618 L
620 2582 L
620 2657 L
620 2518 L
620 2614 L
620 2762 L
620 2494 L
620 2778 L
620 2582 L
620 2459 L
620 2612 L
620 2779 L
620 2470 L
620 2550 L
620 2696 L
620 2740 L
620 2599 L
620 2567 L
620 2586 L
620 2800 L
620 2668 L
620 2720 L
620 2767 L
620 2768 L
620 2759 L
620 2872 L
620 2743 L
620 2839 L
620 2757 L
620 2774 L
620 2563 L
620 2671 L
620 2818 L
620 2543 L
620 2698 L
620 2719 L
620 2685 L
620 2848 L
620 2723 L
620 2784 L
620 2761 L
620 2769 L
620 2734 L
620 2758 L
620 2885 L
620 2677 L
620 2756 L
620 2680 L
620 2681 L
620 2792 L
620 2688 L
620 2818 L
620 2761 L
620 2852 L
620 2824 L
620 2940 L
620 2919 L
620 2850 L
620 2869 L
620 2765 L
620 2795 L
620 2692 L
620 2871 L
620 2823 L
620 2732 L
620 2874 L
620 2837 L
620 2901 L
620 2720 L
620 2740 L
620 3056 L
620 3028 L
620 2748 L
620 2880 L
620 2968 L
620 2870 L
620 2860 L
620 2909 L
620 2857 L
620 3031 L
620 2755 L
620 2869 L
620 2894 L
620 2822 L
620 2909 L
620 2924 L
620 2927 L
620 2876 L
620 2976 L
620 2931 L
620 2816 L
620 2829 L
620 2969 L
620 2934 L
620 2953 L
620 2851 L
620 3121 L
620 2945 L
620 3003 L
620 3209 L
620 3072 L
620 3224 L
620 3223 L
620 3309 L
620 3077 L
620 3263 L
620 3221 L
620 3275 L
620 3113 L
620 3167 L
620 3068 L
620 3127 L
620 3352 L
620 3198 L
620 3278 L
620 3148 L
620 3070 L
620 3085 L
620 3010 L
620 3148 L
620 3205 L
620 3275 L
620 3081 L
620 3162 L
620 3442 L
620 3105 L
620 3192 L
620 3116 L
620 3356 L
620 3001 L
620 3266 L
620 3212 L
620 3336 L
620 3170 L
620 3159 L
620 3175 L
620 3132 L
620 3361 L
620 3281 L
620 3118 L
620 3061 L
620 3077 L
620 3142 L
620 3350 L
620 3129 L
620 3168 L
620 3157 L
620 3314 L
620 3246 L
620 3087 L
620 3238 L
620 3131 L
620 3216 L
620 3107 L
620 3210 L
620 3233 L
620 3187 L
620 3120 L
620 3348 L
620 3114 L
620 3326 L
620 3145 L
620 3171 L
620 3228 L
620 2876 L
620 3078 L
620 3156 L
620 3165 L
620 3256 L
620 3235 L
620 3244 L
620 3138 L
620 3022 L
620 3175 L
620 3160 L
620 3227 L
620 3085 L
620 3102 L
620 2979 L
620 3184 L
620 3147 L
620 3057 L
620 3151 L
620 3068 L
620 3272 L
620 3049 L
620 3380 L
620 3194 L
620 2987 L
620 3180 L
620 3093 L
620 3130 L
620 3339 L
620 3006 L
620 3017 L
620 3178 L
620 3118 L
620 3041 L
620 3118 L
620 3190 L
620 3138 L
620 2965 L
620 3097 L
620 2834 L
620 2998 L
620 3133 L
620 3139 L
620 3047 L
620 2931 L
620 3184 L
620 3016 L
620 2849 L
620 3270 L
620 2957 L
620 2942 L
620 3295 L
620 3043 L
620 2956 L
620 3105 L
620 3028 L
620 2985 L
620 3185 L
620 3164 L
620 3069 L
620 3024 L
620 3058 L
620 2944 L
620 2949 L
620 3043 L
620 2988 L
620 3065 L
620 3088 L
620 2952 L
620 3001 L
620 3127 L
620 2840 L
620 3274 L
620 3033 L
620 3209 L
620 3170 L
620 2973 L
620 3048 L
620 2995 L
620 3089 L
620 3072 L
620 2924 L
620 2911 L
620 3168 L
620 2934 L
620 3043 L
620 3106 L
620 2977 L
620 2993 L
620 3015 L
620 2991 L
620 2944 L
620 2942 L
620 3093 L
620 2983 L
620 3045 L
620 2840 L
620 3033 L
620 3030 L
620 2936 L
620 2981 L
620 2999 L
620 3131 L
620 3111 L
620 3023 L
620 2948 L
620 2892 L
620 3062 L
620 3100 L
620 2990 L
620 2946 L
620 2963 L
620 3226 L
620 3113 L
620 2999 L
620 2893 L
620 2875 L
620 3101 L
620 3080 L
620 3080 L
620 3122 L
620 3070 L
620 2987 L
620 2920 L
620 3019 L
620 2915 L
620 2940 L
620 3075 L
620 3153 L
620 2967 L
620 2948 L
620 2989 L
620 3163 L
620 2974 L
620 2960 L
620 3148 L
620 3162 L
620 3028 L
620 3185 L
620 2767 L
620 2791 L
620 3142 L
620 3050 L
620 2853 L
620 3066 L
620 3028 L
620 3229 L
620 3060 L
620 3207 L
620 2891 L
620 3205 L
620 3043 L
620 3069 L
620 3056 L
620 3040 L
620 2963 L
620 3008 L
620 3002 L
620 3009 L
620 3047 L
620 2939 L
620 2794 L
620 3124 L
620 2944 L
620 2892 L
620 2974 L
620 3009 L
620 3084 L
620 3102 L
620 2856 L
620 3091 L
620 3072 L
620 2949 L
620 3077 L
620 2913 L
620 2932 L
620 3125 L
620 3015 L
620 3031 L
620 2879 L
620 3059 L
620 2762 L
620 2961 L
620 3062 L
L2 C05 COSGR

%
%================
% Legend - Begin
%================
%
GSN 4240 5180 M
4480 5180 L
LWMC SL  C05 COSGR
GSN 4540 5141 M helvM (2.5 uM) show grestore
%
%================
% Legend - End
%================
%

%
% Main frame
%
L10
GSN 
620 1700 M
4220 1700 L
4220 5300 L
620 5300 L
closepath SGR

%
% X axis: large tics
%
L10
%
% X axis: small tics
%
L5
%
% Y axis: large tics
%
L10
GSN 620 2229 M 54 0 rL SGR
GSN 4220 2229 M -54 0 rL SGR
helvS (-0.02) 560 2229 ylabel
GSN 620 2989 M 54 0 rL SGR
GSN 4220 2989 M -54 0 rL SGR
helvS (0) 560 2989 ylabel
GSN 620 3749 M 54 0 rL SGR
GSN 4220 3749 M -54 0 rL SGR
helvS (0.02) 560 3749 ylabel
GSN 620 4508 M 54 0 rL SGR
GSN 4220 4508 M -54 0 rL SGR
helvS (0.04) 560 4508 ylabel
GSN 620 5268 M 54 0 rL SGR
GSN 4220 5268 M -54 0 rL SGR
helvS (0.06) 560 5268 ylabel
%
% Y axis: small tics
%
L5
GSN 620 1849 M 36 0 rL SGR
GSN 4220 1849 M -36 0 rL SGR
GSN 620 2039 M 36 0 rL SGR
GSN 4220 2039 M -36 0 rL SGR
GSN 620 2229 M 36 0 rL SGR
GSN 4220 2229 M -36 0 rL SGR
GSN 620 2419 M 36 0 rL SGR
GSN 4220 2419 M -36 0 rL SGR
GSN 620 2609 M 36 0 rL SGR
GSN 4220 2609 M -36 0 rL SGR
GSN 620 2799 M 36 0 rL SGR
GSN 4220 2799 M -36 0 rL SGR
GSN 620 2989 M 36 0 rL SGR
GSN 4220 2989 M -36 0 rL SGR
GSN 620 3179 M 36 0 rL SGR
GSN 4220 3179 M -36 0 rL SGR
GSN 620 3369 M 36 0 rL SGR
GSN 4220 3369 M -36 0 rL SGR
GSN 620 3559 M 36 0 rL SGR
GSN 4220 3559 M -36 0 rL SGR
GSN 620 3749 M 36 0 rL SGR
GSN 4220 3749 M -36 0 rL SGR
GSN 620 3939 M 36 0 rL SGR
GSN 4220 3939 M -36 0 rL SGR
GSN 620 4128 M 36 0 rL SGR
GSN 4220 4128 M -36 0 rL SGR
GSN 620 4318 M 36 0 rL SGR
GSN 4220 4318 M -36 0 rL SGR
GSN 620 4508 M 36 0 rL SGR
GSN 4220 4508 M -36 0 rL SGR
GSN 620 4698 M 36 0 rL SGR
GSN 4220 4698 M -36 0 rL SGR
GSN 620 4888 M 36 0 rL SGR
GSN 4220 4888 M -36 0 rL SGR
GSN 620 5078 M 36 0 rL SGR
GSN 4220 5078 M -36 0 rL SGR
GSN 620 5268 M 36 0 rL SGR
GSN 4220 5268 M -36 0 rL SGR

%
% X axis - residual panel
%
GSN L5 620 2989 M 4220 2989 L SDA G50 SGR

%
% X-Axis label:
%
gsave 620 1370 M 
[
[(Helvetica) 180 0 true true 0 (t)]
[(Helvetica) 180 0 true true 0 (i)]
[(Helvetica) 180 0 true true 0 (m)]
[(Helvetica) 180 0 true true 0 (e)]
] 0 MCshow grestore

%
% Y-Axis label:
%
gsave 234 3500 M 
currentpoint gsave translate 90 rotate 0 0 moveto
[
[(Helvetica) 180 0 true true 0 (r)]
[(Helvetica) 180 0 true true 0 (e)]
[(Helvetica) 180 0 true true 0 (s)]
[(Helvetica) 180 0 true true 0 (i)]
[(Helvetica) 180 0 true true 0 (d)]
[(Helvetica) 180 0 true true 0 (u)]
[(Helvetica) 180 0 true true 0 (a)]
[(Helvetica) 180 0 true true 0 (l)]
[(Helvetica) 180 0 true true 0 (s)]
] 0 MCshow grestore

end
showpage
%%Trailer
%%EOF
