%!PS-Adobe-3.0 EPSF-3.0
%%BoundingBox: 0 0 514 550
%%Creator: BioKin Ltd.
%%DocumentFonts: Symbol Helvetica
%%EndComments
%
/bkdict 256 dict def
bkdict begin
/M {moveto} def 
/R {rmoveto} def
/L {lineto} def
/rL {rlineto} def
/GSN {gsave newpath} def
/SGR {stroke grestore} def
/COSGR {gsave setrgbcolor stroke grestore grestore} def
/SL {setlinewidth} def
/LWMB {12} def             % line width - model curves, black & white
/LWMC {10} def             % line width - model curves, color
/L2 {2.5 setlinewidth} def
/L5 {5 setlinewidth} def
/L10 {10 setlinewidth} def
/G50 {0.5 setgray} def
/SDA {[10  20] 0 setdash} def % axes
/helvT {/Helvetica findfont 100 scalefont setfont} def % tiny
/helvS {/Helvetica findfont 125 scalefont setfont} def % small
/helvM {/Helvetica findfont 150 scalefont setfont} def % medium
/helvL {/Helvetica findfont 175 scalefont setfont} def % large
/xlabel {gsave M dup
   stringwidth exch -0.5 mul exch rmoveto show grestore} def 
/ylabel {gsave M 90 rotate dup
   stringwidth exch -0.5 mul exch rmoveto show grestore} def
/ylabelresid {gsave M dup
   stringwidth exch -1 mul exch rmoveto show grestore} def
% ======
% Shapes
% ======
% Circle:
/Circ {0 360 arc closepath} def
%
% Square:
/Squa {dup dup -0.5 mul dup dup R -2 mul 0 exch rL 1 mul 0 rL dup 0 exch -1 mul rL closepath} def
%
% Triangle Up:
/TriU {dup dup dup -0.4 mul exch -0.5 mul exch R dup 0.5 mul exch rL dup -1 mul exch 0.5 mul exch rL closepath} def 
%
% Triangle Down:
/TriD {dup dup dup 0.4 mul exch -0.5 mul exch R dup 0.5 mul exch -1 mul rL dup 0.5 mul exch rL closepath} def 
%
% Diamond:
/Diam {45 rotate Squa} def
% ======
% Fills
% ======
/GRF {gsave setgray fill grestore} def                    % gray-level Fill
/COF {gsave setrgbcolor fill grestore} def                % color fill
% ======
% Colors
% ======
/C01 {1.00	0.00	0.00} def      % Red
/C02 {0.00	0.00	1.00} def      % Blue
/C03 {0.00	0.39	0.00} def      % Dark Green
/C04 {0.78	0.08	0.52} def      % Medium Violet Red
/C05 {0.55	0.27	0.07} def      % Saddle Brown
/C06 {0.10	0.70	0.70} def      % (cyan)
/C07 {1.00	0.55	0.00} def      % Dark Orange
/C08 {0.63	0.13	0.94} def      % Purple
/C09 {0.00	0.75	1.00} def      % Deep Sky Blue
/C10 {0.20	0.80	0.20} def      % Lime Green
/C11 {0.47	0.53	0.60} def      % Light Slate Gray
/C12 {0.00	0.00	0.00} def      % Black            % or: {0.19	0.31	0.31} def      % Dark Slate Gray
%
/LGR {0.75} def % light gray
/DGR {0.33} def % dark gray
%
% =============
% Dash patterns
% =============
/dash01 { [80  20] 0 setdash } def
/dash02 { [40  20] 0 setdash } def
/dash03 { [80  20  10  20] 0 setdash } def
/dash04 { [40  20  10  20] 0 setdash } def
/dash05 { [80  20  10  10  10  20] 0 setdash } def
/dash06 { [40  20  10  10  10  20] 0 setdash } def
/dash07 { [10  10] 0 setdash } def
%
/MFshow {
   { dup 5 get 3 ge
     { 5 get 3 eq {gsave} {grestore} ifelse }
     {dup dup 0 get findfont exch 1 get scalefont setfont
     [ currentpoint ] exch dup 2 get 0 exch R dup 5 get 2 ne {dup dup 6
     get exch 4 get {show} {stringwidth pop 0 R} ifelse }if dup 5 get 0 eq
     {dup 3 get {2 get neg 0 exch R pop} {pop aload pop M} ifelse} {dup 5
     get 1 eq {dup 2 get exch dup 3 get exch 6 get stringwidth pop -2 div
     dup 0 R} {dup 6 get stringwidth pop -2 div 0 R 6 get
     show 2 index {aload pop M neg 3 -1 roll neg R pop pop} {pop pop pop
     pop aload pop M} ifelse }ifelse }ifelse }
     ifelse }
   forall} bind def
/MFwidth {0 exch {dup 3 get{dup dup 0 get findfont exch 1 get scalefont
     setfont 6 get stringwidth pop add} {pop} ifelse} forall} bind def
/MCshow { currentpoint stroke M
  exch dup MFwidth -2 div 3 -1 roll R MFshow } def
%
end
%%EndProlog
bkdict begin
0.1 0.1 scale
%
% Residuals:
%
GSN 620 3271 M
620 2742 L
620 3129 L
620 4443 L
620 4369 L
620 3788 L
620 3709 L
620 3423 L
620 3459 L
620 3485 L
620 3281 L
620 3846 L
620 3155 L
620 3690 L
620 3731 L
620 3360 L
620 3290 L
620 3469 L
620 3217 L
620 3565 L
620 3341 L
620 3374 L
620 3668 L
620 3858 L
620 2971 L
620 3519 L
620 4240 L
620 3549 L
620 3696 L
620 3586 L
620 3475 L
620 3502 L
620 3116 L
620 3902 L
620 3701 L
620 3606 L
620 3192 L
620 3925 L
620 3875 L
620 3306 L
620 3433 L
620 3487 L
620 3628 L
620 3051 L
620 2914 L
620 3863 L
620 3349 L
620 3014 L
620 3195 L
620 3669 L
620 2651 L
620 2871 L
620 3378 L
620 3594 L
620 3043 L
620 3630 L
620 3623 L
620 3429 L
620 2911 L
620 3718 L
620 4129 L
620 3715 L
620 2941 L
620 2611 L
620 3410 L
620 3125 L
620 3125 L
620 3308 L
620 3499 L
620 2760 L
620 4082 L
620 3292 L
620 3175 L
620 3139 L
620 3608 L
620 2756 L
620 4078 L
620 3649 L
620 3950 L
620 3134 L
620 3469 L
620 3260 L
620 3285 L
620 3098 L
620 3002 L
620 3061 L
620 3199 L
620 3719 L
620 2903 L
620 3050 L
620 3786 L
620 3247 L
620 3389 L
620 3241 L
620 3227 L
620 3419 L
620 2441 L
620 3367 L
620 3159 L
620 3034 L
620 3255 L
620 3128 L
620 2415 L
620 2792 L
620 3671 L
620 2796 L
620 3235 L
620 3731 L
620 2980 L
620 3101 L
620 2592 L
620 2426 L
620 2779 L
620 2644 L
620 2804 L
620 2734 L
620 2967 L
620 2788 L
620 2783 L
620 3188 L
620 2503 L
620 2803 L
620 2903 L
620 2839 L
620 2486 L
620 2732 L
620 3427 L
620 2908 L
620 3058 L
620 2544 L
620 3163 L
620 3103 L
620 2707 L
620 2442 L
620 4008 L
620 3121 L
620 2680 L
620 2417 L
620 3086 L
620 3412 L
620 2716 L
620 2889 L
620 3768 L
620 3115 L
620 3248 L
620 3426 L
620 3018 L
620 3495 L
620 2725 L
620 2976 L
620 3484 L
620 3270 L
620 3384 L
620 2958 L
620 3507 L
620 3935 L
620 3092 L
620 3723 L
620 2937 L
620 3072 L
620 3523 L
620 2811 L
620 3650 L
620 3795 L
620 3372 L
620 3383 L
620 3114 L
620 3673 L
620 3430 L
620 2580 L
620 3119 L
620 3854 L
620 3473 L
620 2943 L
620 2968 L
620 3551 L
620 3669 L
620 2835 L
620 3536 L
620 2986 L
620 3263 L
620 3286 L
620 2667 L
620 3914 L
620 3274 L
620 3316 L
620 4344 L
620 3738 L
620 3882 L
620 3891 L
620 3855 L
620 3293 L
620 3405 L
620 3486 L
620 2424 L
620 3106 L
620 3736 L
620 3773 L
620 3088 L
620 3131 L
620 3772 L
620 3398 L
620 3579 L
620 3972 L
620 3270 L
620 3612 L
620 3340 L
620 3479 L
620 3330 L
620 3848 L
620 3992 L
620 3943 L
620 3367 L
620 3571 L
620 3154 L
620 3949 L
620 3249 L
620 3580 L
620 4070 L
620 3577 L
620 3749 L
620 3848 L
620 3485 L
620 3291 L
620 3506 L
620 4041 L
620 3901 L
620 3687 L
620 4030 L
620 3628 L
620 3147 L
620 3634 L
620 3303 L
620 3777 L
620 3532 L
620 3757 L
620 3831 L
620 4109 L
620 3574 L
620 3696 L
620 3964 L
620 3426 L
620 3939 L
620 3661 L
620 3694 L
620 3191 L
620 2935 L
620 4265 L
620 4110 L
620 4018 L
620 3886 L
620 3349 L
620 4126 L
620 3314 L
620 3883 L
620 4010 L
620 4162 L
620 4322 L
620 3922 L
620 3745 L
620 3765 L
620 3408 L
620 3908 L
620 3872 L
620 4084 L
620 3914 L
620 4247 L
620 3345 L
620 4138 L
620 3363 L
620 4261 L
620 3223 L
620 3422 L
620 3194 L
620 4121 L
620 3365 L
620 4015 L
620 3116 L
620 3884 L
620 4287 L
620 3821 L
620 4405 L
620 4292 L
620 4439 L
620 3866 L
620 3704 L
620 4483 L
620 4324 L
620 3203 L
620 3906 L
620 4017 L
620 3900 L
620 4268 L
620 4639 L
620 4161 L
620 4214 L
620 4235 L
620 4333 L
620 4299 L
620 4440 L
620 4243 L
620 3586 L
620 3666 L
620 3796 L
620 3882 L
620 4658 L
620 4055 L
620 4496 L
620 4230 L
620 4763 L
620 4590 L
620 4208 L
620 4718 L
620 4040 L
620 4769 L
620 4029 L
620 4790 L
620 4118 L
620 4550 L
620 4576 L
620 4012 L
620 4109 L
620 4187 L
620 4129 L
620 4447 L
620 3836 L
620 4721 L
620 3981 L
620 3504 L
620 4302 L
620 3236 L
620 4037 L
620 3847 L
620 4006 L
620 3439 L
620 4863 L
620 3272 L
620 3886 L
620 4051 L
620 4302 L
620 3702 L
620 3970 L
620 4151 L
620 4165 L
620 4249 L
620 4176 L
620 4040 L
620 3878 L
620 3183 L
620 3052 L
620 4219 L
620 4151 L
620 3825 L
620 3433 L
620 3721 L
620 4073 L
620 3984 L
620 3990 L
620 3872 L
620 4056 L
620 3816 L
620 4087 L
620 3551 L
620 2982 L
620 3551 L
620 3646 L
620 4040 L
620 3629 L
620 3529 L
620 4046 L
620 4651 L
620 3398 L
620 3688 L
620 3811 L
620 3908 L
620 3509 L
620 3239 L
620 3091 L
620 3387 L
620 4307 L
620 4073 L
620 3239 L
620 3498 L
620 3370 L
620 3272 L
620 2929 L
620 3830 L
620 3038 L
620 3258 L
620 3763 L
620 4046 L
620 2853 L
620 3478 L
620 3621 L
620 3146 L
620 2957 L
620 3484 L
620 3353 L
620 2697 L
620 3297 L
620 2965 L
620 3654 L
620 3822 L
620 3035 L
620 2711 L
620 3847 L
620 2661 L
620 3082 L
620 3654 L
620 3395 L
620 3138 L
620 3202 L
620 3141 L
620 3225 L
620 3627 L
620 2979 L
620 2817 L
620 3015 L
620 3238 L
620 3504 L
620 2649 L
620 3230 L
620 2900 L
620 3144 L
620 3051 L
620 3161 L
620 3166 L
620 2535 L
620 3875 L
620 3090 L
620 3188 L
620 3191 L
620 2150 L
620 3244 L
620 2789 L
620 3509 L
620 2940 L
620 3286 L
620 3211 L
620 3375 L
620 3222 L
620 3233 L
620 3286 L
620 2759 L
620 3250 L
620 2616 L
620 2834 L
620 3529 L
620 2867 L
620 3264 L
620 3347 L
620 3386 L
620 2789 L
620 2437 L
620 2770 L
620 2415 L
620 3146 L
620 3161 L
620 2859 L
620 2756 L
620 2700 L
620 2650 L
620 2820 L
620 3105 L
620 2948 L
620 2275 L
620 2909 L
620 3060 L
620 2797 L
620 2136 L
620 2524 L
620 3459 L
620 3093 L
620 2954 L
620 2365 L
620 2315 L
620 2602 L
620 2460 L
620 3052 L
620 2418 L
620 2281 L
620 2937 L
620 2834 L
620 2850 L
620 3510 L
620 2415 L
620 3101 L
620 2820 L
620 2161 L
620 2323 L
620 2783 L
620 2960 L
620 2630 L
620 2641 L
620 2917 L
620 2962 L
620 3545 L
620 3228 L
620 3442 L
620 2510 L
620 2639 L
620 2996 L
620 3057 L
620 2636 L
620 2797 L
620 2502 L
620 3171 L
620 2619 L
620 2747 L
620 3266 L
620 3389 L
620 2795 L
620 2987 L
620 3085 L
620 2982 L
620 2356 L
620 2929 L
620 3214 L
620 2544 L
620 2850 L
620 2789 L
620 2926 L
620 2331 L
620 2915 L
620 3004 L
620 3356 L
620 2602 L
620 2999 L
620 2454 L
620 3038 L
620 2747 L
620 2951 L
620 2892 L
L2 C03 COSGR

%
%================
% Legend - Begin
%================
%
GSN 4240 5180 M
4480 5180 L
LWMC SL  C03 COSGR
GSN 4540 5141 M helvM (1.5 uM) show grestore
%
%================
% Legend - End
%================
%

%
% Main frame
%
L10
GSN 
620 1700 M
4220 1700 L
4220 5300 L
620 5300 L
closepath SGR

%
% X axis: large tics
%
L10
%
% X axis: small tics
%
L5
%
% Y axis: large tics
%
L10
GSN 620 1939 M 54 0 rL SGR
GSN 4220 1939 M -54 0 rL SGR
helvS (-0.01) 560 1939 ylabel
GSN 620 3402 M 54 0 rL SGR
GSN 4220 3402 M -54 0 rL SGR
helvS (0) 560 3402 ylabel
GSN 620 4866 M 54 0 rL SGR
GSN 4220 4866 M -54 0 rL SGR
helvS (0.01) 560 4866 ylabel
%
% Y axis: small tics
%
L5
GSN 620 1939 M 36 0 rL SGR
GSN 4220 1939 M -36 0 rL SGR
GSN 620 2305 M 36 0 rL SGR
GSN 4220 2305 M -36 0 rL SGR
GSN 620 2671 M 36 0 rL SGR
GSN 4220 2671 M -36 0 rL SGR
GSN 620 3036 M 36 0 rL SGR
GSN 4220 3036 M -36 0 rL SGR
GSN 620 3402 M 36 0 rL SGR
GSN 4220 3402 M -36 0 rL SGR
GSN 620 3768 M 36 0 rL SGR
GSN 4220 3768 M -36 0 rL SGR
GSN 620 4134 M 36 0 rL SGR
GSN 4220 4134 M -36 0 rL SGR
GSN 620 4500 M 36 0 rL SGR
GSN 4220 4500 M -36 0 rL SGR
GSN 620 4866 M 36 0 rL SGR
GSN 4220 4866 M -36 0 rL SGR
GSN 620 5231 M 36 0 rL SGR
GSN 4220 5231 M -36 0 rL SGR

%
% X axis - residual panel
%
GSN L5 620 3402 M 4220 3402 L SDA G50 SGR

%
% X-Axis label:
%
gsave 620 1370 M 
[
[(Helvetica) 180 0 true true 0 (t)]
[(Helvetica) 180 0 true true 0 (i)]
[(Helvetica) 180 0 true true 0 (m)]
[(Helvetica) 180 0 true true 0 (e)]
] 0 MCshow grestore

%
% Y-Axis label:
%
gsave 234 3500 M 
currentpoint gsave translate 90 rotate 0 0 moveto
[
[(Helvetica) 180 0 true true 0 (r)]
[(Helvetica) 180 0 true true 0 (e)]
[(Helvetica) 180 0 true true 0 (s)]
[(Helvetica) 180 0 true true 0 (i)]
[(Helvetica) 180 0 true true 0 (d)]
[(Helvetica) 180 0 true true 0 (u)]
[(Helvetica) 180 0 true true 0 (a)]
[(Helvetica) 180 0 true true 0 (l)]
[(Helvetica) 180 0 true true 0 (s)]
] 0 MCshow grestore

end
showpage
%%Trailer
%%EOF
