%!PS-Adobe-3.0 EPSF-3.0
%%BoundingBox: 0 0 514 550
%%Creator: BioKin Ltd.
%%DocumentFonts: Symbol Helvetica
%%EndComments
%
/bkdict 256 dict def
bkdict begin
/M {moveto} def 
/R {rmoveto} def
/L {lineto} def
/rL {rlineto} def
/GSN {gsave newpath} def
/SGR {stroke grestore} def
/COSGR {gsave setrgbcolor stroke grestore grestore} def
/SL {setlinewidth} def
/LWMB {12} def             % line width - model curves, black & white
/LWMC {10} def             % line width - model curves, color
/L2 {2.5 setlinewidth} def
/L5 {5 setlinewidth} def
/L10 {10 setlinewidth} def
/G50 {0.5 setgray} def
/SDA {[10  20] 0 setdash} def % axes
/helvT {/Helvetica findfont 100 scalefont setfont} def % tiny
/helvS {/Helvetica findfont 125 scalefont setfont} def % small
/helvM {/Helvetica findfont 150 scalefont setfont} def % medium
/helvL {/Helvetica findfont 175 scalefont setfont} def % large
/xlabel {gsave M dup
   stringwidth exch -0.5 mul exch rmoveto show grestore} def 
/ylabel {gsave M 90 rotate dup
   stringwidth exch -0.5 mul exch rmoveto show grestore} def
/ylabelresid {gsave M dup
   stringwidth exch -1 mul exch rmoveto show grestore} def
% ======
% Shapes
% ======
% Circle:
/Circ {0 360 arc closepath} def
%
% Square:
/Squa {dup dup -0.5 mul dup dup R -2 mul 0 exch rL 1 mul 0 rL dup 0 exch -1 mul rL closepath} def
%
% Triangle Up:
/TriU {dup dup dup -0.4 mul exch -0.5 mul exch R dup 0.5 mul exch rL dup -1 mul exch 0.5 mul exch rL closepath} def 
%
% Triangle Down:
/TriD {dup dup dup 0.4 mul exch -0.5 mul exch R dup 0.5 mul exch -1 mul rL dup 0.5 mul exch rL closepath} def 
%
% Diamond:
/Diam {45 rotate Squa} def
% ======
% Fills
% ======
/GRF {gsave setgray fill grestore} def                    % gray-level Fill
/COF {gsave setrgbcolor fill grestore} def                % color fill
% ======
% Colors
% ======
/C01 {1.00	0.00	0.00} def      % Red
/C02 {0.00	0.00	1.00} def      % Blue
/C03 {0.00	0.39	0.00} def      % Dark Green
/C04 {0.78	0.08	0.52} def      % Medium Violet Red
/C05 {0.55	0.27	0.07} def      % Saddle Brown
/C06 {0.10	0.70	0.70} def      % (cyan)
/C07 {1.00	0.55	0.00} def      % Dark Orange
/C08 {0.63	0.13	0.94} def      % Purple
/C09 {0.00	0.75	1.00} def      % Deep Sky Blue
/C10 {0.20	0.80	0.20} def      % Lime Green
/C11 {0.47	0.53	0.60} def      % Light Slate Gray
/C12 {0.00	0.00	0.00} def      % Black            % or: {0.19	0.31	0.31} def      % Dark Slate Gray
%
/LGR {0.75} def % light gray
/DGR {0.33} def % dark gray
%
% =============
% Dash patterns
% =============
/dash01 { [80  20] 0 setdash } def
/dash02 { [40  20] 0 setdash } def
/dash03 { [80  20  10  20] 0 setdash } def
/dash04 { [40  20  10  20] 0 setdash } def
/dash05 { [80  20  10  10  10  20] 0 setdash } def
/dash06 { [40  20  10  10  10  20] 0 setdash } def
/dash07 { [10  10] 0 setdash } def
%
/MFshow {
   { dup 5 get 3 ge
     { 5 get 3 eq {gsave} {grestore} ifelse }
     {dup dup 0 get findfont exch 1 get scalefont setfont
     [ currentpoint ] exch dup 2 get 0 exch R dup 5 get 2 ne {dup dup 6
     get exch 4 get {show} {stringwidth pop 0 R} ifelse }if dup 5 get 0 eq
     {dup 3 get {2 get neg 0 exch R pop} {pop aload pop M} ifelse} {dup 5
     get 1 eq {dup 2 get exch dup 3 get exch 6 get stringwidth pop -2 div
     dup 0 R} {dup 6 get stringwidth pop -2 div 0 R 6 get
     show 2 index {aload pop M neg 3 -1 roll neg R pop pop} {pop pop pop
     pop aload pop M} ifelse }ifelse }ifelse }
     ifelse }
   forall} bind def
/MFwidth {0 exch {dup 3 get{dup dup 0 get findfont exch 1 get scalefont
     setfont 6 get stringwidth pop add} {pop} ifelse} forall} bind def
/MCshow { currentpoint stroke M
  exch dup MFwidth -2 div 3 -1 roll R MFshow } def
%
end
%%EndProlog
bkdict begin
0.1 0.1 scale
%
% Residuals:
%
GSN 620 2136 M
620 4674 L
620 4761 L
620 4446 L
620 4311 L
620 4396 L
620 4769 L
620 4594 L
620 4666 L
620 4660 L
620 4798 L
620 4719 L
620 4859 L
620 4610 L
620 4522 L
620 4601 L
620 4740 L
620 4580 L
620 4694 L
620 4844 L
620 4863 L
620 4727 L
620 4600 L
620 4682 L
620 4747 L
620 4658 L
620 4744 L
620 4681 L
620 4489 L
620 4817 L
620 4711 L
620 4748 L
620 4791 L
620 4579 L
620 4445 L
620 4693 L
620 4619 L
620 4433 L
620 4701 L
620 4614 L
620 4557 L
620 4639 L
620 4676 L
620 4655 L
620 4524 L
620 4442 L
620 4542 L
620 4761 L
620 4633 L
620 4683 L
620 4581 L
620 4666 L
620 4485 L
620 4580 L
620 4660 L
620 4501 L
620 4462 L
620 4514 L
620 4551 L
620 4574 L
620 4686 L
620 4485 L
620 4488 L
620 4285 L
620 4584 L
620 4450 L
620 4501 L
620 4417 L
620 4509 L
620 4501 L
620 4511 L
620 4291 L
620 4517 L
620 4535 L
620 4649 L
620 4476 L
620 4472 L
620 4426 L
620 4268 L
620 4340 L
620 4479 L
620 4485 L
620 4612 L
620 4581 L
620 4380 L
620 4404 L
620 4453 L
620 4446 L
620 4367 L
620 4506 L
620 4337 L
620 4243 L
620 4322 L
620 4278 L
620 4335 L
620 4341 L
620 4527 L
620 4373 L
620 4272 L
620 4449 L
620 4199 L
620 4292 L
620 4320 L
620 4404 L
620 4363 L
620 4229 L
620 4252 L
620 4269 L
620 4356 L
620 4493 L
620 4381 L
620 4286 L
620 4102 L
620 4281 L
620 4266 L
620 4245 L
620 4196 L
620 4666 L
620 4325 L
620 4390 L
620 4161 L
620 4396 L
620 4249 L
620 4232 L
620 4407 L
620 4387 L
620 4342 L
620 4197 L
620 4314 L
620 4400 L
620 4253 L
620 4102 L
620 4114 L
620 4186 L
620 4272 L
620 4269 L
620 4377 L
620 4242 L
620 4256 L
620 4214 L
620 4206 L
620 4174 L
620 4158 L
620 4193 L
620 4012 L
620 4278 L
620 4358 L
620 4138 L
620 4262 L
620 4059 L
620 4199 L
620 4265 L
620 4039 L
620 4226 L
620 4053 L
620 4009 L
620 4157 L
620 4184 L
620 4229 L
620 4180 L
620 4223 L
620 4038 L
620 4202 L
620 4097 L
620 3961 L
620 3986 L
620 4256 L
620 4094 L
620 4196 L
620 4299 L
620 4262 L
620 4014 L
620 4318 L
620 4166 L
620 4117 L
620 4253 L
620 4092 L
620 3957 L
620 4006 L
620 4062 L
620 3956 L
620 3971 L
620 3887 L
620 4229 L
620 4127 L
620 4237 L
620 4132 L
620 4061 L
620 4095 L
620 4168 L
620 3809 L
620 3970 L
620 4130 L
620 4006 L
620 4125 L
620 4243 L
620 4045 L
620 4017 L
620 4076 L
620 3981 L
620 4063 L
620 4106 L
620 4099 L
620 3954 L
620 4131 L
620 4164 L
620 3869 L
620 4017 L
620 4078 L
620 4114 L
620 3935 L
620 4147 L
620 4017 L
620 4000 L
620 4125 L
620 4131 L
620 3817 L
620 3899 L
620 4178 L
620 4129 L
620 4093 L
620 3863 L
620 3966 L
620 4003 L
620 4049 L
620 3943 L
620 4106 L
620 4134 L
620 3861 L
620 3828 L
620 3917 L
620 3889 L
620 3809 L
620 4004 L
620 3943 L
620 3950 L
620 3899 L
620 4003 L
620 3944 L
620 3924 L
620 4065 L
620 4055 L
620 3777 L
620 3787 L
620 3797 L
620 3974 L
620 3960 L
620 4059 L
620 3875 L
620 4003 L
620 3934 L
620 3965 L
620 4129 L
620 3615 L
620 3873 L
620 4043 L
620 3928 L
620 3702 L
620 3790 L
620 3964 L
620 3898 L
620 3776 L
620 3991 L
620 3836 L
620 3852 L
620 3879 L
620 3951 L
620 3833 L
620 4006 L
620 4030 L
620 3889 L
620 3906 L
620 3896 L
620 3830 L
620 3823 L
620 3905 L
620 3924 L
620 3873 L
620 3789 L
620 3965 L
620 3810 L
620 3794 L
620 3666 L
620 3904 L
620 3909 L
620 3970 L
620 3682 L
620 3830 L
620 4086 L
620 3827 L
620 3902 L
620 3619 L
620 3593 L
620 3626 L
620 3814 L
620 3757 L
620 3780 L
620 3797 L
620 3940 L
620 3731 L
620 3737 L
620 3757 L
620 3888 L
620 3606 L
620 3771 L
620 4004 L
620 3809 L
620 3626 L
620 3817 L
620 3862 L
620 3665 L
620 3742 L
620 3683 L
620 3750 L
620 3661 L
620 3935 L
620 3810 L
620 3587 L
620 3699 L
620 3734 L
620 3669 L
620 3604 L
620 3704 L
620 3645 L
620 3660 L
620 3860 L
620 3873 L
620 3732 L
620 3591 L
620 3787 L
620 3554 L
620 3665 L
620 3883 L
620 3591 L
620 3916 L
620 3725 L
620 3939 L
620 3924 L
620 3622 L
620 3689 L
620 3521 L
620 3693 L
620 3750 L
620 3962 L
620 3492 L
620 3718 L
620 3656 L
620 3614 L
620 3635 L
620 3537 L
620 3735 L
620 3459 L
620 3902 L
620 3586 L
620 3731 L
620 3609 L
620 3662 L
620 3780 L
620 3942 L
620 3613 L
620 3586 L
620 3934 L
620 3624 L
620 3673 L
620 3699 L
620 3761 L
620 3666 L
620 3678 L
620 3656 L
620 3709 L
620 3463 L
620 3694 L
620 3673 L
620 3515 L
620 3683 L
620 3443 L
620 3491 L
620 3738 L
620 3590 L
620 3614 L
620 3750 L
620 3547 L
620 3648 L
620 3554 L
620 3737 L
620 3463 L
620 3548 L
620 3754 L
620 3436 L
620 3714 L
620 3463 L
620 3521 L
620 3640 L
620 3593 L
620 3778 L
620 3573 L
620 3585 L
620 3511 L
620 3446 L
620 3673 L
620 3752 L
620 3483 L
620 3577 L
620 3558 L
620 3534 L
620 3383 L
620 3485 L
620 3774 L
620 3470 L
620 3531 L
620 3355 L
620 3574 L
620 3486 L
620 3443 L
620 3361 L
620 3478 L
620 3562 L
620 3610 L
620 3381 L
620 3432 L
620 3455 L
620 3278 L
620 3466 L
620 3534 L
620 3276 L
620 3404 L
620 3567 L
620 3285 L
620 3269 L
620 3439 L
620 3470 L
620 3219 L
620 3223 L
620 3515 L
620 3245 L
620 3403 L
620 3273 L
620 3306 L
620 3398 L
620 3134 L
620 3221 L
620 3479 L
620 3181 L
620 3309 L
620 3280 L
620 3161 L
620 3394 L
620 3211 L
620 3165 L
620 3137 L
620 3086 L
620 3275 L
620 3136 L
620 2991 L
620 3270 L
620 3177 L
620 3082 L
620 2934 L
620 3385 L
620 3335 L
620 3205 L
620 3305 L
620 3279 L
620 3030 L
620 3230 L
620 3231 L
620 3106 L
620 3286 L
620 3108 L
620 3307 L
620 2935 L
620 3225 L
620 3224 L
620 2984 L
620 2948 L
620 3013 L
620 3146 L
620 3142 L
620 3073 L
620 3329 L
620 3218 L
620 3188 L
620 3044 L
620 3119 L
620 3092 L
620 3126 L
620 3129 L
620 3175 L
620 3051 L
620 3169 L
620 2877 L
620 3000 L
620 3248 L
620 2908 L
620 3122 L
620 3241 L
620 3091 L
620 3097 L
620 2956 L
620 2836 L
620 3166 L
620 2999 L
620 3037 L
620 2917 L
620 3083 L
620 3070 L
620 2952 L
620 2994 L
620 3018 L
620 3086 L
620 3077 L
620 2950 L
620 3007 L
620 2823 L
620 2974 L
620 3006 L
620 2926 L
620 2926 L
620 3004 L
620 2965 L
620 3041 L
620 2879 L
620 2877 L
620 2959 L
620 2866 L
620 2887 L
620 3022 L
620 2847 L
620 3215 L
620 2782 L
620 2716 L
620 3156 L
620 2729 L
620 2919 L
620 2983 L
620 2863 L
620 2942 L
620 2962 L
620 3085 L
620 2890 L
620 2792 L
620 2860 L
620 3021 L
620 2983 L
620 2896 L
620 2982 L
620 2779 L
620 2838 L
620 2954 L
620 2874 L
620 2970 L
620 2882 L
620 3009 L
620 2897 L
620 2710 L
620 2992 L
620 2760 L
620 2753 L
620 3071 L
620 2625 L
620 2923 L
620 2874 L
620 2694 L
620 2877 L
620 2857 L
620 2775 L
620 2777 L
620 2854 L
620 2888 L
620 2642 L
620 2765 L
620 2708 L
620 2890 L
620 2999 L
620 2911 L
620 2960 L
620 2728 L
620 2642 L
620 2858 L
620 2810 L
620 2661 L
620 2718 L
620 2675 L
620 2835 L
620 2605 L
620 2863 L
620 2980 L
620 2902 L
620 2751 L
620 2813 L
620 2551 L
620 2736 L
620 2701 L
620 2816 L
620 2787 L
620 2906 L
620 2754 L
620 2687 L
620 2856 L
620 2833 L
620 2648 L
620 2816 L
620 2784 L
620 2942 L
620 2738 L
620 2668 L
620 2656 L
620 2640 L
620 2760 L
620 2820 L
620 2732 L
620 2778 L
620 2728 L
620 2722 L
620 2807 L
620 2941 L
620 2839 L
620 2564 L
620 2879 L
620 2810 L
620 2757 L
620 2916 L
620 2619 L
620 2807 L
620 2790 L
620 2988 L
620 2859 L
620 2716 L
620 2599 L
620 2755 L
620 2947 L
620 2633 L
620 2724 L
620 2758 L
620 2639 L
620 2554 L
620 2834 L
620 2574 L
620 2532 L
620 2844 L
620 2774 L
620 2655 L
620 2739 L
620 2755 L
620 2752 L
620 2565 L
620 2932 L
620 2702 L
620 2664 L
620 2633 L
620 2798 L
620 2739 L
620 2662 L
620 2804 L
620 2617 L
620 2720 L
620 2733 L
620 2751 L
620 2768 L
620 2827 L
620 2624 L
620 2662 L
620 2755 L
620 2690 L
620 2496 L
620 2401 L
620 2830 L
620 2705 L
620 2682 L
620 2669 L
620 2814 L
620 2597 L
620 2850 L
620 2584 L
620 2733 L
620 2601 L
620 2597 L
620 2595 L
620 2602 L
620 2746 L
620 2654 L
620 2554 L
620 2712 L
620 2738 L
620 2647 L
620 2806 L
620 2657 L
620 2608 L
620 2851 L
620 2587 L
620 2884 L
620 2745 L
620 2648 L
620 2725 L
620 2615 L
620 2683 L
620 2786 L
620 2653 L
620 2697 L
620 2664 L
620 2688 L
620 2671 L
620 2609 L
620 2651 L
620 2739 L
620 2517 L
620 2628 L
620 2550 L
620 2440 L
620 2734 L
620 2549 L
620 2747 L
620 2763 L
620 2570 L
620 2644 L
620 2523 L
620 2798 L
620 2542 L
620 2832 L
620 2718 L
620 2668 L
620 2652 L
620 2765 L
620 2693 L
620 2772 L
620 2703 L
620 2703 L
620 2626 L
620 2516 L
620 2613 L
620 2789 L
620 2739 L
620 2633 L
620 2572 L
620 2714 L
620 2628 L
620 2698 L
620 2787 L
620 2764 L
620 2677 L
620 2806 L
620 2648 L
620 2721 L
620 2718 L
620 2771 L
620 2685 L
620 2750 L
620 2643 L
620 2743 L
620 2554 L
620 2641 L
620 2556 L
620 2862 L
620 2895 L
620 2835 L
620 2639 L
620 2789 L
620 2730 L
620 2758 L
620 2622 L
620 2574 L
620 2655 L
620 2600 L
620 2842 L
620 2613 L
620 2490 L
620 2834 L
620 2869 L
620 2727 L
620 2686 L
620 2576 L
620 2610 L
620 2474 L
620 2656 L
620 2423 L
620 2604 L
620 2701 L
620 2570 L
620 2808 L
620 2633 L
620 2563 L
620 2333 L
620 2745 L
620 2725 L
620 2548 L
620 2524 L
620 2734 L
620 2764 L
620 2587 L
620 2616 L
620 2637 L
620 2623 L
620 2617 L
620 2555 L
620 2780 L
620 2609 L
620 2698 L
620 2616 L
620 2790 L
620 2663 L
620 2656 L
620 2581 L
620 2698 L
620 2688 L
620 2696 L
620 2777 L
620 2608 L
620 2663 L
620 3001 L
620 2771 L
620 2815 L
620 2850 L
620 2710 L
620 2571 L
620 2621 L
620 2841 L
620 2831 L
620 2825 L
620 2604 L
620 2749 L
620 2634 L
620 2685 L
620 2683 L
620 2791 L
620 2740 L
620 2785 L
620 2650 L
620 2748 L
620 2651 L
620 2794 L
620 2960 L
620 2707 L
620 2667 L
620 2680 L
620 2801 L
620 2674 L
620 2748 L
620 2768 L
620 2437 L
620 2664 L
620 2714 L
620 2643 L
620 2763 L
620 2720 L
620 2766 L
620 2653 L
620 2802 L
620 2704 L
620 2770 L
620 2697 L
620 2883 L
620 2717 L
620 2740 L
620 2681 L
620 2697 L
620 2605 L
620 2591 L
620 2767 L
620 2983 L
620 2667 L
620 2640 L
620 2519 L
620 2684 L
620 2848 L
620 2878 L
620 2776 L
620 2824 L
620 2714 L
620 2723 L
620 2757 L
620 2789 L
620 2579 L
620 2802 L
620 2800 L
620 2845 L
620 2727 L
620 2792 L
620 2799 L
620 2844 L
620 2868 L
620 2582 L
620 2766 L
620 2691 L
620 2853 L
620 2738 L
620 2794 L
620 2655 L
620 2394 L
620 2593 L
620 2777 L
620 2815 L
620 2723 L
620 2884 L
620 2891 L
620 2708 L
620 2694 L
620 2689 L
620 3104 L
620 2702 L
620 2807 L
620 2626 L
620 2743 L
620 2560 L
620 2859 L
620 2561 L
620 2797 L
620 2609 L
620 2741 L
620 2904 L
620 2705 L
620 2778 L
620 2819 L
620 2743 L
620 2727 L
620 2547 L
620 2743 L
620 2870 L
620 2845 L
620 2829 L
620 2684 L
620 2544 L
620 2609 L
620 2554 L
620 2642 L
620 3118 L
620 2796 L
620 2752 L
620 2701 L
620 2780 L
620 3003 L
620 2671 L
620 2901 L
620 2589 L
620 2760 L
620 2586 L
620 2729 L
620 2659 L
620 2735 L
620 2803 L
620 2732 L
620 2603 L
620 2863 L
620 2650 L
620 2872 L
620 2811 L
620 3043 L
620 2435 L
620 2715 L
620 2783 L
620 2820 L
620 2860 L
620 2538 L
620 2837 L
620 2918 L
620 2856 L
620 2594 L
620 2554 L
620 2656 L
620 2698 L
620 2791 L
620 2974 L
620 2902 L
620 2915 L
620 2772 L
620 2541 L
620 2613 L
620 2600 L
620 2663 L
620 2692 L
620 2696 L
620 2800 L
620 2666 L
620 2804 L
620 2716 L
620 2749 L
620 2953 L
620 2657 L
620 2653 L
620 2739 L
620 2738 L
620 2807 L
620 2666 L
620 2689 L
620 2899 L
620 2627 L
620 2857 L
620 2694 L
620 2935 L
620 2854 L
620 2959 L
620 2878 L
620 2647 L
620 2591 L
620 2772 L
620 2819 L
620 2949 L
620 2750 L
620 2801 L
620 2699 L
620 2704 L
620 2862 L
620 2759 L
620 2614 L
620 2546 L
620 2622 L
620 2954 L
620 2674 L
620 2855 L
620 2796 L
620 2881 L
620 2533 L
620 2727 L
620 2573 L
620 2887 L
620 2906 L
620 2658 L
620 2750 L
620 2700 L
620 2893 L
620 2718 L
620 2835 L
620 2831 L
620 2663 L
620 2801 L
620 2729 L
620 2754 L
620 2969 L
620 2703 L
620 2596 L
620 2848 L
620 2767 L
620 2839 L
620 2776 L
620 2711 L
620 2887 L
620 2721 L
620 2982 L
620 2694 L
620 2864 L
620 2774 L
620 2805 L
620 2924 L
620 2869 L
620 2897 L
620 2851 L
620 2730 L
620 2843 L
620 2648 L
620 2756 L
620 2790 L
620 2773 L
620 2669 L
620 2920 L
620 2656 L
620 2819 L
620 2802 L
620 2806 L
620 3000 L
620 2754 L
620 2707 L
620 2941 L
620 2735 L
620 2734 L
620 2833 L
620 2881 L
620 2876 L
620 3039 L
620 2837 L
620 2931 L
620 2743 L
620 2822 L
620 2678 L
620 2891 L
620 2755 L
620 2758 L
620 2911 L
620 2778 L
620 2939 L
620 2788 L
620 2942 L
620 2737 L
620 2952 L
620 2738 L
620 2754 L
620 2822 L
620 2803 L
620 2734 L
620 2946 L
620 2826 L
620 2883 L
620 2701 L
620 2811 L
620 2775 L
620 2876 L
620 2685 L
620 2776 L
620 2900 L
620 2784 L
620 2810 L
620 2909 L
620 2760 L
620 2818 L
620 3011 L
620 2793 L
620 2840 L
620 2954 L
620 2918 L
620 2948 L
620 2790 L
620 2787 L
620 2840 L
620 2746 L
620 2834 L
620 2805 L
620 2769 L
620 2772 L
620 2912 L
620 2745 L
620 2759 L
620 2933 L
620 2777 L
620 2941 L
620 2953 L
620 2912 L
620 2746 L
620 2920 L
620 2800 L
620 2787 L
620 3021 L
620 2804 L
620 3093 L
620 3100 L
620 2638 L
620 2884 L
620 2887 L
620 2818 L
620 2808 L
620 2811 L
620 2840 L
620 2827 L
620 2939 L
620 2946 L
620 2871 L
620 2766 L
620 2717 L
620 2660 L
620 2972 L
620 2940 L
620 2911 L
620 2965 L
620 2798 L
620 2696 L
620 2899 L
620 2687 L
620 3041 L
620 2822 L
620 2970 L
620 2781 L
620 2827 L
620 2852 L
620 2838 L
620 2880 L
620 2864 L
620 2703 L
620 2852 L
620 2791 L
620 2966 L
620 2848 L
620 2995 L
620 2986 L
620 2923 L
620 2806 L
620 2733 L
620 2844 L
620 2878 L
620 2973 L
620 3009 L
620 2757 L
620 2848 L
620 2877 L
620 2859 L
620 2890 L
620 2806 L
620 2962 L
620 3043 L
620 3013 L
620 2950 L
620 2849 L
620 2805 L
620 2976 L
620 2763 L
620 2865 L
620 2799 L
620 2931 L
620 2877 L
620 2575 L
620 2934 L
620 2934 L
620 2879 L
620 2714 L
620 2947 L
620 2927 L
620 2855 L
620 2941 L
620 2809 L
620 2714 L
620 2858 L
620 2825 L
620 2770 L
620 2879 L
620 3022 L
620 2863 L
620 2964 L
620 2885 L
620 2835 L
620 3042 L
620 2914 L
620 2927 L
620 2779 L
620 2812 L
620 2893 L
620 2853 L
620 3042 L
620 3014 L
620 2984 L
620 2546 L
620 2974 L
620 2963 L
620 2958 L
620 3052 L
620 2876 L
620 2898 L
620 2814 L
620 3023 L
620 2915 L
620 3056 L
620 2922 L
620 2899 L
620 3107 L
620 2926 L
620 2912 L
620 2957 L
620 3016 L
620 2813 L
620 2830 L
620 2752 L
620 2913 L
620 2915 L
620 2728 L
620 2903 L
620 2936 L
620 2987 L
620 3014 L
620 3050 L
620 2652 L
620 2978 L
620 2972 L
620 2816 L
620 3024 L
620 2862 L
620 3073 L
620 2672 L
620 2942 L
620 2876 L
620 3061 L
620 2861 L
620 2910 L
620 2945 L
620 2976 L
620 2943 L
620 2869 L
620 2954 L
620 3117 L
620 3139 L
620 2900 L
620 2936 L
620 2794 L
620 2894 L
620 2894 L
620 2800 L
620 2987 L
620 3020 L
620 3086 L
620 3116 L
620 2663 L
620 2910 L
620 3139 L
620 2785 L
620 2854 L
620 2831 L
620 2945 L
620 2874 L
620 2874 L
620 2845 L
620 2983 L
620 2914 L
620 2756 L
620 2956 L
620 2657 L
620 2739 L
620 2937 L
620 2874 L
620 2963 L
620 2779 L
620 2811 L
620 2799 L
620 3051 L
620 2874 L
620 2950 L
620 3080 L
620 2873 L
620 2940 L
620 2801 L
620 3018 L
620 3048 L
620 3011 L
620 2746 L
620 2798 L
620 2842 L
620 2920 L
620 2918 L
620 2829 L
620 2933 L
620 2824 L
620 2877 L
620 2837 L
620 2982 L
620 3052 L
620 2947 L
620 2892 L
620 2920 L
620 2940 L
620 3115 L
620 2871 L
620 2984 L
620 2881 L
620 2872 L
620 2985 L
620 2796 L
620 3102 L
620 2864 L
620 3179 L
620 3110 L
620 2854 L
620 2963 L
620 2823 L
620 2958 L
620 2866 L
620 3115 L
620 2964 L
620 2636 L
620 3074 L
620 2996 L
620 2734 L
620 2967 L
620 2759 L
620 2953 L
620 3086 L
620 2961 L
620 2931 L
620 2933 L
620 2966 L
620 2983 L
620 3007 L
620 2953 L
620 3037 L
620 2989 L
620 2909 L
620 2997 L
620 2892 L
620 2914 L
620 2983 L
620 2803 L
620 2871 L
620 3024 L
620 2952 L
620 2747 L
620 2812 L
620 2835 L
620 3105 L
620 3030 L
620 2892 L
620 2630 L
620 2970 L
620 3034 L
620 2840 L
620 2984 L
620 2684 L
620 2937 L
620 2876 L
620 2991 L
620 3156 L
620 2915 L
620 2968 L
620 3090 L
620 2918 L
620 3020 L
620 2758 L
620 3181 L
620 2823 L
620 2842 L
620 2976 L
620 2928 L
620 3068 L
620 2947 L
620 3042 L
620 2839 L
620 3260 L
620 2900 L
620 3062 L
620 2985 L
620 2974 L
620 3146 L
620 2764 L
620 3147 L
620 3293 L
620 3082 L
620 2721 L
620 2961 L
620 3016 L
620 3073 L
620 3086 L
620 3092 L
620 3316 L
620 2996 L
620 2961 L
620 3037 L
620 2922 L
620 2839 L
620 3096 L
620 2948 L
620 3165 L
620 2766 L
620 3362 L
620 3193 L
620 2865 L
620 2970 L
620 3157 L
620 3205 L
620 3011 L
620 3078 L
620 2942 L
620 3066 L
620 3271 L
620 3171 L
620 2956 L
620 3111 L
620 3084 L
620 3189 L
620 3013 L
620 3143 L
620 3189 L
620 3100 L
620 3050 L
620 3209 L
620 3011 L
620 3030 L
620 3162 L
620 3093 L
620 3173 L
620 3202 L
620 3198 L
620 3196 L
620 3123 L
620 3073 L
620 3185 L
620 3131 L
620 3070 L
620 3101 L
620 3085 L
620 3150 L
620 3180 L
620 3032 L
620 3233 L
620 3157 L
620 3292 L
620 3284 L
620 3047 L
620 3115 L
620 3134 L
620 3165 L
620 3015 L
620 3155 L
620 2951 L
620 3321 L
620 3116 L
620 3219 L
620 3205 L
620 3222 L
620 3226 L
620 3158 L
620 3122 L
620 3421 L
620 3024 L
620 2964 L
620 3269 L
620 3098 L
620 3094 L
620 3141 L
620 3289 L
620 3231 L
620 3141 L
620 3094 L
620 3083 L
620 3194 L
620 3057 L
620 3207 L
620 3034 L
620 3087 L
620 3187 L
620 3259 L
620 3171 L
620 3236 L
620 3310 L
620 3095 L
620 3105 L
620 3095 L
620 3137 L
620 3162 L
620 3133 L
620 3086 L
620 3117 L
620 2925 L
620 2831 L
620 3287 L
620 3283 L
620 3029 L
620 3365 L
620 2993 L
620 3257 L
620 2908 L
620 3373 L
620 3074 L
620 3210 L
620 3283 L
620 3183 L
620 2981 L
620 3088 L
620 3207 L
620 3237 L
620 3078 L
620 3160 L
620 3258 L
620 3146 L
620 3190 L
620 3192 L
620 3004 L
620 3065 L
620 3134 L
620 2802 L
620 3252 L
620 2945 L
620 2916 L
620 3081 L
620 3138 L
620 2952 L
620 2923 L
620 3015 L
620 3206 L
620 3083 L
620 2987 L
620 3050 L
620 3088 L
620 2904 L
620 3199 L
620 3216 L
620 3112 L
620 3221 L
620 3194 L
620 3290 L
620 3267 L
620 2996 L
620 3115 L
620 3049 L
620 3018 L
620 3200 L
620 3315 L
620 2945 L
620 3004 L
620 3092 L
620 3013 L
620 3277 L
620 2758 L
620 3124 L
620 3085 L
620 2820 L
620 3205 L
620 3280 L
620 3372 L
620 3329 L
620 3162 L
620 3392 L
620 3110 L
620 3161 L
620 3140 L
620 2954 L
620 3019 L
620 3005 L
620 3293 L
620 2940 L
620 2913 L
620 3068 L
620 3169 L
620 3000 L
620 3132 L
620 3078 L
620 2925 L
620 2840 L
620 3164 L
620 2978 L
620 3221 L
620 2874 L
620 3170 L
620 3274 L
620 3055 L
620 2901 L
620 3062 L
620 2991 L
620 3123 L
620 3159 L
620 2996 L
620 3055 L
620 2955 L
620 3333 L
620 3058 L
620 3104 L
620 3089 L
620 3263 L
620 2941 L
620 3080 L
620 3005 L
620 3139 L
620 3003 L
620 3026 L
620 2893 L
620 3129 L
620 3008 L
620 3069 L
620 3109 L
620 3061 L
620 3139 L
620 3051 L
620 3089 L
620 3077 L
620 3123 L
620 3297 L
620 3059 L
620 2996 L
620 3225 L
620 3072 L
620 3160 L
620 3177 L
620 2969 L
620 3144 L
620 2925 L
620 3264 L
620 2884 L
620 2938 L
620 2878 L
620 3165 L
620 2952 L
620 3207 L
620 3115 L
620 2708 L
620 3034 L
620 3156 L
620 2961 L
620 3217 L
620 3041 L
620 3150 L
620 3069 L
620 2999 L
620 2696 L
620 3153 L
620 2911 L
620 3252 L
620 3058 L
620 3121 L
620 3203 L
620 2724 L
620 2938 L
620 2924 L
620 3020 L
620 3181 L
620 3000 L
620 2839 L
620 3150 L
620 2971 L
620 2881 L
620 2953 L
620 2805 L
620 3045 L
620 3127 L
620 3163 L
620 3029 L
620 3188 L
620 3174 L
620 2905 L
620 3139 L
620 2947 L
620 2995 L
620 3167 L
620 2851 L
620 2936 L
620 3065 L
620 3218 L
620 2949 L
620 2893 L
620 2878 L
620 2987 L
620 3050 L
620 3059 L
620 2885 L
620 3020 L
620 3089 L
620 3047 L
620 3162 L
620 3127 L
620 3096 L
620 2755 L
620 3069 L
620 2900 L
620 3310 L
620 3085 L
620 3049 L
620 3085 L
620 3023 L
620 2831 L
620 3069 L
620 3128 L
620 3074 L
620 3074 L
620 2876 L
620 2899 L
620 3020 L
620 2898 L
620 3004 L
620 2881 L
620 2936 L
620 3005 L
620 2962 L
620 3001 L
620 3022 L
620 3017 L
620 2946 L
620 3078 L
620 3122 L
620 3024 L
620 3085 L
620 3121 L
620 3083 L
620 2954 L
620 3069 L
620 2994 L
620 2904 L
620 2942 L
620 3145 L
L2 C02 COSGR

%
%================
% Legend - Begin
%================
%
GSN 4240 5180 M
4480 5180 L
LWMC SL  C02 COSGR
GSN 4540 5141 M helvM (1.0 uM) show grestore
%
%================
% Legend - End
%================
%

%
% Main frame
%
L10
GSN 
620 1700 M
4220 1700 L
4220 5300 L
620 5300 L
closepath SGR

%
% X axis: large tics
%
L10
%
% X axis: small tics
%
L5
%
% Y axis: large tics
%
L10
GSN 620 2422 M 54 0 rL SGR
GSN 4220 2422 M -54 0 rL SGR
helvS (-0.02) 560 2422 ylabel
GSN 620 3176 M 54 0 rL SGR
GSN 4220 3176 M -54 0 rL SGR
helvS (0) 560 3176 ylabel
GSN 620 3930 M 54 0 rL SGR
GSN 4220 3930 M -54 0 rL SGR
helvS (0.02) 560 3930 ylabel
GSN 620 4684 M 54 0 rL SGR
GSN 4220 4684 M -54 0 rL SGR
helvS (0.04) 560 4684 ylabel
%
% Y axis: small tics
%
L5
GSN 620 1857 M 36 0 rL SGR
GSN 4220 1857 M -36 0 rL SGR
GSN 620 2045 M 36 0 rL SGR
GSN 4220 2045 M -36 0 rL SGR
GSN 620 2234 M 36 0 rL SGR
GSN 4220 2234 M -36 0 rL SGR
GSN 620 2422 M 36 0 rL SGR
GSN 4220 2422 M -36 0 rL SGR
GSN 620 2611 M 36 0 rL SGR
GSN 4220 2611 M -36 0 rL SGR
GSN 620 2799 M 36 0 rL SGR
GSN 4220 2799 M -36 0 rL SGR
GSN 620 2988 M 36 0 rL SGR
GSN 4220 2988 M -36 0 rL SGR
GSN 620 3176 M 36 0 rL SGR
GSN 4220 3176 M -36 0 rL SGR
GSN 620 3365 M 36 0 rL SGR
GSN 4220 3365 M -36 0 rL SGR
GSN 620 3553 M 36 0 rL SGR
GSN 4220 3553 M -36 0 rL SGR
GSN 620 3741 M 36 0 rL SGR
GSN 4220 3741 M -36 0 rL SGR
GSN 620 3930 M 36 0 rL SGR
GSN 4220 3930 M -36 0 rL SGR
GSN 620 4118 M 36 0 rL SGR
GSN 4220 4118 M -36 0 rL SGR
GSN 620 4307 M 36 0 rL SGR
GSN 4220 4307 M -36 0 rL SGR
GSN 620 4495 M 36 0 rL SGR
GSN 4220 4495 M -36 0 rL SGR
GSN 620 4684 M 36 0 rL SGR
GSN 4220 4684 M -36 0 rL SGR
GSN 620 4872 M 36 0 rL SGR
GSN 4220 4872 M -36 0 rL SGR
GSN 620 5061 M 36 0 rL SGR
GSN 4220 5061 M -36 0 rL SGR
GSN 620 5249 M 36 0 rL SGR
GSN 4220 5249 M -36 0 rL SGR

%
% X axis - residual panel
%
GSN L5 620 3176 M 4220 3176 L SDA G50 SGR

%
% X-Axis label:
%
gsave 620 1370 M 
[
[(Helvetica) 180 0 true true 0 (t)]
[(Helvetica) 180 0 true true 0 (i)]
[(Helvetica) 180 0 true true 0 (m)]
[(Helvetica) 180 0 true true 0 (e)]
] 0 MCshow grestore

%
% Y-Axis label:
%
gsave 234 3499 M 
currentpoint gsave translate 90 rotate 0 0 moveto
[
[(Helvetica) 180 0 true true 0 (r)]
[(Helvetica) 180 0 true true 0 (e)]
[(Helvetica) 180 0 true true 0 (s)]
[(Helvetica) 180 0 true true 0 (i)]
[(Helvetica) 180 0 true true 0 (d)]
[(Helvetica) 180 0 true true 0 (u)]
[(Helvetica) 180 0 true true 0 (a)]
[(Helvetica) 180 0 true true 0 (l)]
[(Helvetica) 180 0 true true 0 (s)]
] 0 MCshow grestore

end
showpage
%%Trailer
%%EOF
