%!PS-Adobe-3.0 EPSF-3.0
%%BoundingBox: 0 0 514 550
%%Creator: BioKin Ltd.
%%DocumentFonts: Symbol Helvetica
%%EndComments
%
/bkdict 256 dict def
bkdict begin
/M {moveto} def 
/R {rmoveto} def
/L {lineto} def
/rL {rlineto} def
/GSN {gsave newpath} def
/SGR {stroke grestore} def
/COSGR {gsave setrgbcolor stroke grestore grestore} def
/SL {setlinewidth} def
/LWMB {12} def             % line width - model curves, black & white
/LWMC {10} def             % line width - model curves, color
/L2 {2.5 setlinewidth} def
/L5 {5 setlinewidth} def
/L10 {10 setlinewidth} def
/G50 {0.5 setgray} def
/SDA {[10  20] 0 setdash} def % axes
/helvT {/Helvetica findfont 100 scalefont setfont} def % tiny
/helvS {/Helvetica findfont 125 scalefont setfont} def % small
/helvM {/Helvetica findfont 150 scalefont setfont} def % medium
/helvL {/Helvetica findfont 175 scalefont setfont} def % large
/xlabel {gsave M dup
   stringwidth exch -0.5 mul exch rmoveto show grestore} def 
/ylabel {gsave M 90 rotate dup
   stringwidth exch -0.5 mul exch rmoveto show grestore} def
/ylabelresid {gsave M dup
   stringwidth exch -1 mul exch rmoveto show grestore} def
% ======
% Shapes
% ======
% Circle:
/Circ {0 360 arc closepath} def
%
% Square:
/Squa {dup dup -0.5 mul dup dup R -2 mul 0 exch rL 1 mul 0 rL dup 0 exch -1 mul rL closepath} def
%
% Triangle Up:
/TriU {dup dup dup -0.4 mul exch -0.5 mul exch R dup 0.5 mul exch rL dup -1 mul exch 0.5 mul exch rL closepath} def 
%
% Triangle Down:
/TriD {dup dup dup 0.4 mul exch -0.5 mul exch R dup 0.5 mul exch -1 mul rL dup 0.5 mul exch rL closepath} def 
%
% Diamond:
/Diam {45 rotate Squa} def
% ======
% Fills
% ======
/GRF {gsave setgray fill grestore} def                    % gray-level Fill
/COF {gsave setrgbcolor fill grestore} def                % color fill
% ======
% Colors
% ======
/C01 {1.00	0.00	0.00} def      % Red
/C02 {0.00	0.00	1.00} def      % Blue
/C03 {0.00	0.39	0.00} def      % Dark Green
/C04 {0.78	0.08	0.52} def      % Medium Violet Red
/C05 {0.55	0.27	0.07} def      % Saddle Brown
/C06 {0.10	0.70	0.70} def      % (cyan)
/C07 {1.00	0.55	0.00} def      % Dark Orange
/C08 {0.63	0.13	0.94} def      % Purple
/C09 {0.00	0.75	1.00} def      % Deep Sky Blue
/C10 {0.20	0.80	0.20} def      % Lime Green
/C11 {0.47	0.53	0.60} def      % Light Slate Gray
/C12 {0.00	0.00	0.00} def      % Black            % or: {0.19	0.31	0.31} def      % Dark Slate Gray
%
/LGR {0.75} def % light gray
/DGR {0.33} def % dark gray
%
% =============
% Dash patterns
% =============
/dash01 { [80  20] 0 setdash } def
/dash02 { [40  20] 0 setdash } def
/dash03 { [80  20  10  20] 0 setdash } def
/dash04 { [40  20  10  20] 0 setdash } def
/dash05 { [80  20  10  10  10  20] 0 setdash } def
/dash06 { [40  20  10  10  10  20] 0 setdash } def
/dash07 { [10  10] 0 setdash } def
%
/MFshow {
   { dup 5 get 3 ge
     { 5 get 3 eq {gsave} {grestore} ifelse }
     {dup dup 0 get findfont exch 1 get scalefont setfont
     [ currentpoint ] exch dup 2 get 0 exch R dup 5 get 2 ne {dup dup 6
     get exch 4 get {show} {stringwidth pop 0 R} ifelse }if dup 5 get 0 eq
     {dup 3 get {2 get neg 0 exch R pop} {pop aload pop M} ifelse} {dup 5
     get 1 eq {dup 2 get exch dup 3 get exch 6 get stringwidth pop -2 div
     dup 0 R} {dup 6 get stringwidth pop -2 div 0 R 6 get
     show 2 index {aload pop M neg 3 -1 roll neg R pop pop} {pop pop pop
     pop aload pop M} ifelse }ifelse }ifelse }
     ifelse }
   forall} bind def
/MFwidth {0 exch {dup 3 get{dup dup 0 get findfont exch 1 get scalefont
     setfont 6 get stringwidth pop add} {pop} ifelse} forall} bind def
/MCshow { currentpoint stroke M
  exch dup MFwidth -2 div 3 -1 roll R MFshow } def
%
end
%%EndProlog
bkdict begin
0.1 0.1 scale
%
% Model curves:
%

GSN 753 4761 M
753 4761 L
786 4761 L
820 4761 L
853 4760 L
886 4760 L
903 4760 L
919 4760 L
953 4759 L
986 4759 L
1020 4759 L
1053 4758 L
1053 4758 L
1086 4757 L
1120 4757 L
1153 4756 L
1186 4755 L
1203 4754 L
1220 4754 L
1253 4752 L
1286 4751 L
1320 4749 L
1353 4747 L
1353 4746 L
1386 4744 L
1420 4741 L
1453 4738 L
1486 4734 L
1503 4731 L
1520 4729 L
1553 4723 L
1586 4717 L
1620 4710 L
1653 4701 L
1653 4701 L
1686 4691 L
1720 4680 L
1753 4666 L
1786 4651 L
1804 4642 L
1820 4633 L
1853 4612 L
1886 4588 L
1920 4560 L
1953 4528 L
1954 4527 L
1986 4492 L
2020 4450 L
2053 4402 L
2086 4347 L
2104 4316 L
2120 4286 L
2153 4216 L
2186 4138 L
2220 4051 L
2253 3954 L
2254 3951 L
2286 3848 L
2320 3732 L
2353 3606 L
2386 3472 L
2404 3398 L
2420 3331 L
2453 3184 L
2486 3033 L
2520 2882 L
2553 2734 L
2554 2728 L
2586 2591 L
2620 2459 L
2653 2341 L
2686 2241 L
2704 2195 L
2720 2162 L
2753 2108 L
2786 2080 L
2820 2078 L
2853 2102 L
2854 2104 L
2886 2149 L
2920 2215 L
2953 2293 L
2986 2379 L
3004 2426 L
3020 2465 L
3053 2545 L
3068 2579 L
3086 2615 L
3120 2673 L
3153 2717 L
3155 2719 L
3186 2748 L
3220 2769 L
3253 2781 L
3286 2788 L
3305 2790 L
3320 2791 L
3353 2792 L
3386 2793 L
3420 2793 L
3453 2793 L
3455 2793 L
3486 2793 L
3520 2793 L
3553 2793 L
3586 2793 L
3605 2793 L
3620 2793 L
3653 2793 L
3686 2793 L
3720 2793 L
3753 2793 L
3755 2793 L
3786 2793 L
3820 2793 L
3853 2793 L
3886 2793 L
3905 2793 L
3920 2793 L
3953 2793 L
3986 2793 L
4020 2793 L
4053 2793 L
4086 2793 L
LWMC SL  C05 COSGR

%
% Experimental data:
%
GSN 773 5166 M
1625 4771 L
1773 4572 L
1860 4787 L
1922 4721 L
1970 4512 L
2009 4459 L
2043 4411 L
2072 4421 L
2097 4358 L
2120 4184 L
2140 4324 L
2159 4077 L
2176 4078 L
2192 4323 L
2207 4065 L
2221 4077 L
2234 3889 L
2247 3910 L
2259 3900 L
2270 3874 L
2280 3749 L
2290 3648 L
2300 3681 L
2309 3871 L
2318 3671 L
2326 3723 L
2335 3625 L
2342 3682 L
2350 3653 L
2357 3648 L
2364 3543 L
2371 3440 L
2378 3329 L
2384 3423 L
2391 3403 L
2397 3306 L
2403 3433 L
2409 3518 L
2414 3422 L
2420 3378 L
2425 3251 L
2430 3378 L
2435 3134 L
2440 3157 L
2445 3210 L
2450 3247 L
2455 3181 L
2459 3180 L
2464 3165 L
2468 3040 L
2472 3051 L
2476 3049 L
2481 2959 L
2485 2761 L
2489 3134 L
2492 2950 L
2496 2974 L
2500 2913 L
2504 3112 L
2507 2921 L
2511 2825 L
2514 3192 L
2518 2778 L
2521 2962 L
2525 2914 L
2528 2800 L
2531 2849 L
2534 2806 L
2538 2962 L
2541 2837 L
2544 2665 L
2547 2911 L
2550 3033 L
2553 2811 L
2556 2776 L
2559 2855 L
2561 2630 L
2564 2746 L
2567 2763 L
2570 2728 L
2580 2560 L
2590 2595 L
2600 2763 L
2609 2454 L
2618 2497 L
2627 2578 L
2635 2514 L
2643 2404 L
2650 2324 L
2658 2319 L
2665 2344 L
2672 2053 L
2678 2291 L
2685 2175 L
2691 2432 L
2697 2155 L
2703 2247 L
2709 1986 L
2714 2098 L
2720 2117 L
2725 2017 L
2730 2182 L
2735 2043 L
2740 2197 L
2745 2210 L
2750 2085 L
2755 1974 L
2759 1976 L
2764 2188 L
2768 2045 L
2772 1999 L
2777 2020 L
2781 2119 L
2785 2011 L
2789 2060 L
2793 1974 L
2796 2108 L
2800 2120 L
2804 2071 L
2808 2094 L
2811 2106 L
2815 1950 L
2818 2243 L
2822 2165 L
2825 1833 L
2828 2123 L
2831 2073 L
2835 2166 L
2838 2050 L
2841 2092 L
2844 1981 L
2847 2111 L
2850 2117 L
2853 2281 L
2856 1927 L
2859 2098 L
2862 2193 L
2864 2215 L
2867 2192 L
2870 2176 L
2873 2001 L
2875 2027 L
2878 2150 L
2880 2083 L
2883 2148 L
2886 2183 L
2888 2155 L
2891 2189 L
2893 2209 L
2895 2066 L
2898 2211 L
2900 2138 L
2902 2070 L
2905 2274 L
2907 2296 L
2909 2098 L
2912 2117 L
2914 2321 L
2916 2277 L
2918 2266 L
2920 2268 L
2922 2096 L
2925 2267 L
2927 2324 L
2929 2289 L
2931 2168 L
2933 2188 L
2935 2197 L
2937 2302 L
2939 2310 L
2941 2309 L
2943 2200 L
2945 2409 L
2947 2348 L
2948 2127 L
2950 2426 L
2952 2206 L
2954 2232 L
2956 2302 L
2958 2272 L
2959 2395 L
2961 2297 L
2963 2395 L
2965 2393 L
2966 2351 L
2968 2312 L
2970 2394 L
2972 2244 L
2973 2347 L
2975 2507 L
2977 2218 L
2978 2524 L
2980 2313 L
2982 2180 L
2983 2346 L
2985 2525 L
2986 2192 L
2988 2278 L
2989 2436 L
2991 2483 L
2993 2331 L
2994 2297 L
2996 2317 L
2997 2548 L
2999 2405 L
3000 2461 L
3002 2512 L
3003 2514 L
3005 2503 L
3006 2625 L
3007 2486 L
3009 2589 L
3010 2502 L
3012 2519 L
3013 2292 L
3014 2409 L
3016 2567 L
3017 2271 L
3019 2438 L
3020 2460 L
3021 2424 L
3023 2599 L
3024 2465 L
3025 2530 L
3027 2505 L
3028 2514 L
3029 2477 L
3031 2502 L
3032 2639 L
3033 2415 L
3034 2500 L
3036 2418 L
3037 2419 L
3038 2539 L
3039 2427 L
3041 2567 L
3042 2505 L
3043 2603 L
3044 2573 L
3045 2698 L
3047 2675 L
3048 2601 L
3049 2622 L
3050 2510 L
3051 2542 L
3053 2430 L
3054 2623 L
3055 2572 L
3056 2474 L
3057 2627 L
3058 2587 L
3059 2656 L
3061 2461 L
3062 2482 L
3063 2823 L
3064 2793 L
3065 2491 L
3066 2633 L
3067 2728 L
3068 2623 L
3069 2612 L
3070 2664 L
3071 2608 L
3073 2796 L
3074 2498 L
3075 2622 L
3076 2648 L
3077 2570 L
3078 2665 L
3079 2680 L
3080 2684 L
3081 2629 L
3082 2736 L
3083 2688 L
3084 2564 L
3085 2578 L
3086 2729 L
3087 2691 L
3088 2711 L
3089 2602 L
3112 2893 L
3133 2702 L
3152 2765 L
3170 2986 L
3186 2839 L
3201 3002 L
3216 3001 L
3229 3093 L
3241 2843 L
3253 3043 L
3264 2998 L
3275 3056 L
3285 2881 L
3295 2939 L
3304 2832 L
3313 2895 L
3322 3137 L
3330 2971 L
3338 3057 L
3346 2917 L
3353 2832 L
3360 2848 L
3367 2767 L
3374 2915 L
3380 2977 L
3387 3052 L
3393 2843 L
3399 2930 L
3405 3231 L
3410 2868 L
3416 2961 L
3421 2878 L
3426 3138 L
3431 2754 L
3436 3039 L
3441 2982 L
3446 3115 L
3451 2935 L
3455 2924 L
3460 2941 L
3464 2893 L
3469 3141 L
3473 3054 L
3477 2878 L
3481 2817 L
3485 2833 L
3489 2903 L
3493 3127 L
3496 2889 L
3500 2930 L
3504 2918 L
3507 3087 L
3511 3014 L
3514 2843 L
3518 3005 L
3521 2889 L
3525 2981 L
3528 2863 L
3531 2974 L
3534 2998 L
3537 2948 L
3540 2875 L
3543 3121 L
3546 2868 L
3549 3097 L
3552 2902 L
3555 2929 L
3558 2991 L
3561 2611 L
3564 2829 L
3566 2912 L
3575 2921 L
3586 3018 L
3595 2994 L
3605 3003 L
3613 2888 L
3622 2762 L
3630 2926 L
3638 2909 L
3646 2980 L
3653 2826 L
3660 2843 L
3667 2710 L
3674 2930 L
3681 2889 L
3687 2790 L
3693 2891 L
3699 2801 L
3705 3020 L
3710 2778 L
3716 3135 L
3721 2933 L
3727 2708 L
3732 2915 L
3737 2821 L
3742 2860 L
3746 3085 L
3751 2725 L
3756 2736 L
3760 2908 L
3764 2842 L
3769 2758 L
3773 2840 L
3777 2918 L
3781 2860 L
3785 2672 L
3789 2814 L
3793 2530 L
3797 2705 L
3800 2850 L
3804 2856 L
3808 2755 L
3811 2630 L
3815 2901 L
3818 2719 L
3821 2539 L
3825 2991 L
3828 2654 L
3831 2636 L
3834 3016 L
3838 2743 L
3841 2648 L
3844 2808 L
3847 2725 L
3850 2677 L
3853 2892 L
3855 2868 L
3858 2765 L
3861 2715 L
3864 2751 L
3867 2628 L
3869 2633 L
3872 2733 L
3875 2672 L
3877 2755 L
3880 2779 L
3882 2631 L
3885 2683 L
3887 2818 L
3890 2508 L
3892 2975 L
3895 2714 L
3897 2903 L
3899 2861 L
3902 2647 L
3904 2727 L
3906 2669 L
3908 2769 L
3911 2750 L
3913 2590 L
3915 2576 L
3917 2851 L
3919 2598 L
3921 2715 L
3923 2782 L
3926 2642 L
3928 2659 L
3930 2682 L
3932 2654 L
3934 2603 L
3936 2601 L
3938 2762 L
3940 2643 L
3942 2709 L
3943 2487 L
3945 2694 L
3947 2690 L
3949 2588 L
3951 2636 L
3953 2654 L
3955 2797 L
3956 2774 L
3958 2679 L
3960 2597 L
3962 2535 L
3963 2718 L
3965 2758 L
3967 2639 L
3969 2590 L
3970 2608 L
3972 2891 L
3974 2768 L
3975 2645 L
3977 2530 L
3978 2509 L
3980 2752 L
3982 2729 L
3983 2729 L
3985 2773 L
3986 2715 L
3988 2626 L
3990 2553 L
3991 2659 L
3993 2546 L
3994 2572 L
3996 2717 L
3997 2800 L
3999 2599 L
4000 2577 L
4001 2621 L
4003 2808 L
4004 2604 L
4006 2588 L
4007 2790 L
4009 2804 L
4010 2658 L
4011 2827 L
4013 2376 L
4014 2402 L
4016 2779 L
4017 2679 L
4018 2466 L
4020 2695 L
4021 2653 L
4022 2869 L
4024 2686 L
4025 2844 L
4026 2502 L
4028 2840 L
4029 2665 L
4030 2693 L
4031 2678 L
4033 2659 L
4034 2576 L
4035 2624 L
4036 2616 L
4038 2623 L
4039 2664 L
4040 2547 L
4041 2390 L
4042 2745 L
4044 2550 L
4045 2494 L
4046 2581 L
4047 2618 L
4048 2698 L
4050 2717 L
4051 2452 L
4052 2704 L
4053 2683 L
4054 2549 L
4055 2686 L
4056 2509 L
4058 2530 L
4059 2736 L
4060 2617 L
4061 2634 L
4062 2469 L
4063 2662 L
4064 2341 L
4065 2556 L
4066 2665 L
L2 C05 COSGR

%
%================
% Legend - Begin
%================
%
GSN 4240 5180 M
4480 5180 L
LWMC SL  C05 COSGR
GSN 4540 5141 M helvM (2.5 uM) show grestore
%
%================
% Legend - End
%================
%

%
% Residuals:
%
GSN 773 1539 M
1625 1223 L
1773 1087 L
1860 1331 L
1922 1316 L
1970 1168 L
2009 1162 L
2043 1160 L
2072 1211 L
2097 1193 L
2120 1072 L
2140 1240 L
2159 1050 L
2176 1088 L
2192 1351 L
2207 1149 L
2221 1195 L
2234 1056 L
2247 1109 L
2259 1132 L
2270 1140 L
2280 1057 L
2290 994 L
2300 1055 L
2309 1260 L
2318 1104 L
2326 1181 L
2335 1119 L
2342 1198 L
2350 1198 L
2357 1220 L
2364 1149 L
2371 1080 L
2378 1003 L
2384 1114 L
2391 1120 L
2397 1054 L
2403 1193 L
2409 1295 L
2414 1228 L
2420 1209 L
2425 1114 L
2430 1252 L
2435 1048 L
2440 1090 L
2445 1158 L
2450 1211 L
2455 1170 L
2459 1188 L
2464 1192 L
2468 1096 L
2472 1124 L
2476 1140 L
2481 1074 L
2485 909 L
2489 1268 L
2492 1115 L
2496 1153 L
2500 1113 L
2504 1311 L
2507 1151 L
2511 1077 L
2514 1430 L
2518 1064 L
2521 1247 L
2525 1217 L
2528 1126 L
2531 1184 L
2534 1157 L
2538 1315 L
2541 1212 L
2544 1066 L
2547 1305 L
2550 1429 L
2553 1237 L
2556 1216 L
2559 1301 L
2561 1105 L
2564 1223 L
2567 1249 L
2570 1228 L
2580 1115 L
2590 1186 L
2600 1376 L
2609 1125 L
2618 1196 L
2627 1300 L
2635 1268 L
2643 1192 L
2650 1143 L
2658 1160 L
2665 1203 L
2672 955 L
2678 1192 L
2685 1102 L
2691 1354 L
2697 1113 L
2703 1211 L
2709 983 L
2714 1097 L
2720 1125 L
2725 1042 L
2730 1203 L
2735 1083 L
2740 1232 L
2745 1251 L
2750 1142 L
2755 1045 L
2759 1052 L
2764 1250 L
2768 1123 L
2772 1084 L
2777 1106 L
2781 1200 L
2785 1102 L
2789 1148 L
2793 1071 L
2796 1195 L
2800 1207 L
2804 1161 L
2808 1183 L
2811 1194 L
2815 1049 L
2818 1318 L
2822 1245 L
2825 938 L
2828 1203 L
2831 1156 L
2835 1239 L
2838 1131 L
2841 1167 L
2844 1063 L
2847 1179 L
2850 1182 L
2853 1331 L
2856 1002 L
2859 1155 L
2862 1240 L
2864 1257 L
2867 1232 L
2870 1214 L
2873 1049 L
2875 1070 L
2878 1179 L
2880 1114 L
2883 1169 L
2886 1198 L
2888 1168 L
2891 1196 L
2893 1210 L
2895 1074 L
2898 1203 L
2900 1132 L
2902 1065 L
2905 1249 L
2907 1264 L
2909 1078 L
2912 1092 L
2914 1275 L
2916 1231 L
2918 1216 L
2920 1213 L
2922 1050 L
2925 1204 L
2927 1252 L
2929 1215 L
2931 1099 L
2933 1114 L
2935 1117 L
2937 1209 L
2939 1213 L
2941 1208 L
2943 1103 L
2945 1290 L
2947 1230 L
2948 1023 L
2950 1294 L
2952 1087 L
2954 1106 L
2956 1167 L
2958 1135 L
2959 1244 L
2961 1150 L
2963 1236 L
2965 1230 L
2966 1187 L
2968 1147 L
2970 1218 L
2972 1077 L
2973 1167 L
2975 1311 L
2977 1041 L
2978 1318 L
2980 1120 L
2982 994 L
2983 1142 L
2985 1304 L
2986 993 L
2988 1069 L
2989 1210 L
2991 1250 L
2993 1106 L
2994 1071 L
2996 1086 L
2997 1295 L
2999 1161 L
3000 1208 L
3002 1251 L
3003 1249 L
3005 1236 L
3006 1345 L
3007 1214 L
3009 1305 L
3010 1221 L
3012 1234 L
3013 1022 L
3014 1126 L
3016 1268 L
3017 993 L
3019 1143 L
3020 1161 L
3021 1124 L
3023 1282 L
3024 1156 L
3025 1213 L
3027 1187 L
3028 1192 L
3029 1155 L
3031 1175 L
3032 1298 L
3033 1089 L
3034 1164 L
3036 1086 L
3037 1084 L
3038 1192 L
3039 1086 L
3041 1212 L
3042 1153 L
3043 1241 L
3044 1210 L
3045 1323 L
3047 1299 L
3048 1228 L
3049 1244 L
3050 1139 L
3051 1166 L
3053 1061 L
3054 1236 L
3055 1187 L
3056 1094 L
3057 1233 L
3058 1194 L
3059 1254 L
3061 1073 L
3062 1090 L
3063 1402 L
3064 1371 L
3065 1092 L
3066 1220 L
3067 1305 L
3068 1206 L
3069 1194 L
3070 1240 L
3071 1187 L
3073 1357 L
3074 1081 L
3075 1193 L
3076 1215 L
3077 1142 L
3078 1227 L
3079 1239 L
3080 1241 L
3081 1188 L
3082 1285 L
3083 1239 L
3084 1123 L
3085 1134 L
3086 1271 L
3087 1235 L
3088 1251 L
3089 1149 L
3112 1379 L
3133 1174 L
3152 1210 L
3170 1397 L
3186 1249 L
3201 1389 L
3216 1381 L
3229 1460 L
3241 1225 L
3253 1406 L
3264 1362 L
3275 1414 L
3285 1251 L
3295 1303 L
3304 1204 L
3313 1262 L
3322 1484 L
3330 1331 L
3338 1410 L
3346 1280 L
3353 1202 L
3360 1217 L
3367 1142 L
3374 1279 L
3380 1335 L
3387 1404 L
3393 1212 L
3399 1292 L
3405 1569 L
3410 1235 L
3416 1321 L
3421 1245 L
3426 1483 L
3431 1130 L
3436 1393 L
3441 1339 L
3446 1462 L
3451 1297 L
3455 1286 L
3460 1302 L
3464 1258 L
3469 1486 L
3473 1406 L
3477 1244 L
3481 1188 L
3485 1203 L
3489 1267 L
3493 1473 L
3496 1254 L
3500 1292 L
3504 1281 L
3507 1436 L
3511 1369 L
3514 1212 L
3518 1361 L
3521 1254 L
3525 1339 L
3528 1230 L
3531 1332 L
3534 1354 L
3537 1309 L
3540 1242 L
3543 1468 L
3546 1235 L
3549 1446 L
3552 1266 L
3555 1291 L
3558 1348 L
3561 998 L
3564 1199 L
3566 1275 L
3575 1283 L
3586 1373 L
3595 1351 L
3605 1359 L
3613 1253 L
3622 1138 L
3630 1288 L
3638 1273 L
3646 1338 L
3653 1196 L
3660 1212 L
3667 1089 L
3674 1292 L
3681 1254 L
3687 1163 L
3693 1256 L
3699 1173 L
3705 1375 L
3710 1152 L
3716 1480 L
3721 1295 L
3727 1088 L
3732 1278 L
3737 1191 L
3742 1227 L
3746 1434 L
3751 1103 L
3756 1113 L
3760 1272 L
3764 1211 L
3769 1134 L
3773 1209 L
3777 1281 L
3781 1227 L
3785 1055 L
3789 1185 L
3793 924 L
3797 1085 L
3800 1219 L
3804 1224 L
3808 1131 L
3811 1016 L
3815 1265 L
3818 1098 L
3821 932 L
3825 1348 L
3828 1038 L
3831 1022 L
3834 1371 L
3838 1120 L
3841 1033 L
3844 1180 L
3847 1103 L
3850 1059 L
3853 1257 L
3855 1235 L
3858 1140 L
3861 1094 L
3864 1128 L
3867 1014 L
3869 1018 L
3872 1110 L
3875 1055 L
3877 1131 L
3880 1153 L
3882 1017 L
3885 1065 L
3887 1189 L
3890 903 L
3892 1334 L
3895 1093 L
3897 1268 L
3899 1228 L
3902 1032 L
3904 1105 L
3906 1052 L
3908 1144 L
3911 1127 L
3913 979 L
3915 966 L
3917 1219 L
3919 987 L
3921 1094 L
3923 1156 L
3926 1027 L
3928 1043 L
3930 1064 L
3932 1038 L
3934 991 L
3936 989 L
3938 1138 L
3940 1028 L
3942 1089 L
3943 885 L
3945 1075 L
3947 1071 L
3949 977 L
3951 1021 L
3953 1038 L
3955 1169 L
3956 1148 L
3958 1061 L
3960 985 L
3962 929 L
3963 1097 L
3965 1134 L
3967 1024 L
3969 980 L
3970 995 L
3972 1256 L
3974 1143 L
3975 1030 L
3977 924 L
3978 905 L
3980 1128 L
3982 1107 L
3983 1107 L
3985 1148 L
3986 1094 L
3988 1012 L
3990 945 L
3991 1043 L
3993 939 L
3994 962 L
3996 1096 L
3997 1172 L
3999 987 L
4000 967 L
4001 1008 L
4003 1180 L
4004 992 L
4006 977 L
4007 1163 L
4009 1176 L
4010 1042 L
4011 1197 L
4013 782 L
4014 806 L
4016 1153 L
4017 1061 L
4018 865 L
4020 1076 L
4021 1037 L
4022 1236 L
4024 1067 L
4025 1213 L
4026 898 L
4028 1209 L
4029 1048 L
4030 1074 L
4031 1060 L
4033 1043 L
4034 966 L
4035 1010 L
4036 1003 L
4038 1010 L
4039 1047 L
4040 939 L
4041 795 L
4042 1122 L
4044 942 L
4045 890 L
4046 971 L
4047 1005 L
4048 1079 L
4050 1096 L
4051 852 L
4052 1084 L
4053 1064 L
4054 941 L
4055 1068 L
4056 905 L
4058 924 L
4059 1114 L
4060 1004 L
4061 1020 L
4062 868 L
4063 1046 L
4064 750 L
4065 948 L
4066 1048 L
L2 C05 COSGR

%
% Main frame
%
L10
GSN 
620 1700 M
4220 1700 L
4220 5300 L
620 5300 L
closepath SGR

%
% X axis: large tics
%
L10
GSN 1074 1700 M 0  54 rL SGR
GSN 1074 5300 M 0 -54 rL SGR
helvS (0.0001) 1074 470 xlabel
GSN 1572 1700 M 0  54 rL SGR
GSN 1572 5300 M 0 -54 rL SGR
helvS (0.001) 1572 470 xlabel
GSN 2071 1700 M 0  54 rL SGR
GSN 2071 5300 M 0 -54 rL SGR
helvS (0.01) 2071 470 xlabel
GSN 2570 1700 M 0  54 rL SGR
GSN 2570 5300 M 0 -54 rL SGR
helvS (0.1) 2570 470 xlabel
GSN 3068 1700 M 0  54 rL SGR
GSN 3068 5300 M 0 -54 rL SGR
helvS (1) 3068 470 xlabel
GSN 3567 1700 M 0  54 rL SGR
GSN 3567 5300 M 0 -54 rL SGR
helvS (10) 3567 470 xlabel
GSN 4066 1700 M 0  54 rL SGR
GSN 4066 5300 M 0 -54 rL SGR
helvS (100) 4066 470 xlabel
%
% X axis: small tics
%
L5
GSN 725 1700 M 0  36 rL SGR
GSN 725 5300 M 0 -36 rL SGR
GSN 813 1700 M 0  36 rL SGR
GSN 813 5300 M 0 -36 rL SGR
GSN 875 1700 M 0  36 rL SGR
GSN 875 5300 M 0 -36 rL SGR
GSN 924 1700 M 0  36 rL SGR
GSN 924 5300 M 0 -36 rL SGR
GSN 963 1700 M 0  36 rL SGR
GSN 963 5300 M 0 -36 rL SGR
GSN 996 1700 M 0  36 rL SGR
GSN 996 5300 M 0 -36 rL SGR
GSN 1025 1700 M 0  36 rL SGR
GSN 1025 5300 M 0 -36 rL SGR
GSN 1051 1700 M 0  36 rL SGR
GSN 1051 5300 M 0 -36 rL SGR
GSN 1224 1700 M 0  36 rL SGR
GSN 1224 5300 M 0 -36 rL SGR
GSN 1312 1700 M 0  36 rL SGR
GSN 1312 5300 M 0 -36 rL SGR
GSN 1374 1700 M 0  36 rL SGR
GSN 1374 5300 M 0 -36 rL SGR
GSN 1422 1700 M 0  36 rL SGR
GSN 1422 5300 M 0 -36 rL SGR
GSN 1462 1700 M 0  36 rL SGR
GSN 1462 5300 M 0 -36 rL SGR
GSN 1495 1700 M 0  36 rL SGR
GSN 1495 5300 M 0 -36 rL SGR
GSN 1524 1700 M 0  36 rL SGR
GSN 1524 5300 M 0 -36 rL SGR
GSN 1550 1700 M 0  36 rL SGR
GSN 1550 5300 M 0 -36 rL SGR
GSN 1722 1700 M 0  36 rL SGR
GSN 1722 5300 M 0 -36 rL SGR
GSN 1810 1700 M 0  36 rL SGR
GSN 1810 5300 M 0 -36 rL SGR
GSN 1873 1700 M 0  36 rL SGR
GSN 1873 5300 M 0 -36 rL SGR
GSN 1921 1700 M 0  36 rL SGR
GSN 1921 5300 M 0 -36 rL SGR
GSN 1960 1700 M 0  36 rL SGR
GSN 1960 5300 M 0 -36 rL SGR
GSN 1994 1700 M 0  36 rL SGR
GSN 1994 5300 M 0 -36 rL SGR
GSN 2023 1700 M 0  36 rL SGR
GSN 2023 5300 M 0 -36 rL SGR
GSN 2048 1700 M 0  36 rL SGR
GSN 2048 5300 M 0 -36 rL SGR
GSN 2221 1700 M 0  36 rL SGR
GSN 2221 5300 M 0 -36 rL SGR
GSN 2309 1700 M 0  36 rL SGR
GSN 2309 5300 M 0 -36 rL SGR
GSN 2371 1700 M 0  36 rL SGR
GSN 2371 5300 M 0 -36 rL SGR
GSN 2420 1700 M 0  36 rL SGR
GSN 2420 5300 M 0 -36 rL SGR
GSN 2459 1700 M 0  36 rL SGR
GSN 2459 5300 M 0 -36 rL SGR
GSN 2492 1700 M 0  36 rL SGR
GSN 2492 5300 M 0 -36 rL SGR
GSN 2521 1700 M 0  36 rL SGR
GSN 2521 5300 M 0 -36 rL SGR
GSN 2547 1700 M 0  36 rL SGR
GSN 2547 5300 M 0 -36 rL SGR
GSN 2720 1700 M 0  36 rL SGR
GSN 2720 5300 M 0 -36 rL SGR
GSN 2808 1700 M 0  36 rL SGR
GSN 2808 5300 M 0 -36 rL SGR
GSN 2870 1700 M 0  36 rL SGR
GSN 2870 5300 M 0 -36 rL SGR
GSN 2918 1700 M 0  36 rL SGR
GSN 2918 5300 M 0 -36 rL SGR
GSN 2958 1700 M 0  36 rL SGR
GSN 2958 5300 M 0 -36 rL SGR
GSN 2991 1700 M 0  36 rL SGR
GSN 2991 5300 M 0 -36 rL SGR
GSN 3020 1700 M 0  36 rL SGR
GSN 3020 5300 M 0 -36 rL SGR
GSN 3045 1700 M 0  36 rL SGR
GSN 3045 5300 M 0 -36 rL SGR
GSN 3218 1700 M 0  36 rL SGR
GSN 3218 5300 M 0 -36 rL SGR
GSN 3306 1700 M 0  36 rL SGR
GSN 3306 5300 M 0 -36 rL SGR
GSN 3368 1700 M 0  36 rL SGR
GSN 3368 5300 M 0 -36 rL SGR
GSN 3417 1700 M 0  36 rL SGR
GSN 3417 5300 M 0 -36 rL SGR
GSN 3456 1700 M 0  36 rL SGR
GSN 3456 5300 M 0 -36 rL SGR
GSN 3490 1700 M 0  36 rL SGR
GSN 3490 5300 M 0 -36 rL SGR
GSN 3519 1700 M 0  36 rL SGR
GSN 3519 5300 M 0 -36 rL SGR
GSN 3544 1700 M 0  36 rL SGR
GSN 3544 5300 M 0 -36 rL SGR
GSN 3717 1700 M 0  36 rL SGR
GSN 3717 5300 M 0 -36 rL SGR
GSN 3805 1700 M 0  36 rL SGR
GSN 3805 5300 M 0 -36 rL SGR
GSN 3867 1700 M 0  36 rL SGR
GSN 3867 5300 M 0 -36 rL SGR
GSN 3915 1700 M 0  36 rL SGR
GSN 3915 5300 M 0 -36 rL SGR
GSN 3955 1700 M 0  36 rL SGR
GSN 3955 5300 M 0 -36 rL SGR
GSN 3988 1700 M 0  36 rL SGR
GSN 3988 5300 M 0 -36 rL SGR
GSN 4017 1700 M 0  36 rL SGR
GSN 4017 5300 M 0 -36 rL SGR
GSN 4043 1700 M 0  36 rL SGR
GSN 4043 5300 M 0 -36 rL SGR
GSN 4216 1700 M 0  36 rL SGR
GSN 4216 5300 M 0 -36 rL SGR
%
% Y axis: large tics
%
L10
GSN 620 2339 M 54 0 rL SGR
GSN 4220 2339 M -54 0 rL SGR
helvS (0.96) 560 2339 ylabel
GSN 620 3157 M 54 0 rL SGR
GSN 4220 3157 M -54 0 rL SGR
helvS (0.98) 560 3157 ylabel
GSN 620 3976 M 54 0 rL SGR
GSN 4220 3976 M -54 0 rL SGR
helvS (1) 560 3976 ylabel
GSN 620 4794 M 54 0 rL SGR
GSN 4220 4794 M -54 0 rL SGR
helvS (1.02) 560 4794 ylabel
%
% Y axis: small tics
%
L5
GSN 620 1725 M 36 0 rL SGR
GSN 4220 1725 M -36 0 rL SGR
GSN 620 1930 M 36 0 rL SGR
GSN 4220 1930 M -36 0 rL SGR
GSN 620 2134 M 36 0 rL SGR
GSN 4220 2134 M -36 0 rL SGR
GSN 620 2339 M 36 0 rL SGR
GSN 4220 2339 M -36 0 rL SGR
GSN 620 2543 M 36 0 rL SGR
GSN 4220 2543 M -36 0 rL SGR
GSN 620 2748 M 36 0 rL SGR
GSN 4220 2748 M -36 0 rL SGR
GSN 620 2953 M 36 0 rL SGR
GSN 4220 2953 M -36 0 rL SGR
GSN 620 3157 M 36 0 rL SGR
GSN 4220 3157 M -36 0 rL SGR
GSN 620 3362 M 36 0 rL SGR
GSN 4220 3362 M -36 0 rL SGR
GSN 620 3567 M 36 0 rL SGR
GSN 4220 3567 M -36 0 rL SGR
GSN 620 3771 M 36 0 rL SGR
GSN 4220 3771 M -36 0 rL SGR
GSN 620 3976 M 36 0 rL SGR
GSN 4220 3976 M -36 0 rL SGR
GSN 620 4180 M 36 0 rL SGR
GSN 4220 4180 M -36 0 rL SGR
GSN 620 4385 M 36 0 rL SGR
GSN 4220 4385 M -36 0 rL SGR
GSN 620 4590 M 36 0 rL SGR
GSN 4220 4590 M -36 0 rL SGR
GSN 620 4794 M 36 0 rL SGR
GSN 4220 4794 M -36 0 rL SGR
GSN 620 4999 M 36 0 rL SGR
GSN 4220 4999 M -36 0 rL SGR
GSN 620 5204 M 36 0 rL SGR
GSN 4220 5204 M -36 0 rL SGR

%
% X-Axis label:
%
gsave 2420 290 M 
[
[(Helvetica) 180 0 true true 0 (t)]
[(Helvetica) 180 0 true true 0 (i)]
[(Helvetica) 180 0 true true 0 (m)]
[(Helvetica) 180 0 true true 0 (e)]
] 0 MCshow grestore

%
% Y-Axis label:
%
gsave 234 3499 M 
currentpoint gsave translate 90 rotate 0 0 moveto
[
[(Helvetica) 180 0 true true 0 (s)]
[(Helvetica) 180 0 true true 0 (i)]
[(Helvetica) 180 0 true true 0 (g)]
[(Helvetica) 180 0 true true 0 (n)]
[(Helvetica) 180 0 true true 0 (a)]
[(Helvetica) 180 0 true true 0 (l)]
] 0 MCshow grestore

%
% Residuals:
%
gsave 129 1160 M 
currentpoint gsave translate 90 rotate 0 0 moveto
[
[(Helvetica) 150 0 true true 0 (r)]
[(Helvetica) 150 0 true true 0 (e)]
[(Helvetica) 150 0 true true 0 (s)]
[(Helvetica) 150 0 true true 0 (i)]
[(Helvetica) 150 0 true true 0 (d)]
[(Helvetica) 150 0 true true 0 (u)]
[(Helvetica) 150 0 true true 0 (a)]
[(Helvetica) 150 0 true true 0 (l)]
[(Helvetica) 150 0 true true 0 (s)]
] 0 MCshow grestore

%
% Residual frame
%
L10
GSN 
620 620 M
4220 620 L
4220 1700 L
620 1700 L
closepath SGR
%
% X axis: large tics - residual frame
%
L10
GSN 1074 620 M 0  54 rL SGR
GSN 1074 1700 M 0 -54 rL SGR
GSN 1572 620 M 0  54 rL SGR
GSN 1572 1700 M 0 -54 rL SGR
GSN 2071 620 M 0  54 rL SGR
GSN 2071 1700 M 0 -54 rL SGR
GSN 2570 620 M 0  54 rL SGR
GSN 2570 1700 M 0 -54 rL SGR
GSN 3068 620 M 0  54 rL SGR
GSN 3068 1700 M 0 -54 rL SGR
GSN 3567 620 M 0  54 rL SGR
GSN 3567 1700 M 0 -54 rL SGR
GSN 4066 620 M 0  54 rL SGR
GSN 4066 1700 M 0 -54 rL SGR
%
% X axis: small tics - residual frame
%
L5
GSN 725 620 M 0  36 rL SGR
GSN 725 1700 M 0 -36 rL SGR
GSN 813 620 M 0  36 rL SGR
GSN 813 1700 M 0 -36 rL SGR
GSN 875 620 M 0  36 rL SGR
GSN 875 1700 M 0 -36 rL SGR
GSN 924 620 M 0  36 rL SGR
GSN 924 1700 M 0 -36 rL SGR
GSN 963 620 M 0  36 rL SGR
GSN 963 1700 M 0 -36 rL SGR
GSN 996 620 M 0  36 rL SGR
GSN 996 1700 M 0 -36 rL SGR
GSN 1025 620 M 0  36 rL SGR
GSN 1025 1700 M 0 -36 rL SGR
GSN 1051 620 M 0  36 rL SGR
GSN 1051 1700 M 0 -36 rL SGR
GSN 1224 620 M 0  36 rL SGR
GSN 1224 1700 M 0 -36 rL SGR
GSN 1312 620 M 0  36 rL SGR
GSN 1312 1700 M 0 -36 rL SGR
GSN 1374 620 M 0  36 rL SGR
GSN 1374 1700 M 0 -36 rL SGR
GSN 1422 620 M 0  36 rL SGR
GSN 1422 1700 M 0 -36 rL SGR
GSN 1462 620 M 0  36 rL SGR
GSN 1462 1700 M 0 -36 rL SGR
GSN 1495 620 M 0  36 rL SGR
GSN 1495 1700 M 0 -36 rL SGR
GSN 1524 620 M 0  36 rL SGR
GSN 1524 1700 M 0 -36 rL SGR
GSN 1550 620 M 0  36 rL SGR
GSN 1550 1700 M 0 -36 rL SGR
GSN 1722 620 M 0  36 rL SGR
GSN 1722 1700 M 0 -36 rL SGR
GSN 1810 620 M 0  36 rL SGR
GSN 1810 1700 M 0 -36 rL SGR
GSN 1873 620 M 0  36 rL SGR
GSN 1873 1700 M 0 -36 rL SGR
GSN 1921 620 M 0  36 rL SGR
GSN 1921 1700 M 0 -36 rL SGR
GSN 1960 620 M 0  36 rL SGR
GSN 1960 1700 M 0 -36 rL SGR
GSN 1994 620 M 0  36 rL SGR
GSN 1994 1700 M 0 -36 rL SGR
GSN 2023 620 M 0  36 rL SGR
GSN 2023 1700 M 0 -36 rL SGR
GSN 2048 620 M 0  36 rL SGR
GSN 2048 1700 M 0 -36 rL SGR
GSN 2221 620 M 0  36 rL SGR
GSN 2221 1700 M 0 -36 rL SGR
GSN 2309 620 M 0  36 rL SGR
GSN 2309 1700 M 0 -36 rL SGR
GSN 2371 620 M 0  36 rL SGR
GSN 2371 1700 M 0 -36 rL SGR
GSN 2420 620 M 0  36 rL SGR
GSN 2420 1700 M 0 -36 rL SGR
GSN 2459 620 M 0  36 rL SGR
GSN 2459 1700 M 0 -36 rL SGR
GSN 2492 620 M 0  36 rL SGR
GSN 2492 1700 M 0 -36 rL SGR
GSN 2521 620 M 0  36 rL SGR
GSN 2521 1700 M 0 -36 rL SGR
GSN 2547 620 M 0  36 rL SGR
GSN 2547 1700 M 0 -36 rL SGR
GSN 2720 620 M 0  36 rL SGR
GSN 2720 1700 M 0 -36 rL SGR
GSN 2808 620 M 0  36 rL SGR
GSN 2808 1700 M 0 -36 rL SGR
GSN 2870 620 M 0  36 rL SGR
GSN 2870 1700 M 0 -36 rL SGR
GSN 2918 620 M 0  36 rL SGR
GSN 2918 1700 M 0 -36 rL SGR
GSN 2958 620 M 0  36 rL SGR
GSN 2958 1700 M 0 -36 rL SGR
GSN 2991 620 M 0  36 rL SGR
GSN 2991 1700 M 0 -36 rL SGR
GSN 3020 620 M 0  36 rL SGR
GSN 3020 1700 M 0 -36 rL SGR
GSN 3045 620 M 0  36 rL SGR
GSN 3045 1700 M 0 -36 rL SGR
GSN 3218 620 M 0  36 rL SGR
GSN 3218 1700 M 0 -36 rL SGR
GSN 3306 620 M 0  36 rL SGR
GSN 3306 1700 M 0 -36 rL SGR
GSN 3368 620 M 0  36 rL SGR
GSN 3368 1700 M 0 -36 rL SGR
GSN 3417 620 M 0  36 rL SGR
GSN 3417 1700 M 0 -36 rL SGR
GSN 3456 620 M 0  36 rL SGR
GSN 3456 1700 M 0 -36 rL SGR
GSN 3490 620 M 0  36 rL SGR
GSN 3490 1700 M 0 -36 rL SGR
GSN 3519 620 M 0  36 rL SGR
GSN 3519 1700 M 0 -36 rL SGR
GSN 3544 620 M 0  36 rL SGR
GSN 3544 1700 M 0 -36 rL SGR
GSN 3717 620 M 0  36 rL SGR
GSN 3717 1700 M 0 -36 rL SGR
GSN 3805 620 M 0  36 rL SGR
GSN 3805 1700 M 0 -36 rL SGR
GSN 3867 620 M 0  36 rL SGR
GSN 3867 1700 M 0 -36 rL SGR
GSN 3915 620 M 0  36 rL SGR
GSN 3915 1700 M 0 -36 rL SGR
GSN 3955 620 M 0  36 rL SGR
GSN 3955 1700 M 0 -36 rL SGR
GSN 3988 620 M 0  36 rL SGR
GSN 3988 1700 M 0 -36 rL SGR
GSN 4017 620 M 0  36 rL SGR
GSN 4017 1700 M 0 -36 rL SGR
GSN 4043 620 M 0  36 rL SGR
GSN 4043 1700 M 0 -36 rL SGR
GSN 4216 620 M 0  36 rL SGR
GSN 4216 1700 M 0 -36 rL SGR
%
% Y axis: large tics - residual frame
%
L10
GSN 620 789 M 54 0 rL SGR
GSN 4220 789 M -54 0 rL SGR
helvS (-0.01) 560 789 ylabelresid
GSN 620 1166 M 54 0 rL SGR
GSN 4220 1166 M -54 0 rL SGR
helvS (0) 560 1166 ylabelresid
GSN 620 1542 M 54 0 rL SGR
GSN 4220 1542 M -54 0 rL SGR
helvS (0.01) 560 1542 ylabelresid

%
% X axis - residual panel
%
GSN L5 620 1166 M 4220 1166 L SDA G50 SGR

end
showpage
%%Trailer
%%EOF
