%!PS-Adobe-3.0 EPSF-3.0
%%BoundingBox: 0 0 514 550
%%Creator: BioKin Ltd.
%%DocumentFonts: Symbol Helvetica
%%EndComments
%
/bkdict 256 dict def
bkdict begin
/M {moveto} def 
/R {rmoveto} def
/L {lineto} def
/rL {rlineto} def
/GSN {gsave newpath} def
/SGR {stroke grestore} def
/COSGR {gsave setrgbcolor stroke grestore grestore} def
/SL {setlinewidth} def
/LWMB {12} def             % line width - model curves, black & white
/LWMC {10} def             % line width - model curves, color
/L2 {2.5 setlinewidth} def
/L5 {5 setlinewidth} def
/L10 {10 setlinewidth} def
/G50 {0.5 setgray} def
/SDA {[10  20] 0 setdash} def % axes
/helvT {/Helvetica findfont 100 scalefont setfont} def % tiny
/helvS {/Helvetica findfont 125 scalefont setfont} def % small
/helvM {/Helvetica findfont 150 scalefont setfont} def % medium
/helvL {/Helvetica findfont 175 scalefont setfont} def % large
/xlabel {gsave M dup
   stringwidth exch -0.5 mul exch rmoveto show grestore} def 
/ylabel {gsave M 90 rotate dup
   stringwidth exch -0.5 mul exch rmoveto show grestore} def
/ylabelresid {gsave M dup
   stringwidth exch -1 mul exch rmoveto show grestore} def
% ======
% Shapes
% ======
% Circle:
/Circ {0 360 arc closepath} def
%
% Square:
/Squa {dup dup -0.5 mul dup dup R -2 mul 0 exch rL 1 mul 0 rL dup 0 exch -1 mul rL closepath} def
%
% Triangle Up:
/TriU {dup dup dup -0.4 mul exch -0.5 mul exch R dup 0.5 mul exch rL dup -1 mul exch 0.5 mul exch rL closepath} def 
%
% Triangle Down:
/TriD {dup dup dup 0.4 mul exch -0.5 mul exch R dup 0.5 mul exch -1 mul rL dup 0.5 mul exch rL closepath} def 
%
% Diamond:
/Diam {45 rotate Squa} def
% ======
% Fills
% ======
/GRF {gsave setgray fill grestore} def                    % gray-level Fill
/COF {gsave setrgbcolor fill grestore} def                % color fill
% ======
% Colors
% ======
/C01 {1.00	0.00	0.00} def      % Red
/C02 {0.00	0.00	1.00} def      % Blue
/C03 {0.00	0.39	0.00} def      % Dark Green
/C04 {0.78	0.08	0.52} def      % Medium Violet Red
/C05 {0.55	0.27	0.07} def      % Saddle Brown
/C06 {0.10	0.70	0.70} def      % (cyan)
/C07 {1.00	0.55	0.00} def      % Dark Orange
/C08 {0.63	0.13	0.94} def      % Purple
/C09 {0.00	0.75	1.00} def      % Deep Sky Blue
/C10 {0.20	0.80	0.20} def      % Lime Green
/C11 {0.47	0.53	0.60} def      % Light Slate Gray
/C12 {0.00	0.00	0.00} def      % Black            % or: {0.19	0.31	0.31} def      % Dark Slate Gray
%
/LGR {0.75} def % light gray
/DGR {0.33} def % dark gray
%
% =============
% Dash patterns
% =============
/dash01 { [80  20] 0 setdash } def
/dash02 { [40  20] 0 setdash } def
/dash03 { [80  20  10  20] 0 setdash } def
/dash04 { [40  20  10  20] 0 setdash } def
/dash05 { [80  20  10  10  10  20] 0 setdash } def
/dash06 { [40  20  10  10  10  20] 0 setdash } def
/dash07 { [10  10] 0 setdash } def
%
/MFshow {
   { dup 5 get 3 ge
     { 5 get 3 eq {gsave} {grestore} ifelse }
     {dup dup 0 get findfont exch 1 get scalefont setfont
     [ currentpoint ] exch dup 2 get 0 exch R dup 5 get 2 ne {dup dup 6
     get exch 4 get {show} {stringwidth pop 0 R} ifelse }if dup 5 get 0 eq
     {dup 3 get {2 get neg 0 exch R pop} {pop aload pop M} ifelse} {dup 5
     get 1 eq {dup 2 get exch dup 3 get exch 6 get stringwidth pop -2 div
     dup 0 R} {dup 6 get stringwidth pop -2 div 0 R 6 get
     show 2 index {aload pop M neg 3 -1 roll neg R pop pop} {pop pop pop
     pop aload pop M} ifelse }ifelse }ifelse }
     ifelse }
   forall} bind def
/MFwidth {0 exch {dup 3 get{dup dup 0 get findfont exch 1 get scalefont
     setfont 6 get stringwidth pop add} {pop} ifelse} forall} bind def
/MCshow { currentpoint stroke M
  exch dup MFwidth -2 div 3 -1 roll R MFshow } def
%
end
%%EndProlog
bkdict begin
0.1 0.1 scale
%
% Residuals:
%
GSN 620 4603 M
620 3848 L
620 4029 L
620 4710 L
620 4381 L
620 4128 L
620 4204 L
620 4219 L
620 4338 L
620 4182 L
620 4256 L
620 3676 L
620 4726 L
620 3877 L
620 4284 L
620 4466 L
620 4351 L
620 4499 L
620 3796 L
620 4135 L
620 3981 L
620 3683 L
620 3850 L
620 4090 L
620 3665 L
620 4248 L
620 4579 L
620 4159 L
620 4467 L
620 4025 L
620 3750 L
620 3104 L
620 3510 L
620 3603 L
620 4156 L
620 4156 L
620 3825 L
620 3879 L
620 4091 L
620 4078 L
620 4367 L
620 4781 L
620 3577 L
620 3859 L
620 3187 L
620 3518 L
620 3256 L
620 3872 L
620 3922 L
620 3786 L
620 3995 L
620 4188 L
620 3282 L
620 2405 L
620 2953 L
620 3506 L
620 3895 L
620 4338 L
620 3570 L
620 3294 L
620 3029 L
620 3904 L
620 2970 L
620 3308 L
620 3942 L
620 3780 L
620 2976 L
620 3511 L
620 3474 L
620 3164 L
620 3089 L
620 3820 L
620 3361 L
620 3592 L
620 3111 L
620 3584 L
620 3623 L
620 3541 L
620 3377 L
620 3405 L
620 3575 L
620 3129 L
620 3098 L
620 3339 L
620 3599 L
620 3505 L
620 3624 L
620 3719 L
620 2879 L
620 3091 L
620 3267 L
620 4150 L
620 3073 L
620 2417 L
620 3766 L
620 3003 L
620 3538 L
620 2783 L
620 3534 L
620 3336 L
620 3033 L
620 2750 L
620 3420 L
620 3140 L
620 2136 L
620 3094 L
620 3206 L
620 2281 L
620 3352 L
620 2946 L
620 3527 L
620 2658 L
620 3638 L
620 3629 L
620 3439 L
620 3117 L
620 3161 L
620 3260 L
620 2929 L
620 3087 L
620 3305 L
620 3263 L
620 3222 L
620 2642 L
620 3071 L
620 2984 L
620 2629 L
620 2941 L
620 3434 L
620 2737 L
620 3229 L
620 2788 L
620 2841 L
620 2707 L
620 3055 L
620 2964 L
620 2834 L
620 2879 L
620 3314 L
620 2756 L
620 3102 L
620 2696 L
620 2817 L
620 2937 L
620 2843 L
620 2772 L
620 2677 L
620 2764 L
620 2713 L
620 3057 L
620 3253 L
620 2828 L
620 3237 L
620 3794 L
620 2853 L
620 2719 L
620 2776 L
620 3442 L
620 3066 L
620 3051 L
620 3865 L
620 3674 L
620 2650 L
620 3354 L
620 2850 L
620 3301 L
620 3297 L
620 3254 L
620 3336 L
620 3331 L
620 3600 L
620 2877 L
620 3804 L
620 3766 L
620 3437 L
620 4056 L
620 2394 L
620 3041 L
620 3627 L
620 3067 L
620 3226 L
620 3263 L
620 3241 L
620 3454 L
620 2499 L
620 3513 L
620 3753 L
620 4761 L
620 3318 L
620 4446 L
620 2783 L
620 3890 L
620 3642 L
620 2823 L
620 3578 L
620 3730 L
620 3641 L
620 3025 L
620 3632 L
620 3214 L
620 3317 L
620 3359 L
620 3598 L
620 3717 L
620 3073 L
620 3220 L
620 3190 L
620 3950 L
620 3768 L
620 3069 L
620 3763 L
620 3498 L
620 3803 L
620 4251 L
620 4007 L
620 3895 L
620 3964 L
620 3979 L
620 4399 L
620 3629 L
620 3763 L
620 4310 L
620 4049 L
620 3461 L
620 3546 L
620 4098 L
620 3376 L
620 4164 L
620 2999 L
620 3523 L
620 3927 L
620 4292 L
620 4218 L
620 3876 L
620 3813 L
620 3536 L
620 3528 L
620 3712 L
620 3513 L
620 3921 L
620 3398 L
620 3346 L
620 3311 L
620 3731 L
620 3602 L
620 3589 L
620 3745 L
620 3343 L
620 3812 L
620 4226 L
620 4010 L
620 3294 L
620 4296 L
620 4518 L
620 3940 L
620 3515 L
620 3365 L
620 3730 L
620 3722 L
620 3314 L
620 3054 L
620 3413 L
620 2983 L
620 3277 L
620 4651 L
620 4232 L
620 3786 L
620 3865 L
620 4554 L
620 4431 L
620 3809 L
620 3071 L
620 3124 L
620 4361 L
620 4546 L
620 3836 L
620 4520 L
620 4150 L
620 3259 L
620 3832 L
620 3375 L
620 3597 L
620 3936 L
620 3755 L
620 3477 L
620 4142 L
620 3331 L
620 4000 L
620 4227 L
620 3932 L
620 3715 L
620 4108 L
620 4169 L
620 4011 L
620 4331 L
620 4460 L
620 3674 L
620 3931 L
620 3622 L
620 4159 L
620 3193 L
620 3576 L
620 3592 L
620 3679 L
620 4222 L
620 3635 L
620 4035 L
620 4573 L
620 3783 L
620 3865 L
620 3777 L
620 4155 L
620 3519 L
620 3662 L
620 3794 L
620 3821 L
620 3739 L
620 3777 L
620 4117 L
620 3283 L
620 4517 L
620 4671 L
620 3585 L
620 4123 L
620 2954 L
620 3793 L
620 4468 L
620 3437 L
620 3185 L
620 3629 L
620 4040 L
620 4567 L
620 3744 L
620 3207 L
620 3711 L
620 3799 L
620 4276 L
620 3591 L
620 3728 L
620 3547 L
620 3366 L
620 4128 L
620 3826 L
620 3459 L
620 4029 L
620 3667 L
620 3892 L
620 4353 L
620 3563 L
620 3338 L
620 4188 L
620 4024 L
620 3277 L
620 3300 L
620 3700 L
620 3217 L
620 3629 L
620 3810 L
620 3607 L
620 4633 L
620 3130 L
620 4002 L
620 3996 L
620 4507 L
620 3448 L
620 3640 L
620 3475 L
620 3903 L
620 3157 L
620 3624 L
620 3437 L
620 3514 L
620 3958 L
620 3190 L
620 4150 L
620 4298 L
620 3777 L
620 3398 L
620 3179 L
620 4079 L
620 3788 L
620 4051 L
620 3069 L
620 3629 L
620 3815 L
620 3618 L
620 3816 L
620 3492 L
620 4178 L
620 3569 L
620 3870 L
620 3678 L
620 3788 L
620 3804 L
620 3646 L
620 3695 L
620 4155 L
620 3278 L
620 3557 L
620 3898 L
620 4057 L
620 3327 L
620 4111 L
620 3761 L
620 4380 L
620 3119 L
620 4178 L
620 3887 L
620 3684 L
620 3426 L
620 3711 L
620 3766 L
620 4106 L
620 4057 L
620 3091 L
620 3299 L
620 3656 L
620 3387 L
620 3766 L
620 4123 L
620 3086 L
620 3289 L
620 3316 L
620 3974 L
620 2916 L
620 3519 L
620 3229 L
620 3591 L
620 3722 L
620 3914 L
620 4046 L
620 3821 L
620 3481 L
620 3931 L
620 3931 L
620 3909 L
620 3783 L
620 3574 L
620 2812 L
620 3404 L
620 4391 L
620 4150 L
620 3618 L
620 3854 L
620 4128 L
620 2910 L
620 3963 L
620 3903 L
620 3124 L
620 3755 L
620 2976 L
620 3579 L
620 4117 L
620 4271 L
620 3431 L
620 4419 L
620 3217 L
620 3766 L
620 3722 L
620 4358 L
620 3141 L
620 4194 L
620 4117 L
620 3772 L
620 3536 L
620 3656 L
620 3547 L
620 4364 L
620 3530 L
620 3832 L
620 4189 L
620 3634 L
620 3760 L
620 3618 L
620 4430 L
620 3612 L
620 3321 L
620 4178 L
620 3941 L
620 4078 L
620 3305 L
620 4013 L
620 3909 L
620 4254 L
620 4391 L
620 4122 L
620 3700 L
620 3969 L
620 3749 L
620 3980 L
620 4732 L
620 3859 L
620 4123 L
620 3591 L
620 4079 L
620 3667 L
620 3909 L
620 3887 L
620 4024 L
620 3437 L
620 3601 L
620 3179 L
620 4068 L
620 4709 L
620 2888 L
620 4370 L
620 3755 L
620 3574 L
620 4134 L
620 4271 L
620 3673 L
620 4413 L
620 4145 L
620 3574 L
620 3865 L
620 3804 L
620 3898 L
620 4347 L
620 4095 L
620 3739 L
620 4863 L
620 3766 L
620 3827 L
620 4199 L
620 4111 L
620 3240 L
620 3865 L
620 3058 L
620 3651 L
620 3974 L
620 4166 L
620 3591 L
620 4084 L
L2 C01 COSGR

%
%================
% Legend - Begin
%================
%
GSN 4240 5180 M
4480 5180 L
LWMC SL  C01 COSGR
GSN 4540 5141 M helvM (0.5 uM) show grestore
%
%================
% Legend - End
%================
%

%
% Main frame
%
L10
GSN 
620 1700 M
4220 1700 L
4220 5300 L
620 5300 L
closepath SGR

%
% X axis: large tics
%
L10
%
% X axis: small tics
%
L5
%
% Y axis: large tics
%
L10
GSN 620 2576 M 54 0 rL SGR
GSN 4220 2576 M -54 0 rL SGR
helvS (-0.01) 560 2576 ylabel
GSN 620 3654 M 54 0 rL SGR
GSN 4220 3654 M -54 0 rL SGR
helvS (0) 560 3654 ylabel
GSN 620 4733 M 54 0 rL SGR
GSN 4220 4733 M -54 0 rL SGR
helvS (0.01) 560 4733 ylabel
%
% Y axis: small tics
%
L5
GSN 620 1767 M 36 0 rL SGR
GSN 4220 1767 M -36 0 rL SGR
GSN 620 2036 M 36 0 rL SGR
GSN 4220 2036 M -36 0 rL SGR
GSN 620 2306 M 36 0 rL SGR
GSN 4220 2306 M -36 0 rL SGR
GSN 620 2576 M 36 0 rL SGR
GSN 4220 2576 M -36 0 rL SGR
GSN 620 2845 M 36 0 rL SGR
GSN 4220 2845 M -36 0 rL SGR
GSN 620 3115 M 36 0 rL SGR
GSN 4220 3115 M -36 0 rL SGR
GSN 620 3384 M 36 0 rL SGR
GSN 4220 3384 M -36 0 rL SGR
GSN 620 3654 M 36 0 rL SGR
GSN 4220 3654 M -36 0 rL SGR
GSN 620 3924 M 36 0 rL SGR
GSN 4220 3924 M -36 0 rL SGR
GSN 620 4193 M 36 0 rL SGR
GSN 4220 4193 M -36 0 rL SGR
GSN 620 4463 M 36 0 rL SGR
GSN 4220 4463 M -36 0 rL SGR
GSN 620 4733 M 36 0 rL SGR
GSN 4220 4733 M -36 0 rL SGR
GSN 620 5002 M 36 0 rL SGR
GSN 4220 5002 M -36 0 rL SGR
GSN 620 5272 M 36 0 rL SGR
GSN 4220 5272 M -36 0 rL SGR

%
% X axis - residual panel
%
GSN L5 620 3654 M 4220 3654 L SDA G50 SGR

%
% X-Axis label:
%
gsave 620 1370 M 
[
[(Helvetica) 180 0 true true 0 (t)]
[(Helvetica) 180 0 true true 0 (i)]
[(Helvetica) 180 0 true true 0 (m)]
[(Helvetica) 180 0 true true 0 (e)]
] 0 MCshow grestore

%
% Y-Axis label:
%
gsave 234 3500 M 
currentpoint gsave translate 90 rotate 0 0 moveto
[
[(Helvetica) 180 0 true true 0 (r)]
[(Helvetica) 180 0 true true 0 (e)]
[(Helvetica) 180 0 true true 0 (s)]
[(Helvetica) 180 0 true true 0 (i)]
[(Helvetica) 180 0 true true 0 (d)]
[(Helvetica) 180 0 true true 0 (u)]
[(Helvetica) 180 0 true true 0 (a)]
[(Helvetica) 180 0 true true 0 (l)]
[(Helvetica) 180 0 true true 0 (s)]
] 0 MCshow grestore

end
showpage
%%Trailer
%%EOF
