%!PS-Adobe-3.0 EPSF-3.0
%%BoundingBox: 0 0 514 550
%%Creator: BioKin Ltd.
%%DocumentFonts: Symbol Helvetica
%%EndComments
%
/bkdict 256 dict def
bkdict begin
/M {moveto} def 
/R {rmoveto} def
/L {lineto} def
/rL {rlineto} def
/GSN {gsave newpath} def
/SGR {stroke grestore} def
/COSGR {gsave setrgbcolor stroke grestore grestore} def
/SL {setlinewidth} def
/LWMB {12} def             % line width - model curves, black & white
/LWMC {10} def             % line width - model curves, color
/L2 {2.5 setlinewidth} def
/L5 {5 setlinewidth} def
/L10 {10 setlinewidth} def
/G50 {0.5 setgray} def
/SDA {[10  20] 0 setdash} def % axes
/helvT {/Helvetica findfont 100 scalefont setfont} def % tiny
/helvS {/Helvetica findfont 125 scalefont setfont} def % small
/helvM {/Helvetica findfont 150 scalefont setfont} def % medium
/helvL {/Helvetica findfont 175 scalefont setfont} def % large
/xlabel {gsave M dup
   stringwidth exch -0.5 mul exch rmoveto show grestore} def 
/ylabel {gsave M 90 rotate dup
   stringwidth exch -0.5 mul exch rmoveto show grestore} def
/ylabelresid {gsave M dup
   stringwidth exch -1 mul exch rmoveto show grestore} def
% ======
% Shapes
% ======
% Circle:
/Circ {0 360 arc closepath} def
%
% Square:
/Squa {dup dup -0.5 mul dup dup R -2 mul 0 exch rL 1 mul 0 rL dup 0 exch -1 mul rL closepath} def
%
% Triangle Up:
/TriU {dup dup dup -0.4 mul exch -0.5 mul exch R dup 0.5 mul exch rL dup -1 mul exch 0.5 mul exch rL closepath} def 
%
% Triangle Down:
/TriD {dup dup dup 0.4 mul exch -0.5 mul exch R dup 0.5 mul exch -1 mul rL dup 0.5 mul exch rL closepath} def 
%
% Diamond:
/Diam {45 rotate Squa} def
% ======
% Fills
% ======
/GRF {gsave setgray fill grestore} def                    % gray-level Fill
/COF {gsave setrgbcolor fill grestore} def                % color fill
% ======
% Colors
% ======
/C01 {1.00	0.00	0.00} def      % Red
/C02 {0.00	0.00	1.00} def      % Blue
/C03 {0.00	0.39	0.00} def      % Dark Green
/C04 {0.78	0.08	0.52} def      % Medium Violet Red
/C05 {0.55	0.27	0.07} def      % Saddle Brown
/C06 {0.10	0.70	0.70} def      % (cyan)
/C07 {1.00	0.55	0.00} def      % Dark Orange
/C08 {0.63	0.13	0.94} def      % Purple
/C09 {0.00	0.75	1.00} def      % Deep Sky Blue
/C10 {0.20	0.80	0.20} def      % Lime Green
/C11 {0.47	0.53	0.60} def      % Light Slate Gray
/C12 {0.00	0.00	0.00} def      % Black            % or: {0.19	0.31	0.31} def      % Dark Slate Gray
%
/LGR {0.75} def % light gray
/DGR {0.33} def % dark gray
%
% =============
% Dash patterns
% =============
/dash01 { [80  20] 0 setdash } def
/dash02 { [40  20] 0 setdash } def
/dash03 { [80  20  10  20] 0 setdash } def
/dash04 { [40  20  10  20] 0 setdash } def
/dash05 { [80  20  10  10  10  20] 0 setdash } def
/dash06 { [40  20  10  10  10  20] 0 setdash } def
/dash07 { [10  10] 0 setdash } def
%
/MFshow {
   { dup 5 get 3 ge
     { 5 get 3 eq {gsave} {grestore} ifelse }
     {dup dup 0 get findfont exch 1 get scalefont setfont
     [ currentpoint ] exch dup 2 get 0 exch R dup 5 get 2 ne {dup dup 6
     get exch 4 get {show} {stringwidth pop 0 R} ifelse }if dup 5 get 0 eq
     {dup 3 get {2 get neg 0 exch R pop} {pop aload pop M} ifelse} {dup 5
     get 1 eq {dup 2 get exch dup 3 get exch 6 get stringwidth pop -2 div
     dup 0 R} {dup 6 get stringwidth pop -2 div 0 R 6 get
     show 2 index {aload pop M neg 3 -1 roll neg R pop pop} {pop pop pop
     pop aload pop M} ifelse }ifelse }ifelse }
     ifelse }
   forall} bind def
/MFwidth {0 exch {dup 3 get{dup dup 0 get findfont exch 1 get scalefont
     setfont 6 get stringwidth pop add} {pop} ifelse} forall} bind def
/MCshow { currentpoint stroke M
  exch dup MFwidth -2 div 3 -1 roll R MFshow } def
%
end
%%EndProlog
bkdict begin
0.1 0.1 scale
%
% Residuals:
%
GSN 620 4541 M
620 4351 L
620 4789 L
620 4572 L
620 4863 L
620 4635 L
620 4694 L
620 4675 L
620 4523 L
620 4396 L
620 4551 L
620 4461 L
620 4667 L
620 4405 L
620 4473 L
620 4434 L
620 4437 L
620 4354 L
620 4279 L
620 4284 L
620 4126 L
620 4160 L
620 4329 L
620 4177 L
620 4085 L
620 4335 L
620 4187 L
620 4204 L
620 4134 L
620 4214 L
620 4126 L
620 3916 L
620 4153 L
620 3890 L
620 4196 L
620 4187 L
620 3857 L
620 4169 L
620 3694 L
620 4176 L
620 3976 L
620 4088 L
620 3834 L
620 4051 L
620 4010 L
620 3842 L
620 3814 L
620 3850 L
620 3978 L
620 3877 L
620 3833 L
620 3954 L
620 3793 L
620 3772 L
620 3783 L
620 3801 L
620 3696 L
620 3873 L
620 3798 L
620 3637 L
620 3614 L
620 3911 L
620 3534 L
620 3834 L
620 3539 L
620 3751 L
620 3412 L
620 3602 L
620 3375 L
620 3594 L
620 3613 L
620 3472 L
620 3447 L
620 3641 L
620 3311 L
620 3289 L
620 3629 L
620 3311 L
620 3311 L
620 3432 L
620 3632 L
620 3222 L
620 3192 L
620 3327 L
620 3302 L
620 3246 L
620 3319 L
620 3244 L
620 3043 L
620 2976 L
620 2893 L
620 2994 L
620 3026 L
620 3054 L
620 2726 L
620 2812 L
620 3040 L
620 2938 L
620 2662 L
620 3066 L
620 2983 L
620 2876 L
620 2884 L
620 2806 L
620 2844 L
620 2673 L
620 2483 L
620 2646 L
620 2568 L
620 2779 L
620 2766 L
620 2790 L
620 2713 L
620 2549 L
620 2538 L
620 2755 L
620 2423 L
620 2648 L
620 2302 L
620 2696 L
620 2408 L
620 2431 L
620 2503 L
620 2734 L
620 2530 L
620 2787 L
620 2741 L
620 2305 L
620 2549 L
620 2318 L
620 2576 L
620 2490 L
620 2383 L
620 2136 L
620 2594 L
620 2358 L
620 2417 L
620 2586 L
620 2672 L
620 2449 L
620 2455 L
620 2265 L
620 2300 L
620 2272 L
620 2433 L
620 2471 L
620 2567 L
620 2388 L
620 2586 L
620 2452 L
620 2403 L
620 2401 L
620 2329 L
620 2235 L
620 2331 L
620 2363 L
620 2316 L
620 2273 L
620 2399 L
620 2367 L
620 2420 L
620 2554 L
620 2597 L
620 2626 L
620 2396 L
620 2564 L
620 2758 L
620 2441 L
620 2485 L
620 2417 L
620 2672 L
620 2364 L
620 2403 L
620 2554 L
620 2569 L
620 2500 L
620 2339 L
620 2575 L
620 2597 L
620 2463 L
620 2388 L
620 2578 L
620 2557 L
620 2518 L
620 2297 L
620 2577 L
620 2438 L
620 2503 L
620 2363 L
620 2851 L
620 2648 L
620 2353 L
620 2774 L
620 2374 L
620 2582 L
620 2752 L
620 2589 L
620 2645 L
620 2669 L
620 2747 L
620 2652 L
620 2754 L
620 2286 L
620 2425 L
620 2622 L
620 2532 L
620 2547 L
620 2495 L
620 2588 L
620 2505 L
620 2553 L
620 2585 L
620 2740 L
620 2668 L
620 2607 L
620 2706 L
620 2513 L
620 2587 L
620 2473 L
620 2556 L
620 2539 L
620 2754 L
620 2628 L
620 2553 L
620 2558 L
620 2717 L
620 2909 L
620 2604 L
620 2738 L
620 2429 L
620 2582 L
620 2609 L
620 2627 L
620 2574 L
620 2721 L
620 2777 L
620 2651 L
620 2821 L
620 2544 L
620 2335 L
620 2748 L
620 2489 L
620 2831 L
620 2853 L
620 2689 L
620 2303 L
620 2670 L
620 2869 L
620 2710 L
620 2533 L
620 2737 L
620 2783 L
620 2888 L
620 2654 L
620 2662 L
620 2737 L
620 2793 L
620 2708 L
620 2746 L
620 2713 L
620 2739 L
620 2585 L
620 2667 L
620 2820 L
620 2718 L
620 2627 L
620 2719 L
620 2676 L
620 2657 L
620 2613 L
620 2405 L
620 2541 L
620 2734 L
620 2850 L
620 2713 L
620 2756 L
620 2842 L
620 2632 L
620 2799 L
620 2718 L
620 2634 L
620 2857 L
620 2796 L
620 3139 L
620 2896 L
620 2773 L
620 2761 L
620 2669 L
620 2908 L
620 2774 L
620 2983 L
620 2838 L
620 3051 L
620 3035 L
620 2997 L
620 3156 L
620 3016 L
620 2963 L
620 3012 L
620 3136 L
620 3096 L
620 2905 L
620 3130 L
620 2960 L
620 2941 L
620 3161 L
620 2746 L
620 3053 L
620 2938 L
620 3066 L
620 3134 L
620 2802 L
620 2843 L
620 3099 L
620 3156 L
620 3084 L
620 2878 L
620 2666 L
620 3047 L
620 2817 L
620 2773 L
620 2958 L
620 3118 L
620 2765 L
620 2871 L
620 2993 L
620 2884 L
620 3023 L
620 3036 L
620 3213 L
620 3062 L
620 3179 L
620 2835 L
620 3063 L
620 2967 L
620 3171 L
620 2825 L
620 2717 L
620 2681 L
620 3106 L
620 2894 L
620 3143 L
620 2958 L
620 2956 L
620 2982 L
620 3001 L
620 2991 L
620 2797 L
620 2870 L
620 3000 L
620 3007 L
620 2852 L
620 2740 L
620 2864 L
620 2880 L
620 2778 L
620 2781 L
620 2795 L
620 2832 L
620 2999 L
620 3008 L
620 2809 L
620 2922 L
620 2653 L
620 2788 L
620 2767 L
620 2930 L
620 3031 L
620 2642 L
620 2926 L
620 2678 L
620 2679 L
620 2718 L
620 2774 L
620 2715 L
620 2701 L
620 2825 L
620 2749 L
620 2905 L
620 2685 L
620 2688 L
620 2946 L
620 2623 L
620 2926 L
620 2736 L
620 2879 L
620 2795 L
620 2900 L
620 2669 L
620 2801 L
620 2717 L
620 2679 L
620 2754 L
620 2781 L
620 2914 L
620 2455 L
620 2934 L
620 2705 L
620 2659 L
620 2887 L
620 2626 L
620 2721 L
620 2687 L
620 2678 L
620 2680 L
620 2596 L
620 2920 L
620 2587 L
620 2641 L
620 2675 L
620 2578 L
620 2541 L
620 2722 L
620 2855 L
620 2722 L
620 2767 L
620 2821 L
620 2996 L
620 2786 L
620 2891 L
620 3030 L
620 2884 L
620 2693 L
620 2739 L
620 2975 L
620 2753 L
620 2745 L
620 2461 L
620 2948 L
620 2551 L
620 2709 L
620 2806 L
620 2730 L
620 2607 L
620 2708 L
620 2872 L
620 2834 L
620 2924 L
620 3021 L
620 2700 L
620 3082 L
620 2746 L
620 2785 L
620 2626 L
620 2789 L
620 2651 L
620 2862 L
620 2678 L
620 2813 L
620 2715 L
620 2786 L
620 2810 L
620 2653 L
620 2913 L
620 2610 L
620 2885 L
620 2803 L
620 2905 L
620 2710 L
620 2553 L
620 2624 L
620 2610 L
620 2745 L
620 2830 L
620 2746 L
620 2676 L
620 2979 L
620 2631 L
620 3010 L
620 2953 L
620 2418 L
620 2618 L
620 2725 L
620 2996 L
620 2648 L
620 2859 L
620 2840 L
620 2603 L
620 2488 L
620 2695 L
620 2762 L
620 2826 L
620 2844 L
620 2727 L
620 2754 L
620 2890 L
620 2640 L
620 2640 L
620 2869 L
620 2837 L
620 2746 L
620 2643 L
620 2739 L
620 2952 L
620 2583 L
620 2473 L
620 2520 L
620 2852 L
620 2768 L
620 2641 L
620 2967 L
620 2838 L
620 2668 L
620 2598 L
620 2637 L
620 2700 L
620 2738 L
620 2658 L
620 2574 L
620 2898 L
620 2658 L
620 2724 L
620 2997 L
620 2704 L
620 2490 L
620 2813 L
620 2548 L
620 2893 L
620 2834 L
620 2762 L
620 2640 L
620 2955 L
620 2598 L
620 2798 L
620 2716 L
620 2963 L
620 2804 L
620 2730 L
620 2799 L
620 2831 L
620 2934 L
620 2764 L
620 2809 L
L2 C02 COSGR

%
%================
% Legend - Begin
%================
%
GSN 4240 5180 M
4480 5180 L
LWMC SL  C02 COSGR
GSN 4540 5141 M helvM (1.0 uM) show grestore
%
%================
% Legend - End
%================
%

%
% Main frame
%
L10
GSN 
620 1700 M
4220 1700 L
4220 5300 L
620 5300 L
closepath SGR

%
% X axis: large tics
%
L10
%
% X axis: small tics
%
L5
%
% Y axis: large tics
%
L10
GSN 620 2090 M 54 0 rL SGR
GSN 4220 2090 M -54 0 rL SGR
helvS (-0.02) 560 2090 ylabel
GSN 620 2926 M 54 0 rL SGR
GSN 4220 2926 M -54 0 rL SGR
helvS (0) 560 2926 ylabel
GSN 620 3763 M 54 0 rL SGR
GSN 4220 3763 M -54 0 rL SGR
helvS (0.02) 560 3763 ylabel
GSN 620 4599 M 54 0 rL SGR
GSN 4220 4599 M -54 0 rL SGR
helvS (0.04) 560 4599 ylabel
%
% Y axis: small tics
%
L5
GSN 620 1881 M 36 0 rL SGR
GSN 4220 1881 M -36 0 rL SGR
GSN 620 2090 M 36 0 rL SGR
GSN 4220 2090 M -36 0 rL SGR
GSN 620 2299 M 36 0 rL SGR
GSN 4220 2299 M -36 0 rL SGR
GSN 620 2508 M 36 0 rL SGR
GSN 4220 2508 M -36 0 rL SGR
GSN 620 2717 M 36 0 rL SGR
GSN 4220 2717 M -36 0 rL SGR
GSN 620 2926 M 36 0 rL SGR
GSN 4220 2926 M -36 0 rL SGR
GSN 620 3135 M 36 0 rL SGR
GSN 4220 3135 M -36 0 rL SGR
GSN 620 3344 M 36 0 rL SGR
GSN 4220 3344 M -36 0 rL SGR
GSN 620 3554 M 36 0 rL SGR
GSN 4220 3554 M -36 0 rL SGR
GSN 620 3763 M 36 0 rL SGR
GSN 4220 3763 M -36 0 rL SGR
GSN 620 3972 M 36 0 rL SGR
GSN 4220 3972 M -36 0 rL SGR
GSN 620 4181 M 36 0 rL SGR
GSN 4220 4181 M -36 0 rL SGR
GSN 620 4390 M 36 0 rL SGR
GSN 4220 4390 M -36 0 rL SGR
GSN 620 4599 M 36 0 rL SGR
GSN 4220 4599 M -36 0 rL SGR
GSN 620 4808 M 36 0 rL SGR
GSN 4220 4808 M -36 0 rL SGR
GSN 620 5017 M 36 0 rL SGR
GSN 4220 5017 M -36 0 rL SGR
GSN 620 5226 M 36 0 rL SGR
GSN 4220 5226 M -36 0 rL SGR

%
% X axis - residual panel
%
GSN L5 620 2926 M 4220 2926 L SDA G50 SGR

%
% X-Axis label:
%
gsave 620 1370 M 
[
[(Helvetica) 180 0 true true 0 (t)]
[(Helvetica) 180 0 true true 0 (i)]
[(Helvetica) 180 0 true true 0 (m)]
[(Helvetica) 180 0 true true 0 (e)]
] 0 MCshow grestore

%
% Y-Axis label:
%
gsave 234 3500 M 
currentpoint gsave translate 90 rotate 0 0 moveto
[
[(Helvetica) 180 0 true true 0 (r)]
[(Helvetica) 180 0 true true 0 (e)]
[(Helvetica) 180 0 true true 0 (s)]
[(Helvetica) 180 0 true true 0 (i)]
[(Helvetica) 180 0 true true 0 (d)]
[(Helvetica) 180 0 true true 0 (u)]
[(Helvetica) 180 0 true true 0 (a)]
[(Helvetica) 180 0 true true 0 (l)]
[(Helvetica) 180 0 true true 0 (s)]
] 0 MCshow grestore

end
showpage
%%Trailer
%%EOF
