%!PS-Adobe-3.0 EPSF-3.0
%%BoundingBox: 0 0 514 442
%%Creator: BioKin Ltd.
%%DocumentFonts: Symbol Helvetica
%%EndComments
%
/bkdict 256 dict def
bkdict begin
/M {moveto} def 
/R {rmoveto} def
/L {lineto} def
/rL {rlineto} def
/GSN {gsave newpath} def
/SGR {stroke grestore} def
/COSGR {gsave setrgbcolor stroke grestore grestore} def
/SL {setlinewidth} def
/LWMB {12} def             % line width - model curves, black & white
/LWMC {10} def             % line width - model curves, color
/L2 {2.5 setlinewidth} def
/L5 {5 setlinewidth} def
/L10 {10 setlinewidth} def
/G50 {0.5 setgray} def
/SDA {[10  20] 0 setdash} def % axes
/helvT {/Helvetica findfont 100 scalefont setfont} def % tiny
/helvS {/Helvetica findfont 125 scalefont setfont} def % small
/helvM {/Helvetica findfont 150 scalefont setfont} def % medium
/helvL {/Helvetica findfont 175 scalefont setfont} def % large
/xlabel {gsave M dup
   stringwidth exch -0.5 mul exch rmoveto show grestore} def 
/ylabel {gsave M 90 rotate dup
   stringwidth exch -0.5 mul exch rmoveto show grestore} def
/ylabelresid {gsave M dup
   stringwidth exch -1 mul exch rmoveto show grestore} def
% ======
% Shapes
% ======
% Circle:
/Circ {0 360 arc closepath} def
%
% Square:
/Squa {dup dup -0.5 mul dup dup R -2 mul 0 exch rL 1 mul 0 rL dup 0 exch -1 mul rL closepath} def
%
% Triangle Up:
/TriU {dup dup dup -0.4 mul exch -0.5 mul exch R dup 0.5 mul exch rL dup -1 mul exch 0.5 mul exch rL closepath} def 
%
% Triangle Down:
/TriD {dup dup dup 0.4 mul exch -0.5 mul exch R dup 0.5 mul exch -1 mul rL dup 0.5 mul exch rL closepath} def 
%
% Diamond:
/Diam {45 rotate Squa} def
% ======
% Fills
% ======
/GRF {gsave setgray fill grestore} def                    % gray-level Fill
/COF {gsave setrgbcolor fill grestore} def                % color fill
% ======
% Colors
% ======
/C01 {1.00	0.00	0.00} def      % Red
/C02 {0.00	0.00	1.00} def      % Blue
/C03 {0.00	0.39	0.00} def      % Dark Green
/C04 {0.78	0.08	0.52} def      % Medium Violet Red
/C05 {0.55	0.27	0.07} def      % Saddle Brown
/C06 {0.10	0.70	0.70} def      % (cyan)
/C07 {1.00	0.55	0.00} def      % Dark Orange
/C08 {0.63	0.13	0.94} def      % Purple
/C09 {0.00	0.75	1.00} def      % Deep Sky Blue
/C10 {0.20	0.80	0.20} def      % Lime Green
/C11 {0.47	0.53	0.60} def      % Light Slate Gray
/C12 {0.00	0.00	0.00} def      % Black            % or: {0.19	0.31	0.31} def      % Dark Slate Gray
%
/LGR {0.75} def % light gray
/DGR {0.33} def % dark gray
%
% =============
% Dash patterns
% =============
/dash01 { [80  20] 0 setdash } def
/dash02 { [40  20] 0 setdash } def
/dash03 { [80  20  10  20] 0 setdash } def
/dash04 { [40  20  10  20] 0 setdash } def
/dash05 { [80  20  10  10  10  20] 0 setdash } def
/dash06 { [40  20  10  10  10  20] 0 setdash } def
/dash07 { [10  10] 0 setdash } def
%
/MFshow {
   { dup 5 get 3 ge
     { 5 get 3 eq {gsave} {grestore} ifelse }
     {dup dup 0 get findfont exch 1 get scalefont setfont
     [ currentpoint ] exch dup 2 get 0 exch R dup 5 get 2 ne {dup dup 6
     get exch 4 get {show} {stringwidth pop 0 R} ifelse }if dup 5 get 0 eq
     {dup 3 get {2 get neg 0 exch R pop} {pop aload pop M} ifelse} {dup 5
     get 1 eq {dup 2 get exch dup 3 get exch 6 get stringwidth pop -2 div
     dup 0 R} {dup 6 get stringwidth pop -2 div 0 R 6 get
     show 2 index {aload pop M neg 3 -1 roll neg R pop pop} {pop pop pop
     pop aload pop M} ifelse }ifelse }ifelse }
     ifelse }
   forall} bind def
/MFwidth {0 exch {dup 3 get{dup dup 0 get findfont exch 1 get scalefont
     setfont 6 get stringwidth pop add} {pop} ifelse} forall} bind def
/MCshow { currentpoint stroke M
  exch dup MFwidth -2 div 3 -1 roll R MFshow } def
%
end
%%EndProlog
bkdict begin
0.1 0.1 scale
%
% Model curves:
%

GSN 753 3661 M
770 3661 L
803 3668 L
837 3675 L
870 3683 L
903 3691 L
924 3700 L
941 3703 L
970 3709 L
1003 3719 L
1037 3730 L
1070 3741 L
1096 3752 L
1113 3758 L
1137 3763 L
1170 3774 L
1203 3784 L
1237 3794 L
1268 3803 L
1284 3810 L
1303 3810 L
1337 3817 L
1370 3822 L
1403 3826 L
1437 3829 L
1456 3831 L
1473 3831 L
1503 3831 L
1537 3831 L
1570 3831 L
1603 3830 L
1628 3828 L
1644 3827 L
1670 3826 L
1703 3824 L
1737 3822 L
1770 3820 L
1799 3817 L
1816 3814 L
1837 3813 L
1870 3810 L
1903 3806 L
1937 3801 L
1970 3796 L
1987 3790 L
2004 3790 L
2037 3784 L
2070 3777 L
2103 3770 L
2137 3762 L
2159 3753 L
2176 3750 L
2203 3744 L
2237 3734 L
2270 3724 L
2303 3714 L
2331 3704 L
2347 3697 L
2370 3694 L
2403 3684 L
2437 3676 L
2470 3669 L
2503 3665 L
2519 3663 L
2537 3663 L
2570 3664 L
2603 3670 L
2637 3679 L
2670 3694 L
2690 3713 L
2707 3719 L
2737 3738 L
2770 3767 L
2803 3799 L
2837 3835 L
2862 3872 L
2879 3892 L
2903 3909 L
2937 3944 L
2970 3977 L
3003 4005 L
3034 4029 L
3050 4045 L
3070 4047 L
3103 4061 L
3137 4071 L
3170 4078 L
3203 4082 L
3222 4084 L
3239 4084 L
3270 4085 L
3303 4086 L
3337 4086 L
3370 4086 L
3393 4086 L
3410 4086 L
3437 4086 L
3464 4086 L
3481 4086 L
3503 4086 L
3537 4086 L
3565 4086 L
3582 4086 L
3603 4086 L
3637 4086 L
3670 4086 L
3703 4086 L
3737 4086 L
3753 4086 L
3770 4086 L
3803 4086 L
3837 4086 L
3870 4086 L
3903 4086 L
3925 4086 L
3942 4086 L
3970 4086 L
4003 4086 L
4037 4086 L
4070 4086 L
4086 4086 L
LWMC SL dash01 C01 COSGR

GSN 753 3382 M
770 3382 L
803 3393 L
837 3405 L
870 3418 L
903 3431 L
924 3446 L
941 3451 L
970 3462 L
1003 3479 L
1037 3496 L
1070 3514 L
1096 3533 L
1113 3543 L
1137 3551 L
1170 3569 L
1203 3586 L
1237 3602 L
1268 3617 L
1284 3629 L
1303 3630 L
1337 3641 L
1370 3650 L
1403 3657 L
1437 3662 L
1456 3665 L
1473 3665 L
1503 3666 L
1537 3667 L
1570 3666 L
1603 3664 L
1628 3662 L
1644 3661 L
1670 3660 L
1703 3657 L
1737 3654 L
1770 3650 L
1799 3646 L
1816 3643 L
1837 3642 L
1870 3637 L
1903 3631 L
1937 3625 L
1970 3618 L
1987 3610 L
2004 3609 L
2037 3601 L
2070 3592 L
2103 3582 L
2137 3571 L
2159 3559 L
2176 3555 L
2203 3547 L
2237 3534 L
2270 3520 L
2303 3507 L
2331 3494 L
2347 3486 L
2370 3481 L
2403 3470 L
2437 3461 L
2470 3454 L
2503 3450 L
2519 3451 L
2537 3451 L
2570 3456 L
2603 3467 L
2637 3485 L
2670 3509 L
2690 3539 L
2707 3548 L
2737 3577 L
2770 3620 L
2803 3667 L
2837 3718 L
2862 3770 L
2879 3798 L
2903 3821 L
2937 3869 L
2970 3913 L
3003 3952 L
3034 3984 L
3050 4006 L
3070 4010 L
3103 4030 L
3137 4046 L
3170 4057 L
3203 4065 L
3222 4071 L
3239 4071 L
3270 4075 L
3303 4078 L
3337 4080 L
3370 4082 L
3393 4083 L
3410 4084 L
3437 4084 L
3464 4085 L
3481 4085 L
3503 4085 L
3537 4086 L
3565 4086 L
3582 4086 L
3603 4086 L
3637 4086 L
3670 4086 L
3703 4086 L
3737 4086 L
3753 4086 L
3770 4086 L
3803 4086 L
3837 4086 L
3870 4086 L
3903 4086 L
3925 4086 L
3942 4086 L
3970 4086 L
4003 4086 L
4037 4086 L
4070 4086 L
4086 4086 L
LWMC SL dash02 C02 COSGR

GSN 753 2922 M
770 2922 L
803 2940 L
837 2959 L
870 2981 L
903 3004 L
924 3028 L
941 3036 L
970 3055 L
1003 3082 L
1037 3111 L
1070 3141 L
1096 3172 L
1113 3190 L
1137 3202 L
1170 3232 L
1203 3261 L
1237 3288 L
1268 3313 L
1284 3333 L
1303 3335 L
1337 3354 L
1370 3369 L
1403 3381 L
1437 3390 L
1456 3395 L
1473 3396 L
1503 3398 L
1537 3399 L
1570 3399 L
1603 3397 L
1628 3395 L
1644 3394 L
1670 3392 L
1703 3389 L
1737 3385 L
1770 3381 L
1799 3376 L
1816 3372 L
1837 3371 L
1870 3365 L
1903 3358 L
1937 3351 L
1970 3343 L
1987 3334 L
2004 3333 L
2037 3324 L
2070 3314 L
2103 3302 L
2137 3290 L
2159 3277 L
2176 3272 L
2203 3263 L
2237 3250 L
2270 3236 L
2303 3223 L
2331 3210 L
2347 3203 L
2370 3200 L
2403 3191 L
2437 3186 L
2470 3186 L
2503 3190 L
2519 3201 L
2537 3201 L
2570 3220 L
2603 3246 L
2637 3282 L
2670 3326 L
2690 3379 L
2707 3393 L
2737 3440 L
2770 3507 L
2803 3579 L
2837 3653 L
2862 3726 L
2879 3765 L
2903 3797 L
2937 3861 L
2970 3918 L
3003 3966 L
3034 4004 L
3050 4029 L
3070 4033 L
3103 4054 L
3137 4067 L
3170 4076 L
3203 4081 L
3222 4084 L
3239 4084 L
3270 4085 L
3303 4086 L
3337 4086 L
3370 4086 L
3393 4086 L
3410 4086 L
3437 4086 L
3464 4086 L
3481 4086 L
3503 4086 L
3537 4086 L
3565 4086 L
3582 4086 L
3603 4086 L
3637 4086 L
3670 4086 L
3703 4086 L
3737 4086 L
3753 4086 L
3770 4086 L
3803 4086 L
3837 4086 L
3870 4086 L
3903 4086 L
3925 4086 L
3942 4086 L
3970 4086 L
4003 4086 L
4037 4086 L
4070 4086 L
4086 4086 L
LWMC SL dash03 C03 COSGR

GSN 753 2586 M
770 2586 L
803 2609 L
837 2634 L
870 2661 L
903 2691 L
924 2723 L
941 2733 L
970 2757 L
1003 2793 L
1037 2830 L
1070 2869 L
1096 2909 L
1113 2932 L
1137 2948 L
1170 2987 L
1203 3025 L
1237 3060 L
1268 3092 L
1284 3118 L
1303 3121 L
1337 3146 L
1370 3166 L
1403 3181 L
1437 3193 L
1456 3200 L
1473 3202 L
1503 3205 L
1537 3207 L
1570 3207 L
1603 3206 L
1628 3204 L
1644 3203 L
1670 3202 L
1703 3199 L
1737 3196 L
1770 3192 L
1799 3188 L
1816 3184 L
1837 3183 L
1870 3177 L
1903 3171 L
1937 3165 L
1970 3158 L
1987 3149 L
2004 3149 L
2037 3141 L
2070 3131 L
2103 3121 L
2137 3110 L
2159 3099 L
2176 3095 L
2203 3087 L
2237 3076 L
2270 3065 L
2303 3055 L
2331 3047 L
2347 3043 L
2370 3042 L
2403 3040 L
2437 3042 L
2470 3050 L
2503 3065 L
2519 3086 L
2537 3087 L
2570 3119 L
2603 3160 L
2637 3211 L
2670 3272 L
2690 3342 L
2707 3360 L
2737 3420 L
2770 3503 L
2803 3590 L
2837 3676 L
2862 3759 L
2879 3802 L
2903 3836 L
2937 3903 L
2970 3959 L
3003 4003 L
3034 4036 L
3050 4055 L
3070 4058 L
3103 4071 L
3137 4079 L
3170 4083 L
3203 4085 L
3222 4086 L
3239 4086 L
3270 4086 L
3303 4086 L
3337 4086 L
3370 4086 L
3393 4086 L
3410 4086 L
3437 4086 L
3464 4086 L
3481 4086 L
3503 4086 L
3537 4086 L
3565 4086 L
3582 4086 L
3603 4086 L
3637 4086 L
3670 4086 L
3703 4086 L
3737 4086 L
3753 4086 L
3770 4086 L
3803 4086 L
3837 4086 L
3870 4086 L
3903 4086 L
3925 4086 L
3942 4086 L
3970 4086 L
4003 4086 L
4037 4086 L
4070 4086 L
4086 4086 L
LWMC SL dash04 C04 COSGR

GSN 753 1985 M
770 1985 L
803 2017 L
837 2053 L
870 2091 L
903 2133 L
924 2178 L
941 2192 L
970 2226 L
1003 2277 L
1037 2330 L
1070 2385 L
1096 2441 L
1113 2474 L
1137 2497 L
1170 2552 L
1203 2605 L
1237 2655 L
1268 2701 L
1284 2738 L
1303 2742 L
1337 2777 L
1370 2807 L
1403 2830 L
1437 2847 L
1456 2859 L
1473 2861 L
1503 2867 L
1537 2871 L
1570 2874 L
1603 2874 L
1628 2874 L
1644 2874 L
1670 2874 L
1703 2873 L
1737 2871 L
1770 2870 L
1799 2868 L
1816 2867 L
1837 2866 L
1870 2864 L
1903 2862 L
1937 2859 L
1970 2856 L
1987 2853 L
2004 2853 L
2037 2849 L
2070 2845 L
2103 2841 L
2137 2837 L
2159 2833 L
2176 2832 L
2203 2830 L
2237 2828 L
2270 2827 L
2303 2828 L
2331 2833 L
2347 2838 L
2370 2841 L
2403 2854 L
2437 2874 L
2470 2901 L
2503 2937 L
2519 2980 L
2537 2982 L
2570 3038 L
2603 3104 L
2637 3179 L
2670 3264 L
2690 3356 L
2707 3380 L
2737 3453 L
2770 3551 L
2803 3647 L
2837 3738 L
2862 3820 L
2879 3861 L
2903 3892 L
2937 3951 L
2970 3997 L
3003 4030 L
3034 4054 L
3050 4067 L
3070 4069 L
3103 4078 L
3137 4082 L
3170 4085 L
3203 4086 L
3222 4086 L
3239 4086 L
3270 4086 L
3303 4086 L
3337 4086 L
3370 4086 L
3393 4086 L
3410 4086 L
3437 4086 L
3464 4086 L
3481 4086 L
3503 4086 L
3537 4086 L
3565 4086 L
3582 4086 L
3603 4086 L
3637 4086 L
3670 4086 L
3703 4086 L
3737 4086 L
3753 4086 L
3770 4086 L
3803 4086 L
3837 4086 L
3870 4086 L
3903 4086 L
3925 4086 L
3942 4086 L
3970 4086 L
4003 4086 L
4037 4086 L
4070 4086 L
4086 4086 L
LWMC SL dash05 C05 COSGR

GSN 753 1573 M
770 1573 L
803 1612 L
837 1654 L
870 1701 L
903 1751 L
924 1805 L
941 1822 L
970 1863 L
1003 1924 L
1037 1988 L
1070 2054 L
1096 2121 L
1113 2161 L
1137 2188 L
1170 2255 L
1203 2319 L
1237 2380 L
1268 2435 L
1284 2480 L
1303 2485 L
1337 2528 L
1370 2564 L
1403 2592 L
1437 2614 L
1456 2629 L
1473 2631 L
1503 2640 L
1537 2647 L
1570 2651 L
1603 2654 L
1628 2656 L
1644 2656 L
1670 2657 L
1703 2658 L
1737 2660 L
1770 2661 L
1799 2662 L
1816 2664 L
1837 2664 L
1870 2666 L
1903 2667 L
1937 2669 L
1970 2671 L
1987 2673 L
2004 2673 L
2037 2675 L
2070 2677 L
2103 2679 L
2137 2682 L
2159 2686 L
2176 2688 L
2203 2691 L
2237 2697 L
2270 2706 L
2303 2717 L
2331 2732 L
2347 2744 L
2370 2752 L
2403 2777 L
2437 2810 L
2470 2850 L
2503 2900 L
2519 2956 L
2537 2959 L
2570 3028 L
2603 3106 L
2637 3193 L
2670 3288 L
2690 3386 L
2707 3411 L
2737 3487 L
2770 3586 L
2803 3681 L
2837 3768 L
2862 3846 L
2879 3883 L
2903 3912 L
2937 3965 L
2970 4007 L
3003 4037 L
3034 4058 L
3050 4069 L
3070 4071 L
3103 4079 L
3137 4083 L
3170 4085 L
3203 4086 L
3222 4086 L
3239 4086 L
3270 4086 L
3303 4086 L
3337 4086 L
3370 4086 L
3393 4086 L
3410 4086 L
3437 4086 L
3464 4086 L
3481 4086 L
3503 4086 L
3537 4086 L
3565 4086 L
3582 4086 L
3603 4086 L
3637 4086 L
3670 4086 L
3703 4086 L
3737 4086 L
3753 4086 L
3770 4086 L
3803 4086 L
3837 4086 L
3870 4086 L
3903 4086 L
3925 4086 L
3942 4086 L
3970 4086 L
4003 4086 L
4037 4086 L
4070 4086 L
4086 4086 L
LWMC SL dash06 C06 COSGR

GSN 753 753 M
770 753 L
803 805 L
837 862 L
870 924 L
903 991 L
924 1064 L
941 1086 L
970 1141 L
1003 1223 L
1037 1308 L
1070 1397 L
1096 1487 L
1113 1541 L
1137 1578 L
1170 1667 L
1203 1754 L
1237 1835 L
1268 1911 L
1284 1971 L
1303 1979 L
1337 2038 L
1370 2087 L
1403 2127 L
1437 2159 L
1456 2182 L
1473 2186 L
1503 2199 L
1537 2212 L
1570 2222 L
1603 2230 L
1628 2238 L
1644 2241 L
1670 2245 L
1703 2253 L
1737 2262 L
1770 2271 L
1799 2282 L
1816 2290 L
1837 2293 L
1870 2305 L
1903 2318 L
1937 2333 L
1970 2348 L
1987 2364 L
2004 2365 L
2037 2381 L
2070 2400 L
2103 2419 L
2137 2440 L
2159 2463 L
2176 2471 L
2203 2487 L
2237 2513 L
2270 2543 L
2303 2575 L
2331 2612 L
2347 2640 L
2370 2655 L
2403 2703 L
2437 2758 L
2470 2820 L
2503 2890 L
2519 2964 L
2537 2968 L
2570 3053 L
2603 3144 L
2637 3240 L
2670 3340 L
2690 3440 L
2707 3465 L
2737 3539 L
2770 3633 L
2803 3722 L
2837 3802 L
2862 3872 L
2879 3905 L
2903 3931 L
2937 3979 L
2970 4015 L
3003 4042 L
3034 4061 L
3050 4071 L
3070 4072 L
3103 4079 L
3137 4083 L
3170 4085 L
3203 4086 L
3222 4086 L
3239 4086 L
3270 4086 L
3303 4086 L
3337 4086 L
3370 4086 L
3393 4086 L
3410 4086 L
3437 4086 L
3464 4086 L
3481 4086 L
3503 4086 L
3537 4086 L
3565 4086 L
3582 4086 L
3603 4086 L
3637 4086 L
3670 4086 L
3703 4086 L
3737 4086 L
3753 4086 L
3770 4086 L
3803 4086 L
3837 4086 L
3870 4086 L
3903 4086 L
3925 4086 L
3942 4086 L
3970 4086 L
4003 4086 L
4037 4086 L
4070 4086 L
4086 4086 L
LWMC SL dash07 C07 COSGR

%
%================
% Legend - Begin
%================
%
GSN 4240 4040 M
4480 4040 L
LWMC SL dash01 C01 COSGR
GSN 4540 4001 M helvM (0.5 uM) show grestore
GSN 4240 3860 M
4480 3860 L
LWMC SL dash02 C02 COSGR
GSN 4540 3821 M helvM (1.0 uM) show grestore
GSN 4240 3680 M
4480 3680 L
LWMC SL dash03 C03 COSGR
GSN 4540 3641 M helvM (1.5 uM) show grestore
GSN 4240 3500 M
4480 3500 L
LWMC SL dash04 C04 COSGR
GSN 4540 3461 M helvM (2.0 uM) show grestore
GSN 4240 3320 M
4480 3320 L
LWMC SL dash05 C05 COSGR
GSN 4540 3281 M helvM (2.5 uM) show grestore
GSN 4240 3140 M
4480 3140 L
LWMC SL dash06 C06 COSGR
GSN 4540 3101 M helvM (3.0 uM) show grestore
GSN 4240 2960 M
4480 2960 L
LWMC SL dash07 C07 COSGR
GSN 4540 2921 M helvM (4.0 uM) show grestore
%
%================
% Legend - End
%================
%

%
% Main frame
%
L10
GSN 
620 620 M
4220 620 L
4220 4220 L
620 4220 L
closepath SGR

%
% X axis: large tics
%
L10
GSN 1130 620 M 0  54 rL SGR
GSN 1130 4220 M 0 -54 rL SGR
helvS (0.0001) 1130 470 xlabel
GSN 1716 620 M 0  54 rL SGR
GSN 1716 4220 M 0 -54 rL SGR
helvS (0.001) 1716 470 xlabel
GSN 2303 620 M 0  54 rL SGR
GSN 2303 4220 M 0 -54 rL SGR
helvS (0.01) 2303 470 xlabel
GSN 2889 620 M 0  54 rL SGR
GSN 2889 4220 M 0 -54 rL SGR
helvS (0.1) 2889 470 xlabel
GSN 3476 620 M 0  54 rL SGR
GSN 3476 4220 M 0 -54 rL SGR
helvS (1) 3476 470 xlabel
GSN 4062 620 M 0  54 rL SGR
GSN 4062 4220 M 0 -54 rL SGR
helvS (10) 4062 470 xlabel
%
% X axis: small tics
%
L5
GSN 720 620 M 0  36 rL SGR
GSN 720 4220 M 0 -36 rL SGR
GSN 824 620 M 0  36 rL SGR
GSN 824 4220 M 0 -36 rL SGR
GSN 897 620 M 0  36 rL SGR
GSN 897 4220 M 0 -36 rL SGR
GSN 954 620 M 0  36 rL SGR
GSN 954 4220 M 0 -36 rL SGR
GSN 1000 620 M 0  36 rL SGR
GSN 1000 4220 M 0 -36 rL SGR
GSN 1039 620 M 0  36 rL SGR
GSN 1039 4220 M 0 -36 rL SGR
GSN 1073 620 M 0  36 rL SGR
GSN 1073 4220 M 0 -36 rL SGR
GSN 1103 620 M 0  36 rL SGR
GSN 1103 4220 M 0 -36 rL SGR
GSN 1307 620 M 0  36 rL SGR
GSN 1307 4220 M 0 -36 rL SGR
GSN 1410 620 M 0  36 rL SGR
GSN 1410 4220 M 0 -36 rL SGR
GSN 1483 620 M 0  36 rL SGR
GSN 1483 4220 M 0 -36 rL SGR
GSN 1540 620 M 0  36 rL SGR
GSN 1540 4220 M 0 -36 rL SGR
GSN 1586 620 M 0  36 rL SGR
GSN 1586 4220 M 0 -36 rL SGR
GSN 1626 620 M 0  36 rL SGR
GSN 1626 4220 M 0 -36 rL SGR
GSN 1660 620 M 0  36 rL SGR
GSN 1660 4220 M 0 -36 rL SGR
GSN 1690 620 M 0  36 rL SGR
GSN 1690 4220 M 0 -36 rL SGR
GSN 1893 620 M 0  36 rL SGR
GSN 1893 4220 M 0 -36 rL SGR
GSN 1996 620 M 0  36 rL SGR
GSN 1996 4220 M 0 -36 rL SGR
GSN 2069 620 M 0  36 rL SGR
GSN 2069 4220 M 0 -36 rL SGR
GSN 2126 620 M 0  36 rL SGR
GSN 2126 4220 M 0 -36 rL SGR
GSN 2173 620 M 0  36 rL SGR
GSN 2173 4220 M 0 -36 rL SGR
GSN 2212 620 M 0  36 rL SGR
GSN 2212 4220 M 0 -36 rL SGR
GSN 2246 620 M 0  36 rL SGR
GSN 2246 4220 M 0 -36 rL SGR
GSN 2276 620 M 0  36 rL SGR
GSN 2276 4220 M 0 -36 rL SGR
GSN 2479 620 M 0  36 rL SGR
GSN 2479 4220 M 0 -36 rL SGR
GSN 2583 620 M 0  36 rL SGR
GSN 2583 4220 M 0 -36 rL SGR
GSN 2656 620 M 0  36 rL SGR
GSN 2656 4220 M 0 -36 rL SGR
GSN 2713 620 M 0  36 rL SGR
GSN 2713 4220 M 0 -36 rL SGR
GSN 2759 620 M 0  36 rL SGR
GSN 2759 4220 M 0 -36 rL SGR
GSN 2798 620 M 0  36 rL SGR
GSN 2798 4220 M 0 -36 rL SGR
GSN 2832 620 M 0  36 rL SGR
GSN 2832 4220 M 0 -36 rL SGR
GSN 2862 620 M 0  36 rL SGR
GSN 2862 4220 M 0 -36 rL SGR
GSN 3066 620 M 0  36 rL SGR
GSN 3066 4220 M 0 -36 rL SGR
GSN 3169 620 M 0  36 rL SGR
GSN 3169 4220 M 0 -36 rL SGR
GSN 3242 620 M 0  36 rL SGR
GSN 3242 4220 M 0 -36 rL SGR
GSN 3299 620 M 0  36 rL SGR
GSN 3299 4220 M 0 -36 rL SGR
GSN 3345 620 M 0  36 rL SGR
GSN 3345 4220 M 0 -36 rL SGR
GSN 3385 620 M 0  36 rL SGR
GSN 3385 4220 M 0 -36 rL SGR
GSN 3419 620 M 0  36 rL SGR
GSN 3419 4220 M 0 -36 rL SGR
GSN 3449 620 M 0  36 rL SGR
GSN 3449 4220 M 0 -36 rL SGR
GSN 3652 620 M 0  36 rL SGR
GSN 3652 4220 M 0 -36 rL SGR
GSN 3755 620 M 0  36 rL SGR
GSN 3755 4220 M 0 -36 rL SGR
GSN 3829 620 M 0  36 rL SGR
GSN 3829 4220 M 0 -36 rL SGR
GSN 3885 620 M 0  36 rL SGR
GSN 3885 4220 M 0 -36 rL SGR
GSN 3932 620 M 0  36 rL SGR
GSN 3932 4220 M 0 -36 rL SGR
GSN 3971 620 M 0  36 rL SGR
GSN 3971 4220 M 0 -36 rL SGR
GSN 4005 620 M 0  36 rL SGR
GSN 4005 4220 M 0 -36 rL SGR
GSN 4035 620 M 0  36 rL SGR
GSN 4035 4220 M 0 -36 rL SGR
%
% Y axis: large tics
%
L10
GSN 620 1372 M 54 0 rL SGR
GSN 4220 1372 M -54 0 rL SGR
helvS (-2) 560 1372 ylabel
GSN 620 2729 M 54 0 rL SGR
GSN 4220 2729 M -54 0 rL SGR
helvS (-1) 560 2729 ylabel
GSN 620 4086 M 54 0 rL SGR
GSN 4220 4086 M -54 0 rL SGR
helvS (0) 560 4086 ylabel
%
% Y axis: small tics
%
L5
GSN 620 693 M 36 0 rL SGR
GSN 4220 693 M -36 0 rL SGR
GSN 620 1032 M 36 0 rL SGR
GSN 4220 1032 M -36 0 rL SGR
GSN 620 1372 M 36 0 rL SGR
GSN 4220 1372 M -36 0 rL SGR
GSN 620 1711 M 36 0 rL SGR
GSN 4220 1711 M -36 0 rL SGR
GSN 620 2050 M 36 0 rL SGR
GSN 4220 2050 M -36 0 rL SGR
GSN 620 2390 M 36 0 rL SGR
GSN 4220 2390 M -36 0 rL SGR
GSN 620 2729 M 36 0 rL SGR
GSN 4220 2729 M -36 0 rL SGR
GSN 620 3068 M 36 0 rL SGR
GSN 4220 3068 M -36 0 rL SGR
GSN 620 3408 M 36 0 rL SGR
GSN 4220 3408 M -36 0 rL SGR
GSN 620 3747 M 36 0 rL SGR
GSN 4220 3747 M -36 0 rL SGR
GSN 620 4086 M 36 0 rL SGR
GSN 4220 4086 M -36 0 rL SGR

%
% X axis
%
GSN L5 620 4086 M 4220 4086 L SDA G50 SGR

%
% X-Axis label:
%
gsave 2420 290 M 
[
[(Helvetica) 180 0 true true 0 (t)]
[(Helvetica) 180 0 true true 0 (i)]
[(Helvetica) 180 0 true true 0 (m)]
[(Helvetica) 180 0 true true 0 (e)]
] 0 MCshow grestore

%
% Y-Axis label:
%
gsave 234 2420 M 
currentpoint gsave translate 90 rotate 0 0 moveto
[
[(Helvetica) 180 0 true true 0 (d)]
[(Helvetica) 180 0 true true 0 (\()]
[(Helvetica) 180 0 true true 0 (s)]
[(Helvetica) 180 0 true true 0 (i)]
[(Helvetica) 180 0 true true 0 (g)]
[(Helvetica) 180 0 true true 0 (n)]
[(Helvetica) 180 0 true true 0 (a)]
[(Helvetica) 180 0 true true 0 (l)]
[(Helvetica) 180 0 true true 0 (\))]
[(Helvetica) 180 0 true true 0 ( )]
[(Helvetica) 180 0 true true 0 (/)]
[(Helvetica) 180 0 true true 0 ( )]
[(Helvetica) 180 0 true true 0 (d)]
[(Helvetica) 180 0 true true 0 (t)]
] 0 MCshow grestore

end
showpage
%%Trailer
%%EOF
