%!PS-Adobe-3.0 EPSF-3.0
%%BoundingBox: 0 0 514 550
%%Creator: BioKin Ltd.
%%DocumentFonts: Symbol Helvetica
%%EndComments
%
/bkdict 256 dict def
bkdict begin
/M {moveto} def 
/R {rmoveto} def
/L {lineto} def
/rL {rlineto} def
/GSN {gsave newpath} def
/SGR {stroke grestore} def
/COSGR {gsave setrgbcolor stroke grestore grestore} def
/SL {setlinewidth} def
/LWMB {12} def             % line width - model curves, black & white
/LWMC {10} def             % line width - model curves, color
/L2 {2.5 setlinewidth} def
/L5 {5 setlinewidth} def
/L10 {10 setlinewidth} def
/G50 {0.5 setgray} def
/SDA {[10  20] 0 setdash} def % axes
/helvT {/Helvetica findfont 100 scalefont setfont} def % tiny
/helvS {/Helvetica findfont 125 scalefont setfont} def % small
/helvM {/Helvetica findfont 150 scalefont setfont} def % medium
/helvL {/Helvetica findfont 175 scalefont setfont} def % large
/xlabel {gsave M dup
   stringwidth exch -0.5 mul exch rmoveto show grestore} def 
/ylabel {gsave M 90 rotate dup
   stringwidth exch -0.5 mul exch rmoveto show grestore} def
/ylabelresid {gsave M dup
   stringwidth exch -1 mul exch rmoveto show grestore} def
% ======
% Shapes
% ======
% Circle:
/Circ {0 360 arc closepath} def
%
% Square:
/Squa {dup dup -0.5 mul dup dup R -2 mul 0 exch rL 1 mul 0 rL dup 0 exch -1 mul rL closepath} def
%
% Triangle Up:
/TriU {dup dup dup -0.4 mul exch -0.5 mul exch R dup 0.5 mul exch rL dup -1 mul exch 0.5 mul exch rL closepath} def 
%
% Triangle Down:
/TriD {dup dup dup 0.4 mul exch -0.5 mul exch R dup 0.5 mul exch -1 mul rL dup 0.5 mul exch rL closepath} def 
%
% Diamond:
/Diam {45 rotate Squa} def
% ======
% Fills
% ======
/GRF {gsave setgray fill grestore} def                    % gray-level Fill
/COF {gsave setrgbcolor fill grestore} def                % color fill
% ======
% Colors
% ======
/C01 {1.00	0.00	0.00} def      % Red
/C02 {0.00	0.00	1.00} def      % Blue
/C03 {0.00	0.39	0.00} def      % Dark Green
/C04 {0.78	0.08	0.52} def      % Medium Violet Red
/C05 {0.55	0.27	0.07} def      % Saddle Brown
/C06 {0.10	0.70	0.70} def      % (cyan)
/C07 {1.00	0.55	0.00} def      % Dark Orange
/C08 {0.63	0.13	0.94} def      % Purple
/C09 {0.00	0.75	1.00} def      % Deep Sky Blue
/C10 {0.20	0.80	0.20} def      % Lime Green
/C11 {0.47	0.53	0.60} def      % Light Slate Gray
/C12 {0.00	0.00	0.00} def      % Black            % or: {0.19	0.31	0.31} def      % Dark Slate Gray
%
/LGR {0.75} def % light gray
/DGR {0.33} def % dark gray
%
% =============
% Dash patterns
% =============
/dash01 { [80  20] 0 setdash } def
/dash02 { [40  20] 0 setdash } def
/dash03 { [80  20  10  20] 0 setdash } def
/dash04 { [40  20  10  20] 0 setdash } def
/dash05 { [80  20  10  10  10  20] 0 setdash } def
/dash06 { [40  20  10  10  10  20] 0 setdash } def
/dash07 { [10  10] 0 setdash } def
%
/MFshow {
   { dup 5 get 3 ge
     { 5 get 3 eq {gsave} {grestore} ifelse }
     {dup dup 0 get findfont exch 1 get scalefont setfont
     [ currentpoint ] exch dup 2 get 0 exch R dup 5 get 2 ne {dup dup 6
     get exch 4 get {show} {stringwidth pop 0 R} ifelse }if dup 5 get 0 eq
     {dup 3 get {2 get neg 0 exch R pop} {pop aload pop M} ifelse} {dup 5
     get 1 eq {dup 2 get exch dup 3 get exch 6 get stringwidth pop -2 div
     dup 0 R} {dup 6 get stringwidth pop -2 div 0 R 6 get
     show 2 index {aload pop M neg 3 -1 roll neg R pop pop} {pop pop pop
     pop aload pop M} ifelse }ifelse }ifelse }
     ifelse }
   forall} bind def
/MFwidth {0 exch {dup 3 get{dup dup 0 get findfont exch 1 get scalefont
     setfont 6 get stringwidth pop add} {pop} ifelse} forall} bind def
/MCshow { currentpoint stroke M
  exch dup MFwidth -2 div 3 -1 roll R MFshow } def
%
end
%%EndProlog
bkdict begin
0.1 0.1 scale
%
% Residuals:
%
GSN 620 4863 M
620 4496 L
620 4562 L
620 4858 L
620 4688 L
620 4554 L
620 4572 L
620 4562 L
620 4600 L
620 4511 L
620 4529 L
620 4245 L
620 4714 L
620 4306 L
620 4478 L
620 4547 L
620 4478 L
620 4532 L
620 4192 L
620 4334 L
620 4248 L
620 4096 L
620 4159 L
620 4255 L
620 4045 L
620 4301 L
620 4440 L
620 4233 L
620 4362 L
620 4144 L
620 4005 L
620 3693 L
620 3868 L
620 3898 L
620 4141 L
620 4129 L
620 3964 L
620 3977 L
620 4063 L
620 4045 L
620 4167 L
620 4347 L
620 3779 L
620 3898 L
620 3577 L
620 3719 L
620 3587 L
620 3860 L
620 3873 L
620 3800 L
620 3886 L
620 3964 L
620 3536 L
620 3121 L
620 3364 L
620 3609 L
620 3779 L
620 3974 L
620 3610 L
620 3473 L
620 3341 L
620 3736 L
620 3295 L
620 3442 L
620 3726 L
620 3643 L
620 3263 L
620 3501 L
620 3475 L
620 3323 L
620 3280 L
620 3610 L
620 3389 L
620 3488 L
620 3257 L
620 3468 L
620 3478 L
620 3432 L
620 3349 L
620 3354 L
620 3425 L
620 3189 L
620 3146 L
620 3230 L
620 3323 L
620 3255 L
620 3285 L
620 3306 L
620 2895 L
620 2971 L
620 3032 L
620 3419 L
620 2903 L
620 2581 L
620 3187 L
620 2817 L
620 3047 L
620 2683 L
620 3014 L
620 2908 L
620 2754 L
620 2609 L
620 2905 L
620 2764 L
620 2288 L
620 2718 L
620 2759 L
620 2321 L
620 2804 L
620 2607 L
620 2865 L
620 2455 L
620 2898 L
620 2885 L
620 2789 L
620 2632 L
620 2645 L
620 2683 L
620 2523 L
620 2589 L
620 2683 L
620 2657 L
620 2632 L
620 2358 L
620 2551 L
620 2505 L
620 2336 L
620 2475 L
620 2698 L
620 2371 L
620 2594 L
620 2386 L
620 2407 L
620 2341 L
620 2498 L
620 2452 L
620 2389 L
620 2407 L
620 2604 L
620 2343 L
620 2500 L
620 2310 L
620 2363 L
620 2417 L
620 2371 L
620 2336 L
620 2290 L
620 2328 L
620 2303 L
620 2460 L
620 2549 L
620 2351 L
620 2538 L
620 2794 L
620 2359 L
620 2295 L
620 2321 L
620 2627 L
620 2452 L
620 2445 L
620 2820 L
620 2731 L
620 2257 L
620 2581 L
620 2349 L
620 2556 L
620 2554 L
620 2534 L
620 2571 L
620 2569 L
620 2693 L
620 2359 L
620 2787 L
620 2769 L
620 2617 L
620 2903 L
620 2136 L
620 2435 L
620 2706 L
620 2447 L
620 2521 L
620 2538 L
620 2528 L
620 2627 L
620 2187 L
620 2655 L
620 2766 L
620 3233 L
620 2566 L
620 3088 L
620 2321 L
620 2832 L
620 2718 L
620 2341 L
620 2690 L
620 2761 L
620 2721 L
620 2437 L
620 2718 L
620 2526 L
620 2574 L
620 2594 L
620 2706 L
620 2762 L
620 2465 L
620 2534 L
620 2521 L
620 2873 L
620 2789 L
620 2468 L
620 2789 L
620 2668 L
620 2810 L
620 3017 L
620 2906 L
620 2855 L
620 2888 L
620 2896 L
620 3091 L
620 2736 L
620 2799 L
620 3053 L
620 2934 L
620 2663 L
620 2703 L
620 2959 L
620 2627 L
620 2992 L
620 2455 L
620 2698 L
620 2886 L
620 3055 L
620 3023 L
620 2865 L
620 2837 L
620 2711 L
620 2708 L
620 2794 L
620 2703 L
620 2893 L
620 2653 L
620 2630 L
620 2615 L
620 2810 L
620 2752 L
620 2746 L
620 2820 L
620 2635 L
620 2853 L
620 3045 L
620 2946 L
620 2617 L
620 3081 L
620 3184 L
620 2919 L
620 2724 L
620 2655 L
620 2825 L
620 2822 L
620 2635 L
620 2516 L
620 2683 L
620 2486 L
620 2622 L
620 3258 L
620 3066 L
620 2860 L
620 2898 L
620 3218 L
620 3162 L
620 2876 L
620 2536 L
620 2562 L
620 3134 L
620 3220 L
620 2893 L
620 3210 L
620 3040 L
620 2630 L
620 2896 L
620 2686 L
620 2812 L
620 2990 L
620 2924 L
620 2810 L
620 3129 L
620 2765 L
620 3081 L
620 3193 L
620 3061 L
620 2965 L
620 3150 L
620 3180 L
620 3110 L
620 3259 L
620 3320 L
620 2958 L
620 3077 L
620 2935 L
620 3184 L
620 2738 L
620 2915 L
620 2923 L
620 2963 L
620 3214 L
620 2943 L
620 3128 L
620 3377 L
620 3012 L
620 3050 L
620 3010 L
620 3184 L
620 2891 L
620 2957 L
620 3018 L
620 3030 L
620 2992 L
620 3010 L
620 3167 L
620 2782 L
620 3352 L
620 3423 L
620 2922 L
620 3170 L
620 2631 L
620 3018 L
620 3330 L
620 2854 L
620 2737 L
620 2943 L
620 3133 L
620 3376 L
620 2996 L
620 2748 L
620 2981 L
620 3022 L
620 3242 L
620 2925 L
620 2989 L
620 2905 L
620 2822 L
620 3174 L
620 3035 L
620 2865 L
620 3129 L
620 2962 L
620 3065 L
620 3278 L
620 2914 L
620 2810 L
620 3202 L
620 3126 L
620 2782 L
620 2793 L
620 2978 L
620 2755 L
620 2946 L
620 3029 L
620 2936 L
620 3410 L
620 2716 L
620 3119 L
620 3117 L
620 3353 L
620 2864 L
620 2953 L
620 2877 L
620 3075 L
620 2731 L
620 2947 L
620 2861 L
620 2897 L
620 3102 L
620 2748 L
620 3191 L
620 3260 L
620 3020 L
620 2845 L
620 2744 L
620 3160 L
620 3026 L
620 3147 L
620 2694 L
620 2953 L
620 3039 L
620 2949 L
620 3040 L
620 2891 L
620 3208 L
620 2927 L
620 3066 L
620 2978 L
620 3029 L
620 3037 L
620 2964 L
620 2987 L
620 3200 L
620 2795 L
620 2924 L
620 3082 L
620 3155 L
620 2819 L
620 3181 L
620 3019 L
620 3306 L
620 2723 L
620 3213 L
620 3079 L
620 2985 L
620 2866 L
620 2998 L
620 3024 L
620 3181 L
620 3159 L
620 2713 L
620 2809 L
620 2974 L
620 2851 L
620 3026 L
620 3191 L
620 2712 L
620 2806 L
620 2819 L
620 3123 L
620 2635 L
620 2913 L
620 2780 L
620 2947 L
620 3008 L
620 3097 L
620 3158 L
620 3054 L
620 2898 L
620 3106 L
620 3106 L
620 3096 L
620 3038 L
620 2942 L
620 2590 L
620 2864 L
620 3320 L
620 3209 L
620 2963 L
620 3073 L
620 3200 L
620 2637 L
620 3124 L
620 3096 L
620 2737 L
620 3028 L
620 2669 L
620 2948 L
620 3196 L
620 3268 L
620 2880 L
620 3336 L
620 2782 L
620 3035 L
620 3015 L
620 3309 L
620 2748 L
620 3234 L
620 3199 L
620 3040 L
620 2931 L
620 2987 L
620 2936 L
620 3314 L
620 2929 L
620 3069 L
620 3234 L
620 2978 L
620 3036 L
620 2971 L
620 3346 L
620 2969 L
620 2835 L
620 3230 L
620 3121 L
620 3185 L
620 2828 L
620 3155 L
620 3107 L
620 3267 L
620 3330 L
620 3207 L
620 3012 L
620 3136 L
620 3035 L
620 3142 L
620 3489 L
620 3087 L
620 3208 L
620 2963 L
620 3189 L
620 2999 L
620 3110 L
620 3101 L
620 3164 L
620 2893 L
620 2969 L
620 2775 L
620 3185 L
620 3482 L
620 2641 L
620 3325 L
620 3042 L
620 2958 L
620 3217 L
620 3281 L
620 3005 L
620 3347 L
620 3223 L
620 2960 L
620 3094 L
620 3067 L
620 3110 L
620 3318 L
620 3202 L
620 3037 L
620 3557 L
620 3050 L
620 3078 L
620 3251 L
620 3210 L
620 2808 L
620 3097 L
620 2725 L
620 2999 L
620 3148 L
620 3237 L
620 2971 L
620 3199 L
L2 C01 COSGR

%
%================
% Legend - Begin
%================
%
GSN 4240 5180 M
4480 5180 L
LWMC SL  C01 COSGR
GSN 4540 5141 M helvM (0.5 uM) show grestore
%
%================
% Legend - End
%================
%

%
% Main frame
%
L10
GSN 
620 1700 M
4220 1700 L
4220 5300 L
620 5300 L
closepath SGR

%
% X axis: large tics
%
L10
%
% X axis: small tics
%
L5
%
% Y axis: large tics
%
L10
GSN 620 2055 M 54 0 rL SGR
GSN 4220 2055 M -54 0 rL SGR
helvS (-0.02) 560 2055 ylabel
GSN 620 3051 M 54 0 rL SGR
GSN 4220 3051 M -54 0 rL SGR
helvS (0) 560 3051 ylabel
GSN 620 4047 M 54 0 rL SGR
GSN 4220 4047 M -54 0 rL SGR
helvS (0.02) 560 4047 ylabel
GSN 620 5043 M 54 0 rL SGR
GSN 4220 5043 M -54 0 rL SGR
helvS (0.04) 560 5043 ylabel
%
% Y axis: small tics
%
L5
GSN 620 1806 M 36 0 rL SGR
GSN 4220 1806 M -36 0 rL SGR
GSN 620 2055 M 36 0 rL SGR
GSN 4220 2055 M -36 0 rL SGR
GSN 620 2304 M 36 0 rL SGR
GSN 4220 2304 M -36 0 rL SGR
GSN 620 2553 M 36 0 rL SGR
GSN 4220 2553 M -36 0 rL SGR
GSN 620 2802 M 36 0 rL SGR
GSN 4220 2802 M -36 0 rL SGR
GSN 620 3051 M 36 0 rL SGR
GSN 4220 3051 M -36 0 rL SGR
GSN 620 3300 M 36 0 rL SGR
GSN 4220 3300 M -36 0 rL SGR
GSN 620 3549 M 36 0 rL SGR
GSN 4220 3549 M -36 0 rL SGR
GSN 620 3798 M 36 0 rL SGR
GSN 4220 3798 M -36 0 rL SGR
GSN 620 4047 M 36 0 rL SGR
GSN 4220 4047 M -36 0 rL SGR
GSN 620 4296 M 36 0 rL SGR
GSN 4220 4296 M -36 0 rL SGR
GSN 620 4545 M 36 0 rL SGR
GSN 4220 4545 M -36 0 rL SGR
GSN 620 4794 M 36 0 rL SGR
GSN 4220 4794 M -36 0 rL SGR
GSN 620 5043 M 36 0 rL SGR
GSN 4220 5043 M -36 0 rL SGR
GSN 620 5292 M 36 0 rL SGR
GSN 4220 5292 M -36 0 rL SGR

%
% X axis - residual panel
%
GSN L5 620 3051 M 4220 3051 L SDA G50 SGR

%
% X-Axis label:
%
gsave 620 1370 M 
[
[(Helvetica) 180 0 true true 0 (t)]
[(Helvetica) 180 0 true true 0 (i)]
[(Helvetica) 180 0 true true 0 (m)]
[(Helvetica) 180 0 true true 0 (e)]
] 0 MCshow grestore

%
% Y-Axis label:
%
gsave 234 3500 M 
currentpoint gsave translate 90 rotate 0 0 moveto
[
[(Helvetica) 180 0 true true 0 (r)]
[(Helvetica) 180 0 true true 0 (e)]
[(Helvetica) 180 0 true true 0 (s)]
[(Helvetica) 180 0 true true 0 (i)]
[(Helvetica) 180 0 true true 0 (d)]
[(Helvetica) 180 0 true true 0 (u)]
[(Helvetica) 180 0 true true 0 (a)]
[(Helvetica) 180 0 true true 0 (l)]
[(Helvetica) 180 0 true true 0 (s)]
] 0 MCshow grestore

end
showpage
%%Trailer
%%EOF
