%!PS-Adobe-3.0 EPSF-3.0
%%BoundingBox: 0 0 514 550
%%Creator: BioKin Ltd.
%%DocumentFonts: Symbol Helvetica
%%EndComments
%
/bkdict 256 dict def
bkdict begin
/M {moveto} def 
/R {rmoveto} def
/L {lineto} def
/rL {rlineto} def
/GSN {gsave newpath} def
/SGR {stroke grestore} def
/COSGR {gsave setrgbcolor stroke grestore grestore} def
/SL {setlinewidth} def
/LWMB {12} def             % line width - model curves, black & white
/LWMC {10} def             % line width - model curves, color
/L2 {2.5 setlinewidth} def
/L5 {5 setlinewidth} def
/L10 {10 setlinewidth} def
/G50 {0.5 setgray} def
/SDA {[10  20] 0 setdash} def % axes
/helvT {/Helvetica findfont 100 scalefont setfont} def % tiny
/helvS {/Helvetica findfont 125 scalefont setfont} def % small
/helvM {/Helvetica findfont 150 scalefont setfont} def % medium
/helvL {/Helvetica findfont 175 scalefont setfont} def % large
/xlabel {gsave M dup
   stringwidth exch -0.5 mul exch rmoveto show grestore} def 
/ylabel {gsave M 90 rotate dup
   stringwidth exch -0.5 mul exch rmoveto show grestore} def
/ylabelresid {gsave M dup
   stringwidth exch -1 mul exch rmoveto show grestore} def
% ======
% Shapes
% ======
% Circle:
/Circ {0 360 arc closepath} def
%
% Square:
/Squa {dup dup -0.5 mul dup dup R -2 mul 0 exch rL 1 mul 0 rL dup 0 exch -1 mul rL closepath} def
%
% Triangle Up:
/TriU {dup dup dup -0.4 mul exch -0.5 mul exch R dup 0.5 mul exch rL dup -1 mul exch 0.5 mul exch rL closepath} def 
%
% Triangle Down:
/TriD {dup dup dup 0.4 mul exch -0.5 mul exch R dup 0.5 mul exch -1 mul rL dup 0.5 mul exch rL closepath} def 
%
% Diamond:
/Diam {45 rotate Squa} def
% ======
% Fills
% ======
/GRF {gsave setgray fill grestore} def                    % gray-level Fill
/COF {gsave setrgbcolor fill grestore} def                % color fill
% ======
% Colors
% ======
/C01 {1.00	0.00	0.00} def      % Red
/C02 {0.00	0.00	1.00} def      % Blue
/C03 {0.00	0.39	0.00} def      % Dark Green
/C04 {0.78	0.08	0.52} def      % Medium Violet Red
/C05 {0.55	0.27	0.07} def      % Saddle Brown
/C06 {0.10	0.70	0.70} def      % (cyan)
/C07 {1.00	0.55	0.00} def      % Dark Orange
/C08 {0.63	0.13	0.94} def      % Purple
/C09 {0.00	0.75	1.00} def      % Deep Sky Blue
/C10 {0.20	0.80	0.20} def      % Lime Green
/C11 {0.47	0.53	0.60} def      % Light Slate Gray
/C12 {0.00	0.00	0.00} def      % Black            % or: {0.19	0.31	0.31} def      % Dark Slate Gray
%
/LGR {0.75} def % light gray
/DGR {0.33} def % dark gray
%
% =============
% Dash patterns
% =============
/dash01 { [80  20] 0 setdash } def
/dash02 { [40  20] 0 setdash } def
/dash03 { [80  20  10  20] 0 setdash } def
/dash04 { [40  20  10  20] 0 setdash } def
/dash05 { [80  20  10  10  10  20] 0 setdash } def
/dash06 { [40  20  10  10  10  20] 0 setdash } def
/dash07 { [10  10] 0 setdash } def
%
/MFshow {
   { dup 5 get 3 ge
     { 5 get 3 eq {gsave} {grestore} ifelse }
     {dup dup 0 get findfont exch 1 get scalefont setfont
     [ currentpoint ] exch dup 2 get 0 exch R dup 5 get 2 ne {dup dup 6
     get exch 4 get {show} {stringwidth pop 0 R} ifelse }if dup 5 get 0 eq
     {dup 3 get {2 get neg 0 exch R pop} {pop aload pop M} ifelse} {dup 5
     get 1 eq {dup 2 get exch dup 3 get exch 6 get stringwidth pop -2 div
     dup 0 R} {dup 6 get stringwidth pop -2 div 0 R 6 get
     show 2 index {aload pop M neg 3 -1 roll neg R pop pop} {pop pop pop
     pop aload pop M} ifelse }ifelse }ifelse }
     ifelse }
   forall} bind def
/MFwidth {0 exch {dup 3 get{dup dup 0 get findfont exch 1 get scalefont
     setfont 6 get stringwidth pop add} {pop} ifelse} forall} bind def
/MCshow { currentpoint stroke M
  exch dup MFwidth -2 div 3 -1 roll R MFshow } def
%
end
%%EndProlog
bkdict begin
0.1 0.1 scale
%
% Residuals:
%
GSN 620 3819 M
620 3670 L
620 2561 L
620 2894 L
620 3715 L
620 3311 L
620 2781 L
620 3190 L
620 3241 L
620 2989 L
620 2990 L
620 3458 L
620 3311 L
620 3566 L
620 3698 L
620 3975 L
620 3247 L
620 3169 L
620 3392 L
620 3475 L
620 3361 L
620 2971 L
620 4099 L
620 3973 L
620 3969 L
620 4325 L
620 3558 L
620 3687 L
620 3271 L
620 3783 L
620 3439 L
620 3996 L
620 3266 L
620 3932 L
620 4261 L
620 3600 L
620 3118 L
620 3361 L
620 2768 L
620 3317 L
620 3746 L
620 3672 L
620 3541 L
620 3011 L
620 3088 L
620 3213 L
620 3579 L
620 3545 L
620 3551 L
620 3450 L
620 3304 L
620 3297 L
620 2954 L
620 3516 L
620 3247 L
620 3452 L
620 3329 L
620 3641 L
620 3723 L
620 3563 L
620 2694 L
620 3054 L
620 3341 L
620 3508 L
620 3573 L
620 2859 L
620 3584 L
620 3623 L
620 4212 L
620 2749 L
620 3038 L
620 2541 L
620 2556 L
620 2779 L
620 2994 L
620 3111 L
620 3503 L
620 3623 L
620 3380 L
620 3746 L
620 3728 L
620 3496 L
620 2510 L
620 3331 L
620 2772 L
620 3162 L
620 3249 L
620 3722 L
620 3989 L
620 3122 L
620 3446 L
620 2915 L
620 3812 L
620 3166 L
620 3527 L
620 3245 L
620 3520 L
620 2591 L
620 3734 L
620 2981 L
620 3338 L
620 2904 L
620 3109 L
620 3768 L
620 3486 L
620 3330 L
620 3383 L
620 3723 L
620 3595 L
620 3087 L
620 3488 L
620 3123 L
620 3616 L
620 3401 L
620 2848 L
620 2843 L
620 3497 L
620 3775 L
620 3217 L
620 3013 L
620 3424 L
620 3470 L
620 3526 L
620 3347 L
620 3030 L
620 3715 L
620 3306 L
620 3518 L
620 3264 L
620 3052 L
620 2729 L
620 3028 L
620 3320 L
620 3801 L
620 3098 L
620 3449 L
620 2792 L
620 2855 L
620 3017 L
620 3166 L
620 2734 L
620 3664 L
620 3713 L
620 2815 L
620 3087 L
620 3351 L
620 3332 L
620 3219 L
620 3200 L
620 3423 L
620 3027 L
620 2987 L
620 3726 L
620 3483 L
620 3275 L
620 2906 L
620 3624 L
620 3512 L
620 3466 L
620 3264 L
620 3171 L
620 3378 L
620 3911 L
620 3693 L
620 3481 L
620 3424 L
620 2492 L
620 2944 L
620 3007 L
620 3727 L
620 3321 L
620 3576 L
620 3324 L
620 3193 L
620 2794 L
620 3109 L
620 3349 L
620 3343 L
620 3806 L
620 3256 L
620 3537 L
620 2726 L
620 3112 L
620 2965 L
620 2999 L
620 4143 L
620 3807 L
620 3362 L
620 3496 L
620 3380 L
620 2971 L
620 3661 L
620 3127 L
620 3395 L
620 3666 L
620 3489 L
620 3128 L
620 3061 L
620 3288 L
620 3123 L
620 3557 L
620 3096 L
620 3523 L
620 3644 L
620 2899 L
620 3535 L
620 3497 L
620 3190 L
620 3305 L
620 3123 L
620 3519 L
620 3261 L
620 3219 L
620 3269 L
620 3471 L
620 2726 L
620 3394 L
620 3255 L
620 3114 L
620 3781 L
620 3910 L
620 2548 L
620 2434 L
620 2675 L
620 4045 L
620 3928 L
620 3651 L
620 3841 L
620 3331 L
620 3656 L
620 3136 L
620 3379 L
620 3702 L
620 3734 L
620 3728 L
620 3518 L
620 3255 L
620 3416 L
620 3088 L
620 3636 L
620 2857 L
620 3016 L
620 3246 L
620 4142 L
620 3181 L
620 3241 L
620 2953 L
620 3307 L
620 2964 L
620 2792 L
620 3434 L
620 4020 L
620 3706 L
620 3228 L
620 3111 L
620 3896 L
620 3417 L
620 3594 L
620 3482 L
620 3419 L
620 4069 L
620 3223 L
620 4057 L
620 3836 L
620 3740 L
620 3413 L
620 3304 L
620 3947 L
620 2604 L
620 3518 L
620 3243 L
620 2705 L
620 3844 L
620 3598 L
620 3125 L
620 4023 L
620 3487 L
620 3071 L
620 3582 L
620 3807 L
620 2994 L
620 2621 L
620 3638 L
620 3464 L
620 3193 L
620 3430 L
620 3919 L
620 3750 L
620 2927 L
620 3583 L
620 3488 L
620 2927 L
620 3737 L
620 3484 L
620 3283 L
620 2886 L
620 3598 L
620 3739 L
620 3312 L
620 3264 L
620 2925 L
620 4040 L
620 3381 L
620 3775 L
620 3080 L
620 3441 L
620 3811 L
620 2988 L
620 3595 L
620 3097 L
620 3699 L
620 3925 L
620 3561 L
620 3101 L
620 2614 L
620 3522 L
620 3049 L
620 3838 L
620 3456 L
620 3724 L
620 3229 L
620 3221 L
620 3004 L
620 2954 L
620 2823 L
620 3167 L
620 3196 L
620 3845 L
620 3906 L
620 3612 L
620 2783 L
620 3448 L
620 2959 L
620 3728 L
620 3131 L
620 3403 L
620 3798 L
620 2932 L
620 3023 L
620 3197 L
620 3340 L
620 3131 L
620 3284 L
620 3735 L
620 3550 L
620 3197 L
620 2829 L
620 3538 L
620 3620 L
620 3300 L
620 3582 L
620 2767 L
620 3202 L
620 3594 L
620 3620 L
620 3980 L
620 3392 L
620 3317 L
620 3279 L
620 3410 L
620 3386 L
620 3638 L
620 3333 L
620 2876 L
620 2892 L
620 3325 L
620 3639 L
620 3701 L
620 2928 L
620 3222 L
620 3452 L
620 3191 L
620 3688 L
620 3623 L
620 3155 L
620 3790 L
620 3025 L
620 3452 L
620 3663 L
620 4125 L
620 3294 L
620 3241 L
620 2865 L
620 3071 L
620 3579 L
620 3072 L
620 2970 L
620 3497 L
620 3469 L
620 3217 L
620 4180 L
620 3189 L
620 3703 L
620 3143 L
620 3280 L
620 3137 L
620 3215 L
620 3807 L
620 3373 L
620 3386 L
620 4046 L
620 3485 L
620 2473 L
620 3726 L
620 3227 L
620 2446 L
620 3022 L
620 3128 L
620 3714 L
620 3690 L
620 3857 L
620 3559 L
620 3821 L
620 3659 L
620 3223 L
620 2974 L
620 3127 L
620 3535 L
620 3676 L
620 2812 L
620 2986 L
620 3116 L
620 3787 L
620 3493 L
620 3335 L
620 3405 L
620 2997 L
620 3355 L
620 3506 L
620 3499 L
620 3002 L
620 3530 L
620 2949 L
620 2814 L
620 3837 L
620 2978 L
620 3377 L
620 3732 L
620 3644 L
620 3190 L
620 3473 L
620 4246 L
620 3533 L
620 3635 L
620 3304 L
620 3462 L
620 3137 L
620 2636 L
620 3588 L
620 3510 L
620 3283 L
620 3395 L
620 3421 L
620 3418 L
620 3910 L
620 3240 L
620 3759 L
620 3057 L
620 3700 L
620 3763 L
620 2886 L
620 3884 L
620 3415 L
620 3424 L
620 3136 L
620 3124 L
620 3026 L
620 3130 L
620 2469 L
620 3349 L
620 3279 L
620 3221 L
620 2799 L
620 3357 L
620 3053 L
620 4077 L
620 2757 L
620 2810 L
620 3830 L
620 3230 L
620 3177 L
620 3742 L
620 3295 L
620 3210 L
620 3142 L
620 3413 L
620 3549 L
620 3468 L
620 2940 L
620 2761 L
620 3564 L
620 3157 L
620 3423 L
620 2749 L
620 3519 L
620 3512 L
620 3278 L
620 3275 L
620 3256 L
620 3767 L
620 2402 L
620 3281 L
620 3534 L
620 2683 L
620 3383 L
620 2876 L
620 3412 L
620 2771 L
620 3351 L
620 2781 L
620 3391 L
620 3383 L
620 3523 L
620 2902 L
620 3428 L
620 3328 L
620 3008 L
620 3316 L
620 3382 L
620 3151 L
620 3340 L
620 3275 L
620 3212 L
620 4230 L
620 4185 L
620 2872 L
620 3349 L
620 3056 L
620 3253 L
620 2935 L
620 3287 L
620 2799 L
620 3150 L
620 3676 L
620 3453 L
620 3788 L
620 2671 L
620 3250 L
620 3033 L
620 3702 L
620 3223 L
620 3224 L
620 3445 L
620 3140 L
620 2823 L
620 3270 L
620 3360 L
620 3472 L
620 2631 L
620 3335 L
620 3028 L
620 3279 L
620 2656 L
620 3043 L
620 3054 L
620 2736 L
620 4149 L
620 2993 L
620 3056 L
620 2680 L
620 3623 L
620 2737 L
620 3375 L
620 3034 L
620 3493 L
620 3201 L
620 3095 L
620 3532 L
620 2834 L
620 3332 L
620 3064 L
620 3357 L
620 2833 L
620 3034 L
620 3857 L
620 3200 L
620 3364 L
620 3091 L
620 2997 L
620 3199 L
620 3447 L
620 3125 L
620 2715 L
620 3102 L
620 3052 L
620 2677 L
620 2975 L
620 3380 L
620 3184 L
620 2483 L
620 3017 L
620 3620 L
620 3371 L
620 3129 L
620 3601 L
620 3442 L
620 3023 L
620 3323 L
620 3346 L
620 3091 L
620 3032 L
620 3305 L
620 3204 L
620 3300 L
620 3172 L
620 3129 L
620 2882 L
620 3103 L
620 3253 L
620 3284 L
620 2971 L
620 3543 L
620 3023 L
620 3330 L
620 3078 L
620 3105 L
620 3146 L
620 3146 L
620 2877 L
620 2957 L
620 3053 L
620 3440 L
620 3024 L
620 2942 L
620 3056 L
620 3113 L
620 2502 L
620 2991 L
620 3372 L
620 3371 L
620 3199 L
620 3258 L
620 3470 L
620 3066 L
620 3356 L
620 3200 L
620 3598 L
620 3112 L
620 3469 L
620 3583 L
620 3370 L
620 3295 L
620 3527 L
620 3322 L
620 3263 L
620 2660 L
620 2960 L
620 3012 L
620 3194 L
620 3047 L
620 3173 L
620 2817 L
620 2634 L
620 3466 L
620 2701 L
620 3580 L
620 2870 L
620 3223 L
620 3056 L
620 2999 L
620 3092 L
620 3064 L
620 3011 L
620 2875 L
620 3027 L
620 3199 L
620 2139 L
620 2991 L
620 3098 L
620 2945 L
620 3111 L
620 2940 L
620 3042 L
620 3237 L
620 3397 L
620 3348 L
620 2443 L
620 2972 L
620 3466 L
620 3202 L
620 3114 L
620 2754 L
620 3225 L
620 3239 L
620 3077 L
620 2998 L
620 3397 L
620 3055 L
620 2819 L
620 3053 L
620 2926 L
620 3071 L
620 2828 L
620 3088 L
620 3249 L
620 3067 L
620 2739 L
620 3525 L
620 2557 L
620 2497 L
620 3222 L
620 3056 L
620 2443 L
620 3545 L
620 3243 L
620 3190 L
620 3286 L
620 3447 L
620 3033 L
620 3051 L
620 3117 L
620 3796 L
620 3386 L
620 3130 L
620 3445 L
620 3268 L
620 3243 L
620 2934 L
620 3466 L
620 4000 L
620 3237 L
620 3161 L
620 2551 L
620 3146 L
620 3336 L
620 3548 L
620 3193 L
620 3437 L
620 2848 L
620 3159 L
620 3678 L
620 3148 L
620 3264 L
620 2770 L
620 3514 L
620 2234 L
620 3683 L
620 2699 L
620 3295 L
620 3681 L
620 2517 L
620 3700 L
620 3046 L
620 3623 L
620 3055 L
620 2925 L
620 3285 L
620 3325 L
620 3433 L
620 3232 L
620 3610 L
620 3486 L
620 3022 L
620 3196 L
620 3025 L
620 3399 L
620 2999 L
620 3219 L
620 2991 L
620 3506 L
620 2895 L
620 3156 L
620 4054 L
620 3204 L
620 2955 L
620 3202 L
620 3641 L
620 3368 L
620 3437 L
620 2136 L
620 3206 L
620 2781 L
620 3274 L
620 3416 L
620 3176 L
620 3144 L
620 3495 L
620 3849 L
620 2742 L
620 3550 L
620 3031 L
620 2925 L
620 3176 L
620 3437 L
620 3103 L
620 3388 L
620 3371 L
620 3038 L
620 3287 L
620 3079 L
620 2929 L
620 3409 L
620 2865 L
620 3335 L
620 3492 L
620 3122 L
620 2841 L
620 2688 L
620 3592 L
620 2672 L
620 2663 L
620 2774 L
620 3396 L
620 2838 L
620 3420 L
620 3071 L
620 3562 L
620 3270 L
620 3396 L
620 3401 L
620 3467 L
620 2834 L
620 3228 L
620 3794 L
620 2951 L
620 2788 L
620 3266 L
620 3628 L
620 2969 L
620 2717 L
620 3324 L
620 3245 L
620 3266 L
620 3675 L
620 3112 L
620 3091 L
620 3074 L
620 3388 L
620 3256 L
620 3085 L
620 3038 L
620 3543 L
620 3208 L
620 2972 L
620 2887 L
620 2978 L
620 3783 L
620 3469 L
620 2985 L
620 3473 L
620 3632 L
620 3303 L
620 2857 L
620 2717 L
620 2962 L
620 3014 L
620 3668 L
620 3126 L
620 3514 L
620 3112 L
620 3559 L
620 3060 L
620 2869 L
620 2890 L
620 2523 L
620 3288 L
620 3311 L
620 3285 L
620 3626 L
620 3080 L
620 3349 L
620 3946 L
620 3112 L
620 3215 L
620 3572 L
620 3567 L
620 3693 L
620 2986 L
620 3152 L
620 2500 L
620 2986 L
620 2973 L
620 3117 L
620 3350 L
620 2890 L
620 2971 L
620 3267 L
620 3565 L
620 2892 L
620 3327 L
620 3467 L
620 3548 L
620 3293 L
620 2630 L
620 3016 L
620 3316 L
620 3188 L
620 2706 L
620 3475 L
620 3456 L
620 2950 L
620 3134 L
620 3559 L
620 3046 L
620 3059 L
620 3050 L
620 3401 L
620 3543 L
620 3542 L
620 3400 L
620 3071 L
620 3383 L
620 3501 L
620 2740 L
620 3872 L
620 3328 L
620 3462 L
620 2986 L
620 3028 L
620 3062 L
620 3716 L
620 2949 L
620 3179 L
620 2902 L
620 3251 L
620 3166 L
620 3140 L
620 3015 L
620 2962 L
620 3209 L
620 3460 L
620 3154 L
620 3536 L
620 3463 L
620 3507 L
620 3058 L
620 3005 L
620 3547 L
620 2883 L
620 2826 L
620 3503 L
620 2847 L
620 2791 L
620 3101 L
620 3047 L
620 3490 L
620 2983 L
620 3162 L
620 3256 L
620 3265 L
620 2875 L
620 3208 L
620 3090 L
620 3380 L
620 3549 L
620 3132 L
620 3133 L
620 2913 L
620 3557 L
620 2917 L
620 3211 L
620 3663 L
620 3570 L
620 3618 L
620 3038 L
620 3518 L
620 3390 L
620 2863 L
620 3243 L
620 2908 L
620 2731 L
620 3308 L
620 3159 L
620 2927 L
620 3356 L
620 3050 L
620 3246 L
620 3175 L
620 2730 L
620 3073 L
620 3330 L
620 2875 L
620 4029 L
620 3156 L
620 3114 L
620 3283 L
620 3423 L
620 3318 L
620 3229 L
620 3230 L
620 2824 L
620 3059 L
620 3293 L
620 3426 L
620 3529 L
620 2984 L
620 2737 L
620 3342 L
620 3714 L
620 3486 L
620 2894 L
620 3298 L
620 3121 L
620 3328 L
620 3214 L
620 3324 L
620 3036 L
620 3349 L
620 3724 L
620 3437 L
620 3078 L
620 3249 L
620 3341 L
620 3145 L
620 3368 L
620 3341 L
620 3114 L
620 3687 L
620 3217 L
620 3528 L
620 2561 L
620 3250 L
620 3071 L
620 3113 L
620 2928 L
620 3820 L
620 3223 L
620 3362 L
620 3382 L
620 3050 L
620 3071 L
620 3642 L
620 3400 L
620 2252 L
620 3285 L
620 3117 L
620 3110 L
620 2878 L
620 3500 L
620 3210 L
620 3269 L
620 3453 L
620 3059 L
620 3492 L
620 2980 L
620 2985 L
620 2780 L
620 3465 L
620 3022 L
620 3069 L
620 3207 L
620 3032 L
620 2970 L
620 3154 L
620 3047 L
620 3423 L
620 3576 L
620 3389 L
620 2856 L
620 3609 L
620 3109 L
620 3790 L
620 3226 L
620 3232 L
620 3409 L
620 3024 L
620 2896 L
620 3772 L
620 2905 L
620 3282 L
620 3340 L
620 3393 L
620 3331 L
620 3328 L
620 3796 L
620 2623 L
620 2546 L
620 2535 L
620 3256 L
620 3097 L
620 3013 L
620 3193 L
620 3192 L
620 3407 L
620 3840 L
620 3279 L
620 3522 L
620 3398 L
620 2947 L
620 2916 L
620 3593 L
620 3704 L
620 3226 L
620 3242 L
620 3475 L
620 3421 L
620 3150 L
620 3469 L
620 3045 L
620 3740 L
620 3314 L
620 2947 L
620 2580 L
620 3636 L
620 3691 L
620 3293 L
620 2826 L
620 3272 L
620 3446 L
620 2921 L
620 3297 L
620 3729 L
620 2680 L
620 3386 L
620 3240 L
620 3209 L
620 3409 L
620 3100 L
620 3183 L
620 3138 L
620 3701 L
620 2740 L
620 2891 L
620 3476 L
620 3201 L
620 3580 L
620 3420 L
620 3415 L
620 2715 L
620 3130 L
620 3607 L
620 3354 L
620 3753 L
620 3816 L
620 3978 L
620 2726 L
620 3381 L
620 2838 L
620 2758 L
620 2971 L
620 3202 L
620 3642 L
620 2624 L
620 3344 L
620 3577 L
620 3946 L
620 2897 L
620 2964 L
620 2741 L
620 2929 L
620 3475 L
620 3176 L
620 3108 L
620 3040 L
620 3325 L
620 3533 L
620 3609 L
620 3465 L
620 3235 L
620 3479 L
620 3196 L
620 3130 L
620 2944 L
620 3042 L
620 3363 L
620 3510 L
620 3713 L
620 3272 L
620 3405 L
620 3296 L
620 3376 L
620 2997 L
620 2994 L
620 2959 L
620 3285 L
620 2961 L
620 3100 L
620 3280 L
620 3607 L
620 3480 L
620 3462 L
620 3275 L
620 3556 L
620 3414 L
620 3168 L
620 3172 L
620 3147 L
620 3487 L
620 3237 L
620 3655 L
620 3943 L
620 3251 L
620 3429 L
620 3320 L
620 3330 L
620 3887 L
620 3222 L
620 3183 L
620 3594 L
620 3024 L
620 3006 L
620 3452 L
620 3194 L
620 2512 L
620 3040 L
620 3712 L
620 3234 L
620 3232 L
620 3075 L
620 3081 L
620 3234 L
620 3197 L
620 3060 L
620 3082 L
620 3703 L
620 3445 L
620 3228 L
620 3373 L
620 3266 L
620 2933 L
620 3223 L
620 3262 L
620 2732 L
620 3313 L
620 3991 L
620 3794 L
620 4120 L
620 3041 L
620 3109 L
620 2879 L
620 3190 L
620 2910 L
620 3078 L
620 2867 L
620 3430 L
620 2928 L
620 3059 L
620 3096 L
620 3892 L
620 3354 L
620 2723 L
620 2773 L
620 2578 L
620 3319 L
620 3110 L
620 3692 L
620 3051 L
620 3051 L
620 2889 L
620 3282 L
620 2996 L
620 2957 L
620 3877 L
620 3295 L
620 3635 L
620 2998 L
620 4311 L
620 3117 L
620 3633 L
620 3347 L
620 2921 L
620 2845 L
620 3068 L
620 3171 L
620 2598 L
620 2968 L
620 3259 L
620 3534 L
620 3222 L
620 3046 L
620 3235 L
620 3452 L
620 2494 L
620 3075 L
620 3581 L
620 3512 L
620 2629 L
620 3520 L
620 3082 L
620 3142 L
620 3631 L
620 3525 L
620 3400 L
620 2821 L
620 3091 L
620 3136 L
620 3200 L
620 3510 L
620 3540 L
620 3180 L
620 3148 L
620 3101 L
620 4407 L
620 3205 L
620 3042 L
620 3167 L
620 4004 L
620 4189 L
620 3138 L
620 3092 L
620 3524 L
620 3743 L
620 3332 L
620 3566 L
620 3476 L
620 2823 L
620 3232 L
620 3231 L
620 3389 L
620 3634 L
620 2920 L
620 3643 L
620 3246 L
620 3715 L
620 3351 L
620 4049 L
620 3417 L
620 3260 L
620 3088 L
620 3846 L
620 3559 L
620 3023 L
620 3771 L
620 3034 L
620 3708 L
620 3536 L
620 3084 L
620 3260 L
620 3353 L
620 3070 L
620 3720 L
620 3100 L
620 3319 L
620 3432 L
620 2885 L
620 3471 L
620 3533 L
620 3623 L
620 3114 L
620 3563 L
620 3432 L
620 3688 L
620 3479 L
620 3472 L
620 3747 L
620 3235 L
620 3542 L
620 3350 L
620 2824 L
620 2581 L
620 2850 L
620 3087 L
620 3346 L
620 2908 L
620 3087 L
620 3390 L
620 3570 L
620 3438 L
620 3424 L
620 3524 L
620 3770 L
620 3871 L
620 3472 L
620 3270 L
620 3082 L
620 3150 L
620 3539 L
620 3663 L
620 3300 L
620 3194 L
620 2409 L
620 3267 L
620 3556 L
620 2981 L
620 3409 L
620 3447 L
620 3187 L
620 3501 L
620 3120 L
620 2961 L
620 3238 L
620 2892 L
620 3275 L
620 3452 L
620 3256 L
620 3306 L
620 3202 L
620 3900 L
620 3323 L
620 2669 L
620 3676 L
620 3603 L
620 3260 L
620 3782 L
620 3115 L
620 3029 L
620 3644 L
620 3131 L
620 2638 L
620 3101 L
620 3439 L
620 2865 L
620 3919 L
620 3027 L
620 3306 L
620 3458 L
620 3635 L
620 3601 L
620 3230 L
620 2846 L
620 3825 L
620 3016 L
620 3144 L
620 3626 L
620 3163 L
620 3689 L
620 3244 L
620 3376 L
620 3112 L
620 3699 L
620 3599 L
620 3070 L
620 3412 L
620 3379 L
620 3749 L
620 3551 L
620 3667 L
620 3968 L
620 3302 L
620 3497 L
620 3925 L
620 3945 L
620 3392 L
620 3154 L
620 3426 L
620 2932 L
620 3566 L
620 3817 L
620 3931 L
620 3302 L
620 3539 L
620 3252 L
620 3442 L
620 3770 L
620 3221 L
620 4123 L
620 2766 L
620 3057 L
620 3681 L
620 3886 L
620 3572 L
620 2720 L
620 3832 L
620 3649 L
620 4045 L
620 3767 L
620 3780 L
620 3437 L
620 3500 L
620 2828 L
620 3107 L
620 3901 L
620 3019 L
620 3667 L
620 3080 L
620 3662 L
620 3001 L
620 3967 L
620 3595 L
620 3459 L
620 3679 L
620 3323 L
620 2746 L
620 3214 L
620 3642 L
620 3614 L
620 3217 L
620 3788 L
620 3200 L
620 3187 L
620 3715 L
620 4299 L
620 3578 L
620 2911 L
620 3590 L
620 3676 L
620 2632 L
620 2789 L
620 4101 L
620 3260 L
620 2888 L
620 3933 L
620 3423 L
620 2991 L
620 3933 L
620 3780 L
620 3293 L
620 3512 L
620 3754 L
620 3193 L
620 3583 L
620 3266 L
620 4035 L
620 3176 L
620 3787 L
620 3426 L
620 3674 L
620 3747 L
620 3232 L
620 3155 L
620 3507 L
620 3781 L
620 3189 L
620 3803 L
620 3692 L
620 3825 L
620 3822 L
620 3371 L
620 3575 L
620 3703 L
620 3475 L
620 2655 L
620 3896 L
620 2465 L
620 3806 L
620 3314 L
620 3209 L
620 3316 L
620 3559 L
620 3966 L
620 4014 L
620 2788 L
620 3676 L
620 3430 L
620 3831 L
620 2933 L
620 3465 L
620 3524 L
620 2996 L
620 4217 L
620 4053 L
620 3469 L
620 3262 L
620 3464 L
620 3459 L
620 3556 L
620 3650 L
620 3584 L
620 2974 L
620 3509 L
620 3558 L
620 3187 L
620 3120 L
620 4400 L
620 3163 L
620 3381 L
620 3639 L
620 3557 L
620 3572 L
620 3214 L
620 3436 L
620 4023 L
620 3296 L
620 2778 L
620 3009 L
620 3687 L
620 3871 L
620 3290 L
620 3889 L
620 3638 L
620 3339 L
620 3845 L
620 3812 L
620 3523 L
620 3886 L
620 3264 L
620 3269 L
620 3883 L
620 4106 L
620 3074 L
620 3307 L
620 4293 L
620 3556 L
620 3192 L
620 4242 L
620 3632 L
620 3448 L
620 3688 L
620 3305 L
620 3182 L
620 3509 L
620 3049 L
620 3350 L
620 3644 L
620 3256 L
620 3186 L
620 2757 L
620 2836 L
620 3417 L
620 3755 L
620 3427 L
620 3099 L
620 2964 L
620 3642 L
620 3099 L
620 3407 L
620 2938 L
620 3163 L
620 3204 L
620 3603 L
620 3022 L
620 3468 L
620 3862 L
620 3974 L
620 3445 L
620 3163 L
620 4117 L
620 3463 L
620 3718 L
620 3293 L
620 3414 L
620 2236 L
620 3429 L
620 3583 L
620 3741 L
620 3675 L
620 3007 L
620 3593 L
620 3585 L
620 3982 L
620 3429 L
620 3099 L
620 3524 L
620 3595 L
620 3355 L
620 3431 L
620 3498 L
620 3741 L
620 3099 L
620 3127 L
620 3122 L
620 2901 L
620 3764 L
620 4166 L
620 3736 L
620 3196 L
620 3308 L
620 2817 L
620 3912 L
620 3639 L
620 3065 L
620 3119 L
620 3674 L
620 3303 L
620 3262 L
620 3380 L
620 3556 L
620 2881 L
620 3042 L
620 3966 L
620 3743 L
620 3900 L
620 3211 L
620 3485 L
620 3602 L
620 3224 L
620 4230 L
620 2896 L
620 3459 L
620 3318 L
620 3953 L
620 3380 L
620 3720 L
620 2870 L
620 3416 L
620 3884 L
620 3751 L
620 3827 L
620 3833 L
620 2983 L
620 3211 L
620 2384 L
620 3236 L
620 3078 L
620 2980 L
620 3653 L
620 3088 L
620 3676 L
620 3607 L
620 3113 L
620 3489 L
620 3060 L
620 3758 L
620 3139 L
620 2903 L
620 3139 L
620 3405 L
620 3280 L
620 3728 L
620 3300 L
620 3379 L
620 3499 L
620 3551 L
620 3064 L
620 3369 L
620 4506 L
620 3387 L
620 3264 L
620 3510 L
620 3036 L
620 3379 L
620 3185 L
620 2660 L
620 3264 L
620 3755 L
620 3689 L
620 3169 L
620 3323 L
620 3661 L
620 3407 L
620 3064 L
620 3149 L
620 4863 L
620 3103 L
620 3653 L
620 2918 L
620 3658 L
620 3473 L
620 3481 L
620 3000 L
620 3223 L
620 3748 L
620 2872 L
620 4126 L
620 3673 L
620 3067 L
620 3655 L
620 3228 L
620 3571 L
620 3586 L
620 3358 L
620 3763 L
620 3642 L
620 3007 L
620 3840 L
620 3688 L
620 3617 L
620 2905 L
620 2806 L
620 3742 L
620 3128 L
620 3632 L
620 3269 L
620 4069 L
620 3225 L
620 3409 L
620 3161 L
620 3192 L
620 2831 L
620 3875 L
620 3010 L
620 4080 L
620 3450 L
620 3225 L
620 3721 L
620 2895 L
620 3273 L
L2 C04 COSGR

%
%================
% Legend - Begin
%================
%
GSN 4240 5180 M
4480 5180 L
LWMC SL  C04 COSGR
GSN 4540 5141 M helvM (2.0 uM) show grestore
%
%================
% Legend - End
%================
%

%
% Main frame
%
L10
GSN 
620 1700 M
4220 1700 L
4220 5300 L
620 5300 L
closepath SGR

%
% X axis: large tics
%
L10
%
% X axis: small tics
%
L5
%
% Y axis: large tics
%
L10
GSN 620 1971 M 54 0 rL SGR
GSN 4220 1971 M -54 0 rL SGR
helvS (-0.01) 560 1971 ylabel
GSN 620 3313 M 54 0 rL SGR
GSN 4220 3313 M -54 0 rL SGR
helvS (0) 560 3313 ylabel
GSN 620 4655 M 54 0 rL SGR
GSN 4220 4655 M -54 0 rL SGR
helvS (0.01) 560 4655 ylabel
%
% Y axis: small tics
%
L5
GSN 620 1971 M 36 0 rL SGR
GSN 4220 1971 M -36 0 rL SGR
GSN 620 2307 M 36 0 rL SGR
GSN 4220 2307 M -36 0 rL SGR
GSN 620 2642 M 36 0 rL SGR
GSN 4220 2642 M -36 0 rL SGR
GSN 620 2977 M 36 0 rL SGR
GSN 4220 2977 M -36 0 rL SGR
GSN 620 3313 M 36 0 rL SGR
GSN 4220 3313 M -36 0 rL SGR
GSN 620 3648 M 36 0 rL SGR
GSN 4220 3648 M -36 0 rL SGR
GSN 620 3984 M 36 0 rL SGR
GSN 4220 3984 M -36 0 rL SGR
GSN 620 4319 M 36 0 rL SGR
GSN 4220 4319 M -36 0 rL SGR
GSN 620 4655 M 36 0 rL SGR
GSN 4220 4655 M -36 0 rL SGR
GSN 620 4990 M 36 0 rL SGR
GSN 4220 4990 M -36 0 rL SGR

%
% X axis - residual panel
%
GSN L5 620 3313 M 4220 3313 L SDA G50 SGR

%
% X-Axis label:
%
gsave 620 1370 M 
[
[(Helvetica) 180 0 true true 0 (t)]
[(Helvetica) 180 0 true true 0 (i)]
[(Helvetica) 180 0 true true 0 (m)]
[(Helvetica) 180 0 true true 0 (e)]
] 0 MCshow grestore

%
% Y-Axis label:
%
gsave 234 3500 M 
currentpoint gsave translate 90 rotate 0 0 moveto
[
[(Helvetica) 180 0 true true 0 (r)]
[(Helvetica) 180 0 true true 0 (e)]
[(Helvetica) 180 0 true true 0 (s)]
[(Helvetica) 180 0 true true 0 (i)]
[(Helvetica) 180 0 true true 0 (d)]
[(Helvetica) 180 0 true true 0 (u)]
[(Helvetica) 180 0 true true 0 (a)]
[(Helvetica) 180 0 true true 0 (l)]
[(Helvetica) 180 0 true true 0 (s)]
] 0 MCshow grestore

end
showpage
%%Trailer
%%EOF
