%!PS-Adobe-3.0 EPSF-3.0
%%BoundingBox: 0 0 514 550
%%Creator: BioKin Ltd.
%%DocumentFonts: Symbol Helvetica
%%EndComments
%
/bkdict 256 dict def
bkdict begin
/M {moveto} def 
/R {rmoveto} def
/L {lineto} def
/rL {rlineto} def
/GSN {gsave newpath} def
/SGR {stroke grestore} def
/COSGR {gsave setrgbcolor stroke grestore grestore} def
/SL {setlinewidth} def
/LWMB {12} def             % line width - model curves, black & white
/LWMC {10} def             % line width - model curves, color
/L2 {2.5 setlinewidth} def
/L5 {5 setlinewidth} def
/L10 {10 setlinewidth} def
/G50 {0.5 setgray} def
/SDA {[10  20] 0 setdash} def % axes
/helvT {/Helvetica findfont 100 scalefont setfont} def % tiny
/helvS {/Helvetica findfont 125 scalefont setfont} def % small
/helvM {/Helvetica findfont 150 scalefont setfont} def % medium
/helvL {/Helvetica findfont 175 scalefont setfont} def % large
/xlabel {gsave M dup
   stringwidth exch -0.5 mul exch rmoveto show grestore} def 
/ylabel {gsave M 90 rotate dup
   stringwidth exch -0.5 mul exch rmoveto show grestore} def
/ylabelresid {gsave M dup
   stringwidth exch -1 mul exch rmoveto show grestore} def
% ======
% Shapes
% ======
% Circle:
/Circ {0 360 arc closepath} def
%
% Square:
/Squa {dup dup -0.5 mul dup dup R -2 mul 0 exch rL 1 mul 0 rL dup 0 exch -1 mul rL closepath} def
%
% Triangle Up:
/TriU {dup dup dup -0.4 mul exch -0.5 mul exch R dup 0.5 mul exch rL dup -1 mul exch 0.5 mul exch rL closepath} def 
%
% Triangle Down:
/TriD {dup dup dup 0.4 mul exch -0.5 mul exch R dup 0.5 mul exch -1 mul rL dup 0.5 mul exch rL closepath} def 
%
% Diamond:
/Diam {45 rotate Squa} def
% ======
% Fills
% ======
/GRF {gsave setgray fill grestore} def                    % gray-level Fill
/COF {gsave setrgbcolor fill grestore} def                % color fill
% ======
% Colors
% ======
/C01 {1.00	0.00	0.00} def      % Red
/C02 {0.00	0.00	1.00} def      % Blue
/C03 {0.00	0.39	0.00} def      % Dark Green
/C04 {0.78	0.08	0.52} def      % Medium Violet Red
/C05 {0.55	0.27	0.07} def      % Saddle Brown
/C06 {0.10	0.70	0.70} def      % (cyan)
/C07 {1.00	0.55	0.00} def      % Dark Orange
/C08 {0.63	0.13	0.94} def      % Purple
/C09 {0.00	0.75	1.00} def      % Deep Sky Blue
/C10 {0.20	0.80	0.20} def      % Lime Green
/C11 {0.47	0.53	0.60} def      % Light Slate Gray
/C12 {0.00	0.00	0.00} def      % Black            % or: {0.19	0.31	0.31} def      % Dark Slate Gray
%
/LGR {0.75} def % light gray
/DGR {0.33} def % dark gray
%
% =============
% Dash patterns
% =============
/dash01 { [80  20] 0 setdash } def
/dash02 { [40  20] 0 setdash } def
/dash03 { [80  20  10  20] 0 setdash } def
/dash04 { [40  20  10  20] 0 setdash } def
/dash05 { [80  20  10  10  10  20] 0 setdash } def
/dash06 { [40  20  10  10  10  20] 0 setdash } def
/dash07 { [10  10] 0 setdash } def
%
/MFshow {
   { dup 5 get 3 ge
     { 5 get 3 eq {gsave} {grestore} ifelse }
     {dup dup 0 get findfont exch 1 get scalefont setfont
     [ currentpoint ] exch dup 2 get 0 exch R dup 5 get 2 ne {dup dup 6
     get exch 4 get {show} {stringwidth pop 0 R} ifelse }if dup 5 get 0 eq
     {dup 3 get {2 get neg 0 exch R pop} {pop aload pop M} ifelse} {dup 5
     get 1 eq {dup 2 get exch dup 3 get exch 6 get stringwidth pop -2 div
     dup 0 R} {dup 6 get stringwidth pop -2 div 0 R 6 get
     show 2 index {aload pop M neg 3 -1 roll neg R pop pop} {pop pop pop
     pop aload pop M} ifelse }ifelse }ifelse }
     ifelse }
   forall} bind def
/MFwidth {0 exch {dup 3 get{dup dup 0 get findfont exch 1 get scalefont
     setfont 6 get stringwidth pop add} {pop} ifelse} forall} bind def
/MCshow { currentpoint stroke M
  exch dup MFwidth -2 div 3 -1 roll R MFshow } def
%
end
%%EndProlog
bkdict begin
0.1 0.1 scale
%
% Model curves:
%

GSN 753 4772 M
753 4772 L
786 4772 L
820 4772 L
853 4773 L
886 4773 L
920 4773 L
929 4773 L
953 4773 L
986 4773 L
1020 4773 L
1053 4774 L
1086 4774 L
1106 4774 L
1120 4774 L
1153 4775 L
1186 4775 L
1220 4775 L
1253 4776 L
1282 4776 L
1286 4776 L
1319 4777 L
1353 4777 L
1386 4778 L
1419 4779 L
1453 4779 L
1459 4779 L
1486 4780 L
1519 4780 L
1553 4780 L
1586 4781 L
1619 4780 L
1635 4780 L
1653 4780 L
1686 4779 L
1719 4778 L
1753 4776 L
1786 4773 L
1812 4770 L
1819 4769 L
1853 4763 L
1886 4756 L
1919 4748 L
1953 4737 L
1986 4725 L
1988 4724 L
2019 4710 L
2053 4692 L
2086 4671 L
2119 4648 L
2153 4621 L
2165 4610 L
2186 4590 L
2219 4556 L
2253 4517 L
2286 4473 L
2319 4425 L
2341 4390 L
2353 4371 L
2386 4311 L
2419 4245 L
2453 4172 L
2486 4092 L
2518 4009 L
2519 4005 L
2553 3911 L
2586 3809 L
2619 3700 L
2653 3585 L
2686 3463 L
2694 3432 L
2719 3337 L
2753 3206 L
2786 3073 L
2819 2939 L
2853 2807 L
2871 2736 L
2886 2678 L
2919 2555 L
2953 2441 L
2986 2339 L
3019 2251 L
3047 2189 L
3053 2179 L
3086 2126 L
3119 2092 L
3153 2078 L
3186 2085 L
3219 2111 L
3224 2116 L
3253 2153 L
3286 2208 L
3319 2273 L
3353 2342 L
3386 2413 L
3400 2443 L
3419 2482 L
3453 2549 L
3476 2593 L
3486 2613 L
3519 2671 L
3553 2725 L
3577 2759 L
3586 2772 L
3619 2812 L
3653 2847 L
3686 2875 L
3719 2898 L
3753 2917 L
3754 2917 L
3786 2932 L
3819 2944 L
3853 2954 L
3886 2962 L
3919 2970 L
3930 2972 L
3953 2976 L
3986 2982 L
4019 2987 L
4053 2991 L
4086 2995 L
4086 2995 L
LWMC SL  C05 COSGR

%
% Experimental data:
%
GSN 777 5166 M
1388 4942 L
1552 4683 L
1652 4688 L
1723 4885 L
1778 4774 L
1824 4641 L
1863 4529 L
1896 4738 L
1926 4648 L
1952 4577 L
1976 4544 L
1998 4624 L
2019 4621 L
2037 4566 L
2055 4790 L
2071 4602 L
2086 4563 L
2101 4656 L
2115 4704 L
2128 4725 L
2140 4589 L
2152 4543 L
2163 4709 L
2174 4703 L
2184 4518 L
2194 4517 L
2204 4573 L
2213 4445 L
2222 4421 L
2230 4465 L
2239 4397 L
2247 4424 L
2255 4628 L
2262 4377 L
2270 4418 L
2277 4452 L
2284 4515 L
2290 4469 L
2297 4428 L
2303 4428 L
2310 4400 L
2316 4413 L
2322 4290 L
2328 4202 L
2333 4365 L
2339 4430 L
2344 4359 L
2350 4275 L
2355 4088 L
2360 4192 L
2365 4246 L
2370 4197 L
2375 4262 L
2380 4314 L
2384 4331 L
2389 4200 L
2393 4124 L
2398 4176 L
2402 4094 L
2407 4086 L
2411 4065 L
2415 4090 L
2419 4113 L
2423 4122 L
2427 4087 L
2431 4096 L
2435 3908 L
2438 4033 L
2442 3968 L
2446 4330 L
2449 4163 L
2453 3976 L
2456 3945 L
2460 4113 L
2463 4075 L
2467 4087 L
2470 4057 L
2473 4074 L
2476 3986 L
2480 4086 L
2483 4071 L
2486 4057 L
2489 3805 L
2492 4287 L
2495 3900 L
2498 4059 L
2501 3848 L
2504 3902 L
2507 4043 L
2510 3921 L
2512 3824 L
2515 3987 L
2518 4109 L
2521 3742 L
2523 3911 L
2526 3903 L
2529 3900 L
2531 3846 L
2534 3989 L
2536 3885 L
2539 3826 L
2541 3774 L
2544 3805 L
2546 3787 L
2549 3761 L
2551 3912 L
2554 3756 L
2556 3737 L
2558 3613 L
2561 3661 L
2563 3995 L
2565 3775 L
2568 3522 L
2570 3909 L
2572 3693 L
2574 3702 L
2576 3994 L
2579 3764 L
2581 3810 L
2583 3882 L
2585 3821 L
2587 3771 L
2589 3878 L
2591 3750 L
2593 3683 L
2595 3638 L
2597 3608 L
2599 3524 L
2601 3649 L
2603 3735 L
2605 3686 L
2607 3519 L
2609 3805 L
2611 3661 L
2613 3638 L
2615 3784 L
2617 3861 L
2618 3710 L
2620 3763 L
2622 3695 L
2624 3561 L
2626 3561 L
2627 3683 L
2629 3841 L
2631 3665 L
2633 3575 L
2634 3641 L
2636 3424 L
2638 3669 L
2640 3661 L
2641 3557 L
2643 3530 L
2645 3524 L
2646 3543 L
2648 3556 L
2650 3582 L
2651 3606 L
2653 3669 L
2654 3528 L
2656 3455 L
2658 3633 L
2659 3587 L
2661 3478 L
2662 3485 L
2664 3345 L
2665 3576 L
2667 3408 L
2668 3332 L
2670 3415 L
2671 3438 L
2673 3490 L
2674 3368 L
2676 3417 L
2677 3367 L
2679 3418 L
2680 3272 L
2682 3326 L
2683 3556 L
2685 3347 L
2686 3322 L
2687 3464 L
2689 3514 L
2690 3373 L
2692 3267 L
2693 3448 L
2694 3436 L
2696 3301 L
2697 3355 L
2698 3363 L
2700 3532 L
2701 3345 L
2702 3373 L
2704 3300 L
2705 3106 L
2706 3437 L
2708 3416 L
2709 3399 L
2710 3155 L
2712 3322 L
2713 3393 L
2714 3358 L
2715 3327 L
2717 3299 L
2718 3272 L
2719 3267 L
2720 3296 L
2722 3450 L
2723 3392 L
2724 3282 L
2725 3394 L
2726 3394 L
2728 3226 L
2729 3381 L
2730 3269 L
2731 3152 L
2732 3254 L
2734 3452 L
2735 3310 L
2736 3285 L
2737 3174 L
2738 3264 L
2739 3425 L
2741 3245 L
2742 3342 L
2743 3227 L
2744 3343 L
2745 3172 L
2746 2965 L
2747 3218 L
2748 3263 L
2749 3405 L
2751 3286 L
2752 3116 L
2753 3370 L
2754 3198 L
2755 3360 L
2756 3178 L
2757 3131 L
2758 3092 L
2759 3197 L
2760 3395 L
2761 3170 L
2762 3096 L
2763 3289 L
2764 3182 L
2765 2997 L
2767 3083 L
2768 3127 L
2769 3106 L
2770 3058 L
2771 3103 L
2772 3108 L
2773 3116 L
2774 3028 L
2775 3069 L
2776 3230 L
2777 3077 L
2778 3165 L
2779 3047 L
2780 3067 L
2781 2918 L
2782 3106 L
2783 3175 L
2783 3165 L
2784 2978 L
2785 3103 L
2786 3009 L
2787 3328 L
2788 3108 L
2789 2782 L
2790 3119 L
2791 3118 L
2792 2909 L
2793 2848 L
2794 3152 L
2795 3031 L
2796 3098 L
2797 3170 L
2798 2962 L
2798 2969 L
2799 3036 L
2800 3191 L
2801 3098 L
2802 3051 L
2803 2992 L
2804 2997 L
2805 2838 L
2806 3139 L
2807 3139 L
2807 2932 L
2808 2990 L
2809 3059 L
2810 2888 L
2811 3134 L
2812 3129 L
2813 2754 L
2813 3055 L
2814 3134 L
2815 3074 L
2816 2940 L
2817 2966 L
2818 2976 L
2819 2996 L
2819 2981 L
2820 2844 L
2821 3049 L
2822 2979 L
2823 2982 L
2824 2893 L
2824 3209 L
2825 2869 L
2826 3026 L
2827 2981 L
2828 2963 L
2828 2799 L
2829 3018 L
2830 2892 L
2831 2984 L
2832 2849 L
2832 2981 L
2833 3028 L
2834 2969 L
2835 3072 L
2836 2916 L
2836 2934 L
2837 2820 L
2838 2912 L
2839 3027 L
2840 2846 L
2840 2820 L
2841 2788 L
2842 2896 L
2843 2882 L
2843 2910 L
2844 2869 L
2845 2964 L
2846 2730 L
2846 2821 L
2847 2931 L
2848 2826 L
2849 2931 L
2849 2931 L
2850 2831 L
2851 2833 L
2852 2981 L
2852 2804 L
2853 2683 L
2854 2983 L
2855 2734 L
2855 2857 L
2856 3010 L
2857 2812 L
2857 2807 L
2858 2822 L
2859 2687 L
2860 2731 L
2860 2871 L
2861 2938 L
2862 2882 L
2862 2931 L
2863 2969 L
2864 2789 L
2865 2771 L
2865 2791 L
2866 3051 L
2867 2630 L
2867 2547 L
2868 2849 L
2869 2682 L
2869 2831 L
2870 2776 L
2871 2684 L
2871 2819 L
2872 2812 L
2873 2796 L
2873 2753 L
2874 2897 L
2875 2774 L
2876 2781 L
2876 2875 L
2877 2561 L
2878 2693 L
2878 2775 L
2879 2766 L
2880 2652 L
2880 2641 L
2881 2783 L
2881 2770 L
2882 2705 L
2883 2767 L
2883 2685 L
2884 2775 L
2885 2731 L
2885 2685 L
2886 2784 L
2887 2748 L
2887 2578 L
2888 2737 L
2889 2864 L
2889 2749 L
2892 2826 L
2894 2506 L
2897 2724 L
2899 2599 L
2902 2582 L
2904 2662 L
2907 2667 L
2909 2622 L
2911 2503 L
2914 2617 L
2916 2602 L
2918 2549 L
2921 2581 L
2923 2655 L
2925 2783 L
2927 2479 L
2929 2527 L
2932 2517 L
2934 2368 L
2936 2477 L
2938 2717 L
2940 2474 L
2942 2553 L
2944 2480 L
2946 2520 L
2948 2465 L
2950 2387 L
2952 2479 L
2954 2278 L
2956 2601 L
2958 2222 L
2960 2400 L
2962 2526 L
2964 2422 L
2966 2537 L
2968 2392 L
2970 2464 L
2971 2421 L
2973 2368 L
2975 2428 L
2977 2475 L
2979 2480 L
2980 2374 L
2982 2426 L
2984 2349 L
2986 2528 L
2987 2383 L
2989 2302 L
2991 2401 L
2993 2343 L
2994 2238 L
2996 2384 L
2998 2207 L
2999 2313 L
3001 2368 L
3003 2250 L
3004 2470 L
3006 2218 L
3007 2429 L
3009 2080 L
3011 2348 L
3012 2443 L
3014 2554 L
3015 2245 L
3017 2316 L
3018 2201 L
3020 2243 L
3021 2379 L
3023 2227 L
3024 2201 L
3026 2251 L
3027 2165 L
3029 2239 L
3030 2401 L
3032 2456 L
3033 2381 L
3035 2108 L
3036 2104 L
3038 2266 L
3039 2181 L
3040 2266 L
3042 2120 L
3043 2173 L
3045 2229 L
3046 2272 L
3047 2245 L
3049 2214 L
3050 2198 L
3051 2470 L
3053 2014 L
3054 2298 L
3055 2120 L
3057 2195 L
3058 2136 L
3059 2124 L
3061 2168 L
3062 2116 L
3063 1919 L
3065 1965 L
3066 2143 L
3067 1984 L
3068 2235 L
3070 2166 L
3071 1998 L
3072 2044 L
3073 1992 L
3075 2163 L
3076 2121 L
3077 2117 L
3078 2207 L
3079 2222 L
3081 2071 L
3082 2287 L
3083 2162 L
3084 2069 L
3085 2154 L
3087 2148 L
3088 2189 L
3089 1953 L
3090 2222 L
3091 1915 L
3092 2160 L
3094 2210 L
3095 2106 L
3096 2235 L
3097 1964 L
3098 2102 L
3099 2128 L
3100 1922 L
3101 2111 L
3103 2136 L
3104 1962 L
3105 2161 L
3106 2114 L
3107 2001 L
3108 1986 L
3109 2173 L
3110 2179 L
3111 1942 L
3112 2004 L
3113 2002 L
3114 2203 L
3115 2240 L
3116 2033 L
3117 2213 L
3119 1833 L
3120 2177 L
3121 2240 L
3122 2160 L
3123 2071 L
3124 2174 L
3125 2126 L
3126 1998 L
3127 1953 L
3128 2026 L
3129 1986 L
3130 2065 L
3131 2025 L
3132 1951 L
3133 2047 L
3134 2226 L
3135 2051 L
3136 2025 L
3136 2203 L
3137 2145 L
3138 2012 L
3139 2073 L
3140 2219 L
3141 1889 L
3142 2038 L
3143 2014 L
3144 2090 L
3145 1874 L
3146 2173 L
3147 2086 L
3148 2097 L
3149 2063 L
3150 2182 L
3151 2035 L
3151 2001 L
3152 2091 L
3153 1957 L
3154 2194 L
3155 2013 L
3156 2134 L
3157 1929 L
3158 2014 L
3159 2171 L
3160 1994 L
3160 2146 L
3161 2024 L
3162 1994 L
3163 1978 L
3164 2301 L
3165 2097 L
3166 1926 L
3166 2027 L
3167 2269 L
3168 2069 L
3169 2121 L
3170 2139 L
3171 2077 L
3172 1999 L
3172 2130 L
3173 2132 L
3174 2063 L
3175 2091 L
3176 1981 L
3177 2165 L
3177 1977 L
3178 2199 L
3179 2108 L
3180 2239 L
3181 2241 L
3181 2268 L
3182 2110 L
3183 2102 L
3184 1871 L
3185 1975 L
3185 2191 L
3186 1999 L
3187 2158 L
3188 1991 L
3189 2053 L
3189 1861 L
3190 2341 L
3191 1984 L
3192 2037 L
3193 2068 L
3193 2149 L
3194 2058 L
3195 1926 L
3196 2341 L
3196 2032 L
3197 2100 L
3198 2169 L
3199 1940 L
3199 1947 L
3200 2284 L
3201 2191 L
3202 2171 L
3202 2149 L
3203 2014 L
3204 2057 L
3205 2077 L
3205 2173 L
3206 2162 L
3207 2160 L
3208 1969 L
3208 2118 L
3209 2074 L
3210 2169 L
3210 2025 L
3211 2080 L
3212 2009 L
3213 2115 L
3213 2035 L
3214 2032 L
3215 1921 L
3215 2137 L
3216 2068 L
3217 2025 L
3218 2083 L
3218 2077 L
3219 2143 L
3220 2028 L
3220 2093 L
3221 2010 L
3222 2013 L
3222 2306 L
3223 2035 L
3224 2229 L
3224 1947 L
3225 2099 L
3226 1955 L
3227 2088 L
3227 2079 L
3228 1986 L
3229 2019 L
3229 2124 L
3230 2322 L
3231 2141 L
3231 1944 L
3232 2122 L
3233 2218 L
3233 2111 L
3234 1918 L
3235 2100 L
3235 2164 L
3236 2240 L
3236 2072 L
3237 2220 L
3238 2064 L
3238 2160 L
3239 2217 L
3240 2093 L
3240 2173 L
3241 2063 L
3242 1994 L
3242 2201 L
3243 1996 L
3244 2007 L
3244 2119 L
3245 2093 L
3245 2028 L
3246 2157 L
3247 2047 L
3247 2137 L
3248 2145 L
3249 2054 L
3249 2121 L
3250 2100 L
3250 2052 L
3251 2287 L
3252 2176 L
3252 2010 L
3253 2284 L
3253 2051 L
3254 2090 L
3255 2110 L
3255 1836 L
3256 2104 L
3257 2131 L
3257 2086 L
3258 2173 L
3258 2097 L
3259 2076 L
3259 2186 L
3260 2227 L
3261 2208 L
3261 2148 L
3262 2206 L
3262 2119 L
3263 2069 L
3264 2181 L
3264 2227 L
3265 2066 L
3265 2117 L
3266 2059 L
3267 2215 L
3267 2080 L
3268 2120 L
3268 2219 L
3269 2178 L
3269 2235 L
3270 2097 L
3271 1902 L
3271 2080 L
3272 2078 L
3272 2092 L
3273 2178 L
3273 2180 L
3274 2203 L
3275 2238 L
3275 2236 L
3276 2191 L
3276 2032 L
3277 1987 L
3277 2096 L
3278 2163 L
3278 2044 L
3279 2235 L
3280 2099 L
3280 2309 L
3281 2096 L
3281 2246 L
3282 2138 L
3282 2165 L
3283 2195 L
3283 2298 L
3284 2110 L
3284 2201 L
3285 2135 L
3285 2139 L
3286 2320 L
3287 2448 L
3287 2110 L
3288 2163 L
3288 2248 L
3289 2124 L
3289 2110 L
3290 2158 L
3290 2180 L
3291 1971 L
3291 2143 L
3292 2319 L
3292 2261 L
3293 2027 L
3293 2093 L
3294 2345 L
3294 2145 L
3295 2225 L
3295 2175 L
3296 2211 L
3297 2302 L
3297 2037 L
3298 2251 L
3298 2254 L
3299 2280 L
3299 2291 L
3300 2050 L
3300 2056 L
3301 2267 L
3301 2215 L
3302 2293 L
3302 2144 L
3303 2340 L
3303 2191 L
3304 2241 L
3304 2122 L
3305 2141 L
3305 2347 L
3306 2328 L
3306 2249 L
3307 2292 L
3307 2321 L
3308 2180 L
3308 2302 L
3309 2363 L
3309 2349 L
3310 2315 L
3310 2211 L
3311 2154 L
3311 2173 L
3312 2314 L
3312 2150 L
3312 2350 L
3313 2173 L
3313 2257 L
3314 2193 L
3314 2285 L
3315 2341 L
3315 2183 L
3316 2160 L
3316 2214 L
3317 2116 L
3317 2293 L
3318 2282 L
3318 2127 L
3319 2222 L
3319 2279 L
3320 2199 L
3320 2382 L
3321 2305 L
3321 2326 L
3321 2264 L
3322 2079 L
3322 2145 L
3323 2380 L
3323 2334 L
3324 2259 L
3324 2242 L
3325 2414 L
3325 2176 L
3326 2334 L
3326 2236 L
3327 2188 L
3327 2267 L
3327 2128 L
3328 2225 L
3328 2366 L
3329 2353 L
3329 2111 L
3330 2196 L
3330 2432 L
3331 2306 L
3331 2206 L
3332 2388 L
3332 2287 L
3332 2372 L
3333 2204 L
3333 2495 L
3334 2212 L
3334 2260 L
3335 2153 L
3335 2235 L
3336 2416 L
3336 2209 L
3336 2082 L
3337 2449 L
3337 2368 L
3338 2436 L
3338 2186 L
3339 2341 L
3339 2231 L
3339 2478 L
3340 2317 L
3340 2421 L
3341 2428 L
3341 2257 L
3342 2380 L
3342 2111 L
3343 2351 L
3343 2394 L
3343 2326 L
3344 2199 L
3344 2402 L
3345 2230 L
3345 2250 L
3346 2297 L
3346 2235 L
3346 2284 L
3347 2289 L
3347 2243 L
3348 2419 L
3348 2117 L
3348 2402 L
3349 2345 L
3349 2458 L
3350 2322 L
3350 2488 L
3351 2184 L
3351 2121 L
3351 2215 L
3352 2419 L
3352 2365 L
3353 2390 L
3353 2183 L
3353 2403 L
3354 2417 L
3354 2303 L
3355 2336 L
3355 2239 L
3355 2501 L
3356 2375 L
3356 2396 L
3357 2251 L
3357 2385 L
3358 2264 L
3358 2337 L
3358 2462 L
3359 2381 L
3359 2229 L
3360 2242 L
3360 2417 L
3360 2294 L
3361 2459 L
3361 2350 L
3362 2394 L
3362 2269 L
3362 2277 L
3363 2453 L
3363 2265 L
3364 2329 L
3364 2371 L
3364 2363 L
3365 2685 L
3365 2389 L
3365 2371 L
3366 2530 L
3366 2501 L
3367 2297 L
3367 2366 L
3367 2401 L
3368 2243 L
3368 2346 L
3369 2278 L
3369 2339 L
3369 2445 L
3370 2547 L
3370 2429 L
3371 2350 L
3371 2331 L
3371 2346 L
3372 2337 L
3372 2455 L
3372 2398 L
3373 2380 L
3373 2299 L
3374 2206 L
3374 2397 L
3374 2432 L
3375 2239 L
3375 2318 L
3375 2370 L
3376 2240 L
3376 2376 L
3377 2330 L
3377 2430 L
3377 2548 L
3378 2240 L
3378 2321 L
3378 2427 L
3379 2314 L
3379 2217 L
3380 2485 L
3380 2470 L
3380 2341 L
3381 2641 L
3381 2303 L
3381 2363 L
3382 2456 L
3382 2623 L
3383 2584 L
3383 2459 L
3383 2415 L
3384 2413 L
3384 2467 L
3384 2158 L
3385 2506 L
3385 2402 L
3385 2334 L
3386 2224 L
3386 2243 L
3387 2355 L
3387 2554 L
3387 2355 L
3388 2523 L
3388 2423 L
3388 2321 L
3389 2497 L
3389 2291 L
3389 2566 L
3390 2493 L
3390 2341 L
3391 2401 L
3391 2507 L
3391 2406 L
3392 2405 L
3392 2570 L
3392 2435 L
3393 2432 L
3393 2523 L
3393 2417 L
3394 2429 L
3394 2517 L
3394 2487 L
3395 2275 L
3395 2475 L
3395 2484 L
3396 2391 L
3396 2324 L
3396 2402 L
3397 2361 L
3397 2534 L
3398 2581 L
3398 2536 L
3398 2555 L
3399 2386 L
3399 2536 L
3399 2470 L
3400 2541 L
3400 2248 L
3400 2441 L
3401 2526 L
3401 2589 L
3401 2372 L
3402 2356 L
3402 2399 L
3402 2647 L
3403 2256 L
3403 2503 L
3403 2670 L
3404 2342 L
3404 2509 L
3404 2291 L
3405 2397 L
3405 2505 L
3405 2340 L
3406 2611 L
3406 2467 L
3406 2513 L
3407 2423 L
3407 2449 L
3407 2524 L
3408 2470 L
3408 2508 L
3408 2427 L
3409 2360 L
3409 2542 L
3409 2558 L
3410 2516 L
3410 2489 L
3410 2471 L
3411 2317 L
3411 2465 L
3411 2630 L
3412 2445 L
3412 2549 L
3412 2432 L
3413 2465 L
3413 2678 L
3413 2292 L
3414 2348 L
3414 2589 L
3414 2627 L
3415 2421 L
3415 2633 L
3415 2467 L
3416 2295 L
3416 2505 L
3416 2563 L
3417 2370 L
3417 2453 L
3417 2461 L
3417 2471 L
3418 2466 L
3418 2445 L
3418 2427 L
3419 2484 L
3419 2596 L
3419 2493 L
3420 2657 L
3420 2534 L
3420 2447 L
3421 2543 L
3421 2492 L
3421 2492 L
3422 2477 L
3422 2621 L
3422 2614 L
3423 2432 L
3423 2489 L
3423 2389 L
3423 2488 L
3424 2335 L
3424 2408 L
3424 2758 L
3425 2668 L
3425 2553 L
3425 2684 L
3426 2535 L
3426 2407 L
3426 2573 L
3427 2528 L
3427 2429 L
3427 2687 L
3428 2557 L
3428 2680 L
3428 2536 L
3428 2502 L
3429 2458 L
3429 2579 L
3429 2502 L
3430 2500 L
3430 2328 L
3430 2606 L
3431 2396 L
3431 2514 L
3431 2524 L
3431 2627 L
3432 2474 L
3432 2380 L
3432 2625 L
3433 2661 L
3433 2556 L
3433 2433 L
3434 2535 L
3434 2439 L
3434 2438 L
3434 2623 L
3435 2597 L
3435 2552 L
3435 2455 L
3436 2523 L
3436 2594 L
3436 2582 L
3437 2578 L
3437 2600 L
3437 2441 L
3437 2445 L
3438 2518 L
3438 2704 L
3438 2768 L
3439 2442 L
3439 2765 L
3439 2596 L
3440 2432 L
3440 2586 L
3440 2562 L
3440 2692 L
3441 2792 L
3441 2574 L
3441 2602 L
3442 2450 L
3442 2555 L
3442 2539 L
3442 2498 L
3443 2632 L
3443 2589 L
3443 2614 L
3444 2630 L
3444 2610 L
3444 2467 L
3444 2527 L
3445 2658 L
3445 2560 L
3445 2581 L
3446 2627 L
3446 2625 L
3446 2498 L
3446 2622 L
3447 2654 L
3447 2358 L
3447 2596 L
3448 2617 L
3448 2511 L
3448 2627 L
3448 2734 L
3449 2719 L
3449 2415 L
3449 2459 L
3450 2528 L
3450 2541 L
3450 2697 L
3450 2596 L
3451 2545 L
3451 2534 L
3451 2761 L
3452 2623 L
3452 2457 L
3452 2588 L
3452 2673 L
3453 2714 L
3453 2643 L
3453 2765 L
3454 2500 L
3454 2506 L
3454 2557 L
3454 2532 L
3455 2540 L
3455 2447 L
3455 2679 L
3455 2507 L
3456 2564 L
3456 2713 L
3456 2467 L
3457 2599 L
3457 2456 L
3457 2454 L
3457 2492 L
3458 2627 L
3458 2654 L
3458 2583 L
3458 2645 L
3459 2601 L
3459 2598 L
3459 2736 L
3460 2532 L
3460 2594 L
3460 2669 L
3460 2387 L
3461 2491 L
3461 2591 L
3461 2497 L
3461 2758 L
3462 2642 L
3462 2521 L
3462 2700 L
3463 2649 L
3463 2528 L
3463 2578 L
3463 2564 L
3464 2633 L
3464 2609 L
3464 2597 L
3464 2515 L
3465 2544 L
3465 2586 L
3465 2677 L
3465 2706 L
3466 2575 L
3466 2663 L
3466 2677 L
3466 2484 L
3467 2448 L
3467 2734 L
3467 2758 L
3468 2458 L
3468 2505 L
3468 2769 L
3468 2665 L
3469 2677 L
3469 2492 L
3469 2843 L
3469 2718 L
3470 2578 L
3470 2714 L
3470 2635 L
3470 2813 L
3471 2727 L
3471 2643 L
3471 2707 L
3471 2571 L
3472 2514 L
3472 2657 L
3472 2466 L
3472 2641 L
3473 2519 L
3473 2654 L
3473 2610 L
3474 2533 L
3474 2787 L
3474 2796 L
3474 2749 L
3475 2618 L
3475 2641 L
3475 2573 L
3475 2639 L
3476 2645 L
3476 2438 L
3476 2666 L
3476 2394 L
3477 2555 L
3477 2633 L
3477 2456 L
3477 2665 L
3478 2482 L
3478 2683 L
3478 2685 L
3478 2621 L
3479 2589 L
3479 2719 L
3479 2589 L
3479 2630 L
3480 2622 L
3480 2627 L
3480 2666 L
3480 2681 L
3481 2816 L
3481 2689 L
3481 2590 L
3481 2432 L
3482 2587 L
3482 2521 L
3482 2875 L
3482 2536 L
3483 2737 L
3483 2563 L
3483 2643 L
3483 2541 L
3484 2608 L
3484 2771 L
3484 2704 L
3484 2669 L
3485 2710 L
3485 2645 L
3485 2739 L
3485 2461 L
3486 2593 L
3486 2683 L
3486 2586 L
3486 2752 L
3487 2829 L
3487 2686 L
3487 2397 L
3487 2705 L
3488 2701 L
3488 2818 L
3488 2701 L
3488 2573 L
3488 2640 L
3489 2966 L
3489 2525 L
3489 2705 L
3489 2501 L
3490 2781 L
3490 2447 L
3490 2654 L
3490 2651 L
3491 2652 L
3491 2544 L
3491 2692 L
3491 2378 L
3492 2757 L
3492 2651 L
3492 2770 L
3492 2638 L
3493 2666 L
3493 2710 L
3493 2766 L
3493 2685 L
3494 2815 L
3494 2519 L
3494 2586 L
3494 2554 L
3494 2739 L
3495 2653 L
3495 2649 L
3495 2600 L
3495 2673 L
3496 2570 L
3496 2484 L
3496 2575 L
3496 2750 L
3497 2601 L
3497 2576 L
3497 2721 L
3497 2588 L
3498 2713 L
3498 2439 L
3498 2807 L
3498 2508 L
3498 2716 L
3499 2732 L
3499 2773 L
3499 2586 L
3499 2879 L
3500 2651 L
3500 2624 L
3506 2767 L
3511 2749 L
3517 2869 L
3522 2749 L
3527 2912 L
3532 2853 L
3537 2856 L
3542 2715 L
3547 2890 L
3552 2723 L
3557 2780 L
3561 2854 L
3566 2740 L
3570 2870 L
3575 2785 L
3579 2818 L
3583 2835 L
3587 2818 L
3591 3000 L
3595 3005 L
3599 2717 L
3603 2921 L
3607 2995 L
3611 2830 L
3614 2859 L
3618 2900 L
3622 2828 L
3625 2894 L
3629 2896 L
3632 3020 L
3636 2826 L
3639 2763 L
3642 2940 L
3646 2755 L
3649 3020 L
3652 2855 L
3655 2972 L
3658 3010 L
3661 2985 L
3664 3111 L
3667 2949 L
3670 3085 L
3673 2955 L
3676 2944 L
3679 2862 L
3682 2845 L
3685 2867 L
3688 2721 L
3690 2919 L
3693 3061 L
3696 3075 L
3698 2824 L
3701 3063 L
3704 2998 L
3706 3016 L
3709 2915 L
3711 2834 L
3714 3085 L
3716 2786 L
3719 3074 L
3721 3013 L
3724 3053 L
3726 3044 L
3728 2844 L
3731 2900 L
3733 3068 L
3735 2926 L
3738 3025 L
3740 3071 L
3742 2958 L
3744 3102 L
3747 3006 L
3749 3036 L
3751 2929 L
3753 2852 L
3755 2681 L
3757 2960 L
3760 3002 L
3762 2975 L
3764 2914 L
3766 2757 L
3768 2842 L
3770 2872 L
3772 3139 L
3774 3154 L
3776 2838 L
3778 2864 L
3780 2970 L
3781 3025 L
3783 2990 L
3785 3029 L
3787 3000 L
3789 2948 L
3791 3013 L
3793 3075 L
3795 3016 L
3796 2894 L
3798 2718 L
3800 3006 L
3802 2936 L
3803 2901 L
3805 2867 L
3807 3050 L
3809 2988 L
3810 2852 L
3812 2693 L
3814 3085 L
3816 2636 L
3817 3112 L
3819 2868 L
3820 2915 L
3822 2850 L
3824 3025 L
3825 2898 L
3827 2787 L
3829 2968 L
3830 2989 L
3832 2951 L
3833 3055 L
3835 2934 L
3836 3037 L
3838 3082 L
3839 2875 L
3841 2913 L
3842 2996 L
3844 2898 L
3845 3203 L
3847 2976 L
3848 2945 L
3850 3070 L
3851 3080 L
3853 3102 L
3854 2866 L
3856 2990 L
3857 2862 L
3859 3059 L
3860 3037 L
3861 3025 L
3863 3046 L
3864 2949 L
3866 3086 L
3867 2843 L
3868 3114 L
3870 3032 L
3871 3247 L
3872 3040 L
3874 2927 L
3875 2961 L
3876 2960 L
3878 2887 L
3879 2821 L
3880 3040 L
3882 3105 L
3883 3020 L
3884 2980 L
3885 3040 L
3887 2999 L
3888 2909 L
3889 2893 L
3890 2898 L
3892 2877 L
3893 2992 L
3894 2724 L
3895 2905 L
3897 3155 L
3898 3031 L
3899 2926 L
3900 2862 L
3901 3007 L
3903 2775 L
3904 3138 L
3905 3209 L
3906 2940 L
3907 2932 L
3908 3057 L
3910 2941 L
3911 2984 L
3912 2856 L
3913 3049 L
3914 3000 L
3915 3130 L
3917 3061 L
3918 3030 L
3919 3140 L
3920 3133 L
3921 3106 L
3922 2929 L
3923 2859 L
3924 3200 L
3925 2955 L
3926 2882 L
3928 2942 L
3929 3118 L
3930 3148 L
3931 2943 L
3932 3037 L
3933 3044 L
3934 3001 L
3935 2800 L
3936 2960 L
3937 3110 L
3938 2974 L
3939 2998 L
3940 3128 L
3941 2913 L
3942 2919 L
3943 3032 L
3944 3168 L
3945 2757 L
3946 3158 L
3947 2917 L
3948 2852 L
3949 3023 L
3950 2984 L
3951 3072 L
3952 2890 L
3953 2877 L
3954 2872 L
3955 3109 L
3956 2897 L
3957 3091 L
3958 2853 L
3959 2990 L
3960 2936 L
3961 2837 L
3962 2988 L
3963 2875 L
3964 3054 L
3965 2821 L
3966 2853 L
3966 2835 L
3967 2948 L
3968 2985 L
3969 2747 L
3970 2922 L
3971 2929 L
3972 3068 L
3973 3014 L
3974 2882 L
3975 3144 L
3976 2948 L
3976 2862 L
3977 2753 L
3978 3024 L
3979 2908 L
3980 2808 L
3981 2847 L
3982 3130 L
3983 2895 L
3983 2949 L
3984 2980 L
3985 3011 L
3986 3053 L
3987 3011 L
3988 2937 L
3989 2888 L
3989 2954 L
3990 3013 L
3991 2893 L
3992 3105 L
3993 3057 L
3994 2909 L
3995 3092 L
3995 3116 L
3996 3032 L
3997 2880 L
3998 2893 L
3999 2893 L
3999 3071 L
4000 2862 L
4001 2996 L
4002 3087 L
4003 3020 L
4003 3004 L
4004 3023 L
4005 2862 L
4006 2910 L
4007 3121 L
4007 2960 L
4008 2908 L
4009 2893 L
4010 3010 L
4011 2975 L
4011 3037 L
4012 2999 L
4013 3020 L
4014 3030 L
4014 2852 L
4015 2979 L
4016 2883 L
4017 3085 L
4017 3011 L
4018 3137 L
4019 3080 L
4020 2992 L
4021 2937 L
4021 3006 L
4022 3056 L
4023 2931 L
4023 3016 L
4024 2910 L
4025 2868 L
4026 2887 L
4026 3074 L
4027 2967 L
4028 2778 L
4029 3024 L
4029 3157 L
4030 3083 L
4031 2895 L
4032 3068 L
4032 2828 L
4033 2876 L
4034 3079 L
4034 3139 L
4035 2977 L
4036 3069 L
4036 2793 L
4037 3020 L
4038 2888 L
4039 2777 L
4039 2824 L
4040 2883 L
4041 2983 L
4041 3115 L
4042 2845 L
4043 2914 L
4043 2780 L
4044 2830 L
4045 2921 L
4045 2951 L
4046 2900 L
4047 3081 L
4047 2865 L
4048 2948 L
4049 2809 L
4050 2813 L
4050 3038 L
4051 3233 L
4052 3009 L
4052 2974 L
4053 2773 L
4053 2781 L
4054 2977 L
4055 2633 L
4055 3033 L
4056 2933 L
4057 2951 L
4057 2934 L
4058 2848 L
4059 2883 L
4059 2937 L
4060 2732 L
4061 2807 L
4061 2931 L
4062 3157 L
L2 C05 COSGR

%
%================
% Legend - Begin
%================
%
GSN 4240 5180 M
4480 5180 L
LWMC SL  C05 COSGR
GSN 4540 5141 M helvM (2.5 uM) show grestore
%
%================
% Legend - End
%================
%

%
% Residuals:
%
GSN 777 1569 M
1388 1319 L
1552 1034 L
1652 1040 L
1723 1257 L
1778 1141 L
1824 1003 L
1863 888 L
1896 1123 L
1926 1034 L
1952 966 L
1976 940 L
1998 1037 L
2019 1043 L
2037 995 L
2055 1248 L
2071 1054 L
2086 1023 L
2101 1135 L
2115 1197 L
2128 1231 L
2140 1094 L
2152 1055 L
2163 1246 L
2174 1251 L
2184 1060 L
2194 1070 L
2204 1141 L
2213 1013 L
2222 997 L
2230 1055 L
2239 992 L
2247 1031 L
2255 1264 L
2262 1001 L
2270 1056 L
2277 1103 L
2284 1182 L
2290 1142 L
2297 1107 L
2303 1117 L
2310 1097 L
2316 1122 L
2322 997 L
2328 912 L
2333 1099 L
2339 1180 L
2344 1112 L
2350 1031 L
2355 837 L
2360 960 L
2365 1028 L
2370 984 L
2375 1064 L
2380 1131 L
2384 1159 L
2389 1025 L
2393 952 L
2398 1018 L
2402 939 L
2407 939 L
2411 926 L
2415 961 L
2419 996 L
2423 1015 L
2427 986 L
2431 1004 L
2435 809 L
2438 954 L
2442 892 L
2446 1295 L
2449 1122 L
2453 927 L
2456 903 L
2460 1094 L
2463 1061 L
2467 1083 L
2470 1059 L
2473 1086 L
2476 999 L
2480 1117 L
2483 1108 L
2486 1102 L
2489 836 L
2492 1368 L
2495 956 L
2498 1137 L
2501 916 L
2504 983 L
2507 1145 L
2510 1020 L
2512 923 L
2515 1109 L
2518 1249 L
2521 857 L
2523 1050 L
2526 1048 L
2529 1054 L
2531 1003 L
2534 1166 L
2536 1060 L
2539 1004 L
2541 956 L
2544 997 L
2546 986 L
2549 965 L
2551 1136 L
2554 975 L
2556 962 L
2558 834 L
2561 894 L
2563 1265 L
2565 1033 L
2568 766 L
2570 1194 L
2572 966 L
2574 983 L
2576 1308 L
2579 1065 L
2581 1123 L
2583 1208 L
2585 1149 L
2587 1102 L
2589 1225 L
2591 1093 L
2593 1028 L
2595 985 L
2597 960 L
2599 875 L
2601 1019 L
2603 1120 L
2605 1073 L
2607 898 L
2609 1216 L
2611 1066 L
2613 1048 L
2615 1214 L
2617 1304 L
2618 1147 L
2620 1211 L
2622 1143 L
2624 1005 L
2626 1011 L
2627 1150 L
2629 1329 L
2631 1145 L
2633 1053 L
2634 1131 L
2636 902 L
2638 1175 L
2640 1172 L
2641 1065 L
2643 1043 L
2645 1043 L
2646 1070 L
2648 1091 L
2650 1124 L
2651 1157 L
2653 1231 L
2654 1085 L
2656 1011 L
2658 1211 L
2659 1167 L
2661 1055 L
2662 1069 L
2664 922 L
2665 1180 L
2667 1003 L
2668 927 L
2670 1022 L
2671 1054 L
2673 1116 L
2674 989 L
2676 1049 L
2677 1000 L
2679 1062 L
2680 908 L
2682 973 L
2683 1229 L
2685 1008 L
2686 986 L
2687 1146 L
2689 1207 L
2690 1059 L
2692 949 L
2693 1151 L
2694 1144 L
2696 1003 L
2697 1067 L
2698 1081 L
2700 1271 L
2701 1073 L
2702 1108 L
2704 1034 L
2705 829 L
2706 1195 L
2708 1177 L
2709 1164 L
2710 905 L
2712 1091 L
2713 1174 L
2714 1141 L
2715 1113 L
2717 1087 L
2718 1063 L
2719 1063 L
2720 1100 L
2722 1272 L
2723 1214 L
2724 1100 L
2725 1226 L
2726 1232 L
2728 1055 L
2729 1228 L
2730 1111 L
2731 989 L
2732 1105 L
2734 1326 L
2735 1176 L
2736 1154 L
2737 1039 L
2738 1141 L
2739 1321 L
2741 1130 L
2742 1240 L
2743 1120 L
2744 1251 L
2745 1070 L
2746 849 L
2747 1130 L
2748 1183 L
2749 1342 L
2751 1218 L
2752 1037 L
2753 1318 L
2754 1136 L
2755 1316 L
2756 1123 L
2757 1077 L
2758 1040 L
2759 1159 L
2760 1378 L
2761 1137 L
2762 1063 L
2763 1276 L
2764 1164 L
2765 968 L
2767 1066 L
2768 1119 L
2769 1100 L
2770 1052 L
2771 1105 L
2772 1116 L
2773 1129 L
2774 1037 L
2775 1086 L
2776 1266 L
2777 1103 L
2778 1204 L
2779 1079 L
2780 1106 L
2781 947 L
2782 1156 L
2783 1236 L
2783 1229 L
2784 1030 L
2785 1170 L
2786 1072 L
2787 1423 L
2788 1188 L
2789 837 L
2790 1208 L
2791 1211 L
2792 988 L
2793 925 L
2794 1260 L
2795 1132 L
2796 1209 L
2797 1292 L
2798 1069 L
2798 1081 L
2799 1158 L
2800 1330 L
2801 1233 L
2802 1186 L
2803 1126 L
2804 1135 L
2805 967 L
2806 1297 L
2807 1301 L
2807 1080 L
2808 1147 L
2809 1226 L
2810 1043 L
2811 1315 L
2812 1313 L
2813 909 L
2813 1240 L
2814 1329 L
2815 1268 L
2816 1127 L
2817 1159 L
2818 1173 L
2819 1198 L
2819 1186 L
2820 1041 L
2821 1267 L
2822 1195 L
2823 1201 L
2824 1108 L
2824 1455 L
2825 1089 L
2826 1263 L
2827 1218 L
2828 1202 L
2828 1027 L
2829 1268 L
2830 1135 L
2831 1239 L
2832 1096 L
2832 1243 L
2833 1297 L
2834 1236 L
2835 1351 L
2836 1185 L
2836 1208 L
2837 1087 L
2838 1191 L
2839 1320 L
2840 1126 L
2840 1102 L
2841 1070 L
2842 1190 L
2843 1178 L
2843 1212 L
2844 1171 L
2845 1277 L
2846 1026 L
2846 1128 L
2847 1251 L
2848 1140 L
2849 1257 L
2849 1260 L
2850 1155 L
2851 1160 L
2852 1325 L
2852 1136 L
2853 1007 L
2854 1336 L
2855 1068 L
2855 1205 L
2856 1375 L
2857 1163 L
2857 1160 L
2858 1179 L
2859 1036 L
2860 1087 L
2860 1242 L
2861 1318 L
2862 1260 L
2862 1316 L
2863 1361 L
2864 1168 L
2865 1152 L
2865 1177 L
2866 1462 L
2867 1007 L
2867 920 L
2868 1251 L
2869 1073 L
2869 1237 L
2870 1180 L
2871 1083 L
2871 1233 L
2872 1228 L
2873 1214 L
2873 1170 L
2874 1328 L
2875 1198 L
2876 1208 L
2876 1313 L
2877 975 L
2878 1122 L
2878 1213 L
2879 1207 L
2880 1085 L
2880 1076 L
2881 1233 L
2881 1222 L
2882 1154 L
2883 1224 L
2883 1138 L
2884 1237 L
2885 1192 L
2885 1146 L
2886 1255 L
2887 1219 L
2887 1037 L
2888 1213 L
2889 1353 L
2889 1231 L
2892 1325 L
2894 988 L
2897 1234 L
2899 1109 L
2902 1100 L
2904 1197 L
2907 1211 L
2909 1172 L
2911 1052 L
2914 1185 L
2916 1178 L
2918 1128 L
2921 1172 L
2923 1262 L
2925 1409 L
2927 1087 L
2929 1148 L
2932 1145 L
2934 991 L
2936 1117 L
2938 1386 L
2940 1129 L
2942 1223 L
2944 1151 L
2946 1202 L
2948 1150 L
2950 1072 L
2952 1179 L
2954 968 L
2956 1325 L
2958 921 L
2960 1121 L
2962 1265 L
2964 1157 L
2966 1289 L
2968 1138 L
2970 1222 L
2971 1182 L
2973 1131 L
2975 1201 L
2977 1258 L
2979 1269 L
2980 1160 L
2982 1222 L
2984 1144 L
2986 1344 L
2987 1192 L
2989 1109 L
2991 1222 L
2993 1164 L
2994 1055 L
2996 1219 L
2998 1032 L
2999 1151 L
3001 1216 L
3003 1093 L
3004 1336 L
3006 1067 L
3007 1301 L
3009 926 L
3011 1222 L
3012 1329 L
3014 1455 L
3015 1123 L
3017 1204 L
3018 1083 L
3020 1133 L
3021 1285 L
3023 1124 L
3024 1098 L
3026 1157 L
3027 1067 L
3029 1151 L
3030 1331 L
3032 1394 L
3033 1317 L
3035 1023 L
3036 1022 L
3038 1201 L
3039 1112 L
3040 1208 L
3042 1053 L
3043 1114 L
3045 1177 L
3046 1227 L
3047 1201 L
3049 1170 L
3050 1155 L
3051 1454 L
3053 960 L
3054 1273 L
3055 1082 L
3057 1166 L
3058 1104 L
3059 1094 L
3061 1144 L
3062 1090 L
3063 878 L
3065 931 L
3066 1126 L
3067 956 L
3068 1231 L
3070 1158 L
3071 977 L
3072 1030 L
3073 975 L
3075 1164 L
3076 1119 L
3077 1117 L
3078 1217 L
3079 1236 L
3081 1073 L
3082 1310 L
3083 1175 L
3084 1077 L
3085 1170 L
3087 1165 L
3088 1212 L
3089 957 L
3090 1251 L
3091 918 L
3092 1187 L
3094 1243 L
3095 1131 L
3096 1273 L
3097 979 L
3098 1130 L
3099 1160 L
3100 937 L
3101 1145 L
3103 1173 L
3104 984 L
3105 1202 L
3106 1152 L
3107 1031 L
3108 1016 L
3109 1220 L
3110 1227 L
3111 971 L
3112 1039 L
3113 1038 L
3114 1257 L
3115 1298 L
3116 1074 L
3117 1271 L
3119 858 L
3120 1233 L
3121 1302 L
3122 1216 L
3123 1120 L
3124 1233 L
3125 1182 L
3126 1042 L
3127 995 L
3128 1075 L
3129 1032 L
3130 1118 L
3131 1076 L
3132 995 L
3133 1100 L
3134 1295 L
3135 1106 L
3136 1078 L
3136 1272 L
3137 1210 L
3138 1065 L
3139 1132 L
3140 1291 L
3141 932 L
3142 1094 L
3143 1069 L
3144 1152 L
3145 917 L
3146 1242 L
3147 1148 L
3148 1160 L
3149 1123 L
3150 1253 L
3151 1093 L
3151 1057 L
3152 1154 L
3153 1008 L
3154 1267 L
3155 1070 L
3156 1201 L
3157 979 L
3158 1071 L
3159 1241 L
3160 1050 L
3160 1214 L
3161 1082 L
3162 1049 L
3163 1032 L
3164 1382 L
3165 1161 L
3166 974 L
3166 1084 L
3167 1348 L
3168 1130 L
3169 1186 L
3170 1206 L
3171 1138 L
3172 1053 L
3172 1195 L
3173 1197 L
3174 1122 L
3175 1152 L
3176 1032 L
3177 1231 L
3177 1027 L
3178 1268 L
3179 1168 L
3180 1311 L
3181 1312 L
3181 1342 L
3182 1170 L
3183 1160 L
3184 909 L
3185 1022 L
3185 1256 L
3186 1047 L
3187 1220 L
3188 1037 L
3189 1104 L
3189 895 L
3190 1416 L
3191 1028 L
3192 1084 L
3193 1118 L
3193 1205 L
3194 1106 L
3195 963 L
3196 1412 L
3196 1076 L
3197 1149 L
3198 1224 L
3199 975 L
3199 981 L
3200 1348 L
3201 1246 L
3202 1224 L
3202 1199 L
3203 1051 L
3204 1097 L
3205 1118 L
3205 1222 L
3206 1209 L
3207 1207 L
3208 999 L
3208 1160 L
3209 1112 L
3210 1214 L
3210 1057 L
3211 1116 L
3212 1038 L
3213 1153 L
3213 1065 L
3214 1061 L
3215 939 L
3215 1173 L
3216 1098 L
3217 1050 L
3218 1112 L
3218 1106 L
3219 1176 L
3220 1050 L
3220 1120 L
3221 1029 L
3222 1032 L
3222 1349 L
3223 1054 L
3224 1264 L
3224 957 L
3225 1121 L
3226 963 L
3227 1107 L
3227 1096 L
3228 995 L
3229 1030 L
3229 1143 L
3230 1357 L
3231 1160 L
3231 945 L
3232 1137 L
3233 1241 L
3233 1124 L
3234 913 L
3235 1110 L
3235 1179 L
3236 1261 L
3236 1077 L
3237 1237 L
3238 1067 L
3238 1170 L
3239 1231 L
3240 1095 L
3240 1182 L
3241 1060 L
3242 985 L
3242 1209 L
3243 985 L
3244 997 L
3244 1117 L
3245 1088 L
3245 1016 L
3246 1155 L
3247 1035 L
3247 1132 L
3248 1140 L
3249 1039 L
3249 1112 L
3250 1088 L
3250 1034 L
3251 1289 L
3252 1167 L
3252 986 L
3253 1283 L
3253 1028 L
3254 1070 L
3255 1090 L
3255 792 L
3256 1082 L
3257 1111 L
3257 1061 L
3258 1154 L
3258 1071 L
3259 1046 L
3259 1166 L
3260 1209 L
3261 1187 L
3261 1121 L
3262 1183 L
3262 1088 L
3263 1032 L
3264 1152 L
3264 1202 L
3265 1026 L
3265 1080 L
3266 1016 L
3267 1184 L
3267 1037 L
3268 1079 L
3268 1186 L
3269 1140 L
3269 1201 L
3270 1050 L
3271 837 L
3271 1029 L
3272 1026 L
3272 1041 L
3273 1133 L
3273 1134 L
3274 1158 L
3275 1195 L
3275 1192 L
3276 1141 L
3276 967 L
3277 918 L
3277 1035 L
3278 1108 L
3278 977 L
3279 1183 L
3280 1034 L
3280 1262 L
3281 1029 L
3281 1191 L
3282 1073 L
3282 1101 L
3283 1132 L
3283 1244 L
3284 1037 L
3284 1135 L
3285 1063 L
3285 1066 L
3286 1262 L
3287 1400 L
3287 1031 L
3288 1088 L
3288 1179 L
3289 1043 L
3289 1028 L
3290 1079 L
3290 1102 L
3291 873 L
3291 1059 L
3292 1249 L
3292 1185 L
3293 929 L
3293 1000 L
3294 1274 L
3294 1055 L
3295 1140 L
3295 1086 L
3296 1123 L
3297 1221 L
3297 932 L
3298 1164 L
3298 1166 L
3299 1193 L
3299 1204 L
3300 940 L
3300 946 L
3301 1175 L
3301 1117 L
3302 1201 L
3302 1037 L
3303 1250 L
3303 1086 L
3304 1141 L
3304 1010 L
3305 1029 L
3305 1252 L
3306 1230 L
3306 1143 L
3307 1189 L
3307 1220 L
3308 1066 L
3308 1197 L
3309 1263 L
3309 1245 L
3310 1208 L
3310 1093 L
3311 1030 L
3311 1050 L
3312 1202 L
3312 1023 L
3312 1240 L
3313 1047 L
3313 1136 L
3314 1066 L
3314 1165 L
3315 1224 L
3315 1052 L
3316 1026 L
3316 1083 L
3317 976 L
3317 1167 L
3318 1155 L
3318 985 L
3319 1087 L
3319 1148 L
3320 1060 L
3320 1258 L
3321 1173 L
3321 1195 L
3321 1126 L
3322 925 L
3322 995 L
3323 1249 L
3323 1199 L
3324 1116 L
3324 1096 L
3325 1282 L
3325 1022 L
3326 1193 L
3326 1086 L
3327 1033 L
3327 1118 L
3327 965 L
3328 1070 L
3328 1222 L
3329 1207 L
3329 943 L
3330 1034 L
3330 1290 L
3331 1152 L
3331 1042 L
3332 1238 L
3332 1128 L
3332 1220 L
3333 1035 L
3333 1351 L
3334 1042 L
3334 1094 L
3335 976 L
3335 1064 L
3336 1260 L
3336 1034 L
3336 896 L
3337 1294 L
3337 1204 L
3338 1278 L
3338 1005 L
3339 1172 L
3339 1051 L
3339 1319 L
3340 1143 L
3340 1255 L
3341 1262 L
3341 1074 L
3342 1207 L
3342 914 L
3343 1174 L
3343 1219 L
3343 1145 L
3344 1005 L
3344 1226 L
3345 1038 L
3345 1058 L
3346 1108 L
3346 1039 L
3346 1092 L
3347 1097 L
3347 1045 L
3348 1236 L
3348 907 L
3348 1216 L
3349 1153 L
3349 1274 L
3350 1126 L
3350 1305 L
3351 974 L
3351 905 L
3351 1006 L
3352 1226 L
3352 1166 L
3353 1193 L
3353 967 L
3353 1205 L
3354 1219 L
3354 1094 L
3355 1129 L
3355 1023 L
3355 1307 L
3356 1169 L
3356 1191 L
3357 1033 L
3357 1177 L
3358 1045 L
3358 1123 L
3358 1259 L
3359 1169 L
3359 1003 L
3360 1016 L
3360 1206 L
3360 1071 L
3361 1250 L
3361 1130 L
3362 1177 L
3362 1040 L
3362 1048 L
3363 1238 L
3363 1033 L
3364 1101 L
3364 1146 L
3364 1137 L
3365 1486 L
3365 1163 L
3365 1143 L
3366 1315 L
3366 1283 L
3367 1059 L
3367 1134 L
3367 1171 L
3368 999 L
3368 1109 L
3369 1034 L
3369 1099 L
3369 1214 L
3370 1324 L
3370 1195 L
3371 1108 L
3371 1086 L
3371 1102 L
3372 1092 L
3372 1219 L
3372 1156 L
3373 1135 L
3373 1047 L
3374 944 L
3374 1152 L
3374 1189 L
3375 978 L
3375 1063 L
3375 1118 L
3376 977 L
3376 1123 L
3377 1072 L
3377 1181 L
3377 1308 L
3378 972 L
3378 1060 L
3378 1174 L
3379 1050 L
3379 944 L
3380 1234 L
3380 1217 L
3380 1076 L
3381 1402 L
3381 1033 L
3381 1098 L
3382 1198 L
3382 1379 L
3383 1335 L
3383 1199 L
3383 1150 L
3384 1146 L
3384 1204 L
3384 868 L
3385 1245 L
3385 1132 L
3385 1057 L
3386 936 L
3386 956 L
3387 1076 L
3387 1292 L
3387 1075 L
3388 1256 L
3388 1148 L
3388 1036 L
3389 1226 L
3389 1001 L
3389 1299 L
3390 1219 L
3390 1053 L
3391 1118 L
3391 1232 L
3391 1121 L
3392 1119 L
3392 1298 L
3392 1151 L
3393 1146 L
3393 1244 L
3393 1129 L
3394 1141 L
3394 1236 L
3394 1202 L
3395 971 L
3395 1188 L
3395 1197 L
3396 1095 L
3396 1021 L
3396 1106 L
3397 1060 L
3397 1247 L
3398 1297 L
3398 1247 L
3398 1268 L
3399 1083 L
3399 1245 L
3399 1173 L
3400 1249 L
3400 929 L
3400 1139 L
3401 1230 L
3401 1299 L
3401 1062 L
3402 1043 L
3402 1090 L
3402 1358 L
3403 933 L
3403 1200 L
3403 1381 L
3404 1023 L
3404 1204 L
3404 967 L
3405 1081 L
3405 1197 L
3405 1017 L
3406 1311 L
3406 1154 L
3406 1204 L
3407 1105 L
3407 1133 L
3407 1213 L
3408 1153 L
3408 1194 L
3408 1105 L
3409 1031 L
3409 1228 L
3409 1245 L
3410 1199 L
3410 1169 L
3410 1148 L
3411 980 L
3411 1141 L
3411 1319 L
3412 1117 L
3412 1230 L
3412 1102 L
3413 1137 L
3413 1368 L
3413 948 L
3414 1007 L
3414 1269 L
3414 1309 L
3415 1085 L
3415 1314 L
3415 1133 L
3416 946 L
3416 1173 L
3416 1236 L
3417 1025 L
3417 1115 L
3417 1123 L
3417 1133 L
3418 1127 L
3418 1102 L
3418 1082 L
3419 1143 L
3419 1264 L
3419 1152 L
3420 1330 L
3420 1196 L
3420 1100 L
3421 1204 L
3421 1148 L
3421 1147 L
3422 1130 L
3422 1286 L
3422 1277 L
3423 1078 L
3423 1140 L
3423 1030 L
3423 1137 L
3424 971 L
3424 1049 L
3424 1429 L
3425 1331 L
3425 1205 L
3425 1346 L
3426 1184 L
3426 1044 L
3426 1224 L
3427 1174 L
3427 1066 L
3427 1346 L
3428 1203 L
3428 1337 L
3428 1180 L
3428 1142 L
3429 1093 L
3429 1224 L
3429 1140 L
3430 1137 L
3430 949 L
3430 1250 L
3431 1022 L
3431 1150 L
3431 1160 L
3431 1270 L
3432 1104 L
3432 1001 L
3432 1266 L
3433 1305 L
3433 1190 L
3433 1057 L
3434 1166 L
3434 1061 L
3434 1060 L
3434 1260 L
3435 1232 L
3435 1182 L
3435 1075 L
3436 1148 L
3436 1225 L
3436 1212 L
3437 1206 L
3437 1230 L
3437 1057 L
3437 1060 L
3438 1139 L
3438 1340 L
3438 1410 L
3439 1054 L
3439 1404 L
3439 1221 L
3440 1041 L
3440 1208 L
3440 1181 L
3440 1322 L
3441 1430 L
3441 1192 L
3441 1222 L
3442 1057 L
3442 1170 L
3442 1152 L
3442 1107 L
3443 1251 L
3443 1204 L
3443 1231 L
3444 1248 L
3444 1226 L
3444 1070 L
3444 1134 L
3445 1276 L
3445 1168 L
3445 1191 L
3446 1240 L
3446 1238 L
3446 1098 L
3446 1233 L
3447 1267 L
3447 945 L
3447 1202 L
3448 1225 L
3448 1109 L
3448 1235 L
3448 1350 L
3449 1334 L
3449 1003 L
3449 1050 L
3450 1124 L
3450 1138 L
3450 1306 L
3450 1196 L
3451 1141 L
3451 1127 L
3451 1374 L
3452 1223 L
3452 1042 L
3452 1183 L
3452 1276 L
3453 1320 L
3453 1242 L
3453 1374 L
3454 1085 L
3454 1092 L
3454 1146 L
3454 1119 L
3455 1126 L
3455 1025 L
3455 1276 L
3455 1089 L
3456 1150 L
3456 1311 L
3456 1043 L
3457 1187 L
3457 1030 L
3457 1027 L
3457 1069 L
3458 1214 L
3458 1244 L
3458 1165 L
3458 1232 L
3459 1183 L
3459 1180 L
3459 1330 L
3460 1108 L
3460 1174 L
3460 1255 L
3460 948 L
3461 1060 L
3461 1169 L
3461 1066 L
3461 1349 L
3462 1222 L
3462 1090 L
3462 1284 L
3463 1228 L
3463 1096 L
3463 1149 L
3463 1134 L
3464 1209 L
3464 1182 L
3464 1168 L
3464 1079 L
3465 1109 L
3465 1154 L
3465 1253 L
3465 1284 L
3466 1141 L
3466 1236 L
3466 1251 L
3466 1041 L
3467 1000 L
3467 1311 L
3467 1336 L
3468 1010 L
3468 1061 L
3468 1347 L
3468 1233 L
3469 1246 L
3469 1044 L
3469 1426 L
3469 1289 L
3470 1136 L
3470 1283 L
3470 1197 L
3470 1390 L
3471 1296 L
3471 1204 L
3471 1273 L
3471 1125 L
3472 1062 L
3472 1217 L
3472 1009 L
3472 1199 L
3473 1066 L
3473 1212 L
3473 1163 L
3474 1079 L
3474 1355 L
3474 1364 L
3474 1312 L
3475 1169 L
3475 1194 L
3475 1120 L
3475 1191 L
3476 1196 L
3476 972 L
3476 1218 L
3476 922 L
3477 1097 L
3477 1182 L
3477 989 L
3477 1215 L
3478 1016 L
3478 1233 L
3478 1235 L
3478 1165 L
3479 1130 L
3479 1270 L
3479 1129 L
3479 1173 L
3480 1164 L
3480 1168 L
3480 1210 L
3480 1226 L
3481 1372 L
3481 1234 L
3481 1126 L
3481 954 L
3482 1121 L
3482 1049 L
3482 1433 L
3482 1064 L
3483 1282 L
3483 1093 L
3483 1180 L
3483 1068 L
3484 1140 L
3484 1317 L
3484 1244 L
3484 1205 L
3485 1249 L
3485 1178 L
3485 1279 L
3485 977 L
3486 1120 L
3486 1217 L
3486 1112 L
3486 1292 L
3487 1375 L
3487 1219 L
3487 904 L
3487 1238 L
3488 1234 L
3488 1361 L
3488 1233 L
3488 1093 L
3488 1166 L
3489 1519 L
3489 1039 L
3489 1235 L
3489 1012 L
3490 1316 L
3490 953 L
3490 1177 L
3490 1173 L
3491 1174 L
3491 1056 L
3491 1216 L
3491 875 L
3492 1287 L
3492 1171 L
3492 1299 L
3492 1155 L
3493 1186 L
3493 1232 L
3493 1294 L
3493 1205 L
3494 1345 L
3494 1024 L
3494 1096 L
3494 1061 L
3494 1261 L
3495 1167 L
3495 1162 L
3495 1109 L
3495 1188 L
3496 1075 L
3496 981 L
3496 1080 L
3496 1269 L
3497 1107 L
3497 1079 L
3497 1236 L
3497 1091 L
3498 1227 L
3498 929 L
3498 1328 L
3498 1003 L
3498 1229 L
3499 1246 L
3499 1290 L
3499 1086 L
3499 1404 L
3500 1155 L
3500 1126 L
3506 1271 L
3511 1241 L
3517 1360 L
3522 1221 L
3527 1388 L
3532 1315 L
3537 1309 L
3542 1147 L
3547 1330 L
3552 1140 L
3557 1194 L
3561 1268 L
3566 1137 L
3570 1271 L
3575 1172 L
3579 1201 L
3583 1214 L
3587 1190 L
3591 1382 L
3595 1381 L
3599 1063 L
3603 1280 L
3607 1355 L
3611 1171 L
3614 1197 L
3618 1238 L
3622 1155 L
3625 1223 L
3629 1220 L
3632 1352 L
3636 1137 L
3639 1065 L
3642 1253 L
3646 1048 L
3649 1333 L
3652 1150 L
3655 1275 L
3658 1313 L
3661 1283 L
3664 1416 L
3667 1237 L
3670 1382 L
3673 1239 L
3676 1224 L
3679 1133 L
3682 1111 L
3685 1133 L
3688 972 L
3690 1185 L
3693 1337 L
3696 1350 L
3698 1075 L
3701 1333 L
3704 1260 L
3706 1278 L
3709 1166 L
3711 1076 L
3714 1347 L
3716 1020 L
3719 1332 L
3721 1264 L
3724 1306 L
3726 1295 L
3728 1075 L
3731 1135 L
3733 1316 L
3735 1160 L
3738 1267 L
3740 1316 L
3742 1191 L
3744 1346 L
3747 1241 L
3749 1272 L
3751 1155 L
3753 1069 L
3755 882 L
3757 1185 L
3760 1229 L
3762 1199 L
3764 1132 L
3766 960 L
3768 1051 L
3770 1083 L
3772 1373 L
3774 1388 L
3776 1043 L
3778 1071 L
3780 1185 L
3781 1244 L
3783 1205 L
3785 1246 L
3787 1214 L
3789 1157 L
3791 1226 L
3793 1294 L
3795 1228 L
3796 1095 L
3798 903 L
3800 1216 L
3802 1138 L
3803 1100 L
3805 1062 L
3807 1260 L
3809 1192 L
3810 1043 L
3812 870 L
3814 1295 L
3816 807 L
3817 1324 L
3819 1058 L
3820 1109 L
3822 1037 L
3824 1227 L
3825 1088 L
3827 968 L
3829 1163 L
3830 1185 L
3832 1143 L
3833 1256 L
3835 1125 L
3836 1235 L
3838 1284 L
3839 1058 L
3841 1100 L
3842 1189 L
3844 1082 L
3845 1413 L
3847 1166 L
3848 1132 L
3850 1267 L
3851 1278 L
3853 1301 L
3854 1045 L
3856 1179 L
3857 1040 L
3859 1253 L
3860 1228 L
3861 1215 L
3863 1237 L
3864 1132 L
3866 1280 L
3867 1016 L
3868 1310 L
3870 1220 L
3871 1454 L
3872 1228 L
3874 1106 L
3875 1142 L
3876 1140 L
3878 1061 L
3879 989 L
3880 1227 L
3882 1297 L
3883 1204 L
3884 1160 L
3885 1225 L
3887 1180 L
3888 1082 L
3889 1064 L
3890 1069 L
3892 1046 L
3893 1170 L
3894 879 L
3895 1076 L
3897 1347 L
3898 1212 L
3899 1097 L
3900 1027 L
3901 1185 L
3903 933 L
3904 1327 L
3905 1404 L
3906 1111 L
3907 1102 L
3908 1238 L
3910 1112 L
3911 1158 L
3912 1019 L
3913 1228 L
3914 1175 L
3915 1316 L
3917 1240 L
3918 1207 L
3919 1326 L
3920 1317 L
3921 1288 L
3922 1096 L
3923 1020 L
3924 1389 L
3925 1123 L
3926 1043 L
3928 1109 L
3929 1299 L
3930 1332 L
3931 1109 L
3932 1210 L
3933 1218 L
3934 1171 L
3935 952 L
3936 1126 L
3937 1289 L
3938 1141 L
3939 1167 L
3940 1308 L
3941 1074 L
3942 1080 L
3943 1203 L
3944 1351 L
3945 904 L
3946 1340 L
3947 1078 L
3948 1007 L
3949 1192 L
3950 1149 L
3951 1245 L
3952 1046 L
3953 1033 L
3954 1028 L
3955 1285 L
3956 1054 L
3957 1264 L
3958 1006 L
3959 1155 L
3960 1095 L
3961 988 L
3962 1151 L
3963 1028 L
3964 1223 L
3965 969 L
3966 1004 L
3966 984 L
3967 1108 L
3968 1148 L
3969 888 L
3970 1078 L
3971 1086 L
3972 1236 L
3973 1178 L
3974 1034 L
3975 1319 L
3976 1105 L
3976 1012 L
3977 894 L
3978 1188 L
3979 1062 L
3980 953 L
3981 995 L
3982 1303 L
3983 1047 L
3983 1105 L
3984 1139 L
3985 1172 L
3986 1218 L
3987 1172 L
3988 1092 L
3989 1038 L
3989 1109 L
3990 1174 L
3991 1043 L
3992 1273 L
3993 1222 L
3994 1060 L
3995 1258 L
3995 1285 L
3996 1193 L
3997 1028 L
3998 1042 L
3999 1042 L
3999 1236 L
4000 1008 L
4001 1154 L
4002 1252 L
4003 1179 L
4003 1162 L
4004 1183 L
4005 1008 L
4006 1059 L
4007 1288 L
4007 1113 L
4008 1057 L
4009 1041 L
4010 1168 L
4011 1129 L
4011 1196 L
4012 1155 L
4013 1178 L
4014 1188 L
4014 995 L
4015 1133 L
4016 1028 L
4017 1247 L
4017 1167 L
4018 1304 L
4019 1242 L
4020 1147 L
4021 1087 L
4021 1161 L
4022 1215 L
4023 1080 L
4023 1172 L
4024 1057 L
4025 1010 L
4026 1031 L
4026 1234 L
4027 1118 L
4028 912 L
4029 1180 L
4029 1324 L
4030 1244 L
4031 1039 L
4032 1226 L
4032 966 L
4033 1018 L
4034 1239 L
4034 1303 L
4035 1128 L
4036 1228 L
4036 927 L
4037 1173 L
4038 1030 L
4039 909 L
4039 961 L
4040 1025 L
4041 1133 L
4041 1276 L
4042 983 L
4043 1057 L
4043 913 L
4044 966 L
4045 1066 L
4045 1098 L
4046 1043 L
4047 1239 L
4047 1004 L
4048 1095 L
4049 943 L
4050 947 L
4050 1192 L
4051 1404 L
4052 1161 L
4052 1122 L
4053 903 L
4053 912 L
4054 1125 L
4055 750 L
4055 1185 L
4056 1077 L
4057 1097 L
4057 1077 L
4058 985 L
4059 1022 L
4059 1080 L
4060 858 L
4061 940 L
4061 1074 L
4062 1320 L
L2 C05 COSGR

%
% Main frame
%
L10
GSN 
620 1700 M
4220 1700 L
4220 5300 L
620 5300 L
closepath SGR

%
% X axis: large tics
%
L10
GSN 1130 1700 M 0  54 rL SGR
GSN 1130 5300 M 0 -54 rL SGR
helvS (0.0001) 1130 470 xlabel
GSN 1716 1700 M 0  54 rL SGR
GSN 1716 5300 M 0 -54 rL SGR
helvS (0.001) 1716 470 xlabel
GSN 2303 1700 M 0  54 rL SGR
GSN 2303 5300 M 0 -54 rL SGR
helvS (0.01) 2303 470 xlabel
GSN 2889 1700 M 0  54 rL SGR
GSN 2889 5300 M 0 -54 rL SGR
helvS (0.1) 2889 470 xlabel
GSN 3476 1700 M 0  54 rL SGR
GSN 3476 5300 M 0 -54 rL SGR
helvS (1) 3476 470 xlabel
GSN 4062 1700 M 0  54 rL SGR
GSN 4062 5300 M 0 -54 rL SGR
helvS (10) 4062 470 xlabel
%
% X axis: small tics
%
L5
GSN 720 1700 M 0  36 rL SGR
GSN 720 5300 M 0 -36 rL SGR
GSN 824 1700 M 0  36 rL SGR
GSN 824 5300 M 0 -36 rL SGR
GSN 897 1700 M 0  36 rL SGR
GSN 897 5300 M 0 -36 rL SGR
GSN 954 1700 M 0  36 rL SGR
GSN 954 5300 M 0 -36 rL SGR
GSN 1000 1700 M 0  36 rL SGR
GSN 1000 5300 M 0 -36 rL SGR
GSN 1039 1700 M 0  36 rL SGR
GSN 1039 5300 M 0 -36 rL SGR
GSN 1073 1700 M 0  36 rL SGR
GSN 1073 5300 M 0 -36 rL SGR
GSN 1103 1700 M 0  36 rL SGR
GSN 1103 5300 M 0 -36 rL SGR
GSN 1307 1700 M 0  36 rL SGR
GSN 1307 5300 M 0 -36 rL SGR
GSN 1410 1700 M 0  36 rL SGR
GSN 1410 5300 M 0 -36 rL SGR
GSN 1483 1700 M 0  36 rL SGR
GSN 1483 5300 M 0 -36 rL SGR
GSN 1540 1700 M 0  36 rL SGR
GSN 1540 5300 M 0 -36 rL SGR
GSN 1586 1700 M 0  36 rL SGR
GSN 1586 5300 M 0 -36 rL SGR
GSN 1626 1700 M 0  36 rL SGR
GSN 1626 5300 M 0 -36 rL SGR
GSN 1660 1700 M 0  36 rL SGR
GSN 1660 5300 M 0 -36 rL SGR
GSN 1690 1700 M 0  36 rL SGR
GSN 1690 5300 M 0 -36 rL SGR
GSN 1893 1700 M 0  36 rL SGR
GSN 1893 5300 M 0 -36 rL SGR
GSN 1996 1700 M 0  36 rL SGR
GSN 1996 5300 M 0 -36 rL SGR
GSN 2069 1700 M 0  36 rL SGR
GSN 2069 5300 M 0 -36 rL SGR
GSN 2126 1700 M 0  36 rL SGR
GSN 2126 5300 M 0 -36 rL SGR
GSN 2173 1700 M 0  36 rL SGR
GSN 2173 5300 M 0 -36 rL SGR
GSN 2212 1700 M 0  36 rL SGR
GSN 2212 5300 M 0 -36 rL SGR
GSN 2246 1700 M 0  36 rL SGR
GSN 2246 5300 M 0 -36 rL SGR
GSN 2276 1700 M 0  36 rL SGR
GSN 2276 5300 M 0 -36 rL SGR
GSN 2479 1700 M 0  36 rL SGR
GSN 2479 5300 M 0 -36 rL SGR
GSN 2583 1700 M 0  36 rL SGR
GSN 2583 5300 M 0 -36 rL SGR
GSN 2656 1700 M 0  36 rL SGR
GSN 2656 5300 M 0 -36 rL SGR
GSN 2713 1700 M 0  36 rL SGR
GSN 2713 5300 M 0 -36 rL SGR
GSN 2759 1700 M 0  36 rL SGR
GSN 2759 5300 M 0 -36 rL SGR
GSN 2798 1700 M 0  36 rL SGR
GSN 2798 5300 M 0 -36 rL SGR
GSN 2832 1700 M 0  36 rL SGR
GSN 2832 5300 M 0 -36 rL SGR
GSN 2862 1700 M 0  36 rL SGR
GSN 2862 5300 M 0 -36 rL SGR
GSN 3066 1700 M 0  36 rL SGR
GSN 3066 5300 M 0 -36 rL SGR
GSN 3169 1700 M 0  36 rL SGR
GSN 3169 5300 M 0 -36 rL SGR
GSN 3242 1700 M 0  36 rL SGR
GSN 3242 5300 M 0 -36 rL SGR
GSN 3299 1700 M 0  36 rL SGR
GSN 3299 5300 M 0 -36 rL SGR
GSN 3345 1700 M 0  36 rL SGR
GSN 3345 5300 M 0 -36 rL SGR
GSN 3385 1700 M 0  36 rL SGR
GSN 3385 5300 M 0 -36 rL SGR
GSN 3419 1700 M 0  36 rL SGR
GSN 3419 5300 M 0 -36 rL SGR
GSN 3449 1700 M 0  36 rL SGR
GSN 3449 5300 M 0 -36 rL SGR
GSN 3652 1700 M 0  36 rL SGR
GSN 3652 5300 M 0 -36 rL SGR
GSN 3755 1700 M 0  36 rL SGR
GSN 3755 5300 M 0 -36 rL SGR
GSN 3829 1700 M 0  36 rL SGR
GSN 3829 5300 M 0 -36 rL SGR
GSN 3885 1700 M 0  36 rL SGR
GSN 3885 5300 M 0 -36 rL SGR
GSN 3932 1700 M 0  36 rL SGR
GSN 3932 5300 M 0 -36 rL SGR
GSN 3971 1700 M 0  36 rL SGR
GSN 3971 5300 M 0 -36 rL SGR
GSN 4005 1700 M 0  36 rL SGR
GSN 4005 5300 M 0 -36 rL SGR
GSN 4035 1700 M 0  36 rL SGR
GSN 4035 5300 M 0 -36 rL SGR
%
% Y axis: large tics
%
L10
GSN 620 2363 M 54 0 rL SGR
GSN 4220 2363 M -54 0 rL SGR
helvS (0.96) 560 2363 ylabel
GSN 620 3174 M 54 0 rL SGR
GSN 4220 3174 M -54 0 rL SGR
helvS (0.98) 560 3174 ylabel
GSN 620 3986 M 54 0 rL SGR
GSN 4220 3986 M -54 0 rL SGR
helvS (1) 560 3986 ylabel
GSN 620 4797 M 54 0 rL SGR
GSN 4220 4797 M -54 0 rL SGR
helvS (1.02) 560 4797 ylabel
%
% Y axis: small tics
%
L5
GSN 620 1754 M 36 0 rL SGR
GSN 4220 1754 M -36 0 rL SGR
GSN 620 1957 M 36 0 rL SGR
GSN 4220 1957 M -36 0 rL SGR
GSN 620 2160 M 36 0 rL SGR
GSN 4220 2160 M -36 0 rL SGR
GSN 620 2363 M 36 0 rL SGR
GSN 4220 2363 M -36 0 rL SGR
GSN 620 2566 M 36 0 rL SGR
GSN 4220 2566 M -36 0 rL SGR
GSN 620 2769 M 36 0 rL SGR
GSN 4220 2769 M -36 0 rL SGR
GSN 620 2972 M 36 0 rL SGR
GSN 4220 2972 M -36 0 rL SGR
GSN 620 3174 M 36 0 rL SGR
GSN 4220 3174 M -36 0 rL SGR
GSN 620 3377 M 36 0 rL SGR
GSN 4220 3377 M -36 0 rL SGR
GSN 620 3580 M 36 0 rL SGR
GSN 4220 3580 M -36 0 rL SGR
GSN 620 3783 M 36 0 rL SGR
GSN 4220 3783 M -36 0 rL SGR
GSN 620 3986 M 36 0 rL SGR
GSN 4220 3986 M -36 0 rL SGR
GSN 620 4189 M 36 0 rL SGR
GSN 4220 4189 M -36 0 rL SGR
GSN 620 4392 M 36 0 rL SGR
GSN 4220 4392 M -36 0 rL SGR
GSN 620 4595 M 36 0 rL SGR
GSN 4220 4595 M -36 0 rL SGR
GSN 620 4797 M 36 0 rL SGR
GSN 4220 4797 M -36 0 rL SGR
GSN 620 5000 M 36 0 rL SGR
GSN 4220 5000 M -36 0 rL SGR
GSN 620 5203 M 36 0 rL SGR
GSN 4220 5203 M -36 0 rL SGR

%
% X-Axis label:
%
gsave 2420 290 M 
[
[(Helvetica) 180 0 true true 0 (t)]
[(Helvetica) 180 0 true true 0 (i)]
[(Helvetica) 180 0 true true 0 (m)]
[(Helvetica) 180 0 true true 0 (e)]
] 0 MCshow grestore

%
% Y-Axis label:
%
gsave 234 3500 M 
currentpoint gsave translate 90 rotate 0 0 moveto
[
[(Helvetica) 180 0 true true 0 (s)]
[(Helvetica) 180 0 true true 0 (i)]
[(Helvetica) 180 0 true true 0 (g)]
[(Helvetica) 180 0 true true 0 (n)]
[(Helvetica) 180 0 true true 0 (a)]
[(Helvetica) 180 0 true true 0 (l)]
] 0 MCshow grestore

%
% Residuals:
%
gsave 129 1160 M 
currentpoint gsave translate 90 rotate 0 0 moveto
[
[(Helvetica) 150 0 true true 0 (r)]
[(Helvetica) 150 0 true true 0 (e)]
[(Helvetica) 150 0 true true 0 (s)]
[(Helvetica) 150 0 true true 0 (i)]
[(Helvetica) 150 0 true true 0 (d)]
[(Helvetica) 150 0 true true 0 (u)]
[(Helvetica) 150 0 true true 0 (a)]
[(Helvetica) 150 0 true true 0 (l)]
[(Helvetica) 150 0 true true 0 (s)]
] 0 MCshow grestore

%
% Residual frame
%
L10
GSN 
620 620 M
4220 620 L
4220 1700 L
620 1700 L
closepath SGR
%
% X axis: large tics - residual frame
%
L10
GSN 1130 620 M 0  54 rL SGR
GSN 1130 1700 M 0 -54 rL SGR
GSN 1716 620 M 0  54 rL SGR
GSN 1716 1700 M 0 -54 rL SGR
GSN 2303 620 M 0  54 rL SGR
GSN 2303 1700 M 0 -54 rL SGR
GSN 2889 620 M 0  54 rL SGR
GSN 2889 1700 M 0 -54 rL SGR
GSN 3476 620 M 0  54 rL SGR
GSN 3476 1700 M 0 -54 rL SGR
GSN 4062 620 M 0  54 rL SGR
GSN 4062 1700 M 0 -54 rL SGR
%
% X axis: small tics - residual frame
%
L5
GSN 720 620 M 0  36 rL SGR
GSN 720 1700 M 0 -36 rL SGR
GSN 824 620 M 0  36 rL SGR
GSN 824 1700 M 0 -36 rL SGR
GSN 897 620 M 0  36 rL SGR
GSN 897 1700 M 0 -36 rL SGR
GSN 954 620 M 0  36 rL SGR
GSN 954 1700 M 0 -36 rL SGR
GSN 1000 620 M 0  36 rL SGR
GSN 1000 1700 M 0 -36 rL SGR
GSN 1039 620 M 0  36 rL SGR
GSN 1039 1700 M 0 -36 rL SGR
GSN 1073 620 M 0  36 rL SGR
GSN 1073 1700 M 0 -36 rL SGR
GSN 1103 620 M 0  36 rL SGR
GSN 1103 1700 M 0 -36 rL SGR
GSN 1307 620 M 0  36 rL SGR
GSN 1307 1700 M 0 -36 rL SGR
GSN 1410 620 M 0  36 rL SGR
GSN 1410 1700 M 0 -36 rL SGR
GSN 1483 620 M 0  36 rL SGR
GSN 1483 1700 M 0 -36 rL SGR
GSN 1540 620 M 0  36 rL SGR
GSN 1540 1700 M 0 -36 rL SGR
GSN 1586 620 M 0  36 rL SGR
GSN 1586 1700 M 0 -36 rL SGR
GSN 1626 620 M 0  36 rL SGR
GSN 1626 1700 M 0 -36 rL SGR
GSN 1660 620 M 0  36 rL SGR
GSN 1660 1700 M 0 -36 rL SGR
GSN 1690 620 M 0  36 rL SGR
GSN 1690 1700 M 0 -36 rL SGR
GSN 1893 620 M 0  36 rL SGR
GSN 1893 1700 M 0 -36 rL SGR
GSN 1996 620 M 0  36 rL SGR
GSN 1996 1700 M 0 -36 rL SGR
GSN 2069 620 M 0  36 rL SGR
GSN 2069 1700 M 0 -36 rL SGR
GSN 2126 620 M 0  36 rL SGR
GSN 2126 1700 M 0 -36 rL SGR
GSN 2173 620 M 0  36 rL SGR
GSN 2173 1700 M 0 -36 rL SGR
GSN 2212 620 M 0  36 rL SGR
GSN 2212 1700 M 0 -36 rL SGR
GSN 2246 620 M 0  36 rL SGR
GSN 2246 1700 M 0 -36 rL SGR
GSN 2276 620 M 0  36 rL SGR
GSN 2276 1700 M 0 -36 rL SGR
GSN 2479 620 M 0  36 rL SGR
GSN 2479 1700 M 0 -36 rL SGR
GSN 2583 620 M 0  36 rL SGR
GSN 2583 1700 M 0 -36 rL SGR
GSN 2656 620 M 0  36 rL SGR
GSN 2656 1700 M 0 -36 rL SGR
GSN 2713 620 M 0  36 rL SGR
GSN 2713 1700 M 0 -36 rL SGR
GSN 2759 620 M 0  36 rL SGR
GSN 2759 1700 M 0 -36 rL SGR
GSN 2798 620 M 0  36 rL SGR
GSN 2798 1700 M 0 -36 rL SGR
GSN 2832 620 M 0  36 rL SGR
GSN 2832 1700 M 0 -36 rL SGR
GSN 2862 620 M 0  36 rL SGR
GSN 2862 1700 M 0 -36 rL SGR
GSN 3066 620 M 0  36 rL SGR
GSN 3066 1700 M 0 -36 rL SGR
GSN 3169 620 M 0  36 rL SGR
GSN 3169 1700 M 0 -36 rL SGR
GSN 3242 620 M 0  36 rL SGR
GSN 3242 1700 M 0 -36 rL SGR
GSN 3299 620 M 0  36 rL SGR
GSN 3299 1700 M 0 -36 rL SGR
GSN 3345 620 M 0  36 rL SGR
GSN 3345 1700 M 0 -36 rL SGR
GSN 3385 620 M 0  36 rL SGR
GSN 3385 1700 M 0 -36 rL SGR
GSN 3419 620 M 0  36 rL SGR
GSN 3419 1700 M 0 -36 rL SGR
GSN 3449 620 M 0  36 rL SGR
GSN 3449 1700 M 0 -36 rL SGR
GSN 3652 620 M 0  36 rL SGR
GSN 3652 1700 M 0 -36 rL SGR
GSN 3755 620 M 0  36 rL SGR
GSN 3755 1700 M 0 -36 rL SGR
GSN 3829 620 M 0  36 rL SGR
GSN 3829 1700 M 0 -36 rL SGR
GSN 3885 620 M 0  36 rL SGR
GSN 3885 1700 M 0 -36 rL SGR
GSN 3932 620 M 0  36 rL SGR
GSN 3932 1700 M 0 -36 rL SGR
GSN 3971 620 M 0  36 rL SGR
GSN 3971 1700 M 0 -36 rL SGR
GSN 4005 620 M 0  36 rL SGR
GSN 4005 1700 M 0 -36 rL SGR
GSN 4035 620 M 0  36 rL SGR
GSN 4035 1700 M 0 -36 rL SGR
%
% Y axis: large tics - residual frame
%
L10
GSN 620 699 M 54 0 rL SGR
GSN 4220 699 M -54 0 rL SGR
helvS (-0.01) 560 699 ylabelresid
GSN 620 1140 M 54 0 rL SGR
GSN 4220 1140 M -54 0 rL SGR
helvS (0) 560 1140 ylabelresid
GSN 620 1581 M 54 0 rL SGR
GSN 4220 1581 M -54 0 rL SGR
helvS (0.01) 560 1581 ylabelresid

%
% X axis - residual panel
%
GSN L5 620 1140 M 4220 1140 L SDA G50 SGR

end
showpage
%%Trailer
%%EOF
