%!PS-Adobe-3.0 EPSF-3.0
%%BoundingBox: 0 0 514 442
%%Creator: BioKin Ltd.
%%DocumentFonts: Symbol Helvetica
%%EndComments
%
/bkdict 256 dict def
bkdict begin
/M {moveto} def 
/R {rmoveto} def
/L {lineto} def
/rL {rlineto} def
/GSN {gsave newpath} def
/SGR {stroke grestore} def
/COSGR {gsave setrgbcolor stroke grestore grestore} def
/SL {setlinewidth} def
/LWMB {12} def             % line width - model curves, black & white
/LWMC {10} def             % line width - model curves, color
/L2 {2.5 setlinewidth} def
/L5 {5 setlinewidth} def
/L10 {10 setlinewidth} def
/G50 {0.5 setgray} def
/SDA {[10  20] 0 setdash} def % axes
/helvT {/Helvetica findfont 100 scalefont setfont} def % tiny
/helvS {/Helvetica findfont 125 scalefont setfont} def % small
/helvM {/Helvetica findfont 150 scalefont setfont} def % medium
/helvL {/Helvetica findfont 175 scalefont setfont} def % large
/xlabel {gsave M dup
   stringwidth exch -0.5 mul exch rmoveto show grestore} def 
/ylabel {gsave M 90 rotate dup
   stringwidth exch -0.5 mul exch rmoveto show grestore} def
/ylabelresid {gsave M dup
   stringwidth exch -1 mul exch rmoveto show grestore} def
% ======
% Shapes
% ======
% Circle:
/Circ {0 360 arc closepath} def
%
% Square:
/Squa {dup dup -0.5 mul dup dup R -2 mul 0 exch rL 1 mul 0 rL dup 0 exch -1 mul rL closepath} def
%
% Triangle Up:
/TriU {dup dup dup -0.4 mul exch -0.5 mul exch R dup 0.5 mul exch rL dup -1 mul exch 0.5 mul exch rL closepath} def 
%
% Triangle Down:
/TriD {dup dup dup 0.4 mul exch -0.5 mul exch R dup 0.5 mul exch -1 mul rL dup 0.5 mul exch rL closepath} def 
%
% Diamond:
/Diam {45 rotate Squa} def
% ======
% Fills
% ======
/GRF {gsave setgray fill grestore} def                    % gray-level Fill
/COF {gsave setrgbcolor fill grestore} def                % color fill
% ======
% Colors
% ======
/C01 {1.00	0.00	0.00} def      % Red
/C02 {0.00	0.00	1.00} def      % Blue
/C03 {0.00	0.39	0.00} def      % Dark Green
/C04 {0.78	0.08	0.52} def      % Medium Violet Red
/C05 {0.55	0.27	0.07} def      % Saddle Brown
/C06 {0.10	0.70	0.70} def      % (cyan)
/C07 {1.00	0.55	0.00} def      % Dark Orange
/C08 {0.63	0.13	0.94} def      % Purple
/C09 {0.00	0.75	1.00} def      % Deep Sky Blue
/C10 {0.20	0.80	0.20} def      % Lime Green
/C11 {0.47	0.53	0.60} def      % Light Slate Gray
/C12 {0.00	0.00	0.00} def      % Black            % or: {0.19	0.31	0.31} def      % Dark Slate Gray
%
/LGR {0.75} def % light gray
/DGR {0.33} def % dark gray
%
% =============
% Dash patterns
% =============
/dash01 { [80  20] 0 setdash } def
/dash02 { [40  20] 0 setdash } def
/dash03 { [80  20  10  20] 0 setdash } def
/dash04 { [40  20  10  20] 0 setdash } def
/dash05 { [80  20  10  10  10  20] 0 setdash } def
/dash06 { [40  20  10  10  10  20] 0 setdash } def
/dash07 { [10  10] 0 setdash } def
%
/MFshow {
   { dup 5 get 3 ge
     { 5 get 3 eq {gsave} {grestore} ifelse }
     {dup dup 0 get findfont exch 1 get scalefont setfont
     [ currentpoint ] exch dup 2 get 0 exch R dup 5 get 2 ne {dup dup 6
     get exch 4 get {show} {stringwidth pop 0 R} ifelse }if dup 5 get 0 eq
     {dup 3 get {2 get neg 0 exch R pop} {pop aload pop M} ifelse} {dup 5
     get 1 eq {dup 2 get exch dup 3 get exch 6 get stringwidth pop -2 div
     dup 0 R} {dup 6 get stringwidth pop -2 div 0 R 6 get
     show 2 index {aload pop M neg 3 -1 roll neg R pop pop} {pop pop pop
     pop aload pop M} ifelse }ifelse }ifelse }
     ifelse }
   forall} bind def
/MFwidth {0 exch {dup 3 get{dup dup 0 get findfont exch 1 get scalefont
     setfont 6 get stringwidth pop add} {pop} ifelse} forall} bind def
/MCshow { currentpoint stroke M
  exch dup MFwidth -2 div 3 -1 roll R MFshow } def
%
end
%%EndProlog
bkdict begin
0.1 0.1 scale
%
% Model curves:
%

GSN 753 2839 M
770 2839 L
803 2837 L
837 2835 L
870 2833 L
903 2831 L
924 2828 L
941 2827 L
970 2825 L
1003 2822 L
1037 2818 L
1070 2813 L
1096 2808 L
1113 2805 L
1137 2803 L
1170 2796 L
1203 2789 L
1237 2781 L
1268 2772 L
1284 2763 L
1303 2762 L
1337 2750 L
1370 2738 L
1403 2724 L
1437 2709 L
1456 2692 L
1473 2689 L
1503 2674 L
1537 2654 L
1570 2633 L
1603 2610 L
1628 2586 L
1644 2574 L
1670 2560 L
1703 2534 L
1737 2507 L
1770 2480 L
1799 2453 L
1816 2433 L
1837 2427 L
1870 2403 L
1903 2380 L
1937 2360 L
1970 2342 L
1987 2328 L
2004 2327 L
2037 2317 L
2070 2308 L
2103 2303 L
2137 2300 L
2159 2299 L
2176 2299 L
2203 2299 L
2237 2300 L
2270 2303 L
2303 2305 L
2331 2308 L
2347 2311 L
2370 2312 L
2403 2316 L
2437 2321 L
2470 2326 L
2503 2332 L
2519 2338 L
2537 2338 L
2570 2345 L
2603 2353 L
2637 2361 L
2670 2371 L
2690 2381 L
2707 2383 L
2737 2391 L
2770 2403 L
2803 2415 L
2837 2428 L
2862 2441 L
2879 2449 L
2903 2455 L
2937 2469 L
2970 2484 L
3003 2498 L
3034 2512 L
3050 2524 L
3070 2526 L
3103 2539 L
3137 2552 L
3170 2563 L
3203 2573 L
3222 2583 L
3239 2584 L
3270 2591 L
3303 2597 L
3337 2603 L
3370 2607 L
3393 2610 L
3410 2611 L
3437 2611 L
3464 2612 L
3481 2613 L
3503 2613 L
3537 2612 L
3565 2611 L
3582 2611 L
3603 2610 L
3637 2609 L
3670 2608 L
3703 2607 L
3737 2607 L
3753 2606 L
3770 2606 L
3803 2606 L
3837 2606 L
3870 2606 L
3903 2606 L
3925 2606 L
3942 2606 L
3970 2606 L
4003 2606 L
4037 2606 L
4070 2606 L
4086 2606 L
LWMC SL dash01 C01 COSGR

GSN 753 3066 M
770 3066 L
803 3062 L
837 3059 L
870 3055 L
903 3050 L
924 3045 L
941 3043 L
970 3039 L
1003 3032 L
1037 3024 L
1070 3015 L
1096 3005 L
1113 2999 L
1137 2994 L
1170 2981 L
1203 2967 L
1237 2951 L
1268 2933 L
1284 2916 L
1303 2913 L
1337 2891 L
1370 2867 L
1403 2839 L
1437 2809 L
1456 2776 L
1473 2770 L
1503 2740 L
1537 2701 L
1570 2659 L
1603 2614 L
1628 2566 L
1644 2542 L
1670 2516 L
1703 2464 L
1737 2411 L
1770 2358 L
1799 2305 L
1816 2266 L
1837 2254 L
1870 2206 L
1903 2161 L
1937 2122 L
1970 2088 L
1987 2060 L
2004 2058 L
2037 2038 L
2070 2023 L
2103 2013 L
2137 2007 L
2159 2006 L
2176 2006 L
2203 2008 L
2237 2012 L
2270 2018 L
2303 2025 L
2331 2033 L
2347 2039 L
2370 2042 L
2403 2052 L
2437 2064 L
2470 2077 L
2503 2090 L
2519 2105 L
2537 2106 L
2570 2123 L
2603 2141 L
2637 2160 L
2670 2182 L
2690 2204 L
2707 2210 L
2737 2228 L
2770 2253 L
2803 2279 L
2837 2305 L
2862 2333 L
2879 2348 L
2903 2360 L
2937 2387 L
2970 2414 L
3003 2440 L
3034 2465 L
3050 2485 L
3070 2489 L
3103 2511 L
3137 2531 L
3170 2549 L
3203 2564 L
3222 2578 L
3239 2579 L
3270 2589 L
3303 2598 L
3337 2605 L
3370 2610 L
3393 2613 L
3410 2614 L
3437 2615 L
3464 2616 L
3481 2616 L
3503 2616 L
3537 2615 L
3565 2613 L
3582 2612 L
3603 2612 L
3637 2610 L
3670 2609 L
3703 2608 L
3737 2607 L
3753 2606 L
3770 2606 L
3803 2606 L
3837 2606 L
3870 2606 L
3903 2606 L
3925 2606 L
3942 2606 L
3970 2606 L
4003 2606 L
4037 2606 L
4070 2606 L
4086 2606 L
LWMC SL dash02 C02 COSGR

GSN 753 3281 M
770 3281 L
803 3277 L
837 3271 L
870 3265 L
903 3258 L
924 3250 L
941 3248 L
970 3241 L
1003 3231 L
1037 3220 L
1070 3207 L
1096 3192 L
1113 3183 L
1137 3176 L
1170 3157 L
1203 3137 L
1237 3113 L
1268 3087 L
1284 3061 L
1303 3058 L
1337 3025 L
1370 2989 L
1403 2948 L
1437 2904 L
1456 2856 L
1473 2846 L
1503 2802 L
1537 2745 L
1570 2683 L
1603 2617 L
1628 2547 L
1644 2512 L
1670 2473 L
1703 2397 L
1737 2320 L
1770 2241 L
1799 2164 L
1816 2106 L
1837 2089 L
1870 2019 L
1903 1954 L
1937 1896 L
1970 1847 L
1987 1807 L
2004 1804 L
2037 1776 L
2070 1754 L
2103 1740 L
2137 1734 L
2159 1734 L
2176 1735 L
2203 1738 L
2237 1746 L
2270 1756 L
2303 1769 L
2331 1783 L
2347 1794 L
2370 1800 L
2403 1818 L
2437 1838 L
2470 1860 L
2503 1884 L
2519 1909 L
2537 1910 L
2570 1938 L
2603 1969 L
2637 2001 L
2670 2036 L
2690 2072 L
2707 2082 L
2737 2110 L
2770 2150 L
2803 2190 L
2837 2231 L
2862 2271 L
2879 2293 L
2903 2312 L
2937 2351 L
2970 2389 L
3003 2425 L
3034 2458 L
3050 2485 L
3070 2489 L
3103 2517 L
3137 2542 L
3170 2563 L
3203 2582 L
3222 2596 L
3239 2598 L
3270 2608 L
3303 2617 L
3337 2622 L
3370 2625 L
3393 2626 L
3410 2626 L
3437 2625 L
3464 2623 L
3481 2621 L
3503 2620 L
3537 2618 L
3565 2615 L
3582 2613 L
3603 2613 L
3637 2611 L
3670 2609 L
3703 2608 L
3737 2607 L
3753 2607 L
3770 2607 L
3803 2606 L
3837 2606 L
3870 2606 L
3903 2606 L
3925 2606 L
3942 2606 L
3970 2606 L
4003 2606 L
4037 2606 L
4070 2606 L
4086 2606 L
LWMC SL dash03 C03 COSGR

GSN 753 3500 M
770 3500 L
803 3494 L
837 3487 L
870 3479 L
903 3470 L
924 3459 L
941 3456 L
970 3447 L
1003 3434 L
1037 3419 L
1070 3402 L
1096 3382 L
1113 3370 L
1137 3360 L
1170 3336 L
1203 3308 L
1237 3277 L
1268 3242 L
1284 3208 L
1303 3204 L
1337 3160 L
1370 3112 L
1403 3059 L
1437 3000 L
1456 2936 L
1473 2924 L
1503 2866 L
1537 2789 L
1570 2707 L
1603 2620 L
1628 2527 L
1644 2481 L
1670 2430 L
1703 2329 L
1737 2226 L
1770 2123 L
1799 2021 L
1816 1945 L
1837 1923 L
1870 1830 L
1903 1744 L
1937 1668 L
1970 1604 L
1987 1551 L
2004 1548 L
2037 1512 L
2070 1484 L
2103 1468 L
2137 1461 L
2159 1463 L
2176 1465 L
2203 1471 L
2237 1484 L
2270 1500 L
2303 1520 L
2331 1542 L
2347 1558 L
2370 1567 L
2403 1595 L
2437 1625 L
2470 1658 L
2503 1695 L
2519 1732 L
2537 1734 L
2570 1776 L
2603 1820 L
2637 1868 L
2670 1917 L
2690 1969 L
2707 1982 L
2737 2023 L
2770 2077 L
2803 2132 L
2837 2187 L
2862 2241 L
2879 2269 L
2903 2293 L
2937 2343 L
2970 2390 L
3003 2434 L
3034 2474 L
3050 2505 L
3070 2510 L
3103 2541 L
3137 2568 L
3170 2590 L
3203 2607 L
3222 2619 L
3239 2621 L
3270 2628 L
3303 2632 L
3337 2634 L
3370 2633 L
3393 2630 L
3410 2629 L
3437 2627 L
3464 2623 L
3481 2621 L
3503 2620 L
3537 2617 L
3565 2615 L
3582 2613 L
3603 2613 L
3637 2611 L
3670 2609 L
3703 2608 L
3737 2607 L
3753 2607 L
3770 2607 L
3803 2607 L
3837 2606 L
3870 2606 L
3903 2606 L
3925 2606 L
3942 2606 L
3970 2606 L
4003 2606 L
4037 2606 L
4070 2606 L
4086 2606 L
LWMC SL dash04 C04 COSGR

GSN 753 3595 M
770 3595 L
803 3589 L
837 3581 L
870 3572 L
903 3562 L
924 3550 L
941 3546 L
970 3537 L
1003 3522 L
1037 3505 L
1070 3486 L
1096 3465 L
1113 3451 L
1137 3441 L
1170 3414 L
1203 3383 L
1237 3349 L
1268 3310 L
1284 3272 L
1303 3267 L
1337 3219 L
1370 3166 L
1403 3107 L
1437 3042 L
1456 2971 L
1473 2957 L
1503 2893 L
1537 2809 L
1570 2718 L
1603 2621 L
1628 2518 L
1644 2468 L
1670 2411 L
1703 2299 L
1737 2186 L
1770 2072 L
1799 1959 L
1816 1874 L
1837 1850 L
1870 1747 L
1903 1653 L
1937 1569 L
1970 1498 L
1987 1441 L
2004 1438 L
2037 1398 L
2070 1368 L
2103 1350 L
2137 1344 L
2159 1347 L
2176 1350 L
2203 1357 L
2237 1372 L
2270 1392 L
2303 1415 L
2331 1442 L
2347 1461 L
2370 1471 L
2403 1504 L
2437 1539 L
2470 1578 L
2503 1620 L
2519 1663 L
2537 1665 L
2570 1714 L
2603 1765 L
2637 1820 L
2670 1877 L
2690 1936 L
2707 1950 L
2737 1996 L
2770 2057 L
2803 2118 L
2837 2179 L
2862 2239 L
2879 2270 L
2903 2296 L
2937 2350 L
2970 2400 L
3003 2447 L
3034 2489 L
3050 2520 L
3070 2525 L
3103 2556 L
3137 2582 L
3170 2603 L
3203 2618 L
3222 2628 L
3239 2630 L
3270 2634 L
3303 2637 L
3337 2636 L
3370 2633 L
3393 2630 L
3410 2628 L
3437 2626 L
3464 2623 L
3481 2621 L
3503 2620 L
3537 2617 L
3565 2615 L
3582 2613 L
3603 2612 L
3637 2611 L
3670 2609 L
3703 2608 L
3737 2608 L
3753 2607 L
3770 2607 L
3803 2607 L
3837 2606 L
3870 2606 L
3903 2606 L
3925 2606 L
3942 2606 L
3970 2606 L
4003 2606 L
4037 2606 L
4070 2606 L
4086 2606 L
LWMC SL dash05 C05 COSGR

GSN 753 3724 M
770 3724 L
803 3716 L
837 3707 L
870 3697 L
903 3685 L
924 3672 L
941 3668 L
970 3657 L
1003 3641 L
1037 3622 L
1070 3600 L
1096 3576 L
1113 3560 L
1137 3549 L
1170 3518 L
1203 3483 L
1237 3445 L
1268 3401 L
1284 3358 L
1303 3352 L
1337 3298 L
1370 3238 L
1403 3171 L
1437 3098 L
1456 3018 L
1473 3002 L
1503 2930 L
1537 2835 L
1570 2732 L
1603 2622 L
1628 2506 L
1644 2449 L
1670 2385 L
1703 2259 L
1737 2131 L
1770 2002 L
1799 1875 L
1816 1780 L
1837 1752 L
1870 1637 L
1903 1530 L
1937 1437 L
1970 1357 L
1987 1293 L
2004 1289 L
2037 1244 L
2070 1212 L
2103 1193 L
2137 1187 L
2159 1192 L
2176 1195 L
2203 1204 L
2237 1223 L
2270 1247 L
2303 1276 L
2331 1307 L
2347 1330 L
2370 1343 L
2403 1382 L
2437 1424 L
2470 1471 L
2503 1521 L
2519 1572 L
2537 1575 L
2570 1632 L
2603 1692 L
2637 1756 L
2670 1822 L
2690 1890 L
2707 1907 L
2737 1960 L
2770 2029 L
2803 2099 L
2837 2167 L
2862 2233 L
2879 2268 L
2903 2296 L
2937 2355 L
2970 2410 L
3003 2459 L
3034 2502 L
3050 2534 L
3070 2540 L
3103 2571 L
3137 2596 L
3170 2615 L
3203 2628 L
3222 2636 L
3239 2637 L
3270 2640 L
3303 2640 L
3337 2637 L
3370 2634 L
3393 2630 L
3410 2628 L
3437 2626 L
3464 2623 L
3481 2621 L
3503 2620 L
3537 2617 L
3565 2615 L
3582 2613 L
3603 2612 L
3637 2611 L
3670 2609 L
3703 2608 L
3737 2608 L
3753 2607 L
3770 2607 L
3803 2607 L
3837 2606 L
3870 2606 L
3903 2606 L
3925 2606 L
3942 2606 L
3970 2606 L
4003 2606 L
4037 2606 L
4070 2606 L
4086 2606 L
LWMC SL dash06 C06 COSGR

GSN 753 4086 M
770 4086 L
803 4076 L
837 4064 L
870 4050 L
903 4035 L
924 4018 L
941 4012 L
970 3998 L
1003 3976 L
1037 3951 L
1070 3923 L
1096 3890 L
1113 3870 L
1137 3854 L
1170 3813 L
1203 3767 L
1237 3716 L
1268 3658 L
1284 3601 L
1303 3594 L
1337 3522 L
1370 3442 L
1403 3354 L
1437 3256 L
1456 3150 L
1473 3129 L
1503 3033 L
1537 2907 L
1570 2771 L
1603 2626 L
1628 2472 L
1644 2397 L
1670 2312 L
1703 2145 L
1737 1976 L
1770 1806 L
1799 1638 L
1816 1512 L
1837 1476 L
1870 1324 L
1903 1185 L
1937 1063 L
1970 959 L
1987 877 L
2004 872 L
2037 816 L
2070 776 L
2103 756 L
2137 753 L
2159 764 L
2176 771 L
2203 787 L
2237 818 L
2270 857 L
2303 902 L
2331 952 L
2347 988 L
2370 1008 L
2403 1068 L
2437 1134 L
2470 1205 L
2503 1281 L
2519 1357 L
2537 1361 L
2570 1446 L
2603 1534 L
2637 1626 L
2670 1720 L
2690 1815 L
2707 1838 L
2737 1909 L
2770 2003 L
2803 2093 L
2837 2180 L
2862 2261 L
2879 2303 L
2903 2336 L
2937 2404 L
2970 2464 L
3003 2515 L
3034 2557 L
3050 2585 L
3070 2590 L
3103 2615 L
3137 2632 L
3170 2642 L
3203 2647 L
3222 2647 L
3239 2647 L
3270 2645 L
3303 2641 L
3337 2637 L
3370 2633 L
3393 2629 L
3410 2627 L
3437 2625 L
3464 2622 L
3481 2620 L
3503 2619 L
3537 2616 L
3565 2614 L
3582 2613 L
3603 2612 L
3637 2611 L
3670 2609 L
3703 2608 L
3737 2608 L
3753 2607 L
3770 2607 L
3803 2607 L
3837 2606 L
3870 2606 L
3903 2606 L
3925 2606 L
3942 2606 L
3970 2606 L
4003 2606 L
4037 2606 L
4070 2606 L
4086 2606 L
LWMC SL dash07 C07 COSGR

%
%================
% Legend - Begin
%================
%
GSN 4240 4040 M
4480 4040 L
LWMC SL dash01 C01 COSGR
GSN 4540 4001 M helvM (0.5 uM) show grestore
GSN 4240 3860 M
4480 3860 L
LWMC SL dash02 C02 COSGR
GSN 4540 3821 M helvM (1.0 uM) show grestore
GSN 4240 3680 M
4480 3680 L
LWMC SL dash03 C03 COSGR
GSN 4540 3641 M helvM (1.5 uM) show grestore
GSN 4240 3500 M
4480 3500 L
LWMC SL dash04 C04 COSGR
GSN 4540 3461 M helvM (2.0 uM) show grestore
GSN 4240 3320 M
4480 3320 L
LWMC SL dash05 C05 COSGR
GSN 4540 3281 M helvM (2.5 uM) show grestore
GSN 4240 3140 M
4480 3140 L
LWMC SL dash06 C06 COSGR
GSN 4540 3101 M helvM (3.0 uM) show grestore
GSN 4240 2960 M
4480 2960 L
LWMC SL dash07 C07 COSGR
GSN 4540 2921 M helvM (4.0 uM) show grestore
%
%================
% Legend - End
%================
%

%
% Main frame
%
L10
GSN 
620 620 M
4220 620 L
4220 4220 L
620 4220 L
closepath SGR

%
% X axis: large tics
%
L10
GSN 1130 620 M 0  54 rL SGR
GSN 1130 4220 M 0 -54 rL SGR
helvS (0.0001) 1130 470 xlabel
GSN 1716 620 M 0  54 rL SGR
GSN 1716 4220 M 0 -54 rL SGR
helvS (0.001) 1716 470 xlabel
GSN 2303 620 M 0  54 rL SGR
GSN 2303 4220 M 0 -54 rL SGR
helvS (0.01) 2303 470 xlabel
GSN 2889 620 M 0  54 rL SGR
GSN 2889 4220 M 0 -54 rL SGR
helvS (0.1) 2889 470 xlabel
GSN 3476 620 M 0  54 rL SGR
GSN 3476 4220 M 0 -54 rL SGR
helvS (1) 3476 470 xlabel
GSN 4062 620 M 0  54 rL SGR
GSN 4062 4220 M 0 -54 rL SGR
helvS (10) 4062 470 xlabel
%
% X axis: small tics
%
L5
GSN 720 620 M 0  36 rL SGR
GSN 720 4220 M 0 -36 rL SGR
GSN 824 620 M 0  36 rL SGR
GSN 824 4220 M 0 -36 rL SGR
GSN 897 620 M 0  36 rL SGR
GSN 897 4220 M 0 -36 rL SGR
GSN 954 620 M 0  36 rL SGR
GSN 954 4220 M 0 -36 rL SGR
GSN 1000 620 M 0  36 rL SGR
GSN 1000 4220 M 0 -36 rL SGR
GSN 1039 620 M 0  36 rL SGR
GSN 1039 4220 M 0 -36 rL SGR
GSN 1073 620 M 0  36 rL SGR
GSN 1073 4220 M 0 -36 rL SGR
GSN 1103 620 M 0  36 rL SGR
GSN 1103 4220 M 0 -36 rL SGR
GSN 1307 620 M 0  36 rL SGR
GSN 1307 4220 M 0 -36 rL SGR
GSN 1410 620 M 0  36 rL SGR
GSN 1410 4220 M 0 -36 rL SGR
GSN 1483 620 M 0  36 rL SGR
GSN 1483 4220 M 0 -36 rL SGR
GSN 1540 620 M 0  36 rL SGR
GSN 1540 4220 M 0 -36 rL SGR
GSN 1586 620 M 0  36 rL SGR
GSN 1586 4220 M 0 -36 rL SGR
GSN 1626 620 M 0  36 rL SGR
GSN 1626 4220 M 0 -36 rL SGR
GSN 1660 620 M 0  36 rL SGR
GSN 1660 4220 M 0 -36 rL SGR
GSN 1690 620 M 0  36 rL SGR
GSN 1690 4220 M 0 -36 rL SGR
GSN 1893 620 M 0  36 rL SGR
GSN 1893 4220 M 0 -36 rL SGR
GSN 1996 620 M 0  36 rL SGR
GSN 1996 4220 M 0 -36 rL SGR
GSN 2069 620 M 0  36 rL SGR
GSN 2069 4220 M 0 -36 rL SGR
GSN 2126 620 M 0  36 rL SGR
GSN 2126 4220 M 0 -36 rL SGR
GSN 2173 620 M 0  36 rL SGR
GSN 2173 4220 M 0 -36 rL SGR
GSN 2212 620 M 0  36 rL SGR
GSN 2212 4220 M 0 -36 rL SGR
GSN 2246 620 M 0  36 rL SGR
GSN 2246 4220 M 0 -36 rL SGR
GSN 2276 620 M 0  36 rL SGR
GSN 2276 4220 M 0 -36 rL SGR
GSN 2479 620 M 0  36 rL SGR
GSN 2479 4220 M 0 -36 rL SGR
GSN 2583 620 M 0  36 rL SGR
GSN 2583 4220 M 0 -36 rL SGR
GSN 2656 620 M 0  36 rL SGR
GSN 2656 4220 M 0 -36 rL SGR
GSN 2713 620 M 0  36 rL SGR
GSN 2713 4220 M 0 -36 rL SGR
GSN 2759 620 M 0  36 rL SGR
GSN 2759 4220 M 0 -36 rL SGR
GSN 2798 620 M 0  36 rL SGR
GSN 2798 4220 M 0 -36 rL SGR
GSN 2832 620 M 0  36 rL SGR
GSN 2832 4220 M 0 -36 rL SGR
GSN 2862 620 M 0  36 rL SGR
GSN 2862 4220 M 0 -36 rL SGR
GSN 3066 620 M 0  36 rL SGR
GSN 3066 4220 M 0 -36 rL SGR
GSN 3169 620 M 0  36 rL SGR
GSN 3169 4220 M 0 -36 rL SGR
GSN 3242 620 M 0  36 rL SGR
GSN 3242 4220 M 0 -36 rL SGR
GSN 3299 620 M 0  36 rL SGR
GSN 3299 4220 M 0 -36 rL SGR
GSN 3345 620 M 0  36 rL SGR
GSN 3345 4220 M 0 -36 rL SGR
GSN 3385 620 M 0  36 rL SGR
GSN 3385 4220 M 0 -36 rL SGR
GSN 3419 620 M 0  36 rL SGR
GSN 3419 4220 M 0 -36 rL SGR
GSN 3449 620 M 0  36 rL SGR
GSN 3449 4220 M 0 -36 rL SGR
GSN 3652 620 M 0  36 rL SGR
GSN 3652 4220 M 0 -36 rL SGR
GSN 3755 620 M 0  36 rL SGR
GSN 3755 4220 M 0 -36 rL SGR
GSN 3829 620 M 0  36 rL SGR
GSN 3829 4220 M 0 -36 rL SGR
GSN 3885 620 M 0  36 rL SGR
GSN 3885 4220 M 0 -36 rL SGR
GSN 3932 620 M 0  36 rL SGR
GSN 3932 4220 M 0 -36 rL SGR
GSN 3971 620 M 0  36 rL SGR
GSN 3971 4220 M 0 -36 rL SGR
GSN 4005 620 M 0  36 rL SGR
GSN 4005 4220 M 0 -36 rL SGR
GSN 4035 620 M 0  36 rL SGR
GSN 4035 4220 M 0 -36 rL SGR
%
% Y axis: large tics
%
L10
GSN 620 1316 M 54 0 rL SGR
GSN 4220 1316 M -54 0 rL SGR
helvS (-1) 560 1316 ylabel
GSN 620 2606 M 54 0 rL SGR
GSN 4220 2606 M -54 0 rL SGR
helvS (0) 560 2606 ylabel
GSN 620 3896 M 54 0 rL SGR
GSN 4220 3896 M -54 0 rL SGR
helvS (1) 560 3896 ylabel
%
% Y axis: small tics
%
L5
GSN 620 671 M 36 0 rL SGR
GSN 4220 671 M -36 0 rL SGR
GSN 620 993 M 36 0 rL SGR
GSN 4220 993 M -36 0 rL SGR
GSN 620 1316 M 36 0 rL SGR
GSN 4220 1316 M -36 0 rL SGR
GSN 620 1638 M 36 0 rL SGR
GSN 4220 1638 M -36 0 rL SGR
GSN 620 1961 M 36 0 rL SGR
GSN 4220 1961 M -36 0 rL SGR
GSN 620 2283 M 36 0 rL SGR
GSN 4220 2283 M -36 0 rL SGR
GSN 620 2606 M 36 0 rL SGR
GSN 4220 2606 M -36 0 rL SGR
GSN 620 2928 M 36 0 rL SGR
GSN 4220 2928 M -36 0 rL SGR
GSN 620 3251 M 36 0 rL SGR
GSN 4220 3251 M -36 0 rL SGR
GSN 620 3573 M 36 0 rL SGR
GSN 4220 3573 M -36 0 rL SGR
GSN 620 3896 M 36 0 rL SGR
GSN 4220 3896 M -36 0 rL SGR
GSN 620 4218 M 36 0 rL SGR
GSN 4220 4218 M -36 0 rL SGR

%
% X axis
%
GSN L5 620 2606 M 4220 2606 L SDA G50 SGR

%
% X-Axis label:
%
gsave 2420 290 M 
[
[(Helvetica) 180 0 true true 0 (t)]
[(Helvetica) 180 0 true true 0 (i)]
[(Helvetica) 180 0 true true 0 (m)]
[(Helvetica) 180 0 true true 0 (e)]
] 0 MCshow grestore

%
% Y-Axis label:
%
gsave 234 2420 M 
currentpoint gsave translate 90 rotate 0 0 moveto
[
[(Helvetica) 180 0 true true 0 (d)]
[(Helvetica) 180 0 true true 0 (\()]
[(Helvetica) 180 0 true true 0 (s)]
[(Helvetica) 180 0 true true 0 (i)]
[(Helvetica) 180 0 true true 0 (g)]
[(Helvetica) 180 0 true true 0 (n)]
[(Helvetica) 180 0 true true 0 (a)]
[(Helvetica) 180 0 true true 0 (l)]
[(Helvetica) 180 0 true true 0 (\))]
[(Helvetica) 180 0 true true 0 ( )]
[(Helvetica) 180 0 true true 0 (/)]
[(Helvetica) 180 0 true true 0 ( )]
[(Helvetica) 180 0 true true 0 (d)]
[(Helvetica) 180 0 true true 0 (t)]
] 0 MCshow grestore

end
showpage
%%Trailer
%%EOF
