%!PS-Adobe-3.0 EPSF-3.0
%%BoundingBox: 0 0 514 550
%%Creator: BioKin Ltd.
%%DocumentFonts: Symbol Helvetica
%%EndComments
%
/bkdict 256 dict def
bkdict begin
/M {moveto} def 
/R {rmoveto} def
/L {lineto} def
/rL {rlineto} def
/GSN {gsave newpath} def
/SGR {stroke grestore} def
/COSGR {gsave setrgbcolor stroke grestore grestore} def
/SL {setlinewidth} def
/LWMB {12} def             % line width - model curves, black & white
/LWMC {10} def             % line width - model curves, color
/L2 {2.5 setlinewidth} def
/L5 {5 setlinewidth} def
/L10 {10 setlinewidth} def
/G50 {0.5 setgray} def
/SDA {[10  20] 0 setdash} def % axes
/helvT {/Helvetica findfont 100 scalefont setfont} def % tiny
/helvS {/Helvetica findfont 125 scalefont setfont} def % small
/helvM {/Helvetica findfont 150 scalefont setfont} def % medium
/helvL {/Helvetica findfont 175 scalefont setfont} def % large
/xlabel {gsave M dup
   stringwidth exch -0.5 mul exch rmoveto show grestore} def 
/ylabel {gsave M 90 rotate dup
   stringwidth exch -0.5 mul exch rmoveto show grestore} def
/ylabelresid {gsave M dup
   stringwidth exch -1 mul exch rmoveto show grestore} def
% ======
% Shapes
% ======
% Circle:
/Circ {0 360 arc closepath} def
%
% Square:
/Squa {dup dup -0.5 mul dup dup R -2 mul 0 exch rL 1 mul 0 rL dup 0 exch -1 mul rL closepath} def
%
% Triangle Up:
/TriU {dup dup dup -0.4 mul exch -0.5 mul exch R dup 0.5 mul exch rL dup -1 mul exch 0.5 mul exch rL closepath} def 
%
% Triangle Down:
/TriD {dup dup dup 0.4 mul exch -0.5 mul exch R dup 0.5 mul exch -1 mul rL dup 0.5 mul exch rL closepath} def 
%
% Diamond:
/Diam {45 rotate Squa} def
% ======
% Fills
% ======
/GRF {gsave setgray fill grestore} def                    % gray-level Fill
/COF {gsave setrgbcolor fill grestore} def                % color fill
% ======
% Colors
% ======
/C01 {1.00	0.00	0.00} def      % Red
/C02 {0.00	0.00	1.00} def      % Blue
/C03 {0.00	0.39	0.00} def      % Dark Green
/C04 {0.78	0.08	0.52} def      % Medium Violet Red
/C05 {0.55	0.27	0.07} def      % Saddle Brown
/C06 {0.10	0.70	0.70} def      % (cyan)
/C07 {1.00	0.55	0.00} def      % Dark Orange
/C08 {0.63	0.13	0.94} def      % Purple
/C09 {0.00	0.75	1.00} def      % Deep Sky Blue
/C10 {0.20	0.80	0.20} def      % Lime Green
/C11 {0.47	0.53	0.60} def      % Light Slate Gray
/C12 {0.00	0.00	0.00} def      % Black            % or: {0.19	0.31	0.31} def      % Dark Slate Gray
%
/LGR {0.75} def % light gray
/DGR {0.33} def % dark gray
%
% =============
% Dash patterns
% =============
/dash01 { [80  20] 0 setdash } def
/dash02 { [40  20] 0 setdash } def
/dash03 { [80  20  10  20] 0 setdash } def
/dash04 { [40  20  10  20] 0 setdash } def
/dash05 { [80  20  10  10  10  20] 0 setdash } def
/dash06 { [40  20  10  10  10  20] 0 setdash } def
/dash07 { [10  10] 0 setdash } def
%
/MFshow {
   { dup 5 get 3 ge
     { 5 get 3 eq {gsave} {grestore} ifelse }
     {dup dup 0 get findfont exch 1 get scalefont setfont
     [ currentpoint ] exch dup 2 get 0 exch R dup 5 get 2 ne {dup dup 6
     get exch 4 get {show} {stringwidth pop 0 R} ifelse }if dup 5 get 0 eq
     {dup 3 get {2 get neg 0 exch R pop} {pop aload pop M} ifelse} {dup 5
     get 1 eq {dup 2 get exch dup 3 get exch 6 get stringwidth pop -2 div
     dup 0 R} {dup 6 get stringwidth pop -2 div 0 R 6 get
     show 2 index {aload pop M neg 3 -1 roll neg R pop pop} {pop pop pop
     pop aload pop M} ifelse }ifelse }ifelse }
     ifelse }
   forall} bind def
/MFwidth {0 exch {dup 3 get{dup dup 0 get findfont exch 1 get scalefont
     setfont 6 get stringwidth pop add} {pop} ifelse} forall} bind def
/MCshow { currentpoint stroke M
  exch dup MFwidth -2 div 3 -1 roll R MFshow } def
%
end
%%EndProlog
bkdict begin
0.1 0.1 scale
%
% Residuals:
%
GSN 620 2136 M
620 3423 L
620 4297 L
620 4316 L
620 4727 L
620 4598 L
620 4717 L
620 4746 L
620 4638 L
620 4545 L
620 4716 L
620 4651 L
620 4863 L
620 4628 L
620 4704 L
620 4679 L
620 4691 L
620 4620 L
620 4556 L
620 4568 L
620 4424 L
620 4461 L
620 4627 L
620 4488 L
620 4404 L
620 4646 L
620 4508 L
620 4528 L
620 4465 L
620 4544 L
620 4463 L
620 4265 L
620 4494 L
620 4245 L
620 4539 L
620 4532 L
620 4220 L
620 4519 L
620 4068 L
620 4529 L
620 4340 L
620 4448 L
620 4208 L
620 4416 L
620 4378 L
620 4219 L
620 4193 L
620 4229 L
620 4352 L
620 4257 L
620 4216 L
620 4332 L
620 4180 L
620 4161 L
620 4172 L
620 4190 L
620 4090 L
620 4260 L
620 4189 L
620 4036 L
620 4016 L
620 4299 L
620 3941 L
620 4227 L
620 3947 L
620 4150 L
620 3826 L
620 4008 L
620 3793 L
620 4001 L
620 4020 L
620 3887 L
620 3863 L
620 4049 L
620 3735 L
620 3714 L
620 4038 L
620 3736 L
620 3736 L
620 3852 L
620 4043 L
620 3654 L
620 3626 L
620 3757 L
620 3733 L
620 3681 L
620 3752 L
620 3681 L
620 3491 L
620 3428 L
620 3350 L
620 3446 L
620 3477 L
620 3505 L
620 3192 L
620 3275 L
620 3493 L
620 3396 L
620 3134 L
620 3519 L
620 3440 L
620 3339 L
620 3347 L
620 3272 L
620 3309 L
620 3147 L
620 2966 L
620 3122 L
620 3047 L
620 3248 L
620 3236 L
620 3260 L
620 3187 L
620 3031 L
620 3020 L
620 3227 L
620 2911 L
620 3126 L
620 2796 L
620 3172 L
620 2898 L
620 2920 L
620 2988 L
620 3209 L
620 3014 L
620 3259 L
620 3215 L
620 2801 L
620 3033 L
620 2813 L
620 3059 L
620 2977 L
620 2876 L
620 2640 L
620 3077 L
620 2852 L
620 2908 L
620 3069 L
620 3152 L
620 2939 L
620 2945 L
620 2764 L
620 2798 L
620 2771 L
620 2924 L
620 2961 L
620 3052 L
620 2882 L
620 3071 L
620 2943 L
620 2896 L
620 2895 L
620 2826 L
620 2737 L
620 2828 L
620 2858 L
620 2814 L
620 2773 L
620 2894 L
620 2863 L
620 2914 L
620 3041 L
620 3082 L
620 3110 L
620 2891 L
620 3051 L
620 3236 L
620 2934 L
620 2976 L
620 2911 L
620 3154 L
620 2861 L
620 2898 L
620 3042 L
620 3056 L
620 2990 L
620 2837 L
620 3062 L
620 3083 L
620 2956 L
620 2884 L
620 3065 L
620 3045 L
620 3008 L
620 2798 L
620 3064 L
620 2932 L
620 2994 L
620 2860 L
620 3326 L
620 3133 L
620 2851 L
620 3253 L
620 2871 L
620 3069 L
620 3232 L
620 3077 L
620 3130 L
620 3153 L
620 3227 L
620 3136 L
620 3233 L
620 2788 L
620 2920 L
620 3107 L
620 3022 L
620 3036 L
620 2987 L
620 3076 L
620 2997 L
620 3042 L
620 3073 L
620 3220 L
620 3152 L
620 3094 L
620 3188 L
620 3004 L
620 3074 L
620 2967 L
620 3046 L
620 3029 L
620 3234 L
620 3114 L
620 3043 L
620 3047 L
620 3199 L
620 3382 L
620 3091 L
620 3219 L
620 2924 L
620 3070 L
620 3096 L
620 3113 L
620 3063 L
620 3203 L
620 3256 L
620 3136 L
620 3298 L
620 3034 L
620 2835 L
620 3229 L
620 2982 L
620 3308 L
620 3329 L
620 3172 L
620 2805 L
620 3154 L
620 3344 L
620 3192 L
620 3024 L
620 3218 L
620 3262 L
620 3363 L
620 3139 L
620 3147 L
620 3218 L
620 3272 L
620 3191 L
620 3228 L
620 3196 L
620 3220 L
620 3074 L
620 3152 L
620 3298 L
620 3200 L
620 3114 L
620 3202 L
620 3161 L
620 3143 L
620 3100 L
620 2903 L
620 3032 L
620 3216 L
620 3327 L
620 3196 L
620 3237 L
620 3319 L
620 3119 L
620 3278 L
620 3201 L
620 3121 L
620 3334 L
620 3276 L
620 3602 L
620 3372 L
620 3255 L
620 3243 L
620 3156 L
620 3383 L
620 3256 L
620 3455 L
620 3317 L
620 3520 L
620 3504 L
620 3468 L
620 3621 L
620 3487 L
620 3437 L
620 3483 L
620 3601 L
620 3563 L
620 3381 L
620 3596 L
620 3434 L
620 3416 L
620 3625 L
620 3230 L
620 3522 L
620 3413 L
620 3535 L
620 3600 L
620 3284 L
620 3323 L
620 3566 L
620 3621 L
620 3553 L
620 3356 L
620 3154 L
620 3517 L
620 3298 L
620 3256 L
620 3433 L
620 3585 L
620 3249 L
620 3350 L
620 3466 L
620 3363 L
620 3495 L
620 3507 L
620 3676 L
620 3532 L
620 3644 L
620 3316 L
620 3533 L
620 3442 L
620 3636 L
620 3307 L
620 3203 L
620 3169 L
620 3575 L
620 3372 L
620 3610 L
620 3434 L
620 3432 L
620 3457 L
620 3475 L
620 3465 L
620 3281 L
620 3350 L
620 3474 L
620 3480 L
620 3332 L
620 3226 L
620 3344 L
620 3359 L
620 3263 L
620 3266 L
620 3279 L
620 3314 L
620 3473 L
620 3483 L
620 3293 L
620 3401 L
620 3145 L
620 3273 L
620 3254 L
620 3409 L
620 3505 L
620 3135 L
620 3406 L
620 3170 L
620 3170 L
620 3208 L
620 3261 L
620 3206 L
620 3192 L
620 3311 L
620 3239 L
620 3388 L
620 3178 L
620 3181 L
620 3427 L
620 3120 L
620 3408 L
620 3227 L
620 3363 L
620 3283 L
620 3383 L
620 3163 L
620 3290 L
620 3210 L
620 3174 L
620 3246 L
620 3271 L
620 3398 L
620 2961 L
620 3418 L
620 3200 L
620 3156 L
620 3374 L
620 3125 L
620 3216 L
620 3184 L
620 3175 L
620 3178 L
620 3097 L
620 3406 L
620 3089 L
620 3140 L
620 3174 L
620 3082 L
620 3046 L
620 3219 L
620 3346 L
620 3219 L
620 3262 L
620 3314 L
620 3481 L
620 3281 L
620 3381 L
620 3514 L
620 3375 L
620 3193 L
620 3237 L
620 3462 L
620 3251 L
620 3243 L
620 2973 L
620 3438 L
620 3059 L
620 3210 L
620 3302 L
620 3230 L
620 3114 L
620 3209 L
620 3366 L
620 3331 L
620 3417 L
620 3509 L
620 3204 L
620 3567 L
620 3248 L
620 3285 L
620 3134 L
620 3289 L
620 3158 L
620 3359 L
620 3184 L
620 3313 L
620 3220 L
620 3288 L
620 3311 L
620 3162 L
620 3410 L
620 3121 L
620 3383 L
620 3305 L
620 3403 L
620 3218 L
620 3068 L
620 3136 L
620 3123 L
620 3251 L
620 3333 L
620 3253 L
620 3187 L
620 3476 L
620 3144 L
620 3505 L
620 3452 L
620 2942 L
620 3133 L
620 3235 L
620 3493 L
620 3162 L
620 3363 L
620 3346 L
620 3120 L
620 3011 L
620 3208 L
620 3272 L
620 3334 L
620 3351 L
620 3240 L
620 3265 L
620 3396 L
620 3157 L
620 3158 L
620 3376 L
620 3346 L
620 3260 L
620 3161 L
620 3253 L
620 3457 L
620 3105 L
620 3000 L
620 3046 L
620 3363 L
620 3282 L
620 3162 L
620 3472 L
620 3350 L
620 3188 L
620 3122 L
620 3159 L
620 3219 L
620 3256 L
620 3180 L
620 3100 L
620 3409 L
620 3180 L
620 3244 L
620 3504 L
620 3225 L
620 3021 L
620 3330 L
620 3077 L
620 3407 L
620 3351 L
620 3283 L
620 3166 L
620 3467 L
620 3127 L
620 3318 L
620 3240 L
620 3476 L
620 3325 L
620 3254 L
620 3320 L
620 3351 L
620 3449 L
620 3288 L
620 3331 L
L2 C02 COSGR

%
%================
% Legend - Begin
%================
%
GSN 4240 5180 M
4480 5180 L
LWMC SL  C02 COSGR
GSN 4540 5141 M helvM (1.0 uM) show grestore
%
%================
% Legend - End
%================
%

%
% Main frame
%
L10
GSN 
620 1700 M
4220 1700 L
4220 5300 L
620 5300 L
closepath SGR

%
% X axis: large tics
%
L10
%
% X axis: small tics
%
L5
%
% Y axis: large tics
%
L10
GSN 620 1790 M 54 0 rL SGR
GSN 4220 1790 M -54 0 rL SGR
helvS (-0.04) 560 1790 ylabel
GSN 620 2587 M 54 0 rL SGR
GSN 4220 2587 M -54 0 rL SGR
helvS (-0.02) 560 2587 ylabel
GSN 620 3384 M 54 0 rL SGR
GSN 4220 3384 M -54 0 rL SGR
helvS (0) 560 3384 ylabel
GSN 620 4180 M 54 0 rL SGR
GSN 4220 4180 M -54 0 rL SGR
helvS (0.02) 560 4180 ylabel
GSN 620 4977 M 54 0 rL SGR
GSN 4220 4977 M -54 0 rL SGR
helvS (0.04) 560 4977 ylabel
%
% Y axis: small tics
%
L5
GSN 620 1790 M 36 0 rL SGR
GSN 4220 1790 M -36 0 rL SGR
GSN 620 1989 M 36 0 rL SGR
GSN 4220 1989 M -36 0 rL SGR
GSN 620 2188 M 36 0 rL SGR
GSN 4220 2188 M -36 0 rL SGR
GSN 620 2388 M 36 0 rL SGR
GSN 4220 2388 M -36 0 rL SGR
GSN 620 2587 M 36 0 rL SGR
GSN 4220 2587 M -36 0 rL SGR
GSN 620 2786 M 36 0 rL SGR
GSN 4220 2786 M -36 0 rL SGR
GSN 620 2985 M 36 0 rL SGR
GSN 4220 2985 M -36 0 rL SGR
GSN 620 3184 M 36 0 rL SGR
GSN 4220 3184 M -36 0 rL SGR
GSN 620 3384 M 36 0 rL SGR
GSN 4220 3384 M -36 0 rL SGR
GSN 620 3583 M 36 0 rL SGR
GSN 4220 3583 M -36 0 rL SGR
GSN 620 3782 M 36 0 rL SGR
GSN 4220 3782 M -36 0 rL SGR
GSN 620 3981 M 36 0 rL SGR
GSN 4220 3981 M -36 0 rL SGR
GSN 620 4180 M 36 0 rL SGR
GSN 4220 4180 M -36 0 rL SGR
GSN 620 4380 M 36 0 rL SGR
GSN 4220 4380 M -36 0 rL SGR
GSN 620 4579 M 36 0 rL SGR
GSN 4220 4579 M -36 0 rL SGR
GSN 620 4778 M 36 0 rL SGR
GSN 4220 4778 M -36 0 rL SGR
GSN 620 4977 M 36 0 rL SGR
GSN 4220 4977 M -36 0 rL SGR
GSN 620 5176 M 36 0 rL SGR
GSN 4220 5176 M -36 0 rL SGR

%
% X axis - residual panel
%
GSN L5 620 3384 M 4220 3384 L SDA G50 SGR

%
% X-Axis label:
%
gsave 620 1370 M 
[
[(Helvetica) 180 0 true true 0 (t)]
[(Helvetica) 180 0 true true 0 (i)]
[(Helvetica) 180 0 true true 0 (m)]
[(Helvetica) 180 0 true true 0 (e)]
] 0 MCshow grestore

%
% Y-Axis label:
%
gsave 234 3500 M 
currentpoint gsave translate 90 rotate 0 0 moveto
[
[(Helvetica) 180 0 true true 0 (r)]
[(Helvetica) 180 0 true true 0 (e)]
[(Helvetica) 180 0 true true 0 (s)]
[(Helvetica) 180 0 true true 0 (i)]
[(Helvetica) 180 0 true true 0 (d)]
[(Helvetica) 180 0 true true 0 (u)]
[(Helvetica) 180 0 true true 0 (a)]
[(Helvetica) 180 0 true true 0 (l)]
[(Helvetica) 180 0 true true 0 (s)]
] 0 MCshow grestore

end
showpage
%%Trailer
%%EOF
