%!PS-Adobe-3.0 EPSF-3.0
%%BoundingBox: 0 0 514 442
%%Creator: BioKin Ltd.
%%DocumentFonts: Symbol Helvetica
%%EndComments
%
/bkdict 256 dict def
bkdict begin
/M {moveto} def 
/R {rmoveto} def
/L {lineto} def
/rL {rlineto} def
/GSN {gsave newpath} def
/SGR {stroke grestore} def
/COSGR {gsave setrgbcolor stroke grestore grestore} def
/SL {setlinewidth} def
/LWMB {12} def             % line width - model curves, black & white
/LWMC {10} def             % line width - model curves, color
/L2 {2.5 setlinewidth} def
/L5 {5 setlinewidth} def
/L10 {10 setlinewidth} def
/G50 {0.5 setgray} def
/SDA {[10  20] 0 setdash} def % axes
/helvT {/Helvetica findfont 100 scalefont setfont} def % tiny
/helvS {/Helvetica findfont 125 scalefont setfont} def % small
/helvM {/Helvetica findfont 150 scalefont setfont} def % medium
/helvL {/Helvetica findfont 175 scalefont setfont} def % large
/xlabel {gsave M dup
   stringwidth exch -0.5 mul exch rmoveto show grestore} def 
/ylabel {gsave M 90 rotate dup
   stringwidth exch -0.5 mul exch rmoveto show grestore} def
/ylabelresid {gsave M dup
   stringwidth exch -1 mul exch rmoveto show grestore} def
% ======
% Shapes
% ======
% Circle:
/Circ {0 360 arc closepath} def
%
% Square:
/Squa {dup dup -0.5 mul dup dup R -2 mul 0 exch rL 1 mul 0 rL dup 0 exch -1 mul rL closepath} def
%
% Triangle Up:
/TriU {dup dup dup -0.4 mul exch -0.5 mul exch R dup 0.5 mul exch rL dup -1 mul exch 0.5 mul exch rL closepath} def 
%
% Triangle Down:
/TriD {dup dup dup 0.4 mul exch -0.5 mul exch R dup 0.5 mul exch -1 mul rL dup 0.5 mul exch rL closepath} def 
%
% Diamond:
/Diam {45 rotate Squa} def
% ======
% Fills
% ======
/GRF {gsave setgray fill grestore} def                    % gray-level Fill
/COF {gsave setrgbcolor fill grestore} def                % color fill
% ======
% Colors
% ======
/C01 {1.00	0.00	0.00} def      % Red
/C02 {0.00	0.00	1.00} def      % Blue
/C03 {0.00	0.39	0.00} def      % Dark Green
/C04 {0.78	0.08	0.52} def      % Medium Violet Red
/C05 {0.55	0.27	0.07} def      % Saddle Brown
/C06 {0.10	0.70	0.70} def      % (cyan)
/C07 {1.00	0.55	0.00} def      % Dark Orange
/C08 {0.63	0.13	0.94} def      % Purple
/C09 {0.00	0.75	1.00} def      % Deep Sky Blue
/C10 {0.20	0.80	0.20} def      % Lime Green
/C11 {0.47	0.53	0.60} def      % Light Slate Gray
/C12 {0.00	0.00	0.00} def      % Black            % or: {0.19	0.31	0.31} def      % Dark Slate Gray
%
/LGR {0.75} def % light gray
/DGR {0.33} def % dark gray
%
% =============
% Dash patterns
% =============
/dash01 { [80  20] 0 setdash } def
/dash02 { [40  20] 0 setdash } def
/dash03 { [80  20  10  20] 0 setdash } def
/dash04 { [40  20  10  20] 0 setdash } def
/dash05 { [80  20  10  10  10  20] 0 setdash } def
/dash06 { [40  20  10  10  10  20] 0 setdash } def
/dash07 { [10  10] 0 setdash } def
%
/MFshow {
   { dup 5 get 3 ge
     { 5 get 3 eq {gsave} {grestore} ifelse }
     {dup dup 0 get findfont exch 1 get scalefont setfont
     [ currentpoint ] exch dup 2 get 0 exch R dup 5 get 2 ne {dup dup 6
     get exch 4 get {show} {stringwidth pop 0 R} ifelse }if dup 5 get 0 eq
     {dup 3 get {2 get neg 0 exch R pop} {pop aload pop M} ifelse} {dup 5
     get 1 eq {dup 2 get exch dup 3 get exch 6 get stringwidth pop -2 div
     dup 0 R} {dup 6 get stringwidth pop -2 div 0 R 6 get
     show 2 index {aload pop M neg 3 -1 roll neg R pop pop} {pop pop pop
     pop aload pop M} ifelse }ifelse }ifelse }
     ifelse }
   forall} bind def
/MFwidth {0 exch {dup 3 get{dup dup 0 get findfont exch 1 get scalefont
     setfont 6 get stringwidth pop add} {pop} ifelse} forall} bind def
/MCshow { currentpoint stroke M
  exch dup MFwidth -2 div 3 -1 roll R MFshow } def
%
end
%%EndProlog
bkdict begin
0.1 0.1 scale
%
% Model curves:
%

GSN 753 3426 M
770 3426 L
803 3426 L
837 3426 L
870 3426 L
895 3426 L
911 3426 L
937 3426 L
970 3426 L
1003 3426 L
1037 3426 L
1053 3427 L
1070 3427 L
1103 3427 L
1137 3427 L
1170 3427 L
1195 3427 L
1211 3427 L
1237 3427 L
1270 3427 L
1303 3428 L
1337 3428 L
1353 3428 L
1370 3428 L
1403 3429 L
1437 3429 L
1470 3429 L
1495 3430 L
1512 3430 L
1537 3431 L
1570 3431 L
1603 3432 L
1637 3433 L
1653 3435 L
1670 3435 L
1703 3436 L
1737 3438 L
1770 3440 L
1795 3442 L
1812 3443 L
1837 3444 L
1870 3447 L
1903 3451 L
1937 3455 L
1953 3460 L
1971 3460 L
2003 3465 L
2037 3471 L
2070 3478 L
2095 3486 L
2112 3491 L
2137 3495 L
2170 3506 L
2203 3518 L
2237 3531 L
2253 3546 L
2271 3547 L
2303 3563 L
2337 3582 L
2370 3603 L
2395 3625 L
2412 3638 L
2437 3650 L
2470 3676 L
2503 3704 L
2537 3733 L
2553 3763 L
2571 3765 L
2603 3794 L
2637 3825 L
2670 3855 L
2695 3884 L
2712 3899 L
2737 3911 L
2770 3936 L
2803 3959 L
2837 3979 L
2854 3996 L
2871 3996 L
2903 4009 L
2937 4019 L
2970 4027 L
2995 4031 L
3012 4033 L
3037 4034 L
3061 4034 L
3077 4034 L
3103 4034 L
3137 4032 L
3154 4030 L
3171 4030 L
3203 4029 L
3237 4027 L
3270 4026 L
3296 4026 L
3312 4026 L
3337 4025 L
3370 4025 L
3403 4025 L
3437 4025 L
3454 4025 L
3471 4025 L
3503 4025 L
3537 4025 L
3570 4025 L
3596 4025 L
3612 4025 L
3637 4025 L
3670 4025 L
3703 4025 L
3737 4025 L
3754 4025 L
3771 4025 L
3803 4025 L
3837 4025 L
3870 4025 L
3896 4025 L
3912 4025 L
3937 4025 L
3970 4025 L
4003 4025 L
4037 4025 L
4070 4025 L
LWMC SL dash01 C01 COSGR

GSN 753 3035 M
770 3035 L
803 3035 L
837 3035 L
870 3035 L
895 3035 L
911 3035 L
937 3035 L
970 3035 L
1003 3036 L
1037 3036 L
1053 3036 L
1070 3036 L
1103 3036 L
1137 3036 L
1170 3036 L
1195 3037 L
1211 3037 L
1237 3037 L
1270 3037 L
1303 3038 L
1337 3038 L
1353 3039 L
1370 3039 L
1403 3040 L
1437 3041 L
1470 3042 L
1495 3043 L
1512 3043 L
1537 3044 L
1570 3046 L
1603 3047 L
1637 3049 L
1653 3052 L
1670 3052 L
1703 3055 L
1737 3058 L
1770 3062 L
1795 3066 L
1812 3069 L
1837 3071 L
1870 3077 L
1903 3084 L
1937 3092 L
1953 3101 L
1971 3101 L
2003 3111 L
2037 3123 L
2070 3137 L
2095 3152 L
2112 3161 L
2137 3170 L
2170 3190 L
2203 3212 L
2237 3237 L
2253 3266 L
2271 3266 L
2303 3297 L
2337 3331 L
2370 3368 L
2395 3408 L
2412 3431 L
2437 3451 L
2470 3496 L
2503 3543 L
2537 3592 L
2553 3640 L
2571 3642 L
2603 3689 L
2637 3737 L
2670 3782 L
2695 3825 L
2712 3847 L
2737 3865 L
2770 3900 L
2803 3932 L
2837 3958 L
2854 3980 L
2871 3981 L
2903 3998 L
2937 4011 L
2970 4021 L
2995 4027 L
3012 4029 L
3037 4030 L
3061 4032 L
3077 4032 L
3103 4031 L
3137 4031 L
3154 4029 L
3171 4029 L
3203 4028 L
3237 4027 L
3270 4026 L
3296 4026 L
3312 4025 L
3337 4025 L
3370 4025 L
3403 4025 L
3437 4025 L
3454 4025 L
3471 4025 L
3503 4025 L
3537 4025 L
3570 4025 L
3596 4025 L
3612 4025 L
3637 4025 L
3670 4025 L
3703 4025 L
3737 4025 L
3754 4025 L
3771 4025 L
3803 4025 L
3837 4025 L
3870 4025 L
3896 4025 L
3912 4025 L
3937 4025 L
3970 4025 L
4003 4025 L
4037 4025 L
4070 4025 L
LWMC SL dash02 C02 COSGR

GSN 753 2454 M
770 2454 L
803 2454 L
837 2454 L
870 2455 L
895 2455 L
911 2455 L
937 2455 L
970 2455 L
1003 2455 L
1037 2456 L
1053 2456 L
1070 2456 L
1103 2456 L
1137 2457 L
1170 2457 L
1195 2458 L
1211 2458 L
1237 2458 L
1270 2459 L
1303 2460 L
1337 2461 L
1353 2462 L
1370 2462 L
1403 2464 L
1437 2466 L
1470 2468 L
1495 2470 L
1512 2471 L
1537 2473 L
1570 2476 L
1603 2479 L
1637 2483 L
1653 2488 L
1670 2488 L
1703 2494 L
1737 2500 L
1770 2508 L
1795 2517 L
1812 2522 L
1837 2527 L
1870 2539 L
1903 2552 L
1937 2568 L
1953 2586 L
1971 2586 L
2003 2606 L
2037 2630 L
2070 2656 L
2095 2687 L
2112 2704 L
2137 2721 L
2170 2759 L
2203 2802 L
2237 2849 L
2253 2902 L
2271 2903 L
2303 2959 L
2337 3021 L
2370 3087 L
2395 3158 L
2412 3197 L
2437 3232 L
2470 3308 L
2503 3385 L
2537 3463 L
2553 3540 L
2571 3543 L
2603 3614 L
2637 3685 L
2670 3751 L
2695 3811 L
2712 3840 L
2737 3864 L
2770 3911 L
2803 3950 L
2837 3982 L
2854 4007 L
2871 4008 L
2903 4025 L
2937 4038 L
2970 4045 L
2995 4049 L
3012 4049 L
3037 4049 L
3061 4046 L
3077 4045 L
3103 4042 L
3137 4038 L
3154 4034 L
3171 4034 L
3203 4031 L
3237 4029 L
3270 4027 L
3296 4026 L
3312 4026 L
3337 4026 L
3370 4025 L
3403 4025 L
3437 4025 L
3454 4025 L
3471 4025 L
3503 4025 L
3537 4025 L
3570 4025 L
3596 4025 L
3612 4025 L
3637 4025 L
3670 4025 L
3703 4025 L
3737 4025 L
3754 4025 L
3771 4025 L
3803 4025 L
3837 4025 L
3870 4025 L
3896 4025 L
3912 4025 L
3937 4025 L
3970 4025 L
4003 4025 L
4037 4025 L
4070 4025 L
LWMC SL dash03 C03 COSGR

GSN 753 1831 M
770 1831 L
803 1831 L
837 1831 L
870 1831 L
895 1832 L
911 1832 L
937 1832 L
970 1832 L
1003 1833 L
1037 1833 L
1053 1834 L
1070 1834 L
1103 1834 L
1137 1835 L
1170 1836 L
1195 1837 L
1211 1837 L
1237 1838 L
1270 1839 L
1303 1841 L
1337 1843 L
1353 1845 L
1370 1845 L
1403 1847 L
1437 1850 L
1470 1853 L
1495 1857 L
1512 1859 L
1537 1862 L
1570 1867 L
1603 1873 L
1637 1880 L
1653 1888 L
1670 1889 L
1703 1898 L
1737 1909 L
1770 1922 L
1795 1937 L
1812 1945 L
1837 1954 L
1870 1973 L
1903 1996 L
1937 2022 L
1953 2052 L
1971 2052 L
2003 2086 L
2037 2124 L
2070 2168 L
2095 2217 L
2112 2246 L
2137 2273 L
2170 2334 L
2203 2403 L
2237 2478 L
2253 2561 L
2271 2563 L
2303 2649 L
2337 2744 L
2370 2845 L
2395 2950 L
2412 3007 L
2437 3058 L
2470 3168 L
2503 3278 L
2537 3385 L
2553 3489 L
2571 3493 L
2603 3587 L
2637 3678 L
2670 3760 L
2695 3833 L
2712 3868 L
2737 3896 L
2770 3948 L
2803 3989 L
2837 4021 L
2854 4043 L
2871 4044 L
2903 4057 L
2937 4064 L
2970 4065 L
2995 4063 L
3012 4060 L
3037 4057 L
3061 4051 L
3077 4048 L
3103 4044 L
3137 4039 L
3154 4034 L
3171 4034 L
3203 4030 L
3237 4028 L
3270 4027 L
3296 4026 L
3312 4026 L
3337 4026 L
3370 4025 L
3403 4025 L
3437 4025 L
3454 4025 L
3471 4025 L
3503 4025 L
3537 4025 L
3570 4025 L
3596 4025 L
3612 4025 L
3637 4025 L
3670 4025 L
3703 4025 L
3737 4025 L
3754 4025 L
3771 4025 L
3803 4025 L
3837 4025 L
3870 4025 L
3896 4025 L
3912 4025 L
3937 4025 L
3970 4025 L
4003 4025 L
4037 4025 L
4070 4025 L
LWMC SL dash04 C04 COSGR

GSN 753 1729 M
770 1729 L
803 1729 L
837 1729 L
870 1730 L
895 1730 L
911 1730 L
937 1730 L
970 1731 L
1003 1731 L
1037 1731 L
1053 1732 L
1070 1732 L
1103 1733 L
1137 1734 L
1170 1734 L
1195 1736 L
1211 1736 L
1237 1737 L
1270 1738 L
1303 1740 L
1337 1742 L
1353 1744 L
1370 1744 L
1403 1747 L
1437 1750 L
1470 1754 L
1495 1758 L
1512 1761 L
1537 1763 L
1570 1769 L
1603 1776 L
1637 1784 L
1653 1793 L
1670 1793 L
1703 1803 L
1737 1816 L
1770 1830 L
1795 1846 L
1812 1856 L
1837 1865 L
1870 1887 L
1903 1912 L
1937 1940 L
1953 1973 L
1971 1974 L
2003 2011 L
2037 2053 L
2070 2101 L
2095 2155 L
2112 2187 L
2137 2216 L
2170 2284 L
2203 2359 L
2237 2441 L
2253 2530 L
2271 2533 L
2303 2627 L
2337 2729 L
2370 2838 L
2395 2950 L
2412 3012 L
2437 3066 L
2470 3183 L
2503 3299 L
2537 3412 L
2553 3520 L
2571 3524 L
2603 3621 L
2637 3714 L
2670 3797 L
2695 3869 L
2712 3903 L
2737 3929 L
2770 3978 L
2803 4015 L
2837 4042 L
2854 4059 L
2871 4059 L
2903 4068 L
2937 4070 L
2970 4068 L
2995 4062 L
3012 4059 L
3037 4056 L
3061 4049 L
3077 4046 L
3103 4043 L
3137 4037 L
3154 4033 L
3171 4033 L
3203 4030 L
3237 4028 L
3270 4027 L
3296 4026 L
3312 4026 L
3337 4025 L
3370 4025 L
3403 4025 L
3437 4025 L
3454 4025 L
3471 4025 L
3503 4025 L
3537 4025 L
3570 4025 L
3596 4025 L
3612 4025 L
3637 4025 L
3670 4025 L
3703 4025 L
3737 4025 L
3754 4025 L
3771 4025 L
3803 4025 L
3837 4025 L
3870 4025 L
3896 4025 L
3912 4025 L
3937 4025 L
3970 4025 L
4003 4025 L
4037 4025 L
4070 4025 L
LWMC SL dash05 C05 COSGR

GSN 753 1444 M
770 1444 L
803 1444 L
837 1444 L
870 1444 L
895 1445 L
911 1445 L
937 1445 L
970 1446 L
1003 1446 L
1037 1447 L
1053 1447 L
1070 1447 L
1103 1448 L
1137 1449 L
1170 1450 L
1195 1452 L
1211 1452 L
1237 1453 L
1270 1455 L
1303 1457 L
1337 1460 L
1353 1462 L
1370 1462 L
1403 1466 L
1437 1470 L
1470 1474 L
1495 1479 L
1512 1482 L
1537 1485 L
1570 1492 L
1603 1500 L
1637 1510 L
1653 1521 L
1670 1521 L
1703 1534 L
1737 1548 L
1770 1566 L
1795 1585 L
1812 1597 L
1837 1608 L
1870 1634 L
1903 1664 L
1937 1699 L
1953 1738 L
1971 1739 L
2003 1783 L
2037 1834 L
2070 1891 L
2095 1956 L
2112 1993 L
2137 2028 L
2170 2108 L
2203 2196 L
2237 2293 L
2253 2398 L
2271 2401 L
2303 2510 L
2337 2629 L
2370 2754 L
2395 2883 L
2412 2953 L
2437 3015 L
2470 3146 L
2503 3276 L
2537 3401 L
2553 3520 L
2571 3524 L
2603 3630 L
2637 3729 L
2670 3816 L
2695 3890 L
2712 3925 L
2737 3951 L
2770 3998 L
2803 4033 L
2837 4056 L
2854 4070 L
2871 4070 L
2903 4075 L
2937 4075 L
2970 4070 L
2995 4063 L
3012 4059 L
3037 4056 L
3061 4049 L
3077 4046 L
3103 4042 L
3137 4037 L
3154 4033 L
3171 4033 L
3203 4030 L
3237 4028 L
3270 4027 L
3296 4026 L
3312 4026 L
3337 4025 L
3370 4025 L
3403 4025 L
3437 4025 L
3454 4025 L
3471 4025 L
3503 4025 L
3537 4025 L
3570 4025 L
3596 4025 L
3612 4025 L
3637 4025 L
3670 4025 L
3703 4025 L
3737 4025 L
3754 4025 L
3771 4025 L
3803 4025 L
3837 4025 L
3870 4025 L
3896 4025 L
3912 4025 L
3937 4025 L
3970 4025 L
4003 4025 L
4037 4025 L
4070 4025 L
LWMC SL dash06 C06 COSGR

GSN 753 753 M
770 753 L
803 753 L
837 754 L
870 754 L
895 754 L
911 755 L
937 755 L
970 756 L
1003 757 L
1037 758 L
1053 759 L
1070 759 L
1103 760 L
1137 761 L
1170 763 L
1195 765 L
1211 766 L
1237 768 L
1270 770 L
1303 774 L
1337 777 L
1353 782 L
1370 782 L
1403 787 L
1437 793 L
1470 800 L
1495 808 L
1512 813 L
1537 817 L
1570 828 L
1603 841 L
1637 855 L
1653 872 L
1670 873 L
1703 892 L
1737 915 L
1770 941 L
1795 971 L
1812 989 L
1837 1006 L
1870 1046 L
1903 1092 L
1937 1144 L
1953 1204 L
1971 1206 L
2003 1271 L
2037 1348 L
2070 1433 L
2095 1529 L
2112 1584 L
2137 1635 L
2170 1752 L
2203 1880 L
2237 2018 L
2253 2167 L
2271 2171 L
2303 2323 L
2337 2487 L
2370 2656 L
2395 2827 L
2412 2918 L
2437 2997 L
2470 3164 L
2503 3323 L
2537 3472 L
2553 3607 L
2571 3612 L
2603 3727 L
2637 3830 L
2670 3914 L
2695 3979 L
2712 4007 L
2737 4027 L
2770 4059 L
2803 4077 L
2837 4085 L
2854 4086 L
2871 4086 L
2903 4082 L
2937 4076 L
2970 4068 L
2995 4061 L
3012 4056 L
3037 4053 L
3061 4046 L
3077 4044 L
3103 4041 L
3137 4036 L
3154 4032 L
3171 4032 L
3203 4029 L
3237 4028 L
3270 4026 L
3296 4026 L
3312 4026 L
3337 4025 L
3370 4025 L
3403 4025 L
3437 4025 L
3454 4025 L
3471 4025 L
3503 4025 L
3537 4025 L
3570 4025 L
3596 4025 L
3612 4025 L
3637 4025 L
3670 4025 L
3703 4025 L
3737 4025 L
3754 4025 L
3771 4025 L
3803 4025 L
3837 4025 L
3870 4025 L
3896 4025 L
3912 4025 L
3937 4025 L
3970 4025 L
4003 4025 L
4037 4025 L
4070 4025 L
LWMC SL dash07 C07 COSGR

%
%================
% Legend - Begin
%================
%
GSN 4240 4040 M
4480 4040 L
LWMC SL dash01 C01 COSGR
GSN 4540 4001 M helvM (0.5 uM) show grestore
GSN 4240 3860 M
4480 3860 L
LWMC SL dash02 C02 COSGR
GSN 4540 3821 M helvM (1.0 uM) show grestore
GSN 4240 3680 M
4480 3680 L
LWMC SL dash03 C03 COSGR
GSN 4540 3641 M helvM (1.5 uM) show grestore
GSN 4240 3500 M
4480 3500 L
LWMC SL dash04 C04 COSGR
GSN 4540 3461 M helvM (2.0 uM) show grestore
GSN 4240 3320 M
4480 3320 L
LWMC SL dash05 C05 COSGR
GSN 4540 3281 M helvM (2.5 uM) show grestore
GSN 4240 3140 M
4480 3140 L
LWMC SL dash06 C06 COSGR
GSN 4540 3101 M helvM (3.0 uM) show grestore
GSN 4240 2960 M
4480 2960 L
LWMC SL dash07 C07 COSGR
GSN 4540 2921 M helvM (4.0 uM) show grestore
%
%================
% Legend - End
%================
%

%
% Main frame
%
L10
GSN 
620 620 M
4220 620 L
4220 4220 L
620 4220 L
closepath SGR

%
% X axis: large tics
%
L10
GSN 1074 620 M 0  54 rL SGR
GSN 1074 4220 M 0 -54 rL SGR
helvS (0.0001) 1074 470 xlabel
GSN 1572 620 M 0  54 rL SGR
GSN 1572 4220 M 0 -54 rL SGR
helvS (0.001) 1572 470 xlabel
GSN 2071 620 M 0  54 rL SGR
GSN 2071 4220 M 0 -54 rL SGR
helvS (0.01) 2071 470 xlabel
GSN 2570 620 M 0  54 rL SGR
GSN 2570 4220 M 0 -54 rL SGR
helvS (0.1) 2570 470 xlabel
GSN 3068 620 M 0  54 rL SGR
GSN 3068 4220 M 0 -54 rL SGR
helvS (1) 3068 470 xlabel
GSN 3567 620 M 0  54 rL SGR
GSN 3567 4220 M 0 -54 rL SGR
helvS (10) 3567 470 xlabel
GSN 4066 620 M 0  54 rL SGR
GSN 4066 4220 M 0 -54 rL SGR
helvS (100) 4066 470 xlabel
%
% X axis: small tics
%
L5
GSN 725 620 M 0  36 rL SGR
GSN 725 4220 M 0 -36 rL SGR
GSN 813 620 M 0  36 rL SGR
GSN 813 4220 M 0 -36 rL SGR
GSN 875 620 M 0  36 rL SGR
GSN 875 4220 M 0 -36 rL SGR
GSN 924 620 M 0  36 rL SGR
GSN 924 4220 M 0 -36 rL SGR
GSN 963 620 M 0  36 rL SGR
GSN 963 4220 M 0 -36 rL SGR
GSN 996 620 M 0  36 rL SGR
GSN 996 4220 M 0 -36 rL SGR
GSN 1025 620 M 0  36 rL SGR
GSN 1025 4220 M 0 -36 rL SGR
GSN 1051 620 M 0  36 rL SGR
GSN 1051 4220 M 0 -36 rL SGR
GSN 1224 620 M 0  36 rL SGR
GSN 1224 4220 M 0 -36 rL SGR
GSN 1312 620 M 0  36 rL SGR
GSN 1312 4220 M 0 -36 rL SGR
GSN 1374 620 M 0  36 rL SGR
GSN 1374 4220 M 0 -36 rL SGR
GSN 1422 620 M 0  36 rL SGR
GSN 1422 4220 M 0 -36 rL SGR
GSN 1462 620 M 0  36 rL SGR
GSN 1462 4220 M 0 -36 rL SGR
GSN 1495 620 M 0  36 rL SGR
GSN 1495 4220 M 0 -36 rL SGR
GSN 1524 620 M 0  36 rL SGR
GSN 1524 4220 M 0 -36 rL SGR
GSN 1550 620 M 0  36 rL SGR
GSN 1550 4220 M 0 -36 rL SGR
GSN 1722 620 M 0  36 rL SGR
GSN 1722 4220 M 0 -36 rL SGR
GSN 1810 620 M 0  36 rL SGR
GSN 1810 4220 M 0 -36 rL SGR
GSN 1873 620 M 0  36 rL SGR
GSN 1873 4220 M 0 -36 rL SGR
GSN 1921 620 M 0  36 rL SGR
GSN 1921 4220 M 0 -36 rL SGR
GSN 1960 620 M 0  36 rL SGR
GSN 1960 4220 M 0 -36 rL SGR
GSN 1994 620 M 0  36 rL SGR
GSN 1994 4220 M 0 -36 rL SGR
GSN 2023 620 M 0  36 rL SGR
GSN 2023 4220 M 0 -36 rL SGR
GSN 2048 620 M 0  36 rL SGR
GSN 2048 4220 M 0 -36 rL SGR
GSN 2221 620 M 0  36 rL SGR
GSN 2221 4220 M 0 -36 rL SGR
GSN 2309 620 M 0  36 rL SGR
GSN 2309 4220 M 0 -36 rL SGR
GSN 2371 620 M 0  36 rL SGR
GSN 2371 4220 M 0 -36 rL SGR
GSN 2420 620 M 0  36 rL SGR
GSN 2420 4220 M 0 -36 rL SGR
GSN 2459 620 M 0  36 rL SGR
GSN 2459 4220 M 0 -36 rL SGR
GSN 2492 620 M 0  36 rL SGR
GSN 2492 4220 M 0 -36 rL SGR
GSN 2521 620 M 0  36 rL SGR
GSN 2521 4220 M 0 -36 rL SGR
GSN 2547 620 M 0  36 rL SGR
GSN 2547 4220 M 0 -36 rL SGR
GSN 2720 620 M 0  36 rL SGR
GSN 2720 4220 M 0 -36 rL SGR
GSN 2808 620 M 0  36 rL SGR
GSN 2808 4220 M 0 -36 rL SGR
GSN 2870 620 M 0  36 rL SGR
GSN 2870 4220 M 0 -36 rL SGR
GSN 2918 620 M 0  36 rL SGR
GSN 2918 4220 M 0 -36 rL SGR
GSN 2958 620 M 0  36 rL SGR
GSN 2958 4220 M 0 -36 rL SGR
GSN 2991 620 M 0  36 rL SGR
GSN 2991 4220 M 0 -36 rL SGR
GSN 3020 620 M 0  36 rL SGR
GSN 3020 4220 M 0 -36 rL SGR
GSN 3045 620 M 0  36 rL SGR
GSN 3045 4220 M 0 -36 rL SGR
GSN 3218 620 M 0  36 rL SGR
GSN 3218 4220 M 0 -36 rL SGR
GSN 3306 620 M 0  36 rL SGR
GSN 3306 4220 M 0 -36 rL SGR
GSN 3368 620 M 0  36 rL SGR
GSN 3368 4220 M 0 -36 rL SGR
GSN 3417 620 M 0  36 rL SGR
GSN 3417 4220 M 0 -36 rL SGR
GSN 3456 620 M 0  36 rL SGR
GSN 3456 4220 M 0 -36 rL SGR
GSN 3490 620 M 0  36 rL SGR
GSN 3490 4220 M 0 -36 rL SGR
GSN 3519 620 M 0  36 rL SGR
GSN 3519 4220 M 0 -36 rL SGR
GSN 3544 620 M 0  36 rL SGR
GSN 3544 4220 M 0 -36 rL SGR
GSN 3717 620 M 0  36 rL SGR
GSN 3717 4220 M 0 -36 rL SGR
GSN 3805 620 M 0  36 rL SGR
GSN 3805 4220 M 0 -36 rL SGR
GSN 3867 620 M 0  36 rL SGR
GSN 3867 4220 M 0 -36 rL SGR
GSN 3915 620 M 0  36 rL SGR
GSN 3915 4220 M 0 -36 rL SGR
GSN 3955 620 M 0  36 rL SGR
GSN 3955 4220 M 0 -36 rL SGR
GSN 3988 620 M 0  36 rL SGR
GSN 3988 4220 M 0 -36 rL SGR
GSN 4017 620 M 0  36 rL SGR
GSN 4017 4220 M 0 -36 rL SGR
GSN 4043 620 M 0  36 rL SGR
GSN 4043 4220 M 0 -36 rL SGR
GSN 4216 620 M 0  36 rL SGR
GSN 4216 4220 M 0 -36 rL SGR
%
% Y axis: large tics
%
L10
GSN 620 987 M 54 0 rL SGR
GSN 4220 987 M -54 0 rL SGR
helvS (-1.5) 560 987 ylabel
GSN 620 2000 M 54 0 rL SGR
GSN 4220 2000 M -54 0 rL SGR
helvS (-1) 560 2000 ylabel
GSN 620 3012 M 54 0 rL SGR
GSN 4220 3012 M -54 0 rL SGR
helvS (-0.5) 560 3012 ylabel
GSN 620 4025 M 54 0 rL SGR
GSN 4220 4025 M -54 0 rL SGR
helvS (0) 560 4025 ylabel
%
% Y axis: small tics
%
L5
GSN 620 784 M 36 0 rL SGR
GSN 4220 784 M -36 0 rL SGR
GSN 620 987 M 36 0 rL SGR
GSN 4220 987 M -36 0 rL SGR
GSN 620 1189 M 36 0 rL SGR
GSN 4220 1189 M -36 0 rL SGR
GSN 620 1392 M 36 0 rL SGR
GSN 4220 1392 M -36 0 rL SGR
GSN 620 1594 M 36 0 rL SGR
GSN 4220 1594 M -36 0 rL SGR
GSN 620 1797 M 36 0 rL SGR
GSN 4220 1797 M -36 0 rL SGR
GSN 620 2000 M 36 0 rL SGR
GSN 4220 2000 M -36 0 rL SGR
GSN 620 2202 M 36 0 rL SGR
GSN 4220 2202 M -36 0 rL SGR
GSN 620 2405 M 36 0 rL SGR
GSN 4220 2405 M -36 0 rL SGR
GSN 620 2607 M 36 0 rL SGR
GSN 4220 2607 M -36 0 rL SGR
GSN 620 2810 M 36 0 rL SGR
GSN 4220 2810 M -36 0 rL SGR
GSN 620 3012 M 36 0 rL SGR
GSN 4220 3012 M -36 0 rL SGR
GSN 620 3215 M 36 0 rL SGR
GSN 4220 3215 M -36 0 rL SGR
GSN 620 3418 M 36 0 rL SGR
GSN 4220 3418 M -36 0 rL SGR
GSN 620 3620 M 36 0 rL SGR
GSN 4220 3620 M -36 0 rL SGR
GSN 620 3823 M 36 0 rL SGR
GSN 4220 3823 M -36 0 rL SGR
GSN 620 4025 M 36 0 rL SGR
GSN 4220 4025 M -36 0 rL SGR

%
% X axis
%
GSN L5 620 4025 M 4220 4025 L SDA G50 SGR

%
% X-Axis label:
%
gsave 2420 290 M 
[
[(Helvetica) 180 0 true true 0 (t)]
[(Helvetica) 180 0 true true 0 (i)]
[(Helvetica) 180 0 true true 0 (m)]
[(Helvetica) 180 0 true true 0 (e)]
] 0 MCshow grestore

%
% Y-Axis label:
%
gsave 234 2420 M 
currentpoint gsave translate 90 rotate 0 0 moveto
[
[(Helvetica) 180 0 true true 0 (d)]
[(Helvetica) 180 0 true true 0 (\()]
[(Helvetica) 180 0 true true 0 (s)]
[(Helvetica) 180 0 true true 0 (i)]
[(Helvetica) 180 0 true true 0 (g)]
[(Helvetica) 180 0 true true 0 (n)]
[(Helvetica) 180 0 true true 0 (a)]
[(Helvetica) 180 0 true true 0 (l)]
[(Helvetica) 180 0 true true 0 (\))]
[(Helvetica) 180 0 true true 0 ( )]
[(Helvetica) 180 0 true true 0 (/)]
[(Helvetica) 180 0 true true 0 ( )]
[(Helvetica) 180 0 true true 0 (d)]
[(Helvetica) 180 0 true true 0 (t)]
] 0 MCshow grestore

end
showpage
%%Trailer
%%EOF
