%!PS-Adobe-3.0 EPSF-3.0
%%BoundingBox: 0 0 514 550
%%Creator: BioKin Ltd.
%%DocumentFonts: Symbol Helvetica
%%EndComments
%
/bkdict 256 dict def
bkdict begin
/M {moveto} def 
/R {rmoveto} def
/L {lineto} def
/rL {rlineto} def
/GSN {gsave newpath} def
/SGR {stroke grestore} def
/COSGR {gsave setrgbcolor stroke grestore grestore} def
/SL {setlinewidth} def
/LWMB {12} def             % line width - model curves, black & white
/LWMC {10} def             % line width - model curves, color
/L2 {2.5 setlinewidth} def
/L5 {5 setlinewidth} def
/L10 {10 setlinewidth} def
/G50 {0.5 setgray} def
/SDA {[10  20] 0 setdash} def % axes
/helvT {/Helvetica findfont 100 scalefont setfont} def % tiny
/helvS {/Helvetica findfont 125 scalefont setfont} def % small
/helvM {/Helvetica findfont 150 scalefont setfont} def % medium
/helvL {/Helvetica findfont 175 scalefont setfont} def % large
/xlabel {gsave M dup
   stringwidth exch -0.5 mul exch rmoveto show grestore} def 
/ylabel {gsave M 90 rotate dup
   stringwidth exch -0.5 mul exch rmoveto show grestore} def
/ylabelresid {gsave M dup
   stringwidth exch -1 mul exch rmoveto show grestore} def
% ======
% Shapes
% ======
% Circle:
/Circ {0 360 arc closepath} def
%
% Square:
/Squa {dup dup -0.5 mul dup dup R -2 mul 0 exch rL 1 mul 0 rL dup 0 exch -1 mul rL closepath} def
%
% Triangle Up:
/TriU {dup dup dup -0.4 mul exch -0.5 mul exch R dup 0.5 mul exch rL dup -1 mul exch 0.5 mul exch rL closepath} def 
%
% Triangle Down:
/TriD {dup dup dup 0.4 mul exch -0.5 mul exch R dup 0.5 mul exch -1 mul rL dup 0.5 mul exch rL closepath} def 
%
% Diamond:
/Diam {45 rotate Squa} def
% ======
% Fills
% ======
/GRF {gsave setgray fill grestore} def                    % gray-level Fill
/COF {gsave setrgbcolor fill grestore} def                % color fill
% ======
% Colors
% ======
/C01 {1.00	0.00	0.00} def      % Red
/C02 {0.00	0.00	1.00} def      % Blue
/C03 {0.00	0.39	0.00} def      % Dark Green
/C04 {0.78	0.08	0.52} def      % Medium Violet Red
/C05 {0.55	0.27	0.07} def      % Saddle Brown
/C06 {0.10	0.70	0.70} def      % (cyan)
/C07 {1.00	0.55	0.00} def      % Dark Orange
/C08 {0.63	0.13	0.94} def      % Purple
/C09 {0.00	0.75	1.00} def      % Deep Sky Blue
/C10 {0.20	0.80	0.20} def      % Lime Green
/C11 {0.47	0.53	0.60} def      % Light Slate Gray
/C12 {0.00	0.00	0.00} def      % Black            % or: {0.19	0.31	0.31} def      % Dark Slate Gray
%
/LGR {0.75} def % light gray
/DGR {0.33} def % dark gray
%
% =============
% Dash patterns
% =============
/dash01 { [80  20] 0 setdash } def
/dash02 { [40  20] 0 setdash } def
/dash03 { [80  20  10  20] 0 setdash } def
/dash04 { [40  20  10  20] 0 setdash } def
/dash05 { [80  20  10  10  10  20] 0 setdash } def
/dash06 { [40  20  10  10  10  20] 0 setdash } def
/dash07 { [10  10] 0 setdash } def
%
/MFshow {
   { dup 5 get 3 ge
     { 5 get 3 eq {gsave} {grestore} ifelse }
     {dup dup 0 get findfont exch 1 get scalefont setfont
     [ currentpoint ] exch dup 2 get 0 exch R dup 5 get 2 ne {dup dup 6
     get exch 4 get {show} {stringwidth pop 0 R} ifelse }if dup 5 get 0 eq
     {dup 3 get {2 get neg 0 exch R pop} {pop aload pop M} ifelse} {dup 5
     get 1 eq {dup 2 get exch dup 3 get exch 6 get stringwidth pop -2 div
     dup 0 R} {dup 6 get stringwidth pop -2 div 0 R 6 get
     show 2 index {aload pop M neg 3 -1 roll neg R pop pop} {pop pop pop
     pop aload pop M} ifelse }ifelse }ifelse }
     ifelse }
   forall} bind def
/MFwidth {0 exch {dup 3 get{dup dup 0 get findfont exch 1 get scalefont
     setfont 6 get stringwidth pop add} {pop} ifelse} forall} bind def
/MCshow { currentpoint stroke M
  exch dup MFwidth -2 div 3 -1 roll R MFshow } def
%
end
%%EndProlog
bkdict begin
0.1 0.1 scale
%
% Model curves:
%

GSN 753 4828 M
753 4828 L
786 4862 L
820 4895 L
853 4926 L
886 4956 L
903 4970 L
919 4984 L
953 5009 L
986 5033 L
1020 5054 L
1053 5073 L
1053 5073 L
1086 5090 L
1120 5106 L
1153 5119 L
1186 5130 L
1203 5135 L
1220 5140 L
1253 5148 L
1286 5154 L
1320 5159 L
1353 5163 L
1353 5163 L
1386 5165 L
1420 5166 L
1453 5166 L
1486 5164 L
1503 5163 L
1520 5161 L
1553 5157 L
1586 5151 L
1620 5143 L
1653 5133 L
1653 5133 L
1686 5121 L
1720 5107 L
1753 5090 L
1786 5071 L
1804 5059 L
1820 5048 L
1853 5021 L
1886 4990 L
1920 4955 L
1953 4914 L
1954 4913 L
1986 4867 L
2020 4813 L
2053 4752 L
2086 4683 L
2104 4643 L
2120 4605 L
2153 4518 L
2186 4420 L
2220 4312 L
2253 4193 L
2254 4189 L
2286 4064 L
2320 3926 L
2353 3780 L
2386 3627 L
2404 3544 L
2420 3472 L
2453 3316 L
2486 3164 L
2520 3020 L
2553 2888 L
2554 2884 L
2586 2773 L
2620 2676 L
2653 2598 L
2686 2541 L
2704 2517 L
2720 2500 L
2753 2475 L
2786 2459 L
2820 2451 L
2853 2447 L
2854 2447 L
2886 2446 L
2920 2445 L
2953 2445 L
2986 2445 L
3004 2445 L
3020 2445 L
3053 2444 L
3068 2444 L
3086 2444 L
3120 2444 L
3153 2444 L
3155 2444 L
3186 2444 L
3220 2444 L
3253 2444 L
3286 2444 L
3305 2444 L
3320 2444 L
3353 2444 L
3386 2444 L
3420 2444 L
3453 2444 L
3455 2444 L
3486 2444 L
3520 2444 L
3553 2444 L
3586 2444 L
3605 2444 L
3620 2444 L
3653 2444 L
3686 2444 L
3720 2444 L
3753 2444 L
3755 2444 L
3786 2444 L
3820 2444 L
3853 2444 L
3886 2444 L
3905 2444 L
3920 2444 L
3953 2444 L
3986 2444 L
4020 2444 L
4053 2444 L
4086 2444 L
LWMC SL  C02 COSGR

%
% Experimental data:
%
GSN 773 4459 M
1625 4183 L
1773 4630 L
1860 4400 L
1922 4705 L
1970 4465 L
2009 4527 L
2043 4507 L
2072 4348 L
2097 4213 L
2120 4376 L
2140 4282 L
2159 4499 L
2176 4223 L
2192 4294 L
2207 4254 L
2221 4257 L
2234 4170 L
2247 4090 L
2259 4096 L
2270 3929 L
2280 3965 L
2290 4143 L
2300 3983 L
2309 3886 L
2318 4149 L
2326 3993 L
2335 4012 L
2342 3938 L
2350 4022 L
2357 3929 L
2364 3707 L
2371 3958 L
2378 3681 L
2384 4003 L
2391 3993 L
2397 3645 L
2403 3975 L
2409 3474 L
2414 3981 L
2420 3771 L
2425 3889 L
2430 3622 L
2435 3850 L
2440 3807 L
2445 3630 L
2450 3600 L
2455 3639 L
2459 3773 L
2464 3667 L
2468 3620 L
2472 3748 L
2476 3578 L
2481 3556 L
2485 3568 L
2489 3587 L
2492 3476 L
2496 3662 L
2500 3583 L
2504 3414 L
2507 3390 L
2511 3703 L
2514 3306 L
2518 3622 L
2521 3311 L
2525 3535 L
2528 3177 L
2531 3377 L
2534 3138 L
2538 3368 L
2541 3389 L
2544 3241 L
2547 3214 L
2550 3419 L
2553 3071 L
2556 3047 L
2559 3405 L
2561 3071 L
2564 3071 L
2567 3199 L
2570 3408 L
2580 2977 L
2590 2945 L
2600 3088 L
2609 3061 L
2618 3002 L
2627 3079 L
2635 3000 L
2643 2789 L
2650 2718 L
2658 2631 L
2665 2737 L
2672 2770 L
2678 2800 L
2685 2454 L
2691 2545 L
2697 2785 L
2703 2678 L
2709 2387 L
2714 2812 L
2720 2725 L
2725 2612 L
2730 2621 L
2735 2538 L
2740 2579 L
2745 2399 L
2750 2199 L
2755 2370 L
2759 2288 L
2764 2510 L
2768 2496 L
2772 2522 L
2777 2441 L
2781 2268 L
2785 2256 L
2789 2485 L
2793 2135 L
2796 2372 L
2800 2007 L
2804 2422 L
2808 2120 L
2811 2144 L
2815 2219 L
2818 2463 L
2822 2248 L
2825 2518 L
2828 2470 L
2831 2011 L
2835 2268 L
2838 2024 L
2841 2297 L
2844 2206 L
2847 2093 L
2850 1833 L
2853 2315 L
2856 2066 L
2859 2129 L
2862 2307 L
2864 2397 L
2867 2162 L
2870 2169 L
2873 1969 L
2875 2006 L
2878 1976 L
2880 2145 L
2883 2186 L
2886 2287 L
2888 2098 L
2891 2307 L
2893 2166 L
2895 2113 L
2898 2112 L
2900 2036 L
2902 1937 L
2905 2038 L
2907 2072 L
2909 2023 L
2912 1977 L
2914 2110 L
2916 2076 L
2918 2132 L
2920 2273 L
2922 2318 L
2925 2349 L
2927 2107 L
2929 2283 L
2931 2488 L
2933 2154 L
2935 2201 L
2937 2129 L
2939 2397 L
2941 2073 L
2943 2113 L
2945 2273 L
2947 2288 L
2948 2216 L
2950 2046 L
2952 2295 L
2954 2318 L
2956 2177 L
2958 2098 L
2959 2298 L
2961 2276 L
2963 2234 L
2965 2002 L
2966 2296 L
2968 2150 L
2970 2219 L
2972 2071 L
2973 2585 L
2975 2372 L
2977 2061 L
2978 2505 L
2980 2083 L
2982 2302 L
2983 2481 L
2985 2310 L
2986 2369 L
2988 2394 L
2989 2476 L
2991 2375 L
2993 2483 L
2994 1991 L
2996 2137 L
2997 2344 L
2999 2249 L
3000 2265 L
3002 2211 L
3003 2308 L
3005 2221 L
3006 2271 L
3007 2305 L
3009 2468 L
3010 2392 L
3012 2328 L
3013 2433 L
3014 2229 L
3016 2307 L
3017 2187 L
3019 2275 L
3020 2256 L
3021 2483 L
3023 2350 L
3024 2271 L
3025 2276 L
3027 2444 L
3028 2646 L
3029 2325 L
3031 2466 L
3032 2140 L
3033 2301 L
3034 2330 L
3036 2349 L
3037 2293 L
3038 2448 L
3039 2507 L
3041 2374 L
3042 2553 L
3043 2261 L
3044 2041 L
3045 2476 L
3047 2204 L
3048 2564 L
3049 2587 L
3050 2414 L
3051 2008 L
3053 2394 L
3054 2604 L
3055 2436 L
3056 2249 L
3057 2464 L
3058 2513 L
3059 2624 L
3061 2377 L
3062 2386 L
3063 2464 L
3064 2523 L
3065 2434 L
3066 2475 L
3067 2439 L
3068 2466 L
3069 2305 L
3070 2391 L
3071 2552 L
3073 2444 L
3074 2349 L
3075 2446 L
3076 2401 L
3077 2380 L
3078 2334 L
3079 2115 L
3080 2258 L
3081 2461 L
3082 2584 L
3083 2439 L
3084 2485 L
3085 2575 L
3086 2354 L
3087 2530 L
3088 2444 L
3089 2356 L
3112 2591 L
3133 2526 L
3152 2887 L
3170 2631 L
3186 2501 L
3201 2488 L
3216 2392 L
3229 2643 L
3241 2501 L
3253 2721 L
3264 2569 L
3275 2793 L
3285 2775 L
3295 2735 L
3304 2902 L
3313 2755 L
3322 2698 L
3330 2750 L
3338 2880 L
3346 2837 L
3353 2636 L
3360 2873 L
3367 2694 L
3374 2674 L
3380 2905 L
3387 2468 L
3393 2790 L
3399 2669 L
3405 2804 L
3410 2876 L
3416 2526 L
3421 2569 L
3426 2837 L
3431 2898 L
3436 2822 L
3441 2604 L
3446 2381 L
3451 2782 L
3455 2539 L
3460 2493 L
3464 2687 L
3469 2855 L
3473 2483 L
3477 2596 L
3481 2723 L
3485 2609 L
3489 2755 L
3493 2768 L
3496 2954 L
3500 2795 L
3504 2918 L
3507 2555 L
3511 2795 L
3514 2694 L
3518 2909 L
3521 2544 L
3525 2430 L
3528 2392 L
3531 2840 L
3534 2616 L
3537 2878 L
3540 2683 L
3543 2681 L
3546 2708 L
3549 2728 L
3552 2717 L
3555 2513 L
3558 2589 L
3561 2725 L
3564 2732 L
3566 2569 L
3575 2450 L
3586 2580 L
3595 2596 L
3605 2488 L
3613 2490 L
3622 2504 L
3630 2542 L
3638 2717 L
3646 2726 L
3653 2515 L
3660 2634 L
3667 2349 L
3674 2490 L
3681 2468 L
3687 2638 L
3693 2743 L
3699 2334 L
3705 2632 L
3710 2369 L
3716 2369 L
3721 2410 L
3727 2468 L
3732 2405 L
3737 2390 L
3742 2519 L
3746 2439 L
3751 2602 L
3756 2369 L
3760 2372 L
3764 2643 L
3769 2302 L
3773 2620 L
3777 2419 L
3781 2569 L
3785 2479 L
3789 2589 L
3793 2345 L
3797 2483 L
3800 2394 L
3804 2353 L
3808 2432 L
3811 2459 L
3815 2598 L
3818 2114 L
3821 2618 L
3825 2376 L
3828 2327 L
3831 2566 L
3834 2291 L
3838 2390 L
3841 2354 L
3844 2342 L
3847 2345 L
3850 2255 L
3853 2596 L
3855 2244 L
3858 2300 L
3861 2336 L
3864 2233 L
3867 2192 L
3869 2383 L
3872 2522 L
3875 2381 L
3877 2427 L
3880 2484 L
3882 2667 L
3885 2445 L
3887 2555 L
3890 2701 L
3892 2546 L
3895 2345 L
3897 2392 L
3899 2640 L
3902 2405 L
3904 2396 L
3906 2096 L
3908 2609 L
3911 2190 L
3913 2356 L
3915 2457 L
3917 2376 L
3919 2246 L
3921 2351 L
3923 2524 L
3926 2484 L
3928 2578 L
3930 2678 L
3932 2340 L
3934 2741 L
3936 2387 L
3938 2428 L
3940 2260 L
3942 2430 L
3943 2284 L
3945 2506 L
3947 2311 L
3949 2452 L
3951 2349 L
3953 2423 L
3955 2448 L
3956 2282 L
3958 2555 L
3960 2235 L
3962 2524 L
3963 2436 L
3965 2544 L
3967 2338 L
3969 2172 L
3970 2246 L
3972 2230 L
3974 2372 L
3975 2461 L
3977 2372 L
3978 2298 L
3980 2616 L
3982 2248 L
3983 2647 L
3985 2587 L
3986 2022 L
3988 2233 L
3990 2345 L
3991 2629 L
3993 2262 L
3994 2484 L
3996 2463 L
3997 2212 L
3999 2092 L
4000 2309 L
4001 2378 L
4003 2445 L
4004 2463 L
4006 2340 L
4007 2367 L
4009 2510 L
4010 2246 L
4011 2246 L
4013 2486 L
4014 2452 L
4016 2356 L
4017 2246 L
4018 2347 L
4020 2571 L
4021 2181 L
4022 2065 L
4024 2114 L
4025 2463 L
4026 2374 L
4028 2239 L
4029 2582 L
4030 2446 L
4031 2266 L
4033 2192 L
4034 2233 L
4035 2298 L
4036 2338 L
4038 2253 L
4039 2163 L
4040 2504 L
4041 2251 L
4042 2320 L
4044 2607 L
4045 2298 L
4046 2072 L
4047 2412 L
4048 2132 L
4050 2495 L
4051 2432 L
4052 2356 L
4053 2226 L
4054 2557 L
4055 2181 L
4056 2392 L
4058 2304 L
4059 2564 L
4060 2396 L
4061 2318 L
4062 2389 L
4063 2423 L
4064 2531 L
4065 2351 L
4066 2399 L
L2 C02 COSGR

%
%================
% Legend - Begin
%================
%
GSN 4240 5180 M
4480 5180 L
LWMC SL  C02 COSGR
GSN 4540 5141 M helvM (1.0 uM) show grestore
%
%================
% Legend - End
%================
%

%
% Residuals:
%
GSN 773 1040 M
1625 750 L
1773 1010 L
1860 925 L
1922 1113 L
1970 1022 L
2009 1084 L
2043 1104 L
2072 1052 L
2097 1012 L
2120 1123 L
2140 1102 L
2159 1238 L
2176 1124 L
2192 1185 L
2207 1189 L
2221 1214 L
2234 1193 L
2247 1175 L
2259 1200 L
2270 1137 L
2280 1176 L
2290 1287 L
2300 1226 L
2309 1196 L
2318 1349 L
2326 1288 L
2335 1316 L
2342 1296 L
2350 1356 L
2357 1325 L
2364 1229 L
2371 1372 L
2378 1247 L
2384 1426 L
2391 1436 L
2397 1273 L
2403 1455 L
2409 1214 L
2414 1486 L
2420 1392 L
2425 1465 L
2430 1341 L
2435 1470 L
2440 1459 L
2445 1381 L
2450 1377 L
2455 1408 L
2459 1487 L
2464 1443 L
2468 1430 L
2472 1505 L
2476 1428 L
2481 1426 L
2485 1441 L
2489 1460 L
2492 1412 L
2496 1516 L
2500 1484 L
2504 1406 L
2507 1401 L
2511 1569 L
2514 1374 L
2518 1542 L
2521 1391 L
2525 1512 L
2528 1337 L
2531 1445 L
2534 1330 L
2538 1454 L
2541 1470 L
2544 1401 L
2547 1393 L
2550 1503 L
2553 1332 L
2556 1325 L
2559 1513 L
2561 1348 L
2564 1353 L
2567 1423 L
2570 1535 L
2580 1333 L
2590 1334 L
2600 1421 L
2609 1421 L
2618 1403 L
2627 1454 L
2635 1424 L
2643 1325 L
2650 1297 L
2658 1260 L
2665 1321 L
2672 1344 L
2678 1365 L
2685 1194 L
2691 1245 L
2697 1371 L
2703 1320 L
2709 1175 L
2714 1395 L
2720 1354 L
2725 1299 L
2730 1305 L
2735 1265 L
2740 1288 L
2745 1198 L
2750 1098 L
2755 1186 L
2759 1146 L
2764 1260 L
2768 1254 L
2772 1268 L
2777 1228 L
2781 1140 L
2785 1135 L
2789 1252 L
2793 1075 L
2796 1196 L
2800 1011 L
2804 1223 L
2808 1069 L
2811 1081 L
2815 1120 L
2818 1245 L
2822 1135 L
2825 1274 L
2828 1249 L
2831 1015 L
2835 1147 L
2838 1023 L
2841 1162 L
2844 1115 L
2847 1058 L
2850 926 L
2853 1171 L
2856 1045 L
2859 1077 L
2862 1167 L
2864 1214 L
2867 1094 L
2870 1097 L
2873 996 L
2875 1014 L
2878 999 L
2880 1086 L
2883 1106 L
2886 1158 L
2888 1062 L
2891 1168 L
2893 1096 L
2895 1070 L
2898 1069 L
2900 1030 L
2902 980 L
2905 1031 L
2907 1048 L
2909 1024 L
2912 1000 L
2914 1068 L
2916 1051 L
2918 1079 L
2920 1151 L
2922 1174 L
2925 1190 L
2927 1067 L
2929 1156 L
2931 1261 L
2933 1091 L
2935 1114 L
2937 1078 L
2939 1215 L
2941 1050 L
2943 1070 L
2945 1151 L
2947 1159 L
2948 1122 L
2950 1036 L
2952 1162 L
2954 1175 L
2956 1103 L
2958 1062 L
2959 1164 L
2961 1153 L
2963 1132 L
2965 1014 L
2966 1163 L
2968 1089 L
2970 1124 L
2972 1049 L
2973 1311 L
2975 1202 L
2977 1044 L
2978 1270 L
2980 1055 L
2982 1166 L
2983 1258 L
2985 1170 L
2986 1200 L
2988 1213 L
2989 1255 L
2991 1204 L
2993 1258 L
2994 1008 L
2996 1082 L
2997 1187 L
2999 1139 L
3000 1147 L
3002 1120 L
3003 1169 L
3005 1125 L
3006 1151 L
3007 1168 L
3009 1251 L
3010 1212 L
3012 1180 L
3013 1233 L
3014 1129 L
3016 1169 L
3017 1108 L
3019 1152 L
3020 1143 L
3021 1259 L
3023 1191 L
3024 1151 L
3025 1153 L
3027 1239 L
3028 1342 L
3029 1178 L
3031 1250 L
3032 1084 L
3033 1166 L
3034 1181 L
3036 1190 L
3037 1162 L
3038 1241 L
3039 1271 L
3041 1203 L
3042 1294 L
3043 1146 L
3044 1033 L
3045 1255 L
3047 1116 L
3048 1300 L
3049 1312 L
3050 1223 L
3051 1016 L
3053 1213 L
3054 1320 L
3055 1235 L
3056 1139 L
3057 1249 L
3058 1274 L
3059 1330 L
3061 1205 L
3062 1209 L
3063 1249 L
3064 1279 L
3065 1234 L
3066 1254 L
3067 1236 L
3068 1250 L
3069 1168 L
3070 1211 L
3071 1294 L
3073 1239 L
3074 1190 L
3075 1240 L
3076 1217 L
3077 1206 L
3078 1182 L
3079 1071 L
3080 1144 L
3081 1247 L
3082 1310 L
3083 1236 L
3084 1259 L
3085 1306 L
3086 1193 L
3087 1282 L
3088 1239 L
3089 1194 L
3112 1314 L
3133 1281 L
3152 1464 L
3170 1334 L
3186 1268 L
3201 1261 L
3216 1212 L
3229 1340 L
3241 1268 L
3253 1380 L
3264 1302 L
3275 1416 L
3285 1407 L
3295 1387 L
3304 1472 L
3313 1397 L
3322 1368 L
3330 1395 L
3338 1461 L
3346 1439 L
3353 1337 L
3360 1458 L
3367 1366 L
3374 1356 L
3380 1474 L
3387 1251 L
3393 1415 L
3399 1354 L
3405 1422 L
3410 1459 L
3416 1280 L
3421 1302 L
3426 1439 L
3431 1470 L
3436 1431 L
3441 1320 L
3446 1206 L
3451 1411 L
3455 1287 L
3460 1263 L
3464 1363 L
3469 1448 L
3473 1259 L
3477 1316 L
3481 1381 L
3485 1323 L
3489 1397 L
3493 1404 L
3496 1499 L
3500 1418 L
3504 1480 L
3507 1295 L
3511 1418 L
3514 1366 L
3518 1476 L
3521 1290 L
3525 1231 L
3528 1212 L
3531 1440 L
3534 1326 L
3537 1460 L
3540 1360 L
3543 1359 L
3546 1373 L
3549 1383 L
3552 1378 L
3555 1274 L
3558 1312 L
3561 1382 L
3564 1386 L
3566 1302 L
3575 1242 L
3586 1308 L
3595 1316 L
3605 1261 L
3613 1262 L
3622 1269 L
3630 1288 L
3638 1378 L
3646 1382 L
3653 1275 L
3660 1335 L
3667 1190 L
3674 1262 L
3681 1251 L
3687 1338 L
3693 1391 L
3699 1182 L
3705 1334 L
3710 1201 L
3716 1201 L
3721 1221 L
3727 1251 L
3732 1219 L
3737 1211 L
3742 1277 L
3746 1236 L
3751 1319 L
3756 1201 L
3760 1202 L
3764 1340 L
3769 1166 L
3773 1328 L
3777 1226 L
3781 1302 L
3785 1257 L
3789 1312 L
3793 1188 L
3797 1259 L
3800 1213 L
3804 1193 L
3808 1233 L
3811 1246 L
3815 1317 L
3818 1071 L
3821 1327 L
3825 1204 L
3828 1179 L
3831 1301 L
3834 1161 L
3838 1211 L
3841 1193 L
3844 1187 L
3847 1188 L
3850 1142 L
3853 1316 L
3855 1137 L
3858 1165 L
3861 1183 L
3864 1131 L
3867 1110 L
3869 1207 L
3872 1278 L
3875 1206 L
3877 1230 L
3880 1259 L
3882 1352 L
3885 1239 L
3887 1295 L
3890 1370 L
3892 1291 L
3895 1188 L
3897 1212 L
3899 1339 L
3902 1219 L
3904 1214 L
3906 1061 L
3908 1323 L
3911 1109 L
3913 1194 L
3915 1245 L
3917 1204 L
3919 1138 L
3921 1191 L
3923 1279 L
3926 1259 L
3928 1307 L
3930 1358 L
3932 1186 L
3934 1390 L
3936 1210 L
3938 1230 L
3940 1145 L
3942 1231 L
3943 1157 L
3945 1270 L
3947 1171 L
3949 1243 L
3951 1190 L
3953 1228 L
3955 1241 L
3956 1156 L
3958 1295 L
3960 1132 L
3962 1279 L
3963 1235 L
3965 1290 L
3967 1185 L
3969 1100 L
3970 1138 L
3972 1130 L
3974 1202 L
3975 1247 L
3977 1202 L
3978 1164 L
3980 1326 L
3982 1139 L
3983 1342 L
3985 1311 L
3986 1024 L
3988 1131 L
3990 1188 L
3991 1333 L
3993 1146 L
3994 1259 L
3996 1249 L
3997 1121 L
3999 1059 L
4000 1170 L
4001 1205 L
4003 1239 L
4004 1249 L
4006 1186 L
4007 1200 L
4009 1273 L
4010 1138 L
4011 1138 L
4013 1260 L
4014 1243 L
4016 1194 L
4017 1138 L
4018 1189 L
4020 1303 L
4021 1105 L
4022 1045 L
4024 1071 L
4025 1249 L
4026 1203 L
4028 1134 L
4029 1309 L
4030 1239 L
4031 1148 L
4033 1110 L
4034 1131 L
4035 1164 L
4036 1185 L
4038 1141 L
4039 1096 L
4040 1269 L
4041 1140 L
4042 1175 L
4044 1322 L
4045 1164 L
4046 1049 L
4047 1222 L
4048 1079 L
4050 1265 L
4051 1233 L
4052 1194 L
4053 1128 L
4054 1296 L
4055 1105 L
4056 1212 L
4058 1167 L
4059 1300 L
4060 1214 L
4061 1174 L
4062 1211 L
4063 1228 L
4064 1283 L
4065 1192 L
4066 1216 L
L2 C02 COSGR

%
% Main frame
%
L10
GSN 
620 1700 M
4220 1700 L
4220 5300 L
620 5300 L
closepath SGR

%
% X axis: large tics
%
L10
GSN 1074 1700 M 0  54 rL SGR
GSN 1074 5300 M 0 -54 rL SGR
helvS (0.0001) 1074 470 xlabel
GSN 1572 1700 M 0  54 rL SGR
GSN 1572 5300 M 0 -54 rL SGR
helvS (0.001) 1572 470 xlabel
GSN 2071 1700 M 0  54 rL SGR
GSN 2071 5300 M 0 -54 rL SGR
helvS (0.01) 2071 470 xlabel
GSN 2570 1700 M 0  54 rL SGR
GSN 2570 5300 M 0 -54 rL SGR
helvS (0.1) 2570 470 xlabel
GSN 3068 1700 M 0  54 rL SGR
GSN 3068 5300 M 0 -54 rL SGR
helvS (1) 3068 470 xlabel
GSN 3567 1700 M 0  54 rL SGR
GSN 3567 5300 M 0 -54 rL SGR
helvS (10) 3567 470 xlabel
GSN 4066 1700 M 0  54 rL SGR
GSN 4066 5300 M 0 -54 rL SGR
helvS (100) 4066 470 xlabel
%
% X axis: small tics
%
L5
GSN 725 1700 M 0  36 rL SGR
GSN 725 5300 M 0 -36 rL SGR
GSN 813 1700 M 0  36 rL SGR
GSN 813 5300 M 0 -36 rL SGR
GSN 875 1700 M 0  36 rL SGR
GSN 875 5300 M 0 -36 rL SGR
GSN 924 1700 M 0  36 rL SGR
GSN 924 5300 M 0 -36 rL SGR
GSN 963 1700 M 0  36 rL SGR
GSN 963 5300 M 0 -36 rL SGR
GSN 996 1700 M 0  36 rL SGR
GSN 996 5300 M 0 -36 rL SGR
GSN 1025 1700 M 0  36 rL SGR
GSN 1025 5300 M 0 -36 rL SGR
GSN 1051 1700 M 0  36 rL SGR
GSN 1051 5300 M 0 -36 rL SGR
GSN 1224 1700 M 0  36 rL SGR
GSN 1224 5300 M 0 -36 rL SGR
GSN 1312 1700 M 0  36 rL SGR
GSN 1312 5300 M 0 -36 rL SGR
GSN 1374 1700 M 0  36 rL SGR
GSN 1374 5300 M 0 -36 rL SGR
GSN 1422 1700 M 0  36 rL SGR
GSN 1422 5300 M 0 -36 rL SGR
GSN 1462 1700 M 0  36 rL SGR
GSN 1462 5300 M 0 -36 rL SGR
GSN 1495 1700 M 0  36 rL SGR
GSN 1495 5300 M 0 -36 rL SGR
GSN 1524 1700 M 0  36 rL SGR
GSN 1524 5300 M 0 -36 rL SGR
GSN 1550 1700 M 0  36 rL SGR
GSN 1550 5300 M 0 -36 rL SGR
GSN 1722 1700 M 0  36 rL SGR
GSN 1722 5300 M 0 -36 rL SGR
GSN 1810 1700 M 0  36 rL SGR
GSN 1810 5300 M 0 -36 rL SGR
GSN 1873 1700 M 0  36 rL SGR
GSN 1873 5300 M 0 -36 rL SGR
GSN 1921 1700 M 0  36 rL SGR
GSN 1921 5300 M 0 -36 rL SGR
GSN 1960 1700 M 0  36 rL SGR
GSN 1960 5300 M 0 -36 rL SGR
GSN 1994 1700 M 0  36 rL SGR
GSN 1994 5300 M 0 -36 rL SGR
GSN 2023 1700 M 0  36 rL SGR
GSN 2023 5300 M 0 -36 rL SGR
GSN 2048 1700 M 0  36 rL SGR
GSN 2048 5300 M 0 -36 rL SGR
GSN 2221 1700 M 0  36 rL SGR
GSN 2221 5300 M 0 -36 rL SGR
GSN 2309 1700 M 0  36 rL SGR
GSN 2309 5300 M 0 -36 rL SGR
GSN 2371 1700 M 0  36 rL SGR
GSN 2371 5300 M 0 -36 rL SGR
GSN 2420 1700 M 0  36 rL SGR
GSN 2420 5300 M 0 -36 rL SGR
GSN 2459 1700 M 0  36 rL SGR
GSN 2459 5300 M 0 -36 rL SGR
GSN 2492 1700 M 0  36 rL SGR
GSN 2492 5300 M 0 -36 rL SGR
GSN 2521 1700 M 0  36 rL SGR
GSN 2521 5300 M 0 -36 rL SGR
GSN 2547 1700 M 0  36 rL SGR
GSN 2547 5300 M 0 -36 rL SGR
GSN 2720 1700 M 0  36 rL SGR
GSN 2720 5300 M 0 -36 rL SGR
GSN 2808 1700 M 0  36 rL SGR
GSN 2808 5300 M 0 -36 rL SGR
GSN 2870 1700 M 0  36 rL SGR
GSN 2870 5300 M 0 -36 rL SGR
GSN 2918 1700 M 0  36 rL SGR
GSN 2918 5300 M 0 -36 rL SGR
GSN 2958 1700 M 0  36 rL SGR
GSN 2958 5300 M 0 -36 rL SGR
GSN 2991 1700 M 0  36 rL SGR
GSN 2991 5300 M 0 -36 rL SGR
GSN 3020 1700 M 0  36 rL SGR
GSN 3020 5300 M 0 -36 rL SGR
GSN 3045 1700 M 0  36 rL SGR
GSN 3045 5300 M 0 -36 rL SGR
GSN 3218 1700 M 0  36 rL SGR
GSN 3218 5300 M 0 -36 rL SGR
GSN 3306 1700 M 0  36 rL SGR
GSN 3306 5300 M 0 -36 rL SGR
GSN 3368 1700 M 0  36 rL SGR
GSN 3368 5300 M 0 -36 rL SGR
GSN 3417 1700 M 0  36 rL SGR
GSN 3417 5300 M 0 -36 rL SGR
GSN 3456 1700 M 0  36 rL SGR
GSN 3456 5300 M 0 -36 rL SGR
GSN 3490 1700 M 0  36 rL SGR
GSN 3490 5300 M 0 -36 rL SGR
GSN 3519 1700 M 0  36 rL SGR
GSN 3519 5300 M 0 -36 rL SGR
GSN 3544 1700 M 0  36 rL SGR
GSN 3544 5300 M 0 -36 rL SGR
GSN 3717 1700 M 0  36 rL SGR
GSN 3717 5300 M 0 -36 rL SGR
GSN 3805 1700 M 0  36 rL SGR
GSN 3805 5300 M 0 -36 rL SGR
GSN 3867 1700 M 0  36 rL SGR
GSN 3867 5300 M 0 -36 rL SGR
GSN 3915 1700 M 0  36 rL SGR
GSN 3915 5300 M 0 -36 rL SGR
GSN 3955 1700 M 0  36 rL SGR
GSN 3955 5300 M 0 -36 rL SGR
GSN 3988 1700 M 0  36 rL SGR
GSN 3988 5300 M 0 -36 rL SGR
GSN 4017 1700 M 0  36 rL SGR
GSN 4017 5300 M 0 -36 rL SGR
GSN 4043 1700 M 0  36 rL SGR
GSN 4043 5300 M 0 -36 rL SGR
GSN 4216 1700 M 0  36 rL SGR
GSN 4216 5300 M 0 -36 rL SGR
%
% Y axis: large tics
%
L10
GSN 620 2554 M 54 0 rL SGR
GSN 4220 2554 M -54 0 rL SGR
helvS (1.1) 560 2554 ylabel
GSN 620 3434 M 54 0 rL SGR
GSN 4220 3434 M -54 0 rL SGR
helvS (1.12) 560 3434 ylabel
GSN 620 4315 M 54 0 rL SGR
GSN 4220 4315 M -54 0 rL SGR
helvS (1.14) 560 4315 ylabel
GSN 620 5196 M 54 0 rL SGR
GSN 4220 5196 M -54 0 rL SGR
helvS (1.16) 560 5196 ylabel
%
% Y axis: small tics
%
L5
GSN 620 1893 M 36 0 rL SGR
GSN 4220 1893 M -36 0 rL SGR
GSN 620 2113 M 36 0 rL SGR
GSN 4220 2113 M -36 0 rL SGR
GSN 620 2334 M 36 0 rL SGR
GSN 4220 2334 M -36 0 rL SGR
GSN 620 2554 M 36 0 rL SGR
GSN 4220 2554 M -36 0 rL SGR
GSN 620 2774 M 36 0 rL SGR
GSN 4220 2774 M -36 0 rL SGR
GSN 620 2994 M 36 0 rL SGR
GSN 4220 2994 M -36 0 rL SGR
GSN 620 3214 M 36 0 rL SGR
GSN 4220 3214 M -36 0 rL SGR
GSN 620 3434 M 36 0 rL SGR
GSN 4220 3434 M -36 0 rL SGR
GSN 620 3655 M 36 0 rL SGR
GSN 4220 3655 M -36 0 rL SGR
GSN 620 3875 M 36 0 rL SGR
GSN 4220 3875 M -36 0 rL SGR
GSN 620 4095 M 36 0 rL SGR
GSN 4220 4095 M -36 0 rL SGR
GSN 620 4315 M 36 0 rL SGR
GSN 4220 4315 M -36 0 rL SGR
GSN 620 4535 M 36 0 rL SGR
GSN 4220 4535 M -36 0 rL SGR
GSN 620 4756 M 36 0 rL SGR
GSN 4220 4756 M -36 0 rL SGR
GSN 620 4976 M 36 0 rL SGR
GSN 4220 4976 M -36 0 rL SGR
GSN 620 5196 M 36 0 rL SGR
GSN 4220 5196 M -36 0 rL SGR

%
% X-Axis label:
%
gsave 2420 290 M 
[
[(Helvetica) 180 0 true true 0 (t)]
[(Helvetica) 180 0 true true 0 (i)]
[(Helvetica) 180 0 true true 0 (m)]
[(Helvetica) 180 0 true true 0 (e)]
] 0 MCshow grestore

%
% Y-Axis label:
%
gsave 234 3500 M 
currentpoint gsave translate 90 rotate 0 0 moveto
[
[(Helvetica) 180 0 true true 0 (s)]
[(Helvetica) 180 0 true true 0 (i)]
[(Helvetica) 180 0 true true 0 (g)]
[(Helvetica) 180 0 true true 0 (n)]
[(Helvetica) 180 0 true true 0 (a)]
[(Helvetica) 180 0 true true 0 (l)]
] 0 MCshow grestore

%
% Residuals:
%
gsave 129 1160 M 
currentpoint gsave translate 90 rotate 0 0 moveto
[
[(Helvetica) 150 0 true true 0 (r)]
[(Helvetica) 150 0 true true 0 (e)]
[(Helvetica) 150 0 true true 0 (s)]
[(Helvetica) 150 0 true true 0 (i)]
[(Helvetica) 150 0 true true 0 (d)]
[(Helvetica) 150 0 true true 0 (u)]
[(Helvetica) 150 0 true true 0 (a)]
[(Helvetica) 150 0 true true 0 (l)]
[(Helvetica) 150 0 true true 0 (s)]
] 0 MCshow grestore

%
% Residual frame
%
L10
GSN 
620 620 M
4220 620 L
4220 1700 L
620 1700 L
closepath SGR
%
% X axis: large tics - residual frame
%
L10
GSN 1074 620 M 0  54 rL SGR
GSN 1074 1700 M 0 -54 rL SGR
GSN 1572 620 M 0  54 rL SGR
GSN 1572 1700 M 0 -54 rL SGR
GSN 2071 620 M 0  54 rL SGR
GSN 2071 1700 M 0 -54 rL SGR
GSN 2570 620 M 0  54 rL SGR
GSN 2570 1700 M 0 -54 rL SGR
GSN 3068 620 M 0  54 rL SGR
GSN 3068 1700 M 0 -54 rL SGR
GSN 3567 620 M 0  54 rL SGR
GSN 3567 1700 M 0 -54 rL SGR
GSN 4066 620 M 0  54 rL SGR
GSN 4066 1700 M 0 -54 rL SGR
%
% X axis: small tics - residual frame
%
L5
GSN 725 620 M 0  36 rL SGR
GSN 725 1700 M 0 -36 rL SGR
GSN 813 620 M 0  36 rL SGR
GSN 813 1700 M 0 -36 rL SGR
GSN 875 620 M 0  36 rL SGR
GSN 875 1700 M 0 -36 rL SGR
GSN 924 620 M 0  36 rL SGR
GSN 924 1700 M 0 -36 rL SGR
GSN 963 620 M 0  36 rL SGR
GSN 963 1700 M 0 -36 rL SGR
GSN 996 620 M 0  36 rL SGR
GSN 996 1700 M 0 -36 rL SGR
GSN 1025 620 M 0  36 rL SGR
GSN 1025 1700 M 0 -36 rL SGR
GSN 1051 620 M 0  36 rL SGR
GSN 1051 1700 M 0 -36 rL SGR
GSN 1224 620 M 0  36 rL SGR
GSN 1224 1700 M 0 -36 rL SGR
GSN 1312 620 M 0  36 rL SGR
GSN 1312 1700 M 0 -36 rL SGR
GSN 1374 620 M 0  36 rL SGR
GSN 1374 1700 M 0 -36 rL SGR
GSN 1422 620 M 0  36 rL SGR
GSN 1422 1700 M 0 -36 rL SGR
GSN 1462 620 M 0  36 rL SGR
GSN 1462 1700 M 0 -36 rL SGR
GSN 1495 620 M 0  36 rL SGR
GSN 1495 1700 M 0 -36 rL SGR
GSN 1524 620 M 0  36 rL SGR
GSN 1524 1700 M 0 -36 rL SGR
GSN 1550 620 M 0  36 rL SGR
GSN 1550 1700 M 0 -36 rL SGR
GSN 1722 620 M 0  36 rL SGR
GSN 1722 1700 M 0 -36 rL SGR
GSN 1810 620 M 0  36 rL SGR
GSN 1810 1700 M 0 -36 rL SGR
GSN 1873 620 M 0  36 rL SGR
GSN 1873 1700 M 0 -36 rL SGR
GSN 1921 620 M 0  36 rL SGR
GSN 1921 1700 M 0 -36 rL SGR
GSN 1960 620 M 0  36 rL SGR
GSN 1960 1700 M 0 -36 rL SGR
GSN 1994 620 M 0  36 rL SGR
GSN 1994 1700 M 0 -36 rL SGR
GSN 2023 620 M 0  36 rL SGR
GSN 2023 1700 M 0 -36 rL SGR
GSN 2048 620 M 0  36 rL SGR
GSN 2048 1700 M 0 -36 rL SGR
GSN 2221 620 M 0  36 rL SGR
GSN 2221 1700 M 0 -36 rL SGR
GSN 2309 620 M 0  36 rL SGR
GSN 2309 1700 M 0 -36 rL SGR
GSN 2371 620 M 0  36 rL SGR
GSN 2371 1700 M 0 -36 rL SGR
GSN 2420 620 M 0  36 rL SGR
GSN 2420 1700 M 0 -36 rL SGR
GSN 2459 620 M 0  36 rL SGR
GSN 2459 1700 M 0 -36 rL SGR
GSN 2492 620 M 0  36 rL SGR
GSN 2492 1700 M 0 -36 rL SGR
GSN 2521 620 M 0  36 rL SGR
GSN 2521 1700 M 0 -36 rL SGR
GSN 2547 620 M 0  36 rL SGR
GSN 2547 1700 M 0 -36 rL SGR
GSN 2720 620 M 0  36 rL SGR
GSN 2720 1700 M 0 -36 rL SGR
GSN 2808 620 M 0  36 rL SGR
GSN 2808 1700 M 0 -36 rL SGR
GSN 2870 620 M 0  36 rL SGR
GSN 2870 1700 M 0 -36 rL SGR
GSN 2918 620 M 0  36 rL SGR
GSN 2918 1700 M 0 -36 rL SGR
GSN 2958 620 M 0  36 rL SGR
GSN 2958 1700 M 0 -36 rL SGR
GSN 2991 620 M 0  36 rL SGR
GSN 2991 1700 M 0 -36 rL SGR
GSN 3020 620 M 0  36 rL SGR
GSN 3020 1700 M 0 -36 rL SGR
GSN 3045 620 M 0  36 rL SGR
GSN 3045 1700 M 0 -36 rL SGR
GSN 3218 620 M 0  36 rL SGR
GSN 3218 1700 M 0 -36 rL SGR
GSN 3306 620 M 0  36 rL SGR
GSN 3306 1700 M 0 -36 rL SGR
GSN 3368 620 M 0  36 rL SGR
GSN 3368 1700 M 0 -36 rL SGR
GSN 3417 620 M 0  36 rL SGR
GSN 3417 1700 M 0 -36 rL SGR
GSN 3456 620 M 0  36 rL SGR
GSN 3456 1700 M 0 -36 rL SGR
GSN 3490 620 M 0  36 rL SGR
GSN 3490 1700 M 0 -36 rL SGR
GSN 3519 620 M 0  36 rL SGR
GSN 3519 1700 M 0 -36 rL SGR
GSN 3544 620 M 0  36 rL SGR
GSN 3544 1700 M 0 -36 rL SGR
GSN 3717 620 M 0  36 rL SGR
GSN 3717 1700 M 0 -36 rL SGR
GSN 3805 620 M 0  36 rL SGR
GSN 3805 1700 M 0 -36 rL SGR
GSN 3867 620 M 0  36 rL SGR
GSN 3867 1700 M 0 -36 rL SGR
GSN 3915 620 M 0  36 rL SGR
GSN 3915 1700 M 0 -36 rL SGR
GSN 3955 620 M 0  36 rL SGR
GSN 3955 1700 M 0 -36 rL SGR
GSN 3988 620 M 0  36 rL SGR
GSN 3988 1700 M 0 -36 rL SGR
GSN 4017 620 M 0  36 rL SGR
GSN 4017 1700 M 0 -36 rL SGR
GSN 4043 620 M 0  36 rL SGR
GSN 4043 1700 M 0 -36 rL SGR
GSN 4216 620 M 0  36 rL SGR
GSN 4216 1700 M 0 -36 rL SGR
%
% Y axis: large tics - residual frame
%
L10
GSN 620 790 M 54 0 rL SGR
GSN 4220 790 M -54 0 rL SGR
helvS (-0.02) 560 790 ylabelresid
GSN 620 1014 M 54 0 rL SGR
GSN 4220 1014 M -54 0 rL SGR
helvS (-0.01) 560 1014 ylabelresid
GSN 620 1239 M 54 0 rL SGR
GSN 4220 1239 M -54 0 rL SGR
helvS (0) 560 1239 ylabelresid
GSN 620 1463 M 54 0 rL SGR
GSN 4220 1463 M -54 0 rL SGR
helvS (0.01) 560 1463 ylabelresid
GSN 620 1688 M 54 0 rL SGR
GSN 4220 1688 M -54 0 rL SGR
helvS (0.02) 560 1688 ylabelresid

%
% X axis - residual panel
%
GSN L5 620 1239 M 4220 1239 L SDA G50 SGR

end
showpage
%%Trailer
%%EOF
