%!PS-Adobe-3.0 EPSF-3.0
%%BoundingBox: 0 0 514 550
%%Creator: BioKin Ltd.
%%DocumentFonts: Symbol Helvetica
%%EndComments
%
/bkdict 256 dict def
bkdict begin
/M {moveto} def 
/R {rmoveto} def
/L {lineto} def
/rL {rlineto} def
/GSN {gsave newpath} def
/SGR {stroke grestore} def
/COSGR {gsave setrgbcolor stroke grestore grestore} def
/SL {setlinewidth} def
/LWMB {12} def             % line width - model curves, black & white
/LWMC {10} def             % line width - model curves, color
/L2 {2.5 setlinewidth} def
/L5 {5 setlinewidth} def
/L10 {10 setlinewidth} def
/G50 {0.5 setgray} def
/SDA {[10  20] 0 setdash} def % axes
/helvT {/Helvetica findfont 100 scalefont setfont} def % tiny
/helvS {/Helvetica findfont 125 scalefont setfont} def % small
/helvM {/Helvetica findfont 150 scalefont setfont} def % medium
/helvL {/Helvetica findfont 175 scalefont setfont} def % large
/xlabel {gsave M dup
   stringwidth exch -0.5 mul exch rmoveto show grestore} def 
/ylabel {gsave M 90 rotate dup
   stringwidth exch -0.5 mul exch rmoveto show grestore} def
/ylabelresid {gsave M dup
   stringwidth exch -1 mul exch rmoveto show grestore} def
% ======
% Shapes
% ======
% Circle:
/Circ {0 360 arc closepath} def
%
% Square:
/Squa {dup dup -0.5 mul dup dup R -2 mul 0 exch rL 1 mul 0 rL dup 0 exch -1 mul rL closepath} def
%
% Triangle Up:
/TriU {dup dup dup -0.4 mul exch -0.5 mul exch R dup 0.5 mul exch rL dup -1 mul exch 0.5 mul exch rL closepath} def 
%
% Triangle Down:
/TriD {dup dup dup 0.4 mul exch -0.5 mul exch R dup 0.5 mul exch -1 mul rL dup 0.5 mul exch rL closepath} def 
%
% Diamond:
/Diam {45 rotate Squa} def
% ======
% Fills
% ======
/GRF {gsave setgray fill grestore} def                    % gray-level Fill
/COF {gsave setrgbcolor fill grestore} def                % color fill
% ======
% Colors
% ======
/C01 {1.00	0.00	0.00} def      % Red
/C02 {0.00	0.00	1.00} def      % Blue
/C03 {0.00	0.39	0.00} def      % Dark Green
/C04 {0.78	0.08	0.52} def      % Medium Violet Red
/C05 {0.55	0.27	0.07} def      % Saddle Brown
/C06 {0.10	0.70	0.70} def      % (cyan)
/C07 {1.00	0.55	0.00} def      % Dark Orange
/C08 {0.63	0.13	0.94} def      % Purple
/C09 {0.00	0.75	1.00} def      % Deep Sky Blue
/C10 {0.20	0.80	0.20} def      % Lime Green
/C11 {0.47	0.53	0.60} def      % Light Slate Gray
/C12 {0.00	0.00	0.00} def      % Black            % or: {0.19	0.31	0.31} def      % Dark Slate Gray
%
/LGR {0.75} def % light gray
/DGR {0.33} def % dark gray
%
% =============
% Dash patterns
% =============
/dash01 { [80  20] 0 setdash } def
/dash02 { [40  20] 0 setdash } def
/dash03 { [80  20  10  20] 0 setdash } def
/dash04 { [40  20  10  20] 0 setdash } def
/dash05 { [80  20  10  10  10  20] 0 setdash } def
/dash06 { [40  20  10  10  10  20] 0 setdash } def
/dash07 { [10  10] 0 setdash } def
%
/MFshow {
   { dup 5 get 3 ge
     { 5 get 3 eq {gsave} {grestore} ifelse }
     {dup dup 0 get findfont exch 1 get scalefont setfont
     [ currentpoint ] exch dup 2 get 0 exch R dup 5 get 2 ne {dup dup 6
     get exch 4 get {show} {stringwidth pop 0 R} ifelse }if dup 5 get 0 eq
     {dup 3 get {2 get neg 0 exch R pop} {pop aload pop M} ifelse} {dup 5
     get 1 eq {dup 2 get exch dup 3 get exch 6 get stringwidth pop -2 div
     dup 0 R} {dup 6 get stringwidth pop -2 div 0 R 6 get
     show 2 index {aload pop M neg 3 -1 roll neg R pop pop} {pop pop pop
     pop aload pop M} ifelse }ifelse }ifelse }
     ifelse }
   forall} bind def
/MFwidth {0 exch {dup 3 get{dup dup 0 get findfont exch 1 get scalefont
     setfont 6 get stringwidth pop add} {pop} ifelse} forall} bind def
/MCshow { currentpoint stroke M
  exch dup MFwidth -2 div 3 -1 roll R MFshow } def
%
end
%%EndProlog
bkdict begin
0.1 0.1 scale
%
% Residuals:
%
GSN 620 4175 M
620 4732 L
620 4449 L
620 3835 L
620 3576 L
620 3681 L
620 4239 L
620 3973 L
620 4085 L
620 4080 L
620 4294 L
620 4181 L
620 4399 L
620 4028 L
620 3901 L
620 4028 L
620 4244 L
620 4009 L
620 4187 L
620 4423 L
620 4458 L
620 4258 L
620 4073 L
620 4204 L
620 4309 L
620 4180 L
620 4318 L
620 4229 L
620 3946 L
620 4451 L
620 4296 L
620 4360 L
620 4433 L
620 4117 L
620 3921 L
620 4306 L
620 4200 L
620 3926 L
620 4339 L
620 4215 L
620 4135 L
620 4267 L
620 4331 L
620 4306 L
620 4115 L
620 3998 L
620 4159 L
620 4498 L
620 4311 L
620 4395 L
620 4248 L
620 4384 L
620 4117 L
620 4269 L
620 4398 L
620 4164 L
620 4113 L
620 4199 L
620 4263 L
620 4306 L
620 4484 L
620 4186 L
620 4198 L
620 3898 L
620 4360 L
620 4164 L
620 4248 L
620 4130 L
620 4277 L
620 4271 L
620 4294 L
620 3968 L
620 4318 L
620 4354 L
620 4534 L
620 4280 L
620 4281 L
620 4218 L
620 3986 L
620 4102 L
620 4322 L
620 4338 L
620 4537 L
620 4498 L
620 4201 L
620 4245 L
620 4327 L
620 4323 L
620 4210 L
620 4429 L
620 4179 L
620 4044 L
620 4172 L
620 4111 L
620 4205 L
620 4221 L
620 4510 L
620 4283 L
620 4138 L
620 4413 L
620 4040 L
620 4189 L
620 4238 L
620 4373 L
620 4317 L
620 4120 L
620 4162 L
620 4195 L
620 4333 L
620 4549 L
620 4385 L
620 4248 L
620 3975 L
620 4252 L
620 4237 L
620 4211 L
620 4143 L
620 4863 L
620 4352 L
620 4457 L
620 4116 L
620 4478 L
620 4262 L
620 4242 L
620 4514 L
620 4490 L
620 4428 L
620 4214 L
620 4397 L
620 4534 L
620 4317 L
620 4094 L
620 4118 L
620 4233 L
620 4369 L
620 4371 L
620 4540 L
620 4341 L
620 4368 L
620 4311 L
620 4303 L
620 4261 L
620 4243 L
620 4301 L
620 4031 L
620 4440 L
620 4568 L
620 4239 L
620 4432 L
620 4130 L
620 4347 L
620 4453 L
620 4115 L
620 4404 L
620 4148 L
620 4085 L
620 4315 L
620 4361 L
620 4434 L
620 4365 L
620 4435 L
620 4159 L
620 4412 L
620 4258 L
620 4058 L
620 4099 L
620 4514 L
620 4273 L
620 4432 L
620 4594 L
620 4542 L
620 4171 L
620 4636 L
620 4409 L
620 4340 L
620 4551 L
620 4311 L
620 4111 L
620 4189 L
620 4279 L
620 4122 L
620 4150 L
620 4025 L
620 4549 L
620 4398 L
620 4570 L
620 4415 L
620 4310 L
620 4366 L
620 4482 L
620 3940 L
620 4188 L
620 4435 L
620 4251 L
620 4436 L
620 4618 L
620 4321 L
620 4283 L
620 4377 L
620 4236 L
620 4364 L
620 4433 L
620 4426 L
620 4210 L
620 4481 L
620 4535 L
620 4091 L
620 4320 L
620 4415 L
620 4473 L
620 4205 L
620 4530 L
620 4336 L
620 4314 L
620 4507 L
620 4519 L
620 4046 L
620 4174 L
620 4600 L
620 4529 L
620 4478 L
620 4132 L
620 4290 L
620 4350 L
620 4422 L
620 4264 L
620 4516 L
620 4560 L
620 4149 L
620 4101 L
620 4239 L
620 4201 L
620 4081 L
620 4381 L
620 4290 L
620 4303 L
620 4230 L
620 4389 L
620 4303 L
620 4275 L
620 4491 L
620 4479 L
620 4060 L
620 4078 L
620 4096 L
620 4367 L
620 4347 L
620 4500 L
620 4224 L
620 4420 L
620 4318 L
620 4368 L
620 4619 L
620 3841 L
620 4236 L
620 4495 L
620 4323 L
620 3983 L
620 4118 L
620 4384 L
620 4286 L
620 4103 L
620 4432 L
620 4199 L
620 4225 L
620 4269 L
620 4380 L
620 4203 L
620 4467 L
620 4506 L
620 4294 L
620 4322 L
620 4309 L
620 4210 L
620 4202 L
620 4328 L
620 4358 L
620 4283 L
620 4157 L
620 4427 L
620 4193 L
620 4171 L
620 3979 L
620 4340 L
620 4351 L
620 4444 L
620 4009 L
620 4236 L
620 4626 L
620 4235 L
620 4350 L
620 3922 L
620 3884 L
620 3936 L
620 4223 L
620 4138 L
620 4174 L
620 4202 L
620 4420 L
620 4105 L
620 4115 L
620 4147 L
620 4347 L
620 3921 L
620 4173 L
620 4528 L
620 4233 L
620 3957 L
620 4249 L
620 4318 L
620 4020 L
620 4139 L
620 4051 L
620 4153 L
620 4019 L
620 4437 L
620 4248 L
620 3911 L
620 4083 L
620 4136 L
620 4040 L
620 3943 L
620 4095 L
620 4006 L
620 4031 L
620 4336 L
620 4357 L
620 4144 L
620 3931 L
620 4229 L
620 3877 L
620 4046 L
620 4379 L
620 3937 L
620 4431 L
620 4142 L
620 4468 L
620 4445 L
620 3988 L
620 4091 L
620 3837 L
620 4100 L
620 4186 L
620 4510 L
620 3798 L
620 4141 L
620 4048 L
620 3986 L
620 4017 L
620 3870 L
620 4172 L
620 3754 L
620 4427 L
620 3948 L
620 4169 L
620 3984 L
620 4066 L
620 4246 L
620 4493 L
620 3994 L
620 3954 L
620 4482 L
620 4014 L
620 4089 L
620 4129 L
620 4224 L
620 4080 L
620 4099 L
620 4067 L
620 4148 L
620 3776 L
620 4126 L
620 4096 L
620 3857 L
620 4113 L
620 3749 L
620 3822 L
620 4198 L
620 3974 L
620 4012 L
620 4217 L
620 3910 L
620 4064 L
620 3923 L
620 4200 L
620 3786 L
620 3916 L
620 4228 L
620 3747 L
620 4169 L
620 3790 L
620 3877 L
620 4059 L
620 3988 L
620 4270 L
620 3958 L
620 3978 L
620 3866 L
620 3768 L
620 4113 L
620 4234 L
620 3828 L
620 3972 L
620 3946 L
620 3910 L
620 3683 L
620 3840 L
620 4280 L
620 3821 L
620 3914 L
620 3649 L
620 3983 L
620 3851 L
620 3786 L
620 3663 L
620 3841 L
620 3971 L
620 4044 L
620 3699 L
620 3776 L
620 3812 L
620 3544 L
620 3831 L
620 3934 L
620 3544 L
620 3739 L
620 3987 L
620 3560 L
620 3536 L
620 3794 L
620 3843 L
620 3462 L
620 3469 L
620 3912 L
620 3503 L
620 3743 L
620 3548 L
620 3598 L
620 3738 L
620 3337 L
620 3471 L
620 3862 L
620 3410 L
620 3605 L
620 3561 L
620 3381 L
620 3735 L
620 3458 L
620 3388 L
620 3345 L
620 3269 L
620 3555 L
620 3346 L
620 3125 L
620 3549 L
620 3407 L
620 3263 L
620 3039 L
620 3724 L
620 3648 L
620 3452 L
620 3603 L
620 3563 L
620 3186 L
620 3489 L
620 3492 L
620 3302 L
620 3575 L
620 3305 L
620 3608 L
620 3043 L
620 3484 L
620 3482 L
620 3118 L
620 3063 L
620 3161 L
620 3364 L
620 3358 L
620 3253 L
620 3642 L
620 3474 L
620 3428 L
620 3210 L
620 3323 L
620 3282 L
620 3334 L
620 3339 L
620 3408 L
620 3221 L
620 3400 L
620 2957 L
620 3143 L
620 3520 L
620 3003 L
620 3328 L
620 3509 L
620 3282 L
620 3291 L
620 3077 L
620 2894 L
620 3396 L
620 3143 L
620 3200 L
620 3019 L
620 3270 L
620 3250 L
620 3071 L
620 3134 L
620 3172 L
620 3274 L
620 3261 L
620 3069 L
620 3154 L
620 2875 L
620 3104 L
620 3154 L
620 3032 L
620 3032 L
620 3150 L
620 3091 L
620 3207 L
620 2960 L
620 2958 L
620 3082 L
620 2941 L
620 2973 L
620 3178 L
620 2912 L
620 3471 L
620 2814 L
620 2714 L
620 3381 L
620 2733 L
620 3021 L
620 3119 L
620 2936 L
620 3056 L
620 3087 L
620 3274 L
620 2978 L
620 2829 L
620 2932 L
620 3176 L
620 3120 L
620 2986 L
620 3117 L
620 2810 L
620 2899 L
620 3076 L
620 2954 L
620 3100 L
620 2967 L
620 3159 L
620 2989 L
620 2705 L
620 3133 L
620 2781 L
620 2770 L
620 3253 L
620 2576 L
620 3028 L
620 2954 L
620 2681 L
620 2958 L
620 2928 L
620 2803 L
620 2808 L
620 2923 L
620 2976 L
620 2603 L
620 2788 L
620 2703 L
620 2978 L
620 3144 L
620 3010 L
620 3085 L
620 2733 L
620 2603 L
620 2930 L
620 2858 L
620 2631 L
620 2718 L
620 2653 L
620 2895 L
620 2546 L
620 2938 L
620 3115 L
620 2997 L
620 2768 L
620 2862 L
620 2465 L
620 2744 L
620 2692 L
620 2866 L
620 2823 L
620 3004 L
620 2773 L
620 2670 L
620 2928 L
620 2893 L
620 2611 L
620 2867 L
620 2819 L
620 3058 L
620 2749 L
620 2642 L
620 2624 L
620 2600 L
620 2782 L
620 2873 L
620 2740 L
620 2810 L
620 2734 L
620 2725 L
620 2853 L
620 3056 L
620 2901 L
620 2485 L
620 2963 L
620 2858 L
620 2777 L
620 3019 L
620 2567 L
620 2853 L
620 2827 L
620 3128 L
620 2932 L
620 2716 L
620 2537 L
620 2775 L
620 3065 L
620 2589 L
620 2727 L
620 2779 L
620 2598 L
620 2470 L
620 2895 L
620 2500 L
620 2437 L
620 2910 L
620 2803 L
620 2622 L
620 2751 L
620 2775 L
620 2771 L
620 2487 L
620 3043 L
620 2694 L
620 2637 L
620 2589 L
620 2840 L
620 2751 L
620 2633 L
620 2849 L
620 2565 L
620 2722 L
620 2742 L
620 2768 L
620 2795 L
620 2884 L
620 2576 L
620 2633 L
620 2775 L
620 2677 L
620 2382 L
620 2238 L
620 2888 L
620 2699 L
620 2664 L
620 2644 L
620 2864 L
620 2535 L
620 2919 L
620 2515 L
620 2742 L
620 2541 L
620 2535 L
620 2533 L
620 2544 L
620 2762 L
620 2622 L
620 2470 L
620 2709 L
620 2749 L
620 2611 L
620 2853 L
620 2627 L
620 2552 L
620 2921 L
620 2520 L
620 2971 L
620 2760 L
620 2613 L
620 2729 L
620 2563 L
620 2666 L
620 2823 L
620 2620 L
620 2688 L
620 2638 L
620 2675 L
620 2648 L
620 2555 L
620 2618 L
620 2751 L
620 2415 L
620 2583 L
620 2465 L
620 2297 L
620 2744 L
620 2463 L
620 2764 L
620 2788 L
620 2496 L
620 2607 L
620 2424 L
620 2840 L
620 2452 L
620 2893 L
620 2720 L
620 2644 L
620 2620 L
620 2790 L
620 2681 L
620 2801 L
620 2696 L
620 2696 L
620 2581 L
620 2413 L
620 2561 L
620 2827 L
620 2751 L
620 2592 L
620 2498 L
620 2714 L
620 2583 L
620 2690 L
620 2825 L
620 2790 L
620 2657 L
620 2854 L
620 2613 L
620 2725 L
620 2720 L
620 2801 L
620 2670 L
620 2769 L
620 2607 L
620 2758 L
620 2472 L
620 2603 L
620 2474 L
620 2939 L
620 2989 L
620 2897 L
620 2601 L
620 2827 L
620 2738 L
620 2781 L
620 2574 L
620 2502 L
620 2624 L
620 2541 L
620 2908 L
620 2561 L
620 2374 L
620 2897 L
620 2950 L
620 2733 L
620 2672 L
620 2504 L
620 2557 L
620 2349 L
620 2627 L
620 2273 L
620 2548 L
620 2694 L
620 2496 L
620 2858 L
620 2592 L
620 2485 L
620 2136 L
620 2762 L
620 2731 L
620 2463 L
620 2426 L
620 2744 L
620 2790 L
620 2522 L
620 2565 L
620 2598 L
620 2576 L
620 2568 L
620 2474 L
620 2814 L
620 2555 L
620 2690 L
620 2565 L
620 2830 L
620 2637 L
620 2627 L
620 2513 L
620 2690 L
620 2675 L
620 2688 L
620 2810 L
620 2555 L
620 2638 L
620 3150 L
620 2801 L
620 2869 L
620 2921 L
620 2709 L
620 2498 L
620 2574 L
620 2908 L
620 2893 L
620 2884 L
620 2548 L
620 2768 L
620 2594 L
620 2670 L
620 2668 L
620 2832 L
620 2755 L
620 2823 L
620 2618 L
620 2766 L
620 2620 L
620 2836 L
620 3089 L
620 2705 L
620 2644 L
620 2664 L
620 2847 L
620 2655 L
620 2766 L
620 2797 L
620 2295 L
620 2640 L
620 2716 L
620 2607 L
620 2790 L
620 2725 L
620 2794 L
620 2622 L
620 2849 L
620 2701 L
620 2801 L
620 2690 L
620 2971 L
620 2720 L
620 2755 L
620 2666 L
620 2690 L
620 2550 L
620 2528 L
620 2797 L
620 3124 L
620 2644 L
620 2603 L
620 2419 L
620 2670 L
620 2919 L
620 2965 L
620 2810 L
620 2882 L
620 2716 L
620 2729 L
620 2782 L
620 2829 L
620 2511 L
620 2849 L
620 2847 L
620 2914 L
620 2736 L
620 2834 L
620 2845 L
620 2912 L
620 2949 L
620 2515 L
620 2794 L
620 2681 L
620 2927 L
620 2753 L
620 2838 L
620 2627 L
620 2230 L
620 2533 L
620 2812 L
620 2869 L
620 2729 L
620 2973 L
620 2984 L
620 2707 L
620 2686 L
620 2679 L
620 3307 L
620 2699 L
620 2858 L
620 2583 L
620 2760 L
620 2483 L
620 2936 L
620 2485 L
620 2843 L
620 2557 L
620 2758 L
620 3004 L
620 2703 L
620 2814 L
620 2875 L
620 2760 L
620 2735 L
620 2463 L
620 2760 L
620 2954 L
620 2915 L
620 2890 L
620 2670 L
620 2459 L
620 2557 L
620 2474 L
620 2607 L
620 3329 L
620 2840 L
620 2775 L
620 2696 L
620 2816 L
620 3155 L
620 2651 L
620 3000 L
620 2526 L
620 2786 L
620 2522 L
620 2740 L
620 2633 L
620 2749 L
620 2851 L
620 2744 L
620 2548 L
620 2943 L
620 2620 L
620 2956 L
620 2864 L
620 3216 L
620 2293 L
620 2718 L
620 2821 L
620 2878 L
620 2939 L
620 2450 L
620 2904 L
620 3026 L
620 2932 L
620 2535 L
620 2474 L
620 2629 L
620 2692 L
620 2834 L
620 3111 L
620 3002 L
620 3021 L
620 2805 L
620 2454 L
620 2563 L
620 2544 L
620 2640 L
620 2683 L
620 2690 L
620 2847 L
620 2644 L
620 2853 L
620 2720 L
620 2770 L
620 3080 L
620 2631 L
620 2624 L
620 2755 L
620 2753 L
620 2858 L
620 2644 L
620 2679 L
620 2998 L
620 2585 L
620 2934 L
620 2688 L
620 3052 L
620 2930 L
620 3089 L
620 2967 L
620 2616 L
620 2531 L
620 2806 L
620 2877 L
620 3074 L
620 2773 L
620 2849 L
620 2694 L
620 2703 L
620 2943 L
620 2786 L
620 2565 L
620 2463 L
620 2579 L
620 3082 L
620 2657 L
620 2932 L
620 2843 L
620 2971 L
620 2443 L
620 2738 L
620 2504 L
620 2980 L
620 3008 L
620 2633 L
620 2773 L
620 2696 L
620 2989 L
620 2725 L
620 2901 L
620 2895 L
620 2640 L
620 2849 L
620 2740 L
620 2779 L
620 3104 L
620 2701 L
620 2539 L
620 2921 L
620 2799 L
620 2908 L
620 2812 L
620 2714 L
620 2980 L
620 2729 L
620 3124 L
620 2688 L
620 2945 L
620 2810 L
620 2856 L
620 3037 L
620 2954 L
620 2995 L
620 2925 L
620 2742 L
620 2915 L
620 2618 L
620 2781 L
620 2834 L
620 2808 L
620 2651 L
620 3030 L
620 2631 L
620 2877 L
620 2851 L
620 2858 L
620 3152 L
620 2779 L
620 2707 L
620 3063 L
620 2751 L
620 2749 L
620 2899 L
620 2971 L
620 2965 L
620 3211 L
620 2906 L
620 3048 L
620 2762 L
620 2882 L
620 2664 L
620 2986 L
620 2782 L
620 2786 L
620 3017 L
620 2816 L
620 3061 L
620 2832 L
620 3065 L
620 2753 L
620 3080 L
620 2755 L
620 2779 L
620 2882 L
620 2853 L
620 2749 L
620 3071 L
620 2888 L
620 2976 L
620 2699 L
620 2867 L
620 2812 L
620 2965 L
620 2675 L
620 2812 L
620 3002 L
620 2825 L
620 2864 L
620 3015 L
620 2788 L
620 2877 L
620 3170 L
620 2838 L
620 2910 L
620 3082 L
620 3028 L
620 3074 L
620 2834 L
620 2829 L
620 2910 L
620 2768 L
620 2901 L
620 2858 L
620 2803 L
620 2808 L
620 3019 L
620 2766 L
620 2788 L
620 3052 L
620 2814 L
620 3063 L
620 3082 L
620 3019 L
620 2768 L
620 3032 L
620 2849 L
620 2829 L
620 3185 L
620 2856 L
620 3294 L
620 3305 L
620 2605 L
620 2978 L
620 2982 L
620 2877 L
620 2862 L
620 2866 L
620 2910 L
620 2890 L
620 3061 L
620 3072 L
620 2958 L
620 2799 L
620 2725 L
620 2637 L
620 3111 L
620 3063 L
620 3019 L
620 3100 L
620 2847 L
620 2692 L
620 3000 L
620 2679 L
620 3216 L
620 2884 L
620 3109 L
620 2821 L
620 2891 L
620 2930 L
620 2908 L
620 2971 L
620 2947 L
620 2703 L
620 2930 L
620 2836 L
620 3102 L
620 2923 L
620 3146 L
620 3133 L
620 3037 L
620 2860 L
620 2749 L
620 2917 L
620 2969 L
620 3113 L
620 3168 L
620 2786 L
620 2923 L
620 2967 L
620 2941 L
620 2987 L
620 2860 L
620 3096 L
620 3220 L
620 3174 L
620 3078 L
620 2925 L
620 2858 L
620 3117 L
620 2795 L
620 2949 L
620 2849 L
620 3050 L
620 2967 L
620 2509 L
620 3054 L
620 3054 L
620 2971 L
620 2720 L
620 3074 L
620 3043 L
620 2934 L
620 3065 L
620 2864 L
620 2720 L
620 2939 L
620 2888 L
620 2806 L
620 2971 L
620 3187 L
620 2947 L
620 3100 L
620 2980 L
620 2904 L
620 3218 L
620 3024 L
620 3043 L
620 2819 L
620 2869 L
620 2993 L
620 2932 L
620 3218 L
620 3176 L
620 3131 L
620 2465 L
620 3115 L
620 3098 L
620 3091 L
620 3233 L
620 2967 L
620 2999 L
620 2873 L
620 3189 L
620 3026 L
620 3239 L
620 3037 L
620 3002 L
620 3318 L
620 3043 L
620 3022 L
620 3089 L
620 3179 L
620 2871 L
620 2897 L
620 2779 L
620 3024 L
620 3026 L
620 2742 L
620 3008 L
620 3058 L
620 3135 L
620 3176 L
620 3231 L
620 2626 L
620 3122 L
620 3113 L
620 2875 L
620 3192 L
620 2945 L
620 3266 L
620 2657 L
620 3067 L
620 2967 L
620 3248 L
620 2945 L
620 3019 L
620 3071 L
620 3120 L
620 3069 L
620 2956 L
620 3085 L
620 3333 L
620 3366 L
620 3004 L
620 3058 L
620 2843 L
620 2995 L
620 2995 L
620 2851 L
620 3135 L
620 3185 L
620 3285 L
620 3331 L
620 2644 L
620 3019 L
620 3366 L
620 2829 L
620 2934 L
620 2899 L
620 3072 L
620 2965 L
620 2965 L
620 2921 L
620 3130 L
620 3026 L
620 2786 L
620 3089 L
620 2635 L
620 2760 L
620 3061 L
620 2965 L
620 3100 L
620 2821 L
620 2869 L
620 2851 L
620 3233 L
620 2965 L
620 3080 L
620 3277 L
620 2963 L
620 3065 L
620 2853 L
620 3183 L
620 3229 L
620 3172 L
620 2771 L
620 2849 L
620 2917 L
620 3035 L
620 3032 L
620 2897 L
620 3054 L
620 2888 L
620 2969 L
620 2908 L
620 3128 L
620 3235 L
620 3076 L
620 2993 L
620 3035 L
620 3065 L
620 3331 L
620 2960 L
620 3133 L
620 2976 L
620 2963 L
620 3133 L
620 2847 L
620 3312 L
620 2949 L
620 3427 L
620 3323 L
620 2934 L
620 3100 L
620 2888 L
620 3093 L
620 2954 L
620 3331 L
620 3102 L
620 2605 L
620 3268 L
620 3150 L
620 2753 L
620 3106 L
620 2790 L
620 3085 L
620 3288 L
620 3098 L
620 3052 L
620 3054 L
620 3104 L
620 3131 L
620 3168 L
620 3085 L
620 3213 L
620 3139 L
620 3019 L
620 3152 L
620 2993 L
620 3026 L
620 3130 L
620 2858 L
620 2960 L
620 3194 L
620 3085 L
620 2773 L
620 2871 L
620 2906 L
620 3316 L
620 3203 L
620 2993 L
620 2596 L
620 3111 L
620 3209 L
620 2914 L
620 3133 L
620 2677 L
620 3061 L
620 2969 L
620 3144 L
620 3394 L
620 3028 L
620 3109 L
620 3294 L
620 3032 L
620 3187 L
620 2790 L
620 3432 L
620 2888 L
620 2917 L
620 3121 L
620 3048 L
620 3261 L
620 3077 L
620 3223 L
620 2915 L
620 3555 L
620 3008 L
620 3255 L
620 3139 L
620 3121 L
620 3383 L
620 2804 L
620 3386 L
620 3607 L
620 3287 L
620 2740 L
620 3104 L
620 3188 L
620 3275 L
620 3296 L
620 3304 L
620 3645 L
620 3159 L
620 3107 L
620 3223 L
620 3048 L
620 2923 L
620 3313 L
620 3089 L
620 3418 L
620 2813 L
620 3717 L
620 3461 L
620 2964 L
620 3124 L
620 3409 L
620 3482 L
620 3188 L
620 3290 L
620 3083 L
620 3272 L
620 3583 L
620 3432 L
620 3107 L
620 3342 L
620 3302 L
620 3461 L
620 3194 L
620 3392 L
620 3461 L
620 3328 L
620 3252 L
620 3494 L
620 3194 L
620 3223 L
620 3424 L
620 3319 L
620 3441 L
620 3485 L
620 3479 L
620 3476 L
620 3365 L
620 3290 L
620 3461 L
620 3380 L
620 3287 L
620 3334 L
620 3310 L
620 3409 L
620 3456 L
620 3232 L
620 3537 L
620 3421 L
620 3627 L
620 3616 L
620 3255 L
620 3360 L
620 3389 L
620 3435 L
620 3209 L
620 3421 L
620 3112 L
620 3674 L
620 3362 L
620 3520 L
620 3499 L
620 3525 L
620 3531 L
620 3429 L
620 3374 L
620 3828 L
620 3226 L
620 3136 L
620 3598 L
620 3339 L
620 3334 L
620 3406 L
620 3630 L
620 3543 L
620 3406 L
620 3336 L
620 3319 L
620 3488 L
620 3281 L
620 3508 L
620 3246 L
620 3328 L
620 3479 L
620 3589 L
620 3456 L
620 3554 L
620 3668 L
620 3342 L
620 3357 L
620 3342 L
620 3406 L
620 3444 L
620 3400 L
620 3331 L
620 3377 L
620 3086 L
620 2944 L
620 3636 L
620 3630 L
620 3246 L
620 3755 L
620 3191 L
620 3592 L
620 3063 L
620 3770 L
620 3316 L
620 3522 L
620 3633 L
620 3482 L
620 3176 L
620 3339 L
620 3520 L
620 3566 L
620 3325 L
620 3450 L
620 3598 L
620 3429 L
620 3496 L
620 3499 L
620 3214 L
620 3307 L
620 3412 L
620 2909 L
620 3592 L
620 3127 L
620 3083 L
620 3334 L
620 3421 L
620 3138 L
620 3095 L
620 3234 L
620 3525 L
620 3339 L
620 3194 L
620 3290 L
620 3348 L
620 3069 L
620 3517 L
620 3543 L
620 3386 L
620 3552 L
620 3511 L
620 3656 L
620 3621 L
620 3211 L
620 3392 L
620 3293 L
620 3246 L
620 3522 L
620 3697 L
620 3136 L
620 3226 L
620 3360 L
620 3240 L
620 3642 L
620 2854 L
620 3409 L
620 3351 L
620 2949 L
620 3534 L
620 3648 L
620 3787 L
620 3723 L
620 3470 L
620 3819 L
620 3392 L
620 3470 L
620 3438 L
620 3156 L
620 3255 L
620 3234 L
620 3671 L
620 3136 L
620 3095 L
620 3331 L
620 3485 L
620 3229 L
620 3429 L
620 3348 L
620 3116 L
620 2987 L
620 3479 L
620 3197 L
620 3566 L
620 3040 L
620 3490 L
620 3648 L
620 3316 L
620 3083 L
620 3328 L
620 3220 L
620 3421 L
620 3476 L
620 3229 L
620 3319 L
620 3168 L
620 3741 L
620 3325 L
620 3394 L
620 3371 L
620 3636 L
620 3147 L
620 3360 L
620 3246 L
620 3450 L
620 3243 L
620 3278 L
620 3077 L
620 3435 L
620 3252 L
620 3345 L
620 3406 L
620 3333 L
620 3453 L
620 3319 L
620 3377 L
620 3360 L
620 3430 L
620 3694 L
620 3333 L
620 3238 L
620 3587 L
620 3354 L
620 3488 L
620 3514 L
620 3200 L
620 3464 L
620 3133 L
620 3648 L
620 3072 L
620 3153 L
620 3063 L
620 3499 L
620 3176 L
620 3563 L
620 3424 L
620 2807 L
620 3301 L
620 3488 L
620 3191 L
620 3581 L
620 3313 L
620 3479 L
620 3357 L
620 3252 L
620 2792 L
620 3485 L
620 3118 L
620 3636 L
620 3342 L
620 3438 L
620 3563 L
620 2836 L
620 3162 L
620 3141 L
620 3287 L
620 3531 L
620 3258 L
620 3014 L
620 3485 L
620 3214 L
620 3077 L
620 3188 L
620 2964 L
620 3328 L
620 3453 L
620 3508 L
620 3304 L
620 3546 L
620 3525 L
620 3118 L
620 3473 L
620 3182 L
620 3255 L
620 3517 L
620 3037 L
620 3168 L
620 3363 L
620 3595 L
620 3188 L
620 3104 L
620 3080 L
620 3246 L
620 3342 L
620 3357 L
620 3092 L
620 3299 L
620 3403 L
620 3339 L
620 3514 L
620 3461 L
620 3415 L
620 2897 L
620 3374 L
620 3118 L
620 3741 L
620 3400 L
620 3345 L
620 3400 L
620 3307 L
620 3016 L
620 3377 L
620 3467 L
620 3386 L
620 3386 L
620 3086 L
620 3121 L
620 3304 L
620 3121 L
620 3281 L
620 3095 L
620 3179 L
620 3284 L
620 3220 L
620 3278 L
620 3310 L
620 3304 L
620 3197 L
620 3397 L
620 3464 L
620 3316 L
620 3409 L
620 3464 L
620 3406 L
620 3211 L
620 3386 L
620 3272 L
620 3136 L
620 3194 L
620 3502 L
L2 C02 COSGR

%
%================
% Legend - Begin
%================
%
GSN 4240 5180 M
4480 5180 L
LWMC SL  C02 COSGR
GSN 4540 5141 M helvM (1.0 uM) show grestore
%
%================
% Legend - End
%================
%

%
% Main frame
%
L10
GSN 
620 1700 M
4220 1700 L
4220 5300 L
620 5300 L
closepath SGR

%
% X axis: large tics
%
L10
%
% X axis: small tics
%
L5
%
% Y axis: large tics
%
L10
GSN 620 2161 M 54 0 rL SGR
GSN 4220 2161 M -54 0 rL SGR
helvS (-0.02) 560 2161 ylabel
GSN 620 3305 M 54 0 rL SGR
GSN 4220 3305 M -54 0 rL SGR
helvS (0) 560 3305 ylabel
GSN 620 4448 M 54 0 rL SGR
GSN 4220 4448 M -54 0 rL SGR
helvS (0.02) 560 4448 ylabel
%
% Y axis: small tics
%
L5
GSN 620 1875 M 36 0 rL SGR
GSN 4220 1875 M -36 0 rL SGR
GSN 620 2161 M 36 0 rL SGR
GSN 4220 2161 M -36 0 rL SGR
GSN 620 2447 M 36 0 rL SGR
GSN 4220 2447 M -36 0 rL SGR
GSN 620 2733 M 36 0 rL SGR
GSN 4220 2733 M -36 0 rL SGR
GSN 620 3019 M 36 0 rL SGR
GSN 4220 3019 M -36 0 rL SGR
GSN 620 3305 M 36 0 rL SGR
GSN 4220 3305 M -36 0 rL SGR
GSN 620 3591 M 36 0 rL SGR
GSN 4220 3591 M -36 0 rL SGR
GSN 620 3877 M 36 0 rL SGR
GSN 4220 3877 M -36 0 rL SGR
GSN 620 4162 M 36 0 rL SGR
GSN 4220 4162 M -36 0 rL SGR
GSN 620 4448 M 36 0 rL SGR
GSN 4220 4448 M -36 0 rL SGR
GSN 620 4734 M 36 0 rL SGR
GSN 4220 4734 M -36 0 rL SGR
GSN 620 5020 M 36 0 rL SGR
GSN 4220 5020 M -36 0 rL SGR

%
% X axis - residual panel
%
GSN L5 620 3305 M 4220 3305 L SDA G50 SGR

%
% X-Axis label:
%
gsave 620 1370 M 
[
[(Helvetica) 180 0 true true 0 (t)]
[(Helvetica) 180 0 true true 0 (i)]
[(Helvetica) 180 0 true true 0 (m)]
[(Helvetica) 180 0 true true 0 (e)]
] 0 MCshow grestore

%
% Y-Axis label:
%
gsave 234 3500 M 
currentpoint gsave translate 90 rotate 0 0 moveto
[
[(Helvetica) 180 0 true true 0 (r)]
[(Helvetica) 180 0 true true 0 (e)]
[(Helvetica) 180 0 true true 0 (s)]
[(Helvetica) 180 0 true true 0 (i)]
[(Helvetica) 180 0 true true 0 (d)]
[(Helvetica) 180 0 true true 0 (u)]
[(Helvetica) 180 0 true true 0 (a)]
[(Helvetica) 180 0 true true 0 (l)]
[(Helvetica) 180 0 true true 0 (s)]
] 0 MCshow grestore

end
showpage
%%Trailer
%%EOF
