%!PS-Adobe-3.0 EPSF-3.0
%%BoundingBox: 0 0 514 550
%%Creator: BioKin Ltd.
%%DocumentFonts: Symbol Helvetica
%%EndComments
%
/bkdict 256 dict def
bkdict begin
/M {moveto} def 
/R {rmoveto} def
/L {lineto} def
/rL {rlineto} def
/GSN {gsave newpath} def
/SGR {stroke grestore} def
/COSGR {gsave setrgbcolor stroke grestore grestore} def
/SL {setlinewidth} def
/LWMB {12} def             % line width - model curves, black & white
/LWMC {10} def             % line width - model curves, color
/L2 {2.5 setlinewidth} def
/L5 {5 setlinewidth} def
/L10 {10 setlinewidth} def
/G50 {0.5 setgray} def
/SDA {[10  20] 0 setdash} def % axes
/helvT {/Helvetica findfont 100 scalefont setfont} def % tiny
/helvS {/Helvetica findfont 125 scalefont setfont} def % small
/helvM {/Helvetica findfont 150 scalefont setfont} def % medium
/helvL {/Helvetica findfont 175 scalefont setfont} def % large
/xlabel {gsave M dup
   stringwidth exch -0.5 mul exch rmoveto show grestore} def 
/ylabel {gsave M 90 rotate dup
   stringwidth exch -0.5 mul exch rmoveto show grestore} def
/ylabelresid {gsave M dup
   stringwidth exch -1 mul exch rmoveto show grestore} def
% ======
% Shapes
% ======
% Circle:
/Circ {0 360 arc closepath} def
%
% Square:
/Squa {dup dup -0.5 mul dup dup R -2 mul 0 exch rL 1 mul 0 rL dup 0 exch -1 mul rL closepath} def
%
% Triangle Up:
/TriU {dup dup dup -0.4 mul exch -0.5 mul exch R dup 0.5 mul exch rL dup -1 mul exch 0.5 mul exch rL closepath} def 
%
% Triangle Down:
/TriD {dup dup dup 0.4 mul exch -0.5 mul exch R dup 0.5 mul exch -1 mul rL dup 0.5 mul exch rL closepath} def 
%
% Diamond:
/Diam {45 rotate Squa} def
% ======
% Fills
% ======
/GRF {gsave setgray fill grestore} def                    % gray-level Fill
/COF {gsave setrgbcolor fill grestore} def                % color fill
% ======
% Colors
% ======
/C01 {1.00	0.00	0.00} def      % Red
/C02 {0.00	0.00	1.00} def      % Blue
/C03 {0.00	0.39	0.00} def      % Dark Green
/C04 {0.78	0.08	0.52} def      % Medium Violet Red
/C05 {0.55	0.27	0.07} def      % Saddle Brown
/C06 {0.10	0.70	0.70} def      % (cyan)
/C07 {1.00	0.55	0.00} def      % Dark Orange
/C08 {0.63	0.13	0.94} def      % Purple
/C09 {0.00	0.75	1.00} def      % Deep Sky Blue
/C10 {0.20	0.80	0.20} def      % Lime Green
/C11 {0.47	0.53	0.60} def      % Light Slate Gray
/C12 {0.00	0.00	0.00} def      % Black            % or: {0.19	0.31	0.31} def      % Dark Slate Gray
%
/LGR {0.75} def % light gray
/DGR {0.33} def % dark gray
%
% =============
% Dash patterns
% =============
/dash01 { [80  20] 0 setdash } def
/dash02 { [40  20] 0 setdash } def
/dash03 { [80  20  10  20] 0 setdash } def
/dash04 { [40  20  10  20] 0 setdash } def
/dash05 { [80  20  10  10  10  20] 0 setdash } def
/dash06 { [40  20  10  10  10  20] 0 setdash } def
/dash07 { [10  10] 0 setdash } def
%
/MFshow {
   { dup 5 get 3 ge
     { 5 get 3 eq {gsave} {grestore} ifelse }
     {dup dup 0 get findfont exch 1 get scalefont setfont
     [ currentpoint ] exch dup 2 get 0 exch R dup 5 get 2 ne {dup dup 6
     get exch 4 get {show} {stringwidth pop 0 R} ifelse }if dup 5 get 0 eq
     {dup 3 get {2 get neg 0 exch R pop} {pop aload pop M} ifelse} {dup 5
     get 1 eq {dup 2 get exch dup 3 get exch 6 get stringwidth pop -2 div
     dup 0 R} {dup 6 get stringwidth pop -2 div 0 R 6 get
     show 2 index {aload pop M neg 3 -1 roll neg R pop pop} {pop pop pop
     pop aload pop M} ifelse }ifelse }ifelse }
     ifelse }
   forall} bind def
/MFwidth {0 exch {dup 3 get{dup dup 0 get findfont exch 1 get scalefont
     setfont 6 get stringwidth pop add} {pop} ifelse} forall} bind def
/MCshow { currentpoint stroke M
  exch dup MFwidth -2 div 3 -1 roll R MFshow } def
%
end
%%EndProlog
bkdict begin
0.1 0.1 scale
%
% Residuals:
%
GSN 620 4863 M
620 3946 L
620 3701 L
620 3756 L
620 3906 L
620 3221 L
620 4238 L
620 3838 L
620 3951 L
620 3823 L
620 3300 L
620 3983 L
620 3577 L
620 3493 L
620 3813 L
620 3569 L
620 3539 L
620 3938 L
620 3384 L
620 3902 L
620 4110 L
620 3882 L
620 4301 L
620 3801 L
620 4236 L
620 4444 L
620 3817 L
620 4156 L
620 4157 L
620 4489 L
620 3959 L
620 3669 L
620 4684 L
620 3976 L
620 4464 L
620 4272 L
620 4184 L
620 4280 L
620 4231 L
620 4169 L
620 3814 L
620 4417 L
620 4202 L
620 4230 L
620 4277 L
620 4034 L
620 4384 L
620 3905 L
620 3966 L
620 4190 L
620 4232 L
620 3885 L
620 3765 L
620 3716 L
620 4387 L
620 4086 L
620 4401 L
620 4094 L
620 4357 L
620 4435 L
620 4091 L
620 4474 L
620 4481 L
620 4713 L
620 4245 L
620 4010 L
620 4042 L
620 4169 L
620 3620 L
620 4308 L
620 4213 L
620 4035 L
620 4795 L
620 3848 L
620 4205 L
620 4596 L
620 3808 L
620 3782 L
620 4341 L
620 4161 L
620 4166 L
620 4102 L
620 4240 L
620 4532 L
620 4117 L
620 3872 L
620 4274 L
620 3769 L
620 3942 L
620 3999 L
620 4387 L
620 3765 L
620 4289 L
620 4013 L
620 3783 L
620 3855 L
620 3707 L
620 3678 L
620 3980 L
620 3709 L
620 4188 L
620 3777 L
620 3977 L
620 3541 L
620 3914 L
620 3519 L
620 3784 L
620 3642 L
620 4000 L
620 3873 L
620 3905 L
620 3595 L
620 3324 L
620 3228 L
620 3612 L
620 3536 L
620 3670 L
620 4028 L
620 3803 L
620 3575 L
620 3563 L
620 3458 L
620 3594 L
620 3289 L
620 3697 L
620 3555 L
620 3209 L
620 3323 L
620 3468 L
620 3467 L
620 3371 L
620 3623 L
620 3384 L
620 3676 L
620 3009 L
620 3696 L
620 3152 L
620 4002 L
620 3585 L
620 3752 L
620 3574 L
620 3039 L
620 3675 L
620 3668 L
620 3606 L
620 3441 L
620 3747 L
620 3102 L
620 3384 L
620 3245 L
620 3595 L
620 3374 L
620 3498 L
620 3376 L
620 3093 L
620 3938 L
620 3440 L
620 3343 L
620 3652 L
620 2905 L
620 3629 L
620 3740 L
620 3535 L
620 3404 L
620 3552 L
620 3378 L
620 3421 L
620 3365 L
620 3508 L
620 3609 L
620 3549 L
620 3281 L
620 3520 L
620 3755 L
620 3575 L
620 3332 L
620 3563 L
620 3199 L
620 3648 L
620 3572 L
620 3338 L
620 3796 L
620 3445 L
620 3540 L
620 3360 L
620 3219 L
620 3308 L
620 3422 L
620 3266 L
620 4166 L
620 3710 L
620 3348 L
620 3726 L
620 3171 L
620 3764 L
620 3831 L
620 3880 L
620 3624 L
620 3505 L
620 3586 L
620 3387 L
620 3420 L
620 3774 L
620 3572 L
620 3590 L
620 3536 L
620 3832 L
620 3634 L
620 3381 L
620 3568 L
620 3263 L
620 3892 L
620 2918 L
620 3666 L
620 3417 L
620 3749 L
620 3507 L
620 3466 L
620 3567 L
620 3575 L
620 3699 L
620 3838 L
620 3254 L
620 3488 L
620 3435 L
620 3617 L
620 3193 L
620 3706 L
620 3607 L
620 3328 L
620 3698 L
620 3382 L
620 3612 L
620 3408 L
620 3383 L
620 3636 L
620 3732 L
620 3825 L
620 3355 L
620 3613 L
620 3796 L
620 3459 L
620 3783 L
620 3436 L
620 3018 L
620 3608 L
620 3762 L
620 3614 L
620 3302 L
620 3370 L
620 3979 L
620 3462 L
620 3521 L
620 3691 L
620 4016 L
620 3203 L
620 3151 L
620 3531 L
620 3825 L
620 4113 L
620 3595 L
620 3439 L
620 3895 L
620 3531 L
620 3683 L
620 3302 L
620 3493 L
620 2996 L
620 3441 L
620 3267 L
620 3957 L
620 3778 L
620 4131 L
620 3373 L
620 3445 L
620 3903 L
620 3747 L
620 3769 L
620 3366 L
620 3104 L
620 3535 L
620 3809 L
620 2887 L
620 4086 L
620 3672 L
620 3773 L
620 3531 L
620 3839 L
620 3596 L
620 3161 L
620 3092 L
620 3613 L
620 3585 L
620 3507 L
620 3597 L
620 3494 L
620 3930 L
620 3565 L
620 3271 L
620 3797 L
620 3585 L
620 3901 L
620 4083 L
620 3616 L
620 3388 L
620 3481 L
620 3591 L
620 3751 L
620 3250 L
620 3088 L
620 3648 L
620 3555 L
620 4137 L
620 3825 L
620 3661 L
620 3534 L
620 3585 L
620 3747 L
620 4209 L
620 3888 L
620 3966 L
620 3773 L
620 3332 L
620 3811 L
620 3770 L
620 3396 L
620 3634 L
620 3968 L
620 3785 L
620 3520 L
620 4105 L
620 3471 L
620 3636 L
620 3684 L
620 4187 L
620 3252 L
620 3710 L
620 3634 L
620 3564 L
620 3583 L
620 3547 L
620 3427 L
620 3354 L
620 3672 L
620 3722 L
620 4084 L
620 3059 L
620 3760 L
620 3770 L
620 3621 L
620 3703 L
620 3659 L
620 3678 L
620 3937 L
620 3476 L
620 3870 L
620 3332 L
620 3377 L
620 3339 L
620 3191 L
620 3533 L
620 3345 L
620 3225 L
620 3343 L
620 4000 L
620 3198 L
620 3513 L
620 3309 L
620 3244 L
620 3345 L
620 4004 L
620 3071 L
620 3175 L
620 3063 L
620 3238 L
620 3059 L
620 3025 L
620 3023 L
620 3155 L
620 3297 L
620 2739 L
620 3252 L
620 2979 L
620 3473 L
620 3381 L
620 3073 L
620 3242 L
620 2837 L
620 2816 L
620 3071 L
620 2907 L
620 3242 L
620 2924 L
620 3364 L
620 2949 L
620 3170 L
620 3486 L
620 2865 L
620 2957 L
620 3052 L
620 2709 L
620 2713 L
620 3318 L
620 3261 L
620 2326 L
620 2918 L
620 3429 L
620 2911 L
620 3238 L
620 3345 L
620 3349 L
620 2669 L
620 3343 L
620 2741 L
620 3280 L
620 2656 L
620 2699 L
620 2639 L
620 2970 L
620 3101 L
620 3294 L
620 2955 L
620 3002 L
620 3019 L
620 2957 L
620 2995 L
620 3132 L
620 2831 L
620 2882 L
620 3254 L
620 2282 L
620 2404 L
620 2976 L
620 2926 L
620 2974 L
620 3183 L
620 2659 L
620 3179 L
620 3040 L
620 2703 L
620 3276 L
620 3217 L
620 2918 L
620 3151 L
620 2861 L
620 2972 L
620 2837 L
620 3016 L
620 3189 L
620 3017 L
620 2825 L
620 2214 L
620 3118 L
620 3246 L
620 3116 L
620 2526 L
620 2562 L
620 2918 L
620 3221 L
620 2707 L
620 2580 L
620 3194 L
620 3040 L
620 2827 L
620 2549 L
620 2536 L
620 2877 L
620 2747 L
620 2604 L
620 2629 L
620 2351 L
620 2894 L
620 2431 L
620 2812 L
620 2819 L
620 3088 L
620 2654 L
620 2688 L
620 3118 L
620 3002 L
620 2713 L
620 2374 L
620 2555 L
620 2734 L
620 2760 L
620 2456 L
620 2861 L
620 2896 L
620 2894 L
620 2854 L
620 2928 L
620 2149 L
620 2648 L
620 2361 L
620 2732 L
620 2913 L
620 2296 L
620 3322 L
620 2713 L
620 3044 L
620 2886 L
620 2277 L
620 2383 L
620 2399 L
620 2873 L
620 2408 L
620 2136 L
620 2996 L
620 2488 L
620 2547 L
620 2690 L
620 2340 L
620 2441 L
620 2991 L
620 2446 L
620 2854 L
620 2543 L
620 2627 L
620 3149 L
620 2758 L
620 2962 L
620 2197 L
620 2587 L
620 2688 L
620 2911 L
620 2444 L
620 2549 L
620 2785 L
620 2214 L
620 2722 L
620 2631 L
620 2751 L
620 3075 L
L2 C07 COSGR

%
%================
% Legend - Begin
%================
%
GSN 4240 5180 M
4480 5180 L
LWMC SL  C07 COSGR
GSN 4540 5141 M helvM (4.0 uM) show grestore
%
%================
% Legend - End
%================
%

%
% Main frame
%
L10
GSN 
620 1700 M
4220 1700 L
4220 5300 L
620 5300 L
closepath SGR

%
% X axis: large tics
%
L10
%
% X axis: small tics
%
L5
%
% Y axis: large tics
%
L10
GSN 620 2447 M 54 0 rL SGR
GSN 4220 2447 M -54 0 rL SGR
helvS (-0.01) 560 2447 ylabel
GSN 620 3445 M 54 0 rL SGR
GSN 4220 3445 M -54 0 rL SGR
helvS (0) 560 3445 ylabel
GSN 620 4443 M 54 0 rL SGR
GSN 4220 4443 M -54 0 rL SGR
helvS (0.01) 560 4443 ylabel
%
% Y axis: small tics
%
L5
GSN 620 1948 M 36 0 rL SGR
GSN 4220 1948 M -36 0 rL SGR
GSN 620 2197 M 36 0 rL SGR
GSN 4220 2197 M -36 0 rL SGR
GSN 620 2447 M 36 0 rL SGR
GSN 4220 2447 M -36 0 rL SGR
GSN 620 2696 M 36 0 rL SGR
GSN 4220 2696 M -36 0 rL SGR
GSN 620 2946 M 36 0 rL SGR
GSN 4220 2946 M -36 0 rL SGR
GSN 620 3196 M 36 0 rL SGR
GSN 4220 3196 M -36 0 rL SGR
GSN 620 3445 M 36 0 rL SGR
GSN 4220 3445 M -36 0 rL SGR
GSN 620 3695 M 36 0 rL SGR
GSN 4220 3695 M -36 0 rL SGR
GSN 620 3944 M 36 0 rL SGR
GSN 4220 3944 M -36 0 rL SGR
GSN 620 4194 M 36 0 rL SGR
GSN 4220 4194 M -36 0 rL SGR
GSN 620 4443 M 36 0 rL SGR
GSN 4220 4443 M -36 0 rL SGR
GSN 620 4693 M 36 0 rL SGR
GSN 4220 4693 M -36 0 rL SGR
GSN 620 4943 M 36 0 rL SGR
GSN 4220 4943 M -36 0 rL SGR
GSN 620 5192 M 36 0 rL SGR
GSN 4220 5192 M -36 0 rL SGR

%
% X axis - residual panel
%
GSN L5 620 3445 M 4220 3445 L SDA G50 SGR

%
% X-Axis label:
%
gsave 620 1370 M 
[
[(Helvetica) 180 0 true true 0 (t)]
[(Helvetica) 180 0 true true 0 (i)]
[(Helvetica) 180 0 true true 0 (m)]
[(Helvetica) 180 0 true true 0 (e)]
] 0 MCshow grestore

%
% Y-Axis label:
%
gsave 234 3499 M 
currentpoint gsave translate 90 rotate 0 0 moveto
[
[(Helvetica) 180 0 true true 0 (r)]
[(Helvetica) 180 0 true true 0 (e)]
[(Helvetica) 180 0 true true 0 (s)]
[(Helvetica) 180 0 true true 0 (i)]
[(Helvetica) 180 0 true true 0 (d)]
[(Helvetica) 180 0 true true 0 (u)]
[(Helvetica) 180 0 true true 0 (a)]
[(Helvetica) 180 0 true true 0 (l)]
[(Helvetica) 180 0 true true 0 (s)]
] 0 MCshow grestore

end
showpage
%%Trailer
%%EOF
