%!PS-Adobe-3.0 EPSF-3.0
%%BoundingBox: 0 0 514 550
%%Creator: BioKin Ltd.
%%DocumentFonts: Symbol Helvetica
%%EndComments
%
/bkdict 256 dict def
bkdict begin
/M {moveto} def 
/R {rmoveto} def
/L {lineto} def
/rL {rlineto} def
/GSN {gsave newpath} def
/SGR {stroke grestore} def
/COSGR {gsave setrgbcolor stroke grestore grestore} def
/SL {setlinewidth} def
/LWMB {12} def             % line width - model curves, black & white
/LWMC {10} def             % line width - model curves, color
/L2 {2.5 setlinewidth} def
/L5 {5 setlinewidth} def
/L10 {10 setlinewidth} def
/G50 {0.5 setgray} def
/SDA {[10  20] 0 setdash} def % axes
/helvT {/Helvetica findfont 100 scalefont setfont} def % tiny
/helvS {/Helvetica findfont 125 scalefont setfont} def % small
/helvM {/Helvetica findfont 150 scalefont setfont} def % medium
/helvL {/Helvetica findfont 175 scalefont setfont} def % large
/xlabel {gsave M dup
   stringwidth exch -0.5 mul exch rmoveto show grestore} def 
/ylabel {gsave M 90 rotate dup
   stringwidth exch -0.5 mul exch rmoveto show grestore} def
/ylabelresid {gsave M dup
   stringwidth exch -1 mul exch rmoveto show grestore} def
% ======
% Shapes
% ======
% Circle:
/Circ {0 360 arc closepath} def
%
% Square:
/Squa {dup dup -0.5 mul dup dup R -2 mul 0 exch rL 1 mul 0 rL dup 0 exch -1 mul rL closepath} def
%
% Triangle Up:
/TriU {dup dup dup -0.4 mul exch -0.5 mul exch R dup 0.5 mul exch rL dup -1 mul exch 0.5 mul exch rL closepath} def 
%
% Triangle Down:
/TriD {dup dup dup 0.4 mul exch -0.5 mul exch R dup 0.5 mul exch -1 mul rL dup 0.5 mul exch rL closepath} def 
%
% Diamond:
/Diam {45 rotate Squa} def
% ======
% Fills
% ======
/GRF {gsave setgray fill grestore} def                    % gray-level Fill
/COF {gsave setrgbcolor fill grestore} def                % color fill
% ======
% Colors
% ======
/C01 {1.00	0.00	0.00} def      % Red
/C02 {0.00	0.00	1.00} def      % Blue
/C03 {0.00	0.39	0.00} def      % Dark Green
/C04 {0.78	0.08	0.52} def      % Medium Violet Red
/C05 {0.55	0.27	0.07} def      % Saddle Brown
/C06 {0.10	0.70	0.70} def      % (cyan)
/C07 {1.00	0.55	0.00} def      % Dark Orange
/C08 {0.63	0.13	0.94} def      % Purple
/C09 {0.00	0.75	1.00} def      % Deep Sky Blue
/C10 {0.20	0.80	0.20} def      % Lime Green
/C11 {0.47	0.53	0.60} def      % Light Slate Gray
/C12 {0.00	0.00	0.00} def      % Black            % or: {0.19	0.31	0.31} def      % Dark Slate Gray
%
/LGR {0.75} def % light gray
/DGR {0.33} def % dark gray
%
% =============
% Dash patterns
% =============
/dash01 { [80  20] 0 setdash } def
/dash02 { [40  20] 0 setdash } def
/dash03 { [80  20  10  20] 0 setdash } def
/dash04 { [40  20  10  20] 0 setdash } def
/dash05 { [80  20  10  10  10  20] 0 setdash } def
/dash06 { [40  20  10  10  10  20] 0 setdash } def
/dash07 { [10  10] 0 setdash } def
%
/MFshow {
   { dup 5 get 3 ge
     { 5 get 3 eq {gsave} {grestore} ifelse }
     {dup dup 0 get findfont exch 1 get scalefont setfont
     [ currentpoint ] exch dup 2 get 0 exch R dup 5 get 2 ne {dup dup 6
     get exch 4 get {show} {stringwidth pop 0 R} ifelse }if dup 5 get 0 eq
     {dup 3 get {2 get neg 0 exch R pop} {pop aload pop M} ifelse} {dup 5
     get 1 eq {dup 2 get exch dup 3 get exch 6 get stringwidth pop -2 div
     dup 0 R} {dup 6 get stringwidth pop -2 div 0 R 6 get
     show 2 index {aload pop M neg 3 -1 roll neg R pop pop} {pop pop pop
     pop aload pop M} ifelse }ifelse }ifelse }
     ifelse }
   forall} bind def
/MFwidth {0 exch {dup 3 get{dup dup 0 get findfont exch 1 get scalefont
     setfont 6 get stringwidth pop add} {pop} ifelse} forall} bind def
/MCshow { currentpoint stroke M
  exch dup MFwidth -2 div 3 -1 roll R MFshow } def
%
end
%%EndProlog
bkdict begin
0.1 0.1 scale
%
% Residuals:
%
GSN 620 4863 M
620 4794 L
620 3993 L
620 3967 L
620 3904 L
620 3483 L
620 2508 L
620 3521 L
620 3036 L
620 2878 L
620 3244 L
620 3006 L
620 3494 L
620 3375 L
620 3741 L
620 3255 L
620 3181 L
620 3140 L
620 3387 L
620 3264 L
620 3345 L
620 3104 L
620 3206 L
620 3204 L
620 3037 L
620 2750 L
620 3406 L
620 3250 L
620 3387 L
620 3524 L
620 3557 L
620 3171 L
620 3497 L
620 3450 L
620 3485 L
620 3199 L
620 3265 L
620 3275 L
620 3475 L
620 3273 L
620 3266 L
620 3161 L
620 2816 L
620 3380 L
620 3336 L
620 3134 L
620 2866 L
620 3192 L
620 2984 L
620 2971 L
620 2679 L
620 3014 L
620 3094 L
620 2978 L
620 2768 L
620 3217 L
620 3125 L
620 3259 L
620 3268 L
620 2715 L
620 2861 L
620 3524 L
620 3125 L
620 2931 L
620 3070 L
620 2770 L
620 2913 L
620 3293 L
620 2798 L
620 3037 L
620 3014 L
620 3274 L
620 3358 L
620 3173 L
620 3447 L
620 2793 L
620 3146 L
620 3115 L
620 3335 L
620 2868 L
620 2749 L
620 2916 L
620 2937 L
620 3562 L
620 3085 L
620 3060 L
620 2750 L
620 3075 L
620 3221 L
620 2987 L
620 2586 L
620 2767 L
620 3124 L
620 3094 L
620 3103 L
620 2997 L
620 3181 L
620 3067 L
620 3339 L
620 2835 L
620 3152 L
620 3395 L
620 3117 L
620 3326 L
620 3148 L
620 2949 L
620 3013 L
620 2976 L
620 3019 L
620 2835 L
620 3279 L
620 2937 L
620 3140 L
620 3120 L
620 2948 L
620 2854 L
620 2859 L
620 2777 L
620 3328 L
620 2970 L
620 3199 L
620 3088 L
620 2896 L
620 3001 L
620 2997 L
620 3358 L
620 2451 L
620 3003 L
620 2911 L
620 2938 L
620 2829 L
620 3233 L
620 3022 L
620 3511 L
620 3251 L
620 3097 L
620 2973 L
620 2990 L
620 3311 L
620 3014 L
620 3086 L
620 3037 L
620 2946 L
620 3060 L
620 3086 L
620 3348 L
620 3192 L
620 3167 L
620 3362 L
620 2876 L
620 2902 L
620 3202 L
620 3055 L
620 2995 L
620 3001 L
620 2653 L
620 2812 L
620 2910 L
620 3015 L
620 3148 L
620 3479 L
620 3316 L
620 3122 L
620 2967 L
620 3042 L
620 2886 L
620 2975 L
620 3088 L
620 3079 L
620 2874 L
620 3279 L
620 2789 L
620 2919 L
620 2819 L
620 2925 L
620 3113 L
620 2974 L
620 2946 L
620 3181 L
620 2792 L
620 3032 L
620 2960 L
620 2861 L
620 3016 L
620 2855 L
620 3103 L
620 3144 L
620 2850 L
620 2953 L
620 3315 L
620 3055 L
620 2855 L
620 2921 L
620 2781 L
620 2640 L
620 2997 L
620 2885 L
620 2615 L
620 2860 L
620 3002 L
620 2697 L
620 2373 L
620 2927 L
620 3169 L
620 3082 L
620 3186 L
620 3222 L
620 2834 L
620 2692 L
620 2840 L
620 3003 L
620 3005 L
620 2842 L
620 2972 L
620 3031 L
620 3020 L
620 2863 L
620 2873 L
620 3043 L
620 2694 L
620 3052 L
620 2923 L
620 2945 L
620 3170 L
620 2461 L
620 2846 L
620 3079 L
620 2644 L
620 2656 L
620 2825 L
620 3129 L
620 3043 L
620 2857 L
620 2999 L
620 2766 L
620 2728 L
620 2813 L
620 3157 L
620 2837 L
620 2836 L
620 2774 L
620 2755 L
620 2969 L
620 2980 L
620 3437 L
620 2952 L
620 3027 L
620 3219 L
620 2921 L
620 2815 L
620 2982 L
620 2766 L
620 2770 L
620 2870 L
620 3066 L
620 2691 L
620 2238 L
620 3006 L
620 2745 L
620 2910 L
620 2588 L
620 2947 L
620 3226 L
620 3186 L
620 2972 L
620 2543 L
620 2580 L
620 3092 L
620 3213 L
620 3143 L
620 3091 L
620 2630 L
620 2817 L
620 2891 L
620 2811 L
620 2839 L
620 2910 L
620 3213 L
620 3116 L
620 3193 L
620 3094 L
620 3155 L
620 2807 L
620 2682 L
620 2616 L
620 2838 L
620 2952 L
620 2838 L
620 3068 L
620 2478 L
620 3050 L
620 2777 L
620 3048 L
620 2939 L
620 3105 L
620 3111 L
620 2751 L
620 3031 L
620 2699 L
620 2872 L
620 2824 L
620 2655 L
620 2701 L
620 2913 L
620 2793 L
620 3135 L
620 3009 L
620 3019 L
620 2699 L
620 2915 L
620 3138 L
620 2772 L
620 2751 L
620 3374 L
620 2727 L
620 3326 L
620 2680 L
620 2768 L
620 2873 L
620 2856 L
620 2937 L
620 2715 L
620 2838 L
620 2593 L
620 2986 L
620 2742 L
620 2854 L
620 3078 L
620 3123 L
620 2872 L
620 2765 L
620 2802 L
620 2905 L
620 2951 L
620 2596 L
620 2866 L
620 3060 L
620 2907 L
620 3102 L
620 2313 L
620 2411 L
620 2529 L
620 3023 L
620 3429 L
620 2718 L
620 2976 L
620 2739 L
620 2641 L
620 2977 L
620 2769 L
620 2895 L
620 2717 L
620 3031 L
620 2470 L
620 2834 L
620 2746 L
620 2531 L
620 2886 L
620 2985 L
620 2867 L
620 3369 L
620 2823 L
620 2578 L
620 3082 L
620 2827 L
620 2587 L
620 2759 L
620 3038 L
620 2644 L
620 2702 L
620 2880 L
620 2860 L
620 2838 L
620 3088 L
620 2585 L
620 3199 L
620 2573 L
620 3050 L
620 3002 L
620 2810 L
620 2549 L
620 2608 L
620 2621 L
620 2607 L
620 2769 L
620 2525 L
620 3182 L
620 2804 L
620 2974 L
620 3043 L
620 2984 L
620 3045 L
620 2973 L
620 2820 L
620 2852 L
620 2834 L
620 2769 L
620 2609 L
620 2488 L
620 2774 L
620 2836 L
620 2958 L
620 2916 L
620 3111 L
620 2775 L
620 2778 L
620 2545 L
620 2429 L
620 3025 L
620 2952 L
620 2887 L
620 3093 L
620 2883 L
620 2724 L
620 2725 L
620 3123 L
620 2654 L
620 2720 L
620 2749 L
620 2681 L
620 2780 L
620 2843 L
620 2859 L
620 2209 L
620 2691 L
620 2577 L
620 2748 L
620 2512 L
620 2703 L
620 2721 L
620 2907 L
620 2719 L
620 2902 L
620 2435 L
620 2709 L
620 2492 L
620 2501 L
620 2643 L
620 2648 L
620 2896 L
620 2635 L
620 2670 L
620 2661 L
620 2939 L
620 2641 L
620 2684 L
620 2684 L
620 2293 L
620 2837 L
620 2783 L
620 3007 L
620 2276 L
620 3082 L
620 2560 L
620 2208 L
620 2498 L
620 2715 L
620 2537 L
620 2527 L
620 2486 L
620 2933 L
620 2607 L
620 2633 L
620 2524 L
620 2370 L
620 2711 L
620 2812 L
620 2716 L
620 2584 L
620 2586 L
620 2527 L
620 2799 L
620 2228 L
620 2433 L
620 2351 L
620 2592 L
620 2863 L
620 2641 L
620 2538 L
620 2534 L
620 2477 L
620 2877 L
620 2518 L
620 2371 L
620 2457 L
620 2460 L
620 2479 L
620 2652 L
620 2649 L
620 2673 L
620 2715 L
620 2423 L
620 2588 L
620 2678 L
620 2311 L
620 2501 L
620 2300 L
620 2466 L
620 2289 L
620 2560 L
620 2903 L
620 2522 L
620 2433 L
620 2483 L
620 2915 L
620 2574 L
620 2552 L
620 2396 L
620 2553 L
620 2437 L
620 2748 L
620 2655 L
620 2189 L
620 2514 L
620 2775 L
620 2398 L
620 2665 L
620 2400 L
620 2352 L
620 2626 L
620 2715 L
620 2769 L
620 2277 L
620 2542 L
620 2281 L
620 2400 L
620 2268 L
620 2607 L
620 2791 L
620 2326 L
620 2629 L
620 2591 L
620 2170 L
620 2429 L
620 2604 L
620 2523 L
620 2359 L
620 2624 L
620 2161 L
620 2816 L
620 2828 L
620 2667 L
620 3043 L
620 2307 L
620 2543 L
620 2735 L
620 2716 L
620 2136 L
620 2514 L
620 2441 L
620 2773 L
620 2652 L
620 2408 L
620 2552 L
620 2635 L
620 2529 L
620 2481 L
620 2641 L
620 2418 L
620 2360 L
620 2318 L
620 2455 L
620 2844 L
620 2316 L
620 2461 L
620 2251 L
620 2491 L
620 2387 L
620 2388 L
620 2300 L
620 2579 L
620 2768 L
620 2392 L
620 2521 L
620 2394 L
620 2529 L
620 2753 L
620 3064 L
620 2463 L
620 2368 L
620 2652 L
620 2562 L
620 2471 L
620 2286 L
620 2253 L
620 2958 L
620 2610 L
620 3147 L
620 2704 L
620 2636 L
620 2786 L
620 2705 L
620 2593 L
620 2467 L
620 2495 L
620 2611 L
620 2408 L
620 2483 L
620 2975 L
620 2421 L
620 2613 L
620 2376 L
620 2234 L
620 2678 L
620 2434 L
620 2540 L
620 2492 L
620 2578 L
620 2624 L
620 2618 L
620 2665 L
620 2908 L
620 2445 L
620 2188 L
620 2685 L
620 2427 L
620 2758 L
620 2747 L
620 2563 L
620 2760 L
620 2775 L
620 2408 L
620 2195 L
620 2354 L
620 2803 L
620 2671 L
620 2233 L
620 2645 L
620 2583 L
620 2518 L
620 2399 L
620 2509 L
620 2351 L
620 2426 L
620 2587 L
620 2505 L
620 2822 L
620 2716 L
620 2790 L
620 2817 L
620 2638 L
620 2678 L
620 2726 L
620 3205 L
620 2577 L
620 2650 L
620 3115 L
620 2883 L
620 2500 L
620 2827 L
620 2584 L
620 2447 L
620 2755 L
620 2668 L
620 2705 L
620 2804 L
620 2484 L
620 2877 L
620 2956 L
620 3074 L
620 2620 L
620 2755 L
620 2500 L
620 2777 L
620 2696 L
620 2872 L
620 2666 L
620 2855 L
620 3101 L
620 2789 L
620 2336 L
620 3018 L
620 2739 L
620 2800 L
620 2751 L
620 2915 L
620 3174 L
620 2500 L
620 2658 L
620 2966 L
620 2479 L
620 2830 L
620 2639 L
620 2901 L
620 2547 L
620 3191 L
620 2588 L
620 2629 L
620 2651 L
620 2764 L
620 2860 L
620 2695 L
620 2597 L
620 2646 L
620 2824 L
620 3010 L
620 2626 L
620 2931 L
620 3025 L
620 3110 L
620 2876 L
620 2760 L
620 2688 L
620 2922 L
620 2561 L
620 2447 L
620 3028 L
620 2800 L
620 2842 L
620 2635 L
620 2983 L
620 2994 L
620 3058 L
620 2792 L
620 3017 L
620 2989 L
620 3264 L
620 2415 L
620 2797 L
620 2805 L
620 2950 L
620 2358 L
620 2890 L
620 2914 L
620 2488 L
620 2826 L
620 2936 L
620 2753 L
620 2443 L
620 3149 L
620 3090 L
620 2652 L
620 3166 L
620 2552 L
620 2767 L
620 2571 L
620 3019 L
620 3044 L
620 2853 L
620 3078 L
620 2814 L
620 2834 L
620 2757 L
620 3173 L
620 2818 L
620 2712 L
620 2710 L
620 2965 L
620 3204 L
620 3104 L
620 3011 L
620 2836 L
620 2920 L
620 3010 L
620 3226 L
620 2841 L
620 2949 L
620 2758 L
620 2842 L
620 2917 L
620 2954 L
620 3032 L
620 3040 L
620 2849 L
620 2933 L
620 2865 L
620 2842 L
620 2908 L
620 2915 L
620 2678 L
620 2643 L
620 2993 L
620 3358 L
620 2850 L
620 2817 L
620 3349 L
620 3086 L
620 2982 L
620 3112 L
620 2804 L
620 2950 L
620 2658 L
620 2935 L
620 2906 L
620 3037 L
620 2881 L
620 2979 L
620 2973 L
620 2962 L
620 3160 L
620 3146 L
620 2900 L
620 3212 L
620 3439 L
620 3212 L
620 2542 L
620 2854 L
620 2860 L
620 2678 L
620 2805 L
620 3148 L
620 3075 L
620 3024 L
620 2574 L
620 3260 L
620 3250 L
620 2884 L
620 3093 L
620 3116 L
620 3026 L
620 3092 L
620 3017 L
620 3209 L
620 3131 L
620 2994 L
620 2994 L
620 3037 L
620 2964 L
620 2884 L
620 3234 L
620 3126 L
620 3322 L
620 3401 L
620 2913 L
620 3030 L
620 2993 L
620 3062 L
620 3342 L
620 2873 L
620 3166 L
620 3038 L
620 3009 L
620 2684 L
620 2806 L
620 3387 L
620 3002 L
620 3099 L
620 2987 L
620 3181 L
620 3129 L
620 3130 L
620 3115 L
620 3100 L
620 3274 L
620 2850 L
620 3223 L
620 3779 L
620 3356 L
620 3067 L
620 3042 L
620 3183 L
620 3097 L
620 2872 L
620 3195 L
620 3432 L
620 2972 L
620 3114 L
620 3134 L
620 3048 L
620 3061 L
620 3178 L
620 3092 L
620 2849 L
620 2889 L
620 3107 L
620 3381 L
620 3240 L
620 3307 L
620 3288 L
620 2978 L
620 3242 L
620 3398 L
620 3150 L
620 3021 L
620 2541 L
620 3051 L
620 3010 L
620 2996 L
620 3400 L
620 3048 L
620 3250 L
620 3209 L
620 3399 L
620 3203 L
620 3046 L
620 2959 L
620 3237 L
620 3357 L
620 3484 L
620 3253 L
620 3338 L
620 3111 L
620 3214 L
620 3200 L
620 2944 L
620 3284 L
620 3258 L
620 3143 L
620 3431 L
620 2985 L
620 3100 L
620 3007 L
620 3253 L
620 3254 L
620 3327 L
620 3486 L
620 3141 L
620 3122 L
620 3209 L
620 3471 L
620 3205 L
620 3188 L
620 3065 L
620 3264 L
620 3275 L
620 3292 L
620 3163 L
620 3526 L
620 3038 L
620 3199 L
620 3153 L
620 3416 L
620 3139 L
620 3181 L
620 3144 L
620 3045 L
620 2946 L
620 3510 L
620 3352 L
620 3160 L
620 3126 L
620 3415 L
620 3519 L
620 3089 L
620 3117 L
620 3228 L
620 3065 L
620 2981 L
620 3125 L
620 3460 L
620 3107 L
620 3306 L
620 3064 L
620 3289 L
620 3117 L
620 3856 L
620 3421 L
620 3085 L
620 3519 L
620 3368 L
620 3489 L
620 3387 L
620 3244 L
620 3403 L
620 3964 L
620 3199 L
620 3480 L
620 3183 L
620 3285 L
620 3461 L
620 3517 L
620 3589 L
620 3751 L
620 3296 L
620 3064 L
620 3069 L
620 3245 L
620 3499 L
620 3102 L
620 3544 L
620 3564 L
620 3298 L
620 3526 L
620 3203 L
620 3008 L
620 3626 L
620 3079 L
620 3639 L
620 3431 L
620 3328 L
620 3674 L
620 3208 L
620 3416 L
620 3299 L
620 3410 L
620 3471 L
620 3608 L
620 3531 L
620 3040 L
620 3390 L
620 3381 L
620 3477 L
620 3225 L
620 3318 L
620 3575 L
620 3455 L
620 3378 L
620 3267 L
620 3309 L
620 3169 L
620 3298 L
620 3174 L
620 3860 L
620 3489 L
620 3848 L
620 3332 L
620 3383 L
620 3344 L
620 3662 L
620 3504 L
620 3630 L
620 3615 L
620 3455 L
620 3746 L
620 3316 L
620 3471 L
620 3556 L
620 3440 L
620 3426 L
620 3233 L
620 3492 L
620 3455 L
620 3594 L
620 3065 L
620 3571 L
620 3455 L
620 3590 L
620 3698 L
620 3810 L
620 3282 L
620 3705 L
620 3178 L
620 3667 L
620 3407 L
620 3319 L
620 3549 L
620 3381 L
620 3233 L
620 3411 L
620 3561 L
620 3347 L
620 3494 L
620 3842 L
620 3328 L
620 3554 L
620 3507 L
620 3554 L
620 3430 L
620 3042 L
620 3674 L
620 3263 L
620 3539 L
620 3288 L
620 3549 L
620 3458 L
620 3787 L
620 3477 L
620 3663 L
620 3771 L
620 3407 L
620 2992 L
620 3405 L
620 3571 L
620 3672 L
620 3456 L
620 3614 L
620 3806 L
620 3495 L
620 3543 L
620 3362 L
620 3415 L
620 3402 L
620 3534 L
620 3469 L
620 3117 L
620 3694 L
620 3124 L
620 3317 L
620 3574 L
620 3362 L
620 3501 L
620 3594 L
620 3294 L
620 3485 L
620 3603 L
620 3474 L
620 3373 L
620 3526 L
620 3105 L
620 3596 L
620 3563 L
620 3692 L
620 3451 L
620 3778 L
620 3669 L
620 3575 L
620 3466 L
620 3695 L
620 3569 L
620 3581 L
620 3683 L
620 3632 L
620 3619 L
620 3762 L
620 3051 L
620 3803 L
620 3521 L
620 3733 L
620 3688 L
620 3519 L
620 3328 L
620 3606 L
620 3832 L
620 3270 L
620 3531 L
620 3526 L
620 3445 L
620 3924 L
620 3665 L
620 3707 L
620 3489 L
620 3507 L
620 3768 L
620 3705 L
620 3694 L
620 3644 L
620 3474 L
620 3744 L
620 3245 L
620 3746 L
620 3301 L
620 3707 L
620 3484 L
620 3813 L
620 3850 L
620 3728 L
620 3555 L
620 3703 L
620 3764 L
620 3708 L
620 3652 L
620 4023 L
620 3835 L
620 3713 L
620 3385 L
620 3427 L
620 3536 L
620 3318 L
620 3611 L
620 3685 L
620 3737 L
620 3593 L
620 3615 L
620 3430 L
620 3526 L
620 3482 L
620 3467 L
620 3289 L
620 3667 L
620 3484 L
620 3677 L
620 3642 L
620 3421 L
620 3630 L
620 3808 L
620 3514 L
620 3364 L
620 3716 L
620 3629 L
620 3539 L
620 3499 L
620 3423 L
620 3626 L
620 3579 L
620 3714 L
620 3712 L
620 3697 L
620 3393 L
620 3604 L
620 3477 L
620 3796 L
620 3472 L
620 3836 L
620 3630 L
620 3183 L
620 3877 L
620 3774 L
620 3713 L
620 3673 L
620 3561 L
620 3495 L
620 3470 L
620 3741 L
620 3793 L
620 3599 L
620 3712 L
620 3431 L
620 4134 L
620 3626 L
620 3509 L
620 3867 L
620 3496 L
620 3466 L
620 4040 L
620 3700 L
620 3595 L
620 3431 L
620 3818 L
620 3925 L
620 3769 L
620 3866 L
620 3506 L
620 3541 L
620 3208 L
620 3489 L
620 3585 L
620 3564 L
620 3534 L
620 3754 L
620 3494 L
620 3245 L
620 3881 L
620 3485 L
620 3462 L
620 3669 L
620 3736 L
620 3520 L
620 3843 L
620 3968 L
620 3490 L
620 3867 L
620 3519 L
620 3947 L
620 3680 L
620 3708 L
620 3749 L
620 3657 L
620 3695 L
620 3614 L
620 4039 L
620 3497 L
620 3395 L
620 3729 L
620 3499 L
620 3830 L
620 3558 L
620 3654 L
620 3837 L
620 3975 L
620 3726 L
620 4063 L
620 3754 L
620 3855 L
620 3821 L
620 3815 L
620 3642 L
620 3697 L
620 3685 L
620 3876 L
620 3484 L
620 3694 L
620 3999 L
620 3742 L
620 3868 L
620 3758 L
620 3838 L
620 3628 L
620 4064 L
620 3514 L
620 3510 L
620 4110 L
620 3793 L
620 3353 L
620 3482 L
620 4016 L
620 3445 L
620 3663 L
620 3954 L
620 3827 L
620 3535 L
620 3406 L
620 3690 L
620 3796 L
620 3346 L
620 3604 L
620 3723 L
620 3605 L
620 4204 L
620 3999 L
620 3349 L
620 3969 L
620 3944 L
620 3753 L
620 3555 L
620 4020 L
620 4209 L
620 3578 L
620 3600 L
620 4050 L
620 3921 L
620 3787 L
620 3940 L
620 3576 L
620 3645 L
620 3664 L
620 3663 L
620 3416 L
620 3733 L
620 3698 L
620 3707 L
620 4041 L
620 3595 L
620 4041 L
620 3536 L
620 3605 L
620 3746 L
620 3486 L
620 3539 L
620 3416 L
620 3949 L
620 3875 L
620 3813 L
620 4030 L
620 4059 L
620 3769 L
620 3565 L
620 3781 L
620 3647 L
620 3843 L
620 3744 L
620 3726 L
620 3756 L
620 4103 L
620 3469 L
620 3792 L
620 3321 L
620 3764 L
620 3925 L
620 3601 L
620 3754 L
620 3690 L
620 4115 L
620 3733 L
620 3959 L
620 3756 L
620 3550 L
620 3853 L
620 3902 L
620 3667 L
620 3677 L
620 4122 L
620 3777 L
620 3884 L
620 3836 L
620 4064 L
620 3978 L
620 3921 L
620 4034 L
620 3881 L
620 3801 L
620 4272 L
620 3708 L
620 4062 L
620 4046 L
620 3865 L
620 3652 L
620 3732 L
620 3940 L
620 4005 L
620 3971 L
620 3714 L
620 3695 L
620 3667 L
620 3731 L
620 3634 L
620 4094 L
620 3926 L
620 4087 L
620 3835 L
620 3732 L
620 3969 L
620 3645 L
620 3909 L
620 4004 L
620 3565 L
620 3990 L
620 3746 L
620 4018 L
620 3862 L
620 4093 L
620 3662 L
620 3757 L
620 3942 L
620 4157 L
620 4149 L
620 3450 L
620 3934 L
620 3194 L
620 3729 L
620 3603 L
620 3807 L
620 3857 L
620 3937 L
620 4100 L
620 3536 L
620 4102 L
620 4169 L
620 4083 L
620 3982 L
620 4108 L
620 3396 L
620 3906 L
620 4265 L
620 4083 L
620 4294 L
620 4424 L
620 4136 L
620 3914 L
620 3982 L
620 4000 L
620 4116 L
620 4227 L
620 4069 L
620 4224 L
620 4218 L
620 4224 L
620 4008 L
620 4428 L
620 4366 L
620 3865 L
620 4044 L
620 4250 L
620 4388 L
620 3740 L
620 4263 L
620 4312 L
620 4153 L
620 4409 L
620 3892 L
620 4291 L
620 4124 L
620 4138 L
620 3722 L
620 4271 L
620 3578 L
620 3774 L
620 3931 L
620 4172 L
620 3749 L
620 4149 L
620 3724 L
620 4167 L
620 4189 L
620 4384 L
620 4011 L
620 4158 L
620 4360 L
620 3973 L
620 3935 L
620 4374 L
620 4139 L
620 4686 L
620 4321 L
620 3975 L
620 4036 L
620 4078 L
620 4288 L
620 3932 L
620 4155 L
620 3928 L
620 4155 L
620 4392 L
620 4460 L
620 4318 L
620 4323 L
620 4072 L
620 4299 L
620 4382 L
620 4727 L
620 3851 L
620 4432 L
620 4287 L
620 4352 L
620 4180 L
620 4299 L
620 4133 L
620 3998 L
620 4371 L
620 4081 L
620 4006 L
620 3892 L
620 4493 L
620 4481 L
620 4077 L
620 3954 L
620 4326 L
620 4337 L
620 4142 L
620 4022 L
620 4025 L
620 4152 L
620 4360 L
620 4034 L
620 4340 L
620 4058 L
620 4412 L
620 4081 L
620 3899 L
620 3740 L
620 4095 L
620 4562 L
620 4166 L
620 4020 L
620 4145 L
620 4445 L
620 4178 L
620 4169 L
620 4167 L
620 4055 L
620 4158 L
620 3990 L
620 4039 L
620 4459 L
620 4033 L
620 4569 L
620 4067 L
620 4324 L
620 3973 L
620 3782 L
620 4252 L
620 4158 L
620 3830 L
620 4465 L
620 4280 L
620 4172 L
620 4290 L
620 4045 L
620 3998 L
620 4145 L
620 3896 L
620 3878 L
620 4484 L
620 4012 L
620 3972 L
620 4373 L
620 3744 L
620 4627 L
620 4475 L
620 4236 L
620 3998 L
620 4205 L
620 4062 L
620 4312 L
620 4254 L
620 4180 L
620 4128 L
620 4067 L
620 4360 L
620 4177 L
620 4028 L
620 4608 L
620 4379 L
620 4457 L
620 4401 L
620 4379 L
620 4351 L
620 4611 L
620 4232 L
620 4708 L
620 4219 L
620 4216 L
620 4385 L
620 4001 L
620 4537 L
620 4390 L
620 4111 L
620 4222 L
620 3968 L
620 4247 L
620 4208 L
620 4153 L
620 4037 L
620 4069 L
620 4260 L
620 4119 L
620 4287 L
620 4305 L
620 4020 L
620 4305 L
620 4622 L
620 4667 L
620 4522 L
620 4062 L
620 4580 L
620 4280 L
620 4403 L
620 4080 L
620 3787 L
620 4100 L
620 4330 L
620 4467 L
620 4128 L
620 4540 L
620 3965 L
620 4028 L
620 4308 L
620 4620 L
620 4381 L
620 4354 L
620 4120 L
620 3945 L
620 4050 L
620 4359 L
620 3823 L
620 4130 L
620 4340 L
620 4127 L
620 4661 L
620 3834 L
620 4158 L
620 4305 L
620 3721 L
620 4310 L
620 4337 L
620 4329 L
620 3998 L
620 4006 L
620 4111 L
620 4091 L
620 4236 L
620 4194 L
620 4105 L
620 4316 L
620 4040 L
620 4277 L
620 4468 L
620 4069 L
620 4037 L
620 3887 L
620 4109 L
620 4318 L
620 4221 L
620 4432 L
620 4036 L
620 3935 L
620 4100 L
620 4274 L
620 4324 L
620 4048 L
620 4288 L
620 4581 L
620 3678 L
620 4435 L
620 3936 L
620 4219 L
620 4059 L
620 4509 L
620 4525 L
620 4250 L
620 4503 L
620 4196 L
620 4009 L
620 4287 L
620 3757 L
620 4277 L
620 4235 L
620 3914 L
620 4315 L
620 4077 L
620 4039 L
620 4649 L
620 4323 L
620 4274 L
620 3967 L
620 4606 L
620 3879 L
620 4163 L
620 3993 L
620 4835 L
620 3975 L
620 4257 L
620 4462 L
620 3917 L
620 4407 L
620 4048 L
620 4194 L
620 4254 L
620 4177 L
620 3959 L
620 4399 L
620 4136 L
620 4481 L
620 4822 L
620 4312 L
620 4495 L
620 4152 L
620 4169 L
620 4142 L
620 4308 L
620 4459 L
620 4122 L
620 4617 L
620 4250 L
620 3935 L
620 4294 L
620 4023 L
620 4595 L
620 4095 L
620 4155 L
620 4028 L
620 3964 L
620 4500 L
620 4172 L
620 4163 L
620 4138 L
620 4225 L
620 3899 L
620 4471 L
620 4254 L
620 4429 L
620 4266 L
620 4545 L
620 4451 L
620 4252 L
620 4354 L
620 4564 L
620 4335 L
620 4305 L
620 3910 L
620 4067 L
620 3721 L
620 4083 L
620 3769 L
620 4182 L
620 4080 L
620 4297 L
620 4040 L
620 3948 L
620 4354 L
620 4373 L
620 4305 L
620 4196 L
620 4470 L
620 4359 L
620 3868 L
620 4183 L
620 4156 L
620 4359 L
620 4658 L
620 4171 L
620 4250 L
620 4081 L
620 4083 L
620 4208 L
620 3937 L
620 4214 L
620 4296 L
L2 C07 COSGR

%
%================
% Legend - Begin
%================
%
GSN 4240 5180 M
4480 5180 L
LWMC SL  C07 COSGR
GSN 4540 5141 M helvM (4.0 uM) show grestore
%
%================
% Legend - End
%================
%

%
% Main frame
%
L10
GSN 
620 1700 M
4220 1700 L
4220 5300 L
620 5300 L
closepath SGR

%
% X axis: large tics
%
L10
%
% X axis: small tics
%
L5
%
% Y axis: large tics
%
L10
GSN 620 1702 M 54 0 rL SGR
GSN 4220 1702 M -54 0 rL SGR
helvS (-0.02) 560 1702 ylabel
GSN 620 2524 M 54 0 rL SGR
GSN 4220 2524 M -54 0 rL SGR
helvS (-0.01) 560 2524 ylabel
GSN 620 3346 M 54 0 rL SGR
GSN 4220 3346 M -54 0 rL SGR
helvS (0) 560 3346 ylabel
GSN 620 4167 M 54 0 rL SGR
GSN 4220 4167 M -54 0 rL SGR
helvS (0.01) 560 4167 ylabel
GSN 620 4989 M 54 0 rL SGR
GSN 4220 4989 M -54 0 rL SGR
helvS (0.02) 560 4989 ylabel
%
% Y axis: small tics
%
L5
GSN 620 1702 M 36 0 rL SGR
GSN 4220 1702 M -36 0 rL SGR
GSN 620 1908 M 36 0 rL SGR
GSN 4220 1908 M -36 0 rL SGR
GSN 620 2113 M 36 0 rL SGR
GSN 4220 2113 M -36 0 rL SGR
GSN 620 2319 M 36 0 rL SGR
GSN 4220 2319 M -36 0 rL SGR
GSN 620 2524 M 36 0 rL SGR
GSN 4220 2524 M -36 0 rL SGR
GSN 620 2729 M 36 0 rL SGR
GSN 4220 2729 M -36 0 rL SGR
GSN 620 2935 M 36 0 rL SGR
GSN 4220 2935 M -36 0 rL SGR
GSN 620 3140 M 36 0 rL SGR
GSN 4220 3140 M -36 0 rL SGR
GSN 620 3346 M 36 0 rL SGR
GSN 4220 3346 M -36 0 rL SGR
GSN 620 3551 M 36 0 rL SGR
GSN 4220 3551 M -36 0 rL SGR
GSN 620 3756 M 36 0 rL SGR
GSN 4220 3756 M -36 0 rL SGR
GSN 620 3962 M 36 0 rL SGR
GSN 4220 3962 M -36 0 rL SGR
GSN 620 4167 M 36 0 rL SGR
GSN 4220 4167 M -36 0 rL SGR
GSN 620 4373 M 36 0 rL SGR
GSN 4220 4373 M -36 0 rL SGR
GSN 620 4578 M 36 0 rL SGR
GSN 4220 4578 M -36 0 rL SGR
GSN 620 4783 M 36 0 rL SGR
GSN 4220 4783 M -36 0 rL SGR
GSN 620 4989 M 36 0 rL SGR
GSN 4220 4989 M -36 0 rL SGR
GSN 620 5194 M 36 0 rL SGR
GSN 4220 5194 M -36 0 rL SGR

%
% X axis - residual panel
%
GSN L5 620 3346 M 4220 3346 L SDA G50 SGR

%
% X-Axis label:
%
gsave 620 1370 M 
[
[(Helvetica) 180 0 true true 0 (t)]
[(Helvetica) 180 0 true true 0 (i)]
[(Helvetica) 180 0 true true 0 (m)]
[(Helvetica) 180 0 true true 0 (e)]
] 0 MCshow grestore

%
% Y-Axis label:
%
gsave 234 3500 M 
currentpoint gsave translate 90 rotate 0 0 moveto
[
[(Helvetica) 180 0 true true 0 (r)]
[(Helvetica) 180 0 true true 0 (e)]
[(Helvetica) 180 0 true true 0 (s)]
[(Helvetica) 180 0 true true 0 (i)]
[(Helvetica) 180 0 true true 0 (d)]
[(Helvetica) 180 0 true true 0 (u)]
[(Helvetica) 180 0 true true 0 (a)]
[(Helvetica) 180 0 true true 0 (l)]
[(Helvetica) 180 0 true true 0 (s)]
] 0 MCshow grestore

end
showpage
%%Trailer
%%EOF
