%!PS-Adobe-3.0 EPSF-3.0
%%BoundingBox: 0 0 514 442
%%Creator: BioKin Ltd.
%%DocumentFonts: Symbol Helvetica
%%EndComments
%
/bkdict 256 dict def
bkdict begin
/M {moveto} def 
/R {rmoveto} def
/L {lineto} def
/rL {rlineto} def
/GSN {gsave newpath} def
/SGR {stroke grestore} def
/COSGR {gsave setrgbcolor stroke grestore grestore} def
/SL {setlinewidth} def
/LWMB {12} def             % line width - model curves, black & white
/LWMC {10} def             % line width - model curves, color
/L2 {2.5 setlinewidth} def
/L5 {5 setlinewidth} def
/L10 {10 setlinewidth} def
/G50 {0.5 setgray} def
/SDA {[10  20] 0 setdash} def % axes
/helvT {/Helvetica findfont 100 scalefont setfont} def % tiny
/helvS {/Helvetica findfont 125 scalefont setfont} def % small
/helvM {/Helvetica findfont 150 scalefont setfont} def % medium
/helvL {/Helvetica findfont 175 scalefont setfont} def % large
/xlabel {gsave M dup
   stringwidth exch -0.5 mul exch rmoveto show grestore} def 
/ylabel {gsave M 90 rotate dup
   stringwidth exch -0.5 mul exch rmoveto show grestore} def
/ylabelresid {gsave M dup
   stringwidth exch -1 mul exch rmoveto show grestore} def
% ======
% Shapes
% ======
% Circle:
/Circ {0 360 arc closepath} def
%
% Square:
/Squa {dup dup -0.5 mul dup dup R -2 mul 0 exch rL 1 mul 0 rL dup 0 exch -1 mul rL closepath} def
%
% Triangle Up:
/TriU {dup dup dup -0.4 mul exch -0.5 mul exch R dup 0.5 mul exch rL dup -1 mul exch 0.5 mul exch rL closepath} def 
%
% Triangle Down:
/TriD {dup dup dup 0.4 mul exch -0.5 mul exch R dup 0.5 mul exch -1 mul rL dup 0.5 mul exch rL closepath} def 
%
% Diamond:
/Diam {45 rotate Squa} def
% ======
% Fills
% ======
/GRF {gsave setgray fill grestore} def                    % gray-level Fill
/COF {gsave setrgbcolor fill grestore} def                % color fill
% ======
% Colors
% ======
/C01 {1.00	0.00	0.00} def      % Red
/C02 {0.00	0.00	1.00} def      % Blue
/C03 {0.00	0.39	0.00} def      % Dark Green
/C04 {0.78	0.08	0.52} def      % Medium Violet Red
/C05 {0.55	0.27	0.07} def      % Saddle Brown
/C06 {0.10	0.70	0.70} def      % (cyan)
/C07 {1.00	0.55	0.00} def      % Dark Orange
/C08 {0.63	0.13	0.94} def      % Purple
/C09 {0.00	0.75	1.00} def      % Deep Sky Blue
/C10 {0.20	0.80	0.20} def      % Lime Green
/C11 {0.47	0.53	0.60} def      % Light Slate Gray
/C12 {0.00	0.00	0.00} def      % Black            % or: {0.19	0.31	0.31} def      % Dark Slate Gray
%
/LGR {0.75} def % light gray
/DGR {0.33} def % dark gray
%
% =============
% Dash patterns
% =============
/dash01 { [80  20] 0 setdash } def
/dash02 { [40  20] 0 setdash } def
/dash03 { [80  20  10  20] 0 setdash } def
/dash04 { [40  20  10  20] 0 setdash } def
/dash05 { [80  20  10  10  10  20] 0 setdash } def
/dash06 { [40  20  10  10  10  20] 0 setdash } def
/dash07 { [10  10] 0 setdash } def
%
/MFshow {
   { dup 5 get 3 ge
     { 5 get 3 eq {gsave} {grestore} ifelse }
     {dup dup 0 get findfont exch 1 get scalefont setfont
     [ currentpoint ] exch dup 2 get 0 exch R dup 5 get 2 ne {dup dup 6
     get exch 4 get {show} {stringwidth pop 0 R} ifelse }if dup 5 get 0 eq
     {dup 3 get {2 get neg 0 exch R pop} {pop aload pop M} ifelse} {dup 5
     get 1 eq {dup 2 get exch dup 3 get exch 6 get stringwidth pop -2 div
     dup 0 R} {dup 6 get stringwidth pop -2 div 0 R 6 get
     show 2 index {aload pop M neg 3 -1 roll neg R pop pop} {pop pop pop
     pop aload pop M} ifelse }ifelse }ifelse }
     ifelse }
   forall} bind def
/MFwidth {0 exch {dup 3 get{dup dup 0 get findfont exch 1 get scalefont
     setfont 6 get stringwidth pop add} {pop} ifelse} forall} bind def
/MCshow { currentpoint stroke M
  exch dup MFwidth -2 div 3 -1 roll R MFshow } def
%
end
%%EndProlog
bkdict begin
0.1 0.1 scale
%
% Model curves:
%

GSN 753 3616 M
770 3616 L
803 3616 L
837 3617 L
870 3618 L
903 3619 L
924 3620 L
941 3621 L
970 3621 L
1003 3623 L
1037 3625 L
1070 3626 L
1096 3628 L
1113 3630 L
1137 3631 L
1170 3634 L
1203 3637 L
1237 3640 L
1268 3644 L
1284 3647 L
1303 3648 L
1337 3653 L
1370 3658 L
1403 3664 L
1437 3670 L
1456 3678 L
1473 3679 L
1503 3685 L
1537 3694 L
1570 3703 L
1603 3713 L
1628 3724 L
1644 3729 L
1670 3735 L
1703 3747 L
1737 3759 L
1770 3772 L
1799 3784 L
1816 3794 L
1837 3797 L
1870 3809 L
1903 3821 L
1937 3832 L
1970 3841 L
1987 3850 L
2004 3851 L
2037 3858 L
2070 3864 L
2103 3869 L
2137 3874 L
2159 3878 L
2176 3879 L
2203 3881 L
2237 3884 L
2270 3887 L
2303 3891 L
2331 3894 L
2347 3897 L
2370 3898 L
2403 3903 L
2437 3908 L
2470 3913 L
2503 3919 L
2519 3925 L
2537 3925 L
2570 3932 L
2603 3939 L
2637 3947 L
2670 3955 L
2690 3964 L
2707 3966 L
2737 3973 L
2770 3983 L
2803 3992 L
2837 4002 L
2862 4011 L
2879 4017 L
2903 4021 L
2937 4030 L
2970 4039 L
3003 4047 L
3034 4054 L
3050 4060 L
3070 4061 L
3103 4067 L
3137 4072 L
3170 4076 L
3203 4079 L
3222 4081 L
3239 4082 L
3270 4083 L
3303 4084 L
3337 4085 L
3370 4086 L
3393 4086 L
3410 4086 L
3437 4086 L
3464 4086 L
3481 4086 L
3503 4086 L
3537 4086 L
3565 4086 L
3582 4086 L
3603 4086 L
3637 4086 L
3670 4086 L
3703 4086 L
3737 4086 L
3753 4086 L
3770 4086 L
3803 4086 L
3837 4086 L
3870 4086 L
3903 4086 L
3925 4086 L
3942 4086 L
3970 4086 L
4003 4086 L
4037 4086 L
4070 4086 L
4086 4086 L
LWMC SL dash01 C01 COSGR

GSN 753 3152 M
770 3152 L
803 3153 L
837 3155 L
870 3156 L
903 3158 L
924 3161 L
941 3161 L
970 3163 L
1003 3166 L
1037 3169 L
1070 3173 L
1096 3177 L
1113 3180 L
1137 3182 L
1170 3188 L
1203 3194 L
1237 3200 L
1268 3208 L
1284 3216 L
1303 3217 L
1337 3226 L
1370 3237 L
1403 3249 L
1437 3262 L
1456 3276 L
1473 3279 L
1503 3292 L
1537 3309 L
1570 3328 L
1603 3348 L
1628 3369 L
1644 3380 L
1670 3392 L
1703 3416 L
1737 3441 L
1770 3466 L
1799 3492 L
1816 3511 L
1837 3517 L
1870 3542 L
1903 3565 L
1937 3587 L
1970 3607 L
1987 3625 L
2004 3627 L
2037 3641 L
2070 3655 L
2103 3666 L
2137 3676 L
2159 3685 L
2176 3687 L
2203 3692 L
2237 3700 L
2270 3707 L
2303 3715 L
2331 3724 L
2347 3730 L
2370 3733 L
2403 3744 L
2437 3755 L
2470 3767 L
2503 3781 L
2519 3794 L
2537 3795 L
2570 3810 L
2603 3826 L
2637 3843 L
2670 3860 L
2690 3878 L
2707 3883 L
2737 3897 L
2770 3915 L
2803 3934 L
2837 3952 L
2862 3970 L
2879 3979 L
2903 3986 L
2937 4002 L
2970 4017 L
3003 4030 L
3034 4042 L
3050 4050 L
3070 4052 L
3103 4060 L
3137 4068 L
3170 4073 L
3203 4078 L
3222 4081 L
3239 4081 L
3270 4083 L
3303 4084 L
3337 4085 L
3370 4086 L
3393 4086 L
3410 4086 L
3437 4086 L
3464 4086 L
3481 4086 L
3503 4086 L
3537 4086 L
3565 4086 L
3582 4086 L
3603 4086 L
3637 4086 L
3670 4086 L
3703 4086 L
3737 4086 L
3753 4086 L
3770 4086 L
3803 4086 L
3837 4086 L
3870 4086 L
3903 4086 L
3925 4086 L
3942 4086 L
3970 4086 L
4003 4086 L
4037 4086 L
4070 4086 L
4086 4086 L
LWMC SL dash02 C02 COSGR

GSN 753 2670 M
770 2670 L
803 2672 L
837 2674 L
870 2677 L
903 2680 L
924 2683 L
941 2685 L
970 2687 L
1003 2692 L
1037 2697 L
1070 2703 L
1096 2709 L
1113 2713 L
1137 2716 L
1170 2725 L
1203 2734 L
1237 2744 L
1268 2756 L
1284 2767 L
1303 2769 L
1337 2784 L
1370 2800 L
1403 2818 L
1437 2838 L
1456 2860 L
1473 2864 L
1503 2884 L
1537 2911 L
1570 2939 L
1603 2970 L
1628 3003 L
1644 3020 L
1670 3038 L
1703 3075 L
1737 3113 L
1770 3152 L
1799 3191 L
1816 3222 L
1837 3231 L
1870 3269 L
1903 3305 L
1937 3340 L
1970 3371 L
1987 3400 L
2004 3401 L
2037 3425 L
2070 3446 L
2103 3465 L
2137 3481 L
2159 3495 L
2176 3500 L
2203 3509 L
2237 3522 L
2270 3535 L
2303 3549 L
2331 3564 L
2347 3575 L
2370 3581 L
2403 3599 L
2437 3618 L
2470 3639 L
2503 3661 L
2519 3684 L
2537 3685 L
2570 3710 L
2603 3736 L
2637 3763 L
2670 3791 L
2690 3819 L
2707 3825 L
2737 3846 L
2770 3874 L
2803 3901 L
2837 3927 L
2862 3951 L
2879 3964 L
2903 3974 L
2937 3994 L
2970 4013 L
3003 4029 L
3034 4043 L
3050 4053 L
3070 4055 L
3103 4064 L
3137 4071 L
3170 4076 L
3203 4080 L
3222 4083 L
3239 4083 L
3270 4084 L
3303 4085 L
3337 4086 L
3370 4086 L
3393 4086 L
3410 4086 L
3437 4086 L
3464 4086 L
3481 4086 L
3503 4086 L
3537 4086 L
3565 4086 L
3582 4086 L
3603 4086 L
3637 4086 L
3670 4086 L
3703 4086 L
3737 4086 L
3753 4086 L
3770 4086 L
3803 4086 L
3837 4086 L
3870 4086 L
3903 4086 L
3925 4086 L
3942 4086 L
3970 4086 L
4003 4086 L
4037 4086 L
4070 4086 L
4086 4086 L
LWMC SL dash03 C03 COSGR

GSN 753 2420 M
770 2420 L
803 2422 L
837 2425 L
870 2428 L
903 2432 L
924 2436 L
941 2437 L
970 2440 L
1003 2446 L
1037 2452 L
1070 2458 L
1096 2466 L
1113 2471 L
1137 2475 L
1170 2484 L
1203 2495 L
1237 2508 L
1268 2521 L
1284 2535 L
1303 2537 L
1337 2554 L
1370 2574 L
1403 2595 L
1437 2619 L
1456 2645 L
1473 2650 L
1503 2673 L
1537 2705 L
1570 2739 L
1603 2775 L
1628 2814 L
1644 2834 L
1670 2856 L
1703 2899 L
1737 2944 L
1770 2991 L
1799 3037 L
1816 3073 L
1837 3084 L
1870 3129 L
1903 3173 L
1937 3214 L
1970 3251 L
1987 3285 L
2004 3287 L
2037 3315 L
2070 3341 L
2103 3364 L
2137 3384 L
2159 3402 L
2176 3408 L
2203 3418 L
2237 3435 L
2270 3451 L
2303 3469 L
2331 3488 L
2347 3501 L
2370 3509 L
2403 3531 L
2437 3555 L
2470 3581 L
2503 3608 L
2519 3636 L
2537 3637 L
2570 3667 L
2603 3699 L
2637 3731 L
2670 3764 L
2690 3797 L
2707 3805 L
2737 3830 L
2770 3861 L
2803 3892 L
2837 3922 L
2862 3949 L
2879 3963 L
2903 3974 L
2937 3996 L
2970 4016 L
3003 4033 L
3034 4047 L
3050 4057 L
3070 4058 L
3103 4067 L
3137 4074 L
3170 4079 L
3203 4082 L
3222 4084 L
3239 4084 L
3270 4085 L
3303 4085 L
3337 4086 L
3370 4086 L
3393 4086 L
3410 4086 L
3437 4086 L
3464 4086 L
3481 4086 L
3503 4086 L
3537 4086 L
3565 4086 L
3582 4086 L
3603 4086 L
3637 4086 L
3670 4086 L
3703 4086 L
3737 4086 L
3753 4086 L
3770 4086 L
3803 4086 L
3837 4086 L
3870 4086 L
3903 4086 L
3925 4086 L
3942 4086 L
3970 4086 L
4003 4086 L
4037 4086 L
4070 4086 L
4086 4086 L
LWMC SL dash04 C04 COSGR

GSN 753 2111 M
770 2111 L
803 2114 L
837 2117 L
870 2121 L
903 2125 L
924 2130 L
941 2132 L
970 2136 L
1003 2142 L
1037 2149 L
1070 2157 L
1096 2166 L
1113 2172 L
1137 2176 L
1170 2188 L
1203 2201 L
1237 2216 L
1268 2232 L
1284 2249 L
1303 2251 L
1337 2271 L
1370 2294 L
1403 2320 L
1437 2348 L
1456 2379 L
1473 2385 L
1503 2414 L
1537 2451 L
1570 2492 L
1603 2535 L
1628 2582 L
1644 2605 L
1670 2631 L
1703 2683 L
1737 2737 L
1770 2792 L
1799 2848 L
1816 2891 L
1837 2904 L
1870 2958 L
1903 3011 L
1937 3060 L
1970 3105 L
1987 3147 L
2004 3149 L
2037 3183 L
2070 3215 L
2103 3243 L
2137 3267 L
2159 3290 L
2176 3297 L
2203 3311 L
2237 3331 L
2270 3352 L
2303 3375 L
2331 3399 L
2347 3416 L
2370 3425 L
2403 3453 L
2437 3483 L
2470 3515 L
2503 3549 L
2519 3583 L
2537 3585 L
2570 3622 L
2603 3660 L
2637 3699 L
2670 3738 L
2690 3777 L
2707 3786 L
2737 3815 L
2770 3852 L
2803 3887 L
2837 3920 L
2862 3950 L
2879 3965 L
2903 3977 L
2937 4001 L
2970 4022 L
3003 4039 L
3034 4053 L
3050 4062 L
3070 4063 L
3103 4071 L
3137 4077 L
3170 4081 L
3203 4083 L
3222 4084 L
3239 4085 L
3270 4085 L
3303 4085 L
3337 4086 L
3370 4086 L
3393 4086 L
3410 4086 L
3437 4086 L
3464 4086 L
3481 4086 L
3503 4086 L
3537 4086 L
3565 4086 L
3582 4086 L
3603 4086 L
3637 4086 L
3670 4086 L
3703 4086 L
3737 4086 L
3753 4086 L
3770 4086 L
3803 4086 L
3837 4086 L
3870 4086 L
3903 4086 L
3925 4086 L
3942 4086 L
3970 4086 L
4003 4086 L
4037 4086 L
4070 4086 L
4086 4086 L
LWMC SL dash05 C05 COSGR

GSN 753 1628 M
770 1628 L
803 1632 L
837 1636 L
870 1641 L
903 1646 L
924 1653 L
941 1655 L
970 1660 L
1003 1667 L
1037 1676 L
1070 1686 L
1096 1698 L
1113 1705 L
1137 1711 L
1170 1725 L
1203 1742 L
1237 1760 L
1268 1781 L
1284 1801 L
1303 1804 L
1337 1830 L
1370 1859 L
1403 1891 L
1437 1927 L
1456 1966 L
1473 1973 L
1503 2009 L
1537 2056 L
1570 2107 L
1603 2161 L
1628 2220 L
1644 2249 L
1670 2282 L
1703 2348 L
1737 2416 L
1770 2485 L
1799 2556 L
1816 2610 L
1837 2626 L
1870 2695 L
1903 2761 L
1937 2824 L
1970 2881 L
1987 2934 L
2004 2937 L
2037 2981 L
2070 3022 L
2103 3059 L
2137 3091 L
2159 3121 L
2176 3131 L
2203 3149 L
2237 3177 L
2270 3205 L
2303 3235 L
2331 3268 L
2347 3290 L
2370 3303 L
2403 3340 L
2437 3380 L
2470 3422 L
2503 3466 L
2519 3510 L
2537 3512 L
2570 3560 L
2603 3608 L
2637 3657 L
2670 3705 L
2690 3753 L
2707 3764 L
2737 3799 L
2770 3843 L
2803 3883 L
2837 3921 L
2862 3955 L
2879 3971 L
2903 3984 L
2937 4009 L
2970 4030 L
3003 4047 L
3034 4060 L
3050 4068 L
3070 4069 L
3103 4076 L
3137 4080 L
3170 4083 L
3203 4084 L
3222 4085 L
3239 4085 L
3270 4085 L
3303 4086 L
3337 4086 L
3370 4086 L
3393 4086 L
3410 4086 L
3437 4086 L
3464 4086 L
3481 4086 L
3503 4086 L
3537 4086 L
3565 4086 L
3582 4086 L
3603 4086 L
3637 4086 L
3670 4086 L
3703 4086 L
3737 4086 L
3753 4086 L
3770 4086 L
3803 4086 L
3837 4086 L
3870 4086 L
3903 4086 L
3925 4086 L
3942 4086 L
3970 4086 L
4003 4086 L
4037 4086 L
4070 4086 L
4086 4086 L
LWMC SL dash06 C06 COSGR

GSN 753 753 M
770 753 L
803 758 L
837 764 L
870 770 L
903 778 L
924 786 L
941 789 L
970 796 L
1003 807 L
1037 819 L
1070 833 L
1096 849 L
1113 859 L
1137 866 L
1170 886 L
1203 909 L
1237 934 L
1268 963 L
1284 991 L
1303 995 L
1337 1031 L
1370 1071 L
1403 1115 L
1437 1164 L
1456 1218 L
1473 1228 L
1503 1277 L
1537 1342 L
1570 1413 L
1603 1488 L
1628 1570 L
1644 1610 L
1670 1656 L
1703 1746 L
1737 1840 L
1770 1937 L
1799 2035 L
1816 2111 L
1837 2133 L
1870 2229 L
1903 2322 L
1937 2410 L
1970 2491 L
1987 2566 L
2004 2571 L
2037 2633 L
2070 2693 L
2103 2746 L
2137 2795 L
2159 2840 L
2176 2855 L
2203 2883 L
2237 2925 L
2270 2970 L
2303 3016 L
2331 3065 L
2347 3100 L
2370 3118 L
2403 3174 L
2437 3233 L
2470 3294 L
2503 3358 L
2519 3421 L
2537 3424 L
2570 3490 L
2603 3556 L
2637 3622 L
2670 3685 L
2690 3746 L
2707 3761 L
2737 3803 L
2770 3856 L
2803 3903 L
2837 3945 L
2862 3980 L
2879 3997 L
2903 4009 L
2937 4033 L
2970 4051 L
3003 4064 L
3034 4073 L
3050 4078 L
3070 4079 L
3103 4082 L
3137 4084 L
3170 4085 L
3203 4085 L
3222 4085 L
3239 4085 L
3270 4085 L
3303 4085 L
3337 4085 L
3370 4085 L
3393 4085 L
3410 4085 L
3437 4085 L
3464 4085 L
3481 4085 L
3503 4085 L
3537 4085 L
3565 4085 L
3582 4085 L
3603 4085 L
3637 4085 L
3670 4085 L
3703 4085 L
3737 4085 L
3753 4085 L
3770 4085 L
3803 4085 L
3837 4085 L
3870 4085 L
3903 4085 L
3925 4085 L
3942 4085 L
3970 4085 L
4003 4085 L
4037 4085 L
4070 4085 L
4086 4085 L
LWMC SL dash07 C07 COSGR

%
%================
% Legend - Begin
%================
%
GSN 4240 4040 M
4480 4040 L
LWMC SL dash01 C01 COSGR
GSN 4540 4001 M helvM (0.5 uM) show grestore
GSN 4240 3860 M
4480 3860 L
LWMC SL dash02 C02 COSGR
GSN 4540 3821 M helvM (1.0 uM) show grestore
GSN 4240 3680 M
4480 3680 L
LWMC SL dash03 C03 COSGR
GSN 4540 3641 M helvM (1.5 uM) show grestore
GSN 4240 3500 M
4480 3500 L
LWMC SL dash04 C04 COSGR
GSN 4540 3461 M helvM (2.0 uM) show grestore
GSN 4240 3320 M
4480 3320 L
LWMC SL dash05 C05 COSGR
GSN 4540 3281 M helvM (2.5 uM) show grestore
GSN 4240 3140 M
4480 3140 L
LWMC SL dash06 C06 COSGR
GSN 4540 3101 M helvM (3.0 uM) show grestore
GSN 4240 2960 M
4480 2960 L
LWMC SL dash07 C07 COSGR
GSN 4540 2921 M helvM (4.0 uM) show grestore
%
%================
% Legend - End
%================
%

%
% Main frame
%
L10
GSN 
620 620 M
4220 620 L
4220 4220 L
620 4220 L
closepath SGR

%
% X axis: large tics
%
L10
GSN 1130 620 M 0  54 rL SGR
GSN 1130 4220 M 0 -54 rL SGR
helvS (0.0001) 1130 470 xlabel
GSN 1716 620 M 0  54 rL SGR
GSN 1716 4220 M 0 -54 rL SGR
helvS (0.001) 1716 470 xlabel
GSN 2303 620 M 0  54 rL SGR
GSN 2303 4220 M 0 -54 rL SGR
helvS (0.01) 2303 470 xlabel
GSN 2889 620 M 0  54 rL SGR
GSN 2889 4220 M 0 -54 rL SGR
helvS (0.1) 2889 470 xlabel
GSN 3476 620 M 0  54 rL SGR
GSN 3476 4220 M 0 -54 rL SGR
helvS (1) 3476 470 xlabel
GSN 4062 620 M 0  54 rL SGR
GSN 4062 4220 M 0 -54 rL SGR
helvS (10) 4062 470 xlabel
%
% X axis: small tics
%
L5
GSN 720 620 M 0  36 rL SGR
GSN 720 4220 M 0 -36 rL SGR
GSN 824 620 M 0  36 rL SGR
GSN 824 4220 M 0 -36 rL SGR
GSN 897 620 M 0  36 rL SGR
GSN 897 4220 M 0 -36 rL SGR
GSN 954 620 M 0  36 rL SGR
GSN 954 4220 M 0 -36 rL SGR
GSN 1000 620 M 0  36 rL SGR
GSN 1000 4220 M 0 -36 rL SGR
GSN 1039 620 M 0  36 rL SGR
GSN 1039 4220 M 0 -36 rL SGR
GSN 1073 620 M 0  36 rL SGR
GSN 1073 4220 M 0 -36 rL SGR
GSN 1103 620 M 0  36 rL SGR
GSN 1103 4220 M 0 -36 rL SGR
GSN 1307 620 M 0  36 rL SGR
GSN 1307 4220 M 0 -36 rL SGR
GSN 1410 620 M 0  36 rL SGR
GSN 1410 4220 M 0 -36 rL SGR
GSN 1483 620 M 0  36 rL SGR
GSN 1483 4220 M 0 -36 rL SGR
GSN 1540 620 M 0  36 rL SGR
GSN 1540 4220 M 0 -36 rL SGR
GSN 1586 620 M 0  36 rL SGR
GSN 1586 4220 M 0 -36 rL SGR
GSN 1626 620 M 0  36 rL SGR
GSN 1626 4220 M 0 -36 rL SGR
GSN 1660 620 M 0  36 rL SGR
GSN 1660 4220 M 0 -36 rL SGR
GSN 1690 620 M 0  36 rL SGR
GSN 1690 4220 M 0 -36 rL SGR
GSN 1893 620 M 0  36 rL SGR
GSN 1893 4220 M 0 -36 rL SGR
GSN 1996 620 M 0  36 rL SGR
GSN 1996 4220 M 0 -36 rL SGR
GSN 2069 620 M 0  36 rL SGR
GSN 2069 4220 M 0 -36 rL SGR
GSN 2126 620 M 0  36 rL SGR
GSN 2126 4220 M 0 -36 rL SGR
GSN 2173 620 M 0  36 rL SGR
GSN 2173 4220 M 0 -36 rL SGR
GSN 2212 620 M 0  36 rL SGR
GSN 2212 4220 M 0 -36 rL SGR
GSN 2246 620 M 0  36 rL SGR
GSN 2246 4220 M 0 -36 rL SGR
GSN 2276 620 M 0  36 rL SGR
GSN 2276 4220 M 0 -36 rL SGR
GSN 2479 620 M 0  36 rL SGR
GSN 2479 4220 M 0 -36 rL SGR
GSN 2583 620 M 0  36 rL SGR
GSN 2583 4220 M 0 -36 rL SGR
GSN 2656 620 M 0  36 rL SGR
GSN 2656 4220 M 0 -36 rL SGR
GSN 2713 620 M 0  36 rL SGR
GSN 2713 4220 M 0 -36 rL SGR
GSN 2759 620 M 0  36 rL SGR
GSN 2759 4220 M 0 -36 rL SGR
GSN 2798 620 M 0  36 rL SGR
GSN 2798 4220 M 0 -36 rL SGR
GSN 2832 620 M 0  36 rL SGR
GSN 2832 4220 M 0 -36 rL SGR
GSN 2862 620 M 0  36 rL SGR
GSN 2862 4220 M 0 -36 rL SGR
GSN 3066 620 M 0  36 rL SGR
GSN 3066 4220 M 0 -36 rL SGR
GSN 3169 620 M 0  36 rL SGR
GSN 3169 4220 M 0 -36 rL SGR
GSN 3242 620 M 0  36 rL SGR
GSN 3242 4220 M 0 -36 rL SGR
GSN 3299 620 M 0  36 rL SGR
GSN 3299 4220 M 0 -36 rL SGR
GSN 3345 620 M 0  36 rL SGR
GSN 3345 4220 M 0 -36 rL SGR
GSN 3385 620 M 0  36 rL SGR
GSN 3385 4220 M 0 -36 rL SGR
GSN 3419 620 M 0  36 rL SGR
GSN 3419 4220 M 0 -36 rL SGR
GSN 3449 620 M 0  36 rL SGR
GSN 3449 4220 M 0 -36 rL SGR
GSN 3652 620 M 0  36 rL SGR
GSN 3652 4220 M 0 -36 rL SGR
GSN 3755 620 M 0  36 rL SGR
GSN 3755 4220 M 0 -36 rL SGR
GSN 3829 620 M 0  36 rL SGR
GSN 3829 4220 M 0 -36 rL SGR
GSN 3885 620 M 0  36 rL SGR
GSN 3885 4220 M 0 -36 rL SGR
GSN 3932 620 M 0  36 rL SGR
GSN 3932 4220 M 0 -36 rL SGR
GSN 3971 620 M 0  36 rL SGR
GSN 3971 4220 M 0 -36 rL SGR
GSN 4005 620 M 0  36 rL SGR
GSN 4005 4220 M 0 -36 rL SGR
GSN 4035 620 M 0  36 rL SGR
GSN 4035 4220 M 0 -36 rL SGR
%
% Y axis: large tics
%
L10
GSN 620 1668 M 54 0 rL SGR
GSN 4220 1668 M -54 0 rL SGR
helvS (-4) 560 1668 ylabel
GSN 620 2876 M 54 0 rL SGR
GSN 4220 2876 M -54 0 rL SGR
helvS (-2) 560 2876 ylabel
GSN 620 4085 M 54 0 rL SGR
GSN 4220 4085 M -54 0 rL SGR
helvS (0) 560 4085 ylabel
%
% Y axis: small tics
%
L5
GSN 620 761 M 36 0 rL SGR
GSN 4220 761 M -36 0 rL SGR
GSN 620 1063 M 36 0 rL SGR
GSN 4220 1063 M -36 0 rL SGR
GSN 620 1365 M 36 0 rL SGR
GSN 4220 1365 M -36 0 rL SGR
GSN 620 1668 M 36 0 rL SGR
GSN 4220 1668 M -36 0 rL SGR
GSN 620 1970 M 36 0 rL SGR
GSN 4220 1970 M -36 0 rL SGR
GSN 620 2272 M 36 0 rL SGR
GSN 4220 2272 M -36 0 rL SGR
GSN 620 2574 M 36 0 rL SGR
GSN 4220 2574 M -36 0 rL SGR
GSN 620 2876 M 36 0 rL SGR
GSN 4220 2876 M -36 0 rL SGR
GSN 620 3178 M 36 0 rL SGR
GSN 4220 3178 M -36 0 rL SGR
GSN 620 3481 M 36 0 rL SGR
GSN 4220 3481 M -36 0 rL SGR
GSN 620 3783 M 36 0 rL SGR
GSN 4220 3783 M -36 0 rL SGR
GSN 620 4085 M 36 0 rL SGR
GSN 4220 4085 M -36 0 rL SGR

%
% X axis
%
GSN L5 620 4085 M 4220 4085 L SDA G50 SGR

%
% X-Axis label:
%
gsave 2420 290 M 
[
[(Helvetica) 180 0 true true 0 (t)]
[(Helvetica) 180 0 true true 0 (i)]
[(Helvetica) 180 0 true true 0 (m)]
[(Helvetica) 180 0 true true 0 (e)]
] 0 MCshow grestore

%
% Y-Axis label:
%
gsave 234 2420 M 
currentpoint gsave translate 90 rotate 0 0 moveto
[
[(Helvetica) 180 0 true true 0 (d)]
[(Helvetica) 180 0 true true 0 (\()]
[(Helvetica) 180 0 true true 0 (s)]
[(Helvetica) 180 0 true true 0 (i)]
[(Helvetica) 180 0 true true 0 (g)]
[(Helvetica) 180 0 true true 0 (n)]
[(Helvetica) 180 0 true true 0 (a)]
[(Helvetica) 180 0 true true 0 (l)]
[(Helvetica) 180 0 true true 0 (\))]
[(Helvetica) 180 0 true true 0 ( )]
[(Helvetica) 180 0 true true 0 (/)]
[(Helvetica) 180 0 true true 0 ( )]
[(Helvetica) 180 0 true true 0 (d)]
[(Helvetica) 180 0 true true 0 (t)]
] 0 MCshow grestore

end
showpage
%%Trailer
%%EOF
