%!PS-Adobe-3.0 EPSF-3.0
%%BoundingBox: 0 0 514 442
%%Creator: BioKin Ltd.
%%DocumentFonts: Symbol Helvetica
%%EndComments
%
/bkdict 256 dict def
bkdict begin
/M {moveto} def 
/R {rmoveto} def
/L {lineto} def
/rL {rlineto} def
/GSN {gsave newpath} def
/SGR {stroke grestore} def
/COSGR {gsave setrgbcolor stroke grestore grestore} def
/SL {setlinewidth} def
/LWMB {12} def             % line width - model curves, black & white
/LWMC {10} def             % line width - model curves, color
/L2 {2.5 setlinewidth} def
/L5 {5 setlinewidth} def
/L10 {10 setlinewidth} def
/G50 {0.5 setgray} def
/SDA {[10  20] 0 setdash} def % axes
/helvT {/Helvetica findfont 100 scalefont setfont} def % tiny
/helvS {/Helvetica findfont 125 scalefont setfont} def % small
/helvM {/Helvetica findfont 150 scalefont setfont} def % medium
/helvL {/Helvetica findfont 175 scalefont setfont} def % large
/xlabel {gsave M dup
   stringwidth exch -0.5 mul exch rmoveto show grestore} def 
/ylabel {gsave M 90 rotate dup
   stringwidth exch -0.5 mul exch rmoveto show grestore} def
/ylabelresid {gsave M dup
   stringwidth exch -1 mul exch rmoveto show grestore} def
% ======
% Shapes
% ======
% Circle:
/Circ {0 360 arc closepath} def
%
% Square:
/Squa {dup dup -0.5 mul dup dup R -2 mul 0 exch rL 1 mul 0 rL dup 0 exch -1 mul rL closepath} def
%
% Triangle Up:
/TriU {dup dup dup -0.4 mul exch -0.5 mul exch R dup 0.5 mul exch rL dup -1 mul exch 0.5 mul exch rL closepath} def 
%
% Triangle Down:
/TriD {dup dup dup 0.4 mul exch -0.5 mul exch R dup 0.5 mul exch -1 mul rL dup 0.5 mul exch rL closepath} def 
%
% Diamond:
/Diam {45 rotate Squa} def
% ======
% Fills
% ======
/GRF {gsave setgray fill grestore} def                    % gray-level Fill
/COF {gsave setrgbcolor fill grestore} def                % color fill
% ======
% Colors
% ======
/C01 {1.00	0.00	0.00} def      % Red
/C02 {0.00	0.00	1.00} def      % Blue
/C03 {0.00	0.39	0.00} def      % Dark Green
/C04 {0.78	0.08	0.52} def      % Medium Violet Red
/C05 {0.55	0.27	0.07} def      % Saddle Brown
/C06 {0.10	0.70	0.70} def      % (cyan)
/C07 {1.00	0.55	0.00} def      % Dark Orange
/C08 {0.63	0.13	0.94} def      % Purple
/C09 {0.00	0.75	1.00} def      % Deep Sky Blue
/C10 {0.20	0.80	0.20} def      % Lime Green
/C11 {0.47	0.53	0.60} def      % Light Slate Gray
/C12 {0.00	0.00	0.00} def      % Black            % or: {0.19	0.31	0.31} def      % Dark Slate Gray
%
/LGR {0.75} def % light gray
/DGR {0.33} def % dark gray
%
% =============
% Dash patterns
% =============
/dash01 { [80  20] 0 setdash } def
/dash02 { [40  20] 0 setdash } def
/dash03 { [80  20  10  20] 0 setdash } def
/dash04 { [40  20  10  20] 0 setdash } def
/dash05 { [80  20  10  10  10  20] 0 setdash } def
/dash06 { [40  20  10  10  10  20] 0 setdash } def
/dash07 { [10  10] 0 setdash } def
%
/MFshow {
   { dup 5 get 3 ge
     { 5 get 3 eq {gsave} {grestore} ifelse }
     {dup dup 0 get findfont exch 1 get scalefont setfont
     [ currentpoint ] exch dup 2 get 0 exch R dup 5 get 2 ne {dup dup 6
     get exch 4 get {show} {stringwidth pop 0 R} ifelse }if dup 5 get 0 eq
     {dup 3 get {2 get neg 0 exch R pop} {pop aload pop M} ifelse} {dup 5
     get 1 eq {dup 2 get exch dup 3 get exch 6 get stringwidth pop -2 div
     dup 0 R} {dup 6 get stringwidth pop -2 div 0 R 6 get
     show 2 index {aload pop M neg 3 -1 roll neg R pop pop} {pop pop pop
     pop aload pop M} ifelse }ifelse }ifelse }
     ifelse }
   forall} bind def
/MFwidth {0 exch {dup 3 get{dup dup 0 get findfont exch 1 get scalefont
     setfont 6 get stringwidth pop add} {pop} ifelse} forall} bind def
/MCshow { currentpoint stroke M
  exch dup MFwidth -2 div 3 -1 roll R MFshow } def
%
end
%%EndProlog
bkdict begin
0.1 0.1 scale
%
% Model curves:
%

GSN 753 3354 M
770 3354 L
803 3384 L
837 3417 L
870 3452 L
903 3490 L
924 3529 L
941 3541 L
970 3571 L
1003 3614 L
1037 3658 L
1070 3702 L
1096 3747 L
1113 3773 L
1137 3790 L
1170 3833 L
1203 3873 L
1237 3911 L
1268 3945 L
1284 3972 L
1303 3975 L
1337 4001 L
1370 4023 L
1403 4041 L
1437 4054 L
1456 4064 L
1473 4065 L
1503 4071 L
1537 4075 L
1570 4078 L
1603 4079 L
1628 4080 L
1644 4080 L
1670 4080 L
1703 4080 L
1737 4080 L
1770 4080 L
1799 4080 L
1816 4080 L
1837 4080 L
1870 4080 L
1903 4081 L
1937 4081 L
1970 4081 L
1987 4081 L
2004 4081 L
2037 4081 L
2070 4081 L
2103 4081 L
2137 4081 L
2159 4081 L
2176 4081 L
2203 4081 L
2237 4081 L
2270 4081 L
2303 4081 L
2331 4081 L
2347 4081 L
2370 4081 L
2403 4081 L
2437 4081 L
2470 4081 L
2503 4081 L
2519 4081 L
2537 4081 L
2570 4082 L
2603 4082 L
2637 4082 L
2670 4082 L
2690 4082 L
2707 4082 L
2737 4082 L
2770 4083 L
2803 4083 L
2837 4083 L
2862 4083 L
2879 4083 L
2903 4084 L
2937 4084 L
2970 4084 L
3003 4084 L
3034 4085 L
3050 4085 L
3070 4085 L
3103 4085 L
3137 4085 L
3170 4085 L
3203 4086 L
3222 4086 L
3239 4086 L
3270 4086 L
3303 4086 L
3337 4086 L
3370 4086 L
3393 4086 L
3410 4086 L
3437 4086 L
3464 4086 L
3481 4086 L
3503 4086 L
3537 4086 L
3565 4086 L
3582 4086 L
3603 4086 L
3637 4086 L
3670 4086 L
3703 4086 L
3737 4086 L
3753 4086 L
3770 4086 L
3803 4086 L
3837 4086 L
3870 4086 L
3903 4086 L
3925 4086 L
3942 4086 L
3970 4086 L
4003 4086 L
4037 4086 L
4070 4086 L
4086 4086 L
LWMC SL dash01 C01 COSGR

GSN 753 2930 M
770 2930 L
803 2985 L
837 3043 L
870 3104 L
903 3169 L
924 3237 L
941 3258 L
970 3307 L
1003 3379 L
1037 3452 L
1070 3524 L
1096 3595 L
1113 3636 L
1137 3663 L
1170 3729 L
1203 3790 L
1237 3845 L
1268 3895 L
1284 3934 L
1303 3938 L
1337 3975 L
1370 4005 L
1403 4028 L
1437 4046 L
1456 4058 L
1473 4060 L
1503 4067 L
1537 4072 L
1570 4075 L
1603 4077 L
1628 4077 L
1644 4078 L
1670 4078 L
1703 4078 L
1737 4078 L
1770 4078 L
1799 4078 L
1816 4078 L
1837 4078 L
1870 4078 L
1903 4078 L
1937 4078 L
1970 4078 L
1987 4078 L
2004 4078 L
2037 4078 L
2070 4078 L
2103 4078 L
2137 4078 L
2159 4078 L
2176 4078 L
2203 4078 L
2237 4078 L
2270 4079 L
2303 4079 L
2331 4079 L
2347 4079 L
2370 4079 L
2403 4079 L
2437 4079 L
2470 4079 L
2503 4079 L
2519 4079 L
2537 4079 L
2570 4080 L
2603 4080 L
2637 4080 L
2670 4080 L
2690 4081 L
2707 4081 L
2737 4081 L
2770 4081 L
2803 4082 L
2837 4082 L
2862 4082 L
2879 4082 L
2903 4083 L
2937 4083 L
2970 4083 L
3003 4084 L
3034 4084 L
3050 4084 L
3070 4084 L
3103 4085 L
3137 4085 L
3170 4085 L
3203 4085 L
3222 4086 L
3239 4086 L
3270 4086 L
3303 4086 L
3337 4086 L
3370 4086 L
3393 4086 L
3410 4086 L
3437 4086 L
3464 4086 L
3481 4086 L
3503 4086 L
3537 4086 L
3565 4086 L
3582 4086 L
3603 4086 L
3637 4086 L
3670 4086 L
3703 4086 L
3737 4086 L
3753 4086 L
3770 4086 L
3803 4086 L
3837 4086 L
3870 4086 L
3903 4086 L
3925 4086 L
3942 4086 L
3970 4086 L
4003 4086 L
4037 4086 L
4070 4086 L
4086 4086 L
LWMC SL dash02 C02 COSGR

GSN 753 2446 M
770 2446 L
803 2535 L
837 2629 L
870 2728 L
903 2831 L
924 2937 L
941 2969 L
970 3045 L
1003 3154 L
1037 3262 L
1070 3367 L
1096 3469 L
1113 3527 L
1137 3565 L
1170 3655 L
1203 3737 L
1237 3809 L
1268 3873 L
1284 3920 L
1303 3926 L
1337 3969 L
1370 4003 L
1403 4029 L
1437 4047 L
1456 4059 L
1473 4061 L
1503 4067 L
1537 4072 L
1570 4074 L
1603 4075 L
1628 4076 L
1644 4076 L
1670 4076 L
1703 4076 L
1737 4076 L
1770 4076 L
1799 4076 L
1816 4076 L
1837 4076 L
1870 4076 L
1903 4076 L
1937 4076 L
1970 4076 L
1987 4076 L
2004 4076 L
2037 4076 L
2070 4076 L
2103 4076 L
2137 4076 L
2159 4076 L
2176 4076 L
2203 4076 L
2237 4076 L
2270 4077 L
2303 4077 L
2331 4077 L
2347 4077 L
2370 4077 L
2403 4077 L
2437 4077 L
2470 4077 L
2503 4078 L
2519 4078 L
2537 4078 L
2570 4078 L
2603 4078 L
2637 4079 L
2670 4079 L
2690 4079 L
2707 4080 L
2737 4080 L
2770 4080 L
2803 4081 L
2837 4081 L
2862 4082 L
2879 4082 L
2903 4082 L
2937 4083 L
2970 4083 L
3003 4084 L
3034 4084 L
3050 4084 L
3070 4084 L
3103 4085 L
3137 4085 L
3170 4085 L
3203 4086 L
3222 4086 L
3239 4086 L
3270 4086 L
3303 4086 L
3337 4086 L
3370 4086 L
3393 4086 L
3410 4086 L
3437 4086 L
3464 4086 L
3481 4086 L
3503 4086 L
3537 4086 L
3565 4086 L
3582 4086 L
3603 4086 L
3637 4086 L
3670 4086 L
3703 4086 L
3737 4086 L
3753 4086 L
3770 4086 L
3803 4086 L
3837 4086 L
3870 4086 L
3903 4086 L
3925 4086 L
3942 4086 L
3970 4086 L
4003 4086 L
4037 4086 L
4070 4086 L
4086 4086 L
LWMC SL dash03 C03 COSGR

GSN 753 2019 M
770 2019 L
803 2147 L
837 2282 L
870 2422 L
903 2566 L
924 2712 L
941 2755 L
970 2858 L
1003 3003 L
1037 3145 L
1070 3281 L
1096 3410 L
1113 3481 L
1137 3529 L
1170 3637 L
1203 3733 L
1237 3816 L
1268 3885 L
1284 3935 L
1303 3941 L
1337 3985 L
1370 4017 L
1403 4040 L
1437 4055 L
1456 4064 L
1473 4065 L
1503 4070 L
1537 4072 L
1570 4074 L
1603 4074 L
1628 4074 L
1644 4074 L
1670 4074 L
1703 4074 L
1737 4074 L
1770 4074 L
1799 4074 L
1816 4074 L
1837 4074 L
1870 4074 L
1903 4075 L
1937 4075 L
1970 4075 L
1987 4075 L
2004 4075 L
2037 4075 L
2070 4075 L
2103 4075 L
2137 4075 L
2159 4075 L
2176 4075 L
2203 4075 L
2237 4075 L
2270 4075 L
2303 4075 L
2331 4076 L
2347 4076 L
2370 4076 L
2403 4076 L
2437 4076 L
2470 4076 L
2503 4077 L
2519 4077 L
2537 4077 L
2570 4077 L
2603 4078 L
2637 4078 L
2670 4078 L
2690 4079 L
2707 4079 L
2737 4079 L
2770 4080 L
2803 4080 L
2837 4081 L
2862 4081 L
2879 4082 L
2903 4082 L
2937 4083 L
2970 4083 L
3003 4084 L
3034 4084 L
3050 4085 L
3070 4085 L
3103 4085 L
3137 4085 L
3170 4086 L
3203 4086 L
3222 4086 L
3239 4086 L
3270 4086 L
3303 4086 L
3337 4086 L
3370 4086 L
3393 4086 L
3410 4086 L
3437 4086 L
3464 4086 L
3481 4086 L
3503 4086 L
3537 4086 L
3565 4086 L
3582 4086 L
3603 4086 L
3637 4086 L
3670 4086 L
3703 4086 L
3737 4086 L
3753 4086 L
3770 4086 L
3803 4086 L
3837 4086 L
3870 4086 L
3903 4086 L
3925 4086 L
3942 4086 L
3970 4086 L
4003 4086 L
4037 4086 L
4070 4086 L
4086 4086 L
LWMC SL dash04 C04 COSGR

GSN 753 1658 M
770 1658 L
803 1829 L
837 2007 L
870 2189 L
903 2374 L
924 2559 L
941 2614 L
970 2743 L
1003 2922 L
1037 3094 L
1070 3256 L
1096 3406 L
1113 3487 L
1137 3541 L
1170 3660 L
1203 3763 L
1237 3848 L
1268 3917 L
1284 3964 L
1303 3969 L
1337 4008 L
1370 4035 L
1403 4052 L
1437 4063 L
1456 4068 L
1473 4069 L
1503 4071 L
1537 4073 L
1570 4073 L
1603 4073 L
1628 4074 L
1644 4074 L
1670 4074 L
1703 4074 L
1737 4074 L
1770 4074 L
1799 4074 L
1816 4074 L
1837 4074 L
1870 4074 L
1903 4074 L
1937 4074 L
1970 4074 L
1987 4074 L
2004 4074 L
2037 4074 L
2070 4074 L
2103 4074 L
2137 4074 L
2159 4074 L
2176 4074 L
2203 4074 L
2237 4074 L
2270 4075 L
2303 4075 L
2331 4075 L
2347 4075 L
2370 4075 L
2403 4075 L
2437 4076 L
2470 4076 L
2503 4076 L
2519 4076 L
2537 4076 L
2570 4077 L
2603 4077 L
2637 4078 L
2670 4078 L
2690 4079 L
2707 4079 L
2737 4079 L
2770 4080 L
2803 4080 L
2837 4081 L
2862 4081 L
2879 4082 L
2903 4082 L
2937 4083 L
2970 4083 L
3003 4084 L
3034 4084 L
3050 4085 L
3070 4085 L
3103 4085 L
3137 4086 L
3170 4086 L
3203 4086 L
3222 4086 L
3239 4086 L
3270 4086 L
3303 4086 L
3337 4086 L
3370 4086 L
3393 4086 L
3410 4086 L
3437 4086 L
3464 4086 L
3481 4086 L
3503 4086 L
3537 4086 L
3565 4086 L
3582 4086 L
3603 4086 L
3637 4086 L
3670 4086 L
3703 4086 L
3737 4086 L
3753 4086 L
3770 4086 L
3803 4086 L
3837 4086 L
3870 4086 L
3903 4086 L
3925 4086 L
3942 4086 L
3970 4086 L
4003 4086 L
4037 4086 L
4070 4086 L
4086 4086 L
LWMC SL dash05 C05 COSGR

GSN 753 1248 M
770 1248 L
803 1477 L
837 1712 L
870 1949 L
903 2188 L
924 2423 L
941 2491 L
970 2652 L
1003 2870 L
1037 3075 L
1070 3264 L
1096 3433 L
1113 3524 L
1137 3582 L
1170 3708 L
1203 3812 L
1237 3894 L
1268 3956 L
1284 3997 L
1303 4001 L
1337 4031 L
1370 4051 L
1403 4062 L
1437 4068 L
1456 4071 L
1473 4071 L
1503 4072 L
1537 4072 L
1570 4073 L
1603 4073 L
1628 4073 L
1644 4073 L
1670 4073 L
1703 4073 L
1737 4073 L
1770 4073 L
1799 4073 L
1816 4073 L
1837 4073 L
1870 4073 L
1903 4073 L
1937 4073 L
1970 4073 L
1987 4073 L
2004 4073 L
2037 4073 L
2070 4073 L
2103 4073 L
2137 4073 L
2159 4073 L
2176 4073 L
2203 4074 L
2237 4074 L
2270 4074 L
2303 4074 L
2331 4074 L
2347 4074 L
2370 4074 L
2403 4075 L
2437 4075 L
2470 4075 L
2503 4076 L
2519 4076 L
2537 4076 L
2570 4076 L
2603 4077 L
2637 4077 L
2670 4078 L
2690 4078 L
2707 4078 L
2737 4079 L
2770 4080 L
2803 4080 L
2837 4081 L
2862 4081 L
2879 4082 L
2903 4082 L
2937 4083 L
2970 4083 L
3003 4084 L
3034 4084 L
3050 4085 L
3070 4085 L
3103 4085 L
3137 4086 L
3170 4086 L
3203 4086 L
3222 4086 L
3239 4086 L
3270 4086 L
3303 4086 L
3337 4086 L
3370 4086 L
3393 4086 L
3410 4086 L
3437 4086 L
3464 4086 L
3481 4086 L
3503 4086 L
3537 4086 L
3565 4086 L
3582 4086 L
3603 4086 L
3637 4086 L
3670 4086 L
3703 4086 L
3737 4086 L
3753 4086 L
3770 4086 L
3803 4086 L
3837 4086 L
3870 4086 L
3903 4086 L
3925 4086 L
3942 4086 L
3970 4086 L
4003 4086 L
4037 4086 L
4070 4086 L
4086 4086 L
LWMC SL dash06 C06 COSGR

GSN 753 753 M
770 753 L
803 1094 L
837 1436 L
870 1774 L
903 2102 L
924 2415 L
941 2503 L
970 2708 L
1003 2976 L
1037 3215 L
1070 3423 L
1096 3598 L
1113 3685 L
1137 3739 L
1170 3849 L
1203 3931 L
1237 3988 L
1268 4025 L
1284 4046 L
1303 4048 L
1337 4061 L
1370 4067 L
1403 4070 L
1437 4071 L
1456 4072 L
1473 4072 L
1503 4072 L
1537 4072 L
1570 4072 L
1603 4072 L
1628 4072 L
1644 4072 L
1670 4072 L
1703 4072 L
1737 4072 L
1770 4072 L
1799 4072 L
1816 4072 L
1837 4072 L
1870 4072 L
1903 4072 L
1937 4072 L
1970 4072 L
1987 4072 L
2004 4072 L
2037 4072 L
2070 4073 L
2103 4073 L
2137 4073 L
2159 4073 L
2176 4073 L
2203 4073 L
2237 4073 L
2270 4073 L
2303 4074 L
2331 4074 L
2347 4074 L
2370 4074 L
2403 4074 L
2437 4075 L
2470 4075 L
2503 4075 L
2519 4076 L
2537 4076 L
2570 4076 L
2603 4077 L
2637 4077 L
2670 4078 L
2690 4078 L
2707 4078 L
2737 4079 L
2770 4080 L
2803 4080 L
2837 4081 L
2862 4082 L
2879 4082 L
2903 4082 L
2937 4083 L
2970 4084 L
3003 4084 L
3034 4085 L
3050 4085 L
3070 4085 L
3103 4085 L
3137 4086 L
3170 4086 L
3203 4086 L
3222 4086 L
3239 4086 L
3270 4086 L
3303 4086 L
3337 4086 L
3370 4086 L
3393 4086 L
3410 4086 L
3437 4086 L
3464 4086 L
3481 4086 L
3503 4086 L
3537 4086 L
3565 4086 L
3582 4086 L
3603 4086 L
3637 4086 L
3670 4086 L
3703 4086 L
3737 4086 L
3753 4086 L
3770 4086 L
3803 4086 L
3837 4086 L
3870 4086 L
3903 4086 L
3925 4086 L
3942 4086 L
3970 4086 L
4003 4086 L
4037 4086 L
4070 4086 L
4086 4086 L
LWMC SL dash07 C07 COSGR

%
%================
% Legend - Begin
%================
%
GSN 4240 4040 M
4480 4040 L
LWMC SL dash01 C01 COSGR
GSN 4540 4001 M helvM (0.5 uM) show grestore
GSN 4240 3860 M
4480 3860 L
LWMC SL dash02 C02 COSGR
GSN 4540 3821 M helvM (1.0 uM) show grestore
GSN 4240 3680 M
4480 3680 L
LWMC SL dash03 C03 COSGR
GSN 4540 3641 M helvM (1.5 uM) show grestore
GSN 4240 3500 M
4480 3500 L
LWMC SL dash04 C04 COSGR
GSN 4540 3461 M helvM (2.0 uM) show grestore
GSN 4240 3320 M
4480 3320 L
LWMC SL dash05 C05 COSGR
GSN 4540 3281 M helvM (2.5 uM) show grestore
GSN 4240 3140 M
4480 3140 L
LWMC SL dash06 C06 COSGR
GSN 4540 3101 M helvM (3.0 uM) show grestore
GSN 4240 2960 M
4480 2960 L
LWMC SL dash07 C07 COSGR
GSN 4540 2921 M helvM (4.0 uM) show grestore
%
%================
% Legend - End
%================
%

%
% Main frame
%
L10
GSN 
620 620 M
4220 620 L
4220 4220 L
620 4220 L
closepath SGR

%
% X axis: large tics
%
L10
GSN 1130 620 M 0  54 rL SGR
GSN 1130 4220 M 0 -54 rL SGR
helvS (0.0001) 1130 470 xlabel
GSN 1716 620 M 0  54 rL SGR
GSN 1716 4220 M 0 -54 rL SGR
helvS (0.001) 1716 470 xlabel
GSN 2303 620 M 0  54 rL SGR
GSN 2303 4220 M 0 -54 rL SGR
helvS (0.01) 2303 470 xlabel
GSN 2889 620 M 0  54 rL SGR
GSN 2889 4220 M 0 -54 rL SGR
helvS (0.1) 2889 470 xlabel
GSN 3476 620 M 0  54 rL SGR
GSN 3476 4220 M 0 -54 rL SGR
helvS (1) 3476 470 xlabel
GSN 4062 620 M 0  54 rL SGR
GSN 4062 4220 M 0 -54 rL SGR
helvS (10) 4062 470 xlabel
%
% X axis: small tics
%
L5
GSN 720 620 M 0  36 rL SGR
GSN 720 4220 M 0 -36 rL SGR
GSN 824 620 M 0  36 rL SGR
GSN 824 4220 M 0 -36 rL SGR
GSN 897 620 M 0  36 rL SGR
GSN 897 4220 M 0 -36 rL SGR
GSN 954 620 M 0  36 rL SGR
GSN 954 4220 M 0 -36 rL SGR
GSN 1000 620 M 0  36 rL SGR
GSN 1000 4220 M 0 -36 rL SGR
GSN 1039 620 M 0  36 rL SGR
GSN 1039 4220 M 0 -36 rL SGR
GSN 1073 620 M 0  36 rL SGR
GSN 1073 4220 M 0 -36 rL SGR
GSN 1103 620 M 0  36 rL SGR
GSN 1103 4220 M 0 -36 rL SGR
GSN 1307 620 M 0  36 rL SGR
GSN 1307 4220 M 0 -36 rL SGR
GSN 1410 620 M 0  36 rL SGR
GSN 1410 4220 M 0 -36 rL SGR
GSN 1483 620 M 0  36 rL SGR
GSN 1483 4220 M 0 -36 rL SGR
GSN 1540 620 M 0  36 rL SGR
GSN 1540 4220 M 0 -36 rL SGR
GSN 1586 620 M 0  36 rL SGR
GSN 1586 4220 M 0 -36 rL SGR
GSN 1626 620 M 0  36 rL SGR
GSN 1626 4220 M 0 -36 rL SGR
GSN 1660 620 M 0  36 rL SGR
GSN 1660 4220 M 0 -36 rL SGR
GSN 1690 620 M 0  36 rL SGR
GSN 1690 4220 M 0 -36 rL SGR
GSN 1893 620 M 0  36 rL SGR
GSN 1893 4220 M 0 -36 rL SGR
GSN 1996 620 M 0  36 rL SGR
GSN 1996 4220 M 0 -36 rL SGR
GSN 2069 620 M 0  36 rL SGR
GSN 2069 4220 M 0 -36 rL SGR
GSN 2126 620 M 0  36 rL SGR
GSN 2126 4220 M 0 -36 rL SGR
GSN 2173 620 M 0  36 rL SGR
GSN 2173 4220 M 0 -36 rL SGR
GSN 2212 620 M 0  36 rL SGR
GSN 2212 4220 M 0 -36 rL SGR
GSN 2246 620 M 0  36 rL SGR
GSN 2246 4220 M 0 -36 rL SGR
GSN 2276 620 M 0  36 rL SGR
GSN 2276 4220 M 0 -36 rL SGR
GSN 2479 620 M 0  36 rL SGR
GSN 2479 4220 M 0 -36 rL SGR
GSN 2583 620 M 0  36 rL SGR
GSN 2583 4220 M 0 -36 rL SGR
GSN 2656 620 M 0  36 rL SGR
GSN 2656 4220 M 0 -36 rL SGR
GSN 2713 620 M 0  36 rL SGR
GSN 2713 4220 M 0 -36 rL SGR
GSN 2759 620 M 0  36 rL SGR
GSN 2759 4220 M 0 -36 rL SGR
GSN 2798 620 M 0  36 rL SGR
GSN 2798 4220 M 0 -36 rL SGR
GSN 2832 620 M 0  36 rL SGR
GSN 2832 4220 M 0 -36 rL SGR
GSN 2862 620 M 0  36 rL SGR
GSN 2862 4220 M 0 -36 rL SGR
GSN 3066 620 M 0  36 rL SGR
GSN 3066 4220 M 0 -36 rL SGR
GSN 3169 620 M 0  36 rL SGR
GSN 3169 4220 M 0 -36 rL SGR
GSN 3242 620 M 0  36 rL SGR
GSN 3242 4220 M 0 -36 rL SGR
GSN 3299 620 M 0  36 rL SGR
GSN 3299 4220 M 0 -36 rL SGR
GSN 3345 620 M 0  36 rL SGR
GSN 3345 4220 M 0 -36 rL SGR
GSN 3385 620 M 0  36 rL SGR
GSN 3385 4220 M 0 -36 rL SGR
GSN 3419 620 M 0  36 rL SGR
GSN 3419 4220 M 0 -36 rL SGR
GSN 3449 620 M 0  36 rL SGR
GSN 3449 4220 M 0 -36 rL SGR
GSN 3652 620 M 0  36 rL SGR
GSN 3652 4220 M 0 -36 rL SGR
GSN 3755 620 M 0  36 rL SGR
GSN 3755 4220 M 0 -36 rL SGR
GSN 3829 620 M 0  36 rL SGR
GSN 3829 4220 M 0 -36 rL SGR
GSN 3885 620 M 0  36 rL SGR
GSN 3885 4220 M 0 -36 rL SGR
GSN 3932 620 M 0  36 rL SGR
GSN 3932 4220 M 0 -36 rL SGR
GSN 3971 620 M 0  36 rL SGR
GSN 3971 4220 M 0 -36 rL SGR
GSN 4005 620 M 0  36 rL SGR
GSN 4005 4220 M 0 -36 rL SGR
GSN 4035 620 M 0  36 rL SGR
GSN 4035 4220 M 0 -36 rL SGR
%
% Y axis: large tics
%
L10
GSN 620 1222 M 54 0 rL SGR
GSN 4220 1222 M -54 0 rL SGR
helvS (-200) 560 1222 ylabel
GSN 620 2654 M 54 0 rL SGR
GSN 4220 2654 M -54 0 rL SGR
helvS (-100) 560 2654 ylabel
GSN 620 4086 M 54 0 rL SGR
GSN 4220 4086 M -54 0 rL SGR
helvS (0) 560 4086 ylabel
%
% Y axis: small tics
%
L5
GSN 620 864 M 36 0 rL SGR
GSN 4220 864 M -36 0 rL SGR
GSN 620 1222 M 36 0 rL SGR
GSN 4220 1222 M -36 0 rL SGR
GSN 620 1580 M 36 0 rL SGR
GSN 4220 1580 M -36 0 rL SGR
GSN 620 1938 M 36 0 rL SGR
GSN 4220 1938 M -36 0 rL SGR
GSN 620 2296 M 36 0 rL SGR
GSN 4220 2296 M -36 0 rL SGR
GSN 620 2654 M 36 0 rL SGR
GSN 4220 2654 M -36 0 rL SGR
GSN 620 3012 M 36 0 rL SGR
GSN 4220 3012 M -36 0 rL SGR
GSN 620 3370 M 36 0 rL SGR
GSN 4220 3370 M -36 0 rL SGR
GSN 620 3728 M 36 0 rL SGR
GSN 4220 3728 M -36 0 rL SGR
GSN 620 4086 M 36 0 rL SGR
GSN 4220 4086 M -36 0 rL SGR

%
% X axis
%
GSN L5 620 4086 M 4220 4086 L SDA G50 SGR

%
% X-Axis label:
%
gsave 2420 290 M 
[
[(Helvetica) 180 0 true true 0 (t)]
[(Helvetica) 180 0 true true 0 (i)]
[(Helvetica) 180 0 true true 0 (m)]
[(Helvetica) 180 0 true true 0 (e)]
] 0 MCshow grestore

%
% Y-Axis label:
%
gsave 234 2420 M 
currentpoint gsave translate 90 rotate 0 0 moveto
[
[(Helvetica) 180 0 true true 0 (d)]
[(Helvetica) 180 0 true true 0 (\()]
[(Helvetica) 180 0 true true 0 (s)]
[(Helvetica) 180 0 true true 0 (i)]
[(Helvetica) 180 0 true true 0 (g)]
[(Helvetica) 180 0 true true 0 (n)]
[(Helvetica) 180 0 true true 0 (a)]
[(Helvetica) 180 0 true true 0 (l)]
[(Helvetica) 180 0 true true 0 (\))]
[(Helvetica) 180 0 true true 0 ( )]
[(Helvetica) 180 0 true true 0 (/)]
[(Helvetica) 180 0 true true 0 ( )]
[(Helvetica) 180 0 true true 0 (d)]
[(Helvetica) 180 0 true true 0 (t)]
] 0 MCshow grestore

end
showpage
%%Trailer
%%EOF
