%!PS-Adobe-3.0 EPSF-3.0
%%BoundingBox: 0 0 514 550
%%Creator: BioKin Ltd.
%%DocumentFonts: Symbol Helvetica
%%EndComments
%
/bkdict 256 dict def
bkdict begin
/M {moveto} def 
/R {rmoveto} def
/L {lineto} def
/rL {rlineto} def
/GSN {gsave newpath} def
/SGR {stroke grestore} def
/COSGR {gsave setrgbcolor stroke grestore grestore} def
/SL {setlinewidth} def
/LWMB {12} def             % line width - model curves, black & white
/LWMC {10} def             % line width - model curves, color
/L2 {2.5 setlinewidth} def
/L5 {5 setlinewidth} def
/L10 {10 setlinewidth} def
/G50 {0.5 setgray} def
/SDA {[10  20] 0 setdash} def % axes
/helvT {/Helvetica findfont 100 scalefont setfont} def % tiny
/helvS {/Helvetica findfont 125 scalefont setfont} def % small
/helvM {/Helvetica findfont 150 scalefont setfont} def % medium
/helvL {/Helvetica findfont 175 scalefont setfont} def % large
/xlabel {gsave M dup
   stringwidth exch -0.5 mul exch rmoveto show grestore} def 
/ylabel {gsave M 90 rotate dup
   stringwidth exch -0.5 mul exch rmoveto show grestore} def
/ylabelresid {gsave M dup
   stringwidth exch -1 mul exch rmoveto show grestore} def
% ======
% Shapes
% ======
% Circle:
/Circ {0 360 arc closepath} def
%
% Square:
/Squa {dup dup -0.5 mul dup dup R -2 mul 0 exch rL 1 mul 0 rL dup 0 exch -1 mul rL closepath} def
%
% Triangle Up:
/TriU {dup dup dup -0.4 mul exch -0.5 mul exch R dup 0.5 mul exch rL dup -1 mul exch 0.5 mul exch rL closepath} def 
%
% Triangle Down:
/TriD {dup dup dup 0.4 mul exch -0.5 mul exch R dup 0.5 mul exch -1 mul rL dup 0.5 mul exch rL closepath} def 
%
% Diamond:
/Diam {45 rotate Squa} def
% ======
% Fills
% ======
/GRF {gsave setgray fill grestore} def                    % gray-level Fill
/COF {gsave setrgbcolor fill grestore} def                % color fill
% ======
% Colors
% ======
/C01 {1.00	0.00	0.00} def      % Red
/C02 {0.00	0.00	1.00} def      % Blue
/C03 {0.00	0.39	0.00} def      % Dark Green
/C04 {0.78	0.08	0.52} def      % Medium Violet Red
/C05 {0.55	0.27	0.07} def      % Saddle Brown
/C06 {0.10	0.70	0.70} def      % (cyan)
/C07 {1.00	0.55	0.00} def      % Dark Orange
/C08 {0.63	0.13	0.94} def      % Purple
/C09 {0.00	0.75	1.00} def      % Deep Sky Blue
/C10 {0.20	0.80	0.20} def      % Lime Green
/C11 {0.47	0.53	0.60} def      % Light Slate Gray
/C12 {0.00	0.00	0.00} def      % Black            % or: {0.19	0.31	0.31} def      % Dark Slate Gray
%
/LGR {0.75} def % light gray
/DGR {0.33} def % dark gray
%
% =============
% Dash patterns
% =============
/dash01 { [80  20] 0 setdash } def
/dash02 { [40  20] 0 setdash } def
/dash03 { [80  20  10  20] 0 setdash } def
/dash04 { [40  20  10  20] 0 setdash } def
/dash05 { [80  20  10  10  10  20] 0 setdash } def
/dash06 { [40  20  10  10  10  20] 0 setdash } def
/dash07 { [10  10] 0 setdash } def
%
/MFshow {
   { dup 5 get 3 ge
     { 5 get 3 eq {gsave} {grestore} ifelse }
     {dup dup 0 get findfont exch 1 get scalefont setfont
     [ currentpoint ] exch dup 2 get 0 exch R dup 5 get 2 ne {dup dup 6
     get exch 4 get {show} {stringwidth pop 0 R} ifelse }if dup 5 get 0 eq
     {dup 3 get {2 get neg 0 exch R pop} {pop aload pop M} ifelse} {dup 5
     get 1 eq {dup 2 get exch dup 3 get exch 6 get stringwidth pop -2 div
     dup 0 R} {dup 6 get stringwidth pop -2 div 0 R 6 get
     show 2 index {aload pop M neg 3 -1 roll neg R pop pop} {pop pop pop
     pop aload pop M} ifelse }ifelse }ifelse }
     ifelse }
   forall} bind def
/MFwidth {0 exch {dup 3 get{dup dup 0 get findfont exch 1 get scalefont
     setfont 6 get stringwidth pop add} {pop} ifelse} forall} bind def
/MCshow { currentpoint stroke M
  exch dup MFwidth -2 div 3 -1 roll R MFshow } def
%
end
%%EndProlog
bkdict begin
0.1 0.1 scale
%
% Model curves:
%

GSN 753 5163 M
753 5163 L
786 5163 L
820 5163 L
853 5163 L
886 5163 L
903 5164 L
919 5164 L
953 5164 L
986 5164 L
1020 5164 L
1053 5165 L
1053 5165 L
1086 5165 L
1120 5165 L
1153 5165 L
1186 5166 L
1203 5166 L
1220 5166 L
1253 5166 L
1286 5166 L
1320 5166 L
1353 5166 L
1353 5166 L
1386 5165 L
1420 5164 L
1453 5162 L
1486 5160 L
1503 5159 L
1520 5157 L
1553 5153 L
1586 5148 L
1620 5141 L
1653 5133 L
1653 5133 L
1686 5123 L
1720 5112 L
1753 5098 L
1786 5082 L
1804 5073 L
1820 5064 L
1853 5042 L
1886 5018 L
1920 4990 L
1953 4958 L
1954 4957 L
1986 4921 L
2020 4880 L
2053 4834 L
2086 4781 L
2104 4751 L
2120 4723 L
2153 4657 L
2186 4586 L
2220 4507 L
2253 4421 L
2254 4418 L
2286 4328 L
2320 4230 L
2353 4125 L
2386 4016 L
2404 3956 L
2420 3903 L
2453 3788 L
2486 3671 L
2520 3555 L
2553 3440 L
2554 3435 L
2586 3328 L
2620 3220 L
2653 3118 L
2686 3022 L
2704 2973 L
2720 2933 L
2753 2851 L
2786 2777 L
2820 2710 L
2853 2652 L
2854 2649 L
2886 2600 L
2920 2557 L
2953 2520 L
2986 2489 L
3004 2475 L
3020 2465 L
3053 2446 L
3068 2439 L
3086 2432 L
3120 2422 L
3153 2415 L
3155 2415 L
3186 2411 L
3220 2409 L
3253 2408 L
3286 2407 L
3305 2407 L
3320 2407 L
3353 2407 L
3386 2407 L
3420 2407 L
3453 2407 L
3455 2407 L
3486 2407 L
3520 2407 L
3553 2407 L
3586 2407 L
3605 2407 L
3620 2407 L
3653 2407 L
3686 2407 L
3720 2407 L
3753 2407 L
3755 2407 L
3786 2407 L
3820 2407 L
3853 2407 L
3886 2407 L
3905 2407 L
3920 2407 L
3953 2407 L
3986 2407 L
4020 2407 L
4053 2407 L
4086 2407 L
LWMC SL  C02 COSGR

%
% Experimental data:
%
GSN 773 4759 M
1625 4452 L
1773 4950 L
1860 4693 L
1922 5034 L
1970 4766 L
2009 4835 L
2043 4813 L
2072 4635 L
2097 4485 L
2120 4667 L
2140 4562 L
2159 4803 L
2176 4497 L
2192 4575 L
2207 4530 L
2221 4534 L
2234 4437 L
2247 4349 L
2259 4354 L
2270 4169 L
2280 4208 L
2290 4407 L
2300 4229 L
2309 4120 L
2318 4414 L
2326 4240 L
2335 4261 L
2342 4178 L
2350 4272 L
2357 4169 L
2364 3922 L
2371 4201 L
2378 3892 L
2384 4251 L
2391 4240 L
2397 3853 L
2403 4220 L
2409 3662 L
2414 4227 L
2420 3993 L
2425 4124 L
2430 3826 L
2435 4081 L
2440 4032 L
2445 3836 L
2450 3802 L
2455 3845 L
2459 3995 L
2464 3877 L
2468 3825 L
2472 3967 L
2476 3778 L
2481 3753 L
2485 3766 L
2489 3787 L
2492 3664 L
2496 3871 L
2500 3783 L
2504 3594 L
2507 3568 L
2511 3916 L
2514 3475 L
2518 3826 L
2521 3480 L
2525 3729 L
2528 3330 L
2531 3553 L
2534 3287 L
2538 3544 L
2541 3566 L
2544 3402 L
2547 3372 L
2550 3600 L
2553 3212 L
2556 3186 L
2559 3585 L
2561 3212 L
2564 3212 L
2567 3355 L
2570 3589 L
2580 3108 L
2590 3072 L
2600 3231 L
2609 3201 L
2618 3136 L
2627 3222 L
2635 3134 L
2643 2898 L
2650 2819 L
2658 2722 L
2665 2840 L
2672 2877 L
2678 2911 L
2685 2525 L
2691 2627 L
2697 2894 L
2703 2774 L
2709 2451 L
2714 2924 L
2720 2827 L
2725 2702 L
2730 2711 L
2735 2619 L
2740 2664 L
2745 2464 L
2750 2241 L
2755 2432 L
2759 2340 L
2764 2587 L
2768 2572 L
2772 2600 L
2777 2511 L
2781 2318 L
2785 2305 L
2789 2559 L
2793 2170 L
2796 2434 L
2800 2027 L
2804 2490 L
2808 2153 L
2811 2179 L
2815 2263 L
2818 2535 L
2822 2295 L
2825 2597 L
2828 2542 L
2831 2031 L
2835 2318 L
2838 2046 L
2841 2350 L
2844 2248 L
2847 2123 L
2850 1833 L
2853 2370 L
2856 2093 L
2859 2162 L
2862 2361 L
2864 2462 L
2867 2200 L
2870 2207 L
2873 1984 L
2875 2026 L
2878 1992 L
2880 2181 L
2883 2226 L
2886 2338 L
2888 2129 L
2891 2361 L
2893 2204 L
2895 2146 L
2898 2144 L
2900 2059 L
2902 1949 L
2905 2061 L
2907 2099 L
2909 2044 L
2912 1994 L
2914 2142 L
2916 2104 L
2918 2166 L
2920 2323 L
2922 2374 L
2925 2408 L
2927 2138 L
2929 2334 L
2931 2563 L
2933 2190 L
2935 2243 L
2937 2162 L
2939 2462 L
2941 2101 L
2943 2146 L
2945 2323 L
2947 2340 L
2948 2260 L
2950 2070 L
2952 2347 L
2954 2374 L
2956 2217 L
2958 2128 L
2959 2351 L
2961 2327 L
2963 2280 L
2965 2022 L
2966 2349 L
2968 2187 L
2970 2263 L
2972 2099 L
2973 2671 L
2975 2434 L
2977 2087 L
2978 2582 L
2980 2112 L
2982 2355 L
2983 2555 L
2985 2364 L
2986 2430 L
2988 2458 L
2989 2550 L
2991 2437 L
2993 2557 L
2994 2009 L
2996 2172 L
2997 2402 L
2999 2297 L
3000 2314 L
3002 2254 L
3003 2363 L
3005 2265 L
3006 2321 L
3007 2359 L
3009 2540 L
3010 2456 L
3012 2385 L
3013 2501 L
3014 2275 L
3016 2361 L
3017 2228 L
3019 2325 L
3020 2305 L
3021 2557 L
3023 2409 L
3024 2321 L
3025 2327 L
3027 2514 L
3028 2739 L
3029 2381 L
3031 2538 L
3032 2175 L
3033 2355 L
3034 2387 L
3036 2408 L
3037 2346 L
3038 2518 L
3039 2584 L
3041 2436 L
3042 2636 L
3043 2310 L
3044 2065 L
3045 2550 L
3047 2247 L
3048 2647 L
3049 2673 L
3050 2480 L
3051 2028 L
3053 2458 L
3054 2692 L
3055 2505 L
3056 2297 L
3057 2537 L
3058 2591 L
3059 2714 L
3061 2439 L
3062 2449 L
3063 2537 L
3064 2602 L
3065 2503 L
3066 2548 L
3067 2509 L
3068 2539 L
3069 2359 L
3070 2454 L
3071 2634 L
3073 2514 L
3074 2408 L
3075 2516 L
3076 2466 L
3077 2443 L
3078 2391 L
3079 2147 L
3080 2306 L
3081 2533 L
3082 2670 L
3083 2509 L
3084 2559 L
3085 2660 L
3086 2413 L
3087 2610 L
3088 2514 L
3089 2416 L
3112 2678 L
3133 2605 L
3152 3007 L
3170 2723 L
3186 2578 L
3201 2563 L
3216 2456 L
3229 2735 L
3241 2578 L
3253 2822 L
3264 2653 L
3275 2902 L
3285 2882 L
3295 2838 L
3304 3025 L
3313 2860 L
3322 2797 L
3330 2855 L
3338 3000 L
3346 2952 L
3353 2728 L
3360 2992 L
3367 2793 L
3374 2770 L
3380 3027 L
3387 2540 L
3393 2900 L
3399 2765 L
3405 2915 L
3410 2995 L
3416 2605 L
3421 2653 L
3426 2952 L
3431 3020 L
3436 2935 L
3441 2693 L
3446 2443 L
3451 2890 L
3455 2620 L
3460 2568 L
3464 2785 L
3469 2972 L
3473 2558 L
3477 2683 L
3481 2825 L
3485 2698 L
3489 2860 L
3493 2875 L
3496 3082 L
3500 2905 L
3504 3042 L
3507 2638 L
3511 2905 L
3514 2793 L
3518 3032 L
3521 2625 L
3525 2498 L
3528 2456 L
3531 2955 L
3534 2705 L
3537 2997 L
3540 2780 L
3543 2778 L
3546 2808 L
3549 2830 L
3552 2818 L
3555 2590 L
3558 2675 L
3561 2828 L
3564 2835 L
3566 2653 L
3575 2520 L
3586 2665 L
3595 2683 L
3605 2563 L
3613 2565 L
3622 2580 L
3630 2623 L
3638 2818 L
3646 2828 L
3653 2593 L
3660 2725 L
3667 2408 L
3674 2565 L
3681 2541 L
3687 2730 L
3693 2847 L
3699 2391 L
3705 2723 L
3710 2431 L
3716 2431 L
3721 2476 L
3727 2540 L
3732 2471 L
3737 2453 L
3742 2598 L
3746 2508 L
3751 2690 L
3756 2431 L
3760 2433 L
3764 2735 L
3769 2356 L
3773 2710 L
3777 2486 L
3781 2653 L
3785 2553 L
3789 2675 L
3793 2403 L
3797 2558 L
3800 2458 L
3804 2413 L
3808 2501 L
3811 2530 L
3815 2685 L
3818 2146 L
3821 2708 L
3825 2438 L
3828 2383 L
3831 2650 L
3834 2343 L
3838 2453 L
3841 2413 L
3844 2401 L
3847 2403 L
3850 2303 L
3853 2683 L
3855 2291 L
3858 2353 L
3861 2393 L
3864 2278 L
3867 2234 L
3869 2446 L
3872 2600 L
3875 2443 L
3877 2495 L
3880 2558 L
3882 2763 L
3885 2515 L
3887 2638 L
3890 2800 L
3892 2628 L
3895 2403 L
3897 2456 L
3899 2733 L
3902 2471 L
3904 2461 L
3906 2126 L
3908 2698 L
3911 2231 L
3913 2416 L
3915 2528 L
3917 2438 L
3919 2293 L
3921 2411 L
3923 2603 L
3926 2558 L
3928 2663 L
3930 2775 L
3932 2398 L
3934 2845 L
3936 2451 L
3938 2496 L
3940 2308 L
3942 2498 L
3943 2336 L
3945 2583 L
3947 2366 L
3949 2523 L
3951 2408 L
3953 2490 L
3955 2518 L
3956 2333 L
3958 2638 L
3960 2281 L
3962 2603 L
3963 2505 L
3965 2625 L
3967 2396 L
3969 2211 L
3970 2293 L
3972 2276 L
3974 2433 L
3975 2533 L
3977 2433 L
3978 2351 L
3980 2705 L
3982 2296 L
3983 2740 L
3985 2673 L
3986 2044 L
3988 2278 L
3990 2403 L
3991 2720 L
3993 2311 L
3994 2558 L
3996 2535 L
3997 2256 L
3999 2121 L
4000 2363 L
4001 2440 L
4003 2515 L
4004 2536 L
4006 2398 L
4007 2428 L
4009 2588 L
4010 2293 L
4011 2293 L
4013 2560 L
4014 2523 L
4016 2416 L
4017 2293 L
4018 2406 L
4020 2655 L
4021 2221 L
4022 2091 L
4024 2146 L
4025 2535 L
4026 2436 L
4028 2286 L
4029 2668 L
4030 2516 L
4031 2316 L
4033 2233 L
4034 2278 L
4035 2351 L
4036 2396 L
4038 2301 L
4039 2201 L
4040 2581 L
4041 2298 L
4042 2376 L
4044 2695 L
4045 2351 L
4046 2099 L
4047 2478 L
4048 2166 L
4050 2571 L
4051 2501 L
4052 2416 L
4053 2271 L
4054 2640 L
4055 2221 L
4056 2456 L
4058 2358 L
4059 2648 L
4060 2461 L
4061 2373 L
4062 2453 L
4063 2491 L
4064 2610 L
4065 2411 L
4066 2463 L
L2 C02 COSGR

%
%================
% Legend - Begin
%================
%
GSN 4240 5180 M
4480 5180 L
LWMC SL  C02 COSGR
GSN 4540 5141 M helvM (1.0 uM) show grestore
%
%================
% Legend - End
%================
%

%
% Residuals:
%
GSN 773 979 M
1625 824 L
1773 1124 L
1860 1012 L
1922 1225 L
1970 1105 L
2009 1168 L
2043 1181 L
2072 1107 L
2097 1048 L
2120 1170 L
2140 1134 L
2159 1287 L
2176 1140 L
2192 1202 L
2207 1197 L
2221 1217 L
2234 1182 L
2247 1152 L
2259 1172 L
2270 1087 L
2280 1125 L
2290 1249 L
2300 1167 L
2309 1123 L
2318 1298 L
2326 1217 L
2335 1242 L
2342 1211 L
2350 1275 L
2357 1232 L
2364 1109 L
2371 1274 L
2378 1117 L
2384 1325 L
2391 1330 L
2397 1130 L
2403 1342 L
2409 1048 L
2414 1367 L
2420 1249 L
2425 1331 L
2430 1178 L
2435 1327 L
2440 1310 L
2445 1212 L
2450 1202 L
2455 1235 L
2459 1325 L
2464 1269 L
2468 1249 L
2472 1335 L
2476 1240 L
2481 1234 L
2485 1249 L
2489 1268 L
2492 1208 L
2496 1329 L
2500 1288 L
2504 1192 L
2507 1184 L
2511 1381 L
2514 1147 L
2518 1345 L
2521 1163 L
2525 1305 L
2528 1094 L
2531 1221 L
2534 1082 L
2538 1228 L
2541 1247 L
2544 1162 L
2547 1152 L
2550 1282 L
2553 1076 L
2556 1067 L
2559 1290 L
2561 1092 L
2564 1097 L
2567 1180 L
2570 1313 L
2580 1069 L
2590 1068 L
2600 1172 L
2609 1172 L
2618 1151 L
2627 1213 L
2635 1179 L
2643 1063 L
2650 1033 L
2658 991 L
2665 1067 L
2672 1098 L
2678 1127 L
2685 927 L
2691 991 L
2697 1147 L
2703 1090 L
2709 921 L
2714 1188 L
2720 1143 L
2725 1082 L
2730 1094 L
2735 1051 L
2740 1082 L
2745 979 L
2750 863 L
2755 974 L
2759 929 L
2764 1070 L
2768 1067 L
2772 1087 L
2777 1043 L
2781 943 L
2785 941 L
2789 1084 L
2793 876 L
2796 1024 L
2800 807 L
2804 1063 L
2808 883 L
2811 901 L
2815 951 L
2818 1103 L
2822 975 L
2825 1143 L
2828 1117 L
2831 841 L
2835 1001 L
2838 856 L
2841 1024 L
2844 972 L
2847 906 L
2850 750 L
2853 1046 L
2856 898 L
2859 938 L
2862 1049 L
2864 1106 L
2867 966 L
2870 972 L
2873 853 L
2875 877 L
2878 861 L
2880 967 L
2883 993 L
2886 1056 L
2888 944 L
2891 1073 L
2893 989 L
2895 959 L
2898 959 L
2900 915 L
2902 857 L
2905 919 L
2907 942 L
2909 913 L
2912 887 L
2914 970 L
2916 951 L
2918 986 L
2920 1073 L
2922 1102 L
2925 1122 L
2927 976 L
2929 1085 L
2931 1211 L
2933 1009 L
2935 1038 L
2937 996 L
2939 1161 L
2941 964 L
2943 990 L
2945 1088 L
2947 1099 L
2948 1056 L
2950 953 L
2952 1106 L
2954 1121 L
2956 1036 L
2958 989 L
2959 1112 L
2961 1099 L
2963 1075 L
2965 935 L
2966 1114 L
2968 1026 L
2970 1069 L
2972 980 L
2973 1294 L
2975 1165 L
2977 976 L
2978 1247 L
2980 991 L
2982 1125 L
2983 1235 L
2985 1131 L
2986 1168 L
2988 1184 L
2989 1235 L
2991 1174 L
2993 1240 L
2994 941 L
2996 1031 L
2997 1157 L
2999 1101 L
3000 1110 L
3002 1078 L
3003 1138 L
3005 1086 L
3006 1117 L
3007 1138 L
3009 1237 L
3010 1192 L
3012 1154 L
3013 1218 L
3014 1094 L
3016 1142 L
3017 1070 L
3019 1124 L
3020 1113 L
3021 1251 L
3023 1171 L
3024 1123 L
3025 1127 L
3027 1230 L
3028 1353 L
3029 1158 L
3031 1244 L
3032 1046 L
3033 1145 L
3034 1163 L
3036 1174 L
3037 1141 L
3038 1235 L
3039 1271 L
3041 1191 L
3042 1301 L
3043 1123 L
3044 990 L
3045 1255 L
3047 1090 L
3048 1309 L
3049 1323 L
3050 1218 L
3051 971 L
3053 1207 L
3054 1335 L
3055 1233 L
3056 1120 L
3057 1251 L
3058 1281 L
3059 1348 L
3061 1199 L
3062 1204 L
3063 1252 L
3064 1288 L
3065 1234 L
3066 1259 L
3067 1238 L
3068 1255 L
3069 1157 L
3070 1209 L
3071 1308 L
3073 1242 L
3074 1184 L
3075 1244 L
3076 1216 L
3077 1204 L
3078 1176 L
3079 1043 L
3080 1130 L
3081 1254 L
3082 1329 L
3083 1241 L
3084 1269 L
3085 1325 L
3086 1190 L
3087 1297 L
3088 1246 L
3089 1192 L
3112 1339 L
3133 1302 L
3152 1523 L
3170 1369 L
3186 1291 L
3201 1284 L
3216 1225 L
3229 1378 L
3241 1293 L
3253 1426 L
3264 1334 L
3275 1470 L
3285 1459 L
3295 1435 L
3304 1537 L
3313 1447 L
3322 1413 L
3330 1445 L
3338 1524 L
3346 1498 L
3353 1375 L
3360 1520 L
3367 1411 L
3374 1398 L
3380 1539 L
3387 1273 L
3393 1469 L
3399 1396 L
3405 1477 L
3410 1521 L
3416 1308 L
3421 1334 L
3426 1498 L
3431 1535 L
3436 1488 L
3441 1356 L
3446 1220 L
3451 1464 L
3455 1316 L
3460 1288 L
3464 1406 L
3469 1509 L
3473 1282 L
3477 1351 L
3481 1428 L
3485 1359 L
3489 1447 L
3493 1456 L
3496 1569 L
3500 1472 L
3504 1547 L
3507 1326 L
3511 1472 L
3514 1411 L
3518 1541 L
3521 1319 L
3525 1250 L
3528 1227 L
3531 1499 L
3534 1363 L
3537 1522 L
3540 1404 L
3543 1402 L
3546 1419 L
3549 1431 L
3552 1424 L
3555 1300 L
3558 1346 L
3561 1430 L
3564 1434 L
3566 1334 L
3575 1262 L
3586 1341 L
3595 1351 L
3605 1285 L
3613 1287 L
3622 1295 L
3630 1318 L
3638 1424 L
3646 1430 L
3653 1301 L
3660 1374 L
3667 1201 L
3674 1287 L
3681 1273 L
3687 1376 L
3693 1441 L
3699 1191 L
3705 1372 L
3710 1213 L
3716 1213 L
3721 1237 L
3727 1273 L
3732 1235 L
3737 1225 L
3742 1304 L
3746 1255 L
3751 1355 L
3756 1213 L
3760 1214 L
3764 1379 L
3769 1172 L
3773 1366 L
3777 1243 L
3781 1334 L
3785 1280 L
3789 1346 L
3793 1198 L
3797 1282 L
3800 1228 L
3804 1203 L
3808 1251 L
3811 1267 L
3815 1352 L
3818 1058 L
3821 1364 L
3825 1217 L
3828 1187 L
3831 1333 L
3834 1165 L
3838 1225 L
3841 1203 L
3844 1197 L
3847 1198 L
3850 1143 L
3853 1351 L
3855 1137 L
3858 1171 L
3861 1193 L
3864 1130 L
3867 1105 L
3869 1221 L
3872 1306 L
3875 1220 L
3877 1248 L
3880 1282 L
3882 1394 L
3885 1259 L
3887 1326 L
3890 1415 L
3892 1321 L
3895 1198 L
3897 1227 L
3899 1378 L
3902 1235 L
3904 1229 L
3906 1047 L
3908 1359 L
3911 1104 L
3913 1205 L
3915 1266 L
3917 1217 L
3919 1138 L
3921 1202 L
3923 1307 L
3926 1282 L
3928 1340 L
3930 1401 L
3932 1195 L
3934 1439 L
3936 1224 L
3938 1248 L
3940 1146 L
3942 1250 L
3943 1161 L
3945 1296 L
3947 1178 L
3949 1263 L
3951 1201 L
3953 1246 L
3955 1261 L
3956 1160 L
3958 1326 L
3960 1131 L
3962 1307 L
3963 1254 L
3965 1319 L
3967 1194 L
3969 1093 L
3970 1138 L
3972 1128 L
3974 1214 L
3975 1269 L
3977 1214 L
3978 1169 L
3980 1363 L
3982 1139 L
3983 1382 L
3985 1345 L
3986 1002 L
3988 1130 L
3990 1198 L
3991 1371 L
3993 1148 L
3994 1282 L
3996 1270 L
3997 1118 L
3999 1044 L
4000 1176 L
4001 1218 L
4003 1259 L
4004 1270 L
4006 1195 L
4007 1212 L
4009 1299 L
4010 1138 L
4011 1138 L
4013 1284 L
4014 1263 L
4016 1205 L
4017 1138 L
4018 1199 L
4020 1336 L
4021 1098 L
4022 1028 L
4024 1058 L
4025 1270 L
4026 1216 L
4028 1134 L
4029 1342 L
4030 1259 L
4031 1150 L
4033 1105 L
4034 1130 L
4035 1169 L
4036 1194 L
4038 1142 L
4039 1088 L
4040 1295 L
4041 1141 L
4042 1183 L
4044 1357 L
4045 1169 L
4046 1032 L
4047 1239 L
4048 1068 L
4050 1289 L
4051 1251 L
4052 1205 L
4053 1126 L
4054 1327 L
4055 1098 L
4056 1227 L
4058 1173 L
4059 1331 L
4060 1229 L
4061 1182 L
4062 1225 L
4063 1246 L
4064 1311 L
4065 1202 L
4066 1231 L
L2 C02 COSGR

%
% Main frame
%
L10
GSN 
620 1700 M
4220 1700 L
4220 5300 L
620 5300 L
closepath SGR

%
% X axis: large tics
%
L10
GSN 1074 1700 M 0  54 rL SGR
GSN 1074 5300 M 0 -54 rL SGR
helvS (0.0001) 1074 470 xlabel
GSN 1572 1700 M 0  54 rL SGR
GSN 1572 5300 M 0 -54 rL SGR
helvS (0.001) 1572 470 xlabel
GSN 2071 1700 M 0  54 rL SGR
GSN 2071 5300 M 0 -54 rL SGR
helvS (0.01) 2071 470 xlabel
GSN 2570 1700 M 0  54 rL SGR
GSN 2570 5300 M 0 -54 rL SGR
helvS (0.1) 2570 470 xlabel
GSN 3068 1700 M 0  54 rL SGR
GSN 3068 5300 M 0 -54 rL SGR
helvS (1) 3068 470 xlabel
GSN 3567 1700 M 0  54 rL SGR
GSN 3567 5300 M 0 -54 rL SGR
helvS (10) 3567 470 xlabel
GSN 4066 1700 M 0  54 rL SGR
GSN 4066 5300 M 0 -54 rL SGR
helvS (100) 4066 470 xlabel
%
% X axis: small tics
%
L5
GSN 725 1700 M 0  36 rL SGR
GSN 725 5300 M 0 -36 rL SGR
GSN 813 1700 M 0  36 rL SGR
GSN 813 5300 M 0 -36 rL SGR
GSN 875 1700 M 0  36 rL SGR
GSN 875 5300 M 0 -36 rL SGR
GSN 924 1700 M 0  36 rL SGR
GSN 924 5300 M 0 -36 rL SGR
GSN 963 1700 M 0  36 rL SGR
GSN 963 5300 M 0 -36 rL SGR
GSN 996 1700 M 0  36 rL SGR
GSN 996 5300 M 0 -36 rL SGR
GSN 1025 1700 M 0  36 rL SGR
GSN 1025 5300 M 0 -36 rL SGR
GSN 1051 1700 M 0  36 rL SGR
GSN 1051 5300 M 0 -36 rL SGR
GSN 1224 1700 M 0  36 rL SGR
GSN 1224 5300 M 0 -36 rL SGR
GSN 1312 1700 M 0  36 rL SGR
GSN 1312 5300 M 0 -36 rL SGR
GSN 1374 1700 M 0  36 rL SGR
GSN 1374 5300 M 0 -36 rL SGR
GSN 1422 1700 M 0  36 rL SGR
GSN 1422 5300 M 0 -36 rL SGR
GSN 1462 1700 M 0  36 rL SGR
GSN 1462 5300 M 0 -36 rL SGR
GSN 1495 1700 M 0  36 rL SGR
GSN 1495 5300 M 0 -36 rL SGR
GSN 1524 1700 M 0  36 rL SGR
GSN 1524 5300 M 0 -36 rL SGR
GSN 1550 1700 M 0  36 rL SGR
GSN 1550 5300 M 0 -36 rL SGR
GSN 1722 1700 M 0  36 rL SGR
GSN 1722 5300 M 0 -36 rL SGR
GSN 1810 1700 M 0  36 rL SGR
GSN 1810 5300 M 0 -36 rL SGR
GSN 1873 1700 M 0  36 rL SGR
GSN 1873 5300 M 0 -36 rL SGR
GSN 1921 1700 M 0  36 rL SGR
GSN 1921 5300 M 0 -36 rL SGR
GSN 1960 1700 M 0  36 rL SGR
GSN 1960 5300 M 0 -36 rL SGR
GSN 1994 1700 M 0  36 rL SGR
GSN 1994 5300 M 0 -36 rL SGR
GSN 2023 1700 M 0  36 rL SGR
GSN 2023 5300 M 0 -36 rL SGR
GSN 2048 1700 M 0  36 rL SGR
GSN 2048 5300 M 0 -36 rL SGR
GSN 2221 1700 M 0  36 rL SGR
GSN 2221 5300 M 0 -36 rL SGR
GSN 2309 1700 M 0  36 rL SGR
GSN 2309 5300 M 0 -36 rL SGR
GSN 2371 1700 M 0  36 rL SGR
GSN 2371 5300 M 0 -36 rL SGR
GSN 2420 1700 M 0  36 rL SGR
GSN 2420 5300 M 0 -36 rL SGR
GSN 2459 1700 M 0  36 rL SGR
GSN 2459 5300 M 0 -36 rL SGR
GSN 2492 1700 M 0  36 rL SGR
GSN 2492 5300 M 0 -36 rL SGR
GSN 2521 1700 M 0  36 rL SGR
GSN 2521 5300 M 0 -36 rL SGR
GSN 2547 1700 M 0  36 rL SGR
GSN 2547 5300 M 0 -36 rL SGR
GSN 2720 1700 M 0  36 rL SGR
GSN 2720 5300 M 0 -36 rL SGR
GSN 2808 1700 M 0  36 rL SGR
GSN 2808 5300 M 0 -36 rL SGR
GSN 2870 1700 M 0  36 rL SGR
GSN 2870 5300 M 0 -36 rL SGR
GSN 2918 1700 M 0  36 rL SGR
GSN 2918 5300 M 0 -36 rL SGR
GSN 2958 1700 M 0  36 rL SGR
GSN 2958 5300 M 0 -36 rL SGR
GSN 2991 1700 M 0  36 rL SGR
GSN 2991 5300 M 0 -36 rL SGR
GSN 3020 1700 M 0  36 rL SGR
GSN 3020 5300 M 0 -36 rL SGR
GSN 3045 1700 M 0  36 rL SGR
GSN 3045 5300 M 0 -36 rL SGR
GSN 3218 1700 M 0  36 rL SGR
GSN 3218 5300 M 0 -36 rL SGR
GSN 3306 1700 M 0  36 rL SGR
GSN 3306 5300 M 0 -36 rL SGR
GSN 3368 1700 M 0  36 rL SGR
GSN 3368 5300 M 0 -36 rL SGR
GSN 3417 1700 M 0  36 rL SGR
GSN 3417 5300 M 0 -36 rL SGR
GSN 3456 1700 M 0  36 rL SGR
GSN 3456 5300 M 0 -36 rL SGR
GSN 3490 1700 M 0  36 rL SGR
GSN 3490 5300 M 0 -36 rL SGR
GSN 3519 1700 M 0  36 rL SGR
GSN 3519 5300 M 0 -36 rL SGR
GSN 3544 1700 M 0  36 rL SGR
GSN 3544 5300 M 0 -36 rL SGR
GSN 3717 1700 M 0  36 rL SGR
GSN 3717 5300 M 0 -36 rL SGR
GSN 3805 1700 M 0  36 rL SGR
GSN 3805 5300 M 0 -36 rL SGR
GSN 3867 1700 M 0  36 rL SGR
GSN 3867 5300 M 0 -36 rL SGR
GSN 3915 1700 M 0  36 rL SGR
GSN 3915 5300 M 0 -36 rL SGR
GSN 3955 1700 M 0  36 rL SGR
GSN 3955 5300 M 0 -36 rL SGR
GSN 3988 1700 M 0  36 rL SGR
GSN 3988 5300 M 0 -36 rL SGR
GSN 4017 1700 M 0  36 rL SGR
GSN 4017 5300 M 0 -36 rL SGR
GSN 4043 1700 M 0  36 rL SGR
GSN 4043 5300 M 0 -36 rL SGR
GSN 4216 1700 M 0  36 rL SGR
GSN 4216 5300 M 0 -36 rL SGR
%
% Y axis: large tics
%
L10
GSN 620 2636 M 54 0 rL SGR
GSN 4220 2636 M -54 0 rL SGR
helvS (1.1) 560 2636 ylabel
GSN 620 3618 M 54 0 rL SGR
GSN 4220 3618 M -54 0 rL SGR
helvS (1.12) 560 3618 ylabel
GSN 620 4599 M 54 0 rL SGR
GSN 4220 4599 M -54 0 rL SGR
helvS (1.14) 560 4599 ylabel
%
% Y axis: small tics
%
L5
GSN 620 1900 M 36 0 rL SGR
GSN 4220 1900 M -36 0 rL SGR
GSN 620 2145 M 36 0 rL SGR
GSN 4220 2145 M -36 0 rL SGR
GSN 620 2391 M 36 0 rL SGR
GSN 4220 2391 M -36 0 rL SGR
GSN 620 2636 M 36 0 rL SGR
GSN 4220 2636 M -36 0 rL SGR
GSN 620 2881 M 36 0 rL SGR
GSN 4220 2881 M -36 0 rL SGR
GSN 620 3127 M 36 0 rL SGR
GSN 4220 3127 M -36 0 rL SGR
GSN 620 3372 M 36 0 rL SGR
GSN 4220 3372 M -36 0 rL SGR
GSN 620 3618 M 36 0 rL SGR
GSN 4220 3618 M -36 0 rL SGR
GSN 620 3863 M 36 0 rL SGR
GSN 4220 3863 M -36 0 rL SGR
GSN 620 4108 M 36 0 rL SGR
GSN 4220 4108 M -36 0 rL SGR
GSN 620 4354 M 36 0 rL SGR
GSN 4220 4354 M -36 0 rL SGR
GSN 620 4599 M 36 0 rL SGR
GSN 4220 4599 M -36 0 rL SGR
GSN 620 4844 M 36 0 rL SGR
GSN 4220 4844 M -36 0 rL SGR
GSN 620 5090 M 36 0 rL SGR
GSN 4220 5090 M -36 0 rL SGR

%
% X-Axis label:
%
gsave 2420 290 M 
[
[(Helvetica) 180 0 true true 0 (t)]
[(Helvetica) 180 0 true true 0 (i)]
[(Helvetica) 180 0 true true 0 (m)]
[(Helvetica) 180 0 true true 0 (e)]
] 0 MCshow grestore

%
% Y-Axis label:
%
gsave 234 3500 M 
currentpoint gsave translate 90 rotate 0 0 moveto
[
[(Helvetica) 180 0 true true 0 (s)]
[(Helvetica) 180 0 true true 0 (i)]
[(Helvetica) 180 0 true true 0 (g)]
[(Helvetica) 180 0 true true 0 (n)]
[(Helvetica) 180 0 true true 0 (a)]
[(Helvetica) 180 0 true true 0 (l)]
] 0 MCshow grestore

%
% Residuals:
%
gsave 129 1160 M 
currentpoint gsave translate 90 rotate 0 0 moveto
[
[(Helvetica) 150 0 true true 0 (r)]
[(Helvetica) 150 0 true true 0 (e)]
[(Helvetica) 150 0 true true 0 (s)]
[(Helvetica) 150 0 true true 0 (i)]
[(Helvetica) 150 0 true true 0 (d)]
[(Helvetica) 150 0 true true 0 (u)]
[(Helvetica) 150 0 true true 0 (a)]
[(Helvetica) 150 0 true true 0 (l)]
[(Helvetica) 150 0 true true 0 (s)]
] 0 MCshow grestore

%
% Residual frame
%
L10
GSN 
620 620 M
4220 620 L
4220 1700 L
620 1700 L
closepath SGR
%
% X axis: large tics - residual frame
%
L10
GSN 1074 620 M 0  54 rL SGR
GSN 1074 1700 M 0 -54 rL SGR
GSN 1572 620 M 0  54 rL SGR
GSN 1572 1700 M 0 -54 rL SGR
GSN 2071 620 M 0  54 rL SGR
GSN 2071 1700 M 0 -54 rL SGR
GSN 2570 620 M 0  54 rL SGR
GSN 2570 1700 M 0 -54 rL SGR
GSN 3068 620 M 0  54 rL SGR
GSN 3068 1700 M 0 -54 rL SGR
GSN 3567 620 M 0  54 rL SGR
GSN 3567 1700 M 0 -54 rL SGR
GSN 4066 620 M 0  54 rL SGR
GSN 4066 1700 M 0 -54 rL SGR
%
% X axis: small tics - residual frame
%
L5
GSN 725 620 M 0  36 rL SGR
GSN 725 1700 M 0 -36 rL SGR
GSN 813 620 M 0  36 rL SGR
GSN 813 1700 M 0 -36 rL SGR
GSN 875 620 M 0  36 rL SGR
GSN 875 1700 M 0 -36 rL SGR
GSN 924 620 M 0  36 rL SGR
GSN 924 1700 M 0 -36 rL SGR
GSN 963 620 M 0  36 rL SGR
GSN 963 1700 M 0 -36 rL SGR
GSN 996 620 M 0  36 rL SGR
GSN 996 1700 M 0 -36 rL SGR
GSN 1025 620 M 0  36 rL SGR
GSN 1025 1700 M 0 -36 rL SGR
GSN 1051 620 M 0  36 rL SGR
GSN 1051 1700 M 0 -36 rL SGR
GSN 1224 620 M 0  36 rL SGR
GSN 1224 1700 M 0 -36 rL SGR
GSN 1312 620 M 0  36 rL SGR
GSN 1312 1700 M 0 -36 rL SGR
GSN 1374 620 M 0  36 rL SGR
GSN 1374 1700 M 0 -36 rL SGR
GSN 1422 620 M 0  36 rL SGR
GSN 1422 1700 M 0 -36 rL SGR
GSN 1462 620 M 0  36 rL SGR
GSN 1462 1700 M 0 -36 rL SGR
GSN 1495 620 M 0  36 rL SGR
GSN 1495 1700 M 0 -36 rL SGR
GSN 1524 620 M 0  36 rL SGR
GSN 1524 1700 M 0 -36 rL SGR
GSN 1550 620 M 0  36 rL SGR
GSN 1550 1700 M 0 -36 rL SGR
GSN 1722 620 M 0  36 rL SGR
GSN 1722 1700 M 0 -36 rL SGR
GSN 1810 620 M 0  36 rL SGR
GSN 1810 1700 M 0 -36 rL SGR
GSN 1873 620 M 0  36 rL SGR
GSN 1873 1700 M 0 -36 rL SGR
GSN 1921 620 M 0  36 rL SGR
GSN 1921 1700 M 0 -36 rL SGR
GSN 1960 620 M 0  36 rL SGR
GSN 1960 1700 M 0 -36 rL SGR
GSN 1994 620 M 0  36 rL SGR
GSN 1994 1700 M 0 -36 rL SGR
GSN 2023 620 M 0  36 rL SGR
GSN 2023 1700 M 0 -36 rL SGR
GSN 2048 620 M 0  36 rL SGR
GSN 2048 1700 M 0 -36 rL SGR
GSN 2221 620 M 0  36 rL SGR
GSN 2221 1700 M 0 -36 rL SGR
GSN 2309 620 M 0  36 rL SGR
GSN 2309 1700 M 0 -36 rL SGR
GSN 2371 620 M 0  36 rL SGR
GSN 2371 1700 M 0 -36 rL SGR
GSN 2420 620 M 0  36 rL SGR
GSN 2420 1700 M 0 -36 rL SGR
GSN 2459 620 M 0  36 rL SGR
GSN 2459 1700 M 0 -36 rL SGR
GSN 2492 620 M 0  36 rL SGR
GSN 2492 1700 M 0 -36 rL SGR
GSN 2521 620 M 0  36 rL SGR
GSN 2521 1700 M 0 -36 rL SGR
GSN 2547 620 M 0  36 rL SGR
GSN 2547 1700 M 0 -36 rL SGR
GSN 2720 620 M 0  36 rL SGR
GSN 2720 1700 M 0 -36 rL SGR
GSN 2808 620 M 0  36 rL SGR
GSN 2808 1700 M 0 -36 rL SGR
GSN 2870 620 M 0  36 rL SGR
GSN 2870 1700 M 0 -36 rL SGR
GSN 2918 620 M 0  36 rL SGR
GSN 2918 1700 M 0 -36 rL SGR
GSN 2958 620 M 0  36 rL SGR
GSN 2958 1700 M 0 -36 rL SGR
GSN 2991 620 M 0  36 rL SGR
GSN 2991 1700 M 0 -36 rL SGR
GSN 3020 620 M 0  36 rL SGR
GSN 3020 1700 M 0 -36 rL SGR
GSN 3045 620 M 0  36 rL SGR
GSN 3045 1700 M 0 -36 rL SGR
GSN 3218 620 M 0  36 rL SGR
GSN 3218 1700 M 0 -36 rL SGR
GSN 3306 620 M 0  36 rL SGR
GSN 3306 1700 M 0 -36 rL SGR
GSN 3368 620 M 0  36 rL SGR
GSN 3368 1700 M 0 -36 rL SGR
GSN 3417 620 M 0  36 rL SGR
GSN 3417 1700 M 0 -36 rL SGR
GSN 3456 620 M 0  36 rL SGR
GSN 3456 1700 M 0 -36 rL SGR
GSN 3490 620 M 0  36 rL SGR
GSN 3490 1700 M 0 -36 rL SGR
GSN 3519 620 M 0  36 rL SGR
GSN 3519 1700 M 0 -36 rL SGR
GSN 3544 620 M 0  36 rL SGR
GSN 3544 1700 M 0 -36 rL SGR
GSN 3717 620 M 0  36 rL SGR
GSN 3717 1700 M 0 -36 rL SGR
GSN 3805 620 M 0  36 rL SGR
GSN 3805 1700 M 0 -36 rL SGR
GSN 3867 620 M 0  36 rL SGR
GSN 3867 1700 M 0 -36 rL SGR
GSN 3915 620 M 0  36 rL SGR
GSN 3915 1700 M 0 -36 rL SGR
GSN 3955 620 M 0  36 rL SGR
GSN 3955 1700 M 0 -36 rL SGR
GSN 3988 620 M 0  36 rL SGR
GSN 3988 1700 M 0 -36 rL SGR
GSN 4017 620 M 0  36 rL SGR
GSN 4017 1700 M 0 -36 rL SGR
GSN 4043 620 M 0  36 rL SGR
GSN 4043 1700 M 0 -36 rL SGR
GSN 4216 620 M 0  36 rL SGR
GSN 4216 1700 M 0 -36 rL SGR
%
% Y axis: large tics - residual frame
%
L10
GSN 620 664 M 54 0 rL SGR
GSN 4220 664 M -54 0 rL SGR
helvS (-0.02) 560 664 ylabelresid
GSN 620 932 M 54 0 rL SGR
GSN 4220 932 M -54 0 rL SGR
helvS (-0.01) 560 932 ylabelresid
GSN 620 1200 M 54 0 rL SGR
GSN 4220 1200 M -54 0 rL SGR
helvS (0) 560 1200 ylabelresid
GSN 620 1468 M 54 0 rL SGR
GSN 4220 1468 M -54 0 rL SGR
helvS (0.01) 560 1468 ylabelresid

%
% X axis - residual panel
%
GSN L5 620 1200 M 4220 1200 L SDA G50 SGR

end
showpage
%%Trailer
%%EOF
