%!PS-Adobe-3.0 EPSF-3.0
%%BoundingBox: 0 0 514 550
%%Creator: BioKin Ltd.
%%DocumentFonts: Symbol Helvetica
%%EndComments
%
/bkdict 256 dict def
bkdict begin
/M {moveto} def 
/R {rmoveto} def
/L {lineto} def
/rL {rlineto} def
/GSN {gsave newpath} def
/SGR {stroke grestore} def
/COSGR {gsave setrgbcolor stroke grestore grestore} def
/SL {setlinewidth} def
/LWMB {12} def             % line width - model curves, black & white
/LWMC {10} def             % line width - model curves, color
/L2 {2.5 setlinewidth} def
/L5 {5 setlinewidth} def
/L10 {10 setlinewidth} def
/G50 {0.5 setgray} def
/SDA {[10  20] 0 setdash} def % axes
/helvT {/Helvetica findfont 100 scalefont setfont} def % tiny
/helvS {/Helvetica findfont 125 scalefont setfont} def % small
/helvM {/Helvetica findfont 150 scalefont setfont} def % medium
/helvL {/Helvetica findfont 175 scalefont setfont} def % large
/xlabel {gsave M dup
   stringwidth exch -0.5 mul exch rmoveto show grestore} def 
/ylabel {gsave M 90 rotate dup
   stringwidth exch -0.5 mul exch rmoveto show grestore} def
/ylabelresid {gsave M dup
   stringwidth exch -1 mul exch rmoveto show grestore} def
% ======
% Shapes
% ======
% Circle:
/Circ {0 360 arc closepath} def
%
% Square:
/Squa {dup dup -0.5 mul dup dup R -2 mul 0 exch rL 1 mul 0 rL dup 0 exch -1 mul rL closepath} def
%
% Triangle Up:
/TriU {dup dup dup -0.4 mul exch -0.5 mul exch R dup 0.5 mul exch rL dup -1 mul exch 0.5 mul exch rL closepath} def 
%
% Triangle Down:
/TriD {dup dup dup 0.4 mul exch -0.5 mul exch R dup 0.5 mul exch -1 mul rL dup 0.5 mul exch rL closepath} def 
%
% Diamond:
/Diam {45 rotate Squa} def
% ======
% Fills
% ======
/GRF {gsave setgray fill grestore} def                    % gray-level Fill
/COF {gsave setrgbcolor fill grestore} def                % color fill
% ======
% Colors
% ======
/C01 {1.00	0.00	0.00} def      % Red
/C02 {0.00	0.00	1.00} def      % Blue
/C03 {0.00	0.39	0.00} def      % Dark Green
/C04 {0.78	0.08	0.52} def      % Medium Violet Red
/C05 {0.55	0.27	0.07} def      % Saddle Brown
/C06 {0.10	0.70	0.70} def      % (cyan)
/C07 {1.00	0.55	0.00} def      % Dark Orange
/C08 {0.63	0.13	0.94} def      % Purple
/C09 {0.00	0.75	1.00} def      % Deep Sky Blue
/C10 {0.20	0.80	0.20} def      % Lime Green
/C11 {0.47	0.53	0.60} def      % Light Slate Gray
/C12 {0.00	0.00	0.00} def      % Black            % or: {0.19	0.31	0.31} def      % Dark Slate Gray
%
/LGR {0.75} def % light gray
/DGR {0.33} def % dark gray
%
% =============
% Dash patterns
% =============
/dash01 { [80  20] 0 setdash } def
/dash02 { [40  20] 0 setdash } def
/dash03 { [80  20  10  20] 0 setdash } def
/dash04 { [40  20  10  20] 0 setdash } def
/dash05 { [80  20  10  10  10  20] 0 setdash } def
/dash06 { [40  20  10  10  10  20] 0 setdash } def
/dash07 { [10  10] 0 setdash } def
%
/MFshow {
   { dup 5 get 3 ge
     { 5 get 3 eq {gsave} {grestore} ifelse }
     {dup dup 0 get findfont exch 1 get scalefont setfont
     [ currentpoint ] exch dup 2 get 0 exch R dup 5 get 2 ne {dup dup 6
     get exch 4 get {show} {stringwidth pop 0 R} ifelse }if dup 5 get 0 eq
     {dup 3 get {2 get neg 0 exch R pop} {pop aload pop M} ifelse} {dup 5
     get 1 eq {dup 2 get exch dup 3 get exch 6 get stringwidth pop -2 div
     dup 0 R} {dup 6 get stringwidth pop -2 div 0 R 6 get
     show 2 index {aload pop M neg 3 -1 roll neg R pop pop} {pop pop pop
     pop aload pop M} ifelse }ifelse }ifelse }
     ifelse }
   forall} bind def
/MFwidth {0 exch {dup 3 get{dup dup 0 get findfont exch 1 get scalefont
     setfont 6 get stringwidth pop add} {pop} ifelse} forall} bind def
/MCshow { currentpoint stroke M
  exch dup MFwidth -2 div 3 -1 roll R MFshow } def
%
end
%%EndProlog
bkdict begin
0.1 0.1 scale
%
% Residuals:
%
GSN 620 3263 M
620 3890 L
620 3777 L
620 3366 L
620 3762 L
620 3638 L
620 3405 L
620 3563 L
620 3341 L
620 3342 L
620 3694 L
620 3487 L
620 3407 L
620 3646 L
620 3634 L
620 3501 L
620 3647 L
620 3398 L
620 3583 L
620 3681 L
620 3828 L
620 3957 L
620 3625 L
620 3594 L
620 3502 L
620 3665 L
620 4167 L
620 4088 L
620 3803 L
620 3824 L
620 3787 L
620 3812 L
620 3872 L
620 4058 L
620 3396 L
620 4138 L
620 3613 L
620 3654 L
620 3540 L
620 3787 L
620 3807 L
620 3330 L
620 3783 L
620 3792 L
620 3510 L
620 3727 L
620 3959 L
620 3932 L
620 3486 L
620 3612 L
620 3675 L
620 3497 L
620 3456 L
620 3676 L
620 3760 L
620 3527 L
620 3371 L
620 3417 L
620 3422 L
620 3807 L
620 3517 L
620 3785 L
620 3798 L
620 3511 L
620 3550 L
620 3338 L
620 3312 L
620 3735 L
620 3580 L
620 3775 L
620 3258 L
620 3488 L
620 3578 L
620 3632 L
620 3566 L
620 3502 L
620 3300 L
620 3307 L
620 3496 L
620 3543 L
620 3612 L
620 3232 L
620 3146 L
620 3117 L
620 2752 L
620 3160 L
620 3312 L
620 3047 L
620 3080 L
620 2986 L
620 3189 L
620 2538 L
620 3078 L
620 2798 L
620 2711 L
620 2510 L
620 2555 L
620 2723 L
620 2649 L
620 2426 L
620 2590 L
620 2678 L
620 2931 L
620 2515 L
620 2665 L
620 2844 L
620 2604 L
620 2669 L
620 2530 L
620 2644 L
620 2549 L
620 2629 L
620 2315 L
620 2180 L
620 2293 L
620 2136 L
620 2375 L
620 2179 L
620 2658 L
620 2549 L
620 2589 L
620 2467 L
620 2699 L
620 2780 L
620 2337 L
620 2513 L
620 2710 L
620 2346 L
620 2918 L
620 2532 L
620 2326 L
620 2803 L
620 2834 L
620 2806 L
620 2587 L
620 2169 L
620 2968 L
620 2632 L
620 2546 L
620 2504 L
620 2962 L
620 2687 L
620 2637 L
620 3204 L
620 2451 L
620 2405 L
620 2671 L
620 2650 L
620 2747 L
620 2601 L
620 2399 L
620 2764 L
620 2979 L
620 2771 L
620 2718 L
620 2589 L
620 2535 L
620 3067 L
620 2812 L
620 2514 L
620 2953 L
620 2636 L
620 2652 L
620 3102 L
620 2769 L
620 2769 L
620 3218 L
620 2923 L
620 2833 L
620 3055 L
620 3141 L
620 2948 L
620 2744 L
620 2931 L
620 3354 L
620 3129 L
620 2744 L
620 3285 L
620 3226 L
620 2934 L
620 2713 L
620 3253 L
620 3282 L
620 3028 L
620 2623 L
620 3259 L
620 3100 L
620 3157 L
620 3490 L
620 3060 L
620 3218 L
620 3400 L
620 3077 L
620 3197 L
620 3100 L
620 3340 L
620 3397 L
620 3202 L
620 3099 L
620 3073 L
620 3114 L
620 3300 L
620 3600 L
620 3263 L
620 3378 L
620 2886 L
620 3449 L
620 3175 L
620 3445 L
620 3303 L
620 3165 L
620 3620 L
620 3581 L
620 3215 L
620 3366 L
620 3500 L
620 3625 L
620 3231 L
620 3566 L
620 3689 L
620 3485 L
620 3414 L
620 3126 L
620 3515 L
620 3153 L
620 3421 L
620 3533 L
620 3515 L
620 3637 L
620 3586 L
620 3297 L
620 3882 L
620 3394 L
620 3356 L
620 3823 L
620 3550 L
620 3507 L
620 3591 L
620 3198 L
620 3331 L
620 3889 L
620 3777 L
620 3676 L
620 3932 L
620 3488 L
620 3363 L
620 3456 L
620 3913 L
620 3708 L
620 3454 L
620 3567 L
620 3817 L
620 3668 L
620 3675 L
620 3331 L
620 3823 L
620 4000 L
620 3637 L
620 3588 L
620 3671 L
620 3767 L
620 3672 L
620 3709 L
620 3777 L
620 3405 L
620 3925 L
620 3787 L
620 3698 L
620 3796 L
620 3966 L
620 3344 L
620 3584 L
620 3727 L
620 3980 L
620 3655 L
620 3824 L
620 3712 L
620 3821 L
620 3830 L
620 3302 L
620 4085 L
620 3861 L
620 4223 L
620 3898 L
620 3838 L
620 4318 L
620 4304 L
620 4110 L
620 4022 L
620 4456 L
620 4190 L
620 4321 L
620 3938 L
620 4257 L
620 4153 L
620 4277 L
620 4224 L
620 4379 L
620 4249 L
620 4111 L
620 4392 L
620 4232 L
620 4261 L
620 4325 L
620 4422 L
620 4254 L
620 4087 L
620 4467 L
620 4222 L
620 4613 L
620 4863 L
620 4467 L
620 4301 L
620 4152 L
620 4582 L
620 4420 L
620 4111 L
620 4256 L
620 4349 L
620 4636 L
620 4727 L
620 4152 L
620 4134 L
620 4224 L
620 4463 L
620 4297 L
620 4532 L
620 4449 L
620 4277 L
620 4298 L
620 4268 L
620 4288 L
620 4308 L
620 4074 L
620 4195 L
620 4774 L
620 4206 L
620 4337 L
620 4029 L
620 4070 L
620 4310 L
620 4180 L
620 4239 L
620 4148 L
620 4328 L
620 4497 L
620 4088 L
620 4750 L
620 4178 L
620 4247 L
620 4437 L
620 4080 L
620 3993 L
620 4408 L
620 4507 L
620 3932 L
620 4288 L
620 3966 L
620 4041 L
620 4446 L
620 4213 L
620 4142 L
620 3925 L
620 4121 L
620 4172 L
620 4447 L
620 4301 L
620 3992 L
620 4131 L
620 4128 L
620 4281 L
620 3800 L
620 4022 L
620 3932 L
620 3895 L
620 4125 L
620 3943 L
620 3901 L
620 4219 L
620 4547 L
620 4308 L
620 4095 L
620 3773 L
620 4227 L
620 3726 L
620 4056 L
620 4172 L
620 3953 L
620 4036 L
620 4152 L
620 4166 L
620 3881 L
620 3759 L
620 3749 L
620 3750 L
620 3928 L
620 3934 L
620 3705 L
620 3855 L
620 3868 L
620 3516 L
620 3860 L
620 4007 L
620 3977 L
620 3794 L
620 3868 L
620 3793 L
620 4030 L
620 3807 L
620 3965 L
620 4256 L
620 4033 L
620 3811 L
620 4043 L
620 3926 L
620 3936 L
620 3987 L
620 3529 L
620 3617 L
620 3870 L
620 4033 L
620 3931 L
620 3736 L
620 3784 L
620 3847 L
620 4003 L
620 3834 L
620 4176 L
620 3989 L
620 3894 L
620 4220 L
620 4030 L
620 3878 L
620 3908 L
620 3909 L
620 3819 L
620 3616 L
620 4070 L
620 3697 L
620 4104 L
620 4148 L
620 3938 L
620 3787 L
620 3801 L
620 4078 L
620 4134 L
620 3844 L
620 3953 L
620 4112 L
620 3915 L
620 3853 L
620 3865 L
620 3702 L
620 3457 L
620 3584 L
620 3610 L
620 3614 L
620 3787 L
620 3745 L
620 3908 L
620 4056 L
620 3797 L
620 3827 L
620 4166 L
620 3963 L
620 3695 L
620 3965 L
620 4339 L
620 3687 L
620 3848 L
620 4024 L
620 3468 L
620 3557 L
620 3590 L
620 4163 L
620 3965 L
620 3704 L
620 3830 L
620 3582 L
620 3809 L
620 3281 L
620 4022 L
620 3749 L
620 3545 L
620 3489 L
620 4046 L
620 3800 L
620 3413 L
620 4027 L
620 3948 L
620 4031 L
620 3556 L
620 3802 L
620 3572 L
620 3678 L
620 4017 L
620 3576 L
620 3857 L
620 3550 L
620 3401 L
620 3733 L
620 3782 L
620 3890 L
620 3837 L
620 3890 L
620 3887 L
620 4111 L
620 3999 L
620 3938 L
620 3748 L
620 3745 L
620 3512 L
620 3608 L
620 3809 L
620 3773 L
620 3827 L
620 3718 L
620 3952 L
620 3655 L
620 4254 L
620 3620 L
620 3921 L
620 3660 L
620 3624 L
620 4144 L
620 3756 L
620 3783 L
620 3743 L
620 4033 L
620 4087 L
620 3728 L
620 3817 L
620 3579 L
L2 C06 COSGR

%
%================
% Legend - Begin
%================
%
GSN 4240 5180 M
4480 5180 L
LWMC SL  C06 COSGR
GSN 4540 5141 M helvM (3.0 uM) show grestore
%
%================
% Legend - End
%================
%

%
% Main frame
%
L10
GSN 
620 1700 M
4220 1700 L
4220 5300 L
620 5300 L
closepath SGR

%
% X axis: large tics
%
L10
%
% X axis: small tics
%
L5
%
% Y axis: large tics
%
L10
GSN 620 2125 M 54 0 rL SGR
GSN 4220 2125 M -54 0 rL SGR
helvS (-0.02) 560 2125 ylabel
GSN 620 2869 M 54 0 rL SGR
GSN 4220 2869 M -54 0 rL SGR
helvS (-0.01) 560 2869 ylabel
GSN 620 3613 M 54 0 rL SGR
GSN 4220 3613 M -54 0 rL SGR
helvS (0) 560 3613 ylabel
GSN 620 4357 M 54 0 rL SGR
GSN 4220 4357 M -54 0 rL SGR
helvS (0.01) 560 4357 ylabel
GSN 620 5101 M 54 0 rL SGR
GSN 4220 5101 M -54 0 rL SGR
helvS (0.02) 560 5101 ylabel
%
% Y axis: small tics
%
L5
GSN 620 1753 M 36 0 rL SGR
GSN 4220 1753 M -36 0 rL SGR
GSN 620 1939 M 36 0 rL SGR
GSN 4220 1939 M -36 0 rL SGR
GSN 620 2125 M 36 0 rL SGR
GSN 4220 2125 M -36 0 rL SGR
GSN 620 2311 M 36 0 rL SGR
GSN 4220 2311 M -36 0 rL SGR
GSN 620 2497 M 36 0 rL SGR
GSN 4220 2497 M -36 0 rL SGR
GSN 620 2683 M 36 0 rL SGR
GSN 4220 2683 M -36 0 rL SGR
GSN 620 2869 M 36 0 rL SGR
GSN 4220 2869 M -36 0 rL SGR
GSN 620 3055 M 36 0 rL SGR
GSN 4220 3055 M -36 0 rL SGR
GSN 620 3241 M 36 0 rL SGR
GSN 4220 3241 M -36 0 rL SGR
GSN 620 3427 M 36 0 rL SGR
GSN 4220 3427 M -36 0 rL SGR
GSN 620 3613 M 36 0 rL SGR
GSN 4220 3613 M -36 0 rL SGR
GSN 620 3799 M 36 0 rL SGR
GSN 4220 3799 M -36 0 rL SGR
GSN 620 3985 M 36 0 rL SGR
GSN 4220 3985 M -36 0 rL SGR
GSN 620 4171 M 36 0 rL SGR
GSN 4220 4171 M -36 0 rL SGR
GSN 620 4357 M 36 0 rL SGR
GSN 4220 4357 M -36 0 rL SGR
GSN 620 4543 M 36 0 rL SGR
GSN 4220 4543 M -36 0 rL SGR
GSN 620 4729 M 36 0 rL SGR
GSN 4220 4729 M -36 0 rL SGR
GSN 620 4915 M 36 0 rL SGR
GSN 4220 4915 M -36 0 rL SGR
GSN 620 5101 M 36 0 rL SGR
GSN 4220 5101 M -36 0 rL SGR
GSN 620 5287 M 36 0 rL SGR
GSN 4220 5287 M -36 0 rL SGR

%
% X axis - residual panel
%
GSN L5 620 3613 M 4220 3613 L SDA G50 SGR

%
% X-Axis label:
%
gsave 620 1370 M 
[
[(Helvetica) 180 0 true true 0 (t)]
[(Helvetica) 180 0 true true 0 (i)]
[(Helvetica) 180 0 true true 0 (m)]
[(Helvetica) 180 0 true true 0 (e)]
] 0 MCshow grestore

%
% Y-Axis label:
%
gsave 234 3500 M 
currentpoint gsave translate 90 rotate 0 0 moveto
[
[(Helvetica) 180 0 true true 0 (r)]
[(Helvetica) 180 0 true true 0 (e)]
[(Helvetica) 180 0 true true 0 (s)]
[(Helvetica) 180 0 true true 0 (i)]
[(Helvetica) 180 0 true true 0 (d)]
[(Helvetica) 180 0 true true 0 (u)]
[(Helvetica) 180 0 true true 0 (a)]
[(Helvetica) 180 0 true true 0 (l)]
[(Helvetica) 180 0 true true 0 (s)]
] 0 MCshow grestore

end
showpage
%%Trailer
%%EOF
