%!PS-Adobe-3.0 EPSF-3.0
%%BoundingBox: 0 0 514 550
%%Creator: BioKin Ltd.
%%DocumentFonts: Symbol Helvetica
%%EndComments
%
/bkdict 256 dict def
bkdict begin
/M {moveto} def 
/R {rmoveto} def
/L {lineto} def
/rL {rlineto} def
/GSN {gsave newpath} def
/SGR {stroke grestore} def
/COSGR {gsave setrgbcolor stroke grestore grestore} def
/SL {setlinewidth} def
/LWMB {12} def             % line width - model curves, black & white
/LWMC {10} def             % line width - model curves, color
/L2 {2.5 setlinewidth} def
/L5 {5 setlinewidth} def
/L10 {10 setlinewidth} def
/G50 {0.5 setgray} def
/SDA {[10  20] 0 setdash} def % axes
/helvT {/Helvetica findfont 100 scalefont setfont} def % tiny
/helvS {/Helvetica findfont 125 scalefont setfont} def % small
/helvM {/Helvetica findfont 150 scalefont setfont} def % medium
/helvL {/Helvetica findfont 175 scalefont setfont} def % large
/xlabel {gsave M dup
   stringwidth exch -0.5 mul exch rmoveto show grestore} def 
/ylabel {gsave M 90 rotate dup
   stringwidth exch -0.5 mul exch rmoveto show grestore} def
/ylabelresid {gsave M dup
   stringwidth exch -1 mul exch rmoveto show grestore} def
% ======
% Shapes
% ======
% Circle:
/Circ {0 360 arc closepath} def
%
% Square:
/Squa {dup dup -0.5 mul dup dup R -2 mul 0 exch rL 1 mul 0 rL dup 0 exch -1 mul rL closepath} def
%
% Triangle Up:
/TriU {dup dup dup -0.4 mul exch -0.5 mul exch R dup 0.5 mul exch rL dup -1 mul exch 0.5 mul exch rL closepath} def 
%
% Triangle Down:
/TriD {dup dup dup 0.4 mul exch -0.5 mul exch R dup 0.5 mul exch -1 mul rL dup 0.5 mul exch rL closepath} def 
%
% Diamond:
/Diam {45 rotate Squa} def
% ======
% Fills
% ======
/GRF {gsave setgray fill grestore} def                    % gray-level Fill
/COF {gsave setrgbcolor fill grestore} def                % color fill
% ======
% Colors
% ======
/C01 {1.00	0.00	0.00} def      % Red
/C02 {0.00	0.00	1.00} def      % Blue
/C03 {0.00	0.39	0.00} def      % Dark Green
/C04 {0.78	0.08	0.52} def      % Medium Violet Red
/C05 {0.55	0.27	0.07} def      % Saddle Brown
/C06 {0.10	0.70	0.70} def      % (cyan)
/C07 {1.00	0.55	0.00} def      % Dark Orange
/C08 {0.63	0.13	0.94} def      % Purple
/C09 {0.00	0.75	1.00} def      % Deep Sky Blue
/C10 {0.20	0.80	0.20} def      % Lime Green
/C11 {0.47	0.53	0.60} def      % Light Slate Gray
/C12 {0.00	0.00	0.00} def      % Black            % or: {0.19	0.31	0.31} def      % Dark Slate Gray
%
/LGR {0.75} def % light gray
/DGR {0.33} def % dark gray
%
% =============
% Dash patterns
% =============
/dash01 { [80  20] 0 setdash } def
/dash02 { [40  20] 0 setdash } def
/dash03 { [80  20  10  20] 0 setdash } def
/dash04 { [40  20  10  20] 0 setdash } def
/dash05 { [80  20  10  10  10  20] 0 setdash } def
/dash06 { [40  20  10  10  10  20] 0 setdash } def
/dash07 { [10  10] 0 setdash } def
%
/MFshow {
   { dup 5 get 3 ge
     { 5 get 3 eq {gsave} {grestore} ifelse }
     {dup dup 0 get findfont exch 1 get scalefont setfont
     [ currentpoint ] exch dup 2 get 0 exch R dup 5 get 2 ne {dup dup 6
     get exch 4 get {show} {stringwidth pop 0 R} ifelse }if dup 5 get 0 eq
     {dup 3 get {2 get neg 0 exch R pop} {pop aload pop M} ifelse} {dup 5
     get 1 eq {dup 2 get exch dup 3 get exch 6 get stringwidth pop -2 div
     dup 0 R} {dup 6 get stringwidth pop -2 div 0 R 6 get
     show 2 index {aload pop M neg 3 -1 roll neg R pop pop} {pop pop pop
     pop aload pop M} ifelse }ifelse }ifelse }
     ifelse }
   forall} bind def
/MFwidth {0 exch {dup 3 get{dup dup 0 get findfont exch 1 get scalefont
     setfont 6 get stringwidth pop add} {pop} ifelse} forall} bind def
/MCshow { currentpoint stroke M
  exch dup MFwidth -2 div 3 -1 roll R MFshow } def
%
end
%%EndProlog
bkdict begin
0.1 0.1 scale
%
% Residuals:
%
GSN 620 2791 M
620 4863 L
620 4706 L
620 4661 L
620 4656 L
620 4322 L
620 4665 L
620 4447 L
620 4435 L
620 4329 L
620 4068 L
620 4286 L
620 4074 L
620 3992 L
620 4071 L
620 3927 L
620 3870 L
620 3984 L
620 3721 L
620 3885 L
620 3927 L
620 3797 L
620 3924 L
620 3689 L
620 3825 L
620 3872 L
620 3589 L
620 3689 L
620 3657 L
620 3756 L
620 3516 L
620 3370 L
620 3743 L
620 3434 L
620 3599 L
620 3496 L
620 3434 L
620 3446 L
620 3402 L
620 3353 L
620 3188 L
620 3403 L
620 3295 L
620 3285 L
620 3282 L
620 3164 L
620 3282 L
620 3072 L
620 3077 L
620 3146 L
620 3145 L
620 2989 L
620 2924 L
620 2887 L
620 3136 L
620 3000 L
620 3109 L
620 2972 L
620 3061 L
620 3077 L
620 2926 L
620 3064 L
620 3053 L
620 3131 L
620 2933 L
620 2827 L
620 2827 L
620 2865 L
620 2636 L
620 2897 L
620 2848 L
620 2767 L
620 3057 L
620 2671 L
620 2803 L
620 2948 L
620 2626 L
620 2606 L
620 2819 L
620 2738 L
620 2731 L
620 2673 L
620 2699 L
620 2788 L
620 2600 L
620 2482 L
620 2623 L
620 2406 L
620 2460 L
620 2469 L
620 2612 L
620 2355 L
620 2554 L
620 2438 L
620 2341 L
620 2364 L
620 2302 L
620 2287 L
620 2404 L
620 2296 L
620 2485 L
620 2322 L
620 2401 L
620 2229 L
620 2378 L
620 2224 L
620 2331 L
620 2278 L
620 2422 L
620 2375 L
620 2392 L
620 2273 L
620 2170 L
620 2136 L
620 2293 L
620 2267 L
620 2325 L
620 2472 L
620 2388 L
620 2303 L
620 2304 L
620 2268 L
620 2327 L
620 2212 L
620 2379 L
620 2329 L
620 2198 L
620 2248 L
620 2312 L
620 2317 L
620 2285 L
620 2391 L
620 2302 L
620 2423 L
620 2165 L
620 2443 L
620 2233 L
620 2576 L
620 2417 L
620 2489 L
620 2424 L
620 2218 L
620 2475 L
620 2478 L
620 2460 L
620 2400 L
620 2527 L
620 2277 L
620 2394 L
620 2344 L
620 2489 L
620 2407 L
620 2461 L
620 2418 L
620 2311 L
620 2651 L
620 2459 L
620 2426 L
620 2553 L
620 2262 L
620 2555 L
620 2603 L
620 2527 L
620 2480 L
620 2544 L
620 2480 L
620 2502 L
620 2484 L
620 2546 L
620 2590 L
620 2571 L
620 2470 L
620 2569 L
620 2666 L
620 2599 L
620 2508 L
620 2604 L
620 2464 L
620 2646 L
620 2620 L
620 2531 L
620 2717 L
620 2582 L
620 2624 L
620 2557 L
620 2505 L
620 2544 L
620 2593 L
620 2535 L
620 2895 L
620 2718 L
620 2579 L
620 2732 L
620 2516 L
620 2755 L
620 2785 L
620 2808 L
620 2710 L
620 2667 L
620 2702 L
620 2627 L
620 2643 L
620 2787 L
620 2710 L
620 2720 L
620 2702 L
620 2823 L
620 2748 L
620 2650 L
620 2728 L
620 2610 L
620 2862 L
620 2480 L
620 2779 L
620 2683 L
620 2818 L
620 2725 L
620 2712 L
620 2754 L
620 2760 L
620 2812 L
620 2870 L
620 2642 L
620 2737 L
620 2719 L
620 2794 L
620 2628 L
620 2834 L
620 2797 L
620 2689 L
620 2838 L
620 2716 L
620 2809 L
620 2731 L
620 2724 L
620 2826 L
620 2867 L
620 2906 L
620 2722 L
620 2826 L
620 2901 L
620 2770 L
620 2901 L
620 2765 L
620 2602 L
620 2838 L
620 2901 L
620 2845 L
620 2723 L
620 2752 L
620 2996 L
620 2793 L
620 2818 L
620 2888 L
620 3018 L
620 2698 L
620 2679 L
620 2832 L
620 2950 L
620 3066 L
620 2863 L
620 2803 L
620 2985 L
620 2843 L
620 2905 L
620 2756 L
620 2833 L
620 2638 L
620 2816 L
620 2749 L
620 3024 L
620 2955 L
620 3097 L
620 2798 L
620 2828 L
620 3011 L
620 2951 L
620 2961 L
620 2803 L
620 2701 L
620 2873 L
620 3015 L
620 2676 L
620 3171 L
620 3022 L
620 3075 L
620 2988 L
620 3117 L
620 3027 L
620 2859 L
620 2835 L
620 3045 L
620 3036 L
620 3007 L
620 3044 L
620 3004 L
620 3178 L
620 3034 L
620 2918 L
620 3127 L
620 3044 L
620 3169 L
620 3242 L
620 3058 L
620 2967 L
620 3004 L
620 3048 L
620 3112 L
620 2914 L
620 2850 L
620 3072 L
620 3035 L
620 3267 L
620 3143 L
620 3078 L
620 3028 L
620 3049 L
620 3113 L
620 3297 L
620 3170 L
620 3201 L
620 3125 L
620 2950 L
620 3140 L
620 3124 L
620 2976 L
620 3071 L
620 3203 L
620 3131 L
620 3027 L
620 3258 L
620 3007 L
620 3073 L
620 3092 L
620 3292 L
620 2922 L
620 3104 L
620 3074 L
620 3046 L
620 3054 L
620 3040 L
620 2993 L
620 2964 L
620 3091 L
620 3110 L
620 3254 L
620 2848 L
620 3126 L
620 3130 L
620 3072 L
620 3104 L
620 3087 L
620 3096 L
620 3199 L
620 3018 L
620 3175 L
620 2963 L
620 2982 L
620 2968 L
620 2910 L
620 3047 L
620 2973 L
620 2926 L
620 2974 L
620 3236 L
620 2919 L
620 3045 L
620 2965 L
620 2940 L
620 2981 L
620 3243 L
620 2875 L
620 2917 L
620 2874 L
620 2944 L
620 2874 L
620 2862 L
620 2862 L
620 2915 L
620 2972 L
620 2752 L
620 2956 L
620 2850 L
620 3046 L
620 3011 L
620 2889 L
620 2958 L
620 2798 L
620 2791 L
620 2893 L
620 2829 L
620 2963 L
620 2838 L
620 3013 L
620 2849 L
620 2938 L
620 3064 L
620 2819 L
620 2856 L
620 2895 L
620 2760 L
620 2763 L
620 3004 L
620 2982 L
620 2613 L
620 2848 L
620 3051 L
620 2847 L
620 2978 L
620 3021 L
620 3024 L
620 2755 L
620 3023 L
620 2786 L
620 3001 L
620 2754 L
620 2772 L
620 2749 L
620 2881 L
620 2935 L
620 3012 L
620 2878 L
620 2898 L
620 2906 L
620 2882 L
620 2898 L
620 2953 L
620 2835 L
620 2857 L
620 3005 L
620 2621 L
620 2670 L
620 2897 L
620 2879 L
620 2899 L
620 2982 L
620 2776 L
620 2983 L
620 2929 L
620 2796 L
620 3024 L
620 3002 L
620 2884 L
620 2977 L
620 2864 L
620 2908 L
620 2856 L
620 2928 L
620 2997 L
620 2930 L
620 2855 L
620 2614 L
620 2973 L
620 3025 L
620 2974 L
620 2741 L
620 2757 L
620 2899 L
620 3020 L
620 2817 L
620 2767 L
620 3012 L
620 2952 L
620 2868 L
620 2759 L
620 2755 L
620 2891 L
620 2840 L
620 2785 L
620 2795 L
620 2686 L
620 2902 L
620 2720 L
620 2871 L
620 2875 L
620 2983 L
620 2812 L
620 2826 L
620 2998 L
620 2953 L
620 2839 L
620 2705 L
620 2778 L
620 2850 L
620 2861 L
620 2742 L
620 2903 L
620 2918 L
620 2918 L
620 2903 L
620 2933 L
620 2626 L
620 2824 L
620 2711 L
620 2859 L
620 2932 L
620 2688 L
620 3096 L
620 2855 L
620 2988 L
620 2926 L
620 2685 L
620 2729 L
620 2735 L
620 2924 L
620 2741 L
620 2634 L
620 2976 L
620 2775 L
620 2800 L
620 2857 L
620 2719 L
620 2760 L
620 2979 L
620 2764 L
620 2927 L
620 2805 L
620 2839 L
620 3046 L
620 2893 L
620 2974 L
620 2672 L
620 2827 L
620 2868 L
620 2957 L
620 2773 L
620 2816 L
620 2910 L
620 2685 L
620 2887 L
620 2852 L
620 2900 L
620 3029 L
L2 C07 COSGR

%
%================
% Legend - Begin
%================
%
GSN 4240 5180 M
4480 5180 L
LWMC SL  C07 COSGR
GSN 4540 5141 M helvM (4.0 uM) show grestore
%
%================
% Legend - End
%================
%

%
% Main frame
%
L10
GSN 
620 1700 M
4220 1700 L
4220 5300 L
620 5300 L
closepath SGR

%
% X axis: large tics
%
L10
%
% X axis: small tics
%
L5
%
% Y axis: large tics
%
L10
GSN 620 2095 M 54 0 rL SGR
GSN 4220 2095 M -54 0 rL SGR
helvS (-0.02) 560 2095 ylabel
GSN 620 2886 M 54 0 rL SGR
GSN 4220 2886 M -54 0 rL SGR
helvS (0) 560 2886 ylabel
GSN 620 3677 M 54 0 rL SGR
GSN 4220 3677 M -54 0 rL SGR
helvS (0.02) 560 3677 ylabel
GSN 620 4468 M 54 0 rL SGR
GSN 4220 4468 M -54 0 rL SGR
helvS (0.04) 560 4468 ylabel
GSN 620 5259 M 54 0 rL SGR
GSN 4220 5259 M -54 0 rL SGR
helvS (0.06) 560 5259 ylabel
%
% Y axis: small tics
%
L5
GSN 620 1897 M 36 0 rL SGR
GSN 4220 1897 M -36 0 rL SGR
GSN 620 2095 M 36 0 rL SGR
GSN 4220 2095 M -36 0 rL SGR
GSN 620 2292 M 36 0 rL SGR
GSN 4220 2292 M -36 0 rL SGR
GSN 620 2490 M 36 0 rL SGR
GSN 4220 2490 M -36 0 rL SGR
GSN 620 2688 M 36 0 rL SGR
GSN 4220 2688 M -36 0 rL SGR
GSN 620 2886 M 36 0 rL SGR
GSN 4220 2886 M -36 0 rL SGR
GSN 620 3083 M 36 0 rL SGR
GSN 4220 3083 M -36 0 rL SGR
GSN 620 3281 M 36 0 rL SGR
GSN 4220 3281 M -36 0 rL SGR
GSN 620 3479 M 36 0 rL SGR
GSN 4220 3479 M -36 0 rL SGR
GSN 620 3677 M 36 0 rL SGR
GSN 4220 3677 M -36 0 rL SGR
GSN 620 3874 M 36 0 rL SGR
GSN 4220 3874 M -36 0 rL SGR
GSN 620 4072 M 36 0 rL SGR
GSN 4220 4072 M -36 0 rL SGR
GSN 620 4270 M 36 0 rL SGR
GSN 4220 4270 M -36 0 rL SGR
GSN 620 4468 M 36 0 rL SGR
GSN 4220 4468 M -36 0 rL SGR
GSN 620 4665 M 36 0 rL SGR
GSN 4220 4665 M -36 0 rL SGR
GSN 620 4863 M 36 0 rL SGR
GSN 4220 4863 M -36 0 rL SGR
GSN 620 5061 M 36 0 rL SGR
GSN 4220 5061 M -36 0 rL SGR
GSN 620 5259 M 36 0 rL SGR
GSN 4220 5259 M -36 0 rL SGR

%
% X axis - residual panel
%
GSN L5 620 2886 M 4220 2886 L SDA G50 SGR

%
% X-Axis label:
%
gsave 620 1370 M 
[
[(Helvetica) 180 0 true true 0 (t)]
[(Helvetica) 180 0 true true 0 (i)]
[(Helvetica) 180 0 true true 0 (m)]
[(Helvetica) 180 0 true true 0 (e)]
] 0 MCshow grestore

%
% Y-Axis label:
%
gsave 234 3500 M 
currentpoint gsave translate 90 rotate 0 0 moveto
[
[(Helvetica) 180 0 true true 0 (r)]
[(Helvetica) 180 0 true true 0 (e)]
[(Helvetica) 180 0 true true 0 (s)]
[(Helvetica) 180 0 true true 0 (i)]
[(Helvetica) 180 0 true true 0 (d)]
[(Helvetica) 180 0 true true 0 (u)]
[(Helvetica) 180 0 true true 0 (a)]
[(Helvetica) 180 0 true true 0 (l)]
[(Helvetica) 180 0 true true 0 (s)]
] 0 MCshow grestore

end
showpage
%%Trailer
%%EOF
