%!PS-Adobe-3.0 EPSF-3.0
%%BoundingBox: 0 0 514 442
%%Creator: BioKin Ltd.
%%DocumentFonts: Symbol Helvetica
%%EndComments
%
/bkdict 256 dict def
bkdict begin
/M {moveto} def 
/R {rmoveto} def
/L {lineto} def
/rL {rlineto} def
/GSN {gsave newpath} def
/SGR {stroke grestore} def
/COSGR {gsave setrgbcolor stroke grestore grestore} def
/SL {setlinewidth} def
/LWMB {12} def             % line width - model curves, black & white
/LWMC {10} def             % line width - model curves, color
/L2 {2.5 setlinewidth} def
/L5 {5 setlinewidth} def
/L10 {10 setlinewidth} def
/G50 {0.5 setgray} def
/SDA {[10  20] 0 setdash} def % axes
/helvT {/Helvetica findfont 100 scalefont setfont} def % tiny
/helvS {/Helvetica findfont 125 scalefont setfont} def % small
/helvM {/Helvetica findfont 150 scalefont setfont} def % medium
/helvL {/Helvetica findfont 175 scalefont setfont} def % large
/xlabel {gsave M dup
   stringwidth exch -0.5 mul exch rmoveto show grestore} def 
/ylabel {gsave M 90 rotate dup
   stringwidth exch -0.5 mul exch rmoveto show grestore} def
/ylabelresid {gsave M dup
   stringwidth exch -1 mul exch rmoveto show grestore} def
% ======
% Shapes
% ======
% Circle:
/Circ {0 360 arc closepath} def
%
% Square:
/Squa {dup dup -0.5 mul dup dup R -2 mul 0 exch rL 1 mul 0 rL dup 0 exch -1 mul rL closepath} def
%
% Triangle Up:
/TriU {dup dup dup -0.4 mul exch -0.5 mul exch R dup 0.5 mul exch rL dup -1 mul exch 0.5 mul exch rL closepath} def 
%
% Triangle Down:
/TriD {dup dup dup 0.4 mul exch -0.5 mul exch R dup 0.5 mul exch -1 mul rL dup 0.5 mul exch rL closepath} def 
%
% Diamond:
/Diam {45 rotate Squa} def
% ======
% Fills
% ======
/GRF {gsave setgray fill grestore} def                    % gray-level Fill
/COF {gsave setrgbcolor fill grestore} def                % color fill
% ======
% Colors
% ======
/C01 {1.00	0.00	0.00} def      % Red
/C02 {0.00	0.00	1.00} def      % Blue
/C03 {0.00	0.39	0.00} def      % Dark Green
/C04 {0.78	0.08	0.52} def      % Medium Violet Red
/C05 {0.55	0.27	0.07} def      % Saddle Brown
/C06 {0.10	0.70	0.70} def      % (cyan)
/C07 {1.00	0.55	0.00} def      % Dark Orange
/C08 {0.63	0.13	0.94} def      % Purple
/C09 {0.00	0.75	1.00} def      % Deep Sky Blue
/C10 {0.20	0.80	0.20} def      % Lime Green
/C11 {0.47	0.53	0.60} def      % Light Slate Gray
/C12 {0.00	0.00	0.00} def      % Black            % or: {0.19	0.31	0.31} def      % Dark Slate Gray
%
/LGR {0.75} def % light gray
/DGR {0.33} def % dark gray
%
% =============
% Dash patterns
% =============
/dash01 { [80  20] 0 setdash } def
/dash02 { [40  20] 0 setdash } def
/dash03 { [80  20  10  20] 0 setdash } def
/dash04 { [40  20  10  20] 0 setdash } def
/dash05 { [80  20  10  10  10  20] 0 setdash } def
/dash06 { [40  20  10  10  10  20] 0 setdash } def
/dash07 { [10  10] 0 setdash } def
%
/MFshow {
   { dup 5 get 3 ge
     { 5 get 3 eq {gsave} {grestore} ifelse }
     {dup dup 0 get findfont exch 1 get scalefont setfont
     [ currentpoint ] exch dup 2 get 0 exch R dup 5 get 2 ne {dup dup 6
     get exch 4 get {show} {stringwidth pop 0 R} ifelse }if dup 5 get 0 eq
     {dup 3 get {2 get neg 0 exch R pop} {pop aload pop M} ifelse} {dup 5
     get 1 eq {dup 2 get exch dup 3 get exch 6 get stringwidth pop -2 div
     dup 0 R} {dup 6 get stringwidth pop -2 div 0 R 6 get
     show 2 index {aload pop M neg 3 -1 roll neg R pop pop} {pop pop pop
     pop aload pop M} ifelse }ifelse }ifelse }
     ifelse }
   forall} bind def
/MFwidth {0 exch {dup 3 get{dup dup 0 get findfont exch 1 get scalefont
     setfont 6 get stringwidth pop add} {pop} ifelse} forall} bind def
/MCshow { currentpoint stroke M
  exch dup MFwidth -2 div 3 -1 roll R MFshow } def
%
end
%%EndProlog
bkdict begin
0.1 0.1 scale
%
% Model curves:
%

GSN 753 3522 M
770 3522 L
803 3522 L
837 3522 L
870 3522 L
903 3522 L
924 3522 L
941 3522 L
970 3521 L
1003 3521 L
1037 3521 L
1070 3521 L
1096 3520 L
1113 3520 L
1137 3520 L
1170 3520 L
1203 3519 L
1237 3519 L
1268 3518 L
1284 3518 L
1303 3518 L
1337 3517 L
1370 3517 L
1403 3516 L
1437 3515 L
1456 3515 L
1473 3514 L
1503 3514 L
1537 3513 L
1570 3513 L
1603 3512 L
1628 3511 L
1644 3511 L
1670 3511 L
1703 3511 L
1737 3511 L
1770 3511 L
1799 3511 L
1816 3511 L
1837 3511 L
1870 3512 L
1903 3513 L
1937 3514 L
1970 3515 L
1987 3517 L
2004 3517 L
2037 3518 L
2070 3520 L
2103 3523 L
2137 3525 L
2159 3528 L
2176 3529 L
2203 3531 L
2237 3535 L
2270 3539 L
2303 3544 L
2331 3549 L
2347 3553 L
2370 3555 L
2403 3562 L
2437 3569 L
2470 3578 L
2503 3587 L
2519 3597 L
2537 3597 L
2570 3608 L
2603 3621 L
2637 3634 L
2670 3649 L
2690 3665 L
2707 3669 L
2737 3683 L
2770 3701 L
2803 3721 L
2837 3742 L
2862 3763 L
2879 3775 L
2903 3786 L
2937 3808 L
2970 3832 L
3003 3855 L
3034 3878 L
3050 3896 L
3070 3900 L
3103 3921 L
3137 3941 L
3170 3959 L
3203 3976 L
3222 3991 L
3239 3993 L
3270 4004 L
3303 4015 L
3337 4023 L
3370 4030 L
3393 4034 L
3410 4036 L
3437 4037 L
3464 4039 L
3481 4039 L
3503 4039 L
3537 4038 L
3565 4037 L
3582 4036 L
3603 4036 L
3637 4034 L
3670 4032 L
3703 4031 L
3737 4030 L
3753 4029 L
3770 4029 L
3803 4029 L
3837 4029 L
3870 4028 L
3903 4028 L
3925 4028 L
3942 4028 L
3970 4028 L
4003 4028 L
4037 4028 L
4070 4028 L
4086 4028 L
LWMC SL dash01 C01 COSGR

GSN 753 3027 M
770 3027 L
803 3027 L
837 3027 L
870 3026 L
903 3026 L
924 3026 L
941 3026 L
970 3025 L
1003 3025 L
1037 3024 L
1070 3024 L
1096 3023 L
1113 3023 L
1137 3023 L
1170 3022 L
1203 3021 L
1237 3020 L
1268 3019 L
1284 3018 L
1303 3018 L
1337 3017 L
1370 3016 L
1403 3015 L
1437 3014 L
1456 3012 L
1473 3012 L
1503 3011 L
1537 3010 L
1570 3009 L
1603 3008 L
1628 3007 L
1644 3007 L
1670 3007 L
1703 3007 L
1737 3007 L
1770 3007 L
1799 3008 L
1816 3009 L
1837 3009 L
1870 3011 L
1903 3014 L
1937 3017 L
1970 3020 L
1987 3024 L
2004 3024 L
2037 3028 L
2070 3033 L
2103 3039 L
2137 3046 L
2159 3053 L
2176 3056 L
2203 3062 L
2237 3071 L
2270 3082 L
2303 3093 L
2331 3107 L
2347 3116 L
2370 3121 L
2403 3138 L
2437 3156 L
2470 3177 L
2503 3199 L
2519 3222 L
2537 3224 L
2570 3250 L
2603 3280 L
2637 3311 L
2670 3345 L
2690 3381 L
2707 3390 L
2737 3419 L
2770 3460 L
2803 3501 L
2837 3544 L
2862 3588 L
2879 3612 L
2903 3632 L
2937 3676 L
2970 3720 L
3003 3762 L
3034 3802 L
3050 3834 L
3070 3840 L
3103 3876 L
3137 3908 L
3170 3937 L
3203 3962 L
3222 3983 L
3239 3986 L
3270 4001 L
3303 4016 L
3337 4027 L
3370 4035 L
3393 4040 L
3410 4042 L
3437 4043 L
3464 4044 L
3481 4044 L
3503 4044 L
3537 4042 L
3565 4040 L
3582 4038 L
3603 4038 L
3637 4035 L
3670 4033 L
3703 4031 L
3737 4030 L
3753 4029 L
3770 4029 L
3803 4029 L
3837 4029 L
3870 4028 L
3903 4028 L
3925 4028 L
3942 4028 L
3970 4028 L
4003 4028 L
4037 4028 L
4070 4028 L
4086 4028 L
LWMC SL dash02 C02 COSGR

GSN 753 2557 M
770 2557 L
803 2557 L
837 2556 L
870 2556 L
903 2556 L
924 2555 L
941 2555 L
970 2555 L
1003 2554 L
1037 2553 L
1070 2553 L
1096 2552 L
1113 2551 L
1137 2551 L
1170 2550 L
1203 2549 L
1237 2547 L
1268 2546 L
1284 2545 L
1303 2545 L
1337 2543 L
1370 2542 L
1403 2540 L
1437 2538 L
1456 2537 L
1473 2536 L
1503 2535 L
1537 2534 L
1570 2532 L
1603 2531 L
1628 2531 L
1644 2530 L
1670 2530 L
1703 2530 L
1737 2531 L
1770 2532 L
1799 2534 L
1816 2536 L
1837 2537 L
1870 2541 L
1903 2545 L
1937 2550 L
1970 2556 L
1987 2563 L
2004 2564 L
2037 2571 L
2070 2581 L
2103 2591 L
2137 2603 L
2159 2616 L
2176 2621 L
2203 2631 L
2237 2648 L
2270 2667 L
2303 2688 L
2331 2711 L
2347 2728 L
2370 2737 L
2403 2766 L
2437 2798 L
2470 2833 L
2503 2871 L
2519 2911 L
2537 2913 L
2570 2958 L
2603 3007 L
2637 3059 L
2670 3114 L
2690 3172 L
2707 3187 L
2737 3233 L
2770 3296 L
2803 3361 L
2837 3426 L
2862 3491 L
2879 3527 L
2903 3556 L
2937 3619 L
2970 3680 L
3003 3738 L
3034 3792 L
3050 3834 L
3070 3842 L
3103 3887 L
3137 3927 L
3170 3962 L
3203 3991 L
3222 4015 L
3239 4018 L
3270 4034 L
3303 4047 L
3337 4055 L
3370 4060 L
3393 4060 L
3410 4060 L
3437 4059 L
3464 4056 L
3481 4053 L
3503 4052 L
3537 4048 L
3565 4044 L
3582 4041 L
3603 4040 L
3637 4037 L
3670 4034 L
3703 4032 L
3737 4031 L
3753 4030 L
3770 4030 L
3803 4029 L
3837 4029 L
3870 4029 L
3903 4029 L
3925 4029 L
3942 4029 L
3970 4029 L
4003 4028 L
4037 4028 L
4070 4028 L
4086 4028 L
LWMC SL dash03 C03 COSGR

GSN 753 2089 M
770 2089 L
803 2089 L
837 2089 L
870 2088 L
903 2088 L
924 2087 L
941 2087 L
970 2086 L
1003 2086 L
1037 2085 L
1070 2084 L
1096 2083 L
1113 2082 L
1137 2082 L
1170 2080 L
1203 2079 L
1237 2077 L
1268 2076 L
1284 2074 L
1303 2074 L
1337 2072 L
1370 2070 L
1403 2068 L
1437 2066 L
1456 2065 L
1473 2064 L
1503 2063 L
1537 2061 L
1570 2060 L
1603 2059 L
1628 2058 L
1644 2058 L
1670 2058 L
1703 2059 L
1737 2060 L
1770 2063 L
1799 2066 L
1816 2070 L
1837 2071 L
1870 2076 L
1903 2083 L
1937 2092 L
1970 2101 L
1987 2112 L
2004 2113 L
2037 2125 L
2070 2139 L
2103 2156 L
2137 2174 L
2159 2194 L
2176 2202 L
2203 2217 L
2237 2243 L
2270 2272 L
2303 2304 L
2331 2339 L
2347 2365 L
2370 2379 L
2403 2422 L
2437 2470 L
2470 2523 L
2503 2579 L
2519 2638 L
2537 2641 L
2570 2707 L
2603 2778 L
2637 2853 L
2670 2931 L
2690 3013 L
2707 3034 L
2737 3098 L
2770 3185 L
2803 3272 L
2837 3359 L
2862 3445 L
2879 3491 L
2903 3529 L
2937 3609 L
2970 3684 L
3003 3755 L
3034 3819 L
3050 3868 L
3070 3877 L
3103 3927 L
3137 3970 L
3170 4005 L
3203 4032 L
3222 4051 L
3239 4053 L
3270 4063 L
3303 4069 L
3337 4071 L
3370 4070 L
3393 4067 L
3410 4065 L
3437 4063 L
3464 4058 L
3481 4055 L
3503 4053 L
3537 4048 L
3565 4044 L
3582 4041 L
3603 4040 L
3637 4037 L
3670 4035 L
3703 4033 L
3737 4031 L
3753 4030 L
3770 4030 L
3803 4030 L
3837 4029 L
3870 4029 L
3903 4029 L
3925 4029 L
3942 4029 L
3970 4029 L
4003 4029 L
4037 4028 L
4070 4028 L
4086 4028 L
LWMC SL dash04 C04 COSGR

GSN 753 1887 M
770 1887 L
803 1887 L
837 1886 L
870 1886 L
903 1885 L
924 1884 L
941 1884 L
970 1884 L
1003 1883 L
1037 1882 L
1070 1881 L
1096 1880 L
1113 1879 L
1137 1879 L
1170 1877 L
1203 1876 L
1237 1874 L
1268 1872 L
1284 1871 L
1303 1871 L
1337 1869 L
1370 1867 L
1403 1864 L
1437 1862 L
1456 1860 L
1473 1860 L
1503 1858 L
1537 1857 L
1570 1855 L
1603 1854 L
1628 1854 L
1644 1854 L
1670 1854 L
1703 1855 L
1737 1857 L
1770 1860 L
1799 1865 L
1816 1869 L
1837 1870 L
1870 1877 L
1903 1885 L
1937 1895 L
1970 1907 L
1987 1920 L
2004 1921 L
2037 1935 L
2070 1952 L
2103 1971 L
2137 1992 L
2159 2016 L
2176 2026 L
2203 2043 L
2237 2074 L
2270 2108 L
2303 2145 L
2331 2187 L
2347 2217 L
2370 2233 L
2403 2284 L
2437 2340 L
2470 2400 L
2503 2466 L
2519 2534 L
2537 2537 L
2570 2614 L
2603 2695 L
2637 2780 L
2670 2870 L
2690 2963 L
2707 2986 L
2737 3058 L
2770 3155 L
2803 3252 L
2837 3348 L
2862 3443 L
2879 3493 L
2903 3534 L
2937 3620 L
2970 3701 L
3003 3775 L
3034 3842 L
3050 3892 L
3070 3901 L
3103 3952 L
3137 3993 L
3170 4026 L
3203 4049 L
3222 4064 L
3239 4065 L
3270 4072 L
3303 4074 L
3337 4074 L
3370 4071 L
3393 4067 L
3410 4065 L
3437 4063 L
3464 4058 L
3481 4054 L
3503 4053 L
3537 4048 L
3565 4044 L
3582 4041 L
3603 4040 L
3637 4037 L
3670 4035 L
3703 4033 L
3737 4031 L
3753 4030 L
3770 4030 L
3803 4030 L
3837 4029 L
3870 4029 L
3903 4029 L
3925 4029 L
3942 4029 L
3970 4029 L
4003 4029 L
4037 4029 L
4070 4028 L
4086 4028 L
LWMC SL dash05 C05 COSGR

GSN 753 1589 M
770 1589 L
803 1589 L
837 1588 L
870 1588 L
903 1587 L
924 1586 L
941 1586 L
970 1585 L
1003 1584 L
1037 1583 L
1070 1582 L
1096 1581 L
1113 1580 L
1137 1580 L
1170 1578 L
1203 1577 L
1237 1575 L
1268 1573 L
1284 1571 L
1303 1571 L
1337 1569 L
1370 1567 L
1403 1564 L
1437 1562 L
1456 1560 L
1473 1560 L
1503 1558 L
1537 1556 L
1570 1555 L
1603 1554 L
1628 1554 L
1644 1554 L
1670 1555 L
1703 1556 L
1737 1559 L
1770 1563 L
1799 1569 L
1816 1574 L
1837 1576 L
1870 1584 L
1903 1595 L
1937 1607 L
1970 1621 L
1987 1637 L
2004 1638 L
2037 1656 L
2070 1676 L
2103 1700 L
2137 1726 L
2159 1756 L
2176 1768 L
2203 1789 L
2237 1826 L
2270 1868 L
2303 1914 L
2331 1964 L
2347 2001 L
2370 2020 L
2403 2082 L
2437 2149 L
2470 2223 L
2503 2302 L
2519 2383 L
2537 2387 L
2570 2478 L
2603 2574 L
2637 2675 L
2670 2780 L
2690 2888 L
2707 2915 L
2737 2998 L
2770 3110 L
2803 3220 L
2837 3329 L
2862 3435 L
2879 3490 L
2903 3536 L
2937 3631 L
2970 3718 L
3003 3797 L
3034 3867 L
3050 3919 L
3070 3928 L
3103 3978 L
3137 4017 L
3170 4045 L
3203 4064 L
3222 4074 L
3239 4075 L
3270 4078 L
3303 4079 L
3337 4077 L
3370 4073 L
3393 4068 L
3410 4066 L
3437 4063 L
3464 4058 L
3481 4055 L
3503 4053 L
3537 4048 L
3565 4044 L
3582 4041 L
3603 4040 L
3637 4037 L
3670 4035 L
3703 4033 L
3737 4031 L
3753 4030 L
3770 4030 L
3803 4030 L
3837 4029 L
3870 4029 L
3903 4029 L
3925 4029 L
3942 4029 L
3970 4029 L
4003 4029 L
4037 4029 L
4070 4028 L
4086 4028 L
LWMC SL dash06 C06 COSGR

GSN 753 790 M
770 790 L
803 790 L
837 789 L
870 789 L
903 788 L
924 787 L
941 787 L
970 786 L
1003 785 L
1037 784 L
1070 782 L
1096 781 L
1113 780 L
1137 779 L
1170 777 L
1203 775 L
1237 773 L
1268 771 L
1284 769 L
1303 769 L
1337 766 L
1370 764 L
1403 761 L
1437 759 L
1456 757 L
1473 757 L
1503 755 L
1537 754 L
1570 753 L
1603 753 L
1628 754 L
1644 755 L
1670 756 L
1703 760 L
1737 765 L
1770 773 L
1799 783 L
1816 792 L
1837 794 L
1870 809 L
1903 826 L
1937 846 L
1970 869 L
1987 895 L
2004 897 L
2037 925 L
2070 959 L
2103 997 L
2137 1039 L
2159 1087 L
2176 1105 L
2203 1140 L
2237 1198 L
2270 1264 L
2303 1336 L
2331 1416 L
2347 1472 L
2370 1503 L
2403 1598 L
2437 1701 L
2470 1813 L
2503 1932 L
2519 2052 L
2537 2058 L
2570 2192 L
2603 2332 L
2637 2476 L
2670 2625 L
2690 2775 L
2707 2812 L
2737 2925 L
2770 3073 L
2803 3217 L
2837 3355 L
2862 3485 L
2879 3551 L
2903 3605 L
2937 3713 L
2970 3809 L
3003 3890 L
3034 3957 L
3050 4001 L
3070 4008 L
3103 4044 L
3137 4066 L
3170 4079 L
3203 4085 L
3222 4086 L
3239 4086 L
3270 4085 L
3303 4082 L
3337 4078 L
3370 4073 L
3393 4068 L
3410 4066 L
3437 4063 L
3464 4058 L
3481 4054 L
3503 4053 L
3537 4048 L
3565 4044 L
3582 4041 L
3603 4040 L
3637 4037 L
3670 4035 L
3703 4033 L
3737 4032 L
3753 4031 L
3770 4031 L
3803 4030 L
3837 4030 L
3870 4029 L
3903 4029 L
3925 4029 L
3942 4029 L
3970 4029 L
4003 4029 L
4037 4029 L
4070 4029 L
4086 4029 L
LWMC SL dash07 C07 COSGR

%
%================
% Legend - Begin
%================
%
GSN 4240 4040 M
4480 4040 L
LWMC SL dash01 C01 COSGR
GSN 4540 4001 M helvM (0.5 uM) show grestore
GSN 4240 3860 M
4480 3860 L
LWMC SL dash02 C02 COSGR
GSN 4540 3821 M helvM (1.0 uM) show grestore
GSN 4240 3680 M
4480 3680 L
LWMC SL dash03 C03 COSGR
GSN 4540 3641 M helvM (1.5 uM) show grestore
GSN 4240 3500 M
4480 3500 L
LWMC SL dash04 C04 COSGR
GSN 4540 3461 M helvM (2.0 uM) show grestore
GSN 4240 3320 M
4480 3320 L
LWMC SL dash05 C05 COSGR
GSN 4540 3281 M helvM (2.5 uM) show grestore
GSN 4240 3140 M
4480 3140 L
LWMC SL dash06 C06 COSGR
GSN 4540 3101 M helvM (3.0 uM) show grestore
GSN 4240 2960 M
4480 2960 L
LWMC SL dash07 C07 COSGR
GSN 4540 2921 M helvM (4.0 uM) show grestore
%
%================
% Legend - End
%================
%

%
% Main frame
%
L10
GSN 
620 620 M
4220 620 L
4220 4220 L
620 4220 L
closepath SGR

%
% X axis: large tics
%
L10
GSN 1130 620 M 0  54 rL SGR
GSN 1130 4220 M 0 -54 rL SGR
helvS (0.0001) 1130 470 xlabel
GSN 1716 620 M 0  54 rL SGR
GSN 1716 4220 M 0 -54 rL SGR
helvS (0.001) 1716 470 xlabel
GSN 2303 620 M 0  54 rL SGR
GSN 2303 4220 M 0 -54 rL SGR
helvS (0.01) 2303 470 xlabel
GSN 2889 620 M 0  54 rL SGR
GSN 2889 4220 M 0 -54 rL SGR
helvS (0.1) 2889 470 xlabel
GSN 3476 620 M 0  54 rL SGR
GSN 3476 4220 M 0 -54 rL SGR
helvS (1) 3476 470 xlabel
GSN 4062 620 M 0  54 rL SGR
GSN 4062 4220 M 0 -54 rL SGR
helvS (10) 4062 470 xlabel
%
% X axis: small tics
%
L5
GSN 720 620 M 0  36 rL SGR
GSN 720 4220 M 0 -36 rL SGR
GSN 824 620 M 0  36 rL SGR
GSN 824 4220 M 0 -36 rL SGR
GSN 897 620 M 0  36 rL SGR
GSN 897 4220 M 0 -36 rL SGR
GSN 954 620 M 0  36 rL SGR
GSN 954 4220 M 0 -36 rL SGR
GSN 1000 620 M 0  36 rL SGR
GSN 1000 4220 M 0 -36 rL SGR
GSN 1039 620 M 0  36 rL SGR
GSN 1039 4220 M 0 -36 rL SGR
GSN 1073 620 M 0  36 rL SGR
GSN 1073 4220 M 0 -36 rL SGR
GSN 1103 620 M 0  36 rL SGR
GSN 1103 4220 M 0 -36 rL SGR
GSN 1307 620 M 0  36 rL SGR
GSN 1307 4220 M 0 -36 rL SGR
GSN 1410 620 M 0  36 rL SGR
GSN 1410 4220 M 0 -36 rL SGR
GSN 1483 620 M 0  36 rL SGR
GSN 1483 4220 M 0 -36 rL SGR
GSN 1540 620 M 0  36 rL SGR
GSN 1540 4220 M 0 -36 rL SGR
GSN 1586 620 M 0  36 rL SGR
GSN 1586 4220 M 0 -36 rL SGR
GSN 1626 620 M 0  36 rL SGR
GSN 1626 4220 M 0 -36 rL SGR
GSN 1660 620 M 0  36 rL SGR
GSN 1660 4220 M 0 -36 rL SGR
GSN 1690 620 M 0  36 rL SGR
GSN 1690 4220 M 0 -36 rL SGR
GSN 1893 620 M 0  36 rL SGR
GSN 1893 4220 M 0 -36 rL SGR
GSN 1996 620 M 0  36 rL SGR
GSN 1996 4220 M 0 -36 rL SGR
GSN 2069 620 M 0  36 rL SGR
GSN 2069 4220 M 0 -36 rL SGR
GSN 2126 620 M 0  36 rL SGR
GSN 2126 4220 M 0 -36 rL SGR
GSN 2173 620 M 0  36 rL SGR
GSN 2173 4220 M 0 -36 rL SGR
GSN 2212 620 M 0  36 rL SGR
GSN 2212 4220 M 0 -36 rL SGR
GSN 2246 620 M 0  36 rL SGR
GSN 2246 4220 M 0 -36 rL SGR
GSN 2276 620 M 0  36 rL SGR
GSN 2276 4220 M 0 -36 rL SGR
GSN 2479 620 M 0  36 rL SGR
GSN 2479 4220 M 0 -36 rL SGR
GSN 2583 620 M 0  36 rL SGR
GSN 2583 4220 M 0 -36 rL SGR
GSN 2656 620 M 0  36 rL SGR
GSN 2656 4220 M 0 -36 rL SGR
GSN 2713 620 M 0  36 rL SGR
GSN 2713 4220 M 0 -36 rL SGR
GSN 2759 620 M 0  36 rL SGR
GSN 2759 4220 M 0 -36 rL SGR
GSN 2798 620 M 0  36 rL SGR
GSN 2798 4220 M 0 -36 rL SGR
GSN 2832 620 M 0  36 rL SGR
GSN 2832 4220 M 0 -36 rL SGR
GSN 2862 620 M 0  36 rL SGR
GSN 2862 4220 M 0 -36 rL SGR
GSN 3066 620 M 0  36 rL SGR
GSN 3066 4220 M 0 -36 rL SGR
GSN 3169 620 M 0  36 rL SGR
GSN 3169 4220 M 0 -36 rL SGR
GSN 3242 620 M 0  36 rL SGR
GSN 3242 4220 M 0 -36 rL SGR
GSN 3299 620 M 0  36 rL SGR
GSN 3299 4220 M 0 -36 rL SGR
GSN 3345 620 M 0  36 rL SGR
GSN 3345 4220 M 0 -36 rL SGR
GSN 3385 620 M 0  36 rL SGR
GSN 3385 4220 M 0 -36 rL SGR
GSN 3419 620 M 0  36 rL SGR
GSN 3419 4220 M 0 -36 rL SGR
GSN 3449 620 M 0  36 rL SGR
GSN 3449 4220 M 0 -36 rL SGR
GSN 3652 620 M 0  36 rL SGR
GSN 3652 4220 M 0 -36 rL SGR
GSN 3755 620 M 0  36 rL SGR
GSN 3755 4220 M 0 -36 rL SGR
GSN 3829 620 M 0  36 rL SGR
GSN 3829 4220 M 0 -36 rL SGR
GSN 3885 620 M 0  36 rL SGR
GSN 3885 4220 M 0 -36 rL SGR
GSN 3932 620 M 0  36 rL SGR
GSN 3932 4220 M 0 -36 rL SGR
GSN 3971 620 M 0  36 rL SGR
GSN 3971 4220 M 0 -36 rL SGR
GSN 4005 620 M 0  36 rL SGR
GSN 4005 4220 M 0 -36 rL SGR
GSN 4035 620 M 0  36 rL SGR
GSN 4035 4220 M 0 -36 rL SGR
%
% Y axis: large tics
%
L10
GSN 620 924 M 54 0 rL SGR
GSN 4220 924 M -54 0 rL SGR
helvS (-1.5) 560 924 ylabel
GSN 620 1959 M 54 0 rL SGR
GSN 4220 1959 M -54 0 rL SGR
helvS (-1) 560 1959 ylabel
GSN 620 2993 M 54 0 rL SGR
GSN 4220 2993 M -54 0 rL SGR
helvS (-0.5) 560 2993 ylabel
GSN 620 4028 M 54 0 rL SGR
GSN 4220 4028 M -54 0 rL SGR
helvS (0) 560 4028 ylabel
%
% Y axis: small tics
%
L5
GSN 620 717 M 36 0 rL SGR
GSN 4220 717 M -36 0 rL SGR
GSN 620 924 M 36 0 rL SGR
GSN 4220 924 M -36 0 rL SGR
GSN 620 1131 M 36 0 rL SGR
GSN 4220 1131 M -36 0 rL SGR
GSN 620 1338 M 36 0 rL SGR
GSN 4220 1338 M -36 0 rL SGR
GSN 620 1545 M 36 0 rL SGR
GSN 4220 1545 M -36 0 rL SGR
GSN 620 1752 M 36 0 rL SGR
GSN 4220 1752 M -36 0 rL SGR
GSN 620 1959 M 36 0 rL SGR
GSN 4220 1959 M -36 0 rL SGR
GSN 620 2165 M 36 0 rL SGR
GSN 4220 2165 M -36 0 rL SGR
GSN 620 2372 M 36 0 rL SGR
GSN 4220 2372 M -36 0 rL SGR
GSN 620 2579 M 36 0 rL SGR
GSN 4220 2579 M -36 0 rL SGR
GSN 620 2786 M 36 0 rL SGR
GSN 4220 2786 M -36 0 rL SGR
GSN 620 2993 M 36 0 rL SGR
GSN 4220 2993 M -36 0 rL SGR
GSN 620 3200 M 36 0 rL SGR
GSN 4220 3200 M -36 0 rL SGR
GSN 620 3407 M 36 0 rL SGR
GSN 4220 3407 M -36 0 rL SGR
GSN 620 3614 M 36 0 rL SGR
GSN 4220 3614 M -36 0 rL SGR
GSN 620 3821 M 36 0 rL SGR
GSN 4220 3821 M -36 0 rL SGR
GSN 620 4028 M 36 0 rL SGR
GSN 4220 4028 M -36 0 rL SGR

%
% X axis
%
GSN L5 620 4028 M 4220 4028 L SDA G50 SGR

%
% X-Axis label:
%
gsave 2420 290 M 
[
[(Helvetica) 180 0 true true 0 (t)]
[(Helvetica) 180 0 true true 0 (i)]
[(Helvetica) 180 0 true true 0 (m)]
[(Helvetica) 180 0 true true 0 (e)]
] 0 MCshow grestore

%
% Y-Axis label:
%
gsave 234 2420 M 
currentpoint gsave translate 90 rotate 0 0 moveto
[
[(Helvetica) 180 0 true true 0 (d)]
[(Helvetica) 180 0 true true 0 (\()]
[(Helvetica) 180 0 true true 0 (s)]
[(Helvetica) 180 0 true true 0 (i)]
[(Helvetica) 180 0 true true 0 (g)]
[(Helvetica) 180 0 true true 0 (n)]
[(Helvetica) 180 0 true true 0 (a)]
[(Helvetica) 180 0 true true 0 (l)]
[(Helvetica) 180 0 true true 0 (\))]
[(Helvetica) 180 0 true true 0 ( )]
[(Helvetica) 180 0 true true 0 (/)]
[(Helvetica) 180 0 true true 0 ( )]
[(Helvetica) 180 0 true true 0 (d)]
[(Helvetica) 180 0 true true 0 (t)]
] 0 MCshow grestore

end
showpage
%%Trailer
%%EOF
