%!PS-Adobe-3.0 EPSF-3.0
%%BoundingBox: 0 0 514 442
%%Creator: BioKin Ltd.
%%DocumentFonts: Symbol Helvetica
%%EndComments
%
/bkdict 256 dict def
bkdict begin
/M {moveto} def 
/R {rmoveto} def
/L {lineto} def
/rL {rlineto} def
/GSN {gsave newpath} def
/SGR {stroke grestore} def
/COSGR {gsave setrgbcolor stroke grestore grestore} def
/SL {setlinewidth} def
/LWMB {12} def             % line width - model curves, black & white
/LWMC {10} def             % line width - model curves, color
/L2 {2.5 setlinewidth} def
/L5 {5 setlinewidth} def
/L10 {10 setlinewidth} def
/G50 {0.5 setgray} def
/SDA {[10  20] 0 setdash} def % axes
/helvT {/Helvetica findfont 100 scalefont setfont} def % tiny
/helvS {/Helvetica findfont 125 scalefont setfont} def % small
/helvM {/Helvetica findfont 150 scalefont setfont} def % medium
/helvL {/Helvetica findfont 175 scalefont setfont} def % large
/xlabel {gsave M dup
   stringwidth exch -0.5 mul exch rmoveto show grestore} def 
/ylabel {gsave M 90 rotate dup
   stringwidth exch -0.5 mul exch rmoveto show grestore} def
/ylabelresid {gsave M dup
   stringwidth exch -1 mul exch rmoveto show grestore} def
% ======
% Shapes
% ======
% Circle:
/Circ {0 360 arc closepath} def
%
% Square:
/Squa {dup dup -0.5 mul dup dup R -2 mul 0 exch rL 1 mul 0 rL dup 0 exch -1 mul rL closepath} def
%
% Triangle Up:
/TriU {dup dup dup -0.4 mul exch -0.5 mul exch R dup 0.5 mul exch rL dup -1 mul exch 0.5 mul exch rL closepath} def 
%
% Triangle Down:
/TriD {dup dup dup 0.4 mul exch -0.5 mul exch R dup 0.5 mul exch -1 mul rL dup 0.5 mul exch rL closepath} def 
%
% Diamond:
/Diam {45 rotate Squa} def
% ======
% Fills
% ======
/GRF {gsave setgray fill grestore} def                    % gray-level Fill
/COF {gsave setrgbcolor fill grestore} def                % color fill
% ======
% Colors
% ======
/C01 {1.00	0.00	0.00} def      % Red
/C02 {0.00	0.00	1.00} def      % Blue
/C03 {0.00	0.39	0.00} def      % Dark Green
/C04 {0.78	0.08	0.52} def      % Medium Violet Red
/C05 {0.55	0.27	0.07} def      % Saddle Brown
/C06 {0.10	0.70	0.70} def      % (cyan)
/C07 {1.00	0.55	0.00} def      % Dark Orange
/C08 {0.63	0.13	0.94} def      % Purple
/C09 {0.00	0.75	1.00} def      % Deep Sky Blue
/C10 {0.20	0.80	0.20} def      % Lime Green
/C11 {0.47	0.53	0.60} def      % Light Slate Gray
/C12 {0.00	0.00	0.00} def      % Black            % or: {0.19	0.31	0.31} def      % Dark Slate Gray
%
/LGR {0.75} def % light gray
/DGR {0.33} def % dark gray
%
% =============
% Dash patterns
% =============
/dash01 { [80  20] 0 setdash } def
/dash02 { [40  20] 0 setdash } def
/dash03 { [80  20  10  20] 0 setdash } def
/dash04 { [40  20  10  20] 0 setdash } def
/dash05 { [80  20  10  10  10  20] 0 setdash } def
/dash06 { [40  20  10  10  10  20] 0 setdash } def
/dash07 { [10  10] 0 setdash } def
%
/MFshow {
   { dup 5 get 3 ge
     { 5 get 3 eq {gsave} {grestore} ifelse }
     {dup dup 0 get findfont exch 1 get scalefont setfont
     [ currentpoint ] exch dup 2 get 0 exch R dup 5 get 2 ne {dup dup 6
     get exch 4 get {show} {stringwidth pop 0 R} ifelse }if dup 5 get 0 eq
     {dup 3 get {2 get neg 0 exch R pop} {pop aload pop M} ifelse} {dup 5
     get 1 eq {dup 2 get exch dup 3 get exch 6 get stringwidth pop -2 div
     dup 0 R} {dup 6 get stringwidth pop -2 div 0 R 6 get
     show 2 index {aload pop M neg 3 -1 roll neg R pop pop} {pop pop pop
     pop aload pop M} ifelse }ifelse }ifelse }
     ifelse }
   forall} bind def
/MFwidth {0 exch {dup 3 get{dup dup 0 get findfont exch 1 get scalefont
     setfont 6 get stringwidth pop add} {pop} ifelse} forall} bind def
/MCshow { currentpoint stroke M
  exch dup MFwidth -2 div 3 -1 roll R MFshow } def
%
end
%%EndProlog
bkdict begin
0.1 0.1 scale
%
% Model curves:
%

GSN 753 3519 M
770 3519 L
803 3519 L
837 3519 L
870 3519 L
903 3519 L
924 3519 L
941 3519 L
970 3519 L
1003 3519 L
1037 3519 L
1070 3519 L
1096 3519 L
1113 3519 L
1137 3519 L
1170 3519 L
1203 3519 L
1237 3519 L
1268 3519 L
1284 3519 L
1303 3519 L
1337 3519 L
1370 3519 L
1403 3520 L
1437 3520 L
1456 3520 L
1473 3520 L
1503 3520 L
1537 3520 L
1570 3521 L
1603 3521 L
1628 3521 L
1644 3522 L
1670 3522 L
1703 3522 L
1737 3523 L
1770 3523 L
1799 3524 L
1816 3525 L
1837 3525 L
1870 3526 L
1903 3527 L
1937 3528 L
1970 3529 L
1987 3531 L
2004 3531 L
2037 3532 L
2070 3534 L
2103 3536 L
2137 3539 L
2159 3542 L
2176 3543 L
2203 3545 L
2237 3548 L
2270 3552 L
2303 3557 L
2331 3562 L
2347 3566 L
2370 3568 L
2403 3574 L
2437 3581 L
2470 3589 L
2503 3598 L
2519 3607 L
2537 3608 L
2570 3619 L
2603 3630 L
2637 3643 L
2670 3657 L
2690 3673 L
2707 3677 L
2737 3689 L
2770 3707 L
2803 3725 L
2837 3745 L
2862 3766 L
2879 3777 L
2903 3787 L
2937 3808 L
2970 3830 L
3003 3852 L
3034 3873 L
3050 3891 L
3070 3894 L
3103 3914 L
3137 3933 L
3170 3950 L
3203 3966 L
3222 3980 L
3239 3981 L
3270 3992 L
3303 4002 L
3337 4010 L
3370 4017 L
3393 4022 L
3410 4023 L
3437 4025 L
3464 4027 L
3481 4027 L
3503 4027 L
3537 4027 L
3565 4026 L
3582 4025 L
3603 4025 L
3637 4024 L
3670 4022 L
3703 4021 L
3737 4020 L
3753 4019 L
3770 4019 L
3803 4019 L
3837 4018 L
3870 4018 L
3903 4018 L
3925 4018 L
3942 4018 L
3970 4018 L
4003 4018 L
4037 4018 L
4070 4018 L
4086 4018 L
LWMC SL dash01 C01 COSGR

GSN 753 3016 M
770 3016 L
803 3016 L
837 3016 L
870 3016 L
903 3016 L
924 3016 L
941 3016 L
970 3016 L
1003 3016 L
1037 3016 L
1070 3016 L
1096 3016 L
1113 3016 L
1137 3016 L
1170 3016 L
1203 3017 L
1237 3017 L
1268 3017 L
1284 3017 L
1303 3017 L
1337 3017 L
1370 3018 L
1403 3018 L
1437 3019 L
1456 3019 L
1473 3019 L
1503 3020 L
1537 3020 L
1570 3021 L
1603 3022 L
1628 3023 L
1644 3023 L
1670 3024 L
1703 3025 L
1737 3027 L
1770 3028 L
1799 3030 L
1816 3032 L
1837 3032 L
1870 3035 L
1903 3037 L
1937 3040 L
1970 3044 L
1987 3048 L
2004 3048 L
2037 3052 L
2070 3057 L
2103 3063 L
2137 3069 L
2159 3077 L
2176 3080 L
2203 3085 L
2237 3094 L
2270 3105 L
2303 3116 L
2331 3129 L
2347 3139 L
2370 3144 L
2403 3160 L
2437 3178 L
2470 3198 L
2503 3220 L
2519 3242 L
2537 3244 L
2570 3270 L
2603 3298 L
2637 3329 L
2670 3362 L
2690 3397 L
2707 3406 L
2737 3434 L
2770 3472 L
2803 3512 L
2837 3554 L
2862 3596 L
2879 3618 L
2903 3638 L
2937 3680 L
2970 3721 L
3003 3761 L
3034 3799 L
3050 3829 L
3070 3835 L
3103 3868 L
3137 3898 L
3170 3925 L
3203 3949 L
3222 3969 L
3239 3972 L
3270 3986 L
3303 4000 L
3337 4011 L
3370 4019 L
3393 4025 L
3410 4027 L
3437 4028 L
3464 4030 L
3481 4030 L
3503 4030 L
3537 4029 L
3565 4028 L
3582 4027 L
3603 4026 L
3637 4024 L
3670 4023 L
3703 4021 L
3737 4020 L
3753 4019 L
3770 4019 L
3803 4019 L
3837 4018 L
3870 4018 L
3903 4018 L
3925 4018 L
3942 4018 L
3970 4018 L
4003 4018 L
4037 4018 L
4070 4018 L
4086 4018 L
LWMC SL dash02 C02 COSGR

GSN 753 2519 M
770 2519 L
803 2519 L
837 2519 L
870 2519 L
903 2519 L
924 2519 L
941 2519 L
970 2519 L
1003 2519 L
1037 2520 L
1070 2520 L
1096 2520 L
1113 2520 L
1137 2520 L
1170 2520 L
1203 2521 L
1237 2521 L
1268 2521 L
1284 2522 L
1303 2522 L
1337 2522 L
1370 2523 L
1403 2524 L
1437 2525 L
1456 2526 L
1473 2526 L
1503 2527 L
1537 2528 L
1570 2529 L
1603 2531 L
1628 2533 L
1644 2534 L
1670 2535 L
1703 2537 L
1737 2540 L
1770 2543 L
1799 2546 L
1816 2549 L
1837 2550 L
1870 2554 L
1903 2559 L
1937 2565 L
1970 2571 L
1987 2579 L
2004 2579 L
2037 2587 L
2070 2596 L
2103 2607 L
2137 2619 L
2159 2632 L
2176 2637 L
2203 2647 L
2237 2664 L
2270 2683 L
2303 2704 L
2331 2727 L
2347 2744 L
2370 2753 L
2403 2782 L
2437 2814 L
2470 2849 L
2503 2887 L
2519 2927 L
2537 2929 L
2570 2974 L
2603 3022 L
2637 3073 L
2670 3128 L
2690 3185 L
2707 3200 L
2737 3245 L
2770 3307 L
2803 3369 L
2837 3433 L
2862 3496 L
2879 3530 L
2903 3559 L
2937 3620 L
2970 3678 L
3003 3733 L
3034 3785 L
3050 3825 L
3070 3832 L
3103 3875 L
3137 3913 L
3170 3946 L
3203 3974 L
3222 3997 L
3239 3999 L
3270 4015 L
3303 4029 L
3337 4039 L
3370 4045 L
3393 4048 L
3410 4048 L
3437 4048 L
3464 4047 L
3481 4045 L
3503 4044 L
3537 4040 L
3565 4036 L
3582 4033 L
3603 4031 L
3637 4028 L
3670 4025 L
3703 4022 L
3737 4021 L
3753 4019 L
3770 4019 L
3803 4019 L
3837 4018 L
3870 4018 L
3903 4018 L
3925 4018 L
3942 4018 L
3970 4018 L
4003 4018 L
4037 4018 L
4070 4018 L
4086 4018 L
LWMC SL dash03 C03 COSGR

GSN 753 2037 M
770 2037 L
803 2037 L
837 2037 L
870 2037 L
903 2037 L
924 2037 L
941 2037 L
970 2037 L
1003 2038 L
1037 2038 L
1070 2038 L
1096 2038 L
1113 2038 L
1137 2039 L
1170 2039 L
1203 2040 L
1237 2040 L
1268 2041 L
1284 2041 L
1303 2042 L
1337 2042 L
1370 2043 L
1403 2045 L
1437 2046 L
1456 2047 L
1473 2048 L
1503 2049 L
1537 2051 L
1570 2053 L
1603 2056 L
1628 2058 L
1644 2060 L
1670 2062 L
1703 2065 L
1737 2070 L
1770 2074 L
1799 2080 L
1816 2084 L
1837 2086 L
1870 2093 L
1903 2101 L
1937 2109 L
1970 2120 L
1987 2131 L
2004 2132 L
2037 2144 L
2070 2158 L
2103 2175 L
2137 2193 L
2159 2214 L
2176 2222 L
2203 2237 L
2237 2263 L
2270 2292 L
2303 2325 L
2331 2361 L
2347 2386 L
2370 2400 L
2403 2444 L
2437 2492 L
2470 2544 L
2503 2601 L
2519 2660 L
2537 2663 L
2570 2729 L
2603 2799 L
2637 2873 L
2670 2951 L
2690 3032 L
2707 3052 L
2737 3115 L
2770 3199 L
2803 3284 L
2837 3369 L
2862 3452 L
2879 3496 L
2903 3533 L
2937 3610 L
2970 3682 L
3003 3749 L
3034 3811 L
3050 3857 L
3070 3865 L
3103 3913 L
3137 3953 L
3170 3987 L
3203 4014 L
3222 4034 L
3239 4037 L
3270 4049 L
3303 4058 L
3337 4062 L
3370 4063 L
3393 4061 L
3410 4059 L
3437 4057 L
3464 4052 L
3481 4048 L
3503 4046 L
3537 4040 L
3565 4035 L
3582 4032 L
3603 4030 L
3637 4027 L
3670 4024 L
3703 4022 L
3737 4020 L
3753 4019 L
3770 4019 L
3803 4019 L
3837 4018 L
3870 4018 L
3903 4018 L
3925 4018 L
3942 4018 L
3970 4018 L
4003 4018 L
4037 4018 L
4070 4018 L
4086 4018 L
LWMC SL dash04 C04 COSGR

GSN 753 1821 M
770 1821 L
803 1821 L
837 1821 L
870 1821 L
903 1821 L
924 1822 L
941 1822 L
970 1822 L
1003 1822 L
1037 1822 L
1070 1822 L
1096 1823 L
1113 1823 L
1137 1823 L
1170 1824 L
1203 1824 L
1237 1825 L
1268 1826 L
1284 1827 L
1303 1827 L
1337 1828 L
1370 1829 L
1403 1830 L
1437 1832 L
1456 1834 L
1473 1834 L
1503 1836 L
1537 1838 L
1570 1841 L
1603 1843 L
1628 1847 L
1644 1849 L
1670 1851 L
1703 1855 L
1737 1860 L
1770 1866 L
1799 1872 L
1816 1878 L
1837 1879 L
1870 1888 L
1903 1897 L
1937 1907 L
1970 1919 L
1987 1933 L
2004 1934 L
2037 1948 L
2070 1965 L
2103 1985 L
2137 2007 L
2159 2031 L
2176 2041 L
2203 2059 L
2237 2089 L
2270 2124 L
2303 2162 L
2331 2204 L
2347 2234 L
2370 2251 L
2403 2302 L
2437 2358 L
2470 2419 L
2503 2485 L
2519 2553 L
2537 2556 L
2570 2632 L
2603 2713 L
2637 2798 L
2670 2886 L
2690 2978 L
2707 3001 L
2737 3072 L
2770 3167 L
2803 3262 L
2837 3356 L
2862 3447 L
2879 3495 L
2903 3535 L
2937 3618 L
2970 3696 L
3003 3767 L
3034 3830 L
3050 3878 L
3070 3886 L
3103 3935 L
3137 3975 L
3170 4007 L
3203 4031 L
3222 4049 L
3239 4051 L
3270 4061 L
3303 4067 L
3337 4068 L
3370 4067 L
3393 4063 L
3410 4061 L
3437 4057 L
3464 4051 L
3481 4047 L
3503 4045 L
3537 4040 L
3565 4034 L
3582 4031 L
3603 4030 L
3637 4026 L
3670 4024 L
3703 4022 L
3737 4020 L
3753 4019 L
3770 4019 L
3803 4019 L
3837 4018 L
3870 4018 L
3903 4018 L
3925 4018 L
3942 4018 L
3970 4018 L
4003 4018 L
4037 4018 L
4070 4018 L
4086 4018 L
LWMC SL dash05 C05 COSGR

GSN 753 1564 M
770 1564 L
803 1564 L
837 1564 L
870 1564 L
903 1564 L
924 1564 L
941 1564 L
970 1564 L
1003 1564 L
1037 1565 L
1070 1565 L
1096 1566 L
1113 1566 L
1137 1566 L
1170 1567 L
1203 1567 L
1237 1568 L
1268 1569 L
1284 1570 L
1303 1570 L
1337 1572 L
1370 1573 L
1403 1575 L
1437 1577 L
1456 1579 L
1473 1579 L
1503 1581 L
1537 1584 L
1570 1587 L
1603 1591 L
1628 1595 L
1644 1597 L
1670 1599 L
1703 1605 L
1737 1611 L
1770 1617 L
1799 1625 L
1816 1632 L
1837 1634 L
1870 1644 L
1903 1655 L
1937 1668 L
1970 1682 L
1987 1698 L
2004 1700 L
2037 1717 L
2070 1738 L
2103 1761 L
2137 1787 L
2159 1817 L
2176 1828 L
2203 1849 L
2237 1886 L
2270 1927 L
2303 1972 L
2331 2023 L
2347 2058 L
2370 2078 L
2403 2138 L
2437 2205 L
2470 2277 L
2503 2354 L
2519 2433 L
2537 2437 L
2570 2526 L
2603 2620 L
2637 2718 L
2670 2820 L
2690 2924 L
2707 2951 L
2737 3031 L
2770 3138 L
2803 3244 L
2837 3348 L
2862 3449 L
2879 3502 L
2903 3545 L
2937 3634 L
2970 3717 L
3003 3791 L
3034 3857 L
3050 3905 L
3070 3913 L
3103 3960 L
3137 3999 L
3170 4028 L
3203 4049 L
3222 4063 L
3239 4065 L
3270 4071 L
3303 4074 L
3337 4073 L
3370 4069 L
3393 4064 L
3410 4061 L
3437 4057 L
3464 4051 L
3481 4047 L
3503 4045 L
3537 4039 L
3565 4034 L
3582 4031 L
3603 4030 L
3637 4026 L
3670 4023 L
3703 4021 L
3737 4020 L
3753 4019 L
3770 4019 L
3803 4019 L
3837 4018 L
3870 4018 L
3903 4018 L
3925 4018 L
3942 4018 L
3970 4018 L
4003 4018 L
4037 4018 L
4070 4018 L
4086 4018 L
LWMC SL dash06 C06 COSGR

GSN 753 753 M
770 753 L
803 753 L
837 753 L
870 753 L
903 753 L
924 754 L
941 754 L
970 754 L
1003 755 L
1037 755 L
1070 756 L
1096 756 L
1113 757 L
1137 757 L
1170 758 L
1203 760 L
1237 761 L
1268 762 L
1284 764 L
1303 764 L
1337 766 L
1370 769 L
1403 771 L
1437 775 L
1456 778 L
1473 779 L
1503 782 L
1537 787 L
1570 792 L
1603 798 L
1628 804 L
1644 808 L
1670 812 L
1703 821 L
1737 830 L
1770 842 L
1799 854 L
1816 865 L
1837 868 L
1870 885 L
1903 903 L
1937 924 L
1970 947 L
1987 974 L
2004 976 L
2037 1004 L
2070 1037 L
2103 1075 L
2137 1117 L
2159 1164 L
2176 1182 L
2203 1217 L
2237 1275 L
2270 1340 L
2303 1411 L
2331 1490 L
2347 1546 L
2370 1576 L
2403 1670 L
2437 1772 L
2470 1881 L
2503 1998 L
2519 2116 L
2537 2122 L
2570 2252 L
2603 2389 L
2637 2529 L
2670 2673 L
2690 2818 L
2707 2854 L
2737 2962 L
2770 3104 L
2803 3242 L
2837 3374 L
2862 3497 L
2879 3560 L
2903 3610 L
2937 3712 L
2970 3802 L
3003 3878 L
3034 3942 L
3050 3984 L
3070 3992 L
3103 4030 L
3137 4056 L
3170 4073 L
3203 4083 L
3222 4086 L
3239 4086 L
3270 4085 L
3303 4081 L
3337 4076 L
3370 4069 L
3393 4063 L
3410 4060 L
3437 4056 L
3464 4049 L
3481 4045 L
3503 4043 L
3537 4038 L
3565 4033 L
3582 4030 L
3603 4029 L
3637 4026 L
3670 4023 L
3703 4021 L
3737 4020 L
3753 4019 L
3770 4019 L
3803 4019 L
3837 4018 L
3870 4018 L
3903 4018 L
3925 4018 L
3942 4018 L
3970 4018 L
4003 4018 L
4037 4018 L
4070 4018 L
4086 4018 L
LWMC SL dash07 C07 COSGR

%
%================
% Legend - Begin
%================
%
GSN 4240 4040 M
4480 4040 L
LWMC SL dash01 C01 COSGR
GSN 4540 4001 M helvM (0.5 uM) show grestore
GSN 4240 3860 M
4480 3860 L
LWMC SL dash02 C02 COSGR
GSN 4540 3821 M helvM (1.0 uM) show grestore
GSN 4240 3680 M
4480 3680 L
LWMC SL dash03 C03 COSGR
GSN 4540 3641 M helvM (1.5 uM) show grestore
GSN 4240 3500 M
4480 3500 L
LWMC SL dash04 C04 COSGR
GSN 4540 3461 M helvM (2.0 uM) show grestore
GSN 4240 3320 M
4480 3320 L
LWMC SL dash05 C05 COSGR
GSN 4540 3281 M helvM (2.5 uM) show grestore
GSN 4240 3140 M
4480 3140 L
LWMC SL dash06 C06 COSGR
GSN 4540 3101 M helvM (3.0 uM) show grestore
GSN 4240 2960 M
4480 2960 L
LWMC SL dash07 C07 COSGR
GSN 4540 2921 M helvM (4.0 uM) show grestore
%
%================
% Legend - End
%================
%

%
% Main frame
%
L10
GSN 
620 620 M
4220 620 L
4220 4220 L
620 4220 L
closepath SGR

%
% X axis: large tics
%
L10
GSN 1130 620 M 0  54 rL SGR
GSN 1130 4220 M 0 -54 rL SGR
helvS (0.0001) 1130 470 xlabel
GSN 1716 620 M 0  54 rL SGR
GSN 1716 4220 M 0 -54 rL SGR
helvS (0.001) 1716 470 xlabel
GSN 2303 620 M 0  54 rL SGR
GSN 2303 4220 M 0 -54 rL SGR
helvS (0.01) 2303 470 xlabel
GSN 2889 620 M 0  54 rL SGR
GSN 2889 4220 M 0 -54 rL SGR
helvS (0.1) 2889 470 xlabel
GSN 3476 620 M 0  54 rL SGR
GSN 3476 4220 M 0 -54 rL SGR
helvS (1) 3476 470 xlabel
GSN 4062 620 M 0  54 rL SGR
GSN 4062 4220 M 0 -54 rL SGR
helvS (10) 4062 470 xlabel
%
% X axis: small tics
%
L5
GSN 720 620 M 0  36 rL SGR
GSN 720 4220 M 0 -36 rL SGR
GSN 824 620 M 0  36 rL SGR
GSN 824 4220 M 0 -36 rL SGR
GSN 897 620 M 0  36 rL SGR
GSN 897 4220 M 0 -36 rL SGR
GSN 954 620 M 0  36 rL SGR
GSN 954 4220 M 0 -36 rL SGR
GSN 1000 620 M 0  36 rL SGR
GSN 1000 4220 M 0 -36 rL SGR
GSN 1039 620 M 0  36 rL SGR
GSN 1039 4220 M 0 -36 rL SGR
GSN 1073 620 M 0  36 rL SGR
GSN 1073 4220 M 0 -36 rL SGR
GSN 1103 620 M 0  36 rL SGR
GSN 1103 4220 M 0 -36 rL SGR
GSN 1307 620 M 0  36 rL SGR
GSN 1307 4220 M 0 -36 rL SGR
GSN 1410 620 M 0  36 rL SGR
GSN 1410 4220 M 0 -36 rL SGR
GSN 1483 620 M 0  36 rL SGR
GSN 1483 4220 M 0 -36 rL SGR
GSN 1540 620 M 0  36 rL SGR
GSN 1540 4220 M 0 -36 rL SGR
GSN 1586 620 M 0  36 rL SGR
GSN 1586 4220 M 0 -36 rL SGR
GSN 1626 620 M 0  36 rL SGR
GSN 1626 4220 M 0 -36 rL SGR
GSN 1660 620 M 0  36 rL SGR
GSN 1660 4220 M 0 -36 rL SGR
GSN 1690 620 M 0  36 rL SGR
GSN 1690 4220 M 0 -36 rL SGR
GSN 1893 620 M 0  36 rL SGR
GSN 1893 4220 M 0 -36 rL SGR
GSN 1996 620 M 0  36 rL SGR
GSN 1996 4220 M 0 -36 rL SGR
GSN 2069 620 M 0  36 rL SGR
GSN 2069 4220 M 0 -36 rL SGR
GSN 2126 620 M 0  36 rL SGR
GSN 2126 4220 M 0 -36 rL SGR
GSN 2173 620 M 0  36 rL SGR
GSN 2173 4220 M 0 -36 rL SGR
GSN 2212 620 M 0  36 rL SGR
GSN 2212 4220 M 0 -36 rL SGR
GSN 2246 620 M 0  36 rL SGR
GSN 2246 4220 M 0 -36 rL SGR
GSN 2276 620 M 0  36 rL SGR
GSN 2276 4220 M 0 -36 rL SGR
GSN 2479 620 M 0  36 rL SGR
GSN 2479 4220 M 0 -36 rL SGR
GSN 2583 620 M 0  36 rL SGR
GSN 2583 4220 M 0 -36 rL SGR
GSN 2656 620 M 0  36 rL SGR
GSN 2656 4220 M 0 -36 rL SGR
GSN 2713 620 M 0  36 rL SGR
GSN 2713 4220 M 0 -36 rL SGR
GSN 2759 620 M 0  36 rL SGR
GSN 2759 4220 M 0 -36 rL SGR
GSN 2798 620 M 0  36 rL SGR
GSN 2798 4220 M 0 -36 rL SGR
GSN 2832 620 M 0  36 rL SGR
GSN 2832 4220 M 0 -36 rL SGR
GSN 2862 620 M 0  36 rL SGR
GSN 2862 4220 M 0 -36 rL SGR
GSN 3066 620 M 0  36 rL SGR
GSN 3066 4220 M 0 -36 rL SGR
GSN 3169 620 M 0  36 rL SGR
GSN 3169 4220 M 0 -36 rL SGR
GSN 3242 620 M 0  36 rL SGR
GSN 3242 4220 M 0 -36 rL SGR
GSN 3299 620 M 0  36 rL SGR
GSN 3299 4220 M 0 -36 rL SGR
GSN 3345 620 M 0  36 rL SGR
GSN 3345 4220 M 0 -36 rL SGR
GSN 3385 620 M 0  36 rL SGR
GSN 3385 4220 M 0 -36 rL SGR
GSN 3419 620 M 0  36 rL SGR
GSN 3419 4220 M 0 -36 rL SGR
GSN 3449 620 M 0  36 rL SGR
GSN 3449 4220 M 0 -36 rL SGR
GSN 3652 620 M 0  36 rL SGR
GSN 3652 4220 M 0 -36 rL SGR
GSN 3755 620 M 0  36 rL SGR
GSN 3755 4220 M 0 -36 rL SGR
GSN 3829 620 M 0  36 rL SGR
GSN 3829 4220 M 0 -36 rL SGR
GSN 3885 620 M 0  36 rL SGR
GSN 3885 4220 M 0 -36 rL SGR
GSN 3932 620 M 0  36 rL SGR
GSN 3932 4220 M 0 -36 rL SGR
GSN 3971 620 M 0  36 rL SGR
GSN 3971 4220 M 0 -36 rL SGR
GSN 4005 620 M 0  36 rL SGR
GSN 4005 4220 M 0 -36 rL SGR
GSN 4035 620 M 0  36 rL SGR
GSN 4035 4220 M 0 -36 rL SGR
%
% Y axis: large tics
%
L10
GSN 620 965 M 54 0 rL SGR
GSN 4220 965 M -54 0 rL SGR
helvS (-1.5) 560 965 ylabel
GSN 620 1983 M 54 0 rL SGR
GSN 4220 1983 M -54 0 rL SGR
helvS (-1) 560 1983 ylabel
GSN 620 3000 M 54 0 rL SGR
GSN 4220 3000 M -54 0 rL SGR
helvS (-0.5) 560 3000 ylabel
GSN 620 4018 M 54 0 rL SGR
GSN 4220 4018 M -54 0 rL SGR
helvS (0) 560 4018 ylabel
%
% Y axis: small tics
%
L5
GSN 620 762 M 36 0 rL SGR
GSN 4220 762 M -36 0 rL SGR
GSN 620 965 M 36 0 rL SGR
GSN 4220 965 M -36 0 rL SGR
GSN 620 1169 M 36 0 rL SGR
GSN 4220 1169 M -36 0 rL SGR
GSN 620 1372 M 36 0 rL SGR
GSN 4220 1372 M -36 0 rL SGR
GSN 620 1576 M 36 0 rL SGR
GSN 4220 1576 M -36 0 rL SGR
GSN 620 1779 M 36 0 rL SGR
GSN 4220 1779 M -36 0 rL SGR
GSN 620 1983 M 36 0 rL SGR
GSN 4220 1983 M -36 0 rL SGR
GSN 620 2186 M 36 0 rL SGR
GSN 4220 2186 M -36 0 rL SGR
GSN 620 2390 M 36 0 rL SGR
GSN 4220 2390 M -36 0 rL SGR
GSN 620 2593 M 36 0 rL SGR
GSN 4220 2593 M -36 0 rL SGR
GSN 620 2797 M 36 0 rL SGR
GSN 4220 2797 M -36 0 rL SGR
GSN 620 3000 M 36 0 rL SGR
GSN 4220 3000 M -36 0 rL SGR
GSN 620 3204 M 36 0 rL SGR
GSN 4220 3204 M -36 0 rL SGR
GSN 620 3408 M 36 0 rL SGR
GSN 4220 3408 M -36 0 rL SGR
GSN 620 3611 M 36 0 rL SGR
GSN 4220 3611 M -36 0 rL SGR
GSN 620 3815 M 36 0 rL SGR
GSN 4220 3815 M -36 0 rL SGR
GSN 620 4018 M 36 0 rL SGR
GSN 4220 4018 M -36 0 rL SGR

%
% X axis
%
GSN L5 620 4018 M 4220 4018 L SDA G50 SGR

%
% X-Axis label:
%
gsave 2420 290 M 
[
[(Helvetica) 180 0 true true 0 (t)]
[(Helvetica) 180 0 true true 0 (i)]
[(Helvetica) 180 0 true true 0 (m)]
[(Helvetica) 180 0 true true 0 (e)]
] 0 MCshow grestore

%
% Y-Axis label:
%
gsave 234 2420 M 
currentpoint gsave translate 90 rotate 0 0 moveto
[
[(Helvetica) 180 0 true true 0 (d)]
[(Helvetica) 180 0 true true 0 (\()]
[(Helvetica) 180 0 true true 0 (s)]
[(Helvetica) 180 0 true true 0 (i)]
[(Helvetica) 180 0 true true 0 (g)]
[(Helvetica) 180 0 true true 0 (n)]
[(Helvetica) 180 0 true true 0 (a)]
[(Helvetica) 180 0 true true 0 (l)]
[(Helvetica) 180 0 true true 0 (\))]
[(Helvetica) 180 0 true true 0 ( )]
[(Helvetica) 180 0 true true 0 (/)]
[(Helvetica) 180 0 true true 0 ( )]
[(Helvetica) 180 0 true true 0 (d)]
[(Helvetica) 180 0 true true 0 (t)]
] 0 MCshow grestore

end
showpage
%%Trailer
%%EOF
