%!PS-Adobe-3.0 EPSF-3.0
%%BoundingBox: 0 0 514 550
%%Creator: BioKin Ltd.
%%DocumentFonts: Symbol Helvetica
%%EndComments
%
/bkdict 256 dict def
bkdict begin
/M {moveto} def 
/R {rmoveto} def
/L {lineto} def
/rL {rlineto} def
/GSN {gsave newpath} def
/SGR {stroke grestore} def
/COSGR {gsave setrgbcolor stroke grestore grestore} def
/SL {setlinewidth} def
/LWMB {12} def             % line width - model curves, black & white
/LWMC {10} def             % line width - model curves, color
/L2 {2.5 setlinewidth} def
/L5 {5 setlinewidth} def
/L10 {10 setlinewidth} def
/G50 {0.5 setgray} def
/SDA {[10  20] 0 setdash} def % axes
/helvT {/Helvetica findfont 100 scalefont setfont} def % tiny
/helvS {/Helvetica findfont 125 scalefont setfont} def % small
/helvM {/Helvetica findfont 150 scalefont setfont} def % medium
/helvL {/Helvetica findfont 175 scalefont setfont} def % large
/xlabel {gsave M dup
   stringwidth exch -0.5 mul exch rmoveto show grestore} def 
/ylabel {gsave M 90 rotate dup
   stringwidth exch -0.5 mul exch rmoveto show grestore} def
/ylabelresid {gsave M dup
   stringwidth exch -1 mul exch rmoveto show grestore} def
% ======
% Shapes
% ======
% Circle:
/Circ {0 360 arc closepath} def
%
% Square:
/Squa {dup dup -0.5 mul dup dup R -2 mul 0 exch rL 1 mul 0 rL dup 0 exch -1 mul rL closepath} def
%
% Triangle Up:
/TriU {dup dup dup -0.4 mul exch -0.5 mul exch R dup 0.5 mul exch rL dup -1 mul exch 0.5 mul exch rL closepath} def 
%
% Triangle Down:
/TriD {dup dup dup 0.4 mul exch -0.5 mul exch R dup 0.5 mul exch -1 mul rL dup 0.5 mul exch rL closepath} def 
%
% Diamond:
/Diam {45 rotate Squa} def
% ======
% Fills
% ======
/GRF {gsave setgray fill grestore} def                    % gray-level Fill
/COF {gsave setrgbcolor fill grestore} def                % color fill
% ======
% Colors
% ======
/C01 {1.00	0.00	0.00} def      % Red
/C02 {0.00	0.00	1.00} def      % Blue
/C03 {0.00	0.39	0.00} def      % Dark Green
/C04 {0.78	0.08	0.52} def      % Medium Violet Red
/C05 {0.55	0.27	0.07} def      % Saddle Brown
/C06 {0.10	0.70	0.70} def      % (cyan)
/C07 {1.00	0.55	0.00} def      % Dark Orange
/C08 {0.63	0.13	0.94} def      % Purple
/C09 {0.00	0.75	1.00} def      % Deep Sky Blue
/C10 {0.20	0.80	0.20} def      % Lime Green
/C11 {0.47	0.53	0.60} def      % Light Slate Gray
/C12 {0.00	0.00	0.00} def      % Black            % or: {0.19	0.31	0.31} def      % Dark Slate Gray
%
/LGR {0.75} def % light gray
/DGR {0.33} def % dark gray
%
% =============
% Dash patterns
% =============
/dash01 { [80  20] 0 setdash } def
/dash02 { [40  20] 0 setdash } def
/dash03 { [80  20  10  20] 0 setdash } def
/dash04 { [40  20  10  20] 0 setdash } def
/dash05 { [80  20  10  10  10  20] 0 setdash } def
/dash06 { [40  20  10  10  10  20] 0 setdash } def
/dash07 { [10  10] 0 setdash } def
%
/MFshow {
   { dup 5 get 3 ge
     { 5 get 3 eq {gsave} {grestore} ifelse }
     {dup dup 0 get findfont exch 1 get scalefont setfont
     [ currentpoint ] exch dup 2 get 0 exch R dup 5 get 2 ne {dup dup 6
     get exch 4 get {show} {stringwidth pop 0 R} ifelse }if dup 5 get 0 eq
     {dup 3 get {2 get neg 0 exch R pop} {pop aload pop M} ifelse} {dup 5
     get 1 eq {dup 2 get exch dup 3 get exch 6 get stringwidth pop -2 div
     dup 0 R} {dup 6 get stringwidth pop -2 div 0 R 6 get
     show 2 index {aload pop M neg 3 -1 roll neg R pop pop} {pop pop pop
     pop aload pop M} ifelse }ifelse }ifelse }
     ifelse }
   forall} bind def
/MFwidth {0 exch {dup 3 get{dup dup 0 get findfont exch 1 get scalefont
     setfont 6 get stringwidth pop add} {pop} ifelse} forall} bind def
/MCshow { currentpoint stroke M
  exch dup MFwidth -2 div 3 -1 roll R MFshow } def
%
end
%%EndProlog
bkdict begin
0.1 0.1 scale
%
% Residuals:
%
GSN 620 4260 M
620 4863 L
620 4698 L
620 4654 L
620 4649 L
620 4316 L
620 4657 L
620 4441 L
620 4429 L
620 4323 L
620 4063 L
620 4280 L
620 4069 L
620 3987 L
620 4066 L
620 3923 L
620 3865 L
620 3979 L
620 3717 L
620 3880 L
620 3922 L
620 3793 L
620 3919 L
620 3685 L
620 3820 L
620 3867 L
620 3585 L
620 3686 L
620 3653 L
620 3752 L
620 3512 L
620 3367 L
620 3739 L
620 3431 L
620 3595 L
620 3492 L
620 3431 L
620 3443 L
620 3399 L
620 3350 L
620 3186 L
620 3400 L
620 3293 L
620 3282 L
620 3279 L
620 3162 L
620 3280 L
620 3070 L
620 3075 L
620 3144 L
620 3142 L
620 2987 L
620 2922 L
620 2886 L
620 3134 L
620 2999 L
620 3107 L
620 2970 L
620 3059 L
620 3075 L
620 2925 L
620 3062 L
620 3051 L
620 3129 L
620 2931 L
620 2826 L
620 2826 L
620 2864 L
620 2635 L
620 2896 L
620 2847 L
620 2766 L
620 3055 L
620 2671 L
620 2802 L
620 2946 L
620 2626 L
620 2606 L
620 2817 L
620 2737 L
620 2730 L
620 2673 L
620 2698 L
620 2787 L
620 2600 L
620 2482 L
620 2622 L
620 2406 L
620 2459 L
620 2469 L
620 2611 L
620 2355 L
620 2554 L
620 2438 L
620 2341 L
620 2364 L
620 2302 L
620 2287 L
620 2404 L
620 2296 L
620 2484 L
620 2321 L
620 2401 L
620 2229 L
620 2378 L
620 2224 L
620 2331 L
620 2277 L
620 2422 L
620 2375 L
620 2391 L
620 2272 L
620 2170 L
620 2136 L
620 2292 L
620 2267 L
620 2325 L
620 2471 L
620 2387 L
620 2302 L
620 2303 L
620 2267 L
620 2326 L
620 2211 L
620 2378 L
620 2327 L
620 2197 L
620 2247 L
620 2310 L
620 2316 L
620 2284 L
620 2389 L
620 2301 L
620 2422 L
620 2164 L
620 2441 L
620 2232 L
620 2574 L
620 2415 L
620 2486 L
620 2422 L
620 2216 L
620 2473 L
620 2476 L
620 2457 L
620 2398 L
620 2524 L
620 2275 L
620 2392 L
620 2342 L
620 2486 L
620 2404 L
620 2458 L
620 2416 L
620 2309 L
620 2648 L
620 2456 L
620 2423 L
620 2550 L
620 2260 L
620 2551 L
620 2600 L
620 2524 L
620 2477 L
620 2540 L
620 2477 L
620 2498 L
620 2481 L
620 2542 L
620 2587 L
620 2567 L
620 2466 L
620 2565 L
620 2662 L
620 2596 L
620 2504 L
620 2600 L
620 2460 L
620 2642 L
620 2616 L
620 2527 L
620 2713 L
620 2578 L
620 2619 L
620 2553 L
620 2501 L
620 2540 L
620 2589 L
620 2531 L
620 2890 L
620 2714 L
620 2575 L
620 2727 L
620 2512 L
620 2750 L
620 2780 L
620 2802 L
620 2705 L
620 2662 L
620 2697 L
620 2622 L
620 2638 L
620 2781 L
620 2705 L
620 2715 L
620 2697 L
620 2817 L
620 2742 L
620 2645 L
620 2722 L
620 2605 L
620 2856 L
620 2475 L
620 2773 L
620 2677 L
620 2812 L
620 2719 L
620 2706 L
620 2748 L
620 2754 L
620 2806 L
620 2864 L
620 2636 L
620 2731 L
620 2713 L
620 2787 L
620 2622 L
620 2827 L
620 2791 L
620 2683 L
620 2832 L
620 2709 L
620 2803 L
620 2724 L
620 2717 L
620 2819 L
620 2860 L
620 2899 L
620 2715 L
620 2819 L
620 2894 L
620 2763 L
620 2893 L
620 2759 L
620 2596 L
620 2831 L
620 2894 L
620 2837 L
620 2716 L
620 2745 L
620 2987 L
620 2785 L
620 2811 L
620 2880 L
620 3010 L
620 2691 L
620 2672 L
620 2824 L
620 2942 L
620 3058 L
620 2855 L
620 2795 L
620 2977 L
620 2835 L
620 2897 L
620 2748 L
620 2825 L
620 2631 L
620 2808 L
620 2741 L
620 3015 L
620 2946 L
620 3087 L
620 2790 L
620 2820 L
620 3002 L
620 2942 L
620 2952 L
620 2794 L
620 2693 L
620 2864 L
620 3005 L
620 2666 L
620 3158 L
620 3010 L
620 3061 L
620 2974 L
620 3102 L
620 3011 L
620 2843 L
620 2818 L
620 3026 L
620 3016 L
620 2986 L
620 3023 L
620 2982 L
620 3155 L
620 3010 L
620 2894 L
620 3102 L
620 3018 L
620 3142 L
620 3214 L
620 3029 L
620 2938 L
620 2975 L
620 3018 L
620 3080 L
620 2882 L
620 2818 L
620 3038 L
620 3001 L
620 3230 L
620 3107 L
620 3042 L
620 2991 L
620 3011 L
620 3074 L
620 3256 L
620 3129 L
620 3159 L
620 3083 L
620 2908 L
620 3097 L
620 3080 L
620 2932 L
620 3026 L
620 3157 L
620 3084 L
620 2979 L
620 3210 L
620 2959 L
620 3024 L
620 3042 L
620 3240 L
620 2871 L
620 3052 L
620 3021 L
620 2993 L
620 3000 L
620 2985 L
620 2938 L
620 2909 L
620 3034 L
620 3053 L
620 3195 L
620 2791 L
620 3067 L
620 3070 L
620 3011 L
620 3043 L
620 3026 L
620 3032 L
620 3133 L
620 2950 L
620 3104 L
620 2890 L
620 2907 L
620 2891 L
620 2831 L
620 2966 L
620 2890 L
620 2842 L
620 2888 L
620 3146 L
620 2829 L
620 2952 L
620 2871 L
620 2845 L
620 2884 L
620 3144 L
620 2775 L
620 2816 L
620 2771 L
620 2839 L
620 2768 L
620 2754 L
620 2753 L
620 2805 L
620 2861 L
620 2640 L
620 2842 L
620 2734 L
620 2929 L
620 2892 L
620 2770 L
620 2837 L
620 2677 L
620 2668 L
620 2769 L
620 2704 L
620 2837 L
620 2711 L
620 2885 L
620 2721 L
620 2808 L
620 2933 L
620 2688 L
620 2724 L
620 2762 L
620 2626 L
620 2628 L
620 2867 L
620 2845 L
620 2476 L
620 2710 L
620 2911 L
620 2707 L
620 2837 L
620 2879 L
620 2881 L
620 2612 L
620 2879 L
620 2642 L
620 2855 L
620 2608 L
620 2626 L
620 2602 L
620 2733 L
620 2786 L
620 2862 L
620 2728 L
620 2747 L
620 2755 L
620 2730 L
620 2746 L
620 2800 L
620 2682 L
620 2702 L
620 2850 L
620 2467 L
620 2515 L
620 2741 L
620 2722 L
620 2741 L
620 2824 L
620 2618 L
620 2824 L
620 2769 L
620 2637 L
620 2864 L
620 2841 L
620 2723 L
620 2816 L
620 2702 L
620 2746 L
620 2693 L
620 2764 L
620 2833 L
620 2766 L
620 2691 L
620 2450 L
620 2808 L
620 2858 L
620 2808 L
620 2575 L
620 2590 L
620 2731 L
620 2851 L
620 2649 L
620 2599 L
620 2843 L
620 2782 L
620 2699 L
620 2590 L
620 2585 L
620 2720 L
620 2670 L
620 2614 L
620 2624 L
620 2515 L
620 2730 L
620 2548 L
620 2699 L
620 2702 L
620 2809 L
620 2638 L
620 2652 L
620 2823 L
620 2777 L
620 2664 L
620 2531 L
620 2603 L
620 2674 L
620 2685 L
620 2565 L
620 2726 L
620 2740 L
620 2740 L
620 2725 L
620 2755 L
620 2448 L
620 2646 L
620 2533 L
620 2680 L
620 2752 L
620 2509 L
620 2915 L
620 2675 L
620 2806 L
620 2745 L
620 2505 L
620 2547 L
620 2554 L
620 2742 L
620 2559 L
620 2452 L
620 2792 L
620 2592 L
620 2616 L
620 2673 L
620 2536 L
620 2576 L
620 2794 L
620 2579 L
620 2741 L
620 2619 L
620 2653 L
620 2859 L
620 2706 L
620 2787 L
620 2485 L
620 2640 L
620 2680 L
620 2769 L
620 2585 L
620 2627 L
620 2721 L
620 2496 L
620 2697 L
620 2662 L
620 2710 L
620 2838 L
L2 C07 COSGR

%
%================
% Legend - Begin
%================
%
GSN 4240 5180 M
4480 5180 L
LWMC SL  C07 COSGR
GSN 4540 5141 M helvM (4.0 uM) show grestore
%
%================
% Legend - End
%================
%

%
% Main frame
%
L10
GSN 
620 1700 M
4220 1700 L
4220 5300 L
620 5300 L
closepath SGR

%
% X axis: large tics
%
L10
%
% X axis: small tics
%
L5
%
% Y axis: large tics
%
L10
GSN 620 2041 M 54 0 rL SGR
GSN 4220 2041 M -54 0 rL SGR
helvS (-0.02) 560 2041 ylabel
GSN 620 2829 M 54 0 rL SGR
GSN 4220 2829 M -54 0 rL SGR
helvS (0) 560 2829 ylabel
GSN 620 3618 M 54 0 rL SGR
GSN 4220 3618 M -54 0 rL SGR
helvS (0.02) 560 3618 ylabel
GSN 620 4406 M 54 0 rL SGR
GSN 4220 4406 M -54 0 rL SGR
helvS (0.04) 560 4406 ylabel
GSN 620 5194 M 54 0 rL SGR
GSN 4220 5194 M -54 0 rL SGR
helvS (0.06) 560 5194 ylabel
%
% Y axis: small tics
%
L5
GSN 620 1844 M 36 0 rL SGR
GSN 4220 1844 M -36 0 rL SGR
GSN 620 2041 M 36 0 rL SGR
GSN 4220 2041 M -36 0 rL SGR
GSN 620 2238 M 36 0 rL SGR
GSN 4220 2238 M -36 0 rL SGR
GSN 620 2435 M 36 0 rL SGR
GSN 4220 2435 M -36 0 rL SGR
GSN 620 2632 M 36 0 rL SGR
GSN 4220 2632 M -36 0 rL SGR
GSN 620 2829 M 36 0 rL SGR
GSN 4220 2829 M -36 0 rL SGR
GSN 620 3026 M 36 0 rL SGR
GSN 4220 3026 M -36 0 rL SGR
GSN 620 3223 M 36 0 rL SGR
GSN 4220 3223 M -36 0 rL SGR
GSN 620 3420 M 36 0 rL SGR
GSN 4220 3420 M -36 0 rL SGR
GSN 620 3618 M 36 0 rL SGR
GSN 4220 3618 M -36 0 rL SGR
GSN 620 3815 M 36 0 rL SGR
GSN 4220 3815 M -36 0 rL SGR
GSN 620 4012 M 36 0 rL SGR
GSN 4220 4012 M -36 0 rL SGR
GSN 620 4209 M 36 0 rL SGR
GSN 4220 4209 M -36 0 rL SGR
GSN 620 4406 M 36 0 rL SGR
GSN 4220 4406 M -36 0 rL SGR
GSN 620 4603 M 36 0 rL SGR
GSN 4220 4603 M -36 0 rL SGR
GSN 620 4800 M 36 0 rL SGR
GSN 4220 4800 M -36 0 rL SGR
GSN 620 4997 M 36 0 rL SGR
GSN 4220 4997 M -36 0 rL SGR
GSN 620 5194 M 36 0 rL SGR
GSN 4220 5194 M -36 0 rL SGR

%
% X axis - residual panel
%
GSN L5 620 2829 M 4220 2829 L SDA G50 SGR

%
% X-Axis label:
%
gsave 620 1370 M 
[
[(Helvetica) 180 0 true true 0 (t)]
[(Helvetica) 180 0 true true 0 (i)]
[(Helvetica) 180 0 true true 0 (m)]
[(Helvetica) 180 0 true true 0 (e)]
] 0 MCshow grestore

%
% Y-Axis label:
%
gsave 234 3499 M 
currentpoint gsave translate 90 rotate 0 0 moveto
[
[(Helvetica) 180 0 true true 0 (r)]
[(Helvetica) 180 0 true true 0 (e)]
[(Helvetica) 180 0 true true 0 (s)]
[(Helvetica) 180 0 true true 0 (i)]
[(Helvetica) 180 0 true true 0 (d)]
[(Helvetica) 180 0 true true 0 (u)]
[(Helvetica) 180 0 true true 0 (a)]
[(Helvetica) 180 0 true true 0 (l)]
[(Helvetica) 180 0 true true 0 (s)]
] 0 MCshow grestore

end
showpage
%%Trailer
%%EOF
