%!PS-Adobe-3.0 EPSF-3.0
%%BoundingBox: 0 0 514 550
%%Creator: BioKin Ltd.
%%DocumentFonts: Symbol Helvetica
%%EndComments
%
/bkdict 256 dict def
bkdict begin
/M {moveto} def 
/R {rmoveto} def
/L {lineto} def
/rL {rlineto} def
/GSN {gsave newpath} def
/SGR {stroke grestore} def
/COSGR {gsave setrgbcolor stroke grestore grestore} def
/SL {setlinewidth} def
/LWMB {12} def             % line width - model curves, black & white
/LWMC {10} def             % line width - model curves, color
/L2 {2.5 setlinewidth} def
/L5 {5 setlinewidth} def
/L10 {10 setlinewidth} def
/G50 {0.5 setgray} def
/SDA {[10  20] 0 setdash} def % axes
/helvT {/Helvetica findfont 100 scalefont setfont} def % tiny
/helvS {/Helvetica findfont 125 scalefont setfont} def % small
/helvM {/Helvetica findfont 150 scalefont setfont} def % medium
/helvL {/Helvetica findfont 175 scalefont setfont} def % large
/xlabel {gsave M dup
   stringwidth exch -0.5 mul exch rmoveto show grestore} def 
/ylabel {gsave M 90 rotate dup
   stringwidth exch -0.5 mul exch rmoveto show grestore} def
/ylabelresid {gsave M dup
   stringwidth exch -1 mul exch rmoveto show grestore} def
% ======
% Shapes
% ======
% Circle:
/Circ {0 360 arc closepath} def
%
% Square:
/Squa {dup dup -0.5 mul dup dup R -2 mul 0 exch rL 1 mul 0 rL dup 0 exch -1 mul rL closepath} def
%
% Triangle Up:
/TriU {dup dup dup -0.4 mul exch -0.5 mul exch R dup 0.5 mul exch rL dup -1 mul exch 0.5 mul exch rL closepath} def 
%
% Triangle Down:
/TriD {dup dup dup 0.4 mul exch -0.5 mul exch R dup 0.5 mul exch -1 mul rL dup 0.5 mul exch rL closepath} def 
%
% Diamond:
/Diam {45 rotate Squa} def
% ======
% Fills
% ======
/GRF {gsave setgray fill grestore} def                    % gray-level Fill
/COF {gsave setrgbcolor fill grestore} def                % color fill
% ======
% Colors
% ======
/C01 {1.00	0.00	0.00} def      % Red
/C02 {0.00	0.00	1.00} def      % Blue
/C03 {0.00	0.39	0.00} def      % Dark Green
/C04 {0.78	0.08	0.52} def      % Medium Violet Red
/C05 {0.55	0.27	0.07} def      % Saddle Brown
/C06 {0.10	0.70	0.70} def      % (cyan)
/C07 {1.00	0.55	0.00} def      % Dark Orange
/C08 {0.63	0.13	0.94} def      % Purple
/C09 {0.00	0.75	1.00} def      % Deep Sky Blue
/C10 {0.20	0.80	0.20} def      % Lime Green
/C11 {0.47	0.53	0.60} def      % Light Slate Gray
/C12 {0.00	0.00	0.00} def      % Black            % or: {0.19	0.31	0.31} def      % Dark Slate Gray
%
/LGR {0.75} def % light gray
/DGR {0.33} def % dark gray
%
% =============
% Dash patterns
% =============
/dash01 { [80  20] 0 setdash } def
/dash02 { [40  20] 0 setdash } def
/dash03 { [80  20  10  20] 0 setdash } def
/dash04 { [40  20  10  20] 0 setdash } def
/dash05 { [80  20  10  10  10  20] 0 setdash } def
/dash06 { [40  20  10  10  10  20] 0 setdash } def
/dash07 { [10  10] 0 setdash } def
%
/MFshow {
   { dup 5 get 3 ge
     { 5 get 3 eq {gsave} {grestore} ifelse }
     {dup dup 0 get findfont exch 1 get scalefont setfont
     [ currentpoint ] exch dup 2 get 0 exch R dup 5 get 2 ne {dup dup 6
     get exch 4 get {show} {stringwidth pop 0 R} ifelse }if dup 5 get 0 eq
     {dup 3 get {2 get neg 0 exch R pop} {pop aload pop M} ifelse} {dup 5
     get 1 eq {dup 2 get exch dup 3 get exch 6 get stringwidth pop -2 div
     dup 0 R} {dup 6 get stringwidth pop -2 div 0 R 6 get
     show 2 index {aload pop M neg 3 -1 roll neg R pop pop} {pop pop pop
     pop aload pop M} ifelse }ifelse }ifelse }
     ifelse }
   forall} bind def
/MFwidth {0 exch {dup 3 get{dup dup 0 get findfont exch 1 get scalefont
     setfont 6 get stringwidth pop add} {pop} ifelse} forall} bind def
/MCshow { currentpoint stroke M
  exch dup MFwidth -2 div 3 -1 roll R MFshow } def
%
end
%%EndProlog
bkdict begin
0.1 0.1 scale
%
% Model curves:
%

GSN 753 5065 M
753 5065 L
786 5058 L
820 5051 L
853 5043 L
886 5034 L
903 5029 L
919 5025 L
953 5015 L
986 5004 L
1020 4994 L
1053 4983 L
1053 4983 L
1086 4972 L
1120 4962 L
1153 4952 L
1186 4943 L
1203 4939 L
1220 4935 L
1253 4928 L
1286 4923 L
1320 4918 L
1353 4914 L
1353 4914 L
1386 4910 L
1420 4907 L
1453 4904 L
1486 4900 L
1503 4898 L
1520 4896 L
1553 4892 L
1586 4887 L
1620 4881 L
1653 4874 L
1653 4874 L
1686 4866 L
1720 4856 L
1753 4845 L
1786 4833 L
1804 4825 L
1820 4818 L
1853 4801 L
1886 4782 L
1920 4759 L
1953 4733 L
1954 4732 L
1986 4703 L
2020 4669 L
2053 4630 L
2086 4586 L
2104 4561 L
2120 4536 L
2153 4480 L
2186 4417 L
2220 4347 L
2253 4269 L
2254 4267 L
2286 4184 L
2320 4092 L
2353 3993 L
2386 3888 L
2404 3830 L
2420 3778 L
2453 3664 L
2486 3550 L
2520 3436 L
2553 3325 L
2554 3321 L
2586 3220 L
2620 3123 L
2653 3037 L
2686 2962 L
2704 2927 L
2720 2900 L
2753 2850 L
2786 2813 L
2820 2787 L
2853 2770 L
2854 2770 L
2886 2760 L
2920 2755 L
2953 2752 L
2986 2751 L
3004 2751 L
3020 2751 L
3053 2751 L
3068 2751 L
3086 2751 L
3120 2751 L
3153 2751 L
3155 2751 L
3186 2751 L
3220 2751 L
3253 2751 L
3286 2751 L
3305 2751 L
3320 2751 L
3353 2751 L
3386 2751 L
3420 2751 L
3453 2751 L
3455 2751 L
3486 2751 L
3520 2751 L
3553 2751 L
3586 2751 L
3605 2751 L
3620 2751 L
3653 2751 L
3686 2751 L
3720 2751 L
3753 2751 L
3755 2751 L
3786 2751 L
3820 2751 L
3853 2751 L
3886 2751 L
3905 2751 L
3920 2751 L
3953 2751 L
3986 2751 L
4020 2751 L
4053 2751 L
4086 2751 L
LWMC SL  C01 COSGR

%
% Experimental data:
%
GSN 773 5166 M
1625 4717 L
1773 4798 L
1860 5160 L
1922 4953 L
1970 4789 L
2009 4810 L
2043 4798 L
2072 4844 L
2097 4736 L
2120 4758 L
2140 4411 L
2159 4984 L
2176 4485 L
2192 4696 L
2207 4779 L
2221 4696 L
2234 4761 L
2247 4346 L
2259 4519 L
2270 4414 L
2280 4228 L
2290 4306 L
2300 4423 L
2309 4167 L
2318 4479 L
2326 4649 L
2335 4396 L
2342 4553 L
2350 4287 L
2357 4117 L
2364 3736 L
2371 3950 L
2378 3987 L
2384 4284 L
2391 4269 L
2397 4067 L
2403 4083 L
2409 4188 L
2414 4167 L
2420 4315 L
2425 4535 L
2430 3841 L
2435 3987 L
2440 3594 L
2445 3767 L
2450 3606 L
2455 3941 L
2459 3956 L
2464 3866 L
2468 3971 L
2472 4068 L
2476 3544 L
2481 3037 L
2485 3334 L
2489 3634 L
2492 3841 L
2496 4080 L
2500 3634 L
2504 3467 L
2507 3306 L
2511 3789 L
2514 3250 L
2518 3430 L
2521 3776 L
2525 3674 L
2528 3210 L
2531 3501 L
2534 3470 L
2538 3284 L
2541 3232 L
2544 3634 L
2547 3365 L
2550 3485 L
2553 3204 L
2556 3461 L
2559 3473 L
2561 3417 L
2564 3315 L
2567 3322 L
2570 3408 L
2580 3120 L
2590 3068 L
2600 3170 L
2609 3284 L
2618 3201 L
2627 3238 L
2635 3263 L
2643 2761 L
2650 2854 L
2658 2928 L
2665 3402 L
2672 2770 L
2678 2378 L
2685 3117 L
2691 2666 L
2697 2947 L
2703 2501 L
2709 2907 L
2714 2777 L
2720 2588 L
2725 2412 L
2730 2774 L
2735 2600 L
2740 2018 L
2745 2545 L
2750 2594 L
2755 2059 L
2759 2650 L
2764 2409 L
2768 2724 L
2772 2223 L
2777 2764 L
2781 2749 L
2785 2631 L
2789 2440 L
2793 2455 L
2796 2501 L
2800 2306 L
2804 2387 L
2808 2501 L
2811 2470 L
2815 2440 L
2818 2105 L
2822 2340 L
2825 2285 L
2828 2077 L
2831 2248 L
2835 2520 L
2838 2121 L
2841 2393 L
2844 2139 L
2847 2164 L
2850 2084 L
2853 2275 L
2856 2220 L
2859 2142 L
2862 2164 L
2864 2405 L
2867 2087 L
2870 2278 L
2873 2046 L
2875 2111 L
2878 2176 L
2880 2120 L
2883 2077 L
2886 2021 L
2888 2068 L
2891 2037 L
2893 2229 L
2895 2337 L
2898 2096 L
2900 2325 L
2902 2638 L
2905 2105 L
2907 2028 L
2909 2059 L
2912 2433 L
2914 2220 L
2916 2210 L
2918 2668 L
2920 2560 L
2922 1981 L
2925 2377 L
2927 2093 L
2929 2346 L
2931 2344 L
2933 2319 L
2935 2365 L
2937 2362 L
2939 2514 L
2941 2105 L
2943 2628 L
2945 2607 L
2947 2421 L
2948 2771 L
2950 1833 L
2952 2198 L
2954 2529 L
2956 2213 L
2958 2303 L
2959 2325 L
2961 2313 L
2963 2433 L
2965 1895 L
2966 2467 L
2968 2603 L
2970 3173 L
2972 2359 L
2973 2996 L
2975 2059 L
2977 2684 L
2978 2545 L
2980 2083 L
2982 2511 L
2983 2597 L
2985 2548 L
2986 2201 L
2988 2545 L
2989 2309 L
2991 2368 L
2993 2393 L
2994 2529 L
2996 2597 L
2997 2235 L
2999 2319 L
3000 2303 L
3002 2733 L
3003 2631 L
3005 2238 L
3006 2631 L
3007 2483 L
3009 2656 L
3010 2910 L
3012 2774 L
3013 2712 L
3014 2752 L
3016 2761 L
3017 3000 L
3019 2566 L
3020 2644 L
3021 2953 L
3023 2807 L
3024 2477 L
3025 2526 L
3027 2839 L
3028 2433 L
3029 2879 L
3031 2223 L
3032 2520 L
3033 2749 L
3034 2956 L
3036 2916 L
3037 2724 L
3038 2690 L
3039 2535 L
3041 2532 L
3042 2637 L
3043 2526 L
3044 2758 L
3045 2464 L
3047 2436 L
3048 2418 L
3049 2656 L
3050 2585 L
3051 2579 L
3053 2668 L
3054 2443 L
3055 2709 L
3056 2944 L
3057 2823 L
3058 2421 L
3059 2987 L
3061 3114 L
3062 2789 L
3063 2551 L
3064 2467 L
3065 2675 L
3066 2672 L
3067 2443 L
3068 2297 L
3069 2501 L
3070 2260 L
3071 2427 L
3073 3204 L
3074 2969 L
3075 2718 L
3076 2764 L
3077 3154 L
3078 3086 L
3079 2737 L
3080 2322 L
3081 2353 L
3082 3052 L
3083 3157 L
3084 2758 L
3085 3145 L
3086 2938 L
3087 2436 L
3088 2761 L
3089 2504 L
3112 2659 L
3133 2876 L
3152 2795 L
3170 2656 L
3186 3046 L
3201 2600 L
3216 2987 L
3229 3123 L
3241 2962 L
3253 2845 L
3264 3071 L
3275 3108 L
3285 3021 L
3295 3204 L
3304 3278 L
3313 2836 L
3322 2981 L
3330 2808 L
3338 3111 L
3346 2567 L
3353 2783 L
3360 2792 L
3367 2842 L
3374 3148 L
3380 2817 L
3387 3043 L
3393 3346 L
3399 2901 L
3405 2947 L
3410 2898 L
3416 3111 L
3421 2752 L
3426 2832 L
3431 2907 L
3436 2922 L
3441 2876 L
3446 2897 L
3451 3089 L
3455 2619 L
3460 3315 L
3464 3402 L
3469 2789 L
3473 3092 L
3477 2433 L
3481 2907 L
3485 3287 L
3489 2706 L
3493 2563 L
3496 2814 L
3500 3046 L
3504 3343 L
3507 2879 L
3511 2576 L
3514 2860 L
3518 2910 L
3521 3179 L
3525 2792 L
3528 2870 L
3531 2768 L
3534 2666 L
3537 3096 L
3540 2925 L
3543 2718 L
3546 3040 L
3549 2836 L
3552 2962 L
3555 3223 L
3558 2777 L
3561 2650 L
3564 3130 L
3566 3037 L
3575 2616 L
3586 2628 L
3595 2854 L
3605 2582 L
3613 2814 L
3622 2916 L
3630 2802 L
3638 3380 L
3646 2532 L
3653 3024 L
3660 3021 L
3667 3309 L
3674 2712 L
3681 2820 L
3687 2727 L
3693 2969 L
3699 2548 L
3705 2811 L
3710 2705 L
3716 2749 L
3721 3000 L
3727 2566 L
3732 3108 L
3737 3191 L
3742 2898 L
3746 2684 L
3751 2560 L
3756 3068 L
3760 2904 L
3764 3052 L
3769 2498 L
3773 2814 L
3777 2919 L
3781 2808 L
3785 2919 L
3789 2737 L
3793 3124 L
3797 2780 L
3800 2950 L
3804 2842 L
3808 2904 L
3811 2913 L
3815 2823 L
3818 2851 L
3821 3111 L
3825 2616 L
3828 2774 L
3831 2966 L
3834 3055 L
3838 2644 L
3841 3086 L
3844 2888 L
3847 3238 L
3850 2526 L
3853 3124 L
3855 2959 L
3858 2845 L
3861 2699 L
3864 2860 L
3867 2891 L
3869 3083 L
3872 3055 L
3875 2511 L
3877 2628 L
3880 2829 L
3882 2678 L
3885 2891 L
3887 3092 L
3890 2507 L
3892 2622 L
3895 2638 L
3897 3009 L
3899 2412 L
3902 2752 L
3904 2588 L
3906 2792 L
3908 2867 L
3911 2975 L
3913 3049 L
3915 2922 L
3917 2730 L
3919 2984 L
3921 2984 L
3923 2972 L
3926 2901 L
3928 2783 L
3930 2353 L
3932 2687 L
3934 3244 L
3936 3108 L
3938 2808 L
3940 2941 L
3942 3096 L
3943 2409 L
3945 3003 L
3947 2969 L
3949 2529 L
3951 2885 L
3953 2446 L
3955 2786 L
3956 3089 L
3958 3176 L
3960 2702 L
3962 3260 L
3963 2582 L
3965 2891 L
3967 2867 L
3969 3226 L
3970 2539 L
3972 3133 L
3974 3089 L
3975 2895 L
3977 2761 L
3978 2829 L
3980 2768 L
3982 3229 L
3983 2758 L
3985 2928 L
3986 3130 L
3988 2817 L
3990 2888 L
3991 2808 L
3993 3266 L
3994 2804 L
3996 2640 L
3997 3124 L
3999 2990 L
4000 3068 L
4001 2631 L
4003 3031 L
4004 2972 L
4006 3167 L
4007 3244 L
4009 3092 L
4010 2854 L
4011 3006 L
4013 2882 L
4014 3012 L
4016 3436 L
4017 2944 L
4018 3092 L
4020 2792 L
4021 3068 L
4022 2835 L
4024 2972 L
4025 2959 L
4026 3037 L
4028 2706 L
4029 2798 L
4030 2560 L
4031 3062 L
4033 3424 L
4034 2396 L
4035 3232 L
4036 2885 L
4038 2783 L
4039 3099 L
4040 3176 L
4041 2839 L
4042 3256 L
4044 3105 L
4045 2783 L
4046 2947 L
4047 2913 L
4048 2966 L
4050 3219 L
4051 3077 L
4052 2876 L
4053 3510 L
4054 2891 L
4055 2926 L
4056 3136 L
4058 3086 L
4059 2594 L
4060 2947 L
4061 2492 L
4062 2826 L
4063 3009 L
4064 3117 L
4065 2792 L
4066 3071 L
L2 C01 COSGR

%
%================
% Legend - Begin
%================
%
GSN 4240 5180 M
4480 5180 L
LWMC SL  C01 COSGR
GSN 4540 5141 M helvM (0.5 uM) show grestore
%
%================
% Legend - End
%================
%

%
% Residuals:
%
GSN 773 1245 M
1625 1116 L
1773 1175 L
1860 1369 L
1922 1289 L
1970 1228 L
2009 1257 L
2043 1269 L
2072 1309 L
2097 1274 L
2120 1301 L
2140 1150 L
2159 1443 L
2176 1218 L
2192 1335 L
2207 1390 L
2221 1365 L
2234 1410 L
2247 1224 L
2259 1322 L
2270 1284 L
2280 1208 L
2290 1258 L
2300 1327 L
2309 1216 L
2318 1379 L
2326 1473 L
2335 1362 L
2342 1449 L
2350 1332 L
2357 1261 L
2364 1088 L
2371 1201 L
2378 1229 L
2384 1383 L
2391 1385 L
2397 1298 L
2403 1315 L
2409 1375 L
2414 1373 L
2420 1454 L
2425 1569 L
2430 1242 L
2435 1321 L
2440 1139 L
2445 1231 L
2450 1161 L
2455 1330 L
2459 1345 L
2464 1309 L
2468 1367 L
2472 1421 L
2476 1175 L
2481 937 L
2485 1088 L
2489 1239 L
2492 1346 L
2496 1467 L
2500 1258 L
2504 1183 L
2507 1112 L
2511 1351 L
2514 1097 L
2518 1189 L
2521 1362 L
2525 1318 L
2528 1099 L
2531 1245 L
2534 1235 L
2538 1150 L
2541 1130 L
2544 1329 L
2547 1204 L
2550 1267 L
2553 1136 L
2556 1264 L
2559 1275 L
2561 1252 L
2564 1207 L
2567 1215 L
2570 1261 L
2580 1137 L
2590 1127 L
2600 1190 L
2609 1258 L
2618 1230 L
2627 1259 L
2635 1281 L
2643 1049 L
2650 1103 L
2658 1147 L
2665 1384 L
2672 1087 L
2678 904 L
2685 1268 L
2691 1056 L
2697 1198 L
2703 988 L
2709 1189 L
2714 1131 L
2720 1044 L
2725 963 L
2730 1142 L
2735 1062 L
2740 785 L
2745 1042 L
2750 1069 L
2755 813 L
2759 1101 L
2764 987 L
2768 1142 L
2772 902 L
2777 1166 L
2781 1161 L
2785 1106 L
2789 1015 L
2793 1024 L
2796 1048 L
2800 955 L
2804 996 L
2808 1052 L
2811 1039 L
2815 1025 L
2818 864 L
2822 979 L
2825 953 L
2828 854 L
2831 937 L
2835 1069 L
2838 877 L
2841 1010 L
2844 888 L
2847 900 L
2850 862 L
2853 955 L
2856 929 L
2859 892 L
2862 903 L
2864 1020 L
2867 867 L
2870 960 L
2873 848 L
2875 880 L
2878 911 L
2880 885 L
2883 864 L
2886 838 L
2888 860 L
2891 846 L
2893 939 L
2895 991 L
2898 875 L
2900 985 L
2902 1137 L
2905 880 L
2907 843 L
2909 858 L
2912 1039 L
2914 936 L
2916 931 L
2918 1152 L
2920 1100 L
2922 821 L
2925 1012 L
2927 875 L
2929 998 L
2931 996 L
2933 984 L
2935 1007 L
2937 1005 L
2939 1079 L
2941 882 L
2943 1134 L
2945 1124 L
2947 1034 L
2948 1203 L
2950 750 L
2952 927 L
2954 1087 L
2956 934 L
2958 978 L
2959 988 L
2961 982 L
2963 1040 L
2965 781 L
2966 1057 L
2968 1123 L
2970 1398 L
2972 1005 L
2973 1312 L
2975 860 L
2977 1162 L
2978 1094 L
2980 872 L
2982 1078 L
2983 1120 L
2985 1096 L
2986 929 L
2988 1095 L
2989 981 L
2991 1010 L
2993 1021 L
2994 1087 L
2996 1120 L
2997 945 L
2999 986 L
3000 978 L
3002 1186 L
3003 1137 L
3005 947 L
3006 1136 L
3007 1065 L
3009 1149 L
3010 1271 L
3012 1205 L
3013 1175 L
3014 1195 L
3016 1199 L
3017 1314 L
3019 1105 L
3020 1143 L
3021 1292 L
3023 1222 L
3024 1062 L
3025 1086 L
3027 1237 L
3028 1041 L
3029 1256 L
3031 939 L
3032 1083 L
3033 1193 L
3034 1293 L
3036 1274 L
3037 1181 L
3038 1165 L
3039 1090 L
3041 1089 L
3042 1140 L
3043 1086 L
3044 1198 L
3045 1056 L
3047 1042 L
3048 1034 L
3049 1149 L
3050 1114 L
3051 1111 L
3053 1155 L
3054 1046 L
3055 1174 L
3056 1287 L
3057 1229 L
3058 1035 L
3059 1309 L
3061 1370 L
3062 1213 L
3063 1098 L
3064 1057 L
3065 1158 L
3066 1156 L
3067 1046 L
3068 975 L
3069 1074 L
3070 957 L
3071 1038 L
3073 1413 L
3074 1300 L
3075 1178 L
3076 1201 L
3077 1389 L
3078 1356 L
3079 1187 L
3080 987 L
3081 1002 L
3082 1340 L
3083 1391 L
3084 1198 L
3085 1385 L
3086 1285 L
3087 1043 L
3088 1199 L
3089 1075 L
3112 1150 L
3133 1255 L
3152 1216 L
3170 1149 L
3186 1337 L
3201 1122 L
3216 1308 L
3229 1374 L
3241 1296 L
3253 1240 L
3264 1349 L
3275 1367 L
3285 1325 L
3295 1413 L
3304 1449 L
3313 1235 L
3322 1305 L
3330 1222 L
3338 1368 L
3346 1105 L
3353 1210 L
3360 1214 L
3367 1238 L
3374 1386 L
3380 1226 L
3387 1335 L
3393 1482 L
3399 1267 L
3405 1289 L
3410 1265 L
3416 1368 L
3421 1195 L
3426 1234 L
3431 1270 L
3436 1277 L
3441 1255 L
3446 1265 L
3451 1358 L
3455 1131 L
3460 1467 L
3464 1509 L
3469 1213 L
3473 1359 L
3477 1041 L
3481 1270 L
3485 1453 L
3489 1173 L
3493 1104 L
3496 1225 L
3500 1337 L
3504 1480 L
3507 1256 L
3511 1110 L
3514 1247 L
3518 1271 L
3521 1401 L
3525 1214 L
3528 1252 L
3531 1202 L
3534 1153 L
3537 1361 L
3540 1278 L
3543 1178 L
3546 1334 L
3549 1235 L
3552 1296 L
3555 1422 L
3558 1207 L
3561 1146 L
3564 1377 L
3566 1332 L
3575 1129 L
3586 1135 L
3595 1244 L
3605 1113 L
3613 1225 L
3622 1274 L
3630 1219 L
3638 1498 L
3646 1089 L
3653 1326 L
3660 1325 L
3667 1464 L
3674 1175 L
3681 1228 L
3687 1183 L
3693 1300 L
3699 1096 L
3705 1223 L
3710 1172 L
3716 1193 L
3721 1314 L
3727 1105 L
3732 1367 L
3737 1407 L
3742 1265 L
3746 1162 L
3751 1102 L
3756 1347 L
3760 1268 L
3764 1340 L
3769 1072 L
3773 1225 L
3777 1276 L
3781 1222 L
3785 1276 L
3789 1187 L
3793 1374 L
3797 1208 L
3800 1291 L
3804 1238 L
3808 1268 L
3811 1273 L
3815 1229 L
3818 1243 L
3821 1368 L
3825 1129 L
3828 1205 L
3831 1298 L
3834 1341 L
3838 1143 L
3841 1356 L
3844 1261 L
3847 1429 L
3850 1086 L
3853 1374 L
3855 1295 L
3858 1240 L
3861 1169 L
3864 1247 L
3867 1262 L
3869 1355 L
3872 1341 L
3875 1078 L
3877 1135 L
3880 1232 L
3882 1159 L
3885 1262 L
3887 1359 L
3890 1077 L
3892 1132 L
3895 1140 L
3897 1319 L
3899 1031 L
3902 1195 L
3904 1116 L
3906 1214 L
3908 1250 L
3911 1302 L
3913 1338 L
3915 1277 L
3917 1184 L
3919 1307 L
3921 1307 L
3923 1301 L
3926 1267 L
3928 1210 L
3930 1002 L
3932 1163 L
3934 1432 L
3936 1367 L
3938 1222 L
3940 1286 L
3942 1361 L
3943 1029 L
3945 1316 L
3947 1299 L
3949 1087 L
3951 1259 L
3953 1047 L
3955 1211 L
3956 1358 L
3958 1400 L
3960 1171 L
3962 1440 L
3963 1113 L
3965 1262 L
3967 1250 L
3969 1423 L
3970 1092 L
3972 1379 L
3974 1358 L
3975 1264 L
3977 1199 L
3978 1232 L
3980 1202 L
3982 1425 L
3983 1198 L
3985 1280 L
3986 1377 L
3988 1226 L
3990 1261 L
3991 1222 L
3993 1443 L
3994 1220 L
3996 1141 L
3997 1374 L
3999 1310 L
4000 1347 L
4001 1137 L
4003 1329 L
4004 1301 L
4006 1395 L
4007 1432 L
4009 1359 L
4010 1244 L
4011 1317 L
4013 1258 L
4014 1320 L
4016 1525 L
4017 1288 L
4018 1359 L
4020 1214 L
4021 1347 L
4022 1235 L
4024 1301 L
4025 1295 L
4026 1332 L
4028 1173 L
4029 1217 L
4030 1102 L
4031 1344 L
4033 1519 L
4034 1023 L
4035 1427 L
4036 1259 L
4038 1210 L
4039 1362 L
4040 1400 L
4041 1237 L
4042 1438 L
4044 1365 L
4045 1210 L
4046 1289 L
4047 1273 L
4048 1298 L
4050 1420 L
4051 1352 L
4052 1255 L
4053 1561 L
4054 1262 L
4055 1279 L
4056 1380 L
4058 1356 L
4059 1119 L
4060 1289 L
4061 1069 L
4062 1231 L
4063 1319 L
4064 1371 L
4065 1214 L
4066 1349 L
L2 C01 COSGR

%
% Main frame
%
L10
GSN 
620 1700 M
4220 1700 L
4220 5300 L
620 5300 L
closepath SGR

%
% X axis: large tics
%
L10
GSN 1074 1700 M 0  54 rL SGR
GSN 1074 5300 M 0 -54 rL SGR
helvS (0.0001) 1074 470 xlabel
GSN 1572 1700 M 0  54 rL SGR
GSN 1572 5300 M 0 -54 rL SGR
helvS (0.001) 1572 470 xlabel
GSN 2071 1700 M 0  54 rL SGR
GSN 2071 5300 M 0 -54 rL SGR
helvS (0.01) 2071 470 xlabel
GSN 2570 1700 M 0  54 rL SGR
GSN 2570 5300 M 0 -54 rL SGR
helvS (0.1) 2570 470 xlabel
GSN 3068 1700 M 0  54 rL SGR
GSN 3068 5300 M 0 -54 rL SGR
helvS (1) 3068 470 xlabel
GSN 3567 1700 M 0  54 rL SGR
GSN 3567 5300 M 0 -54 rL SGR
helvS (10) 3567 470 xlabel
GSN 4066 1700 M 0  54 rL SGR
GSN 4066 5300 M 0 -54 rL SGR
helvS (100) 4066 470 xlabel
%
% X axis: small tics
%
L5
GSN 725 1700 M 0  36 rL SGR
GSN 725 5300 M 0 -36 rL SGR
GSN 813 1700 M 0  36 rL SGR
GSN 813 5300 M 0 -36 rL SGR
GSN 875 1700 M 0  36 rL SGR
GSN 875 5300 M 0 -36 rL SGR
GSN 924 1700 M 0  36 rL SGR
GSN 924 5300 M 0 -36 rL SGR
GSN 963 1700 M 0  36 rL SGR
GSN 963 5300 M 0 -36 rL SGR
GSN 996 1700 M 0  36 rL SGR
GSN 996 5300 M 0 -36 rL SGR
GSN 1025 1700 M 0  36 rL SGR
GSN 1025 5300 M 0 -36 rL SGR
GSN 1051 1700 M 0  36 rL SGR
GSN 1051 5300 M 0 -36 rL SGR
GSN 1224 1700 M 0  36 rL SGR
GSN 1224 5300 M 0 -36 rL SGR
GSN 1312 1700 M 0  36 rL SGR
GSN 1312 5300 M 0 -36 rL SGR
GSN 1374 1700 M 0  36 rL SGR
GSN 1374 5300 M 0 -36 rL SGR
GSN 1422 1700 M 0  36 rL SGR
GSN 1422 5300 M 0 -36 rL SGR
GSN 1462 1700 M 0  36 rL SGR
GSN 1462 5300 M 0 -36 rL SGR
GSN 1495 1700 M 0  36 rL SGR
GSN 1495 5300 M 0 -36 rL SGR
GSN 1524 1700 M 0  36 rL SGR
GSN 1524 5300 M 0 -36 rL SGR
GSN 1550 1700 M 0  36 rL SGR
GSN 1550 5300 M 0 -36 rL SGR
GSN 1722 1700 M 0  36 rL SGR
GSN 1722 5300 M 0 -36 rL SGR
GSN 1810 1700 M 0  36 rL SGR
GSN 1810 5300 M 0 -36 rL SGR
GSN 1873 1700 M 0  36 rL SGR
GSN 1873 5300 M 0 -36 rL SGR
GSN 1921 1700 M 0  36 rL SGR
GSN 1921 5300 M 0 -36 rL SGR
GSN 1960 1700 M 0  36 rL SGR
GSN 1960 5300 M 0 -36 rL SGR
GSN 1994 1700 M 0  36 rL SGR
GSN 1994 5300 M 0 -36 rL SGR
GSN 2023 1700 M 0  36 rL SGR
GSN 2023 5300 M 0 -36 rL SGR
GSN 2048 1700 M 0  36 rL SGR
GSN 2048 5300 M 0 -36 rL SGR
GSN 2221 1700 M 0  36 rL SGR
GSN 2221 5300 M 0 -36 rL SGR
GSN 2309 1700 M 0  36 rL SGR
GSN 2309 5300 M 0 -36 rL SGR
GSN 2371 1700 M 0  36 rL SGR
GSN 2371 5300 M 0 -36 rL SGR
GSN 2420 1700 M 0  36 rL SGR
GSN 2420 5300 M 0 -36 rL SGR
GSN 2459 1700 M 0  36 rL SGR
GSN 2459 5300 M 0 -36 rL SGR
GSN 2492 1700 M 0  36 rL SGR
GSN 2492 5300 M 0 -36 rL SGR
GSN 2521 1700 M 0  36 rL SGR
GSN 2521 5300 M 0 -36 rL SGR
GSN 2547 1700 M 0  36 rL SGR
GSN 2547 5300 M 0 -36 rL SGR
GSN 2720 1700 M 0  36 rL SGR
GSN 2720 5300 M 0 -36 rL SGR
GSN 2808 1700 M 0  36 rL SGR
GSN 2808 5300 M 0 -36 rL SGR
GSN 2870 1700 M 0  36 rL SGR
GSN 2870 5300 M 0 -36 rL SGR
GSN 2918 1700 M 0  36 rL SGR
GSN 2918 5300 M 0 -36 rL SGR
GSN 2958 1700 M 0  36 rL SGR
GSN 2958 5300 M 0 -36 rL SGR
GSN 2991 1700 M 0  36 rL SGR
GSN 2991 5300 M 0 -36 rL SGR
GSN 3020 1700 M 0  36 rL SGR
GSN 3020 5300 M 0 -36 rL SGR
GSN 3045 1700 M 0  36 rL SGR
GSN 3045 5300 M 0 -36 rL SGR
GSN 3218 1700 M 0  36 rL SGR
GSN 3218 5300 M 0 -36 rL SGR
GSN 3306 1700 M 0  36 rL SGR
GSN 3306 5300 M 0 -36 rL SGR
GSN 3368 1700 M 0  36 rL SGR
GSN 3368 5300 M 0 -36 rL SGR
GSN 3417 1700 M 0  36 rL SGR
GSN 3417 5300 M 0 -36 rL SGR
GSN 3456 1700 M 0  36 rL SGR
GSN 3456 5300 M 0 -36 rL SGR
GSN 3490 1700 M 0  36 rL SGR
GSN 3490 5300 M 0 -36 rL SGR
GSN 3519 1700 M 0  36 rL SGR
GSN 3519 5300 M 0 -36 rL SGR
GSN 3544 1700 M 0  36 rL SGR
GSN 3544 5300 M 0 -36 rL SGR
GSN 3717 1700 M 0  36 rL SGR
GSN 3717 5300 M 0 -36 rL SGR
GSN 3805 1700 M 0  36 rL SGR
GSN 3805 5300 M 0 -36 rL SGR
GSN 3867 1700 M 0  36 rL SGR
GSN 3867 5300 M 0 -36 rL SGR
GSN 3915 1700 M 0  36 rL SGR
GSN 3915 5300 M 0 -36 rL SGR
GSN 3955 1700 M 0  36 rL SGR
GSN 3955 5300 M 0 -36 rL SGR
GSN 3988 1700 M 0  36 rL SGR
GSN 3988 5300 M 0 -36 rL SGR
GSN 4017 1700 M 0  36 rL SGR
GSN 4017 5300 M 0 -36 rL SGR
GSN 4043 1700 M 0  36 rL SGR
GSN 4043 5300 M 0 -36 rL SGR
GSN 4216 1700 M 0  36 rL SGR
GSN 4216 5300 M 0 -36 rL SGR
%
% Y axis: large tics
%
L10
GSN 620 2775 M 54 0 rL SGR
GSN 4220 2775 M -54 0 rL SGR
helvS (1.14) 560 2775 ylabel
GSN 620 3992 M 54 0 rL SGR
GSN 4220 3992 M -54 0 rL SGR
helvS (1.16) 560 3992 ylabel
GSN 620 5209 M 54 0 rL SGR
GSN 4220 5209 M -54 0 rL SGR
helvS (1.18) 560 5209 ylabel
%
% Y axis: small tics
%
L5
GSN 620 1862 M 36 0 rL SGR
GSN 4220 1862 M -36 0 rL SGR
GSN 620 2166 M 36 0 rL SGR
GSN 4220 2166 M -36 0 rL SGR
GSN 620 2470 M 36 0 rL SGR
GSN 4220 2470 M -36 0 rL SGR
GSN 620 2775 M 36 0 rL SGR
GSN 4220 2775 M -36 0 rL SGR
GSN 620 3079 M 36 0 rL SGR
GSN 4220 3079 M -36 0 rL SGR
GSN 620 3383 M 36 0 rL SGR
GSN 4220 3383 M -36 0 rL SGR
GSN 620 3687 M 36 0 rL SGR
GSN 4220 3687 M -36 0 rL SGR
GSN 620 3992 M 36 0 rL SGR
GSN 4220 3992 M -36 0 rL SGR
GSN 620 4296 M 36 0 rL SGR
GSN 4220 4296 M -36 0 rL SGR
GSN 620 4600 M 36 0 rL SGR
GSN 4220 4600 M -36 0 rL SGR
GSN 620 4904 M 36 0 rL SGR
GSN 4220 4904 M -36 0 rL SGR
GSN 620 5209 M 36 0 rL SGR
GSN 4220 5209 M -36 0 rL SGR

%
% X-Axis label:
%
gsave 2420 290 M 
[
[(Helvetica) 180 0 true true 0 (t)]
[(Helvetica) 180 0 true true 0 (i)]
[(Helvetica) 180 0 true true 0 (m)]
[(Helvetica) 180 0 true true 0 (e)]
] 0 MCshow grestore

%
% Y-Axis label:
%
gsave 234 3500 M 
currentpoint gsave translate 90 rotate 0 0 moveto
[
[(Helvetica) 180 0 true true 0 (s)]
[(Helvetica) 180 0 true true 0 (i)]
[(Helvetica) 180 0 true true 0 (g)]
[(Helvetica) 180 0 true true 0 (n)]
[(Helvetica) 180 0 true true 0 (a)]
[(Helvetica) 180 0 true true 0 (l)]
] 0 MCshow grestore

%
% Residuals:
%
gsave 129 1160 M 
currentpoint gsave translate 90 rotate 0 0 moveto
[
[(Helvetica) 150 0 true true 0 (r)]
[(Helvetica) 150 0 true true 0 (e)]
[(Helvetica) 150 0 true true 0 (s)]
[(Helvetica) 150 0 true true 0 (i)]
[(Helvetica) 150 0 true true 0 (d)]
[(Helvetica) 150 0 true true 0 (u)]
[(Helvetica) 150 0 true true 0 (a)]
[(Helvetica) 150 0 true true 0 (l)]
[(Helvetica) 150 0 true true 0 (s)]
] 0 MCshow grestore

%
% Residual frame
%
L10
GSN 
620 620 M
4220 620 L
4220 1700 L
620 1700 L
closepath SGR
%
% X axis: large tics - residual frame
%
L10
GSN 1074 620 M 0  54 rL SGR
GSN 1074 1700 M 0 -54 rL SGR
GSN 1572 620 M 0  54 rL SGR
GSN 1572 1700 M 0 -54 rL SGR
GSN 2071 620 M 0  54 rL SGR
GSN 2071 1700 M 0 -54 rL SGR
GSN 2570 620 M 0  54 rL SGR
GSN 2570 1700 M 0 -54 rL SGR
GSN 3068 620 M 0  54 rL SGR
GSN 3068 1700 M 0 -54 rL SGR
GSN 3567 620 M 0  54 rL SGR
GSN 3567 1700 M 0 -54 rL SGR
GSN 4066 620 M 0  54 rL SGR
GSN 4066 1700 M 0 -54 rL SGR
%
% X axis: small tics - residual frame
%
L5
GSN 725 620 M 0  36 rL SGR
GSN 725 1700 M 0 -36 rL SGR
GSN 813 620 M 0  36 rL SGR
GSN 813 1700 M 0 -36 rL SGR
GSN 875 620 M 0  36 rL SGR
GSN 875 1700 M 0 -36 rL SGR
GSN 924 620 M 0  36 rL SGR
GSN 924 1700 M 0 -36 rL SGR
GSN 963 620 M 0  36 rL SGR
GSN 963 1700 M 0 -36 rL SGR
GSN 996 620 M 0  36 rL SGR
GSN 996 1700 M 0 -36 rL SGR
GSN 1025 620 M 0  36 rL SGR
GSN 1025 1700 M 0 -36 rL SGR
GSN 1051 620 M 0  36 rL SGR
GSN 1051 1700 M 0 -36 rL SGR
GSN 1224 620 M 0  36 rL SGR
GSN 1224 1700 M 0 -36 rL SGR
GSN 1312 620 M 0  36 rL SGR
GSN 1312 1700 M 0 -36 rL SGR
GSN 1374 620 M 0  36 rL SGR
GSN 1374 1700 M 0 -36 rL SGR
GSN 1422 620 M 0  36 rL SGR
GSN 1422 1700 M 0 -36 rL SGR
GSN 1462 620 M 0  36 rL SGR
GSN 1462 1700 M 0 -36 rL SGR
GSN 1495 620 M 0  36 rL SGR
GSN 1495 1700 M 0 -36 rL SGR
GSN 1524 620 M 0  36 rL SGR
GSN 1524 1700 M 0 -36 rL SGR
GSN 1550 620 M 0  36 rL SGR
GSN 1550 1700 M 0 -36 rL SGR
GSN 1722 620 M 0  36 rL SGR
GSN 1722 1700 M 0 -36 rL SGR
GSN 1810 620 M 0  36 rL SGR
GSN 1810 1700 M 0 -36 rL SGR
GSN 1873 620 M 0  36 rL SGR
GSN 1873 1700 M 0 -36 rL SGR
GSN 1921 620 M 0  36 rL SGR
GSN 1921 1700 M 0 -36 rL SGR
GSN 1960 620 M 0  36 rL SGR
GSN 1960 1700 M 0 -36 rL SGR
GSN 1994 620 M 0  36 rL SGR
GSN 1994 1700 M 0 -36 rL SGR
GSN 2023 620 M 0  36 rL SGR
GSN 2023 1700 M 0 -36 rL SGR
GSN 2048 620 M 0  36 rL SGR
GSN 2048 1700 M 0 -36 rL SGR
GSN 2221 620 M 0  36 rL SGR
GSN 2221 1700 M 0 -36 rL SGR
GSN 2309 620 M 0  36 rL SGR
GSN 2309 1700 M 0 -36 rL SGR
GSN 2371 620 M 0  36 rL SGR
GSN 2371 1700 M 0 -36 rL SGR
GSN 2420 620 M 0  36 rL SGR
GSN 2420 1700 M 0 -36 rL SGR
GSN 2459 620 M 0  36 rL SGR
GSN 2459 1700 M 0 -36 rL SGR
GSN 2492 620 M 0  36 rL SGR
GSN 2492 1700 M 0 -36 rL SGR
GSN 2521 620 M 0  36 rL SGR
GSN 2521 1700 M 0 -36 rL SGR
GSN 2547 620 M 0  36 rL SGR
GSN 2547 1700 M 0 -36 rL SGR
GSN 2720 620 M 0  36 rL SGR
GSN 2720 1700 M 0 -36 rL SGR
GSN 2808 620 M 0  36 rL SGR
GSN 2808 1700 M 0 -36 rL SGR
GSN 2870 620 M 0  36 rL SGR
GSN 2870 1700 M 0 -36 rL SGR
GSN 2918 620 M 0  36 rL SGR
GSN 2918 1700 M 0 -36 rL SGR
GSN 2958 620 M 0  36 rL SGR
GSN 2958 1700 M 0 -36 rL SGR
GSN 2991 620 M 0  36 rL SGR
GSN 2991 1700 M 0 -36 rL SGR
GSN 3020 620 M 0  36 rL SGR
GSN 3020 1700 M 0 -36 rL SGR
GSN 3045 620 M 0  36 rL SGR
GSN 3045 1700 M 0 -36 rL SGR
GSN 3218 620 M 0  36 rL SGR
GSN 3218 1700 M 0 -36 rL SGR
GSN 3306 620 M 0  36 rL SGR
GSN 3306 1700 M 0 -36 rL SGR
GSN 3368 620 M 0  36 rL SGR
GSN 3368 1700 M 0 -36 rL SGR
GSN 3417 620 M 0  36 rL SGR
GSN 3417 1700 M 0 -36 rL SGR
GSN 3456 620 M 0  36 rL SGR
GSN 3456 1700 M 0 -36 rL SGR
GSN 3490 620 M 0  36 rL SGR
GSN 3490 1700 M 0 -36 rL SGR
GSN 3519 620 M 0  36 rL SGR
GSN 3519 1700 M 0 -36 rL SGR
GSN 3544 620 M 0  36 rL SGR
GSN 3544 1700 M 0 -36 rL SGR
GSN 3717 620 M 0  36 rL SGR
GSN 3717 1700 M 0 -36 rL SGR
GSN 3805 620 M 0  36 rL SGR
GSN 3805 1700 M 0 -36 rL SGR
GSN 3867 620 M 0  36 rL SGR
GSN 3867 1700 M 0 -36 rL SGR
GSN 3915 620 M 0  36 rL SGR
GSN 3915 1700 M 0 -36 rL SGR
GSN 3955 620 M 0  36 rL SGR
GSN 3955 1700 M 0 -36 rL SGR
GSN 3988 620 M 0  36 rL SGR
GSN 3988 1700 M 0 -36 rL SGR
GSN 4017 620 M 0  36 rL SGR
GSN 4017 1700 M 0 -36 rL SGR
GSN 4043 620 M 0  36 rL SGR
GSN 4043 1700 M 0 -36 rL SGR
GSN 4216 620 M 0  36 rL SGR
GSN 4216 1700 M 0 -36 rL SGR
%
% Y axis: large tics - residual frame
%
L10
GSN 620 901 M 54 0 rL SGR
GSN 4220 901 M -54 0 rL SGR
helvS (-0.01) 560 901 ylabelresid
GSN 620 1194 M 54 0 rL SGR
GSN 4220 1194 M -54 0 rL SGR
helvS (0) 560 1194 ylabelresid
GSN 620 1488 M 54 0 rL SGR
GSN 4220 1488 M -54 0 rL SGR
helvS (0.01) 560 1488 ylabelresid

%
% X axis - residual panel
%
GSN L5 620 1194 M 4220 1194 L SDA G50 SGR

end
showpage
%%Trailer
%%EOF
