%!PS-Adobe-3.0 EPSF-3.0
%%BoundingBox: 0 0 514 442
%%Creator: BioKin Ltd.
%%DocumentFonts: Symbol Helvetica
%%EndComments
%
/bkdict 256 dict def
bkdict begin
/M {moveto} def 
/R {rmoveto} def
/L {lineto} def
/rL {rlineto} def
/GSN {gsave newpath} def
/SGR {stroke grestore} def
/COSGR {gsave setrgbcolor stroke grestore grestore} def
/SL {setlinewidth} def
/LWMB {12} def             % line width - model curves, black & white
/LWMC {10} def             % line width - model curves, color
/L2 {2.5 setlinewidth} def
/L5 {5 setlinewidth} def
/L10 {10 setlinewidth} def
/G50 {0.5 setgray} def
/SDA {[10  20] 0 setdash} def % axes
/helvT {/Helvetica findfont 100 scalefont setfont} def % tiny
/helvS {/Helvetica findfont 125 scalefont setfont} def % small
/helvM {/Helvetica findfont 150 scalefont setfont} def % medium
/helvL {/Helvetica findfont 175 scalefont setfont} def % large
/xlabel {gsave M dup
   stringwidth exch -0.5 mul exch rmoveto show grestore} def 
/ylabel {gsave M 90 rotate dup
   stringwidth exch -0.5 mul exch rmoveto show grestore} def
/ylabelresid {gsave M dup
   stringwidth exch -1 mul exch rmoveto show grestore} def
% ======
% Shapes
% ======
% Circle:
/Circ {0 360 arc closepath} def
%
% Square:
/Squa {dup dup -0.5 mul dup dup R -2 mul 0 exch rL 1 mul 0 rL dup 0 exch -1 mul rL closepath} def
%
% Triangle Up:
/TriU {dup dup dup -0.4 mul exch -0.5 mul exch R dup 0.5 mul exch rL dup -1 mul exch 0.5 mul exch rL closepath} def 
%
% Triangle Down:
/TriD {dup dup dup 0.4 mul exch -0.5 mul exch R dup 0.5 mul exch -1 mul rL dup 0.5 mul exch rL closepath} def 
%
% Diamond:
/Diam {45 rotate Squa} def
% ======
% Fills
% ======
/GRF {gsave setgray fill grestore} def                    % gray-level Fill
/COF {gsave setrgbcolor fill grestore} def                % color fill
% ======
% Colors
% ======
/C01 {1.00	0.00	0.00} def      % Red
/C02 {0.00	0.00	1.00} def      % Blue
/C03 {0.00	0.39	0.00} def      % Dark Green
/C04 {0.78	0.08	0.52} def      % Medium Violet Red
/C05 {0.55	0.27	0.07} def      % Saddle Brown
/C06 {0.10	0.70	0.70} def      % (cyan)
/C07 {1.00	0.55	0.00} def      % Dark Orange
/C08 {0.63	0.13	0.94} def      % Purple
/C09 {0.00	0.75	1.00} def      % Deep Sky Blue
/C10 {0.20	0.80	0.20} def      % Lime Green
/C11 {0.47	0.53	0.60} def      % Light Slate Gray
/C12 {0.00	0.00	0.00} def      % Black            % or: {0.19	0.31	0.31} def      % Dark Slate Gray
%
/LGR {0.75} def % light gray
/DGR {0.33} def % dark gray
%
% =============
% Dash patterns
% =============
/dash01 { [80  20] 0 setdash } def
/dash02 { [40  20] 0 setdash } def
/dash03 { [80  20  10  20] 0 setdash } def
/dash04 { [40  20  10  20] 0 setdash } def
/dash05 { [80  20  10  10  10  20] 0 setdash } def
/dash06 { [40  20  10  10  10  20] 0 setdash } def
/dash07 { [10  10] 0 setdash } def
%
/MFshow {
   { dup 5 get 3 ge
     { 5 get 3 eq {gsave} {grestore} ifelse }
     {dup dup 0 get findfont exch 1 get scalefont setfont
     [ currentpoint ] exch dup 2 get 0 exch R dup 5 get 2 ne {dup dup 6
     get exch 4 get {show} {stringwidth pop 0 R} ifelse }if dup 5 get 0 eq
     {dup 3 get {2 get neg 0 exch R pop} {pop aload pop M} ifelse} {dup 5
     get 1 eq {dup 2 get exch dup 3 get exch 6 get stringwidth pop -2 div
     dup 0 R} {dup 6 get stringwidth pop -2 div 0 R 6 get
     show 2 index {aload pop M neg 3 -1 roll neg R pop pop} {pop pop pop
     pop aload pop M} ifelse }ifelse }ifelse }
     ifelse }
   forall} bind def
/MFwidth {0 exch {dup 3 get{dup dup 0 get findfont exch 1 get scalefont
     setfont 6 get stringwidth pop add} {pop} ifelse} forall} bind def
/MCshow { currentpoint stroke M
  exch dup MFwidth -2 div 3 -1 roll R MFshow } def
%
end
%%EndProlog
bkdict begin
0.1 0.1 scale
%
% Model curves:
%

GSN 753 3357 M
770 3357 L
803 3394 L
837 3434 L
870 3478 L
895 3524 L
911 3548 L
937 3573 L
970 3624 L
1003 3676 L
1037 3728 L
1053 3779 L
1070 3780 L
1103 3829 L
1137 3876 L
1170 3918 L
1195 3956 L
1211 3973 L
1237 3988 L
1270 4014 L
1303 4035 L
1337 4049 L
1353 4060 L
1370 4060 L
1403 4066 L
1437 4069 L
1470 4071 L
1495 4072 L
1512 4072 L
1537 4072 L
1570 4073 L
1603 4073 L
1637 4073 L
1653 4073 L
1670 4073 L
1703 4073 L
1737 4073 L
1770 4073 L
1795 4073 L
1812 4073 L
1837 4073 L
1870 4073 L
1903 4073 L
1937 4074 L
1953 4074 L
1971 4074 L
2003 4074 L
2037 4074 L
2070 4075 L
2095 4075 L
2112 4075 L
2137 4075 L
2170 4076 L
2203 4076 L
2237 4077 L
2253 4077 L
2271 4077 L
2303 4078 L
2337 4078 L
2370 4079 L
2395 4080 L
2412 4080 L
2437 4080 L
2470 4081 L
2503 4082 L
2537 4082 L
2553 4083 L
2571 4083 L
2603 4084 L
2637 4084 L
2670 4085 L
2695 4085 L
2712 4085 L
2737 4085 L
2770 4086 L
2803 4086 L
2837 4086 L
2854 4086 L
2871 4086 L
2903 4086 L
2937 4086 L
2970 4086 L
2995 4086 L
3012 4086 L
3037 4086 L
3061 4086 L
3077 4086 L
3103 4086 L
3137 4086 L
3154 4086 L
3171 4086 L
3203 4086 L
3237 4086 L
3270 4086 L
3296 4086 L
3312 4086 L
3337 4086 L
3370 4086 L
3403 4086 L
3437 4086 L
3454 4086 L
3471 4086 L
3503 4086 L
3537 4086 L
3570 4086 L
3596 4086 L
3612 4086 L
3637 4086 L
3670 4086 L
3703 4086 L
3737 4086 L
3754 4086 L
3771 4086 L
3803 4086 L
3837 4086 L
3870 4086 L
3896 4086 L
3912 4086 L
3937 4086 L
3970 4086 L
4003 4086 L
4037 4086 L
4070 4086 L
LWMC SL dash01 C01 COSGR

GSN 753 2738 M
770 2738 L
803 2821 L
837 2909 L
870 3002 L
895 3100 L
911 3151 L
937 3201 L
970 3303 L
1003 3405 L
1037 3504 L
1053 3600 L
1070 3600 L
1103 3688 L
1137 3769 L
1170 3840 L
1195 3901 L
1211 3927 L
1237 3950 L
1270 3989 L
1303 4017 L
1337 4037 L
1353 4050 L
1370 4050 L
1403 4057 L
1437 4061 L
1470 4063 L
1495 4063 L
1512 4064 L
1537 4064 L
1570 4064 L
1603 4064 L
1637 4064 L
1653 4064 L
1670 4064 L
1703 4064 L
1737 4064 L
1770 4064 L
1795 4065 L
1812 4065 L
1837 4065 L
1870 4065 L
1903 4065 L
1937 4066 L
1953 4066 L
1971 4066 L
2003 4066 L
2037 4067 L
2070 4067 L
2095 4068 L
2112 4068 L
2137 4068 L
2170 4069 L
2203 4070 L
2237 4071 L
2253 4072 L
2271 4072 L
2303 4073 L
2337 4074 L
2370 4075 L
2395 4076 L
2412 4076 L
2437 4077 L
2470 4078 L
2503 4079 L
2537 4080 L
2553 4081 L
2571 4081 L
2603 4082 L
2637 4083 L
2670 4084 L
2695 4084 L
2712 4085 L
2737 4085 L
2770 4085 L
2803 4086 L
2837 4086 L
2854 4086 L
2871 4086 L
2903 4086 L
2937 4086 L
2970 4086 L
2995 4086 L
3012 4086 L
3037 4086 L
3061 4086 L
3077 4086 L
3103 4086 L
3137 4086 L
3154 4086 L
3171 4086 L
3203 4086 L
3237 4086 L
3270 4086 L
3296 4086 L
3312 4086 L
3337 4086 L
3370 4086 L
3403 4086 L
3437 4086 L
3454 4086 L
3471 4086 L
3503 4086 L
3537 4086 L
3570 4086 L
3596 4086 L
3612 4086 L
3637 4086 L
3670 4086 L
3703 4086 L
3737 4086 L
3754 4086 L
3771 4086 L
3803 4086 L
3837 4086 L
3870 4086 L
3896 4086 L
3912 4086 L
3937 4086 L
3970 4086 L
4003 4086 L
4037 4086 L
4070 4086 L
LWMC SL dash02 C02 COSGR

GSN 753 2265 M
770 2265 L
803 2392 L
837 2526 L
870 2667 L
895 2811 L
911 2885 L
937 2957 L
970 3103 L
1003 3246 L
1037 3382 L
1053 3510 L
1070 3510 L
1103 3625 L
1137 3728 L
1170 3816 L
1195 3888 L
1211 3919 L
1237 3945 L
1270 3987 L
1303 4017 L
1337 4036 L
1353 4047 L
1370 4048 L
1403 4054 L
1437 4057 L
1470 4058 L
1495 4058 L
1512 4058 L
1537 4058 L
1570 4058 L
1603 4059 L
1637 4059 L
1653 4059 L
1670 4059 L
1703 4059 L
1737 4059 L
1770 4059 L
1795 4060 L
1812 4060 L
1837 4060 L
1870 4060 L
1903 4060 L
1937 4061 L
1953 4061 L
1971 4061 L
2003 4062 L
2037 4062 L
2070 4063 L
2095 4064 L
2112 4064 L
2137 4064 L
2170 4065 L
2203 4066 L
2237 4068 L
2253 4069 L
2271 4069 L
2303 4070 L
2337 4071 L
2370 4073 L
2395 4074 L
2412 4075 L
2437 4076 L
2470 4077 L
2503 4079 L
2537 4080 L
2553 4081 L
2571 4081 L
2603 4082 L
2637 4083 L
2670 4084 L
2695 4085 L
2712 4085 L
2737 4085 L
2770 4086 L
2803 4086 L
2837 4086 L
2854 4086 L
2871 4086 L
2903 4086 L
2937 4086 L
2970 4086 L
2995 4086 L
3012 4086 L
3037 4086 L
3061 4086 L
3077 4086 L
3103 4086 L
3137 4086 L
3154 4086 L
3171 4086 L
3203 4086 L
3237 4086 L
3270 4086 L
3296 4086 L
3312 4086 L
3337 4086 L
3370 4086 L
3403 4086 L
3437 4086 L
3454 4086 L
3471 4086 L
3503 4086 L
3537 4086 L
3570 4086 L
3596 4086 L
3612 4086 L
3637 4086 L
3670 4086 L
3703 4086 L
3737 4086 L
3754 4086 L
3771 4086 L
3803 4086 L
3837 4086 L
3870 4086 L
3896 4086 L
3912 4086 L
3937 4086 L
3970 4086 L
4003 4086 L
4037 4086 L
4070 4086 L
LWMC SL dash03 C03 COSGR

GSN 753 1690 M
770 1690 L
803 1887 L
837 2091 L
870 2302 L
895 2514 L
911 2620 L
937 2724 L
970 2929 L
1003 3123 L
1037 3304 L
1053 3467 L
1070 3468 L
1103 3611 L
1137 3732 L
1170 3831 L
1195 3907 L
1211 3939 L
1237 3964 L
1270 4002 L
1303 4027 L
1337 4041 L
1353 4048 L
1370 4048 L
1403 4051 L
1437 4053 L
1470 4053 L
1495 4053 L
1512 4053 L
1537 4054 L
1570 4054 L
1603 4054 L
1637 4054 L
1653 4054 L
1670 4054 L
1703 4054 L
1737 4054 L
1770 4055 L
1795 4055 L
1812 4055 L
1837 4055 L
1870 4056 L
1903 4056 L
1937 4057 L
1953 4057 L
1971 4057 L
2003 4058 L
2037 4059 L
2070 4059 L
2095 4060 L
2112 4061 L
2137 4061 L
2170 4063 L
2203 4064 L
2237 4065 L
2253 4067 L
2271 4067 L
2303 4068 L
2337 4070 L
2370 4072 L
2395 4074 L
2412 4075 L
2437 4075 L
2470 4077 L
2503 4079 L
2537 4081 L
2553 4082 L
2571 4082 L
2603 4083 L
2637 4084 L
2670 4085 L
2695 4085 L
2712 4086 L
2737 4086 L
2770 4086 L
2803 4086 L
2837 4086 L
2854 4086 L
2871 4086 L
2903 4086 L
2937 4086 L
2970 4086 L
2995 4086 L
3012 4086 L
3037 4086 L
3061 4086 L
3077 4086 L
3103 4086 L
3137 4086 L
3154 4086 L
3171 4086 L
3203 4086 L
3237 4086 L
3270 4086 L
3296 4086 L
3312 4086 L
3337 4086 L
3370 4086 L
3403 4086 L
3437 4086 L
3454 4086 L
3471 4086 L
3503 4086 L
3537 4086 L
3570 4086 L
3596 4086 L
3612 4086 L
3637 4086 L
3670 4086 L
3703 4086 L
3737 4086 L
3754 4086 L
3771 4086 L
3803 4086 L
3837 4086 L
3870 4086 L
3896 4086 L
3912 4086 L
3937 4086 L
3970 4086 L
4003 4086 L
4037 4086 L
4070 4086 L
LWMC SL dash04 C04 COSGR

GSN 753 1414 M
770 1414 L
803 1665 L
837 1922 L
870 2182 L
895 2440 L
911 2568 L
937 2692 L
970 2931 L
1003 3154 L
1037 3354 L
1053 3529 L
1070 3530 L
1103 3677 L
1137 3796 L
1170 3887 L
1195 3953 L
1211 3978 L
1237 3997 L
1270 4024 L
1303 4040 L
1337 4048 L
1353 4051 L
1370 4051 L
1403 4052 L
1437 4053 L
1470 4053 L
1495 4053 L
1512 4053 L
1537 4053 L
1570 4053 L
1603 4053 L
1637 4053 L
1653 4053 L
1670 4053 L
1703 4054 L
1737 4054 L
1770 4054 L
1795 4054 L
1812 4055 L
1837 4055 L
1870 4055 L
1903 4056 L
1937 4056 L
1953 4057 L
1971 4057 L
2003 4058 L
2037 4058 L
2070 4059 L
2095 4060 L
2112 4061 L
2137 4061 L
2170 4063 L
2203 4064 L
2237 4066 L
2253 4067 L
2271 4067 L
2303 4069 L
2337 4071 L
2370 4073 L
2395 4074 L
2412 4075 L
2437 4076 L
2470 4078 L
2503 4080 L
2537 4081 L
2553 4083 L
2571 4083 L
2603 4084 L
2637 4085 L
2670 4085 L
2695 4086 L
2712 4086 L
2737 4086 L
2770 4086 L
2803 4086 L
2837 4086 L
2854 4086 L
2871 4086 L
2903 4086 L
2937 4086 L
2970 4086 L
2995 4086 L
3012 4086 L
3037 4086 L
3061 4086 L
3077 4086 L
3103 4086 L
3137 4086 L
3154 4086 L
3171 4086 L
3203 4086 L
3237 4086 L
3270 4086 L
3296 4086 L
3312 4086 L
3337 4086 L
3370 4086 L
3403 4086 L
3437 4086 L
3454 4086 L
3471 4086 L
3503 4086 L
3537 4086 L
3570 4086 L
3596 4086 L
3612 4086 L
3637 4086 L
3670 4086 L
3703 4086 L
3737 4086 L
3754 4086 L
3771 4086 L
3803 4086 L
3837 4086 L
3870 4086 L
3896 4086 L
3912 4086 L
3937 4086 L
3970 4086 L
4003 4086 L
4037 4086 L
4070 4086 L
LWMC SL dash05 C05 COSGR

GSN 753 1146 M
770 1146 L
803 1453 L
837 1766 L
870 2077 L
895 2382 L
911 2530 L
937 2672 L
970 2943 L
1003 3189 L
1037 3404 L
1053 3586 L
1070 3587 L
1103 3733 L
1137 3846 L
1170 3927 L
1195 3982 L
1211 4002 L
1237 4016 L
1270 4036 L
1303 4045 L
1337 4049 L
1353 4051 L
1370 4051 L
1403 4051 L
1437 4051 L
1470 4052 L
1495 4052 L
1512 4052 L
1537 4052 L
1570 4052 L
1603 4052 L
1637 4052 L
1653 4052 L
1670 4052 L
1703 4053 L
1737 4053 L
1770 4053 L
1795 4053 L
1812 4054 L
1837 4054 L
1870 4054 L
1903 4055 L
1937 4055 L
1953 4056 L
1971 4056 L
2003 4057 L
2037 4058 L
2070 4059 L
2095 4060 L
2112 4060 L
2137 4061 L
2170 4062 L
2203 4064 L
2237 4065 L
2253 4067 L
2271 4067 L
2303 4069 L
2337 4071 L
2370 4073 L
2395 4075 L
2412 4076 L
2437 4077 L
2470 4078 L
2503 4080 L
2537 4082 L
2553 4083 L
2571 4083 L
2603 4084 L
2637 4085 L
2670 4085 L
2695 4086 L
2712 4086 L
2737 4086 L
2770 4086 L
2803 4086 L
2837 4086 L
2854 4086 L
2871 4086 L
2903 4086 L
2937 4086 L
2970 4086 L
2995 4086 L
3012 4086 L
3037 4086 L
3061 4086 L
3077 4086 L
3103 4086 L
3137 4086 L
3154 4086 L
3171 4086 L
3203 4086 L
3237 4086 L
3270 4086 L
3296 4086 L
3312 4086 L
3337 4086 L
3370 4086 L
3403 4086 L
3437 4086 L
3454 4086 L
3471 4086 L
3503 4086 L
3537 4086 L
3570 4086 L
3596 4086 L
3612 4086 L
3637 4086 L
3670 4086 L
3703 4086 L
3737 4086 L
3754 4086 L
3771 4086 L
3803 4086 L
3837 4086 L
3870 4086 L
3896 4086 L
3912 4086 L
3937 4086 L
3970 4086 L
4003 4086 L
4037 4086 L
4070 4086 L
LWMC SL dash06 C06 COSGR

GSN 753 753 M
770 753 L
803 1175 L
837 1594 L
870 1999 L
895 2382 L
911 2564 L
937 2734 L
970 3048 L
1003 3318 L
1037 3540 L
1053 3714 L
1070 3715 L
1103 3842 L
1137 3931 L
1170 3988 L
1195 4021 L
1211 4031 L
1237 4037 L
1270 4045 L
1303 4048 L
1337 4049 L
1353 4049 L
1370 4049 L
1403 4050 L
1437 4050 L
1470 4050 L
1495 4050 L
1512 4050 L
1537 4050 L
1570 4050 L
1603 4050 L
1637 4050 L
1653 4051 L
1670 4051 L
1703 4051 L
1737 4051 L
1770 4051 L
1795 4052 L
1812 4052 L
1837 4052 L
1870 4053 L
1903 4053 L
1937 4054 L
1953 4055 L
1971 4055 L
2003 4055 L
2037 4056 L
2070 4057 L
2095 4059 L
2112 4059 L
2137 4060 L
2170 4061 L
2203 4063 L
2237 4065 L
2253 4067 L
2271 4067 L
2303 4069 L
2337 4071 L
2370 4073 L
2395 4075 L
2412 4076 L
2437 4077 L
2470 4079 L
2503 4080 L
2537 4082 L
2553 4083 L
2571 4083 L
2603 4084 L
2637 4085 L
2670 4086 L
2695 4086 L
2712 4086 L
2737 4086 L
2770 4086 L
2803 4086 L
2837 4086 L
2854 4086 L
2871 4086 L
2903 4086 L
2937 4086 L
2970 4086 L
2995 4086 L
3012 4086 L
3037 4086 L
3061 4086 L
3077 4086 L
3103 4086 L
3137 4086 L
3154 4086 L
3171 4086 L
3203 4086 L
3237 4086 L
3270 4086 L
3296 4086 L
3312 4086 L
3337 4086 L
3370 4086 L
3403 4086 L
3437 4086 L
3454 4086 L
3471 4086 L
3503 4086 L
3537 4086 L
3570 4086 L
3596 4086 L
3612 4086 L
3637 4086 L
3670 4086 L
3703 4086 L
3737 4086 L
3754 4086 L
3771 4086 L
3803 4086 L
3837 4086 L
3870 4086 L
3896 4086 L
3912 4086 L
3937 4086 L
3970 4086 L
4003 4086 L
4037 4086 L
4070 4086 L
LWMC SL dash07 C07 COSGR

%
%================
% Legend - Begin
%================
%
GSN 4240 4040 M
4480 4040 L
LWMC SL dash01 C01 COSGR
GSN 4540 4001 M helvM (0.5 uM) show grestore
GSN 4240 3860 M
4480 3860 L
LWMC SL dash02 C02 COSGR
GSN 4540 3821 M helvM (1.0 uM) show grestore
GSN 4240 3680 M
4480 3680 L
LWMC SL dash03 C03 COSGR
GSN 4540 3641 M helvM (1.5 uM) show grestore
GSN 4240 3500 M
4480 3500 L
LWMC SL dash04 C04 COSGR
GSN 4540 3461 M helvM (2.0 uM) show grestore
GSN 4240 3320 M
4480 3320 L
LWMC SL dash05 C05 COSGR
GSN 4540 3281 M helvM (2.5 uM) show grestore
GSN 4240 3140 M
4480 3140 L
LWMC SL dash06 C06 COSGR
GSN 4540 3101 M helvM (3.0 uM) show grestore
GSN 4240 2960 M
4480 2960 L
LWMC SL dash07 C07 COSGR
GSN 4540 2921 M helvM (4.0 uM) show grestore
%
%================
% Legend - End
%================
%

%
% Main frame
%
L10
GSN 
620 620 M
4220 620 L
4220 4220 L
620 4220 L
closepath SGR

%
% X axis: large tics
%
L10
GSN 1074 620 M 0  54 rL SGR
GSN 1074 4220 M 0 -54 rL SGR
helvS (0.0001) 1074 470 xlabel
GSN 1572 620 M 0  54 rL SGR
GSN 1572 4220 M 0 -54 rL SGR
helvS (0.001) 1572 470 xlabel
GSN 2071 620 M 0  54 rL SGR
GSN 2071 4220 M 0 -54 rL SGR
helvS (0.01) 2071 470 xlabel
GSN 2570 620 M 0  54 rL SGR
GSN 2570 4220 M 0 -54 rL SGR
helvS (0.1) 2570 470 xlabel
GSN 3068 620 M 0  54 rL SGR
GSN 3068 4220 M 0 -54 rL SGR
helvS (1) 3068 470 xlabel
GSN 3567 620 M 0  54 rL SGR
GSN 3567 4220 M 0 -54 rL SGR
helvS (10) 3567 470 xlabel
GSN 4066 620 M 0  54 rL SGR
GSN 4066 4220 M 0 -54 rL SGR
helvS (100) 4066 470 xlabel
%
% X axis: small tics
%
L5
GSN 725 620 M 0  36 rL SGR
GSN 725 4220 M 0 -36 rL SGR
GSN 813 620 M 0  36 rL SGR
GSN 813 4220 M 0 -36 rL SGR
GSN 875 620 M 0  36 rL SGR
GSN 875 4220 M 0 -36 rL SGR
GSN 924 620 M 0  36 rL SGR
GSN 924 4220 M 0 -36 rL SGR
GSN 963 620 M 0  36 rL SGR
GSN 963 4220 M 0 -36 rL SGR
GSN 996 620 M 0  36 rL SGR
GSN 996 4220 M 0 -36 rL SGR
GSN 1025 620 M 0  36 rL SGR
GSN 1025 4220 M 0 -36 rL SGR
GSN 1051 620 M 0  36 rL SGR
GSN 1051 4220 M 0 -36 rL SGR
GSN 1224 620 M 0  36 rL SGR
GSN 1224 4220 M 0 -36 rL SGR
GSN 1312 620 M 0  36 rL SGR
GSN 1312 4220 M 0 -36 rL SGR
GSN 1374 620 M 0  36 rL SGR
GSN 1374 4220 M 0 -36 rL SGR
GSN 1422 620 M 0  36 rL SGR
GSN 1422 4220 M 0 -36 rL SGR
GSN 1462 620 M 0  36 rL SGR
GSN 1462 4220 M 0 -36 rL SGR
GSN 1495 620 M 0  36 rL SGR
GSN 1495 4220 M 0 -36 rL SGR
GSN 1524 620 M 0  36 rL SGR
GSN 1524 4220 M 0 -36 rL SGR
GSN 1550 620 M 0  36 rL SGR
GSN 1550 4220 M 0 -36 rL SGR
GSN 1722 620 M 0  36 rL SGR
GSN 1722 4220 M 0 -36 rL SGR
GSN 1810 620 M 0  36 rL SGR
GSN 1810 4220 M 0 -36 rL SGR
GSN 1873 620 M 0  36 rL SGR
GSN 1873 4220 M 0 -36 rL SGR
GSN 1921 620 M 0  36 rL SGR
GSN 1921 4220 M 0 -36 rL SGR
GSN 1960 620 M 0  36 rL SGR
GSN 1960 4220 M 0 -36 rL SGR
GSN 1994 620 M 0  36 rL SGR
GSN 1994 4220 M 0 -36 rL SGR
GSN 2023 620 M 0  36 rL SGR
GSN 2023 4220 M 0 -36 rL SGR
GSN 2048 620 M 0  36 rL SGR
GSN 2048 4220 M 0 -36 rL SGR
GSN 2221 620 M 0  36 rL SGR
GSN 2221 4220 M 0 -36 rL SGR
GSN 2309 620 M 0  36 rL SGR
GSN 2309 4220 M 0 -36 rL SGR
GSN 2371 620 M 0  36 rL SGR
GSN 2371 4220 M 0 -36 rL SGR
GSN 2420 620 M 0  36 rL SGR
GSN 2420 4220 M 0 -36 rL SGR
GSN 2459 620 M 0  36 rL SGR
GSN 2459 4220 M 0 -36 rL SGR
GSN 2492 620 M 0  36 rL SGR
GSN 2492 4220 M 0 -36 rL SGR
GSN 2521 620 M 0  36 rL SGR
GSN 2521 4220 M 0 -36 rL SGR
GSN 2547 620 M 0  36 rL SGR
GSN 2547 4220 M 0 -36 rL SGR
GSN 2720 620 M 0  36 rL SGR
GSN 2720 4220 M 0 -36 rL SGR
GSN 2808 620 M 0  36 rL SGR
GSN 2808 4220 M 0 -36 rL SGR
GSN 2870 620 M 0  36 rL SGR
GSN 2870 4220 M 0 -36 rL SGR
GSN 2918 620 M 0  36 rL SGR
GSN 2918 4220 M 0 -36 rL SGR
GSN 2958 620 M 0  36 rL SGR
GSN 2958 4220 M 0 -36 rL SGR
GSN 2991 620 M 0  36 rL SGR
GSN 2991 4220 M 0 -36 rL SGR
GSN 3020 620 M 0  36 rL SGR
GSN 3020 4220 M 0 -36 rL SGR
GSN 3045 620 M 0  36 rL SGR
GSN 3045 4220 M 0 -36 rL SGR
GSN 3218 620 M 0  36 rL SGR
GSN 3218 4220 M 0 -36 rL SGR
GSN 3306 620 M 0  36 rL SGR
GSN 3306 4220 M 0 -36 rL SGR
GSN 3368 620 M 0  36 rL SGR
GSN 3368 4220 M 0 -36 rL SGR
GSN 3417 620 M 0  36 rL SGR
GSN 3417 4220 M 0 -36 rL SGR
GSN 3456 620 M 0  36 rL SGR
GSN 3456 4220 M 0 -36 rL SGR
GSN 3490 620 M 0  36 rL SGR
GSN 3490 4220 M 0 -36 rL SGR
GSN 3519 620 M 0  36 rL SGR
GSN 3519 4220 M 0 -36 rL SGR
GSN 3544 620 M 0  36 rL SGR
GSN 3544 4220 M 0 -36 rL SGR
GSN 3717 620 M 0  36 rL SGR
GSN 3717 4220 M 0 -36 rL SGR
GSN 3805 620 M 0  36 rL SGR
GSN 3805 4220 M 0 -36 rL SGR
GSN 3867 620 M 0  36 rL SGR
GSN 3867 4220 M 0 -36 rL SGR
GSN 3915 620 M 0  36 rL SGR
GSN 3915 4220 M 0 -36 rL SGR
GSN 3955 620 M 0  36 rL SGR
GSN 3955 4220 M 0 -36 rL SGR
GSN 3988 620 M 0  36 rL SGR
GSN 3988 4220 M 0 -36 rL SGR
GSN 4017 620 M 0  36 rL SGR
GSN 4017 4220 M 0 -36 rL SGR
GSN 4043 620 M 0  36 rL SGR
GSN 4043 4220 M 0 -36 rL SGR
GSN 4216 620 M 0  36 rL SGR
GSN 4216 4220 M 0 -36 rL SGR
%
% Y axis: large tics
%
L10
GSN 620 1658 M 54 0 rL SGR
GSN 4220 1658 M -54 0 rL SGR
helvS (-100) 560 1658 ylabel
GSN 620 2872 M 54 0 rL SGR
GSN 4220 2872 M -54 0 rL SGR
helvS (-50) 560 2872 ylabel
GSN 620 4086 M 54 0 rL SGR
GSN 4220 4086 M -54 0 rL SGR
helvS (0) 560 4086 ylabel
%
% Y axis: small tics
%
L5
GSN 620 686 M 36 0 rL SGR
GSN 4220 686 M -36 0 rL SGR
GSN 620 929 M 36 0 rL SGR
GSN 4220 929 M -36 0 rL SGR
GSN 620 1172 M 36 0 rL SGR
GSN 4220 1172 M -36 0 rL SGR
GSN 620 1415 M 36 0 rL SGR
GSN 4220 1415 M -36 0 rL SGR
GSN 620 1658 M 36 0 rL SGR
GSN 4220 1658 M -36 0 rL SGR
GSN 620 1901 M 36 0 rL SGR
GSN 4220 1901 M -36 0 rL SGR
GSN 620 2143 M 36 0 rL SGR
GSN 4220 2143 M -36 0 rL SGR
GSN 620 2386 M 36 0 rL SGR
GSN 4220 2386 M -36 0 rL SGR
GSN 620 2629 M 36 0 rL SGR
GSN 4220 2629 M -36 0 rL SGR
GSN 620 2872 M 36 0 rL SGR
GSN 4220 2872 M -36 0 rL SGR
GSN 620 3115 M 36 0 rL SGR
GSN 4220 3115 M -36 0 rL SGR
GSN 620 3358 M 36 0 rL SGR
GSN 4220 3358 M -36 0 rL SGR
GSN 620 3600 M 36 0 rL SGR
GSN 4220 3600 M -36 0 rL SGR
GSN 620 3843 M 36 0 rL SGR
GSN 4220 3843 M -36 0 rL SGR
GSN 620 4086 M 36 0 rL SGR
GSN 4220 4086 M -36 0 rL SGR

%
% X axis
%
GSN L5 620 4086 M 4220 4086 L SDA G50 SGR

%
% X-Axis label:
%
gsave 2420 290 M 
[
[(Helvetica) 180 0 true true 0 (t)]
[(Helvetica) 180 0 true true 0 (i)]
[(Helvetica) 180 0 true true 0 (m)]
[(Helvetica) 180 0 true true 0 (e)]
] 0 MCshow grestore

%
% Y-Axis label:
%
gsave 234 2420 M 
currentpoint gsave translate 90 rotate 0 0 moveto
[
[(Helvetica) 180 0 true true 0 (d)]
[(Helvetica) 180 0 true true 0 (\()]
[(Helvetica) 180 0 true true 0 (s)]
[(Helvetica) 180 0 true true 0 (i)]
[(Helvetica) 180 0 true true 0 (g)]
[(Helvetica) 180 0 true true 0 (n)]
[(Helvetica) 180 0 true true 0 (a)]
[(Helvetica) 180 0 true true 0 (l)]
[(Helvetica) 180 0 true true 0 (\))]
[(Helvetica) 180 0 true true 0 ( )]
[(Helvetica) 180 0 true true 0 (/)]
[(Helvetica) 180 0 true true 0 ( )]
[(Helvetica) 180 0 true true 0 (d)]
[(Helvetica) 180 0 true true 0 (t)]
] 0 MCshow grestore

end
showpage
%%Trailer
%%EOF
