%!PS-Adobe-3.0 EPSF-3.0
%%BoundingBox: 0 0 514 550
%%Creator: BioKin Ltd.
%%DocumentFonts: Symbol Helvetica
%%EndComments
%
/bkdict 256 dict def
bkdict begin
/M {moveto} def 
/R {rmoveto} def
/L {lineto} def
/rL {rlineto} def
/GSN {gsave newpath} def
/SGR {stroke grestore} def
/COSGR {gsave setrgbcolor stroke grestore grestore} def
/SL {setlinewidth} def
/LWMB {12} def             % line width - model curves, black & white
/LWMC {10} def             % line width - model curves, color
/L2 {2.5 setlinewidth} def
/L5 {5 setlinewidth} def
/L10 {10 setlinewidth} def
/G50 {0.5 setgray} def
/SDA {[10  20] 0 setdash} def % axes
/helvT {/Helvetica findfont 100 scalefont setfont} def % tiny
/helvS {/Helvetica findfont 125 scalefont setfont} def % small
/helvM {/Helvetica findfont 150 scalefont setfont} def % medium
/helvL {/Helvetica findfont 175 scalefont setfont} def % large
/xlabel {gsave M dup
   stringwidth exch -0.5 mul exch rmoveto show grestore} def 
/ylabel {gsave M 90 rotate dup
   stringwidth exch -0.5 mul exch rmoveto show grestore} def
/ylabelresid {gsave M dup
   stringwidth exch -1 mul exch rmoveto show grestore} def
% ======
% Shapes
% ======
% Circle:
/Circ {0 360 arc closepath} def
%
% Square:
/Squa {dup dup -0.5 mul dup dup R -2 mul 0 exch rL 1 mul 0 rL dup 0 exch -1 mul rL closepath} def
%
% Triangle Up:
/TriU {dup dup dup -0.4 mul exch -0.5 mul exch R dup 0.5 mul exch rL dup -1 mul exch 0.5 mul exch rL closepath} def 
%
% Triangle Down:
/TriD {dup dup dup 0.4 mul exch -0.5 mul exch R dup 0.5 mul exch -1 mul rL dup 0.5 mul exch rL closepath} def 
%
% Diamond:
/Diam {45 rotate Squa} def
% ======
% Fills
% ======
/GRF {gsave setgray fill grestore} def                    % gray-level Fill
/COF {gsave setrgbcolor fill grestore} def                % color fill
% ======
% Colors
% ======
/C01 {1.00	0.00	0.00} def      % Red
/C02 {0.00	0.00	1.00} def      % Blue
/C03 {0.00	0.39	0.00} def      % Dark Green
/C04 {0.78	0.08	0.52} def      % Medium Violet Red
/C05 {0.55	0.27	0.07} def      % Saddle Brown
/C06 {0.10	0.70	0.70} def      % (cyan)
/C07 {1.00	0.55	0.00} def      % Dark Orange
/C08 {0.63	0.13	0.94} def      % Purple
/C09 {0.00	0.75	1.00} def      % Deep Sky Blue
/C10 {0.20	0.80	0.20} def      % Lime Green
/C11 {0.47	0.53	0.60} def      % Light Slate Gray
/C12 {0.00	0.00	0.00} def      % Black            % or: {0.19	0.31	0.31} def      % Dark Slate Gray
%
/LGR {0.75} def % light gray
/DGR {0.33} def % dark gray
%
% =============
% Dash patterns
% =============
/dash01 { [80  20] 0 setdash } def
/dash02 { [40  20] 0 setdash } def
/dash03 { [80  20  10  20] 0 setdash } def
/dash04 { [40  20  10  20] 0 setdash } def
/dash05 { [80  20  10  10  10  20] 0 setdash } def
/dash06 { [40  20  10  10  10  20] 0 setdash } def
/dash07 { [10  10] 0 setdash } def
%
/MFshow {
   { dup 5 get 3 ge
     { 5 get 3 eq {gsave} {grestore} ifelse }
     {dup dup 0 get findfont exch 1 get scalefont setfont
     [ currentpoint ] exch dup 2 get 0 exch R dup 5 get 2 ne {dup dup 6
     get exch 4 get {show} {stringwidth pop 0 R} ifelse }if dup 5 get 0 eq
     {dup 3 get {2 get neg 0 exch R pop} {pop aload pop M} ifelse} {dup 5
     get 1 eq {dup 2 get exch dup 3 get exch 6 get stringwidth pop -2 div
     dup 0 R} {dup 6 get stringwidth pop -2 div 0 R 6 get
     show 2 index {aload pop M neg 3 -1 roll neg R pop pop} {pop pop pop
     pop aload pop M} ifelse }ifelse }ifelse }
     ifelse }
   forall} bind def
/MFwidth {0 exch {dup 3 get{dup dup 0 get findfont exch 1 get scalefont
     setfont 6 get stringwidth pop add} {pop} ifelse} forall} bind def
/MCshow { currentpoint stroke M
  exch dup MFwidth -2 div 3 -1 roll R MFshow } def
%
end
%%EndProlog
bkdict begin
0.1 0.1 scale
%
% Residuals:
%
GSN 620 3955 M
620 3304 L
620 3502 L
620 4151 L
620 3883 L
620 3684 L
620 3781 L
620 3823 L
620 3958 L
620 3842 L
620 3934 L
620 3433 L
620 4409 L
620 3661 L
620 4052 L
620 4238 L
620 4154 L
620 4308 L
620 3689 L
620 4015 L
620 3892 L
620 3639 L
620 3807 L
620 4040 L
620 3670 L
620 4213 L
620 4528 L
620 4160 L
620 4452 L
620 4063 L
620 3826 L
620 3251 L
620 3631 L
620 3725 L
620 4237 L
620 4246 L
620 3956 L
620 4013 L
620 4214 L
620 4211 L
620 4480 L
620 4863 L
620 3778 L
620 4041 L
620 3437 L
620 3743 L
620 3512 L
620 4076 L
620 4126 L
620 4008 L
620 4201 L
620 4381 L
620 3564 L
620 2772 L
620 3273 L
620 3777 L
620 4133 L
620 4538 L
620 3843 L
620 3595 L
620 3357 L
620 4153 L
620 3308 L
620 3616 L
620 4192 L
620 4047 L
620 3319 L
620 3804 L
620 3772 L
620 3491 L
620 3423 L
620 4087 L
620 3671 L
620 3881 L
620 3444 L
620 3872 L
620 3908 L
620 3833 L
620 3683 L
620 3708 L
620 3862 L
620 3453 L
620 3419 L
620 3630 L
620 3857 L
620 3763 L
620 3861 L
620 3936 L
620 3163 L
620 3342 L
620 3490 L
620 4277 L
620 3287 L
620 2679 L
620 3889 L
620 3183 L
620 3655 L
620 2956 L
620 3624 L
620 3430 L
620 3141 L
620 2871 L
620 3466 L
620 3199 L
620 2275 L
620 3130 L
620 3220 L
620 2368 L
620 3327 L
620 2946 L
620 3461 L
620 2662 L
620 3539 L
620 3520 L
620 3337 L
620 3034 L
620 3064 L
620 3143 L
620 2834 L
620 2967 L
620 3155 L
620 3109 L
620 3063 L
620 2528 L
620 2909 L
620 2822 L
620 2492 L
620 2768 L
620 3208 L
620 2568 L
620 3008 L
620 2602 L
620 2643 L
620 2516 L
620 2826 L
620 2738 L
620 2615 L
620 2651 L
620 3040 L
620 2529 L
620 2838 L
620 2466 L
620 2571 L
620 2677 L
620 2588 L
620 2519 L
620 2430 L
620 2505 L
620 2456 L
620 2765 L
620 2940 L
620 2552 L
620 2921 L
620 3424 L
620 2569 L
620 2445 L
620 2495 L
620 3097 L
620 2754 L
620 2740 L
620 3476 L
620 3302 L
620 2372 L
620 3009 L
620 2552 L
620 2960 L
620 2955 L
620 2916 L
620 2990 L
620 2985 L
620 3229 L
620 2573 L
620 3414 L
620 3379 L
620 3081 L
620 3643 L
620 2136 L
620 2723 L
620 3255 L
620 2748 L
620 2892 L
620 2927 L
620 2907 L
620 3101 L
620 2236 L
620 3156 L
620 3375 L
620 4290 L
620 2982 L
620 4007 L
620 2500 L
620 3505 L
620 3281 L
620 2539 L
620 3226 L
620 3365 L
620 3286 L
620 2729 L
620 3281 L
620 2903 L
620 2998 L
620 3037 L
620 3256 L
620 3366 L
620 2784 L
620 2918 L
620 2893 L
620 3585 L
620 3421 L
620 2789 L
620 3420 L
620 3181 L
620 3460 L
620 3868 L
620 3649 L
620 3550 L
620 3614 L
620 3630 L
620 4012 L
620 3316 L
620 3440 L
620 3938 L
620 3704 L
620 3172 L
620 3251 L
620 3754 L
620 3102 L
620 3818 L
620 2764 L
620 3241 L
620 3609 L
620 3943 L
620 3878 L
620 3570 L
620 3515 L
620 3267 L
620 3261 L
620 3430 L
620 3252 L
620 3624 L
620 3152 L
620 3107 L
620 3077 L
620 3461 L
620 3346 L
620 3336 L
620 3480 L
620 3117 L
620 3545 L
620 3923 L
620 3729 L
620 3082 L
620 3993 L
620 4196 L
620 3674 L
620 3291 L
620 3157 L
620 3490 L
620 3485 L
620 3117 L
620 2884 L
620 3211 L
620 2824 L
620 3092 L
620 4341 L
620 3963 L
620 3560 L
620 3634 L
620 4261 L
620 4152 L
620 3590 L
620 2923 L
620 2973 L
620 4097 L
620 4266 L
620 3624 L
620 4246 L
620 3913 L
620 3107 L
620 3629 L
620 3216 L
620 3465 L
620 3814 L
620 3684 L
620 3461 L
620 4087 L
620 3371 L
620 3993 L
620 4211 L
620 3953 L
620 3764 L
620 4127 L
620 4186 L
620 4047 L
620 4341 L
620 4460 L
620 3749 L
620 3983 L
620 3704 L
620 4192 L
620 3316 L
620 3664 L
620 3679 L
620 3759 L
620 4251 L
620 3719 L
620 4082 L
620 4570 L
620 3853 L
620 3928 L
620 3848 L
620 4191 L
620 3614 L
620 3744 L
620 3863 L
620 3888 L
620 3814 L
620 3848 L
620 4157 L
620 3401 L
620 4520 L
620 4659 L
620 3674 L
620 4162 L
620 3102 L
620 3863 L
620 4475 L
620 3540 L
620 3311 L
620 3714 L
620 4087 L
620 4565 L
620 3819 L
620 3331 L
620 3789 L
620 3868 L
620 4301 L
620 3679 L
620 3803 L
620 3639 L
620 3476 L
620 4167 L
620 3893 L
620 3560 L
620 4077 L
620 3749 L
620 3953 L
620 4371 L
620 3654 L
620 3450 L
620 4221 L
620 4072 L
620 3395 L
620 3416 L
620 3778 L
620 3341 L
620 3714 L
620 3878 L
620 3694 L
620 4624 L
620 3261 L
620 4052 L
620 4047 L
620 4510 L
620 3550 L
620 3724 L
620 3575 L
620 3963 L
620 3286 L
620 3709 L
620 3540 L
620 3610 L
620 4012 L
620 3316 L
620 4186 L
620 4321 L
620 3848 L
620 3505 L
620 3306 L
620 4122 L
620 3858 L
620 4097 L
620 3207 L
620 3714 L
620 3883 L
620 3704 L
620 3883 L
620 3590 L
620 4212 L
620 3659 L
620 3933 L
620 3759 L
620 3858 L
620 3873 L
620 3729 L
620 3774 L
620 4191 L
620 3396 L
620 3649 L
620 3958 L
620 4102 L
620 3441 L
620 4152 L
620 3833 L
620 4395 L
620 3251 L
620 4212 L
620 3948 L
620 3764 L
620 3530 L
620 3788 L
620 3839 L
620 4147 L
620 4102 L
620 3226 L
620 3415 L
620 3739 L
620 3495 L
620 3839 L
620 4162 L
620 3222 L
620 3406 L
620 3431 L
620 4027 L
620 3067 L
620 3614 L
620 3351 L
620 3679 L
620 3799 L
620 3973 L
620 4092 L
620 3888 L
620 3580 L
620 3988 L
620 3988 L
620 3968 L
620 3853 L
620 3664 L
620 2973 L
620 3510 L
620 4405 L
620 4186 L
620 3704 L
620 3918 L
620 4167 L
620 3063 L
620 4017 L
620 3963 L
620 3256 L
620 3828 L
620 3122 L
620 3669 L
620 4157 L
620 4296 L
620 3535 L
620 4430 L
620 3341 L
620 3838 L
620 3799 L
620 4376 L
620 3271 L
620 4226 L
620 4157 L
620 3844 L
620 3629 L
620 3739 L
620 3639 L
620 4381 L
620 3624 L
620 3898 L
620 4222 L
620 3719 L
620 3833 L
620 3704 L
620 4440 L
620 3699 L
620 3435 L
620 4212 L
620 3997 L
620 4122 L
620 3421 L
620 4062 L
620 3968 L
620 4281 L
620 4405 L
620 4161 L
620 3778 L
620 4023 L
620 3823 L
620 4032 L
620 4714 L
620 3923 L
620 4162 L
620 3679 L
620 4122 L
620 3749 L
620 3968 L
620 3948 L
620 4072 L
620 3540 L
620 3689 L
620 3306 L
620 4112 L
620 4694 L
620 3043 L
620 4386 L
620 3829 L
620 3664 L
620 4172 L
620 4296 L
620 3754 L
620 4425 L
620 4182 L
620 3664 L
620 3928 L
620 3873 L
620 3958 L
620 4365 L
620 4137 L
620 3814 L
620 4833 L
620 3838 L
620 3893 L
620 4231 L
620 4152 L
620 3361 L
620 3928 L
620 3196 L
620 3734 L
620 4027 L
620 4201 L
620 3679 L
620 4127 L
L2 C01 COSGR

%
%================
% Legend - Begin
%================
%
GSN 4240 5180 M
4480 5180 L
LWMC SL  C01 COSGR
GSN 4540 5141 M helvM (0.5 uM) show grestore
%
%================
% Legend - End
%================
%

%
% Main frame
%
L10
GSN 
620 1700 M
4220 1700 L
4220 5300 L
620 5300 L
closepath SGR

%
% X axis: large tics
%
L10
%
% X axis: small tics
%
L5
%
% Y axis: large tics
%
L10
GSN 620 2637 M 54 0 rL SGR
GSN 4220 2637 M -54 0 rL SGR
helvS (-0.01) 560 2637 ylabel
GSN 620 3615 M 54 0 rL SGR
GSN 4220 3615 M -54 0 rL SGR
helvS (0) 560 3615 ylabel
GSN 620 4593 M 54 0 rL SGR
GSN 4220 4593 M -54 0 rL SGR
helvS (0.01) 560 4593 ylabel
%
% Y axis: small tics
%
L5
GSN 620 1904 M 36 0 rL SGR
GSN 4220 1904 M -36 0 rL SGR
GSN 620 2148 M 36 0 rL SGR
GSN 4220 2148 M -36 0 rL SGR
GSN 620 2393 M 36 0 rL SGR
GSN 4220 2393 M -36 0 rL SGR
GSN 620 2637 M 36 0 rL SGR
GSN 4220 2637 M -36 0 rL SGR
GSN 620 2882 M 36 0 rL SGR
GSN 4220 2882 M -36 0 rL SGR
GSN 620 3126 M 36 0 rL SGR
GSN 4220 3126 M -36 0 rL SGR
GSN 620 3371 M 36 0 rL SGR
GSN 4220 3371 M -36 0 rL SGR
GSN 620 3615 M 36 0 rL SGR
GSN 4220 3615 M -36 0 rL SGR
GSN 620 3860 M 36 0 rL SGR
GSN 4220 3860 M -36 0 rL SGR
GSN 620 4104 M 36 0 rL SGR
GSN 4220 4104 M -36 0 rL SGR
GSN 620 4349 M 36 0 rL SGR
GSN 4220 4349 M -36 0 rL SGR
GSN 620 4593 M 36 0 rL SGR
GSN 4220 4593 M -36 0 rL SGR
GSN 620 4838 M 36 0 rL SGR
GSN 4220 4838 M -36 0 rL SGR
GSN 620 5082 M 36 0 rL SGR
GSN 4220 5082 M -36 0 rL SGR

%
% X axis - residual panel
%
GSN L5 620 3615 M 4220 3615 L SDA G50 SGR

%
% X-Axis label:
%
gsave 620 1370 M 
[
[(Helvetica) 180 0 true true 0 (t)]
[(Helvetica) 180 0 true true 0 (i)]
[(Helvetica) 180 0 true true 0 (m)]
[(Helvetica) 180 0 true true 0 (e)]
] 0 MCshow grestore

%
% Y-Axis label:
%
gsave 234 3500 M 
currentpoint gsave translate 90 rotate 0 0 moveto
[
[(Helvetica) 180 0 true true 0 (r)]
[(Helvetica) 180 0 true true 0 (e)]
[(Helvetica) 180 0 true true 0 (s)]
[(Helvetica) 180 0 true true 0 (i)]
[(Helvetica) 180 0 true true 0 (d)]
[(Helvetica) 180 0 true true 0 (u)]
[(Helvetica) 180 0 true true 0 (a)]
[(Helvetica) 180 0 true true 0 (l)]
[(Helvetica) 180 0 true true 0 (s)]
] 0 MCshow grestore

end
showpage
%%Trailer
%%EOF
