%!PS-Adobe-3.0 EPSF-3.0
%%BoundingBox: 0 0 514 550
%%Creator: BioKin Ltd.
%%DocumentFonts: Symbol Helvetica
%%EndComments
%
/bkdict 256 dict def
bkdict begin
/M {moveto} def 
/R {rmoveto} def
/L {lineto} def
/rL {rlineto} def
/GSN {gsave newpath} def
/SGR {stroke grestore} def
/COSGR {gsave setrgbcolor stroke grestore grestore} def
/SL {setlinewidth} def
/LWMB {12} def             % line width - model curves, black & white
/LWMC {10} def             % line width - model curves, color
/L2 {2.5 setlinewidth} def
/L5 {5 setlinewidth} def
/L10 {10 setlinewidth} def
/G50 {0.5 setgray} def
/SDA {[10  20] 0 setdash} def % axes
/helvT {/Helvetica findfont 100 scalefont setfont} def % tiny
/helvS {/Helvetica findfont 125 scalefont setfont} def % small
/helvM {/Helvetica findfont 150 scalefont setfont} def % medium
/helvL {/Helvetica findfont 175 scalefont setfont} def % large
/xlabel {gsave M dup
   stringwidth exch -0.5 mul exch rmoveto show grestore} def 
/ylabel {gsave M 90 rotate dup
   stringwidth exch -0.5 mul exch rmoveto show grestore} def
/ylabelresid {gsave M dup
   stringwidth exch -1 mul exch rmoveto show grestore} def
% ======
% Shapes
% ======
% Circle:
/Circ {0 360 arc closepath} def
%
% Square:
/Squa {dup dup -0.5 mul dup dup R -2 mul 0 exch rL 1 mul 0 rL dup 0 exch -1 mul rL closepath} def
%
% Triangle Up:
/TriU {dup dup dup -0.4 mul exch -0.5 mul exch R dup 0.5 mul exch rL dup -1 mul exch 0.5 mul exch rL closepath} def 
%
% Triangle Down:
/TriD {dup dup dup 0.4 mul exch -0.5 mul exch R dup 0.5 mul exch -1 mul rL dup 0.5 mul exch rL closepath} def 
%
% Diamond:
/Diam {45 rotate Squa} def
% ======
% Fills
% ======
/GRF {gsave setgray fill grestore} def                    % gray-level Fill
/COF {gsave setrgbcolor fill grestore} def                % color fill
% ======
% Colors
% ======
/C01 {1.00	0.00	0.00} def      % Red
/C02 {0.00	0.00	1.00} def      % Blue
/C03 {0.00	0.39	0.00} def      % Dark Green
/C04 {0.78	0.08	0.52} def      % Medium Violet Red
/C05 {0.55	0.27	0.07} def      % Saddle Brown
/C06 {0.10	0.70	0.70} def      % (cyan)
/C07 {1.00	0.55	0.00} def      % Dark Orange
/C08 {0.63	0.13	0.94} def      % Purple
/C09 {0.00	0.75	1.00} def      % Deep Sky Blue
/C10 {0.20	0.80	0.20} def      % Lime Green
/C11 {0.47	0.53	0.60} def      % Light Slate Gray
/C12 {0.00	0.00	0.00} def      % Black            % or: {0.19	0.31	0.31} def      % Dark Slate Gray
%
/LGR {0.75} def % light gray
/DGR {0.33} def % dark gray
%
% =============
% Dash patterns
% =============
/dash01 { [80  20] 0 setdash } def
/dash02 { [40  20] 0 setdash } def
/dash03 { [80  20  10  20] 0 setdash } def
/dash04 { [40  20  10  20] 0 setdash } def
/dash05 { [80  20  10  10  10  20] 0 setdash } def
/dash06 { [40  20  10  10  10  20] 0 setdash } def
/dash07 { [10  10] 0 setdash } def
%
/MFshow {
   { dup 5 get 3 ge
     { 5 get 3 eq {gsave} {grestore} ifelse }
     {dup dup 0 get findfont exch 1 get scalefont setfont
     [ currentpoint ] exch dup 2 get 0 exch R dup 5 get 2 ne {dup dup 6
     get exch 4 get {show} {stringwidth pop 0 R} ifelse }if dup 5 get 0 eq
     {dup 3 get {2 get neg 0 exch R pop} {pop aload pop M} ifelse} {dup 5
     get 1 eq {dup 2 get exch dup 3 get exch 6 get stringwidth pop -2 div
     dup 0 R} {dup 6 get stringwidth pop -2 div 0 R 6 get
     show 2 index {aload pop M neg 3 -1 roll neg R pop pop} {pop pop pop
     pop aload pop M} ifelse }ifelse }ifelse }
     ifelse }
   forall} bind def
/MFwidth {0 exch {dup 3 get{dup dup 0 get findfont exch 1 get scalefont
     setfont 6 get stringwidth pop add} {pop} ifelse} forall} bind def
/MCshow { currentpoint stroke M
  exch dup MFwidth -2 div 3 -1 roll R MFshow } def
%
end
%%EndProlog
bkdict begin
0.1 0.1 scale
%
% Residuals:
%
GSN 620 3261 M
620 2735 L
620 3126 L
620 4442 L
620 4372 L
620 3794 L
620 3718 L
620 3433 L
620 3472 L
620 3499 L
620 3297 L
620 3864 L
620 3174 L
620 3710 L
620 3753 L
620 3383 L
620 3313 L
620 3493 L
620 3241 L
620 3590 L
620 3366 L
620 3399 L
620 3694 L
620 3884 L
620 2996 L
620 3545 L
620 4266 L
620 3574 L
620 3720 L
620 3610 L
620 3499 L
620 3525 L
620 3138 L
620 3924 L
620 3723 L
620 3627 L
620 3212 L
620 3945 L
620 3894 L
620 3324 L
620 3450 L
620 3502 L
620 3643 L
620 3065 L
620 2926 L
620 3875 L
620 3359 L
620 3024 L
620 3204 L
620 3676 L
620 2657 L
620 2876 L
620 3382 L
620 3597 L
620 3045 L
620 3631 L
620 3622 L
620 3427 L
620 2908 L
620 3714 L
620 4124 L
620 3709 L
620 2934 L
620 2602 L
620 3400 L
620 3113 L
620 3113 L
620 3294 L
620 3484 L
620 2744 L
620 4065 L
620 3274 L
620 3156 L
620 3118 L
620 3586 L
620 2733 L
620 4054 L
620 3624 L
620 3924 L
620 3106 L
620 3441 L
620 3227 L
620 3248 L
620 3057 L
620 2956 L
620 3012 L
620 3146 L
620 3663 L
620 2843 L
620 2988 L
620 3721 L
620 3179 L
620 3318 L
620 3167 L
620 3151 L
620 3341 L
620 2361 L
620 3285 L
620 3076 L
620 2949 L
620 3169 L
620 3041 L
620 2327 L
620 2703 L
620 3580 L
620 2705 L
620 3143 L
620 3639 L
620 2887 L
620 3008 L
620 2499 L
620 2333 L
620 2686 L
620 2551 L
620 2711 L
620 2641 L
620 2875 L
620 2696 L
620 2692 L
620 3097 L
620 2412 L
620 2713 L
620 2814 L
620 2751 L
620 2398 L
620 2646 L
620 3341 L
620 2823 L
620 2974 L
620 2461 L
620 3082 L
620 3022 L
620 2628 L
620 2364 L
620 3931 L
620 3045 L
620 2605 L
620 2344 L
620 3015 L
620 3341 L
620 2647 L
620 2821 L
620 3702 L
620 3050 L
620 3185 L
620 3364 L
620 2957 L
620 3436 L
620 2667 L
620 2920 L
620 3429 L
620 3217 L
620 3332 L
620 2907 L
620 3458 L
620 3887 L
620 3046 L
620 3678 L
620 2894 L
620 3031 L
620 3483 L
620 2772 L
620 3613 L
620 3760 L
620 3338 L
620 3350 L
620 3083 L
620 3644 L
620 3402 L
620 2554 L
620 3094 L
620 3830 L
620 3450 L
620 2923 L
620 2949 L
620 3533 L
620 3652 L
620 2820 L
620 3522 L
620 2974 L
620 3252 L
620 3276 L
620 2659 L
620 3907 L
620 3269 L
620 3311 L
620 4341 L
620 3736 L
620 3881 L
620 3892 L
620 3856 L
620 3296 L
620 3410 L
620 3492 L
620 2431 L
620 3114 L
620 3745 L
620 3783 L
620 3099 L
620 3143 L
620 3786 L
620 3412 L
620 3595 L
620 3989 L
620 3288 L
620 3631 L
620 3360 L
620 3500 L
620 3352 L
620 3871 L
620 4016 L
620 3968 L
620 3393 L
620 3598 L
620 3182 L
620 3978 L
620 3279 L
620 3611 L
620 4101 L
620 3609 L
620 3782 L
620 3882 L
620 3519 L
620 3327 L
620 3543 L
620 4078 L
620 3939 L
620 3726 L
620 4069 L
620 3669 L
620 3188 L
620 3676 L
620 3345 L
620 3820 L
620 3576 L
620 3801 L
620 3876 L
620 4155 L
620 3621 L
620 3743 L
620 4011 L
620 3474 L
620 3988 L
620 3710 L
620 3743 L
620 3241 L
620 2986 L
620 4316 L
620 4162 L
620 4070 L
620 3939 L
620 3402 L
620 4179 L
620 3368 L
620 3938 L
620 4065 L
620 4217 L
620 4378 L
620 3978 L
620 3802 L
620 3822 L
620 3465 L
620 3965 L
620 3930 L
620 4142 L
620 3973 L
620 4306 L
620 3404 L
620 4198 L
620 3423 L
620 4321 L
620 3283 L
620 3483 L
620 3255 L
620 4182 L
620 3426 L
620 4076 L
620 3178 L
620 3946 L
620 4349 L
620 3883 L
620 4471 L
620 4356 L
620 4501 L
620 3924 L
620 3756 L
620 4530 L
620 4365 L
620 3239 L
620 3938 L
620 4044 L
620 3923 L
620 4288 L
620 4656 L
620 4175 L
620 4226 L
620 4245 L
620 4341 L
620 4306 L
620 4446 L
620 4248 L
620 3590 L
620 3669 L
620 3799 L
620 3885 L
620 4660 L
620 4056 L
620 4497 L
620 4231 L
620 4764 L
620 4591 L
620 4208 L
620 4718 L
620 4040 L
620 4769 L
620 4029 L
620 4791 L
620 4118 L
620 4551 L
620 4576 L
620 4012 L
620 4109 L
620 4188 L
620 4129 L
620 4447 L
620 3836 L
620 4721 L
620 3981 L
620 3504 L
620 4302 L
620 3236 L
620 4037 L
620 3847 L
620 4006 L
620 3439 L
620 4863 L
620 3272 L
620 3886 L
620 4051 L
620 4302 L
620 3702 L
620 3970 L
620 4151 L
620 4165 L
620 4249 L
620 4176 L
620 4040 L
620 3878 L
620 3183 L
620 3052 L
620 4219 L
620 4151 L
620 3825 L
620 3433 L
620 3721 L
620 4073 L
620 3984 L
620 3990 L
620 3872 L
620 4056 L
620 3816 L
620 4087 L
620 3551 L
620 2982 L
620 3551 L
620 3646 L
620 4040 L
620 3629 L
620 3529 L
620 4046 L
620 4651 L
620 3398 L
620 3688 L
620 3811 L
620 3908 L
620 3509 L
620 3239 L
620 3090 L
620 3387 L
620 4307 L
620 4073 L
620 3239 L
620 3498 L
620 3370 L
620 3272 L
620 2929 L
620 3830 L
620 3038 L
620 3258 L
620 3763 L
620 4046 L
620 2853 L
620 3478 L
620 3621 L
620 3146 L
620 2957 L
620 3484 L
620 3353 L
620 2697 L
620 3297 L
620 2965 L
620 3654 L
620 3822 L
620 3035 L
620 2711 L
620 3847 L
620 2661 L
620 3082 L
620 3654 L
620 3395 L
620 3138 L
620 3202 L
620 3141 L
620 3225 L
620 3627 L
620 2979 L
620 2817 L
620 3015 L
620 3238 L
620 3504 L
620 2649 L
620 3230 L
620 2900 L
620 3144 L
620 3051 L
620 3161 L
620 3166 L
620 2535 L
620 3875 L
620 3090 L
620 3188 L
620 3191 L
620 2150 L
620 3244 L
620 2789 L
620 3509 L
620 2940 L
620 3286 L
620 3211 L
620 3375 L
620 3222 L
620 3233 L
620 3286 L
620 2759 L
620 3250 L
620 2616 L
620 2834 L
620 3529 L
620 2867 L
620 3264 L
620 3347 L
620 3386 L
620 2789 L
620 2437 L
620 2770 L
620 2415 L
620 3146 L
620 3161 L
620 2859 L
620 2756 L
620 2700 L
620 2650 L
620 2820 L
620 3105 L
620 2948 L
620 2275 L
620 2909 L
620 3060 L
620 2797 L
620 2136 L
620 2524 L
620 3459 L
620 3093 L
620 2954 L
620 2365 L
620 2315 L
620 2602 L
620 2460 L
620 3052 L
620 2418 L
620 2281 L
620 2937 L
620 2834 L
620 2850 L
620 3510 L
620 2415 L
620 3101 L
620 2820 L
620 2161 L
620 2323 L
620 2783 L
620 2960 L
620 2630 L
620 2641 L
620 2917 L
620 2962 L
620 3545 L
620 3228 L
620 3442 L
620 2510 L
620 2639 L
620 2996 L
620 3057 L
620 2636 L
620 2797 L
620 2502 L
620 3171 L
620 2619 L
620 2747 L
620 3266 L
620 3389 L
620 2795 L
620 2987 L
620 3085 L
620 2982 L
620 2356 L
620 2929 L
620 3214 L
620 2544 L
620 2850 L
620 2789 L
620 2926 L
620 2331 L
620 2915 L
620 3004 L
620 3356 L
620 2602 L
620 2999 L
620 2454 L
620 3038 L
620 2747 L
620 2951 L
620 2892 L
L2 C03 COSGR

%
%================
% Legend - Begin
%================
%
GSN 4240 5180 M
4480 5180 L
LWMC SL  C03 COSGR
GSN 4540 5141 M helvM (1.5 uM) show grestore
%
%================
% Legend - End
%================
%

%
% Main frame
%
L10
GSN 
620 1700 M
4220 1700 L
4220 5300 L
620 5300 L
closepath SGR

%
% X axis: large tics
%
L10
%
% X axis: small tics
%
L5
%
% Y axis: large tics
%
L10
GSN 620 1943 M 54 0 rL SGR
GSN 4220 1943 M -54 0 rL SGR
helvS (-0.01) 560 1943 ylabel
GSN 620 3407 M 54 0 rL SGR
GSN 4220 3407 M -54 0 rL SGR
helvS (0) 560 3407 ylabel
GSN 620 4870 M 54 0 rL SGR
GSN 4220 4870 M -54 0 rL SGR
helvS (0.01) 560 4870 ylabel
%
% Y axis: small tics
%
L5
GSN 620 1943 M 36 0 rL SGR
GSN 4220 1943 M -36 0 rL SGR
GSN 620 2309 M 36 0 rL SGR
GSN 4220 2309 M -36 0 rL SGR
GSN 620 2675 M 36 0 rL SGR
GSN 4220 2675 M -36 0 rL SGR
GSN 620 3041 M 36 0 rL SGR
GSN 4220 3041 M -36 0 rL SGR
GSN 620 3407 M 36 0 rL SGR
GSN 4220 3407 M -36 0 rL SGR
GSN 620 3773 M 36 0 rL SGR
GSN 4220 3773 M -36 0 rL SGR
GSN 620 4138 M 36 0 rL SGR
GSN 4220 4138 M -36 0 rL SGR
GSN 620 4504 M 36 0 rL SGR
GSN 4220 4504 M -36 0 rL SGR
GSN 620 4870 M 36 0 rL SGR
GSN 4220 4870 M -36 0 rL SGR
GSN 620 5236 M 36 0 rL SGR
GSN 4220 5236 M -36 0 rL SGR

%
% X axis - residual panel
%
GSN L5 620 3407 M 4220 3407 L SDA G50 SGR

%
% X-Axis label:
%
gsave 620 1370 M 
[
[(Helvetica) 180 0 true true 0 (t)]
[(Helvetica) 180 0 true true 0 (i)]
[(Helvetica) 180 0 true true 0 (m)]
[(Helvetica) 180 0 true true 0 (e)]
] 0 MCshow grestore

%
% Y-Axis label:
%
gsave 234 3500 M 
currentpoint gsave translate 90 rotate 0 0 moveto
[
[(Helvetica) 180 0 true true 0 (r)]
[(Helvetica) 180 0 true true 0 (e)]
[(Helvetica) 180 0 true true 0 (s)]
[(Helvetica) 180 0 true true 0 (i)]
[(Helvetica) 180 0 true true 0 (d)]
[(Helvetica) 180 0 true true 0 (u)]
[(Helvetica) 180 0 true true 0 (a)]
[(Helvetica) 180 0 true true 0 (l)]
[(Helvetica) 180 0 true true 0 (s)]
] 0 MCshow grestore

end
showpage
%%Trailer
%%EOF
