%!PS-Adobe-3.0 EPSF-3.0
%%BoundingBox: 0 0 514 550
%%Creator: BioKin Ltd.
%%DocumentFonts: Symbol Helvetica
%%EndComments
%
/bkdict 256 dict def
bkdict begin
/M {moveto} def 
/R {rmoveto} def
/L {lineto} def
/rL {rlineto} def
/GSN {gsave newpath} def
/SGR {stroke grestore} def
/COSGR {gsave setrgbcolor stroke grestore grestore} def
/SL {setlinewidth} def
/LWMB {12} def             % line width - model curves, black & white
/LWMC {10} def             % line width - model curves, color
/L2 {2.5 setlinewidth} def
/L5 {5 setlinewidth} def
/L10 {10 setlinewidth} def
/G50 {0.5 setgray} def
/SDA {[10  20] 0 setdash} def % axes
/helvT {/Helvetica findfont 100 scalefont setfont} def % tiny
/helvS {/Helvetica findfont 125 scalefont setfont} def % small
/helvM {/Helvetica findfont 150 scalefont setfont} def % medium
/helvL {/Helvetica findfont 175 scalefont setfont} def % large
/xlabel {gsave M dup
   stringwidth exch -0.5 mul exch rmoveto show grestore} def 
/ylabel {gsave M 90 rotate dup
   stringwidth exch -0.5 mul exch rmoveto show grestore} def
/ylabelresid {gsave M dup
   stringwidth exch -1 mul exch rmoveto show grestore} def
% ======
% Shapes
% ======
% Circle:
/Circ {0 360 arc closepath} def
%
% Square:
/Squa {dup dup -0.5 mul dup dup R -2 mul 0 exch rL 1 mul 0 rL dup 0 exch -1 mul rL closepath} def
%
% Triangle Up:
/TriU {dup dup dup -0.4 mul exch -0.5 mul exch R dup 0.5 mul exch rL dup -1 mul exch 0.5 mul exch rL closepath} def 
%
% Triangle Down:
/TriD {dup dup dup 0.4 mul exch -0.5 mul exch R dup 0.5 mul exch -1 mul rL dup 0.5 mul exch rL closepath} def 
%
% Diamond:
/Diam {45 rotate Squa} def
% ======
% Fills
% ======
/GRF {gsave setgray fill grestore} def                    % gray-level Fill
/COF {gsave setrgbcolor fill grestore} def                % color fill
% ======
% Colors
% ======
/C01 {1.00	0.00	0.00} def      % Red
/C02 {0.00	0.00	1.00} def      % Blue
/C03 {0.00	0.39	0.00} def      % Dark Green
/C04 {0.78	0.08	0.52} def      % Medium Violet Red
/C05 {0.55	0.27	0.07} def      % Saddle Brown
/C06 {0.10	0.70	0.70} def      % (cyan)
/C07 {1.00	0.55	0.00} def      % Dark Orange
/C08 {0.63	0.13	0.94} def      % Purple
/C09 {0.00	0.75	1.00} def      % Deep Sky Blue
/C10 {0.20	0.80	0.20} def      % Lime Green
/C11 {0.47	0.53	0.60} def      % Light Slate Gray
/C12 {0.00	0.00	0.00} def      % Black            % or: {0.19	0.31	0.31} def      % Dark Slate Gray
%
/LGR {0.75} def % light gray
/DGR {0.33} def % dark gray
%
% =============
% Dash patterns
% =============
/dash01 { [80  20] 0 setdash } def
/dash02 { [40  20] 0 setdash } def
/dash03 { [80  20  10  20] 0 setdash } def
/dash04 { [40  20  10  20] 0 setdash } def
/dash05 { [80  20  10  10  10  20] 0 setdash } def
/dash06 { [40  20  10  10  10  20] 0 setdash } def
/dash07 { [10  10] 0 setdash } def
%
/MFshow {
   { dup 5 get 3 ge
     { 5 get 3 eq {gsave} {grestore} ifelse }
     {dup dup 0 get findfont exch 1 get scalefont setfont
     [ currentpoint ] exch dup 2 get 0 exch R dup 5 get 2 ne {dup dup 6
     get exch 4 get {show} {stringwidth pop 0 R} ifelse }if dup 5 get 0 eq
     {dup 3 get {2 get neg 0 exch R pop} {pop aload pop M} ifelse} {dup 5
     get 1 eq {dup 2 get exch dup 3 get exch 6 get stringwidth pop -2 div
     dup 0 R} {dup 6 get stringwidth pop -2 div 0 R 6 get
     show 2 index {aload pop M neg 3 -1 roll neg R pop pop} {pop pop pop
     pop aload pop M} ifelse }ifelse }ifelse }
     ifelse }
   forall} bind def
/MFwidth {0 exch {dup 3 get{dup dup 0 get findfont exch 1 get scalefont
     setfont 6 get stringwidth pop add} {pop} ifelse} forall} bind def
/MCshow { currentpoint stroke M
  exch dup MFwidth -2 div 3 -1 roll R MFshow } def
%
end
%%EndProlog
bkdict begin
0.1 0.1 scale
%
% Residuals:
%
GSN 620 4778 M
620 3823 L
620 3584 L
620 3662 L
620 3841 L
620 3128 L
620 4228 L
620 3816 L
620 3951 L
620 3826 L
620 3280 L
620 4019 L
620 3595 L
620 3514 L
620 3864 L
620 3610 L
620 3585 L
620 4016 L
620 3431 L
620 3988 L
620 4214 L
620 3975 L
620 4424 L
620 3894 L
620 4360 L
620 4584 L
620 3917 L
620 4280 L
620 4281 L
620 4636 L
620 4072 L
620 3762 L
620 4845 L
620 4089 L
620 4608 L
620 4403 L
620 4308 L
620 4409 L
620 4355 L
620 4288 L
620 3908 L
620 4549 L
620 4317 L
620 4346 L
620 4394 L
620 4132 L
620 4503 L
620 3990 L
620 4053 L
620 4288 L
620 4331 L
620 3958 L
620 3827 L
620 3772 L
620 4485 L
620 4161 L
620 4493 L
620 4163 L
620 4440 L
620 4521 L
620 4150 L
620 4556 L
620 4560 L
620 4804 L
620 4302 L
620 4049 L
620 4079 L
620 4211 L
620 3623 L
620 4354 L
620 4249 L
620 4056 L
620 4863 L
620 3850 L
620 4229 L
620 4642 L
620 3799 L
620 3768 L
620 4361 L
620 4166 L
620 4168 L
620 4088 L
620 4224 L
620 4524 L
620 4072 L
620 3800 L
620 4219 L
620 3673 L
620 3848 L
620 3901 L
620 4308 L
620 3638 L
620 4190 L
620 3891 L
620 3640 L
620 3713 L
620 3550 L
620 3516 L
620 3834 L
620 3543 L
620 4051 L
620 3611 L
620 3823 L
620 3356 L
620 3753 L
620 3331 L
620 3614 L
620 3462 L
620 3844 L
620 3709 L
620 3743 L
620 3414 L
620 3126 L
620 3025 L
620 3436 L
620 3357 L
620 3502 L
620 3885 L
620 3648 L
620 3407 L
620 3396 L
620 3287 L
620 3435 L
620 3113 L
620 3550 L
620 3401 L
620 3036 L
620 3160 L
620 3318 L
620 3320 L
620 3221 L
620 3493 L
620 3241 L
620 3555 L
620 2848 L
620 3584 L
620 3006 L
620 3916 L
620 3475 L
620 3656 L
620 3470 L
620 2902 L
620 3584 L
620 3580 L
620 3517 L
620 3345 L
620 3674 L
620 2990 L
620 3293 L
620 3149 L
620 3525 L
620 3293 L
620 3428 L
620 3301 L
620 3003 L
620 3906 L
620 3378 L
620 3278 L
620 3610 L
620 2817 L
620 3592 L
620 3713 L
620 3498 L
620 3361 L
620 3521 L
620 3339 L
620 3387 L
620 3330 L
620 3485 L
620 3596 L
620 3534 L
620 3251 L
620 3508 L
620 3762 L
620 3572 L
620 3316 L
620 3564 L
620 3179 L
620 3660 L
620 3581 L
620 3333 L
620 3824 L
620 3452 L
620 3555 L
620 3366 L
620 3218 L
620 3315 L
620 3438 L
620 3274 L
620 4235 L
620 3751 L
620 3367 L
620 3772 L
620 3182 L
620 3816 L
620 3889 L
620 3943 L
620 3672 L
620 3548 L
620 3636 L
620 3425 L
620 3462 L
620 3841 L
620 3627 L
620 3647 L
620 3591 L
620 3909 L
620 3699 L
620 3430 L
620 3631 L
620 3308 L
620 3980 L
620 2943 L
620 3742 L
620 3477 L
620 3833 L
620 3576 L
620 3534 L
620 3643 L
620 3652 L
620 3786 L
620 3935 L
620 3314 L
620 3564 L
620 3509 L
620 3705 L
620 3254 L
620 3801 L
620 3697 L
620 3400 L
620 3795 L
620 3460 L
620 3706 L
620 3489 L
620 3464 L
620 3735 L
620 3838 L
620 3938 L
620 3437 L
620 3713 L
620 3909 L
620 3551 L
620 3897 L
620 3528 L
620 3083 L
620 3713 L
620 3878 L
620 3720 L
620 3389 L
620 3462 L
620 4112 L
620 3561 L
620 3625 L
620 3807 L
620 4154 L
620 3287 L
620 3232 L
620 3639 L
620 3952 L
620 4260 L
620 3708 L
620 3543 L
620 4029 L
620 3641 L
620 3804 L
620 3399 L
620 3603 L
620 3074 L
620 3549 L
620 3363 L
620 4099 L
620 3908 L
620 4286 L
620 3478 L
620 3555 L
620 4044 L
620 3877 L
620 3901 L
620 3472 L
620 3194 L
620 3653 L
620 3951 L
620 2971 L
620 4249 L
620 3806 L
620 3911 L
620 3650 L
620 3975 L
620 3714 L
620 3247 L
620 3171 L
620 3724 L
620 3692 L
620 3607 L
620 3702 L
620 3590 L
620 4054 L
620 3664 L
620 3350 L
620 3910 L
620 3684 L
620 4020 L
620 4214 L
620 3716 L
620 3472 L
620 3571 L
620 3688 L
620 3858 L
620 3324 L
620 3151 L
620 3748 L
620 3649 L
620 4270 L
620 3937 L
620 3762 L
620 3626 L
620 3681 L
620 3853 L
620 4346 L
620 4003 L
620 4087 L
620 3882 L
620 3411 L
620 3922 L
620 3877 L
620 3480 L
620 3733 L
620 4089 L
620 3894 L
620 3612 L
620 4235 L
620 3559 L
620 3735 L
620 3786 L
620 4322 L
620 3325 L
620 3814 L
620 3733 L
620 3658 L
620 3679 L
620 3640 L
620 3512 L
620 3435 L
620 3774 L
620 3827 L
620 4212 L
620 3120 L
620 3867 L
620 3877 L
620 3719 L
620 3806 L
620 3760 L
620 3780 L
620 4056 L
620 3565 L
620 3985 L
620 3411 L
620 3459 L
620 3419 L
620 3260 L
620 3626 L
620 3425 L
620 3297 L
620 3423 L
620 4123 L
620 3269 L
620 3603 L
620 3386 L
620 3317 L
620 3425 L
620 4127 L
620 3133 L
620 3244 L
620 3124 L
620 3311 L
620 3120 L
620 3084 L
620 3082 L
620 3222 L
620 3374 L
620 2779 L
620 3325 L
620 3035 L
620 3561 L
620 3463 L
620 3135 L
620 3315 L
620 2883 L
620 2861 L
620 3132 L
620 2958 L
620 3315 L
620 2976 L
620 3445 L
620 3003 L
620 3238 L
620 3575 L
620 2913 L
620 3011 L
620 3112 L
620 2747 L
620 2751 L
620 3396 L
620 3336 L
620 2339 L
620 2970 L
620 3514 L
620 2962 L
620 3311 L
620 3425 L
620 3429 L
620 2704 L
620 3423 L
620 2781 L
620 3356 L
620 2690 L
620 2737 L
620 2672 L
620 3025 L
620 3165 L
620 3370 L
620 3009 L
620 3059 L
620 3078 L
620 3011 L
620 3051 L
620 3197 L
620 2877 L
620 2932 L
620 3327 L
620 2292 L
620 2422 L
620 3031 L
620 2978 L
620 3029 L
620 3252 L
620 2694 L
620 3248 L
620 3100 L
620 2741 L
620 3352 L
620 3289 L
620 2970 L
620 3218 L
620 2909 L
620 3027 L
620 2883 L
620 3074 L
620 3258 L
620 3076 L
620 2871 L
620 2219 L
620 3183 L
620 3319 L
620 3181 L
620 2552 L
620 2591 L
620 2970 L
620 3293 L
620 2745 L
620 2609 L
620 3264 L
620 3100 L
620 2873 L
620 2576 L
620 2562 L
620 2925 L
620 2787 L
620 2635 L
620 2662 L
620 2365 L
620 2944 L
620 2450 L
620 2856 L
620 2865 L
620 3151 L
620 2688 L
620 2725 L
620 3183 L
620 3059 L
620 2751 L
620 2390 L
620 2582 L
620 2773 L
620 2802 L
620 2477 L
620 2909 L
620 2946 L
620 2944 L
620 2901 L
620 2980 L
620 2150 L
620 2682 L
620 2375 L
620 2771 L
620 2964 L
620 2306 L
620 3400 L
620 2751 L
620 3104 L
620 2936 L
620 2286 L
620 2400 L
620 2416 L
620 2921 L
620 2426 L
620 2136 L
620 3053 L
620 2511 L
620 2574 L
620 2727 L
620 2353 L
620 2461 L
620 3047 L
620 2467 L
620 2901 L
620 2570 L
620 2660 L
620 3216 L
620 2800 L
620 3017 L
620 2201 L
620 2617 L
620 2725 L
620 2962 L
620 2465 L
620 2576 L
620 2828 L
620 2219 L
620 2761 L
620 2664 L
620 2791 L
620 3137 L
L2 C07 COSGR

%
%================
% Legend - Begin
%================
%
GSN 4240 5180 M
4480 5180 L
LWMC SL  C07 COSGR
GSN 4540 5141 M helvM (4.0 uM) show grestore
%
%================
% Legend - End
%================
%

%
% Main frame
%
L10
GSN 
620 1700 M
4220 1700 L
4220 5300 L
620 5300 L
closepath SGR

%
% X axis: large tics
%
L10
%
% X axis: small tics
%
L5
%
% Y axis: large tics
%
L10
GSN 620 2412 M 54 0 rL SGR
GSN 4220 2412 M -54 0 rL SGR
helvS (-0.01) 560 2412 ylabel
GSN 620 3476 M 54 0 rL SGR
GSN 4220 3476 M -54 0 rL SGR
helvS (0) 560 3476 ylabel
GSN 620 4540 M 54 0 rL SGR
GSN 4220 4540 M -54 0 rL SGR
helvS (0.01) 560 4540 ylabel
%
% Y axis: small tics
%
L5
GSN 620 1880 M 36 0 rL SGR
GSN 4220 1880 M -36 0 rL SGR
GSN 620 2146 M 36 0 rL SGR
GSN 4220 2146 M -36 0 rL SGR
GSN 620 2412 M 36 0 rL SGR
GSN 4220 2412 M -36 0 rL SGR
GSN 620 2678 M 36 0 rL SGR
GSN 4220 2678 M -36 0 rL SGR
GSN 620 2944 M 36 0 rL SGR
GSN 4220 2944 M -36 0 rL SGR
GSN 620 3210 M 36 0 rL SGR
GSN 4220 3210 M -36 0 rL SGR
GSN 620 3476 M 36 0 rL SGR
GSN 4220 3476 M -36 0 rL SGR
GSN 620 3742 M 36 0 rL SGR
GSN 4220 3742 M -36 0 rL SGR
GSN 620 4008 M 36 0 rL SGR
GSN 4220 4008 M -36 0 rL SGR
GSN 620 4274 M 36 0 rL SGR
GSN 4220 4274 M -36 0 rL SGR
GSN 620 4540 M 36 0 rL SGR
GSN 4220 4540 M -36 0 rL SGR
GSN 620 4806 M 36 0 rL SGR
GSN 4220 4806 M -36 0 rL SGR
GSN 620 5072 M 36 0 rL SGR
GSN 4220 5072 M -36 0 rL SGR

%
% X axis - residual panel
%
GSN L5 620 3476 M 4220 3476 L SDA G50 SGR

%
% X-Axis label:
%
gsave 620 1370 M 
[
[(Helvetica) 180 0 true true 0 (t)]
[(Helvetica) 180 0 true true 0 (i)]
[(Helvetica) 180 0 true true 0 (m)]
[(Helvetica) 180 0 true true 0 (e)]
] 0 MCshow grestore

%
% Y-Axis label:
%
gsave 234 3499 M 
currentpoint gsave translate 90 rotate 0 0 moveto
[
[(Helvetica) 180 0 true true 0 (r)]
[(Helvetica) 180 0 true true 0 (e)]
[(Helvetica) 180 0 true true 0 (s)]
[(Helvetica) 180 0 true true 0 (i)]
[(Helvetica) 180 0 true true 0 (d)]
[(Helvetica) 180 0 true true 0 (u)]
[(Helvetica) 180 0 true true 0 (a)]
[(Helvetica) 180 0 true true 0 (l)]
[(Helvetica) 180 0 true true 0 (s)]
] 0 MCshow grestore

end
showpage
%%Trailer
%%EOF
