%!PS-Adobe-3.0 EPSF-3.0
%%BoundingBox: 0 0 514 550
%%Creator: BioKin Ltd.
%%DocumentFonts: Symbol Helvetica
%%EndComments
%
/bkdict 256 dict def
bkdict begin
/M {moveto} def 
/R {rmoveto} def
/L {lineto} def
/rL {rlineto} def
/GSN {gsave newpath} def
/SGR {stroke grestore} def
/COSGR {gsave setrgbcolor stroke grestore grestore} def
/SL {setlinewidth} def
/LWMB {12} def             % line width - model curves, black & white
/LWMC {10} def             % line width - model curves, color
/L2 {2.5 setlinewidth} def
/L5 {5 setlinewidth} def
/L10 {10 setlinewidth} def
/G50 {0.5 setgray} def
/SDA {[10  20] 0 setdash} def % axes
/helvT {/Helvetica findfont 100 scalefont setfont} def % tiny
/helvS {/Helvetica findfont 125 scalefont setfont} def % small
/helvM {/Helvetica findfont 150 scalefont setfont} def % medium
/helvL {/Helvetica findfont 175 scalefont setfont} def % large
/xlabel {gsave M dup
   stringwidth exch -0.5 mul exch rmoveto show grestore} def 
/ylabel {gsave M 90 rotate dup
   stringwidth exch -0.5 mul exch rmoveto show grestore} def
/ylabelresid {gsave M dup
   stringwidth exch -1 mul exch rmoveto show grestore} def
% ======
% Shapes
% ======
% Circle:
/Circ {0 360 arc closepath} def
%
% Square:
/Squa {dup dup -0.5 mul dup dup R -2 mul 0 exch rL 1 mul 0 rL dup 0 exch -1 mul rL closepath} def
%
% Triangle Up:
/TriU {dup dup dup -0.4 mul exch -0.5 mul exch R dup 0.5 mul exch rL dup -1 mul exch 0.5 mul exch rL closepath} def 
%
% Triangle Down:
/TriD {dup dup dup 0.4 mul exch -0.5 mul exch R dup 0.5 mul exch -1 mul rL dup 0.5 mul exch rL closepath} def 
%
% Diamond:
/Diam {45 rotate Squa} def
% ======
% Fills
% ======
/GRF {gsave setgray fill grestore} def                    % gray-level Fill
/COF {gsave setrgbcolor fill grestore} def                % color fill
% ======
% Colors
% ======
/C01 {1.00	0.00	0.00} def      % Red
/C02 {0.00	0.00	1.00} def      % Blue
/C03 {0.00	0.39	0.00} def      % Dark Green
/C04 {0.78	0.08	0.52} def      % Medium Violet Red
/C05 {0.55	0.27	0.07} def      % Saddle Brown
/C06 {0.10	0.70	0.70} def      % (cyan)
/C07 {1.00	0.55	0.00} def      % Dark Orange
/C08 {0.63	0.13	0.94} def      % Purple
/C09 {0.00	0.75	1.00} def      % Deep Sky Blue
/C10 {0.20	0.80	0.20} def      % Lime Green
/C11 {0.47	0.53	0.60} def      % Light Slate Gray
/C12 {0.00	0.00	0.00} def      % Black            % or: {0.19	0.31	0.31} def      % Dark Slate Gray
%
/LGR {0.75} def % light gray
/DGR {0.33} def % dark gray
%
% =============
% Dash patterns
% =============
/dash01 { [80  20] 0 setdash } def
/dash02 { [40  20] 0 setdash } def
/dash03 { [80  20  10  20] 0 setdash } def
/dash04 { [40  20  10  20] 0 setdash } def
/dash05 { [80  20  10  10  10  20] 0 setdash } def
/dash06 { [40  20  10  10  10  20] 0 setdash } def
/dash07 { [10  10] 0 setdash } def
%
/MFshow {
   { dup 5 get 3 ge
     { 5 get 3 eq {gsave} {grestore} ifelse }
     {dup dup 0 get findfont exch 1 get scalefont setfont
     [ currentpoint ] exch dup 2 get 0 exch R dup 5 get 2 ne {dup dup 6
     get exch 4 get {show} {stringwidth pop 0 R} ifelse }if dup 5 get 0 eq
     {dup 3 get {2 get neg 0 exch R pop} {pop aload pop M} ifelse} {dup 5
     get 1 eq {dup 2 get exch dup 3 get exch 6 get stringwidth pop -2 div
     dup 0 R} {dup 6 get stringwidth pop -2 div 0 R 6 get
     show 2 index {aload pop M neg 3 -1 roll neg R pop pop} {pop pop pop
     pop aload pop M} ifelse }ifelse }ifelse }
     ifelse }
   forall} bind def
/MFwidth {0 exch {dup 3 get{dup dup 0 get findfont exch 1 get scalefont
     setfont 6 get stringwidth pop add} {pop} ifelse} forall} bind def
/MCshow { currentpoint stroke M
  exch dup MFwidth -2 div 3 -1 roll R MFshow } def
%
end
%%EndProlog
bkdict begin
0.1 0.1 scale
%
% Model curves:
%

GSN 753 5081 M
753 5081 L
786 5081 L
820 5081 L
853 5080 L
886 5080 L
903 5080 L
919 5080 L
953 5079 L
986 5079 L
1020 5078 L
1053 5077 L
1053 5077 L
1086 5076 L
1120 5075 L
1153 5074 L
1186 5073 L
1203 5072 L
1220 5071 L
1253 5069 L
1286 5067 L
1320 5064 L
1353 5061 L
1353 5061 L
1386 5057 L
1420 5053 L
1453 5048 L
1486 5043 L
1503 5040 L
1520 5036 L
1553 5029 L
1586 5020 L
1620 5010 L
1653 4998 L
1653 4997 L
1686 4984 L
1720 4968 L
1753 4949 L
1786 4928 L
1804 4916 L
1820 4903 L
1853 4875 L
1886 4842 L
1920 4805 L
1953 4762 L
1954 4761 L
1986 4714 L
2020 4659 L
2053 4597 L
2086 4527 L
2104 4487 L
2120 4449 L
2153 4363 L
2186 4268 L
2220 4164 L
2253 4052 L
2254 4048 L
2286 3932 L
2320 3806 L
2353 3675 L
2386 3541 L
2404 3468 L
2420 3406 L
2453 3274 L
2486 3147 L
2520 3029 L
2553 2923 L
2554 2919 L
2586 2830 L
2620 2753 L
2653 2692 L
2686 2646 L
2704 2628 L
2720 2615 L
2753 2594 L
2786 2583 L
2820 2576 L
2853 2574 L
2854 2574 L
2886 2573 L
2920 2572 L
2953 2572 L
2986 2572 L
3004 2572 L
3020 2572 L
3053 2572 L
3068 2572 L
3086 2572 L
3120 2572 L
3153 2572 L
3155 2572 L
3186 2572 L
3220 2572 L
3253 2572 L
3286 2572 L
3305 2572 L
3320 2572 L
3353 2572 L
3386 2572 L
3420 2572 L
3453 2572 L
3455 2572 L
3486 2572 L
3520 2572 L
3553 2572 L
3586 2572 L
3605 2572 L
3620 2572 L
3653 2572 L
3686 2572 L
3720 2572 L
3753 2572 L
3755 2572 L
3786 2572 L
3820 2571 L
3853 2571 L
3886 2571 L
3905 2571 L
3920 2571 L
3953 2571 L
3986 2571 L
4020 2570 L
4053 2570 L
4086 2570 L
LWMC SL  C04 COSGR

%
% Experimental data:
%
GSN 773 5166 M
1625 4893 L
1773 4701 L
1860 4921 L
1922 4670 L
1970 4904 L
2009 4585 L
2043 4586 L
2072 4586 L
2097 4383 L
2120 4371 L
2140 4377 L
2159 4111 L
2176 4125 L
2192 4143 L
2207 4131 L
2221 4283 L
2234 4079 L
2247 4132 L
2259 4039 L
2270 4036 L
2280 4002 L
2290 4019 L
2300 3794 L
2309 3940 L
2318 3999 L
2326 3672 L
2335 3862 L
2342 3618 L
2350 3777 L
2357 3652 L
2364 3589 L
2371 3643 L
2378 3693 L
2384 3637 L
2391 3548 L
2397 3653 L
2403 3812 L
2409 3434 L
2414 3567 L
2420 3564 L
2425 3534 L
2430 3507 L
2435 3246 L
2440 3581 L
2445 3565 L
2450 3305 L
2455 3400 L
2459 3179 L
2464 3275 L
2468 3314 L
2472 3434 L
2476 3467 L
2481 3249 L
2485 3179 L
2489 3396 L
2492 3068 L
2496 3181 L
2500 3181 L
2504 2982 L
2507 2977 L
2511 3116 L
2514 3177 L
2518 3107 L
2521 3003 L
2525 2968 L
2528 2836 L
2531 3008 L
2534 2974 L
2538 2916 L
2541 3017 L
2544 3123 L
2547 2930 L
2550 2897 L
2553 2921 L
2556 3010 L
2559 2847 L
2561 2766 L
2564 3088 L
2567 2760 L
2570 3021 L
2580 2489 L
2590 2869 L
2600 2560 L
2609 2523 L
2618 2611 L
2627 2453 L
2635 2412 L
2643 2530 L
2650 2497 L
2658 2415 L
2665 2376 L
2672 2244 L
2678 2293 L
2685 2318 L
2691 2539 L
2697 2248 L
2703 2302 L
2709 2331 L
2714 2300 L
2720 1951 L
2725 2081 L
2730 2224 L
2735 2194 L
2740 2187 L
2745 2036 L
2750 2153 L
2755 2296 L
2759 2118 L
2764 2125 L
2768 2046 L
2772 1953 L
2777 2216 L
2781 2084 L
2785 2039 L
2789 2077 L
2793 2148 L
2796 1913 L
2800 2014 L
2804 2141 L
2808 2016 L
2811 2044 L
2815 1996 L
2818 2036 L
2822 2021 L
2825 2039 L
2828 2066 L
2831 2067 L
2835 2120 L
2838 1907 L
2841 2064 L
2844 2188 L
2847 2043 L
2850 2078 L
2853 2054 L
2856 2128 L
2859 2060 L
2862 2028 L
2864 2009 L
2867 2055 L
2870 2105 L
2873 2099 L
2875 2080 L
2878 2130 L
2880 2124 L
2883 2222 L
2886 2265 L
2888 1833 L
2891 1923 L
2893 2050 L
2895 2261 L
2898 2202 L
2900 2054 L
2902 2151 L
2905 2156 L
2907 2142 L
2909 2112 L
2912 2225 L
2914 2091 L
2916 2154 L
2918 2020 L
2920 2148 L
2922 2272 L
2925 2072 L
2927 2238 L
2929 2172 L
2931 2161 L
2933 2148 L
2935 2350 L
2937 2168 L
2939 2338 L
2941 2260 L
2943 2284 L
2945 2354 L
2947 2184 L
2948 2184 L
2950 2338 L
2952 2297 L
2954 2192 L
2956 2226 L
2958 2237 L
2959 2320 L
2961 2441 L
2963 2280 L
2965 2373 L
2966 2257 L
2968 2396 L
2970 2396 L
2972 2215 L
2973 2297 L
2975 2326 L
2977 2423 L
2978 2190 L
2980 2291 L
2982 2380 L
2983 2370 L
2985 2236 L
2986 2288 L
2988 2265 L
2989 2399 L
2991 2330 L
2993 2413 L
2994 2182 L
2996 2566 L
2997 2344 L
2999 2362 L
3000 2412 L
3002 2331 L
3003 2402 L
3005 2471 L
3006 2380 L
3007 2359 L
3009 2458 L
3010 2245 L
3012 2367 L
3013 2451 L
3014 2550 L
3016 2502 L
3017 2474 L
3019 2471 L
3020 2476 L
3021 2453 L
3023 2605 L
3024 2573 L
3025 2584 L
3027 2322 L
3028 2469 L
3029 2698 L
3031 2559 L
3032 2580 L
3033 2482 L
3034 2580 L
3036 2543 L
3037 2421 L
3038 2576 L
3039 2492 L
3041 2728 L
3042 2714 L
3043 2451 L
3044 2668 L
3045 2527 L
3047 2594 L
3048 2530 L
3049 2706 L
3050 2526 L
3051 2450 L
3053 2391 L
3054 2687 L
3055 2480 L
3056 2484 L
3057 2463 L
3058 2480 L
3059 2564 L
3061 2650 L
3062 2690 L
3063 2543 L
3064 2549 L
3065 2558 L
3066 2669 L
3067 2459 L
3068 2492 L
3069 2835 L
3070 2690 L
3071 2686 L
3073 2744 L
3074 2672 L
3075 2662 L
3076 2605 L
3077 2492 L
3078 2657 L
3079 2775 L
3080 2590 L
3081 2368 L
3082 2685 L
3083 2624 L
3084 2647 L
3085 2761 L
3086 2568 L
3087 2694 L
3088 2703 L
3089 2816 L
3112 2827 L
3133 2843 L
3152 2863 L
3170 3003 L
3186 2726 L
3201 2928 L
3216 3119 L
3229 2964 L
3241 3033 L
3253 2841 L
3264 3015 L
3275 3025 L
3285 3010 L
3295 3044 L
3304 3034 L
3313 2799 L
3322 3070 L
3330 3012 L
3338 2965 L
3346 2991 L
3353 3088 L
3360 2983 L
3367 2934 L
3374 3146 L
3380 2820 L
3387 3159 L
3393 3009 L
3399 3010 L
3405 2956 L
3410 2973 L
3416 3049 L
3421 2944 L
3426 2921 L
3431 2935 L
3436 3033 L
3441 2996 L
3446 2898 L
3451 2971 L
3455 2965 L
3460 2849 L
3464 2891 L
3469 2967 L
3473 3046 L
3477 2972 L
3481 2972 L
3485 2879 L
3489 2901 L
3493 2862 L
3496 2957 L
3500 3067 L
3504 2910 L
3507 3130 L
3511 3109 L
3514 2906 L
3518 3040 L
3521 2990 L
3525 2884 L
3528 2957 L
3531 3297 L
3534 2957 L
3537 3051 L
3540 2862 L
3543 2818 L
3546 2910 L
3549 2863 L
3552 2951 L
3555 3051 L
3558 2881 L
3561 2966 L
3564 2846 L
3566 2811 L
3575 2821 L
3586 2669 L
3595 3061 L
3605 2754 L
3613 2901 L
3622 2845 L
3630 2986 L
3638 2876 L
3646 2857 L
3653 2936 L
3660 2985 L
3667 2908 L
3674 2700 L
3681 2921 L
3687 2915 L
3693 2781 L
3699 2713 L
3705 2829 L
3710 2719 L
3716 3021 L
3721 2840 L
3727 2851 L
3732 2751 L
3737 2863 L
3742 2702 L
3746 2883 L
3751 2890 L
3756 2662 L
3760 2523 L
3764 2822 L
3769 2928 L
3773 2713 L
3777 2644 L
3781 2752 L
3785 2696 L
3789 2795 L
3793 2589 L
3797 2793 L
3800 2818 L
3804 2831 L
3808 2703 L
3811 2747 L
3815 2887 L
3818 2609 L
3821 2556 L
3825 2850 L
3828 2591 L
3831 2751 L
3834 2471 L
3838 2661 L
3841 2545 L
3844 2738 L
3847 2960 L
3850 2683 L
3853 2604 L
3855 2727 L
3858 2400 L
3861 2631 L
3864 2711 L
3867 2773 L
3869 2568 L
3872 2792 L
3875 2576 L
3877 2715 L
3880 2700 L
3882 2721 L
3885 2799 L
3887 2505 L
3890 2744 L
3892 2531 L
3895 2611 L
3897 2642 L
3899 2748 L
3902 2652 L
3904 2587 L
3906 2727 L
3908 2536 L
3911 2612 L
3913 2652 L
3915 2715 L
3917 2655 L
3919 2812 L
3921 2664 L
3923 2863 L
3926 2587 L
3928 2771 L
3930 2701 L
3932 2678 L
3934 2672 L
3936 2680 L
3938 2662 L
3940 2584 L
3942 2601 L
3943 2929 L
3945 2660 L
3947 2547 L
3949 2705 L
3951 2652 L
3953 2869 L
3955 2593 L
3956 2829 L
3958 2840 L
3960 2598 L
3962 2778 L
3963 2641 L
3965 2738 L
3967 2754 L
3969 2795 L
3970 2458 L
3972 2819 L
3974 2519 L
3975 2630 L
3977 2609 L
3978 2737 L
3980 2750 L
3982 2385 L
3983 2550 L
3985 2557 L
3986 2686 L
3988 2811 L
3990 2561 L
3991 2601 L
3993 2314 L
3994 2693 L
3996 2553 L
3997 2714 L
3999 2324 L
4000 2614 L
4001 2802 L
4003 2453 L
4004 2482 L
4006 2530 L
4007 2498 L
4009 2611 L
4010 2636 L
4011 2677 L
4013 2647 L
4014 2592 L
4016 2594 L
4017 2466 L
4018 2675 L
4020 2666 L
4021 2291 L
4022 2625 L
4024 2532 L
4025 2650 L
4026 2568 L
4028 2613 L
4029 2726 L
4030 2628 L
4031 2501 L
4033 2436 L
4034 2612 L
4035 2645 L
4036 2457 L
4038 2434 L
4039 2631 L
4040 2684 L
4041 2468 L
4042 2666 L
4044 2593 L
4045 2437 L
4046 2611 L
4047 2618 L
4048 2943 L
4050 2564 L
4051 2553 L
4052 2693 L
4053 2519 L
4054 2625 L
4055 2735 L
4056 2642 L
4058 2641 L
4059 2501 L
4060 2621 L
4061 2667 L
4062 2619 L
4063 2525 L
4064 2505 L
4065 2581 L
4066 2543 L
L2 C04 COSGR

%
%================
% Legend - Begin
%================
%
GSN 4240 5180 M
4480 5180 L
LWMC SL  C04 COSGR
GSN 4540 5141 M helvM (2.0 uM) show grestore
%
%================
% Legend - End
%================
%

%
% Residuals:
%
GSN 773 1211 M
1625 1099 L
1773 1032 L
1860 1193 L
1922 1090 L
1970 1256 L
2009 1112 L
2043 1146 L
2072 1179 L
2097 1097 L
2120 1120 L
2140 1153 L
2159 1032 L
2176 1067 L
2192 1104 L
2207 1123 L
2221 1233 L
2234 1143 L
2247 1197 L
2259 1167 L
2270 1187 L
2280 1190 L
2290 1221 L
2300 1115 L
2309 1216 L
2318 1268 L
2326 1104 L
2335 1227 L
2342 1109 L
2350 1214 L
2357 1161 L
2364 1142 L
2371 1187 L
2378 1230 L
2384 1213 L
2391 1178 L
2397 1250 L
2403 1352 L
2409 1154 L
2414 1241 L
2420 1252 L
2425 1247 L
2430 1244 L
2435 1109 L
2440 1308 L
2445 1309 L
2450 1174 L
2455 1237 L
2459 1124 L
2464 1187 L
2468 1218 L
2472 1294 L
2476 1322 L
2481 1209 L
2485 1178 L
2489 1308 L
2492 1132 L
2496 1203 L
2500 1211 L
2504 1107 L
2507 1111 L
2511 1195 L
2514 1236 L
2518 1204 L
2521 1152 L
2525 1139 L
2528 1072 L
2531 1173 L
2534 1160 L
2538 1133 L
2541 1196 L
2544 1260 L
2547 1157 L
2550 1144 L
2553 1163 L
2556 1217 L
2559 1130 L
2561 1090 L
2564 1274 L
2567 1096 L
2570 1246 L
2580 965 L
2590 1191 L
2600 1031 L
2609 1023 L
2618 1083 L
2627 1004 L
2635 990 L
2643 1064 L
2650 1052 L
2658 1013 L
2665 997 L
2672 929 L
2678 961 L
2685 979 L
2691 1107 L
2697 948 L
2703 981 L
2709 1000 L
2714 986 L
2720 793 L
2725 868 L
2730 950 L
2735 935 L
2740 933 L
2745 850 L
2750 916 L
2755 997 L
2759 899 L
2764 904 L
2768 861 L
2772 810 L
2777 957 L
2781 884 L
2785 860 L
2789 881 L
2793 922 L
2796 791 L
2800 848 L
2804 919 L
2808 850 L
2811 866 L
2815 839 L
2818 862 L
2822 853 L
2825 864 L
2828 879 L
2831 880 L
2835 909 L
2838 791 L
2841 878 L
2844 948 L
2847 867 L
2850 886 L
2853 873 L
2856 915 L
2859 877 L
2862 859 L
2864 849 L
2867 874 L
2870 902 L
2873 899 L
2875 888 L
2878 916 L
2880 913 L
2883 968 L
2886 992 L
2888 750 L
2891 801 L
2893 872 L
2895 990 L
2898 956 L
2900 874 L
2902 928 L
2905 931 L
2907 923 L
2909 907 L
2912 970 L
2914 895 L
2916 930 L
2918 855 L
2920 926 L
2922 996 L
2925 884 L
2927 977 L
2929 940 L
2931 934 L
2933 926 L
2935 1039 L
2937 938 L
2939 1033 L
2941 989 L
2943 1002 L
2945 1042 L
2947 946 L
2948 947 L
2950 1033 L
2952 1010 L
2954 951 L
2956 970 L
2958 977 L
2959 1023 L
2961 1091 L
2963 1000 L
2965 1053 L
2966 987 L
2968 1065 L
2970 1065 L
2972 964 L
2973 1010 L
2975 1026 L
2977 1080 L
2978 950 L
2980 1006 L
2982 1056 L
2983 1051 L
2985 976 L
2986 1005 L
2988 992 L
2989 1067 L
2991 1028 L
2993 1075 L
2994 945 L
2996 1160 L
2997 1036 L
2999 1046 L
3000 1074 L
3002 1029 L
3003 1068 L
3005 1107 L
3006 1056 L
3007 1044 L
3009 1100 L
3010 981 L
3012 1049 L
3013 1096 L
3014 1151 L
3016 1124 L
3017 1109 L
3019 1107 L
3020 1110 L
3021 1097 L
3023 1182 L
3024 1164 L
3025 1170 L
3027 1024 L
3028 1106 L
3029 1234 L
3031 1156 L
3032 1168 L
3033 1113 L
3034 1168 L
3036 1147 L
3037 1079 L
3038 1166 L
3039 1119 L
3041 1251 L
3042 1243 L
3043 1096 L
3044 1217 L
3045 1138 L
3047 1176 L
3048 1140 L
3049 1238 L
3050 1138 L
3051 1095 L
3053 1063 L
3054 1228 L
3055 1112 L
3056 1114 L
3057 1103 L
3058 1112 L
3059 1159 L
3061 1207 L
3062 1229 L
3063 1147 L
3064 1151 L
3065 1155 L
3066 1217 L
3067 1101 L
3068 1119 L
3069 1311 L
3070 1229 L
3071 1227 L
3073 1259 L
3074 1219 L
3075 1214 L
3076 1182 L
3077 1119 L
3078 1211 L
3079 1277 L
3080 1173 L
3081 1050 L
3082 1226 L
3083 1192 L
3084 1205 L
3085 1269 L
3086 1161 L
3087 1232 L
3088 1236 L
3089 1299 L
3112 1306 L
3133 1315 L
3152 1326 L
3170 1404 L
3186 1249 L
3201 1362 L
3216 1469 L
3229 1382 L
3241 1421 L
3253 1314 L
3264 1411 L
3275 1417 L
3285 1408 L
3295 1427 L
3304 1422 L
3313 1290 L
3322 1442 L
3330 1409 L
3338 1383 L
3346 1397 L
3353 1451 L
3360 1393 L
3367 1366 L
3374 1484 L
3380 1302 L
3387 1491 L
3393 1407 L
3399 1408 L
3405 1378 L
3410 1388 L
3416 1430 L
3421 1371 L
3426 1359 L
3431 1366 L
3436 1421 L
3441 1400 L
3446 1346 L
3451 1386 L
3455 1383 L
3460 1318 L
3464 1342 L
3469 1384 L
3473 1428 L
3477 1387 L
3481 1387 L
3485 1335 L
3489 1347 L
3493 1325 L
3496 1379 L
3500 1440 L
3504 1352 L
3507 1475 L
3511 1464 L
3514 1350 L
3518 1425 L
3521 1397 L
3525 1338 L
3528 1378 L
3531 1569 L
3534 1379 L
3537 1431 L
3540 1325 L
3543 1301 L
3546 1352 L
3549 1326 L
3552 1375 L
3555 1431 L
3558 1336 L
3561 1384 L
3564 1316 L
3566 1297 L
3575 1303 L
3586 1218 L
3595 1436 L
3605 1265 L
3613 1347 L
3622 1316 L
3630 1395 L
3638 1333 L
3646 1323 L
3653 1367 L
3660 1394 L
3667 1351 L
3674 1235 L
3681 1359 L
3687 1355 L
3693 1281 L
3699 1243 L
3705 1307 L
3710 1246 L
3716 1414 L
3721 1313 L
3727 1320 L
3732 1263 L
3737 1326 L
3742 1236 L
3746 1337 L
3751 1342 L
3756 1214 L
3760 1137 L
3764 1303 L
3769 1362 L
3773 1243 L
3777 1204 L
3781 1264 L
3785 1233 L
3789 1289 L
3793 1173 L
3797 1287 L
3800 1301 L
3804 1308 L
3808 1237 L
3811 1261 L
3815 1340 L
3818 1185 L
3821 1155 L
3825 1319 L
3828 1175 L
3831 1264 L
3834 1107 L
3838 1213 L
3841 1149 L
3844 1257 L
3847 1381 L
3850 1226 L
3853 1182 L
3855 1250 L
3858 1068 L
3861 1197 L
3864 1242 L
3867 1276 L
3869 1162 L
3872 1287 L
3875 1166 L
3877 1244 L
3880 1236 L
3882 1247 L
3885 1290 L
3887 1126 L
3890 1260 L
3892 1141 L
3895 1186 L
3897 1203 L
3899 1262 L
3902 1209 L
3904 1173 L
3906 1250 L
3908 1144 L
3911 1186 L
3913 1209 L
3915 1244 L
3917 1211 L
3919 1298 L
3921 1215 L
3923 1327 L
3926 1173 L
3928 1275 L
3930 1236 L
3932 1223 L
3934 1220 L
3936 1225 L
3938 1215 L
3940 1171 L
3942 1180 L
3943 1364 L
3945 1213 L
3947 1150 L
3949 1238 L
3951 1209 L
3953 1330 L
3955 1176 L
3956 1308 L
3958 1314 L
3960 1179 L
3962 1279 L
3963 1203 L
3965 1257 L
3967 1266 L
3969 1289 L
3970 1101 L
3972 1302 L
3974 1134 L
3975 1197 L
3977 1185 L
3978 1257 L
3980 1263 L
3982 1060 L
3983 1152 L
3985 1156 L
3986 1228 L
3988 1298 L
3990 1158 L
3991 1180 L
3993 1020 L
3994 1232 L
3996 1154 L
3997 1244 L
3999 1026 L
4000 1188 L
4001 1293 L
4003 1098 L
4004 1114 L
4006 1141 L
4007 1123 L
4009 1186 L
4010 1200 L
4011 1223 L
4013 1206 L
4014 1176 L
4016 1177 L
4017 1105 L
4018 1222 L
4020 1217 L
4021 1007 L
4022 1194 L
4024 1142 L
4025 1208 L
4026 1162 L
4028 1187 L
4029 1250 L
4030 1196 L
4031 1125 L
4033 1088 L
4034 1187 L
4035 1205 L
4036 1100 L
4038 1087 L
4039 1197 L
4040 1227 L
4041 1106 L
4042 1217 L
4044 1176 L
4045 1089 L
4046 1186 L
4047 1190 L
4048 1372 L
4050 1160 L
4051 1154 L
4052 1232 L
4053 1135 L
4054 1194 L
4055 1256 L
4056 1204 L
4058 1203 L
4059 1125 L
4060 1192 L
4061 1218 L
4062 1191 L
4063 1138 L
4064 1127 L
4065 1170 L
4066 1148 L
L2 C04 COSGR

%
% Main frame
%
L10
GSN 
620 1700 M
4220 1700 L
4220 5300 L
620 5300 L
closepath SGR

%
% X axis: large tics
%
L10
GSN 1074 1700 M 0  54 rL SGR
GSN 1074 5300 M 0 -54 rL SGR
helvS (0.0001) 1074 470 xlabel
GSN 1572 1700 M 0  54 rL SGR
GSN 1572 5300 M 0 -54 rL SGR
helvS (0.001) 1572 470 xlabel
GSN 2071 1700 M 0  54 rL SGR
GSN 2071 5300 M 0 -54 rL SGR
helvS (0.01) 2071 470 xlabel
GSN 2570 1700 M 0  54 rL SGR
GSN 2570 5300 M 0 -54 rL SGR
helvS (0.1) 2570 470 xlabel
GSN 3068 1700 M 0  54 rL SGR
GSN 3068 5300 M 0 -54 rL SGR
helvS (1) 3068 470 xlabel
GSN 3567 1700 M 0  54 rL SGR
GSN 3567 5300 M 0 -54 rL SGR
helvS (10) 3567 470 xlabel
GSN 4066 1700 M 0  54 rL SGR
GSN 4066 5300 M 0 -54 rL SGR
helvS (100) 4066 470 xlabel
%
% X axis: small tics
%
L5
GSN 725 1700 M 0  36 rL SGR
GSN 725 5300 M 0 -36 rL SGR
GSN 813 1700 M 0  36 rL SGR
GSN 813 5300 M 0 -36 rL SGR
GSN 875 1700 M 0  36 rL SGR
GSN 875 5300 M 0 -36 rL SGR
GSN 924 1700 M 0  36 rL SGR
GSN 924 5300 M 0 -36 rL SGR
GSN 963 1700 M 0  36 rL SGR
GSN 963 5300 M 0 -36 rL SGR
GSN 996 1700 M 0  36 rL SGR
GSN 996 5300 M 0 -36 rL SGR
GSN 1025 1700 M 0  36 rL SGR
GSN 1025 5300 M 0 -36 rL SGR
GSN 1051 1700 M 0  36 rL SGR
GSN 1051 5300 M 0 -36 rL SGR
GSN 1224 1700 M 0  36 rL SGR
GSN 1224 5300 M 0 -36 rL SGR
GSN 1312 1700 M 0  36 rL SGR
GSN 1312 5300 M 0 -36 rL SGR
GSN 1374 1700 M 0  36 rL SGR
GSN 1374 5300 M 0 -36 rL SGR
GSN 1422 1700 M 0  36 rL SGR
GSN 1422 5300 M 0 -36 rL SGR
GSN 1462 1700 M 0  36 rL SGR
GSN 1462 5300 M 0 -36 rL SGR
GSN 1495 1700 M 0  36 rL SGR
GSN 1495 5300 M 0 -36 rL SGR
GSN 1524 1700 M 0  36 rL SGR
GSN 1524 5300 M 0 -36 rL SGR
GSN 1550 1700 M 0  36 rL SGR
GSN 1550 5300 M 0 -36 rL SGR
GSN 1722 1700 M 0  36 rL SGR
GSN 1722 5300 M 0 -36 rL SGR
GSN 1810 1700 M 0  36 rL SGR
GSN 1810 5300 M 0 -36 rL SGR
GSN 1873 1700 M 0  36 rL SGR
GSN 1873 5300 M 0 -36 rL SGR
GSN 1921 1700 M 0  36 rL SGR
GSN 1921 5300 M 0 -36 rL SGR
GSN 1960 1700 M 0  36 rL SGR
GSN 1960 5300 M 0 -36 rL SGR
GSN 1994 1700 M 0  36 rL SGR
GSN 1994 5300 M 0 -36 rL SGR
GSN 2023 1700 M 0  36 rL SGR
GSN 2023 5300 M 0 -36 rL SGR
GSN 2048 1700 M 0  36 rL SGR
GSN 2048 5300 M 0 -36 rL SGR
GSN 2221 1700 M 0  36 rL SGR
GSN 2221 5300 M 0 -36 rL SGR
GSN 2309 1700 M 0  36 rL SGR
GSN 2309 5300 M 0 -36 rL SGR
GSN 2371 1700 M 0  36 rL SGR
GSN 2371 5300 M 0 -36 rL SGR
GSN 2420 1700 M 0  36 rL SGR
GSN 2420 5300 M 0 -36 rL SGR
GSN 2459 1700 M 0  36 rL SGR
GSN 2459 5300 M 0 -36 rL SGR
GSN 2492 1700 M 0  36 rL SGR
GSN 2492 5300 M 0 -36 rL SGR
GSN 2521 1700 M 0  36 rL SGR
GSN 2521 5300 M 0 -36 rL SGR
GSN 2547 1700 M 0  36 rL SGR
GSN 2547 5300 M 0 -36 rL SGR
GSN 2720 1700 M 0  36 rL SGR
GSN 2720 5300 M 0 -36 rL SGR
GSN 2808 1700 M 0  36 rL SGR
GSN 2808 5300 M 0 -36 rL SGR
GSN 2870 1700 M 0  36 rL SGR
GSN 2870 5300 M 0 -36 rL SGR
GSN 2918 1700 M 0  36 rL SGR
GSN 2918 5300 M 0 -36 rL SGR
GSN 2958 1700 M 0  36 rL SGR
GSN 2958 5300 M 0 -36 rL SGR
GSN 2991 1700 M 0  36 rL SGR
GSN 2991 5300 M 0 -36 rL SGR
GSN 3020 1700 M 0  36 rL SGR
GSN 3020 5300 M 0 -36 rL SGR
GSN 3045 1700 M 0  36 rL SGR
GSN 3045 5300 M 0 -36 rL SGR
GSN 3218 1700 M 0  36 rL SGR
GSN 3218 5300 M 0 -36 rL SGR
GSN 3306 1700 M 0  36 rL SGR
GSN 3306 5300 M 0 -36 rL SGR
GSN 3368 1700 M 0  36 rL SGR
GSN 3368 5300 M 0 -36 rL SGR
GSN 3417 1700 M 0  36 rL SGR
GSN 3417 5300 M 0 -36 rL SGR
GSN 3456 1700 M 0  36 rL SGR
GSN 3456 5300 M 0 -36 rL SGR
GSN 3490 1700 M 0  36 rL SGR
GSN 3490 5300 M 0 -36 rL SGR
GSN 3519 1700 M 0  36 rL SGR
GSN 3519 5300 M 0 -36 rL SGR
GSN 3544 1700 M 0  36 rL SGR
GSN 3544 5300 M 0 -36 rL SGR
GSN 3717 1700 M 0  36 rL SGR
GSN 3717 5300 M 0 -36 rL SGR
GSN 3805 1700 M 0  36 rL SGR
GSN 3805 5300 M 0 -36 rL SGR
GSN 3867 1700 M 0  36 rL SGR
GSN 3867 5300 M 0 -36 rL SGR
GSN 3915 1700 M 0  36 rL SGR
GSN 3915 5300 M 0 -36 rL SGR
GSN 3955 1700 M 0  36 rL SGR
GSN 3955 5300 M 0 -36 rL SGR
GSN 3988 1700 M 0  36 rL SGR
GSN 3988 5300 M 0 -36 rL SGR
GSN 4017 1700 M 0  36 rL SGR
GSN 4017 5300 M 0 -36 rL SGR
GSN 4043 1700 M 0  36 rL SGR
GSN 4043 5300 M 0 -36 rL SGR
GSN 4216 1700 M 0  36 rL SGR
GSN 4216 5300 M 0 -36 rL SGR
%
% Y axis: large tics
%
L10
GSN 620 2287 M 54 0 rL SGR
GSN 4220 2287 M -54 0 rL SGR
helvS (1) 560 2287 ylabel
GSN 620 3098 M 54 0 rL SGR
GSN 4220 3098 M -54 0 rL SGR
helvS (1.02) 560 3098 ylabel
GSN 620 3908 M 54 0 rL SGR
GSN 4220 3908 M -54 0 rL SGR
helvS (1.04) 560 3908 ylabel
GSN 620 4719 M 54 0 rL SGR
GSN 4220 4719 M -54 0 rL SGR
helvS (1.06) 560 4719 ylabel
%
% Y axis: small tics
%
L5
GSN 620 1881 M 36 0 rL SGR
GSN 4220 1881 M -36 0 rL SGR
GSN 620 2084 M 36 0 rL SGR
GSN 4220 2084 M -36 0 rL SGR
GSN 620 2287 M 36 0 rL SGR
GSN 4220 2287 M -36 0 rL SGR
GSN 620 2490 M 36 0 rL SGR
GSN 4220 2490 M -36 0 rL SGR
GSN 620 2692 M 36 0 rL SGR
GSN 4220 2692 M -36 0 rL SGR
GSN 620 2895 M 36 0 rL SGR
GSN 4220 2895 M -36 0 rL SGR
GSN 620 3098 M 36 0 rL SGR
GSN 4220 3098 M -36 0 rL SGR
GSN 620 3300 M 36 0 rL SGR
GSN 4220 3300 M -36 0 rL SGR
GSN 620 3503 M 36 0 rL SGR
GSN 4220 3503 M -36 0 rL SGR
GSN 620 3706 M 36 0 rL SGR
GSN 4220 3706 M -36 0 rL SGR
GSN 620 3908 M 36 0 rL SGR
GSN 4220 3908 M -36 0 rL SGR
GSN 620 4111 M 36 0 rL SGR
GSN 4220 4111 M -36 0 rL SGR
GSN 620 4314 M 36 0 rL SGR
GSN 4220 4314 M -36 0 rL SGR
GSN 620 4516 M 36 0 rL SGR
GSN 4220 4516 M -36 0 rL SGR
GSN 620 4719 M 36 0 rL SGR
GSN 4220 4719 M -36 0 rL SGR
GSN 620 4922 M 36 0 rL SGR
GSN 4220 4922 M -36 0 rL SGR
GSN 620 5124 M 36 0 rL SGR
GSN 4220 5124 M -36 0 rL SGR

%
% X-Axis label:
%
gsave 2420 290 M 
[
[(Helvetica) 180 0 true true 0 (t)]
[(Helvetica) 180 0 true true 0 (i)]
[(Helvetica) 180 0 true true 0 (m)]
[(Helvetica) 180 0 true true 0 (e)]
] 0 MCshow grestore

%
% Y-Axis label:
%
gsave 234 3499 M 
currentpoint gsave translate 90 rotate 0 0 moveto
[
[(Helvetica) 180 0 true true 0 (s)]
[(Helvetica) 180 0 true true 0 (i)]
[(Helvetica) 180 0 true true 0 (g)]
[(Helvetica) 180 0 true true 0 (n)]
[(Helvetica) 180 0 true true 0 (a)]
[(Helvetica) 180 0 true true 0 (l)]
] 0 MCshow grestore

%
% Residuals:
%
gsave 129 1160 M 
currentpoint gsave translate 90 rotate 0 0 moveto
[
[(Helvetica) 150 0 true true 0 (r)]
[(Helvetica) 150 0 true true 0 (e)]
[(Helvetica) 150 0 true true 0 (s)]
[(Helvetica) 150 0 true true 0 (i)]
[(Helvetica) 150 0 true true 0 (d)]
[(Helvetica) 150 0 true true 0 (u)]
[(Helvetica) 150 0 true true 0 (a)]
[(Helvetica) 150 0 true true 0 (l)]
[(Helvetica) 150 0 true true 0 (s)]
] 0 MCshow grestore

%
% Residual frame
%
L10
GSN 
620 620 M
4220 620 L
4220 1700 L
620 1700 L
closepath SGR
%
% X axis: large tics - residual frame
%
L10
GSN 1074 620 M 0  54 rL SGR
GSN 1074 1700 M 0 -54 rL SGR
GSN 1572 620 M 0  54 rL SGR
GSN 1572 1700 M 0 -54 rL SGR
GSN 2071 620 M 0  54 rL SGR
GSN 2071 1700 M 0 -54 rL SGR
GSN 2570 620 M 0  54 rL SGR
GSN 2570 1700 M 0 -54 rL SGR
GSN 3068 620 M 0  54 rL SGR
GSN 3068 1700 M 0 -54 rL SGR
GSN 3567 620 M 0  54 rL SGR
GSN 3567 1700 M 0 -54 rL SGR
GSN 4066 620 M 0  54 rL SGR
GSN 4066 1700 M 0 -54 rL SGR
%
% X axis: small tics - residual frame
%
L5
GSN 725 620 M 0  36 rL SGR
GSN 725 1700 M 0 -36 rL SGR
GSN 813 620 M 0  36 rL SGR
GSN 813 1700 M 0 -36 rL SGR
GSN 875 620 M 0  36 rL SGR
GSN 875 1700 M 0 -36 rL SGR
GSN 924 620 M 0  36 rL SGR
GSN 924 1700 M 0 -36 rL SGR
GSN 963 620 M 0  36 rL SGR
GSN 963 1700 M 0 -36 rL SGR
GSN 996 620 M 0  36 rL SGR
GSN 996 1700 M 0 -36 rL SGR
GSN 1025 620 M 0  36 rL SGR
GSN 1025 1700 M 0 -36 rL SGR
GSN 1051 620 M 0  36 rL SGR
GSN 1051 1700 M 0 -36 rL SGR
GSN 1224 620 M 0  36 rL SGR
GSN 1224 1700 M 0 -36 rL SGR
GSN 1312 620 M 0  36 rL SGR
GSN 1312 1700 M 0 -36 rL SGR
GSN 1374 620 M 0  36 rL SGR
GSN 1374 1700 M 0 -36 rL SGR
GSN 1422 620 M 0  36 rL SGR
GSN 1422 1700 M 0 -36 rL SGR
GSN 1462 620 M 0  36 rL SGR
GSN 1462 1700 M 0 -36 rL SGR
GSN 1495 620 M 0  36 rL SGR
GSN 1495 1700 M 0 -36 rL SGR
GSN 1524 620 M 0  36 rL SGR
GSN 1524 1700 M 0 -36 rL SGR
GSN 1550 620 M 0  36 rL SGR
GSN 1550 1700 M 0 -36 rL SGR
GSN 1722 620 M 0  36 rL SGR
GSN 1722 1700 M 0 -36 rL SGR
GSN 1810 620 M 0  36 rL SGR
GSN 1810 1700 M 0 -36 rL SGR
GSN 1873 620 M 0  36 rL SGR
GSN 1873 1700 M 0 -36 rL SGR
GSN 1921 620 M 0  36 rL SGR
GSN 1921 1700 M 0 -36 rL SGR
GSN 1960 620 M 0  36 rL SGR
GSN 1960 1700 M 0 -36 rL SGR
GSN 1994 620 M 0  36 rL SGR
GSN 1994 1700 M 0 -36 rL SGR
GSN 2023 620 M 0  36 rL SGR
GSN 2023 1700 M 0 -36 rL SGR
GSN 2048 620 M 0  36 rL SGR
GSN 2048 1700 M 0 -36 rL SGR
GSN 2221 620 M 0  36 rL SGR
GSN 2221 1700 M 0 -36 rL SGR
GSN 2309 620 M 0  36 rL SGR
GSN 2309 1700 M 0 -36 rL SGR
GSN 2371 620 M 0  36 rL SGR
GSN 2371 1700 M 0 -36 rL SGR
GSN 2420 620 M 0  36 rL SGR
GSN 2420 1700 M 0 -36 rL SGR
GSN 2459 620 M 0  36 rL SGR
GSN 2459 1700 M 0 -36 rL SGR
GSN 2492 620 M 0  36 rL SGR
GSN 2492 1700 M 0 -36 rL SGR
GSN 2521 620 M 0  36 rL SGR
GSN 2521 1700 M 0 -36 rL SGR
GSN 2547 620 M 0  36 rL SGR
GSN 2547 1700 M 0 -36 rL SGR
GSN 2720 620 M 0  36 rL SGR
GSN 2720 1700 M 0 -36 rL SGR
GSN 2808 620 M 0  36 rL SGR
GSN 2808 1700 M 0 -36 rL SGR
GSN 2870 620 M 0  36 rL SGR
GSN 2870 1700 M 0 -36 rL SGR
GSN 2918 620 M 0  36 rL SGR
GSN 2918 1700 M 0 -36 rL SGR
GSN 2958 620 M 0  36 rL SGR
GSN 2958 1700 M 0 -36 rL SGR
GSN 2991 620 M 0  36 rL SGR
GSN 2991 1700 M 0 -36 rL SGR
GSN 3020 620 M 0  36 rL SGR
GSN 3020 1700 M 0 -36 rL SGR
GSN 3045 620 M 0  36 rL SGR
GSN 3045 1700 M 0 -36 rL SGR
GSN 3218 620 M 0  36 rL SGR
GSN 3218 1700 M 0 -36 rL SGR
GSN 3306 620 M 0  36 rL SGR
GSN 3306 1700 M 0 -36 rL SGR
GSN 3368 620 M 0  36 rL SGR
GSN 3368 1700 M 0 -36 rL SGR
GSN 3417 620 M 0  36 rL SGR
GSN 3417 1700 M 0 -36 rL SGR
GSN 3456 620 M 0  36 rL SGR
GSN 3456 1700 M 0 -36 rL SGR
GSN 3490 620 M 0  36 rL SGR
GSN 3490 1700 M 0 -36 rL SGR
GSN 3519 620 M 0  36 rL SGR
GSN 3519 1700 M 0 -36 rL SGR
GSN 3544 620 M 0  36 rL SGR
GSN 3544 1700 M 0 -36 rL SGR
GSN 3717 620 M 0  36 rL SGR
GSN 3717 1700 M 0 -36 rL SGR
GSN 3805 620 M 0  36 rL SGR
GSN 3805 1700 M 0 -36 rL SGR
GSN 3867 620 M 0  36 rL SGR
GSN 3867 1700 M 0 -36 rL SGR
GSN 3915 620 M 0  36 rL SGR
GSN 3915 1700 M 0 -36 rL SGR
GSN 3955 620 M 0  36 rL SGR
GSN 3955 1700 M 0 -36 rL SGR
GSN 3988 620 M 0  36 rL SGR
GSN 3988 1700 M 0 -36 rL SGR
GSN 4017 620 M 0  36 rL SGR
GSN 4017 1700 M 0 -36 rL SGR
GSN 4043 620 M 0  36 rL SGR
GSN 4043 1700 M 0 -36 rL SGR
GSN 4216 620 M 0  36 rL SGR
GSN 4216 1700 M 0 -36 rL SGR
%
% Y axis: large tics - residual frame
%
L10
GSN 620 711 M 54 0 rL SGR
GSN 4220 711 M -54 0 rL SGR
helvS (-0.02) 560 711 ylabelresid
GSN 620 937 M 54 0 rL SGR
GSN 4220 937 M -54 0 rL SGR
helvS (-0.01) 560 937 ylabelresid
GSN 620 1163 M 54 0 rL SGR
GSN 4220 1163 M -54 0 rL SGR
helvS (0) 560 1163 ylabelresid
GSN 620 1390 M 54 0 rL SGR
GSN 4220 1390 M -54 0 rL SGR
helvS (0.01) 560 1390 ylabelresid
GSN 620 1616 M 54 0 rL SGR
GSN 4220 1616 M -54 0 rL SGR
helvS (0.02) 560 1616 ylabelresid

%
% X axis - residual panel
%
GSN L5 620 1163 M 4220 1163 L SDA G50 SGR

end
showpage
%%Trailer
%%EOF
