%!PS-Adobe-3.0 EPSF-3.0
%%BoundingBox: 0 0 514 550
%%Creator: BioKin Ltd.
%%DocumentFonts: Symbol Helvetica
%%EndComments
%
/bkdict 256 dict def
bkdict begin
/M {moveto} def 
/R {rmoveto} def
/L {lineto} def
/rL {rlineto} def
/GSN {gsave newpath} def
/SGR {stroke grestore} def
/COSGR {gsave setrgbcolor stroke grestore grestore} def
/SL {setlinewidth} def
/LWMB {12} def             % line width - model curves, black & white
/LWMC {10} def             % line width - model curves, color
/L2 {2.5 setlinewidth} def
/L5 {5 setlinewidth} def
/L10 {10 setlinewidth} def
/G50 {0.5 setgray} def
/SDA {[10  20] 0 setdash} def % axes
/helvT {/Helvetica findfont 100 scalefont setfont} def % tiny
/helvS {/Helvetica findfont 125 scalefont setfont} def % small
/helvM {/Helvetica findfont 150 scalefont setfont} def % medium
/helvL {/Helvetica findfont 175 scalefont setfont} def % large
/xlabel {gsave M dup
   stringwidth exch -0.5 mul exch rmoveto show grestore} def 
/ylabel {gsave M 90 rotate dup
   stringwidth exch -0.5 mul exch rmoveto show grestore} def
/ylabelresid {gsave M dup
   stringwidth exch -1 mul exch rmoveto show grestore} def
% ======
% Shapes
% ======
% Circle:
/Circ {0 360 arc closepath} def
%
% Square:
/Squa {dup dup -0.5 mul dup dup R -2 mul 0 exch rL 1 mul 0 rL dup 0 exch -1 mul rL closepath} def
%
% Triangle Up:
/TriU {dup dup dup -0.4 mul exch -0.5 mul exch R dup 0.5 mul exch rL dup -1 mul exch 0.5 mul exch rL closepath} def 
%
% Triangle Down:
/TriD {dup dup dup 0.4 mul exch -0.5 mul exch R dup 0.5 mul exch -1 mul rL dup 0.5 mul exch rL closepath} def 
%
% Diamond:
/Diam {45 rotate Squa} def
% ======
% Fills
% ======
/GRF {gsave setgray fill grestore} def                    % gray-level Fill
/COF {gsave setrgbcolor fill grestore} def                % color fill
% ======
% Colors
% ======
/C01 {1.00	0.00	0.00} def      % Red
/C02 {0.00	0.00	1.00} def      % Blue
/C03 {0.00	0.39	0.00} def      % Dark Green
/C04 {0.78	0.08	0.52} def      % Medium Violet Red
/C05 {0.55	0.27	0.07} def      % Saddle Brown
/C06 {0.10	0.70	0.70} def      % (cyan)
/C07 {1.00	0.55	0.00} def      % Dark Orange
/C08 {0.63	0.13	0.94} def      % Purple
/C09 {0.00	0.75	1.00} def      % Deep Sky Blue
/C10 {0.20	0.80	0.20} def      % Lime Green
/C11 {0.47	0.53	0.60} def      % Light Slate Gray
/C12 {0.00	0.00	0.00} def      % Black            % or: {0.19	0.31	0.31} def      % Dark Slate Gray
%
/LGR {0.75} def % light gray
/DGR {0.33} def % dark gray
%
% =============
% Dash patterns
% =============
/dash01 { [80  20] 0 setdash } def
/dash02 { [40  20] 0 setdash } def
/dash03 { [80  20  10  20] 0 setdash } def
/dash04 { [40  20  10  20] 0 setdash } def
/dash05 { [80  20  10  10  10  20] 0 setdash } def
/dash06 { [40  20  10  10  10  20] 0 setdash } def
/dash07 { [10  10] 0 setdash } def
%
/MFshow {
   { dup 5 get 3 ge
     { 5 get 3 eq {gsave} {grestore} ifelse }
     {dup dup 0 get findfont exch 1 get scalefont setfont
     [ currentpoint ] exch dup 2 get 0 exch R dup 5 get 2 ne {dup dup 6
     get exch 4 get {show} {stringwidth pop 0 R} ifelse }if dup 5 get 0 eq
     {dup 3 get {2 get neg 0 exch R pop} {pop aload pop M} ifelse} {dup 5
     get 1 eq {dup 2 get exch dup 3 get exch 6 get stringwidth pop -2 div
     dup 0 R} {dup 6 get stringwidth pop -2 div 0 R 6 get
     show 2 index {aload pop M neg 3 -1 roll neg R pop pop} {pop pop pop
     pop aload pop M} ifelse }ifelse }ifelse }
     ifelse }
   forall} bind def
/MFwidth {0 exch {dup 3 get{dup dup 0 get findfont exch 1 get scalefont
     setfont 6 get stringwidth pop add} {pop} ifelse} forall} bind def
/MCshow { currentpoint stroke M
  exch dup MFwidth -2 div 3 -1 roll R MFshow } def
%
end
%%EndProlog
bkdict begin
0.1 0.1 scale
%
% Residuals:
%
GSN 620 2528 M
620 3186 L
620 3104 L
620 2722 L
620 3143 L
620 3044 L
620 2835 L
620 3014 L
620 2812 L
620 2832 L
620 3202 L
620 3012 L
620 2948 L
620 3202 L
620 3204 L
620 3084 L
620 3243 L
620 3007 L
620 3202 L
620 3311 L
620 3467 L
620 3606 L
620 3284 L
620 3262 L
620 3179 L
620 3348 L
620 3857 L
620 3786 L
620 3509 L
620 3537 L
620 3506 L
620 3538 L
620 3603 L
620 3795 L
620 3139 L
620 3885 L
620 3367 L
620 3413 L
620 3304 L
620 3555 L
620 3579 L
620 3108 L
620 3565 L
620 3578 L
620 3300 L
620 3521 L
620 3757 L
620 3733 L
620 3292 L
620 3421 L
620 3489 L
620 3314 L
620 3277 L
620 3500 L
620 3587 L
620 3357 L
620 3205 L
620 3254 L
620 3262 L
620 3649 L
620 3363 L
620 3634 L
620 3649 L
620 3366 L
620 3407 L
620 3198 L
620 3176 L
620 3600 L
620 3448 L
620 3645 L
620 3131 L
620 3364 L
620 3456 L
620 3512 L
620 3449 L
620 3387 L
620 3188 L
620 3197 L
620 3387 L
620 3437 L
620 3508 L
620 3137 L
620 3058 L
620 3036 L
620 2678 L
620 3092 L
620 3249 L
620 2990 L
620 3028 L
620 2939 L
620 3146 L
620 2500 L
620 3042 L
620 2766 L
620 2682 L
620 2485 L
620 2532 L
620 2702 L
620 2631 L
620 2410 L
620 2575 L
620 2664 L
620 2919 L
620 2505 L
620 2655 L
620 2835 L
620 2597 L
620 2663 L
620 2525 L
620 2640 L
620 2545 L
620 2626 L
620 2313 L
620 2179 L
620 2292 L
620 2136 L
620 2375 L
620 2180 L
620 2658 L
620 2550 L
620 2590 L
620 2468 L
620 2700 L
620 2781 L
620 2339 L
620 2515 L
620 2712 L
620 2348 L
620 2920 L
620 2534 L
620 2329 L
620 2805 L
620 2837 L
620 2808 L
620 2590 L
620 2172 L
620 2970 L
620 2635 L
620 2550 L
620 2507 L
620 2965 L
620 2690 L
620 2640 L
620 3206 L
620 2455 L
620 2408 L
620 2675 L
620 2653 L
620 2750 L
620 2604 L
620 2403 L
620 2767 L
620 2982 L
620 2774 L
620 2721 L
620 2593 L
620 2539 L
620 3070 L
620 2815 L
620 2517 L
620 2955 L
620 2639 L
620 2655 L
620 3104 L
620 2773 L
620 2773 L
620 3220 L
620 2926 L
620 2836 L
620 3057 L
620 3144 L
620 2951 L
620 2747 L
620 2934 L
620 3356 L
620 3131 L
620 2747 L
620 3287 L
620 3229 L
620 2937 L
620 2716 L
620 3256 L
620 3284 L
620 3030 L
620 2627 L
620 3261 L
620 3103 L
620 3159 L
620 3492 L
620 3063 L
620 3220 L
620 3402 L
620 3080 L
620 3199 L
620 3103 L
620 3342 L
620 3399 L
620 3205 L
620 3101 L
620 3076 L
620 3117 L
620 3303 L
620 3602 L
620 3266 L
620 3381 L
620 2889 L
620 3451 L
620 3178 L
620 3447 L
620 3305 L
620 3168 L
620 3621 L
620 3583 L
620 3218 L
620 3368 L
620 3502 L
620 3627 L
620 3233 L
620 3568 L
620 3691 L
620 3487 L
620 3416 L
620 3128 L
620 3517 L
620 3155 L
620 3423 L
620 3535 L
620 3517 L
620 3638 L
620 3587 L
620 3300 L
620 3884 L
620 3396 L
620 3358 L
620 3824 L
620 3552 L
620 3509 L
620 3593 L
620 3201 L
620 3334 L
620 3891 L
620 3779 L
620 3678 L
620 3933 L
620 3490 L
620 3365 L
620 3458 L
620 3915 L
620 3709 L
620 3456 L
620 3569 L
620 3818 L
620 3670 L
620 3677 L
620 3334 L
620 3824 L
620 4001 L
620 3638 L
620 3590 L
620 3672 L
620 3769 L
620 3674 L
620 3711 L
620 3779 L
620 3407 L
620 3926 L
620 3789 L
620 3699 L
620 3797 L
620 3967 L
620 3347 L
620 3586 L
620 3729 L
620 3981 L
620 3657 L
620 3825 L
620 3714 L
620 3823 L
620 3831 L
620 3304 L
620 4086 L
620 3863 L
620 4224 L
620 3899 L
620 3840 L
620 4319 L
620 4305 L
620 4111 L
620 4023 L
620 4456 L
620 4191 L
620 4322 L
620 3939 L
620 4258 L
620 4155 L
620 4278 L
620 4225 L
620 4380 L
620 4250 L
620 4112 L
620 4393 L
620 4233 L
620 4262 L
620 4326 L
620 4422 L
620 4255 L
620 4088 L
620 4468 L
620 4223 L
620 4614 L
620 4863 L
620 4468 L
620 4302 L
620 4153 L
620 4583 L
620 4421 L
620 4112 L
620 4257 L
620 4350 L
620 4636 L
620 4727 L
620 4153 L
620 4135 L
620 4226 L
620 4464 L
620 4298 L
620 4533 L
620 4449 L
620 4278 L
620 4299 L
620 4269 L
620 4289 L
620 4309 L
620 4075 L
620 4196 L
620 4774 L
620 4207 L
620 4338 L
620 4030 L
620 4071 L
620 4311 L
620 4182 L
620 4240 L
620 4149 L
620 4329 L
620 4498 L
620 4090 L
620 4750 L
620 4179 L
620 4248 L
620 4438 L
620 4081 L
620 3995 L
620 4408 L
620 4508 L
620 3934 L
620 4290 L
620 3968 L
620 4043 L
620 4447 L
620 4214 L
620 4144 L
620 3927 L
620 4122 L
620 4173 L
620 4448 L
620 4302 L
620 3994 L
620 4132 L
620 4130 L
620 4283 L
620 3802 L
620 4023 L
620 3934 L
620 3897 L
620 4127 L
620 3946 L
620 3903 L
620 4221 L
620 4548 L
620 4310 L
620 4097 L
620 3776 L
620 4229 L
620 3729 L
620 4058 L
620 4174 L
620 3956 L
620 4038 L
620 4154 L
620 4168 L
620 3883 L
620 3762 L
620 3752 L
620 3753 L
620 3930 L
620 3936 L
620 3708 L
620 3858 L
620 3871 L
620 3520 L
620 3862 L
620 4010 L
620 3980 L
620 3797 L
620 3871 L
620 3796 L
620 4033 L
620 3810 L
620 3967 L
620 4258 L
620 4036 L
620 3814 L
620 4045 L
620 3929 L
620 3939 L
620 3990 L
620 3533 L
620 3620 L
620 3873 L
620 4036 L
620 3934 L
620 3740 L
620 3788 L
620 3850 L
620 4006 L
620 3837 L
620 4179 L
620 3992 L
620 3897 L
620 4223 L
620 4033 L
620 3881 L
620 3911 L
620 3913 L
620 3822 L
620 3619 L
620 4073 L
620 3700 L
620 4107 L
620 4151 L
620 3941 L
620 3791 L
620 3805 L
620 4081 L
620 4137 L
620 3848 L
620 3957 L
620 4116 L
620 3919 L
620 3856 L
620 3869 L
620 3706 L
620 3461 L
620 3589 L
620 3614 L
620 3618 L
620 3791 L
620 3749 L
620 3912 L
620 4059 L
620 3801 L
620 3831 L
620 4170 L
620 3967 L
620 3699 L
620 3969 L
620 4343 L
620 3691 L
620 3852 L
620 4028 L
620 3473 L
620 3562 L
620 3595 L
620 4167 L
620 3969 L
620 3708 L
620 3834 L
620 3586 L
620 3813 L
620 3286 L
620 4026 L
620 3753 L
620 3549 L
620 3494 L
620 4050 L
620 3805 L
620 3418 L
620 4031 L
620 3952 L
620 4036 L
620 3561 L
620 3806 L
620 3577 L
620 3683 L
620 4022 L
620 3581 L
620 3861 L
620 3555 L
620 3407 L
620 3738 L
620 3786 L
620 3894 L
620 3842 L
620 3894 L
620 3891 L
620 4115 L
620 4003 L
620 3942 L
620 3753 L
620 3750 L
620 3517 L
620 3614 L
620 3814 L
620 3778 L
620 3832 L
620 3723 L
620 3957 L
620 3661 L
620 4259 L
620 3625 L
620 3926 L
620 3665 L
620 3630 L
620 4148 L
620 3761 L
620 3788 L
620 3749 L
620 4038 L
620 4092 L
620 3733 L
620 3822 L
620 3584 L
L2 C06 COSGR

%
%================
% Legend - Begin
%================
%
GSN 4240 5180 M
4480 5180 L
LWMC SL  C06 COSGR
GSN 4540 5141 M helvM (3.0 uM) show grestore
%
%================
% Legend - End
%================
%

%
% Main frame
%
L10
GSN 
620 1700 M
4220 1700 L
4220 5300 L
620 5300 L
closepath SGR

%
% X axis: large tics
%
L10
%
% X axis: small tics
%
L5
%
% Y axis: large tics
%
L10
GSN 620 2084 M 54 0 rL SGR
GSN 4220 2084 M -54 0 rL SGR
helvS (-0.02) 560 2084 ylabel
GSN 620 2827 M 54 0 rL SGR
GSN 4220 2827 M -54 0 rL SGR
helvS (-0.01) 560 2827 ylabel
GSN 620 3570 M 54 0 rL SGR
GSN 4220 3570 M -54 0 rL SGR
helvS (0) 560 3570 ylabel
GSN 620 4313 M 54 0 rL SGR
GSN 4220 4313 M -54 0 rL SGR
helvS (0.01) 560 4313 ylabel
GSN 620 5056 M 54 0 rL SGR
GSN 4220 5056 M -54 0 rL SGR
helvS (0.02) 560 5056 ylabel
%
% Y axis: small tics
%
L5
GSN 620 1712 M 36 0 rL SGR
GSN 4220 1712 M -36 0 rL SGR
GSN 620 1898 M 36 0 rL SGR
GSN 4220 1898 M -36 0 rL SGR
GSN 620 2084 M 36 0 rL SGR
GSN 4220 2084 M -36 0 rL SGR
GSN 620 2270 M 36 0 rL SGR
GSN 4220 2270 M -36 0 rL SGR
GSN 620 2455 M 36 0 rL SGR
GSN 4220 2455 M -36 0 rL SGR
GSN 620 2641 M 36 0 rL SGR
GSN 4220 2641 M -36 0 rL SGR
GSN 620 2827 M 36 0 rL SGR
GSN 4220 2827 M -36 0 rL SGR
GSN 620 3013 M 36 0 rL SGR
GSN 4220 3013 M -36 0 rL SGR
GSN 620 3198 M 36 0 rL SGR
GSN 4220 3198 M -36 0 rL SGR
GSN 620 3384 M 36 0 rL SGR
GSN 4220 3384 M -36 0 rL SGR
GSN 620 3570 M 36 0 rL SGR
GSN 4220 3570 M -36 0 rL SGR
GSN 620 3756 M 36 0 rL SGR
GSN 4220 3756 M -36 0 rL SGR
GSN 620 3941 M 36 0 rL SGR
GSN 4220 3941 M -36 0 rL SGR
GSN 620 4127 M 36 0 rL SGR
GSN 4220 4127 M -36 0 rL SGR
GSN 620 4313 M 36 0 rL SGR
GSN 4220 4313 M -36 0 rL SGR
GSN 620 4498 M 36 0 rL SGR
GSN 4220 4498 M -36 0 rL SGR
GSN 620 4684 M 36 0 rL SGR
GSN 4220 4684 M -36 0 rL SGR
GSN 620 4870 M 36 0 rL SGR
GSN 4220 4870 M -36 0 rL SGR
GSN 620 5056 M 36 0 rL SGR
GSN 4220 5056 M -36 0 rL SGR
GSN 620 5241 M 36 0 rL SGR
GSN 4220 5241 M -36 0 rL SGR

%
% X axis - residual panel
%
GSN L5 620 3570 M 4220 3570 L SDA G50 SGR

%
% X-Axis label:
%
gsave 620 1370 M 
[
[(Helvetica) 180 0 true true 0 (t)]
[(Helvetica) 180 0 true true 0 (i)]
[(Helvetica) 180 0 true true 0 (m)]
[(Helvetica) 180 0 true true 0 (e)]
] 0 MCshow grestore

%
% Y-Axis label:
%
gsave 234 3499 M 
currentpoint gsave translate 90 rotate 0 0 moveto
[
[(Helvetica) 180 0 true true 0 (r)]
[(Helvetica) 180 0 true true 0 (e)]
[(Helvetica) 180 0 true true 0 (s)]
[(Helvetica) 180 0 true true 0 (i)]
[(Helvetica) 180 0 true true 0 (d)]
[(Helvetica) 180 0 true true 0 (u)]
[(Helvetica) 180 0 true true 0 (a)]
[(Helvetica) 180 0 true true 0 (l)]
[(Helvetica) 180 0 true true 0 (s)]
] 0 MCshow grestore

end
showpage
%%Trailer
%%EOF
