%!PS-Adobe-3.0 EPSF-3.0
%%BoundingBox: 0 0 514 550
%%Creator: BioKin Ltd.
%%DocumentFonts: Symbol Helvetica
%%EndComments
%
/bkdict 256 dict def
bkdict begin
/M {moveto} def 
/R {rmoveto} def
/L {lineto} def
/rL {rlineto} def
/GSN {gsave newpath} def
/SGR {stroke grestore} def
/COSGR {gsave setrgbcolor stroke grestore grestore} def
/SL {setlinewidth} def
/LWMB {12} def             % line width - model curves, black & white
/LWMC {10} def             % line width - model curves, color
/L2 {2.5 setlinewidth} def
/L5 {5 setlinewidth} def
/L10 {10 setlinewidth} def
/G50 {0.5 setgray} def
/SDA {[10  20] 0 setdash} def % axes
/helvT {/Helvetica findfont 100 scalefont setfont} def % tiny
/helvS {/Helvetica findfont 125 scalefont setfont} def % small
/helvM {/Helvetica findfont 150 scalefont setfont} def % medium
/helvL {/Helvetica findfont 175 scalefont setfont} def % large
/xlabel {gsave M dup
   stringwidth exch -0.5 mul exch rmoveto show grestore} def 
/ylabel {gsave M 90 rotate dup
   stringwidth exch -0.5 mul exch rmoveto show grestore} def
/ylabelresid {gsave M dup
   stringwidth exch -1 mul exch rmoveto show grestore} def
% ======
% Shapes
% ======
% Circle:
/Circ {0 360 arc closepath} def
%
% Square:
/Squa {dup dup -0.5 mul dup dup R -2 mul 0 exch rL 1 mul 0 rL dup 0 exch -1 mul rL closepath} def
%
% Triangle Up:
/TriU {dup dup dup -0.4 mul exch -0.5 mul exch R dup 0.5 mul exch rL dup -1 mul exch 0.5 mul exch rL closepath} def 
%
% Triangle Down:
/TriD {dup dup dup 0.4 mul exch -0.5 mul exch R dup 0.5 mul exch -1 mul rL dup 0.5 mul exch rL closepath} def 
%
% Diamond:
/Diam {45 rotate Squa} def
% ======
% Fills
% ======
/GRF {gsave setgray fill grestore} def                    % gray-level Fill
/COF {gsave setrgbcolor fill grestore} def                % color fill
% ======
% Colors
% ======
/C01 {1.00	0.00	0.00} def      % Red
/C02 {0.00	0.00	1.00} def      % Blue
/C03 {0.00	0.39	0.00} def      % Dark Green
/C04 {0.78	0.08	0.52} def      % Medium Violet Red
/C05 {0.55	0.27	0.07} def      % Saddle Brown
/C06 {0.10	0.70	0.70} def      % (cyan)
/C07 {1.00	0.55	0.00} def      % Dark Orange
/C08 {0.63	0.13	0.94} def      % Purple
/C09 {0.00	0.75	1.00} def      % Deep Sky Blue
/C10 {0.20	0.80	0.20} def      % Lime Green
/C11 {0.47	0.53	0.60} def      % Light Slate Gray
/C12 {0.00	0.00	0.00} def      % Black            % or: {0.19	0.31	0.31} def      % Dark Slate Gray
%
/LGR {0.75} def % light gray
/DGR {0.33} def % dark gray
%
% =============
% Dash patterns
% =============
/dash01 { [80  20] 0 setdash } def
/dash02 { [40  20] 0 setdash } def
/dash03 { [80  20  10  20] 0 setdash } def
/dash04 { [40  20  10  20] 0 setdash } def
/dash05 { [80  20  10  10  10  20] 0 setdash } def
/dash06 { [40  20  10  10  10  20] 0 setdash } def
/dash07 { [10  10] 0 setdash } def
%
/MFshow {
   { dup 5 get 3 ge
     { 5 get 3 eq {gsave} {grestore} ifelse }
     {dup dup 0 get findfont exch 1 get scalefont setfont
     [ currentpoint ] exch dup 2 get 0 exch R dup 5 get 2 ne {dup dup 6
     get exch 4 get {show} {stringwidth pop 0 R} ifelse }if dup 5 get 0 eq
     {dup 3 get {2 get neg 0 exch R pop} {pop aload pop M} ifelse} {dup 5
     get 1 eq {dup 2 get exch dup 3 get exch 6 get stringwidth pop -2 div
     dup 0 R} {dup 6 get stringwidth pop -2 div 0 R 6 get
     show 2 index {aload pop M neg 3 -1 roll neg R pop pop} {pop pop pop
     pop aload pop M} ifelse }ifelse }ifelse }
     ifelse }
   forall} bind def
/MFwidth {0 exch {dup 3 get{dup dup 0 get findfont exch 1 get scalefont
     setfont 6 get stringwidth pop add} {pop} ifelse} forall} bind def
/MCshow { currentpoint stroke M
  exch dup MFwidth -2 div 3 -1 roll R MFshow } def
%
end
%%EndProlog
bkdict begin
0.1 0.1 scale
%
% Residuals:
%
GSN 620 2809 M
620 2351 L
620 3352 L
620 2979 L
620 3688 L
620 3289 L
620 3499 L
620 3540 L
620 3296 L
620 3100 L
620 3505 L
620 3386 L
620 3894 L
620 3404 L
620 3612 L
620 3594 L
620 3663 L
620 3546 L
620 3445 L
620 3512 L
620 3231 L
620 3356 L
620 3770 L
620 3498 L
620 3350 L
620 3933 L
620 3664 L
620 3747 L
620 3643 L
620 3857 L
620 3713 L
620 3306 L
620 3854 L
620 3333 L
620 4025 L
620 4043 L
620 3377 L
620 4080 L
620 3102 L
620 4164 L
620 3773 L
620 4045 L
620 3537 L
620 4032 L
620 3975 L
620 3649 L
620 3618 L
620 3726 L
620 4027 L
620 3841 L
620 3774 L
620 4060 L
620 3744 L
620 3726 L
620 3775 L
620 3838 L
620 3639 L
620 4041 L
620 3905 L
620 3586 L
620 3561 L
620 4217 L
620 3437 L
620 4098 L
620 3491 L
620 3964 L
620 3261 L
620 3686 L
620 3223 L
620 3709 L
620 3770 L
620 3490 L
620 3455 L
620 3888 L
620 3203 L
620 3173 L
620 3915 L
620 3256 L
620 3273 L
620 3549 L
620 3992 L
620 3183 L
620 3179 L
620 3525 L
620 3525 L
620 3458 L
620 3663 L
620 3549 L
620 3166 L
620 3065 L
620 2928 L
620 3180 L
620 3285 L
620 3381 L
620 2714 L
620 2929 L
620 3446 L
620 3258 L
620 2698 L
620 3585 L
620 3435 L
620 3232 L
620 3273 L
620 3129 L
620 3233 L
620 2891 L
620 2507 L
620 2874 L
620 2727 L
620 3194 L
620 3185 L
620 3254 L
620 3107 L
620 2774 L
620 2766 L
620 3244 L
620 2551 L
620 3045 L
620 2321 L
620 3174 L
620 2575 L
620 2636 L
620 2802 L
620 3307 L
620 2883 L
620 3442 L
620 3355 L
620 2437 L
620 2968 L
620 2485 L
620 3046 L
620 2872 L
620 2654 L
620 2136 L
620 3121 L
620 2626 L
620 2761 L
620 3129 L
620 3321 L
620 2853 L
620 2874 L
620 2477 L
620 2559 L
620 2505 L
620 2856 L
620 2944 L
620 3155 L
620 2781 L
620 3209 L
620 2930 L
620 2830 L
620 2833 L
620 2686 L
620 2491 L
620 2700 L
620 2774 L
620 2680 L
620 2594 L
620 2868 L
620 2805 L
620 2922 L
620 3212 L
620 3309 L
620 3375 L
620 2889 L
620 3251 L
620 3670 L
620 2998 L
620 3097 L
620 2955 L
620 3503 L
620 2851 L
620 2936 L
620 3263 L
620 3297 L
620 3155 L
620 2814 L
620 3321 L
620 3372 L
620 3090 L
620 2933 L
620 3342 L
620 3300 L
620 3219 L
620 2752 L
620 3350 L
620 3058 L
620 3199 L
620 2903 L
620 3947 L
620 3518 L
620 2891 L
620 3791 L
620 2941 L
620 3385 L
620 3752 L
620 3407 L
620 3529 L
620 3582 L
620 3751 L
620 3549 L
620 3769 L
620 2775 L
620 3073 L
620 3493 L
620 3305 L
620 3338 L
620 3231 L
620 3430 L
620 3255 L
620 3359 L
620 3429 L
620 3760 L
620 3610 L
620 3482 L
620 3694 L
620 3285 L
620 3443 L
620 3203 L
620 3382 L
620 3346 L
620 3807 L
620 3539 L
620 3381 L
620 3393 L
620 3735 L
620 4144 L
620 3496 L
620 3783 L
620 3125 L
620 3452 L
620 3512 L
620 3550 L
620 3439 L
620 3754 L
620 3874 L
620 3607 L
620 3971 L
620 3381 L
620 2937 L
620 3819 L
620 3269 L
620 3998 L
620 4047 L
620 3697 L
620 2876 L
620 3658 L
620 4085 L
620 3746 L
620 3369 L
620 3806 L
620 3905 L
620 4130 L
620 3631 L
620 3650 L
620 3810 L
620 3931 L
620 3751 L
620 3833 L
620 3763 L
620 3818 L
620 3493 L
620 3667 L
620 3994 L
620 3777 L
620 3584 L
620 3782 L
620 3691 L
620 3651 L
620 3557 L
620 3115 L
620 3405 L
620 3817 L
620 4066 L
620 3775 L
620 3867 L
620 4051 L
620 3603 L
620 3961 L
620 3788 L
620 3609 L
620 4099 L
620 3976 L
620 4713 L
620 4200 L
620 3940 L
620 3915 L
620 3721 L
620 4231 L
620 3946 L
620 4390 L
620 4083 L
620 4536 L
620 4500 L
620 4419 L
620 4759 L
620 4460 L
620 4346 L
620 4450 L
620 4714 L
620 4627 L
620 4219 L
620 4700 L
620 4337 L
620 4296 L
620 4764 L
620 3879 L
620 4532 L
620 4287 L
620 4559 L
620 4705 L
620 3997 L
620 4083 L
620 4628 L
620 4750 L
620 4596 L
620 4156 L
620 3702 L
620 4514 L
620 4024 L
620 3929 L
620 4324 L
620 4664 L
620 3911 L
620 4138 L
620 4396 L
620 4165 L
620 4460 L
620 4487 L
620 4863 L
620 4541 L
620 4791 L
620 4056 L
620 4541 L
620 4337 L
620 4772 L
620 4034 L
620 3802 L
620 3725 L
620 4632 L
620 4179 L
620 4709 L
620 4315 L
620 4310 L
620 4365 L
620 4405 L
620 4383 L
620 3970 L
620 4124 L
620 4401 L
620 4414 L
620 4083 L
620 3843 L
620 4106 L
620 4138 L
620 3920 L
620 3925 L
620 3952 L
620 4029 L
620 4383 L
620 4401 L
620 3974 L
620 4215 L
620 3639 L
620 3925 L
620 3880 L
620 4224 L
620 4437 L
620 3607 L
620 4211 L
620 3680 L
620 3680 L
620 3761 L
620 3879 L
620 3753 L
620 3721 L
620 3984 L
620 3820 L
620 4151 L
620 3680 L
620 3684 L
620 4233 L
620 3544 L
620 4187 L
620 3780 L
620 4083 L
620 3902 L
620 4124 L
620 3630 L
620 3911 L
620 3730 L
620 3648 L
620 3807 L
620 3861 L
620 4143 L
620 3163 L
620 4183 L
620 3694 L
620 3594 L
620 4079 L
620 3521 L
620 3721 L
620 3648 L
620 3626 L
620 3630 L
620 3449 L
620 4138 L
620 3426 L
620 3539 L
620 3612 L
620 3403 L
620 3322 L
620 3707 L
620 3988 L
620 3702 L
620 3798 L
620 3911 L
620 4283 L
620 3834 L
620 4056 L
620 4351 L
620 4038 L
620 3630 L
620 3725 L
620 4228 L
620 3752 L
620 3734 L
620 3127 L
620 4165 L
620 3317 L
620 3653 L
620 3857 L
620 3694 L
620 3431 L
620 3643 L
620 3993 L
620 3911 L
620 4102 L
620 4306 L
620 3621 L
620 4433 L
620 3716 L
620 3798 L
620 3458 L
620 3802 L
620 3508 L
620 3956 L
620 3562 L
620 3848 L
620 3639 L
620 3788 L
620 3839 L
620 3503 L
620 4056 L
620 3408 L
620 3993 L
620 3816 L
620 4034 L
620 3616 L
620 3281 L
620 3431 L
620 3399 L
620 3684 L
620 3866 L
620 3684 L
620 3535 L
620 4179 L
620 3435 L
620 4242 L
620 4120 L
620 2977 L
620 3403 L
620 3630 L
620 4206 L
620 3462 L
620 3911 L
620 3870 L
620 3362 L
620 3118 L
620 3557 L
620 3698 L
620 3834 L
620 3870 L
620 3621 L
620 3675 L
620 3965 L
620 3430 L
620 3430 L
620 3916 L
620 3848 L
620 3653 L
620 3430 L
620 3634 L
620 4088 L
620 3299 L
620 3063 L
620 3163 L
620 3870 L
620 3689 L
620 3417 L
620 4110 L
620 3834 L
620 3471 L
620 3322 L
620 3403 L
620 3535 L
620 3616 L
620 3444 L
620 3263 L
620 3952 L
620 3440 L
620 3580 L
620 4160 L
620 3535 L
620 3077 L
620 3766 L
620 3199 L
620 3934 L
620 3807 L
620 3653 L
620 3390 L
620 4061 L
620 3299 L
620 3725 L
620 3548 L
620 4074 L
620 3734 L
620 3576 L
620 3721 L
620 3789 L
620 4006 L
620 3644 L
620 3739 L
L2 C02 COSGR

%
%================
% Legend - Begin
%================
%
GSN 4240 5180 M
4480 5180 L
LWMC SL  C02 COSGR
GSN 4540 5141 M helvM (1.0 uM) show grestore
%
%================
% Legend - End
%================
%

%
% Main frame
%
L10
GSN 
620 1700 M
4220 1700 L
4220 5300 L
620 5300 L
closepath SGR

%
% X axis: large tics
%
L10
%
% X axis: small tics
%
L5
%
% Y axis: large tics
%
L10
GSN 620 1848 M 54 0 rL SGR
GSN 4220 1848 M -54 0 rL SGR
helvS (-0.02) 560 1848 ylabel
GSN 620 2740 M 54 0 rL SGR
GSN 4220 2740 M -54 0 rL SGR
helvS (-0.01) 560 2740 ylabel
GSN 620 3631 M 54 0 rL SGR
GSN 4220 3631 M -54 0 rL SGR
helvS (0) 560 3631 ylabel
GSN 620 4523 M 54 0 rL SGR
GSN 4220 4523 M -54 0 rL SGR
helvS (0.01) 560 4523 ylabel
%
% Y axis: small tics
%
L5
GSN 620 1848 M 36 0 rL SGR
GSN 4220 1848 M -36 0 rL SGR
GSN 620 2071 M 36 0 rL SGR
GSN 4220 2071 M -36 0 rL SGR
GSN 620 2294 M 36 0 rL SGR
GSN 4220 2294 M -36 0 rL SGR
GSN 620 2517 M 36 0 rL SGR
GSN 4220 2517 M -36 0 rL SGR
GSN 620 2740 M 36 0 rL SGR
GSN 4220 2740 M -36 0 rL SGR
GSN 620 2963 M 36 0 rL SGR
GSN 4220 2963 M -36 0 rL SGR
GSN 620 3185 M 36 0 rL SGR
GSN 4220 3185 M -36 0 rL SGR
GSN 620 3408 M 36 0 rL SGR
GSN 4220 3408 M -36 0 rL SGR
GSN 620 3631 M 36 0 rL SGR
GSN 4220 3631 M -36 0 rL SGR
GSN 620 3854 M 36 0 rL SGR
GSN 4220 3854 M -36 0 rL SGR
GSN 620 4077 M 36 0 rL SGR
GSN 4220 4077 M -36 0 rL SGR
GSN 620 4300 M 36 0 rL SGR
GSN 4220 4300 M -36 0 rL SGR
GSN 620 4523 M 36 0 rL SGR
GSN 4220 4523 M -36 0 rL SGR
GSN 620 4745 M 36 0 rL SGR
GSN 4220 4745 M -36 0 rL SGR
GSN 620 4968 M 36 0 rL SGR
GSN 4220 4968 M -36 0 rL SGR
GSN 620 5191 M 36 0 rL SGR
GSN 4220 5191 M -36 0 rL SGR

%
% X axis - residual panel
%
GSN L5 620 3631 M 4220 3631 L SDA G50 SGR

%
% X-Axis label:
%
gsave 620 1370 M 
[
[(Helvetica) 180 0 true true 0 (t)]
[(Helvetica) 180 0 true true 0 (i)]
[(Helvetica) 180 0 true true 0 (m)]
[(Helvetica) 180 0 true true 0 (e)]
] 0 MCshow grestore

%
% Y-Axis label:
%
gsave 234 3500 M 
currentpoint gsave translate 90 rotate 0 0 moveto
[
[(Helvetica) 180 0 true true 0 (r)]
[(Helvetica) 180 0 true true 0 (e)]
[(Helvetica) 180 0 true true 0 (s)]
[(Helvetica) 180 0 true true 0 (i)]
[(Helvetica) 180 0 true true 0 (d)]
[(Helvetica) 180 0 true true 0 (u)]
[(Helvetica) 180 0 true true 0 (a)]
[(Helvetica) 180 0 true true 0 (l)]
[(Helvetica) 180 0 true true 0 (s)]
] 0 MCshow grestore

end
showpage
%%Trailer
%%EOF
