%!PS-Adobe-3.0 EPSF-3.0
%%BoundingBox: 0 0 514 550
%%Creator: BioKin Ltd.
%%DocumentFonts: Symbol Helvetica
%%EndComments
%
/bkdict 256 dict def
bkdict begin
/M {moveto} def 
/R {rmoveto} def
/L {lineto} def
/rL {rlineto} def
/GSN {gsave newpath} def
/SGR {stroke grestore} def
/COSGR {gsave setrgbcolor stroke grestore grestore} def
/SL {setlinewidth} def
/LWMB {12} def             % line width - model curves, black & white
/LWMC {10} def             % line width - model curves, color
/L2 {2.5 setlinewidth} def
/L5 {5 setlinewidth} def
/L10 {10 setlinewidth} def
/G50 {0.5 setgray} def
/SDA {[10  20] 0 setdash} def % axes
/helvT {/Helvetica findfont 100 scalefont setfont} def % tiny
/helvS {/Helvetica findfont 125 scalefont setfont} def % small
/helvM {/Helvetica findfont 150 scalefont setfont} def % medium
/helvL {/Helvetica findfont 175 scalefont setfont} def % large
/xlabel {gsave M dup
   stringwidth exch -0.5 mul exch rmoveto show grestore} def 
/ylabel {gsave M 90 rotate dup
   stringwidth exch -0.5 mul exch rmoveto show grestore} def
/ylabelresid {gsave M dup
   stringwidth exch -1 mul exch rmoveto show grestore} def
% ======
% Shapes
% ======
% Circle:
/Circ {0 360 arc closepath} def
%
% Square:
/Squa {dup dup -0.5 mul dup dup R -2 mul 0 exch rL 1 mul 0 rL dup 0 exch -1 mul rL closepath} def
%
% Triangle Up:
/TriU {dup dup dup -0.4 mul exch -0.5 mul exch R dup 0.5 mul exch rL dup -1 mul exch 0.5 mul exch rL closepath} def 
%
% Triangle Down:
/TriD {dup dup dup 0.4 mul exch -0.5 mul exch R dup 0.5 mul exch -1 mul rL dup 0.5 mul exch rL closepath} def 
%
% Diamond:
/Diam {45 rotate Squa} def
% ======
% Fills
% ======
/GRF {gsave setgray fill grestore} def                    % gray-level Fill
/COF {gsave setrgbcolor fill grestore} def                % color fill
% ======
% Colors
% ======
/C01 {1.00	0.00	0.00} def      % Red
/C02 {0.00	0.00	1.00} def      % Blue
/C03 {0.00	0.39	0.00} def      % Dark Green
/C04 {0.78	0.08	0.52} def      % Medium Violet Red
/C05 {0.55	0.27	0.07} def      % Saddle Brown
/C06 {0.10	0.70	0.70} def      % (cyan)
/C07 {1.00	0.55	0.00} def      % Dark Orange
/C08 {0.63	0.13	0.94} def      % Purple
/C09 {0.00	0.75	1.00} def      % Deep Sky Blue
/C10 {0.20	0.80	0.20} def      % Lime Green
/C11 {0.47	0.53	0.60} def      % Light Slate Gray
/C12 {0.00	0.00	0.00} def      % Black            % or: {0.19	0.31	0.31} def      % Dark Slate Gray
%
/LGR {0.75} def % light gray
/DGR {0.33} def % dark gray
%
% =============
% Dash patterns
% =============
/dash01 { [80  20] 0 setdash } def
/dash02 { [40  20] 0 setdash } def
/dash03 { [80  20  10  20] 0 setdash } def
/dash04 { [40  20  10  20] 0 setdash } def
/dash05 { [80  20  10  10  10  20] 0 setdash } def
/dash06 { [40  20  10  10  10  20] 0 setdash } def
/dash07 { [10  10] 0 setdash } def
%
/MFshow {
   { dup 5 get 3 ge
     { 5 get 3 eq {gsave} {grestore} ifelse }
     {dup dup 0 get findfont exch 1 get scalefont setfont
     [ currentpoint ] exch dup 2 get 0 exch R dup 5 get 2 ne {dup dup 6
     get exch 4 get {show} {stringwidth pop 0 R} ifelse }if dup 5 get 0 eq
     {dup 3 get {2 get neg 0 exch R pop} {pop aload pop M} ifelse} {dup 5
     get 1 eq {dup 2 get exch dup 3 get exch 6 get stringwidth pop -2 div
     dup 0 R} {dup 6 get stringwidth pop -2 div 0 R 6 get
     show 2 index {aload pop M neg 3 -1 roll neg R pop pop} {pop pop pop
     pop aload pop M} ifelse }ifelse }ifelse }
     ifelse }
   forall} bind def
/MFwidth {0 exch {dup 3 get{dup dup 0 get findfont exch 1 get scalefont
     setfont 6 get stringwidth pop add} {pop} ifelse} forall} bind def
/MCshow { currentpoint stroke M
  exch dup MFwidth -2 div 3 -1 roll R MFshow } def
%
end
%%EndProlog
bkdict begin
0.1 0.1 scale
%
% Residuals:
%
GSN 620 2136 M
620 2899 L
620 3265 L
620 3871 L
620 3955 L
620 4414 L
620 4321 L
620 4482 L
620 4614 L
620 4539 L
620 4619 L
620 4702 L
620 4526 L
620 4594 L
620 4659 L
620 4689 L
620 4863 L
620 4708 L
620 4783 L
620 4722 L
620 4739 L
620 4727 L
620 4758 L
620 4567 L
620 4711 L
620 4775 L
620 4487 L
620 4667 L
620 4452 L
620 4603 L
620 4495 L
620 4443 L
620 4496 L
620 4545 L
620 4497 L
620 4419 L
620 4517 L
620 4664 L
620 4322 L
620 4445 L
620 4444 L
620 4418 L
620 4395 L
620 4158 L
620 4464 L
620 4450 L
620 4214 L
620 4301 L
620 4101 L
620 4189 L
620 4224 L
620 4334 L
620 4364 L
620 4167 L
620 4103 L
620 4301 L
620 4002 L
620 4106 L
620 4106 L
620 3925 L
620 3920 L
620 4047 L
620 4102 L
620 4039 L
620 3944 L
620 3913 L
620 3793 L
620 3949 L
620 3918 L
620 3865 L
620 3958 L
620 4054 L
620 3878 L
620 3848 L
620 3871 L
620 3951 L
620 3803 L
620 3730 L
620 4022 L
620 3724 L
620 3961 L
620 3478 L
620 3824 L
620 3542 L
620 3508 L
620 3588 L
620 3445 L
620 3408 L
620 3515 L
620 3485 L
620 3410 L
620 3375 L
620 3255 L
620 3299 L
620 3322 L
620 3523 L
620 3259 L
620 3308 L
620 3334 L
620 3306 L
620 2988 L
620 3107 L
620 3237 L
620 3209 L
620 3203 L
620 3066 L
620 3172 L
620 3302 L
620 3140 L
620 3147 L
620 3075 L
620 2990 L
620 3229 L
620 3109 L
620 3068 L
620 3103 L
620 3168 L
620 2954 L
620 3046 L
620 3161 L
620 3047 L
620 3073 L
620 3029 L
620 3066 L
620 3052 L
620 3069 L
620 3093 L
620 3094 L
620 3142 L
620 2948 L
620 3091 L
620 3204 L
620 3072 L
620 3104 L
620 3082 L
620 3149 L
620 3087 L
620 3058 L
620 3041 L
620 3083 L
620 3128 L
620 3123 L
620 3106 L
620 3151 L
620 3146 L
620 3235 L
620 3274 L
620 2881 L
620 2963 L
620 3078 L
620 3270 L
620 3216 L
620 3082 L
620 3170 L
620 3175 L
620 3162 L
620 3135 L
620 3238 L
620 3116 L
620 3173 L
620 3051 L
620 3167 L
620 3280 L
620 3098 L
620 3249 L
620 3190 L
620 3180 L
620 3167 L
620 3351 L
620 3186 L
620 3340 L
620 3270 L
620 3291 L
620 3355 L
620 3200 L
620 3200 L
620 3340 L
620 3303 L
620 3207 L
620 3239 L
620 3249 L
620 3324 L
620 3434 L
620 3288 L
620 3373 L
620 3266 L
620 3393 L
620 3393 L
620 3229 L
620 3303 L
620 3329 L
620 3418 L
620 3206 L
620 3297 L
620 3378 L
620 3369 L
620 3247 L
620 3295 L
620 3274 L
620 3396 L
620 3333 L
620 3409 L
620 3198 L
620 3548 L
620 3346 L
620 3362 L
620 3408 L
620 3334 L
620 3398 L
620 3461 L
620 3379 L
620 3359 L
620 3450 L
620 3256 L
620 3367 L
620 3443 L
620 3533 L
620 3490 L
620 3464 L
620 3461 L
620 3466 L
620 3445 L
620 3584 L
620 3554 L
620 3564 L
620 3326 L
620 3460 L
620 3667 L
620 3541 L
620 3560 L
620 3471 L
620 3560 L
620 3527 L
620 3416 L
620 3556 L
620 3480 L
620 3695 L
620 3682 L
620 3443 L
620 3640 L
620 3512 L
620 3573 L
620 3515 L
620 3675 L
620 3512 L
620 3442 L
620 3389 L
620 3658 L
620 3469 L
620 3473 L
620 3454 L
620 3470 L
620 3546 L
620 3624 L
620 3660 L
620 3527 L
620 3532 L
620 3540 L
620 3641 L
620 3451 L
620 3480 L
620 3793 L
620 3661 L
620 3657 L
620 3709 L
620 3644 L
620 3635 L
620 3584 L
620 3480 L
620 3631 L
620 3738 L
620 3569 L
620 3368 L
620 3655 L
620 3600 L
620 3621 L
620 3725 L
620 3550 L
620 3664 L
620 3672 L
620 3775 L
620 3785 L
620 3799 L
620 3817 L
620 3945 L
620 3693 L
620 3876 L
620 4050 L
620 3910 L
620 3972 L
620 3798 L
620 3956 L
620 3965 L
620 3951 L
620 3982 L
620 3974 L
620 3759 L
620 4006 L
620 3953 L
620 3911 L
620 3934 L
620 4022 L
620 3926 L
620 3883 L
620 4075 L
620 3779 L
620 4087 L
620 3950 L
620 3951 L
620 3902 L
620 3918 L
620 3987 L
620 3891 L
620 3871 L
620 3883 L
620 3972 L
620 3938 L
620 3850 L
620 3916 L
620 3910 L
620 3805 L
620 3843 L
620 3912 L
620 3984 L
620 3917 L
620 3917 L
620 3832 L
620 3853 L
620 3817 L
620 3903 L
620 4003 L
620 3860 L
620 4061 L
620 4042 L
620 3857 L
620 3978 L
620 3933 L
620 3837 L
620 3903 L
620 4213 L
620 3903 L
620 3988 L
620 3817 L
620 3777 L
620 3860 L
620 3817 L
620 3898 L
620 3988 L
620 3834 L
620 3912 L
620 3802 L
620 3770 L
620 3779 L
620 3641 L
620 3997 L
620 3718 L
620 3852 L
620 3801 L
620 3929 L
620 3829 L
620 3812 L
620 3884 L
620 3929 L
620 3859 L
620 3669 L
620 3871 L
620 3865 L
620 3744 L
620 3682 L
620 3787 L
620 3687 L
620 3961 L
620 3797 L
620 3807 L
620 3716 L
620 3818 L
620 3671 L
620 3836 L
620 3843 L
620 3635 L
620 3509 L
620 3780 L
620 3876 L
620 3682 L
620 3618 L
620 3717 L
620 3666 L
620 3756 L
620 3569 L
620 3754 L
620 3777 L
620 3789 L
620 3672 L
620 3712 L
620 3840 L
620 3587 L
620 3538 L
620 3806 L
620 3571 L
620 3715 L
620 3461 L
620 3634 L
620 3528 L
620 3704 L
620 3906 L
620 3654 L
620 3583 L
620 3694 L
620 3397 L
620 3607 L
620 3680 L
620 3736 L
620 3550 L
620 3753 L
620 3557 L
620 3683 L
620 3670 L
620 3689 L
620 3759 L
620 3492 L
620 3709 L
620 3516 L
620 3588 L
620 3617 L
620 3713 L
620 3626 L
620 3567 L
620 3694 L
620 3521 L
620 3590 L
620 3626 L
620 3683 L
620 3629 L
620 3771 L
620 3637 L
620 3818 L
620 3567 L
620 3734 L
620 3670 L
620 3649 L
620 3644 L
620 3652 L
620 3635 L
620 3564 L
620 3579 L
620 3878 L
620 3633 L
620 3531 L
620 3674 L
620 3626 L
620 3823 L
620 3572 L
620 3787 L
620 3796 L
620 3577 L
620 3741 L
620 3616 L
620 3704 L
620 3719 L
620 3756 L
620 3450 L
620 3777 L
620 3505 L
620 3606 L
620 3587 L
620 3704 L
620 3715 L
620 3383 L
620 3533 L
620 3540 L
620 3657 L
620 3770 L
620 3543 L
620 3579 L
620 3319 L
620 3663 L
620 3536 L
620 3682 L
620 3327 L
620 3591 L
620 3763 L
620 3445 L
620 3471 L
620 3515 L
620 3486 L
620 3589 L
620 3611 L
620 3649 L
620 3621 L
620 3571 L
620 3574 L
620 3457 L
620 3647 L
620 3639 L
620 3297 L
620 3601 L
620 3516 L
620 3624 L
620 3550 L
620 3590 L
620 3693 L
620 3604 L
620 3488 L
620 3429 L
620 3590 L
620 3619 L
620 3448 L
620 3427 L
620 3606 L
620 3655 L
620 3458 L
620 3639 L
620 3572 L
620 3431 L
620 3589 L
620 3595 L
620 3891 L
620 3546 L
620 3536 L
620 3663 L
620 3505 L
620 3602 L
620 3701 L
620 3617 L
620 3616 L
620 3488 L
620 3597 L
620 3640 L
620 3596 L
620 3510 L
620 3492 L
620 3561 L
620 3526 L
L2 C04 COSGR

%
%================
% Legend - Begin
%================
%
GSN 4240 5180 M
4480 5180 L
LWMC SL  C04 COSGR
GSN 4540 5141 M helvM (2.0 uM) show grestore
%
%================
% Legend - End
%================
%

%
% Main frame
%
L10
GSN 
620 1700 M
4220 1700 L
4220 5300 L
620 5300 L
closepath SGR

%
% X axis: large tics
%
L10
%
% X axis: small tics
%
L5
%
% Y axis: large tics
%
L10
GSN 620 2186 M 54 0 rL SGR
GSN 4220 2186 M -54 0 rL SGR
helvS (-0.04) 560 2186 ylabel
GSN 620 2923 M 54 0 rL SGR
GSN 4220 2923 M -54 0 rL SGR
helvS (-0.02) 560 2923 ylabel
GSN 620 3660 M 54 0 rL SGR
GSN 4220 3660 M -54 0 rL SGR
helvS (0) 560 3660 ylabel
GSN 620 4397 M 54 0 rL SGR
GSN 4220 4397 M -54 0 rL SGR
helvS (0.02) 560 4397 ylabel
GSN 620 5134 M 54 0 rL SGR
GSN 4220 5134 M -54 0 rL SGR
helvS (0.04) 560 5134 ylabel
%
% Y axis: small tics
%
L5
GSN 620 1817 M 36 0 rL SGR
GSN 4220 1817 M -36 0 rL SGR
GSN 620 2001 M 36 0 rL SGR
GSN 4220 2001 M -36 0 rL SGR
GSN 620 2186 M 36 0 rL SGR
GSN 4220 2186 M -36 0 rL SGR
GSN 620 2370 M 36 0 rL SGR
GSN 4220 2370 M -36 0 rL SGR
GSN 620 2554 M 36 0 rL SGR
GSN 4220 2554 M -36 0 rL SGR
GSN 620 2739 M 36 0 rL SGR
GSN 4220 2739 M -36 0 rL SGR
GSN 620 2923 M 36 0 rL SGR
GSN 4220 2923 M -36 0 rL SGR
GSN 620 3107 M 36 0 rL SGR
GSN 4220 3107 M -36 0 rL SGR
GSN 620 3291 M 36 0 rL SGR
GSN 4220 3291 M -36 0 rL SGR
GSN 620 3476 M 36 0 rL SGR
GSN 4220 3476 M -36 0 rL SGR
GSN 620 3660 M 36 0 rL SGR
GSN 4220 3660 M -36 0 rL SGR
GSN 620 3844 M 36 0 rL SGR
GSN 4220 3844 M -36 0 rL SGR
GSN 620 4029 M 36 0 rL SGR
GSN 4220 4029 M -36 0 rL SGR
GSN 620 4213 M 36 0 rL SGR
GSN 4220 4213 M -36 0 rL SGR
GSN 620 4397 M 36 0 rL SGR
GSN 4220 4397 M -36 0 rL SGR
GSN 620 4582 M 36 0 rL SGR
GSN 4220 4582 M -36 0 rL SGR
GSN 620 4766 M 36 0 rL SGR
GSN 4220 4766 M -36 0 rL SGR
GSN 620 4950 M 36 0 rL SGR
GSN 4220 4950 M -36 0 rL SGR
GSN 620 5134 M 36 0 rL SGR
GSN 4220 5134 M -36 0 rL SGR

%
% X axis - residual panel
%
GSN L5 620 3660 M 4220 3660 L SDA G50 SGR

%
% X-Axis label:
%
gsave 620 1370 M 
[
[(Helvetica) 180 0 true true 0 (t)]
[(Helvetica) 180 0 true true 0 (i)]
[(Helvetica) 180 0 true true 0 (m)]
[(Helvetica) 180 0 true true 0 (e)]
] 0 MCshow grestore

%
% Y-Axis label:
%
gsave 234 3500 M 
currentpoint gsave translate 90 rotate 0 0 moveto
[
[(Helvetica) 180 0 true true 0 (r)]
[(Helvetica) 180 0 true true 0 (e)]
[(Helvetica) 180 0 true true 0 (s)]
[(Helvetica) 180 0 true true 0 (i)]
[(Helvetica) 180 0 true true 0 (d)]
[(Helvetica) 180 0 true true 0 (u)]
[(Helvetica) 180 0 true true 0 (a)]
[(Helvetica) 180 0 true true 0 (l)]
[(Helvetica) 180 0 true true 0 (s)]
] 0 MCshow grestore

end
showpage
%%Trailer
%%EOF
