%!PS-Adobe-3.0 EPSF-3.0
%%BoundingBox: 0 0 514 550
%%Creator: BioKin Ltd.
%%DocumentFonts: Symbol Helvetica
%%EndComments
%
/bkdict 256 dict def
bkdict begin
/M {moveto} def 
/R {rmoveto} def
/L {lineto} def
/rL {rlineto} def
/GSN {gsave newpath} def
/SGR {stroke grestore} def
/COSGR {gsave setrgbcolor stroke grestore grestore} def
/SL {setlinewidth} def
/LWMB {12} def             % line width - model curves, black & white
/LWMC {10} def             % line width - model curves, color
/L2 {2.5 setlinewidth} def
/L5 {5 setlinewidth} def
/L10 {10 setlinewidth} def
/G50 {0.5 setgray} def
/SDA {[10  20] 0 setdash} def % axes
/helvT {/Helvetica findfont 100 scalefont setfont} def % tiny
/helvS {/Helvetica findfont 125 scalefont setfont} def % small
/helvM {/Helvetica findfont 150 scalefont setfont} def % medium
/helvL {/Helvetica findfont 175 scalefont setfont} def % large
/xlabel {gsave M dup
   stringwidth exch -0.5 mul exch rmoveto show grestore} def 
/ylabel {gsave M 90 rotate dup
   stringwidth exch -0.5 mul exch rmoveto show grestore} def
/ylabelresid {gsave M dup
   stringwidth exch -1 mul exch rmoveto show grestore} def
% ======
% Shapes
% ======
% Circle:
/Circ {0 360 arc closepath} def
%
% Square:
/Squa {dup dup -0.5 mul dup dup R -2 mul 0 exch rL 1 mul 0 rL dup 0 exch -1 mul rL closepath} def
%
% Triangle Up:
/TriU {dup dup dup -0.4 mul exch -0.5 mul exch R dup 0.5 mul exch rL dup -1 mul exch 0.5 mul exch rL closepath} def 
%
% Triangle Down:
/TriD {dup dup dup 0.4 mul exch -0.5 mul exch R dup 0.5 mul exch -1 mul rL dup 0.5 mul exch rL closepath} def 
%
% Diamond:
/Diam {45 rotate Squa} def
% ======
% Fills
% ======
/GRF {gsave setgray fill grestore} def                    % gray-level Fill
/COF {gsave setrgbcolor fill grestore} def                % color fill
% ======
% Colors
% ======
/C01 {1.00	0.00	0.00} def      % Red
/C02 {0.00	0.00	1.00} def      % Blue
/C03 {0.00	0.39	0.00} def      % Dark Green
/C04 {0.78	0.08	0.52} def      % Medium Violet Red
/C05 {0.55	0.27	0.07} def      % Saddle Brown
/C06 {0.10	0.70	0.70} def      % (cyan)
/C07 {1.00	0.55	0.00} def      % Dark Orange
/C08 {0.63	0.13	0.94} def      % Purple
/C09 {0.00	0.75	1.00} def      % Deep Sky Blue
/C10 {0.20	0.80	0.20} def      % Lime Green
/C11 {0.47	0.53	0.60} def      % Light Slate Gray
/C12 {0.00	0.00	0.00} def      % Black            % or: {0.19	0.31	0.31} def      % Dark Slate Gray
%
/LGR {0.75} def % light gray
/DGR {0.33} def % dark gray
%
% =============
% Dash patterns
% =============
/dash01 { [80  20] 0 setdash } def
/dash02 { [40  20] 0 setdash } def
/dash03 { [80  20  10  20] 0 setdash } def
/dash04 { [40  20  10  20] 0 setdash } def
/dash05 { [80  20  10  10  10  20] 0 setdash } def
/dash06 { [40  20  10  10  10  20] 0 setdash } def
/dash07 { [10  10] 0 setdash } def
%
/MFshow {
   { dup 5 get 3 ge
     { 5 get 3 eq {gsave} {grestore} ifelse }
     {dup dup 0 get findfont exch 1 get scalefont setfont
     [ currentpoint ] exch dup 2 get 0 exch R dup 5 get 2 ne {dup dup 6
     get exch 4 get {show} {stringwidth pop 0 R} ifelse }if dup 5 get 0 eq
     {dup 3 get {2 get neg 0 exch R pop} {pop aload pop M} ifelse} {dup 5
     get 1 eq {dup 2 get exch dup 3 get exch 6 get stringwidth pop -2 div
     dup 0 R} {dup 6 get stringwidth pop -2 div 0 R 6 get
     show 2 index {aload pop M neg 3 -1 roll neg R pop pop} {pop pop pop
     pop aload pop M} ifelse }ifelse }ifelse }
     ifelse }
   forall} bind def
/MFwidth {0 exch {dup 3 get{dup dup 0 get findfont exch 1 get scalefont
     setfont 6 get stringwidth pop add} {pop} ifelse} forall} bind def
/MCshow { currentpoint stroke M
  exch dup MFwidth -2 div 3 -1 roll R MFshow } def
%
end
%%EndProlog
bkdict begin
0.1 0.1 scale
%
% Residuals:
%
GSN 620 3191 M
620 4445 L
620 4562 L
620 4863 L
620 4693 L
620 4559 L
620 4577 L
620 4567 L
620 4605 L
620 4516 L
620 4533 L
620 4249 L
620 4719 L
620 4310 L
620 4483 L
620 4551 L
620 4483 L
620 4536 L
620 4196 L
620 4338 L
620 4252 L
620 4099 L
620 4163 L
620 4259 L
620 4049 L
620 4305 L
620 4445 L
620 4237 L
620 4366 L
620 4148 L
620 4008 L
620 3696 L
620 3871 L
620 3901 L
620 4145 L
620 4132 L
620 3967 L
620 3980 L
620 4067 L
620 4049 L
620 4171 L
620 4351 L
620 3782 L
620 3902 L
620 3579 L
620 3721 L
620 3589 L
620 3864 L
620 3876 L
620 3803 L
620 3889 L
620 3968 L
620 3538 L
620 3122 L
620 3366 L
620 3612 L
620 3782 L
620 3978 L
620 3612 L
620 3475 L
620 3343 L
620 3739 L
620 3297 L
620 3445 L
620 3729 L
620 3645 L
620 3265 L
620 3503 L
620 3478 L
620 3325 L
620 3282 L
620 3612 L
620 3391 L
620 3490 L
620 3259 L
620 3470 L
620 3480 L
620 3435 L
620 3351 L
620 3356 L
620 3427 L
620 3191 L
620 3148 L
620 3231 L
620 3325 L
620 3257 L
620 3287 L
620 3308 L
620 2896 L
620 2973 L
620 3034 L
620 3422 L
620 2904 L
620 2582 L
620 3188 L
620 2818 L
620 3049 L
620 2683 L
620 3016 L
620 2909 L
620 2755 L
620 2610 L
620 2907 L
620 2765 L
620 2287 L
620 2719 L
620 2760 L
620 2321 L
620 2805 L
620 2607 L
620 2866 L
620 2455 L
620 2899 L
620 2887 L
620 2790 L
620 2633 L
620 2646 L
620 2684 L
620 2524 L
620 2590 L
620 2684 L
620 2658 L
620 2633 L
620 2359 L
620 2551 L
620 2506 L
620 2336 L
620 2476 L
620 2699 L
620 2372 L
620 2595 L
620 2387 L
620 2407 L
620 2341 L
620 2498 L
620 2453 L
620 2389 L
620 2407 L
620 2605 L
620 2344 L
620 2501 L
620 2311 L
620 2364 L
620 2417 L
620 2371 L
620 2336 L
620 2290 L
620 2328 L
620 2303 L
620 2461 L
620 2549 L
620 2351 L
620 2539 L
620 2796 L
620 2359 L
620 2296 L
620 2321 L
620 2628 L
620 2453 L
620 2445 L
620 2821 L
620 2732 L
620 2257 L
620 2582 L
620 2349 L
620 2557 L
620 2555 L
620 2534 L
620 2572 L
620 2570 L
620 2694 L
620 2359 L
620 2788 L
620 2770 L
620 2618 L
620 2905 L
620 2136 L
620 2435 L
620 2707 L
620 2448 L
620 2522 L
620 2539 L
620 2529 L
620 2628 L
620 2187 L
620 2656 L
620 2768 L
620 3235 L
620 2567 L
620 3090 L
620 2321 L
620 2834 L
620 2720 L
620 2341 L
620 2692 L
620 2763 L
620 2722 L
620 2438 L
620 2720 L
620 2527 L
620 2575 L
620 2595 L
620 2707 L
620 2763 L
620 2466 L
620 2535 L
620 2522 L
620 2875 L
620 2791 L
620 2469 L
620 2791 L
620 2669 L
620 2811 L
620 3019 L
620 2908 L
620 2857 L
620 2890 L
620 2898 L
620 3093 L
620 2738 L
620 2801 L
620 3055 L
620 2935 L
620 2664 L
620 2705 L
620 2961 L
620 2628 L
620 2994 L
620 2456 L
620 2700 L
620 2887 L
620 3057 L
620 3025 L
620 2867 L
620 2839 L
620 2713 L
620 2710 L
620 2796 L
620 2705 L
620 2895 L
620 2654 L
620 2631 L
620 2616 L
620 2812 L
620 2753 L
620 2748 L
620 2822 L
620 2636 L
620 2855 L
620 3047 L
620 2949 L
620 2619 L
620 3083 L
620 3187 L
620 2921 L
620 2725 L
620 2657 L
620 2827 L
620 2824 L
620 2637 L
620 2517 L
620 2685 L
620 2487 L
620 2624 L
620 3261 L
620 3068 L
620 2862 L
620 2900 L
620 3220 L
620 3164 L
620 2878 L
620 2537 L
620 2563 L
620 3136 L
620 3223 L
620 2895 L
620 3213 L
620 3043 L
620 2632 L
620 2898 L
620 2687 L
620 2815 L
620 2992 L
620 2927 L
620 2813 L
620 3133 L
620 2767 L
620 3085 L
620 3197 L
620 3065 L
620 2969 L
620 3154 L
620 3185 L
620 3114 L
620 3264 L
620 3325 L
620 2962 L
620 3082 L
620 2940 L
620 3189 L
620 2742 L
620 2920 L
620 2928 L
620 2969 L
620 3220 L
620 2949 L
620 3134 L
620 3383 L
620 3018 L
620 3056 L
620 3016 L
620 3191 L
620 2897 L
620 2963 L
620 3024 L
620 3037 L
620 2999 L
620 3017 L
620 3174 L
620 2789 L
620 3360 L
620 3432 L
620 2929 L
620 3178 L
620 2637 L
620 3026 L
620 3338 L
620 2862 L
620 2745 L
620 2951 L
620 3141 L
620 3385 L
620 3005 L
620 2756 L
620 2990 L
620 3031 L
620 3252 L
620 2935 L
620 2998 L
620 2915 L
620 2831 L
620 3184 L
620 3044 L
620 2875 L
620 3139 L
620 2972 L
620 3076 L
620 3289 L
620 2924 L
620 2820 L
620 3214 L
620 3138 L
620 2793 L
620 2804 L
620 2990 L
620 2767 L
620 2959 L
620 3043 L
620 2950 L
620 3425 L
620 2731 L
620 3135 L
620 3133 L
620 3370 L
620 2881 L
620 2970 L
620 2895 L
620 3094 L
620 2749 L
620 2966 L
620 2880 L
620 2916 L
620 3123 L
620 2768 L
620 3213 L
620 3282 L
620 3042 L
620 2867 L
620 2766 L
620 3184 L
620 3050 L
620 3172 L
620 2719 L
620 2978 L
620 3065 L
620 2975 L
620 3067 L
620 2918 L
620 3236 L
620 2955 L
620 3095 L
620 3007 L
620 3058 L
620 3066 L
620 2994 L
620 3017 L
620 3231 L
620 2826 L
620 2956 L
620 3114 L
620 3188 L
620 2851 L
620 3215 L
620 3053 L
620 3340 L
620 2757 L
620 3248 L
620 3114 L
620 3021 L
620 2902 L
620 3035 L
620 3061 L
620 3219 L
620 3197 L
620 2750 L
620 2847 L
620 3013 L
620 2889 L
620 3065 L
620 3231 L
620 2752 L
620 2846 L
620 2860 L
620 3165 L
620 2676 L
620 2955 L
620 2822 L
620 2990 L
620 3051 L
620 3141 L
620 3202 L
620 3099 L
620 2942 L
620 3151 L
620 3151 L
620 3142 L
620 3084 L
620 2988 L
620 2636 L
620 2911 L
620 3368 L
620 3257 L
620 3012 L
620 3122 L
620 3249 L
620 2686 L
620 3174 L
620 3147 L
620 2787 L
620 3079 L
620 2720 L
620 2999 L
620 3249 L
620 3321 L
620 2933 L
620 3390 L
620 2835 L
620 3089 L
620 3069 L
620 3364 L
620 2802 L
620 3289 L
620 3255 L
620 3095 L
620 2987 L
620 3043 L
620 2993 L
620 3372 L
620 2986 L
620 3127 L
620 3292 L
620 3036 L
620 3095 L
620 3030 L
620 3406 L
620 3028 L
620 2894 L
620 3291 L
620 3182 L
620 3246 L
620 2889 L
620 3217 L
620 3169 L
620 3330 L
620 3394 L
620 3270 L
620 3075 L
620 3200 L
620 3099 L
620 3206 L
620 3555 L
620 3152 L
620 3274 L
620 3028 L
620 3255 L
620 3065 L
620 3177 L
620 3167 L
620 3231 L
620 2960 L
620 3037 L
620 2842 L
620 3254 L
620 3551 L
620 2709 L
620 3395 L
620 3111 L
620 3028 L
620 3287 L
620 3351 L
620 3075 L
620 3418 L
620 3295 L
620 3031 L
620 3166 L
620 3139 L
620 3182 L
620 3391 L
620 3275 L
620 3110 L
620 3631 L
620 3124 L
620 3153 L
620 3325 L
620 3285 L
620 2882 L
620 3172 L
620 2799 L
620 3074 L
620 3224 L
620 3314 L
620 3048 L
620 3276 L
L2 C01 COSGR

%
%================
% Legend - Begin
%================
%
GSN 4240 5180 M
4480 5180 L
LWMC SL  C01 COSGR
GSN 4540 5141 M helvM (0.5 uM) show grestore
%
%================
% Legend - End
%================
%

%
% Main frame
%
L10
GSN 
620 1700 M
4220 1700 L
4220 5300 L
620 5300 L
closepath SGR

%
% X axis: large tics
%
L10
%
% X axis: small tics
%
L5
%
% Y axis: large tics
%
L10
GSN 620 2068 M 54 0 rL SGR
GSN 4220 2068 M -54 0 rL SGR
helvS (-0.02) 560 2068 ylabel
GSN 620 3066 M 54 0 rL SGR
GSN 4220 3066 M -54 0 rL SGR
helvS (0) 560 3066 ylabel
GSN 620 4064 M 54 0 rL SGR
GSN 4220 4064 M -54 0 rL SGR
helvS (0.02) 560 4064 ylabel
GSN 620 5062 M 54 0 rL SGR
GSN 4220 5062 M -54 0 rL SGR
helvS (0.04) 560 5062 ylabel
%
% Y axis: small tics
%
L5
GSN 620 1818 M 36 0 rL SGR
GSN 4220 1818 M -36 0 rL SGR
GSN 620 2068 M 36 0 rL SGR
GSN 4220 2068 M -36 0 rL SGR
GSN 620 2317 M 36 0 rL SGR
GSN 4220 2317 M -36 0 rL SGR
GSN 620 2567 M 36 0 rL SGR
GSN 4220 2567 M -36 0 rL SGR
GSN 620 2816 M 36 0 rL SGR
GSN 4220 2816 M -36 0 rL SGR
GSN 620 3066 M 36 0 rL SGR
GSN 4220 3066 M -36 0 rL SGR
GSN 620 3315 M 36 0 rL SGR
GSN 4220 3315 M -36 0 rL SGR
GSN 620 3565 M 36 0 rL SGR
GSN 4220 3565 M -36 0 rL SGR
GSN 620 3814 M 36 0 rL SGR
GSN 4220 3814 M -36 0 rL SGR
GSN 620 4064 M 36 0 rL SGR
GSN 4220 4064 M -36 0 rL SGR
GSN 620 4313 M 36 0 rL SGR
GSN 4220 4313 M -36 0 rL SGR
GSN 620 4563 M 36 0 rL SGR
GSN 4220 4563 M -36 0 rL SGR
GSN 620 4812 M 36 0 rL SGR
GSN 4220 4812 M -36 0 rL SGR
GSN 620 5062 M 36 0 rL SGR
GSN 4220 5062 M -36 0 rL SGR

%
% X axis - residual panel
%
GSN L5 620 3066 M 4220 3066 L SDA G50 SGR

%
% X-Axis label:
%
gsave 620 1370 M 
[
[(Helvetica) 180 0 true true 0 (t)]
[(Helvetica) 180 0 true true 0 (i)]
[(Helvetica) 180 0 true true 0 (m)]
[(Helvetica) 180 0 true true 0 (e)]
] 0 MCshow grestore

%
% Y-Axis label:
%
gsave 234 3500 M 
currentpoint gsave translate 90 rotate 0 0 moveto
[
[(Helvetica) 180 0 true true 0 (r)]
[(Helvetica) 180 0 true true 0 (e)]
[(Helvetica) 180 0 true true 0 (s)]
[(Helvetica) 180 0 true true 0 (i)]
[(Helvetica) 180 0 true true 0 (d)]
[(Helvetica) 180 0 true true 0 (u)]
[(Helvetica) 180 0 true true 0 (a)]
[(Helvetica) 180 0 true true 0 (l)]
[(Helvetica) 180 0 true true 0 (s)]
] 0 MCshow grestore

end
showpage
%%Trailer
%%EOF
