%!PS-Adobe-3.0 EPSF-3.0
%%BoundingBox: 0 0 514 550
%%Creator: BioKin Ltd.
%%DocumentFonts: Symbol Helvetica
%%EndComments
%
/bkdict 256 dict def
bkdict begin
/M {moveto} def 
/R {rmoveto} def
/L {lineto} def
/rL {rlineto} def
/GSN {gsave newpath} def
/SGR {stroke grestore} def
/COSGR {gsave setrgbcolor stroke grestore grestore} def
/SL {setlinewidth} def
/LWMB {12} def             % line width - model curves, black & white
/LWMC {10} def             % line width - model curves, color
/L2 {2.5 setlinewidth} def
/L5 {5 setlinewidth} def
/L10 {10 setlinewidth} def
/G50 {0.5 setgray} def
/SDA {[10  20] 0 setdash} def % axes
/helvT {/Helvetica findfont 100 scalefont setfont} def % tiny
/helvS {/Helvetica findfont 125 scalefont setfont} def % small
/helvM {/Helvetica findfont 150 scalefont setfont} def % medium
/helvL {/Helvetica findfont 175 scalefont setfont} def % large
/xlabel {gsave M dup
   stringwidth exch -0.5 mul exch rmoveto show grestore} def 
/ylabel {gsave M 90 rotate dup
   stringwidth exch -0.5 mul exch rmoveto show grestore} def
/ylabelresid {gsave M dup
   stringwidth exch -1 mul exch rmoveto show grestore} def
% ======
% Shapes
% ======
% Circle:
/Circ {0 360 arc closepath} def
%
% Square:
/Squa {dup dup -0.5 mul dup dup R -2 mul 0 exch rL 1 mul 0 rL dup 0 exch -1 mul rL closepath} def
%
% Triangle Up:
/TriU {dup dup dup -0.4 mul exch -0.5 mul exch R dup 0.5 mul exch rL dup -1 mul exch 0.5 mul exch rL closepath} def 
%
% Triangle Down:
/TriD {dup dup dup 0.4 mul exch -0.5 mul exch R dup 0.5 mul exch -1 mul rL dup 0.5 mul exch rL closepath} def 
%
% Diamond:
/Diam {45 rotate Squa} def
% ======
% Fills
% ======
/GRF {gsave setgray fill grestore} def                    % gray-level Fill
/COF {gsave setrgbcolor fill grestore} def                % color fill
% ======
% Colors
% ======
/C01 {1.00	0.00	0.00} def      % Red
/C02 {0.00	0.00	1.00} def      % Blue
/C03 {0.00	0.39	0.00} def      % Dark Green
/C04 {0.78	0.08	0.52} def      % Medium Violet Red
/C05 {0.55	0.27	0.07} def      % Saddle Brown
/C06 {0.10	0.70	0.70} def      % (cyan)
/C07 {1.00	0.55	0.00} def      % Dark Orange
/C08 {0.63	0.13	0.94} def      % Purple
/C09 {0.00	0.75	1.00} def      % Deep Sky Blue
/C10 {0.20	0.80	0.20} def      % Lime Green
/C11 {0.47	0.53	0.60} def      % Light Slate Gray
/C12 {0.00	0.00	0.00} def      % Black            % or: {0.19	0.31	0.31} def      % Dark Slate Gray
%
/LGR {0.75} def % light gray
/DGR {0.33} def % dark gray
%
% =============
% Dash patterns
% =============
/dash01 { [80  20] 0 setdash } def
/dash02 { [40  20] 0 setdash } def
/dash03 { [80  20  10  20] 0 setdash } def
/dash04 { [40  20  10  20] 0 setdash } def
/dash05 { [80  20  10  10  10  20] 0 setdash } def
/dash06 { [40  20  10  10  10  20] 0 setdash } def
/dash07 { [10  10] 0 setdash } def
%
/MFshow {
   { dup 5 get 3 ge
     { 5 get 3 eq {gsave} {grestore} ifelse }
     {dup dup 0 get findfont exch 1 get scalefont setfont
     [ currentpoint ] exch dup 2 get 0 exch R dup 5 get 2 ne {dup dup 6
     get exch 4 get {show} {stringwidth pop 0 R} ifelse }if dup 5 get 0 eq
     {dup 3 get {2 get neg 0 exch R pop} {pop aload pop M} ifelse} {dup 5
     get 1 eq {dup 2 get exch dup 3 get exch 6 get stringwidth pop -2 div
     dup 0 R} {dup 6 get stringwidth pop -2 div 0 R 6 get
     show 2 index {aload pop M neg 3 -1 roll neg R pop pop} {pop pop pop
     pop aload pop M} ifelse }ifelse }ifelse }
     ifelse }
   forall} bind def
/MFwidth {0 exch {dup 3 get{dup dup 0 get findfont exch 1 get scalefont
     setfont 6 get stringwidth pop add} {pop} ifelse} forall} bind def
/MCshow { currentpoint stroke M
  exch dup MFwidth -2 div 3 -1 roll R MFshow } def
%
end
%%EndProlog
bkdict begin
0.1 0.1 scale
%
% Model curves:
%

GSN 753 5166 M
753 5166 L
786 5154 L
820 5142 L
853 5131 L
886 5121 L
920 5111 L
929 5108 L
953 5102 L
986 5094 L
1020 5087 L
1053 5081 L
1086 5075 L
1106 5072 L
1120 5070 L
1153 5066 L
1186 5063 L
1220 5060 L
1253 5058 L
1282 5056 L
1286 5056 L
1319 5054 L
1353 5052 L
1386 5051 L
1419 5049 L
1453 5047 L
1459 5046 L
1486 5044 L
1519 5042 L
1553 5039 L
1586 5035 L
1619 5032 L
1635 5030 L
1653 5027 L
1686 5022 L
1719 5016 L
1753 5010 L
1786 5003 L
1812 4996 L
1819 4994 L
1853 4985 L
1886 4974 L
1919 4962 L
1953 4948 L
1986 4932 L
1988 4931 L
2019 4915 L
2053 4895 L
2086 4872 L
2119 4847 L
2153 4818 L
2165 4807 L
2186 4786 L
2219 4750 L
2253 4709 L
2286 4664 L
2319 4614 L
2341 4578 L
2353 4558 L
2386 4497 L
2419 4429 L
2453 4355 L
2486 4275 L
2518 4192 L
2519 4188 L
2553 4094 L
2586 3994 L
2619 3888 L
2653 3777 L
2686 3662 L
2694 3633 L
2719 3544 L
2753 3425 L
2786 3306 L
2819 3190 L
2853 3077 L
2871 3019 L
2886 2971 L
2919 2873 L
2953 2784 L
2986 2706 L
3019 2639 L
3047 2592 L
3053 2584 L
3086 2541 L
3119 2508 L
3153 2484 L
3186 2468 L
3219 2457 L
3224 2456 L
3253 2451 L
3286 2448 L
3319 2446 L
3353 2446 L
3386 2445 L
3400 2445 L
3419 2445 L
3453 2445 L
3476 2445 L
3486 2445 L
3519 2445 L
3553 2445 L
3577 2445 L
3586 2445 L
3619 2445 L
3653 2445 L
3686 2445 L
3719 2445 L
3753 2445 L
3754 2445 L
3786 2445 L
3819 2445 L
3853 2445 L
3886 2445 L
3919 2445 L
3930 2445 L
3953 2445 L
3986 2445 L
4019 2445 L
4053 2445 L
4086 2445 L
4086 2445 L
LWMC SL  C03 COSGR

%
% Experimental data:
%
GSN 777 4824 M
1388 4814 L
1552 4848 L
1652 4979 L
1723 4769 L
1778 4627 L
1824 4643 L
1863 4596 L
1896 4571 L
1926 4617 L
1952 4699 L
1976 4761 L
1998 4949 L
2019 5040 L
2037 4721 L
2055 5042 L
2071 4889 L
2086 4734 L
2101 4707 L
2115 4729 L
2128 4980 L
2140 4760 L
2152 4684 L
2163 5043 L
2174 4973 L
2184 4772 L
2194 4593 L
2204 4502 L
2213 4739 L
2222 4768 L
2230 4711 L
2239 4804 L
2247 4644 L
2255 4632 L
2262 4817 L
2270 4589 L
2277 4660 L
2284 4580 L
2290 4793 L
2297 4700 L
2303 4563 L
2310 4403 L
2316 4506 L
2322 4445 L
2328 4489 L
2333 4534 L
2339 4593 L
2344 4567 L
2350 4671 L
2355 4426 L
2360 4439 L
2365 4522 L
2370 4579 L
2375 4484 L
2380 4314 L
2384 4570 L
2389 4495 L
2393 4721 L
2398 4501 L
2402 4340 L
2407 4334 L
2411 4516 L
2415 4450 L
2419 4409 L
2423 4572 L
2427 4456 L
2431 4695 L
2435 4441 L
2438 4332 L
2442 4488 L
2446 4435 L
2449 4317 L
2453 4347 L
2456 4439 L
2460 4379 L
2463 4295 L
2467 4189 L
2470 4244 L
2473 4360 L
2476 4418 L
2480 4242 L
2483 4280 L
2486 4495 L
2489 4284 L
2492 4411 L
2495 4263 L
2498 4344 L
2501 4185 L
2504 4412 L
2507 4325 L
2510 4159 L
2512 4319 L
2515 4404 L
2518 4284 L
2521 4331 L
2523 4231 L
2526 4268 L
2529 4128 L
2531 3948 L
2534 4150 L
2536 4135 L
2539 4198 L
2541 4167 L
2544 4061 L
2546 3953 L
2549 4116 L
2551 4173 L
2554 4138 L
2556 4061 L
2558 4126 L
2561 4173 L
2563 3980 L
2565 3965 L
2568 4326 L
2570 4253 L
2572 4201 L
2574 4086 L
2576 3898 L
2579 4456 L
2581 4032 L
2583 3914 L
2585 4102 L
2587 4205 L
2589 4082 L
2591 3988 L
2593 4047 L
2595 3961 L
2597 4082 L
2599 3992 L
2601 4000 L
2603 4231 L
2605 3817 L
2607 3919 L
2609 3966 L
2611 4042 L
2613 4003 L
2615 3797 L
2617 3864 L
2618 3979 L
2620 4017 L
2622 4019 L
2624 4068 L
2626 4018 L
2627 3778 L
2629 3841 L
2631 3962 L
2633 3973 L
2634 3896 L
2636 4044 L
2638 3863 L
2640 3905 L
2641 3845 L
2643 3969 L
2645 3807 L
2646 3980 L
2648 3888 L
2650 3536 L
2651 3886 L
2653 3785 L
2654 3903 L
2656 3751 L
2658 3903 L
2659 3748 L
2661 3605 L
2662 3739 L
2664 3957 L
2665 3931 L
2667 3714 L
2668 3815 L
2670 3890 L
2671 3875 L
2673 3687 L
2674 3820 L
2676 3825 L
2677 3703 L
2679 3824 L
2680 3781 L
2682 3755 L
2683 3753 L
2685 3697 L
2686 3680 L
2687 3798 L
2689 3682 L
2690 3722 L
2692 3417 L
2693 3872 L
2694 3776 L
2696 3615 L
2697 3579 L
2698 3794 L
2700 3836 L
2701 3684 L
2702 3825 L
2704 3641 L
2705 3613 L
2706 3648 L
2708 3549 L
2709 3761 L
2710 3632 L
2712 3737 L
2713 3664 L
2714 3703 L
2715 3757 L
2717 3566 L
2718 3576 L
2719 3658 L
2720 3793 L
2722 3631 L
2723 3519 L
2724 3750 L
2725 3679 L
2726 3538 L
2728 3622 L
2729 3493 L
2730 3584 L
2731 3490 L
2732 3690 L
2734 3534 L
2735 3645 L
2736 3426 L
2737 3430 L
2738 3596 L
2739 3499 L
2741 3452 L
2742 3351 L
2743 3688 L
2744 3411 L
2745 3575 L
2746 3463 L
2747 3770 L
2748 3518 L
2749 3534 L
2751 3552 L
2752 3444 L
2753 3742 L
2754 3401 L
2755 3489 L
2756 3523 L
2757 3408 L
2758 3534 L
2759 3435 L
2760 3489 L
2761 3663 L
2762 3547 L
2763 3510 L
2764 3555 L
2765 3328 L
2767 3686 L
2768 3727 L
2769 3546 L
2770 3240 L
2771 3538 L
2772 3429 L
2773 3416 L
2774 3576 L
2775 3286 L
2776 3485 L
2777 3366 L
2778 3581 L
2779 3409 L
2780 3416 L
2781 3497 L
2782 3255 L
2783 3489 L
2783 3511 L
2784 3462 L
2785 3351 L
2786 3452 L
2787 3251 L
2788 3346 L
2789 3284 L
2790 3382 L
2791 3192 L
2792 3534 L
2793 3395 L
2794 3439 L
2795 3374 L
2796 3365 L
2797 3232 L
2798 3548 L
2798 3420 L
2799 3576 L
2800 3403 L
2801 3566 L
2802 3423 L
2803 3347 L
2804 3244 L
2805 3412 L
2806 3253 L
2807 3367 L
2807 3179 L
2808 3415 L
2809 3437 L
2810 3289 L
2811 3278 L
2812 3399 L
2813 3222 L
2813 3189 L
2814 3066 L
2815 3330 L
2816 3503 L
2817 3220 L
2818 3362 L
2819 3403 L
2819 3294 L
2820 3367 L
2821 3060 L
2822 3259 L
2823 3486 L
2824 3212 L
2824 3126 L
2825 3244 L
2826 3259 L
2827 3631 L
2828 3218 L
2828 3014 L
2829 3203 L
2830 3149 L
2831 3228 L
2832 3099 L
2832 3233 L
2833 3123 L
2834 3210 L
2835 3334 L
2836 3139 L
2836 3135 L
2837 3059 L
2838 3245 L
2839 3102 L
2840 3070 L
2840 3120 L
2841 3094 L
2842 3179 L
2843 3342 L
2843 3108 L
2844 3160 L
2845 3128 L
2846 2958 L
2846 3156 L
2847 3002 L
2848 3201 L
2849 3429 L
2849 3008 L
2850 3057 L
2851 3280 L
2852 2972 L
2852 3154 L
2853 3175 L
2854 3206 L
2855 3245 L
2855 3344 L
2856 3102 L
2857 3184 L
2857 3127 L
2858 3068 L
2859 3100 L
2860 3150 L
2860 2984 L
2861 3033 L
2862 2987 L
2862 3053 L
2863 2964 L
2864 3257 L
2865 2973 L
2865 3354 L
2866 3029 L
2867 2900 L
2867 3036 L
2868 3132 L
2869 3231 L
2869 3153 L
2870 3082 L
2871 3265 L
2871 3107 L
2872 3021 L
2873 2892 L
2873 3057 L
2874 3238 L
2875 2963 L
2876 3095 L
2876 3265 L
2877 3019 L
2878 2995 L
2878 2981 L
2879 3163 L
2880 3128 L
2880 2958 L
2881 3083 L
2881 2966 L
2882 3025 L
2883 3203 L
2883 3038 L
2884 3163 L
2885 3222 L
2885 2902 L
2886 2953 L
2887 3227 L
2887 3166 L
2888 2960 L
2889 3052 L
2889 3038 L
2892 3253 L
2894 3118 L
2897 3036 L
2899 3170 L
2902 2931 L
2904 3158 L
2907 3143 L
2909 2774 L
2911 2873 L
2914 2895 L
2916 2949 L
2918 2833 L
2921 3085 L
2923 2812 L
2925 2800 L
2927 2845 L
2929 2832 L
2932 2837 L
2934 2884 L
2936 2733 L
2938 2875 L
2940 2858 L
2942 2828 L
2944 2854 L
2946 2713 L
2948 2879 L
2950 2810 L
2952 2676 L
2954 2714 L
2956 2718 L
2958 2783 L
2960 2516 L
2962 2762 L
2964 2834 L
2966 2837 L
2968 2741 L
2970 2811 L
2971 2740 L
2973 2690 L
2975 2567 L
2977 2535 L
2979 2681 L
2980 2560 L
2982 2766 L
2984 2580 L
2986 2671 L
2987 2648 L
2989 2795 L
2991 2652 L
2993 2766 L
2994 2579 L
2996 2718 L
2998 2663 L
2999 2568 L
3001 2582 L
3003 2377 L
3004 2719 L
3006 2474 L
3007 2555 L
3009 2598 L
3011 2548 L
3012 2492 L
3014 2382 L
3015 2620 L
3017 2530 L
3018 2424 L
3020 2456 L
3021 2369 L
3023 2578 L
3024 2502 L
3026 2503 L
3027 2444 L
3029 2287 L
3030 2529 L
3032 2536 L
3033 2529 L
3035 2429 L
3036 2461 L
3038 2644 L
3039 2230 L
3040 2596 L
3042 2344 L
3043 2487 L
3045 2496 L
3046 2480 L
3047 2333 L
3049 2624 L
3050 2452 L
3051 2552 L
3053 2401 L
3054 2236 L
3055 2357 L
3057 2367 L
3058 2444 L
3059 2346 L
3061 2356 L
3062 2295 L
3063 2153 L
3065 2266 L
3066 2393 L
3067 2347 L
3068 2228 L
3070 2399 L
3071 2369 L
3072 2340 L
3073 2505 L
3075 2182 L
3076 2270 L
3077 2440 L
3078 2116 L
3079 2360 L
3081 2425 L
3082 2381 L
3083 2379 L
3084 2212 L
3085 2379 L
3087 2259 L
3088 2393 L
3089 1949 L
3090 2454 L
3091 2244 L
3092 2171 L
3094 2284 L
3095 2172 L
3096 2185 L
3097 2283 L
3098 2304 L
3099 2304 L
3100 2230 L
3101 2301 L
3103 2249 L
3104 2176 L
3105 2350 L
3106 2153 L
3107 2434 L
3108 2182 L
3109 2099 L
3110 2324 L
3111 2220 L
3112 2203 L
3113 2324 L
3114 2401 L
3115 2204 L
3116 2237 L
3117 2228 L
3119 2157 L
3120 2210 L
3121 2015 L
3122 2206 L
3123 2069 L
3124 1994 L
3125 2093 L
3126 2158 L
3127 2093 L
3128 2011 L
3129 2233 L
3130 2167 L
3131 1962 L
3132 2203 L
3133 2105 L
3134 2424 L
3135 2092 L
3136 2088 L
3136 2014 L
3137 2056 L
3138 2134 L
3139 2310 L
3140 2287 L
3141 2208 L
3142 2095 L
3143 2179 L
3144 2122 L
3145 2225 L
3146 2066 L
3147 2067 L
3148 2330 L
3149 2034 L
3150 2094 L
3151 2110 L
3151 2127 L
3152 2242 L
3153 2158 L
3154 1991 L
3155 2071 L
3156 2068 L
3157 2154 L
3158 2193 L
3159 2052 L
3160 2051 L
3160 2060 L
3161 1979 L
3162 2037 L
3163 2092 L
3164 2140 L
3165 2172 L
3166 1994 L
3166 2090 L
3167 2061 L
3168 1995 L
3169 1966 L
3170 1979 L
3171 2051 L
3172 2136 L
3172 2194 L
3173 2049 L
3174 2235 L
3175 2095 L
3176 2275 L
3177 2009 L
3177 2073 L
3178 2133 L
3179 2300 L
3180 2141 L
3181 1869 L
3181 2049 L
3182 2148 L
3183 1996 L
3184 2106 L
3185 2102 L
3185 1942 L
3186 2082 L
3187 2061 L
3188 2084 L
3189 2199 L
3189 2009 L
3190 2035 L
3191 2214 L
3192 2137 L
3193 2025 L
3193 2208 L
3194 2057 L
3195 2014 L
3196 2053 L
3196 1972 L
3197 2053 L
3198 2025 L
3199 1841 L
3199 2146 L
3200 2062 L
3201 2094 L
3202 2009 L
3202 2214 L
3203 2028 L
3204 1891 L
3205 1940 L
3205 1899 L
3206 1988 L
3207 2226 L
3208 2003 L
3208 2118 L
3209 2161 L
3210 2160 L
3210 1845 L
3211 1953 L
3212 2098 L
3213 2208 L
3213 2075 L
3214 2080 L
3215 2141 L
3215 1980 L
3216 2031 L
3217 2202 L
3218 2129 L
3218 2027 L
3219 1901 L
3220 2208 L
3220 2069 L
3221 2395 L
3222 2125 L
3222 2356 L
3223 2134 L
3224 2310 L
3224 1859 L
3225 2028 L
3226 2095 L
3227 1985 L
3227 2229 L
3228 1913 L
3229 2182 L
3229 1965 L
3230 2120 L
3231 2093 L
3231 1898 L
3232 2169 L
3233 1886 L
3233 2164 L
3234 2000 L
3235 2232 L
3235 2049 L
3236 2081 L
3236 2099 L
3237 2056 L
3238 1954 L
3238 2062 L
3239 2174 L
3240 2082 L
3240 2058 L
3241 2129 L
3242 2008 L
3242 1970 L
3243 1882 L
3244 2116 L
3244 1977 L
3245 2188 L
3245 2020 L
3246 2074 L
3247 2063 L
3247 1833 L
3248 2009 L
3249 2276 L
3249 2116 L
3250 1939 L
3250 2022 L
3251 2124 L
3252 2085 L
3252 2110 L
3253 2008 L
3253 1994 L
3254 2096 L
3255 2123 L
3255 2131 L
3256 1891 L
3257 2246 L
3257 1977 L
3258 2175 L
3258 2049 L
3259 2335 L
3259 1940 L
3260 2162 L
3261 2056 L
3261 2017 L
3262 2040 L
3262 2152 L
3263 2217 L
3264 2195 L
3264 2118 L
3265 2085 L
3265 2225 L
3266 1938 L
3267 1970 L
3267 2126 L
3268 1972 L
3268 2135 L
3269 2217 L
3269 2044 L
3270 2159 L
3271 1999 L
3271 2107 L
3272 1993 L
3272 2193 L
3273 2034 L
3273 2175 L
3274 2123 L
3275 2187 L
3275 2131 L
3276 2058 L
3276 1981 L
3277 2222 L
3277 2209 L
3278 2165 L
3278 2002 L
3279 2070 L
3280 2208 L
3280 2223 L
3281 2041 L
3281 2135 L
3282 2126 L
3282 2126 L
3283 2103 L
3283 2202 L
3284 2041 L
3284 2133 L
3285 2127 L
3285 2063 L
3286 2328 L
3287 2030 L
3287 2169 L
3288 2185 L
3288 2211 L
3289 2082 L
3289 2097 L
3290 2140 L
3290 2300 L
3291 1985 L
3291 2268 L
3292 2040 L
3292 2160 L
3293 2251 L
3293 2002 L
3294 2039 L
3294 2188 L
3295 2129 L
3295 2172 L
3296 2122 L
3297 2080 L
3297 2178 L
3298 2065 L
3298 2239 L
3299 2166 L
3299 2213 L
3300 1989 L
3300 2069 L
3301 2098 L
3301 2116 L
3302 2006 L
3302 2079 L
3303 1916 L
3303 2293 L
3304 2047 L
3304 2253 L
3305 2261 L
3305 2069 L
3306 2007 L
3306 2241 L
3307 2296 L
3307 2158 L
3308 2039 L
3308 2062 L
3309 2110 L
3309 2174 L
3310 2070 L
3310 2311 L
3311 2095 L
3311 2165 L
3312 2179 L
3312 2287 L
3312 1929 L
3313 2350 L
3313 2058 L
3314 2102 L
3314 2259 L
3315 2022 L
3315 2111 L
3316 2145 L
3316 2267 L
3317 2201 L
3317 2391 L
3318 2023 L
3318 2114 L
3319 2198 L
3319 2021 L
3320 2169 L
3320 2141 L
3321 2122 L
3321 1951 L
3321 2127 L
3322 2152 L
3322 2135 L
3323 2140 L
3323 2110 L
3324 2398 L
3324 2147 L
3325 2253 L
3325 2295 L
3326 2327 L
3326 2279 L
3327 2096 L
3327 2240 L
3327 2411 L
3328 2218 L
3328 2088 L
3329 2258 L
3329 2023 L
3330 2242 L
3330 2065 L
3331 2225 L
3331 2224 L
3332 2399 L
3332 2154 L
3332 2074 L
3333 2223 L
3333 2530 L
3334 2056 L
3334 1969 L
3335 2246 L
3335 2158 L
3336 2182 L
3336 2166 L
3336 2092 L
3337 2283 L
3337 1991 L
3338 2339 L
3338 2076 L
3339 2367 L
3339 2041 L
3339 2342 L
3340 2200 L
3340 2079 L
3341 2243 L
3341 2248 L
3342 2307 L
3342 2153 L
3343 2231 L
3343 2210 L
3343 2090 L
3344 2243 L
3344 2101 L
3345 2064 L
3345 2210 L
3346 2173 L
3346 2068 L
3346 2253 L
3347 2318 L
3347 2204 L
3348 2182 L
3348 2282 L
3348 2273 L
3349 2065 L
3349 2261 L
3350 2003 L
3350 2153 L
3351 2120 L
3351 2272 L
3351 2294 L
3352 2369 L
3352 2122 L
3353 2107 L
3353 2198 L
3353 2186 L
3354 2185 L
3354 2118 L
3355 2135 L
3355 2214 L
3355 2317 L
3356 2199 L
3356 2247 L
3357 2174 L
3357 2243 L
3358 2167 L
3358 2502 L
3358 2186 L
3359 2294 L
3359 2336 L
3360 2164 L
3360 2327 L
3360 2178 L
3361 2506 L
3361 2204 L
3362 2251 L
3362 2371 L
3362 2187 L
3363 1968 L
3363 2287 L
3364 2185 L
3364 2376 L
3364 2305 L
3365 1989 L
3365 2312 L
3365 2386 L
3366 2368 L
3366 2349 L
3367 2210 L
3367 2223 L
3367 2229 L
3368 2206 L
3368 2416 L
3369 2156 L
3369 2337 L
3369 2311 L
3370 2242 L
3370 2308 L
3371 2254 L
3371 2332 L
3371 2297 L
3372 2268 L
3372 2193 L
3372 2179 L
3373 1969 L
3373 2195 L
3374 1960 L
3374 2288 L
3374 2015 L
3375 2332 L
3375 2348 L
3375 2161 L
3376 2324 L
3376 2169 L
3377 2273 L
3377 2630 L
3377 2348 L
3378 2229 L
3378 2027 L
3378 2279 L
3379 2180 L
3379 2361 L
3380 2200 L
3380 2206 L
3380 2288 L
3381 2470 L
3381 2163 L
3381 2305 L
3382 2278 L
3382 2132 L
3383 2260 L
3383 2178 L
3383 2405 L
3384 2169 L
3384 2601 L
3384 2212 L
3385 2368 L
3385 2361 L
3385 2311 L
3386 2207 L
3386 2453 L
3387 2261 L
3387 2304 L
3387 2459 L
3388 2120 L
3388 2239 L
3388 2317 L
3389 2232 L
3389 2376 L
3389 2224 L
3390 2202 L
3390 2434 L
3391 2235 L
3391 2337 L
3391 2204 L
3392 2315 L
3392 2231 L
3392 2425 L
3393 2204 L
3393 2443 L
3393 2364 L
3394 2333 L
3394 2116 L
3394 2185 L
3395 2240 L
3395 2157 L
3395 2257 L
3396 2394 L
3396 2214 L
3396 2257 L
3397 2208 L
3397 2300 L
3398 2309 L
3398 2214 L
3398 2286 L
3399 2234 L
3399 2259 L
3399 2216 L
3400 2250 L
3400 2246 L
3400 2219 L
3401 2412 L
3401 2173 L
3401 2340 L
3402 2470 L
3402 2356 L
3402 2457 L
3403 2363 L
3403 2309 L
3403 2437 L
3404 2371 L
3404 2445 L
3404 2498 L
3405 2459 L
3405 2212 L
3405 2326 L
3406 2279 L
3406 2227 L
3406 2298 L
3407 2317 L
3407 2309 L
3407 2341 L
3408 2355 L
3408 2337 L
3408 2408 L
3409 2438 L
3409 2222 L
3409 2398 L
3410 2193 L
3410 2279 L
3410 2453 L
3411 2457 L
3411 2248 L
3411 2351 L
3412 2515 L
3412 2466 L
3412 2255 L
3413 2408 L
3413 2256 L
3413 2260 L
3414 2417 L
3414 2354 L
3414 2338 L
3415 2302 L
3415 2094 L
3415 2395 L
3416 2499 L
3416 2234 L
3416 2427 L
3417 2189 L
3417 2373 L
3417 2358 L
3417 2298 L
3418 2388 L
3418 2442 L
3418 2393 L
3419 2410 L
3419 2300 L
3419 2172 L
3420 2366 L
3420 2677 L
3420 2442 L
3421 2377 L
3421 2299 L
3421 2369 L
3422 2269 L
3422 2338 L
3422 2352 L
3423 2523 L
3423 2271 L
3423 2449 L
3423 2284 L
3424 2474 L
3424 2471 L
3424 2438 L
3425 2501 L
3425 2349 L
3425 2343 L
3426 2311 L
3426 2256 L
3426 2437 L
3427 2508 L
3427 2257 L
3427 2408 L
3428 2306 L
3428 2850 L
3428 2469 L
3428 2281 L
3429 2245 L
3429 2355 L
3429 2612 L
3430 2409 L
3430 2370 L
3430 2330 L
3431 2439 L
3431 2270 L
3431 2512 L
3431 2473 L
3432 2370 L
3432 2351 L
3432 2322 L
3433 2397 L
3433 2470 L
3433 2313 L
3434 2381 L
3434 2513 L
3434 2259 L
3434 2582 L
3435 2483 L
3435 2554 L
3435 2523 L
3436 2403 L
3436 2380 L
3436 2430 L
3437 2369 L
3437 2418 L
3437 2309 L
3437 2354 L
3438 2498 L
3438 2490 L
3438 2502 L
3439 2450 L
3439 2460 L
3439 2587 L
3440 2600 L
3440 2320 L
3440 2380 L
3440 2480 L
3441 2483 L
3441 2301 L
3441 2334 L
3442 2448 L
3442 2607 L
3442 2562 L
3442 2727 L
3443 2552 L
3443 2472 L
3443 2429 L
3444 2433 L
3444 2425 L
3444 2362 L
3444 2556 L
3445 2162 L
3445 2692 L
3445 2371 L
3446 2309 L
3446 2402 L
3446 2594 L
3446 2298 L
3447 2438 L
3447 2347 L
3447 2440 L
3448 2500 L
3448 2534 L
3448 2494 L
3448 2382 L
3449 2520 L
3449 2594 L
3449 2583 L
3450 2228 L
3450 2321 L
3450 2365 L
3450 2477 L
3451 2251 L
3451 2348 L
3451 2388 L
3452 2517 L
3452 2448 L
3452 2405 L
3452 2459 L
3453 2257 L
3453 2438 L
3453 2363 L
3454 2546 L
3454 2476 L
3454 2497 L
3454 2450 L
3455 2584 L
3455 2396 L
3455 2480 L
3455 2424 L
3456 2306 L
3456 2487 L
3456 2561 L
3457 2318 L
3457 2409 L
3457 2233 L
3457 2487 L
3458 2318 L
3458 2489 L
3458 2444 L
3458 2624 L
3459 2431 L
3459 2601 L
3459 2421 L
3460 2577 L
3460 2581 L
3460 2365 L
3460 2376 L
3461 2402 L
3461 2517 L
3461 2556 L
3461 2326 L
3462 2463 L
3462 2492 L
3462 2447 L
3463 2519 L
3463 2337 L
3463 2374 L
3463 2504 L
3464 2459 L
3464 2365 L
3464 2424 L
3464 2505 L
3465 2644 L
3465 2326 L
3465 2594 L
3465 2414 L
3466 2423 L
3466 2558 L
3466 2524 L
3466 2359 L
3467 2458 L
3467 2455 L
3467 2555 L
3468 2569 L
3468 2527 L
3468 2493 L
3468 2583 L
3469 2604 L
3469 2604 L
3469 2566 L
3469 2444 L
3470 2522 L
3470 2410 L
3470 2583 L
3470 2613 L
3471 2540 L
3471 2709 L
3471 2509 L
3471 2662 L
3472 2661 L
3472 2522 L
3472 2436 L
3472 2603 L
3473 2549 L
3473 2547 L
3473 2350 L
3474 2693 L
3474 2473 L
3474 2554 L
3474 2497 L
3475 2328 L
3475 2527 L
3475 2458 L
3475 2515 L
3476 2505 L
3476 2597 L
3476 2404 L
3476 2444 L
3477 2445 L
3477 2403 L
3477 2544 L
3477 2517 L
3478 2490 L
3478 2573 L
3478 2551 L
3478 2434 L
3479 2482 L
3479 2505 L
3479 2556 L
3479 2542 L
3480 2523 L
3480 2581 L
3480 2473 L
3480 2532 L
3481 2606 L
3481 2489 L
3481 2650 L
3481 2673 L
3482 2596 L
3482 2558 L
3482 2496 L
3482 2617 L
3483 2637 L
3483 2628 L
3483 2658 L
3483 2466 L
3484 2572 L
3484 2506 L
3484 2425 L
3484 2396 L
3485 2554 L
3485 2468 L
3485 2513 L
3485 2323 L
3486 2630 L
3486 2397 L
3486 2375 L
3486 2522 L
3487 2577 L
3487 2405 L
3487 2480 L
3487 2474 L
3488 2603 L
3488 2607 L
3488 2669 L
3488 2424 L
3488 2698 L
3489 2519 L
3489 2431 L
3489 2368 L
3489 2691 L
3490 2571 L
3490 2647 L
3490 2410 L
3490 2428 L
3491 2781 L
3491 2701 L
3491 2358 L
3491 2501 L
3492 2363 L
3492 2510 L
3492 2600 L
3492 2465 L
3493 2603 L
3493 2636 L
3493 2567 L
3493 2509 L
3494 2495 L
3494 2512 L
3494 2417 L
3494 2562 L
3494 2366 L
3495 2530 L
3495 2575 L
3495 2609 L
3495 2470 L
3496 2429 L
3496 2455 L
3496 2806 L
3496 2348 L
3497 2623 L
3497 2555 L
3497 2557 L
3497 2616 L
3498 2574 L
3498 2682 L
3498 2541 L
3498 2452 L
3498 2609 L
3499 2693 L
3499 2714 L
3499 2598 L
3499 2758 L
3500 2502 L
3500 2559 L
3506 2702 L
3511 2480 L
3517 2638 L
3522 2690 L
3527 2770 L
3532 2627 L
3537 2694 L
3542 2702 L
3547 2621 L
3552 2770 L
3557 2699 L
3561 2603 L
3566 2684 L
3570 2877 L
3575 2840 L
3579 2760 L
3583 2949 L
3587 2942 L
3591 2990 L
3595 2694 L
3599 2794 L
3603 2766 L
3607 2740 L
3611 2796 L
3614 2664 L
3618 2874 L
3622 2764 L
3625 2652 L
3629 2667 L
3632 2906 L
3636 3007 L
3639 2848 L
3642 2743 L
3646 2788 L
3649 2870 L
3652 2940 L
3655 2875 L
3658 3126 L
3661 2731 L
3664 2551 L
3667 2797 L
3670 2730 L
3673 2851 L
3676 2862 L
3679 2763 L
3682 2821 L
3685 2976 L
3688 2672 L
3690 2902 L
3693 2800 L
3696 2772 L
3698 2947 L
3701 2672 L
3704 2674 L
3706 2770 L
3709 2800 L
3711 2880 L
3714 2888 L
3716 2862 L
3719 2881 L
3721 2685 L
3724 2986 L
3726 2515 L
3728 2929 L
3731 2992 L
3733 2876 L
3735 2778 L
3738 2880 L
3740 2911 L
3742 2854 L
3744 2968 L
3747 2849 L
3749 3122 L
3751 2838 L
3753 2871 L
3755 3048 L
3757 2925 L
3760 2917 L
3762 3171 L
3764 2879 L
3766 2924 L
3768 2721 L
3770 2853 L
3772 2871 L
3774 2908 L
3776 2884 L
3778 2988 L
3780 2846 L
3781 2837 L
3783 2899 L
3785 2754 L
3787 2943 L
3789 2820 L
3791 2898 L
3793 2941 L
3795 2866 L
3796 2780 L
3798 2681 L
3800 3011 L
3802 2883 L
3803 2826 L
3805 2873 L
3807 2984 L
3809 2968 L
3810 2692 L
3812 2751 L
3814 3015 L
3816 2947 L
3817 2682 L
3819 2716 L
3820 2650 L
3822 2921 L
3824 2936 L
3825 2813 L
3827 2754 L
3829 3034 L
3830 2857 L
3832 2965 L
3833 2865 L
3835 2779 L
3836 2891 L
3838 2787 L
3839 2935 L
3841 3109 L
3842 3006 L
3844 2769 L
3845 2927 L
3847 3067 L
3848 2829 L
3850 2830 L
3851 3066 L
3853 2693 L
3854 2914 L
3856 2721 L
3857 2959 L
3859 2910 L
3860 2999 L
3861 2902 L
3863 2866 L
3864 2881 L
3866 2841 L
3867 2819 L
3868 2890 L
3870 2802 L
3871 3037 L
3872 3026 L
3874 2937 L
3875 2718 L
3876 3256 L
3878 2986 L
3879 2805 L
3880 3012 L
3882 2720 L
3883 2795 L
3884 2875 L
3885 3055 L
3887 2901 L
3888 2906 L
3889 2895 L
3890 3024 L
3892 3051 L
3893 3065 L
3894 2852 L
3895 2835 L
3897 2826 L
3898 2942 L
3899 2914 L
3900 2820 L
3901 2993 L
3903 3038 L
3904 2883 L
3905 2899 L
3906 2670 L
3907 2753 L
3908 2822 L
3910 2587 L
3911 2920 L
3912 2799 L
3913 2944 L
3914 3045 L
3915 2642 L
3917 2743 L
3918 2544 L
3919 2938 L
3920 2848 L
3921 2984 L
3922 2818 L
3923 2938 L
3924 3073 L
3925 2975 L
3926 2937 L
3928 2978 L
3929 2903 L
3930 2869 L
3931 2982 L
3932 2866 L
3933 2752 L
3934 2699 L
3935 2996 L
3936 2817 L
3937 2982 L
3938 2860 L
3939 3040 L
3940 2759 L
3941 2846 L
3942 2981 L
3943 2962 L
3944 2878 L
3945 3174 L
3946 2869 L
3947 2666 L
3948 2761 L
3949 2760 L
3950 3091 L
3951 2852 L
3952 2813 L
3953 2822 L
3954 2794 L
3955 2821 L
3956 2945 L
3957 3028 L
3958 2861 L
3959 2905 L
3960 2738 L
3961 2766 L
3962 2775 L
3963 3042 L
3964 2812 L
3965 2916 L
3966 3025 L
3966 2711 L
3967 2805 L
3968 2840 L
3969 2762 L
3970 2809 L
3971 2794 L
3972 2808 L
3973 2850 L
3974 2905 L
3975 2669 L
3976 2764 L
3976 2781 L
3977 2585 L
3978 2866 L
3979 2902 L
3980 2916 L
3981 2953 L
3982 2954 L
3983 2817 L
3983 2591 L
3984 2591 L
3985 2963 L
3986 2717 L
3987 2944 L
3988 2825 L
3989 2790 L
3989 2892 L
3990 2671 L
3991 2747 L
3992 2769 L
3993 2810 L
3994 2826 L
3995 2837 L
3995 2695 L
3996 2816 L
3997 2719 L
3998 2804 L
3999 2926 L
3999 2888 L
4000 2650 L
4001 2642 L
4002 2735 L
4003 2879 L
4003 2866 L
4004 3066 L
4005 2957 L
4006 2756 L
4007 2959 L
4007 2835 L
4008 2602 L
4009 2813 L
4010 2866 L
4011 2892 L
4011 2589 L
4012 2781 L
4013 2675 L
4014 2992 L
4014 2715 L
4015 2861 L
4016 2829 L
4017 2836 L
4017 2923 L
4018 2963 L
4019 3039 L
4020 2902 L
4021 3029 L
4021 2800 L
4022 2932 L
4023 2828 L
4023 2727 L
4024 2879 L
4025 3071 L
4026 2745 L
4026 2850 L
4027 2805 L
4028 2826 L
4029 2958 L
4029 2880 L
4030 2938 L
4031 2858 L
4032 2742 L
4032 2960 L
4033 2884 L
4034 2821 L
4034 2862 L
4035 3059 L
4036 2788 L
4036 2712 L
4037 3024 L
4038 2887 L
4039 2837 L
4039 2936 L
4040 2792 L
4041 2910 L
4041 2866 L
4042 2687 L
4043 2689 L
4043 2762 L
4044 2907 L
4045 2826 L
4045 2697 L
4046 2717 L
4047 2870 L
4047 2829 L
4048 2778 L
4049 2876 L
4050 3055 L
4050 2837 L
4051 3034 L
4052 2575 L
4052 2927 L
4053 2654 L
4053 3017 L
4054 3051 L
4055 2537 L
4055 2825 L
4056 2939 L
4057 2727 L
4057 2962 L
4058 2878 L
4059 2806 L
4059 2602 L
4060 2845 L
4061 2450 L
4061 2858 L
4062 2579 L
L2 C03 COSGR

%
%================
% Legend - Begin
%================
%
GSN 4240 5180 M
4480 5180 L
LWMC SL  C03 COSGR
GSN 4540 5141 M helvM (1.5 uM) show grestore
%
%================
% Legend - End
%================
%

%
% Residuals:
%
GSN 777 915 M
1388 970 L
1552 996 L
1652 1078 L
1723 965 L
1778 890 L
1824 905 L
1863 885 L
1896 877 L
1926 910 L
1952 963 L
1976 1005 L
1998 1119 L
2019 1177 L
2037 1001 L
2055 1190 L
2071 1109 L
2086 1027 L
2101 1017 L
2115 1036 L
2128 1186 L
2140 1066 L
2152 1029 L
2163 1240 L
2174 1205 L
2184 1097 L
2194 1000 L
2204 954 L
2213 1095 L
2222 1118 L
2230 1091 L
2239 1150 L
2247 1064 L
2255 1063 L
2262 1174 L
2270 1050 L
2277 1095 L
2284 1056 L
2290 1183 L
2297 1135 L
2303 1062 L
2310 976 L
2316 1041 L
2322 1011 L
2328 1042 L
2333 1073 L
2339 1112 L
2344 1102 L
2350 1167 L
2355 1032 L
2360 1045 L
2365 1097 L
2370 1135 L
2375 1086 L
2380 994 L
2384 1145 L
2389 1108 L
2393 1242 L
2398 1121 L
2402 1034 L
2407 1035 L
2411 1145 L
2415 1112 L
2419 1093 L
2423 1191 L
2427 1130 L
2431 1271 L
2435 1131 L
2438 1074 L
2442 1167 L
2446 1142 L
2449 1079 L
2453 1101 L
2456 1158 L
2460 1129 L
2463 1085 L
2467 1029 L
2470 1065 L
2473 1136 L
2476 1174 L
2480 1078 L
2483 1104 L
2486 1231 L
2489 1115 L
2492 1192 L
2495 1112 L
2498 1162 L
2501 1076 L
2504 1210 L
2507 1164 L
2510 1074 L
2512 1170 L
2515 1223 L
2518 1158 L
2521 1189 L
2523 1136 L
2526 1162 L
2529 1086 L
2531 987 L
2534 1107 L
2536 1102 L
2539 1142 L
2541 1129 L
2544 1072 L
2546 1015 L
2549 1112 L
2551 1148 L
2554 1132 L
2556 1092 L
2558 1133 L
2561 1164 L
2563 1058 L
2565 1053 L
2568 1263 L
2570 1225 L
2572 1199 L
2574 1137 L
2576 1034 L
2579 1356 L
2581 1118 L
2583 1054 L
2585 1165 L
2587 1227 L
2589 1161 L
2591 1111 L
2593 1148 L
2595 1103 L
2597 1176 L
2599 1128 L
2601 1136 L
2603 1271 L
2605 1039 L
2607 1100 L
2609 1131 L
2611 1177 L
2613 1159 L
2615 1044 L
2617 1086 L
2618 1155 L
2620 1180 L
2622 1185 L
2624 1216 L
2626 1191 L
2627 1058 L
2629 1097 L
2631 1169 L
2633 1179 L
2634 1138 L
2636 1226 L
2638 1126 L
2640 1153 L
2641 1122 L
2643 1196 L
2645 1107 L
2646 1209 L
2648 1159 L
2650 961 L
2651 1165 L
2653 1110 L
2654 1181 L
2656 1097 L
2658 1187 L
2659 1101 L
2661 1023 L
2662 1102 L
2664 1230 L
2665 1218 L
2667 1097 L
2668 1158 L
2670 1204 L
2671 1198 L
2673 1093 L
2674 1172 L
2676 1178 L
2677 1111 L
2679 1183 L
2680 1162 L
2682 1150 L
2683 1152 L
2685 1123 L
2686 1116 L
2687 1186 L
2689 1122 L
2690 1148 L
2692 976 L
2693 1239 L
2694 1187 L
2696 1098 L
2697 1080 L
2698 1205 L
2700 1232 L
2701 1148 L
2702 1231 L
2704 1129 L
2705 1115 L
2706 1138 L
2708 1084 L
2709 1208 L
2710 1137 L
2712 1199 L
2713 1160 L
2714 1185 L
2715 1219 L
2717 1112 L
2718 1120 L
2719 1170 L
2720 1249 L
2722 1159 L
2723 1098 L
2724 1232 L
2725 1194 L
2726 1116 L
2728 1166 L
2729 1095 L
2730 1150 L
2731 1099 L
2732 1215 L
2734 1129 L
2735 1194 L
2736 1072 L
2737 1076 L
2738 1174 L
2739 1120 L
2741 1096 L
2742 1041 L
2743 1235 L
2744 1079 L
2745 1175 L
2746 1114 L
2747 1291 L
2748 1150 L
2749 1161 L
2751 1173 L
2752 1114 L
2753 1286 L
2754 1094 L
2755 1147 L
2756 1168 L
2757 1104 L
2758 1178 L
2759 1124 L
2760 1157 L
2761 1259 L
2762 1195 L
2763 1176 L
2764 1204 L
2765 1076 L
2767 1283 L
2768 1308 L
2769 1207 L
2770 1034 L
2771 1207 L
2772 1146 L
2773 1141 L
2774 1234 L
2775 1071 L
2776 1186 L
2777 1121 L
2778 1245 L
2779 1149 L
2780 1155 L
2781 1203 L
2782 1067 L
2783 1203 L
2783 1217 L
2784 1191 L
2785 1130 L
2786 1189 L
2787 1076 L
2788 1132 L
2789 1099 L
2790 1157 L
2791 1050 L
2792 1247 L
2793 1170 L
2794 1197 L
2795 1162 L
2796 1158 L
2797 1084 L
2798 1267 L
2798 1195 L
2799 1286 L
2800 1189 L
2801 1284 L
2802 1204 L
2803 1162 L
2804 1105 L
2805 1204 L
2806 1114 L
2807 1181 L
2807 1076 L
2808 1212 L
2809 1226 L
2810 1143 L
2811 1139 L
2812 1210 L
2813 1110 L
2813 1093 L
2814 1025 L
2815 1177 L
2816 1278 L
2817 1118 L
2818 1201 L
2819 1226 L
2819 1165 L
2820 1208 L
2821 1034 L
2822 1150 L
2823 1281 L
2824 1126 L
2824 1079 L
2825 1147 L
2826 1158 L
2827 1372 L
2828 1138 L
2828 1023 L
2829 1132 L
2830 1103 L
2831 1150 L
2832 1077 L
2832 1155 L
2833 1094 L
2834 1145 L
2835 1218 L
2836 1108 L
2836 1107 L
2837 1065 L
2838 1173 L
2839 1093 L
2840 1076 L
2840 1106 L
2841 1093 L
2842 1143 L
2843 1237 L
2843 1105 L
2844 1136 L
2845 1119 L
2846 1024 L
2846 1138 L
2847 1052 L
2848 1167 L
2849 1298 L
2849 1059 L
2850 1089 L
2851 1218 L
2852 1043 L
2852 1148 L
2853 1162 L
2854 1181 L
2855 1204 L
2855 1262 L
2856 1126 L
2857 1174 L
2857 1142 L
2858 1110 L
2859 1130 L
2860 1160 L
2860 1066 L
2861 1096 L
2862 1071 L
2862 1109 L
2863 1060 L
2864 1229 L
2865 1068 L
2865 1287 L
2866 1102 L
2867 1030 L
2867 1109 L
2868 1165 L
2869 1223 L
2869 1179 L
2870 1140 L
2871 1246 L
2871 1157 L
2872 1109 L
2873 1036 L
2873 1132 L
2874 1237 L
2875 1081 L
2876 1157 L
2876 1256 L
2877 1117 L
2878 1104 L
2878 1097 L
2879 1202 L
2880 1183 L
2880 1088 L
2881 1160 L
2881 1094 L
2882 1129 L
2883 1232 L
2883 1139 L
2884 1212 L
2885 1247 L
2885 1065 L
2886 1095 L
2887 1253 L
2887 1219 L
2888 1102 L
2889 1156 L
2889 1150 L
2892 1277 L
2894 1204 L
2897 1161 L
2899 1242 L
2902 1110 L
2904 1244 L
2907 1239 L
2909 1032 L
2911 1093 L
2914 1109 L
2916 1143 L
2918 1081 L
2921 1229 L
2923 1076 L
2925 1073 L
2927 1102 L
2929 1098 L
2932 1104 L
2934 1134 L
2936 1051 L
2938 1136 L
2940 1129 L
2942 1115 L
2944 1133 L
2946 1055 L
2948 1153 L
2950 1117 L
2952 1043 L
2954 1068 L
2956 1073 L
2958 1112 L
2960 963 L
2962 1106 L
2964 1149 L
2966 1154 L
2968 1102 L
2970 1144 L
2971 1106 L
2973 1080 L
2975 1012 L
2977 996 L
2979 1082 L
2980 1015 L
2982 1135 L
2984 1031 L
2986 1085 L
2987 1074 L
2989 1160 L
2991 1081 L
2993 1148 L
2994 1043 L
2996 1124 L
2998 1095 L
2999 1043 L
3001 1052 L
3003 937 L
3004 1135 L
3006 996 L
3007 1044 L
3009 1070 L
3011 1044 L
3012 1014 L
3014 953 L
3015 1090 L
3017 1040 L
3018 981 L
3020 1001 L
3021 953 L
3023 1074 L
3024 1032 L
3026 1034 L
3027 1002 L
3029 914 L
3030 1054 L
3032 1059 L
3033 1056 L
3035 1000 L
3036 1020 L
3038 1126 L
3039 891 L
3040 1101 L
3042 959 L
3043 1042 L
3045 1048 L
3046 1040 L
3047 957 L
3049 1124 L
3050 1028 L
3051 1086 L
3053 1001 L
3054 908 L
3055 978 L
3057 985 L
3058 1029 L
3059 975 L
3061 981 L
3062 948 L
3063 868 L
3065 933 L
3066 1007 L
3067 981 L
3068 914 L
3070 1013 L
3071 997 L
3072 981 L
3073 1076 L
3075 893 L
3076 944 L
3077 1042 L
3078 858 L
3079 998 L
3081 1036 L
3082 1011 L
3083 1011 L
3084 916 L
3085 1013 L
3087 945 L
3088 1022 L
3089 769 L
3090 1059 L
3091 939 L
3092 898 L
3094 964 L
3095 901 L
3096 909 L
3097 965 L
3098 977 L
3099 978 L
3100 937 L
3101 978 L
3103 949 L
3104 908 L
3105 1008 L
3106 896 L
3107 1057 L
3108 913 L
3109 867 L
3110 996 L
3111 937 L
3112 928 L
3113 997 L
3114 1042 L
3115 930 L
3116 949 L
3117 945 L
3119 905 L
3120 935 L
3121 824 L
3122 934 L
3123 856 L
3124 814 L
3125 871 L
3126 909 L
3127 872 L
3128 826 L
3129 953 L
3130 916 L
3131 799 L
3132 937 L
3133 881 L
3134 1064 L
3135 875 L
3136 873 L
3136 831 L
3137 856 L
3138 900 L
3139 1001 L
3140 988 L
3141 944 L
3142 880 L
3143 928 L
3144 896 L
3145 955 L
3146 864 L
3147 865 L
3148 1016 L
3149 847 L
3150 882 L
3151 891 L
3151 902 L
3152 967 L
3153 919 L
3154 825 L
3155 870 L
3156 869 L
3157 918 L
3158 941 L
3159 861 L
3160 861 L
3160 866 L
3161 820 L
3162 853 L
3163 885 L
3164 913 L
3165 931 L
3166 830 L
3166 885 L
3167 869 L
3168 831 L
3169 815 L
3170 822 L
3171 864 L
3172 913 L
3172 946 L
3173 863 L
3174 970 L
3175 890 L
3176 993 L
3177 841 L
3177 878 L
3178 912 L
3179 1008 L
3180 918 L
3181 762 L
3181 866 L
3182 922 L
3183 835 L
3184 899 L
3185 896 L
3185 805 L
3186 886 L
3187 874 L
3188 887 L
3189 953 L
3189 845 L
3190 859 L
3191 962 L
3192 918 L
3193 854 L
3193 959 L
3194 873 L
3195 848 L
3196 871 L
3196 824 L
3197 871 L
3198 855 L
3199 750 L
3199 925 L
3200 877 L
3201 895 L
3202 847 L
3202 964 L
3203 858 L
3204 780 L
3205 808 L
3205 785 L
3206 835 L
3207 972 L
3208 844 L
3208 910 L
3209 935 L
3210 934 L
3210 755 L
3211 816 L
3212 899 L
3213 962 L
3213 886 L
3214 889 L
3215 924 L
3215 832 L
3216 862 L
3217 960 L
3218 918 L
3218 860 L
3219 788 L
3220 963 L
3220 884 L
3221 1070 L
3222 916 L
3222 1048 L
3223 921 L
3224 1022 L
3224 764 L
3225 861 L
3226 899 L
3227 837 L
3227 976 L
3228 796 L
3229 949 L
3229 825 L
3230 914 L
3231 899 L
3231 788 L
3232 942 L
3233 781 L
3233 940 L
3234 846 L
3235 979 L
3235 874 L
3236 892 L
3236 903 L
3237 878 L
3238 820 L
3238 882 L
3239 946 L
3240 893 L
3240 880 L
3241 920 L
3242 852 L
3242 830 L
3243 780 L
3244 913 L
3244 834 L
3245 955 L
3245 859 L
3246 890 L
3247 883 L
3247 752 L
3248 853 L
3249 1005 L
3249 914 L
3250 813 L
3250 860 L
3251 919 L
3252 896 L
3252 911 L
3253 853 L
3253 845 L
3254 903 L
3255 919 L
3255 923 L
3256 786 L
3257 989 L
3257 835 L
3258 948 L
3258 876 L
3259 1040 L
3259 814 L
3260 941 L
3261 880 L
3261 858 L
3262 871 L
3262 936 L
3263 972 L
3264 960 L
3264 916 L
3265 897 L
3265 977 L
3266 814 L
3267 832 L
3267 921 L
3268 833 L
3268 926 L
3269 973 L
3269 874 L
3270 940 L
3271 848 L
3271 910 L
3272 845 L
3272 959 L
3273 868 L
3273 949 L
3274 919 L
3275 956 L
3275 924 L
3276 883 L
3276 838 L
3277 976 L
3277 969 L
3278 943 L
3278 851 L
3279 889 L
3280 968 L
3280 977 L
3281 873 L
3281 927 L
3282 922 L
3282 921 L
3283 909 L
3283 965 L
3284 873 L
3284 926 L
3285 922 L
3285 886 L
3286 1037 L
3287 867 L
3287 946 L
3288 955 L
3288 970 L
3289 897 L
3289 905 L
3290 930 L
3290 1021 L
3291 841 L
3291 1003 L
3292 873 L
3292 941 L
3293 993 L
3293 851 L
3294 872 L
3294 957 L
3295 924 L
3295 948 L
3296 920 L
3297 896 L
3297 952 L
3298 887 L
3298 987 L
3299 945 L
3299 972 L
3300 844 L
3300 889 L
3301 906 L
3301 916 L
3302 854 L
3302 895 L
3303 802 L
3303 1018 L
3304 877 L
3304 995 L
3305 999 L
3305 890 L
3306 854 L
3306 988 L
3307 1020 L
3307 941 L
3308 873 L
3308 886 L
3309 913 L
3309 950 L
3310 890 L
3310 1028 L
3311 905 L
3311 944 L
3312 953 L
3312 1014 L
3312 810 L
3313 1050 L
3313 884 L
3314 909 L
3314 998 L
3315 863 L
3315 914 L
3316 933 L
3316 1003 L
3317 965 L
3317 1074 L
3318 863 L
3318 916 L
3319 964 L
3319 862 L
3320 947 L
3320 931 L
3321 920 L
3321 823 L
3321 923 L
3322 938 L
3322 928 L
3323 931 L
3323 914 L
3324 1078 L
3324 935 L
3325 995 L
3325 1019 L
3326 1037 L
3326 1010 L
3327 905 L
3327 988 L
3327 1086 L
3328 975 L
3328 901 L
3329 998 L
3329 864 L
3330 989 L
3330 888 L
3331 979 L
3331 979 L
3332 1079 L
3332 939 L
3332 893 L
3333 978 L
3333 1153 L
3334 883 L
3334 833 L
3335 991 L
3335 941 L
3336 955 L
3336 946 L
3336 904 L
3337 1012 L
3337 846 L
3338 1045 L
3338 894 L
3339 1060 L
3339 875 L
3339 1046 L
3340 965 L
3340 896 L
3341 990 L
3341 993 L
3342 1026 L
3342 938 L
3343 983 L
3343 971 L
3343 902 L
3344 990 L
3344 909 L
3345 887 L
3345 971 L
3346 949 L
3346 890 L
3346 996 L
3347 1032 L
3347 967 L
3348 955 L
3348 1012 L
3348 1007 L
3349 888 L
3349 1000 L
3350 853 L
3350 938 L
3351 920 L
3351 1006 L
3351 1019 L
3352 1062 L
3352 921 L
3353 912 L
3353 964 L
3353 957 L
3354 957 L
3354 919 L
3355 928 L
3355 973 L
3355 1032 L
3356 965 L
3356 992 L
3357 950 L
3357 990 L
3358 946 L
3358 1138 L
3358 957 L
3359 1019 L
3359 1043 L
3360 945 L
3360 1038 L
3360 953 L
3361 1140 L
3361 967 L
3362 995 L
3362 1063 L
3362 958 L
3363 833 L
3363 1015 L
3364 957 L
3364 1066 L
3364 1026 L
3365 845 L
3365 1029 L
3365 1071 L
3366 1061 L
3366 1051 L
3367 971 L
3367 979 L
3367 982 L
3368 969 L
3368 1088 L
3369 940 L
3369 1044 L
3369 1029 L
3370 989 L
3370 1027 L
3371 996 L
3371 1041 L
3371 1021 L
3372 1004 L
3372 961 L
3372 953 L
3373 833 L
3373 962 L
3374 828 L
3374 1016 L
3374 859 L
3375 1040 L
3375 1050 L
3375 943 L
3376 1036 L
3376 948 L
3377 1007 L
3377 1211 L
3377 1050 L
3378 982 L
3378 867 L
3378 1011 L
3379 954 L
3379 1057 L
3380 965 L
3380 969 L
3380 1016 L
3381 1120 L
3381 944 L
3381 1026 L
3382 1010 L
3382 927 L
3383 1000 L
3383 953 L
3383 1082 L
3384 948 L
3384 1194 L
3384 972 L
3385 1061 L
3385 1057 L
3385 1029 L
3386 969 L
3386 1110 L
3387 1000 L
3387 1025 L
3387 1113 L
3388 919 L
3388 988 L
3388 1032 L
3389 984 L
3389 1066 L
3389 979 L
3390 967 L
3390 1099 L
3391 985 L
3391 1044 L
3391 968 L
3392 1031 L
3392 983 L
3392 1094 L
3393 968 L
3393 1104 L
3393 1059 L
3394 1042 L
3394 918 L
3394 957 L
3395 988 L
3395 941 L
3395 998 L
3396 1076 L
3396 973 L
3396 998 L
3397 970 L
3397 1022 L
3398 1028 L
3398 974 L
3398 1014 L
3399 985 L
3399 999 L
3399 975 L
3400 994 L
3400 992 L
3400 976 L
3401 1087 L
3401 950 L
3401 1045 L
3402 1120 L
3402 1055 L
3402 1112 L
3403 1058 L
3403 1028 L
3403 1101 L
3404 1063 L
3404 1105 L
3404 1136 L
3405 1114 L
3405 972 L
3405 1038 L
3406 1011 L
3406 981 L
3406 1021 L
3407 1032 L
3407 1028 L
3407 1046 L
3408 1054 L
3408 1044 L
3408 1084 L
3409 1101 L
3409 978 L
3409 1078 L
3410 962 L
3410 1011 L
3410 1110 L
3411 1112 L
3411 993 L
3411 1052 L
3412 1145 L
3412 1117 L
3412 997 L
3413 1084 L
3413 997 L
3413 1000 L
3414 1089 L
3414 1053 L
3414 1044 L
3415 1024 L
3415 905 L
3415 1077 L
3416 1136 L
3416 985 L
3416 1095 L
3417 959 L
3417 1064 L
3417 1055 L
3417 1022 L
3418 1073 L
3418 1104 L
3418 1076 L
3419 1086 L
3419 1022 L
3419 949 L
3420 1060 L
3420 1238 L
3420 1104 L
3421 1067 L
3421 1022 L
3421 1062 L
3422 1005 L
3422 1044 L
3422 1052 L
3423 1150 L
3423 1006 L
3423 1108 L
3423 1013 L
3424 1122 L
3424 1120 L
3424 1102 L
3425 1137 L
3425 1051 L
3425 1047 L
3426 1029 L
3426 997 L
3426 1101 L
3427 1141 L
3427 998 L
3427 1085 L
3428 1026 L
3428 1337 L
3428 1119 L
3428 1012 L
3429 991 L
3429 1054 L
3429 1201 L
3430 1085 L
3430 1063 L
3430 1040 L
3431 1102 L
3431 1006 L
3431 1143 L
3431 1121 L
3432 1063 L
3432 1052 L
3432 1035 L
3433 1078 L
3433 1119 L
3433 1030 L
3434 1069 L
3434 1144 L
3434 999 L
3434 1184 L
3435 1127 L
3435 1168 L
3435 1150 L
3436 1082 L
3436 1068 L
3436 1097 L
3437 1062 L
3437 1090 L
3437 1028 L
3437 1054 L
3438 1136 L
3438 1131 L
3438 1138 L
3439 1108 L
3439 1114 L
3439 1186 L
3440 1194 L
3440 1034 L
3440 1069 L
3440 1125 L
3441 1127 L
3441 1023 L
3441 1042 L
3442 1107 L
3442 1198 L
3442 1172 L
3442 1267 L
3443 1166 L
3443 1121 L
3443 1096 L
3444 1098 L
3444 1094 L
3444 1058 L
3444 1169 L
3445 944 L
3445 1247 L
3445 1063 L
3446 1028 L
3446 1081 L
3446 1191 L
3446 1022 L
3447 1102 L
3447 1050 L
3447 1102 L
3448 1137 L
3448 1156 L
3448 1133 L
3448 1069 L
3449 1148 L
3449 1190 L
3449 1184 L
3450 981 L
3450 1035 L
3450 1060 L
3450 1124 L
3451 995 L
3451 1050 L
3451 1073 L
3452 1147 L
3452 1107 L
3452 1083 L
3452 1114 L
3453 998 L
3453 1102 L
3453 1059 L
3454 1163 L
3454 1123 L
3454 1135 L
3454 1108 L
3455 1185 L
3455 1077 L
3455 1125 L
3455 1093 L
3456 1026 L
3456 1130 L
3456 1172 L
3457 1033 L
3457 1085 L
3457 984 L
3457 1129 L
3458 1033 L
3458 1131 L
3458 1105 L
3458 1207 L
3459 1097 L
3459 1195 L
3459 1092 L
3460 1181 L
3460 1183 L
3460 1060 L
3460 1066 L
3461 1081 L
3461 1146 L
3461 1169 L
3461 1038 L
3462 1115 L
3462 1132 L
3462 1107 L
3463 1148 L
3463 1044 L
3463 1065 L
3463 1139 L
3464 1113 L
3464 1060 L
3464 1093 L
3464 1140 L
3465 1219 L
3465 1037 L
3465 1190 L
3465 1088 L
3466 1093 L
3466 1170 L
3466 1151 L
3466 1056 L
3467 1113 L
3467 1111 L
3467 1168 L
3468 1176 L
3468 1152 L
3468 1133 L
3468 1184 L
3469 1196 L
3469 1196 L
3469 1175 L
3469 1105 L
3470 1149 L
3470 1085 L
3470 1184 L
3470 1201 L
3471 1159 L
3471 1256 L
3471 1142 L
3471 1229 L
3472 1229 L
3472 1149 L
3472 1101 L
3472 1196 L
3473 1165 L
3473 1163 L
3473 1051 L
3474 1247 L
3474 1121 L
3474 1168 L
3474 1135 L
3475 1038 L
3475 1152 L
3475 1113 L
3475 1146 L
3476 1140 L
3476 1192 L
3476 1082 L
3476 1105 L
3477 1105 L
3477 1081 L
3477 1162 L
3477 1147 L
3478 1131 L
3478 1178 L
3478 1166 L
3478 1099 L
3479 1127 L
3479 1140 L
3479 1169 L
3479 1161 L
3480 1150 L
3480 1183 L
3480 1121 L
3480 1155 L
3481 1197 L
3481 1131 L
3481 1223 L
3481 1236 L
3482 1192 L
3482 1170 L
3482 1134 L
3482 1204 L
3483 1215 L
3483 1210 L
3483 1227 L
3483 1117 L
3484 1178 L
3484 1140 L
3484 1094 L
3484 1077 L
3485 1168 L
3485 1118 L
3485 1144 L
3485 1036 L
3486 1211 L
3486 1078 L
3486 1066 L
3486 1149 L
3487 1181 L
3487 1083 L
3487 1126 L
3487 1122 L
3488 1195 L
3488 1198 L
3488 1234 L
3488 1093 L
3488 1250 L
3489 1147 L
3489 1097 L
3489 1061 L
3489 1246 L
3490 1178 L
3490 1221 L
3490 1086 L
3490 1096 L
3491 1298 L
3491 1251 L
3491 1056 L
3491 1137 L
3492 1059 L
3492 1143 L
3492 1194 L
3492 1117 L
3493 1196 L
3493 1214 L
3493 1175 L
3493 1142 L
3494 1134 L
3494 1144 L
3494 1089 L
3494 1172 L
3494 1060 L
3495 1154 L
3495 1179 L
3495 1199 L
3495 1120 L
3496 1096 L
3496 1111 L
3496 1311 L
3496 1050 L
3497 1207 L
3497 1168 L
3497 1169 L
3497 1203 L
3498 1179 L
3498 1241 L
3498 1160 L
3498 1109 L
3498 1199 L
3499 1247 L
3499 1259 L
3499 1193 L
3499 1284 L
3500 1138 L
3500 1171 L
3506 1252 L
3511 1125 L
3517 1216 L
3522 1245 L
3527 1291 L
3532 1209 L
3537 1247 L
3542 1252 L
3547 1206 L
3552 1291 L
3557 1251 L
3561 1196 L
3566 1242 L
3570 1352 L
3575 1331 L
3579 1285 L
3583 1393 L
3587 1389 L
3591 1417 L
3595 1248 L
3599 1305 L
3603 1289 L
3607 1274 L
3611 1306 L
3614 1231 L
3618 1351 L
3622 1288 L
3625 1224 L
3629 1232 L
3632 1368 L
3636 1426 L
3639 1335 L
3642 1276 L
3646 1301 L
3649 1348 L
3652 1388 L
3655 1351 L
3658 1495 L
3661 1269 L
3664 1166 L
3667 1307 L
3670 1268 L
3673 1337 L
3676 1343 L
3679 1287 L
3682 1320 L
3685 1409 L
3688 1235 L
3690 1367 L
3693 1308 L
3696 1292 L
3698 1392 L
3701 1235 L
3704 1236 L
3706 1291 L
3709 1308 L
3711 1354 L
3714 1358 L
3716 1343 L
3719 1354 L
3721 1243 L
3724 1414 L
3726 1145 L
3728 1382 L
3731 1418 L
3733 1352 L
3735 1296 L
3738 1354 L
3740 1372 L
3742 1339 L
3744 1404 L
3747 1336 L
3749 1492 L
3751 1330 L
3753 1349 L
3755 1450 L
3757 1380 L
3760 1375 L
3762 1520 L
3764 1353 L
3766 1379 L
3768 1263 L
3770 1339 L
3772 1349 L
3774 1370 L
3776 1356 L
3778 1415 L
3780 1334 L
3781 1329 L
3783 1365 L
3785 1282 L
3787 1390 L
3789 1320 L
3791 1364 L
3793 1388 L
3795 1346 L
3796 1297 L
3798 1240 L
3800 1429 L
3802 1356 L
3803 1323 L
3805 1350 L
3807 1413 L
3809 1404 L
3810 1246 L
3812 1280 L
3814 1431 L
3816 1392 L
3817 1241 L
3819 1260 L
3820 1223 L
3822 1377 L
3824 1386 L
3825 1316 L
3827 1282 L
3829 1442 L
3830 1341 L
3832 1402 L
3833 1345 L
3835 1296 L
3836 1360 L
3838 1301 L
3839 1385 L
3841 1485 L
3842 1426 L
3844 1290 L
3845 1381 L
3847 1461 L
3848 1325 L
3850 1325 L
3851 1460 L
3853 1247 L
3854 1373 L
3856 1263 L
3857 1399 L
3859 1371 L
3860 1422 L
3861 1367 L
3863 1346 L
3864 1354 L
3866 1332 L
3867 1319 L
3868 1360 L
3870 1309 L
3871 1443 L
3872 1437 L
3874 1387 L
3875 1261 L
3876 1569 L
3878 1415 L
3879 1311 L
3880 1429 L
3882 1262 L
3883 1305 L
3884 1351 L
3885 1454 L
3887 1366 L
3888 1369 L
3889 1362 L
3890 1436 L
3892 1452 L
3893 1460 L
3894 1338 L
3895 1328 L
3897 1323 L
3898 1389 L
3899 1373 L
3900 1320 L
3901 1419 L
3903 1444 L
3904 1355 L
3905 1365 L
3906 1234 L
3907 1281 L
3908 1321 L
3910 1186 L
3911 1377 L
3912 1307 L
3913 1390 L
3914 1448 L
3915 1218 L
3917 1276 L
3918 1162 L
3919 1387 L
3920 1336 L
3921 1414 L
3922 1319 L
3923 1387 L
3924 1464 L
3925 1408 L
3926 1387 L
3928 1410 L
3929 1367 L
3930 1347 L
3931 1412 L
3932 1346 L
3933 1281 L
3934 1250 L
3935 1420 L
3936 1318 L
3937 1412 L
3938 1342 L
3939 1445 L
3940 1285 L
3941 1334 L
3942 1411 L
3943 1401 L
3944 1353 L
3945 1522 L
3946 1347 L
3947 1232 L
3948 1286 L
3949 1285 L
3950 1475 L
3951 1338 L
3952 1316 L
3953 1321 L
3954 1305 L
3955 1320 L
3956 1391 L
3957 1438 L
3958 1343 L
3959 1368 L
3960 1273 L
3961 1289 L
3962 1294 L
3963 1446 L
3964 1315 L
3965 1375 L
3966 1436 L
3966 1257 L
3967 1311 L
3968 1331 L
3969 1286 L
3970 1313 L
3971 1305 L
3972 1313 L
3973 1337 L
3974 1368 L
3975 1233 L
3976 1288 L
3976 1297 L
3977 1185 L
3978 1346 L
3979 1367 L
3980 1375 L
3981 1395 L
3982 1396 L
3983 1318 L
3983 1189 L
3984 1189 L
3985 1401 L
3986 1261 L
3987 1390 L
3988 1322 L
3989 1302 L
3989 1361 L
3990 1234 L
3991 1278 L
3992 1291 L
3993 1314 L
3994 1323 L
3995 1329 L
3995 1248 L
3996 1317 L
3997 1262 L
3998 1310 L
3999 1380 L
3999 1359 L
4000 1223 L
4001 1218 L
4002 1271 L
4003 1353 L
4003 1346 L
4004 1460 L
4005 1398 L
4006 1283 L
4007 1399 L
4007 1328 L
4008 1195 L
4009 1316 L
4010 1346 L
4011 1361 L
4011 1188 L
4012 1297 L
4013 1237 L
4014 1418 L
4014 1259 L
4015 1343 L
4016 1325 L
4017 1329 L
4017 1378 L
4018 1401 L
4019 1445 L
4020 1367 L
4021 1439 L
4021 1308 L
4022 1383 L
4023 1324 L
4023 1266 L
4024 1354 L
4025 1463 L
4026 1277 L
4026 1337 L
4027 1311 L
4028 1323 L
4029 1398 L
4029 1354 L
4030 1387 L
4031 1341 L
4032 1275 L
4032 1400 L
4033 1356 L
4034 1320 L
4034 1344 L
4035 1456 L
4036 1301 L
4036 1258 L
4037 1436 L
4038 1358 L
4039 1329 L
4039 1386 L
4040 1304 L
4041 1371 L
4041 1346 L
4042 1244 L
4043 1245 L
4043 1287 L
4044 1369 L
4045 1323 L
4045 1249 L
4046 1261 L
4047 1348 L
4047 1325 L
4048 1296 L
4049 1352 L
4050 1454 L
4050 1329 L
4051 1442 L
4052 1180 L
4052 1381 L
4053 1225 L
4053 1432 L
4054 1451 L
4055 1158 L
4055 1322 L
4056 1387 L
4057 1267 L
4057 1400 L
4058 1353 L
4059 1312 L
4059 1195 L
4060 1334 L
4061 1108 L
4061 1341 L
4062 1182 L
L2 C03 COSGR

%
% Main frame
%
L10
GSN 
620 1700 M
4220 1700 L
4220 5300 L
620 5300 L
closepath SGR

%
% X axis: large tics
%
L10
GSN 1130 1700 M 0  54 rL SGR
GSN 1130 5300 M 0 -54 rL SGR
helvS (0.0001) 1130 470 xlabel
GSN 1716 1700 M 0  54 rL SGR
GSN 1716 5300 M 0 -54 rL SGR
helvS (0.001) 1716 470 xlabel
GSN 2303 1700 M 0  54 rL SGR
GSN 2303 5300 M 0 -54 rL SGR
helvS (0.01) 2303 470 xlabel
GSN 2889 1700 M 0  54 rL SGR
GSN 2889 5300 M 0 -54 rL SGR
helvS (0.1) 2889 470 xlabel
GSN 3476 1700 M 0  54 rL SGR
GSN 3476 5300 M 0 -54 rL SGR
helvS (1) 3476 470 xlabel
GSN 4062 1700 M 0  54 rL SGR
GSN 4062 5300 M 0 -54 rL SGR
helvS (10) 4062 470 xlabel
%
% X axis: small tics
%
L5
GSN 720 1700 M 0  36 rL SGR
GSN 720 5300 M 0 -36 rL SGR
GSN 824 1700 M 0  36 rL SGR
GSN 824 5300 M 0 -36 rL SGR
GSN 897 1700 M 0  36 rL SGR
GSN 897 5300 M 0 -36 rL SGR
GSN 954 1700 M 0  36 rL SGR
GSN 954 5300 M 0 -36 rL SGR
GSN 1000 1700 M 0  36 rL SGR
GSN 1000 5300 M 0 -36 rL SGR
GSN 1039 1700 M 0  36 rL SGR
GSN 1039 5300 M 0 -36 rL SGR
GSN 1073 1700 M 0  36 rL SGR
GSN 1073 5300 M 0 -36 rL SGR
GSN 1103 1700 M 0  36 rL SGR
GSN 1103 5300 M 0 -36 rL SGR
GSN 1307 1700 M 0  36 rL SGR
GSN 1307 5300 M 0 -36 rL SGR
GSN 1410 1700 M 0  36 rL SGR
GSN 1410 5300 M 0 -36 rL SGR
GSN 1483 1700 M 0  36 rL SGR
GSN 1483 5300 M 0 -36 rL SGR
GSN 1540 1700 M 0  36 rL SGR
GSN 1540 5300 M 0 -36 rL SGR
GSN 1586 1700 M 0  36 rL SGR
GSN 1586 5300 M 0 -36 rL SGR
GSN 1626 1700 M 0  36 rL SGR
GSN 1626 5300 M 0 -36 rL SGR
GSN 1660 1700 M 0  36 rL SGR
GSN 1660 5300 M 0 -36 rL SGR
GSN 1690 1700 M 0  36 rL SGR
GSN 1690 5300 M 0 -36 rL SGR
GSN 1893 1700 M 0  36 rL SGR
GSN 1893 5300 M 0 -36 rL SGR
GSN 1996 1700 M 0  36 rL SGR
GSN 1996 5300 M 0 -36 rL SGR
GSN 2069 1700 M 0  36 rL SGR
GSN 2069 5300 M 0 -36 rL SGR
GSN 2126 1700 M 0  36 rL SGR
GSN 2126 5300 M 0 -36 rL SGR
GSN 2173 1700 M 0  36 rL SGR
GSN 2173 5300 M 0 -36 rL SGR
GSN 2212 1700 M 0  36 rL SGR
GSN 2212 5300 M 0 -36 rL SGR
GSN 2246 1700 M 0  36 rL SGR
GSN 2246 5300 M 0 -36 rL SGR
GSN 2276 1700 M 0  36 rL SGR
GSN 2276 5300 M 0 -36 rL SGR
GSN 2479 1700 M 0  36 rL SGR
GSN 2479 5300 M 0 -36 rL SGR
GSN 2583 1700 M 0  36 rL SGR
GSN 2583 5300 M 0 -36 rL SGR
GSN 2656 1700 M 0  36 rL SGR
GSN 2656 5300 M 0 -36 rL SGR
GSN 2713 1700 M 0  36 rL SGR
GSN 2713 5300 M 0 -36 rL SGR
GSN 2759 1700 M 0  36 rL SGR
GSN 2759 5300 M 0 -36 rL SGR
GSN 2798 1700 M 0  36 rL SGR
GSN 2798 5300 M 0 -36 rL SGR
GSN 2832 1700 M 0  36 rL SGR
GSN 2832 5300 M 0 -36 rL SGR
GSN 2862 1700 M 0  36 rL SGR
GSN 2862 5300 M 0 -36 rL SGR
GSN 3066 1700 M 0  36 rL SGR
GSN 3066 5300 M 0 -36 rL SGR
GSN 3169 1700 M 0  36 rL SGR
GSN 3169 5300 M 0 -36 rL SGR
GSN 3242 1700 M 0  36 rL SGR
GSN 3242 5300 M 0 -36 rL SGR
GSN 3299 1700 M 0  36 rL SGR
GSN 3299 5300 M 0 -36 rL SGR
GSN 3345 1700 M 0  36 rL SGR
GSN 3345 5300 M 0 -36 rL SGR
GSN 3385 1700 M 0  36 rL SGR
GSN 3385 5300 M 0 -36 rL SGR
GSN 3419 1700 M 0  36 rL SGR
GSN 3419 5300 M 0 -36 rL SGR
GSN 3449 1700 M 0  36 rL SGR
GSN 3449 5300 M 0 -36 rL SGR
GSN 3652 1700 M 0  36 rL SGR
GSN 3652 5300 M 0 -36 rL SGR
GSN 3755 1700 M 0  36 rL SGR
GSN 3755 5300 M 0 -36 rL SGR
GSN 3829 1700 M 0  36 rL SGR
GSN 3829 5300 M 0 -36 rL SGR
GSN 3885 1700 M 0  36 rL SGR
GSN 3885 5300 M 0 -36 rL SGR
GSN 3932 1700 M 0  36 rL SGR
GSN 3932 5300 M 0 -36 rL SGR
GSN 3971 1700 M 0  36 rL SGR
GSN 3971 5300 M 0 -36 rL SGR
GSN 4005 1700 M 0  36 rL SGR
GSN 4005 5300 M 0 -36 rL SGR
GSN 4035 1700 M 0  36 rL SGR
GSN 4035 5300 M 0 -36 rL SGR
%
% Y axis: large tics
%
L10
GSN 620 2111 M 54 0 rL SGR
GSN 4220 2111 M -54 0 rL SGR
helvS (1.04) 560 2111 ylabel
GSN 620 2965 M 54 0 rL SGR
GSN 4220 2965 M -54 0 rL SGR
helvS (1.06) 560 2965 ylabel
GSN 620 3820 M 54 0 rL SGR
GSN 4220 3820 M -54 0 rL SGR
helvS (1.08) 560 3820 ylabel
GSN 620 4674 M 54 0 rL SGR
GSN 4220 4674 M -54 0 rL SGR
helvS (1.1) 560 4674 ylabel
%
% Y axis: small tics
%
L5
GSN 620 1897 M 36 0 rL SGR
GSN 4220 1897 M -36 0 rL SGR
GSN 620 2111 M 36 0 rL SGR
GSN 4220 2111 M -36 0 rL SGR
GSN 620 2324 M 36 0 rL SGR
GSN 4220 2324 M -36 0 rL SGR
GSN 620 2538 M 36 0 rL SGR
GSN 4220 2538 M -36 0 rL SGR
GSN 620 2751 M 36 0 rL SGR
GSN 4220 2751 M -36 0 rL SGR
GSN 620 2965 M 36 0 rL SGR
GSN 4220 2965 M -36 0 rL SGR
GSN 620 3179 M 36 0 rL SGR
GSN 4220 3179 M -36 0 rL SGR
GSN 620 3392 M 36 0 rL SGR
GSN 4220 3392 M -36 0 rL SGR
GSN 620 3606 M 36 0 rL SGR
GSN 4220 3606 M -36 0 rL SGR
GSN 620 3820 M 36 0 rL SGR
GSN 4220 3820 M -36 0 rL SGR
GSN 620 4033 M 36 0 rL SGR
GSN 4220 4033 M -36 0 rL SGR
GSN 620 4247 M 36 0 rL SGR
GSN 4220 4247 M -36 0 rL SGR
GSN 620 4460 M 36 0 rL SGR
GSN 4220 4460 M -36 0 rL SGR
GSN 620 4674 M 36 0 rL SGR
GSN 4220 4674 M -36 0 rL SGR
GSN 620 4888 M 36 0 rL SGR
GSN 4220 4888 M -36 0 rL SGR
GSN 620 5101 M 36 0 rL SGR
GSN 4220 5101 M -36 0 rL SGR

%
% X-Axis label:
%
gsave 2420 290 M 
[
[(Helvetica) 180 0 true true 0 (t)]
[(Helvetica) 180 0 true true 0 (i)]
[(Helvetica) 180 0 true true 0 (m)]
[(Helvetica) 180 0 true true 0 (e)]
] 0 MCshow grestore

%
% Y-Axis label:
%
gsave 234 3500 M 
currentpoint gsave translate 90 rotate 0 0 moveto
[
[(Helvetica) 180 0 true true 0 (s)]
[(Helvetica) 180 0 true true 0 (i)]
[(Helvetica) 180 0 true true 0 (g)]
[(Helvetica) 180 0 true true 0 (n)]
[(Helvetica) 180 0 true true 0 (a)]
[(Helvetica) 180 0 true true 0 (l)]
] 0 MCshow grestore

%
% Residuals:
%
gsave 129 1160 M 
currentpoint gsave translate 90 rotate 0 0 moveto
[
[(Helvetica) 150 0 true true 0 (r)]
[(Helvetica) 150 0 true true 0 (e)]
[(Helvetica) 150 0 true true 0 (s)]
[(Helvetica) 150 0 true true 0 (i)]
[(Helvetica) 150 0 true true 0 (d)]
[(Helvetica) 150 0 true true 0 (u)]
[(Helvetica) 150 0 true true 0 (a)]
[(Helvetica) 150 0 true true 0 (l)]
[(Helvetica) 150 0 true true 0 (s)]
] 0 MCshow grestore

%
% Residual frame
%
L10
GSN 
620 620 M
4220 620 L
4220 1700 L
620 1700 L
closepath SGR
%
% X axis: large tics - residual frame
%
L10
GSN 1130 620 M 0  54 rL SGR
GSN 1130 1700 M 0 -54 rL SGR
GSN 1716 620 M 0  54 rL SGR
GSN 1716 1700 M 0 -54 rL SGR
GSN 2303 620 M 0  54 rL SGR
GSN 2303 1700 M 0 -54 rL SGR
GSN 2889 620 M 0  54 rL SGR
GSN 2889 1700 M 0 -54 rL SGR
GSN 3476 620 M 0  54 rL SGR
GSN 3476 1700 M 0 -54 rL SGR
GSN 4062 620 M 0  54 rL SGR
GSN 4062 1700 M 0 -54 rL SGR
%
% X axis: small tics - residual frame
%
L5
GSN 720 620 M 0  36 rL SGR
GSN 720 1700 M 0 -36 rL SGR
GSN 824 620 M 0  36 rL SGR
GSN 824 1700 M 0 -36 rL SGR
GSN 897 620 M 0  36 rL SGR
GSN 897 1700 M 0 -36 rL SGR
GSN 954 620 M 0  36 rL SGR
GSN 954 1700 M 0 -36 rL SGR
GSN 1000 620 M 0  36 rL SGR
GSN 1000 1700 M 0 -36 rL SGR
GSN 1039 620 M 0  36 rL SGR
GSN 1039 1700 M 0 -36 rL SGR
GSN 1073 620 M 0  36 rL SGR
GSN 1073 1700 M 0 -36 rL SGR
GSN 1103 620 M 0  36 rL SGR
GSN 1103 1700 M 0 -36 rL SGR
GSN 1307 620 M 0  36 rL SGR
GSN 1307 1700 M 0 -36 rL SGR
GSN 1410 620 M 0  36 rL SGR
GSN 1410 1700 M 0 -36 rL SGR
GSN 1483 620 M 0  36 rL SGR
GSN 1483 1700 M 0 -36 rL SGR
GSN 1540 620 M 0  36 rL SGR
GSN 1540 1700 M 0 -36 rL SGR
GSN 1586 620 M 0  36 rL SGR
GSN 1586 1700 M 0 -36 rL SGR
GSN 1626 620 M 0  36 rL SGR
GSN 1626 1700 M 0 -36 rL SGR
GSN 1660 620 M 0  36 rL SGR
GSN 1660 1700 M 0 -36 rL SGR
GSN 1690 620 M 0  36 rL SGR
GSN 1690 1700 M 0 -36 rL SGR
GSN 1893 620 M 0  36 rL SGR
GSN 1893 1700 M 0 -36 rL SGR
GSN 1996 620 M 0  36 rL SGR
GSN 1996 1700 M 0 -36 rL SGR
GSN 2069 620 M 0  36 rL SGR
GSN 2069 1700 M 0 -36 rL SGR
GSN 2126 620 M 0  36 rL SGR
GSN 2126 1700 M 0 -36 rL SGR
GSN 2173 620 M 0  36 rL SGR
GSN 2173 1700 M 0 -36 rL SGR
GSN 2212 620 M 0  36 rL SGR
GSN 2212 1700 M 0 -36 rL SGR
GSN 2246 620 M 0  36 rL SGR
GSN 2246 1700 M 0 -36 rL SGR
GSN 2276 620 M 0  36 rL SGR
GSN 2276 1700 M 0 -36 rL SGR
GSN 2479 620 M 0  36 rL SGR
GSN 2479 1700 M 0 -36 rL SGR
GSN 2583 620 M 0  36 rL SGR
GSN 2583 1700 M 0 -36 rL SGR
GSN 2656 620 M 0  36 rL SGR
GSN 2656 1700 M 0 -36 rL SGR
GSN 2713 620 M 0  36 rL SGR
GSN 2713 1700 M 0 -36 rL SGR
GSN 2759 620 M 0  36 rL SGR
GSN 2759 1700 M 0 -36 rL SGR
GSN 2798 620 M 0  36 rL SGR
GSN 2798 1700 M 0 -36 rL SGR
GSN 2832 620 M 0  36 rL SGR
GSN 2832 1700 M 0 -36 rL SGR
GSN 2862 620 M 0  36 rL SGR
GSN 2862 1700 M 0 -36 rL SGR
GSN 3066 620 M 0  36 rL SGR
GSN 3066 1700 M 0 -36 rL SGR
GSN 3169 620 M 0  36 rL SGR
GSN 3169 1700 M 0 -36 rL SGR
GSN 3242 620 M 0  36 rL SGR
GSN 3242 1700 M 0 -36 rL SGR
GSN 3299 620 M 0  36 rL SGR
GSN 3299 1700 M 0 -36 rL SGR
GSN 3345 620 M 0  36 rL SGR
GSN 3345 1700 M 0 -36 rL SGR
GSN 3385 620 M 0  36 rL SGR
GSN 3385 1700 M 0 -36 rL SGR
GSN 3419 620 M 0  36 rL SGR
GSN 3419 1700 M 0 -36 rL SGR
GSN 3449 620 M 0  36 rL SGR
GSN 3449 1700 M 0 -36 rL SGR
GSN 3652 620 M 0  36 rL SGR
GSN 3652 1700 M 0 -36 rL SGR
GSN 3755 620 M 0  36 rL SGR
GSN 3755 1700 M 0 -36 rL SGR
GSN 3829 620 M 0  36 rL SGR
GSN 3829 1700 M 0 -36 rL SGR
GSN 3885 620 M 0  36 rL SGR
GSN 3885 1700 M 0 -36 rL SGR
GSN 3932 620 M 0  36 rL SGR
GSN 3932 1700 M 0 -36 rL SGR
GSN 3971 620 M 0  36 rL SGR
GSN 3971 1700 M 0 -36 rL SGR
GSN 4005 620 M 0  36 rL SGR
GSN 4005 1700 M 0 -36 rL SGR
GSN 4035 620 M 0  36 rL SGR
GSN 4035 1700 M 0 -36 rL SGR
%
% Y axis: large tics - residual frame
%
L10
GSN 620 862 M 54 0 rL SGR
GSN 4220 862 M -54 0 rL SGR
helvS (-0.01) 560 862 ylabelresid
GSN 620 1106 M 54 0 rL SGR
GSN 4220 1106 M -54 0 rL SGR
helvS (0) 560 1106 ylabelresid
GSN 620 1350 M 54 0 rL SGR
GSN 4220 1350 M -54 0 rL SGR
helvS (0.01) 560 1350 ylabelresid
GSN 620 1594 M 54 0 rL SGR
GSN 4220 1594 M -54 0 rL SGR
helvS (0.02) 560 1594 ylabelresid

%
% X axis - residual panel
%
GSN L5 620 1106 M 4220 1106 L SDA G50 SGR

end
showpage
%%Trailer
%%EOF
