%!PS-Adobe-3.0 EPSF-3.0
%%BoundingBox: 0 0 514 550
%%Creator: BioKin Ltd.
%%DocumentFonts: Symbol Helvetica
%%EndComments
%
/bkdict 256 dict def
bkdict begin
/M {moveto} def 
/R {rmoveto} def
/L {lineto} def
/rL {rlineto} def
/GSN {gsave newpath} def
/SGR {stroke grestore} def
/COSGR {gsave setrgbcolor stroke grestore grestore} def
/SL {setlinewidth} def
/LWMB {12} def             % line width - model curves, black & white
/LWMC {10} def             % line width - model curves, color
/L2 {2.5 setlinewidth} def
/L5 {5 setlinewidth} def
/L10 {10 setlinewidth} def
/G50 {0.5 setgray} def
/SDA {[10  20] 0 setdash} def % axes
/helvT {/Helvetica findfont 100 scalefont setfont} def % tiny
/helvS {/Helvetica findfont 125 scalefont setfont} def % small
/helvM {/Helvetica findfont 150 scalefont setfont} def % medium
/helvL {/Helvetica findfont 175 scalefont setfont} def % large
/xlabel {gsave M dup
   stringwidth exch -0.5 mul exch rmoveto show grestore} def 
/ylabel {gsave M 90 rotate dup
   stringwidth exch -0.5 mul exch rmoveto show grestore} def
/ylabelresid {gsave M dup
   stringwidth exch -1 mul exch rmoveto show grestore} def
% ======
% Shapes
% ======
% Circle:
/Circ {0 360 arc closepath} def
%
% Square:
/Squa {dup dup -0.5 mul dup dup R -2 mul 0 exch rL 1 mul 0 rL dup 0 exch -1 mul rL closepath} def
%
% Triangle Up:
/TriU {dup dup dup -0.4 mul exch -0.5 mul exch R dup 0.5 mul exch rL dup -1 mul exch 0.5 mul exch rL closepath} def 
%
% Triangle Down:
/TriD {dup dup dup 0.4 mul exch -0.5 mul exch R dup 0.5 mul exch -1 mul rL dup 0.5 mul exch rL closepath} def 
%
% Diamond:
/Diam {45 rotate Squa} def
% ======
% Fills
% ======
/GRF {gsave setgray fill grestore} def                    % gray-level Fill
/COF {gsave setrgbcolor fill grestore} def                % color fill
% ======
% Colors
% ======
/C01 {1.00	0.00	0.00} def      % Red
/C02 {0.00	0.00	1.00} def      % Blue
/C03 {0.00	0.39	0.00} def      % Dark Green
/C04 {0.78	0.08	0.52} def      % Medium Violet Red
/C05 {0.55	0.27	0.07} def      % Saddle Brown
/C06 {0.10	0.70	0.70} def      % (cyan)
/C07 {1.00	0.55	0.00} def      % Dark Orange
/C08 {0.63	0.13	0.94} def      % Purple
/C09 {0.00	0.75	1.00} def      % Deep Sky Blue
/C10 {0.20	0.80	0.20} def      % Lime Green
/C11 {0.47	0.53	0.60} def      % Light Slate Gray
/C12 {0.00	0.00	0.00} def      % Black            % or: {0.19	0.31	0.31} def      % Dark Slate Gray
%
/LGR {0.75} def % light gray
/DGR {0.33} def % dark gray
%
% =============
% Dash patterns
% =============
/dash01 { [80  20] 0 setdash } def
/dash02 { [40  20] 0 setdash } def
/dash03 { [80  20  10  20] 0 setdash } def
/dash04 { [40  20  10  20] 0 setdash } def
/dash05 { [80  20  10  10  10  20] 0 setdash } def
/dash06 { [40  20  10  10  10  20] 0 setdash } def
/dash07 { [10  10] 0 setdash } def
%
/MFshow {
   { dup 5 get 3 ge
     { 5 get 3 eq {gsave} {grestore} ifelse }
     {dup dup 0 get findfont exch 1 get scalefont setfont
     [ currentpoint ] exch dup 2 get 0 exch R dup 5 get 2 ne {dup dup 6
     get exch 4 get {show} {stringwidth pop 0 R} ifelse }if dup 5 get 0 eq
     {dup 3 get {2 get neg 0 exch R pop} {pop aload pop M} ifelse} {dup 5
     get 1 eq {dup 2 get exch dup 3 get exch 6 get stringwidth pop -2 div
     dup 0 R} {dup 6 get stringwidth pop -2 div 0 R 6 get
     show 2 index {aload pop M neg 3 -1 roll neg R pop pop} {pop pop pop
     pop aload pop M} ifelse }ifelse }ifelse }
     ifelse }
   forall} bind def
/MFwidth {0 exch {dup 3 get{dup dup 0 get findfont exch 1 get scalefont
     setfont 6 get stringwidth pop add} {pop} ifelse} forall} bind def
/MCshow { currentpoint stroke M
  exch dup MFwidth -2 div 3 -1 roll R MFshow } def
%
end
%%EndProlog
bkdict begin
0.1 0.1 scale
%
% Model curves:
%

GSN 753 3334 M
753 3334 L
786 3334 L
820 3333 L
853 3333 L
886 3332 L
903 3332 L
919 3331 L
953 3330 L
986 3329 L
1020 3328 L
1053 3327 L
1053 3327 L
1086 3325 L
1120 3323 L
1153 3321 L
1186 3319 L
1203 3317 L
1220 3316 L
1253 3312 L
1286 3308 L
1320 3304 L
1353 3298 L
1353 3298 L
1386 3292 L
1420 3285 L
1453 3277 L
1486 3268 L
1503 3262 L
1520 3257 L
1553 3245 L
1586 3231 L
1620 3215 L
1653 3197 L
1653 3197 L
1686 3177 L
1720 3155 L
1753 3130 L
1786 3103 L
1804 3087 L
1820 3073 L
1853 3041 L
1886 3008 L
1920 2973 L
1953 2937 L
1954 2936 L
1986 2901 L
2020 2866 L
2053 2833 L
2086 2802 L
2104 2788 L
2120 2776 L
2153 2753 L
2186 2735 L
2220 2722 L
2253 2713 L
2254 2713 L
2286 2707 L
2320 2703 L
2353 2702 L
2386 2701 L
2404 2701 L
2420 2701 L
2453 2701 L
2486 2701 L
2520 2700 L
2553 2700 L
2554 2700 L
2586 2700 L
2620 2700 L
2653 2700 L
2686 2700 L
2704 2700 L
2720 2700 L
2753 2700 L
2786 2700 L
2820 2700 L
2853 2700 L
2854 2700 L
2886 2700 L
2920 2700 L
2953 2700 L
2986 2700 L
3004 2700 L
3020 2700 L
3053 2699 L
3068 2699 L
3086 2699 L
3120 2699 L
3153 2699 L
3155 2699 L
3186 2698 L
3220 2698 L
3253 2697 L
3286 2697 L
3305 2697 L
3320 2696 L
3353 2695 L
3386 2695 L
3420 2694 L
3453 2692 L
3455 2692 L
3486 2691 L
3520 2690 L
3553 2688 L
3586 2686 L
3605 2684 L
3620 2683 L
3653 2680 L
3686 2677 L
3720 2673 L
3753 2668 L
3755 2668 L
3786 2663 L
3820 2657 L
3853 2650 L
3886 2641 L
3905 2636 L
3920 2632 L
3953 2620 L
3986 2607 L
4020 2592 L
4053 2575 L
4086 2555 L
LWMC SL  C03 COSGR

%
% Experimental data:
%
GSN 773 4936 M
1625 4728 L
1773 4804 L
1860 5166 L
1922 5101 L
1970 4881 L
2009 4816 L
2043 4688 L
2072 4661 L
2097 4630 L
2120 4530 L
2140 4668 L
2159 4418 L
2176 4548 L
2192 4526 L
2207 4377 L
2221 4322 L
2234 4344 L
2247 4234 L
2259 4309 L
2270 4209 L
2280 4188 L
2290 4249 L
2300 4278 L
2309 3975 L
2318 4115 L
2326 4309 L
2335 4068 L
2342 4086 L
2350 4026 L
2357 3965 L
2364 3947 L
2371 3803 L
2378 4020 L
2384 3933 L
2391 3880 L
2397 3728 L
2403 3931 L
2409 3892 L
2414 3694 L
2420 3710 L
2425 3705 L
2430 3727 L
2435 3527 L
2440 3464 L
2445 3736 L
2450 3557 L
2455 3433 L
2459 3469 L
2464 3596 L
2468 3263 L
2472 3311 L
2476 3449 L
2481 3497 L
2485 3309 L
2489 3473 L
2492 3453 L
2496 3376 L
2500 3199 L
2504 3431 L
2507 3541 L
2511 3397 L
2514 3142 L
2518 3024 L
2521 3255 L
2525 3152 L
2528 3137 L
2531 3178 L
2534 3222 L
2538 2979 L
2541 3373 L
2544 3115 L
2547 3065 L
2550 3040 L
2553 3171 L
2556 2895 L
2559 3289 L
2561 3144 L
2564 3224 L
2567 2960 L
2570 3050 L
2580 2937 L
2590 2899 L
2600 2798 L
2609 2727 L
2618 2706 L
2627 2712 L
2635 2837 L
2643 2552 L
2650 2566 L
2658 2762 L
2665 2568 L
2672 2584 L
2678 2512 L
2685 2484 L
2691 2519 L
2697 2196 L
2703 2460 L
2709 2376 L
2714 2318 L
2720 2369 L
2725 2312 L
2730 2076 L
2735 2176 L
2740 2433 L
2745 2149 L
2750 2271 L
2755 2411 L
2759 2167 L
2764 2194 L
2768 2026 L
2772 1964 L
2777 2063 L
2781 2013 L
2785 2053 L
2789 2024 L
2793 2088 L
2796 2025 L
2800 2017 L
2804 2135 L
2808 1918 L
2811 2004 L
2815 2030 L
2818 2005 L
2822 1891 L
2825 1963 L
2828 2173 L
2831 2009 L
2835 2052 L
2838 1890 L
2841 2078 L
2844 2057 L
2847 1932 L
2850 1848 L
2853 2329 L
2856 2053 L
2859 1915 L
2862 1833 L
2864 2038 L
2867 2137 L
2870 1922 L
2873 1974 L
2875 2245 L
2878 2043 L
2880 2083 L
2883 2138 L
2886 2012 L
2888 2159 L
2891 1922 L
2893 1999 L
2895 2156 L
2898 2091 L
2900 2127 L
2902 1996 L
2905 2166 L
2907 2299 L
2909 2040 L
2912 2236 L
2914 1995 L
2916 2037 L
2918 2178 L
2920 1960 L
2922 2220 L
2925 2266 L
2927 2137 L
2929 2142 L
2931 2061 L
2933 2235 L
2935 2162 L
2937 1902 L
2939 2070 L
2941 2298 L
2943 2183 L
2945 2021 L
2947 2031 L
2948 2213 L
2950 2252 L
2952 1997 L
2954 2215 L
2956 2048 L
2958 2135 L
2959 2145 L
2961 1956 L
2963 2343 L
2965 2148 L
2966 2163 L
2968 2483 L
2970 2298 L
2972 2345 L
2973 2351 L
2975 2342 L
2977 2171 L
2978 2208 L
2980 2236 L
2982 1911 L
2983 2123 L
2985 2320 L
2986 2334 L
2988 2126 L
2989 2141 L
2991 2342 L
2993 2229 L
2994 2287 L
2996 2411 L
2997 2197 L
2999 2305 L
3000 2224 L
3002 2269 L
3003 2226 L
3005 2389 L
3006 2435 L
3007 2423 L
3009 2248 L
3010 2313 L
3012 2187 L
3013 2435 L
3014 2222 L
3016 2327 L
3017 2480 L
3019 2331 L
3020 2387 L
3021 2420 L
3023 2310 L
3024 2253 L
3025 2322 L
3027 2489 L
3028 2449 L
3029 2385 L
3031 2493 L
3032 2372 L
3033 2226 L
3034 2379 L
3036 2279 L
3037 2428 L
3038 2355 L
3039 2427 L
3041 2452 L
3042 2540 L
3043 2377 L
3044 2417 L
3045 2502 L
3047 2339 L
3048 2499 L
3049 2416 L
3050 2429 L
3051 2276 L
3053 2199 L
3054 2612 L
3055 2566 L
3056 2540 L
3057 2502 L
3058 2338 L
3059 2580 L
3061 2332 L
3062 2510 L
3063 2551 L
3064 2600 L
3065 2652 L
3066 2530 L
3067 2478 L
3068 2486 L
3069 2378 L
3070 2535 L
3071 2526 L
3073 2593 L
3074 2543 L
3075 2648 L
3076 2371 L
3077 2618 L
3078 2381 L
3079 2660 L
3080 2342 L
3081 2405 L
3082 2337 L
3083 2625 L
3084 2393 L
3085 2596 L
3086 2320 L
3087 2559 L
3088 2685 L
3089 2544 L
3112 2767 L
3133 2767 L
3152 2840 L
3170 2687 L
3186 2655 L
3201 2910 L
3216 2872 L
3229 2535 L
3241 2759 L
3253 2799 L
3264 2767 L
3275 2884 L
3285 3001 L
3295 2855 L
3304 2873 L
3313 2881 L
3322 2912 L
3330 2903 L
3338 2947 L
3346 2886 L
3353 2684 L
3360 2709 L
3367 2749 L
3374 2776 L
3380 3016 L
3387 2829 L
3393 2966 L
3399 2884 L
3405 3048 L
3410 2995 L
3416 2877 L
3421 3034 L
3426 2825 L
3431 3050 L
3436 2822 L
3441 3057 L
3446 2849 L
3451 2983 L
3455 2990 L
3460 2816 L
3464 2847 L
3469 2871 L
3473 2853 L
3477 2951 L
3481 2762 L
3485 3035 L
3489 2807 L
3493 2660 L
3496 2906 L
3500 2577 L
3504 2824 L
3507 2766 L
3511 2815 L
3514 2640 L
3518 3079 L
3521 2588 L
3525 2778 L
3528 2829 L
3531 2906 L
3534 2721 L
3537 2804 L
3540 2860 L
3543 2864 L
3546 2890 L
3549 2867 L
3552 2825 L
3555 2775 L
3558 2561 L
3561 2520 L
3564 2880 L
3566 2860 L
3575 2759 L
3586 2638 L
3595 2727 L
3605 2836 L
3613 2808 L
3622 2810 L
3630 2773 L
3638 2830 L
3646 2756 L
3653 2840 L
3660 2675 L
3667 2499 L
3674 2674 L
3681 2704 L
3687 2825 L
3693 2699 L
3699 2668 L
3705 2827 L
3710 3014 L
3716 2627 L
3721 2717 L
3727 2755 L
3732 2785 L
3737 2662 L
3742 2578 L
3746 2532 L
3751 2624 L
3756 2908 L
3760 2836 L
3764 2578 L
3769 2658 L
3773 2619 L
3777 2588 L
3781 2483 L
3785 2760 L
3789 2516 L
3793 2584 L
3797 2740 L
3800 2827 L
3804 2459 L
3808 2652 L
3811 2696 L
3815 2550 L
3818 2491 L
3821 2654 L
3825 2613 L
3828 2411 L
3831 2596 L
3834 2494 L
3838 2706 L
3841 2758 L
3844 2515 L
3847 2415 L
3850 2766 L
3853 2400 L
3855 2530 L
3858 2706 L
3861 2626 L
3864 2547 L
3867 2567 L
3869 2548 L
3872 2574 L
3875 2698 L
3877 2498 L
3880 2448 L
3882 2509 L
3885 2578 L
3887 2660 L
3890 2396 L
3892 2575 L
3895 2474 L
3897 2549 L
3899 2520 L
3902 2554 L
3904 2556 L
3906 2361 L
3908 2774 L
3911 2532 L
3913 2563 L
3915 2563 L
3917 2242 L
3919 2580 L
3921 2439 L
3923 2662 L
3926 2486 L
3928 2593 L
3930 2569 L
3932 2620 L
3934 2573 L
3936 2576 L
3938 2593 L
3940 2430 L
3942 2582 L
3943 2386 L
3945 2453 L
3947 2668 L
3949 2463 L
3951 2586 L
3953 2612 L
3955 2624 L
3956 2439 L
3958 2331 L
3960 2433 L
3962 2324 L
3963 2550 L
3965 2554 L
3967 2461 L
3969 2429 L
3970 2412 L
3972 2396 L
3974 2449 L
3975 2537 L
3977 2489 L
3978 2281 L
3980 2476 L
3982 2523 L
3983 2442 L
3985 2238 L
3986 2358 L
3988 2646 L
3990 2533 L
3991 2490 L
3993 2309 L
3994 2293 L
3996 2382 L
3997 2338 L
3999 2520 L
4000 2325 L
4001 2283 L
4003 2485 L
4004 2453 L
4006 2458 L
4007 2662 L
4009 2324 L
4010 2536 L
4011 2449 L
4013 2246 L
4014 2296 L
4016 2438 L
4017 2492 L
4018 2390 L
4020 2394 L
4021 2479 L
4022 2493 L
4024 2673 L
4025 2575 L
4026 2641 L
4028 2353 L
4029 2393 L
4030 2503 L
4031 2522 L
4033 2392 L
4034 2442 L
4035 2351 L
4036 2557 L
4038 2387 L
4039 2427 L
4040 2587 L
4041 2625 L
4042 2441 L
4044 2501 L
4045 2531 L
4046 2499 L
4047 2306 L
4048 2483 L
4050 2570 L
4051 2364 L
4052 2458 L
4053 2439 L
4054 2482 L
4055 2298 L
4056 2478 L
4058 2506 L
4059 2614 L
4060 2382 L
4061 2504 L
4062 2336 L
4063 2516 L
4064 2426 L
4065 2489 L
4066 2471 L
L2 C03 COSGR

%
%================
% Legend - Begin
%================
%
GSN 4240 5180 M
4480 5180 L
LWMC SL  C03 COSGR
GSN 4540 5141 M helvM (1.5 uM) show grestore
%
%================
% Legend - End
%================
%

%
% Residuals:
%
GSN 773 1424 M
1625 1401 L
1773 1448 L
1860 1569 L
1922 1568 L
1970 1522 L
2009 1516 L
2043 1490 L
2072 1490 L
2097 1488 L
2120 1466 L
2140 1507 L
2159 1442 L
2176 1480 L
2192 1476 L
2207 1437 L
2221 1424 L
2234 1431 L
2247 1402 L
2259 1423 L
2270 1396 L
2280 1391 L
2290 1408 L
2300 1416 L
2309 1334 L
2318 1372 L
2326 1425 L
2335 1360 L
2342 1365 L
2350 1348 L
2357 1332 L
2364 1327 L
2371 1287 L
2378 1347 L
2384 1323 L
2391 1309 L
2397 1267 L
2403 1323 L
2409 1312 L
2414 1258 L
2420 1262 L
2425 1261 L
2430 1267 L
2435 1212 L
2440 1195 L
2445 1269 L
2450 1221 L
2455 1187 L
2459 1197 L
2464 1231 L
2468 1140 L
2472 1154 L
2476 1191 L
2481 1204 L
2485 1153 L
2489 1198 L
2492 1192 L
2496 1171 L
2500 1123 L
2504 1186 L
2507 1216 L
2511 1177 L
2514 1107 L
2518 1075 L
2521 1138 L
2525 1110 L
2528 1106 L
2531 1117 L
2534 1129 L
2538 1063 L
2541 1170 L
2544 1100 L
2547 1086 L
2550 1080 L
2553 1115 L
2556 1040 L
2559 1148 L
2561 1108 L
2564 1130 L
2567 1058 L
2570 1082 L
2580 1051 L
2590 1041 L
2600 1014 L
2609 994 L
2618 989 L
2627 990 L
2635 1024 L
2643 946 L
2650 950 L
2658 1004 L
2665 951 L
2672 955 L
2678 936 L
2685 928 L
2691 938 L
2697 849 L
2703 921 L
2709 899 L
2714 883 L
2720 896 L
2725 881 L
2730 817 L
2735 844 L
2740 914 L
2745 837 L
2750 870 L
2755 908 L
2759 842 L
2764 849 L
2768 803 L
2772 786 L
2777 813 L
2781 799 L
2785 810 L
2789 802 L
2793 820 L
2796 803 L
2800 801 L
2804 833 L
2808 773 L
2811 797 L
2815 804 L
2818 797 L
2822 766 L
2825 786 L
2828 843 L
2831 798 L
2835 810 L
2838 766 L
2841 817 L
2844 811 L
2847 777 L
2850 754 L
2853 886 L
2856 811 L
2859 773 L
2862 750 L
2864 806 L
2867 833 L
2870 775 L
2873 789 L
2875 863 L
2878 808 L
2880 819 L
2883 834 L
2886 799 L
2888 839 L
2891 775 L
2893 796 L
2895 839 L
2898 821 L
2900 831 L
2902 795 L
2905 841 L
2907 878 L
2909 807 L
2912 860 L
2914 795 L
2916 806 L
2918 845 L
2920 785 L
2922 856 L
2925 869 L
2927 833 L
2929 835 L
2931 813 L
2933 860 L
2935 840 L
2937 769 L
2939 815 L
2941 877 L
2943 846 L
2945 802 L
2947 805 L
2948 854 L
2950 865 L
2952 795 L
2954 855 L
2956 809 L
2958 833 L
2959 836 L
2961 784 L
2963 890 L
2965 837 L
2966 841 L
2968 928 L
2970 877 L
2972 890 L
2973 892 L
2975 889 L
2977 843 L
2978 853 L
2980 860 L
2982 772 L
2983 830 L
2985 884 L
2986 887 L
2988 830 L
2989 835 L
2991 889 L
2993 859 L
2994 875 L
2996 908 L
2997 850 L
2999 879 L
3000 857 L
3002 870 L
3003 858 L
3005 902 L
3006 915 L
3007 912 L
3009 864 L
3010 882 L
3012 847 L
3013 915 L
3014 857 L
3016 885 L
3017 927 L
3019 886 L
3020 902 L
3021 911 L
3023 881 L
3024 865 L
3025 884 L
3027 930 L
3028 919 L
3029 901 L
3031 931 L
3032 898 L
3033 858 L
3034 900 L
3036 872 L
3037 913 L
3038 893 L
3039 913 L
3041 919 L
3042 944 L
3043 899 L
3044 910 L
3045 933 L
3047 889 L
3048 932 L
3049 910 L
3050 913 L
3051 871 L
3053 851 L
3054 963 L
3055 951 L
3056 944 L
3057 933 L
3058 889 L
3059 954 L
3061 887 L
3062 935 L
3063 947 L
3064 960 L
3065 974 L
3066 941 L
3067 927 L
3068 929 L
3069 899 L
3070 942 L
3071 940 L
3073 958 L
3074 944 L
3075 973 L
3076 898 L
3077 965 L
3078 900 L
3079 976 L
3080 889 L
3081 907 L
3082 888 L
3083 967 L
3084 904 L
3085 959 L
3086 884 L
3087 949 L
3088 983 L
3089 945 L
3112 1005 L
3133 1006 L
3152 1026 L
3170 984 L
3186 975 L
3201 1045 L
3216 1034 L
3229 943 L
3241 1004 L
3253 1015 L
3264 1006 L
3275 1038 L
3285 1070 L
3295 1030 L
3304 1035 L
3313 1037 L
3322 1046 L
3330 1043 L
3338 1055 L
3346 1039 L
3353 984 L
3360 991 L
3367 1002 L
3374 1009 L
3380 1074 L
3387 1024 L
3393 1061 L
3399 1039 L
3405 1084 L
3410 1069 L
3416 1037 L
3421 1080 L
3426 1023 L
3431 1084 L
3436 1022 L
3441 1086 L
3446 1030 L
3451 1066 L
3455 1068 L
3460 1021 L
3464 1029 L
3469 1036 L
3473 1031 L
3477 1058 L
3481 1006 L
3485 1081 L
3489 1019 L
3493 979 L
3496 1046 L
3500 956 L
3504 1024 L
3507 1008 L
3511 1021 L
3514 973 L
3518 1093 L
3521 959 L
3525 1011 L
3528 1025 L
3531 1046 L
3534 996 L
3537 1018 L
3540 1034 L
3543 1035 L
3546 1042 L
3549 1036 L
3552 1024 L
3555 1011 L
3558 952 L
3561 941 L
3564 1040 L
3566 1034 L
3575 1007 L
3586 974 L
3595 998 L
3605 1028 L
3613 1021 L
3622 1022 L
3630 1012 L
3638 1028 L
3646 1008 L
3653 1031 L
3660 986 L
3667 938 L
3674 986 L
3681 994 L
3687 1027 L
3693 993 L
3699 985 L
3705 1029 L
3710 1080 L
3716 974 L
3721 999 L
3727 1009 L
3732 1018 L
3737 984 L
3742 962 L
3746 950 L
3751 975 L
3756 1052 L
3760 1033 L
3764 963 L
3769 985 L
3773 974 L
3777 966 L
3781 938 L
3785 1014 L
3789 947 L
3793 966 L
3797 1008 L
3800 1032 L
3804 932 L
3808 985 L
3811 997 L
3815 957 L
3818 942 L
3821 986 L
3825 975 L
3828 920 L
3831 971 L
3834 943 L
3838 1002 L
3841 1016 L
3844 950 L
3847 923 L
3850 1018 L
3853 919 L
3855 954 L
3858 1003 L
3861 981 L
3864 960 L
3867 965 L
3869 960 L
3872 968 L
3875 1002 L
3877 947 L
3880 934 L
3882 951 L
3885 970 L
3887 992 L
3890 920 L
3892 969 L
3895 942 L
3897 963 L
3899 955 L
3902 964 L
3904 965 L
3906 912 L
3908 1025 L
3911 959 L
3913 968 L
3915 968 L
3917 881 L
3919 973 L
3921 935 L
3923 995 L
3926 948 L
3928 977 L
3930 971 L
3932 985 L
3934 972 L
3936 973 L
3938 978 L
3940 934 L
3942 975 L
3943 922 L
3945 941 L
3947 999 L
3949 944 L
3951 977 L
3953 985 L
3955 988 L
3956 938 L
3958 909 L
3960 937 L
3962 907 L
3963 969 L
3965 970 L
3967 945 L
3969 936 L
3970 932 L
3972 928 L
3974 942 L
3975 966 L
3977 954 L
3978 897 L
3980 951 L
3982 963 L
3983 942 L
3985 886 L
3986 919 L
3988 998 L
3990 967 L
3991 956 L
3993 906 L
3994 902 L
3996 927 L
3997 915 L
3999 965 L
4000 912 L
4001 900 L
4003 956 L
4004 947 L
4006 949 L
4007 1004 L
4009 912 L
4010 970 L
4011 947 L
4013 892 L
4014 905 L
4016 944 L
4017 959 L
4018 932 L
4020 933 L
4021 956 L
4022 960 L
4024 1009 L
4025 983 L
4026 1001 L
4028 923 L
4029 934 L
4030 964 L
4031 969 L
4033 934 L
4034 948 L
4035 923 L
4036 980 L
4038 933 L
4039 944 L
4040 988 L
4041 999 L
4042 949 L
4044 965 L
4045 974 L
4046 965 L
4047 913 L
4048 961 L
4050 985 L
4051 929 L
4052 955 L
4053 950 L
4054 962 L
4055 912 L
4056 961 L
4058 969 L
4059 999 L
4060 935 L
4061 969 L
4062 923 L
4063 973 L
4064 948 L
4065 966 L
4066 961 L
L2 C03 COSGR

%
% Main frame
%
L10
GSN 
620 1700 M
4220 1700 L
4220 5300 L
620 5300 L
closepath SGR

%
% X axis: large tics
%
L10
GSN 1074 1700 M 0  54 rL SGR
GSN 1074 5300 M 0 -54 rL SGR
helvS (0.0001) 1074 470 xlabel
GSN 1572 1700 M 0  54 rL SGR
GSN 1572 5300 M 0 -54 rL SGR
helvS (0.001) 1572 470 xlabel
GSN 2071 1700 M 0  54 rL SGR
GSN 2071 5300 M 0 -54 rL SGR
helvS (0.01) 2071 470 xlabel
GSN 2570 1700 M 0  54 rL SGR
GSN 2570 5300 M 0 -54 rL SGR
helvS (0.1) 2570 470 xlabel
GSN 3068 1700 M 0  54 rL SGR
GSN 3068 5300 M 0 -54 rL SGR
helvS (1) 3068 470 xlabel
GSN 3567 1700 M 0  54 rL SGR
GSN 3567 5300 M 0 -54 rL SGR
helvS (10) 3567 470 xlabel
GSN 4066 1700 M 0  54 rL SGR
GSN 4066 5300 M 0 -54 rL SGR
helvS (100) 4066 470 xlabel
%
% X axis: small tics
%
L5
GSN 725 1700 M 0  36 rL SGR
GSN 725 5300 M 0 -36 rL SGR
GSN 813 1700 M 0  36 rL SGR
GSN 813 5300 M 0 -36 rL SGR
GSN 875 1700 M 0  36 rL SGR
GSN 875 5300 M 0 -36 rL SGR
GSN 924 1700 M 0  36 rL SGR
GSN 924 5300 M 0 -36 rL SGR
GSN 963 1700 M 0  36 rL SGR
GSN 963 5300 M 0 -36 rL SGR
GSN 996 1700 M 0  36 rL SGR
GSN 996 5300 M 0 -36 rL SGR
GSN 1025 1700 M 0  36 rL SGR
GSN 1025 5300 M 0 -36 rL SGR
GSN 1051 1700 M 0  36 rL SGR
GSN 1051 5300 M 0 -36 rL SGR
GSN 1224 1700 M 0  36 rL SGR
GSN 1224 5300 M 0 -36 rL SGR
GSN 1312 1700 M 0  36 rL SGR
GSN 1312 5300 M 0 -36 rL SGR
GSN 1374 1700 M 0  36 rL SGR
GSN 1374 5300 M 0 -36 rL SGR
GSN 1422 1700 M 0  36 rL SGR
GSN 1422 5300 M 0 -36 rL SGR
GSN 1462 1700 M 0  36 rL SGR
GSN 1462 5300 M 0 -36 rL SGR
GSN 1495 1700 M 0  36 rL SGR
GSN 1495 5300 M 0 -36 rL SGR
GSN 1524 1700 M 0  36 rL SGR
GSN 1524 5300 M 0 -36 rL SGR
GSN 1550 1700 M 0  36 rL SGR
GSN 1550 5300 M 0 -36 rL SGR
GSN 1722 1700 M 0  36 rL SGR
GSN 1722 5300 M 0 -36 rL SGR
GSN 1810 1700 M 0  36 rL SGR
GSN 1810 5300 M 0 -36 rL SGR
GSN 1873 1700 M 0  36 rL SGR
GSN 1873 5300 M 0 -36 rL SGR
GSN 1921 1700 M 0  36 rL SGR
GSN 1921 5300 M 0 -36 rL SGR
GSN 1960 1700 M 0  36 rL SGR
GSN 1960 5300 M 0 -36 rL SGR
GSN 1994 1700 M 0  36 rL SGR
GSN 1994 5300 M 0 -36 rL SGR
GSN 2023 1700 M 0  36 rL SGR
GSN 2023 5300 M 0 -36 rL SGR
GSN 2048 1700 M 0  36 rL SGR
GSN 2048 5300 M 0 -36 rL SGR
GSN 2221 1700 M 0  36 rL SGR
GSN 2221 5300 M 0 -36 rL SGR
GSN 2309 1700 M 0  36 rL SGR
GSN 2309 5300 M 0 -36 rL SGR
GSN 2371 1700 M 0  36 rL SGR
GSN 2371 5300 M 0 -36 rL SGR
GSN 2420 1700 M 0  36 rL SGR
GSN 2420 5300 M 0 -36 rL SGR
GSN 2459 1700 M 0  36 rL SGR
GSN 2459 5300 M 0 -36 rL SGR
GSN 2492 1700 M 0  36 rL SGR
GSN 2492 5300 M 0 -36 rL SGR
GSN 2521 1700 M 0  36 rL SGR
GSN 2521 5300 M 0 -36 rL SGR
GSN 2547 1700 M 0  36 rL SGR
GSN 2547 5300 M 0 -36 rL SGR
GSN 2720 1700 M 0  36 rL SGR
GSN 2720 5300 M 0 -36 rL SGR
GSN 2808 1700 M 0  36 rL SGR
GSN 2808 5300 M 0 -36 rL SGR
GSN 2870 1700 M 0  36 rL SGR
GSN 2870 5300 M 0 -36 rL SGR
GSN 2918 1700 M 0  36 rL SGR
GSN 2918 5300 M 0 -36 rL SGR
GSN 2958 1700 M 0  36 rL SGR
GSN 2958 5300 M 0 -36 rL SGR
GSN 2991 1700 M 0  36 rL SGR
GSN 2991 5300 M 0 -36 rL SGR
GSN 3020 1700 M 0  36 rL SGR
GSN 3020 5300 M 0 -36 rL SGR
GSN 3045 1700 M 0  36 rL SGR
GSN 3045 5300 M 0 -36 rL SGR
GSN 3218 1700 M 0  36 rL SGR
GSN 3218 5300 M 0 -36 rL SGR
GSN 3306 1700 M 0  36 rL SGR
GSN 3306 5300 M 0 -36 rL SGR
GSN 3368 1700 M 0  36 rL SGR
GSN 3368 5300 M 0 -36 rL SGR
GSN 3417 1700 M 0  36 rL SGR
GSN 3417 5300 M 0 -36 rL SGR
GSN 3456 1700 M 0  36 rL SGR
GSN 3456 5300 M 0 -36 rL SGR
GSN 3490 1700 M 0  36 rL SGR
GSN 3490 5300 M 0 -36 rL SGR
GSN 3519 1700 M 0  36 rL SGR
GSN 3519 5300 M 0 -36 rL SGR
GSN 3544 1700 M 0  36 rL SGR
GSN 3544 5300 M 0 -36 rL SGR
GSN 3717 1700 M 0  36 rL SGR
GSN 3717 5300 M 0 -36 rL SGR
GSN 3805 1700 M 0  36 rL SGR
GSN 3805 5300 M 0 -36 rL SGR
GSN 3867 1700 M 0  36 rL SGR
GSN 3867 5300 M 0 -36 rL SGR
GSN 3915 1700 M 0  36 rL SGR
GSN 3915 5300 M 0 -36 rL SGR
GSN 3955 1700 M 0  36 rL SGR
GSN 3955 5300 M 0 -36 rL SGR
GSN 3988 1700 M 0  36 rL SGR
GSN 3988 5300 M 0 -36 rL SGR
GSN 4017 1700 M 0  36 rL SGR
GSN 4017 5300 M 0 -36 rL SGR
GSN 4043 1700 M 0  36 rL SGR
GSN 4043 5300 M 0 -36 rL SGR
GSN 4216 1700 M 0  36 rL SGR
GSN 4216 5300 M 0 -36 rL SGR
%
% Y axis: large tics
%
L10
GSN 620 2070 M 54 0 rL SGR
GSN 4220 2070 M -54 0 rL SGR
helvS (1.04) 560 2070 ylabel
GSN 620 2972 M 54 0 rL SGR
GSN 4220 2972 M -54 0 rL SGR
helvS (1.06) 560 2972 ylabel
GSN 620 3875 M 54 0 rL SGR
GSN 4220 3875 M -54 0 rL SGR
helvS (1.08) 560 3875 ylabel
GSN 620 4778 M 54 0 rL SGR
GSN 4220 4778 M -54 0 rL SGR
helvS (1.1) 560 4778 ylabel
%
% Y axis: small tics
%
L5
GSN 620 1844 M 36 0 rL SGR
GSN 4220 1844 M -36 0 rL SGR
GSN 620 2070 M 36 0 rL SGR
GSN 4220 2070 M -36 0 rL SGR
GSN 620 2295 M 36 0 rL SGR
GSN 4220 2295 M -36 0 rL SGR
GSN 620 2521 M 36 0 rL SGR
GSN 4220 2521 M -36 0 rL SGR
GSN 620 2747 M 36 0 rL SGR
GSN 4220 2747 M -36 0 rL SGR
GSN 620 2972 M 36 0 rL SGR
GSN 4220 2972 M -36 0 rL SGR
GSN 620 3198 M 36 0 rL SGR
GSN 4220 3198 M -36 0 rL SGR
GSN 620 3424 M 36 0 rL SGR
GSN 4220 3424 M -36 0 rL SGR
GSN 620 3649 M 36 0 rL SGR
GSN 4220 3649 M -36 0 rL SGR
GSN 620 3875 M 36 0 rL SGR
GSN 4220 3875 M -36 0 rL SGR
GSN 620 4101 M 36 0 rL SGR
GSN 4220 4101 M -36 0 rL SGR
GSN 620 4326 M 36 0 rL SGR
GSN 4220 4326 M -36 0 rL SGR
GSN 620 4552 M 36 0 rL SGR
GSN 4220 4552 M -36 0 rL SGR
GSN 620 4778 M 36 0 rL SGR
GSN 4220 4778 M -36 0 rL SGR
GSN 620 5003 M 36 0 rL SGR
GSN 4220 5003 M -36 0 rL SGR
GSN 620 5229 M 36 0 rL SGR
GSN 4220 5229 M -36 0 rL SGR

%
% X-Axis label:
%
gsave 2420 290 M 
[
[(Helvetica) 180 0 true true 0 (t)]
[(Helvetica) 180 0 true true 0 (i)]
[(Helvetica) 180 0 true true 0 (m)]
[(Helvetica) 180 0 true true 0 (e)]
] 0 MCshow grestore

%
% Y-Axis label:
%
gsave 234 3500 M 
currentpoint gsave translate 90 rotate 0 0 moveto
[
[(Helvetica) 180 0 true true 0 (s)]
[(Helvetica) 180 0 true true 0 (i)]
[(Helvetica) 180 0 true true 0 (g)]
[(Helvetica) 180 0 true true 0 (n)]
[(Helvetica) 180 0 true true 0 (a)]
[(Helvetica) 180 0 true true 0 (l)]
] 0 MCshow grestore

%
% Residuals:
%
gsave 129 1160 M 
currentpoint gsave translate 90 rotate 0 0 moveto
[
[(Helvetica) 150 0 true true 0 (r)]
[(Helvetica) 150 0 true true 0 (e)]
[(Helvetica) 150 0 true true 0 (s)]
[(Helvetica) 150 0 true true 0 (i)]
[(Helvetica) 150 0 true true 0 (d)]
[(Helvetica) 150 0 true true 0 (u)]
[(Helvetica) 150 0 true true 0 (a)]
[(Helvetica) 150 0 true true 0 (l)]
[(Helvetica) 150 0 true true 0 (s)]
] 0 MCshow grestore

%
% Residual frame
%
L10
GSN 
620 620 M
4220 620 L
4220 1700 L
620 1700 L
closepath SGR
%
% X axis: large tics - residual frame
%
L10
GSN 1074 620 M 0  54 rL SGR
GSN 1074 1700 M 0 -54 rL SGR
GSN 1572 620 M 0  54 rL SGR
GSN 1572 1700 M 0 -54 rL SGR
GSN 2071 620 M 0  54 rL SGR
GSN 2071 1700 M 0 -54 rL SGR
GSN 2570 620 M 0  54 rL SGR
GSN 2570 1700 M 0 -54 rL SGR
GSN 3068 620 M 0  54 rL SGR
GSN 3068 1700 M 0 -54 rL SGR
GSN 3567 620 M 0  54 rL SGR
GSN 3567 1700 M 0 -54 rL SGR
GSN 4066 620 M 0  54 rL SGR
GSN 4066 1700 M 0 -54 rL SGR
%
% X axis: small tics - residual frame
%
L5
GSN 725 620 M 0  36 rL SGR
GSN 725 1700 M 0 -36 rL SGR
GSN 813 620 M 0  36 rL SGR
GSN 813 1700 M 0 -36 rL SGR
GSN 875 620 M 0  36 rL SGR
GSN 875 1700 M 0 -36 rL SGR
GSN 924 620 M 0  36 rL SGR
GSN 924 1700 M 0 -36 rL SGR
GSN 963 620 M 0  36 rL SGR
GSN 963 1700 M 0 -36 rL SGR
GSN 996 620 M 0  36 rL SGR
GSN 996 1700 M 0 -36 rL SGR
GSN 1025 620 M 0  36 rL SGR
GSN 1025 1700 M 0 -36 rL SGR
GSN 1051 620 M 0  36 rL SGR
GSN 1051 1700 M 0 -36 rL SGR
GSN 1224 620 M 0  36 rL SGR
GSN 1224 1700 M 0 -36 rL SGR
GSN 1312 620 M 0  36 rL SGR
GSN 1312 1700 M 0 -36 rL SGR
GSN 1374 620 M 0  36 rL SGR
GSN 1374 1700 M 0 -36 rL SGR
GSN 1422 620 M 0  36 rL SGR
GSN 1422 1700 M 0 -36 rL SGR
GSN 1462 620 M 0  36 rL SGR
GSN 1462 1700 M 0 -36 rL SGR
GSN 1495 620 M 0  36 rL SGR
GSN 1495 1700 M 0 -36 rL SGR
GSN 1524 620 M 0  36 rL SGR
GSN 1524 1700 M 0 -36 rL SGR
GSN 1550 620 M 0  36 rL SGR
GSN 1550 1700 M 0 -36 rL SGR
GSN 1722 620 M 0  36 rL SGR
GSN 1722 1700 M 0 -36 rL SGR
GSN 1810 620 M 0  36 rL SGR
GSN 1810 1700 M 0 -36 rL SGR
GSN 1873 620 M 0  36 rL SGR
GSN 1873 1700 M 0 -36 rL SGR
GSN 1921 620 M 0  36 rL SGR
GSN 1921 1700 M 0 -36 rL SGR
GSN 1960 620 M 0  36 rL SGR
GSN 1960 1700 M 0 -36 rL SGR
GSN 1994 620 M 0  36 rL SGR
GSN 1994 1700 M 0 -36 rL SGR
GSN 2023 620 M 0  36 rL SGR
GSN 2023 1700 M 0 -36 rL SGR
GSN 2048 620 M 0  36 rL SGR
GSN 2048 1700 M 0 -36 rL SGR
GSN 2221 620 M 0  36 rL SGR
GSN 2221 1700 M 0 -36 rL SGR
GSN 2309 620 M 0  36 rL SGR
GSN 2309 1700 M 0 -36 rL SGR
GSN 2371 620 M 0  36 rL SGR
GSN 2371 1700 M 0 -36 rL SGR
GSN 2420 620 M 0  36 rL SGR
GSN 2420 1700 M 0 -36 rL SGR
GSN 2459 620 M 0  36 rL SGR
GSN 2459 1700 M 0 -36 rL SGR
GSN 2492 620 M 0  36 rL SGR
GSN 2492 1700 M 0 -36 rL SGR
GSN 2521 620 M 0  36 rL SGR
GSN 2521 1700 M 0 -36 rL SGR
GSN 2547 620 M 0  36 rL SGR
GSN 2547 1700 M 0 -36 rL SGR
GSN 2720 620 M 0  36 rL SGR
GSN 2720 1700 M 0 -36 rL SGR
GSN 2808 620 M 0  36 rL SGR
GSN 2808 1700 M 0 -36 rL SGR
GSN 2870 620 M 0  36 rL SGR
GSN 2870 1700 M 0 -36 rL SGR
GSN 2918 620 M 0  36 rL SGR
GSN 2918 1700 M 0 -36 rL SGR
GSN 2958 620 M 0  36 rL SGR
GSN 2958 1700 M 0 -36 rL SGR
GSN 2991 620 M 0  36 rL SGR
GSN 2991 1700 M 0 -36 rL SGR
GSN 3020 620 M 0  36 rL SGR
GSN 3020 1700 M 0 -36 rL SGR
GSN 3045 620 M 0  36 rL SGR
GSN 3045 1700 M 0 -36 rL SGR
GSN 3218 620 M 0  36 rL SGR
GSN 3218 1700 M 0 -36 rL SGR
GSN 3306 620 M 0  36 rL SGR
GSN 3306 1700 M 0 -36 rL SGR
GSN 3368 620 M 0  36 rL SGR
GSN 3368 1700 M 0 -36 rL SGR
GSN 3417 620 M 0  36 rL SGR
GSN 3417 1700 M 0 -36 rL SGR
GSN 3456 620 M 0  36 rL SGR
GSN 3456 1700 M 0 -36 rL SGR
GSN 3490 620 M 0  36 rL SGR
GSN 3490 1700 M 0 -36 rL SGR
GSN 3519 620 M 0  36 rL SGR
GSN 3519 1700 M 0 -36 rL SGR
GSN 3544 620 M 0  36 rL SGR
GSN 3544 1700 M 0 -36 rL SGR
GSN 3717 620 M 0  36 rL SGR
GSN 3717 1700 M 0 -36 rL SGR
GSN 3805 620 M 0  36 rL SGR
GSN 3805 1700 M 0 -36 rL SGR
GSN 3867 620 M 0  36 rL SGR
GSN 3867 1700 M 0 -36 rL SGR
GSN 3915 620 M 0  36 rL SGR
GSN 3915 1700 M 0 -36 rL SGR
GSN 3955 620 M 0  36 rL SGR
GSN 3955 1700 M 0 -36 rL SGR
GSN 3988 620 M 0  36 rL SGR
GSN 3988 1700 M 0 -36 rL SGR
GSN 4017 620 M 0  36 rL SGR
GSN 4017 1700 M 0 -36 rL SGR
GSN 4043 620 M 0  36 rL SGR
GSN 4043 1700 M 0 -36 rL SGR
GSN 4216 620 M 0  36 rL SGR
GSN 4216 1700 M 0 -36 rL SGR
%
% Y axis: large tics - residual frame
%
L10
GSN 620 741 M 54 0 rL SGR
GSN 4220 741 M -54 0 rL SGR
helvS (-0.02) 560 741 ylabelresid
GSN 620 987 M 54 0 rL SGR
GSN 4220 987 M -54 0 rL SGR
helvS (0) 560 987 ylabelresid
GSN 620 1233 M 54 0 rL SGR
GSN 4220 1233 M -54 0 rL SGR
helvS (0.02) 560 1233 ylabelresid
GSN 620 1480 M 54 0 rL SGR
GSN 4220 1480 M -54 0 rL SGR
helvS (0.04) 560 1480 ylabelresid

%
% X axis - residual panel
%
GSN L5 620 987 M 4220 987 L SDA G50 SGR

end
showpage
%%Trailer
%%EOF
