%!PS-Adobe-3.0 EPSF-3.0
%%BoundingBox: 0 0 514 550
%%Creator: BioKin Ltd.
%%DocumentFonts: Symbol Helvetica
%%EndComments
%
/bkdict 256 dict def
bkdict begin
/M {moveto} def 
/R {rmoveto} def
/L {lineto} def
/rL {rlineto} def
/GSN {gsave newpath} def
/SGR {stroke grestore} def
/COSGR {gsave setrgbcolor stroke grestore grestore} def
/SL {setlinewidth} def
/LWMB {12} def             % line width - model curves, black & white
/LWMC {10} def             % line width - model curves, color
/L2 {2.5 setlinewidth} def
/L5 {5 setlinewidth} def
/L10 {10 setlinewidth} def
/G50 {0.5 setgray} def
/SDA {[10  20] 0 setdash} def % axes
/helvT {/Helvetica findfont 100 scalefont setfont} def % tiny
/helvS {/Helvetica findfont 125 scalefont setfont} def % small
/helvM {/Helvetica findfont 150 scalefont setfont} def % medium
/helvL {/Helvetica findfont 175 scalefont setfont} def % large
/xlabel {gsave M dup
   stringwidth exch -0.5 mul exch rmoveto show grestore} def 
/ylabel {gsave M 90 rotate dup
   stringwidth exch -0.5 mul exch rmoveto show grestore} def
/ylabelresid {gsave M dup
   stringwidth exch -1 mul exch rmoveto show grestore} def
% ======
% Shapes
% ======
% Circle:
/Circ {0 360 arc closepath} def
%
% Square:
/Squa {dup dup -0.5 mul dup dup R -2 mul 0 exch rL 1 mul 0 rL dup 0 exch -1 mul rL closepath} def
%
% Triangle Up:
/TriU {dup dup dup -0.4 mul exch -0.5 mul exch R dup 0.5 mul exch rL dup -1 mul exch 0.5 mul exch rL closepath} def 
%
% Triangle Down:
/TriD {dup dup dup 0.4 mul exch -0.5 mul exch R dup 0.5 mul exch -1 mul rL dup 0.5 mul exch rL closepath} def 
%
% Diamond:
/Diam {45 rotate Squa} def
% ======
% Fills
% ======
/GRF {gsave setgray fill grestore} def                    % gray-level Fill
/COF {gsave setrgbcolor fill grestore} def                % color fill
% ======
% Colors
% ======
/C01 {1.00	0.00	0.00} def      % Red
/C02 {0.00	0.00	1.00} def      % Blue
/C03 {0.00	0.39	0.00} def      % Dark Green
/C04 {0.78	0.08	0.52} def      % Medium Violet Red
/C05 {0.55	0.27	0.07} def      % Saddle Brown
/C06 {0.10	0.70	0.70} def      % (cyan)
/C07 {1.00	0.55	0.00} def      % Dark Orange
/C08 {0.63	0.13	0.94} def      % Purple
/C09 {0.00	0.75	1.00} def      % Deep Sky Blue
/C10 {0.20	0.80	0.20} def      % Lime Green
/C11 {0.47	0.53	0.60} def      % Light Slate Gray
/C12 {0.00	0.00	0.00} def      % Black            % or: {0.19	0.31	0.31} def      % Dark Slate Gray
%
/LGR {0.75} def % light gray
/DGR {0.33} def % dark gray
%
% =============
% Dash patterns
% =============
/dash01 { [80  20] 0 setdash } def
/dash02 { [40  20] 0 setdash } def
/dash03 { [80  20  10  20] 0 setdash } def
/dash04 { [40  20  10  20] 0 setdash } def
/dash05 { [80  20  10  10  10  20] 0 setdash } def
/dash06 { [40  20  10  10  10  20] 0 setdash } def
/dash07 { [10  10] 0 setdash } def
%
/MFshow {
   { dup 5 get 3 ge
     { 5 get 3 eq {gsave} {grestore} ifelse }
     {dup dup 0 get findfont exch 1 get scalefont setfont
     [ currentpoint ] exch dup 2 get 0 exch R dup 5 get 2 ne {dup dup 6
     get exch 4 get {show} {stringwidth pop 0 R} ifelse }if dup 5 get 0 eq
     {dup 3 get {2 get neg 0 exch R pop} {pop aload pop M} ifelse} {dup 5
     get 1 eq {dup 2 get exch dup 3 get exch 6 get stringwidth pop -2 div
     dup 0 R} {dup 6 get stringwidth pop -2 div 0 R 6 get
     show 2 index {aload pop M neg 3 -1 roll neg R pop pop} {pop pop pop
     pop aload pop M} ifelse }ifelse }ifelse }
     ifelse }
   forall} bind def
/MFwidth {0 exch {dup 3 get{dup dup 0 get findfont exch 1 get scalefont
     setfont 6 get stringwidth pop add} {pop} ifelse} forall} bind def
/MCshow { currentpoint stroke M
  exch dup MFwidth -2 div 3 -1 roll R MFshow } def
%
end
%%EndProlog
bkdict begin
0.1 0.1 scale
%
% Residuals:
%
GSN 620 4636 M
620 4513 L
620 4441 L
620 4746 L
620 4577 L
620 4863 L
620 4602 L
620 4642 L
620 4674 L
620 4502 L
620 4511 L
620 4533 L
620 4288 L
620 4312 L
620 4339 L
620 4334 L
620 4487 L
620 4294 L
620 4349 L
620 4262 L
620 4261 L
620 4230 L
620 4248 L
620 4031 L
620 4174 L
620 4232 L
620 3916 L
620 4100 L
620 3864 L
620 4018 L
620 3898 L
620 3837 L
620 3889 L
620 3938 L
620 3884 L
620 3798 L
620 3899 L
620 4053 L
620 3687 L
620 3816 L
620 3813 L
620 3785 L
620 3758 L
620 3505 L
620 3830 L
620 3815 L
620 3562 L
620 3654 L
620 3441 L
620 3534 L
620 3571 L
620 3687 L
620 3719 L
620 3509 L
620 3441 L
620 3651 L
620 3332 L
620 3443 L
620 3442 L
620 3249 L
620 3244 L
620 3379 L
620 3438 L
620 3371 L
620 3269 L
620 3236 L
620 3108 L
620 3275 L
620 3242 L
620 3185 L
620 3284 L
620 3386 L
620 3198 L
620 3167 L
620 3191 L
620 3276 L
620 3118 L
620 3040 L
620 3352 L
620 3034 L
620 3287 L
620 2772 L
620 3140 L
620 2840 L
620 2804 L
620 2890 L
620 2737 L
620 2697 L
620 2811 L
620 2779 L
620 2700 L
620 2662 L
620 2534 L
620 2582 L
620 2606 L
620 2820 L
620 2538 L
620 2591 L
620 2619 L
620 2589 L
620 2250 L
620 2376 L
620 2515 L
620 2486 L
620 2479 L
620 2333 L
620 2446 L
620 2585 L
620 2412 L
620 2419 L
620 2342 L
620 2252 L
620 2507 L
620 2379 L
620 2335 L
620 2372 L
620 2441 L
620 2214 L
620 2311 L
620 2434 L
620 2313 L
620 2341 L
620 2294 L
620 2333 L
620 2318 L
620 2336 L
620 2362 L
620 2363 L
620 2414 L
620 2208 L
620 2359 L
620 2481 L
620 2340 L
620 2373 L
620 2350 L
620 2422 L
620 2356 L
620 2325 L
620 2307 L
620 2351 L
620 2400 L
620 2394 L
620 2376 L
620 2424 L
620 2418 L
620 2513 L
620 2555 L
620 2136 L
620 2223 L
620 2346 L
620 2551 L
620 2493 L
620 2350 L
620 2444 L
620 2450 L
620 2436 L
620 2407 L
620 2516 L
620 2386 L
620 2447 L
620 2317 L
620 2441 L
620 2562 L
620 2367 L
620 2529 L
620 2465 L
620 2454 L
620 2441 L
620 2637 L
620 2461 L
620 2625 L
620 2550 L
620 2573 L
620 2642 L
620 2476 L
620 2476 L
620 2626 L
620 2586 L
620 2484 L
620 2517 L
620 2528 L
620 2608 L
620 2726 L
620 2570 L
620 2660 L
620 2547 L
620 2682 L
620 2682 L
620 2507 L
620 2586 L
620 2614 L
620 2708 L
620 2482 L
620 2580 L
620 2666 L
620 2657 L
620 2527 L
620 2578 L
620 2555 L
620 2686 L
620 2618 L
620 2699 L
620 2474 L
620 2847 L
620 2632 L
620 2650 L
620 2698 L
620 2619 L
620 2688 L
620 2755 L
620 2667 L
620 2646 L
620 2743 L
620 2536 L
620 2654 L
620 2736 L
620 2832 L
620 2785 L
620 2758 L
620 2755 L
620 2760 L
620 2738 L
620 2885 L
620 2854 L
620 2865 L
620 2611 L
620 2753 L
620 2975 L
620 2840 L
620 2861 L
620 2766 L
620 2861 L
620 2825 L
620 2707 L
620 2857 L
620 2775 L
620 3004 L
620 2991 L
620 2736 L
620 2946 L
620 2809 L
620 2874 L
620 2812 L
620 2983 L
620 2809 L
620 2735 L
620 2678 L
620 2965 L
620 2764 L
620 2767 L
620 2748 L
620 2764 L
620 2845 L
620 2929 L
620 2967 L
620 2825 L
620 2831 L
620 2839 L
620 2947 L
620 2744 L
620 2775 L
620 3109 L
620 2968 L
620 2964 L
620 3020 L
620 2950 L
620 2941 L
620 2886 L
620 2775 L
620 2936 L
620 3050 L
620 2871 L
620 2656 L
620 2962 L
620 2904 L
620 2926 L
620 3037 L
620 2850 L
620 2972 L
620 2980 L
620 3089 L
620 3101 L
620 3116 L
620 3136 L
620 3272 L
620 3003 L
620 3199 L
620 3385 L
620 3235 L
620 3302 L
620 3116 L
620 3285 L
620 3295 L
620 3280 L
620 3313 L
620 3304 L
620 3076 L
620 3339 L
620 3283 L
620 3238 L
620 3263 L
620 3357 L
620 3255 L
620 3209 L
620 3415 L
620 3099 L
620 3427 L
620 3282 L
620 3283 L
620 3231 L
620 3248 L
620 3322 L
620 3220 L
620 3198 L
620 3211 L
620 3307 L
620 3271 L
620 3176 L
620 3247 L
620 3241 L
620 3129 L
620 3170 L
620 3244 L
620 3321 L
620 3249 L
620 3250 L
620 3160 L
620 3181 L
620 3143 L
620 3236 L
620 3342 L
620 3190 L
620 3404 L
620 3384 L
620 3187 L
620 3317 L
620 3269 L
620 3167 L
620 3237 L
620 3567 L
620 3238 L
620 3329 L
620 3146 L
620 3103 L
620 3193 L
620 3147 L
620 3233 L
620 3330 L
620 3166 L
620 3248 L
620 3132 L
620 3098 L
620 3108 L
620 2961 L
620 3342 L
620 3045 L
620 3189 L
620 3135 L
620 3272 L
620 3167 L
620 3149 L
620 3227 L
620 3275 L
620 3201 L
620 2999 L
620 3215 L
620 3210 L
620 3081 L
620 3016 L
620 3129 L
620 3023 L
620 3316 L
620 3142 L
620 3153 L
620 3056 L
620 3166 L
620 3010 L
620 3187 L
620 3195 L
620 2974 L
620 2840 L
620 3130 L
620 3234 L
620 3027 L
620 2960 L
620 3066 L
620 3012 L
620 3109 L
620 2910 L
620 3108 L
620 3133 L
620 3146 L
620 3023 L
620 3066 L
620 3203 L
620 2934 L
620 2883 L
620 3170 L
620 2919 L
620 3074 L
620 2804 L
620 2989 L
620 2877 L
620 3065 L
620 3281 L
620 3013 L
620 2938 L
620 3057 L
620 2741 L
620 2965 L
620 3044 L
620 3105 L
620 2907 L
620 3124 L
620 2916 L
620 3051 L
620 3038 L
620 3059 L
620 3134 L
620 2850 L
620 3083 L
620 2877 L
620 2955 L
620 2987 L
620 3090 L
620 2998 L
620 2935 L
620 3071 L
620 2888 L
620 2962 L
620 3001 L
620 3063 L
620 3006 L
620 3158 L
620 3015 L
620 3210 L
620 2943 L
620 3121 L
620 3054 L
620 3032 L
620 3027 L
620 3036 L
620 3020 L
620 2945 L
620 2961 L
620 3280 L
620 3020 L
620 2911 L
620 3065 L
620 3015 L
620 3225 L
620 2959 L
620 3189 L
620 3199 L
620 2966 L
620 3141 L
620 3008 L
620 3104 L
620 3120 L
620 3160 L
620 2834 L
620 3184 L
620 2894 L
620 3003 L
620 2983 L
620 3108 L
620 3121 L
620 2768 L
620 2929 L
620 2937 L
620 3063 L
620 3184 L
620 2942 L
620 2981 L
620 2705 L
620 3073 L
620 2938 L
620 3094 L
620 2717 L
620 2998 L
620 3182 L
620 2844 L
620 2873 L
620 2920 L
620 2889 L
620 3000 L
620 3025 L
620 3065 L
620 3037 L
620 2984 L
620 2987 L
620 2864 L
620 3067 L
620 3059 L
620 2696 L
620 3020 L
620 2931 L
620 3046 L
620 2967 L
620 3012 L
620 3122 L
620 3028 L
620 2905 L
620 2843 L
620 3014 L
620 3046 L
620 2865 L
620 2843 L
620 3035 L
620 3087 L
620 2878 L
620 3072 L
620 3001 L
620 2851 L
620 3020 L
620 3028 L
620 3343 L
620 2977 L
620 2966 L
620 3103 L
620 2935 L
620 3039 L
620 3146 L
620 3057 L
620 3056 L
620 2921 L
620 3038 L
620 3083 L
620 3038 L
620 2947 L
620 2928 L
620 3003 L
620 2966 L
L2 C04 COSGR

%
%================
% Legend - Begin
%================
%
GSN 4240 5180 M
4480 5180 L
LWMC SL  C04 COSGR
GSN 4540 5141 M helvM (2.0 uM) show grestore
%
%================
% Legend - End
%================
%

%
% Main frame
%
L10
GSN 
620 1700 M
4220 1700 L
4220 5300 L
620 5300 L
closepath SGR

%
% X axis: large tics
%
L10
%
% X axis: small tics
%
L5
%
% Y axis: large tics
%
L10
GSN 620 2245 M 54 0 rL SGR
GSN 4220 2245 M -54 0 rL SGR
helvS (-0.02) 560 2245 ylabel
GSN 620 3030 M 54 0 rL SGR
GSN 4220 3030 M -54 0 rL SGR
helvS (0) 560 3030 ylabel
GSN 620 3816 M 54 0 rL SGR
GSN 4220 3816 M -54 0 rL SGR
helvS (0.02) 560 3816 ylabel
GSN 620 4602 M 54 0 rL SGR
GSN 4220 4602 M -54 0 rL SGR
helvS (0.04) 560 4602 ylabel
%
% Y axis: small tics
%
L5
GSN 620 1852 M 36 0 rL SGR
GSN 4220 1852 M -36 0 rL SGR
GSN 620 2048 M 36 0 rL SGR
GSN 4220 2048 M -36 0 rL SGR
GSN 620 2245 M 36 0 rL SGR
GSN 4220 2245 M -36 0 rL SGR
GSN 620 2441 M 36 0 rL SGR
GSN 4220 2441 M -36 0 rL SGR
GSN 620 2637 M 36 0 rL SGR
GSN 4220 2637 M -36 0 rL SGR
GSN 620 2834 M 36 0 rL SGR
GSN 4220 2834 M -36 0 rL SGR
GSN 620 3030 M 36 0 rL SGR
GSN 4220 3030 M -36 0 rL SGR
GSN 620 3227 M 36 0 rL SGR
GSN 4220 3227 M -36 0 rL SGR
GSN 620 3423 M 36 0 rL SGR
GSN 4220 3423 M -36 0 rL SGR
GSN 620 3620 M 36 0 rL SGR
GSN 4220 3620 M -36 0 rL SGR
GSN 620 3816 M 36 0 rL SGR
GSN 4220 3816 M -36 0 rL SGR
GSN 620 4013 M 36 0 rL SGR
GSN 4220 4013 M -36 0 rL SGR
GSN 620 4209 M 36 0 rL SGR
GSN 4220 4209 M -36 0 rL SGR
GSN 620 4406 M 36 0 rL SGR
GSN 4220 4406 M -36 0 rL SGR
GSN 620 4602 M 36 0 rL SGR
GSN 4220 4602 M -36 0 rL SGR
GSN 620 4799 M 36 0 rL SGR
GSN 4220 4799 M -36 0 rL SGR
GSN 620 4995 M 36 0 rL SGR
GSN 4220 4995 M -36 0 rL SGR
GSN 620 5192 M 36 0 rL SGR
GSN 4220 5192 M -36 0 rL SGR

%
% X axis - residual panel
%
GSN L5 620 3030 M 4220 3030 L SDA G50 SGR

%
% X-Axis label:
%
gsave 620 1370 M 
[
[(Helvetica) 180 0 true true 0 (t)]
[(Helvetica) 180 0 true true 0 (i)]
[(Helvetica) 180 0 true true 0 (m)]
[(Helvetica) 180 0 true true 0 (e)]
] 0 MCshow grestore

%
% Y-Axis label:
%
gsave 234 3499 M 
currentpoint gsave translate 90 rotate 0 0 moveto
[
[(Helvetica) 180 0 true true 0 (r)]
[(Helvetica) 180 0 true true 0 (e)]
[(Helvetica) 180 0 true true 0 (s)]
[(Helvetica) 180 0 true true 0 (i)]
[(Helvetica) 180 0 true true 0 (d)]
[(Helvetica) 180 0 true true 0 (u)]
[(Helvetica) 180 0 true true 0 (a)]
[(Helvetica) 180 0 true true 0 (l)]
[(Helvetica) 180 0 true true 0 (s)]
] 0 MCshow grestore

end
showpage
%%Trailer
%%EOF
