%!PS-Adobe-3.0 EPSF-3.0
%%BoundingBox: 0 0 514 550
%%Creator: BioKin Ltd.
%%DocumentFonts: Symbol Helvetica
%%EndComments
%
/bkdict 256 dict def
bkdict begin
/M {moveto} def 
/R {rmoveto} def
/L {lineto} def
/rL {rlineto} def
/GSN {gsave newpath} def
/SGR {stroke grestore} def
/COSGR {gsave setrgbcolor stroke grestore grestore} def
/SL {setlinewidth} def
/LWMB {12} def             % line width - model curves, black & white
/LWMC {10} def             % line width - model curves, color
/L2 {2.5 setlinewidth} def
/L5 {5 setlinewidth} def
/L10 {10 setlinewidth} def
/G50 {0.5 setgray} def
/SDA {[10  20] 0 setdash} def % axes
/helvT {/Helvetica findfont 100 scalefont setfont} def % tiny
/helvS {/Helvetica findfont 125 scalefont setfont} def % small
/helvM {/Helvetica findfont 150 scalefont setfont} def % medium
/helvL {/Helvetica findfont 175 scalefont setfont} def % large
/xlabel {gsave M dup
   stringwidth exch -0.5 mul exch rmoveto show grestore} def 
/ylabel {gsave M 90 rotate dup
   stringwidth exch -0.5 mul exch rmoveto show grestore} def
/ylabelresid {gsave M dup
   stringwidth exch -1 mul exch rmoveto show grestore} def
% ======
% Shapes
% ======
% Circle:
/Circ {0 360 arc closepath} def
%
% Square:
/Squa {dup dup -0.5 mul dup dup R -2 mul 0 exch rL 1 mul 0 rL dup 0 exch -1 mul rL closepath} def
%
% Triangle Up:
/TriU {dup dup dup -0.4 mul exch -0.5 mul exch R dup 0.5 mul exch rL dup -1 mul exch 0.5 mul exch rL closepath} def 
%
% Triangle Down:
/TriD {dup dup dup 0.4 mul exch -0.5 mul exch R dup 0.5 mul exch -1 mul rL dup 0.5 mul exch rL closepath} def 
%
% Diamond:
/Diam {45 rotate Squa} def
% ======
% Fills
% ======
/GRF {gsave setgray fill grestore} def                    % gray-level Fill
/COF {gsave setrgbcolor fill grestore} def                % color fill
% ======
% Colors
% ======
/C01 {1.00	0.00	0.00} def      % Red
/C02 {0.00	0.00	1.00} def      % Blue
/C03 {0.00	0.39	0.00} def      % Dark Green
/C04 {0.78	0.08	0.52} def      % Medium Violet Red
/C05 {0.55	0.27	0.07} def      % Saddle Brown
/C06 {0.10	0.70	0.70} def      % (cyan)
/C07 {1.00	0.55	0.00} def      % Dark Orange
/C08 {0.63	0.13	0.94} def      % Purple
/C09 {0.00	0.75	1.00} def      % Deep Sky Blue
/C10 {0.20	0.80	0.20} def      % Lime Green
/C11 {0.47	0.53	0.60} def      % Light Slate Gray
/C12 {0.00	0.00	0.00} def      % Black            % or: {0.19	0.31	0.31} def      % Dark Slate Gray
%
/LGR {0.75} def % light gray
/DGR {0.33} def % dark gray
%
% =============
% Dash patterns
% =============
/dash01 { [80  20] 0 setdash } def
/dash02 { [40  20] 0 setdash } def
/dash03 { [80  20  10  20] 0 setdash } def
/dash04 { [40  20  10  20] 0 setdash } def
/dash05 { [80  20  10  10  10  20] 0 setdash } def
/dash06 { [40  20  10  10  10  20] 0 setdash } def
/dash07 { [10  10] 0 setdash } def
%
/MFshow {
   { dup 5 get 3 ge
     { 5 get 3 eq {gsave} {grestore} ifelse }
     {dup dup 0 get findfont exch 1 get scalefont setfont
     [ currentpoint ] exch dup 2 get 0 exch R dup 5 get 2 ne {dup dup 6
     get exch 4 get {show} {stringwidth pop 0 R} ifelse }if dup 5 get 0 eq
     {dup 3 get {2 get neg 0 exch R pop} {pop aload pop M} ifelse} {dup 5
     get 1 eq {dup 2 get exch dup 3 get exch 6 get stringwidth pop -2 div
     dup 0 R} {dup 6 get stringwidth pop -2 div 0 R 6 get
     show 2 index {aload pop M neg 3 -1 roll neg R pop pop} {pop pop pop
     pop aload pop M} ifelse }ifelse }ifelse }
     ifelse }
   forall} bind def
/MFwidth {0 exch {dup 3 get{dup dup 0 get findfont exch 1 get scalefont
     setfont 6 get stringwidth pop add} {pop} ifelse} forall} bind def
/MCshow { currentpoint stroke M
  exch dup MFwidth -2 div 3 -1 roll R MFshow } def
%
end
%%EndProlog
bkdict begin
0.1 0.1 scale
%
% Residuals:
%
GSN 620 4795 M
620 4863 L
620 4345 L
620 3604 L
620 3301 L
620 3414 L
620 4037 L
620 3741 L
620 3866 L
620 3862 L
620 4101 L
620 3975 L
620 4219 L
620 3806 L
620 3666 L
620 3807 L
620 4049 L
620 3787 L
620 3987 L
620 4250 L
620 4290 L
620 4066 L
620 3860 L
620 4006 L
620 4123 L
620 3980 L
620 4134 L
620 4034 L
620 3718 L
620 4280 L
620 4108 L
620 4178 L
620 4259 L
620 3906 L
620 3687 L
620 4115 L
620 3996 L
620 3690 L
620 4149 L
620 4010 L
620 3920 L
620 4066 L
620 4136 L
620 4107 L
620 3893 L
620 3761 L
620 3938 L
620 4315 L
620 4106 L
620 4198 L
620 4032 L
620 4182 L
620 3883 L
620 4050 L
620 4193 L
620 3930 L
620 3871 L
620 3965 L
620 4035 L
620 4080 L
620 4277 L
620 3943 L
620 3954 L
620 3618 L
620 4130 L
620 3910 L
620 4002 L
620 3868 L
620 4030 L
620 4021 L
620 4045 L
620 3679 L
620 4067 L
620 4105 L
620 4304 L
620 4018 L
620 4017 L
620 3945 L
620 3684 L
620 3811 L
620 4054 L
620 4070 L
620 4290 L
620 4244 L
620 3910 L
620 3957 L
620 4046 L
620 4040 L
620 3912 L
620 4154 L
620 3873 L
620 3720 L
620 3860 L
620 3790 L
620 3894 L
620 3909 L
620 4229 L
620 3974 L
620 3810 L
620 4114 L
620 3697 L
620 3861 L
620 3913 L
620 4062 L
620 3997 L
620 3776 L
620 3820 L
620 3855 L
620 4007 L
620 4246 L
620 4061 L
620 3906 L
620 3600 L
620 3907 L
620 3888 L
620 3857 L
620 3780 L
620 4581 L
620 4010 L
620 4125 L
620 3743 L
620 4145 L
620 3902 L
620 3878 L
620 4180 L
620 4151 L
620 4080 L
620 3840 L
620 4042 L
620 4193 L
620 3950 L
620 3700 L
620 3724 L
620 3851 L
620 4002 L
620 4002 L
620 4190 L
620 3966 L
620 3995 L
620 3929 L
620 3920 L
620 3871 L
620 3849 L
620 3912 L
620 3611 L
620 4066 L
620 4207 L
620 3839 L
620 4053 L
620 3715 L
620 3956 L
620 4072 L
620 3695 L
620 4016 L
620 3729 L
620 3658 L
620 3913 L
620 3964 L
620 4044 L
620 3966 L
620 4044 L
620 3734 L
620 4016 L
620 3843 L
620 3619 L
620 3664 L
620 4126 L
620 3856 L
620 4033 L
620 4213 L
620 4154 L
620 3740 L
620 4258 L
620 4004 L
620 3926 L
620 4161 L
620 3893 L
620 3668 L
620 3756 L
620 3855 L
620 3679 L
620 3710 L
620 3571 L
620 4154 L
620 3986 L
620 4177 L
620 4004 L
620 3886 L
620 3949 L
620 4077 L
620 3472 L
620 3749 L
620 4024 L
620 3818 L
620 4024 L
620 4228 L
620 3896 L
620 3854 L
620 3958 L
620 3801 L
620 3944 L
620 4021 L
620 4013 L
620 3771 L
620 4074 L
620 4134 L
620 3639 L
620 3894 L
620 3999 L
620 4064 L
620 3766 L
620 4128 L
620 3913 L
620 3887 L
620 4103 L
620 4116 L
620 3590 L
620 3732 L
620 4208 L
620 4129 L
620 4072 L
620 3686 L
620 3863 L
620 3930 L
620 4011 L
620 3835 L
620 4116 L
620 4166 L
620 3707 L
620 3655 L
620 3809 L
620 3766 L
620 3634 L
620 3968 L
620 3867 L
620 3883 L
620 3801 L
620 3980 L
620 3884 L
620 3853 L
620 4095 L
620 4081 L
620 3615 L
620 3636 L
620 3656 L
620 3959 L
620 3938 L
620 4109 L
620 3802 L
620 4021 L
620 3908 L
620 3965 L
620 4246 L
620 3378 L
620 3819 L
620 4110 L
620 3918 L
620 3540 L
620 3691 L
620 3989 L
620 3880 L
620 3677 L
620 4045 L
620 3785 L
620 3815 L
620 3865 L
620 3990 L
620 3793 L
620 4089 L
620 4133 L
620 3898 L
620 3930 L
620 3916 L
620 3807 L
620 3799 L
620 3940 L
620 3975 L
620 3893 L
620 3753 L
620 4055 L
620 3795 L
620 3772 L
620 3558 L
620 3962 L
620 3975 L
620 4080 L
620 3597 L
620 3850 L
620 4287 L
620 3852 L
620 3981 L
620 3505 L
620 3464 L
620 3523 L
620 3844 L
620 3750 L
620 3792 L
620 3824 L
620 4068 L
620 3718 L
620 3730 L
620 3767 L
620 3991 L
620 3517 L
620 3800 L
620 4197 L
620 3869 L
620 3563 L
620 3889 L
620 3968 L
620 3637 L
620 3771 L
620 3674 L
620 3789 L
620 3641 L
620 4108 L
620 3899 L
620 3525 L
620 3718 L
620 3779 L
620 3672 L
620 3565 L
620 3736 L
620 3638 L
620 3668 L
620 4009 L
620 4034 L
620 3798 L
620 3562 L
620 3895 L
620 3504 L
620 3694 L
620 4066 L
620 3575 L
620 4128 L
620 3806 L
620 4172 L
620 4147 L
620 3639 L
620 3756 L
620 3474 L
620 3768 L
620 3866 L
620 4228 L
620 3435 L
620 3820 L
620 3718 L
620 3649 L
620 3686 L
620 3523 L
620 3862 L
620 3397 L
620 4148 L
620 3616 L
620 3864 L
620 3659 L
620 3752 L
620 3954 L
620 4231 L
620 3677 L
620 3633 L
620 4224 L
620 3703 L
620 3788 L
620 3835 L
620 3941 L
620 3783 L
620 3805 L
620 3771 L
620 3863 L
620 3449 L
620 3841 L
620 3809 L
620 3544 L
620 3831 L
620 3427 L
620 3509 L
620 3930 L
620 3682 L
620 3726 L
620 3957 L
620 3616 L
620 3789 L
620 3632 L
620 3944 L
620 3484 L
620 3629 L
620 3980 L
620 3444 L
620 3916 L
620 3495 L
620 3594 L
620 3798 L
620 3720 L
620 4036 L
620 3690 L
620 3714 L
620 3590 L
620 3483 L
620 3869 L
620 4006 L
620 3559 L
620 3726 L
620 3703 L
620 3669 L
620 3422 L
620 3603 L
620 4100 L
620 3594 L
620 3704 L
620 3415 L
620 3792 L
620 3651 L
620 3585 L
620 3454 L
620 3659 L
620 3809 L
620 3896 L
620 3517 L
620 3609 L
620 3654 L
620 3362 L
620 3687 L
620 3808 L
620 3379 L
620 3602 L
620 3883 L
620 3413 L
620 3392 L
620 3685 L
620 3745 L
620 3325 L
620 3338 L
620 3838 L
620 3387 L
620 3660 L
620 3447 L
620 3508 L
620 3670 L
620 3228 L
620 3382 L
620 3823 L
620 3324 L
620 3546 L
620 3502 L
620 3306 L
620 3705 L
620 3401 L
620 3328 L
620 3285 L
620 3204 L
620 3528 L
620 3299 L
620 3058 L
620 3535 L
620 3381 L
620 3225 L
620 2979 L
620 3748 L
620 3667 L
620 3452 L
620 3625 L
620 3585 L
620 3168 L
620 3510 L
620 3517 L
620 3310 L
620 3618 L
620 3320 L
620 3662 L
620 3036 L
620 3531 L
620 3533 L
620 3130 L
620 3073 L
620 3187 L
620 3417 L
620 3413 L
620 3300 L
620 3736 L
620 3553 L
620 3505 L
620 3265 L
620 3395 L
620 3352 L
620 3414 L
620 3422 L
620 3503 L
620 3297 L
620 3500 L
620 3009 L
620 3219 L
620 3643 L
620 3070 L
620 3435 L
620 3640 L
620 3390 L
620 3403 L
620 3167 L
620 2966 L
620 3528 L
620 3249 L
620 3315 L
620 3116 L
620 3398 L
620 3379 L
620 3182 L
620 3255 L
620 3299 L
620 3416 L
620 3404 L
620 3193 L
620 3290 L
620 2981 L
620 3239 L
620 3297 L
620 3164 L
620 3166 L
620 3300 L
620 3236 L
620 3368 L
620 3095 L
620 3095 L
620 3236 L
620 3080 L
620 3118 L
620 3349 L
620 3054 L
620 3679 L
620 2949 L
620 2839 L
620 3586 L
620 2865 L
620 3188 L
620 3300 L
620 3097 L
620 3233 L
620 3269 L
620 3480 L
620 3151 L
620 2987 L
620 3104 L
620 3378 L
620 3317 L
620 3170 L
620 3318 L
620 2976 L
620 3078 L
620 3276 L
620 3142 L
620 3306 L
620 3159 L
620 3375 L
620 3187 L
620 2872 L
620 3351 L
620 2961 L
620 2950 L
620 3489 L
620 2736 L
620 3242 L
620 3160 L
620 2857 L
620 3168 L
620 3135 L
620 2998 L
620 3004 L
620 3134 L
620 3194 L
620 2779 L
620 2988 L
620 2894 L
620 3202 L
620 3388 L
620 3241 L
620 3325 L
620 2934 L
620 2789 L
620 3155 L
620 3076 L
620 2824 L
620 2923 L
620 2851 L
620 3122 L
620 2734 L
620 3173 L
620 3371 L
620 3240 L
620 2986 L
620 3092 L
620 2650 L
620 2962 L
620 2905 L
620 3100 L
620 3053 L
620 3256 L
620 2999 L
620 2885 L
620 3173 L
620 3135 L
620 2822 L
620 3108 L
620 3055 L
620 3323 L
620 2979 L
620 2860 L
620 2842 L
620 2816 L
620 3018 L
620 3121 L
620 2974 L
620 3052 L
620 2968 L
620 2959 L
620 3103 L
620 3330 L
620 3158 L
620 2694 L
620 3227 L
620 3111 L
620 3022 L
620 3293 L
620 2789 L
620 3109 L
620 3080 L
620 3417 L
620 3198 L
620 2958 L
620 2759 L
620 3025 L
620 3349 L
620 2819 L
620 2973 L
620 3032 L
620 2830 L
620 2687 L
620 3162 L
620 2722 L
620 2652 L
620 3181 L
620 3062 L
620 2860 L
620 3004 L
620 3031 L
620 3027 L
620 2711 L
620 3332 L
620 2943 L
620 2880 L
620 2827 L
620 3107 L
620 3007 L
620 2877 L
620 3118 L
620 2802 L
620 2977 L
620 2999 L
620 3029 L
620 3058 L
620 3158 L
620 2816 L
620 2879 L
620 3038 L
620 2928 L
620 2600 L
620 2440 L
620 3165 L
620 2954 L
620 2915 L
620 2893 L
620 3139 L
620 2772 L
620 3200 L
620 2750 L
620 3004 L
620 2780 L
620 2773 L
620 2771 L
620 2783 L
620 3026 L
620 2871 L
620 2701 L
620 2968 L
620 3012 L
620 2859 L
620 3129 L
620 2876 L
620 2794 L
620 3205 L
620 2757 L
620 3261 L
620 3025 L
620 2862 L
620 2991 L
620 2806 L
620 2921 L
620 3096 L
620 2870 L
620 2945 L
620 2889 L
620 2930 L
620 2901 L
620 2797 L
620 2867 L
620 3016 L
620 2641 L
620 2828 L
620 2697 L
620 2509 L
620 3008 L
620 2694 L
620 3030 L
620 3057 L
620 2730 L
620 2854 L
620 2650 L
620 3115 L
620 2682 L
620 3173 L
620 2981 L
620 2895 L
620 2869 L
620 3058 L
620 2937 L
620 3070 L
620 2953 L
620 2953 L
620 2824 L
620 2636 L
620 2802 L
620 3099 L
620 3013 L
620 2835 L
620 2730 L
620 2971 L
620 2825 L
620 2944 L
620 3095 L
620 3056 L
620 2907 L
620 3126 L
620 2858 L
620 2982 L
620 2977 L
620 3066 L
620 2921 L
620 3030 L
620 2849 L
620 3017 L
620 2698 L
620 2844 L
620 2700 L
620 3218 L
620 3274 L
620 3171 L
620 2840 L
620 3093 L
620 2993 L
620 3041 L
620 2810 L
620 2729 L
620 2865 L
620 2772 L
620 3181 L
620 2794 L
620 2584 L
620 3168 L
620 3226 L
620 2985 L
620 2916 L
620 2729 L
620 2787 L
620 2555 L
620 2864 L
620 2470 L
620 2776 L
620 2938 L
620 2717 L
620 3120 L
620 2823 L
620 2703 L
620 2314 L
620 3012 L
620 2977 L
620 2678 L
620 2636 L
620 2991 L
620 3041 L
620 2742 L
620 2790 L
620 2826 L
620 2801 L
620 2792 L
620 2686 L
620 3066 L
620 2776 L
620 2926 L
620 2787 L
620 3081 L
620 2866 L
620 2854 L
620 2727 L
620 2924 L
620 2906 L
620 2920 L
620 3056 L
620 2771 L
620 2863 L
620 3435 L
620 3045 L
620 3120 L
620 3178 L
620 2941 L
620 2705 L
620 2789 L
620 3161 L
620 3144 L
620 3134 L
620 2758 L
620 3004 L
620 2808 L
620 2893 L
620 2890 L
620 3072 L
620 2986 L
620 3061 L
620 2832 L
620 2998 L
620 2834 L
620 3074 L
620 3356 L
620 2927 L
620 2858 L
620 2880 L
620 3084 L
620 2869 L
620 2993 L
620 3026 L
620 2466 L
620 2850 L
620 2935 L
620 2813 L
620 3016 L
620 2943 L
620 3020 L
620 2828 L
620 3080 L
620 2914 L
620 3025 L
620 2901 L
620 3214 L
620 2934 L
620 2972 L
620 2872 L
620 2898 L
620 2742 L
620 2717 L
620 3015 L
620 3380 L
620 2844 L
620 2797 L
620 2592 L
620 2871 L
620 3148 L
620 3199 L
620 3026 L
620 3105 L
620 2920 L
620 2934 L
620 2992 L
620 3045 L
620 2689 L
620 3065 L
620 3062 L
620 3137 L
620 2937 L
620 3046 L
620 3057 L
620 3132 L
620 3173 L
620 2688 L
620 2999 L
620 2872 L
620 3146 L
620 2951 L
620 3045 L
620 2809 L
620 2365 L
620 2703 L
620 3014 L
620 3076 L
620 2920 L
620 3192 L
620 3203 L
620 2894 L
620 2869 L
620 2861 L
620 3561 L
620 2881 L
620 3058 L
620 2751 L
620 2948 L
620 2638 L
620 3143 L
620 2639 L
620 3038 L
620 2718 L
620 2941 L
620 3216 L
620 2879 L
620 3002 L
620 3070 L
620 2940 L
620 2913 L
620 2608 L
620 2938 L
620 3154 L
620 3110 L
620 3082 L
620 2836 L
620 2599 L
620 2708 L
620 2615 L
620 2763 L
620 3567 L
620 3022 L
620 2948 L
620 2860 L
620 2993 L
620 3369 L
620 2807 L
620 3195 L
620 2667 L
620 2955 L
620 2660 L
620 2903 L
620 2783 L
620 2911 L
620 3025 L
620 2905 L
620 2685 L
620 3125 L
620 2764 L
620 3138 L
620 3035 L
620 3426 L
620 2396 L
620 2870 L
620 2984 L
620 3047 L
620 3114 L
620 2568 L
620 3074 L
620 3209 L
620 3104 L
620 2660 L
620 2591 L
620 2763 L
620 2833 L
620 2991 L
620 3299 L
620 3177 L
620 3198 L
620 2956 L
620 2564 L
620 2685 L
620 2662 L
620 2768 L
620 2816 L
620 2823 L
620 2997 L
620 2770 L
620 3003 L
620 2854 L
620 2909 L
620 3254 L
620 2752 L
620 2744 L
620 2889 L
620 2886 L
620 3002 L
620 2763 L
620 2801 L
620 3156 L
620 2695 L
620 3084 L
620 2808 L
620 3213 L
620 3076 L
620 3253 L
620 3116 L
620 2724 L
620 2628 L
620 2934 L
620 3013 L
620 3232 L
620 2895 L
620 2979 L
620 2806 L
620 2815 L
620 3082 L
620 2906 L
620 2659 L
620 2544 L
620 2673 L
620 3234 L
620 2759 L
620 3065 L
620 2964 L
620 3107 L
620 2517 L
620 2845 L
620 2584 L
620 3114 L
620 3144 L
620 2725 L
620 2880 L
620 2794 L
620 3119 L
620 2824 L
620 3020 L
620 3012 L
620 2727 L
620 2960 L
620 2837 L
620 2880 L
620 3242 L
620 2791 L
620 2610 L
620 3035 L
620 2898 L
620 3019 L
620 2911 L
620 2801 L
620 3097 L
620 2816 L
620 3256 L
620 2769 L
620 3055 L
620 2903 L
620 2954 L
620 3155 L
620 3062 L
620 3107 L
620 3028 L
620 2823 L
620 3015 L
620 2683 L
620 2865 L
620 2922 L
620 2892 L
620 2716 L
620 3139 L
620 2693 L
620 2967 L
620 2937 L
620 2943 L
620 3271 L
620 2854 L
620 2773 L
620 3169 L
620 2820 L
620 2817 L
620 2984 L
620 3064 L
620 3056 L
620 3330 L
620 2988 L
620 3146 L
620 2826 L
620 2959 L
620 2715 L
620 3074 L
620 2845 L
620 2849 L
620 3106 L
620 2881 L
620 3153 L
620 2897 L
620 3156 L
620 2807 L
620 3172 L
620 2808 L
620 2834 L
620 2948 L
620 2915 L
620 2798 L
620 3157 L
620 2952 L
620 3048 L
620 2739 L
620 2925 L
620 2864 L
620 3033 L
620 2709 L
620 2861 L
620 3072 L
620 2874 L
620 2917 L
620 3084 L
620 2830 L
620 2929 L
620 3254 L
620 2884 L
620 2963 L
620 3155 L
620 3093 L
620 3143 L
620 2875 L
620 2869 L
620 2958 L
620 2799 L
620 2947 L
620 2898 L
620 2836 L
620 2840 L
620 3075 L
620 2792 L
620 2816 L
620 3109 L
620 2843 L
620 3120 L
620 3141 L
620 3070 L
620 2789 L
620 3083 L
620 2877 L
620 2854 L
620 3250 L
620 2882 L
620 3370 L
620 3382 L
620 2600 L
620 3015 L
620 3019 L
620 2902 L
620 2884 L
620 2888 L
620 2936 L
620 2913 L
620 3102 L
620 3113 L
620 2986 L
620 2807 L
620 2724 L
620 2626 L
620 3153 L
620 3098 L
620 3049 L
620 3138 L
620 2855 L
620 2682 L
620 3024 L
620 2665 L
620 3263 L
620 2892 L
620 3142 L
620 2820 L
620 2898 L
620 2940 L
620 2915 L
620 2985 L
620 2957 L
620 2684 L
620 2936 L
620 2831 L
620 3127 L
620 2927 L
620 3174 L
620 3158 L
620 3051 L
620 2852 L
620 2728 L
620 2914 L
620 2972 L
620 3132 L
620 3192 L
620 2765 L
620 2917 L
620 2965 L
620 2935 L
620 2986 L
620 2844 L
620 3106 L
620 3244 L
620 3191 L
620 3084 L
620 2913 L
620 2836 L
620 3125 L
620 2764 L
620 2936 L
620 2823 L
620 3046 L
620 2953 L
620 2441 L
620 3049 L
620 3048 L
620 2955 L
620 2674 L
620 3067 L
620 3033 L
620 2910 L
620 3055 L
620 2831 L
620 2669 L
620 2912 L
620 2855 L
620 2762 L
620 2946 L
620 3186 L
620 2917 L
620 3087 L
620 2952 L
620 2866 L
620 3216 L
620 2998 L
620 3019 L
620 2768 L
620 2823 L
620 2961 L
620 2892 L
620 3210 L
620 3163 L
620 3111 L
620 2368 L
620 3092 L
620 3072 L
620 3064 L
620 3222 L
620 2923 L
620 2959 L
620 2817 L
620 3170 L
620 2986 L
620 3224 L
620 2997 L
620 2957 L
620 3309 L
620 3002 L
620 2977 L
620 3051 L
620 3150 L
620 2806 L
620 2835 L
620 2702 L
620 2974 L
620 2976 L
620 2658 L
620 2955 L
620 3010 L
620 3094 L
620 3140 L
620 3200 L
620 2525 L
620 3076 L
620 3066 L
620 2800 L
620 3152 L
620 2876 L
620 3233 L
620 2553 L
620 3010 L
620 2897 L
620 3210 L
620 2871 L
620 2953 L
620 3011 L
620 3063 L
620 3007 L
620 2880 L
620 3022 L
620 3299 L
620 3335 L
620 2930 L
620 2990 L
620 2748 L
620 2918 L
620 2917 L
620 2755 L
620 3071 L
620 3126 L
620 3237 L
620 3288 L
620 2520 L
620 2938 L
620 3324 L
620 2725 L
620 2841 L
620 2801 L
620 2992 L
620 2873 L
620 2871 L
620 2822 L
620 3055 L
620 2937 L
620 2669 L
620 3007 L
620 2500 L
620 2637 L
620 2972 L
620 2865 L
620 3015 L
620 2703 L
620 2755 L
620 2735 L
620 3160 L
620 2860 L
620 2988 L
620 3206 L
620 2855 L
620 2969 L
620 2732 L
620 3098 L
620 3149 L
620 3085 L
620 2636 L
620 2723 L
620 2798 L
620 2928 L
620 2925 L
620 2773 L
620 2948 L
620 2762 L
620 2852 L
620 2783 L
620 3028 L
620 3146 L
620 2967 L
620 2874 L
620 2920 L
620 2953 L
620 3249 L
620 2835 L
620 3026 L
620 2850 L
620 2835 L
620 3024 L
620 2704 L
620 3222 L
620 2817 L
620 3349 L
620 3232 L
620 2798 L
620 2982 L
620 2745 L
620 2973 L
620 2817 L
620 3237 L
620 2981 L
620 2425 L
620 3164 L
620 3032 L
620 2588 L
620 2982 L
620 2628 L
620 2956 L
620 3182 L
620 2969 L
620 2917 L
620 2919 L
620 2974 L
620 3003 L
620 3043 L
620 2950 L
620 3093 L
620 3009 L
620 2875 L
620 3022 L
620 2844 L
620 2880 L
620 2996 L
620 2691 L
620 2804 L
620 3064 L
620 2942 L
620 2593 L
620 2702 L
620 2740 L
620 3197 L
620 3069 L
620 2835 L
620 2391 L
620 2965 L
620 3074 L
620 2744 L
620 2987 L
620 2478 L
620 2905 L
620 2802 L
620 2996 L
620 3275 L
620 2866 L
620 2955 L
620 3161 L
620 2868 L
620 3040 L
620 2597 L
620 3312 L
620 2705 L
620 2737 L
620 2946 L
620 2847 L
620 3066 L
620 2845 L
620 2991 L
620 2631 L
620 3330 L
620 2705 L
620 2966 L
620 2822 L
620 2789 L
620 3069 L
620 2410 L
620 3047 L
620 3282 L
620 2914 L
620 2294 L
620 2689 L
620 2773 L
620 2861 L
620 2875 L
620 2876 L
620 3248 L
620 2698 L
620 2632 L
620 2755 L
620 2553 L
620 2407 L
620 2836 L
620 2580 L
620 2941 L
620 2261 L
620 3265 L
620 2974 L
620 2415 L
620 2589 L
620 2903 L
620 2980 L
620 2649 L
620 2759 L
620 2525 L
620 2733 L
620 3076 L
620 2905 L
620 2539 L
620 2799 L
620 2751 L
620 2927 L
620 2626 L
620 2845 L
620 2921 L
620 2769 L
620 2683 L
620 2951 L
620 2615 L
620 2646 L
620 2868 L
620 2750 L
620 2885 L
620 2932 L
620 2924 L
620 2920 L
620 2796 L
620 2710 L
620 2901 L
620 2809 L
620 2704 L
620 2755 L
620 2729 L
620 2838 L
620 2889 L
620 2639 L
620 2979 L
620 2848 L
620 3078 L
620 3065 L
620 2662 L
620 2778 L
620 2810 L
620 2862 L
620 2608 L
620 2845 L
620 2500 L
620 3126 L
620 2778 L
620 2953 L
620 2930 L
620 2959 L
620 2965 L
620 2851 L
620 2790 L
620 3295 L
620 2624 L
620 2523 L
620 3039 L
620 2750 L
620 2743 L
620 2824 L
620 3073 L
620 2976 L
620 2823 L
620 2745 L
620 2726 L
620 2914 L
620 2683 L
620 2936 L
620 2644 L
620 2735 L
620 2903 L
620 3027 L
620 2877 L
620 2987 L
620 3114 L
620 2751 L
620 2767 L
620 2750 L
620 2822 L
620 2864 L
620 2815 L
620 2737 L
620 2789 L
620 2465 L
620 2306 L
620 3078 L
620 3071 L
620 2643 L
620 3211 L
620 2581 L
620 3029 L
620 2438 L
620 3226 L
620 2721 L
620 2951 L
620 3074 L
620 2905 L
620 2565 L
620 2746 L
620 2948 L
620 2999 L
620 2730 L
620 2869 L
620 3035 L
620 2847 L
620 2921 L
620 2925 L
620 2607 L
620 2710 L
620 2827 L
620 2266 L
620 3029 L
620 2509 L
620 2461 L
620 2740 L
620 2837 L
620 2522 L
620 2473 L
620 2629 L
620 2954 L
620 2746 L
620 2584 L
620 2691 L
620 2756 L
620 2444 L
620 2944 L
620 2973 L
620 2798 L
620 2983 L
620 2937 L
620 3100 L
620 3061 L
620 2603 L
620 2804 L
620 2694 L
620 2642 L
620 2950 L
620 3145 L
620 2519 L
620 2619 L
620 2769 L
620 2635 L
620 3083 L
620 2204 L
620 2824 L
620 2759 L
620 2311 L
620 2963 L
620 3090 L
620 3246 L
620 3174 L
620 2892 L
620 3281 L
620 2804 L
620 2892 L
620 2856 L
620 2541 L
620 2652 L
620 2629 L
620 3116 L
620 2519 L
620 2473 L
620 2736 L
620 2908 L
620 2623 L
620 2846 L
620 2756 L
620 2496 L
620 2353 L
620 2902 L
620 2587 L
620 2999 L
620 2412 L
620 2915 L
620 3090 L
620 2720 L
620 2460 L
620 2733 L
620 2613 L
620 2837 L
620 2898 L
620 2623 L
620 2723 L
620 2554 L
620 3194 L
620 2730 L
620 2807 L
620 2782 L
620 3077 L
620 2532 L
620 2769 L
620 2642 L
620 2869 L
620 2639 L
620 2678 L
620 2454 L
620 2853 L
620 2649 L
620 2752 L
620 2820 L
620 2739 L
620 2872 L
620 2723 L
620 2788 L
620 2769 L
620 2847 L
620 3142 L
620 2739 L
620 2632 L
620 3022 L
620 2762 L
620 2911 L
620 2941 L
620 2590 L
620 2885 L
620 2515 L
620 3090 L
620 2447 L
620 2538 L
620 2438 L
620 2925 L
620 2564 L
620 2996 L
620 2840 L
620 2152 L
620 2704 L
620 2911 L
620 2581 L
620 3015 L
620 2717 L
620 2902 L
620 2765 L
620 2648 L
620 2136 L
620 2908 L
620 2499 L
620 3077 L
620 2749 L
620 2856 L
620 2996 L
620 2185 L
620 2548 L
620 2525 L
620 2687 L
620 2960 L
620 2655 L
620 2383 L
620 2908 L
620 2606 L
620 2454 L
620 2577 L
620 2327 L
620 2733 L
620 2872 L
620 2934 L
620 2707 L
620 2976 L
620 2953 L
620 2499 L
620 2895 L
620 2571 L
620 2652 L
620 2944 L
620 2408 L
620 2554 L
620 2772 L
620 3032 L
620 2577 L
620 2483 L
620 2457 L
620 2642 L
620 2749 L
620 2765 L
620 2470 L
620 2700 L
620 2817 L
620 2746 L
620 2941 L
620 2882 L
620 2830 L
620 2253 L
620 2785 L
620 2499 L
620 3194 L
620 2814 L
620 2752 L
620 2814 L
620 2710 L
620 2386 L
620 2788 L
620 2889 L
620 2798 L
620 2798 L
620 2464 L
620 2502 L
620 2707 L
620 2502 L
620 2681 L
620 2473 L
620 2568 L
620 2684 L
620 2613 L
620 2678 L
620 2714 L
620 2707 L
620 2587 L
620 2811 L
620 2885 L
620 2720 L
620 2824 L
620 2885 L
620 2820 L
620 2603 L
620 2798 L
620 2671 L
620 2519 L
620 2584 L
620 2928 L
L2 C02 COSGR

%
%================
% Legend - Begin
%================
%
GSN 4240 5180 M
4480 5180 L
LWMC SL  C02 COSGR
GSN 4540 5141 M helvM (1.0 uM) show grestore
%
%================
% Legend - End
%================
%

%
% Main frame
%
L10
GSN 
620 1700 M
4220 1700 L
4220 5300 L
620 5300 L
closepath SGR

%
% X axis: large tics
%
L10
%
% X axis: small tics
%
L5
%
% Y axis: large tics
%
L10
GSN 620 1898 M 54 0 rL SGR
GSN 4220 1898 M -54 0 rL SGR
helvS (-0.02) 560 1898 ylabel
GSN 620 3174 M 54 0 rL SGR
GSN 4220 3174 M -54 0 rL SGR
helvS (0) 560 3174 ylabel
GSN 620 4450 M 54 0 rL SGR
GSN 4220 4450 M -54 0 rL SGR
helvS (0.02) 560 4450 ylabel
%
% Y axis: small tics
%
L5
GSN 620 1898 M 36 0 rL SGR
GSN 4220 1898 M -36 0 rL SGR
GSN 620 2217 M 36 0 rL SGR
GSN 4220 2217 M -36 0 rL SGR
GSN 620 2536 M 36 0 rL SGR
GSN 4220 2536 M -36 0 rL SGR
GSN 620 2855 M 36 0 rL SGR
GSN 4220 2855 M -36 0 rL SGR
GSN 620 3174 M 36 0 rL SGR
GSN 4220 3174 M -36 0 rL SGR
GSN 620 3493 M 36 0 rL SGR
GSN 4220 3493 M -36 0 rL SGR
GSN 620 3812 M 36 0 rL SGR
GSN 4220 3812 M -36 0 rL SGR
GSN 620 4131 M 36 0 rL SGR
GSN 4220 4131 M -36 0 rL SGR
GSN 620 4450 M 36 0 rL SGR
GSN 4220 4450 M -36 0 rL SGR
GSN 620 4769 M 36 0 rL SGR
GSN 4220 4769 M -36 0 rL SGR
GSN 620 5088 M 36 0 rL SGR
GSN 4220 5088 M -36 0 rL SGR

%
% X axis - residual panel
%
GSN L5 620 3174 M 4220 3174 L SDA G50 SGR

%
% X-Axis label:
%
gsave 620 1370 M 
[
[(Helvetica) 180 0 true true 0 (t)]
[(Helvetica) 180 0 true true 0 (i)]
[(Helvetica) 180 0 true true 0 (m)]
[(Helvetica) 180 0 true true 0 (e)]
] 0 MCshow grestore

%
% Y-Axis label:
%
gsave 234 3500 M 
currentpoint gsave translate 90 rotate 0 0 moveto
[
[(Helvetica) 180 0 true true 0 (r)]
[(Helvetica) 180 0 true true 0 (e)]
[(Helvetica) 180 0 true true 0 (s)]
[(Helvetica) 180 0 true true 0 (i)]
[(Helvetica) 180 0 true true 0 (d)]
[(Helvetica) 180 0 true true 0 (u)]
[(Helvetica) 180 0 true true 0 (a)]
[(Helvetica) 180 0 true true 0 (l)]
[(Helvetica) 180 0 true true 0 (s)]
] 0 MCshow grestore

end
showpage
%%Trailer
%%EOF
