%!PS-Adobe-3.0 EPSF-3.0
%%BoundingBox: 0 0 514 550
%%Creator: BioKin Ltd.
%%DocumentFonts: Symbol Helvetica
%%EndComments
%
/bkdict 256 dict def
bkdict begin
/M {moveto} def 
/R {rmoveto} def
/L {lineto} def
/rL {rlineto} def
/GSN {gsave newpath} def
/SGR {stroke grestore} def
/COSGR {gsave setrgbcolor stroke grestore grestore} def
/SL {setlinewidth} def
/LWMB {12} def             % line width - model curves, black & white
/LWMC {10} def             % line width - model curves, color
/L2 {2.5 setlinewidth} def
/L5 {5 setlinewidth} def
/L10 {10 setlinewidth} def
/G50 {0.5 setgray} def
/SDA {[10  20] 0 setdash} def % axes
/helvT {/Helvetica findfont 100 scalefont setfont} def % tiny
/helvS {/Helvetica findfont 125 scalefont setfont} def % small
/helvM {/Helvetica findfont 150 scalefont setfont} def % medium
/helvL {/Helvetica findfont 175 scalefont setfont} def % large
/xlabel {gsave M dup
   stringwidth exch -0.5 mul exch rmoveto show grestore} def 
/ylabel {gsave M 90 rotate dup
   stringwidth exch -0.5 mul exch rmoveto show grestore} def
/ylabelresid {gsave M dup
   stringwidth exch -1 mul exch rmoveto show grestore} def
% ======
% Shapes
% ======
% Circle:
/Circ {0 360 arc closepath} def
%
% Square:
/Squa {dup dup -0.5 mul dup dup R -2 mul 0 exch rL 1 mul 0 rL dup 0 exch -1 mul rL closepath} def
%
% Triangle Up:
/TriU {dup dup dup -0.4 mul exch -0.5 mul exch R dup 0.5 mul exch rL dup -1 mul exch 0.5 mul exch rL closepath} def 
%
% Triangle Down:
/TriD {dup dup dup 0.4 mul exch -0.5 mul exch R dup 0.5 mul exch -1 mul rL dup 0.5 mul exch rL closepath} def 
%
% Diamond:
/Diam {45 rotate Squa} def
% ======
% Fills
% ======
/GRF {gsave setgray fill grestore} def                    % gray-level Fill
/COF {gsave setrgbcolor fill grestore} def                % color fill
% ======
% Colors
% ======
/C01 {1.00	0.00	0.00} def      % Red
/C02 {0.00	0.00	1.00} def      % Blue
/C03 {0.00	0.39	0.00} def      % Dark Green
/C04 {0.78	0.08	0.52} def      % Medium Violet Red
/C05 {0.55	0.27	0.07} def      % Saddle Brown
/C06 {0.10	0.70	0.70} def      % (cyan)
/C07 {1.00	0.55	0.00} def      % Dark Orange
/C08 {0.63	0.13	0.94} def      % Purple
/C09 {0.00	0.75	1.00} def      % Deep Sky Blue
/C10 {0.20	0.80	0.20} def      % Lime Green
/C11 {0.47	0.53	0.60} def      % Light Slate Gray
/C12 {0.00	0.00	0.00} def      % Black            % or: {0.19	0.31	0.31} def      % Dark Slate Gray
%
/LGR {0.75} def % light gray
/DGR {0.33} def % dark gray
%
% =============
% Dash patterns
% =============
/dash01 { [80  20] 0 setdash } def
/dash02 { [40  20] 0 setdash } def
/dash03 { [80  20  10  20] 0 setdash } def
/dash04 { [40  20  10  20] 0 setdash } def
/dash05 { [80  20  10  10  10  20] 0 setdash } def
/dash06 { [40  20  10  10  10  20] 0 setdash } def
/dash07 { [10  10] 0 setdash } def
%
/MFshow {
   { dup 5 get 3 ge
     { 5 get 3 eq {gsave} {grestore} ifelse }
     {dup dup 0 get findfont exch 1 get scalefont setfont
     [ currentpoint ] exch dup 2 get 0 exch R dup 5 get 2 ne {dup dup 6
     get exch 4 get {show} {stringwidth pop 0 R} ifelse }if dup 5 get 0 eq
     {dup 3 get {2 get neg 0 exch R pop} {pop aload pop M} ifelse} {dup 5
     get 1 eq {dup 2 get exch dup 3 get exch 6 get stringwidth pop -2 div
     dup 0 R} {dup 6 get stringwidth pop -2 div 0 R 6 get
     show 2 index {aload pop M neg 3 -1 roll neg R pop pop} {pop pop pop
     pop aload pop M} ifelse }ifelse }ifelse }
     ifelse }
   forall} bind def
/MFwidth {0 exch {dup 3 get{dup dup 0 get findfont exch 1 get scalefont
     setfont 6 get stringwidth pop add} {pop} ifelse} forall} bind def
/MCshow { currentpoint stroke M
  exch dup MFwidth -2 div 3 -1 roll R MFshow } def
%
end
%%EndProlog
bkdict begin
0.1 0.1 scale
%
% Model curves:
%

GSN 753 5166 M
753 5166 L
786 5125 L
820 5079 L
853 5027 L
886 4968 L
903 4936 L
919 4903 L
953 4831 L
986 4752 L
1020 4665 L
1053 4571 L
1053 4571 L
1086 4471 L
1120 4365 L
1153 4253 L
1186 4138 L
1203 4078 L
1220 4019 L
1253 3900 L
1286 3781 L
1320 3665 L
1353 3552 L
1353 3551 L
1386 3446 L
1420 3346 L
1453 3255 L
1486 3173 L
1503 3135 L
1520 3102 L
1553 3041 L
1586 2991 L
1620 2952 L
1653 2922 L
1653 2921 L
1686 2901 L
1720 2886 L
1753 2877 L
1786 2873 L
1804 2871 L
1820 2870 L
1853 2869 L
1886 2869 L
1920 2868 L
1953 2868 L
1954 2868 L
1986 2868 L
2020 2868 L
2053 2868 L
2086 2868 L
2104 2868 L
2120 2868 L
2153 2868 L
2186 2868 L
2220 2868 L
2253 2868 L
2254 2868 L
2286 2868 L
2320 2868 L
2353 2868 L
2386 2868 L
2404 2868 L
2420 2868 L
2453 2868 L
2486 2868 L
2520 2868 L
2553 2868 L
2554 2868 L
2586 2868 L
2620 2868 L
2653 2868 L
2686 2868 L
2704 2868 L
2720 2868 L
2753 2868 L
2786 2868 L
2820 2868 L
2853 2868 L
2854 2868 L
2886 2868 L
2920 2868 L
2953 2868 L
2986 2868 L
3004 2868 L
3020 2868 L
3053 2868 L
3068 2868 L
3086 2868 L
3120 2868 L
3153 2868 L
3155 2868 L
3186 2868 L
3220 2868 L
3253 2868 L
3286 2868 L
3305 2868 L
3320 2868 L
3353 2868 L
3386 2868 L
3420 2868 L
3453 2868 L
3455 2868 L
3486 2868 L
3520 2868 L
3553 2868 L
3586 2868 L
3605 2868 L
3620 2868 L
3653 2868 L
3686 2868 L
3720 2868 L
3753 2868 L
3755 2868 L
3786 2868 L
3820 2868 L
3853 2868 L
3886 2868 L
3905 2868 L
3920 2868 L
3953 2868 L
3986 2868 L
4020 2868 L
4053 2868 L
4086 2868 L
LWMC SL  C01 COSGR

%
% Experimental data:
%
GSN 773 4969 M
1625 4547 L
1773 4622 L
1860 4963 L
1922 4768 L
1970 4614 L
2009 4634 L
2043 4623 L
2072 4666 L
2097 4564 L
2120 4585 L
2140 4258 L
2159 4797 L
2176 4328 L
2192 4526 L
2207 4605 L
2221 4526 L
2234 4588 L
2247 4197 L
2259 4360 L
2270 4261 L
2280 4087 L
2290 4159 L
2300 4270 L
2309 4028 L
2318 4323 L
2326 4483 L
2335 4244 L
2342 4392 L
2350 4142 L
2357 3982 L
2364 3623 L
2371 3825 L
2378 3859 L
2384 4139 L
2391 4124 L
2397 3935 L
2403 3950 L
2409 4049 L
2414 4028 L
2420 4168 L
2425 4375 L
2430 3723 L
2435 3860 L
2440 3490 L
2445 3653 L
2450 3501 L
2455 3816 L
2459 3830 L
2464 3746 L
2468 3845 L
2472 3935 L
2476 3443 L
2481 2966 L
2485 3245 L
2489 3527 L
2492 3723 L
2496 3947 L
2500 3528 L
2504 3370 L
2507 3219 L
2511 3673 L
2514 3166 L
2518 3335 L
2521 3661 L
2525 3565 L
2528 3129 L
2531 3402 L
2534 3373 L
2538 3198 L
2541 3149 L
2544 3528 L
2547 3274 L
2550 3388 L
2553 3123 L
2556 3365 L
2559 3376 L
2561 3324 L
2564 3227 L
2567 3234 L
2570 3315 L
2580 3044 L
2590 2995 L
2600 3091 L
2609 3198 L
2618 3120 L
2627 3155 L
2635 3178 L
2643 2706 L
2650 2794 L
2658 2864 L
2665 3309 L
2672 2715 L
2678 2345 L
2685 3041 L
2691 2616 L
2697 2881 L
2703 2462 L
2709 2843 L
2714 2721 L
2720 2543 L
2725 2377 L
2730 2718 L
2735 2555 L
2740 2007 L
2745 2502 L
2750 2549 L
2755 2045 L
2759 2602 L
2764 2374 L
2768 2671 L
2772 2200 L
2777 2709 L
2781 2695 L
2785 2584 L
2789 2404 L
2793 2418 L
2796 2462 L
2800 2278 L
2804 2354 L
2808 2462 L
2811 2433 L
2815 2404 L
2818 2089 L
2822 2310 L
2825 2258 L
2828 2063 L
2831 2223 L
2835 2479 L
2838 2104 L
2841 2360 L
2844 2121 L
2847 2144 L
2850 2069 L
2853 2249 L
2856 2197 L
2859 2124 L
2862 2144 L
2864 2372 L
2867 2072 L
2870 2252 L
2873 2034 L
2875 2095 L
2878 2156 L
2880 2103 L
2883 2063 L
2886 2010 L
2888 2054 L
2891 2025 L
2893 2206 L
2895 2307 L
2898 2080 L
2900 2296 L
2902 2590 L
2905 2089 L
2907 2016 L
2909 2045 L
2912 2398 L
2914 2197 L
2916 2188 L
2918 2619 L
2920 2517 L
2922 1972 L
2925 2345 L
2927 2077 L
2929 2316 L
2931 2313 L
2933 2290 L
2935 2334 L
2937 2331 L
2939 2473 L
2941 2089 L
2943 2581 L
2945 2561 L
2947 2386 L
2948 2715 L
2950 1833 L
2952 2177 L
2954 2488 L
2956 2191 L
2958 2275 L
2959 2296 L
2961 2284 L
2963 2398 L
2965 1891 L
2966 2430 L
2968 2558 L
2970 3094 L
2972 2328 L
2973 2927 L
2975 2045 L
2977 2634 L
2978 2502 L
2980 2069 L
2982 2470 L
2983 2552 L
2985 2506 L
2986 2179 L
2988 2502 L
2989 2281 L
2991 2337 L
2993 2360 L
2994 2488 L
2996 2552 L
2997 2211 L
2999 2290 L
3000 2275 L
3002 2680 L
3003 2584 L
3005 2214 L
3006 2584 L
3007 2444 L
3009 2607 L
3010 2846 L
3012 2718 L
3013 2660 L
3014 2698 L
3016 2706 L
3017 2931 L
3019 2523 L
3020 2596 L
3021 2887 L
3023 2750 L
3024 2439 L
3025 2485 L
3027 2779 L
3028 2398 L
3029 2817 L
3031 2200 L
3032 2479 L
3033 2695 L
3034 2890 L
3036 2852 L
3037 2671 L
3038 2639 L
3039 2494 L
3041 2491 L
3042 2590 L
3043 2485 L
3044 2703 L
3045 2427 L
3047 2401 L
3048 2383 L
3049 2607 L
3050 2540 L
3051 2535 L
3053 2619 L
3054 2406 L
3055 2657 L
3056 2878 L
3057 2765 L
3058 2386 L
3059 2919 L
3061 3038 L
3062 2732 L
3063 2508 L
3064 2430 L
3065 2625 L
3066 2622 L
3067 2406 L
3068 2270 L
3069 2462 L
3070 2235 L
3071 2392 L
3073 3123 L
3074 2902 L
3075 2666 L
3076 2709 L
3077 3076 L
3078 3012 L
3079 2683 L
3080 2293 L
3081 2322 L
3082 2980 L
3083 3079 L
3084 2703 L
3085 3068 L
3086 2872 L
3087 2401 L
3088 2706 L
3089 2465 L
3112 2610 L
3133 2814 L
3152 2738 L
3170 2607 L
3186 2974 L
3201 2555 L
3216 2919 L
3229 3047 L
3241 2896 L
3253 2785 L
3264 2998 L
3275 3032 L
3285 2951 L
3295 3123 L
3304 3193 L
3313 2776 L
3322 2913 L
3330 2750 L
3338 3036 L
3346 2523 L
3353 2727 L
3360 2736 L
3367 2782 L
3374 3070 L
3380 2759 L
3387 2971 L
3393 3257 L
3399 2837 L
3405 2881 L
3410 2835 L
3416 3035 L
3421 2698 L
3426 2773 L
3431 2843 L
3436 2858 L
3441 2814 L
3446 2834 L
3451 3015 L
3455 2572 L
3460 3227 L
3464 3309 L
3469 2732 L
3473 3018 L
3477 2398 L
3481 2843 L
3485 3201 L
3489 2654 L
3493 2520 L
3496 2756 L
3500 2974 L
3504 3254 L
3507 2817 L
3511 2532 L
3514 2800 L
3518 2846 L
3521 3099 L
3525 2736 L
3528 2808 L
3531 2712 L
3534 2616 L
3537 3021 L
3540 2861 L
3543 2665 L
3546 2969 L
3549 2776 L
3552 2896 L
3555 3140 L
3558 2721 L
3561 2602 L
3564 3053 L
3566 2965 L
3575 2569 L
3586 2581 L
3595 2794 L
3605 2537 L
3613 2756 L
3622 2852 L
3630 2744 L
3638 3289 L
3646 2491 L
3653 2954 L
3660 2951 L
3667 3222 L
3674 2660 L
3681 2762 L
3687 2674 L
3693 2902 L
3699 2505 L
3705 2753 L
3710 2654 L
3716 2695 L
3721 2931 L
3727 2523 L
3732 3032 L
3737 3111 L
3742 2835 L
3746 2633 L
3751 2517 L
3756 2995 L
3760 2840 L
3764 2980 L
3769 2459 L
3773 2756 L
3777 2855 L
3781 2750 L
3785 2855 L
3789 2683 L
3793 3047 L
3797 2724 L
3800 2884 L
3804 2782 L
3808 2840 L
3811 2849 L
3815 2765 L
3818 2791 L
3821 3035 L
3825 2570 L
3828 2718 L
3831 2899 L
3834 2983 L
3838 2596 L
3841 3012 L
3844 2826 L
3847 3155 L
3850 2485 L
3853 3047 L
3855 2893 L
3858 2785 L
3861 2648 L
3864 2799 L
3867 2829 L
3869 3009 L
3872 2983 L
3875 2470 L
3877 2581 L
3880 2770 L
3882 2628 L
3885 2829 L
3887 3018 L
3890 2468 L
3892 2575 L
3895 2590 L
3897 2939 L
3899 2377 L
3902 2698 L
3904 2543 L
3906 2736 L
3908 2806 L
3911 2907 L
3913 2977 L
3915 2858 L
3917 2677 L
3919 2916 L
3921 2916 L
3923 2904 L
3926 2837 L
3928 2727 L
3930 2322 L
3932 2636 L
3934 3161 L
3936 3032 L
3938 2750 L
3940 2875 L
3942 3021 L
3943 2374 L
3945 2933 L
3947 2901 L
3949 2488 L
3951 2823 L
3953 2409 L
3955 2730 L
3956 3015 L
3958 3097 L
3960 2651 L
3962 3175 L
3963 2537 L
3965 2829 L
3967 2805 L
3969 3143 L
3970 2497 L
3972 3056 L
3974 3015 L
3975 2832 L
3977 2706 L
3978 2770 L
3980 2712 L
3982 3146 L
3983 2703 L
3985 2864 L
3986 3053 L
3988 2759 L
3990 2826 L
3991 2750 L
3993 3181 L
3994 2747 L
3996 2593 L
3997 3047 L
3999 2922 L
4000 2994 L
4001 2584 L
4003 2960 L
4004 2904 L
4006 3088 L
4007 3161 L
4009 3018 L
4010 2794 L
4011 2936 L
4013 2820 L
4014 2942 L
4016 3341 L
4017 2878 L
4018 3018 L
4020 2736 L
4021 2995 L
4022 2776 L
4024 2904 L
4025 2893 L
4026 2965 L
4028 2654 L
4029 2741 L
4030 2517 L
4031 2989 L
4033 3329 L
4034 2363 L
4035 3149 L
4036 2823 L
4038 2727 L
4039 3024 L
4040 3097 L
4041 2779 L
4042 3172 L
4044 3030 L
4045 2727 L
4046 2881 L
4047 2849 L
4048 2899 L
4050 3137 L
4051 3003 L
4052 2814 L
4053 3411 L
4054 2829 L
4055 2861 L
4056 3059 L
4058 3012 L
4059 2549 L
4060 2881 L
4061 2453 L
4062 2768 L
4063 2939 L
4064 3041 L
4065 2736 L
4066 2998 L
L2 C01 COSGR

%
%================
% Legend - Begin
%================
%
GSN 4240 5180 M
4480 5180 L
LWMC SL  C01 COSGR
GSN 4540 5141 M helvM (0.5 uM) show grestore
%
%================
% Legend - End
%================
%

%
% Residuals:
%
GSN 773 976 M
1625 1439 L
1773 1478 L
1860 1569 L
1922 1518 L
1970 1477 L
2009 1483 L
2043 1480 L
2072 1491 L
2097 1464 L
2120 1470 L
2140 1384 L
2159 1525 L
2176 1403 L
2192 1455 L
2207 1475 L
2221 1455 L
2234 1471 L
2247 1369 L
2259 1411 L
2270 1385 L
2280 1340 L
2290 1359 L
2300 1388 L
2309 1324 L
2318 1401 L
2326 1443 L
2335 1381 L
2342 1419 L
2350 1354 L
2357 1312 L
2364 1218 L
2371 1271 L
2378 1280 L
2384 1353 L
2391 1349 L
2397 1300 L
2403 1304 L
2409 1330 L
2414 1324 L
2420 1361 L
2425 1415 L
2430 1244 L
2435 1280 L
2440 1184 L
2445 1226 L
2450 1187 L
2455 1269 L
2459 1273 L
2464 1251 L
2468 1276 L
2472 1300 L
2476 1171 L
2481 1047 L
2485 1120 L
2489 1193 L
2492 1244 L
2496 1303 L
2500 1193 L
2504 1152 L
2507 1113 L
2511 1231 L
2514 1099 L
2518 1143 L
2521 1228 L
2525 1203 L
2528 1089 L
2531 1161 L
2534 1153 L
2538 1107 L
2541 1094 L
2544 1193 L
2547 1127 L
2550 1157 L
2553 1088 L
2556 1151 L
2559 1154 L
2561 1140 L
2564 1115 L
2567 1117 L
2570 1138 L
2580 1067 L
2590 1054 L
2600 1079 L
2609 1107 L
2618 1087 L
2627 1096 L
2635 1102 L
2643 979 L
2650 1002 L
2658 1020 L
2665 1136 L
2672 981 L
2678 884 L
2685 1066 L
2691 955 L
2697 1024 L
2703 915 L
2709 1015 L
2714 983 L
2720 936 L
2725 893 L
2730 982 L
2735 939 L
2740 796 L
2745 925 L
2750 938 L
2755 806 L
2759 951 L
2764 892 L
2768 970 L
2772 846 L
2777 979 L
2781 976 L
2785 947 L
2789 900 L
2793 903 L
2796 915 L
2800 867 L
2804 887 L
2808 915 L
2811 907 L
2815 900 L
2818 817 L
2822 875 L
2825 862 L
2828 811 L
2831 852 L
2835 919 L
2838 821 L
2841 888 L
2844 826 L
2847 832 L
2850 812 L
2853 859 L
2856 846 L
2859 827 L
2862 832 L
2864 891 L
2867 813 L
2870 860 L
2873 803 L
2875 819 L
2878 835 L
2880 821 L
2883 811 L
2886 797 L
2888 808 L
2891 801 L
2893 848 L
2895 874 L
2898 815 L
2900 871 L
2902 948 L
2905 817 L
2907 798 L
2909 806 L
2912 898 L
2914 846 L
2916 843 L
2918 956 L
2920 929 L
2922 787 L
2925 884 L
2927 814 L
2929 877 L
2931 876 L
2933 870 L
2935 881 L
2937 881 L
2939 918 L
2941 817 L
2943 946 L
2945 941 L
2947 895 L
2948 981 L
2950 750 L
2952 840 L
2954 922 L
2956 844 L
2958 866 L
2959 871 L
2961 868 L
2963 898 L
2965 766 L
2966 906 L
2968 940 L
2970 1080 L
2972 880 L
2973 1037 L
2975 806 L
2977 960 L
2978 925 L
2980 812 L
2982 917 L
2983 938 L
2985 926 L
2986 841 L
2988 925 L
2989 868 L
2991 882 L
2993 888 L
2994 922 L
2996 938 L
2997 849 L
2999 870 L
3000 866 L
3002 972 L
3003 947 L
3005 850 L
3006 947 L
3007 910 L
3009 953 L
3010 1015 L
3012 982 L
3013 967 L
3014 976 L
3016 979 L
3017 1037 L
3019 931 L
3020 950 L
3021 1026 L
3023 990 L
3024 909 L
3025 921 L
3027 998 L
3028 898 L
3029 1008 L
3031 846 L
3032 919 L
3033 976 L
3034 1027 L
3036 1017 L
3037 970 L
3038 961 L
3039 923 L
3041 922 L
3042 948 L
3043 921 L
3044 978 L
3045 906 L
3047 899 L
3048 894 L
3049 953 L
3050 935 L
3051 934 L
3053 956 L
3054 900 L
3055 966 L
3056 1024 L
3057 994 L
3058 895 L
3059 1034 L
3061 1065 L
3062 986 L
3063 927 L
3064 906 L
3065 957 L
3066 957 L
3067 900 L
3068 865 L
3069 915 L
3070 855 L
3071 897 L
3073 1088 L
3074 1030 L
3075 968 L
3076 979 L
3077 1075 L
3078 1059 L
3079 973 L
3080 871 L
3081 878 L
3082 1050 L
3083 1076 L
3084 978 L
3085 1073 L
3086 1022 L
3087 899 L
3088 979 L
3089 916 L
3112 954 L
3133 1007 L
3152 987 L
3170 953 L
3186 1049 L
3201 939 L
3216 1034 L
3229 1068 L
3241 1028 L
3253 999 L
3264 1055 L
3275 1064 L
3285 1043 L
3295 1088 L
3304 1106 L
3313 997 L
3322 1033 L
3330 990 L
3338 1065 L
3346 931 L
3353 984 L
3360 986 L
3367 999 L
3374 1074 L
3380 992 L
3387 1048 L
3393 1123 L
3399 1013 L
3405 1024 L
3410 1012 L
3416 1065 L
3421 976 L
3426 996 L
3431 1015 L
3436 1018 L
3441 1007 L
3446 1012 L
3451 1059 L
3455 944 L
3460 1115 L
3464 1136 L
3469 986 L
3473 1060 L
3477 898 L
3481 1015 L
3485 1108 L
3489 965 L
3493 930 L
3496 992 L
3500 1049 L
3504 1122 L
3507 1008 L
3511 933 L
3514 1003 L
3518 1015 L
3521 1082 L
3525 986 L
3528 1005 L
3531 980 L
3534 955 L
3537 1061 L
3540 1019 L
3543 968 L
3546 1047 L
3549 997 L
3552 1028 L
3555 1092 L
3558 983 L
3561 951 L
3564 1069 L
3566 1046 L
3575 943 L
3586 946 L
3595 1002 L
3605 935 L
3613 992 L
3622 1017 L
3630 989 L
3638 1131 L
3646 922 L
3653 1043 L
3660 1043 L
3667 1113 L
3674 967 L
3681 993 L
3687 970 L
3693 1030 L
3699 926 L
3705 991 L
3710 965 L
3716 976 L
3721 1037 L
3727 931 L
3732 1064 L
3737 1085 L
3742 1012 L
3746 960 L
3751 929 L
3756 1054 L
3760 1014 L
3764 1050 L
3769 914 L
3773 992 L
3777 1018 L
3781 990 L
3785 1018 L
3789 973 L
3793 1068 L
3797 983 L
3800 1025 L
3804 999 L
3808 1014 L
3811 1016 L
3815 994 L
3818 1001 L
3821 1065 L
3825 943 L
3828 982 L
3831 1029 L
3834 1051 L
3838 950 L
3841 1059 L
3844 1010 L
3847 1096 L
3850 921 L
3853 1068 L
3855 1027 L
3858 999 L
3861 964 L
3864 1003 L
3867 1011 L
3869 1058 L
3872 1051 L
3875 917 L
3877 946 L
3880 995 L
3882 958 L
3885 1011 L
3887 1060 L
3890 916 L
3892 945 L
3895 948 L
3897 1040 L
3899 893 L
3902 976 L
3904 936 L
3906 986 L
3908 1005 L
3911 1031 L
3913 1050 L
3915 1018 L
3917 971 L
3919 1034 L
3921 1034 L
3923 1031 L
3926 1013 L
3928 984 L
3930 878 L
3932 960 L
3934 1097 L
3936 1064 L
3938 990 L
3940 1023 L
3942 1061 L
3943 892 L
3945 1038 L
3947 1030 L
3949 922 L
3951 1009 L
3953 901 L
3955 985 L
3956 1059 L
3958 1081 L
3960 964 L
3962 1101 L
3963 935 L
3965 1011 L
3967 1005 L
3969 1093 L
3970 924 L
3972 1070 L
3974 1059 L
3975 1012 L
3977 979 L
3978 995 L
3980 980 L
3982 1094 L
3983 978 L
3985 1020 L
3986 1069 L
3988 992 L
3990 1010 L
3991 990 L
3993 1103 L
3994 989 L
3996 949 L
3997 1068 L
3999 1035 L
4000 1054 L
4001 947 L
4003 1045 L
4004 1031 L
4006 1078 L
4007 1097 L
4009 1060 L
4010 1002 L
4011 1039 L
4013 1008 L
4014 1040 L
4016 1145 L
4017 1024 L
4018 1060 L
4020 986 L
4021 1054 L
4022 997 L
4024 1031 L
4025 1027 L
4026 1046 L
4028 965 L
4029 988 L
4030 929 L
4031 1053 L
4033 1142 L
4034 889 L
4035 1094 L
4036 1009 L
4038 984 L
4039 1062 L
4040 1081 L
4041 998 L
4042 1101 L
4044 1063 L
4045 984 L
4046 1024 L
4047 1016 L
4048 1029 L
4050 1091 L
4051 1056 L
4052 1007 L
4053 1163 L
4054 1011 L
4055 1019 L
4056 1071 L
4058 1059 L
4059 938 L
4060 1024 L
4061 912 L
4062 995 L
4063 1040 L
4064 1066 L
4065 986 L
4066 1055 L
L2 C01 COSGR

%
% Main frame
%
L10
GSN 
620 1700 M
4220 1700 L
4220 5300 L
620 5300 L
closepath SGR

%
% X axis: large tics
%
L10
GSN 1074 1700 M 0  54 rL SGR
GSN 1074 5300 M 0 -54 rL SGR
helvS (0.0001) 1074 470 xlabel
GSN 1572 1700 M 0  54 rL SGR
GSN 1572 5300 M 0 -54 rL SGR
helvS (0.001) 1572 470 xlabel
GSN 2071 1700 M 0  54 rL SGR
GSN 2071 5300 M 0 -54 rL SGR
helvS (0.01) 2071 470 xlabel
GSN 2570 1700 M 0  54 rL SGR
GSN 2570 5300 M 0 -54 rL SGR
helvS (0.1) 2570 470 xlabel
GSN 3068 1700 M 0  54 rL SGR
GSN 3068 5300 M 0 -54 rL SGR
helvS (1) 3068 470 xlabel
GSN 3567 1700 M 0  54 rL SGR
GSN 3567 5300 M 0 -54 rL SGR
helvS (10) 3567 470 xlabel
GSN 4066 1700 M 0  54 rL SGR
GSN 4066 5300 M 0 -54 rL SGR
helvS (100) 4066 470 xlabel
%
% X axis: small tics
%
L5
GSN 725 1700 M 0  36 rL SGR
GSN 725 5300 M 0 -36 rL SGR
GSN 813 1700 M 0  36 rL SGR
GSN 813 5300 M 0 -36 rL SGR
GSN 875 1700 M 0  36 rL SGR
GSN 875 5300 M 0 -36 rL SGR
GSN 924 1700 M 0  36 rL SGR
GSN 924 5300 M 0 -36 rL SGR
GSN 963 1700 M 0  36 rL SGR
GSN 963 5300 M 0 -36 rL SGR
GSN 996 1700 M 0  36 rL SGR
GSN 996 5300 M 0 -36 rL SGR
GSN 1025 1700 M 0  36 rL SGR
GSN 1025 5300 M 0 -36 rL SGR
GSN 1051 1700 M 0  36 rL SGR
GSN 1051 5300 M 0 -36 rL SGR
GSN 1224 1700 M 0  36 rL SGR
GSN 1224 5300 M 0 -36 rL SGR
GSN 1312 1700 M 0  36 rL SGR
GSN 1312 5300 M 0 -36 rL SGR
GSN 1374 1700 M 0  36 rL SGR
GSN 1374 5300 M 0 -36 rL SGR
GSN 1422 1700 M 0  36 rL SGR
GSN 1422 5300 M 0 -36 rL SGR
GSN 1462 1700 M 0  36 rL SGR
GSN 1462 5300 M 0 -36 rL SGR
GSN 1495 1700 M 0  36 rL SGR
GSN 1495 5300 M 0 -36 rL SGR
GSN 1524 1700 M 0  36 rL SGR
GSN 1524 5300 M 0 -36 rL SGR
GSN 1550 1700 M 0  36 rL SGR
GSN 1550 5300 M 0 -36 rL SGR
GSN 1722 1700 M 0  36 rL SGR
GSN 1722 5300 M 0 -36 rL SGR
GSN 1810 1700 M 0  36 rL SGR
GSN 1810 5300 M 0 -36 rL SGR
GSN 1873 1700 M 0  36 rL SGR
GSN 1873 5300 M 0 -36 rL SGR
GSN 1921 1700 M 0  36 rL SGR
GSN 1921 5300 M 0 -36 rL SGR
GSN 1960 1700 M 0  36 rL SGR
GSN 1960 5300 M 0 -36 rL SGR
GSN 1994 1700 M 0  36 rL SGR
GSN 1994 5300 M 0 -36 rL SGR
GSN 2023 1700 M 0  36 rL SGR
GSN 2023 5300 M 0 -36 rL SGR
GSN 2048 1700 M 0  36 rL SGR
GSN 2048 5300 M 0 -36 rL SGR
GSN 2221 1700 M 0  36 rL SGR
GSN 2221 5300 M 0 -36 rL SGR
GSN 2309 1700 M 0  36 rL SGR
GSN 2309 5300 M 0 -36 rL SGR
GSN 2371 1700 M 0  36 rL SGR
GSN 2371 5300 M 0 -36 rL SGR
GSN 2420 1700 M 0  36 rL SGR
GSN 2420 5300 M 0 -36 rL SGR
GSN 2459 1700 M 0  36 rL SGR
GSN 2459 5300 M 0 -36 rL SGR
GSN 2492 1700 M 0  36 rL SGR
GSN 2492 5300 M 0 -36 rL SGR
GSN 2521 1700 M 0  36 rL SGR
GSN 2521 5300 M 0 -36 rL SGR
GSN 2547 1700 M 0  36 rL SGR
GSN 2547 5300 M 0 -36 rL SGR
GSN 2720 1700 M 0  36 rL SGR
GSN 2720 5300 M 0 -36 rL SGR
GSN 2808 1700 M 0  36 rL SGR
GSN 2808 5300 M 0 -36 rL SGR
GSN 2870 1700 M 0  36 rL SGR
GSN 2870 5300 M 0 -36 rL SGR
GSN 2918 1700 M 0  36 rL SGR
GSN 2918 5300 M 0 -36 rL SGR
GSN 2958 1700 M 0  36 rL SGR
GSN 2958 5300 M 0 -36 rL SGR
GSN 2991 1700 M 0  36 rL SGR
GSN 2991 5300 M 0 -36 rL SGR
GSN 3020 1700 M 0  36 rL SGR
GSN 3020 5300 M 0 -36 rL SGR
GSN 3045 1700 M 0  36 rL SGR
GSN 3045 5300 M 0 -36 rL SGR
GSN 3218 1700 M 0  36 rL SGR
GSN 3218 5300 M 0 -36 rL SGR
GSN 3306 1700 M 0  36 rL SGR
GSN 3306 5300 M 0 -36 rL SGR
GSN 3368 1700 M 0  36 rL SGR
GSN 3368 5300 M 0 -36 rL SGR
GSN 3417 1700 M 0  36 rL SGR
GSN 3417 5300 M 0 -36 rL SGR
GSN 3456 1700 M 0  36 rL SGR
GSN 3456 5300 M 0 -36 rL SGR
GSN 3490 1700 M 0  36 rL SGR
GSN 3490 5300 M 0 -36 rL SGR
GSN 3519 1700 M 0  36 rL SGR
GSN 3519 5300 M 0 -36 rL SGR
GSN 3544 1700 M 0  36 rL SGR
GSN 3544 5300 M 0 -36 rL SGR
GSN 3717 1700 M 0  36 rL SGR
GSN 3717 5300 M 0 -36 rL SGR
GSN 3805 1700 M 0  36 rL SGR
GSN 3805 5300 M 0 -36 rL SGR
GSN 3867 1700 M 0  36 rL SGR
GSN 3867 5300 M 0 -36 rL SGR
GSN 3915 1700 M 0  36 rL SGR
GSN 3915 5300 M 0 -36 rL SGR
GSN 3955 1700 M 0  36 rL SGR
GSN 3955 5300 M 0 -36 rL SGR
GSN 3988 1700 M 0  36 rL SGR
GSN 3988 5300 M 0 -36 rL SGR
GSN 4017 1700 M 0  36 rL SGR
GSN 4017 5300 M 0 -36 rL SGR
GSN 4043 1700 M 0  36 rL SGR
GSN 4043 5300 M 0 -36 rL SGR
GSN 4216 1700 M 0  36 rL SGR
GSN 4216 5300 M 0 -36 rL SGR
%
% Y axis: large tics
%
L10
GSN 620 2719 M 54 0 rL SGR
GSN 4220 2719 M -54 0 rL SGR
helvS (1.14) 560 2719 ylabel
GSN 620 3864 M 54 0 rL SGR
GSN 4220 3864 M -54 0 rL SGR
helvS (1.16) 560 3864 ylabel
GSN 620 5009 M 54 0 rL SGR
GSN 4220 5009 M -54 0 rL SGR
helvS (1.18) 560 5009 ylabel
%
% Y axis: small tics
%
L5
GSN 620 1860 M 36 0 rL SGR
GSN 4220 1860 M -36 0 rL SGR
GSN 620 2146 M 36 0 rL SGR
GSN 4220 2146 M -36 0 rL SGR
GSN 620 2433 M 36 0 rL SGR
GSN 4220 2433 M -36 0 rL SGR
GSN 620 2719 M 36 0 rL SGR
GSN 4220 2719 M -36 0 rL SGR
GSN 620 3005 M 36 0 rL SGR
GSN 4220 3005 M -36 0 rL SGR
GSN 620 3291 M 36 0 rL SGR
GSN 4220 3291 M -36 0 rL SGR
GSN 620 3578 M 36 0 rL SGR
GSN 4220 3578 M -36 0 rL SGR
GSN 620 3864 M 36 0 rL SGR
GSN 4220 3864 M -36 0 rL SGR
GSN 620 4150 M 36 0 rL SGR
GSN 4220 4150 M -36 0 rL SGR
GSN 620 4436 M 36 0 rL SGR
GSN 4220 4436 M -36 0 rL SGR
GSN 620 4723 M 36 0 rL SGR
GSN 4220 4723 M -36 0 rL SGR
GSN 620 5009 M 36 0 rL SGR
GSN 4220 5009 M -36 0 rL SGR
GSN 620 5295 M 36 0 rL SGR
GSN 4220 5295 M -36 0 rL SGR

%
% X-Axis label:
%
gsave 2420 290 M 
[
[(Helvetica) 180 0 true true 0 (t)]
[(Helvetica) 180 0 true true 0 (i)]
[(Helvetica) 180 0 true true 0 (m)]
[(Helvetica) 180 0 true true 0 (e)]
] 0 MCshow grestore

%
% Y-Axis label:
%
gsave 234 3500 M 
currentpoint gsave translate 90 rotate 0 0 moveto
[
[(Helvetica) 180 0 true true 0 (s)]
[(Helvetica) 180 0 true true 0 (i)]
[(Helvetica) 180 0 true true 0 (g)]
[(Helvetica) 180 0 true true 0 (n)]
[(Helvetica) 180 0 true true 0 (a)]
[(Helvetica) 180 0 true true 0 (l)]
] 0 MCshow grestore

%
% Residuals:
%
gsave 129 1160 M 
currentpoint gsave translate 90 rotate 0 0 moveto
[
[(Helvetica) 150 0 true true 0 (r)]
[(Helvetica) 150 0 true true 0 (e)]
[(Helvetica) 150 0 true true 0 (s)]
[(Helvetica) 150 0 true true 0 (i)]
[(Helvetica) 150 0 true true 0 (d)]
[(Helvetica) 150 0 true true 0 (u)]
[(Helvetica) 150 0 true true 0 (a)]
[(Helvetica) 150 0 true true 0 (l)]
[(Helvetica) 150 0 true true 0 (s)]
] 0 MCshow grestore

%
% Residual frame
%
L10
GSN 
620 620 M
4220 620 L
4220 1700 L
620 1700 L
closepath SGR
%
% X axis: large tics - residual frame
%
L10
GSN 1074 620 M 0  54 rL SGR
GSN 1074 1700 M 0 -54 rL SGR
GSN 1572 620 M 0  54 rL SGR
GSN 1572 1700 M 0 -54 rL SGR
GSN 2071 620 M 0  54 rL SGR
GSN 2071 1700 M 0 -54 rL SGR
GSN 2570 620 M 0  54 rL SGR
GSN 2570 1700 M 0 -54 rL SGR
GSN 3068 620 M 0  54 rL SGR
GSN 3068 1700 M 0 -54 rL SGR
GSN 3567 620 M 0  54 rL SGR
GSN 3567 1700 M 0 -54 rL SGR
GSN 4066 620 M 0  54 rL SGR
GSN 4066 1700 M 0 -54 rL SGR
%
% X axis: small tics - residual frame
%
L5
GSN 725 620 M 0  36 rL SGR
GSN 725 1700 M 0 -36 rL SGR
GSN 813 620 M 0  36 rL SGR
GSN 813 1700 M 0 -36 rL SGR
GSN 875 620 M 0  36 rL SGR
GSN 875 1700 M 0 -36 rL SGR
GSN 924 620 M 0  36 rL SGR
GSN 924 1700 M 0 -36 rL SGR
GSN 963 620 M 0  36 rL SGR
GSN 963 1700 M 0 -36 rL SGR
GSN 996 620 M 0  36 rL SGR
GSN 996 1700 M 0 -36 rL SGR
GSN 1025 620 M 0  36 rL SGR
GSN 1025 1700 M 0 -36 rL SGR
GSN 1051 620 M 0  36 rL SGR
GSN 1051 1700 M 0 -36 rL SGR
GSN 1224 620 M 0  36 rL SGR
GSN 1224 1700 M 0 -36 rL SGR
GSN 1312 620 M 0  36 rL SGR
GSN 1312 1700 M 0 -36 rL SGR
GSN 1374 620 M 0  36 rL SGR
GSN 1374 1700 M 0 -36 rL SGR
GSN 1422 620 M 0  36 rL SGR
GSN 1422 1700 M 0 -36 rL SGR
GSN 1462 620 M 0  36 rL SGR
GSN 1462 1700 M 0 -36 rL SGR
GSN 1495 620 M 0  36 rL SGR
GSN 1495 1700 M 0 -36 rL SGR
GSN 1524 620 M 0  36 rL SGR
GSN 1524 1700 M 0 -36 rL SGR
GSN 1550 620 M 0  36 rL SGR
GSN 1550 1700 M 0 -36 rL SGR
GSN 1722 620 M 0  36 rL SGR
GSN 1722 1700 M 0 -36 rL SGR
GSN 1810 620 M 0  36 rL SGR
GSN 1810 1700 M 0 -36 rL SGR
GSN 1873 620 M 0  36 rL SGR
GSN 1873 1700 M 0 -36 rL SGR
GSN 1921 620 M 0  36 rL SGR
GSN 1921 1700 M 0 -36 rL SGR
GSN 1960 620 M 0  36 rL SGR
GSN 1960 1700 M 0 -36 rL SGR
GSN 1994 620 M 0  36 rL SGR
GSN 1994 1700 M 0 -36 rL SGR
GSN 2023 620 M 0  36 rL SGR
GSN 2023 1700 M 0 -36 rL SGR
GSN 2048 620 M 0  36 rL SGR
GSN 2048 1700 M 0 -36 rL SGR
GSN 2221 620 M 0  36 rL SGR
GSN 2221 1700 M 0 -36 rL SGR
GSN 2309 620 M 0  36 rL SGR
GSN 2309 1700 M 0 -36 rL SGR
GSN 2371 620 M 0  36 rL SGR
GSN 2371 1700 M 0 -36 rL SGR
GSN 2420 620 M 0  36 rL SGR
GSN 2420 1700 M 0 -36 rL SGR
GSN 2459 620 M 0  36 rL SGR
GSN 2459 1700 M 0 -36 rL SGR
GSN 2492 620 M 0  36 rL SGR
GSN 2492 1700 M 0 -36 rL SGR
GSN 2521 620 M 0  36 rL SGR
GSN 2521 1700 M 0 -36 rL SGR
GSN 2547 620 M 0  36 rL SGR
GSN 2547 1700 M 0 -36 rL SGR
GSN 2720 620 M 0  36 rL SGR
GSN 2720 1700 M 0 -36 rL SGR
GSN 2808 620 M 0  36 rL SGR
GSN 2808 1700 M 0 -36 rL SGR
GSN 2870 620 M 0  36 rL SGR
GSN 2870 1700 M 0 -36 rL SGR
GSN 2918 620 M 0  36 rL SGR
GSN 2918 1700 M 0 -36 rL SGR
GSN 2958 620 M 0  36 rL SGR
GSN 2958 1700 M 0 -36 rL SGR
GSN 2991 620 M 0  36 rL SGR
GSN 2991 1700 M 0 -36 rL SGR
GSN 3020 620 M 0  36 rL SGR
GSN 3020 1700 M 0 -36 rL SGR
GSN 3045 620 M 0  36 rL SGR
GSN 3045 1700 M 0 -36 rL SGR
GSN 3218 620 M 0  36 rL SGR
GSN 3218 1700 M 0 -36 rL SGR
GSN 3306 620 M 0  36 rL SGR
GSN 3306 1700 M 0 -36 rL SGR
GSN 3368 620 M 0  36 rL SGR
GSN 3368 1700 M 0 -36 rL SGR
GSN 3417 620 M 0  36 rL SGR
GSN 3417 1700 M 0 -36 rL SGR
GSN 3456 620 M 0  36 rL SGR
GSN 3456 1700 M 0 -36 rL SGR
GSN 3490 620 M 0  36 rL SGR
GSN 3490 1700 M 0 -36 rL SGR
GSN 3519 620 M 0  36 rL SGR
GSN 3519 1700 M 0 -36 rL SGR
GSN 3544 620 M 0  36 rL SGR
GSN 3544 1700 M 0 -36 rL SGR
GSN 3717 620 M 0  36 rL SGR
GSN 3717 1700 M 0 -36 rL SGR
GSN 3805 620 M 0  36 rL SGR
GSN 3805 1700 M 0 -36 rL SGR
GSN 3867 620 M 0  36 rL SGR
GSN 3867 1700 M 0 -36 rL SGR
GSN 3915 620 M 0  36 rL SGR
GSN 3915 1700 M 0 -36 rL SGR
GSN 3955 620 M 0  36 rL SGR
GSN 3955 1700 M 0 -36 rL SGR
GSN 3988 620 M 0  36 rL SGR
GSN 3988 1700 M 0 -36 rL SGR
GSN 4017 620 M 0  36 rL SGR
GSN 4017 1700 M 0 -36 rL SGR
GSN 4043 620 M 0  36 rL SGR
GSN 4043 1700 M 0 -36 rL SGR
GSN 4216 620 M 0  36 rL SGR
GSN 4216 1700 M 0 -36 rL SGR
%
% Y axis: large tics - residual frame
%
L10
GSN 620 722 M 54 0 rL SGR
GSN 4220 722 M -54 0 rL SGR
helvS (-0.02) 560 722 ylabelresid
GSN 620 1021 M 54 0 rL SGR
GSN 4220 1021 M -54 0 rL SGR
helvS (0) 560 1021 ylabelresid
GSN 620 1320 M 54 0 rL SGR
GSN 4220 1320 M -54 0 rL SGR
helvS (0.02) 560 1320 ylabelresid
GSN 620 1620 M 54 0 rL SGR
GSN 4220 1620 M -54 0 rL SGR
helvS (0.04) 560 1620 ylabelresid

%
% X axis - residual panel
%
GSN L5 620 1021 M 4220 1021 L SDA G50 SGR

end
showpage
%%Trailer
%%EOF
