%!PS-Adobe-3.0 EPSF-3.0
%%BoundingBox: 0 0 514 550
%%Creator: BioKin Ltd.
%%DocumentFonts: Symbol Helvetica
%%EndComments
%
/bkdict 256 dict def
bkdict begin
/M {moveto} def 
/R {rmoveto} def
/L {lineto} def
/rL {rlineto} def
/GSN {gsave newpath} def
/SGR {stroke grestore} def
/COSGR {gsave setrgbcolor stroke grestore grestore} def
/SL {setlinewidth} def
/LWMB {12} def             % line width - model curves, black & white
/LWMC {10} def             % line width - model curves, color
/L2 {2.5 setlinewidth} def
/L5 {5 setlinewidth} def
/L10 {10 setlinewidth} def
/G50 {0.5 setgray} def
/SDA {[10  20] 0 setdash} def % axes
/helvT {/Helvetica findfont 100 scalefont setfont} def % tiny
/helvS {/Helvetica findfont 125 scalefont setfont} def % small
/helvM {/Helvetica findfont 150 scalefont setfont} def % medium
/helvL {/Helvetica findfont 175 scalefont setfont} def % large
/xlabel {gsave M dup
   stringwidth exch -0.5 mul exch rmoveto show grestore} def 
/ylabel {gsave M 90 rotate dup
   stringwidth exch -0.5 mul exch rmoveto show grestore} def
/ylabelresid {gsave M dup
   stringwidth exch -1 mul exch rmoveto show grestore} def
% ======
% Shapes
% ======
% Circle:
/Circ {0 360 arc closepath} def
%
% Square:
/Squa {dup dup -0.5 mul dup dup R -2 mul 0 exch rL 1 mul 0 rL dup 0 exch -1 mul rL closepath} def
%
% Triangle Up:
/TriU {dup dup dup -0.4 mul exch -0.5 mul exch R dup 0.5 mul exch rL dup -1 mul exch 0.5 mul exch rL closepath} def 
%
% Triangle Down:
/TriD {dup dup dup 0.4 mul exch -0.5 mul exch R dup 0.5 mul exch -1 mul rL dup 0.5 mul exch rL closepath} def 
%
% Diamond:
/Diam {45 rotate Squa} def
% ======
% Fills
% ======
/GRF {gsave setgray fill grestore} def                    % gray-level Fill
/COF {gsave setrgbcolor fill grestore} def                % color fill
% ======
% Colors
% ======
/C01 {1.00	0.00	0.00} def      % Red
/C02 {0.00	0.00	1.00} def      % Blue
/C03 {0.00	0.39	0.00} def      % Dark Green
/C04 {0.78	0.08	0.52} def      % Medium Violet Red
/C05 {0.55	0.27	0.07} def      % Saddle Brown
/C06 {0.10	0.70	0.70} def      % (cyan)
/C07 {1.00	0.55	0.00} def      % Dark Orange
/C08 {0.63	0.13	0.94} def      % Purple
/C09 {0.00	0.75	1.00} def      % Deep Sky Blue
/C10 {0.20	0.80	0.20} def      % Lime Green
/C11 {0.47	0.53	0.60} def      % Light Slate Gray
/C12 {0.00	0.00	0.00} def      % Black            % or: {0.19	0.31	0.31} def      % Dark Slate Gray
%
/LGR {0.75} def % light gray
/DGR {0.33} def % dark gray
%
% =============
% Dash patterns
% =============
/dash01 { [80  20] 0 setdash } def
/dash02 { [40  20] 0 setdash } def
/dash03 { [80  20  10  20] 0 setdash } def
/dash04 { [40  20  10  20] 0 setdash } def
/dash05 { [80  20  10  10  10  20] 0 setdash } def
/dash06 { [40  20  10  10  10  20] 0 setdash } def
/dash07 { [10  10] 0 setdash } def
%
/MFshow {
   { dup 5 get 3 ge
     { 5 get 3 eq {gsave} {grestore} ifelse }
     {dup dup 0 get findfont exch 1 get scalefont setfont
     [ currentpoint ] exch dup 2 get 0 exch R dup 5 get 2 ne {dup dup 6
     get exch 4 get {show} {stringwidth pop 0 R} ifelse }if dup 5 get 0 eq
     {dup 3 get {2 get neg 0 exch R pop} {pop aload pop M} ifelse} {dup 5
     get 1 eq {dup 2 get exch dup 3 get exch 6 get stringwidth pop -2 div
     dup 0 R} {dup 6 get stringwidth pop -2 div 0 R 6 get
     show 2 index {aload pop M neg 3 -1 roll neg R pop pop} {pop pop pop
     pop aload pop M} ifelse }ifelse }ifelse }
     ifelse }
   forall} bind def
/MFwidth {0 exch {dup 3 get{dup dup 0 get findfont exch 1 get scalefont
     setfont 6 get stringwidth pop add} {pop} ifelse} forall} bind def
/MCshow { currentpoint stroke M
  exch dup MFwidth -2 div 3 -1 roll R MFshow } def
%
end
%%EndProlog
bkdict begin
0.1 0.1 scale
%
% Model curves:
%

GSN 753 5166 M
753 5166 L
786 5165 L
820 5164 L
853 5163 L
886 5161 L
903 5161 L
919 5160 L
953 5158 L
986 5156 L
1020 5153 L
1053 5150 L
1053 5150 L
1086 5146 L
1120 5142 L
1153 5137 L
1186 5131 L
1203 5128 L
1220 5125 L
1253 5117 L
1286 5108 L
1320 5098 L
1353 5086 L
1353 5085 L
1386 5072 L
1420 5056 L
1453 5037 L
1486 5016 L
1503 5004 L
1520 4991 L
1553 4963 L
1586 4931 L
1620 4895 L
1653 4853 L
1653 4852 L
1686 4806 L
1720 4753 L
1753 4694 L
1786 4627 L
1804 4590 L
1820 4554 L
1853 4473 L
1886 4385 L
1920 4290 L
1953 4188 L
1954 4185 L
1986 4079 L
2020 3965 L
2053 3847 L
2086 3725 L
2104 3660 L
2120 3601 L
2153 3477 L
2186 3354 L
2220 3234 L
2253 3118 L
2254 3114 L
2286 3007 L
2320 2902 L
2353 2805 L
2386 2715 L
2404 2671 L
2420 2634 L
2453 2561 L
2486 2497 L
2520 2441 L
2553 2393 L
2554 2392 L
2586 2354 L
2620 2321 L
2653 2296 L
2686 2277 L
2704 2269 L
2720 2263 L
2753 2254 L
2786 2249 L
2820 2246 L
2853 2246 L
2854 2246 L
2886 2247 L
2920 2249 L
2953 2251 L
2986 2254 L
3004 2256 L
3020 2257 L
3053 2261 L
3068 2262 L
3086 2265 L
3120 2269 L
3153 2274 L
3155 2274 L
3186 2279 L
3220 2284 L
3253 2290 L
3286 2296 L
3305 2300 L
3320 2302 L
3353 2309 L
3386 2314 L
3420 2320 L
3453 2325 L
3455 2325 L
3486 2329 L
3520 2333 L
3553 2336 L
3586 2338 L
3605 2339 L
3620 2339 L
3653 2340 L
3686 2341 L
3720 2341 L
3753 2341 L
3755 2341 L
3786 2341 L
3820 2341 L
3853 2341 L
3886 2341 L
3905 2341 L
3920 2341 L
3953 2341 L
3986 2341 L
4020 2341 L
4053 2341 L
4086 2341 L
LWMC SL  C03 COSGR

%
% Experimental data:
%
GSN 773 3876 M
1625 3739 L
1773 3789 L
1860 4027 L
1922 3985 L
1970 3840 L
2009 3797 L
2043 3713 L
2072 3695 L
2097 3675 L
2120 3609 L
2140 3699 L
2159 3535 L
2176 3620 L
2192 3606 L
2207 3508 L
2221 3471 L
2234 3486 L
2247 3413 L
2259 3463 L
2270 3397 L
2280 3384 L
2290 3423 L
2300 3442 L
2309 3243 L
2318 3335 L
2326 3463 L
2335 3305 L
2342 3316 L
2350 3277 L
2357 3237 L
2364 3225 L
2371 3130 L
2378 3273 L
2384 3216 L
2391 3180 L
2397 3081 L
2403 3214 L
2409 3189 L
2414 3058 L
2420 3069 L
2425 3065 L
2430 3080 L
2435 2948 L
2440 2907 L
2445 3086 L
2450 2968 L
2455 2887 L
2459 2910 L
2464 2994 L
2468 2774 L
2472 2806 L
2476 2897 L
2481 2929 L
2485 2805 L
2489 2912 L
2492 2899 L
2496 2849 L
2500 2732 L
2504 2885 L
2507 2957 L
2511 2863 L
2514 2695 L
2518 2617 L
2521 2769 L
2525 2701 L
2528 2691 L
2531 2718 L
2534 2747 L
2538 2588 L
2541 2847 L
2544 2677 L
2547 2644 L
2550 2628 L
2553 2714 L
2556 2532 L
2559 2792 L
2561 2696 L
2564 2749 L
2567 2575 L
2570 2634 L
2580 2560 L
2590 2535 L
2600 2468 L
2609 2421 L
2618 2408 L
2627 2411 L
2635 2494 L
2643 2306 L
2650 2315 L
2658 2445 L
2665 2317 L
2672 2327 L
2678 2280 L
2685 2261 L
2691 2285 L
2697 2072 L
2703 2246 L
2709 2191 L
2714 2152 L
2720 2186 L
2725 2148 L
2730 1993 L
2735 2059 L
2740 2228 L
2745 2041 L
2750 2121 L
2755 2214 L
2759 2053 L
2764 2070 L
2768 1960 L
2772 1919 L
2777 1985 L
2781 1951 L
2785 1978 L
2789 1958 L
2793 2001 L
2796 1959 L
2800 1954 L
2804 2032 L
2808 1889 L
2811 1946 L
2815 1962 L
2818 1946 L
2822 1871 L
2825 1918 L
2828 2057 L
2831 1949 L
2835 1977 L
2838 1870 L
2841 1994 L
2844 1980 L
2847 1898 L
2850 1843 L
2853 2159 L
2856 1978 L
2859 1887 L
2862 1833 L
2864 1968 L
2867 2033 L
2870 1891 L
2873 1926 L
2875 2104 L
2878 1971 L
2880 1998 L
2883 2034 L
2886 1951 L
2888 2048 L
2891 1891 L
2893 1943 L
2895 2046 L
2898 2003 L
2900 2026 L
2902 1940 L
2905 2052 L
2907 2140 L
2909 1969 L
2912 2098 L
2914 1939 L
2916 1968 L
2918 2060 L
2920 1916 L
2922 2088 L
2925 2118 L
2927 2033 L
2929 2036 L
2931 1983 L
2933 2098 L
2935 2050 L
2937 1878 L
2939 1989 L
2941 2139 L
2943 2063 L
2945 1957 L
2947 1963 L
2948 2083 L
2950 2109 L
2952 1941 L
2954 2084 L
2956 1974 L
2958 2032 L
2959 2038 L
2961 1914 L
2963 2169 L
2965 2040 L
2966 2050 L
2968 2261 L
2970 2139 L
2972 2170 L
2973 2174 L
2975 2168 L
2977 2055 L
2978 2080 L
2980 2098 L
2982 1884 L
2983 2024 L
2985 2154 L
2986 2163 L
2988 2026 L
2989 2036 L
2991 2168 L
2993 2094 L
2994 2132 L
2996 2214 L
2997 2073 L
2999 2144 L
3000 2090 L
3002 2120 L
3003 2092 L
3005 2199 L
3006 2230 L
3007 2221 L
3009 2106 L
3010 2149 L
3012 2066 L
3013 2230 L
3014 2089 L
3016 2158 L
3017 2259 L
3019 2161 L
3020 2197 L
3021 2219 L
3023 2147 L
3024 2109 L
3025 2155 L
3027 2265 L
3028 2238 L
3029 2196 L
3031 2268 L
3032 2188 L
3033 2092 L
3034 2192 L
3036 2127 L
3037 2225 L
3038 2177 L
3039 2224 L
3041 2240 L
3042 2298 L
3043 2191 L
3044 2218 L
3045 2274 L
3047 2166 L
3048 2272 L
3049 2217 L
3050 2225 L
3051 2124 L
3053 2074 L
3054 2346 L
3055 2316 L
3056 2298 L
3057 2273 L
3058 2166 L
3059 2325 L
3061 2161 L
3062 2279 L
3063 2306 L
3064 2338 L
3065 2372 L
3066 2292 L
3067 2258 L
3068 2263 L
3069 2192 L
3070 2295 L
3071 2289 L
3073 2333 L
3074 2300 L
3075 2369 L
3076 2187 L
3077 2350 L
3078 2194 L
3079 2377 L
3080 2168 L
3081 2210 L
3082 2165 L
3083 2354 L
3084 2202 L
3085 2335 L
3086 2154 L
3087 2311 L
3088 2394 L
3089 2301 L
3112 2448 L
3133 2448 L
3152 2496 L
3170 2395 L
3186 2374 L
3201 2542 L
3216 2517 L
3229 2295 L
3241 2443 L
3253 2469 L
3264 2448 L
3275 2525 L
3285 2602 L
3295 2506 L
3304 2518 L
3313 2523 L
3322 2543 L
3330 2537 L
3338 2566 L
3346 2526 L
3353 2393 L
3360 2410 L
3367 2436 L
3374 2454 L
3380 2611 L
3387 2489 L
3393 2579 L
3399 2525 L
3405 2633 L
3410 2598 L
3416 2520 L
3421 2624 L
3426 2486 L
3431 2634 L
3436 2484 L
3441 2639 L
3446 2502 L
3451 2590 L
3455 2595 L
3460 2480 L
3464 2500 L
3469 2516 L
3473 2504 L
3477 2569 L
3481 2445 L
3485 2624 L
3489 2474 L
3493 2377 L
3496 2539 L
3500 2323 L
3504 2486 L
3507 2447 L
3511 2479 L
3514 2364 L
3518 2653 L
3521 2330 L
3525 2455 L
3528 2488 L
3531 2539 L
3534 2418 L
3537 2472 L
3540 2509 L
3543 2512 L
3546 2529 L
3549 2514 L
3552 2486 L
3555 2453 L
3558 2312 L
3561 2286 L
3564 2522 L
3566 2509 L
3575 2443 L
3586 2363 L
3595 2422 L
3605 2493 L
3613 2475 L
3622 2476 L
3630 2452 L
3638 2490 L
3646 2441 L
3653 2496 L
3660 2387 L
3667 2271 L
3674 2387 L
3681 2406 L
3687 2486 L
3693 2403 L
3699 2382 L
3705 2487 L
3710 2610 L
3716 2356 L
3721 2415 L
3727 2440 L
3732 2459 L
3737 2378 L
3742 2323 L
3746 2293 L
3751 2354 L
3756 2540 L
3760 2493 L
3764 2324 L
3769 2376 L
3773 2350 L
3777 2330 L
3781 2261 L
3785 2444 L
3789 2283 L
3793 2327 L
3797 2430 L
3800 2487 L
3804 2245 L
3808 2372 L
3811 2401 L
3815 2305 L
3818 2266 L
3821 2373 L
3825 2347 L
3828 2214 L
3831 2335 L
3834 2268 L
3838 2408 L
3841 2442 L
3844 2282 L
3847 2216 L
3850 2447 L
3853 2206 L
3855 2292 L
3858 2408 L
3861 2355 L
3864 2303 L
3867 2316 L
3869 2304 L
3872 2321 L
3875 2402 L
3877 2271 L
3880 2238 L
3882 2278 L
3885 2323 L
3887 2377 L
3890 2204 L
3892 2322 L
3895 2255 L
3897 2304 L
3899 2285 L
3902 2308 L
3904 2309 L
3906 2181 L
3908 2453 L
3911 2293 L
3913 2313 L
3915 2314 L
3917 2102 L
3919 2325 L
3921 2232 L
3923 2378 L
3926 2263 L
3928 2333 L
3930 2318 L
3932 2351 L
3934 2320 L
3936 2322 L
3938 2333 L
3940 2226 L
3942 2326 L
3943 2197 L
3945 2241 L
3947 2382 L
3949 2248 L
3951 2329 L
3953 2346 L
3955 2353 L
3956 2232 L
3958 2161 L
3960 2228 L
3962 2156 L
3963 2305 L
3965 2308 L
3967 2246 L
3969 2225 L
3970 2214 L
3972 2204 L
3974 2238 L
3975 2296 L
3977 2265 L
3978 2128 L
3980 2257 L
3982 2287 L
3983 2234 L
3985 2100 L
3986 2178 L
3988 2368 L
3990 2294 L
3991 2266 L
3993 2146 L
3994 2136 L
3996 2194 L
3997 2165 L
3999 2286 L
4000 2157 L
4001 2129 L
4003 2262 L
4004 2241 L
4006 2245 L
4007 2379 L
4009 2156 L
4010 2296 L
4011 2238 L
4013 2105 L
4014 2138 L
4016 2231 L
4017 2267 L
4018 2200 L
4020 2202 L
4021 2258 L
4022 2267 L
4024 2386 L
4025 2321 L
4026 2365 L
4028 2176 L
4029 2202 L
4030 2274 L
4031 2287 L
4033 2201 L
4034 2234 L
4035 2174 L
4036 2310 L
4038 2198 L
4039 2224 L
4040 2329 L
4041 2354 L
4042 2233 L
4044 2272 L
4045 2292 L
4046 2271 L
4047 2144 L
4048 2261 L
4050 2318 L
4051 2182 L
4052 2245 L
4053 2232 L
4054 2260 L
4055 2139 L
4056 2258 L
4058 2276 L
4059 2347 L
4060 2194 L
4061 2275 L
4062 2164 L
4063 2283 L
4064 2224 L
4065 2265 L
4066 2253 L
L2 C03 COSGR

%
%================
% Legend - Begin
%================
%
GSN 4240 5180 M
4480 5180 L
LWMC SL  C03 COSGR
GSN 4540 5141 M helvM (1.5 uM) show grestore
%
%================
% Legend - End
%================
%

%
% Residuals:
%
GSN 773 750 M
1625 812 L
1773 936 L
1860 1127 L
1922 1184 L
1970 1186 L
2009 1225 L
2043 1240 L
2072 1277 L
2097 1310 L
2120 1318 L
2140 1391 L
2159 1350 L
2176 1415 L
2192 1434 L
2207 1415 L
2221 1421 L
2234 1447 L
2247 1435 L
2259 1474 L
2270 1461 L
2280 1470 L
2290 1502 L
2300 1524 L
2309 1449 L
2318 1502 L
2326 1569 L
2335 1510 L
2342 1525 L
2350 1517 L
2357 1509 L
2364 1512 L
2371 1478 L
2378 1549 L
2384 1531 L
2391 1523 L
2397 1486 L
2403 1550 L
2409 1545 L
2414 1494 L
2420 1504 L
2425 1508 L
2430 1520 L
2435 1467 L
2440 1454 L
2445 1536 L
2450 1489 L
2455 1458 L
2459 1472 L
2464 1513 L
2468 1420 L
2472 1438 L
2476 1481 L
2481 1498 L
2485 1448 L
2489 1498 L
2492 1495 L
2496 1476 L
2500 1428 L
2504 1497 L
2507 1531 L
2511 1493 L
2514 1422 L
2518 1390 L
2521 1459 L
2525 1431 L
2528 1429 L
2531 1443 L
2534 1458 L
2538 1390 L
2541 1505 L
2544 1433 L
2547 1420 L
2550 1415 L
2553 1454 L
2556 1376 L
2559 1492 L
2561 1451 L
2564 1476 L
2567 1401 L
2570 1429 L
2580 1401 L
2590 1395 L
2600 1370 L
2609 1354 L
2618 1351 L
2627 1356 L
2635 1395 L
2643 1316 L
2650 1322 L
2658 1381 L
2665 1326 L
2672 1333 L
2678 1314 L
2685 1307 L
2691 1319 L
2697 1227 L
2703 1304 L
2709 1281 L
2714 1265 L
2720 1280 L
2725 1265 L
2730 1198 L
2735 1227 L
2740 1301 L
2745 1220 L
2750 1256 L
2755 1297 L
2759 1227 L
2764 1235 L
2768 1187 L
2772 1169 L
2777 1198 L
2781 1184 L
2785 1196 L
2789 1187 L
2793 1206 L
2796 1188 L
2800 1186 L
2804 1220 L
2808 1157 L
2811 1183 L
2815 1190 L
2818 1183 L
2822 1150 L
2825 1171 L
2828 1231 L
2831 1184 L
2835 1197 L
2838 1150 L
2841 1204 L
2844 1198 L
2847 1162 L
2850 1138 L
2853 1276 L
2856 1197 L
2859 1157 L
2862 1133 L
2864 1192 L
2867 1221 L
2870 1159 L
2873 1174 L
2875 1252 L
2878 1194 L
2880 1205 L
2883 1221 L
2886 1185 L
2888 1227 L
2891 1159 L
2893 1181 L
2895 1226 L
2898 1207 L
2900 1217 L
2902 1180 L
2905 1229 L
2907 1267 L
2909 1192 L
2912 1248 L
2914 1179 L
2916 1191 L
2918 1232 L
2920 1169 L
2922 1244 L
2925 1257 L
2927 1220 L
2929 1221 L
2931 1198 L
2933 1248 L
2935 1227 L
2937 1152 L
2939 1200 L
2941 1266 L
2943 1232 L
2945 1186 L
2947 1189 L
2948 1241 L
2950 1252 L
2952 1178 L
2954 1241 L
2956 1193 L
2958 1218 L
2959 1221 L
2961 1166 L
2963 1278 L
2965 1222 L
2966 1226 L
2968 1318 L
2970 1265 L
2972 1278 L
2973 1280 L
2975 1277 L
2977 1228 L
2978 1238 L
2980 1246 L
2982 1153 L
2983 1214 L
2985 1270 L
2986 1274 L
2988 1214 L
2989 1219 L
2991 1276 L
2993 1244 L
2994 1261 L
2996 1296 L
2997 1235 L
2999 1266 L
3000 1242 L
3002 1255 L
3003 1243 L
3005 1289 L
3006 1303 L
3007 1299 L
3009 1249 L
3010 1267 L
3012 1231 L
3013 1302 L
3014 1241 L
3016 1271 L
3017 1315 L
3019 1272 L
3020 1288 L
3021 1298 L
3023 1266 L
3024 1249 L
3025 1269 L
3027 1317 L
3028 1306 L
3029 1287 L
3031 1318 L
3032 1283 L
3033 1241 L
3034 1285 L
3036 1256 L
3037 1299 L
3038 1278 L
3039 1299 L
3041 1306 L
3042 1331 L
3043 1284 L
3044 1296 L
3045 1320 L
3047 1273 L
3048 1319 L
3049 1295 L
3050 1299 L
3051 1255 L
3053 1233 L
3054 1351 L
3055 1338 L
3056 1331 L
3057 1319 L
3058 1272 L
3059 1342 L
3061 1270 L
3062 1322 L
3063 1333 L
3064 1347 L
3065 1362 L
3066 1327 L
3067 1312 L
3068 1314 L
3069 1283 L
3070 1328 L
3071 1326 L
3073 1345 L
3074 1330 L
3075 1361 L
3076 1281 L
3077 1352 L
3078 1284 L
3079 1364 L
3080 1272 L
3081 1290 L
3082 1271 L
3083 1354 L
3084 1287 L
3085 1345 L
3086 1266 L
3087 1334 L
3088 1371 L
3089 1330 L
3112 1393 L
3133 1391 L
3152 1412 L
3170 1366 L
3186 1356 L
3201 1428 L
3216 1416 L
3229 1318 L
3241 1382 L
3253 1392 L
3264 1382 L
3275 1415 L
3285 1448 L
3295 1405 L
3304 1410 L
3313 1411 L
3322 1419 L
3330 1416 L
3338 1428 L
3346 1410 L
3353 1351 L
3360 1358 L
3367 1369 L
3374 1376 L
3380 1444 L
3387 1390 L
3393 1429 L
3399 1405 L
3405 1452 L
3410 1436 L
3416 1402 L
3421 1447 L
3426 1386 L
3431 1451 L
3436 1385 L
3441 1452 L
3446 1392 L
3451 1430 L
3455 1432 L
3460 1382 L
3464 1390 L
3469 1397 L
3473 1391 L
3477 1419 L
3481 1365 L
3485 1443 L
3489 1377 L
3493 1335 L
3496 1405 L
3500 1311 L
3504 1382 L
3507 1365 L
3511 1378 L
3514 1328 L
3518 1454 L
3521 1313 L
3525 1367 L
3528 1382 L
3531 1404 L
3534 1350 L
3537 1374 L
3540 1390 L
3543 1391 L
3546 1399 L
3549 1392 L
3552 1380 L
3555 1365 L
3558 1304 L
3561 1292 L
3564 1395 L
3566 1389 L
3575 1360 L
3586 1325 L
3595 1351 L
3605 1382 L
3613 1373 L
3622 1374 L
3630 1363 L
3638 1380 L
3646 1358 L
3653 1382 L
3660 1335 L
3667 1284 L
3674 1334 L
3681 1343 L
3687 1378 L
3693 1341 L
3699 1332 L
3705 1378 L
3710 1432 L
3716 1321 L
3721 1346 L
3727 1357 L
3732 1366 L
3737 1331 L
3742 1306 L
3746 1293 L
3751 1320 L
3756 1401 L
3760 1381 L
3764 1306 L
3769 1330 L
3773 1318 L
3777 1309 L
3781 1279 L
3785 1359 L
3789 1289 L
3793 1308 L
3797 1353 L
3800 1378 L
3804 1272 L
3808 1328 L
3811 1340 L
3815 1298 L
3818 1281 L
3821 1328 L
3825 1317 L
3828 1258 L
3831 1312 L
3834 1282 L
3838 1343 L
3841 1358 L
3844 1288 L
3847 1260 L
3850 1360 L
3853 1255 L
3855 1293 L
3858 1343 L
3861 1320 L
3864 1297 L
3867 1303 L
3869 1298 L
3872 1305 L
3875 1341 L
3877 1283 L
3880 1269 L
3882 1287 L
3885 1306 L
3887 1330 L
3890 1254 L
3892 1306 L
3895 1276 L
3897 1298 L
3899 1290 L
3902 1300 L
3904 1300 L
3906 1244 L
3908 1363 L
3911 1293 L
3913 1302 L
3915 1302 L
3917 1210 L
3919 1307 L
3921 1267 L
3923 1330 L
3926 1280 L
3928 1311 L
3930 1304 L
3932 1319 L
3934 1305 L
3936 1306 L
3938 1311 L
3940 1264 L
3942 1307 L
3943 1251 L
3945 1271 L
3947 1332 L
3949 1273 L
3951 1309 L
3953 1316 L
3955 1320 L
3956 1267 L
3958 1235 L
3960 1265 L
3962 1233 L
3963 1298 L
3965 1300 L
3967 1273 L
3969 1264 L
3970 1259 L
3972 1254 L
3974 1269 L
3975 1295 L
3977 1281 L
3978 1221 L
3980 1277 L
3982 1291 L
3983 1267 L
3985 1209 L
3986 1243 L
3988 1326 L
3990 1294 L
3991 1281 L
3993 1229 L
3994 1224 L
3996 1250 L
3997 1237 L
3999 1290 L
4000 1234 L
4001 1221 L
4003 1280 L
4004 1271 L
4006 1272 L
4007 1331 L
4009 1233 L
4010 1294 L
4011 1269 L
4013 1211 L
4014 1225 L
4016 1266 L
4017 1282 L
4018 1252 L
4020 1253 L
4021 1278 L
4022 1282 L
4024 1334 L
4025 1305 L
4026 1325 L
4028 1242 L
4029 1253 L
4030 1285 L
4031 1290 L
4033 1253 L
4034 1267 L
4035 1241 L
4036 1300 L
4038 1251 L
4039 1263 L
4040 1309 L
4041 1320 L
4042 1267 L
4044 1284 L
4045 1293 L
4046 1284 L
4047 1228 L
4048 1279 L
4050 1304 L
4051 1245 L
4052 1272 L
4053 1267 L
4054 1279 L
4055 1226 L
4056 1278 L
4058 1286 L
4059 1317 L
4060 1250 L
4061 1285 L
4062 1237 L
4063 1289 L
4064 1263 L
4065 1281 L
4066 1276 L
L2 C03 COSGR

%
% Main frame
%
L10
GSN 
620 1700 M
4220 1700 L
4220 5300 L
620 5300 L
closepath SGR

%
% X axis: large tics
%
L10
GSN 1074 1700 M 0  54 rL SGR
GSN 1074 5300 M 0 -54 rL SGR
helvS (0.0001) 1074 470 xlabel
GSN 1572 1700 M 0  54 rL SGR
GSN 1572 5300 M 0 -54 rL SGR
helvS (0.001) 1572 470 xlabel
GSN 2071 1700 M 0  54 rL SGR
GSN 2071 5300 M 0 -54 rL SGR
helvS (0.01) 2071 470 xlabel
GSN 2570 1700 M 0  54 rL SGR
GSN 2570 5300 M 0 -54 rL SGR
helvS (0.1) 2570 470 xlabel
GSN 3068 1700 M 0  54 rL SGR
GSN 3068 5300 M 0 -54 rL SGR
helvS (1) 3068 470 xlabel
GSN 3567 1700 M 0  54 rL SGR
GSN 3567 5300 M 0 -54 rL SGR
helvS (10) 3567 470 xlabel
GSN 4066 1700 M 0  54 rL SGR
GSN 4066 5300 M 0 -54 rL SGR
helvS (100) 4066 470 xlabel
%
% X axis: small tics
%
L5
GSN 725 1700 M 0  36 rL SGR
GSN 725 5300 M 0 -36 rL SGR
GSN 813 1700 M 0  36 rL SGR
GSN 813 5300 M 0 -36 rL SGR
GSN 875 1700 M 0  36 rL SGR
GSN 875 5300 M 0 -36 rL SGR
GSN 924 1700 M 0  36 rL SGR
GSN 924 5300 M 0 -36 rL SGR
GSN 963 1700 M 0  36 rL SGR
GSN 963 5300 M 0 -36 rL SGR
GSN 996 1700 M 0  36 rL SGR
GSN 996 5300 M 0 -36 rL SGR
GSN 1025 1700 M 0  36 rL SGR
GSN 1025 5300 M 0 -36 rL SGR
GSN 1051 1700 M 0  36 rL SGR
GSN 1051 5300 M 0 -36 rL SGR
GSN 1224 1700 M 0  36 rL SGR
GSN 1224 5300 M 0 -36 rL SGR
GSN 1312 1700 M 0  36 rL SGR
GSN 1312 5300 M 0 -36 rL SGR
GSN 1374 1700 M 0  36 rL SGR
GSN 1374 5300 M 0 -36 rL SGR
GSN 1422 1700 M 0  36 rL SGR
GSN 1422 5300 M 0 -36 rL SGR
GSN 1462 1700 M 0  36 rL SGR
GSN 1462 5300 M 0 -36 rL SGR
GSN 1495 1700 M 0  36 rL SGR
GSN 1495 5300 M 0 -36 rL SGR
GSN 1524 1700 M 0  36 rL SGR
GSN 1524 5300 M 0 -36 rL SGR
GSN 1550 1700 M 0  36 rL SGR
GSN 1550 5300 M 0 -36 rL SGR
GSN 1722 1700 M 0  36 rL SGR
GSN 1722 5300 M 0 -36 rL SGR
GSN 1810 1700 M 0  36 rL SGR
GSN 1810 5300 M 0 -36 rL SGR
GSN 1873 1700 M 0  36 rL SGR
GSN 1873 5300 M 0 -36 rL SGR
GSN 1921 1700 M 0  36 rL SGR
GSN 1921 5300 M 0 -36 rL SGR
GSN 1960 1700 M 0  36 rL SGR
GSN 1960 5300 M 0 -36 rL SGR
GSN 1994 1700 M 0  36 rL SGR
GSN 1994 5300 M 0 -36 rL SGR
GSN 2023 1700 M 0  36 rL SGR
GSN 2023 5300 M 0 -36 rL SGR
GSN 2048 1700 M 0  36 rL SGR
GSN 2048 5300 M 0 -36 rL SGR
GSN 2221 1700 M 0  36 rL SGR
GSN 2221 5300 M 0 -36 rL SGR
GSN 2309 1700 M 0  36 rL SGR
GSN 2309 5300 M 0 -36 rL SGR
GSN 2371 1700 M 0  36 rL SGR
GSN 2371 5300 M 0 -36 rL SGR
GSN 2420 1700 M 0  36 rL SGR
GSN 2420 5300 M 0 -36 rL SGR
GSN 2459 1700 M 0  36 rL SGR
GSN 2459 5300 M 0 -36 rL SGR
GSN 2492 1700 M 0  36 rL SGR
GSN 2492 5300 M 0 -36 rL SGR
GSN 2521 1700 M 0  36 rL SGR
GSN 2521 5300 M 0 -36 rL SGR
GSN 2547 1700 M 0  36 rL SGR
GSN 2547 5300 M 0 -36 rL SGR
GSN 2720 1700 M 0  36 rL SGR
GSN 2720 5300 M 0 -36 rL SGR
GSN 2808 1700 M 0  36 rL SGR
GSN 2808 5300 M 0 -36 rL SGR
GSN 2870 1700 M 0  36 rL SGR
GSN 2870 5300 M 0 -36 rL SGR
GSN 2918 1700 M 0  36 rL SGR
GSN 2918 5300 M 0 -36 rL SGR
GSN 2958 1700 M 0  36 rL SGR
GSN 2958 5300 M 0 -36 rL SGR
GSN 2991 1700 M 0  36 rL SGR
GSN 2991 5300 M 0 -36 rL SGR
GSN 3020 1700 M 0  36 rL SGR
GSN 3020 5300 M 0 -36 rL SGR
GSN 3045 1700 M 0  36 rL SGR
GSN 3045 5300 M 0 -36 rL SGR
GSN 3218 1700 M 0  36 rL SGR
GSN 3218 5300 M 0 -36 rL SGR
GSN 3306 1700 M 0  36 rL SGR
GSN 3306 5300 M 0 -36 rL SGR
GSN 3368 1700 M 0  36 rL SGR
GSN 3368 5300 M 0 -36 rL SGR
GSN 3417 1700 M 0  36 rL SGR
GSN 3417 5300 M 0 -36 rL SGR
GSN 3456 1700 M 0  36 rL SGR
GSN 3456 5300 M 0 -36 rL SGR
GSN 3490 1700 M 0  36 rL SGR
GSN 3490 5300 M 0 -36 rL SGR
GSN 3519 1700 M 0  36 rL SGR
GSN 3519 5300 M 0 -36 rL SGR
GSN 3544 1700 M 0  36 rL SGR
GSN 3544 5300 M 0 -36 rL SGR
GSN 3717 1700 M 0  36 rL SGR
GSN 3717 5300 M 0 -36 rL SGR
GSN 3805 1700 M 0  36 rL SGR
GSN 3805 5300 M 0 -36 rL SGR
GSN 3867 1700 M 0  36 rL SGR
GSN 3867 5300 M 0 -36 rL SGR
GSN 3915 1700 M 0  36 rL SGR
GSN 3915 5300 M 0 -36 rL SGR
GSN 3955 1700 M 0  36 rL SGR
GSN 3955 5300 M 0 -36 rL SGR
GSN 3988 1700 M 0  36 rL SGR
GSN 3988 5300 M 0 -36 rL SGR
GSN 4017 1700 M 0  36 rL SGR
GSN 4017 5300 M 0 -36 rL SGR
GSN 4043 1700 M 0  36 rL SGR
GSN 4043 5300 M 0 -36 rL SGR
GSN 4216 1700 M 0  36 rL SGR
GSN 4216 5300 M 0 -36 rL SGR
%
% Y axis: large tics
%
L10
GSN 620 2286 M 54 0 rL SGR
GSN 4220 2286 M -54 0 rL SGR
helvS (1.05) 560 2286 ylabel
GSN 620 3772 M 54 0 rL SGR
GSN 4220 3772 M -54 0 rL SGR
helvS (1.1) 560 3772 ylabel
GSN 620 5258 M 54 0 rL SGR
GSN 4220 5258 M -54 0 rL SGR
helvS (1.15) 560 5258 ylabel
%
% Y axis: small tics
%
L5
GSN 620 1989 M 36 0 rL SGR
GSN 4220 1989 M -36 0 rL SGR
GSN 620 2286 M 36 0 rL SGR
GSN 4220 2286 M -36 0 rL SGR
GSN 620 2583 M 36 0 rL SGR
GSN 4220 2583 M -36 0 rL SGR
GSN 620 2880 M 36 0 rL SGR
GSN 4220 2880 M -36 0 rL SGR
GSN 620 3177 M 36 0 rL SGR
GSN 4220 3177 M -36 0 rL SGR
GSN 620 3475 M 36 0 rL SGR
GSN 4220 3475 M -36 0 rL SGR
GSN 620 3772 M 36 0 rL SGR
GSN 4220 3772 M -36 0 rL SGR
GSN 620 4069 M 36 0 rL SGR
GSN 4220 4069 M -36 0 rL SGR
GSN 620 4366 M 36 0 rL SGR
GSN 4220 4366 M -36 0 rL SGR
GSN 620 4663 M 36 0 rL SGR
GSN 4220 4663 M -36 0 rL SGR
GSN 620 4960 M 36 0 rL SGR
GSN 4220 4960 M -36 0 rL SGR
GSN 620 5258 M 36 0 rL SGR
GSN 4220 5258 M -36 0 rL SGR

%
% X-Axis label:
%
gsave 2420 290 M 
[
[(Helvetica) 180 0 true true 0 (t)]
[(Helvetica) 180 0 true true 0 (i)]
[(Helvetica) 180 0 true true 0 (m)]
[(Helvetica) 180 0 true true 0 (e)]
] 0 MCshow grestore

%
% Y-Axis label:
%
gsave 234 3499 M 
currentpoint gsave translate 90 rotate 0 0 moveto
[
[(Helvetica) 180 0 true true 0 (s)]
[(Helvetica) 180 0 true true 0 (i)]
[(Helvetica) 180 0 true true 0 (g)]
[(Helvetica) 180 0 true true 0 (n)]
[(Helvetica) 180 0 true true 0 (a)]
[(Helvetica) 180 0 true true 0 (l)]
] 0 MCshow grestore

%
% Residuals:
%
gsave 129 1160 M 
currentpoint gsave translate 90 rotate 0 0 moveto
[
[(Helvetica) 150 0 true true 0 (r)]
[(Helvetica) 150 0 true true 0 (e)]
[(Helvetica) 150 0 true true 0 (s)]
[(Helvetica) 150 0 true true 0 (i)]
[(Helvetica) 150 0 true true 0 (d)]
[(Helvetica) 150 0 true true 0 (u)]
[(Helvetica) 150 0 true true 0 (a)]
[(Helvetica) 150 0 true true 0 (l)]
[(Helvetica) 150 0 true true 0 (s)]
] 0 MCshow grestore

%
% Residual frame
%
L10
GSN 
620 620 M
4220 620 L
4220 1700 L
620 1700 L
closepath SGR
%
% X axis: large tics - residual frame
%
L10
GSN 1074 620 M 0  54 rL SGR
GSN 1074 1700 M 0 -54 rL SGR
GSN 1572 620 M 0  54 rL SGR
GSN 1572 1700 M 0 -54 rL SGR
GSN 2071 620 M 0  54 rL SGR
GSN 2071 1700 M 0 -54 rL SGR
GSN 2570 620 M 0  54 rL SGR
GSN 2570 1700 M 0 -54 rL SGR
GSN 3068 620 M 0  54 rL SGR
GSN 3068 1700 M 0 -54 rL SGR
GSN 3567 620 M 0  54 rL SGR
GSN 3567 1700 M 0 -54 rL SGR
GSN 4066 620 M 0  54 rL SGR
GSN 4066 1700 M 0 -54 rL SGR
%
% X axis: small tics - residual frame
%
L5
GSN 725 620 M 0  36 rL SGR
GSN 725 1700 M 0 -36 rL SGR
GSN 813 620 M 0  36 rL SGR
GSN 813 1700 M 0 -36 rL SGR
GSN 875 620 M 0  36 rL SGR
GSN 875 1700 M 0 -36 rL SGR
GSN 924 620 M 0  36 rL SGR
GSN 924 1700 M 0 -36 rL SGR
GSN 963 620 M 0  36 rL SGR
GSN 963 1700 M 0 -36 rL SGR
GSN 996 620 M 0  36 rL SGR
GSN 996 1700 M 0 -36 rL SGR
GSN 1025 620 M 0  36 rL SGR
GSN 1025 1700 M 0 -36 rL SGR
GSN 1051 620 M 0  36 rL SGR
GSN 1051 1700 M 0 -36 rL SGR
GSN 1224 620 M 0  36 rL SGR
GSN 1224 1700 M 0 -36 rL SGR
GSN 1312 620 M 0  36 rL SGR
GSN 1312 1700 M 0 -36 rL SGR
GSN 1374 620 M 0  36 rL SGR
GSN 1374 1700 M 0 -36 rL SGR
GSN 1422 620 M 0  36 rL SGR
GSN 1422 1700 M 0 -36 rL SGR
GSN 1462 620 M 0  36 rL SGR
GSN 1462 1700 M 0 -36 rL SGR
GSN 1495 620 M 0  36 rL SGR
GSN 1495 1700 M 0 -36 rL SGR
GSN 1524 620 M 0  36 rL SGR
GSN 1524 1700 M 0 -36 rL SGR
GSN 1550 620 M 0  36 rL SGR
GSN 1550 1700 M 0 -36 rL SGR
GSN 1722 620 M 0  36 rL SGR
GSN 1722 1700 M 0 -36 rL SGR
GSN 1810 620 M 0  36 rL SGR
GSN 1810 1700 M 0 -36 rL SGR
GSN 1873 620 M 0  36 rL SGR
GSN 1873 1700 M 0 -36 rL SGR
GSN 1921 620 M 0  36 rL SGR
GSN 1921 1700 M 0 -36 rL SGR
GSN 1960 620 M 0  36 rL SGR
GSN 1960 1700 M 0 -36 rL SGR
GSN 1994 620 M 0  36 rL SGR
GSN 1994 1700 M 0 -36 rL SGR
GSN 2023 620 M 0  36 rL SGR
GSN 2023 1700 M 0 -36 rL SGR
GSN 2048 620 M 0  36 rL SGR
GSN 2048 1700 M 0 -36 rL SGR
GSN 2221 620 M 0  36 rL SGR
GSN 2221 1700 M 0 -36 rL SGR
GSN 2309 620 M 0  36 rL SGR
GSN 2309 1700 M 0 -36 rL SGR
GSN 2371 620 M 0  36 rL SGR
GSN 2371 1700 M 0 -36 rL SGR
GSN 2420 620 M 0  36 rL SGR
GSN 2420 1700 M 0 -36 rL SGR
GSN 2459 620 M 0  36 rL SGR
GSN 2459 1700 M 0 -36 rL SGR
GSN 2492 620 M 0  36 rL SGR
GSN 2492 1700 M 0 -36 rL SGR
GSN 2521 620 M 0  36 rL SGR
GSN 2521 1700 M 0 -36 rL SGR
GSN 2547 620 M 0  36 rL SGR
GSN 2547 1700 M 0 -36 rL SGR
GSN 2720 620 M 0  36 rL SGR
GSN 2720 1700 M 0 -36 rL SGR
GSN 2808 620 M 0  36 rL SGR
GSN 2808 1700 M 0 -36 rL SGR
GSN 2870 620 M 0  36 rL SGR
GSN 2870 1700 M 0 -36 rL SGR
GSN 2918 620 M 0  36 rL SGR
GSN 2918 1700 M 0 -36 rL SGR
GSN 2958 620 M 0  36 rL SGR
GSN 2958 1700 M 0 -36 rL SGR
GSN 2991 620 M 0  36 rL SGR
GSN 2991 1700 M 0 -36 rL SGR
GSN 3020 620 M 0  36 rL SGR
GSN 3020 1700 M 0 -36 rL SGR
GSN 3045 620 M 0  36 rL SGR
GSN 3045 1700 M 0 -36 rL SGR
GSN 3218 620 M 0  36 rL SGR
GSN 3218 1700 M 0 -36 rL SGR
GSN 3306 620 M 0  36 rL SGR
GSN 3306 1700 M 0 -36 rL SGR
GSN 3368 620 M 0  36 rL SGR
GSN 3368 1700 M 0 -36 rL SGR
GSN 3417 620 M 0  36 rL SGR
GSN 3417 1700 M 0 -36 rL SGR
GSN 3456 620 M 0  36 rL SGR
GSN 3456 1700 M 0 -36 rL SGR
GSN 3490 620 M 0  36 rL SGR
GSN 3490 1700 M 0 -36 rL SGR
GSN 3519 620 M 0  36 rL SGR
GSN 3519 1700 M 0 -36 rL SGR
GSN 3544 620 M 0  36 rL SGR
GSN 3544 1700 M 0 -36 rL SGR
GSN 3717 620 M 0  36 rL SGR
GSN 3717 1700 M 0 -36 rL SGR
GSN 3805 620 M 0  36 rL SGR
GSN 3805 1700 M 0 -36 rL SGR
GSN 3867 620 M 0  36 rL SGR
GSN 3867 1700 M 0 -36 rL SGR
GSN 3915 620 M 0  36 rL SGR
GSN 3915 1700 M 0 -36 rL SGR
GSN 3955 620 M 0  36 rL SGR
GSN 3955 1700 M 0 -36 rL SGR
GSN 3988 620 M 0  36 rL SGR
GSN 3988 1700 M 0 -36 rL SGR
GSN 4017 620 M 0  36 rL SGR
GSN 4017 1700 M 0 -36 rL SGR
GSN 4043 620 M 0  36 rL SGR
GSN 4043 1700 M 0 -36 rL SGR
GSN 4216 620 M 0  36 rL SGR
GSN 4216 1700 M 0 -36 rL SGR
%
% Y axis: large tics - residual frame
%
L10
GSN 620 795 M 54 0 rL SGR
GSN 4220 795 M -54 0 rL SGR
helvS (-0.04) 560 795 ylabelresid
GSN 620 1054 M 54 0 rL SGR
GSN 4220 1054 M -54 0 rL SGR
helvS (-0.02) 560 1054 ylabelresid
GSN 620 1314 M 54 0 rL SGR
GSN 4220 1314 M -54 0 rL SGR
helvS (0) 560 1314 ylabelresid
GSN 620 1574 M 54 0 rL SGR
GSN 4220 1574 M -54 0 rL SGR
helvS (0.02) 560 1574 ylabelresid

%
% X axis - residual panel
%
GSN L5 620 1314 M 4220 1314 L SDA G50 SGR

end
showpage
%%Trailer
%%EOF
