%!PS-Adobe-3.0 EPSF-3.0
%%BoundingBox: 0 0 514 550
%%Creator: BioKin Ltd.
%%DocumentFonts: Symbol Helvetica
%%EndComments
%
/bkdict 256 dict def
bkdict begin
/M {moveto} def 
/R {rmoveto} def
/L {lineto} def
/rL {rlineto} def
/GSN {gsave newpath} def
/SGR {stroke grestore} def
/COSGR {gsave setrgbcolor stroke grestore grestore} def
/SL {setlinewidth} def
/LWMB {12} def             % line width - model curves, black & white
/LWMC {10} def             % line width - model curves, color
/L2 {2.5 setlinewidth} def
/L5 {5 setlinewidth} def
/L10 {10 setlinewidth} def
/G50 {0.5 setgray} def
/SDA {[10  20] 0 setdash} def % axes
/helvT {/Helvetica findfont 100 scalefont setfont} def % tiny
/helvS {/Helvetica findfont 125 scalefont setfont} def % small
/helvM {/Helvetica findfont 150 scalefont setfont} def % medium
/helvL {/Helvetica findfont 175 scalefont setfont} def % large
/xlabel {gsave M dup
   stringwidth exch -0.5 mul exch rmoveto show grestore} def 
/ylabel {gsave M 90 rotate dup
   stringwidth exch -0.5 mul exch rmoveto show grestore} def
/ylabelresid {gsave M dup
   stringwidth exch -1 mul exch rmoveto show grestore} def
% ======
% Shapes
% ======
% Circle:
/Circ {0 360 arc closepath} def
%
% Square:
/Squa {dup dup -0.5 mul dup dup R -2 mul 0 exch rL 1 mul 0 rL dup 0 exch -1 mul rL closepath} def
%
% Triangle Up:
/TriU {dup dup dup -0.4 mul exch -0.5 mul exch R dup 0.5 mul exch rL dup -1 mul exch 0.5 mul exch rL closepath} def 
%
% Triangle Down:
/TriD {dup dup dup 0.4 mul exch -0.5 mul exch R dup 0.5 mul exch -1 mul rL dup 0.5 mul exch rL closepath} def 
%
% Diamond:
/Diam {45 rotate Squa} def
% ======
% Fills
% ======
/GRF {gsave setgray fill grestore} def                    % gray-level Fill
/COF {gsave setrgbcolor fill grestore} def                % color fill
% ======
% Colors
% ======
/C01 {1.00	0.00	0.00} def      % Red
/C02 {0.00	0.00	1.00} def      % Blue
/C03 {0.00	0.39	0.00} def      % Dark Green
/C04 {0.78	0.08	0.52} def      % Medium Violet Red
/C05 {0.55	0.27	0.07} def      % Saddle Brown
/C06 {0.10	0.70	0.70} def      % (cyan)
/C07 {1.00	0.55	0.00} def      % Dark Orange
/C08 {0.63	0.13	0.94} def      % Purple
/C09 {0.00	0.75	1.00} def      % Deep Sky Blue
/C10 {0.20	0.80	0.20} def      % Lime Green
/C11 {0.47	0.53	0.60} def      % Light Slate Gray
/C12 {0.00	0.00	0.00} def      % Black            % or: {0.19	0.31	0.31} def      % Dark Slate Gray
%
/LGR {0.75} def % light gray
/DGR {0.33} def % dark gray
%
% =============
% Dash patterns
% =============
/dash01 { [80  20] 0 setdash } def
/dash02 { [40  20] 0 setdash } def
/dash03 { [80  20  10  20] 0 setdash } def
/dash04 { [40  20  10  20] 0 setdash } def
/dash05 { [80  20  10  10  10  20] 0 setdash } def
/dash06 { [40  20  10  10  10  20] 0 setdash } def
/dash07 { [10  10] 0 setdash } def
%
/MFshow {
   { dup 5 get 3 ge
     { 5 get 3 eq {gsave} {grestore} ifelse }
     {dup dup 0 get findfont exch 1 get scalefont setfont
     [ currentpoint ] exch dup 2 get 0 exch R dup 5 get 2 ne {dup dup 6
     get exch 4 get {show} {stringwidth pop 0 R} ifelse }if dup 5 get 0 eq
     {dup 3 get {2 get neg 0 exch R pop} {pop aload pop M} ifelse} {dup 5
     get 1 eq {dup 2 get exch dup 3 get exch 6 get stringwidth pop -2 div
     dup 0 R} {dup 6 get stringwidth pop -2 div 0 R 6 get
     show 2 index {aload pop M neg 3 -1 roll neg R pop pop} {pop pop pop
     pop aload pop M} ifelse }ifelse }ifelse }
     ifelse }
   forall} bind def
/MFwidth {0 exch {dup 3 get{dup dup 0 get findfont exch 1 get scalefont
     setfont 6 get stringwidth pop add} {pop} ifelse} forall} bind def
/MCshow { currentpoint stroke M
  exch dup MFwidth -2 div 3 -1 roll R MFshow } def
%
end
%%EndProlog
bkdict begin
0.1 0.1 scale
%
% Residuals:
%
GSN 620 2136 M
620 2388 L
620 2630 L
620 3260 L
620 3298 L
620 3837 L
620 3714 L
620 3921 L
620 4102 L
620 4033 L
620 4161 L
620 4294 L
620 4107 L
620 4225 L
620 4338 L
620 4408 L
620 4656 L
620 4495 L
620 4619 L
620 4573 L
620 4622 L
620 4634 L
620 4699 L
620 4487 L
620 4691 L
620 4793 L
620 4458 L
620 4703 L
620 4456 L
620 4663 L
620 4547 L
620 4499 L
620 4582 L
620 4660 L
620 4615 L
620 4533 L
620 4668 L
620 4863 L
620 4451 L
620 4615 L
620 4625 L
620 4604 L
620 4584 L
620 4300 L
620 4689 L
620 4681 L
620 4395 L
620 4511 L
620 4270 L
620 4386 L
620 4436 L
620 4578 L
620 4622 L
620 4382 L
620 4309 L
620 4559 L
620 4192 L
620 4326 L
620 4330 L
620 4109 L
620 4107 L
620 4268 L
620 4340 L
620 4265 L
620 4150 L
620 4113 L
620 3967 L
620 4164 L
620 4128 L
620 4065 L
620 4182 L
620 4303 L
620 4086 L
620 4051 L
620 4081 L
620 4183 L
620 4000 L
620 3910 L
620 4275 L
620 3906 L
620 4202 L
620 3605 L
620 4038 L
620 3691 L
620 3651 L
620 3752 L
620 3575 L
620 3530 L
620 3664 L
620 3627 L
620 3535 L
620 3491 L
620 3342 L
620 3397 L
620 3426 L
620 3676 L
620 3347 L
620 3408 L
620 3440 L
620 3405 L
620 3010 L
620 3157 L
620 3319 L
620 3284 L
620 3276 L
620 3105 L
620 3237 L
620 3399 L
620 3197 L
620 3205 L
620 3115 L
620 3010 L
620 3306 L
620 3157 L
620 3106 L
620 3148 L
620 3229 L
620 2963 L
620 3077 L
620 3220 L
620 3079 L
620 3111 L
620 3056 L
620 3101 L
620 3083 L
620 3104 L
620 3134 L
620 3135 L
620 3194 L
620 2953 L
620 3130 L
620 3271 L
620 3107 L
620 3145 L
620 3118 L
620 3202 L
620 3124 L
620 3088 L
620 3067 L
620 3118 L
620 3175 L
620 3167 L
620 3146 L
620 3202 L
620 3195 L
620 3306 L
620 3354 L
620 2865 L
620 2966 L
620 3110 L
620 3348 L
620 3281 L
620 3114 L
620 3223 L
620 3229 L
620 3213 L
620 3179 L
620 3306 L
620 3154 L
620 3225 L
620 3073 L
620 3218 L
620 3358 L
620 3131 L
620 3319 L
620 3245 L
620 3232 L
620 3217 L
620 3445 L
620 3239 L
620 3430 L
620 3343 L
620 3369 L
620 3449 L
620 3255 L
620 3255 L
620 3430 L
620 3383 L
620 3264 L
620 3303 L
620 3315 L
620 3408 L
620 3545 L
620 3362 L
620 3468 L
620 3335 L
620 3493 L
620 3493 L
620 3288 L
620 3381 L
620 3413 L
620 3522 L
620 3258 L
620 3372 L
620 3473 L
620 3461 L
620 3309 L
620 3369 L
620 3342 L
620 3494 L
620 3415 L
620 3509 L
620 3247 L
620 3682 L
620 3431 L
620 3451 L
620 3507 L
620 3415 L
620 3495 L
620 3573 L
620 3470 L
620 3445 L
620 3558 L
620 3317 L
620 3454 L
620 3549 L
620 3661 L
620 3606 L
620 3574 L
620 3571 L
620 3576 L
620 3550 L
620 3722 L
620 3685 L
620 3698 L
620 3401 L
620 3567 L
620 3825 L
620 3668 L
620 3692 L
620 3580 L
620 3691 L
620 3649 L
620 3511 L
620 3686 L
620 3591 L
620 3857 L
620 3842 L
620 3545 L
620 3789 L
620 3629 L
620 3705 L
620 3632 L
620 3831 L
620 3628 L
620 3542 L
620 3475 L
620 3809 L
620 3575 L
620 3579 L
620 3555 L
620 3575 L
620 3669 L
620 3767 L
620 3811 L
620 3645 L
620 3651 L
620 3661 L
620 3786 L
620 3549 L
620 3586 L
620 3974 L
620 3810 L
620 3805 L
620 3870 L
620 3788 L
620 3777 L
620 3713 L
620 3584 L
620 3771 L
620 3904 L
620 3695 L
620 3444 L
620 3801 L
620 3732 L
620 3758 L
620 3887 L
620 3669 L
620 3811 L
620 3820 L
620 3948 L
620 3956 L
620 3969 L
620 3988 L
620 4143 L
620 3825 L
620 4049 L
620 4261 L
620 4083 L
620 4158 L
620 3938 L
620 4131 L
620 4140 L
620 4119 L
620 4155 L
620 4142 L
620 3873 L
620 4177 L
620 4109 L
620 4055 L
620 4081 L
620 4188 L
620 4068 L
620 4011 L
620 4249 L
620 3879 L
620 4260 L
620 4088 L
620 4088 L
620 4026 L
620 4044 L
620 4128 L
620 4008 L
620 3981 L
620 3995 L
620 4105 L
620 4062 L
620 3950 L
620 4031 L
620 4024 L
620 3891 L
620 3939 L
620 4023 L
620 4112 L
620 4027 L
620 4027 L
620 3921 L
620 3945 L
620 3900 L
620 4007 L
620 4130 L
620 3952 L
620 4201 L
620 4176 L
620 3946 L
620 4097 L
620 4040 L
620 3920 L
620 4002 L
620 4386 L
620 4001 L
620 4106 L
620 3893 L
620 3842 L
620 3946 L
620 3892 L
620 3992 L
620 4104 L
620 3912 L
620 4008 L
620 3872 L
620 3832 L
620 3843 L
620 3670 L
620 4112 L
620 3764 L
620 3930 L
620 3866 L
620 4025 L
620 3901 L
620 3879 L
620 3968 L
620 4023 L
620 3937 L
620 3700 L
620 3951 L
620 3944 L
620 3793 L
620 3716 L
620 3847 L
620 3722 L
620 4063 L
620 3859 L
620 3871 L
620 3757 L
620 3885 L
620 3702 L
620 3907 L
620 3916 L
620 3658 L
620 3500 L
620 3838 L
620 3958 L
620 3715 L
620 3637 L
620 3759 L
620 3696 L
620 3808 L
620 3575 L
620 3805 L
620 3833 L
620 3848 L
620 3703 L
620 3753 L
620 3912 L
620 3597 L
620 3537 L
620 3870 L
620 3577 L
620 3757 L
620 3441 L
620 3656 L
620 3525 L
620 3743 L
620 3994 L
620 3681 L
620 3592 L
620 3730 L
620 3361 L
620 3622 L
620 3713 L
620 3783 L
620 3551 L
620 3804 L
620 3560 L
620 3717 L
620 3701 L
620 3724 L
620 3812 L
620 3479 L
620 3749 L
620 3509 L
620 3599 L
620 3635 L
620 3755 L
620 3646 L
620 3573 L
620 3730 L
620 3515 L
620 3601 L
620 3646 L
620 3717 L
620 3650 L
620 3826 L
620 3659 L
620 3885 L
620 3573 L
620 3780 L
620 3701 L
620 3675 L
620 3668 L
620 3678 L
620 3658 L
620 3569 L
620 3588 L
620 3959 L
620 3655 L
620 3527 L
620 3706 L
620 3646 L
620 3891 L
620 3579 L
620 3847 L
620 3858 L
620 3585 L
620 3789 L
620 3633 L
620 3743 L
620 3762 L
620 3807 L
620 3427 L
620 3834 L
620 3495 L
620 3621 L
620 3597 L
620 3742 L
620 3756 L
620 3344 L
620 3531 L
620 3539 L
620 3685 L
620 3826 L
620 3543 L
620 3588 L
620 3264 L
620 3693 L
620 3534 L
620 3716 L
620 3275 L
620 3603 L
620 3816 L
620 3421 L
620 3454 L
620 3508 L
620 3472 L
620 3600 L
620 3628 L
620 3674 L
620 3640 L
620 3578 L
620 3581 L
620 3436 L
620 3672 L
620 3662 L
620 3237 L
620 3615 L
620 3510 L
620 3644 L
620 3551 L
620 3602 L
620 3729 L
620 3619 L
620 3475 L
620 3402 L
620 3601 L
620 3638 L
620 3425 L
620 3399 L
620 3622 L
620 3682 L
620 3437 L
620 3662 L
620 3579 L
620 3403 L
620 3600 L
620 3608 L
620 3975 L
620 3547 L
620 3534 L
620 3692 L
620 3496 L
620 3616 L
620 3740 L
620 3635 L
620 3633 L
620 3475 L
620 3610 L
620 3663 L
620 3609 L
620 3502 L
620 3479 L
620 3566 L
620 3522 L
L2 C04 COSGR

%
%================
% Legend - Begin
%================
%
GSN 4240 5180 M
4480 5180 L
LWMC SL  C04 COSGR
GSN 4540 5141 M helvM (2.0 uM) show grestore
%
%================
% Legend - End
%================
%

%
% Main frame
%
L10
GSN 
620 1700 M
4220 1700 L
4220 5300 L
620 5300 L
closepath SGR

%
% X axis: large tics
%
L10
%
% X axis: small tics
%
L5
%
% Y axis: large tics
%
L10
GSN 620 1888 M 54 0 rL SGR
GSN 4220 1888 M -54 0 rL SGR
helvS (-0.04) 560 1888 ylabel
GSN 620 2804 M 54 0 rL SGR
GSN 4220 2804 M -54 0 rL SGR
helvS (-0.02) 560 2804 ylabel
GSN 620 3721 M 54 0 rL SGR
GSN 4220 3721 M -54 0 rL SGR
helvS (0) 560 3721 ylabel
GSN 620 4637 M 54 0 rL SGR
GSN 4220 4637 M -54 0 rL SGR
helvS (0.02) 560 4637 ylabel
%
% Y axis: small tics
%
L5
GSN 620 1888 M 36 0 rL SGR
GSN 4220 1888 M -36 0 rL SGR
GSN 620 2117 M 36 0 rL SGR
GSN 4220 2117 M -36 0 rL SGR
GSN 620 2346 M 36 0 rL SGR
GSN 4220 2346 M -36 0 rL SGR
GSN 620 2575 M 36 0 rL SGR
GSN 4220 2575 M -36 0 rL SGR
GSN 620 2804 M 36 0 rL SGR
GSN 4220 2804 M -36 0 rL SGR
GSN 620 3033 M 36 0 rL SGR
GSN 4220 3033 M -36 0 rL SGR
GSN 620 3263 M 36 0 rL SGR
GSN 4220 3263 M -36 0 rL SGR
GSN 620 3492 M 36 0 rL SGR
GSN 4220 3492 M -36 0 rL SGR
GSN 620 3721 M 36 0 rL SGR
GSN 4220 3721 M -36 0 rL SGR
GSN 620 3950 M 36 0 rL SGR
GSN 4220 3950 M -36 0 rL SGR
GSN 620 4179 M 36 0 rL SGR
GSN 4220 4179 M -36 0 rL SGR
GSN 620 4408 M 36 0 rL SGR
GSN 4220 4408 M -36 0 rL SGR
GSN 620 4637 M 36 0 rL SGR
GSN 4220 4637 M -36 0 rL SGR
GSN 620 4866 M 36 0 rL SGR
GSN 4220 4866 M -36 0 rL SGR
GSN 620 5095 M 36 0 rL SGR
GSN 4220 5095 M -36 0 rL SGR

%
% X axis - residual panel
%
GSN L5 620 3721 M 4220 3721 L SDA G50 SGR

%
% X-Axis label:
%
gsave 620 1370 M 
[
[(Helvetica) 180 0 true true 0 (t)]
[(Helvetica) 180 0 true true 0 (i)]
[(Helvetica) 180 0 true true 0 (m)]
[(Helvetica) 180 0 true true 0 (e)]
] 0 MCshow grestore

%
% Y-Axis label:
%
gsave 234 3500 M 
currentpoint gsave translate 90 rotate 0 0 moveto
[
[(Helvetica) 180 0 true true 0 (r)]
[(Helvetica) 180 0 true true 0 (e)]
[(Helvetica) 180 0 true true 0 (s)]
[(Helvetica) 180 0 true true 0 (i)]
[(Helvetica) 180 0 true true 0 (d)]
[(Helvetica) 180 0 true true 0 (u)]
[(Helvetica) 180 0 true true 0 (a)]
[(Helvetica) 180 0 true true 0 (l)]
[(Helvetica) 180 0 true true 0 (s)]
] 0 MCshow grestore

end
showpage
%%Trailer
%%EOF
