%!PS-Adobe-3.0 EPSF-3.0
%%BoundingBox: 0 0 514 550
%%Creator: BioKin Ltd.
%%DocumentFonts: Symbol Helvetica
%%EndComments
%
/bkdict 256 dict def
bkdict begin
/M {moveto} def 
/R {rmoveto} def
/L {lineto} def
/rL {rlineto} def
/GSN {gsave newpath} def
/SGR {stroke grestore} def
/COSGR {gsave setrgbcolor stroke grestore grestore} def
/SL {setlinewidth} def
/LWMB {12} def             % line width - model curves, black & white
/LWMC {10} def             % line width - model curves, color
/L2 {2.5 setlinewidth} def
/L5 {5 setlinewidth} def
/L10 {10 setlinewidth} def
/G50 {0.5 setgray} def
/SDA {[10  20] 0 setdash} def % axes
/helvT {/Helvetica findfont 100 scalefont setfont} def % tiny
/helvS {/Helvetica findfont 125 scalefont setfont} def % small
/helvM {/Helvetica findfont 150 scalefont setfont} def % medium
/helvL {/Helvetica findfont 175 scalefont setfont} def % large
/xlabel {gsave M dup
   stringwidth exch -0.5 mul exch rmoveto show grestore} def 
/ylabel {gsave M 90 rotate dup
   stringwidth exch -0.5 mul exch rmoveto show grestore} def
/ylabelresid {gsave M dup
   stringwidth exch -1 mul exch rmoveto show grestore} def
% ======
% Shapes
% ======
% Circle:
/Circ {0 360 arc closepath} def
%
% Square:
/Squa {dup dup -0.5 mul dup dup R -2 mul 0 exch rL 1 mul 0 rL dup 0 exch -1 mul rL closepath} def
%
% Triangle Up:
/TriU {dup dup dup -0.4 mul exch -0.5 mul exch R dup 0.5 mul exch rL dup -1 mul exch 0.5 mul exch rL closepath} def 
%
% Triangle Down:
/TriD {dup dup dup 0.4 mul exch -0.5 mul exch R dup 0.5 mul exch -1 mul rL dup 0.5 mul exch rL closepath} def 
%
% Diamond:
/Diam {45 rotate Squa} def
% ======
% Fills
% ======
/GRF {gsave setgray fill grestore} def                    % gray-level Fill
/COF {gsave setrgbcolor fill grestore} def                % color fill
% ======
% Colors
% ======
/C01 {1.00	0.00	0.00} def      % Red
/C02 {0.00	0.00	1.00} def      % Blue
/C03 {0.00	0.39	0.00} def      % Dark Green
/C04 {0.78	0.08	0.52} def      % Medium Violet Red
/C05 {0.55	0.27	0.07} def      % Saddle Brown
/C06 {0.10	0.70	0.70} def      % (cyan)
/C07 {1.00	0.55	0.00} def      % Dark Orange
/C08 {0.63	0.13	0.94} def      % Purple
/C09 {0.00	0.75	1.00} def      % Deep Sky Blue
/C10 {0.20	0.80	0.20} def      % Lime Green
/C11 {0.47	0.53	0.60} def      % Light Slate Gray
/C12 {0.00	0.00	0.00} def      % Black            % or: {0.19	0.31	0.31} def      % Dark Slate Gray
%
/LGR {0.75} def % light gray
/DGR {0.33} def % dark gray
%
% =============
% Dash patterns
% =============
/dash01 { [80  20] 0 setdash } def
/dash02 { [40  20] 0 setdash } def
/dash03 { [80  20  10  20] 0 setdash } def
/dash04 { [40  20  10  20] 0 setdash } def
/dash05 { [80  20  10  10  10  20] 0 setdash } def
/dash06 { [40  20  10  10  10  20] 0 setdash } def
/dash07 { [10  10] 0 setdash } def
%
/MFshow {
   { dup 5 get 3 ge
     { 5 get 3 eq {gsave} {grestore} ifelse }
     {dup dup 0 get findfont exch 1 get scalefont setfont
     [ currentpoint ] exch dup 2 get 0 exch R dup 5 get 2 ne {dup dup 6
     get exch 4 get {show} {stringwidth pop 0 R} ifelse }if dup 5 get 0 eq
     {dup 3 get {2 get neg 0 exch R pop} {pop aload pop M} ifelse} {dup 5
     get 1 eq {dup 2 get exch dup 3 get exch 6 get stringwidth pop -2 div
     dup 0 R} {dup 6 get stringwidth pop -2 div 0 R 6 get
     show 2 index {aload pop M neg 3 -1 roll neg R pop pop} {pop pop pop
     pop aload pop M} ifelse }ifelse }ifelse }
     ifelse }
   forall} bind def
/MFwidth {0 exch {dup 3 get{dup dup 0 get findfont exch 1 get scalefont
     setfont 6 get stringwidth pop add} {pop} ifelse} forall} bind def
/MCshow { currentpoint stroke M
  exch dup MFwidth -2 div 3 -1 roll R MFshow } def
%
end
%%EndProlog
bkdict begin
0.1 0.1 scale
%
% Model curves:
%

GSN 753 3664 M
753 3664 L
786 3664 L
820 3664 L
853 3664 L
886 3664 L
920 3664 L
929 3664 L
953 3664 L
986 3664 L
1020 3664 L
1053 3663 L
1086 3663 L
1106 3663 L
1120 3663 L
1153 3663 L
1186 3663 L
1220 3663 L
1253 3663 L
1282 3663 L
1286 3663 L
1319 3662 L
1353 3662 L
1386 3662 L
1419 3662 L
1453 3661 L
1459 3661 L
1486 3661 L
1519 3660 L
1553 3660 L
1586 3659 L
1619 3659 L
1635 3658 L
1653 3658 L
1686 3657 L
1719 3656 L
1753 3655 L
1786 3654 L
1812 3652 L
1819 3652 L
1853 3650 L
1886 3649 L
1919 3646 L
1953 3644 L
1986 3641 L
1988 3641 L
2019 3638 L
2053 3634 L
2086 3630 L
2119 3626 L
2153 3620 L
2165 3618 L
2186 3615 L
2219 3608 L
2253 3600 L
2286 3592 L
2319 3582 L
2341 3575 L
2353 3571 L
2386 3559 L
2419 3545 L
2453 3530 L
2486 3513 L
2518 3495 L
2519 3494 L
2553 3473 L
2586 3449 L
2619 3423 L
2653 3395 L
2686 3365 L
2694 3357 L
2719 3332 L
2753 3296 L
2786 3258 L
2819 3219 L
2853 3177 L
2871 3154 L
2886 3134 L
2919 3091 L
2953 3048 L
2986 3006 L
3019 2966 L
3047 2934 L
3053 2928 L
3086 2895 L
3119 2866 L
3153 2841 L
3186 2823 L
3219 2809 L
3224 2807 L
3253 2800 L
3286 2796 L
3319 2794 L
3353 2796 L
3386 2798 L
3400 2800 L
3419 2802 L
3453 2805 L
3476 2807 L
3486 2807 L
3519 2808 L
3553 2808 L
3577 2807 L
3586 2807 L
3619 2803 L
3653 2798 L
3686 2792 L
3719 2783 L
3753 2773 L
3754 2773 L
3786 2762 L
3819 2751 L
3853 2738 L
3886 2726 L
3919 2714 L
3930 2710 L
3953 2703 L
3986 2692 L
4019 2683 L
4053 2675 L
4086 2669 L
4086 2669 L
LWMC SL  C01 COSGR

%
% Experimental data:
%
GSN 777 4839 M
1388 4617 L
1552 4451 L
1652 4663 L
1723 5051 L
1778 4451 L
1824 4320 L
1863 4601 L
1896 4617 L
1926 4333 L
1952 4520 L
1976 4671 L
1998 4714 L
2019 4697 L
2037 5038 L
2055 4834 L
2071 5166 L
2086 4778 L
2101 4708 L
2115 4751 L
2128 4654 L
2140 4558 L
2152 4821 L
2163 5005 L
2174 5054 L
2184 4513 L
2194 4537 L
2204 4791 L
2213 4580 L
2222 4325 L
2230 4531 L
2239 4593 L
2247 4440 L
2255 4764 L
2262 4553 L
2270 4521 L
2277 4590 L
2284 4295 L
2290 4582 L
2297 4772 L
2303 4561 L
2310 4577 L
2316 4512 L
2322 4295 L
2328 4620 L
2333 4467 L
2339 4400 L
2344 4542 L
2350 4271 L
2355 4330 L
2360 4486 L
2365 4156 L
2370 4357 L
2375 4491 L
2380 4405 L
2384 4186 L
2389 4400 L
2393 4239 L
2398 4258 L
2402 4403 L
2407 4681 L
2411 4397 L
2415 4397 L
2419 4314 L
2423 4416 L
2427 4250 L
2431 4049 L
2435 4277 L
2438 4148 L
2442 4258 L
2446 4432 L
2449 4218 L
2453 4303 L
2456 4665 L
2460 4218 L
2463 4504 L
2467 4127 L
2470 4191 L
2473 4170 L
2476 4689 L
2480 4432 L
2483 3974 L
2486 4397 L
2489 4242 L
2492 4124 L
2495 4488 L
2498 4226 L
2501 4293 L
2504 4285 L
2507 4456 L
2510 4129 L
2512 4118 L
2515 4553 L
2518 4411 L
2521 4255 L
2523 4279 L
2526 4202 L
2529 4164 L
2531 4566 L
2534 3928 L
2536 4188 L
2539 3961 L
2541 4360 L
2544 4542 L
2546 4454 L
2549 4027 L
2551 4296 L
2554 4167 L
2556 4269 L
2558 4362 L
2561 4094 L
2563 4191 L
2565 3998 L
2568 4180 L
2570 3733 L
2572 4196 L
2574 4467 L
2576 4346 L
2579 4515 L
2581 3993 L
2583 3974 L
2585 4330 L
2587 4427 L
2589 4151 L
2591 4298 L
2593 4245 L
2595 4231 L
2597 4223 L
2599 4046 L
2601 3998 L
2603 4392 L
2605 4068 L
2607 3918 L
2609 4338 L
2611 3700 L
2613 4172 L
2615 4301 L
2617 4352 L
2618 4159 L
2620 4341 L
2622 4309 L
2624 3832 L
2626 3944 L
2627 4014 L
2629 3880 L
2631 4079 L
2633 4204 L
2634 3642 L
2636 4003 L
2638 4076 L
2640 3931 L
2641 3800 L
2643 4164 L
2645 4140 L
2646 3998 L
2648 3601 L
2650 3869 L
2651 4033 L
2653 4052 L
2654 3963 L
2656 3786 L
2658 3816 L
2659 3993 L
2661 4188 L
2662 3709 L
2664 3818 L
2665 3979 L
2667 4320 L
2668 3792 L
2670 4049 L
2671 4076 L
2673 3966 L
2674 3714 L
2676 3754 L
2677 3757 L
2679 4062 L
2680 3695 L
2682 3939 L
2683 4119 L
2685 3773 L
2686 3888 L
2687 3880 L
2689 4030 L
2690 3880 L
2692 3738 L
2693 3901 L
2694 3853 L
2696 3810 L
2697 3864 L
2698 4156 L
2700 3993 L
2701 3877 L
2702 3618 L
2704 3918 L
2705 3604 L
2706 3974 L
2708 3910 L
2709 4191 L
2710 3837 L
2712 3754 L
2713 4103 L
2714 3607 L
2715 3767 L
2717 3867 L
2718 3987 L
2719 4293 L
2720 3982 L
2722 3818 L
2723 3899 L
2724 3776 L
2725 3692 L
2726 3802 L
2728 3564 L
2729 3869 L
2730 3717 L
2731 3819 L
2732 3575 L
2734 3580 L
2735 3832 L
2736 3561 L
2737 3478 L
2738 3966 L
2739 3813 L
2741 3802 L
2742 3478 L
2743 3628 L
2744 3883 L
2745 3532 L
2746 3580 L
2747 3582 L
2748 3489 L
2749 3802 L
2751 3872 L
2752 4084 L
2753 3500 L
2754 3778 L
2755 3599 L
2756 3583 L
2757 3819 L
2758 3703 L
2759 3792 L
2760 3754 L
2761 3291 L
2762 3583 L
2763 3775 L
2764 3714 L
2765 3808 L
2767 3518 L
2768 3540 L
2769 3588 L
2770 3805 L
2771 3449 L
2772 3368 L
2773 3537 L
2774 3955 L
2775 3888 L
2776 3575 L
2777 3355 L
2778 3837 L
2779 3342 L
2780 3435 L
2781 3666 L
2782 3486 L
2783 3518 L
2783 3744 L
2784 2996 L
2785 3687 L
2786 3553 L
2787 3693 L
2788 3800 L
2789 3253 L
2790 3534 L
2791 3942 L
2792 3537 L
2793 3714 L
2794 3513 L
2795 3526 L
2796 3226 L
2797 3288 L
2798 3521 L
2798 3692 L
2799 3323 L
2800 3816 L
2801 3392 L
2802 3419 L
2803 3899 L
2804 3433 L
2805 3269 L
2806 3569 L
2807 3288 L
2807 3513 L
2808 3194 L
2809 3502 L
2810 3398 L
2811 3451 L
2812 3368 L
2813 3491 L
2813 3634 L
2814 3759 L
2815 3146 L
2816 3229 L
2817 3518 L
2818 3599 L
2819 3074 L
2819 3242 L
2820 3647 L
2821 3301 L
2822 3492 L
2823 3502 L
2824 3293 L
2824 3181 L
2825 3269 L
2826 3068 L
2827 3551 L
2828 3173 L
2828 3336 L
2829 3535 L
2830 3497 L
2831 3419 L
2832 3497 L
2832 3636 L
2833 3708 L
2834 3403 L
2835 3596 L
2836 3411 L
2836 3548 L
2837 3116 L
2838 3382 L
2839 3269 L
2840 3551 L
2840 3146 L
2841 3516 L
2842 3470 L
2843 3639 L
2843 3569 L
2844 3398 L
2845 3401 L
2846 3307 L
2846 3218 L
2847 3457 L
2848 3371 L
2849 3510 L
2849 3642 L
2850 3454 L
2851 2972 L
2852 3210 L
2852 3422 L
2853 3460 L
2854 3258 L
2855 3189 L
2855 3165 L
2856 3510 L
2857 3499 L
2857 2929 L
2858 3371 L
2859 3513 L
2860 3347 L
2860 3167 L
2861 3331 L
2862 3215 L
2862 3280 L
2863 3344 L
2864 3465 L
2865 3323 L
2865 3111 L
2866 3384 L
2867 3387 L
2867 3371 L
2868 3095 L
2869 2905 L
2869 3140 L
2870 3277 L
2871 3467 L
2871 3269 L
2872 3146 L
2873 3363 L
2873 3446 L
2874 3290 L
2875 3395 L
2876 3510 L
2876 3374 L
2877 3213 L
2878 3240 L
2878 3529 L
2879 3285 L
2880 3325 L
2880 2972 L
2881 3022 L
2881 3114 L
2882 3390 L
2883 3237 L
2883 2958 L
2884 2832 L
2885 3076 L
2885 3285 L
2886 3242 L
2887 3280 L
2887 3189 L
2888 3232 L
2889 2993 L
2889 3317 L
2892 3001 L
2894 3288 L
2897 3376 L
2899 3312 L
2902 3068 L
2904 3186 L
2907 2972 L
2909 2921 L
2911 3138 L
2914 3023 L
2916 3022 L
2918 2754 L
2921 3119 L
2923 3307 L
2925 3111 L
2927 3492 L
2929 3344 L
2932 3218 L
2934 3387 L
2936 3210 L
2938 3098 L
2940 3017 L
2942 2722 L
2944 2867 L
2946 3138 L
2948 2964 L
2950 3197 L
2952 3041 L
2954 2942 L
2956 3170 L
2958 2932 L
2960 3143 L
2962 3023 L
2964 2862 L
2966 3192 L
2968 2921 L
2970 2934 L
2971 3071 L
2973 2701 L
2975 2757 L
2977 3098 L
2979 2779 L
2980 2985 L
2982 3031 L
2984 2838 L
2986 2881 L
2987 2848 L
2989 2862 L
2991 2556 L
2993 2902 L
2994 3001 L
2996 2878 L
2998 2990 L
2999 2537 L
3001 3312 L
3003 2993 L
3004 2816 L
3006 2886 L
3007 2795 L
3009 2765 L
3011 2596 L
3012 2519 L
3014 2846 L
3015 2629 L
3017 2425 L
3018 3181 L
3020 2891 L
3021 2806 L
3023 2720 L
3024 3065 L
3026 2803 L
3027 2747 L
3029 2870 L
3030 2610 L
3032 2674 L
3033 2650 L
3035 2851 L
3036 2688 L
3038 2449 L
3039 2918 L
3040 2840 L
3042 2698 L
3043 2599 L
3045 2685 L
3046 2532 L
3047 2704 L
3049 2535 L
3050 2747 L
3051 2575 L
3053 2883 L
3054 2422 L
3055 2722 L
3057 2350 L
3058 2430 L
3059 2771 L
3061 2921 L
3062 2897 L
3063 2529 L
3065 2701 L
3066 2607 L
3067 2787 L
3068 2441 L
3070 2736 L
3071 2564 L
3072 2455 L
3073 2725 L
3075 2396 L
3076 2347 L
3077 2728 L
3078 2768 L
3079 2535 L
3081 2500 L
3082 2789 L
3083 2704 L
3084 2618 L
3085 2358 L
3087 2503 L
3088 2527 L
3089 2661 L
3090 2114 L
3091 2562 L
3092 2492 L
3094 2548 L
3095 2436 L
3096 2570 L
3097 2414 L
3098 2457 L
3099 2291 L
3100 2259 L
3101 2613 L
3103 2720 L
3104 2613 L
3105 2690 L
3106 2479 L
3107 2149 L
3108 2677 L
3109 2489 L
3110 2302 L
3111 2240 L
3112 2661 L
3113 2645 L
3114 2538 L
3115 2629 L
3116 2602 L
3117 2452 L
3119 2575 L
3120 2342 L
3121 2334 L
3122 2294 L
3123 2725 L
3124 2653 L
3125 2623 L
3126 2639 L
3127 2773 L
3128 2291 L
3129 2417 L
3130 2455 L
3131 2596 L
3132 2717 L
3133 2760 L
3134 2717 L
3135 2792 L
3136 2307 L
3136 2342 L
3137 2747 L
3138 2637 L
3139 2406 L
3140 2615 L
3141 2706 L
3142 2645 L
3143 2696 L
3144 2463 L
3145 2350 L
3146 2387 L
3147 2479 L
3148 2189 L
3149 2444 L
3150 2551 L
3151 2321 L
3151 2492 L
3152 2304 L
3153 2508 L
3154 2497 L
3155 2460 L
3156 2532 L
3157 2380 L
3158 2393 L
3159 2503 L
3160 2152 L
3160 2363 L
3161 2288 L
3162 2524 L
3163 2570 L
3164 2535 L
3165 2433 L
3166 2476 L
3166 2355 L
3167 2125 L
3168 2205 L
3169 2532 L
3170 2130 L
3171 2224 L
3172 2690 L
3172 2436 L
3173 2505 L
3174 2334 L
3175 2350 L
3176 2428 L
3177 2409 L
3177 2479 L
3178 2446 L
3179 2479 L
3180 2216 L
3181 2562 L
3181 2189 L
3182 2307 L
3183 2701 L
3184 2468 L
3185 2447 L
3185 2393 L
3186 2382 L
3187 2591 L
3188 2492 L
3189 2345 L
3189 2345 L
3190 2610 L
3191 2211 L
3192 2205 L
3193 2355 L
3193 2165 L
3194 2602 L
3195 2380 L
3196 2538 L
3196 2176 L
3197 2313 L
3198 2465 L
3199 2425 L
3199 2294 L
3200 2270 L
3201 2548 L
3202 2430 L
3202 2468 L
3203 2270 L
3204 2562 L
3205 2203 L
3205 2133 L
3206 2594 L
3207 2331 L
3208 2382 L
3208 2439 L
3209 2353 L
3210 2122 L
3210 2136 L
3211 2195 L
3212 2219 L
3213 2725 L
3213 2050 L
3214 2489 L
3215 2216 L
3215 2240 L
3216 2288 L
3217 2366 L
3218 2674 L
3218 2235 L
3219 2171 L
3220 2393 L
3220 2559 L
3221 2369 L
3222 2481 L
3222 2337 L
3223 2122 L
3224 2446 L
3224 2508 L
3225 2487 L
3226 2288 L
3227 2462 L
3227 2886 L
3228 2733 L
3229 2361 L
3229 2221 L
3230 2109 L
3231 2487 L
3231 2310 L
3232 2178 L
3233 2240 L
3233 2465 L
3234 2514 L
3235 2321 L
3235 2329 L
3236 2449 L
3236 2401 L
3237 2307 L
3238 2519 L
3238 2404 L
3239 2173 L
3240 1833 L
3240 2366 L
3241 2334 L
3242 2481 L
3242 2339 L
3243 2377 L
3244 2353 L
3244 2213 L
3245 2666 L
3245 2138 L
3246 2618 L
3247 2227 L
3247 2481 L
3248 2554 L
3249 2194 L
3249 2047 L
3250 2385 L
3250 2119 L
3251 2203 L
3252 2251 L
3252 2487 L
3253 2267 L
3253 2361 L
3254 2120 L
3255 2203 L
3255 2251 L
3256 1961 L
3257 2010 L
3257 2334 L
3258 2165 L
3258 2589 L
3259 2693 L
3259 2197 L
3260 2390 L
3261 2117 L
3261 2093 L
3262 2374 L
3262 2256 L
3263 2171 L
3264 2157 L
3264 2230 L
3265 2347 L
3265 2430 L
3266 2658 L
3267 2130 L
3267 2101 L
3268 2299 L
3268 2310 L
3269 2237 L
3269 2296 L
3270 2339 L
3271 2417 L
3271 2280 L
3272 2396 L
3272 2390 L
3273 2328 L
3273 2138 L
3274 2589 L
3275 2570 L
3275 2181 L
3276 2240 L
3276 2396 L
3277 2272 L
3277 2409 L
3278 2380 L
3278 2259 L
3279 2546 L
3280 2438 L
3280 2570 L
3281 2650 L
3281 2291 L
3282 2318 L
3282 2302 L
3283 2165 L
3283 2189 L
3284 2532 L
3284 2245 L
3285 2492 L
3285 2578 L
3286 2122 L
3287 2187 L
3287 2334 L
3288 2529 L
3288 2211 L
3289 2149 L
3289 2508 L
3290 2444 L
3290 2401 L
3291 2548 L
3291 2473 L
3292 1900 L
3292 2508 L
3293 2197 L
3293 2122 L
3294 2288 L
3294 2219 L
3295 2564 L
3295 2685 L
3296 2377 L
3297 2280 L
3297 2436 L
3298 2283 L
3298 2326 L
3299 2516 L
3299 2677 L
3300 2342 L
3300 2227 L
3301 2310 L
3301 2661 L
3302 2583 L
3302 2254 L
3303 2524 L
3303 2639 L
3304 2444 L
3304 2082 L
3305 2594 L
3305 2463 L
3306 2321 L
3306 2604 L
3307 2425 L
3307 2436 L
3308 2286 L
3308 2556 L
3309 2393 L
3309 2179 L
3310 2406 L
3310 2230 L
3311 2572 L
3311 2505 L
3312 2398 L
3312 2527 L
3312 2543 L
3313 2380 L
3313 2615 L
3314 2396 L
3314 2784 L
3315 2795 L
3315 2345 L
3316 2567 L
3316 2374 L
3317 2310 L
3317 2339 L
3318 2696 L
3318 2256 L
3319 2414 L
3319 2286 L
3320 2519 L
3320 2591 L
3321 2519 L
3321 2412 L
3321 2168 L
3322 2447 L
3322 2465 L
3323 2666 L
3323 2543 L
3324 2556 L
3324 2650 L
3325 2299 L
3325 2481 L
3326 2189 L
3326 2545 L
3327 2406 L
3327 2538 L
3327 2385 L
3328 2642 L
3328 2497 L
3329 2203 L
3329 2551 L
3330 2422 L
3330 2623 L
3331 2326 L
3331 2567 L
3332 2548 L
3332 2572 L
3332 2463 L
3333 2414 L
3333 2425 L
3334 2715 L
3334 2288 L
3335 2765 L
3335 2599 L
3336 2583 L
3336 2071 L
3336 2639 L
3337 1953 L
3337 2328 L
3338 2653 L
3338 2468 L
3339 2396 L
3339 2270 L
3339 2361 L
3340 2253 L
3340 2632 L
3341 2564 L
3341 2556 L
3342 2283 L
3342 2653 L
3343 2154 L
3343 2409 L
3343 2283 L
3344 2551 L
3344 2304 L
3345 2385 L
3345 2020 L
3346 2361 L
3346 2765 L
3346 2428 L
3347 2192 L
3347 2441 L
3348 2379 L
3348 2473 L
3348 2404 L
3349 2704 L
3349 2294 L
3350 2369 L
3350 2396 L
3351 2393 L
3351 2149 L
3351 2489 L
3352 2473 L
3352 2296 L
3353 2315 L
3353 2543 L
3353 2270 L
3354 2007 L
3354 2720 L
3355 2404 L
3355 2414 L
3355 2313 L
3356 2503 L
3356 2674 L
3357 2645 L
3357 2339 L
3358 2106 L
3358 2621 L
3358 2406 L
3359 2321 L
3359 2505 L
3360 2334 L
3360 3114 L
3360 2286 L
3361 2385 L
3361 2406 L
3362 2288 L
3362 2409 L
3362 2610 L
3363 2605 L
3363 2806 L
3364 2323 L
3364 2961 L
3364 2666 L
3365 2639 L
3365 2508 L
3365 2436 L
3366 2149 L
3366 2503 L
3367 2570 L
3367 2275 L
3367 2540 L
3368 2690 L
3368 2270 L
3369 2685 L
3369 2433 L
3369 2578 L
3370 2570 L
3370 2645 L
3371 2353 L
3371 2246 L
3371 2672 L
3372 2170 L
3372 2730 L
3372 2197 L
3373 2377 L
3373 2439 L
3374 2540 L
3374 2280 L
3374 2575 L
3375 2645 L
3375 2605 L
3375 2615 L
3376 2519 L
3376 2578 L
3377 2580 L
3377 2537 L
3377 2573 L
3378 2401 L
3378 2752 L
3378 2331 L
3379 2537 L
3379 2272 L
3380 2712 L
3380 2763 L
3380 2725 L
3381 2302 L
3381 2570 L
3381 2575 L
3382 2704 L
3382 2259 L
3383 2385 L
3383 2366 L
3383 2379 L
3384 2473 L
3384 2674 L
3384 2334 L
3385 2417 L
3385 2430 L
3385 2500 L
3386 2514 L
3386 2543 L
3387 2439 L
3387 2270 L
3387 2771 L
3388 2500 L
3388 2570 L
3388 2556 L
3389 2559 L
3389 2856 L
3389 2224 L
3390 2277 L
3390 2615 L
3391 2685 L
3391 2455 L
3391 2465 L
3392 2522 L
3392 2302 L
3392 2535 L
3393 2379 L
3393 2567 L
3393 2543 L
3394 2374 L
3394 2460 L
3394 2527 L
3395 1900 L
3395 2685 L
3395 2361 L
3396 2720 L
3396 2363 L
3396 2495 L
3397 2497 L
3397 2733 L
3398 2674 L
3398 2564 L
3398 2328 L
3399 2733 L
3399 2645 L
3399 2559 L
3400 2623 L
3400 2942 L
3400 2808 L
3401 2305 L
3401 2514 L
3401 2642 L
3402 2797 L
3402 2647 L
3402 2645 L
3403 2848 L
3403 2674 L
3403 2776 L
3404 2637 L
3404 2516 L
3404 2409 L
3405 2596 L
3405 2918 L
3405 2208 L
3406 2666 L
3406 2800 L
3406 2556 L
3407 2412 L
3407 2417 L
3407 2886 L
3408 2594 L
3408 2377 L
3408 2784 L
3409 2500 L
3409 2768 L
3409 2570 L
3410 2460 L
3410 2618 L
3410 2693 L
3411 2714 L
3411 2722 L
3411 2554 L
3412 2396 L
3412 2422 L
3412 2749 L
3413 2251 L
3413 2516 L
3413 2709 L
3414 2709 L
3414 2757 L
3414 2714 L
3415 2765 L
3415 2891 L
3415 2465 L
3416 2964 L
3416 2621 L
3416 2444 L
3417 2390 L
3417 2465 L
3417 2589 L
3417 2629 L
3418 2310 L
3418 2524 L
3418 2473 L
3419 2655 L
3419 2492 L
3419 2607 L
3420 2417 L
3420 2685 L
3420 2924 L
3421 2707 L
3421 2642 L
3421 2736 L
3422 2235 L
3422 2797 L
3422 2353 L
3423 2830 L
3423 2814 L
3423 2240 L
3423 2511 L
3424 2629 L
3424 3007 L
3424 2567 L
3425 2733 L
3425 2554 L
3425 2731 L
3426 2682 L
3426 2586 L
3426 2505 L
3427 2824 L
3427 2650 L
3427 2655 L
3428 2655 L
3428 2559 L
3428 2473 L
3428 2875 L
3429 2696 L
3429 2436 L
3429 2610 L
3430 2859 L
3430 2262 L
3430 2602 L
3431 2224 L
3431 2205 L
3431 2291 L
3431 2578 L
3432 2387 L
3432 2838 L
3432 2345 L
3433 2548 L
3433 2642 L
3433 2792 L
3434 2835 L
3434 2575 L
3434 2747 L
3434 2787 L
3435 2894 L
3435 2465 L
3435 2556 L
3436 2926 L
3436 2374 L
3436 2599 L
3437 2251 L
3437 2733 L
3437 2891 L
3437 2430 L
3438 2535 L
3438 2787 L
3438 2717 L
3439 2725 L
3439 2669 L
3439 2596 L
3440 2546 L
3440 2760 L
3440 2696 L
3440 2605 L
3441 2736 L
3441 2883 L
3441 2476 L
3442 2562 L
3442 2886 L
3442 2575 L
3442 3009 L
3443 2280 L
3443 2559 L
3443 2771 L
3444 2527 L
3444 2701 L
3444 2578 L
3444 2650 L
3445 2548 L
3445 2637 L
3445 2843 L
3446 2776 L
3446 2554 L
3446 2714 L
3446 2640 L
3447 2441 L
3447 2275 L
3447 2755 L
3448 2545 L
3448 2905 L
3448 2489 L
3448 2339 L
3449 2500 L
3449 2851 L
3449 2575 L
3450 2639 L
3450 2859 L
3450 2476 L
3450 2406 L
3451 2752 L
3451 2881 L
3451 2556 L
3452 2460 L
3452 2559 L
3452 2765 L
3452 2529 L
3453 2604 L
3453 2666 L
3453 2776 L
3454 2503 L
3454 3063 L
3454 2816 L
3454 2605 L
3455 2548 L
3455 2444 L
3455 3052 L
3455 2768 L
3456 2599 L
3456 2832 L
3456 2602 L
3457 2784 L
3457 2878 L
3457 2677 L
3457 2439 L
3458 2755 L
3458 2813 L
3458 2947 L
3458 2481 L
3459 2784 L
3459 3135 L
3459 2339 L
3460 2661 L
3460 2712 L
3460 2824 L
3460 2720 L
3461 2677 L
3461 2350 L
3461 2915 L
3461 2634 L
3462 2548 L
3462 2846 L
3462 2816 L
3463 2811 L
3463 2586 L
3463 2714 L
3463 3009 L
3464 2586 L
3464 2462 L
3464 2254 L
3464 2972 L
3465 2889 L
3465 2645 L
3465 2953 L
3465 2706 L
3466 2731 L
3466 2205 L
3466 2433 L
3466 3063 L
3467 2631 L
3467 2894 L
3467 2950 L
3468 2629 L
3468 2781 L
3468 2717 L
3468 2827 L
3469 2717 L
3469 2538 L
3469 2575 L
3469 2586 L
3470 2446 L
3470 2685 L
3470 2629 L
3470 2503 L
3471 2439 L
3471 2690 L
3471 2897 L
3471 2864 L
3472 2682 L
3472 2393 L
3472 2773 L
3472 2806 L
3473 2926 L
3473 2680 L
3473 3084 L
3474 2969 L
3474 2846 L
3474 2546 L
3474 2481 L
3475 2969 L
3475 2465 L
3475 2583 L
3475 2599 L
3476 2355 L
3476 3162 L
3476 2420 L
3476 2843 L
3477 2873 L
3477 2532 L
3477 2897 L
3477 2674 L
3478 2363 L
3478 2709 L
3478 2323 L
3478 2621 L
3479 2956 L
3479 2776 L
3479 2934 L
3479 2468 L
3480 3033 L
3480 2854 L
3480 3017 L
3480 2599 L
3481 3140 L
3481 2661 L
3481 2921 L
3481 2934 L
3482 2974 L
3482 2937 L
3482 2463 L
3482 3063 L
3483 2725 L
3483 2856 L
3483 2720 L
3483 2500 L
3484 3068 L
3484 2980 L
3484 2795 L
3484 2760 L
3485 2414 L
3485 2816 L
3485 2824 L
3485 2642 L
3486 3098 L
3486 2819 L
3486 2693 L
3486 2760 L
3487 2677 L
3487 3039 L
3487 2642 L
3487 2948 L
3488 2752 L
3488 2787 L
3488 2736 L
3488 3009 L
3488 2682 L
3489 2838 L
3489 2757 L
3489 2377 L
3489 3074 L
3490 2337 L
3490 2790 L
3490 2763 L
3490 2404 L
3491 2690 L
3491 3170 L
3491 2736 L
3491 2822 L
3492 3009 L
3492 2803 L
3492 3033 L
3492 2848 L
3493 2503 L
3493 3100 L
3493 2811 L
3493 3020 L
3494 2870 L
3494 2537 L
3494 2755 L
3494 2645 L
3494 3023 L
3495 2806 L
3495 2607 L
3495 3090 L
3495 2921 L
3496 2953 L
3496 2760 L
3496 2669 L
3496 2910 L
3497 2672 L
3497 2897 L
3497 2674 L
3497 2674 L
3498 2476 L
3498 2634 L
3498 2559 L
3498 2945 L
3498 2707 L
3499 2757 L
3499 2800 L
3499 2974 L
3499 2650 L
3500 2672 L
3500 2535 L
3506 2843 L
3511 2846 L
3517 2864 L
3522 2377 L
3527 2669 L
3532 2827 L
3537 2763 L
3542 3151 L
3547 3141 L
3552 2856 L
3557 2784 L
3561 2701 L
3566 2797 L
3570 2929 L
3575 2787 L
3579 2602 L
3583 2862 L
3587 3237 L
3591 2629 L
3595 2666 L
3599 3127 L
3603 2731 L
3607 2696 L
3611 2923 L
3614 3004 L
3618 3068 L
3622 2738 L
3625 2800 L
3629 2516 L
3632 2618 L
3636 2958 L
3639 2840 L
3642 3390 L
3646 2972 L
3649 2953 L
3652 2848 L
3655 2752 L
3658 3025 L
3661 2623 L
3664 3071 L
3667 3033 L
3670 2835 L
3673 2781 L
3676 2615 L
3679 2931 L
3682 3017 L
3685 3398 L
3688 3232 L
3690 2937 L
3693 2830 L
3696 2934 L
3698 2972 L
3701 3157 L
3704 2631 L
3706 3025 L
3709 2535 L
3711 2873 L
3714 3012 L
3716 2958 L
3719 3057 L
3721 2709 L
3724 2990 L
3726 2870 L
3728 3320 L
3731 2982 L
3733 3194 L
3735 2773 L
3738 3025 L
3740 3159 L
3742 3140 L
3744 2848 L
3747 2789 L
3749 2712 L
3751 2744 L
3753 3205 L
3755 2602 L
3757 2980 L
3760 2832 L
3762 3157 L
3764 2822 L
3766 2838 L
3768 3036 L
3770 2744 L
3772 3127 L
3774 2948 L
3776 2865 L
3778 3047 L
3780 3039 L
3781 2610 L
3783 2797 L
3785 2677 L
3787 2926 L
3789 3049 L
3791 3146 L
3793 3060 L
3795 2886 L
3796 2830 L
3798 3049 L
3800 3127 L
3802 2589 L
3803 3039 L
3805 2642 L
3807 2969 L
3809 2913 L
3810 2776 L
3812 2980 L
3814 2763 L
3816 2698 L
3817 2990 L
3819 2784 L
3820 2926 L
3822 3194 L
3824 3269 L
3825 3226 L
3827 2827 L
3829 2765 L
3830 2913 L
3832 2776 L
3833 3071 L
3835 3092 L
3836 3052 L
3838 2830 L
3839 3208 L
3841 2674 L
3842 2806 L
3844 2926 L
3845 3135 L
3847 3031 L
3848 2958 L
3850 3001 L
3851 2953 L
3853 2621 L
3854 2945 L
3856 2765 L
3857 3264 L
3859 2886 L
3860 3181 L
3861 2763 L
3863 3197 L
3864 2878 L
3866 3143 L
3867 3028 L
3868 2792 L
3870 3186 L
3871 2918 L
3872 2926 L
3874 2934 L
3875 2730 L
3876 2990 L
3878 2875 L
3879 3004 L
3880 2548 L
3882 2728 L
3883 3151 L
3884 3060 L
3885 3031 L
3887 2830 L
3888 2730 L
3889 3108 L
3890 2749 L
3892 3020 L
3893 2706 L
3894 2747 L
3895 2720 L
3897 2819 L
3898 2725 L
3899 3349 L
3900 2524 L
3901 2881 L
3903 2883 L
3904 3173 L
3905 3267 L
3906 3132 L
3907 2931 L
3908 2897 L
3910 2637 L
3911 3023 L
3912 2824 L
3913 2803 L
3914 2856 L
3915 2645 L
3917 2937 L
3918 2854 L
3919 3175 L
3920 2875 L
3921 2615 L
3922 2607 L
3923 3194 L
3924 2846 L
3925 3041 L
3926 3023 L
3928 3162 L
3929 2610 L
3930 2787 L
3931 2634 L
3932 2966 L
3933 2760 L
3934 3025 L
3935 2956 L
3936 3237 L
3937 2744 L
3938 3020 L
3939 2771 L
3940 2765 L
3941 3312 L
3942 3020 L
3943 2816 L
3944 2942 L
3945 3028 L
3946 2781 L
3947 2747 L
3948 2634 L
3949 2776 L
3950 2940 L
3951 3044 L
3952 2875 L
3953 2792 L
3954 2819 L
3955 3057 L
3956 2473 L
3957 2712 L
3958 2797 L
3959 3296 L
3960 3020 L
3961 2883 L
3962 3055 L
3963 2929 L
3964 2851 L
3965 2918 L
3966 3213 L
3966 2961 L
3967 2819 L
3968 2864 L
3969 2752 L
3970 2709 L
3971 2851 L
3972 3031 L
3973 2599 L
3974 3028 L
3975 2586 L
3976 2618 L
3976 2990 L
3977 2859 L
3978 2910 L
3979 2803 L
3980 2851 L
3981 2792 L
3982 2822 L
3983 2835 L
3983 3004 L
3984 2953 L
3985 2449 L
3986 2996 L
3987 2685 L
3988 3261 L
3989 2982 L
3989 3044 L
3990 3028 L
3991 2755 L
3992 2859 L
3993 3001 L
3994 2736 L
3995 2760 L
3995 2674 L
3996 2597 L
3997 2747 L
3998 2894 L
3999 2806 L
3999 2827 L
4000 2843 L
4001 2854 L
4002 3183 L
4003 3108 L
4003 2739 L
4004 2886 L
4005 2891 L
4006 3076 L
4007 3049 L
4007 2824 L
4008 3119 L
4009 2985 L
4010 3020 L
4011 3095 L
4011 2929 L
4012 2784 L
4013 3234 L
4014 2787 L
4014 2580 L
4015 2787 L
4016 2851 L
4017 2736 L
4017 2645 L
4018 2760 L
4019 2578 L
4020 2763 L
4021 3071 L
4021 2899 L
4022 3071 L
4023 2763 L
4023 2674 L
4024 2950 L
4025 3041 L
4026 2797 L
4026 2771 L
4027 3047 L
4028 3049 L
4029 2886 L
4029 3092 L
4030 3119 L
4031 2899 L
4032 2795 L
4032 2832 L
4033 2677 L
4034 2988 L
4034 2720 L
4035 2806 L
4036 2958 L
4036 2843 L
4037 2696 L
4038 2999 L
4039 2765 L
4039 2712 L
4040 2838 L
4041 2655 L
4041 2822 L
4042 2870 L
4043 2918 L
4043 2830 L
4044 2913 L
4045 2931 L
4045 3041 L
4046 2939 L
4047 2797 L
4047 2872 L
4048 3157 L
4049 2824 L
4050 2519 L
4050 2621 L
4051 3017 L
4052 2771 L
4052 2414 L
4053 2937 L
4053 2797 L
4054 2953 L
4055 2661 L
4055 2653 L
4056 2586 L
4057 2897 L
4057 2674 L
4058 3076 L
4059 2481 L
4059 2915 L
4060 2822 L
4061 3090 L
4061 2996 L
4062 3025 L
L2 C01 COSGR

%
%================
% Legend - Begin
%================
%
GSN 4240 5180 M
4480 5180 L
LWMC SL  C01 COSGR
GSN 4540 5141 M helvM (0.5 uM) show grestore
%
%================
% Legend - End
%================
%

%
% Residuals:
%
GSN 777 1451 M
1388 1379 L
1552 1326 L
1652 1396 L
1723 1523 L
1778 1328 L
1824 1286 L
1863 1378 L
1896 1384 L
1926 1292 L
1952 1354 L
1976 1403 L
1998 1418 L
2019 1413 L
2037 1525 L
2055 1459 L
2071 1569 L
2086 1442 L
2101 1420 L
2115 1435 L
2128 1404 L
2140 1373 L
2152 1460 L
2163 1521 L
2174 1537 L
2184 1361 L
2194 1369 L
2204 1453 L
2213 1384 L
2222 1302 L
2230 1370 L
2239 1391 L
2247 1341 L
2255 1448 L
2262 1379 L
2270 1369 L
2277 1393 L
2284 1297 L
2290 1391 L
2297 1454 L
2303 1386 L
2310 1391 L
2316 1371 L
2322 1301 L
2328 1407 L
2333 1358 L
2339 1337 L
2344 1384 L
2350 1296 L
2355 1316 L
2360 1367 L
2365 1260 L
2370 1326 L
2375 1371 L
2380 1343 L
2384 1272 L
2389 1343 L
2393 1291 L
2398 1297 L
2402 1345 L
2407 1437 L
2411 1345 L
2415 1345 L
2419 1319 L
2423 1352 L
2427 1299 L
2431 1234 L
2435 1309 L
2438 1267 L
2442 1304 L
2446 1361 L
2449 1292 L
2453 1320 L
2456 1439 L
2460 1293 L
2463 1388 L
2467 1265 L
2470 1286 L
2473 1280 L
2476 1450 L
2480 1367 L
2483 1217 L
2486 1356 L
2489 1306 L
2492 1268 L
2495 1388 L
2498 1303 L
2501 1325 L
2504 1323 L
2507 1379 L
2510 1273 L
2512 1270 L
2515 1413 L
2518 1367 L
2521 1316 L
2523 1325 L
2526 1300 L
2529 1288 L
2531 1420 L
2534 1212 L
2536 1298 L
2539 1224 L
2541 1355 L
2544 1415 L
2546 1387 L
2549 1248 L
2551 1336 L
2554 1294 L
2556 1328 L
2558 1359 L
2561 1272 L
2563 1304 L
2565 1242 L
2568 1302 L
2570 1156 L
2572 1308 L
2574 1397 L
2576 1358 L
2579 1414 L
2581 1244 L
2583 1238 L
2585 1355 L
2587 1387 L
2589 1297 L
2591 1346 L
2593 1329 L
2595 1325 L
2597 1323 L
2599 1266 L
2601 1250 L
2603 1380 L
2605 1274 L
2607 1226 L
2609 1364 L
2611 1156 L
2613 1310 L
2615 1353 L
2617 1370 L
2618 1307 L
2620 1367 L
2622 1357 L
2624 1202 L
2626 1239 L
2627 1262 L
2629 1219 L
2631 1285 L
2633 1326 L
2634 1143 L
2636 1261 L
2638 1285 L
2640 1239 L
2641 1196 L
2643 1316 L
2645 1308 L
2646 1262 L
2648 1133 L
2650 1221 L
2651 1275 L
2653 1282 L
2654 1253 L
2656 1196 L
2658 1206 L
2659 1264 L
2661 1329 L
2662 1172 L
2664 1209 L
2665 1262 L
2667 1374 L
2668 1201 L
2670 1286 L
2671 1295 L
2673 1260 L
2674 1178 L
2676 1191 L
2677 1193 L
2679 1293 L
2680 1173 L
2682 1254 L
2683 1313 L
2685 1200 L
2686 1238 L
2687 1236 L
2689 1286 L
2690 1237 L
2692 1191 L
2693 1245 L
2694 1230 L
2696 1216 L
2697 1234 L
2698 1330 L
2700 1277 L
2701 1240 L
2702 1155 L
2704 1254 L
2705 1152 L
2706 1273 L
2708 1252 L
2709 1345 L
2710 1230 L
2712 1203 L
2713 1317 L
2714 1155 L
2715 1208 L
2717 1241 L
2718 1281 L
2719 1381 L
2720 1280 L
2722 1227 L
2723 1254 L
2724 1214 L
2725 1187 L
2726 1224 L
2728 1146 L
2729 1246 L
2730 1197 L
2731 1230 L
2732 1151 L
2734 1153 L
2735 1236 L
2736 1148 L
2737 1121 L
2738 1281 L
2739 1231 L
2741 1228 L
2742 1123 L
2743 1172 L
2744 1256 L
2745 1142 L
2746 1158 L
2747 1159 L
2748 1129 L
2749 1232 L
2751 1255 L
2752 1324 L
2753 1134 L
2754 1225 L
2755 1167 L
2756 1162 L
2757 1240 L
2758 1202 L
2759 1232 L
2760 1220 L
2761 1069 L
2762 1164 L
2763 1228 L
2764 1208 L
2765 1239 L
2767 1145 L
2768 1152 L
2769 1169 L
2770 1240 L
2771 1124 L
2772 1098 L
2773 1153 L
2774 1290 L
2775 1269 L
2776 1167 L
2777 1095 L
2778 1253 L
2779 1092 L
2780 1123 L
2781 1198 L
2782 1140 L
2783 1151 L
2783 1225 L
2784 981 L
2785 1207 L
2786 1164 L
2787 1210 L
2788 1245 L
2789 1067 L
2790 1159 L
2791 1292 L
2792 1161 L
2793 1219 L
2794 1154 L
2795 1158 L
2796 1061 L
2797 1081 L
2798 1158 L
2798 1214 L
2799 1093 L
2800 1255 L
2801 1117 L
2802 1126 L
2803 1283 L
2804 1131 L
2805 1078 L
2806 1176 L
2807 1085 L
2807 1159 L
2808 1055 L
2809 1156 L
2810 1122 L
2811 1140 L
2812 1113 L
2813 1154 L
2813 1201 L
2814 1242 L
2815 1042 L
2816 1069 L
2817 1164 L
2818 1191 L
2819 1020 L
2819 1075 L
2820 1208 L
2821 1095 L
2822 1158 L
2823 1161 L
2824 1093 L
2824 1057 L
2825 1086 L
2826 1021 L
2827 1179 L
2828 1056 L
2828 1109 L
2829 1175 L
2830 1163 L
2831 1137 L
2832 1163 L
2832 1209 L
2833 1233 L
2834 1134 L
2835 1197 L
2836 1137 L
2836 1182 L
2837 1041 L
2838 1128 L
2839 1092 L
2840 1184 L
2840 1052 L
2841 1173 L
2842 1159 L
2843 1214 L
2843 1192 L
2844 1136 L
2845 1137 L
2846 1107 L
2846 1078 L
2847 1156 L
2848 1129 L
2849 1175 L
2849 1218 L
2850 1157 L
2851 999 L
2852 1078 L
2852 1147 L
2853 1160 L
2854 1094 L
2855 1072 L
2855 1064 L
2856 1178 L
2857 1174 L
2857 988 L
2858 1133 L
2859 1180 L
2860 1126 L
2860 1067 L
2861 1121 L
2862 1084 L
2862 1105 L
2863 1126 L
2864 1166 L
2865 1120 L
2865 1051 L
2866 1141 L
2867 1142 L
2867 1137 L
2868 1047 L
2869 985 L
2869 1062 L
2870 1107 L
2871 1170 L
2871 1105 L
2872 1065 L
2873 1136 L
2873 1164 L
2874 1113 L
2875 1148 L
2876 1186 L
2876 1141 L
2877 1089 L
2878 1098 L
2878 1193 L
2879 1114 L
2880 1127 L
2880 1012 L
2881 1029 L
2881 1059 L
2882 1149 L
2883 1099 L
2883 1009 L
2884 968 L
2885 1048 L
2885 1116 L
2886 1103 L
2887 1115 L
2887 1086 L
2888 1100 L
2889 1022 L
2889 1129 L
2892 1026 L
2894 1121 L
2897 1151 L
2899 1131 L
2902 1052 L
2904 1092 L
2907 1023 L
2909 1007 L
2911 1079 L
2914 1043 L
2916 1043 L
2918 957 L
2921 1077 L
2923 1139 L
2925 1076 L
2927 1201 L
2929 1154 L
2932 1114 L
2934 1170 L
2936 1113 L
2938 1077 L
2940 1052 L
2942 956 L
2944 1005 L
2946 1094 L
2948 1038 L
2950 1115 L
2952 1065 L
2954 1033 L
2956 1109 L
2958 1032 L
2960 1101 L
2962 1063 L
2964 1011 L
2966 1120 L
2968 1032 L
2970 1037 L
2971 1082 L
2973 962 L
2975 982 L
2977 1094 L
2979 990 L
2980 1058 L
2982 1074 L
2984 1012 L
2986 1026 L
2987 1016 L
2989 1022 L
2991 922 L
2993 1036 L
2994 1069 L
2996 1029 L
2998 1067 L
2999 920 L
3001 1173 L
3003 1070 L
3004 1013 L
3006 1036 L
3007 1007 L
3009 998 L
3011 943 L
3012 919 L
3014 1026 L
3015 956 L
3017 890 L
3018 1137 L
3020 1043 L
3021 1016 L
3023 988 L
3024 1102 L
3026 1017 L
3027 999 L
3029 1040 L
3030 955 L
3032 977 L
3033 969 L
3035 1036 L
3036 983 L
3038 905 L
3039 1059 L
3040 1034 L
3042 988 L
3043 956 L
3045 985 L
3046 935 L
3047 992 L
3049 937 L
3050 1007 L
3051 951 L
3053 1053 L
3054 902 L
3055 1001 L
3057 880 L
3058 906 L
3059 1018 L
3061 1068 L
3062 1060 L
3063 941 L
3065 997 L
3066 967 L
3067 1026 L
3068 913 L
3070 1010 L
3071 955 L
3072 919 L
3073 1008 L
3075 901 L
3076 885 L
3077 1010 L
3078 1023 L
3079 948 L
3081 937 L
3082 1032 L
3083 1004 L
3084 976 L
3085 892 L
3087 939 L
3088 948 L
3089 992 L
3090 814 L
3091 960 L
3092 938 L
3094 956 L
3095 920 L
3096 964 L
3097 914 L
3098 928 L
3099 874 L
3100 864 L
3101 980 L
3103 1015 L
3104 980 L
3105 1006 L
3106 937 L
3107 830 L
3108 1003 L
3109 942 L
3110 881 L
3111 861 L
3112 999 L
3113 994 L
3114 959 L
3115 989 L
3116 980 L
3117 932 L
3119 972 L
3120 896 L
3121 894 L
3122 881 L
3123 1022 L
3124 999 L
3125 990 L
3126 995 L
3127 1039 L
3128 882 L
3129 923 L
3130 936 L
3131 982 L
3132 1022 L
3133 1036 L
3134 1022 L
3135 1047 L
3136 889 L
3136 901 L
3137 1033 L
3138 997 L
3139 922 L
3140 991 L
3141 1021 L
3142 1001 L
3143 1018 L
3144 942 L
3145 905 L
3146 918 L
3147 948 L
3148 853 L
3149 937 L
3150 972 L
3151 897 L
3151 953 L
3152 892 L
3153 959 L
3154 955 L
3155 943 L
3156 967 L
3157 917 L
3158 922 L
3159 958 L
3160 843 L
3160 913 L
3161 888 L
3162 966 L
3163 981 L
3164 970 L
3165 936 L
3166 951 L
3166 911 L
3167 836 L
3168 863 L
3169 970 L
3170 838 L
3171 869 L
3172 1022 L
3172 939 L
3173 962 L
3174 906 L
3175 911 L
3176 937 L
3177 931 L
3177 954 L
3178 943 L
3179 954 L
3180 868 L
3181 981 L
3181 860 L
3182 898 L
3183 1027 L
3184 951 L
3185 944 L
3185 927 L
3186 924 L
3187 992 L
3188 960 L
3189 912 L
3189 912 L
3190 999 L
3191 868 L
3192 867 L
3193 916 L
3193 854 L
3194 997 L
3195 924 L
3196 976 L
3196 858 L
3197 902 L
3198 952 L
3199 939 L
3199 897 L
3200 889 L
3201 980 L
3202 942 L
3202 954 L
3203 889 L
3204 985 L
3205 868 L
3205 845 L
3206 996 L
3207 910 L
3208 927 L
3208 945 L
3209 917 L
3210 842 L
3210 846 L
3211 866 L
3212 874 L
3213 1039 L
3213 819 L
3214 962 L
3215 873 L
3215 881 L
3216 897 L
3217 922 L
3218 1023 L
3218 880 L
3219 859 L
3220 931 L
3220 986 L
3221 924 L
3222 961 L
3222 913 L
3223 843 L
3224 949 L
3224 970 L
3225 963 L
3226 898 L
3227 955 L
3227 1093 L
3228 1044 L
3229 922 L
3229 876 L
3230 840 L
3231 963 L
3231 905 L
3232 863 L
3233 883 L
3233 956 L
3234 972 L
3235 909 L
3235 912 L
3236 951 L
3236 936 L
3237 905 L
3238 974 L
3238 937 L
3239 862 L
3240 750 L
3240 925 L
3241 914 L
3242 962 L
3242 916 L
3243 928 L
3244 921 L
3244 875 L
3245 1023 L
3245 851 L
3246 1007 L
3247 880 L
3247 963 L
3248 987 L
3249 869 L
3249 821 L
3250 931 L
3250 845 L
3251 872 L
3252 888 L
3252 965 L
3253 893 L
3253 924 L
3254 845 L
3255 872 L
3255 888 L
3256 794 L
3257 809 L
3257 915 L
3258 860 L
3258 999 L
3259 1033 L
3259 871 L
3260 934 L
3261 845 L
3261 837 L
3262 929 L
3262 890 L
3263 862 L
3264 858 L
3264 882 L
3265 920 L
3265 947 L
3266 1022 L
3267 849 L
3267 840 L
3268 905 L
3268 908 L
3269 884 L
3269 904 L
3270 918 L
3271 943 L
3271 899 L
3272 936 L
3272 934 L
3273 914 L
3273 852 L
3274 999 L
3275 993 L
3275 866 L
3276 886 L
3276 936 L
3277 896 L
3277 941 L
3278 931 L
3278 892 L
3279 986 L
3280 950 L
3280 993 L
3281 1020 L
3281 902 L
3282 911 L
3282 906 L
3283 861 L
3283 869 L
3284 981 L
3284 888 L
3285 968 L
3285 996 L
3286 847 L
3287 868 L
3287 917 L
3288 980 L
3288 876 L
3289 856 L
3289 974 L
3290 953 L
3290 939 L
3291 987 L
3291 962 L
3292 775 L
3292 974 L
3293 872 L
3293 848 L
3294 902 L
3294 879 L
3295 992 L
3295 1031 L
3296 931 L
3297 899 L
3297 950 L
3298 900 L
3298 914 L
3299 976 L
3299 1029 L
3300 919 L
3300 882 L
3301 909 L
3301 1024 L
3302 998 L
3302 891 L
3303 979 L
3303 1017 L
3304 953 L
3304 835 L
3305 1002 L
3305 959 L
3306 913 L
3306 1005 L
3307 947 L
3307 950 L
3308 901 L
3308 990 L
3309 936 L
3309 866 L
3310 941 L
3310 883 L
3311 995 L
3311 973 L
3312 938 L
3312 980 L
3312 985 L
3313 932 L
3313 1009 L
3314 937 L
3314 1064 L
3315 1068 L
3315 920 L
3316 993 L
3316 930 L
3317 909 L
3317 919 L
3318 1035 L
3318 892 L
3319 943 L
3319 901 L
3320 977 L
3320 1001 L
3321 977 L
3321 942 L
3321 863 L
3322 954 L
3322 960 L
3323 1025 L
3323 985 L
3324 990 L
3324 1020 L
3325 906 L
3325 965 L
3326 870 L
3326 986 L
3327 941 L
3327 983 L
3327 934 L
3328 1018 L
3328 970 L
3329 874 L
3329 988 L
3330 946 L
3330 1011 L
3331 914 L
3331 993 L
3332 987 L
3332 995 L
3332 959 L
3333 943 L
3333 947 L
3334 1041 L
3334 902 L
3335 1058 L
3335 1003 L
3336 998 L
3336 831 L
3336 1017 L
3337 792 L
3337 915 L
3338 1021 L
3338 961 L
3339 937 L
3339 896 L
3339 925 L
3340 890 L
3340 1014 L
3341 992 L
3341 989 L
3342 900 L
3342 1021 L
3343 858 L
3343 941 L
3343 900 L
3344 988 L
3344 907 L
3345 933 L
3345 814 L
3346 925 L
3346 1058 L
3346 947 L
3347 870 L
3347 952 L
3348 931 L
3348 962 L
3348 939 L
3349 1037 L
3349 903 L
3350 928 L
3350 937 L
3351 936 L
3351 856 L
3351 967 L
3352 962 L
3352 904 L
3353 910 L
3353 985 L
3353 895 L
3354 810 L
3354 1043 L
3355 939 L
3355 943 L
3355 909 L
3356 972 L
3356 1028 L
3357 1018 L
3357 918 L
3358 842 L
3358 1010 L
3358 940 L
3359 912 L
3359 972 L
3360 916 L
3360 1171 L
3360 901 L
3361 933 L
3361 940 L
3362 901 L
3362 941 L
3362 1006 L
3363 1005 L
3363 1070 L
3364 913 L
3364 1121 L
3364 1025 L
3365 1016 L
3365 973 L
3365 949 L
3366 856 L
3366 971 L
3367 993 L
3367 897 L
3367 984 L
3368 1033 L
3368 895 L
3369 1031 L
3369 949 L
3369 996 L
3370 993 L
3370 1018 L
3371 922 L
3371 887 L
3371 1026 L
3372 863 L
3372 1046 L
3372 871 L
3373 930 L
3373 950 L
3374 983 L
3374 899 L
3374 995 L
3375 1018 L
3375 1004 L
3375 1008 L
3376 976 L
3376 996 L
3377 996 L
3377 982 L
3377 994 L
3378 938 L
3378 1052 L
3378 915 L
3379 982 L
3379 896 L
3380 1039 L
3380 1056 L
3380 1044 L
3381 905 L
3381 993 L
3381 995 L
3382 1037 L
3382 891 L
3383 932 L
3383 926 L
3383 931 L
3384 961 L
3384 1027 L
3384 916 L
3385 943 L
3385 947 L
3385 970 L
3386 974 L
3386 984 L
3387 950 L
3387 895 L
3387 1058 L
3388 970 L
3388 993 L
3388 988 L
3389 989 L
3389 1086 L
3389 880 L
3390 897 L
3390 1007 L
3391 1030 L
3391 955 L
3391 958 L
3392 977 L
3392 905 L
3392 981 L
3393 930 L
3393 992 L
3393 984 L
3394 929 L
3394 957 L
3394 978 L
3395 774 L
3395 1030 L
3395 924 L
3396 1041 L
3396 925 L
3396 968 L
3397 969 L
3397 1046 L
3398 1026 L
3398 991 L
3398 913 L
3399 1046 L
3399 1017 L
3399 989 L
3400 1010 L
3400 1114 L
3400 1070 L
3401 906 L
3401 974 L
3401 1016 L
3402 1067 L
3402 1018 L
3402 1017 L
3403 1083 L
3403 1026 L
3403 1060 L
3404 1014 L
3404 975 L
3404 940 L
3405 1001 L
3405 1106 L
3405 874 L
3406 1024 L
3406 1067 L
3406 988 L
3407 940 L
3407 942 L
3407 1095 L
3408 1000 L
3408 929 L
3408 1062 L
3409 969 L
3409 1057 L
3409 992 L
3410 956 L
3410 1008 L
3410 1032 L
3411 1039 L
3411 1042 L
3411 987 L
3412 935 L
3412 944 L
3412 1050 L
3413 888 L
3413 974 L
3413 1037 L
3414 1037 L
3414 1053 L
3414 1039 L
3415 1056 L
3415 1097 L
3415 958 L
3416 1120 L
3416 1008 L
3416 951 L
3417 933 L
3417 958 L
3417 998 L
3417 1011 L
3418 907 L
3418 977 L
3418 960 L
3419 1020 L
3419 966 L
3419 1004 L
3420 942 L
3420 1029 L
3420 1107 L
3421 1036 L
3421 1015 L
3421 1046 L
3422 882 L
3422 1066 L
3422 921 L
3423 1076 L
3423 1071 L
3423 884 L
3423 972 L
3424 1011 L
3424 1134 L
3424 991 L
3425 1045 L
3425 986 L
3425 1044 L
3426 1028 L
3426 997 L
3426 970 L
3427 1075 L
3427 1018 L
3427 1019 L
3428 1019 L
3428 988 L
3428 960 L
3428 1091 L
3429 1032 L
3429 948 L
3429 1004 L
3430 1086 L
3430 891 L
3430 1002 L
3431 878 L
3431 872 L
3431 900 L
3431 994 L
3432 932 L
3432 1079 L
3432 918 L
3433 984 L
3433 1015 L
3433 1064 L
3434 1078 L
3434 993 L
3434 1049 L
3434 1062 L
3435 1097 L
3435 957 L
3435 987 L
3436 1108 L
3436 927 L
3436 1001 L
3437 887 L
3437 1044 L
3437 1096 L
3437 946 L
3438 980 L
3438 1062 L
3438 1039 L
3439 1042 L
3439 1023 L
3439 1000 L
3440 983 L
3440 1053 L
3440 1032 L
3440 1002 L
3441 1045 L
3441 1093 L
3441 960 L
3442 988 L
3442 1094 L
3442 993 L
3442 1135 L
3443 896 L
3443 987 L
3443 1057 L
3444 977 L
3444 1034 L
3444 993 L
3444 1017 L
3445 984 L
3445 1013 L
3445 1080 L
3446 1058 L
3446 986 L
3446 1038 L
3446 1014 L
3447 949 L
3447 894 L
3447 1051 L
3448 983 L
3448 1100 L
3448 965 L
3448 915 L
3449 968 L
3449 1083 L
3449 992 L
3450 1013 L
3450 1085 L
3450 960 L
3450 937 L
3451 1050 L
3451 1092 L
3451 986 L
3452 955 L
3452 987 L
3452 1055 L
3452 977 L
3453 1002 L
3453 1022 L
3453 1058 L
3454 969 L
3454 1152 L
3454 1071 L
3454 1002 L
3455 983 L
3455 949 L
3455 1148 L
3455 1055 L
3456 1000 L
3456 1076 L
3456 1001 L
3457 1061 L
3457 1091 L
3457 1025 L
3457 948 L
3458 1051 L
3458 1070 L
3458 1114 L
3458 962 L
3459 1061 L
3459 1175 L
3459 915 L
3460 1020 L
3460 1037 L
3460 1074 L
3460 1039 L
3461 1025 L
3461 919 L
3461 1103 L
3461 1011 L
3462 983 L
3462 1080 L
3462 1071 L
3463 1069 L
3463 996 L
3463 1038 L
3463 1134 L
3464 996 L
3464 955 L
3464 887 L
3464 1122 L
3465 1094 L
3465 1015 L
3465 1116 L
3465 1035 L
3466 1043 L
3466 871 L
3466 946 L
3466 1151 L
3467 1010 L
3467 1096 L
3467 1115 L
3468 1009 L
3468 1059 L
3468 1038 L
3468 1074 L
3469 1038 L
3469 980 L
3469 992 L
3469 995 L
3470 950 L
3470 1028 L
3470 1009 L
3470 968 L
3471 947 L
3471 1030 L
3471 1097 L
3471 1086 L
3472 1027 L
3472 932 L
3472 1057 L
3472 1067 L
3473 1107 L
3473 1026 L
3473 1158 L
3474 1120 L
3474 1080 L
3474 982 L
3474 961 L
3475 1121 L
3475 956 L
3475 994 L
3475 1000 L
3476 920 L
3476 1184 L
3476 941 L
3476 1079 L
3477 1089 L
3477 978 L
3477 1097 L
3477 1024 L
3478 923 L
3478 1035 L
3478 909 L
3478 1007 L
3479 1116 L
3479 1057 L
3479 1109 L
3479 957 L
3480 1141 L
3480 1083 L
3480 1136 L
3480 1000 L
3481 1176 L
3481 1020 L
3481 1105 L
3481 1109 L
3482 1122 L
3482 1110 L
3482 955 L
3482 1151 L
3483 1041 L
3483 1084 L
3483 1039 L
3483 967 L
3484 1153 L
3484 1124 L
3484 1063 L
3484 1052 L
3485 939 L
3485 1070 L
3485 1073 L
3485 1013 L
3486 1162 L
3486 1071 L
3486 1030 L
3486 1052 L
3487 1025 L
3487 1143 L
3487 1013 L
3487 1113 L
3488 1049 L
3488 1061 L
3488 1044 L
3488 1133 L
3488 1027 L
3489 1077 L
3489 1051 L
3489 927 L
3489 1154 L
3490 914 L
3490 1062 L
3490 1053 L
3490 935 L
3491 1029 L
3491 1186 L
3491 1044 L
3491 1072 L
3492 1133 L
3492 1066 L
3492 1141 L
3492 1081 L
3493 968 L
3493 1163 L
3493 1069 L
3493 1137 L
3494 1088 L
3494 979 L
3494 1050 L
3494 1014 L
3494 1138 L
3495 1067 L
3495 1002 L
3495 1160 L
3495 1104 L
3496 1115 L
3496 1052 L
3496 1022 L
3496 1101 L
3497 1023 L
3497 1097 L
3497 1024 L
3497 1024 L
3498 959 L
3498 1011 L
3498 986 L
3498 1112 L
3498 1034 L
3499 1051 L
3499 1065 L
3499 1122 L
3499 1016 L
3500 1023 L
3500 978 L
3506 1079 L
3511 1080 L
3517 1086 L
3522 926 L
3527 1022 L
3532 1073 L
3537 1052 L
3542 1179 L
3547 1176 L
3552 1083 L
3557 1059 L
3561 1032 L
3566 1064 L
3570 1107 L
3575 1061 L
3579 1000 L
3583 1085 L
3587 1208 L
3591 1009 L
3595 1022 L
3599 1172 L
3603 1043 L
3607 1032 L
3611 1106 L
3614 1133 L
3618 1154 L
3622 1046 L
3625 1067 L
3629 974 L
3632 1007 L
3636 1119 L
3639 1080 L
3642 1260 L
3646 1124 L
3649 1118 L
3652 1084 L
3655 1052 L
3658 1142 L
3661 1011 L
3664 1157 L
3667 1145 L
3670 1080 L
3673 1063 L
3676 1009 L
3679 1113 L
3682 1141 L
3685 1265 L
3688 1211 L
3690 1115 L
3693 1080 L
3696 1115 L
3698 1127 L
3701 1188 L
3704 1016 L
3706 1145 L
3709 985 L
3711 1096 L
3714 1142 L
3716 1124 L
3719 1157 L
3721 1043 L
3724 1136 L
3726 1096 L
3728 1244 L
3731 1134 L
3733 1203 L
3735 1066 L
3738 1148 L
3740 1192 L
3742 1186 L
3744 1091 L
3747 1072 L
3749 1047 L
3751 1058 L
3753 1208 L
3755 1012 L
3757 1135 L
3760 1087 L
3762 1194 L
3764 1084 L
3766 1090 L
3768 1155 L
3770 1059 L
3772 1185 L
3774 1127 L
3776 1100 L
3778 1159 L
3780 1157 L
3781 1017 L
3783 1079 L
3785 1039 L
3787 1121 L
3789 1161 L
3791 1193 L
3793 1165 L
3795 1109 L
3796 1091 L
3798 1162 L
3800 1188 L
3802 1012 L
3803 1160 L
3805 1030 L
3807 1137 L
3809 1119 L
3810 1075 L
3812 1141 L
3814 1071 L
3816 1050 L
3817 1145 L
3819 1078 L
3820 1125 L
3822 1213 L
3824 1237 L
3825 1223 L
3827 1093 L
3829 1073 L
3830 1122 L
3832 1077 L
3833 1174 L
3835 1181 L
3836 1168 L
3838 1095 L
3839 1219 L
3841 1045 L
3842 1088 L
3844 1128 L
3845 1196 L
3847 1162 L
3848 1139 L
3850 1153 L
3851 1137 L
3853 1029 L
3854 1135 L
3856 1077 L
3857 1240 L
3859 1116 L
3860 1213 L
3861 1076 L
3863 1218 L
3864 1114 L
3866 1201 L
3867 1164 L
3868 1087 L
3870 1216 L
3871 1128 L
3872 1131 L
3874 1134 L
3875 1067 L
3876 1153 L
3878 1115 L
3879 1157 L
3880 1009 L
3882 1067 L
3883 1206 L
3884 1176 L
3885 1167 L
3887 1101 L
3888 1069 L
3889 1193 L
3890 1075 L
3892 1164 L
3893 1062 L
3894 1075 L
3895 1066 L
3897 1099 L
3898 1069 L
3899 1273 L
3900 1003 L
3901 1120 L
3903 1121 L
3904 1215 L
3905 1246 L
3906 1203 L
3907 1137 L
3908 1126 L
3910 1041 L
3911 1167 L
3912 1103 L
3913 1096 L
3914 1113 L
3915 1044 L
3917 1140 L
3918 1113 L
3919 1218 L
3920 1120 L
3921 1035 L
3922 1033 L
3923 1225 L
3924 1111 L
3925 1175 L
3926 1169 L
3928 1215 L
3929 1034 L
3930 1092 L
3931 1043 L
3932 1151 L
3933 1084 L
3934 1171 L
3935 1148 L
3936 1240 L
3937 1079 L
3938 1169 L
3939 1088 L
3940 1086 L
3941 1265 L
3942 1170 L
3943 1104 L
3944 1145 L
3945 1173 L
3946 1092 L
3947 1081 L
3948 1045 L
3949 1091 L
3950 1145 L
3951 1179 L
3952 1124 L
3953 1097 L
3954 1106 L
3955 1184 L
3956 993 L
3957 1071 L
3958 1099 L
3959 1262 L
3960 1172 L
3961 1127 L
3962 1183 L
3963 1142 L
3964 1117 L
3965 1139 L
3966 1235 L
3966 1153 L
3967 1107 L
3968 1122 L
3969 1085 L
3970 1071 L
3971 1118 L
3972 1177 L
3973 1036 L
3974 1176 L
3975 1032 L
3976 1042 L
3976 1164 L
3977 1121 L
3978 1138 L
3979 1103 L
3980 1119 L
3981 1100 L
3982 1109 L
3983 1114 L
3983 1169 L
3984 1152 L
3985 988 L
3986 1167 L
3987 1065 L
3988 1253 L
3989 1162 L
3989 1183 L
3990 1178 L
3991 1088 L
3992 1123 L
3993 1169 L
3994 1082 L
3995 1090 L
3995 1062 L
3996 1037 L
3997 1086 L
3998 1134 L
3999 1106 L
3999 1113 L
4000 1118 L
4001 1122 L
4002 1229 L
4003 1205 L
4003 1084 L
4004 1132 L
4005 1134 L
4006 1195 L
4007 1186 L
4007 1113 L
4008 1209 L
4009 1165 L
4010 1177 L
4011 1201 L
4011 1147 L
4012 1100 L
4013 1247 L
4014 1101 L
4014 1033 L
4015 1101 L
4016 1122 L
4017 1084 L
4017 1055 L
4018 1092 L
4019 1033 L
4020 1093 L
4021 1194 L
4021 1138 L
4022 1194 L
4023 1094 L
4023 1065 L
4024 1155 L
4025 1185 L
4026 1105 L
4026 1097 L
4027 1187 L
4028 1188 L
4029 1134 L
4029 1202 L
4030 1211 L
4031 1139 L
4032 1105 L
4032 1117 L
4033 1066 L
4034 1168 L
4034 1081 L
4035 1109 L
4036 1159 L
4036 1121 L
4037 1073 L
4038 1172 L
4039 1096 L
4039 1078 L
4040 1120 L
4041 1060 L
4041 1114 L
4042 1130 L
4043 1146 L
4043 1117 L
4044 1144 L
4045 1151 L
4045 1186 L
4046 1153 L
4047 1107 L
4047 1131 L
4048 1224 L
4049 1116 L
4050 1016 L
4050 1049 L
4051 1179 L
4052 1099 L
4052 982 L
4053 1153 L
4053 1107 L
4054 1158 L
4055 1063 L
4055 1060 L
4056 1038 L
4057 1140 L
4057 1067 L
4058 1199 L
4059 1004 L
4059 1146 L
4060 1116 L
4061 1203 L
4061 1173 L
4062 1182 L
L2 C01 COSGR

%
% Main frame
%
L10
GSN 
620 1700 M
4220 1700 L
4220 5300 L
620 5300 L
closepath SGR

%
% X axis: large tics
%
L10
GSN 1130 1700 M 0  54 rL SGR
GSN 1130 5300 M 0 -54 rL SGR
helvS (0.0001) 1130 470 xlabel
GSN 1716 1700 M 0  54 rL SGR
GSN 1716 5300 M 0 -54 rL SGR
helvS (0.001) 1716 470 xlabel
GSN 2303 1700 M 0  54 rL SGR
GSN 2303 5300 M 0 -54 rL SGR
helvS (0.01) 2303 470 xlabel
GSN 2889 1700 M 0  54 rL SGR
GSN 2889 5300 M 0 -54 rL SGR
helvS (0.1) 2889 470 xlabel
GSN 3476 1700 M 0  54 rL SGR
GSN 3476 5300 M 0 -54 rL SGR
helvS (1) 3476 470 xlabel
GSN 4062 1700 M 0  54 rL SGR
GSN 4062 5300 M 0 -54 rL SGR
helvS (10) 4062 470 xlabel
%
% X axis: small tics
%
L5
GSN 720 1700 M 0  36 rL SGR
GSN 720 5300 M 0 -36 rL SGR
GSN 824 1700 M 0  36 rL SGR
GSN 824 5300 M 0 -36 rL SGR
GSN 897 1700 M 0  36 rL SGR
GSN 897 5300 M 0 -36 rL SGR
GSN 954 1700 M 0  36 rL SGR
GSN 954 5300 M 0 -36 rL SGR
GSN 1000 1700 M 0  36 rL SGR
GSN 1000 5300 M 0 -36 rL SGR
GSN 1039 1700 M 0  36 rL SGR
GSN 1039 5300 M 0 -36 rL SGR
GSN 1073 1700 M 0  36 rL SGR
GSN 1073 5300 M 0 -36 rL SGR
GSN 1103 1700 M 0  36 rL SGR
GSN 1103 5300 M 0 -36 rL SGR
GSN 1307 1700 M 0  36 rL SGR
GSN 1307 5300 M 0 -36 rL SGR
GSN 1410 1700 M 0  36 rL SGR
GSN 1410 5300 M 0 -36 rL SGR
GSN 1483 1700 M 0  36 rL SGR
GSN 1483 5300 M 0 -36 rL SGR
GSN 1540 1700 M 0  36 rL SGR
GSN 1540 5300 M 0 -36 rL SGR
GSN 1586 1700 M 0  36 rL SGR
GSN 1586 5300 M 0 -36 rL SGR
GSN 1626 1700 M 0  36 rL SGR
GSN 1626 5300 M 0 -36 rL SGR
GSN 1660 1700 M 0  36 rL SGR
GSN 1660 5300 M 0 -36 rL SGR
GSN 1690 1700 M 0  36 rL SGR
GSN 1690 5300 M 0 -36 rL SGR
GSN 1893 1700 M 0  36 rL SGR
GSN 1893 5300 M 0 -36 rL SGR
GSN 1996 1700 M 0  36 rL SGR
GSN 1996 5300 M 0 -36 rL SGR
GSN 2069 1700 M 0  36 rL SGR
GSN 2069 5300 M 0 -36 rL SGR
GSN 2126 1700 M 0  36 rL SGR
GSN 2126 5300 M 0 -36 rL SGR
GSN 2173 1700 M 0  36 rL SGR
GSN 2173 5300 M 0 -36 rL SGR
GSN 2212 1700 M 0  36 rL SGR
GSN 2212 5300 M 0 -36 rL SGR
GSN 2246 1700 M 0  36 rL SGR
GSN 2246 5300 M 0 -36 rL SGR
GSN 2276 1700 M 0  36 rL SGR
GSN 2276 5300 M 0 -36 rL SGR
GSN 2479 1700 M 0  36 rL SGR
GSN 2479 5300 M 0 -36 rL SGR
GSN 2583 1700 M 0  36 rL SGR
GSN 2583 5300 M 0 -36 rL SGR
GSN 2656 1700 M 0  36 rL SGR
GSN 2656 5300 M 0 -36 rL SGR
GSN 2713 1700 M 0  36 rL SGR
GSN 2713 5300 M 0 -36 rL SGR
GSN 2759 1700 M 0  36 rL SGR
GSN 2759 5300 M 0 -36 rL SGR
GSN 2798 1700 M 0  36 rL SGR
GSN 2798 5300 M 0 -36 rL SGR
GSN 2832 1700 M 0  36 rL SGR
GSN 2832 5300 M 0 -36 rL SGR
GSN 2862 1700 M 0  36 rL SGR
GSN 2862 5300 M 0 -36 rL SGR
GSN 3066 1700 M 0  36 rL SGR
GSN 3066 5300 M 0 -36 rL SGR
GSN 3169 1700 M 0  36 rL SGR
GSN 3169 5300 M 0 -36 rL SGR
GSN 3242 1700 M 0  36 rL SGR
GSN 3242 5300 M 0 -36 rL SGR
GSN 3299 1700 M 0  36 rL SGR
GSN 3299 5300 M 0 -36 rL SGR
GSN 3345 1700 M 0  36 rL SGR
GSN 3345 5300 M 0 -36 rL SGR
GSN 3385 1700 M 0  36 rL SGR
GSN 3385 5300 M 0 -36 rL SGR
GSN 3419 1700 M 0  36 rL SGR
GSN 3419 5300 M 0 -36 rL SGR
GSN 3449 1700 M 0  36 rL SGR
GSN 3449 5300 M 0 -36 rL SGR
GSN 3652 1700 M 0  36 rL SGR
GSN 3652 5300 M 0 -36 rL SGR
GSN 3755 1700 M 0  36 rL SGR
GSN 3755 5300 M 0 -36 rL SGR
GSN 3829 1700 M 0  36 rL SGR
GSN 3829 5300 M 0 -36 rL SGR
GSN 3885 1700 M 0  36 rL SGR
GSN 3885 5300 M 0 -36 rL SGR
GSN 3932 1700 M 0  36 rL SGR
GSN 3932 5300 M 0 -36 rL SGR
GSN 3971 1700 M 0  36 rL SGR
GSN 3971 5300 M 0 -36 rL SGR
GSN 4005 1700 M 0  36 rL SGR
GSN 4005 5300 M 0 -36 rL SGR
GSN 4035 1700 M 0  36 rL SGR
GSN 4035 5300 M 0 -36 rL SGR
%
% Y axis: large tics
%
L10
GSN 620 1715 M 54 0 rL SGR
GSN 4220 1715 M -54 0 rL SGR
helvS (1.12) 560 1715 ylabel
GSN 620 2769 M 54 0 rL SGR
GSN 4220 2769 M -54 0 rL SGR
helvS (1.14) 560 2769 ylabel
GSN 620 3823 M 54 0 rL SGR
GSN 4220 3823 M -54 0 rL SGR
helvS (1.16) 560 3823 ylabel
GSN 620 4876 M 54 0 rL SGR
GSN 4220 4876 M -54 0 rL SGR
helvS (1.18) 560 4876 ylabel
%
% Y axis: small tics
%
L5
GSN 620 1715 M 36 0 rL SGR
GSN 4220 1715 M -36 0 rL SGR
GSN 620 1979 M 36 0 rL SGR
GSN 4220 1979 M -36 0 rL SGR
GSN 620 2242 M 36 0 rL SGR
GSN 4220 2242 M -36 0 rL SGR
GSN 620 2505 M 36 0 rL SGR
GSN 4220 2505 M -36 0 rL SGR
GSN 620 2769 M 36 0 rL SGR
GSN 4220 2769 M -36 0 rL SGR
GSN 620 3032 M 36 0 rL SGR
GSN 4220 3032 M -36 0 rL SGR
GSN 620 3296 M 36 0 rL SGR
GSN 4220 3296 M -36 0 rL SGR
GSN 620 3559 M 36 0 rL SGR
GSN 4220 3559 M -36 0 rL SGR
GSN 620 3823 M 36 0 rL SGR
GSN 4220 3823 M -36 0 rL SGR
GSN 620 4086 M 36 0 rL SGR
GSN 4220 4086 M -36 0 rL SGR
GSN 620 4349 M 36 0 rL SGR
GSN 4220 4349 M -36 0 rL SGR
GSN 620 4613 M 36 0 rL SGR
GSN 4220 4613 M -36 0 rL SGR
GSN 620 4876 M 36 0 rL SGR
GSN 4220 4876 M -36 0 rL SGR
GSN 620 5140 M 36 0 rL SGR
GSN 4220 5140 M -36 0 rL SGR

%
% X-Axis label:
%
gsave 2420 290 M 
[
[(Helvetica) 180 0 true true 0 (t)]
[(Helvetica) 180 0 true true 0 (i)]
[(Helvetica) 180 0 true true 0 (m)]
[(Helvetica) 180 0 true true 0 (e)]
] 0 MCshow grestore

%
% Y-Axis label:
%
gsave 234 3499 M 
currentpoint gsave translate 90 rotate 0 0 moveto
[
[(Helvetica) 180 0 true true 0 (s)]
[(Helvetica) 180 0 true true 0 (i)]
[(Helvetica) 180 0 true true 0 (g)]
[(Helvetica) 180 0 true true 0 (n)]
[(Helvetica) 180 0 true true 0 (a)]
[(Helvetica) 180 0 true true 0 (l)]
] 0 MCshow grestore

%
% Residuals:
%
gsave 129 1160 M 
currentpoint gsave translate 90 rotate 0 0 moveto
[
[(Helvetica) 150 0 true true 0 (r)]
[(Helvetica) 150 0 true true 0 (e)]
[(Helvetica) 150 0 true true 0 (s)]
[(Helvetica) 150 0 true true 0 (i)]
[(Helvetica) 150 0 true true 0 (d)]
[(Helvetica) 150 0 true true 0 (u)]
[(Helvetica) 150 0 true true 0 (a)]
[(Helvetica) 150 0 true true 0 (l)]
[(Helvetica) 150 0 true true 0 (s)]
] 0 MCshow grestore

%
% Residual frame
%
L10
GSN 
620 620 M
4220 620 L
4220 1700 L
620 1700 L
closepath SGR
%
% X axis: large tics - residual frame
%
L10
GSN 1130 620 M 0  54 rL SGR
GSN 1130 1700 M 0 -54 rL SGR
GSN 1716 620 M 0  54 rL SGR
GSN 1716 1700 M 0 -54 rL SGR
GSN 2303 620 M 0  54 rL SGR
GSN 2303 1700 M 0 -54 rL SGR
GSN 2889 620 M 0  54 rL SGR
GSN 2889 1700 M 0 -54 rL SGR
GSN 3476 620 M 0  54 rL SGR
GSN 3476 1700 M 0 -54 rL SGR
GSN 4062 620 M 0  54 rL SGR
GSN 4062 1700 M 0 -54 rL SGR
%
% X axis: small tics - residual frame
%
L5
GSN 720 620 M 0  36 rL SGR
GSN 720 1700 M 0 -36 rL SGR
GSN 824 620 M 0  36 rL SGR
GSN 824 1700 M 0 -36 rL SGR
GSN 897 620 M 0  36 rL SGR
GSN 897 1700 M 0 -36 rL SGR
GSN 954 620 M 0  36 rL SGR
GSN 954 1700 M 0 -36 rL SGR
GSN 1000 620 M 0  36 rL SGR
GSN 1000 1700 M 0 -36 rL SGR
GSN 1039 620 M 0  36 rL SGR
GSN 1039 1700 M 0 -36 rL SGR
GSN 1073 620 M 0  36 rL SGR
GSN 1073 1700 M 0 -36 rL SGR
GSN 1103 620 M 0  36 rL SGR
GSN 1103 1700 M 0 -36 rL SGR
GSN 1307 620 M 0  36 rL SGR
GSN 1307 1700 M 0 -36 rL SGR
GSN 1410 620 M 0  36 rL SGR
GSN 1410 1700 M 0 -36 rL SGR
GSN 1483 620 M 0  36 rL SGR
GSN 1483 1700 M 0 -36 rL SGR
GSN 1540 620 M 0  36 rL SGR
GSN 1540 1700 M 0 -36 rL SGR
GSN 1586 620 M 0  36 rL SGR
GSN 1586 1700 M 0 -36 rL SGR
GSN 1626 620 M 0  36 rL SGR
GSN 1626 1700 M 0 -36 rL SGR
GSN 1660 620 M 0  36 rL SGR
GSN 1660 1700 M 0 -36 rL SGR
GSN 1690 620 M 0  36 rL SGR
GSN 1690 1700 M 0 -36 rL SGR
GSN 1893 620 M 0  36 rL SGR
GSN 1893 1700 M 0 -36 rL SGR
GSN 1996 620 M 0  36 rL SGR
GSN 1996 1700 M 0 -36 rL SGR
GSN 2069 620 M 0  36 rL SGR
GSN 2069 1700 M 0 -36 rL SGR
GSN 2126 620 M 0  36 rL SGR
GSN 2126 1700 M 0 -36 rL SGR
GSN 2173 620 M 0  36 rL SGR
GSN 2173 1700 M 0 -36 rL SGR
GSN 2212 620 M 0  36 rL SGR
GSN 2212 1700 M 0 -36 rL SGR
GSN 2246 620 M 0  36 rL SGR
GSN 2246 1700 M 0 -36 rL SGR
GSN 2276 620 M 0  36 rL SGR
GSN 2276 1700 M 0 -36 rL SGR
GSN 2479 620 M 0  36 rL SGR
GSN 2479 1700 M 0 -36 rL SGR
GSN 2583 620 M 0  36 rL SGR
GSN 2583 1700 M 0 -36 rL SGR
GSN 2656 620 M 0  36 rL SGR
GSN 2656 1700 M 0 -36 rL SGR
GSN 2713 620 M 0  36 rL SGR
GSN 2713 1700 M 0 -36 rL SGR
GSN 2759 620 M 0  36 rL SGR
GSN 2759 1700 M 0 -36 rL SGR
GSN 2798 620 M 0  36 rL SGR
GSN 2798 1700 M 0 -36 rL SGR
GSN 2832 620 M 0  36 rL SGR
GSN 2832 1700 M 0 -36 rL SGR
GSN 2862 620 M 0  36 rL SGR
GSN 2862 1700 M 0 -36 rL SGR
GSN 3066 620 M 0  36 rL SGR
GSN 3066 1700 M 0 -36 rL SGR
GSN 3169 620 M 0  36 rL SGR
GSN 3169 1700 M 0 -36 rL SGR
GSN 3242 620 M 0  36 rL SGR
GSN 3242 1700 M 0 -36 rL SGR
GSN 3299 620 M 0  36 rL SGR
GSN 3299 1700 M 0 -36 rL SGR
GSN 3345 620 M 0  36 rL SGR
GSN 3345 1700 M 0 -36 rL SGR
GSN 3385 620 M 0  36 rL SGR
GSN 3385 1700 M 0 -36 rL SGR
GSN 3419 620 M 0  36 rL SGR
GSN 3419 1700 M 0 -36 rL SGR
GSN 3449 620 M 0  36 rL SGR
GSN 3449 1700 M 0 -36 rL SGR
GSN 3652 620 M 0  36 rL SGR
GSN 3652 1700 M 0 -36 rL SGR
GSN 3755 620 M 0  36 rL SGR
GSN 3755 1700 M 0 -36 rL SGR
GSN 3829 620 M 0  36 rL SGR
GSN 3829 1700 M 0 -36 rL SGR
GSN 3885 620 M 0  36 rL SGR
GSN 3885 1700 M 0 -36 rL SGR
GSN 3932 620 M 0  36 rL SGR
GSN 3932 1700 M 0 -36 rL SGR
GSN 3971 620 M 0  36 rL SGR
GSN 3971 1700 M 0 -36 rL SGR
GSN 4005 620 M 0  36 rL SGR
GSN 4005 1700 M 0 -36 rL SGR
GSN 4035 620 M 0  36 rL SGR
GSN 4035 1700 M 0 -36 rL SGR
%
% Y axis: large tics - residual frame
%
L10
GSN 620 723 M 54 0 rL SGR
GSN 4220 723 M -54 0 rL SGR
helvS (-0.02) 560 723 ylabelresid
GSN 620 1067 M 54 0 rL SGR
GSN 4220 1067 M -54 0 rL SGR
helvS (0) 560 1067 ylabelresid
GSN 620 1412 M 54 0 rL SGR
GSN 4220 1412 M -54 0 rL SGR
helvS (0.02) 560 1412 ylabelresid

%
% X axis - residual panel
%
GSN L5 620 1067 M 4220 1067 L SDA G50 SGR

end
showpage
%%Trailer
%%EOF
