%!PS-Adobe-3.0 EPSF-3.0
%%BoundingBox: 0 0 514 442
%%Creator: BioKin Ltd.
%%DocumentFonts: Symbol Helvetica
%%EndComments
%
/bkdict 256 dict def
bkdict begin
/M {moveto} def 
/R {rmoveto} def
/L {lineto} def
/rL {rlineto} def
/GSN {gsave newpath} def
/SGR {stroke grestore} def
/COSGR {gsave setrgbcolor stroke grestore grestore} def
/SL {setlinewidth} def
/LWMB {12} def             % line width - model curves, black & white
/LWMC {10} def             % line width - model curves, color
/L2 {2.5 setlinewidth} def
/L5 {5 setlinewidth} def
/L10 {10 setlinewidth} def
/G50 {0.5 setgray} def
/SDA {[10  20] 0 setdash} def % axes
/helvT {/Helvetica findfont 100 scalefont setfont} def % tiny
/helvS {/Helvetica findfont 125 scalefont setfont} def % small
/helvM {/Helvetica findfont 150 scalefont setfont} def % medium
/helvL {/Helvetica findfont 175 scalefont setfont} def % large
/xlabel {gsave M dup
   stringwidth exch -0.5 mul exch rmoveto show grestore} def 
/ylabel {gsave M 90 rotate dup
   stringwidth exch -0.5 mul exch rmoveto show grestore} def
/ylabelresid {gsave M dup
   stringwidth exch -1 mul exch rmoveto show grestore} def
% ======
% Shapes
% ======
% Circle:
/Circ {0 360 arc closepath} def
%
% Square:
/Squa {dup dup -0.5 mul dup dup R -2 mul 0 exch rL 1 mul 0 rL dup 0 exch -1 mul rL closepath} def
%
% Triangle Up:
/TriU {dup dup dup -0.4 mul exch -0.5 mul exch R dup 0.5 mul exch rL dup -1 mul exch 0.5 mul exch rL closepath} def 
%
% Triangle Down:
/TriD {dup dup dup 0.4 mul exch -0.5 mul exch R dup 0.5 mul exch -1 mul rL dup 0.5 mul exch rL closepath} def 
%
% Diamond:
/Diam {45 rotate Squa} def
% ======
% Fills
% ======
/GRF {gsave setgray fill grestore} def                    % gray-level Fill
/COF {gsave setrgbcolor fill grestore} def                % color fill
% ======
% Colors
% ======
/C01 {1.00	0.00	0.00} def      % Red
/C02 {0.00	0.00	1.00} def      % Blue
/C03 {0.00	0.39	0.00} def      % Dark Green
/C04 {0.78	0.08	0.52} def      % Medium Violet Red
/C05 {0.55	0.27	0.07} def      % Saddle Brown
/C06 {0.10	0.70	0.70} def      % (cyan)
/C07 {1.00	0.55	0.00} def      % Dark Orange
/C08 {0.63	0.13	0.94} def      % Purple
/C09 {0.00	0.75	1.00} def      % Deep Sky Blue
/C10 {0.20	0.80	0.20} def      % Lime Green
/C11 {0.47	0.53	0.60} def      % Light Slate Gray
/C12 {0.00	0.00	0.00} def      % Black            % or: {0.19	0.31	0.31} def      % Dark Slate Gray
%
/LGR {0.75} def % light gray
/DGR {0.33} def % dark gray
%
% =============
% Dash patterns
% =============
/dash01 { [80  20] 0 setdash } def
/dash02 { [40  20] 0 setdash } def
/dash03 { [80  20  10  20] 0 setdash } def
/dash04 { [40  20  10  20] 0 setdash } def
/dash05 { [80  20  10  10  10  20] 0 setdash } def
/dash06 { [40  20  10  10  10  20] 0 setdash } def
/dash07 { [10  10] 0 setdash } def
%
/MFshow {
   { dup 5 get 3 ge
     { 5 get 3 eq {gsave} {grestore} ifelse }
     {dup dup 0 get findfont exch 1 get scalefont setfont
     [ currentpoint ] exch dup 2 get 0 exch R dup 5 get 2 ne {dup dup 6
     get exch 4 get {show} {stringwidth pop 0 R} ifelse }if dup 5 get 0 eq
     {dup 3 get {2 get neg 0 exch R pop} {pop aload pop M} ifelse} {dup 5
     get 1 eq {dup 2 get exch dup 3 get exch 6 get stringwidth pop -2 div
     dup 0 R} {dup 6 get stringwidth pop -2 div 0 R 6 get
     show 2 index {aload pop M neg 3 -1 roll neg R pop pop} {pop pop pop
     pop aload pop M} ifelse }ifelse }ifelse }
     ifelse }
   forall} bind def
/MFwidth {0 exch {dup 3 get{dup dup 0 get findfont exch 1 get scalefont
     setfont 6 get stringwidth pop add} {pop} ifelse} forall} bind def
/MCshow { currentpoint stroke M
  exch dup MFwidth -2 div 3 -1 roll R MFshow } def
%
end
%%EndProlog
bkdict begin
0.1 0.1 scale
%
% Model curves:
%

GSN 753 2833 M
770 2833 L
803 2724 L
837 2627 L
870 2545 L
903 2476 L
924 2423 L
941 2410 L
970 2383 L
1003 2355 L
1037 2336 L
1070 2325 L
1096 2318 L
1113 2316 L
1137 2315 L
1170 2314 L
1203 2313 L
1237 2313 L
1268 2313 L
1284 2313 L
1303 2313 L
1337 2313 L
1370 2313 L
1403 2313 L
1437 2313 L
1456 2314 L
1473 2314 L
1503 2314 L
1537 2314 L
1570 2314 L
1603 2314 L
1628 2314 L
1644 2314 L
1670 2315 L
1703 2315 L
1737 2315 L
1770 2316 L
1799 2316 L
1816 2316 L
1837 2316 L
1870 2317 L
1903 2317 L
1937 2318 L
1970 2319 L
1987 2320 L
2004 2320 L
2037 2321 L
2070 2322 L
2103 2323 L
2137 2324 L
2159 2326 L
2176 2327 L
2203 2328 L
2237 2330 L
2270 2332 L
2303 2335 L
2331 2338 L
2347 2340 L
2370 2341 L
2403 2345 L
2437 2349 L
2470 2353 L
2503 2358 L
2519 2364 L
2537 2364 L
2570 2370 L
2603 2377 L
2637 2384 L
2670 2393 L
2690 2401 L
2707 2404 L
2737 2411 L
2770 2421 L
2803 2432 L
2837 2443 L
2862 2455 L
2879 2462 L
2903 2468 L
2937 2480 L
2970 2493 L
3003 2506 L
3034 2518 L
3050 2529 L
3070 2531 L
3103 2542 L
3137 2554 L
3170 2564 L
3203 2573 L
3222 2581 L
3239 2582 L
3270 2588 L
3303 2594 L
3337 2599 L
3370 2602 L
3393 2605 L
3410 2606 L
3437 2606 L
3464 2607 L
3481 2607 L
3503 2607 L
3537 2607 L
3565 2606 L
3582 2605 L
3603 2605 L
3637 2604 L
3670 2603 L
3703 2603 L
3737 2602 L
3753 2602 L
3770 2602 L
3803 2602 L
3837 2601 L
3870 2601 L
3903 2601 L
3925 2601 L
3942 2601 L
3970 2601 L
4003 2601 L
4037 2601 L
4070 2601 L
4086 2601 L
LWMC SL dash01 C01 COSGR

GSN 753 3060 M
770 3060 L
803 2844 L
837 2653 L
870 2489 L
903 2354 L
924 2248 L
941 2222 L
970 2169 L
1003 2113 L
1037 2077 L
1070 2054 L
1096 2042 L
1113 2038 L
1137 2036 L
1170 2033 L
1203 2032 L
1237 2031 L
1268 2031 L
1284 2032 L
1303 2032 L
1337 2032 L
1370 2032 L
1403 2032 L
1437 2032 L
1456 2033 L
1473 2033 L
1503 2033 L
1537 2033 L
1570 2034 L
1603 2034 L
1628 2035 L
1644 2035 L
1670 2035 L
1703 2036 L
1737 2037 L
1770 2038 L
1799 2039 L
1816 2040 L
1837 2040 L
1870 2041 L
1903 2043 L
1937 2044 L
1970 2046 L
1987 2049 L
2004 2049 L
2037 2051 L
2070 2054 L
2103 2057 L
2137 2061 L
2159 2065 L
2176 2066 L
2203 2069 L
2237 2075 L
2270 2080 L
2303 2087 L
2331 2094 L
2347 2099 L
2370 2102 L
2403 2111 L
2437 2121 L
2470 2133 L
2503 2145 L
2519 2158 L
2537 2158 L
2570 2173 L
2603 2189 L
2637 2207 L
2670 2225 L
2690 2245 L
2707 2250 L
2737 2266 L
2770 2288 L
2803 2311 L
2837 2335 L
2862 2359 L
2879 2372 L
2903 2384 L
2937 2408 L
2970 2432 L
3003 2455 L
3034 2477 L
3050 2495 L
3070 2498 L
3103 2518 L
3137 2536 L
3170 2551 L
3203 2565 L
3222 2577 L
3239 2579 L
3270 2587 L
3303 2595 L
3337 2601 L
3370 2606 L
3393 2608 L
3410 2609 L
3437 2610 L
3464 2610 L
3481 2610 L
3503 2610 L
3537 2609 L
3565 2608 L
3582 2607 L
3603 2606 L
3637 2605 L
3670 2604 L
3703 2603 L
3737 2602 L
3753 2602 L
3770 2602 L
3803 2602 L
3837 2601 L
3870 2601 L
3903 2601 L
3925 2601 L
3942 2601 L
3970 2601 L
4003 2601 L
4037 2601 L
4070 2601 L
4086 2601 L
LWMC SL dash02 C02 COSGR

GSN 753 3275 M
770 3275 L
803 2958 L
837 2677 L
870 2436 L
903 2238 L
924 2082 L
941 2044 L
970 1966 L
1003 1884 L
1037 1830 L
1070 1797 L
1096 1779 L
1113 1772 L
1137 1769 L
1170 1765 L
1203 1764 L
1237 1763 L
1268 1763 L
1284 1764 L
1303 1764 L
1337 1764 L
1370 1764 L
1403 1765 L
1437 1765 L
1456 1766 L
1473 1766 L
1503 1766 L
1537 1767 L
1570 1768 L
1603 1768 L
1628 1769 L
1644 1770 L
1670 1771 L
1703 1772 L
1737 1773 L
1770 1775 L
1799 1777 L
1816 1778 L
1837 1779 L
1870 1781 L
1903 1784 L
1937 1787 L
1970 1791 L
1987 1795 L
2004 1795 L
2037 1799 L
2070 1804 L
2103 1810 L
2137 1816 L
2159 1824 L
2176 1826 L
2203 1832 L
2237 1841 L
2270 1851 L
2303 1863 L
2331 1876 L
2347 1885 L
2370 1890 L
2403 1906 L
2437 1923 L
2470 1943 L
2503 1964 L
2519 1986 L
2537 1987 L
2570 2012 L
2603 2038 L
2637 2067 L
2670 2098 L
2690 2130 L
2707 2138 L
2737 2163 L
2770 2198 L
2803 2233 L
2837 2270 L
2862 2306 L
2879 2325 L
2903 2341 L
2937 2376 L
2970 2410 L
3003 2442 L
3034 2472 L
3050 2495 L
3070 2500 L
3103 2524 L
3137 2547 L
3170 2566 L
3203 2582 L
3222 2595 L
3239 2596 L
3270 2605 L
3303 2612 L
3337 2616 L
3370 2618 L
3393 2619 L
3410 2618 L
3437 2618 L
3464 2616 L
3481 2615 L
3503 2614 L
3537 2612 L
3565 2610 L
3582 2608 L
3603 2608 L
3637 2606 L
3670 2605 L
3703 2604 L
3737 2603 L
3753 2602 L
3770 2602 L
3803 2602 L
3837 2602 L
3870 2602 L
3903 2601 L
3925 2601 L
3942 2601 L
3970 2601 L
4003 2601 L
4037 2601 L
4070 2601 L
4086 2601 L
LWMC SL dash03 C03 COSGR

GSN 753 3491 M
770 3491 L
803 3072 L
837 2701 L
870 2383 L
903 2121 L
924 1915 L
941 1865 L
970 1762 L
1003 1653 L
1037 1582 L
1070 1539 L
1096 1515 L
1113 1506 L
1137 1502 L
1170 1497 L
1203 1495 L
1237 1495 L
1268 1495 L
1284 1495 L
1303 1495 L
1337 1496 L
1370 1496 L
1403 1497 L
1437 1498 L
1456 1498 L
1473 1499 L
1503 1499 L
1537 1500 L
1570 1501 L
1603 1503 L
1628 1504 L
1644 1505 L
1670 1506 L
1703 1508 L
1737 1510 L
1770 1513 L
1799 1516 L
1816 1518 L
1837 1519 L
1870 1523 L
1903 1527 L
1937 1532 L
1970 1538 L
1987 1544 L
2004 1544 L
2037 1551 L
2070 1559 L
2103 1568 L
2137 1578 L
2159 1589 L
2176 1593 L
2203 1602 L
2237 1616 L
2270 1632 L
2303 1649 L
2331 1669 L
2347 1683 L
2370 1691 L
2403 1715 L
2437 1741 L
2470 1770 L
2503 1801 L
2519 1834 L
2537 1835 L
2570 1872 L
2603 1911 L
2637 1952 L
2670 1996 L
2690 2041 L
2707 2053 L
2737 2088 L
2770 2136 L
2803 2184 L
2837 2232 L
2862 2280 L
2879 2305 L
2903 2326 L
2937 2370 L
2970 2412 L
3003 2451 L
3034 2487 L
3050 2514 L
3070 2519 L
3103 2547 L
3137 2570 L
3170 2589 L
3203 2604 L
3222 2614 L
3239 2615 L
3270 2621 L
3303 2624 L
3337 2625 L
3370 2624 L
3393 2622 L
3410 2621 L
3437 2620 L
3464 2617 L
3481 2616 L
3503 2615 L
3537 2612 L
3565 2610 L
3582 2608 L
3603 2608 L
3637 2606 L
3670 2605 L
3703 2604 L
3737 2603 L
3753 2602 L
3770 2602 L
3803 2602 L
3837 2602 L
3870 2602 L
3903 2602 L
3925 2601 L
3942 2601 L
3970 2601 L
4003 2601 L
4037 2601 L
4070 2601 L
4086 2601 L
LWMC SL dash04 C04 COSGR

GSN 753 3584 M
770 3584 L
803 3121 L
837 2711 L
870 2360 L
903 2071 L
924 1844 L
941 1788 L
970 1674 L
1003 1554 L
1037 1476 L
1070 1428 L
1096 1401 L
1113 1392 L
1137 1388 L
1170 1382 L
1203 1379 L
1237 1379 L
1268 1379 L
1284 1380 L
1303 1380 L
1337 1380 L
1370 1381 L
1403 1382 L
1437 1382 L
1456 1383 L
1473 1384 L
1503 1384 L
1537 1386 L
1570 1387 L
1603 1389 L
1628 1391 L
1644 1391 L
1670 1393 L
1703 1395 L
1737 1398 L
1770 1401 L
1799 1404 L
1816 1407 L
1837 1408 L
1870 1412 L
1903 1418 L
1937 1423 L
1970 1430 L
1987 1437 L
2004 1438 L
2037 1445 L
2070 1455 L
2103 1465 L
2137 1477 L
2159 1490 L
2176 1496 L
2203 1505 L
2237 1522 L
2270 1541 L
2303 1561 L
2331 1584 L
2347 1601 L
2370 1610 L
2403 1638 L
2437 1669 L
2470 1702 L
2503 1739 L
2519 1776 L
2537 1778 L
2570 1820 L
2603 1865 L
2637 1912 L
2670 1961 L
2690 2013 L
2707 2026 L
2737 2065 L
2770 2119 L
2803 2173 L
2837 2226 L
2862 2278 L
2879 2306 L
2903 2329 L
2937 2377 L
2970 2421 L
3003 2463 L
3034 2500 L
3050 2527 L
3070 2532 L
3103 2560 L
3137 2583 L
3170 2600 L
3203 2613 L
3222 2621 L
3239 2621 L
3270 2625 L
3303 2626 L
3337 2626 L
3370 2625 L
3393 2622 L
3410 2621 L
3437 2620 L
3464 2617 L
3481 2615 L
3503 2615 L
3537 2612 L
3565 2610 L
3582 2608 L
3603 2608 L
3637 2606 L
3670 2605 L
3703 2604 L
3737 2603 L
3753 2602 L
3770 2602 L
3803 2602 L
3837 2602 L
3870 2602 L
3903 2602 L
3925 2602 L
3942 2602 L
3970 2601 L
4003 2601 L
4037 2601 L
4070 2601 L
4086 2601 L
LWMC SL dash05 C05 COSGR

GSN 753 3719 M
770 3719 L
803 3193 L
837 2726 L
870 2326 L
903 1997 L
924 1739 L
941 1675 L
970 1545 L
1003 1409 L
1037 1320 L
1070 1265 L
1096 1235 L
1113 1224 L
1137 1220 L
1170 1213 L
1203 1211 L
1237 1210 L
1268 1210 L
1284 1211 L
1303 1211 L
1337 1211 L
1370 1212 L
1403 1213 L
1437 1214 L
1456 1215 L
1473 1216 L
1503 1217 L
1537 1218 L
1570 1220 L
1603 1222 L
1628 1224 L
1644 1225 L
1670 1227 L
1703 1230 L
1737 1233 L
1770 1237 L
1799 1241 L
1816 1245 L
1837 1246 L
1870 1251 L
1903 1258 L
1937 1265 L
1970 1273 L
1987 1282 L
2004 1282 L
2037 1292 L
2070 1303 L
2103 1316 L
2137 1331 L
2159 1347 L
2176 1354 L
2203 1366 L
2237 1386 L
2270 1409 L
2303 1434 L
2331 1462 L
2347 1482 L
2370 1493 L
2403 1527 L
2437 1564 L
2470 1604 L
2503 1648 L
2519 1693 L
2537 1695 L
2570 1745 L
2603 1798 L
2637 1854 L
2670 1912 L
2690 1971 L
2707 1987 L
2737 2032 L
2770 2094 L
2803 2155 L
2837 2215 L
2862 2274 L
2879 2305 L
2903 2330 L
2937 2382 L
2970 2431 L
3003 2474 L
3034 2513 L
3050 2542 L
3070 2547 L
3103 2574 L
3137 2595 L
3170 2611 L
3203 2620 L
3222 2626 L
3239 2626 L
3270 2628 L
3303 2628 L
3337 2627 L
3370 2626 L
3393 2623 L
3410 2622 L
3437 2620 L
3464 2618 L
3481 2616 L
3503 2615 L
3537 2612 L
3565 2610 L
3582 2608 L
3603 2608 L
3637 2606 L
3670 2605 L
3703 2604 L
3737 2603 L
3753 2603 L
3770 2603 L
3803 2602 L
3837 2602 L
3870 2602 L
3903 2602 L
3925 2602 L
3942 2602 L
3970 2601 L
4003 2601 L
4037 2601 L
4070 2601 L
4086 2601 L
LWMC SL dash06 C06 COSGR

GSN 753 4086 M
770 4086 L
803 3387 L
837 2767 L
870 2235 L
903 1798 L
924 1454 L
941 1370 L
970 1198 L
1003 1017 L
1037 898 L
1070 826 L
1096 785 L
1113 772 L
1137 765 L
1170 756 L
1203 753 L
1237 753 L
1268 753 L
1284 754 L
1303 754 L
1337 755 L
1370 757 L
1403 758 L
1437 760 L
1456 762 L
1473 762 L
1503 764 L
1537 767 L
1570 769 L
1603 773 L
1628 776 L
1644 778 L
1670 781 L
1703 785 L
1737 791 L
1770 797 L
1799 804 L
1816 810 L
1837 812 L
1870 821 L
1903 831 L
1937 842 L
1970 855 L
1987 870 L
2004 871 L
2037 887 L
2070 905 L
2103 926 L
2137 949 L
2159 976 L
2176 986 L
2203 1005 L
2237 1037 L
2270 1073 L
2303 1113 L
2331 1157 L
2347 1188 L
2370 1205 L
2403 1258 L
2437 1315 L
2470 1376 L
2503 1442 L
2519 1509 L
2537 1512 L
2570 1586 L
2603 1663 L
2637 1743 L
2670 1825 L
2690 1908 L
2707 1928 L
2737 1991 L
2770 2073 L
2803 2153 L
2837 2229 L
2862 2301 L
2879 2338 L
2903 2367 L
2937 2428 L
2970 2480 L
3003 2526 L
3034 2562 L
3050 2586 L
3070 2590 L
3103 2609 L
3137 2621 L
3170 2628 L
3203 2631 L
3222 2632 L
3239 2632 L
3270 2632 L
3303 2630 L
3337 2628 L
3370 2626 L
3393 2623 L
3410 2622 L
3437 2620 L
3464 2617 L
3481 2615 L
3503 2615 L
3537 2612 L
3565 2610 L
3582 2608 L
3603 2608 L
3637 2606 L
3670 2605 L
3703 2604 L
3737 2603 L
3753 2603 L
3770 2603 L
3803 2602 L
3837 2602 L
3870 2602 L
3903 2602 L
3925 2602 L
3942 2602 L
3970 2602 L
4003 2601 L
4037 2601 L
4070 2601 L
4086 2601 L
LWMC SL dash07 C07 COSGR

%
%================
% Legend - Begin
%================
%
GSN 4240 4040 M
4480 4040 L
LWMC SL dash01 C01 COSGR
GSN 4540 4001 M helvM (0.5 uM) show grestore
GSN 4240 3860 M
4480 3860 L
LWMC SL dash02 C02 COSGR
GSN 4540 3821 M helvM (1.0 uM) show grestore
GSN 4240 3680 M
4480 3680 L
LWMC SL dash03 C03 COSGR
GSN 4540 3641 M helvM (1.5 uM) show grestore
GSN 4240 3500 M
4480 3500 L
LWMC SL dash04 C04 COSGR
GSN 4540 3461 M helvM (2.0 uM) show grestore
GSN 4240 3320 M
4480 3320 L
LWMC SL dash05 C05 COSGR
GSN 4540 3281 M helvM (2.5 uM) show grestore
GSN 4240 3140 M
4480 3140 L
LWMC SL dash06 C06 COSGR
GSN 4540 3101 M helvM (3.0 uM) show grestore
GSN 4240 2960 M
4480 2960 L
LWMC SL dash07 C07 COSGR
GSN 4540 2921 M helvM (4.0 uM) show grestore
%
%================
% Legend - End
%================
%

%
% Main frame
%
L10
GSN 
620 620 M
4220 620 L
4220 4220 L
620 4220 L
closepath SGR

%
% X axis: large tics
%
L10
GSN 1130 620 M 0  54 rL SGR
GSN 1130 4220 M 0 -54 rL SGR
helvS (0.0001) 1130 470 xlabel
GSN 1716 620 M 0  54 rL SGR
GSN 1716 4220 M 0 -54 rL SGR
helvS (0.001) 1716 470 xlabel
GSN 2303 620 M 0  54 rL SGR
GSN 2303 4220 M 0 -54 rL SGR
helvS (0.01) 2303 470 xlabel
GSN 2889 620 M 0  54 rL SGR
GSN 2889 4220 M 0 -54 rL SGR
helvS (0.1) 2889 470 xlabel
GSN 3476 620 M 0  54 rL SGR
GSN 3476 4220 M 0 -54 rL SGR
helvS (1) 3476 470 xlabel
GSN 4062 620 M 0  54 rL SGR
GSN 4062 4220 M 0 -54 rL SGR
helvS (10) 4062 470 xlabel
%
% X axis: small tics
%
L5
GSN 720 620 M 0  36 rL SGR
GSN 720 4220 M 0 -36 rL SGR
GSN 824 620 M 0  36 rL SGR
GSN 824 4220 M 0 -36 rL SGR
GSN 897 620 M 0  36 rL SGR
GSN 897 4220 M 0 -36 rL SGR
GSN 954 620 M 0  36 rL SGR
GSN 954 4220 M 0 -36 rL SGR
GSN 1000 620 M 0  36 rL SGR
GSN 1000 4220 M 0 -36 rL SGR
GSN 1039 620 M 0  36 rL SGR
GSN 1039 4220 M 0 -36 rL SGR
GSN 1073 620 M 0  36 rL SGR
GSN 1073 4220 M 0 -36 rL SGR
GSN 1103 620 M 0  36 rL SGR
GSN 1103 4220 M 0 -36 rL SGR
GSN 1307 620 M 0  36 rL SGR
GSN 1307 4220 M 0 -36 rL SGR
GSN 1410 620 M 0  36 rL SGR
GSN 1410 4220 M 0 -36 rL SGR
GSN 1483 620 M 0  36 rL SGR
GSN 1483 4220 M 0 -36 rL SGR
GSN 1540 620 M 0  36 rL SGR
GSN 1540 4220 M 0 -36 rL SGR
GSN 1586 620 M 0  36 rL SGR
GSN 1586 4220 M 0 -36 rL SGR
GSN 1626 620 M 0  36 rL SGR
GSN 1626 4220 M 0 -36 rL SGR
GSN 1660 620 M 0  36 rL SGR
GSN 1660 4220 M 0 -36 rL SGR
GSN 1690 620 M 0  36 rL SGR
GSN 1690 4220 M 0 -36 rL SGR
GSN 1893 620 M 0  36 rL SGR
GSN 1893 4220 M 0 -36 rL SGR
GSN 1996 620 M 0  36 rL SGR
GSN 1996 4220 M 0 -36 rL SGR
GSN 2069 620 M 0  36 rL SGR
GSN 2069 4220 M 0 -36 rL SGR
GSN 2126 620 M 0  36 rL SGR
GSN 2126 4220 M 0 -36 rL SGR
GSN 2173 620 M 0  36 rL SGR
GSN 2173 4220 M 0 -36 rL SGR
GSN 2212 620 M 0  36 rL SGR
GSN 2212 4220 M 0 -36 rL SGR
GSN 2246 620 M 0  36 rL SGR
GSN 2246 4220 M 0 -36 rL SGR
GSN 2276 620 M 0  36 rL SGR
GSN 2276 4220 M 0 -36 rL SGR
GSN 2479 620 M 0  36 rL SGR
GSN 2479 4220 M 0 -36 rL SGR
GSN 2583 620 M 0  36 rL SGR
GSN 2583 4220 M 0 -36 rL SGR
GSN 2656 620 M 0  36 rL SGR
GSN 2656 4220 M 0 -36 rL SGR
GSN 2713 620 M 0  36 rL SGR
GSN 2713 4220 M 0 -36 rL SGR
GSN 2759 620 M 0  36 rL SGR
GSN 2759 4220 M 0 -36 rL SGR
GSN 2798 620 M 0  36 rL SGR
GSN 2798 4220 M 0 -36 rL SGR
GSN 2832 620 M 0  36 rL SGR
GSN 2832 4220 M 0 -36 rL SGR
GSN 2862 620 M 0  36 rL SGR
GSN 2862 4220 M 0 -36 rL SGR
GSN 3066 620 M 0  36 rL SGR
GSN 3066 4220 M 0 -36 rL SGR
GSN 3169 620 M 0  36 rL SGR
GSN 3169 4220 M 0 -36 rL SGR
GSN 3242 620 M 0  36 rL SGR
GSN 3242 4220 M 0 -36 rL SGR
GSN 3299 620 M 0  36 rL SGR
GSN 3299 4220 M 0 -36 rL SGR
GSN 3345 620 M 0  36 rL SGR
GSN 3345 4220 M 0 -36 rL SGR
GSN 3385 620 M 0  36 rL SGR
GSN 3385 4220 M 0 -36 rL SGR
GSN 3419 620 M 0  36 rL SGR
GSN 3419 4220 M 0 -36 rL SGR
GSN 3449 620 M 0  36 rL SGR
GSN 3449 4220 M 0 -36 rL SGR
GSN 3652 620 M 0  36 rL SGR
GSN 3652 4220 M 0 -36 rL SGR
GSN 3755 620 M 0  36 rL SGR
GSN 3755 4220 M 0 -36 rL SGR
GSN 3829 620 M 0  36 rL SGR
GSN 3829 4220 M 0 -36 rL SGR
GSN 3885 620 M 0  36 rL SGR
GSN 3885 4220 M 0 -36 rL SGR
GSN 3932 620 M 0  36 rL SGR
GSN 3932 4220 M 0 -36 rL SGR
GSN 3971 620 M 0  36 rL SGR
GSN 3971 4220 M 0 -36 rL SGR
GSN 4005 620 M 0  36 rL SGR
GSN 4005 4220 M 0 -36 rL SGR
GSN 4035 620 M 0  36 rL SGR
GSN 4035 4220 M 0 -36 rL SGR
%
% Y axis: large tics
%
L10
GSN 620 1463 M 54 0 rL SGR
GSN 4220 1463 M -54 0 rL SGR
helvS (-1) 560 1463 ylabel
GSN 620 2601 M 54 0 rL SGR
GSN 4220 2601 M -54 0 rL SGR
helvS (0) 560 2601 ylabel
GSN 620 3740 M 54 0 rL SGR
GSN 4220 3740 M -54 0 rL SGR
helvS (1) 560 3740 ylabel
%
% Y axis: small tics
%
L5
GSN 620 894 M 36 0 rL SGR
GSN 4220 894 M -36 0 rL SGR
GSN 620 1179 M 36 0 rL SGR
GSN 4220 1179 M -36 0 rL SGR
GSN 620 1463 M 36 0 rL SGR
GSN 4220 1463 M -36 0 rL SGR
GSN 620 1748 M 36 0 rL SGR
GSN 4220 1748 M -36 0 rL SGR
GSN 620 2032 M 36 0 rL SGR
GSN 4220 2032 M -36 0 rL SGR
GSN 620 2317 M 36 0 rL SGR
GSN 4220 2317 M -36 0 rL SGR
GSN 620 2601 M 36 0 rL SGR
GSN 4220 2601 M -36 0 rL SGR
GSN 620 2886 M 36 0 rL SGR
GSN 4220 2886 M -36 0 rL SGR
GSN 620 3170 M 36 0 rL SGR
GSN 4220 3170 M -36 0 rL SGR
GSN 620 3455 M 36 0 rL SGR
GSN 4220 3455 M -36 0 rL SGR
GSN 620 3740 M 36 0 rL SGR
GSN 4220 3740 M -36 0 rL SGR
GSN 620 4024 M 36 0 rL SGR
GSN 4220 4024 M -36 0 rL SGR

%
% X axis
%
GSN L5 620 2601 M 4220 2601 L SDA G50 SGR

%
% X-Axis label:
%
gsave 2420 290 M 
[
[(Helvetica) 180 0 true true 0 (t)]
[(Helvetica) 180 0 true true 0 (i)]
[(Helvetica) 180 0 true true 0 (m)]
[(Helvetica) 180 0 true true 0 (e)]
] 0 MCshow grestore

%
% Y-Axis label:
%
gsave 234 2420 M 
currentpoint gsave translate 90 rotate 0 0 moveto
[
[(Helvetica) 180 0 true true 0 (d)]
[(Helvetica) 180 0 true true 0 (\()]
[(Helvetica) 180 0 true true 0 (s)]
[(Helvetica) 180 0 true true 0 (i)]
[(Helvetica) 180 0 true true 0 (g)]
[(Helvetica) 180 0 true true 0 (n)]
[(Helvetica) 180 0 true true 0 (a)]
[(Helvetica) 180 0 true true 0 (l)]
[(Helvetica) 180 0 true true 0 (\))]
[(Helvetica) 180 0 true true 0 ( )]
[(Helvetica) 180 0 true true 0 (/)]
[(Helvetica) 180 0 true true 0 ( )]
[(Helvetica) 180 0 true true 0 (d)]
[(Helvetica) 180 0 true true 0 (t)]
] 0 MCshow grestore

end
showpage
%%Trailer
%%EOF
