%!PS-Adobe-3.0 EPSF-3.0
%%BoundingBox: 0 0 514 550
%%Creator: BioKin Ltd.
%%DocumentFonts: Symbol Helvetica
%%EndComments
%
/bkdict 256 dict def
bkdict begin
/M {moveto} def 
/R {rmoveto} def
/L {lineto} def
/rL {rlineto} def
/GSN {gsave newpath} def
/SGR {stroke grestore} def
/COSGR {gsave setrgbcolor stroke grestore grestore} def
/SL {setlinewidth} def
/LWMB {12} def             % line width - model curves, black & white
/LWMC {10} def             % line width - model curves, color
/L2 {2.5 setlinewidth} def
/L5 {5 setlinewidth} def
/L10 {10 setlinewidth} def
/G50 {0.5 setgray} def
/SDA {[10  20] 0 setdash} def % axes
/helvT {/Helvetica findfont 100 scalefont setfont} def % tiny
/helvS {/Helvetica findfont 125 scalefont setfont} def % small
/helvM {/Helvetica findfont 150 scalefont setfont} def % medium
/helvL {/Helvetica findfont 175 scalefont setfont} def % large
/xlabel {gsave M dup
   stringwidth exch -0.5 mul exch rmoveto show grestore} def 
/ylabel {gsave M 90 rotate dup
   stringwidth exch -0.5 mul exch rmoveto show grestore} def
/ylabelresid {gsave M dup
   stringwidth exch -1 mul exch rmoveto show grestore} def
% ======
% Shapes
% ======
% Circle:
/Circ {0 360 arc closepath} def
%
% Square:
/Squa {dup dup -0.5 mul dup dup R -2 mul 0 exch rL 1 mul 0 rL dup 0 exch -1 mul rL closepath} def
%
% Triangle Up:
/TriU {dup dup dup -0.4 mul exch -0.5 mul exch R dup 0.5 mul exch rL dup -1 mul exch 0.5 mul exch rL closepath} def 
%
% Triangle Down:
/TriD {dup dup dup 0.4 mul exch -0.5 mul exch R dup 0.5 mul exch -1 mul rL dup 0.5 mul exch rL closepath} def 
%
% Diamond:
/Diam {45 rotate Squa} def
% ======
% Fills
% ======
/GRF {gsave setgray fill grestore} def                    % gray-level Fill
/COF {gsave setrgbcolor fill grestore} def                % color fill
% ======
% Colors
% ======
/C01 {1.00	0.00	0.00} def      % Red
/C02 {0.00	0.00	1.00} def      % Blue
/C03 {0.00	0.39	0.00} def      % Dark Green
/C04 {0.78	0.08	0.52} def      % Medium Violet Red
/C05 {0.55	0.27	0.07} def      % Saddle Brown
/C06 {0.10	0.70	0.70} def      % (cyan)
/C07 {1.00	0.55	0.00} def      % Dark Orange
/C08 {0.63	0.13	0.94} def      % Purple
/C09 {0.00	0.75	1.00} def      % Deep Sky Blue
/C10 {0.20	0.80	0.20} def      % Lime Green
/C11 {0.47	0.53	0.60} def      % Light Slate Gray
/C12 {0.00	0.00	0.00} def      % Black            % or: {0.19	0.31	0.31} def      % Dark Slate Gray
%
/LGR {0.75} def % light gray
/DGR {0.33} def % dark gray
%
% =============
% Dash patterns
% =============
/dash01 { [80  20] 0 setdash } def
/dash02 { [40  20] 0 setdash } def
/dash03 { [80  20  10  20] 0 setdash } def
/dash04 { [40  20  10  20] 0 setdash } def
/dash05 { [80  20  10  10  10  20] 0 setdash } def
/dash06 { [40  20  10  10  10  20] 0 setdash } def
/dash07 { [10  10] 0 setdash } def
%
/MFshow {
   { dup 5 get 3 ge
     { 5 get 3 eq {gsave} {grestore} ifelse }
     {dup dup 0 get findfont exch 1 get scalefont setfont
     [ currentpoint ] exch dup 2 get 0 exch R dup 5 get 2 ne {dup dup 6
     get exch 4 get {show} {stringwidth pop 0 R} ifelse }if dup 5 get 0 eq
     {dup 3 get {2 get neg 0 exch R pop} {pop aload pop M} ifelse} {dup 5
     get 1 eq {dup 2 get exch dup 3 get exch 6 get stringwidth pop -2 div
     dup 0 R} {dup 6 get stringwidth pop -2 div 0 R 6 get
     show 2 index {aload pop M neg 3 -1 roll neg R pop pop} {pop pop pop
     pop aload pop M} ifelse }ifelse }ifelse }
     ifelse }
   forall} bind def
/MFwidth {0 exch {dup 3 get{dup dup 0 get findfont exch 1 get scalefont
     setfont 6 get stringwidth pop add} {pop} ifelse} forall} bind def
/MCshow { currentpoint stroke M
  exch dup MFwidth -2 div 3 -1 roll R MFshow } def
%
end
%%EndProlog
bkdict begin
0.1 0.1 scale
%
% Residuals:
%
GSN 620 4863 M
620 3973 L
620 3734 L
620 3786 L
620 3930 L
620 3265 L
620 4250 L
620 3861 L
620 3970 L
620 3844 L
620 3335 L
620 3996 L
620 3601 L
620 3518 L
620 3828 L
620 3589 L
620 3558 L
620 3944 L
620 3405 L
620 3906 L
620 4106 L
620 3884 L
620 4288 L
620 3802 L
620 4223 L
620 4423 L
620 3813 L
620 4141 L
620 4140 L
620 4460 L
620 3946 L
620 3662 L
620 4646 L
620 3957 L
620 4429 L
620 4242 L
620 4155 L
620 4246 L
620 4197 L
620 4136 L
620 3790 L
620 4374 L
620 4164 L
620 4190 L
620 4235 L
620 3997 L
620 4336 L
620 3869 L
620 3928 L
620 4143 L
620 4183 L
620 3845 L
620 3728 L
620 3679 L
620 4329 L
620 4035 L
620 4339 L
620 4041 L
620 4294 L
620 4369 L
620 4034 L
620 4405 L
620 4411 L
620 4635 L
620 4179 L
620 3951 L
620 3980 L
620 4102 L
620 3569 L
620 4236 L
620 4143 L
620 3969 L
620 4705 L
620 3785 L
620 4131 L
620 4509 L
620 3744 L
620 3718 L
620 4259 L
620 4084 L
620 4088 L
620 4022 L
620 4153 L
620 4433 L
620 4029 L
620 3788 L
620 4176 L
620 3684 L
620 3850 L
620 3903 L
620 4278 L
620 3673 L
620 4179 L
620 3911 L
620 3686 L
620 3755 L
620 3610 L
620 3582 L
620 3873 L
620 3610 L
620 4074 L
620 3675 L
620 3869 L
620 3445 L
620 3807 L
620 3424 L
620 3681 L
620 3543 L
620 3890 L
620 3767 L
620 3798 L
620 3497 L
620 3235 L
620 3142 L
620 3515 L
620 3442 L
620 3572 L
620 3919 L
620 3701 L
620 3481 L
620 3469 L
620 3368 L
620 3501 L
620 3206 L
620 3602 L
620 3464 L
620 3130 L
620 3241 L
620 3382 L
620 3382 L
620 3290 L
620 3535 L
620 3304 L
620 3587 L
620 2941 L
620 3608 L
620 3080 L
620 3906 L
620 3502 L
620 3665 L
620 3493 L
620 2974 L
620 3592 L
620 3586 L
620 3527 L
620 3367 L
620 3665 L
620 3040 L
620 3314 L
620 3180 L
620 3520 L
620 3307 L
620 3427 L
620 3310 L
620 3036 L
620 3855 L
620 3373 L
620 3280 L
620 3580 L
620 2856 L
620 3559 L
620 3667 L
620 3470 L
620 3343 L
620 3487 L
620 3319 L
620 3361 L
620 3307 L
620 3447 L
620 3545 L
620 3487 L
620 3228 L
620 3460 L
620 3689 L
620 3514 L
620 3280 L
620 3504 L
620 3151 L
620 3588 L
620 3514 L
620 3287 L
620 3733 L
620 3392 L
620 3484 L
620 3311 L
620 3175 L
620 3261 L
620 3372 L
620 3221 L
620 4094 L
620 3652 L
620 3302 L
620 3669 L
620 3131 L
620 3706 L
620 3772 L
620 3819 L
620 3572 L
620 3457 L
620 3536 L
620 3343 L
620 3375 L
620 3719 L
620 3523 L
620 3541 L
620 3489 L
620 3777 L
620 3584 L
620 3339 L
620 3521 L
620 3225 L
620 3836 L
620 2892 L
620 3618 L
620 3376 L
620 3698 L
620 3464 L
620 3424 L
620 3522 L
620 3531 L
620 3651 L
620 3786 L
620 3220 L
620 3447 L
620 3396 L
620 3573 L
620 3162 L
620 3660 L
620 3563 L
620 3293 L
620 3652 L
620 3346 L
620 3569 L
620 3371 L
620 3348 L
620 3593 L
620 3686 L
620 3777 L
620 3321 L
620 3571 L
620 3749 L
620 3423 L
620 3736 L
620 3400 L
620 2995 L
620 3567 L
620 3717 L
620 3573 L
620 3271 L
620 3337 L
620 3928 L
620 3426 L
620 3484 L
620 3649 L
620 3965 L
620 3175 L
620 3125 L
620 3494 L
620 3779 L
620 4058 L
620 3556 L
620 3405 L
620 3847 L
620 3494 L
620 3642 L
620 3273 L
620 3458 L
620 2976 L
620 3408 L
620 3239 L
620 3908 L
620 3734 L
620 4078 L
620 3342 L
620 3412 L
620 3856 L
620 3705 L
620 3726 L
620 3335 L
620 3082 L
620 3499 L
620 3766 L
620 2872 L
620 4035 L
620 3633 L
620 3730 L
620 3494 L
620 3792 L
620 3556 L
620 3134 L
620 3066 L
620 3571 L
620 3543 L
620 3467 L
620 3554 L
620 3454 L
620 3877 L
620 3523 L
620 3237 L
620 3748 L
620 3542 L
620 3848 L
620 4025 L
620 3572 L
620 3350 L
620 3440 L
620 3547 L
620 3702 L
620 3217 L
620 3060 L
620 3602 L
620 3512 L
620 4077 L
620 3774 L
620 3615 L
620 3492 L
620 3541 L
620 3698 L
620 4147 L
620 3835 L
620 3911 L
620 3724 L
620 3296 L
620 3761 L
620 3720 L
620 3358 L
620 3589 L
620 3913 L
620 3735 L
620 3479 L
620 4045 L
620 3431 L
620 3591 L
620 3637 L
620 4125 L
620 3218 L
620 3663 L
620 3589 L
620 3521 L
620 3539 L
620 3504 L
620 3388 L
620 3318 L
620 3626 L
620 3674 L
620 4025 L
620 3032 L
620 3711 L
620 3720 L
620 3576 L
620 3656 L
620 3613 L
620 3632 L
620 3883 L
620 3436 L
620 3818 L
620 3296 L
620 3340 L
620 3303 L
620 3159 L
620 3491 L
620 3309 L
620 3192 L
620 3307 L
620 3944 L
620 3166 L
620 3471 L
620 3274 L
620 3211 L
620 3309 L
620 3948 L
620 3043 L
620 3144 L
620 3035 L
620 3205 L
620 3032 L
620 2998 L
620 2997 L
620 3124 L
620 3262 L
620 2721 L
620 3218 L
620 2954 L
620 3432 L
620 3344 L
620 3045 L
620 3209 L
620 2816 L
620 2795 L
620 3043 L
620 2884 L
620 3209 L
620 2900 L
620 3327 L
620 2924 L
620 3139 L
620 3445 L
620 2843 L
620 2932 L
620 3024 L
620 2692 L
620 2695 L
620 3283 L
620 3227 L
620 2321 L
620 2895 L
620 3390 L
620 2888 L
620 3205 L
620 3309 L
620 3312 L
620 2653 L
620 3307 L
620 2723 L
620 3246 L
620 2640 L
620 2683 L
620 2623 L
620 2945 L
620 3072 L
620 3259 L
620 2930 L
620 2976 L
620 2993 L
620 2932 L
620 2969 L
620 3102 L
620 2810 L
620 2860 L
620 3220 L
620 2278 L
620 2396 L
620 2950 L
620 2902 L
620 2948 L
620 3152 L
620 2644 L
620 3148 L
620 3013 L
620 2686 L
620 3242 L
620 3185 L
620 2895 L
620 3120 L
620 2839 L
620 2947 L
620 2816 L
620 2989 L
620 3157 L
620 2991 L
620 2804 L
620 2212 L
620 3089 L
620 3213 L
620 3087 L
620 2514 L
620 2550 L
620 2895 L
620 3189 L
620 2690 L
620 2566 L
620 3163 L
620 3013 L
620 2806 L
620 2537 L
620 2524 L
620 2854 L
620 2729 L
620 2590 L
620 2614 L
620 2345 L
620 2871 L
620 2422 L
620 2791 L
620 2799 L
620 3059 L
620 2638 L
620 2671 L
620 3089 L
620 2976 L
620 2695 L
620 2367 L
620 2542 L
620 2716 L
620 2742 L
620 2446 L
620 2840 L
620 2873 L
620 2871 L
620 2832 L
620 2904 L
620 2149 L
620 2633 L
620 2354 L
620 2714 L
620 2889 L
620 2291 L
620 3286 L
620 2695 L
620 3017 L
620 2864 L
620 2273 L
620 2376 L
620 2391 L
620 2851 L
620 2400 L
620 2136 L
620 2971 L
620 2478 L
620 2535 L
620 2673 L
620 2333 L
620 2431 L
620 2965 L
620 2437 L
620 2832 L
620 2531 L
620 2612 L
620 3118 L
620 2740 L
620 2937 L
620 2195 L
620 2574 L
620 2671 L
620 2888 L
620 2435 L
620 2537 L
620 2766 L
620 2212 L
620 2705 L
620 2616 L
620 2732 L
620 3046 L
L2 C07 COSGR

%
%================
% Legend - Begin
%================
%
GSN 4240 5180 M
4480 5180 L
LWMC SL  C07 COSGR
GSN 4540 5141 M helvM (4.0 uM) show grestore
%
%================
% Legend - End
%================
%

%
% Main frame
%
L10
GSN 
620 1700 M
4220 1700 L
4220 5300 L
620 5300 L
closepath SGR

%
% X axis: large tics
%
L10
%
% X axis: small tics
%
L5
%
% Y axis: large tics
%
L10
GSN 620 2435 M 54 0 rL SGR
GSN 4220 2435 M -54 0 rL SGR
helvS (-0.01) 560 2435 ylabel
GSN 620 3403 M 54 0 rL SGR
GSN 4220 3403 M -54 0 rL SGR
helvS (0) 560 3403 ylabel
GSN 620 4371 M 54 0 rL SGR
GSN 4220 4371 M -54 0 rL SGR
helvS (0.01) 560 4371 ylabel
%
% Y axis: small tics
%
L5
GSN 620 1709 M 36 0 rL SGR
GSN 4220 1709 M -36 0 rL SGR
GSN 620 1951 M 36 0 rL SGR
GSN 4220 1951 M -36 0 rL SGR
GSN 620 2193 M 36 0 rL SGR
GSN 4220 2193 M -36 0 rL SGR
GSN 620 2435 M 36 0 rL SGR
GSN 4220 2435 M -36 0 rL SGR
GSN 620 2677 M 36 0 rL SGR
GSN 4220 2677 M -36 0 rL SGR
GSN 620 2919 M 36 0 rL SGR
GSN 4220 2919 M -36 0 rL SGR
GSN 620 3161 M 36 0 rL SGR
GSN 4220 3161 M -36 0 rL SGR
GSN 620 3403 M 36 0 rL SGR
GSN 4220 3403 M -36 0 rL SGR
GSN 620 3645 M 36 0 rL SGR
GSN 4220 3645 M -36 0 rL SGR
GSN 620 3887 M 36 0 rL SGR
GSN 4220 3887 M -36 0 rL SGR
GSN 620 4129 M 36 0 rL SGR
GSN 4220 4129 M -36 0 rL SGR
GSN 620 4371 M 36 0 rL SGR
GSN 4220 4371 M -36 0 rL SGR
GSN 620 4614 M 36 0 rL SGR
GSN 4220 4614 M -36 0 rL SGR
GSN 620 4856 M 36 0 rL SGR
GSN 4220 4856 M -36 0 rL SGR
GSN 620 5098 M 36 0 rL SGR
GSN 4220 5098 M -36 0 rL SGR

%
% X axis - residual panel
%
GSN L5 620 3403 M 4220 3403 L SDA G50 SGR

%
% X-Axis label:
%
gsave 620 1370 M 
[
[(Helvetica) 180 0 true true 0 (t)]
[(Helvetica) 180 0 true true 0 (i)]
[(Helvetica) 180 0 true true 0 (m)]
[(Helvetica) 180 0 true true 0 (e)]
] 0 MCshow grestore

%
% Y-Axis label:
%
gsave 234 3499 M 
currentpoint gsave translate 90 rotate 0 0 moveto
[
[(Helvetica) 180 0 true true 0 (r)]
[(Helvetica) 180 0 true true 0 (e)]
[(Helvetica) 180 0 true true 0 (s)]
[(Helvetica) 180 0 true true 0 (i)]
[(Helvetica) 180 0 true true 0 (d)]
[(Helvetica) 180 0 true true 0 (u)]
[(Helvetica) 180 0 true true 0 (a)]
[(Helvetica) 180 0 true true 0 (l)]
[(Helvetica) 180 0 true true 0 (s)]
] 0 MCshow grestore

end
showpage
%%Trailer
%%EOF
