%!PS-Adobe-3.0 EPSF-3.0
%%BoundingBox: 0 0 514 550
%%Creator: BioKin Ltd.
%%DocumentFonts: Symbol Helvetica
%%EndComments
%
/bkdict 256 dict def
bkdict begin
/M {moveto} def 
/R {rmoveto} def
/L {lineto} def
/rL {rlineto} def
/GSN {gsave newpath} def
/SGR {stroke grestore} def
/COSGR {gsave setrgbcolor stroke grestore grestore} def
/SL {setlinewidth} def
/LWMB {12} def             % line width - model curves, black & white
/LWMC {10} def             % line width - model curves, color
/L2 {2.5 setlinewidth} def
/L5 {5 setlinewidth} def
/L10 {10 setlinewidth} def
/G50 {0.5 setgray} def
/SDA {[10  20] 0 setdash} def % axes
/helvT {/Helvetica findfont 100 scalefont setfont} def % tiny
/helvS {/Helvetica findfont 125 scalefont setfont} def % small
/helvM {/Helvetica findfont 150 scalefont setfont} def % medium
/helvL {/Helvetica findfont 175 scalefont setfont} def % large
/xlabel {gsave M dup
   stringwidth exch -0.5 mul exch rmoveto show grestore} def 
/ylabel {gsave M 90 rotate dup
   stringwidth exch -0.5 mul exch rmoveto show grestore} def
/ylabelresid {gsave M dup
   stringwidth exch -1 mul exch rmoveto show grestore} def
% ======
% Shapes
% ======
% Circle:
/Circ {0 360 arc closepath} def
%
% Square:
/Squa {dup dup -0.5 mul dup dup R -2 mul 0 exch rL 1 mul 0 rL dup 0 exch -1 mul rL closepath} def
%
% Triangle Up:
/TriU {dup dup dup -0.4 mul exch -0.5 mul exch R dup 0.5 mul exch rL dup -1 mul exch 0.5 mul exch rL closepath} def 
%
% Triangle Down:
/TriD {dup dup dup 0.4 mul exch -0.5 mul exch R dup 0.5 mul exch -1 mul rL dup 0.5 mul exch rL closepath} def 
%
% Diamond:
/Diam {45 rotate Squa} def
% ======
% Fills
% ======
/GRF {gsave setgray fill grestore} def                    % gray-level Fill
/COF {gsave setrgbcolor fill grestore} def                % color fill
% ======
% Colors
% ======
/C01 {1.00	0.00	0.00} def      % Red
/C02 {0.00	0.00	1.00} def      % Blue
/C03 {0.00	0.39	0.00} def      % Dark Green
/C04 {0.78	0.08	0.52} def      % Medium Violet Red
/C05 {0.55	0.27	0.07} def      % Saddle Brown
/C06 {0.10	0.70	0.70} def      % (cyan)
/C07 {1.00	0.55	0.00} def      % Dark Orange
/C08 {0.63	0.13	0.94} def      % Purple
/C09 {0.00	0.75	1.00} def      % Deep Sky Blue
/C10 {0.20	0.80	0.20} def      % Lime Green
/C11 {0.47	0.53	0.60} def      % Light Slate Gray
/C12 {0.00	0.00	0.00} def      % Black            % or: {0.19	0.31	0.31} def      % Dark Slate Gray
%
/LGR {0.75} def % light gray
/DGR {0.33} def % dark gray
%
% =============
% Dash patterns
% =============
/dash01 { [80  20] 0 setdash } def
/dash02 { [40  20] 0 setdash } def
/dash03 { [80  20  10  20] 0 setdash } def
/dash04 { [40  20  10  20] 0 setdash } def
/dash05 { [80  20  10  10  10  20] 0 setdash } def
/dash06 { [40  20  10  10  10  20] 0 setdash } def
/dash07 { [10  10] 0 setdash } def
%
/MFshow {
   { dup 5 get 3 ge
     { 5 get 3 eq {gsave} {grestore} ifelse }
     {dup dup 0 get findfont exch 1 get scalefont setfont
     [ currentpoint ] exch dup 2 get 0 exch R dup 5 get 2 ne {dup dup 6
     get exch 4 get {show} {stringwidth pop 0 R} ifelse }if dup 5 get 0 eq
     {dup 3 get {2 get neg 0 exch R pop} {pop aload pop M} ifelse} {dup 5
     get 1 eq {dup 2 get exch dup 3 get exch 6 get stringwidth pop -2 div
     dup 0 R} {dup 6 get stringwidth pop -2 div 0 R 6 get
     show 2 index {aload pop M neg 3 -1 roll neg R pop pop} {pop pop pop
     pop aload pop M} ifelse }ifelse }ifelse }
     ifelse }
   forall} bind def
/MFwidth {0 exch {dup 3 get{dup dup 0 get findfont exch 1 get scalefont
     setfont 6 get stringwidth pop add} {pop} ifelse} forall} bind def
/MCshow { currentpoint stroke M
  exch dup MFwidth -2 div 3 -1 roll R MFshow } def
%
end
%%EndProlog
bkdict begin
0.1 0.1 scale
%
% Residuals:
%
GSN 620 3353 M
620 3946 L
620 3804 L
620 3365 L
620 3739 L
620 3595 L
620 3345 L
620 3489 L
620 3255 L
620 3247 L
620 3592 L
620 3380 L
620 3295 L
620 3533 L
620 3519 L
620 3385 L
620 3532 L
620 3285 L
620 3471 L
620 3572 L
620 3722 L
620 3854 L
620 3526 L
620 3499 L
620 3411 L
620 3578 L
620 4085 L
620 4010 L
620 3729 L
620 3755 L
620 3723 L
620 3752 L
620 3816 L
620 4007 L
620 3349 L
620 4094 L
620 3574 L
620 3618 L
620 3508 L
620 3759 L
620 3782 L
620 3308 L
620 3764 L
620 3777 L
620 3497 L
620 3717 L
620 3952 L
620 3927 L
620 3484 L
620 3612 L
620 3677 L
620 3501 L
620 3462 L
620 3684 L
620 3769 L
620 3538 L
620 3384 L
620 3431 L
620 3437 L
620 3823 L
620 3534 L
620 3804 L
620 3817 L
620 3532 L
620 3571 L
620 3359 L
620 3335 L
620 3759 L
620 3604 L
620 3799 L
620 3282 L
620 3513 L
620 3604 L
620 3658 L
620 3592 L
620 3528 L
620 3326 L
620 3334 L
620 3522 L
620 3569 L
620 3638 L
620 3258 L
620 3171 L
620 3141 L
620 2775 L
620 3182 L
620 3333 L
620 3066 L
620 3099 L
620 3003 L
620 3205 L
620 2552 L
620 3091 L
620 2810 L
620 2722 L
620 2520 L
620 2564 L
620 2731 L
620 2657 L
620 2432 L
620 2595 L
620 2683 L
620 2936 L
620 2519 L
620 2668 L
620 2847 L
620 2606 L
620 2671 L
620 2531 L
620 2646 L
620 2550 L
620 2630 L
620 2315 L
620 2181 L
620 2293 L
620 2136 L
620 2375 L
620 2179 L
620 2658 L
620 2549 L
620 2588 L
620 2466 L
620 2698 L
620 2779 L
620 2336 L
620 2512 L
620 2710 L
620 2345 L
620 2917 L
620 2531 L
620 2325 L
620 2802 L
620 2834 L
620 2805 L
620 2586 L
620 2168 L
620 2967 L
620 2631 L
620 2545 L
620 2503 L
620 2961 L
620 2686 L
620 2636 L
620 3203 L
620 2450 L
620 2403 L
620 2670 L
620 2649 L
620 2746 L
620 2599 L
620 2398 L
620 2763 L
620 2979 L
620 2770 L
620 2717 L
620 2588 L
620 2534 L
620 3067 L
620 2811 L
620 2513 L
620 2952 L
620 2635 L
620 2650 L
620 3101 L
620 2768 L
620 2768 L
620 3217 L
620 2922 L
620 2832 L
620 3054 L
620 3140 L
620 2947 L
620 2743 L
620 2930 L
620 3353 L
620 3128 L
620 2743 L
620 3284 L
620 3226 L
620 2933 L
620 2712 L
620 3253 L
620 3281 L
620 3027 L
620 2622 L
620 3258 L
620 3099 L
620 3156 L
620 3490 L
620 3059 L
620 3217 L
620 3399 L
620 3077 L
620 3196 L
620 3099 L
620 3339 L
620 3396 L
620 3201 L
620 3098 L
620 3072 L
620 3113 L
620 3299 L
620 3599 L
620 3263 L
620 3378 L
620 2885 L
620 3449 L
620 3175 L
620 3444 L
620 3302 L
620 3165 L
620 3619 L
620 3581 L
620 3214 L
620 3365 L
620 3500 L
620 3625 L
620 3230 L
620 3565 L
620 3689 L
620 3484 L
620 3413 L
620 3125 L
620 3514 L
620 3152 L
620 3420 L
620 3532 L
620 3514 L
620 3636 L
620 3585 L
620 3297 L
620 3882 L
620 3393 L
620 3355 L
620 3822 L
620 3549 L
620 3507 L
620 3591 L
620 3197 L
620 3331 L
620 3889 L
620 3777 L
620 3676 L
620 3931 L
620 3487 L
620 3362 L
620 3456 L
620 3913 L
620 3707 L
620 3453 L
620 3566 L
620 3816 L
620 3667 L
620 3674 L
620 3331 L
620 3822 L
620 3999 L
620 3636 L
620 3588 L
620 3670 L
620 3767 L
620 3671 L
620 3708 L
620 3777 L
620 3405 L
620 3924 L
620 3787 L
620 3697 L
620 3795 L
620 3965 L
620 3343 L
620 3583 L
620 3727 L
620 3980 L
620 3654 L
620 3823 L
620 3711 L
620 3821 L
620 3829 L
620 3301 L
620 4085 L
620 3861 L
620 4223 L
620 3898 L
620 3838 L
620 4318 L
620 4304 L
620 4109 L
620 4021 L
620 4456 L
620 4190 L
620 4321 L
620 3937 L
620 4257 L
620 4153 L
620 4277 L
620 4224 L
620 4379 L
620 4248 L
620 4111 L
620 4392 L
620 4231 L
620 4261 L
620 4325 L
620 4422 L
620 4254 L
620 4086 L
620 4467 L
620 4221 L
620 4613 L
620 4863 L
620 4467 L
620 4301 L
620 4152 L
620 4582 L
620 4420 L
620 4111 L
620 4255 L
620 4349 L
620 4636 L
620 4727 L
620 4152 L
620 4133 L
620 4224 L
620 4463 L
620 4297 L
620 4532 L
620 4448 L
620 4277 L
620 4298 L
620 4268 L
620 4288 L
620 4308 L
620 4074 L
620 4194 L
620 4774 L
620 4206 L
620 4336 L
620 4028 L
620 4069 L
620 4309 L
620 4180 L
620 4238 L
620 4147 L
620 4328 L
620 4497 L
620 4088 L
620 4750 L
620 4177 L
620 4247 L
620 4437 L
620 4079 L
620 3993 L
620 4407 L
620 4507 L
620 3932 L
620 4288 L
620 3966 L
620 4041 L
620 4446 L
620 4213 L
620 4142 L
620 3924 L
620 4120 L
620 4172 L
620 4447 L
620 4301 L
620 3991 L
620 4130 L
620 4128 L
620 4281 L
620 3800 L
620 4021 L
620 3932 L
620 3895 L
620 4125 L
620 3943 L
620 3900 L
620 4218 L
620 4546 L
620 4308 L
620 4095 L
620 3773 L
620 4227 L
620 3726 L
620 4055 L
620 4172 L
620 3953 L
620 4035 L
620 4152 L
620 4166 L
620 3880 L
620 3758 L
620 3748 L
620 3750 L
620 3927 L
620 3933 L
620 3704 L
620 3855 L
620 3868 L
620 3516 L
620 3859 L
620 4007 L
620 3977 L
620 3794 L
620 3868 L
620 3792 L
620 4030 L
620 3807 L
620 3964 L
620 4255 L
620 4032 L
620 3811 L
620 4042 L
620 3926 L
620 3936 L
620 3987 L
620 3528 L
620 3616 L
620 3869 L
620 4032 L
620 3930 L
620 3736 L
620 3784 L
620 3846 L
620 4003 L
620 3834 L
620 4176 L
620 3988 L
620 3893 L
620 4220 L
620 4030 L
620 3878 L
620 3907 L
620 3909 L
620 3818 L
620 3615 L
620 4069 L
620 3696 L
620 4103 L
620 4147 L
620 3937 L
620 3787 L
620 3801 L
620 4078 L
620 4133 L
620 3844 L
620 3953 L
620 4112 L
620 3915 L
620 3852 L
620 3865 L
620 3702 L
620 3456 L
620 3584 L
620 3609 L
620 3614 L
620 3787 L
620 3744 L
620 3907 L
620 4055 L
620 3797 L
620 3827 L
620 4166 L
620 3963 L
620 3694 L
620 3964 L
620 4339 L
620 3686 L
620 3848 L
620 4024 L
620 3467 L
620 3557 L
620 3589 L
620 4163 L
620 3964 L
620 3703 L
620 3829 L
620 3581 L
620 3808 L
620 3280 L
620 4021 L
620 3748 L
620 3544 L
620 3489 L
620 4045 L
620 3800 L
620 3412 L
620 4027 L
620 3947 L
620 4031 L
620 3555 L
620 3801 L
620 3571 L
620 3677 L
620 4017 L
620 3575 L
620 3856 L
620 3550 L
620 3401 L
620 3733 L
620 3781 L
620 3889 L
620 3836 L
620 3889 L
620 3886 L
620 4111 L
620 3998 L
620 3937 L
620 3747 L
620 3744 L
620 3511 L
620 3608 L
620 3808 L
620 3773 L
620 3827 L
620 3717 L
620 3951 L
620 3655 L
620 4254 L
620 3619 L
620 3920 L
620 3659 L
620 3623 L
620 4143 L
620 3756 L
620 3783 L
620 3743 L
620 4032 L
620 4086 L
620 3727 L
620 3817 L
620 3578 L
L2 C06 COSGR

%
%================
% Legend - Begin
%================
%
GSN 4240 5180 M
4480 5180 L
LWMC SL  C06 COSGR
GSN 4540 5141 M helvM (3.0 uM) show grestore
%
%================
% Legend - End
%================
%

%
% Main frame
%
L10
GSN 
620 1700 M
4220 1700 L
4220 5300 L
620 5300 L
closepath SGR

%
% X axis: large tics
%
L10
%
% X axis: small tics
%
L5
%
% Y axis: large tics
%
L10
GSN 620 2120 M 54 0 rL SGR
GSN 4220 2120 M -54 0 rL SGR
helvS (-0.02) 560 2120 ylabel
GSN 620 2865 M 54 0 rL SGR
GSN 4220 2865 M -54 0 rL SGR
helvS (-0.01) 560 2865 ylabel
GSN 620 3609 M 54 0 rL SGR
GSN 4220 3609 M -54 0 rL SGR
helvS (0) 560 3609 ylabel
GSN 620 4354 M 54 0 rL SGR
GSN 4220 4354 M -54 0 rL SGR
helvS (0.01) 560 4354 ylabel
GSN 620 5098 M 54 0 rL SGR
GSN 4220 5098 M -54 0 rL SGR
helvS (0.02) 560 5098 ylabel
%
% Y axis: small tics
%
L5
GSN 620 1748 M 36 0 rL SGR
GSN 4220 1748 M -36 0 rL SGR
GSN 620 1934 M 36 0 rL SGR
GSN 4220 1934 M -36 0 rL SGR
GSN 620 2120 M 36 0 rL SGR
GSN 4220 2120 M -36 0 rL SGR
GSN 620 2306 M 36 0 rL SGR
GSN 4220 2306 M -36 0 rL SGR
GSN 620 2492 M 36 0 rL SGR
GSN 4220 2492 M -36 0 rL SGR
GSN 620 2679 M 36 0 rL SGR
GSN 4220 2679 M -36 0 rL SGR
GSN 620 2865 M 36 0 rL SGR
GSN 4220 2865 M -36 0 rL SGR
GSN 620 3051 M 36 0 rL SGR
GSN 4220 3051 M -36 0 rL SGR
GSN 620 3237 M 36 0 rL SGR
GSN 4220 3237 M -36 0 rL SGR
GSN 620 3423 M 36 0 rL SGR
GSN 4220 3423 M -36 0 rL SGR
GSN 620 3609 M 36 0 rL SGR
GSN 4220 3609 M -36 0 rL SGR
GSN 620 3795 M 36 0 rL SGR
GSN 4220 3795 M -36 0 rL SGR
GSN 620 3981 M 36 0 rL SGR
GSN 4220 3981 M -36 0 rL SGR
GSN 620 4168 M 36 0 rL SGR
GSN 4220 4168 M -36 0 rL SGR
GSN 620 4354 M 36 0 rL SGR
GSN 4220 4354 M -36 0 rL SGR
GSN 620 4540 M 36 0 rL SGR
GSN 4220 4540 M -36 0 rL SGR
GSN 620 4726 M 36 0 rL SGR
GSN 4220 4726 M -36 0 rL SGR
GSN 620 4912 M 36 0 rL SGR
GSN 4220 4912 M -36 0 rL SGR
GSN 620 5098 M 36 0 rL SGR
GSN 4220 5098 M -36 0 rL SGR
GSN 620 5284 M 36 0 rL SGR
GSN 4220 5284 M -36 0 rL SGR

%
% X axis - residual panel
%
GSN L5 620 3609 M 4220 3609 L SDA G50 SGR

%
% X-Axis label:
%
gsave 620 1370 M 
[
[(Helvetica) 180 0 true true 0 (t)]
[(Helvetica) 180 0 true true 0 (i)]
[(Helvetica) 180 0 true true 0 (m)]
[(Helvetica) 180 0 true true 0 (e)]
] 0 MCshow grestore

%
% Y-Axis label:
%
gsave 234 3500 M 
currentpoint gsave translate 90 rotate 0 0 moveto
[
[(Helvetica) 180 0 true true 0 (r)]
[(Helvetica) 180 0 true true 0 (e)]
[(Helvetica) 180 0 true true 0 (s)]
[(Helvetica) 180 0 true true 0 (i)]
[(Helvetica) 180 0 true true 0 (d)]
[(Helvetica) 180 0 true true 0 (u)]
[(Helvetica) 180 0 true true 0 (a)]
[(Helvetica) 180 0 true true 0 (l)]
[(Helvetica) 180 0 true true 0 (s)]
] 0 MCshow grestore

end
showpage
%%Trailer
%%EOF
