%!PS-Adobe-3.0 EPSF-3.0
%%BoundingBox: 0 0 514 550
%%Creator: BioKin Ltd.
%%DocumentFonts: Symbol Helvetica
%%EndComments
%
/bkdict 256 dict def
bkdict begin
/M {moveto} def 
/R {rmoveto} def
/L {lineto} def
/rL {rlineto} def
/GSN {gsave newpath} def
/SGR {stroke grestore} def
/COSGR {gsave setrgbcolor stroke grestore grestore} def
/SL {setlinewidth} def
/LWMB {12} def             % line width - model curves, black & white
/LWMC {10} def             % line width - model curves, color
/L2 {2.5 setlinewidth} def
/L5 {5 setlinewidth} def
/L10 {10 setlinewidth} def
/G50 {0.5 setgray} def
/SDA {[10  20] 0 setdash} def % axes
/helvT {/Helvetica findfont 100 scalefont setfont} def % tiny
/helvS {/Helvetica findfont 125 scalefont setfont} def % small
/helvM {/Helvetica findfont 150 scalefont setfont} def % medium
/helvL {/Helvetica findfont 175 scalefont setfont} def % large
/xlabel {gsave M dup
   stringwidth exch -0.5 mul exch rmoveto show grestore} def 
/ylabel {gsave M 90 rotate dup
   stringwidth exch -0.5 mul exch rmoveto show grestore} def
/ylabelresid {gsave M dup
   stringwidth exch -1 mul exch rmoveto show grestore} def
% ======
% Shapes
% ======
% Circle:
/Circ {0 360 arc closepath} def
%
% Square:
/Squa {dup dup -0.5 mul dup dup R -2 mul 0 exch rL 1 mul 0 rL dup 0 exch -1 mul rL closepath} def
%
% Triangle Up:
/TriU {dup dup dup -0.4 mul exch -0.5 mul exch R dup 0.5 mul exch rL dup -1 mul exch 0.5 mul exch rL closepath} def 
%
% Triangle Down:
/TriD {dup dup dup 0.4 mul exch -0.5 mul exch R dup 0.5 mul exch -1 mul rL dup 0.5 mul exch rL closepath} def 
%
% Diamond:
/Diam {45 rotate Squa} def
% ======
% Fills
% ======
/GRF {gsave setgray fill grestore} def                    % gray-level Fill
/COF {gsave setrgbcolor fill grestore} def                % color fill
% ======
% Colors
% ======
/C01 {1.00	0.00	0.00} def      % Red
/C02 {0.00	0.00	1.00} def      % Blue
/C03 {0.00	0.39	0.00} def      % Dark Green
/C04 {0.78	0.08	0.52} def      % Medium Violet Red
/C05 {0.55	0.27	0.07} def      % Saddle Brown
/C06 {0.10	0.70	0.70} def      % (cyan)
/C07 {1.00	0.55	0.00} def      % Dark Orange
/C08 {0.63	0.13	0.94} def      % Purple
/C09 {0.00	0.75	1.00} def      % Deep Sky Blue
/C10 {0.20	0.80	0.20} def      % Lime Green
/C11 {0.47	0.53	0.60} def      % Light Slate Gray
/C12 {0.00	0.00	0.00} def      % Black            % or: {0.19	0.31	0.31} def      % Dark Slate Gray
%
/LGR {0.75} def % light gray
/DGR {0.33} def % dark gray
%
% =============
% Dash patterns
% =============
/dash01 { [80  20] 0 setdash } def
/dash02 { [40  20] 0 setdash } def
/dash03 { [80  20  10  20] 0 setdash } def
/dash04 { [40  20  10  20] 0 setdash } def
/dash05 { [80  20  10  10  10  20] 0 setdash } def
/dash06 { [40  20  10  10  10  20] 0 setdash } def
/dash07 { [10  10] 0 setdash } def
%
/MFshow {
   { dup 5 get 3 ge
     { 5 get 3 eq {gsave} {grestore} ifelse }
     {dup dup 0 get findfont exch 1 get scalefont setfont
     [ currentpoint ] exch dup 2 get 0 exch R dup 5 get 2 ne {dup dup 6
     get exch 4 get {show} {stringwidth pop 0 R} ifelse }if dup 5 get 0 eq
     {dup 3 get {2 get neg 0 exch R pop} {pop aload pop M} ifelse} {dup 5
     get 1 eq {dup 2 get exch dup 3 get exch 6 get stringwidth pop -2 div
     dup 0 R} {dup 6 get stringwidth pop -2 div 0 R 6 get
     show 2 index {aload pop M neg 3 -1 roll neg R pop pop} {pop pop pop
     pop aload pop M} ifelse }ifelse }ifelse }
     ifelse }
   forall} bind def
/MFwidth {0 exch {dup 3 get{dup dup 0 get findfont exch 1 get scalefont
     setfont 6 get stringwidth pop add} {pop} ifelse} forall} bind def
/MCshow { currentpoint stroke M
  exch dup MFwidth -2 div 3 -1 roll R MFshow } def
%
end
%%EndProlog
bkdict begin
0.1 0.1 scale
%
% Residuals:
%
GSN 620 4863 M
620 4733 L
620 4181 L
620 4206 L
620 4661 L
620 4427 L
620 4143 L
620 3905 L
620 4386 L
620 4198 L
620 4052 L
620 3991 L
620 4184 L
620 4189 L
620 4080 L
620 4593 L
620 4185 L
620 4113 L
620 4333 L
620 4452 L
620 4512 L
620 4222 L
620 4131 L
620 4514 L
620 4515 L
620 4113 L
620 4124 L
620 4262 L
620 3988 L
620 3946 L
620 4057 L
620 3918 L
620 3990 L
620 4459 L
620 3910 L
620 4013 L
620 4102 L
620 4255 L
620 4163 L
620 4084 L
620 4096 L
620 4046 L
620 4088 L
620 3824 L
620 3641 L
620 4016 L
620 4173 L
620 4026 L
620 3851 L
620 3444 L
620 3689 L
620 3820 L
620 3722 L
620 3879 L
620 4008 L
620 4057 L
620 3775 L
620 3617 L
620 3744 L
620 3574 L
620 3567 L
620 3532 L
620 3597 L
620 3661 L
620 3693 L
620 3625 L
620 3656 L
620 3247 L
620 3537 L
620 3403 L
620 4225 L
620 3861 L
620 3454 L
620 3397 L
620 3783 L
620 3708 L
620 3747 L
620 3691 L
620 3739 L
620 3554 L
620 3789 L
620 3765 L
620 3745 L
620 3191 L
620 4280 L
620 3425 L
620 3790 L
620 3330 L
620 3461 L
620 3787 L
620 3525 L
620 3318 L
620 3694 L
620 3977 L
620 3165 L
620 3554 L
620 3545 L
620 3550 L
620 3440 L
620 3768 L
620 3546 L
620 3424 L
620 3318 L
620 3397 L
620 3369 L
620 3321 L
620 3667 L
620 3329 L
620 3296 L
620 3028 L
620 3145 L
620 3903 L
620 3420 L
620 2865 L
620 3740 L
620 3267 L
620 3296 L
620 3957 L
620 3453 L
620 3567 L
620 3737 L
620 3609 L
620 3507 L
620 3755 L
620 3478 L
620 3340 L
620 3247 L
620 3190 L
620 3011 L
620 3301 L
620 3503 L
620 3401 L
620 3037 L
620 3687 L
620 3372 L
620 3331 L
620 3667 L
620 3848 L
620 3519 L
620 3646 L
620 3503 L
620 3214 L
620 3222 L
620 3503 L
620 3866 L
620 3482 L
620 3289 L
620 3444 L
620 2969 L
620 3526 L
620 3515 L
620 3291 L
620 3242 L
620 3237 L
620 3288 L
620 3326 L
620 3391 L
620 3454 L
620 3602 L
620 3297 L
620 3142 L
620 3547 L
620 3453 L
620 3220 L
620 3243 L
620 2938 L
620 3463 L
620 3095 L
620 2935 L
620 3127 L
620 3188 L
620 3312 L
620 3047 L
620 3166 L
620 3062 L
620 3185 L
620 2865 L
620 2993 L
620 3516 L
620 3058 L
620 3009 L
620 3335 L
620 3455 L
620 3148 L
620 2918 L
620 3330 L
620 3311 L
620 3019 L
620 3147 L
620 3171 L
620 3558 L
620 3148 L
620 3217 L
620 3061 L
620 2636 L
620 3384 L
620 3344 L
620 3315 L
620 2777 L
620 3157 L
620 3323 L
620 3253 L
620 3192 L
620 3136 L
620 3084 L
620 3080 L
620 3152 L
620 3503 L
620 3380 L
620 3141 L
620 3399 L
620 3408 L
620 3040 L
620 3393 L
620 3149 L
620 2894 L
620 3131 L
620 3581 L
620 3270 L
620 3222 L
620 2981 L
620 3189 L
620 3556 L
620 3160 L
620 3383 L
620 3134 L
620 3400 L
620 3025 L
620 2569 L
620 3143 L
620 3249 L
620 3573 L
620 3314 L
620 2941 L
620 3515 L
620 3138 L
620 3506 L
620 3106 L
620 3008 L
620 2929 L
620 3171 L
620 3619 L
620 3122 L
620 2965 L
620 3402 L
620 3169 L
620 2764 L
620 2961 L
620 3067 L
620 3025 L
620 2925 L
620 3032 L
620 3051 L
620 3075 L
620 2885 L
620 2983 L
620 3349 L
620 3012 L
620 3216 L
620 2958 L
620 3010 L
620 2682 L
620 3109 L
620 3270 L
620 3254 L
620 2843 L
620 3128 L
620 2924 L
620 3643 L
620 3158 L
620 2435 L
620 3195 L
620 3198 L
620 2737 L
620 2606 L
620 3291 L
620 3028 L
620 3183 L
620 3351 L
620 2891 L
620 2913 L
620 3070 L
620 3420 L
620 3219 L
620 3120 L
620 2995 L
620 3011 L
620 2663 L
620 3341 L
620 3347 L
620 2889 L
620 3025 L
620 3185 L
620 2808 L
620 3364 L
620 3359 L
620 2526 L
620 3204 L
620 3386 L
620 3259 L
620 2965 L
620 3029 L
620 3057 L
620 3105 L
620 3079 L
620 2779 L
620 3241 L
620 3091 L
620 3102 L
620 2910 L
620 3620 L
620 2866 L
620 3222 L
620 3127 L
620 3094 L
620 2731 L
620 3226 L
620 2949 L
620 3162 L
620 2866 L
620 3166 L
620 3275 L
620 3149 L
620 3384 L
620 3040 L
620 3086 L
620 2836 L
620 3048 L
620 3310 L
620 2911 L
620 2858 L
620 2791 L
620 3037 L
620 3011 L
620 3078 L
620 2992 L
620 3210 L
620 2692 L
620 2900 L
620 3150 L
620 2921 L
620 3160 L
620 3165 L
620 2947 L
620 2957 L
620 3294 L
620 2903 L
620 2636 L
620 3311 L
620 2760 L
620 3040 L
620 3388 L
620 2948 L
620 2942 L
620 2980 L
620 2683 L
620 2786 L
620 3104 L
620 3259 L
620 3138 L
620 3252 L
620 3343 L
620 2945 L
620 2911 L
620 2960 L
620 3545 L
620 2609 L
620 2428 L
620 3108 L
620 2739 L
620 3076 L
620 2957 L
620 2756 L
620 3063 L
620 3051 L
620 3021 L
620 2930 L
620 3254 L
620 2985 L
620 3004 L
620 3219 L
620 2522 L
620 2823 L
620 3010 L
620 2995 L
620 2743 L
620 2724 L
620 3045 L
620 3021 L
620 2880 L
620 3022 L
620 2844 L
620 3047 L
620 2954 L
620 2857 L
620 3081 L
620 3005 L
620 2630 L
620 2990 L
620 3278 L
620 3024 L
620 3214 L
620 2517 L
620 3018 L
620 2756 L
620 2734 L
620 2929 L
620 2954 L
620 2869 L
620 2619 L
620 2889 L
620 2871 L
620 2765 L
620 2851 L
620 3031 L
620 3332 L
620 2665 L
620 2788 L
620 2778 L
620 2460 L
620 2715 L
620 3265 L
620 2734 L
620 2924 L
620 2774 L
620 2876 L
620 2765 L
620 2603 L
620 2821 L
620 2384 L
620 3116 L
620 2283 L
620 2691 L
620 2985 L
620 2762 L
620 3031 L
620 2718 L
620 2889 L
620 2805 L
620 2698 L
620 2841 L
620 2957 L
620 2978 L
620 2751 L
620 2878 L
620 2714 L
620 3125 L
620 2811 L
620 2638 L
620 2869 L
620 2750 L
620 2524 L
620 2859 L
620 2474 L
620 2718 L
620 2850 L
620 2596 L
620 3095 L
620 2541 L
620 3021 L
620 2249 L
620 2856 L
620 3076 L
620 3333 L
620 2650 L
620 2816 L
620 2568 L
620 2668 L
620 2980 L
620 2648 L
620 2596 L
620 2715 L
620 2530 L
620 2703 L
620 3071 L
620 3201 L
620 3042 L
620 2439 L
620 2436 L
620 2803 L
620 2620 L
620 2816 L
620 2498 L
620 2623 L
620 2753 L
620 2855 L
620 2802 L
620 2738 L
620 2708 L
620 3322 L
620 2308 L
620 2950 L
620 2557 L
620 2730 L
620 2604 L
620 2583 L
620 2685 L
620 2574 L
620 2140 L
620 2248 L
620 2651 L
620 2300 L
620 2867 L
620 2717 L
620 2345 L
620 2454 L
620 2342 L
620 2730 L
620 2640 L
620 2636 L
620 2842 L
620 2880 L
620 2547 L
620 3034 L
620 2757 L
620 2556 L
620 2748 L
620 2740 L
620 2836 L
620 2312 L
620 2918 L
620 2234 L
620 2787 L
620 2903 L
620 2673 L
620 2966 L
620 2364 L
620 2675 L
620 2738 L
620 2281 L
620 2708 L
620 2766 L
620 2380 L
620 2829 L
620 2727 L
620 2478 L
620 2448 L
620 2869 L
620 2885 L
620 2360 L
620 2500 L
620 2499 L
620 2951 L
620 3036 L
620 2577 L
620 2983 L
620 2136 L
620 2908 L
620 3051 L
620 2875 L
620 2680 L
620 2912 L
620 2808 L
620 2523 L
620 2426 L
620 2592 L
620 2506 L
620 2684 L
620 2598 L
620 2435 L
620 2652 L
620 3054 L
620 2666 L
620 2610 L
620 3010 L
620 2883 L
620 2588 L
620 2726 L
620 3055 L
620 2318 L
620 2653 L
620 2603 L
620 2775 L
620 2294 L
620 2963 L
620 2772 L
620 2797 L
620 2724 L
620 2992 L
620 2666 L
620 2592 L
620 2794 L
620 2496 L
620 3029 L
620 2625 L
620 2897 L
620 2442 L
620 2633 L
620 2985 L
620 2592 L
620 2933 L
620 2662 L
620 2596 L
620 2563 L
620 3285 L
620 2832 L
620 2450 L
620 2677 L
620 3221 L
620 2775 L
620 2892 L
620 2934 L
620 2798 L
620 2625 L
620 2918 L
620 2925 L
620 2771 L
620 2835 L
620 2591 L
620 3002 L
620 2584 L
620 3081 L
620 2878 L
620 3173 L
620 3178 L
620 3240 L
620 2889 L
620 2870 L
620 2355 L
620 2590 L
620 3073 L
620 2647 L
620 3003 L
620 2629 L
620 2770 L
620 2342 L
620 3415 L
620 2618 L
620 2737 L
620 2808 L
620 2989 L
620 2787 L
620 2494 L
620 3421 L
620 2731 L
620 2884 L
620 3040 L
620 2529 L
620 2545 L
620 3300 L
620 3093 L
620 3050 L
620 3001 L
620 2699 L
620 2796 L
620 2841 L
620 3057 L
620 3032 L
620 3030 L
620 2603 L
620 2938 L
620 2840 L
620 3053 L
620 2732 L
620 2855 L
620 2696 L
620 2935 L
620 2757 L
620 2751 L
620 2502 L
620 2986 L
620 2833 L
620 2736 L
620 2867 L
620 2855 L
620 3002 L
620 2746 L
620 2891 L
620 2707 L
620 2714 L
620 3369 L
620 2763 L
620 3198 L
620 2569 L
620 2909 L
620 2587 L
620 2885 L
620 2865 L
620 2659 L
620 2733 L
620 2967 L
620 3410 L
620 3006 L
620 2567 L
620 2964 L
620 3179 L
620 2940 L
620 2509 L
620 2916 L
620 3060 L
620 3231 L
620 2856 L
620 3187 L
620 2839 L
620 3054 L
620 3181 L
620 2904 L
620 3084 L
620 2837 L
620 2685 L
620 3147 L
620 2688 L
620 2715 L
620 2965 L
620 2906 L
620 2761 L
620 3049 L
620 2804 L
620 3007 L
620 3025 L
620 2820 L
620 2972 L
620 2925 L
620 2817 L
620 3343 L
620 3094 L
620 2724 L
620 3337 L
620 2815 L
620 2903 L
620 2947 L
620 2336 L
620 2935 L
620 2996 L
620 2895 L
620 3091 L
620 2921 L
620 2872 L
620 3120 L
620 3212 L
620 3169 L
620 3035 L
620 3165 L
620 2971 L
620 2859 L
620 3109 L
620 3212 L
620 2853 L
620 2966 L
620 2838 L
620 3185 L
620 2885 L
620 2974 L
620 3195 L
620 3103 L
620 3230 L
620 2922 L
620 2486 L
620 2884 L
620 2880 L
620 2912 L
620 3103 L
620 3109 L
620 3160 L
620 3238 L
620 3233 L
620 3133 L
620 2777 L
620 2677 L
620 2921 L
620 3072 L
620 2805 L
620 3231 L
620 2928 L
620 3397 L
620 2921 L
620 3257 L
620 3015 L
620 3076 L
620 3143 L
620 3374 L
620 2952 L
620 3155 L
620 3008 L
620 3017 L
620 3422 L
620 3707 L
620 2952 L
620 3071 L
620 3260 L
620 2983 L
620 2953 L
620 3061 L
620 3109 L
620 2642 L
620 3026 L
620 3419 L
620 3290 L
620 2766 L
620 2914 L
620 3479 L
620 3030 L
620 3209 L
620 3098 L
620 3178 L
620 3381 L
620 2789 L
620 3268 L
620 3273 L
620 3331 L
620 3356 L
620 2817 L
620 2830 L
620 3302 L
620 3186 L
620 3360 L
620 3027 L
620 3465 L
620 3132 L
620 3245 L
620 2978 L
620 3021 L
620 3480 L
620 3437 L
620 3261 L
620 3358 L
620 3423 L
620 3107 L
620 3380 L
620 3517 L
620 3483 L
620 3409 L
620 3175 L
620 3047 L
620 3090 L
620 3405 L
620 3039 L
620 3487 L
620 3091 L
620 3278 L
620 3135 L
620 3341 L
620 3464 L
620 3113 L
620 3061 L
620 3180 L
620 2963 L
620 3357 L
620 3333 L
620 2986 L
620 3199 L
620 3326 L
620 3148 L
620 3556 L
620 3384 L
620 3431 L
620 3291 L
620 2879 L
620 3025 L
620 3549 L
620 3448 L
620 3281 L
620 3242 L
620 3625 L
620 3094 L
620 3446 L
620 3227 L
620 3121 L
620 3298 L
620 2985 L
620 3203 L
620 3517 L
620 3488 L
620 2947 L
620 3136 L
620 3665 L
620 3382 L
620 3159 L
620 3565 L
620 3340 L
620 3530 L
620 3153 L
620 3804 L
620 3171 L
620 3279 L
620 3039 L
620 3222 L
620 3627 L
620 3163 L
620 2881 L
620 3701 L
620 3520 L
620 3672 L
620 3113 L
620 3459 L
620 3212 L
620 3764 L
620 3404 L
620 3636 L
620 3653 L
620 3269 L
620 3543 L
620 2943 L
620 3479 L
620 3575 L
620 3424 L
620 3138 L
620 3593 L
620 3209 L
620 3253 L
620 3356 L
620 3218 L
620 3328 L
620 3339 L
620 3235 L
620 3628 L
620 2954 L
620 3592 L
620 3464 L
620 3714 L
620 3411 L
620 3782 L
620 3102 L
620 2962 L
620 3173 L
620 3626 L
620 3506 L
620 3562 L
620 3100 L
620 3591 L
620 3621 L
620 3366 L
620 3440 L
620 3224 L
620 3809 L
620 3528 L
620 3573 L
620 3251 L
620 3549 L
620 3278 L
620 3441 L
620 3722 L
620 3539 L
620 3200 L
620 3228 L
620 3620 L
620 3344 L
620 3714 L
620 3468 L
620 3568 L
620 3288 L
620 3306 L
620 3697 L
620 3278 L
620 3420 L
620 3514 L
620 3496 L
620 4215 L
620 3554 L
620 3515 L
620 3869 L
620 3805 L
620 3347 L
620 3502 L
620 3580 L
620 3227 L
620 3457 L
620 3304 L
620 3440 L
620 3676 L
620 3904 L
620 3641 L
620 3464 L
620 3421 L
620 3455 L
620 3436 L
620 3698 L
620 3571 L
620 3529 L
620 3349 L
620 3140 L
620 3569 L
620 3646 L
620 3214 L
620 3391 L
620 3506 L
620 3216 L
620 3519 L
620 3416 L
620 3640 L
620 3903 L
620 3215 L
620 3396 L
620 3633 L
620 3379 L
620 3163 L
620 3762 L
620 3727 L
620 3439 L
620 4110 L
620 3353 L
620 3489 L
620 3696 L
620 4069 L
620 3982 L
620 3702 L
620 3604 L
620 3598 L
620 3718 L
620 3029 L
620 3805 L
620 3574 L
620 3421 L
620 3175 L
620 3218 L
620 3466 L
620 3912 L
620 3467 L
620 3841 L
620 3619 L
620 3391 L
620 3783 L
620 3322 L
620 3937 L
620 3773 L
620 3434 L
620 3568 L
620 3804 L
620 3577 L
620 3576 L
620 3945 L
620 3643 L
620 3634 L
620 3838 L
620 3602 L
620 3628 L
620 3825 L
620 3757 L
620 3283 L
620 3731 L
620 3750 L
620 3543 L
620 3392 L
620 3567 L
620 3474 L
620 3861 L
620 3965 L
620 3864 L
620 3908 L
620 3529 L
620 3865 L
620 3716 L
620 3874 L
620 3219 L
620 3651 L
620 3840 L
620 3982 L
620 3496 L
620 3460 L
620 3557 L
620 4110 L
620 3237 L
620 3787 L
620 4161 L
620 3427 L
620 3801 L
620 3313 L
620 3551 L
620 3790 L
620 3422 L
620 4028 L
620 3705 L
620 3809 L
620 3606 L
620 3666 L
620 3833 L
620 3711 L
620 3795 L
620 3614 L
620 3464 L
620 3871 L
620 3906 L
620 3814 L
620 3752 L
620 3711 L
620 3367 L
620 3698 L
620 4067 L
620 3652 L
620 3885 L
620 3624 L
620 3697 L
620 4172 L
620 3310 L
620 3435 L
620 3973 L
620 4057 L
620 3597 L
620 4070 L
620 3699 L
620 3316 L
620 3783 L
620 3914 L
620 3482 L
620 3668 L
620 3685 L
620 3707 L
620 3696 L
620 3647 L
620 3607 L
620 3734 L
620 3984 L
620 3754 L
620 4121 L
620 3847 L
620 3651 L
620 3866 L
620 3752 L
620 3752 L
620 3717 L
620 4039 L
620 4022 L
620 3615 L
620 3744 L
620 3519 L
620 3741 L
620 3399 L
620 3562 L
620 4343 L
620 4142 L
620 3885 L
620 4177 L
620 3844 L
620 3558 L
620 3930 L
620 3828 L
620 3607 L
620 4184 L
620 3891 L
620 4168 L
620 3845 L
620 3769 L
620 3671 L
620 3940 L
620 3768 L
620 3763 L
620 3378 L
620 3999 L
620 3531 L
620 3795 L
620 3817 L
620 4045 L
620 3703 L
620 3494 L
620 4040 L
620 4120 L
620 3886 L
620 3612 L
620 3839 L
620 3624 L
620 3622 L
620 4035 L
620 3978 L
620 3876 L
620 3659 L
620 3810 L
620 3968 L
620 3942 L
620 3932 L
620 3982 L
620 3627 L
620 3634 L
620 3798 L
620 4213 L
620 4357 L
620 3627 L
620 4348 L
620 3972 L
620 3603 L
620 3949 L
620 3893 L
620 4184 L
620 4408 L
620 3920 L
620 3982 L
620 3643 L
620 3878 L
620 3842 L
620 3751 L
620 4048 L
620 3952 L
620 4007 L
620 4044 L
620 4000 L
620 3680 L
620 3814 L
620 4106 L
620 3886 L
620 3934 L
620 4035 L
620 4032 L
620 3746 L
620 4024 L
620 4096 L
620 3434 L
620 3964 L
620 4012 L
620 3774 L
620 4034 L
620 4272 L
620 4240 L
620 3560 L
620 3658 L
620 3812 L
620 3840 L
620 4187 L
620 3963 L
620 3849 L
620 3823 L
620 4330 L
620 4022 L
620 3651 L
620 3942 L
620 4133 L
620 4226 L
620 4066 L
620 4339 L
620 3745 L
620 3760 L
620 3873 L
620 3818 L
620 3834 L
620 3626 L
620 4145 L
620 3760 L
620 3887 L
620 4219 L
620 3669 L
620 3965 L
620 3644 L
620 3640 L
620 3725 L
620 4025 L
620 4087 L
620 3927 L
620 4066 L
620 3966 L
620 3960 L
620 4269 L
620 3813 L
620 3952 L
620 4119 L
620 3488 L
620 3720 L
620 3944 L
620 3733 L
620 4315 L
620 4057 L
620 3785 L
620 4186 L
620 4071 L
620 3801 L
620 3912 L
620 3881 L
620 4036 L
620 3981 L
620 3954 L
620 3771 L
620 3834 L
620 3928 L
620 4133 L
620 4196 L
620 3904 L
620 4100 L
620 4132 L
620 3700 L
620 3618 L
620 4257 L
620 4311 L
620 3641 L
620 3746 L
620 4335 L
620 4102 L
620 4128 L
620 3716 L
620 4500 L
620 4220 L
620 3906 L
620 4210 L
620 4034 L
620 4431 L
620 4240 L
620 4050 L
620 4194 L
620 3889 L
620 3762 L
620 4081 L
620 3653 L
620 4045 L
620 3773 L
620 4075 L
620 3975 L
620 3803 L
620 4370 L
620 4391 L
620 4284 L
620 3992 L
620 4044 L
620 3892 L
620 4038 L
620 4051 L
620 3590 L
620 4097 L
620 3489 L
620 3849 L
620 4025 L
620 3629 L
620 4095 L
620 3686 L
620 4134 L
620 4140 L
620 3996 L
620 3925 L
620 4214 L
620 3924 L
620 4015 L
620 3997 L
620 4007 L
620 4094 L
620 4128 L
620 4429 L
620 4146 L
620 3924 L
620 3571 L
620 3917 L
620 3768 L
620 4560 L
620 3801 L
620 4251 L
620 3862 L
620 4041 L
620 3813 L
620 3962 L
620 4326 L
620 4176 L
620 4098 L
620 4188 L
620 4044 L
620 4253 L
620 3632 L
620 3926 L
620 4127 L
620 3911 L
620 4282 L
620 4453 L
620 4133 L
620 3487 L
620 4174 L
620 4167 L
620 4429 L
620 4167 L
620 3879 L
620 4029 L
620 4757 L
620 3772 L
620 4174 L
620 3717 L
620 4342 L
620 3596 L
620 4058 L
620 4051 L
620 4054 L
620 3813 L
620 4142 L
620 3440 L
620 4288 L
620 4051 L
620 4315 L
620 4020 L
620 4084 L
620 4180 L
620 4308 L
620 4126 L
620 4415 L
620 3755 L
620 3904 L
620 3832 L
620 4245 L
620 4051 L
620 4043 L
620 3933 L
620 4096 L
620 3867 L
620 3673 L
620 3877 L
620 4267 L
620 3933 L
620 3878 L
620 4201 L
620 3904 L
620 4183 L
620 3571 L
620 4393 L
620 3726 L
620 4190 L
620 4226 L
620 4317 L
620 3899 L
620 4553 L
620 4043 L
620 3983 L
620 4297 L
620 4252 L
620 4513 L
620 4241 L
620 4599 L
620 4462 L
620 4464 L
620 4142 L
620 4529 L
620 4150 L
620 4270 L
620 4431 L
620 4171 L
620 4456 L
620 4261 L
620 4328 L
620 4362 L
620 4319 L
620 4720 L
620 4725 L
620 4076 L
620 4527 L
620 4686 L
620 4312 L
620 4371 L
620 4458 L
620 4292 L
620 4434 L
620 4432 L
620 4705 L
620 4265 L
620 4120 L
620 4509 L
620 4090 L
620 4676 L
620 4302 L
620 4559 L
620 4639 L
620 4578 L
620 4853 L
620 4486 L
620 4783 L
620 4489 L
620 4459 L
620 4270 L
620 4225 L
620 4270 L
620 3938 L
620 4375 L
620 4688 L
620 4713 L
620 4146 L
620 4675 L
620 4524 L
620 4560 L
620 4328 L
620 4141 L
620 4696 L
620 4023 L
620 4661 L
620 4521 L
620 4604 L
620 4579 L
620 4126 L
620 4247 L
620 4617 L
620 4293 L
620 4509 L
620 4607 L
620 4348 L
620 4664 L
620 4446 L
620 4506 L
620 4262 L
620 4084 L
620 3696 L
620 4315 L
620 4403 L
620 4337 L
620 4197 L
620 3840 L
620 4023 L
620 4085 L
620 4678 L
620 4706 L
620 3993 L
620 4046 L
620 4278 L
620 4395 L
620 4312 L
620 4393 L
620 4324 L
620 4203 L
620 4341 L
620 4476 L
620 4337 L
620 4060 L
620 3660 L
620 4300 L
620 4137 L
620 4054 L
620 3973 L
620 4375 L
620 4232 L
620 3922 L
620 3562 L
620 4432 L
620 3423 L
620 4483 L
620 3931 L
620 4031 L
620 3881 L
620 4266 L
620 3977 L
620 3724 L
620 4122 L
620 4163 L
620 4073 L
620 4301 L
620 4026 L
620 4249 L
620 4346 L
620 3877 L
620 3958 L
620 4136 L
620 3913 L
620 4589 L
620 4077 L
620 4002 L
620 4275 L
620 4292 L
620 4335 L
620 3804 L
620 4076 L
620 3785 L
620 4219 L
620 4163 L
620 4132 L
620 4173 L
620 3952 L
620 4253 L
620 3704 L
620 4304 L
620 4115 L
620 4591 L
620 4122 L
620 3866 L
620 3937 L
620 3928 L
620 3760 L
620 3608 L
620 4092 L
620 4232 L
620 4036 L
620 3941 L
620 4069 L
620 3973 L
620 3766 L
620 3724 L
620 3731 L
620 3679 L
620 3929 L
620 3326 L
620 3725 L
620 4278 L
620 3996 L
620 3756 L
620 3607 L
620 3927 L
620 3402 L
620 4208 L
620 4362 L
620 3755 L
620 3732 L
620 4007 L
620 3742 L
620 3832 L
620 3541 L
620 3967 L
620 3853 L
620 4138 L
620 3977 L
620 3904 L
620 4144 L
620 4122 L
620 4058 L
620 3656 L
620 3495 L
620 4251 L
620 3697 L
620 3529 L
620 3659 L
620 4046 L
620 4109 L
620 3645 L
620 3849 L
620 3859 L
620 3759 L
620 3304 L
620 3656 L
620 3987 L
620 3677 L
620 3725 L
620 4010 L
620 3524 L
620 3533 L
620 3780 L
620 4079 L
620 3156 L
620 4046 L
620 3503 L
620 3352 L
620 3728 L
620 3636 L
620 3828 L
620 3414 L
620 3381 L
620 3366 L
620 3890 L
620 3410 L
620 3837 L
620 3301 L
620 3602 L
620 3476 L
620 3249 L
620 3581 L
620 3323 L
620 3719 L
620 3192 L
620 3259 L
620 3212 L
620 3461 L
620 3539 L
620 3001 L
620 3386 L
620 3397 L
620 3701 L
620 3576 L
620 3275 L
620 3856 L
620 3412 L
620 3215 L
620 2967 L
620 3567 L
620 3303 L
620 3074 L
620 3155 L
620 3783 L
620 3252 L
620 3368 L
620 3432 L
620 3496 L
620 3584 L
620 3485 L
620 3316 L
620 3200 L
620 3341 L
620 3469 L
620 3194 L
620 3663 L
620 3552 L
620 3215 L
620 3618 L
620 3668 L
620 3474 L
620 3130 L
620 3154 L
620 3149 L
620 3541 L
620 3069 L
620 3363 L
620 3560 L
620 3404 L
620 3365 L
620 3403 L
620 3038 L
620 3138 L
620 3605 L
620 3240 L
620 3119 L
620 3081 L
620 3337 L
620 3252 L
620 3385 L
620 3297 L
620 3338 L
620 3354 L
620 2952 L
620 3231 L
620 3009 L
620 3455 L
620 3286 L
620 3563 L
620 3429 L
620 3229 L
620 3101 L
620 3248 L
620 3355 L
620 3071 L
620 3256 L
620 3014 L
620 2914 L
620 2952 L
620 3363 L
620 3119 L
620 2692 L
620 3237 L
620 3529 L
620 3358 L
620 2932 L
620 3313 L
620 2772 L
620 2875 L
620 3323 L
620 3451 L
620 3085 L
620 3285 L
620 2662 L
620 3164 L
620 2865 L
620 2611 L
620 2713 L
620 2839 L
620 3057 L
620 3346 L
620 2737 L
620 2885 L
620 2583 L
620 2688 L
620 2887 L
620 2949 L
620 2830 L
620 3230 L
620 2740 L
620 2922 L
620 2605 L
620 2609 L
620 3107 L
620 3537 L
620 3032 L
620 2948 L
620 2493 L
620 2507 L
620 2939 L
620 2164 L
620 3053 L
620 2825 L
620 2861 L
620 2816 L
620 2621 L
620 2693 L
620 2807 L
620 2346 L
620 2508 L
620 2780 L
620 3280 L
L2 C05 COSGR

%
%================
% Legend - Begin
%================
%
GSN 4240 5180 M
4480 5180 L
LWMC SL  C05 COSGR
GSN 4540 5141 M helvM (2.5 uM) show grestore
%
%================
% Legend - End
%================
%

%
% Main frame
%
L10
GSN 
620 1700 M
4220 1700 L
4220 5300 L
620 5300 L
closepath SGR

%
% X axis: large tics
%
L10
%
% X axis: small tics
%
L5
%
% Y axis: large tics
%
L10
GSN 620 2530 M 54 0 rL SGR
GSN 4220 2530 M -54 0 rL SGR
helvS (-0.01) 560 2530 ylabel
GSN 620 3437 M 54 0 rL SGR
GSN 4220 3437 M -54 0 rL SGR
helvS (0) 560 3437 ylabel
GSN 620 4343 M 54 0 rL SGR
GSN 4220 4343 M -54 0 rL SGR
helvS (0.01) 560 4343 ylabel
GSN 620 5250 M 54 0 rL SGR
GSN 4220 5250 M -54 0 rL SGR
helvS (0.02) 560 5250 ylabel
%
% Y axis: small tics
%
L5
GSN 620 1850 M 36 0 rL SGR
GSN 4220 1850 M -36 0 rL SGR
GSN 620 2077 M 36 0 rL SGR
GSN 4220 2077 M -36 0 rL SGR
GSN 620 2303 M 36 0 rL SGR
GSN 4220 2303 M -36 0 rL SGR
GSN 620 2530 M 36 0 rL SGR
GSN 4220 2530 M -36 0 rL SGR
GSN 620 2757 M 36 0 rL SGR
GSN 4220 2757 M -36 0 rL SGR
GSN 620 2983 M 36 0 rL SGR
GSN 4220 2983 M -36 0 rL SGR
GSN 620 3210 M 36 0 rL SGR
GSN 4220 3210 M -36 0 rL SGR
GSN 620 3437 M 36 0 rL SGR
GSN 4220 3437 M -36 0 rL SGR
GSN 620 3663 M 36 0 rL SGR
GSN 4220 3663 M -36 0 rL SGR
GSN 620 3890 M 36 0 rL SGR
GSN 4220 3890 M -36 0 rL SGR
GSN 620 4117 M 36 0 rL SGR
GSN 4220 4117 M -36 0 rL SGR
GSN 620 4343 M 36 0 rL SGR
GSN 4220 4343 M -36 0 rL SGR
GSN 620 4570 M 36 0 rL SGR
GSN 4220 4570 M -36 0 rL SGR
GSN 620 4797 M 36 0 rL SGR
GSN 4220 4797 M -36 0 rL SGR
GSN 620 5024 M 36 0 rL SGR
GSN 4220 5024 M -36 0 rL SGR
GSN 620 5250 M 36 0 rL SGR
GSN 4220 5250 M -36 0 rL SGR

%
% X axis - residual panel
%
GSN L5 620 3437 M 4220 3437 L SDA G50 SGR

%
% X-Axis label:
%
gsave 620 1370 M 
[
[(Helvetica) 180 0 true true 0 (t)]
[(Helvetica) 180 0 true true 0 (i)]
[(Helvetica) 180 0 true true 0 (m)]
[(Helvetica) 180 0 true true 0 (e)]
] 0 MCshow grestore

%
% Y-Axis label:
%
gsave 234 3500 M 
currentpoint gsave translate 90 rotate 0 0 moveto
[
[(Helvetica) 180 0 true true 0 (r)]
[(Helvetica) 180 0 true true 0 (e)]
[(Helvetica) 180 0 true true 0 (s)]
[(Helvetica) 180 0 true true 0 (i)]
[(Helvetica) 180 0 true true 0 (d)]
[(Helvetica) 180 0 true true 0 (u)]
[(Helvetica) 180 0 true true 0 (a)]
[(Helvetica) 180 0 true true 0 (l)]
[(Helvetica) 180 0 true true 0 (s)]
] 0 MCshow grestore

end
showpage
%%Trailer
%%EOF
