%!PS-Adobe-3.0 EPSF-3.0
%%BoundingBox: 0 0 514 550
%%Creator: BioKin Ltd.
%%DocumentFonts: Symbol Helvetica
%%EndComments
%
/bkdict 256 dict def
bkdict begin
/M {moveto} def 
/R {rmoveto} def
/L {lineto} def
/rL {rlineto} def
/GSN {gsave newpath} def
/SGR {stroke grestore} def
/COSGR {gsave setrgbcolor stroke grestore grestore} def
/SL {setlinewidth} def
/LWMB {12} def             % line width - model curves, black & white
/LWMC {10} def             % line width - model curves, color
/L2 {2.5 setlinewidth} def
/L5 {5 setlinewidth} def
/L10 {10 setlinewidth} def
/G50 {0.5 setgray} def
/SDA {[10  20] 0 setdash} def % axes
/helvT {/Helvetica findfont 100 scalefont setfont} def % tiny
/helvS {/Helvetica findfont 125 scalefont setfont} def % small
/helvM {/Helvetica findfont 150 scalefont setfont} def % medium
/helvL {/Helvetica findfont 175 scalefont setfont} def % large
/xlabel {gsave M dup
   stringwidth exch -0.5 mul exch rmoveto show grestore} def 
/ylabel {gsave M 90 rotate dup
   stringwidth exch -0.5 mul exch rmoveto show grestore} def
/ylabelresid {gsave M dup
   stringwidth exch -1 mul exch rmoveto show grestore} def
% ======
% Shapes
% ======
% Circle:
/Circ {0 360 arc closepath} def
%
% Square:
/Squa {dup dup -0.5 mul dup dup R -2 mul 0 exch rL 1 mul 0 rL dup 0 exch -1 mul rL closepath} def
%
% Triangle Up:
/TriU {dup dup dup -0.4 mul exch -0.5 mul exch R dup 0.5 mul exch rL dup -1 mul exch 0.5 mul exch rL closepath} def 
%
% Triangle Down:
/TriD {dup dup dup 0.4 mul exch -0.5 mul exch R dup 0.5 mul exch -1 mul rL dup 0.5 mul exch rL closepath} def 
%
% Diamond:
/Diam {45 rotate Squa} def
% ======
% Fills
% ======
/GRF {gsave setgray fill grestore} def                    % gray-level Fill
/COF {gsave setrgbcolor fill grestore} def                % color fill
% ======
% Colors
% ======
/C01 {1.00	0.00	0.00} def      % Red
/C02 {0.00	0.00	1.00} def      % Blue
/C03 {0.00	0.39	0.00} def      % Dark Green
/C04 {0.78	0.08	0.52} def      % Medium Violet Red
/C05 {0.55	0.27	0.07} def      % Saddle Brown
/C06 {0.10	0.70	0.70} def      % (cyan)
/C07 {1.00	0.55	0.00} def      % Dark Orange
/C08 {0.63	0.13	0.94} def      % Purple
/C09 {0.00	0.75	1.00} def      % Deep Sky Blue
/C10 {0.20	0.80	0.20} def      % Lime Green
/C11 {0.47	0.53	0.60} def      % Light Slate Gray
/C12 {0.00	0.00	0.00} def      % Black            % or: {0.19	0.31	0.31} def      % Dark Slate Gray
%
/LGR {0.75} def % light gray
/DGR {0.33} def % dark gray
%
% =============
% Dash patterns
% =============
/dash01 { [80  20] 0 setdash } def
/dash02 { [40  20] 0 setdash } def
/dash03 { [80  20  10  20] 0 setdash } def
/dash04 { [40  20  10  20] 0 setdash } def
/dash05 { [80  20  10  10  10  20] 0 setdash } def
/dash06 { [40  20  10  10  10  20] 0 setdash } def
/dash07 { [10  10] 0 setdash } def
%
/MFshow {
   { dup 5 get 3 ge
     { 5 get 3 eq {gsave} {grestore} ifelse }
     {dup dup 0 get findfont exch 1 get scalefont setfont
     [ currentpoint ] exch dup 2 get 0 exch R dup 5 get 2 ne {dup dup 6
     get exch 4 get {show} {stringwidth pop 0 R} ifelse }if dup 5 get 0 eq
     {dup 3 get {2 get neg 0 exch R pop} {pop aload pop M} ifelse} {dup 5
     get 1 eq {dup 2 get exch dup 3 get exch 6 get stringwidth pop -2 div
     dup 0 R} {dup 6 get stringwidth pop -2 div 0 R 6 get
     show 2 index {aload pop M neg 3 -1 roll neg R pop pop} {pop pop pop
     pop aload pop M} ifelse }ifelse }ifelse }
     ifelse }
   forall} bind def
/MFwidth {0 exch {dup 3 get{dup dup 0 get findfont exch 1 get scalefont
     setfont 6 get stringwidth pop add} {pop} ifelse} forall} bind def
/MCshow { currentpoint stroke M
  exch dup MFwidth -2 div 3 -1 roll R MFshow } def
%
end
%%EndProlog
bkdict begin
0.1 0.1 scale
%
% Residuals:
%
GSN 620 4625 M
620 4089 L
620 4230 L
620 4730 L
620 4500 L
620 4326 L
620 4388 L
620 4406 L
620 4498 L
620 4392 L
620 4451 L
620 4038 L
620 4801 L
620 4193 L
620 4491 L
620 4626 L
620 4547 L
620 4657 L
620 4152 L
620 4400 L
620 4290 L
620 4077 L
620 4200 L
620 4374 L
620 4069 L
620 4491 L
620 4731 L
620 4428 L
620 4651 L
620 4331 L
620 4133 L
620 3666 L
620 3959 L
620 4025 L
620 4423 L
620 4422 L
620 4182 L
620 4219 L
620 4371 L
620 4360 L
620 4566 L
620 4863 L
620 3991 L
620 4193 L
620 3705 L
620 3941 L
620 3749 L
620 4191 L
620 4224 L
620 4123 L
620 4270 L
620 4406 L
620 3749 L
620 3112 L
620 3504 L
620 3900 L
620 4176 L
620 4493 L
620 3933 L
620 3730 L
620 3535 L
620 4163 L
620 3484 L
620 3723 L
620 4176 L
620 4055 L
620 3470 L
620 3852 L
620 3821 L
620 3592 L
620 3533 L
620 4056 L
620 3720 L
620 3882 L
620 3529 L
620 3866 L
620 3889 L
620 3825 L
620 3701 L
620 3717 L
620 3834 L
620 3492 L
620 3448 L
620 3601 L
620 3767 L
620 3679 L
620 3743 L
620 3791 L
620 3163 L
620 3295 L
620 3402 L
620 4019 L
620 3221 L
620 2728 L
620 3683 L
620 3112 L
620 3480 L
620 2916 L
620 3441 L
620 3280 L
620 3044 L
620 2823 L
620 3290 L
620 3072 L
620 2332 L
620 3008 L
620 3075 L
620 2393 L
620 3152 L
620 2845 L
620 3251 L
620 2612 L
620 3306 L
620 3288 L
620 3139 L
620 2896 L
620 2917 L
620 2977 L
620 2729 L
620 2833 L
620 2980 L
620 2942 L
620 2903 L
620 2476 L
620 2777 L
620 2707 L
620 2442 L
620 2661 L
620 3009 L
620 2499 L
620 2848 L
620 2523 L
620 2555 L
620 2453 L
620 2699 L
620 2628 L
620 2529 L
620 2557 L
620 2866 L
620 2458 L
620 2704 L
620 2407 L
620 2490 L
620 2574 L
620 2502 L
620 2448 L
620 2376 L
620 2436 L
620 2396 L
620 2642 L
620 2781 L
620 2471 L
620 2765 L
620 3165 L
620 2484 L
620 2385 L
620 2424 L
620 2904 L
620 2630 L
620 2619 L
620 3205 L
620 3066 L
620 2325 L
620 2833 L
620 2468 L
620 2793 L
620 2789 L
620 2758 L
620 2817 L
620 2813 L
620 3007 L
620 2484 L
620 3154 L
620 3126 L
620 2888 L
620 3336 L
620 2136 L
620 2603 L
620 3027 L
620 2623 L
620 2738 L
620 2765 L
620 2750 L
620 2904 L
620 2215 L
620 2948 L
620 3122 L
620 3851 L
620 2809 L
620 3625 L
620 2425 L
620 3225 L
620 3047 L
620 2457 L
620 3003 L
620 3114 L
620 3051 L
620 2607 L
620 3047 L
620 2746 L
620 2821 L
620 2853 L
620 3027 L
620 3114 L
620 2651 L
620 2758 L
620 2738 L
620 3289 L
620 3158 L
620 2655 L
620 3158 L
620 2968 L
620 3190 L
620 3515 L
620 3340 L
620 3261 L
620 3312 L
620 3325 L
620 3629 L
620 3075 L
620 3174 L
620 3570 L
620 3384 L
620 2960 L
620 3023 L
620 3423 L
620 2904 L
620 3475 L
620 2635 L
620 3015 L
620 3309 L
620 3574 L
620 3523 L
620 3277 L
620 3233 L
620 3036 L
620 3031 L
620 3166 L
620 3024 L
620 3321 L
620 2944 L
620 2909 L
620 2885 L
620 3190 L
620 3099 L
620 3091 L
620 3206 L
620 2917 L
620 3257 L
620 3558 L
620 3404 L
620 2889 L
620 3614 L
620 3776 L
620 3360 L
620 3055 L
620 2948 L
620 3214 L
620 3210 L
620 2917 L
620 2731 L
620 2992 L
620 2683 L
620 2897 L
620 3891 L
620 3590 L
620 3269 L
620 3329 L
620 3828 L
620 3740 L
620 3293 L
620 2762 L
620 2802 L
620 3697 L
620 3832 L
620 3321 L
620 3816 L
620 3551 L
620 2909 L
620 3325 L
620 2996 L
620 3194 L
620 3472 L
620 3369 L
620 3191 L
620 3690 L
620 3120 L
620 3615 L
620 3789 L
620 3584 L
620 3434 L
620 3723 L
620 3770 L
620 3660 L
620 3893 L
620 3989 L
620 3423 L
620 3609 L
620 3387 L
620 3776 L
620 3079 L
620 3356 L
620 3368 L
620 3431 L
620 3824 L
620 3400 L
620 3689 L
620 4078 L
620 3508 L
620 3567 L
620 3504 L
620 3777 L
620 3318 L
620 3421 L
620 3517 L
620 3536 L
620 3477 L
620 3505 L
620 3751 L
620 3149 L
620 4040 L
620 4151 L
620 3367 L
620 3756 L
620 2912 L
620 3518 L
620 4006 L
620 3261 L
620 3079 L
620 3400 L
620 3697 L
620 4078 L
620 3484 L
620 3096 L
620 3460 L
620 3524 L
620 3869 L
620 3374 L
620 3473 L
620 3342 L
620 3212 L
620 3762 L
620 3545 L
620 3279 L
620 3692 L
620 3431 L
620 3593 L
620 3926 L
620 3356 L
620 3193 L
620 3808 L
620 3689 L
620 3150 L
620 3167 L
620 3457 L
620 3109 L
620 3407 L
620 3538 L
620 3392 L
620 4134 L
620 3049 L
620 3679 L
620 3676 L
620 4045 L
620 3281 L
620 3421 L
620 3302 L
620 3612 L
620 3074 L
620 3412 L
620 3277 L
620 3334 L
620 3655 L
620 3101 L
620 3795 L
620 3903 L
620 3527 L
620 3254 L
620 3096 L
620 3747 L
620 3538 L
620 3728 L
620 3020 L
620 3425 L
620 3560 L
620 3418 L
620 3562 L
620 3328 L
620 3824 L
620 3385 L
620 3604 L
620 3466 L
620 3546 L
620 3558 L
620 3444 L
620 3480 L
620 3814 L
620 3181 L
620 3383 L
620 3630 L
620 3745 L
620 3219 L
620 3786 L
620 3533 L
620 3981 L
620 3071 L
620 3836 L
620 3627 L
620 3481 L
620 3296 L
620 3502 L
620 3543 L
620 3789 L
620 3754 L
620 3057 L
620 3208 L
620 3466 L
620 3273 L
620 3548 L
620 3805 L
620 3058 L
620 3205 L
620 3225 L
620 3701 L
620 2937 L
620 3374 L
620 3165 L
620 3427 L
620 3523 L
620 3662 L
620 3757 L
620 3596 L
620 3351 L
620 3677 L
620 3677 L
620 3662 L
620 3571 L
620 3421 L
620 2872 L
620 3300 L
620 4014 L
620 3840 L
620 3457 L
620 3628 L
620 3826 L
620 2948 L
620 3709 L
620 3666 L
620 3104 L
620 3560 L
620 2999 L
620 3435 L
620 3824 L
620 3936 L
620 3330 L
620 4044 L
620 3177 L
620 3574 L
620 3543 L
620 4003 L
620 3124 L
620 3885 L
620 3831 L
620 3582 L
620 3412 L
620 3500 L
620 3421 L
620 4012 L
620 3411 L
620 3629 L
620 3888 L
620 3488 L
620 3580 L
620 3478 L
620 4065 L
620 3475 L
620 3265 L
620 3884 L
620 3714 L
620 3814 L
620 3257 L
620 3768 L
620 3694 L
620 3944 L
620 4043 L
620 3850 L
620 3545 L
620 3741 L
620 3583 L
620 3750 L
620 4293 L
620 3664 L
620 3855 L
620 3471 L
620 3825 L
620 3528 L
620 3703 L
620 3688 L
620 3787 L
620 3364 L
620 3484 L
620 3180 L
620 3822 L
620 4286 L
620 2972 L
620 4042 L
620 3599 L
620 3469 L
620 3874 L
620 3973 L
620 3542 L
620 4077 L
620 3884 L
620 3473 L
620 3683 L
620 3641 L
620 3709 L
620 4034 L
620 3853 L
620 3596 L
620 4408 L
620 3617 L
620 3661 L
620 3931 L
620 3868 L
620 3239 L
620 3692 L
620 3110 L
620 3538 L
620 3773 L
620 3912 L
620 3497 L
620 3853 L
L2 C01 COSGR

%
%================
% Legend - Begin
%================
%
GSN 4240 5180 M
4480 5180 L
LWMC SL  C01 COSGR
GSN 4540 5141 M helvM (0.5 uM) show grestore
%
%================
% Legend - End
%================
%

%
% Main frame
%
L10
GSN 
620 1700 M
4220 1700 L
4220 5300 L
620 5300 L
closepath SGR

%
% X axis: large tics
%
L10
%
% X axis: small tics
%
L5
%
% Y axis: large tics
%
L10
GSN 620 1882 M 54 0 rL SGR
GSN 4220 1882 M -54 0 rL SGR
helvS (-0.02) 560 1882 ylabel
GSN 620 2660 M 54 0 rL SGR
GSN 4220 2660 M -54 0 rL SGR
helvS (-0.01) 560 2660 ylabel
GSN 620 3439 M 54 0 rL SGR
GSN 4220 3439 M -54 0 rL SGR
helvS (0) 560 3439 ylabel
GSN 620 4218 M 54 0 rL SGR
GSN 4220 4218 M -54 0 rL SGR
helvS (0.01) 560 4218 ylabel
GSN 620 4996 M 54 0 rL SGR
GSN 4220 4996 M -54 0 rL SGR
helvS (0.02) 560 4996 ylabel
%
% Y axis: small tics
%
L5
GSN 620 1882 M 36 0 rL SGR
GSN 4220 1882 M -36 0 rL SGR
GSN 620 2076 M 36 0 rL SGR
GSN 4220 2076 M -36 0 rL SGR
GSN 620 2271 M 36 0 rL SGR
GSN 4220 2271 M -36 0 rL SGR
GSN 620 2466 M 36 0 rL SGR
GSN 4220 2466 M -36 0 rL SGR
GSN 620 2660 M 36 0 rL SGR
GSN 4220 2660 M -36 0 rL SGR
GSN 620 2855 M 36 0 rL SGR
GSN 4220 2855 M -36 0 rL SGR
GSN 620 3050 M 36 0 rL SGR
GSN 4220 3050 M -36 0 rL SGR
GSN 620 3244 M 36 0 rL SGR
GSN 4220 3244 M -36 0 rL SGR
GSN 620 3439 M 36 0 rL SGR
GSN 4220 3439 M -36 0 rL SGR
GSN 620 3634 M 36 0 rL SGR
GSN 4220 3634 M -36 0 rL SGR
GSN 620 3828 M 36 0 rL SGR
GSN 4220 3828 M -36 0 rL SGR
GSN 620 4023 M 36 0 rL SGR
GSN 4220 4023 M -36 0 rL SGR
GSN 620 4218 M 36 0 rL SGR
GSN 4220 4218 M -36 0 rL SGR
GSN 620 4412 M 36 0 rL SGR
GSN 4220 4412 M -36 0 rL SGR
GSN 620 4607 M 36 0 rL SGR
GSN 4220 4607 M -36 0 rL SGR
GSN 620 4802 M 36 0 rL SGR
GSN 4220 4802 M -36 0 rL SGR
GSN 620 4996 M 36 0 rL SGR
GSN 4220 4996 M -36 0 rL SGR
GSN 620 5191 M 36 0 rL SGR
GSN 4220 5191 M -36 0 rL SGR

%
% X axis - residual panel
%
GSN L5 620 3439 M 4220 3439 L SDA G50 SGR

%
% X-Axis label:
%
gsave 620 1370 M 
[
[(Helvetica) 180 0 true true 0 (t)]
[(Helvetica) 180 0 true true 0 (i)]
[(Helvetica) 180 0 true true 0 (m)]
[(Helvetica) 180 0 true true 0 (e)]
] 0 MCshow grestore

%
% Y-Axis label:
%
gsave 234 3500 M 
currentpoint gsave translate 90 rotate 0 0 moveto
[
[(Helvetica) 180 0 true true 0 (r)]
[(Helvetica) 180 0 true true 0 (e)]
[(Helvetica) 180 0 true true 0 (s)]
[(Helvetica) 180 0 true true 0 (i)]
[(Helvetica) 180 0 true true 0 (d)]
[(Helvetica) 180 0 true true 0 (u)]
[(Helvetica) 180 0 true true 0 (a)]
[(Helvetica) 180 0 true true 0 (l)]
[(Helvetica) 180 0 true true 0 (s)]
] 0 MCshow grestore

end
showpage
%%Trailer
%%EOF
