%!PS-Adobe-3.0 EPSF-3.0
%%BoundingBox: 0 0 514 550
%%Creator: BioKin Ltd.
%%DocumentFonts: Symbol Helvetica
%%EndComments
%
/bkdict 256 dict def
bkdict begin
/M {moveto} def 
/R {rmoveto} def
/L {lineto} def
/rL {rlineto} def
/GSN {gsave newpath} def
/SGR {stroke grestore} def
/COSGR {gsave setrgbcolor stroke grestore grestore} def
/SL {setlinewidth} def
/LWMB {12} def             % line width - model curves, black & white
/LWMC {10} def             % line width - model curves, color
/L2 {2.5 setlinewidth} def
/L5 {5 setlinewidth} def
/L10 {10 setlinewidth} def
/G50 {0.5 setgray} def
/SDA {[10  20] 0 setdash} def % axes
/helvT {/Helvetica findfont 100 scalefont setfont} def % tiny
/helvS {/Helvetica findfont 125 scalefont setfont} def % small
/helvM {/Helvetica findfont 150 scalefont setfont} def % medium
/helvL {/Helvetica findfont 175 scalefont setfont} def % large
/xlabel {gsave M dup
   stringwidth exch -0.5 mul exch rmoveto show grestore} def 
/ylabel {gsave M 90 rotate dup
   stringwidth exch -0.5 mul exch rmoveto show grestore} def
/ylabelresid {gsave M dup
   stringwidth exch -1 mul exch rmoveto show grestore} def
% ======
% Shapes
% ======
% Circle:
/Circ {0 360 arc closepath} def
%
% Square:
/Squa {dup dup -0.5 mul dup dup R -2 mul 0 exch rL 1 mul 0 rL dup 0 exch -1 mul rL closepath} def
%
% Triangle Up:
/TriU {dup dup dup -0.4 mul exch -0.5 mul exch R dup 0.5 mul exch rL dup -1 mul exch 0.5 mul exch rL closepath} def 
%
% Triangle Down:
/TriD {dup dup dup 0.4 mul exch -0.5 mul exch R dup 0.5 mul exch -1 mul rL dup 0.5 mul exch rL closepath} def 
%
% Diamond:
/Diam {45 rotate Squa} def
% ======
% Fills
% ======
/GRF {gsave setgray fill grestore} def                    % gray-level Fill
/COF {gsave setrgbcolor fill grestore} def                % color fill
% ======
% Colors
% ======
/C01 {1.00	0.00	0.00} def      % Red
/C02 {0.00	0.00	1.00} def      % Blue
/C03 {0.00	0.39	0.00} def      % Dark Green
/C04 {0.78	0.08	0.52} def      % Medium Violet Red
/C05 {0.55	0.27	0.07} def      % Saddle Brown
/C06 {0.10	0.70	0.70} def      % (cyan)
/C07 {1.00	0.55	0.00} def      % Dark Orange
/C08 {0.63	0.13	0.94} def      % Purple
/C09 {0.00	0.75	1.00} def      % Deep Sky Blue
/C10 {0.20	0.80	0.20} def      % Lime Green
/C11 {0.47	0.53	0.60} def      % Light Slate Gray
/C12 {0.00	0.00	0.00} def      % Black            % or: {0.19	0.31	0.31} def      % Dark Slate Gray
%
/LGR {0.75} def % light gray
/DGR {0.33} def % dark gray
%
% =============
% Dash patterns
% =============
/dash01 { [80  20] 0 setdash } def
/dash02 { [40  20] 0 setdash } def
/dash03 { [80  20  10  20] 0 setdash } def
/dash04 { [40  20  10  20] 0 setdash } def
/dash05 { [80  20  10  10  10  20] 0 setdash } def
/dash06 { [40  20  10  10  10  20] 0 setdash } def
/dash07 { [10  10] 0 setdash } def
%
/MFshow {
   { dup 5 get 3 ge
     { 5 get 3 eq {gsave} {grestore} ifelse }
     {dup dup 0 get findfont exch 1 get scalefont setfont
     [ currentpoint ] exch dup 2 get 0 exch R dup 5 get 2 ne {dup dup 6
     get exch 4 get {show} {stringwidth pop 0 R} ifelse }if dup 5 get 0 eq
     {dup 3 get {2 get neg 0 exch R pop} {pop aload pop M} ifelse} {dup 5
     get 1 eq {dup 2 get exch dup 3 get exch 6 get stringwidth pop -2 div
     dup 0 R} {dup 6 get stringwidth pop -2 div 0 R 6 get
     show 2 index {aload pop M neg 3 -1 roll neg R pop pop} {pop pop pop
     pop aload pop M} ifelse }ifelse }ifelse }
     ifelse }
   forall} bind def
/MFwidth {0 exch {dup 3 get{dup dup 0 get findfont exch 1 get scalefont
     setfont 6 get stringwidth pop add} {pop} ifelse} forall} bind def
/MCshow { currentpoint stroke M
  exch dup MFwidth -2 div 3 -1 roll R MFshow } def
%
end
%%EndProlog
bkdict begin
0.1 0.1 scale
%
% Residuals:
%
GSN 620 4863 M
620 4645 L
620 4488 L
620 4669 L
620 4463 L
620 4654 L
620 4392 L
620 4394 L
620 4394 L
620 4227 L
620 4217 L
620 4222 L
620 4004 L
620 4015 L
620 4030 L
620 4020 L
620 4145 L
620 3977 L
620 4021 L
620 3945 L
620 3942 L
620 3915 L
620 3929 L
620 3744 L
620 3864 L
620 3912 L
620 3644 L
620 3799 L
620 3599 L
620 3730 L
620 3627 L
620 3576 L
620 3620 L
620 3661 L
620 3615 L
620 3542 L
620 3628 L
620 3758 L
620 3448 L
620 3557 L
620 3555 L
620 3531 L
620 3509 L
620 3294 L
620 3570 L
620 3556 L
620 3343 L
620 3420 L
620 3240 L
620 3318 L
620 3350 L
620 3448 L
620 3475 L
620 3297 L
620 3240 L
620 3418 L
620 3148 L
620 3241 L
620 3241 L
620 3078 L
620 3073 L
620 3187 L
620 3238 L
620 3180 L
620 3095 L
620 3066 L
620 2958 L
620 3099 L
620 3071 L
620 3024 L
620 3107 L
620 3194 L
620 3035 L
620 3008 L
620 3028 L
620 3101 L
620 2967 L
620 2901 L
620 3165 L
620 2896 L
620 3110 L
620 2673 L
620 2986 L
620 2731 L
620 2701 L
620 2773 L
620 2644 L
620 2611 L
620 2707 L
620 2680 L
620 2613 L
620 2581 L
620 2473 L
620 2513 L
620 2534 L
620 2715 L
620 2476 L
620 2520 L
620 2544 L
620 2519 L
620 2232 L
620 2339 L
620 2457 L
620 2432 L
620 2426 L
620 2302 L
620 2398 L
620 2515 L
620 2369 L
620 2375 L
620 2310 L
620 2234 L
620 2450 L
620 2341 L
620 2304 L
620 2335 L
620 2394 L
620 2201 L
620 2284 L
620 2388 L
620 2286 L
620 2309 L
620 2270 L
620 2303 L
620 2290 L
620 2305 L
620 2327 L
620 2328 L
620 2371 L
620 2197 L
620 2325 L
620 2427 L
620 2308 L
620 2337 L
620 2317 L
620 2378 L
620 2322 L
620 2296 L
620 2280 L
620 2318 L
620 2359 L
620 2354 L
620 2339 L
620 2379 L
620 2375 L
620 2455 L
620 2491 L
620 2136 L
620 2209 L
620 2314 L
620 2487 L
620 2438 L
620 2317 L
620 2397 L
620 2401 L
620 2390 L
620 2365 L
620 2458 L
620 2348 L
620 2399 L
620 2289 L
620 2394 L
620 2496 L
620 2332 L
620 2468 L
620 2415 L
620 2406 L
620 2394 L
620 2560 L
620 2411 L
620 2550 L
620 2487 L
620 2506 L
620 2564 L
620 2424 L
620 2424 L
620 2551 L
620 2517 L
620 2431 L
620 2459 L
620 2468 L
620 2536 L
620 2636 L
620 2503 L
620 2580 L
620 2484 L
620 2598 L
620 2599 L
620 2450 L
620 2517 L
620 2541 L
620 2621 L
620 2429 L
620 2512 L
620 2585 L
620 2577 L
620 2467 L
620 2510 L
620 2491 L
620 2601 L
620 2544 L
620 2613 L
620 2423 L
620 2738 L
620 2556 L
620 2571 L
620 2612 L
620 2545 L
620 2604 L
620 2660 L
620 2586 L
620 2568 L
620 2650 L
620 2475 L
620 2575 L
620 2644 L
620 2725 L
620 2686 L
620 2663 L
620 2661 L
620 2665 L
620 2646 L
620 2771 L
620 2744 L
620 2753 L
620 2538 L
620 2659 L
620 2846 L
620 2733 L
620 2750 L
620 2669 L
620 2750 L
620 2720 L
620 2620 L
620 2746 L
620 2678 L
620 2871 L
620 2860 L
620 2645 L
620 2822 L
620 2706 L
620 2761 L
620 2709 L
620 2853 L
620 2706 L
620 2644 L
620 2595 L
620 2838 L
620 2668 L
620 2671 L
620 2654 L
620 2669 L
620 2737 L
620 2808 L
620 2840 L
620 2720 L
620 2725 L
620 2732 L
620 2823 L
620 2651 L
620 2678 L
620 2960 L
620 2841 L
620 2837 L
620 2885 L
620 2826 L
620 2818 L
620 2771 L
620 2678 L
620 2814 L
620 2910 L
620 2759 L
620 2577 L
620 2836 L
620 2787 L
620 2805 L
620 2899 L
620 2741 L
620 2844 L
620 2851 L
620 2944 L
620 2954 L
620 2967 L
620 2983 L
620 3099 L
620 2872 L
620 3038 L
620 3195 L
620 3068 L
620 3125 L
620 2968 L
620 3111 L
620 3120 L
620 3108 L
620 3136 L
620 3129 L
620 2935 L
620 3158 L
620 3111 L
620 3074 L
620 3095 L
620 3175 L
620 3089 L
620 3050 L
620 3224 L
620 2957 L
620 3235 L
620 3112 L
620 3113 L
620 3070 L
620 3084 L
620 3147 L
620 3061 L
620 3043 L
620 3054 L
620 3135 L
620 3105 L
620 3025 L
620 3085 L
620 3081 L
620 2986 L
620 3021 L
620 3084 L
620 3149 L
620 3088 L
620 3089 L
620 3013 L
620 3032 L
620 3000 L
620 3078 L
620 3169 L
620 3040 L
620 3221 L
620 3205 L
620 3038 L
620 3148 L
620 3108 L
620 3022 L
620 3082 L
620 3361 L
620 3082 L
620 3160 L
620 3005 L
620 2969 L
620 3045 L
620 3007 L
620 3080 L
620 3162 L
620 3023 L
620 3094 L
620 2995 L
620 2967 L
620 2977 L
620 2853 L
620 3176 L
620 2926 L
620 3048 L
620 3004 L
620 3121 L
620 3033 L
620 3019 L
620 3085 L
620 3127 L
620 3066 L
620 2896 L
620 3079 L
620 3076 L
620 2967 L
620 2913 L
620 3010 L
620 2921 L
620 3170 L
620 3023 L
620 3033 L
620 2952 L
620 3046 L
620 2915 L
620 3065 L
620 3073 L
620 2887 L
620 2774 L
620 3020 L
620 3109 L
620 2934 L
620 2878 L
620 2968 L
620 2924 L
620 3006 L
620 2838 L
620 3007 L
620 3029 L
620 3041 L
620 2936 L
620 2974 L
620 3090 L
620 2863 L
620 2821 L
620 3063 L
620 2852 L
620 2984 L
620 2755 L
620 2912 L
620 2818 L
620 2978 L
620 3161 L
620 2935 L
620 2871 L
620 2973 L
620 2706 L
620 2896 L
620 2963 L
620 3015 L
620 2848 L
620 3032 L
620 2856 L
620 2971 L
620 2960 L
620 2978 L
620 3042 L
620 2802 L
620 2999 L
620 2825 L
620 2892 L
620 2919 L
620 3006 L
620 2929 L
620 2876 L
620 2991 L
620 2836 L
620 2899 L
620 2933 L
620 2985 L
620 2937 L
620 3066 L
620 2945 L
620 3110 L
620 2884 L
620 3035 L
620 2979 L
620 2960 L
620 2956 L
620 2964 L
620 2950 L
620 2886 L
620 2900 L
620 3171 L
620 2951 L
620 2859 L
620 2989 L
620 2946 L
620 3124 L
620 2899 L
620 3093 L
620 3102 L
620 2905 L
620 3053 L
620 2941 L
620 3022 L
620 3035 L
620 3069 L
620 2794 L
620 3090 L
620 2844 L
620 2936 L
620 2920 L
620 3025 L
620 3036 L
620 2737 L
620 2873 L
620 2880 L
620 2986 L
620 3089 L
620 2884 L
620 2917 L
620 2683 L
620 2994 L
620 2880 L
620 3012 L
620 2693 L
620 2931 L
620 3086 L
620 2800 L
620 2824 L
620 2864 L
620 2838 L
620 2932 L
620 2952 L
620 2986 L
620 2962 L
620 2917 L
620 2920 L
620 2815 L
620 2987 L
620 2980 L
620 2672 L
620 2947 L
620 2871 L
620 2968 L
620 2901 L
620 2938 L
620 3031 L
620 2952 L
620 2848 L
620 2795 L
620 2940 L
620 2967 L
620 2813 L
620 2794 L
620 2956 L
620 3000 L
620 2823 L
620 2986 L
620 2927 L
620 2799 L
620 2942 L
620 2948 L
620 3215 L
620 2905 L
620 2895 L
620 3010 L
620 2869 L
620 2956 L
620 3046 L
620 2970 L
620 2969 L
620 2855 L
620 2953 L
620 2992 L
620 2953 L
620 2876 L
620 2859 L
620 2922 L
620 2891 L
L2 C04 COSGR

%
%================
% Legend - Begin
%================
%
GSN 4240 5180 M
4480 5180 L
LWMC SL  C04 COSGR
GSN 4540 5141 M helvM (2.0 uM) show grestore
%
%================
% Legend - End
%================
%

%
% Main frame
%
L10
GSN 
620 1700 M
4220 1700 L
4220 5300 L
620 5300 L
closepath SGR

%
% X axis: large tics
%
L10
%
% X axis: small tics
%
L5
%
% Y axis: large tics
%
L10
GSN 620 2086 M 54 0 rL SGR
GSN 4220 2086 M -54 0 rL SGR
helvS (-0.025) 560 2086 ylabel
GSN 620 2917 M 54 0 rL SGR
GSN 4220 2917 M -54 0 rL SGR
helvS (0) 560 2917 ylabel
GSN 620 3749 M 54 0 rL SGR
GSN 4220 3749 M -54 0 rL SGR
helvS (0.025) 560 3749 ylabel
GSN 620 4580 M 54 0 rL SGR
GSN 4220 4580 M -54 0 rL SGR
helvS (0.05) 560 4580 ylabel
%
% Y axis: small tics
%
L5
GSN 620 1920 M 36 0 rL SGR
GSN 4220 1920 M -36 0 rL SGR
GSN 620 2335 M 36 0 rL SGR
GSN 4220 2335 M -36 0 rL SGR
GSN 620 2751 M 36 0 rL SGR
GSN 4220 2751 M -36 0 rL SGR
GSN 620 3167 M 36 0 rL SGR
GSN 4220 3167 M -36 0 rL SGR
GSN 620 3582 M 36 0 rL SGR
GSN 4220 3582 M -36 0 rL SGR
GSN 620 3998 M 36 0 rL SGR
GSN 4220 3998 M -36 0 rL SGR
GSN 620 4414 M 36 0 rL SGR
GSN 4220 4414 M -36 0 rL SGR
GSN 620 4830 M 36 0 rL SGR
GSN 4220 4830 M -36 0 rL SGR
GSN 620 5245 M 36 0 rL SGR
GSN 4220 5245 M -36 0 rL SGR

%
% X axis - residual panel
%
GSN L5 620 2917 M 4220 2917 L SDA G50 SGR

%
% X-Axis label:
%
gsave 620 1370 M 
[
[(Helvetica) 180 0 true true 0 (t)]
[(Helvetica) 180 0 true true 0 (i)]
[(Helvetica) 180 0 true true 0 (m)]
[(Helvetica) 180 0 true true 0 (e)]
] 0 MCshow grestore

%
% Y-Axis label:
%
gsave 234 3499 M 
currentpoint gsave translate 90 rotate 0 0 moveto
[
[(Helvetica) 180 0 true true 0 (r)]
[(Helvetica) 180 0 true true 0 (e)]
[(Helvetica) 180 0 true true 0 (s)]
[(Helvetica) 180 0 true true 0 (i)]
[(Helvetica) 180 0 true true 0 (d)]
[(Helvetica) 180 0 true true 0 (u)]
[(Helvetica) 180 0 true true 0 (a)]
[(Helvetica) 180 0 true true 0 (l)]
[(Helvetica) 180 0 true true 0 (s)]
] 0 MCshow grestore

end
showpage
%%Trailer
%%EOF
