%!PS-Adobe-3.0 EPSF-3.0
%%BoundingBox: 0 0 514 442
%%Creator: BioKin Ltd.
%%DocumentFonts: Symbol Helvetica
%%EndComments
%
/bkdict 256 dict def
bkdict begin
/M {moveto} def 
/R {rmoveto} def
/L {lineto} def
/rL {rlineto} def
/GSN {gsave newpath} def
/SGR {stroke grestore} def
/COSGR {gsave setrgbcolor stroke grestore grestore} def
/SL {setlinewidth} def
/LWMB {12} def             % line width - model curves, black & white
/LWMC {10} def             % line width - model curves, color
/L2 {2.5 setlinewidth} def
/L5 {5 setlinewidth} def
/L10 {10 setlinewidth} def
/G50 {0.5 setgray} def
/SDA {[10  20] 0 setdash} def % axes
/helvT {/Helvetica findfont 100 scalefont setfont} def % tiny
/helvS {/Helvetica findfont 125 scalefont setfont} def % small
/helvM {/Helvetica findfont 150 scalefont setfont} def % medium
/helvL {/Helvetica findfont 175 scalefont setfont} def % large
/xlabel {gsave M dup
   stringwidth exch -0.5 mul exch rmoveto show grestore} def 
/ylabel {gsave M 90 rotate dup
   stringwidth exch -0.5 mul exch rmoveto show grestore} def
/ylabelresid {gsave M dup
   stringwidth exch -1 mul exch rmoveto show grestore} def
% ======
% Shapes
% ======
% Circle:
/Circ {0 360 arc closepath} def
%
% Square:
/Squa {dup dup -0.5 mul dup dup R -2 mul 0 exch rL 1 mul 0 rL dup 0 exch -1 mul rL closepath} def
%
% Triangle Up:
/TriU {dup dup dup -0.4 mul exch -0.5 mul exch R dup 0.5 mul exch rL dup -1 mul exch 0.5 mul exch rL closepath} def 
%
% Triangle Down:
/TriD {dup dup dup 0.4 mul exch -0.5 mul exch R dup 0.5 mul exch -1 mul rL dup 0.5 mul exch rL closepath} def 
%
% Diamond:
/Diam {45 rotate Squa} def
% ======
% Fills
% ======
/GRF {gsave setgray fill grestore} def                    % gray-level Fill
/COF {gsave setrgbcolor fill grestore} def                % color fill
% ======
% Colors
% ======
/C01 {1.00	0.00	0.00} def      % Red
/C02 {0.00	0.00	1.00} def      % Blue
/C03 {0.00	0.39	0.00} def      % Dark Green
/C04 {0.78	0.08	0.52} def      % Medium Violet Red
/C05 {0.55	0.27	0.07} def      % Saddle Brown
/C06 {0.10	0.70	0.70} def      % (cyan)
/C07 {1.00	0.55	0.00} def      % Dark Orange
/C08 {0.63	0.13	0.94} def      % Purple
/C09 {0.00	0.75	1.00} def      % Deep Sky Blue
/C10 {0.20	0.80	0.20} def      % Lime Green
/C11 {0.47	0.53	0.60} def      % Light Slate Gray
/C12 {0.00	0.00	0.00} def      % Black            % or: {0.19	0.31	0.31} def      % Dark Slate Gray
%
/LGR {0.75} def % light gray
/DGR {0.33} def % dark gray
%
% =============
% Dash patterns
% =============
/dash01 { [80  20] 0 setdash } def
/dash02 { [40  20] 0 setdash } def
/dash03 { [80  20  10  20] 0 setdash } def
/dash04 { [40  20  10  20] 0 setdash } def
/dash05 { [80  20  10  10  10  20] 0 setdash } def
/dash06 { [40  20  10  10  10  20] 0 setdash } def
/dash07 { [10  10] 0 setdash } def
%
/MFshow {
   { dup 5 get 3 ge
     { 5 get 3 eq {gsave} {grestore} ifelse }
     {dup dup 0 get findfont exch 1 get scalefont setfont
     [ currentpoint ] exch dup 2 get 0 exch R dup 5 get 2 ne {dup dup 6
     get exch 4 get {show} {stringwidth pop 0 R} ifelse }if dup 5 get 0 eq
     {dup 3 get {2 get neg 0 exch R pop} {pop aload pop M} ifelse} {dup 5
     get 1 eq {dup 2 get exch dup 3 get exch 6 get stringwidth pop -2 div
     dup 0 R} {dup 6 get stringwidth pop -2 div 0 R 6 get
     show 2 index {aload pop M neg 3 -1 roll neg R pop pop} {pop pop pop
     pop aload pop M} ifelse }ifelse }ifelse }
     ifelse }
   forall} bind def
/MFwidth {0 exch {dup 3 get{dup dup 0 get findfont exch 1 get scalefont
     setfont 6 get stringwidth pop add} {pop} ifelse} forall} bind def
/MCshow { currentpoint stroke M
  exch dup MFwidth -2 div 3 -1 roll R MFshow } def
%
end
%%EndProlog
bkdict begin
0.1 0.1 scale
%
% Model curves:
%

GSN 753 3664 M
770 3664 L
803 3666 L
837 3669 L
870 3672 L
895 3675 L
911 3677 L
937 3680 L
970 3684 L
1003 3690 L
1037 3696 L
1053 3703 L
1070 3703 L
1103 3711 L
1137 3720 L
1170 3730 L
1195 3742 L
1211 3749 L
1237 3755 L
1270 3770 L
1303 3786 L
1337 3804 L
1353 3824 L
1370 3824 L
1403 3845 L
1437 3867 L
1470 3890 L
1495 3913 L
1512 3926 L
1537 3937 L
1570 3960 L
1603 3982 L
1637 4002 L
1653 4020 L
1670 4020 L
1703 4034 L
1737 4046 L
1770 4055 L
1795 4061 L
1812 4063 L
1837 4065 L
1870 4067 L
1903 4068 L
1937 4069 L
1953 4069 L
1971 4069 L
2003 4069 L
2037 4069 L
2070 4069 L
2095 4069 L
2112 4069 L
2137 4069 L
2170 4069 L
2203 4069 L
2237 4069 L
2253 4069 L
2271 4069 L
2303 4069 L
2337 4069 L
2370 4069 L
2395 4069 L
2412 4069 L
2437 4069 L
2470 4069 L
2503 4069 L
2537 4069 L
2553 4069 L
2571 4069 L
2603 4069 L
2637 4069 L
2670 4069 L
2695 4069 L
2712 4069 L
2737 4069 L
2770 4069 L
2803 4069 L
2837 4069 L
2854 4069 L
2871 4069 L
2903 4069 L
2937 4069 L
2970 4069 L
2995 4069 L
3012 4069 L
3037 4069 L
3061 4069 L
3077 4069 L
3103 4069 L
3137 4069 L
3154 4069 L
3171 4069 L
3203 4069 L
3237 4069 L
3270 4069 L
3296 4069 L
3312 4069 L
3337 4069 L
3370 4069 L
3403 4069 L
3437 4069 L
3454 4069 L
3471 4069 L
3503 4069 L
3537 4070 L
3570 4070 L
3596 4070 L
3612 4070 L
3637 4070 L
3670 4070 L
3703 4070 L
3737 4070 L
3754 4070 L
3771 4070 L
3803 4071 L
3837 4071 L
3870 4071 L
3896 4071 L
3912 4072 L
3937 4072 L
3970 4072 L
4003 4073 L
4037 4073 L
4070 4074 L
LWMC SL dash01 C01 COSGR

GSN 753 2866 M
770 2866 L
803 2873 L
837 2880 L
870 2889 L
895 2899 L
911 2905 L
937 2911 L
970 2924 L
1003 2940 L
1037 2957 L
1053 2978 L
1070 2978 L
1103 3001 L
1137 3028 L
1170 3058 L
1195 3092 L
1211 3111 L
1237 3130 L
1270 3172 L
1303 3219 L
1337 3271 L
1353 3327 L
1370 3328 L
1403 3388 L
1437 3452 L
1470 3518 L
1495 3586 L
1512 3622 L
1537 3655 L
1570 3721 L
1603 3785 L
1637 3843 L
1653 3894 L
1670 3894 L
1703 3936 L
1737 3970 L
1770 3996 L
1795 4013 L
1812 4020 L
1837 4025 L
1870 4031 L
1903 4034 L
1937 4036 L
1953 4036 L
1971 4036 L
2003 4037 L
2037 4037 L
2070 4037 L
2095 4037 L
2112 4037 L
2137 4037 L
2170 4037 L
2203 4037 L
2237 4037 L
2253 4037 L
2271 4037 L
2303 4037 L
2337 4037 L
2370 4037 L
2395 4037 L
2412 4037 L
2437 4037 L
2470 4037 L
2503 4037 L
2537 4037 L
2553 4037 L
2571 4037 L
2603 4037 L
2637 4037 L
2670 4037 L
2695 4037 L
2712 4037 L
2737 4037 L
2770 4037 L
2803 4037 L
2837 4037 L
2854 4037 L
2871 4037 L
2903 4037 L
2937 4037 L
2970 4037 L
2995 4037 L
3012 4037 L
3037 4037 L
3061 4037 L
3077 4037 L
3103 4037 L
3137 4037 L
3154 4037 L
3171 4037 L
3203 4037 L
3237 4037 L
3270 4037 L
3296 4037 L
3312 4037 L
3337 4038 L
3370 4038 L
3403 4038 L
3437 4038 L
3454 4038 L
3471 4038 L
3503 4038 L
3537 4039 L
3570 4039 L
3596 4039 L
3612 4040 L
3637 4040 L
3670 4040 L
3703 4041 L
3737 4042 L
3754 4042 L
3771 4043 L
3803 4043 L
3837 4044 L
3870 4045 L
3896 4047 L
3912 4047 L
3937 4048 L
3970 4050 L
4003 4051 L
4037 4053 L
4070 4055 L
LWMC SL dash02 C02 COSGR

GSN 753 2256 M
770 2256 L
803 2266 L
837 2277 L
870 2290 L
895 2305 L
911 2314 L
937 2323 L
970 2343 L
1003 2366 L
1037 2393 L
1053 2424 L
1070 2424 L
1103 2458 L
1137 2498 L
1170 2543 L
1195 2594 L
1211 2623 L
1237 2652 L
1270 2715 L
1303 2786 L
1337 2864 L
1353 2948 L
1370 2949 L
1403 3038 L
1437 3134 L
1470 3234 L
1495 3337 L
1512 3390 L
1537 3439 L
1570 3539 L
1603 3634 L
1637 3721 L
1653 3797 L
1670 3799 L
1703 3861 L
1737 3912 L
1770 3951 L
1795 3977 L
1812 3987 L
1837 3994 L
1870 4004 L
1903 4008 L
1937 4011 L
1953 4012 L
1971 4012 L
2003 4012 L
2037 4012 L
2070 4012 L
2095 4012 L
2112 4012 L
2137 4012 L
2170 4012 L
2203 4012 L
2237 4012 L
2253 4012 L
2271 4012 L
2303 4012 L
2337 4012 L
2370 4012 L
2395 4012 L
2412 4012 L
2437 4012 L
2470 4012 L
2503 4012 L
2537 4012 L
2553 4012 L
2571 4012 L
2603 4012 L
2637 4012 L
2670 4012 L
2695 4012 L
2712 4012 L
2737 4012 L
2770 4012 L
2803 4012 L
2837 4012 L
2854 4012 L
2871 4012 L
2903 4012 L
2937 4012 L
2970 4012 L
2995 4012 L
3012 4012 L
3037 4012 L
3061 4012 L
3077 4012 L
3103 4012 L
3137 4013 L
3154 4013 L
3171 4013 L
3203 4013 L
3237 4013 L
3270 4013 L
3296 4013 L
3312 4013 L
3337 4013 L
3370 4014 L
3403 4014 L
3437 4014 L
3454 4015 L
3471 4015 L
3503 4015 L
3537 4016 L
3570 4016 L
3596 4017 L
3612 4018 L
3637 4018 L
3670 4019 L
3703 4020 L
3737 4021 L
3754 4023 L
3771 4023 L
3803 4024 L
3837 4026 L
3870 4028 L
3896 4030 L
3912 4031 L
3937 4032 L
3970 4035 L
4003 4038 L
4037 4041 L
4070 4044 L
LWMC SL dash03 C03 COSGR

GSN 753 2066 M
770 2066 L
803 2076 L
837 2089 L
870 2103 L
895 2120 L
911 2129 L
937 2139 L
970 2162 L
1003 2187 L
1037 2217 L
1053 2251 L
1070 2251 L
1103 2289 L
1137 2333 L
1170 2383 L
1195 2439 L
1211 2470 L
1237 2502 L
1270 2573 L
1303 2651 L
1337 2736 L
1353 2829 L
1370 2831 L
1403 2929 L
1437 3035 L
1470 3146 L
1495 3259 L
1512 3317 L
1537 3372 L
1570 3482 L
1603 3587 L
1637 3683 L
1653 3767 L
1670 3769 L
1703 3838 L
1737 3894 L
1770 3936 L
1795 3966 L
1812 3977 L
1837 3984 L
1870 3995 L
1903 4000 L
1937 4003 L
1953 4004 L
1971 4004 L
2003 4004 L
2037 4004 L
2070 4004 L
2095 4004 L
2112 4004 L
2137 4004 L
2170 4004 L
2203 4004 L
2237 4004 L
2253 4004 L
2271 4004 L
2303 4004 L
2337 4004 L
2370 4004 L
2395 4004 L
2412 4004 L
2437 4004 L
2470 4004 L
2503 4004 L
2537 4004 L
2553 4004 L
2571 4004 L
2603 4004 L
2637 4004 L
2670 4004 L
2695 4004 L
2712 4004 L
2737 4004 L
2770 4004 L
2803 4004 L
2837 4004 L
2854 4004 L
2871 4004 L
2903 4004 L
2937 4004 L
2970 4005 L
2995 4005 L
3012 4005 L
3037 4005 L
3061 4005 L
3077 4005 L
3103 4005 L
3137 4005 L
3154 4005 L
3171 4005 L
3203 4005 L
3237 4005 L
3270 4006 L
3296 4006 L
3312 4006 L
3337 4006 L
3370 4006 L
3403 4007 L
3437 4007 L
3454 4008 L
3471 4008 L
3503 4008 L
3537 4009 L
3570 4010 L
3596 4010 L
3612 4011 L
3637 4011 L
3670 4012 L
3703 4014 L
3737 4015 L
3754 4017 L
3771 4017 L
3803 4018 L
3837 4020 L
3870 4023 L
3896 4025 L
3912 4027 L
3937 4028 L
3970 4031 L
4003 4034 L
4037 4037 L
4070 4041 L
LWMC SL dash04 C04 COSGR

GSN 753 2003 M
770 2003 L
803 2014 L
837 2027 L
870 2042 L
895 2059 L
911 2069 L
937 2079 L
970 2102 L
1003 2128 L
1037 2159 L
1053 2193 L
1070 2194 L
1103 2233 L
1137 2279 L
1170 2330 L
1195 2388 L
1211 2420 L
1237 2453 L
1270 2526 L
1303 2606 L
1337 2694 L
1353 2790 L
1370 2792 L
1403 2893 L
1437 3003 L
1470 3116 L
1495 3233 L
1512 3293 L
1537 3350 L
1570 3463 L
1603 3571 L
1637 3670 L
1653 3757 L
1670 3759 L
1703 3830 L
1737 3888 L
1770 3932 L
1795 3962 L
1812 3973 L
1837 3981 L
1870 3992 L
1903 3998 L
1937 4000 L
1953 4001 L
1971 4001 L
2003 4002 L
2037 4002 L
2070 4002 L
2095 4002 L
2112 4002 L
2137 4002 L
2170 4002 L
2203 4002 L
2237 4002 L
2253 4002 L
2271 4002 L
2303 4002 L
2337 4002 L
2370 4002 L
2395 4002 L
2412 4002 L
2437 4002 L
2470 4002 L
2503 4002 L
2537 4002 L
2553 4002 L
2571 4002 L
2603 4002 L
2637 4002 L
2670 4002 L
2695 4002 L
2712 4002 L
2737 4002 L
2770 4002 L
2803 4002 L
2837 4002 L
2854 4002 L
2871 4002 L
2903 4002 L
2937 4002 L
2970 4002 L
2995 4002 L
3012 4002 L
3037 4002 L
3061 4002 L
3077 4002 L
3103 4002 L
3137 4002 L
3154 4003 L
3171 4003 L
3203 4003 L
3237 4003 L
3270 4003 L
3296 4003 L
3312 4004 L
3337 4004 L
3370 4004 L
3403 4004 L
3437 4005 L
3454 4005 L
3471 4005 L
3503 4006 L
3537 4007 L
3570 4008 L
3596 4009 L
3612 4009 L
3637 4010 L
3670 4011 L
3703 4012 L
3737 4014 L
3754 4016 L
3771 4016 L
3803 4018 L
3837 4020 L
3870 4022 L
3896 4025 L
3912 4027 L
3937 4028 L
3970 4031 L
4003 4035 L
4037 4038 L
4070 4042 L
LWMC SL dash05 C05 COSGR

GSN 753 1586 M
770 1586 L
803 1599 L
837 1615 L
870 1633 L
895 1653 L
911 1665 L
937 1677 L
970 1705 L
1003 1737 L
1037 1773 L
1053 1815 L
1070 1815 L
1103 1863 L
1137 1917 L
1170 1979 L
1195 2048 L
1211 2087 L
1237 2126 L
1270 2214 L
1303 2310 L
1337 2416 L
1353 2531 L
1370 2533 L
1403 2655 L
1437 2786 L
1470 2922 L
1495 3062 L
1512 3135 L
1537 3202 L
1570 3339 L
1603 3468 L
1637 3587 L
1653 3691 L
1670 3693 L
1703 3779 L
1737 3849 L
1770 3901 L
1795 3937 L
1812 3950 L
1837 3960 L
1870 3973 L
1903 3980 L
1937 3983 L
1953 3984 L
1971 3984 L
2003 3985 L
2037 3985 L
2070 3985 L
2095 3985 L
2112 3985 L
2137 3985 L
2170 3985 L
2203 3985 L
2237 3985 L
2253 3985 L
2271 3985 L
2303 3985 L
2337 3985 L
2370 3985 L
2395 3985 L
2412 3985 L
2437 3985 L
2470 3985 L
2503 3985 L
2537 3985 L
2553 3985 L
2571 3985 L
2603 3985 L
2637 3985 L
2670 3985 L
2695 3985 L
2712 3985 L
2737 3985 L
2770 3985 L
2803 3985 L
2837 3985 L
2854 3985 L
2871 3985 L
2903 3985 L
2937 3985 L
2970 3985 L
2995 3985 L
3012 3985 L
3037 3985 L
3061 3986 L
3077 3986 L
3103 3986 L
3137 3986 L
3154 3986 L
3171 3986 L
3203 3986 L
3237 3987 L
3270 3987 L
3296 3987 L
3312 3987 L
3337 3988 L
3370 3988 L
3403 3989 L
3437 3989 L
3454 3990 L
3471 3990 L
3503 3991 L
3537 3992 L
3570 3993 L
3596 3994 L
3612 3995 L
3637 3996 L
3670 3997 L
3703 3999 L
3737 4001 L
3754 4004 L
3771 4004 L
3803 4006 L
3837 4009 L
3870 4013 L
3896 4016 L
3912 4018 L
3937 4020 L
3970 4024 L
4003 4029 L
4037 4033 L
4070 4038 L
LWMC SL dash06 C06 COSGR

GSN 753 753 M
770 753 L
803 771 L
837 791 L
870 815 L
895 843 L
911 858 L
937 874 L
970 911 L
1003 954 L
1037 1002 L
1053 1058 L
1070 1058 L
1103 1122 L
1137 1194 L
1170 1276 L
1195 1369 L
1211 1421 L
1237 1473 L
1270 1589 L
1303 1718 L
1337 1859 L
1353 2013 L
1370 2015 L
1403 2178 L
1437 2352 L
1470 2535 L
1495 2721 L
1512 2817 L
1537 2908 L
1570 3090 L
1603 3263 L
1637 3421 L
1653 3560 L
1670 3562 L
1703 3677 L
1737 3770 L
1770 3839 L
1795 3887 L
1812 3905 L
1837 3918 L
1870 3936 L
1903 3945 L
1937 3949 L
1953 3950 L
1971 3950 L
2003 3951 L
2037 3951 L
2070 3951 L
2095 3951 L
2112 3951 L
2137 3951 L
2170 3951 L
2203 3951 L
2237 3951 L
2253 3951 L
2271 3951 L
2303 3951 L
2337 3951 L
2370 3951 L
2395 3951 L
2412 3951 L
2437 3951 L
2470 3951 L
2503 3951 L
2537 3951 L
2553 3951 L
2571 3951 L
2603 3951 L
2637 3951 L
2670 3951 L
2695 3951 L
2712 3951 L
2737 3951 L
2770 3951 L
2803 3951 L
2837 3951 L
2854 3951 L
2871 3951 L
2903 3952 L
2937 3952 L
2970 3952 L
2995 3952 L
3012 3952 L
3037 3952 L
3061 3952 L
3077 3952 L
3103 3953 L
3137 3953 L
3154 3953 L
3171 3953 L
3203 3954 L
3237 3954 L
3270 3954 L
3296 3955 L
3312 3955 L
3337 3956 L
3370 3956 L
3403 3957 L
3437 3958 L
3454 3960 L
3471 3960 L
3503 3961 L
3537 3963 L
3570 3964 L
3596 3966 L
3612 3968 L
3637 3969 L
3670 3971 L
3703 3974 L
3737 3978 L
3754 3982 L
3771 3982 L
3803 3986 L
3837 3990 L
3870 3995 L
3896 4001 L
3912 4004 L
3937 4007 L
3970 4013 L
4003 4020 L
4037 4026 L
4070 4033 L
LWMC SL dash07 C07 COSGR

%
%================
% Legend - Begin
%================
%
GSN 4240 4040 M
4480 4040 L
LWMC SL dash01 C01 COSGR
GSN 4540 4001 M helvM (0.5 uM) show grestore
GSN 4240 3860 M
4480 3860 L
LWMC SL dash02 C02 COSGR
GSN 4540 3821 M helvM (1.0 uM) show grestore
GSN 4240 3680 M
4480 3680 L
LWMC SL dash03 C03 COSGR
GSN 4540 3641 M helvM (1.5 uM) show grestore
GSN 4240 3500 M
4480 3500 L
LWMC SL dash04 C04 COSGR
GSN 4540 3461 M helvM (2.0 uM) show grestore
GSN 4240 3320 M
4480 3320 L
LWMC SL dash05 C05 COSGR
GSN 4540 3281 M helvM (2.5 uM) show grestore
GSN 4240 3140 M
4480 3140 L
LWMC SL dash06 C06 COSGR
GSN 4540 3101 M helvM (3.0 uM) show grestore
GSN 4240 2960 M
4480 2960 L
LWMC SL dash07 C07 COSGR
GSN 4540 2921 M helvM (4.0 uM) show grestore
%
%================
% Legend - End
%================
%

%
% Main frame
%
L10
GSN 
620 620 M
4220 620 L
4220 4220 L
620 4220 L
closepath SGR

%
% X axis: large tics
%
L10
GSN 1074 620 M 0  54 rL SGR
GSN 1074 4220 M 0 -54 rL SGR
helvS (0.0001) 1074 470 xlabel
GSN 1572 620 M 0  54 rL SGR
GSN 1572 4220 M 0 -54 rL SGR
helvS (0.001) 1572 470 xlabel
GSN 2071 620 M 0  54 rL SGR
GSN 2071 4220 M 0 -54 rL SGR
helvS (0.01) 2071 470 xlabel
GSN 2570 620 M 0  54 rL SGR
GSN 2570 4220 M 0 -54 rL SGR
helvS (0.1) 2570 470 xlabel
GSN 3068 620 M 0  54 rL SGR
GSN 3068 4220 M 0 -54 rL SGR
helvS (1) 3068 470 xlabel
GSN 3567 620 M 0  54 rL SGR
GSN 3567 4220 M 0 -54 rL SGR
helvS (10) 3567 470 xlabel
GSN 4066 620 M 0  54 rL SGR
GSN 4066 4220 M 0 -54 rL SGR
helvS (100) 4066 470 xlabel
%
% X axis: small tics
%
L5
GSN 725 620 M 0  36 rL SGR
GSN 725 4220 M 0 -36 rL SGR
GSN 813 620 M 0  36 rL SGR
GSN 813 4220 M 0 -36 rL SGR
GSN 875 620 M 0  36 rL SGR
GSN 875 4220 M 0 -36 rL SGR
GSN 924 620 M 0  36 rL SGR
GSN 924 4220 M 0 -36 rL SGR
GSN 963 620 M 0  36 rL SGR
GSN 963 4220 M 0 -36 rL SGR
GSN 996 620 M 0  36 rL SGR
GSN 996 4220 M 0 -36 rL SGR
GSN 1025 620 M 0  36 rL SGR
GSN 1025 4220 M 0 -36 rL SGR
GSN 1051 620 M 0  36 rL SGR
GSN 1051 4220 M 0 -36 rL SGR
GSN 1224 620 M 0  36 rL SGR
GSN 1224 4220 M 0 -36 rL SGR
GSN 1312 620 M 0  36 rL SGR
GSN 1312 4220 M 0 -36 rL SGR
GSN 1374 620 M 0  36 rL SGR
GSN 1374 4220 M 0 -36 rL SGR
GSN 1422 620 M 0  36 rL SGR
GSN 1422 4220 M 0 -36 rL SGR
GSN 1462 620 M 0  36 rL SGR
GSN 1462 4220 M 0 -36 rL SGR
GSN 1495 620 M 0  36 rL SGR
GSN 1495 4220 M 0 -36 rL SGR
GSN 1524 620 M 0  36 rL SGR
GSN 1524 4220 M 0 -36 rL SGR
GSN 1550 620 M 0  36 rL SGR
GSN 1550 4220 M 0 -36 rL SGR
GSN 1722 620 M 0  36 rL SGR
GSN 1722 4220 M 0 -36 rL SGR
GSN 1810 620 M 0  36 rL SGR
GSN 1810 4220 M 0 -36 rL SGR
GSN 1873 620 M 0  36 rL SGR
GSN 1873 4220 M 0 -36 rL SGR
GSN 1921 620 M 0  36 rL SGR
GSN 1921 4220 M 0 -36 rL SGR
GSN 1960 620 M 0  36 rL SGR
GSN 1960 4220 M 0 -36 rL SGR
GSN 1994 620 M 0  36 rL SGR
GSN 1994 4220 M 0 -36 rL SGR
GSN 2023 620 M 0  36 rL SGR
GSN 2023 4220 M 0 -36 rL SGR
GSN 2048 620 M 0  36 rL SGR
GSN 2048 4220 M 0 -36 rL SGR
GSN 2221 620 M 0  36 rL SGR
GSN 2221 4220 M 0 -36 rL SGR
GSN 2309 620 M 0  36 rL SGR
GSN 2309 4220 M 0 -36 rL SGR
GSN 2371 620 M 0  36 rL SGR
GSN 2371 4220 M 0 -36 rL SGR
GSN 2420 620 M 0  36 rL SGR
GSN 2420 4220 M 0 -36 rL SGR
GSN 2459 620 M 0  36 rL SGR
GSN 2459 4220 M 0 -36 rL SGR
GSN 2492 620 M 0  36 rL SGR
GSN 2492 4220 M 0 -36 rL SGR
GSN 2521 620 M 0  36 rL SGR
GSN 2521 4220 M 0 -36 rL SGR
GSN 2547 620 M 0  36 rL SGR
GSN 2547 4220 M 0 -36 rL SGR
GSN 2720 620 M 0  36 rL SGR
GSN 2720 4220 M 0 -36 rL SGR
GSN 2808 620 M 0  36 rL SGR
GSN 2808 4220 M 0 -36 rL SGR
GSN 2870 620 M 0  36 rL SGR
GSN 2870 4220 M 0 -36 rL SGR
GSN 2918 620 M 0  36 rL SGR
GSN 2918 4220 M 0 -36 rL SGR
GSN 2958 620 M 0  36 rL SGR
GSN 2958 4220 M 0 -36 rL SGR
GSN 2991 620 M 0  36 rL SGR
GSN 2991 4220 M 0 -36 rL SGR
GSN 3020 620 M 0  36 rL SGR
GSN 3020 4220 M 0 -36 rL SGR
GSN 3045 620 M 0  36 rL SGR
GSN 3045 4220 M 0 -36 rL SGR
GSN 3218 620 M 0  36 rL SGR
GSN 3218 4220 M 0 -36 rL SGR
GSN 3306 620 M 0  36 rL SGR
GSN 3306 4220 M 0 -36 rL SGR
GSN 3368 620 M 0  36 rL SGR
GSN 3368 4220 M 0 -36 rL SGR
GSN 3417 620 M 0  36 rL SGR
GSN 3417 4220 M 0 -36 rL SGR
GSN 3456 620 M 0  36 rL SGR
GSN 3456 4220 M 0 -36 rL SGR
GSN 3490 620 M 0  36 rL SGR
GSN 3490 4220 M 0 -36 rL SGR
GSN 3519 620 M 0  36 rL SGR
GSN 3519 4220 M 0 -36 rL SGR
GSN 3544 620 M 0  36 rL SGR
GSN 3544 4220 M 0 -36 rL SGR
GSN 3717 620 M 0  36 rL SGR
GSN 3717 4220 M 0 -36 rL SGR
GSN 3805 620 M 0  36 rL SGR
GSN 3805 4220 M 0 -36 rL SGR
GSN 3867 620 M 0  36 rL SGR
GSN 3867 4220 M 0 -36 rL SGR
GSN 3915 620 M 0  36 rL SGR
GSN 3915 4220 M 0 -36 rL SGR
GSN 3955 620 M 0  36 rL SGR
GSN 3955 4220 M 0 -36 rL SGR
GSN 3988 620 M 0  36 rL SGR
GSN 3988 4220 M 0 -36 rL SGR
GSN 4017 620 M 0  36 rL SGR
GSN 4017 4220 M 0 -36 rL SGR
GSN 4043 620 M 0  36 rL SGR
GSN 4043 4220 M 0 -36 rL SGR
GSN 4216 620 M 0  36 rL SGR
GSN 4216 4220 M 0 -36 rL SGR
%
% Y axis: large tics
%
L10
GSN 620 1194 M 54 0 rL SGR
GSN 4220 1194 M -54 0 rL SGR
helvS (-0.002) 560 1194 ylabel
GSN 620 2640 M 54 0 rL SGR
GSN 4220 2640 M -54 0 rL SGR
helvS (-0.001) 560 2640 ylabel
GSN 620 4086 M 54 0 rL SGR
GSN 4220 4086 M -54 0 rL SGR
helvS (0) 560 4086 ylabel
%
% Y axis: small tics
%
L5
GSN 620 832 M 36 0 rL SGR
GSN 4220 832 M -36 0 rL SGR
GSN 620 1194 M 36 0 rL SGR
GSN 4220 1194 M -36 0 rL SGR
GSN 620 1555 M 36 0 rL SGR
GSN 4220 1555 M -36 0 rL SGR
GSN 620 1917 M 36 0 rL SGR
GSN 4220 1917 M -36 0 rL SGR
GSN 620 2278 M 36 0 rL SGR
GSN 4220 2278 M -36 0 rL SGR
GSN 620 2640 M 36 0 rL SGR
GSN 4220 2640 M -36 0 rL SGR
GSN 620 3001 M 36 0 rL SGR
GSN 4220 3001 M -36 0 rL SGR
GSN 620 3363 M 36 0 rL SGR
GSN 4220 3363 M -36 0 rL SGR
GSN 620 3725 M 36 0 rL SGR
GSN 4220 3725 M -36 0 rL SGR
GSN 620 4086 M 36 0 rL SGR
GSN 4220 4086 M -36 0 rL SGR

%
% X axis
%
GSN L5 620 4086 M 4220 4086 L SDA G50 SGR

%
% X-Axis label:
%
gsave 2420 290 M 
[
[(Helvetica) 180 0 true true 0 (t)]
[(Helvetica) 180 0 true true 0 (i)]
[(Helvetica) 180 0 true true 0 (m)]
[(Helvetica) 180 0 true true 0 (e)]
] 0 MCshow grestore

%
% Y-Axis label:
%
gsave 234 2420 M 
currentpoint gsave translate 90 rotate 0 0 moveto
[
[(Helvetica) 180 0 true true 0 (d)]
[(Helvetica) 180 0 true true 0 (\()]
[(Helvetica) 180 0 true true 0 (s)]
[(Helvetica) 180 0 true true 0 (i)]
[(Helvetica) 180 0 true true 0 (g)]
[(Helvetica) 180 0 true true 0 (n)]
[(Helvetica) 180 0 true true 0 (a)]
[(Helvetica) 180 0 true true 0 (l)]
[(Helvetica) 180 0 true true 0 (\))]
[(Helvetica) 180 0 true true 0 ( )]
[(Helvetica) 180 0 true true 0 (/)]
[(Helvetica) 180 0 true true 0 ( )]
[(Helvetica) 180 0 true true 0 (d)]
[(Helvetica) 180 0 true true 0 (t)]
] 0 MCshow grestore

end
showpage
%%Trailer
%%EOF
