%!PS-Adobe-3.0 EPSF-3.0
%%BoundingBox: 0 0 514 550
%%Creator: BioKin Ltd.
%%DocumentFonts: Symbol Helvetica
%%EndComments
%
/bkdict 256 dict def
bkdict begin
/M {moveto} def 
/R {rmoveto} def
/L {lineto} def
/rL {rlineto} def
/GSN {gsave newpath} def
/SGR {stroke grestore} def
/COSGR {gsave setrgbcolor stroke grestore grestore} def
/SL {setlinewidth} def
/LWMB {12} def             % line width - model curves, black & white
/LWMC {10} def             % line width - model curves, color
/L2 {2.5 setlinewidth} def
/L5 {5 setlinewidth} def
/L10 {10 setlinewidth} def
/G50 {0.5 setgray} def
/SDA {[10  20] 0 setdash} def % axes
/helvT {/Helvetica findfont 100 scalefont setfont} def % tiny
/helvS {/Helvetica findfont 125 scalefont setfont} def % small
/helvM {/Helvetica findfont 150 scalefont setfont} def % medium
/helvL {/Helvetica findfont 175 scalefont setfont} def % large
/xlabel {gsave M dup
   stringwidth exch -0.5 mul exch rmoveto show grestore} def 
/ylabel {gsave M 90 rotate dup
   stringwidth exch -0.5 mul exch rmoveto show grestore} def
/ylabelresid {gsave M dup
   stringwidth exch -1 mul exch rmoveto show grestore} def
% ======
% Shapes
% ======
% Circle:
/Circ {0 360 arc closepath} def
%
% Square:
/Squa {dup dup -0.5 mul dup dup R -2 mul 0 exch rL 1 mul 0 rL dup 0 exch -1 mul rL closepath} def
%
% Triangle Up:
/TriU {dup dup dup -0.4 mul exch -0.5 mul exch R dup 0.5 mul exch rL dup -1 mul exch 0.5 mul exch rL closepath} def 
%
% Triangle Down:
/TriD {dup dup dup 0.4 mul exch -0.5 mul exch R dup 0.5 mul exch -1 mul rL dup 0.5 mul exch rL closepath} def 
%
% Diamond:
/Diam {45 rotate Squa} def
% ======
% Fills
% ======
/GRF {gsave setgray fill grestore} def                    % gray-level Fill
/COF {gsave setrgbcolor fill grestore} def                % color fill
% ======
% Colors
% ======
/C01 {1.00	0.00	0.00} def      % Red
/C02 {0.00	0.00	1.00} def      % Blue
/C03 {0.00	0.39	0.00} def      % Dark Green
/C04 {0.78	0.08	0.52} def      % Medium Violet Red
/C05 {0.55	0.27	0.07} def      % Saddle Brown
/C06 {0.10	0.70	0.70} def      % (cyan)
/C07 {1.00	0.55	0.00} def      % Dark Orange
/C08 {0.63	0.13	0.94} def      % Purple
/C09 {0.00	0.75	1.00} def      % Deep Sky Blue
/C10 {0.20	0.80	0.20} def      % Lime Green
/C11 {0.47	0.53	0.60} def      % Light Slate Gray
/C12 {0.00	0.00	0.00} def      % Black            % or: {0.19	0.31	0.31} def      % Dark Slate Gray
%
/LGR {0.75} def % light gray
/DGR {0.33} def % dark gray
%
% =============
% Dash patterns
% =============
/dash01 { [80  20] 0 setdash } def
/dash02 { [40  20] 0 setdash } def
/dash03 { [80  20  10  20] 0 setdash } def
/dash04 { [40  20  10  20] 0 setdash } def
/dash05 { [80  20  10  10  10  20] 0 setdash } def
/dash06 { [40  20  10  10  10  20] 0 setdash } def
/dash07 { [10  10] 0 setdash } def
%
/MFshow {
   { dup 5 get 3 ge
     { 5 get 3 eq {gsave} {grestore} ifelse }
     {dup dup 0 get findfont exch 1 get scalefont setfont
     [ currentpoint ] exch dup 2 get 0 exch R dup 5 get 2 ne {dup dup 6
     get exch 4 get {show} {stringwidth pop 0 R} ifelse }if dup 5 get 0 eq
     {dup 3 get {2 get neg 0 exch R pop} {pop aload pop M} ifelse} {dup 5
     get 1 eq {dup 2 get exch dup 3 get exch 6 get stringwidth pop -2 div
     dup 0 R} {dup 6 get stringwidth pop -2 div 0 R 6 get
     show 2 index {aload pop M neg 3 -1 roll neg R pop pop} {pop pop pop
     pop aload pop M} ifelse }ifelse }ifelse }
     ifelse }
   forall} bind def
/MFwidth {0 exch {dup 3 get{dup dup 0 get findfont exch 1 get scalefont
     setfont 6 get stringwidth pop add} {pop} ifelse} forall} bind def
/MCshow { currentpoint stroke M
  exch dup MFwidth -2 div 3 -1 roll R MFshow } def
%
end
%%EndProlog
bkdict begin
0.1 0.1 scale
%
% Residuals:
%
GSN 620 2679 M
620 3727 L
620 3503 L
620 2765 L
620 3422 L
620 3185 L
620 2762 L
620 3015 L
620 2615 L
620 2601 L
620 3195 L
620 2827 L
620 2678 L
620 3083 L
620 3055 L
620 2820 L
620 3069 L
620 2637 L
620 2954 L
620 3124 L
620 3378 L
620 3603 L
620 3036 L
620 2986 L
620 2834 L
620 3121 L
620 3994 L
620 3866 L
620 3385 L
620 3432 L
620 3379 L
620 3434 L
620 3549 L
620 3883 L
620 2756 L
620 4048 L
620 3160 L
620 3245 L
620 3064 L
620 3506 L
620 3557 L
620 2753 L
620 3551 L
620 3585 L
620 3116 L
620 3509 L
620 3927 L
620 3899 L
620 3150 L
620 3386 L
620 3516 L
620 3228 L
620 3178 L
620 3578 L
620 3741 L
620 3360 L
620 3113 L
620 3212 L
620 3241 L
620 3925 L
620 3445 L
620 3929 L
620 3971 L
620 3498 L
620 3585 L
620 3240 L
620 3217 L
620 3966 L
620 3719 L
620 4075 L
620 3205 L
620 3622 L
620 3797 L
620 3910 L
620 3817 L
620 3725 L
620 3398 L
620 3430 L
620 3773 L
620 3874 L
620 4014 L
620 3434 L
620 3358 L
620 3378 L
620 2816 L
620 3584 L
620 3906 L
620 3507 L
620 3620 L
620 3509 L
620 3908 L
620 2831 L
620 3804 L
620 3361 L
620 3248 L
620 2935 L
620 3044 L
620 3363 L
620 3262 L
620 2900 L
620 3204 L
620 3375 L
620 3829 L
620 3127 L
620 3398 L
620 3718 L
620 3314 L
620 3434 L
620 3200 L
620 3403 L
620 3241 L
620 3382 L
620 2841 L
620 2609 L
620 2802 L
620 2528 L
620 2936 L
620 2595 L
620 3414 L
620 3220 L
620 3281 L
620 3063 L
620 3454 L
620 3584 L
620 2811 L
620 3104 L
620 3433 L
620 2793 L
620 3767 L
620 3089 L
620 2721 L
620 3530 L
620 3570 L
620 3507 L
620 3116 L
620 2380 L
620 3742 L
620 3147 L
620 2985 L
620 2897 L
620 3671 L
620 3181 L
620 3079 L
620 4039 L
620 2726 L
620 2629 L
620 3073 L
620 3019 L
620 3169 L
620 2901 L
620 2537 L
620 3149 L
620 3504 L
620 3128 L
620 3021 L
620 2781 L
620 2672 L
620 3572 L
620 3116 L
620 2585 L
620 3325 L
620 2763 L
620 2773 L
620 3532 L
620 2944 L
620 2928 L
620 3684 L
620 3160 L
620 2990 L
620 3355 L
620 3489 L
620 3140 L
620 2773 L
620 3080 L
620 3794 L
620 3389 L
620 2711 L
620 3628 L
620 3513 L
620 2994 L
620 2598 L
620 3515 L
620 3550 L
620 3097 L
620 2386 L
620 3468 L
620 3180 L
620 3263 L
620 3824 L
620 3070 L
620 3327 L
620 3627 L
620 3058 L
620 3251 L
620 3071 L
620 3472 L
620 3556 L
620 3209 L
620 3017 L
620 2961 L
620 3019 L
620 3327 L
620 3831 L
620 3239 L
620 3426 L
620 2565 L
620 3524 L
620 3041 L
620 3494 L
620 3238 L
620 2989 L
620 3761 L
620 3684 L
620 3042 L
620 3290 L
620 3512 L
620 3716 L
620 3026 L
620 3592 L
620 3795 L
620 3432 L
620 3300 L
620 2793 L
620 3454 L
620 2820 L
620 3273 L
620 3456 L
620 3415 L
620 3616 L
620 3519 L
620 3013 L
620 4012 L
620 3161 L
620 3086 L
620 3882 L
620 3403 L
620 3321 L
620 3457 L
620 2771 L
620 2993 L
620 3946 L
620 3744 L
620 3562 L
620 3995 L
620 3221 L
620 2998 L
620 3152 L
620 3931 L
620 3569 L
620 3124 L
620 3312 L
620 3735 L
620 3471 L
620 3476 L
620 2877 L
620 3716 L
620 4015 L
620 3382 L
620 3292 L
620 3427 L
620 3586 L
620 3416 L
620 3473 L
620 3584 L
620 2937 L
620 3825 L
620 3582 L
620 3422 L
620 3584 L
620 3872 L
620 2794 L
620 3202 L
620 3443 L
620 3872 L
620 3306 L
620 3592 L
620 3393 L
620 3576 L
620 3585 L
620 2670 L
620 4015 L
620 3511 L
620 4045 L
620 3416 L
620 3262 L
620 4049 L
620 3995 L
620 3637 L
620 3468 L
620 4203 L
620 3736 L
620 3953 L
620 3287 L
620 3833 L
620 3651 L
620 3861 L
620 3769 L
620 4034 L
620 3808 L
620 3569 L
620 4053 L
620 3776 L
620 3827 L
620 3937 L
620 4103 L
620 3814 L
620 3525 L
620 4181 L
620 3758 L
620 4433 L
620 4863 L
620 4181 L
620 3894 L
620 3638 L
620 4379 L
620 4100 L
620 3567 L
620 3816 L
620 3978 L
620 4472 L
620 4628 L
620 3638 L
620 3606 L
620 3762 L
620 4173 L
620 3887 L
620 4293 L
620 4149 L
620 3853 L
620 3890 L
620 3838 L
620 3872 L
620 3907 L
620 3503 L
620 3711 L
620 4709 L
620 3731 L
620 3956 L
620 3425 L
620 3496 L
620 3909 L
620 3687 L
620 3787 L
620 3630 L
620 3941 L
620 4232 L
620 3528 L
620 4667 L
620 3682 L
620 3801 L
620 4129 L
620 3513 L
620 3364 L
620 4078 L
620 4249 L
620 3258 L
620 3872 L
620 3317 L
620 3447 L
620 4144 L
620 3743 L
620 3620 L
620 3246 L
620 3584 L
620 3672 L
620 4146 L
620 3894 L
620 3361 L
620 3601 L
620 3596 L
620 3860 L
620 3031 L
620 3413 L
620 3258 L
620 3195 L
620 3591 L
620 3278 L
620 3205 L
620 3753 L
620 4318 L
620 3907 L
620 3540 L
620 2985 L
620 3767 L
620 2904 L
620 3471 L
620 3672 L
620 3295 L
620 3437 L
620 3638 L
620 3662 L
620 3170 L
620 2960 L
620 2943 L
620 2945 L
620 3251 L
620 3261 L
620 2867 L
620 3126 L
620 3148 L
620 2542 L
620 3134 L
620 3388 L
620 3337 L
620 3021 L
620 3148 L
620 3019 L
620 3427 L
620 3043 L
620 3315 L
620 3816 L
620 3432 L
620 3051 L
620 3449 L
620 3249 L
620 3266 L
620 3354 L
620 2564 L
620 2716 L
620 3151 L
620 3432 L
620 3256 L
620 2921 L
620 3004 L
620 3112 L
620 3381 L
620 3090 L
620 3679 L
620 3356 L
620 3192 L
620 3755 L
620 3427 L
620 3166 L
620 3217 L
620 3219 L
620 3063 L
620 2713 L
620 3496 L
620 2853 L
620 3554 L
620 3630 L
620 3268 L
620 3009 L
620 3033 L
620 3510 L
620 3606 L
620 3107 L
620 3295 L
620 3569 L
620 3229 L
620 3122 L
620 3144 L
620 2862 L
620 2439 L
620 2659 L
620 2703 L
620 2711 L
620 3009 L
620 2936 L
620 3217 L
620 3471 L
620 3026 L
620 3077 L
620 3662 L
620 3312 L
620 2850 L
620 3315 L
620 3960 L
620 2835 L
620 3114 L
620 3418 L
620 2459 L
620 2613 L
620 2669 L
620 3657 L
620 3315 L
620 2865 L
620 3082 L
620 2654 L
620 3046 L
620 2136 L
620 3413 L
620 2943 L
620 2591 L
620 2495 L
620 3454 L
620 3031 L
620 2363 L
620 3422 L
620 3285 L
620 3430 L
620 2610 L
620 3033 L
620 2637 L
620 2821 L
620 3405 L
620 2645 L
620 3129 L
620 2601 L
620 2344 L
620 2916 L
620 2999 L
620 3185 L
620 3095 L
620 3185 L
620 3180 L
620 3567 L
620 3373 L
620 3268 L
620 2941 L
620 2936 L
620 2535 L
620 2701 L
620 3046 L
620 2985 L
620 3077 L
620 2889 L
620 3293 L
620 2782 L
620 3814 L
620 2720 L
620 3239 L
620 2789 L
620 2728 L
620 3623 L
620 2955 L
620 3002 L
620 2933 L
620 3432 L
620 3525 L
620 2906 L
620 3060 L
620 2649 L
L2 C06 COSGR

%
%================
% Legend - Begin
%================
%
GSN 4240 5180 M
4480 5180 L
LWMC SL  C06 COSGR
GSN 4540 5141 M helvM (3.0 uM) show grestore
%
%================
% Legend - End
%================
%

%
% Main frame
%
L10
GSN 
620 1700 M
4220 1700 L
4220 5300 L
620 5300 L
closepath SGR

%
% X axis: large tics
%
L10
%
% X axis: small tics
%
L5
%
% Y axis: large tics
%
L10
GSN 620 2067 M 54 0 rL SGR
GSN 4220 2067 M -54 0 rL SGR
helvS (-0.01) 560 2067 ylabel
GSN 620 3350 M 54 0 rL SGR
GSN 4220 3350 M -54 0 rL SGR
helvS (0) 560 3350 ylabel
GSN 620 4632 M 54 0 rL SGR
GSN 4220 4632 M -54 0 rL SGR
helvS (0.01) 560 4632 ylabel
%
% Y axis: small tics
%
L5
GSN 620 1747 M 36 0 rL SGR
GSN 4220 1747 M -36 0 rL SGR
GSN 620 2067 M 36 0 rL SGR
GSN 4220 2067 M -36 0 rL SGR
GSN 620 2388 M 36 0 rL SGR
GSN 4220 2388 M -36 0 rL SGR
GSN 620 2708 M 36 0 rL SGR
GSN 4220 2708 M -36 0 rL SGR
GSN 620 3029 M 36 0 rL SGR
GSN 4220 3029 M -36 0 rL SGR
GSN 620 3350 M 36 0 rL SGR
GSN 4220 3350 M -36 0 rL SGR
GSN 620 3670 M 36 0 rL SGR
GSN 4220 3670 M -36 0 rL SGR
GSN 620 3991 M 36 0 rL SGR
GSN 4220 3991 M -36 0 rL SGR
GSN 620 4311 M 36 0 rL SGR
GSN 4220 4311 M -36 0 rL SGR
GSN 620 4632 M 36 0 rL SGR
GSN 4220 4632 M -36 0 rL SGR
GSN 620 4953 M 36 0 rL SGR
GSN 4220 4953 M -36 0 rL SGR
GSN 620 5273 M 36 0 rL SGR
GSN 4220 5273 M -36 0 rL SGR

%
% X axis - residual panel
%
GSN L5 620 3350 M 4220 3350 L SDA G50 SGR

%
% X-Axis label:
%
gsave 620 1370 M 
[
[(Helvetica) 180 0 true true 0 (t)]
[(Helvetica) 180 0 true true 0 (i)]
[(Helvetica) 180 0 true true 0 (m)]
[(Helvetica) 180 0 true true 0 (e)]
] 0 MCshow grestore

%
% Y-Axis label:
%
gsave 234 3500 M 
currentpoint gsave translate 90 rotate 0 0 moveto
[
[(Helvetica) 180 0 true true 0 (r)]
[(Helvetica) 180 0 true true 0 (e)]
[(Helvetica) 180 0 true true 0 (s)]
[(Helvetica) 180 0 true true 0 (i)]
[(Helvetica) 180 0 true true 0 (d)]
[(Helvetica) 180 0 true true 0 (u)]
[(Helvetica) 180 0 true true 0 (a)]
[(Helvetica) 180 0 true true 0 (l)]
[(Helvetica) 180 0 true true 0 (s)]
] 0 MCshow grestore

end
showpage
%%Trailer
%%EOF
