%!PS-Adobe-3.0 EPSF-3.0
%%BoundingBox: 0 0 514 550
%%Creator: BioKin Ltd.
%%DocumentFonts: Symbol Helvetica
%%EndComments
%
/bkdict 256 dict def
bkdict begin
/M {moveto} def 
/R {rmoveto} def
/L {lineto} def
/rL {rlineto} def
/GSN {gsave newpath} def
/SGR {stroke grestore} def
/COSGR {gsave setrgbcolor stroke grestore grestore} def
/SL {setlinewidth} def
/LWMB {12} def             % line width - model curves, black & white
/LWMC {10} def             % line width - model curves, color
/L2 {2.5 setlinewidth} def
/L5 {5 setlinewidth} def
/L10 {10 setlinewidth} def
/G50 {0.5 setgray} def
/SDA {[10  20] 0 setdash} def % axes
/helvT {/Helvetica findfont 100 scalefont setfont} def % tiny
/helvS {/Helvetica findfont 125 scalefont setfont} def % small
/helvM {/Helvetica findfont 150 scalefont setfont} def % medium
/helvL {/Helvetica findfont 175 scalefont setfont} def % large
/xlabel {gsave M dup
   stringwidth exch -0.5 mul exch rmoveto show grestore} def 
/ylabel {gsave M 90 rotate dup
   stringwidth exch -0.5 mul exch rmoveto show grestore} def
/ylabelresid {gsave M dup
   stringwidth exch -1 mul exch rmoveto show grestore} def
% ======
% Shapes
% ======
% Circle:
/Circ {0 360 arc closepath} def
%
% Square:
/Squa {dup dup -0.5 mul dup dup R -2 mul 0 exch rL 1 mul 0 rL dup 0 exch -1 mul rL closepath} def
%
% Triangle Up:
/TriU {dup dup dup -0.4 mul exch -0.5 mul exch R dup 0.5 mul exch rL dup -1 mul exch 0.5 mul exch rL closepath} def 
%
% Triangle Down:
/TriD {dup dup dup 0.4 mul exch -0.5 mul exch R dup 0.5 mul exch -1 mul rL dup 0.5 mul exch rL closepath} def 
%
% Diamond:
/Diam {45 rotate Squa} def
% ======
% Fills
% ======
/GRF {gsave setgray fill grestore} def                    % gray-level Fill
/COF {gsave setrgbcolor fill grestore} def                % color fill
% ======
% Colors
% ======
/C01 {1.00	0.00	0.00} def      % Red
/C02 {0.00	0.00	1.00} def      % Blue
/C03 {0.00	0.39	0.00} def      % Dark Green
/C04 {0.78	0.08	0.52} def      % Medium Violet Red
/C05 {0.55	0.27	0.07} def      % Saddle Brown
/C06 {0.10	0.70	0.70} def      % (cyan)
/C07 {1.00	0.55	0.00} def      % Dark Orange
/C08 {0.63	0.13	0.94} def      % Purple
/C09 {0.00	0.75	1.00} def      % Deep Sky Blue
/C10 {0.20	0.80	0.20} def      % Lime Green
/C11 {0.47	0.53	0.60} def      % Light Slate Gray
/C12 {0.00	0.00	0.00} def      % Black            % or: {0.19	0.31	0.31} def      % Dark Slate Gray
%
/LGR {0.75} def % light gray
/DGR {0.33} def % dark gray
%
% =============
% Dash patterns
% =============
/dash01 { [80  20] 0 setdash } def
/dash02 { [40  20] 0 setdash } def
/dash03 { [80  20  10  20] 0 setdash } def
/dash04 { [40  20  10  20] 0 setdash } def
/dash05 { [80  20  10  10  10  20] 0 setdash } def
/dash06 { [40  20  10  10  10  20] 0 setdash } def
/dash07 { [10  10] 0 setdash } def
%
/MFshow {
   { dup 5 get 3 ge
     { 5 get 3 eq {gsave} {grestore} ifelse }
     {dup dup 0 get findfont exch 1 get scalefont setfont
     [ currentpoint ] exch dup 2 get 0 exch R dup 5 get 2 ne {dup dup 6
     get exch 4 get {show} {stringwidth pop 0 R} ifelse }if dup 5 get 0 eq
     {dup 3 get {2 get neg 0 exch R pop} {pop aload pop M} ifelse} {dup 5
     get 1 eq {dup 2 get exch dup 3 get exch 6 get stringwidth pop -2 div
     dup 0 R} {dup 6 get stringwidth pop -2 div 0 R 6 get
     show 2 index {aload pop M neg 3 -1 roll neg R pop pop} {pop pop pop
     pop aload pop M} ifelse }ifelse }ifelse }
     ifelse }
   forall} bind def
/MFwidth {0 exch {dup 3 get{dup dup 0 get findfont exch 1 get scalefont
     setfont 6 get stringwidth pop add} {pop} ifelse} forall} bind def
/MCshow { currentpoint stroke M
  exch dup MFwidth -2 div 3 -1 roll R MFshow } def
%
end
%%EndProlog
bkdict begin
0.1 0.1 scale
%
% Residuals:
%
GSN 620 4863 M
620 4582 L
620 4417 L
620 4596 L
620 4541 L
620 4367 L
620 4323 L
620 4283 L
620 4291 L
620 4239 L
620 4094 L
620 4210 L
620 4004 L
620 4005 L
620 4210 L
620 3995 L
620 4005 L
620 3848 L
620 3866 L
620 3858 L
620 3835 L
620 3732 L
620 3647 L
620 3675 L
620 3833 L
620 3666 L
620 3710 L
620 3628 L
620 3676 L
620 3651 L
620 3647 L
620 3560 L
620 3474 L
620 3382 L
620 3460 L
620 3444 L
620 3363 L
620 3468 L
620 3539 L
620 3459 L
620 3422 L
620 3317 L
620 3423 L
620 3220 L
620 3239 L
620 3283 L
620 3313 L
620 3259 L
620 3258 L
620 3245 L
620 3141 L
620 3150 L
620 3149 L
620 3074 L
620 2909 L
620 3220 L
620 3066 L
620 3086 L
620 3035 L
620 3201 L
620 3042 L
620 2962 L
620 3267 L
620 2923 L
620 3077 L
620 3037 L
620 2941 L
620 2982 L
620 2946 L
620 3077 L
620 2972 L
620 2829 L
620 3034 L
620 3135 L
620 2950 L
620 2921 L
620 2987 L
620 2800 L
620 2897 L
620 2911 L
620 2881 L
620 2741 L
620 2771 L
620 2910 L
620 2653 L
620 2689 L
620 2757 L
620 2703 L
620 2612 L
620 2545 L
620 2540 L
620 2561 L
620 2319 L
620 2518 L
620 2421 L
620 2635 L
620 2404 L
620 2481 L
620 2264 L
620 2357 L
620 2372 L
620 2289 L
620 2427 L
620 2311 L
620 2439 L
620 2450 L
620 2346 L
620 2253 L
620 2255 L
620 2431 L
620 2312 L
620 2274 L
620 2292 L
620 2375 L
620 2284 L
620 2325 L
620 2253 L
620 2365 L
620 2375 L
620 2334 L
620 2354 L
620 2364 L
620 2233 L
620 2478 L
620 2413 L
620 2136 L
620 2377 L
620 2336 L
620 2413 L
620 2317 L
620 2352 L
620 2260 L
620 2367 L
620 2372 L
620 2509 L
620 2214 L
620 2356 L
620 2435 L
620 2454 L
620 2435 L
620 2421 L
620 2276 L
620 2298 L
620 2400 L
620 2344 L
620 2398 L
620 2427 L
620 2404 L
620 2433 L
620 2449 L
620 2330 L
620 2450 L
620 2390 L
620 2333 L
620 2503 L
620 2521 L
620 2356 L
620 2372 L
620 2543 L
620 2506 L
620 2497 L
620 2498 L
620 2355 L
620 2498 L
620 2545 L
620 2516 L
620 2415 L
620 2432 L
620 2439 L
620 2526 L
620 2533 L
620 2533 L
620 2442 L
620 2615 L
620 2565 L
620 2381 L
620 2630 L
620 2446 L
620 2468 L
620 2526 L
620 2501 L
620 2604 L
620 2523 L
620 2604 L
620 2602 L
620 2567 L
620 2535 L
620 2603 L
620 2479 L
620 2564 L
620 2697 L
620 2457 L
620 2712 L
620 2536 L
620 2425 L
620 2563 L
620 2713 L
620 2435 L
620 2507 L
620 2638 L
620 2677 L
620 2550 L
620 2522 L
620 2539 L
620 2731 L
620 2613 L
620 2659 L
620 2701 L
620 2703 L
620 2694 L
620 2796 L
620 2680 L
620 2766 L
620 2693 L
620 2707 L
620 2519 L
620 2615 L
620 2747 L
620 2500 L
620 2640 L
620 2658 L
620 2628 L
620 2774 L
620 2662 L
620 2717 L
620 2696 L
620 2703 L
620 2672 L
620 2693 L
620 2807 L
620 2621 L
620 2691 L
620 2623 L
620 2624 L
620 2724 L
620 2630 L
620 2747 L
620 2695 L
620 2778 L
620 2753 L
620 2857 L
620 2837 L
620 2775 L
620 2793 L
620 2700 L
620 2726 L
620 2634 L
620 2794 L
620 2752 L
620 2670 L
620 2797 L
620 2764 L
620 2821 L
620 2659 L
620 2677 L
620 2961 L
620 2935 L
620 2684 L
620 2802 L
620 2881 L
620 2794 L
620 2784 L
620 2828 L
620 2782 L
620 2938 L
620 2690 L
620 2793 L
620 2814 L
620 2750 L
620 2829 L
620 2842 L
620 2845 L
620 2799 L
620 2888 L
620 2848 L
620 2745 L
620 2756 L
620 2882 L
620 2851 L
620 2868 L
620 2777 L
620 3018 L
620 2860 L
620 2912 L
620 3096 L
620 2973 L
620 3109 L
620 3109 L
620 3185 L
620 2977 L
620 3144 L
620 3106 L
620 3154 L
620 3009 L
620 3057 L
620 2968 L
620 3020 L
620 3222 L
620 3084 L
620 3155 L
620 3038 L
620 2968 L
620 2981 L
620 2914 L
620 3037 L
620 3089 L
620 3151 L
620 2977 L
620 3050 L
620 3300 L
620 2998 L
620 3076 L
620 3007 L
620 3222 L
620 2903 L
620 3141 L
620 3092 L
620 3204 L
620 3054 L
620 3044 L
620 3059 L
620 3019 L
620 3225 L
620 3153 L
620 3006 L
620 2955 L
620 2969 L
620 3027 L
620 3213 L
620 3015 L
620 3049 L
620 3040 L
620 3180 L
620 3119 L
620 2977 L
620 3112 L
620 3015 L
620 3092 L
620 2994 L
620 3086 L
620 3106 L
620 3064 L
620 3004 L
620 3209 L
620 2998 L
620 3189 L
620 3026 L
620 3049 L
620 3100 L
620 2784 L
620 2965 L
620 3035 L
620 3042 L
620 3123 L
620 3103 L
620 3110 L
620 3014 L
620 2910 L
620 3046 L
620 3032 L
620 3091 L
620 2963 L
620 2977 L
620 2866 L
620 3049 L
620 3015 L
620 2933 L
620 3017 L
620 2942 L
620 3124 L
620 2923 L
620 3220 L
620 3052 L
620 2865 L
620 3037 L
620 2958 L
620 2991 L
620 3178 L
620 2879 L
620 2888 L
620 3031 L
620 2976 L
620 2906 L
620 2975 L
620 3039 L
620 2991 L
620 2835 L
620 2953 L
620 2716 L
620 2862 L
620 2983 L
620 2988 L
620 2904 L
620 2800 L
620 3025 L
620 2874 L
620 2724 L
620 3100 L
620 2819 L
620 2805 L
620 3121 L
620 2894 L
620 2815 L
620 2948 L
620 2879 L
620 2839 L
620 3018 L
620 2998 L
620 2912 L
620 2871 L
620 2901 L
620 2798 L
620 2802 L
620 2885 L
620 2835 L
620 2904 L
620 2923 L
620 2801 L
620 2844 L
620 2956 L
620 2698 L
620 3087 L
620 2869 L
620 3027 L
620 2992 L
620 2814 L
620 2880 L
620 2832 L
620 2916 L
620 2900 L
620 2766 L
620 2754 L
620 2984 L
620 2773 L
620 2871 L
620 2926 L
620 2810 L
620 2824 L
620 2843 L
620 2820 L
620 2777 L
620 2775 L
620 2910 L
620 2810 L
620 2866 L
620 2681 L
620 2853 L
620 2850 L
620 2765 L
620 2804 L
620 2820 L
620 2938 L
620 2919 L
620 2840 L
620 2772 L
620 2721 L
620 2873 L
620 2906 L
620 2807 L
620 2767 L
620 2781 L
620 3017 L
620 2915 L
620 2812 L
620 2716 L
620 2699 L
620 2901 L
620 2882 L
620 2882 L
620 2919 L
620 2871 L
620 2796 L
620 2735 L
620 2824 L
620 2730 L
620 2751 L
620 2872 L
620 2941 L
620 2774 L
620 2756 L
620 2792 L
620 2948 L
620 2778 L
620 2765 L
620 2932 L
620 2945 L
620 2823 L
620 2964 L
620 2588 L
620 2609 L
620 2923 L
620 2840 L
620 2663 L
620 2854 L
620 2819 L
620 2999 L
620 2846 L
620 2978 L
620 2693 L
620 2975 L
620 2828 L
620 2852 L
620 2839 L
620 2824 L
620 2754 L
620 2795 L
620 2788 L
620 2794 L
620 2828 L
620 2730 L
620 2600 L
620 2895 L
620 2733 L
620 2686 L
620 2759 L
620 2789 L
620 2856 L
620 2872 L
620 2651 L
620 2861 L
620 2843 L
620 2732 L
620 2847 L
620 2699 L
620 2716 L
620 2888 L
620 2789 L
620 2803 L
620 2666 L
620 2826 L
620 2559 L
620 2738 L
620 2828 L
L2 C05 COSGR

%
%================
% Legend - Begin
%================
%
GSN 4240 5180 M
4480 5180 L
LWMC SL  C05 COSGR
GSN 4540 5141 M helvM (2.5 uM) show grestore
%
%================
% Legend - End
%================
%

%
% Main frame
%
L10
GSN 
620 1700 M
4220 1700 L
4220 5300 L
620 5300 L
closepath SGR

%
% X axis: large tics
%
L10
%
% X axis: small tics
%
L5
%
% Y axis: large tics
%
L10
GSN 620 2025 M 54 0 rL SGR
GSN 4220 2025 M -54 0 rL SGR
helvS (-0.025) 560 2025 ylabel
GSN 620 2877 M 54 0 rL SGR
GSN 4220 2877 M -54 0 rL SGR
helvS (0) 560 2877 ylabel
GSN 620 3729 M 54 0 rL SGR
GSN 4220 3729 M -54 0 rL SGR
helvS (0.025) 560 3729 ylabel
GSN 620 4581 M 54 0 rL SGR
GSN 4220 4581 M -54 0 rL SGR
helvS (0.05) 560 4581 ylabel
%
% Y axis: small tics
%
L5
GSN 620 1855 M 36 0 rL SGR
GSN 4220 1855 M -36 0 rL SGR
GSN 620 2280 M 36 0 rL SGR
GSN 4220 2280 M -36 0 rL SGR
GSN 620 2706 M 36 0 rL SGR
GSN 4220 2706 M -36 0 rL SGR
GSN 620 3132 M 36 0 rL SGR
GSN 4220 3132 M -36 0 rL SGR
GSN 620 3558 M 36 0 rL SGR
GSN 4220 3558 M -36 0 rL SGR
GSN 620 3984 M 36 0 rL SGR
GSN 4220 3984 M -36 0 rL SGR
GSN 620 4410 M 36 0 rL SGR
GSN 4220 4410 M -36 0 rL SGR
GSN 620 4836 M 36 0 rL SGR
GSN 4220 4836 M -36 0 rL SGR
GSN 620 5262 M 36 0 rL SGR
GSN 4220 5262 M -36 0 rL SGR

%
% X axis - residual panel
%
GSN L5 620 2877 M 4220 2877 L SDA G50 SGR

%
% X-Axis label:
%
gsave 620 1370 M 
[
[(Helvetica) 180 0 true true 0 (t)]
[(Helvetica) 180 0 true true 0 (i)]
[(Helvetica) 180 0 true true 0 (m)]
[(Helvetica) 180 0 true true 0 (e)]
] 0 MCshow grestore

%
% Y-Axis label:
%
gsave 234 3499 M 
currentpoint gsave translate 90 rotate 0 0 moveto
[
[(Helvetica) 180 0 true true 0 (r)]
[(Helvetica) 180 0 true true 0 (e)]
[(Helvetica) 180 0 true true 0 (s)]
[(Helvetica) 180 0 true true 0 (i)]
[(Helvetica) 180 0 true true 0 (d)]
[(Helvetica) 180 0 true true 0 (u)]
[(Helvetica) 180 0 true true 0 (a)]
[(Helvetica) 180 0 true true 0 (l)]
[(Helvetica) 180 0 true true 0 (s)]
] 0 MCshow grestore

end
showpage
%%Trailer
%%EOF
