%!PS-Adobe-3.0 EPSF-3.0
%%BoundingBox: 0 0 514 550
%%Creator: BioKin Ltd.
%%DocumentFonts: Symbol Helvetica
%%EndComments
%
/bkdict 256 dict def
bkdict begin
/M {moveto} def 
/R {rmoveto} def
/L {lineto} def
/rL {rlineto} def
/GSN {gsave newpath} def
/SGR {stroke grestore} def
/COSGR {gsave setrgbcolor stroke grestore grestore} def
/SL {setlinewidth} def
/LWMB {12} def             % line width - model curves, black & white
/LWMC {10} def             % line width - model curves, color
/L2 {2.5 setlinewidth} def
/L5 {5 setlinewidth} def
/L10 {10 setlinewidth} def
/G50 {0.5 setgray} def
/SDA {[10  20] 0 setdash} def % axes
/helvT {/Helvetica findfont 100 scalefont setfont} def % tiny
/helvS {/Helvetica findfont 125 scalefont setfont} def % small
/helvM {/Helvetica findfont 150 scalefont setfont} def % medium
/helvL {/Helvetica findfont 175 scalefont setfont} def % large
/xlabel {gsave M dup
   stringwidth exch -0.5 mul exch rmoveto show grestore} def 
/ylabel {gsave M 90 rotate dup
   stringwidth exch -0.5 mul exch rmoveto show grestore} def
/ylabelresid {gsave M dup
   stringwidth exch -1 mul exch rmoveto show grestore} def
% ======
% Shapes
% ======
% Circle:
/Circ {0 360 arc closepath} def
%
% Square:
/Squa {dup dup -0.5 mul dup dup R -2 mul 0 exch rL 1 mul 0 rL dup 0 exch -1 mul rL closepath} def
%
% Triangle Up:
/TriU {dup dup dup -0.4 mul exch -0.5 mul exch R dup 0.5 mul exch rL dup -1 mul exch 0.5 mul exch rL closepath} def 
%
% Triangle Down:
/TriD {dup dup dup 0.4 mul exch -0.5 mul exch R dup 0.5 mul exch -1 mul rL dup 0.5 mul exch rL closepath} def 
%
% Diamond:
/Diam {45 rotate Squa} def
% ======
% Fills
% ======
/GRF {gsave setgray fill grestore} def                    % gray-level Fill
/COF {gsave setrgbcolor fill grestore} def                % color fill
% ======
% Colors
% ======
/C01 {1.00	0.00	0.00} def      % Red
/C02 {0.00	0.00	1.00} def      % Blue
/C03 {0.00	0.39	0.00} def      % Dark Green
/C04 {0.78	0.08	0.52} def      % Medium Violet Red
/C05 {0.55	0.27	0.07} def      % Saddle Brown
/C06 {0.10	0.70	0.70} def      % (cyan)
/C07 {1.00	0.55	0.00} def      % Dark Orange
/C08 {0.63	0.13	0.94} def      % Purple
/C09 {0.00	0.75	1.00} def      % Deep Sky Blue
/C10 {0.20	0.80	0.20} def      % Lime Green
/C11 {0.47	0.53	0.60} def      % Light Slate Gray
/C12 {0.00	0.00	0.00} def      % Black            % or: {0.19	0.31	0.31} def      % Dark Slate Gray
%
/LGR {0.75} def % light gray
/DGR {0.33} def % dark gray
%
% =============
% Dash patterns
% =============
/dash01 { [80  20] 0 setdash } def
/dash02 { [40  20] 0 setdash } def
/dash03 { [80  20  10  20] 0 setdash } def
/dash04 { [40  20  10  20] 0 setdash } def
/dash05 { [80  20  10  10  10  20] 0 setdash } def
/dash06 { [40  20  10  10  10  20] 0 setdash } def
/dash07 { [10  10] 0 setdash } def
%
/MFshow {
   { dup 5 get 3 ge
     { 5 get 3 eq {gsave} {grestore} ifelse }
     {dup dup 0 get findfont exch 1 get scalefont setfont
     [ currentpoint ] exch dup 2 get 0 exch R dup 5 get 2 ne {dup dup 6
     get exch 4 get {show} {stringwidth pop 0 R} ifelse }if dup 5 get 0 eq
     {dup 3 get {2 get neg 0 exch R pop} {pop aload pop M} ifelse} {dup 5
     get 1 eq {dup 2 get exch dup 3 get exch 6 get stringwidth pop -2 div
     dup 0 R} {dup 6 get stringwidth pop -2 div 0 R 6 get
     show 2 index {aload pop M neg 3 -1 roll neg R pop pop} {pop pop pop
     pop aload pop M} ifelse }ifelse }ifelse }
     ifelse }
   forall} bind def
/MFwidth {0 exch {dup 3 get{dup dup 0 get findfont exch 1 get scalefont
     setfont 6 get stringwidth pop add} {pop} ifelse} forall} bind def
/MCshow { currentpoint stroke M
  exch dup MFwidth -2 div 3 -1 roll R MFshow } def
%
end
%%EndProlog
bkdict begin
0.1 0.1 scale
%
% Model curves:
%

GSN 753 5166 M
753 5166 L
786 4036 L
820 3359 L
853 2987 L
886 2803 L
903 2754 L
919 2723 L
953 2694 L
986 2685 L
1020 2682 L
1053 2682 L
1053 2682 L
1086 2682 L
1120 2682 L
1153 2682 L
1186 2682 L
1203 2682 L
1220 2682 L
1253 2682 L
1286 2682 L
1320 2682 L
1353 2682 L
1353 2682 L
1386 2682 L
1420 2682 L
1453 2682 L
1486 2682 L
1503 2682 L
1520 2682 L
1553 2682 L
1586 2682 L
1620 2682 L
1653 2682 L
1653 2682 L
1686 2682 L
1720 2682 L
1753 2682 L
1786 2682 L
1804 2682 L
1820 2682 L
1853 2682 L
1886 2682 L
1920 2682 L
1953 2682 L
1954 2682 L
1986 2682 L
2020 2682 L
2053 2682 L
2086 2682 L
2104 2682 L
2120 2682 L
2153 2682 L
2186 2682 L
2220 2682 L
2253 2682 L
2254 2682 L
2286 2682 L
2320 2682 L
2353 2682 L
2386 2682 L
2404 2682 L
2420 2682 L
2453 2682 L
2486 2682 L
2520 2682 L
2553 2682 L
2554 2682 L
2586 2682 L
2620 2682 L
2653 2682 L
2686 2682 L
2704 2682 L
2720 2682 L
2753 2682 L
2786 2682 L
2820 2682 L
2853 2682 L
2854 2682 L
2886 2682 L
2920 2682 L
2953 2682 L
2986 2682 L
3004 2682 L
3020 2682 L
3053 2682 L
3068 2682 L
3086 2682 L
3120 2682 L
3153 2682 L
3155 2682 L
3186 2682 L
3220 2682 L
3253 2682 L
3286 2682 L
3305 2682 L
3320 2682 L
3353 2682 L
3386 2682 L
3420 2682 L
3453 2682 L
3455 2682 L
3486 2682 L
3520 2682 L
3553 2682 L
3586 2682 L
3605 2682 L
3620 2682 L
3653 2682 L
3686 2682 L
3720 2682 L
3753 2682 L
3755 2682 L
3786 2682 L
3820 2682 L
3853 2682 L
3886 2682 L
3905 2682 L
3920 2682 L
3953 2682 L
3986 2682 L
4020 2682 L
4053 2682 L
4086 2682 L
LWMC SL  C01 COSGR

%
% Experimental data:
%
GSN 773 4403 M
1625 4057 L
1773 4119 L
1860 4398 L
1922 4238 L
1970 4112 L
2009 4128 L
2043 4119 L
2072 4155 L
2097 4071 L
2120 4088 L
2140 3821 L
2159 4262 L
2176 3878 L
2192 4040 L
2207 4105 L
2221 4040 L
2234 4090 L
2247 3771 L
2259 3904 L
2270 3823 L
2280 3680 L
2290 3739 L
2300 3830 L
2309 3632 L
2318 3873 L
2326 4004 L
2335 3809 L
2342 3930 L
2350 3725 L
2357 3594 L
2364 3300 L
2371 3465 L
2378 3494 L
2384 3723 L
2391 3711 L
2397 3556 L
2403 3568 L
2409 3649 L
2414 3632 L
2420 3747 L
2425 3916 L
2430 3381 L
2435 3494 L
2440 3191 L
2445 3324 L
2450 3200 L
2455 3458 L
2459 3470 L
2464 3401 L
2468 3482 L
2472 3556 L
2476 3152 L
2481 2761 L
2485 2990 L
2489 3222 L
2492 3381 L
2496 3565 L
2500 3222 L
2504 3093 L
2507 2969 L
2511 3341 L
2514 2926 L
2518 3064 L
2521 3331 L
2525 3253 L
2528 2895 L
2531 3119 L
2534 3095 L
2538 2952 L
2541 2911 L
2544 3222 L
2547 3014 L
2550 3107 L
2553 2890 L
2556 3088 L
2559 3098 L
2561 3055 L
2564 2976 L
2567 2981 L
2570 3047 L
2580 2825 L
2590 2785 L
2600 2864 L
2609 2952 L
2618 2887 L
2627 2916 L
2635 2935 L
2643 2549 L
2650 2620 L
2658 2677 L
2665 3043 L
2672 2556 L
2678 2253 L
2685 2823 L
2691 2475 L
2697 2692 L
2703 2348 L
2709 2661 L
2714 2561 L
2720 2415 L
2725 2279 L
2730 2558 L
2735 2424 L
2740 1976 L
2745 2382 L
2750 2420 L
2755 2007 L
2759 2463 L
2764 2277 L
2768 2520 L
2772 2133 L
2777 2551 L
2781 2539 L
2785 2448 L
2789 2301 L
2793 2312 L
2796 2348 L
2800 2198 L
2804 2260 L
2808 2348 L
2811 2324 L
2815 2301 L
2818 2043 L
2822 2224 L
2825 2181 L
2828 2021 L
2831 2153 L
2835 2362 L
2838 2055 L
2841 2265 L
2844 2069 L
2847 2088 L
2850 2026 L
2853 2174 L
2856 2131 L
2859 2071 L
2862 2088 L
2864 2274 L
2867 2028 L
2870 2176 L
2873 1997 L
2875 2047 L
2878 2098 L
2880 2055 L
2883 2021 L
2886 1978 L
2888 2014 L
2891 1990 L
2893 2138 L
2895 2222 L
2898 2036 L
2900 2212 L
2902 2453 L
2905 2043 L
2907 1983 L
2909 2007 L
2912 2296 L
2914 2131 L
2916 2124 L
2918 2477 L
2920 2393 L
2922 1947 L
2925 2253 L
2927 2033 L
2929 2229 L
2931 2227 L
2933 2208 L
2935 2243 L
2937 2241 L
2939 2358 L
2941 2043 L
2943 2446 L
2945 2429 L
2947 2286 L
2948 2556 L
2950 1833 L
2952 2114 L
2954 2370 L
2956 2126 L
2958 2196 L
2959 2212 L
2961 2203 L
2963 2296 L
2965 1881 L
2966 2322 L
2968 2427 L
2970 2866 L
2972 2239 L
2973 2730 L
2975 2007 L
2977 2489 L
2978 2382 L
2980 2026 L
2982 2355 L
2983 2422 L
2985 2384 L
2986 2117 L
2988 2382 L
2989 2200 L
2991 2246 L
2993 2265 L
2994 2370 L
2996 2422 L
2997 2143 L
2999 2208 L
3000 2196 L
3002 2527 L
3003 2449 L
3005 2145 L
3006 2448 L
3007 2334 L
3009 2468 L
3010 2663 L
3012 2558 L
3013 2510 L
3014 2541 L
3016 2549 L
3017 2732 L
3019 2398 L
3020 2458 L
3021 2697 L
3023 2584 L
3024 2329 L
3025 2367 L
3027 2608 L
3028 2296 L
3029 2639 L
3031 2133 L
3032 2362 L
3033 2539 L
3034 2699 L
3036 2668 L
3037 2520 L
3038 2494 L
3039 2375 L
3041 2372 L
3042 2453 L
3043 2367 L
3044 2546 L
3045 2320 L
3047 2298 L
3048 2284 L
3049 2468 L
3050 2413 L
3051 2408 L
3053 2477 L
3054 2303 L
3055 2508 L
3056 2689 L
3057 2596 L
3058 2286 L
3059 2723 L
3061 2821 L
3062 2570 L
3063 2386 L
3064 2322 L
3065 2482 L
3066 2480 L
3067 2303 L
3068 2191 L
3069 2348 L
3070 2162 L
3071 2291 L
3073 2890 L
3074 2709 L
3075 2515 L
3076 2551 L
3077 2852 L
3078 2799 L
3079 2530 L
3080 2210 L
3081 2234 L
3082 2773 L
3083 2854 L
3084 2546 L
3085 2845 L
3086 2685 L
3087 2298 L
3088 2549 L
3089 2350 L
3112 2470 L
3133 2637 L
3152 2575 L
3170 2468 L
3186 2768 L
3201 2425 L
3216 2723 L
3229 2828 L
3241 2704 L
3253 2613 L
3264 2787 L
3275 2816 L
3285 2749 L
3295 2890 L
3304 2947 L
3313 2606 L
3322 2718 L
3330 2584 L
3338 2818 L
3346 2398 L
3353 2565 L
3360 2573 L
3367 2611 L
3374 2847 L
3380 2592 L
3387 2766 L
3393 3000 L
3399 2656 L
3405 2692 L
3410 2654 L
3416 2818 L
3421 2541 L
3426 2604 L
3431 2661 L
3436 2673 L
3441 2637 L
3446 2654 L
3451 2802 L
3455 2439 L
3460 2976 L
3464 3043 L
3469 2570 L
3473 2804 L
3477 2296 L
3481 2661 L
3485 2954 L
3489 2506 L
3493 2396 L
3496 2589 L
3500 2768 L
3504 2997 L
3507 2639 L
3511 2406 L
3514 2625 L
3518 2663 L
3521 2871 L
3525 2573 L
3528 2632 L
3531 2553 L
3534 2475 L
3537 2806 L
3540 2675 L
3543 2515 L
3546 2764 L
3549 2606 L
3552 2704 L
3555 2904 L
3558 2561 L
3561 2463 L
3564 2833 L
3566 2761 L
3575 2436 L
3586 2446 L
3595 2620 L
3605 2410 L
3613 2589 L
3622 2668 L
3630 2580 L
3638 3026 L
3646 2372 L
3653 2751 L
3660 2749 L
3667 2971 L
3674 2510 L
3681 2594 L
3687 2522 L
3693 2709 L
3699 2384 L
3705 2587 L
3710 2506 L
3716 2539 L
3721 2732 L
3727 2398 L
3732 2816 L
3737 2880 L
3742 2654 L
3746 2489 L
3751 2393 L
3756 2785 L
3760 2658 L
3764 2773 L
3769 2346 L
3773 2589 L
3777 2670 L
3781 2584 L
3785 2670 L
3789 2530 L
3793 2828 L
3797 2563 L
3800 2694 L
3804 2611 L
3808 2658 L
3811 2666 L
3815 2596 L
3818 2618 L
3821 2818 L
3825 2437 L
3828 2558 L
3831 2706 L
3834 2775 L
3838 2458 L
3841 2799 L
3844 2647 L
3847 2916 L
3850 2367 L
3853 2828 L
3855 2701 L
3858 2613 L
3861 2501 L
3864 2625 L
3867 2649 L
3869 2797 L
3872 2775 L
3875 2355 L
3877 2446 L
3880 2601 L
3882 2484 L
3885 2649 L
3887 2804 L
3890 2353 L
3892 2441 L
3895 2453 L
3897 2740 L
3899 2279 L
3902 2541 L
3904 2415 L
3906 2573 L
3908 2630 L
3911 2713 L
3913 2771 L
3915 2673 L
3917 2525 L
3919 2721 L
3921 2721 L
3923 2711 L
3926 2656 L
3928 2565 L
3930 2234 L
3932 2491 L
3934 2921 L
3936 2816 L
3938 2584 L
3940 2687 L
3942 2807 L
3943 2277 L
3945 2735 L
3947 2708 L
3949 2370 L
3951 2644 L
3953 2305 L
3955 2568 L
3956 2802 L
3958 2869 L
3960 2503 L
3962 2933 L
3963 2410 L
3965 2649 L
3967 2630 L
3969 2907 L
3970 2377 L
3972 2835 L
3974 2802 L
3975 2651 L
3977 2549 L
3978 2601 L
3980 2553 L
3982 2909 L
3983 2546 L
3985 2677 L
3986 2833 L
3988 2592 L
3990 2646 L
3991 2584 L
3993 2938 L
3994 2582 L
3996 2455 L
3997 2828 L
3999 2725 L
4000 2785 L
4001 2449 L
4003 2756 L
4004 2711 L
4006 2861 L
4007 2921 L
4009 2804 L
4010 2620 L
4011 2737 L
4013 2642 L
4014 2742 L
4016 3069 L
4017 2690 L
4018 2804 L
4020 2573 L
4021 2785 L
4022 2606 L
4024 2711 L
4025 2701 L
4026 2761 L
4028 2506 L
4029 2577 L
4030 2394 L
4031 2780 L
4033 3059 L
4034 2267 L
4035 2911 L
4036 2644 L
4038 2565 L
4039 2809 L
4040 2868 L
4041 2608 L
4042 2930 L
4044 2814 L
4045 2565 L
4046 2692 L
4047 2666 L
4048 2706 L
4050 2902 L
4051 2792 L
4052 2637 L
4053 3126 L
4054 2649 L
4055 2675 L
4056 2837 L
4058 2799 L
4059 2420 L
4060 2692 L
4061 2341 L
4062 2599 L
4063 2740 L
4064 2823 L
4065 2573 L
4066 2787 L
L2 C01 COSGR

%
%================
% Legend - Begin
%================
%
GSN 4240 5180 M
4480 5180 L
LWMC SL  C01 COSGR
GSN 4540 5141 M helvM (0.5 uM) show grestore
%
%================
% Legend - End
%================
%

%
% Residuals:
%
GSN 773 1021 M
1625 1460 L
1773 1480 L
1860 1569 L
1922 1518 L
1970 1477 L
2009 1483 L
2043 1480 L
2072 1491 L
2097 1464 L
2120 1470 L
2140 1384 L
2159 1525 L
2176 1403 L
2192 1454 L
2207 1475 L
2221 1454 L
2234 1470 L
2247 1368 L
2259 1411 L
2270 1385 L
2280 1339 L
2290 1358 L
2300 1387 L
2309 1324 L
2318 1401 L
2326 1443 L
2335 1381 L
2342 1419 L
2350 1354 L
2357 1312 L
2364 1218 L
2371 1271 L
2378 1280 L
2384 1353 L
2391 1349 L
2397 1300 L
2403 1304 L
2409 1330 L
2414 1324 L
2420 1361 L
2425 1415 L
2430 1244 L
2435 1280 L
2440 1183 L
2445 1226 L
2450 1187 L
2455 1269 L
2459 1273 L
2464 1250 L
2468 1276 L
2472 1300 L
2476 1171 L
2481 1046 L
2485 1120 L
2489 1193 L
2492 1244 L
2496 1303 L
2500 1193 L
2504 1152 L
2507 1113 L
2511 1231 L
2514 1099 L
2518 1143 L
2521 1228 L
2525 1203 L
2528 1089 L
2531 1161 L
2534 1153 L
2538 1107 L
2541 1094 L
2544 1193 L
2547 1127 L
2550 1157 L
2553 1088 L
2556 1151 L
2559 1154 L
2561 1140 L
2564 1115 L
2567 1117 L
2570 1138 L
2580 1067 L
2590 1054 L
2600 1079 L
2609 1107 L
2618 1087 L
2627 1096 L
2635 1102 L
2643 979 L
2650 1002 L
2658 1020 L
2665 1136 L
2672 981 L
2678 884 L
2685 1066 L
2691 955 L
2697 1024 L
2703 915 L
2709 1014 L
2714 983 L
2720 936 L
2725 893 L
2730 982 L
2735 939 L
2740 796 L
2745 925 L
2750 938 L
2755 806 L
2759 951 L
2764 892 L
2768 970 L
2772 846 L
2777 979 L
2781 976 L
2785 947 L
2789 900 L
2793 903 L
2796 915 L
2800 867 L
2804 887 L
2808 915 L
2811 907 L
2815 900 L
2818 817 L
2822 875 L
2825 861 L
2828 811 L
2831 852 L
2835 919 L
2838 821 L
2841 888 L
2844 826 L
2847 832 L
2850 812 L
2853 859 L
2856 846 L
2859 827 L
2862 832 L
2864 891 L
2867 813 L
2870 860 L
2873 803 L
2875 819 L
2878 835 L
2880 821 L
2883 811 L
2886 797 L
2888 808 L
2891 801 L
2893 848 L
2895 874 L
2898 815 L
2900 871 L
2902 948 L
2905 817 L
2907 798 L
2909 806 L
2912 898 L
2914 846 L
2916 843 L
2918 956 L
2920 929 L
2922 787 L
2925 884 L
2927 814 L
2929 877 L
2931 876 L
2933 870 L
2935 881 L
2937 881 L
2939 918 L
2941 817 L
2943 946 L
2945 941 L
2947 895 L
2948 981 L
2950 750 L
2952 840 L
2954 922 L
2956 844 L
2958 866 L
2959 871 L
2961 868 L
2963 898 L
2965 766 L
2966 906 L
2968 940 L
2970 1080 L
2972 880 L
2973 1037 L
2975 806 L
2977 960 L
2978 925 L
2980 812 L
2982 917 L
2983 938 L
2985 926 L
2986 841 L
2988 925 L
2989 868 L
2991 882 L
2993 888 L
2994 922 L
2996 938 L
2997 849 L
2999 870 L
3000 866 L
3002 972 L
3003 947 L
3005 850 L
3006 947 L
3007 910 L
3009 953 L
3010 1015 L
3012 982 L
3013 967 L
3014 976 L
3016 979 L
3017 1037 L
3019 931 L
3020 950 L
3021 1026 L
3023 990 L
3024 909 L
3025 921 L
3027 998 L
3028 898 L
3029 1008 L
3031 846 L
3032 919 L
3033 976 L
3034 1027 L
3036 1017 L
3037 970 L
3038 961 L
3039 923 L
3041 922 L
3042 948 L
3043 921 L
3044 978 L
3045 906 L
3047 899 L
3048 894 L
3049 953 L
3050 935 L
3051 934 L
3053 956 L
3054 900 L
3055 966 L
3056 1024 L
3057 994 L
3058 895 L
3059 1034 L
3061 1065 L
3062 986 L
3063 927 L
3064 906 L
3065 957 L
3066 957 L
3067 900 L
3068 865 L
3069 915 L
3070 855 L
3071 897 L
3073 1088 L
3074 1030 L
3075 968 L
3076 979 L
3077 1075 L
3078 1059 L
3079 973 L
3080 871 L
3081 878 L
3082 1050 L
3083 1076 L
3084 978 L
3085 1073 L
3086 1022 L
3087 899 L
3088 979 L
3089 916 L
3112 954 L
3133 1007 L
3152 987 L
3170 953 L
3186 1049 L
3201 939 L
3216 1034 L
3229 1068 L
3241 1028 L
3253 999 L
3264 1055 L
3275 1064 L
3285 1043 L
3295 1088 L
3304 1106 L
3313 997 L
3322 1033 L
3330 990 L
3338 1065 L
3346 931 L
3353 984 L
3360 986 L
3367 999 L
3374 1074 L
3380 992 L
3387 1048 L
3393 1123 L
3399 1013 L
3405 1024 L
3410 1012 L
3416 1065 L
3421 976 L
3426 996 L
3431 1015 L
3436 1018 L
3441 1007 L
3446 1012 L
3451 1059 L
3455 944 L
3460 1115 L
3464 1136 L
3469 986 L
3473 1060 L
3477 898 L
3481 1014 L
3485 1108 L
3489 965 L
3493 930 L
3496 992 L
3500 1049 L
3504 1122 L
3507 1008 L
3511 933 L
3514 1003 L
3518 1015 L
3521 1081 L
3525 986 L
3528 1005 L
3531 980 L
3534 955 L
3537 1061 L
3540 1019 L
3543 968 L
3546 1047 L
3549 997 L
3552 1028 L
3555 1092 L
3558 983 L
3561 951 L
3564 1069 L
3566 1046 L
3575 943 L
3586 946 L
3595 1002 L
3605 935 L
3613 992 L
3622 1017 L
3630 989 L
3638 1131 L
3646 922 L
3653 1043 L
3660 1043 L
3667 1113 L
3674 967 L
3681 993 L
3687 970 L
3693 1030 L
3699 926 L
3705 991 L
3710 965 L
3716 976 L
3721 1037 L
3727 931 L
3732 1064 L
3737 1085 L
3742 1012 L
3746 960 L
3751 929 L
3756 1054 L
3760 1014 L
3764 1050 L
3769 914 L
3773 992 L
3777 1018 L
3781 990 L
3785 1018 L
3789 973 L
3793 1068 L
3797 983 L
3800 1025 L
3804 999 L
3808 1014 L
3811 1016 L
3815 994 L
3818 1001 L
3821 1065 L
3825 943 L
3828 982 L
3831 1029 L
3834 1051 L
3838 950 L
3841 1059 L
3844 1010 L
3847 1096 L
3850 921 L
3853 1068 L
3855 1027 L
3858 999 L
3861 963 L
3864 1003 L
3867 1011 L
3869 1058 L
3872 1051 L
3875 917 L
3877 946 L
3880 995 L
3882 958 L
3885 1011 L
3887 1060 L
3890 916 L
3892 944 L
3895 948 L
3897 1040 L
3899 893 L
3902 976 L
3904 936 L
3906 986 L
3908 1005 L
3911 1031 L
3913 1049 L
3915 1018 L
3917 971 L
3919 1034 L
3921 1034 L
3923 1030 L
3926 1013 L
3928 984 L
3930 878 L
3932 960 L
3934 1097 L
3936 1064 L
3938 990 L
3940 1023 L
3942 1061 L
3943 892 L
3945 1038 L
3947 1030 L
3949 922 L
3951 1009 L
3953 901 L
3955 985 L
3956 1059 L
3958 1081 L
3960 964 L
3962 1101 L
3963 935 L
3965 1011 L
3967 1005 L
3969 1093 L
3970 924 L
3972 1070 L
3974 1059 L
3975 1011 L
3977 979 L
3978 995 L
3980 980 L
3982 1094 L
3983 978 L
3985 1020 L
3986 1069 L
3988 992 L
3990 1010 L
3991 990 L
3993 1103 L
3994 989 L
3996 949 L
3997 1068 L
3999 1035 L
4000 1054 L
4001 947 L
4003 1045 L
4004 1030 L
4006 1078 L
4007 1097 L
4009 1060 L
4010 1002 L
4011 1039 L
4013 1008 L
4014 1040 L
4016 1145 L
4017 1024 L
4018 1060 L
4020 986 L
4021 1054 L
4022 997 L
4024 1030 L
4025 1027 L
4026 1046 L
4028 965 L
4029 988 L
4030 929 L
4031 1053 L
4033 1142 L
4034 889 L
4035 1094 L
4036 1009 L
4038 984 L
4039 1062 L
4040 1081 L
4041 998 L
4042 1100 L
4044 1063 L
4045 984 L
4046 1024 L
4047 1016 L
4048 1029 L
4050 1091 L
4051 1056 L
4052 1007 L
4053 1163 L
4054 1011 L
4055 1019 L
4056 1071 L
4058 1059 L
4059 938 L
4060 1024 L
4061 912 L
4062 995 L
4063 1040 L
4064 1066 L
4065 986 L
4066 1055 L
L2 C01 COSGR

%
% Main frame
%
L10
GSN 
620 1700 M
4220 1700 L
4220 5300 L
620 5300 L
closepath SGR

%
% X axis: large tics
%
L10
GSN 1074 1700 M 0  54 rL SGR
GSN 1074 5300 M 0 -54 rL SGR
helvS (0.0001) 1074 470 xlabel
GSN 1572 1700 M 0  54 rL SGR
GSN 1572 5300 M 0 -54 rL SGR
helvS (0.001) 1572 470 xlabel
GSN 2071 1700 M 0  54 rL SGR
GSN 2071 5300 M 0 -54 rL SGR
helvS (0.01) 2071 470 xlabel
GSN 2570 1700 M 0  54 rL SGR
GSN 2570 5300 M 0 -54 rL SGR
helvS (0.1) 2570 470 xlabel
GSN 3068 1700 M 0  54 rL SGR
GSN 3068 5300 M 0 -54 rL SGR
helvS (1) 3068 470 xlabel
GSN 3567 1700 M 0  54 rL SGR
GSN 3567 5300 M 0 -54 rL SGR
helvS (10) 3567 470 xlabel
GSN 4066 1700 M 0  54 rL SGR
GSN 4066 5300 M 0 -54 rL SGR
helvS (100) 4066 470 xlabel
%
% X axis: small tics
%
L5
GSN 725 1700 M 0  36 rL SGR
GSN 725 5300 M 0 -36 rL SGR
GSN 813 1700 M 0  36 rL SGR
GSN 813 5300 M 0 -36 rL SGR
GSN 875 1700 M 0  36 rL SGR
GSN 875 5300 M 0 -36 rL SGR
GSN 924 1700 M 0  36 rL SGR
GSN 924 5300 M 0 -36 rL SGR
GSN 963 1700 M 0  36 rL SGR
GSN 963 5300 M 0 -36 rL SGR
GSN 996 1700 M 0  36 rL SGR
GSN 996 5300 M 0 -36 rL SGR
GSN 1025 1700 M 0  36 rL SGR
GSN 1025 5300 M 0 -36 rL SGR
GSN 1051 1700 M 0  36 rL SGR
GSN 1051 5300 M 0 -36 rL SGR
GSN 1224 1700 M 0  36 rL SGR
GSN 1224 5300 M 0 -36 rL SGR
GSN 1312 1700 M 0  36 rL SGR
GSN 1312 5300 M 0 -36 rL SGR
GSN 1374 1700 M 0  36 rL SGR
GSN 1374 5300 M 0 -36 rL SGR
GSN 1422 1700 M 0  36 rL SGR
GSN 1422 5300 M 0 -36 rL SGR
GSN 1462 1700 M 0  36 rL SGR
GSN 1462 5300 M 0 -36 rL SGR
GSN 1495 1700 M 0  36 rL SGR
GSN 1495 5300 M 0 -36 rL SGR
GSN 1524 1700 M 0  36 rL SGR
GSN 1524 5300 M 0 -36 rL SGR
GSN 1550 1700 M 0  36 rL SGR
GSN 1550 5300 M 0 -36 rL SGR
GSN 1722 1700 M 0  36 rL SGR
GSN 1722 5300 M 0 -36 rL SGR
GSN 1810 1700 M 0  36 rL SGR
GSN 1810 5300 M 0 -36 rL SGR
GSN 1873 1700 M 0  36 rL SGR
GSN 1873 5300 M 0 -36 rL SGR
GSN 1921 1700 M 0  36 rL SGR
GSN 1921 5300 M 0 -36 rL SGR
GSN 1960 1700 M 0  36 rL SGR
GSN 1960 5300 M 0 -36 rL SGR
GSN 1994 1700 M 0  36 rL SGR
GSN 1994 5300 M 0 -36 rL SGR
GSN 2023 1700 M 0  36 rL SGR
GSN 2023 5300 M 0 -36 rL SGR
GSN 2048 1700 M 0  36 rL SGR
GSN 2048 5300 M 0 -36 rL SGR
GSN 2221 1700 M 0  36 rL SGR
GSN 2221 5300 M 0 -36 rL SGR
GSN 2309 1700 M 0  36 rL SGR
GSN 2309 5300 M 0 -36 rL SGR
GSN 2371 1700 M 0  36 rL SGR
GSN 2371 5300 M 0 -36 rL SGR
GSN 2420 1700 M 0  36 rL SGR
GSN 2420 5300 M 0 -36 rL SGR
GSN 2459 1700 M 0  36 rL SGR
GSN 2459 5300 M 0 -36 rL SGR
GSN 2492 1700 M 0  36 rL SGR
GSN 2492 5300 M 0 -36 rL SGR
GSN 2521 1700 M 0  36 rL SGR
GSN 2521 5300 M 0 -36 rL SGR
GSN 2547 1700 M 0  36 rL SGR
GSN 2547 5300 M 0 -36 rL SGR
GSN 2720 1700 M 0  36 rL SGR
GSN 2720 5300 M 0 -36 rL SGR
GSN 2808 1700 M 0  36 rL SGR
GSN 2808 5300 M 0 -36 rL SGR
GSN 2870 1700 M 0  36 rL SGR
GSN 2870 5300 M 0 -36 rL SGR
GSN 2918 1700 M 0  36 rL SGR
GSN 2918 5300 M 0 -36 rL SGR
GSN 2958 1700 M 0  36 rL SGR
GSN 2958 5300 M 0 -36 rL SGR
GSN 2991 1700 M 0  36 rL SGR
GSN 2991 5300 M 0 -36 rL SGR
GSN 3020 1700 M 0  36 rL SGR
GSN 3020 5300 M 0 -36 rL SGR
GSN 3045 1700 M 0  36 rL SGR
GSN 3045 5300 M 0 -36 rL SGR
GSN 3218 1700 M 0  36 rL SGR
GSN 3218 5300 M 0 -36 rL SGR
GSN 3306 1700 M 0  36 rL SGR
GSN 3306 5300 M 0 -36 rL SGR
GSN 3368 1700 M 0  36 rL SGR
GSN 3368 5300 M 0 -36 rL SGR
GSN 3417 1700 M 0  36 rL SGR
GSN 3417 5300 M 0 -36 rL SGR
GSN 3456 1700 M 0  36 rL SGR
GSN 3456 5300 M 0 -36 rL SGR
GSN 3490 1700 M 0  36 rL SGR
GSN 3490 5300 M 0 -36 rL SGR
GSN 3519 1700 M 0  36 rL SGR
GSN 3519 5300 M 0 -36 rL SGR
GSN 3544 1700 M 0  36 rL SGR
GSN 3544 5300 M 0 -36 rL SGR
GSN 3717 1700 M 0  36 rL SGR
GSN 3717 5300 M 0 -36 rL SGR
GSN 3805 1700 M 0  36 rL SGR
GSN 3805 5300 M 0 -36 rL SGR
GSN 3867 1700 M 0  36 rL SGR
GSN 3867 5300 M 0 -36 rL SGR
GSN 3915 1700 M 0  36 rL SGR
GSN 3915 5300 M 0 -36 rL SGR
GSN 3955 1700 M 0  36 rL SGR
GSN 3955 5300 M 0 -36 rL SGR
GSN 3988 1700 M 0  36 rL SGR
GSN 3988 5300 M 0 -36 rL SGR
GSN 4017 1700 M 0  36 rL SGR
GSN 4017 5300 M 0 -36 rL SGR
GSN 4043 1700 M 0  36 rL SGR
GSN 4043 5300 M 0 -36 rL SGR
GSN 4216 1700 M 0  36 rL SGR
GSN 4216 5300 M 0 -36 rL SGR
%
% Y axis: large tics
%
L10
GSN 620 2559 M 54 0 rL SGR
GSN 4220 2559 M -54 0 rL SGR
helvS (1.14) 560 2559 ylabel
GSN 620 3497 M 54 0 rL SGR
GSN 4220 3497 M -54 0 rL SGR
helvS (1.16) 560 3497 ylabel
GSN 620 4436 M 54 0 rL SGR
GSN 4220 4436 M -54 0 rL SGR
helvS (1.18) 560 4436 ylabel
%
% Y axis: small tics
%
L5
GSN 620 1855 M 36 0 rL SGR
GSN 4220 1855 M -36 0 rL SGR
GSN 620 2090 M 36 0 rL SGR
GSN 4220 2090 M -36 0 rL SGR
GSN 620 2324 M 36 0 rL SGR
GSN 4220 2324 M -36 0 rL SGR
GSN 620 2559 M 36 0 rL SGR
GSN 4220 2559 M -36 0 rL SGR
GSN 620 2794 M 36 0 rL SGR
GSN 4220 2794 M -36 0 rL SGR
GSN 620 3028 M 36 0 rL SGR
GSN 4220 3028 M -36 0 rL SGR
GSN 620 3263 M 36 0 rL SGR
GSN 4220 3263 M -36 0 rL SGR
GSN 620 3497 M 36 0 rL SGR
GSN 4220 3497 M -36 0 rL SGR
GSN 620 3732 M 36 0 rL SGR
GSN 4220 3732 M -36 0 rL SGR
GSN 620 3966 M 36 0 rL SGR
GSN 4220 3966 M -36 0 rL SGR
GSN 620 4201 M 36 0 rL SGR
GSN 4220 4201 M -36 0 rL SGR
GSN 620 4436 M 36 0 rL SGR
GSN 4220 4436 M -36 0 rL SGR
GSN 620 4670 M 36 0 rL SGR
GSN 4220 4670 M -36 0 rL SGR
GSN 620 4905 M 36 0 rL SGR
GSN 4220 4905 M -36 0 rL SGR
GSN 620 5139 M 36 0 rL SGR
GSN 4220 5139 M -36 0 rL SGR

%
% X-Axis label:
%
gsave 2420 290 M 
[
[(Helvetica) 180 0 true true 0 (t)]
[(Helvetica) 180 0 true true 0 (i)]
[(Helvetica) 180 0 true true 0 (m)]
[(Helvetica) 180 0 true true 0 (e)]
] 0 MCshow grestore

%
% Y-Axis label:
%
gsave 234 3500 M 
currentpoint gsave translate 90 rotate 0 0 moveto
[
[(Helvetica) 180 0 true true 0 (s)]
[(Helvetica) 180 0 true true 0 (i)]
[(Helvetica) 180 0 true true 0 (g)]
[(Helvetica) 180 0 true true 0 (n)]
[(Helvetica) 180 0 true true 0 (a)]
[(Helvetica) 180 0 true true 0 (l)]
] 0 MCshow grestore

%
% Residuals:
%
gsave 129 1160 M 
currentpoint gsave translate 90 rotate 0 0 moveto
[
[(Helvetica) 150 0 true true 0 (r)]
[(Helvetica) 150 0 true true 0 (e)]
[(Helvetica) 150 0 true true 0 (s)]
[(Helvetica) 150 0 true true 0 (i)]
[(Helvetica) 150 0 true true 0 (d)]
[(Helvetica) 150 0 true true 0 (u)]
[(Helvetica) 150 0 true true 0 (a)]
[(Helvetica) 150 0 true true 0 (l)]
[(Helvetica) 150 0 true true 0 (s)]
] 0 MCshow grestore

%
% Residual frame
%
L10
GSN 
620 620 M
4220 620 L
4220 1700 L
620 1700 L
closepath SGR
%
% X axis: large tics - residual frame
%
L10
GSN 1074 620 M 0  54 rL SGR
GSN 1074 1700 M 0 -54 rL SGR
GSN 1572 620 M 0  54 rL SGR
GSN 1572 1700 M 0 -54 rL SGR
GSN 2071 620 M 0  54 rL SGR
GSN 2071 1700 M 0 -54 rL SGR
GSN 2570 620 M 0  54 rL SGR
GSN 2570 1700 M 0 -54 rL SGR
GSN 3068 620 M 0  54 rL SGR
GSN 3068 1700 M 0 -54 rL SGR
GSN 3567 620 M 0  54 rL SGR
GSN 3567 1700 M 0 -54 rL SGR
GSN 4066 620 M 0  54 rL SGR
GSN 4066 1700 M 0 -54 rL SGR
%
% X axis: small tics - residual frame
%
L5
GSN 725 620 M 0  36 rL SGR
GSN 725 1700 M 0 -36 rL SGR
GSN 813 620 M 0  36 rL SGR
GSN 813 1700 M 0 -36 rL SGR
GSN 875 620 M 0  36 rL SGR
GSN 875 1700 M 0 -36 rL SGR
GSN 924 620 M 0  36 rL SGR
GSN 924 1700 M 0 -36 rL SGR
GSN 963 620 M 0  36 rL SGR
GSN 963 1700 M 0 -36 rL SGR
GSN 996 620 M 0  36 rL SGR
GSN 996 1700 M 0 -36 rL SGR
GSN 1025 620 M 0  36 rL SGR
GSN 1025 1700 M 0 -36 rL SGR
GSN 1051 620 M 0  36 rL SGR
GSN 1051 1700 M 0 -36 rL SGR
GSN 1224 620 M 0  36 rL SGR
GSN 1224 1700 M 0 -36 rL SGR
GSN 1312 620 M 0  36 rL SGR
GSN 1312 1700 M 0 -36 rL SGR
GSN 1374 620 M 0  36 rL SGR
GSN 1374 1700 M 0 -36 rL SGR
GSN 1422 620 M 0  36 rL SGR
GSN 1422 1700 M 0 -36 rL SGR
GSN 1462 620 M 0  36 rL SGR
GSN 1462 1700 M 0 -36 rL SGR
GSN 1495 620 M 0  36 rL SGR
GSN 1495 1700 M 0 -36 rL SGR
GSN 1524 620 M 0  36 rL SGR
GSN 1524 1700 M 0 -36 rL SGR
GSN 1550 620 M 0  36 rL SGR
GSN 1550 1700 M 0 -36 rL SGR
GSN 1722 620 M 0  36 rL SGR
GSN 1722 1700 M 0 -36 rL SGR
GSN 1810 620 M 0  36 rL SGR
GSN 1810 1700 M 0 -36 rL SGR
GSN 1873 620 M 0  36 rL SGR
GSN 1873 1700 M 0 -36 rL SGR
GSN 1921 620 M 0  36 rL SGR
GSN 1921 1700 M 0 -36 rL SGR
GSN 1960 620 M 0  36 rL SGR
GSN 1960 1700 M 0 -36 rL SGR
GSN 1994 620 M 0  36 rL SGR
GSN 1994 1700 M 0 -36 rL SGR
GSN 2023 620 M 0  36 rL SGR
GSN 2023 1700 M 0 -36 rL SGR
GSN 2048 620 M 0  36 rL SGR
GSN 2048 1700 M 0 -36 rL SGR
GSN 2221 620 M 0  36 rL SGR
GSN 2221 1700 M 0 -36 rL SGR
GSN 2309 620 M 0  36 rL SGR
GSN 2309 1700 M 0 -36 rL SGR
GSN 2371 620 M 0  36 rL SGR
GSN 2371 1700 M 0 -36 rL SGR
GSN 2420 620 M 0  36 rL SGR
GSN 2420 1700 M 0 -36 rL SGR
GSN 2459 620 M 0  36 rL SGR
GSN 2459 1700 M 0 -36 rL SGR
GSN 2492 620 M 0  36 rL SGR
GSN 2492 1700 M 0 -36 rL SGR
GSN 2521 620 M 0  36 rL SGR
GSN 2521 1700 M 0 -36 rL SGR
GSN 2547 620 M 0  36 rL SGR
GSN 2547 1700 M 0 -36 rL SGR
GSN 2720 620 M 0  36 rL SGR
GSN 2720 1700 M 0 -36 rL SGR
GSN 2808 620 M 0  36 rL SGR
GSN 2808 1700 M 0 -36 rL SGR
GSN 2870 620 M 0  36 rL SGR
GSN 2870 1700 M 0 -36 rL SGR
GSN 2918 620 M 0  36 rL SGR
GSN 2918 1700 M 0 -36 rL SGR
GSN 2958 620 M 0  36 rL SGR
GSN 2958 1700 M 0 -36 rL SGR
GSN 2991 620 M 0  36 rL SGR
GSN 2991 1700 M 0 -36 rL SGR
GSN 3020 620 M 0  36 rL SGR
GSN 3020 1700 M 0 -36 rL SGR
GSN 3045 620 M 0  36 rL SGR
GSN 3045 1700 M 0 -36 rL SGR
GSN 3218 620 M 0  36 rL SGR
GSN 3218 1700 M 0 -36 rL SGR
GSN 3306 620 M 0  36 rL SGR
GSN 3306 1700 M 0 -36 rL SGR
GSN 3368 620 M 0  36 rL SGR
GSN 3368 1700 M 0 -36 rL SGR
GSN 3417 620 M 0  36 rL SGR
GSN 3417 1700 M 0 -36 rL SGR
GSN 3456 620 M 0  36 rL SGR
GSN 3456 1700 M 0 -36 rL SGR
GSN 3490 620 M 0  36 rL SGR
GSN 3490 1700 M 0 -36 rL SGR
GSN 3519 620 M 0  36 rL SGR
GSN 3519 1700 M 0 -36 rL SGR
GSN 3544 620 M 0  36 rL SGR
GSN 3544 1700 M 0 -36 rL SGR
GSN 3717 620 M 0  36 rL SGR
GSN 3717 1700 M 0 -36 rL SGR
GSN 3805 620 M 0  36 rL SGR
GSN 3805 1700 M 0 -36 rL SGR
GSN 3867 620 M 0  36 rL SGR
GSN 3867 1700 M 0 -36 rL SGR
GSN 3915 620 M 0  36 rL SGR
GSN 3915 1700 M 0 -36 rL SGR
GSN 3955 620 M 0  36 rL SGR
GSN 3955 1700 M 0 -36 rL SGR
GSN 3988 620 M 0  36 rL SGR
GSN 3988 1700 M 0 -36 rL SGR
GSN 4017 620 M 0  36 rL SGR
GSN 4017 1700 M 0 -36 rL SGR
GSN 4043 620 M 0  36 rL SGR
GSN 4043 1700 M 0 -36 rL SGR
GSN 4216 620 M 0  36 rL SGR
GSN 4216 1700 M 0 -36 rL SGR
%
% Y axis: large tics - residual frame
%
L10
GSN 620 722 M 54 0 rL SGR
GSN 4220 722 M -54 0 rL SGR
helvS (-0.02) 560 722 ylabelresid
GSN 620 1021 M 54 0 rL SGR
GSN 4220 1021 M -54 0 rL SGR
helvS (0) 560 1021 ylabelresid
GSN 620 1320 M 54 0 rL SGR
GSN 4220 1320 M -54 0 rL SGR
helvS (0.02) 560 1320 ylabelresid
GSN 620 1620 M 54 0 rL SGR
GSN 4220 1620 M -54 0 rL SGR
helvS (0.04) 560 1620 ylabelresid

%
% X axis - residual panel
%
GSN L5 620 1021 M 4220 1021 L SDA G50 SGR

end
showpage
%%Trailer
%%EOF
