%!PS-Adobe-3.0 EPSF-3.0
%%BoundingBox: 0 0 514 442
%%Creator: BioKin Ltd.
%%DocumentFonts: Symbol Helvetica
%%EndComments
%
/bkdict 256 dict def
bkdict begin
/M {moveto} def 
/R {rmoveto} def
/L {lineto} def
/rL {rlineto} def
/GSN {gsave newpath} def
/SGR {stroke grestore} def
/COSGR {gsave setrgbcolor stroke grestore grestore} def
/SL {setlinewidth} def
/LWMB {12} def             % line width - model curves, black & white
/LWMC {10} def             % line width - model curves, color
/L2 {2.5 setlinewidth} def
/L5 {5 setlinewidth} def
/L10 {10 setlinewidth} def
/G50 {0.5 setgray} def
/SDA {[10  20] 0 setdash} def % axes
/helvT {/Helvetica findfont 100 scalefont setfont} def % tiny
/helvS {/Helvetica findfont 125 scalefont setfont} def % small
/helvM {/Helvetica findfont 150 scalefont setfont} def % medium
/helvL {/Helvetica findfont 175 scalefont setfont} def % large
/xlabel {gsave M dup
   stringwidth exch -0.5 mul exch rmoveto show grestore} def 
/ylabel {gsave M 90 rotate dup
   stringwidth exch -0.5 mul exch rmoveto show grestore} def
/ylabelresid {gsave M dup
   stringwidth exch -1 mul exch rmoveto show grestore} def
% ======
% Shapes
% ======
% Circle:
/Circ {0 360 arc closepath} def
%
% Square:
/Squa {dup dup -0.5 mul dup dup R -2 mul 0 exch rL 1 mul 0 rL dup 0 exch -1 mul rL closepath} def
%
% Triangle Up:
/TriU {dup dup dup -0.4 mul exch -0.5 mul exch R dup 0.5 mul exch rL dup -1 mul exch 0.5 mul exch rL closepath} def 
%
% Triangle Down:
/TriD {dup dup dup 0.4 mul exch -0.5 mul exch R dup 0.5 mul exch -1 mul rL dup 0.5 mul exch rL closepath} def 
%
% Diamond:
/Diam {45 rotate Squa} def
% ======
% Fills
% ======
/GRF {gsave setgray fill grestore} def                    % gray-level Fill
/COF {gsave setrgbcolor fill grestore} def                % color fill
% ======
% Colors
% ======
/C01 {1.00	0.00	0.00} def      % Red
/C02 {0.00	0.00	1.00} def      % Blue
/C03 {0.00	0.39	0.00} def      % Dark Green
/C04 {0.78	0.08	0.52} def      % Medium Violet Red
/C05 {0.55	0.27	0.07} def      % Saddle Brown
/C06 {0.10	0.70	0.70} def      % (cyan)
/C07 {1.00	0.55	0.00} def      % Dark Orange
/C08 {0.63	0.13	0.94} def      % Purple
/C09 {0.00	0.75	1.00} def      % Deep Sky Blue
/C10 {0.20	0.80	0.20} def      % Lime Green
/C11 {0.47	0.53	0.60} def      % Light Slate Gray
/C12 {0.00	0.00	0.00} def      % Black            % or: {0.19	0.31	0.31} def      % Dark Slate Gray
%
/LGR {0.75} def % light gray
/DGR {0.33} def % dark gray
%
% =============
% Dash patterns
% =============
/dash01 { [80  20] 0 setdash } def
/dash02 { [40  20] 0 setdash } def
/dash03 { [80  20  10  20] 0 setdash } def
/dash04 { [40  20  10  20] 0 setdash } def
/dash05 { [80  20  10  10  10  20] 0 setdash } def
/dash06 { [40  20  10  10  10  20] 0 setdash } def
/dash07 { [10  10] 0 setdash } def
%
/MFshow {
   { dup 5 get 3 ge
     { 5 get 3 eq {gsave} {grestore} ifelse }
     {dup dup 0 get findfont exch 1 get scalefont setfont
     [ currentpoint ] exch dup 2 get 0 exch R dup 5 get 2 ne {dup dup 6
     get exch 4 get {show} {stringwidth pop 0 R} ifelse }if dup 5 get 0 eq
     {dup 3 get {2 get neg 0 exch R pop} {pop aload pop M} ifelse} {dup 5
     get 1 eq {dup 2 get exch dup 3 get exch 6 get stringwidth pop -2 div
     dup 0 R} {dup 6 get stringwidth pop -2 div 0 R 6 get
     show 2 index {aload pop M neg 3 -1 roll neg R pop pop} {pop pop pop
     pop aload pop M} ifelse }ifelse }ifelse }
     ifelse }
   forall} bind def
/MFwidth {0 exch {dup 3 get{dup dup 0 get findfont exch 1 get scalefont
     setfont 6 get stringwidth pop add} {pop} ifelse} forall} bind def
/MCshow { currentpoint stroke M
  exch dup MFwidth -2 div 3 -1 roll R MFshow } def
%
end
%%EndProlog
bkdict begin
0.1 0.1 scale
%
% Model curves:
%

GSN 753 3578 M
770 3578 L
803 3745 L
837 3846 L
870 3901 L
895 3927 L
911 3934 L
937 3938 L
970 3942 L
1003 3943 L
1037 3943 L
1053 3943 L
1070 3943 L
1103 3943 L
1137 3943 L
1170 3943 L
1195 3943 L
1211 3943 L
1237 3943 L
1270 3944 L
1303 3944 L
1337 3944 L
1353 3944 L
1370 3944 L
1403 3944 L
1437 3944 L
1470 3945 L
1495 3945 L
1512 3945 L
1537 3945 L
1570 3946 L
1603 3946 L
1637 3947 L
1653 3948 L
1670 3948 L
1703 3948 L
1737 3949 L
1770 3950 L
1795 3952 L
1812 3952 L
1837 3953 L
1870 3955 L
1903 3956 L
1937 3959 L
1953 3961 L
1971 3961 L
2003 3964 L
2037 3967 L
2070 3970 L
2095 3974 L
2112 3976 L
2137 3978 L
2170 3983 L
2203 3988 L
2237 3993 L
2253 3999 L
2271 3999 L
2303 4005 L
2337 4012 L
2370 4018 L
2395 4025 L
2412 4029 L
2437 4032 L
2470 4038 L
2503 4045 L
2537 4051 L
2553 4057 L
2571 4057 L
2603 4062 L
2637 4067 L
2670 4071 L
2695 4074 L
2712 4076 L
2737 4077 L
2770 4080 L
2803 4082 L
2837 4083 L
2854 4084 L
2871 4084 L
2903 4085 L
2937 4086 L
2970 4086 L
2995 4086 L
3012 4086 L
3037 4086 L
3061 4086 L
3077 4086 L
3103 4086 L
3137 4086 L
3154 4086 L
3171 4086 L
3203 4086 L
3237 4086 L
3270 4086 L
3296 4086 L
3312 4086 L
3337 4086 L
3370 4086 L
3403 4086 L
3437 4086 L
3454 4086 L
3471 4086 L
3503 4086 L
3537 4086 L
3570 4086 L
3596 4086 L
3612 4086 L
3637 4086 L
3670 4086 L
3703 4086 L
3737 4086 L
3754 4086 L
3771 4086 L
3803 4086 L
3837 4086 L
3870 4086 L
3896 4086 L
3912 4086 L
3937 4086 L
3970 4086 L
4003 4086 L
4037 4086 L
4070 4086 L
LWMC SL dash01 C01 COSGR

GSN 753 3247 M
770 3247 L
803 3523 L
837 3690 L
870 3780 L
895 3824 L
911 3835 L
937 3842 L
970 3848 L
1003 3850 L
1037 3850 L
1053 3851 L
1070 3851 L
1103 3851 L
1137 3851 L
1170 3851 L
1195 3851 L
1211 3851 L
1237 3851 L
1270 3852 L
1303 3852 L
1337 3852 L
1353 3852 L
1370 3852 L
1403 3853 L
1437 3853 L
1470 3854 L
1495 3855 L
1512 3855 L
1537 3855 L
1570 3856 L
1603 3857 L
1637 3858 L
1653 3860 L
1670 3860 L
1703 3861 L
1737 3863 L
1770 3865 L
1795 3867 L
1812 3869 L
1837 3870 L
1870 3873 L
1903 3877 L
1937 3881 L
1953 3885 L
1971 3885 L
2003 3890 L
2037 3896 L
2070 3903 L
2095 3910 L
2112 3914 L
2137 3917 L
2170 3926 L
2203 3935 L
2237 3944 L
2253 3954 L
2271 3955 L
2303 3965 L
2337 3975 L
2370 3986 L
2395 3997 L
2412 4003 L
2437 4007 L
2470 4017 L
2503 4027 L
2537 4036 L
2553 4044 L
2571 4044 L
2603 4051 L
2637 4057 L
2670 4063 L
2695 4067 L
2712 4070 L
2737 4071 L
2770 4075 L
2803 4077 L
2837 4079 L
2854 4081 L
2871 4081 L
2903 4082 L
2937 4083 L
2970 4084 L
2995 4085 L
3012 4085 L
3037 4085 L
3061 4086 L
3077 4086 L
3103 4086 L
3137 4086 L
3154 4086 L
3171 4086 L
3203 4086 L
3237 4086 L
3270 4086 L
3296 4086 L
3312 4086 L
3337 4086 L
3370 4086 L
3403 4086 L
3437 4086 L
3454 4086 L
3471 4086 L
3503 4086 L
3537 4086 L
3570 4086 L
3596 4086 L
3612 4086 L
3637 4086 L
3670 4086 L
3703 4086 L
3737 4086 L
3754 4086 L
3771 4086 L
3803 4086 L
3837 4086 L
3870 4086 L
3896 4086 L
3912 4086 L
3937 4086 L
3970 4086 L
4003 4086 L
4037 4086 L
4070 4086 L
LWMC SL dash02 C02 COSGR

GSN 753 2730 M
770 2730 L
803 3177 L
837 3447 L
870 3594 L
895 3664 L
911 3682 L
937 3693 L
970 3703 L
1003 3706 L
1037 3707 L
1053 3707 L
1070 3707 L
1103 3708 L
1137 3708 L
1170 3708 L
1195 3709 L
1211 3709 L
1237 3709 L
1270 3709 L
1303 3710 L
1337 3711 L
1353 3711 L
1370 3711 L
1403 3712 L
1437 3713 L
1470 3714 L
1495 3716 L
1512 3716 L
1537 3717 L
1570 3719 L
1603 3721 L
1637 3724 L
1653 3726 L
1670 3726 L
1703 3730 L
1737 3733 L
1770 3737 L
1795 3742 L
1812 3745 L
1837 3748 L
1870 3754 L
1903 3761 L
1937 3769 L
1953 3778 L
1971 3778 L
2003 3788 L
2037 3799 L
2070 3811 L
2095 3825 L
2112 3832 L
2137 3839 L
2170 3854 L
2203 3871 L
2237 3888 L
2253 3905 L
2271 3906 L
2303 3923 L
2337 3940 L
2370 3958 L
2395 3974 L
2412 3983 L
2437 3990 L
2470 4005 L
2503 4019 L
2537 4031 L
2553 4042 L
2571 4042 L
2603 4051 L
2637 4059 L
2670 4066 L
2695 4071 L
2712 4074 L
2737 4075 L
2770 4079 L
2803 4081 L
2837 4083 L
2854 4084 L
2871 4084 L
2903 4085 L
2937 4086 L
2970 4086 L
2995 4086 L
3012 4086 L
3037 4086 L
3061 4086 L
3077 4086 L
3103 4086 L
3137 4086 L
3154 4086 L
3171 4086 L
3203 4086 L
3237 4086 L
3270 4086 L
3296 4086 L
3312 4086 L
3337 4086 L
3370 4086 L
3403 4086 L
3437 4086 L
3454 4086 L
3471 4086 L
3503 4086 L
3537 4086 L
3570 4086 L
3596 4086 L
3612 4086 L
3637 4086 L
3670 4086 L
3703 4086 L
3737 4086 L
3754 4086 L
3771 4086 L
3803 4086 L
3837 4086 L
3870 4086 L
3896 4086 L
3912 4086 L
3937 4086 L
3970 4086 L
4003 4086 L
4037 4086 L
4070 4086 L
LWMC SL dash03 C03 COSGR

GSN 753 2203 M
770 2203 L
803 2824 L
837 3200 L
870 3404 L
895 3502 L
911 3527 L
937 3542 L
970 3557 L
1003 3561 L
1037 3562 L
1053 3562 L
1070 3562 L
1103 3563 L
1137 3563 L
1170 3564 L
1195 3564 L
1211 3565 L
1237 3565 L
1270 3566 L
1303 3567 L
1337 3568 L
1353 3569 L
1370 3569 L
1403 3570 L
1437 3572 L
1470 3574 L
1495 3576 L
1512 3578 L
1537 3579 L
1570 3582 L
1603 3585 L
1637 3589 L
1653 3594 L
1670 3594 L
1703 3599 L
1737 3605 L
1770 3612 L
1795 3620 L
1812 3625 L
1837 3629 L
1870 3639 L
1903 3651 L
1937 3664 L
1953 3678 L
1971 3678 L
2003 3694 L
2037 3711 L
2070 3730 L
2095 3751 L
2112 3762 L
2137 3772 L
2170 3795 L
2203 3819 L
2237 3844 L
2253 3869 L
2271 3870 L
2303 3894 L
2337 3918 L
2370 3941 L
2395 3964 L
2412 3975 L
2437 3984 L
2470 4003 L
2503 4019 L
2537 4034 L
2553 4046 L
2571 4047 L
2603 4057 L
2637 4065 L
2670 4072 L
2695 4077 L
2712 4079 L
2737 4080 L
2770 4083 L
2803 4084 L
2837 4085 L
2854 4086 L
2871 4086 L
2903 4086 L
2937 4086 L
2970 4086 L
2995 4086 L
3012 4086 L
3037 4086 L
3061 4086 L
3077 4086 L
3103 4086 L
3137 4086 L
3154 4086 L
3171 4086 L
3203 4086 L
3237 4086 L
3270 4086 L
3296 4086 L
3312 4086 L
3337 4086 L
3370 4086 L
3403 4086 L
3437 4086 L
3454 4086 L
3471 4086 L
3503 4086 L
3537 4086 L
3570 4086 L
3596 4086 L
3612 4086 L
3637 4086 L
3670 4086 L
3703 4086 L
3737 4086 L
3754 4086 L
3771 4086 L
3803 4086 L
3837 4086 L
3870 4086 L
3896 4086 L
3912 4086 L
3937 4086 L
3970 4086 L
4003 4086 L
4037 4086 L
4070 4086 L
LWMC SL dash04 C04 COSGR

GSN 753 2107 M
770 2107 L
803 2760 L
837 3155 L
870 3370 L
895 3473 L
911 3499 L
937 3515 L
970 3530 L
1003 3535 L
1037 3536 L
1053 3537 L
1070 3537 L
1103 3537 L
1137 3537 L
1170 3538 L
1195 3539 L
1211 3539 L
1237 3539 L
1270 3540 L
1303 3541 L
1337 3542 L
1353 3544 L
1370 3544 L
1403 3545 L
1437 3547 L
1470 3549 L
1495 3552 L
1512 3553 L
1537 3555 L
1570 3558 L
1603 3562 L
1637 3566 L
1653 3571 L
1670 3571 L
1703 3577 L
1737 3584 L
1770 3592 L
1795 3600 L
1812 3605 L
1837 3610 L
1870 3622 L
1903 3634 L
1937 3648 L
1953 3664 L
1971 3664 L
2003 3681 L
2037 3700 L
2070 3721 L
2095 3743 L
2112 3756 L
2137 3767 L
2170 3792 L
2203 3818 L
2237 3844 L
2253 3870 L
2271 3871 L
2303 3897 L
2337 3922 L
2370 3947 L
2395 3970 L
2412 3982 L
2437 3991 L
2470 4010 L
2503 4027 L
2537 4041 L
2553 4053 L
2571 4054 L
2603 4063 L
2637 4071 L
2670 4076 L
2695 4080 L
2712 4082 L
2737 4083 L
2770 4085 L
2803 4085 L
2837 4086 L
2854 4086 L
2871 4086 L
2903 4086 L
2937 4086 L
2970 4086 L
2995 4086 L
3012 4086 L
3037 4086 L
3061 4086 L
3077 4086 L
3103 4086 L
3137 4086 L
3154 4086 L
3171 4086 L
3203 4086 L
3237 4086 L
3270 4086 L
3296 4086 L
3312 4086 L
3337 4086 L
3370 4086 L
3403 4086 L
3437 4086 L
3454 4086 L
3471 4086 L
3503 4086 L
3537 4086 L
3570 4086 L
3596 4086 L
3612 4086 L
3637 4086 L
3670 4086 L
3703 4086 L
3737 4086 L
3754 4086 L
3771 4086 L
3803 4086 L
3837 4086 L
3870 4086 L
3896 4086 L
3912 4086 L
3937 4086 L
3970 4086 L
4003 4086 L
4037 4086 L
4070 4086 L
LWMC SL dash05 C05 COSGR

GSN 753 1790 M
770 1790 L
803 2549 L
837 3008 L
870 3257 L
895 3376 L
911 3407 L
937 3426 L
970 3443 L
1003 3448 L
1037 3450 L
1053 3450 L
1070 3451 L
1103 3451 L
1137 3452 L
1170 3452 L
1195 3453 L
1211 3454 L
1237 3454 L
1270 3455 L
1303 3457 L
1337 3458 L
1353 3460 L
1370 3460 L
1403 3462 L
1437 3464 L
1470 3467 L
1495 3470 L
1512 3472 L
1537 3474 L
1570 3478 L
1603 3483 L
1637 3488 L
1653 3495 L
1670 3495 L
1703 3502 L
1737 3511 L
1770 3520 L
1795 3531 L
1812 3538 L
1837 3544 L
1870 3558 L
1903 3574 L
1937 3591 L
1953 3611 L
1971 3611 L
2003 3632 L
2037 3656 L
2070 3681 L
2095 3708 L
2112 3723 L
2137 3736 L
2170 3766 L
2203 3797 L
2237 3828 L
2253 3859 L
2271 3860 L
2303 3889 L
2337 3919 L
2370 3946 L
2395 3972 L
2412 3984 L
2437 3995 L
2470 4015 L
2503 4033 L
2537 4047 L
2553 4059 L
2571 4060 L
2603 4068 L
2637 4075 L
2670 4080 L
2695 4083 L
2712 4084 L
2737 4084 L
2770 4085 L
2803 4086 L
2837 4086 L
2854 4086 L
2871 4086 L
2903 4086 L
2937 4086 L
2970 4086 L
2995 4086 L
3012 4086 L
3037 4086 L
3061 4086 L
3077 4086 L
3103 4086 L
3137 4086 L
3154 4086 L
3171 4086 L
3203 4086 L
3237 4086 L
3270 4086 L
3296 4086 L
3312 4086 L
3337 4086 L
3370 4086 L
3403 4086 L
3437 4086 L
3454 4086 L
3471 4086 L
3503 4086 L
3537 4086 L
3570 4086 L
3596 4086 L
3612 4086 L
3637 4086 L
3670 4086 L
3703 4086 L
3737 4086 L
3754 4086 L
3771 4086 L
3803 4086 L
3837 4086 L
3870 4086 L
3896 4086 L
3912 4086 L
3937 4086 L
3970 4086 L
4003 4086 L
4037 4086 L
4070 4086 L
LWMC SL dash06 C06 COSGR

GSN 753 753 M
770 753 L
803 1857 L
837 2525 L
870 2888 L
895 3062 L
911 3107 L
937 3134 L
970 3159 L
1003 3167 L
1037 3169 L
1053 3171 L
1070 3171 L
1103 3172 L
1137 3173 L
1170 3174 L
1195 3175 L
1211 3176 L
1237 3177 L
1270 3179 L
1303 3182 L
1337 3184 L
1353 3187 L
1370 3187 L
1403 3191 L
1437 3195 L
1470 3200 L
1495 3206 L
1512 3209 L
1537 3212 L
1570 3220 L
1603 3229 L
1637 3239 L
1653 3250 L
1670 3251 L
1703 3264 L
1737 3279 L
1770 3296 L
1795 3315 L
1812 3326 L
1837 3337 L
1870 3361 L
1903 3388 L
1937 3418 L
1953 3451 L
1971 3452 L
2003 3486 L
2037 3525 L
2070 3565 L
2095 3608 L
2112 3632 L
2137 3653 L
2170 3698 L
2203 3744 L
2237 3789 L
2253 3833 L
2271 3835 L
2303 3875 L
2337 3914 L
2370 3950 L
2395 3981 L
2412 3996 L
2437 4008 L
2470 4030 L
2503 4048 L
2537 4061 L
2553 4071 L
2571 4071 L
2603 4078 L
2637 4082 L
2670 4084 L
2695 4085 L
2712 4086 L
2737 4086 L
2770 4086 L
2803 4086 L
2837 4086 L
2854 4086 L
2871 4086 L
2903 4086 L
2937 4086 L
2970 4086 L
2995 4086 L
3012 4086 L
3037 4086 L
3061 4086 L
3077 4086 L
3103 4086 L
3137 4086 L
3154 4086 L
3171 4086 L
3203 4086 L
3237 4086 L
3270 4086 L
3296 4086 L
3312 4086 L
3337 4086 L
3370 4086 L
3403 4086 L
3437 4086 L
3454 4086 L
3471 4086 L
3503 4086 L
3537 4086 L
3570 4086 L
3596 4086 L
3612 4086 L
3637 4086 L
3670 4086 L
3703 4086 L
3737 4086 L
3754 4086 L
3771 4086 L
3803 4086 L
3837 4086 L
3870 4086 L
3896 4086 L
3912 4086 L
3937 4086 L
3970 4086 L
4003 4086 L
4037 4086 L
4070 4086 L
LWMC SL dash07 C07 COSGR

%
%================
% Legend - Begin
%================
%
GSN 4240 4040 M
4480 4040 L
LWMC SL dash01 C01 COSGR
GSN 4540 4001 M helvM (0.5 uM) show grestore
GSN 4240 3860 M
4480 3860 L
LWMC SL dash02 C02 COSGR
GSN 4540 3821 M helvM (1.0 uM) show grestore
GSN 4240 3680 M
4480 3680 L
LWMC SL dash03 C03 COSGR
GSN 4540 3641 M helvM (1.5 uM) show grestore
GSN 4240 3500 M
4480 3500 L
LWMC SL dash04 C04 COSGR
GSN 4540 3461 M helvM (2.0 uM) show grestore
GSN 4240 3320 M
4480 3320 L
LWMC SL dash05 C05 COSGR
GSN 4540 3281 M helvM (2.5 uM) show grestore
GSN 4240 3140 M
4480 3140 L
LWMC SL dash06 C06 COSGR
GSN 4540 3101 M helvM (3.0 uM) show grestore
GSN 4240 2960 M
4480 2960 L
LWMC SL dash07 C07 COSGR
GSN 4540 2921 M helvM (4.0 uM) show grestore
%
%================
% Legend - End
%================
%

%
% Main frame
%
L10
GSN 
620 620 M
4220 620 L
4220 4220 L
620 4220 L
closepath SGR

%
% X axis: large tics
%
L10
GSN 1074 620 M 0  54 rL SGR
GSN 1074 4220 M 0 -54 rL SGR
helvS (0.0001) 1074 470 xlabel
GSN 1572 620 M 0  54 rL SGR
GSN 1572 4220 M 0 -54 rL SGR
helvS (0.001) 1572 470 xlabel
GSN 2071 620 M 0  54 rL SGR
GSN 2071 4220 M 0 -54 rL SGR
helvS (0.01) 2071 470 xlabel
GSN 2570 620 M 0  54 rL SGR
GSN 2570 4220 M 0 -54 rL SGR
helvS (0.1) 2570 470 xlabel
GSN 3068 620 M 0  54 rL SGR
GSN 3068 4220 M 0 -54 rL SGR
helvS (1) 3068 470 xlabel
GSN 3567 620 M 0  54 rL SGR
GSN 3567 4220 M 0 -54 rL SGR
helvS (10) 3567 470 xlabel
GSN 4066 620 M 0  54 rL SGR
GSN 4066 4220 M 0 -54 rL SGR
helvS (100) 4066 470 xlabel
%
% X axis: small tics
%
L5
GSN 725 620 M 0  36 rL SGR
GSN 725 4220 M 0 -36 rL SGR
GSN 813 620 M 0  36 rL SGR
GSN 813 4220 M 0 -36 rL SGR
GSN 875 620 M 0  36 rL SGR
GSN 875 4220 M 0 -36 rL SGR
GSN 924 620 M 0  36 rL SGR
GSN 924 4220 M 0 -36 rL SGR
GSN 963 620 M 0  36 rL SGR
GSN 963 4220 M 0 -36 rL SGR
GSN 996 620 M 0  36 rL SGR
GSN 996 4220 M 0 -36 rL SGR
GSN 1025 620 M 0  36 rL SGR
GSN 1025 4220 M 0 -36 rL SGR
GSN 1051 620 M 0  36 rL SGR
GSN 1051 4220 M 0 -36 rL SGR
GSN 1224 620 M 0  36 rL SGR
GSN 1224 4220 M 0 -36 rL SGR
GSN 1312 620 M 0  36 rL SGR
GSN 1312 4220 M 0 -36 rL SGR
GSN 1374 620 M 0  36 rL SGR
GSN 1374 4220 M 0 -36 rL SGR
GSN 1422 620 M 0  36 rL SGR
GSN 1422 4220 M 0 -36 rL SGR
GSN 1462 620 M 0  36 rL SGR
GSN 1462 4220 M 0 -36 rL SGR
GSN 1495 620 M 0  36 rL SGR
GSN 1495 4220 M 0 -36 rL SGR
GSN 1524 620 M 0  36 rL SGR
GSN 1524 4220 M 0 -36 rL SGR
GSN 1550 620 M 0  36 rL SGR
GSN 1550 4220 M 0 -36 rL SGR
GSN 1722 620 M 0  36 rL SGR
GSN 1722 4220 M 0 -36 rL SGR
GSN 1810 620 M 0  36 rL SGR
GSN 1810 4220 M 0 -36 rL SGR
GSN 1873 620 M 0  36 rL SGR
GSN 1873 4220 M 0 -36 rL SGR
GSN 1921 620 M 0  36 rL SGR
GSN 1921 4220 M 0 -36 rL SGR
GSN 1960 620 M 0  36 rL SGR
GSN 1960 4220 M 0 -36 rL SGR
GSN 1994 620 M 0  36 rL SGR
GSN 1994 4220 M 0 -36 rL SGR
GSN 2023 620 M 0  36 rL SGR
GSN 2023 4220 M 0 -36 rL SGR
GSN 2048 620 M 0  36 rL SGR
GSN 2048 4220 M 0 -36 rL SGR
GSN 2221 620 M 0  36 rL SGR
GSN 2221 4220 M 0 -36 rL SGR
GSN 2309 620 M 0  36 rL SGR
GSN 2309 4220 M 0 -36 rL SGR
GSN 2371 620 M 0  36 rL SGR
GSN 2371 4220 M 0 -36 rL SGR
GSN 2420 620 M 0  36 rL SGR
GSN 2420 4220 M 0 -36 rL SGR
GSN 2459 620 M 0  36 rL SGR
GSN 2459 4220 M 0 -36 rL SGR
GSN 2492 620 M 0  36 rL SGR
GSN 2492 4220 M 0 -36 rL SGR
GSN 2521 620 M 0  36 rL SGR
GSN 2521 4220 M 0 -36 rL SGR
GSN 2547 620 M 0  36 rL SGR
GSN 2547 4220 M 0 -36 rL SGR
GSN 2720 620 M 0  36 rL SGR
GSN 2720 4220 M 0 -36 rL SGR
GSN 2808 620 M 0  36 rL SGR
GSN 2808 4220 M 0 -36 rL SGR
GSN 2870 620 M 0  36 rL SGR
GSN 2870 4220 M 0 -36 rL SGR
GSN 2918 620 M 0  36 rL SGR
GSN 2918 4220 M 0 -36 rL SGR
GSN 2958 620 M 0  36 rL SGR
GSN 2958 4220 M 0 -36 rL SGR
GSN 2991 620 M 0  36 rL SGR
GSN 2991 4220 M 0 -36 rL SGR
GSN 3020 620 M 0  36 rL SGR
GSN 3020 4220 M 0 -36 rL SGR
GSN 3045 620 M 0  36 rL SGR
GSN 3045 4220 M 0 -36 rL SGR
GSN 3218 620 M 0  36 rL SGR
GSN 3218 4220 M 0 -36 rL SGR
GSN 3306 620 M 0  36 rL SGR
GSN 3306 4220 M 0 -36 rL SGR
GSN 3368 620 M 0  36 rL SGR
GSN 3368 4220 M 0 -36 rL SGR
GSN 3417 620 M 0  36 rL SGR
GSN 3417 4220 M 0 -36 rL SGR
GSN 3456 620 M 0  36 rL SGR
GSN 3456 4220 M 0 -36 rL SGR
GSN 3490 620 M 0  36 rL SGR
GSN 3490 4220 M 0 -36 rL SGR
GSN 3519 620 M 0  36 rL SGR
GSN 3519 4220 M 0 -36 rL SGR
GSN 3544 620 M 0  36 rL SGR
GSN 3544 4220 M 0 -36 rL SGR
GSN 3717 620 M 0  36 rL SGR
GSN 3717 4220 M 0 -36 rL SGR
GSN 3805 620 M 0  36 rL SGR
GSN 3805 4220 M 0 -36 rL SGR
GSN 3867 620 M 0  36 rL SGR
GSN 3867 4220 M 0 -36 rL SGR
GSN 3915 620 M 0  36 rL SGR
GSN 3915 4220 M 0 -36 rL SGR
GSN 3955 620 M 0  36 rL SGR
GSN 3955 4220 M 0 -36 rL SGR
GSN 3988 620 M 0  36 rL SGR
GSN 3988 4220 M 0 -36 rL SGR
GSN 4017 620 M 0  36 rL SGR
GSN 4017 4220 M 0 -36 rL SGR
GSN 4043 620 M 0  36 rL SGR
GSN 4043 4220 M 0 -36 rL SGR
GSN 4216 620 M 0  36 rL SGR
GSN 4216 4220 M 0 -36 rL SGR
%
% Y axis: large tics
%
L10
GSN 620 1511 M 54 0 rL SGR
GSN 4220 1511 M -54 0 rL SGR
helvS (-10) 560 1511 ylabel
GSN 620 2799 M 54 0 rL SGR
GSN 4220 2799 M -54 0 rL SGR
helvS (-5) 560 2799 ylabel
GSN 620 4086 M 54 0 rL SGR
GSN 4220 4086 M -54 0 rL SGR
helvS (0) 560 4086 ylabel
%
% Y axis: small tics
%
L5
GSN 620 739 M 36 0 rL SGR
GSN 4220 739 M -36 0 rL SGR
GSN 620 996 M 36 0 rL SGR
GSN 4220 996 M -36 0 rL SGR
GSN 620 1254 M 36 0 rL SGR
GSN 4220 1254 M -36 0 rL SGR
GSN 620 1511 M 36 0 rL SGR
GSN 4220 1511 M -36 0 rL SGR
GSN 620 1769 M 36 0 rL SGR
GSN 4220 1769 M -36 0 rL SGR
GSN 620 2026 M 36 0 rL SGR
GSN 4220 2026 M -36 0 rL SGR
GSN 620 2284 M 36 0 rL SGR
GSN 4220 2284 M -36 0 rL SGR
GSN 620 2541 M 36 0 rL SGR
GSN 4220 2541 M -36 0 rL SGR
GSN 620 2799 M 36 0 rL SGR
GSN 4220 2799 M -36 0 rL SGR
GSN 620 3056 M 36 0 rL SGR
GSN 4220 3056 M -36 0 rL SGR
GSN 620 3314 M 36 0 rL SGR
GSN 4220 3314 M -36 0 rL SGR
GSN 620 3571 M 36 0 rL SGR
GSN 4220 3571 M -36 0 rL SGR
GSN 620 3829 M 36 0 rL SGR
GSN 4220 3829 M -36 0 rL SGR
GSN 620 4086 M 36 0 rL SGR
GSN 4220 4086 M -36 0 rL SGR

%
% X axis
%
GSN L5 620 4086 M 4220 4086 L SDA G50 SGR

%
% X-Axis label:
%
gsave 2420 290 M 
[
[(Helvetica) 180 0 true true 0 (t)]
[(Helvetica) 180 0 true true 0 (i)]
[(Helvetica) 180 0 true true 0 (m)]
[(Helvetica) 180 0 true true 0 (e)]
] 0 MCshow grestore

%
% Y-Axis label:
%
gsave 234 2420 M 
currentpoint gsave translate 90 rotate 0 0 moveto
[
[(Helvetica) 180 0 true true 0 (d)]
[(Helvetica) 180 0 true true 0 (\()]
[(Helvetica) 180 0 true true 0 (s)]
[(Helvetica) 180 0 true true 0 (i)]
[(Helvetica) 180 0 true true 0 (g)]
[(Helvetica) 180 0 true true 0 (n)]
[(Helvetica) 180 0 true true 0 (a)]
[(Helvetica) 180 0 true true 0 (l)]
[(Helvetica) 180 0 true true 0 (\))]
[(Helvetica) 180 0 true true 0 ( )]
[(Helvetica) 180 0 true true 0 (/)]
[(Helvetica) 180 0 true true 0 ( )]
[(Helvetica) 180 0 true true 0 (d)]
[(Helvetica) 180 0 true true 0 (t)]
] 0 MCshow grestore

end
showpage
%%Trailer
%%EOF
