%!PS-Adobe-3.0 EPSF-3.0
%%BoundingBox: 0 0 514 550
%%Creator: BioKin Ltd.
%%DocumentFonts: Symbol Helvetica
%%EndComments
%
/bkdict 256 dict def
bkdict begin
/M {moveto} def 
/R {rmoveto} def
/L {lineto} def
/rL {rlineto} def
/GSN {gsave newpath} def
/SGR {stroke grestore} def
/COSGR {gsave setrgbcolor stroke grestore grestore} def
/SL {setlinewidth} def
/LWMB {12} def             % line width - model curves, black & white
/LWMC {10} def             % line width - model curves, color
/L2 {2.5 setlinewidth} def
/L5 {5 setlinewidth} def
/L10 {10 setlinewidth} def
/G50 {0.5 setgray} def
/SDA {[10  20] 0 setdash} def % axes
/helvT {/Helvetica findfont 100 scalefont setfont} def % tiny
/helvS {/Helvetica findfont 125 scalefont setfont} def % small
/helvM {/Helvetica findfont 150 scalefont setfont} def % medium
/helvL {/Helvetica findfont 175 scalefont setfont} def % large
/xlabel {gsave M dup
   stringwidth exch -0.5 mul exch rmoveto show grestore} def 
/ylabel {gsave M 90 rotate dup
   stringwidth exch -0.5 mul exch rmoveto show grestore} def
/ylabelresid {gsave M dup
   stringwidth exch -1 mul exch rmoveto show grestore} def
% ======
% Shapes
% ======
% Circle:
/Circ {0 360 arc closepath} def
%
% Square:
/Squa {dup dup -0.5 mul dup dup R -2 mul 0 exch rL 1 mul 0 rL dup 0 exch -1 mul rL closepath} def
%
% Triangle Up:
/TriU {dup dup dup -0.4 mul exch -0.5 mul exch R dup 0.5 mul exch rL dup -1 mul exch 0.5 mul exch rL closepath} def 
%
% Triangle Down:
/TriD {dup dup dup 0.4 mul exch -0.5 mul exch R dup 0.5 mul exch -1 mul rL dup 0.5 mul exch rL closepath} def 
%
% Diamond:
/Diam {45 rotate Squa} def
% ======
% Fills
% ======
/GRF {gsave setgray fill grestore} def                    % gray-level Fill
/COF {gsave setrgbcolor fill grestore} def                % color fill
% ======
% Colors
% ======
/C01 {1.00	0.00	0.00} def      % Red
/C02 {0.00	0.00	1.00} def      % Blue
/C03 {0.00	0.39	0.00} def      % Dark Green
/C04 {0.78	0.08	0.52} def      % Medium Violet Red
/C05 {0.55	0.27	0.07} def      % Saddle Brown
/C06 {0.10	0.70	0.70} def      % (cyan)
/C07 {1.00	0.55	0.00} def      % Dark Orange
/C08 {0.63	0.13	0.94} def      % Purple
/C09 {0.00	0.75	1.00} def      % Deep Sky Blue
/C10 {0.20	0.80	0.20} def      % Lime Green
/C11 {0.47	0.53	0.60} def      % Light Slate Gray
/C12 {0.00	0.00	0.00} def      % Black            % or: {0.19	0.31	0.31} def      % Dark Slate Gray
%
/LGR {0.75} def % light gray
/DGR {0.33} def % dark gray
%
% =============
% Dash patterns
% =============
/dash01 { [80  20] 0 setdash } def
/dash02 { [40  20] 0 setdash } def
/dash03 { [80  20  10  20] 0 setdash } def
/dash04 { [40  20  10  20] 0 setdash } def
/dash05 { [80  20  10  10  10  20] 0 setdash } def
/dash06 { [40  20  10  10  10  20] 0 setdash } def
/dash07 { [10  10] 0 setdash } def
%
/MFshow {
   { dup 5 get 3 ge
     { 5 get 3 eq {gsave} {grestore} ifelse }
     {dup dup 0 get findfont exch 1 get scalefont setfont
     [ currentpoint ] exch dup 2 get 0 exch R dup 5 get 2 ne {dup dup 6
     get exch 4 get {show} {stringwidth pop 0 R} ifelse }if dup 5 get 0 eq
     {dup 3 get {2 get neg 0 exch R pop} {pop aload pop M} ifelse} {dup 5
     get 1 eq {dup 2 get exch dup 3 get exch 6 get stringwidth pop -2 div
     dup 0 R} {dup 6 get stringwidth pop -2 div 0 R 6 get
     show 2 index {aload pop M neg 3 -1 roll neg R pop pop} {pop pop pop
     pop aload pop M} ifelse }ifelse }ifelse }
     ifelse }
   forall} bind def
/MFwidth {0 exch {dup 3 get{dup dup 0 get findfont exch 1 get scalefont
     setfont 6 get stringwidth pop add} {pop} ifelse} forall} bind def
/MCshow { currentpoint stroke M
  exch dup MFwidth -2 div 3 -1 roll R MFshow } def
%
end
%%EndProlog
bkdict begin
0.1 0.1 scale
%
% Residuals:
%
GSN 620 3341 M
620 3339 L
620 3418 L
620 3682 L
620 3290 L
620 3028 L
620 3066 L
620 2985 L
620 2946 L
620 3041 L
620 3206 L
620 3334 L
620 3701 L
620 3885 L
620 3282 L
620 3904 L
620 3621 L
620 3333 L
620 3289 L
620 3341 L
620 3832 L
620 3419 L
620 3284 L
620 3980 L
620 3855 L
620 3481 L
620 3149 L
620 2984 L
620 3448 L
620 3514 L
620 3414 L
620 3604 L
620 3308 L
620 3296 L
620 3661 L
620 3235 L
620 3381 L
620 3240 L
620 3658 L
620 3491 L
620 3241 L
620 2945 L
620 3153 L
620 3047 L
620 3144 L
620 3242 L
620 3366 L
620 3328 L
620 3539 L
620 3082 L
620 3119 L
620 3288 L
620 3409 L
620 3239 L
620 2927 L
620 3428 L
620 3298 L
620 3741 L
620 3332 L
620 3037 L
620 3037 L
620 3398 L
620 3283 L
620 3218 L
620 3542 L
620 3333 L
620 3801 L
620 3327 L
620 3133 L
620 3442 L
620 3355 L
620 3140 L
620 3210 L
620 3400 L
620 3297 L
620 3148 L
620 2958 L
620 3075 L
620 3310 L
620 3434 L
620 3110 L
620 3195 L
620 3619 L
620 3228 L
620 3482 L
620 3213 L
620 3380 L
620 3088 L
620 3535 L
620 3380 L
620 3076 L
620 3395 L
620 3570 L
620 3353 L
620 3455 L
620 3276 L
620 3361 L
620 3104 L
620 2772 L
620 3171 L
620 3156 L
620 3288 L
620 3241 L
620 3051 L
620 2857 L
620 3181 L
620 3303 L
620 3248 L
620 3113 L
620 3250 L
620 3352 L
620 2995 L
620 2978 L
620 3681 L
620 3554 L
620 3466 L
620 3259 L
620 2912 L
620 3992 L
620 3193 L
620 2978 L
620 3350 L
620 3559 L
620 3336 L
620 3169 L
620 3293 L
620 3140 L
620 3384 L
620 3224 L
620 3251 L
620 3704 L
620 2925 L
620 3132 L
620 3234 L
620 3390 L
620 3327 L
620 2945 L
620 3086 L
620 3317 L
620 3401 L
620 3418 L
620 3522 L
620 3439 L
620 2991 L
620 3123 L
620 3366 L
620 3398 L
620 3262 L
620 3557 L
620 3222 L
620 3313 L
620 3210 L
620 3458 L
620 3160 L
620 3503 L
620 3337 L
620 2675 L
620 3357 L
620 3174 L
620 3412 L
620 3131 L
620 3434 L
620 3148 L
620 2885 L
620 3152 L
620 3580 L
620 3541 L
620 3137 L
620 3340 L
620 3496 L
620 3477 L
620 3128 L
620 3393 L
620 3414 L
620 3190 L
620 3433 L
620 3361 L
620 3321 L
620 3329 L
620 3232 L
620 3210 L
620 3445 L
620 3234 L
620 3321 L
620 2748 L
620 3629 L
620 3454 L
620 3158 L
620 3098 L
620 3520 L
620 3609 L
620 3330 L
620 3610 L
620 3268 L
620 3223 L
620 3300 L
620 3120 L
620 3537 L
620 3300 L
620 3509 L
620 3379 L
620 3463 L
620 3578 L
620 3221 L
620 3250 L
620 3417 L
620 3684 L
620 3384 L
620 3179 L
620 3629 L
620 3504 L
620 3244 L
620 3413 L
620 3175 L
620 3359 L
620 3189 L
620 3580 L
620 3292 L
620 3513 L
620 3103 L
620 3120 L
620 3447 L
620 3270 L
620 3189 L
620 3005 L
620 3657 L
620 3137 L
620 3459 L
620 3255 L
620 3850 L
620 3377 L
620 3415 L
620 3459 L
620 3262 L
620 3839 L
620 3196 L
620 3373 L
620 3447 L
620 3234 L
620 3484 L
620 3304 L
620 3415 L
620 3756 L
620 3542 L
620 3480 L
620 3574 L
620 3149 L
620 3842 L
620 3927 L
620 3590 L
620 3011 L
620 3591 L
620 3389 L
620 3372 L
620 3687 L
620 3140 L
620 3528 L
620 3309 L
620 3728 L
620 3407 L
620 3428 L
620 3590 L
620 3135 L
620 3591 L
620 3640 L
620 3554 L
620 3349 L
620 3549 L
620 3172 L
620 3362 L
620 3251 L
620 3447 L
620 3089 L
620 3751 L
620 3494 L
620 3583 L
620 3467 L
620 3457 L
620 3210 L
620 3822 L
620 3583 L
620 3890 L
620 3565 L
620 3884 L
620 3617 L
620 3479 L
620 3289 L
620 3619 L
620 3320 L
620 3545 L
620 3193 L
620 3651 L
620 3699 L
620 3423 L
620 3409 L
620 3647 L
620 3315 L
620 3258 L
620 3031 L
620 3542 L
620 3880 L
620 3344 L
620 3623 L
620 3708 L
620 3505 L
620 3651 L
620 3070 L
620 3458 L
620 3897 L
620 3380 L
620 3221 L
620 3453 L
620 3490 L
620 4207 L
620 3423 L
620 3039 L
620 3406 L
620 3310 L
620 3467 L
620 3226 L
620 3487 L
620 3284 L
620 3456 L
620 3699 L
620 3331 L
620 3330 L
620 3191 L
620 3552 L
620 3285 L
620 3229 L
620 3332 L
620 3288 L
620 3455 L
620 3773 L
620 3331 L
620 3435 L
620 3379 L
620 3061 L
620 3444 L
620 3157 L
620 3543 L
620 3984 L
620 3183 L
620 3282 L
620 3715 L
620 3131 L
620 3484 L
620 3531 L
620 3596 L
620 3675 L
620 3870 L
620 3412 L
620 3575 L
620 3470 L
620 3363 L
620 3429 L
620 3530 L
620 3218 L
620 3316 L
620 3234 L
620 3364 L
620 3199 L
620 3765 L
620 3227 L
620 3961 L
620 3344 L
620 3102 L
620 3366 L
620 3554 L
620 3750 L
620 3605 L
620 3474 L
620 3829 L
620 3531 L
620 3372 L
620 3129 L
620 3450 L
620 3802 L
620 3280 L
620 3537 L
620 3867 L
620 3401 L
620 3360 L
620 3337 L
620 3689 L
620 3627 L
620 3307 L
620 3550 L
620 3331 L
620 3447 L
620 3794 L
620 3481 L
620 3726 L
620 3843 L
620 3235 L
620 3337 L
620 3865 L
620 3753 L
620 3363 L
620 3543 L
620 3522 L
620 3951 L
620 3707 L
620 3567 L
620 3839 L
620 3398 L
620 3848 L
620 3833 L
620 3143 L
620 3347 L
620 3403 L
620 3519 L
620 3311 L
620 3807 L
620 3298 L
620 3287 L
620 3386 L
620 3373 L
620 3395 L
620 3497 L
620 3220 L
620 3505 L
620 3482 L
620 3437 L
620 3497 L
620 3238 L
620 3567 L
620 3445 L
620 3198 L
620 3282 L
620 3299 L
620 3432 L
620 2932 L
620 3411 L
620 3557 L
620 3573 L
620 3398 L
620 3540 L
620 3412 L
620 3325 L
620 3098 L
620 3045 L
620 3333 L
620 3110 L
620 3510 L
620 3162 L
620 3344 L
620 3308 L
620 3595 L
620 3329 L
620 3554 L
620 3201 L
620 3474 L
620 3375 L
620 3201 L
620 3233 L
620 2848 L
620 3508 L
620 3045 L
620 3204 L
620 3292 L
620 3203 L
620 3101 L
620 2897 L
620 3356 L
620 3189 L
620 2991 L
620 3058 L
620 2897 L
620 3301 L
620 3161 L
620 3167 L
620 3058 L
620 2762 L
620 3230 L
620 3248 L
620 3239 L
620 3051 L
620 3116 L
620 3470 L
620 2682 L
620 3387 L
620 2908 L
620 3186 L
620 3206 L
620 3180 L
620 2901 L
620 3461 L
620 3136 L
620 3331 L
620 3044 L
620 2733 L
620 2967 L
620 2989 L
620 3139 L
620 2955 L
620 2977 L
620 2864 L
620 2595 L
620 2814 L
620 3060 L
620 2973 L
620 2749 L
620 3078 L
620 3024 L
620 2971 L
620 3289 L
620 2674 L
620 2844 L
620 3172 L
620 2555 L
620 3022 L
620 3150 L
620 3068 L
620 3065 L
620 2748 L
620 3070 L
620 2843 L
620 3102 L
620 2253 L
620 3221 L
620 2820 L
620 2683 L
620 2901 L
620 2690 L
620 2716 L
620 2904 L
620 2946 L
620 2948 L
620 2808 L
620 2945 L
620 2849 L
620 2709 L
620 3044 L
620 2668 L
620 3207 L
620 2726 L
620 2569 L
620 3001 L
620 2804 L
620 2773 L
620 3005 L
620 3154 L
620 2778 L
620 2843 L
620 2826 L
620 2693 L
620 2794 L
620 2422 L
620 2789 L
620 2528 L
620 2387 L
620 2576 L
620 2702 L
620 2578 L
620 2422 L
620 2848 L
620 2723 L
620 2331 L
620 2794 L
620 2606 L
620 3219 L
620 2583 L
620 2578 L
620 2437 L
620 2519 L
620 2668 L
620 3006 L
620 2961 L
620 2811 L
620 2596 L
620 2758 L
620 2650 L
620 2847 L
620 2543 L
620 2546 L
620 3050 L
620 2485 L
620 2601 L
620 2631 L
620 2666 L
620 2885 L
620 2724 L
620 2407 L
620 2560 L
620 2555 L
620 2719 L
620 2795 L
620 2527 L
620 2525 L
620 2543 L
620 2388 L
620 2499 L
620 2606 L
620 2699 L
620 2760 L
620 2420 L
620 2604 L
620 2549 L
620 2423 L
620 2369 L
620 2393 L
620 2532 L
620 2694 L
620 2806 L
620 2528 L
620 2885 L
620 2618 L
620 2962 L
620 2454 L
620 2576 L
620 2691 L
620 3011 L
620 2708 L
620 2187 L
620 2533 L
620 2723 L
620 2432 L
620 2643 L
620 2636 L
620 2329 L
620 2599 L
620 2558 L
620 2602 L
620 2823 L
620 2460 L
620 2509 L
620 2853 L
620 2705 L
620 2492 L
620 2842 L
620 2553 L
620 2471 L
620 2546 L
620 2391 L
620 2547 L
620 2493 L
620 2142 L
620 2726 L
620 2565 L
620 2625 L
620 2463 L
620 2855 L
620 2500 L
620 2238 L
620 2333 L
620 2255 L
620 2425 L
620 2880 L
620 2454 L
620 2675 L
620 2757 L
620 2755 L
620 2153 L
620 2359 L
620 2637 L
620 2847 L
620 2593 L
620 2603 L
620 2719 L
620 2412 L
620 2510 L
620 2838 L
620 2697 L
620 2503 L
620 2261 L
620 2849 L
620 2583 L
620 3208 L
620 2691 L
620 3132 L
620 2708 L
620 3045 L
620 2182 L
620 2506 L
620 2634 L
620 2423 L
620 2890 L
620 2286 L
620 2800 L
620 2385 L
620 2682 L
620 2631 L
620 2258 L
620 2776 L
620 2236 L
620 2767 L
620 2455 L
620 2899 L
620 2547 L
620 2608 L
620 2643 L
620 2561 L
620 2367 L
620 2572 L
620 2788 L
620 2611 L
620 2565 L
620 2701 L
620 2471 L
620 2398 L
620 2230 L
620 2677 L
620 2411 L
620 2815 L
620 2494 L
620 2597 L
620 2576 L
620 2136 L
620 2474 L
620 2984 L
620 2677 L
620 2339 L
620 2498 L
620 2694 L
620 2619 L
620 2666 L
620 2472 L
620 2446 L
620 2640 L
620 2693 L
620 2707 L
620 2249 L
620 2928 L
620 2414 L
620 2792 L
620 2551 L
620 3097 L
620 2342 L
620 2767 L
620 2564 L
620 2490 L
620 2534 L
620 2749 L
620 2872 L
620 2831 L
620 2684 L
620 2620 L
620 2887 L
620 2340 L
620 2401 L
620 2699 L
620 2405 L
620 2717 L
620 2874 L
620 2542 L
620 2763 L
620 2456 L
620 2662 L
620 2444 L
620 2827 L
620 2522 L
620 2793 L
620 2693 L
620 2817 L
620 2708 L
620 2570 L
620 2421 L
620 2883 L
620 2858 L
620 2773 L
620 2463 L
620 2592 L
620 2856 L
620 2884 L
620 2536 L
620 2717 L
620 2700 L
620 2699 L
620 2656 L
620 2845 L
620 2537 L
620 2714 L
620 2701 L
620 2579 L
620 3086 L
620 2516 L
620 2782 L
620 2812 L
620 2862 L
620 2617 L
620 2644 L
620 2728 L
620 3032 L
620 2431 L
620 2971 L
620 2536 L
620 2765 L
620 2939 L
620 2464 L
620 2534 L
620 2818 L
620 2707 L
620 2788 L
620 2692 L
620 2612 L
620 2800 L
620 2583 L
620 2916 L
620 2777 L
620 2867 L
620 2438 L
620 2591 L
620 2646 L
620 2681 L
620 2471 L
620 2610 L
620 2299 L
620 3020 L
620 2550 L
620 2943 L
620 2959 L
620 2592 L
620 2473 L
620 2920 L
620 3026 L
620 2762 L
620 2535 L
620 2577 L
620 2670 L
620 2793 L
620 2594 L
620 3055 L
620 2641 L
620 2775 L
620 2802 L
620 3009 L
620 2323 L
620 3129 L
620 2571 L
620 2655 L
620 2954 L
620 2502 L
620 2672 L
620 2737 L
620 2971 L
620 2844 L
620 3207 L
620 2503 L
620 2677 L
620 2838 L
620 2499 L
620 2782 L
620 2730 L
620 2694 L
620 2367 L
620 2702 L
620 2751 L
620 2719 L
620 2727 L
620 2671 L
620 3221 L
620 2741 L
620 2943 L
620 3024 L
620 3085 L
620 2994 L
620 2643 L
620 2920 L
620 3246 L
620 2876 L
620 2628 L
620 2954 L
620 2504 L
620 2923 L
620 2584 L
620 2891 L
620 2888 L
620 3223 L
620 2755 L
620 2602 L
620 2886 L
620 3473 L
620 2567 L
620 2401 L
620 2931 L
620 2762 L
620 2807 L
620 2777 L
620 2637 L
620 3001 L
620 2443 L
620 3109 L
620 2605 L
620 3162 L
620 2539 L
620 3114 L
620 2842 L
620 2612 L
620 2925 L
620 2935 L
620 3047 L
620 2753 L
620 2902 L
620 2861 L
620 2631 L
620 2926 L
620 2654 L
620 2582 L
620 2861 L
620 2790 L
620 2589 L
620 2945 L
620 3068 L
620 2850 L
620 2807 L
620 2999 L
620 2982 L
620 2585 L
620 2960 L
620 2466 L
620 2753 L
620 2690 L
620 2981 L
620 3023 L
620 3167 L
620 2694 L
620 2665 L
620 2839 L
620 2816 L
620 2814 L
620 2687 L
620 2719 L
620 2869 L
620 3066 L
620 2841 L
620 2932 L
620 2793 L
620 2925 L
620 2779 L
620 3420 L
620 2816 L
620 3022 L
620 3103 L
620 2774 L
620 3086 L
620 2800 L
620 3429 L
620 2850 L
620 2941 L
620 3170 L
620 2819 L
620 2400 L
620 3009 L
620 2814 L
620 3180 L
620 3044 L
620 2440 L
620 3057 L
620 3198 L
620 3164 L
620 3128 L
620 2861 L
620 2887 L
620 2899 L
620 2855 L
620 3255 L
620 2758 L
620 3106 L
620 3055 L
620 2922 L
620 3050 L
620 2946 L
620 3096 L
620 3028 L
620 2972 L
620 2830 L
620 2803 L
620 2401 L
620 2832 L
620 2383 L
620 3012 L
620 2488 L
620 3094 L
620 3127 L
620 2769 L
620 3080 L
620 2784 L
620 2982 L
620 3666 L
620 3126 L
620 2899 L
620 2512 L
620 2995 L
620 2805 L
620 3151 L
620 2842 L
620 2855 L
620 3011 L
620 3360 L
620 2773 L
620 3045 L
620 2992 L
620 2713 L
620 2959 L
620 2801 L
620 3234 L
620 2784 L
620 3610 L
620 2866 L
620 3164 L
620 3151 L
620 3055 L
620 2856 L
620 3328 L
620 2960 L
620 3042 L
620 3339 L
620 2689 L
620 2917 L
620 3066 L
620 2904 L
620 3180 L
620 2889 L
620 2848 L
620 3290 L
620 2910 L
620 3106 L
620 2850 L
620 3062 L
620 2903 L
620 3273 L
620 2851 L
620 3308 L
620 3157 L
620 3098 L
620 2683 L
620 2815 L
620 2920 L
620 2760 L
620 2951 L
620 3214 L
620 2870 L
620 2951 L
620 2858 L
620 3033 L
620 3052 L
620 2870 L
620 3007 L
620 2909 L
620 2955 L
620 2874 L
620 2939 L
620 2931 L
620 2880 L
620 3249 L
620 2790 L
620 3111 L
620 3360 L
620 3142 L
620 3334 L
620 3154 L
620 3051 L
620 3297 L
620 3169 L
620 3312 L
620 3414 L
620 3339 L
620 2866 L
620 3085 L
620 2995 L
620 2895 L
620 3030 L
620 3066 L
620 3052 L
620 3113 L
620 3139 L
620 3106 L
620 3240 L
620 3298 L
620 2885 L
620 3222 L
620 2830 L
620 2995 L
620 3328 L
620 3334 L
620 2935 L
620 3132 L
620 3445 L
620 3352 L
620 2947 L
620 3242 L
620 2950 L
620 2959 L
620 3258 L
620 3137 L
620 3107 L
620 3038 L
620 2640 L
620 3217 L
620 3415 L
620 2907 L
620 3277 L
620 2823 L
620 3174 L
620 3144 L
620 3031 L
620 3203 L
620 3306 L
620 3212 L
620 3245 L
620 3033 L
620 2789 L
620 3161 L
620 3756 L
620 3305 L
620 3182 L
620 3032 L
620 3167 L
620 2975 L
620 3107 L
620 3133 L
620 3461 L
620 2978 L
620 3319 L
620 3004 L
620 3367 L
620 3362 L
620 3299 L
620 3419 L
620 3128 L
620 3117 L
620 3056 L
620 2950 L
620 3296 L
620 3431 L
620 2952 L
620 3242 L
620 3046 L
620 4086 L
620 3358 L
620 2997 L
620 2929 L
620 3140 L
620 3631 L
620 3243 L
620 3168 L
620 3092 L
620 3300 L
620 2977 L
620 3439 L
620 3365 L
620 3168 L
620 3132 L
620 3077 L
620 3219 L
620 3359 L
620 3058 L
620 3189 L
620 3441 L
620 2955 L
620 3574 L
620 3384 L
620 3520 L
620 3460 L
620 3232 L
620 3187 L
620 3283 L
620 3166 L
620 3259 L
620 3051 L
620 3138 L
620 3414 L
620 3398 L
620 3420 L
620 3320 L
620 3340 L
620 3582 L
620 3609 L
620 3073 L
620 3188 L
620 3379 L
620 3385 L
620 3036 L
620 3099 L
620 3318 L
620 3621 L
620 3536 L
620 3852 L
620 3516 L
620 3364 L
620 3282 L
620 3288 L
620 3273 L
620 3152 L
620 3524 L
620 2770 L
620 3784 L
620 3169 L
620 3051 L
620 3229 L
620 3597 L
620 3031 L
620 3299 L
620 3124 L
620 3302 L
620 3416 L
620 3483 L
620 3405 L
620 3191 L
620 3455 L
620 3596 L
620 3576 L
620 2896 L
620 3075 L
620 3159 L
620 3373 L
620 2941 L
620 3127 L
620 3203 L
620 3450 L
620 3318 L
620 3236 L
620 3339 L
620 2951 L
620 3299 L
620 3156 L
620 3505 L
620 3372 L
620 3411 L
620 3322 L
620 3577 L
620 3218 L
620 3379 L
620 3272 L
620 3045 L
620 3393 L
620 3533 L
620 3068 L
620 3243 L
620 2906 L
620 3391 L
620 3070 L
620 3396 L
620 3310 L
620 3653 L
620 3284 L
620 3611 L
620 3267 L
620 3563 L
620 3571 L
620 3158 L
620 3181 L
620 3229 L
620 3449 L
620 3524 L
620 3084 L
620 3345 L
620 3402 L
620 3316 L
620 3454 L
620 3105 L
620 3176 L
620 3425 L
620 3338 L
620 3158 L
620 3272 L
620 3426 L
620 3692 L
620 3083 L
620 3596 L
620 3252 L
620 3270 L
620 3529 L
620 3464 L
620 3147 L
620 3336 L
620 3332 L
620 3522 L
620 3549 L
620 3469 L
620 3403 L
620 3575 L
620 3616 L
620 3616 L
620 3543 L
620 3310 L
620 3459 L
620 3244 L
620 3576 L
620 3632 L
620 3492 L
620 3817 L
620 3434 L
620 3726 L
620 3726 L
620 3459 L
620 3295 L
620 3614 L
620 3511 L
620 3506 L
620 3129 L
620 3786 L
620 3365 L
620 3520 L
620 3411 L
620 3087 L
620 3469 L
620 3337 L
620 3446 L
620 3426 L
620 3602 L
620 3233 L
620 3309 L
620 3312 L
620 3231 L
620 3501 L
620 3450 L
620 3398 L
620 3556 L
620 3514 L
620 3290 L
620 3383 L
620 3426 L
620 3524 L
620 3497 L
620 3461 L
620 3571 L
620 3365 L
620 3479 L
620 3620 L
620 3397 L
620 3704 L
620 3748 L
620 3601 L
620 3529 L
620 3409 L
620 3641 L
620 3678 L
620 3662 L
620 3718 L
620 3352 L
620 3555 L
620 3429 L
620 3274 L
620 3218 L
620 3521 L
620 3355 L
620 3441 L
620 3078 L
620 3665 L
620 3220 L
620 3178 L
620 3459 L
620 3565 L
620 3236 L
620 3379 L
620 3368 L
620 3613 L
620 3622 L
620 3741 L
620 3272 L
620 3796 L
620 3453 L
620 3284 L
620 3164 L
620 3782 L
620 3553 L
620 3698 L
620 3246 L
620 3279 L
620 3955 L
620 3801 L
620 3146 L
620 3419 L
620 3156 L
620 3436 L
620 3608 L
620 3350 L
620 3615 L
620 3677 L
620 3545 L
620 3434 L
620 3408 L
620 3440 L
620 3258 L
620 3535 L
620 3161 L
620 3475 L
620 3560 L
620 3625 L
620 3360 L
620 3281 L
620 3330 L
620 4001 L
620 3126 L
620 3652 L
620 3522 L
620 3526 L
620 3640 L
620 3559 L
620 3766 L
620 3496 L
620 3325 L
620 3626 L
620 3787 L
620 3827 L
620 3605 L
620 3910 L
620 3421 L
620 3530 L
620 3803 L
620 3379 L
620 3681 L
620 3780 L
620 3934 L
620 3659 L
620 3787 L
620 3803 L
620 3649 L
620 3934 L
620 3798 L
620 3614 L
620 3769 L
620 4138 L
620 4068 L
620 3913 L
620 4275 L
620 4263 L
620 4355 L
620 3789 L
620 3979 L
620 3926 L
620 3876 L
620 3982 L
620 3731 L
620 4133 L
620 3923 L
620 3708 L
620 3736 L
620 4193 L
620 4386 L
620 4082 L
620 3883 L
620 3968 L
620 4124 L
620 4258 L
620 4135 L
620 4615 L
620 3859 L
620 3514 L
620 3986 L
620 3857 L
620 4088 L
620 4109 L
620 3920 L
620 4031 L
620 4328 L
620 3747 L
620 4186 L
620 3992 L
620 3937 L
620 4272 L
620 3745 L
620 3750 L
620 3934 L
620 3992 L
620 4144 L
620 4158 L
620 4109 L
620 4146 L
620 3771 L
620 4347 L
620 3446 L
620 4238 L
620 4358 L
620 4137 L
620 3949 L
620 4144 L
620 4204 L
620 4094 L
620 4313 L
620 4084 L
620 4607 L
620 4063 L
620 4127 L
620 4466 L
620 4230 L
620 4214 L
620 4701 L
620 4141 L
620 4229 L
620 3839 L
620 4093 L
620 4127 L
620 4198 L
620 4152 L
620 4350 L
620 4079 L
620 4062 L
620 4180 L
620 3903 L
620 4264 L
620 4029 L
620 4179 L
620 4260 L
620 4116 L
620 3952 L
620 3764 L
620 4395 L
620 4151 L
620 4040 L
620 4130 L
620 4342 L
620 4313 L
620 3784 L
620 3896 L
620 4403 L
620 4272 L
620 3765 L
620 3829 L
620 3705 L
620 4222 L
620 4252 L
620 4016 L
620 3903 L
620 4438 L
620 4099 L
620 4306 L
620 4115 L
620 3951 L
620 4165 L
620 3967 L
620 4249 L
620 4583 L
620 4385 L
620 3931 L
620 4233 L
620 4501 L
620 4046 L
620 4048 L
620 4500 L
620 3786 L
620 4208 L
620 3839 L
620 4294 L
620 4201 L
620 4372 L
620 4187 L
620 4118 L
620 4146 L
620 4070 L
620 4027 L
620 4163 L
620 3995 L
620 4444 L
620 4423 L
620 4254 L
620 3834 L
620 4863 L
620 4347 L
620 4001 L
620 4396 L
620 3837 L
620 3981 L
620 4134 L
620 4478 L
620 4183 L
620 4194 L
620 4173 L
620 4419 L
620 4472 L
620 4498 L
620 4091 L
620 4059 L
620 4040 L
620 4263 L
620 4208 L
620 4029 L
620 4361 L
620 4447 L
620 4149 L
620 4180 L
620 3742 L
620 3901 L
620 4034 L
620 3583 L
620 4221 L
620 3988 L
620 4266 L
620 4459 L
620 3689 L
620 3882 L
620 3501 L
620 4255 L
620 4083 L
620 4344 L
620 4026 L
620 4255 L
620 4514 L
620 4325 L
620 4254 L
620 4332 L
620 4188 L
620 4123 L
620 4339 L
620 4116 L
620 3900 L
620 3797 L
620 4366 L
620 4024 L
620 4339 L
620 4105 L
620 4450 L
620 3912 L
620 4079 L
620 4336 L
620 4300 L
620 4140 L
620 4706 L
620 4123 L
620 3734 L
620 3917 L
620 3914 L
620 4548 L
620 4090 L
620 4016 L
620 4032 L
620 3979 L
620 4031 L
620 4268 L
620 4427 L
620 4107 L
620 4193 L
620 3872 L
620 3926 L
620 3943 L
620 4453 L
620 4013 L
620 4213 L
620 4420 L
620 3820 L
620 3999 L
620 4068 L
620 3918 L
620 4007 L
620 3979 L
620 4006 L
620 4087 L
620 4191 L
620 3741 L
620 3923 L
620 3954 L
620 3580 L
620 4118 L
620 4186 L
620 4213 L
620 4283 L
620 4286 L
620 4023 L
620 3591 L
620 3591 L
620 4303 L
620 3833 L
620 4266 L
620 4038 L
620 3971 L
620 4167 L
620 3744 L
620 3890 L
620 3932 L
620 4010 L
620 4041 L
620 4062 L
620 3790 L
620 4021 L
620 3836 L
620 3998 L
620 4231 L
620 4160 L
620 3705 L
620 3689 L
620 3867 L
620 4141 L
620 4116 L
620 4500 L
620 4291 L
620 3906 L
620 4294 L
620 4059 L
620 3611 L
620 4016 L
620 4118 L
620 4168 L
620 3588 L
620 3954 L
620 3752 L
620 4358 L
620 3828 L
620 4108 L
620 4046 L
620 4060 L
620 4225 L
620 4303 L
620 4448 L
620 4186 L
620 4429 L
620 3992 L
620 4242 L
620 4044 L
620 3851 L
620 4143 L
620 4509 L
620 3886 L
620 4087 L
620 4001 L
620 4040 L
620 4293 L
620 4144 L
620 4255 L
620 4102 L
620 3881 L
620 4297 L
620 4151 L
620 4032 L
620 4110 L
620 4486 L
620 3968 L
620 3823 L
620 4420 L
620 4157 L
620 4062 L
620 4252 L
620 3976 L
620 4202 L
620 4116 L
620 3775 L
620 3778 L
620 3918 L
620 4196 L
620 4040 L
620 3793 L
620 3832 L
620 4124 L
620 4046 L
620 3950 L
620 4137 L
620 4478 L
620 4062 L
620 4439 L
620 3561 L
620 4235 L
620 3711 L
620 4406 L
620 4470 L
620 3488 L
620 4038 L
620 4257 L
620 3851 L
620 4300 L
620 4140 L
620 4003 L
620 3611 L
620 4078 L
620 3321 L
620 4102 L
620 3569 L
L2 C03 COSGR

%
%================
% Legend - Begin
%================
%
GSN 4240 5180 M
4480 5180 L
LWMC SL  C03 COSGR
GSN 4540 5141 M helvM (1.5 uM) show grestore
%
%================
% Legend - End
%================
%

%
% Main frame
%
L10
GSN 
620 1700 M
4220 1700 L
4220 5300 L
620 5300 L
closepath SGR

%
% X axis: large tics
%
L10
%
% X axis: small tics
%
L5
%
% Y axis: large tics
%
L10
GSN 620 2498 M 54 0 rL SGR
GSN 4220 2498 M -54 0 rL SGR
helvS (-0.01) 560 2498 ylabel
GSN 620 3315 M 54 0 rL SGR
GSN 4220 3315 M -54 0 rL SGR
helvS (0) 560 3315 ylabel
GSN 620 4133 M 54 0 rL SGR
GSN 4220 4133 M -54 0 rL SGR
helvS (0.01) 560 4133 ylabel
GSN 620 4950 M 54 0 rL SGR
GSN 4220 4950 M -54 0 rL SGR
helvS (0.02) 560 4950 ylabel
%
% Y axis: small tics
%
L5
GSN 620 1885 M 36 0 rL SGR
GSN 4220 1885 M -36 0 rL SGR
GSN 620 2089 M 36 0 rL SGR
GSN 4220 2089 M -36 0 rL SGR
GSN 620 2294 M 36 0 rL SGR
GSN 4220 2294 M -36 0 rL SGR
GSN 620 2498 M 36 0 rL SGR
GSN 4220 2498 M -36 0 rL SGR
GSN 620 2702 M 36 0 rL SGR
GSN 4220 2702 M -36 0 rL SGR
GSN 620 2907 M 36 0 rL SGR
GSN 4220 2907 M -36 0 rL SGR
GSN 620 3111 M 36 0 rL SGR
GSN 4220 3111 M -36 0 rL SGR
GSN 620 3315 M 36 0 rL SGR
GSN 4220 3315 M -36 0 rL SGR
GSN 620 3520 M 36 0 rL SGR
GSN 4220 3520 M -36 0 rL SGR
GSN 620 3724 M 36 0 rL SGR
GSN 4220 3724 M -36 0 rL SGR
GSN 620 3929 M 36 0 rL SGR
GSN 4220 3929 M -36 0 rL SGR
GSN 620 4133 M 36 0 rL SGR
GSN 4220 4133 M -36 0 rL SGR
GSN 620 4337 M 36 0 rL SGR
GSN 4220 4337 M -36 0 rL SGR
GSN 620 4542 M 36 0 rL SGR
GSN 4220 4542 M -36 0 rL SGR
GSN 620 4746 M 36 0 rL SGR
GSN 4220 4746 M -36 0 rL SGR
GSN 620 4950 M 36 0 rL SGR
GSN 4220 4950 M -36 0 rL SGR
GSN 620 5155 M 36 0 rL SGR
GSN 4220 5155 M -36 0 rL SGR

%
% X axis - residual panel
%
GSN L5 620 3315 M 4220 3315 L SDA G50 SGR

%
% X-Axis label:
%
gsave 620 1370 M 
[
[(Helvetica) 180 0 true true 0 (t)]
[(Helvetica) 180 0 true true 0 (i)]
[(Helvetica) 180 0 true true 0 (m)]
[(Helvetica) 180 0 true true 0 (e)]
] 0 MCshow grestore

%
% Y-Axis label:
%
gsave 234 3500 M 
currentpoint gsave translate 90 rotate 0 0 moveto
[
[(Helvetica) 180 0 true true 0 (r)]
[(Helvetica) 180 0 true true 0 (e)]
[(Helvetica) 180 0 true true 0 (s)]
[(Helvetica) 180 0 true true 0 (i)]
[(Helvetica) 180 0 true true 0 (d)]
[(Helvetica) 180 0 true true 0 (u)]
[(Helvetica) 180 0 true true 0 (a)]
[(Helvetica) 180 0 true true 0 (l)]
[(Helvetica) 180 0 true true 0 (s)]
] 0 MCshow grestore

end
showpage
%%Trailer
%%EOF
