%!PS-Adobe-3.0 EPSF-3.0
%%BoundingBox: 0 0 514 550
%%Creator: BioKin Ltd.
%%DocumentFonts: Symbol Helvetica
%%EndComments
%
/bkdict 256 dict def
bkdict begin
/M {moveto} def 
/R {rmoveto} def
/L {lineto} def
/rL {rlineto} def
/GSN {gsave newpath} def
/SGR {stroke grestore} def
/COSGR {gsave setrgbcolor stroke grestore grestore} def
/SL {setlinewidth} def
/LWMB {12} def             % line width - model curves, black & white
/LWMC {10} def             % line width - model curves, color
/L2 {2.5 setlinewidth} def
/L5 {5 setlinewidth} def
/L10 {10 setlinewidth} def
/G50 {0.5 setgray} def
/SDA {[10  20] 0 setdash} def % axes
/helvT {/Helvetica findfont 100 scalefont setfont} def % tiny
/helvS {/Helvetica findfont 125 scalefont setfont} def % small
/helvM {/Helvetica findfont 150 scalefont setfont} def % medium
/helvL {/Helvetica findfont 175 scalefont setfont} def % large
/xlabel {gsave M dup
   stringwidth exch -0.5 mul exch rmoveto show grestore} def 
/ylabel {gsave M 90 rotate dup
   stringwidth exch -0.5 mul exch rmoveto show grestore} def
/ylabelresid {gsave M dup
   stringwidth exch -1 mul exch rmoveto show grestore} def
% ======
% Shapes
% ======
% Circle:
/Circ {0 360 arc closepath} def
%
% Square:
/Squa {dup dup -0.5 mul dup dup R -2 mul 0 exch rL 1 mul 0 rL dup 0 exch -1 mul rL closepath} def
%
% Triangle Up:
/TriU {dup dup dup -0.4 mul exch -0.5 mul exch R dup 0.5 mul exch rL dup -1 mul exch 0.5 mul exch rL closepath} def 
%
% Triangle Down:
/TriD {dup dup dup 0.4 mul exch -0.5 mul exch R dup 0.5 mul exch -1 mul rL dup 0.5 mul exch rL closepath} def 
%
% Diamond:
/Diam {45 rotate Squa} def
% ======
% Fills
% ======
/GRF {gsave setgray fill grestore} def                    % gray-level Fill
/COF {gsave setrgbcolor fill grestore} def                % color fill
% ======
% Colors
% ======
/C01 {1.00	0.00	0.00} def      % Red
/C02 {0.00	0.00	1.00} def      % Blue
/C03 {0.00	0.39	0.00} def      % Dark Green
/C04 {0.78	0.08	0.52} def      % Medium Violet Red
/C05 {0.55	0.27	0.07} def      % Saddle Brown
/C06 {0.10	0.70	0.70} def      % (cyan)
/C07 {1.00	0.55	0.00} def      % Dark Orange
/C08 {0.63	0.13	0.94} def      % Purple
/C09 {0.00	0.75	1.00} def      % Deep Sky Blue
/C10 {0.20	0.80	0.20} def      % Lime Green
/C11 {0.47	0.53	0.60} def      % Light Slate Gray
/C12 {0.00	0.00	0.00} def      % Black            % or: {0.19	0.31	0.31} def      % Dark Slate Gray
%
/LGR {0.75} def % light gray
/DGR {0.33} def % dark gray
%
% =============
% Dash patterns
% =============
/dash01 { [80  20] 0 setdash } def
/dash02 { [40  20] 0 setdash } def
/dash03 { [80  20  10  20] 0 setdash } def
/dash04 { [40  20  10  20] 0 setdash } def
/dash05 { [80  20  10  10  10  20] 0 setdash } def
/dash06 { [40  20  10  10  10  20] 0 setdash } def
/dash07 { [10  10] 0 setdash } def
%
/MFshow {
   { dup 5 get 3 ge
     { 5 get 3 eq {gsave} {grestore} ifelse }
     {dup dup 0 get findfont exch 1 get scalefont setfont
     [ currentpoint ] exch dup 2 get 0 exch R dup 5 get 2 ne {dup dup 6
     get exch 4 get {show} {stringwidth pop 0 R} ifelse }if dup 5 get 0 eq
     {dup 3 get {2 get neg 0 exch R pop} {pop aload pop M} ifelse} {dup 5
     get 1 eq {dup 2 get exch dup 3 get exch 6 get stringwidth pop -2 div
     dup 0 R} {dup 6 get stringwidth pop -2 div 0 R 6 get
     show 2 index {aload pop M neg 3 -1 roll neg R pop pop} {pop pop pop
     pop aload pop M} ifelse }ifelse }ifelse }
     ifelse }
   forall} bind def
/MFwidth {0 exch {dup 3 get{dup dup 0 get findfont exch 1 get scalefont
     setfont 6 get stringwidth pop add} {pop} ifelse} forall} bind def
/MCshow { currentpoint stroke M
  exch dup MFwidth -2 div 3 -1 roll R MFshow } def
%
end
%%EndProlog
bkdict begin
0.1 0.1 scale
%
% Residuals:
%
GSN 620 4398 M
620 4863 L
620 4153 L
620 4159 L
620 4106 L
620 3683 L
620 2693 L
620 3724 L
620 3229 L
620 3067 L
620 3438 L
620 3193 L
620 3688 L
620 3565 L
620 3935 L
620 3439 L
620 3362 L
620 3319 L
620 3570 L
620 3444 L
620 3526 L
620 3281 L
620 3384 L
620 3382 L
620 3212 L
620 2921 L
620 3590 L
620 3431 L
620 3572 L
620 3712 L
620 3747 L
620 3356 L
620 3689 L
620 3644 L
620 3681 L
620 3392 L
620 3461 L
620 3473 L
620 3679 L
620 3475 L
620 3470 L
620 3366 L
620 3018 L
620 3594 L
620 3552 L
620 3350 L
620 3080 L
620 3414 L
620 3205 L
620 3195 L
620 2901 L
620 3245 L
620 3330 L
620 3215 L
620 3004 L
620 3465 L
620 3374 L
620 3513 L
620 3526 L
620 2966 L
620 3118 L
620 3796 L
620 3394 L
620 3199 L
620 3344 L
620 3042 L
620 3191 L
620 3581 L
620 3080 L
620 3327 L
620 3306 L
620 3574 L
620 3664 L
620 3479 L
620 3760 L
620 3098 L
620 3461 L
620 3433 L
620 3659 L
620 3188 L
620 3070 L
620 3242 L
620 3267 L
620 3906 L
620 3424 L
620 3402 L
620 3089 L
620 3423 L
620 3575 L
620 3340 L
620 2935 L
620 3122 L
620 3488 L
620 3460 L
620 3472 L
620 3367 L
620 3557 L
620 3444 L
620 3724 L
620 3213 L
620 3539 L
620 3789 L
620 3509 L
620 3724 L
620 3545 L
620 3346 L
620 3413 L
620 3378 L
620 3424 L
620 3239 L
620 3694 L
620 3348 L
620 3557 L
620 3539 L
620 3366 L
620 3273 L
620 3281 L
620 3199 L
620 3762 L
620 3399 L
620 3635 L
620 3524 L
620 3331 L
620 3440 L
620 3437 L
620 3806 L
620 2885 L
620 3449 L
620 3357 L
620 3387 L
620 3278 L
620 3691 L
620 3478 L
620 3977 L
620 3714 L
620 3559 L
620 3434 L
620 3454 L
620 3782 L
620 3481 L
620 3556 L
620 3507 L
620 3417 L
620 3534 L
620 3562 L
620 3830 L
620 3673 L
620 3648 L
620 3848 L
620 3355 L
620 3382 L
620 3689 L
620 3540 L
620 3481 L
620 3488 L
620 3134 L
620 3298 L
620 3399 L
620 3506 L
620 3643 L
620 3981 L
620 3816 L
620 3619 L
620 3462 L
620 3539 L
620 3382 L
620 3473 L
620 3589 L
620 3580 L
620 3373 L
620 3785 L
620 3287 L
620 3420 L
620 3319 L
620 3428 L
620 3619 L
620 3479 L
620 3451 L
620 3691 L
620 3295 L
620 3540 L
620 3467 L
620 3367 L
620 3525 L
620 3362 L
620 3614 L
620 3657 L
620 3358 L
620 3463 L
620 3832 L
620 3567 L
620 3364 L
620 3431 L
620 3290 L
620 3146 L
620 3509 L
620 3396 L
620 3121 L
620 3370 L
620 3515 L
620 3205 L
620 2876 L
620 3439 L
620 3685 L
620 3597 L
620 3703 L
620 3740 L
620 3345 L
620 3200 L
620 3351 L
620 3516 L
620 3518 L
620 3352 L
620 3484 L
620 3544 L
620 3533 L
620 3374 L
620 3383 L
620 3556 L
620 3200 L
620 3565 L
620 3434 L
620 3455 L
620 3685 L
620 2962 L
620 3353 L
620 3590 L
620 3147 L
620 3160 L
620 3331 L
620 3640 L
620 3552 L
620 3363 L
620 3506 L
620 3269 L
620 3230 L
620 3316 L
620 3666 L
620 3340 L
620 3338 L
620 3274 L
620 3255 L
620 3472 L
620 3483 L
620 3947 L
620 3453 L
620 3529 L
620 3724 L
620 3420 L
620 3311 L
620 3481 L
620 3260 L
620 3263 L
620 3365 L
620 3564 L
620 3182 L
620 2720 L
620 3501 L
620 3234 L
620 3402 L
620 3074 L
620 3438 L
620 3722 L
620 3680 L
620 3461 L
620 3024 L
620 3062 L
620 3581 L
620 3704 L
620 3632 L
620 3578 L
620 3108 L
620 3298 L
620 3372 L
620 3290 L
620 3318 L
620 3389 L
620 3697 L
620 3597 L
620 3675 L
620 3573 L
620 3634 L
620 3279 L
620 3152 L
620 3084 L
620 3308 L
620 3424 L
620 3306 L
620 3539 L
620 2938 L
620 3519 L
620 3241 L
620 3516 L
620 3404 L
620 3572 L
620 3577 L
620 3210 L
620 3494 L
620 3155 L
620 3331 L
620 3280 L
620 3107 L
620 3154 L
620 3369 L
620 3245 L
620 3593 L
620 3463 L
620 3472 L
620 3146 L
620 3364 L
620 3591 L
620 3217 L
620 3194 L
620 3827 L
620 3168 L
620 3776 L
620 3118 L
620 3206 L
620 3312 L
620 3294 L
620 3376 L
620 3149 L
620 3273 L
620 3023 L
620 3422 L
620 3172 L
620 3285 L
620 3512 L
620 3556 L
620 3300 L
620 3190 L
620 3227 L
620 3331 L
620 3376 L
620 3014 L
620 3288 L
620 3484 L
620 3328 L
620 3525 L
620 2721 L
620 2820 L
620 2938 L
620 3440 L
620 3852 L
620 3128 L
620 3389 L
620 3147 L
620 3045 L
620 3387 L
620 3174 L
620 3301 L
620 3119 L
620 3437 L
620 2865 L
620 3234 L
620 3144 L
620 2924 L
620 3284 L
620 3384 L
620 3263 L
620 3772 L
620 3215 L
620 2966 L
620 3477 L
620 3216 L
620 2971 L
620 3145 L
620 3427 L
620 3026 L
620 3083 L
620 3263 L
620 3242 L
620 3219 L
620 3472 L
620 2959 L
620 3583 L
620 2945 L
620 3429 L
620 3379 L
620 3182 L
620 2916 L
620 2974 L
620 2987 L
620 2972 L
620 3135 L
620 2886 L
620 3553 L
620 3168 L
620 3340 L
620 3409 L
620 3347 L
620 3408 L
620 3334 L
620 3177 L
620 3208 L
620 3189 L
620 3122 L
620 2958 L
620 2833 L
620 3124 L
620 3186 L
620 3305 L
620 3258 L
620 3452 L
620 3105 L
620 3104 L
620 2863 L
620 2740 L
620 3343 L
620 3265 L
620 3194 L
620 3399 L
620 3181 L
620 3015 L
620 3012 L
620 3414 L
620 2932 L
620 2995 L
620 3021 L
620 2947 L
620 3044 L
620 3104 L
620 3116 L
620 2451 L
620 2938 L
620 2818 L
620 2988 L
620 2745 L
620 2935 L
620 2949 L
620 3136 L
620 2940 L
620 3123 L
620 2644 L
620 2919 L
620 2696 L
620 2701 L
620 2842 L
620 2844 L
620 3094 L
620 2825 L
620 2857 L
620 2845 L
620 3124 L
620 2818 L
620 2859 L
620 2855 L
620 2454 L
620 3005 L
620 2948 L
620 3172 L
620 2425 L
620 3243 L
620 2709 L
620 2348 L
620 2640 L
620 2859 L
620 2674 L
620 2662 L
620 2618 L
620 3070 L
620 2736 L
620 2760 L
620 2646 L
620 2487 L
620 2832 L
620 2933 L
620 2832 L
620 2696 L
620 2696 L
620 2633 L
620 2908 L
620 2324 L
620 2531 L
620 2445 L
620 2689 L
620 2963 L
620 2735 L
620 2628 L
620 2622 L
620 2562 L
620 2967 L
620 2600 L
620 2448 L
620 2535 L
620 2535 L
620 2553 L
620 2727 L
620 2723 L
620 2745 L
620 2787 L
620 2488 L
620 2654 L
620 2744 L
620 2369 L
620 2561 L
620 2355 L
620 2522 L
620 2341 L
620 2616 L
620 2963 L
620 2573 L
620 2482 L
620 2531 L
620 2969 L
620 2621 L
620 2598 L
620 2437 L
620 2596 L
620 2476 L
620 2792 L
620 2697 L
620 2221 L
620 2551 L
620 2815 L
620 2430 L
620 2701 L
620 2430 L
620 2380 L
620 2658 L
620 2747 L
620 2801 L
620 2300 L
620 2568 L
620 2302 L
620 2422 L
620 2287 L
620 2631 L
620 2817 L
620 2343 L
620 2651 L
620 2611 L
620 2181 L
620 2445 L
620 2622 L
620 2538 L
620 2371 L
620 2639 L
620 2167 L
620 2834 L
620 2845 L
620 2681 L
620 3063 L
620 2313 L
620 2553 L
620 2747 L
620 2726 L
620 2136 L
620 2520 L
620 2445 L
620 2782 L
620 2658 L
620 2410 L
620 2555 L
620 2640 L
620 2531 L
620 2482 L
620 2644 L
620 2417 L
620 2357 L
620 2314 L
620 2453 L
620 2848 L
620 2310 L
620 2457 L
620 2243 L
620 2486 L
620 2381 L
620 2381 L
620 2292 L
620 2575 L
620 2766 L
620 2384 L
620 2514 L
620 2385 L
620 2522 L
620 2749 L
620 3065 L
620 2453 L
620 2356 L
620 2644 L
620 2553 L
620 2460 L
620 2271 L
620 2238 L
620 2955 L
620 2600 L
620 3146 L
620 2695 L
620 2626 L
620 2778 L
620 2695 L
620 2581 L
620 2452 L
620 2481 L
620 2598 L
620 2391 L
620 2468 L
620 2968 L
620 2404 L
620 2599 L
620 2357 L
620 2213 L
620 2665 L
620 2416 L
620 2523 L
620 2475 L
620 2561 L
620 2609 L
620 2602 L
620 2650 L
620 2897 L
620 2425 L
620 2164 L
620 2669 L
620 2406 L
620 2743 L
620 2731 L
620 2544 L
620 2744 L
620 2760 L
620 2386 L
620 2169 L
620 2331 L
620 2788 L
620 2652 L
620 2207 L
620 2626 L
620 2563 L
620 2497 L
620 2376 L
620 2487 L
620 2326 L
620 2403 L
620 2566 L
620 2483 L
620 2804 L
620 2697 L
620 2773 L
620 2799 L
620 2617 L
620 2658 L
620 2706 L
620 3194 L
620 2554 L
620 2629 L
620 3102 L
620 2866 L
620 2475 L
620 2808 L
620 2561 L
620 2422 L
620 2734 L
620 2646 L
620 2683 L
620 2784 L
620 2459 L
620 2858 L
620 2939 L
620 3059 L
620 2597 L
620 2735 L
620 2474 L
620 2756 L
620 2673 L
620 2853 L
620 2643 L
620 2835 L
620 3085 L
620 2768 L
620 2307 L
620 3001 L
620 2717 L
620 2779 L
620 2729 L
620 2895 L
620 3159 L
620 2473 L
620 2634 L
620 2948 L
620 2451 L
620 2809 L
620 2615 L
620 2881 L
620 2520 L
620 3176 L
620 2562 L
620 2604 L
620 2626 L
620 2741 L
620 2839 L
620 2671 L
620 2571 L
620 2621 L
620 2802 L
620 2991 L
620 2601 L
620 2911 L
620 3006 L
620 3093 L
620 2855 L
620 2737 L
620 2663 L
620 2902 L
620 2534 L
620 2418 L
620 3009 L
620 2777 L
620 2820 L
620 2610 L
620 2963 L
620 2975 L
620 3040 L
620 2769 L
620 2998 L
620 2969 L
620 3249 L
620 2385 L
620 2774 L
620 2782 L
620 2930 L
620 2326 L
620 2869 L
620 2893 L
620 2459 L
620 2804 L
620 2915 L
620 2728 L
620 2413 L
620 3132 L
620 3072 L
620 2626 L
620 3149 L
620 2524 L
620 2742 L
620 2543 L
620 2999 L
620 3024 L
620 2830 L
620 3059 L
620 2791 L
620 2811 L
620 2732 L
620 3156 L
620 2795 L
620 2686 L
620 2685 L
620 2944 L
620 3188 L
620 3086 L
620 2991 L
620 2813 L
620 2898 L
620 2990 L
620 3209 L
620 2818 L
620 2927 L
620 2733 L
620 2819 L
620 2896 L
620 2933 L
620 3012 L
620 3021 L
620 2825 L
620 2911 L
620 2842 L
620 2819 L
620 2885 L
620 2893 L
620 2652 L
620 2616 L
620 2972 L
620 3343 L
620 2827 L
620 2793 L
620 3334 L
620 3066 L
620 2961 L
620 3093 L
620 2779 L
620 2929 L
620 2631 L
620 2913 L
620 2884 L
620 3017 L
620 2859 L
620 2958 L
620 2952 L
620 2940 L
620 3142 L
620 3128 L
620 2878 L
620 3195 L
620 3426 L
620 3195 L
620 2513 L
620 2830 L
620 2837 L
620 2652 L
620 2781 L
620 3130 L
620 3055 L
620 3004 L
620 2546 L
620 3244 L
620 3234 L
620 2861 L
620 3074 L
620 3097 L
620 3005 L
620 3073 L
620 2996 L
620 3192 L
620 3112 L
620 2973 L
620 2973 L
620 3017 L
620 2943 L
620 2861 L
620 3217 L
620 3107 L
620 3306 L
620 3387 L
620 2890 L
620 3009 L
620 2972 L
620 3042 L
620 3327 L
620 2850 L
620 3148 L
620 3018 L
620 2989 L
620 2657 L
620 2782 L
620 3373 L
620 2981 L
620 3079 L
620 2966 L
620 3163 L
620 3110 L
620 3111 L
620 3096 L
620 3081 L
620 3258 L
620 2827 L
620 3206 L
620 3772 L
620 3341 L
620 3047 L
620 3022 L
620 3165 L
620 3078 L
620 2848 L
620 3177 L
620 3419 L
620 2950 L
620 3095 L
620 3115 L
620 3028 L
620 3041 L
620 3160 L
620 3073 L
620 2825 L
620 2866 L
620 3088 L
620 3366 L
620 3223 L
620 3291 L
620 3272 L
620 2957 L
620 3225 L
620 3384 L
620 3132 L
620 3000 L
620 2511 L
620 3031 L
620 2989 L
620 2975 L
620 3385 L
620 3028 L
620 3234 L
620 3192 L
620 3385 L
620 3185 L
620 3026 L
620 2938 L
620 3220 L
620 3342 L
620 3471 L
620 3236 L
620 3323 L
620 3092 L
620 3197 L
620 3183 L
620 2922 L
620 3268 L
620 3241 L
620 3124 L
620 3417 L
620 2963 L
620 3081 L
620 2986 L
620 3236 L
620 3237 L
620 3311 L
620 3474 L
620 3123 L
620 3104 L
620 3192 L
620 3458 L
620 3188 L
620 3170 L
620 3045 L
620 3248 L
620 3259 L
620 3276 L
620 3144 L
620 3514 L
620 3018 L
620 3181 L
620 3134 L
620 3402 L
620 3120 L
620 3163 L
620 3125 L
620 3024 L
620 2924 L
620 3498 L
620 3337 L
620 3142 L
620 3107 L
620 3401 L
620 3507 L
620 3069 L
620 3098 L
620 3211 L
620 3045 L
620 2959 L
620 3106 L
620 3447 L
620 3088 L
620 3290 L
620 3044 L
620 3273 L
620 3098 L
620 3850 L
620 3407 L
620 3065 L
620 3507 L
620 3354 L
620 3476 L
620 3373 L
620 3227 L
620 3389 L
620 3960 L
620 3181 L
620 3467 L
620 3165 L
620 3269 L
620 3448 L
620 3505 L
620 3578 L
620 3743 L
620 3280 L
620 3044 L
620 3049 L
620 3229 L
620 3486 L
620 3083 L
620 3532 L
620 3553 L
620 3282 L
620 3514 L
620 3185 L
620 2987 L
620 3616 L
620 3059 L
620 3629 L
620 3417 L
620 3313 L
620 3665 L
620 3190 L
620 3402 L
620 3283 L
620 3396 L
620 3458 L
620 3597 L
620 3519 L
620 3019 L
620 3375 L
620 3366 L
620 3465 L
620 3208 L
620 3303 L
620 3564 L
620 3442 L
620 3364 L
620 3250 L
620 3294 L
620 3151 L
620 3282 L
620 3156 L
620 3854 L
620 3476 L
620 3842 L
620 3317 L
620 3369 L
620 3329 L
620 3652 L
620 3491 L
620 3620 L
620 3605 L
620 3442 L
620 3738 L
620 3300 L
620 3458 L
620 3545 L
620 3426 L
620 3412 L
620 3216 L
620 3480 L
620 3442 L
620 3583 L
620 3045 L
620 3560 L
620 3442 L
620 3579 L
620 3689 L
620 3803 L
620 3266 L
620 3697 L
620 3160 L
620 3657 L
620 3393 L
620 3304 L
620 3537 L
620 3366 L
620 3216 L
620 3397 L
620 3550 L
620 3332 L
620 3481 L
620 3836 L
620 3313 L
620 3542 L
620 3495 L
620 3542 L
620 3416 L
620 3022 L
620 3665 L
620 3246 L
620 3527 L
620 3272 L
620 3537 L
620 3445 L
620 3780 L
620 3465 L
620 3653 L
620 3763 L
620 3393 L
620 2971 L
620 3391 L
620 3560 L
620 3662 L
620 3443 L
620 3604 L
620 3799 L
620 3482 L
620 3531 L
620 3347 L
620 3401 L
620 3388 L
620 3522 L
620 3456 L
620 3098 L
620 3685 L
620 3105 L
620 3301 L
620 3563 L
620 3347 L
620 3489 L
620 3583 L
620 3278 L
620 3472 L
620 3592 L
620 3461 L
620 3359 L
620 3514 L
620 3086 L
620 3586 L
620 3551 L
620 3683 L
620 3438 L
620 3771 L
620 3660 L
620 3564 L
620 3453 L
620 3687 L
620 3558 L
620 3570 L
620 3674 L
620 3622 L
620 3609 L
620 3754 L
620 3031 L
620 3796 L
620 3509 L
620 3725 L
620 3679 L
620 3507 L
620 3313 L
620 3596 L
620 3826 L
620 3254 L
620 3519 L
620 3514 L
620 3431 L
620 3919 L
620 3656 L
620 3698 L
620 3476 L
620 3495 L
620 3761 L
620 3697 L
620 3685 L
620 3634 L
620 3461 L
620 3736 L
620 3229 L
620 3738 L
620 3285 L
620 3698 L
620 3471 L
620 3807 L
620 3844 L
620 3720 L
620 3544 L
620 3694 L
620 3757 L
620 3699 L
620 3642 L
620 4020 L
620 3828 L
620 3704 L
620 3370 L
620 3414 L
620 3525 L
620 3303 L
620 3601 L
620 3676 L
620 3729 L
620 3582 L
620 3605 L
620 3416 L
620 3514 L
620 3470 L
620 3454 L
620 3273 L
620 3657 L
620 3471 L
620 3667 L
620 3632 L
620 3407 L
620 3620 L
620 3801 L
620 3502 L
620 3350 L
620 3707 L
620 3619 L
620 3527 L
620 3486 L
620 3410 L
620 3616 L
620 3568 L
620 3706 L
620 3703 L
620 3688 L
620 3379 L
620 3593 L
620 3465 L
620 3789 L
620 3459 L
620 3829 L
620 3620 L
620 3165 L
620 3872 L
620 3767 L
620 3704 L
620 3664 L
620 3550 L
620 3482 L
620 3457 L
620 3732 L
620 3786 L
620 3588 L
620 3703 L
620 3417 L
620 4133 L
620 3616 L
620 3496 L
620 3861 L
620 3484 L
620 3453 L
620 4037 L
620 3692 L
620 3585 L
620 3417 L
620 3812 L
620 3920 L
620 3762 L
620 3860 L
620 3494 L
620 3530 L
620 3190 L
620 3476 L
620 3574 L
620 3553 L
620 3522 L
620 3747 L
620 3481 L
620 3229 L
620 3875 L
620 3472 L
620 3449 L
620 3660 L
620 3727 L
620 3508 L
620 3837 L
620 3963 L
620 3477 L
620 3861 L
620 3507 L
620 3943 L
620 3671 L
620 3699 L
620 3741 L
620 3647 L
620 3687 L
620 3604 L
620 4036 L
620 3485 L
620 3380 L
620 3721 L
620 3486 L
620 3823 L
620 3546 L
620 3644 L
620 3831 L
620 3971 L
620 3717 L
620 4060 L
620 3747 L
620 3849 L
620 3814 L
620 3808 L
620 3632 L
620 3688 L
620 3676 L
620 3870 L
620 3471 L
620 3685 L
620 3995 L
620 3734 L
620 3863 L
620 3750 L
620 3832 L
620 3618 L
620 4062 L
620 3502 L
620 3498 L
620 4109 L
620 3786 L
620 3338 L
620 3470 L
620 4013 L
620 3431 L
620 3653 L
620 3949 L
620 3821 L
620 3523 L
620 3392 L
620 3681 L
620 3789 L
620 3331 L
620 3593 L
620 3715 L
620 3595 L
620 4205 L
620 3995 L
620 3334 L
620 3965 L
620 3939 L
620 3745 L
620 3544 L
620 4017 L
620 4210 L
620 3567 L
620 3590 L
620 4048 L
620 3916 L
620 3780 L
620 3935 L
620 3565 L
620 3636 L
620 3655 L
620 3653 L
620 3402 L
620 3725 L
620 3689 L
620 3698 L
620 4039 L
620 3585 L
620 4039 L
620 3525 L
620 3595 L
620 3738 L
620 3474 L
620 3527 L
620 3402 L
620 3944 L
620 3869 L
620 3807 L
620 4027 L
620 4057 L
620 3762 L
620 3554 L
620 3773 L
620 3637 L
620 3837 L
620 3736 L
620 3717 L
620 3748 L
620 4101 L
620 3456 L
620 3785 L
620 3305 L
620 3757 L
620 3920 L
620 3591 L
620 3747 L
620 3681 L
620 4114 L
620 3725 L
620 3955 L
620 3748 L
620 3539 L
620 3847 L
620 3897 L
620 3657 L
620 3667 L
620 4120 L
620 3770 L
620 3878 L
620 3829 L
620 4062 L
620 3974 L
620 3916 L
620 4031 L
620 3875 L
620 3794 L
620 4274 L
620 3699 L
620 4059 L
620 4044 L
620 3859 L
620 3642 L
620 3724 L
620 3935 L
620 4002 L
620 3967 L
620 3706 L
620 3687 L
620 3657 L
620 3722 L
620 3624 L
620 4092 L
620 3921 L
620 4085 L
620 3828 L
620 3724 L
620 3965 L
620 3636 L
620 3904 L
620 4000 L
620 3554 L
620 3986 L
620 3738 L
620 4014 L
620 3856 L
620 4091 L
620 3652 L
620 3749 L
620 3938 L
620 4156 L
620 4148 L
620 3437 L
620 3929 L
620 3176 L
620 3721 L
620 3592 L
620 3800 L
620 3851 L
620 3932 L
620 4098 L
620 3524 L
620 4100 L
620 4168 L
620 4081 L
620 3979 L
620 4106 L
620 3382 L
620 3901 L
620 4266 L
620 4081 L
620 4296 L
620 4428 L
620 4135 L
620 3909 L
620 3979 L
620 3996 L
620 4114 L
620 4228 L
620 4066 L
620 4224 L
620 4218 L
620 4224 L
620 4004 L
620 4432 L
620 4369 L
620 3859 L
620 4041 L
620 4251 L
620 4392 L
620 3731 L
620 4264 L
620 4314 L
620 4153 L
620 4413 L
620 3886 L
620 4293 L
620 4122 L
620 4137 L
620 3714 L
620 4272 L
620 3567 L
620 3767 L
620 3926 L
620 4172 L
620 3741 L
620 4148 L
620 3716 L
620 4167 L
620 4189 L
620 4387 L
620 4007 L
620 4157 L
620 4363 L
620 3969 L
620 3931 L
620 4377 L
620 4138 L
620 4695 L
620 4323 L
620 3971 L
620 4033 L
620 4076 L
620 4290 L
620 3928 L
620 4154 L
620 3923 L
620 4154 L
620 4395 L
620 4465 L
620 4320 L
620 4325 L
620 4070 L
620 4301 L
620 4385 L
620 4736 L
620 3845 L
620 4436 L
620 4288 L
620 4355 L
620 4180 L
620 4301 L
620 4132 L
620 3995 L
620 4374 L
620 4079 L
620 4003 L
620 3886 L
620 4499 L
620 4486 L
620 4074 L
620 3950 L
620 4328 L
620 4339 L
620 4141 L
620 4019 L
620 4022 L
620 4151 L
620 4363 L
620 4031 L
620 4342 L
620 4055 L
620 4416 L
620 4079 L
620 3894 L
620 3731 L
620 4094 L
620 4569 L
620 4165 L
620 4017 L
620 4145 L
620 4449 L
620 4178 L
620 4169 L
620 4167 L
620 4052 L
620 4157 L
620 3987 L
620 4036 L
620 4464 L
620 4030 L
620 4575 L
620 4065 L
620 4326 L
620 3969 L
620 3775 L
620 4253 L
620 4157 L
620 3824 L
620 4470 L
620 4282 L
620 4172 L
620 4291 L
620 4043 L
620 3995 L
620 4145 L
620 3891 L
620 3872 L
620 4489 L
620 4009 L
620 3968 L
620 4376 L
620 3736 L
620 4634 L
620 4480 L
620 4237 L
620 3995 L
620 4205 L
620 4060 L
620 4314 L
620 4255 L
620 4180 L
620 4127 L
620 4065 L
620 4363 L
620 4176 L
620 4025 L
620 4615 L
620 4382 L
620 4462 L
620 4405 L
620 4382 L
620 4354 L
620 4618 L
620 4232 L
620 4717 L
620 4220 L
620 4216 L
620 4389 L
620 3998 L
620 4543 L
620 4393 L
620 4110 L
620 4223 L
620 3964 L
620 4248 L
620 4208 L
620 4153 L
620 4035 L
620 4066 L
620 4261 L
620 4117 L
620 4288 L
620 4307 L
620 4017 L
620 4307 L
620 4629 L
620 4676 L
620 4527 L
620 4060 L
620 4586 L
620 4282 L
620 4406 L
620 4078 L
620 3779 L
620 4098 L
620 4333 L
620 4472 L
620 4127 L
620 4546 L
620 3961 L
620 4025 L
620 4310 L
620 4628 L
620 4384 L
620 4357 L
620 4119 L
620 3940 L
620 4047 L
620 4361 L
620 3816 L
620 4129 L
620 4342 L
620 4125 L
620 4669 L
620 3827 L
620 4157 L
620 4307 L
620 3712 L
620 4312 L
620 4339 L
620 4331 L
620 3995 L
620 4003 L
620 4109 L
620 4089 L
620 4237 L
620 4194 L
620 4103 L
620 4318 L
620 4038 L
620 4279 L
620 4473 L
620 4066 L
620 4035 L
620 3881 L
620 4108 L
620 4320 L
620 4221 L
620 4436 L
620 4033 L
620 3931 L
620 4098 L
620 4275 L
620 4326 L
620 4046 L
620 4290 L
620 4588 L
620 3669 L
620 4440 L
620 3931 L
620 4220 L
620 4057 L
620 4515 L
620 4531 L
620 4251 L
620 4508 L
620 4196 L
620 4006 L
620 4288 L
620 3749 L
620 4279 L
620 4235 L
620 3909 L
620 4317 L
620 4074 L
620 4036 L
620 4657 L
620 4325 L
620 4275 L
620 3963 L
620 4613 L
620 3873 L
620 4162 L
620 3990 L
620 4846 L
620 3971 L
620 4258 L
620 4467 L
620 3912 L
620 4411 L
620 4046 L
620 4194 L
620 4255 L
620 4176 L
620 3955 L
620 4403 L
620 4135 L
620 4486 L
620 4834 L
620 4314 L
620 4500 L
620 4151 L
620 4168 L
620 4141 L
620 4310 L
620 4464 L
620 4121 L
620 4625 L
620 4251 L
620 3931 L
620 4296 L
620 4020 L
620 4602 L
620 4094 L
620 4154 L
620 4025 L
620 3960 L
620 4505 L
620 4172 L
620 4162 L
620 4137 L
620 4226 L
620 3894 L
620 4476 L
620 4255 L
620 4433 L
620 4267 L
620 4551 L
620 4456 L
620 4253 L
620 4357 L
620 4570 L
620 4338 L
620 4307 L
620 3905 L
620 4065 L
620 3712 L
620 4081 L
620 3762 L
620 4181 L
620 4078 L
620 4299 L
620 4038 L
620 3944 L
620 4357 L
620 4376 L
620 4307 L
620 4196 L
620 4475 L
620 4361 L
620 3862 L
620 4183 L
620 4156 L
620 4362 L
620 4666 L
620 4170 L
620 4251 L
620 4079 L
620 4081 L
620 4208 L
620 3932 L
620 4215 L
620 4298 L
L2 C07 COSGR

%
%================
% Legend - Begin
%================
%
GSN 4240 5180 M
4480 5180 L
LWMC SL  C07 COSGR
GSN 4540 5141 M helvM (4.0 uM) show grestore
%
%================
% Legend - End
%================
%

%
% Main frame
%
L10
GSN 
620 1700 M
4220 1700 L
4220 5300 L
620 5300 L
closepath SGR

%
% X axis: large tics
%
L10
%
% X axis: small tics
%
L5
%
% Y axis: large tics
%
L10
GSN 620 1769 M 54 0 rL SGR
GSN 4220 1769 M -54 0 rL SGR
helvS (-0.02) 560 1769 ylabel
GSN 620 2605 M 54 0 rL SGR
GSN 4220 2605 M -54 0 rL SGR
helvS (-0.01) 560 2605 ylabel
GSN 620 3441 M 54 0 rL SGR
GSN 4220 3441 M -54 0 rL SGR
helvS (0) 560 3441 ylabel
GSN 620 4278 M 54 0 rL SGR
GSN 4220 4278 M -54 0 rL SGR
helvS (0.01) 560 4278 ylabel
GSN 620 5114 M 54 0 rL SGR
GSN 4220 5114 M -54 0 rL SGR
helvS (0.02) 560 5114 ylabel
%
% Y axis: small tics
%
L5
GSN 620 1769 M 36 0 rL SGR
GSN 4220 1769 M -36 0 rL SGR
GSN 620 1978 M 36 0 rL SGR
GSN 4220 1978 M -36 0 rL SGR
GSN 620 2187 M 36 0 rL SGR
GSN 4220 2187 M -36 0 rL SGR
GSN 620 2396 M 36 0 rL SGR
GSN 4220 2396 M -36 0 rL SGR
GSN 620 2605 M 36 0 rL SGR
GSN 4220 2605 M -36 0 rL SGR
GSN 620 2814 M 36 0 rL SGR
GSN 4220 2814 M -36 0 rL SGR
GSN 620 3023 M 36 0 rL SGR
GSN 4220 3023 M -36 0 rL SGR
GSN 620 3232 M 36 0 rL SGR
GSN 4220 3232 M -36 0 rL SGR
GSN 620 3441 M 36 0 rL SGR
GSN 4220 3441 M -36 0 rL SGR
GSN 620 3650 M 36 0 rL SGR
GSN 4220 3650 M -36 0 rL SGR
GSN 620 3860 M 36 0 rL SGR
GSN 4220 3860 M -36 0 rL SGR
GSN 620 4069 M 36 0 rL SGR
GSN 4220 4069 M -36 0 rL SGR
GSN 620 4278 M 36 0 rL SGR
GSN 4220 4278 M -36 0 rL SGR
GSN 620 4487 M 36 0 rL SGR
GSN 4220 4487 M -36 0 rL SGR
GSN 620 4696 M 36 0 rL SGR
GSN 4220 4696 M -36 0 rL SGR
GSN 620 4905 M 36 0 rL SGR
GSN 4220 4905 M -36 0 rL SGR
GSN 620 5114 M 36 0 rL SGR
GSN 4220 5114 M -36 0 rL SGR

%
% X axis - residual panel
%
GSN L5 620 3441 M 4220 3441 L SDA G50 SGR

%
% X-Axis label:
%
gsave 620 1370 M 
[
[(Helvetica) 180 0 true true 0 (t)]
[(Helvetica) 180 0 true true 0 (i)]
[(Helvetica) 180 0 true true 0 (m)]
[(Helvetica) 180 0 true true 0 (e)]
] 0 MCshow grestore

%
% Y-Axis label:
%
gsave 234 3500 M 
currentpoint gsave translate 90 rotate 0 0 moveto
[
[(Helvetica) 180 0 true true 0 (r)]
[(Helvetica) 180 0 true true 0 (e)]
[(Helvetica) 180 0 true true 0 (s)]
[(Helvetica) 180 0 true true 0 (i)]
[(Helvetica) 180 0 true true 0 (d)]
[(Helvetica) 180 0 true true 0 (u)]
[(Helvetica) 180 0 true true 0 (a)]
[(Helvetica) 180 0 true true 0 (l)]
[(Helvetica) 180 0 true true 0 (s)]
] 0 MCshow grestore

end
showpage
%%Trailer
%%EOF
