%!PS-Adobe-3.0 EPSF-3.0
%%BoundingBox: 0 0 514 550
%%Creator: BioKin Ltd.
%%DocumentFonts: Symbol Helvetica
%%EndComments
%
/bkdict 256 dict def
bkdict begin
/M {moveto} def 
/R {rmoveto} def
/L {lineto} def
/rL {rlineto} def
/GSN {gsave newpath} def
/SGR {stroke grestore} def
/COSGR {gsave setrgbcolor stroke grestore grestore} def
/SL {setlinewidth} def
/LWMB {12} def             % line width - model curves, black & white
/LWMC {10} def             % line width - model curves, color
/L2 {2.5 setlinewidth} def
/L5 {5 setlinewidth} def
/L10 {10 setlinewidth} def
/G50 {0.5 setgray} def
/SDA {[10  20] 0 setdash} def % axes
/helvT {/Helvetica findfont 100 scalefont setfont} def % tiny
/helvS {/Helvetica findfont 125 scalefont setfont} def % small
/helvM {/Helvetica findfont 150 scalefont setfont} def % medium
/helvL {/Helvetica findfont 175 scalefont setfont} def % large
/xlabel {gsave M dup
   stringwidth exch -0.5 mul exch rmoveto show grestore} def 
/ylabel {gsave M 90 rotate dup
   stringwidth exch -0.5 mul exch rmoveto show grestore} def
/ylabelresid {gsave M dup
   stringwidth exch -1 mul exch rmoveto show grestore} def
% ======
% Shapes
% ======
% Circle:
/Circ {0 360 arc closepath} def
%
% Square:
/Squa {dup dup -0.5 mul dup dup R -2 mul 0 exch rL 1 mul 0 rL dup 0 exch -1 mul rL closepath} def
%
% Triangle Up:
/TriU {dup dup dup -0.4 mul exch -0.5 mul exch R dup 0.5 mul exch rL dup -1 mul exch 0.5 mul exch rL closepath} def 
%
% Triangle Down:
/TriD {dup dup dup 0.4 mul exch -0.5 mul exch R dup 0.5 mul exch -1 mul rL dup 0.5 mul exch rL closepath} def 
%
% Diamond:
/Diam {45 rotate Squa} def
% ======
% Fills
% ======
/GRF {gsave setgray fill grestore} def                    % gray-level Fill
/COF {gsave setrgbcolor fill grestore} def                % color fill
% ======
% Colors
% ======
/C01 {1.00	0.00	0.00} def      % Red
/C02 {0.00	0.00	1.00} def      % Blue
/C03 {0.00	0.39	0.00} def      % Dark Green
/C04 {0.78	0.08	0.52} def      % Medium Violet Red
/C05 {0.55	0.27	0.07} def      % Saddle Brown
/C06 {0.10	0.70	0.70} def      % (cyan)
/C07 {1.00	0.55	0.00} def      % Dark Orange
/C08 {0.63	0.13	0.94} def      % Purple
/C09 {0.00	0.75	1.00} def      % Deep Sky Blue
/C10 {0.20	0.80	0.20} def      % Lime Green
/C11 {0.47	0.53	0.60} def      % Light Slate Gray
/C12 {0.00	0.00	0.00} def      % Black            % or: {0.19	0.31	0.31} def      % Dark Slate Gray
%
/LGR {0.75} def % light gray
/DGR {0.33} def % dark gray
%
% =============
% Dash patterns
% =============
/dash01 { [80  20] 0 setdash } def
/dash02 { [40  20] 0 setdash } def
/dash03 { [80  20  10  20] 0 setdash } def
/dash04 { [40  20  10  20] 0 setdash } def
/dash05 { [80  20  10  10  10  20] 0 setdash } def
/dash06 { [40  20  10  10  10  20] 0 setdash } def
/dash07 { [10  10] 0 setdash } def
%
/MFshow {
   { dup 5 get 3 ge
     { 5 get 3 eq {gsave} {grestore} ifelse }
     {dup dup 0 get findfont exch 1 get scalefont setfont
     [ currentpoint ] exch dup 2 get 0 exch R dup 5 get 2 ne {dup dup 6
     get exch 4 get {show} {stringwidth pop 0 R} ifelse }if dup 5 get 0 eq
     {dup 3 get {2 get neg 0 exch R pop} {pop aload pop M} ifelse} {dup 5
     get 1 eq {dup 2 get exch dup 3 get exch 6 get stringwidth pop -2 div
     dup 0 R} {dup 6 get stringwidth pop -2 div 0 R 6 get
     show 2 index {aload pop M neg 3 -1 roll neg R pop pop} {pop pop pop
     pop aload pop M} ifelse }ifelse }ifelse }
     ifelse }
   forall} bind def
/MFwidth {0 exch {dup 3 get{dup dup 0 get findfont exch 1 get scalefont
     setfont 6 get stringwidth pop add} {pop} ifelse} forall} bind def
/MCshow { currentpoint stroke M
  exch dup MFwidth -2 div 3 -1 roll R MFshow } def
%
end
%%EndProlog
bkdict begin
0.1 0.1 scale
%
% Residuals:
%
GSN 620 3795 M
620 4110 L
620 4258 L
620 4863 L
620 4787 L
620 4462 L
620 4386 L
620 4208 L
620 4190 L
620 4167 L
620 4032 L
620 4277 L
620 3904 L
620 4135 L
620 4125 L
620 3912 L
620 3848 L
620 3907 L
620 3755 L
620 3899 L
620 3761 L
620 3751 L
620 3871 L
620 3939 L
620 3478 L
620 3724 L
620 4055 L
620 3693 L
620 3743 L
620 3667 L
620 3591 L
620 3584 L
620 3374 L
620 3741 L
620 3623 L
620 3557 L
620 3335 L
620 3677 L
620 3635 L
620 3338 L
620 3383 L
620 3393 L
620 3447 L
620 3147 L
620 3064 L
620 3516 L
620 3248 L
620 3069 L
620 3144 L
620 3363 L
620 2849 L
620 2944 L
620 3181 L
620 3274 L
620 2991 L
620 3267 L
620 3252 L
620 3145 L
620 2879 L
620 3264 L
620 3456 L
620 3241 L
620 2851 L
620 2678 L
620 3061 L
620 2911 L
620 2901 L
620 2982 L
620 3066 L
620 2694 L
620 3335 L
620 2938 L
620 2872 L
620 2846 L
620 3069 L
620 2642 L
620 3284 L
620 3066 L
620 3206 L
620 2797 L
620 2955 L
620 2825 L
620 2812 L
620 2697 L
620 2628 L
620 2638 L
620 2687 L
620 2927 L
620 2510 L
620 2568 L
620 2917 L
620 2640 L
620 2699 L
620 2616 L
620 2600 L
620 2686 L
620 2197 L
620 2646 L
620 2537 L
620 2470 L
620 2573 L
620 2506 L
620 2151 L
620 2333 L
620 2761 L
620 2328 L
620 2541 L
620 2783 L
620 2412 L
620 2470 L
620 2218 L
620 2136 L
620 2309 L
620 2242 L
620 2320 L
620 2286 L
620 2401 L
620 2313 L
620 2311 L
620 2511 L
620 2175 L
620 2324 L
620 2375 L
620 2345 L
620 2173 L
620 2296 L
620 2639 L
620 2386 L
620 2462 L
620 2211 L
620 2518 L
620 2491 L
620 2299 L
620 2172 L
620 2944 L
620 2511 L
620 2297 L
620 2171 L
620 2504 L
620 2667 L
620 2328 L
620 2417 L
620 2852 L
620 2535 L
620 2604 L
620 2695 L
620 2498 L
620 2736 L
620 2361 L
620 2489 L
620 2742 L
620 2641 L
620 2701 L
620 2496 L
620 2770 L
620 2984 L
620 2574 L
620 2888 L
620 2507 L
620 2577 L
620 2803 L
620 2457 L
620 2874 L
620 2950 L
620 2747 L
620 2756 L
620 2628 L
620 2908 L
620 2793 L
620 2380 L
620 2649 L
620 3015 L
620 2832 L
620 2576 L
620 2593 L
620 2884 L
620 2947 L
620 2542 L
620 2891 L
620 2625 L
620 2766 L
620 2782 L
620 2482 L
620 3100 L
620 2790 L
620 2815 L
620 3325 L
620 3032 L
620 3107 L
620 3117 L
620 3103 L
620 2832 L
620 2891 L
620 2936 L
620 2418 L
620 2758 L
620 3073 L
620 3095 L
620 2763 L
620 2789 L
620 3109 L
620 2929 L
620 3023 L
620 3221 L
620 2880 L
620 3053 L
620 2923 L
620 2996 L
620 2927 L
620 3187 L
620 3262 L
620 3242 L
620 2964 L
620 3068 L
620 2868 L
620 3263 L
620 2923 L
620 3090 L
620 3335 L
620 3097 L
620 3186 L
620 3239 L
620 3065 L
620 2974 L
620 3084 L
620 3351 L
620 3286 L
620 3185 L
620 3358 L
620 3165 L
620 2932 L
620 3176 L
620 3017 L
620 3254 L
620 3138 L
620 3252 L
620 3293 L
620 3434 L
620 3175 L
620 3239 L
620 3374 L
620 3114 L
620 3369 L
620 3237 L
620 3257 L
620 3013 L
620 2891 L
620 3549 L
620 3476 L
620 3435 L
620 3373 L
620 3113 L
620 3499 L
620 3103 L
620 3387 L
620 3453 L
620 3531 L
620 3613 L
620 3420 L
620 3336 L
620 3350 L
620 3177 L
620 3427 L
620 3412 L
620 3520 L
620 3440 L
620 3607 L
620 3167 L
620 3560 L
620 3182 L
620 3627 L
620 3120 L
620 3221 L
620 3112 L
620 3571 L
620 3202 L
620 3525 L
620 3086 L
620 3467 L
620 3668 L
620 3441 L
620 3797 L
620 3797 L
620 3915 L
620 3670 L
620 3619 L
620 4025 L
620 3965 L
620 3428 L
620 3785 L
620 3848 L
620 3797 L
620 3984 L
620 4171 L
620 3939 L
620 3968 L
620 3980 L
620 4029 L
620 4014 L
620 4084 L
620 3988 L
620 3666 L
620 3706 L
620 3770 L
620 3813 L
620 4194 L
620 3898 L
620 4115 L
620 3984 L
620 4246 L
620 4161 L
620 3973 L
620 4224 L
620 3891 L
620 4249 L
620 3885 L
620 4260 L
620 3929 L
620 4142 L
620 4154 L
620 3877 L
620 3925 L
620 3963 L
620 3935 L
620 4091 L
620 3790 L
620 4226 L
620 3862 L
620 3627 L
620 4020 L
620 3496 L
620 3889 L
620 3796 L
620 3874 L
620 3596 L
620 4296 L
620 3513 L
620 3815 L
620 3896 L
620 4020 L
620 3725 L
620 3856 L
620 3946 L
620 3952 L
620 3994 L
620 3958 L
620 3891 L
620 3811 L
620 3469 L
620 3405 L
620 3979 L
620 3946 L
620 3785 L
620 3593 L
620 3734 L
620 3907 L
620 3863 L
620 3866 L
620 3808 L
620 3899 L
620 3781 L
620 3914 L
620 3651 L
620 3371 L
620 3651 L
620 3697 L
620 3891 L
620 3689 L
620 3640 L
620 3894 L
620 4191 L
620 3575 L
620 3718 L
620 3778 L
620 3826 L
620 3630 L
620 3497 L
620 3424 L
620 3570 L
620 4022 L
620 3907 L
620 3497 L
620 3625 L
620 3561 L
620 3513 L
620 3345 L
620 3788 L
620 3398 L
620 3506 L
620 3755 L
620 3894 L
620 3308 L
620 3615 L
620 3685 L
620 3452 L
620 3358 L
620 3618 L
620 3553 L
620 3231 L
620 3526 L
620 3362 L
620 3701 L
620 3784 L
620 3397 L
620 3238 L
620 3796 L
620 3213 L
620 3420 L
620 3701 L
620 3574 L
620 3447 L
620 3479 L
620 3449 L
620 3490 L
620 3688 L
620 3369 L
620 3290 L
620 3387 L
620 3497 L
620 3627 L
620 3207 L
620 3493 L
620 3331 L
620 3450 L
620 3405 L
620 3459 L
620 3461 L
620 3151 L
620 3810 L
620 3424 L
620 3472 L
620 3474 L
620 2962 L
620 3500 L
620 3276 L
620 3630 L
620 3350 L
620 3520 L
620 3483 L
620 3564 L
620 3489 L
620 3494 L
620 3520 L
620 3261 L
620 3502 L
620 3191 L
620 3298 L
620 3640 L
620 3314 L
620 3509 L
620 3550 L
620 3570 L
620 3276 L
620 3103 L
620 3266 L
620 3092 L
620 3452 L
620 3459 L
620 3310 L
620 3260 L
620 3232 L
620 3207 L
620 3291 L
620 3431 L
620 3354 L
620 3023 L
620 3335 L
620 3409 L
620 3280 L
620 2955 L
620 3146 L
620 3605 L
620 3426 L
620 3357 L
620 3067 L
620 3043 L
620 3184 L
620 3114 L
620 3405 L
620 3093 L
620 3026 L
620 3349 L
620 3298 L
620 3306 L
620 3630 L
620 3092 L
620 3429 L
620 3291 L
620 2967 L
620 3047 L
620 3273 L
620 3360 L
620 3198 L
620 3203 L
620 3339 L
620 3361 L
620 3648 L
620 3492 L
620 3597 L
620 3139 L
620 3202 L
620 3377 L
620 3408 L
620 3200 L
620 3280 L
620 3135 L
620 3464 L
620 3192 L
620 3255 L
620 3511 L
620 3571 L
620 3279 L
620 3373 L
620 3421 L
620 3371 L
620 3063 L
620 3345 L
620 3485 L
620 3155 L
620 3306 L
620 3276 L
620 3343 L
620 3051 L
620 3338 L
620 3382 L
620 3555 L
620 3184 L
620 3379 L
620 3111 L
620 3398 L
620 3255 L
620 3355 L
620 3327 L
L2 C03 COSGR

%
%================
% Legend - Begin
%================
%
GSN 4240 5180 M
4480 5180 L
LWMC SL  C03 COSGR
GSN 4540 5141 M helvM (1.5 uM) show grestore
%
%================
% Legend - End
%================
%

%
% Main frame
%
L10
GSN 
620 1700 M
4220 1700 L
4220 5300 L
620 5300 L
closepath SGR

%
% X axis: large tics
%
L10
%
% X axis: small tics
%
L5
%
% Y axis: large tics
%
L10
GSN 620 1850 M 54 0 rL SGR
GSN 4220 1850 M -54 0 rL SGR
helvS (-0.02) 560 1850 ylabel
GSN 620 3289 M 54 0 rL SGR
GSN 4220 3289 M -54 0 rL SGR
helvS (0) 560 3289 ylabel
GSN 620 4728 M 54 0 rL SGR
GSN 4220 4728 M -54 0 rL SGR
helvS (0.02) 560 4728 ylabel
%
% Y axis: small tics
%
L5
GSN 620 1850 M 36 0 rL SGR
GSN 4220 1850 M -36 0 rL SGR
GSN 620 2210 M 36 0 rL SGR
GSN 4220 2210 M -36 0 rL SGR
GSN 620 2570 M 36 0 rL SGR
GSN 4220 2570 M -36 0 rL SGR
GSN 620 2929 M 36 0 rL SGR
GSN 4220 2929 M -36 0 rL SGR
GSN 620 3289 M 36 0 rL SGR
GSN 4220 3289 M -36 0 rL SGR
GSN 620 3649 M 36 0 rL SGR
GSN 4220 3649 M -36 0 rL SGR
GSN 620 4008 M 36 0 rL SGR
GSN 4220 4008 M -36 0 rL SGR
GSN 620 4368 M 36 0 rL SGR
GSN 4220 4368 M -36 0 rL SGR
GSN 620 4728 M 36 0 rL SGR
GSN 4220 4728 M -36 0 rL SGR
GSN 620 5088 M 36 0 rL SGR
GSN 4220 5088 M -36 0 rL SGR

%
% X axis - residual panel
%
GSN L5 620 3289 M 4220 3289 L SDA G50 SGR

%
% X-Axis label:
%
gsave 620 1370 M 
[
[(Helvetica) 180 0 true true 0 (t)]
[(Helvetica) 180 0 true true 0 (i)]
[(Helvetica) 180 0 true true 0 (m)]
[(Helvetica) 180 0 true true 0 (e)]
] 0 MCshow grestore

%
% Y-Axis label:
%
gsave 234 3500 M 
currentpoint gsave translate 90 rotate 0 0 moveto
[
[(Helvetica) 180 0 true true 0 (r)]
[(Helvetica) 180 0 true true 0 (e)]
[(Helvetica) 180 0 true true 0 (s)]
[(Helvetica) 180 0 true true 0 (i)]
[(Helvetica) 180 0 true true 0 (d)]
[(Helvetica) 180 0 true true 0 (u)]
[(Helvetica) 180 0 true true 0 (a)]
[(Helvetica) 180 0 true true 0 (l)]
[(Helvetica) 180 0 true true 0 (s)]
] 0 MCshow grestore

end
showpage
%%Trailer
%%EOF
