%!PS-Adobe-3.0 EPSF-3.0
%%BoundingBox: 0 0 514 550
%%Creator: BioKin Ltd.
%%DocumentFonts: Symbol Helvetica
%%EndComments
%
/bkdict 256 dict def
bkdict begin
/M {moveto} def 
/R {rmoveto} def
/L {lineto} def
/rL {rlineto} def
/GSN {gsave newpath} def
/SGR {stroke grestore} def
/COSGR {gsave setrgbcolor stroke grestore grestore} def
/SL {setlinewidth} def
/LWMB {12} def             % line width - model curves, black & white
/LWMC {10} def             % line width - model curves, color
/L2 {2.5 setlinewidth} def
/L5 {5 setlinewidth} def
/L10 {10 setlinewidth} def
/G50 {0.5 setgray} def
/SDA {[10  20] 0 setdash} def % axes
/helvT {/Helvetica findfont 100 scalefont setfont} def % tiny
/helvS {/Helvetica findfont 125 scalefont setfont} def % small
/helvM {/Helvetica findfont 150 scalefont setfont} def % medium
/helvL {/Helvetica findfont 175 scalefont setfont} def % large
/xlabel {gsave M dup
   stringwidth exch -0.5 mul exch rmoveto show grestore} def 
/ylabel {gsave M 90 rotate dup
   stringwidth exch -0.5 mul exch rmoveto show grestore} def
/ylabelresid {gsave M dup
   stringwidth exch -1 mul exch rmoveto show grestore} def
% ======
% Shapes
% ======
% Circle:
/Circ {0 360 arc closepath} def
%
% Square:
/Squa {dup dup -0.5 mul dup dup R -2 mul 0 exch rL 1 mul 0 rL dup 0 exch -1 mul rL closepath} def
%
% Triangle Up:
/TriU {dup dup dup -0.4 mul exch -0.5 mul exch R dup 0.5 mul exch rL dup -1 mul exch 0.5 mul exch rL closepath} def 
%
% Triangle Down:
/TriD {dup dup dup 0.4 mul exch -0.5 mul exch R dup 0.5 mul exch -1 mul rL dup 0.5 mul exch rL closepath} def 
%
% Diamond:
/Diam {45 rotate Squa} def
% ======
% Fills
% ======
/GRF {gsave setgray fill grestore} def                    % gray-level Fill
/COF {gsave setrgbcolor fill grestore} def                % color fill
% ======
% Colors
% ======
/C01 {1.00	0.00	0.00} def      % Red
/C02 {0.00	0.00	1.00} def      % Blue
/C03 {0.00	0.39	0.00} def      % Dark Green
/C04 {0.78	0.08	0.52} def      % Medium Violet Red
/C05 {0.55	0.27	0.07} def      % Saddle Brown
/C06 {0.10	0.70	0.70} def      % (cyan)
/C07 {1.00	0.55	0.00} def      % Dark Orange
/C08 {0.63	0.13	0.94} def      % Purple
/C09 {0.00	0.75	1.00} def      % Deep Sky Blue
/C10 {0.20	0.80	0.20} def      % Lime Green
/C11 {0.47	0.53	0.60} def      % Light Slate Gray
/C12 {0.00	0.00	0.00} def      % Black            % or: {0.19	0.31	0.31} def      % Dark Slate Gray
%
/LGR {0.75} def % light gray
/DGR {0.33} def % dark gray
%
% =============
% Dash patterns
% =============
/dash01 { [80  20] 0 setdash } def
/dash02 { [40  20] 0 setdash } def
/dash03 { [80  20  10  20] 0 setdash } def
/dash04 { [40  20  10  20] 0 setdash } def
/dash05 { [80  20  10  10  10  20] 0 setdash } def
/dash06 { [40  20  10  10  10  20] 0 setdash } def
/dash07 { [10  10] 0 setdash } def
%
/MFshow {
   { dup 5 get 3 ge
     { 5 get 3 eq {gsave} {grestore} ifelse }
     {dup dup 0 get findfont exch 1 get scalefont setfont
     [ currentpoint ] exch dup 2 get 0 exch R dup 5 get 2 ne {dup dup 6
     get exch 4 get {show} {stringwidth pop 0 R} ifelse }if dup 5 get 0 eq
     {dup 3 get {2 get neg 0 exch R pop} {pop aload pop M} ifelse} {dup 5
     get 1 eq {dup 2 get exch dup 3 get exch 6 get stringwidth pop -2 div
     dup 0 R} {dup 6 get stringwidth pop -2 div 0 R 6 get
     show 2 index {aload pop M neg 3 -1 roll neg R pop pop} {pop pop pop
     pop aload pop M} ifelse }ifelse }ifelse }
     ifelse }
   forall} bind def
/MFwidth {0 exch {dup 3 get{dup dup 0 get findfont exch 1 get scalefont
     setfont 6 get stringwidth pop add} {pop} ifelse} forall} bind def
/MCshow { currentpoint stroke M
  exch dup MFwidth -2 div 3 -1 roll R MFshow } def
%
end
%%EndProlog
bkdict begin
0.1 0.1 scale
%
% Residuals:
%
GSN 620 2483 M
620 2198 L
620 2377 L
620 3729 L
620 2740 L
620 3112 L
620 2445 L
620 2788 L
620 2953 L
620 2949 L
620 3012 L
620 2999 L
620 2555 L
620 2768 L
620 2797 L
620 2616 L
620 3014 L
620 2148 L
620 2857 L
620 2916 L
620 3017 L
620 2801 L
620 2638 L
620 3113 L
620 3039 L
620 2904 L
620 2830 L
620 2854 L
620 2951 L
620 2728 L
620 2684 L
620 2864 L
620 3050 L
620 3028 L
620 3037 L
620 2850 L
620 3021 L
620 2814 L
620 2436 L
620 2581 L
620 2640 L
620 3331 L
620 2922 L
620 3011 L
620 2987 L
620 2651 L
620 2870 L
620 2948 L
620 2569 L
620 2528 L
620 3008 L
620 3107 L
620 3153 L
620 3453 L
620 3122 L
620 2813 L
620 3242 L
620 2523 L
620 3097 L
620 2899 L
620 2743 L
620 3043 L
620 2790 L
620 3123 L
620 2963 L
620 2989 L
620 2871 L
620 3248 L
620 3151 L
620 3071 L
620 2986 L
620 2973 L
620 3106 L
620 3271 L
620 2674 L
620 2864 L
620 3100 L
620 2977 L
620 2856 L
620 3110 L
620 3018 L
620 3163 L
620 2901 L
620 2803 L
620 3350 L
620 2781 L
620 3105 L
620 2906 L
620 2818 L
620 3075 L
620 2972 L
620 3218 L
620 3208 L
620 3335 L
620 3057 L
620 3078 L
620 2930 L
620 3223 L
620 2901 L
620 2860 L
620 3232 L
620 3174 L
620 2914 L
620 3517 L
620 3136 L
620 3368 L
620 3002 L
620 2866 L
620 2886 L
620 3098 L
620 3050 L
620 3777 L
620 3352 L
620 3487 L
620 3067 L
620 3028 L
620 3595 L
620 3192 L
620 3288 L
620 3240 L
620 2946 L
620 2898 L
620 3401 L
620 3413 L
620 3125 L
620 3115 L
620 3101 L
620 3295 L
620 3297 L
620 3611 L
620 3619 L
620 2873 L
620 3115 L
620 3110 L
620 3111 L
620 3549 L
620 3530 L
620 3573 L
620 3274 L
620 3180 L
620 3277 L
620 3260 L
620 3007 L
620 3102 L
620 3351 L
620 3306 L
620 3092 L
620 3543 L
620 3110 L
620 3024 L
620 3278 L
620 3404 L
620 3124 L
620 3116 L
620 3274 L
620 3311 L
620 3416 L
620 3018 L
620 3409 L
620 3396 L
620 3377 L
620 3761 L
620 3123 L
620 3050 L
620 3153 L
620 3569 L
620 3084 L
620 3338 L
620 3163 L
620 3375 L
620 2924 L
620 3245 L
620 3314 L
620 3581 L
620 3101 L
620 3664 L
620 3153 L
620 2779 L
620 3028 L
620 3062 L
620 3154 L
620 3143 L
620 3567 L
620 3292 L
620 3064 L
620 3202 L
620 3237 L
620 3486 L
620 3030 L
620 3178 L
620 3097 L
620 3259 L
620 3168 L
620 3062 L
620 3216 L
620 3349 L
620 2897 L
620 3032 L
620 3063 L
620 3424 L
620 3376 L
620 3062 L
620 3592 L
620 2904 L
620 3330 L
620 2913 L
620 3242 L
620 3268 L
620 2942 L
620 3237 L
620 3367 L
620 2986 L
620 3358 L
620 3451 L
620 3482 L
620 3384 L
620 3302 L
620 3344 L
620 3426 L
620 2890 L
620 3112 L
620 3104 L
620 3093 L
620 3537 L
620 3594 L
620 3334 L
620 3319 L
620 3353 L
620 2671 L
620 3110 L
620 3570 L
620 3623 L
620 3269 L
620 3230 L
620 3142 L
620 3550 L
620 3361 L
620 3646 L
620 3301 L
620 3027 L
620 3117 L
620 3323 L
620 3306 L
620 3241 L
620 3534 L
620 3248 L
620 3106 L
620 3096 L
620 3354 L
620 3206 L
620 3317 L
620 3468 L
620 3226 L
620 3436 L
620 3234 L
620 3148 L
620 3045 L
620 3260 L
620 3337 L
620 3367 L
620 3115 L
620 2891 L
620 3414 L
620 3481 L
620 3123 L
620 3338 L
620 3185 L
620 2870 L
620 3128 L
620 3400 L
620 3427 L
620 3284 L
620 3182 L
620 3637 L
620 3083 L
620 3203 L
620 3394 L
620 3166 L
620 3463 L
620 3371 L
620 3056 L
620 2941 L
620 2850 L
620 3336 L
620 2917 L
620 3107 L
620 3168 L
620 3520 L
620 3218 L
620 3403 L
620 3118 L
620 3298 L
620 3232 L
620 3118 L
620 2985 L
620 3504 L
620 2841 L
620 3294 L
620 2962 L
620 3475 L
620 3224 L
620 3444 L
620 3648 L
620 2997 L
620 3142 L
620 3494 L
620 3155 L
620 2967 L
620 3122 L
620 3436 L
620 3512 L
620 3175 L
620 3432 L
620 3330 L
620 2968 L
620 3236 L
620 3478 L
620 3375 L
620 3234 L
620 3107 L
620 3279 L
620 3325 L
620 3114 L
620 3167 L
620 3372 L
620 3075 L
620 3253 L
620 3374 L
620 3147 L
620 3067 L
620 3056 L
620 2833 L
620 3470 L
620 2847 L
620 3086 L
620 3478 L
620 3201 L
620 3126 L
620 2955 L
620 3095 L
620 3330 L
620 3197 L
620 3167 L
620 3423 L
620 3153 L
620 3528 L
620 3282 L
620 3371 L
620 3190 L
620 3274 L
620 3023 L
620 3270 L
620 3634 L
620 3012 L
620 3529 L
620 3255 L
620 3126 L
620 3071 L
620 3356 L
620 3134 L
620 3349 L
620 3368 L
620 3017 L
620 3284 L
620 3559 L
620 3407 L
620 3255 L
620 2907 L
620 3015 L
620 3216 L
620 3347 L
620 3370 L
620 2978 L
620 3103 L
620 3039 L
620 3288 L
620 3123 L
620 2925 L
620 3591 L
620 3350 L
620 3094 L
620 3091 L
620 3571 L
620 3033 L
620 2830 L
620 3105 L
620 3294 L
620 3383 L
620 3424 L
620 3068 L
620 3295 L
620 3328 L
620 2967 L
620 3212 L
620 2852 L
620 3346 L
620 3163 L
620 2970 L
620 3583 L
620 3457 L
620 3419 L
620 3321 L
620 3112 L
620 3099 L
620 2951 L
620 3061 L
620 3383 L
620 3036 L
620 2753 L
620 3101 L
620 2991 L
620 2976 L
620 3250 L
620 2936 L
620 3246 L
620 2977 L
620 3031 L
620 3085 L
620 3046 L
620 2868 L
620 2630 L
620 3056 L
620 3231 L
620 2794 L
620 2414 L
620 3045 L
620 2999 L
620 2668 L
620 3182 L
620 2936 L
620 3207 L
620 2642 L
620 2896 L
620 2785 L
620 2456 L
620 2956 L
620 2775 L
620 3352 L
620 2871 L
620 2816 L
620 2999 L
620 3283 L
620 2991 L
620 2798 L
620 3137 L
620 2914 L
620 2640 L
620 2882 L
620 2775 L
620 2699 L
620 3123 L
620 2980 L
620 2804 L
620 2853 L
620 2639 L
620 2489 L
620 2843 L
620 2935 L
620 2528 L
620 2909 L
620 3028 L
620 2795 L
620 2498 L
620 2567 L
620 3044 L
620 2758 L
620 2740 L
620 2895 L
620 2731 L
620 2770 L
620 2679 L
620 2596 L
620 3119 L
620 2910 L
620 2621 L
620 2486 L
620 2366 L
620 2889 L
620 2643 L
620 2608 L
620 2535 L
620 2740 L
620 2693 L
620 2607 L
620 2494 L
620 2706 L
620 2635 L
620 2960 L
620 2722 L
620 2728 L
620 2637 L
620 2674 L
620 2593 L
620 2523 L
620 2146 L
620 2420 L
620 2313 L
620 2549 L
620 2836 L
620 2492 L
620 2585 L
620 2689 L
620 2830 L
620 2834 L
620 2694 L
620 2675 L
620 2567 L
620 2914 L
620 2638 L
620 2638 L
620 2929 L
620 2648 L
620 2653 L
620 2605 L
620 2728 L
620 2520 L
620 2525 L
620 2896 L
620 2428 L
620 2230 L
620 2670 L
620 2278 L
620 2769 L
620 2583 L
620 2595 L
620 2849 L
620 2612 L
620 2533 L
620 2405 L
620 2604 L
620 2615 L
620 2727 L
620 2588 L
620 2659 L
620 2287 L
620 2681 L
620 2506 L
620 2779 L
620 2271 L
620 2641 L
620 2545 L
620 2221 L
620 2672 L
620 2488 L
620 2309 L
620 2659 L
620 2491 L
620 2407 L
620 2676 L
620 2527 L
620 2567 L
620 2375 L
620 2686 L
620 2655 L
620 2792 L
620 2647 L
620 2730 L
620 2282 L
620 2600 L
620 2452 L
620 2338 L
620 2707 L
620 2610 L
620 2136 L
620 2192 L
620 2207 L
620 2539 L
620 2508 L
620 2682 L
620 2449 L
620 2319 L
620 2603 L
620 2678 L
620 2360 L
620 2318 L
620 2164 L
620 2588 L
620 2536 L
620 2617 L
620 2259 L
620 2401 L
620 2573 L
620 2778 L
620 2388 L
620 2475 L
620 2209 L
620 2475 L
620 2820 L
620 2568 L
620 2467 L
620 2682 L
620 2500 L
620 2246 L
620 2923 L
620 2227 L
620 2575 L
620 2671 L
620 2165 L
620 2639 L
620 2575 L
620 2614 L
620 2762 L
620 2192 L
620 2637 L
620 2720 L
620 2495 L
620 2268 L
620 2915 L
620 2494 L
620 2425 L
620 2724 L
620 2962 L
620 2672 L
620 2375 L
620 2874 L
620 2804 L
620 2861 L
620 2342 L
620 2586 L
620 2213 L
620 2368 L
620 2541 L
620 2240 L
620 2780 L
620 2591 L
620 2542 L
620 2811 L
620 2710 L
620 2630 L
620 2321 L
620 2737 L
620 2707 L
620 2670 L
620 2698 L
620 2635 L
620 2377 L
620 2569 L
620 2621 L
620 2830 L
620 2285 L
620 2942 L
620 2518 L
620 2446 L
620 2224 L
620 2577 L
620 2561 L
620 2316 L
620 2871 L
620 2626 L
620 2545 L
620 2358 L
620 2377 L
620 3194 L
620 2441 L
620 2763 L
620 2829 L
620 2993 L
620 2390 L
620 2664 L
620 3132 L
620 2860 L
620 2716 L
620 2667 L
620 2299 L
620 2912 L
620 2832 L
620 2516 L
620 2894 L
620 2772 L
620 2676 L
620 2617 L
620 2898 L
620 2893 L
620 2807 L
620 2586 L
620 2204 L
620 2369 L
620 3110 L
620 2760 L
620 2289 L
620 2992 L
620 2444 L
620 3104 L
620 2141 L
620 2826 L
620 2661 L
620 2383 L
620 2879 L
620 2630 L
620 3123 L
620 2577 L
620 2962 L
620 2799 L
620 2685 L
620 2529 L
620 2535 L
620 2722 L
620 2767 L
620 2405 L
620 2896 L
620 2987 L
620 3116 L
620 2401 L
620 2476 L
620 2818 L
620 2716 L
620 2574 L
620 2769 L
620 2679 L
620 2908 L
620 2667 L
620 2693 L
620 2593 L
620 2712 L
620 2563 L
620 3225 L
620 2503 L
620 2762 L
620 2625 L
620 2745 L
620 2483 L
620 2898 L
620 2612 L
620 2901 L
620 2818 L
620 2437 L
620 2843 L
620 2380 L
620 2940 L
620 2950 L
620 2701 L
620 2761 L
620 2761 L
620 2639 L
620 2734 L
620 2680 L
620 2870 L
620 2633 L
620 2678 L
620 2642 L
620 2775 L
620 3020 L
620 2703 L
620 2727 L
620 2723 L
620 2631 L
620 2909 L
620 2458 L
620 3037 L
620 2519 L
620 2432 L
620 2640 L
620 2981 L
620 2450 L
620 2995 L
620 2792 L
620 2671 L
620 3093 L
620 3199 L
620 3044 L
620 3005 L
620 3150 L
620 3049 L
620 2594 L
620 2468 L
620 2799 L
620 2261 L
620 3048 L
620 2418 L
620 2816 L
620 2747 L
620 3422 L
620 2550 L
620 2963 L
620 3108 L
620 2620 L
620 2956 L
620 2666 L
620 3035 L
620 2964 L
620 2566 L
620 2866 L
620 2761 L
620 2960 L
620 2883 L
620 3091 L
620 2929 L
620 3118 L
620 2779 L
620 2692 L
620 2839 L
620 3147 L
620 2583 L
620 2852 L
620 3033 L
620 2545 L
620 2811 L
620 2604 L
620 2688 L
620 3100 L
620 2978 L
620 2807 L
620 2911 L
620 3058 L
620 2961 L
620 2666 L
620 2744 L
620 2729 L
620 2646 L
620 2550 L
620 2681 L
620 2699 L
620 2802 L
620 2611 L
620 3101 L
620 3125 L
620 2831 L
620 3055 L
620 3247 L
620 2838 L
620 2797 L
620 3085 L
620 2796 L
620 2663 L
620 2792 L
620 2797 L
620 3027 L
620 3222 L
620 2872 L
620 2900 L
620 3240 L
620 3031 L
620 3353 L
620 2818 L
620 2692 L
620 2949 L
620 3052 L
620 2849 L
620 2583 L
620 3227 L
620 2861 L
620 3024 L
620 3218 L
620 3020 L
620 2862 L
620 3079 L
620 3139 L
620 2620 L
620 2656 L
620 2914 L
620 3164 L
620 3316 L
620 3149 L
620 3072 L
620 3156 L
620 2974 L
620 3141 L
620 2835 L
620 2687 L
620 3272 L
620 2772 L
620 2802 L
620 2785 L
620 3447 L
620 3153 L
620 2957 L
620 3031 L
620 2966 L
620 3068 L
620 3022 L
620 3374 L
620 3166 L
620 2697 L
620 3127 L
620 2908 L
620 3152 L
620 2851 L
620 2440 L
620 2870 L
620 3073 L
620 2772 L
620 3024 L
620 3127 L
620 2887 L
620 3174 L
620 3306 L
620 3006 L
620 2991 L
620 2842 L
620 3225 L
620 3248 L
620 2862 L
620 3262 L
620 3057 L
620 2454 L
620 2960 L
620 2849 L
620 3111 L
620 2852 L
620 3043 L
620 2741 L
620 3031 L
620 2863 L
620 3436 L
620 3314 L
620 3275 L
620 3089 L
620 3211 L
620 2966 L
620 3036 L
620 3303 L
620 3138 L
620 2779 L
620 3026 L
620 3005 L
620 3052 L
620 2688 L
620 3605 L
620 3384 L
620 3456 L
620 2653 L
620 3562 L
620 3027 L
620 3296 L
620 2918 L
620 3281 L
620 3059 L
620 3407 L
620 2946 L
620 3015 L
620 3124 L
620 3366 L
620 3132 L
620 3100 L
620 3317 L
620 3180 L
620 3090 L
620 3415 L
620 3300 L
620 2957 L
620 3509 L
620 2835 L
620 3352 L
620 3363 L
620 3169 L
620 3085 L
620 3113 L
620 3470 L
620 3054 L
620 2960 L
620 3240 L
620 3002 L
620 2852 L
620 3528 L
620 3260 L
620 3419 L
620 3139 L
620 3069 L
620 3079 L
620 3184 L
620 3101 L
620 3031 L
620 3328 L
620 3041 L
620 3218 L
620 3219 L
620 3488 L
620 3209 L
620 3124 L
620 3295 L
620 3124 L
620 3629 L
620 3212 L
620 3432 L
620 3218 L
620 3360 L
620 3293 L
620 3398 L
620 3496 L
620 3316 L
620 3416 L
620 3398 L
620 3296 L
620 3229 L
620 3113 L
620 3225 L
620 3001 L
620 3050 L
620 3373 L
620 3198 L
620 3122 L
620 3587 L
620 3534 L
620 3083 L
620 3237 L
620 3097 L
620 3127 L
620 3474 L
620 3282 L
620 3265 L
620 3138 L
620 3240 L
620 2966 L
620 3155 L
620 3625 L
620 3321 L
620 3230 L
620 3453 L
620 3458 L
620 3188 L
620 3617 L
620 3486 L
620 3383 L
620 3754 L
620 3365 L
620 3285 L
620 2957 L
620 3493 L
620 3225 L
620 3705 L
620 3398 L
620 3024 L
620 3177 L
620 3594 L
620 3321 L
620 2912 L
620 3195 L
620 3481 L
620 3383 L
620 3708 L
620 3468 L
620 3069 L
620 3590 L
620 3594 L
620 3306 L
620 3198 L
620 3729 L
620 3356 L
620 3673 L
620 3678 L
620 3464 L
620 3241 L
620 3524 L
620 3629 L
620 3300 L
620 3324 L
620 3243 L
620 3286 L
620 3404 L
620 3684 L
620 3188 L
620 3384 L
620 3481 L
620 3632 L
620 3506 L
620 3636 L
620 3561 L
620 3566 L
620 3404 L
620 3166 L
620 3598 L
620 3225 L
620 3250 L
620 3160 L
620 3521 L
620 3237 L
620 3502 L
620 3541 L
620 3205 L
620 3551 L
620 3386 L
620 3465 L
620 3538 L
620 3631 L
620 3603 L
620 3519 L
620 3495 L
620 3803 L
620 3526 L
620 3359 L
620 3642 L
620 3731 L
620 3475 L
620 3153 L
620 3425 L
620 3253 L
620 3075 L
620 3335 L
620 3171 L
620 3537 L
620 3583 L
620 3289 L
620 3244 L
620 3597 L
620 3183 L
620 3705 L
620 3451 L
620 3337 L
620 3461 L
620 3618 L
620 3503 L
620 3499 L
620 3160 L
620 3605 L
620 3363 L
620 3433 L
620 3496 L
620 3764 L
620 3292 L
620 3289 L
620 3149 L
620 3607 L
620 3304 L
620 3257 L
620 3387 L
620 3533 L
620 3526 L
620 3628 L
620 3279 L
620 3384 L
620 3176 L
620 3297 L
620 3412 L
620 3398 L
620 3569 L
620 3440 L
620 3639 L
620 3723 L
620 3562 L
620 3751 L
620 3551 L
620 3496 L
620 3166 L
620 3148 L
620 3587 L
620 3533 L
620 3276 L
620 3394 L
620 3440 L
620 3449 L
620 3653 L
620 3744 L
620 3905 L
620 3923 L
620 3670 L
620 3603 L
620 3489 L
620 3477 L
620 3755 L
620 3860 L
620 3318 L
620 3688 L
620 3706 L
620 3818 L
620 3548 L
620 3895 L
620 3506 L
620 3589 L
620 3737 L
620 3696 L
620 3414 L
620 3702 L
620 3626 L
620 3629 L
620 3485 L
620 3376 L
620 3608 L
620 3576 L
620 3496 L
620 3394 L
620 3836 L
620 3246 L
620 3622 L
620 3873 L
620 3653 L
620 3568 L
620 3778 L
620 3643 L
620 3412 L
620 3495 L
620 3526 L
620 3771 L
620 3541 L
620 3653 L
620 3346 L
620 3608 L
620 3492 L
620 3527 L
620 3216 L
620 3716 L
620 3220 L
620 3684 L
620 3325 L
620 3520 L
620 3797 L
620 3352 L
620 3227 L
620 3968 L
620 3930 L
620 3454 L
620 3902 L
620 3671 L
620 3442 L
620 3830 L
620 3432 L
620 3792 L
620 3796 L
620 3470 L
620 3636 L
620 3723 L
620 3692 L
620 3766 L
620 3747 L
620 3908 L
620 3362 L
620 3944 L
620 3768 L
620 3724 L
620 3559 L
620 3330 L
620 3506 L
620 3285 L
620 3170 L
620 3680 L
620 4014 L
620 3383 L
620 3456 L
620 3621 L
620 3859 L
620 3810 L
620 3475 L
620 3705 L
620 3541 L
620 3660 L
620 3744 L
620 3926 L
620 3654 L
620 3772 L
620 3576 L
620 3468 L
620 3723 L
620 3687 L
620 3465 L
620 3807 L
620 3698 L
620 3472 L
620 3999 L
620 3907 L
620 3720 L
620 3565 L
620 3584 L
620 3856 L
620 3069 L
620 3605 L
620 3638 L
620 3831 L
620 3764 L
620 3318 L
620 3421 L
620 3299 L
620 3684 L
620 3883 L
620 3657 L
620 3496 L
620 3360 L
620 3691 L
620 3881 L
620 3862 L
620 3729 L
620 3769 L
620 3352 L
620 3722 L
620 3617 L
620 3975 L
620 3757 L
620 3837 L
620 3727 L
620 3472 L
620 3428 L
620 3689 L
620 4011 L
620 3787 L
620 3458 L
620 3458 L
620 3488 L
620 3653 L
620 3428 L
620 3722 L
620 3206 L
620 3822 L
620 3605 L
620 3646 L
620 3978 L
620 3929 L
620 3724 L
620 3687 L
620 4132 L
620 3954 L
620 3897 L
620 3907 L
620 3782 L
620 3744 L
620 4061 L
620 3528 L
620 3729 L
620 3688 L
620 3699 L
620 3678 L
620 3751 L
620 3768 L
620 3724 L
620 3727 L
620 3433 L
620 3474 L
620 3890 L
620 3792 L
620 3699 L
620 3761 L
620 3722 L
620 3624 L
620 3425 L
620 3751 L
620 4000 L
620 3615 L
620 3740 L
620 3937 L
620 3733 L
620 3465 L
620 3481 L
620 3981 L
620 3801 L
620 3663 L
620 3794 L
620 3734 L
620 3675 L
620 3713 L
620 3372 L
620 3695 L
620 3779 L
620 4310 L
620 3810 L
620 3776 L
620 3758 L
620 3517 L
620 3500 L
620 3978 L
620 3845 L
620 4033 L
620 3681 L
620 3836 L
620 3365 L
620 3916 L
620 4038 L
620 3863 L
620 3216 L
620 3601 L
620 4135 L
620 3799 L
620 3930 L
620 3733 L
620 3743 L
620 3743 L
620 3425 L
620 3834 L
620 3768 L
620 3992 L
620 3484 L
620 3657 L
620 3692 L
620 3692 L
620 3671 L
620 3957 L
620 3881 L
620 3981 L
620 3656 L
620 3838 L
620 3747 L
620 3520 L
620 3897 L
620 3638 L
620 3727 L
620 3586 L
620 3668 L
620 3475 L
620 3792 L
620 3835 L
620 3891 L
620 4072 L
620 3947 L
620 3596 L
620 3844 L
620 3874 L
620 3916 L
620 3603 L
620 3785 L
620 3323 L
620 3799 L
620 3846 L
620 3587 L
620 3792 L
620 4096 L
620 3256 L
620 3830 L
620 3501 L
620 3865 L
620 3875 L
620 4257 L
620 3659 L
620 3991 L
620 3963 L
620 4232 L
620 4148 L
620 4110 L
620 4073 L
620 4264 L
620 3911 L
620 4176 L
620 4110 L
620 4029 L
620 3942 L
620 3852 L
620 3861 L
620 4435 L
620 4156 L
620 4304 L
620 4325 L
620 3708 L
620 3989 L
620 4160 L
620 4246 L
620 4311 L
620 4048 L
620 4176 L
620 4335 L
620 4044 L
620 4120 L
620 4296 L
620 4153 L
620 3981 L
620 4241 L
620 4033 L
620 4673 L
620 4330 L
620 3982 L
620 4328 L
620 4461 L
620 4160 L
620 4325 L
620 3970 L
620 4188 L
620 4199 L
620 4517 L
620 3996 L
620 3998 L
620 4709 L
620 4328 L
620 4461 L
620 4486 L
620 4332 L
620 4094 L
620 3950 L
620 4706 L
620 3879 L
620 4174 L
620 4332 L
620 4265 L
620 4031 L
620 4654 L
620 4041 L
620 4118 L
620 4163 L
620 4386 L
620 4528 L
620 4122 L
620 4162 L
620 4285 L
620 4115 L
620 4204 L
620 4493 L
620 4153 L
620 4233 L
620 4135 L
620 4292 L
620 4059 L
620 4100 L
620 4386 L
620 4520 L
620 4267 L
620 4157 L
620 4337 L
620 4257 L
620 4233 L
620 4380 L
620 4286 L
620 4285 L
620 4121 L
620 4267 L
620 4164 L
620 4019 L
620 4388 L
620 4398 L
620 4325 L
620 4194 L
620 4073 L
620 4408 L
620 4240 L
620 4349 L
620 4335 L
620 4253 L
620 4341 L
620 4269 L
620 3786 L
620 4223 L
620 4447 L
620 4517 L
620 4332 L
620 4209 L
620 4394 L
620 4370 L
620 4296 L
620 4428 L
620 4486 L
620 4768 L
620 4435 L
620 4604 L
620 4262 L
620 4475 L
620 4465 L
620 4489 L
620 4415 L
620 4097 L
620 4122 L
620 4432 L
620 4040 L
620 4330 L
620 4472 L
620 4345 L
620 4331 L
620 4782 L
620 4006 L
620 4230 L
620 4156 L
620 4146 L
620 4300 L
620 4267 L
620 4617 L
620 4442 L
620 4316 L
620 4404 L
620 4642 L
620 4863 L
620 4163 L
620 4454 L
620 4407 L
620 4213 L
620 4472 L
620 4316 L
620 4412 L
620 4230 L
620 4152 L
620 4309 L
620 4240 L
620 4402 L
620 4677 L
620 4477 L
620 4162 L
620 4561 L
620 3642 L
620 4092 L
620 4240 L
620 4586 L
620 4328 L
620 3978 L
620 4205 L
620 4255 L
620 4426 L
620 4625 L
620 4197 L
620 4789 L
620 4411 L
620 4121 L
620 4163 L
620 4463 L
620 4631 L
620 4377 L
620 4264 L
620 4472 L
620 4191 L
620 4387 L
620 4520 L
620 4356 L
620 4440 L
620 4503 L
620 4583 L
620 4078 L
620 4639 L
620 4685 L
620 4407 L
620 4027 L
620 4664 L
620 4729 L
620 4297 L
620 4250 L
620 4753 L
620 4507 L
620 4162 L
620 4225 L
620 4233 L
620 4489 L
620 3982 L
620 4143 L
620 4323 L
620 4092 L
620 4029 L
620 4341 L
620 4233 L
620 3851 L
620 4258 L
620 4246 L
620 4089 L
620 4468 L
620 4086 L
620 4250 L
620 4351 L
620 4296 L
620 4304 L
620 4514 L
620 4050 L
620 4374 L
620 4155 L
620 4537 L
620 4227 L
620 4188 L
620 4662 L
620 3922 L
620 4454 L
620 4012 L
620 4479 L
620 4080 L
620 4219 L
620 4285 L
620 4659 L
620 4170 L
620 4331 L
620 4449 L
620 4306 L
620 4127 L
620 4648 L
620 4204 L
620 4297 L
620 4276 L
620 4391 L
620 4561 L
620 4474 L
620 4349 L
620 4296 L
620 4320 L
620 4394 L
620 4041 L
620 4393 L
620 4316 L
620 4570 L
620 4089 L
620 4122 L
620 4433 L
620 4085 L
620 4104 L
620 4279 L
620 4216 L
620 4150 L
620 4204 L
620 4320 L
620 4096 L
620 4463 L
620 4292 L
620 4775 L
620 4349 L
620 4019 L
620 4750 L
620 4309 L
620 4215 L
620 4218 L
620 4461 L
620 4065 L
620 4520 L
620 4344 L
620 4241 L
620 4159 L
620 4502 L
620 4551 L
620 4040 L
620 3971 L
620 4330 L
620 4134 L
620 4572 L
620 4080 L
620 4202 L
620 4303 L
620 4185 L
620 4295 L
620 4317 L
620 4495 L
620 4302 L
620 4127 L
620 4461 L
620 4190 L
620 4247 L
620 4107 L
620 4261 L
620 4416 L
620 4247 L
620 4232 L
620 4526 L
620 4844 L
620 4327 L
620 4157 L
620 4489 L
620 3855 L
620 4257 L
620 4369 L
620 4335 L
620 4435 L
620 4009 L
620 4331 L
620 4232 L
620 4502 L
620 4415 L
620 4163 L
620 4171 L
620 4464 L
620 4099 L
620 4432 L
620 4443 L
620 4288 L
620 4069 L
620 4751 L
620 4194 L
620 4269 L
620 4310 L
620 4647 L
620 4187 L
620 4338 L
620 4218 L
620 4425 L
620 4542 L
620 4255 L
620 3739 L
620 4373 L
620 4450 L
620 4337 L
620 4443 L
620 4204 L
620 4593 L
620 4325 L
620 3970 L
620 4090 L
620 4407 L
L2 C06 COSGR

%
%================
% Legend - Begin
%================
%
GSN 4240 5180 M
4480 5180 L
LWMC SL  C06 COSGR
GSN 4540 5141 M helvM (3.0 uM) show grestore
%
%================
% Legend - End
%================
%

%
% Main frame
%
L10
GSN 
620 1700 M
4220 1700 L
4220 5300 L
620 5300 L
closepath SGR

%
% X axis: large tics
%
L10
%
% X axis: small tics
%
L5
%
% Y axis: large tics
%
L10
GSN 620 1863 M 54 0 rL SGR
GSN 4220 1863 M -54 0 rL SGR
helvS (-0.02) 560 1863 ylabel
GSN 620 2597 M 54 0 rL SGR
GSN 4220 2597 M -54 0 rL SGR
helvS (-0.01) 560 2597 ylabel
GSN 620 3331 M 54 0 rL SGR
GSN 4220 3331 M -54 0 rL SGR
helvS (0) 560 3331 ylabel
GSN 620 4066 M 54 0 rL SGR
GSN 4220 4066 M -54 0 rL SGR
helvS (0.01) 560 4066 ylabel
GSN 620 4800 M 54 0 rL SGR
GSN 4220 4800 M -54 0 rL SGR
helvS (0.02) 560 4800 ylabel
%
% Y axis: small tics
%
L5
GSN 620 1863 M 36 0 rL SGR
GSN 4220 1863 M -36 0 rL SGR
GSN 620 2047 M 36 0 rL SGR
GSN 4220 2047 M -36 0 rL SGR
GSN 620 2230 M 36 0 rL SGR
GSN 4220 2230 M -36 0 rL SGR
GSN 620 2414 M 36 0 rL SGR
GSN 4220 2414 M -36 0 rL SGR
GSN 620 2597 M 36 0 rL SGR
GSN 4220 2597 M -36 0 rL SGR
GSN 620 2781 M 36 0 rL SGR
GSN 4220 2781 M -36 0 rL SGR
GSN 620 2964 M 36 0 rL SGR
GSN 4220 2964 M -36 0 rL SGR
GSN 620 3148 M 36 0 rL SGR
GSN 4220 3148 M -36 0 rL SGR
GSN 620 3331 M 36 0 rL SGR
GSN 4220 3331 M -36 0 rL SGR
GSN 620 3515 M 36 0 rL SGR
GSN 4220 3515 M -36 0 rL SGR
GSN 620 3699 M 36 0 rL SGR
GSN 4220 3699 M -36 0 rL SGR
GSN 620 3882 M 36 0 rL SGR
GSN 4220 3882 M -36 0 rL SGR
GSN 620 4066 M 36 0 rL SGR
GSN 4220 4066 M -36 0 rL SGR
GSN 620 4249 M 36 0 rL SGR
GSN 4220 4249 M -36 0 rL SGR
GSN 620 4433 M 36 0 rL SGR
GSN 4220 4433 M -36 0 rL SGR
GSN 620 4616 M 36 0 rL SGR
GSN 4220 4616 M -36 0 rL SGR
GSN 620 4800 M 36 0 rL SGR
GSN 4220 4800 M -36 0 rL SGR
GSN 620 4983 M 36 0 rL SGR
GSN 4220 4983 M -36 0 rL SGR
GSN 620 5167 M 36 0 rL SGR
GSN 4220 5167 M -36 0 rL SGR

%
% X axis - residual panel
%
GSN L5 620 3331 M 4220 3331 L SDA G50 SGR

%
% X-Axis label:
%
gsave 620 1370 M 
[
[(Helvetica) 180 0 true true 0 (t)]
[(Helvetica) 180 0 true true 0 (i)]
[(Helvetica) 180 0 true true 0 (m)]
[(Helvetica) 180 0 true true 0 (e)]
] 0 MCshow grestore

%
% Y-Axis label:
%
gsave 234 3500 M 
currentpoint gsave translate 90 rotate 0 0 moveto
[
[(Helvetica) 180 0 true true 0 (r)]
[(Helvetica) 180 0 true true 0 (e)]
[(Helvetica) 180 0 true true 0 (s)]
[(Helvetica) 180 0 true true 0 (i)]
[(Helvetica) 180 0 true true 0 (d)]
[(Helvetica) 180 0 true true 0 (u)]
[(Helvetica) 180 0 true true 0 (a)]
[(Helvetica) 180 0 true true 0 (l)]
[(Helvetica) 180 0 true true 0 (s)]
] 0 MCshow grestore

end
showpage
%%Trailer
%%EOF
