%!PS-Adobe-3.0 EPSF-3.0
%%BoundingBox: 0 0 514 442
%%Creator: BioKin Ltd.
%%DocumentFonts: Symbol Helvetica
%%EndComments
%
/bkdict 256 dict def
bkdict begin
/M {moveto} def 
/R {rmoveto} def
/L {lineto} def
/rL {rlineto} def
/GSN {gsave newpath} def
/SGR {stroke grestore} def
/COSGR {gsave setrgbcolor stroke grestore grestore} def
/SL {setlinewidth} def
/LWMB {12} def             % line width - model curves, black & white
/LWMC {10} def             % line width - model curves, color
/L2 {2.5 setlinewidth} def
/L5 {5 setlinewidth} def
/L10 {10 setlinewidth} def
/G50 {0.5 setgray} def
/SDA {[10  20] 0 setdash} def % axes
/helvT {/Helvetica findfont 100 scalefont setfont} def % tiny
/helvS {/Helvetica findfont 125 scalefont setfont} def % small
/helvM {/Helvetica findfont 150 scalefont setfont} def % medium
/helvL {/Helvetica findfont 175 scalefont setfont} def % large
/xlabel {gsave M dup
   stringwidth exch -0.5 mul exch rmoveto show grestore} def 
/ylabel {gsave M 90 rotate dup
   stringwidth exch -0.5 mul exch rmoveto show grestore} def
/ylabelresid {gsave M dup
   stringwidth exch -1 mul exch rmoveto show grestore} def
% ======
% Shapes
% ======
% Circle:
/Circ {0 360 arc closepath} def
%
% Square:
/Squa {dup dup -0.5 mul dup dup R -2 mul 0 exch rL 1 mul 0 rL dup 0 exch -1 mul rL closepath} def
%
% Triangle Up:
/TriU {dup dup dup -0.4 mul exch -0.5 mul exch R dup 0.5 mul exch rL dup -1 mul exch 0.5 mul exch rL closepath} def 
%
% Triangle Down:
/TriD {dup dup dup 0.4 mul exch -0.5 mul exch R dup 0.5 mul exch -1 mul rL dup 0.5 mul exch rL closepath} def 
%
% Diamond:
/Diam {45 rotate Squa} def
% ======
% Fills
% ======
/GRF {gsave setgray fill grestore} def                    % gray-level Fill
/COF {gsave setrgbcolor fill grestore} def                % color fill
% ======
% Colors
% ======
/C01 {1.00	0.00	0.00} def      % Red
/C02 {0.00	0.00	1.00} def      % Blue
/C03 {0.00	0.39	0.00} def      % Dark Green
/C04 {0.78	0.08	0.52} def      % Medium Violet Red
/C05 {0.55	0.27	0.07} def      % Saddle Brown
/C06 {0.10	0.70	0.70} def      % (cyan)
/C07 {1.00	0.55	0.00} def      % Dark Orange
/C08 {0.63	0.13	0.94} def      % Purple
/C09 {0.00	0.75	1.00} def      % Deep Sky Blue
/C10 {0.20	0.80	0.20} def      % Lime Green
/C11 {0.47	0.53	0.60} def      % Light Slate Gray
/C12 {0.00	0.00	0.00} def      % Black            % or: {0.19	0.31	0.31} def      % Dark Slate Gray
%
/LGR {0.75} def % light gray
/DGR {0.33} def % dark gray
%
% =============
% Dash patterns
% =============
/dash01 { [80  20] 0 setdash } def
/dash02 { [40  20] 0 setdash } def
/dash03 { [80  20  10  20] 0 setdash } def
/dash04 { [40  20  10  20] 0 setdash } def
/dash05 { [80  20  10  10  10  20] 0 setdash } def
/dash06 { [40  20  10  10  10  20] 0 setdash } def
/dash07 { [10  10] 0 setdash } def
%
/MFshow {
   { dup 5 get 3 ge
     { 5 get 3 eq {gsave} {grestore} ifelse }
     {dup dup 0 get findfont exch 1 get scalefont setfont
     [ currentpoint ] exch dup 2 get 0 exch R dup 5 get 2 ne {dup dup 6
     get exch 4 get {show} {stringwidth pop 0 R} ifelse }if dup 5 get 0 eq
     {dup 3 get {2 get neg 0 exch R pop} {pop aload pop M} ifelse} {dup 5
     get 1 eq {dup 2 get exch dup 3 get exch 6 get stringwidth pop -2 div
     dup 0 R} {dup 6 get stringwidth pop -2 div 0 R 6 get
     show 2 index {aload pop M neg 3 -1 roll neg R pop pop} {pop pop pop
     pop aload pop M} ifelse }ifelse }ifelse }
     ifelse }
   forall} bind def
/MFwidth {0 exch {dup 3 get{dup dup 0 get findfont exch 1 get scalefont
     setfont 6 get stringwidth pop add} {pop} ifelse} forall} bind def
/MCshow { currentpoint stroke M
  exch dup MFwidth -2 div 3 -1 roll R MFshow } def
%
end
%%EndProlog
bkdict begin
0.1 0.1 scale
%
% Model curves:
%

GSN 753 3571 M
770 3571 L
803 3745 L
837 3871 L
870 3956 L
903 4010 L
924 4041 L
941 4047 L
970 4058 L
1003 4065 L
1037 4069 L
1070 4070 L
1096 4070 L
1113 4070 L
1137 4070 L
1170 4070 L
1203 4070 L
1237 4070 L
1268 4070 L
1284 4070 L
1303 4070 L
1337 4070 L
1370 4070 L
1403 4070 L
1437 4070 L
1456 4070 L
1473 4070 L
1503 4070 L
1537 4070 L
1570 4070 L
1603 4070 L
1628 4070 L
1644 4070 L
1670 4070 L
1703 4070 L
1737 4070 L
1770 4070 L
1799 4070 L
1816 4070 L
1837 4070 L
1870 4071 L
1903 4071 L
1937 4071 L
1970 4071 L
1987 4071 L
2004 4071 L
2037 4071 L
2070 4071 L
2103 4071 L
2137 4071 L
2159 4071 L
2176 4071 L
2203 4071 L
2237 4071 L
2270 4071 L
2303 4071 L
2331 4071 L
2347 4071 L
2370 4071 L
2403 4071 L
2437 4071 L
2470 4071 L
2503 4071 L
2519 4071 L
2537 4071 L
2570 4071 L
2603 4071 L
2637 4071 L
2670 4071 L
2690 4071 L
2707 4071 L
2737 4071 L
2770 4071 L
2803 4071 L
2837 4071 L
2862 4072 L
2879 4072 L
2903 4072 L
2937 4072 L
2970 4072 L
3003 4072 L
3034 4072 L
3050 4073 L
3070 4073 L
3103 4073 L
3137 4073 L
3170 4074 L
3203 4074 L
3222 4074 L
3239 4074 L
3270 4075 L
3303 4075 L
3337 4076 L
3370 4076 L
3393 4077 L
3410 4077 L
3437 4077 L
3464 4078 L
3481 4078 L
3503 4078 L
3537 4079 L
3565 4079 L
3582 4079 L
3603 4079 L
3637 4080 L
3670 4080 L
3703 4080 L
3737 4080 L
3753 4080 L
3770 4080 L
3803 4080 L
3837 4080 L
3870 4080 L
3903 4079 L
3925 4079 L
3942 4079 L
3970 4079 L
4003 4079 L
4037 4079 L
4070 4079 L
4086 4079 L
LWMC SL dash01 C01 COSGR

GSN 753 3171 M
770 3171 L
803 3482 L
837 3707 L
870 3859 L
903 3955 L
924 4011 L
941 4022 L
970 4041 L
1003 4055 L
1037 4061 L
1070 4063 L
1096 4064 L
1113 4064 L
1137 4064 L
1170 4064 L
1203 4064 L
1237 4064 L
1268 4064 L
1284 4064 L
1303 4064 L
1337 4064 L
1370 4064 L
1403 4064 L
1437 4064 L
1456 4064 L
1473 4064 L
1503 4064 L
1537 4064 L
1570 4064 L
1603 4064 L
1628 4064 L
1644 4064 L
1670 4064 L
1703 4064 L
1737 4064 L
1770 4064 L
1799 4064 L
1816 4064 L
1837 4064 L
1870 4064 L
1903 4064 L
1937 4064 L
1970 4064 L
1987 4064 L
2004 4064 L
2037 4064 L
2070 4064 L
2103 4064 L
2137 4064 L
2159 4064 L
2176 4064 L
2203 4064 L
2237 4064 L
2270 4064 L
2303 4064 L
2331 4064 L
2347 4064 L
2370 4064 L
2403 4064 L
2437 4064 L
2470 4064 L
2503 4064 L
2519 4064 L
2537 4064 L
2570 4064 L
2603 4064 L
2637 4065 L
2670 4065 L
2690 4065 L
2707 4065 L
2737 4065 L
2770 4065 L
2803 4065 L
2837 4066 L
2862 4066 L
2879 4066 L
2903 4066 L
2937 4066 L
2970 4067 L
3003 4067 L
3034 4067 L
3050 4068 L
3070 4068 L
3103 4068 L
3137 4069 L
3170 4069 L
3203 4070 L
3222 4071 L
3239 4071 L
3270 4072 L
3303 4072 L
3337 4073 L
3370 4074 L
3393 4075 L
3410 4075 L
3437 4076 L
3464 4077 L
3481 4077 L
3503 4078 L
3537 4078 L
3565 4079 L
3582 4080 L
3603 4080 L
3637 4080 L
3670 4081 L
3703 4081 L
3737 4081 L
3753 4081 L
3770 4081 L
3803 4081 L
3837 4080 L
3870 4080 L
3903 4080 L
3925 4080 L
3942 4079 L
3970 4079 L
4003 4079 L
4037 4079 L
4070 4079 L
4086 4079 L
LWMC SL dash02 C02 COSGR

GSN 753 2799 M
770 2799 L
803 3237 L
837 3554 L
870 3769 L
903 3904 L
924 3983 L
941 3999 L
970 4025 L
1003 4045 L
1037 4053 L
1070 4056 L
1096 4057 L
1113 4057 L
1137 4057 L
1170 4058 L
1203 4058 L
1237 4058 L
1268 4058 L
1284 4058 L
1303 4058 L
1337 4058 L
1370 4058 L
1403 4058 L
1437 4058 L
1456 4058 L
1473 4058 L
1503 4058 L
1537 4058 L
1570 4058 L
1603 4058 L
1628 4058 L
1644 4058 L
1670 4058 L
1703 4058 L
1737 4058 L
1770 4058 L
1799 4058 L
1816 4058 L
1837 4058 L
1870 4058 L
1903 4058 L
1937 4058 L
1970 4058 L
1987 4058 L
2004 4058 L
2037 4058 L
2070 4058 L
2103 4058 L
2137 4058 L
2159 4058 L
2176 4058 L
2203 4058 L
2237 4058 L
2270 4058 L
2303 4058 L
2331 4058 L
2347 4058 L
2370 4058 L
2403 4058 L
2437 4058 L
2470 4058 L
2503 4058 L
2519 4058 L
2537 4058 L
2570 4058 L
2603 4059 L
2637 4059 L
2670 4059 L
2690 4059 L
2707 4059 L
2737 4059 L
2770 4059 L
2803 4060 L
2837 4060 L
2862 4060 L
2879 4061 L
2903 4061 L
2937 4061 L
2970 4062 L
3003 4062 L
3034 4063 L
3050 4063 L
3070 4063 L
3103 4064 L
3137 4065 L
3170 4066 L
3203 4067 L
3222 4068 L
3239 4068 L
3270 4069 L
3303 4070 L
3337 4071 L
3370 4072 L
3393 4074 L
3410 4074 L
3437 4075 L
3464 4076 L
3481 4077 L
3503 4077 L
3537 4078 L
3565 4079 L
3582 4080 L
3603 4080 L
3637 4081 L
3670 4081 L
3703 4082 L
3737 4082 L
3753 4082 L
3770 4082 L
3803 4081 L
3837 4081 L
3870 4080 L
3903 4080 L
3925 4080 L
3942 4080 L
3970 4079 L
4003 4079 L
4037 4079 L
4070 4079 L
4086 4079 L
LWMC SL dash03 C03 COSGR

GSN 753 2404 M
770 2404 L
803 2978 L
837 3392 L
870 3673 L
903 3851 L
924 3954 L
941 3974 L
970 4008 L
1003 4034 L
1037 4045 L
1070 4049 L
1096 4051 L
1113 4051 L
1137 4051 L
1170 4051 L
1203 4051 L
1237 4051 L
1268 4051 L
1284 4051 L
1303 4051 L
1337 4051 L
1370 4051 L
1403 4051 L
1437 4051 L
1456 4051 L
1473 4051 L
1503 4051 L
1537 4051 L
1570 4051 L
1603 4051 L
1628 4051 L
1644 4051 L
1670 4051 L
1703 4051 L
1737 4051 L
1770 4051 L
1799 4051 L
1816 4051 L
1837 4051 L
1870 4051 L
1903 4051 L
1937 4051 L
1970 4051 L
1987 4051 L
2004 4051 L
2037 4051 L
2070 4051 L
2103 4051 L
2137 4051 L
2159 4051 L
2176 4051 L
2203 4051 L
2237 4051 L
2270 4051 L
2303 4051 L
2331 4051 L
2347 4051 L
2370 4051 L
2403 4052 L
2437 4052 L
2470 4052 L
2503 4052 L
2519 4052 L
2537 4052 L
2570 4052 L
2603 4052 L
2637 4052 L
2670 4053 L
2690 4053 L
2707 4053 L
2737 4053 L
2770 4054 L
2803 4054 L
2837 4054 L
2862 4055 L
2879 4055 L
2903 4055 L
2937 4056 L
2970 4056 L
3003 4057 L
3034 4058 L
3050 4059 L
3070 4059 L
3103 4060 L
3137 4061 L
3170 4062 L
3203 4063 L
3222 4064 L
3239 4065 L
3270 4066 L
3303 4067 L
3337 4069 L
3370 4071 L
3393 4072 L
3410 4073 L
3437 4074 L
3464 4076 L
3481 4077 L
3503 4077 L
3537 4079 L
3565 4080 L
3582 4081 L
3603 4081 L
3637 4082 L
3670 4082 L
3703 4083 L
3737 4083 L
3753 4082 L
3770 4082 L
3803 4082 L
3837 4081 L
3870 4081 L
3903 4080 L
3925 4080 L
3942 4080 L
3970 4079 L
4003 4079 L
4037 4079 L
4070 4079 L
4086 4079 L
LWMC SL dash04 C04 COSGR

GSN 753 1992 M
770 1992 L
803 2707 L
837 3224 L
870 3574 L
903 3795 L
924 3923 L
941 3948 L
970 3991 L
1003 4023 L
1037 4037 L
1070 4042 L
1096 4044 L
1113 4044 L
1137 4044 L
1170 4044 L
1203 4044 L
1237 4044 L
1268 4044 L
1284 4044 L
1303 4044 L
1337 4044 L
1370 4044 L
1403 4044 L
1437 4044 L
1456 4044 L
1473 4044 L
1503 4044 L
1537 4044 L
1570 4044 L
1603 4044 L
1628 4044 L
1644 4044 L
1670 4044 L
1703 4044 L
1737 4044 L
1770 4044 L
1799 4044 L
1816 4044 L
1837 4044 L
1870 4044 L
1903 4044 L
1937 4044 L
1970 4044 L
1987 4044 L
2004 4044 L
2037 4044 L
2070 4044 L
2103 4044 L
2137 4044 L
2159 4044 L
2176 4044 L
2203 4044 L
2237 4044 L
2270 4044 L
2303 4045 L
2331 4045 L
2347 4045 L
2370 4045 L
2403 4045 L
2437 4045 L
2470 4045 L
2503 4045 L
2519 4045 L
2537 4045 L
2570 4046 L
2603 4046 L
2637 4046 L
2670 4046 L
2690 4047 L
2707 4047 L
2737 4047 L
2770 4047 L
2803 4048 L
2837 4048 L
2862 4049 L
2879 4049 L
2903 4049 L
2937 4050 L
2970 4051 L
3003 4052 L
3034 4053 L
3050 4054 L
3070 4054 L
3103 4055 L
3137 4056 L
3170 4058 L
3203 4060 L
3222 4061 L
3239 4061 L
3270 4063 L
3303 4065 L
3337 4067 L
3370 4069 L
3393 4071 L
3410 4072 L
3437 4073 L
3464 4075 L
3481 4076 L
3503 4077 L
3537 4079 L
3565 4080 L
3582 4081 L
3603 4082 L
3637 4083 L
3670 4083 L
3703 4083 L
3737 4083 L
3753 4083 L
3770 4083 L
3803 4082 L
3837 4082 L
3870 4081 L
3903 4080 L
3925 4080 L
3942 4080 L
3970 4080 L
4003 4079 L
4037 4079 L
4070 4079 L
4086 4079 L
LWMC SL dash05 C05 COSGR

GSN 753 1558 M
770 1558 L
803 2422 L
837 3046 L
870 3469 L
903 3736 L
924 3891 L
941 3921 L
970 3973 L
1003 4012 L
1037 4028 L
1070 4034 L
1096 4036 L
1113 4036 L
1137 4037 L
1170 4037 L
1203 4037 L
1237 4037 L
1268 4037 L
1284 4037 L
1303 4037 L
1337 4037 L
1370 4037 L
1403 4037 L
1437 4037 L
1456 4037 L
1473 4037 L
1503 4037 L
1537 4037 L
1570 4037 L
1603 4037 L
1628 4037 L
1644 4037 L
1670 4037 L
1703 4037 L
1737 4037 L
1770 4037 L
1799 4037 L
1816 4037 L
1837 4037 L
1870 4037 L
1903 4037 L
1937 4037 L
1970 4037 L
1987 4037 L
2004 4037 L
2037 4037 L
2070 4037 L
2103 4037 L
2137 4037 L
2159 4037 L
2176 4037 L
2203 4037 L
2237 4037 L
2270 4037 L
2303 4037 L
2331 4038 L
2347 4038 L
2370 4038 L
2403 4038 L
2437 4038 L
2470 4038 L
2503 4038 L
2519 4038 L
2537 4038 L
2570 4039 L
2603 4039 L
2637 4039 L
2670 4040 L
2690 4040 L
2707 4040 L
2737 4040 L
2770 4041 L
2803 4041 L
2837 4042 L
2862 4043 L
2879 4043 L
2903 4044 L
2937 4044 L
2970 4045 L
3003 4046 L
3034 4048 L
3050 4049 L
3070 4049 L
3103 4051 L
3137 4052 L
3170 4054 L
3203 4056 L
3222 4058 L
3239 4058 L
3270 4060 L
3303 4062 L
3337 4065 L
3370 4067 L
3393 4070 L
3410 4071 L
3437 4072 L
3464 4075 L
3481 4076 L
3503 4077 L
3537 4079 L
3565 4081 L
3582 4082 L
3603 4083 L
3637 4084 L
3670 4084 L
3703 4084 L
3737 4084 L
3753 4084 L
3770 4084 L
3803 4083 L
3837 4082 L
3870 4081 L
3903 4081 L
3925 4080 L
3942 4080 L
3970 4080 L
4003 4079 L
4037 4079 L
4070 4079 L
4086 4079 L
LWMC SL dash06 C06 COSGR

GSN 753 753 M
770 753 L
803 1894 L
837 2717 L
870 3275 L
903 3627 L
924 3831 L
941 3871 L
970 3939 L
1003 3990 L
1037 4012 L
1070 4020 L
1096 4022 L
1113 4023 L
1137 4023 L
1170 4023 L
1203 4023 L
1237 4023 L
1268 4023 L
1284 4023 L
1303 4023 L
1337 4023 L
1370 4023 L
1403 4023 L
1437 4023 L
1456 4023 L
1473 4023 L
1503 4023 L
1537 4023 L
1570 4023 L
1603 4023 L
1628 4023 L
1644 4023 L
1670 4023 L
1703 4023 L
1737 4023 L
1770 4023 L
1799 4023 L
1816 4023 L
1837 4023 L
1870 4023 L
1903 4023 L
1937 4023 L
1970 4023 L
1987 4023 L
2004 4023 L
2037 4024 L
2070 4024 L
2103 4024 L
2137 4024 L
2159 4024 L
2176 4024 L
2203 4024 L
2237 4024 L
2270 4024 L
2303 4024 L
2331 4024 L
2347 4024 L
2370 4024 L
2403 4025 L
2437 4025 L
2470 4025 L
2503 4025 L
2519 4026 L
2537 4026 L
2570 4026 L
2603 4026 L
2637 4027 L
2670 4027 L
2690 4028 L
2707 4028 L
2737 4028 L
2770 4029 L
2803 4030 L
2837 4031 L
2862 4032 L
2879 4032 L
2903 4033 L
2937 4034 L
2970 4035 L
3003 4037 L
3034 4038 L
3050 4040 L
3070 4040 L
3103 4042 L
3137 4045 L
3170 4047 L
3203 4050 L
3222 4052 L
3239 4053 L
3270 4055 L
3303 4059 L
3337 4062 L
3370 4065 L
3393 4068 L
3410 4070 L
3437 4072 L
3464 4075 L
3481 4077 L
3503 4078 L
3537 4080 L
3565 4083 L
3582 4084 L
3603 4084 L
3637 4086 L
3670 4086 L
3703 4086 L
3737 4086 L
3753 4085 L
3770 4085 L
3803 4084 L
3837 4083 L
3870 4082 L
3903 4081 L
3925 4080 L
3942 4080 L
3970 4080 L
4003 4079 L
4037 4079 L
4070 4079 L
4086 4079 L
LWMC SL dash07 C07 COSGR

%
%================
% Legend - Begin
%================
%
GSN 4240 4040 M
4480 4040 L
LWMC SL dash01 C01 COSGR
GSN 4540 4001 M helvM (0.5 uM) show grestore
GSN 4240 3860 M
4480 3860 L
LWMC SL dash02 C02 COSGR
GSN 4540 3821 M helvM (1.0 uM) show grestore
GSN 4240 3680 M
4480 3680 L
LWMC SL dash03 C03 COSGR
GSN 4540 3641 M helvM (1.5 uM) show grestore
GSN 4240 3500 M
4480 3500 L
LWMC SL dash04 C04 COSGR
GSN 4540 3461 M helvM (2.0 uM) show grestore
GSN 4240 3320 M
4480 3320 L
LWMC SL dash05 C05 COSGR
GSN 4540 3281 M helvM (2.5 uM) show grestore
GSN 4240 3140 M
4480 3140 L
LWMC SL dash06 C06 COSGR
GSN 4540 3101 M helvM (3.0 uM) show grestore
GSN 4240 2960 M
4480 2960 L
LWMC SL dash07 C07 COSGR
GSN 4540 2921 M helvM (4.0 uM) show grestore
%
%================
% Legend - End
%================
%

%
% Main frame
%
L10
GSN 
620 620 M
4220 620 L
4220 4220 L
620 4220 L
closepath SGR

%
% X axis: large tics
%
L10
GSN 1130 620 M 0  54 rL SGR
GSN 1130 4220 M 0 -54 rL SGR
helvS (0.0001) 1130 470 xlabel
GSN 1716 620 M 0  54 rL SGR
GSN 1716 4220 M 0 -54 rL SGR
helvS (0.001) 1716 470 xlabel
GSN 2303 620 M 0  54 rL SGR
GSN 2303 4220 M 0 -54 rL SGR
helvS (0.01) 2303 470 xlabel
GSN 2889 620 M 0  54 rL SGR
GSN 2889 4220 M 0 -54 rL SGR
helvS (0.1) 2889 470 xlabel
GSN 3476 620 M 0  54 rL SGR
GSN 3476 4220 M 0 -54 rL SGR
helvS (1) 3476 470 xlabel
GSN 4062 620 M 0  54 rL SGR
GSN 4062 4220 M 0 -54 rL SGR
helvS (10) 4062 470 xlabel
%
% X axis: small tics
%
L5
GSN 720 620 M 0  36 rL SGR
GSN 720 4220 M 0 -36 rL SGR
GSN 824 620 M 0  36 rL SGR
GSN 824 4220 M 0 -36 rL SGR
GSN 897 620 M 0  36 rL SGR
GSN 897 4220 M 0 -36 rL SGR
GSN 954 620 M 0  36 rL SGR
GSN 954 4220 M 0 -36 rL SGR
GSN 1000 620 M 0  36 rL SGR
GSN 1000 4220 M 0 -36 rL SGR
GSN 1039 620 M 0  36 rL SGR
GSN 1039 4220 M 0 -36 rL SGR
GSN 1073 620 M 0  36 rL SGR
GSN 1073 4220 M 0 -36 rL SGR
GSN 1103 620 M 0  36 rL SGR
GSN 1103 4220 M 0 -36 rL SGR
GSN 1307 620 M 0  36 rL SGR
GSN 1307 4220 M 0 -36 rL SGR
GSN 1410 620 M 0  36 rL SGR
GSN 1410 4220 M 0 -36 rL SGR
GSN 1483 620 M 0  36 rL SGR
GSN 1483 4220 M 0 -36 rL SGR
GSN 1540 620 M 0  36 rL SGR
GSN 1540 4220 M 0 -36 rL SGR
GSN 1586 620 M 0  36 rL SGR
GSN 1586 4220 M 0 -36 rL SGR
GSN 1626 620 M 0  36 rL SGR
GSN 1626 4220 M 0 -36 rL SGR
GSN 1660 620 M 0  36 rL SGR
GSN 1660 4220 M 0 -36 rL SGR
GSN 1690 620 M 0  36 rL SGR
GSN 1690 4220 M 0 -36 rL SGR
GSN 1893 620 M 0  36 rL SGR
GSN 1893 4220 M 0 -36 rL SGR
GSN 1996 620 M 0  36 rL SGR
GSN 1996 4220 M 0 -36 rL SGR
GSN 2069 620 M 0  36 rL SGR
GSN 2069 4220 M 0 -36 rL SGR
GSN 2126 620 M 0  36 rL SGR
GSN 2126 4220 M 0 -36 rL SGR
GSN 2173 620 M 0  36 rL SGR
GSN 2173 4220 M 0 -36 rL SGR
GSN 2212 620 M 0  36 rL SGR
GSN 2212 4220 M 0 -36 rL SGR
GSN 2246 620 M 0  36 rL SGR
GSN 2246 4220 M 0 -36 rL SGR
GSN 2276 620 M 0  36 rL SGR
GSN 2276 4220 M 0 -36 rL SGR
GSN 2479 620 M 0  36 rL SGR
GSN 2479 4220 M 0 -36 rL SGR
GSN 2583 620 M 0  36 rL SGR
GSN 2583 4220 M 0 -36 rL SGR
GSN 2656 620 M 0  36 rL SGR
GSN 2656 4220 M 0 -36 rL SGR
GSN 2713 620 M 0  36 rL SGR
GSN 2713 4220 M 0 -36 rL SGR
GSN 2759 620 M 0  36 rL SGR
GSN 2759 4220 M 0 -36 rL SGR
GSN 2798 620 M 0  36 rL SGR
GSN 2798 4220 M 0 -36 rL SGR
GSN 2832 620 M 0  36 rL SGR
GSN 2832 4220 M 0 -36 rL SGR
GSN 2862 620 M 0  36 rL SGR
GSN 2862 4220 M 0 -36 rL SGR
GSN 3066 620 M 0  36 rL SGR
GSN 3066 4220 M 0 -36 rL SGR
GSN 3169 620 M 0  36 rL SGR
GSN 3169 4220 M 0 -36 rL SGR
GSN 3242 620 M 0  36 rL SGR
GSN 3242 4220 M 0 -36 rL SGR
GSN 3299 620 M 0  36 rL SGR
GSN 3299 4220 M 0 -36 rL SGR
GSN 3345 620 M 0  36 rL SGR
GSN 3345 4220 M 0 -36 rL SGR
GSN 3385 620 M 0  36 rL SGR
GSN 3385 4220 M 0 -36 rL SGR
GSN 3419 620 M 0  36 rL SGR
GSN 3419 4220 M 0 -36 rL SGR
GSN 3449 620 M 0  36 rL SGR
GSN 3449 4220 M 0 -36 rL SGR
GSN 3652 620 M 0  36 rL SGR
GSN 3652 4220 M 0 -36 rL SGR
GSN 3755 620 M 0  36 rL SGR
GSN 3755 4220 M 0 -36 rL SGR
GSN 3829 620 M 0  36 rL SGR
GSN 3829 4220 M 0 -36 rL SGR
GSN 3885 620 M 0  36 rL SGR
GSN 3885 4220 M 0 -36 rL SGR
GSN 3932 620 M 0  36 rL SGR
GSN 3932 4220 M 0 -36 rL SGR
GSN 3971 620 M 0  36 rL SGR
GSN 3971 4220 M 0 -36 rL SGR
GSN 4005 620 M 0  36 rL SGR
GSN 4005 4220 M 0 -36 rL SGR
GSN 4035 620 M 0  36 rL SGR
GSN 4035 4220 M 0 -36 rL SGR
%
% Y axis: large tics
%
L10
GSN 620 1741 M 54 0 rL SGR
GSN 4220 1741 M -54 0 rL SGR
helvS (-2) 560 1741 ylabel
GSN 620 2910 M 54 0 rL SGR
GSN 4220 2910 M -54 0 rL SGR
helvS (-1) 560 2910 ylabel
GSN 620 4079 M 54 0 rL SGR
GSN 4220 4079 M -54 0 rL SGR
helvS (0) 560 4079 ylabel
%
% Y axis: small tics
%
L5
GSN 620 864 M 36 0 rL SGR
GSN 4220 864 M -36 0 rL SGR
GSN 620 1156 M 36 0 rL SGR
GSN 4220 1156 M -36 0 rL SGR
GSN 620 1449 M 36 0 rL SGR
GSN 4220 1449 M -36 0 rL SGR
GSN 620 1741 M 36 0 rL SGR
GSN 4220 1741 M -36 0 rL SGR
GSN 620 2033 M 36 0 rL SGR
GSN 4220 2033 M -36 0 rL SGR
GSN 620 2325 M 36 0 rL SGR
GSN 4220 2325 M -36 0 rL SGR
GSN 620 2618 M 36 0 rL SGR
GSN 4220 2618 M -36 0 rL SGR
GSN 620 2910 M 36 0 rL SGR
GSN 4220 2910 M -36 0 rL SGR
GSN 620 3202 M 36 0 rL SGR
GSN 4220 3202 M -36 0 rL SGR
GSN 620 3494 M 36 0 rL SGR
GSN 4220 3494 M -36 0 rL SGR
GSN 620 3787 M 36 0 rL SGR
GSN 4220 3787 M -36 0 rL SGR
GSN 620 4079 M 36 0 rL SGR
GSN 4220 4079 M -36 0 rL SGR

%
% X axis
%
GSN L5 620 4079 M 4220 4079 L SDA G50 SGR

%
% X-Axis label:
%
gsave 2420 290 M 
[
[(Helvetica) 180 0 true true 0 (t)]
[(Helvetica) 180 0 true true 0 (i)]
[(Helvetica) 180 0 true true 0 (m)]
[(Helvetica) 180 0 true true 0 (e)]
] 0 MCshow grestore

%
% Y-Axis label:
%
gsave 234 2420 M 
currentpoint gsave translate 90 rotate 0 0 moveto
[
[(Helvetica) 180 0 true true 0 (d)]
[(Helvetica) 180 0 true true 0 (\()]
[(Helvetica) 180 0 true true 0 (s)]
[(Helvetica) 180 0 true true 0 (i)]
[(Helvetica) 180 0 true true 0 (g)]
[(Helvetica) 180 0 true true 0 (n)]
[(Helvetica) 180 0 true true 0 (a)]
[(Helvetica) 180 0 true true 0 (l)]
[(Helvetica) 180 0 true true 0 (\))]
[(Helvetica) 180 0 true true 0 ( )]
[(Helvetica) 180 0 true true 0 (/)]
[(Helvetica) 180 0 true true 0 ( )]
[(Helvetica) 180 0 true true 0 (d)]
[(Helvetica) 180 0 true true 0 (t)]
] 0 MCshow grestore

end
showpage
%%Trailer
%%EOF
