%!PS-Adobe-3.0 EPSF-3.0
%%BoundingBox: 0 0 514 550
%%Creator: BioKin Ltd.
%%DocumentFonts: Symbol Helvetica
%%EndComments
%
/bkdict 256 dict def
bkdict begin
/M {moveto} def 
/R {rmoveto} def
/L {lineto} def
/rL {rlineto} def
/GSN {gsave newpath} def
/SGR {stroke grestore} def
/COSGR {gsave setrgbcolor stroke grestore grestore} def
/SL {setlinewidth} def
/LWMB {12} def             % line width - model curves, black & white
/LWMC {10} def             % line width - model curves, color
/L2 {2.5 setlinewidth} def
/L5 {5 setlinewidth} def
/L10 {10 setlinewidth} def
/G50 {0.5 setgray} def
/SDA {[10  20] 0 setdash} def % axes
/helvT {/Helvetica findfont 100 scalefont setfont} def % tiny
/helvS {/Helvetica findfont 125 scalefont setfont} def % small
/helvM {/Helvetica findfont 150 scalefont setfont} def % medium
/helvL {/Helvetica findfont 175 scalefont setfont} def % large
/xlabel {gsave M dup
   stringwidth exch -0.5 mul exch rmoveto show grestore} def 
/ylabel {gsave M 90 rotate dup
   stringwidth exch -0.5 mul exch rmoveto show grestore} def
/ylabelresid {gsave M dup
   stringwidth exch -1 mul exch rmoveto show grestore} def
% ======
% Shapes
% ======
% Circle:
/Circ {0 360 arc closepath} def
%
% Square:
/Squa {dup dup -0.5 mul dup dup R -2 mul 0 exch rL 1 mul 0 rL dup 0 exch -1 mul rL closepath} def
%
% Triangle Up:
/TriU {dup dup dup -0.4 mul exch -0.5 mul exch R dup 0.5 mul exch rL dup -1 mul exch 0.5 mul exch rL closepath} def 
%
% Triangle Down:
/TriD {dup dup dup 0.4 mul exch -0.5 mul exch R dup 0.5 mul exch -1 mul rL dup 0.5 mul exch rL closepath} def 
%
% Diamond:
/Diam {45 rotate Squa} def
% ======
% Fills
% ======
/GRF {gsave setgray fill grestore} def                    % gray-level Fill
/COF {gsave setrgbcolor fill grestore} def                % color fill
% ======
% Colors
% ======
/C01 {1.00	0.00	0.00} def      % Red
/C02 {0.00	0.00	1.00} def      % Blue
/C03 {0.00	0.39	0.00} def      % Dark Green
/C04 {0.78	0.08	0.52} def      % Medium Violet Red
/C05 {0.55	0.27	0.07} def      % Saddle Brown
/C06 {0.10	0.70	0.70} def      % (cyan)
/C07 {1.00	0.55	0.00} def      % Dark Orange
/C08 {0.63	0.13	0.94} def      % Purple
/C09 {0.00	0.75	1.00} def      % Deep Sky Blue
/C10 {0.20	0.80	0.20} def      % Lime Green
/C11 {0.47	0.53	0.60} def      % Light Slate Gray
/C12 {0.00	0.00	0.00} def      % Black            % or: {0.19	0.31	0.31} def      % Dark Slate Gray
%
/LGR {0.75} def % light gray
/DGR {0.33} def % dark gray
%
% =============
% Dash patterns
% =============
/dash01 { [80  20] 0 setdash } def
/dash02 { [40  20] 0 setdash } def
/dash03 { [80  20  10  20] 0 setdash } def
/dash04 { [40  20  10  20] 0 setdash } def
/dash05 { [80  20  10  10  10  20] 0 setdash } def
/dash06 { [40  20  10  10  10  20] 0 setdash } def
/dash07 { [10  10] 0 setdash } def
%
/MFshow {
   { dup 5 get 3 ge
     { 5 get 3 eq {gsave} {grestore} ifelse }
     {dup dup 0 get findfont exch 1 get scalefont setfont
     [ currentpoint ] exch dup 2 get 0 exch R dup 5 get 2 ne {dup dup 6
     get exch 4 get {show} {stringwidth pop 0 R} ifelse }if dup 5 get 0 eq
     {dup 3 get {2 get neg 0 exch R pop} {pop aload pop M} ifelse} {dup 5
     get 1 eq {dup 2 get exch dup 3 get exch 6 get stringwidth pop -2 div
     dup 0 R} {dup 6 get stringwidth pop -2 div 0 R 6 get
     show 2 index {aload pop M neg 3 -1 roll neg R pop pop} {pop pop pop
     pop aload pop M} ifelse }ifelse }ifelse }
     ifelse }
   forall} bind def
/MFwidth {0 exch {dup 3 get{dup dup 0 get findfont exch 1 get scalefont
     setfont 6 get stringwidth pop add} {pop} ifelse} forall} bind def
/MCshow { currentpoint stroke M
  exch dup MFwidth -2 div 3 -1 roll R MFshow } def
%
end
%%EndProlog
bkdict begin
0.1 0.1 scale
%
% Residuals:
%
GSN 620 4863 M
620 4640 L
620 4483 L
620 4663 L
620 4458 L
620 4649 L
620 4388 L
620 4389 L
620 4389 L
620 4223 L
620 4213 L
620 4218 L
620 4000 L
620 4011 L
620 4026 L
620 4016 L
620 4141 L
620 3974 L
620 4017 L
620 3941 L
620 3938 L
620 3911 L
620 3925 L
620 3741 L
620 3860 L
620 3908 L
620 3641 L
620 3796 L
620 3596 L
620 3727 L
620 3624 L
620 3573 L
620 3617 L
620 3658 L
620 3612 L
620 3539 L
620 3625 L
620 3755 L
620 3446 L
620 3554 L
620 3552 L
620 3528 L
620 3506 L
620 3292 L
620 3567 L
620 3553 L
620 3340 L
620 3418 L
620 3238 L
620 3316 L
620 3347 L
620 3446 L
620 3473 L
620 3295 L
620 3238 L
620 3415 L
620 3146 L
620 3239 L
620 3239 L
620 3076 L
620 3071 L
620 3185 L
620 3236 L
620 3178 L
620 3093 L
620 3064 L
620 2957 L
620 3097 L
620 3069 L
620 3022 L
620 3105 L
620 3192 L
620 3033 L
620 3006 L
620 3026 L
620 3099 L
620 2965 L
620 2899 L
620 3163 L
620 2894 L
620 3108 L
620 2672 L
620 2984 L
620 2730 L
620 2700 L
620 2772 L
620 2643 L
620 2610 L
620 2706 L
620 2679 L
620 2612 L
620 2580 L
620 2472 L
620 2512 L
620 2533 L
620 2714 L
620 2476 L
620 2520 L
620 2544 L
620 2518 L
620 2232 L
620 2338 L
620 2456 L
620 2431 L
620 2426 L
620 2302 L
620 2397 L
620 2515 L
620 2369 L
620 2375 L
620 2310 L
620 2234 L
620 2449 L
620 2341 L
620 2304 L
620 2335 L
620 2394 L
620 2201 L
620 2284 L
620 2388 L
620 2285 L
620 2309 L
620 2269 L
620 2302 L
620 2290 L
620 2305 L
620 2327 L
620 2328 L
620 2371 L
620 2196 L
620 2325 L
620 2427 L
620 2308 L
620 2336 L
620 2317 L
620 2377 L
620 2322 L
620 2295 L
620 2280 L
620 2318 L
620 2359 L
620 2354 L
620 2338 L
620 2379 L
620 2374 L
620 2454 L
620 2490 L
620 2136 L
620 2209 L
620 2314 L
620 2486 L
620 2438 L
620 2317 L
620 2396 L
620 2401 L
620 2389 L
620 2365 L
620 2457 L
620 2347 L
620 2399 L
620 2289 L
620 2394 L
620 2496 L
620 2332 L
620 2468 L
620 2414 L
620 2405 L
620 2394 L
620 2559 L
620 2411 L
620 2549 L
620 2486 L
620 2505 L
620 2563 L
620 2423 L
620 2423 L
620 2550 L
620 2516 L
620 2430 L
620 2458 L
620 2467 L
620 2535 L
620 2635 L
620 2502 L
620 2579 L
620 2483 L
620 2597 L
620 2598 L
620 2449 L
620 2517 L
620 2540 L
620 2619 L
620 2429 L
620 2511 L
620 2584 L
620 2576 L
620 2466 L
620 2509 L
620 2490 L
620 2600 L
620 2543 L
620 2611 L
620 2422 L
620 2737 L
620 2555 L
620 2570 L
620 2611 L
620 2544 L
620 2602 L
620 2659 L
620 2585 L
620 2567 L
620 2649 L
620 2474 L
620 2574 L
620 2643 L
620 2724 L
620 2685 L
620 2661 L
620 2659 L
620 2663 L
620 2645 L
620 2769 L
620 2742 L
620 2752 L
620 2537 L
620 2658 L
620 2845 L
620 2731 L
620 2748 L
620 2668 L
620 2749 L
620 2718 L
620 2618 L
620 2745 L
620 2676 L
620 2870 L
620 2858 L
620 2643 L
620 2820 L
620 2705 L
620 2760 L
620 2708 L
620 2851 L
620 2705 L
620 2642 L
620 2594 L
620 2836 L
620 2667 L
620 2670 L
620 2653 L
620 2667 L
620 2736 L
620 2806 L
620 2838 L
620 2718 L
620 2723 L
620 2730 L
620 2821 L
620 2650 L
620 2676 L
620 2958 L
620 2839 L
620 2835 L
620 2883 L
620 2824 L
620 2816 L
620 2770 L
620 2676 L
620 2812 L
620 2908 L
620 2757 L
620 2576 L
620 2834 L
620 2785 L
620 2804 L
620 2897 L
620 2739 L
620 2843 L
620 2849 L
620 2942 L
620 2952 L
620 2964 L
620 2981 L
620 3097 L
620 2870 L
620 3035 L
620 3192 L
620 3065 L
620 3122 L
620 2965 L
620 3108 L
620 3116 L
620 3104 L
620 3132 L
620 3125 L
620 2932 L
620 3154 L
620 3107 L
620 3069 L
620 3091 L
620 3170 L
620 3084 L
620 3045 L
620 3219 L
620 2952 L
620 3230 L
620 3107 L
620 3108 L
620 3064 L
620 3079 L
620 3141 L
620 3055 L
620 3037 L
620 3048 L
620 3129 L
620 3098 L
620 3019 L
620 3079 L
620 3074 L
620 2979 L
620 3014 L
620 3077 L
620 3141 L
620 3081 L
620 3082 L
620 3005 L
620 3024 L
620 2992 L
620 3070 L
620 3160 L
620 3032 L
620 3213 L
620 3196 L
620 3029 L
620 3139 L
620 3099 L
620 3012 L
620 3072 L
620 3351 L
620 3073 L
620 3149 L
620 2995 L
620 2959 L
620 3035 L
620 2997 L
620 3069 L
620 3151 L
620 3012 L
620 3082 L
620 2984 L
620 2956 L
620 2965 L
620 2841 L
620 3163 L
620 2912 L
620 3034 L
620 2989 L
620 3105 L
620 3016 L
620 3002 L
620 3067 L
620 3108 L
620 3046 L
620 2876 L
620 3059 L
620 3055 L
620 2946 L
620 2891 L
620 2987 L
620 2897 L
620 3145 L
620 2998 L
620 3008 L
620 2927 L
620 3020 L
620 2888 L
620 3037 L
620 3044 L
620 2858 L
620 2745 L
620 2990 L
620 3078 L
620 2903 L
620 2847 L
620 2937 L
620 2892 L
620 2974 L
620 2805 L
620 2973 L
620 2994 L
620 3006 L
620 2901 L
620 2938 L
620 3054 L
620 2827 L
620 2784 L
620 3026 L
620 2815 L
620 2946 L
620 2718 L
620 2874 L
620 2780 L
620 2939 L
620 3121 L
620 2895 L
620 2831 L
620 2932 L
620 2666 L
620 2855 L
620 2921 L
620 2973 L
620 2806 L
620 2989 L
620 2813 L
620 2928 L
620 2917 L
620 2934 L
620 2998 L
620 2758 L
620 2955 L
620 2781 L
620 2847 L
620 2874 L
620 2961 L
620 2883 L
620 2831 L
620 2945 L
620 2790 L
620 2853 L
620 2886 L
620 2938 L
620 2890 L
620 3019 L
620 2898 L
620 3062 L
620 2837 L
620 2988 L
620 2931 L
620 2913 L
620 2908 L
620 2916 L
620 2902 L
620 2839 L
620 2852 L
620 3122 L
620 2902 L
620 2810 L
620 2940 L
620 2898 L
620 3076 L
620 2850 L
620 3044 L
620 3053 L
620 2856 L
620 3004 L
620 2892 L
620 2973 L
620 2986 L
620 3020 L
620 2745 L
620 3041 L
620 2795 L
620 2887 L
620 2871 L
620 2976 L
620 2987 L
620 2689 L
620 2825 L
620 2831 L
620 2937 L
620 3039 L
620 2835 L
620 2868 L
620 2635 L
620 2945 L
620 2831 L
620 2963 L
620 2644 L
620 2882 L
620 3037 L
620 2751 L
620 2776 L
620 2816 L
620 2790 L
620 2883 L
620 2904 L
620 2938 L
620 2914 L
620 2869 L
620 2872 L
620 2767 L
620 2938 L
620 2932 L
620 2625 L
620 2899 L
620 2823 L
620 2920 L
620 2854 L
620 2891 L
620 2984 L
620 2905 L
620 2801 L
620 2748 L
620 2893 L
620 2920 L
620 2766 L
620 2748 L
620 2910 L
620 2954 L
620 2777 L
620 2940 L
620 2880 L
620 2753 L
620 2896 L
620 2902 L
620 3169 L
620 2859 L
620 2850 L
620 2965 L
620 2824 L
620 2911 L
620 3001 L
620 2925 L
620 2925 L
620 2810 L
620 2909 L
620 2947 L
620 2909 L
620 2832 L
620 2816 L
620 2879 L
620 2847 L
L2 C04 COSGR

%
%================
% Legend - Begin
%================
%
GSN 4240 5180 M
4480 5180 L
LWMC SL  C04 COSGR
GSN 4540 5141 M helvM (2.0 uM) show grestore
%
%================
% Legend - End
%================
%

%
% Main frame
%
L10
GSN 
620 1700 M
4220 1700 L
4220 5300 L
620 5300 L
closepath SGR

%
% X axis: large tics
%
L10
%
% X axis: small tics
%
L5
%
% Y axis: large tics
%
L10
GSN 620 2072 M 54 0 rL SGR
GSN 4220 2072 M -54 0 rL SGR
helvS (-0.025) 560 2072 ylabel
GSN 620 2902 M 54 0 rL SGR
GSN 4220 2902 M -54 0 rL SGR
helvS (0) 560 2902 ylabel
GSN 620 3731 M 54 0 rL SGR
GSN 4220 3731 M -54 0 rL SGR
helvS (0.025) 560 3731 ylabel
GSN 620 4561 M 54 0 rL SGR
GSN 4220 4561 M -54 0 rL SGR
helvS (0.05) 560 4561 ylabel
%
% Y axis: small tics
%
L5
GSN 620 1906 M 36 0 rL SGR
GSN 4220 1906 M -36 0 rL SGR
GSN 620 2321 M 36 0 rL SGR
GSN 4220 2321 M -36 0 rL SGR
GSN 620 2736 M 36 0 rL SGR
GSN 4220 2736 M -36 0 rL SGR
GSN 620 3151 M 36 0 rL SGR
GSN 4220 3151 M -36 0 rL SGR
GSN 620 3565 M 36 0 rL SGR
GSN 4220 3565 M -36 0 rL SGR
GSN 620 3980 M 36 0 rL SGR
GSN 4220 3980 M -36 0 rL SGR
GSN 620 4395 M 36 0 rL SGR
GSN 4220 4395 M -36 0 rL SGR
GSN 620 4810 M 36 0 rL SGR
GSN 4220 4810 M -36 0 rL SGR
GSN 620 5225 M 36 0 rL SGR
GSN 4220 5225 M -36 0 rL SGR

%
% X axis - residual panel
%
GSN L5 620 2902 M 4220 2902 L SDA G50 SGR

%
% X-Axis label:
%
gsave 620 1370 M 
[
[(Helvetica) 180 0 true true 0 (t)]
[(Helvetica) 180 0 true true 0 (i)]
[(Helvetica) 180 0 true true 0 (m)]
[(Helvetica) 180 0 true true 0 (e)]
] 0 MCshow grestore

%
% Y-Axis label:
%
gsave 234 3499 M 
currentpoint gsave translate 90 rotate 0 0 moveto
[
[(Helvetica) 180 0 true true 0 (r)]
[(Helvetica) 180 0 true true 0 (e)]
[(Helvetica) 180 0 true true 0 (s)]
[(Helvetica) 180 0 true true 0 (i)]
[(Helvetica) 180 0 true true 0 (d)]
[(Helvetica) 180 0 true true 0 (u)]
[(Helvetica) 180 0 true true 0 (a)]
[(Helvetica) 180 0 true true 0 (l)]
[(Helvetica) 180 0 true true 0 (s)]
] 0 MCshow grestore

end
showpage
%%Trailer
%%EOF
