%!PS-Adobe-3.0 EPSF-3.0
%%BoundingBox: 0 0 514 550
%%Creator: BioKin Ltd.
%%DocumentFonts: Symbol Helvetica
%%EndComments
%
/bkdict 256 dict def
bkdict begin
/M {moveto} def 
/R {rmoveto} def
/L {lineto} def
/rL {rlineto} def
/GSN {gsave newpath} def
/SGR {stroke grestore} def
/COSGR {gsave setrgbcolor stroke grestore grestore} def
/SL {setlinewidth} def
/LWMB {12} def             % line width - model curves, black & white
/LWMC {10} def             % line width - model curves, color
/L2 {2.5 setlinewidth} def
/L5 {5 setlinewidth} def
/L10 {10 setlinewidth} def
/G50 {0.5 setgray} def
/SDA {[10  20] 0 setdash} def % axes
/helvT {/Helvetica findfont 100 scalefont setfont} def % tiny
/helvS {/Helvetica findfont 125 scalefont setfont} def % small
/helvM {/Helvetica findfont 150 scalefont setfont} def % medium
/helvL {/Helvetica findfont 175 scalefont setfont} def % large
/xlabel {gsave M dup
   stringwidth exch -0.5 mul exch rmoveto show grestore} def 
/ylabel {gsave M 90 rotate dup
   stringwidth exch -0.5 mul exch rmoveto show grestore} def
/ylabelresid {gsave M dup
   stringwidth exch -1 mul exch rmoveto show grestore} def
% ======
% Shapes
% ======
% Circle:
/Circ {0 360 arc closepath} def
%
% Square:
/Squa {dup dup -0.5 mul dup dup R -2 mul 0 exch rL 1 mul 0 rL dup 0 exch -1 mul rL closepath} def
%
% Triangle Up:
/TriU {dup dup dup -0.4 mul exch -0.5 mul exch R dup 0.5 mul exch rL dup -1 mul exch 0.5 mul exch rL closepath} def 
%
% Triangle Down:
/TriD {dup dup dup 0.4 mul exch -0.5 mul exch R dup 0.5 mul exch -1 mul rL dup 0.5 mul exch rL closepath} def 
%
% Diamond:
/Diam {45 rotate Squa} def
% ======
% Fills
% ======
/GRF {gsave setgray fill grestore} def                    % gray-level Fill
/COF {gsave setrgbcolor fill grestore} def                % color fill
% ======
% Colors
% ======
/C01 {1.00	0.00	0.00} def      % Red
/C02 {0.00	0.00	1.00} def      % Blue
/C03 {0.00	0.39	0.00} def      % Dark Green
/C04 {0.78	0.08	0.52} def      % Medium Violet Red
/C05 {0.55	0.27	0.07} def      % Saddle Brown
/C06 {0.10	0.70	0.70} def      % (cyan)
/C07 {1.00	0.55	0.00} def      % Dark Orange
/C08 {0.63	0.13	0.94} def      % Purple
/C09 {0.00	0.75	1.00} def      % Deep Sky Blue
/C10 {0.20	0.80	0.20} def      % Lime Green
/C11 {0.47	0.53	0.60} def      % Light Slate Gray
/C12 {0.00	0.00	0.00} def      % Black            % or: {0.19	0.31	0.31} def      % Dark Slate Gray
%
/LGR {0.75} def % light gray
/DGR {0.33} def % dark gray
%
% =============
% Dash patterns
% =============
/dash01 { [80  20] 0 setdash } def
/dash02 { [40  20] 0 setdash } def
/dash03 { [80  20  10  20] 0 setdash } def
/dash04 { [40  20  10  20] 0 setdash } def
/dash05 { [80  20  10  10  10  20] 0 setdash } def
/dash06 { [40  20  10  10  10  20] 0 setdash } def
/dash07 { [10  10] 0 setdash } def
%
/MFshow {
   { dup 5 get 3 ge
     { 5 get 3 eq {gsave} {grestore} ifelse }
     {dup dup 0 get findfont exch 1 get scalefont setfont
     [ currentpoint ] exch dup 2 get 0 exch R dup 5 get 2 ne {dup dup 6
     get exch 4 get {show} {stringwidth pop 0 R} ifelse }if dup 5 get 0 eq
     {dup 3 get {2 get neg 0 exch R pop} {pop aload pop M} ifelse} {dup 5
     get 1 eq {dup 2 get exch dup 3 get exch 6 get stringwidth pop -2 div
     dup 0 R} {dup 6 get stringwidth pop -2 div 0 R 6 get
     show 2 index {aload pop M neg 3 -1 roll neg R pop pop} {pop pop pop
     pop aload pop M} ifelse }ifelse }ifelse }
     ifelse }
   forall} bind def
/MFwidth {0 exch {dup 3 get{dup dup 0 get findfont exch 1 get scalefont
     setfont 6 get stringwidth pop add} {pop} ifelse} forall} bind def
/MCshow { currentpoint stroke M
  exch dup MFwidth -2 div 3 -1 roll R MFshow } def
%
end
%%EndProlog
bkdict begin
0.1 0.1 scale
%
% Model curves:
%

GSN 753 5062 M
753 5062 L
786 5069 L
820 5076 L
853 5083 L
886 5091 L
903 5096 L
919 5100 L
953 5109 L
986 5118 L
1020 5127 L
1053 5136 L
1053 5136 L
1086 5144 L
1120 5152 L
1153 5158 L
1186 5162 L
1203 5164 L
1220 5165 L
1253 5166 L
1286 5165 L
1320 5163 L
1353 5159 L
1353 5159 L
1386 5154 L
1420 5147 L
1453 5139 L
1486 5129 L
1503 5124 L
1520 5118 L
1553 5106 L
1586 5091 L
1620 5074 L
1653 5054 L
1653 5054 L
1686 5031 L
1720 5005 L
1753 4975 L
1786 4941 L
1804 4921 L
1820 4901 L
1853 4857 L
1886 4806 L
1920 4749 L
1953 4685 L
1954 4683 L
1986 4613 L
2020 4534 L
2053 4447 L
2086 4351 L
2104 4297 L
2120 4248 L
2153 4137 L
2186 4020 L
2220 3897 L
2253 3770 L
2254 3766 L
2286 3641 L
2320 3512 L
2353 3386 L
2386 3264 L
2404 3201 L
2420 3149 L
2453 3044 L
2486 2950 L
2520 2869 L
2553 2802 L
2554 2800 L
2586 2749 L
2620 2709 L
2653 2681 L
2686 2663 L
2704 2656 L
2720 2652 L
2753 2646 L
2786 2643 L
2820 2642 L
2853 2642 L
2854 2642 L
2886 2642 L
2920 2641 L
2953 2641 L
2986 2641 L
3004 2641 L
3020 2641 L
3053 2641 L
3068 2641 L
3086 2641 L
3120 2641 L
3153 2641 L
3155 2641 L
3186 2641 L
3220 2641 L
3253 2641 L
3286 2641 L
3305 2641 L
3320 2641 L
3353 2641 L
3386 2641 L
3420 2641 L
3453 2641 L
3455 2641 L
3486 2641 L
3520 2641 L
3553 2641 L
3586 2641 L
3605 2641 L
3620 2641 L
3653 2641 L
3686 2641 L
3720 2641 L
3753 2641 L
3755 2641 L
3786 2641 L
3820 2641 L
3853 2641 L
3886 2641 L
3905 2641 L
3920 2641 L
3953 2641 L
3986 2641 L
4020 2641 L
4053 2641 L
4086 2641 L
LWMC SL  C06 COSGR

%
% Experimental data:
%
GSN 773 4664 M
1625 4934 L
1773 4804 L
1860 4514 L
1922 4665 L
1970 4536 L
2009 4350 L
2043 4377 L
2072 4200 L
2097 4146 L
2120 4285 L
2140 4121 L
2159 4028 L
2176 4111 L
2192 4057 L
2207 3940 L
2221 3977 L
2234 3799 L
2247 3859 L
2259 3873 L
2270 3914 L
2280 3947 L
2290 3732 L
2300 3680 L
2309 3597 L
2318 3652 L
2326 3893 L
2335 3820 L
2342 3636 L
2350 3619 L
2357 3571 L
2364 3558 L
2371 3564 L
2378 3641 L
2384 3257 L
2391 3636 L
2397 3329 L
2403 3328 L
2409 3245 L
2414 3359 L
2420 3349 L
2425 3071 L
2430 3298 L
2435 3285 L
2440 3114 L
2445 3215 L
2450 3325 L
2455 3294 L
2459 3036 L
2464 3090 L
2468 3110 L
2472 2999 L
2476 2963 L
2481 3070 L
2485 3102 L
2489 2963 L
2492 2867 L
2496 2880 L
2500 2872 L
2504 3070 L
2507 2902 L
2511 3037 L
2514 3034 L
2518 2869 L
2521 2881 L
2525 2757 L
2528 2734 L
2531 2956 L
2534 2863 L
2538 2961 L
2541 2673 L
2544 2791 L
2547 2832 L
2550 2855 L
2553 2812 L
2556 2771 L
2559 2655 L
2561 2653 L
2564 2749 L
2567 2769 L
2570 2801 L
2580 2574 L
2590 2509 L
2600 2478 L
2609 2266 L
2618 2475 L
2627 2547 L
2635 2394 L
2643 2404 L
2650 2345 L
2658 2449 L
2665 2090 L
2672 2378 L
2678 2222 L
2685 2171 L
2691 2059 L
2697 2080 L
2703 2169 L
2709 2126 L
2714 2003 L
2720 2090 L
2725 2136 L
2730 2273 L
2735 2046 L
2740 2126 L
2745 2222 L
2750 2091 L
2755 2126 L
2759 2049 L
2764 2111 L
2768 2059 L
2772 2102 L
2777 1931 L
2781 1857 L
2785 1918 L
2789 1833 L
2793 1962 L
2796 1856 L
2800 2116 L
2804 2056 L
2808 2078 L
2811 2012 L
2815 2137 L
2818 2181 L
2822 1941 L
2825 2036 L
2828 2143 L
2831 1945 L
2835 2256 L
2838 2046 L
2841 1935 L
2844 2193 L
2847 2210 L
2850 2195 L
2853 2076 L
2856 1849 L
2859 2283 L
2862 2100 L
2864 2054 L
2867 2031 L
2870 2280 L
2873 2130 L
2875 2103 L
2878 2411 L
2880 2002 L
2883 1977 L
2886 2122 L
2888 2110 L
2891 2163 L
2893 2083 L
2895 1974 L
2898 2172 L
2900 2289 L
2902 2176 L
2905 2147 L
2907 2077 L
2909 2048 L
2912 2337 L
2914 2198 L
2916 2036 L
2918 2274 L
2920 2103 L
2922 2111 L
2925 2355 L
2927 2175 L
2929 2175 L
2931 2418 L
2933 2258 L
2935 2210 L
2937 2330 L
2939 2377 L
2941 2272 L
2943 2161 L
2945 2263 L
2947 2492 L
2948 2370 L
2950 2161 L
2952 2455 L
2954 2423 L
2956 2264 L
2958 2144 L
2959 2438 L
2961 2453 L
2963 2315 L
2965 2096 L
2966 2441 L
2968 2355 L
2970 2385 L
2972 2566 L
2973 2333 L
2975 2418 L
2977 2517 L
2978 2342 L
2980 2407 L
2982 2355 L
2983 2485 L
2985 2516 L
2986 2410 L
2988 2354 L
2989 2340 L
2991 2362 L
2993 2463 L
2994 2626 L
2996 2443 L
2997 2506 L
2999 2238 L
3000 2544 L
3002 2395 L
3003 2542 L
3005 2465 L
3006 2390 L
3007 2637 L
3009 2616 L
3010 2417 L
3012 2499 L
3013 2572 L
3014 2640 L
3016 2425 L
3017 2607 L
3019 2674 L
3020 2563 L
3021 2525 L
3023 2368 L
3024 2580 L
3025 2383 L
3027 2529 L
3028 2590 L
3029 2580 L
3031 2646 L
3032 2618 L
3033 2462 L
3034 2779 L
3036 2514 L
3037 2493 L
3038 2747 L
3039 2599 L
3041 2576 L
3042 2621 L
3043 2408 L
3044 2480 L
3045 2783 L
3047 2722 L
3048 2667 L
3049 2806 L
3050 2565 L
3051 2497 L
3053 2548 L
3054 2796 L
3055 2684 L
3056 2546 L
3057 2608 L
3058 2744 L
3059 2663 L
3061 2667 L
3062 2480 L
3063 2747 L
3064 2843 L
3065 2646 L
3066 2620 L
3067 2664 L
3068 2717 L
3069 2665 L
3070 2685 L
3071 2722 L
3073 2520 L
3074 2802 L
3075 2727 L
3076 2679 L
3077 2732 L
3078 2825 L
3079 2487 L
3080 2617 L
3081 2695 L
3082 2832 L
3083 2656 L
3084 2747 L
3085 2687 L
3086 2746 L
3087 2751 L
3088 2464 L
3089 2889 L
3112 2768 L
3133 2964 L
3152 2788 L
3170 2755 L
3186 3016 L
3201 3008 L
3216 2903 L
3229 2855 L
3241 3091 L
3253 2946 L
3264 3017 L
3275 2809 L
3285 2983 L
3295 2926 L
3304 2993 L
3313 2965 L
3322 3049 L
3330 2978 L
3338 2903 L
3346 3056 L
3353 2969 L
3360 2985 L
3367 3020 L
3374 3072 L
3380 2981 L
3387 2890 L
3393 3097 L
3399 2963 L
3405 3176 L
3410 3312 L
3416 3097 L
3421 3007 L
3426 2926 L
3431 3159 L
3436 3071 L
3441 2903 L
3446 2982 L
3451 3033 L
3455 3188 L
3460 3238 L
3464 2926 L
3469 2916 L
3473 2965 L
3477 3094 L
3481 3004 L
3485 3132 L
3489 3087 L
3493 2993 L
3496 3005 L
3500 2989 L
3504 3000 L
3507 3010 L
3511 2883 L
3514 2949 L
3518 3263 L
3521 2955 L
3525 3026 L
3528 2859 L
3531 2881 L
3534 3011 L
3537 2941 L
3540 2973 L
3543 2923 L
3546 3021 L
3549 3113 L
3552 2891 L
3555 3250 L
3558 2939 L
3561 2977 L
3564 3081 L
3566 2886 L
3575 2839 L
3586 3064 L
3595 3118 L
3605 2806 L
3613 3000 L
3622 2825 L
3630 2866 L
3638 3085 L
3646 2959 L
3653 2920 L
3660 2802 L
3667 2909 L
3674 2936 L
3681 3086 L
3687 3007 L
3693 2839 L
3699 2914 L
3705 2913 L
3710 2996 L
3716 2735 L
3721 2855 L
3727 2806 L
3732 2786 L
3737 2911 L
3742 2812 L
3746 2789 L
3751 2962 L
3756 3140 L
3760 3010 L
3764 2895 L
3769 2720 L
3773 2966 L
3777 2694 L
3781 2873 L
3785 2936 L
3789 2818 L
3793 2862 L
3797 2926 L
3800 2933 L
3804 2778 L
3808 2712 L
3811 2707 L
3815 2708 L
3818 2804 L
3821 2807 L
3825 2683 L
3828 2765 L
3831 2772 L
3834 2580 L
3838 2767 L
3841 2847 L
3844 2831 L
3847 2731 L
3850 2772 L
3853 2731 L
3855 2859 L
3858 2738 L
3861 2824 L
3864 2982 L
3867 2861 L
3869 2741 L
3872 2866 L
3875 2803 L
3877 2809 L
3880 2836 L
3882 2587 L
3885 2635 L
3887 2772 L
3890 2861 L
3892 2805 L
3895 2700 L
3897 2726 L
3899 2760 L
3902 2845 L
3904 2753 L
3906 2939 L
3908 2837 L
3911 2785 L
3913 2963 L
3915 2859 L
3917 2777 L
3919 2793 L
3921 2794 L
3923 2745 L
3926 2634 L
3928 2881 L
3930 2678 L
3932 2899 L
3934 2923 L
3936 2809 L
3938 2728 L
3940 2735 L
3942 2886 L
3943 2916 L
3945 2758 L
3947 2818 L
3949 2904 L
3951 2797 L
3953 2763 L
3955 2770 L
3956 2681 L
3958 2548 L
3960 2617 L
3962 2631 L
3963 2634 L
3965 2728 L
3967 2704 L
3969 2793 L
3970 2873 L
3972 2733 L
3974 2749 L
3975 2933 L
3977 2823 L
3978 2678 L
3980 2824 L
3982 3027 L
3983 2673 L
3985 2761 L
3986 2856 L
3988 2554 L
3990 2603 L
3991 2620 L
3993 2932 L
3994 2824 L
3996 2682 L
3997 2751 L
3999 2616 L
4000 2739 L
4001 2453 L
4003 2855 L
4004 2707 L
4006 2596 L
4007 2566 L
4009 2868 L
4010 2735 L
4011 2524 L
4013 2858 L
4014 2815 L
4016 2860 L
4017 2602 L
4018 2735 L
4020 2610 L
4021 2668 L
4022 2852 L
4024 2613 L
4025 2765 L
4026 2599 L
4028 2518 L
4029 2698 L
4030 2725 L
4031 2783 L
4033 2755 L
4034 2783 L
4035 2782 L
4036 2903 L
4038 2842 L
4039 2809 L
4040 2706 L
4041 2704 L
4042 2578 L
4044 2631 L
4045 2739 L
4046 2720 L
4047 2749 L
4048 2690 L
4050 2817 L
4051 2656 L
4052 2981 L
4053 2637 L
4054 2800 L
4055 2658 L
4056 2639 L
4058 2921 L
4059 2711 L
4060 2725 L
4061 2704 L
4062 2861 L
4063 2890 L
4064 2695 L
4065 2744 L
4066 2614 L
L2 C06 COSGR

%
%================
% Legend - Begin
%================
%
GSN 4240 5180 M
4480 5180 L
LWMC SL  C06 COSGR
GSN 4540 5141 M helvM (3.0 uM) show grestore
%
%================
% Legend - End
%================
%

%
% Residuals:
%
GSN 773 976 M
1625 1122 L
1773 1115 L
1860 1015 L
1922 1154 L
1970 1136 L
2009 1082 L
2043 1145 L
2072 1091 L
2097 1103 L
2120 1219 L
2140 1166 L
2159 1150 L
2176 1229 L
2192 1232 L
2207 1197 L
2221 1246 L
2234 1175 L
2247 1234 L
2259 1267 L
2270 1314 L
2280 1354 L
2290 1257 L
2300 1249 L
2309 1223 L
2318 1272 L
2326 1423 L
2335 1400 L
2342 1315 L
2350 1321 L
2357 1310 L
2364 1317 L
2371 1335 L
2378 1390 L
2384 1191 L
2391 1413 L
2397 1255 L
2403 1266 L
2409 1231 L
2414 1304 L
2420 1309 L
2425 1165 L
2430 1300 L
2435 1302 L
2440 1216 L
2445 1280 L
2450 1348 L
2455 1339 L
2459 1204 L
2464 1241 L
2468 1259 L
2472 1204 L
2476 1191 L
2481 1256 L
2485 1280 L
2489 1209 L
2492 1161 L
2496 1174 L
2500 1174 L
2504 1289 L
2507 1201 L
2511 1280 L
2514 1283 L
2518 1196 L
2521 1207 L
2525 1142 L
2528 1134 L
2531 1260 L
2534 1212 L
2538 1270 L
2541 1114 L
2544 1183 L
2547 1209 L
2550 1224 L
2553 1204 L
2556 1184 L
2559 1122 L
2561 1124 L
2564 1180 L
2567 1193 L
2570 1213 L
2580 1097 L
2590 1069 L
2600 1058 L
2609 947 L
2618 1068 L
2627 1112 L
2635 1032 L
2643 1041 L
2650 1012 L
2658 1072 L
2665 876 L
2672 1037 L
2678 953 L
2685 926 L
2691 865 L
2697 879 L
2703 929 L
2709 906 L
2714 839 L
2720 888 L
2725 914 L
2730 990 L
2735 865 L
2740 910 L
2745 963 L
2750 891 L
2755 911 L
2759 869 L
2764 903 L
2768 874 L
2772 898 L
2777 804 L
2781 764 L
2785 798 L
2789 750 L
2793 822 L
2796 763 L
2800 907 L
2804 874 L
2808 886 L
2811 850 L
2815 919 L
2818 943 L
2822 811 L
2825 863 L
2828 923 L
2831 813 L
2835 985 L
2838 869 L
2841 807 L
2844 950 L
2847 960 L
2850 951 L
2853 886 L
2856 760 L
2859 1000 L
2862 899 L
2864 873 L
2867 861 L
2870 998 L
2873 916 L
2875 901 L
2878 1071 L
2880 845 L
2883 831 L
2886 911 L
2888 905 L
2891 934 L
2893 890 L
2895 829 L
2898 939 L
2900 1003 L
2902 941 L
2905 925 L
2907 886 L
2909 870 L
2912 1030 L
2914 953 L
2916 864 L
2918 995 L
2920 900 L
2922 905 L
2925 1040 L
2927 940 L
2929 940 L
2931 1075 L
2933 986 L
2935 960 L
2937 1026 L
2939 1052 L
2941 994 L
2943 933 L
2945 989 L
2947 1116 L
2948 1048 L
2950 933 L
2952 1095 L
2954 1077 L
2956 990 L
2958 923 L
2959 1086 L
2961 1094 L
2963 1018 L
2965 896 L
2966 1087 L
2968 1040 L
2970 1057 L
2972 1157 L
2973 1028 L
2975 1075 L
2977 1129 L
2978 1033 L
2980 1069 L
2982 1040 L
2983 1112 L
2985 1129 L
2986 1070 L
2988 1039 L
2989 1031 L
2991 1044 L
2993 1100 L
2994 1189 L
2996 1089 L
2997 1123 L
2999 975 L
3000 1144 L
3002 1062 L
3003 1143 L
3005 1100 L
3006 1059 L
3007 1195 L
3009 1184 L
3010 1074 L
3012 1119 L
3013 1160 L
3014 1197 L
3016 1079 L
3017 1179 L
3019 1216 L
3020 1155 L
3021 1134 L
3023 1047 L
3024 1164 L
3025 1055 L
3027 1136 L
3028 1169 L
3029 1164 L
3031 1201 L
3032 1185 L
3033 1099 L
3034 1274 L
3036 1128 L
3037 1116 L
3038 1256 L
3039 1175 L
3041 1162 L
3042 1187 L
3043 1069 L
3044 1109 L
3045 1276 L
3047 1243 L
3048 1212 L
3049 1289 L
3050 1156 L
3051 1118 L
3053 1146 L
3054 1284 L
3055 1222 L
3056 1146 L
3057 1180 L
3058 1255 L
3059 1210 L
3061 1212 L
3062 1109 L
3063 1256 L
3064 1310 L
3065 1201 L
3066 1186 L
3067 1211 L
3068 1240 L
3069 1211 L
3070 1222 L
3071 1243 L
3073 1131 L
3074 1287 L
3075 1246 L
3076 1219 L
3077 1248 L
3078 1299 L
3079 1113 L
3080 1185 L
3081 1228 L
3082 1304 L
3083 1206 L
3084 1257 L
3085 1223 L
3086 1256 L
3087 1258 L
3088 1100 L
3089 1335 L
3112 1268 L
3133 1377 L
3152 1279 L
3170 1261 L
3186 1405 L
3201 1401 L
3216 1342 L
3229 1316 L
3241 1446 L
3253 1367 L
3264 1406 L
3275 1291 L
3285 1387 L
3295 1356 L
3304 1393 L
3313 1377 L
3322 1423 L
3330 1384 L
3338 1343 L
3346 1427 L
3353 1379 L
3360 1388 L
3367 1407 L
3374 1436 L
3380 1386 L
3387 1336 L
3393 1450 L
3399 1376 L
3405 1494 L
3410 1569 L
3416 1450 L
3421 1400 L
3426 1355 L
3431 1484 L
3436 1436 L
3441 1343 L
3446 1386 L
3451 1414 L
3455 1500 L
3460 1528 L
3464 1355 L
3469 1350 L
3473 1377 L
3477 1448 L
3481 1399 L
3485 1469 L
3489 1444 L
3493 1393 L
3496 1399 L
3500 1390 L
3504 1396 L
3507 1402 L
3511 1332 L
3514 1368 L
3518 1542 L
3521 1371 L
3525 1411 L
3528 1318 L
3531 1331 L
3534 1403 L
3537 1364 L
3540 1381 L
3543 1354 L
3546 1408 L
3549 1459 L
3552 1336 L
3555 1535 L
3558 1363 L
3561 1384 L
3564 1441 L
3566 1334 L
3575 1308 L
3586 1432 L
3595 1462 L
3605 1289 L
3613 1396 L
3622 1299 L
3630 1322 L
3638 1443 L
3646 1374 L
3653 1352 L
3660 1287 L
3667 1346 L
3674 1361 L
3681 1444 L
3687 1400 L
3693 1307 L
3699 1349 L
3705 1348 L
3710 1394 L
3716 1250 L
3721 1316 L
3727 1289 L
3732 1278 L
3737 1347 L
3742 1293 L
3746 1280 L
3751 1375 L
3756 1474 L
3760 1402 L
3764 1338 L
3769 1242 L
3773 1378 L
3777 1227 L
3781 1326 L
3785 1361 L
3789 1296 L
3793 1320 L
3797 1355 L
3800 1359 L
3804 1274 L
3808 1237 L
3811 1234 L
3815 1235 L
3818 1288 L
3821 1290 L
3825 1221 L
3828 1266 L
3831 1270 L
3834 1164 L
3838 1267 L
3841 1312 L
3844 1303 L
3847 1248 L
3850 1270 L
3853 1247 L
3855 1319 L
3858 1252 L
3861 1299 L
3864 1386 L
3867 1319 L
3869 1253 L
3872 1322 L
3875 1288 L
3877 1290 L
3880 1306 L
3882 1168 L
3885 1195 L
3887 1270 L
3890 1319 L
3892 1289 L
3895 1230 L
3897 1245 L
3899 1264 L
3902 1311 L
3904 1260 L
3906 1362 L
3908 1306 L
3911 1278 L
3913 1376 L
3915 1319 L
3917 1273 L
3919 1282 L
3921 1282 L
3923 1255 L
3926 1194 L
3928 1331 L
3930 1219 L
3932 1341 L
3934 1354 L
3936 1291 L
3938 1246 L
3940 1250 L
3942 1333 L
3943 1350 L
3945 1263 L
3947 1296 L
3949 1343 L
3951 1284 L
3953 1265 L
3955 1269 L
3956 1220 L
3958 1147 L
3960 1185 L
3962 1193 L
3963 1194 L
3965 1246 L
3967 1233 L
3969 1282 L
3970 1326 L
3972 1249 L
3974 1258 L
3975 1359 L
3977 1299 L
3978 1218 L
3980 1299 L
3982 1411 L
3983 1216 L
3985 1264 L
3986 1317 L
3988 1150 L
3990 1177 L
3991 1187 L
3993 1359 L
3994 1299 L
3996 1221 L
3997 1259 L
3999 1184 L
4000 1252 L
4001 1094 L
4003 1316 L
4004 1234 L
4006 1173 L
4007 1156 L
4009 1323 L
4010 1250 L
4011 1133 L
4013 1318 L
4014 1294 L
4016 1319 L
4017 1176 L
4018 1250 L
4020 1181 L
4021 1213 L
4022 1315 L
4024 1182 L
4025 1267 L
4026 1175 L
4028 1130 L
4029 1230 L
4030 1244 L
4031 1276 L
4033 1261 L
4034 1276 L
4035 1276 L
4036 1343 L
4038 1309 L
4039 1291 L
4040 1234 L
4041 1233 L
4042 1163 L
4044 1192 L
4045 1252 L
4046 1242 L
4047 1258 L
4048 1225 L
4050 1295 L
4051 1206 L
4052 1386 L
4053 1196 L
4054 1286 L
4055 1207 L
4056 1197 L
4058 1353 L
4059 1236 L
4060 1245 L
4061 1233 L
4062 1319 L
4063 1336 L
4064 1228 L
4065 1255 L
4066 1183 L
L2 C06 COSGR

%
% Main frame
%
L10
GSN 
620 1700 M
4220 1700 L
4220 5300 L
620 5300 L
closepath SGR

%
% X axis: large tics
%
L10
GSN 1074 1700 M 0  54 rL SGR
GSN 1074 5300 M 0 -54 rL SGR
helvS (0.0001) 1074 470 xlabel
GSN 1572 1700 M 0  54 rL SGR
GSN 1572 5300 M 0 -54 rL SGR
helvS (0.001) 1572 470 xlabel
GSN 2071 1700 M 0  54 rL SGR
GSN 2071 5300 M 0 -54 rL SGR
helvS (0.01) 2071 470 xlabel
GSN 2570 1700 M 0  54 rL SGR
GSN 2570 5300 M 0 -54 rL SGR
helvS (0.1) 2570 470 xlabel
GSN 3068 1700 M 0  54 rL SGR
GSN 3068 5300 M 0 -54 rL SGR
helvS (1) 3068 470 xlabel
GSN 3567 1700 M 0  54 rL SGR
GSN 3567 5300 M 0 -54 rL SGR
helvS (10) 3567 470 xlabel
GSN 4066 1700 M 0  54 rL SGR
GSN 4066 5300 M 0 -54 rL SGR
helvS (100) 4066 470 xlabel
%
% X axis: small tics
%
L5
GSN 725 1700 M 0  36 rL SGR
GSN 725 5300 M 0 -36 rL SGR
GSN 813 1700 M 0  36 rL SGR
GSN 813 5300 M 0 -36 rL SGR
GSN 875 1700 M 0  36 rL SGR
GSN 875 5300 M 0 -36 rL SGR
GSN 924 1700 M 0  36 rL SGR
GSN 924 5300 M 0 -36 rL SGR
GSN 963 1700 M 0  36 rL SGR
GSN 963 5300 M 0 -36 rL SGR
GSN 996 1700 M 0  36 rL SGR
GSN 996 5300 M 0 -36 rL SGR
GSN 1025 1700 M 0  36 rL SGR
GSN 1025 5300 M 0 -36 rL SGR
GSN 1051 1700 M 0  36 rL SGR
GSN 1051 5300 M 0 -36 rL SGR
GSN 1224 1700 M 0  36 rL SGR
GSN 1224 5300 M 0 -36 rL SGR
GSN 1312 1700 M 0  36 rL SGR
GSN 1312 5300 M 0 -36 rL SGR
GSN 1374 1700 M 0  36 rL SGR
GSN 1374 5300 M 0 -36 rL SGR
GSN 1422 1700 M 0  36 rL SGR
GSN 1422 5300 M 0 -36 rL SGR
GSN 1462 1700 M 0  36 rL SGR
GSN 1462 5300 M 0 -36 rL SGR
GSN 1495 1700 M 0  36 rL SGR
GSN 1495 5300 M 0 -36 rL SGR
GSN 1524 1700 M 0  36 rL SGR
GSN 1524 5300 M 0 -36 rL SGR
GSN 1550 1700 M 0  36 rL SGR
GSN 1550 5300 M 0 -36 rL SGR
GSN 1722 1700 M 0  36 rL SGR
GSN 1722 5300 M 0 -36 rL SGR
GSN 1810 1700 M 0  36 rL SGR
GSN 1810 5300 M 0 -36 rL SGR
GSN 1873 1700 M 0  36 rL SGR
GSN 1873 5300 M 0 -36 rL SGR
GSN 1921 1700 M 0  36 rL SGR
GSN 1921 5300 M 0 -36 rL SGR
GSN 1960 1700 M 0  36 rL SGR
GSN 1960 5300 M 0 -36 rL SGR
GSN 1994 1700 M 0  36 rL SGR
GSN 1994 5300 M 0 -36 rL SGR
GSN 2023 1700 M 0  36 rL SGR
GSN 2023 5300 M 0 -36 rL SGR
GSN 2048 1700 M 0  36 rL SGR
GSN 2048 5300 M 0 -36 rL SGR
GSN 2221 1700 M 0  36 rL SGR
GSN 2221 5300 M 0 -36 rL SGR
GSN 2309 1700 M 0  36 rL SGR
GSN 2309 5300 M 0 -36 rL SGR
GSN 2371 1700 M 0  36 rL SGR
GSN 2371 5300 M 0 -36 rL SGR
GSN 2420 1700 M 0  36 rL SGR
GSN 2420 5300 M 0 -36 rL SGR
GSN 2459 1700 M 0  36 rL SGR
GSN 2459 5300 M 0 -36 rL SGR
GSN 2492 1700 M 0  36 rL SGR
GSN 2492 5300 M 0 -36 rL SGR
GSN 2521 1700 M 0  36 rL SGR
GSN 2521 5300 M 0 -36 rL SGR
GSN 2547 1700 M 0  36 rL SGR
GSN 2547 5300 M 0 -36 rL SGR
GSN 2720 1700 M 0  36 rL SGR
GSN 2720 5300 M 0 -36 rL SGR
GSN 2808 1700 M 0  36 rL SGR
GSN 2808 5300 M 0 -36 rL SGR
GSN 2870 1700 M 0  36 rL SGR
GSN 2870 5300 M 0 -36 rL SGR
GSN 2918 1700 M 0  36 rL SGR
GSN 2918 5300 M 0 -36 rL SGR
GSN 2958 1700 M 0  36 rL SGR
GSN 2958 5300 M 0 -36 rL SGR
GSN 2991 1700 M 0  36 rL SGR
GSN 2991 5300 M 0 -36 rL SGR
GSN 3020 1700 M 0  36 rL SGR
GSN 3020 5300 M 0 -36 rL SGR
GSN 3045 1700 M 0  36 rL SGR
GSN 3045 5300 M 0 -36 rL SGR
GSN 3218 1700 M 0  36 rL SGR
GSN 3218 5300 M 0 -36 rL SGR
GSN 3306 1700 M 0  36 rL SGR
GSN 3306 5300 M 0 -36 rL SGR
GSN 3368 1700 M 0  36 rL SGR
GSN 3368 5300 M 0 -36 rL SGR
GSN 3417 1700 M 0  36 rL SGR
GSN 3417 5300 M 0 -36 rL SGR
GSN 3456 1700 M 0  36 rL SGR
GSN 3456 5300 M 0 -36 rL SGR
GSN 3490 1700 M 0  36 rL SGR
GSN 3490 5300 M 0 -36 rL SGR
GSN 3519 1700 M 0  36 rL SGR
GSN 3519 5300 M 0 -36 rL SGR
GSN 3544 1700 M 0  36 rL SGR
GSN 3544 5300 M 0 -36 rL SGR
GSN 3717 1700 M 0  36 rL SGR
GSN 3717 5300 M 0 -36 rL SGR
GSN 3805 1700 M 0  36 rL SGR
GSN 3805 5300 M 0 -36 rL SGR
GSN 3867 1700 M 0  36 rL SGR
GSN 3867 5300 M 0 -36 rL SGR
GSN 3915 1700 M 0  36 rL SGR
GSN 3915 5300 M 0 -36 rL SGR
GSN 3955 1700 M 0  36 rL SGR
GSN 3955 5300 M 0 -36 rL SGR
GSN 3988 1700 M 0  36 rL SGR
GSN 3988 5300 M 0 -36 rL SGR
GSN 4017 1700 M 0  36 rL SGR
GSN 4017 5300 M 0 -36 rL SGR
GSN 4043 1700 M 0  36 rL SGR
GSN 4043 5300 M 0 -36 rL SGR
GSN 4216 1700 M 0  36 rL SGR
GSN 4216 5300 M 0 -36 rL SGR
%
% Y axis: large tics
%
L10
GSN 620 2340 M 54 0 rL SGR
GSN 4220 2340 M -54 0 rL SGR
helvS (0.92) 560 2340 ylabel
GSN 620 3148 M 54 0 rL SGR
GSN 4220 3148 M -54 0 rL SGR
helvS (0.94) 560 3148 ylabel
GSN 620 3956 M 54 0 rL SGR
GSN 4220 3956 M -54 0 rL SGR
helvS (0.96) 560 3956 ylabel
GSN 620 4764 M 54 0 rL SGR
GSN 4220 4764 M -54 0 rL SGR
helvS (0.98) 560 4764 ylabel
%
% Y axis: small tics
%
L5
GSN 620 1734 M 36 0 rL SGR
GSN 4220 1734 M -36 0 rL SGR
GSN 620 1936 M 36 0 rL SGR
GSN 4220 1936 M -36 0 rL SGR
GSN 620 2138 M 36 0 rL SGR
GSN 4220 2138 M -36 0 rL SGR
GSN 620 2340 M 36 0 rL SGR
GSN 4220 2340 M -36 0 rL SGR
GSN 620 2542 M 36 0 rL SGR
GSN 4220 2542 M -36 0 rL SGR
GSN 620 2744 M 36 0 rL SGR
GSN 4220 2744 M -36 0 rL SGR
GSN 620 2946 M 36 0 rL SGR
GSN 4220 2946 M -36 0 rL SGR
GSN 620 3148 M 36 0 rL SGR
GSN 4220 3148 M -36 0 rL SGR
GSN 620 3350 M 36 0 rL SGR
GSN 4220 3350 M -36 0 rL SGR
GSN 620 3552 M 36 0 rL SGR
GSN 4220 3552 M -36 0 rL SGR
GSN 620 3754 M 36 0 rL SGR
GSN 4220 3754 M -36 0 rL SGR
GSN 620 3956 M 36 0 rL SGR
GSN 4220 3956 M -36 0 rL SGR
GSN 620 4158 M 36 0 rL SGR
GSN 4220 4158 M -36 0 rL SGR
GSN 620 4360 M 36 0 rL SGR
GSN 4220 4360 M -36 0 rL SGR
GSN 620 4562 M 36 0 rL SGR
GSN 4220 4562 M -36 0 rL SGR
GSN 620 4764 M 36 0 rL SGR
GSN 4220 4764 M -36 0 rL SGR
GSN 620 4966 M 36 0 rL SGR
GSN 4220 4966 M -36 0 rL SGR
GSN 620 5168 M 36 0 rL SGR
GSN 4220 5168 M -36 0 rL SGR

%
% X-Axis label:
%
gsave 2420 290 M 
[
[(Helvetica) 180 0 true true 0 (t)]
[(Helvetica) 180 0 true true 0 (i)]
[(Helvetica) 180 0 true true 0 (m)]
[(Helvetica) 180 0 true true 0 (e)]
] 0 MCshow grestore

%
% Y-Axis label:
%
gsave 234 3499 M 
currentpoint gsave translate 90 rotate 0 0 moveto
[
[(Helvetica) 180 0 true true 0 (s)]
[(Helvetica) 180 0 true true 0 (i)]
[(Helvetica) 180 0 true true 0 (g)]
[(Helvetica) 180 0 true true 0 (n)]
[(Helvetica) 180 0 true true 0 (a)]
[(Helvetica) 180 0 true true 0 (l)]
] 0 MCshow grestore

%
% Residuals:
%
gsave 129 1160 M 
currentpoint gsave translate 90 rotate 0 0 moveto
[
[(Helvetica) 150 0 true true 0 (r)]
[(Helvetica) 150 0 true true 0 (e)]
[(Helvetica) 150 0 true true 0 (s)]
[(Helvetica) 150 0 true true 0 (i)]
[(Helvetica) 150 0 true true 0 (d)]
[(Helvetica) 150 0 true true 0 (u)]
[(Helvetica) 150 0 true true 0 (a)]
[(Helvetica) 150 0 true true 0 (l)]
[(Helvetica) 150 0 true true 0 (s)]
] 0 MCshow grestore

%
% Residual frame
%
L10
GSN 
620 620 M
4220 620 L
4220 1700 L
620 1700 L
closepath SGR
%
% X axis: large tics - residual frame
%
L10
GSN 1074 620 M 0  54 rL SGR
GSN 1074 1700 M 0 -54 rL SGR
GSN 1572 620 M 0  54 rL SGR
GSN 1572 1700 M 0 -54 rL SGR
GSN 2071 620 M 0  54 rL SGR
GSN 2071 1700 M 0 -54 rL SGR
GSN 2570 620 M 0  54 rL SGR
GSN 2570 1700 M 0 -54 rL SGR
GSN 3068 620 M 0  54 rL SGR
GSN 3068 1700 M 0 -54 rL SGR
GSN 3567 620 M 0  54 rL SGR
GSN 3567 1700 M 0 -54 rL SGR
GSN 4066 620 M 0  54 rL SGR
GSN 4066 1700 M 0 -54 rL SGR
%
% X axis: small tics - residual frame
%
L5
GSN 725 620 M 0  36 rL SGR
GSN 725 1700 M 0 -36 rL SGR
GSN 813 620 M 0  36 rL SGR
GSN 813 1700 M 0 -36 rL SGR
GSN 875 620 M 0  36 rL SGR
GSN 875 1700 M 0 -36 rL SGR
GSN 924 620 M 0  36 rL SGR
GSN 924 1700 M 0 -36 rL SGR
GSN 963 620 M 0  36 rL SGR
GSN 963 1700 M 0 -36 rL SGR
GSN 996 620 M 0  36 rL SGR
GSN 996 1700 M 0 -36 rL SGR
GSN 1025 620 M 0  36 rL SGR
GSN 1025 1700 M 0 -36 rL SGR
GSN 1051 620 M 0  36 rL SGR
GSN 1051 1700 M 0 -36 rL SGR
GSN 1224 620 M 0  36 rL SGR
GSN 1224 1700 M 0 -36 rL SGR
GSN 1312 620 M 0  36 rL SGR
GSN 1312 1700 M 0 -36 rL SGR
GSN 1374 620 M 0  36 rL SGR
GSN 1374 1700 M 0 -36 rL SGR
GSN 1422 620 M 0  36 rL SGR
GSN 1422 1700 M 0 -36 rL SGR
GSN 1462 620 M 0  36 rL SGR
GSN 1462 1700 M 0 -36 rL SGR
GSN 1495 620 M 0  36 rL SGR
GSN 1495 1700 M 0 -36 rL SGR
GSN 1524 620 M 0  36 rL SGR
GSN 1524 1700 M 0 -36 rL SGR
GSN 1550 620 M 0  36 rL SGR
GSN 1550 1700 M 0 -36 rL SGR
GSN 1722 620 M 0  36 rL SGR
GSN 1722 1700 M 0 -36 rL SGR
GSN 1810 620 M 0  36 rL SGR
GSN 1810 1700 M 0 -36 rL SGR
GSN 1873 620 M 0  36 rL SGR
GSN 1873 1700 M 0 -36 rL SGR
GSN 1921 620 M 0  36 rL SGR
GSN 1921 1700 M 0 -36 rL SGR
GSN 1960 620 M 0  36 rL SGR
GSN 1960 1700 M 0 -36 rL SGR
GSN 1994 620 M 0  36 rL SGR
GSN 1994 1700 M 0 -36 rL SGR
GSN 2023 620 M 0  36 rL SGR
GSN 2023 1700 M 0 -36 rL SGR
GSN 2048 620 M 0  36 rL SGR
GSN 2048 1700 M 0 -36 rL SGR
GSN 2221 620 M 0  36 rL SGR
GSN 2221 1700 M 0 -36 rL SGR
GSN 2309 620 M 0  36 rL SGR
GSN 2309 1700 M 0 -36 rL SGR
GSN 2371 620 M 0  36 rL SGR
GSN 2371 1700 M 0 -36 rL SGR
GSN 2420 620 M 0  36 rL SGR
GSN 2420 1700 M 0 -36 rL SGR
GSN 2459 620 M 0  36 rL SGR
GSN 2459 1700 M 0 -36 rL SGR
GSN 2492 620 M 0  36 rL SGR
GSN 2492 1700 M 0 -36 rL SGR
GSN 2521 620 M 0  36 rL SGR
GSN 2521 1700 M 0 -36 rL SGR
GSN 2547 620 M 0  36 rL SGR
GSN 2547 1700 M 0 -36 rL SGR
GSN 2720 620 M 0  36 rL SGR
GSN 2720 1700 M 0 -36 rL SGR
GSN 2808 620 M 0  36 rL SGR
GSN 2808 1700 M 0 -36 rL SGR
GSN 2870 620 M 0  36 rL SGR
GSN 2870 1700 M 0 -36 rL SGR
GSN 2918 620 M 0  36 rL SGR
GSN 2918 1700 M 0 -36 rL SGR
GSN 2958 620 M 0  36 rL SGR
GSN 2958 1700 M 0 -36 rL SGR
GSN 2991 620 M 0  36 rL SGR
GSN 2991 1700 M 0 -36 rL SGR
GSN 3020 620 M 0  36 rL SGR
GSN 3020 1700 M 0 -36 rL SGR
GSN 3045 620 M 0  36 rL SGR
GSN 3045 1700 M 0 -36 rL SGR
GSN 3218 620 M 0  36 rL SGR
GSN 3218 1700 M 0 -36 rL SGR
GSN 3306 620 M 0  36 rL SGR
GSN 3306 1700 M 0 -36 rL SGR
GSN 3368 620 M 0  36 rL SGR
GSN 3368 1700 M 0 -36 rL SGR
GSN 3417 620 M 0  36 rL SGR
GSN 3417 1700 M 0 -36 rL SGR
GSN 3456 620 M 0  36 rL SGR
GSN 3456 1700 M 0 -36 rL SGR
GSN 3490 620 M 0  36 rL SGR
GSN 3490 1700 M 0 -36 rL SGR
GSN 3519 620 M 0  36 rL SGR
GSN 3519 1700 M 0 -36 rL SGR
GSN 3544 620 M 0  36 rL SGR
GSN 3544 1700 M 0 -36 rL SGR
GSN 3717 620 M 0  36 rL SGR
GSN 3717 1700 M 0 -36 rL SGR
GSN 3805 620 M 0  36 rL SGR
GSN 3805 1700 M 0 -36 rL SGR
GSN 3867 620 M 0  36 rL SGR
GSN 3867 1700 M 0 -36 rL SGR
GSN 3915 620 M 0  36 rL SGR
GSN 3915 1700 M 0 -36 rL SGR
GSN 3955 620 M 0  36 rL SGR
GSN 3955 1700 M 0 -36 rL SGR
GSN 3988 620 M 0  36 rL SGR
GSN 3988 1700 M 0 -36 rL SGR
GSN 4017 620 M 0  36 rL SGR
GSN 4017 1700 M 0 -36 rL SGR
GSN 4043 620 M 0  36 rL SGR
GSN 4043 1700 M 0 -36 rL SGR
GSN 4216 620 M 0  36 rL SGR
GSN 4216 1700 M 0 -36 rL SGR
%
% Y axis: large tics - residual frame
%
L10
GSN 620 752 M 54 0 rL SGR
GSN 4220 752 M -54 0 rL SGR
helvS (-0.02) 560 752 ylabelresid
GSN 620 975 M 54 0 rL SGR
GSN 4220 975 M -54 0 rL SGR
helvS (-0.01) 560 975 ylabelresid
GSN 620 1198 M 54 0 rL SGR
GSN 4220 1198 M -54 0 rL SGR
helvS (0) 560 1198 ylabelresid
GSN 620 1421 M 54 0 rL SGR
GSN 4220 1421 M -54 0 rL SGR
helvS (0.01) 560 1421 ylabelresid
GSN 620 1645 M 54 0 rL SGR
GSN 4220 1645 M -54 0 rL SGR
helvS (0.02) 560 1645 ylabelresid

%
% X axis - residual panel
%
GSN L5 620 1198 M 4220 1198 L SDA G50 SGR

end
showpage
%%Trailer
%%EOF
